{"id":"229244010425617_390421650974518","type":"status","from":{"id":"100001565734502","name":"Cuong Nguyen"},"message":"Mình đang cần tìm một lớp học tiếng Nhật for beginer tại Hà Nội, địa điểm trong quận Hai Bà Trưng, Đống Đa, Hoàn Kiếm (giá cả<1 củ), mình học để lấy phương pháp thôi cũng không cần gấp (gần trường Bách Khoa càng tốt), bạn nào biết tư vấn giúp mình nhé, Thanks group!!!","created_time":"2012-02-14T00:32:40+0000","updated_time":"2012-02-19T12:37:34+0000","comments":{"data":{"390478014302215":{"id":"390478014302215","from":{"id":"100003186413787","name":"HiEn Thuc PK"},"message":"Ko pjt, mik học tại gja. P ra fiá đh ngoại ngữ ý. Ckỗ đó hoc cũg đk. Hp là 600k 1 khoá.","can_remove":false,"created_time":"2012-02-14T01:59:39+0000","like_count":1,"user_likes":false},"390495927633757":{"id":"390495927633757","from":{"id":"100001565734502","name":"Cuong Nguyen"},"message":"@HiEn Thuc PK, thanks cậu nhưng chỗ đấy xa nhà tớ quá:D","can_remove":false,"created_time":"2012-02-14T02:29:27+0000","like_count":0,"user_likes":false},"394532293896787":{"id":"394532293896787","from":{"id":"100003257365738","name":"Nguyenhuu Quang"},"message":"trường Bách khoa có 1 trung tâm dạy tiếng Nhật khá tốt b ơi. b ra đó học nhé. còn giá cả thì m không đucợ rõ lắm.","can_remove":false,"created_time":"2012-02-19T02:53:37+0000","like_count":1,"user_likes":false},"394533103896706":{"id":"394533103896706","from":{"id":"100003257365738","name":"Nguyenhuu Quang"},"message":"còn nếu b thích rẻ thì ra trung tâm tiếng nhật Trường Minh ( 386 lạc long quân, chùa tảo sách), học phí gần như bằng 0, 200k cho 3 tháng bắt đầu, 300k cho 3 tháng tiếp theo","can_remove":false,"created_time":"2012-02-19T02:54:49+0000","like_count":1,"user_likes":false},"394776950538988":{"id":"394776950538988","from":{"id":"100001565734502","name":"Cuong Nguyen"},"message":"Nguyenhuu Quang Thanks bạn, bạn có biết liên hệ vs trung tâm ở Bách Khoa như thế nào không, ở Lạc Long Quân xa quá mình không đi được=))","message_tags":[{"id":"100003257365738","name":"Nguyenhuu Quang","type":"user","offset":0,"length":15}],"can_remove":false,"created_time":"2012-02-19T11:52:54+0000","like_count":0,"user_likes":false},"394800193869997":{"id":"394800193869997","from":{"id":"100003257365738","name":"Nguyenhuu Quang"},"message":"http://itp.hut.edu.vn/home/cac-khoa-hoc-ngoai-ngu.html bạn vào đây lấy số điện thoại nhé","can_remove":false,"created_time":"2012-02-19T12:37:34+0000","like_count":1,"user_likes":false}},"paging":{"cursors":{"after":"MzkwNDc4MDE0MzAyMjE1","before":"MzkwNDc4MDE0MzAyMjE1"},"next":"https://graph.facebook.com/229244010425617_390421650974518/comments?limit=1&summary=1&after=MzkwNDc4MDE0MzAyMjE1"},"summary":{"order":"chronological","total_count":6}},"likes":{"data":[]}}