{"id":"229244010425617_534214966595185","type":"status","from":{"id":"100001458099624","name":"Kham Pha"},"message":"Tiếng Nhật mỗi ngày\n\nBài 3: ～にすぎない\n　Nào bạn đã sẵn sàng cho bài học ngày hôm nay chưa? Nếu chưa thì hãy đi ăn sáng đi nhé :) さぁ、はじめましょう！\n\n過ぎる　có nghĩa là “quá, hơn”. Ví dụ nói 12時を過ぎた tức là đã quá 12 giờ rồi . Vậy thì すぎない có nghĩa là “không quá”. Cách dùng cũng gần như cách hiểu, chúng ta dùng ～にすぎない　nhằm ám chỉ một cái gì đó có ý nghĩa/ giá trị không quá một mức độ, một cái gì đó. Ví dụ:\n\n人生は夢にすぎない。長生きよりも、むしろ素晴らしい人生のべきだろうか。\nCuộc đời chả khác gì một giấc mơ. Sống lâu đâu bằng sống đẹp. (nghe vần quá ta :D)\nお前、負け犬にすぎない。\nMày chả hơn gì một con cẩu bại trận.\n\nCấu trúc tương đương trong tiếng Anh: no more than.\n\nChúc buổi sáng tốt lành :)","created_time":"2012-09-18T00:53:40+0000","updated_time":"2012-09-18T03:58:46+0000","likes":{"data":{"100001345315262":{"id":"100001345315262","name":"Cuong Hoang"},"100003586944443":{"id":"100003586944443","name":"Đăng Lực Nguyễn"},"100001501391912":{"id":"100001501391912","name":"Lai Hoang Duc"},"100001007000967":{"id":"100001007000967","name":"Bibi Nguyễn"},"100000240706191":{"id":"100000240706191","name":"U' Bồng Bột"},"100001260645727":{"id":"100001260645727","name":"Ngo Duy Son"},"1214116060":{"id":"1214116060","name":"Trần Xuân Đức"},"100003186413787":{"id":"100003186413787","name":"HiEn Thuc PK"},"100003822395163":{"id":"100003822395163","name":"Takeda Shingen"},"100000381394367":{"id":"100000381394367","name":"Thành Nguyễn"},"100000895978137":{"id":"100000895978137","name":"Vũ Thắng"}},"paging":{"cursors":{"after":"MTAwMDAxMzQ1MzE1MjYy","before":"MTAwMDAxMzQ1MzE1MjYy"},"next":"https://graph.facebook.com/229244010425617_534214966595185/likes?limit=1&summary=1&after=MTAwMDAxMzQ1MzE1MjYy"},"summary":{"total_count":11}},"comments":{"data":{"534250713258277":{"id":"534250713258277","from":{"id":"100001260645727","name":"Ngo Duy Son"},"message":"Anh Kham Pha cho em xin đường link trang này với!","message_tags":[{"id":"100001458099624","name":"Kham Pha","type":"user","offset":4,"length":8}],"can_remove":false,"created_time":"2012-09-18T02:50:57+0000","like_count":0,"user_likes":false},"534260563257292":{"id":"534260563257292","from":{"id":"100001458099624","name":"Kham Pha"},"message":"Trang nào? Trang dạy cái này thì ko có đâu. Em tự viết mà :D","can_remove":false,"created_time":"2012-09-18T03:25:08+0000","like_count":0,"user_likes":false},"534261806590501":{"id":"534261806590501","from":{"id":"100001458099624","name":"Kham Pha"},"message":"Muốn xem tiếp thì chờ đến mai. Vội làm gì, học nhiều quên hết thôi","can_remove":false,"created_time":"2012-09-18T03:29:08+0000","like_count":0,"user_likes":false},"534269666589715":{"id":"534269666589715","from":{"id":"100001260645727","name":"Ngo Duy Son"},"message":"Vãi anh.","can_remove":false,"created_time":"2012-09-18T03:58:46+0000","like_count":0,"user_likes":false}},"paging":{"cursors":{"after":"NTM0MjUwNzEzMjU4Mjc3","before":"NTM0MjUwNzEzMjU4Mjc3"},"next":"https://graph.facebook.com/229244010425617_534214966595185/comments?limit=1&summary=1&after=NTM0MjUwNzEzMjU4Mjc3"},"summary":{"order":"chronological","total_count":4}}}