{"id":"229244010425617_535257453157603","type":"status","from":{"id":"100001912324973","name":"Totto Chan"},"message":"nhà mình có biết chỗ học tiếng nhật hay gần khu cầu giấy ko?? bảo mình với","created_time":"2012-09-20T14:29:28+0000","updated_time":"2012-11-21T03:03:24+0000","likes":{"data":{"100001458099624":{"id":"100001458099624","name":"Kham Pha"}},"paging":{"cursors":{"after":"MTAwMDAxNDU4MDk5NjI0","before":"MTAwMDAxNDU4MDk5NjI0"}},"summary":{"total_count":1}},"comments":{"data":{"535257976490884":{"id":"535257976490884","from":{"id":"100000198219367","name":"Chang Jiang"},"message":"sơ cấp, trung cấp hay cao cấp ? :-?","can_remove":false,"created_time":"2012-09-20T14:30:57+0000","like_count":0,"user_likes":false},"535267543156594":{"id":"535267543156594","from":{"id":"100001912324973","name":"Totto Chan"},"message":"t học hết bài 50 minano nihongo rồi, muốn học tiếp lên","can_remove":false,"created_time":"2012-09-20T14:54:14+0000","like_count":0,"user_likes":false},"535268089823206":{"id":"535268089823206","from":{"id":"100000073848158","name":"Hoàng Đắc"},"message":"a cô bé này hôm trước bắt gặp đi với thằng Bình Bính Boong. Bảo nó dạy cho em ạ, free luôn :))","message_tags":[{"id":"100001007000967","name":"Bình Bính Boong","type":"user","offset":43,"length":15}],"can_remove":false,"created_time":"2012-09-20T14:56:01+0000","like_count":1,"user_likes":false},"535268483156500":{"id":"535268483156500","from":{"id":"100000198219367","name":"Chang Jiang"},"message":"đúng rồi, bảoBình Bính Boong nó ôn N3 cho ;))","message_tags":[{"id":"100001007000967","name":"Bình Bính Boong","type":"user","offset":13,"length":15}],"can_remove":false,"created_time":"2012-09-20T14:57:17+0000","like_count":1,"user_likes":false},"535268769823138":{"id":"535268769823138","from":{"id":"100001912324973","name":"Totto Chan"},"message":"ôi giời ơi, a Đắc ơi, a ấy mà dậy thì chỉ dốt đi thôi","can_remove":false,"created_time":"2012-09-20T14:58:00+0000","like_count":0,"user_likes":false},"535269549823060":{"id":"535269549823060","from":{"id":"100000073848158","name":"Hoàng Đắc"},"message":"ủa sao biết tên anh nhanh vậy, nó ko dạy để a dạy cho :))","can_remove":false,"created_time":"2012-09-20T15:01:04+0000","like_count":0,"user_likes":false},"535269606489721":{"id":"535269606489721","from":{"id":"100000198219367","name":"Chang Jiang"},"message":"trôngBình Bính Boong thế thôi nhưng pass N3 rồi đấy. đúng ko nhỉ ;))","message_tags":[{"id":"100001007000967","name":"Bình Bính Boong","type":"user","offset":5,"length":15}],"can_remove":false,"created_time":"2012-09-20T15:01:19+0000","like_count":0,"user_likes":false},"535269953156353":{"id":"535269953156353","from":{"id":"100000073848158","name":"Hoàng Đắc"},"message":"đừng động vào nỗi đau của nó Chang Jiang =))","message_tags":[{"id":"100000198219367","name":"Chang Jiang","type":"user","offset":29,"length":11}],"can_remove":false,"created_time":"2012-09-20T15:02:23+0000","like_count":0,"user_likes":false},"535270996489582":{"id":"535270996489582","from":{"id":"100000198219367","name":"Chang Jiang"},"message":"ơ thế tạch à ? =))","can_remove":false,"created_time":"2012-09-20T15:05:50+0000","like_count":0,"user_likes":false},"535286829821332":{"id":"535286829821332","from":{"id":"100001007000967","name":"Bibi Nguyễn"},"message":"cố gắng cứ 6-7 tháng đi thi 1 lần  ;))","can_remove":false,"created_time":"2012-09-20T15:56:23+0000","like_count":3,"user_likes":false},"563065053710176":{"id":"563065053710176","from":{"id":"100004307263073","name":"Nhật Ngữ Lapis"},"message":"b thử tham khảo các khóa học tại http://truongnhatngulapis.com/ nhé :)","can_remove":false,"created_time":"2012-11-21T03:03:24+0000","like_count":1,"user_likes":false}},"paging":{"cursors":{"after":"NTM1MjU3OTc2NDkwODg0","before":"NTM1MjU3OTc2NDkwODg0"},"next":"https://graph.facebook.com/229244010425617_535257453157603/comments?limit=1&summary=1&after=NTM1MjU3OTc2NDkwODg0"},"summary":{"order":"chronological","total_count":11}}}