{"id":"229244010425617_535614723121876","type":"status","from":{"id":"100003264330800","name":"Tiểu Mộc"},"message":"Các bạn cho m hỏi chút giờ m đang muốn ôn thi Ielts nhưng lại có cơ hội học tiếng nhật quá tốt, m định học cả hai thứ nhưng ko biết có kham nổi không. Cả nhà cho m ý kiến với, đã ai thử học như vậy chưa?","created_time":"2012-09-21T12:32:53+0000","updated_time":"2012-09-24T08:16:56+0000","likes":{"data":{"100001458099624":{"id":"100001458099624","name":"Kham Pha"}},"paging":{"cursors":{"after":"MTAwMDAxNDU4MDk5NjI0","before":"MTAwMDAxNDU4MDk5NjI0"}},"summary":{"total_count":1}},"comments":{"data":{"535614879788527":{"id":"535614879788527","from":{"id":"100001891279398","name":"Chido Kido"},"message":"no","can_remove":false,"created_time":"2012-09-21T12:33:27+0000","like_count":0,"user_likes":false},"535615076455174":{"id":"535615076455174","from":{"id":"100003264330800","name":"Tiểu Mộc"},"message":"là sao hả bạn","can_remove":false,"created_time":"2012-09-21T12:33:57+0000","like_count":0,"user_likes":false},"535615719788443":{"id":"535615719788443","from":{"id":"100001891279398","name":"Chido Kido"},"message":"nen tap trung vao Ielts da, con tieng nhat con nhiu tg chu hoc lien thi e rang.... tru khi ban thuc su gioi","can_remove":false,"created_time":"2012-09-21T12:35:36+0000","like_count":0,"user_likes":false},"535616129788402":{"id":"535616129788402","from":{"id":"100003264330800","name":"Tiểu Mộc"},"message":"Thật sự là giờ m đang có cơ hội quá tốt vs t nhật lại thích nữa, còn ielts thì học như bắt tội ;((","can_remove":false,"created_time":"2012-09-21T12:36:55+0000","like_count":0,"user_likes":false},"535616659788349":{"id":"535616659788349","from":{"id":"100001501391912","name":"Lai Hoang Duc"},"message":"rất khó để nói là nên hay không nên, hãy nhìn vào hoàn cảnh của bạn, nếu là tôi tôi sẽ học cả 2, vì nếu bạn thực sự muốn chắc chắn sẽ có cách","can_remove":false,"created_time":"2012-09-21T12:38:24+0000","like_count":2,"user_likes":false},"535616783121670":{"id":"535616783121670","from":{"id":"100001891279398","name":"Chido Kido"},"message":"nhung hoc ielt la bat buoc con tieng nhat chi la so thich thui dung hok","can_remove":false,"created_time":"2012-09-21T12:38:43+0000","like_count":0,"user_likes":false},"535617223121626":{"id":"535617223121626","from":{"id":"100003264330800","name":"Tiểu Mộc"},"message":"kể ra m hơi tham vì Ielts chắc cố cũng chỉ 6.5 thôi chật vật nên muốn thêm cái bằng t nhật. Lại sợ học ngoại ngữ về sau càng khó","can_remove":false,"created_time":"2012-09-21T12:40:07+0000","like_count":0,"user_likes":false},"535618279788187":{"id":"535618279788187","from":{"id":"100003264330800","name":"Tiểu Mộc"},"message":"người biết mấy ngoại ngữ chắc sau khi học xong thứ này mới đến thứ khác, ko ai học cả đôi sao :( cho m theo vs","can_remove":false,"created_time":"2012-09-21T12:43:50+0000","like_count":0,"user_likes":false},"535627586453923":{"id":"535627586453923","from":{"id":"100001458099624","name":"Kham Pha"},"message":"Sao lại ko thể? Thực tế là học cả 2 cùng lúc sẽ giỏi nhanh gấp rưỡi chỉ học 1 cái.","can_remove":false,"created_time":"2012-09-21T13:06:57+0000","like_count":2,"user_likes":false},"535641593119189":{"id":"535641593119189","from":{"id":"100003264330800","name":"Tiểu Mộc"},"message":"Bạn Kham Pha nói thật chứ ^^","message_tags":[{"id":"100001458099624","name":"Kham Pha","type":"user","offset":4,"length":8}],"can_remove":false,"created_time":"2012-09-21T13:45:04+0000","like_count":0,"user_likes":false},"535644249785590":{"id":"535644249785590","from":{"id":"100003264330800","name":"Tiểu Mộc"},"message":"vậy xin đc chỉ giáo :)))))))","can_remove":false,"created_time":"2012-09-21T13:49:27+0000","like_count":0,"user_likes":false},"535653343118014":{"id":"535653343118014","from":{"id":"100001458099624","name":"Kham Pha"},"message":"Thật nhưng cũng tuỳ người thôi","can_remove":false,"created_time":"2012-09-21T14:09:38+0000","like_count":0,"user_likes":false},"535656929784322":{"id":"535656929784322","from":{"id":"100003264330800","name":"Tiểu Mộc"},"message":"Có người làm đc là có chỗ để tin tưởng rồi ^^","can_remove":false,"created_time":"2012-09-21T14:19:18+0000","like_count":0,"user_likes":false},"535657343117614":{"id":"535657343117614","from":{"id":"100003264330800","name":"Tiểu Mộc"},"message":"Cảm ơn ý kiến của mọi người","can_remove":false,"created_time":"2012-09-21T14:20:49+0000","like_count":0,"user_likes":false},"536784016338280":{"id":"536784016338280","from":{"id":"100000381394367","name":"Thành Nguyễn"},"message":"Muốn đào một cái hố sâu 10 m thì miệng hố không thể nào chỉ rộng 1cm được, muốn đào hố sâu 10 m tối thiểu miệng hố đường kính cũng phải rộng 1 m.  Khi bạn muốn đào sâu hơn thì phải đào rộng ra. Học ngôn ngữ cũng thế, nếu chỉ biết một ngôn ngữ duy nhất thì sẽ khó mà giỏi được vì để giỏi cần hiểu bản chất của ngôn ngữ nói chung, có học qua nhiều ngôn ngữ mới có sự so sánh và từ đó hiểu sâu về từng ngôn ngữ.","can_remove":false,"created_time":"2012-09-24T02:18:13+0000","like_count":1,"user_likes":false},"536784633004885":{"id":"536784633004885","from":{"id":"100000381394367","name":"Thành Nguyễn"},"message":"Càng học nhiều ngôn ngữ bạn sẽ càng giỏi lên chứ ko sợ loạn. Tuy nhiên để học được như thế trước tiên cũng phải đạt được 1 trình độ basic nào đó rồi. Thế nên việc này cũng tùy thuộc bạn đang ở level nào. Hãy căn cứ vào trình độ của mình mà quyết định cách học cho phù hợp.","can_remove":false,"created_time":"2012-09-24T02:19:52+0000","like_count":0,"user_likes":false},"536889032994445":{"id":"536889032994445","from":{"id":"100003264330800","name":"Tiểu Mộc"},"message":"Cảm ơn nhiều , cơ hội tới m cứ nắm lấy đã","can_remove":false,"created_time":"2012-09-24T08:16:56+0000","like_count":0,"user_likes":false}},"paging":{"cursors":{"after":"NTM1NjE0ODc5Nzg4NTI3","before":"NTM1NjE0ODc5Nzg4NTI3"},"next":"https://graph.facebook.com/229244010425617_535614723121876/comments?limit=1&summary=1&after=NTM1NjE0ODc5Nzg4NTI3"},"summary":{"order":"chronological","total_count":17}}}