{"id":"229244010425617_538924632790885","type":"status","from":{"id":"100001458099624","name":"Kham Pha"},"message":"Bài 13: \n\nChào các bạn, chán học ngữ pháp chưa? Hôm nay chúng ta sẽ mày mò một chút với từ vựng nhé. Chúng ta sẽ cùng tìm hiểu một số tiền tố, hậu tố thường gặp trong tiếng Nhật. \n\n士(SĨ)：Dùng để chỉ những người có 1 tư cách để làm việc gì đó, có giấy phép hành nghề. Ví dụ:\n弁護士（べんごし）:luật sư, lawyer.\n会計士（かいけいし）:kế toán, accountant.\n税理士（ぜいりし）:người thu thuế,tex accountant.\n飛行士（ひこうし）:phi công, pilot.\n\n者(GIẢ)：biết nói thế nào bây giờ????\n科学者（かがくしゃ）:nhà khoa học, scientist.\n技術者（ぎじゅつしゃ）:kĩ sư, engineer.\n経営者（けいえいしゃ）:doanh nhân, businessman.\n原作者（げんさくしゃ）:nguyên tác kịch bản, original writer.\n身障者（しんしょうしゃ）:người khuyết tật、handicapped.\n労働者（ろうどうしゃ）:người lao động, laborer.\n\n家(GIA)：dùng cho những người có chuyên môn ở lĩnh vực nào đó và khác với 者, chuyên môn này cụ thể hơn chứ ko chung chung. Ví dụ:\n\n芸術家（げいじゅつか）:nghệ sĩ, artist.\n小説家（しょうせつか）:nhà viết tiểu thuyết, novelist.\n政治家（せいじか）:chính trị gia, politician.\n専門家（せんもんか）:chuyên gia, expert.\n実業家（じつぎょうか）: người kinh doanh tự lập,businessman.\n\nCòn rất nhiều những từ loại này nhưng hôm nay tạm thời thế đã. Chúc các bạn một cuối tuần vui vẻ.","created_time":"2012-09-28T23:38:38+0000","updated_time":"2012-09-29T15:59:36+0000","likes":{"data":{"100001007000967":{"id":"100001007000967","name":"Bibi Nguyễn"},"100003822395163":{"id":"100003822395163","name":"Takeda Shingen"},"100001508739620":{"id":"100001508739620","name":"Lê Ngọc Hoàn"},"100000895978137":{"id":"100000895978137","name":"Vũ Thắng"},"559823806":{"id":"559823806","name":"Tran Bach"},"100003886238196":{"id":"100003886238196","name":"Ken JuLee"},"100001260645727":{"id":"100001260645727","name":"Ngo Duy Son"}},"paging":{"cursors":{"after":"MTAwMDAxMDA3MDAwOTY3","before":"MTAwMDAxMDA3MDAwOTY3"},"next":"https://graph.facebook.com/229244010425617_538924632790885/likes?limit=1&summary=1&after=MTAwMDAxMDA3MDAwOTY3"},"summary":{"total_count":7}},"comments":{"data":{"538985412784807":{"id":"538985412784807","from":{"id":"100001810450026","name":"Nguyễn Đức Phú"},"message":"Bài này hôm qua vừa học mà:)). Ôn kĩ vào, đến lớp cho tao chép=))","can_remove":false,"created_time":"2012-09-29T03:15:45+0000","like_count":1,"user_likes":false},"539020282781320":{"id":"539020282781320","from":{"id":"100003822395163","name":"Takeda Shingen"},"message":"hay quá, mình ủng hộ chuyên mục này của bạn đó, bạn cố gắng post nhiều nhiều mấy bài loại này nữa nha. Học kiểu này dễ nhớ từ hơn nhiều","can_remove":false,"created_time":"2012-09-29T05:33:12+0000","like_count":0,"user_likes":false},"539100849439930":{"id":"539100849439930","from":{"id":"100001508739620","name":"Lê Ngọc Hoàn"},"message":"Đấy, Nguyễn Đức Phú học tập Khám đi :))","message_tags":[{"id":"100001810450026","name":"Nguyễn Đức Phú","type":"user","offset":5,"length":14}],"can_remove":false,"created_time":"2012-09-29T11:45:04+0000","like_count":0,"user_likes":false},"539183802764968":{"id":"539183802764968","from":{"id":"100000381394367","name":"Thành Nguyễn"},"message":"Nói thêm một chút về 2 hậu tố  者 ( giả ) và gia (家) để mọi người dễ nhận biết hơn. Giả là một tiền tố chỉ người ( person ) hoặc người thực hiện một việc nào đó ( doer ) nó nhấn mạnh đến tính chủ thể của người thực hiện cái công việc mà nó bổ nghĩa. Câu đầu tiên của Binh pháp tôn tử là \"binh giả quỷ đạo dã\" ( Nói về việc của người dùng binh thì bản chất nó là sự lừa dối ), ở đây binh giả là nói về những người mà họ là chủ thể của việc điều động và sự dụng quân đội ( binh ). Hay như trong thơ của Nguyễn Bỉnh Khiêm có 1 câu Cổ lai nhân giả tư vô địch ( xưa nay người có nhân nghĩa là kẻ vô địch ) . Nhân giả ở đây là chủ thể của đặc tính nhân nghĩa.","can_remove":false,"created_time":"2012-09-29T15:56:24+0000","like_count":1,"user_likes":false},"539184772764871":{"id":"539184772764871","from":{"id":"100000381394367","name":"Thành Nguyễn"},"message":"Còn về gia thì sao? the suffix ka (家 -ka?), when added to the name of certain activities, indicates an expert or professional in that field. Khi nó thêm vào các từ chỉ nghề nghiệp thành lập một từ chỉ người thì người đó chọn cái công việc đó làm công việc chuyên môn và sống ( kiếm tiền ) nhơ vào công việc đó chứ phải công việc khác.","can_remove":false,"created_time":"2012-09-29T15:59:10+0000","like_count":1,"user_likes":false},"539184869431528":{"id":"539184869431528","from":{"id":"100000381394367","name":"Thành Nguyễn"},"message":"Gia có nghĩa cụ thể và tầm mức chuyên sâu hơn so với giả","can_remove":false,"created_time":"2012-09-29T15:59:36+0000","like_count":1,"user_likes":false}},"paging":{"cursors":{"after":"NTM4OTg1NDEyNzg0ODA3","before":"NTM4OTg1NDEyNzg0ODA3"},"next":"https://graph.facebook.com/229244010425617_538924632790885/comments?limit=1&summary=1&after=NTM4OTg1NDEyNzg0ODA3"},"summary":{"order":"chronological","total_count":6}}}