{"id":"229244010425617_541243395892342","type":"photo","object_id":"398954780148133","picture":"https://fbcdn-photos-c-a.akamaihd.net/hphotos-ak-ash2/t1.0-0/292663_398954780148133_2066782546_s.jpg","link":"https://www.facebook.com/photo.php?fbid=398954780148133&set=a.535758819801061.1073741826.344129092297369&type=1","from":{"id":"100003447985900","name":"Little Coffeecup"},"message":"Các tác phẩm của Haruki Murakami, Yoshimoto Banana, Ekuni Kaori ^^\nHiệu sách KaS'sBooks - 23 Trần Hữu Tước (bờ hồ Xã Đàn)","created_time":"2012-10-04T09:06:00+0000","updated_time":"2012-10-09T08:49:29+0000","likes":{"data":{"100000280776405":{"id":"100000280776405","name":"Viet Nguyen Thanh"},"100001663011355":{"id":"100001663011355","name":"Ông Cụ Non"},"100001458099624":{"id":"100001458099624","name":"Kham Pha"}},"paging":{"cursors":{"after":"MTAwMDAwMjgwNzc2NDA1","before":"MTAwMDAwMjgwNzc2NDA1"},"next":"https://graph.facebook.com/229244010425617_541243395892342/likes?limit=1&summary=1&after=MTAwMDAwMjgwNzc2NDA1"},"summary":{"total_count":3}},"comments":{"data":{"541255379224477":{"id":"541255379224477","from":{"id":"100001458099624","name":"Kham Pha"},"message":"Ai chưa từng đọc tp của tg này thì đúng là phí. Ảnh này lấy trên mạng hay sao mà toàn là bản tiếng Nhật vậy?","can_remove":false,"created_time":"2012-10-04T09:57:38+0000","like_count":1,"user_likes":false},"541260725890609":{"id":"541260725890609","from":{"id":"100003447985900","name":"Little Coffeecup"},"message":"Úi ảnh chụp ở KaS'sBooks đấy :D","message_tags":[{"id":"344129092297369","name":"KaS'sBooks","type":"page","offset":14,"length":10}],"can_remove":false,"created_time":"2012-10-04T10:19:08+0000","like_count":0,"user_likes":false},"541558749194140":{"id":"541558749194140","from":{"id":"100000280776405","name":"Viet Nguyen Thanh"},"message":"Có sách song ngữ việt nhật chứ nhỉ ?","can_remove":false,"created_time":"2012-10-05T01:51:57+0000","like_count":1,"user_likes":false},"543502585666423":{"id":"543502585666423","from":{"id":"100003447985900","name":"Little Coffeecup"},"message":"Sách tiếng Nhật thôi Viet Nguyen Thanh ạ :) Nhưng phần lớn đều đã được dịch và xuất bản ở Việt Nam ^^","can_remove":false,"created_time":"2012-10-09T08:49:29+0000","like_count":1,"user_likes":false}},"paging":{"cursors":{"after":"NTQxMjU1Mzc5MjI0NDc3","before":"NTQxMjU1Mzc5MjI0NDc3"},"next":"https://graph.facebook.com/229244010425617_541243395892342/comments?limit=1&summary=1&after=NTQxMjU1Mzc5MjI0NDc3"},"summary":{"order":"chronological","total_count":4}}}