{"id":"229244010425617_548549361828412","type":"status","from":{"id":"100001458099624","name":"Kham Pha"},"message":"Bài 31: ～をこめて  \n\n　皆さん、今晩わ. Hôm nay các bạn có được ăn món ăn bố mẹ nấu hay nhận được điều gì đặc biệt từ người yêu không? Nếu có thì hãy trân trọng nhé, trong đó có chứa cả tình yêu thương, sự quan tâm của họ. Vì vậy để ghi nhân điều đó hôm nay chúng ta sẽ tìm hiểu cách diễn đạt mà ai đó làm một việc gì bằng việc tình cảm, yêu thương trong đó. こめて có nguồn gốc là từ 込める có nghĩa là “đặt vào”. Khi dùng với dạng ～をこめて thì có nghĩa là chủ thể của hành động đặt cái gì vào trong hành động đó. Thường là tâm tư, tình cảm của mình gửi gắm vào. Ví dụ: \n\n母は心をこめて、セーターを作ってくれる。\nMẹ tôi đã làm cho tôi cái áo này với cả trái tim mình.\n\n平和の希望をこめて、大統領に手紙を送ります。\nTôi viết thư cho tổng thống gửi gắm hi vọng về một nền hòa bình. \n\n怒りをこめて、あいつの自転車を壊してしまう。\nTrút hết tức giận, tôi phá xe nó.\n\nCấu trúc này đơn giản, rất dễ dùng phải không? Chúc các bạn luôn thường xuyên được dùng cấu trúc này . Nếu hôm nay các bạn không nhận được quà hay lời chúc mừng, đừng buồn, vì điều đó không có nghĩa không có ai yêu, quan tâm bạn, chỉ là họ chưa biết thể hiện tình cảm ấy như thế nào thôi.\n\n Chúc mừng ngày phụ nữ Việt Nam !","created_time":"2012-10-20T11:03:45+0000","updated_time":"2012-10-21T15:27:57+0000","likes":{"data":{"100003586944443":{"id":"100003586944443","name":"Đăng Lực Nguyễn"},"100000088874261":{"id":"100000088874261","name":"Trần Đức Quang"},"100000381394367":{"id":"100000381394367","name":"Thành Nguyễn"},"100001320162581":{"id":"100001320162581","name":"Sách Nguyễn"},"100000477123186":{"id":"100000477123186","name":"Đạt Mèo"},"100000895978137":{"id":"100000895978137","name":"Vũ Thắng"}},"paging":{"cursors":{"after":"MTAwMDAzNTg2OTQ0NDQz","before":"MTAwMDAzNTg2OTQ0NDQz"},"next":"https://graph.facebook.com/229244010425617_548549361828412/likes?limit=1&summary=1&after=MTAwMDAzNTg2OTQ0NDQz"},"summary":{"total_count":6}},"comments":{"data":{"549093768440638":{"id":"549093768440638","from":{"id":"100000429488401","name":"Tạ Minh Hà"},"message":"ví dụ trong 2級文法 à Kham Pha","message_tags":[{"id":"100001458099624","name":"Kham Pha","type":"user","offset":19,"length":8}],"can_remove":false,"created_time":"2012-10-21T15:27:57+0000","like_count":1,"user_likes":false}},"paging":{"cursors":{"after":"NTQ5MDkzNzY4NDQwNjM4","before":"NTQ5MDkzNzY4NDQwNjM4"}},"summary":{"order":"chronological","total_count":1}}}