{"id":"229244010425617_549373968412618","type":"video","source":"http://mp3.zing.vn/embed/bai-hat/ZWZ9Z0BO","from":{"id":"100001458099624","name":"Kham Pha"},"message":"Bài 32:　～ほど　～はない\n\n Chào các bạn, tuần mới lại bắt đầu rồi, chúng ta cùng nhau cố gắng nào. Hôm nay mình sẽ kể cho các bạn nghe một câu truyện: \n\nNgày xửa ngày xưa, có một con công được nuôi bởi gia đình giàu có, ngày ngày nó chỉ đi đi lại lại trong sân xòe lông giương cánh, việc ăn uống thì chẳng phải lo, chả thiếu gì. Con công hãnh diện tự nói với mình:  \n\n僕はきれいし、毎日の生活の中で、何も心配しないし、この世界に僕ほど幸せな人はいないかしら。\nMình vừa đẹp, cuộc sống hàng ngày cũng chả phải lo lắng gì. Trên đời người hạnh phúc như mình chắc không có.  \n\nMột con chim khác nãy giờ đậu trên cành cây gần đấy lên tiếng:\n\nそうだよね。君ほどバカな人はいないかなぁ。\nĐúng vậy đấy. Đần độn như cô thế gian này đúng là chả có ai thật. \n\nCon công nghe thấy tức tối đáp trả:\n\n“Ai đấy? Ngươi thì biết cái gì. Ngươi không đẹp như ta, không được sung sướng như ta nên ghen tức phải không. Ngươi chỉ là kẻ xấu xí lang thang không nhà không cửa, một xu không có. ”\n\n“Ừ đúng là tôi không được ăn ngon, không được chiều chuộng nhưng tôi được bay lượn bằng đôi cánh của mình, được đi khắp thế gian thấy mọi thứ, theo đuổi ước mơ, những gì tôi tin tưởng. Còn cô thì mãi chỉ là con công xinh đẹp đứng trong cái sân đầy phân mà thôi, người đẹp ạ. “\n\nNói rồi con chim bay đi, chẳng thèm nhìn lại con công một lần. \n\nhttp://mp3.zing.vn/bai-hat/Kham-Pha-Buc-Tuong/ZWZ9Z0BO.html","created_time":"2012-10-22T05:15:02+0000","updated_time":"2012-10-22T18:20:16+0000","likes":{"data":{"100002237442275":{"id":"100002237442275","name":"Nguyễn Quý Đạt"},"100003822395163":{"id":"100003822395163","name":"Takeda Shingen"},"100000429488401":{"id":"100000429488401","name":"Tạ Minh Hà"},"100000895978137":{"id":"100000895978137","name":"Vũ Thắng"},"100003586944443":{"id":"100003586944443","name":"Đăng Lực Nguyễn"},"100000641227862":{"id":"100000641227862","name":"Anh Lê"}},"paging":{"cursors":{"after":"MTAwMDAyMjM3NDQyMjc1","before":"MTAwMDAyMjM3NDQyMjc1"},"next":"https://graph.facebook.com/229244010425617_549373968412618/likes?limit=1&summary=1&after=MTAwMDAyMjM3NDQyMjc1"},"summary":{"total_count":6}},"comments":{"data":{"549374861745862":{"id":"549374861745862","from":{"id":"100000641227862","name":"Anh Lê"},"message":":)) lau lam k hoc tieng Nhat, may co anh Kham Pha nhac moi nho lai doi chut","message_tags":[{"id":"100001458099624","name":"Kham Pha","type":"user","offset":41,"length":8}],"can_remove":false,"created_time":"2012-10-22T05:19:08+0000","like_count":0,"user_likes":false},"549451388404876":{"id":"549451388404876","from":{"id":"100000198219367","name":"Chang Jiang"},"message":"đính chính lại là \"câu chuyện\" nhé ;))","can_remove":false,"created_time":"2012-10-22T10:24:09+0000","like_count":0,"user_likes":false},"549454855071196":{"id":"549454855071196","from":{"id":"100001458099624","name":"Kham Pha"},"message":"Ôi xấu hổ quá.","can_remove":false,"created_time":"2012-10-22T10:38:14+0000","like_count":0,"user_likes":false},"549649711718377":{"id":"549649711718377","from":{"id":"100000429488401","name":"Tạ Minh Hà"},"message":"Nho ngu phap qua cau chuyen :x","can_remove":false,"created_time":"2012-10-22T18:20:16+0000","like_count":0,"user_likes":false}},"paging":{"cursors":{"after":"NTQ5Mzc0ODYxNzQ1ODYy","before":"NTQ5Mzc0ODYxNzQ1ODYy"},"next":"https://graph.facebook.com/229244010425617_549373968412618/comments?limit=1&summary=1&after=NTQ5Mzc0ODYxNzQ1ODYy"},"summary":{"order":"chronological","total_count":4}}}