{"id":"229244010425617_549412258408789","type":"link","picture":"https://fbexternal-a.akamaihd.net/safe_image.php?d=AQDsnM0jZS5YrrTZ&w=154&h=154&url=http%3A%2F%2Fjpf.org.vn%2Fiwtcore%2Fuploads%2F2012%2F10%2Fthumbnail.jpg","link":"http://jpf.org.vn/2012/10/17/lien-hoan-phim-nhat-ban-hai-2012/","from":{"id":"100001458099624","name":"Kham Pha"},"message":"Trung tâm Giao lưu Văn hóa Nhật Bản tại Việt Nam hân hạnh được tổ chức Liên hoan phim Nhật Bản: Hài 2012 từ 25.10. tới 1.12.2012 tại Hà Nội, Phan Thiết và TPHCM.\n\n \n\n■ Thông tin về liên hoan phim:\n\n \n\nHà Nội\n\n \n\n[Thời gian chiếu phim]  \n \n\nThứ Năm 25.10. – Chủ Nhật 4.11.2012\n\n[Địa điểm chiếu phim]   \n \n\nTrung tâm chiếu phim quốc gia (87 Láng Hạ, Ba Đình, Hà Nội)\n\n[Phát vé phim]\n \n\nBắt đầu từ 14:00 ngày Thứ Sáu 19.10.2012\n\nTrung tâm Giao lưu Văn hóa Nhật Bản tại Việt Nam27 Quang Trung, Hoàn Kiếm, Hà Nội\n\n[Giờ mở cửa: 09:30 -12:00/13:30-17:30 các ngày trong tuần,\n\n09:30-11:30/12:30-18:00 vào Thứ Bảy, đóng cửa ngày Chủ Nhật]\n               \n\nPhan Thiết\n\n[Thời gian chiếu phim]  \n \n\nThứ Sáu 16. – Chủ Nhật 18.11.2012\n\n[Địa điểm chiếu phim]\n \n\nRạp 19/4 (số 30 Nguyên Du, TP Phan Thiết)\n\n[Phát vé phim] \n \n\nVào cửa tự do, không cần vé\n                  \n\nTP Hồ Chí Minh\n\n \n\n[Thời gian chiếu phim]\n \n\nThứ Bảy 24.11. – Thứ Bảy 1.12.2012\n\n[Địa điểm chiếu phim]   \n \n\nRạp Đống Đa (890 Trần Hưng Đạo, phường 7, Quận 5, TPHCM)\n\n[Phát vé phim]                 \n \n\nVào cửa tự do, không cần vé\n\nChi tiết mời tham khảo tại:\n\nhttp://jpf.org.vn/2012/10/17/lien-hoan-phim-nhat-ban-hai-2012/\n\nRất cám ơn sự quan tâm của quý vị.\n\n \n\n-----------------------------------------------\n\nThe Japan Foundation Center for Cultural Exchange in Vietnam shares the delight of hosting Japanese Film Festival: Comedy 2012 from 25 October – 1 December 2012 in Hanoi, Ho Chi Minh City and Phan Thiet City.\n\n \n\n■ Film Festival Information:\n\n \n\nHanoi\n \n\n[Duration]                         \n \n\nThursday 25 October – Sunday 4 November 2012\n\n[Venue]                              \n \n\nNational Cinema Center (87 Lang Ha, Ba Dinh, Hanoi)\n\n[Ticket distribution]       \n \n\nStarts from 14:00 on Friday 19 October 2012\n \n\nThe Japan Foundation Center for Cultural Exchange in Vietnam\n\n27 Quang Trung, Hoan Kiem, Hanoi, Vietnam\n\n[Opening hours: 09:30 -12:00/13:30-17:30 on weekdays,\n\n09:30-11:30/12:30-18:00 on Saturdays, closed on Sundays]\n\nPhan Thiet\n\n[Duration]    \n \n\nFriday 16 November – Sunday 18 November 2012\n\n[Venue]              \n \n\n19/4 Cinema (30 Nguyen Du, Phan Thiet City)\n\n[Ticket distribution]       \n \n\nFree admission, no tickets are required\n\n \n\nHo Chi Minh City\n\n[Duration]          \n \n\nSaturday 24 November – Saturday 1 December 2012\n\n[Venue]              \n \n\nDong Da Cinema (890 Tran Hung Dao, Ward 7, District 5, HCMC)\n\n[Ticket distribution]       \n \n\nFree admission, no tickets are required\n \n\nFor more information, please visit:\n\nhttp://jpf.org.vn/en/2012/10/17/japanese-film-festival-comedy-2012/\n\nThanks for your interests!","created_time":"2012-10-22T07:35:45+0000","updated_time":"2012-10-22T08:40:42+0000","comments":{"data":{"549415418408473":{"id":"549415418408473","from":{"id":"100000383155614","name":"Phạm Thúc Hưng"},"message":"hết cmn hạn phát vé miễn phí rồi mày post làm gì nữa :))","can_remove":false,"created_time":"2012-10-22T07:50:29+0000","like_count":0,"user_likes":false},"549425558407459":{"id":"549425558407459","from":{"id":"100001597637331","name":"Nguyen Minh Tien"},"message":"Check lại hàng đi!\n[Phát vé phim] Bắt đầu từ 14:00 ngày Thứ Sáu 19.10.2012","can_remove":false,"created_time":"2012-10-22T08:36:36+0000","like_count":0,"user_likes":false},"549425755074106":{"id":"549425755074106","from":{"id":"100001597637331","name":"Nguyen Minh Tien"},"message":"Phạm Thúc Hưng đi lấy vé trước xem có được không, rồi tao đi lấy sau! :D","message_tags":[{"id":"100000383155614","name":"Phạm Thúc Hưng","type":"user","offset":0,"length":14}],"can_remove":false,"created_time":"2012-10-22T08:37:20+0000","like_count":0,"user_likes":false},"549425808407434":{"id":"549425808407434","from":{"id":"100000383155614","name":"Phạm Thúc Hưng"},"message":"9:30-11:30/12:30-18:00 vào Thứ Bảy, đóng\ncửa ngày Chủ Nhật]","can_remove":false,"created_time":"2012-10-22T08:37:37+0000","like_count":0,"user_likes":false},"549426141740734":{"id":"549426141740734","from":{"id":"100000383155614","name":"Phạm Thúc Hưng"},"message":"hôm thứ 6 t đi xếp hàng ra tận cổng nản quá bỏ về, lúc nãy đi qua thấy đóng lâu rồi =))","can_remove":false,"created_time":"2012-10-22T08:39:18+0000","like_count":2,"user_likes":false},"549426458407369":{"id":"549426458407369","from":{"id":"100001597637331","name":"Nguyen Minh Tien"},"message":"Vậy à, đang định làm mấy vé rủ bạn gái đi xem! :((","can_remove":false,"created_time":"2012-10-22T08:40:42+0000","like_count":1,"user_likes":false}},"paging":{"cursors":{"after":"NTQ5NDE1NDE4NDA4NDcz","before":"NTQ5NDE1NDE4NDA4NDcz"},"next":"https://graph.facebook.com/229244010425617_549412258408789/comments?limit=1&summary=1&after=NTQ5NDE1NDE4NDA4NDcz"},"summary":{"order":"chronological","total_count":6}},"likes":{"data":[]}}