{"id":"229244010425617_552632331420115","type":"status","from":{"id":"100001458099624","name":"Kham Pha"},"message":"Tuần này các bạn tự ôn tập nhé, tuần sau chúng ta sẽ tiếp tục. Các bạn thấy chất lượng của các bài viết thế nào? Được ở đâu, chưa tốt ở đâu? Hãy đóng góp ý kiến để nâng cao chất lượng bài viết. Bạn muốn học thêm cái gì, cần gì,  comment phía dưới :)","created_time":"2012-10-28T23:45:41+0000","updated_time":"2012-10-29T06:50:34+0000","likes":{"data":{"100002097793263":{"id":"100002097793263","name":"Lê Hoa"},"100000629560377":{"id":"100000629560377","name":"Yuki Hana"},"100001840875327":{"id":"100001840875327","name":"Phạm Chí Long"},"100000641227862":{"id":"100000641227862","name":"Anh Lê"},"100000383155614":{"id":"100000383155614","name":"Phạm Thúc Hưng"}},"paging":{"cursors":{"after":"MTAwMDAyMDk3NzkzMjYz","before":"MTAwMDAyMDk3NzkzMjYz"},"next":"https://graph.facebook.com/229244010425617_552632331420115/likes?limit=1&summary=1&after=MTAwMDAyMDk3NzkzMjYz"},"summary":{"total_count":5}},"comments":{"data":{"552643621418986":{"id":"552643621418986","from":{"id":"100000383155614","name":"Phạm Thúc Hưng"},"message":"Chưa được ở cái mỗi cái mỗi ngày 1 cái nhiều quá, nhớ ko hết được :))","can_remove":false,"created_time":"2012-10-29T00:23:08+0000","like_count":1,"user_likes":false},"552685971414751":{"id":"552685971414751","from":{"id":"100000641227862","name":"Anh Lê"},"message":"kính ngữ đê","can_remove":false,"created_time":"2012-10-29T02:18:15+0000","like_count":2,"user_likes":false},"552738211409527":{"id":"552738211409527","from":{"id":"100001501391912","name":"Lai Hoang Duc"},"message":"Kham Pha a thấy nên làm 1 vài phong trao, như 1 vài cuộc thi nhỏ, cho có khí thế và dễ nhớ. nhưng mà như thế thì mình chú chắc ko làm đc, tuyển thêm vài mod xem sao","message_tags":[{"id":"100001458099624","name":"Kham Pha","type":"user","offset":0,"length":8}],"can_remove":false,"created_time":"2012-10-29T04:09:24+0000","like_count":2,"user_likes":false},"552783504738331":{"id":"552783504738331","from":{"id":"100001458099624","name":"Kham Pha"},"message":"Đã tiếp thu. Mời các bạn cho thêm ý kiến","can_remove":false,"created_time":"2012-10-29T06:50:34+0000","like_count":0,"user_likes":false}},"paging":{"cursors":{"after":"NTUyNjQzNjIxNDE4OTg2","before":"NTUyNjQzNjIxNDE4OTg2"},"next":"https://graph.facebook.com/229244010425617_552632331420115/comments?limit=1&summary=1&after=NTUyNjQzNjIxNDE4OTg2"},"summary":{"order":"chronological","total_count":4}}}