{"id":"229244010425617_555627497787265","type":"status","from":{"id":"100001458099624","name":"Kham Pha"},"message":"Mọi người thấy một tuần mấy bài là vừa đủ?","created_time":"2012-11-04T07:20:00+0000","updated_time":"2012-11-10T02:30:22+0000","likes":{"data":{"100003803991548":{"id":"100003803991548","name":"Đặng Văn Công"}},"paging":{"cursors":{"after":"MTAwMDAzODAzOTkxNTQ4","before":"MTAwMDAzODAzOTkxNTQ4"}},"summary":{"total_count":1}},"comments":{"data":{"555675771115771":{"id":"555675771115771","from":{"id":"100000198219367","name":"Chang Jiang"},"message":"7 bài","can_remove":false,"created_time":"2012-11-04T10:42:27+0000","like_count":2,"user_likes":false},"555701214446560":{"id":"555701214446560","from":{"id":"100001458099624","name":"Kham Pha"},"message":"1 tuần 3 bài có lẽ là vừa. Sợ mọi người ko nhớ hết đc. Anh Giang phụ em biết bài nhé, giỏi như anh ko viết thì phí.","can_remove":false,"created_time":"2012-11-04T12:03:31+0000","like_count":1,"user_likes":false},"555718981111450":{"id":"555718981111450","from":{"id":"100000198219367","name":"Chang Jiang"},"message":"chả có bài nào mà viết ==\"\n\nở Jap giao tiếp nhiều thì biết nhiều hơn chứ :-bd","can_remove":false,"created_time":"2012-11-04T12:57:09+0000","like_count":0,"user_likes":false},"555720591111289":{"id":"555720591111289","from":{"id":"100002976271181","name":"Kumira Ariko"},"message":"học theo từng bài này cũng khó anh ơi:-< vì ko học từ đầu mà học theo ngữ cảnh thế này ..","can_remove":false,"created_time":"2012-11-04T13:02:43+0000","like_count":0,"user_likes":false},"555724407777574":{"id":"555724407777574","from":{"id":"100000198219367","name":"Chang Jiang"},"message":"thế nào là học từ đầu :-<","can_remove":false,"created_time":"2012-11-04T13:15:23+0000","like_count":0,"user_likes":false},"555724934444188":{"id":"555724934444188","from":{"id":"100002976271181","name":"Kumira Ariko"},"message":"đây là cho những ng biết biết tiếng nhật chư bọn anh học rồi, nên mới có tiếng lóng chứ:-< mới học thì cần gì biết tiếng lóng ..haizzzi, nói chung bài học khó","can_remove":false,"created_time":"2012-11-04T13:17:01+0000","like_count":2,"user_likes":false},"555726051110743":{"id":"555726051110743","from":{"id":"100000198219367","name":"Chang Jiang"},"message":"nói chung Kham Pha nó viết cái này cũng là để cho ai có căn cơ ít nhất là Jap sơ cấp rồi, chứ nói thật dạy từ ko biết gì đến lúc biết thì mỗi ngày 1 bài ko thể nào đủ đc :|","message_tags":[{"id":"100001458099624","name":"Kham Pha","type":"user","offset":10,"length":8}],"can_remove":false,"created_time":"2012-11-04T13:20:38+0000","like_count":2,"user_likes":false},"555726771110671":{"id":"555726771110671","from":{"id":"100002976271181","name":"Kumira Ariko"},"message":"thế em phải cố gắng đến trung cấp rồi:D","can_remove":false,"created_time":"2012-11-04T13:23:01+0000","like_count":1,"user_likes":false},"555771037772911":{"id":"555771037772911","from":{"id":"100001458099624","name":"Kham Pha"},"message":"@Giang: N2 mà ko có gì để viết, chém gió. Ở Nhật thì biết nhiều hơn, nhưng chỉ là thêm một chút thôi, chủ yếu kiến thức là học ở VN rồi. \nKumira Ariko không thể nào có chuyện 1 cái áo ai mặc cũng vừa. Viết cho người sơ cấp thấy hay thì người trung cấp sẽ chả học đc gì và ngược lại. Thế nên anh chỉ hướng đến trung cấp thôi, những ai sơ cấp thì cố gắng học thêm đi, anh cũng cố gắng viết dễ hiểu lắm rồi.","message_tags":[{"id":"100002976271181","name":"Kumira Ariko","type":"user","offset":138,"length":12}],"can_remove":false,"created_time":"2012-11-04T15:18:41+0000","like_count":2,"user_likes":false},"555776764439005":{"id":"555776764439005","from":{"id":"100000198219367","name":"Chang Jiang"},"message":"cái gì mà N2 ==\"","can_remove":false,"created_time":"2012-11-04T15:30:59+0000","like_count":0,"user_likes":false},"555996181083730":{"id":"555996181083730","from":{"id":"100001458099624","name":"Kham Pha"},"message":"thế N1 rồi ah, nhanh vậy ;))","can_remove":false,"created_time":"2012-11-05T01:16:25+0000","like_count":1,"user_likes":false},"556052711078077":{"id":"556052711078077","from":{"id":"100000383155614","name":"Phạm Thúc Hưng"},"message":"vãi Chang Jiang, em mỗi tuần 1 bunpo gặm còn khó nhớ nhăn răng. a này đúng đẳng cấp N1 chơi hẳn mỗi ngày 1 phát :))","message_tags":[{"id":"100000198219367","name":"Chang Jiang","type":"user","offset":4,"length":11}],"can_remove":false,"created_time":"2012-11-05T04:18:58+0000","like_count":0,"user_likes":false},"556153757734639":{"id":"556153757734639","from":{"id":"100000198219367","name":"Chang Jiang"},"message":"mấy cái này cũng ngắn gọn mà, Kham Pha nó đưa cả VD dễ hiểu nữa, nên ko khó đâu :D","message_tags":[{"id":"100001458099624","name":"Kham Pha","type":"user","offset":30,"length":8}],"can_remove":false,"created_time":"2012-11-05T10:55:50+0000","like_count":2,"user_likes":false},"557372680946080":{"id":"557372680946080","from":{"id":"100000228161071","name":"Nguyễn Phương Thảo"},"message":"Em chỉ mới sơ cấp... Hix hix","can_remove":false,"created_time":"2012-11-08T02:35:36+0000","like_count":1,"user_likes":false},"558210954195586":{"id":"558210954195586","from":{"id":"100001695345798","name":"Tyn Aki"},"message":"em muốn có thể đi sâu vào giao tiếp thì tuyệt. ngôn ngữ của con trai, ngôn ngữ con gái, nghe kawa mà mấy từ cuối câu chả thấy sách nào dạy @@","can_remove":false,"created_time":"2012-11-10T01:01:04+0000","like_count":1,"user_likes":false},"558233817526633":{"id":"558233817526633","from":{"id":"100001458099624","name":"Kham Pha"},"message":"Lúc mới sang anh cũng bị bất ngờ.  Thấy khác nhiều những gì đc dạy. Em sang đây bao lâu? Chắc nửa năm sẽ quen thôi. Những bài về kaiwa sẽ đc xen kẽ với ngữ pháp. Anh đã viết một số bài về kaiwa, em có thể xem lại.","can_remove":false,"created_time":"2012-11-10T02:23:34+0000","like_count":0,"user_likes":false},"558235014193180":{"id":"558235014193180","from":{"id":"100000641227862","name":"Anh Lê"},"message":"難しいかな、よくがんばれ。","can_remove":false,"created_time":"2012-11-10T02:27:48+0000","like_count":1,"user_likes":false},"558235724193109":{"id":"558235724193109","from":{"id":"100001695345798","name":"Tyn Aki"},"message":"em dang xem roi a, thich bai viet tu long qua ah :D cam on ban ad ah, hi","can_remove":false,"created_time":"2012-11-10T02:30:22+0000","like_count":1,"user_likes":false}},"paging":{"cursors":{"after":"NTU1Njc1NzcxMTE1Nzcx","before":"NTU1Njc1NzcxMTE1Nzcx"},"next":"https://graph.facebook.com/229244010425617_555627497787265/comments?limit=1&summary=1&after=NTU1Njc1NzcxMTE1Nzcx"},"summary":{"order":"chronological","total_count":18}}}