{"id":"229244010425617_557461637603851","type":"link","link":"http://www.e-thuvien.com/forums/showthread.php?t=29618","from":{"id":"100000381394367","name":"Thành Nguyễn"},"message":"Một cuốn sách hay đáng đọc để hiểu thêm về \"hiện tượng Nhật Bản\"\nhttp://www.e-thuvien.com/forums/showthread.php?t=29618","created_time":"2012-11-08T08:15:25+0000","updated_time":"2012-11-25T03:57:11+0000","likes":{"data":{"100004283105704":{"id":"100004283105704","name":"Nhatbants Duhoc"},"1828638775":{"id":"1828638775","name":"Lynk Trần"},"100000965748048":{"id":"100000965748048","name":"Mỹ Đức Đạt"},"100001663305453":{"id":"100001663305453","name":"Thuy Dang"},"100003814756892":{"id":"100003814756892","name":"Hai Nguyen"},"100003803991548":{"id":"100003803991548","name":"Đặng Văn Công"},"100000886025497":{"id":"100000886025497","name":"Duong Bach"},"100002097793263":{"id":"100002097793263","name":"Lê Hoa"}},"paging":{"cursors":{"after":"MTAwMDA0MjgzMTA1NzA0","before":"MTAwMDA0MjgzMTA1NzA0"},"next":"https://graph.facebook.com/229244010425617_557461637603851/likes?limit=1&summary=1&after=MTAwMDA0MjgzMTA1NzA0"},"summary":{"total_count":8}},"comments":{"data":{"557886854227996":{"id":"557886854227996","from":{"id":"100000429488401","name":"Tạ Minh Hà"},"message":"anh có thể share sách được ko? em cám ơn !","can_remove":false,"created_time":"2012-11-09T08:09:24+0000","like_count":0,"user_likes":false},"557887137561301":{"id":"557887137561301","from":{"id":"100000381394367","name":"Thành Nguyễn"},"message":"Có link down trên trang này rồi mà bạn, đăng ký 1 acc của TVE là down được","can_remove":false,"created_time":"2012-11-09T08:10:33+0000","like_count":0,"user_likes":false},"557887744227907":{"id":"557887744227907","from":{"id":"100000429488401","name":"Tạ Minh Hà"},"message":"vâng ạ ! nhưng chắc năng đăng ký tạm thời ngừng phục vụ anh à :)","can_remove":false,"created_time":"2012-11-09T08:11:56+0000","like_count":0,"user_likes":false},"557887950894553":{"id":"557887950894553","from":{"id":"100000381394367","name":"Thành Nguyễn"},"message":"Vậy em cho anh mail anh send cho","can_remove":false,"created_time":"2012-11-09T08:12:45+0000","like_count":0,"user_likes":false},"557890384227643":{"id":"557890384227643","from":{"id":"100000381394367","name":"Thành Nguyễn"},"message":"Đã gửi rồi nhé.","can_remove":false,"created_time":"2012-11-09T08:21:48+0000","like_count":0,"user_likes":false},"557891037560911":{"id":"557891037560911","from":{"id":"100000268489214","name":"Kaka Huy"},"message":"anh gửi cho em với nhé. Thanks a","can_remove":false,"created_time":"2012-11-09T08:25:08+0000","like_count":0,"user_likes":false},"557892850894063":{"id":"557892850894063","from":{"id":"100000381394367","name":"Thành Nguyễn"},"message":"Cũng gửi cho Huy rồi nhé.","can_remove":false,"created_time":"2012-11-09T08:33:27+0000","like_count":1,"user_likes":false},"557951224221559":{"id":"557951224221559","from":{"id":"100000886025497","name":"Duong Bach"},"message":"gửi cho em 1 bản với anh ơi ,cảm ơn anh \nbachdx.hut@gmail.com","can_remove":false,"created_time":"2012-11-09T12:27:07+0000","like_count":0,"user_likes":false},"558339770849371":{"id":"558339770849371","from":{"id":"100000381394367","name":"Thành Nguyễn"},"message":"Da gui cho Bach va Thang.","can_remove":false,"created_time":"2012-11-10T08:00:09+0000","like_count":1,"user_likes":false},"558346850848663":{"id":"558346850848663","from":{"id":"100000381394367","name":"Thành Nguyễn"},"message":"My pleasure","can_remove":false,"created_time":"2012-11-10T08:24:33+0000","like_count":0,"user_likes":false},"562822307067784":{"id":"562822307067784","from":{"id":"100003814756892","name":"Hai Nguyen"},"message":"mr.haicaca@gmail.com  send cho em một bản nhé a  .ありがとうございます。","can_remove":false,"created_time":"2012-11-20T14:31:57+0000","like_count":0,"user_likes":false},"563036060379742":{"id":"563036060379742","from":{"id":"100000381394367","name":"Thành Nguyễn"},"message":"Đã gửi cho Hai Nguyen","message_tags":[{"id":"100003814756892","name":"Hai Nguyen","type":"user","offset":11,"length":10}],"can_remove":false,"created_time":"2012-11-21T01:22:08+0000","like_count":0,"user_likes":false},"563225390360809":{"id":"563225390360809","from":{"id":"100003814756892","name":"Hai Nguyen"},"message":"cám ơn anh","can_remove":false,"created_time":"2012-11-21T13:07:12+0000","like_count":0,"user_likes":false},"563254063691275":{"id":"563254063691275","from":{"id":"100000965748048","name":"Mỹ Đức Đạt"},"message":"Mình có thể mua ở đâu vậy bạn? Thành Nguyễn","message_tags":[{"id":"100000381394367","name":"Thành Nguyễn","type":"user","offset":31,"length":12}],"can_remove":false,"created_time":"2012-11-21T14:27:24+0000","like_count":0,"user_likes":false},"563513246998690":{"id":"563513246998690","from":{"id":"100000381394367","name":"Thành Nguyễn"},"message":"Bạn ra các hiệu sách xem có ko, còn mình chỉ giới thiệu ebook, nếu cần thì mình gửi cho.","can_remove":false,"created_time":"2012-11-22T03:34:43+0000","like_count":1,"user_likes":false},"563520386997976":{"id":"563520386997976","from":{"id":"1828638775","name":"Lynk Trần"},"message":"a Thành Nguyễn oi.co the gui cho e 1ban ko?. lynk.tran.244@gmail.com. ありがとうございます。","message_tags":[{"id":"100000381394367","name":"Thành Nguyễn","type":"user","offset":2,"length":12}],"can_remove":false,"created_time":"2012-11-22T03:58:49+0000","like_count":0,"user_likes":false},"563533126996702":{"id":"563533126996702","from":{"id":"100001880901011","name":"Số Không"},"message":"cho mình 1 bản được ko bạn hainhan008@gmail.com","can_remove":false,"created_time":"2012-11-22T04:46:29+0000","like_count":0,"user_likes":false},"563533143663367":{"id":"563533143663367","from":{"id":"100001880901011","name":"Số Không"},"message":"thanks bạn nhiều","can_remove":false,"created_time":"2012-11-22T04:46:34+0000","like_count":0,"user_likes":false},"563538883662793":{"id":"563538883662793","from":{"id":"100002087180242","name":"Nguyễn Trung Quân"},"message":"anh Thành Nguyễn, cho em một bản . nakagun3291@gmail.com","message_tags":[{"id":"100000381394367","name":"Thành Nguyễn","type":"user","offset":4,"length":12}],"can_remove":false,"created_time":"2012-11-22T05:01:33+0000","like_count":0,"user_likes":false},"563546533662028":{"id":"563546533662028","from":{"id":"100000965748048","name":"Mỹ Đức Đạt"},"message":"Cảm ơn Thành Nguyễn nhiều nếu có cho mình 1 bản mình đang sưu tầm những tài liệu về đất nước Nhật đặc biệt là sách...hihi","message_tags":[{"id":"100000381394367","name":"Thành Nguyễn","type":"user","offset":7,"length":12}],"can_remove":false,"created_time":"2012-11-22T05:03:42+0000","like_count":0,"user_likes":false},"563636553653026":{"id":"563636553653026","from":{"id":"100000381394367","name":"Thành Nguyễn"},"message":"Mình đã gửi rồi nhưng riêng mail của Lynk Trần  ko hiểu sao ko gửi được","can_remove":false,"created_time":"2012-11-22T10:52:06+0000","like_count":0,"user_likes":false},"563637056986309":{"id":"563637056986309","from":{"id":"100000381394367","name":"Thành Nguyễn"},"message":"http://www.4shared.com/mobile/zYqxSo6-/Nuoc_Nhat_Mua_Ca_The_Gioi.html?","can_remove":false,"created_time":"2012-11-22T10:54:18+0000","like_count":2,"user_likes":false},"563637130319635":{"id":"563637130319635","from":{"id":"100000381394367","name":"Thành Nguyễn"},"message":"Mình up lại lên 4shared để mọi người có thể tự down về","can_remove":false,"created_time":"2012-11-22T10:54:39+0000","like_count":1,"user_likes":false},"564786250204723":{"id":"564786250204723","from":{"id":"100002724810405","name":"Nguyễn Quân"},"message":"cho mình xin link cái bạn ới","can_remove":false,"created_time":"2012-11-24T22:02:32+0000","like_count":0,"user_likes":false},"564893390194009":{"id":"564893390194009","from":{"id":"100000381394367","name":"Thành Nguyễn"},"message":"Link ở ngay trên mà bạn","can_remove":false,"created_time":"2012-11-25T03:57:11+0000","like_count":0,"user_likes":false}},"paging":{"cursors":{"after":"NTU3ODg2ODU0MjI3OTk2","before":"NTU3ODg2ODU0MjI3OTk2"},"next":"https://graph.facebook.com/229244010425617_557461637603851/comments?limit=1&summary=1&after=NTU3ODg2ODU0MjI3OTk2"},"summary":{"order":"chronological","total_count":25}}}