{"id":"229244010425617_563658523650829","type":"status","from":{"id":"100001458099624","name":"Kham Pha"},"message":"Mình nghĩ để nắm vững hơn các bài học các bạn nên đặt câu với cấu trúc vừa học vào conment bên dưới. Mọi người trong group sẽ đọc và sửa cho nhau. Đặt một câu hoàn chỉnh đúng ngữ pháp ko phải chuyện dễ dàng đâu. Được chứ?","created_time":"2012-11-22T12:15:25+0000","updated_time":"2012-11-27T01:54:59+0000","likes":{"data":{"100002827290312":{"id":"100002827290312","name":"Nhung Pham"},"100003226985234":{"id":"100003226985234","name":"Rita Nguyen"},"100000162152142":{"id":"100000162152142","name":"Bà Già Đau Khổ"},"100002819008554":{"id":"100002819008554","name":"Sinh Nguyen"},"100002754998000":{"id":"100002754998000","name":"Nguyen Duc"},"1824015127":{"id":"1824015127","name":"Bùi Quang Tân"}},"paging":{"cursors":{"after":"MTAwMDAyODI3MjkwMzEy","before":"MTAwMDAyODI3MjkwMzEy"},"next":"https://graph.facebook.com/229244010425617_563658523650829/likes?limit=1&summary=1&after=MTAwMDAyODI3MjkwMzEy"},"summary":{"total_count":6}},"comments":{"data":{"563659156984099":{"id":"563659156984099","from":{"id":"100000198219367","name":"Chang Jiang"},"message":"Kham Pha　は馬鹿になるぐらい話した　>:)","message_tags":[{"id":"100001458099624","name":"Kham Pha","type":"user","offset":0,"length":8}],"can_remove":false,"created_time":"2012-11-22T12:17:46+0000","like_count":0,"user_likes":false},"563661896983825":{"id":"563661896983825","from":{"id":"100001501391912","name":"Lai Hoang Duc"},"message":"a cũng đang muốn thi N2 vào tháng 7 năm sau, nhưng phải đợi thi hết tháng 12 đã :D","can_remove":false,"created_time":"2012-11-22T12:27:47+0000","like_count":0,"user_likes":false},"563664140316934":{"id":"563664140316934","from":{"id":"100001479894331","name":"Diệu Nguyễn"},"message":"Kham Phaくんの意見はいいーね！これから、僕もやてみるかなと思って","message_tags":[{"id":"100001458099624","name":"Kham Pha","type":"user","offset":0,"length":8}],"can_remove":false,"created_time":"2012-11-22T12:34:46+0000","like_count":2,"user_likes":false},"565761800107168":{"id":"565761800107168","from":{"id":"100003226985234","name":"Rita Nguyen"},"message":"私もやって見たいです。宜しくお願いします。","can_remove":false,"created_time":"2012-11-27T01:31:41+0000","like_count":0,"user_likes":false},"565769666773048":{"id":"565769666773048","from":{"id":"100001458099624","name":"Kham Pha"},"message":"やってみたいね。よろしくお願いします。","can_remove":false,"created_time":"2012-11-27T01:54:59+0000","like_count":0,"user_likes":false}},"paging":{"cursors":{"after":"NTYzNjU5MTU2OTg0MDk5","before":"NTYzNjU5MTU2OTg0MDk5"},"next":"https://graph.facebook.com/229244010425617_563658523650829/comments?limit=1&summary=1&after=NTYzNjU5MTU2OTg0MDk5"},"summary":{"order":"chronological","total_count":5}}}