{"id":"229244010425617_570725269610821","type":"status","from":{"id":"100001458099624","name":"Kham Pha"},"message":"Bài 52: Tiếng Nhật lóng (phần 3)\n\nChào các bạn. Hôm nay mình bận việc ở trường nên post bài hơi muộn. Hôm nay chúng ta sẽ tiếp tục phần tiếng Nhật lóng. Xin được giải thích lại một chút là có nhiều bạn hiểu nhầm tiếng Nhật lóng với tiếng địa phương, vùng miền. Thực chất tiếng Nhật lóng là tiếng Nhật được dùng hàng ngày, dùng một cách suồng sã, và thường là thanh niên dùng với nhau. Vậy nên nó rất quan trọng nếu các bạn muốn giao tiếp tốt với người Nhật đặc biệt là thanh niên Nhật. \n\n-めっちゃ：\nĐây là một từ lóng chuyên dùng để diễn tả cảm xúc có nguồn gốc xuất phátめちゃくちゃ nghĩa là “ điên cuồng, điên rồ”. Khi nói “めっちゃ面白い” thì có nghĩa là “thú vị kinh khủng”. \n \n-やばい：\nĐây là một từ đứng hàng đầu trong các từ lóng thông dụng. Nó được dùng như một từ đa năng, được dùng nhiều đến mức mà khi nhận xét một cái gì thì bạn cứ nói やばい　ra, còn họ thích hiểu thế nào thì hiểu. やばい　có thể có những nghĩa sau: tuyệt, ghê gớm, kinh khủng, nguy hiểm, bựa, tiều, xuất sắc. Ví dụ: \n\nやばいぞ!\nNguy rồi!\n\nそんな話ってやばいわ\nCâu chuyện ấy ghê thật!\n \nTại sao từ やばい　lại có thể diễn tả nhiều ý nghĩa như vậy vì đơn giản là nó  やばい. Bạn hiểu rồi chứ? \n\n-そうっすね・そっすね：\nTừ này thực chất không có gì, chỉ là cách nói khác của そうですね thôi. \n\nNói chung đã là từ lóng thì quy tắc chung là không được dùng với người lớn tuổi hơn. Gây phản cảm cho người nghe, nhất là với một đất nước trọng lễ nghi như Nhật Bản.","created_time":"2012-12-07T14:26:00+0000","updated_time":"2012-12-07T16:56:59+0000","likes":{"data":{"100001339152427":{"id":"100001339152427","name":"Trần Phương Huyền"},"100000296280322":{"id":"100000296280322","name":"Nguyen Kiet"},"100000427448138":{"id":"100000427448138","name":"Anh Tuan Pham"},"100002369341715":{"id":"100002369341715","name":"Xu Li"},"100001320162581":{"id":"100001320162581","name":"Sách Nguyễn"},"1828906841":{"id":"1828906841","name":"Trọng Nghĩa Bùi"},"100000309978634":{"id":"100000309978634","name":"Tan Vu"}},"paging":{"cursors":{"after":"MTAwMDAxMzM5MTUyNDI3","before":"MTAwMDAxMzM5MTUyNDI3"},"next":"https://graph.facebook.com/229244010425617_570725269610821/likes?limit=1&summary=1&after=MTAwMDAxMzM5MTUyNDI3"},"summary":{"total_count":7}},"comments":{"data":{"570726242944057":{"id":"570726242944057","from":{"id":"100000198219367","name":"Chang Jiang"},"message":"Kham Pha はめっちゃ病気だね　:3","message_tags":[{"id":"100001458099624","name":"Kham Pha","type":"user","offset":0,"length":8}],"can_remove":false,"created_time":"2012-12-07T14:28:52+0000","like_count":0,"user_likes":false},"570727096277305":{"id":"570727096277305","from":{"id":"100001695345798","name":"Tyn Aki"},"message":"lần trc bọn em có dùng meccha, nhưng sensei bảo hầu như vùng kansai dùng thôi, kanto ko dùng nên lúc đầu nói thầy ko hiểu, tưởng bọn em nói nhầm @@","can_remove":false,"created_time":"2012-12-07T14:31:11+0000","like_count":0,"user_likes":false},"570727389610609":{"id":"570727389610609","from":{"id":"100000198219367","name":"Chang Jiang"},"message":"đã gọi là tiếng lóng thì chỉ là 1 bộ phận người dùng thôi mà bạn ;))\n\ncũng giống người Việt mình cũng có kiểu thế ;))","can_remove":false,"created_time":"2012-12-07T14:32:11+0000","like_count":1,"user_likes":false},"570727906277224":{"id":"570727906277224","from":{"id":"100001458099624","name":"Kham Pha"},"message":"bên này chúng nó dùng đầy ra. Lần trc anh đi xem pháo hoa ở yokohama, có con bé hâm ở đâu ra hỏi chuyện linh tinh nó bảo めっちゃきれい mà anh ko hiểu, về sau cũng thấy nhiều đứa ở trường nói.","can_remove":false,"created_time":"2012-12-07T14:33:52+0000","like_count":0,"user_likes":false},"570728909610457":{"id":"570728909610457","from":{"id":"100000198219367","name":"Chang Jiang"},"message":"người Nhật hả Kham Pha ? :))","message_tags":[{"id":"100001458099624","name":"Kham Pha","type":"user","offset":14,"length":8}],"can_remove":false,"created_time":"2012-12-07T14:37:00+0000","like_count":0,"user_likes":false},"570729279610420":{"id":"570729279610420","from":{"id":"100001458099624","name":"Kham Pha"},"message":"thế chú nghĩ người Việt ah??","can_remove":false,"created_time":"2012-12-07T14:38:20+0000","like_count":1,"user_likes":false},"570730312943650":{"id":"570730312943650","from":{"id":"100001479894331","name":"Diệu Nguyễn"},"message":"ぶっちゃけ...私も「やばい」の意味を確かに知らないのに、使いたい!　何でも「やばいいいいいいいいい」って、便利なぁ","can_remove":false,"created_time":"2012-12-07T14:41:36+0000","like_count":0,"user_likes":false},"570730376276977":{"id":"570730376276977","from":{"id":"100000198219367","name":"Chang Jiang"},"message":"thế sao bảo nó hâm =))","can_remove":false,"created_time":"2012-12-07T14:41:48+0000","like_count":0,"user_likes":false},"570730699610278":{"id":"570730699610278","from":{"id":"100000198219367","name":"Chang Jiang"},"message":"à mà cái yabai nó đa năng kiểu như từ sugoi hả ? :))","can_remove":false,"created_time":"2012-12-07T14:42:40+0000","like_count":0,"user_likes":false},"570730842943597":{"id":"570730842943597","from":{"id":"100000309978634","name":"Tan Vu"},"message":"sugoi làm sao đa năng bằng yabai được :-/","can_remove":false,"created_time":"2012-12-07T14:43:05+0000","like_count":0,"user_likes":false},"570731172943564":{"id":"570731172943564","from":{"id":"100000198219367","name":"Chang Jiang"},"message":"sugoi vừa dùng đc là kinh khủng, vừa dùng được là quá hay, xuất sắc hay khiếp quá còn j :-?","can_remove":false,"created_time":"2012-12-07T14:44:08+0000","like_count":0,"user_likes":false},"570731192943562":{"id":"570731192943562","from":{"id":"100001458099624","name":"Kham Pha"},"message":"Diệu Nguyễn ah ghê anh Diệu cũng xài từ lóng kìa, ぶっちゃけ　cũng là từ lóng đây, để hôm nào viết bài khác.","message_tags":[{"id":"100001479894331","name":"Diệu Nguyễn","type":"user","offset":0,"length":11}],"can_remove":false,"created_time":"2012-12-07T14:44:17+0000","like_count":0,"user_likes":false},"570731682943513":{"id":"570731682943513","from":{"id":"100001458099624","name":"Kham Pha"},"message":"すごい　thì chả riêng giới trẻ dùng, cũng ko xếp hàng từ lóng, nó chính thống. Ngoài ra nghĩa ko đa năng được như やばい","can_remove":false,"created_time":"2012-12-07T14:46:22+0000","like_count":0,"user_likes":false},"570731976276817":{"id":"570731976276817","from":{"id":"100000198219367","name":"Chang Jiang"},"message":"ý tớ hỏi nghĩa nó có đa năng ko chứ ko bảo nó dùng có phổ biến ko ;))","can_remove":false,"created_time":"2012-12-07T14:47:17+0000","like_count":0,"user_likes":false},"570732196276795":{"id":"570732196276795","from":{"id":"100000198219367","name":"Chang Jiang"},"message":"mà Kham Pha cho VD mà sugoi ko đa năng bằng yabaii đi :-?\n\nchứ mới VD kia nhìn nó kiểu giông giống nhau :-?","message_tags":[{"id":"100001458099624","name":"Kham Pha","type":"user","offset":3,"length":8}],"can_remove":false,"created_time":"2012-12-07T14:47:53+0000","like_count":0,"user_likes":false},"570732216276793":{"id":"570732216276793","from":{"id":"100001458099624","name":"Kham Pha"},"message":"có đa năng nhưng ko đa năng như やばい","can_remove":false,"created_time":"2012-12-07T14:48:00+0000","like_count":0,"user_likes":false},"570732586276756":{"id":"570732586276756","from":{"id":"100001458099624","name":"Kham Pha"},"message":"ko đọc kĩ ví dụ ah: やばいぞ！　－＞　nguy rồi. Nói すごいぞ　thì là cái gì?","can_remove":false,"created_time":"2012-12-07T14:48:55+0000","like_count":1,"user_likes":false},"570733302943351":{"id":"570733302943351","from":{"id":"100000198219367","name":"Chang Jiang"},"message":"ý là VD về đa năng về ý nghĩa chớ có bảo là cách dùng giống nhau đâu =,=\"\n\nmà yabai cứ nói ra họ hiểu thế nào thì hiểu thật à ? :))","can_remove":false,"created_time":"2012-12-07T14:50:47+0000","like_count":0,"user_likes":false},"570733516276663":{"id":"570733516276663","from":{"id":"100000309978634","name":"Tan Vu"},"message":"=.=\" mje nói thế kia mà chú Giang vẫn cố tình éo hiểu à","can_remove":false,"created_time":"2012-12-07T14:51:18+0000","like_count":0,"user_likes":false},"570733929609955":{"id":"570733929609955","from":{"id":"100000198219367","name":"Chang Jiang"},"message":"thì đang nói nó VD nội dung là đủ rồi chứ đâu cần phải gắn thêm cái zo vào sugoi :))","can_remove":false,"created_time":"2012-12-07T14:52:19+0000","like_count":0,"user_likes":false},"570734596276555":{"id":"570734596276555","from":{"id":"100001695345798","name":"Tyn Aki"},"message":"nói chung thầy nói thế nên bọn em hơi hạnchees. nhưng công nhận nói meccha ms thấy đã ạ :)))","can_remove":false,"created_time":"2012-12-07T14:53:58+0000","like_count":2,"user_likes":false},"570735062943175":{"id":"570735062943175","from":{"id":"100000198219367","name":"Chang Jiang"},"message":"cũng giống như kiểu giới trẻ bây giờ ở VN hay dùng từ \"v~\" ấy ;))","can_remove":false,"created_time":"2012-12-07T14:54:45+0000","like_count":1,"user_likes":false},"570736126276402":{"id":"570736126276402","from":{"id":"100003168200226","name":"Hương Nguyễn"},"message":"Tới bài 52 rồi cơ ạk?!?","can_remove":false,"created_time":"2012-12-07T14:57:03+0000","like_count":0,"user_likes":false},"570738609609487":{"id":"570738609609487","from":{"id":"100001458099624","name":"Kham Pha"},"message":"Chang Jiang so sánh đc lắm\nĐại Ca Mi 52 thì 52 có vấn đề gì đâu?","message_tags":[{"id":"100000198219367","name":"Chang Jiang","type":"user","offset":0,"length":11},{"id":"100003168200226","name":"Đại Ca Mi","type":"user","offset":27,"length":9}],"can_remove":false,"created_time":"2012-12-07T15:02:29+0000","like_count":1,"user_likes":false},"570739402942741":{"id":"570739402942741","from":{"id":"100003168200226","name":"Hương Nguyễn"},"message":"Biết là k vđ j cơ mờ những ng mới học như tụi e thì là cả 1 vđ:)","can_remove":false,"created_time":"2012-12-07T15:04:17+0000","like_count":0,"user_likes":false},"570741019609246":{"id":"570741019609246","from":{"id":"100001458099624","name":"Kham Pha"},"message":"thế thì vấn đề của em là học đến lúc nào đủ trình độ hiểu những bài viết này. Căn bản là anh cũng đâu có viết theo giáo trình gì đâu. Viết ra những gì mình biết để mọi người tham khảo thôi mà. Em cứ coi như là một nguồn tham khảo.","can_remove":false,"created_time":"2012-12-07T15:08:58+0000","like_count":0,"user_likes":false},"570741236275891":{"id":"570741236275891","from":{"id":"100003168200226","name":"Hương Nguyễn"},"message":":((","can_remove":false,"created_time":"2012-12-07T15:09:38+0000","like_count":0,"user_likes":false},"570742026275812":{"id":"570742026275812","from":{"id":"100000198219367","name":"Chang Jiang"},"message":"em cứ coi đây như là tích luỹ kiến thức thoe kiểu thông thường và tự nhiên, chứ mấy cái này ko theo sách vở đâu :))\n\ncũng giống như kiểu mình xem 1 bộ phim hay nghe 1 lời thoại bằng TA hay, và mình thích mình ghi nhớ, chứ nó ko quá phức tạp đến mức phụ thuộc trình độ đâu em ah :D","can_remove":false,"created_time":"2012-12-07T15:11:58+0000","like_count":2,"user_likes":false},"570743179609030":{"id":"570743179609030","from":{"id":"100003168200226","name":"Hương Nguyễn"},"message":"Vầng","can_remove":false,"created_time":"2012-12-07T15:14:59+0000","like_count":1,"user_likes":false},"570743702942311":{"id":"570743702942311","from":{"id":"100001458099624","name":"Kham Pha"},"message":"sao anh Chang Jiang ăn gì mà dạo này phát biểu chuẩn thế nhỉ :))","message_tags":[{"id":"100000198219367","name":"Chang Jiang","type":"user","offset":8,"length":11}],"can_remove":false,"created_time":"2012-12-07T15:16:11+0000","like_count":1,"user_likes":false},"570743832942298":{"id":"570743832942298","from":{"id":"100003168200226","name":"Hương Nguyễn"},"message":"Mà các a học kiểu j mà giỏi thế:))","can_remove":false,"created_time":"2012-12-07T15:16:34+0000","like_count":0,"user_likes":false},"570745159608832":{"id":"570745159608832","from":{"id":"100000198219367","name":"Chang Jiang"},"message":"các cao nhân Tan Vu, Bùi Trọng Nghĩa, Mai Hoang  kìa B)","message_tags":[{"id":"100000309978634","name":"Tan Vu","type":"user","offset":13,"length":6},{"id":"1828906841","name":"Bùi Trọng Nghĩa","type":"user","offset":21,"length":15},{"id":"100002060967373","name":"Mai Hoang","type":"user","offset":38,"length":9}],"can_remove":false,"created_time":"2012-12-07T15:19:12+0000","like_count":0,"user_likes":false},"570747102941971":{"id":"570747102941971","from":{"id":"100000309978634","name":"Tan Vu"},"message":"ít ra chú sống cũng phải có nguyên tắc là ko gọi những thằng kém hơn mình là cao nhân chứ :|","can_remove":false,"created_time":"2012-12-07T15:24:18+0000","like_count":1,"user_likes":false},"570747422941939":{"id":"570747422941939","from":{"id":"100000198219367","name":"Chang Jiang"},"message":"Tan Vu: chém cái j đấy :-B","message_tags":[{"id":"100000309978634","name":"Tan Vu","type":"user","offset":0,"length":6}],"can_remove":false,"created_time":"2012-12-07T15:25:04+0000","like_count":0,"user_likes":false},"570783142938367":{"id":"570783142938367","from":{"id":"100000296280322","name":"Nguyen Kiet"},"message":"hay wa rat bo ich","can_remove":false,"created_time":"2012-12-07T16:56:28+0000","like_count":1,"user_likes":false},"570783302938351":{"id":"570783302938351","from":{"id":"100000296280322","name":"Nguyen Kiet"},"message":"sonna koto ne...arigatou","can_remove":false,"created_time":"2012-12-07T16:56:59+0000","like_count":0,"user_likes":false}},"paging":{"cursors":{"after":"NTcwNzI2MjQyOTQ0MDU3","before":"NTcwNzI2MjQyOTQ0MDU3"},"next":"https://graph.facebook.com/229244010425617_570725269610821/comments?limit=1&summary=1&after=NTcwNzI2MjQyOTQ0MDU3"},"summary":{"order":"chronological","total_count":36}}}