{"id":"229244010425617_575924519090896","type":"status","from":{"id":"100001458099624","name":"Kham Pha"},"message":"Bài 56: Thành ngữ tiếng Nhật (phần 1)\n\n☆「頭の上の蝿を追え」\n【あたまのうえのはえをおえ】 (Atama no ue no hae wo oe)\nTrực dịch: “Hãy đuổi con ruồi ở trên đầu mình trước đi.”\nGiải nghĩa: Hãy lo cho bản thân mình trước khi đi lo cho người khác.\nThành ngữ tương đương trong tiếng Việt:\n“Ốc không mang nổi mình ốc lại còn đòi mang cọc cho rêu”\n\n☆「生け簀の鯉」\n【いけすのこい】（Ikesu no koi)\nTrực dịch: “Cá chép trong bể”\nGiải nghĩa: Bị mất hết tự do, hoặc đằng nào cũng bị chết.\nThành ngữ tương đương trong tiếng Việt:\n“Cá trên thớt”\n\n☆「油を売る」\n【あぶらをうる】 (Abura wo uru)\nTrực dịch: “Bán dầu”\nGiải nghĩa: Nói chuyện phiếm giết thời gian, hoặc trốn việc.\nNguồn gốc: Những người đi bán dầu gội đầu thời Edo hay bán hàng cho các cô các bà bằng cách dành thời gian dài nói chuyện trên trời dưới biển với các cô các bà\nThành ngữ/cách nói tương đương trong tiếng Việt:\n“Buôn dưa lê”\n“Chém gió” (?)\n\n☆「勤勉は成功の母」\n【きんべんはせいこうのはは】(Kinben wa seiko no haha)\nTrực dịch: “Cần cù là mẹ thành công”\nGiải nghĩa: Cần cù, siêng năng là yếu tố quan trọng nhất tạo nên thành công trong cuộc đời.\nDịch từ Thành ngữ trong tiếng Anh: “Diligence is the mother of good fortune.”\nThành ngữ/cách nói tương đương trong tiếng Việt:\n“Cần cù bù thông minh”\n\n(SƯU TẦM)","created_time":"2012-12-18T01:12:02+0000","updated_time":"2012-12-18T03:04:43+0000","likes":{"data":{"1146680551":{"id":"1146680551","name":"優しい なぁ"},"100001720990331":{"id":"100001720990331","name":"Đỗ Đình Tiệp"},"100002754998000":{"id":"100002754998000","name":"Nguyen Duc"},"620134445":{"id":"620134445","name":"Anh Do"},"100000083393860":{"id":"100000083393860","name":"Bùi Minh Kết"},"100004238112569":{"id":"100004238112569","name":"Hoàng Quốc Việt"},"100001695345798":{"id":"100001695345798","name":"Tyn Aki"},"100001260645727":{"id":"100001260645727","name":"Ngo Duy Son"},"100001501391912":{"id":"100001501391912","name":"Lai Hoang Duc"},"100000383155614":{"id":"100000383155614","name":"Phạm Thúc Hưng"}},"paging":{"cursors":{"after":"MTE0NjY4MDU1MQ==","before":"MTE0NjY4MDU1MQ=="},"next":"https://graph.facebook.com/229244010425617_575924519090896/likes?limit=1&summary=1&after=MTE0NjY4MDU1MQ%3D%3D"},"summary":{"total_count":10}},"comments":{"data":{"575936815756333":{"id":"575936815756333","from":{"id":"100001501391912","name":"Lai Hoang Duc"},"message":"hay :))","can_remove":false,"created_time":"2012-12-18T01:39:23+0000","like_count":0,"user_likes":false},"575938519089496":{"id":"575938519089496","from":{"id":"100001501391912","name":"Lai Hoang Duc"},"message":"trong font tiếng Nhật của window có chỗ viết furigana ko nhỉ? Kham Pha","message_tags":[{"id":"100001458099624","name":"Kham Pha","type":"user","offset":62,"length":8}],"can_remove":false,"created_time":"2012-12-18T01:45:27+0000","like_count":0,"user_likes":false},"575964055753609":{"id":"575964055753609","from":{"id":"100001458099624","name":"Kham Pha"},"message":"gõ furigana chữ nhỏ trong office thì bôi đen đoạn văn bản rồi ấn tổ hợp phím Alt+o+l+u","can_remove":false,"created_time":"2012-12-18T03:04:43+0000","like_count":0,"user_likes":false}},"paging":{"cursors":{"after":"NTc1OTM2ODE1NzU2MzMz","before":"NTc1OTM2ODE1NzU2MzMz"},"next":"https://graph.facebook.com/229244010425617_575924519090896/comments?limit=1&summary=1&after=NTc1OTM2ODE1NzU2MzMz"},"summary":{"order":"chronological","total_count":3}}}