{"id":"229244010425617_586466704703344","type":"link","picture":"https://fbexternal-a.akamaihd.net/safe_image.php?d=AQCWXhNJXEwB1AuU&w=154&h=154&url=http%3A%2F%2Fwww.mediafire.com%2Fimages%2Fmf_logo50x50.png","link":"http://www.mediafire.com/?5hyaddba95y78xx","from":{"id":"100002754998000","name":"Nguyen Duc"},"message":"http://www.mediafire.com/?5hyaddba95y78xx\nGiáo trình HỌC KANJI thông qua hình ảnh rất SINH ĐỘNG và DỄ NHỚ, mọi người tham khảo nhé :D \nLink review http://www.youtube.com/watch?v=U24MGDYlXZ0","created_time":"2013-01-06T14:34:46+0000","updated_time":"2013-01-13T03:24:04+0000","likes":{"data":{"100001690659856":{"id":"100001690659856","name":"Nguyễn Trường Giang"},"100000388100257":{"id":"100000388100257","name":"Yuu Eguwota"},"100001508739620":{"id":"100001508739620","name":"Lê Ngọc Hoàn"},"1824015127":{"id":"1824015127","name":"Bùi Quang Tân"},"100001695345798":{"id":"100001695345798","name":"Tyn Aki"},"1146680551":{"id":"1146680551","name":"優しい なぁ"},"100003586944443":{"id":"100003586944443","name":"Đăng Lực Nguyễn"},"100001339152427":{"id":"100001339152427","name":"Trần Phương Huyền"},"100001458099624":{"id":"100001458099624","name":"Kham Pha"}},"paging":{"cursors":{"after":"MTAwMDAxNjkwNjU5ODU2","before":"MTAwMDAxNjkwNjU5ODU2"},"next":"https://graph.facebook.com/229244010425617_586466704703344/likes?limit=1&summary=1&after=MTAwMDAxNjkwNjU5ODU2"},"summary":{"total_count":9}},"comments":{"data":{"586919171324764":{"id":"586919171324764","from":{"id":"1146680551","name":"優しい なぁ"},"message":"Hay,cảm ơn bạn","can_remove":false,"created_time":"2013-01-07T11:19:52+0000","like_count":0,"user_likes":false},"589578987725449":{"id":"589578987725449","from":{"id":"100001864793577","name":"Sakura Đhbkhn"},"message":"cảm ơn ban! hay qua!","can_remove":false,"created_time":"2013-01-12T09:27:56+0000","like_count":0,"user_likes":false},"589964547686893":{"id":"589964547686893","from":{"id":"100001508739620","name":"Lê Ngọc Hoàn"},"message":"Học kanji này Yuu Eguwota","message_tags":[{"id":"100000388100257","name":"Yuu Eguwota","type":"user","offset":14,"length":11}],"can_remove":false,"created_time":"2013-01-13T03:24:04+0000","like_count":1,"user_likes":false}},"paging":{"cursors":{"after":"NTg2OTE5MTcxMzI0NzY0","before":"NTg2OTE5MTcxMzI0NzY0"},"next":"https://graph.facebook.com/229244010425617_586466704703344/comments?limit=1&summary=1&after=NTg2OTE5MTcxMzI0NzY0"},"summary":{"order":"chronological","total_count":3}}}