{"id":"229244010425617_589244167758931","type":"status","from":{"id":"100001458099624","name":"Kham Pha"},"message":"Chào mọi người. 久しぶりですね！　\n\nViệc đầu tiên là muốn gửi lời xin lỗi đến mọi người trong thời gian qua đã không post bài đều đặn hàng tuần được. Lí do thì chủ yếu là vì tại Nhật bây giờ đang là thời kì bận rộn nhất của sinh viên, học sinh mà việc viết bài thì cũng chỉ có một mình mình. Để khắc phục điều này, trước mắt mình đã mời được 2 bạn Phạm Thúc Hưng và Tyn Aki cùng tham gia viết bài với tư cách là admin. Ngoài ra cũng sẽ còn nhiều bạn khác ko thể thường xuyên nhưng cũng sẽ viết bài chia sẻ. Dù biết nhiều hay biết ít, biết đúng hay biết sai cũng xin cảm ơn các bạn đã nhận lời tham gia. Sự thay đổi này hứa hẹn nhiều điều mới trong kiến thức mà mọi người sẽ nhận được nhờ vào cách viết bài mang quan điểm nhiều chiều, sự khác biệt trong tư duy, sự đa dạng trong kiến thức đến từ nhiều phía. Với phương châm là: \n\n- viết gì mình biết, viết gì mình hiểu\n- ko cao siêu, ko đánh đố\n- biết nhiều viết nhiều, biết ít viết ít.\n\ngroup hi vọng sẽ mang tiếng Nhật thường ngày đến với mọi người. \n  \nNgoài ra từ nay để tiện trong việc tra cứu, các bài viết sẽ thống nhất được viết dưới dạng note trên group, thay vì post trực tiếp như trước kia. Các bài viết trước kia cũng sẽ được viết lại dưới dạng note, 2 bài một ngày coi như là cách để mọi người cùng ôn lại kiến thức. Khi các bài cũ đều đã được ôn tập, các bài viết mới sẽ được bắt đầu. \n\nVới sự nhiệt tình và tận tâm làm việc từ ban quản trị, hi vọng nhận được sự ủng hộ của tất cả mọi người. Nếu thích bài viết hãy ấn like cảm ơn người viết bài, nếu thấy chỗ nào ko được hoặc ko hiểu hoặc thấy giúp ích hãy comment bên dưới. Nếu muốn viết bài chia sẻ, đừng ngần ngại, hãy liên lạc ban quản trị. Đừng lo bạn ko đủ kiến thức, viết sai hay ko tốt. Hãy nhớ rằng chẳng có gì đúng ngay từ đầu cả, có ai dám nói tất cả kiến thức mình có là chính xác hết? Nếu đã thừa nhận việc ấy thì viết sai cũng chả có gì lạ cả. Vả chăng nếu có chỉ là chúng ta sợ người khác thấy cái dốt của mình thôi. Một điểm lợi của viết bài là bạn sẽ càng hiểu thêm kiến thức đó. Bởi vì, nếu không thực sự hiểu vấn đề thì sẽ chẳng thể nào giải thích được cho người khác hiểu. Có thể nói, đẳng cấp cao nhất của việc học chính là giảng được cho người khác hiểu những cái mình đang học. \n\nVà cuối cùng để cho những bài viết, công sức này không trở nên vô nghĩa, các bạn hãy giới thiệu đến bạn bè của mình để chúng ta cùng tạo nên một group năng động, hữu ích. \n\n                                                                        Thay mặt ban quản trị \n                                                                                 \n                                                                                Kham Pha","created_time":"2013-01-11T16:37:22+0000","updated_time":"2013-01-24T17:44:19+0000","likes":{"data":{"100004205437257":{"id":"100004205437257","name":"Nỗi Đau Xót Xa"},"100002426242631":{"id":"100002426242631","name":"Bắc Hoàng"},"100004566972183":{"id":"100004566972183","name":"Tsuyoshi Ta"},"100003939756464":{"id":"100003939756464","name":"Cỏ Dại"},"100001941245667":{"id":"100001941245667","name":"Tham PtNguyen Kssdph"},"100001057467030":{"id":"100001057467030","name":"Buông Tay"},"100000228161071":{"id":"100000228161071","name":"Nguyễn Phương Thảo"},"100003498445099":{"id":"100003498445099","name":"Massie Cassie"},"100001912633316":{"id":"100001912633316","name":"Du Ca"},"100004458131717":{"id":"100004458131717","name":"Minh Huệ"},"100001906662819":{"id":"100001906662819","name":"Diện Thạch"},"100000021018532":{"id":"100000021018532","name":"Hương Nguyễn"},"100002458762180":{"id":"100002458762180","name":"Cry Kaisoul"},"1659470191":{"id":"1659470191","name":"Hằng Thu Trần"},"100003806454699":{"id":"100003806454699","name":"Khỉ Cướp Biển"},"100000642838301":{"id":"100000642838301","name":"Tuoi Tre Tuoi Tre"},"100003207550369":{"id":"100003207550369","name":"Khoa Doan"},"100003289836071":{"id":"100003289836071","name":"Lương Thị Thảo"},"100002827290312":{"id":"100002827290312","name":"Nhung Pham"},"100000340130908":{"id":"100000340130908","name":"B.n. Tùng"},"100001683443068":{"id":"100001683443068","name":"Dương Tươi"},"100001864793577":{"id":"100001864793577","name":"Sakura Đhbkhn"},"100003923401884":{"id":"100003923401884","name":"Vũ Ngọc Bích"},"100003278320496":{"id":"100003278320496","name":"Dong Doi"},"1773169835":{"id":"1773169835","name":"Nguyễn Tuấn Hải"},"100004381512091":{"id":"100004381512091","name":"Xương Rồng"},"100003179905990":{"id":"100003179905990","name":"Trâm Yoko"},"100000299798248":{"id":"100000299798248","name":"Vẹt Đêm"},"1270781159":{"id":"1270781159","name":"Pham Thi Thanh Nga"},"100000083393860":{"id":"100000083393860","name":"Bùi Minh Kết"},"100001720990331":{"id":"100001720990331","name":"Đỗ Đình Tiệp"},"100001918358456":{"id":"100001918358456","name":"Dương Sơn Tùng"},"100001100027589":{"id":"100001100027589","name":"Tuấn Anh Lê"},"100002676859353":{"id":"100002676859353","name":"Chu Quang Viên"},"100003814756892":{"id":"100003814756892","name":"Hai Nguyen"},"100003389919177":{"id":"100003389919177","name":"Chuột Trang"},"100001580479641":{"id":"100001580479641","name":"Hà Xuân Thủy"},"100000381394367":{"id":"100000381394367","name":"Thành Nguyễn"},"100003984307664":{"id":"100003984307664","name":"Ngoc Hung Ngoc"},"100001260645727":{"id":"100001260645727","name":"Ngo Duy Son"},"100000895978137":{"id":"100000895978137","name":"Vũ Thắng"},"1146680551":{"id":"1146680551","name":"優しい なぁ"},"100000268489214":{"id":"100000268489214","name":"Kaka Huy"},"100000266887521":{"id":"100000266887521","name":"Hương Lê Thu"},"100000641227862":{"id":"100000641227862","name":"Anh Lê"},"100001062202744":{"id":"100001062202744","name":"Hoang Garu"},"100002754998000":{"id":"100002754998000","name":"Nguyen Duc"},"100001695345798":{"id":"100001695345798","name":"Tyn Aki"},"100000250256418":{"id":"100000250256418","name":"Nguyen Viet Anh"},"100002369341715":{"id":"100002369341715","name":"Xu Li"}},"paging":{"cursors":{"after":"MTAwMDA0MjA1NDM3MjU3","before":"MTAwMDA0MjA1NDM3MjU3"},"next":"https://graph.facebook.com/229244010425617_589244167758931/likes?limit=1&summary=1&after=MTAwMDA0MjA1NDM3MjU3"},"summary":{"total_count":51}},"comments":{"data":{"589257264424288":{"id":"589257264424288","from":{"id":"100001695345798","name":"Tyn Aki"},"message":"cảm ơn anh Kham Pha đã viết bài thương xuyên trong 1  tg dài và 1 mình như vậy, dù kiến thức của bản thân ko nhiều nhưng sẽ mong được mọi ng chia sẻ, どうぞよろしくお願いします。Chúc các anh chị đang thi cử có kết quả tốt và luôn giữ mãi niềm đam mê vs ngôn ngữ của đất nc mặt trời mọc  ^^","message_tags":[{"id":"100001458099624","name":"Kham Pha","type":"user","offset":11,"length":8}],"can_remove":false,"created_time":"2013-01-11T16:57:37+0000","like_count":5,"user_likes":false},"589419934408021":{"id":"589419934408021","from":{"id":"100000198219367","name":"Chang Jiang"},"message":"cho các bài vào chung 1 note thôi, xem cho dễ chứ nhiều note quá mở mất công @-|","can_remove":false,"created_time":"2013-01-12T01:13:37+0000","like_count":0,"user_likes":false},"589915431025138":{"id":"589915431025138","from":{"id":"100001260645727","name":"Ngo Duy Son"},"message":"Hay cho anh Kham Pha!\nỦng hộ anh.","message_tags":[{"id":"100001458099624","name":"Kham Pha","type":"user","offset":12,"length":8}],"can_remove":false,"created_time":"2013-01-13T01:08:28+0000","like_count":1,"user_likes":false},"590420650974616":{"id":"590420650974616","from":{"id":"100000381394367","name":"Thành Nguyễn"},"message":"Chào mừng các bạn admin mới, hy vọng các bạn sẽ đóng góp thật tích cực cho group. Theo quan điểm của mình thì làm Admin cũng là một trong những phương pháp tốt nhất để tự trau dồi kiến thức tiếng Nhật của mình. Bởi vì những gì chúng nghe chúng ta sẽ quên, những gì chúng ta thấy chúng ta sẽ nhớ, còn những gì chúng ta làm chúng ta mới hiểu được nó, và cái gì chúng ta dạy cho người khác thì mới làm chúng ta sẽ trở nên tinh thông. Cách tốt nhất để học một cái gì đó là dạy cho người khác cái đó.","can_remove":false,"created_time":"2013-01-14T02:27:33+0000","like_count":2,"user_likes":false},"590919444258070":{"id":"590919444258070","from":{"id":"100000383155614","name":"Phạm Thúc Hưng"},"message":"từ thứ 2 tuần sau mình sẽ khởi động một bài cho năm mới nhé, mong mọi người giúp đỡ nhiều :D.","can_remove":false,"created_time":"2013-01-15T01:35:21+0000","like_count":2,"user_likes":false},"590920584257956":{"id":"590920584257956","from":{"id":"100001458099624","name":"Kham Pha"},"message":"tạm thời tuần sau cứ post thẳng lên group, đống note kia đang làm lại nên chờ chỗ ấy xong thì note hóa bài ấy. Bài tiếp theo là bài sô 59 nhớ.","can_remove":false,"created_time":"2013-01-15T01:39:22+0000","like_count":0,"user_likes":false},"590928254257189":{"id":"590928254257189","from":{"id":"100000383155614","name":"Phạm Thúc Hưng"},"message":"yep","can_remove":false,"created_time":"2013-01-15T02:09:53+0000","like_count":0,"user_likes":false},"596086993741315":{"id":"596086993741315","from":{"id":"1227392209","name":"Akai Wani"},"message":"chào cả nhà, mọi người chỉ giúp mình cài đặt bộ gõ phông chữ tiếng nhật với nhé, gõ cả trong word và trực tiếp lên fb nhé. arigatou nhìu nhìu :)","can_remove":false,"created_time":"2013-01-24T17:42:06+0000","like_count":0,"user_likes":false},"596087673741247":{"id":"596087673741247","from":{"id":"100001695345798","name":"Tyn Aki"},"message":"link này hướng dẫn chi tiết kèm hình ảnh minh họa bạn nha :) http://topglobis.com/hoc-tieng-nhat-online/i-topglobis/huong-dan-cai-dat-bo-go-tieng-nhat.html#windows7","can_remove":false,"created_time":"2013-01-24T17:44:19+0000","like_count":0,"user_likes":false}},"paging":{"cursors":{"after":"NTg5MjU3MjY0NDI0Mjg4","before":"NTg5MjU3MjY0NDI0Mjg4"},"next":"https://graph.facebook.com/229244010425617_589244167758931/comments?limit=1&summary=1&after=NTg5MjU3MjY0NDI0Mjg4"},"summary":{"order":"chronological","total_count":9}}}