{"id":"229244010425617_606317042718310","type":"video","picture":"https://fbexternal-a.akamaihd.net/safe_image.php?d=AQCWXhYj1rFjQIPk&w=130&h=130&url=http%3A%2F%2Fi4.ytimg.com%2Fvi%2FoUi9RX-B6rE%2Fmqdefault.jpg","link":"http://www.youtube.com/watch?v=oUi9RX-B6rE","source":"http://www.youtube.com/v/oUi9RX-B6rE?version=3&autohide=1&autoplay=1","from":{"id":"100000383155614","name":"Phạm Thúc Hưng"},"message":"Bài 65 : Tôn kính ngữ.\n\nGiới thiệu tôn kình ngữ : chắc có rất nhiều bạn đã biết về tôn kính ngữ nhưng mình xin được nói qua. Tôn kính ngữ là loại ngôn ngữ dùng để thể hiện lòng kính trọng của mình đối với đối phương. Và tôn kính ngữ chỉ dùng trong khi nói về những hành động, trạng thái của họ, ví dụ như \"Ngài bla bla đang dùng bữa\", \"Ngài bla bla đang mệt\" v.v... và tuyệt đối tránh sử dụng khi nói về các hành động, trạng thái của bản thân (để nói về bản thân sẽ dùng khiêm tốn ngữ mình post ở bài sau, vì 2 cái này dễ lầm, và một khi lầm dễ mà ăn đấm), ví dụ \"tôi ăn phở\", \"tôi sắp đến\"v.v...  \n Trước hết hãy đến với tôn kính ngữ nào.\n\n[Về cách chia động từ] \nCó 3 cách chia :\nLoại 1 : chuyển động từ về thể bị động.　～られます。\nVí dụ : \n切る　　→　切られる。\n思う　　→　思われます。\nLoại 2 : chuyển động từ về kiểu ご～になります。\nCách chuyển : động từ thể masu bỏ masu, thêm go hoặc wo tùy trường hợp vào đầu và になります vào cuối\n例　：\n働く　　→　お働きになります。\n休む　　→　お休みになります。\nLoại 3 : Các động từ đặc biệt.\nする　　→　なさいます。\n来る、行く、いる　　→　いらっしゃいます。\n食べる　→　召し上がります。（めしあがります）。\n見る　　→　ご覧になります。　（ごらんになります）。\n知る　　→　ご存知です。\n寝る　　→　お休みになります。\n\n[Về câu sai khiến]\nMột chút về câu mệnh lệnh trong tôn kính ngữ : nó không còn là Vてください　nữa. Mà sẽ là :\nお～ください。　(ở đây động từ để thể masu nhưng bỏ masu)\nVí dụ : 少々お待ちください。\nĐây là một câu mà nếu làm trong công ty Nhật là khả năng rất cao các bạn sẽ phải gặp.\n\n[Một số chú ý khác] - 1\nCó rất nhiều từ phải thay đổi trong tôn kính ngữ như :\n今日　→　本日\nちょっと　→　少々\nVà mình cũng chả biết nhiều mà viết thêm, các bạn chỉ có thể biết bằng cách tự tích lũy kinh nghiệm cho bản thân qua sách vở và thực tế.\n\n[Một số chú ý khác] - 2\nCuối cùng, mình nói về một thói quen hơi lạ trong giao tiếp người Nhật là phân biệt người nhà và khách. Ví dụ như :\nKhi nói chuyện với khách ở công ty khác, những người trong công ty mình sẽ là người nhà.\nKhi nói chuyện với người ngoài, những người trong gia đình mình cũng là người nhà (đương nhiên).\n...\nCó một điểm khá tiện là dù ông giám đốc của mình thì khi nhắc đến như là người nhà thì cũng chả cần thêm さん（さま）nữa. Và (cái này mình không chắc lắm, có bạn nào xác minh hộ minh) là khi nói chuyện với người ở công ty khác, cũng không dùng kính ngữ khi nói đến giám đốc hay cấp trên ở công ty mình.\n\n***********************************************************\nNào, để hiểu và nhớ, mình muốn cho các bạn xem một đoạn hội thoại, nhưng cái này cần cả khiêm tốn ngữ nên để buổi sau mình sẽ post lên nhé. Tuy nhiên sẽ bù lại cho các bạn một clip về ビジネスマナー. Và một số câu ví dụ :\n権代部長がいらっしゃいますか？\n何かお発表になりますか？\n***********************************************************\nKết : Và về tôn kính ngữ là 1 thứ rất lèo nhèo phức tạp nữa mà mình không thể nói hết ra ở đây (mà thực ra mình rất ngu phần này :))). Nên rất mong các bạn có thêm kiến thức có thể bổ sung vào bài bằng cmt. \nThứ 2 tuần sau là tết rồi nên mình xin nghỉ post để ăn tết nhé.\nChúc các bạn một năm mới thành công nhé!","created_time":"2013-02-04T06:57:28+0000","updated_time":"2013-02-05T13:54:42+0000","likes":{"data":{"1227392209":{"id":"1227392209","name":"Akai Wani"},"100002060967373":{"id":"100002060967373","name":"Mai Hoang"},"100003235211481":{"id":"100003235211481","name":"Huyền Ngố"},"100001458099624":{"id":"100001458099624","name":"Kham Pha"},"100001695345798":{"id":"100001695345798","name":"Tyn Aki"}},"paging":{"cursors":{"after":"MTIyNzM5MjIwOQ==","before":"MTIyNzM5MjIwOQ=="},"next":"https://graph.facebook.com/229244010425617_606317042718310/likes?limit=1&summary=1&after=MTIyNzM5MjIwOQ%3D%3D"},"summary":{"total_count":5}},"comments":{"data":{"606318022718212":{"id":"606318022718212","from":{"id":"100001695345798","name":"Tyn Aki"},"message":"bài này phải ngâm cứu lâu đây anh ạ ;))","can_remove":false,"created_time":"2013-02-04T07:01:09+0000","like_count":0,"user_likes":false},"606318232718191":{"id":"606318232718191","from":{"id":"100000383155614","name":"Phạm Thúc Hưng"},"message":"Uh, lúc viết 1 đống cái định viết mà 1 lúc sau lại quên sạch. Còn khiêm tốn ngữ nữa chứ, đúng là không thể dừng lại ở đây :P","can_remove":false,"created_time":"2013-02-04T07:02:16+0000","like_count":1,"user_likes":false},"606318669384814":{"id":"606318669384814","from":{"id":"100001695345798","name":"Tyn Aki"},"message":"Chang Jiang ơi, bài anh Phạm Thúc Hưng hiểu rõ hơn về Omachi nhá ;))","message_tags":[{"id":"100000198219367","name":"Chang Jiang","type":"user","offset":0,"length":11},{"id":"100000383155614","name":"Phạm Thúc Hưng","type":"user","offset":24,"length":14}],"can_remove":false,"created_time":"2013-02-04T07:03:56+0000","like_count":0,"user_likes":false},"606330269383654":{"id":"606330269383654","from":{"id":"100000198219367","name":"Chang Jiang"},"message":"bài mới học Phạm Thúc Hưng nó post luôn lên đây cho đỡ quên à :v :v :v","message_tags":[{"id":"100000383155614","name":"Phạm Thúc Hưng","type":"user","offset":12,"length":14}],"can_remove":false,"created_time":"2013-02-04T07:55:39+0000","like_count":1,"user_likes":false},"606335496049798":{"id":"606335496049798","from":{"id":"100001695345798","name":"Tyn Aki"},"message":"đâu, kế hoạch của anh này mấy tuần rồi mà ;))","can_remove":false,"created_time":"2013-02-04T08:21:51+0000","like_count":0,"user_likes":false},"606339249382756":{"id":"606339249382756","from":{"id":"100000198219367","name":"Chang Jiang"},"message":"hôm nọ vừa mới học :v","can_remove":false,"created_time":"2013-02-04T08:38:05+0000","like_count":0,"user_likes":false},"606377812712233":{"id":"606377812712233","from":{"id":"100002060967373","name":"Mai Hoang"},"message":"Omachi là loại mì Omachi ấy hở???:\">","can_remove":false,"created_time":"2013-02-04T11:06:23+0000","like_count":0,"user_likes":false},"606441319372549":{"id":"606441319372549","from":{"id":"1227392209","name":"Akai Wani"},"message":"admin ơi, khi nào các bạn post bài về 漢字　được ko?, cả về âm đọc  và ví dụ từ cụ thể nhé ^^","can_remove":false,"created_time":"2013-02-04T14:27:27+0000","like_count":0,"user_likes":false},"606442252705789":{"id":"606442252705789","from":{"id":"100000198219367","name":"Chang Jiang"},"message":"kanji thì nhiều vô tận lắm bạn ơi :))","can_remove":false,"created_time":"2013-02-04T14:30:43+0000","like_count":0,"user_likes":false},"606442839372397":{"id":"606442839372397","from":{"id":"1227392209","name":"Akai Wani"},"message":"vô tận thì vẫn phải học mà, hichic được chữ nào hay chữ ấy :D","can_remove":false,"created_time":"2013-02-04T14:33:07+0000","like_count":1,"user_likes":false},"606731662676848":{"id":"606731662676848","from":{"id":"100001580479641","name":"Hà Xuân Thủy"},"message":"Mình cũng ghét phần kính ngữ này, dốt phần này nên h đi làm ko dám nghe đt của khách hàng, tôn kính, khiêm nhường, lịch sự loằng ngoằng:))\nNhưng mà cái gì cũng vậy mưa dầm thấm lâu, lâu lâu đọc lại vài lần rồi nghe người nhật nói sẽ ít nhìu ngấm đc ít nhất là hiểu người ta nói gì:d","can_remove":false,"created_time":"2013-02-05T03:37:51+0000","like_count":1,"user_likes":false},"606732686010079":{"id":"606732686010079","from":{"id":"100000383155614","name":"Phạm Thúc Hưng"},"message":"Akai Wani Kham Pha  Tyn Aki ơi, nếu làm kanji thì sao nhỉ? mỗi bài sẽ gồm 1 số chữ nào đấy thôi?","message_tags":[{"id":"1227392209","name":"Akai Wani","type":"user","offset":0,"length":9},{"id":"100001458099624","name":"Kham Pha","type":"user","offset":10,"length":8},{"id":"100001695345798","name":"Tyn Aki","type":"user","offset":20,"length":7}],"can_remove":false,"created_time":"2013-02-05T03:40:24+0000","like_count":1,"user_likes":false},"606733092676705":{"id":"606733092676705","from":{"id":"100001695345798","name":"Tyn Aki"},"message":"em thấy trog bài có các chứ kanji rồi phiên âm,  thế cũng là học mà ak, nếu ai yêu thích thì có thể tự tra từ hán nhật, nhưng nếu có bài viết nào nói về cái hay, nghĩa của một từ kanji thì vỗ tay ủng hộ ạ ;¥)","can_remove":false,"created_time":"2013-02-05T03:42:16+0000","like_count":0,"user_likes":false},"606733099343371":{"id":"606733099343371","from":{"id":"100001458099624","name":"Kham Pha"},"message":"Ko, nên làm theo kiểu mối tương quan giữa âm hán việt và cách đọc trong tiếng Nhật hoặc là các bộ cơ bản trong kanji","can_remove":false,"created_time":"2013-02-05T03:42:20+0000","like_count":0,"user_likes":false},"606733189343362":{"id":"606733189343362","from":{"id":"100001458099624","name":"Kham Pha"},"message":"Ờ đúng như thế đấy.","can_remove":false,"created_time":"2013-02-05T03:42:45+0000","like_count":0,"user_likes":false},"606733522676662":{"id":"606733522676662","from":{"id":"100000383155614","name":"Phạm Thúc Hưng"},"message":"Thôi các bác quyết đi, kanji em học kèm theo từ chứ chả học theo bộ với ý nghĩa bao giờ :P nên cáci vụ này mù tịt nha :))","can_remove":false,"created_time":"2013-02-05T03:44:05+0000","like_count":0,"user_likes":false},"606734012676613":{"id":"606734012676613","from":{"id":"100001695345798","name":"Tyn Aki"},"message":"kể ra các anh có nhiều kinh nghiệm dể mẹo đọc kanji ấy ạ ;)) ví dụ bộ này thì hầu như đọc như thế này..... làm cho việc doc kanji thu vi hơn chút :d","can_remove":false,"created_time":"2013-02-05T03:46:09+0000","like_count":0,"user_likes":false},"606734099343271":{"id":"606734099343271","from":{"id":"100001580479641","name":"Hà Xuân Thủy"},"message":"Tết mà hội ko tổ chức off gì ah?\nKanji và tango bao h cũng là vấn đề số một nhưng lại chỉ có thể tự học:(","can_remove":false,"created_time":"2013-02-05T03:46:25+0000","like_count":1,"user_likes":false},"606737219342959":{"id":"606737219342959","from":{"id":"100001580479641","name":"Hà Xuân Thủy"},"message":"Mình nghĩ với các bạn có lượng từ mới tầm n2 trở lên thì muốn học kanji kiểu gì cũng đc, còn tầm n3 trở xuống như mình thì theo ý kiến chủ quan là chỉ nên học các kanji kèm theo giáo trình, ko cần bộ thuộc, on-kun gì hết, cũng ko cần học các từ liên quan mà mình chưa biết nghĩa) học xong khoảng 500 chữ tự mình sẽ nhận ra nhiều điều, và tự biết hướng học tiếp theo.","can_remove":false,"created_time":"2013-02-05T03:52:46+0000","like_count":2,"user_likes":false},"606739786009369":{"id":"606739786009369","from":{"id":"100001580479641","name":"Hà Xuân Thủy"},"message":"Xin nói thêm một chút là nếu có thể thì tốt nhất nên nhớ âm Hán Việt, nhớ đc nó thì sau này ghép từ và đoán nghĩa sẽ dễ dàng hơn:)","can_remove":false,"created_time":"2013-02-05T03:58:22+0000","like_count":0,"user_likes":false},"606740429342638":{"id":"606740429342638","from":{"id":"100002967791944","name":"Tôi Yêu VietNam"},"message":"cho mình hỏi làm thế nào để học từ mới vậy?","can_remove":false,"created_time":"2013-02-05T04:01:26+0000","like_count":0,"user_likes":false},"606740736009274":{"id":"606740736009274","from":{"id":"100002967791944","name":"Tôi Yêu VietNam"},"message":"kanji thi minh hoc duoc rất nhiều nhưng chỉ nhìn chữ đoán nghĩa thôi cũng biết được một chút nhờ chữ hán nữa","can_remove":false,"created_time":"2013-02-05T04:02:43+0000","like_count":0,"user_likes":false},"606741299342551":{"id":"606741299342551","from":{"id":"100001458099624","name":"Kham Pha"},"message":"Từ mới thì chắc là tự tìm cách học thôi. Mỗi người có cách học riêng dễ nhớ.","can_remove":false,"created_time":"2013-02-05T04:05:15+0000","like_count":0,"user_likes":false},"606741606009187":{"id":"606741606009187","from":{"id":"100002967791944","name":"Tôi Yêu VietNam"},"message":"mình chỉ thấy khó mỗi từ mới thôi!","can_remove":false,"created_time":"2013-02-05T04:06:42+0000","like_count":0,"user_likes":false},"606741736009174":{"id":"606741736009174","from":{"id":"100002967791944","name":"Tôi Yêu VietNam"},"message":"còn kanji thì mình nghĩ đơn giản","can_remove":false,"created_time":"2013-02-05T04:07:10+0000","like_count":0,"user_likes":false},"606741912675823":{"id":"606741912675823","from":{"id":"100002967791944","name":"Tôi Yêu VietNam"},"message":"vì mình học một khóa tiếng trung hán tự một thời gian nên học chữ hán rất nhanh","can_remove":false,"created_time":"2013-02-05T04:07:58+0000","like_count":0,"user_likes":false},"606742119342469":{"id":"606742119342469","from":{"id":"100002967791944","name":"Tôi Yêu VietNam"},"message":"từ mới thì mình học tiếng nhật một thời gian thấy nói nhiều và đọc nhiều sẽ nhớ nhưng thấy tiến độ chậm quá","can_remove":false,"created_time":"2013-02-05T04:08:51+0000","like_count":0,"user_likes":false},"606759746007373":{"id":"606759746007373","from":{"id":"100000383155614","name":"Phạm Thúc Hưng"},"message":"Nếu đã có vốn chữ Hán thì tìm 1 quyển truyện tiếng Nhật đọc đi :D, nếu có ngữ pháp ko hiểu thì tra lại trên group hoặc hỏi để mọi người trao đổi :v\nMình định làm cách này mà nhac quá, chưa kiếm quyển truyện nào đọc :P","can_remove":false,"created_time":"2013-02-05T04:45:57+0000","like_count":0,"user_likes":false},"606760699340611":{"id":"606760699340611","from":{"id":"100002967791944","name":"Tôi Yêu VietNam"},"message":"đọc chuyện tranh nhật cũng khó lắm.mình chưa quen kiểu viết từ trên xuống đọc từ một nhìn khó đoán cụm từ","can_remove":false,"created_time":"2013-02-05T04:48:05+0000","like_count":0,"user_likes":false},"606760866007261":{"id":"606760866007261","from":{"id":"100002967791944","name":"Tôi Yêu VietNam"},"message":"mình định tìm một quyển sách nhật nào đó để học","can_remove":false,"created_time":"2013-02-05T04:48:41+0000","like_count":0,"user_likes":false},"606761136007234":{"id":"606761136007234","from":{"id":"100001695345798","name":"Tyn Aki"},"message":"mua một quyển truyện ngắn của Nhật đọc ý, quyển đó trên mạng có bản transl tiếng Việt luôn ;)) tha hồ học ;))","can_remove":false,"created_time":"2013-02-05T04:49:57+0000","like_count":0,"user_likes":false},"606765622673452":{"id":"606765622673452","from":{"id":"100000198219367","name":"Chang Jiang"},"message":"mình thì toàn học kanji nhờ âm Hán Việt, từ âm Hán Việt thì trừ các từ đặc biệt ra cũng suy ra được ý nghĩa với kha khá cách đọc onyomi của 1 từ mới :v","can_remove":false,"created_time":"2013-02-05T04:59:32+0000","like_count":3,"user_likes":false},"606771159339565":{"id":"606771159339565","from":{"id":"100001580479641","name":"Hà Xuân Thủy"},"message":"Nói thêm một tí về kinh nghiệm học kanji cho các bạn mới bắt đầu là nhất định phải học cách viết cho cẩn thận, viết đúng thứ tự các nét thì sau này có viết cẩu thả vẫn ra chữ, đọc các bản viết tay dễ dàng hơn, và nếu có một kanji ko biết thì tra cứu cũng đơn giản hơn:).","can_remove":false,"created_time":"2013-02-05T05:12:16+0000","like_count":1,"user_likes":false},"606873575995990":{"id":"606873575995990","from":{"id":"1227392209","name":"Akai Wani"},"message":"hi all, mình thì nghĩ trong từng bài về  mẫu câu ngữ pháp khi đưa ra ví dụ cụ thể thì có thể giải thích nghĩa của kanji trong mẫu câu đó và phát âm theo âm kun - on. như vậy có ổn ko nhỉ?","can_remove":false,"created_time":"2013-02-05T09:54:15+0000","like_count":0,"user_likes":false},"606883609328320":{"id":"606883609328320","from":{"id":"100001458099624","name":"Kham Pha"},"message":"Thế thì bài sẽ rất dài, ôm đồm quá người đọc cũng ko nhớ hết đc.","can_remove":false,"created_time":"2013-02-05T10:30:53+0000","like_count":0,"user_likes":false},"606884259328255":{"id":"606884259328255","from":{"id":"100001458099624","name":"Kham Pha"},"message":"Với cả nhiều khi người viết bài muốn chia sẻ vấn đề khác và ko giỏi kanji thì làm sao viết như thế đc.","can_remove":false,"created_time":"2013-02-05T10:32:17+0000","like_count":0,"user_likes":false},"606885502661464":{"id":"606885502661464","from":{"id":"1227392209","name":"Akai Wani"},"message":"vậy thì làm ntn nào nhỉ?","can_remove":false,"created_time":"2013-02-05T10:38:42+0000","like_count":0,"user_likes":false},"606886902661324":{"id":"606886902661324","from":{"id":"1227392209","name":"Akai Wani"},"message":"mình hiện tại thì học kanji theo kiểu học từ nào biết từ đấy, nhìu khi thấy mình như là học vẹt ấy :(","can_remove":false,"created_time":"2013-02-05T10:43:24+0000","like_count":0,"user_likes":false},"606887849327896":{"id":"606887849327896","from":{"id":"100001580479641","name":"Hà Xuân Thủy"},"message":"Nếu ko thích học từng chữ đơn lẻ thì bạn có thể học theo chủ đề, vd: động vật, bốn mùa, phương hướng, gia đình,.....mình học kanji càng ngày càng quên, lý do là lâu rồi ko luyện viết:(","can_remove":false,"created_time":"2013-02-05T10:46:58+0000","like_count":0,"user_likes":false},"606948409321840":{"id":"606948409321840","from":{"id":"100000198219367","name":"Chang Jiang"},"message":"Akai Wani:  nếu mọi ng ủng hộ thì mình sẽ mạn phép post 1 vài exp học kanji của mình lên(sợ gạch đá lắm :v )","message_tags":[{"id":"1227392209","name":"Akai Wani","type":"user","offset":0,"length":9}],"can_remove":false,"created_time":"2013-02-05T13:07:49+0000","like_count":4,"user_likes":false},"606957242654290":{"id":"606957242654290","from":{"id":"100001458099624","name":"Kham Pha"},"message":"Viết đi anh Jiang. Ủng hộ 2 tay luôn!","can_remove":false,"created_time":"2013-02-05T13:26:20+0000","like_count":1,"user_likes":false},"606970022653012":{"id":"606970022653012","from":{"id":"1227392209","name":"Akai Wani"},"message":"ủng hộ chứ, đếm từng giây chờ bạn post bài lên đây ^^","can_remove":false,"created_time":"2013-02-05T13:54:42+0000","like_count":0,"user_likes":false}},"paging":{"cursors":{"after":"NjA2MzE4MDIyNzE4MjEy","before":"NjA2MzE4MDIyNzE4MjEy"},"next":"https://graph.facebook.com/229244010425617_606317042718310/comments?limit=1&summary=1&after=NjA2MzE4MDIyNzE4MjEy"},"summary":{"order":"chronological","total_count":42}}}