{"id":"229244010425617_606993129317368","type":"status","from":{"id":"100000198219367","name":"Chang Jiang"},"message":"Lần đầu viết bài, mong mọi người gạch đá nhẹ tay kẻo bể đầu iem ạ :\">\n\nTổng quan về kanji:\n\n*Về cách đọc: hầu như ko có quy tắc nào về kunyomi, nhưng onyomi thì có những cách chủ yếu sau:\n \nCách 1: Học theo từng từ, từng chữ, và nhớ theo từ, chữ\nCách này do mình có ấn tượng với từ nào nhớ từ đó nên vừa nhớ cách đọc từ đó, vừa nhớ nghĩa nhớ chữ,  năm được cả onyomi lẫn kunyomi\nNhư VD bạn tới nhà ga  có chữ 窓口 (madoguchi ~ cửa thông tin tiếp đón),  hoặc tới ở sân bay có chỗ 両替　(ryougae ~ đổi tiền) mình thấy hay hay thế là mình nhớ :))\n\nCách 2: Học theo bộ thủ\nCó rất nhiều bộ,  và thông thường các chữ có bộ chính giống nhau thì có cách đọc giống nhau (tất nhiên là trừ vài ngoại lệ ra).\nNhư các chữ: 剣、険、検、験các bạn thấy nó đều có 1 bộ chính giống nhau, và đều đọc là ken\nƯu điểm nữa của cách học này là dễ nhớ cách viết các chữ, nhớ được onyomi\n\nCách 3: Học theo âm Hán Việt\nMình đưa kanji về gần với tiếng Việt, do đó cách đọc dễ nhớ (có quy tắc để suy từ âm Hán Việt ra onyomi) và nhiều khi nhìn từ mình ko biết nghĩa, nhưng nếu mình biết âm Hán Việt của cả 2 chữ thì mình vẫn có thể đoán được nghĩa. Nhớ được âm Hán Việt thì coi như đỡ phải học onyomi lẫn nghĩa.\nChẳng hạn như mình đã biết 削(“tước” trong tước bỏ) và 除(“trừ” trong tiễu trừ) thì ta có thể đoán được ngay 削除(tước trừ) nghĩa là xoá, loại bỏ hay chữ 機(“cơ”) và 能(năng) ta ghép lại được 2 chữ “cơ năng”, đoán được ngay nghĩa vì “cơ năng” là 1 từ quá quen thuộc. Như mình biết cách suy từ âm Hán Việt ra onyomi thì trừ các trường hợp ngoại lệ ra, vẫn có thể biết được cách đọc của nó (nắm được cả âm dài và âm ngắn), ở đây là sakujo và kinou\n\n*Về cách viết\n\nCách 1: Học theo quy củ, tức là học viết theo bộ hoặc theo thứ tự số nét tăng dần\nCách 2: Theo cách của … chính bạn\nTự mình sẽ hình dung để nhớ được các nét, và tuỳ mỗi người sẽ có một cách liên tưởng độc đáo.\nVD như chữ “giáo” 教chẳng hạn, hồi mới học mình liên tưởng thế này, bộ bên phải giống cái tay cầm roi (nét cong chéo), bắt đứa trẻ （子） nằm úp mặt xuống đất（土） để cho ăn đòn :)) do tự mình liên tưởng nên rất dễ nhớ :))\n\nBản thân mình thì để nhớ âm mình kết hợp cách 2 và cách 3 để nhớ âm, chủ yếu nhớ âm Hán Việt và biết 1 vài bộ thủ thông dụng; còn để nhớ mặt chữ thì mình lại chọn cách … “tưởng tượng” :)) bởi vì làm cái j muốn hiệu quả cũng cần phải tự tạo cho mình hứng thú.\n\nP/s: Nếu sau này (ko bị gạch đá) mình sẽ viết các quy tắc nhớ âm onyomi cho các kanji từ ấm Hán Việt, ko phải đau đầu về vấn đề âm dài âm ngắn nữa. Chính nhờ học kiểu này mà khi học từ mới mình rất nhàn, cứ xem 1 dọc từ nếu từ nào kanji đọc toàn bằng onyomi thì đỡ phải khổ công học thuộc nghĩa với âm đọc, vì mình đã biết âm Hán Việt coi như chả cần học cũng nhớ, còn từ nào nghĩa hoặc âm “dị” thì mới phải tra, phải học :))","created_time":"2013-02-05T14:56:29+0000","updated_time":"2013-02-16T14:58:01+0000","likes":{"data":{"100004064447693":{"id":"100004064447693","name":"Con Ma Ko Don"},"100001844269163":{"id":"100001844269163","name":"Bằng Ngô Quý"},"100003813549176":{"id":"100003813549176","name":"Hau Phung"},"1550521697":{"id":"1550521697","name":"Trình Nguyễn"},"1659470191":{"id":"1659470191","name":"Hằng Thu Trần"},"100002265193557":{"id":"100002265193557","name":"Gấu Mó"},"100000088874261":{"id":"100000088874261","name":"Trần Đức Quang"},"100001062202744":{"id":"100001062202744","name":"Hoang Garu"},"100002060967373":{"id":"100002060967373","name":"Mai Hoang"},"100001597637331":{"id":"100001597637331","name":"Nguyen Minh Tien"},"100001007000967":{"id":"100001007000967","name":"Bibi Nguyễn"},"100002676859353":{"id":"100002676859353","name":"Chu Quang Viên"},"1227392209":{"id":"1227392209","name":"Akai Wani"},"100001754136107":{"id":"100001754136107","name":"Nguyễn Tuấn Vũ"},"100003281042620":{"id":"100003281042620","name":"Nguyễn Bảo Ngọc"},"100000383155614":{"id":"100000383155614","name":"Phạm Thúc Hưng"},"100001695345798":{"id":"100001695345798","name":"Tyn Aki"},"100001458099624":{"id":"100001458099624","name":"Kham Pha"}},"paging":{"cursors":{"after":"MTAwMDA0MDY0NDQ3Njkz","before":"MTAwMDA0MDY0NDQ3Njkz"},"next":"https://graph.facebook.com/229244010425617_606993129317368/likes?limit=1&summary=1&after=MTAwMDA0MDY0NDQ3Njkz"},"summary":{"total_count":18}},"comments":{"data":{"606994152650599":{"id":"606994152650599","from":{"id":"100001458099624","name":"Kham Pha"},"message":"\" bởi vì làm cái j muốn hiệu quả cũng cần phải tự tạo cho mình hứng thú.\" ->like câu này.","can_remove":false,"created_time":"2013-02-05T15:00:50+0000","like_count":2,"user_likes":false},"606994362650578":{"id":"606994362650578","from":{"id":"100001695345798","name":"Tyn Aki"},"message":"em thấy ném đá nhiều tích gạch xây nhà tốt chứ ạ ;)) cảm ơn bài viết a nhiều ạ, hihi, e thích nhất cái nhìn bộ đoán cách đọc âm on- và nhìn chữ Hán đoán nghĩa, nhiều từ phải feeling lắm ms ra nghĩa, thấy thích chữ Hán hơn và việc học ko bị nhàm chán ;))","can_remove":false,"created_time":"2013-02-05T15:01:03+0000","like_count":1,"user_likes":false},"606994862650528":{"id":"606994862650528","from":{"id":"100000198219367","name":"Chang Jiang"},"message":"hứng thú của mình khi học kanji bằng Hán Việt là từ việc ... xem phim chưởng Tàu nhiều :v nên học kanji hay tra âm Hán Việt để sau còn coi chưởng :v \n\nvới lại đi đình, chùa đọc được những chữ Hán viết ở tường, hoành phi, v.v... thấy oai lắm chứ :>","can_remove":false,"created_time":"2013-02-05T15:02:56+0000","like_count":4,"user_likes":false},"606995705983777":{"id":"606995705983777","from":{"id":"100001458099624","name":"Kham Pha"},"message":"lần sau post bài buổi sáng đi, post thế này là em đi ngủ mất đấy.","can_remove":false,"created_time":"2013-02-05T15:05:02+0000","like_count":0,"user_likes":false},"606995859317095":{"id":"606995859317095","from":{"id":"100001695345798","name":"Tyn Aki"},"message":"em cũng thích khoản đi chùa, đọc chư Hán và có thể đàm đạo đc vs cái bạn Trung học ;)) nhưng vốn từ còn hạn chế lâm :))","can_remove":false,"created_time":"2013-02-05T15:05:21+0000","like_count":1,"user_likes":false},"606996072650407":{"id":"606996072650407","from":{"id":"100000198219367","name":"Chang Jiang"},"message":"Kham Pha ở Nhậ rồi còn học j nữa :v","message_tags":[{"id":"100001458099624","name":"Kham Pha","type":"user","offset":0,"length":8}],"can_remove":false,"created_time":"2013-02-05T15:05:56+0000","like_count":1,"user_likes":false},"606997142650300":{"id":"606997142650300","from":{"id":"100001458099624","name":"Kham Pha"},"message":"ở Nhật thì ko cần học ah, đầy cái có biết quái đâu. Với lại cách tư duy của người khác không giống mình, nhìn từ khía cạnh khác tốt hơn là chỉ nhìn một phía.","can_remove":false,"created_time":"2013-02-05T15:07:51+0000","like_count":2,"user_likes":false},"607006879315993":{"id":"607006879315993","from":{"id":"1227392209","name":"Akai Wani"},"message":"vì thích xem phim chưởng Tàu nên bạn Chang Jiang rất hứng thú học chữ Hán :)","message_tags":[{"id":"100000198219367","name":"Chang Jiang","type":"user","offset":37,"length":11}],"can_remove":false,"created_time":"2013-02-05T15:34:51+0000","like_count":0,"user_likes":false},"607007442649270":{"id":"607007442649270","from":{"id":"100000198219367","name":"Chang Jiang"},"message":"ơ ko, phải nói là do thích xem phim chưởng nên mới có hứng thú học âm Hán Việt của kanji ;)) 1 công đôi việc ;))","can_remove":false,"created_time":"2013-02-05T15:35:57+0000","like_count":1,"user_likes":false},"607009802649034":{"id":"607009802649034","from":{"id":"1227392209","name":"Akai Wani"},"message":"mình đi tìm xem phim chưởng Tàu đây :P","can_remove":false,"created_time":"2013-02-05T15:41:08+0000","like_count":0,"user_likes":false},"613073165376031":{"id":"613073165376031","from":{"id":"100004064447693","name":"Con Ma Ko Don"},"message":"ありがとございます。","can_remove":false,"created_time":"2013-02-16T14:58:01+0000","like_count":0,"user_likes":false}},"paging":{"cursors":{"after":"NjA2OTk0MTUyNjUwNTk5","before":"NjA2OTk0MTUyNjUwNTk5"},"next":"https://graph.facebook.com/229244010425617_606993129317368/comments?limit=1&summary=1&after=NjA2OTk0MTUyNjUwNTk5"},"summary":{"order":"chronological","total_count":11}}}