{"id":"229244010425617_607258299290851","type":"link","picture":"https://fbstatic-a.akamaihd.net/rsrc.php/v2/y3/r/0PnClccPFXs.png","link":"https://www.facebook.com/groups/CongdongVietNhat/","from":{"id":"100001458099624","name":"Kham Pha"},"message":"Bài 66: Tiếng Nhật lóng (phần 4)\n\nChào mọi người, không khí Tết ở nhà thế nào rồi? Không biết có ai tốt bụng gửi cho mình chút không khí Tết không, chắc phải còn lâu nữa mới được ăn Tết nhà :(   \nGần đây có một show truyền hình thực tế của Nhật mà trong đó có đề cập đến những từ lóng “xấu nhất” trong tiếng Nhật. Và những từ xấu nhất này lại thường là những từ được giới trẻ dùng nhiều nhất. Nó xấu không phải vì nó mang nghĩa xấu mà nó xấu vì trong những hoàn cảnh giao tiếp không phù hợp nó trở nên rất xấu. Ở các phần trước mình đã nói rằng tiếng lóng không nên dùng với người lớn tuổi, cấp trên và trong những hoàn cảnh trang trọng. Nó chỉ thích hợp với giao tiếp bạn bè, người thân thích thôi.  Vậy hôm nay xin được giới thiệu tới các bạn top 5 những từ này, ít nhất nếu không dùng thì bạn cũng có thể hiểu được người ta đang nói gì.\n\n第5位：　っていうか\n\nTheo như chương trình đó thì cách nói chính xác của nó là と申しますか. Từ này có thể hiểu là “bạn nói gì?”. Nhưng mà thực sự thì mình cũng chưa nghe ai nói っていうか bao giờ nên cũng chả biết cấu trúc này dùng thế nào. \n\n第4位:　～的には　\n\n俺的には　nói chính xác là  私の考えでは, nghĩa là “theo suy nghĩ của tôi” \nお前的には　nói chính お前の考えでは, nghĩa là “theo suy nghĩ của cậu” \nVí dụ: \n俺的には今回(こんかい)Arsenalの勝ち(かち)になるはずなんだ。\nTheo tôi nghĩ lần này chắc chắn chiến thắng sẽ thuộc về Arsenal. (Có ai fan The Gunner ở đây không? làm quen đê!)\n\n第3位:　ぶっちゃけ\n\nCách nói chính xác có thể là 実は hoặc là kính ngữ thì 正直に申し上げますと (càng dài càng lích sự). Nó có nghĩa là “nói thật ra là”, “nói một cách chân thành là”. Ví dụ: \n\nぶっちゃけ俺ら(おれら)男にとって結婚って意味ないよね。愛(あい)のない結婚(けっこん)はむしろないほうがいいかなぁ\nThực ra thì đối với đàn ông chúng tôi kết hôn cũng chả có ý nghĩa gì mấy. Hôn nhân mà không tình yêu thì không có còn hơn. \n(Hình như chưa có bài giải thích về って (chỗ sau 結婚) thì phải, hẹn các bạn trong bài khác. Cấu trúc  むしろ, ほうがいい, かなぁ  đã học lần lượt ở bài 40, 38, 29 mời các bạn xem lại note).\nBài 40: https://www.facebook.com/groups/229244010425617/doc/606650966018251/\nBài 38: https://www.facebook.com/groups/229244010425617/doc/601284686554879/\nBài 29: https://www.facebook.com/groups/229244010425617/doc/597582176925130/\n\n第2位:　～すっね\n\nすっね　là cách nói tắt của ですね (đúng vậy nhỉ). Như vậy kết hợp với các từ khác ta sẽ có các từ kiểu như:\nそうですね　-> そうすっね\n楽しかったですね　-> 楽しかったすっね　\n\n第1位: やばい\n\nCái này khó. Như đã từng giải thích ở bài 53 (sắp có note), やばい là một từ đa năng có rất nhiều nghĩa. Người nói cứ nói còn người nghe thích hiểu thế nào thì hiểu. Nó có thể là: tuyệt, xuất sắc, khủng, đỉnh, bựa, đểu, tiều, nguy rồi, khó nhằn, khó đỡ,...Ví dụ:\n \nやばい！鍵（かぎ）をかけなかったまま出かけちゃったっけ。\nNguy rồi! Hình như đi ra ngoài mà chưa khóa cửa.\n(Cấu trúc ちゃった và っけ đã học lần lượt ở bài 19, 9 mời các bạn xem lại note)\nBài 19: https://www.facebook.com/groups/229244010425617/doc/594104383939576/\nBài 9: https://www.facebook.com/groups/229244010425617/doc/590918190924862/\n\nやばい！思ったより綺麗（きれい）だなぁ。\nQuá đỉnh! Đẹp hơn so mình tưởng.\n（Cấu trúc  思ったより đã học ở bài 25, mời các bạn xem lại note）\nBài 25: https://www.facebook.com/groups/229244010425617/doc/596271320389549/\n\nCuối cùng chỉ xin các bạn nhớ một điều, ngôn ngữ hay cái gì cũng vậy thôi, cần đúng lúc đúng chỗ. Không đúng lúc, đúng chỗ thì dù có hay mấy cũng chả có nghĩa lí gì.  　\n\nBài học hôm nay tới đây là hết rồi, sau bài hôm nay group sẽ ngừng post bài đến sau Tết. Chúc các bạn có một cái Tết vui vẻ, hạnh phúc bên gia đình và bạn bè , người yêu !  :)","created_time":"2013-02-06T01:22:03+0000","updated_time":"2013-02-06T08:40:53+0000","likes":{"data":{"100004749153687":{"id":"100004749153687","name":"Hùng Tẹo Hjhj"},"100001577287524":{"id":"100001577287524","name":"Trần Quốc Đạt"},"1837866264":{"id":"1837866264","name":"QuynhDo Anh"},"1659470191":{"id":"1659470191","name":"Hằng Thu Trần"},"100002754998000":{"id":"100002754998000","name":"Nguyen Duc"},"100000383155614":{"id":"100000383155614","name":"Phạm Thúc Hưng"},"100004625800931":{"id":"100004625800931","name":"Tiengnhat Vclub"},"100002976271181":{"id":"100002976271181","name":"Kumira Ariko"},"100001260645727":{"id":"100001260645727","name":"Ngo Duy Son"},"100002265193557":{"id":"100002265193557","name":"Gấu Mó"},"100000427448138":{"id":"100000427448138","name":"Anh Tuan Pham"},"100001695345798":{"id":"100001695345798","name":"Tyn Aki"},"100000198219367":{"id":"100000198219367","name":"Chang Jiang"}},"paging":{"cursors":{"after":"MTAwMDA0NzQ5MTUzNjg3","before":"MTAwMDA0NzQ5MTUzNjg3"},"next":"https://graph.facebook.com/229244010425617_607258299290851/likes?limit=1&summary=1&after=MTAwMDA0NzQ5MTUzNjg3"},"summary":{"total_count":13}},"comments":{"data":{"607259249290756":{"id":"607259249290756","from":{"id":"100000198219367","name":"Chang Jiang"},"message":"số 4: mấy cái ví dụ đấy phải dịch là \"tao\" với \"mày\" nó mới đúng sắc thái chứ \"tôi\" với \"cậu\" thì lịch sự quá :v\n\nsố 1: giống \"vãi\" của VN =))))))))))))))))))))","can_remove":false,"created_time":"2013-02-06T01:24:50+0000","like_count":2,"user_likes":false},"607259612624053":{"id":"607259612624053","from":{"id":"100001695345798","name":"Tyn Aki"},"message":"bá đạo","can_remove":false,"created_time":"2013-02-06T01:26:08+0000","like_count":0,"user_likes":false},"607259712624043":{"id":"607259712624043","from":{"id":"100001458099624","name":"Kham Pha"},"message":"お前 ko nhất thiết dịch là \"tao\". \"Tao \" có nghĩa suồng sã quá","can_remove":false,"created_time":"2013-02-06T01:26:27+0000","like_count":0,"user_likes":false},"607259799290701":{"id":"607259799290701","from":{"id":"100000198219367","name":"Chang Jiang"},"message":"omae là \"mày\" mà :v","can_remove":false,"created_time":"2013-02-06T01:26:57+0000","like_count":0,"user_likes":false},"607260062624008":{"id":"607260062624008","from":{"id":"100001458099624","name":"Kham Pha"},"message":"ko phải thế đâu. Đừng dịch thẳng sang tiếng Việt thế.","can_remove":false,"created_time":"2013-02-06T01:27:53+0000","like_count":0,"user_likes":false},"607260092624005":{"id":"607260092624005","from":{"id":"100001754136107","name":"Nguyễn Tuấn Vũ"},"message":"お前 Ko có nghĩa mất lịch sự lắm đâu,ng trên nói vs ng dứoi mà","can_remove":false,"created_time":"2013-02-06T01:27:56+0000","like_count":1,"user_likes":false},"607260765957271":{"id":"607260765957271","from":{"id":"100001754136107","name":"Nguyễn Tuấn Vũ"},"message":"Từ やばい cung thường hay dung.no mang nhieu nghia lắm","can_remove":false,"created_time":"2013-02-06T01:30:56+0000","like_count":0,"user_likes":false},"607262465957101":{"id":"607262465957101","from":{"id":"100001260645727","name":"Ngo Duy Son"},"message":"Dạo này mình lên lab nhằn mấy loại này suốt! @@\nAnh Kham Pha chăm chỉ post lên, sao lại lười thế?","message_tags":[{"id":"100001458099624","name":"Kham Pha","type":"user","offset":52,"length":8}],"can_remove":false,"created_time":"2013-02-06T01:36:53+0000","like_count":0,"user_likes":false},"607262565957091":{"id":"607262565957091","from":{"id":"100001458099624","name":"Kham Pha"},"message":"chăm chỉ post cái gì 1 tuần 3 bài còn gì?","can_remove":false,"created_time":"2013-02-06T01:37:27+0000","like_count":1,"user_likes":false},"607262755957072":{"id":"607262755957072","from":{"id":"100001260645727","name":"Ngo Duy Son"},"message":"Mỗi ngày một bài đê!","can_remove":false,"created_time":"2013-02-06T01:38:14+0000","like_count":0,"user_likes":false},"607263242623690":{"id":"607263242623690","from":{"id":"100001458099624","name":"Kham Pha"},"message":"đkm anh, tí em lên lab mà còn phải cố viết, mai phát biểu. Rảnh rỗi éo đâu mà mỗi ngày một bài. Vắt giò lên cổ cũng chả xong.","can_remove":false,"created_time":"2013-02-06T01:39:55+0000","like_count":2,"user_likes":false},"607487122601302":{"id":"607487122601302","from":{"id":"1837866264","name":"QuynhDo Anh"},"message":"「っていうか」\n本に書いてある:　彼女は美しいと言うよりかわいい。\n宇佐美先生なら:　彼女は美しいっていうかかわいい。\n→1. 「っていうか」　trong th này có lẽ là mang nghĩa này: \"nói chính xác hơn thì là\". Đa phần là dùng  「っていうか」 theo nghĩa như vậy, còn ngoài ra có nghĩa nào khác nữa thì cũng ko thật rõ :-? \n→Kham Pha thử làm cuộc điều tra coi sao ;)\n2. Các anh hay dùng nhiều hơn các chị :D\nĐột nhiên nhớ ra, ～すっね là câu cuối miệng của Ms Sakuma, còn やばい là câu cửa miệng của Ms Hashimoto :D","can_remove":false,"created_time":"2013-02-06T08:40:53+0000","like_count":3,"user_likes":false}},"paging":{"cursors":{"after":"NjA3MjU5MjQ5MjkwNzU2","before":"NjA3MjU5MjQ5MjkwNzU2"},"next":"https://graph.facebook.com/229244010425617_607258299290851/comments?limit=1&summary=1&after=NjA3MjU5MjQ5MjkwNzU2"},"summary":{"order":"chronological","total_count":12}}}