{"id":"229244010425617_612424058774275","type":"status","from":{"id":"100001695345798","name":"Tyn Aki"},"message":"Bài 67: \nĐến hẹn lại lên, hôm nay mình xin chia sẻ về cách sử dụng trợ - phó từ ばかり. Mọi người sẵn sàng đọc và góp ý bài cho mình chưa? ^^ nhân đây xin chúc các bạn một năm mới VẠN SỰ NHƯ Ý. \nQua kinh nghiệm bản thân và tìm hiểu, sau đây là một số cách sử dụng chính của trợ - phó từ ばかり\n名詞 (Danh từ) + ばかり: Toàn, chỉ ....\nテトではチュンケーキばかり食べましたので、2キロ太（ふと）りました。\nCả Tết chỉ toàn bánh chưng　nên tăng mất 2 kg. \n\nた形 (Thể quá khứ) ＋ばかり：Vừa làm gì xong: \nちょうどいい！魚を釣（つ）って帰ったばかりだ。一緒に食（く）おう。\nĐúng lúc quá, tôi vừa đi câu cá về, cùng ăn thôi.\n\nて形 (Thể Te) ＋ばかり：Chỉ toàn làm gì\n彼は嘘（うそ）ついてばかりいる。\nAnh này chỉ toàn nói phét thôi \n\nた形 (Thể quá khứ) ＋ばかりに：　Chỉ tại .... Mà sao (kết quả xấu, không mong muốn).\n物好き（ものずき）すぎるので、ゴタゴタな目にあった。\nChỉ tại tò mò chuyện người khác mà tôi gặp rắc rối không đáng có.\n\nAばかりでなく、B:　Không chỉ mà còn\n彼女はスゴク勉強するばかりでなく、ボランティアのイベントによく参加（さんか）する。\nCô ấy không chỉ hoc giỏi mà còn chăm tham gia hoạt động tình nguyện.\n\nTuần sau mình muốn chia sẻ các phó từ hay dùng trong giao tiếp. See you. Have a nice weekend. ^^","created_time":"2013-02-15T10:32:44+0000","updated_time":"2013-02-18T12:14:59+0000","likes":{"data":{"100002754998000":{"id":"100002754998000","name":"Nguyen Duc"},"100002265193557":{"id":"100002265193557","name":"Gấu Mó"},"100001508739620":{"id":"100001508739620","name":"Lê Ngọc Hoàn"},"100001475606142":{"id":"100001475606142","name":"Thanh Hoa Dang"},"100003024145423":{"id":"100003024145423","name":"Lan Tran"},"100001894545350":{"id":"100001894545350","name":"Lhp Bin"},"100001695345798":{"id":"100001695345798","name":"Tyn Aki"},"1146680551":{"id":"1146680551","name":"優しい なぁ"},"100005234614800":{"id":"100005234614800","name":"Kiến Đen"},"100004145293805":{"id":"100004145293805","name":"Trần Đại Dương"},"100000198219367":{"id":"100000198219367","name":"Chang Jiang"},"100000266887521":{"id":"100000266887521","name":"Hương Lê Thu"},"100001458099624":{"id":"100001458099624","name":"Kham Pha"}},"paging":{"cursors":{"after":"MTAwMDAyNzU0OTk4MDAw","before":"MTAwMDAyNzU0OTk4MDAw"},"next":"https://graph.facebook.com/229244010425617_612424058774275/likes?limit=1&summary=1&after=MTAwMDAyNzU0OTk4MDAw"},"summary":{"total_count":13}},"comments":{"data":{"612424845440863":{"id":"612424845440863","from":{"id":"100000383155614","name":"Phạm Thúc Hưng"},"message":"勉強したばかりだぞ","can_remove":false,"created_time":"2013-02-15T10:37:08+0000","like_count":1,"user_likes":false},"612425242107490":{"id":"612425242107490","from":{"id":"100001695345798","name":"Tyn Aki"},"message":"なんで？今休みじゃない？すごいね。(#^.^#)","can_remove":false,"created_time":"2013-02-15T10:38:04+0000","like_count":0,"user_likes":false},"612425595440788":{"id":"612425595440788","from":{"id":"100000383155614","name":"Phạm Thúc Hưng"},"message":"それは、ただ文法の例だよ","can_remove":false,"created_time":"2013-02-15T10:38:45+0000","like_count":0,"user_likes":false},"612425742107440":{"id":"612425742107440","from":{"id":"100001695345798","name":"Tyn Aki"},"message":"（＠＾▽＾＠）なるほどね。","can_remove":false,"created_time":"2013-02-15T10:39:23+0000","like_count":0,"user_likes":false},"612462855437062":{"id":"612462855437062","from":{"id":"100001754136107","name":"Nguyễn Tuấn Vũ"},"message":"飲んだばかり","can_remove":false,"created_time":"2013-02-15T12:11:56+0000","like_count":1,"user_likes":false},"612465222103492":{"id":"612465222103492","from":{"id":"100001695345798","name":"Tyn Aki"},"message":"何を飲んだの？","can_remove":false,"created_time":"2013-02-15T12:20:06+0000","like_count":0,"user_likes":false},"612465608770120":{"id":"612465608770120","from":{"id":"100001458099624","name":"Kham Pha"},"message":"Hay, nhưng mà anh chỉ ko hiểu cái ví dụ \"chỉ tại\" có liên quan gì đến cấu trúc đấy :v","can_remove":false,"created_time":"2013-02-15T12:21:29+0000","like_count":1,"user_likes":false},"612476335435714":{"id":"612476335435714","from":{"id":"100001754136107","name":"Nguyễn Tuấn Vũ"},"message":"Tyn Aki cái dung ko nhung cham hoc ma còn tham gia hoat đôgj là hinh như có cấu trúc khác đấy","message_tags":[{"id":"100001695345798","name":"Tyn Aki","type":"user","offset":0,"length":7}],"can_remove":false,"created_time":"2013-02-15T12:48:24+0000","like_count":1,"user_likes":false},"612476932102321":{"id":"612476932102321","from":{"id":"100001754136107","name":"Nguyễn Tuấn Vũ"},"message":"Dùng ばかりか","can_remove":false,"created_time":"2013-02-15T12:49:43+0000","like_count":1,"user_likes":false},"614073668609314":{"id":"614073668609314","from":{"id":"100001475606142","name":"Thanh Hoa Dang"},"message":"Nguyễn Tuấn Vũ　Vuさんはよく勉強しているばかりか、課外の活動によく参加してる人です。theo em biết thì cả 2 cấu trúc đều mang nghĩa \"không những...mà còn\", nhưng　ばかりでなく là của N3, ばかりかlà của N2.:D","message_tags":[{"id":"100001754136107","name":"Nguyễn Tuấn Vũ","type":"user","offset":0,"length":14}],"can_remove":false,"created_time":"2013-02-18T11:37:41+0000","like_count":0,"user_likes":false},"614074678609213":{"id":"614074678609213","from":{"id":"100001475606142","name":"Thanh Hoa Dang"},"message":"Nguyễn Tuấn Vũ ơ anh Vũ cũng đang ở Fukuoka ạ?","message_tags":[{"id":"100001754136107","name":"Nguyễn Tuấn Vũ","type":"user","offset":0,"length":14}],"can_remove":false,"created_time":"2013-02-18T11:41:00+0000","like_count":0,"user_likes":false},"614075795275768":{"id":"614075795275768","from":{"id":"100001754136107","name":"Nguyễn Tuấn Vũ"},"message":"彼は日本語が上手ばかりかパソコンもできる\ncau chuc bakarika ...mo  \nanh ay ko nhung gioi tieng nhat ma may tinh cung gioi","can_remove":false,"created_time":"2013-02-18T11:44:59+0000","like_count":1,"user_likes":false},"614075835275764":{"id":"614075835275764","from":{"id":"100001754136107","name":"Nguyễn Tuấn Vũ"},"message":"Thanh Hoa Dang: vang t cung dang o fuku","message_tags":[{"id":"100001475606142","name":"Thanh Hoa Dang","type":"user","offset":0,"length":14}],"can_remove":false,"created_time":"2013-02-18T11:45:15+0000","like_count":1,"user_likes":false},"614076225275725":{"id":"614076225275725","from":{"id":"100001475606142","name":"Thanh Hoa Dang"},"message":"tớ ạ? thế k phải hơn tuổi ạ? :D em là bạn Linh, sinh năm 92 ạ :D. em cũng đang ở Fuku :D. cứ thấy chữ Fukuoka là giật mình nên hỏi thế ạ :D","can_remove":false,"created_time":"2013-02-18T11:46:40+0000","like_count":0,"user_likes":false},"614076768609004":{"id":"614076768609004","from":{"id":"100001695345798","name":"Tyn Aki"},"message":"Vũ bằng tuổi 92 thôi Hoa ạ @@","can_remove":false,"created_time":"2013-02-18T11:48:57+0000","like_count":1,"user_likes":false},"614077041942310":{"id":"614077041942310","from":{"id":"100001695345798","name":"Tyn Aki"},"message":"anh Kham Pha: ý anh là mẫu câu đáy ko có nghĩa là Chỉ tại hay thế nào ạ? em ko hiểu ạ","message_tags":[{"id":"100001458099624","name":"Kham Pha","type":"user","offset":4,"length":8}],"can_remove":false,"created_time":"2013-02-18T11:50:04+0000","like_count":0,"user_likes":false},"614082811941733":{"id":"614082811941733","from":{"id":"100001458099624","name":"Kham Pha"},"message":"物好き（ものずき）すぎるので、ゴタゴタな目にあった。 Câu này ko đâu phải ví dụ về ばかりに","can_remove":false,"created_time":"2013-02-18T12:11:49+0000","like_count":0,"user_likes":false},"614083655274982":{"id":"614083655274982","from":{"id":"100001695345798","name":"Tyn Aki"},"message":":))) đẹp cái măth, ôi, cái mắt, !!!!!!! 恥ずかしかった。すみませんでした。mà tại sao mỗi anh thấy nhỉ ;)) ko sưar đc post @@ khi nào anh tạo note em sẽ sửa lại ạ @@","can_remove":false,"created_time":"2013-02-18T12:14:59+0000","like_count":3,"user_likes":false}},"paging":{"cursors":{"after":"NjEyNDI0ODQ1NDQwODYz","before":"NjEyNDI0ODQ1NDQwODYz"},"next":"https://graph.facebook.com/229244010425617_612424058774275/comments?limit=1&summary=1&after=NjEyNDI0ODQ1NDQwODYz"},"summary":{"order":"chronological","total_count":18}}}