{"id":"229244010425617_613596425323705","type":"status","from":{"id":"100001098245926","name":"Giang Nguyen"},"message":"mình muốn học tiếng nhật giao tiếp thì nên học ntn vậy mọi ng?","created_time":"2013-02-17T13:35:42+0000","updated_time":"2013-02-18T05:34:54+0000","likes":{"data":{"100004270681738":{"id":"100004270681738","name":"Khánh Sakura"}},"paging":{"cursors":{"after":"MTAwMDA0MjcwNjgxNzM4","before":"MTAwMDA0MjcwNjgxNzM4"}},"summary":{"total_count":1}},"comments":{"data":{"613597748656906":{"id":"613597748656906","from":{"id":"100004270681738","name":"Khánh Sakura"},"message":"bạn học ở trung tâm.mới đầu thì nên như vậy vì tiếng nhật khó hơn tiếng anh nhiều.bạn không thể tự học dk nếu không có ng hướng dẫn ban đầu","can_remove":false,"created_time":"2013-02-17T13:39:00+0000","like_count":1,"user_likes":false},"613598061990208":{"id":"613598061990208","from":{"id":"100001098245926","name":"Giang Nguyen"},"message":"minh o hn, bạn co byt trung tam nào day TN hay k?","can_remove":false,"created_time":"2013-02-17T13:40:06+0000","like_count":0,"user_likes":false},"613598475323500":{"id":"613598475323500","from":{"id":"100004270681738","name":"Khánh Sakura"},"message":"nhiều trung tâm lắm.núi trúc,hồng nhung,tiếng nhật mina.....bạn ak.bạn ở chỗ nào?","can_remove":false,"created_time":"2013-02-17T13:40:58+0000","like_count":0,"user_likes":false},"613598991990115":{"id":"613598991990115","from":{"id":"100001098245926","name":"Giang Nguyen"},"message":"m o nguyen trai","can_remove":false,"created_time":"2013-02-17T13:42:10+0000","like_count":0,"user_likes":false},"613599631990051":{"id":"613599631990051","from":{"id":"100004270681738","name":"Khánh Sakura"},"message":"đại học hà nội cũng mở lớp dạy tiếng nhật bạn ak.nhưng mình chưa học ở đó bao giờ nên không biết ntn.","can_remove":false,"created_time":"2013-02-17T13:43:50+0000","like_count":0,"user_likes":false},"613600268656654":{"id":"613600268656654","from":{"id":"100004270681738","name":"Khánh Sakura"},"message":"tớ học ở núi trúc.giáo viên dạy hay mà kute nữa.mói đầu bạn học ở đó thì rất tốt đấy","can_remove":false,"created_time":"2013-02-17T13:45:22+0000","like_count":0,"user_likes":false},"613600898656591":{"id":"613600898656591","from":{"id":"100001098245926","name":"Giang Nguyen"},"message":"um, thanks b nhé","can_remove":false,"created_time":"2013-02-17T13:46:25+0000","like_count":0,"user_likes":false},"613602241989790":{"id":"613602241989790","from":{"id":"100001098245926","name":"Giang Nguyen"},"message":"b hoc o núi truc thì hok theo giáo trình nao vậy b","can_remove":false,"created_time":"2013-02-17T13:49:08+0000","like_count":0,"user_likes":false},"613603031989711":{"id":"613603031989711","from":{"id":"100004270681738","name":"Khánh Sakura"},"message":"có 2 loại giáo trình.nếu bạn học chú trọng về ngữ pháp thì học theo giáo trình .....(hi,tớ cũng không biết nói giáo trình đấy ntn cả),còn nếu bạn học giao tiếp thì học giáo trình mina","can_remove":false,"created_time":"2013-02-17T13:51:32+0000","like_count":0,"user_likes":false},"613604158656265":{"id":"613604158656265","from":{"id":"100001098245926","name":"Giang Nguyen"},"message":"minh rất muốn đi hok trung tâm nhưng k có thời gian đi, tự học xem ra khá là khó.....haizz","can_remove":false,"created_time":"2013-02-17T13:53:56+0000","like_count":0,"user_likes":false},"613607605322587":{"id":"613607605322587","from":{"id":"100004270681738","name":"Khánh Sakura"},"message":"ukm.mới đầu học bảng chữ cái nếu không có ng dạy mình thì đọc sai và viết cũng sai.rất khó là khác","can_remove":false,"created_time":"2013-02-17T13:56:32+0000","like_count":0,"user_likes":false},"613609065322441":{"id":"613609065322441","from":{"id":"100004270681738","name":"Khánh Sakura"},"message":"tớ nghĩ là bạn nên đi học ở trung tâm để học cái ban đầu.rùi mua sách dịch ngữ pháp và tập viết về học cũng dk","can_remove":false,"created_time":"2013-02-17T13:57:37+0000","like_count":0,"user_likes":false},"613610618655619":{"id":"613610618655619","from":{"id":"100001458099624","name":"Kham Pha"},"message":"Tự học luôn mất thời gian hơn. Nên tự học khi đã có cơ sở nhất định nào đó.","can_remove":false,"created_time":"2013-02-17T14:02:13+0000","like_count":0,"user_likes":false},"613611861988828":{"id":"613611861988828","from":{"id":"100001098245926","name":"Giang Nguyen"},"message":"hì thanks 2 bạn nhé","can_remove":false,"created_time":"2013-02-17T14:05:59+0000","like_count":0,"user_likes":false},"613974138619267":{"id":"613974138619267","from":{"id":"100000021018532","name":"Hương Nguyễn"},"message":"Giang Nguyen: nếu bạn ở Hà Nội thì liên hệ mình nhé, mình nhận dạy ở nhà mình, ở quận Thanh Xuân, facebook mình là Hương Nguyễn, rất vui được làm quen với bạn :D","message_tags":[{"id":"100001098245926","name":"Giang Nguyen","type":"user","offset":0,"length":12},{"id":"100000021018532","name":"Hương Nguyễn","type":"user","offset":115,"length":12}],"can_remove":false,"created_time":"2013-02-18T05:34:54+0000","like_count":1,"user_likes":false}},"paging":{"cursors":{"after":"NjEzNTk3NzQ4NjU2OTA2","before":"NjEzNTk3NzQ4NjU2OTA2"},"next":"https://graph.facebook.com/229244010425617_613596425323705/comments?limit=1&summary=1&after=NjEzNTk3NzQ4NjU2OTA2"},"summary":{"order":"chronological","total_count":15}}}