{"id":"229244010425617_614074988609182","type":"status","from":{"id":"100004314159881","name":"Lộc Tran"},"message":"chào mọi người, em là mem mới, rât vui đc làm quen. em hiện tại mới lớp 9 và muốn bắt đầu học dần tiếng nhật để hết năm lớp 12 có thể sang nhật thi đại học và sinh sống bên đấy (em yêu nước nhật và điều kiện có thể sang được). vậy cho em hỏi có trung tâm hay chỗ dạy tiếng nhật nào tôt tốt ở hà nội không ạ? ai biết thì reply em với, em xin cảm ơn!","created_time":"2013-02-18T11:42:12+0000","updated_time":"2013-02-22T05:02:01+0000","likes":{"data":{"100001057467030":{"id":"100001057467030","name":"Buông Tay"},"100000021018532":{"id":"100000021018532","name":"Hương Nguyễn"},"721392224":{"id":"721392224","name":"Việt Mi"}},"paging":{"cursors":{"after":"MTAwMDAxMDU3NDY3MDMw","before":"MTAwMDAxMDU3NDY3MDMw"},"next":"https://graph.facebook.com/229244010425617_614074988609182/likes?limit=1&summary=1&after=MTAwMDAxMDU3NDY3MDMw"},"summary":{"total_count":3}},"comments":{"data":{"614442515239096":{"id":"614442515239096","from":{"id":"721392224","name":"Việt Mi"},"message":"Anh là Việt Anh, Công ty anh liên kết trực tiếp với trường tiếng. Đây là số điện thoại của anh: 098 335 9889, em cần tư vấn gì về việc du học, còn gì cần giải đáp thì liên hệ anh nhé, anh sẽ hướng dẫn :)","can_remove":false,"created_time":"2013-02-19T01:51:46+0000","like_count":0,"user_likes":false},"614478868568794":{"id":"614478868568794","from":{"id":"100001912633316","name":"Du Ca"},"message":"nhà em ở khu nào vậy? ở hà nội có kha khá các trường tiếng nhật như đông du, núi trúc, yuki, mina, chị theo học ở núi trúc nên chỉ biết chỗ đó thôi. Núi trúc nằm ở trên mé gần cát linh. Học phí tương đối rẻ, học mỗi buổi 2 tiết do thầy người nhật và người việt dạy mỗi ng một tiết. Học ở đây dạy khá kỹ phần cơ bản nhưng mỗi năm chỉ tuyển sinh 3 lần và sẽ có 1 đợt tuyển vào tháng 1, 5, 9.","can_remove":false,"created_time":"2013-02-19T03:46:30+0000","like_count":1,"user_likes":false},"614485818568099":{"id":"614485818568099","from":{"id":"100000383155614","name":"Phạm Thúc Hưng"},"message":"Tung BuiNguyen học hỏi đi","message_tags":[{"id":"100000340130908","name":"Tung BuiNguyen","type":"user","offset":0,"length":14}],"can_remove":false,"created_time":"2013-02-19T04:12:13+0000","like_count":0,"user_likes":false},"615444618472219":{"id":"615444618472219","from":{"id":"100003140215080","name":"Vân Nomeko"},"message":"Đỗ Nguyễn Hồng Anh ở núi trúc học phí bao nhieu 1 khóa hả chị?","message_tags":[{"id":"100001912633316","name":"Đỗ Nguyễn Hồng Anh","type":"user","offset":0,"length":18}],"can_remove":false,"created_time":"2013-02-21T11:21:26+0000","like_count":0,"user_likes":false},"615756801774334":{"id":"615756801774334","from":{"id":"100001912633316","name":"Du Ca"},"message":"thông thường là 1.250.000/khóa 3 tháng, học 3 buổi tuần còn học luyện thi hay cấp tốc thì khác bạn à","can_remove":false,"created_time":"2013-02-22T05:00:35+0000","like_count":0,"user_likes":false},"615757118440969":{"id":"615757118440969","from":{"id":"100001912633316","name":"Du Ca"},"message":"bạn có thể vào web của tt để tìm hiểu thêm trungtamtiengnhat.edu.vn","can_remove":false,"created_time":"2013-02-22T05:02:01+0000","like_count":0,"user_likes":false}},"paging":{"cursors":{"after":"NjE0NDQyNTE1MjM5MDk2","before":"NjE0NDQyNTE1MjM5MDk2"},"next":"https://graph.facebook.com/229244010425617_614074988609182/comments?limit=1&summary=1&after=NjE0NDQyNTE1MjM5MDk2"},"summary":{"order":"chronological","total_count":6}}}