{"id":"229244010425617_615483095135038","type":"status","from":{"id":"100004458131717","name":"Minh Huệ"},"message":"moi ng oi,co ai co tai lieu j ve on thi n3,n2 k .tai lieu on thi minh it qua......ma k bit tim o dau nua..hic","created_time":"2013-02-21T13:28:42+0000","updated_time":"2013-02-23T12:43:15+0000","likes":{"data":{"100001458099624":{"id":"100001458099624","name":"Kham Pha"},"100004458131717":{"id":"100004458131717","name":"Minh Huệ"}},"paging":{"cursors":{"after":"MTAwMDAxNDU4MDk5NjI0","before":"MTAwMDAxNDU4MDk5NjI0"},"next":"https://graph.facebook.com/229244010425617_615483095135038/likes?limit=1&summary=1&after=MTAwMDAxNDU4MDk5NjI0"},"summary":{"total_count":2}},"comments":{"data":{"615511138465567":{"id":"615511138465567","from":{"id":"100004458131717","name":"Minh Huệ"},"message":"khi nam nc ho xung la boku.n khi nu nc voi voi nam thi goi nam la kimi ha a Kham Pha","can_remove":false,"created_time":"2013-02-21T15:00:03+0000","like_count":0,"user_likes":false},"615639115119436":{"id":"615639115119436","from":{"id":"100001458099624","name":"Kham Pha"},"message":"君 dùng để gọi cả nam lẫn nữ. 僕　thì thường dùng cho nam tự xưng, nữ cũng có người dùng nhưng ít vì nó thường gợi lên cái gì đó hơi nam tính.","can_remove":false,"created_time":"2013-02-21T21:49:09+0000","like_count":0,"user_likes":false},"615727675110580":{"id":"615727675110580","from":{"id":"100004145293805","name":"Trần Đại Dương"},"message":"tài liệu n3,n2 vô trang hoctiengnhat.biz nhiều lắm bạn ak ! bạn tạo cái tài khoản rồi vào kết bạn làm quen hội thoại bằng tiếng nhật vui lắm","can_remove":false,"created_time":"2013-02-22T03:05:01+0000","like_count":0,"user_likes":false},"615861025097245":{"id":"615861025097245","from":{"id":"100001057467030","name":"Buông Tay"},"message":"Trần Đại Dương ơi m đã vào hoctiengnhat.biz. khi đăng ký thì báo đã thành công nhưng ma khi đăng nhập thì cứ bị báo lỗi đăng nhập hoặc password. m đã thử n lần mà vẫn k đc. k biết là bị làm sao nữa. chán quá. b giúp m với","message_tags":[{"id":"100004145293805","name":"Trần Đại Dương","type":"user","offset":0,"length":14}],"can_remove":false,"created_time":"2013-02-22T12:11:07+0000","like_count":1,"user_likes":false},"615877795095568":{"id":"615877795095568","from":{"id":"100004145293805","name":"Trần Đại Dương"},"message":"ủa vậy sao ! ngày trước mình đang kí dể dàng cơ mà để mình hỏi ad xem sao","can_remove":false,"created_time":"2013-02-22T13:06:14+0000","like_count":0,"user_likes":false},"616320495051298":{"id":"616320495051298","from":{"id":"100004458131717","name":"Minh Huệ"},"message":"みなさん、ありがとうね。","can_remove":false,"created_time":"2013-02-23T12:43:15+0000","like_count":0,"user_likes":false}},"paging":{"cursors":{"after":"NjE1NTExMTM4NDY1NTY3","before":"NjE1NTExMTM4NDY1NTY3"},"next":"https://graph.facebook.com/229244010425617_615483095135038/comments?limit=1&summary=1&after=NjE1NTExMTM4NDY1NTY3"},"summary":{"order":"chronological","total_count":6}}}