{"id":"229244010425617_615830215100326","type":"link","picture":"https://fbexternal-a.akamaihd.net/safe_image.php?d=AQDFykC76D2YdgZ8&w=154&h=154&url=https%3A%2F%2Flh6.ggpht.com%2F9TyeH4PtOl1MkLclp7gfgiiKm62Cq0S9NRYp8Y1ohWMRHxTrAu7q1n_udf0sn5BsEPs%3Dh230","link":"https://play.google.com/store/apps/details?id=tranphuochung.wordpress.com.npn3&feature=more_from_developer","from":{"id":"100000381394367","name":"Thành Nguyễn"},"message":"Bạn nào dùng smartphone hoặc tablet android thì có thể down các ứng dụng này để học ngữ pháp\nN3\nhttps://play.google.com/store/apps/details?id=tranphuochung.wordpress.com.npn3&feature=more_from_developer\n\nN2\nhttps://play.google.com/store/apps/details?id=tranphuochung.wordpress.com.nguphapn2&feature=related_apps\n\nN1\nhttps://play.google.com/store/apps/details?id=tranphuochung.wordpress.com.nguphapn1&feature=more_from_developer","created_time":"2013-02-22T10:12:21+0000","updated_time":"2013-02-23T01:11:23+0000","likes":{"data":{"100000280776405":{"id":"100000280776405","name":"Viet Nguyen Thanh"},"100001695345798":{"id":"100001695345798","name":"Tyn Aki"}},"paging":{"cursors":{"after":"MTAwMDAwMjgwNzc2NDA1","before":"MTAwMDAwMjgwNzc2NDA1"},"next":"https://graph.facebook.com/229244010425617_615830215100326/likes?limit=1&summary=1&after=MTAwMDAwMjgwNzc2NDA1"},"summary":{"total_count":2}},"comments":{"data":{"615862995097048":{"id":"615862995097048","from":{"id":"100001695345798","name":"Tyn Aki"},"message":"anh ơi, cái này chưa hỗ trợ android anh nhỉ ;( thế có cách nào tải về máy tính không ạ?","can_remove":false,"created_time":"2013-02-22T12:17:52+0000","like_count":0,"user_likes":false},"616108675072480":{"id":"616108675072480","from":{"id":"100000381394367","name":"Thành Nguyễn"},"message":"Cái này là dùng cho android mà. Trên IOS chắc cũng có phần mềm tương tự. Kham Pha check xem. Còn từ điển Nhật nhật cũng nhiều. https://play.google.com/store/apps/details?id=com.umibouzu.jed&feature=search_result","message_tags":[{"id":"100001458099624","name":"Kham Pha","type":"user","offset":73,"length":8}],"can_remove":false,"created_time":"2013-02-23T01:00:44+0000","like_count":0,"user_likes":false},"616110258405655":{"id":"616110258405655","from":{"id":"100001458099624","name":"Kham Pha"},"message":"trên iOS ko có phần mềm này, nhưng cũng nhiều phần mềm khác hay lắm.","can_remove":false,"created_time":"2013-02-23T01:07:42+0000","like_count":0,"user_likes":false},"616111171738897":{"id":"616111171738897","from":{"id":"100000381394367","name":"Thành Nguyễn"},"message":"Tyn Aki muốn down về máy tính thì cần vào các chợ đen android để down. Còn muốn tải về từ Google play thì qua máy tính thì dùng account gmail đăng nhập vào google rồi  nhập ID của thiết bị vào thì có thể cài phần mềm từ máy tính. ID của thiết bị thì dùng phần mềm xem ID trên google play có rất nhiều.","message_tags":[{"id":"100001695345798","name":"Tyn Aki","type":"user","offset":0,"length":7}],"can_remove":false,"created_time":"2013-02-23T01:11:23+0000","like_count":1,"user_likes":false}},"paging":{"cursors":{"after":"NjE1ODYyOTk1MDk3MDQ4","before":"NjE1ODYyOTk1MDk3MDQ4"},"next":"https://graph.facebook.com/229244010425617_615830215100326/comments?limit=1&summary=1&after=NjE1ODYyOTk1MDk3MDQ4"},"summary":{"order":"chronological","total_count":4}}}