{"id":"229244010425617_615825285100819","type":"status","from":{"id":"100001695345798","name":"Tyn Aki"},"message":"Bài 70: Một vài phó từ trong giao tiếp căn bản\nXin lỗi mọi người là hôm nay post bài hơi muộn, khi hoàng hôn đã bắt đầu :D. Vậy bắt tay ngay vấn đề chính: Trong giao tiếp, người Nhật hay dùng khá nhiều các phó từ để miêu tả. Mong qua diễn đàn, chia sẻ đến các bạn môt vài từ thú vị:\n\n1. ぴったりVừa vặn, vừa khít, hay dùng khi mặc quần áo hoặc để diễn tả những tình huống khớp nhau đến vừa khít.\n            このTシャツはわたしにぴったりです。\n            Cái áo này vừa khít với tôi.\n\n2. やっぱり、やはり. Đúng (như tôi nghĩ), cuối cùng thì vẫn là.... Trong giao tiếp hay nói là やっぱり, nhưng trong vẫn viết, đặc biết là report thì sẽ phải dùng là やはり.\n            やっぱり思ったとおりだ。\n            Đó chính xác là những gì tôi nghĩ.\n  Mình cũng hay gặp các trường hợp nói tắt câu trên là chỉ mỗi やっぱり thôi.\n\n3. こっそり Lén lút、rón rén kiểu vụng trộm\n            彼は時々私をこっそりと見ました。\n           Anh kia thỉnh thoảng hay nhìn tôi lén lút. (ヘンタイ）\n\n4. さっぱり Sảng khoái. Nếu さっぱり+ phủ định: HOÀn TOÀN KHÔNG... (bài 61)\n          ゲームをすると、さっぱりしますよ。\n          Chỉ cần được chơi game là tôi thấy thật sảng khoái.\n\n5. ぐったり Mệt mỏi rã rời. \n         あまりの暑さ(あつさ）に、私はぐったりしていた。\n        Trời nắng nóng quá nên tôi lúc nào cũng mệt lả. \n\n6．そっくり Giống y như đúc\n        彼はコンヴィンそっくりだ。\n        Trông anh ấy giống hệt Công Vinh.\n\n7/ はっきり Rõ ràng, rành mạch\n        何事(なにごと）を決（き）める前（まえ）に、その問題（もんだい）をはっきりわかるべきです。\n        Trước khi quyết định việc gì thì nên hiểu rõ vấn đề đó.\n\n8. びっくり Bất ngờ\n       Kiểu này là đang đi tự dưng gặp người quen, tự dưng được tặng quà, tự dưng được bạn trẻ nào nhảy ra dọa ma mình, chỉ cần nóiびっくり: Bất ngờ quá! là OK.  \n\n9. ゆっくり Chậm rãi\n       すみません。ゆっくり話（はな）していただけませんか？\n       Câu này bạn nào học giao tiếp sẽ thấy rất quen rồi: Xin lỗi, bạn có thể nói chậm một chút được không ạ?\n\n10. せっかく Khó khăn, vất vả\n       せっかく日本へ来て、一生懸命（いっしょうけんめい）勉強（べんきょう）しなければならない。\n       Vì rất vất vả để đến được Nhật nên tôi phải cố gắng học.\n\nP.s: các phó từ trên có rất nhiều nghĩa và cách dùng khác nhau nên mong mọi người cũng chia sẻ (#^.^#). Ngoài ra, vì bây giờ người Nhật khá chuộng chữ Katakana nên đôi lúc bạn sẽ thấy họ viết các phó từ trên bằng chữ kata. \nChúc các bạn cuối tuần vui vẻ.（＠＾▽＾＠）","created_time":"2013-02-22T09:50:42+0000","updated_time":"2013-02-23T00:52:11+0000","likes":{"data":{"1146680551":{"id":"1146680551","name":"優しい なぁ"},"100000074585438":{"id":"100000074585438","name":"Dzung Nguyen Van"},"100004296847206":{"id":"100004296847206","name":"Qhd Neo"},"100000198219367":{"id":"100000198219367","name":"Chang Jiang"},"100001458099624":{"id":"100001458099624","name":"Kham Pha"},"100000021018532":{"id":"100000021018532","name":"Hương Nguyễn"}},"paging":{"cursors":{"after":"MTE0NjY4MDU1MQ==","before":"MTE0NjY4MDU1MQ=="},"next":"https://graph.facebook.com/229244010425617_615825285100819/likes?limit=1&summary=1&after=MTE0NjY4MDU1MQ%3D%3D"},"summary":{"total_count":6}},"comments":{"data":{"615842845099063":{"id":"615842845099063","from":{"id":"100001754136107","name":"Nguyễn Tuấn Vũ"},"message":"びっくり Cung có nghĩa là giật mình.  \nびっくりする","can_remove":false,"created_time":"2013-02-22T11:00:06+0000","like_count":1,"user_likes":false},"615843681765646":{"id":"615843681765646","from":{"id":"100001695345798","name":"Tyn Aki"},"message":"びっくりした。","can_remove":false,"created_time":"2013-02-22T11:03:55+0000","like_count":0,"user_likes":false},"615844421765572":{"id":"615844421765572","from":{"id":"100001695345798","name":"Tyn Aki"},"message":"せっかくNguyễn Tuấn Vũ さんに知り合って、いい友達ように頑張ります。(￣▽￣)","message_tags":[{"id":"100001754136107","name":"Nguyễn Tuấn Vũ","type":"user","offset":4,"length":14}],"can_remove":false,"created_time":"2013-02-22T11:07:17+0000","like_count":1,"user_likes":false},"615844451765569":{"id":"615844451765569","from":{"id":"100001695345798","name":"Tyn Aki"},"message":":)))","can_remove":false,"created_time":"2013-02-22T11:07:27+0000","like_count":0,"user_likes":false},"615844771765537":{"id":"615844771765537","from":{"id":"100001754136107","name":"Nguyễn Tuấn Vũ"},"message":"こちらこそ、よろしくお願い致します。","can_remove":false,"created_time":"2013-02-22T11:08:33+0000","like_count":0,"user_likes":false},"615873231762691":{"id":"615873231762691","from":{"id":"100001458099624","name":"Kham Pha"},"message":"やはり・やっぱり　có 2 nghĩa, 1 như em nói, 2 là nghĩa ngược lại với những gì mình mong đợi. Ví dụ: \n試験に合格できると思ったのに、やっぱり失敗しちゃった。 \nNói chung phải tùy hoàn cảnh và cách nói mới biết được là nó giống như mong đợi hay ngược với mong đợi. Cái này dễ gây hiểu lầm.","can_remove":false,"created_time":"2013-02-22T12:51:05+0000","like_count":1,"user_likes":false},"615874255095922":{"id":"615874255095922","from":{"id":"100001695345798","name":"Tyn Aki"},"message":"oh, hai","can_remove":false,"created_time":"2013-02-22T12:55:19+0000","like_count":0,"user_likes":false},"616104378406243":{"id":"616104378406243","from":{"id":"100000383155614","name":"Phạm Thúc Hưng"},"message":"Tyn Aki Kham Pha ơi, sắp tới t phải deactive fb 1 thời gian, hôm qua thử hình như bài viết của t cũng mất cả thì phải :-ss\nThế để lưu bài viết của t lại thành file trước được ko?","message_tags":[{"id":"100001695345798","name":"Tyn Aki","type":"user","offset":0,"length":7},{"id":"100001458099624","name":"Kham Pha","type":"user","offset":8,"length":8}],"can_remove":false,"created_time":"2013-02-23T00:44:29+0000","like_count":0,"user_likes":false},"616105071739507":{"id":"616105071739507","from":{"id":"100001458099624","name":"Kham Pha"},"message":"ok, ông tạo cái note ghi đúng số bài của bài đấy là được. Cuối bài viết tên mình vào để mọi người còn biết ai viết, có gì còn hỏi.","can_remove":false,"created_time":"2013-02-23T00:47:21+0000","like_count":0,"user_likes":false},"616105171739497":{"id":"616105171739497","from":{"id":"100000383155614","name":"Phạm Thúc Hưng"},"message":"ok","can_remove":false,"created_time":"2013-02-23T00:47:46+0000","like_count":0,"user_likes":false},"616105715072776":{"id":"616105715072776","from":{"id":"100001458099624","name":"Kham Pha"},"message":"ông deactivate 1 lần cách đây mấy hôm đúng không? Tự dưng thấy cái tag tên ông ở trên pinned post mất màu.","can_remove":false,"created_time":"2013-02-23T00:50:08+0000","like_count":0,"user_likes":false},"616105968406084":{"id":"616105968406084","from":{"id":"100000383155614","name":"Phạm Thúc Hưng"},"message":"thực ra đã thành công được 2 hôm, tự dưng hôm qua nhớ ra là bài viết mình bị mất nên phải lên note lại :))","can_remove":false,"created_time":"2013-02-23T00:51:14+0000","like_count":0,"user_likes":false},"616106305072717":{"id":"616106305072717","from":{"id":"100001458099624","name":"Kham Pha"},"message":"có trách nhiệm :))","can_remove":false,"created_time":"2013-02-23T00:52:11+0000","like_count":0,"user_likes":false}},"paging":{"cursors":{"after":"NjE1ODQyODQ1MDk5MDYz","before":"NjE1ODQyODQ1MDk5MDYz"},"next":"https://graph.facebook.com/229244010425617_615825285100819/comments?limit=1&summary=1&after=NjE1ODQyODQ1MDk5MDYz"},"summary":{"order":"chronological","total_count":13}}}