{"id":"229244010425617_617109478305733","type":"status","from":{"id":"100001695345798","name":"Tyn Aki"},"message":"Bài 71\n皆さお早う。 Hôm nay là sẽ là bài của bạn  Nguyễn Tuấn Vũ đóng góp, do bạn Vũ bận nên hôm nay sẽ do mình post, chúc mọi ng tuần mới tốt lành ^^\nXin chào các bạn,hôm nay minh xin giới thiệu với mọi người cấu trúc ~とたん (に）～Đầu tiên xin chúng ta sẽ hiểu sơ qua ý nghĩa mẫu câu này.chúng ta sử dụng mẫu câu trong trường hợp : Khi kết thúc một hành động thì có một hành động khác gần như đồng thời xảy ra (trong khoảnh khắc rất nhỏ) thường thì chỉ vài giây,mang ý nghĩa bất thình lình,giật mình .Hay gặp trong các trường hợp như là mình leo lên thang máy thì đôt nhiên kêu bipsbip(do đã quá nhiều người)　\n窓（まど）を開け（あけ）たとたん、虫（むし）が飛び込ん（とびこんで）できた。　\nTôi mở cửa ra,ngay lập tức có con con trùng bay vào.\n彼（かれ）は終了（しゅうりょう）ベルがなったとたん、教室（きょうしつ）を飛び出し（とびだし）た。　\nkhi tiếng chuông vừa reo lên,cậu ấy phi ngay ra khỏi lớp học.\n彼は布団（ふとん）に入った（はいった）とたん、いびきをかき始め（はじめ）た。　\nCậu ấy khi chui vào trong chăn là bắt đầu ngáy luôn.\nVới cấu trúc này,chúng ta chia động thể quá khứ.Vた～とたん(に）.\nChúc các bạn ngày mới tốt lành","created_time":"2013-02-25T04:41:06+0000","updated_time":"2013-03-01T19:26:28+0000","likes":{"data":{"100001806981402":{"id":"100001806981402","name":"Cookie Panda"},"100003179905990":{"id":"100003179905990","name":"Trâm Yoko"},"100000073848158":{"id":"100000073848158","name":"Hoàng Đắc"},"100002754998000":{"id":"100002754998000","name":"Nguyen Duc"},"100000021018532":{"id":"100000021018532","name":"Hương Nguyễn"},"100001458099624":{"id":"100001458099624","name":"Kham Pha"}},"paging":{"cursors":{"after":"MTAwMDAxODA2OTgxNDAy","before":"MTAwMDAxODA2OTgxNDAy"},"next":"https://graph.facebook.com/229244010425617_617109478305733/likes?limit=1&summary=1&after=MTAwMDAxODA2OTgxNDAy"},"summary":{"total_count":6}},"comments":{"data":{"617111241638890":{"id":"617111241638890","from":{"id":"100001458099624","name":"Kham Pha"},"message":"大きなあくびをしたとたん、地震があって、びっくりした。","can_remove":false,"created_time":"2013-02-25T04:46:06+0000","like_count":0,"user_likes":false},"617113111638703":{"id":"617113111638703","from":{"id":"100001695345798","name":"Tyn Aki"},"message":"投稿したとたんに、ドクさんは「いいね」と言っていました。めっちゃ早い。","can_remove":false,"created_time":"2013-02-25T04:52:16+0000","like_count":1,"user_likes":false},"618532114830136":{"id":"618532114830136","from":{"id":"100000073848158","name":"Hoàng Đắc"},"message":"本を開いたとたん、眠むくなった。","can_remove":false,"created_time":"2013-02-28T03:27:11+0000","like_count":0,"user_likes":false},"619043191445695":{"id":"619043191445695","from":{"id":"100001754136107","name":"Nguyễn Tuấn Vũ"},"message":"Hoang dac: cau nay sai ngu phap","can_remove":false,"created_time":"2013-03-01T03:12:43+0000","like_count":0,"user_likes":false},"619063081443706":{"id":"619063081443706","from":{"id":"100000073848158","name":"Hoàng Đắc"},"message":"どこ間違ったの？","can_remove":false,"created_time":"2013-03-01T04:11:31+0000","like_count":0,"user_likes":false},"619068711443143":{"id":"619068711443143","from":{"id":"100001695345798","name":"Tyn Aki"},"message":"なんか、あなたの文はいつも起こっているでしょ！しかし、「とたん」という文法は過去の事件です。","can_remove":false,"created_time":"2013-03-01T04:30:51+0000","like_count":0,"user_likes":false},"619070874776260":{"id":"619070874776260","from":{"id":"100001695345798","name":"Tyn Aki"},"message":"正しい文は本を開けると、眠むくなる。","can_remove":false,"created_time":"2013-03-01T04:40:59+0000","like_count":0,"user_likes":false},"619139574769390":{"id":"619139574769390","from":{"id":"100001754136107","name":"Nguyễn Tuấn Vũ"},"message":"修正:本を開けたあと，眠くなります。","can_remove":false,"created_time":"2013-03-01T09:06:50+0000","like_count":0,"user_likes":false},"619198374763510":{"id":"619198374763510","from":{"id":"100000073848158","name":"Hoàng Đắc"},"message":"でも、その場合：昨日の夜疲れたのでそれを起きた。書いていた文は正しくない？","can_remove":false,"created_time":"2013-03-01T11:56:18+0000","like_count":0,"user_likes":false},"619199328096748":{"id":"619199328096748","from":{"id":"100001695345798","name":"Tyn Aki"},"message":"なるほどね。正しいのは「本を開けたとたん、眠くなった。」","can_remove":false,"created_time":"2013-03-01T12:00:24+0000","like_count":1,"user_likes":false},"619200221429992":{"id":"619200221429992","from":{"id":"100001695345798","name":"Tyn Aki"},"message":"「本を開けた」ですよね。「開く」は自動詞だから。","can_remove":false,"created_time":"2013-03-01T12:03:05+0000","like_count":0,"user_likes":false},"619200234763324":{"id":"619200234763324","from":{"id":"100001695345798","name":"Tyn Aki"},"message":"分かる？","can_remove":false,"created_time":"2013-03-01T12:03:09+0000","like_count":0,"user_likes":false},"619200711429943":{"id":"619200711429943","from":{"id":"100000073848158","name":"Hoàng Đắc"},"message":"分かった、先生　：）","can_remove":false,"created_time":"2013-03-01T12:04:29+0000","like_count":0,"user_likes":false},"619200858096595":{"id":"619200858096595","from":{"id":"100001695345798","name":"Tyn Aki"},"message":"いいえ、そういうことではない。(￣▽￣)","can_remove":false,"created_time":"2013-03-01T12:05:23+0000","like_count":0,"user_likes":false},"619219011428113":{"id":"619219011428113","from":{"id":"100001754136107","name":"Nguyễn Tuấn Vũ"},"message":"Nhưng theo t vân sai ;)","can_remove":false,"created_time":"2013-03-01T12:53:08+0000","like_count":0,"user_likes":false},"619223298094351":{"id":"619223298094351","from":{"id":"100001695345798","name":"Tyn Aki"},"message":"なんで？","can_remove":false,"created_time":"2013-03-01T13:07:29+0000","like_count":0,"user_likes":false},"619265398090141":{"id":"619265398090141","from":{"id":"100001458099624","name":"Kham Pha"},"message":"Vũ này, thứ 2 tới em có post bài được không?","message_tags":[{"id":"100001754136107","name":"Vũ","type":"user","offset":0,"length":2}],"can_remove":false,"created_time":"2013-03-01T14:46:31+0000","like_count":0,"user_likes":false},"619266374756710":{"id":"619266374756710","from":{"id":"100001754136107","name":"Nguyễn Tuấn Vũ"},"message":"E gửi cho linh rồi","can_remove":false,"created_time":"2013-03-01T14:50:00+0000","like_count":0,"user_likes":false},"619266438090037":{"id":"619266438090037","from":{"id":"100001754136107","name":"Nguyễn Tuấn Vũ"},"message":"グエン リン post bài hộ t","message_tags":[{"id":"100001695345798","name":"グエン リン","type":"user","offset":0,"length":6}],"can_remove":false,"created_time":"2013-03-01T14:50:13+0000","like_count":0,"user_likes":false},"619372391412775":{"id":"619372391412775","from":{"id":"100001695345798","name":"Tyn Aki"},"message":"了解！(￣▽￣)","can_remove":false,"created_time":"2013-03-01T19:26:28+0000","like_count":0,"user_likes":false}},"paging":{"cursors":{"after":"NjE3MTExMjQxNjM4ODkw","before":"NjE3MTExMjQxNjM4ODkw"},"next":"https://graph.facebook.com/229244010425617_617109478305733/comments?limit=1&summary=1&after=NjE3MTExMjQxNjM4ODkw"},"summary":{"order":"chronological","total_count":20}}}