{"id":"229244010425617_618081928208488","type":"link","picture":"https://fbexternal-a.akamaihd.net/safe_image.php?d=AQDihn9ff0GOqOYW&url=https%3A%2F%2Ffbcdn-profile-a.akamaihd.net%2Fhprofile-ak-snc6%2F276816_101881786624475_971012684_n.jpg","link":"https://www.facebook.com/japanese.job","from":{"id":"100000299798248","name":"Vẹt Đêm"},"message":"page https://www.facebook.com/japanese.job?fref=ts cần tuyển admin post thông tin tuyển dụng! Bạn nào quan tâm thì mess cho page nhé. \nĐiều kiện: \n+ Có thể trực 3 ngày/ tuần (2,4,6 hoặc 3,5,7) và trong thời gian trực thì sẽ đảm nhận nhiệm vụ post lại all tin tuyển dụng đã được các nhà tuyển dụng up lên page từ trước mà chưa được các ad  khác post lên page.  Không quy định cụ thể giờ các bạn phải onl page mà chỉ cần các lượng tin trong những ngày bạn trực được update ở page là ok. \n+ Nhiệt tình, có trách nhiệm với công việc. \n+ Ưu tiên sinh viên \nQuyền lợi:\n+ Vì page là page phi lợi nhuận nên các ad sẽ không có lương :(\n+ Giao lưu với các bạn, các nhân sự tiếng nhật trong cả nước. \n+ Nắm bắt thông tin tuyển dụng nhanh nhất.","created_time":"2013-02-27T05:48:29+0000","updated_time":"2013-03-10T14:29:14+0000","likes":{"data":{"100004482331666":{"id":"100004482331666","name":"Kyuubi Youko"},"100002575102109":{"id":"100002575102109","name":"Cậu Bé To Xác"},"100001844269163":{"id":"100001844269163","name":"Bằng Ngô Quý"},"100002754998000":{"id":"100002754998000","name":"Nguyen Duc"},"100001458099624":{"id":"100001458099624","name":"Kham Pha"}},"paging":{"cursors":{"after":"MTAwMDA0NDgyMzMxNjY2","before":"MTAwMDA0NDgyMzMxNjY2"},"next":"https://graph.facebook.com/229244010425617_618081928208488/likes?limit=1&summary=1&after=MTAwMDA0NDgyMzMxNjY2"},"summary":{"total_count":5}},"comments":{"data":{"618090384874309":{"id":"618090384874309","from":{"id":"100001458099624","name":"Kham Pha"},"message":"Truc La bạn cho mình hỏi là trung bình lượng post lên trong một tuần là khoảng bao nhiêu? và thông tin đăng lấy từ đâu ra để đăng? ai gửi đến?","message_tags":[{"id":"100000299798248","name":"Truc La","type":"user","offset":0,"length":7}],"can_remove":false,"created_time":"2013-02-27T06:18:54+0000","like_count":1,"user_likes":false},"618555938161087":{"id":"618555938161087","from":{"id":"100000299798248","name":"Vẹt Đêm"},"message":"lượng post tùy thuộc nhà tuyển dụng cũng như các công ty up nha bạn. THông link lấy từ mail của page cũng như wall page. :)","can_remove":false,"created_time":"2013-02-28T04:42:04+0000","like_count":0,"user_likes":false},"624630914220256":{"id":"624630914220256","from":{"id":"100002575102109","name":"Cậu Bé To Xác"},"message":"vâng em làm ad được không Truc La","message_tags":[{"id":"100000299798248","name":"Truc La","type":"user","offset":26,"length":7}],"can_remove":false,"created_time":"2013-03-10T13:31:44+0000","like_count":0,"user_likes":false},"624651054218242":{"id":"624651054218242","from":{"id":"100000299798248","name":"Vẹt Đêm"},"message":"bạn inbox vào mess page nhé. Tụi mình cần bạn reply vài câu hỏi nhỏ ^^","can_remove":false,"created_time":"2013-03-10T14:29:14+0000","like_count":0,"user_likes":false}},"paging":{"cursors":{"after":"NjE4MDkwMzg0ODc0MzA5","before":"NjE4MDkwMzg0ODc0MzA5"},"next":"https://graph.facebook.com/229244010425617_618081928208488/comments?limit=1&summary=1&after=NjE4MDkwMzg0ODc0MzA5"},"summary":{"order":"chronological","total_count":4}}}