{"id":"229244010425617_619023141447700","type":"status","from":{"id":"100001695345798","name":"Tyn Aki"},"message":"Bài　74 : Thành ngữ, tục ngữ tiếng Nhật (phần 3)\n\nChào các bạn, ngày đầu tiên của tháng 3, cùng đổi không khí chút nhé. Nói là đổi không khí chứ đây là đề tài mà anh Khám Phá đã viết　（bài 56), mình xin được giới thiệu tiếp 2 câu thành ngữ, tục ngữ tiếng Nhật (ことわざ）\n1. 会うは別れの始め。　（あうはわかれのはじめ）\n出会いがあれば必ず別れる時があるということ。\nNghĩa đen và nghĩa bóng của câu này đều là: việc gặp nhau chính là sự bắt đầu của một sự chia li.^^ Nếu có thể gặp nhau được thì chắc chắn sẽ có lúc phải chia tay. Câu này rất thích hợp khi dùng trong các buổi chia tay.\n\n2.一石二鳥　（いっせきにちょう）\n一つの行（いこな）いから二つの利益（りえき）を得るということ。\nNghĩa đen: Từ một hành động có thể đạt được hai mục đích, lợi nhuận. Việt Nam mình có câu Một mũi tên trúng hai đích. \n\nChúc các bạn cuối tuần vui vẻ.\nP/s: hãy thường xuyên sử dụng các câu ことわざ để có thể tiếp cận gần hơn cách suy nghĩ của người Nhật và bạn cũng sẽ để lại ấn tượng tốt với người đối diện. Tất nhiên cần lưu ý hoàn cảnh sử dụng, vì đây là con dao hai lưỡi mà. ^^ \n良い週末を。(#^.^#)","created_time":"2013-03-01T02:44:39+0000","updated_time":"2013-03-06T04:19:05+0000","likes":{"data":{"100000240706191":{"id":"100000240706191","name":"U' Bồng Bột"},"100001840875327":{"id":"100001840875327","name":"Phạm Chí Long"},"100002594112476":{"id":"100002594112476","name":"Thiên Di"},"100000021018532":{"id":"100000021018532","name":"Hương Nguyễn"},"100000073848158":{"id":"100000073848158","name":"Hoàng Đắc"},"100003207550369":{"id":"100003207550369","name":"Khoa Doan"},"100003533793568":{"id":"100003533793568","name":"Công Định Nguyễn"},"100001894545350":{"id":"100001894545350","name":"Lhp Bin"},"100001754136107":{"id":"100001754136107","name":"Nguyễn Tuấn Vũ"},"100000198219367":{"id":"100000198219367","name":"Chang Jiang"},"100001458099624":{"id":"100001458099624","name":"Kham Pha"}},"paging":{"cursors":{"after":"MTAwMDAwMjQwNzA2MTkx","before":"MTAwMDAwMjQwNzA2MTkx"},"next":"https://graph.facebook.com/229244010425617_619023141447700/likes?limit=1&summary=1&after=MTAwMDAwMjQwNzA2MTkx"},"summary":{"total_count":11}},"comments":{"data":{"619040834779264":{"id":"619040834779264","from":{"id":"100000198219367","name":"Chang Jiang"},"message":"1 đá 2 chim :))","can_remove":false,"created_time":"2013-03-01T03:06:58+0000","like_count":1,"user_likes":false},"619041444779203":{"id":"619041444779203","from":{"id":"100001695345798","name":"Tyn Aki"},"message":"nhưng mà câu này vô lí nhỉ, ném thế nào mà được thế nhỉ, chỉ trừ khi hai con đứng xếp hàng dọc, ,à cũng ko được cơ, siêu nhân ms làm đc ;))","can_remove":false,"created_time":"2013-03-01T03:08:19+0000","like_count":0,"user_likes":false},"619047511445263":{"id":"619047511445263","from":{"id":"100000198219367","name":"Chang Jiang"},"message":"đá ném lên trúng con chim, sau đó rơi xuống theo trọng lực trúng vào con bay thấp, thế là rụng :))))))))))))))","can_remove":false,"created_time":"2013-03-01T03:22:59+0000","like_count":2,"user_likes":false},"619047851445229":{"id":"619047851445229","from":{"id":"100001695345798","name":"Tyn Aki"},"message":"thế thôi, thánh rồi ạ ^^","can_remove":false,"created_time":"2013-03-01T03:24:33+0000","like_count":0,"user_likes":false},"619300798086601":{"id":"619300798086601","from":{"id":"100001609833418","name":"Tsunami Hime"},"message":"ôi ôi đang định bảo là nên có cái mục này thì các bạn đã đăng ùi :)\n1 số cái nữa rất hài(/hay):\n1.玉磨かざれば光なし (ngọc không mài ko sáng)\n2.一寸先は闇 (phía trước tối thui) - tương lai mờ mịt\n3.昔の剣今の菜刀 (kiếm xưa dùng làm bếp) - hết chiến tranh thì lính cũng thành dân/ điểu tận cung tàn\n4. 月夜に提灯 (đêm trăng mang đèn lồng)\n5. 隠すより現わる (kim trong bọc có ngày lòi ra)\netc... (nói nhiều quá)","can_remove":false,"created_time":"2013-03-01T16:22:45+0000","like_count":4,"user_likes":false},"619497944733553":{"id":"619497944733553","from":{"id":"100004145293805","name":"Trần Đại Dương"},"message":"có câu này hay Tyn Aki nè スーパーマンでもどんなことでもとはかぎらない。","message_tags":[{"id":"100001695345798","name":"Tyn Aki","type":"user","offset":15,"length":7}],"can_remove":false,"created_time":"2013-03-02T02:26:41+0000","like_count":3,"user_likes":false},"619510161398998":{"id":"619510161398998","from":{"id":"100001695345798","name":"Tyn Aki"},"message":"cảm ơn Tsunami Hime và Trần Đại Dương nhá :x công nhận là chủ đề này rất rộng, Hà và Dương khi nào rảnh share kiến thức về cái này đc ko? rất cần mà :x mong làm đc tuyển tập kotawaza nhỉ (￣▽￣)","message_tags":[{"id":"100001609833418","name":"Tsunami Hime","type":"user","offset":7,"length":12},{"id":"100004145293805","name":"Trần Đại Dương","type":"user","offset":23,"length":14}],"can_remove":false,"created_time":"2013-03-02T03:11:35+0000","like_count":2,"user_likes":false},"619639704719377":{"id":"619639704719377","from":{"id":"100004145293805","name":"Trần Đại Dương"},"message":"uh minh co motj it thanh ngu tieng nhat khoang mot vai hom minh post len hj","can_remove":false,"created_time":"2013-03-02T10:19:08+0000","like_count":2,"user_likes":false},"621981251151889":{"id":"621981251151889","from":{"id":"100001609833418","name":"Tsunami Hime"},"message":"rảnh rỗi post thêm:\n1. 鰯の頭も信心から (iwashi no kashira mo shinjin kara): có tin thì đầu cá mòi cũng thiêng (tạm thời chưa nghĩ đc thành ngữ việt tương ứng)\n2.独活の大木  (udo no taiboku): cây udo to (tức là chẳng để làm gì)\n3.焼け木杭に火がつき易い (yake bokkui ni hi ga tsuki yasui): lửa gần rơm lâu ngày cũng bén\n4.壁に耳あり障子に目あり (kabe ni mimi ari syoji ni me ari): tai vách mạch rừng\n5.三日坊主(mikka bozu): cả thèm chóng chán\n6. cái này nữa: 爪に火を点す(tsume ni hi o tomosu): vắt cổ chày ra nước :)","can_remove":false,"created_time":"2013-03-05T16:20:28+0000","like_count":3,"user_likes":false},"621981597818521":{"id":"621981597818521","from":{"id":"100000198219367","name":"Chang Jiang"},"message":"lập post mới đi bạn ơi. cho mọi ng dễ theo dõi ^^","can_remove":false,"created_time":"2013-03-05T16:21:18+0000","like_count":1,"user_likes":false},"621981811151833":{"id":"621981811151833","from":{"id":"100001609833418","name":"Tsunami Hime"},"message":"để khi nào các add tổng hợp đã","can_remove":false,"created_time":"2013-03-05T16:21:43+0000","like_count":0,"user_likes":false},"621982081151806":{"id":"621982081151806","from":{"id":"100000198219367","name":"Chang Jiang"},"message":"post mới thì báo notifi các bạn trong group vào đọc nữa chứ ^^","can_remove":false,"created_time":"2013-03-05T16:22:23+0000","like_count":0,"user_likes":false},"621982317818449":{"id":"621982317818449","from":{"id":"100001609833418","name":"Tsunami Hime"},"message":"cứ cmt liên tục thế này thì bài đưa lên đầu rồi còn gì :)","can_remove":false,"created_time":"2013-03-05T16:23:05+0000","like_count":0,"user_likes":false},"621982644485083":{"id":"621982644485083","from":{"id":"100001695345798","name":"Tyn Aki"},"message":"Tsunami Hime: Hà rảnh khi nào post một bài ms luôn nha <3 sau đó sẽ tạo thành note luôn, hi","message_tags":[{"id":"100001609833418","name":"Tsunami Hime","type":"user","offset":0,"length":12}],"can_remove":false,"created_time":"2013-03-05T16:23:52+0000","like_count":0,"user_likes":false},"621982731151741":{"id":"621982731151741","from":{"id":"100001609833418","name":"Tsunami Hime"},"message":"okie","can_remove":false,"created_time":"2013-03-05T16:24:14+0000","like_count":1,"user_likes":false},"622238494459498":{"id":"622238494459498","from":{"id":"100001458099624","name":"Kham Pha"},"message":"Câu \"vắt cổ chày ra nước\" làm mình nhớ đến trong chương trình Đối mặt ngày xưa có một chị đoán câu \"vắt cổ chày ra chim\" :))","can_remove":false,"created_time":"2013-03-06T04:06:54+0000","like_count":1,"user_likes":false},"622243587792322":{"id":"622243587792322","from":{"id":"100001609833418","name":"Tsunami Hime"},"message":"to thj nho den rau quap :)","can_remove":false,"created_time":"2013-03-06T04:19:05+0000","like_count":0,"user_likes":false}},"paging":{"cursors":{"after":"NjE5MDQwODM0Nzc5MjY0","before":"NjE5MDQwODM0Nzc5MjY0"},"next":"https://graph.facebook.com/229244010425617_619023141447700/comments?limit=1&summary=1&after=NjE5MDQwODM0Nzc5MjY0"},"summary":{"order":"chronological","total_count":17}}}