{"id":"229244010425617_619103251439689","type":"link","picture":"https://fbexternal-a.akamaihd.net/safe_image.php?d=AQD0E9gbKg4ZBEHW&w=154&h=154&url=http%3A%2F%2Fvnexpress.net%2FFiles%2FSubject%2F3b%2Fbe%2F20%2F5d%2Fdu_hoc.jpg","link":"http://vnexpress.net/gl/ban-doc-viet/2013/02/vo-mong-kiem-30-trieu-dong-mot-thang-khi-du-hoc-nhat/","from":{"id":"100004482331666","name":"Kyuubi Youko"},"message":"Hôm qua em vừa đọc được cái này, các anh chị cho ý kiến giúp e vs, e hoang mang quá =.=\"\nhttp://vnexpress.net/gl/ban-doc-viet/2013/02/vo-mong-kiem-30-trieu-dong-mot-thang-khi-du-hoc-nhat/","created_time":"2013-03-01T06:43:43+0000","updated_time":"2013-03-10T14:17:30+0000","likes":{"data":{"1693102459":{"id":"1693102459","name":"Châu Hoàng"},"100003082343329":{"id":"100003082343329","name":"Ta Ke"},"100004482331666":{"id":"100004482331666","name":"Kyuubi Youko"},"100003179905990":{"id":"100003179905990","name":"Trâm Yoko"},"100001458099624":{"id":"100001458099624","name":"Kham Pha"},"100002967791944":{"id":"100002967791944","name":"Tôi Yêu VietNam"}},"paging":{"cursors":{"after":"MTY5MzEwMjQ1OQ==","before":"MTY5MzEwMjQ1OQ=="},"next":"https://graph.facebook.com/229244010425617_619103251439689/likes?limit=1&summary=1&after=MTY5MzEwMjQ1OQ%3D%3D"},"summary":{"total_count":6}},"comments":{"data":{"619103401439674":{"id":"619103401439674","from":{"id":"100002967791944","name":"Tôi Yêu VietNam"},"message":"đi du học là đi để học","can_remove":false,"created_time":"2013-03-01T06:45:09+0000","like_count":1,"user_likes":false},"619103581439656":{"id":"619103581439656","from":{"id":"100002967791944","name":"Tôi Yêu VietNam"},"message":"còn muốn đi du học mà kinh phí chỉ đủ nộp học phí và sinh hoạt 1 và tháng thì hãy học tốt tiếng nhật ở bên việt nam rồi hãy sang đó.","can_remove":false,"created_time":"2013-03-01T06:45:53+0000","like_count":1,"user_likes":false},"619103664772981":{"id":"619103664772981","from":{"id":"100001458099624","name":"Kham Pha"},"message":"kiếm đc 30 triệu 1 tháng ko phải khó, thậm chí nhiều hơn, nhưng ko phải là với những người mới sang và chà biết tí tiếng Nhật nào.","can_remove":false,"created_time":"2013-03-01T06:46:03+0000","like_count":2,"user_likes":false},"619104451439569":{"id":"619104451439569","from":{"id":"100004482331666","name":"Kyuubi Youko"},"message":"Vậy thỳ con đường \"Vừa học vừa làm\" của các công ty môi giới Việt Nam đang quảng cáo ầm ầm liệu có tin được ko ạ","can_remove":false,"created_time":"2013-03-01T06:48:37+0000","like_count":1,"user_likes":false},"619104568106224":{"id":"619104568106224","from":{"id":"100002967791944","name":"Tôi Yêu VietNam"},"message":"trước khi tìm hiểu du học nhật","can_remove":false,"created_time":"2013-03-01T06:49:09+0000","like_count":0,"user_likes":false},"619104584772889":{"id":"619104584772889","from":{"id":"100002967791944","name":"Tôi Yêu VietNam"},"message":"hãy tìm hiểu công ty môi giới đó","can_remove":false,"created_time":"2013-03-01T06:49:18+0000","like_count":1,"user_likes":false},"619104644772883":{"id":"619104644772883","from":{"id":"100002967791944","name":"Tôi Yêu VietNam"},"message":"vừa học vừa làm đối với những người đã biết nhiều tiếng nhật","can_remove":false,"created_time":"2013-03-01T06:49:43+0000","like_count":1,"user_likes":false},"619104891439525":{"id":"619104891439525","from":{"id":"100002967791944","name":"Tôi Yêu VietNam"},"message":"còn chưa biết mới sơ cấp thì sang đó quả là khó khăn, nhưng phải cố gắng thật nhiều khi xác định đi con đường vừa học vừa làm","can_remove":false,"created_time":"2013-03-01T06:50:33+0000","like_count":1,"user_likes":false},"619104924772855":{"id":"619104924772855","from":{"id":"100004482331666","name":"Kyuubi Youko"},"message":"Em ở Bắc Giang, hiện tại ở đây là công ty ICO đang tổ chức cái này ạ","can_remove":false,"created_time":"2013-03-01T06:50:36+0000","like_count":0,"user_likes":false},"619105524772795":{"id":"619105524772795","from":{"id":"100001458099624","name":"Kham Pha"},"message":"tìm hiểu tốt nhất bằng cách hỏi những người đã đi với chính cty đấy","can_remove":false,"created_time":"2013-03-01T06:51:41+0000","like_count":2,"user_likes":false},"619105921439422":{"id":"619105921439422","from":{"id":"100001695345798","name":"Tyn Aki"},"message":"có trường hợp 1 nhóm ng ms sang ms biết bị lừa, ko có chỗ để ngủ, phải kéo lên đại sứ quán Vn để đòi quyền lợi/ h nhiều trung tâm tư vấn quá nên mất chất lượng. chúc bạn may mắn. ^^","can_remove":false,"created_time":"2013-03-01T06:53:52+0000","like_count":2,"user_likes":false},"619106258106055":{"id":"619106258106055","from":{"id":"100004482331666","name":"Kyuubi Youko"},"message":"Em cũng định theo con đường này, vì bây giờ học ở Việt Nam xong ra trường khó có công ăn việc làm lắm, nhưng đọc bài báo này xong e thấy có vẻ hơi nguy hiểm =.=\" Có lẽ nên học tiếng ổn định ở đây đã rối mới có thể sang bên ấy được.","can_remove":false,"created_time":"2013-03-01T06:56:01+0000","like_count":1,"user_likes":false},"619224384760909":{"id":"619224384760909","from":{"id":"100003207550369","name":"Khoa Doan"},"message":"sang Nhật đúng là vất vả thật nhưng trong sự vất vả đó mình sẽ tìm được thành công đó bạn.","can_remove":false,"created_time":"2013-03-01T13:11:24+0000","like_count":1,"user_likes":false},"619225421427472":{"id":"619225421427472","from":{"id":"100004482331666","name":"Kyuubi Youko"},"message":"Đúng là như vậy, nhưng mà với khả năng kinh tế trung bình của người dân  bây giờ thỳ nuôi được con em sang học 4,5 năm bên đấy là cực kỳ khó khăn =.=\"","can_remove":false,"created_time":"2013-03-01T13:15:52+0000","like_count":1,"user_likes":false},"619225871427427":{"id":"619225871427427","from":{"id":"100003207550369","name":"Khoa Doan"},"message":"sang bên này nếu bạn mà biết giao tiếp và chịu khó thì 1 tháng 30tr là bình thường mà.đủ trả tiền học ,tiền sinh hoạt và có thể tiết kiệm được 1 chút.","can_remove":false,"created_time":"2013-03-01T13:17:30+0000","like_count":1,"user_likes":false},"619227981427216":{"id":"619227981427216","from":{"id":"100004482331666","name":"Kyuubi Youko"},"message":"Nhưng trong hoàn cảnh khó khăn bây giờ liệu còn có được cơ hội như vậy nữa ko ạ","can_remove":false,"created_time":"2013-03-01T13:21:05+0000","like_count":0,"user_likes":false},"619229138093767":{"id":"619229138093767","from":{"id":"100003207550369","name":"Khoa Doan"},"message":"được chứ bạn.nhưng sang bên này vất vả và thời gian để ngủ sẽ rất ít.1 ngày ngủ khoảng 7 tiếng thôi.thời tiết thì lạnh ,tuyết rơi....tớ sang bên này 2 năm rồi và tháng sau em trai tớ sẽ qua tiếp.","can_remove":false,"created_time":"2013-03-01T13:23:21+0000","like_count":0,"user_likes":false},"619229378093743":{"id":"619229378093743","from":{"id":"100004482331666","name":"Kyuubi Youko"},"message":"Ôi 7 tiếng là quá đủ rồi, bọn em ở nhà chỉ đc ngủ 5 tiếng 1 ngày thôi =.=\"","can_remove":false,"created_time":"2013-03-01T13:24:22+0000","like_count":0,"user_likes":false},"619229698093711":{"id":"619229698093711","from":{"id":"100002967791944","name":"Tôi Yêu VietNam"},"message":"sang do nghe noi nhieu nguoi chi duoc ngu 3-4 tieng thoi ban ak","can_remove":false,"created_time":"2013-03-01T13:25:13+0000","like_count":1,"user_likes":false},"619229718093709":{"id":"619229718093709","from":{"id":"100004482331666","name":"Kyuubi Youko"},"message":"À, cho em hỏi thêm về học phí cũng như sơ qua về chi phí sinh hoạt bên đấy được không ạ, tks!","can_remove":false,"created_time":"2013-03-01T13:25:21+0000","like_count":0,"user_likes":false},"619229751427039":{"id":"619229751427039","from":{"id":"100002967791944","name":"Tôi Yêu VietNam"},"message":"7 tieng la qua sa xi roi","can_remove":false,"created_time":"2013-03-01T13:25:25+0000","like_count":1,"user_likes":false},"619229868093694":{"id":"619229868093694","from":{"id":"100003207550369","name":"Khoa Doan"},"message":"hì.sang bên này có người đi làm chỉ ngủ 5t 1 ngày thôi.điều quan trọng là biết tiếng để tự xin việc","can_remove":false,"created_time":"2013-03-01T13:25:52+0000","like_count":1,"user_likes":false},"619229941427020":{"id":"619229941427020","from":{"id":"100002967791944","name":"Tôi Yêu VietNam"},"message":"tuy tung vung tuy tung noi. o tokyo thi bgio cung dat","can_remove":false,"created_time":"2013-03-01T13:26:00+0000","like_count":1,"user_likes":false},"619229984760349":{"id":"619229984760349","from":{"id":"100003207550369","name":"Khoa Doan"},"message":"hì.làm nhiều thì ngủ ít mà làm ít thì ngủ nhiều","can_remove":false,"created_time":"2013-03-01T13:26:14+0000","like_count":1,"user_likes":false},"619230018093679":{"id":"619230018093679","from":{"id":"100003207550369","name":"Khoa Doan"},"message":"uhm","can_remove":false,"created_time":"2013-03-01T13:26:22+0000","like_count":1,"user_likes":false},"619230278093653":{"id":"619230278093653","from":{"id":"100003207550369","name":"Khoa Doan"},"message":"làm bên này 1 giờ được khoảng 200k đến 220k nên nhiều ngguwowif cố gắng làm nhiều kiếm tiền.","can_remove":false,"created_time":"2013-03-01T13:27:24+0000","like_count":1,"user_likes":false},"619231621426852":{"id":"619231621426852","from":{"id":"100004482331666","name":"Kyuubi Youko"},"message":"sinh hoạt 1 tháng có tốn kém lắm ko ạ =.=\"","can_remove":false,"created_time":"2013-03-01T13:30:27+0000","like_count":0,"user_likes":false},"619232421426772":{"id":"619232421426772","from":{"id":"100003207550369","name":"Khoa Doan"},"message":"cũng tùy thôi bạn à.tiết kiệm thì cũng bình thường thôi.như tớ i tháng tiền nhà ,điện nước và tiền ăn khoảng 13tr.","can_remove":false,"created_time":"2013-03-01T13:32:23+0000","like_count":1,"user_likes":false},"619233504759997":{"id":"619233504759997","from":{"id":"100004482331666","name":"Kyuubi Youko"},"message":"vậy thỳ còn lại 15-17tr để đóng học phí","can_remove":false,"created_time":"2013-03-01T13:35:18+0000","like_count":0,"user_likes":false},"619235284759819":{"id":"619235284759819","from":{"id":"100003207550369","name":"Khoa Doan"},"message":"uhm.học phí khoảng 12tr.","can_remove":false,"created_time":"2013-03-01T13:37:51+0000","like_count":1,"user_likes":false},"619237841426230":{"id":"619237841426230","from":{"id":"100003207550369","name":"Khoa Doan"},"message":"đủ ăn tiêu và học phí là ok.nếu giao tiếp tốt 1 tháng làm 30đến 35 triệu thì quá đơn giàn.","can_remove":false,"created_time":"2013-03-01T13:40:27+0000","like_count":1,"user_likes":false},"619237931426221":{"id":"619237931426221","from":{"id":"100004482331666","name":"Kyuubi Youko"},"message":"nếu như vậy thỳ vẫn có thể xoay xở được nếu chăm chỉ, chịu khó, rồi dần dần tình hình sẽ đỡ căng thẳng hơn và khi quen rồi thỳ việc trụ lại là hoàn toàn có thể a nhỉ","can_remove":false,"created_time":"2013-03-01T13:40:37+0000","like_count":0,"user_likes":false},"619239058092775":{"id":"619239058092775","from":{"id":"100003207550369","name":"Khoa Doan"},"message":"um.nhưng tớ đang nói những người biết tiếng nhật rồi nhé.còn nếu chưa biết hoặc kém thì cũng khó khăn đó bạn à.","can_remove":false,"created_time":"2013-03-01T13:42:08+0000","like_count":1,"user_likes":false},"619239974759350":{"id":"619239974759350","from":{"id":"100004482331666","name":"Kyuubi Youko"},"message":"vâng, vậy thỳ mấu chốt là phải có vốn tiếng Nhật tốt có tiếng là có thể sống được","can_remove":false,"created_time":"2013-03-01T13:43:05+0000","like_count":0,"user_likes":false},"619240434759304":{"id":"619240434759304","from":{"id":"100003207550369","name":"Khoa Doan"},"message":"uhm.đúng đó bạn.","can_remove":false,"created_time":"2013-03-01T13:43:52+0000","like_count":0,"user_likes":false},"619240688092612":{"id":"619240688092612","from":{"id":"100004482331666","name":"Kyuubi Youko"},"message":"em cảm ơn a nhiều ạ, để em về thông báo với các bạn trong trường cho m.n chuẩn bị tinh thần cho chắc ^_^","can_remove":false,"created_time":"2013-03-01T13:44:15+0000","like_count":0,"user_likes":false},"619241031425911":{"id":"619241031425911","from":{"id":"100003207550369","name":"Khoa Doan"},"message":"bạn học ở đâu?","can_remove":false,"created_time":"2013-03-01T13:44:47+0000","like_count":0,"user_likes":false},"619241401425874":{"id":"619241401425874","from":{"id":"100004482331666","name":"Kyuubi Youko"},"message":"em học THPT ở BG thôi ^_^","can_remove":false,"created_time":"2013-03-01T13:45:05+0000","like_count":0,"user_likes":false},"619241668092514":{"id":"619241668092514","from":{"id":"100003207550369","name":"Khoa Doan"},"message":"uh.vậy à.cố học tiếng sang bên này thik lắm không muốn về đâu.hihi","can_remove":false,"created_time":"2013-03-01T13:45:55+0000","like_count":0,"user_likes":false},"619242228092458":{"id":"619242228092458","from":{"id":"100004482331666","name":"Kyuubi Youko"},"message":"vờng, em vừa học ĐH, vừa học tiếng ở nhà vài năm nữa rồi mới sang cho chắc ăn","can_remove":false,"created_time":"2013-03-01T13:46:48+0000","like_count":0,"user_likes":false},"619242531425761":{"id":"619242531425761","from":{"id":"100004482331666","name":"Kyuubi Youko"},"message":"chứ bây giờ người ta kéo nhau đi đông quá, mình sang bây giờ bon chen không khéo chết rũ xương bên đấy","can_remove":false,"created_time":"2013-03-01T13:47:21+0000","like_count":1,"user_likes":false},"619255671424447":{"id":"619255671424447","from":{"id":"100004482331666","name":"Kyuubi Youko"},"message":"À anh Khoa Doan ơi, hiện a đang học ở vùng nào ạ, so với các vùng khác thỳ giá cả có chênh lệch nhiều ko ạ","message_tags":[{"id":"100003207550369","name":"Khoa Doan","type":"user","offset":6,"length":9}],"can_remove":false,"created_time":"2013-03-01T14:17:48+0000","like_count":0,"user_likes":false},"619256571424357":{"id":"619256571424357","from":{"id":"100003207550369","name":"Khoa Doan"},"message":"minh dang di lam ban a.nhung ban minh di du hoc nhieu nen minh biet.muc song o tren la o vung osaka do ban.","can_remove":false,"created_time":"2013-03-01T14:20:08+0000","like_count":0,"user_likes":false},"619256851424329":{"id":"619256851424329","from":{"id":"100004482331666","name":"Kyuubi Youko"},"message":"vâng ạ","can_remove":false,"created_time":"2013-03-01T14:20:55+0000","like_count":0,"user_likes":false},"619260191423995":{"id":"619260191423995","from":{"id":"100001458099624","name":"Kham Pha"},"message":"Tokyo đắt hơn vùng kansai đấy, chắc khoảng 8man(17tr) thì sống thoải mái, tiết kiệm thì đỡ hơn. Đọc mấy bài kia mà thấy mình vẫn còn sướng chán. Nhưng nói chung sang Nhật học thì bạn sẽ ko phải hối hận đâu. Trưởng thành lên nhiều đấy. Cố gắng mà đi, ở nhà ăn bám bố mẹ làm gì.","can_remove":false,"created_time":"2013-03-01T14:30:41+0000","like_count":3,"user_likes":false},"619260711423943":{"id":"619260711423943","from":{"id":"100004482331666","name":"Kyuubi Youko"},"message":"Vâng, e cũng chẳng thích ở nhà đâu, lẹt đà lẹt đẹt =.=\"","can_remove":false,"created_time":"2013-03-01T14:32:32+0000","like_count":0,"user_likes":false},"619261061423908":{"id":"619261061423908","from":{"id":"100002967791944","name":"Tôi Yêu VietNam"},"message":"đi sang nhật làm thì không có gì là sung sướng đâu. sang đó học mà điều kện gia đình không có nhiều thì cũng còn vất vả lắm. nản cái là 1-2 năm sang đó chẳng học được gì. đã phải chia tay nước nhật luôn","can_remove":false,"created_time":"2013-03-01T14:33:17+0000","like_count":1,"user_likes":false},"619261664757181":{"id":"619261664757181","from":{"id":"100001458099624","name":"Kham Pha"},"message":"Cái gì cũng có giá của nó. Nhưng đàn ông con trai không chịu gian khổ sao thành người được. Đã muốn thì chấp nhận thôi.","can_remove":false,"created_time":"2013-03-01T14:35:04+0000","like_count":1,"user_likes":false},"619261734757174":{"id":"619261734757174","from":{"id":"100002967791944","name":"Tôi Yêu VietNam"},"message":"ở nhật bản phải cố gắng mà sống và làm việc, thời gian chơi ít, chủ yếu nếu xác định đi du học thì sang đó phải là học: làm chỉ là đủ trang trải cuộc sống thôi, không nên quá tham tiền lao vào làm thêm quá quy định của du học sinh, sẽ bị tước quyền cư trú ở nhật và sẽ không bao giờ có cơ hội sang đó vì bạn đã đánh mất niềm tin rồi","can_remove":false,"created_time":"2013-03-01T14:35:11+0000","like_count":1,"user_likes":false},"619262394757108":{"id":"619262394757108","from":{"id":"100002967791944","name":"Tôi Yêu VietNam"},"message":"học hết trung cấp ở bên này, và nghe nói thành thạo rồi sang đó sẽ sống tốt hơn với những gia đình không có điều kiện nhiều","can_remove":false,"created_time":"2013-03-01T14:36:14+0000","like_count":1,"user_likes":false},"619264274756920":{"id":"619264274756920","from":{"id":"100004482331666","name":"Kyuubi Youko"},"message":"cảm ơn các anh đã chia sẻ ạ ^_^ e sẽ rút kinh nghiệm","can_remove":false,"created_time":"2013-03-01T14:42:42+0000","like_count":0,"user_likes":false},"624630424220305":{"id":"624630424220305","from":{"id":"100002575102109","name":"Cậu Bé To Xác"},"message":"Tôi Yêu VietNam cho em hỏi quy định  của du học sinh thế nào ạ","message_tags":[{"id":"100002967791944","name":"Tôi Yêu VietNam","type":"user","offset":0,"length":15}],"can_remove":false,"created_time":"2013-03-10T13:30:18+0000","like_count":0,"user_likes":false},"624633004220047":{"id":"624633004220047","from":{"id":"100002967791944","name":"Tôi Yêu VietNam"},"message":"cái này thì tự tìm hiểu thôi, du học sinh bên nhật chắc chắn không được làm thêm quá 28t trên tuần","can_remove":false,"created_time":"2013-03-10T13:38:24+0000","like_count":0,"user_likes":false},"624633097553371":{"id":"624633097553371","from":{"id":"100002967791944","name":"Tôi Yêu VietNam"},"message":"còn nhiều thứ khác nữa cũng không nắm rõ.......","can_remove":false,"created_time":"2013-03-10T13:38:37+0000","like_count":0,"user_likes":false},"624634657553215":{"id":"624634657553215","from":{"id":"100002575102109","name":"Cậu Bé To Xác"},"message":"thế ít thế nhỉ ?thế làm hay không họ kiểm soát được không Tôi Yêu VietNam","message_tags":[{"id":"100002967791944","name":"Tôi Yêu VietNam","type":"user","offset":58,"length":15}],"can_remove":false,"created_time":"2013-03-10T13:42:55+0000","like_count":0,"user_likes":false},"624636117553069":{"id":"624636117553069","from":{"id":"100002967791944","name":"Tôi Yêu VietNam"},"message":"nếu bị phát hiện thì bị đuổi về nước hay sao ấy.và cấm sang nhật nữa....","can_remove":false,"created_time":"2013-03-10T13:48:05+0000","like_count":1,"user_likes":false},"624636874219660":{"id":"624636874219660","from":{"id":"100002967791944","name":"Tôi Yêu VietNam"},"message":"nói chung là làm 28t/tuần lương khoảng 20usd/giờ hoặc nhiều hơn có người còn 50usd nói chung là cũng thoải mái đủ tiêu đủ sống đủ nộp tiền học nữa","can_remove":false,"created_time":"2013-03-10T13:50:45+0000","like_count":0,"user_likes":false},"624637460886268":{"id":"624637460886268","from":{"id":"100001458099624","name":"Kham Pha"},"message":"sự thật là hầu hết sinh viên Việt Nam đều chỉ được quãng 10usd/giờ thôi. Cho các công việc rửa bát, bưng bê,...","can_remove":false,"created_time":"2013-03-10T13:52:46+0000","like_count":0,"user_likes":false},"624637467552934":{"id":"624637467552934","from":{"id":"100002575102109","name":"Cậu Bé To Xác"},"message":"uhm thanks anh  em cũng đang học tiếng nhật cũng thấy khó!bên đấy nhiều việc không anh?","can_remove":false,"created_time":"2013-03-10T13:52:48+0000","like_count":0,"user_likes":false},"624637570886257":{"id":"624637570886257","from":{"id":"100004482331666","name":"Kyuubi Youko"},"message":":o 50usd/giờ*28h*4 tuần là hơn 110tr VNĐ/tháng","can_remove":false,"created_time":"2013-03-10T13:53:04+0000","like_count":0,"user_likes":false},"624637977552883":{"id":"624637977552883","from":{"id":"100002967791944","name":"Tôi Yêu VietNam"},"message":"công việc thì nhiều......nhưng khả năng mỗi người có hạn nên tùy thuộc vào nó mà......","can_remove":false,"created_time":"2013-03-10T13:54:17+0000","like_count":0,"user_likes":false},"624638147552866":{"id":"624638147552866","from":{"id":"100002967791944","name":"Tôi Yêu VietNam"},"message":"mình học xong đại học bên này rồi sang đó học tiếng 2 năm rồi học đại học 3 nữa..","can_remove":false,"created_time":"2013-03-10T13:54:43+0000","like_count":0,"user_likes":false},"624638580886156":{"id":"624638580886156","from":{"id":"100002967791944","name":"Tôi Yêu VietNam"},"message":"mình xin đi làm thêm 28t/tuần lương khoảng 30usd/h đủ nộp tiền học phí và chi phí sinh hoạt ...nhưng quan trọng nhất vẫn là vốn tiếng nhật trình cao nói thành thạo thì dễ kiếm việc làm lương cao hơn","can_remove":false,"created_time":"2013-03-10T13:56:01+0000","like_count":1,"user_likes":false},"624638870886127":{"id":"624638870886127","from":{"id":"100001458099624","name":"Kham Pha"},"message":"Mạo muội hỏi, bạn làm công việc gì mà 30usd/ giờ ?","can_remove":false,"created_time":"2013-03-10T13:57:02+0000","like_count":0,"user_likes":false},"624638944219453":{"id":"624638944219453","from":{"id":"100001458099624","name":"Kham Pha"},"message":"Mà sao lại tính theo usd chứ ko phải yên?","can_remove":false,"created_time":"2013-03-10T13:57:16+0000","like_count":0,"user_likes":false},"624639814219366":{"id":"624639814219366","from":{"id":"100002575102109","name":"Cậu Bé To Xác"},"message":"em đang học đại học em muốn sang nhật thì theo anh nên đi đường nào(du học.xuất khẩu..)","can_remove":false,"created_time":"2013-03-10T14:00:17+0000","like_count":0,"user_likes":false},"624639824219365":{"id":"624639824219365","from":{"id":"100002967791944","name":"Tôi Yêu VietNam"},"message":"ừ mình làm về lập trình gia công cơ khí","can_remove":false,"created_time":"2013-03-10T14:00:25+0000","like_count":0,"user_likes":false},"624639900886024":{"id":"624639900886024","from":{"id":"100002575102109","name":"Cậu Bé To Xác"},"message":"sau khi học xong thì thật lợi hơn","can_remove":false,"created_time":"2013-03-10T14:00:37+0000","like_count":0,"user_likes":false},"624639917552689":{"id":"624639917552689","from":{"id":"100002967791944","name":"Tôi Yêu VietNam"},"message":"làm cho công ty nước ngoài chứ không phải công ty của nhật","can_remove":false,"created_time":"2013-03-10T14:00:43+0000","like_count":0,"user_likes":false},"624640277552653":{"id":"624640277552653","from":{"id":"100002575102109","name":"Cậu Bé To Xác"},"message":"em cũng học về cơ khí hình như bên đấy đòi hỏi cao lắm anh nhể","can_remove":false,"created_time":"2013-03-10T14:01:42+0000","like_count":1,"user_likes":false},"624640870885927":{"id":"624640870885927","from":{"id":"100001458099624","name":"Kham Pha"},"message":"trường hợp của bạn là học xong đại học bên này rồi, kiến thức chuyên ngành cũng sâu, tiếng Nhật tốt nên mới có thể tìm công việc như thế. Còn những ai sang mới học đh, hoặc cũng mới học tiếng và không có nhiều mối quan hệ thì mức lương kia là điều không thể.","can_remove":false,"created_time":"2013-03-10T14:03:31+0000","like_count":1,"user_likes":false},"624642017552479":{"id":"624642017552479","from":{"id":"100002967791944","name":"Tôi Yêu VietNam"},"message":"đúng rồi","can_remove":false,"created_time":"2013-03-10T14:05:54+0000","like_count":0,"user_likes":false},"624642264219121":{"id":"624642264219121","from":{"id":"100001458099624","name":"Kham Pha"},"message":"chỗ cty bạn có tuyển lập trình viên phần mềm không?","can_remove":false,"created_time":"2013-03-10T14:06:34+0000","like_count":0,"user_likes":false},"624642340885780":{"id":"624642340885780","from":{"id":"100002575102109","name":"Cậu Bé To Xác"},"message":"Tôi Yêu VietNam anh trước học trường gì? chuyên ngành anh học ?( em hơi tò mò)","message_tags":[{"id":"100002967791944","name":"Tôi Yêu VietNam","type":"user","offset":0,"length":15}],"can_remove":false,"created_time":"2013-03-10T14:06:47+0000","like_count":0,"user_likes":false},"624642407552440":{"id":"624642407552440","from":{"id":"100002967791944","name":"Tôi Yêu VietNam"},"message":"cơ khí hồi trước mình có làm cho nissan ở bên việt nam 1 năm.sang bên này tìm công việc khác làm lương cao hẳn. ở nhật họ cần người làm được việc cho dù lương cao một chút với họ cũng không sao","can_remove":false,"created_time":"2013-03-10T14:07:02+0000","like_count":1,"user_likes":false},"624642587552422":{"id":"624642587552422","from":{"id":"100002967791944","name":"Tôi Yêu VietNam"},"message":"bên mình làm về gia công cơ khí thôi......không tuyển lập trình phần mềm","can_remove":false,"created_time":"2013-03-10T14:07:40+0000","like_count":0,"user_likes":false},"624642707552410":{"id":"624642707552410","from":{"id":"100002967791944","name":"Tôi Yêu VietNam"},"message":"mình trước học DHBK","can_remove":false,"created_time":"2013-03-10T14:08:10+0000","like_count":2,"user_likes":false},"624643157552365":{"id":"624643157552365","from":{"id":"100002575102109","name":"Cậu Bé To Xác"},"message":"em học bên tự đông hóa thiết kế -ở giao thông vận tải ,anh bên đấy làm biết được tiếng đã khó lại còn  hiêu được người ta nói anh pro quá","can_remove":false,"created_time":"2013-03-10T14:09:41+0000","like_count":0,"user_likes":false},"624643457552335":{"id":"624643457552335","from":{"id":"100001458099624","name":"Kham Pha"},"message":"Tôi Yêu VietNam nếu có thời gian rảnh, mời bạn post bài đóng góp cho group :)","message_tags":[{"id":"100002967791944","name":"Tôi Yêu VietNam","type":"user","offset":0,"length":15}],"can_remove":false,"created_time":"2013-03-10T14:10:53+0000","like_count":0,"user_likes":false},"624643807552300":{"id":"624643807552300","from":{"id":"100002967791944","name":"Tôi Yêu VietNam"},"message":"nói thật mình cũng bận lắm","can_remove":false,"created_time":"2013-03-10T14:11:51+0000","like_count":1,"user_likes":false},"624643950885619":{"id":"624643950885619","from":{"id":"100002967791944","name":"Tôi Yêu VietNam"},"message":"làm tăng ca với lại học đi học suốt..","can_remove":false,"created_time":"2013-03-10T14:12:11+0000","like_count":0,"user_likes":false},"624644230885591":{"id":"624644230885591","from":{"id":"100002967791944","name":"Tôi Yêu VietNam"},"message":"thi thoảng online cũng chẳng giúp ích được nhiều đâu...","can_remove":false,"created_time":"2013-03-10T14:12:45+0000","like_count":0,"user_likes":false},"624644594218888":{"id":"624644594218888","from":{"id":"100002575102109","name":"Cậu Bé To Xác"},"message":"Tôi Yêu VietNam em thấy anh Kham Pha ý hay đấy .anh làm được thế lại học cao anh góp ý cho anh em trên diễn đàn .em cũng muốn được anh chia sẻ về nhiều chuyện em cũng có xu hướng đi nhật","message_tags":[{"id":"100002967791944","name":"Tôi Yêu VietNam","type":"user","offset":0,"length":15},{"id":"100001458099624","name":"Kham Pha","type":"user","offset":28,"length":8}],"can_remove":false,"created_time":"2013-03-10T14:13:23+0000","like_count":0,"user_likes":false},"624645244218823":{"id":"624645244218823","from":{"id":"100002967791944","name":"Tôi Yêu VietNam"},"message":"cái đó tùy từng người thôi...ai mà có ước mơ thì nên cố gắng... nếu có điều kiện thì thực hiện ngay đi đừng đợi chờ làm gì","can_remove":false,"created_time":"2013-03-10T14:15:21+0000","like_count":0,"user_likes":false},"624645374218810":{"id":"624645374218810","from":{"id":"100001458099624","name":"Kham Pha"},"message":"Không nhất thiết phải viết thường xuyên, có vấn đề gì thì viết cũng được. Một bài viết về kinh nghiệm tìm việc chẳng hạn. Có lẽ sẽ rất nhiều người quan tâm đấy. よろしくお願いします。","can_remove":false,"created_time":"2013-03-10T14:15:42+0000","like_count":1,"user_likes":false},"624645967552084":{"id":"624645967552084","from":{"id":"100002575102109","name":"Cậu Bé To Xác"},"message":"ừ Kham Pha anh nói đúng anh nói trải nghiệm đơn thuần thôi như người nhật như thế nà/cần gì?họ ghét gì?yêu câu sao?để cho mọi người đỡ mắc phải","message_tags":[{"id":"100001458099624","name":"Kham Pha","type":"user","offset":2,"length":8}],"can_remove":false,"created_time":"2013-03-10T14:17:30+0000","like_count":0,"user_likes":false}},"paging":{"cursors":{"after":"NjE5MTAzNDAxNDM5Njc0","before":"NjE5MTAzNDAxNDM5Njc0"},"next":"https://graph.facebook.com/229244010425617_619103251439689/comments?limit=1&summary=1&after=NjE5MTAzNDAxNDM5Njc0"},"summary":{"order":"chronological","total_count":86}}}