{"id":"229244010425617_619674834715864","type":"status","from":{"id":"100004910289810","name":"Bùi Ngọc Sơn"},"message":"Cho em hỏi chút, trong nhóm này có ai sang Nhật du học bằng học bổng MEXT ko nhỉ?","created_time":"2013-03-02T11:10:40+0000","updated_time":"2013-03-02T13:07:01+0000","likes":{"data":{"100001609833418":{"id":"100001609833418","name":"Tsunami Hime"}},"paging":{"cursors":{"after":"MTAwMDAxNjA5ODMzNDE4","before":"MTAwMDAxNjA5ODMzNDE4"}},"summary":{"total_count":1}},"comments":{"data":{"619716581378356":{"id":"619716581378356","from":{"id":"100000198219367","name":"Chang Jiang"},"message":"Trần Đức Quang kìa","message_tags":[{"id":"100000088874261","name":"Trần Đức Quang","type":"user","offset":0,"length":14}],"can_remove":false,"created_time":"2013-03-02T12:59:20+0000","like_count":0,"user_likes":false},"619718824711465":{"id":"619718824711465","from":{"id":"100004910289810","name":"Bùi Ngọc Sơn"},"message":"Đại học Kyoto cơ à? đỉnh quá","can_remove":false,"created_time":"2013-03-02T13:07:01+0000","like_count":1,"user_likes":false}},"paging":{"cursors":{"after":"NjE5NzE2NTgxMzc4MzU2","before":"NjE5NzE2NTgxMzc4MzU2"},"next":"https://graph.facebook.com/229244010425617_619674834715864/comments?limit=1&summary=1&after=NjE5NzE2NTgxMzc4MzU2"},"summary":{"order":"chronological","total_count":2}}}