{"id":"229244010425617_620070504676297","type":"status","from":{"id":"100000180985064","name":"Trung Đồng"},"message":"Cho mình hỏi câu なること？có nghĩa là gì vậy? Mình thấy đồng nghiệp sử dụng khá nhiều, đoán là \"thế à? Thế sao? Ra là vậy\" nhưng có vẻ không đúng lắm?","created_time":"2013-03-03T04:49:48+0000","updated_time":"2013-03-03T11:22:46+0000","comments":{"data":{"620090848007596":{"id":"620090848007596","from":{"id":"100004546571014","name":"Minh Duy"},"message":"cho câu cụ thể đi bạn ơi","can_remove":false,"created_time":"2013-03-03T05:48:07+0000","like_count":0,"user_likes":false},"620092798007401":{"id":"620092798007401","from":{"id":"100000180985064","name":"Trung Đồng"},"message":"Chỉ vậy thôi bạn ạ. Khi mình giải thích 1 vấn đề gì đó, thì họ hay nói câu đấy, ví dụ như \"Ở VN giá rau và hoa quả rất rẻ\", hoặc \"Muốn làm ABC thì bạn phải XYZ\" thì họ nói như vậy.","can_remove":false,"created_time":"2013-03-03T05:56:21+0000","like_count":1,"user_likes":false},"620094574673890":{"id":"620094574673890","from":{"id":"1171821432","name":"Bean Beo"},"message":"”なるほど” có nghĩa là \"Uhm, hiểu rồi/ra vậy\". Mong các bạn giúp đỡ nhá! :D","can_remove":false,"created_time":"2013-03-03T06:05:37+0000","like_count":5,"user_likes":false},"620094721340542":{"id":"620094721340542","from":{"id":"100004546571014","name":"Minh Duy"},"message":"naruhodo thì nói làm gi ! bạn này đang hỏi là narukoto mà","can_remove":false,"created_time":"2013-03-03T06:06:26+0000","like_count":1,"user_likes":false},"620265231323491":{"id":"620265231323491","from":{"id":"100000180985064","name":"Trung Đồng"},"message":"Có thể là tớ nghe nhầm :)) Dù sao cũng cám ơn Minh Duy nhé. \nBean Beo: Nếu biết ông biết tôi đã hỏi ông luôn cho nhanh, 2 thằng ở dưới 1 mái nhà mà phải vác lên tận facebook để hỏi với trả lời, hài quá =))","message_tags":[{"id":"100004546571014","name":"Minh Duy","type":"user","offset":46,"length":8},{"id":"1171821432","name":"Bean Beo","type":"user","offset":61,"length":8}],"can_remove":false,"created_time":"2013-03-03T11:22:46+0000","like_count":3,"user_likes":false}},"paging":{"cursors":{"after":"NjIwMDkwODQ4MDA3NTk2","before":"NjIwMDkwODQ4MDA3NTk2"},"next":"https://graph.facebook.com/229244010425617_620070504676297/comments?limit=1&summary=1&after=NjIwMDkwODQ4MDA3NTk2"},"summary":{"order":"chronological","total_count":5}},"likes":{"data":[]}}