{"id":"229244010425617_620174664665881","type":"status","from":{"id":"100000629560377","name":"Yuki Hana"},"message":"Ở group mình có ai đang ở Tokyo không ạ ?","created_time":"2013-03-03T07:10:20+0000","updated_time":"2013-03-04T02:54:51+0000","comments":{"data":{"620241557992525":{"id":"620241557992525","from":{"id":"100001458099624","name":"Kham Pha"},"message":"Có chuyện gì vậy?","can_remove":false,"created_time":"2013-03-03T10:14:10+0000","like_count":0,"user_likes":false},"620241804659167":{"id":"620241804659167","from":{"id":"100000629560377","name":"Yuki Hana"},"message":"à minh sap sang tokyo nen muon hoi ve cuoc song o do y ma","can_remove":false,"created_time":"2013-03-03T10:15:28+0000","like_count":0,"user_likes":false},"620246254658722":{"id":"620246254658722","from":{"id":"100001580479641","name":"Hà Xuân Thủy"},"message":"Dù là tokyo nhưng cs ko phải ở đâu cũng giống nhau, cụ thể bạn qua quận nào?","can_remove":false,"created_time":"2013-03-03T10:28:43+0000","like_count":0,"user_likes":false},"620248794658468":{"id":"620248794658468","from":{"id":"100000629560377","name":"Yuki Hana"},"message":"arakwa :d","can_remove":false,"created_time":"2013-03-03T10:36:31+0000","like_count":0,"user_likes":false},"620249064658441":{"id":"620249064658441","from":{"id":"100000629560377","name":"Yuki Hana"},"message":"bạn ở đâu ? mình ở nippori","can_remove":false,"created_time":"2013-03-03T10:36:47+0000","like_count":0,"user_likes":false},"620251031324911":{"id":"620251031324911","from":{"id":"100001580479641","name":"Hà Xuân Thủy"},"message":"Nippri gần công viên ueno tha hồ ngắm hoa anh đào rồi, trên đó mình ko rõ lắm, mình ở ota, ko phải khu trung tâm thấy cs cũng bt ko nhộn nhịp và bận rộn lắm.","can_remove":false,"created_time":"2013-03-03T10:41:22+0000","like_count":0,"user_likes":false},"620251341324880":{"id":"620251341324880","from":{"id":"100000629560377","name":"Yuki Hana"},"message":"có gì t ad fb xong nc inbox nhé ;)","can_remove":false,"created_time":"2013-03-03T10:42:21+0000","like_count":0,"user_likes":false},"620251384658209":{"id":"620251384658209","from":{"id":"100001458099624","name":"Kham Pha"},"message":"Bạn muốn hỏi vấn đề gì?","can_remove":false,"created_time":"2013-03-03T10:42:30+0000","like_count":0,"user_likes":false},"620252717991409":{"id":"620252717991409","from":{"id":"100000629560377","name":"Yuki Hana"},"message":"minh inbox duoc chứ :D","can_remove":false,"created_time":"2013-03-03T10:42:58+0000","like_count":0,"user_likes":false},"620253297991351":{"id":"620253297991351","from":{"id":"100001580479641","name":"Hà Xuân Thủy"},"message":"Ok hân hạnh làm quen mình mới qua nên cũng ko biết nhiều lắm nhưng sẽ chia sẻ những gì mình biết:)","can_remove":false,"created_time":"2013-03-03T10:44:37+0000","like_count":0,"user_likes":false},"620253981324616":{"id":"620253981324616","from":{"id":"100000629560377","name":"Yuki Hana"},"message":"cảm on nhieu nhe :P co gi toi nc :P","can_remove":false,"created_time":"2013-03-03T10:46:42+0000","like_count":0,"user_likes":false},"620255341324480":{"id":"620255341324480","from":{"id":"100001580479641","name":"Hà Xuân Thủy"},"message":"Ok","can_remove":false,"created_time":"2013-03-03T10:49:49+0000","like_count":1,"user_likes":false},"620463907970290":{"id":"620463907970290","from":{"id":"881070057","name":"Pham Viet Ha"},"message":"Hehehe.. EM sang den NHAT roi ah!","can_remove":false,"created_time":"2013-03-03T19:14:51+0000","like_count":0,"user_likes":false},"620604841289530":{"id":"620604841289530","from":{"id":"100000228099663","name":"Quan Vu Ngoc"},"message":"me","can_remove":false,"created_time":"2013-03-04T01:34:22+0000","like_count":0,"user_likes":false},"620629884620359":{"id":"620629884620359","from":{"id":"100000629560377","name":"Yuki Hana"},"message":"e chua sap toai :D Pham Viet Ha","message_tags":[{"id":"881070057","name":"Pham Viet Ha","type":"user","offset":19,"length":12}],"can_remove":false,"created_time":"2013-03-04T02:54:37+0000","like_count":1,"user_likes":false},"620629981287016":{"id":"620629981287016","from":{"id":"100000629560377","name":"Yuki Hana"},"message":"ấy học trường gì ? ở đâu ^^ ad nhá Quan Vu Ngoc","message_tags":[{"id":"100000228099663","name":"Quan Vu Ngoc","type":"user","offset":35,"length":12}],"can_remove":false,"created_time":"2013-03-04T02:54:51+0000","like_count":0,"user_likes":false}},"paging":{"cursors":{"after":"NjIwMjQxNTU3OTkyNTI1","before":"NjIwMjQxNTU3OTkyNTI1"},"next":"https://graph.facebook.com/229244010425617_620174664665881/comments?limit=1&summary=1&after=NjIwMjQxNTU3OTkyNTI1"},"summary":{"order":"chronological","total_count":16}},"likes":{"data":[]}}