{"id":"229244010425617_621701574513190","type":"photo","object_id":"492800024111930","picture":"https://fbcdn-photos-f-a.akamaihd.net/hphotos-ak-frc3/t1.0-0/599163_492800024111930_1774881083_s.jpg","link":"https://www.facebook.com/photo.php?fbid=492800024111930&set=gm.621701574513190&type=1&relevant_count=1","from":{"id":"100001458099624","name":"Kham Pha"},"message":"Như đã hứa trong bài 72, đây là chức năng 引き出し trên máy ATM :)","created_time":"2013-03-05T02:53:34+0000","updated_time":"2013-03-07T10:34:26+0000","likes":{"data":{"1693102459":{"id":"1693102459","name":"Châu Hoàng"},"100001100027589":{"id":"100001100027589","name":"Tuấn Anh Lê"},"100000477123186":{"id":"100000477123186","name":"Đạt Mèo"},"100001840875327":{"id":"100001840875327","name":"Phạm Chí Long"},"100000198219367":{"id":"100000198219367","name":"Chang Jiang"},"100001905664553":{"id":"100001905664553","name":"Mẹ Ơi Con Đói"},"100001695345798":{"id":"100001695345798","name":"Tyn Aki"}},"paging":{"cursors":{"after":"MTY5MzEwMjQ1OQ==","before":"MTY5MzEwMjQ1OQ=="},"next":"https://graph.facebook.com/229244010425617_621701574513190/likes?limit=1&summary=1&after=MTY5MzEwMjQ1OQ%3D%3D"},"summary":{"total_count":7}},"comments":{"data":{"622845647732116":{"id":"622845647732116","from":{"id":"100000629560377","name":"Yuki Hana"},"message":"a oi tu bai 50 tro di la giao trinh gi a ^^ Kham Pha o viet nam co ban sach khong :( sach ten la gi a ? de e mua hoc :P","message_tags":[{"id":"100001458099624","name":"Kham Pha","type":"user","offset":44,"length":8}],"can_remove":false,"created_time":"2013-03-07T10:00:03+0000","like_count":0,"user_likes":false},"622860024397345":{"id":"622860024397345","from":{"id":"100001458099624","name":"Kham Pha"},"message":"Ý bạn là hỏi các bài trong group là giáo trình gì?","can_remove":false,"created_time":"2013-03-07T10:29:07+0000","like_count":0,"user_likes":false},"622860437730637":{"id":"622860437730637","from":{"id":"100000629560377","name":"Yuki Hana"},"message":"chuan day a , tu bai 1 den 50 la mina con 50 tro di la gi a","can_remove":false,"created_time":"2013-03-07T10:29:34+0000","like_count":0,"user_likes":false},"622866551063359":{"id":"622866551063359","from":{"id":"100001458099624","name":"Kham Pha"},"message":"Tất cả các bài trong group đều là do các admin và các bạn khác viết. Không phải giáo trình gì cả. Bạn có thể thấy dưới các note là tên của người viết bài. Vì vậy trình độ của các bài viết cũng rất lung tung. Nếu bạn thích thì cũng có thể viết bài.","can_remove":false,"created_time":"2013-03-07T10:34:26+0000","like_count":0,"user_likes":false}},"paging":{"cursors":{"after":"NjIyODQ1NjQ3NzMyMTE2","before":"NjIyODQ1NjQ3NzMyMTE2"},"next":"https://graph.facebook.com/229244010425617_621701574513190/comments?limit=1&summary=1&after=NjIyODQ1NjQ3NzMyMTE2"},"summary":{"order":"chronological","total_count":4}}}