{"id":"229244010425617_621839751166039","type":"status","from":{"id":"100001594722256","name":"Viết An Phạm"},"message":"Các anh chị ơi!\nTháng 4 này em sẽ qua học ở Tokyo, trường em là trường Meros ở khu higashi - Ikebukuro, vì trường không bắt buộc ở ký túc xá nên em tính ra ngoài thuê nhà ở cho rẻ. Vì đợt này em đi một mình nên không quen bạn nào để kiếm phòng share cả. Vì thế, không biết có anh chị nào biết ở đâu có cho ở ghép hay là có anh em, bạn bè gì đó cũng sắp sang Nhật muốn tìm người ở chung để thuê phòng thì giới thiệu cho em với ạ.\np/s: vì em chưa từng qua bên Nhật nên không biết khu đó như thế nào, anh chị nào có kinh nghiệm gì thì nhân chia sẻ cho em với ạ. Cảm ơn trước nhé!","created_time":"2013-03-05T10:34:05+0000","updated_time":"2013-03-07T10:23:47+0000","likes":{"data":{"100001609833418":{"id":"100001609833418","name":"Tsunami Hime"}},"paging":{"cursors":{"after":"MTAwMDAxNjA5ODMzNDE4","before":"MTAwMDAxNjA5ODMzNDE4"}},"summary":{"total_count":1}},"comments":{"data":{"621874391162575":{"id":"621874391162575","from":{"id":"100001458099624","name":"Kham Pha"},"message":"ký túc của bạn giá thuê bao nhiêu một tháng?","can_remove":false,"created_time":"2013-03-05T12:12:29+0000","like_count":0,"user_likes":false},"621945834488764":{"id":"621945834488764","from":{"id":"100001594722256","name":"Viết An Phạm"},"message":"da khoang 4,5 man 1 thang.","can_remove":false,"created_time":"2013-03-05T14:48:36+0000","like_count":0,"user_likes":false},"621952441154770":{"id":"621952441154770","from":{"id":"100001458099624","name":"Kham Pha"},"message":"4,5 man thì cũng đắt thật.","can_remove":false,"created_time":"2013-03-05T15:03:31+0000","like_count":0,"user_likes":false},"621953121154702":{"id":"621953121154702","from":{"id":"100001594722256","name":"Viết An Phạm"},"message":"anh dang o cho nao vay a?","can_remove":false,"created_time":"2013-03-05T15:05:52+0000","like_count":0,"user_likes":false},"621956104487737":{"id":"621956104487737","from":{"id":"100001458099624","name":"Kham Pha"},"message":"mình không ở Tokyo nhưng thường xuyên qua đấy và cũng quen một số người ở Tokyo. Có lẽ ở ghép thì sẽ giảm được tiền đấy.","can_remove":false,"created_time":"2013-03-05T15:12:23+0000","like_count":0,"user_likes":false},"621958027820878":{"id":"621958027820878","from":{"id":"100001594722256","name":"Viết An Phạm"},"message":"da. dung roi , vi the nen e cug muon o ghep day. a quen ai thi gioi thieu e voi a.","can_remove":false,"created_time":"2013-03-05T15:18:06+0000","like_count":0,"user_likes":false},"622843457732335":{"id":"622843457732335","from":{"id":"100000629560377","name":"Yuki Hana"},"message":"em oi chi cung sap sang, hay c em minh o cung nhau, ru them 3 ban nua , o cho re Viet An Pham","message_tags":[{"id":"100001594722256","name":"Viet An Pham","type":"user","offset":81,"length":12}],"can_remove":false,"created_time":"2013-03-07T09:52:19+0000","like_count":1,"user_likes":false},"622854461064568":{"id":"622854461064568","from":{"id":"100001594722256","name":"Viết An Phạm"},"message":"Em la con trai chj oj.hjx","can_remove":false,"created_time":"2013-03-07T10:22:16+0000","like_count":0,"user_likes":false},"622855397731141":{"id":"622855397731141","from":{"id":"100000629560377","name":"Yuki Hana"},"message":"sak c tuong con gai =))) neu e la con trai thi pm c inbox c gửi cho sdt anh nay , nha a ý con phong day :))","can_remove":false,"created_time":"2013-03-07T10:23:47+0000","like_count":1,"user_likes":false}},"paging":{"cursors":{"after":"NjIxODc0MzkxMTYyNTc1","before":"NjIxODc0MzkxMTYyNTc1"},"next":"https://graph.facebook.com/229244010425617_621839751166039/comments?limit=1&summary=1&after=NjIxODc0MzkxMTYyNTc1"},"summary":{"order":"chronological","total_count":9}}}