{"id":"229244010425617_621812507835430","type":"status","from":{"id":"1550521697","name":"Trình Nguyễn"},"message":"Mình đang viết app học từ vựng và kanji trên mobile. Và đang gặp khó khăn trong việc học như thế nào để người dùng có thể nhớ được tốt nhất. Xin mọi người đóng góp ý kiến. Phương pháp học từ vựng nào hay. Xin cảm ơn mọi người ạ.","created_time":"2013-03-05T08:48:31+0000","updated_time":"2013-03-07T10:43:04+0000","likes":{"data":{"100001062202744":{"id":"100001062202744","name":"Hoang Garu"},"1837866264":{"id":"1837866264","name":"QuynhDo Anh"},"100001458099624":{"id":"100001458099624","name":"Kham Pha"},"100001577287524":{"id":"100001577287524","name":"Trần Quốc Đạt"}},"paging":{"cursors":{"after":"MTAwMDAxMDYyMjAyNzQ0","before":"MTAwMDAxMDYyMjAyNzQ0"},"next":"https://graph.facebook.com/229244010425617_621812507835430/likes?limit=1&summary=1&after=MTAwMDAxMDYyMjAyNzQ0"},"summary":{"total_count":4}},"comments":{"data":{"621838287832852":{"id":"621838287832852","from":{"id":"100000381394367","name":"Thành Nguyễn"},"message":"Nên làm cái pop up mỗi ngày sổ ra 5 từ ngẫu nhiên khi người dùng mở điện thoại. Như thế sẽ nhớ lâu.","can_remove":false,"created_time":"2013-03-05T10:27:23+0000","like_count":1,"user_likes":false},"621842577832423":{"id":"621842577832423","from":{"id":"100001458099624","name":"Kham Pha"},"message":"Bạn có thể xem phần mềm sticky study treen iOS để tham khảo.","can_remove":false,"created_time":"2013-03-05T10:44:23+0000","like_count":1,"user_likes":false},"621850254498322":{"id":"621850254498322","from":{"id":"1550521697","name":"Trình Nguyễn"},"message":"Ý tưởng của mình là có tập các từ vựng từ N5->N1, cũng nghĩ rằng là sẽ cho ngẫu nhiên các từ để người dùng học, nhưng như vậy đã là tốt chưa? Đối với Kanji, người học cần nhưng thông tin gì. Mình cũng đã tham khảo một số phần mềm, nhưng muốn mọi người chia sẻ có phương pháp học hay nào không để áp dụng.","can_remove":false,"created_time":"2013-03-05T11:04:20+0000","like_count":0,"user_likes":false},"621973287819352":{"id":"621973287819352","from":{"id":"100001609833418","name":"Tsunami Hime"},"message":"bạn search cái này nhé: \"jwpce\". cái này hay nhất là có phần tìm từ do ghép các gốc lại với nhau.","can_remove":false,"created_time":"2013-03-05T15:59:13+0000","like_count":1,"user_likes":false},"621974884485859":{"id":"621974884485859","from":{"id":"1550521697","name":"Trình Nguyễn"},"message":"ý của Tsunami Hime có phải là từ vựng được phân tích thành các chữ hán riêng biệt phải không? ý tưởng này rất hay. :)","message_tags":[{"id":"100001609833418","name":"Tsunami Hime","type":"user","offset":6,"length":12}],"can_remove":false,"created_time":"2013-03-05T16:04:11+0000","like_count":0,"user_likes":false},"621975071152507":{"id":"621975071152507","from":{"id":"100001609833418","name":"Tsunami Hime"},"message":"uh. chuẩn đấy. cái này tớ nhặt bên vns. giò thỉnh thoảng vẫn dùng :)","can_remove":false,"created_time":"2013-03-05T16:04:54+0000","like_count":1,"user_likes":false},"621977494485598":{"id":"621977494485598","from":{"id":"1550521697","name":"Trình Nguyễn"},"message":"Sẽ có tính năng đó. :). tớ thấy học chữ hán nên học theo từ vựng, sau đó tách từ ra học dễ nhớ và hiểu cách dùng chữ Hán luôn.\nPS: hiện tại tớ làm phiên bản tiếng Việt trước, phục vụ nhu cầu cá nhân và mọi người dùng thử. Về tổng quan thì tớ muốn làm bao gồm cả từ vựng, hán tự, ngữ pháp, nhưng trước mắt sẽ làm phần từ vựng trước. Không biết ai đã từng làm từ điển tiếng Nhật trước đây không ạ? Mình muốn tìm hiểu nguồn dữ liệu.","can_remove":false,"created_time":"2013-03-05T16:11:02+0000","like_count":0,"user_likes":false},"621980721151942":{"id":"621980721151942","from":{"id":"1550521697","name":"Trình Nguyễn"},"message":":), thật sự nếu mà phải ngồi nhập từ điển thì chắc sang năm mới release được sản phẩm mất. Hiện nay tớ đã có trong tay từ điển Nhật Việt và Việt Nhật, bộ hán tự, ngữ pháp và từ vựng từ N1->N5 rồi (thu thập từ 1 số web tiếng nhật online). Bạn nào có dữ liệu rộng nữa thì tốt. Hiện tại từ điển Nhật việt có 75k từ, có lẽ cũng đủ để dùng. Nhưng nếu ai có từ điển khác mình rất vui. Mình sẽ biên tập lại sau.","can_remove":false,"created_time":"2013-03-05T16:18:30+0000","like_count":1,"user_likes":false},"621981354485212":{"id":"621981354485212","from":{"id":"1550521697","name":"Trình Nguyễn"},"message":"Và nếu ai có cùng yêu thích với thích, cùng làm sản phẩm với mình thì vui hơn nữa. :x","can_remove":false,"created_time":"2013-03-05T16:20:47+0000","like_count":1,"user_likes":false},"622403584442989":{"id":"622403584442989","from":{"id":"100001754136107","name":"Nguyễn Tuấn Vũ"},"message":"Bạn đoc qua quyển từ điển kanzj 1945 tư cung dcc kha nhieu nguon đấy","can_remove":false,"created_time":"2013-03-06T12:25:34+0000","like_count":0,"user_likes":false},"622477137768967":{"id":"622477137768967","from":{"id":"100001458099624","name":"Kham Pha"},"message":"Kira Chiến ND  tác giả của rapidict cho ý kiến đi.","message_tags":[{"id":"100002425288918","name":"Kira Chiến ND","type":"user","offset":0,"length":13}],"can_remove":false,"created_time":"2013-03-06T15:36:58+0000","like_count":0,"user_likes":false},"622497554433592":{"id":"622497554433592","from":{"id":"100002425288918","name":"Kira Chiến ND"},"message":"Tác giả thì hơi quá ạ. Có 1 vài suy nghĩ thế này ạ, bạn Trình Nguyễn muốn tìm hiểu về nguồn dữ liệu thì có thể tìm hiểu định dạng từ điển mở(stardict, goldendict... sử dụng), miễn phí và có tiếng Nhật vs cả hiragana lẫn kanji. Tuy nhiên,mặc dù có nhưng theo như mình hiểu về ý tưởng của bạn, thì 1 dữ liệu như 1 từ điển sẽ k giúp bạn đc nhiều vì nó chì là tập từ sắp xếp theo A-I-U-E-O. Điều quan trọng với app bạn muốn làm là phải giúp ng dùng học từ vựng.Vì thế mình có 2 ý kiến nhỏ,:1 là k nên lo cần quá nhiều từ, hãy bắt đầu với 1 phiên bản nhỏ vs lượng từ nhỏ, ng dùng cũng chỉ học đc ít dần chứ 100 từ mà tần suất mỗi từ 2 lần thì k bằng 10 từ mà tần suất là 5 lần phải ko ạ? 2 là","message_tags":[{"id":"1550521697","name":"Trình Nguyễn","type":"user","offset":56,"length":12}],"can_remove":false,"created_time":"2013-03-06T16:22:22+0000","like_count":3,"user_likes":false},"622499024433445":{"id":"622499024433445","from":{"id":"100002425288918","name":"Kira Chiến ND"},"message":"2 là từ vựng chia thành chủ đề, ng dùng là kiểu k ai có thể chiều hết tất cả, vì thế tùy nhu cầu, và giúp dễ phân loại hơn, app bạn chia từ thành chủ đề thì hay quá. Mình nghĩ là app của bạn, cần dữ liệu thật tốt, và hi vọng sẽ nhiều ng giúp đỡ bạn, chúc bạn thành công.\np/s nói thế, mình dốt tiếng nhật bỏ xừ. よろしくね！","can_remove":false,"created_time":"2013-03-06T16:24:38+0000","like_count":1,"user_likes":false},"622670821082932":{"id":"622670821082932","from":{"id":"100001458099624","name":"Kham Pha"},"message":"さすがチェンさん","can_remove":false,"created_time":"2013-03-07T00:27:39+0000","like_count":0,"user_likes":false},"622677664415581":{"id":"622677664415581","from":{"id":"1550521697","name":"Trình Nguyễn"},"message":"Cảm ơn Kira Chiến ND đã đóng góp ý kiến. Đúng là mục đích nó là để học từ vựng thôi thì phần từ điển không quá quan trọng. Mà Kira Chiến cũng ở Bắc Ninh à. :)","message_tags":[{"id":"100002425288918","name":"Kira Chiến ND","type":"user","offset":7,"length":13}],"can_remove":false,"created_time":"2013-03-07T00:48:46+0000","like_count":0,"user_likes":false},"622685307748150":{"id":"622685307748150","from":{"id":"100000381394367","name":"Thành Nguyễn"},"message":"Có mấy file dữ liệu từ điển của babylon rất đầy đủ, đuôi bgl. Có thể convert dữ liệu từ file đó sang mà dùng cũng được.","can_remove":false,"created_time":"2013-03-07T01:18:27+0000","like_count":0,"user_likes":false},"622754567741224":{"id":"622754567741224","from":{"id":"100002425288918","name":"Kira Chiến ND"},"message":"Trình Nguyễn ở BN , Yên Phong nhỉ. mà sao xem profile lại là\n\"Sex Male\nInterested In Men\"\n=.=","message_tags":[{"id":"1550521697","name":"Trình Nguyễn","type":"user","offset":0,"length":12}],"can_remove":false,"created_time":"2013-03-07T04:43:08+0000","like_count":1,"user_likes":false},"622755044407843":{"id":"622755044407843","from":{"id":"100001458099624","name":"Kham Pha"},"message":"Vãi Chiến :))","can_remove":false,"created_time":"2013-03-07T04:44:41+0000","like_count":1,"user_likes":false},"622770694406278":{"id":"622770694406278","from":{"id":"1550521697","name":"Trình Nguyễn"},"message":"Chán girl thì chuyển sang Men thôi, :))","can_remove":false,"created_time":"2013-03-07T05:35:50+0000","like_count":0,"user_likes":false},"622770731072941":{"id":"622770731072941","from":{"id":"1550521697","name":"Trình Nguyễn"},"message":"Mình ở Chờ, :x","can_remove":false,"created_time":"2013-03-07T05:36:06+0000","like_count":1,"user_likes":false},"622871794396168":{"id":"622871794396168","from":{"id":"100002425288918","name":"Kira Chiến ND"},"message":"=.= minh k biet la cho nao.","can_remove":false,"created_time":"2013-03-07T10:43:04+0000","like_count":0,"user_likes":false}},"paging":{"cursors":{"after":"NjIxODM4Mjg3ODMyODUy","before":"NjIxODM4Mjg3ODMyODUy"},"next":"https://graph.facebook.com/229244010425617_621812507835430/comments?limit=1&summary=1&after=NjIxODM4Mjg3ODMyODUy"},"summary":{"order":"chronological","total_count":21}}}