{"id":"229244010425617_622779017738779","type":"link","picture":"https://fbexternal-a.akamaihd.net/safe_image.php?d=AQC2diKL1S9rylPy&w=154&h=154&url=http%3A%2F%2Fimage.mp3.zdn.vn%2Fthumb%2F165_165%2Favatars%2F7%2F1%2F718c64db364a36b690a522b5076ec9d9_1287756072.jpg","link":"http://mp3.zing.vn/bai-hat/Lullaby-Bond/ZWZ9ACDB.html","from":{"id":"100001458099624","name":"Kham Pha"},"message":"Bài 76: Liên từ (phần 3):とにかく～ và とりあえず～\n\nĐây là hai liên từ thuộc loại “đến Nhật thì không thể không biết”. Các giáo trình không lột tả hết được tầm quan trọng của chúng mà muốn biết thì phải giao tiếp nhiều với người Nhật . Mặt khác liên từ là thứ mà nhiều khi chỉ cần nghe tới nó thôi đã có thể đoán được ý nghĩa cả câu sau. Vậy nên học tốt liên từ cực kì quan trọng. Nó có thể giúp bạn tư duy hiểu vấn đề nhanh hơn, dù không cần nghe hết cả câu vẫn hiểu được ý đối phương.\n\n*Từ đầu tiên là とにかく. Nó có nghĩa là “bất chấp” dù có việc gì xảy ra chăng nữa thì cái việc đằng sau とにかく cũng sẽ được thực hiện. Ví dụ:\n\n一日中よく働いて、もう疲れた。とにかく、うちに帰ると寝よう。\nLàm việc suốt cả ngày nên giờ thấy mệt. Dù trời đất có sập, về đến nhà tôi sẽ ngủ.\n\nもう30歳だって、とにかく結婚しよう。\nĐã 30 tuổi rồi, kiểu gì thì kiểu cũng phải kết hôn đã.\n\n*とりあえず: Từ này có nghĩa là trước mắt hãy làm việc việc gì đó đã. Ví dụ:\n\n今日はレポートを出さなくてもいいです。とりあえず、発表してください。\nBáo cáo thì ngày hôm nay chưa nộp cũng được. Nhưng trước tiên cứ phát biểu đi đã.\n\n今すぐ全（すべ）ての計画が出られないですから、とりあえず今日の仕事をやってください。\nBây giờ thì không thể đưa ra toàn bộ kế hoạch được nhưng tóm lại là cứ làm công việc ngày hôm nay đi đã.\n\nXin nhắc lại, đây là hai liên từ rất quan trọng, có thể coi là từ cửa miệng của người Nhật nên các bạn cần nhớ kĩ.\n\nMời các bạn nghe một ca khúc biến thể từ bản nhạc nổi tiếng Canon in D do ban nhạc Bond trình bày.\nhttp://mp3.zing.vn/bai-hat/Lullaby-Bond/ZWZ9ACDB.html","created_time":"2013-03-07T06:06:09+0000","updated_time":"2013-03-07T12:14:03+0000","likes":{"data":{"100000180985064":{"id":"100000180985064","name":"Trung Đồng"},"100002265193557":{"id":"100002265193557","name":"Gấu Mó"},"100001695345798":{"id":"100001695345798","name":"Tyn Aki"},"100000096928751":{"id":"100000096928751","name":"Lê Linh"},"100000073848158":{"id":"100000073848158","name":"Hoàng Đắc"},"100000088874261":{"id":"100000088874261","name":"Trần Đức Quang"},"100001754136107":{"id":"100001754136107","name":"Nguyễn Tuấn Vũ"},"1570934720":{"id":"1570934720","name":"Đặng Thanh Tú"}},"paging":{"cursors":{"after":"MTAwMDAwMTgwOTg1MDY0","before":"MTAwMDAwMTgwOTg1MDY0"},"next":"https://graph.facebook.com/229244010425617_622779017738779/likes?limit=1&summary=1&after=MTAwMDAwMTgwOTg1MDY0"},"summary":{"total_count":8}},"comments":{"data":{"622784714404876":{"id":"622784714404876","from":{"id":"1570934720","name":"Đặng Thanh Tú"},"message":"Bai nay ko doc hoi phi","can_remove":false,"created_time":"2013-03-07T06:26:13+0000","like_count":1,"user_likes":false},"622797121070302":{"id":"622797121070302","from":{"id":"100004965272241","name":"Cỏ Nhỏ"},"message":"bạn có thể cho mấy bài như thế này vào note đc ko? vì lâu lâu tìm lại sẽ rất khó. :(","can_remove":false,"created_time":"2013-03-07T07:11:36+0000","like_count":0,"user_likes":false},"622887747727906":{"id":"622887747727906","from":{"id":"100000073848158","name":"Hoàng Đắc"},"message":"日本の映画にはその言葉をよく言われる。意味がだいたい分かったが、使い方を理解できないときがあるでしょう。","can_remove":false,"created_time":"2013-03-07T11:15:10+0000","like_count":0,"user_likes":false},"622891001060914":{"id":"622891001060914","from":{"id":"100001458099624","name":"Kham Pha"},"message":"どんな時ですか？例を出してください","can_remove":false,"created_time":"2013-03-07T11:21:23+0000","like_count":0,"user_likes":false},"622891817727499":{"id":"622891817727499","from":{"id":"100001458099624","name":"Kham Pha"},"message":"Yuki Hana đây là một ví dụ của việc kinh nghiệm tốt hơn giáo trình.","message_tags":[{"id":"100000629560377","name":"Yuki Hana","type":"user","offset":0,"length":9}],"can_remove":false,"created_time":"2013-03-07T11:23:09+0000","like_count":1,"user_likes":false},"622893451060669":{"id":"622893451060669","from":{"id":"100000073848158","name":"Hoàng Đắc"},"message":"たくさんのフィルムを見たので、忘れちゃった。","can_remove":false,"created_time":"2013-03-07T11:26:33+0000","like_count":0,"user_likes":false},"622895791060435":{"id":"622895791060435","from":{"id":"100001458099624","name":"Kham Pha"},"message":"他の意味があるかもしれない。僕は全て知っていないだろう。","can_remove":false,"created_time":"2013-03-07T11:33:51+0000","like_count":0,"user_likes":false},"622906724392675":{"id":"622906724392675","from":{"id":"100001580479641","name":"Hà Xuân Thủy"},"message":"とにかくMình hay dịch là \"dù sao thì, dù sao chăng nữa\" とりあえず \"tạm thời\"\nCó vài từ mình ko hiểu rõ lắm mong các bạn chỉ giáo thêm何とか、めんどくさい、なんか、。。。","can_remove":false,"created_time":"2013-03-07T12:07:52+0000","like_count":1,"user_likes":false},"622909334392414":{"id":"622909334392414","from":{"id":"100000073848158","name":"Hoàng Đắc"},"message":"có 1 từ hay dùng, hình như có nghĩa là unblievable  ありえないつ。。。","can_remove":false,"created_time":"2013-03-07T12:14:03+0000","like_count":2,"user_likes":false}},"paging":{"cursors":{"after":"NjIyNzg0NzE0NDA0ODc2","before":"NjIyNzg0NzE0NDA0ODc2"},"next":"https://graph.facebook.com/229244010425617_622779017738779/comments?limit=1&summary=1&after=NjIyNzg0NzE0NDA0ODc2"},"summary":{"order":"chronological","total_count":9}}}