{"id":"229244010425617_623441097672571","type":"status","from":{"id":"100001864793577","name":"Sakura Đhbkhn"},"message":"Mọi người ơi ,cho mềnh hỏi cái tiện ích trên chrome mà khi đọc báo tiếng Nhật,chỉ cần kích vào chữ Kanji thì nó giải nghĩa là tiện ích gì ý nhỉ? Mọi người giúp mình với!","created_time":"2013-03-08T11:58:28+0000","updated_time":"2013-03-08T17:00:37+0000","comments":{"data":{"623453021004712":{"id":"623453021004712","from":{"id":"100001754136107","name":"Nguyễn Tuấn Vũ"},"message":"Cái này thi dùng trong đâu cũng có bạn ak,bạn để tiếng nhật thi nó giai thich  cho","can_remove":false,"created_time":"2013-03-08T12:18:14+0000","like_count":0,"user_likes":false},"623458987670782":{"id":"623458987670782","from":{"id":"100001458099624","name":"Kham Pha"},"message":"bạn cài từ điển lingoes vào rồi cài tính năng text capture trên trình duyệt bạn đang dùng, hỗ trợ hầu hết trình duyệt. Khởi động lại trình duyệt là xong.","can_remove":false,"created_time":"2013-03-08T12:32:52+0000","like_count":2,"user_likes":false},"623512047665476":{"id":"623512047665476","from":{"id":"100000198219367","name":"Chang Jiang"},"message":"addon Rikai chan nhé :D","can_remove":false,"created_time":"2013-03-08T14:55:38+0000","like_count":2,"user_likes":false},"623568230993191":{"id":"623568230993191","from":{"id":"100001864793577","name":"Sakura Đhbkhn"},"message":"Mình cảm ơn Kham Pha và Chang Jiang nhiều nhé!","message_tags":[{"id":"100001458099624","name":"Kham Pha","type":"user","offset":12,"length":8},{"id":"100000198219367","name":"Chang Jiang","type":"user","offset":24,"length":11}],"can_remove":false,"created_time":"2013-03-08T17:00:01+0000","like_count":0,"user_likes":false},"623568357659845":{"id":"623568357659845","from":{"id":"100000198219367","name":"Chang Jiang"},"message":"ko  có j anh ạ :D","can_remove":false,"created_time":"2013-03-08T17:00:37+0000","like_count":1,"user_likes":false}},"paging":{"cursors":{"after":"NjIzNDUzMDIxMDA0NzEy","before":"NjIzNDUzMDIxMDA0NzEy"},"next":"https://graph.facebook.com/229244010425617_623441097672571/comments?limit=1&summary=1&after=NjIzNDUzMDIxMDA0NzEy"},"summary":{"order":"chronological","total_count":5}},"likes":{"data":[]}}