{"id":"229244010425617_624911997525481","type":"status","from":{"id":"100001695345798","name":"Tyn Aki"},"message":"BÀI 78: A からすると, B.\n\n皆さん、お早うございます。\n\nHôm nay mình xin giới thiệu mọi người cấu trúc: からすると.\n\nから trong mẫu câu này ta hiểu là cái từ cái này cái nọ, する, làm cái này. Hiểu cả mẫu câu là dựa theo dấu hiệu, hành động A từ đó suy ra B.\n\n1. 天気予報（てんきよほう）からすると,あした雨（あめ）が降り（ふり）そうです。\nDựa và chương trình dự báo thời tiết, ngày mai khả năng có mưa. \n\n2. 行動(こうどう）からすると、彼（かれ）は研修者（けんきゅう者）です。\nNhìn hành động của anh ấy, chắc anh ta là nhà nghiên cứu khoa học. \n\n3. 話し方（はなしかた）からすると、二人は外国人（がいこくじん）らしい。\nNhìn vào các nói chuyện của hai người, chắc là người ngoại quốc. \n\nCấu trúc này chỉ sử dụng với danh từ. N ＋からすると。\nPhía cuối ta hay sử dụng các cụm từ sau để biểu thị sự phỏng đoán. ...そうです、...はず、よう、みたい。\n\nNguyễn Tuấn Vũ\nHẹn gặp lại các bạn lần sau ^^","created_time":"2013-03-11T01:52:59+0000","updated_time":"2013-03-11T12:31:26+0000","likes":{"data":{"100004205437257":{"id":"100004205437257","name":"Nỗi Đau Xót Xa"},"100001754136107":{"id":"100001754136107","name":"Nguyễn Tuấn Vũ"},"1577051131":{"id":"1577051131","name":"Aoi Usagi"},"100004145293805":{"id":"100004145293805","name":"Trần Đại Dương"}},"paging":{"cursors":{"after":"MTAwMDA0MjA1NDM3MjU3","before":"MTAwMDA0MjA1NDM3MjU3"},"next":"https://graph.facebook.com/229244010425617_624911997525481/likes?limit=1&summary=1&after=MTAwMDA0MjA1NDM3MjU3"},"summary":{"total_count":4}},"comments":{"data":{"624916347525046":{"id":"624916347525046","from":{"id":"100004145293805","name":"Trần Đại Dương"},"message":"cấu trúc này của n3 hả Tyn Aki?","message_tags":[{"id":"100001695345798","name":"Tyn Aki","type":"user","offset":23,"length":7}],"can_remove":false,"created_time":"2013-03-11T02:09:29+0000","like_count":0,"user_likes":false},"624916850858329":{"id":"624916850858329","from":{"id":"100001695345798","name":"Tyn Aki"},"message":"đây là bài của bạn Nguyễn Tuấn Vũ bạn ạ, mình có học qua nhưng không để ý N mấy :D","message_tags":[{"id":"100001754136107","name":"Nguyễn Tuấn Vũ","type":"user","offset":19,"length":14}],"can_remove":false,"created_time":"2013-03-11T02:11:21+0000","like_count":1,"user_likes":false},"624917197524961":{"id":"624917197524961","from":{"id":"100004145293805","name":"Trần Đại Dương"},"message":"arigatou Tyn Aki","message_tags":[{"id":"100001695345798","name":"Tyn Aki","type":"user","offset":9,"length":7}],"can_remove":false,"created_time":"2013-03-11T02:12:27+0000","like_count":0,"user_likes":false},"624917294191618":{"id":"624917294191618","from":{"id":"100001695345798","name":"Tyn Aki"},"message":"iie ^^ thế nó là N3 hả bạn?? ^^","can_remove":false,"created_time":"2013-03-11T02:12:51+0000","like_count":0,"user_likes":false},"624917887524892":{"id":"624917887524892","from":{"id":"100004145293805","name":"Trần Đại Dương"},"message":"tyn AKI Làm ad của trang này hả ? cái này có giống một cấu trúc trong n3 nên mình hỏi vậy thôi chứ mình cũng chưa học qua hjhj","can_remove":false,"created_time":"2013-03-11T02:14:38+0000","like_count":1,"user_likes":false},"624986360851378":{"id":"624986360851378","from":{"id":"100000198219367","name":"Chang Jiang"},"message":"viết luôn vào note nha em ei :v","can_remove":false,"created_time":"2013-03-11T05:55:58+0000","like_count":1,"user_likes":false},"624986714184676":{"id":"624986714184676","from":{"id":"100001695345798","name":"Tyn Aki"},"message":"dạ","can_remove":false,"created_time":"2013-03-11T05:58:23+0000","like_count":0,"user_likes":false},"624986977517983":{"id":"624986977517983","from":{"id":"100000198219367","name":"Chang Jiang"},"message":"lần sau khỏi mất công viết vào stt nữa, cứ viết luôn vào note ấy :P","can_remove":false,"created_time":"2013-03-11T05:59:35+0000","like_count":1,"user_likes":false},"625005967516084":{"id":"625005967516084","from":{"id":"100000073848158","name":"Hoàng Đắc"},"message":"｢like｣バータンをクリックするの数からすると、彼は「crazy like」の人らしい。","can_remove":false,"created_time":"2013-03-11T07:43:16+0000","like_count":0,"user_likes":false},"625071107509570":{"id":"625071107509570","from":{"id":"100001754136107","name":"Nguyễn Tuấn Vũ"},"message":"Uhm,cấu truc 中級 ban ak","can_remove":false,"created_time":"2013-03-11T11:48:35+0000","like_count":2,"user_likes":false},"625071324176215":{"id":"625071324176215","from":{"id":"100001695345798","name":"Tyn Aki"},"message":"Nguyễn Tuấn Vũ: nộp bài nhanh lên bé ;))","message_tags":[{"id":"100001754136107","name":"Nguyễn Tuấn Vũ","type":"user","offset":0,"length":14}],"can_remove":false,"created_time":"2013-03-11T11:49:36+0000","like_count":1,"user_likes":false},"625082667508414":{"id":"625082667508414","from":{"id":"100001754136107","name":"Nguyễn Tuấn Vũ"},"message":"ごめんなさい．リンちゃん","can_remove":false,"created_time":"2013-03-11T12:31:26+0000","like_count":0,"user_likes":false}},"paging":{"cursors":{"after":"NjI0OTE2MzQ3NTI1MDQ2","before":"NjI0OTE2MzQ3NTI1MDQ2"},"next":"https://graph.facebook.com/229244010425617_624911997525481/comments?limit=1&summary=1&after=NjI0OTE2MzQ3NTI1MDQ2"},"summary":{"order":"chronological","total_count":12}}}