{"id":"229244010425617_625458867470794","type":"status","from":{"id":"100002808262328","name":"Thành Hasamu Hasamu"},"message":"học tiếng nhat sao cho dễ nhớ các bạn nhỉ","created_time":"2013-03-12T05:44:31+0000","updated_time":"2013-03-12T15:08:16+0000","likes":{"data":{"100005179058243":{"id":"100005179058243","name":"Tú Xù"},"100000021018532":{"id":"100000021018532","name":"Hương Nguyễn"},"100004598884829":{"id":"100004598884829","name":"Ro Bin Son"}},"paging":{"cursors":{"after":"MTAwMDA1MTc5MDU4MjQz","before":"MTAwMDA1MTc5MDU4MjQz"},"next":"https://graph.facebook.com/229244010425617_625458867470794/likes?limit=1&summary=1&after=MTAwMDA1MTc5MDU4MjQz"},"summary":{"total_count":3}},"comments":{"data":{"625486110801403":{"id":"625486110801403","from":{"id":"100000021018532","name":"Hương Nguyễn"},"message":"Một câu hỏi khó trả lời ^^","can_remove":false,"created_time":"2013-03-12T08:02:12+0000","like_count":4,"user_likes":false},"625511214132226":{"id":"625511214132226","from":{"id":"100004145293805","name":"Trần Đại Dương"},"message":"minh ghi nen chuyen can cham chi va phai kien nhan ko bao gio bo cuoc va phai tu tin minh se lm duoc","can_remove":false,"created_time":"2013-03-12T10:02:58+0000","like_count":3,"user_likes":false},"625603970789617":{"id":"625603970789617","from":{"id":"100002808262328","name":"Thành Hasamu Hasamu"},"message":"Trái tim băng giá cũng chỉ vì em","message_tags":[{"id":"496988206991871","name":"Trái tim băng giá cũng chỉ vì em","type":"page","offset":0,"length":32}],"can_remove":false,"created_time":"2013-03-12T15:08:16+0000","like_count":0,"user_likes":false}},"paging":{"cursors":{"after":"NjI1NDg2MTEwODAxNDAz","before":"NjI1NDg2MTEwODAxNDAz"},"next":"https://graph.facebook.com/229244010425617_625458867470794/comments?limit=1&summary=1&after=NjI1NDg2MTEwODAxNDAz"},"summary":{"order":"chronological","total_count":3}}}