{"id":"229244010425617_626464610703553","type":"status","from":{"id":"100001695345798","name":"Tyn Aki"},"message":"Bài 79: Các trợ phó từ (phần 2)\n\n皆さん、今晩わ！！！\n\nHôm nay mình xin tiếp tục chia sẻ về một vài các phó từ - trợ từ thường dùng.\n\n　　　1. 漸く(ようやく)\nPhó từ này rất đặc biệt vì nó có ba cách dùng tuỳ thuộc vào văn cảnh\n= やっと cuối cùng thì\nようやく試験が終わった。\nCuối cùng thì đã hết các bài kiểm tra.\nようやく結婚した。\nCuối cùng thì đã kết hôn.\nLưu ý ở phó từ này là có một danh - động từ đồng âm nhưng khác nghĩa. chữ Hán là 要約: tóm lại, khái quát lại\n\n　　　　2. ちっとも: + động từ phủ định: Không.... một chút nào cả\nちっとも分からない。\nKhông hiểu một chút nào cả.\n\n　　　　3. するすら.\nNếu mình có phó từ ぺらぺら chỉ ai đó nói tiếng một cách thành nạo, thì すらすらlà phó từ chỉ nói hay trả lời một cách trơn tru, trôi chảy\n暗記(あんき)しなかったけど、スラスラ答えできた。\nDù không học thuộc bài nhưng vẫn trả lời một cách trôi chảy.\n\n　　　　4. きっぱり（と): thẳng thửng, dứt khoát.\nきっぱり(と)断ったのに、毎日電話してる。うるさいわ。\nDù tớ đã từ chối thẳng thừng mà ngày nào cũng cứ gọi điện. Phiền phức quá!\n\np/s: với các phó từ, bạn sẽ thường gặp viết dưới dạng hira hay kata, mình viết cả chữ Hán để giới thiệu thôi.\nChúc mọi người ngủ ngon ^^","created_time":"2013-03-14T14:54:16+0000","updated_time":"2013-03-14T15:58:24+0000","likes":{"data":{"100002265193557":{"id":"100002265193557","name":"Gấu Mó"},"100004996359569":{"id":"100004996359569","name":"Trần Tú Linh"},"100000096928751":{"id":"100000096928751","name":"Lê Linh"},"100001458099624":{"id":"100001458099624","name":"Kham Pha"},"1146680551":{"id":"1146680551","name":"優しい なぁ"},"100004145293805":{"id":"100004145293805","name":"Trần Đại Dương"},"100003950139327":{"id":"100003950139327","name":"Kathy Banh"},"100003312527085":{"id":"100003312527085","name":"Ngat Pro"},"100004458131717":{"id":"100004458131717","name":"Minh Huệ"}},"paging":{"cursors":{"after":"MTAwMDAyMjY1MTkzNTU3","before":"MTAwMDAyMjY1MTkzNTU3"},"next":"https://graph.facebook.com/229244010425617_626464610703553/likes?limit=1&summary=1&after=MTAwMDAyMjY1MTkzNTU3"},"summary":{"total_count":9}},"comments":{"data":{"626466267370054":{"id":"626466267370054","from":{"id":"100003312527085","name":"Ngat Pro"},"message":"cai nay lay o dau ra day m,ko chac t phai cop het tu dau toi h mat","can_remove":false,"created_time":"2013-03-14T14:59:17+0000","like_count":0,"user_likes":false},"626466517370029":{"id":"626466517370029","from":{"id":"100001695345798","name":"Tyn Aki"},"message":"mình tự viết @@, các bài trong group này là hoàn toàn tự viết như hết mày ạ","can_remove":false,"created_time":"2013-03-14T15:00:06+0000","like_count":0,"user_likes":false},"626473610702653":{"id":"626473610702653","from":{"id":"100000198219367","name":"Chang Jiang"},"message":"sao em ko viết thành note >\"<","can_remove":false,"created_time":"2013-03-14T15:19:37+0000","like_count":0,"user_likes":false},"626473987369282":{"id":"626473987369282","from":{"id":"100001695345798","name":"Tyn Aki"},"message":"anh Chang Jiang ơi, anh rảnh không ạ? làm hộ em note nhá, onegai!! ^^","message_tags":[{"id":"100000198219367","name":"Chang Jiang","type":"user","offset":4,"length":11}],"can_remove":false,"created_time":"2013-03-14T15:20:51+0000","like_count":0,"user_likes":false},"626474507369230":{"id":"626474507369230","from":{"id":"100000198219367","name":"Chang Jiang"},"message":"ủa, mọi người đều viết đc mà :-?\n\ncó khác j status đâu nhỉ :-?","can_remove":false,"created_time":"2013-03-14T15:22:50+0000","like_count":1,"user_likes":false},"626485487368132":{"id":"626485487368132","from":{"id":"100001695345798","name":"Tyn Aki"},"message":"vì lúc đầu mình viết bài rồi chuyển sang tạo note đúng không ạ? hay em chưa update ạ? tạo note luôn ạ?? em cảm ơn anh ạ ^^","can_remove":false,"created_time":"2013-03-14T15:55:18+0000","like_count":0,"user_likes":false},"626486434034704":{"id":"626486434034704","from":{"id":"100000198219367","name":"Chang Jiang"},"message":"tạo note luôn cho tiện em à :P","can_remove":false,"created_time":"2013-03-14T15:58:24+0000","like_count":1,"user_likes":false}},"paging":{"cursors":{"after":"NjI2NDY2MjY3MzcwMDU0","before":"NjI2NDY2MjY3MzcwMDU0"},"next":"https://graph.facebook.com/229244010425617_626464610703553/comments?limit=1&summary=1&after=NjI2NDY2MjY3MzcwMDU0"},"summary":{"order":"chronological","total_count":7}}}