{"id":"229244010425617_627465463936801","type":"status","from":{"id":"100001754136107","name":"Nguyễn Tuấn Vũ"},"message":"E đang cần tìm phần mềm từ đien Nhat viet trên iphone,ai co phan mem nao hay gioi thieu với.ありがとう","created_time":"2013-03-16T14:57:48+0000","updated_time":"2013-03-16T21:35:10+0000","likes":{"data":{"100001695345798":{"id":"100001695345798","name":"Tyn Aki"},"1659470191":{"id":"1659470191","name":"Hằng Thu Trần"},"100003877275415":{"id":"100003877275415","name":"Yuki"}},"paging":{"cursors":{"after":"MTAwMDAxNjk1MzQ1Nzk4","before":"MTAwMDAxNjk1MzQ1Nzk4"},"next":"https://graph.facebook.com/229244010425617_627465463936801/likes?limit=1&summary=1&after=MTAwMDAxNjk1MzQ1Nzk4"},"summary":{"total_count":3}},"comments":{"data":{"627467293936618":{"id":"627467293936618","from":{"id":"100001580479641","name":"Hà Xuân Thủy"},"message":"JV Dictionary, miễn phí nhưng lượng từ vựng khá nhiều.","can_remove":false,"created_time":"2013-03-16T15:01:46+0000","like_count":1,"user_likes":false},"627469520603062":{"id":"627469520603062","from":{"id":"100001695345798","name":"Tyn Aki"},"message":"chuẩn đấy","can_remove":false,"created_time":"2013-03-16T15:08:47+0000","like_count":0,"user_likes":false},"627469657269715":{"id":"627469657269715","from":{"id":"100001754136107","name":"Nguyễn Tuấn Vũ"},"message":"Giới thiệu phần mềm luyện nghe tiếng nhật nhé","can_remove":false,"created_time":"2013-03-16T15:09:06+0000","like_count":1,"user_likes":false},"627470420602972":{"id":"627470420602972","from":{"id":"100001754136107","name":"Nguyễn Tuấn Vũ"},"message":"Tyn Aki: お勧め紹介くれる？","message_tags":[{"id":"100001695345798","name":"Tyn Aki","type":"user","offset":0,"length":7}],"can_remove":false,"created_time":"2013-03-16T15:11:26+0000","like_count":0,"user_likes":false},"627476823935665":{"id":"627476823935665","from":{"id":"100001695345798","name":"Tyn Aki"},"message":"iie!! :)))","can_remove":false,"created_time":"2013-03-16T15:22:25+0000","like_count":0,"user_likes":false},"627480817268599":{"id":"627480817268599","from":{"id":"100003008178463","name":"Thương Còi"},"message":"E cũng dùng jv dictionary","can_remove":false,"created_time":"2013-03-16T15:27:40+0000","like_count":0,"user_likes":false},"627605007256180":{"id":"627605007256180","from":{"id":"100001580479641","name":"Hà Xuân Thủy"},"message":"Luyện nghe thì mình nghĩ bạn có thể  nghe theo các giáo trình   học tiếng nhật, phần mềm luyện nghe thì chắc là hiếm đấy.","can_remove":false,"created_time":"2013-03-16T21:35:10+0000","like_count":0,"user_likes":false}},"paging":{"cursors":{"after":"NjI3NDY3MjkzOTM2NjE4","before":"NjI3NDY3MjkzOTM2NjE4"},"next":"https://graph.facebook.com/229244010425617_627465463936801/comments?limit=1&summary=1&after=NjI3NDY3MjkzOTM2NjE4"},"summary":{"order":"chronological","total_count":7}}}