{"id":"229244010425617_628410397175641","type":"status","from":{"id":"100003041594915","name":"Hoa Cỏ May"},"message":"xin chào moi người.mình là mem mới.xin được làm quen cùng học hỏi đươc chứ?yoroshiku onegaishimasu.","created_time":"2013-03-18T16:51:38+0000","updated_time":"2013-03-18T17:11:25+0000","likes":{"data":{"100000021018532":{"id":"100000021018532","name":"Hương Nguyễn"},"100001860545626":{"id":"100001860545626","name":"Phạm Anh Tú"},"100000096928751":{"id":"100000096928751","name":"Lê Linh"},"100001458099624":{"id":"100001458099624","name":"Kham Pha"},"100000198219367":{"id":"100000198219367","name":"Chang Jiang"}},"paging":{"cursors":{"after":"MTAwMDAwMDIxMDE4NTMy","before":"MTAwMDAwMDIxMDE4NTMy"},"next":"https://graph.facebook.com/229244010425617_628410397175641/likes?limit=1&summary=1&after=MTAwMDAwMDIxMDE4NTMy"},"summary":{"total_count":5}},"comments":{"data":{"628411333842214":{"id":"628411333842214","from":{"id":"100000198219367","name":"Chang Jiang"},"message":"yoroshiku onegai itashimasu :P","can_remove":false,"created_time":"2013-03-18T16:54:37+0000","like_count":0,"user_likes":false},"628412900508724":{"id":"628412900508724","from":{"id":"100003041594915","name":"Hoa Cỏ May"},"message":"có j xin a chỉ giáo vs Chang Jiang.:)","message_tags":[{"id":"100000198219367","name":"Chang Jiang","type":"user","offset":23,"length":11}],"can_remove":false,"created_time":"2013-03-18T16:59:25+0000","like_count":0,"user_likes":false},"628413597175321":{"id":"628413597175321","from":{"id":"100000198219367","name":"Chang Jiang"},"message":"ko dám đâu, mình vẫn dốt lắm :))","can_remove":false,"created_time":"2013-03-18T17:01:38+0000","like_count":0,"user_likes":false},"628414657175215":{"id":"628414657175215","from":{"id":"100003041594915","name":"Hoa Cỏ May"},"message":"làm trong ban quản trị mà dốt.hj.lừa người ak.:)","can_remove":false,"created_time":"2013-03-18T17:05:23+0000","like_count":0,"user_likes":false},"628414873841860":{"id":"628414873841860","from":{"id":"100003041594915","name":"Hoa Cỏ May"},"message":"có j chỉ giáo cho e út tí mừ.hj","can_remove":false,"created_time":"2013-03-18T17:05:46+0000","like_count":0,"user_likes":false},"628416740508340":{"id":"628416740508340","from":{"id":"100000198219367","name":"Chang Jiang"},"message":"admin đâu nhất thiết ko đc dốt đâu :3\n\ncơ mà mọi người đều sẵn sàng giúp nhau mà :3","can_remove":false,"created_time":"2013-03-18T17:11:25+0000","like_count":1,"user_likes":false}},"paging":{"cursors":{"after":"NjI4NDExMzMzODQyMjE0","before":"NjI4NDExMzMzODQyMjE0"},"next":"https://graph.facebook.com/229244010425617_628410397175641/comments?limit=1&summary=1&after=NjI4NDExMzMzODQyMjE0"},"summary":{"order":"chronological","total_count":6}}}