{"id":"229244010425617_628791987137482","type":"status","from":{"id":"100002246274598","name":"Tran Quang Anh"},"message":"Xin phép Ad ^^!\n皆さん、こんにちは。私はAnh と申します。今、日本語を自分で勉強しています。\n宜しくお願いします。\nP/s: このページは私が作ったところです。このページの内容は主に漢字の例を列記します。漢字を習っている人に役に立つと思います。宜しくお願いします....","created_time":"2013-03-19T13:44:32+0000","updated_time":"2013-03-20T10:57:16+0000","likes":{"data":{"100001754136107":{"id":"100001754136107","name":"Nguyễn Tuấn Vũ"},"100001695345798":{"id":"100001695345798","name":"Tyn Aki"},"100001458099624":{"id":"100001458099624","name":"Kham Pha"}},"paging":{"cursors":{"after":"MTAwMDAxNzU0MTM2MTA3","before":"MTAwMDAxNzU0MTM2MTA3"},"next":"https://graph.facebook.com/229244010425617_628791987137482/likes?limit=1&summary=1&after=MTAwMDAxNzU0MTM2MTA3"},"summary":{"total_count":3}},"comments":{"data":{"628844427132238":{"id":"628844427132238","from":{"id":"100001458099624","name":"Kham Pha"},"message":"すごい。自分で日本語を勉強するの？","can_remove":false,"created_time":"2013-03-19T15:32:35+0000","like_count":1,"user_likes":false},"629019593781388":{"id":"629019593781388","from":{"id":"100001609833418","name":"Tsunami Hime"},"message":"anta mo nihongo wo jibun de benkyoushimasu? ore to onaji da!","can_remove":false,"created_time":"2013-03-20T00:19:16+0000","like_count":2,"user_likes":false},"629159217100759":{"id":"629159217100759","from":{"id":"100002246274598","name":"Tran Quang Anh"},"message":"Kham Pha'  Tsunami Hime  僕は8か月ぐらい日本語センータで勉強したが、あとで、自分で勉強した。僕の日本語はまだうまくないよ。まあまあだ。^^","message_tags":[{"id":"100001458099624","name":"Kham Pha","type":"user","offset":0,"length":8},{"id":"100001609833418","name":"Tsunami Hime","type":"user","offset":11,"length":12}],"can_remove":false,"created_time":"2013-03-20T09:35:48+0000","like_count":1,"user_likes":false},"629177253765622":{"id":"629177253765622","from":{"id":"100001609833418","name":"Tsunami Hime"},"message":"sou da na... ore wa saisho kara jibun de manande shimaishita","can_remove":false,"created_time":"2013-03-20T10:46:24+0000","like_count":1,"user_likes":false},"629180697098611":{"id":"629180697098611","from":{"id":"100002246274598","name":"Tran Quang Anh"},"message":"そうなんだ。あなたの日本語もすごいね。","can_remove":false,"created_time":"2013-03-20T10:57:16+0000","like_count":1,"user_likes":false}},"paging":{"cursors":{"after":"NjI4ODQ0NDI3MTMyMjM4","before":"NjI4ODQ0NDI3MTMyMjM4"},"next":"https://graph.facebook.com/229244010425617_628791987137482/comments?limit=1&summary=1&after=NjI4ODQ0NDI3MTMyMjM4"},"summary":{"order":"chronological","total_count":5}}}