{"id":"229244010425617_629089513774396","type":"status","from":{"id":"100000061939941","name":"Hoàng Đức Trung"},"message":"Cho mình hỏi cách sử dung watashi va ore khac chỗ nào? Ai biết chỉ mình với. よろしくお願いします。","created_time":"2013-03-20T04:22:18+0000","updated_time":"2013-03-23T06:53:41+0000","comments":{"data":{"629156010434413":{"id":"629156010434413","from":{"id":"100000198219367","name":"Chang Jiang"},"message":"theo như mình nghĩ thì Watashi hoặc boku là tôi, mình, v.v... khá lịch sự\n\ncòn Ore = tao, dùng để nói với bạn thân, người quan hệ rất thân với mình (nhưng ko phải người trên) hoặc dùng với ý nghĩa \"hổ báo\" như ở tiếng Việt ấy :))\n\ntương tự với anata, kimi = bạn, cô, chú, v.v... (lịch sự)\n\nvà omae = mày :))","can_remove":false,"created_time":"2013-03-20T09:23:00+0000","like_count":0,"user_likes":false},"629166237100057":{"id":"629166237100057","from":{"id":"100000061939941","name":"Hoàng Đức Trung"},"message":"Uh! mình cũng nghĩ vậy, cảm ơn Chang Jiang đa chỉ bảo.よろしくお願いします。","message_tags":[{"id":"100000198219367","name":"Chang Jiang","type":"user","offset":31,"length":11}],"can_remove":false,"created_time":"2013-03-20T10:04:17+0000","like_count":2,"user_likes":false},"630520293631318":{"id":"630520293631318","from":{"id":"100002290906582","name":"Kanashimi No Yukue"},"message":"cả 2 đều là đại từ nhân xưng ngôi thứ nhất\nwatashi thì cả nam lẫn nữ đều dùng được, thường thì là nữ dùng nhiều\ncòn ore là chỉ có nam dùng, cách nói bỗ bã, còn lịch sự hơn sẽ là boku, cũng là nam dùng","can_remove":false,"created_time":"2013-03-23T06:53:41+0000","like_count":0,"user_likes":false}},"paging":{"cursors":{"after":"NjI5MTU2MDEwNDM0NDEz","before":"NjI5MTU2MDEwNDM0NDEz"},"next":"https://graph.facebook.com/229244010425617_629089513774396/comments?limit=1&summary=1&after=NjI5MTU2MDEwNDM0NDEz"},"summary":{"order":"chronological","total_count":3}},"likes":{"data":[]}}