{"id":"229244010425617_629959603687387","type":"status","from":{"id":"100000073848158","name":"Hoàng Đắc"},"message":"trong hội thảo hoặc giao tiếp hàng ngày( xem trên phim ) người ta hay có cụm từ かんがえます、かんがえています ở cuối câu mà luận ra thì chẳng hiểu nó nghĩa là gì. Ngoài cái nghĩa suy nghĩ ra thì nó còn có nghĩa là gì nữa nhỉ.","created_time":"2013-03-22T01:36:36+0000","updated_time":"2013-03-23T09:15:55+0000","likes":{"data":{"100004598884829":{"id":"100004598884829","name":"Ro Bin Son"},"100001546217296":{"id":"100001546217296","name":"Steve Giáp"}},"paging":{"cursors":{"after":"MTAwMDA0NTk4ODg0ODI5","before":"MTAwMDA0NTk4ODg0ODI5"},"next":"https://graph.facebook.com/229244010425617_629959603687387/likes?limit=1&summary=1&after=MTAwMDA0NTk4ODg0ODI5"},"summary":{"total_count":2}},"comments":{"data":{"629960523687295":{"id":"629960523687295","from":{"id":"100000309978634","name":"Tan Vu"},"message":"cho ví dụ đi :D","can_remove":false,"created_time":"2013-03-22T01:40:40+0000","like_count":0,"user_likes":false},"629962207020460":{"id":"629962207020460","from":{"id":"100000077388104","name":"Quang Ghẻ"},"message":"Dịch các câu lịch sự thì hiểu đơn giản nó là \"tôi nghĩ rằng, tôi đang nghĩ rằng....\" còn bạn bè thân tớ toàn dịch là \"tao dự rằng...Gia Cát Dự là....\"","can_remove":false,"created_time":"2013-03-22T01:46:24+0000","like_count":1,"user_likes":false},"629966680353346":{"id":"629966680353346","from":{"id":"1146680551","name":"優しい なぁ"},"message":"Ban phai cho vi du chu. Noi nhu ban Tran Dinh Quang thi to omou no' ntn.Coi chung ban nham do'","message_tags":[{"id":"100000077388104","name":"Tran Dinh Quang","type":"user","offset":36,"length":15}],"can_remove":false,"created_time":"2013-03-22T01:59:32+0000","like_count":1,"user_likes":false},"629968807019800":{"id":"629968807019800","from":{"id":"100000077388104","name":"Quang Ghẻ"},"message":"Không, to omou cũng có nghĩa tiếng Việt là tôi nghĩ rằng, nhưng theo chiều hướng là đánh giá một sự vật sự việc nào đó, ví dụ tôi nghĩ rằng chúng ta nên mua cài này thì hơn.....Khi ấy dùng To omou. Còn Kangaete imasu cũng dịch là tôi nghĩ rằng, nhưng dùng cho việc thể hiện một định hướng, một kế hoạch, dự định, ví dụ tôi nghĩ rằng chúng tôi sẽ đầu tư nhà máy vào VN trong năm 2013 này....Tiếng Việt vốn phong phú hơn bất kỳ ngôn ngữ nào mà!","can_remove":false,"created_time":"2013-03-22T02:07:52+0000","like_count":2,"user_likes":false},"629969463686401":{"id":"629969463686401","from":{"id":"1146680551","name":"優しい なぁ"},"message":"Minh thi hieu kangaeru la suy nghi...Vi du : Toi nay di choi k. Thi tra loi la toi se suy nghi ve viec do'.","can_remove":false,"created_time":"2013-03-22T02:10:19+0000","like_count":0,"user_likes":false},"629972670352747":{"id":"629972670352747","from":{"id":"100000077388104","name":"Quang Ghẻ"},"message":"Chủ thớt hỏi là dùng trong hội thảo hội nghị mà","can_remove":false,"created_time":"2013-03-22T02:22:04+0000","like_count":0,"user_likes":false},"629988757017805":{"id":"629988757017805","from":{"id":"100000198219367","name":"Chang Jiang"},"message":"kangaeru với omou thì dịch ra tiếng Việt đều là nghĩ, nhưng theo ý kiến của tớ thì nó khác nhau là omou là nghĩ đơn thuần (giống \"think\"),  còn kangaeru như kiểu là suy xét, cân nhắc kĩ càng (như \"consider\") :D","can_remove":false,"created_time":"2013-03-22T03:18:54+0000","like_count":3,"user_likes":false},"629988813684466":{"id":"629988813684466","from":{"id":"100000073848158","name":"Hoàng Đắc"},"message":"Như Tran Dinh Quang dịch thì có vẻ hợp lý. Ví dụ hồi đại diện cyber agent sang phát biểu về xu hướng phát triển IT gần như câu nào cũng có kangaeteimasu.","can_remove":false,"created_time":"2013-03-22T03:19:05+0000","like_count":1,"user_likes":false},"630551396961541":{"id":"630551396961541","from":{"id":"100001580479641","name":"Hà Xuân Thủy"},"message":"Từ điển vdict:\nsuy nghĩ; tưởng tượng; dự định; nhớ lại\n中学時代のことを考えてみて御覧なさい。::Hãy thử nhớ lại hồi học trung học.\n将来コンピューターのプログラマーになろうと考えています。::Tôi dự định tương lai sẽ trở thành một lập trình viên máy tính.\nそのジェット旅客機が墜落するなんてとても考えられない。::Tôi thật không thể tưởng tượng được rằng chiếc máy bay đó lại bị rơi.\n父さんがどんなに怒るか考えてごらんなさい。::Hãy thử tưởng tượng xem bố sẽ giận dữ như thế nào.\nそのことはもう一度考えてみましょう。::Hãy thử suy nghĩ lại một lần nữa về vấn đề đó.\n私はまだ結婚のことをまじめに考えたことはありません。::Tôi chưa bao giờ suy nghĩ kỹ về chuyện kết hôn.\ntưởng niệm","can_remove":false,"created_time":"2013-03-23T09:15:55+0000","like_count":0,"user_likes":false}},"paging":{"cursors":{"after":"NjI5OTYwNTIzNjg3Mjk1","before":"NjI5OTYwNTIzNjg3Mjk1"},"next":"https://graph.facebook.com/229244010425617_629959603687387/comments?limit=1&summary=1&after=NjI5OTYwNTIzNjg3Mjk1"},"summary":{"order":"chronological","total_count":9}}}