{"id":"229244010425617_630949426921738","type":"status","from":{"id":"100002246274598","name":"Tran Quang Anh"},"message":"Xin phép Ad. \n Một bộ phim hay cho các mem nào yêu thích tiếng nhật ...\nP/s: phim có Vietsub, nhiều đoạn dịch hơi tục nhưng mà okei..^^","created_time":"2013-03-24T07:55:49+0000","updated_time":"2013-03-30T16:43:55+0000","likes":{"data":{"100000022163023":{"id":"100000022163023","name":"Kafe Ore"},"100000021018532":{"id":"100000021018532","name":"Hương Nguyễn"},"1234763221":{"id":"1234763221","name":"Samatha Sam"},"100002754998000":{"id":"100002754998000","name":"Nguyen Duc"},"100001609833418":{"id":"100001609833418","name":"Tsunami Hime"},"100001628612184":{"id":"100001628612184","name":"Mai Tròn"},"100002265193557":{"id":"100002265193557","name":"Gấu Mó"},"100000073848158":{"id":"100000073848158","name":"Hoàng Đắc"},"100000383155614":{"id":"100000383155614","name":"Phạm Thúc Hưng"},"100004145293805":{"id":"100004145293805","name":"Trần Đại Dương"},"100001860545626":{"id":"100001860545626","name":"Phạm Anh Tú"},"100004745884493":{"id":"100004745884493","name":"Echigo Edu"},"100004598884829":{"id":"100004598884829","name":"Ro Bin Son"},"1659470191":{"id":"1659470191","name":"Hằng Thu Trần"},"100001695345798":{"id":"100001695345798","name":"Tyn Aki"}},"paging":{"cursors":{"after":"MTAwMDAwMDIyMTYzMDIz","before":"MTAwMDAwMDIyMTYzMDIz"},"next":"https://graph.facebook.com/229244010425617_630949426921738/likes?limit=1&summary=1&after=MTAwMDAwMDIyMTYzMDIz"},"summary":{"total_count":15}},"comments":{"data":{"630954146921266":{"id":"630954146921266","from":{"id":"100001695345798","name":"Tyn Aki"},"message":"thể nào wifi trường em chặn, ko cho vào dcd web @@","can_remove":false,"created_time":"2013-03-24T08:13:22+0000","like_count":0,"user_likes":false},"630957323587615":{"id":"630957323587615","from":{"id":"100002246274598","name":"Tran Quang Anh"},"message":"Tyn Aki: đi học mà dc lướt web, hay đấy. ^^!","message_tags":[{"id":"100001695345798","name":"Tyn Aki","type":"user","offset":0,"length":7}],"can_remove":false,"created_time":"2013-03-24T08:15:26+0000","like_count":0,"user_likes":false},"630957560254258":{"id":"630957560254258","from":{"id":"100001695345798","name":"Tyn Aki"},"message":"đâu em, em ở ktx, dùng wifi của trường đấy chứ ạ, thông báo là link chứa văn hóa phẩm ko lành mạnh :)))","can_remove":false,"created_time":"2013-03-24T08:16:22+0000","like_count":1,"user_likes":false},"630957870254227":{"id":"630957870254227","from":{"id":"100002246274598","name":"Tran Quang Anh"},"message":"A kiểm duyệt rồi. nên là 心配しないで...＾＾","can_remove":false,"created_time":"2013-03-24T08:18:32+0000","like_count":0,"user_likes":false},"630958906920790":{"id":"630958906920790","from":{"id":"100001695345798","name":"Tyn Aki"},"message":"cơ mà truong em vẫn ko cho, ^^","can_remove":false,"created_time":"2013-03-24T08:20:22+0000","like_count":0,"user_likes":false},"630959833587364":{"id":"630959833587364","from":{"id":"100002246274598","name":"Tran Quang Anh"},"message":"oài, thế à. ko xem dc phim ,mà chỉ đọc tin tức dc thôi à. 残念だよ.^^","can_remove":false,"created_time":"2013-03-24T08:24:07+0000","like_count":0,"user_likes":false},"631048643578483":{"id":"631048643578483","from":{"id":"100000198219367","name":"Chang Jiang"},"message":"Xem ở Youtube chắc được chứ em :P\n\nở đây có link Youtube đó :D\n\nhttp://vozforums.com/showthread.php?t=2876611","can_remove":false,"created_time":"2013-03-24T13:19:10+0000","like_count":0,"user_likes":false},"631198050230209":{"id":"631198050230209","from":{"id":"100004745884493","name":"Echigo Edu"},"message":"truyện này hay quá trời hay","can_remove":false,"created_time":"2013-03-24T19:28:22+0000","like_count":0,"user_likes":false},"631549140195100":{"id":"631549140195100","from":{"id":"100001695345798","name":"Tyn Aki"},"message":"anh Chang Jiang: (Y), link youtube thì ko bị chặn rồi ^^","message_tags":[{"id":"100000198219367","name":"Chang Jiang","type":"user","offset":4,"length":11}],"can_remove":false,"created_time":"2013-03-25T14:38:41+0000","like_count":1,"user_likes":false},"632200443463303":{"id":"632200443463303","from":{"id":"100001609833418","name":"Tsunami Hime"},"message":"cái này là bản mới à?","can_remove":false,"created_time":"2013-03-26T23:20:19+0000","like_count":0,"user_likes":false},"632412890108725":{"id":"632412890108725","from":{"id":"100002246274598","name":"Tran Quang Anh"},"message":"Tsunami Hime  phim này năm 2007, xem hay.....","can_remove":false,"created_time":"2013-03-27T13:01:09+0000","like_count":0,"user_likes":false},"633845743298773":{"id":"633845743298773","from":{"id":"100001609833418","name":"Tsunami Hime"},"message":"có 1 bản nữa (khá cổ) mà sorimachi đóng oni (là cái ông diễn viên mà tên thỉnh thoảng vẫn đc nhắc đến trong truyện với matsu takako và matsushima). nhưng nói chung là ko ưa cả hai. riêng bản cổ thì: nhuộm đen tóc oni, cắt và thay nhân vật. hic, sao ko có ver nào giống truyện hết vậy?","can_remove":false,"created_time":"2013-03-30T16:43:55+0000","like_count":1,"user_likes":false}},"paging":{"cursors":{"after":"NjMwOTU0MTQ2OTIxMjY2","before":"NjMwOTU0MTQ2OTIxMjY2"},"next":"https://graph.facebook.com/229244010425617_630949426921738/comments?limit=1&summary=1&after=NjMwOTU0MTQ2OTIxMjY2"},"summary":{"order":"chronological","total_count":12}}}