{"id":"229244010425617_633821219967892","type":"link","link":"https://docs.google.com/forms/d/1yfw5OPtUBy-eowkoo9wce-H_Z0wn0ZNImTPNTrjDeXA/viewform","from":{"id":"100000198219367","name":"Chang Jiang"},"message":"Dành cho những bạn đã và đang học tiếng Nhật ở HN có thể giao lưu ^^\n\nTHÔNG BÁO GẶP GỠ OFFLINE LẦN 1! - JLH ATSUMARI 1\nĐịa điểm: KANADE CAFE, 118 Nguyễn Khánh Toàn\nThời gian: Tối ngày 5/4/2013(thứ 6), từ 20:00~\nNội dung: 1.GẶP MẶT, GIỚI THIỆU THÀNH VIÊN\n2.CUNG CẤP TRAO ĐỔI THÔNG TIN VỀ ĐỊA ĐIỂM HỌC TIẾNG NHẬT, PHƯƠNG PHÁP HỌC TIẾNG NHẬT...\n3.LỊCH LÀM VIỆC CỦA JLH\n4. GIAO LƯU VỚI ANH CHỦ QUÁN (RẤT HÀI) - MR. NISHI VÀ MỘT SỐ NGƯỜI NHẬT\n5. THƯỞNG THỨC ÂM NHẠC ĐÊM DJ\nĐăng ký: (THAM GIA THẬT THÌ HÃY ĐĂNG KÝ NHÉ)\nhttps://docs.google.com/forms/d/1yfw5OPtUBy-eowkoo9wce-H_Z0wn0ZNImTPNTrjDeXA/viewform\n\nおはようございます。\nXin chào các member của JLH và các bạn học tiếng Nhật sắp biết tới JLH.\nTừ khi JLH được lập nên, chúng ta vẫn chưa có cơ hội trao đổi trực tiếp lần nào. Đương nhiên là cái người lập ra page này không hề muốn JLH chỉ đơn thuần là 1 trang facebook ảo.\nThời gian vừa qua cũng có rất nhiều bạn đặt các câu hỏi liên quan đến việc học tiếng Nhật. Tuy nhiên hầu hết đều xoay quanh các vấn đề như địa điểm học tiếng Nhật nào tốt, phương pháp học như thế nào...\nVới những khảo sát mình đã thực hiện, đồng thời dựa trên kinh nghiệm bản thân cũng như thông tin do những người đáng tin cậy cung cấp, hy vọng tại buổi gặp gỡ tới đây có thể cùng các bạn chia sẻ những thông tin hữu ích.\nXin lưu ý rằng JLH không phải là nơi để các bạn \"chơi cho biết\". Mình hoan nghênh tất cả các bạn thực sự quyết tâm học tiếng Nhật (chưa cần biết thích hay không). JLH sẽ có những nguyên tắc chung mà chúng ta sẽ cùng thống nhất tại buổi sắp tới, nhưng nguyên tắc đầu tiên là CHỊU CHƠI THÌ HÃY CHƠI! Các bạn thật sự muốn đến, ngại gì việc điền phiếu đăng ký đúng không ạ?\nHãy cùng xây dựng JLH là 1 Group có trật tự, 1 Group học chơi nghiêm túc! ^^\nhttps://docs.google.com/forms/d/1yfw5OPtUBy-eowkoo9wce-H_Z0wn0ZNImTPNTrjDeXA/viewform\n\nThân mến,\nJLH's member.","created_time":"2013-03-30T15:26:52+0000","updated_time":"2013-04-01T11:20:24+0000","likes":{"data":{"1824015127":{"id":"1824015127","name":"Bùi Quang Tân"},"100003186413787":{"id":"100003186413787","name":"HiEn Thuc PK"},"100004598884829":{"id":"100004598884829","name":"Ro Bin Son"},"100000383155614":{"id":"100000383155614","name":"Phạm Thúc Hưng"},"100001458099624":{"id":"100001458099624","name":"Kham Pha"},"100001754136107":{"id":"100001754136107","name":"Nguyễn Tuấn Vũ"},"100001695345798":{"id":"100001695345798","name":"Tyn Aki"}},"paging":{"cursors":{"after":"MTgyNDAxNTEyNw==","before":"MTgyNDAxNTEyNw=="},"next":"https://graph.facebook.com/229244010425617_633821219967892/likes?limit=1&summary=1&after=MTgyNDAxNTEyNw%3D%3D"},"summary":{"total_count":7}},"comments":{"data":{"633821666634514":{"id":"633821666634514","from":{"id":"100000198219367","name":"Chang Jiang"},"message":"chi tiết hơn xem tại page :D\n\nhttps://www.facebook.com/japaneselearners","can_remove":false,"created_time":"2013-03-30T15:27:36+0000","like_count":0,"user_likes":false},"633836009966413":{"id":"633836009966413","from":{"id":"100000383155614","name":"Phạm Thúc Hưng"},"message":"Nhật Hoa đi nha :D","message_tags":[{"id":"100000919140390","name":"Nhật Hoa","type":"user","offset":0,"length":8}],"can_remove":false,"created_time":"2013-03-30T16:14:18+0000","like_count":1,"user_likes":false},"634067873276560":{"id":"634067873276560","from":{"id":"100003275789728","name":"Quoc Tran"},"message":"Ở TPHCM nên có 1 hội lớn cỡ vậy cho các bạn giao lưu","can_remove":false,"created_time":"2013-03-31T04:34:32+0000","like_count":0,"user_likes":false},"634071839942830":{"id":"634071839942830","from":{"id":"100001905664553","name":"Mẹ Ơi Con Đói"},"message":"Tuấn Anh Lê thím đi k?","message_tags":[{"id":"100001100027589","name":"Tuấn Anh Lê","type":"user","offset":0,"length":11}],"can_remove":false,"created_time":"2013-03-31T04:55:56+0000","like_count":1,"user_likes":false},"634072983276049":{"id":"634072983276049","from":{"id":"100001100027589","name":"Tuấn Anh Lê"},"message":"8h? ko đi đc rồi :(","can_remove":false,"created_time":"2013-03-31T05:02:22+0000","like_count":0,"user_likes":false},"634261626590518":{"id":"634261626590518","from":{"id":"100003808729835","name":"Vân Nguyễn"},"message":"UI neu ma vao toi thu 7 thi tot wa.toi thu 6 m van phai di hoc huhu","can_remove":false,"created_time":"2013-03-31T15:15:50+0000","like_count":0,"user_likes":false},"634692183214129":{"id":"634692183214129","from":{"id":"100001739865592","name":"Tung Le"},"message":"tối thứ 6 thì khó nhỉ,cũng muốn đi lắm.haiz","can_remove":false,"created_time":"2013-04-01T11:20:24+0000","like_count":1,"user_likes":false}},"paging":{"cursors":{"after":"NjMzODIxNjY2NjM0NTE0","before":"NjMzODIxNjY2NjM0NTE0"},"next":"https://graph.facebook.com/229244010425617_633821219967892/comments?limit=1&summary=1&after=NjMzODIxNjY2NjM0NTE0"},"summary":{"order":"chronological","total_count":7}}}