{"id":"229244010425617_635440379805976","type":"link","link":"https://www.facebook.com/events/629568590392136/","from":{"id":"100000383155614","name":"Phạm Thúc Hưng"},"message":"Mình xin PR 1 tí nhé :P.\nCó thể các bạn có vốn từ vựng ngữ pháp, khả năng nghe, đọc cực khủng, nhưng nếu chưa giao tiếp bằng tiếng Nhật nhiều thì mình cá là các bạn sẽ gặp kha khá khó khăn trong vấn đề chém gió nhỉ.\nNếu để ý thì các bạn có thể thấy mấy người bán hàng ở Bát Tràng, phố Cổ v.v... không được học tiếng Nhật chính quy nên chỉ biết ít thôi, nhưng các bạn/bác/chị ấy bắn làm mình rất hãi hùng ạ.\nNên các bạn cũng để ý khả năng giao tiếp với nhé.\nNhưng cái chình mình muốn bảo là để có nhiều cơ hội giao tiếp, các bạn ở HN hãy tham gia VJSC nhé :)), infor có thể xem ở link dưới nhé. Thực ra vào CLB này các bạn còn có cơ hội được đi Jap (để chơi bời) khá lớn đấy.","created_time":"2013-04-03T02:21:54+0000","updated_time":"2013-04-03T11:42:21+0000","likes":{"data":{"100001905664553":{"id":"100001905664553","name":"Mẹ Ơi Con Đói"},"100004598884829":{"id":"100004598884829","name":"Ro Bin Son"},"100002060967373":{"id":"100002060967373","name":"Mai Hoang"},"100001458099624":{"id":"100001458099624","name":"Kham Pha"}},"paging":{"cursors":{"after":"MTAwMDAxOTA1NjY0NTUz","before":"MTAwMDAxOTA1NjY0NTUz"},"next":"https://graph.facebook.com/229244010425617_635440379805976/likes?limit=1&summary=1&after=MTAwMDAxOTA1NjY0NTUz"},"summary":{"total_count":4}},"comments":{"data":{"635440623139285":{"id":"635440623139285","from":{"id":"100000383155614","name":"Phạm Thúc Hưng"},"message":"Kham Pha  ơi, VJSC có hay giao lưu với JVSC ở Nhật, nghe bảo cũng có nhóm của trường Keio mà, chú mày có biết ko?","message_tags":[{"id":"100001458099624","name":"Kham Pha","type":"user","offset":0,"length":8}],"can_remove":false,"created_time":"2013-04-03T02:22:49+0000","like_count":1,"user_likes":false},"635442696472411":{"id":"635442696472411","from":{"id":"100001458099624","name":"Kham Pha"},"message":"Ko rõ. Trường Keio có nhiều campus lắm. Chắc nhóm đấy nó ko ở chỗ tao. Nếu gặp mấy đứa đấy nhớ hỏi xem chúng nó học chỗ nào với cả cho tao địa chỉ mail.","can_remove":false,"created_time":"2013-04-03T02:32:52+0000","like_count":0,"user_likes":false},"635566209793393":{"id":"635566209793393","from":{"id":"100001458099624","name":"Kham Pha"},"message":"Hoá thì ko phải rồi. Keio có 6 campus thì phải. Chắc cái đó ở hiyoshi","can_remove":false,"created_time":"2013-04-03T11:42:21+0000","like_count":0,"user_likes":false}},"paging":{"cursors":{"after":"NjM1NDQwNjIzMTM5Mjg1","before":"NjM1NDQwNjIzMTM5Mjg1"},"next":"https://graph.facebook.com/229244010425617_635440379805976/comments?limit=1&summary=1&after=NjM1NDQwNjIzMTM5Mjg1"},"summary":{"order":"chronological","total_count":3}}}