{"id":"229244010425617_635625379787476","type":"status","from":{"id":"100004598884829","name":"Ro Bin Son"},"message":"Học ngoại ngữ là học chữ vậy là phải học nhiều từ mới vào rồi cấu trúc rồi cũng khắc phục được cái căn cốt là từ hehe có đúng không mấy men and girl","created_time":"2013-04-03T13:46:33+0000","updated_time":"2013-04-07T12:01:44+0000","likes":{"data":{"100004745884493":{"id":"100004745884493","name":"Echigo Edu"},"100003179905990":{"id":"100003179905990","name":"Trâm Yoko"},"100004598884829":{"id":"100004598884829","name":"Ro Bin Son"},"100001683443068":{"id":"100001683443068","name":"Dương Tươi"},"100000266887521":{"id":"100000266887521","name":"Hương Lê Thu"},"100004160974149":{"id":"100004160974149","name":"Lyna Trang"}},"paging":{"cursors":{"after":"MTAwMDA0NzQ1ODg0NDkz","before":"MTAwMDA0NzQ1ODg0NDkz"},"next":"https://graph.facebook.com/229244010425617_635625379787476/likes?limit=1&summary=1&after=MTAwMDA0NzQ1ODg0NDkz"},"summary":{"total_count":6}},"comments":{"data":{"635626223120725":{"id":"635626223120725","from":{"id":"1693102459","name":"Châu Hoàng"},"message":"biết là thế nhưng chả bao giờ nhét được đống từ vựng vào đầu :D","can_remove":false,"created_time":"2013-04-03T13:48:09+0000","like_count":0,"user_likes":false},"635626589787355":{"id":"635626589787355","from":{"id":"100004598884829","name":"Ro Bin Son"},"message":"đơn giản thui học bạn phải liên tưởng đến thục tế mỗi ngày làm vài từ thui :P","can_remove":false,"created_time":"2013-04-03T13:49:13+0000","like_count":0,"user_likes":false},"635626949787319":{"id":"635626949787319","from":{"id":"1693102459","name":"Châu Hoàng"},"message":"cuối cùng cũng phải nhờ \"sức tưởng tượng phong phú\" nhỉ :P","can_remove":false,"created_time":"2013-04-03T13:50:14+0000","like_count":0,"user_likes":false},"635627386453942":{"id":"635627386453942","from":{"id":"100004598884829","name":"Ro Bin Son"},"message":"không phải nhờ mà học để hiểu bản chất vẫn đề học kia là học vẹt dù có thuộc nhưng rồi nó cũng bay đi thui","can_remove":false,"created_time":"2013-04-03T13:51:29+0000","like_count":1,"user_likes":false},"635628416453839":{"id":"635628416453839","from":{"id":"1693102459","name":"Châu Hoàng"},"message":"hàhà! đúng rồi! ^_^ nhưng mãi mà chẳng thuộc :D khổ thế chứ :D vốn từ vựng nghèo nàn => kém cỏi >:(","can_remove":false,"created_time":"2013-04-03T13:53:54+0000","like_count":0,"user_likes":false},"635629149787099":{"id":"635629149787099","from":{"id":"100004598884829","name":"Ro Bin Son"},"message":"than phiền thế cũng vô ích ở một cứ nói những câu tiếng nhật mình muốn tự đặt ra câu hỏi và tự trả lời khi lên lớp nc với bạn bè thầy cô rùi cũng có bước tiến cố lên","can_remove":false,"created_time":"2013-04-03T13:56:23+0000","like_count":0,"user_likes":false},"635629526453728":{"id":"635629526453728","from":{"id":"1693102459","name":"Châu Hoàng"},"message":"sou sou :D","can_remove":false,"created_time":"2013-04-03T13:57:09+0000","like_count":0,"user_likes":false},"635629789787035":{"id":"635629789787035","from":{"id":"100004598884829","name":"Ro Bin Son"},"message":":P","can_remove":false,"created_time":"2013-04-03T13:57:41+0000","like_count":0,"user_likes":false},"635629849787029":{"id":"635629849787029","from":{"id":"1693102459","name":"Châu Hoàng"},"message":"^_^","can_remove":false,"created_time":"2013-04-03T13:57:48+0000","like_count":0,"user_likes":false},"635630189786995":{"id":"635630189786995","from":{"id":"100004598884829","name":"Ro Bin Son"},"message":"kb với anh đi","can_remove":false,"created_time":"2013-04-03T13:58:22+0000","like_count":0,"user_likes":false},"635630346453646":{"id":"635630346453646","from":{"id":"1693102459","name":"Châu Hoàng"},"message":"hử?","can_remove":false,"created_time":"2013-04-03T13:58:48+0000","like_count":0,"user_likes":false},"635630553120292":{"id":"635630553120292","from":{"id":"100004598884829","name":"Ro Bin Son"},"message":"không thì thui :0","can_remove":false,"created_time":"2013-04-03T13:59:14+0000","like_count":0,"user_likes":false},"635630719786942":{"id":"635630719786942","from":{"id":"1693102459","name":"Châu Hoàng"},"message":"^_^","can_remove":false,"created_time":"2013-04-03T13:59:21+0000","like_count":0,"user_likes":false},"635631016453579":{"id":"635631016453579","from":{"id":"100004598884829","name":"Ro Bin Son"},"message":"biết sao sau này anh có cơ hội làm bạn với em","can_remove":false,"created_time":"2013-04-03T14:00:15+0000","like_count":0,"user_likes":false},"635635896453091":{"id":"635635896453091","from":{"id":"1693102459","name":"Châu Hoàng"},"message":"ôh thế giờ không phải là bạn à :D","can_remove":false,"created_time":"2013-04-03T14:14:29+0000","like_count":0,"user_likes":false},"635636776453003":{"id":"635636776453003","from":{"id":"100004598884829","name":"Ro Bin Son"},"message":"không bạn ngoài đời kìa ckảng hiểu gì cả?","can_remove":false,"created_time":"2013-04-03T14:16:51+0000","like_count":0,"user_likes":false},"635637013119646":{"id":"635637013119646","from":{"id":"1693102459","name":"Châu Hoàng"},"message":"haha, thế thì cơ hội đó khó có lắm nhá ^_^","can_remove":false,"created_time":"2013-04-03T14:17:30+0000","like_count":0,"user_likes":false},"635637629786251":{"id":"635637629786251","from":{"id":"100004598884829","name":"Ro Bin Son"},"message":"khó mới thíc chứ anh thíc thử thách. với lại trên đời này làm gì có cái gọi là dễ dàng đâu chứ","can_remove":false,"created_time":"2013-04-03T14:19:19+0000","like_count":0,"user_likes":false},"635637916452889":{"id":"635637916452889","from":{"id":"1693102459","name":"Châu Hoàng"},"message":"vậy a chờ cơ hội đi nhé :)\nem học bài tiếp đây :)","can_remove":false,"created_time":"2013-04-03T14:20:04+0000","like_count":0,"user_likes":false},"635638036452877":{"id":"635638036452877","from":{"id":"100004598884829","name":"Ro Bin Son"},"message":"ok học đi","can_remove":false,"created_time":"2013-04-03T14:20:33+0000","like_count":0,"user_likes":false},"636095353073812":{"id":"636095353073812","from":{"id":"100004598884829","name":"Ro Bin Son"},"message":"kombanwa anh có cơ hội nào không nhỉ :0","can_remove":false,"created_time":"2013-04-04T12:35:23+0000","like_count":0,"user_likes":false},"636195656397115":{"id":"636195656397115","from":{"id":"1693102459","name":"Châu Hoàng"},"message":"cơ hội gì thế ^_^","can_remove":false,"created_time":"2013-04-04T15:53:20+0000","like_count":0,"user_likes":false},"636401436376537":{"id":"636401436376537","from":{"id":"100004598884829","name":"Ro Bin Son"},"message":"cơ hội để đến TP Huế mộng mơ để gặp me trong 1 ngày không xa :v","can_remove":false,"created_time":"2013-04-05T02:11:40+0000","like_count":0,"user_likes":false},"636601353023212":{"id":"636601353023212","from":{"id":"1693102459","name":"Châu Hoàng"},"message":"hahaa, nếu muốn đến Huế thì bất cứ lúc nào anh cũng có thể đến - sao phải hỏi em về cái cơ hội chứ :)","can_remove":false,"created_time":"2013-04-05T14:12:55+0000","like_count":0,"user_likes":false},"636602426356438":{"id":"636602426356438","from":{"id":"100004598884829","name":"Ro Bin Son"},"message":"konbanwa chông em cười kìa đắc ý quá ha đến Huế không thì anh nói với em làm gì ? :v","can_remove":false,"created_time":"2013-04-05T14:16:31+0000","like_count":0,"user_likes":false},"636602786356402":{"id":"636602786356402","from":{"id":"1693102459","name":"Châu Hoàng"},"message":"thế anh muốn gì mà phải nói với em ^_^","can_remove":false,"created_time":"2013-04-05T14:17:31+0000","like_count":0,"user_likes":false},"636603356356345":{"id":"636603356356345","from":{"id":"100004598884829","name":"Ro Bin Son"},"message":"muốn có cơ hội đó mà em có người iu chưa zậy hjhj","can_remove":false,"created_time":"2013-04-05T14:18:49+0000","like_count":0,"user_likes":false},"636605936356087":{"id":"636605936356087","from":{"id":"1693102459","name":"Châu Hoàng"},"message":"cơ hội đến Huế hử :)","can_remove":false,"created_time":"2013-04-05T14:21:40+0000","like_count":0,"user_likes":false},"636608096355871":{"id":"636608096355871","from":{"id":"100004598884829","name":"Ro Bin Son"},"message":"cơ hội đến Huế thì nhiều lẵm cơ mà đến với 1 cô","can_remove":false,"created_time":"2013-04-05T14:22:40+0000","like_count":0,"user_likes":false},"636608993022448":{"id":"636608993022448","from":{"id":"100004598884829","name":"Ro Bin Son"},"message":"gái Huế nói giọng ngọt ngào của người Huế thì ôi trời ơi thíc nhỉ","can_remove":false,"created_time":"2013-04-05T14:23:25+0000","like_count":0,"user_likes":false},"636609293022418":{"id":"636609293022418","from":{"id":"1693102459","name":"Châu Hoàng"},"message":"ơh hờ! chưa nghe thì nghĩ thế thôi, chứ nghe rồi lại ngán ra vì không hiểu :D","can_remove":false,"created_time":"2013-04-05T14:24:02+0000","like_count":0,"user_likes":false},"636609919689022":{"id":"636609919689022","from":{"id":"100004598884829","name":"Ro Bin Son"},"message":"không phải đâu anh cũng từng nghê cô giáo môn Lịch sử nói chuyện giảng bài thì thôi không thể tả được nó mới tuyệt cú mèo làm sao :D","can_remove":false,"created_time":"2013-04-05T14:25:44+0000","like_count":0,"user_likes":false},"636610823022265":{"id":"636610823022265","from":{"id":"1693102459","name":"Châu Hoàng"},"message":"cô ấy có dùng tiếng địa phương không :) bảo đảm anh sẽ k hiểu nếu nghe tiếng địa phương :)","can_remove":false,"created_time":"2013-04-05T14:26:28+0000","like_count":0,"user_likes":false},"636611163022231":{"id":"636611163022231","from":{"id":"100004598884829","name":"Ro Bin Son"},"message":"có đôi lúc anh nói chuyện với cô suốt mà cô ấy giỏi cực luôn cái gì cũng biết","can_remove":false,"created_time":"2013-04-05T14:27:34+0000","like_count":0,"user_likes":false},"636611366355544":{"id":"636611366355544","from":{"id":"1693102459","name":"Châu Hoàng"},"message":"thế àh :D","can_remove":false,"created_time":"2013-04-05T14:28:01+0000","like_count":0,"user_likes":false},"636611859688828":{"id":"636611859688828","from":{"id":"100004598884829","name":"Ro Bin Son"},"message":"anh đã từng mơ ước sau này mình sẽ có một bạn gái người Huế để lâu lâu nc hjhj bây h cô lấy chồng rồi nên nc với cô cũng khó hj :)","can_remove":false,"created_time":"2013-04-05T14:29:48+0000","like_count":0,"user_likes":false},"636612199688794":{"id":"636612199688794","from":{"id":"1693102459","name":"Châu Hoàng"},"message":"=))","can_remove":false,"created_time":"2013-04-05T14:30:18+0000","like_count":0,"user_likes":false},"636613989688615":{"id":"636613989688615","from":{"id":"100004598884829","name":"Ro Bin Son"},"message":"về mặt lý thuyết thì gặp em là chuyện có thể còn về thực tế thì hiện tại bây h anh bó tay hj anh tán gái giở nhất trong cái gọi là tồi hj thui bye em sayounara :o","can_remove":false,"created_time":"2013-04-05T14:33:43+0000","like_count":0,"user_likes":false},"636614939688520":{"id":"636614939688520","from":{"id":"1693102459","name":"Châu Hoàng"},"message":"haha, ai bảo anh tán =))\nsayounara :))","can_remove":false,"created_time":"2013-04-05T14:36:56+0000","like_count":0,"user_likes":false},"636675983015749":{"id":"636675983015749","from":{"id":"100001609833418","name":"Tsunami Hime"},"message":"(nói nhỏ) mọi người thật may mắn khi có đủ sách ngữ pháp đấy, như tớ chỉ bắt đầu = 1 quyển \"tiếng nhật cho người mới bắt đầu\" và 1 quyển từ điển bỏ túi thôi :) sau đó là phải è cổ mà học lấy :))\ncố gắng lên","can_remove":false,"created_time":"2013-04-05T17:12:10+0000","like_count":1,"user_likes":false},"636833522999995":{"id":"636833522999995","from":{"id":"100004598884829","name":"Ro Bin Son"},"message":"Arigato gozaimastu tui cũng thế phải gắng thôi :v","can_remove":false,"created_time":"2013-04-06T02:04:18+0000","like_count":0,"user_likes":false},"636866952996652":{"id":"636866952996652","from":{"id":"1693102459","name":"Châu Hoàng"},"message":"Tsunami Hime: mình cũng chỉ bắt đầu với quyển mina nihongo :)","message_tags":[{"id":"100001609833418","name":"Tsunami Hime","type":"user","offset":0,"length":12}],"can_remove":false,"created_time":"2013-04-06T03:56:07+0000","like_count":1,"user_likes":false},"636928352990512":{"id":"636928352990512","from":{"id":"100001609833418","name":"Tsunami Hime"},"message":"Châu Hoàng: quyển của tớ còn ko bằng minna. làm mình cứ thắc mắc: tại sao tiếng nhật cần có 2 loại tính từ :)\nôi ngày xưa ơi <3","message_tags":[{"id":"1693102459","name":"Châu Hoàng","type":"user","offset":0,"length":10}],"can_remove":false,"created_time":"2013-04-06T07:35:24+0000","like_count":2,"user_likes":false},"637022559647758":{"id":"637022559647758","from":{"id":"100004598884829","name":"Ro Bin Son"},"message":"có ai bảo đâu tự anh mà hô hố tán em nhưng em éo cho bùn ghê hj]","can_remove":false,"created_time":"2013-04-06T13:07:47+0000","like_count":0,"user_likes":false},"637427902940557":{"id":"637427902940557","from":{"id":"1693102459","name":"Châu Hoàng"},"message":"=)))","can_remove":false,"created_time":"2013-04-07T12:01:44+0000","like_count":0,"user_likes":false}},"paging":{"cursors":{"after":"NjM1NjI2MjIzMTIwNzI1","before":"NjM1NjI2MjIzMTIwNzI1"},"next":"https://graph.facebook.com/229244010425617_635625379787476/comments?limit=1&summary=1&after=NjM1NjI2MjIzMTIwNzI1"},"summary":{"order":"chronological","total_count":45}}}