{"id":"229244010425617_637465286270152","type":"status","from":{"id":"100000073848158","name":"Hoàng Đắc"},"message":"京都府の国際電気通信基礎技術研究所のグループは、眠っている人の脳の動を調べて、夢に出てきたものを知る実験を行いました。\n実験はまず、３人の男性を眠ってから２～３分後に起して、どんな夢を見たか話してもらいました。また、眠っていたときに脳はどんな動をしていたかも調べました。この２つの実験を２００回以上行いました。\n夢の内容は、車や食物など約２０のパターンに分けて写真などにして、起きているときに同じ写真などを見せました。\nそして、見たときと眠っていたときの脳の動を比べて、夢の中に出てきたものがあるかどうか調べました。その結果、約２０のパターンの一部では、７０％以上の割合で夢の中に出てきたことが分りました。しかし、夢の中のものの色や形については分りませんでした。\n国際電気通信基礎技術研究所の神谷之康さんは「このやり方を使って、頭の中で考えただけでコンピューターを動すことができるような技術を研究しています」と話しました。\n\nBài này cấp độ N3, có vài từ mới, dễ đọc dễ dịch, mọi người thử dịch rồi có chỗ nào chưa hiểu rõ comment dưới này cho các cao thủ vào giải thích, học ngữ pháp kết hợp từ vựng và khả năng đọc hiểu luôn. 3 trong 1 :)","created_time":"2013-04-07T13:37:59+0000","updated_time":"2013-04-12T12:33:51+0000","likes":{"data":{"100001508739620":{"id":"100001508739620","name":"Lê Ngọc Hoàn"},"100000383155614":{"id":"100000383155614","name":"Phạm Thúc Hưng"},"1146680551":{"id":"1146680551","name":"優しい なぁ"},"100001609833418":{"id":"100001609833418","name":"Tsunami Hime"},"100004684872145":{"id":"100004684872145","name":"Trần Anh Bằng"},"100003806454699":{"id":"100003806454699","name":"Khỉ Cướp Biển"},"100004205437257":{"id":"100004205437257","name":"Nỗi Đau Xót Xa"},"100002845610596":{"id":"100002845610596","name":"Linh NgọcMai"},"100002676859353":{"id":"100002676859353","name":"Chu Quang Viên"},"100001062202744":{"id":"100001062202744","name":"Hoang Garu"},"100001754136107":{"id":"100001754136107","name":"Nguyễn Tuấn Vũ"},"100001912324973":{"id":"100001912324973","name":"Totto Chan"},"100004123294724":{"id":"100004123294724","name":"Hà CHíp"},"100002246274598":{"id":"100002246274598","name":"Tran Quang Anh"},"100001458099624":{"id":"100001458099624","name":"Kham Pha"},"1693102459":{"id":"1693102459","name":"Châu Hoàng"}},"paging":{"cursors":{"after":"MTAwMDAxNTA4NzM5NjIw","before":"MTAwMDAxNTA4NzM5NjIw"},"next":"https://graph.facebook.com/229244010425617_637465286270152/likes?limit=1&summary=1&after=MTAwMDAxNTA4NzM5NjIw"},"summary":{"total_count":16}},"comments":{"data":{"637470406269640":{"id":"637470406269640","from":{"id":"1693102459","name":"Châu Hoàng"},"message":"toàn kanji :v :v","can_remove":false,"created_time":"2013-04-07T13:51:27+0000","like_count":0,"user_likes":false},"637473046269376":{"id":"637473046269376","from":{"id":"100002246274598","name":"Tran Quang Anh"},"message":"Châu Hoàng: e lên xem file word có phiên âm hiragana và học nhé.","message_tags":[{"id":"1693102459","name":"Châu Hoàng","type":"user","offset":0,"length":10}],"can_remove":false,"created_time":"2013-04-07T13:57:12+0000","like_count":0,"user_likes":false},"637473182936029":{"id":"637473182936029","from":{"id":"1693102459","name":"Châu Hoàng"},"message":"dạ :D","can_remove":false,"created_time":"2013-04-07T13:57:38+0000","like_count":0,"user_likes":false},"637478739602140":{"id":"637478739602140","from":{"id":"100000073848158","name":"Hoàng Đắc"},"message":"link đây nhé http://www3.nhk.or.jp/news/easy/k10013690171000/k10013690171000.html","can_remove":false,"created_time":"2013-04-07T14:12:34+0000","like_count":2,"user_likes":false},"637484152934932":{"id":"637484152934932","from":{"id":"100001912324973","name":"Totto Chan"},"message":"a ơi, sao e học kanji mà mãi ko nhớ","can_remove":false,"created_time":"2013-04-07T14:25:44+0000","like_count":0,"user_likes":false},"637485432934804":{"id":"637485432934804","from":{"id":"100000073848158","name":"Hoàng Đắc"},"message":"Chang Jiang đâu rồi, cao thủ chữ Tàu vào cho e ấy lời khuyên phát.","message_tags":[{"id":"100000198219367","name":"Chang Jiang","type":"user","offset":0,"length":11}],"can_remove":false,"created_time":"2013-04-07T14:27:36+0000","like_count":1,"user_likes":false},"637486462934701":{"id":"637486462934701","from":{"id":"100001912324973","name":"Totto Chan"},"message":"xin các hạ chỉ giáo **","can_remove":false,"created_time":"2013-04-07T14:29:19+0000","like_count":0,"user_likes":false},"637486529601361":{"id":"637486529601361","from":{"id":"100000073848158","name":"Hoàng Đắc"},"message":"Kinh nghiệm của anh thì là từ từ bình tĩnh, mưa dầm thấm lâu thôi em ạ.   Mỗi ngày 1 ít, không nhồi nhét là ok :D","can_remove":false,"created_time":"2013-04-07T14:29:27+0000","like_count":1,"user_likes":false},"637486682934679":{"id":"637486682934679","from":{"id":"100000198219367","name":"Chang Jiang"},"message":"đọc phần note chia sẻ kinh nghiệm đó :))","can_remove":false,"created_time":"2013-04-07T14:29:43+0000","like_count":0,"user_likes":false},"637486849601329":{"id":"637486849601329","from":{"id":"1693102459","name":"Châu Hoàng"},"message":"phần note đó ở đâuuuuuuu =))","can_remove":false,"created_time":"2013-04-07T14:30:01+0000","like_count":0,"user_likes":false},"637487062934641":{"id":"637487062934641","from":{"id":"100000073848158","name":"Hoàng Đắc"},"message":"=)), chủ động đào mộ cũng là 1 cách học Châu Hoàng ạ","message_tags":[{"id":"1693102459","name":"Châu Hoàng","type":"user","offset":40,"length":10}],"can_remove":false,"created_time":"2013-04-07T14:30:40+0000","like_count":0,"user_likes":false},"637487102934637":{"id":"637487102934637","from":{"id":"100000198219367","name":"Chang Jiang"},"message":"list bài học được pin lên đầu group còn j 8-}","can_remove":false,"created_time":"2013-04-07T14:30:46+0000","like_count":0,"user_likes":false},"637487219601292":{"id":"637487219601292","from":{"id":"1693102459","name":"Châu Hoàng"},"message":"=)))","can_remove":false,"created_time":"2013-04-07T14:31:02+0000","like_count":0,"user_likes":false},"637521662931181":{"id":"637521662931181","from":{"id":"1844799725","name":"Đinh Quang Phú"},"message":"Một nhóm nghiên cứu từ \"Sở nghiên cứu kỹ thuật cơ bản về thông tin điện tử quốc tế\"(??) của thành phố Kyoto đã nghiên cứu về hoạt động của bộ não con người khi đang ngủ để từ đó tiến hành thí nghiệm về sự nhận biết những thứ trong giấc mơ. Thí nghiệm được tiến hành 2-3 phút sau khi 3 người đàn ông tham gia ngủ, sau đó họ sẽ nói xem họ đã thấy gì trong giấc mơ. Sau đó họ cũng nghiên cứu xem não bộ có những hoạt động gì trong khi ngủ. Nhóm nghiên cứu đã làm 2 thí nghiệm này hơn 200 lần. Nội dung của giấc mơ là khoảng 20 hình ảnh như là những món ăn, xe cộ etc...giống như những hình ảnh mà nhóm nghiên cứu đã cho họ xem lúc thức.\nVà họ đã so sánh hoạt động của não lúc xem tranh và lúc ngủ để nghiên cứu xem trong giấc mơ có xuất hiện những thứ đó không. Kết quả, 1 phần trong 20 hình ảnh đã cho xem trước đó sẽ xuất hiện trong giấc mơ, tỉ lệ xảy ra là hơn 70%. Nhưng họ không nhận biết được về hình dáng cũng như màu sắc của những thứ có trong giấc mơ.\nNgài 神谷之康 của \"Sở nghiên cứu kỹ thuật cơ bản về thông tin điện tử quốc tế\" cho rằng :\"Dùng cách này chúng ta sẽ có thể nghiên cứu về kỹ thuật vận hành máy tính mà chỉ cần bằng những suy nghĩ trong đầu\"","can_remove":false,"created_time":"2013-04-07T15:55:46+0000","like_count":3,"user_likes":false},"637521736264507":{"id":"637521736264507","from":{"id":"1844799725","name":"Đinh Quang Phú"},"message":"dịch bựa k biết đúng k nữa ^^ sửa hộ mình nhá","can_remove":false,"created_time":"2013-04-07T15:55:59+0000","like_count":0,"user_likes":false},"637529946263686":{"id":"637529946263686","from":{"id":"100000073848158","name":"Hoàng Đắc"},"message":"Mình lại dịch là. Cho họ mơ xong kể lại. Nội dung giấc mơ của họ được chia làm 20 mẫu hình ảnh khác nhau như ô tô, đồ ăn. Rồi sau khi họ dậy thì cho xem lại mấy cái hình giống như họ miêu tả. Rồi so sánh hoạt động của não lúc ngủ và lúc xem tranh để đoán xem cái bức ảnh đó có xuất hiện trong giấc mơ của họ ko. Và họ đoán đúng hơn 70%. Ai cho bản dịch chuẩn để so phát nhỉ","can_remove":false,"created_time":"2013-04-07T16:15:54+0000","like_count":1,"user_likes":false},"638239302859417":{"id":"638239302859417","from":{"id":"100000687662713","name":"Vu Thi Man"},"message":"xin loi nhe, may tinh cua minh khong cai font tieng viet nen khong danh duoc, moi nguoi thong cam vay nhe.","can_remove":false,"created_time":"2013-04-09T04:22:47+0000","like_count":0,"user_likes":false},"638242636192417":{"id":"638242636192417","from":{"id":"100000687662713","name":"Vu Thi Man"},"message":"Nhom nghien cuu ki thuat co ban dien tu vien thong o Kyoto tien hanh thuc nghiem tim hieu hoat dong cua nao nguoi dang ngu de biet ve nhung giac mo. Dau tien, tien hanh voi 3 nguoi con trai, bat dau ngu den khoang 2 ~ 3 phut sau xay ra, giac mo the nao. Hon nua, nao khi ngu da hoat dong nhu the nao. Ho da tien hanh tren 2 truong hop voi khoang tren 200 lan. Noi dung giac mo ve xe co va do an duoc phan ra khoang 20 loai va co the thay duoc hinh anh tuong tu giong nhu khi giac mo xay ra. Tiep do, tien hanh so sanh hoat dong cua nao thi dang ngu va khi nhin nhung do vat do  xem co hay khong co nhung vat xuat hien trong giac mo.","can_remove":false,"created_time":"2013-04-09T04:39:52+0000","like_count":0,"user_likes":false},"639255176091163":{"id":"639255176091163","from":{"id":"100001609833418","name":"Tsunami Hime"},"message":"ngữ pháp thì ko sao, nhưng nhìn cụm \"nhóm nghiên cứu...\" thì chóng mặt quá :). thank you :)","can_remove":false,"created_time":"2013-04-11T15:21:22+0000","like_count":1,"user_likes":false},"639293466087334":{"id":"639293466087334","from":{"id":"100001912633316","name":"Du Ca"},"message":"ko hiểu sao mình đọc tiếng nhật trên giấy thì đc, chứ nhìn thấy trên máy tính là chóng mặt chẳng muốn đọc :(","can_remove":false,"created_time":"2013-04-11T17:29:54+0000","like_count":1,"user_likes":false},"639293942753953":{"id":"639293942753953","from":{"id":"1693102459","name":"Châu Hoàng"},"message":"trên máy tính nhìn hoa cả mắt ra :D\nmình còn phải zoom lớn lên mới nhìn ra chữ =)))","can_remove":false,"created_time":"2013-04-11T17:31:18+0000","like_count":0,"user_likes":false},"639294459420568":{"id":"639294459420568","from":{"id":"100001912633316","name":"Du Ca"},"message":"đúng đó, đọc trên máy tính tiện mỗi cái là cóp phát tra từ ngay đc,  mình đọc file tiếng nhật trên máy tính cỡ chữ thường tầm 16 lận :(","can_remove":false,"created_time":"2013-04-11T17:32:45+0000","like_count":1,"user_likes":false},"639572996059381":{"id":"639572996059381","from":{"id":"100004598884829","name":"Ro Bin Son"},"message":"hãi","can_remove":false,"created_time":"2013-04-12T12:33:51+0000","like_count":0,"user_likes":false}},"paging":{"cursors":{"after":"NjM3NDcwNDA2MjY5NjQw","before":"NjM3NDcwNDA2MjY5NjQw"},"next":"https://graph.facebook.com/229244010425617_637465286270152/comments?limit=1&summary=1&after=NjM3NDcwNDA2MjY5NjQw"},"summary":{"order":"chronological","total_count":23}}}