{"id":"229244010425617_637817122901635","type":"video","picture":"https://fbexternal-a.akamaihd.net/safe_image.php?d=AQBEr_erOYsglZPo&w=130&h=130&url=http%3A%2F%2Fstc.id.nixcdn.com%2Fimages%2Flogo-nct.jpg","link":"http://www.nhaccuatui.com/bai-hat/hes-a-pirate-dang-cap-nhat.OtYvN3m1Lz.html","source":"http://www.nhaccuatui.com/m/OtYvN3m1Lz","from":{"id":"100001458099624","name":"Kham Pha"},"message":"Bài 89: Thành ngữ với 気. Phần 1\n\n気 là một từ thường xuyên bắt gặp trong các thành ngữ tiếng Nhật. Bạn nào đã học tiếng Nhật một thời gian hẳn sẽ nhận ra điều này. Dễ phải đến vài chục thành ngữ trong tiếng Nhật có chứa chữ 気 này. Tại sao lại vậy? Bởi vì chữ  気(KHÍ) này thường được dùng để mô tả tâm trạng, trạng thái, tính tình của con người. Mà tâm trạng của con người thì rất phức tạp nên có nhiều thành ngữ mô tả tâm trạng con người cũng là điều đương nhiên thôi. Bởi vì có rất nhiều thành ngữ với 気 nên tôi sẽ cố gắng phân nhóm các từ này và chia thành các bài riêng biệt để các bạn tiện theo dõi.\n\nBài hôm nay là các thành ngữ chỉ tâm trạng tốt của con người ta.  \n\n(1) 気が晴れる: miểu tả tâm trạng tươi sáng, dễ chịu\n\n晴れる（はれる）: thường để chỉ thời tiết trong xanh, có chút nắng, không mây, không mưa. Vì vậy khi nói 気が晴れる thì có nghĩa là tâm trạng đang rất là tốt, như thời tiết ngày đẹp trời vậy. Ví dụ:\n\n暗（くらい）い気持ちでいたが、友人（ゆうじん）とお酒を飲んで会社の不満（ふまん）を聞（き）いてもらったら、気が晴れました。\n\nTâm trạng tuy không tốt nhưng đi uống rượu với bạn, được lắng nghe nên bây giờ thấy trong lòng thật dễ chịu.\n\n(2) 気を取り直す: trở lại tâm trạng tốt\n\n取り直す（とりなおす） là một động từ phức hợp. Nếu tôi nhớ không nhầm thì chúng ta đã học một chút về các động từ kiểu này trong bài 72, 73. Các bạn có thể xem lại. Động từ 取り直す này có nghĩa là “cải thiện”. Khi nói 気を取り直す có nghĩa là cải thiện tâm trạng, từ xấu thành tốt. Ví dụ:\n\n受験（じゅけん）に失敗（しっぱい）して暗い気分（きぶん）でいたが、気を取り直して、もう一度チャレンジすることにした。\n\nThi trượt xong, tâm trạng trở nên chán nản nhưng sau đó sốc lại tinh thần tôi quyết định thử sức thêm một lần nữa.\n\nTừ này cũng là tâm trạng tốt vậy thì nó khác 気が晴れる ở đâu? Khác chính là vì nó thể hiện hành động trong khi 気が晴れる lại miêu tả một trạng thái. Cũng giống như bạn bảo “cô gái ấy đẹp”(trạng thái) và “cô gái ấy đang đẹp lên”(quá trình). Cách nói sau nó miêu tả thêm cả một quá trình.\n\n(3) 気が済（す）む: hết bất mãn, quay trở lại cảm thấy thỏa mãn\n\n済む có nghĩa là kết thúc. Trực dịch ra thì là “hết khí”. Nghe hơi si đần một chút nhưng có lẽ người Nhật muốn ám chỉ là đã hết bất mãn. Ví dụ:  \n\nお互（たが）い気が済むまで話し合って、納得（なっとく）した。\n\nCùng nhau nói chuyện cho đến lúc giải quyết hết khúc mắc, hiểu được nhau.\n\n私をなぐって気が済むなら、どうぞ。\n\nNếu đánh tôi mà anh thấy thoải mái được thì cứ làm đi.\n\nMột vấn đề dễ làm mọi người cảm thấy lúng túng là cách dùng trợ từ trong các thành ngữ này. Cấu trúc chung của các thành ngữ này là 気＋TRỢ TỪ+ ĐỘNG TỪ/ TÍNH TỪ. Vậy thì chọn trợ từ thế nào cho phù hợp. Câu trả lời là chọn trợ từ cho phù hợp với động từ/ tính từ mà bạn chọn.\n\n-Nếu là tính từ thì trợ từ đương nhiên sẽ là が.\n\n-Nếu là động từ thì: が với tự động từ và を với tha động từ.\n\nBài học hôm nay tuy không có thành ngữ chứa tính từ nhưng trong bài học sau chắc chắn sẽ có. Trong lúc chờ bài sau các bạn hãy học thật kĩ 3 thành ngữ vừa học trong bài hôm nay.\n\nChúc các bạn một tuần mới tràn đầy năng lượng!  \n\nhttp://www.nhaccuatui.com/bai-hat/hes-a-pirate-dang-cap-nhat.OtYvN3m1Lz.html\n\nKham Pha","created_time":"2013-04-08T04:32:35+0000","updated_time":"2013-04-09T11:54:14+0000","likes":{"data":{"100001754136107":{"id":"100001754136107","name":"Nguyễn Tuấn Vũ"},"100000162152142":{"id":"100000162152142","name":"Bà Già Đau Khổ"},"100000096928751":{"id":"100000096928751","name":"Lê Linh"},"1803772186":{"id":"1803772186","name":"Nguyễn Ngọc Mai"},"100004666446749":{"id":"100004666446749","name":"Jouzu Waei"},"100001695345798":{"id":"100001695345798","name":"Tyn Aki"},"1146680551":{"id":"1146680551","name":"優しい なぁ"}},"paging":{"cursors":{"after":"MTAwMDAxNzU0MTM2MTA3","before":"MTAwMDAxNzU0MTM2MTA3"},"next":"https://graph.facebook.com/229244010425617_637817122901635/likes?limit=1&summary=1&after=MTAwMDAxNzU0MTM2MTA3"},"summary":{"total_count":7}},"comments":{"data":{"637818282901519":{"id":"637818282901519","from":{"id":"1146680551","name":"優しい なぁ"},"message":"bai nay chat' luong day' bac'","can_remove":false,"created_time":"2013-04-08T04:38:42+0000","like_count":1,"user_likes":false},"637818752901472":{"id":"637818752901472","from":{"id":"1693102459","name":"Châu Hoàng"},"message":"nhạc như có chiến tranh ấy anh Kham Pha ơiiiiiii =))))","message_tags":[{"id":"100001458099624","name":"Kham Pha","type":"user","offset":31,"length":8}],"can_remove":false,"created_time":"2013-04-08T04:41:24+0000","like_count":0,"user_likes":false},"637819789568035":{"id":"637819789568035","from":{"id":"100001458099624","name":"Kham Pha"},"message":":d","can_remove":false,"created_time":"2013-04-08T04:46:25+0000","like_count":0,"user_likes":false},"637995862883761":{"id":"637995862883761","from":{"id":"100000198219367","name":"Chang Jiang"},"message":"Kimochi thì sao? :3","can_remove":false,"created_time":"2013-04-08T15:05:07+0000","like_count":0,"user_likes":false},"638152096201471":{"id":"638152096201471","from":{"id":"100001458099624","name":"Kham Pha"},"message":"気持ち đâu phải thành ngữ. Hay là anh Chang Jiang viết 1 bài phân tích cảm xúc và các hoàn cảnh sử dụng đi. Lâu ko thấy viết bài. Nhớ là phải kinh nghiệm bản thân đấy.","message_tags":[{"id":"100000198219367","name":"Chang Jiang","type":"user","offset":35,"length":11}],"can_remove":false,"created_time":"2013-04-08T23:28:29+0000","like_count":1,"user_likes":false},"638161172867230":{"id":"638161172867230","from":{"id":"100000162152142","name":"Bà Già Đau Khổ"},"message":"Cám ơn anh nhiều lắm","can_remove":false,"created_time":"2013-04-08T23:57:44+0000","like_count":0,"user_likes":false},"638222092861138":{"id":"638222092861138","from":{"id":"100001754136107","name":"Nguyễn Tuấn Vũ"},"message":"Đâu tien e đọc tuong tu moi vs 気","can_remove":false,"created_time":"2013-04-09T03:21:26+0000","like_count":0,"user_likes":false},"638337476182933":{"id":"638337476182933","from":{"id":"100001458099624","name":"Kham Pha"},"message":"các thành ngữ với 気 thường được sử dụng nhiều nên có thể coi như từ mới cũng được.","can_remove":false,"created_time":"2013-04-09T11:52:15+0000","like_count":0,"user_likes":false},"638338029516211":{"id":"638338029516211","from":{"id":"100001458099624","name":"Kham Pha"},"message":"mà Nguyễn Tuấn Vũ, mai đến em post bài phải không?","message_tags":[{"id":"100001754136107","name":"Nguyễn Tuấn Vũ","type":"user","offset":3,"length":14}],"can_remove":false,"created_time":"2013-04-09T11:54:14+0000","like_count":0,"user_likes":false}},"paging":{"cursors":{"after":"NjM3ODE4MjgyOTAxNTE5","before":"NjM3ODE4MjgyOTAxNTE5"},"next":"https://graph.facebook.com/229244010425617_637817122901635/comments?limit=1&summary=1&after=NjM3ODE4MjgyOTAxNTE5"},"summary":{"order":"chronological","total_count":9}}}