{"id":"229244010425617_638865446130136","type":"status","from":{"id":"100001860545626","name":"Phạm Anh Tú"},"message":"Cho hỏi ý nghĩ cụ thể của : ~V(te)imasu, ~V(te)arimasu, ~V(te)okimasu. \narigatou...","created_time":"2013-04-10T16:09:52+0000","updated_time":"2013-04-11T13:07:34+0000","likes":{"data":{"100003207550369":{"id":"100003207550369","name":"Khoa Doan"},"100001860545626":{"id":"100001860545626","name":"Phạm Anh Tú"}},"paging":{"cursors":{"after":"MTAwMDAzMjA3NTUwMzY5","before":"MTAwMDAzMjA3NTUwMzY5"},"next":"https://graph.facebook.com/229244010425617_638865446130136/likes?limit=1&summary=1&after=MTAwMDAzMjA3NTUwMzY5"},"summary":{"total_count":2}},"comments":{"data":{"639183349431679":{"id":"639183349431679","from":{"id":"100003207550369","name":"Khoa Doan"},"message":"vていますすla noi ve hanh dong hoac trang thai cua hanh dong dang dien ra.dang lam.vてありますla noi ve tinh trang co cai ji do。vd トイレに面白い絵が描いてありますnghia la co 1 buc hinh duoc ve trong nha ve sinh..vておきますnghia la da lam xong viec do roi.viec do da ket thuc roi.vd宿題はやっておきましたco nghia la toi da lam xong bai tap roi.em giai thich nhu vay co dung khong anh Kenji Le?","message_tags":[{"id":"1108328257","name":"Kenji Le","type":"user","offset":343,"length":8}],"can_remove":false,"created_time":"2013-04-11T11:46:32+0000","like_count":2,"user_likes":false},"639209612762386":{"id":"639209612762386","from":{"id":"1693102459","name":"Châu Hoàng"},"message":"em nghĩ:\n Vています là nói về trạng thái trong quá khứ, nhưng nó vẫn còn lưu lại ở hiện tại. Chẳng hạn như: 電気がついています.(trạng thái điện được bật và bây giờ vẫn còn bật)\nVてあります thì nói về trạng thái làm sẵn cho mục đích nào đó.\nChẳng hạn như: 電気がつけてあります。(đèn được bật sẵn)\nnó khác với 電気をつけます。(bật đèn)\nVておきます là cần phải hoàn thành việc gì đó trước 1 thời điểm nhất định nào đó ( nghĩa là thời điểm đó chưa xảy ra).\nChẳng hạn như trước khi đến trường phải ôn bài.\n学校へ行く前に、復習しておきます。\nthứ 2 là dùng để đưa ra tình huống giải quyết một hành động nào đó.\nChẳng hạn như sau khi đọc sách xong thì để lại chỗ cũ.\n本を読んだら、元の所に戻しておきます。\n.\nNgoài ra, những cấu trúc này nó có liên quan đến việc sử dụng Tự động từ và Tha động từ nữa. Phải phân biệt được 2 loại động từ đó thì mới hiểu rõ được.\nEm thì chỉ biết được có chừng đó thôi (mà cũng còn mơ hồ về Tha và Tự động từ nữa) nên trình bày có vẻ không rõ ràng lắm! \nCó gì sai hay cần bổ sung thì nhờ sensei và các senpai chỉnh sửa giúp :)","can_remove":false,"created_time":"2013-04-11T13:07:34+0000","like_count":5,"user_likes":false}},"paging":{"cursors":{"after":"NjM5MTgzMzQ5NDMxNjc5","before":"NjM5MTgzMzQ5NDMxNjc5"},"next":"https://graph.facebook.com/229244010425617_638865446130136/comments?limit=1&summary=1&after=NjM5MTgzMzQ5NDMxNjc5"},"summary":{"order":"chronological","total_count":2}}}