{"id":"229244010425617_639763306040350","type":"photo","object_id":"4590914966748","picture":"https://fbcdn-photos-h-a.akamaihd.net/hphotos-ak-prn1/v/t34.0-11/862185_4323532402351_2128189724_s.jpg?oh=7d87d736d21f12111c0d91f4e2a8e556&oe=534FEC83&__gda__=1397746439_9533f004209799eac8e0759057b8e17c","link":"https://www.facebook.com/photo.php?fbid=4590914966748&set=gm.639763306040350&type=1&relevant_count=1","from":{"id":"1108328257","name":"Kenji Le"},"message":"毎日一つの笑顔\n\n貴方なら下記の文章の意味を理解出来ますか？\n僕にはこの文章の意味を解って以来多少変わってましたよ。^_^\n貴方も是非試ししてね。\n\n世界を変えるために笑顔になろう。\n世界があなたの笑顔を変えない様に。\n笑顔と沈黙は2つの強力なツールである.\n笑顔が多くの問題を解決するための方法です。笑顔が常に最良の薬になるので\n沈黙は多くの問題を回避するための方法です。\n沈黙は、常に最高の復讐であるでしょう。\nそして最後に愛は常にあなたがすべて必要とするものだろう。\n\n P/S :自ら英語を日本語に翻訳したから、間違ったら教えてね\n良かったら好きな言葉に翻訳してください。","created_time":"2013-04-12T23:03:22+0000","updated_time":"2013-04-13T08:40:50+0000","likes":{"data":{"100001609833418":{"id":"100001609833418","name":"Tsunami Hime"},"100000244023904":{"id":"100000244023904","name":"Thuy Le"},"100003207550369":{"id":"100003207550369","name":"Khoa Doan"},"1693102459":{"id":"1693102459","name":"Châu Hoàng"},"100001739865592":{"id":"100001739865592","name":"Tung Le"},"100004745884493":{"id":"100004745884493","name":"Echigo Edu"},"100001458099624":{"id":"100001458099624","name":"Kham Pha"}},"paging":{"cursors":{"after":"MTAwMDAxNjA5ODMzNDE4","before":"MTAwMDAxNjA5ODMzNDE4"},"next":"https://graph.facebook.com/229244010425617_639763306040350/likes?limit=1&summary=1&after=MTAwMDAxNjA5ODMzNDE4"},"summary":{"total_count":7}},"comments":{"data":{"639858246030856":{"id":"639858246030856","from":{"id":"1693102459","name":"Châu Hoàng"},"message":"anh Kenji Le cho em hỏi chữ này 解って trong thể từ điển là gì thế anh :)","message_tags":[{"id":"1108328257","name":"Kenji Le","type":"user","offset":4,"length":8}],"can_remove":false,"created_time":"2013-04-13T05:48:37+0000","like_count":0,"user_likes":false},"639860339363980":{"id":"639860339363980","from":{"id":"1693102459","name":"Châu Hoàng"},"message":"Một nụ cười mỗi ngày\nnếu là bạn thì có thể hiểu ý nghĩ của câu văn sau không?\nTôi đã thay đổi khá nhiều kể từ khi hiểu (biết) ý nghĩa của câu văn này.\nCác bạn nhất định cũng phải thử nhé\nHãy dùng nụ cười để làm thay đổi thế giới.\nThế giới không làm thay đổi nụ cười của bạn\nCó 2 công cụ mạnh mẽ là nụ cười và sự im lặng.\nCách để mà giải quyết nhiều câu hỏi là nụ cười \nVì nụ cười thường là viên thuốc tốt nhất. \nCách để tránh né nhiều câu hỏi lại là sự im lặng\nIm lặng thường là sự báo thù tốt nhất nhỉ.\nVà cuối cùng tình yêu thường là tất cả những thứ cần thiết cho bạn \n[Bài này ý nghĩa qá :) ]","can_remove":false,"created_time":"2013-04-13T05:59:43+0000","like_count":1,"user_likes":false},"639864806030200":{"id":"639864806030200","from":{"id":"1108328257","name":"Kenji Le"},"message":"chau さん^ - ^\n辞書形は解る( わかる)\n君も最近日本語が上手になりましたね^ - ^","can_remove":false,"created_time":"2013-04-13T06:23:54+0000","like_count":0,"user_likes":false},"639877902695557":{"id":"639877902695557","from":{"id":"1693102459","name":"Châu Hoàng"},"message":"分かった！:)\nいいえ、まだですよ。もっと一生懸命頑張らなきゃ・・・ ^_^","can_remove":false,"created_time":"2013-04-13T07:24:53+0000","like_count":0,"user_likes":false},"639878636028817":{"id":"639878636028817","from":{"id":"1108328257","name":"Kenji Le"},"message":"明日日会話があるからね^ - ^","can_remove":false,"created_time":"2013-04-13T07:27:12+0000","like_count":0,"user_likes":false},"639879076028773":{"id":"639879076028773","from":{"id":"1693102459","name":"Châu Hoàng"},"message":"はい　:)","can_remove":false,"created_time":"2013-04-13T07:29:27+0000","like_count":0,"user_likes":false},"639879659362048":{"id":"639879659362048","from":{"id":"1108328257","name":"Kenji Le"},"message":"昼からね^ - ^\n会話のみ","can_remove":false,"created_time":"2013-04-13T07:33:39+0000","like_count":0,"user_likes":false},"639880416028639":{"id":"639880416028639","from":{"id":"1693102459","name":"Châu Hoàng"},"message":"夜はどうですか？会話がないか？","can_remove":false,"created_time":"2013-04-13T07:37:45+0000","like_count":0,"user_likes":false},"639881429361871":{"id":"639881429361871","from":{"id":"1108328257","name":"Kenji Le"},"message":"夜もやる予定けど、時間が空いたらね。","can_remove":false,"created_time":"2013-04-13T07:43:37+0000","like_count":1,"user_likes":false},"639881866028494":{"id":"639881866028494","from":{"id":"1693102459","name":"Châu Hoàng"},"message":"はい　:)","can_remove":false,"created_time":"2013-04-13T07:44:42+0000","like_count":1,"user_likes":false},"639890969360917":{"id":"639890969360917","from":{"id":"100003207550369","name":"Khoa Doan"},"message":"週末のに笑顔じゃないです。あした出勤なんだ。","can_remove":false,"created_time":"2013-04-13T08:22:37+0000","like_count":1,"user_likes":false},"639894702693877":{"id":"639894702693877","from":{"id":"1108328257","name":"Kenji Le"},"message":"Khoa Doan 残念ながら、また水曜日のよるだね。\n水曜日は読解からね。","message_tags":[{"id":"100003207550369","name":"Khoa Doan","type":"user","offset":0,"length":9}],"can_remove":false,"created_time":"2013-04-13T08:36:00+0000","like_count":1,"user_likes":false},"639895569360457":{"id":"639895569360457","from":{"id":"100003207550369","name":"Khoa Doan"},"message":"hai.matadesu.","can_remove":false,"created_time":"2013-04-13T08:40:50+0000","like_count":0,"user_likes":false}},"paging":{"cursors":{"after":"NjM5ODU4MjQ2MDMwODU2","before":"NjM5ODU4MjQ2MDMwODU2"},"next":"https://graph.facebook.com/229244010425617_639763306040350/comments?limit=1&summary=1&after=NjM5ODU4MjQ2MDMwODU2"},"summary":{"order":"chronological","total_count":13}}}