{"id":"229244010425617_643917765624904","type":"status","from":{"id":"100002761515610","name":"Hưng Lê"},"message":"Có bác nào giải thích giúp em cách phân biệt らしい，みたい，っぽい không ạ. Em đọc tài liệu mà khó hiểu quá","created_time":"2013-04-22T13:48:05+0000","updated_time":"2013-04-23T10:46:17+0000","likes":{"data":{"100001739865592":{"id":"100001739865592","name":"Tung Le"},"100001458099624":{"id":"100001458099624","name":"Kham Pha"},"1693102459":{"id":"1693102459","name":"Châu Hoàng"}},"paging":{"cursors":{"after":"MTAwMDAxNzM5ODY1NTky","before":"MTAwMDAxNzM5ODY1NTky"},"next":"https://graph.facebook.com/229244010425617_643917765624904/likes?limit=1&summary=1&after=MTAwMDAxNzM5ODY1NTky"},"summary":{"total_count":3}},"comments":{"data":{"643918482291499":{"id":"643918482291499","from":{"id":"100001458099624","name":"Kham Pha"},"message":"có trong danh mục bài học thì phải, bạn tìm thử xem.","can_remove":false,"created_time":"2013-04-22T13:49:59+0000","like_count":0,"user_likes":false},"643919968958017":{"id":"643919968958017","from":{"id":"1693102459","name":"Châu Hoàng"},"message":"https://www.facebook.com/groups/229244010425617/doc/593143747368973/\nhttp://www.facebook.com/groups/229244010425617/doc/639576646059016/\nみたい thì chưa có bài :3","can_remove":false,"created_time":"2013-04-22T13:53:51+0000","like_count":3,"user_likes":false},"643922352291112":{"id":"643922352291112","from":{"id":"100001458099624","name":"Kham Pha"},"message":"Có vẻ vấn đề vẫn chưa được giải quyết triệt để. Nói chung về vấn đề này anh cũng chỉ hiểu ở mức độ dùng được không bị sai chứ tổng hợp lại để viết cho mọi người hiểu thì phải sâu hơn và cần tổng hợp lại, chắc để bữa khác vậy. :)","can_remove":false,"created_time":"2013-04-22T14:01:17+0000","like_count":0,"user_likes":false},"643922665624414":{"id":"643922665624414","from":{"id":"1693102459","name":"Châu Hoàng"},"message":"dạ, em cần cái mục so sánh ấy :D vì cái này giống nhau quá, được dạy 2 3 lần rồi mà vẫn chưa thông được :D","can_remove":false,"created_time":"2013-04-22T14:02:09+0000","like_count":0,"user_likes":false},"643925545624126":{"id":"643925545624126","from":{"id":"100002761515610","name":"Hưng Lê"},"message":"Trong   日本語総まとめN3 文法có đưa ra các ví dụ và bài tập nữa, nhưng cách sử dụng sao cho chính xác thì vẫn còn amai lắm","can_remove":false,"created_time":"2013-04-22T14:10:55+0000","like_count":1,"user_likes":false},"643925805624100":{"id":"643925805624100","from":{"id":"1693102459","name":"Châu Hoàng"},"message":"Hưng Lê: ừ, lúc trước thì có hiểu chút ít, mà làm xong cái bt đó! xoàn luôn rồi :3","message_tags":[{"id":"100002761515610","name":"Hưng Lê","type":"user","offset":0,"length":7}],"can_remove":false,"created_time":"2013-04-22T14:11:44+0000","like_count":0,"user_likes":false},"643926338957380":{"id":"643926338957380","from":{"id":"100001458099624","name":"Kham Pha"},"message":"đọc lí thuyết là một đằng, còn giao tiếp với người Nhật sẽ giúp em cảm nhận được, dù nhiêuf khi không hiểu hết.","can_remove":false,"created_time":"2013-04-22T14:13:00+0000","like_count":0,"user_likes":false},"643927365623944":{"id":"643927365623944","from":{"id":"100001609833418","name":"Tsunami Hime"},"message":"rashii: có vẻ như (nghe từ người khác), ko phải nói thế này: thông tin ko đc confirm.\nmitai: cảm quan cá nhân là chính. Chữ mi trong đấy mình ngờ ngợ là từ chữ Kiến mà ra.","can_remove":false,"created_time":"2013-04-22T14:16:18+0000","like_count":0,"user_likes":false},"643928432290504":{"id":"643928432290504","from":{"id":"100001609833418","name":"Tsunami Hime"},"message":"nói chung là ai học tiếng anh thì cứ hình dung ra từ may, might ấy. đều nói về độ chắc chắn.\n(cái này lấy từ kinh nghiệm truyện tranh thui ạ)","can_remove":false,"created_time":"2013-04-22T14:19:26+0000","like_count":0,"user_likes":false},"643974588952555":{"id":"643974588952555","from":{"id":"1773169835","name":"Nguyễn Tuấn Hải"},"message":"Theo như em học N2 thì hiểu thế này:\n- Giống: cả 3 cái đều dùng để so sánh 1 thứ/người/điều gì đó với 1 thứ/người/điều khác.\n- Khác:\n--+ Rashii: dùng để so sánh 1 thứ A (từ giờ em dùng \"thứ\" cho dễ) gì đó với 1 thứ B khác, với ý nghĩa là cái thứ A có đặc điểm tiêu biểu của thứ B, thứ A là (hoặc \"gần như là\") B. Đặc biệt chú ý: A và B tuyệt đối có chung bản chất. \nVí dụ: hôm nay là 1 ngày mùa xuân, mình so sánh: \"ngày hôm nay đúng như là một ngày xuân vậy\" dùng rashii để nói rằng \"ngày hnay\" có những đặc điểm đúng với các đặc điểm tiêu biểu của \"ngày xuân\" như ấm áp, không khí trong lành, v.v và \"ngày hnay\" tiêu biểu cho ngày xuân hơn các ngày khác.\nVí dụ sai: so sánh 1 người phụ nữ \"cứ như đàn ông\", một ngày hè \"cứ như ngày xuân\", ... vì 2 thứ khác nhau về bản chất\n--+ Mitai: dùng để so sánh 1 thứ A với 1 thứ B, với ý nghĩa thứ A cứ như là B vậy, nhưng thực ra A không thể là B. Chú ý:  A tuyệt đối không cùng bản chất với B.\nVí dụ: \"anh ấy hành động cứ như là con gái vậy\", \"anh ấy\" không phải \"con gái\" nhưng lại bị so sánh giống y như \"con gái\"\nVí dụ sai: \"con chó bẹc-giê ấy (bé) như là chó phốc vậy\" vì 2 thứ đều cùng bản chất.\n--+ ppoi: dùng để so sánh 1 thứ A với 1 thứ B, với ý nghĩa mặc dù A và B trái nghĩa nhau, đối lập nhau nhưng A có nhiều đặc điểm của B, cách nói này nhấn mạnh cảm giác, sự đánh giá \"đặc biệt\" của người nói khi mà A không phải B nhưng lại rất giống B. \nVí dụ: \"đứa bé ấy già dặn, trầm tĩnh như người lớn vậy\", \"người lớn\" và \"đứa bé\" là 2 khái niệm trái ngược nhau","can_remove":false,"created_time":"2013-04-22T15:53:12+0000","like_count":5,"user_likes":false},"643980182285329":{"id":"643980182285329","from":{"id":"100001854133263","name":"Tuan Anh Le"},"message":"らしい là nghe từ ai đó và truyền đạt lại vs ng thứ 3. Còn みたい là 話し言葉.","can_remove":false,"created_time":"2013-04-22T16:03:53+0000","like_count":0,"user_likes":false},"643989562284391":{"id":"643989562284391","from":{"id":"100001609833418","name":"Tsunami Hime"},"message":"thế thì poi cũng là tiếng lóng mà","can_remove":false,"created_time":"2013-04-22T16:33:24+0000","like_count":0,"user_likes":false},"644132365603444":{"id":"644132365603444","from":{"id":"100001754136107","name":"Nguyễn Tuấn Vũ"},"message":"らしい：Dùng khi mình nghe từ 1 ai đó,dựa vào 1 nguồn thông tin  có sẵn.\nVD:天気予報からすると、雨が降るらしい。\nみたい：Nhìn sự vật hiện tượng mình đưa ra ý kiến của mình,mình phỏng đoán.\nVD:mình đang đi đường nhìn thấy một người ở xa\nあれは高校生みたい。\nTrong có vẻ hình như là học sinh cấp 3 thì phải.\nCòn っぽい：Thường dùng chỉ tính chất,tính cách là nhiều.\n彼は子供っぽい。\nAnh ta tính cách như trẻ con ấy","can_remove":false,"created_time":"2013-04-23T00:14:11+0000","like_count":1,"user_likes":false},"644226005594080":{"id":"644226005594080","from":{"id":"1108328257","name":"Kenji Le"},"message":"らしい , みたい、 っぽい\n3 từ này đều chung 1 ý la suy đoán \n\ncó vẻ; dường như; như là; có vẻ là \nあの子は高校生らしく見えますが\n子供もう三人いますね。残念ですね（＾∇＾）\ncon bé ấy nhìn có vẻ như la hoc sinh cấp 3 thôi vây mà đã có 3 con rồi. ôi tiếc quá \n\nあの人は日本から来たらしい \nngười đó hình như đến từ Nhật Bản \n\nみたい\n●Theo ngay sau một danh từ hay tính từ. \nGiống, giống như\n- 彼みたいに頭のよい人には会ったことがない \n- Tôi chưa thay ai thông minh như anh ta vậy. \n\n@@@  っぽい\nCung giong nhu cach dung :          ~のように感じる\nCảm thấy như là ~ ; Thấy như là ~\nうちの娘はまだ小学校生だが見た目は高校生っぽい\ncon bé nhà tôi mới chỉ là hoc sinh Trung học thôi nhung nhin bề ngoài có vẻ như là hoc sinh cấp 3 vây. \n\ncó thêm y nghia nua la: \n ~しやすい・よく~する(Dễ làm ~)\n接続 [動-ます形]+っぽい\nお父さんは怒りっぽいけれど、本当は優しい人です。\nBa tôi là người dễ nổi nóng nhưng thực ra là người rất hiền lành","can_remove":false,"created_time":"2013-04-23T05:36:05+0000","like_count":3,"user_likes":false},"644292482254099":{"id":"644292482254099","from":{"id":"100002761515610","name":"Hưng Lê"},"message":"Giải thích như Nguyễn Tuấn Hải rất dễ hiểu. Thanks","can_remove":false,"created_time":"2013-04-23T10:46:17+0000","like_count":0,"user_likes":false}},"paging":{"cursors":{"after":"NjQzOTE4NDgyMjkxNDk5","before":"NjQzOTE4NDgyMjkxNDk5"},"next":"https://graph.facebook.com/229244010425617_643917765624904/comments?limit=1&summary=1&after=NjQzOTE4NDgyMjkxNDk5"},"summary":{"order":"chronological","total_count":15}}}