{"id":"229244010425617_644465748903439","type":"status","from":{"id":"100003269119870","name":"Emi Phạm"},"message":"Chao moi ng .minh moi hoc toi bai 37 so cap .ma thag 7 nnay minh thi n4 .k biet co dc k nua .mhug minh se co gag .minh mog moi ng co the giup minh cug nhau hoc .tai minh hoc con yeu lam. Mog moi ng chj jao .arigato mina","created_time":"2013-04-23T17:57:26+0000","updated_time":"2013-04-24T05:31:13+0000","likes":{"data":{"100001860545626":{"id":"100001860545626","name":"Phạm Anh Tú"},"100003312527085":{"id":"100003312527085","name":"Ngat Pro"},"100002265193557":{"id":"100002265193557","name":"Gấu Mó"},"100004598884829":{"id":"100004598884829","name":"Ro Bin Son"},"100001695345798":{"id":"100001695345798","name":"Tyn Aki"}},"paging":{"cursors":{"after":"MTAwMDAxODYwNTQ1NjI2","before":"MTAwMDAxODYwNTQ1NjI2"},"next":"https://graph.facebook.com/229244010425617_644465748903439/likes?limit=1&summary=1&after=MTAwMDAxODYwNTQ1NjI2"},"summary":{"total_count":5}},"comments":{"data":{"644599672223380":{"id":"644599672223380","from":{"id":"100001754136107","name":"Nguyễn Tuấn Vũ"},"message":"dc ban,n4 la hoc xong quyen bai 25 la ok","can_remove":false,"created_time":"2013-04-24T01:34:51+0000","like_count":0,"user_likes":false},"644600245556656":{"id":"644600245556656","from":{"id":"100003269119870","name":"Emi Phạm"},"message":"Phai k .sao minh nghe co noi la co phan kinh ngu cua bai 49 nua .ma minh hoc toi giua thag 7 moi toi bai do .ma dau thag 7 thi mat tiu ui","can_remove":false,"created_time":"2013-04-24T01:37:33+0000","like_count":0,"user_likes":false},"644612502222097":{"id":"644612502222097","from":{"id":"100003312527085","name":"Ngat Pro"},"message":"Yen tam.neu ban nam Chac kien Thuc Thi Sẽ do dc.minh hoc Toi bai 50 Thi n3 cung do ma.hi","can_remove":false,"created_time":"2013-04-24T02:20:26+0000","like_count":1,"user_likes":false},"644618438888170":{"id":"644618438888170","from":{"id":"100003269119870","name":"Emi Phạm"},"message":"Nghe noi jo thi kho lam .hjx .mina chi jao dum minh nhe","can_remove":false,"created_time":"2013-04-24T02:42:09+0000","like_count":0,"user_likes":false},"644645028885511":{"id":"644645028885511","from":{"id":"1693102459","name":"Châu Hoàng"},"message":"tự xem trước cấu trúc ngữ pháp cũng được mà bạn :)\ncứ nắm kĩ 50 bài sách mina thì mình nghĩ là ổn :)\nđợt tháng 12 năm ngoái đề ra tập trung ở bài 36 đó :)","can_remove":false,"created_time":"2013-04-24T04:37:37+0000","like_count":1,"user_likes":false},"644649775551703":{"id":"644649775551703","from":{"id":"100003312527085","name":"Ngat Pro"},"message":"thang 12 nam ngoai minh thi khi moi chi hoc het 50 bai","can_remove":false,"created_time":"2013-04-24T04:58:29+0000","like_count":0,"user_likes":false},"644650568884957":{"id":"644650568884957","from":{"id":"100003269119870","name":"Emi Phạm"},"message":"Hoc het 50 bai da do .minh thi khi chua het 50 bai do","can_remove":false,"created_time":"2013-04-24T05:02:18+0000","like_count":0,"user_likes":false},"644651672218180":{"id":"644651672218180","from":{"id":"100003312527085","name":"Ngat Pro"},"message":"nhung minh la thi N3,con ban la N4 dung ko?","can_remove":false,"created_time":"2013-04-24T05:07:08+0000","like_count":0,"user_likes":false},"644651792218168":{"id":"644651792218168","from":{"id":"1693102459","name":"Châu Hoàng"},"message":"Koi Zoro: chỉ vừa học hết 50 mà thi đỗ, bạn thật sugoi ^_^","message_tags":[{"id":"100003312527085","name":"Koi Zoro","type":"user","offset":0,"length":8}],"can_remove":false,"created_time":"2013-04-24T05:07:37+0000","like_count":1,"user_likes":false},"644652282218119":{"id":"644652282218119","from":{"id":"100003312527085","name":"Ngat Pro"},"message":"he,t ko biet co sugoi hay ko,nhung ma cu nam chac kien thuc thi t tin cung co the do dc","can_remove":false,"created_time":"2013-04-24T05:09:05+0000","like_count":2,"user_likes":false},"644652735551407":{"id":"644652735551407","from":{"id":"100003269119870","name":"Emi Phạm"},"message":"thi dau n3 lun .bn gioi thiet do","can_remove":false,"created_time":"2013-04-24T05:09:46+0000","like_count":1,"user_likes":false},"644653035551377":{"id":"644653035551377","from":{"id":"100001754136107","name":"Nguyễn Tuấn Vũ"},"message":"Hetb50 bai thi n3 đc ma","can_remove":false,"created_time":"2013-04-24T05:10:19+0000","like_count":1,"user_likes":false},"644653655551315":{"id":"644653655551315","from":{"id":"1693102459","name":"Châu Hoàng"},"message":"em thấy sách ôn N3 toàn cấu trúc lạ, có giống 2 cuốn mina =)))","can_remove":false,"created_time":"2013-04-24T05:13:22+0000","like_count":0,"user_likes":false},"644653918884622":{"id":"644653918884622","from":{"id":"100001754136107","name":"Nguyễn Tuấn Vũ"},"message":"Đâu,đấy là n2va n3 rui e","can_remove":false,"created_time":"2013-04-24T05:14:21+0000","like_count":0,"user_likes":false},"644657702217577":{"id":"644657702217577","from":{"id":"1693102459","name":"Châu Hoàng"},"message":"ôh rứa àh :3","can_remove":false,"created_time":"2013-04-24T05:31:13+0000","like_count":0,"user_likes":false}},"paging":{"cursors":{"after":"NjQ0NTk5NjcyMjIzMzgw","before":"NjQ0NTk5NjcyMjIzMzgw"},"next":"https://graph.facebook.com/229244010425617_644465748903439/comments?limit=1&summary=1&after=NjQ0NTk5NjcyMjIzMzgw"},"summary":{"order":"chronological","total_count":15}}}