{"id":"229244010425617_646057075410973","type":"status","from":{"id":"100002279693302","name":"Không Ai"},"message":"Các a chị biết cách nào học bảng chữ cái nhanh thuộc k ạ","created_time":"2013-04-27T15:49:42+0000","updated_time":"2013-05-01T08:57:14+0000","likes":{"data":{"1847924763":{"id":"1847924763","name":"Ho Thu Ha"}},"paging":{"cursors":{"after":"MTg0NzkyNDc2Mw==","before":"MTg0NzkyNDc2Mw=="}},"summary":{"total_count":2}},"comments":{"data":{"646057735410907":{"id":"646057735410907","from":{"id":"1693102459","name":"Châu Hoàng"},"message":"bữa nay có nhiều phần mềm học bảng chữ cái trên mạng ấy :) down về học cho mau nhớ :)\nmà bảng chữ cái thì nên áp dụng phương pháp \"mưa dầm thấm lâu\" là tốt nhất :)","can_remove":false,"created_time":"2013-04-27T15:51:00+0000","like_count":0,"user_likes":false},"646058705410810":{"id":"646058705410810","from":{"id":"100000969905909","name":"Shady Su"},"message":"Bạn chép hết bảng chữ ra 1 từ giấy rồi lựa 1 bài hát nhật xem lyric romanji rồi chép lại . Áp dụng sau khi đã học qua 1 lượt bảng chữ cái . Cho cả katakana và hiragana .","can_remove":false,"created_time":"2013-04-27T15:53:58+0000","like_count":1,"user_likes":false},"646059822077365":{"id":"646059822077365","from":{"id":"100004123294724","name":"Hà CHíp"},"message":"học thì thuộc thôi","can_remove":false,"created_time":"2013-04-27T15:56:51+0000","like_count":0,"user_likes":false},"646060028744011":{"id":"646060028744011","from":{"id":"100000969905909","name":"Shady Su"},"message":"^","can_remove":false,"created_time":"2013-04-27T15:57:26+0000","like_count":0,"user_likes":false},"646060072077340":{"id":"646060072077340","from":{"id":"100000969905909","name":"Shady Su"},"message":"Câu trên chuẩn nhất đấy :D:D\nư","can_remove":false,"created_time":"2013-04-27T15:57:34+0000","like_count":0,"user_likes":false},"646061782077169":{"id":"646061782077169","from":{"id":"100002279693302","name":"Không Ai"},"message":"E kảm ơn. Nhưng kai chữ hán khó quá","can_remove":false,"created_time":"2013-04-27T16:02:33+0000","like_count":0,"user_likes":false},"646061915410489":{"id":"646061915410489","from":{"id":"100000969905909","name":"Shady Su"},"message":"chữ hán làm j có bảng chữ cái bạn ơi =))","can_remove":false,"created_time":"2013-04-27T16:02:59+0000","like_count":4,"user_likes":false},"646249568725057":{"id":"646249568725057","from":{"id":"100003312527085","name":"Ngat Pro"},"message":"Mo sach ra.tim nhung doan van Đởn gian.doc nhieu Lan cho du k hieu nghĩa.ke ca Chu kanji thi tren đầu no cung co hiragana neu La so cap","can_remove":false,"created_time":"2013-04-28T01:56:22+0000","like_count":1,"user_likes":false},"647030835313597":{"id":"647030835313597","from":{"id":"100004566972183","name":"Tsuyoshi Ta"},"message":"nhanh thuộc chỉ có cách chép giấy, trong lúc chép để ý chút để phân biệt mấy chữ có nét tương đồng là nhớ nhanh và lâu nhất.","can_remove":false,"created_time":"2013-04-29T15:06:15+0000","like_count":0,"user_likes":false},"647031168646897":{"id":"647031168646897","from":{"id":"100004123294724","name":"Hà CHíp"},"message":"t thì chỉ sợ chữ hán.. :(","can_remove":false,"created_time":"2013-04-29T15:06:54+0000","like_count":1,"user_likes":false},"647035808646433":{"id":"647035808646433","from":{"id":"100004123294724","name":"Hà CHíp"},"message":"khó lắm :(... mà n3 cần học chữ hán đến bài bao nhiêu vậy bạn?","can_remove":false,"created_time":"2013-04-29T15:16:19+0000","like_count":0,"user_likes":false},"647036495313031":{"id":"647036495313031","from":{"id":"100004566972183","name":"Tsuyoshi Ta"},"message":"bạn học theo giáo trình đó, nếu học gt minna thi ban học trong cuốn dokkai đó, chia đủ ra 50 bài, mỗi tuần bạn học một bài là đủ, khoảng 10 từ một bài àh","can_remove":false,"created_time":"2013-04-29T15:17:37+0000","like_count":0,"user_likes":false},"647036888646325":{"id":"647036888646325","from":{"id":"1693102459","name":"Châu Hoàng"},"message":"Tsuyoshi Ta: đọc mà còn chữ furigara ở trên, con mắt cứ chăm chăm chữ ở trên rồi đọc :3 khổ :3","message_tags":[{"id":"100004566972183","name":"Tsuyoshi Ta","type":"user","offset":0,"length":11}],"can_remove":false,"created_time":"2013-04-29T15:18:34+0000","like_count":0,"user_likes":false},"647036945312986":{"id":"647036945312986","from":{"id":"100004123294724","name":"Hà CHíp"},"message":"vâng.... tks bạn","can_remove":false,"created_time":"2013-04-29T15:18:42+0000","like_count":0,"user_likes":false},"647037471979600":{"id":"647037471979600","from":{"id":"100004566972183","name":"Tsuyoshi Ta"},"message":"vd kanji: chữ Giáng 降 gồm bộ  阝(bộ PHỤ) nghĩa là đồi núi, 夂 (bộ TRỈ) nghĩa là bàn chân trái, ヰ là hình ảnh bàn chân phải => một người đi xuống núi => đi xuống thì gọi là Giáng,","can_remove":false,"created_time":"2013-04-29T15:20:15+0000","like_count":1,"user_likes":false},"647037895312891":{"id":"647037895312891","from":{"id":"100004123294724","name":"Hà CHíp"},"message":"mấy cái hình ảnh.. nhìn vào cũng dễ nhớ...","can_remove":false,"created_time":"2013-04-29T15:21:32+0000","like_count":0,"user_likes":false},"647038885312792":{"id":"647038885312792","from":{"id":"100004566972183","name":"Tsuyoshi Ta"},"message":"Châu Hoàng: thì bạn phải chăm vào, học tiếng NHẬT chỉ khó ở mỗi cái Kanji, chứ YOshi thấy dễ hơn tiếng Anh nhiều lắm.\nvd khi học bảng Hiragana chép giấy để ý chữ chút xíu là được: vd phân biệt hai chữ nu ぬ và me め: chữ nu: ぬ là con chó đang nằm vắt đuôi sang bên phải (inu: chó), me là hình ảnh của con mắt め (me: mắt)","can_remove":false,"created_time":"2013-04-29T15:24:37+0000","like_count":1,"user_likes":false},"647039138646100":{"id":"647039138646100","from":{"id":"100004123294724","name":"Hà CHíp"},"message":"hay ghê.. sao mình ko biết nhỉ","can_remove":false,"created_time":"2013-04-29T15:25:29+0000","like_count":0,"user_likes":false},"647039265312754":{"id":"647039265312754","from":{"id":"100004566972183","name":"Tsuyoshi Ta"},"message":"vd: ね là hình con mèo đang ngồi (neko: mèo)","can_remove":false,"created_time":"2013-04-29T15:25:44+0000","like_count":0,"user_likes":false},"647039395312741":{"id":"647039395312741","from":{"id":"1693102459","name":"Châu Hoàng"},"message":"thật ra mình cũng thích tiếng Nhật hơn tiếng Anh, vì Nhật có nhiều nét tương đồng với mình hơn :)","can_remove":false,"created_time":"2013-04-29T15:26:00+0000","like_count":0,"user_likes":false},"647039621979385":{"id":"647039621979385","from":{"id":"100004123294724","name":"Hà CHíp"},"message":"do mình tưởng tượng hay ntn thế Tsuyoshi Ta","message_tags":[{"id":"100004566972183","name":"Tsuyoshi Ta","type":"user","offset":32,"length":11}],"can_remove":false,"created_time":"2013-04-29T15:26:26+0000","like_count":0,"user_likes":false},"647040048646009":{"id":"647040048646009","from":{"id":"1693102459","name":"Châu Hoàng"},"message":"bảng chữ cái tượng hình do người Nhật tưởng tượng ra, Kanji thì 1 phần nhờ TQ nữa Ha Sakura :)","message_tags":[{"id":"100004123294724","name":"Ha Sakura","type":"user","offset":82,"length":9}],"can_remove":false,"created_time":"2013-04-29T15:27:31+0000","like_count":2,"user_likes":false},"647040545312626":{"id":"647040545312626","from":{"id":"100004123294724","name":"Hà CHíp"},"message":"mình cũng mới học thôi... nhưng toàn học thuộc 2 bảng.. chứ ko có học theo kiểu chữ tượng hình nè","can_remove":false,"created_time":"2013-04-29T15:29:01+0000","like_count":0,"user_likes":false},"647040701979277":{"id":"647040701979277","from":{"id":"1693102459","name":"Châu Hoàng"},"message":"ở trên mạng tài liệu nhiều lắm :)","can_remove":false,"created_time":"2013-04-29T15:29:42+0000","like_count":0,"user_likes":false},"647040908645923":{"id":"647040908645923","from":{"id":"1693102459","name":"Châu Hoàng"},"message":"bạn tìm thì đôi lúc có nhiều file học dễ nhớ nữa :)","can_remove":false,"created_time":"2013-04-29T15:30:00+0000","like_count":0,"user_likes":false},"647041045312576":{"id":"647041045312576","from":{"id":"100004123294724","name":"Hà CHíp"},"message":"nhưng máy tíh nhà mìh chưa cài phần mềm tiếng Nhật..","can_remove":false,"created_time":"2013-04-29T15:30:28+0000","like_count":0,"user_likes":false},"647041278645886":{"id":"647041278645886","from":{"id":"1693102459","name":"Châu Hoàng"},"message":"vậy thì phải cài ngay thôi, k có font tiếng Nhật thì bất tiện lắm :)","can_remove":false,"created_time":"2013-04-29T15:31:13+0000","like_count":0,"user_likes":false},"647041311979216":{"id":"647041311979216","from":{"id":"100004123294724","name":"Hà CHíp"},"message":"bạn đã học trang nào chưa...","can_remove":false,"created_time":"2013-04-29T15:31:18+0000","like_count":0,"user_likes":false},"647041748645839":{"id":"647041748645839","from":{"id":"100000548197209","name":"Move Forward"},"message":"mấy bạn siêu thật, mấy cái thông tin này thì mình chịu","can_remove":false,"created_time":"2013-04-29T15:32:45+0000","like_count":0,"user_likes":false},"647041881979159":{"id":"647041881979159","from":{"id":"100004123294724","name":"Hà CHíp"},"message":"oh đúng oy.. cực kì bất tiện ấy chữ... nhìn máy tính toàn ô vuông nhỏ.. chẳng thấy chữ Nhật đâu","can_remove":false,"created_time":"2013-04-29T15:33:09+0000","like_count":0,"user_likes":false},"647042031979144":{"id":"647042031979144","from":{"id":"1693102459","name":"Châu Hoàng"},"message":"Move Forward: Thuận học kanji ổn lắm mà! :)","message_tags":[{"id":"100000548197209","name":"Move Forward","type":"user","offset":0,"length":12}],"can_remove":false,"created_time":"2013-04-29T15:33:42+0000","like_count":0,"user_likes":false},"647042855312395":{"id":"647042855312395","from":{"id":"100000548197209","name":"Move Forward"},"message":"Châu Hoàng uh cũng tạm, nhưng mà nguồn gốc rõ ràng như thế này thì ko biết rõ","message_tags":[{"id":"1693102459","name":"Châu Hoàng","type":"user","offset":0,"length":10}],"can_remove":false,"created_time":"2013-04-29T15:36:10+0000","like_count":0,"user_likes":false},"647043535312327":{"id":"647043535312327","from":{"id":"1693102459","name":"Châu Hoàng"},"message":"Move Forward: đỡ hơn mình biết mà k học vô à :)","message_tags":[{"id":"100000548197209","name":"Move Forward","type":"user","offset":0,"length":12}],"can_remove":false,"created_time":"2013-04-29T15:38:49+0000","like_count":0,"user_likes":false},"647044095312271":{"id":"647044095312271","from":{"id":"100000548197209","name":"Move Forward"},"message":"tức là Châu nhanh quên hả? nếu vậy thì có lẽ tiếp xúc nhiều hơn thì sẽ nhớ thôi mà, cái gì cũng cần thơi gian mà","can_remove":false,"created_time":"2013-04-29T15:40:45+0000","like_count":1,"user_likes":false},"647047195311961":{"id":"647047195311961","from":{"id":"1693102459","name":"Châu Hoàng"},"message":"ừ, hy vọng như thế :)","can_remove":false,"created_time":"2013-04-29T15:48:08+0000","like_count":0,"user_likes":false},"647047488645265":{"id":"647047488645265","from":{"id":"100004566972183","name":"Tsuyoshi Ta"},"message":"học Kanji = học văn hóa, vui thì sẽ nhớ lâu, mọi nguời hãy. cố gắng!! (^-^;","can_remove":false,"created_time":"2013-04-29T15:48:48+0000","like_count":2,"user_likes":false},"647048078645206":{"id":"647048078645206","from":{"id":"100004123294724","name":"Hà CHíp"},"message":"úi zơi ơi.. học lại còn biết thêm cả truyền thuyết lịch sử nữa thế này thì.. very...very good","can_remove":false,"created_time":"2013-04-29T15:50:23+0000","like_count":3,"user_likes":false},"647515888598425":{"id":"647515888598425","from":{"id":"100003649584679","name":"Duy Nguyễn"},"message":"Mua quyển từ điển Nhật-Việt về hox theo trong đấy là ok .","can_remove":false,"created_time":"2013-04-30T14:41:25+0000","like_count":0,"user_likes":false},"647515928598421":{"id":"647515928598421","from":{"id":"100003649584679","name":"Duy Nguyễn"},"message":"Mua quyển từ điển Nhật-Việt về hox theo trong đấy là ok .","can_remove":false,"created_time":"2013-04-30T14:41:32+0000","like_count":0,"user_likes":false},"647944358555578":{"id":"647944358555578","from":{"id":"100004566972183","name":"Tsuyoshi Ta"},"message":"dành cho bạn nè, bảng chữ cái :)\nhttp://www.youtube.com/watch?v=i5B6J5ynKUo","can_remove":false,"created_time":"2013-05-01T08:57:14+0000","like_count":2,"user_likes":false}},"paging":{"cursors":{"after":"NjQ2MDU3NzM1NDEwOTA3","before":"NjQ2MDU3NzM1NDEwOTA3"},"next":"https://graph.facebook.com/229244010425617_646057075410973/comments?limit=1&summary=1&after=NjQ2MDU3NzM1NDEwOTA3"},"summary":{"order":"chronological","total_count":40}}}