{"id":"229244010425617_646896841993663","type":"status","from":{"id":"100003669292626","name":"Nhok Xinh"},"message":"皆さん。。。　こんにちわ！\n自己紹介します。\nKim anhと申します。\n友達からはKimと呼ばれています。\n１９９２年生まれで、BacNinh出身です。\nどうぞ宜しくお願いします！","created_time":"2013-04-29T08:35:33+0000","updated_time":"2013-04-29T09:12:31+0000","likes":{"data":{"100000198219367":{"id":"100000198219367","name":"Chang Jiang"},"100003312527085":{"id":"100003312527085","name":"Ngat Pro"},"100000477123186":{"id":"100000477123186","name":"Đạt Mèo"},"100001458099624":{"id":"100001458099624","name":"Kham Pha"},"100004241019333":{"id":"100004241019333","name":"Linda Evans"},"100002676859353":{"id":"100002676859353","name":"Chu Quang Viên"},"100002425288918":{"id":"100002425288918","name":"Kira Chiến ND"},"100001695345798":{"id":"100001695345798","name":"Tyn Aki"},"100004269522244":{"id":"100004269522244","name":"Shin Bon Bon"}},"paging":{"cursors":{"after":"MTAwMDAwMTk4MjE5MzY3","before":"MTAwMDAwMTk4MjE5MzY3"},"next":"https://graph.facebook.com/229244010425617_646896841993663/likes?limit=1&summary=1&after=MTAwMDAwMTk4MjE5MzY3"},"summary":{"total_count":9}},"comments":{"data":{"646899468660067":{"id":"646899468660067","from":{"id":"100002425288918","name":"Kira Chiến ND"},"message":"BacNinh のどこか。おれの出身もBacninhだよ。","can_remove":false,"created_time":"2013-04-29T08:48:37+0000","like_count":2,"user_likes":false},"646900198659994":{"id":"646900198659994","from":{"id":"100003669292626","name":"Nhok Xinh"},"message":"本当ですか？Que Vo~ですよ。あなたは？","can_remove":false,"created_time":"2013-04-29T08:51:40+0000","like_count":1,"user_likes":false},"646902191993128":{"id":"646902191993128","from":{"id":"100002676859353","name":"Chu Quang Viên"},"message":"Tao biết em này :v","can_remove":false,"created_time":"2013-04-29T09:01:04+0000","like_count":0,"user_likes":false},"646902301993117":{"id":"646902301993117","from":{"id":"100002425288918","name":"Kira Chiến ND"},"message":"うん。おれはGiaBinh ：D 日本ですんでいるの。働くの？","can_remove":false,"created_time":"2013-04-29T09:01:32+0000","like_count":0,"user_likes":false},"646902348659779":{"id":"646902348659779","from":{"id":"100002425288918","name":"Kira Chiến ND"},"message":":3 ai day Vien. mie, ai cung biet. :3","can_remove":false,"created_time":"2013-04-29T09:01:49+0000","like_count":1,"user_likes":false},"646902578659756":{"id":"646902578659756","from":{"id":"100002676859353","name":"Chu Quang Viên"},"message":"Kira Chiến ND: à,cái này chỉ là tớ biết em này thôi,xinh phết đấy,còn em ấy ko biết tớ đâu,tớ biết vì em ấy tham gia diễn đàn tiếng Nhật với tớ mà,mà em ấy học tiếng Nhật chứ có làm việc ở nhật đâu :-/","message_tags":[{"id":"100002425288918","name":"Kira Chiến ND","type":"user","offset":0,"length":13}],"can_remove":false,"created_time":"2013-04-29T09:03:14+0000","like_count":0,"user_likes":false},"646902941993053":{"id":"646902941993053","from":{"id":"100002425288918","name":"Kira Chiến ND"},"message":"Masamune Độc Hành the ah, vua xem wall, thay 1 cai anh dang ngoi lam vc :D sao tren doi nhieu em xinh vay. minh thi lai la ban than, ban tri ky cua FA :))","message_tags":[{"id":"100002676859353","name":"Masamune Độc Hành","type":"user","offset":0,"length":17}],"can_remove":false,"created_time":"2013-04-29T09:04:19+0000","like_count":1,"user_likes":false},"646903481992999":{"id":"646903481992999","from":{"id":"100002676859353","name":"Chu Quang Viên"},"message":"nghe thuyết đánh đồn có địch của Viên chưa :3 nghe rồi thì làm đi :v","can_remove":false,"created_time":"2013-04-29T09:06:42+0000","like_count":0,"user_likes":false},"646903595326321":{"id":"646903595326321","from":{"id":"100002425288918","name":"Kira Chiến ND"},"message":"ko. t k ap dung ly thuyet day cua cau dau :v","can_remove":false,"created_time":"2013-04-29T09:07:17+0000","like_count":0,"user_likes":false},"646903661992981":{"id":"646903661992981","from":{"id":"100002676859353","name":"Chu Quang Viên"},"message":"mà thi FE ngon hay sao mà thấy lên mạng chém gái ác vậy :D","can_remove":false,"created_time":"2013-04-29T09:07:56+0000","like_count":0,"user_likes":false},"646903751992972":{"id":"646903751992972","from":{"id":"100002676859353","name":"Chu Quang Viên"},"message":"cậu thấy cái bạn Huệ ngồi trên bọn mình hôm đi ngoại ngữ chứ,đc đấy :D Ari Tran ý :v","can_remove":false,"created_time":"2013-04-29T09:08:43+0000","like_count":0,"user_likes":false},"646903758659638":{"id":"646903758659638","from":{"id":"100002425288918","name":"Kira Chiến ND"},"message":"mie, bno ve que het, gio dang ngoi 1 minh tren nay, xem phim vs an keo, ngoi quat va onl fb suot tu dem hqua den gio. chan' nhu con cua con gian","can_remove":false,"created_time":"2013-04-29T09:08:44+0000","like_count":1,"user_likes":false},"646903958659618":{"id":"646903958659618","from":{"id":"100002676859353","name":"Chu Quang Viên"},"message":"rảnh cài rom tiếng việt cho cái trang nhà tớ với,nó vẫn ở HN đấy :D","can_remove":false,"created_time":"2013-04-29T09:09:21+0000","like_count":0,"user_likes":false},"646903971992950":{"id":"646903971992950","from":{"id":"100002425288918","name":"Kira Chiến ND"},"message":"uhm, hom sang truong minh la Hue di 1 couple vs ban Lii day.","can_remove":false,"created_time":"2013-04-29T09:09:21+0000","like_count":1,"user_likes":false},"646904001992947":{"id":"646904001992947","from":{"id":"100002425288918","name":"Kira Chiến ND"},"message":"ok ok","can_remove":false,"created_time":"2013-04-29T09:09:32+0000","like_count":0,"user_likes":false},"646904125326268":{"id":"646904125326268","from":{"id":"100002425288918","name":"Kira Chiến ND"},"message":"ma ko phai, Ari Tran cung ten la Hue ah, ari tran la e ao ke xanh bit mieng ah","can_remove":false,"created_time":"2013-04-29T09:10:09+0000","like_count":1,"user_likes":false},"646904218659592":{"id":"646904218659592","from":{"id":"100002676859353","name":"Chu Quang Viên"},"message":"ừ,em ấy tên là Huê,vừa tìm đc hôm trước :v search nhanh ko :v","can_remove":false,"created_time":"2013-04-29T09:10:36+0000","like_count":0,"user_likes":false},"646904345326246":{"id":"646904345326246","from":{"id":"100002425288918","name":"Kira Chiến ND"},"message":"uhm, 1 iem nua cung ten Hue, noi chung cac e xinh, chat. nhung ma minh ngắm thoi","can_remove":false,"created_time":"2013-04-29T09:11:25+0000","like_count":1,"user_likes":false},"646904418659572":{"id":"646904418659572","from":{"id":"100002676859353","name":"Chu Quang Viên"},"message":"tớ nghĩ bọn mình đang spam diễn đàn =))","can_remove":false,"created_time":"2013-04-29T09:11:58+0000","like_count":0,"user_likes":false},"646904478659566":{"id":"646904478659566","from":{"id":"100002425288918","name":"Kira Chiến ND"},"message":"1","can_remove":false,"created_time":"2013-04-29T09:12:31+0000","like_count":0,"user_likes":false}},"paging":{"cursors":{"after":"NjQ2ODk5NDY4NjYwMDY3","before":"NjQ2ODk5NDY4NjYwMDY3"},"next":"https://graph.facebook.com/229244010425617_646896841993663/comments?limit=1&summary=1&after=NjQ2ODk5NDY4NjYwMDY3"},"summary":{"order":"chronological","total_count":20}}}