{"id":"229244010425617_646900971993250","type":"status","from":{"id":"100004373644702","name":"Thanh Phuong"},"message":"mọi người ơi. cho mình hỏi có trò chơi nào hỗ trợ việc học tiếng nhật bản không??","created_time":"2013-04-29T08:55:26+0000","updated_time":"2013-05-11T08:03:36+0000","likes":{"data":{"1693102459":{"id":"1693102459","name":"Châu Hoàng"},"100001458099624":{"id":"100001458099624","name":"Kham Pha"},"100002676859353":{"id":"100002676859353","name":"Chu Quang Viên"}},"paging":{"cursors":{"after":"MTY5MzEwMjQ1OQ==","before":"MTY5MzEwMjQ1OQ=="},"next":"https://graph.facebook.com/229244010425617_646900971993250/likes?limit=1&summary=1&after=MTY5MzEwMjQ1OQ%3D%3D"},"summary":{"total_count":3}},"comments":{"data":{"646903228659691":{"id":"646903228659691","from":{"id":"100002676859353","name":"Chu Quang Viên"},"message":"hỗ trợ học tiếng nhật ở mức độ nào,mức basic là mức mới học chữ thì làm mấy cái flash card 2 mặt ra,rồi chơi đoán chữ,còn nếu học ngữ pháp thì nói theo chủ đề,vừa kaiwa vừa nhớ ngữ pháp,học kanji thì cũng làm card 2 mặt ra mà đoán chữ thôi","can_remove":false,"created_time":"2013-04-29T09:05:19+0000","like_count":0,"user_likes":false},"646915878658426":{"id":"646915878658426","from":{"id":"100004373644702","name":"Thanh Phuong"},"message":"mới học bạn ak. làm flash card như thế nào vậy?","can_remove":false,"created_time":"2013-04-29T10:09:13+0000","like_count":0,"user_likes":false},"647420251941322":{"id":"647420251941322","from":{"id":"100000198219367","name":"Chang Jiang"},"message":"còn tuỳ mức độ, và còn tuỳ bạn học phần nào: nghe đọc hay viết? :D","can_remove":false,"created_time":"2013-04-30T12:02:41+0000","like_count":0,"user_likes":false},"652533448096669":{"id":"652533448096669","from":{"id":"100004373644702","name":"Thanh Phuong"},"message":"mình ko hình dung được nó thế nào nữa Chang Jiang ak? :'(","message_tags":[{"id":"100000198219367","name":"Chang Jiang","type":"user","offset":38,"length":11}],"can_remove":false,"created_time":"2013-05-11T08:03:02+0000","like_count":0,"user_likes":false},"652533574763323":{"id":"652533574763323","from":{"id":"100004373644702","name":"Thanh Phuong"},"message":"mình sẽ xem cảm ơn Cô Gái Xấu Xí !","message_tags":[{"id":"100005409154758","name":"Cô Gái Xấu Xí","type":"user","offset":19,"length":13}],"can_remove":false,"created_time":"2013-05-11T08:03:36+0000","like_count":0,"user_likes":false}},"paging":{"cursors":{"after":"NjQ2OTAzMjI4NjU5Njkx","before":"NjQ2OTAzMjI4NjU5Njkx"},"next":"https://graph.facebook.com/229244010425617_646900971993250/comments?limit=1&summary=1&after=NjQ2OTAzMjI4NjU5Njkx"},"summary":{"order":"chronological","total_count":5}}}