{"id":"229244010425617_648025625214118","type":"status","from":{"id":"100000383155614","name":"Phạm Thúc Hưng"},"message":"Bài 102 : (abc)～がちだ／～がちの\n\nCấu trúc ngữ pháp : Danh từ / Động từ bỏ ます + がちだ／がちの. \n\n(Lưu ý : cấu trúc này chỉ đi với danh từ, còn động từ ở thì phải bỏ ます trong thể ます, trong nhiều cấu trúc ngữ pháp, chắc hẳn các bạn đều nhận ra có lúc động từ chia ở thể từ điển, thể quá khứ, thể lịch sự sẽ dẫn đến các ý nghĩa khác nhau, nên mình muốn các bạn để ý thêm ở chỗ này).\n\nÝ nghĩa : có xu hướng (abc), việc (abc) được làm nhiều, xảy ra nhiều lần.\nCấu trúc ngữ pháp ở N3 tương đương : ～することが多い・～しやすい\nNói ý nghĩa kiểu này chắc là khó hiểu nên mọi người cùng xem một vài ví dụ nhé.\n\n例：\n１．あいつは最近、授業をサボりがちだ。\n       Dạo này hắn ta hay bỏ học ấy.\n\n 2.   母は病気がちなので、あまり働けない。\n      Mẹ hay ốm nên chẳng làm việc được mấy.\n\n 3.  あいつはエッチがちだ。\n　　Thằng kia trông dâm dâm vãi.\n\nVà thêm một CHÚ Ý quan trọng là : mẫu câu này dùng với ý nghĩa xấu, mà người Nhật rất tránh nói xấu trực tiếp nhau, nên tốt hơn hết nếu dùng thì mọi người nhớ để ý xem đứa bị nói tới có ở gần đấy ko, nếu có thì nhớ nói giảm nói tránh tí nhé.\n\nCấu trúc này ngày xưa mình học trong lúc ôn thi N2 (hình như cũng có trong N3), nên nếu ôn thi thì các bạn chú ý về nghĩa và cách dùng của nó nhé.\n\n(Hưng)","created_time":"2013-05-01T13:25:12+0000","updated_time":"2013-05-02T17:41:59+0000","likes":{"data":{"100002567105508":{"id":"100002567105508","name":"Hong Do"},"100003814756892":{"id":"100003814756892","name":"Hai Nguyen"},"100001860545626":{"id":"100001860545626","name":"Phạm Anh Tú"},"1550521697":{"id":"1550521697","name":"Trình Nguyễn"},"100001609833418":{"id":"100001609833418","name":"Tsunami Hime"},"100003235211481":{"id":"100003235211481","name":"Huyền Ngố"},"100003016747298":{"id":"100003016747298","name":"Minh Phượng"},"100001840875327":{"id":"100001840875327","name":"Phạm Chí Long"},"100004566972183":{"id":"100004566972183","name":"Tsuyoshi Ta"},"100004452704201":{"id":"100004452704201","name":"Đông Đô"},"1733088155":{"id":"1733088155","name":"Lynn Kunz"},"100000466295678":{"id":"100000466295678","name":"Tha Nguyen"},"100004269522244":{"id":"100004269522244","name":"Shin Bon Bon"},"100002676859353":{"id":"100002676859353","name":"Chu Quang Viên"},"100000070097014":{"id":"100000070097014","name":"Huy Nguyen"},"100000477123186":{"id":"100000477123186","name":"Đạt Mèo"},"100000162152142":{"id":"100000162152142","name":"Bà Già Đau Khổ"},"100002690358249":{"id":"100002690358249","name":"Đức Nhật"},"100000198219367":{"id":"100000198219367","name":"Chang Jiang"}},"paging":{"cursors":{"after":"MTAwMDAyNTY3MTA1NTA4","before":"MTAwMDAyNTY3MTA1NTA4"},"next":"https://graph.facebook.com/229244010425617_648025625214118/likes?limit=1&summary=1&after=MTAwMDAyNTY3MTA1NTA4"},"summary":{"total_count":19}},"comments":{"data":{"648029651880382":{"id":"648029651880382","from":{"id":"100002676859353","name":"Chu Quang Viên"},"message":"Phạm Thúc Hưng chan はエッチがちだ。Vận dụng tốt ko :3","message_tags":[{"id":"100000383155614","name":"Phạm Thúc Hưng","type":"user","offset":0,"length":14}],"can_remove":false,"created_time":"2013-05-01T13:38:04+0000","like_count":4,"user_likes":false},"648262895190391":{"id":"648262895190391","from":{"id":"100004450419218","name":"Sole Heart"},"message":"Khó quá","can_remove":false,"created_time":"2013-05-02T00:26:12+0000","like_count":1,"user_likes":false},"648264501856897":{"id":"648264501856897","from":{"id":"100001458099624","name":"Kham Pha"},"message":"Dù biết cấu trúc này nhưng đọc xong cũng thấy khó hiểu :))\nThế là thế nào Phạm Thúc Hưng.","message_tags":[{"id":"100000383155614","name":"Phạm Thúc Hưng","type":"user","offset":74,"length":14}],"can_remove":false,"created_time":"2013-05-02T00:32:56+0000","like_count":0,"user_likes":false},"648327505183930":{"id":"648327505183930","from":{"id":"100001458099624","name":"Kham Pha"},"message":"mà chưa cập nhật vào danh mục bài học ah","can_remove":false,"created_time":"2013-05-02T04:17:04+0000","like_count":0,"user_likes":false},"648547875161893":{"id":"648547875161893","from":{"id":"100000383155614","name":"Phạm Thúc Hưng"},"message":"nhà mất mạng, chưa lên mà sửa được :((","can_remove":false,"created_time":"2013-05-02T15:48:08+0000","like_count":0,"user_likes":false},"648597355156945":{"id":"648597355156945","from":{"id":"100004666446749","name":"Jouzu Waei"},"message":"theo mình thì cấu trúc này hiểu với nghĩa là sự việc gì đó hay(thường) xảy ra(quá khứ và hiện tại):例：最近、たくさん試験があるので遅くて勉強している。疲労がちだ<dạo này có nhiều bài thi, hay thức khuya học bài  thường cảm thấy mệt mỏi >。or là có xu hướng xảy ra ở tương lai例２：この頃,金の値段の値上がりがちは世界で諸国経済にとって深刻な問題だ。dạo này giá vàng có xu hướng tăng là vấn đề lớn đối với kinh tế của các nước trên thế giới.-->ý kiến của mình có vấn đề gì,các bạn bổ sung cho mình nhé.","can_remove":false,"created_time":"2013-05-02T17:41:59+0000","like_count":2,"user_likes":false}},"paging":{"cursors":{"after":"NjQ4MDI5NjUxODgwMzgy","before":"NjQ4MDI5NjUxODgwMzgy"},"next":"https://graph.facebook.com/229244010425617_648025625214118/comments?limit=1&summary=1&after=NjQ4MDI5NjUxODgwMzgy"},"summary":{"order":"chronological","total_count":6}}}