{"id":"229244010425617_648310531852294","type":"status","from":{"id":"100001912324973","name":"Totto Chan"},"message":"Em đang làm bài tâp về hê thống phát thanh của Nhât Bản, anh chị nào có tài liêu share cho em với. Em cảm ơn !","created_time":"2013-05-02T03:11:22+0000","updated_time":"2013-05-02T14:16:35+0000","likes":{"data":{"100004169731179":{"id":"100004169731179","name":"Hường Hoàng"}},"paging":{"cursors":{"after":"MTAwMDA0MTY5NzMxMTc5","before":"MTAwMDA0MTY5NzMxMTc5"}},"summary":{"total_count":1}},"comments":{"data":{"648324865184194":{"id":"648324865184194","from":{"id":"100001458099624","name":"Kham Pha"},"message":"ý em là đài radio, truyền hình,..?","can_remove":false,"created_time":"2013-05-02T04:08:05+0000","like_count":1,"user_likes":false},"648325915184089":{"id":"648325915184089","from":{"id":"100001912324973","name":"Totto Chan"},"message":"vâng, cả về truyền hình và đài phát thanh ạ, ví dụ như NHK, em tìm thông tin về NHK bác google ko viết cụ thể :((","can_remove":false,"created_time":"2013-05-02T04:11:59+0000","like_count":0,"user_likes":false},"648326251850722":{"id":"648326251850722","from":{"id":"100001458099624","name":"Kham Pha"},"message":"vậy là em tìm về lịch sử phát triển của NHK, TBS,...?","can_remove":false,"created_time":"2013-05-02T04:13:19+0000","like_count":0,"user_likes":false},"648326618517352":{"id":"648326618517352","from":{"id":"100001912324973","name":"Totto Chan"},"message":"vâng, cả về hình thức hoạt động nữa a","can_remove":false,"created_time":"2013-05-02T04:14:35+0000","like_count":0,"user_likes":false},"648327021850645":{"id":"648327021850645","from":{"id":"100001458099624","name":"Kham Pha"},"message":"trên wiki có hết mà\nNHK:\nhttp://ja.wikipedia.org/wiki/%E6%97%A5%E6%9C%AC%E6%94%BE%E9%80%81%E5%8D%94%E4%BC%9A\nTBS:\nhttp://ja.wikipedia.org/wiki/TBS%E3%83%86%E3%83%AC%E3%83%93","can_remove":false,"created_time":"2013-05-02T04:16:06+0000","like_count":1,"user_likes":false},"648328281850519":{"id":"648328281850519","from":{"id":"100001912324973","name":"Totto Chan"},"message":"khổ, đây lai là nihongo, em tìm bằng tiếng việt ngắn tẹo ạ, giờ e làm sao đủ trình dịch từ tiếng nhật sang tiếng viêt :((","can_remove":false,"created_time":"2013-05-02T04:20:14+0000","like_count":0,"user_likes":false},"648328785183802":{"id":"648328785183802","from":{"id":"100001458099624","name":"Kham Pha"},"message":"Thế thì xem phần tiếng Anh. Anh thấy viết cũng đầy đủ mà :)","can_remove":false,"created_time":"2013-05-02T04:22:01+0000","like_count":1,"user_likes":false},"648329628517051":{"id":"648329628517051","from":{"id":"100001912324973","name":"Totto Chan"},"message":"dịch tiếng anh có phần nào mình sài tần đấy vậy, arigato ne *cúi đầu cúi đầu*","can_remove":false,"created_time":"2013-05-02T04:25:14+0000","like_count":0,"user_likes":false},"648400381843309":{"id":"648400381843309","from":{"id":"100001912324973","name":"Totto Chan"},"message":"a Kham Pha ơi, ngoài NHK và TBS, a có biết đài phát thanh hay truyền hình quốc qia nào của Nhật Bản nữa ko ạ","message_tags":[{"id":"100001458099624","name":"Kham Pha","type":"user","offset":2,"length":8}],"can_remove":false,"created_time":"2013-05-02T09:49:38+0000","like_count":0,"user_likes":false},"648469348503079":{"id":"648469348503079","from":{"id":"100001458099624","name":"Kham Pha"},"message":"Đây là trang viết về Wallop-một loại phát thanh chỉ dành cho smart phone: \nhttp://ja.wikipedia.org/wiki/WALLOP\nCòn Radiko là chuyên phát thanh qua Internet: http://ja.wikipedia.org/wiki/Radiko","can_remove":false,"created_time":"2013-05-02T13:05:40+0000","like_count":1,"user_likes":false},"648503241833023":{"id":"648503241833023","from":{"id":"100001912324973","name":"Totto Chan"},"message":"okie, thanks a","can_remove":false,"created_time":"2013-05-02T14:16:35+0000","like_count":0,"user_likes":false}},"paging":{"cursors":{"after":"NjQ4MzI0ODY1MTg0MTk0","before":"NjQ4MzI0ODY1MTg0MTk0"},"next":"https://graph.facebook.com/229244010425617_648310531852294/comments?limit=1&summary=1&after=NjQ4MzI0ODY1MTg0MTk0"},"summary":{"order":"chronological","total_count":13}}}