{"id":"229244010425617_648917301791617","type":"status","from":{"id":"100001458099624","name":"Kham Pha"},"message":"Sắp tới có thể sẽ có mục học tiếng Nhật qua bài hát nổi tiếng. Tức là kèm với mỗi bài hát sẽ có ý nghĩa các từ vựng và phân tích ngữ pháp dùng trong bài hát đó. Các bạn thấy ý tưởng này thế nào? \nNếu ủng hộ xin hãy like và để lại comment bài hát Nhật bạn thường nghe bên dưới. \nよろしくお願いします。","created_time":"2013-05-03T10:14:06+0000","updated_time":"2013-05-06T14:19:59+0000","likes":{"data":{"100003397876835":{"id":"100003397876835","name":"Nabito Lazy"},"100000293174570":{"id":"100000293174570","name":"Vịt Vụng Về"},"100001823028477":{"id":"100001823028477","name":"Kiên Phi Nguyễn"},"100000073848158":{"id":"100000073848158","name":"Hoàng Đắc"},"100003803991548":{"id":"100003803991548","name":"Đặng Văn Công"},"100003016747298":{"id":"100003016747298","name":"Minh Phượng"},"100001864793577":{"id":"100001864793577","name":"Sakura Đhbkhn"},"100001594722256":{"id":"100001594722256","name":"Viết An Phạm"},"1146680551":{"id":"1146680551","name":"優しい なぁ"},"100001912324973":{"id":"100001912324973","name":"Totto Chan"},"100003808729835":{"id":"100003808729835","name":"Vân Nguyễn"},"100004458131717":{"id":"100004458131717","name":"Minh Huệ"},"100004666446749":{"id":"100004666446749","name":"Jouzu Waei"},"100002819008554":{"id":"100002819008554","name":"Sinh Nguyen"},"100004566972183":{"id":"100004566972183","name":"Tsuyoshi Ta"},"100000417711767":{"id":"100000417711767","name":"Tuyet Nga"},"100001731744647":{"id":"100001731744647","name":"Niềm Vui"},"100000548197209":{"id":"100000548197209","name":"Move Forward"},"100000266887521":{"id":"100000266887521","name":"Hương Lê Thu"},"100004129960309":{"id":"100004129960309","name":"Tam Nguyen"},"100000641266383":{"id":"100000641266383","name":"Linhling To"},"100002290906582":{"id":"100002290906582","name":"Kanashimi No Yukue"},"100000571251238":{"id":"100000571251238","name":"Uyển Nhi Dương"},"100003170058959":{"id":"100003170058959","name":"Teru Teru Bozu"},"100001128589118":{"id":"100001128589118","name":"Giang Manh"},"100001044080438":{"id":"100001044080438","name":"Huyen Vy"},"100002641238579":{"id":"100002641238579","name":"Vịt Béo"},"100004236127165":{"id":"100004236127165","name":"Hậu Đậu"},"100004381512091":{"id":"100004381512091","name":"Xương Rồng"},"100002485872935":{"id":"100002485872935","name":"Duy Tam Nguyen"},"100001007000967":{"id":"100001007000967","name":"Bibi Nguyễn"},"100002816124387":{"id":"100002816124387","name":"Ngọc Nguyễn"},"100002761515610":{"id":"100002761515610","name":"Hưng Lê"},"1821970083":{"id":"1821970083","name":"Nguyễn Mạnh Cường"},"100002369341715":{"id":"100002369341715","name":"Xu Li"},"1550521697":{"id":"1550521697","name":"Trình Nguyễn"},"100000028932078":{"id":"100000028932078","name":"Ngọc Mính"},"100001806981402":{"id":"100001806981402","name":"Cookie Panda"},"100001755012731":{"id":"100001755012731","name":"Ma Tran"},"100000240706191":{"id":"100000240706191","name":"U' Bồng Bột"},"100001501391912":{"id":"100001501391912","name":"Lai Hoang Duc"},"100001905664553":{"id":"100001905664553","name":"Mẹ Ơi Con Đói"},"100003959482361":{"id":"100003959482361","name":"Quang Kyo"},"100001683443068":{"id":"100001683443068","name":"Dương Tươi"},"100001695345798":{"id":"100001695345798","name":"Tyn Aki"},"100004842993862":{"id":"100004842993862","name":"Trương Thị Thanh Tâm"},"100000309978634":{"id":"100000309978634","name":"Tan Vu"},"100003152781465":{"id":"100003152781465","name":"Shanya Pham"},"100001739865592":{"id":"100001739865592","name":"Tung Le"},"100000969905909":{"id":"100000969905909","name":"Shady Su"},"1296997933":{"id":"1296997933","name":"Pham Thi Thu Phuong"},"100000922232765":{"id":"100000922232765","name":"Ca Duoi"},"1693102459":{"id":"1693102459","name":"Châu Hoàng"},"100003705664170":{"id":"100003705664170","name":"Sói Minnie"},"100004270681738":{"id":"100004270681738","name":"Khánh Sakura"},"100002378900611":{"id":"100002378900611","name":"Bich Phuong"},"100002754998000":{"id":"100002754998000","name":"Nguyen Duc"},"100003312527085":{"id":"100003312527085","name":"Ngat Pro"},"100000041691073":{"id":"100000041691073","name":"Phuong Nam Hoang"},"100003931107487":{"id":"100003931107487","name":"Hồng Võ"},"1770051205":{"id":"1770051205","name":"Do Thi Huong"},"1828906841":{"id":"1828906841","name":"Trọng Nghĩa Bùi"},"1833971897":{"id":"1833971897","name":"Trà Đá"},"100004269522244":{"id":"100004269522244","name":"Shin Bon Bon"},"100001659230540":{"id":"100001659230540","name":"Lemon Tea"},"100003518966987":{"id":"100003518966987","name":"Thanh Hoài Ngô"},"100002098748602":{"id":"100002098748602","name":"Thuần Việt"},"100003814756892":{"id":"100003814756892","name":"Hai Nguyen"},"100004041794244":{"id":"100004041794244","name":"Watanuki Kimihiro"},"100000050843975":{"id":"100000050843975","name":"Chè Kem"},"100001508739620":{"id":"100001508739620","name":"Lê Ngọc Hoàn"},"100000383155614":{"id":"100000383155614","name":"Phạm Thúc Hưng"},"100000198219367":{"id":"100000198219367","name":"Chang Jiang"},"100001861442279":{"id":"100001861442279","name":"Nguyễn Hồng Sơn"}},"paging":{"cursors":{"after":"MTAwMDAzMzk3ODc2ODM1","before":"MTAwMDAzMzk3ODc2ODM1"},"next":"https://graph.facebook.com/229244010425617_648917301791617/likes?limit=1&summary=1&after=MTAwMDAzMzk3ODc2ODM1"},"summary":{"total_count":76}},"comments":{"data":{"648917488458265":{"id":"648917488458265","from":{"id":"100000198219367","name":"Chang Jiang"},"message":"hay đấy :D\n\nnhưng ai sẽ phân tích ;))","can_remove":false,"created_time":"2013-05-03T10:15:08+0000","like_count":0,"user_likes":false},"648917541791593":{"id":"648917541791593","from":{"id":"100001458099624","name":"Kham Pha"},"message":"phân việc ra thôi :))","can_remove":false,"created_time":"2013-05-03T10:15:26+0000","like_count":0,"user_likes":false},"648917668458247":{"id":"648917668458247","from":{"id":"100001861442279","name":"Nguyễn Hồng Sơn"},"message":"さよなら 大好きな人 .","can_remove":false,"created_time":"2013-05-03T10:16:00+0000","like_count":1,"user_likes":false},"648917935124887":{"id":"648917935124887","from":{"id":"100000198219367","name":"Chang Jiang"},"message":"có ngay 2 bài nhá ;))\n\nhttp://www.jpopasia.com/lyrics/6955/tohoshinki/forever-love.html","can_remove":false,"created_time":"2013-05-03T10:17:11+0000","like_count":2,"user_likes":false},"648917971791550":{"id":"648917971791550","from":{"id":"100000198219367","name":"Chang Jiang"},"message":"đây nữa ;))\n\nhttp://www.jpopasia.com/lyrics/23868/tohoshinki/stand-by-u.html","can_remove":false,"created_time":"2013-05-03T10:17:23+0000","like_count":2,"user_likes":false},"648919225124758":{"id":"648919225124758","from":{"id":"100001659230540","name":"Lemon Tea"},"message":"cảm ơn mọi người nhiều :)","can_remove":false,"created_time":"2013-05-03T10:23:48+0000","like_count":1,"user_likes":false},"648919271791420":{"id":"648919271791420","from":{"id":"100002098748602","name":"Thuần Việt"},"message":"Arigato","can_remove":false,"created_time":"2013-05-03T10:24:04+0000","like_count":1,"user_likes":false},"648920575124623":{"id":"648920575124623","from":{"id":"100001458099624","name":"Kham Pha"},"message":"các bạn cứ cảm ơn mà ko comment tên bài hát là ko có bài đâu đấy :))","can_remove":false,"created_time":"2013-05-03T10:29:58+0000","like_count":0,"user_likes":false},"648921801791167":{"id":"648921801791167","from":{"id":"1833971897","name":"Trà Đá"},"message":"Sekai ni hitotsu dake no hana","can_remove":false,"created_time":"2013-05-03T10:34:45+0000","like_count":3,"user_likes":false},"648921945124486":{"id":"648921945124486","from":{"id":"1833971897","name":"Trà Đá"},"message":"Sora fune","can_remove":false,"created_time":"2013-05-03T10:35:13+0000","like_count":1,"user_likes":false},"648922041791143":{"id":"648922041791143","from":{"id":"1833971897","name":"Trà Đá"},"message":"Sakura anata ni aite yokatta","can_remove":false,"created_time":"2013-05-03T10:35:35+0000","like_count":3,"user_likes":false},"648923115124369":{"id":"648923115124369","from":{"id":"100003931107487","name":"Hồng Võ"},"message":"xe đạp tiếng nhật :)","can_remove":false,"created_time":"2013-05-03T10:39:46+0000","like_count":2,"user_likes":false},"648925118457502":{"id":"648925118457502","from":{"id":"100002378900611","name":"Bich Phuong"},"message":"(y)","can_remove":false,"created_time":"2013-05-03T10:47:53+0000","like_count":0,"user_likes":false},"648925331790814":{"id":"648925331790814","from":{"id":"100004270681738","name":"Khánh Sakura"},"message":"chuột yêu gạo","can_remove":false,"created_time":"2013-05-03T10:48:53+0000","like_count":0,"user_likes":false},"648925621790785":{"id":"648925621790785","from":{"id":"100001458099624","name":"Kham Pha"},"message":"Nhím Xù Lông tên gốc tiếng Nhật là 桜色まうころ\nKhánh Sakura bài này là bài tiếng Nhật sao? Tên tiếng Nhật của nó là gì?","message_tags":[{"id":"100003931107487","name":"Nhím Xù Lông","type":"user","offset":0,"length":12},{"id":"100004270681738","name":"Khánh Sakura","type":"user","offset":42,"length":12}],"can_remove":false,"created_time":"2013-05-03T10:50:00+0000","like_count":0,"user_likes":false},"648925871790760":{"id":"648925871790760","from":{"id":"100004270681738","name":"Khánh Sakura"},"message":"hihi.tớ không biết.c cứ lên youtube gõ chuột yêu gạo tiếng nhật là ra ngay.hi","can_remove":false,"created_time":"2013-05-03T10:51:50+0000","like_count":0,"user_likes":false},"648926015124079":{"id":"648926015124079","from":{"id":"100002098748602","name":"Thuần Việt"},"message":"Xe đạp, mình k nhớ tên tiếng nhật.hj","can_remove":false,"created_time":"2013-05-03T10:52:23+0000","like_count":0,"user_likes":false},"648926665124014":{"id":"648926665124014","from":{"id":"100003931107487","name":"Hồng Võ"},"message":"Kham Pha hí,  e mới hk tiếng nhật, chữ kanji ấy e ko đọc đc, :)","message_tags":[{"id":"100001458099624","name":"Kham Pha","type":"user","offset":0,"length":8}],"can_remove":false,"created_time":"2013-05-03T10:55:15+0000","like_count":0,"user_likes":false},"648932558456758":{"id":"648932558456758","from":{"id":"100003705664170","name":"Sói Minnie"},"message":"Sakurairo maukoro là tên tiếng nhật của Xe đạp @@","can_remove":false,"created_time":"2013-05-03T11:14:29+0000","like_count":1,"user_likes":false},"648934435123237":{"id":"648934435123237","from":{"id":"100001458099624","name":"Kham Pha"},"message":"bản gôc bài xe đạp chỉ đến phần giọng nữ là hết thôi, giai điệu phần giọng nam là được sáng tác thêm.","can_remove":false,"created_time":"2013-05-03T11:20:26+0000","like_count":0,"user_likes":false},"648936228456391":{"id":"648936228456391","from":{"id":"100003705664170","name":"Sói Minnie"},"message":"à cho mình vote bài sakura của ikimono gakari ^^~","can_remove":false,"created_time":"2013-05-03T11:26:26+0000","like_count":0,"user_likes":false},"648945038455510":{"id":"648945038455510","from":{"id":"100001580479641","name":"Hà Xuân Thủy"},"message":"Bài chuột yêu gạo là ねずみは米が好き^_^","can_remove":false,"created_time":"2013-05-03T11:54:58+0000","like_count":0,"user_likes":false},"648945975122083":{"id":"648945975122083","from":{"id":"100001580479641","name":"Hà Xuân Thủy"},"message":"Dạo này hay nghe hai bài này: サカナクション và http://youtu.be/vxF8h7GVN0s","can_remove":false,"created_time":"2013-05-03T11:58:51+0000","like_count":1,"user_likes":false},"648946201788727":{"id":"648946201788727","from":{"id":"100001580479641","name":"Hà Xuân Thủy"},"message":"Bài sau cách đọc tên thế nào quên mất rồi nên post link bạn thông cảm:)","can_remove":false,"created_time":"2013-05-03T11:59:50+0000","like_count":0,"user_likes":false},"648989505117730":{"id":"648989505117730","from":{"id":"1550521697","name":"Trình Nguyễn"},"message":"http://mp3.zing.vn/bai-hat/Haru-yo-koi-Yumi-Matsutoya/ZWZC7ZWU.html\nBài này hay này mọi người.","can_remove":false,"created_time":"2013-05-03T14:09:02+0000","like_count":2,"user_likes":false},"649013318448682":{"id":"649013318448682","from":{"id":"100002816124387","name":"Ngọc Nguyễn"},"message":"nagori yuki, boku wa kimi ni koi wo suru, chiisana koi wo suru, kiseki.....","can_remove":false,"created_time":"2013-05-03T15:13:15+0000","like_count":0,"user_likes":false},"649024698447544":{"id":"649024698447544","from":{"id":"100004236127165","name":"Hậu Đậu"},"message":"goodbye day của yui.","can_remove":false,"created_time":"2013-05-03T15:43:46+0000","like_count":0,"user_likes":false},"649124415104239":{"id":"649124415104239","from":{"id":"100001044080438","name":"Huyen Vy"},"message":"Ý kiến hay. Like ủng hộ","can_remove":false,"created_time":"2013-05-03T20:10:27+0000","like_count":0,"user_likes":false},"649195335097147":{"id":"649195335097147","from":{"id":"100004236127165","name":"Hậu Đậu"},"message":"sayonara daitsu kinahito","can_remove":false,"created_time":"2013-05-04T00:25:13+0000","like_count":0,"user_likes":false},"649230208426993":{"id":"649230208426993","from":{"id":"100000571251238","name":"Uyển Nhi Dương"},"message":"mình thích bài sakura anata ni deaete yokatta, furui tokei, bài ue wo muite arukou nữa hihi yoroshiku!","can_remove":false,"created_time":"2013-05-04T02:24:54+0000","like_count":0,"user_likes":false},"649253195091361":{"id":"649253195091361","from":{"id":"100003705664170","name":"Sói Minnie"},"message":"Có vẻ như ít người nghe sakura của ikimono gakari nhở, quăng link lên đây nằm ăn vạ vậy =))  http://www.youtube.com/watch?v=HnVh5oRUrWU","can_remove":false,"created_time":"2013-05-04T03:49:54+0000","like_count":2,"user_likes":false},"649271235089557":{"id":"649271235089557","from":{"id":"100000266887521","name":"Hương Lê Thu"},"message":"http://mp3.zing.vn/bai-hat/Gekkou-Chihiro-Onitsuka/ZW6UFZ0E.html","can_remove":false,"created_time":"2013-05-04T05:12:27+0000","like_count":2,"user_likes":false},"649599698390044":{"id":"649599698390044","from":{"id":"100001458099624","name":"Kham Pha"},"message":"Xin được bổ sung thêm 1 số bài: \n太陽の歌\n３月９日\n粉雪\n未来へ\nハナミズキ\nどうして\n桜","can_remove":false,"created_time":"2013-05-04T23:51:40+0000","like_count":0,"user_likes":false},"650384651644882":{"id":"650384651644882","from":{"id":"1400326262","name":"Matsumoto Soutarou"},"message":"2 bài mình thích nhất: Oretachi no seishun; Anata no egao (Jyuunin Toiro ballad)","can_remove":false,"created_time":"2013-05-06T14:19:59+0000","like_count":1,"user_likes":false}},"paging":{"cursors":{"after":"NjQ4OTE3NDg4NDU4MjY1","before":"NjQ4OTE3NDg4NDU4MjY1"},"next":"https://graph.facebook.com/229244010425617_648917301791617/comments?limit=1&summary=1&after=NjQ4OTE3NDg4NDU4MjY1"},"summary":{"order":"chronological","total_count":35}}}