{"id":"229244010425617_649337011749646","type":"status","from":{"id":"1693102459","name":"Châu Hoàng"},"message":"Senpai nào biết chút ít về văn hoá Nhật - trả lời nhanh giúp em mấy câu hỏi này với ạ :( Arigatou!\n1.　豆で日本の国民精神中毒の　料理の一つは　何？\n2. 　祭りのときに大勢で かつぐ「みこし」には何が乗っている？\n3.　日本で一般には流通していない紙幣は　どれ？\n4.　日本の　祝日に　いないものは　どれ？\n5.　日本人の食品にない色は何？\n6.　結婚式などのお祝いの席の男性の服装として、最も　ふさわしくないものは\n7.　お正月にあそんで子供が幸運ものは　何？\n8.　これは子供が5月5日にかぶる　帽子？　　　　　　　　　　　　　　　　　　\n10.　すしを作る一番危ない魚は？\n11.　お盆祭りは　何月何日に　開催されている？\n12.　子供の日に　何を食べる？\n13.　日本の国家は？\n14.　大相撲の　力士の　最高のくらいを　何というか？","created_time":"2013-05-04T10:01:06+0000","updated_time":"2013-05-05T11:11:31+0000","likes":{"data":{"100001594722256":{"id":"100001594722256","name":"Viết An Phạm"},"100001458099624":{"id":"100001458099624","name":"Kham Pha"},"100002676363987":{"id":"100002676363987","name":"Myluong Vn"},"100001864793577":{"id":"100001864793577","name":"Sakura Đhbkhn"}},"paging":{"cursors":{"after":"MTAwMDAxNTk0NzIyMjU2","before":"MTAwMDAxNTk0NzIyMjU2"},"next":"https://graph.facebook.com/229244010425617_649337011749646/likes?limit=1&summary=1&after=MTAwMDAxNTk0NzIyMjU2"},"summary":{"total_count":4}},"comments":{"data":{"649343888415625":{"id":"649343888415625","from":{"id":"100000548197209","name":"Move Forward"},"message":"đề cương thi học kì đây sao, khủng khiếp vậy ==\"","can_remove":false,"created_time":"2013-05-04T10:28:14+0000","like_count":1,"user_likes":false},"649397711743576":{"id":"649397711743576","from":{"id":"100003742517006","name":"Huế Himawari"},"message":"mấy câu hỏi này mơ hồ quá bạn ạ, hình như là câu hỏi trắc nghiệm phải k? câu 3 có lẽ là tờ 2000yen, 8 là ｶﾌﾞﾄ,11 là かしわまち, câu12 (quốc ca ?) thì là 君が代, 14 là よこづな (横綱)....","can_remove":false,"created_time":"2013-05-04T13:28:14+0000","like_count":4,"user_likes":false},"649637998386214":{"id":"649637998386214","from":{"id":"1693102459","name":"Châu Hoàng"},"message":"Cám ơn bạn Huế Himawari :)","message_tags":[{"id":"100003742517006","name":"Huế Himawari","type":"user","offset":11,"length":12}],"can_remove":false,"created_time":"2013-05-05T02:00:09+0000","like_count":1,"user_likes":false},"649640275052653":{"id":"649640275052653","from":{"id":"1693102459","name":"Châu Hoàng"},"message":"Move Forward: ừ, đề cương đó :3 còn nhiều môn kinh khủng hơn ri nữa :3","message_tags":[{"id":"100000548197209","name":"Move Forward","type":"user","offset":0,"length":12}],"can_remove":false,"created_time":"2013-05-05T02:07:49+0000","like_count":0,"user_likes":false},"649772025039478":{"id":"649772025039478","from":{"id":"100000198219367","name":"Chang Jiang"},"message":"số 1 có phải nattou ko nhỉ? :D","can_remove":false,"created_time":"2013-05-05T09:29:46+0000","like_count":2,"user_likes":false},"649773975039283":{"id":"649773975039283","from":{"id":"100000383155614","name":"Phạm Thúc Hưng"},"message":"ôi Huế Himawari thần tượng của a =))))","message_tags":[{"id":"100003742517006","name":"Huế Himawari","type":"user","offset":3,"length":12}],"can_remove":false,"created_time":"2013-05-05T09:33:42+0000","like_count":1,"user_likes":false},"649775001705847":{"id":"649775001705847","from":{"id":"100000198219367","name":"Chang Jiang"},"message":"Huế Himawari trả lời siêu thật đấy 8->","message_tags":[{"id":"100003742517006","name":"Huế Himawari","type":"user","offset":0,"length":12}],"can_remove":false,"created_time":"2013-05-05T09:35:26+0000","like_count":1,"user_likes":false},"649806991702648":{"id":"649806991702648","from":{"id":"100003742517006","name":"Huế Himawari"},"message":"Châu Hoàng  khi nào có đáp án nói vs nhé!","message_tags":[{"id":"1693102459","name":"Châu Hoàng","type":"user","offset":0,"length":10}],"can_remove":false,"created_time":"2013-05-05T11:11:31+0000","like_count":1,"user_likes":false}},"paging":{"cursors":{"after":"NjQ5MzQzODg4NDE1NjI1","before":"NjQ5MzQzODg4NDE1NjI1"},"next":"https://graph.facebook.com/229244010425617_649337011749646/comments?limit=1&summary=1&after=NjQ5MzQzODg4NDE1NjI1"},"summary":{"order":"chronological","total_count":8}}}