{"id":"229244010425617_649884838361530","type":"status","from":{"id":"100004666446749","name":"Jouzu Waei"},"message":"Các bạn cho mình hỏi nghĩa của 2 từ này được không ạ:\n１）いい加減\n２）社交辞令\nCảm ơn cả nhà!hi","created_time":"2013-05-05T14:40:08+0000","updated_time":"2013-05-20T12:20:46+0000","likes":{"data":{"100003397876835":{"id":"100003397876835","name":"Nabito Lazy"}},"paging":{"cursors":{"after":"MTAwMDAzMzk3ODc2ODM1","before":"MTAwMDAzMzk3ODc2ODM1"}},"summary":{"total_count":1}},"comments":{"data":{"649887725027908":{"id":"649887725027908","from":{"id":"100003397876835","name":"Nabito Lazy"},"message":"いい加減 いいかげん  Đại khái, tàm tạm\n社交辞令 しゃこうじれい  Kiểu nói xã giao, hình thức","can_remove":false,"created_time":"2013-05-05T14:45:15+0000","like_count":3,"user_likes":false},"649889195027761":{"id":"649889195027761","from":{"id":"100004666446749","name":"Jouzu Waei"},"message":"cảm ơn bạn Nabito Lazy hi","message_tags":[{"id":"100003397876835","name":"Nabito Lazy","type":"user","offset":11,"length":11}],"can_remove":false,"created_time":"2013-05-05T14:47:07+0000","like_count":0,"user_likes":false},"649889721694375":{"id":"649889721694375","from":{"id":"100003397876835","name":"Nabito Lazy"},"message":"どういたしまして。。。へへ","can_remove":false,"created_time":"2013-05-05T14:48:44+0000","like_count":1,"user_likes":false},"649895041693843":{"id":"649895041693843","from":{"id":"1828906841","name":"Trọng Nghĩa Bùi"},"message":"いい加減 theo mình còn có nghĩa là chỉ mức độ vừa phải, cân đối, vừa đủ nữa. Xem film thấy có những đoạn nói về công việc cần trách nhiệm cao người ta cũng dùng từ này mà.","can_remove":false,"created_time":"2013-05-05T15:02:03+0000","like_count":3,"user_likes":false},"656110444405636":{"id":"656110444405636","from":{"id":"100001057467030","name":"Buông Tay"},"message":"1cau 1 là lam cho qua thôi","can_remove":false,"created_time":"2013-05-19T06:45:13+0000","like_count":0,"user_likes":false},"656716127678401":{"id":"656716127678401","from":{"id":"100003753111539","name":"Uyvu Nguyen"},"message":"hi all !theo mình hiểu:  いい加減 có nhiều nghĩa, nhưng có 1 nghĩa mang nghĩa không tích cực, kiểu như \"vô trách nhiệm\", làm không tới nơi tới chốn. 社交辞令：nghĩa là  \"mang tính khách sáo\",giả dụ không thích j đó, nhưng vì khách sáo, sợ phật lòng người khác mà trả lời là thích..vv... trả hạn. nên nó k hẳn có nghĩa tiêu cực.","can_remove":false,"created_time":"2013-05-20T12:20:46+0000","like_count":1,"user_likes":false}},"paging":{"cursors":{"after":"NjQ5ODg3NzI1MDI3OTA4","before":"NjQ5ODg3NzI1MDI3OTA4"},"next":"https://graph.facebook.com/229244010425617_649884838361530/comments?limit=1&summary=1&after=NjQ5ODg3NzI1MDI3OTA4"},"summary":{"order":"chronological","total_count":6}}}