{"id":"229244010425617_650125001670847","type":"video","picture":"https://fbexternal-a.akamaihd.net/safe_image.php?d=AQBA-TmHwjmmoZ5V&w=130&h=130&url=http%3A%2F%2Fi3.ytimg.com%2Fvi%2FBPMDoYtlMBk%2Fhqdefault.jpg%3Ffeature%3Dog","link":"http://www.youtube.com/watch?v=BPMDoYtlMBk","source":"http://www.youtube.com/v/BPMDoYtlMBk?version=3&autohide=1&autoplay=1","from":{"id":"100001458099624","name":"Kham Pha"},"message":"Bài 104: Học tiếng Nhật qua các bài hát (Phần 1: ねずみは米がすき)\n\nChào các bạn. Như đã nói từ trước, từ nay về sau chúng ta sẽ có thêm một chuyên mục “Học tiếng Nhật qua các bài hát”. Chuyên mục sẽ chủ yếu là lấy các bài hát hay, nổi tiếng, có nhiều bạn yêu cầu làm ví dụ. Trong mỗi bài sẽ có giải thích ngữ pháp được dùng và các từ mới xuất hiện trong bài hát. Bởi vì bài hát thì khá dài, cấu trúc sử dụng cũng nhiều nên có lẽ không thể giải thích triệt để được, mong các bạn thông cảm. Hôm nay chúng ta sẽ bắt đầu với bài hát ねずみは米がすき đã được một số bạn yêu cầu từ hôm trước. Mời các bạn cùng thưởng thức.  \n \nねずみは米がすき \n\nありえないってわかっているから\nいつも遠くで　見ているだけ\n誰もがみんなあなたがすきね\n私なんか　ムリだね\n\nみんな一緒の　帰り道さえ\n少し離れて　ひとり歩くのよ\nひとりぼっちの　影は長いね\nまるで背が高くなったみたいよ\n\n告白なんてできるわけない\n笑われるだけだよね　それだけ \n\nウォーアイニー　きっと叶わぬ夢ね\n米はねずみをすきじゃないものね\nウォシャンニー　だけどあなたがすきよ\nこれからもずっと大好きだよ\nまた明日\n\nウォーアイニー　本当はあなたがすきよ\nねずみが米を大好きなように\nウォシャンニー　だけど気づかないでね\nこのままそっとすきでいたい いつまでも\n\nhttp://www.youtube.com/watch?v=BPMDoYtlMBk\n\n(1) ありえないって分かっているから \n\nNói đầy đủ là ありえないというこが分かっているから dịch ra là “Bởi vì em biết đó là điều không thể”.  (Bởi vì bài hát theo giọng nữ nên xin phép các bạn được dịch theo ngôi nữ, chứ các bạn lại nghĩ đây là cái động gay thì chết dở). \nありえないこと nghĩa là “điều không thể”. \nCác bạn đừng ngạc nhiên nếu thấy trong các bài hát đôi khi trợ từ bị lược bỏ và các cách nói giản lược thường được áp dụng. \nって là một trong các cấu trúc được dùng rất nhiều trong giao tiếp hàng ngày ở Nhật. Nó có một vài nghĩa nữa nhưng trong bài hát này, nó là cách nói giản lược của というこ. Cấu trúc というこ mời các bạn xem lại bài 23, 24. \nBài 23: https://www.facebook.com/groups/229244010425617/doc/595675600449121/\nBài 24: https://www.facebook.com/groups/229244010425617/doc/595676783782336/\n\n(2)いつも遠くで見ているだけ \nいつも: lúc nào cũng.\n遠（とお）くで: ở đằng xa.\nCấu trúc だけ mời các bạn tham khảo trong bài. Cấu trúc Vるだけ có nghĩa là chỉ làm cái việc V ấy. \nCâu này dịch ra là “Lúc nào cũng chỉ đứng nhìn từ đằng xa”. \n\n(3)誰もがみんなあなたが好きね\n誰（だれ）も: ai cũng\nみんな: kanji là 皆 cũng có lúc đọc là みな, nghĩa là mọi người. \nCâu này cũng khá đơn giản dịch ra là “Mọi người ai cũng yêu quý anh”. \n\n(4)私なんかムリだね。\nCâu này trợ từ は cũng bị lược bỏ. \nなんか là cấu trúc đã học trong bài 81. 私なんか dịch ra là “Người như em” (tự hạ thấp bản thân). \nムリ（無理 ）: vô lý, không được, không thể nào, quá sức. Ví dụ ai đó mời bạn đi chơi mà bạn không muốn đi thì có thể nói là 今日は無理です- hôm nay thì không thể rồi.\nCó thể sẽ có những bạn thắc mắc tại sao không dùng kanji hoặc hiragana mà lại dùng katakana. Xin được giải thích là đây là cách dùng rất phổ biến khi người ta lâm vào các trường hợp sau: \nQuên cách viết kanji của từ đó.\nDùng cho các từ ngoại lai. \nMuốn nhấn mạnh, gây sự chú ý. Khẩu hiệu, băng rôn. \nChả có lý gì, ngày đẹp trời, thích thì viết.   \nCâu này dịch ra cho tương xứng câu trên là “Nhưng người như em chắc chẳng ai yêu quý đâu nhỉ”. \nCó lẽ bạn này tự ti vì mình không xinh đẹp lắm chẳng hạn. \nBài 81: https://www.facebook.com/groups/229244010425617/doc/629149723768375/\n\n(5)みんな一緒の　帰り道さえ\n一緒（いっしょ）: cùng nhau\n帰り道（かえりみち）: đường đi về\nさえ: kể cả\nCâu này nói đầy đủ phải là みんなと一緒の　帰り道さえ\nNếu diễn đạt theo cách khác thì có thể là みんなと一緒に帰る道さえ ý nghĩa cũng tương đương và phù hợp với những gì các bạn đã học. \n“Kể cả là con đường mọi người cùng đi về”\n\n(6)少し離れてひとり歩くのよ\n離（はな）れる: xa cách, tách rời ra. \n歩（ある）く: đi bộ, đi. \n歩くの là cách danh từ hóa động từ bằng cách thêm の vào sau động từ nguyên thể. \nCâu này dịch là “Nhưng em vẫn đi một mình đi, hơi xa cách một chút”. \n\n(7)ひとりぼっちの影は長いね\nひとりぼっち: theo mình tìm hiểu thì nó có nguồn gốc là từ gì ấy, quên rồi :d . Chỉ nhớ nó có nghĩa là “người đi một mình”. Nhưng nó diễn tả một cái cảm giác “cô đơn, lẻ loi”. Dù bên cạnh có người khác đi chăng nữa. Tức là kiểu như không ai hiểu được tâm tư của mình. Về mặt thực tế thì có người bên cạnh, nhưng về mặt tình cảm là cô đơn.  \n影（かげ）: bóng, bóng đỗ xuống.\n\nCâu này dịch là “Bóng của người một mình dài thật đấy.”\n\n(8)まるで背が高くなったみたいよ 　 \nまるで: hoàn toàn\n背（せ）が高く: cao\nVる・Vた・名詞・Aな・Aい+みたい: giống như. \nDịch: “Trông hoàn toàn như người cao ấy” hay “Trông chả khác gì một người cao”.\n \n(9)告白なんてできるわけない\n告白（こくはく）: bộc bạch\n告白なんて: những chuyện như bộc bạch tâm tình. Cấu trúc なんて cũng có vẻ giống như なんか.\nわけない: viết ngắn của わけがない nghĩa là không có lý do gì để làm, hay nói cách khác là không thể. Mời các bạn xem lại bài 7\nBài 7: https://www.facebook.com/groups/229244010425617/doc/590400574309957/\n \n“Thổ lộ thì em không thể rồi”\n \n(10)笑われるだけだよね　それだけ \n  笑われる: thể bị động của 笑う , tức là bị cười chê. \n\n“Chỉ bị cười chê thôi”\n\n(11)ウォーアイニー　きっと叶わぬ夢ね\n ウォーアイニー: Em yêu anh, dịch từ tiếng TQ\nきっと: chắc chắn, rõ ràng, không thể khác được,...\n叶（かな）わぬ: là phủ định của 叶う nghĩa là “trở thành sự thật”\nChắc các bạn sẽ thắc mắc là tại sao phủ định của 叶う không phải 叶わない mà lại là 叶わぬ thì theo như tôi nhớ có lần nghe đâu đó ぬ cũng như ない là cách nói phủ định nhưng có nguồn gốc cổ. Dường như trong các bài hát thì ぬ rất hay được dùng vì nó thể phù hợp với giai điệu bài hát. Chứ thực ra trong cấu trúc ngữ pháp thì phần nhiều dùng ない, ぬ cũng có nhưng hiếm gặp.  \n\n“Em yêu anh trong cả giấc mơ chắc chắn không thể trở thành hiện thực”.\n\n(12)米はねずみをすきじゃないものね\n米（こめ）: gạo \n“Gạo thì chẳng yêu chuột đâu nhỉ”\n\n(13)ウォシャンニー　だけどあなたがすきよ\nだけど: nhưng. Liên từ này đã học trong bài 55, mời các bạn xem lại. Nên nhớ liên từ này không hẳn là nghĩa tương phản, đôi khi chỉ dùng để nối câu chứ không phải “nhưng” trong tiếng Việt.  \nウォシャンニー: em nhớ anh, dịch từ tiếng TQ\n“Em nhớ anh, thích anh lắm đấy”\nBài 55: https://www.facebook.com/groups/229244010425617/doc/621757294507618/\n\n(14)これからもずっと大好きだよ\nずっと: luôn luôn, suốt (một khoảng thời gian)\nこれからも: từ nay về sau cũng\n\n“Từ nay về sau vẫn luôn thích anh”.\n \n(15)また明日\n“Hẹn gặp lại ngày mai”\n\n(16)ウォーアイニー　本当はあなたがすきよ\n“Em yêu anh. Thực sự là rất thích/yêu anh”\n\n(17)ねずみが米を大好きなように\nCấu trúc 名詞 ・Vる・Vた・Aな・Aい+ように: so sánh giống như\nよう này có lẽ nguồn gốc là chữ 様（DẠNG）. Tức là dạng giống như cái đằng trước. Nguồn gốc có thể là vậy nhưng khi trở thành cấu trúc ngữ pháp người ta không dùng kanji nữa, chỉ dùng hiragana thôi.  \n“Như chuột yêu gạo vậy”\n\n(18)ウォシャンニー　だけど気づかないでね\n気づかない: là phủ định của 気づく nghĩa là cảm nhận được. \n\n“Em nhớ anh. Nhưng mà anh không cảm nhận được đâu nhỉ”\n\n(19)このままそっとすきでいたい いつまでも \nこのまま: cứ như thế này\nそっと: lặng lẽ\nいつまでも: dù đến mai sau.\n\n“Cứ muốn lặng lẽ ở cạnh bên yêu anh như thế này đến mãi về sau”\nCác bạn đừng lạ vì các thành phần câu sắp xếp lung tung, いつまでも lại đặt ở cuối câu thay vì đầu câu. Đó là thường tình thôi, nó giống như kiểu “何をやってるんだ、お前”- Mày đang làm cái quái gì đấy. \n\nLần đầu giải thích ngữ pháp tiếng Nhật, từ vựng bằng phương pháp này chắc có nhiều sơ sót, mong các bạn thông cảm. Xin hãy các bạn hãy comment  những điểm tốt và chưa tốt vào bên dưới để có gì các bài sau mọi người cùng khắc phục.  \n\nKham Pha","created_time":"2013-05-06T01:42:33+0000","updated_time":"2013-05-08T16:15:17+0000","likes":{"data":{"100000245408452":{"id":"100000245408452","name":"Kawaii Pham"},"100001584153352":{"id":"100001584153352","name":"Snow Kute"},"100004452123869":{"id":"100004452123869","name":"Pham Tiên Bach"},"100003820151744":{"id":"100003820151744","name":"Thu Cá Tính"},"100001898143171":{"id":"100001898143171","name":"Htg Sau Theo"},"100001841757627":{"id":"100001841757627","name":"Ngân Ngố"},"100002485872935":{"id":"100002485872935","name":"Duy Tam Nguyen"},"100001695345798":{"id":"100001695345798","name":"Tyn Aki"},"100002265193557":{"id":"100002265193557","name":"Gấu Mó"},"100000266887521":{"id":"100000266887521","name":"Hương Lê Thu"},"1582652177":{"id":"1582652177","name":"Vo Ngoc"},"100004270681738":{"id":"100004270681738","name":"Khánh Sakura"},"100001686456421":{"id":"100001686456421","name":"Phạm Diệu"},"100001659230540":{"id":"100001659230540","name":"Lemon Tea"},"100003705664170":{"id":"100003705664170","name":"Sói Minnie"},"1821970083":{"id":"1821970083","name":"Nguyễn Mạnh Cường"},"100003950139327":{"id":"100003950139327","name":"Kathy Banh"},"100000041691073":{"id":"100000041691073","name":"Phuong Nam Hoang"},"100004566972183":{"id":"100004566972183","name":"Tsuyoshi Ta"},"100000377532107":{"id":"100000377532107","name":"Dzung Vo"},"100003742517006":{"id":"100003742517006","name":"Huế Himawari"},"100000293174570":{"id":"100000293174570","name":"Vịt Vụng Về"},"100003669604211":{"id":"100003669604211","name":"Mặt Trời Phương Đông"},"100000073848158":{"id":"100000073848158","name":"Hoàng Đắc"},"100004745884493":{"id":"100004745884493","name":"Echigo Edu"},"100004373644702":{"id":"100004373644702","name":"Thanh Phuong"},"1693102459":{"id":"1693102459","name":"Châu Hoàng"},"100004666446749":{"id":"100004666446749","name":"Jouzu Waei"},"100000096928751":{"id":"100000096928751","name":"Lê Linh"},"100004381512091":{"id":"100004381512091","name":"Xương Rồng"},"100003041594915":{"id":"100003041594915","name":"Hoa Cỏ May"},"100001580010233":{"id":"100001580010233","name":"Dương Quân"},"100001912324973":{"id":"100001912324973","name":"Totto Chan"},"100001637210278":{"id":"100001637210278","name":"Thuy Luong"},"100001508739620":{"id":"100001508739620","name":"Lê Ngọc Hoàn"},"100000571251238":{"id":"100000571251238","name":"Uyển Nhi Dương"},"100000028932078":{"id":"100000028932078","name":"Ngọc Mính"},"100001861442279":{"id":"100001861442279","name":"Nguyễn Hồng Sơn"},"100001580479641":{"id":"100001580479641","name":"Hà Xuân Thủy"},"100001479894331":{"id":"100001479894331","name":"Diệu Nguyễn"},"100001100027589":{"id":"100001100027589","name":"Tuấn Anh Lê"},"100000629560377":{"id":"100000629560377","name":"Yuki Hana"},"100000309978634":{"id":"100000309978634","name":"Tan Vu"},"100001683443068":{"id":"100001683443068","name":"Dương Tươi"},"100003814756892":{"id":"100003814756892","name":"Hai Nguyen"}},"paging":{"cursors":{"after":"MTAwMDAwMjQ1NDA4NDUy","before":"MTAwMDAwMjQ1NDA4NDUy"},"next":"https://graph.facebook.com/229244010425617_650125001670847/likes?limit=1&summary=1&after=MTAwMDAwMjQ1NDA4NDUy"},"summary":{"total_count":47}},"comments":{"data":{"650132421670105":{"id":"650132421670105","from":{"id":"100001580479641","name":"Hà Xuân Thủy"},"message":"Rất mong các bài viết tiếp theo của bạn :)","can_remove":false,"created_time":"2013-05-06T02:09:01+0000","like_count":1,"user_likes":false},"650149551668392":{"id":"650149551668392","from":{"id":"100001508739620","name":"Lê Ngọc Hoàn"},"message":"Thích cách làm việc chuyên nghiệp của a rồi đấy Kham Pha :)","message_tags":[{"id":"100001458099624","name":"Kham Pha","type":"user","offset":48,"length":8}],"can_remove":false,"created_time":"2013-05-06T03:01:13+0000","like_count":2,"user_likes":false},"650166438333370":{"id":"650166438333370","from":{"id":"100001912324973","name":"Totto Chan"},"message":"a ơi, để lĩnh hội hết chỗ kiến thức này thì mấy ngày sau a hãy post bài khác ạ","can_remove":false,"created_time":"2013-05-06T03:39:44+0000","like_count":1,"user_likes":false},"650183168331697":{"id":"650183168331697","from":{"id":"100001458099624","name":"Kham Pha"},"message":"uhm, một tuần viết một bài thế này anh cũng đủ chết rồi, mất khối thời gian đấy :(","can_remove":false,"created_time":"2013-05-06T04:47:56+0000","like_count":5,"user_likes":false},"650194478330566":{"id":"650194478330566","from":{"id":"1693102459","name":"Châu Hoàng"},"message":"Kham Pha: e bị thích cách học kiểu này rồi đấy! (y)","message_tags":[{"id":"100001458099624","name":"Kham Pha","type":"user","offset":0,"length":8}],"can_remove":false,"created_time":"2013-05-06T05:43:09+0000","like_count":1,"user_likes":false},"650205458329468":{"id":"650205458329468","from":{"id":"100000198219367","name":"Chang Jiang"},"message":"sao lại chọn video bản karaoke thế này, có mỗi 1 tai có lời hát :(","can_remove":false,"created_time":"2013-05-06T06:34:37+0000","like_count":0,"user_likes":false},"650205494996131":{"id":"650205494996131","from":{"id":"100000198219367","name":"Chang Jiang"},"message":"phải chọn bản này nè\n\nhttp://www.youtube.com/watch?v=RnSTHU4H_AQ","can_remove":false,"created_time":"2013-05-06T06:34:44+0000","like_count":1,"user_likes":false},"650217871661560":{"id":"650217871661560","from":{"id":"100001458099624","name":"Kham Pha"},"message":"Sao bảo comment điểm được và chưa được mà chẳng ai chịu làm là sao vậy trời. \nCâu (1) viết nhầm mà ko ai thấy ah, ということ chứ ko phải というこ đâu.","can_remove":false,"created_time":"2013-05-06T07:26:58+0000","like_count":0,"user_likes":false},"650218358328178":{"id":"650218358328178","from":{"id":"100001458099624","name":"Kham Pha"},"message":"Chang Jiang bản karaoke dễ học. Tuần sau anh viết một bài đi. Thử 2 cái bài anh yêu cầu hôm nọ ấy.","message_tags":[{"id":"100000198219367","name":"Chang Jiang","type":"user","offset":0,"length":11}],"can_remove":false,"created_time":"2013-05-06T07:29:22+0000","like_count":0,"user_likes":false},"650218968328117":{"id":"650218968328117","from":{"id":"1693102459","name":"Châu Hoàng"},"message":"Kham Pha: thấy ghi là lạ nhưng không biết là thiếu :v","message_tags":[{"id":"100001458099624","name":"Kham Pha","type":"user","offset":0,"length":8}],"can_remove":false,"created_time":"2013-05-06T07:31:22+0000","like_count":1,"user_likes":false},"650241481659199":{"id":"650241481659199","from":{"id":"100000073848158","name":"Hoàng Đắc"},"message":"誰もがみんなあなたがすきね\n私なんか　ムリだね\n2 cái câu này có thể dịch là như này đc ko. Mọi người ( các cô gái ) đều thích anh thế nên người như em chắc ko thể yêu anh được rồi. :)\nCòn dịch như Kham Pha thấy sát nghĩa hơn nhưng mà thấy ko đc hợp tình lắm :). mọi người theo t chỉ là con gái thôi :))","message_tags":[{"id":"100001458099624","name":"Kham Pha","type":"user","offset":174,"length":8}],"can_remove":false,"created_time":"2013-05-06T08:32:31+0000","like_count":1,"user_likes":false},"650280594988621":{"id":"650280594988621","from":{"id":"100000198219367","name":"Chang Jiang"},"message":"Kham Pha: thế phải search bản có lời kara nhưng lời hát ko bị tách chứ ;))","message_tags":[{"id":"100001458099624","name":"Kham Pha","type":"user","offset":0,"length":8}],"can_remove":false,"created_time":"2013-05-06T09:27:42+0000","like_count":0,"user_likes":false},"650348451648502":{"id":"650348451648502","from":{"id":"100001458099624","name":"Kham Pha"},"message":"Hoàng Đắc: có để ý là cách dịch của tớ và cậu khác hẳn nghĩa nhau ko? chứ ko phải là sát nghĩa hơn đâu. \nTheo tớ hiểu thì là cô gái này nói \"mọi người không yêu quý cô ấy như chàng trai kia\". Bởi cô gái này cảm thấy xa cách với tất cả mọi người chứ ko chỉ riêng chàng trai. Có lẽ vì tự ti, nhút nhát. Câu này đúng là dễ hiểu nhầm nhưng tất cả các câu khác trong bài dường như đều thể hiện điều ấy.","message_tags":[{"id":"100000073848158","name":"Hoàng Đắc","type":"user","offset":0,"length":9}],"can_remove":false,"created_time":"2013-05-06T12:48:45+0000","like_count":0,"user_likes":false},"650363118313702":{"id":"650363118313702","from":{"id":"1400326262","name":"Matsumoto Soutarou"},"message":"11)ウォーアイニー　きっと叶わぬ夢ね - “Em yêu anh trong cả giấc mơ chắc chắn không thể trở thành hiện thực”. --- Cám ơn bạn, kiểu học này rất thú vị, mình cũng muốn thử học tiếng Nhật kiểu này lâu rồi nhưng hơi lười. Chỉ có góp ý câu 11 chút thôi, câu dịch hơi vô nghĩa nên mình nghĩ là dịch thoát ý quá nên đi sai. Mình thấy đoạn trên có nói đến Kokuhaku, nên có lẽ câu 11 có thể hiểu là \"một lần nói câu Em yêu anh, chắc ước mơ ấy không thành được đâu nhỉ\"","can_remove":false,"created_time":"2013-05-06T13:22:01+0000","like_count":0,"user_likes":false},"650364524980228":{"id":"650364524980228","from":{"id":"100000073848158","name":"Hoàng Đắc"},"message":"À dùng nhầm từ, ko phải sát nghĩa hơn mà nó gần nghĩa với từ trong câu hơn. Đứng ở khía cạnh tâm sinh lý con gái thì t nghĩ dịch theo của t hợp hơn ;)). \"Mọi người đều thích anh nên xấu như em ko có cơ hội \"","can_remove":false,"created_time":"2013-05-06T13:25:47+0000","like_count":1,"user_likes":false},"650389024977778":{"id":"650389024977778","from":{"id":"100001458099624","name":"Kham Pha"},"message":"Tran Thong theo mình hiểu thì trong các bài hát nói chung đoạn điệp khúc thường có ý nghĩa riêng không cần dịch chung với câu của đoạn trước đó. Nên dịch chung 2 câu, 1 câu ngoài điệp khúc, 1 câu trong điệp khúc vào với nhau thì ko hợp lí. Câu 11 mình dịch rất sát nghĩa và ko thấy nó vô nghĩa ở đâu cả. Có lẽ cái bạn thấy thắc mắc là sao các câu nhiều lúc nghĩa ko gắn kết với nhau. Thực ra đây là một bài hát dịch từ tiếng TQ, ko phải nguyên gốc tiếng Nhật nên điều đó là chuyện bình thường mà.","message_tags":[{"id":"1400326262","name":"Tran Thong","type":"user","offset":0,"length":10}],"can_remove":false,"created_time":"2013-05-06T14:29:07+0000","like_count":0,"user_likes":false},"650390631644284":{"id":"650390631644284","from":{"id":"100001458099624","name":"Kham Pha"},"message":"Mà ngẫm lại câu đấy mình dịch ko hẳn sát nghĩa lắm đâu, hơi chém ra tí cho hay thôi :))","can_remove":false,"created_time":"2013-05-06T14:32:35+0000","like_count":0,"user_likes":false},"650390708310943":{"id":"650390708310943","from":{"id":"1400326262","name":"Matsumoto Soutarou"},"message":"“Em yêu anh trong cả giấc mơ chắc chắn không thể trở thành hiện thực”. --- Mình biết câu cú trong bài hát tiếng Nhật thường giản lược -> khó hiểu... nhưng mơ mà cũng không dám yêu thì hơi vô lý quá :D","can_remove":false,"created_time":"2013-05-06T14:32:48+0000","like_count":0,"user_likes":false},"650392404977440":{"id":"650392404977440","from":{"id":"100001458099624","name":"Kham Pha"},"message":"Thế thì bạn hiểu nhầm ý mình rồi “Em yêu anh trong cả giấc mơ mà chắc chắn không thể trở thành hiện thực”. Ý mình là vậy cơ. Nhưng mà đấy là chém đấy. Chắc dịch là \"Em yêu anh, chắc là giấc mơ không thể thành hiện thực rồi\" sẽ sát hơn. Nhưng mà dịch thế kia nghe cảm xúc hơn :))","can_remove":false,"created_time":"2013-05-06T14:36:35+0000","like_count":1,"user_likes":false},"650398074976873":{"id":"650398074976873","from":{"id":"100000041691073","name":"Phuong Nam Hoang"},"message":"Cam on ad nh lam","can_remove":false,"created_time":"2013-05-06T14:51:42+0000","like_count":1,"user_likes":false},"650419744974706":{"id":"650419744974706","from":{"id":"100003705664170","name":"Sói Minnie"},"message":"Cảm ơn bạn ad nhiều nhé.","can_remove":false,"created_time":"2013-05-06T15:51:19+0000","like_count":0,"user_likes":false},"650422034974477":{"id":"650422034974477","from":{"id":"100001659230540","name":"Lemon Tea"},"message":"biết khi nào mới làm đc như a í .Thanks ad nhiều!","can_remove":false,"created_time":"2013-05-06T15:57:35+0000","like_count":1,"user_likes":false},"650629888287025":{"id":"650629888287025","from":{"id":"100001458099624","name":"Kham Pha"},"message":"Có gì khó đâu, cứ dịch từng câu ra là được :)","can_remove":false,"created_time":"2013-05-07T02:56:41+0000","like_count":0,"user_likes":false},"650632901620057":{"id":"650632901620057","from":{"id":"100004270681738","name":"Khánh Sakura"},"message":"em thích học kiểu này.dễ vào.vừa học vừa giải trí luôn.hi","can_remove":false,"created_time":"2013-05-07T03:05:12+0000","like_count":0,"user_likes":false},"651332434883437":{"id":"651332434883437","from":{"id":"100003178154335","name":"Q Hưng Sjc"},"message":"はい。わからました","can_remove":false,"created_time":"2013-05-08T16:15:17+0000","like_count":0,"user_likes":false}},"paging":{"cursors":{"after":"NjUwMTMyNDIxNjcwMTA1","before":"NjUwMTMyNDIxNjcwMTA1"},"next":"https://graph.facebook.com/229244010425617_650125001670847/comments?limit=1&summary=1&after=NjUwMTMyNDIxNjcwMTA1"},"summary":{"order":"chronological","total_count":26}}}