{"id":"229244010425617_650775398272474","type":"link","picture":"https://fbexternal-a.akamaihd.net/safe_image.php?d=AQDkK3_IBjSB5dDB&w=154&h=154&url=http%3A%2F%2Fimages.ted.com%2Fimages%2Fted%2F48701_389x292.jpg","link":"http://www.ted.com/talks/lang/ja/robert_lang_folds_way_new_origami.html?source=facebook#.UYjyHBC6Ngx.facebook","from":{"id":"100001458099624","name":"Kham Pha"},"message":"Toán học và Origami. Rất thú vị!","created_time":"2013-05-07T12:23:52+0000","updated_time":"2013-05-07T13:24:44+0000","likes":{"data":{"100001804146433":{"id":"100001804146433","name":"Christ Lee"},"100003239853441":{"id":"100003239853441","name":"Chu Văn Thọ"},"1821970083":{"id":"1821970083","name":"Nguyễn Mạnh Cường"},"100002676859353":{"id":"100002676859353","name":"Chu Quang Viên"}},"paging":{"cursors":{"after":"MTAwMDAxODA0MTQ2NDMz","before":"MTAwMDAxODA0MTQ2NDMz"},"next":"https://graph.facebook.com/229244010425617_650775398272474/likes?limit=1&summary=1&after=MTAwMDAxODA0MTQ2NDMz"},"summary":{"total_count":4}},"comments":{"data":{"650778404938840":{"id":"650778404938840","from":{"id":"100002676859353","name":"Chu Quang Viên"},"message":"すばらしいビデーオ、本当にありがとうございます。このビデーオの内容は全部分からないのに、日本語サブがよむようにする。","can_remove":false,"created_time":"2013-05-07T12:33:51+0000","like_count":0,"user_likes":false},"650799071603440":{"id":"650799071603440","from":{"id":"1773169835","name":"Nguyễn Tuấn Hải"},"message":"Masamune Độc Hành có chọn sub việt đấy anh ơi =.=","message_tags":[{"id":"100002676859353","name":"Masamune Độc Hành","type":"user","offset":0,"length":17}],"can_remove":false,"created_time":"2013-05-07T13:24:44+0000","like_count":0,"user_likes":false}},"paging":{"cursors":{"after":"NjUwNzc4NDA0OTM4ODQw","before":"NjUwNzc4NDA0OTM4ODQw"},"next":"https://graph.facebook.com/229244010425617_650775398272474/comments?limit=1&summary=1&after=NjUwNzc4NDA0OTM4ODQw"},"summary":{"order":"chronological","total_count":2}}}