{"id":"229244010425617_650731104943570","type":"status","from":{"id":"1773169835","name":"Nguyễn Tuấn Hải"},"message":"tudiennhatviet.com/index.aspx?lg=vn\nKhông biết đã có ai giới thiệu trang này chưa. Em cứ post vậy :D\nĐây là trang từ điển online mà em thích nhất và cũng sử dụng thường xuyên nhất. Do em học chữ Hán theo cách nhớ âm Hán Việt, vì em nghĩ rằng thông qua đó vừa dễ nhớ âm onyomi vừa hiểu thêm về nhiều từ Hán Việt, thậm chí là sẽ có lợi hơn nữa nếu em định học tiếng TQ sau này. Tuy nhiên, lúc đầu mọi nguyện khá khó khăn, do đa số các từ điển không hỗ trợ tra cứu một cụm chữ Hán của tiếng Nhật ra âm Hán Việt mà chỉ nói nghĩa, và tra từng chữ cũng chỉ có nghĩa chứ không phải tất cả đều cung cấp âm Hán Việt. Lúc đầu em thường phải copy từng chữ vào từ điển tiếng Trung để hiểu, nhưng cũng hơi khó khăn do chữ TQ giờ là giản thể nên nhiều chữ cũng đã khác so với chữ Hán của Nhật xuất phát từ chữ Hán cổ. Sau đó nhờ 1 người bạn, em đã biết đến trang này, phải nói là trên cả tuyệt với, mình có thể gõ vào 1 từ tiếng Nhật và từ điển sẽ cung cấp cách đọc, chữ Hán, ý nghĩa, mẫu câu và đặc sắc nhất là âm Hán Việt của từng chữ Hán trong cụm từ. Điểm trừ duy nhất là trang web này không được đầu tư cơ sở hạ tầng tốt lắm nên thỉnh thoảng bị down, k thể truy cập nhưng gần đây đã ổn định hơn nhiều. Hi vọng trang web sẽ có ích với mọi người :)","created_time":"2013-05-07T09:40:17+0000","updated_time":"2013-05-07T13:29:53+0000","likes":{"data":{"100002290906582":{"id":"100002290906582","name":"Kanashimi No Yukue"},"100002265193557":{"id":"100002265193557","name":"Gấu Mó"},"100000922232765":{"id":"100000922232765","name":"Ca Duoi"},"100003342122124":{"id":"100003342122124","name":"Xuan Nguyen"},"1824015127":{"id":"1824015127","name":"Bùi Quang Tân"},"100004041794244":{"id":"100004041794244","name":"Watanuki Kimihiro"},"100001995263460":{"id":"100001995263460","name":"Chibi Yuriko"},"100001458099624":{"id":"100001458099624","name":"Kham Pha"},"100000087823910":{"id":"100000087823910","name":"Hieu Trung"},"1693102459":{"id":"1693102459","name":"Châu Hoàng"},"100003397876835":{"id":"100003397876835","name":"Nabito Lazy"},"100001628612184":{"id":"100001628612184","name":"Mai Tròn"},"100001739865592":{"id":"100001739865592","name":"Tung Le"}},"paging":{"cursors":{"after":"MTAwMDAyMjkwOTA2NTgy","before":"MTAwMDAyMjkwOTA2NTgy"},"next":"https://graph.facebook.com/229244010425617_650731104943570/likes?limit=1&summary=1&after=MTAwMDAyMjkwOTA2NTgy"},"summary":{"total_count":13}},"comments":{"data":{"650732914943389":{"id":"650732914943389","from":{"id":"100003397876835","name":"Nabito Lazy"},"message":"Load chậm quá bạn ạ","can_remove":false,"created_time":"2013-05-07T09:48:05+0000","like_count":0,"user_likes":false},"650735038276510":{"id":"650735038276510","from":{"id":"1773169835","name":"Nguyễn Tuấn Hải"},"message":"nó đang down rồi mà :v","can_remove":false,"created_time":"2013-05-07T09:57:39+0000","like_count":0,"user_likes":false},"650735214943159":{"id":"650735214943159","from":{"id":"100000087823910","name":"Hieu Trung"},"message":"có khi phải clone data trang này về.","can_remove":false,"created_time":"2013-05-07T09:58:13+0000","like_count":0,"user_likes":false},"650735948276419":{"id":"650735948276419","from":{"id":"1773169835","name":"Nguyễn Tuấn Hải"},"message":"Hieu Trung HTTTrack :v","message_tags":[{"id":"100000087823910","name":"Hieu Trung","type":"user","offset":0,"length":10}],"can_remove":false,"created_time":"2013-05-07T10:00:53+0000","like_count":0,"user_likes":false},"650736114943069":{"id":"650736114943069","from":{"id":"1773169835","name":"Nguyễn Tuấn Hải"},"message":"đang full ổ, bao giờ clone xong vứt t nhé Hieu Trung =))","message_tags":[{"id":"100000087823910","name":"Hieu Trung","type":"user","offset":42,"length":10}],"can_remove":false,"created_time":"2013-05-07T10:01:16+0000","like_count":0,"user_likes":false},"650736231609724":{"id":"650736231609724","from":{"id":"100000087823910","name":"Hieu Trung"},"message":"ngon :)) \nClone đi, đang định làm từ điển.","can_remove":false,"created_time":"2013-05-07T10:01:46+0000","like_count":0,"user_likes":false},"650738811609466":{"id":"650738811609466","from":{"id":"1773169835","name":"Nguyễn Tuấn Hải"},"message":"Hieu Trung t bảo ông làm cơ mà =.=","message_tags":[{"id":"100000087823910","name":"Hieu Trung","type":"user","offset":0,"length":10}],"can_remove":false,"created_time":"2013-05-07T10:12:23+0000","like_count":0,"user_likes":false},"650749111608436":{"id":"650749111608436","from":{"id":"100000087823910","name":"Hieu Trung"},"message":"đệt","can_remove":false,"created_time":"2013-05-07T10:53:36+0000","like_count":0,"user_likes":false},"650796844936996":{"id":"650796844936996","from":{"id":"100000198219367","name":"Chang Jiang"},"message":"hay nhưng mỗi tôi load chậm :))","can_remove":false,"created_time":"2013-05-07T13:18:12+0000","like_count":0,"user_likes":false},"650797018270312":{"id":"650797018270312","from":{"id":"1773169835","name":"Nguyễn Tuấn Hải"},"message":"Chỉ dùng khi cần tra tiếng Hán Việt thôi anh ạ :D","can_remove":false,"created_time":"2013-05-07T13:18:41+0000","like_count":0,"user_likes":false},"650797338270280":{"id":"650797338270280","from":{"id":"100000198219367","name":"Chang Jiang"},"message":"nhưng tra thế thì sốt ruột lắm :))\n\nnếu chỉ cần tra âm Hán Việt thì dùng từ điển Thiều Chửu có phải vừa nhanh vừa đc nhiều từ cùng lúc hơn ko :3","can_remove":false,"created_time":"2013-05-07T13:19:33+0000","like_count":0,"user_likes":false},"650797498270264":{"id":"650797498270264","from":{"id":"1773169835","name":"Nguyễn Tuấn Hải"},"message":"link đi anh ơi @_@","can_remove":false,"created_time":"2013-05-07T13:20:13+0000","like_count":0,"user_likes":false},"650797754936905":{"id":"650797754936905","from":{"id":"1773169835","name":"Nguyễn Tuấn Hải"},"message":"nếu là từ điển tiếng Tàu thì k đc nha anh, mình chỉ biết âm Nhật mà chưa từng nhìn thấy mặt chữ chẳng hạn :v","can_remove":false,"created_time":"2013-05-07T13:21:04+0000","like_count":0,"user_likes":false},"650797801603567":{"id":"650797801603567","from":{"id":"100000198219367","name":"Chang Jiang"},"message":"sak, đã từng giới thiệu trang này 1 lần rồi mà :v","can_remove":false,"created_time":"2013-05-07T13:21:22+0000","like_count":0,"user_likes":false},"650798064936874":{"id":"650798064936874","from":{"id":"100000198219367","name":"Chang Jiang"},"message":"nếu biết âm Nhật mà chưa thấy mặt chữ thì dùng jisho.org tra ra kanji, xong copy kanji vô :v","can_remove":false,"created_time":"2013-05-07T13:22:19+0000","like_count":0,"user_likes":false},"650798534936827":{"id":"650798534936827","from":{"id":"1773169835","name":"Nguyễn Tuấn Hải"},"message":"thế thì khác gì em nói lúc trc đâu =.= dùng từ điển tiếng Nhật và tiếng Trung song song =.=","can_remove":false,"created_time":"2013-05-07T13:23:21+0000","like_count":0,"user_likes":false},"650799124936768":{"id":"650799124936768","from":{"id":"100000198219367","name":"Chang Jiang"},"message":"vấn đề là chú dùng từ điển tiếng Trung nên phải tra từng từ :v\n\ncòn từ điển Thiều Chửu này chú gõ ra 1 list xong paste vào và bấm dịch, nó sẽ ra đồng loạt hiểu chứ :))","can_remove":false,"created_time":"2013-05-07T13:24:52+0000","like_count":0,"user_likes":false},"650800071603340":{"id":"650800071603340","from":{"id":"1773169835","name":"Nguyễn Tuấn Hải"},"message":"ah ah, hay thế <3","can_remove":false,"created_time":"2013-05-07T13:26:39+0000","like_count":0,"user_likes":false},"650800518269962":{"id":"650800518269962","from":{"id":"1773169835","name":"Nguyễn Tuấn Hải"},"message":"Chang Jiang Mà a post lại link đi :(","message_tags":[{"id":"100000198219367","name":"Chang Jiang","type":"user","offset":0,"length":11}],"can_remove":false,"created_time":"2013-05-07T13:27:25+0000","like_count":0,"user_likes":false},"650801718269842":{"id":"650801718269842","from":{"id":"100000198219367","name":"Chang Jiang"},"message":"có thể bỏ tuỳ chọn pinyin đi đỡ hiển thị phiên âm tiếng Tàu :))\n\nhttp://nguyendu.com.free.fr/langues/hanviet.htm","can_remove":false,"created_time":"2013-05-07T13:29:53+0000","like_count":1,"user_likes":false}},"paging":{"cursors":{"after":"NjUwNzMyOTE0OTQzMzg5","before":"NjUwNzMyOTE0OTQzMzg5"},"next":"https://graph.facebook.com/229244010425617_650731104943570/comments?limit=1&summary=1&after=NjUwNzMyOTE0OTQzMzg5"},"summary":{"order":"chronological","total_count":20}}}