{"id":"229244010425617_650700211613326","type":"status","from":{"id":"100004519592861","name":"Chiisai Hana"},"message":"Ad va cac senpaj oj e mun tu hoc tjeng nhat ai co phuong phap hoc toan djen va hoc tot ko chj e vz.arigato","created_time":"2013-05-07T07:21:41+0000","updated_time":"2013-05-08T05:13:10+0000","likes":{"data":{"100003239853441":{"id":"100003239853441","name":"Chu Văn Thọ"},"100004985943852":{"id":"100004985943852","name":"Nguyễn Kiên"},"1821970083":{"id":"1821970083","name":"Nguyễn Mạnh Cường"}},"paging":{"cursors":{"after":"MTAwMDAzMjM5ODUzNDQx","before":"MTAwMDAzMjM5ODUzNDQx"},"next":"https://graph.facebook.com/229244010425617_650700211613326/likes?limit=1&summary=1&after=MTAwMDAzMjM5ODUzNDQx"},"summary":{"total_count":3}},"comments":{"data":{"650707581612589":{"id":"650707581612589","from":{"id":"100004145293805","name":"Trần Đại Dương"},"message":"chẳng có phương pháp học nào là toàn diện hết cả đâu em! a chỉ muốn nói với e trước hết em phải yêu tiếng nhật, đam mê tiếng nhật.ko có sự thành công nào mà ko có kế hoạch cụ thể và hc tiếng nhật cũng vậy. tự hc rất khó tiến bộ nhưng e đừng nản, ngược lại phải kiên trì chịu khó, chăm chỉ đọc , viết, nói, dịch, xem phim, nghe nhạc nhật... Tất cả sẽ bắt đầu từ kế hoạch được vạch sẵn, mỗi ngày hc bao nhiêu phút, một tuần học bao nhiều ngày, một tháng học bao nhiêu bài... kết quả nắm đc là từ vựng, ngữ pháp, rồi áp dụng để hội thoại ( đặc biệt lưu ý một điều học ngoại ngữ mà ko nói  thì sẽ ko bao giờ nói giỏi được) người Việt có tính hay ngại khi phải nói nên e khác phục đc nhược điểm này thì cũng là một thành công trong hc tiếng nhật. Cuối cùng chúc em học tốt.","can_remove":false,"created_time":"2013-05-07T07:56:36+0000","like_count":8,"user_likes":false},"650830151600332":{"id":"650830151600332","from":{"id":"100004519592861","name":"Chiisai Hana"},"message":"vang e se co gang cam  on a vj nhung su chja se do.no rat thuc duc va huu ich vz e  cam  on a nhju nha","can_remove":false,"created_time":"2013-05-07T14:41:00+0000","like_count":0,"user_likes":false},"650843824932298":{"id":"650843824932298","from":{"id":"100004145293805","name":"Trần Đại Dương"},"message":"ｈｊ！どういたしまして","can_remove":false,"created_time":"2013-05-07T15:12:09+0000","like_count":0,"user_likes":false},"651128774903803":{"id":"651128774903803","from":{"id":"100000383155614","name":"Phạm Thúc Hưng"},"message":"Tung BuiNguyen hoc den dau roi, vao hoc hoi de :)","message_tags":[{"id":"100000340130908","name":"Tung BuiNguyen","type":"user","offset":0,"length":14}],"can_remove":false,"created_time":"2013-05-08T05:13:10+0000","like_count":0,"user_likes":false}},"paging":{"cursors":{"after":"NjUwNzA3NTgxNjEyNTg5","before":"NjUwNzA3NTgxNjEyNTg5"},"next":"https://graph.facebook.com/229244010425617_650700211613326/comments?limit=1&summary=1&after=NjUwNzA3NTgxNjEyNTg5"},"summary":{"order":"chronological","total_count":4}}}