{"id":"229244010425617_652029764813704","type":"status","from":{"id":"100001377033339","name":"Elena Ivanova"},"message":"Looking for vietnamese journalist or writer, living in Japan, blogger who writing about Japan for cooperation for web site \"Study in Japan\" for vietnamese student. Please write student japan@gmail.com, 81805017-3806 \nElena","created_time":"2013-05-10T05:27:23+0000","updated_time":"2013-05-10T23:56:10+0000","likes":{"data":{"100001594722256":{"id":"100001594722256","name":"Viết An Phạm"},"100000381394367":{"id":"100000381394367","name":"Thành Nguyễn"},"100005783684423":{"id":"100005783684423","name":"Chan Hi"},"100001458099624":{"id":"100001458099624","name":"Kham Pha"},"100000041691073":{"id":"100000041691073","name":"Phuong Nam Hoang"},"100002676363987":{"id":"100002676363987","name":"Myluong Vn"}},"paging":{"cursors":{"after":"MTAwMDAxNTk0NzIyMjU2","before":"MTAwMDAxNTk0NzIyMjU2"},"next":"https://graph.facebook.com/229244010425617_652029764813704/likes?limit=1&summary=1&after=MTAwMDAxNTk0NzIyMjU2"},"summary":{"total_count":6}},"comments":{"data":{"652087144807966":{"id":"652087144807966","from":{"id":"100001458099624","name":"Kham Pha"},"message":"Elena Ivanova sorry, I have a question. what's the benefit of the cooperation to writer? Could you give more details about the \"Study in Japan\" website? The link to website or some infomation.","message_tags":[{"id":"100001377033339","name":"Elena Ivanova","type":"user","offset":0,"length":13}],"can_remove":false,"created_time":"2013-05-10T09:42:29+0000","like_count":1,"user_likes":false},"652409424775738":{"id":"652409424775738","from":{"id":"100000381394367","name":"Thành Nguyễn"},"message":"Is this site http://www.studyjapan.go.jp/en/ which you mention?Elena Ivanova","can_remove":false,"created_time":"2013-05-10T23:56:10+0000","like_count":0,"user_likes":false}},"paging":{"cursors":{"after":"NjUyMDg3MTQ0ODA3OTY2","before":"NjUyMDg3MTQ0ODA3OTY2"},"next":"https://graph.facebook.com/229244010425617_652029764813704/comments?limit=1&summary=1&after=NjUyMDg3MTQ0ODA3OTY2"},"summary":{"order":"chronological","total_count":2}}}