{"id":"229244010425617_653141678035846","type":"status","from":{"id":"100004666446749","name":"Jouzu Waei"},"message":"Các bạn giúp mình mấy câu này với !!!\n（1）. ドライブ \n     １. 雨が降っていたので、駅まで息子をドライブしてやった。 \n     ２. 家族と海の近くをドライブするのが、休日の楽しみだ。 \n     ３. オ－トバイをドライブするには、特別な免許が必要だ。 \n     ４. 子供のころ、飛行機をドライブするのが夢だった。 \n   \n（2）. 礼儀 \n     １. 彼は言葉遣いもていねいだし、とても礼儀な人だ。 \n     ２. 体育館は入学式の会場に使われるので、すっかり礼儀に飾られている。 \n     ３. 恥ずかしい思いをしないように、きちんとした礼儀を身につけたい。 \n     ４. 先生と話すときは、きっと礼儀したらどうですか。\n (3).新しい携帯電話は、写真がとれるだけじゃなくて、テレビ＿＿＿見られるんだよ。\n     １. にまで     ２. だって     ３. よりか     ４. のくせに \n (4). ちゃんと前を見て運転してよ今、となりの車に＿＿＿よ。本当にあぶなかったんだから。。 \n     １. ぶつかるところだった     ２. ぶつかったところだ     ３. ぶつかってしまった     ４. ぶつかろうとした","created_time":"2013-05-12T15:08:33+0000","updated_time":"2013-05-12T15:48:21+0000","likes":{"data":{"1683010782":{"id":"1683010782","name":"Luan Nguyen"}},"paging":{"cursors":{"after":"MTY4MzAxMDc4Mg==","before":"MTY4MzAxMDc4Mg=="}},"summary":{"total_count":1}},"comments":{"data":{"653147771368570":{"id":"653147771368570","from":{"id":"100001458099624","name":"Kham Pha"},"message":"Không chắc nhưng có lẽ thế này: \n(1) 2\n(2) 3\n(3) 2 \n(4) 2","can_remove":false,"created_time":"2013-05-12T15:22:15+0000","like_count":1,"user_likes":false},"653149424701738":{"id":"653149424701738","from":{"id":"100004666446749","name":"Jouzu Waei"},"message":"mình cảm ơn các bạn ! ,đáp án của bạn Kham Pha đúng rồi.Bạn chỉ cho mình tại sao chọn như thế được không ,làm đề nhưng mấy câu này mình chưa hiểu lắm.","message_tags":[{"id":"100001458099624","name":"Kham Pha","type":"user","offset":38,"length":8}],"can_remove":false,"created_time":"2013-05-12T15:26:52+0000","like_count":0,"user_likes":false},"653149871368360":{"id":"653149871368360","from":{"id":"100001458099624","name":"Kham Pha"},"message":"sao bạn biết đúng? mình làm bừa ấy mà :D","can_remove":false,"created_time":"2013-05-12T15:27:48+0000","like_count":0,"user_likes":false},"653150254701655":{"id":"653150254701655","from":{"id":"100004666446749","name":"Jouzu Waei"},"message":"mình làm trong đề,nhưng sai mấy câu này ,có đáp án bạn ạ,but no có lời giải chi tiết ,bạn giúp tớ với ,senpai","can_remove":false,"created_time":"2013-05-12T15:28:47+0000","like_count":0,"user_likes":false},"653152081368139":{"id":"653152081368139","from":{"id":"100001458099624","name":"Kham Pha"},"message":"Câu 1: ドライブ là chỉ hành động lái xe ô tô đi chơi nên mấy cái máy bay với xe máy kia tiêu hết.\nCâu 2: chẳng ai nói 礼儀な人 cả, nếu có thì là 礼儀のある人. 礼儀に飾る thì càng ko, làm gì có \"trang trí một cách lễ nghĩa\"。Hình như ko có 礼儀する thì phải.","can_remove":false,"created_time":"2013-05-12T15:33:20+0000","like_count":3,"user_likes":false},"653152978034716":{"id":"653152978034716","from":{"id":"100001416272263","name":"Mai PB"},"message":"(4) 1 mới đúng chứ? Thật là (4) 2 không?","can_remove":false,"created_time":"2013-05-12T15:35:35+0000","like_count":1,"user_likes":false},"653153874701293":{"id":"653153874701293","from":{"id":"100001458099624","name":"Kham Pha"},"message":"Câu 3: だって là cách nói suồng sã, văn nói của でも. Ý nghĩa vế sau ý nói \"đến cả tivi cũng xem được\". \nCâu 4: Tình cảnh diễn ra sự việc này là suýt nữa thì đâm vào xe kia. 3 là sai vì đã đâm rồi, 4 sau vì đây là câu mang tính ý chỉ, chả ai chủ đích đâm cả. Còn lại 1 và 2. Vì mình cảm giác ko nên nói だった trong trường hợp này nên chọn 2. Giải thích rõ ra thì cũng chả biết giải thích thế nào.","can_remove":false,"created_time":"2013-05-12T15:38:10+0000","like_count":1,"user_likes":false},"653154241367923":{"id":"653154241367923","from":{"id":"100004666446749","name":"Jouzu Waei"},"message":"câu 4 đáp án 1 ,mình đã xem lại .mắt kém mong mọi người thông cảm nhé.","can_remove":false,"created_time":"2013-05-12T15:39:04+0000","like_count":1,"user_likes":false},"653154421367905":{"id":"653154421367905","from":{"id":"100001458099624","name":"Kham Pha"},"message":"oh, Mai PB đúng là cao thủ :)","message_tags":[{"id":"100001416272263","name":"Mai PB","type":"user","offset":4,"length":6}],"can_remove":false,"created_time":"2013-05-12T15:39:28+0000","like_count":0,"user_likes":false},"653155584701122":{"id":"653155584701122","from":{"id":"100001458099624","name":"Kham Pha"},"message":"Jouzu Waei đề N2 ah?","message_tags":[{"id":"100004666446749","name":"Jouzu Waei","type":"user","offset":0,"length":10}],"can_remove":false,"created_time":"2013-05-12T15:42:08+0000","like_count":1,"user_likes":false},"653156014701079":{"id":"653156014701079","from":{"id":"100004666446749","name":"Jouzu Waei"},"message":"2 kyuu 2009 bạn ạ","can_remove":false,"created_time":"2013-05-12T15:42:59+0000","like_count":0,"user_likes":false},"653156331367714":{"id":"653156331367714","from":{"id":"100001416272263","name":"Mai PB"},"message":"(4)-1 là vì không bị va chạm thực sự. (4)-2 không đúng ngữ cảnh, nó có nghĩa là chỗ (vị trí) đã bị va cham, tức là có va chạm rồi","can_remove":false,"created_time":"2013-05-12T15:43:38+0000","like_count":1,"user_likes":false},"653157538034260":{"id":"653157538034260","from":{"id":"100001458099624","name":"Kham Pha"},"message":"sao だった mà lại ko va chạm thật sự?","can_remove":false,"created_time":"2013-05-12T15:45:53+0000","like_count":0,"user_likes":false},"653159434700737":{"id":"653159434700737","from":{"id":"100001416272263","name":"Mai PB"},"message":"Tình huống xảy ra trong quá khứ còn gì? Tiếng Việt là \"vừa nãy suýt nữa (xém chút nữa) thì đã va chạm rồi\"","can_remove":false,"created_time":"2013-05-12T15:48:21+0000","like_count":2,"user_likes":false}},"paging":{"cursors":{"after":"NjUzMTQ3NzcxMzY4NTcw","before":"NjUzMTQ3NzcxMzY4NTcw"},"next":"https://graph.facebook.com/229244010425617_653141678035846/comments?limit=1&summary=1&after=NjUzMTQ3NzcxMzY4NTcw"},"summary":{"order":"chronological","total_count":14}}}