{"id":"229244010425617_654775374539143","type":"status","from":{"id":"100003738644056","name":"Xi Mong"},"message":"Cty mình đang cần tuyển 1 vị trí giáo viên tiếng Nhật dạy từ 18h đến 20h,thời gian còn lại ngồi tiếp nhận hồ sơ. địa điểm tại Hưng Yên. Tiếng Nhật N3 trở lên .Có chỗ ở miễn phí. Lương 300$.Các bạn có nhu cầu liên hệ Mr Hùng 0979 544 044 để biết thêm chi tiết nhé","created_time":"2013-05-16T06:29:44+0000","updated_time":"2013-05-16T13:28:30+0000","likes":{"data":{"100001731744647":{"id":"100001731744647","name":"Niềm Vui"}},"paging":{"cursors":{"after":"MTAwMDAxNzMxNzQ0NjQ3","before":"MTAwMDAxNzMxNzQ0NjQ3"}},"summary":{"total_count":1}},"comments":{"data":{"654779761205371":{"id":"654779761205371","from":{"id":"100001416272263","name":"Mai PB"},"message":"N3 dạy tiếng Nhật? :)","can_remove":false,"created_time":"2013-05-16T06:52:47+0000","like_count":0,"user_likes":false},"654856124531068":{"id":"654856124531068","from":{"id":"100001458099624","name":"Kham Pha"},"message":"Bạn Xi Mong chú ý, post cùng nội dung chỉ post 1 lần. Post giống nhau sẽ bị xóa.","message_tags":[{"id":"100003738644056","name":"Xi Mong","type":"user","offset":4,"length":7}],"can_remove":false,"created_time":"2013-05-16T11:29:21+0000","like_count":0,"user_likes":false},"654899247860089":{"id":"654899247860089","from":{"id":"100001739865592","name":"Tung Le"},"message":"N3 là dạy được rồi :)","can_remove":false,"created_time":"2013-05-16T13:28:30+0000","like_count":0,"user_likes":false}},"paging":{"cursors":{"after":"NjU0Nzc5NzYxMjA1Mzcx","before":"NjU0Nzc5NzYxMjA1Mzcx"},"next":"https://graph.facebook.com/229244010425617_654775374539143/comments?limit=1&summary=1&after=NjU0Nzc5NzYxMjA1Mzcx"},"summary":{"order":"chronological","total_count":3}}}