{"id":"229244010425617_656735471009800","type":"video","picture":"https://fbexternal-a.akamaihd.net/safe_image.php?d=AQAP4WoKVqSzryvy&w=130&h=130&url=http%3A%2F%2Fi3.ytimg.com%2Fvi%2FB7EPi7BFSes%2Fmaxresdefault.jpg%3Ffeature%3Dog","link":"http://www.youtube.com/watch?v=B7EPi7BFSes","source":"http://www.youtube.com/v/B7EPi7BFSes?autohide=1&version=3&autoplay=1","from":{"id":"100001458099624","name":"Kham Pha"},"message":"Bài 110: Học tiếng Nhật qua các bài hát (Phần 3:千の風になって )\n\nChào các bạn. Hôm nay chúng ta lại tiếp tục với loạt bài  “Học tiếng Nhật qua các bài hát”. Bài hôm nay là một bài rất hay, lần đầu tiên mình được nghe nó là khi còn ở Việt Nam, trong lễ hội Nhật Bản năm nào đó. Đến bây giờ vẫn ấn tượng mãi. Bài hát tựa đề “Trở thành ngàn cơn gió”, là một bài hát buồn bởi sự chia cắt giữa sự sống và cái chết. Người ta thường nói người chết là hết, chỉ người sống mới khổ đau. Nhưng thực sự có phải vậy không? Nếu như người ở lại biết được...\n\nhttp://www.youtube.com/watch?v=B7EPi7BFSes\n\n千の風になって \n\n私のお墓の前で　泣かないでください\nそこに私はいません　眠ってなんかいません\n千の風に\n千の風になって\nあの大きな空を\n吹きわたっています\n秋には光になって　畑にふりそそぐ\n冬はダイヤのように　きらめく雪になる\n朝は鳥になって　あなたを目覚めさせる\n夜は星になって　あなたを見守る\n私のお墓の前で　泣かないでください\nそこに私はいません　死んでなんかいません\n千の風に\n千の風になって\nあの大きな空を\n吹きわたっています\n千の風に\n千の風になって\nあの大きな空を\n吹きわたっています\nあの大きな空を\n吹きわたっています \n\n（１）私のお墓の前で　泣かないでください\n“Đừng đứng trước mộ anh, đừng có khóc”\n\n前（まえ）: đằng trước\nお墓（はか）: ngôi mộ\n泣（な）く: khóc \n泣かないでください là dạng Vないでください có nghĩa là “đừng làm V”\n\n（２）そこに私はいません　眠ってなんかいません\n“Anh không ở đó đâu. Cũng không ngủ đâu”\n\n眠（ねむ）る: ngủ. Chắc chắn sẽ có bạn thắc mắc tại sao ko phải 寝（ね）る cũng mang ý nghĩa “ngủ” như chúng ta thường gặp. Bởi 2 từ này là khác nhau đấy.  寝るlà chỉ việc ngủ gần như nằm nghỉ, còn 眠るlà một trạng thái mất đi tri giác, không cảm giác được xung quanh nữa. Nói cách khác, với 寝るthì bạn nằm ngủ vẫn có thể biết ti vi có cái gì, còn khi 眠るnếu có thấy cái gì thì chỉ có thể là mơ mà thôi.  寝る là nói chung cả việc nằm nghỉ, ngủ, nó rộng hơn 眠る. Dùng từ   眠る trong bài này ý tác giả là “không phải anh ngủ, anh ko hiểu gì đâu, anh vẫn biết mọi thứ xung quanh đấy”. \nなんか: văn nói của など, dùng để liệt kê. Đã học trong bài 81. Mời các bạn xem lại.\nBài 81: https://www.facebook.com/groups/229244010425617/doc/629149723768375/\nVới danh từ thì là Nなんか còn động từ thì chuyển sang thể て, là Vてなんか với ý nghĩa liệt kê “những việc như việc V ” thì sao đó. Ví dụ: \nお酒を飲んでなんか大嫌い\nTôi rất ghét uống rượu.\nNhưng nhớ là chỉ dùng trong văn nói, văn viết phải là など.\n\n（３）千の風に千の風になって\n“Anh trở thành ngàn cơn gió”\n\n風（かぜ）: cơn gió\n千（せん）: nghìn\n\n（４）あの大きな空を（５）吹きわたっています\n“Thổi qua bầu trời rộng lớn ấy”\n\n吹（ふ）き渡（わた）る: thổi qua.\n Tự dưng mình chợt nghĩ không biết bài “Cơn mưa ngang qua” nên dịch thế nào nhỉ? Có lẽ nào là 降（ふ）り渡る雨 chăng?\n大（おお）きな khác 大きい ở chỗ nào? Đố các bạn biết đấy.\n\n（６）秋には光になって　畑にふりそそぐ\n“Vào mùa thu, anh biến thành ánh sáng. Tràn xuống cánh đồng ”\n\n光（ひかり）: ánh sáng\n秋（あき）: mùa thu\n畑（はたけ）: cánh đồng\n降（ふ）り注（そそ）ぐ: đổ xuống\n\n（７）冬はダイヤのように　きらめく雪になる\n“Còn mùa đông, anh trở thành những bông tuyết lấp lánh như kim cương”\n\n冬（ふゆ）: mùa đông\nダイヤ: kim cương\nように: giống như. ように thì dùng với động từ, tính từ. ような thì dùng với danh từ.\n煌（きら）めく: lấp lánh\n雪（ゆき）: tuyết\n\n（８）朝は鳥になって　あなたを目覚めさせる\n“Buổi sáng anh biến thành chim, đánh thức em dậy”\n\n朝（あさ）: buổi sáng\n鳥（とり）: chim cò (chóc) :))\n目（め）覚（ざ）めさせる: làm cho thức. Động từ gốc của nó là 目覚める nghĩa là “thức dậy”. Các bạn chú ý nhé  目覚める là tự động từ dùng với trợ từ が. Tức là:\nあなたが目覚める: bạn (tự) thức dậy\nCòn khi nói “đánh thức bạn dậy” hay “làm cho bạn thức” thì chúng ta chuyển sang THỂ HÌNH (ko nhớ tên thể, gọi tạm vậy cho vui, bạn nào nhớ thì nhắc cho mình với :D )\nあなたを目覚めさせる\nVí dụ khác:\n音楽を聞く: tự tôi nghe nhạc\n音楽を聞かせる: (bạn) cho tôi nghe nhạc  \n\nViệc chuyển động từ sang cái THỂ HÌNH ấy không bắt buộc phải là tự động từ hay tha động từ, mà vấn đề của nó là ai làm cái việc ấy là TỰ NGƯỜI TA LÀM. Còn khi chuyển sang THỂ HÌNH thì là BẮT NGƯỜI TA LÀM. Cách chia động từ thì nó phân chia theo 3 nhóm, các bạn tự tìm hiểu nhé. \n \n（９）夜は星になって　あなたを見守る\n“Buổi tối thì biến thành những ngôi sao, dõi theo em”\n\n夜（よる）：buổi tối\n星（ほし）: ngôi sao\n見（み）守（まも）る: dõi theo\n\n（１０）私のお墓の前で　泣かないでください\n（１１）そこに私はいません　死んでなんかいません\n死（し）ぬ: chết\n\n（１２）千の風に千の風になって\n（１３）あの大きな空を吹きわたっています\n（１４）千の風に千の風になって\n（１５）あの大きな空を吹きわたっています\n（１６）あの大きな空を吹きわたっています \n\nKham Pha","created_time":"2013-05-20T13:03:11+0000","updated_time":"2013-10-07T03:14:30+0000","likes":{"data":{"100004958551770":{"id":"100004958551770","name":"Ohana Matsumae"},"1392762854":{"id":"1392762854","name":"Đỗ Minh Thu"},"100005801442456":{"id":"100005801442456","name":"An Nguyen"},"100002131699773":{"id":"100002131699773","name":"Minh Chau"},"100002265193557":{"id":"100002265193557","name":"Gấu Mó"},"100001723862714":{"id":"100001723862714","name":"Bo Bien Vang"},"100003011417151":{"id":"100003011417151","name":"Hue Kim"},"100000213464426":{"id":"100000213464426","name":"Tuấn Nguyễn"},"100000027754899":{"id":"100000027754899","name":"Hoang Van Ba"},"100003216142531":{"id":"100003216142531","name":"Dudu Tròn"},"100000299798248":{"id":"100000299798248","name":"Vẹt Đêm"},"100001594722256":{"id":"100001594722256","name":"Viết An Phạm"},"100001912324973":{"id":"100001912324973","name":"Totto Chan"},"100002829897061":{"id":"100002829897061","name":"Xiêu Nhân"},"100001646814780":{"id":"100001646814780","name":"Nhật Dương"},"100004705145167":{"id":"100004705145167","name":"Ngọc Tuệ Bạch"},"100003102655084":{"id":"100003102655084","name":"Cô Gái Xứ Dừa"},"1773169835":{"id":"1773169835","name":"Nguyễn Tuấn Hải"},"100000571251238":{"id":"100000571251238","name":"Uyển Nhi Dương"},"100003152781465":{"id":"100003152781465","name":"Shanya Pham"},"100001609833418":{"id":"100001609833418","name":"Tsunami Hime"},"100000942176772":{"id":"100000942176772","name":"Amaya Quỳnh"},"100000969905909":{"id":"100000969905909","name":"Shady Su"},"1833971897":{"id":"1833971897","name":"Trà Đá"},"100001754136107":{"id":"100001754136107","name":"Nguyễn Tuấn Vũ"},"100004220169147":{"id":"100004220169147","name":"Tuấn Anh"},"100003753111539":{"id":"100003753111539","name":"Uyvu Nguyen"}},"paging":{"cursors":{"after":"MTAwMDA0OTU4NTUxNzcw","before":"MTAwMDA0OTU4NTUxNzcw"},"next":"https://graph.facebook.com/229244010425617_656735471009800/likes?limit=1&summary=1&after=MTAwMDA0OTU4NTUxNzcw"},"summary":{"total_count":27}},"comments":{"data":{"656766107673403":{"id":"656766107673403","from":{"id":"100000969905909","name":"Shady Su"},"message":"o the cuoi cung ookiina voi ookii khac gi nhau","can_remove":false,"created_time":"2013-05-20T14:21:42+0000","like_count":0,"user_likes":false},"657187304297950":{"id":"657187304297950","from":{"id":"100001458099624","name":"Kham Pha"},"message":"đố mà :D","can_remove":false,"created_time":"2013-05-21T13:02:13+0000","like_count":0,"user_likes":false},"661766450506702":{"id":"661766450506702","from":{"id":"1843294954","name":"Nguyen Thanh Van"},"message":"The sai khien","can_remove":false,"created_time":"2013-05-30T11:07:38+0000","like_count":0,"user_likes":false},"661887193827961":{"id":"661887193827961","from":{"id":"100001458099624","name":"Kham Pha"},"message":"comment khó hiểu quá :|","can_remove":false,"created_time":"2013-05-30T15:36:01+0000","like_count":0,"user_likes":false},"662058823810798":{"id":"662058823810798","from":{"id":"100001458099624","name":"Kham Pha"},"message":"ah cái THỂ HÌNH ấy hả :))","can_remove":false,"created_time":"2013-05-30T23:40:30+0000","like_count":0,"user_likes":false},"731802013503145":{"id":"731802013503145","from":{"id":"100004094346107","name":"Thuy Nga Nguyen"},"message":"cai cau \"dung dung truoc mo anh ,dung co khoc\"cai do chi phu dinh dung co khoc thoi ma. cau nay phai la dung co khoc o truoc mo anh chu nhi!","can_remove":false,"created_time":"2013-10-03T07:41:34+0000","like_count":2,"user_likes":false},"731825233500823":{"id":"731825233500823","from":{"id":"100001416272263","name":"Mai PB"},"message":"Viết có dấu đi, Thuy Nga Nguyen","message_tags":[{"id":"100004094346107","name":"Thuy Nga Nguyen","type":"user","offset":16,"length":15}],"can_remove":false,"created_time":"2013-10-03T08:59:25+0000","like_count":0,"user_likes":false},"731837296832950":{"id":"731837296832950","from":{"id":"100001458099624","name":"Kham Pha"},"message":"Hoá ra vẫn có người đọc kĩ :D","can_remove":false,"created_time":"2013-10-03T09:45:24+0000","like_count":0,"user_likes":false},"731839593499387":{"id":"731839593499387","from":{"id":"100004094346107","name":"Thuy Nga Nguyen"},"message":"ok anh  Mai PB!","message_tags":[{"id":"100001416272263","name":"Mai PB","type":"user","offset":8,"length":6}],"can_remove":false,"created_time":"2013-10-03T09:54:22+0000","like_count":1,"user_likes":false},"731846620165351":{"id":"731846620165351","from":{"id":"100004094346107","name":"Thuy Nga Nguyen"},"message":"hihi tại thấy bài hát này hay nên em chép để hát màKham Pha","message_tags":[{"id":"100001458099624","name":"Kham Pha","type":"user","offset":51,"length":8}],"can_remove":false,"created_time":"2013-10-03T10:21:45+0000","like_count":0,"user_likes":false},"731854376831242":{"id":"731854376831242","from":{"id":"100001416272263","name":"Mai PB"},"message":"Bài này nghe thôi chứ đừng tập hát :-)","can_remove":false,"created_time":"2013-10-03T10:43:49+0000","like_count":0,"user_likes":false},"731995496817130":{"id":"731995496817130","from":{"id":"100004889430124","name":"Quiet Man"},"message":"Giọng Opera cao vút, nghe rất rõ.","can_remove":false,"created_time":"2013-10-03T15:55:22+0000","like_count":0,"user_likes":false},"734042583279088":{"id":"734042583279088","from":{"id":"100004094346107","name":"Thuy Nga Nguyen"},"message":"Bai nay buon qua nhi !","can_remove":false,"created_time":"2013-10-07T03:14:30+0000","like_count":0,"user_likes":false}},"paging":{"cursors":{"after":"NjU2NzY2MTA3NjczNDAz","before":"NjU2NzY2MTA3NjczNDAz"},"next":"https://graph.facebook.com/229244010425617_656735471009800/comments?limit=1&summary=1&after=NjU2NzY2MTA3NjczNDAz"},"summary":{"order":"chronological","total_count":13}}}