{"id":"229244010425617_656804444336236","type":"status","from":{"id":"100004797750302","name":"Duc Dinh"},"message":"Thong bao toi mai pv takubin ai co nhu cau ve cong viec sin lien he so may 08043734404 gap anh vu","created_time":"2013-05-20T15:52:00+0000","updated_time":"2013-05-31T07:40:30+0000","likes":{"data":{"100001880901011":{"id":"100001880901011","name":"Số Không"}},"paging":{"cursors":{"after":"MTAwMDAxODgwOTAxMDEx","before":"MTAwMDAxODgwOTAxMDEx"}},"summary":{"total_count":1}},"comments":{"data":{"662196780463669":{"id":"662196780463669","from":{"id":"100004133863020","name":"Ngô Thu Huyền"},"message":"nhưng cv ở đâu ạ?","can_remove":false,"created_time":"2013-05-31T06:54:51+0000","like_count":0,"user_likes":false},"662197140463633":{"id":"662197140463633","from":{"id":"100004797750302","name":"Duc Dinh"},"message":"Goi hoi vu ma contrai thoi con gai so ko lam dc","can_remove":false,"created_time":"2013-05-31T06:56:02+0000","like_count":0,"user_likes":false},"662197263796954":{"id":"662197263796954","from":{"id":"100004133863020","name":"Ngô Thu Huyền"},"message":"hihi","can_remove":false,"created_time":"2013-05-31T06:56:24+0000","like_count":0,"user_likes":false},"662197310463616":{"id":"662197310463616","from":{"id":"100004133863020","name":"Ngô Thu Huyền"},"message":"vâng","can_remove":false,"created_time":"2013-05-31T06:56:28+0000","like_count":0,"user_likes":false},"662197367130277":{"id":"662197367130277","from":{"id":"100004133863020","name":"Ngô Thu Huyền"},"message":"c ơn ạ","can_remove":false,"created_time":"2013-05-31T06:56:37+0000","like_count":0,"user_likes":false},"662198230463524":{"id":"662198230463524","from":{"id":"100003148830742","name":"Ẻm Đen"},"message":"Duc Dinh phỏng vấn ở đâu vậy a ơi","message_tags":[{"id":"100004797750302","name":"Duc Dinh","type":"user","offset":0,"length":8}],"can_remove":false,"created_time":"2013-05-31T06:59:14+0000","like_count":0,"user_likes":false},"662209023795778":{"id":"662209023795778","from":{"id":"100004797750302","name":"Duc Dinh"},"message":"Goi vu may biet roi con hoi","can_remove":false,"created_time":"2013-05-31T07:40:30+0000","like_count":0,"user_likes":false}},"paging":{"cursors":{"after":"NjYyMTk2NzgwNDYzNjY5","before":"NjYyMTk2NzgwNDYzNjY5"},"next":"https://graph.facebook.com/229244010425617_656804444336236/comments?limit=1&summary=1&after=NjYyMTk2NzgwNDYzNjY5"},"summary":{"order":"chronological","total_count":7}}}