{"id":"229244010425617_657647504251930","type":"status","from":{"id":"100001695345798","name":"Tyn Aki"},"message":"Bài 112: 逆接の使い方: Các mẫu câu sự tương phản\n\n皆さんこんばんは。\n \nỞ bài mình có giới thiệu các mẫu câu dùng để so sánh. Không biết mọi người còn nhớ bài không? ;) Có thể ôn lại theo đường link sau :D\n \n(^_^)ノヨシ。Bài hôm nay sẽ là về sự TƯƠNG PHẢN. Các mẫu câu được sắp xếp theo trình độ tăng dần. よろしくね。_(._.)_\n \n1. ～のに, ....\n       Nhắc đến mẫu câu đơn giản, chắc các bạn sẽ nghĩ ngay đến mẫu: 「～が, ...」 hoặc 「～けど、...」. Để nâng cao hơn trình độ, hãy thử với mẫu câu đơn giản 「～のに、...」nhé.\n       Cách dùng: Dùng trong trường hợp muốn thể hiện sự ngạc nhiên hay cảm giác khi những sự việc xảy ra trái với nguyện vọng, dự đoán của người nói.\n \na. 早く起きるつもりだったのに、寝坊（ねぼう）しちゃった。\n    Tôi định dậy sớm nhưng cuối cùng lại ngủ dậy muộn\nb. まだ3月なのに、初夏のような暖かさ（あたたかさ）だね。\n    Mới có tháng 3 mà nóng như đầu mùa hè thế nhỉ.\nc. 兄（あに）は背が高いのに、弟（おとうと）は背が低い。\n    Anh trai cao mà em trai thì thấp.\nd. 薬を飲んだのに、病気が治らない。\n    Đã uống thuốc rồi mà chưa khỏi bệnh.\nTiện thể ta sẽ ôn lại chút: 「～ので, ...」: Vì. Còn 「～のに、...」: nhưng.\n \n2.  ～ながら（も）, ...\n       Có mẫu câu sơ cấp ～ながら, ... để nói về hai hành động cùng diễn ra, trong đó nhấn mạnh động từ sau cùng. Cách phân biệt: Một mẫu câu chỉ sự tiếp tục của hai động tác, một mẫu câu chỉ kết quả, trạng thái. Dựa vào văn cảnh để phân biệt chính xác bạn nhé ^^.  \n       Ý nghĩa và cách dùng giống như mẫu câu số 1, chỉ có chút lưu ý về mối quan hệ giữa hai vế câu. A ながら (も), B: A chỉ mong muốn, dự định, A có thể đã thực hiện hoặc chưa, .. nhưng B mới là kết quả cuối cùng của sự việc, tất nhiên B trái lại với dự định của A. Nghe vòng và vòng vèo nhưng khi bạn xem ví dụ bạn sẽ hiểu ngay. \n \na. 明日は試験だと言いながら、テレビばかり見てる。\n   Dù nói ngày mai có bài kiểm ra nhưng mà bây giờ cứ xem suốt tivi.\nb. タバコは健康に悪いとは知りながら、なかなか止められない。\n   Vẫn biết thuốc là có hại cho sức khỏe nhưng mãi mà không bỏ được.\nc. 近くまで行きながら、彼には合わずに帰ってきた。\n    Dù đã đến gần nhưng cô ấy đã gặp anh ấy mà quay về.\nd. さっきご飯を食べていながら、また食べたいと言った。\n    Mới ăn xong mà giờ vẫn muốn ăn tiếp.\ne. このデジタルカメラは小型ながら（も）、なかなかの性能だ。\n   Cái máy ảnh kĩ thuật số này dù nhỏ nhưng khá nhiều tính năng.\nf. 狭いながらも一戸建てを手に入れた。\n   Dù chật nhưng cũng được có một căn hộ riêng. \n \n    Phân tích ví dụ a nhé: Ngày mai có bài kiểm tra, vậy mong muốn đặt ra sẽ là phải học bài, nhưng hành động đang diễn ra là gì? Là đang xem suốt tivi.\n    Tương tự ví dụ f: sẽ có suy đoán là với căn nhà với căn nhà chật thì người chủ sẽ không vui, nhưng ngược lại, tâm trạng khá thoải mái vì được sở hữu một căn hộ riêng. \n \n3. いくら ～ ても, ...: Cho dù....., nhưng...\n      いくら ở đây dịch là \"DÙ\" chứ không phải giá bao nhiêu nha ^^.\n \na. いくら練習しても、上手にならない。\n    Dù luyện tập bao nhiêu thì vẫn khôn giỏi được.\nb. いくら法律を作っても、悪いことをする人は減らない。\n    Cho dù có lập bao nhiêu bộ luật thì những người làm điều xấu vẫn không giảm.\nc. いくら勉強するように言っても、息子は遊んでばかりいる。\n     Dù nói rất nhiều là phải học nhưng con trai tôi vẫn suốt ngày chỉ chơi thôi.\n \n4. ～にもかかわらず, ...: Câu vế sau diễn ra mà không có sự liên quan gì đến điều nêu ra ở vế trước.\n \na. 雨が降ったにもかかわらず、試合は中止にならなかった。\n    Dù trời mưa nhưng trận đầu không bị hủy giữa chừng\nb. 前の試合で足をけがしたにもかかわらず、次の試合ではそんなことは全く表情（ひょ うじょう）に出さずに戦った（たたかった）。\n    Dù bị thương ở trận đấu trước nhưng ở trận đấu sau, anh ta không hề tỏ ra bị thương và tiếp tục thi đấu.\n \n   Trước đây ad Kham Pha có bài về mẫu: ～にかかわらず・～に（は）かかわりなく. https://www.facebook.com/groups/229244010425617/doc/594105647272783/\n    Hai mẫu câu hơn kém mỗi chữ も, dù nghĩa khái quát là như nhau, nhưng mẫu câu ～にもかかわらず, ...  có sự nhấn mạnh, thể hiện sắc thái cảm xúc hơn. Dù trời mưa, thi đấu rất khó khăn NHƯNG trận đấu không bị hủy. Tương tự với ví dụ sau đó.\n \n     Khi viết bài này mình chợt có một câu hỏi, ở mẫu câu 1 và 2, có trường hợp nào muốn nói sự  TƯƠNG PHẢN với dự dịnh nhưng bắt buộc dùng ながら chứ không dùng のに không? Liệu có sự phân biệt rạch ròi giữa hai mẫu này không, và có cần thiết có sự phân biệt đó không? Mong mọi người chỉ giáo. \n \n     P.s Các bạn xem các ví dụ sẽ hiểu cách kết hợp động từ với mẫu câu nhé. ^^\n \nCảm ơn mọi người. (#^.^#)\n \nTyn Aki","created_time":"2013-05-22T13:17:17+0000","updated_time":"2013-05-27T22:34:39+0000","likes":{"data":{"100000227232715":{"id":"100000227232715","name":"Mai Thuỳ Linh"},"100004145293805":{"id":"100004145293805","name":"Trần Đại Dương"},"100005087436518":{"id":"100005087436518","name":"Vũ Trịnh"},"1550521697":{"id":"1550521697","name":"Trình Nguyễn"},"100002761515610":{"id":"100002761515610","name":"Hưng Lê"},"100001754136107":{"id":"100001754136107","name":"Nguyễn Tuấn Vũ"},"100004452187279":{"id":"100004452187279","name":"Yoosi Hoa"},"100004666446749":{"id":"100004666446749","name":"Jouzu Waei"},"100001458099624":{"id":"100001458099624","name":"Kham Pha"},"100003950139327":{"id":"100003950139327","name":"Kathy Banh"},"100000299798248":{"id":"100000299798248","name":"Vẹt Đêm"}},"paging":{"cursors":{"after":"MTAwMDAwMjI3MjMyNzE1","before":"MTAwMDAwMjI3MjMyNzE1"},"next":"https://graph.facebook.com/229244010425617_657647504251930/likes?limit=1&summary=1&after=MTAwMDAwMjI3MjMyNzE1"},"summary":{"total_count":11}},"comments":{"data":{"659548057395208":{"id":"659548057395208","from":{"id":"1550521697","name":"Trình Nguyễn"},"message":"Bài viết hay (y)","can_remove":false,"created_time":"2013-05-26T08:10:40+0000","like_count":2,"user_likes":false},"659612524055428":{"id":"659612524055428","from":{"id":"100001458099624","name":"Kham Pha"},"message":"Cái khác cơ bản nhất, thấy ngay giữa ながら và のに là ながら ko thể dùng với tính từ. Còn đâu thì 2 cấu trúc này cũng nhiều khi dùng thay cho nhau lắm. \nTuy là thay được nhưng sắc thái thì khác nhau đấy. のに thì hay nói kiểu như phàn nàn, thắc mắc, ngạc nhiên, bất mãn,... còn ながら mức độ ko rõ ràng, chỉ như kể lại thôi, người nghe khó biết được đối phương đang có cảm xúc thế nào. Nghe người Nhật nói vài câu với のに và ながら kèm thái độ của họ là đoán được ngay ấy mà.","can_remove":false,"created_time":"2013-05-26T11:06:42+0000","like_count":2,"user_likes":false},"660328333983847":{"id":"660328333983847","from":{"id":"100001695345798","name":"Tyn Aki"},"message":"em cam on anh Kham Pha, mà bài này bị thiếu link dẫn. :D nhưng em sửa đầy đủ trong note rồi ạ","message_tags":[{"id":"100001458099624","name":"Kham Pha","type":"user","offset":14,"length":8}],"can_remove":false,"created_time":"2013-05-27T14:29:20+0000","like_count":0,"user_likes":false},"660369320646415":{"id":"660369320646415","from":{"id":"100001416272263","name":"Mai PB"},"message":"ながら dùng với cả tính từ và danh từ đấy ;-) http://dictionary.goo.ne.jp/leaf/jn2/163485/m0u/","can_remove":false,"created_time":"2013-05-27T15:55:34+0000","like_count":1,"user_likes":false},"660530893963591":{"id":"660530893963591","from":{"id":"100001458099624","name":"Kham Pha"},"message":"Đúng vậy thật :)","can_remove":false,"created_time":"2013-05-27T22:34:39+0000","like_count":0,"user_likes":false}},"paging":{"cursors":{"after":"NjU5NTQ4MDU3Mzk1MjA4","before":"NjU5NTQ4MDU3Mzk1MjA4"},"next":"https://graph.facebook.com/229244010425617_657647504251930/comments?limit=1&summary=1&after=NjU5NTQ4MDU3Mzk1MjA4"},"summary":{"order":"chronological","total_count":5}}}