{"id":"229244010425617_658088460874501","type":"video","picture":"https://fbexternal-a.akamaihd.net/safe_image.php?d=AQDkR_Pl3H71KZ1p&w=130&h=130&url=http%3A%2F%2Fi3.ytimg.com%2Fvi%2FZMqCsoLeMD0%2Fhqdefault.jpg%3Ffeature%3Dog","link":"http://www.youtube.com/watch?v=ZMqCsoLeMD0","source":"http://www.youtube.com/v/ZMqCsoLeMD0?version=3&autohide=1&autoplay=1","from":{"id":"100002246274598","name":"Tran Quang Anh"},"message":"Phần luyện nghe tổng hợp ( chỉ có file nghe hiểu thôi, ko có sách ebook đâu nhé ).Đây là phần nghe DORIRU , tổng hợp tất cả các dạng bài nghe sẽ có trong thi nghe N2.ACE nào quan tâm luyện nghe thì qua các link sau nghe thử.Gồm 3 đĩa Doriru A,B,C .Chúc ACE luyện nghe tốt nhé ^^ \nhttp://www.youtube.com/watch?v=ZMqCsoLeMD0","created_time":"2013-05-23T11:09:51+0000","updated_time":"2013-05-25T06:32:52+0000","likes":{"data":{"100001659230540":{"id":"100001659230540","name":"Lemon Tea"},"100000041691073":{"id":"100000041691073","name":"Phuong Nam Hoang"},"100001739865592":{"id":"100001739865592","name":"Tung Le"},"100001609833418":{"id":"100001609833418","name":"Tsunami Hime"},"100004458131717":{"id":"100004458131717","name":"Minh Huệ"},"100001695345798":{"id":"100001695345798","name":"Tyn Aki"},"100001754136107":{"id":"100001754136107","name":"Nguyễn Tuấn Vũ"},"100004749153687":{"id":"100004749153687","name":"Hùng Tẹo Hjhj"},"100003124307460":{"id":"100003124307460","name":"Duc Giang"},"100004269522244":{"id":"100004269522244","name":"Shin Bon Bon"},"100001458099624":{"id":"100001458099624","name":"Kham Pha"},"100003041594915":{"id":"100003041594915","name":"Hoa Cỏ May"}},"paging":{"cursors":{"after":"MTAwMDAxNjU5MjMwNTQw","before":"MTAwMDAxNjU5MjMwNTQw"},"next":"https://graph.facebook.com/229244010425617_658088460874501/likes?limit=1&summary=1&after=MTAwMDAxNjU5MjMwNTQw"},"summary":{"total_count":12}},"comments":{"data":{"659003437449670":{"id":"659003437449670","from":{"id":"100002246274598","name":"Tran Quang Anh"},"message":"Yuki Hana http://www.youtube.com/watch?v=GuH-Uf5OLXI e vào các link này nghe N4, và tìm các phần Part 2, 3, 4 ngay bên cạnh này","message_tags":[{"id":"100005766789069","name":"Yuki Hana","type":"user","offset":0,"length":9}],"can_remove":false,"created_time":"2013-05-25T06:32:52+0000","like_count":1,"user_likes":false}},"paging":{"cursors":{"after":"NjU5MDAzNDM3NDQ5Njcw","before":"NjU5MDAzNDM3NDQ5Njcw"}},"summary":{"order":"chronological","total_count":1}}}