{"id":"229244010425617_658074597542554","type":"status","from":{"id":"100004666446749","name":"Jouzu Waei"},"message":"có bạn nào có giáo trình luyện nghe N2 (, ebook + mp3 )không ạ ! share cho mình với ! cảm ơn các bạn !","created_time":"2013-05-23T10:38:11+0000","updated_time":"2013-05-23T11:32:04+0000","likes":{"data":{"100001683443068":{"id":"100001683443068","name":"Dương Tươi"},"1400326262":{"id":"1400326262","name":"Matsumoto Soutarou"},"100003041594915":{"id":"100003041594915","name":"Hoa Cỏ May"},"100003239853441":{"id":"100003239853441","name":"Chu Văn Thọ"}},"paging":{"cursors":{"after":"MTAwMDAxNjgzNDQzMDY4","before":"MTAwMDAxNjgzNDQzMDY4"},"next":"https://graph.facebook.com/229244010425617_658074597542554/likes?limit=1&summary=1&after=MTAwMDAxNjgzNDQzMDY4"},"summary":{"total_count":4}},"comments":{"data":{"658077830875564":{"id":"658077830875564","from":{"id":"100001508739620","name":"Lê Ngọc Hoàn"},"message":"Mình có korede daijoubu 2kyu nhưng ko có link, nếu b muốn thì đợi t up gửi link cho nhé","can_remove":false,"created_time":"2013-05-23T10:45:21+0000","like_count":2,"user_likes":false},"658079627542051":{"id":"658079627542051","from":{"id":"100003041594915","name":"Hoa Cỏ May"},"message":"có thì share cho mình vs lun mấy bn ới.","can_remove":false,"created_time":"2013-05-23T10:48:52+0000","like_count":0,"user_likes":false},"658080520875295":{"id":"658080520875295","from":{"id":"100004666446749","name":"Jouzu Waei"},"message":"bạn Lê Ngọc Hoàn có cả ebook chứ bạn","message_tags":[{"id":"100001508739620","name":"Lê Ngọc Hoàn","type":"user","offset":4,"length":12}],"can_remove":false,"created_time":"2013-05-23T10:51:41+0000","like_count":0,"user_likes":false},"658080804208600":{"id":"658080804208600","from":{"id":"100001508739620","name":"Lê Ngọc Hoàn"},"message":"Cả sách và file nghe luôn","can_remove":false,"created_time":"2013-05-23T10:52:41+0000","like_count":1,"user_likes":false},"658081110875236":{"id":"658081110875236","from":{"id":"100003041594915","name":"Hoa Cỏ May"},"message":"Lê Ngọc Hoàn bn share lên cho mọi ng cùng dùng đi bn","message_tags":[{"id":"100001508739620","name":"Lê Ngọc Hoàn","type":"user","offset":0,"length":12}],"can_remove":false,"created_time":"2013-05-23T10:53:35+0000","like_count":0,"user_likes":false},"658081280875219":{"id":"658081280875219","from":{"id":"100001508739620","name":"Lê Ngọc Hoàn"},"message":"Các bạn đợi chút nhé để t còn up lên","can_remove":false,"created_time":"2013-05-23T10:54:14+0000","like_count":0,"user_likes":false},"658081354208545":{"id":"658081354208545","from":{"id":"100004666446749","name":"Jouzu Waei"},"message":"bạn up file sách giúp tớ nhé , file nghe kiếm trên mạng được , như thế cho đỡ tốn time , hi ! thank bạn nhé","can_remove":false,"created_time":"2013-05-23T10:54:28+0000","like_count":0,"user_likes":false},"658084377541576":{"id":"658084377541576","from":{"id":"100002246274598","name":"Tran Quang Anh"},"message":"http://www.youtube.com/watch?v=OsU4Dd55O_0 bạn vào youtube xem . có các part từ 1--5 đó","can_remove":false,"created_time":"2013-05-23T11:00:34+0000","like_count":1,"user_likes":false},"658084470874900":{"id":"658084470874900","from":{"id":"100001508739620","name":"Lê Ngọc Hoàn"},"message":"Ok","can_remove":false,"created_time":"2013-05-23T11:00:41+0000","like_count":1,"user_likes":false},"658085710874776":{"id":"658085710874776","from":{"id":"100001508739620","name":"Lê Ngọc Hoàn"},"message":"Sách đây nhé\nhttp://www.mediafire.com/download/03kewda4y4pimsi/Korede_daijoobu_2_kyuu.pdf","can_remove":false,"created_time":"2013-05-23T11:02:31+0000","like_count":3,"user_likes":false},"658086784208002":{"id":"658086784208002","from":{"id":"100002246274598","name":"Tran Quang Anh"},"message":"Có bạn nào nghe DORIRU ko ? mình gửi link cho ( phần nghe tổng hợp các dạng sẽ cho trong đề thi nghe N2 )","can_remove":false,"created_time":"2013-05-23T11:05:40+0000","like_count":2,"user_likes":false},"658087024207978":{"id":"658087024207978","from":{"id":"100001508739620","name":"Lê Ngọc Hoàn"},"message":"Bạn cứ gửi lên cho mọi người đi :)","can_remove":false,"created_time":"2013-05-23T11:06:21+0000","like_count":1,"user_likes":false},"658087200874627":{"id":"658087200874627","from":{"id":"100002246274598","name":"Tran Quang Anh"},"message":"Okei","can_remove":false,"created_time":"2013-05-23T11:06:49+0000","like_count":0,"user_likes":false},"658090114207669":{"id":"658090114207669","from":{"id":"100002246274598","name":"Tran Quang Anh"},"message":"Mọi nguwoif lên đầu nhóm xem mấy link mình vừa gửi nhé","can_remove":false,"created_time":"2013-05-23T11:12:31+0000","like_count":1,"user_likes":false},"658096474207033":{"id":"658096474207033","from":{"id":"100001754136107","name":"Nguyễn Tuấn Vũ"},"message":"http://www.jlpt.jp/samples/sample12.html vao đây ma lam thử nhé","can_remove":false,"created_time":"2013-05-23T11:31:42+0000","like_count":2,"user_likes":false},"658096570873690":{"id":"658096570873690","from":{"id":"100001754136107","name":"Nguyễn Tuấn Vũ"},"message":"http://www.jlpt.jp/samples/sample12.html","can_remove":false,"created_time":"2013-05-23T11:32:04+0000","like_count":2,"user_likes":false}},"paging":{"cursors":{"after":"NjU4MDc3ODMwODc1NTY0","before":"NjU4MDc3ODMwODc1NTY0"},"next":"https://graph.facebook.com/229244010425617_658074597542554/comments?limit=1&summary=1&after=NjU4MDc3ODMwODc1NTY0"},"summary":{"order":"chronological","total_count":16}}}