{"id":"229244010425617_660281270655220","type":"status","from":{"id":"100002246274598","name":"Tran Quang Anh"},"message":"Dành cho các ACE ôn thi N2\n\n第１回　模擬テストー文法N2\n\n問題１：次の文の（　　）には,どんな言葉を入れたらよいですか。１．２．３．４　から最も適当なものを一つ選びなさい。\n\n１．あなた（　　　）よければ、私はそれで結構ですよ。\n\n１．すら　　２．こそ　　３．さえ　　　４．しか\n\n２．そんなことは太陽が西から出るのと同じくらい、（　　）話だよ。\n\n１．あり得る　　　　　２．あり得ない　　\n３．ありかねない　　　４．ありがちな\n\n３．あれだけの才能があり（　　　）、彼はなぜ認められないんだろう。\n\n１．に関わらず　　２．けれど　　３．ものの　　４．ながら\n４．アメリカで暮らしていた（　　　）、英語が上手とはかぎらない。\n\n１．からといって　　　　２．けれども　　\n３．からには　　　　　　４．からして\n\n５．あなたには実力があるのだから、テストについては心配する（　　　）はありません。\n\n１．わけ　　２．はず　　３．こと　　　４．もの\n\n6．私ではわかり（　　　）ので、後で担当者からご返事させます。\n\n１.きれます　　２.かねます　　３.得ます　４.かねません\n\n7．「子どもに（　　　）負けるものか」と思っていたのに、負けてしまった。\n\n１.なんか　　２.こそ　　３.だって　４.さえ\n\n８．子どものときは、暗くなるまで外で遊んだ（　　　）だ。\n\n１.こと　　２.もの　　３.とき　４.わけ\n\n９．音楽会の（　　　）子どもがさわいで、客はみんな怒り出した。\n\n１.直後　　２.ところで　　３.真ん中で　４.最中に\n\n１０．彼はうれしさの（　　　）、思わず涙を流した。\n\n１.くせに　　２.せいで　　３.あまり　４.ためて\n\n１１．新入社員に（　　　）彼が、その重大な仕事を任された。\n\n１.限る　　２.ほかならない　　３.すぎない　４.おける\n\n１２．私が心配した（　　　）、大雨で試合は延期になってしまった。\n\n１.とおり　　２.まま　　３.あたり　４.あまり\n\n１３．彼がアメリカに行って（　　　）、一度も手紙をもらっていない。\n\n１.きり　　２.以来　　３.からして　４.にかかわらず\n\n１４．まどを開けた（　　　）、強い風が吹き込んできて書類が飛ばされた。\n\n１.たびに　　２.次第　　３.に際して　４.とたん\n\n１５．そんな勉強で、大学に受かり（　　　）ないよ。\n\n１.っこ　　２.はず　　３.わけ　４.っけ\n\n１6．心から謝るなら（　　　）こともないのだが。あの態度では……\n\n１.許す　　２.許さない　　３.許した　４.許そう\n\n１７．姉は旅行に行く（　　　）、その地方の人形を買ってくる。\n\n１.ときに　　２.からには　　３.たびに　４.ところで\n\n１８．すごい金持ちがいる（　　）、住む家さえない人もいる。\n\n１.に反して　　２.一方で　　３.にかかわらず　４.に限らず\n\n１９．近ごろは男性（　　　）ならず、女性も競馬を楽しんでいる。\n\n１.のみ　　２.だけ　　３.しか　４.ばかり\n\n２０．彼は年を取っている（　　）、体力は若い者にまだ負けない。\n\n１.にして　　２.からには　　３.ものの　４.もので\n\n21．いくら親しい友達からでも、お金を借りる（　　　）ではない。\n\n１.はず　　２.わけ　　３.こと　４.べき\n\n２２．本当のことを言った（　　　）、彼を怒らせてしまった。\n\n１.おかげ　　２.ばかりに　　３.なら　４.以上は\n\n２３．ファンの期待に（　　　）、彼はみごとに世界選手権で優勝した。\n\n１.こたえて　　２.加えて　　３.反して　４.したがって\n\n２４．こんないなかにあるに（　　　）、あのレストランは雰囲気がいい。\n\n１.とっては　　２.しては　　３.よっては　４.わりに\n\n２５．皆で温泉に行って、飲む（　　　）歌う（　　）、大さわぎした。\n\n１.とか/とか　２.なり/なり　３.たり/たり　４.やら/やら\n\n問題２：次の文の（　　）には,どんな言葉を入れたらよいですか。１．２．３．４　から最も適当なものを一つ選びなさい\n\n１．どんなにがんばっても、あのチームには（　　　）。\n\n１．勝てるかもしれない　　　　　２．勝てっこない　　\n３．勝てるに違いない　　　　　　４．負けるはずがない\n\n２．彼は私の本を持っていったきり、（　　　）。\n\n１．返してくれた　　　　　　　　２．返してくれそうだ\n３．返そうとしない　　　　　　　４．返すつもりだ\n\n３．明日はもし雨になるとしても（　　　）。\n\n１．大した雨ではないでしょう　　２．大雨の恐れがあります\n３．かなりの雨になるでしょう　　４．大雨になりかねません\n\n４．彼がいろいろ手伝ってくれたおかげで、（　　　）。\n\n１．うまくいかなかった　　　　　２．うまくできた\n３．うまくいきっこない　　　　　４．失敗せずにいられない\n\n５．たとえ今年、試験に失敗しても（　　　）。\n\n１．来年もう一度受けよう　　 ２.もうあきらめざるを得ない\n３．就職するに決まっている　　４．失敗するはずがない\n\n問題３：次の文の（　　）には,どんな言葉を入れたらよいですか。１．２．３．４　から最も適当なものを一つ選びなさい\n\n１．一生懸命ドアを開けようとしたが開かない。かぎを調べて見てやっと気がついた。（　　　）、かぎが違っている。\n\n１．開くわけだ　　　　　２．開かないせいだ　　\n３．開かないことだ　　　４．開かないわけだ\n\n２．彼だってこの件で責任を感じて（　　　）。きっと何か対策を考えているだろう。\n\n１．いないわけではないだろう　　　　２．いないだろう　　\n３．いるわけないだろう　　　　　　　４．いないわけだろう\n\n３．君さえこちの条件を受け入れてくるなら、私も協力（　　　）。\n\n１．しないこともないんだが　　　２．することはないんだが　　\n３．しないはずないんだが　　　　４．することはするんだが\n\n４．先週中に論文を（　　　）のに、なまけてしまって完成できなかった。残念だ。\n\n１．書き上げるかと思った　　２．書き上げなければならない\n３．書き上げることだった　　４．書き上げるはずだった\n\n５．息子ももう大人だし、彼の考えもあるのだから、あまり小さなことに口出し（　　　）。\n\n１．してもいい　　　　　　　　　２．するのもいい　　\n３．しないはずがない　　　　　　４．するものではない\n\n以上！","created_time":"2013-05-27T12:49:42+0000","updated_time":"2013-06-05T14:02:43+0000","likes":{"data":{"100001637318798":{"id":"100001637318798","name":"Kora Kora"},"100002290906582":{"id":"100002290906582","name":"Kanashimi No Yukue"},"100002265193557":{"id":"100002265193557","name":"Gấu Mó"},"100001016429049":{"id":"100001016429049","name":"Huong Le"},"100003207550369":{"id":"100003207550369","name":"Khoa Doan"},"100003831561558":{"id":"100003831561558","name":"Ha Le"}},"paging":{"cursors":{"after":"MTAwMDAxNjM3MzE4Nzk4","before":"MTAwMDAxNjM3MzE4Nzk4"},"next":"https://graph.facebook.com/229244010425617_660281270655220/likes?limit=1&summary=1&after=MTAwMDAxNjM3MzE4Nzk4"},"summary":{"total_count":6}},"comments":{"data":{"660296350653712":{"id":"660296350653712","from":{"id":"100001458099624","name":"Kham Pha"},"message":"Dài quá. Mỗi lần 1 bài thôi :)","can_remove":false,"created_time":"2013-05-27T13:20:03+0000","like_count":0,"user_likes":false},"660296850653662":{"id":"660296850653662","from":{"id":"100002246274598","name":"Tran Quang Anh"},"message":"Cả 1 đề mà bạn. (y)","can_remove":false,"created_time":"2013-05-27T13:21:19+0000","like_count":0,"user_likes":false},"660297540653593":{"id":"660297540653593","from":{"id":"100001458099624","name":"Kham Pha"},"message":"1 đề hay nửa đề thì quan trọng gì, quan trọng là có hứng thú làm thì mới học được nhiều. Nhìn cả đề sẽ rất dài. Tâm lí chẳng ai thích làm nhiều như thế cả 1 lúc. Tách ra làm dần dần, học như thế có ích hơn.","can_remove":false,"created_time":"2013-05-27T13:23:26+0000","like_count":3,"user_likes":false},"660428003973880":{"id":"660428003973880","from":{"id":"100004169731179","name":"Hường Hoàng"},"message":"Cam on nhe. Minh mong ban post nhieu bai hon nua. -*-","can_remove":false,"created_time":"2013-05-27T17:49:04+0000","like_count":2,"user_likes":false},"660607233955957":{"id":"660607233955957","from":{"id":"100003207550369","name":"Khoa Doan"},"message":"de nay la 2kyuu ngay truoc dung khong Tran Quang Anh?minh thay n2 bay gio hinh nhu kho hon nhieu thi fai.cam on da post len nhe.","message_tags":[{"id":"100002246274598","name":"Tran Quang Anh","type":"user","offset":38,"length":14}],"can_remove":false,"created_time":"2013-05-28T02:34:07+0000","like_count":3,"user_likes":false},"660649083951772":{"id":"660649083951772","from":{"id":"100001016429049","name":"Huong Le"},"message":"hu với trình độ của mình hiện nay bao giờ mới làm được mấy bài này :(","can_remove":false,"created_time":"2013-05-28T04:44:49+0000","like_count":0,"user_likes":false},"660745527275461":{"id":"660745527275461","from":{"id":"100002246274598","name":"Tran Quang Anh"},"message":"Khoa Doan: Đây là các dạng câu hỏi trong bộ đề 2kyu cũ, phần bunpo. Có tất cả 15 đề như thế này, lần lượt giới thiệu tất cả các dạng cấu trúc ngữ pháp của 2 kyu( N2). Có time thì làm nhé.","message_tags":[{"id":"100003207550369","name":"Khoa Doan","type":"user","offset":0,"length":9}],"can_remove":false,"created_time":"2013-05-28T10:41:03+0000","like_count":0,"user_likes":false},"660772090606138":{"id":"660772090606138","from":{"id":"100001695345798","name":"Tyn Aki"},"message":"form 2kyu và n2 có khác nhau ko ạ,","can_remove":false,"created_time":"2013-05-28T11:58:00+0000","like_count":1,"user_likes":false},"660848897265124":{"id":"660848897265124","from":{"id":"100001912633316","name":"Du Ca"},"message":"thì bạn ấy có lòng đưa lên mọi người cũng có lòng tham khảo đi ^ ^ 2kyu tương đương với N3 bây giờ, nên cái này hữu ích cho bên N3","can_remove":false,"created_time":"2013-05-28T14:12:28+0000","like_count":3,"user_likes":false},"660857287264285":{"id":"660857287264285","from":{"id":"100004169731179","name":"Hường Hoàng"},"message":"N3 a ban . Ko den muk the dau ..","can_remove":false,"created_time":"2013-05-28T14:32:18+0000","like_count":1,"user_likes":false},"660860807263933":{"id":"660860807263933","from":{"id":"100003207550369","name":"Khoa Doan"},"message":"n3 la jun2kyuu nhung so voi n2 bay gio thi 2kyuu ngay truoc don gian hon.","can_remove":false,"created_time":"2013-05-28T14:39:39+0000","like_count":0,"user_likes":false},"660861177263896":{"id":"660861177263896","from":{"id":"100001912633316","name":"Du Ca"},"message":"tương đương thôi, N3 nó thấp hơn 1 tẹo ^ ^","can_remove":false,"created_time":"2013-05-28T14:40:31+0000","like_count":0,"user_likes":false},"660861353930545":{"id":"660861353930545","from":{"id":"100003207550369","name":"Khoa Doan"},"message":"quen.jun2kyuu la nam o giua n4 va n2 .n4 bay gio tuong duong voi 3kyuu ngay truoc do moi nguoi.","can_remove":false,"created_time":"2013-05-28T14:40:46+0000","like_count":0,"user_likes":false},"660870237262990":{"id":"660870237262990","from":{"id":"100004169731179","name":"Hường Hoàng"},"message":"Noi chung la cac ban thi n2 het chua. Minh thi 1 lan ui . Minh nghi n2 chi kho hon 2 kyu 1 chut xiu thui.  Ko phai la n3= 2 kyu. Theo minh ngji la nhu vay.","can_remove":false,"created_time":"2013-05-28T14:59:18+0000","like_count":1,"user_likes":false},"661297650553582":{"id":"661297650553582","from":{"id":"100003765489348","name":"Niên Nguyễn Võ"},"message":"toan chu han the nay thi kho lam ban ak","can_remove":false,"created_time":"2013-05-29T12:05:42+0000","like_count":0,"user_likes":false},"661297710553576":{"id":"661297710553576","from":{"id":"100003765489348","name":"Niên Nguyễn Võ"},"message":"co cach nao hoc chu han tot ko vay","can_remove":false,"created_time":"2013-05-29T12:05:58+0000","like_count":0,"user_likes":false},"664309713585709":{"id":"664309713585709","from":{"id":"100003877451650","name":"Huy Tự"},"message":"minh muon thi n3 co","can_remove":false,"created_time":"2013-06-03T12:22:31+0000","like_count":0,"user_likes":false},"664390293577651":{"id":"664390293577651","from":{"id":"100001637318798","name":"Kora Kora"},"message":"どうも！","can_remove":false,"created_time":"2013-06-03T15:20:21+0000","like_count":0,"user_likes":false},"664905470192800":{"id":"664905470192800","from":{"id":"100001754136107","name":"Nguyễn Tuấn Vũ"},"message":"Tran Quang Anh: hnao ra đáp án để so a ơi","message_tags":[{"id":"100002246274598","name":"Tran Quang Anh","type":"user","offset":0,"length":14}],"can_remove":false,"created_time":"2013-06-04T14:52:14+0000","like_count":0,"user_likes":false},"665375400145807":{"id":"665375400145807","from":{"id":"100002246274598","name":"Tran Quang Anh"},"message":"解答：\n問題１：\n(1) 3                     \n(2) 2\n(3) 4\n(4) 1\n(5) 3\n(6) 2\n(7) 1\n(8) 2\n(9) 4\n(10) 3\n(11) 3\n(12) 1\n(13) 2\n(14) 4\n(15) 1\n(16) 2\n(17) 3\n(18) 2\n(19) 1\n(20) 3\n(21) 4\n(22) 2\n(23) 1\n(24) 2\n(25) 4\n問題2\n(1) 2\n(2) 3\n(3) 1\n(4) 2\n(5) 1\n問題3\n(1) 4\n(2) 1\n(3) 1\n(4) 4\n(5) 4\n\n以上！\nNguyễn Tuấn Vũ","message_tags":[{"id":"100001754136107","name":"Nguyễn Tuấn Vũ","type":"user","offset":269,"length":14}],"can_remove":false,"created_time":"2013-06-05T12:45:27+0000","like_count":1,"user_likes":false},"665410083475672":{"id":"665410083475672","from":{"id":"1693102459","name":"Châu Hoàng"},"message":"Nguyễn Tuấn Vũ: mần xong rồi à, giỏi quá nha (rofl)","message_tags":[{"id":"100001754136107","name":"Nguyễn Tuấn Vũ","type":"user","offset":0,"length":14}],"can_remove":false,"created_time":"2013-06-05T14:02:43+0000","like_count":0,"user_likes":false}},"paging":{"cursors":{"after":"NjYwMjk2MzUwNjUzNzEy","before":"NjYwMjk2MzUwNjUzNzEy"},"next":"https://graph.facebook.com/229244010425617_660281270655220/comments?limit=1&summary=1&after=NjYwMjk2MzUwNjUzNzEy"},"summary":{"order":"chronological","total_count":21}}}