{"id":"229244010425617_660690930614254","type":"status","from":{"id":"100004395671089","name":"Nguyễn Văn Thứ"},"message":"Mọi người cho em hỏi về kỳ thi EJU nhóm ngành kinh tế thì phải thi các môn khoa học tự nhiên ạ, mà điểm trung bình là bao nhiêu thì được xét vào hệ đại học. Thanks. Tài liệu ôn thi ở Việt Nam thì mua ở chỗ nào Hà Nội. Hi, xem qua cái đề mà thấy chương trình học nó hơi khác so với Việt Nam nên hơi choáng , không biết ôn rồi có làm bài tốt không.","created_time":"2013-05-28T07:34:38+0000","updated_time":"2013-05-28T14:13:56+0000","comments":{"data":{"660693837280630":{"id":"660693837280630","from":{"id":"100001458099624","name":"Kham Pha"},"message":"Pham Thi Thanh Nga","message_tags":[{"id":"1270781159","name":"Pham Thi Thanh Nga","type":"user","offset":0,"length":18}],"can_remove":false,"created_time":"2013-05-28T07:47:38+0000","like_count":1,"user_likes":false},"660732367276777":{"id":"660732367276777","from":{"id":"100001854133263","name":"Tuan Anh Le"},"message":"Thi kinh tế thì k thi bên tự nhiên bạn à. Thi bên nhân Văn gồm Toán 1, Tiếng Nhật và môn tổng hợp ( địa lí, lịch sử, chính trị, kinh tế). Sách ôn thi mua ở đâu ở VN mình k biết. Liên hệ vs trường Đông du thì tốt hơn.","can_remove":false,"created_time":"2013-05-28T10:01:15+0000","like_count":1,"user_likes":false},"660732783943402":{"id":"660732783943402","from":{"id":"100001854133263","name":"Tuan Anh Le"},"message":"À quên thi bên Nhân Văn k phải thi tự nhiên :)) Gõ nhầm","can_remove":false,"created_time":"2013-05-28T10:02:28+0000","like_count":1,"user_likes":false},"660736993942981":{"id":"660736993942981","from":{"id":"100004395671089","name":"Nguyễn Văn Thứ"},"message":"vậy là không thi các môn khối ngành khoa học tự nhiên ạ","can_remove":false,"created_time":"2013-05-28T10:16:02+0000","like_count":0,"user_likes":false},"660737897276224":{"id":"660737897276224","from":{"id":"100004395671089","name":"Nguyễn Văn Thứ"},"message":"Thanks mọi người nhé","can_remove":false,"created_time":"2013-05-28T10:18:26+0000","like_count":0,"user_likes":false},"660836897266324":{"id":"660836897266324","from":{"id":"100001854133263","name":"Tuan Anh Le"},"message":"Bên Nhật họ xếp kinh tế vào bên nhân Văn nên k Cần thi các môn bên tự nhiên.","can_remove":false,"created_time":"2013-05-28T13:49:50+0000","like_count":0,"user_likes":false},"660849577265056":{"id":"660849577265056","from":{"id":"100001841757627","name":"Ngân Ngố"},"message":"Trường tự nhiên bọn minh không có khoa Tiếng nhật cậu a! cái đó thuộc về Nhân văn. vi ngay xưa là trường tổng hợp nên mọi người thường hay nhâm!","can_remove":false,"created_time":"2013-05-28T14:13:56+0000","like_count":0,"user_likes":false}},"paging":{"cursors":{"after":"NjYwNjkzODM3MjgwNjMw","before":"NjYwNjkzODM3MjgwNjMw"},"next":"https://graph.facebook.com/229244010425617_660690930614254/comments?limit=1&summary=1&after=NjYwNjkzODM3MjgwNjMw"},"summary":{"order":"chronological","total_count":7}},"likes":{"data":[]}}