{"id":"229244010425617_661241990559148","type":"link","picture":"https://fbcdn-profile-a.akamaihd.net/hprofile-ak-ash3/t1.0-1/c15.8.100.100/945330_328385177289315_1326817636_s.jpg","link":"https://www.facebook.com/gjobsvn/posts/328721260589040","from":{"id":"1582652177","name":"Vo Ngoc"},"message":"Mình cần tuyển vị trí SYSTEM ANALYST (tiếng Nhật tương đương N2) cho một Công ty của Nhật tại Hà Nội. Lương và chế độ sẽ trao đổi chi tiết cụ thể với những bạn quan tâm. Rất mong nhận được sự hợp tác của các bạn. Cảm ơn nhiều\n\nVõ Ngọc\n(ngocvt@hrdata.com.vn / skype-yahoo: vongoc1701 / 0975202529)\n\nHãy LIKE page GoodJobs https://www.facebook.com/gjobsvn?ref=ts&fref=ts để đón nhận thông tin và cơ hội mới mỗi ngày cho bạn nhé.","created_time":"2013-05-29T09:20:05+0000","updated_time":"2013-06-04T01:39:57+0000","likes":{"data":{"100003219237591":{"id":"100003219237591","name":"Thu Huyen"},"100001057467030":{"id":"100001057467030","name":"Buông Tay"},"100000421640870":{"id":"100000421640870","name":"Heo Luoi"},"100003689850495":{"id":"100003689850495","name":"Huong Phi"},"1778931068":{"id":"1778931068","name":"Hà Vô Vọng"},"100004169731179":{"id":"100004169731179","name":"Hường Hoàng"}},"paging":{"cursors":{"after":"MTAwMDAzMjE5MjM3NTkx","before":"MTAwMDAzMjE5MjM3NTkx"},"next":"https://graph.facebook.com/229244010425617_661241990559148/likes?limit=1&summary=1&after=MTAwMDAzMjE5MjM3NTkx"},"summary":{"total_count":6}},"comments":{"data":{"661348377215176":{"id":"661348377215176","from":{"id":"100001416272263","name":"Mai PB"},"message":"Em có công việc nào cho người Nhật biết tiếng Việt tiếng Anh, lương ít nhất 2000 không?","can_remove":false,"created_time":"2013-05-29T14:09:19+0000","like_count":1,"user_likes":false},"661349293881751":{"id":"661349293881751","from":{"id":"1582652177","name":"Vo Ngoc"},"message":"Anh ơi, anh add nick chat của em hoặc email gửi CV cho em nhé, mai em sẽ trao đổi thêm với anh","can_remove":false,"created_time":"2013-05-29T14:11:34+0000","like_count":0,"user_likes":false},"661350457214968":{"id":"661350457214968","from":{"id":"100001416272263","name":"Mai PB"},"message":"Cái đó anh không có được, anh mới hỏi hộ thôi. Nếu em có những công việc như vậy, anh sẽ nhắn người ta đăng ký trực tiếp với em.","can_remove":false,"created_time":"2013-05-29T14:14:16+0000","like_count":1,"user_likes":false},"661353260548021":{"id":"661353260548021","from":{"id":"1582652177","name":"Vo Ngoc"},"message":"Anh cứ bảo anh/chị ấy gửi Cv tiếng Nhật và tiếng anh vào email giúp em nhé ngocvt@hrdata.com.vn. thks anh","can_remove":false,"created_time":"2013-05-29T14:20:42+0000","like_count":1,"user_likes":false},"661623883854292":{"id":"661623883854292","from":{"id":"100000421640870","name":"Heo Luoi"},"message":"ban oi mình tốt nghiệp bách khoa Đà nẵng, hiện đang ở Nhật đã có N2 dự định cuối năm về có việc nào phù hợp ở Quảng Nam và Đà Nẵng bạn giới thiệu với!","can_remove":false,"created_time":"2013-05-30T02:42:48+0000","like_count":1,"user_likes":false},"661624223854258":{"id":"661624223854258","from":{"id":"1582652177","name":"Vo Ngoc"},"message":"bạn cứ gửi CV cho mình theo email: ngocvt@hrdata.com.vn nhé Heo Luoi. Có job phù hợp mình sẽ ping luôn","message_tags":[{"id":"100000421640870","name":"Heo Luoi","type":"user","offset":60,"length":8}],"can_remove":false,"created_time":"2013-05-30T02:43:33+0000","like_count":1,"user_likes":false},"661624780520869":{"id":"661624780520869","from":{"id":"100000421640870","name":"Heo Luoi"},"message":"ok  cảm ơn bạn! mình sẽ gởi CV cho bạn sớm nhất có thể!","can_remove":false,"created_time":"2013-05-30T02:45:31+0000","like_count":1,"user_likes":false},"661626187187395":{"id":"661626187187395","from":{"id":"1582652177","name":"Vo Ngoc"},"message":"ukie bạn nhé, mình chờ nhé","can_remove":false,"created_time":"2013-05-30T02:49:32+0000","like_count":0,"user_likes":false},"662111650472182":{"id":"662111650472182","from":{"id":"100001841757627","name":"Ngân Ngố"},"message":"chị ơi! cho em hỏi! bạn em học xây dựng có tiếng nhật N3 . giờ có công việc nao phù hợp không chị giới thiệu em với ạ, nhưng địa điêm ở hải dương hay ha nội, hải phòng ạ.cảm ơn chị","can_remove":false,"created_time":"2013-05-31T02:06:43+0000","like_count":0,"user_likes":false},"664640280219319":{"id":"664640280219319","from":{"id":"100004030436081","name":"Thi Chu"},"message":"chị NGỌC !e học tiêng nhật tương đương N3 rui và biết tiếng anh nữa.em rât thinh làm o công ty nhật nhưng toàn yêu cầu N2 ,cao wa .có công việc liên wan tiếng nhật  chị chỉ giup em vợ .thanks chj!","can_remove":false,"created_time":"2013-06-04T01:39:57+0000","like_count":0,"user_likes":false}},"paging":{"cursors":{"after":"NjYxMzQ4Mzc3MjE1MTc2","before":"NjYxMzQ4Mzc3MjE1MTc2"},"next":"https://graph.facebook.com/229244010425617_661241990559148/comments?limit=1&summary=1&after=NjYxMzQ4Mzc3MjE1MTc2"},"summary":{"order":"chronological","total_count":10}}}