{"id":"229244010425617_662181130465234","type":"link","link":"https://www.facebook.com/events/590856337600157/","from":{"id":"100001929019961","name":"Thao Vu"},"message":"Chào các bạn, tháng 6 này trung tâm tiếng Nhật Mina sẽ tuyển thêm nhiều giáo viên, bạn nào quan tâm nhanh tay ứng tuyển nhé - Lương + thưởng xứng đáng ^^ Chi tiết: http://www.facebook.com/events/590856337600157/ Nhờ mọi người giới thiệu giúp trung tâm nhé ^^","created_time":"2013-05-31T06:05:29+0000","updated_time":"2013-06-03T10:09:17+0000","likes":{"data":{"100001695345798":{"id":"100001695345798","name":"Tyn Aki"}},"paging":{"cursors":{"after":"MTAwMDAxNjk1MzQ1Nzk4","before":"MTAwMDAxNjk1MzQ1Nzk4"}},"summary":{"total_count":1}},"comments":{"data":{"664258933590787":{"id":"664258933590787","from":{"id":"100000641227862","name":"Anh Lê"},"message":"chị còn nhớ em k :)) chị vs cô Huệ vẫn tiếp tục lớp tiếng Nhật ngày xưa à","can_remove":false,"created_time":"2013-06-03T10:04:00+0000","like_count":0,"user_likes":false},"664260783590602":{"id":"664260783590602","from":{"id":"100001929019961","name":"Thao Vu"},"message":"uh em ạ Anh Lê, cô Huế nhé ^^","message_tags":[{"id":"100000641227862","name":"Anh Lê","type":"user","offset":8,"length":6}],"can_remove":false,"created_time":"2013-06-03T10:09:17+0000","like_count":0,"user_likes":false}},"paging":{"cursors":{"after":"NjY0MjU4OTMzNTkwNzg3","before":"NjY0MjU4OTMzNTkwNzg3"},"next":"https://graph.facebook.com/229244010425617_662181130465234/comments?limit=1&summary=1&after=NjY0MjU4OTMzNTkwNzg3"},"summary":{"order":"chronological","total_count":2}}}