{"id":"229244010425617_663690893647591","type":"status","from":{"id":"1821970083","name":"Nguyễn Mạnh Cường"},"message":"Mọi người cho mình hỏi có ai đang học ở Đh công nghiệp Tokyo tokodai ko ạ? Mình muốn hỏi trước kinh nghiệm thi vào đại học trường này có khó không cũng như việc dành học bổng trong thời gian theo học.\n\nDự định sắp tới mình đi du học tự túc, tự tìm hiểu thì thấy mặc dù Tokyo đắt đỏ nhưng là nơi tốt nhất về môi trường và cơ hội. Nếu ai đang học trường tiếng tại Tokyo thì có thể cho mình vài lời khuyên nên chọn trường nào cho tốt mà giá học phí vừa phải không ạ?\nChân thành cảm ơn mọi người chia sẻ!","created_time":"2013-06-02T15:36:16+0000","updated_time":"2013-06-04T18:03:20+0000","likes":{"data":{"100000200742771":{"id":"100000200742771","name":"Nấm Ngoan Hiền"},"100003383827564":{"id":"100003383827564","name":"Khoảng Lặng"},"100004041794244":{"id":"100004041794244","name":"Watanuki Kimihiro"}},"paging":{"cursors":{"after":"MTAwMDAwMjAwNzQyNzcx","before":"MTAwMDAwMjAwNzQyNzcx"},"next":"https://graph.facebook.com/229244010425617_663690893647591/likes?limit=1&summary=1&after=MTAwMDAwMjAwNzQyNzcx"},"summary":{"total_count":3}},"comments":{"data":{"663694616980552":{"id":"663694616980552","from":{"id":"1693102459","name":"Châu Hoàng"},"message":"tính đi vùng Tokyo à anh :)","can_remove":false,"created_time":"2013-06-02T15:44:37+0000","like_count":1,"user_likes":false},"664152993601381":{"id":"664152993601381","from":{"id":"100001458099624","name":"Kham Pha"},"message":"anh Phan Tom có thông tin gì không?","message_tags":[{"id":"1440247680","name":"Phan Tom","type":"user","offset":4,"length":8}],"can_remove":false,"created_time":"2013-06-03T07:39:10+0000","like_count":1,"user_likes":false},"664982010185146":{"id":"664982010185146","from":{"id":"100000200742771","name":"Nấm Ngoan Hiền"},"message":"Mình cũng có nhu cầu muốn biết giống bạn :)","can_remove":false,"created_time":"2013-06-04T18:03:20+0000","like_count":0,"user_likes":false}},"paging":{"cursors":{"after":"NjYzNjk0NjE2OTgwNTUy","before":"NjYzNjk0NjE2OTgwNTUy"},"next":"https://graph.facebook.com/229244010425617_663690893647591/comments?limit=1&summary=1&after=NjYzNjk0NjE2OTgwNTUy"},"summary":{"order":"chronological","total_count":3}}}