{"id":"229244010425617_664860870197260","type":"photo","object_id":"530507513674514","picture":"https://fbcdn-photos-h-a.akamaihd.net/hphotos-ak-prn2/t1.0-0/5876_530507513674514_2034904267_s.jpg","link":"https://www.facebook.com/photo.php?fbid=530507513674514&set=gm.664860870197260&type=1&relevant_count=1","from":{"id":"100001458099624","name":"Kham Pha"},"message":"Dạo này bận deadline ko viết bài đc mong mọi người thông cảm. Hôm nay đi mua thùng nước này, lúc tính tiền thì chả thấy giảm tiền mà lại dán cái này lên thùng. Người Nhật đúng là cầu kì. Cứ dán tờ 1man lên có phải tốt ko :3","created_time":"2013-06-04T13:08:49+0000","updated_time":"2013-06-04T13:59:30+0000","likes":{"data":{"100004159503039":{"id":"100004159503039","name":"Miu Chan"},"100002681965331":{"id":"100002681965331","name":"Chuột Ngốc"},"100002190349813":{"id":"100002190349813","name":"Củi Khô"},"100001284703208":{"id":"100001284703208","name":"Ba Duy"},"100001580479641":{"id":"100001580479641","name":"Hà Xuân Thủy"},"100001695345798":{"id":"100001695345798","name":"Tyn Aki"},"1693102459":{"id":"1693102459","name":"Châu Hoàng"},"100001260645727":{"id":"100001260645727","name":"Ngo Duy Son"},"1717530880":{"id":"1717530880","name":"Triệu Việt Cường"}},"paging":{"cursors":{"after":"MTAwMDA0MTU5NTAzMDM5","before":"MTAwMDA0MTU5NTAzMDM5"},"next":"https://graph.facebook.com/229244010425617_664860870197260/likes?limit=1&summary=1&after=MTAwMDA0MTU5NTAzMDM5"},"summary":{"total_count":9}},"comments":{"data":{"664864416863572":{"id":"664864416863572","from":{"id":"1693102459","name":"Châu Hoàng"},"message":"cám ơn bằng tờ 1 man thì (y)","can_remove":false,"created_time":"2013-06-04T13:17:57+0000","like_count":0,"user_likes":false},"664865160196831":{"id":"664865160196831","from":{"id":"100001580479641","name":"Hà Xuân Thủy"},"message":"Thực ra là ngoài ý cảm tạ thì nó còn mang ý nghĩa xác nhận là hàng đã thanh toán, ở nhật có thể đem theo đồ khi mua sắm nên dễ bị kẻ gian lợi dụng.","can_remove":false,"created_time":"2013-06-04T13:19:56+0000","like_count":3,"user_likes":false},"664866036863410":{"id":"664866036863410","from":{"id":"100001284703208","name":"Ba Duy"},"message":"arigatou vì thông tin bổ ích này  :D","can_remove":false,"created_time":"2013-06-04T13:22:18+0000","like_count":0,"user_likes":false},"664866670196680":{"id":"664866670196680","from":{"id":"100001754136107","name":"Nguyễn Tuấn Vũ"},"message":"A thử bảo ko dán nó cũng dán ấy :)","can_remove":false,"created_time":"2013-06-04T13:24:13+0000","like_count":0,"user_likes":false},"664866973529983":{"id":"664866973529983","from":{"id":"100001754136107","name":"Nguyễn Tuấn Vũ"},"message":"Châu Hoàng: mơ thế :))","message_tags":[{"id":"1693102459","name":"Châu Hoàng","type":"user","offset":0,"length":10}],"can_remove":false,"created_time":"2013-06-04T13:25:10+0000","like_count":0,"user_likes":false},"664868896863124":{"id":"664868896863124","from":{"id":"1693102459","name":"Châu Hoàng"},"message":"Nguyễn Tuấn Vũ: mơ mãi có ngày nó cũng thành thật (rofl)","message_tags":[{"id":"100001754136107","name":"Nguyễn Tuấn Vũ","type":"user","offset":0,"length":14}],"can_remove":false,"created_time":"2013-06-04T13:30:24+0000","like_count":0,"user_likes":false},"664882150195132":{"id":"664882150195132","from":{"id":"100002265193557","name":"Gấu Mó"},"message":":)) anh cứ mơ","can_remove":false,"created_time":"2013-06-04T13:59:30+0000","like_count":0,"user_likes":false}},"paging":{"cursors":{"after":"NjY0ODY0NDE2ODYzNTcy","before":"NjY0ODY0NDE2ODYzNTcy"},"next":"https://graph.facebook.com/229244010425617_664860870197260/comments?limit=1&summary=1&after=NjY0ODY0NDE2ODYzNTcy"},"summary":{"order":"chronological","total_count":7}}}