{"id":"229244010425617_664891120194235","type":"status","from":{"id":"100000281038667","name":"Nguyễn Hải"},"message":"Kính chào toàn thể anh chị em trong hội! rất mong được nghe tư vấn từ anh chị em trong hội.\n hiện tại mình đang ở nhật dưới dạng tu nghiệp sinh, cũng sắp hết hạn phải về nước, nhưng khổ 1 lỗi là cũng muốn quay lại đây, mà chưa biết thế nào.Rất mong anh chị em trong hội tư vấn và chỉ bảo. Có những con đường nào để quay lại đây, kinh phí thế nào? rất mong mọi người chỉ giáo! thank mọi người.","created_time":"2013-06-04T14:21:23+0000","updated_time":"2013-06-04T15:12:20+0000","likes":{"data":{"1821970083":{"id":"1821970083","name":"Nguyễn Mạnh Cường"}},"paging":{"cursors":{"after":"MTgyMTk3MDA4Mw==","before":"MTgyMTk3MDA4Mw=="}},"summary":{"total_count":1}},"comments":{"data":{"664899563526724":{"id":"664899563526724","from":{"id":"100001754136107","name":"Nguyễn Tuấn Vũ"},"message":"Về xong lại sang tiếp theo con đường du hoc a ak","can_remove":false,"created_time":"2013-06-04T14:38:53+0000","like_count":1,"user_likes":false},"664900883526592":{"id":"664900883526592","from":{"id":"100000281038667","name":"Nguyễn Hải"},"message":"thank bạn Nguyễn Tuấn Vũ","message_tags":[{"id":"100001754136107","name":"Nguyễn Tuấn Vũ","type":"user","offset":10,"length":14}],"can_remove":false,"created_time":"2013-06-04T14:42:02+0000","like_count":0,"user_likes":false},"664909356859078":{"id":"664909356859078","from":{"id":"100001531816305","name":"Mẫn Nghi"},"message":"nhung tu nghiệp sinh quay lại với con đường du học chỉ có thể đc với đk là sau 1 năm . Và tỷ lệ quay lại thành công chỉ có 20% thui nhé :)","can_remove":false,"created_time":"2013-06-04T15:00:43+0000","like_count":0,"user_likes":false},"664914603525220":{"id":"664914603525220","from":{"id":"100001754136107","name":"Nguyễn Tuấn Vũ"},"message":"Minh  quen 1 anh đi tu nghiep xong lai di du hoc.viza giờ nhu hs bon minh","can_remove":false,"created_time":"2013-06-04T15:12:20+0000","like_count":0,"user_likes":false}},"paging":{"cursors":{"after":"NjY0ODk5NTYzNTI2NzI0","before":"NjY0ODk5NTYzNTI2NzI0"},"next":"https://graph.facebook.com/229244010425617_664891120194235/comments?limit=1&summary=1&after=NjY0ODk5NTYzNTI2NzI0"},"summary":{"order":"chronological","total_count":4}}}