{"id":"229244010425617_664810756868938","type":"link","link":"https://docs.google.com/forms/d/1JijWbwV_ke9801K9efQ7_NLLR6S9ZJ5tyeXZUKGaaGQ/viewform","from":{"id":"100001695345798","name":"Tyn Aki"},"message":"Mục đích của bài khảo sát để nắm bắt thông tin về các thành viên, qua đó Group sẽ có sự thay đổi cũng như đề ra nhiều hoạt động trong tương lai để Group ngày càng tiến bộ, tiếp tục thực hiện tiêu chí: Chia sẻ và kết nối tinh thần Nhật Việt. \nRất mong nhận được sự góp ý của các thành viên. \n皆さんよろしくお願い致します。　<m(_ _)m>\nhttps://docs.google.com/forms/d/1JijWbwV_ke9801K9efQ7_NLLR6S9ZJ5tyeXZUKGaaGQ/viewform","created_time":"2013-06-04T10:53:47+0000","updated_time":"2013-06-21T08:07:10+0000","likes":{"data":{"100003040281667":{"id":"100003040281667","name":"Banglangtim Nguyen"},"100003549909353":{"id":"100003549909353","name":"Thang Nguyen Van"},"100001797440732":{"id":"100001797440732","name":"Hans Thinh Le"},"100003667111438":{"id":"100003667111438","name":"Mai Sakura Lê"},"100000179637081":{"id":"100000179637081","name":"Hyun Hyhy"},"100001899732293":{"id":"100001899732293","name":"Tồ Hồ Đồ"},"100001200126728":{"id":"100001200126728","name":"Poni Trần"},"100002098748602":{"id":"100002098748602","name":"Thuần Việt"},"100001523750434":{"id":"100001523750434","name":"Hoài Nguyễn"},"100001335231684":{"id":"100001335231684","name":"Takashi Mori"},"100001007000967":{"id":"100001007000967","name":"Bibi Nguyễn"},"100001864793577":{"id":"100001864793577","name":"Sakura Đhbkhn"},"100004205437257":{"id":"100004205437257","name":"Nỗi Đau Xót Xa"},"100001442509723":{"id":"100001442509723","name":"Nguyễn Mai Anh"},"100003812229267":{"id":"100003812229267","name":"Nguyễn Trang"},"100001603388890":{"id":"100001603388890","name":"Ken Ayunpa"},"100002749645254":{"id":"100002749645254","name":"Bài Ca Cecilia"},"100001637318798":{"id":"100001637318798","name":"Kora Kora"},"100001284703208":{"id":"100001284703208","name":"Ba Duy"},"100000299798248":{"id":"100000299798248","name":"Vẹt Đêm"},"100001609833418":{"id":"100001609833418","name":"Tsunami Hime"},"100000383155614":{"id":"100000383155614","name":"Phạm Thúc Hưng"},"100001995263460":{"id":"100001995263460","name":"Chibi Yuriko"},"100004041794244":{"id":"100004041794244","name":"Watanuki Kimihiro"},"100002676859353":{"id":"100002676859353","name":"Chu Quang Viên"},"100001754136107":{"id":"100001754136107","name":"Nguyễn Tuấn Vũ"},"100001458099624":{"id":"100001458099624","name":"Kham Pha"}},"paging":{"cursors":{"after":"MTAwMDAzMDQwMjgxNjY3","before":"MTAwMDAzMDQwMjgxNjY3"},"next":"https://graph.facebook.com/229244010425617_664810756868938/likes?limit=1&summary=1&after=MTAwMDAzMDQwMjgxNjY3"},"summary":{"total_count":29}},"comments":{"data":{"664832176866796":{"id":"664832176866796","from":{"id":"100001695345798","name":"Tyn Aki"},"message":"bài khảo sát đang nhận được rất nhiều thông tin quý báu, mong các bạn tham gia ^^. *đa tạ* ^^","can_remove":false,"created_time":"2013-06-04T11:54:26+0000","like_count":1,"user_likes":false},"664835980199749":{"id":"664835980199749","from":{"id":"100001754136107","name":"Nguyễn Tuấn Vũ"},"message":"Vất vả linh rồi.","can_remove":false,"created_time":"2013-06-04T12:04:01+0000","like_count":0,"user_likes":false},"664869536863060":{"id":"664869536863060","from":{"id":"100001695345798","name":"Tyn Aki"},"message":"iie ^^","can_remove":false,"created_time":"2013-06-04T13:31:45+0000","like_count":0,"user_likes":false},"665665276783486":{"id":"665665276783486","from":{"id":"100001754136107","name":"Nguyễn Tuấn Vũ"},"message":"Châu Hoàng","message_tags":[{"id":"1693102459","name":"Châu Hoàng","type":"user","offset":0,"length":10}],"can_remove":false,"created_time":"2013-06-06T01:33:04+0000","like_count":0,"user_likes":false},"665688426781171":{"id":"665688426781171","from":{"id":"1693102459","name":"Châu Hoàng"},"message":"Nguyễn Tuấn Vũ: nani?","message_tags":[{"id":"100001754136107","name":"Nguyễn Tuấn Vũ","type":"user","offset":0,"length":14}],"can_remove":false,"created_time":"2013-06-06T02:32:59+0000","like_count":0,"user_likes":false},"669499429733404":{"id":"669499429733404","from":{"id":"100003812229267","name":"Nguyễn Trang"},"message":"hi","can_remove":false,"created_time":"2013-06-13T08:41:14+0000","like_count":0,"user_likes":false},"673590492657631":{"id":"673590492657631","from":{"id":"100003549909353","name":"Thang Nguyen Van"},"message":"hai","can_remove":false,"created_time":"2013-06-21T08:07:10+0000","like_count":0,"user_likes":false}},"paging":{"cursors":{"after":"NjY0ODMyMTc2ODY2Nzk2","before":"NjY0ODMyMTc2ODY2Nzk2"},"next":"https://graph.facebook.com/229244010425617_664810756868938/comments?limit=1&summary=1&after=NjY0ODMyMTc2ODY2Nzk2"},"summary":{"order":"chronological","total_count":7}}}