{"id":"229244010425617_665924236757590","type":"status","from":{"id":"100001458099624","name":"Kham Pha"},"message":"Theo bạn khi người Nhật mời đến nhà dùng cơm thì việc tặng quà có cần thiết không? Nếu có thì nên mang quà gì? \nĐây không phải lần đầu mình đến nhà người Nhật dùng bữa, nhưng mà trước thì chưa bao giờ nghĩ việc mang quà gì. Nhưng mà mấy lần có mời người Nhật đến nhà chơi thì họ đều mang bánh kẹo, nhiều thứ linh tinh đến nên làm mình phải suy nghĩ lại.","created_time":"2013-06-06T14:19:35+0000","updated_time":"2013-06-07T06:02:12+0000","likes":{"data":{"1821970083":{"id":"1821970083","name":"Nguyễn Mạnh Cường"},"100005783684423":{"id":"100005783684423","name":"Chan Hi"},"100004697134434":{"id":"100004697134434","name":"Thảo Xexekubo"},"100001739865592":{"id":"100001739865592","name":"Tung Le"},"100003731305416":{"id":"100003731305416","name":"Nam Nguyen"}},"paging":{"cursors":{"after":"MTgyMTk3MDA4Mw==","before":"MTgyMTk3MDA4Mw=="},"next":"https://graph.facebook.com/229244010425617_665924236757590/likes?limit=1&summary=1&after=MTgyMTk3MDA4Mw%3D%3D"},"summary":{"total_count":5}},"comments":{"data":{"665924940090853":{"id":"665924940090853","from":{"id":"100001503971079","name":"Yuuta Nguyễn"},"message":"có thể là cafe, khăn mặt, khăn tắm,...","can_remove":false,"created_time":"2013-06-06T14:21:10+0000","like_count":0,"user_likes":false},"665926776757336":{"id":"665926776757336","from":{"id":"100002905068205","name":"Doan Trang Phan"},"message":"Hay là bạn cũng tặng người ta bánh kẹo đi. Nếu có cà phê VN để tặng thì tốt ^^","can_remove":false,"created_time":"2013-06-06T14:26:20+0000","like_count":0,"user_likes":false},"665927220090625":{"id":"665927220090625","from":{"id":"100001754136107","name":"Nguyễn Tuấn Vũ"},"message":"Cà phê.thuong e đi thi mua hộp bánh hoac trà","can_remove":false,"created_time":"2013-06-06T14:27:25+0000","like_count":0,"user_likes":false},"665927806757233":{"id":"665927806757233","from":{"id":"100003731305416","name":"Nam Nguyen"},"message":"Qua que thi dc qua cua nhat tag nhat ng ta k thik dau","can_remove":false,"created_time":"2013-06-06T14:29:00+0000","like_count":0,"user_likes":false},"665928130090534":{"id":"665928130090534","from":{"id":"100003926400742","name":"Trần Mạnh"},"message":"bia , họ đến nhà mình rất hay mang bia","can_remove":false,"created_time":"2013-06-06T14:29:32+0000","like_count":0,"user_likes":false},"665928480090499":{"id":"665928480090499","from":{"id":"1714365712","name":"Pi Maru"},"message":"Mang theo tấm lòng :p hehe","can_remove":false,"created_time":"2013-06-06T14:30:13+0000","like_count":0,"user_likes":false},"665928786757135":{"id":"665928786757135","from":{"id":"100001580479641","name":"Hà Xuân Thủy"},"message":"Cty mình toàn thấy bánh kẹo, socola, thạch,...","can_remove":false,"created_time":"2013-06-06T14:30:51+0000","like_count":0,"user_likes":false},"665936163423064":{"id":"665936163423064","from":{"id":"100004455759017","name":"VN JP"},"message":"Hoa quả, bánh kẹo, bia, nước ngọt...","can_remove":false,"created_time":"2013-06-06T14:46:57+0000","like_count":0,"user_likes":false},"665983136751700":{"id":"665983136751700","from":{"id":"100002749645254","name":"Bài Ca Cecilia"},"message":"coi Doraemon mình thấy họ mang bánh rán :3","can_remove":false,"created_time":"2013-06-06T16:33:48+0000","like_count":0,"user_likes":false},"665985393418141":{"id":"665985393418141","from":{"id":"100001458099624","name":"Kham Pha"},"message":"Thanks mọi người :)","can_remove":false,"created_time":"2013-06-06T16:39:49+0000","like_count":0,"user_likes":false},"666178776732136":{"id":"666178776732136","from":{"id":"100001739865592","name":"Tung Le"},"message":"Bác Kham Pha đi chơi nhà người Nhật có gì review lại cho mọi người trong group để học hỏi,chắc cũng có nhiều người quan tâm đến vấn đề này :)","message_tags":[{"id":"100001458099624","name":"Kham Pha","type":"user","offset":4,"length":8}],"can_remove":false,"created_time":"2013-06-07T02:26:08+0000","like_count":0,"user_likes":false},"666181643398516":{"id":"666181643398516","from":{"id":"100001458099624","name":"Kham Pha"},"message":"Ok :)","can_remove":false,"created_time":"2013-06-07T02:37:00+0000","like_count":0,"user_likes":false},"666248770058470":{"id":"666248770058470","from":{"id":"100001723862714","name":"Bo Bien Vang"},"message":"hãy mang bất cứ thứ gì bạn thích, ko cần là họ thích, vì đây là văn hóa của họ. khi đến hãy mang theo 1 món đồ, ko nhất thiết phải là giá trị đâu.","can_remove":false,"created_time":"2013-06-07T06:02:12+0000","like_count":0,"user_likes":false}},"paging":{"cursors":{"after":"NjY1OTI0OTQwMDkwODUz","before":"NjY1OTI0OTQwMDkwODUz"},"next":"https://graph.facebook.com/229244010425617_665924236757590/comments?limit=1&summary=1&after=NjY1OTI0OTQwMDkwODUz"},"summary":{"order":"chronological","total_count":13}}}