{"id":"229244010425617_666307746719239","type":"link","picture":"https://fbexternal-a.akamaihd.net/safe_image.php?d=AQCCIKiDsbStOWqp&w=154&h=154&url=http%3A%2F%2Fi96.photobucket.com%2Falbums%2Fl169%2Ftrangden_01%2FVietsubvnItazuranaKiss_LoveInTokyoE011280x720avi_thumbs_20130405_175408_zps37add56b.jpg","link":"http://vietsub.vn/forum/threads/7198-Fuji-TV-2013-Nu-hon-tinh-nghich-Itazura-na-Kiss-Love-in-Tokyo-Vietsub-tap-1-coming-soon-.html?p=65242#post65242","from":{"id":"100001695345798","name":"Tyn Aki"},"message":"Bài 200: [Giao tiếp] Học giao tiếp tiếng Nhật thông qua drama\n\nXin chào các bạn, như mọi biết nhóm đang tiến hành bài khảo sát (được đính ở ở đầu trang), group đã nhận được những góp ý rất quý báu và sẽ tiếp thu thay đổi trong thời gian sắp tới. Rất mong tiếp tục nhận được những góp ý từ các thành viên ^^/\n \nBài hôm nay mình muốn giới thiệu đến các bạn bộ phim đang chiếu và khá nổi tiếng, thu hút sự quan tâm của các bạn xem truyền hình: 「イタズラなkiss - Love in Tokyo」- tên tiếng Việt là Nụ hôn tinh nghịch, phiên bàn Đài Loan là: \"Ngây thơ\" một thời làm mưa làm gió với anh Trịnh Nguyên Sướng. Bộ phim đang chiếu tới tập 9 (có 16 tập) và sẽ là sự lựa chọn ko sai lầm với các bạn yêu thích thể loại ロブ・ロマンス (lãng mạn, hài hước). Đây là link xem online tập 1. Với tập 1 hôm nay, mình muốn giới thiệu đến các bạn một vài các nói trong giao tiếp, cũng hữu ích cho việc nghe đó. Phim có chèn vietsub nên các bạn với các bạn mới học không hề lo lắng nhé/ よし(^_^)ノ。はじめようか。\n \nhttp://vietsub.vn/forum/threads/7198-Fuji-TV-2013-Nu-hon-tinh-nghich-Itazura-na-Kiss-Love-in-Tokyo-Vietsub-tap-1-coming-soon-.html?p=65242#post65242\n \n1. Ở phút: 01.30s\nCác bạn có có nghe thấy lời cầu nguyện của Kotoko mong có thể hẹn hò được với Irie đúng không?\n私の思いが入江君につたわれますように。\nCâu được kết thúc bởi 「ように」, ở Nhật khi nói cầu nguyện (ví dụ ở chùa) hay chúc người khác,  mẫu: 「...ように」được sử dụng phổ biến.\n素敵（すてき）な一年になりますように。Chúc bạn có một năm thật ý nghĩa.\nいつも幸せ（しあわせ）で過せるように。Chúc bạn luôn hạnh phúc.\n(có thể dùng trong chúc mừng sinh nhật). \nThực chất mẫu ngữ pháp ように để thể hiện muốn hướng tới mục đích nào đó, bạn dùng mẫu câu này là muốn cầu nguyện cho bản thân hoặc chúc người khác đạt được mục đích nào đó. ^^\n \n2. Ở phút 10.27s đến 10.35s: bạn sẽ thấy 日本人の数え方 cách đếm của người Nhật. Khác với cách đếm của người Mỹ hay người Việt: đếm số nào thì giơ ngón đấy lên, các cụ già Việt Nam thì có thể đếm theo đốt ngoán tay, còn người Nhật thì họ đếm số nào thì họ gập ngón tay xuống. Thú vị phải không? Không có kì thi nào hỏi cách đếm người Nhật đâu (đoán thế) nhưng một khía cạnh khá thú vị của người Nhật đúng không? sau đây là link video minh họa sự khác nhau giữa cách đếm người Nhật và Mĩ. ^^\nhttp://www.youtube.com/watch?v=63NNFNoQ9ag\n \n3. Ở phút 14.25s: có câu: もう平気。あきらめちゃう。\n「Thể Te - ちゃう」 là cách nói trong giao tiếp của mẫu câu 「Thể Te - しまう」\n食べてしまう　->　食べてちゃう\n飲んでしまう　->　飲んでちゃう。\n「Thể Te - しまう」 là mẫu ngữ pháp sơ cấp chỉ việc gì đó được hoàn thành hoặc một việc diễn ra nhưng có sự ân hận, hối tiếc.\n \n4. Phút 32.36s khi Kotoko vào nhà nói お邪魔します。（おじゃまします）Câu này được sử dụng khi vào nhà ai đó. Có cách khác, bạn có thể tham khảo bài viết Bussiness Japanese - Những cách chào hỏi thường dùng  của bạn Lê Ngọc Hoàn theo link http://www.facebook.com/groups/229244010425617/doc/665349206815093/.\n \n5. Phút 34.42s có câu: 噂をすれば　(うわさをすれば）đây là câu thành ngữ của Nhật, câu đầy đủ là 噂をすれば影がさす。うわさ là lời đồn, tin đồn, cả câu sẽ nghĩa là: \"Vừa nhắc đã xuất hiện\", dịch theo bên mình sẽ là \"Vừa nhắc Tào Tháo đã đến\". \n \nVậy bài hôm nay sẽ dừng lại ở đây, chúc các bạn cuối tuần vui vẻ. Các bạn có thể đề xuất các yêu cầu của mình, những phong tục Nhật Bản, những bài hát, bộ phim thông qua link khảo sát được đính ở đầu trang. Cảm ơn các bạn đã luôn ủng hộ Group. \n \nhttp://mp3.zing.vn/bai-hat/Jikan-Yo-Tomare-AZU-Ft-Seamo/IW6ZFO08.html\n \nSee you. \nTyn Aki","created_time":"2013-06-07T07:37:35+0000","updated_time":"2013-06-07T16:01:32+0000","likes":{"data":{"1843294954":{"id":"1843294954","name":"Nguyen Thanh Van"},"1146680551":{"id":"1146680551","name":"優しい なぁ"},"100002676859353":{"id":"100002676859353","name":"Chu Quang Viên"},"100003205232355":{"id":"100003205232355","name":"Nguyen Viet Tien"},"100001458099624":{"id":"100001458099624","name":"Kham Pha"},"100000050843975":{"id":"100000050843975","name":"Chè Kem"},"100002641238579":{"id":"100002641238579","name":"Vịt Béo"},"100001894545350":{"id":"100001894545350","name":"Lhp Bin"},"100001594722256":{"id":"100001594722256","name":"Viết An Phạm"},"100002816124387":{"id":"100002816124387","name":"Ngọc Nguyễn"},"1847924763":{"id":"1847924763","name":"Ho Thu Ha"},"1168996060":{"id":"1168996060","name":"Chanh Leo"},"100001754136107":{"id":"100001754136107","name":"Nguyễn Tuấn Vũ"},"100005783684423":{"id":"100005783684423","name":"Chan Hi"}},"paging":{"cursors":{"after":"MTg0MzI5NDk1NA==","before":"MTg0MzI5NDk1NA=="},"next":"https://graph.facebook.com/229244010425617_666307746719239/likes?limit=1&summary=1&after=MTg0MzI5NDk1NA%3D%3D"},"summary":{"total_count":16}},"comments":{"data":{"666320976717916":{"id":"666320976717916","from":{"id":"100001754136107","name":"Nguyễn Tuấn Vũ"},"message":"Tyn Aki: link ban goi co ko c","message_tags":[{"id":"100001695345798","name":"Tyn Aki","type":"user","offset":0,"length":7}],"can_remove":false,"created_time":"2013-06-07T08:11:30+0000","like_count":0,"user_likes":false},"666323656717648":{"id":"666323656717648","from":{"id":"100001695345798","name":"Tyn Aki"},"message":"ko hiểu ý Vũ","can_remove":false,"created_time":"2013-06-07T08:19:24+0000","like_count":0,"user_likes":false},"666325693384111":{"id":"666325693384111","from":{"id":"100002329538994","name":"Xuka Sakura"},"message":"ui gioi oi >\"< thi xong nhanh nhanh de xem :XX","can_remove":false,"created_time":"2013-06-07T08:28:00+0000","like_count":1,"user_likes":false},"666325830050764":{"id":"666325830050764","from":{"id":"100001695345798","name":"Tyn Aki"},"message":"tối nay có tập ms chị ơi ;)))","can_remove":false,"created_time":"2013-06-07T08:28:45+0000","like_count":0,"user_likes":false},"666326883383992":{"id":"666326883383992","from":{"id":"100001754136107","name":"Nguyễn Tuấn Vũ"},"message":"Có link bản gốc ko dịch k ;)","can_remove":false,"created_time":"2013-06-07T08:33:17+0000","like_count":0,"user_likes":false},"666327026717311":{"id":"666327026717311","from":{"id":"100001695345798","name":"Tyn Aki"},"message":"tức là ko có vietsub chứ j? có , viết có dấu phẩy phát, tối bạn gửi cho ^^","can_remove":false,"created_time":"2013-06-07T08:34:14+0000","like_count":0,"user_likes":false},"666330990050248":{"id":"666330990050248","from":{"id":"100002816124387","name":"Ngọc Nguyễn"},"message":"ôi kiểu này thích quá c ơi, mau mau thi xong để xem nào. cám ơn c nhé :X Tyn Aki","message_tags":[{"id":"100001695345798","name":"Tyn Aki","type":"user","offset":73,"length":7}],"can_remove":false,"created_time":"2013-06-07T08:47:24+0000","like_count":1,"user_likes":false},"666331283383552":{"id":"666331283383552","from":{"id":"100001695345798","name":"Tyn Aki"},"message":"thi tốt nhé ^^","can_remove":false,"created_time":"2013-06-07T08:48:35+0000","like_count":1,"user_likes":false},"666331600050187":{"id":"666331600050187","from":{"id":"100002816124387","name":"Ngọc Nguyễn"},"message":"cám ơn c :\")","can_remove":false,"created_time":"2013-06-07T08:49:46+0000","like_count":0,"user_likes":false},"666510130032334":{"id":"666510130032334","from":{"id":"100001695345798","name":"Tyn Aki"},"message":"link đây Nguyễn Tuấn Vũ nhé http://video.fc2.com/en/movie_search.php?m=scont&keyword=イタズラなKiss&sobj_keyword=","message_tags":[{"id":"100001754136107","name":"Nguyễn Tuấn Vũ","type":"user","offset":9,"length":14}],"can_remove":false,"created_time":"2013-06-07T15:46:36+0000","like_count":1,"user_likes":false},"666510730032274":{"id":"666510730032274","from":{"id":"100001695345798","name":"Tyn Aki"},"message":"Yuki Hana: vậy sao em , bên chị vẫn vào đươcj, hic, em thử google tên phim + Vietsub nhé, nhiều web phim online cũng cập nhạt phim này rồi ^^","message_tags":[{"id":"100005766789069","name":"Yuki Hana","type":"user","offset":0,"length":9}],"can_remove":false,"created_time":"2013-06-07T15:47:59+0000","like_count":0,"user_likes":false},"666513146698699":{"id":"666513146698699","from":{"id":"100001695345798","name":"Tyn Aki"},"message":"cảm ơn em ^^ nhất định ^^","can_remove":false,"created_time":"2013-06-07T15:53:44+0000","like_count":0,"user_likes":false},"666516250031722":{"id":"666516250031722","from":{"id":"100001458099624","name":"Kham Pha"},"message":"bài này chất lượng đấy, nhưng mà sao lên 200 rồi ah :))","can_remove":false,"created_time":"2013-06-07T16:00:40+0000","like_count":0,"user_likes":false},"666516883364992":{"id":"666516883364992","from":{"id":"100001695345798","name":"Tyn Aki"},"message":"tự dưng anh cmt em ms nhớ, hình như là 120 ạ , aiz","can_remove":false,"created_time":"2013-06-07T16:01:32+0000","like_count":0,"user_likes":false}},"paging":{"cursors":{"after":"NjY2MzIwOTc2NzE3OTE2","before":"NjY2MzIwOTc2NzE3OTE2"},"next":"https://graph.facebook.com/229244010425617_666307746719239/comments?limit=1&summary=1&after=NjY2MzIwOTc2NzE3OTE2"},"summary":{"order":"chronological","total_count":14}}}