{"id":"229244010425617_666505610032786","type":"status","from":{"id":"100001058098161","name":"DoTa Allstar"},"message":"các anh chị có từ vựng n3 k ạ :D. em đang theo n3 mà vốn từ ít quá :D","created_time":"2013-06-07T15:35:41+0000","updated_time":"2013-06-08T00:58:48+0000","likes":{"data":{"100001628612184":{"id":"100001628612184","name":"Mai Tròn"}},"paging":{"cursors":{"after":"MTAwMDAxNjI4NjEyMTg0","before":"MTAwMDAxNjI4NjEyMTg0"}},"summary":{"total_count":2}},"comments":{"data":{"666513440032003":{"id":"666513440032003","from":{"id":"100002676859353","name":"Chu Quang Viên"},"message":"đây nhé :\nhttp://www.tanos.co.uk/jlpt/jlpt3/vocab/","can_remove":false,"created_time":"2013-06-07T15:54:17+0000","like_count":2,"user_likes":false},"666517960031551":{"id":"666517960031551","from":{"id":"100001754507610","name":"Trịnh Anh Chinh"},"message":"Nếu dùng iphone bạn thử vào apple store tìm cụm từ\"từ vựng n3\", có tất cả đó.","can_remove":false,"created_time":"2013-06-07T16:03:35+0000","like_count":2,"user_likes":false},"666529696697044":{"id":"666529696697044","from":{"id":"1821970083","name":"Nguyễn Mạnh Cường"},"message":"Trịnh Anh Chinh Nhưng sao tải về mở chạy app ko đc vậy bạn :(","message_tags":[{"id":"100001754507610","name":"Trịnh Anh Chinh","type":"user","offset":0,"length":15}],"can_remove":false,"created_time":"2013-06-07T16:35:39+0000","like_count":0,"user_likes":false},"666706150012732":{"id":"666706150012732","from":{"id":"1693102459","name":"Châu Hoàng"},"message":"Ku Cường: có smartphone thì tải cái này về dùng nhá :)\nhttps://play.google.com/store/apps/details?id=com.linh.tuvungn3","message_tags":[{"id":"1821970083","name":"Ku Cường","type":"user","offset":0,"length":8}],"can_remove":false,"created_time":"2013-06-08T00:57:35+0000","like_count":1,"user_likes":false},"666706430012704":{"id":"666706430012704","from":{"id":"1693102459","name":"Châu Hoàng"},"message":"DoTa Allstar: mấy cái ở comment trên cũng không có tiếng Việt như link em gởi mà anh  😄","message_tags":[{"id":"100001058098161","name":"DoTa Allstar","type":"user","offset":0,"length":12}],"can_remove":false,"created_time":"2013-06-08T00:58:48+0000","like_count":0,"user_likes":false}},"paging":{"cursors":{"after":"NjY2NTEzNDQwMDMyMDAz","before":"NjY2NTEzNDQwMDMyMDAz"},"next":"https://graph.facebook.com/229244010425617_666505610032786/comments?limit=1&summary=1&after=NjY2NTEzNDQwMDMyMDAz"},"summary":{"order":"chronological","total_count":5}}}