{"id":"229244010425617_666970803319600","type":"photo","object_id":"180413568791305","picture":"https://fbcdn-photos-a-a.akamaihd.net/hphotos-ak-prn2/t1.0-0/970187_180413568791305_1817280118_s.jpg","link":"https://www.facebook.com/photo.php?fbid=180413568791305&set=gm.666970803319600&type=1&relevant_count=1","from":{"id":"100004679882879","name":"Nguyễn Thúy Hằng"},"message":"mong đc sự giúp đỡ...","created_time":"2013-06-08T15:19:31+0000","updated_time":"2013-06-10T15:38:59+0000","likes":{"data":{"100003330616196":{"id":"100003330616196","name":"Tiểu Nha Đầu"},"100002371267781":{"id":"100002371267781","name":"Rainy Mai"},"100001260645727":{"id":"100001260645727","name":"Ngo Duy Son"},"100004739767985":{"id":"100004739767985","name":"Sủicảo Chấm Nước Hén"},"1824015127":{"id":"1824015127","name":"Bùi Quang Tân"},"100005013365720":{"id":"100005013365720","name":"Hoàng BáCh"},"100005087436518":{"id":"100005087436518","name":"Vũ Trịnh"},"100004140850631":{"id":"100004140850631","name":"Huong Trang"},"100003628075694":{"id":"100003628075694","name":"Cuộc Sống"},"100004479942719":{"id":"100004479942719","name":"Minh Hòa"},"100005783684423":{"id":"100005783684423","name":"Chan Hi"},"1480681506":{"id":"1480681506","name":"Mika's Word"},"100004558111125":{"id":"100004558111125","name":"Toi HaDanh"},"100003383827564":{"id":"100003383827564","name":"Khoảng Lặng"},"100005179058243":{"id":"100005179058243","name":"Tú Xù"},"100000198219367":{"id":"100000198219367","name":"Chang Jiang"},"100000403151977":{"id":"100000403151977","name":"Le Anh"},"100002816124387":{"id":"100002816124387","name":"Ngọc Nguyễn"},"100002882084808":{"id":"100002882084808","name":"Nhan Nguyen"},"100002098748602":{"id":"100002098748602","name":"Thuần Việt"},"100000187129100":{"id":"100000187129100","name":"Ốc Sên Chạy"},"100005219045384":{"id":"100005219045384","name":"Minoru  Yamazaki"},"100001058098161":{"id":"100001058098161","name":"DoTa Allstar"},"100003731305416":{"id":"100003731305416","name":"Nam Nguyen"},"100004005830479":{"id":"100004005830479","name":"Lam School"},"100003139640847":{"id":"100003139640847","name":"Vu Cong Ham"},"1693102459":{"id":"1693102459","name":"Châu Hoàng"}},"paging":{"cursors":{"after":"MTAwMDAzMzMwNjE2MTk2","before":"MTAwMDAzMzMwNjE2MTk2"},"next":"https://graph.facebook.com/229244010425617_666970803319600/likes?limit=1&summary=1&after=MTAwMDAzMzMwNjE2MTk2"},"summary":{"total_count":28}},"comments":{"data":{"666975253319155":{"id":"666975253319155","from":{"id":"100001416272263","name":"Mai PB"},"message":"Em nói cụ thể đi","can_remove":false,"created_time":"2013-06-08T15:30:23+0000","like_count":0,"user_likes":false},"666977023318978":{"id":"666977023318978","from":{"id":"100004679882879","name":"Nguyễn Thúy Hằng"},"message":"k có gì,chỉ là những kinh nghiệm trong c/s bên Nhật thôi. e mới qua k đc bao lâu,còn nhiều điều chưa biết mà.","can_remove":false,"created_time":"2013-06-08T15:34:23+0000","like_count":1,"user_likes":false},"666978126652201":{"id":"666978126652201","from":{"id":"100000180985064","name":"Trung Đồng"},"message":"Welcome to Nhật Bản ;)","can_remove":false,"created_time":"2013-06-08T15:37:08+0000","like_count":0,"user_likes":false},"666980646651949":{"id":"666980646651949","from":{"id":"100001416272263","name":"Mai PB"},"message":"Lời khuyên đầu tiên cho em: học nhiều và xem TV nhiều.","can_remove":false,"created_time":"2013-06-08T15:41:26+0000","like_count":1,"user_likes":false},"666982086651805":{"id":"666982086651805","from":{"id":"100004679882879","name":"Nguyễn Thúy Hằng"},"message":"hi vâng","can_remove":false,"created_time":"2013-06-08T15:44:34+0000","like_count":0,"user_likes":false},"666997439983603":{"id":"666997439983603","from":{"id":"100004145293805","name":"Trần Đại Dương"},"message":"sao nhìn giống bạn gái mình thế ! ơ hơ có nhầm ko vậy","can_remove":false,"created_time":"2013-06-08T16:23:41+0000","like_count":0,"user_likes":false},"667008736649140":{"id":"667008736649140","from":{"id":"100004455759017","name":"VN JP"},"message":"名古屋の大須⁇","can_remove":false,"created_time":"2013-06-08T16:54:20+0000","like_count":0,"user_likes":false},"667011146648899":{"id":"667011146648899","from":{"id":"100001509545190","name":"Agar Nguyễn"},"message":"Trung Đồng: bạn Trung này có phải Đức Trung nhà cô Hằng Lý Thái Tổ không thế????","message_tags":[{"id":"100000180985064","name":"Trung Đồng","type":"user","offset":0,"length":10}],"can_remove":false,"created_time":"2013-06-08T17:00:46+0000","like_count":0,"user_likes":false},"667021329981214":{"id":"667021329981214","from":{"id":"100000180985064","name":"Trung Đồng"},"message":"@Agar: Đúng là tớ học ở LTT nhưng bạn nhầm tớ với ai rồi :)","can_remove":false,"created_time":"2013-06-08T17:29:44+0000","like_count":0,"user_likes":false},"667021799981167":{"id":"667021799981167","from":{"id":"100001509545190","name":"Agar Nguyễn"},"message":"Trung Đồng: ừ khéo nhầm thật, đang bảo chả nhẽ mấy năm lại khác thế;)) anyway, t cũng LTT A11 thầy Lan:))","message_tags":[{"id":"100000180985064","name":"Trung Đồng","type":"user","offset":0,"length":10}],"can_remove":false,"created_time":"2013-06-08T17:31:14+0000","like_count":1,"user_likes":false},"667176799965667":{"id":"667176799965667","from":{"id":"1108328257","name":"Kenji Le"},"message":"neu co time moi nguoi hay than Gia voi nhom \" cung nhau tieng nhat \" tren Skype nhe.. toi nay 8:30h Japan . add ID cua anh wasabi_spy di anh ay se online vao gio do . ..","can_remove":false,"created_time":"2013-06-09T02:05:38+0000","like_count":0,"user_likes":false},"667386669944680":{"id":"667386669944680","from":{"id":"100005087436518","name":"Vũ Trịnh"},"message":"nói là mog đk sự giúp đỡ. nhug mà giúp đỡ về vấn đề gì lại k nói","can_remove":false,"created_time":"2013-06-09T13:35:05+0000","like_count":0,"user_likes":false},"667399333276747":{"id":"667399333276747","from":{"id":"100000160682677","name":"Phong Nguyen Huy"},"message":"trẻ e cơ nhỡ, bị lạc đang cần sự giúp đỡ","can_remove":false,"created_time":"2013-06-09T14:04:53+0000","like_count":1,"user_likes":false},"667635119919835":{"id":"667635119919835","from":{"id":"100005013365720","name":"Hoàng BáCh"},"message":":)))","can_remove":false,"created_time":"2013-06-09T23:52:05+0000","like_count":1,"user_likes":false},"668014026548611":{"id":"668014026548611","from":{"id":"100000257036404","name":"Nguyễn Quốc Việt"},"message":"E đi tu nghiệp hay du học vậy? Hiện h đang ở đâu hả e","can_remove":false,"created_time":"2013-06-10T15:38:59+0000","like_count":0,"user_likes":false}},"paging":{"cursors":{"after":"NjY2OTc1MjUzMzE5MTU1","before":"NjY2OTc1MjUzMzE5MTU1"},"next":"https://graph.facebook.com/229244010425617_666970803319600/comments?limit=1&summary=1&after=NjY2OTc1MjUzMzE5MTU1"},"summary":{"order":"chronological","total_count":15}}}