{"id":"229244010425617_667359903280690","type":"status","from":{"id":"1296997933","name":"Pham Thi Thu Phuong"},"message":"Nhà mình xem có ai có nhu cầu k thì giới thiệu jup nhé!!!\nCông ty UMC đang cần tuyển 4 phiên dịch tiếng Nhật. \nyêu cầu: ko cần kinh nghiệm mới tốt nghiệp cũng OK, sống tại Hải Dương , lương theo thỏa thuận. \nHồ sơ gửi vào địa chỉ hangpt@umc.co.jp, std 0320-3570001 ext 3202. \nThanks","created_time":"2013-06-09T12:24:58+0000","updated_time":"2013-06-09T12:41:46+0000","likes":{"data":{"1296997933":{"id":"1296997933","name":"Pham Thi Thu Phuong"},"100005783684423":{"id":"100005783684423","name":"Chan Hi"}},"paging":{"cursors":{"after":"MTI5Njk5NzkzMw==","before":"MTI5Njk5NzkzMw=="},"next":"https://graph.facebook.com/229244010425617_667359903280690/likes?limit=1&summary=1&after=MTI5Njk5NzkzMw%3D%3D"},"summary":{"total_count":2}},"comments":{"data":{"667364129946934":{"id":"667364129946934","from":{"id":"100001535653711","name":"Nguyen Huy Son"},"message":"Chị ơi, bạn của em gái em đã sống ở Nhật hơn 2 năm. Bây giờ em ấy đang là giáo viên dạy tiếng Nhật ở 1 trung tâm tiếng Nhật ở Hải Dương. Em ấy có đủ điều kiện dự tuyển ko ạ.","can_remove":false,"created_time":"2013-06-09T12:36:11+0000","like_count":0,"user_likes":false},"667364359946911":{"id":"667364359946911","from":{"id":"100004455759017","name":"VN JP"},"message":"Công ty ở khu công nghiệp hay ở huyện nào của Hải Dương vậy bạn?\nMình ở huyện Cẩm Giàng","can_remove":false,"created_time":"2013-06-09T12:36:45+0000","like_count":0,"user_likes":false},"667364533280227":{"id":"667364533280227","from":{"id":"1296997933","name":"Pham Thi Thu Phuong"},"message":"E cứ bảo bạn nộp hồ sơ nhé!!! Biết đâu lại được Nguyen Huy Son à","message_tags":[{"id":"100001535653711","name":"Nguyen Huy Son","type":"user","offset":48,"length":14}],"can_remove":false,"created_time":"2013-06-09T12:37:23+0000","like_count":0,"user_likes":false},"667364806613533":{"id":"667364806613533","from":{"id":"1296997933","name":"Pham Thi Thu Phuong"},"message":"KCN Tân Trường đó. VN JP ở Cẩm Giàng thì tốt quá!!! Gần mà","can_remove":false,"created_time":"2013-06-09T12:38:09+0000","like_count":0,"user_likes":false},"667365819946765":{"id":"667365819946765","from":{"id":"100004455759017","name":"VN JP"},"message":"ありがとうございます。mình sẽ nộp hồ sơ xem tn","can_remove":false,"created_time":"2013-06-09T12:41:46+0000","like_count":1,"user_likes":false}},"paging":{"cursors":{"after":"NjY3MzY0MTI5OTQ2OTM0","before":"NjY3MzY0MTI5OTQ2OTM0"},"next":"https://graph.facebook.com/229244010425617_667359903280690/comments?limit=1&summary=1&after=NjY3MzY0MTI5OTQ2OTM0"},"summary":{"order":"chronological","total_count":5}}}