{"id":"229244010425617_667326243284056","type":"status","from":{"id":"100001603388890","name":"Ken Ayunpa"},"message":"Thân gửi các bạn đang có ý định du học tại Nhật Bản!\n\nBáo cho các bạn một tin vui là hiện tại mình đã liên hệ được với một công ty tại Nhật Bản đồng ý hổ trợ xử lý hồ sơ cho các bạn đi Nhật tại Việt Nam với chi phí dịch vụ là \" KHÔNG ĐỒNG \" , phía công ty sẽ xử lý hồ sơ của các bạn hoàn toàn miễn phí , các bạn sẽ không lo mất bất kỳ phí dịch vụ gì nhé .\n\nCông ty bên phía Nhật đã có đại diện tại TP Hồ Chí Minh để tiện việc giúp đở cho các bạn có nguyện vọng muốn sang Nhật (hiện tại chưa có ở Hà Nội nhé). Công ty sẽ đào tạo tiếng Nhật cho các bạn tiếng Nhật hoàn toàn miễn phí , hơn hết là sẽ đảm bảo cả vấn đề làm thêm cho các bạn sau khi sang Nhật nhé.\n\nP/S : đây là một cơ hội để các bạn giảm thiểu chi phí khi đi du học Nhật Bản . Các bạn sẽ tiết kiệm được ít nhất khoảng từ 30 - 40 triệu tiền phí dịch vụ.\n\nMÌNH VIẾT BÀI NÀY MONG GIÚP ĐƯỢC CÁC BẠN CHÚT GÌ ĐÓ. ĐÂY LÀ THÔNG TIN THẬT SỰ 100% NHÉ. BẠN NÀO TIN TƯỞNG VÀ THỰC SỰ MUỐN ĐI DU HỌC NHẬT THÌ LIÊN HỆ VỚI MÌNH NHÉ. CÒN NHỮNG BẠN NÀO KHÔNG TIN HAY KHÔNG THÍCH THÌ CỨ IM LẶNG CHO QUA NHÉ. KHÔNG NHẬN GẠCH ĐÁ DƯỚI MỌI HÌNH THỨC.\n\nđiện thoại : 0909 58 6661\nskype : nguyen.phuc33\nyahoo: giadoiauynpa12a9\ne-mail : nguyenhuuphuc4@gmail.com","created_time":"2013-06-09T10:47:00+0000","updated_time":"2013-06-10T04:43:33+0000","likes":{"data":{"100001057467030":{"id":"100001057467030","name":"Buông Tay"},"100001609833418":{"id":"100001609833418","name":"Tsunami Hime"},"100001695345798":{"id":"100001695345798","name":"Tyn Aki"},"100000037346805":{"id":"100000037346805","name":"Nguyễn Minh Sơn"},"1831131994":{"id":"1831131994","name":"Thao Nguyen"},"100003785055521":{"id":"100003785055521","name":"Tiểu Long Nữ"},"100000747635624":{"id":"100000747635624","name":"Nguyễn Xuân Đại"},"100001531816305":{"id":"100001531816305","name":"Mẫn Nghi"},"1821970083":{"id":"1821970083","name":"Nguyễn Mạnh Cường"},"100003049561539":{"id":"100003049561539","name":"Nguyễn Kiim Thảo"},"100003839307439":{"id":"100003839307439","name":"Nguyễn Thành"},"100004420536616":{"id":"100004420536616","name":"Mỹ Linh Nguyễn"},"100001253342061":{"id":"100001253342061","name":"Victor Lưu"},"100001906669146":{"id":"100001906669146","name":"Người Của Công Lý"},"100004062083627":{"id":"100004062083627","name":"Thúy Rùa"},"1286770563":{"id":"1286770563","name":"Vu Hong Trang"},"100002829897061":{"id":"100002829897061","name":"Xiêu Nhân"},"100002246274598":{"id":"100002246274598","name":"Tran Quang Anh"},"100004372208548":{"id":"100004372208548","name":"Neko Chan"},"100001416272263":{"id":"100001416272263","name":"Mai PB"}},"paging":{"cursors":{"after":"MTAwMDAxMDU3NDY3MDMw","before":"MTAwMDAxMDU3NDY3MDMw"},"next":"https://graph.facebook.com/229244010425617_667326243284056/likes?limit=1&summary=1&after=MTAwMDAxMDU3NDY3MDMw"},"summary":{"total_count":20}},"comments":{"data":{"667334596616554":{"id":"667334596616554","from":{"id":"100003118432528","name":"Ngọc Lan"},"message":"có mình muon sang nhat.nhug k co co so o ha noi ha ban","can_remove":false,"created_time":"2013-06-09T11:11:51+0000","like_count":1,"user_likes":false},"667341199949227":{"id":"667341199949227","from":{"id":"100001603388890","name":"Ken Ayunpa"},"message":"nếu bạn muốn bạn có thể tự học tiếng ngoài ý , trung tâm núi trúc hoặc đông du rất ok , còn hồ sơ bạn có thể để cty làm cho bạn.","can_remove":false,"created_time":"2013-06-09T11:33:42+0000","like_count":0,"user_likes":false},"667361106613903":{"id":"667361106613903","from":{"id":"100003118432528","name":"Ngọc Lan"},"message":"minh cungdang hoc tieng o nui truc ban ah","can_remove":false,"created_time":"2013-06-09T12:28:15+0000","like_count":0,"user_likes":false},"667379613278719":{"id":"667379613278719","from":{"id":"1821970083","name":"Nguyễn Mạnh Cường"},"message":"Cảm ơn bạn rất nhiều! Nếu nói tin ngay thì khó, cậu có thể cho mọi người biết càng nhiều thông tin về công ty thì càng tốt, sẽ dễ có niêm tin từ mọi người, đã giúp thì giúp cho tới đi bạn, cảm ơn bạn nhiều!","can_remove":false,"created_time":"2013-06-09T13:18:19+0000","like_count":0,"user_likes":false},"667383573278323":{"id":"667383573278323","from":{"id":"100001531816305","name":"Mẫn Nghi"},"message":"Cám ơn anh nhiều , em tin anh :)","can_remove":false,"created_time":"2013-06-09T13:27:22+0000","like_count":0,"user_likes":false},"667410569942290":{"id":"667410569942290","from":{"id":"100003731305416","name":"Nam Nguyen"},"message":"Co ai sap sag nogata shi k","can_remove":false,"created_time":"2013-06-09T14:32:15+0000","like_count":0,"user_likes":false},"667410849942262":{"id":"667410849942262","from":{"id":"100003731305416","name":"Nam Nguyen"},"message":"Di duc hoc gio se la 1sai lam","can_remove":false,"created_time":"2013-06-09T14:32:43+0000","like_count":1,"user_likes":false},"667419519941395":{"id":"667419519941395","from":{"id":"100003118432528","name":"Ngọc Lan"},"message":"tại sao là sai lam hả bạn","can_remove":false,"created_time":"2013-06-09T14:52:49+0000","like_count":0,"user_likes":false},"667419879941359":{"id":"667419879941359","from":{"id":"100001603388890","name":"Ken Ayunpa"},"message":"Ku Cường mình sẽ up1date thông tin của cty lên nhanh , cty mình sẽ để học sinh tự học và tự thi với năng lực tiếng Nhật của học sinh, hơn hết là có cty bên nhật nên vấn đề lo cho các bạn học sinh là chuyện bình thường nè.","message_tags":[{"id":"1821970083","name":"Ku Cường","type":"user","offset":0,"length":8}],"can_remove":false,"created_time":"2013-06-09T14:53:49+0000","like_count":2,"user_likes":false},"667425369940810":{"id":"667425369940810","from":{"id":"100001603388890","name":"Ken Ayunpa"},"message":"https://vn.manabillage.com/         các bạn vào đây để update thông tin nhé. Thank cả nhà","can_remove":false,"created_time":"2013-06-09T15:08:43+0000","like_count":1,"user_likes":false},"667442023272478":{"id":"667442023272478","from":{"id":"100003731305416","name":"Nam Nguyen"},"message":"Luat phap cua nhat gio chi cho lm 28 tieng 1tuan tinh ra 1thag dc du an va du hoc phi cho nam sau mi ca chua noi sag day r cac trug tam n dem con bo chợ uh thi co viec nhug 2thang hay 3thag moi co thi cug gan chet doi","can_remove":false,"created_time":"2013-06-09T15:47:18+0000","like_count":1,"user_likes":false},"667448529938494":{"id":"667448529938494","from":{"id":"100004009345313","name":"Nghia Nguyen Tuan"},"message":"Cho mình hỏi là học xong đại học ở VN đi sang nhật du học được không nhỉ mọi người","can_remove":false,"created_time":"2013-06-09T16:03:22+0000","like_count":0,"user_likes":false},"667453143271366":{"id":"667453143271366","from":{"id":"100001531816305","name":"Mẫn Nghi"},"message":"bình thưởng bạn ah :) Nghia Nguyen Tuan","message_tags":[{"id":"100004009345313","name":"Nghia Nguyen Tuan","type":"user","offset":22,"length":17}],"can_remove":false,"created_time":"2013-06-09T16:13:38+0000","like_count":1,"user_likes":false},"667464749936872":{"id":"667464749936872","from":{"id":"100003731305416","name":"Nam Nguyen"},"message":"Co bang dh qua day se co nhieu thuan loi hon b ah","can_remove":false,"created_time":"2013-06-09T16:43:08+0000","like_count":2,"user_likes":false},"667644476585566":{"id":"667644476585566","from":{"id":"100000263658802","name":"Nguyễn Đức"},"message":"thuận lợi như thế nào bạn ơi, mình cũng chuẩn bị đi theo con đường du học nhưng sang làm kinh tế thôi.hì","can_remove":false,"created_time":"2013-06-10T00:17:43+0000","like_count":1,"user_likes":false},"667762343240446":{"id":"667762343240446","from":{"id":"100000128764209","name":"Chau Le"},"message":"bằng dh qua đó chắc học cao học quá. Thôi cứ để xong đh rồi tính nhỉ =)","can_remove":false,"created_time":"2013-06-10T04:43:33+0000","like_count":2,"user_likes":false}},"paging":{"cursors":{"after":"NjY3MzM0NTk2NjE2NTU0","before":"NjY3MzM0NTk2NjE2NTU0"},"next":"https://graph.facebook.com/229244010425617_667326243284056/comments?limit=1&summary=1&after=NjY3MzM0NTk2NjE2NTU0"},"summary":{"order":"chronological","total_count":16}}}