{"id":"229244010425617_667443069939040","type":"link","link":"http://lophoctiengnhat.com/index.php?p=loaibai&idl=34","from":{"id":"100004490496995","name":"Rai Chamu"},"message":"Khi bước vào học sơ cấp bạn sẽ làm quen với cuốn sách Minna no nihongo\nhttp://lophoctiengnhat.com/index.php?p=loaibai&idl=34\nDạng bài học trên diễn đàn lophoctiengnaht tớ muốn chia sẻ cho các bạn để dễ nắm bắt không phải thắc mắc khi vào diễn đàn nha\nhttp://lophoctiengnhat.com/index.php?p=chitietbai&id=100\n Mục từ vựng:\n Phần từ vựng\n Học từ vựng với Flash\n Kiểm tra từ vựng\n Mục ngữ pháp:\n Giải thích các mẫu ngữ pháp\n Phần luyện tập\n Bạn nên chuẩn bị trước tài liệu vì mục luyện tập không làm trực tiếp trên web\n Và bạn cũng không phải lo dù không làm trực tiếp trên web\n Chúng tôi vẫn có đáp án để đối chiếu kết quả bạn đã làm\n Mục luyện đọc:\n Trong mục này gồm những mẫu câu liên quan đến những gì bạn đã được học\n Bạn có thể luyện tập những gì bạn đã học\n Luyện khả ngăng phát âm thành thạo những mẫu câu.\n Mục hội thoại\n Khi đã luyện thành thạo các mẫu câu\n Bạn sẽ ứng dụng để hội thoại với đối phương\n Để rèn luyện dần khả năng giao tiếp với người Nhật\n Mục luyện nghe:\n Bạn sẽ luyện khả năng phản ứng với những mẫu hỏi\n Hay luyện khả năng nghe trả lời những câu hỏi\n Bạn hãy vừa nghe vừa nói theo để có thể phát âm chuẩn theo người nói trong băng\n Mục bài tập:\n Bạn sẽ làm quen với nhiều mẫu câu khác\n Bạn cũng có thể nhớ lâu hơn những mẫu ngữ pháp đã học\n Mục hán tự:\n Đây cũng là một phần quan trọng không kém\n Bạn có thể làm quen dần hệ thống chữ này\n Bạn chỉ cần nhớ mặt chữ và nhớ sử dụng những từ đó trong trường hợp nào\n Bạn có thể đọc nhiều sách báo tiếng Nhật như thể sẽ dễ nhớ mặt chữ kanji hơn đấy\n Mục luyện tập và kiểm tra:\n Kiểm tra phần từ vựng\n Chọn nghĩa tiếng Việt\n Chọn nghĩa tiếng Nhật\n Chuyển hiragana sang hán tự\n Chuyển hán tự sang hiragana","created_time":"2013-06-09T15:49:17+0000","updated_time":"2013-06-11T13:31:39+0000","likes":{"data":{"100000257036404":{"id":"100000257036404","name":"Nguyễn Quốc Việt"},"100002224992538":{"id":"100002224992538","name":"Nguyễn Văn Tâm"}},"paging":{"cursors":{"after":"MTAwMDAwMjU3MDM2NDA0","before":"MTAwMDAwMjU3MDM2NDA0"},"next":"https://graph.facebook.com/229244010425617_667443069939040/likes?limit=1&summary=1&after=MTAwMDAwMjU3MDM2NDA0"},"summary":{"total_count":2}},"comments":{"data":{"668500269833320":{"id":"668500269833320","from":{"id":"100001754136107","name":"Nguyễn Tuấn Vũ"},"message":"Nguyen Huy Son","message_tags":[{"id":"100001535653711","name":"Nguyen Huy Son","type":"user","offset":0,"length":14}],"can_remove":false,"created_time":"2013-06-11T13:31:39+0000","like_count":0,"user_likes":false}},"paging":{"cursors":{"after":"NjY4NTAwMjY5ODMzMzIw","before":"NjY4NTAwMjY5ODMzMzIw"}},"summary":{"order":"chronological","total_count":1}}}