{"id":"229244010425617_667611549922192","type":"photo","object_id":"532666756791923","picture":"https://fbcdn-photos-h-a.akamaihd.net/hphotos-ak-frc3/t1.0-0/992893_532666756791923_2059589807_s.jpg","link":"https://www.facebook.com/photo.php?fbid=532666756791923&set=gm.667611549922192&type=1&relevant_count=1","from":{"id":"100001458099624","name":"Kham Pha"},"message":"Tối qua đi chơi nhà người Nhật về xong ngồi sửa luận văn hết đêm. Tí lại lên trường nên chả ngủ nữa, tiện tay viết cái review cho bạn nào thích đọc. Cũng chả có gì nhiều đâu chỉ là một vài nét trong phong tục đến chơi nhà người Nhật thôi. \n\nĐầu tiên khi đến nhà người Nhật, khi bước vào bạn nên nói お邪魔します tức là \"tôi đành làm phiền vậy\".  邪魔（じゃま） nghĩa là phiền phức, vật gây cản trở. Chữ Hán là 2 chữ TÀ MA thì phải, cũng ko rõ nữa. \n\nKế đến là cách xếp giầy, khi đến nhà người Nhật chơi, bạn nên xếp giầy ngay ngắn và quay ngược mũi giầy ra ngoài, bởi vì như thế thể hiện bạn đến chơi rồi về. Hơi buồn cười phải không, đến chơi thì tất nhiên phải về rồi, đâu thể ở mãi được. Nhưng mà đó là phong tục, người ta có câu \"Nhập gia tùy tục mà\". Các bạn có thể nhìn ảnh ở dưới. Nếu các bạn lỡ quên không xếp giầy như vậy thì chủ nhà sẽ ra xếp hộ đấy. Để đỡ phiền cho người ta bạn nên tự xếp. \n\nVề thói quen đến dùng bữa của người Nhật thì họ thường đến trễ hơn so với giờ hẹn chứ không đúng giờ như trong công việc. Tại sao lại vậy? Bởi vì người Nhật cho rằng nên đến muộn hơn một chút để cho chủ nhà chuẩn bị đầy đủ. Và khi đến thì mang theo hoa quả, bánh kẹo, nước uống. Đi tay không là hoàn toàn không nên. Điều này thì cũng tùy loại tiệc, có loại mà mọi người đến cùng nhau làm thì tất nhiên là không thể đến muộn được, lúc đó phải đến sớm và xông vào mà giúp. Nói 何か手伝（てつだ）いましょうか？ -\"Có việc gì để tôi giúp được không?\"\n\nKhi bắt đầu dùng bữa thì bạn nói いただきます là kính ngữ của もらいます, ý nói rằng bạn \"nhận được\" món ăn. Phong tục này giống như \"mời mọi người ăn cơm\" vậy.\n\nNgười Nhật thường không ăn nhiều cơm như VN, họ ăn rất ít cơm. Ở Nhật có 3 loại cỡ bát L (large), M (medium), S(small) giống như cỡ quần áo vậy. Ngoài ra thì cũng có thể chia theo 大盛（おおもり）cỡ lớn hoặc 並盛（なみもり） cỡ bình thường. Một số quán cho phép ăn thoải mái cơm thì bạn có thể gọi người ta thay cơm khác bằng câu nói お変（か）わりお願いします. Khi đến nhà riêng cũng vậy, hết thức ăn hoặc hết cơm thì cũng nói vậy. Các bạn nên ăn thoải mái, cũng chả cần làm khách vì người Nhật rất chu đáo, thức ăn thì không thiếu, bạn không ăn người ta nghĩ bạn chê đấy. \n\nNhững điều cấm kị hoặc không nên khi ăn cơm ở Nhật:\n- Lựa thức ăn.\n- Chọc đũa vào thức ăn.\n- Chuyền thức ăn bằng đũa.\n- Ăn phát ra tiếng.\n- Vừa ăn vừa nói chuyện. Nếu có người hỏi lúc đang ăn thì nên che miệng vào mà trả lời, không nên nuốt xong rồi trả lời hoặc không thèm trả lời.  \n- Không nên bỏ sót cơm, dù chỉ vài hạt trong bát. Hôm qua lúc ăn cơm họ cũng có bàn về chuyện sót cơm trong bát, các nước khác hầu như không quá quan tâm nhưng người Nhật có vẻ coi trọng. \n\nKhi ăn xong thì nói gì? ごちそさまでした - cảm ơn đã tiếp đãi. \n\nCâu chuyện nói trong bữa ăn thì rất là nhiều, gì cũng có. Kiểu gì thì kiểu vì mình là người ngoại quốc nên họ sẽ hỏi thăm đất nước mình nhiều, có gì hay ngon bổ rẻ thì khoe ra :v. Hôm qua ngồi nói chuyện với ông bố thì chủ đề cũng nhảy lung tung từ môi trường, chính trị đến cả thuyết tương đối của Einstein (thực ra cái này mình hiểu được vì cũng biết qua rồi, chứ không biết trước thì cũng chả hiểu họ nói gì. Không sâu nhưng cũng nhiều từ mới. Phản bác thì chịu không nói được, khó quá),  sau chuyển sang chuyện guitar. Hôm qua còn được thưởng thức liveshow guitar điện. Nếu bạn cũng có cùng sở thích giống với người ta thì rất tốt, dễ nói chuyện, mà họ nói chả biết mệt đâu. Cái nhà ấy cũng bá đạo, ông bố tậu 3 con guitar (aucostic, classic, electric ), còn 2 cô con gái người chơi violin, người chơi piano, đàn tranh,... mặc dù chả làm nghề gì liên quan đến âm nhạc. Ah, còn một chủ đề ưa thích của người Nhật đó là nhóm máu, gần như đi đâu cũng sẽ có nói chuyện này. Bạn cứ chuẩn bị sẵn tinh thần đi, biết một chút kiến thức về nhóm máu cũng tốt. \n  \nNgười Nhật nói chung là cũng tốt, lúc mình về hết giờ bus họ lấy xe ô tô chở về tận nơi, cả 2 mẹ con đi cùng luôn nói chuyện cho đỡ buồn. Lúc tạm biệt thì nhớ cảm ơn ありがとうございました。 \n   \nViết thư cảm ơn, email thôi, không cần viết tay. Hồi ở VN cô giáo người Nhật dạy là nên cảm ơn khoảng 3 lần: viết mail là một, gặp cảm ơn lần nữa, lâu lâu gặp lại cảm ơn phát nữa. Nói chung thì cũng ko nhất thiết phải 3 lần như thế, bạn nào làm được thì càng tốt, 2 lần đầu chắc cũng ổn rồi. Tí nữa mình viết xong cái này cũng phải mail cảm ơn. Ở Việt Nam mà làm thế chắc chủ nhà sốc :))\n\nNghe thấy nhiều lễ nghi phải không, nhưng mà không cần quá căng thẳng đâu. Cứ tự nhiên thôi, thực hiện được bao nhiêu thì được, lần sau rút kinh nghiệm. Không ai xét nét xem bạn thế nào đâu, trừ khi bạn có quá nhiều tật xấu đập vào mắt người ta. \n\nChào buổi sáng nào!\n\nhttp://mp3.zing.vn/bai-hat/Chao-Buoi-Sang-MTV/ZWZAC0DI.html","created_time":"2013-06-09T22:29:31+0000","updated_time":"2013-06-11T06:27:43+0000","likes":{"data":{"100001636105083":{"id":"100001636105083","name":"Zdungx Dũng"},"100003820151744":{"id":"100003820151744","name":"Thu Cá Tính"},"1305472811":{"id":"1305472811","name":"Tuan Nguyen"},"100001604634737":{"id":"100001604634737","name":"Mai Anh"},"100002470650247":{"id":"100002470650247","name":"LinhLinh Chan"},"100000266887521":{"id":"100000266887521","name":"Hương Lê Thu"},"100001754136107":{"id":"100001754136107","name":"Nguyễn Tuấn Vũ"},"100002816124387":{"id":"100002816124387","name":"Ngọc Nguyễn"},"100001583056786":{"id":"100001583056786","name":"Van La Chanh Leo"},"100002680505635":{"id":"100002680505635","name":"Khanh Vu"},"100001995263460":{"id":"100001995263460","name":"Chibi Yuriko"},"100001128589118":{"id":"100001128589118","name":"Giang Manh"},"100001912633316":{"id":"100001912633316","name":"Du Ca"},"100004368162869":{"id":"100004368162869","name":"Yenthuy Le"},"100004133863020":{"id":"100004133863020","name":"Ngô Thu Huyền"},"100001479894331":{"id":"100001479894331","name":"Diệu Nguyễn"},"100001609833418":{"id":"100001609833418","name":"Tsunami Hime"},"100000073848158":{"id":"100000073848158","name":"Hoàng Đắc"},"100000219148071":{"id":"100000219148071","name":"Anh Còi"},"100002676859353":{"id":"100002676859353","name":"Chu Quang Viên"},"100001739865592":{"id":"100001739865592","name":"Tung Le"},"100001723862714":{"id":"100001723862714","name":"Bo Bien Vang"},"100001686456421":{"id":"100001686456421","name":"Phạm Diệu"},"100003210512769":{"id":"100003210512769","name":"Trang Nguyễn"},"100001695345798":{"id":"100001695345798","name":"Tyn Aki"},"100004458131717":{"id":"100004458131717","name":"Minh Huệ"},"100002844554339":{"id":"100002844554339","name":"Nguyễn Quang Huy"},"100004483051243":{"id":"100004483051243","name":"Knari Nguyen"},"1693102459":{"id":"1693102459","name":"Châu Hoàng"},"100005327494424":{"id":"100005327494424","name":"Nguyễn Huy Hoàng"},"100000427448138":{"id":"100000427448138","name":"Anh Tuan Pham"},"100003216142531":{"id":"100003216142531","name":"Dudu Tròn"},"100004566972183":{"id":"100004566972183","name":"Tsuyoshi Ta"},"100006009612602":{"id":"100006009612602","name":"Naru Katori"},"100003705664170":{"id":"100003705664170","name":"Sói Minnie"},"100001541536632":{"id":"100001541536632","name":"Viet Do"},"100001755012731":{"id":"100001755012731","name":"Ma Tran"},"100003163690158":{"id":"100003163690158","name":"清嶺"},"100001705024122":{"id":"100001705024122","name":"Hùng Xuân"},"1824015127":{"id":"1824015127","name":"Bùi Quang Tân"},"100001100027589":{"id":"100001100027589","name":"Tuấn Anh Lê"},"100004373644702":{"id":"100004373644702","name":"Thanh Phuong"},"100001248341085":{"id":"100001248341085","name":"Tiểu Hồ Ly"},"100000776461179":{"id":"100000776461179","name":"Jotaro Nguyen"},"100004140850631":{"id":"100004140850631","name":"Huong Trang"},"100004049801807":{"id":"100004049801807","name":"Mio Chan"},"100001210780023":{"id":"100001210780023","name":"Hoanganh Nguyen"},"100004101363917":{"id":"100004101363917","name":"Lan Anh Mẫn"},"100001594722256":{"id":"100001594722256","name":"Viết An Phạm"},"100000157544810":{"id":"100000157544810","name":"Trang Hoang"},"100001062202744":{"id":"100001062202744","name":"Hoang Garu"},"100002224992538":{"id":"100002224992538","name":"Nguyễn Văn Tâm"},"100001579772516":{"id":"100001579772516","name":"Xuân Vũ Huy"},"100003312527085":{"id":"100003312527085","name":"Ngat Pro"},"100004314845088":{"id":"100004314845088","name":"Thanh Vân Nguyễn"},"100004479942719":{"id":"100004479942719","name":"Minh Hòa"},"100005883573413":{"id":"100005883573413","name":"Thanh Vu"},"100001149552981":{"id":"100001149552981","name":"Hà Ngọc Hiếu"},"100000649472712":{"id":"100000649472712","name":"Cửu Vỹ Hồ Ly"},"100004306806098":{"id":"100004306806098","name":"Tự Đi Tìm Chết"},"100002641238579":{"id":"100002641238579","name":"Vịt Béo"},"100001007000967":{"id":"100001007000967","name":"Bibi Nguyễn"},"100001864793577":{"id":"100001864793577","name":"Sakura Đhbkhn"},"100002568133487":{"id":"100002568133487","name":"Ty Ti"},"100004519592861":{"id":"100004519592861","name":"Chiisai Hana"},"100001603388890":{"id":"100001603388890","name":"Ken Ayunpa"},"100003011873382":{"id":"100003011873382","name":"Hiên Nguyễn"},"100002508122689":{"id":"100002508122689","name":"Vũ Mạnh Tuấn"},"100004608482123":{"id":"100004608482123","name":"Bé Bi"},"100004393419262":{"id":"100004393419262","name":"Maruko Chan"},"1821970083":{"id":"1821970083","name":"Nguyễn Mạnh Cường"},"100000659425505":{"id":"100000659425505","name":"Nguyen Thanh Tung"},"100001475606142":{"id":"100001475606142","name":"Thanh Hoa Dang"},"100005875623499":{"id":"100005875623499","name":"Yuu Ki"},"100004380181780":{"id":"100004380181780","name":"Be Boo"},"1805966655":{"id":"1805966655","name":"Shinichi Kudo"},"100003137067215":{"id":"100003137067215","name":"Duong Thi Diem Hang"},"100001550033545":{"id":"100001550033545","name":"Dang Luan Dang Luan"},"100001232829569":{"id":"100001232829569","name":"Ngọc Quỳnh"},"100000328742646":{"id":"100000328742646","name":"Trần Giáp"},"100001345315262":{"id":"100001345315262","name":"Cuong Hoang"},"100004477292126":{"id":"100004477292126","name":"Kien Xinh Doan"},"100000128764209":{"id":"100000128764209","name":"Chau Le"},"100005783684423":{"id":"100005783684423","name":"Chan Hi"},"100001260645727":{"id":"100001260645727","name":"Ngo Duy Son"}},"paging":{"cursors":{"after":"MTAwMDAxNjM2MTA1MDgz","before":"MTAwMDAxNjM2MTA1MDgz"},"next":"https://graph.facebook.com/229244010425617_667611549922192/likes?limit=1&summary=1&after=MTAwMDAxNjM2MTA1MDgz"},"summary":{"total_count":88}},"comments":{"data":{"667612856588728":{"id":"667612856588728","from":{"id":"100000198219367","name":"Chang Jiang"},"message":"Rất rất bổ ích (y)","can_remove":false,"created_time":"2013-06-09T22:34:28+0000","like_count":0,"user_likes":false},"667618279921519":{"id":"667618279921519","from":{"id":"100005783684423","name":"Chan Hi"},"message":"khám phá thật có lòng. :)) doumo arigatougodaimashita.","can_remove":false,"created_time":"2013-06-09T22:53:30+0000","like_count":1,"user_likes":false},"667626346587379":{"id":"667626346587379","from":{"id":"100000128764209","name":"Chau Le"},"message":"Rất hay","can_remove":false,"created_time":"2013-06-09T23:26:11+0000","like_count":0,"user_likes":false},"667647186585295":{"id":"667647186585295","from":{"id":"100001754136107","name":"Nguyễn Tuấn Vũ"},"message":"ごち素様でした: cung mang nghĩa là cảm ơn ng đã nấu,đã làm nhưng món an.\nGần cuối bữa ăn,ng nhật thường cầm trà ra uống.khi đó ý ng ta là mong muốn kết thúc nhanh bữa ăn.( ăn nhanh lên còn dọn,ý như kiểu đuổi khéo )","can_remove":false,"created_time":"2013-06-10T00:28:35+0000","like_count":1,"user_likes":false},"667649486585065":{"id":"667649486585065","from":{"id":"100001475606142","name":"Thanh Hoa Dang"},"message":"bài viết hay quá. em đến nhà ng Nhật nhiều rồi nhưng riêng cái khoản ăn uống thoải mái thì vẫn còn làm khách. bài viết của anh rất hữu ích vs em. cảm ơn anh nhiều nhé ^^","can_remove":false,"created_time":"2013-06-10T00:35:32+0000","like_count":0,"user_likes":false},"667672763249404":{"id":"667672763249404","from":{"id":"100001149552981","name":"Hà Ngọc Hiếu"},"message":"ありがとうございました rồi tý viết maill cảm ơn tiếp hj hj","can_remove":false,"created_time":"2013-06-10T01:39:10+0000","like_count":1,"user_likes":false},"667672826582731":{"id":"667672826582731","from":{"id":"100001149552981","name":"Hà Ngọc Hiếu"},"message":"rất bổ ích :)","can_remove":false,"created_time":"2013-06-10T01:39:26+0000","like_count":0,"user_likes":false},"667687156581298":{"id":"667687156581298","from":{"id":"100000198219367","name":"Chang Jiang"},"message":"mà nếu có người hỏi lúc đang ăn thì lúc che miệng trả lời cũng phải nuốt trước khi nói chứ nhỉ ;))","can_remove":false,"created_time":"2013-06-10T02:18:31+0000","like_count":1,"user_likes":false},"667695539913793":{"id":"667695539913793","from":{"id":"100001062202744","name":"Hoang Garu"},"message":"hay thật đấy","can_remove":false,"created_time":"2013-06-10T02:42:13+0000","like_count":0,"user_likes":false},"667699376580076":{"id":"667699376580076","from":{"id":"100001416272263","name":"Mai PB"},"message":"Giày dép quay ra ngoài là phép tắc dành cho tất cả mọi người đấy, kg chỉ riêng khách đâu. Lý do là để lúc ra xỏ chân vào được luôn. Bạn đi khách sạn hay ryokan, thậm chí vào toilet là thấy ngay điều này.","can_remove":false,"created_time":"2013-06-10T02:55:34+0000","like_count":3,"user_likes":false},"667699696580044":{"id":"667699696580044","from":{"id":"100001416272263","name":"Mai PB"},"message":"Thức trắng đêm à, giống mình hồi sv. :)","can_remove":false,"created_time":"2013-06-10T02:56:32+0000","like_count":0,"user_likes":false},"667707976579216":{"id":"667707976579216","from":{"id":"100004049801807","name":"Mio Chan"},"message":"Mình có thể lấy bài viết của pạn chia sẻ lên page của pọn mìk đc k bạn?","can_remove":false,"created_time":"2013-06-10T03:23:13+0000","like_count":1,"user_likes":false},"667712446578769":{"id":"667712446578769","from":{"id":"100002904984187","name":"Thuy Nguyen"},"message":"sao t tưởng ng nhật ăn phát ra tiếng để tỏ ra rằng món ăn ấy rất ngon.........như cách họ ăn mì vậy....hay ăn mì vs ăn cơm thì khác nhua","can_remove":false,"created_time":"2013-06-10T03:32:26+0000","like_count":0,"user_likes":false},"667745973242083":{"id":"667745973242083","from":{"id":"100001754136107","name":"Nguyễn Tuấn Vũ"},"message":"Ăn mì thì họ có thưer ăn thế.nhưng ăn cơm thì lấy đâu ra tiếng hả bạn","can_remove":false,"created_time":"2013-06-10T04:22:50+0000","like_count":0,"user_likes":false},"667761776573836":{"id":"667761776573836","from":{"id":"100000128764209","name":"Chau Le"},"message":"thế có nghĩa ăn cơm thì tĩnh còn ăn mì thì động à, hình như các món nước thì mới có tiếng thôi hay sao ấy","can_remove":false,"created_time":"2013-06-10T04:40:32+0000","like_count":0,"user_likes":false},"667765833240097":{"id":"667765833240097","from":{"id":"100001705024122","name":"Hùng Xuân"},"message":"Hay thật , ng Nhật trọng lê nghi nhỉ .","can_remove":false,"created_time":"2013-06-10T04:54:23+0000","like_count":0,"user_likes":false},"667774649905882":{"id":"667774649905882","from":{"id":"100001458099624","name":"Kham Pha"},"message":"Chang Jiang dĩ nhiên phải nuốt thì mới nói được, nhưng đừng nuốt vội để trả lời bởi như thế người ta sẽ cảm thấy bản thân mình thật vô ý. \nMai PB nó tiện cho việc đi luôn là đúng nhưng nguồn gốc ý nghĩa của hành động này là như em viết bên trên. Cái này có thể nhiều người Nhật cũng ko biết đc. Người ta vẫn làm vì nó thành thói quen rồi.","message_tags":[{"id":"100000198219367","name":"Chang Jiang","type":"user","offset":0,"length":11},{"id":"100001416272263","name":"Mai PB","type":"user","offset":139,"length":6}],"can_remove":false,"created_time":"2013-06-10T05:23:31+0000","like_count":1,"user_likes":false},"667776839905663":{"id":"667776839905663","from":{"id":"100001458099624","name":"Kham Pha"},"message":"Gửi tới tất cả mọi người: \n\nLễ nghi của người Nhật nhiều nhưng không phải bạn làm theo thì người Nhật sẽ quý bạn. Cái mà họ quý nhất là con người, nhân phẩm của các bạn. Nếu các bạn sống biết tự trọng, không làm điều gì để người ta phải coi thường mình thì đi đâu người ta cũng quý. Lễ nghi chỉ là phương tiện để học làm người thôi. Phẩm chất con người không có gì thì mọi lễ nghi đều vô nghĩa. \n\nMio Chan kiến thức là cho tất cả mọi người, bạn cứ tự nhiên. Nếu post lại ở đâu đó bạn có thể viết thêm mấy lời nhắn vừa rồi được không?","message_tags":[{"id":"100004049801807","name":"Mio Chan","type":"user","offset":397,"length":8}],"can_remove":false,"created_time":"2013-06-10T05:31:09+0000","like_count":2,"user_likes":false},"667780893238591":{"id":"667780893238591","from":{"id":"1824015127","name":"Bùi Quang Tân"},"message":"Bài hay quá anh Kham ạ :D","message_tags":[{"id":"100001458099624","name":"Kham","type":"user","offset":16,"length":4}],"can_remove":false,"created_time":"2013-06-10T05:48:10+0000","like_count":0,"user_likes":false},"667831436566870":{"id":"667831436566870","from":{"id":"100004049801807","name":"Mio Chan"},"message":"Ừm:) cám ơn b ^^","can_remove":false,"created_time":"2013-06-10T07:51:16+0000","like_count":0,"user_likes":false},"668374126512601":{"id":"668374126512601","from":{"id":"100001458099624","name":"Kham Pha"},"message":"Theo như kết quả của phiếu điều tra hiện thời, có vẻ rất nhiều bạn muốn biết thêm về cuộc sống thường ngày bên Nhật nên mình đã viết bài này. \nVì vậy hãy điền vào phiếu điều tra để group hiểu được tâm tư, nguyện vọng của các bạn. Các bạn muốn gì thì có thể đề nghị thoải mái. Nhóm admin sẽ cố gắng sắp xếp. \nhttps://docs.google.com/forms/d/1JijWbwV_ke9801K9efQ7_NLLR6S9ZJ5tyeXZUKGaaGQ/viewform","can_remove":false,"created_time":"2013-06-11T06:27:43+0000","like_count":0,"user_likes":false}},"paging":{"cursors":{"after":"NjY3NjEyODU2NTg4NzI4","before":"NjY3NjEyODU2NTg4NzI4"},"next":"https://graph.facebook.com/229244010425617_667611549922192/comments?limit=1&summary=1&after=NjY3NjEyODU2NTg4NzI4"},"summary":{"order":"chronological","total_count":21}}}