{"id":"229244010425617_667833189900028","type":"status","from":{"id":"100000077388104","name":"Quang Ghẻ"},"message":"Được sự đồng ý của AD, hôm nay mình xin phép đăng thông tin tuyển sinh của trường đào tạo Nhật ngữ OASAFUNE.  Lần này nhà trường tổ chức tuyển sinh cho đợt nhập học tháng 7 và tháng 10/2013. Thời gian tương đối gấp, và dự định đầu tháng 7 tới ban giám hiệu nhà trường sẽ sang Việt Nam để tổ chức gặp gỡ, phỏng vấn các bạn có nhu cầu. Mình đang làm phiên dịch cho một số dự án của nhà trường tại Việt Nam, nên các bạn cần thêm thông tin, xin vui lòng liên hệ, Trần Đình Quang, số điện thoại 0912 962 951, Mail: tdquang.kbc@gmail.com. Cảm ơn AD, cảm ơn các bạn.\n• Tên trường: Trường Đào Tạo Nhật Ngữ OASAFUNE\nĐịa chỉ: 700-818 3-10 Banzancho, Kitaku, Okayama – city\nTel: (086)236-0881  Fax: (086)236-0882\nhttp://www.osafune.info\n• Về các khóa học tiếng Nhật, nhà trường có 3 khóa A, B, C. Trong đó khóa A khai giảng tháng 10, thời gian học là 01 năm 6 tháng, khóa B khai giảng tháng 7 với thời gian học là 01 năm 9 tháng, và khóa C khai giảng tháng 4 với thời gian học là 02 năm.\n• Điều kiện đăng ký nhập học\n1. Có bằng tốt nghiệp Phổ Thông Trung Học(PTTH – Tú tài)\n2. Đã học qua 150 giờ tiếng Nhật căn bản tại cơ sở đào tạo tiếng Nhật Bản\n3. Có khả năng được cấp Visa tới Nhật Bản hoặc đang có Visa đi Nhật Bản\n4. Nam, nữ có sức khỏe tốt,từ 18 tuổi trở lên\n• Các khoản phí cần nộp như sau:\nTiền nộp đơn: 21.000 yên Nhật (¥)\nTiền nhập học: 52.500 ¥\nTiền học trình (học phí): 504.000¥/1năm (Đóng 01 lần mỗi năm)\nTiền sách giáo khoa 42.000¥/1năm.\nTiền bảo hiểm y tế: 32.500¥/1năm\nChú ý: Trường hợp học sinh đã đóng tất cả các khoản chi phí nhưng muốn bỏ, không sang học, nhà trường sẽ hoàn trả tất cả các chi phí, trừ tiền nhập học.( 52.500 ¥)\n• Về kí túc xá sinh viên, có hai loại như sau\nLoại 1: Tiền đầu vào là 15 000¥. Sau đó tiền phí hàng tháng là 35 000¥, đã bao gồm tiền điện, nước, gas, và tiền ăn 3 bữa.\nLoại 2: Tiền đầu vào  15 000¥. Sau đó tiền phí hàng tháng là 38 000¥, đã bao gồm tiền nước, gas, và tiền ăn 3 bữa. Tiền điện sinh viên nộp riêng.\n\nTất cả các thông tin còn lại, từ giới thiệu nhà trường, lịch sử nhà trường, các hoạt động đào tạo, ngoại khóa của trường, nếu các bạn muốn tìm hiểm thêm, xin vui lòng liên hệ, mình sẽ gửi qua Email.","created_time":"2013-06-10T08:00:52+0000","updated_time":"2013-06-11T04:10:44+0000","likes":{"data":{"100002369341715":{"id":"100002369341715","name":"Xu Li"},"726423323":{"id":"726423323","name":"Trần Thư"},"1709761477":{"id":"1709761477","name":"Hoang Gia Quyen"},"100002879943075":{"id":"100002879943075","name":"Lan Phuong"}},"paging":{"cursors":{"after":"MTAwMDAyMzY5MzQxNzE1","before":"MTAwMDAyMzY5MzQxNzE1"},"next":"https://graph.facebook.com/229244010425617_667833189900028/likes?limit=1&summary=1&after=MTAwMDAyMzY5MzQxNzE1"},"summary":{"total_count":4}},"comments":{"data":{"667839043232776":{"id":"667839043232776","from":{"id":"1709761477","name":"Hoang Gia Quyen"},"message":"À,bác ghi bằng tiền yên,nhưng ghi chú thêm bên cạnh bằng bao nhiêu tiền việt thì có lẽ dễ hiểu hơn bác ạ :)","can_remove":false,"created_time":"2013-06-10T08:28:59+0000","like_count":1,"user_likes":false},"667839153232765":{"id":"667839153232765","from":{"id":"100000077388104","name":"Quang Ghẻ"},"message":"Hức, Post xong bài nhìn lại thì Post sai cả tên trường, OSAFUNE chứ, chắc tại mấy hôm nay đi dịch nhiều, loạn rồi.","can_remove":false,"created_time":"2013-06-10T08:29:18+0000","like_count":0,"user_likes":false},"667839549899392":{"id":"667839549899392","from":{"id":"100000077388104","name":"Quang Ghẻ"},"message":"Hoang Gia Quyen, tưởng đang đi nghỉ mát cơ mà, vụ này là của cái bác Nhật mà tôi đang đi dịch cả tuần nay, công tác như cán bộ VIP ấy, suốt Hải Phòng, Hải Dương, Hà Nội....còn vụ đổi tiền để tớ tìm tỉ giá đã, dịch từ cái quyển Profile dày bịch của trường ra mà","message_tags":[{"id":"1709761477","name":"Hoang Gia Quyen","type":"user","offset":0,"length":15}],"can_remove":false,"created_time":"2013-06-10T08:30:59+0000","like_count":0,"user_likes":false},"667843443232336":{"id":"667843443232336","from":{"id":"100000042138129","name":"Duong David"},"message":"tỷ giá trung bình hiện tại là 1Yên=205VND","can_remove":false,"created_time":"2013-06-10T08:45:00+0000","like_count":1,"user_likes":false},"667847666565247":{"id":"667847666565247","from":{"id":"1821970083","name":"Nguyễn Mạnh Cường"},"message":"Học phí không phụ thuộc vào thời gian học đúng không ạ, 1 năm 6 tháng hay 1 năm 9 tháng hay 2 năm cũng chỉ có 1 phí là hơn 50,4 man thôi đúng ko ạ? Cái thuê ký túc xá có lộn giá tiền ko anh, 1 cái đóng ít hơn mà k fai nộp tiền điện. 1 Cái đóng nhiều hơn lại fai nộp tiền điện là sao :D Tính ra 1 tháng mình bỏ ra tầm 7 triệu để chi phí bên đó, em muốn hỏi anh là học ở trường này, ở khu vực này, muốn đi làm thêm có dễ không anh, tất nhiên là đã có 1 chút tiếng  Tran Dinh Quang ? Em cảm ơn anh nhiều ạ","message_tags":[{"id":"100000077388104","name":"Tran Dinh Quang","type":"user","offset":463,"length":15}],"can_remove":false,"created_time":"2013-06-10T09:01:25+0000","like_count":0,"user_likes":false},"667935166556497":{"id":"667935166556497","from":{"id":"100000077388104","name":"Quang Ghẻ"},"message":"Ku Cường, mình vừa kiểm tra lại với bên Nhật rồi. Kí túc xá thì giá là chuẩn rồi, cái loại 2 kia là kí túc xá mới xây nên đắt hơn và học sinh phải tự nộp tiền điện. Việc đi làm thêm cũng OK, nhà trường sẽ tạo điều kiện cho sinh viên đi làm ngay khi có xong thủ tục lưu trú hợp pháp. Trường chuyên về đào tạo Nhật ngữ cho sinh viên nước ngoài, nên họ rất hiểu điều này. Nếu bạn muốn xem thêm hình ảnh hay Clip về trường, cho mình xin cái Mail, mình sẽ gửi cho bạn.","message_tags":[{"id":"1821970083","name":"Ku Cường","type":"user","offset":0,"length":8}],"can_remove":false,"created_time":"2013-06-10T12:29:39+0000","like_count":1,"user_likes":false},"667953743221306":{"id":"667953743221306","from":{"id":"100000042138129","name":"Duong David"},"message":"Cho mình xin tất cả email về trường vào email này nhé bạn: dotheduong0209@gmail.com . Có hình ảnh về cả 2 ký túc xá mới và cũ càng tốt nhé bạn, để mình xem thế nào rồi chọn. Nhưng có cái mình đang băn khoăn là ko biết thành phố Okayama nó như thế nào, có dễ xin việc ko, hay thành phố lại ở nơi khỉ ho cò gáy thì toi. :D Nhà trường có xin việc hộ cũng là phụ thôi, bản thân mình vẫn là chính phải ko bạn :D","can_remove":false,"created_time":"2013-06-10T13:25:44+0000","like_count":2,"user_likes":false},"668006296549384":{"id":"668006296549384","from":{"id":"1821970083","name":"Nguyễn Mạnh Cường"},"message":"Email của em là cuongnm01278@gmail.com, Em cảm ơn anh nhiều ạ ^_^","can_remove":false,"created_time":"2013-06-10T15:16:41+0000","like_count":0,"user_likes":false},"668306333186047":{"id":"668306333186047","from":{"id":"100000077388104","name":"Quang Ghẻ"},"message":"Duong David, Ku Cường mình gửi tạm 02 File hình ảnh giới thiệu về Okayama và trường Osafune qua Gmail cho các bạn rồi. Mình đang Up Clip lên Mediafire, sau đó sẽ gửi Link cho các bạn. Cảm ơn nhiều.","message_tags":[{"id":"100000042138129","name":"Duong David","type":"user","offset":0,"length":11},{"id":"1821970083","name":"Ku Cường","type":"user","offset":13,"length":8}],"can_remove":false,"created_time":"2013-06-11T02:19:38+0000","like_count":2,"user_likes":false},"668340273182653":{"id":"668340273182653","from":{"id":"100000042138129","name":"Duong David"},"message":"Ssao ko up clip lên youtube cho mọi người cùng xem hả bạn?","can_remove":false,"created_time":"2013-06-11T04:03:54+0000","like_count":0,"user_likes":false},"668340326515981":{"id":"668340326515981","from":{"id":"100000042138129","name":"Duong David"},"message":"Cám ơn bạn nhiều nhé.","can_remove":false,"created_time":"2013-06-11T04:04:04+0000","like_count":0,"user_likes":false},"668342463182434":{"id":"668342463182434","from":{"id":"100000077388104","name":"Quang Ghẻ"},"message":"cũng không nghĩ ra nữa, để tớ tìm cách up đã","can_remove":false,"created_time":"2013-06-11T04:10:44+0000","like_count":0,"user_likes":false}},"paging":{"cursors":{"after":"NjY3ODM5MDQzMjMyNzc2","before":"NjY3ODM5MDQzMjMyNzc2"},"next":"https://graph.facebook.com/229244010425617_667833189900028/comments?limit=1&summary=1&after=NjY3ODM5MDQzMjMyNzc2"},"summary":{"order":"chronological","total_count":12}}}