{"id":"229244010425617_668436143173066","type":"status","from":{"id":"100004666446749","name":"Jouzu Waei"},"message":"Trong G có ban nào đang du học bên kỹ thuật hay biết về kỹ thuật không ạ, ví dụ như về mặt y sinh, mình đang muốn làm đề tài nghiên cứu khoa học về công nghệ y sinh, có bạn nào biết về vấn đề này có thể cho mình địa chỉ wed or tài liệu tiếng nhật được không ạ.","created_time":"2013-06-11T10:19:24+0000","updated_time":"2013-06-11T11:57:40+0000","likes":{"data":{"100001458099624":{"id":"100001458099624","name":"Kham Pha"},"100003239853441":{"id":"100003239853441","name":"Chu Văn Thọ"}},"paging":{"cursors":{"after":"MTAwMDAxNDU4MDk5NjI0","before":"MTAwMDAxNDU4MDk5NjI0"},"next":"https://graph.facebook.com/229244010425617_668436143173066/likes?limit=1&summary=1&after=MTAwMDAxNDU4MDk5NjI0"},"summary":{"total_count":2}},"comments":{"data":{"668452549838092":{"id":"668452549838092","from":{"id":"100001458099624","name":"Kham Pha"},"message":"Mình học kĩ thuật nhưng ko học y sinh. Diệu Nguyễn học gì đấy liên quan sinh học phải ko?","message_tags":[{"id":"100001479894331","name":"Diệu Nguyễn","type":"user","offset":39,"length":11}],"can_remove":false,"created_time":"2013-06-11T11:20:18+0000","like_count":0,"user_likes":false},"668454629837884":{"id":"668454629837884","from":{"id":"100001479894331","name":"Diệu Nguyễn"},"message":"cái mình đang nghiên cứu có chữ Bio nhưng công việc mình làm thì ko liên quan lắm","can_remove":false,"created_time":"2013-06-11T11:26:13+0000","like_count":1,"user_likes":false},"668463276503686":{"id":"668463276503686","from":{"id":"100001458099624","name":"Kham Pha"},"message":"Hoá ra là biogas :v","can_remove":false,"created_time":"2013-06-11T11:45:18+0000","like_count":0,"user_likes":false},"668466593170021":{"id":"668466593170021","from":{"id":"100001479894331","name":"Diệu Nguyễn"},"message":"Mình xin được đính chính là mình đang nghiên cứu về biore (sữa rửa mặt bí ồ rê ấy). Sorry vì đã spam!","can_remove":false,"created_time":"2013-06-11T11:55:20+0000","like_count":2,"user_likes":false},"668467426503271":{"id":"668467426503271","from":{"id":"100001416272263","name":"Mai PB"},"message":"http://scholar.google.co.jp/scholar?hl=en&q=%E3%83%90%E3%82%A4%E3%82%AA&btnG=&as_sdt=1%2C5&as_sdtp=","can_remove":false,"created_time":"2013-06-11T11:57:40+0000","like_count":1,"user_likes":false}},"paging":{"cursors":{"after":"NjY4NDUyNTQ5ODM4MDky","before":"NjY4NDUyNTQ5ODM4MDky"},"next":"https://graph.facebook.com/229244010425617_668436143173066/comments?limit=1&summary=1&after=NjY4NDUyNTQ5ODM4MDky"},"summary":{"order":"chronological","total_count":5}}}