{"id":"229244010425617_668422566507757","type":"status","from":{"id":"100004797750302","name":"Duc Dinh"},"message":"Cantuyen 30 nguoi lam my tien so kai 3 man ban nao co nhu cau lien he den cong ty minh nhe","created_time":"2013-06-11T09:33:22+0000","updated_time":"2013-06-11T14:14:52+0000","likes":{"data":{"100005087436518":{"id":"100005087436518","name":"Vũ Trịnh"}},"paging":{"cursors":{"after":"MTAwMDA1MDg3NDM2NTE4","before":"MTAwMDA1MDg3NDM2NTE4"}},"summary":{"total_count":1}},"comments":{"data":{"668429126507101":{"id":"668429126507101","from":{"id":"100003312527085","name":"Ngat Pro"},"message":"cty ban la cty nao chu?","can_remove":false,"created_time":"2013-06-11T09:55:14+0000","like_count":1,"user_likes":false},"668441776505836":{"id":"668441776505836","from":{"id":"100001416272263","name":"Mai PB"},"message":"Thế là kiếm được 90 man từ các con vịt rồi nhỉ? Vài bữa nữa cho nghỉ một nửa nhé.","can_remove":false,"created_time":"2013-06-11T10:40:27+0000","like_count":1,"user_likes":false},"668444896505524":{"id":"668444896505524","from":{"id":"100001754136107","name":"Nguyễn Tuấn Vũ"},"message":"Thế còn thiếu chứ a Mai PB \nCòn ăn tiền hoa hồng nữa chứ nhỉ.","can_remove":false,"created_time":"2013-06-11T10:53:04+0000","like_count":0,"user_likes":false},"668446123172068":{"id":"668446123172068","from":{"id":"100003217248176","name":"Quang Tuấn Bùi"},"message":"Bạn đăng thông tin như vầy ai mà làm :v","can_remove":false,"created_time":"2013-06-11T10:58:25+0000","like_count":0,"user_likes":false},"668447133171967":{"id":"668447133171967","from":{"id":"100004797750302","name":"Duc Dinh"},"message":"Cty moi gioi viec lam cua trung quoc ban nao co nhu cau thi lien he dung noi lung tung","can_remove":false,"created_time":"2013-06-11T11:02:10+0000","like_count":0,"user_likes":false},"668447603171920":{"id":"668447603171920","from":{"id":"100003312527085","name":"Ngat Pro"},"message":"buon cuoi.noi lien he vs cty ma ko cho dia chi cty.sdt cung ko co.the ng ta lien lac kieu j?","can_remove":false,"created_time":"2013-06-11T11:03:43+0000","like_count":0,"user_likes":false},"668448799838467":{"id":"668448799838467","from":{"id":"100001754136107","name":"Nguyễn Tuấn Vũ"},"message":"Ý là tự ép facebook bạn ấy.xong nhắn tin hỏi thăm.xong roi ban ay se cho so de lien lã","can_remove":false,"created_time":"2013-06-11T11:07:57+0000","like_count":2,"user_likes":false},"668450143171666":{"id":"668450143171666","from":{"id":"100003312527085","name":"Ngat Pro"},"message":"ak.hoa ra la vay.cam on ban Nguyễn Tuấn Vũ","can_remove":false,"created_time":"2013-06-11T11:12:29+0000","like_count":0,"user_likes":false},"668451643171516":{"id":"668451643171516","from":{"id":"100001754136107","name":"Nguyễn Tuấn Vũ"},"message":"Ngat Pro: chắc c ko phai di lam đung k","message_tags":[{"id":"100003312527085","name":"Ngat Pro","type":"user","offset":0,"length":8}],"can_remove":false,"created_time":"2013-06-11T11:17:56+0000","like_count":0,"user_likes":false},"668452159838131":{"id":"668452159838131","from":{"id":"100003312527085","name":"Ngat Pro"},"message":"hehe.sao c biet? t chi an vs nam nha dem cừu thui","can_remove":false,"created_time":"2013-06-11T11:19:10+0000","like_count":0,"user_likes":false},"668459226504091":{"id":"668459226504091","from":{"id":"100001416272263","name":"Mai PB"},"message":"Kinh nhỉ, không những lấy tiền shokai bất hợp pháp mà chắc còn ăn tiền hoa hồng trên mồ hôi đồng bào đây.","can_remove":false,"created_time":"2013-06-11T11:36:22+0000","like_count":0,"user_likes":false},"668460316503982":{"id":"668460316503982","from":{"id":"100003217248176","name":"Quang Tuấn Bùi"},"message":"mà cái 'my tien so kai' là gì vậy mọi người","can_remove":false,"created_time":"2013-06-11T11:37:55+0000","like_count":0,"user_likes":false},"668471143169566":{"id":"668471143169566","from":{"id":"100004797750302","name":"Duc Dinh"},"message":"08037528426 hoax09010365168 cac ban hoc jcli gap truc tiep minh tai truong ai can viec thi lien he dung noi lung tung","can_remove":false,"created_time":"2013-06-11T12:09:20+0000","like_count":0,"user_likes":false},"668496693167011":{"id":"668496693167011","from":{"id":"100001308172818","name":"Hoang Luan"},"message":"*Cty moi gioi viec lam cua trung quoc* Nghe la ko on chut nao.chac vao lam 3 thang rui c.ty se cho nghi viec.sau do tuyen nguoi moi thi lai co them 90man nua.:v","can_remove":false,"created_time":"2013-06-11T13:22:25+0000","like_count":0,"user_likes":false},"668501209833226":{"id":"668501209833226","from":{"id":"100004133863020","name":"Ngô Thu Huyền"},"message":"thế việc làm ở đâu làm gì làm từ mấy giờ hả a","can_remove":false,"created_time":"2013-06-11T13:33:39+0000","like_count":0,"user_likes":false},"668502433166437":{"id":"668502433166437","from":{"id":"100004797750302","name":"Duc Dinh"},"message":"Saitama","can_remove":false,"created_time":"2013-06-11T13:37:19+0000","like_count":0,"user_likes":false},"668502456499768":{"id":"668502456499768","from":{"id":"100004797750302","name":"Duc Dinh"},"message":"Chiba cug co","can_remove":false,"created_time":"2013-06-11T13:37:24+0000","like_count":0,"user_likes":false},"668517526498261":{"id":"668517526498261","from":{"id":"100001416272263","name":"Mai PB"},"message":"Ai muốn tìm việc thì nhờ bạn này giới thiệu miễn phí, đừng trả tiền shokai cho bất cứ ai.\nhttps://www.facebook.com/profile.php?id=100005801442456","can_remove":false,"created_time":"2013-06-11T14:14:52+0000","like_count":4,"user_likes":false}},"paging":{"cursors":{"after":"NjY4NDI5MTI2NTA3MTAx","before":"NjY4NDI5MTI2NTA3MTAx"},"next":"https://graph.facebook.com/229244010425617_668422566507757/comments?limit=1&summary=1&after=NjY4NDI5MTI2NTA3MTAx"},"summary":{"order":"chronological","total_count":20}}}