{"id":"229244010425617_668928129790534","type":"link","picture":"https://fbexternal-a.akamaihd.net/safe_image.php?d=AQAHrtKrX6Hs0FwF&w=154&h=154&url=http%3A%2F%2Fvietnam24h.com%2Fimages%2F2009%2F07%2F07%2FTu-nghiep.jpg","link":"http://vietnam24h.com/tin-tuc-nhat-ban/tu-nghiep/76-than-phn-tu-nghip-sinh-vn-ti-nht-bn","from":{"id":"100001458099624","name":"Kham Pha"},"message":"Các bạn tu nghiệp sinh có ý kiến gì về bài viết này không?","created_time":"2013-06-12T11:11:28+0000","updated_time":"2013-06-13T10:53:55+0000","likes":{"data":{"100000088874261":{"id":"100000088874261","name":"Trần Đức Quang"},"100002425288918":{"id":"100002425288918","name":"Kira Chiến ND"},"100000383155614":{"id":"100000383155614","name":"Phạm Thúc Hưng"},"100005877672091":{"id":"100005877672091","name":"Xuan Tho"},"100001723862714":{"id":"100001723862714","name":"Bo Bien Vang"},"1717530880":{"id":"1717530880","name":"Triệu Việt Cường"},"100004711450616":{"id":"100004711450616","name":"Hân Chocopie"},"100003692844643":{"id":"100003692844643","name":"Ngoc Hoang"},"100001260645727":{"id":"100001260645727","name":"Ngo Duy Son"},"100002676859353":{"id":"100002676859353","name":"Chu Quang Viên"},"100004123327271":{"id":"100004123327271","name":"Nguyễn Phương"},"1821970083":{"id":"1821970083","name":"Nguyễn Mạnh Cường"},"726423323":{"id":"726423323","name":"Trần Thư"},"100000056674480":{"id":"100000056674480","name":"Bích Liên"},"100001905664553":{"id":"100001905664553","name":"Mẹ Ơi Con Đói"},"1694966999":{"id":"1694966999","name":"Nguyễn Công Tiến"},"100000649472712":{"id":"100000649472712","name":"Cửu Vỹ Hồ Ly"},"100000403151977":{"id":"100000403151977","name":"Le Anh"},"100002258140388":{"id":"100002258140388","name":"Kim Sữa"},"100003926400742":{"id":"100003926400742","name":"Trần Mạnh"},"100006035740084":{"id":"100006035740084","name":"Thuy Pham"},"100001718883015":{"id":"100001718883015","name":"Sayonara Daisukina Hito"},"100002680505635":{"id":"100002680505635","name":"Khanh Vu"},"100000882482676":{"id":"100000882482676","name":"Quốc Lập"},"100000281038667":{"id":"100000281038667","name":"Nguyễn Hải"},"100003321786144":{"id":"100003321786144","name":"Baloon Bambootatoo"},"100000167825702":{"id":"100000167825702","name":"Cùi Bắp"},"100000076194218":{"id":"100000076194218","name":"Ai Van"},"100000250256418":{"id":"100000250256418","name":"Nguyen Viet Anh"}},"paging":{"cursors":{"after":"MTAwMDAwMDg4ODc0MjYx","before":"MTAwMDAwMDg4ODc0MjYx"},"next":"https://graph.facebook.com/229244010425617_668928129790534/likes?limit=1&summary=1&after=MTAwMDAwMDg4ODc0MjYx"},"summary":{"total_count":31}},"comments":{"data":{"668935393123141":{"id":"668935393123141","from":{"id":"100000076194218","name":"Ai Van"},"message":"bai viet rat chuan va phoi bay dung thuc trang hien thuc.","can_remove":false,"created_time":"2013-06-12T11:35:01+0000","like_count":2,"user_likes":false},"668936873122993":{"id":"668936873122993","from":{"id":"100002752120341","name":"Nguyễn Đình Ngọc"},"message":"chan that","can_remove":false,"created_time":"2013-06-12T11:38:58+0000","like_count":1,"user_likes":false},"668938753122805":{"id":"668938753122805","from":{"id":"100000641227862","name":"Anh Lê"},"message":"Mẹ cha mấy thằng cán bộ -__-","can_remove":false,"created_time":"2013-06-12T11:44:08+0000","like_count":1,"user_likes":false},"668947589788588":{"id":"668947589788588","from":{"id":"100000383155614","name":"Phạm Thúc Hưng"},"message":"buồn :(","can_remove":false,"created_time":"2013-06-12T12:04:53+0000","like_count":0,"user_likes":false},"668952869788060":{"id":"668952869788060","from":{"id":"100002680505635","name":"Khanh Vu"},"message":"Chán nhỉ","can_remove":false,"created_time":"2013-06-12T12:20:05+0000","like_count":0,"user_likes":false},"668961629787184":{"id":"668961629787184","from":{"id":"100002258140388","name":"Kim Sữa"},"message":"dã man quá!","can_remove":false,"created_time":"2013-06-12T12:40:48+0000","like_count":0,"user_likes":false},"668976319785715":{"id":"668976319785715","from":{"id":"100000403151977","name":"Le Anh"},"message":"sốc toàn tập...khẹc khẹc :\\","can_remove":false,"created_time":"2013-06-12T13:13:28+0000","like_count":0,"user_likes":false},"668989426451071":{"id":"668989426451071","from":{"id":"100000649472712","name":"Cửu Vỹ Hồ Ly"},"message":"Sao lại gửi 1 người ko biết tiếng Nhật qua đó làm cố vấn :/","can_remove":false,"created_time":"2013-06-12T13:45:59+0000","like_count":0,"user_likes":false},"668994639783883":{"id":"668994639783883","from":{"id":"100001003625811","name":"Kieu Trang Pham"},"message":"Bùn","can_remove":false,"created_time":"2013-06-12T13:59:48+0000","like_count":0,"user_likes":false},"669008903115790":{"id":"669008903115790","from":{"id":"100001416272263","name":"Mai PB"},"message":"Nên hiểu rõ VN \"hạnh phúc\" thế nào.","can_remove":false,"created_time":"2013-06-12T14:22:01+0000","like_count":0,"user_likes":false},"669012423115438":{"id":"669012423115438","from":{"id":"100001754136107","name":"Nguyễn Tuấn Vũ"},"message":"E cũng gặp nhiều trường hợp đi tu nghiệp sinh. \nTrường hợp 1: bị lưa sang xong thi ko qua kỳ thi năng lực của nó thì 1 năm nó cho về\nTrường hợp 2: thì may mắn,thái độ làm việc đc,nó cho làm hết 3 năm rồi về.luong tầm 8-9 man sau khi trừ hết.còn tiền ăn thì mình tự trả.","can_remove":false,"created_time":"2013-06-12T14:29:33+0000","like_count":1,"user_likes":false},"669034849779862":{"id":"669034849779862","from":{"id":"1629517470","name":"Nguyen Thi Thanh Van"},"message":"tiền nhà ko phải trả, tiền điện nước dc bao luôn, chả lẽ ng ta trả luôn cho cả tiền ăn ah ?? ở đâu ra khôn thế ??","can_remove":false,"created_time":"2013-06-12T15:16:43+0000","like_count":1,"user_likes":false},"669046493112031":{"id":"669046493112031","from":{"id":"100001260645727","name":"Ngo Duy Son"},"message":"Đọc uất dell thể tả được!","can_remove":false,"created_time":"2013-06-12T15:47:32+0000","like_count":0,"user_likes":false},"669047516445262":{"id":"669047516445262","from":{"id":"100001260645727","name":"Ngo Duy Son"},"message":"Nguyễn Tuấn Vũ: Đi làm thêm lương tháng cũng 10 man mẹ nó rồi! \nBóc lột để vơ vào túi riêng.","message_tags":[{"id":"100001754136107","name":"Nguyễn Tuấn Vũ","type":"user","offset":0,"length":14}],"can_remove":false,"created_time":"2013-06-12T15:49:53+0000","like_count":0,"user_likes":false},"669050113111669":{"id":"669050113111669","from":{"id":"100001754136107","name":"Nguyễn Tuấn Vũ"},"message":"Thanh Van: khôn gì hả bạn.đấy là trường hợp gặp may,bạn vào vai trường hợp 1 xem.bạn nghi gì\nDuy Son: đấy là lam tu 2-6 thu 7,chu nhat dc nghi.","can_remove":false,"created_time":"2013-06-12T15:57:14+0000","like_count":1,"user_likes":false},"669556849727662":{"id":"669556849727662","from":{"id":"100005877672091","name":"Xuan Tho"},"message":"con toi tu luc sang nhat toi gio ko dc lam ngay nao ca chi lam de 12 tieng ca met qua thu 7 va chu nhat cung lam","can_remove":false,"created_time":"2013-06-13T10:53:55+0000","like_count":0,"user_likes":false}},"paging":{"cursors":{"after":"NjY4OTM1MzkzMTIzMTQx","before":"NjY4OTM1MzkzMTIzMTQx"},"next":"https://graph.facebook.com/229244010425617_668928129790534/comments?limit=1&summary=1&after=NjY4OTM1MzkzMTIzMTQx"},"summary":{"order":"chronological","total_count":17}}}