{"id":"229244010425617_669033626446651","type":"photo","object_id":"533784280013504","picture":"https://fbcdn-photos-a-a.akamaihd.net/hphotos-ak-prn2/t1.0-0/970718_533784280013504_1296059405_s.jpg","link":"https://www.facebook.com/photo.php?fbid=533784280013504&set=gm.669033626446651&type=1&relevant_count=1","from":{"id":"100001458099624","name":"Kham Pha"},"message":"Các bạn có thích học tiếng Nhật bằng cách đọc truyện Doremon không? Truyện dành cho thiếu nhi nên từ ngữ cũng khá dễ hiểu, ít kanji, ngữ pháp đơn giản. Nếu các bạn thích từ nay sẽ có thêm mục này. Mỗi một lần sẽ là một tập truyện ngắn khoảng chục trang. Nhưng thay vì các admin vào giải thích các bạn sẽ comment vào dưới những gì bạn hiểu và những gì bạn không hiểu. Admin sẽ giải thích thêm nếu cần. Việc học này chủ yếu vẫn là các bạn thôi, admin chỉ giúp đỡ phần nào vì mọi người cũng đều bận cả. Nếu thích bạn có thể tự ứng cử làm admin chuyên mục này. よろしくね :)","created_time":"2013-06-12T15:13:49+0000","updated_time":"2013-06-14T09:09:45+0000","likes":{"data":{"100001113873095":{"id":"100001113873095","name":"Đào Khoa"},"100003180366829":{"id":"100003180366829","name":"Ngọc Hà"},"100001914451655":{"id":"100001914451655","name":"Ruby Nguyen"},"100001335231684":{"id":"100001335231684","name":"Takashi Mori"},"100002470650247":{"id":"100002470650247","name":"LinhLinh Chan"},"100000383155614":{"id":"100000383155614","name":"Phạm Thúc Hưng"},"100004140850631":{"id":"100004140850631","name":"Huong Trang"},"100001057467030":{"id":"100001057467030","name":"Buông Tay"},"100001995263460":{"id":"100001995263460","name":"Chibi Yuriko"},"100003669604211":{"id":"100003669604211","name":"Mặt Trời Phương Đông"},"100003325600635":{"id":"100003325600635","name":"Nguyen Hong Nhi"},"100003689850495":{"id":"100003689850495","name":"Huong Phi"},"100000183792818":{"id":"100000183792818","name":"Le Nga"},"100003286380652":{"id":"100003286380652","name":"Cuong Nguyen"},"100003102655084":{"id":"100003102655084","name":"Cô Gái Xứ Dừa"},"100002258140388":{"id":"100002258140388","name":"Kim Sữa"},"100002098748602":{"id":"100002098748602","name":"Thuần Việt"},"100004094371699":{"id":"100004094371699","name":"Hoàng Bá Phương"},"100002641238579":{"id":"100002641238579","name":"Vịt Béo"},"100000747635624":{"id":"100000747635624","name":"Nguyễn Xuân Đại"},"100005478454231":{"id":"100005478454231","name":"Maruko Chan"},"100000187129100":{"id":"100000187129100","name":"Ốc Sên Chạy"},"100003705664170":{"id":"100003705664170","name":"Sói Minnie"},"100002709038300":{"id":"100002709038300","name":"Sìu Châu"},"100001637056893":{"id":"100001637056893","name":"Nhoc Coionline"},"100004205437257":{"id":"100004205437257","name":"Nỗi Đau Xót Xa"},"100004483051243":{"id":"100004483051243","name":"Knari Nguyen"},"100000274458588":{"id":"100000274458588","name":"Min Cass"},"100000266887521":{"id":"100000266887521","name":"Hương Lê Thu"},"100004380181780":{"id":"100004380181780","name":"Be Boo"},"100003011873382":{"id":"100003011873382","name":"Hiên Nguyễn"},"100001754136107":{"id":"100001754136107","name":"Nguyễn Tuấn Vũ"},"100003152981062":{"id":"100003152981062","name":"BichLien Dinh"},"100002185080351":{"id":"100002185080351","name":"Nguyễn Xuân Bách"},"100003642678554":{"id":"100003642678554","name":"Thảo Trần"},"1171821432":{"id":"1171821432","name":"Bean Beo"},"100004608482123":{"id":"100004608482123","name":"Bé Bi"},"100004558111125":{"id":"100004558111125","name":"Toi HaDanh"},"100004458131717":{"id":"100004458131717","name":"Minh Huệ"},"100002369341715":{"id":"100002369341715","name":"Xu Li"},"100000886025497":{"id":"100000886025497","name":"Duong Bach"},"100000403151977":{"id":"100000403151977","name":"Le Anh"},"100000190481580":{"id":"100000190481580","name":"Xanh Dương"},"100001695345798":{"id":"100001695345798","name":"Tyn Aki"},"100003839307439":{"id":"100003839307439","name":"Nguyễn Thành"},"100001260645727":{"id":"100001260645727","name":"Ngo Duy Son"},"100003924638739":{"id":"100003924638739","name":"Toi La Ai"},"100000499350811":{"id":"100000499350811","name":"Nguyễn Văn Linh"},"100002816124387":{"id":"100002816124387","name":"Ngọc Nguyễn"},"100003731305416":{"id":"100003731305416","name":"Nam Nguyen"},"1146680551":{"id":"1146680551","name":"優しい なぁ"},"100001508739620":{"id":"100001508739620","name":"Lê Ngọc Hoàn"},"1824015127":{"id":"1824015127","name":"Bùi Quang Tân"},"1773169835":{"id":"1773169835","name":"Nguyễn Tuấn Hải"},"100003785055521":{"id":"100003785055521","name":"Tiểu Long Nữ"},"100000198219367":{"id":"100000198219367","name":"Chang Jiang"},"100001511299242":{"id":"100001511299242","name":"Ngọc Anh Nguyễn"},"1821970083":{"id":"1821970083","name":"Nguyễn Mạnh Cường"}},"paging":{"cursors":{"after":"MTAwMDAxMTEzODczMDk1","before":"MTAwMDAxMTEzODczMDk1"},"next":"https://graph.facebook.com/229244010425617_669033626446651/likes?limit=1&summary=1&after=MTAwMDAxMTEzODczMDk1"},"summary":{"total_count":58}},"comments":{"data":{"669034619779885":{"id":"669034619779885","from":{"id":"1693102459","name":"Châu Hoàng"},"message":"Kham Pha: anh có toàn bộ link kiểu này không ạ :D em muốn đọc lại truyện bằng tiếng Nhật :)","message_tags":[{"id":"100001458099624","name":"Kham Pha","type":"user","offset":0,"length":8}],"can_remove":false,"created_time":"2013-06-12T15:16:12+0000","like_count":2,"user_likes":false},"669035239779823":{"id":"669035239779823","from":{"id":"100001458099624","name":"Kham Pha"},"message":"có link down đấy, hay là em làm admin mục này nhé :))","can_remove":false,"created_time":"2013-06-12T15:17:57+0000","like_count":0,"user_likes":false},"669035363113144":{"id":"669035363113144","from":{"id":"100001508739620","name":"Lê Ngọc Hoàn"},"message":"Có Naruto ko a? E đang hóng phim ý ;))","can_remove":false,"created_time":"2013-06-12T15:18:19+0000","like_count":1,"user_likes":false},"669035453113135":{"id":"669035453113135","from":{"id":"100001458099624","name":"Kham Pha"},"message":"đọc cùng mọi người cho vui, đọc một mình tự kỉ đấy :D","can_remove":false,"created_time":"2013-06-12T15:18:40+0000","like_count":2,"user_likes":false},"669035683113112":{"id":"669035683113112","from":{"id":"100001508739620","name":"Lê Ngọc Hoàn"},"message":"Biết đầu có nhiều người thích Naruto như e thì sao :D","can_remove":false,"created_time":"2013-06-12T15:19:33+0000","like_count":0,"user_likes":false},"669035903113090":{"id":"669035903113090","from":{"id":"1693102459","name":"Châu Hoàng"},"message":"Kham Pha: là sao ạ :3 em chỉ đọc thôi chứ có biết phân tích ngữ pháp đâu ạ :) nếu là nhận update thôi thì oke ạ :D","message_tags":[{"id":"100001458099624","name":"Kham Pha","type":"user","offset":0,"length":8}],"can_remove":false,"created_time":"2013-06-12T15:20:02+0000","like_count":0,"user_likes":false},"669036726446341":{"id":"669036726446341","from":{"id":"100001458099624","name":"Kham Pha"},"message":"Lê Ngọc Hoàn Naruto đâu dễ đọc như Doremon, mà đã thế toàn đực rựa đọc. Nội dung thì toàn chưởng với thuật ở quái đâu, bố ai đọc lần đầu hiểu được.","message_tags":[{"id":"100001508739620","name":"Lê Ngọc Hoàn","type":"user","offset":0,"length":12}],"can_remove":false,"created_time":"2013-06-12T15:22:28+0000","like_count":2,"user_likes":false},"669037146446299":{"id":"669037146446299","from":{"id":"100001508739620","name":"Lê Ngọc Hoàn"},"message":"Nếu có sự giúp đỡ nhiệt tình của admin Kham Pha thì mọi thứ chắc sẽ dễ hiểu ;)","message_tags":[{"id":"100001458099624","name":"Kham Pha","type":"user","offset":39,"length":8}],"can_remove":false,"created_time":"2013-06-12T15:23:40+0000","like_count":1,"user_likes":false},"669037329779614":{"id":"669037329779614","from":{"id":"1693102459","name":"Châu Hoàng"},"message":"Lê Ngọc Hoàn: cái đó xem phim thích hơn mà :D bạn tìm vietsub mà xem thì cũng giống như là luyện nghe vậy đó :)","message_tags":[{"id":"100001508739620","name":"Lê Ngọc Hoàn","type":"user","offset":0,"length":12}],"can_remove":false,"created_time":"2013-06-12T15:24:13+0000","like_count":0,"user_likes":false},"669037953112885":{"id":"669037953112885","from":{"id":"100001508739620","name":"Lê Ngọc Hoàn"},"message":"T xem hết rồi, hàng tuần hóng nó ra lâu quá ;))","can_remove":false,"created_time":"2013-06-12T15:26:14+0000","like_count":0,"user_likes":false},"669038056446208":{"id":"669038056446208","from":{"id":"100001458099624","name":"Kham Pha"},"message":"thôi trò nâng bi ấy đi, Kham Pha giờ bận lắm, sắp nằm sấp rồi. Chỉ mào trò thôi. Việc cụ thể mọi người tự xử với nhau.","message_tags":[{"id":"100001458099624","name":"Kham Pha","type":"user","offset":24,"length":8}],"can_remove":false,"created_time":"2013-06-12T15:26:33+0000","like_count":0,"user_likes":false},"669038559779491":{"id":"669038559779491","from":{"id":"1693102459","name":"Châu Hoàng"},"message":"Kham Pha: ơh thế file mềm kiểu như thế này thì sao ạ :( em chưa thấy anh trả lời :(","message_tags":[{"id":"100001458099624","name":"Kham Pha","type":"user","offset":0,"length":8}],"can_remove":false,"created_time":"2013-06-12T15:27:29+0000","like_count":0,"user_likes":false},"669039259779421":{"id":"669039259779421","from":{"id":"100001458099624","name":"Kham Pha"},"message":"Link đầy đủ đây: http://www.manga-zone.org/archives/7867.html","can_remove":false,"created_time":"2013-06-12T15:29:04+0000","like_count":5,"user_likes":false},"669039559779391":{"id":"669039559779391","from":{"id":"1693102459","name":"Châu Hoàng"},"message":"Kham Pha: doumo arigatou :)","message_tags":[{"id":"100001458099624","name":"Kham Pha","type":"user","offset":0,"length":8}],"can_remove":false,"created_time":"2013-06-12T15:30:10+0000","like_count":0,"user_likes":false},"669042329779114":{"id":"669042329779114","from":{"id":"100000886025497","name":"Duong Bach"},"message":"どうもありがとうございます","can_remove":false,"created_time":"2013-06-12T15:36:18+0000","like_count":1,"user_likes":false},"669061256443888":{"id":"669061256443888","from":{"id":"100003113283930","name":"Nhung Nhinh"},"message":"mng down dc ak?, m k down dc","can_remove":false,"created_time":"2013-06-12T16:25:07+0000","like_count":0,"user_likes":false},"669233636426650":{"id":"669233636426650","from":{"id":"100003102655084","name":"Cô Gái Xứ Dừa"},"message":"uhm suki","can_remove":false,"created_time":"2013-06-13T01:21:38+0000","like_count":0,"user_likes":false},"669234336426580":{"id":"669234336426580","from":{"id":"100003102655084","name":"Cô Gái Xứ Dừa"},"message":"ad ơi sao em ko down được","can_remove":false,"created_time":"2013-06-13T01:24:19+0000","like_count":0,"user_likes":false},"669277736422240":{"id":"669277736422240","from":{"id":"100000198219367","name":"Chang Jiang"},"message":"down ở đây nhé, link của Kham Pha là link ryushare khó down lắm\n\nhttp://vnsharing.net/forum/showthread.php?t=43377","message_tags":[{"id":"100001458099624","name":"Kham Pha","type":"user","offset":25,"length":8}],"can_remove":false,"created_time":"2013-06-13T01:47:39+0000","like_count":1,"user_likes":false},"669278693088811":{"id":"669278693088811","from":{"id":"100003102655084","name":"Cô Gái Xứ Dừa"},"message":"doumo arigatougozaimasu","can_remove":false,"created_time":"2013-06-13T01:50:52+0000","like_count":0,"user_likes":false},"669278903088790":{"id":"669278903088790","from":{"id":"100000198219367","name":"Chang Jiang"},"message":"dou itashimashite ^_^","can_remove":false,"created_time":"2013-06-13T01:51:38+0000","like_count":0,"user_likes":false},"669283343088346":{"id":"669283343088346","from":{"id":"100003102655084","name":"Cô Gái Xứ Dừa"},"message":"hai","can_remove":false,"created_time":"2013-06-13T02:02:51+0000","like_count":0,"user_likes":false},"669287996421214":{"id":"669287996421214","from":{"id":"100000183792818","name":"Le Nga"},"message":"rất hữu ích, cám ơn ad Khám Phá nhé!","can_remove":false,"created_time":"2013-06-13T02:11:57+0000","like_count":1,"user_likes":false},"670084716341542":{"id":"670084716341542","from":{"id":"100001754136107","name":"Nguyễn Tuấn Vũ"},"message":"Châu Hoàng: hay e làm vụ post đi","message_tags":[{"id":"1693102459","name":"Châu Hoàng","type":"user","offset":0,"length":10}],"can_remove":false,"created_time":"2013-06-14T03:34:03+0000","like_count":0,"user_likes":false},"670173659665981":{"id":"670173659665981","from":{"id":"1693102459","name":"Châu Hoàng"},"message":"Nguyễn Tuấn Vũ: còn anh phân tích nhá :P","message_tags":[{"id":"100001754136107","name":"Nguyễn Tuấn Vũ","type":"user","offset":0,"length":14}],"can_remove":false,"created_time":"2013-06-14T09:09:45+0000","like_count":0,"user_likes":false}},"paging":{"cursors":{"after":"NjY5MDM0NjE5Nzc5ODg1","before":"NjY5MDM0NjE5Nzc5ODg1"},"next":"https://graph.facebook.com/229244010425617_669033626446651/comments?limit=1&summary=1&after=NjY5MDM0NjE5Nzc5ODg1"},"summary":{"order":"chronological","total_count":25}}}