{"id":"229244010425617_670089899674357","type":"status","from":{"id":"100004152600048","name":"Vô Diện Nhân"},"message":"cho mình hỏi chút, tháng 7 này có mem nào trong hội ta đi thi năng lực tiếc Nhật ko ? mình đăng ký hồi tháng 4 rồi, bây giờ cũng là giữa tháng 6 rồi mà vẫn chưa thấy thông báo gì về địa điểm thi hay cần chuẩn bị những gì nhỉ ? mình đăng ký lần đầu nên chưa biết","created_time":"2013-06-14T03:51:40+0000","updated_time":"2013-06-14T08:52:29+0000","likes":{"data":{"100001603388890":{"id":"100001603388890","name":"Ken Ayunpa"},"100000328742646":{"id":"100000328742646","name":"Trần Giáp"},"100001754136107":{"id":"100001754136107","name":"Nguyễn Tuấn Vũ"}},"paging":{"cursors":{"after":"MTAwMDAxNjAzMzg4ODkw","before":"MTAwMDAxNjAzMzg4ODkw"},"next":"https://graph.facebook.com/229244010425617_670089899674357/likes?limit=1&summary=1&after=MTAwMDAxNjAzMzg4ODkw"},"summary":{"total_count":3}},"comments":{"data":{"670092336340780":{"id":"670092336340780","from":{"id":"100001754136107","name":"Nguyễn Tuấn Vũ"},"message":"A đăng ký thi bên nhật ak.tầm giưa tháng 6 nó gửi 受験票 vê a ak.chăc trong tuần sau là có","can_remove":false,"created_time":"2013-06-14T04:00:59+0000","like_count":0,"user_likes":false},"670092783007402":{"id":"670092783007402","from":{"id":"100004152600048","name":"Vô Diện Nhân"},"message":"ko, mình ở VN mà, đk ở trường đh quốc gia, chưa thấy gửi gì cả","can_remove":false,"created_time":"2013-06-14T04:02:35+0000","like_count":0,"user_likes":false},"670092853007395":{"id":"670092853007395","from":{"id":"100001503971079","name":"Yuuta Nguyễn"},"message":"Ngày thi: Chủ Nhật 7/7/2013.\n\nChú ý:\n\nTrung tâm Ngoại ngữ - Trường ĐH KHXH&NV sẽ tổ chức buổi hướng dẫn lập thủ tục dự thi năng lực Nhật ngữ\n\nThời gian 17/3/2013 (Sáng Chủ nhật) - 8h00  -10h30\n\nvà hướng dẫn cách thức thi\n\nThời gian: 16/6/2013 (Sáng Chủ nhật) - 8h00 - 10h30\n\nĐịa điểm: Giảng đường C103, số 10 – 12 Đinh Tiên Hoàng, Q.1, Tp.HCM.","can_remove":false,"created_time":"2013-06-14T04:03:01+0000","like_count":2,"user_likes":false},"670093193007361":{"id":"670093193007361","from":{"id":"100000198219367","name":"Chang Jiang"},"message":"có thể giấy báo dự thi ko về đc đến nơi, nhưng đừng lo, đến hôm thi đến sớm xem danh sách phòng thi cũng đc :))\n\nmangh CMND đi là đc :))","can_remove":false,"created_time":"2013-06-14T04:04:04+0000","like_count":0,"user_likes":false},"670093633007317":{"id":"670093633007317","from":{"id":"100001754136107","name":"Nguyễn Tuấn Vũ"},"message":":))) e bị trung tâm gọi điện trước: nhớ đi thi thì cầm thêm hộ chiếu hoặc thẻ ngoại kiều.ảnh đăng ký thi nó bị lôi :(","can_remove":false,"created_time":"2013-06-14T04:06:08+0000","like_count":0,"user_likes":false},"670093823007298":{"id":"670093823007298","from":{"id":"100000198219367","name":"Chang Jiang"},"message":"thi ở nước ngoài mới thế chứ :3\n\ntận tình quá :3","can_remove":false,"created_time":"2013-06-14T04:06:54+0000","like_count":0,"user_likes":false},"670094129673934":{"id":"670094129673934","from":{"id":"100004152600048","name":"Vô Diện Nhân"},"message":"nhưng mà cái chính là t ko biết là thi ở đâu mà đến >\"< đk xong cứ im lìm chẳng ai thông báo gì cả","can_remove":false,"created_time":"2013-06-14T04:08:02+0000","like_count":0,"user_likes":false},"670094166340597":{"id":"670094166340597","from":{"id":"100004152600048","name":"Vô Diện Nhân"},"message":"t ở HN","can_remove":false,"created_time":"2013-06-14T04:08:11+0000","like_count":0,"user_likes":false},"670095839673763":{"id":"670095839673763","from":{"id":"100001754136107","name":"Nguyễn Tuấn Vũ"},"message":"Để t tìm xem sao","can_remove":false,"created_time":"2013-06-14T04:14:57+0000","like_count":0,"user_likes":false},"670096529673694":{"id":"670096529673694","from":{"id":"100000198219367","name":"Chang Jiang"},"message":"nhà A2 ĐHQG nhé, đi thẳng tắp từ cổng ĐHNN ở đường Phạm Văn Đồng vào là tới, danh sách phòng thi dán ở bảng tin tầng 1 :))","can_remove":false,"created_time":"2013-06-14T04:16:32+0000","like_count":0,"user_likes":false},"670096753007005":{"id":"670096753007005","from":{"id":"100001754136107","name":"Nguyễn Tuấn Vũ"},"message":"http://www.jasso.go.jp/eju/hall.html","can_remove":false,"created_time":"2013-06-14T04:17:47+0000","like_count":0,"user_likes":false},"670096899673657":{"id":"670096899673657","from":{"id":"100001754136107","name":"Nguyễn Tuấn Vũ"},"message":"http://www.vjcc.org.vn/","can_remove":false,"created_time":"2013-06-14T04:18:33+0000","like_count":0,"user_likes":false},"670096989673648":{"id":"670096989673648","from":{"id":"100001754136107","name":"Nguyễn Tuấn Vũ"},"message":"A Chang Jiang: thi N1 ak :)","message_tags":[{"id":"100000198219367","name":"Chang Jiang","type":"user","offset":2,"length":11}],"can_remove":false,"created_time":"2013-06-14T04:18:56+0000","like_count":0,"user_likes":false},"670097009673646":{"id":"670097009673646","from":{"id":"100000198219367","name":"Chang Jiang"},"message":"ồ lần này thi ở ngoại thương à :))","can_remove":false,"created_time":"2013-06-14T04:18:59+0000","like_count":0,"user_likes":false},"670101769673170":{"id":"670101769673170","from":{"id":"100004152600048","name":"Vô Diện Nhân"},"message":"vậy là đến đâu thi đây xD hay chờ thêm 1 tuần nữa","can_remove":false,"created_time":"2013-06-14T04:33:09+0000","like_count":0,"user_likes":false},"670144553002225":{"id":"670144553002225","from":{"id":"100001754136107","name":"Nguyễn Tuấn Vũ"},"message":"E xin lỗi .e nhầm kỳ thi :((","can_remove":false,"created_time":"2013-06-14T07:24:46+0000","like_count":0,"user_likes":false},"670144826335531":{"id":"670144826335531","from":{"id":"100001754136107","name":"Nguyễn Tuấn Vũ"},"message":"http://jlpt.jp/application/overseas_list.html","can_remove":false,"created_time":"2013-06-14T07:26:04+0000","like_count":0,"user_likes":false},"670144933002187":{"id":"670144933002187","from":{"id":"100001754136107","name":"Nguyễn Tuấn Vũ"},"message":"Chang Jiang","message_tags":[{"id":"100000198219367","name":"Chang Jiang","type":"user","offset":0,"length":11}],"can_remove":false,"created_time":"2013-06-14T07:26:29+0000","like_count":0,"user_likes":false},"670145056335508":{"id":"670145056335508","from":{"id":"100001754136107","name":"Nguyễn Tuấn Vũ"},"message":"Vo nhan dien : ごめんなさい","can_remove":false,"created_time":"2013-06-14T07:27:10+0000","like_count":0,"user_likes":false},"670169602999720":{"id":"670169602999720","from":{"id":"100000198219367","name":"Chang Jiang"},"message":"thế đúng chuẩn nhà A2 ĐHQG rồi còn j :))","can_remove":false,"created_time":"2013-06-14T08:52:29+0000","like_count":0,"user_likes":false}},"paging":{"cursors":{"after":"NjcwMDkyMzM2MzQwNzgw","before":"NjcwMDkyMzM2MzQwNzgw"},"next":"https://graph.facebook.com/229244010425617_670089899674357/comments?limit=1&summary=1&after=NjcwMDkyMzM2MzQwNzgw"},"summary":{"order":"chronological","total_count":20}}}