{"id":"229244010425617_670041293012551","type":"photo","object_id":"4331381863206","picture":"https://fbcdn-photos-h-a.akamaihd.net/hphotos-ak-frc3/t1.0-0/998878_4331381863206_62093011_s.jpg","link":"https://www.facebook.com/photo.php?fbid=4331381863206&set=gm.670041293012551&type=1&relevant_count=1","from":{"id":"1847056478","name":"Mon Béo"},"message":"Cả nhà ơi, giúp e chút ạ. Em đang cần mua 200 chiếc cặp này về vn. Có ai muốn hợp tác làm với em vụ này ko ạ","created_time":"2013-06-14T01:16:47+0000","updated_time":"2013-06-14T03:03:42+0000","likes":{"data":{"100001600730469":{"id":"100001600730469","name":"Phong Linh"},"100001802076152":{"id":"100001802076152","name":"Hoang Thanh Dong"}},"paging":{"cursors":{"after":"MTAwMDAxNjAwNzMwNDY5","before":"MTAwMDAxNjAwNzMwNDY5"},"next":"https://graph.facebook.com/229244010425617_670041293012551/likes?limit=1&summary=1&after=MTAwMDAxNjAwNzMwNDY5"},"summary":{"total_count":2}},"comments":{"data":{"670041556345858":{"id":"670041556345858","from":{"id":"100001458099624","name":"Kham Pha"},"message":"bạn tính chuyển về VN kiểu gì?","can_remove":false,"created_time":"2013-06-14T01:17:38+0000","like_count":0,"user_likes":false},"670041793012501":{"id":"670041793012501","from":{"id":"1847056478","name":"Mon Béo"},"message":"Mình có liên hệ 1 cty vận chuyển rùi, chỉ cần ng bên đó phụ trách phần mua hàng cho mình thui","can_remove":false,"created_time":"2013-06-14T01:18:38+0000","like_count":0,"user_likes":false},"670042656345748":{"id":"670042656345748","from":{"id":"100001458099624","name":"Kham Pha"},"message":"mua hàng thì đặt trên mạng đơn giản thôi, có điều là lấy gì đảm bảo về mặt tiền nong?","can_remove":false,"created_time":"2013-06-14T01:21:26+0000","like_count":0,"user_likes":false},"670043279679019":{"id":"670043279679019","from":{"id":"1847056478","name":"Mon Béo"},"message":"Kham Pha : đấy, vấn đề làm sao tin nhau đc đấy, mình làm bên UK lúc đầu cũng là người lạ, giờ thành mối quan hệ làm ăn rất tốt nè. bạn add face mình đc k  có gì chat qua đó coi sao","message_tags":[{"id":"100001458099624","name":"Kham Pha","type":"user","offset":0,"length":8}],"can_remove":false,"created_time":"2013-06-14T01:23:14+0000","like_count":0,"user_likes":false},"670043316345682":{"id":"670043316345682","from":{"id":"100005436934892","name":"Quang Quynh"},"message":"Giá 1 man6/1 chiếc (~3 tr/1 chiec) m vừa mua cho đứa cháu","can_remove":false,"created_time":"2013-06-14T01:23:21+0000","like_count":0,"user_likes":false},"670043893012291":{"id":"670043893012291","from":{"id":"100001458099624","name":"Kham Pha"},"message":"200 chiếc không phải là vấn đề tin nhau là được bạn ạ. Rủi ro quá cao. Phải có gì đảm bảo hơn là \"tin nhau\" chứ.","can_remove":false,"created_time":"2013-06-14T01:24:57+0000","like_count":1,"user_likes":false},"670044659678881":{"id":"670044659678881","from":{"id":"1847056478","name":"Mon Béo"},"message":"Cặp này bạn thấy oke ko Quang Quynh ? http://item.rakuten.co.jp/terracotta/lm54/?scid=af_pc_etc&sc2id=67889001 . sao ở đây giá rẻ vậy ? Tớ đã tìm hiểu cặp này, biết là có nhiều mức giá, nhưng mình cần mua giá rẻ nhất thôi, để làm đồng phục cho học sinh ở vietna","message_tags":[{"id":"100005436934892","name":"Quang Quynh","type":"user","offset":24,"length":11}],"can_remove":false,"created_time":"2013-06-14T01:26:32+0000","like_count":0,"user_likes":false},"670047683011912":{"id":"670047683011912","from":{"id":"100001458099624","name":"Kham Pha"},"message":"rẻ gấp 10 so với thông thường,??? trên trang đó ghi vậy.","can_remove":false,"created_time":"2013-06-14T01:36:43+0000","like_count":0,"user_likes":false},"670048143011866":{"id":"670048143011866","from":{"id":"1847056478","name":"Mon Béo"},"message":"Kham Pha : ừa, ko biết chất lượng như nào, làm đồng phục học sinh nên ko thể chọn giá quá cao được bạn ạ . Vé máy bay khứ hồi đi Nhật là bnhiu hả bạn ?","message_tags":[{"id":"100001458099624","name":"Kham Pha","type":"user","offset":0,"length":8}],"can_remove":false,"created_time":"2013-06-14T01:38:19+0000","like_count":0,"user_likes":false},"670048239678523":{"id":"670048239678523","from":{"id":"100001458099624","name":"Kham Pha"},"message":"tầm 6,5 man.","can_remove":false,"created_time":"2013-06-14T01:38:55+0000","like_count":0,"user_likes":false},"670048563011824":{"id":"670048563011824","from":{"id":"1847056478","name":"Mon Béo"},"message":"Kham Pha : quy đổi tiền việt giúp mình với :((","message_tags":[{"id":"100001458099624","name":"Kham Pha","type":"user","offset":0,"length":8}],"can_remove":false,"created_time":"2013-06-14T01:39:52+0000","like_count":0,"user_likes":false},"670048593011821":{"id":"670048593011821","from":{"id":"100005436934892","name":"Quang Quynh"},"message":"Loại m hơi khác, cg nh loại và clieu bạn ạ, loại của bạn m nghĩ ok. M vc 500¥/1kg đg biển","can_remove":false,"created_time":"2013-06-14T01:40:01+0000","like_count":0,"user_likes":false},"670048623011818":{"id":"670048623011818","from":{"id":"100001458099624","name":"Kham Pha"},"message":"13 triệu","can_remove":false,"created_time":"2013-06-14T01:40:10+0000","like_count":0,"user_likes":false},"670048816345132":{"id":"670048816345132","from":{"id":"1847056478","name":"Mon Béo"},"message":"Quang Quynh : bạn add face mình để chat coi sao với nhé, mình ko add friend đc :(","message_tags":[{"id":"100005436934892","name":"Quang Quynh","type":"user","offset":0,"length":11}],"can_remove":false,"created_time":"2013-06-14T01:41:00+0000","like_count":0,"user_likes":false},"670049533011727":{"id":"670049533011727","from":{"id":"1847056478","name":"Mon Béo"},"message":"Kham Pha : ừa, giá đó cũng oke đc, có khi phải bay qua đó tự mua hàng :(  . Bạn có nhận làm phiên dịch k ?","message_tags":[{"id":"100001458099624","name":"Kham Pha","type":"user","offset":0,"length":8}],"can_remove":false,"created_time":"2013-06-14T01:43:08+0000","like_count":0,"user_likes":false},"670049579678389":{"id":"670049579678389","from":{"id":"1847056478","name":"Mon Béo"},"message":"Quang Quynh : add yahoo tớ : queenbee89vn đi nàng ơi","message_tags":[{"id":"100005436934892","name":"Quang Quynh","type":"user","offset":0,"length":11}],"can_remove":false,"created_time":"2013-06-14T01:43:30+0000","like_count":0,"user_likes":false},"670050273011653":{"id":"670050273011653","from":{"id":"100005436934892","name":"Quang Quynh"},"message":"Inbox m nhé, m cg ko add đc bạn ??!!","can_remove":false,"created_time":"2013-06-14T01:45:19+0000","like_count":0,"user_likes":false},"670050693011611":{"id":"670050693011611","from":{"id":"1847056478","name":"Mon Béo"},"message":"Quang Quynh : bạn add yahoo tớ đi : queenbee89vn hoặc skype : vananh.online nhé","message_tags":[{"id":"100005436934892","name":"Quang Quynh","type":"user","offset":0,"length":11}],"can_remove":false,"created_time":"2013-06-14T01:46:38+0000","like_count":0,"user_likes":false},"670050773011603":{"id":"670050773011603","from":{"id":"100001458099624","name":"Kham Pha"},"message":"Inbox  bạn rồi ó thấy bạn trả lời gì đâu?","can_remove":false,"created_time":"2013-06-14T01:46:57+0000","like_count":0,"user_likes":false},"670050826344931":{"id":"670050826344931","from":{"id":"100001754136107","name":"Nguyễn Tuấn Vũ"},"message":"Cái này ở rakuten hình như là đấu giá nữa mà","can_remove":false,"created_time":"2013-06-14T01:47:13+0000","like_count":1,"user_likes":false},"670050969678250":{"id":"670050969678250","from":{"id":"100005436934892","name":"Quang Quynh"},"message":"Có thấy tin j đâu b ơi","can_remove":false,"created_time":"2013-06-14T01:47:42+0000","like_count":0,"user_likes":false},"670051193011561":{"id":"670051193011561","from":{"id":"1847056478","name":"Mon Béo"},"message":"Kham Pha : ko thấy gì luôn bạn ơi, bạn có yahoo hay skype thì add mình với  : queenbee89vn hoặc skype : vananh.online nhé","message_tags":[{"id":"100001458099624","name":"Kham Pha","type":"user","offset":0,"length":8}],"can_remove":false,"created_time":"2013-06-14T01:48:15+0000","like_count":0,"user_likes":false},"670051463011534":{"id":"670051463011534","from":{"id":"100005436934892","name":"Quang Quynh"},"message":"Trưa m add yahoo nhé, trg gio làm m ko vào yahoo đc","can_remove":false,"created_time":"2013-06-14T01:49:14+0000","like_count":0,"user_likes":false},"670051483011532":{"id":"670051483011532","from":{"id":"1847056478","name":"Mon Béo"},"message":"Quang Quynh : bạn cho nick yahoo hoặc skype đi, mình ko inbox đc và cũng ko thấy inbox của bạn nào cả :((","message_tags":[{"id":"100005436934892","name":"Quang Quynh","type":"user","offset":0,"length":11}],"can_remove":false,"created_time":"2013-06-14T01:49:16+0000","like_count":0,"user_likes":false},"670051516344862":{"id":"670051516344862","from":{"id":"1847056478","name":"Mon Béo"},"message":"oke bạn, ts bạn trc nhé","can_remove":false,"created_time":"2013-06-14T01:49:30+0000","like_count":0,"user_likes":false},"670051873011493":{"id":"670051873011493","from":{"id":"1847056478","name":"Mon Béo"},"message":"Nguyễn Tuấn Vũ: bảo sao mình thấy giá rẻ vậy :)","can_remove":false,"created_time":"2013-06-14T01:50:49+0000","like_count":0,"user_likes":false},"670052953011385":{"id":"670052953011385","from":{"id":"100001458099624","name":"Kham Pha"},"message":"nhưng sp này ko phải đấu giá","can_remove":false,"created_time":"2013-06-14T01:54:24+0000","like_count":0,"user_likes":false},"670063356343678":{"id":"670063356343678","from":{"id":"100002508122689","name":"Vũ Mạnh Tuấn"},"message":"em sợ mang cái cặp này về vn sẽ ko nhiều người mua vì nó ... đắt :)","can_remove":false,"created_time":"2013-06-14T02:23:08+0000","like_count":0,"user_likes":false},"670075013009179":{"id":"670075013009179","from":{"id":"1847056478","name":"Mon Béo"},"message":"Vũ Mạnh Tuấn : chủ đầu tư của mình cũng biết nó đắt mà, a ý cũng đã cầm cái cặp đó ở Nhật rùi, nhưng vẫn muốn làm đồng phục cho trường","message_tags":[{"id":"100002508122689","name":"Vũ Mạnh Tuấn","type":"user","offset":0,"length":12}],"can_remove":false,"created_time":"2013-06-14T03:00:25+0000","like_count":0,"user_likes":false},"670076003009080":{"id":"670076003009080","from":{"id":"100002508122689","name":"Vũ Mạnh Tuấn"},"message":"vâng nếu mà đã có chủ đầu tư rồi thì ko lo nữa :3 chứ nếu nhập về bán thông thường chắc phải cần 1 chiến lược dài đấy ạ","can_remove":false,"created_time":"2013-06-14T03:03:42+0000","like_count":0,"user_likes":false}},"paging":{"cursors":{"after":"NjcwMDQxNTU2MzQ1ODU4","before":"NjcwMDQxNTU2MzQ1ODU4"},"next":"https://graph.facebook.com/229244010425617_670041293012551/comments?limit=1&summary=1&after=NjcwMDQxNTU2MzQ1ODU4"},"summary":{"order":"chronological","total_count":30}}}