{"id":"229244010425617_670488389634508","type":"status","from":{"id":"100001754136107","name":"Nguyễn Tuấn Vũ"},"message":"Mọi người cho e hỏi: mua ở Kakaku.com và amazon.co.jp thì khác nhau ở chỗ nào?","created_time":"2013-06-15T00:03:33+0000","updated_time":"2013-06-15T01:08:10+0000","likes":{"data":{"100002835112710":{"id":"100002835112710","name":"Đỗ Nam Việt"},"100001458099624":{"id":"100001458099624","name":"Kham Pha"},"100001754136107":{"id":"100001754136107","name":"Nguyễn Tuấn Vũ"}},"paging":{"cursors":{"after":"MTAwMDAyODM1MTEyNzEw","before":"MTAwMDAyODM1MTEyNzEw"},"next":"https://graph.facebook.com/229244010425617_670488389634508/likes?limit=1&summary=1&after=MTAwMDAyODM1MTEyNzEw"},"summary":{"total_count":3}},"comments":{"data":{"670495139633833":{"id":"670495139633833","from":{"id":"100001458099624","name":"Kham Pha"},"message":"Kakaku ko phải trang mua hàng, chỉ là trang so sánh giá thôi.","can_remove":false,"created_time":"2013-06-15T00:28:15+0000","like_count":0,"user_likes":false},"670496032967077":{"id":"670496032967077","from":{"id":"100001754136107","name":"Nguyễn Tuấn Vũ"},"message":"Kham Pha: vao trong mua đc a ak.nhưng e đang thắc mắc ko biết giá cả vs chất luong san pham","message_tags":[{"id":"100001458099624","name":"Kham Pha","type":"user","offset":0,"length":8}],"can_remove":false,"created_time":"2013-06-15T00:29:59+0000","like_count":0,"user_likes":false},"670497419633605":{"id":"670497419633605","from":{"id":"100001458099624","name":"Kham Pha"},"message":"Trang mua là trang của hãng, ko phải của kakaku, kakaku ko có sản phẩm để bán.","can_remove":false,"created_time":"2013-06-15T00:32:55+0000","like_count":0,"user_likes":false},"670497866300227":{"id":"670497866300227","from":{"id":"100001754136107","name":"Nguyễn Tuấn Vũ"},"message":"Thế sản phẩm đều là hàng mới chưa bóc vỏ đúng k a","can_remove":false,"created_time":"2013-06-15T00:34:31+0000","like_count":0,"user_likes":false},"670502729633074":{"id":"670502729633074","from":{"id":"100001458099624","name":"Kham Pha"},"message":"Dĩ nhiên nếu em mua hàng mới. Sao em lại nghi ngờ điều ấy? Nếu là hàng cũ người ta sẽ ghi hàng cũ chứ ko có chuyện lừa đảo đâu. Nhật làm ăn minh bạch lắm.","can_remove":false,"created_time":"2013-06-15T00:49:18+0000","like_count":0,"user_likes":false},"670504852966195":{"id":"670504852966195","from":{"id":"100001754136107","name":"Nguyễn Tuấn Vũ"},"message":"E vào mấy gian hàng,thấy ko có bình luận vs đánh giá gì cả.","can_remove":false,"created_time":"2013-06-15T00:53:25+0000","like_count":0,"user_likes":false},"670504959632851":{"id":"670504959632851","from":{"id":"100001754136107","name":"Nguyễn Tuấn Vũ"},"message":"http://s.kakaku.com/item/K0000384770/#tab","can_remove":false,"created_time":"2013-06-15T00:54:09+0000","like_count":0,"user_likes":false},"670506902965990":{"id":"670506902965990","from":{"id":"100001754136107","name":"Nguyễn Tuấn Vũ"},"message":"A Kham Pha: すすめe 1 con may tinh ban: vua xem dc tv nhat vua co chuc nang  như pc bàn vs .","message_tags":[{"id":"100001458099624","name":"Kham Pha","type":"user","offset":2,"length":8}],"can_remove":false,"created_time":"2013-06-15T00:59:53+0000","like_count":0,"user_likes":false},"670508319632515":{"id":"670508319632515","from":{"id":"100001458099624","name":"Kham Pha"},"message":"Lúc khác, giờ anh đang ở trên trường chờ tới lượt phát biểu. Đêm qua phải chuẩn bị ngủ đc có 3 tiếng :(","can_remove":false,"created_time":"2013-06-15T01:03:16+0000","like_count":1,"user_likes":false},"670509512965729":{"id":"670509512965729","from":{"id":"100001754136107","name":"Nguyễn Tuấn Vũ"},"message":"Ok a","can_remove":false,"created_time":"2013-06-15T01:08:10+0000","like_count":0,"user_likes":false}},"paging":{"cursors":{"after":"NjcwNDk1MTM5NjMzODMz","before":"NjcwNDk1MTM5NjMzODMz"},"next":"https://graph.facebook.com/229244010425617_670488389634508/comments?limit=1&summary=1&after=NjcwNDk1MTM5NjMzODMz"},"summary":{"order":"chronological","total_count":10}}}