{"id":"229244010425617_670576916292322","type":"status","from":{"id":"100001295728224","name":"Nhím Sumo"},"message":"Năm nay em lên 12...Hiện nơi em ở không có trung tâm Nhật ngữ...em tính năm sau học đại học ở Hà Nội 1 năm, sẵn học tiếng Nhật ở trung tâm luôn...vậy, lúc đó em mới bắt đầu thi vào đại học ở Nhật được không ạ?","created_time":"2013-06-15T04:36:18+0000","updated_time":"2013-06-15T15:27:51+0000","likes":{"data":{"100001754136107":{"id":"100001754136107","name":"Nguyễn Tuấn Vũ"}},"paging":{"cursors":{"after":"MTAwMDAxNzU0MTM2MTA3","before":"MTAwMDAxNzU0MTM2MTA3"}},"summary":{"total_count":1}},"comments":{"data":{"670579302958750":{"id":"670579302958750","from":{"id":"100001458099624","name":"Kham Pha"},"message":"em định thi vào đại học ở Nhật ntn?","can_remove":false,"created_time":"2013-06-15T04:46:18+0000","like_count":0,"user_likes":false},"670579579625389":{"id":"670579579625389","from":{"id":"100001295728224","name":"Nhím Sumo"},"message":"e tính theo ngành hoá học đó a..:)","can_remove":false,"created_time":"2013-06-15T04:47:34+0000","like_count":0,"user_likes":false},"670580642958616":{"id":"670580642958616","from":{"id":"100001458099624","name":"Kham Pha"},"message":"nói là được thì cũng được, nhưng em kể cả khi biết tiếng Nhật, em có biết cách đi ntn ko?","can_remove":false,"created_time":"2013-06-15T04:51:39+0000","like_count":0,"user_likes":false},"670581846291829":{"id":"670581846291829","from":{"id":"100001295728224","name":"Nhím Sumo"},"message":"có thể là xin học bổng, có thể là tự bỏ tiền ra a..:)","can_remove":false,"created_time":"2013-06-15T04:56:39+0000","like_count":0,"user_likes":false},"670590776290936":{"id":"670590776290936","from":{"id":"100000133572534","name":"Hong Nguyen"},"message":"Nhím Sumo nếu em muốn biết thông tin đi du hoc có thể liên hên chỗ này đã có kinh nghiệm đi du học và đang làm tư vấn du học cho 1 trường bên nhật. Kim Anh Huynh Thi đây là facebook của bạn đó.","message_tags":[{"id":"100000043982920","name":"Kim Anh Huynh Thi","type":"user","offset":148,"length":17}],"can_remove":false,"created_time":"2013-06-15T05:19:32+0000","like_count":0,"user_likes":false},"670591016290912":{"id":"670591016290912","from":{"id":"100001295728224","name":"Nhím Sumo"},"message":"ý em hỏi nếu đăng học đại học 1 năm thì có thể đăng kí đi du học đại học ở Nhật được không ấy ạ","can_remove":false,"created_time":"2013-06-15T05:20:35+0000","like_count":0,"user_likes":false},"670595969623750":{"id":"670595969623750","from":{"id":"100004241019333","name":"Linda Evans"},"message":"học chuyển tiếp đc bạn nhớ :3","can_remove":false,"created_time":"2013-06-15T05:41:16+0000","like_count":0,"user_likes":false},"670598719623475":{"id":"670598719623475","from":{"id":"100001295728224","name":"Nhím Sumo"},"message":"Linda Evans chị có thể nói rõ hơn được không ạh? :D ... nghĩa là không cần thi đại học ở Nhật lại hay sao chị..:D","message_tags":[{"id":"100004241019333","name":"Linda Evans","type":"user","offset":0,"length":11}],"can_remove":false,"created_time":"2013-06-15T05:51:33+0000","like_count":0,"user_likes":false},"670608012955879":{"id":"670608012955879","from":{"id":"100001458099624","name":"Kham Pha"},"message":"Em học ở Vn bao năm thì cũng đâu liên quan gì đến thi đại học ở Nhật.","can_remove":false,"created_time":"2013-06-15T06:29:12+0000","like_count":1,"user_likes":false},"670611702955510":{"id":"670611702955510","from":{"id":"100004241019333","name":"Linda Evans"},"message":"anh kia nói đúng đấy bạn ạ :|","can_remove":false,"created_time":"2013-06-15T06:46:30+0000","like_count":0,"user_likes":false},"670611959622151":{"id":"670611959622151","from":{"id":"100001295728224","name":"Nhím Sumo"},"message":"vậy học chuyển tiếp nghĩa là sao ạ...?","can_remove":false,"created_time":"2013-06-15T06:47:55+0000","like_count":0,"user_likes":false},"670612536288760":{"id":"670612536288760","from":{"id":"100004241019333","name":"Linda Evans"},"message":"bạn có thể đến trung tâm tu vấn du học để đc cung cấp thêm thông tin, chứ hỏi ở đây mỗi ng 1 ý kiến đâm loạn :))\ncái chuyển tiếp kia là bạn mình đang làm hồ sơ nên mình có biết diện đi du học ấy. vậy thôi.","can_remove":false,"created_time":"2013-06-15T06:51:05+0000","like_count":1,"user_likes":false},"670612659622081":{"id":"670612659622081","from":{"id":"100001295728224","name":"Nhím Sumo"},"message":"Cảm ơn chị nhé..:)","can_remove":false,"created_time":"2013-06-15T06:51:59+0000","like_count":0,"user_likes":false},"670612719622075":{"id":"670612719622075","from":{"id":"100004241019333","name":"Linda Evans"},"message":"doitashimashite :)","can_remove":false,"created_time":"2013-06-15T06:52:24+0000","like_count":1,"user_likes":false},"670613339622013":{"id":"670613339622013","from":{"id":"100001295728224","name":"Nhím Sumo"},"message":"à wên...:v\nCảm ơn mọi người..:)","can_remove":false,"created_time":"2013-06-15T06:55:56+0000","like_count":0,"user_likes":false},"670672892949391":{"id":"670672892949391","from":{"id":"100004441680220","name":"Đông Phương Póc"},"message":"mình nghĩ bạn có 2 cách lựa chọn: 1 là học tiếng Nhật theo dạng đào tào để thi ĐH Nhật bên đây rồi xin học bổng, hoặc thi vào các trường ĐH bên Nhật. 2 là học tiếng Nhật dừng ở mức N4 bên VN và qua Nhật học tiếp tiếng Nhật rồi mới lựa chọn trường ĐH ở Nhật sau. :v tùy theo điều kiện gia đình mà bạn chọn lựa cách hợp cho mình","can_remove":false,"created_time":"2013-06-15T10:58:31+0000","like_count":1,"user_likes":false},"670673539615993":{"id":"670673539615993","from":{"id":"100001754136107","name":"Nguyễn Tuấn Vũ"},"message":"Mọi ng cũng có thể xin học bongh bằng tiếng anh ma.sang bên nhật học băng tiếng anh cug đc mad","can_remove":false,"created_time":"2013-06-15T10:59:59+0000","like_count":1,"user_likes":false},"670691196280894":{"id":"670691196280894","from":{"id":"100001295728224","name":"Nhím Sumo"},"message":"@Póc Thăng Chức Ký: thks ạ :)\n@Nguyễn Tuấn Vũ: do e học theo hệ tự nhiên nên bỏ môn anh luôn rồi..:v","can_remove":false,"created_time":"2013-06-15T12:02:03+0000","like_count":0,"user_likes":false},"670769539606393":{"id":"670769539606393","from":{"id":"100000200742771","name":"Nấm Ngoan Hiền"},"message":"Mình nghĩ bạn xin đc học bổng thì cần phải giỏi tiếng và cố gắng rất nhiều, còn tự đi thì dễ hơn rồi. Bạn học chắc bên mình sag đó sẽ nắm bắt, theo kịp chương trình học dễ dàng hơn","can_remove":false,"created_time":"2013-06-15T15:27:51+0000","like_count":1,"user_likes":false}},"paging":{"cursors":{"after":"NjcwNTc5MzAyOTU4NzUw","before":"NjcwNTc5MzAyOTU4NzUw"},"next":"https://graph.facebook.com/229244010425617_670576916292322/comments?limit=1&summary=1&after=NjcwNTc5MzAyOTU4NzUw"},"summary":{"order":"chronological","total_count":19}}}