{"id":"229244010425617_670641266285887","type":"status","from":{"id":"100001914451655","name":"Ruby Nguyen"},"message":"may ban oi cho minh hoi di du hoc nhat do , sang day ben truong co sap xep cv cho minh lam them ko. co du song kovay","created_time":"2013-06-15T08:51:21+0000","updated_time":"2013-06-15T09:28:31+0000","likes":{"data":{"100005812149640":{"id":"100005812149640","name":"Yuki Chan"}},"paging":{"cursors":{"after":"MTAwMDA1ODEyMTQ5NjQw","before":"MTAwMDA1ODEyMTQ5NjQw"}},"summary":{"total_count":1}},"comments":{"data":{"670642176285796":{"id":"670642176285796","from":{"id":"100001695345798","name":"Tyn Aki"},"message":"Nguyễn Tuấn Vũ","message_tags":[{"id":"100001754136107","name":"Nguyễn Tuấn Vũ","type":"user","offset":0,"length":14}],"can_remove":false,"created_time":"2013-06-15T08:55:33+0000","like_count":0,"user_likes":false},"670642372952443":{"id":"670642372952443","from":{"id":"100001695345798","name":"Tyn Aki"},"message":"theo tình hình gần đây thì trước khi sang các công ty đều hứa tìm việc, nhưng sang thì tình trạng là \"đem con bỏ chợ\", bạn nên tham khảo công ty du học kĩ","can_remove":false,"created_time":"2013-06-15T08:56:31+0000","like_count":0,"user_likes":false},"670642482952432":{"id":"670642482952432","from":{"id":"100001914451655","name":"Ruby Nguyen"},"message":"uh cam on ban","can_remove":false,"created_time":"2013-06-15T08:56:52+0000","like_count":0,"user_likes":false},"670642506285763":{"id":"670642506285763","from":{"id":"100001914451655","name":"Ruby Nguyen"},"message":"minh cung dang tim hieu thoi","can_remove":false,"created_time":"2013-06-15T08:57:00+0000","like_count":0,"user_likes":false},"670642552952425":{"id":"670642552952425","from":{"id":"100001914451655","name":"Ruby Nguyen"},"message":"ban dang o nhat hay j","can_remove":false,"created_time":"2013-06-15T08:57:25+0000","like_count":0,"user_likes":false},"670646526285361":{"id":"670646526285361","from":{"id":"100001416272263","name":"Mai PB"},"message":"Em có thể tự xin việc dc sau 1-2 tháng nếu em chịu khó học, không ở khu vực nhiều người Việt. Đủ cho em sống 50-70% nhu cầu.","can_remove":false,"created_time":"2013-06-15T09:15:00+0000","like_count":0,"user_likes":false},"670647052951975":{"id":"670647052951975","from":{"id":"100001754136107","name":"Nguyễn Tuấn Vũ"},"message":"Ban sang chô nào cung vậy.xác định rõ tư tưởng tự mình kiêm việc  trước đã.tuỳ trường bạn ak.minh o fukuoka thi may ng học dưới đc giới thiệu 1 việc.","can_remove":false,"created_time":"2013-06-15T09:17:44+0000","like_count":0,"user_likes":false},"670647466285267":{"id":"670647466285267","from":{"id":"100001914451655","name":"Ruby Nguyen"},"message":"uh, thi nghe noi luon cung duoc khoang 30tr 1 thang ban","can_remove":false,"created_time":"2013-06-15T09:19:57+0000","like_count":0,"user_likes":false},"670649736285040":{"id":"670649736285040","from":{"id":"100001754136107","name":"Nguyễn Tuấn Vũ"},"message":"Bạn sang tokyo ak.cũng tuỳ việc và sự chênh lệch của tiền yên và nhật nữa.","can_remove":false,"created_time":"2013-06-15T09:28:31+0000","like_count":0,"user_likes":false}},"paging":{"cursors":{"after":"NjcwNjQyMTc2Mjg1Nzk2","before":"NjcwNjQyMTc2Mjg1Nzk2"},"next":"https://graph.facebook.com/229244010425617_670641266285887/comments?limit=1&summary=1&after=NjcwNjQyMTc2Mjg1Nzk2"},"summary":{"order":"chronological","total_count":9}}}