{"id":"229244010425617_670745029608844","type":"status","from":{"id":"100003684672515","name":"Le Duong"},"message":"chào các anh các chị.\ne là sv vừa ra trường em học ngành kỹ thuật điện, e muốn đi xklđ sang nhật để làm việc và học hỏi kinh nghiệm làm việc của người nhật, nhưng e ko biết công ty nào là tin tưởng. Mong các a,c ai biết tư vấn giúp e. thank's a.c","created_time":"2013-06-15T14:22:16+0000","updated_time":"2013-06-25T15:34:00+0000","likes":{"data":{"100003549909353":{"id":"100003549909353","name":"Thang Nguyen Van"},"100003090938731":{"id":"100003090938731","name":"Giang Nguyen"},"100000200742771":{"id":"100000200742771","name":"Nấm Ngoan Hiền"}},"paging":{"cursors":{"after":"MTAwMDAzNTQ5OTA5MzUz","before":"MTAwMDAzNTQ5OTA5MzUz"},"next":"https://graph.facebook.com/229244010425617_670745029608844/likes?limit=1&summary=1&after=MTAwMDAzNTQ5OTA5MzUz"},"summary":{"total_count":3}},"comments":{"data":{"670752716274742":{"id":"670752716274742","from":{"id":"100000200742771","name":"Nấm Ngoan Hiền"},"message":"Bạn ở Hn ak? mình biết mấy cty đi xklđ rất uy tín. co gì bạn liên lạc theo số 0915964259 để đc tư vấn trực tiếp nhé. Cô ý tên là Hồng, rất nhiệt tình","can_remove":false,"created_time":"2013-06-15T14:42:31+0000","like_count":0,"user_likes":false},"670753509607996":{"id":"670753509607996","from":{"id":"100003684672515","name":"Le Duong"},"message":"vâng e o hà nội c ạ","can_remove":false,"created_time":"2013-06-15T14:45:09+0000","like_count":0,"user_likes":false},"670753576274656":{"id":"670753576274656","from":{"id":"100003684672515","name":"Le Duong"},"message":"tên công ty la gj chj nhỉ?","can_remove":false,"created_time":"2013-06-15T14:45:22+0000","like_count":0,"user_likes":false},"670753746274639":{"id":"670753746274639","from":{"id":"100000200742771","name":"Nấm Ngoan Hiền"},"message":"cty dầu khí em nhé","can_remove":false,"created_time":"2013-06-15T14:45:48+0000","like_count":0,"user_likes":false},"670754189607928":{"id":"670754189607928","from":{"id":"100003684672515","name":"Le Duong"},"message":"vậy đi học ở đó như tn c ở đó có phải học nguồn ko c?","can_remove":false,"created_time":"2013-06-15T14:47:02+0000","like_count":0,"user_likes":false},"670755029607844":{"id":"670755029607844","from":{"id":"100000200742771","name":"Nấm Ngoan Hiền"},"message":"C cũng k rõ, vì bạn c đi mà. ở đấy có chỗ ăn ngủ học tập đấy. em cứ liên hệ vs sđt c cho nhé, k phải môi giới đâu ytâm nhé","can_remove":false,"created_time":"2013-06-15T14:49:39+0000","like_count":0,"user_likes":false},"670755509607796":{"id":"670755509607796","from":{"id":"100003684672515","name":"Le Duong"},"message":"vâng thank's c.","can_remove":false,"created_time":"2013-06-15T14:51:00+0000","like_count":1,"user_likes":false},"670757182940962":{"id":"670757182940962","from":{"id":"100000200742771","name":"Nấm Ngoan Hiền"},"message":"Chúc e tìm đc cty ưng ý nhé :)","can_remove":false,"created_time":"2013-06-15T14:55:19+0000","like_count":1,"user_likes":false},"670762769607070":{"id":"670762769607070","from":{"id":"100001683443068","name":"Dương Tươi"},"message":"mình đang dậy tiếng nhật tại trung tâm xklđ, nếu bạn quan tâm thì nhắn tin vào số này nhé. 01667597467 Le Duong","message_tags":[{"id":"100003684672515","name":"Le Duong","type":"user","offset":103,"length":8}],"can_remove":false,"created_time":"2013-06-15T15:10:36+0000","like_count":0,"user_likes":false},"670763672940313":{"id":"670763672940313","from":{"id":"100003684672515","name":"Le Duong"},"message":"c dậy ở trung tâm nào vậy?","can_remove":false,"created_time":"2013-06-15T15:13:01+0000","like_count":0,"user_likes":false},"670764246273589":{"id":"670764246273589","from":{"id":"100003684672515","name":"Le Duong"},"message":"địa chỉ ở chỗ nào vậy c","can_remove":false,"created_time":"2013-06-15T15:14:33+0000","like_count":0,"user_likes":false},"670764436273570":{"id":"670764436273570","from":{"id":"100003684672515","name":"Le Duong"},"message":"mà ở trung tâm c có phải đi học nguồn ko c?","can_remove":false,"created_time":"2013-06-15T15:15:06+0000","like_count":0,"user_likes":false},"670764699606877":{"id":"670764699606877","from":{"id":"100001683443068","name":"Dương Tươi"},"message":"bạn học tiếng nhật chưa ah?","can_remove":false,"created_time":"2013-06-15T15:15:47+0000","like_count":0,"user_likes":false},"670764729606874":{"id":"670764729606874","from":{"id":"100000263658802","name":"Nguyễn Đức"},"message":"mình cũng như bạn Dương, đang xem xét tình hình cty nào để đi, không biết là nên du học lên thạc sỹ hay đi làm luôn nữa ?đang phân vân, mọi người tư vấn giúp mình với :)","can_remove":false,"created_time":"2013-06-15T15:15:52+0000","like_count":0,"user_likes":false},"670764839606863":{"id":"670764839606863","from":{"id":"100003684672515","name":"Le Duong"},"message":"e","can_remove":false,"created_time":"2013-06-15T15:16:14+0000","like_count":0,"user_likes":false},"670765116273502":{"id":"670765116273502","from":{"id":"100003684672515","name":"Le Duong"},"message":"e cũng học được 1 it rùi ạ?","can_remove":false,"created_time":"2013-06-15T15:16:49+0000","like_count":0,"user_likes":false},"670765309606816":{"id":"670765309606816","from":{"id":"100003684672515","name":"Le Duong"},"message":"liệu có phải đi hoc nguồn ko chị?","can_remove":false,"created_time":"2013-06-15T15:17:20+0000","like_count":0,"user_likes":false},"670765502940130":{"id":"670765502940130","from":{"id":"100001683443068","name":"Dương Tươi"},"message":"mình chưa hiểu ý bạn, đi học nguồn là như nào ah?","can_remove":false,"created_time":"2013-06-15T15:17:45+0000","like_count":0,"user_likes":false},"670765812940099":{"id":"670765812940099","from":{"id":"100003684672515","name":"Le Duong"},"message":"thế ở chỗ c học thì như thế nào ạ?","can_remove":false,"created_time":"2013-06-15T15:18:41+0000","like_count":0,"user_likes":false},"670766216273392":{"id":"670766216273392","from":{"id":"100003684672515","name":"Le Duong"},"message":"nếu mà đi xklđ thì truc tiep người nhât sang tuyển, nếu trúng tuyển thì đi học tiêng ha c?","can_remove":false,"created_time":"2013-06-15T15:19:51+0000","like_count":0,"user_likes":false},"670767006273313":{"id":"670767006273313","from":{"id":"100001683443068","name":"Dương Tươi"},"message":"đúng rồi, người nhật sang tuyển trực tiếp và trúng thì bạn sẽ đi, nhưng bạn sẽ học tiếng nhật trước, trung tâm có chỗ ăn ở bạn ah","can_remove":false,"created_time":"2013-06-15T15:22:07+0000","like_count":0,"user_likes":false},"670767152939965":{"id":"670767152939965","from":{"id":"100003684672515","name":"Le Duong"},"message":"vậy ạ.","can_remove":false,"created_time":"2013-06-15T15:22:35+0000","like_count":0,"user_likes":false},"670767589606588":{"id":"670767589606588","from":{"id":"100001683443068","name":"Dương Tươi"},"message":"Nguyễn Đức bạn học tiếng Nhật chưa ah,bạn có thể đi theo kiểu vừa học vừa làm vì bạn có trình độ văn hóa bậc đại học rồi nên sẽ dễ hơn.","message_tags":[{"id":"100000263658802","name":"Nguyễn Đức","type":"user","offset":0,"length":10}],"can_remove":false,"created_time":"2013-06-15T15:23:41+0000","like_count":0,"user_likes":false},"670767742939906":{"id":"670767742939906","from":{"id":"100003684672515","name":"Le Duong"},"message":"bắt buộc phải vậy ạ, e tưởng mình đế tuyển nếu được thì mình mới phải đi học chứ?","can_remove":false,"created_time":"2013-06-15T15:24:02+0000","like_count":0,"user_likes":false},"670767996273214":{"id":"670767996273214","from":{"id":"100003684672515","name":"Le Duong"},"message":"trước e cũng từng học tới bài 6 rùi c ạ?","can_remove":false,"created_time":"2013-06-15T15:24:42+0000","like_count":0,"user_likes":false},"670769179606429":{"id":"670769179606429","from":{"id":"100003684672515","name":"Le Duong"},"message":"e tuong trung tuyển thì phải hoc may thang tieng chứ","can_remove":false,"created_time":"2013-06-15T15:27:02+0000","like_count":0,"user_likes":false},"670770349606312":{"id":"670770349606312","from":{"id":"100000200742771","name":"Nấm Ngoan Hiền"},"message":"Phải học trc rồi mới đi thi tuyển mà e","can_remove":false,"created_time":"2013-06-15T15:29:43+0000","like_count":0,"user_likes":false},"670770382939642":{"id":"670770382939642","from":{"id":"100001683443068","name":"Dương Tươi"},"message":"điều này mình ko roc lắm, nhưng khi bạn đã trúng tuyển nghĩa là bạn sẽ được đi, thì việc học tiếng thêm 1 thời gian ko phải là vấn đề nữa rồi phải ko bạn, học tiếng thì thuận lợi cho bạn nhiều hơn thôi.","can_remove":false,"created_time":"2013-06-15T15:29:48+0000","like_count":0,"user_likes":false},"670772466272767":{"id":"670772466272767","from":{"id":"100001683443068","name":"Dương Tươi"},"message":"bên trung tâm mình, khi đi phỏng vấn, bạn sẽ có phiên dịch đi cùng, trong quá trình đợi câu trả lời, bạn sẽ tham gia học tiếng nhật tại trung tâm nhé Le Duong","message_tags":[{"id":"100003684672515","name":"Le Duong","type":"user","offset":150,"length":8}],"can_remove":false,"created_time":"2013-06-15T15:34:45+0000","like_count":1,"user_likes":false},"670772746272739":{"id":"670772746272739","from":{"id":"100000200742771","name":"Nấm Ngoan Hiền"},"message":"Nguyễn Đức Nếu có đk thì học thạc sỹ anh ak, nếu k thì theo kiểu vừa học vừa làm cũng hay. Năm sau em cũng đi phân vân giống anh :)","can_remove":false,"created_time":"2013-06-15T15:35:45+0000","like_count":2,"user_likes":false},"670783592938321":{"id":"670783592938321","from":{"id":"559823806","name":"Tran Bach"},"message":"Mình đã ở Nhật được 6 năm. Có lời khuyên bạn như sau: Các bạn muốn sang học hoặc làm thì nên tìm hiểu thật kỹ trước khi sang. Và nên học tốt tiếng Nhật trước nếu các bạn đã quyết tâm sang. Học ở nhà thì có thời gian và rẻ hơn rất nhiều. Nên học tầm 6 thang - 1 năm trước khi đi. Mới ra trường thì mà chưa học tiếng Nhật thì cũng ko nên vội bạn ạ. Bỏ 1 năm chuẩn bị cũng không nhiều đâu.","can_remove":false,"created_time":"2013-06-15T16:03:51+0000","like_count":4,"user_likes":false},"670997076250306":{"id":"670997076250306","from":{"id":"100000263658802","name":"Nguyễn Đức"},"message":"bạn Nấm Ngoan Hiền ơi, mình mới bắt đầu học tiếng nhật, nếu đi thì tháng 4/2014 đi, sang bên kia học lên thạc sỹ thì phải học dự bị thạc sĩ từ 0,5 đến 2 năm. sau đó học thạc sĩ 2 năm, nghe bảo là được miễn 50% đến 100% học phí.có thể mình đi theo tập đoàn WEILAN , nghe bảo hết khoảng 185tr họ lo cho mình 6 tháng đầu :)","message_tags":[{"id":"100000200742771","name":"Nấm Ngoan Hiền","type":"user","offset":4,"length":14}],"can_remove":false,"created_time":"2013-06-16T02:19:06+0000","like_count":2,"user_likes":false},"671024492914231":{"id":"671024492914231","from":{"id":"100000200742771","name":"Nấm Ngoan Hiền"},"message":"Thế thì thích quá nhỉ, cty đó chứng thực tsản cho mình luôn ak? E cũng định tầm t4-t8 là đi. vừa muốn học lên thạc sĩ mà cũng muốn đi làm nữa :D","can_remove":false,"created_time":"2013-06-16T03:43:04+0000","like_count":1,"user_likes":false},"671024866247527":{"id":"671024866247527","from":{"id":"100003684672515","name":"Le Duong"},"message":"trước trong trường e cũng tùng học 1 khóa học 3 thag rùi a Tran Bach ạ, bjo e muon xem có công ty nào phong vấn tuyển xklđ thì đi phong vấn nếu trúng tuyển minh có thể di hoc tiep mà","message_tags":[{"id":"559823806","name":"Tran Bach","type":"user","offset":59,"length":9}],"can_remove":false,"created_time":"2013-06-16T03:45:09+0000","like_count":0,"user_likes":false},"671026072914073":{"id":"671026072914073","from":{"id":"100000200742771","name":"Nấm Ngoan Hiền"},"message":"nếu biết tiếg rồi thì ở nhà tự học cũng đc bạn ak. mình thấy bên cty bạn mình đi đợt này đi phỏng vấn nhiều lắm ý","can_remove":false,"created_time":"2013-06-16T03:48:47+0000","like_count":1,"user_likes":false},"671026402914040":{"id":"671026402914040","from":{"id":"100003684672515","name":"Le Duong"},"message":"vậy ạ","can_remove":false,"created_time":"2013-06-16T03:50:01+0000","like_count":0,"user_likes":false},"671026599580687":{"id":"671026599580687","from":{"id":"100003684672515","name":"Le Duong"},"message":"c cho e địa chỉ và tên công ty được ko ạ để e ra tận nơi xem sao.","can_remove":false,"created_time":"2013-06-16T03:50:52+0000","like_count":0,"user_likes":false},"671027166247297":{"id":"671027166247297","from":{"id":"100000200742771","name":"Nấm Ngoan Hiền"},"message":"bạn mình đèo đi nên cũg k nhớ. ở khu mỹ đình ý. để mình hỏi lại cho","can_remove":false,"created_time":"2013-06-16T03:52:58+0000","like_count":1,"user_likes":false},"671030356246978":{"id":"671030356246978","from":{"id":"100003684672515","name":"Le Duong"},"message":"vang thank's c","can_remove":false,"created_time":"2013-06-16T04:04:06+0000","like_count":0,"user_likes":false},"671032959580051":{"id":"671032959580051","from":{"id":"100000200742771","name":"Nấm Ngoan Hiền"},"message":"Bạn gọi hoặc nt vào số này hỏi nhé 0915964259. mình gọi hỏi nhưg nó k nghe máy. Hình như t2 có 1 đợt phỏg vấn nữa đấy","can_remove":false,"created_time":"2013-06-16T04:11:27+0000","like_count":0,"user_likes":false},"671055189577828":{"id":"671055189577828","from":{"id":"100000263658802","name":"Nguyễn Đức"},"message":"em Nấm Ngoan Hiền ơi em biết cty nào uy tín không giới thiệu a xem với","message_tags":[{"id":"100000200742771","name":"Nấm Ngoan Hiền","type":"user","offset":3,"length":14}],"can_remove":false,"created_time":"2013-06-16T05:25:44+0000","like_count":0,"user_likes":false},"671058836244130":{"id":"671058836244130","from":{"id":"100000200742771","name":"Nấm Ngoan Hiền"},"message":"em cũg k biết đâu, cũg toàn tìm hiểu trên mạg thôi. e biết mỗi cái cty ở mđ mà bạn e đi xklđ thôi, thấy bảo ở quê nó toàn đi cty đấy đôg lắm mà nhanh đc đi. chứ còn du học thì e đag tìm hiểu","can_remove":false,"created_time":"2013-06-16T05:39:10+0000","like_count":0,"user_likes":false},"671060282910652":{"id":"671060282910652","from":{"id":"100000263658802","name":"Nguyễn Đức"},"message":"thế à?\na tìm hiểu thấy WEILAN không biêt như thế nào nữa :D","can_remove":false,"created_time":"2013-06-16T05:44:26+0000","like_count":0,"user_likes":false},"671067286243285":{"id":"671067286243285","from":{"id":"100000200742771","name":"Nấm Ngoan Hiền"},"message":"A chuột bạch trc đi, nếu ok thì e nối gót :P","can_remove":false,"created_time":"2013-06-16T06:13:56+0000","like_count":1,"user_likes":false},"671068532909827":{"id":"671068532909827","from":{"id":"100000200742771","name":"Nấm Ngoan Hiền"},"message":"E vừa search weilan thấy có vẻ hay đấy a, trc e toàn tìm mấy kiểu du học Nhật tự thấy còn ít thôg tin lắm","can_remove":false,"created_time":"2013-06-16T06:19:55+0000","like_count":0,"user_likes":false},"671606759522671":{"id":"671606759522671","from":{"id":"1286770563","name":"Vu Hong Trang"},"message":"Vote cho c.ty Lod nhé!","can_remove":false,"created_time":"2013-06-17T08:30:42+0000","like_count":1,"user_likes":false},"671657116184302":{"id":"671657116184302","from":{"id":"100003684672515","name":"Le Duong"},"message":"c Vu Hong Trang cho e hoi là ở đó có phải học Nguồn ko chị?","message_tags":[{"id":"1286770563","name":"Vu Hong Trang","type":"user","offset":2,"length":13}],"can_remove":false,"created_time":"2013-06-17T11:32:40+0000","like_count":1,"user_likes":false},"671689266181087":{"id":"671689266181087","from":{"id":"100000263658802","name":"Nguyễn Đức"},"message":"đọc các bài viết nhiều mình cũng thấy có 1 số công ty như weilan , jellyfish , Vietsse. mình cũng định đi như bạn Le Duong nhưng chưa tìm được công ty nào tin tưởng với lại giá cả rẻ nhất. mình tốt nghiệp thiết kế tàu thủy của đại học hàng hải, hiện giờ đang cần tư vấn về vấn đề du học lên thạc sĩ (không cần đúng chuyên ngành học bên VN thì phải :D) hay là sang đi làm luôn. hì","message_tags":[{"id":"100003684672515","name":"Le Duong","type":"user","offset":114,"length":8}],"can_remove":false,"created_time":"2013-06-17T13:04:14+0000","like_count":0,"user_likes":false},"672026842813996":{"id":"672026842813996","from":{"id":"1286770563","name":"Vu Hong Trang"},"message":"Có phải học nguồn em nhé. Khóa nguồn là 4 tháng, trong khi học nguồn sẽ có nhiều cơ hội tuyển hơn.","can_remove":false,"created_time":"2013-06-18T03:35:57+0000","like_count":0,"user_likes":false},"672046092812071":{"id":"672046092812071","from":{"id":"100000263658802","name":"Nguyễn Đức"},"message":"học nguồn là thế nào chị ơi?","can_remove":false,"created_time":"2013-06-18T04:44:07+0000","like_count":0,"user_likes":false},"675859859097361":{"id":"675859859097361","from":{"id":"100005903071473","name":"Yume Sun"},"message":"e dag o dau","can_remove":false,"created_time":"2013-06-25T15:33:34+0000","like_count":0,"user_likes":false},"675859949097352":{"id":"675859949097352","from":{"id":"100005903071473","name":"Yume Sun"},"message":"neu a tphcm thi co nhiu lam","can_remove":false,"created_time":"2013-06-25T15:33:45+0000","like_count":0,"user_likes":false},"675860049097342":{"id":"675860049097342","from":{"id":"100005903071473","name":"Yume Sun"},"message":"cung co the tin tuong dc","can_remove":false,"created_time":"2013-06-25T15:33:54+0000","like_count":0,"user_likes":false},"675860095764004":{"id":"675860095764004","from":{"id":"100005903071473","name":"Yume Sun"},"message":"vi a cung dag di","can_remove":false,"created_time":"2013-06-25T15:34:00+0000","like_count":0,"user_likes":false}},"paging":{"cursors":{"after":"NjcwNzUyNzE2Mjc0NzQy","before":"NjcwNzUyNzE2Mjc0NzQy"},"next":"https://graph.facebook.com/229244010425617_670745029608844/comments?limit=1&summary=1&after=NjcwNzUyNzE2Mjc0NzQy"},"summary":{"order":"chronological","total_count":54}}}