{"id":"229244010425617_671214686228545","type":"status","from":{"id":"1714365712","name":"Pi Maru"},"message":"Mọi người ơi , có ai hiện đang ở Hokkaido không nhỉ hoặc là từng đi du lịch Hokkaido rồi , có thể chia sẻ cho mình chút kinh nghiệm cũng như thông tin du lịch ở Hokkaido.Mình tính đi Hokkaido chơi vào tháng 7 này.Mong được giúp đỡ ^^","created_time":"2013-06-16T13:35:46+0000","updated_time":"2013-06-16T14:34:24+0000","likes":{"data":{"100001754136107":{"id":"100001754136107","name":"Nguyễn Tuấn Vũ"}},"paging":{"cursors":{"after":"MTAwMDAxNzU0MTM2MTA3","before":"MTAwMDAxNzU0MTM2MTA3"}},"summary":{"total_count":1}},"comments":{"data":{"671225462894134":{"id":"671225462894134","from":{"id":"100001754136107","name":"Nguyễn Tuấn Vũ"},"message":"Thanh Hoa Dang","message_tags":[{"id":"100001475606142","name":"Thanh Hoa Dang","type":"user","offset":0,"length":14}],"can_remove":false,"created_time":"2013-06-16T13:59:58+0000","like_count":1,"user_likes":false},"671233376226676":{"id":"671233376226676","from":{"id":"100001475606142","name":"Thanh Hoa Dang"},"message":"chào bạn. như bạn kia bạn ý tag mình vào thì đúng là mình vừa đi  Hokkaido đợt nghỉ xuân tháng 3 vừa rồi. mình k biết bạn định tới đâu của Hokkaido, nhưng Sapporo là thành phố thủ phủ thì mình nghĩ chắc là bạn sẽ ghé qua, tiếp đó là Otaru. hồi đó mình đi 2 ngày 1 đêm, nhưng là tháng 3 nên tuyết phủ trắng và rất lạnh, các địa điểm chính đẹp đều bị tuyết phủ trắng. nhưng mình vẫn thấy Sapporo rất đẹp. nếu bạn tới Hokkaido, mình nghĩ bạn sẽ có cảm nhận rằng nó khá là khác vs đại bộ phận các vùng khác của Nhật Bản,vì mang nhiều âm hưởng của kiến trúc và văn hóa phương Tây bạn ạ. lần đó đi mình rất ưng chỗ mình ở nên muốn recommend cho bạn chỗ này. hostel này nhỏ thôi nhưng cực dễ chịu và sạch sẽ, cũng k kém phần tiện nghi, mà lại ấm cúng. anh chủ cũng rất tốt bụng và thân thiện vs khách, bạn có thể hỏi anh ấy bất cứ cái gì, anh ấy là ng Nhật nhưng rất giỏi tiếng Anh. trước khi khách nào về anh ấy cũng xin chụp lại 1 tấm hình làm kỉ niệm, rất thú vị. link đặt phòng đây: http://www.hostelworld.com/hosteldetails.php/Jimmyz-Backpackers/Sapporo/39484?dateFrom=17+Jun+2013&dateTo=20+Jun+2013&sc_sau=avdc&sc_pos=1. còn về đồ ăn nổi tiếng của Sapporo thì khỏi nói rồi, có 2 món nổi tiếng nhất định phải ăn là súp cà rê và món ramen kiểu Sapporo. ngoài ra thì nên tới thăm tháp đồng hồ, công viên Ohori, nhà ga JR của Sapporo, đại học Hokkaido, nếu mua sắm thì trung tâm Daimaru của Sapporo cũng rất nổi tiếng (nhưng cực đắt, mình sống ở vùng rẻ như Fukuoka quen rồi nên chẳng dám mua cái gì :D). còn nếu có thời gian thì hãy đi thăm khu vực sống của người Ainu, hay nhà máy nước uống Kirin ở gần sân bay New Chitose, blah blah. mình đi có 1 mình lại ít thời gian, vs lại mục đích đi chỉ là để thay đổi không khí và tận hưởng 1 chút gió rét ở vùng cực bắc Nhật Bản nên cũng k đi nhiều mấy. bạn có thể tìm mua cuốn cẩm nang du lịch Hokkaido và tìm hiểu thêm, họ có gợi ý tour chi tiết hợp lí cho bạn nữa đấy. bạn đi tháng 7 thì hợp lí hơn mình đi tháng 3 :). mùa hè của Hokkaido thì nổi tiếng tuyệt vời rồi, có hoa oải hương tím ngắt trải dài bát ngát, ngoài ra còn nhiều công viên hoa nổi tiếng nữa. Hi vọng bạn sẽ có chuyến đi an toàn với lịch trình hợp lí và thú vị. Enjoy nhé! :)","can_remove":false,"created_time":"2013-06-16T14:17:52+0000","like_count":4,"user_likes":false},"671238469559500":{"id":"671238469559500","from":{"id":"1714365712","name":"Pi Maru"},"message":"Rất tuyệt vời <3 ! 1 lời khuyên quá hữu ích cho mình .Nêu còn có khả năng mình sẽ xuống Fukuoka nữa , hi vọng đc gặp người bạn dễ mến như bạn ^^ tại Fukuoka","can_remove":false,"created_time":"2013-06-16T14:28:47+0000","like_count":0,"user_likes":false},"671239126226101":{"id":"671239126226101","from":{"id":"100001475606142","name":"Thanh Hoa Dang"},"message":"ko có gì ^^. nếu có cơ hội, mình rất hân hạnh được đón bạn tại Fukuoka trong 2 tháng nữa :D vì sau đó mình về VN mất rồi :D","can_remove":false,"created_time":"2013-06-16T14:30:25+0000","like_count":1,"user_likes":false},"671239232892757":{"id":"671239232892757","from":{"id":"100001754136107","name":"Nguyễn Tuấn Vũ"},"message":"Thanh Hoa Dang: đọc mỏi cả cổ :)))","message_tags":[{"id":"100001475606142","name":"Thanh Hoa Dang","type":"user","offset":0,"length":14}],"can_remove":false,"created_time":"2013-06-16T14:30:46+0000","like_count":0,"user_likes":false},"671239722892708":{"id":"671239722892708","from":{"id":"1714365712","name":"Pi Maru"},"message":"Mình đang là người tự do nên đi chừng nào sẽ đi :p..Yên tâm mình có khi còn về trước bạn đấy :D","can_remove":false,"created_time":"2013-06-16T14:32:05+0000","like_count":1,"user_likes":false},"671239859559361":{"id":"671239859559361","from":{"id":"100001754136107","name":"Nguyễn Tuấn Vũ"},"message":"Hom nao xuong fukuoka minh lam huong dan vien cho","can_remove":false,"created_time":"2013-06-16T14:32:27+0000","like_count":0,"user_likes":false},"671240012892679":{"id":"671240012892679","from":{"id":"1714365712","name":"Pi Maru"},"message":"Thanks bạn Tuan Vu trước nhé ^^","can_remove":false,"created_time":"2013-06-16T14:32:56+0000","like_count":0,"user_likes":false},"671240519559295":{"id":"671240519559295","from":{"id":"100001475606142","name":"Thanh Hoa Dang"},"message":"ok bạn :)","can_remove":false,"created_time":"2013-06-16T14:34:24+0000","like_count":0,"user_likes":false}},"paging":{"cursors":{"after":"NjcxMjI1NDYyODk0MTM0","before":"NjcxMjI1NDYyODk0MTM0"},"next":"https://graph.facebook.com/229244010425617_671214686228545/comments?limit=1&summary=1&after=NjcxMjI1NDYyODk0MTM0"},"summary":{"order":"chronological","total_count":9}}}