{"id":"229244010425617_671367606213253","type":"status","from":{"id":"100001878058153","name":"Nguyễn Phú Quý"},"message":"mình bắt đầu học tiếng nhật, các bạn giới thiệu cho mình từ điển *có phát âm* , phần mền,web , có phát âm hoặc tài liệu hay cho người mới bắt đầu . cảm ơn các bạn nhiều !","created_time":"2013-06-16T19:11:42+0000","updated_time":"2013-06-17T10:06:27+0000","comments":{"data":{"671463992870281":{"id":"671463992870281","from":{"id":"100001754136107","name":"Nguyễn Tuấn Vũ"},"message":"Châu Hoàng","message_tags":[{"id":"1693102459","name":"Châu Hoàng","type":"user","offset":0,"length":10}],"can_remove":false,"created_time":"2013-06-16T23:54:15+0000","like_count":0,"user_likes":false},"671609646189049":{"id":"671609646189049","from":{"id":"1693102459","name":"Châu Hoàng"},"message":"tài liệu cho người mới bắt đầu thì sơ cấp nhất là mina nihongo rồi đấy :)\nphần mềm phát âm thì thử dùng http://www.studyjapanese.net/2012/12/neospeech-japanese-misaki.html","can_remove":false,"created_time":"2013-06-17T08:44:31+0000","like_count":2,"user_likes":false},"671630826186931":{"id":"671630826186931","from":{"id":"100001878058153","name":"Nguyễn Phú Quý"},"message":"cảm ơn 2 bạn nhé :)","can_remove":false,"created_time":"2013-06-17T10:04:51+0000","like_count":0,"user_likes":false},"671630912853589":{"id":"671630912853589","from":{"id":"1693102459","name":"Châu Hoàng"},"message":"sao lại 2 bạn :v","can_remove":false,"created_time":"2013-06-17T10:05:10+0000","like_count":0,"user_likes":false},"671631176186896":{"id":"671631176186896","from":{"id":"100001878058153","name":"Nguyễn Phú Quý"},"message":"trên có bạn Nguyễn Tuấn Vũ tag bạn ,hihi","message_tags":[{"id":"100001754136107","name":"Nguyễn Tuấn Vũ","type":"user","offset":12,"length":14}],"can_remove":false,"created_time":"2013-06-17T10:06:27+0000","like_count":0,"user_likes":false}},"paging":{"cursors":{"after":"NjcxNDYzOTkyODcwMjgx","before":"NjcxNDYzOTkyODcwMjgx"},"next":"https://graph.facebook.com/229244010425617_671367606213253/comments?limit=1&summary=1&after=NjcxNDYzOTkyODcwMjgx"},"summary":{"order":"chronological","total_count":5}},"likes":{"data":[]}}