{"id":"229244010425617_671638119519535","type":"status","from":{"id":"100001458099624","name":"Kham Pha"},"message":"Bài 122: Tiếng Nhật lóng (Phần 5)\n\nHôm nay vừa xong 1 deadline quan trọng, dễ cả tháng rồi không viết bài ngữ pháp nào tử tế, giờ viết một bài xem có lụt nghề không. Hôm nay chúng ta sẽ tiếp tục sê-ri bài “Tiếng Nhật lóng” phần 5 với cấu trúc って.\n\nGiới thiệu đôi chút về って, trong các cấu trúc tiếng Nhật lóng thì nếu không nhắc đến cấu trúc này thì cũng chẳng có cấu trúc nào xứng đang được nhắc đến cả. Cần chứng minh? Bởi vì nếu bạn đang ở Nhật thì chẳng cần giải thích bạn cũng hiểu tần suất xuất hiện và mức độ quan trọng của nó nhiều tới mức nào. Còn các bạn ở Việt Nam muốn biết thì chỉ cần down vài bộ phim Nhật về xem là biết ngay. \n\nTheo ý kiến của mình thì  って là cấu trúc hay xuất hiện nhất trong giao tiếp hàng ngày ở Nhật. Tuy cùng là  って nhưng lại có nhiều cách sử dụng, và nhiều ý nghĩa khác nhau. Bài viết này chỉ là tập hợp những kinh nghiệm bản thân của mình đối với việc sử dụng  って, bởi vì hồi ở VN không được dạy nên sang đây học lỏm không được chính quy cho lắm, các bạn xem tạm.  \n\n(1)って: viết tắt của ということ. \nXem lại bài 104 học tiếng Nhật qua bài ねずみは米がすき ngay câu đầu tiên. \nhttps://www.facebook.com/groups/229244010425617/doc/652517884764892/\n\nありえないって分かってるから\nBởi vì em biết đó là điều không thể.\n\nBình thường bạn có thể nói như thế này chẳng hạn: \nスーパーマンになる夢（ゆめ）はカッパを着（き）て、タイツの外側に赤（あか）いパンツを履（は）くってことでしょうか？\nƯớc mơ trở thành siêu nhân chẳng phải là việc choàng áo mưa và mặc sịp đỏ bên ngoài quần nịt đấy sao?\n\nNgoài ってこと còn có って人　và って rất nhiều thứ. Vì đơn giản って chỉ là cách nói ngắn của という thôi. \nCác bạn có thể tham khảo về という trong bài 24:\nhttps://www.facebook.com/groups/229244010425617/doc/595675600449121/\n\n(2)って:  là viết tắt của と言いました dùng trong nhắc lại lời nói của người khác. Thường được đặt ở cuối câu. \n\nVí dụ một lần mình đi cắt tóc, cửa hàng có 2 thợ: 1 nam ,1 nữ. Một người vừa cắt cho mình vừa chém gió, thỉnh thoảng chị kia cũng nhảy vào chém. Trong đó có nói vài ba câu như sau: \n\n美容師（びようし）1：君は日本に何がすき？- Ở Nhật, chú thích gì?\n僕： 僕さ日本人の女性がすきかなあ- Em thích gái Nhật ạ. \n美容師（びようし）1：日本人の女性がすきって- Cu em bảo là thích gái Nhật kìa.\n美容師（びようし）2：日本人の女性がすきなの？なんで？- Thích gái Nhật ah, sao lại thế?\n\nThì chém gió thế chứ còn gì nữa :v\n\n(3)って: thay cho trợ từ は, がđánh dấu chủ đề của câu, chủ thể của ngữ. Ví dụ: \n松本さんって何がすき？\nAnh /chị Matsumoto thích cái gì?\n\n礎さんっていい人ですね。\nAnh/chị Ishizue tốt thật đấy.\n\nViệc chia thể, chia danh từ, động từ, tính từ  khi dùng với って là không cần thiết bởi vì  って dùng đâu cũng được, chỉ có điều là với các từ chia thể khác nhau thì ý nghĩa cũng hơi khác nhau.  Ví dụ: 聞くって và 聞いたって đều được sử dụng, chỉ là trong các hoàn cảnh khác nhau thôi. \n\nTạm thời thế đã, bao giờ mình tìm ra thêm ý nghĩa khác của cấu trúc này sẽ cập nhật cho các bạn sau. \n\nhttp://mp3.zing.vn/bai-hat/One-Man-s-Dream-Yanni/ZWZCD0O7.html\n\nKham Pha","created_time":"2013-06-17T10:30:44+0000","updated_time":"2013-06-18T12:48:39+0000","likes":{"data":{"100005369824074":{"id":"100005369824074","name":"Minh Minh"},"100000179637081":{"id":"100000179637081","name":"Hyun Hyhy"},"100003210512769":{"id":"100003210512769","name":"Trang Nguyễn"},"100001508739620":{"id":"100001508739620","name":"Lê Ngọc Hoàn"},"100002816124387":{"id":"100002816124387","name":"Ngọc Nguyễn"},"100001905664553":{"id":"100001905664553","name":"Mẹ Ơi Con Đói"},"100000198219367":{"id":"100000198219367","name":"Chang Jiang"},"100004558111125":{"id":"100004558111125","name":"Toi HaDanh"},"100001535653711":{"id":"100001535653711","name":"Nguyen Huy Son"},"100000101723728":{"id":"100000101723728","name":"Bình Đặng"},"100003814756892":{"id":"100003814756892","name":"Hai Nguyen"},"100001659230540":{"id":"100001659230540","name":"Lemon Tea"},"100001580479641":{"id":"100001580479641","name":"Hà Xuân Thủy"},"100004642933206":{"id":"100004642933206","name":"Aloha Aloha"},"100000250256418":{"id":"100000250256418","name":"Nguyen Viet Anh"},"100001253342061":{"id":"100001253342061","name":"Victor Lưu"},"100000625052058":{"id":"100000625052058","name":"Do Xuan An"},"100001754136107":{"id":"100001754136107","name":"Nguyễn Tuấn Vũ"},"1744556343":{"id":"1744556343","name":"Thùy Dương"},"100004169731179":{"id":"100004169731179","name":"Hường Hoàng"},"100004241019333":{"id":"100004241019333","name":"Linda Evans"},"100000096928751":{"id":"100000096928751","name":"Lê Linh"}},"paging":{"cursors":{"after":"MTAwMDA1MzY5ODI0MDc0","before":"MTAwMDA1MzY5ODI0MDc0"},"next":"https://graph.facebook.com/229244010425617_671638119519535/likes?limit=1&summary=1&after=MTAwMDA1MzY5ODI0MDc0"},"summary":{"total_count":22}},"comments":{"data":{"671682636181750":{"id":"671682636181750","from":{"id":"100001580479641","name":"Hà Xuân Thủy"},"message":"Cái này đúng là đc nghe hằng ngày, mà thậm chí là rất nhiều nhưng hình như phần lớn nó hay đc sử dụng để  truyền đạt ý kiến thì phải.","can_remove":false,"created_time":"2013-06-17T12:44:54+0000","like_count":1,"user_likes":false},"671978109485536":{"id":"671978109485536","from":{"id":"100001458099624","name":"Kham Pha"},"message":"cách dùng thứ 2?","can_remove":false,"created_time":"2013-06-18T01:01:11+0000","like_count":0,"user_likes":false},"672166962799984":{"id":"672166962799984","from":{"id":"100001416272263","name":"Mai PB"},"message":"Cho luôn chữ だって cho đủ bộ, Kham Pha","message_tags":[{"id":"100001458099624","name":"Kham Pha","type":"user","offset":28,"length":8}],"can_remove":false,"created_time":"2013-06-18T12:09:41+0000","like_count":1,"user_likes":false},"672181296131884":{"id":"672181296131884","from":{"id":"100001754136107","name":"Nguyễn Tuấn Vũ"},"message":"E đang lẩm bẩm câu đấy :)) だって","can_remove":false,"created_time":"2013-06-18T12:48:39+0000","like_count":0,"user_likes":false}},"paging":{"cursors":{"after":"NjcxNjgyNjM2MTgxNzUw","before":"NjcxNjgyNjM2MTgxNzUw"},"next":"https://graph.facebook.com/229244010425617_671638119519535/comments?limit=1&summary=1&after=NjcxNjgyNjM2MTgxNzUw"},"summary":{"order":"chronological","total_count":4}}}