{"id":"229244010425617_671626962853984","type":"photo","object_id":"264249457048321","picture":"https://fbcdn-photos-h-a.akamaihd.net/hphotos-ak-prn2/t1.0-0/970569_264249457048321_244815372_s.jpg","link":"https://www.facebook.com/photo.php?fbid=264249457048321&set=a.255774677895799.1073741828.255569894582944&type=1","from":{"id":"1267084162","name":"Salt Mint"},"message":"Tháng 7 sắp đến rồi, có mem nào đi thi hông ? :)))","created_time":"2013-06-17T09:49:53+0000","updated_time":"2013-06-17T14:18:57+0000","likes":{"data":{"100004099326394":{"id":"100004099326394","name":"Thanh Chan"},"100000200742771":{"id":"100000200742771","name":"Nấm Ngoan Hiền"},"100004169731179":{"id":"100004169731179","name":"Hường Hoàng"},"100004241019333":{"id":"100004241019333","name":"Linda Evans"},"100001739865592":{"id":"100001739865592","name":"Tung Le"}},"paging":{"cursors":{"after":"MTAwMDA0MDk5MzI2Mzk0","before":"MTAwMDA0MDk5MzI2Mzk0"},"next":"https://graph.facebook.com/229244010425617_671626962853984/likes?limit=1&summary=1&after=MTAwMDA0MDk5MzI2Mzk0"},"summary":{"total_count":5}},"comments":{"data":{"671660582850622":{"id":"671660582850622","from":{"id":"100001754136107","name":"Nguyễn Tuấn Vũ"},"message":"Mình đính chính lai nhé: tổng số điểm thi giờ là 180","can_remove":false,"created_time":"2013-06-17T11:43:32+0000","like_count":2,"user_likes":false},"671687592847921":{"id":"671687592847921","from":{"id":"1693102459","name":"Châu Hoàng"},"message":"Nguyễn Tuấn Vũ: cái chi cũng biết :v","message_tags":[{"id":"100001754136107","name":"Nguyễn Tuấn Vũ","type":"user","offset":0,"length":14}],"can_remove":false,"created_time":"2013-06-17T12:58:23+0000","like_count":0,"user_likes":false},"671722459511101":{"id":"671722459511101","from":{"id":"100000101723728","name":"Bình Đặng"},"message":"bao nhiêu thì qua nhỉ :v","can_remove":false,"created_time":"2013-06-17T14:18:57+0000","like_count":0,"user_likes":false}},"paging":{"cursors":{"after":"NjcxNjYwNTgyODUwNjIy","before":"NjcxNjYwNTgyODUwNjIy"},"next":"https://graph.facebook.com/229244010425617_671626962853984/comments?limit=1&summary=1&after=NjcxNjYwNTgyODUwNjIy"},"summary":{"order":"chronological","total_count":3}}}