{"id":"229244010425617_671635346186479","type":"status","from":{"id":"646162346","name":"Bùi Thị Lan Phương"},"message":"Mình đang cần tuyển kĩ sư IT:\n\n* Tiếng Nhật N3 trở lên.\n\n* Không cần kinh nghiệm.\n\n* Lương $800-$1000, làm việc tại Hà Nội.\n\nMọi người biết ai thì giới thiệu nhé.","created_time":"2013-06-17T10:20:21+0000","updated_time":"2013-06-18T08:23:46+0000","likes":{"data":{"100001841757627":{"id":"100001841757627","name":"Ngân Ngố"},"100002425288918":{"id":"100002425288918","name":"Kira Chiến ND"},"100004200452679":{"id":"100004200452679","name":"Hu Xi"},"100003079877787":{"id":"100003079877787","name":"Bảo Toàn"},"100002935818029":{"id":"100002935818029","name":"Hoàng Văn Tuấn"},"100003332255834":{"id":"100003332255834","name":"Nhung Ai Haibara"},"100000942176772":{"id":"100000942176772","name":"Amaya Quỳnh"},"100001484541006":{"id":"100001484541006","name":"Quang Vũ"}},"paging":{"cursors":{"after":"MTAwMDAxODQxNzU3NjI3","before":"MTAwMDAxODQxNzU3NjI3"},"next":"https://graph.facebook.com/229244010425617_671635346186479/likes?limit=1&summary=1&after=MTAwMDAxODQxNzU3NjI3"},"summary":{"total_count":8}},"comments":{"data":{"671640449519302":{"id":"671640449519302","from":{"id":"100001628612184","name":"Mai Tròn"},"message":"Trung Trần Văn nè","message_tags":[{"id":"100000427975075","name":"Trung Trần Văn","type":"user","offset":0,"length":14}],"can_remove":false,"created_time":"2013-06-17T10:36:58+0000","like_count":1,"user_likes":false},"671642079519139":{"id":"671642079519139","from":{"id":"100000064686295","name":"Huy Roli"},"message":"ko bit gi it co dc ko?","can_remove":false,"created_time":"2013-06-17T10:42:45+0000","like_count":1,"user_likes":false},"671997192816961":{"id":"671997192816961","from":{"id":"100001841757627","name":"Ngân Ngố"},"message":"Ban oi.minh muon hoi nganh xay dung co dk ko","can_remove":false,"created_time":"2013-06-18T02:00:16+0000","like_count":1,"user_likes":false},"672086486141365":{"id":"672086486141365","from":{"id":"646162346","name":"Bùi Thị Lan Phương"},"message":"Phải tốt nghiệp ngành IT mọi người nhé ;)","can_remove":false,"created_time":"2013-06-18T07:10:40+0000","like_count":0,"user_likes":false},"672098862806794":{"id":"672098862806794","from":{"id":"100000427975075","name":"Trung Trần Văn"},"message":"N3 là yêu cầu bắt buộc ạ? mình mới tốt nghiệp ngành kỹ nghệ phần mềm nhưng bằng N3 thì chưa có.trình độ ở N4 liệu có được không?","can_remove":false,"created_time":"2013-06-18T08:02:57+0000","like_count":0,"user_likes":false},"672103839472963":{"id":"672103839472963","from":{"id":"646162346","name":"Bùi Thị Lan Phương"},"message":"Yêu cầu thấp nhất N3 Trung Trần Văn  nhé.","message_tags":[{"id":"100000427975075","name":"Trung Trần Văn","type":"user","offset":21,"length":14}],"can_remove":false,"created_time":"2013-06-18T08:23:46+0000","like_count":0,"user_likes":false}},"paging":{"cursors":{"after":"NjcxNjQwNDQ5NTE5MzAy","before":"NjcxNjQwNDQ5NTE5MzAy"},"next":"https://graph.facebook.com/229244010425617_671635346186479/comments?limit=1&summary=1&after=NjcxNjQwNDQ5NTE5MzAy"},"summary":{"order":"chronological","total_count":6}}}