{"id":"229244010425617_671749022841778","type":"status","from":{"id":"100002829897061","name":"Xiêu Nhân"},"message":"các bạn ngoài Hà Nội cho mình hỏi đã nhận được giấy báo thi năng lực tiếng nhật tháng 7 này chưa. Mình ở Đà Lạt đăng kí thi ngoài đó mà giờ vẫn chưa thấy gì cả, mà lại sắp đến ngày ra ngoài đó rồi, nếu không có giấy báo thi có thể đi thi được không?? お願いします.","created_time":"2013-06-17T15:17:50+0000","updated_time":"2013-06-23T11:08:12+0000","likes":{"data":{"100002829897061":{"id":"100002829897061","name":"Xiêu Nhân"},"100004101363917":{"id":"100004101363917","name":"Lan Anh Mẫn"}},"paging":{"cursors":{"after":"MTAwMDAyODI5ODk3MDYx","before":"MTAwMDAyODI5ODk3MDYx"},"next":"https://graph.facebook.com/229244010425617_671749022841778/likes?limit=1&summary=1&after=MTAwMDAyODI5ODk3MDYx"},"summary":{"total_count":2}},"comments":{"data":{"671750492841631":{"id":"671750492841631","from":{"id":"100000268489214","name":"Kaka Huy"},"message":"Không có vẫn đi thi thoải mái nhé bạn. Lúc đi thi chỉ cần mang CMT đi thôi. :d","can_remove":false,"created_time":"2013-06-17T15:19:42+0000","like_count":3,"user_likes":false},"671751922841488":{"id":"671751922841488","from":{"id":"100002829897061","name":"Xiêu Nhân"},"message":"Kaka Huy cám ơn bạn nhé, mình cứ lo mấy ngày hôm nay <3","message_tags":[{"id":"100000268489214","name":"Kaka Huy","type":"user","offset":0,"length":8}],"can_remove":false,"created_time":"2013-06-17T15:20:56+0000","like_count":0,"user_likes":false},"671754326174581":{"id":"671754326174581","from":{"id":"100000183867315","name":"Hung Chelsea"},"message":"<3 rồi kìa Kaka Huy :v :v :v","message_tags":[{"id":"100000268489214","name":"Kaka Huy","type":"user","offset":11,"length":8}],"can_remove":false,"created_time":"2013-06-17T15:24:38+0000","like_count":0,"user_likes":false},"671754899507857":{"id":"671754899507857","from":{"id":"100003402699439","name":"Trang Chan"},"message":"mình cũng まだ","can_remove":false,"created_time":"2013-06-17T15:25:34+0000","like_count":2,"user_likes":false},"671761409507206":{"id":"671761409507206","from":{"id":"100001754136107","name":"Nguyễn Tuấn Vũ"},"message":"Bên này mình cung chưa nhận đc ma","can_remove":false,"created_time":"2013-06-17T15:32:34+0000","like_count":1,"user_likes":false},"671766722840008":{"id":"671766722840008","from":{"id":"100001739865592","name":"Tung Le"},"message":"Giấy báo này thất lạc suốt,lần trc thi mình nhận đc,lần này mãi chưa thấy đâu.Yên tâm đi,cứ mang cmt đi là đc,vẫn đc thi bình thường :)","can_remove":false,"created_time":"2013-06-17T15:39:31+0000","like_count":1,"user_likes":false},"671979532818727":{"id":"671979532818727","from":{"id":"100003795586875","name":"Huyen Nguyen"},"message":"co aj pjt nam nay thj  N3 o HN thj thj cho nao chua nhj","can_remove":false,"created_time":"2013-06-18T01:04:57+0000","like_count":0,"user_likes":false},"671981459485201":{"id":"671981459485201","from":{"id":"100001754136107","name":"Nguyễn Tuấn Vũ"},"message":"t tra thong tin thay thi cung dia diem la dai hoc ngoai ngu","can_remove":false,"created_time":"2013-06-18T01:11:14+0000","like_count":0,"user_likes":false},"671996999483647":{"id":"671996999483647","from":{"id":"100003795586875","name":"Huyen Nguyen"},"message":"vay ah.thak pan nhe","can_remove":false,"created_time":"2013-06-18T01:59:16+0000","like_count":0,"user_likes":false},"671999462816734":{"id":"671999462816734","from":{"id":"100003312527085","name":"Ngat Pro"},"message":"thi dc ban a.ngay truoc minh cung co nhan dc giay bao dau.den noi ho se phat cho ban 1 phieu du thi nua.yen tam","can_remove":false,"created_time":"2013-06-18T02:08:11+0000","like_count":1,"user_likes":false},"674233739259973":{"id":"674233739259973","from":{"id":"100005646455011","name":"Shin Saigai"},"message":"uhm, dung day, ko can giay bao dau ban, quan trong khi ban dk voi ho da co ds r, ban chi can mang theo cmt la ok.","can_remove":false,"created_time":"2013-06-22T13:19:41+0000","like_count":1,"user_likes":false},"674639842552696":{"id":"674639842552696","from":{"id":"100003175615728","name":"Thiếu Gia Hòa Bình"},"message":"Tháng 7 này mình cũng tham gia thi, bít đâu được gặp Siêu Nhân cùng phòng nhỉ hihi","can_remove":false,"created_time":"2013-06-23T09:31:07+0000","like_count":1,"user_likes":false},"674672449216102":{"id":"674672449216102","from":{"id":"100002829897061","name":"Xiêu Nhân"},"message":"Lê Hoàng Việt bạn thi N mấy","message_tags":[{"id":"100003175615728","name":"Lê Hoàng Việt","type":"user","offset":0,"length":13}],"can_remove":false,"created_time":"2013-06-23T11:06:47+0000","like_count":0,"user_likes":false},"674673969215950":{"id":"674673969215950","from":{"id":"100003175615728","name":"Thiếu Gia Hòa Bình"},"message":"mình thi N3 Xiêu nhân à hihi","can_remove":false,"created_time":"2013-06-23T11:07:59+0000","like_count":0,"user_likes":false},"674674319215915":{"id":"674674319215915","from":{"id":"100003175615728","name":"Thiếu Gia Hòa Bình"},"message":"mà thì cho biết thôi mà, ko giám hy vọng đỗ","can_remove":false,"created_time":"2013-06-23T11:08:12+0000","like_count":0,"user_likes":false}},"paging":{"cursors":{"after":"NjcxNzUwNDkyODQxNjMx","before":"NjcxNzUwNDkyODQxNjMx"},"next":"https://graph.facebook.com/229244010425617_671749022841778/comments?limit=1&summary=1&after=NjcxNzUwNDkyODQxNjMx"},"summary":{"order":"chronological","total_count":16}}}