{"id":"229244010425617_672816926068321","type":"status","from":{"id":"100000383155614","name":"Phạm Thúc Hưng"},"message":"Bài 123 : Các đơn vị đếm trong tiếng Nhật (tiếp).\n\nHôm trước (bài 120) mình đã viết về những cách đếm cơ bản mà kiểu gì các bạn cũng gặp nếu tiếp xúc nhiều với tiếng Nhật (tốt nhất là nên nhớ hết). Bài hôm nay mình xin post một số cách đếm khác mình tham khảo được :\n\n+ Đếm nhà : 一戸 (ikko)、一軒(ikken)、一棟(ittou). \n+ Trong văn bản :\n    -  Dòng : 一行 (ichigyou)\n    -  Cột : 一列 (ichiretsu)\n    -  Từ :　一つ (hitotsu)\n    -  Số sự kiện (kết quả trong tìm kiếm, các ý) : 一件 (ichiken)\n+ Đếm máy móc (camera, xe máy, ô tô v.v...) : 一台 (ittai)\n+ Đếm quần áo : 一着　(icchaku)\n+ Đơn vị đếm gia súc, động vật to: 頭（とう）: con, đầu (gia súc).\n   Ví dụ : 一頭 (ittou)\n+ Đơn vị đếm những vật có đôi, cặp như tất, giày, đũa: 足(そく) :  đôi, cặp\n   Ví dụ : 一足 (hitoashi)\n+ Đơn vị đếm con vật nhỏ (cá, chó, mèo..): 匹（ひき）: con\n   Ví dụ : 一匹 (itsupiki)\n+ Đơn vị đếm sách, vở, tạp chỉ: 冊 (さつ):  quyển \n   Ví dụ : 一冊 (itsusatsu)\n\nv.v....\n\nNhững đơn vị đếm này bản thân mình cũng không nhớ hết được, và còn các cách biến âm trong mỗi đơn vị nữa. Tuy nhiên, nếu các bạn không thực hành thì nó cũng bằng thừa. Nào! Hãy giúp mình bằng cách chọn một trong các đơn vị đếm trên và comment cách phát âm từ 1 đến 10 nhé. Mình (hoặc bạn mình) sẽ check hộ mọi người nhé!\nMột cách thực hành tốt đấy, cùng nhau thử nào!","created_time":"2013-06-19T16:47:02+0000","updated_time":"2013-06-21T08:08:08+0000","likes":{"data":{"100003180366829":{"id":"100003180366829","name":"Ngọc Hà"},"100003186413787":{"id":"100003186413787","name":"HiEn Thuc PK"},"100003549909353":{"id":"100003549909353","name":"Thang Nguyen Van"},"100000280776405":{"id":"100000280776405","name":"Viet Nguyen Thanh"},"100005954163532":{"id":"100005954163532","name":"Hương Lavender"},"100003950139327":{"id":"100003950139327","name":"Kathy Banh"},"100003814756892":{"id":"100003814756892","name":"Hai Nguyen"},"100003705664170":{"id":"100003705664170","name":"Sói Minnie"},"100003210512769":{"id":"100003210512769","name":"Trang Nguyễn"},"100002369341715":{"id":"100002369341715","name":"Xu Li"},"603757816":{"id":"603757816","name":"Trung Chu Bao"},"100003402699439":{"id":"100003402699439","name":"Trang Chan"},"1693102459":{"id":"1693102459","name":"Châu Hoàng"},"100004433463487":{"id":"100004433463487","name":"Lê Anh Kim"},"100002470650247":{"id":"100002470650247","name":"LinhLinh Chan"},"100000293174570":{"id":"100000293174570","name":"Vịt Vụng Về"},"1733088155":{"id":"1733088155","name":"Lynn Kunz"},"620134445":{"id":"620134445","name":"Anh Do"},"100004380181780":{"id":"100004380181780","name":"Be Boo"},"100002135182523":{"id":"100002135182523","name":"Huỵch Toẹt"},"100001458099624":{"id":"100001458099624","name":"Kham Pha"},"100003751343484":{"id":"100003751343484","name":"Bạch Dương"},"100002676859353":{"id":"100002676859353","name":"Chu Quang Viên"},"100003016747298":{"id":"100003016747298","name":"Minh Phượng"},"100000198219367":{"id":"100000198219367","name":"Chang Jiang"},"1821970083":{"id":"1821970083","name":"Nguyễn Mạnh Cường"},"100001754136107":{"id":"100001754136107","name":"Nguyễn Tuấn Vũ"},"100002245769151":{"id":"100002245769151","name":"Luot Pham"}},"paging":{"cursors":{"after":"MTAwMDAzMTgwMzY2ODI5","before":"MTAwMDAzMTgwMzY2ODI5"},"next":"https://graph.facebook.com/229244010425617_672816926068321/likes?limit=1&summary=1&after=MTAwMDAzMTgwMzY2ODI5"},"summary":{"total_count":28}},"comments":{"data":{"672821936067820":{"id":"672821936067820","from":{"id":"559823806","name":"Tran Bach"},"message":"Bài viết của bạn rất hữu ích. Mình thấy có người ta hay dùng 2 từ: 一台(いちだい:ichidai), 一件(いっけん:ikken) nên sửa lại chút","can_remove":false,"created_time":"2013-06-19T17:01:19+0000","like_count":4,"user_likes":false},"672965576053456":{"id":"672965576053456","from":{"id":"100004380181780","name":"Be Boo"},"message":"A viết Đơn vị đếm đôj kặp là soku nhưng sao đôj chân lại viết là hitoashi","can_remove":false,"created_time":"2013-06-19T23:52:18+0000","like_count":1,"user_likes":false},"672979949385352":{"id":"672979949385352","from":{"id":"620134445","name":"Anh Do"},"message":"一足 có 2 cách đọc, ISSOKU là đếm giày dép, trong khi cách đọc HITOASHI lại hàm ý chỉ bước chân\n\n一匹 thể hiện bằng romaji không phải là itsupiki mà là ippiki (thể hiện không đúng thì khi type sẽ không ra đúng từ)","can_remove":false,"created_time":"2013-06-20T00:47:45+0000","like_count":1,"user_likes":false},"672996279383719":{"id":"672996279383719","from":{"id":"100001458099624","name":"Kham Pha"},"message":"vụ soku hay đấy, giờ mới biết :)","can_remove":false,"created_time":"2013-06-20T01:45:26+0000","like_count":1,"user_likes":false},"672996469383700":{"id":"672996469383700","from":{"id":"100001458099624","name":"Kham Pha"},"message":"Phạm Thúc Hưng đếm nhà có 3 cách, khi nào dùng loại nào?","message_tags":[{"id":"100000383155614","name":"Phạm Thúc Hưng","type":"user","offset":0,"length":14}],"can_remove":false,"created_time":"2013-06-20T01:46:09+0000","like_count":0,"user_likes":false},"673004479382899":{"id":"673004479382899","from":{"id":"100000383155614","name":"Phạm Thúc Hưng"},"message":"Cám ơn mọi người đã cho ý kiến, t sẽ sửa khi thêm nó vào file nhé, còn đếm nhà để chiều hỏi lại bạn t rồi chú thích vào file luôn :d","can_remove":false,"created_time":"2013-06-20T02:09:24+0000","like_count":0,"user_likes":false},"673203016029712":{"id":"673203016029712","from":{"id":"100004380181780","name":"Be Boo"},"message":"Thế a phảj vjết rõ ra chứ tạj e chưa được học kách đếm này lên thấy mâu thuẫn","can_remove":false,"created_time":"2013-06-20T12:44:42+0000","like_count":0,"user_likes":false},"673243696025644":{"id":"673243696025644","from":{"id":"100000383155614","name":"Phạm Thúc Hưng"},"message":"Mình đã sửa và thêm một số chú thích vào file rồi nhé, các bạn theo dõi lại <3\nhttp://www.facebook.com/groups/229244010425617/doc/673242119359135/","can_remove":false,"created_time":"2013-06-20T14:39:43+0000","like_count":0,"user_likes":false},"673590705990943":{"id":"673590705990943","from":{"id":"100003549909353","name":"Thang Nguyen Van"},"message":"arigatou gozaimasu","can_remove":false,"created_time":"2013-06-21T08:08:08+0000","like_count":0,"user_likes":false}},"paging":{"cursors":{"after":"NjcyODIxOTM2MDY3ODIw","before":"NjcyODIxOTM2MDY3ODIw"},"next":"https://graph.facebook.com/229244010425617_672816926068321/comments?limit=1&summary=1&after=NjcyODIxOTM2MDY3ODIw"},"summary":{"order":"chronological","total_count":9}}}