{"id":"229244010425617_673007542715926","type":"status","from":{"id":"100000064686295","name":"Huy Roli"},"message":"có bạn viết cấu trúc này mà mình ko hiểu nghĩa という事ですか？các bạn giúp mình cái. cảm ơn nhiều nhiều","created_time":"2013-06-20T02:19:21+0000","updated_time":"2013-06-20T03:04:11+0000","comments":{"data":{"673012412715439":{"id":"673012412715439","from":{"id":"100001754136107","name":"Nguyễn Tuấn Vũ"},"message":"mình hiểu là:lời khẳng đinh,\nnó là cấu trúc N ．．。ということ","can_remove":false,"created_time":"2013-06-20T02:38:23+0000","like_count":0,"user_likes":false},"673012536048760":{"id":"673012536048760","from":{"id":"100001754136107","name":"Nguyễn Tuấn Vũ"},"message":"còn thêm か　 vào thì nó thành câu nghi vấn\nVD","can_remove":false,"created_time":"2013-06-20T02:38:48+0000","like_count":0,"user_likes":false},"673012822715398":{"id":"673012822715398","from":{"id":"100001754136107","name":"Nguyễn Tuấn Vũ"},"message":"Châu Hoàng","message_tags":[{"id":"1693102459","name":"Châu Hoàng","type":"user","offset":0,"length":10}],"can_remove":false,"created_time":"2013-06-20T02:39:37+0000","like_count":0,"user_likes":false},"673014246048589":{"id":"673014246048589","from":{"id":"100001458099624","name":"Kham Pha"},"message":"Có bài viết về という trong mục file đấy. \nhttps://www.facebook.com/groups/229244010425617/doc/595675600449121/","can_remove":false,"created_time":"2013-06-20T02:44:29+0000","like_count":0,"user_likes":false},"673019106048103":{"id":"673019106048103","from":{"id":"641210676","name":"Vo Si Van"},"message":"Nghĩa là: có phải là ~thế này không?","can_remove":false,"created_time":"2013-06-20T03:02:10+0000","like_count":0,"user_likes":false},"673019786048035":{"id":"673019786048035","from":{"id":"641210676","name":"Vo Si Van"},"message":"Thường dùng để xác nhận lại 1 việc không rõ lắm nên hỏi lại bằng cách diễn dịch nghĩa nó ra và hỏi lại là có phải việc đó có nghĩa là thế này không?","can_remove":false,"created_time":"2013-06-20T03:04:11+0000","like_count":2,"user_likes":false}},"paging":{"cursors":{"after":"NjczMDEyNDEyNzE1NDM5","before":"NjczMDEyNDEyNzE1NDM5"},"next":"https://graph.facebook.com/229244010425617_673007542715926/comments?limit=1&summary=1&after=NjczMDEyNDEyNzE1NDM5"},"summary":{"order":"chronological","total_count":6}},"likes":{"data":[]}}