{"id":"229244010425617_673590195990994","type":"status","from":{"id":"100003549909353","name":"Thang Nguyen Van"},"message":"hajimemashite, watashi wa kintachi desu ,ha noi kara kimashita,ha noi kougyou daigaku no gakusei desu. douzo yoroshiku onegaishimasu , domo arigatou gozaimasu","created_time":"2013-06-21T08:06:02+0000","updated_time":"2013-06-21T10:25:20+0000","likes":{"data":{"100003186413787":{"id":"100003186413787","name":"HiEn Thuc PK"},"100003497955071":{"id":"100003497955071","name":"Key Pass"},"100004101363917":{"id":"100004101363917","name":"Lan Anh Mẫn"},"1267084162":{"id":"1267084162","name":"Salt Mint"},"100003091961348":{"id":"100003091961348","name":"Nguyen Ngoc Phuc"}},"paging":{"cursors":{"after":"MTAwMDAzMTg2NDEzNzg3","before":"MTAwMDAzMTg2NDEzNzg3"},"next":"https://graph.facebook.com/229244010425617_673590195990994/likes?limit=1&summary=1&after=MTAwMDAzMTg2NDEzNzg3"},"summary":{"total_count":5}},"comments":{"data":{"673593742657306":{"id":"673593742657306","from":{"id":"100003091961348","name":"Nguyen Ngoc Phuc"},"message":"Yoroshiku onegajshimasu :3","can_remove":false,"created_time":"2013-06-21T08:20:38+0000","like_count":0,"user_likes":false},"673593825990631":{"id":"673593825990631","from":{"id":"100003549909353","name":"Thang Nguyen Van"},"message":"arigatou","can_remove":false,"created_time":"2013-06-21T08:20:59+0000","like_count":0,"user_likes":false},"673594585990555":{"id":"673594585990555","from":{"id":"100003549909353","name":"Thang Nguyen Van"},"message":"suminasen Phuc Seven","message_tags":[{"id":"100003091961348","name":"Phuc Seven","type":"user","offset":10,"length":10}],"can_remove":false,"created_time":"2013-06-21T08:23:33+0000","like_count":0,"user_likes":false},"673594689323878":{"id":"673594689323878","from":{"id":"1267084162","name":"Salt Mint"},"message":"Viết toàn bằng furigana, đọc xong hoa cả mắt :P","can_remove":false,"created_time":"2013-06-21T08:23:59+0000","like_count":0,"user_likes":false},"673594749323872":{"id":"673594749323872","from":{"id":"100003549909353","name":"Thang Nguyen Van"},"message":"hai, mới học mà","can_remove":false,"created_time":"2013-06-21T08:24:20+0000","like_count":1,"user_likes":false},"673594855990528":{"id":"673594855990528","from":{"id":"100003549909353","name":"Thang Nguyen Van"},"message":"mình học ở nhà , lên có gì mọi người dạy bảo nhá ,arigatou","can_remove":false,"created_time":"2013-06-21T08:24:56+0000","like_count":0,"user_likes":false},"673594912657189":{"id":"673594912657189","from":{"id":"1267084162","name":"Salt Mint"},"message":"biết mà ^^ nhưng đúng là học lâu rồi giờ mà đọc tiếng Nhật ko có chữ Hán là chịu ko đọc được chứ đừng nói là furigana","can_remove":false,"created_time":"2013-06-21T08:25:12+0000","like_count":0,"user_likes":false},"673595072657173":{"id":"673595072657173","from":{"id":"100003549909353","name":"Thang Nguyen Van"},"message":"bạn ở bên nihon à","can_remove":false,"created_time":"2013-06-21T08:25:46+0000","like_count":0,"user_likes":false},"673595205990493":{"id":"673595205990493","from":{"id":"100003549909353","name":"Thang Nguyen Van"},"message":"mà không biết chữ hán có phải chữ china ko nhỉ","can_remove":false,"created_time":"2013-06-21T08:26:37+0000","like_count":1,"user_likes":false},"673595639323783":{"id":"673595639323783","from":{"id":"100003549909353","name":"Thang Nguyen Van"},"message":"mình ngốc lắm hả ,","can_remove":false,"created_time":"2013-06-21T08:29:06+0000","like_count":0,"user_likes":false},"673595662657114":{"id":"673595662657114","from":{"id":"1267084162","name":"Salt Mint"},"message":"Chữ China thời xưa, bọn Tủng Của giờ viết chữ giản thể hết rồi. tớ ở Hà Lội bạn ạ","can_remove":false,"created_time":"2013-06-21T08:29:14+0000","like_count":0,"user_likes":false},"673595749323772":{"id":"673595749323772","from":{"id":"1267084162","name":"Salt Mint"},"message":"Sao ngốc, ko học sao biết được. Đời tớ tớ còn chả mơ đọc được mấy cái chữ chân gà chân vịt này nữa là","can_remove":false,"created_time":"2013-06-21T08:29:49+0000","like_count":0,"user_likes":false},"673595779323769":{"id":"673595779323769","from":{"id":"100003549909353","name":"Thang Nguyen Van"},"message":"đồng hương rùi ,,, yoroshiku","can_remove":false,"created_time":"2013-06-21T08:29:56+0000","like_count":0,"user_likes":false},"673595929323754":{"id":"673595929323754","from":{"id":"100003549909353","name":"Thang Nguyen Van"},"message":"mình mới học lặt vặt à","can_remove":false,"created_time":"2013-06-21T08:30:26+0000","like_count":1,"user_likes":false},"673596025990411":{"id":"673596025990411","from":{"id":"100003549909353","name":"Thang Nguyen Van"},"message":"mới đc bài 1 minna no nihongo à","can_remove":false,"created_time":"2013-06-21T08:30:42+0000","like_count":0,"user_likes":false},"673596189323728":{"id":"673596189323728","from":{"id":"100003549909353","name":"Thang Nguyen Van"},"message":"bạn có học ở trung tâm nào ở hà nội ko thế","can_remove":false,"created_time":"2013-06-21T08:31:05+0000","like_count":0,"user_likes":false},"673596205990393":{"id":"673596205990393","from":{"id":"1267084162","name":"Salt Mint"},"message":"điêu, 1 bài mà viết được thế này :V","can_remove":false,"created_time":"2013-06-21T08:31:08+0000","like_count":0,"user_likes":false},"673596275990386":{"id":"673596275990386","from":{"id":"1267084162","name":"Salt Mint"},"message":"tớ đi dạy rồi bạn ạ :))))))","can_remove":false,"created_time":"2013-06-21T08:31:24+0000","like_count":0,"user_likes":false},"673596282657052":{"id":"673596282657052","from":{"id":"100003549909353","name":"Thang Nguyen Van"},"message":"êto","can_remove":false,"created_time":"2013-06-21T08:31:25+0000","like_count":0,"user_likes":false},"673596335990380":{"id":"673596335990380","from":{"id":"100003549909353","name":"Thang Nguyen Van"},"message":"dạy ở đâu thế bạn","can_remove":false,"created_time":"2013-06-21T08:31:40+0000","like_count":0,"user_likes":false},"673596405990373":{"id":"673596405990373","from":{"id":"100003549909353","name":"Thang Nguyen Van"},"message":"chắc có khi gặp nhau chẳng hạn","can_remove":false,"created_time":"2013-06-21T08:31:51+0000","like_count":0,"user_likes":false},"673596685990345":{"id":"673596685990345","from":{"id":"100003549909353","name":"Thang Nguyen Van"},"message":"mình học đc bài 1 thật mà ,vì mình học video và ít ngữ pháp nữa à","can_remove":false,"created_time":"2013-06-21T08:32:15+0000","like_count":0,"user_likes":false},"673596749323672":{"id":"673596749323672","from":{"id":"100003549909353","name":"Thang Nguyen Van"},"message":"chỉ là cb để đi học ở trung tâm vào hè này thui à","can_remove":false,"created_time":"2013-06-21T08:32:32+0000","like_count":0,"user_likes":false},"673596889323658":{"id":"673596889323658","from":{"id":"100003549909353","name":"Thang Nguyen Van"},"message":"mình ở hà nội koygyou daikagu gakusei desu!","can_remove":false,"created_time":"2013-06-21T08:33:17+0000","like_count":0,"user_likes":false},"673597029323644":{"id":"673597029323644","from":{"id":"100003549909353","name":"Thang Nguyen Van"},"message":"bạn có biết ko Hà Thanh _chan","message_tags":[{"id":"1267084162","name":"Hà Thanh","type":"user","offset":15,"length":8}],"can_remove":false,"created_time":"2013-06-21T08:33:46+0000","like_count":0,"user_likes":false},"673597165990297":{"id":"673597165990297","from":{"id":"1267084162","name":"Salt Mint"},"message":"biết :)))  Hà Lội...nhầm Hà nội nhỏ mừ","can_remove":false,"created_time":"2013-06-21T08:34:29+0000","like_count":0,"user_likes":false},"673597259323621":{"id":"673597259323621","from":{"id":"1267084162","name":"Salt Mint"},"message":"chắc chưa gặp đâu :)))","can_remove":false,"created_time":"2013-06-21T08:34:48+0000","like_count":0,"user_likes":false},"673597349323612":{"id":"673597349323612","from":{"id":"100003549909353","name":"Thang Nguyen Van"},"message":"ơ lá sao","can_remove":false,"created_time":"2013-06-21T08:34:58+0000","like_count":0,"user_likes":false},"673597532656927":{"id":"673597532656927","from":{"id":"100003549909353","name":"Thang Nguyen Van"},"message":"bạn có dạy ở dhcn hà nội ko","can_remove":false,"created_time":"2013-06-21T08:35:19+0000","like_count":0,"user_likes":false},"673597552656925":{"id":"673597552656925","from":{"id":"1267084162","name":"Salt Mint"},"message":"tại tớ tốt nghiệp và đi làm lâu rồi chứ sao","can_remove":false,"created_time":"2013-06-21T08:35:22+0000","like_count":0,"user_likes":false},"673597722656908":{"id":"673597722656908","from":{"id":"100003549909353","name":"Thang Nguyen Van"},"message":"ờ nhà bạn ở hai ba trung à","can_remove":false,"created_time":"2013-06-21T08:35:40+0000","like_count":0,"user_likes":false},"673597805990233":{"id":"673597805990233","from":{"id":"1267084162","name":"Salt Mint"},"message":"ko, tớ hồi trước dạy cho FPT với lại Terumo","can_remove":false,"created_time":"2013-06-21T08:35:49+0000","like_count":0,"user_likes":false},"673597885990225":{"id":"673597885990225","from":{"id":"1267084162","name":"Salt Mint"},"message":"ko, sao hỏi thế?","can_remove":false,"created_time":"2013-06-21T08:35:57+0000","like_count":0,"user_likes":false},"673598065990207":{"id":"673598065990207","from":{"id":"100003549909353","name":"Thang Nguyen Van"},"message":"à, tờ thấy bản đồ nhà bạn ở đó mà","can_remove":false,"created_time":"2013-06-21T08:36:17+0000","like_count":0,"user_likes":false},"673598179323529":{"id":"673598179323529","from":{"id":"100003549909353","name":"Thang Nguyen Van"},"message":"ko có gì đâu","can_remove":false,"created_time":"2013-06-21T08:36:35+0000","like_count":0,"user_likes":false},"673598249323522":{"id":"673598249323522","from":{"id":"100003549909353","name":"Thang Nguyen Van"},"message":"bạn cho mình hỏi 1 số thứ nhá","can_remove":false,"created_time":"2013-06-21T08:36:57+0000","like_count":0,"user_likes":false},"673598409323506":{"id":"673598409323506","from":{"id":"100003549909353","name":"Thang Nguyen Van"},"message":"học  1 khóa tiếng nhật mấy tháng vậy bạn, mà có thi lấy chứng chỉ ko thế ,","can_remove":false,"created_time":"2013-06-21T08:37:31+0000","like_count":0,"user_likes":false},"673598632656817":{"id":"673598632656817","from":{"id":"1267084162","name":"Salt Mint"},"message":"tớ ko hiểu ý bạn, bạn hỏi khóa học nào ?","can_remove":false,"created_time":"2013-06-21T08:38:32+0000","like_count":0,"user_likes":false},"673598682656812":{"id":"673598682656812","from":{"id":"1267084162","name":"Salt Mint"},"message":"tớ giờ sắp mở 1 lớp cơ bản ở tận Nguyễn Tuân","can_remove":false,"created_time":"2013-06-21T08:38:46+0000","like_count":0,"user_likes":false},"673598712656809":{"id":"673598712656809","from":{"id":"100003549909353","name":"Thang Nguyen Van"},"message":"khóa mới học à","can_remove":false,"created_time":"2013-06-21T08:38:53+0000","like_count":0,"user_likes":false},"673598749323472":{"id":"673598749323472","from":{"id":"1267084162","name":"Salt Mint"},"message":"sau 3 tháng thì trình độ đạt đến bài 12, nội dung chủ yếu rèn nghe nói thôi","can_remove":false,"created_time":"2013-06-21T08:39:04+0000","like_count":0,"user_likes":false},"673598759323471":{"id":"673598759323471","from":{"id":"100003549909353","name":"Thang Nguyen Van"},"message":"xa dhcn ko nhỉ","can_remove":false,"created_time":"2013-06-21T08:39:06+0000","like_count":0,"user_likes":false},"673598855990128":{"id":"673598855990128","from":{"id":"100003549909353","name":"Thang Nguyen Van"},"message":"à","can_remove":false,"created_time":"2013-06-21T08:39:32+0000","like_count":0,"user_likes":false},"673598909323456":{"id":"673598909323456","from":{"id":"100003549909353","name":"Thang Nguyen Van"},"message":"tại đang kiếm chỗ học à","can_remove":false,"created_time":"2013-06-21T08:39:49+0000","like_count":0,"user_likes":false},"673598962656784":{"id":"673598962656784","from":{"id":"1267084162","name":"Salt Mint"},"message":"ơ hơ, DHCN ở đâu nhỉ, sozy, tớ thuộc loại siêu mù đường, còn trung tâm của tớ ở gần làng sinh viên á","can_remove":false,"created_time":"2013-06-21T08:39:57+0000","like_count":0,"user_likes":false},"673598999323447":{"id":"673598999323447","from":{"id":"100000571251238","name":"Uyển Nhi Dương"},"message":"きんたちさん､日本語が上手ですね！","can_remove":false,"created_time":"2013-06-21T08:40:08+0000","like_count":1,"user_likes":false},"673599102656770":{"id":"673599102656770","from":{"id":"100003549909353","name":"Thang Nguyen Van"},"message":"êto","can_remove":false,"created_time":"2013-06-21T08:40:36+0000","like_count":0,"user_likes":false},"673599115990102":{"id":"673599115990102","from":{"id":"100003549909353","name":"Thang Nguyen Van"},"message":"nhổn","can_remove":false,"created_time":"2013-06-21T08:40:42+0000","like_count":0,"user_likes":false},"673599245990089":{"id":"673599245990089","from":{"id":"1267084162","name":"Salt Mint"},"message":":D lớp dạy tuần 2 buổi, thứ 2 thứ 4 ạ","can_remove":false,"created_time":"2013-06-21T08:41:17+0000","like_count":0,"user_likes":false},"673599305990083":{"id":"673599305990083","from":{"id":"100003549909353","name":"Thang Nguyen Van"},"message":"à","can_remove":false,"created_time":"2013-06-21T08:41:29+0000","like_count":0,"user_likes":false},"673599349323412":{"id":"673599349323412","from":{"id":"100003549909353","name":"Thang Nguyen Van"},"message":"nhưng có gần cầu giấy ko bạn","can_remove":false,"created_time":"2013-06-21T08:41:41+0000","like_count":1,"user_likes":false},"673599405990073":{"id":"673599405990073","from":{"id":"100003549909353","name":"Thang Nguyen Van"},"message":"nhà mình xa lắm ạ","can_remove":false,"created_time":"2013-06-21T08:41:50+0000","like_count":0,"user_likes":false},"673599485990065":{"id":"673599485990065","from":{"id":"100003549909353","name":"Thang Nguyen Van"},"message":"ở hoài đức à","can_remove":false,"created_time":"2013-06-21T08:41:55+0000","like_count":0,"user_likes":false},"673599669323380":{"id":"673599669323380","from":{"id":"100003549909353","name":"Thang Nguyen Van"},"message":"arigatou gozaimasu uyển nhi hương _chan","can_remove":false,"created_time":"2013-06-21T08:42:56+0000","like_count":0,"user_likes":false},"673599782656702":{"id":"673599782656702","from":{"id":"1267084162","name":"Salt Mint"},"message":"cậu google map hộ tớ tí, nói thật là tớ cũng chả biết nhà cậu ở mô nữa :D","can_remove":false,"created_time":"2013-06-21T08:43:16+0000","like_count":0,"user_likes":false},"673599805990033":{"id":"673599805990033","from":{"id":"100003549909353","name":"Thang Nguyen Van"},"message":"mình nghĩ tên của mình trong tiếng nhật ko có à vì nó bị viết thiếu à","can_remove":false,"created_time":"2013-06-21T08:43:29+0000","like_count":0,"user_likes":false},"673599819323365":{"id":"673599819323365","from":{"id":"100003549909353","name":"Thang Nguyen Van"},"message":"ù","can_remove":false,"created_time":"2013-06-21T08:43:32+0000","like_count":0,"user_likes":false},"673599845990029":{"id":"673599845990029","from":{"id":"1267084162","name":"Salt Mint"},"message":"90 Nguyễn Tuân nhé, mạn Thanh xuân á","can_remove":false,"created_time":"2013-06-21T08:43:39+0000","like_count":0,"user_likes":false},"673599865990027":{"id":"673599865990027","from":{"id":"100003549909353","name":"Thang Nguyen Van"},"message":"có gì mình nc sau nhá tớ phải về rui","can_remove":false,"created_time":"2013-06-21T08:43:47+0000","like_count":1,"user_likes":false},"673599882656692":{"id":"673599882656692","from":{"id":"100003549909353","name":"Thang Nguyen Van"},"message":"jaa,matane","can_remove":false,"created_time":"2013-06-21T08:43:54+0000","like_count":0,"user_likes":false},"673599915990022":{"id":"673599915990022","from":{"id":"1267084162","name":"Salt Mint"},"message":"mata :))))","can_remove":false,"created_time":"2013-06-21T08:44:07+0000","like_count":0,"user_likes":false},"673599932656687":{"id":"673599932656687","from":{"id":"100003549909353","name":"Thang Nguyen Van"},"message":"hajimemashite","can_remove":false,"created_time":"2013-06-21T08:44:10+0000","like_count":0,"user_likes":false},"673600029323344":{"id":"673600029323344","from":{"id":"1267084162","name":"Salt Mint"},"message":"giờ còn hajime gì nữa, chả chat mòn bàn phím ra rồi, yoroshiku thui","can_remove":false,"created_time":"2013-06-21T08:44:43+0000","like_count":1,"user_likes":false},"673601959323151":{"id":"673601959323151","from":{"id":"100004441680220","name":"Đông Phương Póc"},"message":"こちらこそ、 よろしく お願いします。 :3","can_remove":false,"created_time":"2013-06-21T08:52:41+0000","like_count":1,"user_likes":false},"673626829320664":{"id":"673626829320664","from":{"id":"100005703781828","name":"Lê Nam"},"message":"あほ","can_remove":false,"created_time":"2013-06-21T10:25:20+0000","like_count":1,"user_likes":false}},"paging":{"cursors":{"after":"NjczNTkzNzQyNjU3MzA2","before":"NjczNTkzNzQyNjU3MzA2"},"next":"https://graph.facebook.com/229244010425617_673590195990994/comments?limit=1&summary=1&after=NjczNTkzNzQyNjU3MzA2"},"summary":{"order":"chronological","total_count":65}}}