{"id":"229244010425617_673727489310598","type":"status","from":{"id":"881070057","name":"Pham Viet Ha"},"message":"có bạn Sinh Viên nào đang học tiếng Nhật bây giờ muốn học thêm Tiếng ANH solo 1 thầy 1 trò thì bảo mình nhé!!! Mình đang cần học Tiếng Nhật solo 1vs1 và sẽ dạy Tiếng Anh cho bạn luôn!!!! Mong tìm được bạn học cùng mục đích và sớm giúp đỡ được nhau hoàn thiện 2 ngoại ngữ quan trọng này!","created_time":"2013-06-21T14:29:31+0000","updated_time":"2013-06-22T11:32:00+0000","likes":{"data":{"100003683666961":{"id":"100003683666961","name":"Củ Cải Nhỏ"},"100003785055521":{"id":"100003785055521","name":"Tiểu Long Nữ"},"100004697134434":{"id":"100004697134434","name":"Thảo Xexekubo"},"100003607440649":{"id":"100003607440649","name":"Akina Nguyễn"},"1596952608":{"id":"1596952608","name":"Thien Nguyen"},"100002233956613":{"id":"100002233956613","name":"Thai Huyen"},"100004522868615":{"id":"100004522868615","name":"Nguyễn Văn Vinh"},"100001628612184":{"id":"100001628612184","name":"Mai Tròn"},"100003476298537":{"id":"100003476298537","name":"Chang Nguyen"},"100000155705946":{"id":"100000155705946","name":"Pe Nam"},"100004009345656":{"id":"100004009345656","name":"Hung Trinh"},"100001458099624":{"id":"100001458099624","name":"Kham Pha"},"100002098748602":{"id":"100002098748602","name":"Thuần Việt"},"100002493819706":{"id":"100002493819706","name":"Giang Nguyen"},"100000207382156":{"id":"100000207382156","name":"Nguyễn Hồng Nga"},"100003304300537":{"id":"100003304300537","name":"Kim Do"},"100003877275415":{"id":"100003877275415","name":"Yuki"},"100003291913734":{"id":"100003291913734","name":"Phuong Le"},"1821970083":{"id":"1821970083","name":"Nguyễn Mạnh Cường"},"100000083393860":{"id":"100000083393860","name":"Bùi Minh Kết"},"100000050843975":{"id":"100000050843975","name":"Chè Kem"},"1267084162":{"id":"1267084162","name":"Salt Mint"},"100003497955071":{"id":"100003497955071","name":"Key Pass"},"100005571974356":{"id":"100005571974356","name":"Thẻ Gọi Quốc Tế"}},"paging":{"cursors":{"after":"MTAwMDAzNjgzNjY2OTYx","before":"MTAwMDAzNjgzNjY2OTYx"},"next":"https://graph.facebook.com/229244010425617_673727489310598/likes?limit=1&summary=1&after=MTAwMDAzNjgzNjY2OTYx"},"summary":{"total_count":24}},"comments":{"data":{"673736585976355":{"id":"673736585976355","from":{"id":"100003291913734","name":"Phuong Le"},"message":"cung chung muc dich ^^","can_remove":false,"created_time":"2013-06-21T14:46:30+0000","like_count":0,"user_likes":false},"673736609309686":{"id":"673736609309686","from":{"id":"1821970083","name":"Nguyễn Mạnh Cường"},"message":"Có mình, nhưng mà chị đang học tiếng Nhật ở mức nào ạ","can_remove":false,"created_time":"2013-06-21T14:46:34+0000","like_count":1,"user_likes":false},"673737045976309":{"id":"673737045976309","from":{"id":"1821970083","name":"Nguyễn Mạnh Cường"},"message":"Hic, loạn ngôn, tại nhìn profile của chị thấy fai xưng hô thế, em chị :D","can_remove":false,"created_time":"2013-06-21T14:47:32+0000","like_count":0,"user_likes":false},"673766109306736":{"id":"673766109306736","from":{"id":"100001458099624","name":"Kham Pha"},"message":"Ku Cường ghi rõ là 1 thầy 1 trò mà sao lại chị :D\nPham Viet Ha ko biết anh định học dạy thế nào, qua đâu?","message_tags":[{"id":"1821970083","name":"Ku Cường","type":"user","offset":0,"length":8},{"id":"881070057","name":"Pham Viet Ha","type":"user","offset":50,"length":12}],"can_remove":false,"created_time":"2013-06-21T15:28:19+0000","like_count":1,"user_likes":false},"673768179306529":{"id":"673768179306529","from":{"id":"1821970083","name":"Nguyễn Mạnh Cường"},"message":":)) đúng rồi, phải là Anh chứ :)) rõ khổ tại soi mỗi avatar.","can_remove":false,"created_time":"2013-06-21T15:32:50+0000","like_count":0,"user_likes":false},"673783712638309":{"id":"673783712638309","from":{"id":"100003795586875","name":"Huyen Nguyen"},"message":"day tren skype ah","can_remove":false,"created_time":"2013-06-21T15:56:26+0000","like_count":0,"user_likes":false},"673784415971572":{"id":"673784415971572","from":{"id":"100001906662819","name":"Diện Thạch"},"message":"3 năm học Nhật r, h đang muốn quay về Anh đây, solo 1vs 1 thì tốt quá, ko biết b định học kiểu gì ??","can_remove":false,"created_time":"2013-06-21T15:58:41+0000","like_count":0,"user_likes":false},"673786759304671":{"id":"673786759304671","from":{"id":"100003795586875","name":"Huyen Nguyen"},"message":"gjo ko nho tj gj ve tjeg ah .hjx","can_remove":false,"created_time":"2013-06-21T16:04:26+0000","like_count":1,"user_likes":false},"673788179304529":{"id":"673788179304529","from":{"id":"100003476298537","name":"Chang Nguyen"},"message":"E hoc cung dc k ak?Tjnh hjnh la nhjeu ng muon hoc qua thay oj ?","can_remove":false,"created_time":"2013-06-21T16:07:25+0000","like_count":0,"user_likes":false},"673925605957453":{"id":"673925605957453","from":{"id":"100003759697108","name":"Lê Văn Thành"},"message":"Tôi cug muon hok","can_remove":false,"created_time":"2013-06-21T22:35:26+0000","like_count":0,"user_likes":false},"674088765941137":{"id":"674088765941137","from":{"id":"100002329538994","name":"Xuka Sakura"},"message":"Pham Viet Ha Thầy ơi, e cũng muốn học ạ^^ nhiều ng muốn học quá, hay mọi người cùng lập nhóm luyện dịch Nhật - Anh đi :D cho e join học nhóm vs ạ,","message_tags":[{"id":"881070057","name":"Pham Viet Ha","type":"user","offset":0,"length":12}],"can_remove":false,"created_time":"2013-06-22T04:48:53+0000","like_count":0,"user_likes":false},"674160389267308":{"id":"674160389267308","from":{"id":"100003759697108","name":"Lê Văn Thành"},"message":"Uk nghe hop li day","can_remove":false,"created_time":"2013-06-22T09:30:20+0000","like_count":0,"user_likes":false},"674161389267208":{"id":"674161389267208","from":{"id":"881070057","name":"Pham Viet Ha"},"message":"Thuc ra minh co' lam` viec. voi JAL 3 na(m nhu*ng lai. ko chiu. noi' 1 ca^u tieng' NHAT. nao` :)) \nHoi` lam` voi cac ban. NHAT thi` ko u*a nguoi` NHAT. ti' nao`, nhu*ng bay gio` lai. muon' hoc. Tieng Nhat. vi` rat thich VAN HOA va DU LICH Nhat. Ban? !!!!","can_remove":false,"created_time":"2013-06-22T09:33:55+0000","like_count":3,"user_likes":false},"674161942600486":{"id":"674161942600486","from":{"id":"881070057","name":"Pham Viet Ha"},"message":"Minh` chua biet' tieng Nhat. gi` nhieu`! Muon hoc. tu` dau` luon!!! Con` tieng ANH thi` yen tam la` khi SOLO 1vs1 se~ len rat' nhanh!","can_remove":false,"created_time":"2013-06-22T09:35:22+0000","like_count":1,"user_likes":false},"674165175933496":{"id":"674165175933496","from":{"id":"100003759697108","name":"Lê Văn Thành"},"message":"Vay ak","can_remove":false,"created_time":"2013-06-22T09:45:53+0000","like_count":0,"user_likes":false},"674165235933490":{"id":"674165235933490","from":{"id":"100003759697108","name":"Lê Văn Thành"},"message":"Mih muon học tieng nhat de giao tiep","can_remove":false,"created_time":"2013-06-22T09:46:06+0000","like_count":0,"user_likes":false},"674165365933477":{"id":"674165365933477","from":{"id":"100003759697108","name":"Lê Văn Thành"},"message":"Mih cug muon hok bdau tu dau cho chac","can_remove":false,"created_time":"2013-06-22T09:46:20+0000","like_count":0,"user_likes":false},"674170062599674":{"id":"674170062599674","from":{"id":"100000042138129","name":"Duong David"},"message":"Ko ưa người Nhật tí nào? Ủa, làm gì mà đến nỗi đó vậy bạn?","can_remove":false,"created_time":"2013-06-22T10:05:38+0000","like_count":0,"user_likes":false},"674170929266254":{"id":"674170929266254","from":{"id":"100002329538994","name":"Xuka Sakura"},"message":"Pham Viet Ha nếu thầy muốn thật sự học tiếng Nhật e rất muốn thầy trò ta giúp nhau ạ. E muốn luyện tiếng Anh( đặc biệt là phát âm, ) nên nếu học từ đầu thì học đc từ tiếng Nhật nào mong thầy chỉnh sửa e phát âm tiếng Anh của từ đấy :P được k ạ ??","message_tags":[{"id":"881070057","name":"Pham Viet Ha","type":"user","offset":0,"length":12}],"can_remove":false,"created_time":"2013-06-22T10:08:20+0000","like_count":1,"user_likes":false},"674190535930960":{"id":"674190535930960","from":{"id":"100004697134434","name":"Thảo Xexekubo"},"message":"Pham Viet Ha giup to hoc tieng Anh voi to bk tieng Nhatj nhung tieng Anh vi to hoc thoi pho thong ma o dh lai ko dk hoc nen bay gio rat mun hoc","message_tags":[{"id":"881070057","name":"Pham Viet Ha","type":"user","offset":0,"length":12}],"can_remove":false,"created_time":"2013-06-22T11:17:09+0000","like_count":1,"user_likes":false},"674194652597215":{"id":"674194652597215","from":{"id":"100003785055521","name":"Tiểu Long Nữ"},"message":"to dang o HN nghe hop ly hon day Thảo. ah","can_remove":false,"created_time":"2013-06-22T11:30:29+0000","like_count":0,"user_likes":false},"674195059263841":{"id":"674195059263841","from":{"id":"100004697134434","name":"Thảo Xexekubo"},"message":"Thế thy chúc mừng cậu !!!","can_remove":false,"created_time":"2013-06-22T11:32:00+0000","like_count":0,"user_likes":false}},"paging":{"cursors":{"after":"NjczNzM2NTg1OTc2MzU1","before":"NjczNzM2NTg1OTc2MzU1"},"next":"https://graph.facebook.com/229244010425617_673727489310598/comments?limit=1&summary=1&after=NjczNzM2NTg1OTc2MzU1"},"summary":{"order":"chronological","total_count":22}}}