{"id":"229244010425617_674076665942347","type":"status","from":{"id":"100001628612184","name":"Mai Tròn"},"message":"Mọi người ơi cho em hỏi từ này có nghĩa là gì ạ? キャリアーアップ... Arigatou gozaimasu.","created_time":"2013-06-22T04:06:48+0000","updated_time":"2013-06-22T08:26:47+0000","likes":{"data":{"100001458099624":{"id":"100001458099624","name":"Kham Pha"}},"paging":{"cursors":{"after":"MTAwMDAxNDU4MDk5NjI0","before":"MTAwMDAxNDU4MDk5NjI0"}},"summary":{"total_count":1}},"comments":{"data":{"674078215942192":{"id":"674078215942192","from":{"id":"100001416272263","name":"Mai PB"},"message":"Là career enhancement, tiến triển trong sự nghiệp","can_remove":false,"created_time":"2013-06-22T04:13:05+0000","like_count":5,"user_likes":false},"674078592608821":{"id":"674078592608821","from":{"id":"100001628612184","name":"Mai Tròn"},"message":"Arigatou gozaimasu...Mai PB","message_tags":[{"id":"100001416272263","name":"Mai PB","type":"user","offset":21,"length":6}],"can_remove":false,"created_time":"2013-06-22T04:14:09+0000","like_count":0,"user_likes":false},"674080355941978":{"id":"674080355941978","from":{"id":"100001416272263","name":"Mai PB"},"message":"Từ điển này rất hay, Anh  <--> Nhật : http://endic.naver.jp/","can_remove":false,"created_time":"2013-06-22T04:19:04+0000","like_count":3,"user_likes":false},"674088492607831":{"id":"674088492607831","from":{"id":"100000042138129","name":"Duong David"},"message":"Hình như là kyaria appu--có thể là carry up: Hãy tiếp tục cố gắng nhé. (giống kiểu gambatte ne)","can_remove":false,"created_time":"2013-06-22T04:47:36+0000","like_count":1,"user_likes":false},"674138562602824":{"id":"674138562602824","from":{"id":"100000198219367","name":"Chang Jiang"},"message":"Career Up :D","can_remove":false,"created_time":"2013-06-22T08:18:20+0000","like_count":1,"user_likes":false},"674140459269301":{"id":"674140459269301","from":{"id":"100000082245688","name":"Nguyễn Tiến Tuấn"},"message":"Muốn biết nghĩa từ nào, các mem vào đây nhé http://www.goo.ne.jp/","can_remove":false,"created_time":"2013-06-22T08:25:53+0000","like_count":1,"user_likes":false},"674140622602618":{"id":"674140622602618","from":{"id":"100000082245688","name":"Nguyễn Tiến Tuấn"},"message":"Tab 辞書","can_remove":false,"created_time":"2013-06-22T08:26:47+0000","like_count":0,"user_likes":false}},"paging":{"cursors":{"after":"Njc0MDc4MjE1OTQyMTky","before":"Njc0MDc4MjE1OTQyMTky"},"next":"https://graph.facebook.com/229244010425617_674076665942347/comments?limit=1&summary=1&after=Njc0MDc4MjE1OTQyMTky"},"summary":{"order":"chronological","total_count":7}}}