{"id":"229244010425617_674066125943401","type":"video","picture":"https://fbexternal-a.akamaihd.net/safe_image.php?d=AQCHiWh9AyzDBU-r&w=130&h=130&url=http%3A%2F%2Fi1.ytimg.com%2Fvi%2F6cecghPVaos%2Fmaxresdefault.jpg%3Ffeature%3Dog","link":"http://www.youtube.com/watch?v=6cecghPVaos","source":"http://www.youtube.com/v/6cecghPVaos?autohide=1&version=3&autoplay=1","from":{"id":"100001458099624","name":"Kham Pha"},"message":"Bài 124: Học tiếng Nhật qua các bài hát (Phần 4: さよなら　大好きな人)\n\nChào các bạn. Chuyên mục \"Học tiếng Nhật qua các bài hát\" bẵng đi một thời gian bị ngừng vì mình bận chuyện cá nhân. Thật ra đến bây giờ vẫn chưa hết bận, deadline còn một đống nhưng thấy có bạn điền vào phiếu điều tra (trên đầu group) hỏi sao chuyên mục lại dừng. Nghĩ lại bận thì bân nhưng cố gắng sắp xếp thời gian 2,3 tiếng ngồi viết cho các bạn thì cũng ko vấn đề gì nên lại viết.\nHôm nay chúng ta sẽ học tiếng Nhật qua bài hát さよなら　大好きな人. Đây là một bài hát khá hay, đợt trước cũng nhiều bạn yêu cầu. Bài hát giọng nữ nên sẽ được dịch dưới giọng nữ. Sau đây xin mời các bạn cùng thưởng thức. \n\n歌：スピッツ\n作詞：こじまいづみ\n作曲：こじまいづみ\n\nhttp://www.youtube.com/watch?v=6cecghPVaos\n\n（１）さよなら 大好きな人\n“Tạm biệt người em yêu”\n\n大（だい）好（す）き: rất yêu, rất thích\nさよなら: tạm biệt, vĩnh biệt. Thường các bạn nào mới học tiếng Nhật sẽ hay dùng từ này để tạm biệt. Nhưng sự thật thì ít khi người Nhật dụng từ này để tạm biệt lắm. Thay vào đó là họ dùng “また- hẹn gặp lại”. Vậy những ai thường hay nói さよなら? Trẻ con cấp 1, những người xa nhau một thời gian dài. Để cho tiếng Nhật của bạn tự nhiên hơn thì tốt hơn nên dùng  また、また明日、また来週、また今度、。。。\n \n（２）まだ 大好きな人\n“Vẫn mãi là người em yêu”\n\nまだ： vẫn\n\n（３）くやしいよ とても\n“Dù rất hối hận”\n\n悔しい：hối hận. Một từ khác tương đương 後悔（こうかい）.\n\n（４）悲しいよ とても\n“rất đau khổ” \n\n悲（かな）しい：buồn khổ. Nhiều bạn hay nhầm tưởng 寂（さび）しい là buồn, nhưng buồn đó là buồn cô đơn. Còn 悲しい là buồn kiểu đau khổ.\n\n（５）もう かえってこない\n“Nhưng anh đã không trở về nữa rồi”\n\n帰って来ない：phủ định của 帰ってくる, nghĩa là “trở về”.  帰ってくる khác 帰る ở chỗ nó là “trở về bên em”. Có くる tức là có hướng về phía người nói. \nもう : đã. Từ tương đương 既（すで）に dùng trong văn viết. \n \n（６）それでも私の 大好きな人\n“Dù vậy chăng nữa, anh vẫn mãi là người em yêu.” \n\nそれでも： dù vậy chăng nữa, dù là thế\n\n（７）何もかも忘れられない\n“Có lẽ em không quên được bất cứ điều gì”\n\n何も：Cái gì cũng. Mẹo nhỏ cho các bạn. Khi gặp trợ từ も thì động từ sau đấy thường chia phủ định, chỉ trừ trường hợp も nghĩa là “cũng”.\n忘れられない：phủ định khả năng của  忘（わす）れる.  忘れる-”quên” -> 忘れられる-”có thể quên được”-> 忘れられない-”không thể quên được”.\nかも: Có lẽ. Thường dùng như là cách nói ngắn gọn của かもしれない, nghĩa là “có thể”, “có khả năng”. Các bạn có thể tham khảo bài 26 về cấu trúc này. \n\nhttps://www.facebook.com/groups/229244010425617/doc/596271610389520/\n\n（８）何もかも捨てきれない\nCũng không vứt bỏ được điều gì\n捨（す）てる：vứt\n切（き）れない： Vます bỏ ます+きれない là cấu trúc mang ý nghĩa “không làm dứt khoát được điều gì”. Ví dụ: \n食べきれない: không ăn hết được. \n説明しきれない: không giải thích hết được. \n\nNgược lại với nó là cấu trúc  Vます bỏ ます+きれる nghĩa là “làm hết được”. Ví dụ:\n食べきれる : ăn hết được. \n説明しきれる : giải thích hết được.\n\nNgoài ra còn một cấu trúc  Vます bỏ ます+きる nghĩa là gì để dành nốt cho các bạn tự tìm hiểu. Nhưng có vẻ cái này không phải là cấu trúc ngữ pháp, chỉ là một loại của động từ phức hợp hậu tố 切る thôi. Ví dụ: 走り切る.\n\nVề động từ phức hợp các bạn có thể xem thêm bài 72, 73: \n\nhttps://www.facebook.com/groups/229244010425617/doc/623528244330523/\nhttps://www.facebook.com/groups/229244010425617/doc/623528814330466/\n\n（９）こんな自分がみじめで\n“Bản thân trở nên khốn khổ”\n\n惨（みじ）めな：khốn khổ. Tính từ đuôi な chuyển sang trạng từ thành で\n自分（じぶん）：bản thân\n\n（１０）弱くてかわいそうで大きらい\n“yếu đuối, đáng thương thế này trông thật đáng ghét.”\n\n弱（よわ）い：yếu đuối\nかわいそう：đáng thương. \n\n（１１）ずっと 大好きな人\n“Mãi luôn là người em yêu”\n\nずっと: luôn luôn, suốt một khoảng thời gian dài (theo chủ quan).\n\n（１２）泣かないよ 今は\n“Bây giờ em không khóc nữa”\n\n泣（な）く：khóc\n\n（１３）泣かないで 今は\n“Đừng khóc nữa”\n \n（１４）心 はなれていく\n“Trái tim đã rời xa” \n\n離れていく：dần rời xa, từ bỏ\nCác bạn xem lại bài 106 mình có giải thích khá kĩ về các động từ thể hiện quá trình いく,くる.\n\nhttps://www.facebook.com/groups/229244010425617/doc/672941739389173/\n\n（１５）最後だと言いきかせて\n“Lần cuối cùng rồi, em muốn được nghe anh nói”\n\n最後（さいご）：lần cuối, nhát cuối, phát cuối\nだと：dạng giản lược của ～だと言う.Ví dụ:\n何だと Mày nói cái gì cơ?\n\n言い聞（き）かせる：nghĩa là “nói cho nghe”. 聞く là nghe nhưng 聞かせる là “cho nghe”-> 聞かせて là “hãy cho em nghe”. Đây là một loại thể nhưng mà mình quên tên rồi. Bạn nào nhớ thì comment bên dưới cho mình. Rõ ràng câu này có だと言い... vậy thì だと không phải là dạng giản lược, nhưng tại sao mình lại tách ra cho rằng đó là các cấu trúc riêng biệt. Câu trả lời là mình cảm thấy vậy mới hợp lí, có thế thôi. \n\n（１６）最後まで言いきかせて\n“Và muốn được nghe tới tận phút cuối cùng”\n\n（１７）涙よ 止まれ\n“Nước mắt ơi, xin hãy ngừng rơi.”\n\n涙（なみだ）: nước mắt. Các từ có bộ THỦY  bên trái là liên quan đến nước.\n止（と）まれ: Dừng lại. Thể mệnh lệnh của 止まる“dừng, ngừng lại”\nAh cái chữ 止まれ này ở Nhật thú vị lắm, gặp đầy trên đường, biển báo ở Nhật. Lúc khác chụp cái ảnh cho các bạn coi. \n\n（１８）さいごに笑顔を（１９）覚えておくため\n“Hãy để phút cuối cùng đọng lại trong tâm trí là nụ cười. “\n\n笑顔（えがお）: khuôn mặt cười.\n覚（おぼ）えておく:nhớ lấy. Vておく trong văn nói đôi lúc nói tắt thành Vとく, mang ý nghĩa là “làm sẵn đi”, “làm trước đi”. Ví dụ:\n待ち合わせの時はちゃんと連絡先を教えておいてください。\nNhững lúc hẹn gặp nhau thì hãy trao đổi sẵn địa chỉ liên lạc (điện thoại, mail,...) trước đi.\nため: vì\n\nKham Pha\nCộng đồng Việt Nhật","created_time":"2013-06-22T03:28:37+0000","updated_time":"2013-10-13T06:41:46+0000","likes":{"data":{"100003726227911":{"id":"100003726227911","name":"Hoang Nguyen Huy"},"100002145658145":{"id":"100002145658145","name":"Yến Kều"},"100004971783092":{"id":"100004971783092","name":"Cô Gái Xứ Nghệ"},"100000021018532":{"id":"100000021018532","name":"Hương Nguyễn"},"100000198892785":{"id":"100000198892785","name":"Mạnh Phi"},"100001062202744":{"id":"100001062202744","name":"Hoang Garu"},"100002950812239":{"id":"100002950812239","name":"Vinhgia Bui"},"100003907081547":{"id":"100003907081547","name":"Van Ta"},"100002876323062":{"id":"100002876323062","name":"Linh Nguyen"},"1550521697":{"id":"1550521697","name":"Trình Nguyễn"},"100001659230540":{"id":"100001659230540","name":"Lemon Tea"},"100003895165855":{"id":"100003895165855","name":"Mỹ Ánh"},"100000184434912":{"id":"100000184434912","name":"Trần Tráng"},"100003478225364":{"id":"100003478225364","name":"Nguyễn Quốc Phong"},"726423323":{"id":"726423323","name":"Trần Thư"},"100004296847206":{"id":"100004296847206","name":"Qhd Neo"},"1693102459":{"id":"1693102459","name":"Châu Hoàng"},"100001754136107":{"id":"100001754136107","name":"Nguyễn Tuấn Vũ"},"100000266887521":{"id":"100000266887521","name":"Hương Lê Thu"},"1023965040":{"id":"1023965040","name":"Juli KimChi"},"100004720574352":{"id":"100004720574352","name":"Phương Anh"},"100004666446749":{"id":"100004666446749","name":"Jouzu Waei"},"100003899885646":{"id":"100003899885646","name":"ホアン ハオ"},"1658912883":{"id":"1658912883","name":"Pham Quy Duong"},"100004306806098":{"id":"100004306806098","name":"Tự Đi Tìm Chết"},"100003705664170":{"id":"100003705664170","name":"Sói Minnie"},"100000299798248":{"id":"100000299798248","name":"Vẹt Đêm"},"100000427448138":{"id":"100000427448138","name":"Anh Tuan Pham"},"100001503971079":{"id":"100001503971079","name":"Yuuta Nguyễn"},"1773169835":{"id":"1773169835","name":"Nguyễn Tuấn Hải"},"100003839307439":{"id":"100003839307439","name":"Nguyễn Thành"},"1714365712":{"id":"1714365712","name":"Pi Maru"},"100002949055983":{"id":"100002949055983","name":"Joke Nguyễn"},"100000041691073":{"id":"100000041691073","name":"Phuong Nam Hoang"},"1717530880":{"id":"1717530880","name":"Triệu Việt Cường"}},"paging":{"cursors":{"after":"MTAwMDAzNzI2MjI3OTEx","before":"MTAwMDAzNzI2MjI3OTEx"},"next":"https://graph.facebook.com/229244010425617_674066125943401/likes?limit=1&summary=1&after=MTAwMDAzNzI2MjI3OTEx"},"summary":{"total_count":35}},"comments":{"data":{"674071195942894":{"id":"674071195942894","from":{"id":"1714365712","name":"Pi Maru"},"message":"Hình như daisukina hito trong bài hát này là nói đến người cha phải không?","can_remove":false,"created_time":"2013-06-22T03:47:02+0000","like_count":0,"user_likes":false},"674109252605755":{"id":"674109252605755","from":{"id":"1658912883","name":"Pham Quy Duong"},"message":"Pimaru bạn ở trên trời rơi xuống ah?","can_remove":false,"created_time":"2013-06-22T06:12:40+0000","like_count":1,"user_likes":false},"674116859271661":{"id":"674116859271661","from":{"id":"100001458099624","name":"Kham Pha"},"message":"phũ v~ :))","can_remove":false,"created_time":"2013-06-22T06:40:03+0000","like_count":0,"user_likes":false},"674122375937776":{"id":"674122375937776","from":{"id":"1714365712","name":"Pi Maru"},"message":"Tai ngay xua Minh nghe co giao minh noi la nguoi cha ! Minh chi hoi lai vay thoi haha ! Chu cung mong song o tren troi lam ban tre ah :)","can_remove":false,"created_time":"2013-06-22T07:07:48+0000","like_count":0,"user_likes":false},"674229292593751":{"id":"674229292593751","from":{"id":"100001479894331","name":"Diệu Nguyễn"},"message":"Kham Pha kawai(dang yeu)　va kawaisou(dang thuong)　hinh nhu la 2 tu khac nhau co ma nhi. Thay chu han cung khac nhau: 可愛い・可哀そう","message_tags":[{"id":"100001458099624","name":"Kham Pha","type":"user","offset":0,"length":8}],"can_remove":false,"created_time":"2013-06-22T13:10:20+0000","like_count":2,"user_likes":false},"674229695927044":{"id":"674229695927044","from":{"id":"100001458099624","name":"Kham Pha"},"message":"thế ah, căn bản chỉ nghe người ta nói thì cứ nghĩ là 1 từ. Tưởng sou là cấu trúc \"có vẻ\"","can_remove":false,"created_time":"2013-06-22T13:12:01+0000","like_count":1,"user_likes":false},"737229496293730":{"id":"737229496293730","from":{"id":"100004094346107","name":"Thuy Nga Nguyen"},"message":"bai nay that la cam dong nhung luc nghe bai nay that cam dong muon k","can_remove":false,"created_time":"2013-10-12T15:23:40+0000","like_count":0,"user_likes":false},"737502722933074":{"id":"737502722933074","from":{"id":"100000687662713","name":"Vu Thi Man"},"message":"Bài này rất nổi tiếng, dân học tiếng Nhật hầu như ai cũng biết.","can_remove":false,"created_time":"2013-10-13T00:03:57+0000","like_count":0,"user_likes":false},"737503842932962":{"id":"737503842932962","from":{"id":"100000687662713","name":"Vu Thi Man"},"message":"Bài viết rất hay, rất đầy đủ nhưng mà nên dịch là Tạm biệt người yêu dấu thì hay hơn, tình yêu mà đúng k hả Kham Pha?","message_tags":[{"id":"100001458099624","name":"Kham Pha","type":"user","offset":108,"length":8}],"can_remove":false,"created_time":"2013-10-13T00:07:18+0000","like_count":0,"user_likes":false},"737506412932705":{"id":"737506412932705","from":{"id":"100001458099624","name":"Kham Pha"},"message":"Oh vậy thì theo ý bạn :)","can_remove":false,"created_time":"2013-10-13T00:15:27+0000","like_count":0,"user_likes":false},"737600179589995":{"id":"737600179589995","from":{"id":"100001416272263","name":"Mai PB"},"message":"Đang quốc tang :-)","can_remove":false,"created_time":"2013-10-13T01:54:17+0000","like_count":0,"user_likes":false},"737748326241847":{"id":"737748326241847","from":{"id":"100005810950893","name":"Hiệp Khí Đạo Sinh"},"message":"bài này nghe bùn lắm! == (lo khóc học k vô)","can_remove":false,"created_time":"2013-10-13T06:41:46+0000","like_count":0,"user_likes":false}},"paging":{"cursors":{"after":"Njc0MDcxMTk1OTQyODk0","before":"Njc0MDcxMTk1OTQyODk0"},"next":"https://graph.facebook.com/229244010425617_674066125943401/comments?limit=1&summary=1&after=Njc0MDcxMTk1OTQyODk0"},"summary":{"order":"chronological","total_count":12}}}