{"id":"229244010425617_674297439253603","type":"photo","object_id":"348391571930118","picture":"https://fbcdn-photos-f-a.akamaihd.net/hphotos-ak-frc1/t1.0-0/995666_348391571930118_1762555596_s.jpg","link":"https://www.facebook.com/photo.php?fbid=348391571930118&set=gm.674297439253603&type=1&relevant_count=1","from":{"id":"100002778356318","name":"Hold Robby"},"message":"Trong số chúng ta, chắc các bạn cũng đã có dịp nghía xem những chú mèo vẫy tay. :)\nĐã từng xem, từng thấy, từng biết nhưng để giải thích tại sao như thế, tại vì sao như vậy thì không biết đường nào mà diễn đạt. \nTrong lúc lụm lặt ở net, mình tìm thấy vài điều về chú mèo này. :)\nCác bạn cùng lướt qua xem và chia sẽ cho mình những điều bạn biết về chú mèo này nhé. \n-----\nNhững người làm ăn buôn bán ở Nhật Bản thường rất mê tín. Họ thường đặt ở phía trước hoặc sau cửa hàng một thứ bùa nào đó để mong có nhiều khách đến cửa hàng và công việc làm ăn được thuận lợi. Loại bùa thường thấy nhất ở các cửa hàng của Nhật đó là bức tượng \" con mèo mời khách \" maneki neko.\n\nChính đôi mắt to tròn và khuôn mặt bầu bĩnh, đáng yêu, dễ làm xiêu lòng khách hàng của con mèo là một trong những lý do khiến nó được chọn là một thứ \" bùa may mắn\".\nThoạt nhìn, maneki neko trông giống như một con mèo đang vẫy tay mời khách. Nhưng thực ra đó là cử chỉ của một con mèo đang lấy chân lau mặt. Loài mèo vốn là một loài vật rất nhạy cảm với sự thay đổi, dù là nhỏ nhất của thời tiết, bởi vậy khi trời sắp mưa, loài mèo thường đưa chân trước lên để giụi vào mặt.\n\nCũng chính vì có giác quan nhạy bén nên loài mèo cũng dễ cảm thấy bị bồn chồn, kích thích khi nhận ra có người đang tiến lại gần. Mỗi lúc như vậy, để giảm đi cảm giác bồn chồn, lo lăng , loài mèo thường đi lòng vòng, loanh quanh hoặc đưa chân lên giụi mặt. Từ đó người ta cho rằng, mỗi khi con mèo đưa tay lên giụi mặt có nghĩa là sắp có người đến. Từ quan niệm này, cộng với việc hình ảnh con mèo giụi mắt trông giống như là đang vẫy tay chào khách, người Nhật tin rằng nếu đặt maneki neko ở phía trước cửa hàng của mình thì khách hàng sẽ tới đông hơn.\n\nManeki neko có 2 loại, một loại vẫy chân phải, một loại vẫy chân trái. Mèo vẫy chân phải sẽ đem lại nhiều may mằn và tiền bạc, còn mèo vẫy chân trái thì đem đến nhiều khách hàng. Nếu chân còn mèo đưa lên càng cao thì khách hàng, tiền bạc và may mắn sẽ đến với cửa hàng ngày càng nhiều.\n\nVề màu sắc, maneki neko có thể có rất nhiều màu, nhưng phổ biến nhất là loài mèo tam thể ( tri - color ). Theo như các nghiên cứu về di truyền học thì tỉ lệ mèo tam thể đực rất ít. Chính vì vậy mà mèo tam thể được coi là biểu tượng đem lại may mắn, nhất là đối với những người làm nghề thuỷ thủ. Ngoài ra còn có maneki neko màu trắng ( biểu thị sự tinh khiết ) maneki neko màu đen (xua đuổi tà ma ) màu vàng ( biểu hiện của tiền bạc) màu đỏ ( biểu hiện của sự hiếu khách, tình yêu )\n\nTrên cổ mỗi con maneki neko đều có một cái dây nhỏ và một cái chuông. Điều này có từ thời Edo ( 1603 - 1868 ) vì khi đó mèo là một con vật nuôi khá đắt tiền. Các quý bà thường đeo chuông vào cổ mèo để giữ cho nó khỏi chạy mất.\n\n-K-","created_time":"2013-06-22T15:34:58+0000","updated_time":"2013-06-23T05:18:58+0000","likes":{"data":{"100002980760831":{"id":"100002980760831","name":"Quang Minh"},"100001128589118":{"id":"100001128589118","name":"Giang Manh"},"100000309978634":{"id":"100000309978634","name":"Tan Vu"},"100003180366829":{"id":"100003180366829","name":"Ngọc Hà"},"100000274458588":{"id":"100000274458588","name":"Min Cass"},"100000280776405":{"id":"100000280776405","name":"Viet Nguyen Thanh"},"100004069838775":{"id":"100004069838775","name":"Quyen Coi"},"100001458099624":{"id":"100001458099624","name":"Kham Pha"},"100000198219367":{"id":"100000198219367","name":"Chang Jiang"},"100001531816305":{"id":"100001531816305","name":"Mẫn Nghi"},"100004711450616":{"id":"100004711450616","name":"Hân Chocopie"},"100002369341715":{"id":"100002369341715","name":"Xu Li"},"655982125":{"id":"655982125","name":"Le Thi Nga My"},"100003189156737":{"id":"100003189156737","name":"Alice Kute"},"1693102459":{"id":"1693102459","name":"Châu Hoàng"},"100000641266383":{"id":"100000641266383","name":"Linhling To"}},"paging":{"cursors":{"after":"MTAwMDAyOTgwNzYwODMx","before":"MTAwMDAyOTgwNzYwODMx"},"next":"https://graph.facebook.com/229244010425617_674297439253603/likes?limit=1&summary=1&after=MTAwMDAyOTgwNzYwODMx"},"summary":{"total_count":18}},"comments":{"data":{"674477735902240":{"id":"674477735902240","from":{"id":"100000198219367","name":"Chang Jiang"},"message":"Trong Doraemon cũng có phần \"Chú mèo gọi khách\" ^^","can_remove":false,"created_time":"2013-06-23T00:12:49+0000","like_count":0,"user_likes":false},"674478875902126":{"id":"674478875902126","from":{"id":"100001458099624","name":"Kham Pha"},"message":"Tan Vu  viết về văn hoá Nhật phải viết như thế này mới đc.","message_tags":[{"id":"100000309978634","name":"Tan Vu","type":"user","offset":0,"length":6}],"can_remove":false,"created_time":"2013-06-23T00:17:43+0000","like_count":0,"user_likes":false},"674498109233536":{"id":"674498109233536","from":{"id":"100000309978634","name":"Tan Vu"},"message":":-o hôm nọ cũng đang định viết về cái này, còn định dịch wiki từ tiếng Nhật mà :-o trùng hợp v~ :-o","can_remove":false,"created_time":"2013-06-23T01:14:31+0000","like_count":0,"user_likes":false},"674573619225985":{"id":"674573619225985","from":{"id":"100001458099624","name":"Kham Pha"},"message":"Nếu dịch từ wiki thì làm luôn phiên bản tiếng Việt cho wiki lên. Một công làm nhiều người cùng đọc được.","can_remove":false,"created_time":"2013-06-23T05:13:49+0000","like_count":0,"user_likes":false},"674574752559205":{"id":"674574752559205","from":{"id":"100000309978634","name":"Tan Vu"},"message":"ý tưởng ban đầu là định dùng song ngữ :-/\nvừa lấy bản gốc vừa thêm bản dịch, dịch sai ở đâu mọi người còn góp í :-?","can_remove":false,"created_time":"2013-06-23T05:18:58+0000","like_count":0,"user_likes":false}},"paging":{"cursors":{"after":"Njc0NDc3NzM1OTAyMjQw","before":"Njc0NDc3NzM1OTAyMjQw"},"next":"https://graph.facebook.com/229244010425617_674297439253603/comments?limit=1&summary=1&after=Njc0NDc3NzM1OTAyMjQw"},"summary":{"order":"chronological","total_count":5}}}