{"id":"229244010425617_674653495884664","type":"video","picture":"https://fbexternal-a.akamaihd.net/safe_image.php?d=AQDzFOcgvZteE97-&w=130&h=130&url=http%3A%2F%2Fi1.ytimg.com%2Fvi%2F-KXf7yb79zU%2Fmaxresdefault.jpg%3Ffeature%3Dog","link":"http://www.youtube.com/watch?v=-KXf7yb79zU","source":"http://www.youtube.com/v/-KXf7yb79zU?autohide=1&version=3&autoplay=1","from":{"id":"100001458099624","name":"Kham Pha"},"message":"Hôm qua đứa bạn cùng phòng trên đường mua đồ về party tình cờ gặp cô người Nhật trước là người quen của các senpai mời cô đến chơi luôn. Nghe cô nói hôm nay có đi vụ giao lưu gì đó nên vác ukelele theo, tiện mang qua đánh mấy bài. Ukelele là một loại đàn đặc trưng của Hawai, nhìn bề ngoài giống một chiếc guitar con nhưng nó chỉ có 4 dây trong khi guitar có tận 6 dây. Về cơ bản cách đánh là như guitar chỉ khác ở vị trí đặt tay của các hợp âm. Âm sắc nghe cũng có chút khác biệt. Các bạn nghe sẽ thấy ngay.  \n \nTrong suốt những ngày tháng ở Nhật, 2 mẹ con cô giúp bọn du học sinh Việt Nam tại Keio, SFC rất nhiều. Lúc bọn mình mới sang Nhật cũng được mẹ con cô ấy dẫn đi chơi rất nhiều nơi. Giờ thì các senpai cũng tốt nghiệp về nước rồi nhưng liên lạc thì vẫn giữ và thỉnh thoảng qua chơi.","created_time":"2013-06-23T10:15:00+0000","updated_time":"2013-06-23T12:56:05+0000","likes":{"data":{"1267084162":{"id":"1267084162","name":"Salt Mint"},"100004483051243":{"id":"100004483051243","name":"Knari Nguyen"},"100004123327271":{"id":"100004123327271","name":"Nguyễn Phương"},"100002470650247":{"id":"100002470650247","name":"LinhLinh Chan"},"1828906841":{"id":"1828906841","name":"Trọng Nghĩa Bùi"},"100001508739620":{"id":"100001508739620","name":"Lê Ngọc Hoàn"},"1783420460":{"id":"1783420460","name":"Huyền Mèo"},"100001100027589":{"id":"100001100027589","name":"Tuấn Anh Lê"},"100001550033545":{"id":"100001550033545","name":"Dang Luan Dang Luan"},"100000198219367":{"id":"100000198219367","name":"Chang Jiang"},"100005783684423":{"id":"100005783684423","name":"Chan Hi"},"100001260645727":{"id":"100001260645727","name":"Ngo Duy Son"},"100003011873382":{"id":"100003011873382","name":"Hiên Nguyễn"},"100001580479641":{"id":"100001580479641","name":"Hà Xuân Thủy"},"100000328306722":{"id":"100000328306722","name":"Tran Ngoc Anh"},"1773169835":{"id":"1773169835","name":"Nguyễn Tuấn Hải"}},"paging":{"cursors":{"after":"MTI2NzA4NDE2Mg==","before":"MTI2NzA4NDE2Mg=="},"next":"https://graph.facebook.com/229244010425617_674653495884664/likes?limit=1&summary=1&after=MTI2NzA4NDE2Mg%3D%3D"},"summary":{"total_count":17}},"comments":{"data":{"674712389212108":{"id":"674712389212108","from":{"id":"100001508739620","name":"Lê Ngọc Hoàn"},"message":"Lúc đầu cứ tưởng cô ý hát Aloha của Hàn Xẻng ;))","can_remove":false,"created_time":"2013-06-23T12:22:00+0000","like_count":3,"user_likes":false},"674715062545174":{"id":"674715062545174","from":{"id":"100002676859353","name":"Chu Quang Viên"},"message":"minh cung nghi giong Lê Ngọc Hoàn :v","message_tags":[{"id":"100001508739620","name":"Lê Ngọc Hoàn","type":"user","offset":21,"length":12}],"can_remove":false,"created_time":"2013-06-23T12:28:30+0000","like_count":0,"user_likes":false},"674724289210918":{"id":"674724289210918","from":{"id":"100001458099624","name":"Kham Pha"},"message":"bài hát của Hawai","can_remove":false,"created_time":"2013-06-23T12:56:05+0000","like_count":0,"user_likes":false}},"paging":{"cursors":{"after":"Njc0NzEyMzg5MjEyMTA4","before":"Njc0NzEyMzg5MjEyMTA4"},"next":"https://graph.facebook.com/229244010425617_674653495884664/comments?limit=1&summary=1&after=Njc0NzEyMzg5MjEyMTA4"},"summary":{"order":"chronological","total_count":3}}}