{"id":"229244010425617_674823579200989","type":"status","from":{"id":"100001628612184","name":"Mai Tròn"},"message":"Mọi người ơi cho mình hỏi xíu, nhà mình có ai có mẫu các câu hỏi và câu trả lời phỏng vấn bằng tiếng Nhật không ạ? Mức độ hỏi và trả lời cơ bản thôi... Nếu ai có share cho mình xem với được không ạ? Cảm ơn mng rất nhiều....Arigatou gozaimasu.","created_time":"2013-06-23T16:29:14+0000","updated_time":"2013-06-24T05:55:58+0000","likes":{"data":{"100003683666961":{"id":"100003683666961","name":"Củ Cải Nhỏ"}},"paging":{"cursors":{"after":"MTAwMDAzNjgzNjY2OTYx","before":"MTAwMDAzNjgzNjY2OTYx"}},"summary":{"total_count":1}},"comments":{"data":{"675041095845904":{"id":"675041095845904","from":{"id":"100002593186636","name":"Michael Hoa"},"message":"Mình có nè!","can_remove":false,"created_time":"2013-06-24T00:52:55+0000","like_count":2,"user_likes":false},"675042475845766":{"id":"675042475845766","from":{"id":"100001628612184","name":"Mai Tròn"},"message":"Bạn Michael Hoa có gửi cho mình với được không?","message_tags":[{"id":"100002593186636","name":"Michael Hoa","type":"user","offset":4,"length":11}],"can_remove":false,"created_time":"2013-06-24T00:57:29+0000","like_count":0,"user_likes":false},"675047455845268":{"id":"675047455845268","from":{"id":"100001754136107","name":"Nguyễn Tuấn Vũ"},"message":"Phong van việc lam hả bạn","can_remove":false,"created_time":"2013-06-24T01:13:03+0000","like_count":0,"user_likes":false},"675047692511911":{"id":"675047692511911","from":{"id":"100001628612184","name":"Mai Tròn"},"message":"Vâng ạ, là phỏng vấn việc làm đó bạn ơi.","can_remove":false,"created_time":"2013-06-24T01:13:52+0000","like_count":0,"user_likes":false},"675055079177839":{"id":"675055079177839","from":{"id":"100001754136107","name":"Nguyễn Tuấn Vũ"},"message":"お忙しいところすみません。","can_remove":false,"created_time":"2013-06-24T01:38:38+0000","like_count":0,"user_likes":false},"675055672511113":{"id":"675055672511113","from":{"id":"100001754136107","name":"Nguyễn Tuấn Vũ"},"message":"私は…と申します．店の求人の広告を見て電話しますが、担当の方がいらっしゃますか．","can_remove":false,"created_time":"2013-06-24T01:40:35+0000","like_count":0,"user_likes":false},"675056445844369":{"id":"675056445844369","from":{"id":"100001695345798","name":"Tyn Aki"},"message":"Vu viet thanh file hoan chinh share moi ng di ;)","can_remove":false,"created_time":"2013-06-24T01:43:20+0000","like_count":1,"user_likes":false},"675056822510998":{"id":"675056822510998","from":{"id":"100001754136107","name":"Nguyễn Tuấn Vũ"},"message":"Xong ng ta sẽ chuyển máy.bạn nói lại tên mình.và muốn 1 lần phỏng vấn thử xem.\nNgười ta hẹn bạn lịch phong vấn.\n Từ: VYSA","can_remove":false,"created_time":"2013-06-24T01:44:22+0000","like_count":0,"user_likes":false},"675066429176704":{"id":"675066429176704","from":{"id":"100001628612184","name":"Mai Tròn"},"message":"Bạn có thể viết thành 1 bài hoàn chỉnh kiểu interview giống như bằng tiếng Anh hay có trên mạng ý, phỏng vấn trực tiếp, face to face....ý","can_remove":false,"created_time":"2013-06-24T02:13:48+0000","like_count":0,"user_likes":false},"675066979176649":{"id":"675066979176649","from":{"id":"100001754136107","name":"Nguyễn Tuấn Vũ"},"message":"1 cuộc đối thoại giữa 2 ng hả bạn.","can_remove":false,"created_time":"2013-06-24T02:15:17+0000","like_count":0,"user_likes":false},"675068299176517":{"id":"675068299176517","from":{"id":"100001628612184","name":"Mai Tròn"},"message":"Đúng rồi đó bạn ơi.... Ví dụ như là 1. Giới thiệu bản thân 2. Tại sao bạn chọn công ty chúng tôi, 3. Tại sao bạn lại apply vào vị trí đó, 4. Điểm yếu điểm manh.... Đại loại là những câu phỏng vấn thường gặp đó...:)","can_remove":false,"created_time":"2013-06-24T02:18:46+0000","like_count":0,"user_likes":false},"675069169176430":{"id":"675069169176430","from":{"id":"100001754136107","name":"Nguyễn Tuấn Vũ"},"message":"Mình biết phong van cong viec binh thuong như làm quán ăn hoặc công việc phân chia thôi.chứ kiểu như vào công ty lam thi chưa có :(","can_remove":false,"created_time":"2013-06-24T02:20:42+0000","like_count":0,"user_likes":false},"675069619176385":{"id":"675069619176385","from":{"id":"100001628612184","name":"Mai Tròn"},"message":":(","can_remove":false,"created_time":"2013-06-24T02:21:43+0000","like_count":0,"user_likes":false},"675073612509319":{"id":"675073612509319","from":{"id":"100001754136107","name":"Nguyễn Tuấn Vũ"},"message":"Minh se tim hieu.","can_remove":false,"created_time":"2013-06-24T02:31:36+0000","like_count":1,"user_likes":false},"675128879170459":{"id":"675128879170459","from":{"id":"1693102459","name":"Châu Hoàng"},"message":"Mai Tròn: không biết giúp được gì không? Hình như hơi dài :)\nGiả sử bạn xin việc tính tiền (レジ reji) ở cửa hàng tiện lợi (Kombini) AM PM tại Shimokitazawa. Bạn xem quảng cáo tuyển người ở báo miễn phí (free paper) Townwork và gọi theo số điện thoại tại đó.\n\nTHỜI GIAN GỌI ĐIỆN: Khoảng 6 - 7 phút.\n\n[GỌI ĐIỆN]\n\nコンビニ「はい、AMPM下北沢店です。」\nKombini: Hai, ee emu pii emu Shimokitazawa ten desu.\nCửa hàng AM PM Shimokitazawa xin nghe.\n\n私「ナムと申します。フリーペーパーのTown Workでアルバイト募集の記事を拝見してお電話しました。」\nBạn: Namu to moushimasu. Furii peepaa no Taun waaku de arubaito boshuu no kiji wo haiken shite odenwa shimashita.\nTôi là Nam ạ. Tôi thấy quảng cáo tuyển làm thêm ở báo miễn phí Townwork nên gọi điện tới.\n\n[CKJ Program: moushimasu là dạng khiêm nhường của iimasu, haiken shimasu là dạng khiêm nhường của mimasu (xem, nhìn)]\n\nコンビに「担当者にかわりますので少々お待ちしてください。」\nTantousha ni kawarimasu node shoushou omachi shite kudasai.\nTôi sẽ đưa điện thoại cho người phụ trách, xin bạn đợi một chút.\n\n♪♪♪ [Nhạc chuông chờ, đừng dập máy]\n\nコンビニ「はい、AMPM下北沢店、店長の市川です。」\nHai, ee emu pii emu Shimokitazawa ten, tenchou no Ichikawa desu.\nVâng, cửa hàng AM PM Shimokitazawa, cửa hàng trưởng Ichikawa xin nghe.\n\n私「ナムと申します。フリーペーパーのTown Workでアルバイト募集の記事を拝見してお電話しました。ただいまアルバイトを募集しているでしょうか。」\nNamu to moushimasu. Furii peepaa no Taun waaku de arubaito boshuu no kiji wo haiken shite odenwa shimashita. Tadaima arubaito wo boshuu shite iru deshou ka?\nTôi là Nam ạ. Tôi thấy tuyển làm thêm ở báo miễn phí Townwork nên gọi điện tới. Hiện tại cửa hàng có đang tuyển làm thêm không ạ?\n\n[CKJ Program: Tadaima là dạng lịch sự của \"ima\" (bây giờ, hiện tại)]\n\nコンビニ「ありがとうございます。アルバイトを募集中です。外国の方ですか？」\nArigatou gozaimasu. Arubaito wo boshuu chuu desu. Gaikoku no kata desu ka?\nCám ơn bạn đã gọi điện. Cửa hàng đang tuyển làm thêm. Bạn có phải người nước ngoài không?\n\n[CKJ Program: Kata là dạng lịch sự của \"hito\"]\n\n私「はい。ベトナム人です。」\nHai, Betonamu jin desu.\nVâng, tôi là người Việt Nam.\n\nコンビニ「学生さんですか。」\nGakusei san desu ka?\nBạn là học sinh phải không?\n\n私「はい。CHIKYUJIN日本語学校の学生です。」\nHai, CHIKYUJIN nihongo gakkou no gakusei desu.\nVâng, tôi là học sinh trường tiếng Nhật CHIKYUJIN.\n\n[Nhớ thay tên trường học của bạn vào chữ CHIKYUJIN!]\n\nコンビニ「わかりました。コンビニのアルバイトの経験がありますか？」\nWakarimashita. Kombini no arubaito no keiken ga arimasu ka?\nTôi hiểu rồi. Bạn có kinh nghiệm làm thêm ở cửa hàng tiện lợi không?\n\n[CKJ Program: Có thể cửa hàng sẽ nói lịch sự hơn bằng cách thay \"arimasu ka\" bằng \"gozaimasu ka\"]\n\n私「いいえ、初めてです。」\nIie, hajimete desu.\nDạ không, đây là lần đầu tiên.\n\n(C) CHIKYUJIN PROGRAM [Bản quyền thuộc về CHIKYUJIN]\n\nコンビニ「そうですか。でも仕事は簡単で初心者でもすぐできますから心配はいりません。事務所にきていただいていろいろお話をうかがいたいのですが、今週か来週で都合のいい時間を教えてください。」\nSou desu ka? Demo shigoto wa kantan de shoshinsha demo sugu dekimasu kara shimpai wa irimasen. Jimusho ni kite itadaite iroiro ohanashi wo ukagaitai desu ga, konshuu ka raishuu de tsugou no ii jikan wo oshiete kudasai.\nVậy à? Nhưng công việc đơn giản, người mới bắt đầu cũng có thể làm được ngay nên không cần lo lắng. Tôi muốn bạn tới văn phòng và tôi sẽ hỏi chuyện bạn, xin hãy cho biết bạn có thời gian khi nào vào tuần này hoặc tuần sau. \n\n[CKJ Program: 初心者 shoshinsha là người mới bắt đầu, mới học việc; kite itadaku là lịch sự của kite morau; 都合のいい時間 tsugou no ii jikan là thời gian thuận tiện cho bạn]\n\n私「平日でしたら１７時以降は大丈夫です。週末でしたら何時でも大丈夫です。」\nHeijitsu deshitara, juu-shichi ji ikou wa daijoubu desu. Shuumatsu deshitara nanji demo daijoubu desu.\nNếu là ngày thường thì tôi rảnh sau 17 giờ. Nếu là cuối tuần thì giờ nào cũng được ạ.\n\nコンビニ「わかりました。では、明日の水曜日の１５時事務所に来られますか？事務所は、下北沢店の上にあります。」\nWakarimashita. Dewa, ashita no suiyoubi no juu-go ji jimusho ni koraremasu ka. Jimusho wa Shimokitazawa-ten no ue ni arimasu.\nTôi hiểu rồi. Thế thì ngày mai thứ 4 lúc 15 giờ bạn có tới được không? Văn phòng nằm ở phía trên cửa hàng Shimokitazawa.\n\n私「はい、わかりました。」\nHai, wakarimashita.\nVâng, tôi hiểu rồi ạ.\n\nコンビニ「じゃあ、ナムさんのフルネームと住所と電話番号を教えてください。」\nJaa, Namu san no furuneemu to juusho to denwa bangou wo oshiete kudasai.\nVậy hãy cho tôi biết tên họ đầy đủ, địa chỉ và số điện thoại của bạn.\n\n私「はい。名前はグエン・バン・ナム、住所は目黒区原町３－４－５橋本方１０１号室、携帯の電話番号は０９０－１２３４－５６７８です。」\nHai, namae wa Guen Ban Namu, juusho wa Meguro-ku, Haramachi no San no Yon no Go, Hashimoto-kata Ichi-maru-ichi goushitsu, denwa bangou wa Zero kyuu zero, ichi ni san yon, go roku nana hachi desu.\nVâng, tên tôi là Nguyen Van Nam, địa chỉ là quận Meguro, Haramachi 3-4-5, nhà Hashimoto phòng 101, số điện thoại di động là 090-1234-5678.\n\n[Tên, địa chỉ, số tel là giả định. Số di động thì tiếng Nhật là 携帯番号 Keitai bangou, số cố định là 固定電話番号 Kotei Denwa Bangou]\n\nコンビニ「ナムさんわかりました。もし都合が悪くなったら、この番号に電話してください。当日は事務所で、市川を呼び出してください。当日、簡単でいいので履歴書ももってきてください。」\nNamu san, wakarimashita. Moshi tsugou ga waruku nattara, kono bangou ni denwa shite kudasai. Toujitsu wa jimusho de Ichikawa wo yobidashite kudasai. Toujitsu, kantan de ii no de rirekisho mo motte kite kudasai.\nBạn Nam, tôi hiểu rồi. Nếu bạn không tới được thì hãy gọi điện vào số này. Hôm đó ở văn phòng bạn hãy gọi Ichikawa ra. Hôm đó bạn hãy mang bản lý lịch tới, loại đơn giản cũng được.\n\n私「はい、わかりました。どうぞよろしくお願いいたします。」\nHai, wakarimashita. Douzo yoroshiku onegai itashimasu.\nVâng, tôi hiểu rồi ạ. Mong được quý cửa hàng giúp đỡ.\n\n[CKJ Program: Itashimasu là dạng lịch sự hơn của Shimasu]\n\nコンビニ「はい。こちらこそどうぞよろしくお願いいたします。」\nHai, kochira koso douzo yoroshiku onegai itashimasu.\nVâng, chúng tôi cũng mong hợp tác với bạn.\n\n私「では失礼いたします。」\nDewa, shitsurei itashimasu.\nVậy tôi xin phép tại đây ạ.\n\nコンビニ「ありがとうございました。失礼いたします。」\nArigatou gozaimashita. Shitsurei itashimasu.\nCám ơn bạn. Xin dừng ở đây.\n\n[Đợi bên kia dập máy trước]","message_tags":[{"id":"100001628612184","name":"Mai Tròn","type":"user","offset":0,"length":8}],"can_remove":false,"created_time":"2013-06-24T05:55:58+0000","like_count":3,"user_likes":false}},"paging":{"cursors":{"after":"Njc1MDQxMDk1ODQ1OTA0","before":"Njc1MDQxMDk1ODQ1OTA0"},"next":"https://graph.facebook.com/229244010425617_674823579200989/comments?limit=1&summary=1&after=Njc1MDQxMDk1ODQ1OTA0"},"summary":{"order":"chronological","total_count":15}}}