{"id":"229244010425617_675129775837036","type":"link","picture":"https://fbexternal-a.akamaihd.net/safe_image.php?d=AQB2ySvRJ09NvOeY&w=154&h=154&url=http%3A%2F%2Fwww.tbsvn.com.vn%2Fwp-content%2Fplugins%2Fwordbooker%2Fincludes%2Fwordbooker_blank.jpg","link":"http://www.tbsvn.com.vn/viec-lam-moi/thong-dich-tieng-nhat-4","from":{"id":"1552036787","name":"Lyklyk Tran"},"message":"Mọi người ơi !\nMình đang làm cho một Cty giới thiệu nhân sự, hiện đang tuyển dụng Vị trí : Thông dịch ( N2) làm tại khu CN Nội Bài Hà Nội, vị trí này rất gấp mà mình thì ở trong HCM nên rất khó với mình.\nMọi người trong nhóm có thể giúp mình được không, gửi giúp mình thông tin tuyển dụng này đến những bạn cần nhé\nhttp://www.tbsvn.com.vn/viec-lam-moi/thong-dich-tieng-nhat-4\n\nMọi người giúp đỡ nhé!!! Rất biết ơn mọi người","created_time":"2013-06-24T05:59:59+0000","updated_time":"2013-06-24T10:13:32+0000","likes":{"data":{"100003001222834":{"id":"100003001222834","name":"Du Hal"},"100003090938731":{"id":"100003090938731","name":"Giang Nguyen"}},"paging":{"cursors":{"after":"MTAwMDAzMDAxMjIyODM0","before":"MTAwMDAzMDAxMjIyODM0"},"next":"https://graph.facebook.com/229244010425617_675129775837036/likes?limit=1&summary=1&after=MTAwMDAzMDAxMjIyODM0"},"summary":{"total_count":2}},"comments":{"data":{"675155095834504":{"id":"675155095834504","from":{"id":"100000077388104","name":"Quang Ghẻ"},"message":"Haizzzz, vừa xem, lại thấy chỉ tuyển nữ","can_remove":false,"created_time":"2013-06-24T07:50:55+0000","like_count":0,"user_likes":false},"675155399167807":{"id":"675155399167807","from":{"id":"1552036787","name":"Lyklyk Tran"},"message":"bạn ơi, nếu bạn có hứng thú thì mình có thể hỏi lại nhà tuyển dụng, hoặc là bạn có thể giới thiệu bạn bè của bạn giúp mình nhé,","can_remove":false,"created_time":"2013-06-24T07:52:06+0000","like_count":0,"user_likes":false},"675155809167766":{"id":"675155809167766","from":{"id":"100000077388104","name":"Quang Ghẻ"},"message":"Tại tớ thấy thông tin này có vẻ gấp thật, mấy forum tiếng Nhật đều có đăng....sẽ forward cho mấy cô bạn đang tìm việc....mặc dù cả tớ cũng đang tìm....","can_remove":false,"created_time":"2013-06-24T07:53:49+0000","like_count":0,"user_likes":false},"675157199167627":{"id":"675157199167627","from":{"id":"1552036787","name":"Lyklyk Tran"},"message":"vậy bạn Quang gửi giúp mình CV đi, mình sẽ hỏi thăm nhà tuyển dụng coi sao","can_remove":false,"created_time":"2013-06-24T08:00:13+0000","like_count":0,"user_likes":false},"675191292497551":{"id":"675191292497551","from":{"id":"100002808262328","name":"Thành Hasamu Hasamu"},"message":"taafm n3 ddc ko bajn","can_remove":false,"created_time":"2013-06-24T10:07:42+0000","like_count":0,"user_likes":false},"675191949164152":{"id":"675191949164152","from":{"id":"1552036787","name":"Lyklyk Tran"},"message":"Thành Tổ Lái bạn viết gì mình đọc không được, bạn viết lại giúp mình nhé","message_tags":[{"id":"100002808262328","name":"Thành Tổ Lái","type":"user","offset":0,"length":12}],"can_remove":false,"created_time":"2013-06-24T10:10:09+0000","like_count":0,"user_likes":false},"675192109164136":{"id":"675192109164136","from":{"id":"100002808262328","name":"Thành Hasamu Hasamu"},"message":"tiếng nhật ko có chứng chỉ đy tu nghiệp về tầm n3 đc ko bạn","can_remove":false,"created_time":"2013-06-24T10:10:50+0000","like_count":0,"user_likes":false},"675192475830766":{"id":"675192475830766","from":{"id":"1552036787","name":"Lyklyk Tran"},"message":"Bạn gửi CV cho mình nhé, rồi mình xem có gì sẽ liên lạc với bạn, jinzai@tbsvn.com.vn","can_remove":false,"created_time":"2013-06-24T10:11:58+0000","like_count":0,"user_likes":false},"675192615830752":{"id":"675192615830752","from":{"id":"100002808262328","name":"Thành Hasamu Hasamu"},"message":"cv là gì vậy","can_remove":false,"created_time":"2013-06-24T10:12:28+0000","like_count":0,"user_likes":false},"675192962497384":{"id":"675192962497384","from":{"id":"1552036787","name":"Lyklyk Tran"},"message":"履歴書đó bạn,","can_remove":false,"created_time":"2013-06-24T10:13:32+0000","like_count":0,"user_likes":false}},"paging":{"cursors":{"after":"Njc1MTU1MDk1ODM0NTA0","before":"Njc1MTU1MDk1ODM0NTA0"},"next":"https://graph.facebook.com/229244010425617_675129775837036/comments?limit=1&summary=1&after=Njc1MTU1MDk1ODM0NTA0"},"summary":{"order":"chronological","total_count":10}}}