{"id":"229244010425617_675789182437762","type":"status","from":{"id":"100003808729835","name":"Vân Nguyễn"},"message":"Cho m hoi tu dien online co tu dien nao tot .vua co the tra duoc kanji vua co the tra duoc ca ngu phap .ban nao biet co the chia se cho m duoc k .ありがとうございます","created_time":"2013-06-25T13:06:40+0000","updated_time":"2013-07-03T17:25:23+0000","likes":{"data":{"100002204642809":{"id":"100002204642809","name":"Meo Min"}},"paging":{"cursors":{"after":"MTAwMDAyMjA0NjQyODA5","before":"MTAwMDAyMjA0NjQyODA5"}},"summary":{"total_count":1}},"comments":{"data":{"675790519104295":{"id":"675790519104295","from":{"id":"100001754136107","name":"Nguyễn Tuấn Vũ"},"message":"Chang Jiang nhờ a","message_tags":[{"id":"100000198219367","name":"Chang Jiang","type":"user","offset":0,"length":11}],"can_remove":false,"created_time":"2013-06-25T13:10:44+0000","like_count":0,"user_likes":false},"675790685770945":{"id":"675790685770945","from":{"id":"100000198219367","name":"Chang Jiang"},"message":"http://jisho.org/","can_remove":false,"created_time":"2013-06-25T13:11:04+0000","like_count":2,"user_likes":false},"675819679101379":{"id":"675819679101379","from":{"id":"1168996060","name":"Chanh Leo"},"message":"http://lagudi.net/","can_remove":false,"created_time":"2013-06-25T14:12:24+0000","like_count":2,"user_likes":false},"680190138664333":{"id":"680190138664333","from":{"id":"100001754136107","name":"Nguyễn Tuấn Vũ"},"message":"Châu Hoàng","message_tags":[{"id":"1693102459","name":"Châu Hoàng","type":"user","offset":0,"length":10}],"can_remove":false,"created_time":"2013-07-03T17:25:23+0000","like_count":0,"user_likes":false}},"paging":{"cursors":{"after":"Njc1NzkwNTE5MTA0Mjk1","before":"Njc1NzkwNTE5MTA0Mjk1"},"next":"https://graph.facebook.com/229244010425617_675789182437762/comments?limit=1&summary=1&after=Njc1NzkwNTE5MTA0Mjk1"},"summary":{"order":"chronological","total_count":4}}}