{"id":"229244010425617_676234365726577","type":"status","from":{"id":"1728532188","name":"Dieu Truc"},"message":"HÀNH CHÁNH NHÂN SỰ\nMô tả công việc:\n\n- Thực hiện các công việc hành chánh, văn phòng\n\n- Quản lý văn phòng, quản lý nhân sự\n\n- Thực hiện các thủ tục tham gia bảo hiểm cho nhân viên công ty\n\nYêu cầu chung:\n\n- Tiếng Nhật hoặc tiếng Anh trung cấp\n\n- Thành thạo vi tinh văn phòng, word, excel, power point\n- Ưu tiên có kinh nghiệm hành chánh, tổng vụ\n\nNgôn ngữ:\n\nTiếng Nhật (Trung-Cao cấp) hoặc tiếng Anh\n\nĐịa điểm làm việc:\n\nHoàng Văn Thụ, Phường 8, Quận Phú Nhuận, HCM\n\nThời gian làm việc:\n\n- 8:00 ~ 17:00 (thứ hai - thứ sáu)\n\n8:00~12:00 ( 2 buổi sáng thứ Bảy / tháng )\n\nMức lương:\n\nThỏa thuận\n\nQuyền lợi: Theo luật lao động Việt Nam.\n\nCấp bậc:Nhân viên\n\nNgành nghề: Biên phiên dịch, Hành chánh nhân sự\n\nThông tin công ty: Công ty Nhật, ngành nghề: dịch vụ XNK\nLiên hệ: Ms Trúc\n\nEmail: jinzai@tbsvn.com.vn\n\nTel: 08.62914.681 / 684","created_time":"2013-06-26T06:45:21+0000","updated_time":"2013-06-28T01:29:44+0000","likes":{"data":{"100001847077184":{"id":"100001847077184","name":"Đỗ Thu Hà"},"100005783684423":{"id":"100005783684423","name":"Chan Hi"},"1728532188":{"id":"1728532188","name":"Dieu Truc"}},"paging":{"cursors":{"after":"MTAwMDAxODQ3MDc3MTg0","before":"MTAwMDAxODQ3MDc3MTg0"},"next":"https://graph.facebook.com/229244010425617_676234365726577/likes?limit=1&summary=1&after=MTAwMDAxODQ3MDc3MTg0"},"summary":{"total_count":3}},"comments":{"data":{"676925542324126":{"id":"676925542324126","from":{"id":"100002204642809","name":"Meo Min"},"message":"tieng nhat 3 kuy dc k vay ?","can_remove":false,"created_time":"2013-06-27T12:14:41+0000","like_count":0,"user_likes":false},"676925648990782":{"id":"676925648990782","from":{"id":"100002204642809","name":"Meo Min"},"message":"co can trinh do dai hoc hay j k ?","can_remove":false,"created_time":"2013-06-27T12:14:53+0000","like_count":1,"user_likes":false},"677245002292180":{"id":"677245002292180","from":{"id":"1728532188","name":"Dieu Truc"},"message":"hi Meo Min, vị trí này bên mình đã tuyển được rồi. Trường hợp bạn đang kiếm việc, gửi CV đến địa chỉ jinzai@tbsvn.com.vn bên mình sẽ giới thiệu các công việc khác đến bạn","message_tags":[{"id":"100002204642809","name":"Meo Min","type":"user","offset":3,"length":7}],"can_remove":false,"created_time":"2013-06-28T01:29:44+0000","like_count":0,"user_likes":false}},"paging":{"cursors":{"after":"Njc2OTI1NTQyMzI0MTI2","before":"Njc2OTI1NTQyMzI0MTI2"},"next":"https://graph.facebook.com/229244010425617_676234365726577/comments?limit=1&summary=1&after=Njc2OTI1NTQyMzI0MTI2"},"summary":{"order":"chronological","total_count":3}}}