{"id":"229244010425617_676719705678043","type":"status","from":{"id":"100005424364208","name":"Quẩy Lên Nào"},"message":"Trượt Nat-test lần 1.nản.tiếc nuối","created_time":"2013-06-27T00:50:16+0000","updated_time":"2013-06-27T14:39:39+0000","likes":{"data":{"100001458099624":{"id":"100001458099624","name":"Kham Pha"},"100000641266383":{"id":"100000641266383","name":"Linhling To"}},"paging":{"cursors":{"after":"MTAwMDAxNDU4MDk5NjI0","before":"MTAwMDAxNDU4MDk5NjI0"},"next":"https://graph.facebook.com/229244010425617_676719705678043/likes?limit=1&summary=1&after=MTAwMDAxNDU4MDk5NjI0"},"summary":{"total_count":2}},"comments":{"data":{"676758782340802":{"id":"676758782340802","from":{"id":"100005424364208","name":"Quẩy Lên Nào"},"message":"Tat nhien ui thank ban nhe","can_remove":false,"created_time":"2013-06-27T02:44:15+0000","like_count":0,"user_likes":false},"676758975674116":{"id":"676758975674116","from":{"id":"100005424364208","name":"Quẩy Lên Nào"},"message":"Lan sau mua Tobicom nho? Mat","can_remove":false,"created_time":"2013-06-27T02:44:44+0000","like_count":0,"user_likes":false},"676759065674107":{"id":"676759065674107","from":{"id":"100004441680220","name":"Đông Phương Póc"},"message":"chia buồn, bạn thi N mấy?","can_remove":false,"created_time":"2013-06-27T02:44:59+0000","like_count":0,"user_likes":false},"676761172340563":{"id":"676761172340563","from":{"id":"100005424364208","name":"Quẩy Lên Nào"},"message":"N5 ban ah","can_remove":false,"created_time":"2013-06-27T02:51:39+0000","like_count":0,"user_likes":false},"676761539007193":{"id":"676761539007193","from":{"id":"100001365545442","name":"Nguyễn Nam"},"message":"tháng 10 này ai thi N5 giơ chân lên\nQuẩy lên nào có tài liệu phần nghe N5 ko...","can_remove":false,"created_time":"2013-06-27T02:52:38+0000","like_count":0,"user_likes":false},"676761585673855":{"id":"676761585673855","from":{"id":"100004441680220","name":"Đông Phương Póc"},"message":".... vậy phải cố lên nhiều nữa bạn nhé","can_remove":false,"created_time":"2013-06-27T02:52:49+0000","like_count":0,"user_likes":false},"676773575672656":{"id":"676773575672656","from":{"id":"100003578872391","name":"Hà Kyo"},"message":"muốn thi n5 thì phải học hết bao nhiêu bài vậy bạn? m` đang học giáo trình mina","can_remove":false,"created_time":"2013-06-27T03:34:30+0000","like_count":0,"user_likes":false},"676776309005716":{"id":"676776309005716","from":{"id":"100004441680220","name":"Đông Phương Póc"},"message":"hết cuốn 1 Minna thì phải","can_remove":false,"created_time":"2013-06-27T03:43:09+0000","like_count":1,"user_likes":false},"676781055671908":{"id":"676781055671908","from":{"id":"100003578872391","name":"Hà Kyo"},"message":"hết cuốn mina 1 là 6 bài thôi á bạn?","can_remove":false,"created_time":"2013-06-27T04:02:38+0000","like_count":0,"user_likes":false},"676781342338546":{"id":"676781342338546","from":{"id":"100004441680220","name":"Đông Phương Póc"},"message":"cuốn 1 Minna là 25 bài lận bạn","can_remove":false,"created_time":"2013-06-27T04:03:43+0000","like_count":1,"user_likes":false},"676790892337591":{"id":"676790892337591","from":{"id":"100002808262328","name":"Thành Hasamu Hasamu"},"message":"trật nastes vẫn đy đc","can_remove":false,"created_time":"2013-06-27T04:41:36+0000","like_count":0,"user_likes":false},"676791499004197":{"id":"676791499004197","from":{"id":"100004441680220","name":"Đông Phương Póc"},"message":"tùy chỗ nhận đưa mình đi thôi :v chỗ mình đăng ký bắt đậu jtest mới đc đi","can_remove":false,"created_time":"2013-06-27T04:43:14+0000","like_count":0,"user_likes":false},"676821489001198":{"id":"676821489001198","from":{"id":"100003578872391","name":"Hà Kyo"},"message":"bạn đi trung tâm nào vậy Đông Phương Póc?","can_remove":false,"created_time":"2013-06-27T06:14:15+0000","like_count":0,"user_likes":false},"676832039000143":{"id":"676832039000143","from":{"id":"100002409167805","name":"Phôn Linh"},"message":"Nat test la n5 ha, vay 4 n còn lai?","can_remove":false,"created_time":"2013-06-27T06:49:23+0000","like_count":0,"user_likes":false},"676865742330106":{"id":"676865742330106","from":{"id":"100004441680220","name":"Đông Phương Póc"},"message":"Nattest gồm 5 cấp độ bạn ạ, N5 là thấp nhất và cao nhất là N1","can_remove":false,"created_time":"2013-06-27T08:51:09+0000","like_count":0,"user_likes":false},"676865888996758":{"id":"676865888996758","from":{"id":"100004441680220","name":"Đông Phương Póc"},"message":"Hà Kyo mình đăng ký đi theo dạng học tiếng Nhật trước, mình đi đăng ký trường Nhật Ngữ Sendai đó","message_tags":[{"id":"100003578872391","name":"Hà Kyo","type":"user","offset":0,"length":6}],"can_remove":false,"created_time":"2013-06-27T08:51:47+0000","like_count":0,"user_likes":false},"676906785659335":{"id":"676906785659335","from":{"id":"100005424364208","name":"Quẩy Lên Nào"},"message":"Eo.t7 này t pải thy lại thôi","can_remove":false,"created_time":"2013-06-27T11:19:10+0000","like_count":0,"user_likes":false},"676907015659312":{"id":"676907015659312","from":{"id":"100005424364208","name":"Quẩy Lên Nào"},"message":"T mua thuốc nhỏt mắt tomicom ui.hỳ","can_remove":false,"created_time":"2013-06-27T11:19:54+0000","like_count":0,"user_likes":false},"676919342324746":{"id":"676919342324746","from":{"id":"100002808262328","name":"Thành Hasamu Hasamu"},"message":"yên tâm đy đc hết","can_remove":false,"created_time":"2013-06-27T11:54:40+0000","like_count":0,"user_likes":false},"676985075651506":{"id":"676985075651506","from":{"id":"100004160974149","name":"Lyna Trang"},"message":"Cố lên bạn, mới đó chỉ là N5 thôi mà bạn đã vậy là không được rồi, cố lên hen, siêng ôn bài hằng ngày là đậu thôi mà. Riêng bản thân mình là muốn thì N5 100% điểm đấy :v","can_remove":false,"created_time":"2013-06-27T14:31:57+0000","like_count":0,"user_likes":false},"676988195651194":{"id":"676988195651194","from":{"id":"100001365545442","name":"Nguyễn Nam"},"message":"phần ngữ pháp và từ mới dễ... chớ nge khó nuốt qá =..=\"","can_remove":false,"created_time":"2013-06-27T14:38:13+0000","like_count":0,"user_likes":false},"676989428984404":{"id":"676989428984404","from":{"id":"100004160974149","name":"Lyna Trang"},"message":"Đâu còn cách nào khác, chỉ có học thuojcu từ vựng và nghe thật nhiều là nghe 1 phát biết ngay không cần phải suy nghỉ :(","can_remove":false,"created_time":"2013-06-27T14:39:39+0000","like_count":0,"user_likes":false}},"paging":{"cursors":{"after":"Njc2NzU4NzgyMzQwODAy","before":"Njc2NzU4NzgyMzQwODAy"},"next":"https://graph.facebook.com/229244010425617_676719705678043/comments?limit=1&summary=1&after=Njc2NzU4NzgyMzQwODAy"},"summary":{"order":"chronological","total_count":22}}}