{"id":"229244010425617_677535018929845","type":"status","from":{"id":"100001864793577","name":"Sakura Đhbkhn"},"message":"Mọi người cho em hỏi được không ah?Tình hình là em đang dùng win 8 muốn có bộ gõ tiếng Nhật để gõ.Nhưng khi em tải và cài font tiếng Nhật được rồi mà không thấy xuất hiện bộ gõ tiếng Nhật?trong khi đó các thư mục trong máy tính toàn là font tiếng Nhật. Có ai biết giúp em ca này với ạ?Em mong mọi người trong diễn đàn giúp đỡ.","created_time":"2013-06-28T16:53:36+0000","updated_time":"2013-06-29T13:28:14+0000","likes":{"data":{"100000808815001":{"id":"100000808815001","name":"Xuong Tran"}},"paging":{"cursors":{"after":"MTAwMDAwODA4ODE1MDAx","before":"MTAwMDAwODA4ODE1MDAx"}},"summary":{"total_count":1}},"comments":{"data":{"677547002261980":{"id":"677547002261980","from":{"id":"100000268489214","name":"Kaka Huy"},"message":"Từ win7 tích hợp sẵn bộ gõ tiếng Nhật rồi mà (Winxp thì khi cài phải có đĩa win)\nĐể gõ tiếng Nhật được: Vào Control Panel -> chọn Clock, Language, and Region -> Chọn Language rồi chọn Add a language -> Chọn tiếng Nhật","can_remove":false,"created_time":"2013-06-28T17:31:59+0000","like_count":1,"user_likes":false},"677550478928299":{"id":"677550478928299","from":{"id":"100001864793577","name":"Sakura Đhbkhn"},"message":"Mình đã làm được rồi.Tai khi minh cai font toan tieng nhat nen run quaĂ","can_remove":false,"created_time":"2013-06-28T17:45:28+0000","like_count":0,"user_likes":false},"677796748903672":{"id":"677796748903672","from":{"id":"100001458099624","name":"Kham Pha"},"message":"Win 8 dị lắm. Ai dùng bàn phím tiếng Nhật mới thấm. Nó đếch chịu nhận bàn phím tiếng nhật ngay. Mỗi lần vào là một lần phải chọn loại bàn phím. Mất công kinh khủng.","can_remove":false,"created_time":"2013-06-29T04:15:53+0000","like_count":1,"user_likes":false},"677859498897397":{"id":"677859498897397","from":{"id":"1828906841","name":"Trọng Nghĩa Bùi"},"message":"đơn giản, chỉ cần chú set lại primary language trong control panel thôi là được. Cái này win7 cũng rứa mà (cơ mà phải nói là menu trong đó tổ chức ko rõ ràng lắm)\nChú ý là display language khác với input method, và khác với system locale language đấy nhé","can_remove":false,"created_time":"2013-06-29T07:46:57+0000","like_count":0,"user_likes":false},"677862768897070":{"id":"677862768897070","from":{"id":"100000198219367","name":"Chang Jiang"},"message":"Sakura Đhbkhn là K53 đấy Bùi Trọng Nghĩa :))","message_tags":[{"id":"100001864793577","name":"Sakura Đhbkhn","type":"user","offset":0,"length":13},{"id":"1828906841","name":"Bùi Trọng Nghĩa","type":"user","offset":25,"length":15}],"can_remove":false,"created_time":"2013-06-29T07:58:01+0000","like_count":0,"user_likes":false},"677865625563451":{"id":"677865625563451","from":{"id":"1828906841","name":"Trọng Nghĩa Bùi"},"message":"đang bảo Kham Pha cơ mà, Sakura Đhbkhn config xong rồi còn j","message_tags":[{"id":"100001458099624","name":"Kham Pha","type":"user","offset":9,"length":8},{"id":"100001864793577","name":"Sakura Đhbkhn","type":"user","offset":25,"length":13}],"can_remove":false,"created_time":"2013-06-29T08:09:59+0000","like_count":0,"user_likes":false},"677865772230103":{"id":"677865772230103","from":{"id":"1828906841","name":"Trọng Nghĩa Bùi"},"message":"mà K53 thật sao, mình cũng ko để ý","can_remove":false,"created_time":"2013-06-29T08:10:38+0000","like_count":0,"user_likes":false},"677865775563436":{"id":"677865775563436","from":{"id":"100000198219367","name":"Chang Jiang"},"message":"thế lần sau nên tag đúng người tránh hiểu lắm nhé :3","can_remove":false,"created_time":"2013-06-29T08:10:41+0000","like_count":0,"user_likes":false},"677865865563427":{"id":"677865865563427","from":{"id":"1828906841","name":"Trọng Nghĩa Bùi"},"message":"đọc kỹ thì sẽ ko hiểu nhầm được","can_remove":false,"created_time":"2013-06-29T08:11:04+0000","like_count":0,"user_likes":false},"677866455563368":{"id":"677866455563368","from":{"id":"1828906841","name":"Trọng Nghĩa Bùi"},"message":"K53 vào đây có lẽ ko cần xưng em đâu anh ah :D cứ xưng là anh/mình chắc là OK :D","can_remove":false,"created_time":"2013-06-29T08:13:06+0000","like_count":0,"user_likes":false},"678029528880394":{"id":"678029528880394","from":{"id":"100001458099624","name":"Kham Pha"},"message":"Bùi Trọng Nghĩa win 7 đâu có vậy, cài layout phím Nhật 1 lần là ok, từ đó về sau ko cần chọn gì nữa. win 8 cài layout xong mỗi lần vào nó vẫn có thể chọn layout lại, như thế chẳng hợp lí chút nào, vì người ta đâu có 2 loại bàn phím cùng lúc được.","message_tags":[{"id":"1828906841","name":"Bùi Trọng Nghĩa","type":"user","offset":0,"length":15}],"can_remove":false,"created_time":"2013-06-29T10:44:08+0000","like_count":0,"user_likes":false},"678029758880371":{"id":"678029758880371","from":{"id":"100001458099624","name":"Kham Pha"},"message":"thực ra là TH mua bàn phím rời cũng được, nhưng phím rời thì nên để lúc cắm phím rời vào chọn thì hợp lí hơn.","can_remove":false,"created_time":"2013-06-29T10:45:41+0000","like_count":0,"user_likes":false},"678082748875072":{"id":"678082748875072","from":{"id":"100005903071473","name":"Yume Sun"},"message":"hi e mua may tinh nhat di ve su dung ko can cai no co san ui","can_remove":false,"created_time":"2013-06-29T12:28:37+0000","like_count":0,"user_likes":false},"678091978874149":{"id":"678091978874149","from":{"id":"100001864793577","name":"Sakura Đhbkhn"},"message":"hi.Cảm ơn mọi người! Mà Chang Jiang em học K54 hả?em tên gì nhỉ?hy","message_tags":[{"id":"100000198219367","name":"Chang Jiang","type":"user","offset":24,"length":11}],"can_remove":false,"created_time":"2013-06-29T13:00:28+0000","like_count":0,"user_likes":false},"678095005540513":{"id":"678095005540513","from":{"id":"1828906841","name":"Trọng Nghĩa Bùi"},"message":"ko phải đâu, tại vì cùng là language nhg nó lại tách ra mấy khu vực khác nhau trong settings đấy, t từng làm rồi mà tìm lại vẫn mất đến 10ph","can_remove":false,"created_time":"2013-06-29T13:09:55+0000","like_count":0,"user_likes":false},"678101588873188":{"id":"678101588873188","from":{"id":"100000198219367","name":"Chang Jiang"},"message":"@Anh Sakura: Em là Giang, anh em mình gặp nhau mấy lần ở kouryuukai rồi, anh là bạn của anh Nam K53 trước học Hedspi rồi đi Nhật 2 năm đúng ko ạ? :D","can_remove":false,"created_time":"2013-06-29T13:28:14+0000","like_count":0,"user_likes":false}},"paging":{"cursors":{"after":"Njc3NTQ3MDAyMjYxOTgw","before":"Njc3NTQ3MDAyMjYxOTgw"},"next":"https://graph.facebook.com/229244010425617_677535018929845/comments?limit=1&summary=1&after=Njc3NTQ3MDAyMjYxOTgw"},"summary":{"order":"chronological","total_count":16}}}