{"id":"229244010425617_678546058828741","type":"photo","object_id":"435415313224360","picture":"https://fbcdn-photos-a-a.akamaihd.net/hphotos-ak-prn2/t1.0-0/1045090_435415313224360_1238153482_s.jpg","link":"https://www.facebook.com/photo.php?fbid=435415313224360&set=gm.678546058828741&type=1&relevant_count=1","from":{"id":"100002676859353","name":"Chu Quang Viên"},"message":"Có nhiều bạn quan tâm tới việc đọc báo online tiếng Nhật hoặc trên các web page tiếng Nhật mà có nhiều từ Kanji hay atarashii kotoba không hiểu thì có thể dùng 1 plugin sau đây của Firefox,cái này mình được bạn bè giới thiệu thấy dùng hay và được cái rất tiện :D\nBước 1: Các bạn vào phần Add on của firefox,nếu ai ko biết add on nó ở đâu thì vào google gõ \"add on firefox\" nó cũng ra(à mà dùng trên firefox nhé :v )\nBước 2: Tìm plugin rikaichan bằng cách gõ vào ô search chữ \"rikaichan\" và nó hiện ra,khi đó thì các bạn add on firefox và cho nó tự động restart lại nhé\nBước 3: Nó sẽ hiển thị các bộ từ điển đi cùng thì các bạn kéo nó kịch xuống dưới,chọn bộ từ điển thứ 2 từ dưới lên,loại Anh Nhật Việt ý,cái bộ từ điển này do anh Nguyễn Đăng Quý tạo ra,nếu ai ko biết nó ở đâu các bạn có thể gõ Ctrl + F và viết \"Nguyen Dang Quy \" thì nó cũng dẫn tới chỗ của bộ từ điển này\nBước 4: Click vào link từ điển và add nó vào firefox của mình,nó sẽ tư động restart cho các bạn,và hiển thị 1 Setting Box,có 2 thứ là nghĩa và kanji,nếu bạn nào thích nhìn kanji thì để nguyên theo default còn nếu không thì chuyển phần nghĩa lên trên bằng cách ấn vào mũi tên hướng lên trong cái setting box ấy :v Rồi ok là xong.\nBước 5: Bây giờ thì các bạn bật thử 1 trang web chỉ cần có tiếng nhật là được,các bạn sẽ thấy có cái mặt hình cam ở góc bên trên phía tay phải màn hình,click vào đó khi muốn plugin này hoạt động :D Không muốn thì click lại là nó tắt :D\n\nHướng dẫn mình đã cố gắng viết tỉ mỉ nhất có thể,mọi người thử xem nhé :3\nĐây là ví dụ minh họa","created_time":"2013-06-30T08:57:23+0000","updated_time":"2013-07-30T01:38:05+0000","likes":{"data":{"100000266887521":{"id":"100000266887521","name":"Hương Lê Thu"},"100004948993646":{"id":"100004948993646","name":"Trống Rỗng"},"100001062202744":{"id":"100001062202744","name":"Hoang Garu"},"100003055356509":{"id":"100003055356509","name":"Thuan Nguyen"},"100000048958645":{"id":"100000048958645","name":"Duyen To"},"100001594722256":{"id":"100001594722256","name":"Viết An Phạm"},"1821970083":{"id":"1821970083","name":"Nguyễn Mạnh Cường"},"1693102459":{"id":"1693102459","name":"Châu Hoàng"},"100004455759017":{"id":"100004455759017","name":"VN JP"},"100004448979520":{"id":"100004448979520","name":"Lê Quang Lập"},"100001906662819":{"id":"100001906662819","name":"Diện Thạch"},"100003016747298":{"id":"100003016747298","name":"Minh Phượng"},"100002594112476":{"id":"100002594112476","name":"Thiên Di"},"100000328742646":{"id":"100000328742646","name":"Trần Giáp"},"100001223217629":{"id":"100001223217629","name":"Anh Phạm"},"100000280776405":{"id":"100000280776405","name":"Viet Nguyen Thanh"},"100001508739620":{"id":"100001508739620","name":"Lê Ngọc Hoàn"},"100003813549176":{"id":"100003813549176","name":"Hau Phung"},"100004483051243":{"id":"100004483051243","name":"Knari Nguyen"},"100000381394367":{"id":"100000381394367","name":"Thành Nguyễn"},"100003004137960":{"id":"100003004137960","name":"Live TO Love"},"100002144324087":{"id":"100002144324087","name":"Yuki Hana"},"100001458099624":{"id":"100001458099624","name":"Kham Pha"},"100002414995202":{"id":"100002414995202","name":"Nguyễn Duy Công"}},"paging":{"cursors":{"after":"MTAwMDAwMjY2ODg3NTIx","before":"MTAwMDAwMjY2ODg3NTIx"},"next":"https://graph.facebook.com/229244010425617_678546058828741/likes?limit=1&summary=1&after=MTAwMDAwMjY2ODg3NTIx"},"summary":{"total_count":24}},"comments":{"data":{"678547528828594":{"id":"678547528828594","from":{"id":"100001113783887","name":"Tien Pham"},"message":"có loại cho chrome ko anh","can_remove":false,"created_time":"2013-06-30T09:02:36+0000","like_count":0,"user_likes":false},"678548205495193":{"id":"678548205495193","from":{"id":"100002676859353","name":"Chu Quang Viên"},"message":"có em à,nhưng là rikaikun,a thấy ko thích lắm,dùng trên firefox sướng hơn :D","can_remove":false,"created_time":"2013-06-30T09:05:03+0000","like_count":0,"user_likes":false},"678553688827978":{"id":"678553688827978","from":{"id":"100001113783887","name":"Tien Pham"},"message":"a dang xai cai do","can_remove":false,"created_time":"2013-06-30T09:29:02+0000","like_count":0,"user_likes":false},"678557845494229":{"id":"678557845494229","from":{"id":"100001508739620","name":"Lê Ngọc Hoàn"},"message":"Đây là cái mà e tìm kiếm bấy lâu nay. Cảm ơn a Hành nhiều nhé ;))","can_remove":false,"created_time":"2013-06-30T09:46:53+0000","like_count":0,"user_likes":false},"678563008827046":{"id":"678563008827046","from":{"id":"100004948993646","name":"Trống Rỗng"},"message":"e cài nhưng sao ko thấy nó hiện lên để bật nó nhỉ","can_remove":false,"created_time":"2013-06-30T10:02:01+0000","like_count":0,"user_likes":false},"678566122160068":{"id":"678566122160068","from":{"id":"100002676859353","name":"Chu Quang Viên"},"message":"Sau khi cài đặt em hãy restart nó đi,còn em phải click biểu tượng để sử dụng chứ :) ở firefox là 1 cái icon mặt cười còn ở chroome là 1 cái biểu tượng hình chữ Lý ý :)","can_remove":false,"created_time":"2013-06-30T10:14:16+0000","like_count":0,"user_likes":false},"678567575493256":{"id":"678567575493256","from":{"id":"100004948993646","name":"Trống Rỗng"},"message":"e đã restart mà vẫn k thấy biểu tượng ở góc","can_remove":false,"created_time":"2013-06-30T10:18:45+0000","like_count":0,"user_likes":false},"678568232159857":{"id":"678568232159857","from":{"id":"100004948993646","name":"Trống Rỗng"},"message":"với lại e chỉ thấy bản Japanese- English ? chứ k thấy bản Japanese - English Viet nam","can_remove":false,"created_time":"2013-06-30T10:21:37+0000","like_count":0,"user_likes":false},"678568248826522":{"id":"678568248826522","from":{"id":"100002676859353","name":"Chu Quang Viên"},"message":"E dùng trình duyệt gì ? Vậy a đoán 90 % là em add on chưa thành công :) làm thử lại đi nhé","can_remove":false,"created_time":"2013-06-30T10:21:39+0000","like_count":0,"user_likes":false},"678568482159832":{"id":"678568482159832","from":{"id":"100004948993646","name":"Trống Rỗng"},"message":"e add thành công rồi mà , e check đã có add on nhưng ko thấy nó hiện ở góc ấy","can_remove":false,"created_time":"2013-06-30T10:22:24+0000","like_count":0,"user_likes":false},"678569145493099":{"id":"678569145493099","from":{"id":"100002676859353","name":"Chu Quang Viên"},"message":"Nếu dùng firefox thì tìm cái thứ 2 từ dưới lên ý :v a chả nhớ rõ tên cái dictionary ấy lắm :v","can_remove":false,"created_time":"2013-06-30T10:24:24+0000","like_count":0,"user_likes":false},"678569408826406":{"id":"678569408826406","from":{"id":"100002676859353","name":"Chu Quang Viên"},"message":"Vậy thì chia buồn là nó cũng kén ng dùng :)) chắc nó chỉ cho ng tốt dùng :))","can_remove":false,"created_time":"2013-06-30T10:25:26+0000","like_count":1,"user_likes":false},"678612572155423":{"id":"678612572155423","from":{"id":"100003016747298","name":"Minh Phượng"},"message":"Cảm ơn anh Masamune Độc Hành ^_^","message_tags":[{"id":"100002676859353","name":"Masamune Độc Hành","type":"user","offset":11,"length":17}],"can_remove":false,"created_time":"2013-06-30T12:35:14+0000","like_count":1,"user_likes":false},"678952868788060":{"id":"678952868788060","from":{"id":"100004948993646","name":"Trống Rỗng"},"message":"Em làm dc roài. HEHE thanks bác","can_remove":false,"created_time":"2013-07-01T03:32:04+0000","like_count":0,"user_likes":false},"678965288786818":{"id":"678965288786818","from":{"id":"100002676859353","name":"Chu Quang Viên"},"message":"ơ thế hóa ra chú cũng là ng tốt đấy :v","can_remove":false,"created_time":"2013-07-01T04:03:53+0000","like_count":1,"user_likes":false},"678972948786052":{"id":"678972948786052","from":{"id":"100003321786144","name":"Baloon Bambootatoo"},"message":"a ơi e ko hiểu bước 2 làm thế nào để addon ạ???tại sao nó ko hiện từ điển bộ 3 j-e-v ạ?","can_remove":false,"created_time":"2013-07-01T04:26:09+0000","like_count":0,"user_likes":false},"678996175450396":{"id":"678996175450396","from":{"id":"100002676859353","name":"Chu Quang Viên"},"message":"Baloon Bambootatoo: sau khi em add on nó xong thì từ điển sẽ tự động xuất hiện,em add cái bộ ở giữa ý,click vào cái bộ từ điển đó và chấp nhận cài đặt :D","message_tags":[{"id":"100003321786144","name":"Baloon Bambootatoo","type":"user","offset":0,"length":18}],"can_remove":false,"created_time":"2013-07-01T05:41:51+0000","like_count":0,"user_likes":false},"679432218740125":{"id":"679432218740125","from":{"id":"100002204642809","name":"Meo Min"},"message":"sao k lam dc vay ?","can_remove":false,"created_time":"2013-07-02T02:15:57+0000","like_count":0,"user_likes":false},"694372500579430":{"id":"694372500579430","from":{"id":"100001508739620","name":"Lê Ngọc Hoàn"},"message":"Tìm lại được cái này tốn time quá :v","can_remove":false,"created_time":"2013-07-30T01:38:05+0000","like_count":0,"user_likes":false}},"paging":{"cursors":{"after":"Njc4NTQ3NTI4ODI4NTk0","before":"Njc4NTQ3NTI4ODI4NTk0"},"next":"https://graph.facebook.com/229244010425617_678546058828741/comments?limit=1&summary=1&after=Njc4NTQ3NTI4ODI4NTk0"},"summary":{"order":"chronological","total_count":19}}}