{"id":"229244010425617_679441835405830","type":"status","from":{"id":"1307978413","name":"PoohPooh Péo Phị"},"message":"xin chào, mình đến từ Báo Du Học, một dự án về cổng thông tin chính thức về du học cho các bạn trẻ ở Việt Nam cũng như du học sinh trên toàn thế giới. Nếu bạn nào muốn cộng tác cùng với báo mình, xin hãy gửi thông tin và CV bản thân về địa chỉ editor@baoduhoc.vn\n\nMình đang cần 1 số lượng CTV là các bạn đã đang sắp đi du học để cộng tác viết bài, \nthân chào :)","created_time":"2013-07-02T02:46:22+0000","updated_time":"2013-07-02T16:14:31+0000","likes":{"data":{"100001731744647":{"id":"100001731744647","name":"Niềm Vui"},"100001802076152":{"id":"100001802076152","name":"Hoang Thanh Dong"},"100003996646123":{"id":"100003996646123","name":"Lien Truong"}},"paging":{"cursors":{"after":"MTAwMDAxNzMxNzQ0NjQ3","before":"MTAwMDAxNzMxNzQ0NjQ3"},"next":"https://graph.facebook.com/229244010425617_679441835405830/likes?limit=1&summary=1&after=MTAwMDAxNzMxNzQ0NjQ3"},"summary":{"total_count":3}},"comments":{"data":{"679468232069857":{"id":"679468232069857","from":{"id":"100001458099624","name":"Kham Pha"},"message":"viết bài về những nội dung gì vậy bạn?","can_remove":false,"created_time":"2013-07-02T04:03:21+0000","like_count":0,"user_likes":false},"679468405403173":{"id":"679468405403173","from":{"id":"1307978413","name":"PoohPooh Péo Phị"},"message":"bạn gửi CV về cho email trên, mình sẽ trao đổi kĩ hơn.","can_remove":false,"created_time":"2013-07-02T04:04:03+0000","like_count":0,"user_likes":false},"679468838736463":{"id":"679468838736463","from":{"id":"100001458099624","name":"Kham Pha"},"message":"thông tin có mật ko, nếu ko thì bạn nên post luôn lên để mọi người cùng đọc. Như vậy bạn đỡ mất công trao đổi với từng người mà mọi người cũng có thể nhanh chóng biết mình có phù hợp hay không.","can_remove":false,"created_time":"2013-07-02T04:05:27+0000","like_count":1,"user_likes":false},"679469358736411":{"id":"679469358736411","from":{"id":"1307978413","name":"PoohPooh Péo Phị"},"message":"báo của mình chưa lauching nên mọi thứ vẫn chưa nên công khai bạn ạ :)","can_remove":false,"created_time":"2013-07-02T04:07:30+0000","like_count":0,"user_likes":false},"679473775402636":{"id":"679473775402636","from":{"id":"100001458099624","name":"Kham Pha"},"message":"Vậy có form CV ko? Có nhiều loại form mà ko biết bạn cần những thông tin gì?","can_remove":false,"created_time":"2013-07-02T04:18:58+0000","like_count":0,"user_likes":false},"679475805402433":{"id":"679475805402433","from":{"id":"1307978413","name":"PoohPooh Péo Phị"},"message":"CV làm việc bằng tiếng Anh hoặc Việt đều dc :)","can_remove":false,"created_time":"2013-07-02T04:27:27+0000","like_count":0,"user_likes":false},"679476052069075":{"id":"679476052069075","from":{"id":"100001594722256","name":"Viết An Phạm"},"message":"Viết báo có được nhuận bút khôg bạn?","can_remove":false,"created_time":"2013-07-02T04:28:44+0000","like_count":0,"user_likes":false},"679476365402377":{"id":"679476365402377","from":{"id":"1307978413","name":"PoohPooh Péo Phị"},"message":"Có bảng nhuận riêng bạn ạ :) vả lại tụi mình là Báo Giấy và Báo Điện Tử có công ty đàng hoàng nên không lo lừa đảo đâu","can_remove":false,"created_time":"2013-07-02T04:30:20+0000","like_count":0,"user_likes":false},"679477425402271":{"id":"679477425402271","from":{"id":"100001594722256","name":"Viết An Phạm"},"message":"Ok. Mình cũng muốn thử viết báo. Có file chi tiết không bạn?","can_remove":false,"created_time":"2013-07-02T04:35:06+0000","like_count":0,"user_likes":false},"679477585402255":{"id":"679477585402255","from":{"id":"100001594722256","name":"Viết An Phạm"},"message":"Mình ko hiểu lắm về quy trình và nội dung cần phải viết","can_remove":false,"created_time":"2013-07-02T04:35:40+0000","like_count":0,"user_likes":false},"679478708735476":{"id":"679478708735476","from":{"id":"1307978413","name":"PoohPooh Péo Phị"},"message":"bạn gửi mail cho mình mình mới gửi file chi tiết dc chứ :D","can_remove":false,"created_time":"2013-07-02T04:38:36+0000","like_count":0,"user_likes":false},"679537902062890":{"id":"679537902062890","from":{"id":"100002551322103","name":"Bao Tran"},"message":"minh cung mun, mail cua minh la baotran212@gmail.com","can_remove":false,"created_time":"2013-07-02T08:48:22+0000","like_count":0,"user_likes":false},"679697938713553":{"id":"679697938713553","from":{"id":"100002866884477","name":"Nguyen Thu Huong"},"message":"PoohPooh Péo Phị gửi cho mình nữa được ko:? email huongnguyen.thu21@gmail.com/thks b","message_tags":[{"id":"1307978413","name":"PoohPooh Péo Phị","type":"user","offset":0,"length":16}],"can_remove":false,"created_time":"2013-07-02T16:14:31+0000","like_count":0,"user_likes":false}},"paging":{"cursors":{"after":"Njc5NDY4MjMyMDY5ODU3","before":"Njc5NDY4MjMyMDY5ODU3"},"next":"https://graph.facebook.com/229244010425617_679441835405830/comments?limit=1&summary=1&after=Njc5NDY4MjMyMDY5ODU3"},"summary":{"order":"chronological","total_count":13}}}