{"id":"229244010425617_679656722051008","type":"status","from":{"id":"1629517470","name":"Nguyen Thi Thanh Van"},"message":"日本在住のベトナム国籍ハノイ周辺出身の方に新しい求人情報です。\nハノイ周辺在住で日本での就労を希望される方もお問い合わせください。\n日本での長期勤務案件です。将来ベトナムに帰国する場合もハノイ・DONG ANHにある子会社に勤務も可能です。\n日本での給与は２０万～。ただし能力・スキル・経験によってUPしますので、必ずしも２０万ではありません。\nまた転職の場合の給与の現状維持も応相談。\n応募には、日本在住者は技術ビザ＋日本語能力N3相当以上、または国際業務ビザ＋日本語能力N2相当以上が必要です。\nベトナムからの応募の方は機械工学（または電気）系大卒＋日本語能力N3相当以上、または語学系＋日本語能力N2所持以上であることが必要です。\n\n■M社（愛知県）自動車部品製造　\n採用対象：プレス用金型組み付けを研修生に教育する人材、\n長期働ける方\n\nご応募、お問い合わせは seahscorp@gmail.com までお願いします。（担当：うらべ）","created_time":"2013-07-02T14:37:58+0000","updated_time":"2013-07-02T14:53:39+0000","likes":{"data":{"100000160682677":{"id":"100000160682677","name":"Phong Nguyen Huy"},"1650776524":{"id":"1650776524","name":"Hùng Đỗ Quốc"},"100004088172713":{"id":"100004088172713","name":"Vuong Thao"},"1264623539":{"id":"1264623539","name":"Tom Tran"}},"paging":{"cursors":{"after":"MTAwMDAwMTYwNjgyNjc3","before":"MTAwMDAwMTYwNjgyNjc3"},"next":"https://graph.facebook.com/229244010425617_679656722051008/likes?limit=1&summary=1&after=MTAwMDAwMTYwNjgyNjc3"},"summary":{"total_count":4}},"comments":{"data":{"679658522050828":{"id":"679658522050828","from":{"id":"100000381394367","name":"Thành Nguyễn"},"message":"Nguyễn Tiến Tuấn vào check","message_tags":[{"id":"100000082245688","name":"Nguyễn Tiến Tuấn","type":"user","offset":0,"length":16}],"can_remove":false,"created_time":"2013-07-02T14:42:38+0000","like_count":0,"user_likes":false},"679662392050441":{"id":"679662392050441","from":{"id":"100000082245688","name":"Nguyễn Tiến Tuấn"},"message":"Thôi đi Nhật gì nữa, ở nhà lấy vợ thôi :D!","can_remove":false,"created_time":"2013-07-02T14:51:38+0000","like_count":0,"user_likes":false},"679662692050411":{"id":"679662692050411","from":{"id":"100000381394367","name":"Thành Nguyễn"},"message":"đăng tuyển thế này để làm ở vn mà","can_remove":false,"created_time":"2013-07-02T14:52:18+0000","like_count":0,"user_likes":false},"679662838717063":{"id":"679662838717063","from":{"id":"100000082245688","name":"Nguyễn Tiến Tuấn"},"message":"uh","can_remove":false,"created_time":"2013-07-02T14:52:51+0000","like_count":0,"user_likes":false},"679662898717057":{"id":"679662898717057","from":{"id":"100000082245688","name":"Nguyễn Tiến Tuấn"},"message":"Nhung ma cong ty kieu nay di sang hoc chac vai nam!","can_remove":false,"created_time":"2013-07-02T14:53:10+0000","like_count":0,"user_likes":false},"679663085383705":{"id":"679663085383705","from":{"id":"100000082245688","name":"Nguyễn Tiến Tuấn"},"message":"Mà bạn đang máu làm kinh doanh!:D","can_remove":false,"created_time":"2013-07-02T14:53:39+0000","like_count":0,"user_likes":false}},"paging":{"cursors":{"after":"Njc5NjU4NTIyMDUwODI4","before":"Njc5NjU4NTIyMDUwODI4"},"next":"https://graph.facebook.com/229244010425617_679656722051008/comments?limit=1&summary=1&after=Njc5NjU4NTIyMDUwODI4"},"summary":{"order":"chronological","total_count":6}}}