{"id":"229244010425617_679927008690646","type":"photo","object_id":"675081402507259","picture":"https://fbcdn-photos-d-a.akamaihd.net/hphotos-ak-frc3/t1.0-0/17583_675081402507259_1032906083_s.jpg","link":"https://www.facebook.com/photo.php?fbid=675081402507259&set=gm.679927008690646&type=1&relevant_count=1","from":{"id":"100000162152142","name":"Bà Già Đau Khổ"},"message":"Anh chị ơi có ai biết công ty vận chuyển đồ nào để chuyển từ nhật bản về việt nam\nAN TOÀN ko ạ ? Đồ của e ko có đồ cấm hay gì nhưng khi muốn gửi đồ có giá trị e rất lo qua bọn hải quan bị thu giữ , giờ chúng nó khốn nạn quá nên ko biết làm sao ?? Ai biết cho e tên công ty nhé !!!","created_time":"2013-07-03T03:19:33+0000","updated_time":"2013-07-03T11:39:59+0000","likes":{"data":{"100004025145536":{"id":"100004025145536","name":"Hồng Nhung"},"1813372253":{"id":"1813372253","name":"Không Biết"},"100003579192498":{"id":"100003579192498","name":"Tham Ha"},"100003402699439":{"id":"100003402699439","name":"Trang Chan"},"100001894545350":{"id":"100001894545350","name":"Lhp Bin"},"100002425221505":{"id":"100002425221505","name":"Đặng Xuân Anh"},"100005444978072":{"id":"100005444978072","name":"Mimi Kiki"}},"paging":{"cursors":{"after":"MTAwMDA0MDI1MTQ1NTM2","before":"MTAwMDA0MDI1MTQ1NTM2"},"next":"https://graph.facebook.com/229244010425617_679927008690646/likes?limit=1&summary=1&after=MTAwMDA0MDI1MTQ1NTM2"},"summary":{"total_count":7}},"comments":{"data":{"679946408688706":{"id":"679946408688706","from":{"id":"100001416272263","name":"Mai PB"},"message":"Em gửi DHL hoặc TNT hoặc EMS có bảo hiểm","can_remove":false,"created_time":"2013-07-03T04:26:40+0000","like_count":0,"user_likes":false},"679946808688666":{"id":"679946808688666","from":{"id":"100000162152142","name":"Bà Già Đau Khổ"},"message":"E cám ơn nhiều ạ , e có thể tìm địa chỉ mấy công ty đó ở đâu ạ","can_remove":false,"created_time":"2013-07-03T04:28:31+0000","like_count":0,"user_likes":false},"679947065355307":{"id":"679947065355307","from":{"id":"100000162152142","name":"Bà Già Đau Khổ"},"message":"Chị có biết 1 cân đồ tính tiền khoảng bao nhiêu ko ạ , hoặc là giá gửi tính như nào ạ","can_remove":false,"created_time":"2013-07-03T04:29:38+0000","like_count":0,"user_likes":false},"679955645354449":{"id":"679955645354449","from":{"id":"100001416272263","name":"Mai PB"},"message":"E có biết Google kg?","can_remove":false,"created_time":"2013-07-03T05:04:01+0000","like_count":0,"user_likes":false},"679956802021000":{"id":"679956802021000","from":{"id":"100000162152142","name":"Bà Già Đau Khổ"},"message":"Nãy e có tìm nhưng mà loạn quá e tính hỏi ai biết luôn , cái phần giá e tìm toàn kiểu từ vn sang , ko hiểu từ nhật về có khác gì ko","can_remove":false,"created_time":"2013-07-03T05:09:05+0000","like_count":0,"user_likes":false},"679959188687428":{"id":"679959188687428","from":{"id":"100001416272263","name":"Mai PB"},"message":"http://dct.dhl.com/input.jsp?langId=jp&originCCId=JP","can_remove":false,"created_time":"2013-07-03T05:18:39+0000","like_count":0,"user_likes":false},"679960528687294":{"id":"679960528687294","from":{"id":"100001416272263","name":"Mai PB"},"message":"http://www.tnt.com/pricing/pricingInput.do","can_remove":false,"created_time":"2013-07-03T05:22:54+0000","like_count":0,"user_likes":false},"679962542020426":{"id":"679962542020426","from":{"id":"100000162152142","name":"Bà Già Đau Khổ"},"message":"E cám ơn ạ","can_remove":false,"created_time":"2013-07-03T05:30:20+0000","like_count":0,"user_likes":false},"680025272014153":{"id":"680025272014153","from":{"id":"100001458099624","name":"Kham Pha"},"message":"chị Mai PB :))","message_tags":[{"id":"100001416272263","name":"Mai PB","type":"user","offset":4,"length":6}],"can_remove":false,"created_time":"2013-07-03T09:41:00+0000","like_count":1,"user_likes":false},"680029618680385":{"id":"680029618680385","from":{"id":"100001416272263","name":"Mai PB"},"message":"Vì Google kg ra nam hay nữ mà","can_remove":false,"created_time":"2013-07-03T09:55:36+0000","like_count":0,"user_likes":false},"680060418677305":{"id":"680060418677305","from":{"id":"100001731744647","name":"Niềm Vui"},"message":"bạn đinh chuyển phách nhanh nhu thía nào bạn..đồ của bạn có nhiều ko..^^","can_remove":false,"created_time":"2013-07-03T11:39:59+0000","like_count":0,"user_likes":false}},"paging":{"cursors":{"after":"Njc5OTQ2NDA4Njg4NzA2","before":"Njc5OTQ2NDA4Njg4NzA2"},"next":"https://graph.facebook.com/229244010425617_679927008690646/comments?limit=1&summary=1&after=Njc5OTQ2NDA4Njg4NzA2"},"summary":{"order":"chronological","total_count":11}}}