{"id":"229244010425617_680128755337138","type":"status","from":{"id":"100001458099624","name":"Kham Pha"},"message":"Bài 126: Giải đáp các thắc mắc thường gặp. Phần 3: 仮（かり）に và 　取り敢えず（とりあえず）\n\nChào mọi người. Nhân tiện lúc nãy có bạn Huy Roli post lên group hỏi chuyện khác biệt giữa 仮に và  取りあえず nên mình viết lại bài này cho tất cả mọi người cùng tham khảo. Lúc bạn ấy hỏi mình cũng chưa giải thích hết được sự khác biệt nó ở chỗ nào. Nhưng suy nghĩ lại một hồi thì tìm ra được một cách trả lời xác đáng nhất. \n\nTại sao lại nảy sinh vấn đề giữa 2 từ này. 2 từ này dịch ra trong tiếng Việt đều là “tạm thời” nhưng thực chất là khác nhau một trời một vực. Vấn đề mà bạn Huy Roli không hiểu là khi bạn ấy gặp trường hợp sau: \n\n“Xin mạn phép hỏi thêm về sự khác nhau giữa 仮に và　取り敢えず mình viết là　今日は勉強を仮に止める bạn mình bảo nên viết là　取り敢えず今日の勉強をやめる. Mọi người giúp mình với”\n\nKhông bàn đến sự chính xác về ngữ pháp, ý nghĩa câu bạn ấy muốn nói là “Hôm nay tôi tạm thời dừng việc học lại”. Đúng như lời bạn của Huy Roli khuyên, trong trường hợp này chúng ta dùng 取り敢えず chứ không dùng 仮に. \n\nĐể hiểu một cách có hệ thống chúng ta sẽ giải thích bản chất vấn đề như sau: \n-仮に là một TRẠNG TỪ. Trạng từ là để chỉ trạng thái. Vậy ở đây ta có TRẠNG THÁI TẠM THỜI. Ví dụ: \n\n仮に目が見えなくなる \nTạm thời mắt không nhìn thấy được\n\n仮に電気がない\nTạm thời không có điện\n\nTính chất của các trạng thái này đều là TẠM THỜI. \n\n-取り敢えず là một LIÊN TỪ. Liên từ là để nối câu làm cho nghĩa các câu trở nên liên quan với nhau. Như vậy ta không thể đột nhiên nói ra một câu có  取り敢えず được. Nhất thiết phải có bối cảnh, có câu đằng trước đó. \nĐó là về mặt TỪ LOẠI. Còn về mặt ý nghĩa nó cũng khác nhau. Khi dùng  取り敢えず thường là ta sẽ phải đưa ra một quyết định, một giải pháp để ứng phó với tình hình trước mắt chứ không đơn thuần là kể ra một tình trạng mất điện hay mù mắt kia. Và cái quyết định, giải pháp này luôn đi trong một văn cảnh nào đó.  \n\nVí dụ: \n\n明日雨が降るらしいので、取り敢えず傘を買ってきてください。\nNgày mai hình như có mưa đấy, trước mắt/tạm thời cứ đi mua ô về đây.\n\nNói 仮に傘を買ってきてください là sai. Nếu bạn đi mượn thì cái ô sẽ ở tạm trong nhà bạn. Còn nếu mua về là mua về, cái ô sẽ ở mãi trong nhà bạn chứ nó chả đi đâu cả. \n\nVí dụ chính xác có sử dụng cả 仮にvà 取り敢えず:\n\n仮に電気がないので、取り敢えず友達のアパートに2、3日泊まります。\nTạm thời điện không có nên trước mắt tôi sẽ sang nhà đứa bạn ở 2, 3 ngày.\n\nVậy bạn đã hiểu tại sao bạn của Huy Roli lại khuyên như vậy chưa? Hai từ này dịch nghĩa là “tạm thời” nhưng cách dùng trong câu, chức năng ngữ pháp của nó là HOÀN TOÀN KHÁC NHAU, không thể nhầm lẫn được. \nNgoài ra các bạn cũng nên ghi nhớ,  取り敢えず là từ gần như cửa miệng của người Nhật. Đi đến đâu làm gì cần phải đưa ra giải pháp họ cũng sẽ nói thế. \n\nNếu bạn còn gì không hiểu thì hãy comment bên dưới. \n\nKham Pha","created_time":"2013-07-03T14:47:17+0000","updated_time":"2013-07-05T01:45:06+0000","likes":{"data":{"1286770563":{"id":"1286770563","name":"Vu Hong Trang"},"100004275305539":{"id":"100004275305539","name":"Tuyen Susan"},"100000073848158":{"id":"100000073848158","name":"Hoàng Đắc"},"100000070097014":{"id":"100000070097014","name":"Huy Nguyen"},"100003713852718":{"id":"100003713852718","name":"Huệ Nguyen"},"100000266887521":{"id":"100000266887521","name":"Hương Lê Thu"},"100001526631937":{"id":"100001526631937","name":"Tường Oanh Mineko"},"100004448979520":{"id":"100004448979520","name":"Lê Quang Lập"},"100001594722256":{"id":"100001594722256","name":"Viết An Phạm"},"100004477292126":{"id":"100004477292126","name":"Kien Xinh Doan"},"100003566412558":{"id":"100003566412558","name":"Anh Việt Nguyễn"},"100003504236087":{"id":"100003504236087","name":"Nguyễn Văn Tèo"},"100001508739620":{"id":"100001508739620","name":"Lê Ngọc Hoàn"},"100001100027589":{"id":"100001100027589","name":"Tuấn Anh Lê"},"100000198219367":{"id":"100000198219367","name":"Chang Jiang"},"100001695345798":{"id":"100001695345798","name":"Tyn Aki"},"1693102459":{"id":"1693102459","name":"Châu Hoàng"}},"paging":{"cursors":{"after":"MTI4Njc3MDU2Mw==","before":"MTI4Njc3MDU2Mw=="},"next":"https://graph.facebook.com/229244010425617_680128755337138/likes?limit=1&summary=1&after=MTI4Njc3MDU2Mw%3D%3D"},"summary":{"total_count":17}},"comments":{"data":{"680128842003796":{"id":"680128842003796","from":{"id":"100001458099624","name":"Kham Pha"},"message":"Huy Roli","message_tags":[{"id":"100000064686295","name":"Huy Roli","type":"user","offset":0,"length":8}],"can_remove":false,"created_time":"2013-07-03T14:47:32+0000","like_count":1,"user_likes":false},"680137085336305":{"id":"680137085336305","from":{"id":"100000198219367","name":"Chang Jiang"},"message":"仮に tình trạng hiện tại tạm thời là như vậy\n\n取り敢えず giải pháp tạm thời (tình thế) là như vậy\n\ncó thể hiểu như thế ko nhi?","can_remove":false,"created_time":"2013-07-03T15:04:27+0000","like_count":1,"user_likes":false},"680140848669262":{"id":"680140848669262","from":{"id":"100001416272263","name":"Mai PB"},"message":"仮に không dùng biểu thị trạng thái (何が) tạm thời đâu, mà dùng biểu thị hành động (何を) tạm thời đấy. Trạng thái tạm thời thì dùng 暫定的に (văn viết) hoặc 暫く.","can_remove":false,"created_time":"2013-07-03T15:15:22+0000","like_count":1,"user_likes":false},"680141098669237":{"id":"680141098669237","from":{"id":"100000198219367","name":"Chang Jiang"},"message":"Kham Pha kìa","message_tags":[{"id":"100001458099624","name":"Kham Pha","type":"user","offset":0,"length":8}],"can_remove":false,"created_time":"2013-07-03T15:16:16+0000","like_count":0,"user_likes":false},"680141288669218":{"id":"680141288669218","from":{"id":"100001416272263","name":"Mai PB"},"message":"http://kotobank.jp/word/%E4%BB%AE%E3%81%AB","can_remove":false,"created_time":"2013-07-03T15:16:48+0000","like_count":1,"user_likes":false},"680147682001912":{"id":"680147682001912","from":{"id":"100001458099624","name":"Kham Pha"},"message":"ví dụ về 仮に電気がない là đúng hay sai?","can_remove":false,"created_time":"2013-07-03T15:32:28+0000","like_count":0,"user_likes":false},"680395835310430":{"id":"680395835310430","from":{"id":"100001416272263","name":"Mai PB"},"message":"Kg nói thế dc.","can_remove":false,"created_time":"2013-07-04T02:41:14+0000","like_count":0,"user_likes":false},"680403005309713":{"id":"680403005309713","from":{"id":"100000064686295","name":"Huy Roli"},"message":"Thế thì câu mình nói là đúng hay ko, vì mình chỉ muốn nói tạm thời hôm nay nghỉ học","can_remove":false,"created_time":"2013-07-04T03:08:52+0000","like_count":0,"user_likes":false},"680407225309291":{"id":"680407225309291","from":{"id":"100001416272263","name":"Mai PB"},"message":"Ngoài ví dụ về 仮に thì Kham Pha giải thích đúng rồi.","message_tags":[{"id":"100001458099624","name":"Kham Pha","type":"user","offset":22,"length":8}],"can_remove":false,"created_time":"2013-07-04T03:17:37+0000","like_count":0,"user_likes":false},"680408291975851":{"id":"680408291975851","from":{"id":"100000064686295","name":"Huy Roli"},"message":"Thì câu của mình đằng sau là động từ đấy thôi","can_remove":false,"created_time":"2013-07-04T03:22:31+0000","like_count":0,"user_likes":false},"680416665308347":{"id":"680416665308347","from":{"id":"100001458099624","name":"Kham Pha"},"message":"仮に目が見えなくなる chẳng phải cũng là trạng thái đó sao. Câu này em lấy trong từ điển ra nên chắc chắn không sai đc rồi :D","can_remove":false,"created_time":"2013-07-04T03:50:07+0000","like_count":0,"user_likes":false},"680418268641520":{"id":"680418268641520","from":{"id":"100001416272263","name":"Mai PB"},"message":"Câu đó sai em ơi. :-) chắc em nhầm với nghĩa \"giả sử, dù có\" của 仮に ?","can_remove":false,"created_time":"2013-07-04T03:56:12+0000","like_count":0,"user_likes":false},"680418418641505":{"id":"680418418641505","from":{"id":"100001416272263","name":"Mai PB"},"message":"仮に目が見えなくても頭で見るから大丈夫 là câu ok nhưng nghĩa khác.","can_remove":false,"created_time":"2013-07-04T03:56:46+0000","like_count":0,"user_likes":false},"680418985308115":{"id":"680418985308115","from":{"id":"100001416272263","name":"Mai PB"},"message":"nếu em muốn nói tạm thời kg nhìn thấy thì phải nói ちょっとの間だけ（ / 今は / しばらくは / 一時的に）目が見えなくなるけど、我慢して、すぐ終わるから","can_remove":false,"created_time":"2013-07-04T03:58:56+0000","like_count":2,"user_likes":false},"680419171974763":{"id":"680419171974763","from":{"id":"100001458099624","name":"Kham Pha"},"message":"Có cả chuyện này ah, em ko biết. Đang định hỏi như thế thì anh trả lời luôn rồi :))","can_remove":false,"created_time":"2013-07-04T03:59:26+0000","like_count":0,"user_likes":false},"680419548641392":{"id":"680419548641392","from":{"id":"100001458099624","name":"Kham Pha"},"message":"Anh Mai PB làm admin group nhé, có gì chỉ bảo cho đàn em :D","message_tags":[{"id":"100001416272263","name":"Mai PB","type":"user","offset":4,"length":6}],"can_remove":false,"created_time":"2013-07-04T04:00:57+0000","like_count":0,"user_likes":false},"680419558641391":{"id":"680419558641391","from":{"id":"100001416272263","name":"Mai PB"},"message":"thực ra cái nghĩa \"giả sử, dù có\" là nghĩa thông dụng hơn.","can_remove":false,"created_time":"2013-07-04T04:00:59+0000","like_count":1,"user_likes":false},"680419658641381":{"id":"680419658641381","from":{"id":"100001416272263","name":"Mai PB"},"message":"anh kg dám :-)","can_remove":false,"created_time":"2013-07-04T04:01:25+0000","like_count":0,"user_likes":false},"680419888641358":{"id":"680419888641358","from":{"id":"100001458099624","name":"Kham Pha"},"message":"anh không dám thì còn ai dám","can_remove":false,"created_time":"2013-07-04T04:02:06+0000","like_count":0,"user_likes":false},"680422378641109":{"id":"680422378641109","from":{"id":"100001458099624","name":"Kham Pha"},"message":"Mai PB Group bây giờ tổ chức vẫn còn lộn xộn lắm. Em đang cần tìm người có kinh nghiệm để tổ chức lại cách hoạt động. Người nhiều kinh nghiệm học tiếng Nhật như anh chắc sẽ đưa ra được nhiều ý kiến hữu ích. Vả lại nhiều kinh nghiệm thì mọi người cũng nể lời nói của anh hơn. Anh làm nhé :D","message_tags":[{"id":"100001416272263","name":"Mai PB","type":"user","offset":0,"length":6}],"can_remove":false,"created_time":"2013-07-04T04:09:39+0000","like_count":0,"user_likes":false},"680425018640845":{"id":"680425018640845","from":{"id":"100001458099624","name":"Kham Pha"},"message":"vậy ae mình vào inbox bàn nhé :D","can_remove":false,"created_time":"2013-07-04T04:19:38+0000","like_count":0,"user_likes":false},"680456468637700":{"id":"680456468637700","from":{"id":"100006015640408","name":"ʚɞNam Châmʚɞ"},"message":"cho iêm hỏi....sao tiếng nhật....nó lại có toàn \"この店の前にいつも人がたくさん＿＿＿ね。\" e k hiểu gì @@~","can_remove":false,"created_time":"2013-07-04T06:25:15+0000","like_count":0,"user_likes":false},"680648898618457":{"id":"680648898618457","from":{"id":"100001458099624","name":"Kham Pha"},"message":"Mai PB nếu vậy thì câu thắc mắc ban đầu của Huy Roli cũng ko hẳn sai. Còn tùy vào hoàn cảnh nói câu ấy.","message_tags":[{"id":"100001416272263","name":"Mai PB","type":"user","offset":0,"length":6}],"can_remove":false,"created_time":"2013-07-04T16:36:03+0000","like_count":1,"user_likes":false},"680830721933608":{"id":"680830721933608","from":{"id":"100001416272263","name":"Mai PB"},"message":"Câu nào?","can_remove":false,"created_time":"2013-07-05T00:31:12+0000","like_count":0,"user_likes":false},"680839338599413":{"id":"680839338599413","from":{"id":"100001458099624","name":"Kham Pha"},"message":"câu 今日は勉強を仮に止める","can_remove":false,"created_time":"2013-07-05T00:59:59+0000","like_count":0,"user_likes":false},"680852008598146":{"id":"680852008598146","from":{"id":"100001416272263","name":"Mai PB"},"message":"Đúng ngữ pháp nhưng kg tự nhiên, kg ai nói vậy với 仮に. Có lẽ vì kg tạo ra cái gì mà lại là làm mất cái gì.","can_remove":false,"created_time":"2013-07-05T01:45:06+0000","like_count":0,"user_likes":false}},"paging":{"cursors":{"after":"NjgwMTI4ODQyMDAzNzk2","before":"NjgwMTI4ODQyMDAzNzk2"},"next":"https://graph.facebook.com/229244010425617_680128755337138/comments?limit=1&summary=1&after=NjgwMTI4ODQyMDAzNzk2"},"summary":{"order":"chronological","total_count":26}}}