{"id":"229244010425617_680103418673005","type":"status","from":{"id":"100004169731179","name":"Hường Hoàng"},"message":"sắp thi N rồi mà bây giờ mình cứ mơ mơ màng màng ý ,vì đây là lần thi N2 đầu tiên ,không biết cấu trúc ra đề như thế nào cho dù mình đã làm hết các đề 2kyu và 1kyu thật kĩ các năm về trước rồi nhưng vẫn thấy không hề tự tin tẹo nào ,bạn nào sắp thi mà có cảm giác giống mình không ,lo quá ..","created_time":"2013-07-03T13:38:01+0000","updated_time":"2013-07-03T22:06:08+0000","likes":{"data":{"100003684672515":{"id":"100003684672515","name":"Le Duong"},"100005646455011":{"id":"100005646455011","name":"Shin Saigai"},"100003875211691":{"id":"100003875211691","name":"Hue Yamashironguyen"},"100003055356509":{"id":"100003055356509","name":"Thuan Nguyen"},"100004088172713":{"id":"100004088172713","name":"Vuong Thao"},"100003996646123":{"id":"100003996646123","name":"Lien Truong"},"100001864793577":{"id":"100001864793577","name":"Sakura Đhbkhn"},"100003207550369":{"id":"100003207550369","name":"Khoa Doan"},"100003107551526":{"id":"100003107551526","name":"Dế Mèn"},"100001216203214":{"id":"100001216203214","name":"Lala Rita"},"100003656590865":{"id":"100003656590865","name":"Nile Haru"},"581814582":{"id":"581814582","name":"Nguyen Dinh Duc"},"100005571974356":{"id":"100005571974356","name":"Thẻ Gọi Quốc Tế"},"100003239853441":{"id":"100003239853441","name":"Chu Văn Thọ"},"100004169731179":{"id":"100004169731179","name":"Hường Hoàng"}},"paging":{"cursors":{"after":"MTAwMDAzNjg0NjcyNTE1","before":"MTAwMDAzNjg0NjcyNTE1"},"next":"https://graph.facebook.com/229244010425617_680103418673005/likes?limit=1&summary=1&after=MTAwMDAzNjg0NjcyNTE1"},"summary":{"total_count":15}},"comments":{"data":{"680103785339635":{"id":"680103785339635","from":{"id":"100005571974356","name":"Thẻ Gọi Quốc Tế"},"message":"頑張れ","can_remove":false,"created_time":"2013-07-03T13:39:04+0000","like_count":1,"user_likes":false},"680104035339610":{"id":"680104035339610","from":{"id":"100004169731179","name":"Hường Hoàng"},"message":"arigatou ne @@","can_remove":false,"created_time":"2013-07-03T13:39:54+0000","like_count":0,"user_likes":false},"680108838672463":{"id":"680108838672463","from":{"id":"100001864793577","name":"Sakura Đhbkhn"},"message":"anh cung thi N2 ne,nhung ma lan nay di lay kinh nghiem thoi...ma thay em on ki cang nhu vay this e ko phai lo lang nhieu day.Tu tin len em nhe?","can_remove":false,"created_time":"2013-07-03T13:54:21+0000","like_count":2,"user_likes":false},"680109495339064":{"id":"680109495339064","from":{"id":"100003207550369","name":"Khoa Doan"},"message":"僕も今度n2 を受験します。ドキドキしていますが一緒に頑張りましょう。","can_remove":false,"created_time":"2013-07-03T13:55:10+0000","like_count":2,"user_likes":false},"680110035339010":{"id":"680110035339010","from":{"id":"100004169731179","name":"Hường Hoàng"},"message":"hihi,phải cố gắng thui ,cùng cố gắng nhé mọi người @@","can_remove":false,"created_time":"2013-07-03T13:56:21+0000","like_count":2,"user_likes":false},"680110738672273":{"id":"680110738672273","from":{"id":"100001864793577","name":"Sakura Đhbkhn"},"message":"あの、みなさんがんばれ。","can_remove":false,"created_time":"2013-07-03T13:57:30+0000","like_count":1,"user_likes":false},"680110848672262":{"id":"680110848672262","from":{"id":"100001754136107","name":"Nguyễn Tuấn Vũ"},"message":":) thế thì thêm chút tự tin là đủ","can_remove":false,"created_time":"2013-07-03T13:57:38+0000","like_count":1,"user_likes":false},"680111445338869":{"id":"680111445338869","from":{"id":"100004169731179","name":"Hường Hoàng"},"message":"vâng @@","can_remove":false,"created_time":"2013-07-03T13:59:10+0000","like_count":0,"user_likes":false},"680123892004291":{"id":"680123892004291","from":{"id":"1693102459","name":"Châu Hoàng"},"message":"Khoa Doan: chúc a may mắn :)","message_tags":[{"id":"100003207550369","name":"Khoa Doan","type":"user","offset":0,"length":9}],"can_remove":false,"created_time":"2013-07-03T14:33:05+0000","like_count":1,"user_likes":false},"680124242004256":{"id":"680124242004256","from":{"id":"100003207550369","name":"Khoa Doan"},"message":"Châu Hoàng.kam on em nhieu nhe.","message_tags":[{"id":"1693102459","name":"Châu Hoàng","type":"user","offset":0,"length":10}],"can_remove":false,"created_time":"2013-07-03T14:34:01+0000","like_count":0,"user_likes":false},"680124675337546":{"id":"680124675337546","from":{"id":"100001754136107","name":"Nguyễn Tuấn Vũ"},"message":"Thế k co minhg ak :)) Châu Hoàng","message_tags":[{"id":"1693102459","name":"Châu Hoàng","type":"user","offset":22,"length":10}],"can_remove":false,"created_time":"2013-07-03T14:35:34+0000","like_count":0,"user_likes":false},"680124795337534":{"id":"680124795337534","from":{"id":"1693102459","name":"Châu Hoàng"},"message":"Nguyễn Tuấn Vũ: khônggggggg  😄","message_tags":[{"id":"100001754136107","name":"Nguyễn Tuấn Vũ","type":"user","offset":0,"length":14}],"can_remove":false,"created_time":"2013-07-03T14:35:59+0000","like_count":0,"user_likes":false},"680135105336503":{"id":"680135105336503","from":{"id":"100001754507610","name":"Trịnh Anh Chinh"},"message":"Goodluck!!!","can_remove":false,"created_time":"2013-07-03T14:58:22+0000","like_count":0,"user_likes":false},"680295318653815":{"id":"680295318653815","from":{"id":"100003759697108","name":"Lê Văn Thành"},"message":"Dc day","can_remove":false,"created_time":"2013-07-03T22:05:54+0000","like_count":0,"user_likes":false},"680295368653810":{"id":"680295368653810","from":{"id":"100003759697108","name":"Lê Văn Thành"},"message":"Chac gioi nhi moi thi n2 hjc","can_remove":false,"created_time":"2013-07-03T22:06:08+0000","like_count":0,"user_likes":false}},"paging":{"cursors":{"after":"NjgwMTAzNzg1MzM5NjM1","before":"NjgwMTAzNzg1MzM5NjM1"},"next":"https://graph.facebook.com/229244010425617_680103418673005/comments?limit=1&summary=1&after=NjgwMTAzNzg1MzM5NjM1"},"summary":{"order":"chronological","total_count":15}}}