{"id":"229244010425617_680185061998174","type":"status","from":{"id":"1693102459","name":"Châu Hoàng"},"message":"この店の前にいつも人がたくさん＿＿＿ね。\nA.並べています。\nB.並んでいます。\nMọi người chém giúp em câu này. Tại sao chọn A, tại sao chọn B??","created_time":"2013-07-03T17:12:39+0000","updated_time":"2013-07-04T12:33:32+0000","comments":{"data":{"680194298663917":{"id":"680194298663917","from":{"id":"100004275305539","name":"Tuyen Susan"},"message":"Ｂ。mấu chốt của câu này là fân biệt nội hay ngoại động từ.並べていますLà ngoại động từ còn 並んでいます là nội động từ.co mẫu ngữ pháp NがVています。V được sử dụng ở đây la nội động từ,diễn tả trạng  thái phát sinh do kết quả của động tác hoặc hành động.","can_remove":false,"created_time":"2013-07-03T17:32:16+0000","like_count":2,"user_likes":false},"680307775319236":{"id":"680307775319236","from":{"id":"100000162152142","name":"Bà Già Đau Khổ"},"message":"Bạn có thể hiểu 1 cách dễ hình dung như sau :\n\nA : 並べる ngoại động từ \nNgoại động từ đc sử dụng khi ta trực tiếp tác động vào cái gì đó làm nó chuyển động , thay đổi ...\n\nVd : xếp ghế , xếp bàn \n椅子を並べています\nBạn dùng を và ngoại động từ vì bạn trực tiếp tác động vào cái ghế , sắp xếp nó \n\nB : 並ぶ nội động từ dùng cho việc bạn nhìn vào 1 trạng thái gì đó miêu tả nó\n\nTất nhiên khi bạn thấy 1 hàng ng đang đứng xếp hàng ngoài cửa là bạn đang nhìn vào 1 trạng thái có sẵn , miêu tả nó , bạn ko hề tác động vào người đang xếp hàng đúng ko ??? Vậy nên bạn sẽ sử dụng nội động từ trong trg hợp này ( họ tự xếp hàng còn bạn chỉ miêu tả lại )\n\nGiống như những trg hợp bạn thấy cánh cửa đóng , hay đèn đang bật ... Bạn miêu tả lại nó thì phải dùng nội động từ , bạn tự tác động thì dùng ngoại động từ\n\nTrong câu này chọn B","can_remove":false,"created_time":"2013-07-03T22:45:48+0000","like_count":8,"user_likes":false},"680308081985872":{"id":"680308081985872","from":{"id":"100000162152142","name":"Bà Già Đau Khổ"},"message":"Nói chung bạn chỉ cần phân biệt ra đâu là ngoại đt đâu là nội đt là ok","can_remove":false,"created_time":"2013-07-03T22:47:03+0000","like_count":0,"user_likes":false},"680324341984246":{"id":"680324341984246","from":{"id":"100002493915925","name":"Vũ Đăng Toàn"},"message":"thường là hàng trước masu thuộc hàng e thì là ngoại động từ","can_remove":false,"created_time":"2013-07-03T23:46:34+0000","like_count":0,"user_likes":false},"680374598645887":{"id":"680374598645887","from":{"id":"1693102459","name":"Châu Hoàng"},"message":"mình lại quá tệ phần nội và ngoại động từ :((","can_remove":false,"created_time":"2013-07-04T01:41:11+0000","like_count":0,"user_likes":false},"680391311977549":{"id":"680391311977549","from":{"id":"100000280776405","name":"Viet Nguyen Thanh"},"message":"làm nhiều sẽ quen thôi","can_remove":false,"created_time":"2013-07-04T02:26:25+0000","like_count":0,"user_likes":false},"680412311975449":{"id":"680412311975449","from":{"id":"100003120400500","name":"Nho'k Tươi Cười"},"message":"Nội là nội lực tác động.ngoại là ngoại lực tác động không điều khiển được.nhớ thế thôi.:))))","can_remove":false,"created_time":"2013-07-04T03:33:25+0000","like_count":0,"user_likes":false},"680459545304059":{"id":"680459545304059","from":{"id":"1693102459","name":"Châu Hoàng"},"message":"Trâm Bầu cũng hỏi vấn đề này à :)","message_tags":[{"id":"100006015640408","name":"Trâm Bầu","type":"user","offset":0,"length":8}],"can_remove":false,"created_time":"2013-07-04T06:39:46+0000","like_count":0,"user_likes":false},"680459761970704":{"id":"680459761970704","from":{"id":"100006015640408","name":"ʚɞNam Châmʚɞ"},"message":"Châu Hoàng VẦNG @@~","message_tags":[{"id":"1693102459","name":"Châu Hoàng","type":"user","offset":0,"length":10}],"can_remove":false,"created_time":"2013-07-04T06:40:35+0000","like_count":0,"user_likes":false},"680460908637256":{"id":"680460908637256","from":{"id":"1693102459","name":"Châu Hoàng"},"message":"bạn cũng làm đề à :D xem các cmt giải thích ở trên nhé :)","can_remove":false,"created_time":"2013-07-04T06:43:26+0000","like_count":0,"user_likes":false},"680549071961773":{"id":"680549071961773","from":{"id":"100003644019916","name":"Ơn-Đền Oán-Trả"},"message":"rat chuan","can_remove":false,"created_time":"2013-07-04T12:33:21+0000","like_count":0,"user_likes":false},"680549091961771":{"id":"680549091961771","from":{"id":"100003644019916","name":"Ơn-Đền Oán-Trả"},"message":"cac anh cac chi hoc gioi theeeeeeeeeeee","can_remove":false,"created_time":"2013-07-04T12:33:29+0000","like_count":1,"user_likes":false},"680549125295101":{"id":"680549125295101","from":{"id":"100003644019916","name":"Ơn-Đền Oán-Trả"},"message":"day em voi","can_remove":false,"created_time":"2013-07-04T12:33:32+0000","like_count":0,"user_likes":false}},"paging":{"cursors":{"after":"NjgwMTk0Mjk4NjYzOTE3","before":"NjgwMTk0Mjk4NjYzOTE3"},"next":"https://graph.facebook.com/229244010425617_680185061998174/comments?limit=1&summary=1&after=NjgwMTk0Mjk4NjYzOTE3"},"summary":{"order":"chronological","total_count":13}},"likes":{"data":[]}}