{"id":"229244010425617_680204138662933","type":"video","picture":"https://fbexternal-a.akamaihd.net/safe_image.php?d=AQDB7eopPko2nlPO&w=130&h=130&url=http%3A%2F%2Fi1.ytimg.com%2Fvi%2FyUDi4_uey1E%2Fmaxresdefault.jpg%3Ffeature%3Dog","link":"http://www.youtube.com/watch?v=yUDi4_uey1E","source":"http://www.youtube.com/v/yUDi4_uey1E?autohide=1&version=3&autoplay=1","from":{"id":"100001894545350","name":"Lhp Bin"},"message":"Chào mọi người, em xin phép được spam chút. Em muốn tìm nhạc nền của trailer này, và em đc biết nó là 1 bài hát trong album của Linked Horizon sẽ được ra mắt trong tháng 7 này. Ai có thể giúp em tìm link mp3 của bài này không ạ? em cảm ơn ạ. Nó rất quan trọng với em *cúi đầu*","created_time":"2013-07-03T18:00:46+0000","updated_time":"2013-07-07T12:40:33+0000","likes":{"data":{"100001695345798":{"id":"100001695345798","name":"Tyn Aki"}},"paging":{"cursors":{"after":"MTAwMDAxNjk1MzQ1Nzk4","before":"MTAwMDAxNjk1MzQ1Nzk4"}},"summary":{"total_count":1}},"comments":{"data":{"680353111981369":{"id":"680353111981369","from":{"id":"100001503971079","name":"Yuuta Nguyễn"},"message":"lên uTube nhấp Shingeki no kyojin OP FUL là ra","can_remove":false,"created_time":"2013-07-04T00:33:03+0000","like_count":0,"user_likes":false},"681181125231901":{"id":"681181125231901","from":{"id":"100001894545350","name":"Lhp Bin"},"message":"Em ko cần nhạc mở đầu hay kết thúc của phim này ạ, em chỉ cần nhạc là nhạc nền của cái clip trên thôi, huhu :((((","can_remove":false,"created_time":"2013-07-05T13:27:25+0000","like_count":0,"user_likes":false},"681204448562902":{"id":"681204448562902","from":{"id":"100001416272263","name":"Mai PB"},"message":"Clip trên kg phải là của Linked Horizon, giọng nữ mà. Tên clip là gì thì kg/chưa được công khai, có lẽ chỉ tồn tại trên phim chứ kg được ra single.","can_remove":false,"created_time":"2013-07-05T14:29:04+0000","like_count":0,"user_likes":false},"682103361806344":{"id":"682103361806344","from":{"id":"100003700084315","name":"Trầm Luân"},"message":"Lhp Bin\nhttp://www.youtube.com/watch?v=BrXAAWTSckA","message_tags":[{"id":"100001894545350","name":"Lhp Bin","type":"user","offset":0,"length":7}],"can_remove":false,"created_time":"2013-07-07T12:40:33+0000","like_count":0,"user_likes":false}},"paging":{"cursors":{"after":"NjgwMzUzMTExOTgxMzY5","before":"NjgwMzUzMTExOTgxMzY5"},"next":"https://graph.facebook.com/229244010425617_680204138662933/comments?limit=1&summary=1&after=NjgwMzUzMTExOTgxMzY5"},"summary":{"order":"chronological","total_count":4}}}