{"id":"229244010425617_681177165232297","type":"status","from":{"id":"100001458099624","name":"Kham Pha"},"message":"Danh mục bài học và danh sách admin:\n\nhttps://www.facebook.com/groups/229244010425617/doc/623539644329383/\n\nMai PB-----------------------Nhật\nPhạm Thúc Hưng---------Hà Nội\nVẹt Đêm--------------------Sài Gòn\nHeo Sua Jun Jun----------Sài Gòn\nTan Vu----------------------Hà Nội\nThành Nguyễn-------------Hà Nội\nChang Jiang----------------Hà Nội\nChâu Hoàng----------------Đà Nẵng\nJouzu Waei-----------------Hà Nội\nTyn Aki----------------------Nhật\nNguyễn Tuấn Vũ-----------Nhật\nKham Pha-------------------Nhật","created_time":"2013-07-05T13:17:30+0000","updated_time":"2013-07-06T12:37:49+0000","likes":{"data":{"100003109506619":{"id":"100003109506619","name":"Thanh Xuân Nguyễn"},"100003597762614":{"id":"100003597762614","name":"Shizuka Solembum"},"100002508122689":{"id":"100002508122689","name":"Vũ Mạnh Tuấn"},"100004478832761":{"id":"100004478832761","name":"Thiên Trang"},"100002838211800":{"id":"100002838211800","name":"Hà Trần"},"1724637046":{"id":"1724637046","name":"Nguyen Bao Tuan"},"100001074872069":{"id":"100001074872069","name":"Quang Huy Phan"},"100004362480675":{"id":"100004362480675","name":"Đi Tìm Thất Bại"},"100002924816303":{"id":"100002924816303","name":"Bùi Hồ Phương Anh"},"100004123327271":{"id":"100004123327271","name":"Nguyễn Phương"},"100005638687794":{"id":"100005638687794","name":"Đình Cảnh Nguyễn"},"100002754998000":{"id":"100002754998000","name":"Nguyen Duc"},"100002916376886":{"id":"100002916376886","name":"Thủy Bee"},"100003179905990":{"id":"100003179905990","name":"Trâm Yoko"},"100000284556888":{"id":"100000284556888","name":"Hiền Vũ"},"100004911914216":{"id":"100004911914216","name":"Misaki Trinh"},"100003806594580":{"id":"100003806594580","name":"Daothuy Linh"},"100003814756892":{"id":"100003814756892","name":"Hai Nguyen"},"100000603915176":{"id":"100000603915176","name":"悪いな ぁ"},"100003644019916":{"id":"100003644019916","name":"Ơn-Đền Oán-Trả"},"100005478454231":{"id":"100005478454231","name":"Maruko Chan"},"100000048958645":{"id":"100000048958645","name":"Duyen To"},"100001062202744":{"id":"100001062202744","name":"Hoang Garu"},"100001508739620":{"id":"100001508739620","name":"Lê Ngọc Hoàn"},"1031089243":{"id":"1031089243","name":"Tiet Khai"}},"paging":{"cursors":{"after":"MTAwMDAzMTA5NTA2NjE5","before":"MTAwMDAzMTA5NTA2NjE5"},"next":"https://graph.facebook.com/229244010425617_681177165232297/likes?limit=1&summary=1&after=MTAwMDAzMTA5NTA2NjE5"},"summary":{"total_count":27}},"comments":{"data":{"681352028548144":{"id":"681352028548144","from":{"id":"1693102459","name":"Châu Hoàng"},"message":"Kham Pha: em ở Huế cơ mà  😭","message_tags":[{"id":"100001458099624","name":"Kham Pha","type":"user","offset":0,"length":8}],"can_remove":false,"created_time":"2013-07-05T20:35:11+0000","like_count":0,"user_likes":false},"681418171874863":{"id":"681418171874863","from":{"id":"100001458099624","name":"Kham Pha"},"message":"thế ah, chào em cô gái Huế =D","can_remove":false,"created_time":"2013-07-05T23:26:33+0000","like_count":4,"user_likes":false},"681612801855400":{"id":"681612801855400","from":{"id":"1693102459","name":"Châu Hoàng"},"message":"hehe, rồi thì check địa điểm lại cho em nha anh, kẻo em phải vào ĐN ở cho đúng với nội dung stt :)))","can_remove":false,"created_time":"2013-07-06T11:07:45+0000","like_count":2,"user_likes":false},"681642835185730":{"id":"681642835185730","from":{"id":"100001458099624","name":"Kham Pha"},"message":"hợp lí :))","can_remove":false,"created_time":"2013-07-06T12:37:49+0000","like_count":0,"user_likes":false}},"paging":{"cursors":{"after":"NjgxMzUyMDI4NTQ4MTQ0","before":"NjgxMzUyMDI4NTQ4MTQ0"},"next":"https://graph.facebook.com/229244010425617_681177165232297/comments?limit=1&summary=1&after=NjgxMzUyMDI4NTQ4MTQ0"},"summary":{"order":"chronological","total_count":4}}}