{"id":"229244010425617_681169201899760","type":"status","from":{"id":"100001416272263","name":"Mai PB"},"message":"Chào members. Mình bị làm admin rồi, nhưng đã làm thì cũng phải có trách nhiệm. Các member có yêu cầu gì, nhu cầu gì cho group thì comment xuống đây, admin xin cố gắng. Ví dụ hỏi mà kg ai trả lời thì kêu một câu: ad Kham Pha, ra đây nhờ chút. :-)","created_time":"2013-07-05T12:55:09+0000","updated_time":"2013-07-05T14:59:59+0000","likes":{"data":{"100002829897061":{"id":"100002829897061","name":"Xiêu Nhân"},"100003739954035":{"id":"100003739954035","name":"Mì Tôm"},"100001415407078":{"id":"100001415407078","name":"Kha Pham"},"100001754136107":{"id":"100001754136107","name":"Nguyễn Tuấn Vũ"},"100004169731179":{"id":"100004169731179","name":"Hường Hoàng"},"100001062202744":{"id":"100001062202744","name":"Hoang Garu"},"100003151159313":{"id":"100003151159313","name":"Hồng Kính"},"1415095672":{"id":"1415095672","name":"Thom Cao Thi"},"100000776461179":{"id":"100000776461179","name":"Jotaro Nguyen"},"100000328742646":{"id":"100000328742646","name":"Trần Giáp"},"100002676859353":{"id":"100002676859353","name":"Chu Quang Viên"},"100002098748602":{"id":"100002098748602","name":"Thuần Việt"},"100003080740553":{"id":"100003080740553","name":"Namin Lee"},"1792485444":{"id":"1792485444","name":"Cua Đồng"},"100001335231684":{"id":"100001335231684","name":"Takashi Mori"},"100001802076152":{"id":"100001802076152","name":"Hoang Thanh Dong"},"100000603915176":{"id":"100000603915176","name":"悪いな ぁ"},"100001695345798":{"id":"100001695345798","name":"Tyn Aki"},"100002754998000":{"id":"100002754998000","name":"Nguyen Duc"},"100001458099624":{"id":"100001458099624","name":"Kham Pha"}},"paging":{"cursors":{"after":"MTAwMDAyODI5ODk3MDYx","before":"MTAwMDAyODI5ODk3MDYx"},"next":"https://graph.facebook.com/229244010425617_681169201899760/likes?limit=1&summary=1&after=MTAwMDAyODI5ODk3MDYx"},"summary":{"total_count":21}},"comments":{"data":{"681169748566372":{"id":"681169748566372","from":{"id":"100001458099624","name":"Kham Pha"},"message":"sao cứ gõ đầu em thế, tối mắt tối mũi vào rồi :(","can_remove":false,"created_time":"2013-07-05T12:56:53+0000","like_count":1,"user_likes":false},"681170111899669":{"id":"681170111899669","from":{"id":"100001416272263","name":"Mai PB"},"message":":-D","can_remove":false,"created_time":"2013-07-05T12:57:57+0000","like_count":0,"user_likes":false},"681170348566312":{"id":"681170348566312","from":{"id":"100004985943852","name":"Nguyễn Kiên"},"message":"thật k.","can_remove":false,"created_time":"2013-07-05T12:58:30+0000","like_count":0,"user_likes":false},"681170871899593":{"id":"681170871899593","from":{"id":"100001458099624","name":"Kham Pha"},"message":"phải làm cái danh sách admin đính lên đầu group cho mọi người chia nhau mà goi, ai cũng gọi mình thì đỡ thế quái nào đc.","can_remove":false,"created_time":"2013-07-05T12:59:59+0000","like_count":2,"user_likes":false},"681171991899481":{"id":"681171991899481","from":{"id":"100001416272263","name":"Mai PB"},"message":"Yên tâm đi Kham Pha, kg ai đặc biệt chiếu cố kiểu đó đâu, trừ cô nào đó.","message_tags":[{"id":"100001458099624","name":"Kham Pha","type":"user","offset":11,"length":8}],"can_remove":false,"created_time":"2013-07-05T13:02:55+0000","like_count":0,"user_likes":false},"681176645232349":{"id":"681176645232349","from":{"id":"100001878379620","name":"STiến Jp"},"message":"nhóm này thấy ít hoạt động quá các bác ak","can_remove":false,"created_time":"2013-07-05T13:15:59+0000","like_count":0,"user_likes":false},"681176828565664":{"id":"681176828565664","from":{"id":"100001878379620","name":"STiến Jp"},"message":"các pác bên đó có cái gì mới câng cho bọn e bên này học hỏi thì post lên với nha","can_remove":false,"created_time":"2013-07-05T13:16:29+0000","like_count":0,"user_likes":false},"681207978562549":{"id":"681207978562549","from":{"id":"1146680551","name":"優しい なぁ"},"message":"Bác add nào có kinh nghiệm kua gái nhật chia sẻ với...hehe","can_remove":false,"created_time":"2013-07-05T14:38:24+0000","like_count":0,"user_likes":false},"681208408562506":{"id":"681208408562506","from":{"id":"100001416272263","name":"Mai PB"},"message":"Cho cậu làm ad luôn nha?","can_remove":false,"created_time":"2013-07-05T14:39:38+0000","like_count":1,"user_likes":false},"681212878562059":{"id":"681212878562059","from":{"id":"100001458099624","name":"Kham Pha"},"message":"Anh Nguyễn đẹp giai khoai to gái nào cũng đổ :))","message_tags":[{"id":"1146680551","name":"Anh Nguyễn","type":"user","offset":0,"length":10}],"can_remove":false,"created_time":"2013-07-05T14:49:41+0000","like_count":1,"user_likes":false},"681213688561978":{"id":"681213688561978","from":{"id":"1146680551","name":"優しい なぁ"},"message":"H khoai to mà k đẹp trai thì sao nhỉ","can_remove":false,"created_time":"2013-07-05T14:52:18+0000","like_count":0,"user_likes":false},"681214188561928":{"id":"681214188561928","from":{"id":"100001458099624","name":"Kham Pha"},"message":"Mặt đẹp như khoai cũng đc :))","can_remove":false,"created_time":"2013-07-05T14:53:37+0000","like_count":0,"user_likes":false},"681215571895123":{"id":"681215571895123","from":{"id":"100001458099624","name":"Kham Pha"},"message":"Đùa vậy thôi chứ tán gái Nhật thì giỏi tiếng Nhật là quan trọng nhất. Quan trọng không kém là tấm lòng của bạn. Gái Nhật đặc biệt thích những người con trai biết quan tâm đến người khác, vì nói chung trai Nhật ko ga lăng cho lắm và cũng ít nghĩ cho người yêu (tùy người). Bạn mà cứ làm người ta cảm động thì sớm muộn cũng đổ thôi (Cái này hình như gái ở đâu cũng vậy, mình nói thừa rồi :)) )","can_remove":false,"created_time":"2013-07-05T14:57:20+0000","like_count":2,"user_likes":false},"681216178561729":{"id":"681216178561729","from":{"id":"1146680551","name":"優しい なぁ"},"message":"Đúng ,nhưng chưa bik cách tiếp cận :)) mấy đứa làm chung thi k đc rồi :((","can_remove":false,"created_time":"2013-07-05T14:58:54+0000","like_count":0,"user_likes":false},"681216648561682":{"id":"681216648561682","from":{"id":"100001458099624","name":"Kham Pha"},"message":"Con thầy vợ bạn gái cùng cơ quan ah :v","can_remove":false,"created_time":"2013-07-05T14:59:59+0000","like_count":0,"user_likes":false}},"paging":{"cursors":{"after":"NjgxMTY5NzQ4NTY2Mzcy","before":"NjgxMTY5NzQ4NTY2Mzcy"},"next":"https://graph.facebook.com/229244010425617_681169201899760/comments?limit=1&summary=1&after=NjgxMTY5NzQ4NTY2Mzcy"},"summary":{"order":"chronological","total_count":15}}}