{"id":"229244010425617_681227861893894","type":"link","picture":"https://fbexternal-a.akamaihd.net/safe_image.php?d=AQAotWa2ixNITmN2&w=154&h=154&url=http%3A%2F%2Fhanabi.walkerplus.com%2Fimages%2Ftop%2Flead.png","link":"http://hanabi.walkerplus.com/","from":{"id":"100001416272263","name":"Mai PB"},"message":"Lịch bắn pháo hoa toàn quốc 2013!\nhttp://hanabi.walkerplus.com/","created_time":"2013-07-05T15:25:18+0000","updated_time":"2013-07-07T06:43:55+0000","likes":{"data":{"100001475606142":{"id":"100001475606142","name":"Thanh Hoa Dang"},"100000041691073":{"id":"100000041691073","name":"Phuong Nam Hoang"},"100001231404357":{"id":"100001231404357","name":"Quoc Anh"},"100001594722256":{"id":"100001594722256","name":"Viết An Phạm"},"100004241019333":{"id":"100004241019333","name":"Linda Evans"},"1415095672":{"id":"1415095672","name":"Thom Cao Thi"},"100000076194218":{"id":"100000076194218","name":"Ai Van"},"100001695345798":{"id":"100001695345798","name":"Tyn Aki"},"100001754136107":{"id":"100001754136107","name":"Nguyễn Tuấn Vũ"},"100001637565304":{"id":"100001637565304","name":"Chung Dương Quang"},"100001458099624":{"id":"100001458099624","name":"Kham Pha"}},"paging":{"cursors":{"after":"MTAwMDAxNDc1NjA2MTQy","before":"MTAwMDAxNDc1NjA2MTQy"},"next":"https://graph.facebook.com/229244010425617_681227861893894/likes?limit=1&summary=1&after=MTAwMDAxNDc1NjA2MTQy"},"summary":{"total_count":12}},"comments":{"data":{"681487455201268":{"id":"681487455201268","from":{"id":"100006273189882","name":"Yuki Hana"},"message":"e đọc ko hiểu gì hết ad ơi..mà hình như ko có ở vn mà..hi","can_remove":false,"created_time":"2013-07-06T03:17:21+0000","like_count":0,"user_likes":false},"681505501866130":{"id":"681505501866130","from":{"id":"100001416272263","name":"Mai PB"},"message":"Ở VN thì xem tạm cái này thôi. http://bit.ly/1bdukN5","can_remove":false,"created_time":"2013-07-06T04:09:32+0000","like_count":1,"user_likes":false},"681508428532504":{"id":"681508428532504","from":{"id":"100001458099624","name":"Kham Pha"},"message":"=))","can_remove":false,"created_time":"2013-07-06T04:11:55+0000","like_count":0,"user_likes":false},"681510721865608":{"id":"681510721865608","from":{"id":"100006273189882","name":"Yuki Hana"},"message":"hi..ad này..e chỉ hỏi vậy thoi mà..hic..tại ad bảo là TOÀN QUỐC..","can_remove":false,"created_time":"2013-07-06T04:20:50+0000","like_count":0,"user_likes":false},"681511295198884":{"id":"681511295198884","from":{"id":"100001458099624","name":"Kham Pha"},"message":"bạn thông cảm chắc ad Mai PB ở Nhật lâu quá rồi nên nói vậy quen mồm :))","message_tags":[{"id":"100001416272263","name":"Mai PB","type":"user","offset":22,"length":6}],"can_remove":false,"created_time":"2013-07-06T04:23:27+0000","like_count":0,"user_likes":false},"681512061865474":{"id":"681512061865474","from":{"id":"100001416272263","name":"Mai PB"},"message":"À cái này là do mình kg rõ audience của group sống ở đâu, tưởng đa số là ở N nên viết vậy. Có lẽ đa số là ở VN?","can_remove":false,"created_time":"2013-07-06T04:26:59+0000","like_count":0,"user_likes":false},"681653461851334":{"id":"681653461851334","from":{"id":"100001695345798","name":"Tyn Aki"},"message":"da so moi ng Vn ah","can_remove":false,"created_time":"2013-07-06T13:10:45+0000","like_count":0,"user_likes":false},"681660518517295":{"id":"681660518517295","from":{"id":"100001416272263","name":"Mai PB"},"message":"Thế thì thông tin hanabi này vô duyên thật.","can_remove":false,"created_time":"2013-07-06T13:28:48+0000","like_count":0,"user_likes":false},"681672348516112":{"id":"681672348516112","from":{"id":"100001695345798","name":"Tyn Aki"},"message":"không ạ. cảm ơn anh vì đã share link ạ ^^","can_remove":false,"created_time":"2013-07-06T13:57:57+0000","like_count":0,"user_likes":false},"681949221821758":{"id":"681949221821758","from":{"id":"100005087436518","name":"Vũ Trịnh"},"message":"bác ơi. cái này ở nhật hả bác","can_remove":false,"created_time":"2013-07-07T02:52:02+0000","like_count":0,"user_likes":false},"682010645148949":{"id":"682010645148949","from":{"id":"100001458099624","name":"Kham Pha"},"message":"Tin này hữu ích, tìm đc vài chỗ chơi rồi :))","can_remove":false,"created_time":"2013-07-07T06:43:55+0000","like_count":0,"user_likes":false}},"paging":{"cursors":{"after":"NjgxNDg3NDU1MjAxMjY4","before":"NjgxNDg3NDU1MjAxMjY4"},"next":"https://graph.facebook.com/229244010425617_681227861893894/comments?limit=1&summary=1&after=NjgxNDg3NDU1MjAxMjY4"},"summary":{"order":"chronological","total_count":11}}}