{"id":"229244010425617_681734038509943","type":"status","from":{"id":"100004380181780","name":"Be Boo"},"message":"mọi người cho e hỏi khi nào dùng ぐらい và khi nào thì dùng ごろ ạ","created_time":"2013-07-06T16:31:32+0000","updated_time":"2013-07-14T15:44:37+0000","likes":{"data":{"100001415407078":{"id":"100001415407078","name":"Kha Pham"},"100002471591090":{"id":"100002471591090","name":"PuTa Lu"}},"paging":{"cursors":{"after":"MTAwMDAxNDE1NDA3MDc4","before":"MTAwMDAxNDE1NDA3MDc4"},"next":"https://graph.facebook.com/229244010425617_681734038509943/likes?limit=1&summary=1&after=MTAwMDAxNDE1NDA3MDc4"},"summary":{"total_count":2}},"comments":{"data":{"681735668509780":{"id":"681735668509780","from":{"id":"1693102459","name":"Châu Hoàng"},"message":"mình chỉ biết\nぐらい là khoảng thời gian mang tính số lượng.\n例：毎日六時間ぐらい仕事をする。\nごろ là khoảng thời gian mang tính thứ tự tương đối.\n例：１９９３ごろ、五時ごろ。","can_remove":false,"created_time":"2013-07-06T16:36:03+0000","like_count":1,"user_likes":false},"681736911842989":{"id":"681736911842989","from":{"id":"100004380181780","name":"Be Boo"},"message":"はいありがとございます","can_remove":false,"created_time":"2013-07-06T16:39:42+0000","like_count":0,"user_likes":false},"681860695163944":{"id":"681860695163944","from":{"id":"100003644019916","name":"Ơn-Đền Oán-Trả"},"message":"nguoc. 1 chut roi- kia daika oi","can_remove":false,"created_time":"2013-07-06T22:03:31+0000","like_count":0,"user_likes":false},"681905621826118":{"id":"681905621826118","from":{"id":"1693102459","name":"Châu Hoàng"},"message":"Ơn-Đền Oán-Trả: thế thìi phải sao mới đúng ạ?","message_tags":[{"id":"100003644019916","name":"Ơn-Đền Oán-Trả","type":"user","offset":0,"length":14}],"can_remove":false,"created_time":"2013-07-07T00:28:38+0000","like_count":0,"user_likes":false},"681977565152257":{"id":"681977565152257","from":{"id":"100000603915176","name":"悪いな ぁ"},"message":"時間　+　ぐらい -> thời gian\n金額　+　ぐらい -> số tiền\n数量　+　ぐらい -> số lượng\n\n時刻　+　ごろ -> thời khắc\n\nThời khắc mang tính chính xác, ví dụ như 7h 38', 7h 25'....\n\nThời gian bạn có thể chọn khoảng 5h. Và tất nhiên trong tiếng Việt, bạn hẹn bạn đi chơi khoảng 5h có nghĩa thế nào thì tiếng Nhật cũng vậy. Có khi gần 5h cũng là khoảng 5h. Phần tiền và số lượng thì không nói nữa vì chỉ có thể dùng với ぐらい.","can_remove":false,"created_time":"2013-07-07T04:31:15+0000","like_count":1,"user_likes":false},"682004635149550":{"id":"682004635149550","from":{"id":"100004380181780","name":"Be Boo"},"message":"ほうわかりましたありがとございます","can_remove":false,"created_time":"2013-07-07T06:19:04+0000","like_count":0,"user_likes":false},"685916331425047":{"id":"685916331425047","from":{"id":"100006268926873","name":"Thuan Osaka"},"message":"ぐらい","can_remove":false,"created_time":"2013-07-14T13:12:12+0000","like_count":0,"user_likes":false},"685917021424978":{"id":"685917021424978","from":{"id":"100006268926873","name":"Thuan Osaka"},"message":"la chi khoang thoi gian bao lau may ngay may tieng hay may nam    \ncon goro  dung chi khoang 3 gio  khoang ngay mung5 ban a","can_remove":false,"created_time":"2013-07-14T13:13:45+0000","like_count":0,"user_likes":false},"685987501417930":{"id":"685987501417930","from":{"id":"100004380181780","name":"Be Boo"},"message":"còn nữa nè goro la chi khoang thoi gian cha xay ra tuot","can_remove":false,"created_time":"2013-07-14T15:43:14+0000","like_count":0,"user_likes":false},"685987528084594":{"id":"685987528084594","from":{"id":"100004380181780","name":"Be Boo"},"message":"còn nữa nè goro la chi khoang thoi gian cha xay ra tuot","can_remove":false,"created_time":"2013-07-14T15:43:22+0000","like_count":0,"user_likes":false},"685987911417889":{"id":"685987911417889","from":{"id":"100004380181780","name":"Be Boo"},"message":"gurai chi khoang thoi gian da xay ra trong quá khứ","can_remove":false,"created_time":"2013-07-14T15:44:37+0000","like_count":0,"user_likes":false}},"paging":{"cursors":{"after":"NjgxNzM1NjY4NTA5Nzgw","before":"NjgxNzM1NjY4NTA5Nzgw"},"next":"https://graph.facebook.com/229244010425617_681734038509943/comments?limit=1&summary=1&after=NjgxNzM1NjY4NTA5Nzgw"},"summary":{"order":"chronological","total_count":11}}}