{"id":"229244010425617_682167905133223","type":"photo","object_id":"535275293205644","picture":"https://fbcdn-photos-h-a.akamaihd.net/hphotos-ak-frc3/v/t34.0-11/1056898_535065873226586_2093843763_s.jpg?oh=0f850b57b0ac23ec3c271bf4fccac9d9&oe=535020BE&__gda__=1397770004_6272d74a91f29cb067ff29987a211cc4","link":"https://www.facebook.com/photo.php?fbid=535275293205644&set=gm.682167905133223&type=1&relevant_count=9","from":{"id":"100001695345798","name":"Tyn Aki"},"message":"Bài 124 : [Văn hóa Nhật Bản] Lễ hội Tanabata\n\n        Dù muộn  và không có lịch post bài hôm nay, nhưng để vẫn giữ không khí lễ hội Tanabata, lâu lắm rồi viết một bài về lễ hội. Ngày đẹp lễ hội đẹp: 07-07.\n\n        Ngày này Việt Nam  không có lễ hội, chỉ quan niệm ngày Ngưu Lang Chức Nữ gặp nhau 1 lần trong 1 năm nên ngày này kiểu gì cùng mua (hai người khóc), (nói thế nhưng hôm nay ở mình ko mưa), nhưng Việt Nam mình tính theo lịch âm, còn người Nhật chiểu theo lịch dương, vì vậy hôm nay là lễ Tanabata (chũ Hán: Thất tịch). \n\n        Vậy ở lễ hội này người Nhật làm gì? Hoạt động nổi bật nhất là họ sẽ treo các cành tre hoặc cành trúc, mọi người viết điều ước của mình lên các mảnh giấy  gọi là 短冊　（たんざく）rồi rồi treo lên cây trúc, ảnh mình đính kèm đó. Cách viết lời chúc tiếng Nhật ở bài 120 mình đã có giới thiệu qua theo link: http://www.facebook.com/groups/229244010425617/doc/666307080052639/ . Sau ngày lễ, theo đúng nguyên tắc là cả cây trúc và các điều ước sẽ được hóa ở chùa để cầu có điều ước đó thành hiện thực. Mọi người điều hiểu hết các điều ước ở ảnh đính èm đúng không? ^^ hầu hết các điều ước sẽ là thi đậu, có nhiều tiền, có người yêu, gia đình khỏe mạnh --^^ , nếu là bạn bạn sẽ viết điều ước gì? Ngoài ra lễ hội còn là dịp để các cặp đôi cùng nhau ra 神道 cầu luôn hạnh phúc. \n\n       Sau lễ hội Tanabata, Nhật Bản sẽ bước vào lễ hội mùa hè, uống bia, mặc yukata đi xem bắn pháo hoa!! Nhân tiện có link thông báo lịch bắn pháo hoa ở Nhật Bản của ad Mai PB, http://hanabi.walkerplus.com/ mọi người có cơ hội thì đừng bỏ lỡ nhé. \n\n       \nP.s Link youtube đính kèm là clip giới thiệu về lễ hội Tanabata, clip không có vietsub nhưng có 字幕（じまく）phụ đề tiếng Nhật và tiếng Anh, mọi người luyện choukai nha, luyện choukai với clip này cũng hiểu luôn được nguồn gốc, các hoạt động chính, món ăn của người Nhật trong ngày này. \nhttp://www.youtube.com/watch?v=EwB03sdV_5Q\n\nChúc mọi người ngủ ngon <3 \nhttp://mp3.zing.vn/bai-hat/Tanabata-Tegomas/IW90UOZZ.html","created_time":"2013-07-07T14:58:26+0000","updated_time":"2013-07-09T14:07:50+0000","likes":{"data":{"100004168804627":{"id":"100004168804627","name":"Yuki Aki"},"100003814756892":{"id":"100003814756892","name":"Hai Nguyen"},"100001508739620":{"id":"100001508739620","name":"Lê Ngọc Hoàn"},"100001256765181":{"id":"100001256765181","name":"Anh Tuc Flower"},"100004660531328":{"id":"100004660531328","name":"Hờ Hờ Hoa"},"100003239455545":{"id":"100003239455545","name":"Yuki Daruma"},"100001232829569":{"id":"100001232829569","name":"Ngọc Quỳnh"},"100005812149640":{"id":"100005812149640","name":"Yuki Chan"},"100001844269163":{"id":"100001844269163","name":"Bằng Ngô Quý"},"100001458099624":{"id":"100001458099624","name":"Kham Pha"},"100001754136107":{"id":"100001754136107","name":"Nguyễn Tuấn Vũ"},"100001216203214":{"id":"100001216203214","name":"Lala Rita"},"100002897935717":{"id":"100002897935717","name":"Hanaluhi R Inusato"},"100003518966987":{"id":"100003518966987","name":"Thanh Hoài Ngô"},"1817748759":{"id":"1817748759","name":"Vinh Toru"},"100005703791922":{"id":"100005703791922","name":"Hoa Tiên Tử"},"100001550033545":{"id":"100001550033545","name":"Dang Luan Dang Luan"},"100001637056893":{"id":"100001637056893","name":"Nhoc Coionline"},"1451041596":{"id":"1451041596","name":"Phong ThanhNguyen"},"100002098748602":{"id":"100002098748602","name":"Thuần Việt"},"100003610201283":{"id":"100003610201283","name":"Phạm Loan"},"100001416272263":{"id":"100001416272263","name":"Mai PB"},"100003153428728":{"id":"100003153428728","name":"Hue Mai"},"100001016429049":{"id":"100001016429049","name":"Huong Le"},"100002594112476":{"id":"100002594112476","name":"Thiên Di"},"100000257036404":{"id":"100000257036404","name":"Nguyễn Quốc Việt"},"100000198219367":{"id":"100000198219367","name":"Chang Jiang"}},"paging":{"cursors":{"after":"MTAwMDA0MTY4ODA0NjI3","before":"MTAwMDA0MTY4ODA0NjI3"},"next":"https://graph.facebook.com/229244010425617_682167905133223/likes?limit=1&summary=1&after=MTAwMDA0MTY4ODA0NjI3"},"summary":{"total_count":28}},"comments":{"data":{"682176215132392":{"id":"682176215132392","from":{"id":"100000735018942","name":"Mỹ Mỹ"},"message":"Vầng, hôm nay mình ra khỏi ktx Izumi trời nắng nóng như đúng rồi. Đến ga Asakusa - nơi có lễ hội Tanabata 1 phát mưa luôn đc. Linh thế k bit. :))))","can_remove":false,"created_time":"2013-07-07T15:14:49+0000","like_count":1,"user_likes":false},"682176951798985":{"id":"682176951798985","from":{"id":"100001695345798","name":"Tyn Aki"},"message":"thế thì chuẩn là thiêng ^^","can_remove":false,"created_time":"2013-07-07T15:16:16+0000","like_count":0,"user_likes":false},"683163591700321":{"id":"683163591700321","from":{"id":"100001458099624","name":"Kham Pha"},"message":"Tyn Aki Hôm nọ anh viết bài 125, 126 nhưng chưa viết vào note nên chắc em ko thấy. Em đưa bài này vào note rồi đánh số 127,  xem có chèn được ảnh vào note ko. Nếu ko thì dùng comment ảnh cũng đc.","message_tags":[{"id":"100001695345798","name":"Tyn Aki","type":"user","offset":0,"length":7}],"can_remove":false,"created_time":"2013-07-09T14:02:02+0000","like_count":0,"user_likes":false},"683164335033580":{"id":"683164335033580","from":{"id":"100001695345798","name":"Tyn Aki"},"message":"ko chèn đc ảnh trong note ạ, nhưng em sẽ tạo album và chèn link, vậy gộp bài này bài stt của anh hôm nay vào 1 note 127 đc ko ạ? album cũng gộp 2 ảnh, chỗ em ko lễ hội to như anh :)","can_remove":false,"created_time":"2013-07-09T14:03:45+0000","like_count":0,"user_likes":false},"683166061700074":{"id":"683166061700074","from":{"id":"100001458099624","name":"Kham Pha"},"message":"Vậy cũng đc, mà còn vài cái nữa bạn anh đang giữ. Em cứ làm album trước đi rồi anh sẽ add thêm sau.","can_remove":false,"created_time":"2013-07-09T14:07:18+0000","like_count":0,"user_likes":false},"683166328366714":{"id":"683166328366714","from":{"id":"100001695345798","name":"Tyn Aki"},"message":"了解","can_remove":false,"created_time":"2013-07-09T14:07:50+0000","like_count":0,"user_likes":false}},"paging":{"cursors":{"after":"NjgyMTc2MjE1MTMyMzky","before":"NjgyMTc2MjE1MTMyMzky"},"next":"https://graph.facebook.com/229244010425617_682167905133223/comments?limit=1&summary=1&after=NjgyMTc2MjE1MTMyMzky"},"summary":{"order":"chronological","total_count":6}}}