{"id":"229244010425617_682602088423138","type":"link","picture":"https://fbexternal-a.akamaihd.net/safe_image.php?d=AQAR7UN3B5ukRNM4&w=154&h=154&url=http%3A%2F%2Fjlpt.u-biq.org%2Fgakusei1.gif","link":"http://jlpt.u-biq.org/1v1.html","from":{"id":"100001416272263","name":"Mai PB"},"message":"Phát hiện thấy trang web test online trình độ 4 kyu~1 kyu. Chưa thử, mọi người xem sao. http://jlpt.u-biq.org/1v1.html","created_time":"2013-07-08T12:24:43+0000","updated_time":"2013-07-09T08:13:04+0000","likes":{"data":{"100006311225996":{"id":"100006311225996","name":"Minh Anh Trần"},"1821970083":{"id":"1821970083","name":"Nguyễn Mạnh Cường"},"100001754136107":{"id":"100001754136107","name":"Nguyễn Tuấn Vũ"},"100001458099624":{"id":"100001458099624","name":"Kham Pha"},"1803772186":{"id":"1803772186","name":"Nguyễn Ngọc Mai"},"1146680551":{"id":"1146680551","name":"優しい なぁ"},"1733088155":{"id":"1733088155","name":"Lynn Kunz"},"100001256765181":{"id":"100001256765181","name":"Anh Tuc Flower"},"726423323":{"id":"726423323","name":"Trần Thư"},"100003011873382":{"id":"100003011873382","name":"Hiên Nguyễn"},"100003016296113":{"id":"100003016296113","name":"Tùng Tự Tin"},"100003397876835":{"id":"100003397876835","name":"Nabito Lazy"},"100004463889537":{"id":"100004463889537","name":"Zibi Tuan Anh"},"100002265193557":{"id":"100002265193557","name":"Gấu Mó"},"100005703791922":{"id":"100005703791922","name":"Hoa Tiên Tử"},"100000986108727":{"id":"100000986108727","name":"Kaori Kinoko"},"1552036787":{"id":"1552036787","name":"Lyklyk Tran"},"100001475606142":{"id":"100001475606142","name":"Thanh Hoa Dang"},"100000268489214":{"id":"100000268489214","name":"Kaka Huy"},"100001659230540":{"id":"100001659230540","name":"Lemon Tea"},"100001695345798":{"id":"100001695345798","name":"Tyn Aki"},"100001739865592":{"id":"100001739865592","name":"Tung Le"}},"paging":{"cursors":{"after":"MTAwMDA2MzExMjI1OTk2","before":"MTAwMDA2MzExMjI1OTk2"},"next":"https://graph.facebook.com/229244010425617_682602088423138/likes?limit=1&summary=1&after=MTAwMDA2MzExMjI1OTk2"},"summary":{"total_count":22}},"comments":{"data":{"682603028423044":{"id":"682603028423044","from":{"id":"100001416272263","name":"Mai PB"},"message":"Có mấy cái này nữa, trang khác. http://web.ydu.edu.tw/~uchiyama/test/mogi.html\n\nhttp://www.j-school.com.tw/online/demoex3-1.asp\n\nhttp://www.j-school.com.tw/online/demoex4-1.asp","can_remove":false,"created_time":"2013-07-08T12:27:35+0000","like_count":5,"user_likes":false},"682615018421845":{"id":"682615018421845","from":{"id":"100003210512769","name":"Trang Nguyễn"},"message":"b ơi b có biết trang nào có bài tập tiếng nhật sơ cấp cho mình xin link với. cảm ơn b","can_remove":false,"created_time":"2013-07-08T12:58:22+0000","like_count":0,"user_likes":false},"682617045088309":{"id":"682617045088309","from":{"id":"100003397876835","name":"Nabito Lazy"},"message":"Hay lắm ạ","can_remove":false,"created_time":"2013-07-08T13:03:33+0000","like_count":1,"user_likes":false},"682625105087503":{"id":"682625105087503","from":{"id":"100003016296113","name":"Tùng Tự Tin"},"message":"^_^","can_remove":false,"created_time":"2013-07-08T13:24:23+0000","like_count":0,"user_likes":false},"682625271754153":{"id":"682625271754153","from":{"id":"100003016296113","name":"Tùng Tự Tin"},"message":":v","can_remove":false,"created_time":"2013-07-08T13:24:41+0000","like_count":0,"user_likes":false},"682638085086205":{"id":"682638085086205","from":{"id":"100001416272263","name":"Mai PB"},"message":"Trang Nguyễn chưa thấy link nào tiếng Nhật sơ cấp, chỉ thấy cái khác: http://bit.ly/156SJyX","message_tags":[{"id":"100003210512769","name":"Trang Nguyễn","type":"user","offset":0,"length":12}],"can_remove":false,"created_time":"2013-07-08T13:58:32+0000","like_count":0,"user_likes":false},"682641588419188":{"id":"682641588419188","from":{"id":"100003926037762","name":"Mai Mèo"},"message":"kai nay kho tek nay sao ma hk dk huhu","can_remove":false,"created_time":"2013-07-08T14:06:09+0000","like_count":0,"user_likes":false},"682641921752488":{"id":"682641921752488","from":{"id":"100003210512769","name":"Trang Nguyễn"},"message":"cảm ơn b :)","can_remove":false,"created_time":"2013-07-08T14:06:55+0000","like_count":0,"user_likes":false},"682642435085770":{"id":"682642435085770","from":{"id":"100001416272263","name":"Mai PB"},"message":"Thực ra trước khi nâng cao trình độ tiếng Nhật, cần nâng cao trình độ Google :-)","can_remove":false,"created_time":"2013-07-08T14:08:05+0000","like_count":1,"user_likes":false},"682644038418943":{"id":"682644038418943","from":{"id":"100003926037762","name":"Mai Mèo"},"message":"nani?","can_remove":false,"created_time":"2013-07-08T14:11:45+0000","like_count":0,"user_likes":false},"682661521750528":{"id":"682661521750528","from":{"id":"100003210512769","name":"Trang Nguyễn"},"message":"nhưng trang ý lại k đọc, k down dc.buồn quá :)","can_remove":false,"created_time":"2013-07-08T14:21:29+0000","like_count":0,"user_likes":false},"682671905082823":{"id":"682671905082823","from":{"id":"100001416272263","name":"Mai PB"},"message":"Phải làm bằng PC.","can_remove":false,"created_time":"2013-07-08T14:49:29+0000","like_count":0,"user_likes":false},"682675888415758":{"id":"682675888415758","from":{"id":"100003210512769","name":"Trang Nguyễn"},"message":"mình cũng vào bằng máy tính mà","can_remove":false,"created_time":"2013-07-08T14:57:16+0000","like_count":0,"user_likes":false},"682677855082228":{"id":"682677855082228","from":{"id":"100001416272263","name":"Mai PB"},"message":"Link đó là DL từ rapidshare, account free tốc độ rất chậm. Hơn nữa phải DL từng file một. Ai ở VN có kinh nghiệm DL rapidshare không thì chỉ giùm bạn này.","can_remove":false,"created_time":"2013-07-08T15:01:48+0000","like_count":0,"user_likes":false},"682941595055854":{"id":"682941595055854","from":{"id":"100001754136107","name":"Nguyễn Tuấn Vũ"},"message":"Em cảm ơn a.","can_remove":false,"created_time":"2013-07-09T02:32:18+0000","like_count":0,"user_likes":false},"682951505054863":{"id":"682951505054863","from":{"id":"100001754136107","name":"Nguyễn Tuấn Vũ"},"message":"Châu Hoàng","message_tags":[{"id":"1693102459","name":"Châu Hoàng","type":"user","offset":0,"length":10}],"can_remove":false,"created_time":"2013-07-09T03:03:05+0000","like_count":1,"user_likes":false},"682955281721152":{"id":"682955281721152","from":{"id":"1693102459","name":"Châu Hoàng"},"message":":)","can_remove":false,"created_time":"2013-07-09T03:14:12+0000","like_count":0,"user_likes":false},"683046811711999":{"id":"683046811711999","from":{"id":"100003124327037","name":"Tran Thang"},"message":"hay...","can_remove":false,"created_time":"2013-07-09T08:13:04+0000","like_count":0,"user_likes":false}},"paging":{"cursors":{"after":"NjgyNjAzMDI4NDIzMDQ0","before":"NjgyNjAzMDI4NDIzMDQ0"},"next":"https://graph.facebook.com/229244010425617_682602088423138/comments?limit=1&summary=1&after=NjgyNjAzMDI4NDIzMDQ0"},"summary":{"order":"chronological","total_count":18}}}