{"id":"229244010425617_683123715037642","type":"link","picture":"https://fbexternal-a.akamaihd.net/safe_image.php?d=AQDzYv9tbfKSYLpe&w=154&h=154&url=http%3A%2F%2Fwww.japan-guide.com%2Fad%2Fbanner%2Fexperience_house_965_1301.jpg","link":"http://www.japan-guide.com/e/e3942.html","from":{"id":"100000383155614","name":"Phạm Thúc Hưng"},"message":"Sắp tới ở Kyoto cũng có Gion Matsuri -  một trong những lễ hội lớn nhất Nhật Bản, hiện tại mình cũng đang ở đây nên nếu có bạn nào muốn tham dự thì liên hệ mình cùng đi cho vui :D (mới cắn răng sắm hẳn 1 bộ yukata đi chơi lễ hội này :)))","created_time":"2013-07-09T12:27:02+0000","updated_time":"2013-07-10T06:05:07+0000","likes":{"data":{"100002470650247":{"id":"100002470650247","name":"LinhLinh Chan"},"100002185080351":{"id":"100002185080351","name":"Nguyễn Xuân Bách"},"100003016747298":{"id":"100003016747298","name":"Minh Phượng"},"100001695345798":{"id":"100001695345798","name":"Tyn Aki"},"100001754136107":{"id":"100001754136107","name":"Nguyễn Tuấn Vũ"},"100002245769151":{"id":"100002245769151","name":"Luot Pham"},"1828906841":{"id":"1828906841","name":"Trọng Nghĩa Bùi"}},"paging":{"cursors":{"after":"MTAwMDAyNDcwNjUwMjQ3","before":"MTAwMDAyNDcwNjUwMjQ3"},"next":"https://graph.facebook.com/229244010425617_683123715037642/likes?limit=1&summary=1&after=MTAwMDAyNDcwNjUwMjQ3"},"summary":{"total_count":7}},"comments":{"data":{"683124068370940":{"id":"683124068370940","from":{"id":"100000735018942","name":"Mỹ Mỹ"},"message":"Cho hỏi bạn Hưng sắp tới là bao h ý?? :))","can_remove":false,"created_time":"2013-07-09T12:28:00+0000","like_count":0,"user_likes":false},"683124305037583":{"id":"683124305037583","from":{"id":"100001458099624","name":"Kham Pha"},"message":"vãi cả chơi, có mua đôi guốc lạch cạch ko :D","can_remove":false,"created_time":"2013-07-09T12:28:54+0000","like_count":0,"user_likes":false},"683124498370897":{"id":"683124498370897","from":{"id":"100000383155614","name":"Phạm Thúc Hưng"},"message":"Mỹ Mỹ t cũng chả rõ nhưng thấy dòng này :))\nYoiyama (July 16), Yoiyoiyama (July 15) and Yoiyoiyoiyama (July 14)\nđể mai lên hỏi mấy bác trên cty cho rõ.\nMà tưởng bạn ở Tokyo mà nhỉ :))","message_tags":[{"id":"100000735018942","name":"Mỹ Mỹ","type":"user","offset":0,"length":5}],"can_remove":false,"created_time":"2013-07-09T12:29:14+0000","like_count":0,"user_likes":false},"683124651704215":{"id":"683124651704215","from":{"id":"100000383155614","name":"Phạm Thúc Hưng"},"message":"Kham Pha tao hám rẻ, mua được cái yukata 2880yen, ai ngờ sắm thêm obi và geta mất cmn 2500 nữa :))","message_tags":[{"id":"100001458099624","name":"Kham Pha","type":"user","offset":0,"length":8}],"can_remove":false,"created_time":"2013-07-09T12:29:57+0000","like_count":1,"user_likes":false},"683124748370872":{"id":"683124748370872","from":{"id":"100000735018942","name":"Mỹ Mỹ"},"message":"Ừa thì tưởng tổ chức muộn muộn tớ xuống đấy :P. Cũng vừa nghía link c post r, lúc ý bọn t đang ôn thi :)) Thôi số mình chỉ mặc yu ngắm pháo hoa thui","can_remove":false,"created_time":"2013-07-09T12:30:15+0000","like_count":0,"user_likes":false},"683125298370817":{"id":"683125298370817","from":{"id":"100000735018942","name":"Mỹ Mỹ"},"message":"Phạm Thúc Hưng: Nam k có set đồ yu + obi + geta à? Mà ấy tiếc gì, t mất gần 1 man cơ mà :))))","message_tags":[{"id":"100000383155614","name":"Phạm Thúc Hưng","type":"user","offset":0,"length":14}],"can_remove":false,"created_time":"2013-07-09T12:31:15+0000","like_count":0,"user_likes":false},"683125545037459":{"id":"683125545037459","from":{"id":"100001458099624","name":"Kham Pha"},"message":"Phạm Thúc Hưng hôm nọ tao đi chơi thấy có 2 sen cả bộ, thêm geta thì 1 sen nữa.","message_tags":[{"id":"100000383155614","name":"Phạm Thúc Hưng","type":"user","offset":0,"length":14}],"can_remove":false,"created_time":"2013-07-09T12:31:52+0000","like_count":0,"user_likes":false},"683125705037443":{"id":"683125705037443","from":{"id":"100000383155614","name":"Phạm Thúc Hưng"},"message":"Mỹ Mỹ đi qua shotengai ngó set của nữ có bộ có gần 6sen ấy :)), bộ của nam hình như mua set còn rẻ hơn :(((((","message_tags":[{"id":"100000735018942","name":"Mỹ Mỹ","type":"user","offset":0,"length":5}],"can_remove":false,"created_time":"2013-07-09T12:32:28+0000","like_count":0,"user_likes":false},"683126078370739":{"id":"683126078370739","from":{"id":"100000735018942","name":"Mỹ Mỹ"},"message":"Của t nguyên yu đã 6 sen =)))))))))","can_remove":false,"created_time":"2013-07-09T12:33:02+0000","like_count":0,"user_likes":false},"683132851703395":{"id":"683132851703395","from":{"id":"100002245769151","name":"Luot Pham"},"message":"E xin 1 slot.tối bay sang:]]","can_remove":false,"created_time":"2013-07-09T12:42:56+0000","like_count":1,"user_likes":false},"683133028370044":{"id":"683133028370044","from":{"id":"100001458099624","name":"Kham Pha"},"message":"Mỹ Mỹ tháng tới hanabi taikai vừa chuẩn, con gái mặc yukata đi đâu chả đẹp, lo gì.","message_tags":[{"id":"100000735018942","name":"Mỹ Mỹ","type":"user","offset":0,"length":5}],"can_remove":false,"created_time":"2013-07-09T12:43:32+0000","like_count":1,"user_likes":false},"683134045036609":{"id":"683134045036609","from":{"id":"100001458099624","name":"Kham Pha"},"message":"Phạm Thúc Hưng tầm 21 trở ra bố mẹ tao sang chơi, nên xuống đấy du lịch, nếu đúng lúc thì đi luôn.","message_tags":[{"id":"100000383155614","name":"Phạm Thúc Hưng","type":"user","offset":0,"length":14}],"can_remove":false,"created_time":"2013-07-09T12:44:52+0000","like_count":0,"user_likes":false},"683135708369776":{"id":"683135708369776","from":{"id":"100000383155614","name":"Phạm Thúc Hưng"},"message":"chịu, bị bắt đi làm cả tuần :((, chỉ được nghỉ t7 cn :((, 26 về cmnr :))","can_remove":false,"created_time":"2013-07-09T12:49:33+0000","like_count":0,"user_likes":false},"683511758332171":{"id":"683511758332171","from":{"id":"100001695345798","name":"Tyn Aki"},"message":"anh Hưng ở đây đến bao h ạ?","can_remove":false,"created_time":"2013-07-10T06:05:07+0000","like_count":0,"user_likes":false}},"paging":{"cursors":{"after":"NjgzMTI0MDY4MzcwOTQw","before":"NjgzMTI0MDY4MzcwOTQw"},"next":"https://graph.facebook.com/229244010425617_683123715037642/comments?limit=1&summary=1&after=NjgzMTI0MDY4MzcwOTQw"},"summary":{"order":"chronological","total_count":14}}}