{"id":"229244010425617_683186278364719","type":"status","from":{"id":"100001416272263","name":"Mai PB"},"message":"Cái group này, lúc thì chẳng có stt nào, lúc thì bao nhiêu post, các post cũ trôi tuồn tuột như bị nước cuốn đi vậy. :-)","created_time":"2013-07-09T14:52:17+0000","updated_time":"2013-07-10T02:24:00+0000","likes":{"data":{"100000284556888":{"id":"100000284556888","name":"Hiền Vũ"},"100004122280421":{"id":"100004122280421","name":"Bân Hâm"},"100001695345798":{"id":"100001695345798","name":"Tyn Aki"},"100001739865592":{"id":"100001739865592","name":"Tung Le"}},"paging":{"cursors":{"after":"MTAwMDAwMjg0NTU2ODg4","before":"MTAwMDAwMjg0NTU2ODg4"},"next":"https://graph.facebook.com/229244010425617_683186278364719/likes?limit=1&summary=1&after=MTAwMDAwMjg0NTU2ODg4"},"summary":{"total_count":4}},"comments":{"data":{"683249835025030":{"id":"683249835025030","from":{"id":"100001458099624","name":"Kham Pha"},"message":"Cái này khó. Có 1 cách có thể điều tiết lượng post trong ngày, đó là để admin kiểm duyệt trc. Nhưng mà em vốn ghét mấy trò kiểm duyệt nên ko thích dùng.","can_remove":false,"created_time":"2013-07-09T16:43:46+0000","like_count":1,"user_likes":false},"683252051691475":{"id":"683252051691475","from":{"id":"1146680551","name":"優しい なぁ"},"message":"E nghĩ mấy bác nên ghi rõ mục đích trang này cho mấy mem đọc.thấy post linh tinh cũng nhiều..fanpage có tạo box được k nhỉ?!","can_remove":false,"created_time":"2013-07-09T16:46:04+0000","like_count":1,"user_likes":false},"683252435024770":{"id":"683252435024770","from":{"id":"100001458099624","name":"Kham Pha"},"message":"Trong 1 group khác với lượng thành viên và post, spam gấp nhiều lần group này em đã phải sử dụng biện pháp ấy. Nhưng group hiện nay vẫn chưa đến mức cần phải kiểm soát như vậy.","can_remove":false,"created_time":"2013-07-09T16:47:01+0000","like_count":0,"user_likes":false},"683253605024653":{"id":"683253605024653","from":{"id":"100001458099624","name":"Kham Pha"},"message":"Tạo box làm gì vậy?","can_remove":false,"created_time":"2013-07-09T16:48:59+0000","like_count":0,"user_likes":false},"683254708357876":{"id":"683254708357876","from":{"id":"1146680551","name":"優しい なぁ"},"message":"Thi tao duoc cac Threads de de quan ly do ma","can_remove":false,"created_time":"2013-07-09T16:51:06+0000","like_count":0,"user_likes":false},"683255245024489":{"id":"683255245024489","from":{"id":"1146680551","name":"優しい なぁ"},"message":"Neu lam dc nhu Vbb thi ngon nhi","can_remove":false,"created_time":"2013-07-09T16:52:45+0000","like_count":0,"user_likes":false},"683417595008254":{"id":"683417595008254","from":{"id":"100001416272263","name":"Mai PB"},"message":"Mục đích trang thì đc ghi ở phần About rồi, nhg khó thấy đúng kg? Kham Pha viết luôn vào cover photo ấy.","message_tags":[{"id":"100001458099624","name":"Kham Pha","type":"user","offset":66,"length":8}],"can_remove":false,"created_time":"2013-07-10T00:50:07+0000","like_count":0,"user_likes":false},"683448595005154":{"id":"683448595005154","from":{"id":"100001458099624","name":"Kham Pha"},"message":"Thực ra em đã định viết một cái pinned post có đầy đủ mục đích hoạt động, nội quy, hướng dẫn sử dụng group. Nhưng mà dạo này bận quá nên để nghỉ hè đã rồi tính. \nÝ tưởng viết lên cover photo cũng ko tồi. Nhưng viết gì thì cần nghĩ kĩ vì không gian không có nhiều.","can_remove":false,"created_time":"2013-07-10T02:24:00+0000","like_count":0,"user_likes":false}},"paging":{"cursors":{"after":"NjgzMjQ5ODM1MDI1MDMw","before":"NjgzMjQ5ODM1MDI1MDMw"},"next":"https://graph.facebook.com/229244010425617_683186278364719/comments?limit=1&summary=1&after=NjgzMjQ5ODM1MDI1MDMw"},"summary":{"order":"chronological","total_count":8}}}