{"id":"229244010425617_683535541663126","type":"status","from":{"id":"100003050841775","name":"Lì Mà Bướng"},"message":"Chào cả nhà! mình là thành viên mới, hiện nay mình mới bắt đầu học tiếng nhật mà ko biết nên bắt đầu từ giáo trình nào và nếu muốn luyện nghe thì nghe những chương trình nào, vào nhóm mình thấy có rất nhiều người giỏi tiếng nhật các bạn có thể cho mình xin ít kinh nghiệm ko? cảm ơn các bạn.","created_time":"2013-07-10T07:55:34+0000","updated_time":"2013-07-10T16:59:24+0000","likes":{"data":{"744320899":{"id":"744320899","name":"Dung Vu"},"100001458099624":{"id":"100001458099624","name":"Kham Pha"}},"paging":{"cursors":{"after":"NzQ0MzIwODk5","before":"NzQ0MzIwODk5"},"next":"https://graph.facebook.com/229244010425617_683535541663126/likes?limit=1&summary=1&after=NzQ0MzIwODk5"},"summary":{"total_count":2}},"comments":{"data":{"683538524996161":{"id":"683538524996161","from":{"id":"100000064686295","name":"Huy Roli"},"message":"Đến trung tâm học cho nó bài bản","can_remove":false,"created_time":"2013-07-10T08:09:12+0000","like_count":1,"user_likes":false},"683541084995905":{"id":"683541084995905","from":{"id":"100000268489214","name":"Kaka Huy"},"message":"Nên học minanonihongo nhé bạn. Link down: http://www.studyjapanese.net/2011/03/file-audio-cua-50-bai-khoa-minna-no.html","can_remove":false,"created_time":"2013-07-10T08:21:20+0000","like_count":1,"user_likes":false},"683541374995876":{"id":"683541374995876","from":{"id":"100003050841775","name":"Lì Mà Bướng"},"message":"Cam on Kaka Huy!","message_tags":[{"id":"100000268489214","name":"Kaka Huy","type":"user","offset":7,"length":8}],"can_remove":false,"created_time":"2013-07-10T08:22:43+0000","like_count":0,"user_likes":false},"683621094987904":{"id":"683621094987904","from":{"id":"100001754136107","name":"Nguyễn Tuấn Vũ"},"message":"Kon Heo Đất","message_tags":[{"id":"100003722690486","name":"Kon Heo Đất","type":"user","offset":0,"length":11}],"can_remove":false,"created_time":"2013-07-10T13:00:26+0000","like_count":1,"user_likes":false},"683632034986810":{"id":"683632034986810","from":{"id":"100003722690486","name":"Emcủangày Hômqua"},"message":"hì hì","can_remove":false,"created_time":"2013-07-10T13:31:24+0000","like_count":0,"user_likes":false},"683723311644349":{"id":"683723311644349","from":{"id":"100003722690486","name":"Emcủangày Hômqua"},"message":"đây là giáo trình minna mà Nguyễn Tuấn Vũ t hỏi sách hướng dẫn kanji mà","message_tags":[{"id":"100001754136107","name":"Nguyễn Tuấn Vũ","type":"user","offset":27,"length":14}],"can_remove":false,"created_time":"2013-07-10T15:01:42+0000","like_count":0,"user_likes":false},"683890164960997":{"id":"683890164960997","from":{"id":"100001860537288","name":"Danh Kon"},"message":"Ha ji me ma xi te","can_remove":false,"created_time":"2013-07-10T16:59:24+0000","like_count":0,"user_likes":false}},"paging":{"cursors":{"after":"NjgzNTM4NTI0OTk2MTYx","before":"NjgzNTM4NTI0OTk2MTYx"},"next":"https://graph.facebook.com/229244010425617_683535541663126/comments?limit=1&summary=1&after=NjgzNTM4NTI0OTk2MTYx"},"summary":{"order":"chronological","total_count":7}}}