{"id":"229244010425617_684116944938319","type":"status","from":{"id":"100004195594175","name":"Long Keng"},"message":"Di Nhat Lao Dong thi hoc tieng kho k nhi? ban khoan qua! k bit Thi tieng the na0 nua~!","created_time":"2013-07-11T02:27:49+0000","updated_time":"2013-07-15T06:01:18+0000","comments":{"data":{"684125088270838":{"id":"684125088270838","from":{"id":"1146680551","name":"優しい なぁ"},"message":"Tuy vao su co gang cua ban thoi.Nhung minh thay it nguoi lam duoc.:d","can_remove":false,"created_time":"2013-07-11T02:44:38+0000","like_count":0,"user_likes":false},"684125488270798":{"id":"684125488270798","from":{"id":"100004195594175","name":"Long Keng"},"message":"e cung chang bit nua~ muon dj lm nhung chj? kjnh nhat' khoan? tjeng' Nhat. e0` Ngan' k chju dc!","can_remove":false,"created_time":"2013-07-11T02:45:47+0000","like_count":0,"user_likes":false},"684160964933917":{"id":"684160964933917","from":{"id":"100006313927508","name":"Hoàng Nguyễn Huy"},"message":"ban cu hoc di tieng Nhat ko kho dau.danh cho no nhieu thoi gian 1 chut la duoc","can_remove":false,"created_time":"2013-07-11T04:19:53+0000","like_count":1,"user_likes":false},"686271414722872":{"id":"686271414722872","from":{"id":"100004195594175","name":"Long Keng"},"message":"thank Hoàng Nguyễn Huy","message_tags":[{"id":"100006313927508","name":"Hoàng Nguyễn Huy","type":"user","offset":6,"length":16}],"can_remove":false,"created_time":"2013-07-15T06:01:18+0000","like_count":0,"user_likes":false}},"paging":{"cursors":{"after":"Njg0MTI1MDg4MjcwODM4","before":"Njg0MTI1MDg4MjcwODM4"},"next":"https://graph.facebook.com/229244010425617_684116944938319/comments?limit=1&summary=1&after=Njg0MTI1MDg4MjcwODM4"},"summary":{"order":"chronological","total_count":4}},"likes":{"data":[]}}