{"id":"229244010425617_684216334928380","type":"photo","object_id":"354710127990153","picture":"https://fbcdn-photos-c-a.akamaihd.net/hphotos-ak-ash2/t1.0-0/1006198_354710127990153_1592619317_s.jpg","link":"https://www.facebook.com/gjobsvn/photos/a.324223101038856.1073741828.309747725819727/354710127990153/?type=1","from":{"id":"1582652177","name":"Vo Ngoc"},"message":"Bí quyết sống ở Nhật Bản (じょうたつのコツ)\nNào cùng thấm dần phong cách người Nhật nếu như bạn quyết định theo đuổi học tiếng Nhật và có quyết tâm làm việc cùng người Nhật nhé :)\n\nHãy like ủng hộ Good Jobs để tăng thêm cơ hội và kiến thức mỗi ngày nhé bạn\nhttps://www.facebook.com/gjobsvn?fref=ts","created_time":"2013-07-11T07:22:47+0000","updated_time":"2013-07-11T16:23:09+0000","likes":{"data":{"100001044080438":{"id":"100001044080438","name":"Huyen Vy"},"100004417332978":{"id":"100004417332978","name":"Đặng Đức"},"100000708075798":{"id":"100000708075798","name":"Chibi Baka"},"100003616840561":{"id":"100003616840561","name":"Nguyen Quy"},"100004101363917":{"id":"100004101363917","name":"Lan Anh Mẫn"},"100000257036404":{"id":"100000257036404","name":"Nguyễn Quốc Việt"},"100001416272263":{"id":"100001416272263","name":"Mai PB"},"100004009345656":{"id":"100004009345656","name":"Hung Trinh"},"100003151159313":{"id":"100003151159313","name":"Hồng Kính"},"100006248618563":{"id":"100006248618563","name":"Momi Zi"},"100004088172713":{"id":"100004088172713","name":"Vuong Thao"}},"paging":{"cursors":{"after":"MTAwMDAxMDQ0MDgwNDM4","before":"MTAwMDAxMDQ0MDgwNDM4"},"next":"https://graph.facebook.com/229244010425617_684216334928380/likes?limit=1&summary=1&after=MTAwMDAxMDQ0MDgwNDM4"},"summary":{"total_count":12}},"comments":{"data":{"684220218261325":{"id":"684220218261325","from":{"id":"100001416272263","name":"Mai PB"},"message":"Bí quyết sống lại thành じょうたつ à, thoát nhỉ.","can_remove":false,"created_time":"2013-07-11T07:41:16+0000","like_count":2,"user_likes":false},"684289838254363":{"id":"684289838254363","from":{"id":"100000325572172","name":"Kaze Hikaru"},"message":"Dung Giap Viêt","message_tags":[{"id":"100003856736079","name":"Dung Giap Viêt","type":"user","offset":0,"length":14}],"can_remove":false,"created_time":"2013-07-11T11:59:51+0000","like_count":0,"user_likes":false},"684394401577240":{"id":"684394401577240","from":{"id":"100004417332978","name":"Đặng Đức"},"message":"e mun hoc tieng nhat thi lam nhu nao chp tot  nhi","can_remove":false,"created_time":"2013-07-11T16:23:09+0000","like_count":0,"user_likes":false}},"paging":{"cursors":{"after":"Njg0MjIwMjE4MjYxMzI1","before":"Njg0MjIwMjE4MjYxMzI1"},"next":"https://graph.facebook.com/229244010425617_684216334928380/comments?limit=1&summary=1&after=Njg0MjIwMjE4MjYxMzI1"},"summary":{"order":"chronological","total_count":3}}}