{"id":"229244010425617_685215924828421","type":"status","from":{"id":"100004948993646","name":"Trống Rỗng"},"message":"Em chào các Anh Chị !\n\nAnh chị có biết quyển Từ Điển  Japan -English hoặc English- Japan ( Tiếng Việt thì càng tốt) Ngành Điện tử -Viễn Thông -Công Nghệ TT ko? và có thể chia sẻ cho e và mọi người đc ko? Em Thanks a chị nhiều !","created_time":"2013-07-13T05:17:06+0000","updated_time":"2013-07-15T10:34:36+0000","likes":{"data":{"100000942176772":{"id":"100000942176772","name":"Amaya Quỳnh"}},"paging":{"cursors":{"after":"MTAwMDAwOTQyMTc2Nzcy","before":"MTAwMDAwOTQyMTc2Nzcy"}},"summary":{"total_count":1}},"comments":{"data":{"685269258156421":{"id":"685269258156421","from":{"id":"100001458099624","name":"Kham Pha"},"message":"bạn hỏi quyển là sách viết ah?","can_remove":false,"created_time":"2013-07-13T08:46:40+0000","like_count":1,"user_likes":false},"685272164822797":{"id":"685272164822797","from":{"id":"100001416272263","name":"Mai PB"},"message":"Đây là từ điển giải nghĩa về ICT, có từ đối nghĩa tiếng Anh: http://e-words.jp/","can_remove":false,"created_time":"2013-07-13T08:54:02+0000","like_count":0,"user_likes":false},"685295108153836":{"id":"685295108153836","from":{"id":"100004948993646","name":"Trống Rỗng"},"message":"Kham Pha em muốn hỏi sách viết ạ !","message_tags":[{"id":"100001458099624","name":"Kham Pha","type":"user","offset":0,"length":8}],"can_remove":false,"created_time":"2013-07-13T10:32:40+0000","like_count":0,"user_likes":false},"686292324720781":{"id":"686292324720781","from":{"id":"100005953833214","name":"Roro Zoro"},"message":"neu dang dung iphone co the vao app store tim,,, \nbh media  co bieu tuong hinh mat troi,, minh dang dung loai tu dien nay","can_remove":false,"created_time":"2013-07-15T07:29:19+0000","like_count":0,"user_likes":false},"686292414720772":{"id":"686292414720772","from":{"id":"100005953833214","name":"Roro Zoro"},"message":"neu ma chi dung o may tinh thoi thi,,, search tren mang nhieu lamm,","can_remove":false,"created_time":"2013-07-15T07:29:45+0000","like_count":0,"user_likes":false},"686340918049255":{"id":"686340918049255","from":{"id":"100004948993646","name":"Trống Rỗng"},"message":"e muốn kiếm cuốn nào chuyên về từ vựng ngành này. Hì.","can_remove":false,"created_time":"2013-07-15T10:34:36+0000","like_count":0,"user_likes":false}},"paging":{"cursors":{"after":"Njg1MjY5MjU4MTU2NDIx","before":"Njg1MjY5MjU4MTU2NDIx"},"next":"https://graph.facebook.com/229244010425617_685215924828421/comments?limit=1&summary=1&after=Njg1MjY5MjU4MTU2NDIx"},"summary":{"order":"chronological","total_count":6}}}