{"id":"229244010425617_685252458158101","type":"video","picture":"https://fbexternal-a.akamaihd.net/safe_image.php?d=AQCaaK6MTLGoidjr&w=130&h=130&url=http%3A%2F%2Fi1.ytimg.com%2Fvi%2FcH9RviX5HkY%2Fmaxresdefault.jpg%3Ffeature%3Dog","link":"http://www.youtube.com/watch?v=cH9RviX5HkY","source":"http://www.youtube.com/v/cH9RviX5HkY?version=3&autohide=1&autoplay=1","from":{"id":"100002676859353","name":"Chu Quang Viên"},"message":"http://www.youtube.com/watch?v=cH9RviX5HkY","created_time":"2013-07-13T07:39:09+0000","updated_time":"2013-07-13T11:48:18+0000","likes":{"data":{"100003239455545":{"id":"100003239455545","name":"Yuki Daruma"},"100000284556888":{"id":"100000284556888","name":"Hiền Vũ"},"100004101363917":{"id":"100004101363917","name":"Lan Anh Mẫn"},"100002849008610":{"id":"100002849008610","name":"Nguyễn Phương Hùng"},"1795047139":{"id":"1795047139","name":"Bi Ốc"},"100006256024092":{"id":"100006256024092","name":"Sơn Phạm"},"100003939756464":{"id":"100003939756464","name":"Cỏ Dại"},"100000427448138":{"id":"100000427448138","name":"Anh Tuan Pham"},"100000758307606":{"id":"100000758307606","name":"Lương Ngọc Thành"},"100001458099624":{"id":"100001458099624","name":"Kham Pha"},"100001196329561":{"id":"100001196329561","name":"Hung Do"},"100000183867315":{"id":"100000183867315","name":"Hung Chelsea"},"100001695345798":{"id":"100001695345798","name":"Tyn Aki"}},"paging":{"cursors":{"after":"MTAwMDAzMjM5NDU1NTQ1","before":"MTAwMDAzMjM5NDU1NTQ1"},"next":"https://graph.facebook.com/229244010425617_685252458158101/likes?limit=1&summary=1&after=MTAwMDAzMjM5NDU1NTQ1"},"summary":{"total_count":13}},"comments":{"data":{"685253391491341":{"id":"685253391491341","from":{"id":"100002676859353","name":"Chu Quang Viên"},"message":"http://www.youtube.com/watch?v=KPt5IW-trdY","can_remove":false,"created_time":"2013-07-13T07:43:47+0000","like_count":3,"user_likes":false},"685295618153785":{"id":"685295618153785","from":{"id":"100003821364511","name":"Nguyễn Tuấn Anh"},"message":"Đỗ Diệu Thuý Lê Tuấn AnhNguyễn Phương Hùng Tu Bep","message_tags":[{"id":"100005518809153","name":"Đỗ Diệu Thuý","type":"user","offset":0,"length":12},{"id":"100005444768485","name":"Lê Tuấn Anh","type":"user","offset":13,"length":11},{"id":"100002849008610","name":"Nguyễn Phương Hùng","type":"user","offset":24,"length":18},{"id":"100003702795777","name":"Tu Bep","type":"user","offset":43,"length":6}],"can_remove":false,"created_time":"2013-07-13T10:34:34+0000","like_count":0,"user_likes":false},"685379064812107":{"id":"685379064812107","from":{"id":"100002849008610","name":"Nguyễn Phương Hùng"},"message":"ko hiểu mấy. nói chung là xem tác phong thôi","can_remove":false,"created_time":"2013-07-13T11:48:18+0000","like_count":1,"user_likes":false}},"paging":{"cursors":{"after":"Njg1MjUzMzkxNDkxMzQx","before":"Njg1MjUzMzkxNDkxMzQx"},"next":"https://graph.facebook.com/229244010425617_685252458158101/comments?limit=1&summary=1&after=Njg1MjUzMzkxNDkxMzQx"},"summary":{"order":"chronological","total_count":3}}}