{"id":"229244010425617_685444498138897","type":"status","from":{"id":"100001416272263","name":"Mai PB"},"message":"＜感動する話２＞\n\nこれは私が小学校一年の時の話です。\n\n私には年上のいとこがいてとても面倒見が良く毎日のように遊んでくれました。自分の家とは１５分ほど離れた所に住んでおりいとこが私の家に遊びに来ることが多かったです。 \n\nその道の途中に地元の子供達が使う近道がありましてグルッと回り道しないといけないところを７メートルくらいの崖のふち通るのですが当然大人達からは厳しく禁止されていました。\n\n禁止されればしたくなる子供はそうゆうものだったりします。\n\nその日もいつものように私の家で一緒に遊び夕方に帰って行きました。\n\nすると５分後くらいに顔面蒼白で、近所のおばさんが我が家に駆け込んできて「あんたんとこのが崖から落ちた」と母に言っていいました。\n\n幼いながらに事の重大さに感ずいた私は少しの間そこから動けず裸足で飛び出して行く母の後ろ姿を見つめていました。\n\nほどなくして崖に向かい急ぎました。崖の側に近づいた時にいとこの姿を一瞬みました。 \nさっきまで元気だったいとこは白目をむき体には力がなくまるで人形のようでした。\n\n私を見た母は泣きながら「家にいなさい！！」と私を怒鳴りました。それから少しして救急車の音が聞こえてきすぐに去っていく音も聞こえました。 \n\nいとこは頭から真っ逆さまに落ち、頭蓋骨折その際に血が外にはでず内出血を起こしていました。すぐに処置をほどこされ一命は取り留めたものの植物人間となりました。\n\n一年以上「今は大事な時期だからお見舞いは我慢しようね。すぐに会えるよ」と言って私達ちびっ子達は会わせてもらえませんでした。 \n\nその代わりですがテープに声を吹き込んで渡し続けました。 \n\n私その頃すし屋さんになりたかったんですよ！だから「お寿司作ってあげるから早く元気になってね」て毎回そればっかりなんです！ \n\nそれからも植物状態が続き後から聞いた話だと、いとこの両親は医者から究極の選択の話までされたそうです。\n\nそうして二年近くが経過したある日の夜いとこのお母さんが不思議な夢をみました。”見覚えのある坂道の上から元気な我が子が手招きをしている”とゆうものです。\n\nそれから数日後奇跡が起こるのです。 \n\nベットの隣に付き添って寝ることが日課になっていたいとこの母が深夜に聞きなれない音で目を覚ましました。\n\nなんと我が子がうめいているのです。\n\n気が動転した彼女は大声で息子の名前を呼びました。するといとこは「お寿司たべたい、、」と言って目を覚ましたのです。電話を受けみんなビックリして病院に集合しました。 \n\n担当医までやってきて涙を流しながら「奇跡としかいいようがない」と繰り返していました。\n\n人の力て不思議ですよね？\n\nただこの話まだ終わらないんです。\n\n色々と後遺症は残りましたがすさまじいペースで回復していったいとこは元々好きだった勉強を猛烈な勢いで取り戻しぶじ地元の私立進学校に合格しました。\n\n入学式の朝高校の制服に袖を通す我が子を見てまさに夢のような気持ちのいとこの母。バスに乗って高校へ向かいました。\n\n高校の下のバス停で下車し高校へ向かう親子。その途中持ってこなくては行けない書類を忘れたような気がしてバッグの中を確認したらしいんです。\n\nなんせ朝から夢見心地なわけですから。 \n\n「たしか入れたはず」と焦りながら確認していたその時「おーい、早くしないと遅れるよ！！」と息子の声。\n\n「ちょっと、待って！」と\n顔をあげた母親は言葉を失った後その場に泣き崩れました。\n\nなんとそこにはあの日の夢と全く同じように坂の上から手招きする元気な我が子の姿があったのです。 \n\nどうです、下手な文章で申し訳ないですが 伝わりましたか？","created_time":"2013-07-13T12:40:20+0000","updated_time":"2013-11-01T13:41:24+0000","likes":{"data":{"100004716640495":{"id":"100004716640495","name":"Thúy An Dương"},"100002157379029":{"id":"100002157379029","name":"Nguyen Hai Dung"},"100001723862714":{"id":"100001723862714","name":"Bo Bien Vang"},"100002871405403":{"id":"100002871405403","name":"Thach Sanh"},"100004094346107":{"id":"100004094346107","name":"Thuy Nga Nguyen"},"100001526631937":{"id":"100001526631937","name":"Tường Oanh Mineko"},"100000381394367":{"id":"100000381394367","name":"Thành Nguyễn"},"100001695345798":{"id":"100001695345798","name":"Tyn Aki"},"100005703791922":{"id":"100005703791922","name":"Hoa Tiên Tử"},"100002470650247":{"id":"100002470650247","name":"LinhLinh Chan"},"1415095672":{"id":"1415095672","name":"Thom Cao Thi"}},"paging":{"cursors":{"after":"MTAwMDA0NzE2NjQwNDk1","before":"MTAwMDA0NzE2NjQwNDk1"},"next":"https://graph.facebook.com/229244010425617_685444498138897/likes?limit=1&summary=1&after=MTAwMDA0NzE2NjQwNDk1"},"summary":{"total_count":11}},"comments":{"data":{"685445064805507":{"id":"685445064805507","from":{"id":"100001416272263","name":"Mai PB"},"message":"バックナンバー＜感動する話１＞\n\nhttps://www.facebook.com/groups/229244010425617/permalink/682464268436920/","can_remove":false,"created_time":"2013-07-13T12:41:37+0000","like_count":0,"user_likes":false},"685445348138812":{"id":"685445348138812","from":{"id":"100001416272263","name":"Mai PB"},"message":"Ai muốn góp bài dịch cũng xin mời. Trình độ N3 + từ điển trở lên.","can_remove":false,"created_time":"2013-07-13T12:42:45+0000","like_count":0,"user_likes":false},"686316651385015":{"id":"686316651385015","from":{"id":"100001416272263","name":"Mai PB"},"message":"Còn chút xíu nữa","can_remove":false,"created_time":"2013-07-15T09:07:16+0000","like_count":0,"user_likes":false},"686734108009936":{"id":"686734108009936","from":{"id":"100001416272263","name":"Mai PB"},"message":"Có lẽ bài dài quá?","can_remove":false,"created_time":"2013-07-16T04:14:21+0000","like_count":0,"user_likes":false},"686743958008951":{"id":"686743958008951","from":{"id":"100001416272263","name":"Mai PB"},"message":"Hoc từ sgk thì chỉ là cơ sở thôi, chủ yếu để thi. Đọc những cái này mới giỏi được.","can_remove":false,"created_time":"2013-07-16T04:52:03+0000","like_count":2,"user_likes":false},"686904504659563":{"id":"686904504659563","from":{"id":"100001416272263","name":"Mai PB"},"message":"Tu Pham\nなんせ朝から夢見心地なわけですから。 \nChẳng gì thì từ sáng đã trong tâm trạng nửa mơ nửa tỉnh thế mà.\n\n「ちょっと、待って！」と\n顔をあげた母親は言葉を失った後その場に泣き崩れました。\n\n\"Đợi mẹ chút nào\", vừa nói vừa ngước mặt lên, người mẹ nghẹn lời và khóc nức nở tại chỗ.\n\nなんとそこにはあの日の夢と全く同じように坂の上から手招きする元気な我が子の姿があったのです。 \n\nDáng dấp người con trai khỏe mạnh đang đứng vẫy vẫy mẹ từ trên dốc, chính là hình ảnh trong giấc mơ ngày nào!","message_tags":[{"id":"100001706177145","name":"Tu Pham","type":"user","offset":0,"length":7}],"can_remove":false,"created_time":"2013-07-16T13:12:54+0000","like_count":3,"user_likes":false},"686917977991549":{"id":"686917977991549","from":{"id":"100001416272263","name":"Mai PB"},"message":"Các em dịch đi, anh lười lắm :-)","can_remove":false,"created_time":"2013-07-16T13:47:41+0000","like_count":0,"user_likes":false},"691360004214013":{"id":"691360004214013","from":{"id":"100001416272263","name":"Mai PB"},"message":"Chả có ai quan tâm dịch nhỉ, Tu Pham :-) Em dùng từ điển online đi, chắc sẽ dịch được hết thôi.\n\n私には年上のいとこがいてとても面倒見が良く毎日のように遊んでくれました。\n\nTôi có người anh họ rất tận tình quan tâm, ngày nào cũng chơi cùng với tôi.\n\nいとこは頭から真っ逆さまに落ち、頭蓋骨折その際に血が外にはでず内出血を起こしていました。すぐに処置をほどこされ一命は取り留めたものの植物人間となりました。\n\nAnh ấy ngã ngược thẳng đầu xuống, xương sọ nứt vỡ. Máu cũng không ra ngoài mà là chảy máu trong. Ngay lập tức anh được cấp cứu, may được cứu sống nhưng trở thành cơ thể sống thực vật.\n\n一年以上「今は大事な時期だからお見舞いは我慢しようね。すぐに会えるよ」と言って私達ちびっ子達は会わせてもらえませんでした。\n\n\"Bây giờ là khoảng thời gian rất nghiêm trọng, chịu khó không đến thăm nhé. Rồi sẽ gặp được sớm thôi\". Hơn một năm bọn trẻ con chúng tôi không được cho gặp nhau.\n\nその代わりですがテープに声を吹き込んで渡し続けました。 \n\nThay vào đó, tôi thu âm tiếng vào băng (cát-xét) rồi gửi liên tiếp cho anh. \n\nそれからも植物状態が続き後から聞いた話だと、いとこの両親は医者から究極の選択の話までされたそうです。\n\nSau đó trạng thái sống thực vật vẫn kéo dài. Sau này tôi được biết là bố mẹ của anh họ tôi đã từng được nghe bác sĩ nói đến sự lựa chọn cuối cùng (tức là lựa chọn cái chết nhân đạo). \n\nベットの隣に付き添って寝ることが日課になっていたいとこの母が深夜に聞きなれない音で目を覚ましました。\n\nNgười mẹ, vốn đang nằm cạnh giường như mọi ngày, đang đêm khuya chợt nghe thấy một âm thanh là lạ, bừng tỉnh dậy.\n\nなんと我が子がうめいているのです\n\nChính là tiếng rên của người con trai!","message_tags":[{"id":"100001706177145","name":"Tu Pham","type":"user","offset":29,"length":7}],"can_remove":false,"created_time":"2013-07-24T09:34:29+0000","like_count":2,"user_likes":false},"750208928329120":{"id":"750208928329120","from":{"id":"100006984725456","name":"Mai Anh"},"message":"Mình dịch đoạn còn lại, nhờ bác Mai PB hoặc bạn nào đó check và chỉ giùm mình chỗ sai nhé ! ^^","message_tags":[{"id":"100001416272263","name":"Mai PB","type":"user","offset":32,"length":6}],"can_remove":false,"created_time":"2013-11-01T06:59:54+0000","like_count":0,"user_likes":false},"750208971662449":{"id":"750208971662449","from":{"id":"100006984725456","name":"Mai Anh"},"message":"Chính là tiếng rên của người con trai!\nなんと我が子がうめいているのです。\n\n気が動転した彼女は大声で息子の名前を呼びました。\nNgười phụ nữ giật mình gọi to tên của người con trai.\nするといとこは「お寿司たべたい、、」と言って目を覚ましたのです。\nLập tức, người con trai mở mắt ra và nói “ Con muốn ăn Sushi … “\n電話を受けみんなビックリして病院に集合しました。 \nMọi người nhận được điện thoại ( báo tin ) thì rất bất ngờ và đến tập trung ở bệnh viện.\n\n担当医までやってきて涙を流しながら「奇跡としかいいようがない」と繰り返していました。\nĐến cả bác sỹ điều trị cũng vừa chảy nước mắt vừa nhắc đi nhắc lại “ Không gì tốt đẹp được như sự thần kỳ ( này ) “\n人の力て不思議ですよね？\nĐúng là điều đáng kinh ngạc về sức lực của con người.\nただこの話まだ終わらないんです。\nThế nhưng, chuyện này chưa kết thúc ở đây.\n\n色々と後遺症は残りましたがすさまじいペースで回復していったいとこは元々好きだった勉強を猛烈な勢いで取り戻しぶじ地元の私立進学校に合格しました。\nMặc dù vẫn còn lại rất nhiều di chứng nhưng cậu con trai phục hồi sau một khoảng thời gian đáng kinh ngạc đã quay trở lại với việc học tập hăng say và quyết tâm mà cậu đã rất yêu thích từ trước ( khi bị bệnh ), và đậu vào trường tư lập của địa phương .\n\n入学式の朝高校の制服に袖を通す我が子を見てまさに夢のような気持ちのいとこの母。バスに乗って高校へ向かいました。\nVào buổi sáng ngày nhập trường, mẹ của người con trai kéo tay áo của chiếc áo đồng phục rồi nhìn con trai mình mà có cảm giác như trong mơ . ( họ ) lên xe bus và đi về phía trường học.\n\n高校の下のバス停で下車し高校へ向かう親子。その途中持ってこなくては行けない書類を忘れたような気がしてバッグの中を確認したらしいんです。\nHai mẹ con xuống xe ở điểm dừng xe bus phía dưới rồi hướng về phía trường học.\nGiữa đường thì người mẹ chợt nghĩ là hình như đã quên mất tài liệu cần phải mang đến trường nên đã kiểm tra lại trong túi xách.\n\nなんせ朝から夢見心地なわけですから。 \nĐúng là tại vì từ sáng đến giờ ko hiểu sao tâm trí cứ như mơ. \n\n「たしか入れたはず」と焦りながら確認していたその時「おーい、早くしないと遅れるよ！！」と息子の声。\n“ Chắc chắn là mình đã cho vào rồi  “ trong lúc người mẹ vừa vội vàng vừa kiểm tra lại thì tiếng gọi của cậu con trai “ Mẹ ơi, không nhanh lên thì muộn mất đấy “.\n\n「ちょっと、待って！」と\n顔をあげた母親は言葉を失った後その場に泣き崩れました。\n“ chờ một chút nào con “\nNgười mẹ ngẩng mặt lên, rồi òa khóc sau khi khônh nói lên lời.\n\nなんとそこにはあの日の夢と全く同じように坂の上から手招きする元気な我が子の姿があったのです。 \nĐiều gì đó chính là hình dáng người con trai khỏe mạnh vẫy tay ra hiệu từ trên con dốc , giống y hệt như giấc mơ ngày hôm đó.\nどうです、下手な文章で申し訳ないですが 伝わりましたか？","can_remove":false,"created_time":"2013-11-01T07:00:03+0000","like_count":1,"user_likes":false},"750237421659604":{"id":"750237421659604","from":{"id":"100004094346107","name":"Thuy Nga Nguyen"},"message":"'禁止されればしたくなる子供はそうゆうものだったりします\"  từ souyuu có ý nghĩa là gì vậy anh Mai PB","message_tags":[{"id":"100001416272263","name":"Mai PB","type":"user","offset":66,"length":6}],"can_remove":false,"created_time":"2013-11-01T08:45:02+0000","like_count":0,"user_likes":false},"750238818326131":{"id":"750238818326131","from":{"id":"100001416272263","name":"Mai PB"},"message":"Thuy Nga Nguyen : cho dấu phẩy vào trước chữ 子供 sẽ hiểu ngay.\n\nだったりして：\n- 物事を並存する事項の一つとして並べ、そういう可能性もある、といった意味合いを付け加える表現。\n- 仮定や控えめな提示の意味合いで用いられる。\n\nそうゆう：そういう","message_tags":[{"id":"100004094346107","name":"Thuy Nga Nguyen","type":"user","offset":0,"length":15}],"can_remove":false,"created_time":"2013-11-01T08:48:50+0000","like_count":0,"user_likes":false},"750238844992795":{"id":"750238844992795","from":{"id":"100001416272263","name":"Mai PB"},"message":"Bài này trước đây có 1 bạn tên là Tu Pham tham gia dịch giúp, nhưng bây giờ ID bị xóa, thế là post cũng bị xóa luôn, tiếc quá. Mọi người xem lại từ trên cùng, chỗ nào chưa dịch thì dịch rồi chắp nối lại giúp nhé.","can_remove":false,"created_time":"2013-11-01T08:48:53+0000","like_count":0,"user_likes":false},"750244724992207":{"id":"750244724992207","from":{"id":"100001416272263","name":"Mai PB"},"message":"Mai Anh dịch sai vài chỗ, ai chỉ ra được? :-)","can_remove":false,"created_time":"2013-11-01T09:02:16+0000","like_count":1,"user_likes":false},"750250764991603":{"id":"750250764991603","from":{"id":"100004094346107","name":"Thuy Nga Nguyen"},"message":"ああ、なるほどね。ありがとう。","can_remove":false,"created_time":"2013-11-01T09:23:42+0000","like_count":1,"user_likes":false},"750344598315553":{"id":"750344598315553","from":{"id":"100001416272263","name":"Mai PB"},"message":"Bọn em cứ tự ngắt ra thôi, trước khi dịch thì viết comment vào đây là tôi dịch đoạn này, để bạn khác không dịch trùng là được.","can_remove":false,"created_time":"2013-11-01T13:33:43+0000","like_count":1,"user_likes":false},"750347534981926":{"id":"750347534981926","from":{"id":"100001416272263","name":"Mai PB"},"message":"Dịch là vừa để đọc tốt, vừa cho giỏi tiếng Việt, vừa luyện trí não, vừa hiểu văn hóa, suy nghĩ của người Nhật. Có điều, mải dịch thì quên mất nó cảm động, hay ho ở chỗ nào, nên xong rồi phải đọc lại một lượt.","can_remove":false,"created_time":"2013-11-01T13:41:24+0000","like_count":3,"user_likes":false}},"paging":{"cursors":{"after":"Njg1NDQ1MDY0ODA1NTA3","before":"Njg1NDQ1MDY0ODA1NTA3"},"next":"https://graph.facebook.com/229244010425617_685444498138897/comments?limit=1&summary=1&after=Njg1NDQ1MDY0ODA1NTA3"},"summary":{"order":"chronological","total_count":28}}}