{"id":"229244010425617_685864978096849","type":"status","from":{"id":"100001458099624","name":"Kham Pha"},"message":"Ngo Duy Son, Diệu Nguyễn hôm nay đi đóng phim về Phan Bội Châu thế nào? Up ảnh và chia sẻ cảm nghĩ cho mọi người xem nào :D","created_time":"2013-07-14T10:49:33+0000","updated_time":"2013-07-14T13:20:04+0000","likes":{"data":{"100001580479641":{"id":"100001580479641","name":"Hà Xuân Thủy"},"100001695345798":{"id":"100001695345798","name":"Tyn Aki"},"100000971222044":{"id":"100000971222044","name":"Nhoc' Satoshi"},"100001260645727":{"id":"100001260645727","name":"Ngo Duy Son"},"100003312527085":{"id":"100003312527085","name":"Ngat Pro"},"100001739865592":{"id":"100001739865592","name":"Tung Le"}},"paging":{"cursors":{"after":"MTAwMDAxNTgwNDc5NjQx","before":"MTAwMDAxNTgwNDc5NjQx"},"next":"https://graph.facebook.com/229244010425617_685864978096849/likes?limit=1&summary=1&after=MTAwMDAxNTgwNDc5NjQx"},"summary":{"total_count":6}},"comments":{"data":{"685870614762952":{"id":"685870614762952","from":{"id":"100001260645727","name":"Ngo Duy Son"},"message":"Em đang đợi ảnh từ chị hướng dẫn.\nNói chung là chỉ có ảnh của mấy anh em thôi. Vì lý do bảo mật thông tin nên lúc đóng không được chụp ảnh diễn viên hay thành viên đoàn làm phim. ^^","can_remove":false,"created_time":"2013-07-14T11:07:31+0000","like_count":0,"user_likes":false},"685870924762921":{"id":"685870924762921","from":{"id":"100001479894331","name":"Diệu Nguyễn"},"message":"để đóng nốt mây ngày nữa rồi chia sẻ 1 thể hehe","can_remove":false,"created_time":"2013-07-14T11:08:29+0000","like_count":1,"user_likes":false},"685871758096171":{"id":"685871758096171","from":{"id":"100001458099624","name":"Kham Pha"},"message":"ừa, thế cũng được. Hôm nọ thấy tin của chi Vo Ngoc đăng trên group cũng định liều mình đi đk thử, mà nhìn lại hóa ra ở Aichi xa quá nên chịu :(","message_tags":[{"id":"1582652177","name":"Vo Ngoc","type":"user","offset":43,"length":7}],"can_remove":false,"created_time":"2013-07-14T11:10:15+0000","like_count":0,"user_likes":false},"685919968091350":{"id":"685919968091350","from":{"id":"100001580479641","name":"Hà Xuân Thủy"},"message":"Hình như ở nhật Cụ Phan đc biết đến nhiều hơn Cụ Hồ:)","can_remove":false,"created_time":"2013-07-14T13:20:04+0000","like_count":1,"user_likes":false}},"paging":{"cursors":{"after":"Njg1ODcwNjE0NzYyOTUy","before":"Njg1ODcwNjE0NzYyOTUy"},"next":"https://graph.facebook.com/229244010425617_685864978096849/comments?limit=1&summary=1&after=Njg1ODcwNjE0NzYyOTUy"},"summary":{"order":"chronological","total_count":4}}}