{"id":"229244010425617_686340198049327","type":"status","from":{"id":"100001458099624","name":"Kham Pha"},"message":"Hóa ra là đồng môn senpai viết bài này. Senpai bảo rồi đấy đọc mà có ném đá thì nhẹ tay thôi, đứa nào mạnh tay đấm phát chết luôn :))","created_time":"2013-07-15T10:32:09+0000","updated_time":"2013-07-15T11:33:52+0000","likes":{"data":{"100001754136107":{"id":"100001754136107","name":"Nguyễn Tuấn Vũ"},"100001584153352":{"id":"100001584153352","name":"Snow Kute"},"100003188105866":{"id":"100003188105866","name":"Momiji Chan"},"100003253770705":{"id":"100003253770705","name":"Nguyễn Phương Cúc"},"100003924638739":{"id":"100003924638739","name":"Toi La Ai"},"100002470650247":{"id":"100002470650247","name":"LinhLinh Chan"},"100001260645727":{"id":"100001260645727","name":"Ngo Duy Son"},"100000776461179":{"id":"100000776461179","name":"Jotaro Nguyen"},"100001638306972":{"id":"100001638306972","name":"Lê Thường"},"100001508739620":{"id":"100001508739620","name":"Lê Ngọc Hoàn"},"100002508122689":{"id":"100002508122689","name":"Vũ Mạnh Tuấn"},"100000012034953":{"id":"100000012034953","name":"Vân Anh"},"100006035740084":{"id":"100006035740084","name":"Thuy Pham"},"100005923923695":{"id":"100005923923695","name":"Lu Phạm"},"100003686123087":{"id":"100003686123087","name":"Trương Thị Quý Trâm"},"100004965272241":{"id":"100004965272241","name":"Cỏ Nhỏ"},"100000328742646":{"id":"100000328742646","name":"Trần Giáp"},"100003389919177":{"id":"100003389919177","name":"Chuột Trang"},"100000280776405":{"id":"100000280776405","name":"Viet Nguyen Thanh"},"100001318098340":{"id":"100001318098340","name":"Trang Anh"},"1693102459":{"id":"1693102459","name":"Châu Hoàng"},"100003078368623":{"id":"100003078368623","name":"Ngọc Vân"}},"paging":{"cursors":{"after":"MTAwMDAxNzU0MTM2MTA3","before":"MTAwMDAxNzU0MTM2MTA3"},"next":"https://graph.facebook.com/229244010425617_686340198049327/likes?limit=1&summary=1&after=MTAwMDAxNzU0MTM2MTA3"},"summary":{"total_count":22}},"comments":{"data":{"686346244715389":{"id":"686346244715389","from":{"id":"100000180985064","name":"Trung Đồng"},"message":"Ơ thằng bạn cùng nhà với mình 0.o","can_remove":false,"created_time":"2013-07-15T10:53:56+0000","like_count":0,"user_likes":false},"686355168047830":{"id":"686355168047830","from":{"id":"100002967791944","name":"Tôi Yêu VietNam"},"message":"làm công ăn lương sống cuộc sống vô nghĩa thế mà cũng khoe làm nhiều tiền lương cao........","can_remove":false,"created_time":"2013-07-15T11:27:03+0000","like_count":0,"user_likes":false},"686355424714471":{"id":"686355424714471","from":{"id":"100002967791944","name":"Tôi Yêu VietNam"},"message":"tự mình tìm nghề phù hợp vs mình chứ học đại học xong chỉ cho con người ta cách suy nghĩ sâu hơn về cuộc sống và công việc sau này thôi","can_remove":false,"created_time":"2013-07-15T11:27:51+0000","like_count":2,"user_likes":false},"686357364714277":{"id":"686357364714277","from":{"id":"100000180985064","name":"Trung Đồng"},"message":"Tôi Yêu VietNam Vô nghĩa với bạn thôi =))","message_tags":[{"id":"100002967791944","name":"Tôi Yêu VietNam","type":"user","offset":0,"length":15}],"can_remove":false,"created_time":"2013-07-15T11:33:27+0000","like_count":0,"user_likes":false},"686357581380922":{"id":"686357581380922","from":{"id":"100001458099624","name":"Kham Pha"},"message":"học đh chỉ là nơi người ta học những kiến thức cần thiết thôi, muốn làm gì thì tự bản thân mình phải biết, chứ ko trường lớp nào dạy được :)","can_remove":false,"created_time":"2013-07-15T11:33:52+0000","like_count":2,"user_likes":false}},"paging":{"cursors":{"after":"Njg2MzQ2MjQ0NzE1Mzg5","before":"Njg2MzQ2MjQ0NzE1Mzg5"},"next":"https://graph.facebook.com/229244010425617_686340198049327/comments?limit=1&summary=1&after=Njg2MzQ2MjQ0NzE1Mzg5"},"summary":{"order":"chronological","total_count":5}}}