{"id":"229244010425617_686636511353029","type":"status","from":{"id":"100001458099624","name":"Kham Pha"},"message":"Hôm nọ xem Bụi đời Chợ Lớn thấy có câu này hay, dịch thử sang tiếng Nhật xem sao: \n\n“Ngày nào thức dậy, ai cũng muốn mình thay đổi một cái gì đó. Nhưng cuối cùng thì cuộc sống của họ vẫn như vậy, không có gì thay đổi. \nCho đến khi mọi thứ quá trễ...”\n\n                         --Bụi đời Chợ Lớn\n\n「我々は、毎朝起きて、誰も自分が何かを更新したいのかな。でも結局人生をそのまま生きてるんだ。\nどいう努力でも無駄になっちゃう時まで、何も変わってなかった。」\n\n                    --「Cho Lon ヤクザ」により\n\n我々（われわれ）（ NGÃ）: chúng ta. Chữ NGÃ trong “bản ngã”, trong tên nhân vật Nhiệm Ngã Hành, “Tiếu ngạo giang hồ”-Kim Dung\n更新（こうしん）（ CANH TÂN ）: thay đổi.\n結局（けっきょく）（KẾT CUỘC）: kết cuộc, rốt cuộc thì. Dùng với kết quả xấu. \n努力（どりょく）（NỖ LỰC）: nỗ lực. \n無駄（むだ）（VÔ ĐÀ）: vô dụng. \n変（か）わる（BIẾN）: thay đổi. Tự động từ. \n\nCấu trúc かな đã học trong bài 29. \nhttps://www.facebook.com/groups/229244010425617/doc/597582176925130/\nCấu trúc ちゃう đã học trong bài 19.\nhttps://www.facebook.com/groups/229244010425617/doc/594104383939576/\n\nVậy hôm nay thức dậy, bạn đã sẵn sàng thay đổi điều gì chưa?","created_time":"2013-07-15T22:58:45+0000","updated_time":"2013-08-14T08:14:27+0000","likes":{"data":{"100006671800165":{"id":"100006671800165","name":"Xa Mà Gần"},"100003055356509":{"id":"100003055356509","name":"Thuan Nguyen"},"1305472811":{"id":"1305472811","name":"Tuan Nguyen"},"100003011417151":{"id":"100003011417151","name":"Hue Kim"},"100001479894331":{"id":"100001479894331","name":"Diệu Nguyễn"},"100000280776405":{"id":"100000280776405","name":"Viet Nguyen Thanh"},"100002508122689":{"id":"100002508122689","name":"Vũ Mạnh Tuấn"},"100002827290312":{"id":"100002827290312","name":"Nhung Pham"},"100003265320558":{"id":"100003265320558","name":"Nguyễn Huyền"},"100003644019916":{"id":"100003644019916","name":"Ơn-Đền Oán-Trả"},"100004251847599":{"id":"100004251847599","name":"Yuki Yuki"},"100002829897061":{"id":"100002829897061","name":"Xiêu Nhân"},"100001638306972":{"id":"100001638306972","name":"Lê Thường"},"100004722305374":{"id":"100004722305374","name":"Lê Tiến Dũng"},"100004642933206":{"id":"100004642933206","name":"Aloha Aloha"},"100002754998000":{"id":"100002754998000","name":"Nguyen Duc"},"100001044080438":{"id":"100001044080438","name":"Huyen Vy"},"100003806594580":{"id":"100003806594580","name":"Daothuy Linh"},"100002932607957":{"id":"100002932607957","name":"Phạm Thơm"},"100002676859353":{"id":"100002676859353","name":"Chu Quang Viên"},"100003586944443":{"id":"100003586944443","name":"Đăng Lực Nguyễn"},"100004483051243":{"id":"100004483051243","name":"Knari Nguyen"},"100003221880243":{"id":"100003221880243","name":"Ngân Siêu Nhân"},"100001526631937":{"id":"100001526631937","name":"Tường Oanh Mineko"},"100006273189882":{"id":"100006273189882","name":"Yuki Hana"},"100004101363917":{"id":"100004101363917","name":"Lan Anh Mẫn"},"100000805317614":{"id":"100000805317614","name":"Hanh Nguyen"},"100000776461179":{"id":"100000776461179","name":"Jotaro Nguyen"},"100001508739620":{"id":"100001508739620","name":"Lê Ngọc Hoàn"},"100003670920063":{"id":"100003670920063","name":"Hoàng Dung"},"100001116169487":{"id":"100001116169487","name":"Minh le Dinh"},"100000101723728":{"id":"100000101723728","name":"Bình Đặng"},"100003598120371":{"id":"100003598120371","name":"Kyu Hyun"},"100000012034953":{"id":"100000012034953","name":"Vân Anh"},"100000167825702":{"id":"100000167825702","name":"Cùi Bắp"},"100000299798248":{"id":"100000299798248","name":"Vẹt Đêm"},"1340056952":{"id":"1340056952","name":"Nguyễn Nhật Minh"},"100001451539873":{"id":"100001451539873","name":"Buta Nguyen"},"100002258140388":{"id":"100002258140388","name":"Kim Sữa"},"100004608482123":{"id":"100004608482123","name":"Bé Bi"},"100004514621076":{"id":"100004514621076","name":"Hason Angle"},"100003389919177":{"id":"100003389919177","name":"Chuột Trang"},"100001594722256":{"id":"100001594722256","name":"Viết An Phạm"},"100001260645727":{"id":"100001260645727","name":"Ngo Duy Son"},"100001216203214":{"id":"100001216203214","name":"Lala Rita"},"100000128764209":{"id":"100000128764209","name":"Chau Le"},"100003137067215":{"id":"100003137067215","name":"Duong Thi Diem Hang"}},"paging":{"cursors":{"after":"MTAwMDA2NjcxODAwMTY1","before":"MTAwMDA2NjcxODAwMTY1"},"next":"https://graph.facebook.com/229244010425617_686636511353029/likes?limit=1&summary=1&after=MTAwMDA2NjcxODAwMTY1"},"summary":{"total_count":48}},"comments":{"data":{"686638921352788":{"id":"686638921352788","from":{"id":"100000383155614","name":"Phạm Thúc Hưng"},"message":"làm cho xong cái project thực tập :))","can_remove":false,"created_time":"2013-07-15T23:07:28+0000","like_count":1,"user_likes":false},"686657828017564":{"id":"686657828017564","from":{"id":"1340056952","name":"Nguyễn Nhật Minh"},"message":"Bạn gì ơi,cho mình share cái bản dịch của bạn về face nhé, sẽ ghi rõ là bạn dịch :))","can_remove":false,"created_time":"2013-07-16T00:25:12+0000","like_count":0,"user_likes":false},"686659871350693":{"id":"686659871350693","from":{"id":"100000021018532","name":"Hương Nguyễn"},"message":"Yakuza là xã hội đen mà :)","can_remove":false,"created_time":"2013-07-16T00:33:47+0000","like_count":0,"user_likes":false},"686765228006824":{"id":"686765228006824","from":{"id":"100001458099624","name":"Kham Pha"},"message":"Nguyễn Nhật Minh Trên post có ghi thu phí share ko? Nếu ko thì cứ thoải mái :)","message_tags":[{"id":"1340056952","name":"Nguyễn Nhật Minh","type":"user","offset":0,"length":16}],"can_remove":false,"created_time":"2013-07-16T06:10:14+0000","like_count":1,"user_likes":false},"686765994673414":{"id":"686765994673414","from":{"id":"100001458099624","name":"Kham Pha"},"message":"Hương Nguyễn Dịch là yakuza ko đc ah?\n@Tu Pham: đc chứ.","message_tags":[{"id":"100000021018532","name":"Hương Nguyễn","type":"user","offset":0,"length":12}],"can_remove":false,"created_time":"2013-07-16T06:12:41+0000","like_count":1,"user_likes":false},"686766314673382":{"id":"686766314673382","from":{"id":"100001458099624","name":"Kham Pha"},"message":"Phạm Thúc Hưng Tốt nghiệp vốn là thứ ai cũng phải làm. Giờ muốn thay đổi thì phải KHÔNG THÈM LÀM :))","message_tags":[{"id":"100000383155614","name":"Phạm Thúc Hưng","type":"user","offset":0,"length":14}],"can_remove":false,"created_time":"2013-07-16T06:14:17+0000","like_count":0,"user_likes":false},"686952071321473":{"id":"686952071321473","from":{"id":"100001458099624","name":"Kham Pha"},"message":"Này bạn Quỳnh Trang Lê, bạn đang tham gia 2 group đều do mình làm admin. Mình biết bạn đang làm gì với mấy cái icon comment đấy, bởi bên kia có nhiều người như thế rồi. Tốt nhất là bạn nên dừng lại trước khi bị ban nick. Nếu bị xóa khỏi group đừng trách mình ko nhắc trước.","message_tags":[{"id":"100006330580190","name":"Quỳnh Trang Lê","type":"user","offset":8,"length":14}],"can_remove":false,"created_time":"2013-07-16T15:07:54+0000","like_count":2,"user_likes":false},"686957334654280":{"id":"686957334654280","from":{"id":"100006268926873","name":"Thuan Osaka"},"message":"hoi truong cho em hoi tai sao bai cua nhom van hien len face cua em ma nhom cong dong viet nhat lai ko thay nhi cam on hoi truong nhe","can_remove":false,"created_time":"2013-07-16T15:17:46+0000","like_count":0,"user_likes":false},"686958077987539":{"id":"686958077987539","from":{"id":"100001458099624","name":"Kham Pha"},"message":"không thấy là không thấy thế nào? ko có trên thanh search?","can_remove":false,"created_time":"2013-07-16T15:19:08+0000","like_count":0,"user_likes":false},"686959474654066":{"id":"686959474654066","from":{"id":"100006268926873","name":"Thuan Osaka"},"message":"ko co o cho nhom","can_remove":false,"created_time":"2013-07-16T15:22:51+0000","like_count":0,"user_likes":false},"686959654654048":{"id":"686959654654048","from":{"id":"100006268926873","name":"Thuan Osaka"},"message":"nhung ma co day du tin tuc cua cac ban trong hoi","can_remove":false,"created_time":"2013-07-16T15:23:23+0000","like_count":0,"user_likes":false},"686959801320700":{"id":"686959801320700","from":{"id":"100006268926873","name":"Thuan Osaka"},"message":"em moi dung may nen ko ro lam","can_remove":false,"created_time":"2013-07-16T15:23:47+0000","like_count":0,"user_likes":false},"686960717987275":{"id":"686960717987275","from":{"id":"100001458099624","name":"Kham Pha"},"message":"vậy thì lạ thật :|","can_remove":false,"created_time":"2013-07-16T15:26:50+0000","like_count":0,"user_likes":false},"686963087987038":{"id":"686963087987038","from":{"id":"100001597637331","name":"Nguyen Minh Tien"},"message":"Hay","can_remove":false,"created_time":"2013-07-16T15:29:56+0000","like_count":1,"user_likes":false},"686965551320125":{"id":"686965551320125","from":{"id":"100006268926873","name":"Thuan Osaka"},"message":"vang cam on em se tu tim hieu vay chuc hoi truong ngu ngon","can_remove":false,"created_time":"2013-07-16T15:36:04+0000","like_count":0,"user_likes":false},"702574693092544":{"id":"702574693092544","from":{"id":"100001727857917","name":"Bui Duyen"},"message":"anh ơi, theo e biết 更新(新しく改めること ) có nghĩa là thay đổi, làm mới. Nhưng nó thường chỉ được dùng với sự vật, sự việc thôi. VD:ビザ更新(びざこうしん)、更新期間、契約更新（けいやくこうしん）....e nghĩ nên dịch câu đầu là:　誰でも自分のどこかを変えようとするだろう.như thế nghe tự nhiên hơn, gần với cách ng Nhật hay nói. ý kiến cá nhân. hi vọng ko bị ném đá:D","can_remove":false,"created_time":"2013-08-14T07:40:02+0000","like_count":0,"user_likes":false},"702582193091794":{"id":"702582193091794","from":{"id":"100001458099624","name":"Kham Pha"},"message":"Có cả 人生を更新 đấy chứ. Nhưng dù sao trong câu trên anh cũng viết là 自分が何かを更新  đâu có vi phạm như em nói đâu. Dịch như em thì cũng ko vấn đề gì :)","can_remove":false,"created_time":"2013-08-14T08:10:28+0000","like_count":0,"user_likes":false},"702583283091685":{"id":"702583283091685","from":{"id":"100001458099624","name":"Kham Pha"},"message":"Có điều anh nghĩ ý câu này ko chỉ có ý nghĩa là thay đổi cái gì của bản thân mình, mà có thể của cả những điều xung quanh mình, làm cho mọi thứ xung quanh tốt hơn. Nên anh dịch như vậy :)","can_remove":false,"created_time":"2013-08-14T08:14:27+0000","like_count":2,"user_likes":false}},"paging":{"cursors":{"after":"Njg2NjM4OTIxMzUyNzg4","before":"Njg2NjM4OTIxMzUyNzg4"},"next":"https://graph.facebook.com/229244010425617_686636511353029/comments?limit=1&summary=1&after=Njg2NjM4OTIxMzUyNzg4"},"summary":{"order":"chronological","total_count":19}}}