{"id":"229244010425617_686663178017029","type":"link","link":"https://docs.google.com/forms/d/1RiZUgkC7zgoPhr7HYqUSz_iqCamIOq8CMk4VLBOnBqE/viewform","from":{"id":"100002329538994","name":"Xuka Sakura"},"message":"Mình xin phép các ad cho mình post nhờ  nhé.\nMình đang làm đề tài liên quan đến việc học tiếng địa phương. Các bạn học tiếng Nhật đang làm việc và học tập tại Nhật có thể bớt chút thời gian làm giúp mình bản điều tra sau đây được không?? \nMình xin cảm ơn trước nhé.\nhttps://docs.google.com/forms/d/1RiZUgkC7zgoPhr7HYqUSz_iqCamIOq8CMk4VLBOnBqE/viewform","created_time":"2013-07-16T00:45:27+0000","updated_time":"2013-07-21T12:46:04+0000","likes":{"data":{"100001754136107":{"id":"100001754136107","name":"Nguyễn Tuấn Vũ"},"100001475606142":{"id":"100001475606142","name":"Thanh Hoa Dang"},"100001695345798":{"id":"100001695345798","name":"Tyn Aki"}},"paging":{"cursors":{"after":"MTAwMDAxNzU0MTM2MTA3","before":"MTAwMDAxNzU0MTM2MTA3"},"next":"https://graph.facebook.com/229244010425617_686663178017029/likes?limit=1&summary=1&after=MTAwMDAxNzU0MTM2MTA3"},"summary":{"total_count":3}},"comments":{"data":{"689377357745611":{"id":"689377357745611","from":{"id":"100001754136107","name":"Nguyễn Tuấn Vũ"},"message":"Châu Hoàng","message_tags":[{"id":"1693102459","name":"Châu Hoàng","type":"user","offset":0,"length":10}],"can_remove":false,"created_time":"2013-07-21T03:37:59+0000","like_count":0,"user_likes":false},"689558754394138":{"id":"689558754394138","from":{"id":"1693102459","name":"Châu Hoàng"},"message":"Nguyễn Tuấn Vũ: e không ở Nhật :-\"","message_tags":[{"id":"100001754136107","name":"Nguyễn Tuấn Vũ","type":"user","offset":0,"length":14}],"can_remove":false,"created_time":"2013-07-21T12:07:44+0000","like_count":0,"user_likes":false},"689575931059087":{"id":"689575931059087","from":{"id":"100006248618563","name":"Momi Zi"},"message":"Mình góp y ko biết có bị lạc đề hay ko thì gomen.mình thấy người Nhật rất vui và hứng thú khi mình biết CÁCH sử dụng tiếng địa phương.chúc bạn thành công!","can_remove":false,"created_time":"2013-07-21T12:46:04+0000","like_count":1,"user_likes":false}},"paging":{"cursors":{"after":"Njg5Mzc3MzU3NzQ1NjEx","before":"Njg5Mzc3MzU3NzQ1NjEx"},"next":"https://graph.facebook.com/229244010425617_686663178017029/comments?limit=1&summary=1&after=Njg5Mzc3MzU3NzQ1NjEx"},"summary":{"order":"chronological","total_count":3}}}