{"id":"229244010425617_686820321334648","type":"status","from":{"id":"100004177091825","name":"Dịch Thuật Atoz"},"message":"Công ty dịch thuật A2Z cần tuyển một phiên dịch tiếng Nhật:\nNội dung: thăm quan xí nghiệp sản xuất nhôm, inox \nĐịa điểm: tại Thái Bình \nThời gian: ngày mai: từ 8h sáng đến 17h chiều xuất phát từ 11 Xuân Diệu, Hà Nội\nPhí: 100USD \nLiên hệ: Mss Hằng ( 0932 674 888)","created_time":"2013-07-16T09:44:49+0000","updated_time":"2013-07-17T06:40:39+0000","likes":{"data":{"100005610785327":{"id":"100005610785327","name":"Sơn Phan"},"1577104209":{"id":"1577104209","name":"Ngoc Plh"}},"paging":{"cursors":{"after":"MTAwMDA1NjEwNzg1MzI3","before":"MTAwMDA1NjEwNzg1MzI3"},"next":"https://graph.facebook.com/229244010425617_686820321334648/likes?limit=1&summary=1&after=MTAwMDA1NjEwNzg1MzI3"},"summary":{"total_count":2}},"comments":{"data":{"686831638000183":{"id":"686831638000183","from":{"id":"1577104209","name":"Ngoc Plh"},"message":"gấp quá, ko đú được oy`. Thien Nguyen coi có đi được không nhé","message_tags":[{"id":"1596952608","name":"Thien Nguyen","type":"user","offset":25,"length":12}],"can_remove":false,"created_time":"2013-07-16T10:35:23+0000","like_count":0,"user_likes":false},"686834087999938":{"id":"686834087999938","from":{"id":"100004177091825","name":"Dịch Thuật Atoz"},"message":"cÓ A/C NÀO ĐI ĐC THÌ ALO CHO E LIỀN NÉH","can_remove":false,"created_time":"2013-07-16T10:45:45+0000","like_count":0,"user_likes":false},"687303577952989":{"id":"687303577952989","from":{"id":"100003775518086","name":"Nguyen Thu"},"message":"đi trong ngày hả em","can_remove":false,"created_time":"2013-07-17T06:39:55+0000","like_count":0,"user_likes":false},"687303657952981":{"id":"687303657952981","from":{"id":"100003775518086","name":"Nguyen Thu"},"message":"mấy khách đi vậy?","can_remove":false,"created_time":"2013-07-17T06:40:39+0000","like_count":0,"user_likes":false}},"paging":{"cursors":{"after":"Njg2ODMxNjM4MDAwMTgz","before":"Njg2ODMxNjM4MDAwMTgz"},"next":"https://graph.facebook.com/229244010425617_686820321334648/comments?limit=1&summary=1&after=Njg2ODMxNjM4MDAwMTgz"},"summary":{"order":"chronological","total_count":4}}}