{"id":"229244010425617_686896521327028","type":"status","from":{"id":"100000180985064","name":"Trung Đồng"},"message":"Ai có thông tin gì về share house có giá từ 5 vạn trở xuống (chưa tính phí tiện ích) quanh khu vực thành phố Yokohama thì chia sẻ cho tớ với nhé :D","created_time":"2013-07-16T12:51:07+0000","updated_time":"2013-07-16T15:03:12+0000","likes":{"data":{"100001695345798":{"id":"100001695345798","name":"Tyn Aki"}},"paging":{"cursors":{"after":"MTAwMDAxNjk1MzQ1Nzk4","before":"MTAwMDAxNjk1MzQ1Nzk4"}},"summary":{"total_count":1}},"comments":{"data":{"686897084660305":{"id":"686897084660305","from":{"id":"100001695345798","name":"Tyn Aki"},"message":"bạn có thể gửi thêm yêu cầu sang bên group Vysa, sẽ có thể nhận đc phản hổi nhanh hơn ^^","can_remove":false,"created_time":"2013-07-16T12:53:33+0000","like_count":1,"user_likes":false},"686898207993526":{"id":"686898207993526","from":{"id":"100000180985064","name":"Trung Đồng"},"message":"Gửi rồi nhưng đợi mãi không được duyệt bài nên gửi bên này cho nhanh :P","can_remove":false,"created_time":"2013-07-16T12:57:58+0000","like_count":0,"user_likes":false},"686899851326695":{"id":"686899851326695","from":{"id":"100001416272263","name":"Mai PB"},"message":"Gửi lại. Ad bên đó bị ngập trong request hay sao đó.","can_remove":false,"created_time":"2013-07-16T13:01:59+0000","like_count":2,"user_likes":false},"686906937992653":{"id":"686906937992653","from":{"id":"100001695345798","name":"Tyn Aki"},"message":"nhưng em thấy ad kêu gửi nhieu ad cảnh cáo ;))","can_remove":false,"created_time":"2013-07-16T13:20:21+0000","like_count":0,"user_likes":false},"686909044659109":{"id":"686909044659109","from":{"id":"100001416272263","name":"Mai PB"},"message":"Không phải là cảnh cáo đâu, kêu khổ đấy. Với lại chưa được đăng thì phải gửi lại thôi","can_remove":false,"created_time":"2013-07-16T13:25:50+0000","like_count":2,"user_likes":false},"686949911321689":{"id":"686949911321689","from":{"id":"100000180985064","name":"Trung Đồng"},"message":"Cám ơn Tyn Aki và anh Mai PB, em sẽ thử gửi lại bên kia xem sao.\n@Quỳnh Trang Lê: ?","message_tags":[{"id":"100001695345798","name":"Tyn Aki","type":"user","offset":7,"length":7},{"id":"100001416272263","name":"Mai PB","type":"user","offset":22,"length":6}],"can_remove":false,"created_time":"2013-07-16T15:03:12+0000","like_count":0,"user_likes":false}},"paging":{"cursors":{"after":"Njg2ODk3MDg0NjYwMzA1","before":"Njg2ODk3MDg0NjYwMzA1"},"next":"https://graph.facebook.com/229244010425617_686896521327028/comments?limit=1&summary=1&after=Njg2ODk3MDg0NjYwMzA1"},"summary":{"order":"chronological","total_count":6}}}