{"id":"229244010425617_686899627993384","type":"photo","object_id":"548954081829857","picture":"https://fbcdn-photos-e-a.akamaihd.net/hphotos-ak-frc1/t1.0-0/944239_548954081829857_149192634_s.jpg","link":"https://www.facebook.com/photo.php?fbid=548954081829857&set=gm.686899627993384&type=1&relevant_count=3","from":{"id":"100001458099624","name":"Kham Pha"},"message":"Hôm nay trên đường đi từ Tokyo về thấy bảng thông báo này ở ga. Nhân tiện giới thiệu với các bạn quốc nạn của nước Nhật. \n\n人身事故（じんしんじこ） là từ dùng để chỉ các tai nạn liên quan đến tính mạng con người. Ở Nhật nếu nghe thấy thông báo ở ga tàu thì chúng ta ngầm hiểu đó là tự sát, mặc dù không ai nói trắng ra vậy. Ở Nhật có nhiều người vì lý do nào đó tự sát họ thường chọn cách lao vào tàu điện. Xin nói thêm, mỗi năm có khoảng vài chục nghìn người tự tử ở Nhật. \n\nĐây cũng không phải lần đầu mình gặp thông báo kiểu thế này. Mỗi lần gặp cái này thì một vài tuyến đường sắt sẽ bị ngừng hoạt động để cho các cty chuyên dọn dẹp đường tàu giải quyết. Lúc ấy những ai đang trên tàu sẽ bị kẹt, nhanh thì nửa tiếng, chậm thì vài tiếng. Trong các bức hình ở dưới vẫn còn thiếu một dòng nữa thông báo tên một vài tuyến tàu bị ngừng. \n\nViệc tự sát bằng nhảy tàu không đơn giản là chết thì xong, mình còn nghe nói khi chết xong thì sẽ có hóa đơn gửi về gia đình yêu cầu gia đình bồi thường thiệt hại cho cty đường sắt, cũng khá đắt. Vậy thì các bạn nghĩ tại sao đây vẫn luôn là cách tự tử được người Nhật ưa chuộng? Nghĩ thử xem.\n\nLần trước trong lớp tiếng Anh mình học, có buổi nói chuyện về việc \"những điều bất thường trong một chuyến đi chơi của bạn\" có một đứa kể lại rằng: nó đến ga và thấy thông báo về một vụ tai nạn như thế. Sau đó nó thấy trên sân ga có một chiếc giày màu đen và bên trong là một cái bàn chân người và nó đã tái mét mặt khi nhìn thấy cảnh ấy. Đến người ngồi nghe kể lại còn nổi da gà thì làm sao người tận mắt nhìn chả tái mặt. \n\nNếu như lý do chết hàng đầu ở Việt Nam là tai nạn giao thông thì gần như Nhật Bản có rất ít người chết vì tai nạn giao thông. Có những ngày cả nước chẳng có ai chết vì tai nạn giao thông cả. Điều đó nói lên sự an toàn của nước Nhật. Nhưng tại sao tự sát vẫn luôn là quốc nạn của đất nước văn minh này và làm thế nào để ngăn chặn nó vẫn còn là một bài toán rất khó. \n\n--Kham Pha","created_time":"2013-07-16T13:01:11+0000","updated_time":"2013-08-07T14:11:58+0000","likes":{"data":{"100005677922501":{"id":"100005677922501","name":"Duy Tran"},"100004477292126":{"id":"100004477292126","name":"Kien Xinh Doan"},"100003109506619":{"id":"100003109506619","name":"Thanh Xuân Nguyễn"},"100004705145167":{"id":"100004705145167","name":"Ngọc Tuệ Bạch"},"100001287663521":{"id":"100001287663521","name":"Pham Thanh Hoa"},"100000299798248":{"id":"100000299798248","name":"Vẹt Đêm"},"100001754136107":{"id":"100001754136107","name":"Nguyễn Tuấn Vũ"},"100002414995202":{"id":"100002414995202","name":"Nguyễn Duy Công"},"100000280776405":{"id":"100000280776405","name":"Viet Nguyen Thanh"},"100001442509723":{"id":"100001442509723","name":"Nguyễn Mai Anh"},"100003713852718":{"id":"100003713852718","name":"Huệ Nguyen"},"100003402699439":{"id":"100003402699439","name":"Trang Chan"},"100001840875327":{"id":"100001840875327","name":"Phạm Chí Long"},"100001128589118":{"id":"100001128589118","name":"Giang Manh"},"1828906841":{"id":"1828906841","name":"Trọng Nghĩa Bùi"},"100000882482676":{"id":"100000882482676","name":"Quốc Lập"},"100004101363917":{"id":"100004101363917","name":"Lan Anh Mẫn"},"100000022163023":{"id":"100000022163023","name":"Kafe Ore"},"581814582":{"id":"581814582","name":"Nguyen Dinh Duc"},"100000264268101":{"id":"100000264268101","name":"Back To December"},"100000229075579":{"id":"100000229075579","name":"Yu Rin"},"100000249832456":{"id":"100000249832456","name":"Dung Genie"},"100000427448138":{"id":"100000427448138","name":"Anh Tuan Pham"},"100000050843975":{"id":"100000050843975","name":"Chè Kem"},"100000309978634":{"id":"100000309978634","name":"Tan Vu"},"100003950139327":{"id":"100003950139327","name":"Kathy Banh"},"100003055356509":{"id":"100003055356509","name":"Thuan Nguyen"},"100003691126317":{"id":"100003691126317","name":"竹井幸子"},"1265728374":{"id":"1265728374","name":"Boa Yang"},"100003875211691":{"id":"100003875211691","name":"Hue Yamashironguyen"},"100003598120371":{"id":"100003598120371","name":"Kyu Hyun"},"100003389919177":{"id":"100003389919177","name":"Chuột Trang"},"100006405030515":{"id":"100006405030515","name":"Hoa Minh"},"100003610201283":{"id":"100003610201283","name":"Phạm Loan"},"100000649472712":{"id":"100000649472712","name":"Cửu Vỹ Hồ Ly"},"1330346997":{"id":"1330346997","name":"Kieu Anh"},"100001508739620":{"id":"100001508739620","name":"Lê Ngọc Hoàn"},"100000971222044":{"id":"100000971222044","name":"Nhoc' Satoshi"},"100001495688011":{"id":"100001495688011","name":"Chung Kếu"},"100001706370960":{"id":"100001706370960","name":"Haro Hawayu"},"1693102459":{"id":"1693102459","name":"Châu Hoàng"},"1146680551":{"id":"1146680551","name":"優しい なぁ"},"100002957210847":{"id":"100002957210847","name":"Lan Anh Vũ"},"100004566972183":{"id":"100004566972183","name":"Tsuyoshi Ta"},"100000532742867":{"id":"100000532742867","name":"Yuri Katsura"},"100002869230720":{"id":"100002869230720","name":"Linh Nguyen Van"},"100001475606142":{"id":"100001475606142","name":"Thanh Hoa Dang"},"100001416272263":{"id":"100001416272263","name":"Mai PB"},"1031089243":{"id":"1031089243","name":"Tiet Khai"},"100001695345798":{"id":"100001695345798","name":"Tyn Aki"},"100004041794244":{"id":"100004041794244","name":"Watanuki Kimihiro"},"100000328742646":{"id":"100000328742646","name":"Trần Giáp"}},"paging":{"cursors":{"after":"MTAwMDA1Njc3OTIyNTAx","before":"MTAwMDA1Njc3OTIyNTAx"},"next":"https://graph.facebook.com/229244010425617_686899627993384/likes?limit=1&summary=1&after=MTAwMDA1Njc3OTIyNTAx"},"summary":{"total_count":53}},"comments":{"data":{"686900437993303":{"id":"686900437993303","from":{"id":"100000328742646","name":"Trần Giáp"},"message":"hình như 3 cách thức tự sát hay dùng của người nhật là nhảy lầu, treo cổ và lao vào tàu điện a nhỉ ?","can_remove":false,"created_time":"2013-07-16T13:03:45+0000","like_count":0,"user_likes":false},"686901177993229":{"id":"686901177993229","from":{"id":"100000328306722","name":"Tran Ngoc Anh"},"message":"Lên trên này mà ở, chả bao giờ có tự sát đâu :))","can_remove":false,"created_time":"2013-07-16T13:06:17+0000","like_count":1,"user_likes":false},"686901221326558":{"id":"686901221326558","from":{"id":"100000198219367","name":"Chang Jiang"},"message":"làm việc quá nhiều và nhiệt quá mức quanh năm là con dao 2 lưỡi: giúp đất nước phát triển mạnh, nhưng đồng thời với cá nhân thì stress cũng tăng vọt, thần kinh cũng như dây chun thôi, kéo mãi mà ko buông thì khắc nó sẽ đứt :|","can_remove":false,"created_time":"2013-07-16T13:06:21+0000","like_count":3,"user_likes":false},"686901287993218":{"id":"686901287993218","from":{"id":"100001416272263","name":"Mai PB"},"message":"Ở VN 人身事故 cũng là quốc nạn đấy. Hôm nào lấy làm ネタ kể cho các bạn Nhật lác mắt chơi.","can_remove":false,"created_time":"2013-07-16T13:06:43+0000","like_count":1,"user_likes":false},"686903271326353":{"id":"686903271326353","from":{"id":"100001458099624","name":"Kham Pha"},"message":"sao post 3 hình mà chỉ có 1 hình ra vậy ta?","can_remove":false,"created_time":"2013-07-16T13:10:46+0000","like_count":0,"user_likes":false},"686903404659673":{"id":"686903404659673","from":{"id":"100001458099624","name":"Kham Pha"},"message":"","can_remove":false,"created_time":"2013-07-16T13:11:07+0000","like_count":0,"user_likes":false},"686908027992544":{"id":"686908027992544","from":{"id":"100001646814780","name":"Nhật Dương"},"message":"áp lực khủng khiếp trong công việc giúp Nhật có nền kt đứng top thế giới và top luôn cả cái tự sát, ngoài ra nhiều người trẻ còn không muốn lập gia đình, ko đẻ con nữa tỷ lệ cũng top. Ngược hoàn toàn VN, ngu si hưởng thái bình, kinh tế lẹt đẹt , phịch nhau liên tục dân số tăng nhanh liên tục, tỷ lệ phá thai top TG :v","can_remove":false,"created_time":"2013-07-16T13:23:19+0000","like_count":4,"user_likes":false},"686909307992416":{"id":"686909307992416","from":{"id":"100000198219367","name":"Chang Jiang"},"message":"VN ko ngu nhé, chỉ lười thôi 8|","can_remove":false,"created_time":"2013-07-16T13:26:34+0000","like_count":2,"user_likes":false},"686910124659001":{"id":"686910124659001","from":{"id":"100001416272263","name":"Mai PB"},"message":"Thực ra truyền thống tự sát có từ ngày xưa, đó là một cách thể hiện lòng tự trọng (theo họ): không để xã hội phiền toái vì mình.","can_remove":false,"created_time":"2013-07-16T13:29:16+0000","like_count":3,"user_likes":false},"686910774658936":{"id":"686910774658936","from":{"id":"100001646814780","name":"Nhật Dương"},"message":"\"ngu si hưởng thái bình\" ý nghĩa câu này không phải thế đâu, có liên quan đến chế độ ấy, phải giả ngu để mà... sống. :v","can_remove":false,"created_time":"2013-07-16T13:30:47+0000","like_count":2,"user_likes":false},"686914184658595":{"id":"686914184658595","from":{"id":"100000250256418","name":"Nguyen Viet Anh"},"message":"Kham Pha thế lý do người ta lao vào tàu là gì? Sao ko chọn cách nào nhẹ nhành hơn để đỡ ảnh hưởng đến bao người?","message_tags":[{"id":"100001458099624","name":"Kham Pha","type":"user","offset":0,"length":8}],"can_remove":false,"created_time":"2013-07-16T13:39:32+0000","like_count":0,"user_likes":false},"686919114658102":{"id":"686919114658102","from":{"id":"100001458099624","name":"Kham Pha"},"message":"Nguyen Viet Anh hỏi anh Mai PB xem, trông anh ấy có vẻ kinh nghiệm (do làm việc với Nhật lâu, đừng ai nghĩ linh tinh :)) )","message_tags":[{"id":"100000250256418","name":"Nguyen Viet Anh","type":"user","offset":0,"length":15},{"id":"100001416272263","name":"Mai PB","type":"user","offset":24,"length":6}],"can_remove":false,"created_time":"2013-07-16T13:49:51+0000","like_count":0,"user_likes":false},"686921297991217":{"id":"686921297991217","from":{"id":"100001416272263","name":"Mai PB"},"message":"Vế sau là nói thừa!","can_remove":false,"created_time":"2013-07-16T13:53:25+0000","like_count":0,"user_likes":false},"686932527990094":{"id":"686932527990094","from":{"id":"100000383155614","name":"Phạm Thúc Hưng"},"message":"mình cũng hỉểu hiểu một phần tại sao người ta lại tự từ :-<","can_remove":false,"created_time":"2013-07-16T14:21:29+0000","like_count":0,"user_likes":false},"686941967989150":{"id":"686941967989150","from":{"id":"100000250256418","name":"Nguyen Viet Anh"},"message":"Kham Pha vậy thôi để mai tao đến hỏi trực tiếp người Nhật vậy.=))","message_tags":[{"id":"100001458099624","name":"Kham Pha","type":"user","offset":0,"length":8}],"can_remove":false,"created_time":"2013-07-16T14:40:00+0000","like_count":2,"user_likes":false},"686942767989070":{"id":"686942767989070","from":{"id":"100001646814780","name":"Nhật Dương"},"message":"nhớ review nhé :v","can_remove":false,"created_time":"2013-07-16T14:42:07+0000","like_count":0,"user_likes":false},"686944154655598":{"id":"686944154655598","from":{"id":"100001458099624","name":"Kham Pha"},"message":"Mai PB em đang sợ mọi người nghĩ anh có nhiều kn tự tử nên mới giải thích :))\nNguyen Viet Anh vote review :D","message_tags":[{"id":"100001416272263","name":"Mai PB","type":"user","offset":0,"length":6},{"id":"100000250256418","name":"Nguyen Viet Anh","type":"user","offset":78,"length":15}],"can_remove":false,"created_time":"2013-07-16T14:44:52+0000","like_count":0,"user_likes":false},"686949051321775":{"id":"686949051321775","from":{"id":"100001416272263","name":"Mai PB"},"message":"Kham Pha càng nói càng lộ chứ sao :-)","message_tags":[{"id":"100001458099624","name":"Kham Pha","type":"user","offset":0,"length":8}],"can_remove":false,"created_time":"2013-07-16T15:01:03+0000","like_count":0,"user_likes":false},"686949187988428":{"id":"686949187988428","from":{"id":"100001416272263","name":"Mai PB"},"message":"Trang này giải thích rất rõ, có cả ranking: http://by-intuition.com/ranking2.html","can_remove":false,"created_time":"2013-07-16T15:01:25+0000","like_count":2,"user_likes":false},"686953577987989":{"id":"686953577987989","from":{"id":"100003107551526","name":"Dế Mèn"},"message":"that huu ich, tks nguoi  nhiu nhe :)))","can_remove":false,"created_time":"2013-07-16T15:11:08+0000","like_count":0,"user_likes":false},"686955484654465":{"id":"686955484654465","from":{"id":"100001416272263","name":"Mai PB"},"message":"Không biết có vẽ đường cho hươu chạy không đây. :-)","can_remove":false,"created_time":"2013-07-16T15:13:43+0000","like_count":0,"user_likes":false},"687201527963194":{"id":"687201527963194","from":{"id":"100004826612667","name":"Đào Hạnh"},"message":"Kham Pha bạn nhầm zùi ! K có cty chuyên dọn dẹp đường Tàu đâu bạn ạh ! Mình hỏi bạn mình là lái Tàu ở tuyến 山手線ý . A ấy bảo là khi có người tự tử thì người lái chuyển Tàu đó cùng vs nhân viên nhà ga ( người cầm Mic đứng ở )phải dọn xác bạn ạh (u_u)\nCòn bồi thường thì mình nghe bảo tuỳ từng tuyến và giờ người đó tự tử . Rẻ thì 3000 man đắt thì có khi tới 5000man ý Σ（ﾟдﾟlll）","message_tags":[{"id":"100001458099624","name":"Kham Pha","type":"user","offset":0,"length":8}],"can_remove":false,"created_time":"2013-07-17T00:39:34+0000","like_count":0,"user_likes":false},"687271661289514":{"id":"687271661289514","from":{"id":"100001458099624","name":"Kham Pha"},"message":"Cách xử lý tùy vào công ty đường sắt và trường hợp. Những trường hợp thân người bị bắn ra nhiều mảnh và máu dính trên tàu thì phức tạp hơn nhiều. Bạn có thể tìm bằng từ khóa 飛び降り現場のお片付け sẽ thấy cách xử lý là khác nhau ở những nơi khác nhau.","can_remove":false,"created_time":"2013-07-17T04:39:41+0000","like_count":1,"user_likes":false},"687399401276740":{"id":"687399401276740","from":{"id":"100000383155614","name":"Phạm Thúc Hưng"},"message":"Mấy nghìn man cơ á :-ss, nhà thân nhân bán thân đi cũng ko đủ tiền trả thì sao :-ss, lại đi nhảy tàu tiếp chăng @@","can_remove":false,"created_time":"2013-07-17T12:26:29+0000","like_count":0,"user_likes":false},"687457757937571":{"id":"687457757937571","from":{"id":"100000198219367","name":"Chang Jiang"},"message":"giả sử có tên nào nợ nần chồng chất bức bách quá nên tự tự, nhưng lại làm bằng cách lao vào đường tàu thì gia đình đã nghèo lại thêm khó -_-","can_remove":false,"created_time":"2013-07-17T14:45:18+0000","like_count":0,"user_likes":false},"687655647917782":{"id":"687655647917782","from":{"id":"100001458099624","name":"Kham Pha"},"message":"đời về cơ bản là buồn.","can_remove":false,"created_time":"2013-07-17T22:23:50+0000","like_count":0,"user_likes":false},"699223473427666":{"id":"699223473427666","from":{"id":"100001458099624","name":"Kham Pha"},"message":"làm thế nào để lấy link của post này để cho vào danh mục bài học đây?","can_remove":false,"created_time":"2013-08-07T12:18:54+0000","like_count":0,"user_likes":false},"699226073427406":{"id":"699226073427406","from":{"id":"100000098004511","name":"Nguyễn Đức Tùng"},"message":"có phải link này ko https://www.facebook.com/groups/CongdongVietNhat/permalink/686899627993384/","can_remove":false,"created_time":"2013-08-07T12:25:42+0000","like_count":0,"user_likes":false},"699227630093917":{"id":"699227630093917","from":{"id":"100001458099624","name":"Kham Pha"},"message":"làm thế nào hay vậy? :3","can_remove":false,"created_time":"2013-08-07T12:29:54+0000","like_count":0,"user_likes":false},"699228233427190":{"id":"699228233427190","from":{"id":"100000098004511","name":"Nguyễn Đức Tùng"},"message":"muốn lấy link của post nào cứ click vào thời gian của post đấy là đc :))","can_remove":false,"created_time":"2013-08-07T12:31:45+0000","like_count":1,"user_likes":false},"699229300093750":{"id":"699229300093750","from":{"id":"100001458099624","name":"Kham Pha"},"message":"ra là vậy, giờ mới biết, gà quá.","can_remove":false,"created_time":"2013-08-07T12:33:09+0000","like_count":0,"user_likes":false},"699265743423439":{"id":"699265743423439","from":{"id":"100000027754899","name":"Hoang Van Ba"},"message":"Ồh. Mọi người tiếp thu thôi nhá. Đừng học hỏi nhá","can_remove":false,"created_time":"2013-08-07T14:11:58+0000","like_count":0,"user_likes":false}},"paging":{"cursors":{"after":"Njg2OTAwNDM3OTkzMzAz","before":"Njg2OTAwNDM3OTkzMzAz"},"next":"https://graph.facebook.com/229244010425617_686899627993384/comments?limit=1&summary=1&after=Njg2OTAwNDM3OTkzMzAz"},"summary":{"order":"chronological","total_count":32}}}