{"id":"229244010425617_687268624623151","type":"status","from":{"id":"614140901","name":"Nga Nguyễn"},"message":"Hiện tại công ty mình đang cần tuyển 1 nhân viên nữ, tiếng Nhật khá làm quản lý lao động nữ VN (5 nữ). Có thể tuyển từ Việt Nam sang.\n\nNơi làm: tỉnh Tochigi\nThời gian bắt đầu: có thể làm ngay\nLương (có thể thỏa thuận thêm): 850 yên/giờ\nNội dung công việc: vừa quản lý thực tập sinh (5 nữ) và vừa làm luôn ở xưởng (kiểm tra đĩa đọc máy tính; nơi làm mát mẻ, có máy lạnh, ngồi làm việc, môi trường làm việc thân thiện)\n\nMọi chi tiết xin liên hệ vào mail: thanhnga@emar.co.jp hoặc thao@emar.co.jp\n\nVì công ty đang cần gấp nên rất mong có cơ hội được làm việc cùng các bạn!","created_time":"2013-07-17T04:26:47+0000","updated_time":"2013-07-17T07:29:31+0000","likes":{"data":{"100002327743510":{"id":"100002327743510","name":"Tuan Thanh"},"100001044080438":{"id":"100001044080438","name":"Huyen Vy"},"100004566972183":{"id":"100004566972183","name":"Tsuyoshi Ta"},"100003188105866":{"id":"100003188105866","name":"Momiji Chan"},"100001628612184":{"id":"100001628612184","name":"Mai Tròn"},"100003237670837":{"id":"100003237670837","name":"Tôn Thành Long"}},"paging":{"cursors":{"after":"MTAwMDAyMzI3NzQzNTEw","before":"MTAwMDAyMzI3NzQzNTEw"},"next":"https://graph.facebook.com/229244010425617_687268624623151/likes?limit=1&summary=1&after=MTAwMDAyMzI3NzQzNTEw"},"summary":{"total_count":6}},"comments":{"data":{"687275991289081":{"id":"687275991289081","from":{"id":"100002722604276","name":"Lê xuân Hưng"},"message":"Sao ko tuyển nam quản cho chặt :))))","can_remove":false,"created_time":"2013-07-17T04:55:12+0000","like_count":0,"user_likes":false},"687276334622380":{"id":"687276334622380","from":{"id":"100003795586875","name":"Huyen Nguyen"},"message":"kinh pj dj the nao ah","can_remove":false,"created_time":"2013-07-17T04:57:00+0000","like_count":0,"user_likes":false},"687283067955040":{"id":"687283067955040","from":{"id":"614140901","name":"Nga Nguyễn"},"message":"Hưng Ngố rất tiếc cty toàn nữ nên chỉ có nữ mới vào được thôi ^^","message_tags":[{"id":"100002722604276","name":"Hưng Ngố","type":"user","offset":0,"length":8}],"can_remove":false,"created_time":"2013-07-17T05:17:12+0000","like_count":1,"user_likes":false},"687283427955004":{"id":"687283427955004","from":{"id":"100003795586875","name":"Huyen Nguyen"},"message":"cty ben Nhat hay o Vn ah","can_remove":false,"created_time":"2013-07-17T05:18:20+0000","like_count":0,"user_likes":false},"687283857954961":{"id":"687283857954961","from":{"id":"614140901","name":"Nga Nguyễn"},"message":"Huyen Nguyen cty ở Nhật, tỉnh Tochigi. Vì cty đang cần người gấp nên người đang ở Nhật sẽ được ưu tiên hơn ở VN","message_tags":[{"id":"100003795586875","name":"Huyen Nguyen","type":"user","offset":0,"length":12}],"can_remove":false,"created_time":"2013-07-17T05:19:41+0000","like_count":0,"user_likes":false},"687284037954943":{"id":"687284037954943","from":{"id":"100003795586875","name":"Huyen Nguyen"},"message":"vay ah.m laj dag o Vn","can_remove":false,"created_time":"2013-07-17T05:20:36+0000","like_count":0,"user_likes":false},"687306387952708":{"id":"687306387952708","from":{"id":"100003970393448","name":"Lotus Lotus"},"message":"Du hoc co duoc ko","can_remove":false,"created_time":"2013-07-17T06:53:49+0000","like_count":0,"user_likes":false},"687308087952538":{"id":"687308087952538","from":{"id":"614140901","name":"Nga Nguyễn"},"message":"Lotus Lotus được, bạn cứ gửi CV cho mình. Nếu thấy ổn cty sẽ đổi visa cho bạn.","message_tags":[{"id":"100003970393448","name":"Lotus Lotus","type":"user","offset":0,"length":11}],"can_remove":false,"created_time":"2013-07-17T07:03:26+0000","like_count":0,"user_likes":false},"687313577951989":{"id":"687313577951989","from":{"id":"100003970393448","name":"Lotus Lotus"},"message":"Ok ban","can_remove":false,"created_time":"2013-07-17T07:29:31+0000","like_count":0,"user_likes":false}},"paging":{"cursors":{"after":"Njg3Mjc1OTkxMjg5MDgx","before":"Njg3Mjc1OTkxMjg5MDgx"},"next":"https://graph.facebook.com/229244010425617_687268624623151/comments?limit=1&summary=1&after=Njg3Mjc1OTkxMjg5MDgx"},"summary":{"order":"chronological","total_count":9}}}