{"id":"229244010425617_687356871280993","type":"status","from":{"id":"1227016020","name":"Giang Huong Nguyen"},"message":"Thông tin công việc IT, lương hấp dẫn, có cơ hội đi Nhật đào tạo, môi trường làm việc thoải mái cho các bạn có quan tâm \n\n1. Tuyển Project Manager lương 1000-1500$. Môi trường làm việc trẻ trung thoải mái. Có thể được đi Nhật đào tạo nếu cần.\nYêu cầu: có tiếng Nhật N2, đã có kinh nghiệm ít nhất 1 năm làm PM. Có kiến thức chuyên sâu về Ios/ Android/ PHP. \n\n2. Tuyển 2-3 kĩ sư IT. (Chấp nhận các bạn mới trường) sang Nhật đào tạo 1 năm rồi về Việt Nam làm việc cho chi nhánh Việt Nam ở Hà Nội. \nThời gian đào tạo: 1/2014 đến 12/2014. Mọi chi phí ăn ở, đi lại, sinh hoạt sẽ được công ty trợ cấp.\nYêu cầu: \nTiếng Nhật N3\nTốt nghiệp các trường Đại học chuyên ngành CNTT, Toán Tin. \nCó kiến thức về C++, Java.  \n\n3. Tuyển 2~3 bạn Developer làm các ứng dụng/game trên nền tảng iOS. Tham gia vào dự án xây dựng một Product cùng với KH. Dự án này rất thú vị vì được làm từ đầu, sáng tạo thoải mái + Làm cùng với các member cty đã có 6~8 năm kinh nghiệm, nên có thể học hỏi được nhiều thứ.\n- Lương offer: 500~600$ cho các bạn đã có kinh nghiệm làm các ứng dụng/game ít nhất 1~2 năm, 3 năm trở nên thì sẽ Offer khác. Sau 6 tháng thì sẽ đánh giá và set lại mức Offer một lần nữa.\nYêu cầu: Chỉ cần phỏng vấn và show-up khả năng được là có thể tham gia thử việc và làm luôn được.\nNote: Biết tiếng Nhật là một lợi thế, ở công ty mình có phụ cấp tiếng Nhật hấp dẫn cho các bạn có chứng chỉ tiếng Nhật hoặc trình độ thực tế tương đương với các mức: N3, N2, N1.\n\n4. Tuyển 2 kĩ sư hệ thống có 4-5 năm kinh nghiệm về Oracle/ SQL Server/ My SQL/ websystem. Môi trường làm việc cực kì thoải mái, giám đốc dễ tính. Lương thỏa thuận đảm bảo cạnh tranh.","created_time":"2013-07-17T10:03:56+0000","updated_time":"2013-07-17T12:01:55+0000","likes":{"data":{"100000309978634":{"id":"100000309978634","name":"Tan Vu"},"100003265320558":{"id":"100003265320558","name":"Nguyễn Huyền"},"100000383155614":{"id":"100000383155614","name":"Phạm Thúc Hưng"},"100003924638739":{"id":"100003924638739","name":"Toi La Ai"},"1821970083":{"id":"1821970083","name":"Nguyễn Mạnh Cường"},"100000421640870":{"id":"100000421640870","name":"Heo Luoi"}},"paging":{"cursors":{"after":"MTAwMDAwMzA5OTc4NjM0","before":"MTAwMDAwMzA5OTc4NjM0"},"next":"https://graph.facebook.com/229244010425617_687356871280993/likes?limit=1&summary=1&after=MTAwMDAwMzA5OTc4NjM0"},"summary":{"total_count":6}},"comments":{"data":{"687386987944648":{"id":"687386987944648","from":{"id":"100000268489214","name":"Kaka Huy"},"message":"裴徳  福","message_tags":[{"id":"100004263697752","name":"裴徳  福","type":"user","offset":0,"length":5}],"can_remove":false,"created_time":"2013-07-17T11:43:25+0000","like_count":0,"user_likes":false},"687392774610736":{"id":"687392774610736","from":{"id":"100000495302979","name":"Huy Toàn"},"message":"không biết gì về IT,đã từng Tu nghiệp ở Nhật,liệu đủ điều kiện k ?","can_remove":false,"created_time":"2013-07-17T12:01:55+0000","like_count":0,"user_likes":false}},"paging":{"cursors":{"after":"Njg3Mzg2OTg3OTQ0NjQ4","before":"Njg3Mzg2OTg3OTQ0NjQ4"},"next":"https://graph.facebook.com/229244010425617_687356871280993/comments?limit=1&summary=1&after=Njg3Mzg2OTg3OTQ0NjQ4"},"summary":{"order":"chronological","total_count":2}}}