{"id":"229244010425617_687318711284809","type":"status","from":{"id":"100004145293805","name":"Trần Đại Dương"},"message":"có bạn nào làm công ty nhật ở VN trong thành phố HCM hay Bình Dương đang tuyển công nhân, nhân viên tiếng nhật ko báo tin cho jup với , ta nộp bộ hs đi làm mưu sinh! \nCảm ơn các bạn nhé ! minasan arigatou!","created_time":"2013-07-17T07:48:58+0000","updated_time":"2013-07-17T10:47:05+0000","likes":{"data":{"100004411770431":{"id":"100004411770431","name":"Giap Viet Dung"},"100005610785327":{"id":"100005610785327","name":"Sơn Phan"},"100002327743510":{"id":"100002327743510","name":"Tuan Thanh"},"100002703420852":{"id":"100002703420852","name":"Hoàng Hữu Hội"}},"paging":{"cursors":{"after":"MTAwMDA0NDExNzcwNDMx","before":"MTAwMDA0NDExNzcwNDMx"},"next":"https://graph.facebook.com/229244010425617_687318711284809/likes?limit=1&summary=1&after=MTAwMDA0NDExNzcwNDMx"},"summary":{"total_count":4}},"comments":{"data":{"687334607949886":{"id":"687334607949886","from":{"id":"100000064686295","name":"Huy Roli"},"message":"Thông tin Tuyển dụng nhân sự tiếng Nhật ở Việt Nam（ベトナムでの日本語関係の仕事の募集）","message_tags":[{"id":"101881786624475","name":"Tuyển dụng nhân sự tiếng Nhật ở Việt Nam（ベトナムでの日本語関係の仕事の募集）","type":"page","offset":10,"length":59}],"can_remove":false,"created_time":"2013-07-17T08:50:00+0000","like_count":0,"user_likes":false},"687371054612908":{"id":"687371054612908","from":{"id":"100002703420852","name":"Hoàng Hữu Hội"},"message":"Vui nhe","can_remove":false,"created_time":"2013-07-17T10:46:35+0000","like_count":0,"user_likes":false},"687371174612896":{"id":"687371174612896","from":{"id":"100002703420852","name":"Hoàng Hữu Hội"},"message":"Cty minh o binh duong ma k pit o cho nao binh duong","can_remove":false,"created_time":"2013-07-17T10:47:05+0000","like_count":0,"user_likes":false}},"paging":{"cursors":{"after":"Njg3MzM0NjA3OTQ5ODg2","before":"Njg3MzM0NjA3OTQ5ODg2"},"next":"https://graph.facebook.com/229244010425617_687318711284809/comments?limit=1&summary=1&after=Njg3MzM0NjA3OTQ5ODg2"},"summary":{"order":"chronological","total_count":3}}}