{"id":"229244010425617_687932324556781","type":"photo","object_id":"549944995064099","picture":"https://fbcdn-photos-a-a.akamaihd.net/hphotos-ak-frc1/t1.0-0/222420_549944995064099_1161699051_s.jpg","link":"https://www.facebook.com/photo.php?fbid=549944995064099&set=gm.687932324556781&type=1&relevant_count=1","from":{"id":"100001458099624","name":"Kham Pha"},"message":"「僕の生きてる原則は絶対にタイガーや豹のように生きないことです。」\n\nHình ảnh và dịch nghĩa chỉ mang tính chất giải trí :D","created_time":"2013-07-18T11:35:18+0000","updated_time":"2013-07-18T13:35:31+0000","likes":{"data":{"100004380181780":{"id":"100004380181780","name":"Be Boo"},"683231044":{"id":"683231044","name":"Hoàng Hải Đăng"},"100002641238579":{"id":"100002641238579","name":"Vịt Béo"},"100001577287524":{"id":"100001577287524","name":"Trần Quốc Đạt"},"100004566972183":{"id":"100004566972183","name":"Tsuyoshi Ta"},"100003586944443":{"id":"100003586944443","name":"Đăng Lực Nguyễn"},"100003806594580":{"id":"100003806594580","name":"Daothuy Linh"},"1693102459":{"id":"1693102459","name":"Châu Hoàng"},"100004433463487":{"id":"100004433463487","name":"Lê Anh Kim"},"100001739865592":{"id":"100001739865592","name":"Tung Le"},"100003186413787":{"id":"100003186413787","name":"HiEn Thuc PK"},"100002636949866":{"id":"100002636949866","name":"Trung Thành"},"100001508739620":{"id":"100001508739620","name":"Lê Ngọc Hoàn"},"100002676859353":{"id":"100002676859353","name":"Chu Quang Viên"},"100001260645727":{"id":"100001260645727","name":"Ngo Duy Son"}},"paging":{"cursors":{"after":"MTAwMDA0MzgwMTgxNzgw","before":"MTAwMDA0MzgwMTgxNzgw"},"next":"https://graph.facebook.com/229244010425617_687932324556781/likes?limit=1&summary=1&after=MTAwMDA0MzgwMTgxNzgw"},"summary":{"total_count":16}},"comments":{"data":{"687940321222648":{"id":"687940321222648","from":{"id":"100001508739620","name":"Lê Ngọc Hoàn"},"message":"A Kham Pha mà nói câu này thì có phải sẽ xây đc nhà ko? :v","message_tags":[{"id":"100001458099624","name":"Kham Pha","type":"user","offset":2,"length":8}],"can_remove":false,"created_time":"2013-07-18T12:01:11+0000","like_count":0,"user_likes":false},"687966231220057":{"id":"687966231220057","from":{"id":"100000198219367","name":"Chang Jiang"},"message":"Hổ thì dùng Tora nó gần gũi hơn là Taiga- :3","can_remove":false,"created_time":"2013-07-18T13:11:15+0000","like_count":0,"user_likes":false},"687975967885750":{"id":"687975967885750","from":{"id":"100001260645727","name":"Ngo Duy Son"},"message":"Anh Kham Pha dao nay cang ngay cang manh bao nhi.\nCo len anh!\nEm la em ung ho.","message_tags":[{"id":"100001458099624","name":"Kham Pha","type":"user","offset":4,"length":8}],"can_remove":false,"created_time":"2013-07-18T13:35:31+0000","like_count":0,"user_likes":false}},"paging":{"cursors":{"after":"Njg3OTQwMzIxMjIyNjQ4","before":"Njg3OTQwMzIxMjIyNjQ4"},"next":"https://graph.facebook.com/229244010425617_687932324556781/comments?limit=1&summary=1&after=Njg3OTQwMzIxMjIyNjQ4"},"summary":{"order":"chronological","total_count":3}}}