{"id":"229244010425617_689104287772918","type":"status","from":{"id":"100003667089869","name":"Kậu Nhỏ"},"message":"moi nguoi oi cho mjnh hoi\ndi du hok thi chon fukuoka co' duok ko nhj","created_time":"2013-07-20T15:21:25+0000","updated_time":"2013-07-21T16:03:10+0000","likes":{"data":{"100004101363917":{"id":"100004101363917","name":"Lan Anh Mẫn"},"100002849008610":{"id":"100002849008610","name":"Nguyễn Phương Hùng"}},"paging":{"cursors":{"after":"MTAwMDA0MTAxMzYzOTE3","before":"MTAwMDA0MTAxMzYzOTE3"},"next":"https://graph.facebook.com/229244010425617_689104287772918/likes?limit=1&summary=1&after=MTAwMDA0MTAxMzYzOTE3"},"summary":{"total_count":2}},"comments":{"data":{"689105837772763":{"id":"689105837772763","from":{"id":"100001416272263","name":"Mai PB"},"message":"Nếu em kg coi trọng đặc biệt điều kiện gì thì Fukuoka cũng tốt lắm","can_remove":false,"created_time":"2013-07-20T15:23:31+0000","like_count":1,"user_likes":false},"689106337772713":{"id":"689106337772713","from":{"id":"100001754136107","name":"Nguyễn Tuấn Vũ"},"message":"T đang ơ fukuokaz\nNhưng chọn đâu thì chọn.bạn phai có tiếng ở nhà thì nó đỡ vất vả hơn","can_remove":false,"created_time":"2013-07-20T15:24:00+0000","like_count":0,"user_likes":false},"689106744439339":{"id":"689106744439339","from":{"id":"100001754136107","name":"Nguyễn Tuấn Vũ"},"message":"Fukuoka thì giá cả cũng rẻ.bằng 1/2 giá ở tokyo","can_remove":false,"created_time":"2013-07-20T15:25:04+0000","like_count":1,"user_likes":false},"689108817772465":{"id":"689108817772465","from":{"id":"1693102459","name":"Châu Hoàng"},"message":"còn osaka thì sao bác Vũ (chuckle)","message_tags":[{"id":"100001754136107","name":"Vũ","type":"user","offset":22,"length":2}],"can_remove":false,"created_time":"2013-07-20T15:27:50+0000","like_count":0,"user_likes":false},"689112684438745":{"id":"689112684438745","from":{"id":"100001754136107","name":"Nguyễn Tuấn Vũ"},"message":"Châu Hoàng: chỗ osaka ban a đang sống thì giá cả đat hon tý.","message_tags":[{"id":"1693102459","name":"Châu Hoàng","type":"user","offset":0,"length":10}],"can_remove":false,"created_time":"2013-07-20T15:33:27+0000","like_count":0,"user_likes":false},"689113097772037":{"id":"689113097772037","from":{"id":"1693102459","name":"Châu Hoàng"},"message":"thế là có nguy cơ uống nước biển thay cơm đúng không (chuckle)","can_remove":false,"created_time":"2013-07-20T15:34:13+0000","like_count":0,"user_likes":false},"689113487771998":{"id":"689113487771998","from":{"id":"100001754136107","name":"Nguyễn Tuấn Vũ"},"message":":))) fukuoka thì ít động đất :)))","can_remove":false,"created_time":"2013-07-20T15:35:08+0000","like_count":0,"user_likes":false},"689121334437880":{"id":"689121334437880","from":{"id":"100002849008610","name":"Nguyễn Phương Hùng"},"message":"Minh sap sang fukuoka ne\\. Noi chung la dj dau thj dj. Can ban la von' tieng' cua mjnh thoi.","can_remove":false,"created_time":"2013-07-20T15:52:16+0000","like_count":0,"user_likes":false},"689175311099149":{"id":"689175311099149","from":{"id":"1060893770","name":"Hyhy Zui Zẻ"},"message":"Nguyễn Tuấn Vũ: vậy còn Kyoto thì thế nào hả bạn?","message_tags":[{"id":"100001754136107","name":"Nguyễn Tuấn Vũ","type":"user","offset":0,"length":14}],"can_remove":false,"created_time":"2013-07-20T18:30:58+0000","like_count":0,"user_likes":false},"689272947756052":{"id":"689272947756052","from":{"id":"100003667089869","name":"Kậu Nhỏ"},"message":"the e muon dj lam them thj co' nhieu viek ko moi nguoi","can_remove":false,"created_time":"2013-07-20T23:26:30+0000","like_count":0,"user_likes":false},"689275931089087":{"id":"689275931089087","from":{"id":"100001754136107","name":"Nguyễn Tuấn Vũ"},"message":"Hyhy Zui Zẻ:  kyoto minh nghe cô giao bao gia cả gần ngang tokyo,a tám nạng,người nửa cân","message_tags":[{"id":"1060893770","name":"Hyhy Zui Zẻ","type":"user","offset":0,"length":11}],"can_remove":false,"created_time":"2013-07-20T23:36:50+0000","like_count":0,"user_likes":false},"689276687755678":{"id":"689276687755678","from":{"id":"100001754136107","name":"Nguyễn Tuấn Vũ"},"message":"Kậu Nhỏ: bạn cứ nghĩ hoc tiéng ở nhà tốt đi đã.t thấy những truong duoi fukuoka mà t biết thì họ đều giới thiệu 1 việc.","message_tags":[{"id":"100003667089869","name":"Kậu Nhỏ","type":"user","offset":0,"length":7}],"can_remove":false,"created_time":"2013-07-20T23:39:38+0000","like_count":0,"user_likes":false},"689293487753998":{"id":"689293487753998","from":{"id":"100003667089869","name":"Kậu Nhỏ"},"message":"ukm,cam on b.","can_remove":false,"created_time":"2013-07-21T00:47:09+0000","like_count":0,"user_likes":false},"689297197753627":{"id":"689297197753627","from":{"id":"100001754136107","name":"Nguyễn Tuấn Vũ"},"message":"Chac c cug sap sang roi.trương c ten gi vay","can_remove":false,"created_time":"2013-07-21T01:04:07+0000","like_count":0,"user_likes":false},"689361777747169":{"id":"689361777747169","from":{"id":"100003667089869","name":"Kậu Nhỏ"},"message":"ukm,mjnh dj thang 10.mjnh hok truong ymca .kau biet ko","can_remove":false,"created_time":"2013-07-21T03:08:35+0000","like_count":0,"user_likes":false},"689362004413813":{"id":"689362004413813","from":{"id":"100001754136107","name":"Nguyễn Tuấn Vũ"},"message":"Ak.t biết( hôm no co ban nhắc","can_remove":false,"created_time":"2013-07-21T03:09:25+0000","like_count":0,"user_likes":false},"689370687746278":{"id":"689370687746278","from":{"id":"1060893770","name":"Hyhy Zui Zẻ"},"message":"Nguyễn Tuấn Vũ: cho m  hỏi là mình có bằng đại học ở vn, vậy muốn học thạc sỹ của Nhật thì chi phí có mắc ko, bn năm thì xong? cơ hội việc làm cao ko? (bạn có thể cho mình câu trả lời đối với thành phố mà bạn sống, ko cần phải là kyoto đâu), mình cảm ơn bạn nhiều","message_tags":[{"id":"100001754136107","name":"Nguyễn Tuấn Vũ","type":"user","offset":0,"length":14}],"can_remove":false,"created_time":"2013-07-21T03:26:46+0000","like_count":0,"user_likes":false},"689372841079396":{"id":"689372841079396","from":{"id":"100001754136107","name":"Nguyễn Tuấn Vũ"},"message":"Cái này mình ko biết bạn ak. Kham Pha,Mai PB hộ e với.","message_tags":[{"id":"100001458099624","name":"Kham Pha","type":"user","offset":29,"length":8}],"can_remove":false,"created_time":"2013-07-21T03:30:34+0000","like_count":1,"user_likes":false},"689384201078260":{"id":"689384201078260","from":{"id":"100003667089869","name":"Kậu Nhỏ"},"message":"the kau co' o gan day ko","can_remove":false,"created_time":"2013-07-21T03:56:23+0000","like_count":0,"user_likes":false},"689384214411592":{"id":"689384214411592","from":{"id":"100003667089869","name":"Kậu Nhỏ"},"message":"the kau co' o gan day ko","can_remove":false,"created_time":"2013-07-21T03:56:25+0000","like_count":0,"user_likes":false},"689384227744924":{"id":"689384227744924","from":{"id":"100003667089869","name":"Kậu Nhỏ"},"message":"the kau co' o gan day ko","can_remove":false,"created_time":"2013-07-21T03:56:27+0000","like_count":0,"user_likes":false},"689580091058671":{"id":"689580091058671","from":{"id":"100001416272263","name":"Mai PB"},"message":"Hyhy Zui Zẻ học thạc sĩ bằng tiếng Anh và tiếng Nhật khác nhau về số năm và chi phí. Nếu học tiếng Nhật và làm ở Nhật thì cơ hội việc làm cũng tương tự như ng tốt nghiệp ĐH, dù rằng lương khởi điểm có cao hơn chút đỉnh. Nếu học thạc sĩ tiếng Anh thì cơ hội việc làm ở Nhật ít, nhưng học phí có lẽ rẻ hơn đi các nước nói tiếng Anh.","message_tags":[{"id":"1060893770","name":"Hyhy Zui Zẻ","type":"user","offset":0,"length":11}],"can_remove":false,"created_time":"2013-07-21T12:57:54+0000","like_count":0,"user_likes":false},"689582781058402":{"id":"689582781058402","from":{"id":"1060893770","name":"Hyhy Zui Zẻ"},"message":"Mình cám ơn Mai PB nhé","message_tags":[{"id":"100001416272263","name":"Mai PB","type":"user","offset":12,"length":6}],"can_remove":false,"created_time":"2013-07-21T13:05:06+0000","like_count":0,"user_likes":false},"689661884383825":{"id":"689661884383825","from":{"id":"100000603915176","name":"悪いな ぁ"},"message":"Quá đẹp, có biển, toẹt vời!!!","can_remove":false,"created_time":"2013-07-21T15:48:46+0000","like_count":1,"user_likes":false},"689664824383531":{"id":"689664824383531","from":{"id":"100001754136107","name":"Nguyễn Tuấn Vũ"},"message":"Kậu Nhỏ: t đi tau thi cung gan","message_tags":[{"id":"100003667089869","name":"Kậu Nhỏ","type":"user","offset":0,"length":7}],"can_remove":false,"created_time":"2013-07-21T15:55:12+0000","like_count":0,"user_likes":false},"689665634383450":{"id":"689665634383450","from":{"id":"100003667089869","name":"Kậu Nhỏ"},"message":"thế ở đó công việc thế nào hả cậu","can_remove":false,"created_time":"2013-07-21T15:57:08+0000","like_count":0,"user_likes":false},"689666211050059":{"id":"689666211050059","from":{"id":"100001754136107","name":"Nguyễn Tuấn Vũ"},"message":"Chỗ t thì trường giới thiệu 1 việc.","can_remove":false,"created_time":"2013-07-21T15:58:44+0000","like_count":0,"user_likes":false},"689666947716652":{"id":"689666947716652","from":{"id":"100003667089869","name":"Kậu Nhỏ"},"message":"thế giới thiệu là được đi lam luôn không cậu","can_remove":false,"created_time":"2013-07-21T15:59:57+0000","like_count":0,"user_likes":false},"689667204383293":{"id":"689667204383293","from":{"id":"100001754136107","name":"Nguyễn Tuấn Vũ"},"message":"Uhm.thi đi lam luon ma.","can_remove":false,"created_time":"2013-07-21T16:00:45+0000","like_count":0,"user_likes":false},"689667391049941":{"id":"689667391049941","from":{"id":"100003667089869","name":"Kậu Nhỏ"},"message":"ukm","can_remove":false,"created_time":"2013-07-21T16:01:05+0000","like_count":0,"user_likes":false},"689667471049933":{"id":"689667471049933","from":{"id":"100003667089869","name":"Kậu Nhỏ"},"message":"co phai dj phog van ko","can_remove":false,"created_time":"2013-07-21T16:01:17+0000","like_count":0,"user_likes":false},"689668144383199":{"id":"689668144383199","from":{"id":"100001754136107","name":"Nguyễn Tuấn Vũ"},"message":"Co chư@@","can_remove":false,"created_time":"2013-07-21T16:02:35+0000","like_count":0,"user_likes":false},"689668381049842":{"id":"689668381049842","from":{"id":"100003667089869","name":"Kậu Nhỏ"},"message":"thế có khó không ban","can_remove":false,"created_time":"2013-07-21T16:03:10+0000","like_count":0,"user_likes":false}},"paging":{"cursors":{"after":"Njg5MTA1ODM3NzcyNzYz","before":"Njg5MTA1ODM3NzcyNzYz"},"next":"https://graph.facebook.com/229244010425617_689104287772918/comments?limit=1&summary=1&after=Njg5MTA1ODM3NzcyNzYz"},"summary":{"order":"chronological","total_count":33}}}