{"id":"229244010425617_689698164380197","type":"status","from":{"id":"1693102459","name":"Châu Hoàng"},"message":"コンサート会場でチケットが＿＿＿、中に入れません。\n１．ないで\n２．なくて\n\nつきあたり＿＿＿右に曲がります。\n１．を\n２．へ\n\n窓を開けたまま（寝てしまったから朝まで）かぜをひいた。\n\n窓を開けたまま（朝まで寝てしまったから）かぜをひいた。\n\nMọi người chọn đáp án và giải thích giúp em được không ạ? Em đang thắc mắc ở 2 phương án trên. Arigatou :)","created_time":"2013-07-21T17:07:54+0000","updated_time":"2013-07-23T08:05:41+0000","comments":{"data":{"689710941045586":{"id":"689710941045586","from":{"id":"100001754136107","name":"Nguyễn Tuấn Vũ"},"message":"1 1 2","can_remove":false,"created_time":"2013-07-21T17:30:22+0000","like_count":0,"user_likes":false},"689712181045462":{"id":"689712181045462","from":{"id":"1658912883","name":"Pham Quy Duong"},"message":"1 1","can_remove":false,"created_time":"2013-07-21T17:32:27+0000","like_count":0,"user_likes":false},"689712344378779":{"id":"689712344378779","from":{"id":"1693102459","name":"Châu Hoàng"},"message":"tại sao anh Pham Quy Duong?","message_tags":[{"id":"1658912883","name":"Pham Quy Duong","type":"user","offset":12,"length":14}],"can_remove":false,"created_time":"2013-07-21T17:32:50+0000","like_count":0,"user_likes":false},"689714817711865":{"id":"689714817711865","from":{"id":"1658912883","name":"Pham Quy Duong"},"message":"Câu 1 là mẫu câu chỉ nguyên nhân","can_remove":false,"created_time":"2013-07-21T17:37:11+0000","like_count":0,"user_likes":false},"689715851045095":{"id":"689715851045095","from":{"id":"1658912883","name":"Pham Quy Duong"},"message":"Câu 2 thì động từ magaru là động từ đi kèm với trợ từ wo.Cái này thì a nhớ máy móc thôi.ko biết giải thích thế nào","can_remove":false,"created_time":"2013-07-21T17:39:33+0000","like_count":0,"user_likes":false},"689718447711502":{"id":"689718447711502","from":{"id":"1693102459","name":"Châu Hoàng"},"message":"Pham Quy Duong: đáp án 2 ở câu 1 cũng chỉ nguyên nhân mà anh, cấu trúc ở bài 39 mina ấy","message_tags":[{"id":"1658912883","name":"Pham Quy Duong","type":"user","offset":0,"length":14}],"can_remove":false,"created_time":"2013-07-21T17:43:06+0000","like_count":0,"user_likes":false},"689853384364675":{"id":"689853384364675","from":{"id":"1658912883","name":"Pham Quy Duong"},"message":"Cấu trúc TE là không biểu thị chủ ý.Câu của Châu là câu có biểu thị chủ ý nên dùng TE la không đúng","can_remove":false,"created_time":"2013-07-21T23:49:24+0000","like_count":0,"user_likes":false},"689868487696498":{"id":"689868487696498","from":{"id":"100001757592898","name":"Bùi Thị Thanh Huyền"},"message":"1 1 2","can_remove":false,"created_time":"2013-07-22T00:23:45+0000","like_count":0,"user_likes":false},"689882247695122":{"id":"689882247695122","from":{"id":"100001416272263","name":"Mai PB"},"message":"2 1 2","can_remove":false,"created_time":"2013-07-22T01:03:57+0000","like_count":0,"user_likes":false},"689890771027603":{"id":"689890771027603","from":{"id":"100001416272263","name":"Mai PB"},"message":"Giải thích câu 1 nhé. Đúng là câu chỉ nguyên nhân, nên dùng なくて như Châu Hoàng hiểu đó. ないで có thể dùng với mấy loại câu, trong đó cũng có câu chỉ nguyên nhân. Tuy nhiên ở đây có chữ が nên phải dùng なくて. Khi nào là động từ thì mới có thể dùng ないで với nghĩa nguyên nhân được.\nVí dụ 2 câu dưới là OK như nhau.\n宿題をしないで怒られた。\n宿題をしなくて怒られた。","message_tags":[{"id":"1693102459","name":"Châu Hoàng","type":"user","offset":68,"length":10}],"can_remove":false,"created_time":"2013-07-22T01:24:51+0000","like_count":3,"user_likes":false},"689892981027382":{"id":"689892981027382","from":{"id":"100001754136107","name":"Nguyễn Tuấn Vũ"},"message":"Anh Mai PB : có が thì câu nào cũng dùng đc mà.e nghĩ ないで: có thêm chút cứng nhắc( nhấn mạnh) .vì vậy e chọn đáp án 1","can_remove":false,"created_time":"2013-07-22T01:30:33+0000","like_count":0,"user_likes":false},"689911477692199":{"id":"689911477692199","from":{"id":"100000603915176","name":"悪いな ぁ"},"message":"Hề hề, em vừa chọn 1 1 2 :)","can_remove":false,"created_time":"2013-07-22T02:21:13+0000","like_count":0,"user_likes":false},"689912561025424":{"id":"689912561025424","from":{"id":"100000603915176","name":"悪いな ぁ"},"message":"Thực ra giữa ないて và ないで khác nhau cụ thể thế nào?","can_remove":false,"created_time":"2013-07-22T02:25:03+0000","like_count":0,"user_likes":false},"689916987691648":{"id":"689916987691648","from":{"id":"100003312527085","name":"Ngat Pro"},"message":"cau 1: ko co mau cau nao la ないで,chi co ないので thui","can_remove":false,"created_time":"2013-07-22T02:40:00+0000","like_count":0,"user_likes":false},"689917541024926":{"id":"689917541024926","from":{"id":"100000603915176","name":"悪いな ぁ"},"message":"Hehe, ai bảo kg có?","can_remove":false,"created_time":"2013-07-22T02:42:11+0000","like_count":0,"user_likes":false},"689922037691143":{"id":"689922037691143","from":{"id":"100000603915176","name":"悪いな ぁ"},"message":"Có 2 mẫu câu này ngày xưa đc học\n\nX　昼ごはんを食べなくて、学校へ行きます。　\n〇 昼ごはんを食べないで、学校へ行きます。\n\nỞ đây câu đúng là dùng で, nó có nghĩa \"Tôi sẽ đến trường luôn mà kg ăn sáng nữa\". Câu 1 sai ở chỗ nó sẽ chia câu ra thành 2 hành động và chẳng có liên quan gì đến nhau.\n\nBạn Ngat Pro đừng nói là kg có nhé :p","message_tags":[{"id":"100003312527085","name":"Ngat Pro","type":"user","offset":254,"length":8}],"can_remove":false,"created_time":"2013-07-22T02:56:49+0000","like_count":0,"user_likes":false},"689923637690983":{"id":"689923637690983","from":{"id":"100003312527085","name":"Ngat Pro"},"message":"nhung cai mau cau ma ban nhac toi ko phai la mau chi nguyen nhan.ma la ko lsm viec j va lam viec j.ban nen ve xem lai mau cau nhe.t chua bjo hoc mau cau nao chi nguyen nhan ma lai la ないでca","can_remove":false,"created_time":"2013-07-22T03:00:59+0000","like_count":0,"user_likes":false},"689924031024277":{"id":"689924031024277","from":{"id":"100003312527085","name":"Ngat Pro"},"message":"cau tren la vi ko có vé nên ko dc vao nen ko the dong hoá vs cau ma bạn cho ví dụ ở trên dc","can_remove":false,"created_time":"2013-07-22T03:02:06+0000","like_count":0,"user_likes":false},"689924417690905":{"id":"689924417690905","from":{"id":"100000603915176","name":"悪いな ぁ"},"message":"Mẫu câu mình vừa viết để chỉ cho bạn thấy là có mẫu ないで chứ kg nói nó liên quan đến cái câu bạn chủ topic hỏi. Bạn chưa bao giờ học chứ kg có nghĩa là nó kg có!","can_remove":false,"created_time":"2013-07-22T03:03:34+0000","like_count":0,"user_likes":false},"689924531024227":{"id":"689924531024227","from":{"id":"100001754136107","name":"Nguyễn Tuấn Vũ"},"message":"2 ví dụ kia t nghĩ đúng hết.\nNgat Pro: 話さないで","message_tags":[{"id":"100003312527085","name":"Ngat Pro","type":"user","offset":29,"length":8}],"can_remove":false,"created_time":"2013-07-22T03:04:01+0000","like_count":0,"user_likes":false},"689924597690887":{"id":"689924597690887","from":{"id":"100001754136107","name":"Nguyễn Tuấn Vũ"},"message":"( ví dụ thôi nhé ) :)","can_remove":false,"created_time":"2013-07-22T03:04:14+0000","like_count":1,"user_likes":false},"689925481024132":{"id":"689925481024132","from":{"id":"100001754136107","name":"Nguyễn Tuấn Vũ"},"message":"Chuyển về chủ đề câu hỏi trên kia.nó nhấn mạnh vế trước nữa.nên theo tiếp đáp an 1","can_remove":false,"created_time":"2013-07-22T03:05:43+0000","like_count":0,"user_likes":false},"689932951023385":{"id":"689932951023385","from":{"id":"100003312527085","name":"Ngat Pro"},"message":"hix.nh t dang noi mau chi nguyen nhan ay chu.bo tay.ng ta hoi cau nay lai chuyen sang cau no","can_remove":false,"created_time":"2013-07-22T03:34:12+0000","like_count":0,"user_likes":false},"689935197689827":{"id":"689935197689827","from":{"id":"1286770563","name":"Vu Hong Trang"},"message":"１．コンサート会場でチケットがなくて、中に入れません。=> Vì không có vé xem buổi hòa nhạc nên không thể vào xem (chỉ đứng phía ngoài).\n２．つきあたりを右に曲がります。Rẽ phải ở chỗ cuối đường.","can_remove":false,"created_time":"2013-07-22T03:41:47+0000","like_count":0,"user_likes":false},"689988984351115":{"id":"689988984351115","from":{"id":"100001416272263","name":"Mai PB"},"message":"Kỳ lạ là mọi người đều chọn ないで cho câu 1. Không có cách nói ...がないで trong tiếng Nhật đâu. Châu Hoàng đáp án thế nào?","message_tags":[{"id":"1693102459","name":"Châu Hoàng","type":"user","offset":91,"length":10}],"can_remove":false,"created_time":"2013-07-22T06:13:05+0000","like_count":1,"user_likes":false},"690020587681288":{"id":"690020587681288","from":{"id":"1843294954","name":"Nguyen Thanh Van"},"message":"Cau 1 ないで chi dung khi minh noi la","can_remove":false,"created_time":"2013-07-22T08:04:13+0000","like_count":0,"user_likes":false},"690020634347950":{"id":"690020634347950","from":{"id":"1843294954","name":"Nguyen Thanh Van"},"message":"Toi lam viec gi trong tinh trang khong lam gi","can_remove":false,"created_time":"2013-07-22T08:04:28+0000","like_count":0,"user_likes":false},"690020654347948":{"id":"690020654347948","from":{"id":"1843294954","name":"Nguyen Thanh Van"},"message":"hoac thay vi lam viec nay toi lam viec kia","can_remove":false,"created_time":"2013-07-22T08:04:37+0000","like_count":0,"user_likes":false},"690020707681276":{"id":"690020707681276","from":{"id":"1843294954","name":"Nguyen Thanh Van"},"message":"con y nghi chi nguyen nhan chi coなくて","can_remove":false,"created_time":"2013-07-22T08:04:56+0000","like_count":0,"user_likes":false},"690022191014461":{"id":"690022191014461","from":{"id":"100000603915176","name":"悪いな ぁ"},"message":"Khiếp, viết lắm cmt thế :o","can_remove":false,"created_time":"2013-07-22T08:12:58+0000","like_count":0,"user_likes":false},"690412897642057":{"id":"690412897642057","from":{"id":"1693102459","name":"Châu Hoàng"},"message":"câu 1 em vẫn giữ nguyên đáp án là なくて Nguyễn Tuấn VũMai PB Ngat ProBùi Thị Thanh HuyềnPham Quy Duong\nBởi vì nếu ないで thì chỉ có cấu trúc ở bài 34 (sách mina) - dùng để nói trong trường hợp có hai việc không thể thực hiện đồng thời được, và ai đó phải lựa chọn (nếu làm việc 1 thì không làm việc 2).\nCòn なくて thì ở cấu trúc 39 (sách mina) - dùng để nói về nguyên nhân và kết quả, mà kết quả này biểu thị sự phát sinh do nguyên nhân đó.\n\nQuay lại câu trên, cũng dịch như chị Vu Hong Trang là  \"Vì không có vé xem buổi hòa nhạc nên không thể vào xem\".\nVậy nên nếu dùng  ないで thì không đúng rồi (phải có 1 việc được làm cơ mà :3 ).","message_tags":[{"id":"100001754136107","name":"Nguyễn Tuấn Vũ","type":"user","offset":38,"length":14},{"id":"100001416272263","name":"Mai PB","type":"user","offset":52,"length":6},{"id":"100003312527085","name":"Ngat Pro","type":"user","offset":59,"length":8},{"id":"100001757592898","name":"Bùi Thị Thanh Huyền","type":"user","offset":67,"length":19},{"id":"1658912883","name":"Pham Quy Duong","type":"user","offset":86,"length":14},{"id":"1286770563","name":"Vu Hong Trang","type":"user","offset":471,"length":13}],"can_remove":false,"created_time":"2013-07-23T01:03:27+0000","like_count":0,"user_likes":false},"690464274303586":{"id":"690464274303586","from":{"id":"100001416272263","name":"Mai PB"},"message":"ないで có mấy cách dùng nữa cơ, sẽ học sau.","can_remove":false,"created_time":"2013-07-23T02:59:10+0000","like_count":1,"user_likes":false},"690551074294906":{"id":"690551074294906","from":{"id":"100001757592898","name":"Bùi Thị Thanh Huyền"},"message":"Sẽ học trong giáo trình nào hả b?","can_remove":false,"created_time":"2013-07-23T03:43:27+0000","like_count":0,"user_likes":false},"690626057620741":{"id":"690626057620741","from":{"id":"100001416272263","name":"Mai PB"},"message":"Mình khg biết, nhưng là trình độ 中級","can_remove":false,"created_time":"2013-07-23T07:03:13+0000","like_count":0,"user_likes":false},"690631124286901":{"id":"690631124286901","from":{"id":"100000603915176","name":"悪いな ぁ"},"message":"「～なくて」「～ないで」は、いずれも動詞の否定形がテ形をとったもので、どちらを用いてもかまわないように思われる場合も少なくありません。\n\n　　大事に至らないでよかった。\n　　大事に至らなくてよかった。\n\n　これは、「～ないで」の表す意味の一部が「～なくて」の表す意味と重なることによるものです。「～ないで」には、次のように大きくわけて三つの用法があるといわれています。\n\n　　（１）宿題をしないで学校にいった。\n　　（２）宿題をしないでゲームばかりしている。\n　　（３）宿題をしないで怒られた。\n\n　（１）～（３）の文では、「～ないで」までが同じ表現となっていますが、「～ないで」より後の内容に対する関係が異なっています。（１）では「宿題をしないで」は、別の行為（「学校に行く」）がどのような状況・事情のもとにおこなわれたかという、他の行為の付帯状況を表しています。\n\n　また（２）では、「宿題をする」という行為と「ゲームをする」という行為が対比的に述べられており、「宿題をすべきなのに、代わりにゲームばかりしている」のように言い換えることができます。\n\n　最後の（３）は、「～ないで」が原因を表しているもので、「宿題をしなかったために怒られた」のように言い換えることが可能です。\n\n　（１）～（３）のうち、（３）の場合には「～ないで」の代わりに「～なくて」が用いられますが、（１）（２）の場合には難しいようです。\n\n　×宿題をしなくて学校に行った。\n　×宿題をしなくてゲームばかりしている。\n\n　ご質問の文では、「雨が降らないために晴れた日が続いた」のように「雨が降らない」の部分を「晴れた日が続いた」ことに対する原因と解釈するよりは、「雨が降らない」と「晴れた日が続いた」が対比的に表現されていると考えるのが妥当であり、「～なくて」ではなく「～ないで」が選ばれることになります。","can_remove":false,"created_time":"2013-07-23T07:29:37+0000","like_count":0,"user_likes":false},"690641067619240":{"id":"690641067619240","from":{"id":"100003312527085","name":"Ngat Pro"},"message":"oh.minh có nói mình chọn câu 1 đáp án 1 bjo dau","can_remove":false,"created_time":"2013-07-23T08:05:41+0000","like_count":0,"user_likes":false}},"paging":{"cursors":{"after":"Njg5NzEwOTQxMDQ1NTg2","before":"Njg5NzEwOTQxMDQ1NTg2"},"next":"https://graph.facebook.com/229244010425617_689698164380197/comments?limit=1&summary=1&after=Njg5NzEwOTQxMDQ1NTg2"},"summary":{"order":"chronological","total_count":36}},"likes":{"data":[]}}