{"id":"229244010425617_689641487719198","type":"status","from":{"id":"100001416272263","name":"Mai PB"},"message":"＜感動する話３＞\n\n幼い頃に父が亡くなり、母は再婚もせずに俺を育ててくれた。\n学もなく、技術もなかった母は、個人商店の手伝いみたいな仕事で生計を立てていた。\nそれでも当時住んでいた土地は、まだ人情が残っていたので、何とか母子二人で質素に暮らしていけた。\n\n娯楽をする余裕なんてなく、日曜日は母の手作りの弁当を持って、近所の河原とかに遊びに行っていた。\n給料をもらった次の日曜日には、クリームパンとコーラを買ってくれた。\n\nある日、母が勤め先からプロ野球のチケットを2枚もらってきた。\n俺は生まれて初めてのプロ野球観戦に興奮し、母はいつもより少しだけ豪華な弁当を作ってくれた。\n\n野球場に着き、チケットを見せて入ろうとすると、係員に止められた。\n母がもらったのは招待券ではなく優待券だった。\n\nチケット売り場で一人1000円ずつ払ってチケットを買わなければいけないと言われ、帰りの電車賃くらいしか持っていなかった俺たちは、外のベンチで弁当を食べて帰った。\n\n電車の中で無言の母に「楽しかったよ」と言ったら、母は「母ちゃん、バカでごめんね」と言って涙を少しこぼした。\n\n俺は母につらい思いをさせた貧乏と無学がとことん嫌になって、一生懸命に勉強した。\n\n新聞奨学生として大学まで進み、いっぱしの社会人になった。\n結婚もして、母に孫を見せてやることもできた。\n\nそんな母が去年の暮れに亡くなった。\n\n死ぬ前に一度だけ目を覚まし、思い出したように「野球、ごめんね」と言った。\n俺は「楽しかったよ」と言おうとしたが、最後まで声にならなかった。","created_time":"2013-07-21T15:11:11+0000","updated_time":"2013-07-22T13:41:32+0000","likes":{"data":{"100002924816303":{"id":"100002924816303","name":"Bùi Hồ Phương Anh"},"1146680551":{"id":"1146680551","name":"優しい なぁ"},"100004028173069":{"id":"100004028173069","name":"Jin Ngốc"},"100000280776405":{"id":"100000280776405","name":"Viet Nguyen Thanh"},"1415095672":{"id":"1415095672","name":"Thom Cao Thi"},"100003312527085":{"id":"100003312527085","name":"Ngat Pro"},"100001754136107":{"id":"100001754136107","name":"Nguyễn Tuấn Vũ"},"100000184792743":{"id":"100000184792743","name":"Quoc Hoa"},"100004826612667":{"id":"100004826612667","name":"Đào Hạnh"}},"paging":{"cursors":{"after":"MTAwMDAyOTI0ODE2MzAz","before":"MTAwMDAyOTI0ODE2MzAz"},"next":"https://graph.facebook.com/229244010425617_689641487719198/likes?limit=1&summary=1&after=MTAwMDAyOTI0ODE2MzAz"},"summary":{"total_count":10}},"comments":{"data":{"689643324385681":{"id":"689643324385681","from":{"id":"100001416272263","name":"Mai PB"},"message":"バックナンバー＜感動する話２＞\n\nhttps://www.facebook.com/groups/229244010425617/permalink/685444498138897/","can_remove":false,"created_time":"2013-07-21T15:16:05+0000","like_count":0,"user_likes":false},"689643524385661":{"id":"689643524385661","from":{"id":"100001416272263","name":"Mai PB"},"message":"Bài này nội dung đơn giản nhưng cũng cảm động lắm. Ai dịch đi, trình độ N3.","can_remove":false,"created_time":"2013-07-21T15:16:33+0000","like_count":0,"user_likes":false},"689648087718538":{"id":"689648087718538","from":{"id":"100004826612667","name":"Đào Hạnh"},"message":"Hic ! Truyện cảm động thế ! Thích nhất đoạn trước lúc chết mẹ vẫn xin lỗi về chuyện bóng chày , cảm động thật . Chắc người mẹ đó đã phải suy nghĩ nhiều lắm về chuyện k đó cho đến khi sắp ra đi vẫn còn nhắc tới ! Truyện nhẹ nhàng mà ý nghĩa ! Cám ơn người post nha","can_remove":false,"created_time":"2013-07-21T15:27:46+0000","like_count":0,"user_likes":false},"689913467692000":{"id":"689913467692000","from":{"id":"100003312527085","name":"Ngat Pro"},"message":"たっぷり有意義だ。","can_remove":false,"created_time":"2013-07-22T02:27:33+0000","like_count":1,"user_likes":false},"689916077691739":{"id":"689916077691739","from":{"id":"100003312527085","name":"Ngat Pro"},"message":"cho e hoi cai いっぱしco nghia la j ạ？","can_remove":false,"created_time":"2013-07-22T02:36:07+0000","like_count":0,"user_likes":false},"689920131024667":{"id":"689920131024667","from":{"id":"100004826612667","name":"Đào Hạnh"},"message":"1 (名) \n能力・資格などが一人前であること。人並み。\n\n ―の大工\n\n ―の口をきく\n2 (副) \n人並みに。一人前の能力や資格があるかのように。\n\n あれで―腕がある積りだから〔出典： 吾輩は猫である（漱石）〕","can_remove":false,"created_time":"2013-07-22T02:51:14+0000","like_count":1,"user_likes":false},"689928871023793":{"id":"689928871023793","from":{"id":"100004826612667","name":"Đào Hạnh"},"message":"K hiểu từ gì bạn cứ tra giải thích nghĩa bằng tiếng Nhật ý ! Vừa sát nghĩa lại dễ hiểu . Bạn nào học đến n3 zùi thì nên học bằng từ điển Nhật - Nhật như vậy học sẽ khá lên rất nhanh . Đừng lúc nào cũng kè kè quyển từ điển Nhật - Việt sẽ k tốt đâu !","can_remove":false,"created_time":"2013-07-22T03:18:44+0000","like_count":0,"user_likes":false},"689987071017973":{"id":"689987071017973","from":{"id":"100001416272263","name":"Mai PB"},"message":"Tu Pham\nそれでも当時住んでいた土地は、まだ人情が残っていたので、何とか母子二人で質素に暮らしていけた。\nDầu vậy, địa phương chúng tôi sinh sống lúc đó vẫn còn nhiều tình người, nên hai mẹ con cũng tàm tạm sinh sống cằn kiệm được. \n\n新聞奨学生として大学まで進み、いっぱしの社会人になった。\nTôi học lên đến đại học bằng học bổng báo chí (một loại học bổng do tờ báo nào đó trợ cấp), trở thành người đi làm tự lập như mọi người.","message_tags":[{"id":"100001706177145","name":"Tu Pham","type":"user","offset":0,"length":7}],"can_remove":false,"created_time":"2013-07-22T06:07:45+0000","like_count":2,"user_likes":false},"689988164351197":{"id":"689988164351197","from":{"id":"100001416272263","name":"Mai PB"},"message":"Có thấy cảm động gì không, hay mải mê dịch và tìm hiểu nghĩa quá, chẳng cảm thấy gì nữa? ;-)","can_remove":false,"created_time":"2013-07-22T06:10:01+0000","like_count":1,"user_likes":false},"690002847683062":{"id":"690002847683062","from":{"id":"100003312527085","name":"Ngat Pro"},"message":"hehe.the nghia la cai いっぱしco nghia la tu lap ak? Đào Hạnh: tu dien nhat nhat o dau vay? tren mạng hả bạn?","can_remove":false,"created_time":"2013-07-22T07:08:36+0000","like_count":0,"user_likes":false},"690008267682520":{"id":"690008267682520","from":{"id":"100003312527085","name":"Ngat Pro"},"message":"ak.da hieu nghia rui.いっぱし co nghia la 人並み,vừa là danh vừa là tính từ","can_remove":false,"created_time":"2013-07-22T07:16:44+0000","like_count":1,"user_likes":false},"690012311015449":{"id":"690012311015449","from":{"id":"100004826612667","name":"Đào Hạnh"},"message":"Ngat Pro mình hay tra ở trang http://dictionary.goo.ne.jp/smp/ \nTừ điển 国語辞典bạn ạh . Hồi học trường tiếng mình bị cô giáo bắt dùng cái đó k đc lấy smart phone tra ! Hồi đầu cũng ghét lắm thấy 面倒臭いxong tra quen lại thấy hay k thích dùng từ điển Nhật Việt nữa .","message_tags":[{"id":"100003312527085","name":"Ngat Pro","type":"user","offset":0,"length":8}],"can_remove":false,"created_time":"2013-07-22T07:26:35+0000","like_count":1,"user_likes":false},"690041761012504":{"id":"690041761012504","from":{"id":"100003312527085","name":"Ngat Pro"},"message":"cam on ban nhe,t vua dowload ve xong,may qua,t cung muon co  tu dien nhat nhat dien tu ma ko biet kiem kieu j,t chi co quyen sach thui,ma tra cai do thi 10 tu la dau mat chong mat rui,hi","can_remove":false,"created_time":"2013-07-22T09:37:41+0000","like_count":0,"user_likes":false},"690043907678956":{"id":"690043907678956","from":{"id":"100003312527085","name":"Ngat Pro"},"message":"ukm,dc a,mminh vua dow xong,dung app store y,hihi,danh ten tu dien ra la co ngay,mien phi,hihi","can_remove":false,"created_time":"2013-07-22T09:45:40+0000","like_count":0,"user_likes":false},"690126064337407":{"id":"690126064337407","from":{"id":"100001416272263","name":"Mai PB"},"message":"3 công cụ để học ngoại ngữ thời Internet: Google Web Search, Google Image Search, từ điển online (PC) hoặc appli (smart phone).","can_remove":false,"created_time":"2013-07-22T13:41:32+0000","like_count":1,"user_likes":false}},"paging":{"cursors":{"after":"Njg5NjQzMzI0Mzg1Njgx","before":"Njg5NjQzMzI0Mzg1Njgx"},"next":"https://graph.facebook.com/229244010425617_689641487719198/comments?limit=1&summary=1&after=Njg5NjQzMzI0Mzg1Njgx"},"summary":{"order":"chronological","total_count":20}}}