{"id":"229244010425617_690604060956274","type":"status","from":{"id":"100004666446749","name":"Jouzu Waei"},"message":"các bạn có ai có quyển 中級を学ぼう―日本語の文型と表現82 中級中期 không ạ. Mình search nhưng chưa tìm thấy. 有り難う","created_time":"2013-07-23T05:58:22+0000","updated_time":"2013-07-23T13:50:59+0000","comments":{"data":{"690614687621878":{"id":"690614687621878","from":{"id":"100001754136107","name":"Nguyễn Tuấn Vũ"},"message":"Có sách thôi :(","can_remove":false,"created_time":"2013-07-23T06:24:29+0000","like_count":0,"user_likes":false},"690669217616425":{"id":"690669217616425","from":{"id":"100004666446749","name":"Jouzu Waei"},"message":"Nguyễn Tuấn Vũ share cho tớ được không","message_tags":[{"id":"100001754136107","name":"Nguyễn Tuấn Vũ","type":"user","offset":0,"length":14}],"can_remove":false,"created_time":"2013-07-23T09:25:48+0000","like_count":0,"user_likes":false},"690681824281831":{"id":"690681824281831","from":{"id":"100000214159993","name":"Duong Luong"},"message":"Đúng rồi đấy. Mình cũng chỉ có sách thôi","can_remove":false,"created_time":"2013-07-23T10:17:58+0000","like_count":0,"user_likes":false},"690764957606851":{"id":"690764957606851","from":{"id":"1693102459","name":"Châu Hoàng"},"message":"có giáo trình 中級を学ぼう―日本語の文型と表現56 中級前期 thôi :3\nhttp://www.mediafire.com/?5vt6ioi2wl3uc","can_remove":false,"created_time":"2013-07-23T11:37:30+0000","like_count":0,"user_likes":false},"690807794269234":{"id":"690807794269234","from":{"id":"100001754136107","name":"Nguyễn Tuấn Vũ"},"message":":( sách chứ ko có bản ebook :(","can_remove":false,"created_time":"2013-07-23T13:50:59+0000","like_count":0,"user_likes":false}},"paging":{"cursors":{"after":"NjkwNjE0Njg3NjIxODc4","before":"NjkwNjE0Njg3NjIxODc4"},"next":"https://graph.facebook.com/229244010425617_690604060956274/comments?limit=1&summary=1&after=NjkwNjE0Njg3NjIxODc4"},"summary":{"order":"chronological","total_count":5}},"likes":{"data":[]}}