{"id":"229244010425617_691337117549635","type":"status","from":{"id":"100005805939075","name":"Phong Kaze"},"message":"THÔNG BÁO TUYỂN DỤNG\n\nDear các bạn, bên mình đang cần tuyển 1 số vị trí sau:\nĐịa điểm làm việc : Bắc Ninh\n\n1, 01 Nhân viên kỹ thuật (Nam): Tuổi từ 25 – 35 tuổi\nYêu cầu: - Trình độ: Tốt nghiệp Đại học Bách Khoa. Chuyên ngành: kỹ thuật\n- Đã có kinh nghiệm làm về kỹ thuật.\n- Thành thạo vẽ thiết kế 2D, 3D. Tự chế tạo, thiết kế bản vẽ.\n- Giao tiếp thành thạo Tiếng Anh (ưu tiên biết thêm tiếng Nhật).\n\n2, 01 nhân viên bộ phận cơ khí (Nam): Tuổi từ 25 – 35 tuổi\nYêu cầu: - Trình độ: Tốt nghiệp Đại học Bách Khoa. Chuyên ngành: Cơ điện\n- Đã có kinh nghiệm và kiến thức hiểu biết về cơ điện, biết sử dụng, bảo trì, bảo dưỡng máy gia công cơ khí.\n- Giao tiếp thành thạo bằng tiếng Nhật tương đương N2 trở lên (Ưu tiên biết thêm tiếng Anh)\n\n3, 01 nhân viên bộ phận Mạ (Nam): Tuổi từ 25 – 35 tuổi\nYêu cầu: - Trình độ: Tốt nghiệp Đại học Bách Khoa, chuyên ngành: Cơ điện, Hóa\n- Đã có kinh nghiệm và kiến thức hiểu biết về cơ điện và hóa.\nGiao tiếp thành thạo bằng tiếng Anh (Ưu tiên biết thêm tiếng Nhật)\n\n4, 01 Nhân viên phòng thí nghiệm (Lab) (Nam hoặc Nữ): Tuổi từ 25 – 35 tuổi (Urgent)\nYêu cầu: - Trình độ: Tốt nghiệp Đại học Bách Khoa. Chuyên ngành: Hóa\n- Ưu tiên ứng cử viên có kiến thức hiểu biết và kinh nghiệm về hóa và phân tích dung dịch hóa chất\n-Giao tiếp thành thạo bằng tiếng Anh (Ưu tiên nếu biết thêm tiếng Nhật)\n\n5, 01 Nhân viên phòng QA (Nam hoặc Nữ): Tuổi từ 25 – 35 tuổi  (Urgent)\nYêu cầu: - Trình độ: Tốt nghiệp Đại học trở lên. Ưu tiên đại học Bách Khoa\nƯu tiên ứng cử viên có kiến thức hiểu biết và kinh nghiệm làm việc tại phòng QA\nGiao tiếp thành thạo bằng tiếng Anh (Ưu tiên nếu biết thêm tiếng Nhật)\n\n6. 01 nhân viên bộ phận xử lý nhiệt\n\nYêu cầu:  01 Nam\n   -  Trình độ: Tốt nghiệp Đại học trở lên. Tuổi từ 25 – 35 tuổi\n- Ưu tiên những người có kiến thức hiểu biết về xử lý nhiệt\n- Nghe, nói, đọc, viết Tiếng Nhật thành thạo (ưu tiên biết thêm Tiếng Anh)\n\nMức lương bình quân cho tất cả các vị trí khoảng: 400USD-700USD tùy thuộc vào mỗi ứng cử viên nếu tốt có thể cao hơn, được hưởng tất cả các quyền lợi theo Luật Lao động Việt Nam.\n\nỨng viên nào quan tâm vui lòng liên hệ theo SĐT(Ms.Hà): 0919348822 hoặc Email: ha.hipvietnam@gmail.com.\nTrân trọng!","created_time":"2013-07-24T08:00:28+0000","updated_time":"2013-07-24T23:40:10+0000","likes":{"data":{"100004417332978":{"id":"100004417332978","name":"Đặng Đức"}},"paging":{"cursors":{"after":"MTAwMDA0NDE3MzMyOTc4","before":"MTAwMDA0NDE3MzMyOTc4"}},"summary":{"total_count":2}},"comments":{"data":{"691338784216135":{"id":"691338784216135","from":{"id":"100002722604276","name":"Lê xuân Hưng"},"message":"Mình chuyên ngành cơ điện nè. Mỗi tội là của cnhn chứ k phải bk. @@","can_remove":false,"created_time":"2013-07-24T08:10:06+0000","like_count":0,"user_likes":false},"691345654215448":{"id":"691345654215448","from":{"id":"100005805939075","name":"Phong Kaze"},"message":"Hưng Ngố, Không nhất thiết phải tốt nghiệp ĐH BK bạn nhé, quan trọng là khả năng đáp ứng yêu cầu công việc, nếu quan tâm bạn hãy liên hệ trực tiếp hoặc gửi CV qua mail bạn nhé, cám ơn bạn!","message_tags":[{"id":"100002722604276","name":"Hưng Ngố","type":"user","offset":0,"length":8}],"can_remove":false,"created_time":"2013-07-24T08:41:25+0000","like_count":0,"user_likes":false},"691346064215407":{"id":"691346064215407","from":{"id":"100003545423505","name":"Tiến Đạt"},"message":"Phạm Trọng","message_tags":[{"id":"100001374817924","name":"Phạm Trọng","type":"user","offset":0,"length":10}],"can_remove":false,"created_time":"2013-07-24T08:44:23+0000","like_count":0,"user_likes":false},"691492564200757":{"id":"691492564200757","from":{"id":"100000495302979","name":"Huy Toàn"},"message":"tất cả vị trí tuyển dụng đều ở Bắc Ninh hết hả bạn ?","can_remove":false,"created_time":"2013-07-24T15:43:41+0000","like_count":0,"user_likes":false},"691503247533022":{"id":"691503247533022","from":{"id":"100005805939075","name":"Phong Kaze"},"message":"Đúng rồi bạn Huy Toàn, tất cả các công việc trên đều là ở Bắc Ninh.","message_tags":[{"id":"100000495302979","name":"Huy Toàn","type":"user","offset":13,"length":8}],"can_remove":false,"created_time":"2013-07-24T16:01:39+0000","like_count":0,"user_likes":false},"691544444195569":{"id":"691544444195569","from":{"id":"100002752120341","name":"Nguyễn Đình Ngọc"},"message":"dao ki thuat lai toan tuyen chi o bach khoa vay ban ,minh hoc dai hoc cong nghiep ha noi ,chuyen nghanh co khi che tao ,minh ve 3d thanh thao ,ve va lap trinh CNC ,CAD ,Slolid ,unigraphic ,inventor","can_remove":false,"created_time":"2013-07-24T17:58:34+0000","like_count":0,"user_likes":false},"691657424184271":{"id":"691657424184271","from":{"id":"100005805939075","name":"Phong Kaze"},"message":"Nguyễn Đình Ngọc, thông tin tuyển dụng là vậy nhưng không cứng nhắc hoàn toàn là phải tốt nghiệp ĐH BK bạn nhé, nếu quan tâm bạn hãy apply nhé, cám ơn bạn.","message_tags":[{"id":"100002752120341","name":"Nguyễn Đình Ngọc","type":"user","offset":0,"length":16}],"can_remove":false,"created_time":"2013-07-24T23:40:10+0000","like_count":0,"user_likes":false}},"paging":{"cursors":{"after":"NjkxMzM4Nzg0MjE2MTM1","before":"NjkxMzM4Nzg0MjE2MTM1"},"next":"https://graph.facebook.com/229244010425617_691337117549635/comments?limit=1&summary=1&after=NjkxMzM4Nzg0MjE2MTM1"},"summary":{"order":"chronological","total_count":8}}}