{"id":"229244010425617_691820830834597","type":"status","from":{"id":"100000064686295","name":"Huy Roli"},"message":"Hôm nay mình thắc mắc　守る có nghĩa là bảo vệ, tuân theo. Vậy câu この彼女を守ってください。 dịch là bảo vệ cô gái này hay hãy tuân theo cô gái này mới đúng. Các bạn giúp mình với","created_time":"2013-07-25T08:59:36+0000","updated_time":"2013-07-25T14:32:08+0000","likes":{"data":{"100003875211691":{"id":"100003875211691","name":"Hue Yamashironguyen"},"100003402699439":{"id":"100003402699439","name":"Trang Chan"},"100002676859353":{"id":"100002676859353","name":"Chu Quang Viên"}},"paging":{"cursors":{"after":"MTAwMDAzODc1MjExNjkx","before":"MTAwMDAzODc1MjExNjkx"},"next":"https://graph.facebook.com/229244010425617_691820830834597/likes?limit=1&summary=1&after=MTAwMDAzODc1MjExNjkx"},"summary":{"total_count":4}},"comments":{"data":{"691821970834483":{"id":"691821970834483","from":{"id":"1146680551","name":"優しい なぁ"},"message":"守:nghia Han' Viet la thu trong bao thu,tuan thu...The nen theo minh hieu la \"hay tuan lenh theo co gai nay\"","can_remove":false,"created_time":"2013-07-25T09:04:53+0000","like_count":1,"user_likes":false},"691822250834455":{"id":"691822250834455","from":{"id":"100001458099624","name":"Kham Pha"},"message":"彼女に従ってください mới là tuân theo cô ấy. Còn kia chỉ là bảo vệ thôi. Ngay cái trợ từ を đã thể hiện là bạn tác động lên cô ấy rồi. Ko thể là tuân theo đc.","can_remove":false,"created_time":"2013-07-25T09:06:48+0000","like_count":7,"user_likes":false},"691823007501046":{"id":"691823007501046","from":{"id":"1146680551","name":"優しい なぁ"},"message":"ルールを守る.thi nhu the nao nhi.Tuan thu luat le hay Bao Ve luat le?","can_remove":false,"created_time":"2013-07-25T09:10:19+0000","like_count":0,"user_likes":false},"691824640834216":{"id":"691824640834216","from":{"id":"100001458099624","name":"Kham Pha"},"message":"\"bảo vệ luật lệ\" cũng được, nhưng dịch kiểu VN mình là tuân thủ thì tự nhiên hơn.","can_remove":false,"created_time":"2013-07-25T09:11:50+0000","like_count":2,"user_likes":false},"691829484167065":{"id":"691829484167065","from":{"id":"100001454348698","name":"Phạm Quang Tùng"},"message":"Trước hết tớ thấy câu của bạn có vấn đề ở chỗ この彼女 tớ chưa nghe kiểu dùng từ thế này bao giờ, còn câu đó rõ ràng là bảo vệ chứ ko phải tuân thủ đâu","can_remove":false,"created_time":"2013-07-25T09:31:19+0000","like_count":3,"user_likes":false},"691829860833694":{"id":"691829860833694","from":{"id":"100000064686295","name":"Huy Roli"},"message":"Thì mình đang ko biết nên hỏi mà","can_remove":false,"created_time":"2013-07-25T09:33:18+0000","like_count":0,"user_likes":false},"691829867500360":{"id":"691829867500360","from":{"id":"100001458099624","name":"Kham Pha"},"message":"Đúng đấy, この少女 thì còn đc. Vì 彼女 là đại từ, mà この、あの、。。 chỉ dùng với danh từ thôi.","can_remove":false,"created_time":"2013-07-25T09:33:21+0000","like_count":2,"user_likes":false},"691830294166984":{"id":"691830294166984","from":{"id":"1146680551","name":"優しい なぁ"},"message":"Còn bị mình bị áp đặt cách hiểu \"ルールを守る\"qua cho câu này","can_remove":false,"created_time":"2013-07-25T09:35:30+0000","like_count":1,"user_likes":false},"691830687500278":{"id":"691830687500278","from":{"id":"100001458099624","name":"Kham Pha"},"message":"Cái này trong tiếng Nhật gọi là 表現（ひょうげん） tức là cách diễn đạt. Có thể bạn nghĩ là đúng ngữ pháp nhưng trong tiếng Nhật ko có 表現 đó.","can_remove":false,"created_time":"2013-07-25T09:37:08+0000","like_count":1,"user_likes":false},"691833967499950":{"id":"691833967499950","from":{"id":"1146680551","name":"優しい なぁ"},"message":"了解です。","can_remove":false,"created_time":"2013-07-25T09:39:14+0000","like_count":1,"user_likes":false},"691917530824927":{"id":"691917530824927","from":{"id":"100000064686295","name":"Huy Roli"},"message":"Chân thành cảm ơn 3 bạn nhé :)","can_remove":false,"created_time":"2013-07-25T13:11:19+0000","like_count":0,"user_likes":false},"691944180822262":{"id":"691944180822262","from":{"id":"100001416272263","name":"Mai PB"},"message":"この彼女 có nghĩa đấy: cô bạn gái này.","can_remove":false,"created_time":"2013-07-25T14:23:36+0000","like_count":2,"user_likes":false},"691944694155544":{"id":"691944694155544","from":{"id":"100000064686295","name":"Huy Roli"},"message":"Có phổ biến ko ạ","can_remove":false,"created_time":"2013-07-25T14:25:26+0000","like_count":0,"user_likes":false},"691944700822210":{"id":"691944700822210","from":{"id":"100001458099624","name":"Kham Pha"},"message":"Ý anh là chỉ người yêu ấy ah?","can_remove":false,"created_time":"2013-07-25T14:25:27+0000","like_count":0,"user_likes":false},"691944840822196":{"id":"691944840822196","from":{"id":"100001754136107","name":"Nguyễn Tuấn Vũ"},"message":"Bảo vệ bạn gái.","can_remove":false,"created_time":"2013-07-25T14:25:54+0000","like_count":1,"user_likes":false},"691945167488830":{"id":"691945167488830","from":{"id":"100001416272263","name":"Mai PB"},"message":"Bạn gái thôi, chưa đến mức người iu ;-)","can_remove":false,"created_time":"2013-07-25T14:26:42+0000","like_count":1,"user_likes":false},"691945227488824":{"id":"691945227488824","from":{"id":"100001416272263","name":"Mai PB"},"message":"mà cũng là ng iu, nếu là người VN","can_remove":false,"created_time":"2013-07-25T14:26:58+0000","like_count":2,"user_likes":false},"691945570822123":{"id":"691945570822123","from":{"id":"100001416272263","name":"Mai PB"},"message":"Huy Roli: ít có lúc nào dùng. Tiếng Việt cũng vậy mà.","message_tags":[{"id":"100000064686295","name":"Huy Roli","type":"user","offset":0,"length":8}],"can_remove":false,"created_time":"2013-07-25T14:28:02+0000","like_count":0,"user_likes":false},"691947260821954":{"id":"691947260821954","from":{"id":"100001416272263","name":"Mai PB"},"message":"Cho các bạn nam xét trước khi có bạn gái này: 本当にこの彼女でいいの？『男性用「彼女」チェックシート』http://www.nikkeibp.co.jp/style/biz/skillup/marriage/060228_1st/index1.html","can_remove":false,"created_time":"2013-07-25T14:31:07+0000","like_count":4,"user_likes":false},"691947630821917":{"id":"691947630821917","from":{"id":"100001416272263","name":"Mai PB"},"message":"Và đây là cho các bạn nữ xét tiêu chuẩn nam giới: 本当にこの彼でいいの？『女性用「彼氏」チェックシート20』\nhttp://www.nikkeibp.co.jp/style/biz/skillup/marriage/060228_1st/index.html","can_remove":false,"created_time":"2013-07-25T14:32:08+0000","like_count":5,"user_likes":false}},"paging":{"cursors":{"after":"NjkxODIxOTcwODM0NDgz","before":"NjkxODIxOTcwODM0NDgz"},"next":"https://graph.facebook.com/229244010425617_691820830834597/comments?limit=1&summary=1&after=NjkxODIxOTcwODM0NDgz"},"summary":{"order":"chronological","total_count":20}}}