{"id":"229244010425617_692754404074573","type":"video","picture":"https://fbexternal-a.akamaihd.net/safe_image.php?d=AQAdZ7Nko5ZRVhZl&w=130&h=130&url=http%3A%2F%2Fi1.ytimg.com%2Fvi%2FEyf54l_UnTQ%2Fhqdefault.jpg%3Ffeature%3Dog","link":"http://www.youtube.com/watch?v=Eyf54l_UnTQ&list=PLAhx2XOq4JzKfT81930rG5y_6ECC_9opB","source":"http://www.youtube.com/v/Eyf54l_UnTQ?autohide=1&version=3&autoplay=1","from":{"id":"100001416272263","name":"Mai PB"},"message":"Bài hát này nghe dễ không? 名曲ですよ。Các mem thử đoán xem đây la bài hát nói về cái gì. Đừng có nghe những bài hát nhảm nhí boy band girl band bây giờ, tiếng Nhật đó người Nhật cũng chẳng hiểu đâu. ^^  http://www.youtube.com/watch?v=Eyf54l_UnTQ&list=PLAhx2XOq4JzKfT81930rG5y_6ECC_9opB","created_time":"2013-07-27T02:38:33+0000","updated_time":"2013-09-28T02:54:14+0000","likes":{"data":{"100003688887538":{"id":"100003688887538","name":"Chibi Maruko"},"100001754136107":{"id":"100001754136107","name":"Nguyễn Tuấn Vũ"},"1031089243":{"id":"1031089243","name":"Tiet Khai"},"100001806981402":{"id":"100001806981402","name":"Cookie Panda"},"100001458099624":{"id":"100001458099624","name":"Kham Pha"},"100002327743510":{"id":"100002327743510","name":"Tuan Thanh"},"1146680551":{"id":"1146680551","name":"優しい なぁ"},"100001483423666":{"id":"100001483423666","name":"Trang Nguyen"},"100003669604211":{"id":"100003669604211","name":"Mặt Trời Phương Đông"},"100004123327271":{"id":"100004123327271","name":"Nguyễn Phương"},"100000022163023":{"id":"100000022163023","name":"Kafe Ore"},"100000890737229":{"id":"100000890737229","name":"Lizzie Shimy"},"100005307004792":{"id":"100005307004792","name":"Kiều Văn"},"100001526631937":{"id":"100001526631937","name":"Tường Oanh Mineko"},"100002994568283":{"id":"100002994568283","name":"Pham Cuong"},"100001550033545":{"id":"100001550033545","name":"Dang Luan Dang Luan"},"100006167497302":{"id":"100006167497302","name":"Hoang Anhh"},"100003616840561":{"id":"100003616840561","name":"Nguyen Quy"},"100000280776405":{"id":"100000280776405","name":"Viet Nguyen Thanh"},"100006174614320":{"id":"100006174614320","name":"Nam Hoang"},"100006153041734":{"id":"100006153041734","name":"Ngoc Lam Ho"}},"paging":{"cursors":{"after":"MTAwMDAzNjg4ODg3NTM4","before":"MTAwMDAzNjg4ODg3NTM4"},"next":"https://graph.facebook.com/229244010425617_692754404074573/likes?limit=1&summary=1&after=MTAwMDAzNjg4ODg3NTM4"},"summary":{"total_count":21}},"comments":{"data":{"692760050740675":{"id":"692760050740675","from":{"id":"100006153041734","name":"Ngoc Lam Ho"},"message":"ui, rất thích bài này. cô ca sĩ khi hát bài này cũng vừa chia tay bạn trai nên cô ta thể hiện tình cảm vào bài một cách xuất sắc (minh xem trên một truyền hình Nhật) Bài này đứng top 10 mấy năm vào thập niên 80. nhạc cũ mới hay như vậy!","can_remove":false,"created_time":"2013-07-27T02:51:34+0000","like_count":2,"user_likes":false},"692761524073861":{"id":"692761524073861","from":{"id":"100006174614320","name":"Nam Hoang"},"message":"hay ghê, có bài nào hay thì chia sẻ thêm nhé b!","can_remove":false,"created_time":"2013-07-27T02:54:10+0000","like_count":1,"user_likes":false},"692763024073711":{"id":"692763024073711","from":{"id":"100006174614320","name":"Nam Hoang"},"message":"Mai PB b cho mình xin mp3 của bài này với!","message_tags":[{"id":"100001416272263","name":"Mai PB","type":"user","offset":0,"length":6}],"can_remove":false,"created_time":"2013-07-27T02:59:24+0000","like_count":0,"user_likes":false},"692764094073604":{"id":"692764094073604","from":{"id":"100001416272263","name":"Mai PB"},"message":"Ngoc Lam Ho có chuyện như vậy à? Ở Wikipedia không thấy viết, mà lại có chuyện như sau: \n学生時代、歌手になろうと決意したことをバスケット部の先輩に告白したところ「俺が最初のファンになってやるよ」と彼は言ってくれた。数日後、彼は交通事故で亡くなってしまう。この出来事がこの曲の内容に重なるところがあったのである。\n Hồi học sinh, cô ca sĩ này thổ lộ với senpai là mình quyết tâm ở thành ca sĩ. Senpai nói \"thế thì anh sẽ là fan đầu tiên của em nhé\", và sau đó vài ngày thì senpai mất vì tai nạn giao thông. Nội dung bài này (ngẫu nhiên) giống y như vậy nên tình cảm thật dâng trào.","message_tags":[{"id":"100006153041734","name":"Ngoc Lam Ho","type":"user","offset":0,"length":11}],"can_remove":false,"created_time":"2013-07-27T03:02:41+0000","like_count":3,"user_likes":false},"692764397406907":{"id":"692764397406907","from":{"id":"100001416272263","name":"Mai PB"},"message":"Nam Hoàng: Ở Nhật không có link download mp3 tự do như ở VN. Chỉ có cách dùng plugin của Firefox hay Chrome để convert từ Youtube thôi.","message_tags":[{"id":"100006174614320","name":"Nam Hoàng","type":"user","offset":0,"length":9}],"can_remove":false,"created_time":"2013-07-27T03:03:40+0000","like_count":1,"user_likes":false},"692766014073412":{"id":"692766014073412","from":{"id":"100001416272263","name":"Mai PB"},"message":"Lời đây. Rất simple. Nói ít hiểu nhiều.\n\n　　会いたい　　 歌手：沢田知可子\n　　　　　　　　作詞：沢ちひろ\n　　　　　　　　作曲：財津和夫\n　　　　　　　　編曲：芳野藤丸\n\nビルが見える教室で\nふたりは机 並べて\n同じ月日を過ごした\nすこしの英語と\nバスケット そして\n私はあなたと恋を覚えた\n\n卒業しても私を\n子供扱いしたよね\n「遠くへ行くなよ」と\n半分笑って 半分真顔で\n抱き寄せた\n\n低い雲を広げた 冬の夜\nあなた 夢のように\n死んでしまったの\n\n今年も海へ行くって\nいっぱい 映画も観るって\n約束したじゃない\nあなた 約束したじゃない\n会いたい\n\n波打ち際 すすんでは\n不意にあきらめて戻る\n浜辺をただ独り\n怒りたいのか 泣きたいのか\nわからずに 歩いてる\n\n声をかける人を つい見つめる\n彼があなただったら\nあなただったら\n\n強がる肩をつかんで\nバカだなって叱って\n優しくKissをして\n嘘だよって抱きしめていて\n会いたい...\n\n遠くへ行くなと言って\nお願い独りにしないで\n強く 抱きしめて\n私のそばで生きていて\n\n今年も海へ行くって\nいっぱい 映画も観るって\n約束したじゃない\nあなた 約束したじゃない\n会いたい...","can_remove":false,"created_time":"2013-07-27T03:08:37+0000","like_count":4,"user_likes":false},"692783287405018":{"id":"692783287405018","from":{"id":"100006167497302","name":"Hoang Anhh"},"message":"Hay quá :)","can_remove":false,"created_time":"2013-07-27T03:27:11+0000","like_count":0,"user_likes":false},"692796534070360":{"id":"692796534070360","from":{"id":"100001365545442","name":"Nguyễn Nam"},"message":"hơ.. ko phải aitai của se7ven hở ad :d","can_remove":false,"created_time":"2013-07-27T03:56:14+0000","like_count":0,"user_likes":false},"692796920736988":{"id":"692796920736988","from":{"id":"100001416272263","name":"Mai PB"},"message":"Không phải","can_remove":false,"created_time":"2013-07-27T03:57:09+0000","like_count":0,"user_likes":false},"692963177387029":{"id":"692963177387029","from":{"id":"100001806981402","name":"Cookie Panda"},"message":"Bài này hay thật đấy :)","can_remove":false,"created_time":"2013-07-27T13:20:00+0000","like_count":0,"user_likes":false},"728974573785889":{"id":"728974573785889","from":{"id":"100000687662713","name":"Vu Thi Man"},"message":"Chữ Kanji 告白 đọc là gì nhỉ? Nghĩa là dũng khí đúng không?","can_remove":false,"created_time":"2013-09-27T23:01:55+0000","like_count":0,"user_likes":false},"728975127119167":{"id":"728975127119167","from":{"id":"100000687662713","name":"Vu Thi Man"},"message":"Mình thích nhạc Nhật những năm 80, nhưng nghe bài này chẳng cảm nhận được gì cả. Hồi trước tham gia 1 club tiếng Nhật khác có nhiều bài rất hay nhưng vì mọi người post trực tiếp lên diễn đàn nên k load về máy được. Giai điệu nhẹ nhàng, sâu lắng và rất ngọt ngào.","can_remove":false,"created_time":"2013-09-27T23:04:41+0000","like_count":0,"user_likes":false},"729016687115011":{"id":"729016687115011","from":{"id":"100001458099624","name":"Kham Pha"},"message":"告白（こくはく）, từ quan trọng thế này sao lại quên được ^^","can_remove":false,"created_time":"2013-09-28T01:42:07+0000","like_count":0,"user_likes":false},"729043683778978":{"id":"729043683778978","from":{"id":"100000687662713","name":"Vu Thi Man"},"message":"Không phải quên mà hôm trước có xem trên mạng, họ nói là viết thì là thế nhưng khi đọc lại là ゆうきvậy nên mới hỏi.","can_remove":false,"created_time":"2013-09-28T02:54:14+0000","like_count":0,"user_likes":false}},"paging":{"cursors":{"after":"NjkyNzYwMDUwNzQwNjc1","before":"NjkyNzYwMDUwNzQwNjc1"},"next":"https://graph.facebook.com/229244010425617_692754404074573/comments?limit=1&summary=1&after=NjkyNzYwMDUwNzQwNjc1"},"summary":{"order":"chronological","total_count":14}}}