{"id":"229244010425617_692878877395459","type":"status","from":{"id":"1175139401","name":"Phan Phuoc"},"message":"Làm sao gửi quà, thuốc men, đồ ăn, vật dụng... từ quê hương cho người thân ở Nhật?\n\nMình được biết đa phần các gia đình có con em, người thân đang sinh sống học tập và làm việc tại Nhật Bản muốn gửi quà hay vật dụng từ quê hương đều gửi qua Bưu điện, nhưng như vậy thì lâu (1 tháng) mới đến nơi, mà cũng không biết chính xác khi nào đến như họ cần. Đôi khi cần gấp mà không biết làm sao gửi được.\n\nBạn rất muốn biết có cách nào gửi tiết kiệm và thời gian thật nhanh, chính xác đúng không?\n\nBên mình là công ty Hoàng Đại Express nhận gửi quà, hồ sơ... đi Nhật Bản thông qua hãng quốc tế DHL hay UPS rất nhanh và chi phí lại rẻ hơn Bưu điện nữa, nếu chọn gói đi tiết kiệm thì chỉ 5-6 ngày là phát tận nơi thôi. Các bạn muốn gửi gì thì liên hệ mình nhé. Công ty hiện có văn phòng tại: HCM, Hà Nội, Huế,... bạn ở đâu thì mình sẽ tư vấn cho bạn gửi hàng tại địa phương đó nhé.\n\nRất mong đem đến 1 giải pháp tiết kiệm tuyệt với cho người thân của bạn. Chúc hạnh phúc nhé mọi người !\n\nThông tin liên lạc:\nNgọc Phước (84) 946 347 647\nEmail: pdnphuoc@gmail.com | phuoc@hoangdaiexpress.com\nSkype: pdnphuoc\nwww.hoangdaiexpress.com","created_time":"2013-07-27T08:44:05+0000","updated_time":"2013-07-29T02:52:30+0000","likes":{"data":{"100001754136107":{"id":"100001754136107","name":"Nguyễn Tuấn Vũ"},"100004704368470":{"id":"100004704368470","name":"Xi Xink"},"100001458099624":{"id":"100001458099624","name":"Kham Pha"},"100000302315094":{"id":"100000302315094","name":"Lang Thang"},"100001416272263":{"id":"100001416272263","name":"Mai PB"}},"paging":{"cursors":{"after":"MTAwMDAxNzU0MTM2MTA3","before":"MTAwMDAxNzU0MTM2MTA3"},"next":"https://graph.facebook.com/229244010425617_692878877395459/likes?limit=1&summary=1&after=MTAwMDAxNzU0MTM2MTA3"},"summary":{"total_count":5}},"comments":{"data":{"692949230721757":{"id":"692949230721757","from":{"id":"1175139401","name":"Phan Phuoc"},"message":"Thanks Mai PB nhiều.","can_remove":false,"created_time":"2013-07-27T12:35:24+0000","like_count":0,"user_likes":false},"693290644020949":{"id":"693290644020949","from":{"id":"1175139401","name":"Phan Phuoc"},"message":"Thanks Kham pha và Lang thang nha :)","can_remove":false,"created_time":"2013-07-28T05:35:18+0000","like_count":0,"user_likes":false},"693386757344671":{"id":"693386757344671","from":{"id":"100001416272263","name":"Mai PB"},"message":"Nếu cty có partner ở Nhật để gửi đồ từ Nhật về VN giá rẻ và có đảm bảo thì chắc chắn ăn nên làm ra với thị trường Nhật.","can_remove":false,"created_time":"2013-07-28T09:55:35+0000","like_count":1,"user_likes":false},"693407530675927":{"id":"693407530675927","from":{"id":"1175139401","name":"Phan Phuoc"},"message":"Dear Mai PB, vui lòng trao đổi vấn đề hợp tác ở kênh email cá nhân, pdnphuoc@gmail.com|phuoc@hoangdaiexpress.com. Xin cám ơn ! :)","message_tags":[{"id":"100001416272263","name":"Mai PB","type":"user","offset":5,"length":6}],"can_remove":false,"created_time":"2013-07-28T11:03:03+0000","like_count":0,"user_likes":false},"693436820672998":{"id":"693436820672998","from":{"id":"1175139401","name":"Phan Phuoc"},"message":"Ok, cám ơn Mai PB, giá rẻ và đảm bảo là chắc chắn. Bên mình đang thiết lập kênh nhận hàng tại các thành phố lớn tại Nhật. Do quan hệ Hải Quan tốt nên xử lý được hàng nhập. Còn gửi đi từ Việt Nam đi qua dịch vụ DHL, UPS, FEDEX, TNT... thì luôn đảm bảo, có bảo hiểm hàng hóa 100% nếu mình đóng thêm khoảng 2% phí bảo hiểm trên giá trị khai thực tế.","message_tags":[{"id":"100001416272263","name":"Mai PB","type":"user","offset":11,"length":6}],"can_remove":false,"created_time":"2013-07-28T12:13:08+0000","like_count":1,"user_likes":false},"693537290662951":{"id":"693537290662951","from":{"id":"100001754136107","name":"Nguyễn Tuấn Vũ"},"message":"E muon hỏi: gui đồ tu vn sang thi gia ca ntn","can_remove":false,"created_time":"2013-07-28T16:21:46+0000","like_count":0,"user_likes":false},"693808590635821":{"id":"693808590635821","from":{"id":"1175139401","name":"Phan Phuoc"},"message":"Chào bạn Nguyễn Tuấn Vũ, bạn vui lòng email chi tiết là loại hàng gì nha, vì có nhiều loại Nhật cấm hoặc kiểm soát rất nghiêm ngặt nên bạn vui lòng email cho mình kiểm tra, thông thường thì đi được hết. phuoc@hoangdaiexpress.com. Cám ơn bạn ! Bạn có thể check cước phí trên website www.hoangdaiexpress.com, mục \"Check rates and transit times\".","message_tags":[{"id":"100001754136107","name":"Nguyễn Tuấn Vũ","type":"user","offset":9,"length":14}],"can_remove":false,"created_time":"2013-07-29T02:52:30+0000","like_count":0,"user_likes":false}},"paging":{"cursors":{"after":"NjkyOTQ5MjMwNzIxNzU3","before":"NjkyOTQ5MjMwNzIxNzU3"},"next":"https://graph.facebook.com/229244010425617_692878877395459/comments?limit=1&summary=1&after=NjkyOTQ5MjMwNzIxNzU3"},"summary":{"order":"chronological","total_count":7}}}