{"id":"229244010425617_693872357296111","type":"status","from":{"id":"1267084162","name":"Salt Mint"},"message":"Mọi người ơi, cho hỏi tớ có Ipad bản 3G mua ở VN, giờ cầm sang Nhật có đăng kí 3G của nhật được ko? Nếu mua bản Wifi thì ở bên Nhật ko có nhiều điểm wifi free lắm đúng ko","created_time":"2013-07-29T05:58:10+0000","updated_time":"2013-07-29T10:34:18+0000","comments":{"data":{"693876727295674":{"id":"693876727295674","from":{"id":"100001416272263","name":"Mai PB"},"message":"Đăng ký được 3G. Có cả cục chuyển đổi 3G→Wifi nên model Wifi cũng được.","can_remove":false,"created_time":"2013-07-29T06:13:48+0000","like_count":1,"user_likes":false},"693877907295556":{"id":"693877907295556","from":{"id":"1267084162","name":"Salt Mint"},"message":"Thank bạn nha. Vậy mình có thể yên tâm cầm máy sang rồi","can_remove":false,"created_time":"2013-07-29T06:18:55+0000","like_count":0,"user_likes":false},"693878120628868":{"id":"693878120628868","from":{"id":"100003144937413","name":"Bách Gà"},"message":"Đa số sang đây dùng iphone thì cầm ipad sang làm gì ??","can_remove":false,"created_time":"2013-07-29T06:20:01+0000","like_count":0,"user_likes":false},"693880083962005":{"id":"693880083962005","from":{"id":"1267084162","name":"Salt Mint"},"message":"Tớ ko muốn dùng iphone. Sang đó công ty chuẩn bị máy cho rồi","can_remove":false,"created_time":"2013-07-29T06:26:15+0000","like_count":0,"user_likes":false},"693880437295303":{"id":"693880437295303","from":{"id":"100003144937413","name":"Bách Gà"},"message":"Bạn đi du học hay ld ?","can_remove":false,"created_time":"2013-07-29T06:27:35+0000","like_count":0,"user_likes":false},"693880840628596":{"id":"693880840628596","from":{"id":"1267084162","name":"Salt Mint"},"message":"Tớ đi làm","can_remove":false,"created_time":"2013-07-29T06:28:46+0000","like_count":0,"user_likes":false},"693881237295223":{"id":"693881237295223","from":{"id":"100003144937413","name":"Bách Gà"},"message":"Lao động phải ko","can_remove":false,"created_time":"2013-07-29T06:29:27+0000","like_count":0,"user_likes":false},"693921900624490":{"id":"693921900624490","from":{"id":"100001754136107","name":"Nguyễn Tuấn Vũ"},"message":"Wifi bên nay thi nhiều nhưng nó thường đi theo nhà mạng","can_remove":false,"created_time":"2013-07-29T08:19:39+0000","like_count":0,"user_likes":false},"693939420622738":{"id":"693939420622738","from":{"id":"1267084162","name":"Salt Mint"},"message":"tớ muốn dùng softbank thì có dùng được với ipad ko ?","can_remove":false,"created_time":"2013-07-29T09:39:55+0000","like_count":0,"user_likes":false},"693939733956040":{"id":"693939733956040","from":{"id":"100001754136107","name":"Nguyễn Tuấn Vũ"},"message":"Nhưng cái ipad cua bạn nó ko đk gì nha mạng thì ko dung đc wifi miên phi cua n đâu.như a Mai PB nói ấy: bên này có nhiều dịc vụ nhu cục phát wifi thi dung thoai mai","message_tags":[{"id":"100001416272263","name":"Mai PB","type":"user","offset":89,"length":6}],"can_remove":false,"created_time":"2013-07-29T09:41:29+0000","like_count":0,"user_likes":false},"693940033956010":{"id":"693940033956010","from":{"id":"1267084162","name":"Salt Mint"},"message":"tớ sẽ đăng kí nhà mạng nhưng có lẽ nhà mạng Softbank vẫn là rẻ nhất hả","can_remove":false,"created_time":"2013-07-29T09:43:00+0000","like_count":0,"user_likes":false},"693940580622622":{"id":"693940580622622","from":{"id":"100001754136107","name":"Nguyễn Tuấn Vũ"},"message":"Đa số du học sinh minh thường dùng softbank.nhưng t nghic giờ công nghệ phát triển,chỉ cần có mạng la ok.mình dung viber hay line.t thấy softbank dạo này tính tiền t toàn tăng nên đang ghét dần :))))","can_remove":false,"created_time":"2013-07-29T09:45:55+0000","like_count":0,"user_likes":false},"693941023955911":{"id":"693941023955911","from":{"id":"1267084162","name":"Salt Mint"},"message":":))) Vậy hả, lâu rồi tớ ko đi. Lần trước xài AU nên ko biết","can_remove":false,"created_time":"2013-07-29T09:47:57+0000","like_count":0,"user_likes":false},"693941243955889":{"id":"693941243955889","from":{"id":"100001754136107","name":"Nguyễn Tuấn Vũ"},"message":"Sai Au thì nên đk dung mạng của nó cả gói,ko dùng cả gói ko may vào bật mạng nghịch chơi tý lên đến 2 man :)))\nT đang định chuyển sang docomo","can_remove":false,"created_time":"2013-07-29T09:49:20+0000","like_count":0,"user_likes":false},"693941587289188":{"id":"693941587289188","from":{"id":"1267084162","name":"Salt Mint"},"message":"Tớ định cài mạng cho cái Ipad thôi. Có gì coi như dùng thay máy tính. Còn điện thoại thì xài đồ thường thôi à :) Ờ, có lẽ nên xài trọn gói vì tay chân cũng hay táy máy","can_remove":false,"created_time":"2013-07-29T09:51:09+0000","like_count":0,"user_likes":false},"693942150622465":{"id":"693942150622465","from":{"id":"100001754136107","name":"Nguyễn Tuấn Vũ"},"message":"T thấy giờ ipad thi chi có sofbank va Au có.bên docomo chưa thấy động tĩnh gì.nhưng nghe giang hồ đồn thổi là chuyển bị docomo cung có iphone","can_remove":false,"created_time":"2013-07-29T09:54:02+0000","like_count":0,"user_likes":false},"693942603955753":{"id":"693942603955753","from":{"id":"1267084162","name":"Salt Mint"},"message":"ố ồ, vậy là chưa có cơ hội xài mạng Docomo rồi :))) Cậu dùng cả Au với Softbank rồi hả? Thấy giờ nên xài cái nào thì hơn. Chắc dùng viber với skype để gọi về nhà rồi nên muốn dùng cái nào mà gói mạng của nó khá khẩm 1 tí","can_remove":false,"created_time":"2013-07-29T09:56:31+0000","like_count":0,"user_likes":false},"693942793955734":{"id":"693942793955734","from":{"id":"1267084162","name":"Salt Mint"},"message":"Softbank thì có màn tiết kiệm tiền điện thoại cho cùng hệ mạng nên hồi xưa nổi lắm chứ giờ ko biết sao rồi","can_remove":false,"created_time":"2013-07-29T09:57:05+0000","like_count":0,"user_likes":false},"693943210622359":{"id":"693943210622359","from":{"id":"100001754136107","name":"Nguyễn Tuấn Vũ"},"message":"Nếu mà dùng 4g thi t khuyên nên dùng sofbank .\nUhm.giờ cái nào cũng thế mà.au vs sofbank thì gần giống nhau khoản đấy.còn docomo thì nó làm hẳn gói cước 780 1 tháng gọi 24-24 nội mạng","can_remove":false,"created_time":"2013-07-29T09:58:55+0000","like_count":0,"user_likes":false},"693943937288953":{"id":"693943937288953","from":{"id":"1267084162","name":"Salt Mint"},"message":":v tớ chỉ có 3g thui, nhưng mà chắc cũng dùng softbank. Dù gì thì gì nó vẫn là hãng rẻ nhất, có cấu véo mình thêm tí tiền ở khoản này khoản kia thì vẫn rẻ hơn 2 đại gia còn lại","can_remove":false,"created_time":"2013-07-29T10:01:21+0000","like_count":0,"user_likes":false},"693947793955234":{"id":"693947793955234","from":{"id":"100001754136107","name":"Nguyễn Tuấn Vũ"},"message":"Ko.t thấy au cung đc.sofbank cấu kiểu gi t dùng hơn 2 năm rồi vẫn chưa hiểu :))))","can_remove":false,"created_time":"2013-07-29T10:13:48+0000","like_count":1,"user_likes":false},"693952380621442":{"id":"693952380621442","from":{"id":"100001919817742","name":"Canh Nguyen Minh"},"message":"Dien Thoai IP ben Nhat re ko may ban?","can_remove":false,"created_time":"2013-07-29T10:34:18+0000","like_count":0,"user_likes":false}},"paging":{"cursors":{"after":"NjkzODc2NzI3Mjk1Njc0","before":"NjkzODc2NzI3Mjk1Njc0"},"next":"https://graph.facebook.com/229244010425617_693872357296111/comments?limit=1&summary=1&after=NjkzODc2NzI3Mjk1Njc0"},"summary":{"order":"chronological","total_count":22}},"likes":{"data":[]}}