{"id":"229244010425617_693930973956916","type":"status","from":{"id":"100005805939075","name":"Phong Kaze"},"message":"THÔNG TIN TUYỂN DỤNG\n\nNHÂN VIÊN ĐỐI NGOẠI\n- Số lượng : 2 nam, 2 nữ\n- Độ tuổi : 22 đến 28 tuổi\n- Tốt nghiệp các trường Đai học chuyên ngành tiếng Nhật (hoặc du học sinh về nước)\n- Trình độ tiếng Nhật : N2 trở lên, không yêu cầu có kinh nghiệm\n\n- Lương cơ bản: 8 đến 12 triệu tùy năng lực thực tế + thưởng theo doanh thu\n- Địa điểm làm việc : Văn phòng tại khu vực  Mỹ Đình hoặc Hoàng Mai\n\nMô tả công việc: phụ trách mảng khách hàng, thị trường Nhật Bản.\n                         Lên kế hoạch làm việc, gặp gỡ khách ( nếu khách hàng sang Việt Nam làm việc)\n                         Chủ động đưa ra những đánh giá về  thị trường,\n  \n  Ứng viên quan tâm vui lòng gửi CV vào địa chỉ Email :ha.hipvietnam@gmail.com hoặc liên hệ qua SĐT(Ms. Hà) : 0919348822\n  Trân trọng!","created_time":"2013-07-29T09:00:47+0000","updated_time":"2013-08-01T01:03:10+0000","likes":{"data":{"100005953833214":{"id":"100005953833214","name":"Roro Zoro"},"100004027129204":{"id":"100004027129204","name":"Hồng Huệ"}},"paging":{"cursors":{"after":"MTAwMDA1OTUzODMzMjE0","before":"MTAwMDA1OTUzODMzMjE0"},"next":"https://graph.facebook.com/229244010425617_693930973956916/likes?limit=1&summary=1&after=MTAwMDA1OTUzODMzMjE0"},"summary":{"total_count":2}},"comments":{"data":{"693952817288065":{"id":"693952817288065","from":{"id":"100001919817742","name":"Canh Nguyen Minh"},"message":"luong the nao ban?","can_remove":false,"created_time":"2013-07-29T10:35:36+0000","like_count":0,"user_likes":false},"693955770621103":{"id":"693955770621103","from":{"id":"100005805939075","name":"Phong Kaze"},"message":"Canh Nguyen Minh, lương cơ bản từ 8 đến 12 triệu đó bạn.","message_tags":[{"id":"100001919817742","name":"Canh Nguyen Minh","type":"user","offset":0,"length":16}],"can_remove":false,"created_time":"2013-07-29T10:48:30+0000","like_count":0,"user_likes":false},"694425360574144":{"id":"694425360574144","from":{"id":"100005953833214","name":"Roro Zoro"},"message":"Tuyển dụng có thời hạn ko vậy ??\nVà có thường xuyên tuyển dụng ko vậy  ?","can_remove":false,"created_time":"2013-07-30T03:55:00+0000","like_count":0,"user_likes":false},"694467250569955":{"id":"694467250569955","from":{"id":"100005805939075","name":"Phong Kaze"},"message":"Roro Zoro, bạn hỏi tuyển dụng có thời hạn và có thường xuyên hay không cho vị trí nào? Nếu là vị trí trên thì bên mình vẫn đang tuyển bạn ạ!","message_tags":[{"id":"100005953833214","name":"Roro Zoro","type":"user","offset":0,"length":9}],"can_remove":false,"created_time":"2013-07-30T06:42:09+0000","like_count":0,"user_likes":false},"695740707109276":{"id":"695740707109276","from":{"id":"100005953833214","name":"Roro Zoro"},"message":"Thanks bạn nhá.","can_remove":false,"created_time":"2013-08-01T01:03:10+0000","like_count":0,"user_likes":false}},"paging":{"cursors":{"after":"NjkzOTUyODE3Mjg4MDY1","before":"NjkzOTUyODE3Mjg4MDY1"},"next":"https://graph.facebook.com/229244010425617_693930973956916/comments?limit=1&summary=1&after=NjkzOTUyODE3Mjg4MDY1"},"summary":{"order":"chronological","total_count":5}}}