{"id":"229244010425617_694633493886664","type":"photo","object_id":"365510753552530","picture":"https://fbcdn-photos-h-a.akamaihd.net/hphotos-ak-ash3/t1.0-0/544446_365510753552530_1945471945_s.jpg","link":"https://www.facebook.com/photo.php?fbid=365510753552530&set=gm.694633493886664&type=1&relevant_count=1","from":{"id":"100002808262328","name":"Thành Hasamu Hasamu"},"created_time":"2013-07-30T12:36:58+0000","updated_time":"2013-07-30T12:54:55+0000","likes":{"data":{"100001458099624":{"id":"100001458099624","name":"Kham Pha"},"100002327743510":{"id":"100002327743510","name":"Tuan Thanh"},"100001662490977":{"id":"100001662490977","name":"Hoàng Quyết"}},"paging":{"cursors":{"after":"MTAwMDAxNDU4MDk5NjI0","before":"MTAwMDAxNDU4MDk5NjI0"},"next":"https://graph.facebook.com/229244010425617_694633493886664/likes?limit=1&summary=1&after=MTAwMDAxNDU4MDk5NjI0"},"summary":{"total_count":3}},"comments":{"data":{"694636193886394":{"id":"694636193886394","from":{"id":"100001662490977","name":"Hoàng Quyết"},"message":"Đây là tuyển nhân viên làm thêm ở Siêu thị hả a Thành Hasamu Hasamu???Nhưng yêu cầu là như thế nào vậy a??hj.E Đọc thông báo nhưng chưa hiểu lắm..@2","message_tags":[{"id":"100002808262328","name":"Thành Hasamu Hasamu","type":"user","offset":48,"length":19}],"can_remove":false,"created_time":"2013-07-30T12:45:17+0000","like_count":0,"user_likes":false},"694636513886362":{"id":"694636513886362","from":{"id":"100002808262328","name":"Thành Hasamu Hasamu"},"message":"Uh","can_remove":false,"created_time":"2013-07-30T12:46:11+0000","like_count":0,"user_likes":false},"694641333885880":{"id":"694641333885880","from":{"id":"100001662490977","name":"Hoàng Quyết"},"message":"A Thành Hasamu Hasamu ơi..yêu cầu tuyển nhân viên như vậy nào vậy ak??Trình độ Tiếng, yêu cầu khác...A có biết về vấn đề này không ak??E đang tìm hiểu về công việc làm thêm bên Nhật..Nhưng chưa thực sự hiểu những thực tế mà ng VN mình sang đó ntn a ak","message_tags":[{"id":"100002808262328","name":"Thành Hasamu Hasamu","type":"user","offset":2,"length":19}],"can_remove":false,"created_time":"2013-07-30T12:54:55+0000","like_count":0,"user_likes":false}},"paging":{"cursors":{"after":"Njk0NjM2MTkzODg2Mzk0","before":"Njk0NjM2MTkzODg2Mzk0"},"next":"https://graph.facebook.com/229244010425617_694633493886664/comments?limit=1&summary=1&after=Njk0NjM2MTkzODg2Mzk0"},"summary":{"order":"chronological","total_count":3}}}