{"id":"229244010425617_695204407162906","type":"status","from":{"id":"100001662490977","name":"Hoàng Quyết"},"message":"Các anh chị cho e hỏi về VIỆC LÀM GIẤY PHÉP LÁI XE Ô TÔ Ở NHẬT\n1.có nên làm trước ở Việt Nam trước hay không ak??\n2.Và khi có giấy phép lái xe ở bên Nhật..thì có dễ dàng tìm được việc làm thêm phù hợp không ak?\nE cảm ơn nhiều!","created_time":"2013-07-31T04:31:59+0000","updated_time":"2013-07-31T05:31:06+0000","comments":{"data":{"695206733829340":{"id":"695206733829340","from":{"id":"100001454348698","name":"Phạm Quang Tùng"},"message":"Giấy phép lái xe rất quan trọng ko những trong việc làm thêm mà nó còn dùng trong những việc đăng kí giấy tờ linh tinh.có 2 cách 1 là bạn làm ở Vn sau đó sang đây thi các câu hỏi đơn giản để đổi bằng ( việc này rất đơn giản với xe máy nhưng khó với oto vì cần thi cả thực hành và lý thuyết ko dễ gặm) điều kiện là bạn phải có bằng ở vn trước khi qua đây 3 tháng tính từ ngày cấp bằng. \nCách 2 là lấy bằng tại nhật ( cực tốn.kém) thì đăng kí học bằng và đi thi như ở vn và bằng được nhận đương nhiên là bằng nhật","can_remove":false,"created_time":"2013-07-31T04:42:21+0000","like_count":3,"user_likes":false},"695214407161906":{"id":"695214407161906","from":{"id":"100001662490977","name":"Hoàng Quyết"},"message":"E cảm ơn a Tùng Dở nhiều..nhưng a ơi.Đi làm thêm ( ví dụ như phát báo ) thì mình nên sử dụng phương tiện là tốt nhất vậy ạ( Xe máy bên Nhật có thông dụng không vậy ak ).","message_tags":[{"id":"100001454348698","name":"Tùng Dở","type":"user","offset":11,"length":7}],"can_remove":false,"created_time":"2013-07-31T05:09:13+0000","like_count":0,"user_likes":false},"695215123828501":{"id":"695215123828501","from":{"id":"100001454348698","name":"Phạm Quang Tùng"},"message":"Oh xe 50cc chuyên dụng đi phát báo bạn ah. Nếu đi phát báo thì phương tiện( xe máy,xe đạp) đều do tiệm báo cung cấp bạn ko phải bỏ tiền mua đâu","can_remove":false,"created_time":"2013-07-31T05:11:47+0000","like_count":3,"user_likes":false},"695217440494936":{"id":"695217440494936","from":{"id":"100001662490977","name":"Hoàng Quyết"},"message":"Mà a ơi..nếu xin việc làm thêm bán báo.yêu cầu có cao không ạ??","can_remove":false,"created_time":"2013-07-31T05:23:19+0000","like_count":0,"user_likes":false},"695218007161546":{"id":"695218007161546","from":{"id":"100001754136107","name":"Nguyễn Tuấn Vũ"},"message":"Minh nghĩ ban nen có băng xe may bên này rồi hãng tính bằng ô tô","can_remove":false,"created_time":"2013-07-31T05:26:15+0000","like_count":1,"user_likes":false},"695218270494853":{"id":"695218270494853","from":{"id":"100001662490977","name":"Hoàng Quyết"},"message":"E có bằng lái xe máy cũng lâu ùi a ak.tầm 2 năm..thời gian lâu như vậy.có ảnh hưởng gì không vậy ak??","can_remove":false,"created_time":"2013-07-31T05:27:30+0000","like_count":0,"user_likes":false},"695218573828156":{"id":"695218573828156","from":{"id":"100001754136107","name":"Nguyễn Tuấn Vũ"},"message":"Ko sao ban ak.như bạn ở trên nói ấy.trước khi sang nhật 3 tháng la ok. Sang đây dịch công chứng và thi lý thuyết( 10 câu, đúng 7/10 la ok)?","can_remove":false,"created_time":"2013-07-31T05:29:18+0000","like_count":1,"user_likes":false},"695218723828141":{"id":"695218723828141","from":{"id":"100001662490977","name":"Hoàng Quyết"},"message":"Vâng..E cảm ơn a Nguyễn Tuấn Vũ.^^","message_tags":[{"id":"100001754136107","name":"Nguyễn Tuấn Vũ","type":"user","offset":17,"length":14}],"can_remove":false,"created_time":"2013-07-31T05:30:26+0000","like_count":0,"user_likes":false},"695218817161465":{"id":"695218817161465","from":{"id":"100001754136107","name":"Nguyễn Tuấn Vũ"},"message":"E trẻ lắm ;)","can_remove":false,"created_time":"2013-07-31T05:31:06+0000","like_count":1,"user_likes":false}},"paging":{"cursors":{"after":"Njk1MjA2NzMzODI5MzQw","before":"Njk1MjA2NzMzODI5MzQw"},"next":"https://graph.facebook.com/229244010425617_695204407162906/comments?limit=1&summary=1&after=Njk1MjA2NzMzODI5MzQw"},"summary":{"order":"chronological","total_count":9}},"likes":{"data":[]}}