{"id":"229244010425617_695422720474408","type":"status","from":{"id":"100004028173069","name":"Jin Ngốc"},"message":"anh/ chị cho em hỏi câu \"anh đẹp trai quá\" nói bằng tiếng Nhật như thế nào ạ? \nem cám ơn ạ.","created_time":"2013-07-31T12:56:11+0000","updated_time":"2013-08-01T13:47:11+0000","likes":{"data":{"100001287663521":{"id":"100001287663521","name":"Pham Thanh Hoa"},"100001458099624":{"id":"100001458099624","name":"Kham Pha"}},"paging":{"cursors":{"after":"MTAwMDAxMjg3NjYzNTIx","before":"MTAwMDAxMjg3NjYzNTIx"},"next":"https://graph.facebook.com/229244010425617_695422720474408/likes?limit=1&summary=1&after=MTAwMDAxMjg3NjYzNTIx"},"summary":{"total_count":2}},"comments":{"data":{"695423617140985":{"id":"695423617140985","from":{"id":"100004241019333","name":"Linda Evans"},"message":"kimi ga hansamu da to omou","can_remove":false,"created_time":"2013-07-31T12:58:34+0000","like_count":1,"user_likes":false},"695423993807614":{"id":"695423993807614","from":{"id":"100003321786144","name":"Baloon Bambootatoo"},"message":"Ikemendesu","can_remove":false,"created_time":"2013-07-31T12:58:50+0000","like_count":1,"user_likes":false},"695424640474216":{"id":"695424640474216","from":{"id":"100004028173069","name":"Jin Ngốc"},"message":"arigatou ^^","can_remove":false,"created_time":"2013-07-31T12:58:58+0000","like_count":0,"user_likes":false},"695430517140295":{"id":"695430517140295","from":{"id":"100000309978634","name":"Tan Vu"},"message":"ikemen tra jisho là cực kì xấu mà :-/","can_remove":false,"created_time":"2013-07-31T13:00:05+0000","like_count":0,"user_likes":false},"695437737139573":{"id":"695437737139573","from":{"id":"100004043510511","name":"Phan Anh"},"message":"Hansamu sugiru","can_remove":false,"created_time":"2013-07-31T13:01:41+0000","like_count":2,"user_likes":false},"695448263805187":{"id":"695448263805187","from":{"id":"100000027754899","name":"Hoang Van Ba"},"message":"かっこいい\nKakkoii nói kéo dài chữ i ra","can_remove":false,"created_time":"2013-07-31T13:03:10+0000","like_count":1,"user_likes":false},"695451863804827":{"id":"695451863804827","from":{"id":"100003321786144","name":"Baloon Bambootatoo"},"message":"Ban da xem phjm 'ikemen desu ne' cua nhat chua? Do chjnh la phjm 'you are so handsome' cua han quoc do","can_remove":false,"created_time":"2013-07-31T13:03:57+0000","like_count":0,"user_likes":false},"695456103804403":{"id":"695456103804403","from":{"id":"100000027754899","name":"Hoang Van Ba"},"message":"Tan Vu. \nTặng cho bạn chữ này nhá.  ブス\nBusu","can_remove":false,"created_time":"2013-07-31T13:04:40+0000","like_count":0,"user_likes":false},"695464730470207":{"id":"695464730470207","from":{"id":"100000027754899","name":"Hoang Van Ba"},"message":"Nó chỉ là 1 danh từ nói chung thôi. \nMuốn khen người đối diện thì nói khác","can_remove":false,"created_time":"2013-07-31T13:06:01+0000","like_count":0,"user_likes":false},"695464887136858":{"id":"695464887136858","from":{"id":"100000027754899","name":"Hoang Van Ba"},"message":"Mà t tra từ điển ko thấy nghĩa của từ ý","can_remove":false,"created_time":"2013-07-31T13:06:29+0000","like_count":0,"user_likes":false},"695465383803475":{"id":"695465383803475","from":{"id":"100001458099624","name":"Kham Pha"},"message":"Nói với người đối diện hay với người thứ 3?","can_remove":false,"created_time":"2013-07-31T13:07:50+0000","like_count":0,"user_likes":false},"695466443803369":{"id":"695466443803369","from":{"id":"1146680551","name":"優しい なぁ"},"message":"エッチな","can_remove":false,"created_time":"2013-07-31T13:10:53+0000","like_count":0,"user_likes":false},"695466520470028":{"id":"695466520470028","from":{"id":"100000309978634","name":"Tan Vu"},"message":"Hoang Van Ba tặng í là sao vậy :-/","message_tags":[{"id":"100000027754899","name":"Hoang Van Ba","type":"user","offset":0,"length":12}],"can_remove":false,"created_time":"2013-07-31T13:11:09+0000","like_count":0,"user_likes":false},"695469603803053":{"id":"695469603803053","from":{"id":"100000027754899","name":"Hoang Van Ba"},"message":":) ko có ý j đâu hi hi. Đùa Tý thôi mà","can_remove":false,"created_time":"2013-07-31T13:20:06+0000","like_count":0,"user_likes":false},"695469780469702":{"id":"695469780469702","from":{"id":"100004028173069","name":"Jin Ngốc"},"message":"em cảm ơn mọi người ạ \\^0^/","can_remove":false,"created_time":"2013-07-31T13:20:51+0000","like_count":0,"user_likes":false},"695471507136196":{"id":"695471507136196","from":{"id":"100000027754899","name":"Hoang Van Ba"},"message":"アン グエン  ^o^   エロいだ","can_remove":false,"created_time":"2013-07-31T13:25:17+0000","like_count":1,"user_likes":false},"695478450468835":{"id":"695478450468835","from":{"id":"100000686643641","name":"Lê Dũng"},"message":"iidesune!","can_remove":false,"created_time":"2013-07-31T13:41:39+0000","like_count":0,"user_likes":false},"695483083801705":{"id":"695483083801705","from":{"id":"100000027754899","name":"Hoang Van Ba"},"message":"Jin Ngốc tondenmonai とんてもない","message_tags":[{"id":"100004028173069","name":"Jin Ngốc","type":"user","offset":0,"length":8}],"can_remove":false,"created_time":"2013-07-31T13:51:53+0000","like_count":1,"user_likes":false},"695514840465196":{"id":"695514840465196","from":{"id":"100002205114663","name":"Le My"},"message":"かれはとてもハンサムですね！","can_remove":false,"created_time":"2013-07-31T14:52:20+0000","like_count":1,"user_likes":false},"695556447127702":{"id":"695556447127702","from":{"id":"100001754136107","name":"Nguyễn Tuấn Vũ"},"message":"Dùng かっこいいい vừa mang nghĩa a ta đẹp trai,lại còn ăn mặc phong cách :))","can_remove":false,"created_time":"2013-07-31T16:23:14+0000","like_count":0,"user_likes":false},"695597127123634":{"id":"695597127123634","from":{"id":"1341670471","name":"An Nguyen"},"message":"Thì nói đại là A san wa totemo hansamu ne.","can_remove":false,"created_time":"2013-07-31T17:59:41+0000","like_count":0,"user_likes":false},"695743633775650":{"id":"695743633775650","from":{"id":"100000556104459","name":"Pham Duy Khuong"},"message":"theo minh thi noi cau nay la chuan va thong dung nhat 　男前ですね！","can_remove":false,"created_time":"2013-08-01T01:13:12+0000","like_count":0,"user_likes":false},"695789473771066":{"id":"695789473771066","from":{"id":"100000027754899","name":"Hoang Van Ba"},"message":"Xin lỗi Tan Vu + Baloon Bambootatoo mình đã hỏi lại. Và đc biết. \nイケメン là từ viết tắt của いけてるメンズ\nBằng nghĩa vs 恰好いい\nXem lại trên đầu Trang nhá. Mình post ảnh lên","message_tags":[{"id":"100003321786144","name":"Baloon Bambootatoo","type":"user","offset":17,"length":18}],"can_remove":false,"created_time":"2013-08-01T03:28:23+0000","like_count":0,"user_likes":false},"695973300419350":{"id":"695973300419350","from":{"id":"100001416272263","name":"Mai PB"},"message":"Ai nói cũng đúng vì đều dịch ngược ra tiếng Việt là đẹp trai được cả. Tuy nhiên ニュアンス(nuance, sắc thái ngữ nghĩa) khác nhau. Nếu em khen một người thanh niên trẻ thì dùng \"ikemen desune\" hoặc \"kakko-ii desune\" là được.","can_remove":false,"created_time":"2013-08-01T12:37:54+0000","like_count":1,"user_likes":false},"696006563749357":{"id":"696006563749357","from":{"id":"100003759697108","name":"Lê Văn Thành"},"message":"Mình thấy ng ta nói nhiều chỉ là はさむね。nvay là đc rùi mà","can_remove":false,"created_time":"2013-08-01T13:47:11+0000","like_count":0,"user_likes":false}},"paging":{"cursors":{"after":"Njk1NDIzNjE3MTQwOTg1","before":"Njk1NDIzNjE3MTQwOTg1"},"next":"https://graph.facebook.com/229244010425617_695422720474408/comments?limit=1&summary=1&after=Njk1NDIzNjE3MTQwOTg1"},"summary":{"order":"chronological","total_count":25}}}