{"id":"229244010425617_696095140407166","type":"status","from":{"id":"100001495688011","name":"Chung Kếu"},"message":"Ai giải thích cho em với:\nかじの＿＿＿＿はたばこですか。\n①げんいん。\n②りゆう。","created_time":"2013-08-01T16:15:27+0000","updated_time":"2013-08-02T14:28:14+0000","likes":{"data":{"100005000834145":{"id":"100005000834145","name":"Tôi Là Tôi"}},"paging":{"cursors":{"after":"MTAwMDA1MDAwODM0MTQ1","before":"MTAwMDA1MDAwODM0MTQ1"}},"summary":{"total_count":1}},"comments":{"data":{"696106497072697":{"id":"696106497072697","from":{"id":"100001458099624","name":"Kham Pha"},"message":"1. nguyên nhân\nGiống trong tiếng Việt, ko ai nói \"lý do của hỏa hoạn là thuốc lá\"","can_remove":false,"created_time":"2013-08-01T16:21:09+0000","like_count":2,"user_likes":false},"696107470405933":{"id":"696107470405933","from":{"id":"1341670471","name":"An Nguyen"},"message":"Mình cũng nghĩ là 2. Nguồn góc , Nguyên do..","can_remove":false,"created_time":"2013-08-01T16:23:31+0000","like_count":0,"user_likes":false},"696107720405908":{"id":"696107720405908","from":{"id":"1146680551","name":"優しい なぁ"},"message":"?","can_remove":false,"created_time":"2013-08-01T16:24:20+0000","like_count":0,"user_likes":false},"696108370405843":{"id":"696108370405843","from":{"id":"100001495688011","name":"Chung Kếu"},"message":"Kham Pha nguyên nhân và lí do về nghĩa cũng có khác nhau là mấy đâu anh nhỉ? Mà りゆう trong từ điển cũng có dịch là nguyên nhân mà.","message_tags":[{"id":"100001458099624","name":"Kham Pha","type":"user","offset":0,"length":8}],"can_remove":false,"created_time":"2013-08-01T16:25:58+0000","like_count":0,"user_likes":false},"696109517072395":{"id":"696109517072395","from":{"id":"1341670471","name":"An Nguyen"},"message":"Nhưng theo mình nghĩ nguyên nhân li do của số 2 là nói về mục đích tác động tới mình nên mình phải làm. Còn cái kia dịch thì có vẻ suông miệng hơn..","can_remove":false,"created_time":"2013-08-01T16:28:39+0000","like_count":0,"user_likes":false},"696109927072354":{"id":"696109927072354","from":{"id":"100002290906582","name":"Kanashimi No Yukue"},"message":"bạn cứ dịch ra xem tiếng việt nó thế nào\ncó ai nói là lý do hỏa hoạn là do thuốc lá bh đâu =.=","can_remove":false,"created_time":"2013-08-01T16:29:39+0000","like_count":1,"user_likes":false},"696110290405651":{"id":"696110290405651","from":{"id":"100001458099624","name":"Kham Pha"},"message":"Nguyên nhân và lý do khác nhau đấy.","can_remove":false,"created_time":"2013-08-01T16:30:37+0000","like_count":0,"user_likes":false},"696110627072284":{"id":"696110627072284","from":{"id":"100001458099624","name":"Kham Pha"},"message":"Nguyên nhân là bản chất nguồn gốc của sự việc.\nLý do là động cơ gây ra việc của CON NGƯỜI. Lý do bắt buộc phải có yếu tố con người.","can_remove":false,"created_time":"2013-08-01T16:31:30+0000","like_count":2,"user_likes":false},"696110917072255":{"id":"696110917072255","from":{"id":"1146680551","name":"優しい なぁ"},"message":"原因:hầu hết dùng cho 悪い事。","can_remove":false,"created_time":"2013-08-01T16:32:22+0000","like_count":1,"user_likes":false},"696111400405540":{"id":"696111400405540","from":{"id":"100001458099624","name":"Kham Pha"},"message":"Ví dụ bạn bị cảm không đến trường thì lý do gây ra hành động đó là bị cảm. Nhưng nguyên nhân của bị cảm thì có thể là do ra gió.","can_remove":false,"created_time":"2013-08-01T16:33:44+0000","like_count":1,"user_likes":false},"696111547072192":{"id":"696111547072192","from":{"id":"100001495688011","name":"Chung Kếu"},"message":"Tại trong từ điển em thấy nó cũng có nghĩa là nguyên nhân nên...","can_remove":false,"created_time":"2013-08-01T16:34:07+0000","like_count":0,"user_likes":false},"696112010405479":{"id":"696112010405479","from":{"id":"100001458099624","name":"Kham Pha"},"message":"Đừng tin vào từ điển, từ điển không thể hiện hết đc sự linh hoạt của ngôn ngữ đâu. Nhiều khi người làm từ điển cũng kém, không hiểu hết đc từ nên dịch sai.","can_remove":false,"created_time":"2013-08-01T16:35:28+0000","like_count":3,"user_likes":false},"696112063738807":{"id":"696112063738807","from":{"id":"1146680551","name":"優しい なぁ"},"message":"Nó mang nghĩa nguyên nhân mà.:)","can_remove":false,"created_time":"2013-08-01T16:35:36+0000","like_count":0,"user_likes":false},"696112253738788":{"id":"696112253738788","from":{"id":"1341670471","name":"An Nguyen"},"message":"Thì mọi ng giải thích nãy giờ e k hiểu. Nghĩa thì giống nhau nhưng quan trọng dùng cho trường hợp nào","can_remove":false,"created_time":"2013-08-01T16:36:32+0000","like_count":1,"user_likes":false},"696112257072121":{"id":"696112257072121","from":{"id":"100001495688011","name":"Chung Kếu"},"message":"Vâng. Vậy nên em mới nhờ mọi người giúp đỡ.","can_remove":false,"created_time":"2013-08-01T16:36:33+0000","like_count":0,"user_likes":false},"696112943738719":{"id":"696112943738719","from":{"id":"1341670471","name":"An Nguyen"},"message":"Thì bây giờ e đã biết dùng từ nào chưa :) .","can_remove":false,"created_time":"2013-08-01T16:38:26+0000","like_count":0,"user_likes":false},"696113627071984":{"id":"696113627071984","from":{"id":"100001495688011","name":"Chung Kếu"},"message":"Đại khái là 1.nguyên nhân 2.lí do nhưng khi nào cái 2 kia dịch sang nguyên nhân thì em vẫn chưa rõ lắm :v anh An Nguyen ạ!","message_tags":[{"id":"1341670471","name":"An Nguyen","type":"user","offset":110,"length":9}],"can_remove":false,"created_time":"2013-08-01T16:40:15+0000","like_count":0,"user_likes":false},"696114427071904":{"id":"696114427071904","from":{"id":"1146680551","name":"優しい なぁ"},"message":"sao lai dich sang nguyen nhan duoc.","can_remove":false,"created_time":"2013-08-01T16:43:04+0000","like_count":0,"user_likes":false},"696114737071873":{"id":"696114737071873","from":{"id":"100002290906582","name":"Kanashimi No Yukue"},"message":"riyuu chỉ dịch là lý do thôi chứ =.=","can_remove":false,"created_time":"2013-08-01T16:44:08+0000","like_count":0,"user_likes":false},"696116493738364":{"id":"696116493738364","from":{"id":"1341670471","name":"An Nguyen"},"message":"Thường thì mình chỉ dịch riyuu ra lí do thôi.. Còn genin thì thường là nguyên nhân, nguyên do , hay dùng cho việc k đc tốt..","can_remove":false,"created_time":"2013-08-01T16:49:03+0000","like_count":0,"user_likes":false},"696117813738232":{"id":"696117813738232","from":{"id":"100001495688011","name":"Chung Kếu"},"message":"Qủa thực đem 1 vấn đề ra thảo luận ngộ ra nhanh thật, chứ cứ tù túng với quyển sách thì có vẻ hơi bị khó nhằn.","can_remove":false,"created_time":"2013-08-01T16:52:41+0000","like_count":0,"user_likes":false},"696119690404711":{"id":"696119690404711","from":{"id":"100001495688011","name":"Chung Kếu"},"message":"Ngoài lề 1 chút, cho em hỏi anh Kham Pha có học hedspi không ạ?","message_tags":[{"id":"100001458099624","name":"Kham Pha","type":"user","offset":32,"length":8}],"can_remove":false,"created_time":"2013-08-01T16:57:06+0000","like_count":0,"user_likes":false},"696139313736082":{"id":"696139313736082","from":{"id":"100005821055767","name":"Thu Hà"},"message":"cho em hỏi sao toàn ô vuông thế ạ?^^","can_remove":false,"created_time":"2013-08-01T17:40:29+0000","like_count":0,"user_likes":false},"696280183721995":{"id":"696280183721995","from":{"id":"100001458099624","name":"Kham Pha"},"message":"@chung keu: anh là k54 hedspi đây :)","can_remove":false,"created_time":"2013-08-01T23:54:44+0000","like_count":0,"user_likes":false},"696280503721963":{"id":"696280503721963","from":{"id":"100001458099624","name":"Kham Pha"},"message":"@ngoc: máy em chắc chưa cái font tiếng Nhật.","can_remove":false,"created_time":"2013-08-01T23:55:38+0000","like_count":0,"user_likes":false},"696703830346297":{"id":"696703830346297","from":{"id":"100003109711563","name":"Độc Lang"},"message":"かじのげんいんはたばこですか。","can_remove":false,"created_time":"2013-08-02T14:23:30+0000","like_count":1,"user_likes":false},"696705603679453":{"id":"696705603679453","from":{"id":"100003109711563","name":"Độc Lang"},"message":"理由と原因は同じ意味ですが。場面はちょっと違います。理由を使う場合は自分のせいを言うとき使う。原因は逆です。","can_remove":false,"created_time":"2013-08-02T14:28:14+0000","like_count":1,"user_likes":false}},"paging":{"cursors":{"after":"Njk2MTA2NDk3MDcyNjk3","before":"Njk2MTA2NDk3MDcyNjk3"},"next":"https://graph.facebook.com/229244010425617_696095140407166/comments?limit=1&summary=1&after=Njk2MTA2NDk3MDcyNjk3"},"summary":{"order":"chronological","total_count":27}}}