{"id":"229244010425617_696332840383396","type":"video","picture":"https://fbexternal-a.akamaihd.net/safe_image.php?d=AQDUZByB77JTQaYI&w=130&h=130&url=http%3A%2F%2Fi1.ytimg.com%2Fvi%2F6ZToJc2sXn0%2Fhqdefault.jpg%3Ffeature%3Dog","link":"http://www.youtube.com/watch?v=6ZToJc2sXn0&list=PLAhx2XOq4JzKfT81930rG5y_6ECC_9opB","source":"http://www.youtube.com/v/6ZToJc2sXn0?autohide=1&version=3&autoplay=1","from":{"id":"100001416272263","name":"Mai PB"},"message":"Chắc nhiều người đã từng nghe bài này bằng tiếng...Việt? ^^ http://www.youtube.com/watch?v=6ZToJc2sXn0&list=PLAhx2XOq4JzKfT81930rG5y_6ECC_9opB","created_time":"2013-08-02T02:35:08+0000","updated_time":"2013-08-02T04:16:32+0000","likes":{"data":{"100001227216008":{"id":"100001227216008","name":"Phùng Tiến"},"100004642933206":{"id":"100004642933206","name":"Aloha Aloha"},"100001628612184":{"id":"100001628612184","name":"Mai Tròn"},"100003939756464":{"id":"100003939756464","name":"Cỏ Dại"},"1042936079":{"id":"1042936079","name":"Bui Dung"},"100001295728224":{"id":"100001295728224","name":"Nhím Sumo"},"100002931952583":{"id":"100002931952583","name":"Mai Anh Nguyen"},"100001754136107":{"id":"100001754136107","name":"Nguyễn Tuấn Vũ"},"795524058":{"id":"795524058","name":"Lucky Sally"},"100003162969192":{"id":"100003162969192","name":"Minh Zung Zing"},"100000022163023":{"id":"100000022163023","name":"Kafe Ore"},"100002327743510":{"id":"100002327743510","name":"Tuan Thanh"},"100002205114663":{"id":"100002205114663","name":"Le My"},"100004423929378":{"id":"100004423929378","name":"Hải Âu"},"100003102655084":{"id":"100003102655084","name":"Cô Gái Xứ Dừa"},"100004514621076":{"id":"100004514621076","name":"Hason Angle"},"1821970083":{"id":"1821970083","name":"Nguyễn Mạnh Cường"},"100000280776405":{"id":"100000280776405","name":"Viet Nguyen Thanh"}},"paging":{"cursors":{"after":"MTAwMDAxMjI3MjE2MDA4","before":"MTAwMDAxMjI3MjE2MDA4"},"next":"https://graph.facebook.com/229244010425617_696332840383396/likes?limit=1&summary=1&after=MTAwMDAxMjI3MjE2MDA4"},"summary":{"total_count":19}},"comments":{"data":{"696334543716559":{"id":"696334543716559","from":{"id":"100001458099624","name":"Kham Pha"},"message":"anh Mai PB hoài cổ v~. Hồi trc lớp em tập văn nghệ hát bài này mà khối người Nhật ko biết :))","message_tags":[{"id":"100001416272263","name":"Mai PB","type":"user","offset":4,"length":6}],"can_remove":false,"created_time":"2013-08-02T02:37:27+0000","like_count":0,"user_likes":false},"696335677049779":{"id":"696335677049779","from":{"id":"100001416272263","name":"Mai PB"},"message":"Lớp e là lớp nào mà tập bài này?","can_remove":false,"created_time":"2013-08-02T02:39:39+0000","like_count":0,"user_likes":false},"696336810382999":{"id":"696336810382999","from":{"id":"100001416272263","name":"Mai PB"},"message":"Nếu bài hát này không được phổ biến trên toàn châu Á trừ...Nhật thì nó cũng không được nổi tiếng đến thế. Người Nhật không biết là phải, vì cô ca sĩ này là một người rất tài năng nhưng có xu hướng ẩn dật. Đáng tiếc.","can_remove":false,"created_time":"2013-08-02T02:42:38+0000","like_count":0,"user_likes":false},"696337010382979":{"id":"696337010382979","from":{"id":"100001458099624","name":"Kham Pha"},"message":"Hồi trước khi sang Nhật em học 2 năm ở BKHN, trong cái chương trình gọi là hedspi, học về CNTT và tiếng Nhật. Mục tiêu chương trình là đào tạo các kĩ sư cầu nối giữa 2 nước. Mỗi khóa có 20 người được sang Nhật.","can_remove":false,"created_time":"2013-08-02T02:43:07+0000","like_count":1,"user_likes":false},"696337033716310":{"id":"696337033716310","from":{"id":"100004741563850","name":"Sỹ Trương"},"message":"bai tieng viet la gi vay","can_remove":false,"created_time":"2013-08-02T02:43:13+0000","like_count":0,"user_likes":false},"696339440382736":{"id":"696339440382736","from":{"id":"100001416272263","name":"Mai PB"},"message":"Hình như là \"Khi cô đơn em gọi tên anh\". Hải ngoại phiên dịch qua bản Hongkong. :-D","can_remove":false,"created_time":"2013-08-02T02:49:25+0000","like_count":2,"user_likes":false},"696424673707546":{"id":"696424673707546","from":{"id":"100001501391912","name":"Lai Hoang Duc"},"message":"m nhớ mỗi câu cuối =))=))=))","can_remove":false,"created_time":"2013-08-02T03:31:27+0000","like_count":0,"user_likes":false},"696443783705635":{"id":"696443783705635","from":{"id":"100001416272263","name":"Mai PB"},"message":"Bài hát này không người Indonesia nào không biết, được coi như quốc ca thứ 2 của đảo quốc này. Ngay cả tác giả cũng ngạc nhiên chẳng hiểu bài hát này thu hút người Indo ở chỗ nào, nhưng chắc chắn lời dịch tiếng Indo không linh tinh như lời Việt rồi nhỉ. ;-)","can_remove":false,"created_time":"2013-08-02T04:16:32+0000","like_count":0,"user_likes":false}},"paging":{"cursors":{"after":"Njk2MzM0NTQzNzE2NTU5","before":"Njk2MzM0NTQzNzE2NTU5"},"next":"https://graph.facebook.com/229244010425617_696332840383396/comments?limit=1&summary=1&after=Njk2MzM0NTQzNzE2NTU5"},"summary":{"order":"chronological","total_count":8}}}