{"id":"229244010425617_697099256973421","type":"status","from":{"id":"100001594722256","name":"Viết An Phạm"},"message":"Mình đang cần mua một em máy tính giá tầm 5 man trở lại. Hãng nào cũng được, cấu hình không cần mạnh lắm. Bạn nào có hàng bán thì pm cho mình và gửi cho mình thông số và cái hình nhé! Cảm ơn.","created_time":"2013-08-03T02:53:38+0000","updated_time":"2013-08-04T12:57:10+0000","comments":{"data":{"697106730306007":{"id":"697106730306007","from":{"id":"100001416272263","name":"Mai PB"},"message":"Nếu e đang ở Nhật thì ra cửa hàng khg thiếu.","can_remove":false,"created_time":"2013-08-03T03:21:59+0000","like_count":1,"user_likes":false},"697318426951504":{"id":"697318426951504","from":{"id":"100001594722256","name":"Viết An Phạm"},"message":"Dạ em đi aki rồi nhưng mà giá cũng ko rẻ lắm, với lại em muốn mua lại của người khác cho nó đảm bảo chất lượng.","can_remove":false,"created_time":"2013-08-03T15:52:12+0000","like_count":0,"user_likes":false},"697532503596763":{"id":"697532503596763","from":{"id":"100001416272263","name":"Mai PB"},"message":"Ra Sofmap chưa?","can_remove":false,"created_time":"2013-08-04T03:09:41+0000","like_count":0,"user_likes":false},"697565126926834":{"id":"697565126926834","from":{"id":"100001594722256","name":"Viết An Phạm"},"message":"Somap ở đâu vậy anh?","can_remove":false,"created_time":"2013-08-04T04:18:13+0000","like_count":0,"user_likes":false},"697565900260090":{"id":"697565900260090","from":{"id":"100001416272263","name":"Mai PB"},"message":"Akihabara có đấy","can_remove":false,"created_time":"2013-08-04T04:21:16+0000","like_count":0,"user_likes":false},"697566340260046":{"id":"697566340260046","from":{"id":"100001594722256","name":"Viết An Phạm"},"message":"Dạ, em hiểu rồi. Cảm ơn anh nhé!","can_remove":false,"created_time":"2013-08-04T04:22:56+0000","like_count":0,"user_likes":false},"697704736912873":{"id":"697704736912873","from":{"id":"100000184434912","name":"Trần Tráng"},"message":"A Mai PB cho e hỏi có biet chổ nào bán đthoai rẻ nhất có thể ko ạ, chỉ cho e vs. thanks a","message_tags":[{"id":"100001416272263","name":"Mai PB","type":"user","offset":2,"length":6}],"can_remove":false,"created_time":"2013-08-04T12:57:10+0000","like_count":0,"user_likes":false}},"paging":{"cursors":{"after":"Njk3MTA2NzMwMzA2MDA3","before":"Njk3MTA2NzMwMzA2MDA3"},"next":"https://graph.facebook.com/229244010425617_697099256973421/comments?limit=1&summary=1&after=Njk3MTA2NzMwMzA2MDA3"},"summary":{"order":"chronological","total_count":7}},"likes":{"data":[]}}