{"id":"229244010425617_697190966964250","type":"status","from":{"id":"100002508122689","name":"Vũ Mạnh Tuấn"},"message":"Cho em hỏi 1 chút. Trong 1 cái điều tra \n親の　意見に　従わなければ　ならないと　思いますか。\ncó 1 mục như sau : どちらかと　言えば　そう　思わない。\n\nVậy cái cụm  どちらかと　言えば　そう　思わない dịch ra sao ạ .","created_time":"2013-08-03T09:03:54+0000","updated_time":"2013-08-03T12:19:42+0000","likes":{"data":{"100006519661224":{"id":"100006519661224","name":"Phương Trinh"}},"paging":{"cursors":{"after":"MTAwMDA2NTE5NjYxMjI0","before":"MTAwMDA2NTE5NjYxMjI0"}},"summary":{"total_count":1}},"comments":{"data":{"697192216964125":{"id":"697192216964125","from":{"id":"100001754136107","name":"Nguyễn Tuấn Vũ"},"message":"Nếu mà nói theo cách nào thì tôi cũng ko nghĩ như vậy","can_remove":false,"created_time":"2013-08-03T09:10:02+0000","like_count":1,"user_likes":false},"697213186962028":{"id":"697213186962028","from":{"id":"100006519661224","name":"Phương Trinh"},"message":">:(","can_remove":false,"created_time":"2013-08-03T10:42:17+0000","like_count":0,"user_likes":false},"697213500295330":{"id":"697213500295330","from":{"id":"100002508122689","name":"Vũ Mạnh Tuấn"},"message":"Nguyễn Tuấn Vũ: nghe dịch cũng hơi lủng củng, e chưa hiểu lắm","message_tags":[{"id":"100001754136107","name":"Nguyễn Tuấn Vũ","type":"user","offset":0,"length":14}],"can_remove":false,"created_time":"2013-08-03T10:44:25+0000","like_count":0,"user_likes":false},"697214676961879":{"id":"697214676961879","from":{"id":"100001416272263","name":"Mai PB"},"message":"Nếu phải chọn thì tôi chọn \"không đồng ý\" (với ý kiến trên)","can_remove":false,"created_time":"2013-08-03T10:51:26+0000","like_count":1,"user_likes":false},"697216003628413":{"id":"697216003628413","from":{"id":"100001416272263","name":"Mai PB"},"message":"Người Nhật rất chi là không quyết đoán nên mới đẻ cái kiểu nói trên, tức là không khẳng định hay phủ định rõ ràng (chém gió như VN vậy), mà nói cái kiểu miễn cưỡng chọn lựa: nếu phải chọn thì tôi sẽ chọn... Mình thì lại ghét kiểu nói này, quả nhiên vẫn là gien người Việt. ^^","can_remove":false,"created_time":"2013-08-03T10:57:14+0000","like_count":2,"user_likes":false},"697217460294934":{"id":"697217460294934","from":{"id":"100002508122689","name":"Vũ Mạnh Tuấn"},"message":"trog câu hỏi có viết là : 親と意見が違ったら、従わなくてもいい 、vậy có phải là cùng ý tưởng với cái どちらかと　言えば　そう　思わない ko ạ","can_remove":false,"created_time":"2013-08-03T11:03:07+0000","like_count":0,"user_likes":false},"697218186961528":{"id":"697218186961528","from":{"id":"100000198219367","name":"Chang Jiang"},"message":"Em ko nghĩ như vậy ở điểm nào?","can_remove":false,"created_time":"2013-08-03T11:05:23+0000","like_count":0,"user_likes":false},"697218466961500":{"id":"697218466961500","from":{"id":"100002508122689","name":"Vũ Mạnh Tuấn"},"message":"Chang Jiang , a trả lời hộ e cái câu comment ở trên với","message_tags":[{"id":"100000198219367","name":"Chang Jiang","type":"user","offset":0,"length":11}],"can_remove":false,"created_time":"2013-08-03T11:06:41+0000","like_count":0,"user_likes":false},"697218776961469":{"id":"697218776961469","from":{"id":"100000198219367","name":"Chang Jiang"},"message":"thì tất cả ý nghĩa là như vầy đó\n\n\"Em nghĩ có bắt buộc phải theo ý kiến phụ huynh ko?\"\n\n\"Em không nghĩ như vậy ở điểm nào?\"","can_remove":false,"created_time":"2013-08-03T11:08:03+0000","like_count":0,"user_likes":false},"697219853628028":{"id":"697219853628028","from":{"id":"100001416272263","name":"Mai PB"},"message":"Chang Jiang, \"どちらかと言えばそう思わない\"  không phải là câu hỏi.","message_tags":[{"id":"100000198219367","name":"Chang Jiang","type":"user","offset":0,"length":11}],"can_remove":false,"created_time":"2013-08-03T11:11:34+0000","like_count":1,"user_likes":false},"697220060294674":{"id":"697220060294674","from":{"id":"100001416272263","name":"Mai PB"},"message":"Có lẽ ngoài lựa chọn đó còn có \"そう思う\" \"そう思わない\" \"どちらかと言えばそう思う\"","can_remove":false,"created_time":"2013-08-03T11:12:11+0000","like_count":1,"user_likes":false},"697220083628005":{"id":"697220083628005","from":{"id":"100002508122689","name":"Vũ Mạnh Tuấn"},"message":"ơ ko phải ạ, cái câu sau đâu có phải là câu hỏi. \nnguyên văn bài này nó cho 1 cái biểu đồ thăm dò, câu hỏi là \"Em nghĩ có bắt buộc phải theo ý kiến phụ huynh ko?\"\nCác câu trả lời là các ý kiến :\n1. そう思う\n2　どちらかと言えば総思う\n３．どちらかと言えばそう思うわない\n④．あまりそう思わない\n５わからない","can_remove":false,"created_time":"2013-08-03T11:12:16+0000","like_count":0,"user_likes":false},"697220570294623":{"id":"697220570294623","from":{"id":"100001416272263","name":"Mai PB"},"message":"Vậy Vũ Mạnh Tuấn hiểu rồi chứ, còn thắc mắc gì không?","message_tags":[{"id":"100002508122689","name":"Vũ Mạnh Tuấn","type":"user","offset":4,"length":12}],"can_remove":false,"created_time":"2013-08-03T11:13:50+0000","like_count":1,"user_likes":false},"697220773627936":{"id":"697220773627936","from":{"id":"100002508122689","name":"Vũ Mạnh Tuấn"},"message":"cái cốt lõi em chỉ muốn hỏi dịch cái câu どちらかと言えばそう思うわない chính xác là ntn ạ","can_remove":false,"created_time":"2013-08-03T11:14:39+0000","like_count":0,"user_likes":false},"697220873627926":{"id":"697220873627926","from":{"id":"100001416272263","name":"Mai PB"},"message":"Anh dịch rồi còn gì? Nếu phải chọn thì tôi chọn \"không đồng ý\"","can_remove":false,"created_time":"2013-08-03T11:15:08+0000","like_count":2,"user_likes":false},"697221083627905":{"id":"697221083627905","from":{"id":"100002508122689","name":"Vũ Mạnh Tuấn"},"message":"à ra vậy ạ. em hiểu rồi. \nem tưởng anh đag nêu ý kiến bản thân anh.\nem cảm ơn","can_remove":false,"created_time":"2013-08-03T11:15:56+0000","like_count":0,"user_likes":false},"697221276961219":{"id":"697221276961219","from":{"id":"100001416272263","name":"Mai PB"},"message":"^^","can_remove":false,"created_time":"2013-08-03T11:16:33+0000","like_count":0,"user_likes":false},"697221816961165":{"id":"697221816961165","from":{"id":"100001754136107","name":"Nguyễn Tuấn Vũ"},"message":"Nếu mà nói như thế nao.t cung ko đồng ý.","can_remove":false,"created_time":"2013-08-03T11:18:33+0000","like_count":1,"user_likes":false},"697233923626621":{"id":"697233923626621","from":{"id":"1504117663","name":"Tom Hư Hỏng"},"message":"Anh Mai PB dịch đúng nhất!!!!","can_remove":false,"created_time":"2013-08-03T11:56:53+0000","like_count":0,"user_likes":false},"697241740292506":{"id":"697241740292506","from":{"id":"100002060967373","name":"Mai Hoang"},"message":"mình thì lại nghĩ theo ý là kiểu gì thì kiểu tôi cũng ko nghĩ như vậy :))","can_remove":false,"created_time":"2013-08-03T12:19:42+0000","like_count":0,"user_likes":false}},"paging":{"cursors":{"after":"Njk3MTkyMjE2OTY0MTI1","before":"Njk3MTkyMjE2OTY0MTI1"},"next":"https://graph.facebook.com/229244010425617_697190966964250/comments?limit=1&summary=1&after=Njk3MTkyMjE2OTY0MTI1"},"summary":{"order":"chronological","total_count":20}}}