{"id":"229244010425617_697297156953631","type":"status","from":{"id":"100000195299558","name":"Giọt Sương Sớm Mai"},"message":"アルバイトがほしいですが、\nだれか 教えてくれませんか。","created_time":"2013-08-03T14:58:18+0000","updated_time":"2013-08-08T05:33:32+0000","likes":{"data":{"100003947703119":{"id":"100003947703119","name":"Thinh Ha"},"100001718883015":{"id":"100001718883015","name":"Sayonara Daisukina Hito"},"100003877275415":{"id":"100003877275415","name":"Yuki"}},"paging":{"cursors":{"after":"MTAwMDAzOTQ3NzAzMTE5","before":"MTAwMDAzOTQ3NzAzMTE5"},"next":"https://graph.facebook.com/229244010425617_697297156953631/likes?limit=1&summary=1&after=MTAwMDAzOTQ3NzAzMTE5"},"summary":{"total_count":3}},"comments":{"data":{"697298800286800":{"id":"697298800286800","from":{"id":"100002409167805","name":"Phôn Linh"},"message":"Doko wo sunde iku?","can_remove":false,"created_time":"2013-08-03T15:03:18+0000","like_count":0,"user_likes":false},"697299983620015":{"id":"697299983620015","from":{"id":"100000195299558","name":"Giọt Sương Sớm Mai"},"message":"埼玉県さいたま市南区にすんでいる","can_remove":false,"created_time":"2013-08-03T15:06:19+0000","like_count":0,"user_likes":false},"697303146953032":{"id":"697303146953032","from":{"id":"100005087436518","name":"Vũ Trịnh"},"message":"người ta hỏi doko wo mà bạn","can_remove":false,"created_time":"2013-08-03T15:15:41+0000","like_count":0,"user_likes":false},"697303676952979":{"id":"697303676952979","from":{"id":"100000195299558","name":"Giọt Sương Sớm Mai"},"message":"Chua gap truong hop dung doko wo bjo","can_remove":false,"created_time":"2013-08-03T15:17:00+0000","like_count":1,"user_likes":false},"697303780286302":{"id":"697303780286302","from":{"id":"100000195299558","name":"Giọt Sương Sớm Mai"},"message":"Nen ko bjt mong ban chj giao","can_remove":false,"created_time":"2013-08-03T15:17:20+0000","like_count":0,"user_likes":false},"697304466952900":{"id":"697304466952900","from":{"id":"100005087436518","name":"Vũ Trịnh"},"message":"mjnh cug chua gap thi chi? giao the nao dk","can_remove":false,"created_time":"2013-08-03T15:19:13+0000","like_count":1,"user_likes":false},"697306380286042":{"id":"697306380286042","from":{"id":"100000195299558","name":"Giọt Sương Sớm Mai"},"message":"Ek ban noi ngta dung doko wo co ma. Lam mjnh tg mjnh sai. Vj chua  hoc kem nen chua thay truong hop nao dung wo","can_remove":false,"created_time":"2013-08-03T15:24:23+0000","like_count":0,"user_likes":false},"697316596951687":{"id":"697316596951687","from":{"id":"100003947703119","name":"Thinh Ha"},"message":"Tiếc quá bạn xa chỗ mình quá","can_remove":false,"created_time":"2013-08-03T15:47:40+0000","like_count":0,"user_likes":false},"697318360284844":{"id":"697318360284844","from":{"id":"100000195299558","name":"Giọt Sương Sớm Mai"},"message":"The ban Thinh Ha o dau vay? O day co nhiu viec lam them ko?","can_remove":false,"created_time":"2013-08-03T15:52:01+0000","like_count":0,"user_likes":false},"697319140284766":{"id":"697319140284766","from":{"id":"100003947703119","name":"Thinh Ha"},"message":"Mình dưới nago có bạn ak.mình mới về VN đc 1 tuần.chỗ mình nhiều việc tenchoo cũng đag hỏi mà","can_remove":false,"created_time":"2013-08-03T15:54:16+0000","like_count":1,"user_likes":false},"697320443617969":{"id":"697320443617969","from":{"id":"100000195299558","name":"Giọt Sương Sớm Mai"},"message":"Vay ak. Ma xa qua tiec that day. M sag dc 1thag oi chua co viec cung dong sot sinh sick len day ^o^","can_remove":false,"created_time":"2013-08-03T15:57:31+0000","like_count":0,"user_likes":false},"697340246949322":{"id":"697340246949322","from":{"id":"100003947703119","name":"Thinh Ha"},"message":"Mới 1 thang thì cos gắng học đi.lo việc.hì mình sang đc 4 năm r","can_remove":false,"created_time":"2013-08-03T16:39:15+0000","like_count":0,"user_likes":false},"697529820263698":{"id":"697529820263698","from":{"id":"100001754136107","name":"Nguyễn Tuấn Vũ"},"message":":) chắc bạn đấy dung sai ấy\nmới sang cố gắng học đi","can_remove":false,"created_time":"2013-08-04T03:00:06+0000","like_count":1,"user_likes":false},"697564216926925":{"id":"697564216926925","from":{"id":"100000195299558","name":"Giọt Sương Sớm Mai"},"message":"Hj chac ban y nho nham. M hoi sensei minh co truong hop nao dung nt ko? Co bao dung nhu the thj おかしい","can_remove":false,"created_time":"2013-08-04T04:14:59+0000","like_count":0,"user_likes":false},"697746793575334":{"id":"697746793575334","from":{"id":"100004826612667","name":"Đào Hạnh"},"message":"Bạn vào trang này tìm và gọi điện thoạihttp://townwork.net/sp/fz00000s_arc_1/\nNếu tiếng vẫn kém thì ra ハローワークtìm","can_remove":false,"created_time":"2013-08-04T14:41:55+0000","like_count":0,"user_likes":false},"698150846868262":{"id":"698150846868262","from":{"id":"100000195299558","name":"Giọt Sương Sớm Mai"},"message":"Tim o ハローワーク co mat fi ko ban Đào Hạnh ?","message_tags":[{"id":"100004826612667","name":"Đào Hạnh","type":"user","offset":30,"length":8}],"can_remove":false,"created_time":"2013-08-05T10:06:19+0000","like_count":0,"user_likes":false},"699574283392585":{"id":"699574283392585","from":{"id":"100001416272263","name":"Mai PB"},"message":"miễn phí, Giọt Sương Sớm Mai","message_tags":[{"id":"100000195299558","name":"Giọt Sương Sớm Mai","type":"user","offset":10,"length":18}],"can_remove":false,"created_time":"2013-08-08T05:33:32+0000","like_count":2,"user_likes":false}},"paging":{"cursors":{"after":"Njk3Mjk4ODAwMjg2ODAw","before":"Njk3Mjk4ODAwMjg2ODAw"},"next":"https://graph.facebook.com/229244010425617_697297156953631/comments?limit=1&summary=1&after=Njk3Mjk4ODAwMjg2ODAw"},"summary":{"order":"chronological","total_count":17}}}