{"id":"229244010425617_697217476961599","type":"status","from":{"id":"100000160682677","name":"Phong Nguyen Huy"},"message":"Cần tuyển 2 nhân viên nữ làm việc quán việt nam tại Tsushi mieken.\nYêu cầu : Ngoại hình khá, giọng dễ nghe, chiều cao 1.55 trở lên.\nNội dung công việc: pha đồ uống và dọn dẹp bàn...\nThời gian Lv 20h - 1h.\nLương 1300yen/1h.\nDo nhận lương tay nên ko kể viza dưới tất cả hình thức gì, kể cả đã hết hạn.\nƯu tiên cho các bạn đang TÚNG THIẾU và CHƯA có việc làm.","created_time":"2013-08-03T11:03:12+0000","updated_time":"2013-08-09T08:43:51+0000","likes":{"data":{"100004705145167":{"id":"100004705145167","name":"Ngọc Tuệ Bạch"},"100001520415275":{"id":"100001520415275","name":"Mít Ương"},"1821970083":{"id":"1821970083","name":"Nguyễn Mạnh Cường"},"100001458099624":{"id":"100001458099624","name":"Kham Pha"},"100000055620187":{"id":"100000055620187","name":"Nguyễn Phương Liên"},"100000195299558":{"id":"100000195299558","name":"Giọt Sương Sớm Mai"},"100006519661224":{"id":"100006519661224","name":"Phương Trinh"}},"paging":{"cursors":{"after":"MTAwMDA0NzA1MTQ1MTY3","before":"MTAwMDA0NzA1MTQ1MTY3"},"next":"https://graph.facebook.com/229244010425617_697217476961599/likes?limit=1&summary=1&after=MTAwMDA0NzA1MTQ1MTY3"},"summary":{"total_count":7}},"comments":{"data":{"697219070294773":{"id":"697219070294773","from":{"id":"100006519661224","name":"Phương Trinh"},"message":":-O","can_remove":false,"created_time":"2013-08-03T11:09:03+0000","like_count":0,"user_likes":false},"697237636959583":{"id":"697237636959583","from":{"id":"100003235972334","name":"Az Xa Quê"},"message":"Ga nào vậy?","can_remove":false,"created_time":"2013-08-03T12:05:52+0000","like_count":0,"user_likes":false},"697239503626063":{"id":"697239503626063","from":{"id":"100001416272263","name":"Mai PB"},"message":"Nhờ ng ta mà nói năng chỏng gọn vậy sao, Az Xa Quê?","can_remove":false,"created_time":"2013-08-03T12:12:36+0000","like_count":2,"user_likes":false},"697250320291648":{"id":"697250320291648","from":{"id":"100000603915176","name":"悪いな ぁ"},"message":"Cho xin một suất nhá, đợi mềnh đi chuyển giới phát ;)","can_remove":false,"created_time":"2013-08-03T12:43:38+0000","like_count":0,"user_likes":false},"697252083624805":{"id":"697252083624805","from":{"id":"100000160682677","name":"Phong Nguyen Huy"},"message":"vào bếp tự thiến luôn đê! mai báo đi làm luôn! hỳ","can_remove":false,"created_time":"2013-08-03T12:49:38+0000","like_count":0,"user_likes":false},"697254513624562":{"id":"697254513624562","from":{"id":"100003235972334","name":"Az Xa Quê"},"message":"Sr các bác em tranh thủ viết đc câu rồi phải vào làm ngay hihi...","can_remove":false,"created_time":"2013-08-03T12:58:00+0000","like_count":0,"user_likes":false},"697255180291162":{"id":"697255180291162","from":{"id":"100003877451650","name":"Huy Tự"},"message":"Thi lam may Nam vay a ô","can_remove":false,"created_time":"2013-08-03T12:59:44+0000","like_count":0,"user_likes":false},"697256346957712":{"id":"697256346957712","from":{"id":"100003877451650","name":"Huy Tự"},"message":"The cho e lam dc ko","can_remove":false,"created_time":"2013-08-03T13:02:59+0000","like_count":0,"user_likes":false},"697289036954443":{"id":"697289036954443","from":{"id":"100000195299558","name":"Giọt Sương Sớm Mai"},"message":"Cho m dky 1xuat dag tung thieu, doi kem","can_remove":false,"created_time":"2013-08-03T14:39:08+0000","like_count":0,"user_likes":false},"697289500287730":{"id":"697289500287730","from":{"id":"100000195299558","name":"Giọt Sương Sớm Mai"},"message":"Nhung ngoai hinh thj xau noi giong ko hay. Ko bjt co dat tieu chuan ko nhi","can_remove":false,"created_time":"2013-08-03T14:39:57+0000","like_count":0,"user_likes":false},"697314033618610":{"id":"697314033618610","from":{"id":"100003077687581","name":"Để Gió Cuốn Đi"},"message":"a oi em lam dc ko hicccc","can_remove":false,"created_time":"2013-08-03T15:41:19+0000","like_count":0,"user_likes":false},"697328233617190":{"id":"697328233617190","from":{"id":"100000160682677","name":"Phong Nguyen Huy"},"message":"Tran Thu Hang được đấy! nhưng làm xong 1h sáng bay về tomida nhá!","message_tags":[{"id":"100003077687581","name":"Tran Thu Hang","type":"user","offset":0,"length":13}],"can_remove":false,"created_time":"2013-08-03T16:20:03+0000","like_count":0,"user_likes":false},"697328466950500":{"id":"697328466950500","from":{"id":"100003077687581","name":"Để Gió Cuốn Đi"},"message":"ko lam den 11: 30 dc ah a Phong Nguyen Huy","message_tags":[{"id":"100000160682677","name":"Phong Nguyen Huy","type":"user","offset":26,"length":16}],"can_remove":false,"created_time":"2013-08-03T16:21:08+0000","like_count":0,"user_likes":false},"697328640283816":{"id":"697328640283816","from":{"id":"100003077687581","name":"Để Gió Cuốn Đi"},"message":"heee, mai e lắp cái moto dang sau nhe","can_remove":false,"created_time":"2013-08-03T16:21:32+0000","like_count":0,"user_likes":false},"697569283593085":{"id":"697569283593085","from":{"id":"100000160682677","name":"Phong Nguyen Huy"},"message":"Ko được! làm đến 1h sáng thôi à!","can_remove":false,"created_time":"2013-08-04T04:35:03+0000","like_count":0,"user_likes":false},"699260376757309":{"id":"699260376757309","from":{"id":"100000160682677","name":"Phong Nguyen Huy"},"message":"Còn 1 suất nữa! ai ở gần đó hoặc có bạn bè muốn kiếm thêm thu nhập liên hệ mình nhé!","can_remove":false,"created_time":"2013-08-07T13:57:16+0000","like_count":0,"user_likes":false},"699750820041598":{"id":"699750820041598","from":{"id":"100004747622463","name":"Tuan Phuong"},"message":"Ban oi cv nay co can nam gioi lm dc ko ak.dia diem co o osaka ko ak","can_remove":false,"created_time":"2013-08-08T14:57:37+0000","like_count":0,"user_likes":false},"699753043374709":{"id":"699753043374709","from":{"id":"100004747622463","name":"Tuan Phuong"},"message":"Ban oi minh o ga tennoji osaka ban co cv nao thi gioi thieu cho minh lm voi minh dag can viec lam ak.cam on ban nhe","can_remove":false,"created_time":"2013-08-08T15:02:01+0000","like_count":0,"user_likes":false},"699804433369570":{"id":"699804433369570","from":{"id":"100001458099624","name":"Kham Pha"},"message":"lương này cao kinh, hồi trước mình đi làm thêm lập trình mà chỉ có 1200/h.","can_remove":false,"created_time":"2013-08-08T16:57:56+0000","like_count":0,"user_likes":false},"700111466672200":{"id":"700111466672200","from":{"id":"100000160682677","name":"Phong Nguyen Huy"},"message":"Quán này chỉ tuyển nữ thôi bạn à! mà địa chỉ mình ghi là ở MIEKEN rồi mà bạn! Các bạn tham gia nhóm https://www.facebook.com/groups/vietjapan/ có gì trao đổi thêm nhé","can_remove":false,"created_time":"2013-08-09T08:43:51+0000","like_count":0,"user_likes":false}},"paging":{"cursors":{"after":"Njk3MjE5MDcwMjk0Nzcz","before":"Njk3MjE5MDcwMjk0Nzcz"},"next":"https://graph.facebook.com/229244010425617_697217476961599/comments?limit=1&summary=1&after=Njk3MjE5MDcwMjk0Nzcz"},"summary":{"order":"chronological","total_count":20}}}