{"id":"229244010425617_697775896905757","type":"status","from":{"id":"100006430484366","name":"Lam Nhi"},"message":"Mấy anh chị ơi,có ai biết ở Biên Hoà có chỗ nào dạy tiếng Nhật không chỉ em với????\nEm là mem mới rất mong được sự giúp đỡ của mọi người.^_^","created_time":"2013-08-04T15:52:43+0000","updated_time":"2013-08-05T14:05:38+0000","likes":{"data":{"100001458099624":{"id":"100001458099624","name":"Kham Pha"},"100006430484366":{"id":"100006430484366","name":"Lam Nhi"}},"paging":{"cursors":{"after":"MTAwMDAxNDU4MDk5NjI0","before":"MTAwMDAxNDU4MDk5NjI0"},"next":"https://graph.facebook.com/229244010425617_697775896905757/likes?limit=1&summary=1&after=MTAwMDAxNDU4MDk5NjI0"},"summary":{"total_count":2}},"comments":{"data":{"697940133556000":{"id":"697940133556000","from":{"id":"100001512131413","name":"Chu Xuân"},"message":"trung tâm nhật ngữ taiyo hoặc đồng nai japan ở khu dân cư bửu long , đối diện với bến xe buýt biên hòa đó bạn.","can_remove":false,"created_time":"2013-08-04T23:43:10+0000","like_count":1,"user_likes":false},"698102090206471":{"id":"698102090206471","from":{"id":"100006430484366","name":"Lam Nhi"},"message":"Cho e hỏi 1 khoá học mấy tháng và bao nhiêu tiền vậy chị???","can_remove":false,"created_time":"2013-08-05T06:45:26+0000","like_count":0,"user_likes":false},"698142503535763":{"id":"698142503535763","from":{"id":"100006430484366","name":"Lam Nhi"},"message":"Chu Xuân","message_tags":[{"id":"100001512131413","name":"Chu Xuân","type":"user","offset":0,"length":8}],"can_remove":false,"created_time":"2013-08-05T09:33:30+0000","like_count":0,"user_likes":false},"698185340198146":{"id":"698185340198146","from":{"id":"100001512131413","name":"Chu Xuân"},"message":"chị k biết rõ e ak ,vì chị k làm ở đó , có j e liên hệ với trung tâm xem , face của trung tâm là \" nhật ngữ taiyo \" đó em . còn nếu em ở gần đường 5 thì có trung tâm đồng nai japan đó em","can_remove":false,"created_time":"2013-08-05T12:13:00+0000","like_count":0,"user_likes":false},"698256440191036":{"id":"698256440191036","from":{"id":"100006430484366","name":"Lam Nhi"},"message":"E cám ơn chị nhìu nha!!!!^^","can_remove":false,"created_time":"2013-08-05T14:05:18+0000","like_count":0,"user_likes":false},"698256543524359":{"id":"698256543524359","from":{"id":"100006430484366","name":"Lam Nhi"},"message":"Chu Xuân","message_tags":[{"id":"100001512131413","name":"Chu Xuân","type":"user","offset":0,"length":8}],"can_remove":false,"created_time":"2013-08-05T14:05:38+0000","like_count":0,"user_likes":false}},"paging":{"cursors":{"after":"Njk3OTQwMTMzNTU2MDAw","before":"Njk3OTQwMTMzNTU2MDAw"},"next":"https://graph.facebook.com/229244010425617_697775896905757/comments?limit=1&summary=1&after=Njk3OTQwMTMzNTU2MDAw"},"summary":{"order":"chronological","total_count":6}}}