{"id":"229244010425617_698271066856240","type":"photo","object_id":"558473087544623","picture":"https://fbcdn-photos-a-a.akamaihd.net/hphotos-ak-ash3/t1.0-0/556725_558473087544623_1647197793_s.jpg","link":"https://www.facebook.com/photo.php?fbid=558473087544623&set=gm.698271066856240&type=1&relevant_count=1","from":{"id":"100001458099624","name":"Kham Pha"},"message":"[Trải nghiệm cuộc sống Nhật] 優先席  - Ghế ưu tiên  \n\nBức hình này chụp tại một sân ga ở Nhật.\n\nDải màu vàng to đùng là đường ranh giới an toàn. Khi tàu đến sẽ có thông báo từ nhà ga  「危（あぶ）ないですから、黄色（きいろ）の内側（うちがわ）までお下（さ）がりください。」 nói rằng bạn nên đứng vào phía trong đường màu vàng cho an toàn. Những hạt tròn tròn nổi lên trong đường màu vàng là để cho người khiếm thị cũng phân biệt được.\n\nHai mũi tên vàng vàng bên cạnh là mốc để cho mọi người đứng xếp thành 2 hàng trước một cửa lên xuống. Khi tàu đến người trên tàu sẽ bước xuống qua phần giữa 2 mũi tên đó còn người đứng chờ phía dưới sẽ xếp hàng dãn ra sang hai bên để người xuống được nhanh chóng.  Sau khi người trên tàu xuống hết thì những người ở dưới mới bước vào, và tất nhiên là cũng theo hàng.\n\nMỗi toa tàu thường có 2-3 cửa ra vào. Một tàu thì có từ 6-15 toa. Nên trên sân ga có  rất nhiều mốc đứng như vậy. Tuy nhiên bức hình trên có một điểm đặc biệt là ở giữa 2 mũi tên màu vàng có một số biểu tượng ưu tiên. Vị trí nào có những biểu tượng này chứng tỏ là cái cửa tàu đỗ chỗ ấy sẽ có một số ghế ưu tiên（優先席ーゆうせんせき）. Vậy những đối tượng nào sẽ được ưu tiên? Theo thứ tự từ trái sang phải các bạn có thể dễ dàng thấy ngay:\n\n- Người già - お年寄り（としより）の方\n\n- Người khuyết tật, bị thương- 体の不自由（ふじゆう）な方\n\n- Người bế con nhỏ- 乳幼児（にゅうようじ）をお連（つ）れの方\n\n- Người ăn no　:))　 妊娠（にんしん）されている方\n\n- Và cuối cùng là ”Người đang yêu” - 医療（いりょう）機器（きき）をご使用の方　=)) \n\nPhía bên trái có dòng chữ「優先席付近（ふきん）では携帯電話（けいたいでんわ）の電源（でんげん）をお切（き）りください」 để nhắc nhở đến gần vùng ghế ưu tiên thì hãy tắt nguồn điện thoại vì nó có thể gây ảnh hưởng xấu đến sức khỏe của những đối tượng trên, đặc biệt là đối tượng cuối cùng.  \n\nChúc các bạn một buổi tối vui vẻ!\n\nKham Pha","created_time":"2013-08-05T14:42:10+0000","updated_time":"2014-04-03T08:19:33+0000","likes":{"data":{"1834022759":{"id":"1834022759","name":"Nga Hoàng Lê"},"100004560881891":{"id":"100004560881891","name":"Vân Họ Lê"},"100000500260636":{"id":"100000500260636","name":"Lưu Nguyễn Thảo Tiên"},"100003719334579":{"id":"100003719334579","name":"Hoàng Yến"},"569263718":{"id":"569263718","name":"Phuong Thao Tran"},"100003105034037":{"id":"100003105034037","name":"Pham Oanh"},"100006846840777":{"id":"100006846840777","name":"Đi Tìm Tương Lai"},"100004450956167":{"id":"100004450956167","name":"Thắng Satoh"},"100000299798248":{"id":"100000299798248","name":"Vẹt Đêm"},"100002773622026":{"id":"100002773622026","name":"Lai Uyển Minh"},"100001508739620":{"id":"100001508739620","name":"Lê Ngọc Hoàn"},"1146680551":{"id":"1146680551","name":"優しい なぁ"},"100000250256418":{"id":"100000250256418","name":"Nguyen Viet Anh"},"100002594112476":{"id":"100002594112476","name":"Thiên Di"},"100001526631937":{"id":"100001526631937","name":"Tường Oanh Mineko"},"100003340350463":{"id":"100003340350463","name":"Kim Thanh Tran"},"100001442509723":{"id":"100001442509723","name":"Nguyễn Mai Anh"},"100003925443381":{"id":"100003925443381","name":"Minh Thọ Ngô"},"100001044080438":{"id":"100001044080438","name":"Huyen Vy"},"100001806981402":{"id":"100001806981402","name":"Cookie Panda"},"1661261982":{"id":"1661261982","name":"Mầu Hà Quang"},"100000180985064":{"id":"100000180985064","name":"Trung Đồng"},"100000022163023":{"id":"100000022163023","name":"Kafe Ore"},"100002020543785":{"id":"100002020543785","name":"Bo Nguyễn"},"100000056652104":{"id":"100000056652104","name":"Du Di"},"100002508122689":{"id":"100002508122689","name":"Vũ Mạnh Tuấn"},"100004032585669":{"id":"100004032585669","name":"Đoàn Phú Minh"},"100002573114104":{"id":"100002573114104","name":"Một Ngày Gió"},"100001495688011":{"id":"100001495688011","name":"Chung Kếu"},"100000971222044":{"id":"100000971222044","name":"Nhoc' Satoshi"},"100001260645727":{"id":"100001260645727","name":"Ngo Duy Son"},"100006521313187":{"id":"100006521313187","name":"Minh Đăng"},"100005841515298":{"id":"100005841515298","name":"Atsuko Yamamoto"},"1828906841":{"id":"1828906841","name":"Trọng Nghĩa Bùi"},"1717530880":{"id":"1717530880","name":"Triệu Việt Cường"},"100004840447585":{"id":"100004840447585","name":"Nguyễn Ngọc Thái"},"100000198219367":{"id":"100000198219367","name":"Chang Jiang"},"100000266887521":{"id":"100000266887521","name":"Hương Lê Thu"},"1504117663":{"id":"1504117663","name":"Tom Hư Hỏng"}},"paging":{"cursors":{"after":"MTgzNDAyMjc1OQ==","before":"MTgzNDAyMjc1OQ=="},"next":"https://graph.facebook.com/229244010425617_698271066856240/likes?limit=1&summary=1&after=MTgzNDAyMjc1OQ%3D%3D"},"summary":{"total_count":42}},"comments":{"data":{"698343050182375":{"id":"698343050182375","from":{"id":"100000250256418","name":"Nguyen Viet Anh"},"message":"Cái chữ người ăn no nghe quen vậy. =))","can_remove":false,"created_time":"2013-08-05T17:09:54+0000","like_count":0,"user_likes":false},"698459946837352":{"id":"698459946837352","from":{"id":"100001458099624","name":"Kham Pha"},"message":"biết ngay  thanh niên nghiêm túc này sẽ vào la liếm mà :))\nhè này có lên đây đi disney land ko?","can_remove":false,"created_time":"2013-08-05T22:49:28+0000","like_count":0,"user_likes":false},"698465850170095":{"id":"698465850170095","from":{"id":"100000250256418","name":"Nguyen Viet Anh"},"message":"Ko biết được. Mới có kế hoạch di phú sĩ thôi.","can_remove":false,"created_time":"2013-08-05T23:06:49+0000","like_count":0,"user_likes":false},"698471803502833":{"id":"698471803502833","from":{"id":"100001458099624","name":"Kham Pha"},"message":"có chắc là leo được không đấy :))","can_remove":false,"created_time":"2013-08-05T23:25:37+0000","like_count":0,"user_likes":false},"698472133502800":{"id":"698472133502800","from":{"id":"100000250256418","name":"Nguyen Viet Anh"},"message":"Cái này hên xui thôi. Mà lo gì, có 9 thằng đi theo khiêng xuống cơ mà.=)))","can_remove":false,"created_time":"2013-08-05T23:26:45+0000","like_count":0,"user_likes":false},"698472326836114":{"id":"698472326836114","from":{"id":"100001458099624","name":"Kham Pha"},"message":"thế ai khiêng 9 thằng kia :))","can_remove":false,"created_time":"2013-08-05T23:27:32+0000","like_count":0,"user_likes":false},"698472460169434":{"id":"698472460169434","from":{"id":"100000250256418","name":"Nguyen Viet Anh"},"message":"À, có một bà Nhật bên JICE đi theo.=)))","can_remove":false,"created_time":"2013-08-05T23:28:13+0000","like_count":1,"user_likes":false},"698472546836092":{"id":"698472546836092","from":{"id":"100001458099624","name":"Kham Pha"},"message":"tay to đây :))","can_remove":false,"created_time":"2013-08-05T23:28:36+0000","like_count":0,"user_likes":false},"698473350169345":{"id":"698473350169345","from":{"id":"100000250256418","name":"Nguyen Viet Anh"},"message":"Bọn mày đợt trước thì ai khiêng xuống? Hay Nhảy dù?=))","can_remove":false,"created_time":"2013-08-05T23:30:58+0000","like_count":0,"user_likes":false},"698474533502560":{"id":"698474533502560","from":{"id":"100001458099624","name":"Kham Pha"},"message":"Cũng giống bọn mày thôi, lần trước bọn tao có tận 2 bà JICE đi cùng. Lo gì không có người vác xuống :))","can_remove":false,"created_time":"2013-08-05T23:33:27+0000","like_count":0,"user_likes":false},"698475063502507":{"id":"698475063502507","from":{"id":"100000250256418","name":"Nguyen Viet Anh"},"message":"Kinh vậy, hai tay to cơ à? :))))","can_remove":false,"created_time":"2013-08-05T23:34:59+0000","like_count":1,"user_likes":false},"698475860169094":{"id":"698475860169094","from":{"id":"100001458099624","name":"Kham Pha"},"message":"To sao bằng bà bên đấy. Yếu nên phải 2 người :D\nMà năm nay 1 trong 2 bà ấy lại rủ leo tiếp, phụ nữ Nhật ghê gớm thật.","can_remove":false,"created_time":"2013-08-05T23:37:05+0000","like_count":0,"user_likes":false},"698480703501943":{"id":"698480703501943","from":{"id":"100000328306722","name":"Tran Ngoc Anh"},"message":"Kham Pha ơi leo đi =)) Yoshida rủ nhưng anh em cũng chịu =))\nMà cái kia sao dịch là người đang yêu thế ? :))","message_tags":[{"id":"100001458099624","name":"Kham Pha","type":"user","offset":0,"length":8}],"can_remove":false,"created_time":"2013-08-05T23:49:55+0000","like_count":1,"user_likes":false},"698480863501927":{"id":"698480863501927","from":{"id":"100000328306722","name":"Tran Ngoc Anh"},"message":"à tại cái hình trái tim đấy à :))","can_remove":false,"created_time":"2013-08-05T23:50:27+0000","like_count":1,"user_likes":false},"698483760168304":{"id":"698483760168304","from":{"id":"100001458099624","name":"Kham Pha"},"message":"Muốn đi lắm chứ, nhớ cái cảm giác ngủ dưới mưa sương tràn lên, ngắm mặt trời mọc trên đỉnh núi nhưng cuối tháng có lịch sang Ấn, giờ phải sửa luận văn ko đi đc. Sang tháng 9 tuyết rơi ko leo đc.","can_remove":false,"created_time":"2013-08-06T00:00:38+0000","like_count":0,"user_likes":false},"698487630167917":{"id":"698487630167917","from":{"id":"100000250256418","name":"Nguyen Viet Anh"},"message":"Kham Pha sang Ấn à? Coi chừng bị hấp tập thể đấy.=))","message_tags":[{"id":"100001458099624","name":"Kham Pha","type":"user","offset":0,"length":8}],"can_remove":false,"created_time":"2013-08-06T00:10:58+0000","like_count":0,"user_likes":false},"844469948903017":{"id":"844469948903017","from":{"id":"1146680551","name":"優しい なぁ"},"message":"Có ai chưa đọc hông ta :3","can_remove":false,"created_time":"2014-04-03T05:16:53+0000","like_count":0,"user_likes":false},"844515708898441":{"id":"844515708898441","from":{"id":"100002981655149","name":"Đỗ Văn Nghĩa"},"message":"hjhj lúc đọc bài chưa xem hình thấy người ăn no và người đang yêu làm mình cứ thắc mắc, ai ngờ Kham Pha chơi chữ!","can_remove":false,"created_time":"2014-04-03T08:19:33+0000","like_count":0,"user_likes":false}},"paging":{"cursors":{"after":"Njk4MzQzMDUwMTgyMzc1","before":"Njk4MzQzMDUwMTgyMzc1"},"next":"https://graph.facebook.com/229244010425617_698271066856240/comments?limit=1&summary=1&after=Njk4MzQzMDUwMTgyMzc1"},"summary":{"order":"chronological","total_count":18}}}