{"id":"229244010425617_698754936807853","type":"status","from":{"id":"100001458099624","name":"Kham Pha"},"message":"[Trải nghiệm cuộc sống Nhật]   Lễ hội 七夕（たなばた） muộn ở 南阿佐ヶ谷（みなみあさがや）\n\nLang thang trên đường phố Tokyo với đống đồ từ Narita về, tôi có đi ngang qua khu phố 南阿佐ヶ谷 thuộc 杉並区（すぎなみく）. Đáng lẽ ra với đống đồ nặng trịch và thời điểm muộn thế này việc tôi nên làm là đi thẳng. Thế nhưng một con ngõ phố treo đầy đồ trang trí -飾り物（かざりもの） hẳn nhiên không phải là điều bình thường dễ dàng bỏ qua được. Tính tò mò trỗi dậy sẵn tay đem theo máy ảnh nên tôi bước vào hi vọng chộp được cái gì đó thú vị.\n\nhttps://www.facebook.com/media/set/?set=oa.698736473476366&type=1#!/photo.php?fbid=558860477505884&set=oa.698736473476366&type=3&theater\n\nLúc ấy đã khoảng 11h giờ, tôi đứng trong con ngõ nhỏ từ từ dẫn vào lễ hội đã ngớt bóng người đi lại, bỏ lại sau lưng sự ồn ào của đường phố Tokyo hoa lệ. Con phố không to lắm chỉ rộng chừng chiều ngang 2 chiếc ô tô, nền được lát gạch đá. Hai bên đường là các cửa tiệm nho nhỏ bán đủ thứ từ đồ ăn, thuốc đến đồ điện, truyện tranh,... trông có nét gì đó dân dã, khác với phần lớn còn lại của đại đô thị Tokyo ồn ã.  \n\nTrên phố lúc này chỉ còn một số nam thanh nữ tú mặc yukata đi xem pháo hoa chơi khuya về. Ánh đèn dìu dịu từ trên những ngọn đèn cao tỏa xuống khuôn mặt hạnh phúc của những người đang yêu. Giữa bầu không khí oi bức của đêm hè, có chút gì đó nhẹ nhàng.\n\nhttps://www.facebook.com/media/set/?set=oa.698736473476366&type=1#!/photo.php?fbid=558860590839206&set=oa.698736473476366&type=3&theater\n\nRất nhiều cửa hàng vẫn còn đang mở nhưng khác với mọi khi, không phải để bán hàng. Dù đã muộn rồi nhưng những người chủ cửa tiệm này vẫn đang đứng hí hoáy cố gắng hoàn thành những chiếc hình nộm. Tôi nhận ra đây chưa phải là lễ hội, người ta mới chỉ đang chuẩn bị cho nó.\n\nTrong những chiếc hình nộm được treo lên có chiếc đã thành hình \n\nhttps://www.facebook.com/media/set/?set=oa.698736473476366&type=1#!/photo.php?fbid=558861050839160&set=oa.698736473476366&type=3&theater\n\n...nhưng cũng có những chiếc mà chưa ai hiểu nó là cái gì.\n\nhttps://www.facebook.com/media/set/?set=oa.698736473476366&type=1#!/photo.php?fbid=558861984172400&set=oa.698736473476366&type=3&theater\n\nCũng có thể chính chủ nhân của nó cũng chẳng hiểu là họ đang làm ra cái gì. Thiết kế là một công việc đầy tính sáng tạo và nó không hề dễ dàng với hầu hết chúng ta. Nhưng kể cả thế thì nó cũng không phải là việc gì to tát lắm, bởi vì như người ta thường nói ở đâu đó sẽ có người yêu chính cái sự vụng về ngốc nghếch đó của bạn.\n\nỞ đây đa phần những chiếc hình nộm này đều là những nhân vật bước ra từ truyện cổ tích, manga,... Nhưng không phải lựa chọn ngẫu nhiên đâu nhé. Các cửa tiệm sẽ nhân dịp này để làm các hình nộm quảng cáo cho cửa tiệm của mình.\n\nVí dụ như trong hình này cửa tiệm bán rong biển làm hình người cắt rong biển rất hoành tráng. \n\nhttps://www.facebook.com/media/set/?set=oa.698736473476366&type=1#!/photo.php?fbid=558861217505810&set=oa.698736473476366&type=3&theater\n\nHay cửa tiệm うけたこ  này thì làm hình nộm con bạch tuộc \n\nhttps://www.facebook.com/media/set/?set=oa.698736473476366&type=1#!/photo.php?fbid=558863360838929&set=oa.698736473476366&type=3&theater\n\nCòn cửa tiệm bán đồ lặn này làm hình nộm nàng tiên cá. Lắm lúc họ còn phải lôi cả cuốn truyện cổ tích nàng tiên cá ra xem còn gì thiếu trong hình nộm không.\n\nhttps://www.facebook.com/media/set/?set=oa.698736473476366&type=1#!/photo.php?fbid=558861390839126&set=oa.698736473476366&type=3&theater\n\nChất liệu làm nên những hình nộm này chủ yếu là  紙（かみ） và 針金（はりがね）- một loại dây mỏng bằng kim loại. Còn thiết kế thì tự các cửa hàng nghĩ ra.\n\nhttps://www.facebook.com/media/set/?set=oa.698736473476366&type=1#!/photo.php?fbid=558862910838974&set=oa.698736473476366&type=3&theater\n\nTôi kết luận rằng đây sẽ là một lễ hội thú vị. Nhưng rốt cuộc nó là lễ hội gì? Đang thắc mắc không biết đây là lễ hội gì tôi bắt gặp chiếc poster này.\n\nhttps://www.facebook.com/media/set/?set=oa.698736473476366&type=1#!/photo.php?fbid=558861427505789&set=oa.698736473476366&type=3&theater\n\nNhìn xong càng thắc mắc hơn. Thường thì lễ hội 七夕  được tổ chức vào 7/7  Dương lịch hàng năm. Cũng có những nơi tổ chức muộn hơn một vài ngày nhưng bây giờ đã là tháng 8 rồi không thể nào lại muộn thế.\n\nNhư bức hình dưới đây là hình chụp lễ hội 七夕 ở 平塚（ひらつか）một trong những lễ hội 七夕 lớn nhất Nhật Bản tổ chức trong 3 ngày 5,6,7/7.\n\nhttps://www.facebook.com/media/set/?set=oa.685521974797816&type=1#!/photo.php?fbid=537825179617322&set=oa.685521974797816&type=3&theater\n\n \nGhé lại hỏi thăm một người chủ cửa tiệm thì tôi được biết rằng lễ hội này diễn ra hàng năm và chỉ theo lịch âm（旧暦 - きゅうれき）. Nó giải thích tại sao lễ hội ở đây lại tổ chức muộn đến vậy.\n\nTrên suốt con đường, tôi thấy đám trẻ con chạy loanh quanh những chiếc hình nộm hoặc nghịch những dải dây băng treo rủ từ trên xuống. Tôi cũng thấy những người qua đường cũng ghé lại chụp ảnh và hỏi thăm những người chủ cửa tiệm, họ cũng cười đùa với nhau như những người quen biết đã lâu. Trong ấn tượng của tôi người vùng Kanto đặc biệt là Tokyo nói nhanh, sống nhanh, lạnh lùng và khép kín. Những đường phố tôi đã qua dường như chỉ có sự bận rộn và cô đơn không thì là những cuộc chơi thâu đêm suốt sáng. Chưa bao giờ tôi thấy một Tokyo bình dị và thân thuộc đến thế.\n\nhttps://www.facebook.com/media/set/?set=oa.698736473476366&type=1#!/photo.php?fbid=558863527505579&set=oa.698736473476366&type=3&theater\n\nMai là ngày bắt đầu lễ hội rồi. Các bạn đã sẵn sàng tham gia chưa?\n\nKham Pha","created_time":"2013-08-06T13:04:28+0000","updated_time":"2013-08-08T05:31:51+0000","likes":{"data":{"100004705145167":{"id":"100004705145167","name":"Ngọc Tuệ Bạch"},"100000439907914":{"id":"100000439907914","name":"Tran Anh Thai"},"100000264268101":{"id":"100000264268101","name":"Back To December"},"100003102655084":{"id":"100003102655084","name":"Cô Gái Xứ Dừa"},"100003011617344":{"id":"100003011617344","name":"Hà AN"},"1550521697":{"id":"1550521697","name":"Trình Nguyễn"},"100000198219367":{"id":"100000198219367","name":"Chang Jiang"},"100005805939075":{"id":"100005805939075","name":"Phong Kaze"}},"paging":{"cursors":{"after":"MTAwMDA0NzA1MTQ1MTY3","before":"MTAwMDA0NzA1MTQ1MTY3"},"next":"https://graph.facebook.com/229244010425617_698754936807853/likes?limit=1&summary=1&after=MTAwMDA0NzA1MTQ1MTY3"},"summary":{"total_count":8}},"comments":{"data":{"698764883473525":{"id":"698764883473525","from":{"id":"100000198219367","name":"Chang Jiang"},"message":"viết cứ như nhật kí ấy nhể =))\n\nà mà như bên mình lịch có ghi chú lịch âm nhỏ ở dưới ngày thì bên họ ko biết ghi lịch âm ở đâu nhỉ :-?","can_remove":false,"created_time":"2013-08-06T13:29:58+0000","like_count":1,"user_likes":false},"698766543473359":{"id":"698766543473359","from":{"id":"100001458099624","name":"Kham Pha"},"message":"họ có dùng lịch âm đâu mà ghi","can_remove":false,"created_time":"2013-08-06T13:35:24+0000","like_count":0,"user_likes":false},"698769426806404":{"id":"698769426806404","from":{"id":"100000198219367","name":"Chang Jiang"},"message":"thế họ tính ngày lễ đó kiểu j nhỉ, chắc có thông báo trên TV hay đài báo à? :-?","can_remove":false,"created_time":"2013-08-06T13:43:07+0000","like_count":0,"user_likes":false},"698770220139658":{"id":"698770220139658","from":{"id":"100001458099624","name":"Kham Pha"},"message":"mua lịch VN :v","can_remove":false,"created_time":"2013-08-06T13:43:49+0000","like_count":0,"user_likes":false},"699573996725947":{"id":"699573996725947","from":{"id":"100001416272263","name":"Mai PB"},"message":"Ngày lễ cũng theo lịch dương, Chang Jiang","message_tags":[{"id":"100000198219367","name":"Chang Jiang","type":"user","offset":30,"length":11}],"can_remove":false,"created_time":"2013-08-08T05:31:51+0000","like_count":0,"user_likes":false}},"paging":{"cursors":{"after":"Njk4NzY0ODgzNDczNTI1","before":"Njk4NzY0ODgzNDczNTI1"},"next":"https://graph.facebook.com/229244010425617_698754936807853/comments?limit=1&summary=1&after=Njk4NzY0ODgzNDczNTI1"},"summary":{"order":"chronological","total_count":5}}}