{"id":"229244010425617_699126870103993","type":"status","from":{"id":"1843294954","name":"Nguyen Thanh Van"},"message":"Mọi người cho em hỏi tại sao có rất nhiều từ chuyên ngành khi mà em tra cách đọc ở word không đúng tra lai trên mạng thì có. Nhưng khi gõ lại thì ko có chữ Hán.\nMà phải ghép hoặc cop lại.\nVí dụ: 滑動、急崖","created_time":"2013-08-07T07:06:04+0000","updated_time":"2013-08-08T02:06:51+0000","comments":{"data":{"699127866770560":{"id":"699127866770560","from":{"id":"1843294954","name":"Nguyen Thanh Van"},"message":"Ad Mai FB, Kham Pha giúp với ạ.","message_tags":[{"id":"100001458099624","name":"Kham Pha","type":"user","offset":11,"length":8}],"can_remove":false,"created_time":"2013-08-07T07:10:15+0000","like_count":0,"user_likes":false},"699134526769894":{"id":"699134526769894","from":{"id":"100001458099624","name":"Kham Pha"},"message":"Có lẽ những từ chuyên ngành này hiếm quá. Bộ gõ cũng chỉ là chương trình đc viết sẵn thôi. Sẽ có nhữn từ hiếm gặp mà nó ko nhận đc :)","can_remove":false,"created_time":"2013-08-07T07:37:02+0000","like_count":1,"user_likes":false},"699135983436415":{"id":"699135983436415","from":{"id":"1843294954","name":"Nguyen Thanh Van"},"message":"Hix. Chac la phai co chuong trinh cao hon chu nhi. Ko chẳng nhẽ các bác Nhật cũng gõ kiểu ghép từ như em. Hu hu...","can_remove":false,"created_time":"2013-08-07T07:43:57+0000","like_count":0,"user_likes":false},"699168203433193":{"id":"699168203433193","from":{"id":"100001416272263","name":"Mai PB"},"message":"So sánh một chương trình nhập dữ liệu (IME) với từ điển bé tí của  Microsoft với dữ liệu khổng lồ của Google là sao? ^^ Nếu em dùng nhiều từ chuyên ngành, thử IME của chính Google xem: http://www.google.co.jp/ime/","can_remove":false,"created_time":"2013-08-07T09:10:50+0000","like_count":4,"user_likes":false},"699512976732049":{"id":"699512976732049","from":{"id":"1843294954","name":"Nguyen Thanh Van"},"message":"bộ gõ của anh quá tuyệt. Cảm ơn ad Mai PB nhiều nhiều!","message_tags":[{"id":"100001416272263","name":"Mai PB","type":"user","offset":35,"length":6}],"can_remove":false,"created_time":"2013-08-08T02:06:51+0000","like_count":1,"user_likes":false}},"paging":{"cursors":{"after":"Njk5MTI3ODY2NzcwNTYw","before":"Njk5MTI3ODY2NzcwNTYw"},"next":"https://graph.facebook.com/229244010425617_699126870103993/comments?limit=1&summary=1&after=Njk5MTI3ODY2NzcwNTYw"},"summary":{"order":"chronological","total_count":5}},"likes":{"data":[]}}