{"id":"229244010425617_699174886765858","type":"status","from":{"id":"100003738644056","name":"Xi Mong"},"message":"Mình đang cần tuyển 3 giáo viên dạy tiếng Nhật tại trung tâm của công ty Hanoi Tie ở gần cầu Diễn, dạy cho các bạn đi xuất khẩu lao động và đi du học. Yêu cầu tiếng Nhật tương đương N3 trở lên. Mức lương 300$ trở lên( tùy năng lực). Ưu tiên ứng viên có kinh nghiệm dạy học( nếu có nhiều kinh nghiệm sẽ xét tuyển làm trưởng phòng đào tạo 600$ trở lên). Các bạn vui lòng liên hệ Mr Hùng để được tư vấn. đt: 0979 544 044","created_time":"2013-08-07T09:34:33+0000","updated_time":"2013-08-07T13:04:18+0000","likes":{"data":{"100002808262328":{"id":"100002808262328","name":"Thành Hasamu Hasamu"},"100001847077184":{"id":"100001847077184","name":"Đỗ Thu Hà"}},"paging":{"cursors":{"after":"MTAwMDAyODA4MjYyMzI4","before":"MTAwMDAyODA4MjYyMzI4"},"next":"https://graph.facebook.com/229244010425617_699174886765858/likes?limit=1&summary=1&after=MTAwMDAyODA4MjYyMzI4"},"summary":{"total_count":2}},"comments":{"data":{"699180530098627":{"id":"699180530098627","from":{"id":"100006167497302","name":"Hoang Anhh"},"message":"Loan Le","message_tags":[{"id":"100001389178116","name":"Loan Le","type":"user","offset":0,"length":7}],"can_remove":false,"created_time":"2013-08-07T09:52:49+0000","like_count":0,"user_likes":false},"699183983431615":{"id":"699183983431615","from":{"id":"100003692844643","name":"Ngoc Hoang"},"message":"chao Ban! cho minh hoi minh chỉ dạy được buổi sáng thì công ty có nhận không?","can_remove":false,"created_time":"2013-08-07T10:07:30+0000","like_count":0,"user_likes":false},"699213846761962":{"id":"699213846761962","from":{"id":"100002808262328","name":"Thành Hasamu Hasamu"},"message":"Cty tên gì vậy bạn","can_remove":false,"created_time":"2013-08-07T11:52:42+0000","like_count":0,"user_likes":false},"699214116761935":{"id":"699214116761935","from":{"id":"100002808262328","name":"Thành Hasamu Hasamu"},"message":"Đy tu nghiep sinh về và đã giạy tiếng Nhật dc 7 tháng đủ kinh nhiệm ko bạn","can_remove":false,"created_time":"2013-08-07T11:53:25+0000","like_count":0,"user_likes":false},"699240436759303":{"id":"699240436759303","from":{"id":"100003738644056","name":"Xi Mong"},"message":"ko nhan giao vien day partime ban nhe","can_remove":false,"created_time":"2013-08-07T13:03:51+0000","like_count":0,"user_likes":false},"699240560092624":{"id":"699240560092624","from":{"id":"100003738644056","name":"Xi Mong"},"message":"di tu nghiep ve day dc ban nhe","can_remove":false,"created_time":"2013-08-07T13:04:18+0000","like_count":0,"user_likes":false}},"paging":{"cursors":{"after":"Njk5MTgwNTMwMDk4NjI3","before":"Njk5MTgwNTMwMDk4NjI3"},"next":"https://graph.facebook.com/229244010425617_699174886765858/comments?limit=1&summary=1&after=Njk5MTgwNTMwMDk4NjI3"},"summary":{"order":"chronological","total_count":6}}}