{"id":"229244010425617_699628256720521","type":"photo","object_id":"559661870759078","picture":"https://fbcdn-photos-g-a.akamaihd.net/hphotos-ak-frc3/v/t1.0-0/998939_559661870759078_1785379052_s.jpg?oh=b374aef4c53b94c1c4e06568c92944ec&oe=53C00A5E&__gda__=1405293738_89d310bb13374150320d4a1191f831ba","link":"https://www.facebook.com/photo.php?fbid=559661870759078&set=gm.699628256720521&type=1&relevant_count=1","from":{"id":"100001458099624","name":"Kham Pha"},"message":"Chiều nay có ai nhận được 緊急地震速報（きんきゅうじしんそくほう）không?  Đang ngồi trong nhà thấy điện thoại của mình và đứa bạn kêu inh ỏi. Liếc thấy dòng chữ trên liền tháo chạy ngay ra ngoài. Được phen máu xộc lên não.  　","created_time":"2013-08-08T08:52:21+0000","updated_time":"2013-08-08T13:10:59+0000","likes":{"data":{"100002020543785":{"id":"100002020543785","name":"Bo Nguyễn"},"1782985626":{"id":"1782985626","name":"Nguyễn Thế Quân"},"100000919140390":{"id":"100000919140390","name":"Nhật Hoa"},"100001495688011":{"id":"100001495688011","name":"Chung Kếu"},"517300955":{"id":"517300955","name":"Duong Thuy Dinh"},"100005571974356":{"id":"100005571974356","name":"Thẻ Gọi Quốc Tế"},"100003131584240":{"id":"100003131584240","name":"Nhung Nguyen"}},"paging":{"cursors":{"after":"MTAwMDAyMDIwNTQzNzg1","before":"MTAwMDAyMDIwNTQzNzg1"},"next":"https://graph.facebook.com/229244010425617_699628256720521/likes?limit=1&summary=1&after=MTAwMDAyMDIwNTQzNzg1"},"summary":{"total_count":9}},"comments":{"data":{"699629380053742":{"id":"699629380053742","from":{"id":"100004826612667","name":"Đào Hạnh"},"message":"Có nhận được nhưng mà k sợ vì động đất ở tít Nara mà ! Xa chỗ mình lắm ! Hì","can_remove":false,"created_time":"2013-08-08T08:57:09+0000","like_count":0,"user_likes":false},"699629900053690":{"id":"699629900053690","from":{"id":"100001458099624","name":"Kham Pha"},"message":"Uhm. Sau xem lại mới thấy ở 奈良. Có thể hôm nay phát hiện được hoạt động địa chấn bất thường khu đó. Ai ở gần nhớ cẩn thận.","can_remove":false,"created_time":"2013-08-08T08:59:24+0000","like_count":0,"user_likes":false},"699630346720312":{"id":"699630346720312","from":{"id":"100004826612667","name":"Đào Hạnh"},"message":"Thế trước khi chạy ra ngoài bạn có khoá ga vs mang theo balo dự phòng k ?","can_remove":false,"created_time":"2013-08-08T09:02:16+0000","like_count":1,"user_likes":false},"699630700053610":{"id":"699630700053610","from":{"id":"100001458099624","name":"Kham Pha"},"message":"ko, khóa ga thì có lý chứ balo dự phòng để làm gì?","can_remove":false,"created_time":"2013-08-08T09:05:07+0000","like_count":0,"user_likes":false},"699632356720111":{"id":"699632356720111","from":{"id":"100004826612667","name":"Đào Hạnh"},"message":"Hic ! Bạn chưa học về phòng chống động đất ở bên Nhật àh ? Thực ra khi xảy ra rung chuyển cứ ngồi yên 1 chỗ lấy đồ bảo vệ đầu chứ k nên chạy ra ngoài lúc xảy ra rung chuyển vì như vậy sẽ càng nguy hiểm hơn ( bị những vật lạ rơi vào đầu chẳng hạn ) . Tiếp đó là khoá ga để phòng cháy nổ . Rồi mang balo dự phòng có chứa những đồ dùng thiết yếu . Ví dụ như đồ ăn khô , nước uống , đèn pin , ラップ, túi bóng ... Nếu động đất thật mà bạn k có những thứ đó thì hơi bị 困るđó !","can_remove":false,"created_time":"2013-08-08T09:13:42+0000","like_count":2,"user_likes":false},"699634096719937":{"id":"699634096719937","from":{"id":"100001458099624","name":"Kham Pha"},"message":"Cái đó mình biết, nhưng đó là lý thuyết thôi. Trường hợp chưa rung thì nếu gần chỗ thoát ra ngoài thì nấp vào bàn làm gì? \nBa lô dự phòng mình đâu có nên gom mấy thứ kia mà động đất đến thì chết toi. Có lẽ từ nay về sau cũng nên chuẩn bị mấy thứ ấy. Sách vở nói vậy chứ mình thấy lúc cấp bách ấy, sống được thì kiểu gì cũng có cách. Mấy thứ kia có thì tốt mà ko có cũng ko ảnh hưởng lắm.","can_remove":false,"created_time":"2013-08-08T09:21:47+0000","like_count":1,"user_likes":false},"699635013386512":{"id":"699635013386512","from":{"id":"100004826612667","name":"Đào Hạnh"},"message":"Vì khi động đất thật thì cuộc sống k còn tiện nghi nữa đâu ! Sẽ k có điện , k có nước ! Vì k có nước nên cũng chẳng dùng được nhà vệ sinh . Khi đó chỉ có cách dùng túi rách đen to cắt 1 lỗ để thò đầu ra , rồi ngồi xuống và ... Còn ラップ cũng dùng được nhiều vc lắm ! Tất nhiên là mấy thứ đó bạn phải chuẩn bị sẵn cho hết vào balo chứ ! Lúc động đất zùi mới gom thì nói làm gì ?","can_remove":false,"created_time":"2013-08-08T09:27:06+0000","like_count":3,"user_likes":false},"699637233386290":{"id":"699637233386290","from":{"id":"100003171672878","name":"Tầu Heo"},"message":"Hnao cung the nay thi vui nhỷ","can_remove":false,"created_time":"2013-08-08T09:36:16+0000","like_count":0,"user_likes":false},"699639496719397":{"id":"699639496719397","from":{"id":"100004826612667","name":"Đào Hạnh"},"message":"Vui lắm mà bạn , muốn vui nữa thì bạn lên mấy chỗ ở Fukushima ý ! K có ai ở cả như 1 thành phố ma luôn ! Tha Hồ thích nhé","can_remove":false,"created_time":"2013-08-08T09:44:14+0000","like_count":2,"user_likes":false},"699663653383648":{"id":"699663653383648","from":{"id":"100001416272263","name":"Mai PB"},"message":"Vừa nãy là báo động nhầm: http://headlines.yahoo.co.jp/hl?a=20130808-00000119-jij-soci","can_remove":false,"created_time":"2013-08-08T11:02:48+0000","like_count":0,"user_likes":false},"699671770049503":{"id":"699671770049503","from":{"id":"100006248618563","name":"Momi Zi"},"message":"Đang đi trên kuruma nên ko cảm thấy gì.nhưng điện thoại củng rên ầm ỉ","can_remove":false,"created_time":"2013-08-08T11:24:45+0000","like_count":0,"user_likes":false},"699697290046951":{"id":"699697290046951","from":{"id":"100000272721891","name":"Binh Pham"},"message":"may ban cho minh hoi vs: minh co gang lam moi hoc thuoc bang chu cai katakana, ma sao may giao trinh tieng nhat lai ko dung bang chu cai nay, minh thay bang katakana la don gian nhat nen hoa hoa ra lai vo ich phai ko","can_remove":false,"created_time":"2013-08-08T12:29:09+0000","like_count":0,"user_likes":false},"699705503379463":{"id":"699705503379463","from":{"id":"100001531816305","name":"Mẫn Nghi"},"message":"Binh Pham bạn ơi , bảng chữ cái katakana chủ yếu chỉ để dùng phiên âm những chữ của tiếng nước ngoài thôi như tên người nước ngoài , máy tính, đẹp trai vv..... Còn hiragana w kanji mới dùng thường xuyên trong tiếng nhật.","message_tags":[{"id":"100000272721891","name":"Binh Pham","type":"user","offset":0,"length":9}],"can_remove":false,"created_time":"2013-08-08T12:49:26+0000","like_count":1,"user_likes":false},"699709876712359":{"id":"699709876712359","from":{"id":"100006248618563","name":"Momi Zi"},"message":"Đừng có xem nhẹ katakana \"quá\"nếu có ý định sang Nhật.","can_remove":false,"created_time":"2013-08-08T13:03:29+0000","like_count":0,"user_likes":false},"699712233378790":{"id":"699712233378790","from":{"id":"100000272721891","name":"Binh Pham"},"message":"cam on ban MANNGHI nha","can_remove":false,"created_time":"2013-08-08T13:10:04+0000","like_count":1,"user_likes":false},"699712503378763":{"id":"699712503378763","from":{"id":"100000272721891","name":"Binh Pham"},"message":"học tiếng nhật có giống học tiếng anh ko bạn. bước đầu tiên học thuộc bảng chữ cái rồi làm j tiếp theo bạn ơi","can_remove":false,"created_time":"2013-08-08T13:10:59+0000","like_count":0,"user_likes":false}},"paging":{"cursors":{"after":"Njk5NjI5MzgwMDUzNzQy","before":"Njk5NjI5MzgwMDUzNzQy"},"next":"https://graph.facebook.com/229244010425617_699628256720521/comments?limit=1&summary=1&after=Njk5NjI5MzgwMDUzNzQy"},"summary":{"order":"chronological","total_count":16}}}