{"id":"229244010425617_700017153348298","type":"status","from":{"id":"100001723862714","name":"Bo Bien Vang"},"message":"men nào muốn học tiếng nhật tại hà nội với bạn mình là giáo viên người nhật hem?","created_time":"2013-08-09T03:05:27+0000","updated_time":"2013-08-09T16:09:56+0000","likes":{"data":{"100001723862714":{"id":"100001723862714","name":"Bo Bien Vang"},"100001905664553":{"id":"100001905664553","name":"Mẹ Ơi Con Đói"},"100000747635624":{"id":"100000747635624","name":"Nguyễn Xuân Đại"},"100005138615776":{"id":"100005138615776","name":"Hai Kull"},"100002279513521":{"id":"100002279513521","name":"Gu Mi Ho"},"100001357646859":{"id":"100001357646859","name":"Rối Ơi Giúp Tôi"},"100002904984187":{"id":"100002904984187","name":"Thuy Nguyen"},"100003915863361":{"id":"100003915863361","name":"Điều Anh Ước"},"100006328542723":{"id":"100006328542723","name":"Dung Dung"},"100000064686295":{"id":"100000064686295","name":"Huy Roli"},"100001458099624":{"id":"100001458099624","name":"Kham Pha"},"100000211237467":{"id":"100000211237467","name":"Nguyễn Thị Hà"},"100005809334138":{"id":"100005809334138","name":"Ngôn Bee"},"100001821116371":{"id":"100001821116371","name":"Hoàng Thảo Nguyên"},"100002480343600":{"id":"100002480343600","name":"Mặt Nạ Thủy Tinh"},"100001628612184":{"id":"100001628612184","name":"Mai Tròn"}},"paging":{"cursors":{"after":"MTAwMDAxNzIzODYyNzE0","before":"MTAwMDAxNzIzODYyNzE0"},"next":"https://graph.facebook.com/229244010425617_700017153348298/likes?limit=1&summary=1&after=MTAwMDAxNzIzODYyNzE0"},"summary":{"total_count":16}},"comments":{"data":{"700019200014760":{"id":"700019200014760","from":{"id":"100001628612184","name":"Mai Tròn"},"message":"Có em chị ơi...","can_remove":false,"created_time":"2013-08-09T03:11:36+0000","like_count":0,"user_likes":false},"700021120014568":{"id":"700021120014568","from":{"id":"100001723862714","name":"Bo Bien Vang"},"message":"mình em ah? e biết chút nào chưa?hay học từ đầu.","can_remove":false,"created_time":"2013-08-09T03:16:53+0000","like_count":0,"user_likes":false},"700021430014537":{"id":"700021430014537","from":{"id":"100001628612184","name":"Mai Tròn"},"message":"Em học đến bài 50 rồi chị ạ. Nhưng kiến thức chưa chắc lắm chị ạ.","can_remove":false,"created_time":"2013-08-09T03:18:00+0000","like_count":1,"user_likes":false},"700021730014507":{"id":"700021730014507","from":{"id":"100001723862714","name":"Bo Bien Vang"},"message":"ờ, thầy chỉ nói đc tiếng anh và tiếng nhật thôi nhá,","can_remove":false,"created_time":"2013-08-09T03:19:08+0000","like_count":0,"user_likes":false},"700021893347824":{"id":"700021893347824","from":{"id":"100001723862714","name":"Bo Bien Vang"},"message":"thế giờ em muốn củng cố kiến thức ah? or học cao hơn? hay để thi.","can_remove":false,"created_time":"2013-08-09T03:19:47+0000","like_count":0,"user_likes":false},"700022343347779":{"id":"700022343347779","from":{"id":"100001628612184","name":"Mai Tròn"},"message":"Em cũng giao tiếp đc bằng TA chị à. Em muốn học ôn thi N3 chị ạ","can_remove":false,"created_time":"2013-08-09T03:21:32+0000","like_count":1,"user_likes":false},"700031600013520":{"id":"700031600013520","from":{"id":"100003293794320","name":"Yurio Rin"},"message":"có em chị ạ, làm thế nào để liên lạc với thầy ạ?","can_remove":false,"created_time":"2013-08-09T03:52:22+0000","like_count":0,"user_likes":false},"700032380013442":{"id":"700032380013442","from":{"id":"100000747635624","name":"Nguyễn Xuân Đại"},"message":"Hok phi tnao ha ban?cho minh tham gia voi","can_remove":false,"created_time":"2013-08-09T03:55:05+0000","like_count":0,"user_likes":false},"700033306680016":{"id":"700033306680016","from":{"id":"100000211237467","name":"Nguyễn Thị Hà"},"message":"Thời gian, địa điểm lớp học như nào bạn? Mình có đứa em muốn đi học.","can_remove":false,"created_time":"2013-08-09T03:58:48+0000","like_count":0,"user_likes":false},"700033856679961":{"id":"700033856679961","from":{"id":"100005809334138","name":"Ngôn Bee"},"message":"Đây nữa","can_remove":false,"created_time":"2013-08-09T04:00:53+0000","like_count":0,"user_likes":false},"700034996679847":{"id":"700034996679847","from":{"id":"100001723862714","name":"Bo Bien Vang"},"message":"để xem có bao bạn like cho information này rồi chiều mình tổng kết lại sau đó sẽ notice cho các bạn nhé. thanks","can_remove":false,"created_time":"2013-08-09T04:04:48+0000","like_count":0,"user_likes":false},"700035503346463":{"id":"700035503346463","from":{"id":"100001723862714","name":"Bo Bien Vang"},"message":"five person","can_remove":false,"created_time":"2013-08-09T04:06:03+0000","like_count":0,"user_likes":false},"700036110013069":{"id":"700036110013069","from":{"id":"100001723862714","name":"Bo Bien Vang"},"message":"nhưng phải là những người thực sự quan tâm và muốn học nhé, nếu ko thì đừng .....","can_remove":false,"created_time":"2013-08-09T04:08:45+0000","like_count":2,"user_likes":false},"700037250012955":{"id":"700037250012955","from":{"id":"100000205616258","name":"Đoàn Bắc"},"message":"Học ở đâu vậy bạn","can_remove":false,"created_time":"2013-08-09T04:11:25+0000","like_count":0,"user_likes":false},"700042123345801":{"id":"700042123345801","from":{"id":"100003011617344","name":"Hà AN"},"message":"https://www.facebook.com/HocTiengNhatMoiNgay học kanji và học tiếng nhật nà.","can_remove":false,"created_time":"2013-08-09T04:25:21+0000","like_count":1,"user_likes":false},"700046040012076":{"id":"700046040012076","from":{"id":"100000064686295","name":"Huy Roli"},"message":"có Huy Roli nè","message_tags":[{"id":"100000064686295","name":"Huy Roli","type":"user","offset":3,"length":8}],"can_remove":false,"created_time":"2013-08-09T04:37:01+0000","like_count":0,"user_likes":false},"700046366678710":{"id":"700046366678710","from":{"id":"100000064686295","name":"Huy Roli"},"message":"mình cũng học hết 50 bài mina rồi nhé, cho đăng kí học với","can_remove":false,"created_time":"2013-08-09T04:38:12+0000","like_count":0,"user_likes":false},"700057780010902":{"id":"700057780010902","from":{"id":"100003915863361","name":"Điều Anh Ước"},"message":"Mai tron..thi n4 topji luc nao thi het han dag ky vay b","can_remove":false,"created_time":"2013-08-09T05:10:15+0000","like_count":0,"user_likes":false},"700058153344198":{"id":"700058153344198","from":{"id":"100001628612184","name":"Mai Tròn"},"message":"Mình chưa thi N4, hihi, Nếu thi kyuu tháng vào 1/12 thì đến 13/9 hết hạn đăng lí nhé bạn","can_remove":false,"created_time":"2013-08-09T05:11:38+0000","like_count":0,"user_likes":false},"700058240010856":{"id":"700058240010856","from":{"id":"100002904984187","name":"Thuy Nguyen"},"message":"nếu đưa ra thông tin thì bạn cũng nên đưa ra vị trí học ở đâu, học phí ntn, thời gian ra sao thì mn mới biết mà đk chứ","can_remove":false,"created_time":"2013-08-09T05:12:04+0000","like_count":0,"user_likes":false},"700058996677447":{"id":"700058996677447","from":{"id":"100000617975225","name":"Pe Trang"},"message":"Buồn wa mình trong nam k đi dc","can_remove":false,"created_time":"2013-08-09T05:15:23+0000","like_count":0,"user_likes":false},"700061026677244":{"id":"700061026677244","from":{"id":"100003915863361","name":"Điều Anh Ước"},"message":"Mai tron.cam on b nhe..minh dag dag ky thi day.ma b di du hoc ah","can_remove":false,"created_time":"2013-08-09T05:18:50+0000","like_count":0,"user_likes":false},"700061590010521":{"id":"700061590010521","from":{"id":"100001628612184","name":"Mai Tròn"},"message":"Ừ, ko có gì bạn à. Mình cũng đăng kí thi N4 đó, mình học để biết thôi. hihi","can_remove":false,"created_time":"2013-08-09T05:21:33+0000","like_count":1,"user_likes":false},"700065510010129":{"id":"700065510010129","from":{"id":"100003915863361","name":"Điều Anh Ước"},"message":"I desune..gambattekudasai","can_remove":false,"created_time":"2013-08-09T05:36:26+0000","like_count":2,"user_likes":false},"700073266676020":{"id":"700073266676020","from":{"id":"100002919392947","name":"Heo In"},"message":"lịch học cụ thể gv ntn đấy b ơi??","can_remove":false,"created_time":"2013-08-09T06:09:46+0000","like_count":0,"user_likes":false},"700103786672968":{"id":"700103786672968","from":{"id":"100004781103522","name":"Phú Ông"},"message":"Có thể cho mình sđt thầy để mình tự hỏi ko?","can_remove":false,"created_time":"2013-08-09T08:07:14+0000","like_count":0,"user_likes":false},"700110383338975":{"id":"700110383338975","from":{"id":"1227392209","name":"Akai Wani"},"message":"minh muon hoc giao tiep co duoc ko mac du hoc het 50 mina no rui nhung ko chac lam, hoc phi va thoi gian ntn vay ban","can_remove":false,"created_time":"2013-08-09T08:38:28+0000","like_count":0,"user_likes":false},"700189026664444":{"id":"700189026664444","from":{"id":"100001723862714","name":"Bo Bien Vang"},"message":"tổng kết danh sách ngày hnay nhé","can_remove":false,"created_time":"2013-08-09T13:16:39+0000","like_count":0,"user_likes":false},"700195506663796":{"id":"700195506663796","from":{"id":"100001723862714","name":"Bo Bien Vang"},"message":"Mai là thứ 7 chúng ta sẽ gặp Thầy. Sẽ có buổi giao lưu và giải đáp mọi câu hỏi và thắc mắc của các bạn trước khi quyết định học. Men nào tâm huyết với Japanese thì hãy inbox lại cho mình, trong tối nay nhé.","can_remove":false,"created_time":"2013-08-09T13:35:18+0000","like_count":0,"user_likes":false},"700195596663787":{"id":"700195596663787","from":{"id":"100002890594222","name":"Giang Pham"},"message":"e cung muon hoc, nhung thoi gian cu the tnao hoc phi bn, e hoc toi bai 32 roi ak","can_remove":false,"created_time":"2013-08-09T13:35:28+0000","like_count":0,"user_likes":false},"700196979996982":{"id":"700196979996982","from":{"id":"100001905664553","name":"Mẹ Ơi Con Đói"},"message":"Bo Bien Vang nói rõ chút đi: học trình gì vậy? thời gian? địa điểm?học phí?","message_tags":[{"id":"100001723862714","name":"Bo Bien Vang","type":"user","offset":0,"length":12}],"can_remove":false,"created_time":"2013-08-09T13:39:05+0000","like_count":0,"user_likes":false},"700197739996906":{"id":"700197739996906","from":{"id":"100001723862714","name":"Bo Bien Vang"},"message":"thì khi đến gặp Thầy mọi thắc mắc các bạn sẽ đc giải đáp.ok?","can_remove":false,"created_time":"2013-08-09T13:40:06+0000","like_count":0,"user_likes":false},"700197886663558":{"id":"700197886663558","from":{"id":"100003293794320","name":"Yurio Rin"},"message":"mai gặp ở đâu ạ?","can_remove":false,"created_time":"2013-08-09T13:40:38+0000","like_count":0,"user_likes":false},"700199939996686":{"id":"700199939996686","from":{"id":"100001723862714","name":"Bo Bien Vang"},"message":"mình inbox cho bạn rồi nhé","can_remove":false,"created_time":"2013-08-09T13:43:42+0000","like_count":0,"user_likes":false},"700204769996203":{"id":"700204769996203","from":{"id":"100001723862714","name":"Bo Bien Vang"},"message":"có điều này hơi tế nhị mình xin nói, mình ko phải nhân viên của Thầy cũng ko phải tư vấn viên, nên mọi thắc mắc các bạn sẽ trao đổi trực tiếp với Thầy. Nên mong các bạn đừng hiểu lầm.","can_remove":false,"created_time":"2013-08-09T13:55:28+0000","like_count":0,"user_likes":false},"700227753327238":{"id":"700227753327238","from":{"id":"100002480343600","name":"Mặt Nạ Thủy Tinh"},"message":"chị ơi bây giờ e dk được ko ạ","can_remove":false,"created_time":"2013-08-09T15:05:27+0000","like_count":0,"user_likes":false},"700230866660260":{"id":"700230866660260","from":{"id":"100001723862714","name":"Bo Bien Vang"},"message":"các bạn có thể liên hệ lấy địa chỉ và time theo sdt 0936 104 500","can_remove":false,"created_time":"2013-08-09T15:13:09+0000","like_count":0,"user_likes":false},"700265513323462":{"id":"700265513323462","from":{"id":"100002919392947","name":"Heo In"},"message":"Phan Ha","message_tags":[{"id":"100002443315458","name":"Phan Ha","type":"user","offset":0,"length":7}],"can_remove":false,"created_time":"2013-08-09T16:09:56+0000","like_count":0,"user_likes":false}},"paging":{"cursors":{"after":"NzAwMDE5MjAwMDE0NzYw","before":"NzAwMDE5MjAwMDE0NzYw"},"next":"https://graph.facebook.com/229244010425617_700017153348298/comments?limit=1&summary=1&after=NzAwMDE5MjAwMDE0NzYw"},"summary":{"order":"chronological","total_count":38}}}