{"id":"229244010425617_700111070005573","type":"photo","object_id":"602480919804065","picture":"https://fbcdn-photos-f-a.akamaihd.net/hphotos-ak-ash3/t1.0-0/998577_602480919804065_1763081138_s.jpg","link":"https://www.facebook.com/photo.php?fbid=602480919804065&set=gm.700111070005573&type=1&relevant_count=1","from":{"id":"100001264877022","name":"Nhật Ngữ Yuki"},"message":"HỌC BỔNG KHÓA HỌC ĐỂ LÀM VIỆC TẠI NHẬT BẢN:\nDÀNH CHO CÁC BẠN ĐÃ CÓ NĂNG LỰC TIẾNG NHẬT TRUNG CẤP TRỞ LÊN. \n\nXuất cảnh tháng 10 năm 2013\n\n1. Phỏng vấn trực tiếp qua Skype\n2. Có giấy phép cư trú của Cục Xuất Nhập Cảnh sau 3 tuần sau khi phỏng vấn thành công. \n3. Không mất bất cứ chi phí gì khi chưa có giấy phép lưu trú của cục Xuất Nhập Cảnh Nhật Bản.\n4. Bảo đảm 100% việc làm thông qua chương trình hỗ trợ tìm việc làm toàn diện.\n5. Được hỗ trợ chứng minh tài chính toàn phần miễn phí.\n6. Tặng vé máy bay 1 chiều. \n7. Thời hạn nộp hồ sơ: từ ngày 6/8/2013 đến 15.8.2013\n8. Thời gian phỏng vấn: \nLần 1: 9h00 Ngày 17.08.2013\nLần 2: 9h00 Ngày 24.08.2013\n\n9. Học phí & KTX đóng 3 tháng 1 lần. Lần 2 đóng vào tháng thứ 6 sau khi đã học. \n\nTổng chi phí: ~ 150.000.000 VND. Chưa bao gồm chi phí sinh hoạt của các bạn tại Nhật Bản.\n10. Thông tin chi tiết xin vui lòng liên hệ:\nYUKI JAPANESE SCHOOL\n\nSố 50 – 52 Yên Bái 1, Hai Bà Trưng, Hà Nội\nĐiện Thoại: 04 6280 0455 / Di Động: 0167 5858 188\nWebsite: http://www.yukicenter.com/ Email: Yukischool@gmail.com\nhttp://www.yukicenter.com/2013/04/khoa-hoc-de-lam-viec-tai-cac-doanh-nghiep-o-nhat-ban/","created_time":"2013-08-09T08:41:20+0000","updated_time":"2013-08-09T09:17:17+0000","likes":{"data":{"100002630333938":{"id":"100002630333938","name":"Huong Le"},"100004704661694":{"id":"100004704661694","name":"Le Giap"},"100001458099624":{"id":"100001458099624","name":"Kham Pha"},"100003784898747":{"id":"100003784898747","name":"Nguyễn Thị Thu Thảo"},"100004088172713":{"id":"100004088172713","name":"Vuong Thao"},"100003102655084":{"id":"100003102655084","name":"Cô Gái Xứ Dừa"},"100003122441760":{"id":"100003122441760","name":"Hue Pham"}},"paging":{"cursors":{"after":"MTAwMDAyNjMwMzMzOTM4","before":"MTAwMDAyNjMwMzMzOTM4"},"next":"https://graph.facebook.com/229244010425617_700111070005573/likes?limit=1&summary=1&after=MTAwMDAyNjMwMzMzOTM4"},"summary":{"total_count":7}},"comments":{"data":{"700119160004764":{"id":"700119160004764","from":{"id":"100003122441760","name":"Hue Pham"},"message":"c Nguyễn Thị Hà nè ^^","message_tags":[{"id":"100000211237467","name":"Nguyễn Thị Hà","type":"user","offset":2,"length":13}],"can_remove":false,"created_time":"2013-08-09T09:17:17+0000","like_count":0,"user_likes":false}},"paging":{"cursors":{"after":"NzAwMTE5MTYwMDA0NzY0","before":"NzAwMTE5MTYwMDA0NzY0"}},"summary":{"order":"chronological","total_count":1}}}