{"id":"229244010425617_700258979990782","type":"status","from":{"id":"100002758288847","name":"Kurono Kei"},"message":"Các anh chị cho em hỏi: em mới bắt đầu học tiếng Nhật và mới học xong Bảng chữ cái cách viết và chào hỏi cơ bản zậy tiếp theo em phải học những gì?","created_time":"2013-08-09T15:52:27+0000","updated_time":"2013-08-10T04:33:50+0000","likes":{"data":{"100006430484366":{"id":"100006430484366","name":"Lam Nhi"},"100003767676668":{"id":"100003767676668","name":"黒い猫"}},"paging":{"cursors":{"after":"MTAwMDA2NDMwNDg0MzY2","before":"MTAwMDA2NDMwNDg0MzY2"},"next":"https://graph.facebook.com/229244010425617_700258979990782/likes?limit=1&summary=1&after=MTAwMDA2NDMwNDg0MzY2"},"summary":{"total_count":2}},"comments":{"data":{"700268989989781":{"id":"700268989989781","from":{"id":"100000969905909","name":"Shady Su"},"message":"Bạn kiếm 1 giáo trình sơ cấp rồi học theo @@","can_remove":false,"created_time":"2013-08-09T16:18:39+0000","like_count":0,"user_likes":false},"700269593323054":{"id":"700269593323054","from":{"id":"100003767676668","name":"黒い猫"},"message":"Học tiếp cách phát âm..... Rồi sẽ học tiếp:)))","can_remove":false,"created_time":"2013-08-09T16:20:44+0000","like_count":0,"user_likes":false},"700276003322413":{"id":"700276003322413","from":{"id":"100002676859353","name":"Chu Quang Viên"},"message":"Sau khi học thuộc bảng chữ cái thì bạn nên tìm 1 giáo trình cơ bản như mina no nihongo và học theo giáo trình.Bạn nên mạng tìm thêm những giáo trình giiar thích ngữ pháp cùng với sách bài tập rồi học lên từng bài,có gì khó thì nên hỏi mọi người :D Chúc bạn học tốt nhé","can_remove":false,"created_time":"2013-08-09T16:39:09+0000","like_count":2,"user_likes":false},"700277703322243":{"id":"700277703322243","from":{"id":"100001905664553","name":"Mẹ Ơi Con Đói"},"message":"shinsetsu na Masamune Độc Hành","message_tags":[{"id":"100002676859353","name":"Masamune Độc Hành","type":"user","offset":13,"length":17}],"can_remove":false,"created_time":"2013-08-09T16:44:29+0000","like_count":0,"user_likes":false},"700279256655421":{"id":"700279256655421","from":{"id":"100002676859353","name":"Chu Quang Viên"},"message":"いいえ、日本語を勉強する人がいればいるほど、ベトナム人がますます有名になります。　＝））","can_remove":false,"created_time":"2013-08-09T16:49:58+0000","like_count":1,"user_likes":false},"700280506655296":{"id":"700280506655296","from":{"id":"100001905664553","name":"Mẹ Ơi Con Đói"},"message":"woa! すばらしい考え方","can_remove":false,"created_time":"2013-08-09T16:52:26+0000","like_count":0,"user_likes":false},"700281139988566":{"id":"700281139988566","from":{"id":"100002676859353","name":"Chu Quang Viên"},"message":"ベトナムの若い人はとても多くて、牛のようだから　：３","can_remove":false,"created_time":"2013-08-09T16:53:58+0000","like_count":0,"user_likes":false},"700281503321863":{"id":"700281503321863","from":{"id":"100001905664553","name":"Mẹ Ơi Con Đói"},"message":":v","can_remove":false,"created_time":"2013-08-09T16:54:48+0000","like_count":0,"user_likes":false},"700281739988506":{"id":"700281739988506","from":{"id":"100002676859353","name":"Chu Quang Viên"},"message":"có nên xóa máy cái cmt này đi ko nhỉ =))","can_remove":false,"created_time":"2013-08-09T16:55:30+0000","like_count":0,"user_likes":false},"700285939988086":{"id":"700285939988086","from":{"id":"100001905664553","name":"Mẹ Ơi Con Đói"},"message":":v ah tùy thí chủ thôi :v","can_remove":false,"created_time":"2013-08-09T17:08:52+0000","like_count":0,"user_likes":false},"700494333300580":{"id":"700494333300580","from":{"id":"100001357646859","name":"Rối Ơi Giúp Tôi"},"message":"Hok gjao trjh minna no nihongo di pan.neu hok dk o trung tam thj tot","can_remove":false,"created_time":"2013-08-10T04:33:50+0000","like_count":0,"user_likes":false}},"paging":{"cursors":{"after":"NzAwMjY4OTg5OTg5Nzgx","before":"NzAwMjY4OTg5OTg5Nzgx"},"next":"https://graph.facebook.com/229244010425617_700258979990782/comments?limit=1&summary=1&after=NzAwMjY4OTg5OTg5Nzgx"},"summary":{"order":"chronological","total_count":11}}}