{"id":"229244010425617_700282686655078","type":"status","from":{"id":"100001659230540","name":"Lemon Tea"},"message":"mọi người ơi, có thể giúp e dịch câu này và chỉ e mẫu ngữ pháp のに ở đây là gì đc ko?e mới học nên ko hiểu rõ lắm.Thanks mọi người rất nhiều!\n日本では私立大学入るのに、お金がかかると聞きましたが、国立大学だったら、お金がそんなにかからないはずです。","created_time":"2013-08-09T16:59:02+0000","updated_time":"2013-08-10T15:33:23+0000","likes":{"data":{"100000064686295":{"id":"100000064686295","name":"Huy Roli"}},"paging":{"cursors":{"after":"MTAwMDAwMDY0Njg2Mjk1","before":"MTAwMDAwMDY0Njg2Mjk1"}},"summary":{"total_count":1}},"comments":{"data":{"700284209988259":{"id":"700284209988259","from":{"id":"1146680551","name":"優しい なぁ"},"message":"Mac du da nghe la khi vao cac truong DH dan lap se mat tien ,nhung neu la truong 国立大学 thi chac chan la se khong mat.","can_remove":false,"created_time":"2013-08-09T17:03:13+0000","like_count":0,"user_likes":false},"700322539984426":{"id":"700322539984426","from":{"id":"100000603915176","name":"悪いな ぁ"},"message":"Dịch linh tinh quá Anh Nguyễn, có tốn tiền chứ sao lại kg mất?\n\nCâu này đại ý là: Nghe nói ở Nhật, vào học trường tư khá là tốn kém, nhưng nếu vào học trường Quốc lập thì kg tốn kém đến vậy thì phải.\n\nのに ở đây có ý nghĩa như \"để\", theo sau nó là kết quả của vế trước.","can_remove":false,"created_time":"2013-08-09T18:49:48+0000","like_count":9,"user_likes":false},"700391223310891":{"id":"700391223310891","from":{"id":"1146680551","name":"優しい なぁ"},"message":"Gomen.k đọc kĩ.","can_remove":false,"created_time":"2013-08-09T23:00:13+0000","like_count":1,"user_likes":false},"700416383308375":{"id":"700416383308375","from":{"id":"100001458099624","name":"Kham Pha"},"message":"の là để danh từ hóa cho động từ đằng trước, \"cái việc vào học trường tư ở Nhật\".\nに tiếp theo là để chỉ hướng của お金がかかる vào việc gì. \nVí dụ khác:\n鋏（はさみ）は紙を切るのに便利な物です。\nKéo dùng vào việc cắt giấy thì rất là tiện.","can_remove":false,"created_time":"2013-08-10T00:38:38+0000","like_count":4,"user_likes":false},"700571589959521":{"id":"700571589959521","from":{"id":"100001754136107","name":"Nguyễn Tuấn Vũ"},"message":"Ngat Pro","message_tags":[{"id":"100003312527085","name":"Ngat Pro","type":"user","offset":0,"length":8}],"can_remove":false,"created_time":"2013-08-10T09:28:38+0000","like_count":0,"user_likes":false},"700572199959460":{"id":"700572199959460","from":{"id":"100001754136107","name":"Nguyễn Tuấn Vũ"},"message":"Vao truong tu thì tốn kém nhưng nếu hoc truong quoc lap thi tốn ít hơn.( t nghi o đâu cung thế )","can_remove":false,"created_time":"2013-08-10T09:31:39+0000","like_count":0,"user_likes":false},"700721289944551":{"id":"700721289944551","from":{"id":"100001659230540","name":"Lemon Tea"},"message":"cảm ơn m người nhiều lắm :)","can_remove":false,"created_time":"2013-08-10T15:33:23+0000","like_count":0,"user_likes":false}},"paging":{"cursors":{"after":"NzAwMjg0MjA5OTg4MjU5","before":"NzAwMjg0MjA5OTg4MjU5"},"next":"https://graph.facebook.com/229244010425617_700282686655078/comments?limit=1&summary=1&after=NzAwMjg0MjA5OTg4MjU5"},"summary":{"order":"chronological","total_count":7}}}