{"id":"229244010425617_700927333257280","type":"status","from":{"id":"100001723862714","name":"Bo Bien Vang"},"message":"\"Sách khuyến học\" Fukuzawa Yukichi, hơn 50 năm trước Nhật Bản không bằng Việt Nam của chúng ta bây giờ đâu? Cuốn sách này đã làm rung chuyển đất nước Nhật, từng là cuốn sách kê đầu giường của mỗi  người Nhật. Nó là 1 trong những nguyên nhân chính vực dậy của Nhật ngày hôm nay, đưa nước Nhật  từ đen tối trở nên sáng loáng. Nó là tiền đề là bệ phóng cho sự phát triển thần kỳ của kinh tế Nhật. Đây chính là nhận vật có mặt trên tờ tiền có mệnh giá lớn nhất tại Nhật 10,000,000 yên.  Đặc biệt hơn Việt Nam của chúng ta cũng đang rơi vào tình trạng giống 50 năm trước của Nhật.\n4 lý do Fukuzawa Yukichi khuyên người Nhật nên học ngay tức khắc:\n- Ai sinh ra đều được đối xử công bằng như nhau, dựa vào học thức mỗi người.\n- Học để dũng cảm chiến đấu vì lẽ phải.\n- Học để được tự do,thoát khỏi sự \"nghẹt thở\" của luật lệ chính phủ.\n- Học vì lòng tự hào dân tộc, để ngoại bang không còn khinh miệt.\nCó rất nhiều học sinh, sinh viên, tri thức trẻ của Việt Nam chưa hề biết đến nó. Đặc biệt là các bạn yêu thích đất nước, văn hóa, con người Nhật.\nGía bán sách tại Việt Nam 34.000 đ/1 cuốn có thể download trên Inter, được phát hành trên 3 triệu bản và tái bản 76 lần.\nBản thân mình cũng cầm tờ 1 man rất nhiều rồi, nhưng chưa bao giờ để ý đến ông này là ai? và tại sao lại có mặt trên tờ tiền mệnh giá này? có lẽ nhiều bạn cũng như thế. Nhưng bây giờ chưa muộn.\nHãy dành 30 phút mỗi ngày cho việc đọc sách, chúc các bạn có những trải niệm thật lý thú.","created_time":"2013-08-11T01:40:32+0000","updated_time":"2013-08-11T09:35:39+0000","likes":{"data":{"100004478832761":{"id":"100004478832761","name":"Thiên Trang"},"100000571251238":{"id":"100000571251238","name":"Uyển Nhi Dương"},"100004123327271":{"id":"100004123327271","name":"Nguyễn Phương"},"100004566972183":{"id":"100004566972183","name":"Tsuyoshi Ta"},"726423323":{"id":"726423323","name":"Trần Thư"},"100003756172905":{"id":"100003756172905","name":"Trang Cat"},"100001416272263":{"id":"100001416272263","name":"Mai PB"},"100000266887521":{"id":"100000266887521","name":"Hương Lê Thu"},"100000293174570":{"id":"100000293174570","name":"Vịt Vụng Về"},"100004505702361":{"id":"100004505702361","name":"Mèo Lười"},"100000195299558":{"id":"100000195299558","name":"Giọt Sương Sớm Mai"},"100003669604211":{"id":"100003669604211","name":"Mặt Trời Phương Đông"},"100002928160979":{"id":"100002928160979","name":"Hương Quỳnh"},"100002421205294":{"id":"100002421205294","name":"Nghèo Kệ Tôi"},"100001739865592":{"id":"100001739865592","name":"Tung Le"},"100001458099624":{"id":"100001458099624","name":"Kham Pha"},"100003513323831":{"id":"100003513323831","name":"Trần Phương"},"100003847583376":{"id":"100003847583376","name":"さよなら 大好き な人"},"100001847077184":{"id":"100001847077184","name":"Đỗ Thu Hà"},"1844276755":{"id":"1844276755","name":"Long Nguyen"},"100000290923602":{"id":"100000290923602","name":"Duc Trung Duong"},"100004159503039":{"id":"100004159503039","name":"Miu Chan"},"100006457419726":{"id":"100006457419726","name":"Nam Văn Lê"}},"paging":{"cursors":{"after":"MTAwMDA0NDc4ODMyNzYx","before":"MTAwMDA0NDc4ODMyNzYx"},"next":"https://graph.facebook.com/229244010425617_700927333257280/likes?limit=1&summary=1&after=MTAwMDA0NDc4ODMyNzYx"},"summary":{"total_count":23}},"comments":{"data":{"700928139923866":{"id":"700928139923866","from":{"id":"100006457419726","name":"Nam Văn Lê"},"message":"có lẽ cái mọi ng cần là đây","can_remove":false,"created_time":"2013-08-11T01:43:27+0000","like_count":0,"user_likes":false},"700953689921311":{"id":"700953689921311","from":{"id":"100006111728204","name":"La Ka Ta Tu"},"message":":). mình đọc cách đây 2 năm rồi!","can_remove":false,"created_time":"2013-08-11T01:52:55+0000","like_count":0,"user_likes":false},"700956263254387":{"id":"700956263254387","from":{"id":"1844276755","name":"Long Nguyen"},"message":"Có bản dịch tiếng việt không bạn?","can_remove":false,"created_time":"2013-08-11T02:03:16+0000","like_count":0,"user_likes":false},"700959733254040":{"id":"700959733254040","from":{"id":"1773169835","name":"Nguyễn Tuấn Hải"},"message":"10 nghìn Yên, k phải 10 triệu Yên nhé","can_remove":false,"created_time":"2013-08-11T02:14:38+0000","like_count":2,"user_likes":false},"700962626587084":{"id":"700962626587084","from":{"id":"100002932607957","name":"Phạm Thơm"},"message":"có bản tiếng Việt đấy bạn","can_remove":false,"created_time":"2013-08-11T02:26:00+0000","like_count":0,"user_likes":false},"700965323253481":{"id":"700965323253481","from":{"id":"100001861442279","name":"Nguyễn Hồng Sơn"},"message":"http://www.mediafire.com/download/l5vclosq9xu5pog/Khuyenhoc.prc","can_remove":false,"created_time":"2013-08-11T02:36:15+0000","like_count":3,"user_likes":false},"700967933253220":{"id":"700967933253220","from":{"id":"100001458099624","name":"Kham Pha"},"message":"Chuyện 50 năm trước Nhật ko bằng VN bây giờ thì mình ko rõ, nhưng cải cách do Fukuzawa đề xướng bắt đầu từ cách đây 150 năm vào thời Minh Trị (1868). 福澤　諭吉  không phải là quân vương, cũng ko phải võ tướng nhưng ông là người có ảnh hưởng nhất tới Nhật Bản trong thời kì cận đại. \nÔng ban đầu theo Hà Lan học nhưng sau đó thấy Hà Lan học đã lỗi thời, ko phát triển được như các nước Anh, Mĩ  ông theo học tiếng Anh và lên đường sang Mĩ, Âu học hỏi những điều hay của phương Tây rồi về truyền bá lại cho dân Nhật. Ông là người có tư tưởng tiến bộ khuyến khích việc học, cho rằng học vấn tạo nên sự khác biệt của con người chứ ko phải do thân phận.  \nNước Nhật chịu ơn ông rất nhiều!","can_remove":false,"created_time":"2013-08-11T02:43:50+0000","like_count":2,"user_likes":false},"701024123247601":{"id":"701024123247601","from":{"id":"100001416272263","name":"Mai PB"},"message":"Đế nghị promote Bo Bien Vang làm admin, Kham Pha. :-)","message_tags":[{"id":"100001723862714","name":"Bo Bien Vang","type":"user","offset":16,"length":12},{"id":"100001458099624","name":"Kham Pha","type":"user","offset":40,"length":8}],"can_remove":false,"created_time":"2013-08-11T05:42:10+0000","like_count":0,"user_likes":false},"701025666580780":{"id":"701025666580780","from":{"id":"100004275305539","name":"Tuyen Susan"},"message":"Ở việt nam có nơj naò bán quyển sách này bằng tiếng nhật k bạn","can_remove":false,"created_time":"2013-08-11T05:48:24+0000","like_count":0,"user_likes":false},"701088776574469":{"id":"701088776574469","from":{"id":"100000381394367","name":"Thành Nguyễn"},"message":"http://bookman.tsumikistudio.com/ja/samples/data/gakumonnosusume.pdf　bản tiếng Nhật đây","can_remove":false,"created_time":"2013-08-11T09:22:35+0000","like_count":1,"user_likes":false},"701091953240818":{"id":"701091953240818","from":{"id":"100001416272263","name":"Mai PB"},"message":"Ai đăng ký account amazon.co.jp sẽ download đc Kindle version miễn phí, đọc đc trên Android và iOS. Tuy nhiên bản tiếng Nhật có nhiều từ cổ, hơi khó hiểu đấy.","can_remove":false,"created_time":"2013-08-11T09:35:39+0000","like_count":0,"user_likes":false}},"paging":{"cursors":{"after":"NzAwOTI4MTM5OTIzODY2","before":"NzAwOTI4MTM5OTIzODY2"},"next":"https://graph.facebook.com/229244010425617_700927333257280/comments?limit=1&summary=1&after=NzAwOTI4MTM5OTIzODY2"},"summary":{"order":"chronological","total_count":11}}}