{"id":"229244010425617_701058856577461","type":"status","from":{"id":"100001416272263","name":"Mai PB"},"message":"Đã mem nào nhìn thấy kiểu viết này chưa? 間違いではないという気がしないでもない ^^","created_time":"2013-08-11T07:55:58+0000","updated_time":"2013-08-11T15:39:06+0000","likes":{"data":{"100002584773326":{"id":"100002584773326","name":"Hằng Võ"},"1821970083":{"id":"1821970083","name":"Nguyễn Mạnh Cường"},"100002424123619":{"id":"100002424123619","name":"Le Luong"},"100001458099624":{"id":"100001458099624","name":"Kham Pha"},"100004514621076":{"id":"100004514621076","name":"Hason Angle"}},"paging":{"cursors":{"after":"MTAwMDAyNTg0NzczMzI2","before":"MTAwMDAyNTg0NzczMzI2"},"next":"https://graph.facebook.com/229244010425617_701058856577461/likes?limit=1&summary=1&after=MTAwMDAyNTg0NzczMzI2"},"summary":{"total_count":5}},"comments":{"data":{"701060539910626":{"id":"701060539910626","from":{"id":"100000603915176","name":"悪いな ぁ"},"message":"Chỉ thấy 間違いだったという気が しないでもない thôi","can_remove":false,"created_time":"2013-08-11T08:03:23+0000","like_count":1,"user_likes":false},"701106593239354":{"id":"701106593239354","from":{"id":"100001458099624","name":"Kham Pha"},"message":"Cái này dịch là gì \"Cũng ko hẳn là không cảm thấy sai\" ah?","can_remove":false,"created_time":"2013-08-11T10:32:56+0000","like_count":0,"user_likes":false},"701112769905403":{"id":"701112769905403","from":{"id":"100001416272263","name":"Mai PB"},"message":"Kham Pha thiếu một \"không\" :-D","message_tags":[{"id":"100001458099624","name":"Kham Pha","type":"user","offset":0,"length":8}],"can_remove":false,"created_time":"2013-08-11T11:01:43+0000","like_count":1,"user_likes":false},"701126009904079":{"id":"701126009904079","from":{"id":"100001458099624","name":"Kham Pha"},"message":"Oh đúng rồi. Cũng ko hẳn là ko cảm thấy ko sai.","can_remove":false,"created_time":"2013-08-11T11:51:51+0000","like_count":0,"user_likes":false},"701127103237303":{"id":"701127103237303","from":{"id":"100001416272263","name":"Mai PB"},"message":"Đúng rồi. Bây giờ ai thử dịch sang tiếng Việt tự nhiên mà vẫn đủ nghĩa \"lòng vòng\" nào.","can_remove":false,"created_time":"2013-08-11T11:56:10+0000","like_count":0,"user_likes":false},"701127359903944":{"id":"701127359903944","from":{"id":"100000603915176","name":"悪いな ぁ"},"message":"Cũng đúng! Vậy thôi :v","can_remove":false,"created_time":"2013-08-11T11:57:22+0000","like_count":0,"user_likes":false},"701148556568491":{"id":"701148556568491","from":{"id":"1400326262","name":"Matsumoto Soutarou"},"message":":D thử dịch thoát nghĩa cho văn vẻ 1 chút nha: chưa bao giờ tớ không nhận ra là mình không sai lầm.","can_remove":false,"created_time":"2013-08-11T12:59:15+0000","like_count":0,"user_likes":false},"701182293231784":{"id":"701182293231784","from":{"id":"1577104209","name":"Ngoc Plh"},"message":"Khong han la khong co cam giac la khong sai.","can_remove":false,"created_time":"2013-08-11T13:28:49+0000","like_count":0,"user_likes":false},"701237236559623":{"id":"701237236559623","from":{"id":"100001416272263","name":"Mai PB"},"message":"@悪いなぁ: quá ngắn, không phản ánh đúng tinh thần của câu\n\n@Tran Thong: không phải ý đó :-) Ý như Kham Pha viết ở trên đó\n\n@Ngoc Plh: ý đúng nhưng mình cần tiếng Việt dịch cho thoát","message_tags":[{"id":"1400326262","name":"Tran Thong","type":"user","offset":57,"length":10},{"id":"100001458099624","name":"Kham Pha","type":"user","offset":95,"length":8},{"id":"1577104209","name":"Ngoc Plh","type":"user","offset":121,"length":8}],"can_remove":false,"created_time":"2013-08-11T15:39:06+0000","like_count":0,"user_likes":false}},"paging":{"cursors":{"after":"NzAxMDYwNTM5OTEwNjI2","before":"NzAxMDYwNTM5OTEwNjI2"},"next":"https://graph.facebook.com/229244010425617_701058856577461/comments?limit=1&summary=1&after=NzAxMDYwNTM5OTEwNjI2"},"summary":{"order":"chronological","total_count":10}}}