{"id":"229244010425617_701146529902027","type":"status","from":{"id":"100001458099624","name":"Kham Pha"},"message":"[Trải nghiệm cuộc sống Nhật]  Đi xe bus. 　\n\nCùng với tàu điện, xe bus là một trong 2 loại hình phương tiện giao thông công cộng phổ biến nhất ở Nhật. Đã ở Nhật thì môt lúc nào đó bạn cũng sẽ phải đi tàu hoặc xe bus. Xe bus ở Nhật khác với bus Việt Nam khá nhiều bởi vì hành khách phải tự làm hết việc lấy vé, thanh toán tiền qua máy tự động và hoàn toàn không có phụ xe. Vì vậy trong bài viết này mình xin giới thiệu cách đi xe bus để các bạn nào chưa đi, ít đi hoặc chưa sang Nhật cũng biết thêm được nhiều điều về đất nước tự động hóa bậc nhất thế giới này. \n\nBức ảnh đầu tiên chụp tại một điểm đứng đợi xe bus（バス亭）. Một điểm thường có thể có vài xe bus cùng đi qua, các bạn có thể thấy trong hình là 2 chuyến số 34 và 39, ngay trên chúng là các điểm chính mà nó sẽ đến còn bên dưới là giờ giấc. Với mỗi chuyến sẽ có lịch chia thành 3 loại, trên hình là 3 cái cột: 平日（へいじつ）、土曜 và 休日（きゅうじつ）là bao gồm chủ nhật và ngày lễ. Số to đậm ngoài cùng là giờ còn số trong 3 cột kia là chỉ phút. Xe bus ở Nhật cũng đúng giờ như tàu điện vậy. Đúng đến từng phút. Trong một số trường hợp có thể chậm tới 2 phút vì gặp đèn đỏ quá nhiều, còn tắc đường gần như là thứ ko có rồi.\n\nNếu dùng iPhone các bạn có thể dùng app バスあと何分  để tra giờ. Trên Android thì mình ko rõ. \n\nTiếp theo là về cấu trúc xe bus. Xe bus thường, trừ loại Twin Liner (dài gấp đôi bus thường- giá vé cũng ngang ngang chỉ khác là nó chở nhiều hơn) thì có 2 cửa. Cửa đằng trước có máy tự động để lấy vé, trả tiền. \n-Lên xe bạn có thể lên bằng cả 2 cửa, nhưng cửa sau chỉ mở khi bạn ở bến đầu. Nếu không phải bến đầu bắt buộc bạn phải lên bằng cửa trước để còn kiểm soát bạn lên ở đâu mà đưa vé. \n-Khi xuống luôn luôn xuống cửa trước để còn thanh toán. \n\nCó 2 cách để thanh toán: \n- Cách 1: Dùng thẻ pasmo hoặc suica. Đây là các loại thẻ từ, bạn nạp sẵn tiền từ trước như một cái ví điện tử vậy. Đi xuống hay đi lên chỉ cần quẹt một cái thì máy tự động tính điểm đầu và điểm cuối trừ đi. Bên trên mình có nói rằng lên điểm đầu bến có thể lên bằng cửa sau. Như thế có nghĩa là ko cần quẹt thẻ lúc lên bởi vì máy tự hiểu chỉ quẹt một lần là lên từ bến đầu.\nĐể ý góc trái vòng tròn xanh lá cây ảnh số 2 là chỗ quẹt lúc lên, còn vòng tròn vàng là lúc xuống. Đừng có quẹt nhầm. Cách thanh toán này rất tiện bạn chả cần làm gì ngoài việc quẹt thẻ lúc lên và lúc xuống. Chả phải nghĩ gì, cũng chả cần phải cầm tiền lẻ. Cách này cũng là cách thông dụng nhất vì ở Nhật hầu như ai cũng có loại thẻ này. \n\n-Cách 2: Dùng vé.  Bạn có thấy cái cục bên cạnh vòng tròn màu xanh lá cây vừa rồi không? Trên thân có ghi 整理券（せいりけん）, nó dùng để lấy vé đã được đánh số điểm lên. Khi cửa mở đằng trước nó sẽ biết là có người vào thông qua cảm biến ở cửa và xuất ra 1 cái vé, bạn cầm lấy vé đấy và tìm chỗ ngồi. Chiếc vé như trong hình số 3. \n\nPhân tích chiếc vé này một chút. Đáng chú ý nhất là số 6 to đùng góc phải. Nó đánh dấu bạn lên ở điểm nào (thực ra nói vậy cũng ko phải vì mấy điểm gần nhau cùng giá tiền và dùng chung số, tùy theo quy định). Dùng chiếc vé này để tính tiền thế nào? Lúc này bạn nhìn vào ảnh số 4, có một bảng điện tử trên đầu. Bảng này liệt kê các số và số tiền tương ứng với nó. Vé này số 6 thì chỉ cần nhìn vào giá tiền ở ô số 6. Số tiền trên bảng điện tử sẽ thay đổi theo thời gian vì xe bus Nhật kể cả nội thành tính theo chặng, chứ ko cùng giá như VN. Hãy xem giá tiền ngay trước lúc xuống để biết chính xác số tiền cần phải trả. \n\nChiếc vé này chỉ có tác dụng như vậy, bạn ko cần nộp lại cho ai cũng được. Lúc xuống tự động bỏ tiền vào chỗ vòng tròn xanh nước biển trong hình số 2. Việc này là tự giác, bạn bỏ linh tinh tài xế cũng chả biết nhưng nếu có lòng tự trọng thì đừng làm thế. Lúc bỏ tiền thì chỉ có bỏ tiền xu vào thôi. Vì thế nếu ko có tiền xu thì bạn phải tự động đổi tiền qua chỗ vòng tròn màu trắng. Nhét tiền giấy vào đó xu sẽ đi ra ở vòng tròn nâu. Nên làm khi xe vẫn còn đang chạy để tránh làm mất thời gian người khác. Ở Nhật nguyên tắc hàng đầu là “Làm gì thì làm nhưng đừng làm phiền người khác”. Cái đó gọi là  常識（じょうしき） , vứt rác ra đường, đứng xếp hàng, dùng đồ công cộng xong trả lại vị trí cũ,... cũng nằm trong đó. Và người Nhật coi đó là những điều hiển nhiên phải làm. \n \nĐến đây các bạn đã biết cách đi xe bus ở Nhật chưa? Rất dễ dàng phải không?\nNếu có gì thắc mắc, góp ý, nhận xét xin hãy viết vào bên dưới.\nChúc mọi người có tối cuối tuần vui vẻ. \n\n--Kham Pha","created_time":"2013-08-11T12:52:29+0000","updated_time":"2013-08-19T15:54:34+0000","likes":{"data":{"100003011417151":{"id":"100003011417151","name":"Hue Kim"},"100002508122689":{"id":"100002508122689","name":"Vũ Mạnh Tuấn"},"100001695345798":{"id":"100001695345798","name":"Tyn Aki"},"100003575851710":{"id":"100003575851710","name":"Dung Nguyen"},"100001416272263":{"id":"100001416272263","name":"Mai PB"},"1803665393":{"id":"1803665393","name":"Nguyen Hao"},"100001723862714":{"id":"100001723862714","name":"Bo Bien Vang"},"100000056652104":{"id":"100000056652104","name":"Du Di"},"100000180985064":{"id":"100000180985064","name":"Trung Đồng"},"100000427448138":{"id":"100000427448138","name":"Anh Tuan Pham"},"1146680551":{"id":"1146680551","name":"優しい なぁ"},"100002573114104":{"id":"100002573114104","name":"Một Ngày Gió"},"100003180366829":{"id":"100003180366829","name":"Ngọc Hà"},"100000250256418":{"id":"100000250256418","name":"Nguyen Viet Anh"},"100004705145167":{"id":"100004705145167","name":"Ngọc Tuệ Bạch"},"100000325572172":{"id":"100000325572172","name":"Kaze Hikaru"},"1504117663":{"id":"1504117663","name":"Tom Hư Hỏng"}},"paging":{"cursors":{"after":"MTAwMDAzMDExNDE3MTUx","before":"MTAwMDAzMDExNDE3MTUx"},"next":"https://graph.facebook.com/229244010425617_701146529902027/likes?limit=1&summary=1&after=MTAwMDAzMDExNDE3MTUx"},"summary":{"total_count":17}},"comments":{"data":{"701147546568592":{"id":"701147546568592","from":{"id":"100001458099624","name":"Kham Pha"},"message":"Ảnh số 1","can_remove":false,"created_time":"2013-08-11T12:55:48+0000","like_count":0,"user_likes":false},"701148116568535":{"id":"701148116568535","from":{"id":"100001458099624","name":"Kham Pha"},"message":"Ảnh số 2","can_remove":false,"created_time":"2013-08-11T12:57:42+0000","like_count":0,"user_likes":false},"701148356568511":{"id":"701148356568511","from":{"id":"100001458099624","name":"Kham Pha"},"message":"Ảnh số 3","can_remove":false,"created_time":"2013-08-11T12:58:32+0000","like_count":0,"user_likes":false},"701148583235155":{"id":"701148583235155","from":{"id":"100001458099624","name":"Kham Pha"},"message":"Ảnh số 4","can_remove":false,"created_time":"2013-08-11T12:59:28+0000","like_count":0,"user_likes":false},"701148953235118":{"id":"701148953235118","from":{"id":"100001754136107","name":"Nguyễn Tuấn Vũ"},"message":"Cái thanh toán băng vé a ak.minh đưa tiền thừa nó ko báo gi cả :))).vì vậy đành chịu","can_remove":false,"created_time":"2013-08-11T13:00:28+0000","like_count":0,"user_likes":false},"701149099901770":{"id":"701149099901770","from":{"id":"100001458099624","name":"Kham Pha"},"message":"thế thì em phải lấy cái vé tương ứng số tiền thừa từ tài xế","can_remove":false,"created_time":"2013-08-11T13:00:51+0000","like_count":0,"user_likes":false},"701153593234654":{"id":"701153593234654","from":{"id":"100001458099624","name":"Kham Pha"},"message":"Du Di, cái này chắc có ích cho c.","message_tags":[{"id":"100000056652104","name":"Du Di","type":"user","offset":0,"length":5}],"can_remove":false,"created_time":"2013-08-11T13:09:41+0000","like_count":1,"user_likes":false},"701196119897068":{"id":"701196119897068","from":{"id":"100002573114104","name":"Một Ngày Gió"},"message":"tks bài viết của anh :)","can_remove":false,"created_time":"2013-08-11T13:55:46+0000","like_count":1,"user_likes":false},"705712569445423":{"id":"705712569445423","from":{"id":"100001695345798","name":"Tyn Aki"},"message":"em xin bổ sung thêm về cách lên xuống xe bus, như em gặp có hai loại, \nLoại 1: tiền vé giữa các chặng đường là bằng nhau, ví dụ ở Tp Kyoto là 220 Yên, một số nơi ở Tokyo cũng vậy. Với loại này thì lên ở cửa trước để trả tiền hoặc quẹt thẻ gắn IC và trừ tiền luôn lúc đó. Lúc xuống thì xuống bằng cửa sau.\nLoại 2: tính giá vé theo cự li. đây là loại anh Đức đã giới thiệu rất cụ thể, nhưng chắc tùy từng nơi có cách lên khác nhau, với những nơi em gặp thì lên cửa sau để lấy vé (có số điểm bạn lên) hoặc chạm pasmo or suica. Khi bạn xuống thì lên cửa trước để trả tiền bằng vé hoặc chạm pasmo lần nữa để trừ tiền.\n\nCòn máy nhận tiền không có chức năng trả lại tiền thừa nên bạn phải nhét tiền vào một cái máy đổi tiền bên cạnh, rồi thả đúng số tiền mình cần trả vào máy. Có nhiều máy không đổi được mệnh giá từ 5 sên trở lên, lúc đó thì nhờ bác lái xe đổi tiền tay cho (nhưng mình vẫn gặp bác không đổi cho mình, phải vay bạn ;( ) . Chỗ em nhét tiền thiếu or tiền thừa là máy kêu báo hiệu.\n\nCòn một kiểu đi nữa là ví dụ khi bạn chạm pasmo của bạn có 100 yên, mà bạn đi hết 200 yên thì lúc thanh toán vẫn chạm pasmo  và bỏ thêm 100 yên nưa vào,  cái này cũng giống kiểu đi tàu, nếu mua vé thiếu tiền thì bỏ tiền vào máy để thêm mệnh giá tiền thôi ^^","can_remove":false,"created_time":"2013-08-19T15:54:34+0000","like_count":2,"user_likes":false}},"paging":{"cursors":{"after":"NzAxMTQ3NTQ2NTY4NTky","before":"NzAxMTQ3NTQ2NTY4NTky"},"next":"https://graph.facebook.com/229244010425617_701146529902027/comments?limit=1&summary=1&after=NzAxMTQ3NTQ2NTY4NTky"},"summary":{"order":"chronological","total_count":9}}}