{"id":"229244010425617_701127006570646","type":"status","from":{"id":"1693102459","name":"Châu Hoàng"},"message":"Mn cho em hỏi けいき và けいざい khác gì nhau ạ? Trong khi 2 từ này đều nói về Kinh tế, lúc nào dùng けいき, lúc nào dùng けいざい\nCám ơn mn :)","created_time":"2013-08-11T11:55:39+0000","updated_time":"2013-08-11T15:55:24+0000","likes":{"data":{"100003109506619":{"id":"100003109506619","name":"Thanh Xuân Nguyễn"},"100001458099624":{"id":"100001458099624","name":"Kham Pha"},"100001731744647":{"id":"100001731744647","name":"Niềm Vui"}},"paging":{"cursors":{"after":"MTAwMDAzMTA5NTA2NjE5","before":"MTAwMDAzMTA5NTA2NjE5"},"next":"https://graph.facebook.com/229244010425617_701127006570646/likes?limit=1&summary=1&after=MTAwMDAzMTA5NTA2NjE5"},"summary":{"total_count":3}},"comments":{"data":{"701145836568763":{"id":"701145836568763","from":{"id":"100000399879223","name":"Hoan Le"},"message":"keizai là kinh tế, keiki là tình trạng nền kinh tế","can_remove":false,"created_time":"2013-08-11T12:50:32+0000","like_count":3,"user_likes":false},"701202483229765":{"id":"701202483229765","from":{"id":"100001458099624","name":"Kham Pha"},"message":"経済( Kinh Tế) kinh tế. Đi học kinh tế, làm bên kinh tế,..\n景気（Cảnh Khí） nói về tình trạng kinh doanh buôn bán. Tốt, xấu, lãi lỗ.","can_remove":false,"created_time":"2013-08-11T14:10:37+0000","like_count":1,"user_likes":false},"701243313225682":{"id":"701243313225682","from":{"id":"1693102459","name":"Châu Hoàng"},"message":"arigatou Hoan Le, Kham Pha :)","message_tags":[{"id":"100000399879223","name":"Hoan Le","type":"user","offset":9,"length":7},{"id":"100001458099624","name":"Kham Pha","type":"user","offset":18,"length":8}],"can_remove":false,"created_time":"2013-08-11T15:55:24+0000","like_count":0,"user_likes":false}},"paging":{"cursors":{"after":"NzAxMTQ1ODM2NTY4NzYz","before":"NzAxMTQ1ODM2NTY4NzYz"},"next":"https://graph.facebook.com/229244010425617_701127006570646/comments?limit=1&summary=1&after=NzAxMTQ1ODM2NTY4NzYz"},"summary":{"order":"chronological","total_count":3}}}