{"id":"229244010425617_701302203219793","type":"status","from":{"id":"100001723862714","name":"Bo Bien Vang"},"message":"can't sleep. \"Tết Anh Đào\" \n  Diễn ra từ ngày 15/3 đến ngày 15/4 hàng năm. Do sự khác nhau về mặt khí hậu giữa miền  Nam và miền Bắc nên ở Nhật hoa Anh Đào nở dần từ phía Nam đến phía Bắc, kết thúc ở 4 hòn đảo ở phía Bắc. Vì thế thời gian hoa Anh Đào nở kéo dài từ tháng 3 cho đến tháng 7. Theo thống kê ở Nhật có khoảng trên 300 giống Anh Đào và chiếm 40% tổng số 800 giống Anh Đào có trên thế giới. Anh Đào Mẫu Đơn được xem là đẹp hơn cả. Thời gian hoa nở từ 7-10 ngày, trong thời gian này thì người dân cả nước đểu cử hành các hoạt động thưởng thức hoa. Men nào có thể cho cả nhà cùng biết vì sao Hoa Anh Đào có vị trí quan trọng đặc biệt trong lòng người dân Nhật và trở thành \" Quốc hoa\" của nước họ? thanks.\n(gửi người ko tin tôi)","created_time":"2013-08-11T18:37:18+0000","updated_time":"2013-08-12T15:18:00+0000","likes":{"data":{"100004194542918":{"id":"100004194542918","name":"Đào Hana"},"100003669604211":{"id":"100003669604211","name":"Mặt Trời Phương Đông"},"100001416272263":{"id":"100001416272263","name":"Mai PB"},"100001458099624":{"id":"100001458099624","name":"Kham Pha"}},"paging":{"cursors":{"after":"MTAwMDA0MTk0NTQyOTE4","before":"MTAwMDA0MTk0NTQyOTE4"},"next":"https://graph.facebook.com/229244010425617_701302203219793/likes?limit=1&summary=1&after=MTAwMDA0MTk0NTQyOTE4"},"summary":{"total_count":4}},"comments":{"data":{"701552029861477":{"id":"701552029861477","from":{"id":"100001416272263","name":"Mai PB"},"message":"Cuộc đời người như hoa anh đào, nở đó rồi tàn ngay đó. Sống sao cho trong sạch nhé. Hoa nở, hoa tàn, hoa rơi lãng đãng, thật cảm khái... Nhìn hoa mà quên hết những bụi trần tầm thường hàng ngày. Võ sĩ chúng ta cũng phải thanh khiết như hoa vậy. Nhưng gia hệ chúng ta đừng nên sớm lụi tàn như hoa, nên xin không đưa anh đào lên gia huy ạ. ^^\n\nĐược chưa, Bo Bien Vang?","message_tags":[{"id":"100001723862714","name":"Bo Bien Vang","type":"user","offset":353,"length":12}],"can_remove":false,"created_time":"2013-08-12T06:33:03+0000","like_count":3,"user_likes":false},"701678636515483":{"id":"701678636515483","from":{"id":"100001458099624","name":"Kham Pha"},"message":"Anh Mai PB nhận xét rất đúng. Lần đầu tiên ngắm anh đào rơi em cũng cảm thấy hệt như vậy. Lần nào ngắm anh đào rơi cũng vẫn cảm xúc vậy. Có gì đó tiếc nuối, có gì đó trăn trở suy tư với thân phận con người. \nAnh đào sớm nở, sớm tàn thuận theo tự nhiên để cho ra lá nuôi cây. Đẹp, cao quý nhưng vẫn sẵn sàng hi sinh bản thân mình. Nếu anh đào cố chấp ko rơi, cây cũng ko còn, mùa sau sao còn thấy được anh đào.","message_tags":[{"id":"100001416272263","name":"Mai PB","type":"user","offset":4,"length":6}],"can_remove":false,"created_time":"2013-08-12T12:44:11+0000","like_count":2,"user_likes":false},"701694583180555":{"id":"701694583180555","from":{"id":"100001723862714","name":"Bo Bien Vang"},"message":"tàm tạm, mời các idea khác 2 ngài này ra.","can_remove":false,"created_time":"2013-08-12T13:24:18+0000","like_count":1,"user_likes":false},"701745189842161":{"id":"701745189842161","from":{"id":"100000381394367","name":"Thành Nguyễn"},"message":"花は桜木人は武士 Among the flowers cherry, among men the warrior","can_remove":false,"created_time":"2013-08-12T15:18:00+0000","like_count":0,"user_likes":false}},"paging":{"cursors":{"after":"NzAxNTUyMDI5ODYxNDc3","before":"NzAxNTUyMDI5ODYxNDc3"},"next":"https://graph.facebook.com/229244010425617_701302203219793/comments?limit=1&summary=1&after=NzAxNTUyMDI5ODYxNDc3"},"summary":{"order":"chronological","total_count":4}}}