{"id":"229244010425617_701476779869002","type":"status","from":{"id":"100002508122689","name":"Vũ Mạnh Tuấn"},"message":"Ý nghĩa ên các nhân vật trong truyện DORAEMON\n\n1. Chú mèo máy Đô rê mon.\n \nChính xác tên tiếng Nhật là Doraemon ( ドラえもん). Dora viết bằng katakana, còn emon lại viết bằng hiragana , chắc là do chơi chữ thôi.Dora lấy từ doraneko, neko là con mèo, doraneko là con mèo đi lạc. \n\nEmon là 1 hậu tố, nó là một cái ending-name phổ biến trong tên người Nhật trước kia. Ngày nay vẫn có người Nhật có emon ở trong tên của mình, chẳng hạn Kichiemon v.v..Nếu ai đọc Doraemon Base cung thấy các nhân vật với tên Kuro-emon, Shiro-emon v.v..\nÀ cái bánh rán mà Doraemon thích ăn có tên là Dorayaki /\n\n2. Nô bi ta ngốc nghếch.\n \nNô bi ta là Nobita ( Nobi Nobita ) ( 野比 のび太) (Dã Bỉ Đại Hùng )  [ trong đó Nobi là họ, Nobita là tên - giống như cấu tạo tên của tiếng Việt ). Chữ \"ta\" là Thái, trong \"thông thái\" - mơ ước của bố mẹ Nobita. ( Mà cái chữ Thái này, lấy cái dấu phẩy đặt lên trên là thành chữ Cẩu rồi ( 犬 ) :)) )\n\nNobi trong tiếng Nhật là vượt quá, vượt mức giới hạn, Nobita nghĩa là quá thông minh ( hài nhỉ ). Nobi Nobita nghĩa là thông minh vượt quá giới hạn. Ở đây chơi chữ, x2 Nobi với nghĩa thông minh vượt quá cả giới hạn của sự thông minh.\n\n3. Xuka dễ thương\nXuka là phiên âm tiếng việt do mấy bác dịch truyện việt hóa, còn tên thật của xuka là Minamoto Shizuka (しずか ) (Nguyên Tĩnh Hương )Minamoto trong Minamoto Shizuka có nghĩa là khởi nguồn. Shizuka có nguyên nghĩa là yên tĩnh, êm đềm. \n\n4. Chaien lồi rốn\n\nChaien cũng là tên được việt hóa, còn nguyên gốc truyện là Jaian (ジャイアン) , còn tên thật của Chaien là Gōda Takeshi. (Cương Điền Võ )\n\nGou có nghĩa là mạnh, Takeshi có nghĩa là đấm đá. Nếu viết ra tiếng Hán có nghĩa là võ!\n\nCòn Jaian thì là phiên âm từ Giant ( khổng lồ ) viết bằng katakana mà ra. \n\n5. Xê kô mỏ nhọn \n\nXê kô cũng là tên phiên âm, trong nguyên bản là Suneo (Honekawa Suneo ) ( 骨川 スネ夫 ) ( Cốt Xuyên Tiểu Phu)\n\nSuneo ghép bởi 2 từ là Sune nghĩa là \"dỗi\" và O nghĩa là dỗi, suy ra tên của nhân vật này là cậu bé hay hờn dỗi.\n\nHonekawa ghép bởi 2 từ Hone và Kawa. Hone nghĩa là xương, Kawa nghĩa là da ( có người dịch Kawa là sông là máy móc ) suy ra Honekawa là da bọc xương, nghĩa là gầy.\n\nHonekawa Suneo là cậu bé gầy hay hờn dỗi.\n\n* Mấy nhân vật phụ *\n\n6.Đêkhi \n Tên trong tiếng nhật là  Dekisugi ( Dekisugi Hidetoshi ) (出木杉 英才) ( Xuất Mộc Sam Anh Tài) \n Sugi có nghĩa là rất, là quá, còn Deki là có thể làm được, thế nên tác giả chơi chữ ĐêKhi nhà ta là \"cái gì cũng làm rất tốt\", ý là rất thông minh!!!\n\n7. Đô rê mi\n\nCũng như Đô rê mon, tên trong tiếng nhật của Đô rê mi là Dorami (ドラミ)\n\n8. Thầy giáo ( Sensei) ( 先生 )\n\nTrong truyện không đề cập , nhưng mà tên thầy là  Eiichiro Senjou.\n\n 9.  Cha của Nobita\n\nCha của Nobita (Nobi Nobisuke  ) (野比 のび助)\n\n10. Mẹ của Nobita\nMẹ của Nobita (Nobi Tamako )Tên thật của bà là Kataoka Tamako,( 野比 玉子) nhưng được đổi thành Nobi Tamako sau khi kết hôn với Nobi Nobisuke là cha của Nobita. \n\nCòn cả ông bà nội Nobita, rồi con trai, bác, chắt của Nobita, rồi cả gia đình họ hàng của xuka, xê kô, chaien nhưng mà thôi không đề cập đến nữa .:D","created_time":"2013-08-12T02:46:58+0000","updated_time":"2013-08-12T09:23:11+0000","likes":{"data":{"100003055356509":{"id":"100003055356509","name":"Thuan Nguyen"},"100003239455545":{"id":"100003239455545","name":"Yuki Daruma"},"100000381394367":{"id":"100000381394367","name":"Thành Nguyễn"},"100004514621076":{"id":"100004514621076","name":"Hason Angle"},"1666753742":{"id":"1666753742","name":"Pham Mai Hien"},"1693102459":{"id":"1693102459","name":"Châu Hoàng"},"100004705145167":{"id":"100004705145167","name":"Ngọc Tuệ Bạch"},"100004479249799":{"id":"100004479249799","name":"Phương Thảo"},"100002485872935":{"id":"100002485872935","name":"Duy Tam Nguyen"},"100003669604211":{"id":"100003669604211","name":"Mặt Trời Phương Đông"},"100001357646859":{"id":"100001357646859","name":"Rối Ơi Giúp Tôi"},"1286770563":{"id":"1286770563","name":"Vu Hong Trang"},"100002171270684":{"id":"100002171270684","name":"Do Thanh Thanh"},"100001754136107":{"id":"100001754136107","name":"Nguyễn Tuấn Vũ"},"100001416272263":{"id":"100001416272263","name":"Mai PB"},"100001458099624":{"id":"100001458099624","name":"Kham Pha"},"100005979874995":{"id":"100005979874995","name":"Va Lo"},"100001311893008":{"id":"100001311893008","name":"Nguyen Minh"},"100000325572172":{"id":"100000325572172","name":"Kaze Hikaru"},"100000328742646":{"id":"100000328742646","name":"Trần Giáp"}},"paging":{"cursors":{"after":"MTAwMDAzMDU1MzU2NTA5","before":"MTAwMDAzMDU1MzU2NTA5"},"next":"https://graph.facebook.com/229244010425617_701476779869002/likes?limit=1&summary=1&after=MTAwMDAzMDU1MzU2NTA5"},"summary":{"total_count":20}},"comments":{"data":{"701493976533949":{"id":"701493976533949","from":{"id":"100000064686295","name":"Huy Roli"},"message":"minh nghi seko la seikou tuc la tu thanh cong y ban a, nha se ko giau co nen dat ten con nhu vay","can_remove":false,"created_time":"2013-08-12T03:32:07+0000","like_count":0,"user_likes":false},"701494299867250":{"id":"701494299867250","from":{"id":"100002508122689","name":"Vũ Mạnh Tuấn"},"message":"Huy Roli: chính xác thì xê kô là phiên âm ra tiếng việt, còn tiếng nhật là Suneo . \nT đã search trên wiki rồi :D","message_tags":[{"id":"100000064686295","name":"Huy Roli","type":"user","offset":0,"length":8}],"can_remove":false,"created_time":"2013-08-12T03:33:07+0000","like_count":2,"user_likes":false},"701495439867136":{"id":"701495439867136","from":{"id":"100001416272263","name":"Mai PB"},"message":"Trời, thôi mấy cái chữ Hán Việt thì hơn.","can_remove":false,"created_time":"2013-08-12T03:36:25+0000","like_count":1,"user_likes":false},"701592909857389":{"id":"701592909857389","from":{"id":"100003767676668","name":"黒い猫"},"message":"Đâu ra trong truyên là chữ cứng chứ ドラエモン","can_remove":false,"created_time":"2013-08-12T08:10:35+0000","like_count":0,"user_likes":false},"701600276523319":{"id":"701600276523319","from":{"id":"100002508122689","name":"Vũ Mạnh Tuấn"},"message":"ドラえもん　:D","can_remove":false,"created_time":"2013-08-12T08:35:37+0000","like_count":0,"user_likes":false},"701612396522107":{"id":"701612396522107","from":{"id":"100003767676668","name":"黒い猫"},"message":"Về xem lại quyển ở nhà mới dc:?\nMình nhầm à","can_remove":false,"created_time":"2013-08-12T09:23:11+0000","like_count":0,"user_likes":false}},"paging":{"cursors":{"after":"NzAxNDkzOTc2NTMzOTQ5","before":"NzAxNDkzOTc2NTMzOTQ5"},"next":"https://graph.facebook.com/229244010425617_701476779869002/comments?limit=1&summary=1&after=NzAxNDkzOTc2NTMzOTQ5"},"summary":{"order":"chronological","total_count":6}}}