{"id":"229244010425617_701643399852340","type":"link","picture":"https://fbexternal-a.akamaihd.net/safe_image.php?d=AQBP0oaeFCNSMMrR&w=154&h=154&url=http%3A%2F%2Fimages.yume.vn%2Fbuzz%2F20110520%2F200x160%2F1305882508_1305878322_xutuyet.jpg","link":"http://yume.vn/news/sang-tac/truyen-ngan-tap-van/xu-tuyet-yasunari-kawabata-phan-1.35A7F951.html","from":{"id":"100003180366829","name":"Ngọc Hà"},"message":"Kawabata Yasunari và “Xứ tuyết”\nNhắc đến văn học Nhật Bản, người ta khó có thể không nhắc đến Kawabata Yasunari (川端康成）(1899- 1972) – nhà văn đầu tiên của nước Nhật và thứ ba ở Châu Á từng đạt giải Noben văn học. Đọc các sáng tác của ông, ta không thể bỏ qua “ Xứ Tuyết”(雪国、Yukiguni: 1937-1945). Người Nhật yêu qúy ngợi ca nó như Quốc bảo của dân tộc mình. Đến với “ Xứ tuyết” ta càng yêu quý thêm vẻ đẹp như thơ của tuyết, của các mùa, của người kĩ nữ... Ta cũng hiểu tại sao Kawabata lại được mệnh danh là người lữ khách không biết mệt mỏi đi trên hành trình đi tìm cái đẹp của văn hóa phương Đông.\n Một chú thích nho nhỏ khá thú vị là  “ Xứ Tuyết” ra đời đã có tác dụng to lớn trong việc thúc đẩy ngành công nghiệp không khói là du lịch ở đây phát triển vượt bậc. Nhiều người đọc cuốn tiểu thuyết này xong ngay lập tức muốn đến thăm “ Xứ Tuyết” ( trong đó có mình ^^, muốn đi tha thiết ấy). Thế mới thấy sức mạnh của văn học quả là không thể coi thường.^^","created_time":"2013-08-12T11:09:07+0000","updated_time":"2013-08-13T23:17:31+0000","likes":{"data":{"1377323999":{"id":"1377323999","name":"Jasmine Nguyen"},"100001501391912":{"id":"100001501391912","name":"Lai Hoang Duc"},"100005423676532":{"id":"100005423676532","name":"Ngân Nguyễn"},"100005188470667":{"id":"100005188470667","name":"Aquarius's Beats"},"100000603915176":{"id":"100000603915176","name":"悪いな ぁ"},"1168996060":{"id":"1168996060","name":"Chanh Leo"},"100000328742646":{"id":"100000328742646","name":"Trần Giáp"},"100003597762614":{"id":"100003597762614","name":"Shizuka Solembum"},"100004123327271":{"id":"100004123327271","name":"Nguyễn Phương"},"100001600730469":{"id":"100001600730469","name":"Phong Linh"},"100001458099624":{"id":"100001458099624","name":"Kham Pha"},"100000303662777":{"id":"100000303662777","name":"Trang Táo Mèo"},"100001416272263":{"id":"100001416272263","name":"Mai PB"},"100004032585669":{"id":"100004032585669","name":"Đoàn Phú Minh"},"100002508122689":{"id":"100002508122689","name":"Vũ Mạnh Tuấn"}},"paging":{"cursors":{"after":"MTM3NzMyMzk5OQ==","before":"MTM3NzMyMzk5OQ=="},"next":"https://graph.facebook.com/229244010425617_701643399852340/likes?limit=1&summary=1&after=MTM3NzMyMzk5OQ%3D%3D"},"summary":{"total_count":15}},"comments":{"data":{"701652606518086":{"id":"701652606518086","from":{"id":"100001416272263","name":"Mai PB"},"message":"Chẳng thấy giới thiệu bản dịch của ai, khi nào nhỉ?","can_remove":false,"created_time":"2013-08-12T11:38:24+0000","like_count":1,"user_likes":false},"701708149845865":{"id":"701708149845865","from":{"id":"100003180366829","name":"Ngọc Hà"},"message":"Em xin lỗi cả nhà vì sơ xuất, em vừa tra lại, đây là bản dịch của Ngô Văn Phú và Vũ Đình Bình dịch, Nxb Hội Nhà Văn, Hà Nội, 1995 dịch từ bản tiếng Pháp:bản tiếng Pháp Pays de Neige của Armel Guerne và Bunkichi Fujimon, Nhà xuất bản Albin Michel, Paris 1967 ạ. Em cảm ơn anh Mai PB.:)))","can_remove":false,"created_time":"2013-08-12T13:54:45+0000","like_count":2,"user_likes":false},"701709709845709":{"id":"701709709845709","from":{"id":"100001416272263","name":"Mai PB"},"message":"Do trang web đó thiếu thông tin mà, Ngọc Hà lỗi gì đâu","message_tags":[{"id":"100003180366829","name":"Ngọc Hà","type":"user","offset":36,"length":7}],"can_remove":false,"created_time":"2013-08-12T13:58:35+0000","like_count":0,"user_likes":false},"701712126512134":{"id":"701712126512134","from":{"id":"100000603915176","name":"悪いな ぁ"},"message":"Thx bạn nhé, sẽ tậu 1 cuốn để đọc nếu kg có online ;)","can_remove":false,"created_time":"2013-08-12T14:04:09+0000","like_count":1,"user_likes":false},"701726719844008":{"id":"701726719844008","from":{"id":"100001458099624","name":"Kham Pha"},"message":"Nổi tiếng thế này thì ko đọc ko đc rồi :)","can_remove":false,"created_time":"2013-08-12T14:40:59+0000","like_count":1,"user_likes":false},"701739389842741":{"id":"701739389842741","from":{"id":"100001458099624","name":"Kham Pha"},"message":"Ngọc Hà cho vào danh mục luôn kẻo quên :)","message_tags":[{"id":"100003180366829","name":"Ngọc Hà","type":"user","offset":0,"length":7}],"can_remove":false,"created_time":"2013-08-12T15:03:54+0000","like_count":0,"user_likes":false},"701754549841225":{"id":"701754549841225","from":{"id":"100000381394367","name":"Thành Nguyễn"},"message":"Cái này ngày xưa có trong bài đọc thêm của chương trình văn học cấp 3 mà, mọi người đa số phải biết chứ nhỉ, chẳng lẽ lại quên","can_remove":false,"created_time":"2013-08-12T15:43:01+0000","like_count":0,"user_likes":false},"701757489840931":{"id":"701757489840931","from":{"id":"100000603915176","name":"悪いな ぁ"},"message":"Bài đọc thêm tên gì vậy bạn Thành Nguyễn?","message_tags":[{"id":"100000381394367","name":"Thành Nguyễn","type":"user","offset":28,"length":12}],"can_remove":false,"created_time":"2013-08-12T15:50:42+0000","like_count":0,"user_likes":false},"701759253174088":{"id":"701759253174088","from":{"id":"100000381394367","name":"Thành Nguyễn"},"message":"Nó có một trích đoạn thôi, tên gì thì mình cũng ko nhớ vì đó là tên họ tự đặt chứ ko phải một chương của chuyện, thời mình đi học thì nó có, sau này có thể cắt giảm chương trình họ ko cho vào nữa.","can_remove":false,"created_time":"2013-08-12T15:55:59+0000","like_count":1,"user_likes":false},"701792006504146":{"id":"701792006504146","from":{"id":"1828906841","name":"Trọng Nghĩa Bùi"},"message":"chờ bản tiếng Nhật từ Huy Nguyen ^_^","message_tags":[{"id":"100000070097014","name":"Huy Nguyen","type":"user","offset":22,"length":10}],"can_remove":false,"created_time":"2013-08-12T17:21:50+0000","like_count":0,"user_likes":false},"701990409817639":{"id":"701990409817639","from":{"id":"100001458099624","name":"Kham Pha"},"message":"Vừa thức cả đêm qua đọc truyện này. Khó hiểu nhưng phiêu, ảo :)","can_remove":false,"created_time":"2013-08-13T02:28:59+0000","like_count":1,"user_likes":false},"702054456477901":{"id":"702054456477901","from":{"id":"100003180366829","name":"Ngọc Hà"},"message":"Em cung muôn tim mua quyên nay lăm nhưng tim không đươc, đanh đoc online thôi a!:)","can_remove":false,"created_time":"2013-08-13T05:31:59+0000","like_count":0,"user_likes":false},"702056589811021":{"id":"702056589811021","from":{"id":"100003180366829","name":"Ngọc Hà"},"message":"Sau nay đên thơi bon em, văn hoc Nhât Ban trong sach giao khoa chi con thơ Haiku thôi a.","can_remove":false,"created_time":"2013-08-13T05:37:02+0000","like_count":0,"user_likes":false},"702427016440645":{"id":"702427016440645","from":{"id":"100000687662713","name":"Vu Thi Man"},"message":"Lam gi co nhi. Minh thich van, thich doc cac tac pham van hoc nhung chua tung thay bai nay bao gio ca ban Thành Nguyễn ah","message_tags":[{"id":"100000381394367","name":"Thành Nguyễn","type":"user","offset":106,"length":12}],"can_remove":false,"created_time":"2013-08-13T23:17:31+0000","like_count":0,"user_likes":false}},"paging":{"cursors":{"after":"NzAxNjUyNjA2NTE4MDg2","before":"NzAxNjUyNjA2NTE4MDg2"},"next":"https://graph.facebook.com/229244010425617_701643399852340/comments?limit=1&summary=1&after=NzAxNjUyNjA2NTE4MDg2"},"summary":{"order":"chronological","total_count":14}}}