{"id":"229244010425617_701692209847459","type":"photo","object_id":"632890390064282","picture":"https://fbcdn-photos-c-a.akamaihd.net/hphotos-ak-ash3/t1.0-0/1150341_632890390064282_662081112_s.jpg","link":"https://www.facebook.com/photo.php?fbid=632890390064282&set=gm.701692209847459&type=1&relevant_count=1","from":{"id":"100000299798248","name":"Vẹt Đêm"},"message":"[VĂN HÓA TRONG ĂN UỐNG]\nTrong cuộc sống đời thường cũng như trong công việc, để cho những mối quan hệ trở nên mật thiết hơn, người Nhật thường mời nhau đi ăn uống đồng thời để trò chuyện, bàn bạc công việc. \n\n* Người ta vừa ăn uống vừa tìm hiểu về nhau và có lẽ đây mới là lúc người ta hỏi thăm tới những chuyện riêng tư, chuyện gia đình của nhau một cách khéo léo. \n\n* Khi ăn uống ở nhà hàng, từng người sẽ chọn thực đơn cho mình và ăn đến đâu gọi đến đấy với lượng thức ăn vừa đủ. \n\n* Không giống như người Việt Nam, người Nhật tránh việc gắp thức ăn cho nhau. \n\n* Một điều đáng chú ý khi đi ăn uống với người Nhật, đó là tục tự trả phần tiền của mình, người Nhật gọi là Warikan. Người Nhật thích sòng phẳng, không muốn làm phiền hoặc ơn huệ người khác nên người ta cảm thấy tự nhiên khi ăn xong, từng người một tính toán phần tiền của mình và góp lại trả cho nhà hàng. Ngay cả những đôi trai gái yêu nhau, những người thuộc tầng lớp khác nhau khi mời nhau đi ăn đều làm như vậy như một lẽ đương nhiên, không một chút khách khí gì (không kể trường hợp một người đứng ra chủ chi mời khách nhân một sự kiện nào đó). \n\n* Người Nhật thường không dùng tăm hoặc nếu có thì cũng chỉ nam giới cần đến.\n\n[Nguồn: lụm lặt trên mạng ^^]","created_time":"2013-08-12T13:17:41+0000","updated_time":"2013-08-12T16:40:31+0000","likes":{"data":{"100003220930333":{"id":"100003220930333","name":"Bé Boom"},"100002594112476":{"id":"100002594112476","name":"Thiên Di"},"100004477292126":{"id":"100004477292126","name":"Kien Xinh Doan"},"100001526631937":{"id":"100001526631937","name":"Tường Oanh Mineko"},"100001754136107":{"id":"100001754136107","name":"Nguyễn Tuấn Vũ"},"100002508122689":{"id":"100002508122689","name":"Vũ Mạnh Tuấn"},"100000309978634":{"id":"100000309978634","name":"Tan Vu"},"100004747622463":{"id":"100004747622463","name":"Tuan Phuong"},"100000140367328":{"id":"100000140367328","name":"Bac Long"},"100004028173069":{"id":"100004028173069","name":"Jin Ngốc"},"100001458099624":{"id":"100001458099624","name":"Kham Pha"},"100004032585669":{"id":"100004032585669","name":"Đoàn Phú Minh"},"100005307215967":{"id":"100005307215967","name":"Aries Cassiopeia"},"100001156522232":{"id":"100001156522232","name":"Le Na Nguyen Tran"},"100003767676668":{"id":"100003767676668","name":"黒い猫"},"100003171672878":{"id":"100003171672878","name":"Tầu Heo"},"100001416272263":{"id":"100001416272263","name":"Mai PB"}},"paging":{"cursors":{"after":"MTAwMDAzMjIwOTMwMzMz","before":"MTAwMDAzMjIwOTMwMzMz"},"next":"https://graph.facebook.com/229244010425617_701692209847459/likes?limit=1&summary=1&after=MTAwMDAzMjIwOTMwMzMz"},"summary":{"total_count":19}},"comments":{"data":{"701728143177199":{"id":"701728143177199","from":{"id":"100001458099624","name":"Kham Pha"},"message":"quán này trông như 回転寿司 ấy nhỉ :)","can_remove":false,"created_time":"2013-08-12T14:43:52+0000","like_count":0,"user_likes":false},"701731076510239":{"id":"701731076510239","from":{"id":"100000140367328","name":"Bac Long"},"message":"nếu ở việt nam con gái cũng hiểu 1 phần nào thì cánh đàn ông cũng đỡ phải cân não khi đi chơi rồi","can_remove":false,"created_time":"2013-08-12T14:49:48+0000","like_count":2,"user_likes":false},"701737403176273":{"id":"701737403176273","from":{"id":"100001458099624","name":"Kham Pha"},"message":"Người Nhật làm vậy cũng là hợp lí thôi. Nếu đi ăn, chơi với nhau mà một người cứ phải trả tiền thì lần sau nhiều khả năng ko thể đi chơi tiếp được với nhau nữa. \nNhiều chàng trai còn để bụng, đến khi chia tay đòi tình phí mới dị. Các cô gái VN nhiều cô cũng lạ, đi chơi được người yêu trả tiền cho thì nghĩ người yêu mình tốt, ga lăng. Đến lúc lấy nhau rồi có thể chính người chồng ấy sẽ lôi những cái ấy ra để đòi hỏi nhiều thứ, cứ như vợ mình là đồ ăn bám. Rồi hành hạ, chì chiết nhau. \nDù sao nó cũng là văn hóa rồi, ko thay đổi được. Nếu yêu nhau thật lòng thì sẽ hiểu cho nhau mà có cách xử lý phù hợp :)","can_remove":false,"created_time":"2013-08-12T15:01:38+0000","like_count":2,"user_likes":false},"701739249842755":{"id":"701739249842755","from":{"id":"100001458099624","name":"Kham Pha"},"message":"Vẹt Đêm cho vào danh mục luôn kẻo quên :)","message_tags":[{"id":"100000299798248","name":"Vẹt Đêm","type":"user","offset":0,"length":7}],"can_remove":false,"created_time":"2013-08-12T15:03:28+0000","like_count":0,"user_likes":false},"701741519842528":{"id":"701741519842528","from":{"id":"100001458099624","name":"Kham Pha"},"message":"cả bài hôm trước luôn","can_remove":false,"created_time":"2013-08-12T15:08:33+0000","like_count":0,"user_likes":false},"701771113172902":{"id":"701771113172902","from":{"id":"100002508122689","name":"Vũ Mạnh Tuấn"},"message":"hồi trước bọn em đi liên hoan có mời các cô giáo người Nhật đi ăn . Lúc đi thanh toán cô đưa cho em 1 cái phong bì có ghi : ほんの気持ちです( trong đó có money ). Tính từ chối mà không được nên đành nhận , vì cô cứ nhất quyết rằng đó là tấm lòng của cô <3\nĐọc mới nhớ, toàn gắp thức ăn cho các cô ;3","can_remove":false,"created_time":"2013-08-12T16:26:35+0000","like_count":0,"user_likes":false},"701775893172424":{"id":"701775893172424","from":{"id":"100001754136107","name":"Nguyễn Tuấn Vũ"},"message":"Đúng chuẩn rồi a.chỗ e 105 Yên 1 đia con tý 1 cái.\nCòn vụ trả tiền riêng thì e nghe ng nhật nói : ai cũng làm ra tiền,vì vậy họ cũng tran trọng những thứ mình lam ra.","can_remove":false,"created_time":"2013-08-12T16:40:10+0000","like_count":0,"user_likes":false},"701776053172408":{"id":"701776053172408","from":{"id":"100001754136107","name":"Nguyễn Tuấn Vũ"},"message":"Còn ăn vs ng nhật thì thân lắm mới gắp thôi .","can_remove":false,"created_time":"2013-08-12T16:40:31+0000","like_count":0,"user_likes":false}},"paging":{"cursors":{"after":"NzAxNzI4MTQzMTc3MTk5","before":"NzAxNzI4MTQzMTc3MTk5"},"next":"https://graph.facebook.com/229244010425617_701692209847459/comments?limit=1&summary=1&after=NzAxNzI4MTQzMTc3MTk5"},"summary":{"order":"chronological","total_count":8}}}