{"id":"229244010425617_701766769840003","type":"link","picture":"https://fbexternal-a.akamaihd.net/safe_image.php?d=AQCAQbQbS3Vt-AW4&w=154&h=154&url=http%3A%2F%2Fi1006.photobucket.com%2Falbums%2Faf189%2Fmichaeljoha%2FJapan%2FOF%2FIMG_0112.jpg","link":"http://www.otofun.net/threads/346272-toan-canh-nhat-ban-trong-mat-toi-nhung-dieu-hay-do","from":{"id":"100002508122689","name":"Vũ Mạnh Tuấn"},"message":"Không biết group mình đã ai theo dõi thread này trong forum otofun chưa. \n\nĐây là chuyên mục :\" Toàn cảnh Nhật Bản trong mắt tôi... Những điều hay, dở..  \"của thành viên michaeljo trong diễn đàn otofun . Bác này lấy vợ Nhật, nên coi bên đấy như là quê hương thứ 2. \nTrong thread có sắp xếp các chủ đề và có mục lục để cho người đọc dễ tìm hiểu. \nĐặc biệt là về chủ đề nào cũng có rất nhiều ảnh minh họa do tác giả tự chụp , từ văn hóa, địa danh, trang phục, vui chơi, sinh sống , cưới xin ... Nói chung là rất nhiều thứ liên quan đến Nhật Bản được trình bày gần gũi như kể chuyện bằng hình ảnh.\n\nAi chưa xem thì click thử xem, có khá nhiều điều thú vị đó.\nどうぞ。\nhttp://www.otofun.net/threads/346272-toan-canh-nhat-ban-trong-mat-toi-nhung-dieu-hay-do","created_time":"2013-08-12T16:14:24+0000","updated_time":"2013-08-13T04:53:19+0000","likes":{"data":{"100006483876445":{"id":"100006483876445","name":"Nhật Ngữ Asuka"},"1286770563":{"id":"1286770563","name":"Vu Hong Trang"},"100000375337797":{"id":"100000375337797","name":"Lana Pham"},"100004642933206":{"id":"100004642933206","name":"Aloha Aloha"},"1843294954":{"id":"1843294954","name":"Nguyen Thanh Van"},"100002754998000":{"id":"100002754998000","name":"Nguyen Duc"},"100002059373388":{"id":"100002059373388","name":"Tống Văn Linh"},"100004705145167":{"id":"100004705145167","name":"Ngọc Tuệ Bạch"},"100003239455545":{"id":"100003239455545","name":"Yuki Daruma"},"100003662604894":{"id":"100003662604894","name":"Mai Hana"},"100004478832761":{"id":"100004478832761","name":"Thiên Trang"},"100000451899565":{"id":"100000451899565","name":"Tien Dung Nguyen"},"100004722305374":{"id":"100004722305374","name":"Lê Tiến Dũng"},"100003571302485":{"id":"100003571302485","name":"Mai Thiết Lĩnh"},"1264767242":{"id":"1264767242","name":"Anh Duc"},"100001427203360":{"id":"100001427203360","name":"Nguyen La"},"100000007294630":{"id":"100000007294630","name":"Ray Chan"},"100000325572172":{"id":"100000325572172","name":"Kaze Hikaru"},"100000284487802":{"id":"100000284487802","name":"Buu Lam Gia"},"100001231404357":{"id":"100001231404357","name":"Quoc Anh"},"100003898945278":{"id":"100003898945278","name":"Lê Thư Trang"},"100003187613258":{"id":"100003187613258","name":"Viyoung Park"},"100000895978137":{"id":"100000895978137","name":"Vũ Thắng"},"100003926400742":{"id":"100003926400742","name":"Trần Mạnh"},"100003999830018":{"id":"100003999830018","name":"Mẩu Sẩu"},"1694966999":{"id":"1694966999","name":"Nguyễn Công Tiến"},"100001043501222":{"id":"100001043501222","name":"Bẩy Chấy"},"1234763221":{"id":"1234763221","name":"Samatha Sam"},"100003520011052":{"id":"100003520011052","name":"BiLy Smile"},"100003097410255":{"id":"100003097410255","name":"Keiji Maeda"},"1828906841":{"id":"1828906841","name":"Trọng Nghĩa Bùi"},"675217980":{"id":"675217980","name":"Vit Bông"},"100002782131785":{"id":"100002782131785","name":"Hasegawa Kiyotake"},"100002919392947":{"id":"100002919392947","name":"Heo In"},"795524058":{"id":"795524058","name":"Lucky Sally"},"100003950005025":{"id":"100003950005025","name":"Tara Cobra"},"1577051131":{"id":"1577051131","name":"Aoi Usagi"},"100000876802397":{"id":"100000876802397","name":"Trần Bảo Ngân"},"100000427448138":{"id":"100000427448138","name":"Anh Tuan Pham"},"100004094533819":{"id":"100004094533819","name":"Hieu Ke"},"100003158960288":{"id":"100003158960288","name":"Bao Huy Bao Huy"},"100000328742646":{"id":"100000328742646","name":"Trần Giáp"}},"paging":{"cursors":{"after":"MTAwMDA2NDgzODc2NDQ1","before":"MTAwMDA2NDgzODc2NDQ1"},"next":"https://graph.facebook.com/229244010425617_701766769840003/likes?limit=1&summary=1&after=MTAwMDA2NDgzODc2NDQ1"},"summary":{"total_count":43}},"comments":{"data":{"701767873173226":{"id":"701767873173226","from":{"id":"100000328742646","name":"Trần Giáp"},"message":"oánh dấu phát hôm sau xem ;)","can_remove":false,"created_time":"2013-08-12T16:17:30+0000","like_count":0,"user_likes":false},"701768909839789":{"id":"701768909839789","from":{"id":"100002508122689","name":"Vũ Mạnh Tuấn"},"message":"ずっと見たほうがいい！","can_remove":false,"created_time":"2013-08-12T16:20:18+0000","like_count":0,"user_likes":false},"701777476505599":{"id":"701777476505599","from":{"id":"100003363496155","name":"Hà Phong Thọ"},"message":"Lưư vào maj đọc","can_remove":false,"created_time":"2013-08-12T16:43:50+0000","like_count":0,"user_likes":false},"701779723172041":{"id":"701779723172041","from":{"id":"100002919392947","name":"Heo In"},"message":"Phan Ha.. doc cung hay nay!^^","message_tags":[{"id":"100002443315458","name":"Phan Ha","type":"user","offset":0,"length":7}],"can_remove":false,"created_time":"2013-08-12T16:49:57+0000","like_count":0,"user_likes":false},"702044063145607":{"id":"702044063145607","from":{"id":"100004705145167","name":"Ngọc Tuệ Bạch"},"message":"Bài viết rất hay cám ơn ad đã chia sẽ thông tin","can_remove":false,"created_time":"2013-08-13T04:53:19+0000","like_count":1,"user_likes":false}},"paging":{"cursors":{"after":"NzAxNzY3ODczMTczMjI2","before":"NzAxNzY3ODczMTczMjI2"},"next":"https://graph.facebook.com/229244010425617_701766769840003/comments?limit=1&summary=1&after=NzAxNzY3ODczMTczMjI2"},"summary":{"order":"chronological","total_count":5}}}