{"id":"229244010425617_701792073170806","type":"status","from":{"id":"100001723862714","name":"Bo Bien Vang"},"message":"Nhật cũng có 12 con giáp nhưng ko có mèo và lợn mà thay vào đó là thỏ và lợn rừng.\nVietnamese                                                    japanese\n1\"như chó với mèo\"                        =            \"như chó với khỉ\"\n2\"thả con săn sắt bắt con cá rô\"     =     \"dùng con tôm để câu con cá chép\"    \n3\"đàn gẩy tai trâu\"                      =        \"niệm phật cho ngựa nghe\"\n4\"sông có khúc người có lúc\"        =      \"khỉ cũng có lúc ngã từ trên cây xuống\" \n5\"chật như nêm\"                       =        \"chật như chán mèo\"\n6\"bận tối mắt tối mũi\" =  \"bận đến mức muốn nhờ sự giúp đỡ của con mèo\"     \n7\"chuột sa bẫy\"          =        \" chuột sa túi\"\n Các mem có sẵn lòng translate  sang japanese không?    \n1. inu to saru\n2..................","created_time":"2013-08-12T17:22:04+0000","updated_time":"2013-08-13T03:09:07+0000","likes":{"data":{"100000375337797":{"id":"100000375337797","name":"Lana Pham"},"100004123327271":{"id":"100004123327271","name":"Nguyễn Phương"},"100003325600635":{"id":"100003325600635","name":"Nguyen Hong Nhi"},"100003187613258":{"id":"100003187613258","name":"Viyoung Park"},"100000042138129":{"id":"100000042138129","name":"Duong David"}},"paging":{"cursors":{"after":"MTAwMDAwMzc1MzM3Nzk3","before":"MTAwMDAwMzc1MzM3Nzk3"},"next":"https://graph.facebook.com/229244010425617_701792073170806/likes?limit=1&summary=1&after=MTAwMDAwMzc1MzM3Nzk3"},"summary":{"total_count":5}},"comments":{"data":{"701856119831068":{"id":"701856119831068","from":{"id":"100000042138129","name":"Duong David"},"message":"COn Cừu nữa.","can_remove":false,"created_time":"2013-08-12T20:28:42+0000","like_count":1,"user_likes":false},"702002829816397":{"id":"702002829816397","from":{"id":"100000064686295","name":"Huy Roli"},"message":"Việt Nam Nhật Bản cũng có album nói chi tiết cái này mà","message_tags":[{"id":"100004251279517","name":"Việt Nam Nhật Bản","type":"user","offset":0,"length":17}],"can_remove":false,"created_time":"2013-08-13T03:09:07+0000","like_count":0,"user_likes":false}},"paging":{"cursors":{"after":"NzAxODU2MTE5ODMxMDY4","before":"NzAxODU2MTE5ODMxMDY4"},"next":"https://graph.facebook.com/229244010425617_701792073170806/comments?limit=1&summary=1&after=NzAxODU2MTE5ODMxMDY4"},"summary":{"order":"chronological","total_count":2}}}