{"id":"229244010425617_702228213127192","type":"status","from":{"id":"100006480922847","name":"My Huyen Lam"},"message":"em rat thjch hoc tjeng nhat .cho em hoj hoc co kho khong va bao nhieu lau moj thanh thao duoc?","created_time":"2013-08-13T14:31:31+0000","updated_time":"2013-08-13T16:07:04+0000","likes":{"data":{"100001731744647":{"id":"100001731744647","name":"Niềm Vui"}},"paging":{"cursors":{"after":"MTAwMDAxNzMxNzQ0NjQ3","before":"MTAwMDAxNzMxNzQ0NjQ3"}},"summary":{"total_count":1}},"comments":{"data":{"702228606460486":{"id":"702228606460486","from":{"id":"100000064686295","name":"Huy Roli"},"message":"Khó như học tiếng anh, bao lâu thì tùy","can_remove":false,"created_time":"2013-08-13T14:32:42+0000","like_count":0,"user_likes":false},"702229126460434":{"id":"702229126460434","from":{"id":"100003700084315","name":"Trầm Luân"},"message":"tiếng nhật được xếp vào loại ngôn ngữ khó nhất, hơn tiếng anh một bậc, còn bao lâu đấy là tuỳ từng người","can_remove":false,"created_time":"2013-08-13T14:33:51+0000","like_count":0,"user_likes":false},"702229689793711":{"id":"702229689793711","from":{"id":"100001190331351","name":"Đặng Thiện"},"message":"Nếu học đều thì 2 năm là hơi ổn đó bạn, còn học ko đều thì ko thể thành thạo được.","can_remove":false,"created_time":"2013-08-13T14:35:54+0000","like_count":1,"user_likes":false},"702229796460367":{"id":"702229796460367","from":{"id":"100000747635624","name":"Nguyễn Xuân Đại"},"message":"Binh thuong,1 nam","can_remove":false,"created_time":"2013-08-13T14:36:15+0000","like_count":0,"user_likes":false},"702229996460347":{"id":"702229996460347","from":{"id":"100001416272263","name":"Mai PB"},"message":"Ấy mấy bạn đừng làm e ấy sợ. Học mà vui thích thì dễ em. Có ng học khg vào tiếng A mà học tốt tiếng N đấy.","can_remove":false,"created_time":"2013-08-13T14:36:57+0000","like_count":4,"user_likes":false},"702231693126844":{"id":"702231693126844","from":{"id":"100006480922847","name":"My Huyen Lam"},"message":"hjhj .nhat djnh em se co gang","can_remove":false,"created_time":"2013-08-13T14:42:05+0000","like_count":0,"user_likes":false},"702232133126800":{"id":"702232133126800","from":{"id":"100001628612184","name":"Mai Tròn"},"message":"Em thấy học khó nhớ hơn Tiếng Anh nhiều anh Huy Roli à, hê hê","message_tags":[{"id":"100000064686295","name":"Huy Roli","type":"user","offset":44,"length":8}],"can_remove":false,"created_time":"2013-08-13T14:42:51+0000","like_count":1,"user_likes":false},"702238636459483":{"id":"702238636459483","from":{"id":"100004112258038","name":"Chung Tran"},"message":"tiếng Nhật dễ hơn tiếng Anh ở khoản phát âm vs nghe , yên tâm là thế đi ^^","can_remove":false,"created_time":"2013-08-13T14:59:25+0000","like_count":2,"user_likes":false},"702239343126079":{"id":"702239343126079","from":{"id":"100001628612184","name":"Mai Tròn"},"message":"Mình cũng thấy thế, vì âm Nhật giống với âm Việt...:)","can_remove":false,"created_time":"2013-08-13T15:01:42+0000","like_count":0,"user_likes":false},"702248579791822":{"id":"702248579791822","from":{"id":"100001754136107","name":"Nguyễn Tuấn Vũ"},"message":"Thế bạn tự hỏi mình có kiên trì đc ko","can_remove":false,"created_time":"2013-08-13T15:20:43+0000","like_count":0,"user_likes":false},"702268473123166":{"id":"702268473123166","from":{"id":"1341670471","name":"An Nguyen"},"message":"Bao năm là Tuỳ bạn học trình độ j? Chuyên môn thì mất time nhìu, còn giao tiếp cơ bản là 3 thang thì OK, còn học sâu mấy năm lận,","can_remove":false,"created_time":"2013-08-13T16:07:04+0000","like_count":0,"user_likes":false}},"paging":{"cursors":{"after":"NzAyMjI4NjA2NDYwNDg2","before":"NzAyMjI4NjA2NDYwNDg2"},"next":"https://graph.facebook.com/229244010425617_702228213127192/comments?limit=1&summary=1&after=NzAyMjI4NjA2NDYwNDg2"},"summary":{"order":"chronological","total_count":11}}}