{"id":"229244010425617_702382223111791","type":"status","from":{"id":"100001723862714","name":"Bo Bien Vang"},"message":"Lễ trưởng thành của Nhật.\nĐược coi là quốc lễ ở đất nước mặt trời mọc. Cứ vào 15/1 hàng năm là hàng triệu thanh niên tròn 20 tuổi mặc kimono với đủ màu sắc, tập trung ở hội trường hoặc công viên để tham dự buổi lễ đánh dấu chính thức trở thành người lớn. \nKể từ đây họ sẽ được phép đi bầu cử, và nhiều việc khác của người lớn.\nMở đầu buổi lễ, người đại diện cho chính quền địa phương sẽ đừng lên khai mạc và chúc mừng.\nSau đó từng người sẽ nói lời tuyên ngôn về phong cách sống của mình từ giờ trở đi sẽ như thế nào?(như kiểu lời hứa danh dự ý).\nRối họ hàn huyên với nhau và chụp ảnh kỉ niệm.\nCó những nơi cũng tổ chức ngày này vào tháng 8 cùng với kỹ nghỉ lễ Obon.\nCác mem thấy lạ không? Việt Nam mình ko có đúng ko? mình yêu đất nước, con người và văn hóa Nhật but japanese thì.....lol","created_time":"2013-08-13T20:54:35+0000","updated_time":"2013-08-15T14:51:56+0000","likes":{"data":{"100002724810405":{"id":"100002724810405","name":"Nguyễn Quân"},"100001727857917":{"id":"100001727857917","name":"Bui Duyen"},"100004123327271":{"id":"100004123327271","name":"Nguyễn Phương"},"100003011417151":{"id":"100003011417151","name":"Hue Kim"},"100004478832761":{"id":"100004478832761","name":"Thiên Trang"},"100002409019199":{"id":"100002409019199","name":"Prettiest Friend"},"100002975704200":{"id":"100002975704200","name":"Lee Ami"},"100001416272263":{"id":"100001416272263","name":"Mai PB"},"100002568133487":{"id":"100002568133487","name":"Ty Ti"},"100003237670837":{"id":"100003237670837","name":"Tôn Thành Long"}},"paging":{"cursors":{"after":"MTAwMDAyNzI0ODEwNDA1","before":"MTAwMDAyNzI0ODEwNDA1"},"next":"https://graph.facebook.com/229244010425617_702382223111791/likes?limit=1&summary=1&after=MTAwMDAyNzI0ODEwNDA1"},"summary":{"total_count":11}},"comments":{"data":{"702406379776042":{"id":"702406379776042","from":{"id":"100003237670837","name":"Tôn Thành Long"},"message":"(Y)","can_remove":false,"created_time":"2013-08-13T22:03:45+0000","like_count":0,"user_likes":false},"702432916440055":{"id":"702432916440055","from":{"id":"100001458099624","name":"Kham Pha"},"message":"Tyn Akinăm ngoái em dự lễ trưởng thành ở bên Nhật phải không? Có ảnh chụp gì up lên cho mọi người xem :)","message_tags":[{"id":"100001695345798","name":"Tyn Aki","type":"user","offset":0,"length":7}],"can_remove":false,"created_time":"2013-08-13T23:37:22+0000","like_count":1,"user_likes":false},"702435933106420":{"id":"702435933106420","from":{"id":"100001535653711","name":"Nguyen Huy Son"},"message":"日本五は難しいですね！","can_remove":false,"created_time":"2013-08-13T23:49:56+0000","like_count":1,"user_likes":false},"702436753106338":{"id":"702436753106338","from":{"id":"100001535653711","name":"Nguyen Huy Son"},"message":"Ừ. Đúng rồi. Phải là 日本語は難しいですね！\nありがとうございます。","can_remove":false,"created_time":"2013-08-13T23:52:14+0000","like_count":2,"user_likes":false},"703221806361166":{"id":"703221806361166","from":{"id":"100001695345798","name":"Tyn Aki"},"message":"đây là một ngày đáng nhớ vs bất kì thanh niên nào, bạn Bo Bien Vang có tạo note cho bài gt này không bạn? :)","message_tags":[{"id":"100001723862714","name":"Bo Bien Vang","type":"user","offset":55,"length":12}],"can_remove":false,"created_time":"2013-08-15T14:51:56+0000","like_count":0,"user_likes":false}},"paging":{"cursors":{"after":"NzAyNDA2Mzc5Nzc2MDQy","before":"NzAyNDA2Mzc5Nzc2MDQy"},"next":"https://graph.facebook.com/229244010425617_702382223111791/comments?limit=1&summary=1&after=NzAyNDA2Mzc5Nzc2MDQy"},"summary":{"order":"chronological","total_count":5}}}