{"id":"229244010425617_703046906378656","type":"status","from":{"id":"1552036787","name":"Lyklyk Tran"},"message":"オフィス族ほど変化に弱い人種はない\nMọi người dịch giúp em với nhé, mở đầu một đoạn văn mà không hiểu thiệt là khó đọc được hết bài.","created_time":"2013-08-15T07:26:39+0000","updated_time":"2013-08-15T11:35:29+0000","comments":{"data":{"703093263040687":{"id":"703093263040687","from":{"id":"100001416272263","name":"Mai PB"},"message":"Câu này hơi khó chút về từ thôi. Ngữ pháp đơn giản mà.\n\nオフィス族: dân văn phòng\n変化に弱い: kém thích nghi với các (sự) thay đổi\n\nEm dịch được không?","can_remove":false,"created_time":"2013-08-15T10:30:26+0000","like_count":0,"user_likes":false},"703109089705771":{"id":"703109089705771","from":{"id":"1552036787","name":"Lyklyk Tran"},"message":"em cám ơn , nhưng cho em hỏi thêm không phải mình chú trọng vào mẫu ngữ pháp này sao anhほど。。。ないrồi thêm chữ 人種e chịu thua thiệt anh ơi!!!","can_remove":false,"created_time":"2013-08-15T11:19:42+0000","like_count":0,"user_likes":false},"703110966372250":{"id":"703110966372250","from":{"id":"100001416272263","name":"Mai PB"},"message":"AほどBない: không B đến mức (như) A\nĐây là ngữ pháp cơ bản, em chưa học thì dịch làm gì.","can_remove":false,"created_time":"2013-08-15T11:23:16+0000","like_count":1,"user_likes":false},"703112179705462":{"id":"703112179705462","from":{"id":"1552036787","name":"Lyklyk Tran"},"message":"dạ không anh, thì do em chú trọng vô cái ngữ pháp so sánh đo, cho nên e ko diễn giải được đó chứ,hehe","can_remove":false,"created_time":"2013-08-15T11:24:24+0000","like_count":0,"user_likes":false},"703116046371742":{"id":"703116046371742","from":{"id":"100001416272263","name":"Mai PB"},"message":"\"Không có loại người nào kém thích nghi với thay đổi như dân văn phòng\", em thấy thế nào? Câu này có lẽ rất đúng, cả người Nhật cả người Việt. :-)","can_remove":false,"created_time":"2013-08-15T11:27:53+0000","like_count":4,"user_likes":false},"703117566371590":{"id":"703117566371590","from":{"id":"1552036787","name":"Lyklyk Tran"},"message":"dạ , e cam on anh, thiệt sự lúc đầu em học bài dịch này, e sợ từ vựng kinh khủng,đây chỉ la 1 câu trong 1 đoạn văn nhỏ mà thầy giáo người nhật dạy em, ngữ pháp căn bản, nhưng từ vựng hàn lâm quá e không dùng được nghĩa cho phù hợp đắn đo cả buổi sang mới dám để  lên nhờ moi ng dịch giúp, hihi, với lại kinh nghiệm phân chia từ của e cung hạn chế, em lại tách từ thế này 変化に/ 弱い人種 cho nên em cũng chịu thua luôn, cám ơn anh nhiều nhé","can_remove":false,"created_time":"2013-08-15T11:31:21+0000","like_count":2,"user_likes":false},"703117583038255":{"id":"703117583038255","from":{"id":"100001458099624","name":"Kham Pha"},"message":"Như anh Mai PB nói đấy, cấu trúc là: AほどBない. Trong đó: \nA: オフィス族 - dân văn phòng\nB: 変化に弱い人種 - những người kém thích nghi với sự thay đổi. \nCấu trúc ほど〜ない bạn có thể tham khảo trong các bài viết của group. \n \nBài 32:　～ほど　～はない\nhttps://www.facebook.com/groups/229244010425617/doc/598806850135996/\n \nBài 33: ～ほど\nhttps://www.facebook.com/groups/229244010425617/doc/599678376715510/","can_remove":false,"created_time":"2013-08-15T11:31:24+0000","like_count":1,"user_likes":false},"703117863038227":{"id":"703117863038227","from":{"id":"1552036787","name":"Lyklyk Tran"},"message":"dạ em cám ơn Kham Pha nhé, em sẽ rút kinh nghiệm","message_tags":[{"id":"100001458099624","name":"Kham Pha","type":"user","offset":15,"length":8}],"can_remove":false,"created_time":"2013-08-15T11:32:09+0000","like_count":1,"user_likes":false},"703119076371439":{"id":"703119076371439","from":{"id":"100001416272263","name":"Mai PB"},"message":"Gì đâu mà rút kinh nghiệm, không hiểu thì hỏi thôi em, đây là lợi thế của group so với sách giáo khoa","can_remove":false,"created_time":"2013-08-15T11:35:29+0000","like_count":2,"user_likes":false}},"paging":{"cursors":{"after":"NzAzMDkzMjYzMDQwNjg3","before":"NzAzMDkzMjYzMDQwNjg3"},"next":"https://graph.facebook.com/229244010425617_703046906378656/comments?limit=1&summary=1&after=NzAzMDkzMjYzMDQwNjg3"},"summary":{"order":"chronological","total_count":9}},"likes":{"data":[]}}