{"id":"229244010425617_704097222940291","type":"status","from":{"id":"100001458099624","name":"Kham Pha"},"message":"Hội Ritsumeikan Ngo Duy Son  Diệu Nguyễn Cuong Nguyen Trung Ha Nguyen Viet Anh,...mới đi Phú Sĩ về có ai muốn làm bài review ko?  Năm nay chị Yo lại rủ mà bận ko đi được, leo năm ngoái thì ko nhớ được nhiều chi tiết, khó viết. Bây giờ mà viết chắc phải chém gió ra nhiều :D Viết review đi cho ae còn hồi tưởng.","created_time":"2013-08-17T02:01:28+0000","updated_time":"2013-08-17T05:05:04+0000","likes":{"data":{"100001062202744":{"id":"100001062202744","name":"Hoang Garu"},"100000250256418":{"id":"100000250256418","name":"Nguyen Viet Anh"},"100002508122689":{"id":"100002508122689","name":"Vũ Mạnh Tuấn"}},"paging":{"cursors":{"after":"MTAwMDAxMDYyMjAyNzQ0","before":"MTAwMDAxMDYyMjAyNzQ0"},"next":"https://graph.facebook.com/229244010425617_704097222940291/likes?limit=1&summary=1&after=MTAwMDAxMDYyMjAyNzQ0"},"summary":{"total_count":3}},"comments":{"data":{"704113702938643":{"id":"704113702938643","from":{"id":"100000250256418","name":"Nguyen Viet Anh"},"message":"Nếu đủ sức leo lần 2 thì tao sẽ viết. =))","can_remove":false,"created_time":"2013-08-17T02:59:00+0000","like_count":0,"user_likes":false},"704113936271953":{"id":"704113936271953","from":{"id":"100001260645727","name":"Ngo Duy Son"},"message":"Anh Viet Anh yếu lắm ^^","can_remove":false,"created_time":"2013-08-17T03:00:07+0000","like_count":0,"user_likes":false},"704115749605105":{"id":"704115749605105","from":{"id":"100001458099624","name":"Kham Pha"},"message":"Nguyen Viet Anh nó yếu từ lâu rồi, cả Hà Nội biết :v","message_tags":[{"id":"100000250256418","name":"Nguyen Viet Anh","type":"user","offset":0,"length":15}],"can_remove":false,"created_time":"2013-08-17T03:06:45+0000","like_count":0,"user_likes":false},"704141326269214":{"id":"704141326269214","from":{"id":"100000250256418","name":"Nguyen Viet Anh"},"message":"Kham Pha thế để tao viết vậy. Mà hồi ấy mày đi theo tour hay đi lẻ?","message_tags":[{"id":"100001458099624","name":"Kham Pha","type":"user","offset":0,"length":8}],"can_remove":false,"created_time":"2013-08-17T04:44:55+0000","like_count":0,"user_likes":false},"704141589602521":{"id":"704141589602521","from":{"id":"100001458099624","name":"Kham Pha"},"message":"Đi cùng nhiều đoàn khác và có hướng dẫn. Viết nhớ cho ảnh chụp trên đấy minh họa kèm :)","can_remove":false,"created_time":"2013-08-17T04:46:40+0000","like_count":1,"user_likes":false},"704146822935331":{"id":"704146822935331","from":{"id":"100000250256418","name":"Nguyen Viet Anh"},"message":"Kham Pha inbox tao hỏi cái","message_tags":[{"id":"100001458099624","name":"Kham Pha","type":"user","offset":0,"length":8}],"can_remove":false,"created_time":"2013-08-17T05:05:04+0000","like_count":0,"user_likes":false}},"paging":{"cursors":{"after":"NzA0MTEzNzAyOTM4NjQz","before":"NzA0MTEzNzAyOTM4NjQz"},"next":"https://graph.facebook.com/229244010425617_704097222940291/comments?limit=1&summary=1&after=NzA0MTEzNzAyOTM4NjQz"},"summary":{"order":"chronological","total_count":6}}}