{"id":"229244010425617_704377749578905","type":"status","from":{"id":"100003305907429","name":"Đức Smile"},"message":"Minh co y kien the nay nhe m.n ... Theo minh chung ta nen lap mot list nhung cau noi giao tiep thong dug .vd nhu: chao hoi...va mot so tu hay dung hang ngay nua.m.n thay sao","created_time":"2013-08-17T13:11:11+0000","updated_time":"2013-08-18T13:56:54+0000","likes":{"data":{"100001723862714":{"id":"100001723862714","name":"Bo Bien Vang"},"100004494910327":{"id":"100004494910327","name":"Noi Long Xa Xu"},"100003157796395":{"id":"100003157796395","name":"Hao Hao"},"100003245112488":{"id":"100003245112488","name":"Trai Bao"},"100003700114271":{"id":"100003700114271","name":"Sun Ny LOve"},"100004101363917":{"id":"100004101363917","name":"Lan Anh Mẫn"},"100004434842891":{"id":"100004434842891","name":"Turin Dang"},"100006139932362":{"id":"100006139932362","name":"Thế Anh"},"100003137067215":{"id":"100003137067215","name":"Duong Thi Diem Hang"},"100001508739620":{"id":"100001508739620","name":"Lê Ngọc Hoàn"},"100000187856584":{"id":"100000187856584","name":"Linh Hachi"},"100004452123869":{"id":"100004452123869","name":"Pham Tiên Bach"},"100001789054977":{"id":"100001789054977","name":"Ginga Idō Shi"},"100001458099624":{"id":"100001458099624","name":"Kham Pha"}},"paging":{"cursors":{"after":"MTAwMDAxNzIzODYyNzE0","before":"MTAwMDAxNzIzODYyNzE0"},"next":"https://graph.facebook.com/229244010425617_704377749578905/likes?limit=1&summary=1&after=MTAwMDAxNzIzODYyNzE0"},"summary":{"total_count":15}},"comments":{"data":{"704378426245504":{"id":"704378426245504","from":{"id":"100001458099624","name":"Kham Pha"},"message":"đồng ý :)","can_remove":false,"created_time":"2013-08-17T13:12:53+0000","like_count":0,"user_likes":false},"704378886245458":{"id":"704378886245458","from":{"id":"100003305907429","name":"Đức Smile"},"message":"Arigato..k bit dung k nhi","can_remove":false,"created_time":"2013-08-17T13:14:21+0000","like_count":0,"user_likes":false},"704384459578234":{"id":"704384459578234","from":{"id":"100003305907429","name":"Đức Smile"},"message":"Va y nho nho cua minh la. M.n nhug ai bit nhiu thi chi cho ngui bit it ngui bit it thi chi cho ngui k bit.nhu vay chug ta se cung hoc tap tot nha","can_remove":false,"created_time":"2013-08-17T13:24:52+0000","like_count":0,"user_likes":false},"704389436244403":{"id":"704389436244403","from":{"id":"100001458099624","name":"Kham Pha"},"message":"Cám ơn bạn, đó cũng chính là một trong những mục tiêu của group :)\nLê Ngọc Hoàn cùng ý tưởng với bạn kìa, lo vụ này nhé :D","message_tags":[{"id":"100001508739620","name":"Lê Ngọc Hoàn","type":"user","offset":67,"length":12}],"can_remove":false,"created_time":"2013-08-17T13:38:40+0000","like_count":0,"user_likes":false},"704399296243417":{"id":"704399296243417","from":{"id":"100001508739620","name":"Lê Ngọc Hoàn"},"message":"Thật ra thì ý tưởng hiện đang nằm trên giấy nhưng nó sẽ sớm được đưa vào thực tế :D.\nCòn sau đấy nó sẽ là một ý tưởng hay, có ích và hoạt động hiệu quả hay là sớm lụi tàn thì lại phụ thuộc vào các thành viên trong group sẽ tận dụng nó như thế nào, phát triển nó ra sao :).\n\nNếu bạn có tài liệu và cách làm rồi thì bạn hoàn toàn có thể thực hiện ý tưởng của bạn ngay trên group này, bọn t rất hoan nghênh và mong chờ điều đó (cảm ơn nữa) :D.\n\nHơi dài tí nhưng P/S thêm:\nThật ra trong mục Doraemon cũng chứa khá nhiều câu nói giao tiếp thông thưởng, bạn có thể tham khảo ở đó :).\n\nRất cảm ơn ý kiến của bạn, hy vọng bạn sẽ có thêm những ý tưởng hay, đóng góp tích cực hơn nữa cho group trong thời gian tới ;).","can_remove":false,"created_time":"2013-08-17T14:04:04+0000","like_count":2,"user_likes":false},"704400249576655":{"id":"704400249576655","from":{"id":"100001458099624","name":"Kham Pha"},"message":"thời buổi công nghệ, ý tưởng phải nằm trong máy tính hoặc trên mây, ko ai nằm trên giấy cả :))","can_remove":false,"created_time":"2013-08-17T14:05:57+0000","like_count":1,"user_likes":false},"704401936243153":{"id":"704401936243153","from":{"id":"100001508739620","name":"Lê Ngọc Hoàn"},"message":"Thôi để mấy hôm nữa quay lại làm GR thì e sẽ cho nó lên mây :))","can_remove":false,"created_time":"2013-08-17T14:09:58+0000","like_count":0,"user_likes":false},"704981469518533":{"id":"704981469518533","from":{"id":"100003305907429","name":"Đức Smile"},"message":"bạn hiểu sai ý của mình rồi...thực ra ý mình là ...bạn nên làm một list các câu từ giao tiếp thông dụng hằng ngày bằng tiếng nhật và bên cạnh đó bạn kèm tiếng việt để m.n có thể hiểu rõ hơn...","can_remove":false,"created_time":"2013-08-18T10:19:23+0000","like_count":0,"user_likes":false},"704981839518496":{"id":"704981839518496","from":{"id":"100003305907429","name":"Đức Smile"},"message":"theo mình nghĩ tất cả m.n ở có lẽ cũng chưa hẳn đã hiểu hết những đoạn hội thoại trong tranh doremon của bạn...:)","can_remove":false,"created_time":"2013-08-18T10:20:58+0000","like_count":0,"user_likes":false},"705060059510674":{"id":"705060059510674","from":{"id":"100001508739620","name":"Lê Ngọc Hoàn"},"message":"Mình ko nghĩ đã hiểu sai ý bạn (thật sự nếu có thì sr nhé :D)\nVề cái bạn nói đó là cách tổng hợp list (mọi ng cùng thêm các câu hữu dụng vào list).\nCòn vấn đề hiện tại là chưa có cách phân loại hiệu quả, trình bày hấp dẫn để dễ học, dễ nhớ mà không thấy nản khi nhìn vào 1 list câu dài dằng dặc mà gần như cả lquan j đến nhau.\n\nP/s: Nếu các bạn chưa hiểu từ nào, câu nào, đoạn nào trong mục Doraemon thì cứ thẳng thắn đặt câu hỏi những người khác sẽ giúp đỡ. Bọn mình rất khuyến khích điều đấy vì thực tế group lập ra với mục đích chia sẻ mà :)","can_remove":false,"created_time":"2013-08-18T13:56:54+0000","like_count":2,"user_likes":false}},"paging":{"cursors":{"after":"NzA0Mzc4NDI2MjQ1NTA0","before":"NzA0Mzc4NDI2MjQ1NTA0"},"next":"https://graph.facebook.com/229244010425617_704377749578905/comments?limit=1&summary=1&after=NzA0Mzc4NDI2MjQ1NTA0"},"summary":{"order":"chronological","total_count":10}}}