{"id":"229244010425617_704798039536876","type":"status","from":{"id":"100004492080253","name":"Chu Hằng"},"message":"ai có link nghe choukai từ bài 26 đến bài 50 chỉ m với :)","created_time":"2013-08-18T02:42:56+0000","updated_time":"2013-08-22T07:59:36+0000","likes":{"data":{"100005904761637":{"id":"100005904761637","name":"Ken"},"100001769773733":{"id":"100001769773733","name":"Ngọc Sugoi"},"100001965613108":{"id":"100001965613108","name":"Hai Hoang"}},"paging":{"cursors":{"after":"MTAwMDA1OTA0NzYxNjM3","before":"MTAwMDA1OTA0NzYxNjM3"},"next":"https://graph.facebook.com/229244010425617_704798039536876/likes?limit=1&summary=1&after=MTAwMDA1OTA0NzYxNjM3"},"summary":{"total_count":3}},"comments":{"data":{"704799196203427":{"id":"704799196203427","from":{"id":"100001965613108","name":"Hai Hoang"},"message":"co nhieu a","can_remove":false,"created_time":"2013-08-18T02:46:35+0000","like_count":0,"user_likes":false},"704799396203407":{"id":"704799396203407","from":{"id":"100001965613108","name":"Hai Hoang"},"message":"http://www.studyjapanese.net/2011/03/file-audio-cua-50-bai-khoa-minna-no.html","can_remove":false,"created_time":"2013-08-18T02:46:58+0000","like_count":1,"user_likes":false},"704799449536735":{"id":"704799449536735","from":{"id":"100001965613108","name":"Hai Hoang"},"message":"ban vao do ma tim","can_remove":false,"created_time":"2013-08-18T02:47:07+0000","like_count":0,"user_likes":false},"704799456203401":{"id":"704799456203401","from":{"id":"100001965613108","name":"Hai Hoang"},"message":"co het do","can_remove":false,"created_time":"2013-08-18T02:47:10+0000","like_count":0,"user_likes":false},"704799679536712":{"id":"704799679536712","from":{"id":"100004492080253","name":"Chu Hằng"},"message":"uk cảm ơn b nhé :)","can_remove":false,"created_time":"2013-08-18T02:47:39+0000","like_count":0,"user_likes":false},"704799792870034":{"id":"704799792870034","from":{"id":"100001965613108","name":"Hai Hoang"},"message":"ko co gi dau ban","can_remove":false,"created_time":"2013-08-18T02:48:05+0000","like_count":0,"user_likes":false},"704799822870031":{"id":"704799822870031","from":{"id":"100001965613108","name":"Hai Hoang"},"message":"minh biet thi minh chi thui","can_remove":false,"created_time":"2013-08-18T02:48:12+0000","like_count":0,"user_likes":false},"704800829536597":{"id":"704800829536597","from":{"id":"100004492080253","name":"Chu Hằng"},"message":"uk hj :)","can_remove":false,"created_time":"2013-08-18T02:51:40+0000","like_count":0,"user_likes":false},"704800932869920":{"id":"704800932869920","from":{"id":"100001965613108","name":"Hai Hoang"},"message":"ko tim dc thi noi minh tim cho","can_remove":false,"created_time":"2013-08-18T02:52:07+0000","like_count":0,"user_likes":false},"704800952869918":{"id":"704800952869918","from":{"id":"100001965613108","name":"Hai Hoang"},"message":"ok","can_remove":false,"created_time":"2013-08-18T02:52:09+0000","like_count":0,"user_likes":false},"704802879536392":{"id":"704802879536392","from":{"id":"100004492080253","name":"Chu Hằng"},"message":"ok t đang tìm nhung mạng chậm quá hj","can_remove":false,"created_time":"2013-08-18T02:59:33+0000","like_count":0,"user_likes":false},"704816589535021":{"id":"704816589535021","from":{"id":"100001769773733","name":"Ngọc Sugoi"},"message":"cảm ơn bạn nhiều","can_remove":false,"created_time":"2013-08-18T03:45:07+0000","like_count":0,"user_likes":false},"706221032727910":{"id":"706221032727910","from":{"id":"100004492080253","name":"Chu Hằng"},"message":"ak b Hai Hoang ơi bạn có bản choukai có chữ ko để nghe xong kiểm tra lại ý :)","message_tags":[{"id":"100001965613108","name":"Hai Hoang","type":"user","offset":5,"length":9}],"can_remove":false,"created_time":"2013-08-20T15:30:12+0000","like_count":0,"user_likes":false},"706225939394086":{"id":"706225939394086","from":{"id":"100001965613108","name":"Hai Hoang"},"message":"ok","can_remove":false,"created_time":"2013-08-20T15:41:46+0000","like_count":0,"user_likes":false},"706226012727412":{"id":"706226012727412","from":{"id":"100001965613108","name":"Hai Hoang"},"message":"mai minh nc voi ban sau nha","can_remove":false,"created_time":"2013-08-20T15:42:01+0000","like_count":0,"user_likes":false},"706226089394071":{"id":"706226089394071","from":{"id":"100001965613108","name":"Hai Hoang"},"message":"hom nay minh met xiu roi","can_remove":false,"created_time":"2013-08-20T15:42:15+0000","like_count":0,"user_likes":false},"706226779394002":{"id":"706226779394002","from":{"id":"100004492080253","name":"Chu Hằng"},"message":"uk hj ^_^","can_remove":false,"created_time":"2013-08-20T15:43:56+0000","like_count":0,"user_likes":false},"707218882628125":{"id":"707218882628125","from":{"id":"100003118432528","name":"Ngọc Lan"},"message":"ra dh ha noi co ca dia va sach luon.minh cubg co","can_remove":false,"created_time":"2013-08-22T07:59:36+0000","like_count":1,"user_likes":false}},"paging":{"cursors":{"after":"NzA0Nzk5MTk2MjAzNDI3","before":"NzA0Nzk5MTk2MjAzNDI3"},"next":"https://graph.facebook.com/229244010425617_704798039536876/comments?limit=1&summary=1&after=NzA0Nzk5MTk2MjAzNDI3"},"summary":{"order":"chronological","total_count":18}}}