{"id":"229244010425617_705307249485955","type":"status","from":{"id":"100001954728699","name":"Shinpei Morigami"},"message":"初めまして！\nベトナムをこよなく愛する29歳です。私のページでは日本の文化や日本について関心がある方の興味を持てるようなコンテンツを発信しています。\nぜひ友だち申請して下さい！！\n100%承認します。\n日本語を教えたりもしています。\nどうぞ宜しくお願いします！","created_time":"2013-08-18T22:56:52+0000","updated_time":"2013-08-20T12:20:15+0000","likes":{"data":{"100000919140390":{"id":"100000919140390","name":"Nhật Hoa"},"100003235211481":{"id":"100003235211481","name":"Huyền Ngố"},"100002754998000":{"id":"100002754998000","name":"Nguyen Duc"},"100003344971432":{"id":"100003344971432","name":"Tấn Quỳnh Ht"},"100001007000967":{"id":"100001007000967","name":"Bibi Nguyễn"},"100000224938370":{"id":"100000224938370","name":"Yamn Xiahxu"},"100002889806754":{"id":"100002889806754","name":"Kazuo  Yabuuchi"},"100006468883392":{"id":"100006468883392","name":"Linh Đặng"},"100003011417151":{"id":"100003011417151","name":"Hue Kim"},"703293556":{"id":"703293556","name":"Cuong Nguyen"},"100004566972183":{"id":"100004566972183","name":"Tsuyoshi Ta"},"100001416272263":{"id":"100001416272263","name":"Mai PB"},"100001003687542":{"id":"100001003687542","name":"PhạmNgân Same"},"100001231404357":{"id":"100001231404357","name":"Quoc Anh"},"100000280776405":{"id":"100000280776405","name":"Viet Nguyen Thanh"},"1803665393":{"id":"1803665393","name":"Nguyen Hao"},"100002327743510":{"id":"100002327743510","name":"Tuan Thanh"},"100000088874261":{"id":"100000088874261","name":"Trần Đức Quang"},"100002922084177":{"id":"100002922084177","name":"Nguyễn Quang Trường"},"100001754136107":{"id":"100001754136107","name":"Nguyễn Tuấn Vũ"},"100001723862714":{"id":"100001723862714","name":"Bo Bien Vang"},"100000309978634":{"id":"100000309978634","name":"Tan Vu"},"100001954728699":{"id":"100001954728699","name":"Shinpei Morigami"},"100000250256418":{"id":"100000250256418","name":"Nguyen Viet Anh"},"100001695345798":{"id":"100001695345798","name":"Tyn Aki"},"100001727857917":{"id":"100001727857917","name":"Bui Duyen"},"100001458099624":{"id":"100001458099624","name":"Kham Pha"},"100000325572172":{"id":"100000325572172","name":"Kaze Hikaru"}},"paging":{"cursors":{"after":"MTAwMDAwOTE5MTQwMzkw","before":"MTAwMDAwOTE5MTQwMzkw"},"next":"https://graph.facebook.com/229244010425617_705307249485955/likes?limit=1&summary=1&after=MTAwMDAwOTE5MTQwMzkw"},"summary":{"total_count":28}},"comments":{"data":{"705348586148488":{"id":"705348586148488","from":{"id":"100001458099624","name":"Kham Pha"},"message":"Shinpei Morigamiさん、\n\nお早うございます。慶應大学のベトナム人留学生のドゥックです。\n\nまずはモリガミさんがベトナムのことについてよく関心してくれて、ありがとうございます。\n私もモリガミさんのように熱心な人と友達になりたくて、友達申請を送ってしまいました。\n今後も日本の文化情報やイベントなどがあったら、ぜひ皆さんに紹介してくださいね。\nどうぞよろしくお願いします。","message_tags":[{"id":"100001954728699","name":"Shinpei Morigami","type":"user","offset":0,"length":16}],"can_remove":false,"created_time":"2013-08-19T00:48:03+0000","like_count":2,"user_likes":false},"705360449480635":{"id":"705360449480635","from":{"id":"100001954728699","name":"Shinpei Morigami"},"message":"阮忠徳さん、こちらこそどうぞよろしくお願いします！\nもしLINEなど使ってらっしゃったらアドして下さい。\nベトナムの方と話したいです。","can_remove":false,"created_time":"2013-08-19T01:22:00+0000","like_count":1,"user_likes":false},"705362079480472":{"id":"705362079480472","from":{"id":"100001458099624","name":"Kham Pha"},"message":"はい。私のＬＩＮＥユーザーＩＤはkhampha00です。日本にいるうちにもベトナムに帰っても、宜しくお願いしますね。","can_remove":false,"created_time":"2013-08-19T01:27:24+0000","like_count":2,"user_likes":false},"705362229480457":{"id":"705362229480457","from":{"id":"100001954728699","name":"Shinpei Morigami"},"message":"こちらこそどうぞよろしくお願いします。","can_remove":false,"created_time":"2013-08-19T01:28:05+0000","like_count":0,"user_likes":false},"705363022813711":{"id":"705363022813711","from":{"id":"100001954728699","name":"Shinpei Morigami"},"message":"登録できましたよ！","can_remove":false,"created_time":"2013-08-19T01:30:41+0000","like_count":1,"user_likes":false},"705364329480247":{"id":"705364329480247","from":{"id":"100001458099624","name":"Kham Pha"},"message":"はい。初通信が来ましたよ！\n森山さん、ちょっとお願があるんですが、宜しいでしょうか？\nそれはもし森山さんはベトナムと日本の関係、文化について感心している友達がいれば、弊グループを紹介してくれませんか？","can_remove":false,"created_time":"2013-08-19T01:34:58+0000","like_count":1,"user_likes":false},"705450409471639":{"id":"705450409471639","from":{"id":"100002053331037","name":"Chẳng Chi"},"message":"わたしのlineid は huyenle247 . よろしく^^","can_remove":false,"created_time":"2013-08-19T02:44:42+0000","like_count":2,"user_likes":false},"705496796133667":{"id":"705496796133667","from":{"id":"100002060967373","name":"Mai Hoang"},"message":"森上さん、はじめまして！ベトナムのことに気に入ってくれて、すごく嬉しいです。良かったら、友達になってください！私のlineはtuyetmai.yukiume  です。どうぞ宜しくおねがいします。(^ ^)","can_remove":false,"created_time":"2013-08-19T05:27:53+0000","like_count":3,"user_likes":false},"706142086069138":{"id":"706142086069138","from":{"id":"100001954728699","name":"Shinpei Morigami"},"message":"阮さん、了解です。\n紹介します！\nちょっと忙しくて、\n返信遅くなってごめんなさい。","can_remove":false,"created_time":"2013-08-20T12:20:15+0000","like_count":1,"user_likes":false}},"paging":{"cursors":{"after":"NzA1MzQ4NTg2MTQ4NDg4","before":"NzA1MzQ4NTg2MTQ4NDg4"},"next":"https://graph.facebook.com/229244010425617_705307249485955/comments?limit=1&summary=1&after=NzA1MzQ4NTg2MTQ4NDg4"},"summary":{"order":"chronological","total_count":9}}}