{"id":"229244010425617_705571249459555","type":"status","from":{"id":"100001723862714","name":"Bo Bien Vang"},"message":"Men nào từng đến Nishinomaru garden thì cho vài comment và photos về thiên đường đẹp như mơ này nhé, mình sẽ cố gắng đến 1 lần trước khi die, nghe có vẻ nghiêm trọng nhưng sự thật là như thế :v","created_time":"2013-08-19T10:23:03+0000","updated_time":"2013-08-19T13:55:16+0000","comments":{"data":{"705612289455451":{"id":"705612289455451","from":{"id":"100001416272263","name":"Mai PB"},"message":"Nó ở Osaka. Mình chưa đến nhưng xem Google thì chưa thấy gì mà đến mức gọi là thiên đường đẹp như mơ cả. http://bit.ly/17XKKEK","can_remove":false,"created_time":"2013-08-19T12:23:06+0000","like_count":0,"user_likes":false},"705618086121538":{"id":"705618086121538","from":{"id":"100001754136107","name":"Nguyễn Tuấn Vũ"},"message":"Xuống fuku xem hoa hải đường đẹp hơn ấy :)","can_remove":false,"created_time":"2013-08-19T12:38:48+0000","like_count":0,"user_likes":false},"705652402784773":{"id":"705652402784773","from":{"id":"100001723862714","name":"Bo Bien Vang"},"message":"thế cậu đến đi Mai PB người thực việc thực mới cảm nhận đc chứ :v","message_tags":[{"id":"100001416272263","name":"Mai PB","type":"user","offset":15,"length":6}],"can_remove":false,"created_time":"2013-08-19T13:55:16+0000","like_count":0,"user_likes":false}},"paging":{"cursors":{"after":"NzA1NjEyMjg5NDU1NDUx","before":"NzA1NjEyMjg5NDU1NDUx"},"next":"https://graph.facebook.com/229244010425617_705571249459555/comments?limit=1&summary=1&after=NzA1NjEyMjg5NDU1NDUx"},"summary":{"order":"chronological","total_count":3}},"likes":{"data":[]}}