{"id":"229244010425617_705653769451303","type":"status","from":{"id":"100003180366829","name":"Ngọc Hà"},"message":"Một tuần qua đi, hôm nay mình xin chia sẻ cho cả nhà một vài địa chỉ các bảo tàng, bảo khố ở chùa và sưu tập tư nhân ở Tokyo. Hi vọng nó sẽ có ích cho mọi người:\nDanh sách các bảo tàng, bảo khố ở chùa và sưu tập tư nhân:\n1. Sưu tập Dan\n-Địa điểm: Harajiku, Shibuyaku, Tokyo ( Tư thất của Nam tước Ino Dan)\n-Nội dung: tranh, mỹ thuật công nghiệp và mỹ thuật ( nông dân Nhật Bản)\n     2. Sưu tập Fukui\nĐịa điểm: Aoyama- Minamiichi- cho, Tokyo ( Tư thất của Ô Kikusaburo Fukui)\nNội dung: Gốm Nhật Bản các loại thuộc các thời đại, trang phục Noh.\n3. Bảo tàng kịch nghệ.\nĐịa điểm: Khuôn viên đại học Waseda, Tokyo\nNội dung: Mẫu hình và tranh in liên quan tới trình diễn sân khấu.\n4. Sưu tập Hosokawa.\nĐịa điểm: Takata- Oimatsu-cho, Koishikawa-ku, Tokyo (tư thất của Tử tước Moritatsu Hosokawa)\nNội dung: Tranh Nhật thuộc nhiều thời đại và nghệ thuật cổ Trung Hoa.\n5. Sưu tập Marita.\nĐịa điểm: Kita- higakubo-cho, Azabu-ku, Tokyo (tư thất của ông Tamaki Marita)\nNội dung: Tranh và đồ sứ Nhật Bản.\n6. Sưu tập Masuda.\nĐịa điểm: Gotenyama, Shinagawa-ku, Tokyo ( tư thất của Nam tước Takashi Masuda)\nNội dung: tranh, tượng, mỹ thuật công nghiệp Nhật Bản.\n7. Sưu tập Matsuoka\nĐịa điểm: Zaimoku-cho, Azabu- ku, Tokyo (tư thất của Nam tước Kimpei Matsuoka)\nNội dung: tranh Ukiyo\n8. Sưu tập Maeda\nĐịa điểm: Komaba, Kamimeguro, Tokyo ( tư thất của Tử tước Toshinari Maeda)\nNội dung: Tranh Nhật Bản qua các thời đại và trang phục Noh\n9. Bảo tàng Yushu- Kwan\nĐịa điểm: Kudan, Tokyo\nNội dung: Vũ khí và áo giáp Nhật Bản mọi thời đại.\n10. Bảo tàng hoàng tộc Tokyo\nĐịa điểm: Công viên Ueno, Tokyo.\nNội dung: phong mỹ thuật, phòng mỹ thuật công nghiệp và phòng lịch sử.","created_time":"2013-08-19T13:58:43+0000","updated_time":"2013-08-19T14:10:17+0000","likes":{"data":{"100004854810673":{"id":"100004854810673","name":"Hân Di"},"1267084162":{"id":"1267084162","name":"Salt Mint"},"100005423676532":{"id":"100005423676532","name":"Ngân Nguyễn"},"100001458099624":{"id":"100001458099624","name":"Kham Pha"},"100001416272263":{"id":"100001416272263","name":"Mai PB"},"1714365712":{"id":"1714365712","name":"Pi Maru"},"100001754136107":{"id":"100001754136107","name":"Nguyễn Tuấn Vũ"},"100001695345798":{"id":"100001695345798","name":"Tyn Aki"}},"paging":{"cursors":{"after":"MTAwMDA0ODU0ODEwNjcz","before":"MTAwMDA0ODU0ODEwNjcz"},"next":"https://graph.facebook.com/229244010425617_705653769451303/likes?limit=1&summary=1&after=MTAwMDA0ODU0ODEwNjcz"},"summary":{"total_count":8}},"comments":{"data":{"705659152784098":{"id":"705659152784098","from":{"id":"100001416272263","name":"Mai PB"},"message":"Ngọc Hà nên thêm vào link đến website của mỗi địa điểm thì giá trị hơn nữa. Thời đại Internet bây giờ tiện quá mà.","message_tags":[{"id":"100003180366829","name":"Ngọc Hà","type":"user","offset":0,"length":7}],"can_remove":false,"created_time":"2013-08-19T14:05:10+0000","like_count":0,"user_likes":false},"705661346117212":{"id":"705661346117212","from":{"id":"100001458099624","name":"Kham Pha"},"message":"Cái số 10 với bảo tàng nghệ thuật Tokyo là 2 cái khác nhau ah? Cùng ở Ueno với cùng về mỹ thuật,..\nCái bảo tàng ấy vé vào đắt kinh, lần trước bố mẹ anh sang chơi dẫn vào đó mỗi người 1500, khá thấm :(\nKhu Ueno nhiều bảo tàng tập trung, một ngày cũng chả đi hết được.","can_remove":false,"created_time":"2013-08-19T14:10:17+0000","like_count":1,"user_likes":false}},"paging":{"cursors":{"after":"NzA1NjU5MTUyNzg0MDk4","before":"NzA1NjU5MTUyNzg0MDk4"},"next":"https://graph.facebook.com/229244010425617_705653769451303/comments?limit=1&summary=1&after=NzA1NjU5MTUyNzg0MDk4"},"summary":{"order":"chronological","total_count":2}}}