{"id":"229244010425617_705675249449155","type":"status","from":{"id":"1146680551","name":"優しい なぁ"},"message":"Mình đang cần 1 ít cafe (k phải loại hoà tan) của Trung nguyên hoặc của hãng nào ngon ngon chút.Mình xin cảm ơn.Bạn nào có pm mình nhé.Mình ở ikebukuro,tokyo","created_time":"2013-08-19T14:40:02+0000","updated_time":"2013-08-19T17:35:31+0000","likes":{"data":{"100001458099624":{"id":"100001458099624","name":"Kham Pha"}},"paging":{"cursors":{"after":"MTAwMDAxNDU4MDk5NjI0","before":"MTAwMDAxNDU4MDk5NjI0"}},"summary":{"total_count":2}},"comments":{"data":{"705677822782231":{"id":"705677822782231","from":{"id":"1146680551","name":"優しい なぁ"},"message":"Đem đi tặng mà.có bao bì việt nam cho bik việt nam ;))","can_remove":false,"created_time":"2013-08-19T14:43:06+0000","like_count":1,"user_likes":false},"705690289447651":{"id":"705690289447651","from":{"id":"1146680551","name":"優しい なぁ"},"message":"Cafe hoà tan hả bạn?","can_remove":false,"created_time":"2013-08-19T15:09:46+0000","like_count":0,"user_likes":false},"705701392779874":{"id":"705701392779874","from":{"id":"100000024629190","name":"Thanh Ngọc"},"message":"A lên mấy quán vn hỏi xem. Nhiều quán bán cả cà lẫn phin luôn đớiq  ;;)","can_remove":false,"created_time":"2013-08-19T15:31:51+0000","like_count":1,"user_likes":false},"705711849445495":{"id":"705711849445495","from":{"id":"1146680551","name":"優しい なぁ"},"message":"Thanh Ngọc e bik cho nao k?","message_tags":[{"id":"100000024629190","name":"Thanh Ngọc","type":"user","offset":0,"length":10}],"can_remove":false,"created_time":"2013-08-19T15:52:43+0000","like_count":0,"user_likes":false},"705712329445447":{"id":"705712329445447","from":{"id":"100000024629190","name":"Thanh Ngọc"},"message":"Trong tobu có quán vịêt ở tầng 11, seibu tầng 8. A thử lên hỏi xem  ^_^","can_remove":false,"created_time":"2013-08-19T15:54:15+0000","like_count":1,"user_likes":false},"705729649443715":{"id":"705729649443715","from":{"id":"100006110834431","name":"Hạnh Nguyễn"},"message":"bn hk o trg nao tokyo zaj","can_remove":false,"created_time":"2013-08-19T16:24:56+0000","like_count":0,"user_likes":false},"705762376107109":{"id":"705762376107109","from":{"id":"100001115111251","name":"Hoa Nguyen"},"message":"http://www.saigonjp.com/. cửa hàng vn tại nhật giao hàng tận nhà","can_remove":false,"created_time":"2013-08-19T17:34:22+0000","like_count":2,"user_likes":false},"705763709440309":{"id":"705763709440309","from":{"id":"1146680551","name":"優しい なぁ"},"message":"Cảm ơn bạn nhiều.mình đang cần cái web này lắm","can_remove":false,"created_time":"2013-08-19T17:35:31+0000","like_count":0,"user_likes":false}},"paging":{"cursors":{"after":"NzA1Njc3ODIyNzgyMjMx","before":"NzA1Njc3ODIyNzgyMjMx"},"next":"https://graph.facebook.com/229244010425617_705675249449155/comments?limit=1&summary=1&after=NzA1Njc3ODIyNzgyMjMx"},"summary":{"order":"chronological","total_count":9}}}