{"id":"229244010425617_706083199408360","type":"status","from":{"id":"100001458099624","name":"Kham Pha"},"message":"Nộp đơn xin việc đi làm baito làm lập trình, mình bảo bọn nó là theo luật lao động Nhật thì du học sinh bị hạn chế 28h/1tuần nên chỉ xin đi làm 3 buổi thôi. Ai dè nó gửi lại mail thế này.  \n\n※日本の法律により、一週間28時間以内という制限は\n考えないで、本来の希望の条件をご回答下さい。\n\nKhông ai biết thì ko sao chứ bị túm được thì cty cũng chết dở mà thằng như mình chỉ có xách dép về nước. Nhật mà cũng liều vậy sao?","created_time":"2013-08-20T08:46:46+0000","updated_time":"2013-08-22T07:41:21+0000","likes":{"data":{"100004085800013":{"id":"100004085800013","name":"Tiến Tiến"},"100000983811825":{"id":"100000983811825","name":"Hoa Lê"},"100002425288918":{"id":"100002425288918","name":"Kira Chiến ND"},"100001727857917":{"id":"100001727857917","name":"Bui Duyen"},"100000280776405":{"id":"100000280776405","name":"Viet Nguyen Thanh"},"100002754998000":{"id":"100002754998000","name":"Nguyen Duc"},"100004112258038":{"id":"100004112258038","name":"Chung Tran"},"100004477292126":{"id":"100004477292126","name":"Kien Xinh Doan"},"100003389919177":{"id":"100003389919177","name":"Chuột Trang"},"1227392209":{"id":"1227392209","name":"Akai Wani"},"100002922084177":{"id":"100002922084177","name":"Nguyễn Quang Trường"},"100000309978634":{"id":"100000309978634","name":"Tan Vu"},"100001580479641":{"id":"100001580479641","name":"Hà Xuân Thủy"},"100000629560377":{"id":"100000629560377","name":"Yuki Hana"},"1828906841":{"id":"1828906841","name":"Trọng Nghĩa Bùi"},"100005812149640":{"id":"100005812149640","name":"Yuki Chan"},"100004125818724":{"id":"100004125818724","name":"Hương Giang Nguyễn"},"100000250256418":{"id":"100000250256418","name":"Nguyen Viet Anh"},"100000098004511":{"id":"100000098004511","name":"Nguyễn Đức Tùng"}},"paging":{"cursors":{"after":"MTAwMDA0MDg1ODAwMDEz","before":"MTAwMDA0MDg1ODAwMDEz"},"next":"https://graph.facebook.com/229244010425617_706083199408360/likes?limit=1&summary=1&after=MTAwMDA0MDg1ODAwMDEz"},"summary":{"total_count":19}},"comments":{"data":{"706084496074897":{"id":"706084496074897","from":{"id":"100000028932078","name":"Ngọc Mính"},"message":"trong nam hoc moi 28 tieng 1 tuan ma.cung can than day.thay bao nam ngoai no dieu tra tren saitama.nhieu ng bi ve nc day","can_remove":false,"created_time":"2013-08-20T08:50:45+0000","like_count":0,"user_likes":false},"706085122741501":{"id":"706085122741501","from":{"id":"100001458099624","name":"Kham Pha"},"message":"Hình như ko chỉ trong năm học. Nhưng mà dù sao nó muốn mình làm trên 6 tháng chứ có phải mỗi tháng hè đâu.","can_remove":false,"created_time":"2013-08-20T08:53:07+0000","like_count":0,"user_likes":false},"706085789408101":{"id":"706085789408101","from":{"id":"100000028932078","name":"Ngọc Mính"},"message":"trong to chu y giao vien dua cho no ghi the ma.thay ghii la trong nam thi lam 28 tieng.he thi lam 40 tieng.uh,nhung lam lau dai voi lich co dinh thi cu 28 tieng 1 tuan cho no lanh.ma may lam 1 buoi 9 tieng co a","can_remove":false,"created_time":"2013-08-20T08:55:26+0000","like_count":1,"user_likes":false},"706086349408045":{"id":"706086349408045","from":{"id":"100001458099624","name":"Kham Pha"},"message":"đang nói max là 28 tiếng chứ có làm đến thế đâu. Căn bản đi lại xa nên ko muốn làm nhiều buổi.","can_remove":false,"created_time":"2013-08-20T08:57:17+0000","like_count":0,"user_likes":false},"706089186074428":{"id":"706089186074428","from":{"id":"100001754136107","name":"Nguyễn Tuấn Vũ"},"message":"Một tháng ko quá 120 tiếng a ak.\nQuá 120 tiếng thì những tiếng thừa ra ko tính tiền","can_remove":false,"created_time":"2013-08-20T09:08:05+0000","like_count":0,"user_likes":false},"706098892740124":{"id":"706098892740124","from":{"id":"100001580479641","name":"Hà Xuân Thủy"},"message":"Bá đạo=))","can_remove":false,"created_time":"2013-08-20T09:47:26+0000","like_count":0,"user_likes":false},"706099109406769":{"id":"706099109406769","from":{"id":"100001580479641","name":"Hà Xuân Thủy"},"message":"Chắc tại cv lập trình ít người làm đc:d","can_remove":false,"created_time":"2013-08-20T09:48:33+0000","like_count":0,"user_likes":false},"706100136073333":{"id":"706100136073333","from":{"id":"100001580479641","name":"Hà Xuân Thủy"},"message":"Nhân tiện cho t hỏi câu どうかしましたか?dịch là \" sao lại như vậy\" có đúng ko?","can_remove":false,"created_time":"2013-08-20T09:53:35+0000","like_count":0,"user_likes":false},"706107379405942":{"id":"706107379405942","from":{"id":"100001458099624","name":"Kham Pha"},"message":"@Vũ: anh nghĩ là đó là luật riêng với đối tượng nào đó thôi. Nó cấm làm nhiều để hs tập trung học, mà đã cấm thì chỉ có 1 quy định chung làm gì có chuyện mỗi chỗ mỗi kiểu.\n@Thủy: dịch là \"có vấn đề gì với cậu vậy?\"\nlàm lập trình cũng nhiều người làm được chứ ko hiếm đến mức vậy đâu. Nộp hồ sơ sang cty khác cũng bị loại từ vòng gửi xe chưa cần phỏng vấn vì mình ko phù hợp với tg của nó.","can_remove":false,"created_time":"2013-08-20T10:20:05+0000","like_count":0,"user_likes":false},"706108746072472":{"id":"706108746072472","from":{"id":"100001580479641","name":"Hà Xuân Thủy"},"message":"^_^mình cũng nghĩ dịch vậy ko hợp lý nhưng vì trong một tài liệu nó dịch vậy nên thắc mắc mãi:(. Thank u.","can_remove":false,"created_time":"2013-08-20T10:25:41+0000","like_count":0,"user_likes":false},"706110766072270":{"id":"706110766072270","from":{"id":"100001754136107","name":"Nguyễn Tuấn Vũ"},"message":"A kham pha: quy định chung đấy a ak.thường những vùng cho thành phố thì nó nghiêm ngặt( kiêm xoát khắt khe).trong viza nó gim tờ đấy.từ năm ngoái bắt đầu làm thẻ gai thì nó cũng gi lên luôn cái thẻ ngoại kiều luôn a ak.\nCái đấy là do công ty nó làm lách luật a ak.chỗ e trước cũng đã từng làm quá 28h,nc vs ông chủ.ông ấy cung bảo nếu mà cảnh sát phát hiện thì công ty ấy sẽ bị phạt nặng,thậm chí đóng cửa.du học sinh thì về nước.\nE ng","can_remove":false,"created_time":"2013-08-20T10:32:07+0000","like_count":0,"user_likes":false},"706136492736364":{"id":"706136492736364","from":{"id":"100001894020385","name":"Son Thuy"},"message":"mail có nội dung như thế nào vậy bạn","can_remove":false,"created_time":"2013-08-20T12:01:52+0000","like_count":0,"user_likes":false},"706144532735560":{"id":"706144532735560","from":{"id":"100001128589118","name":"Giang Manh"},"message":"Chào Kham Pha . Mình làm CNTT diện kỹ sư, nói chung bạn ko nên tiếc mà giây dưa với mấy công ty loại này đâu. Để ra trường rồi làm lập trình, còn giờ làm baito chân tay thôi.","message_tags":[{"id":"100001458099624","name":"Kham Pha","type":"user","offset":5,"length":8}],"can_remove":false,"created_time":"2013-08-20T12:26:19+0000","like_count":0,"user_likes":false},"706183646064982":{"id":"706183646064982","from":{"id":"100001458099624","name":"Kham Pha"},"message":"Giang Manh chào tiền bối. Em đi làm tiền là chính, lấy kiến thức là chủ yếu. Vừa rải hồ sơ khắp kanto xong nên cũng chẳng sốt sắng cty này lắm, nhưng cứ để xem họ nói tiếp ra sao. Họ chỉ đề nghị vậy chứ đã có gì đâu, đánh giá vẫn còn sớm quá. Lương 1500/h tội gì ko thử :)","message_tags":[{"id":"100001128589118","name":"Giang Manh","type":"user","offset":0,"length":10}],"can_remove":false,"created_time":"2013-08-20T14:06:56+0000","like_count":0,"user_likes":false},"706737012676312":{"id":"706737012676312","from":{"id":"100000232957215","name":"Minh Quyen Pham"},"message":"Luong 1500, cao thật đấy","can_remove":false,"created_time":"2013-08-21T10:06:19+0000","like_count":0,"user_likes":false},"707214759295204":{"id":"707214759295204","from":{"id":"100006153041734","name":"Ngoc Lam Ho"},"message":"O nhat, ngoai nung cong viec lam them nhung co dinh ve mat thoi gian va luong bong, con co mot so cv cung la lam them nhung kg co dinh ve thoi gian va lanh luong ngay khi ket thuc trong ngay (cung tinh luong theo gio lam viec) vi du nhu lam viec o cho ca (van chuyen hang khi tau cap ben, phan luong xe cho cac cong trinh, phuc vu cho cac buoi tiec, v.v...) nen ho co the lach luat bang cach tra luong tung ngay nen ban co the kam nhieu thoi gian hon quy dinh. Truong hop xau nhat la noi ban lam viec bi cuc xuat nhap canh theo doi mot thoi gian dai va co chung cu bang hinh hinh anh ban lam viec va nhan luong tai noi lam ay voi so gio lam vuot quy dinh thi moi bi rac roi. Thong thuong, ban trao doi thang voi noi ban se lam ho se quan ly ban theo kieu do, thi ho se kg thong bao ve cuc xuat nhap canh, ngoai ra ban co the chia lam nhieu noi lam viev voi moi noi co thoi gian lam viec thap thi cung tranh duoc viec nay vi so tien tra cho van thap va kg thuong xuyen de tranh phai bao cao ho cung kg khai bao. Nhung khi xui thi cai gi cung co the xay ra, chuc ban may man","can_remove":false,"created_time":"2013-08-22T07:41:21+0000","like_count":1,"user_likes":false}},"paging":{"cursors":{"after":"NzA2MDg0NDk2MDc0ODk3","before":"NzA2MDg0NDk2MDc0ODk3"},"next":"https://graph.facebook.com/229244010425617_706083199408360/comments?limit=1&summary=1&after=NzA2MDg0NDk2MDc0ODk3"},"summary":{"order":"chronological","total_count":16}}}