{"id":"229244010425617_706149949401685","type":"status","from":{"id":"100004205437257","name":"Nỗi Đau Xót Xa"},"message":"Anh chị em nào có tài liệu tiếng nhật chuyên ngành du lịch gửi cho em xin với . Arigatou gozaimasu !!!!!!!!!!!!","created_time":"2013-08-20T12:43:16+0000","updated_time":"2013-08-21T04:47:56+0000","comments":{"data":{"706168549399825":{"id":"706168549399825","from":{"id":"100005319071446","name":"Huan Nguyen"},"message":"Ak mjnh pjt. Tu du ljck りょこう、へへ","can_remove":false,"created_time":"2013-08-20T13:30:21+0000","like_count":0,"user_likes":false},"706187636064583":{"id":"706187636064583","from":{"id":"100001458099624","name":"Kham Pha"},"message":"Bạn lên google tìm: 旅行用語集. Mình vừa tìm thử ra một đống đấy :)","can_remove":false,"created_time":"2013-08-20T14:16:35+0000","like_count":2,"user_likes":false},"706640302685983":{"id":"706640302685983","from":{"id":"100004205437257","name":"Nỗi Đau Xót Xa"},"message":"Arigatou gozaimasu Kham Pha","message_tags":[{"id":"100001458099624","name":"Kham Pha","type":"user","offset":19,"length":8}],"can_remove":false,"created_time":"2013-08-21T04:47:56+0000","like_count":0,"user_likes":false}},"paging":{"cursors":{"after":"NzA2MTY4NTQ5Mzk5ODI1","before":"NzA2MTY4NTQ5Mzk5ODI1"},"next":"https://graph.facebook.com/229244010425617_706149949401685/comments?limit=1&summary=1&after=NzA2MTY4NTQ5Mzk5ODI1"},"summary":{"order":"chronological","total_count":3}},"likes":{"data":[]}}