{"id":"229244010425617_706560072694006","type":"status","from":{"id":"100003246541781","name":"Đoàn Văn Tuyên"},"message":"có bạn nào quen môi giới ở miền bắc k cho mình thông tin vs","created_time":"2013-08-21T02:04:37+0000","updated_time":"2013-08-21T12:08:12+0000","comments":{"data":{"706626432687370":{"id":"706626432687370","from":{"id":"100001458099624","name":"Kham Pha"},"message":"Môi giới gì vậy bạn? Hỏi rõ ràng mọi người nhìn vào sẽ muốn trả lời hơn :)","can_remove":false,"created_time":"2013-08-21T04:01:45+0000","like_count":0,"user_likes":false},"706628126020534":{"id":"706628126020534","from":{"id":"100003246541781","name":"Đoàn Văn Tuyên"},"message":"à môi giới đi nhật","can_remove":false,"created_time":"2013-08-21T04:08:23+0000","like_count":0,"user_likes":false},"706636752686338":{"id":"706636752686338","from":{"id":"100000205616258","name":"Đoàn Bắc"},"message":"Muốn đi kiểu ji du hoc hay tts","can_remove":false,"created_time":"2013-08-21T04:36:02+0000","like_count":0,"user_likes":false},"706636986019648":{"id":"706636986019648","from":{"id":"100000205616258","name":"Đoàn Bắc"},"message":"Người đi là nam hay nữ vay","can_remove":false,"created_time":"2013-08-21T04:36:48+0000","like_count":0,"user_likes":false},"706639266019420":{"id":"706639266019420","from":{"id":"100003246541781","name":"Đoàn Văn Tuyên"},"message":"tu nghiệp sinh.. bạn làm về lĩnh vực nhật bản k","can_remove":false,"created_time":"2013-08-21T04:44:28+0000","like_count":0,"user_likes":false},"706698382680175":{"id":"706698382680175","from":{"id":"100000205616258","name":"Đoàn Bắc"},"message":"minh dang lam ve nhat ban","can_remove":false,"created_time":"2013-08-21T08:06:11+0000","like_count":0,"user_likes":false},"706750159341664":{"id":"706750159341664","from":{"id":"100003246541781","name":"Đoàn Văn Tuyên"},"message":"bạn cho mình sdt liên hệ đc ko Đoàn Bắc . hi vọng ae mình hợp tác đc vs nhau","message_tags":[{"id":"100000205616258","name":"Đoàn Bắc","type":"user","offset":31,"length":8}],"can_remove":false,"created_time":"2013-08-21T10:39:38+0000","like_count":0,"user_likes":false},"706778256005521":{"id":"706778256005521","from":{"id":"100000205616258","name":"Đoàn Bắc"},"message":"0974428384 đây là sdt cua minh","can_remove":false,"created_time":"2013-08-21T12:08:12+0000","like_count":0,"user_likes":false}},"paging":{"cursors":{"after":"NzA2NjI2NDMyNjg3Mzcw","before":"NzA2NjI2NDMyNjg3Mzcw"},"next":"https://graph.facebook.com/229244010425617_706560072694006/comments?limit=1&summary=1&after=NzA2NjI2NDMyNjg3Mzcw"},"summary":{"order":"chronological","total_count":8}},"likes":{"data":[]}}