{"id":"229244010425617_706610562688957","type":"status","from":{"id":"100001727857917","name":"Bui Duyen"},"message":"「努力する人は希望を語り、怠ける人は不満を語る。」\n\n井上靖（いのうえ　やすし）\n\n“Người luôn cố gắng thì nói về hi vọng, còn kẻ lười biếng thì chỉ kể về bất mãn.”\n\n努力（どうりょく）: nỗ lực\n希望（きぼう）: hi vọng\n語る（かたる）: kể, tâm sự\n怠ける（なまける）: lười biếng\n不満（ふまん）: sự bất mãn, bất bình","created_time":"2013-08-21T03:42:30+0000","updated_time":"2013-08-21T14:46:39+0000","likes":{"data":{"100001754136107":{"id":"100001754136107","name":"Nguyễn Tuấn Vũ"},"100001723862714":{"id":"100001723862714","name":"Bo Bien Vang"},"100000280776405":{"id":"100000280776405","name":"Viet Nguyen Thanh"},"100001894020385":{"id":"100001894020385","name":"Son Thuy"},"100000084907383":{"id":"100000084907383","name":"Hồng Nhung"},"100005911238479":{"id":"100005911238479","name":"Bom Kito"},"100001508739620":{"id":"100001508739620","name":"Lê Ngọc Hoàn"},"100003011417151":{"id":"100003011417151","name":"Hue Kim"},"100002912978945":{"id":"100002912978945","name":"Feliz Novia"},"100002449568268":{"id":"100002449568268","name":"Thơm Vương"},"100004140850631":{"id":"100004140850631","name":"Huong Trang"},"100000284487802":{"id":"100000284487802","name":"Buu Lam Gia"},"100000184434912":{"id":"100000184434912","name":"Trần Tráng"},"100003171672878":{"id":"100003171672878","name":"Tầu Heo"},"100001231404357":{"id":"100001231404357","name":"Quoc Anh"},"100001458099624":{"id":"100001458099624","name":"Kham Pha"},"100001954728699":{"id":"100001954728699","name":"Shinpei Morigami"}},"paging":{"cursors":{"after":"MTAwMDAxNzU0MTM2MTA3","before":"MTAwMDAxNzU0MTM2MTA3"},"next":"https://graph.facebook.com/229244010425617_706610562688957/likes?limit=1&summary=1&after=MTAwMDAxNzU0MTM2MTA3"},"summary":{"total_count":17}},"comments":{"data":{"706614702688543":{"id":"706614702688543","from":{"id":"100001954728699","name":"Shinpei Morigami"},"message":"素晴らしい！","can_remove":false,"created_time":"2013-08-21T03:43:18+0000","like_count":0,"user_likes":false},"706622152687798":{"id":"706622152687798","from":{"id":"100001727857917","name":"Bui Duyen"},"message":"確かに、希望があるから努力するですね。でも、不満がない人は成長できないのではないでしょうか（笑）。不満を解消するために希望を語りましょう。（Đúng là có hi vọng thì mới có cái để nỗ lực. Nhưng sẽ chẳng ai trưởng thành được nếu không gặp điều bất mãn trong cuộc sống. Hãy kể về những hi vọng để xóa bỏ sự bất mãn đó :)）","can_remove":false,"created_time":"2013-08-21T03:46:46+0000","like_count":7,"user_likes":false},"706622662687747":{"id":"706622662687747","from":{"id":"100001954728699","name":"Shinpei Morigami"},"message":"あなたは素晴らしい感性の持ち主だ！！","can_remove":false,"created_time":"2013-08-21T03:48:31+0000","like_count":0,"user_likes":false},"706625296020817":{"id":"706625296020817","from":{"id":"100001458099624","name":"Kham Pha"},"message":"その通りです。素晴らしい名言ですね。","can_remove":false,"created_time":"2013-08-21T03:58:26+0000","like_count":0,"user_likes":false},"706676872682326":{"id":"706676872682326","from":{"id":"100001508739620","name":"Lê Ngọc Hoàn"},"message":"Bui Duyen: Những bài viết của e rất hay, Lê Ngọc Hoàn thích điều đó :v","message_tags":[{"id":"100001727857917","name":"Bui Duyen","type":"user","offset":0,"length":9},{"id":"100001508739620","name":"Lê Ngọc Hoàn","type":"user","offset":41,"length":12}],"can_remove":false,"created_time":"2013-08-21T06:50:42+0000","like_count":0,"user_likes":false},"706684292681584":{"id":"706684292681584","from":{"id":"100001727857917","name":"Bui Duyen"},"message":"皆さん、確かに有名人の名言だからこそ、素晴らしいですね。Shinpei Morigamiさん、コメントありがとうございます。私達は名言を通じて、読んでいる皆さんが日本語や人生の生き方について少しでも学ぶことができたらいいなと思います。森上さんにも日本人の立場での考え方、違いがあれば、ぜひ教えてください。","message_tags":[{"id":"100001954728699","name":"Shinpei Morigami","type":"user","offset":28,"length":16}],"can_remove":false,"created_time":"2013-08-21T07:20:46+0000","like_count":3,"user_likes":false},"706847999331880":{"id":"706847999331880","from":{"id":"100001416272263","name":"Mai PB"},"message":"Bui Duyen うまいね。","message_tags":[{"id":"100001727857917","name":"Bui Duyen","type":"user","offset":0,"length":9}],"can_remove":false,"created_time":"2013-08-21T14:46:39+0000","like_count":1,"user_likes":false}},"paging":{"cursors":{"after":"NzA2NjE0NzAyNjg4NTQz","before":"NzA2NjE0NzAyNjg4NTQz"},"next":"https://graph.facebook.com/229244010425617_706610562688957/comments?limit=1&summary=1&after=NzA2NjE0NzAyNjg4NTQz"},"summary":{"order":"chronological","total_count":7}}}