{"id":"229244010425617_706774249339255","type":"status","from":{"id":"100001754136107","name":"Nguyễn Tuấn Vũ"},"message":"Có ai sang fukuoka tháng 10 này ko ạ?E  gửi nhờ ít đồ( e sẽ tra tiền mang sang).E cảm ơn.","created_time":"2013-08-21T11:54:13+0000","updated_time":"2013-08-24T13:18:03+0000","comments":{"data":{"706823112667702":{"id":"706823112667702","from":{"id":"1693102459","name":"Châu Hoàng"},"message":"gởi đồ chi rứa anh?","can_remove":false,"created_time":"2013-08-21T13:54:07+0000","like_count":0,"user_likes":false},"706828779333802":{"id":"706828779333802","from":{"id":"100001458099624","name":"Kham Pha"},"message":"gửi chút nắng gió quê hương chăng :)","can_remove":false,"created_time":"2013-08-21T14:03:29+0000","like_count":0,"user_likes":false},"706838149332865":{"id":"706838149332865","from":{"id":"100001754136107","name":"Nguyễn Tuấn Vũ"},"message":"Châu Hoàng: gui mấy cái ốc máy tính :))\nKham Pha: bánh đậu xanh a ak","message_tags":[{"id":"1693102459","name":"Châu Hoàng","type":"user","offset":0,"length":10},{"id":"100001458099624","name":"Kham Pha","type":"user","offset":40,"length":8}],"can_remove":false,"created_time":"2013-08-21T14:22:06+0000","like_count":0,"user_likes":false},"707141312635882":{"id":"707141312635882","from":{"id":"1175139401","name":"Phan Phuoc"},"message":"Hi, có dịch vụ gửi nhận tận nơi, rẻ hơn Bưu điện, thời gian chỉ 7-10 ngày giao tận nơi. Bạn tham khảo ở đây này: www.hoangdaiexpress.com","can_remove":false,"created_time":"2013-08-22T03:27:39+0000","like_count":1,"user_likes":false},"708399392510074":{"id":"708399392510074","from":{"id":"100003221880243","name":"Ngân Siêu Nhân"},"message":"trường mình sang hơn chục người đó b ạ, b gửi đi","can_remove":false,"created_time":"2013-08-24T13:00:08+0000","like_count":0,"user_likes":false},"708406359176044":{"id":"708406359176044","from":{"id":"100001754136107","name":"Nguyễn Tuấn Vũ"},"message":"Ngân Siêu Nhân: hỏi rồi nhưng ko thấy ai :)))","message_tags":[{"id":"100003221880243","name":"Ngân Siêu Nhân","type":"user","offset":0,"length":14}],"can_remove":false,"created_time":"2013-08-24T13:16:59+0000","like_count":0,"user_likes":false},"708406799176000":{"id":"708406799176000","from":{"id":"100003221880243","name":"Ngân Siêu Nhân"},"message":"bạn vào Fage của Giang ANh xem. bạn có trong nhóm đó cho t vào vs  nhé","can_remove":false,"created_time":"2013-08-24T13:18:03+0000","like_count":0,"user_likes":false}},"paging":{"cursors":{"after":"NzA2ODIzMTEyNjY3NzAy","before":"NzA2ODIzMTEyNjY3NzAy"},"next":"https://graph.facebook.com/229244010425617_706774249339255/comments?limit=1&summary=1&after=NzA2ODIzMTEyNjY3NzAy"},"summary":{"order":"chronological","total_count":7}},"likes":{"data":[]}}