{"id":"229244010425617_707725522577461","type":"photo","object_id":"320167208129264","picture":"https://fbcdn-photos-e-a.akamaihd.net/hphotos-ak-ash3/t1.0-0/1229950_320167208129264_124565739_s.png","link":"https://www.facebook.com/photo.php?fbid=320167208129264&set=a.103625403116780.7166.101881786624475&type=1","from":{"id":"100000299798248","name":"Vẹt Đêm"},"message":"Đọc xíu và ngẫm xíu :)","created_time":"2013-08-23T05:46:38+0000","updated_time":"2013-08-25T02:53:10+0000","likes":{"data":{"100001826289419":{"id":"100001826289419","name":"Hana Sakura"},"100004362480675":{"id":"100004362480675","name":"Đi Tìm Thất Bại"},"100004028173069":{"id":"100004028173069","name":"Jin Ngốc"},"100001723862714":{"id":"100001723862714","name":"Bo Bien Vang"},"100002508122689":{"id":"100002508122689","name":"Vũ Mạnh Tuấn"}},"paging":{"cursors":{"after":"MTAwMDAxODI2Mjg5NDE5","before":"MTAwMDAxODI2Mjg5NDE5"},"next":"https://graph.facebook.com/229244010425617_707725522577461/likes?limit=1&summary=1&after=MTAwMDAxODI2Mjg5NDE5"},"summary":{"total_count":5}},"comments":{"data":{"707743122575701":{"id":"707743122575701","from":{"id":"100001458099624","name":"Kham Pha"},"message":"Nói chung chưa làm, chưa hiểu thì ko nên phát biểu ý kiến hỏi tại sao thế này, tại sao thế khác. Mất thời gian mà cũng chả hiểu thêm đc cái gì. Xã hội Nhật nó vẫn vận hành tốt vì người Nhật thích hợp với cách ấy, nó ko phải là xh dành cho kiểu nửa chơi nửa làm của người VN.","can_remove":false,"created_time":"2013-08-23T06:53:55+0000","like_count":1,"user_likes":false},"707749542575059":{"id":"707749542575059","from":{"id":"100001458099624","name":"Kham Pha"},"message":"Mà cái thông tin vạ vật ngoài quán rồi hôm sau đi làm vì ko có tiền thuê nhà hình như là tin chém gió. Ngồi mấy quán cafe, internet ko rẻ đâu. Một tháng thì còn quá tiền nhà. Mà sống như thế thì hôm sau đi làm kiểu gì? Một tuần là đứt. \nCó lẽ vạ vật mà bạn kia ko hiểu là chuyện lỡ tàu cuối, quá 12h thì hết tàu ko về đc nhà. Trong TH ấy mới phải vạ vật quán cafe,..","can_remove":false,"created_time":"2013-08-23T07:12:43+0000","like_count":1,"user_likes":false},"707771932572820":{"id":"707771932572820","from":{"id":"100001416272263","name":"Mai PB"},"message":"Phận làm thuê là thế nào? Ai trong xh làm công ăn lương khg phải là làm thuê, từ TGĐ trở đi? Trình độ nào vị trí đó, ở VN khg phải vậy chắc mà sao đổ lỗi cho xh Nhật nhỉ?","can_remove":false,"created_time":"2013-08-23T08:16:09+0000","like_count":2,"user_likes":false},"707821295901217":{"id":"707821295901217","from":{"id":"100000381394367","name":"Thành Nguyễn"},"message":"Cái bài báo kia nó cũng là một hiện thực không thể chối cãi của Nhật, nhưng nó cũng chỉ là 1 cái view trong rất nhiều cái view khác nhau. Để hình dung đầy đủ cả bức tranh xã hội Nhật thì chỉ nhìn vào nó là sẽ là thiếu sót, những cũng là một thiếu sót khác nếu bỏ qua hiện thực đó.","can_remove":false,"created_time":"2013-08-23T11:35:25+0000","like_count":0,"user_likes":false},"707822235901123":{"id":"707822235901123","from":{"id":"100000381394367","name":"Thành Nguyễn"},"message":"Sự vận hành của xã hội là một quá trình đấu tranh giữa cái chung  của xã hội và cái riêng của các cá nhân, những xã hội có nhịp độ phát triển nhanh thì cũng tạo ra những side effect lớn. Xã hội nhật là một xã hội như thế, phần mềm xã hội ( hệ điều hành xã hội )khá tốt cho việc vận hành xã hội đạt được những mục tiêu của nó nhưng phần mềm cá nhân để tích hợp vào xã hội đó thì còn rất nhiều khuyết tật nên dẫn đến những hiện tượng như trên  mà ko gặp phải ở các nước khác.","can_remove":false,"created_time":"2013-08-23T11:38:45+0000","like_count":2,"user_likes":false},"708655862484427":{"id":"708655862484427","from":{"id":"100000687662713","name":"Vu Thi Man"},"message":"Nhan viec doc va ngam ve van de lam viec o Nhat, minh cung xin gop chiu xiu cam nhan. Lieu co phai la nguoi Nhat lanh lung khong khi 1 nhan vien moi vao lam, tat nhien luc dau cung duoc nguoi \"ma cu\" huong dan rat nhiet tinh, roi sau do, ho de \"mac ke\". Trong suot ca 1 ngay, nguoi moi vao lam va nguoi cu khong he noi chuyen voi nhau 1 cau nao. Cu ngay nay qua ngay khac, den noi lam viec, cam cui, lam lui nhu 1 cai bong, het gio thi lai le cai xac ve. Minh khong hieu sao nguoi ta lai co the thich nghi duoc moi truong lam viec nhu the chu? Moi truong lam viec thi vat va, luong thi cung chang cao lam, neu phai di thue nha va sinh hoat 1 minh, thi tien luong do chac cung chi du tieu. Cong viec thi ap luc, ma khong co nguoi chia se, chang trach duoc tai sao ho tu tu nhieu.","can_remove":false,"created_time":"2013-08-25T00:29:02+0000","like_count":0,"user_likes":false},"708717665811580":{"id":"708717665811580","from":{"id":"100001416272263","name":"Mai PB"},"message":"Môi trường làm việc ở Nhật rất đa dạng bạn Vu Thi Man ạ. Lương bổng cũng vậy. Ngay cả ở VN cũng vậy thôi.","message_tags":[{"id":"100000687662713","name":"Vu Thi Man","type":"user","offset":43,"length":10}],"can_remove":false,"created_time":"2013-08-25T02:53:10+0000","like_count":0,"user_likes":false}},"paging":{"cursors":{"after":"NzA3NzQzMTIyNTc1NzAx","before":"NzA3NzQzMTIyNTc1NzAx"},"next":"https://graph.facebook.com/229244010425617_707725522577461/comments?limit=1&summary=1&after=NzA3NzQzMTIyNTc1NzAx"},"summary":{"order":"chronological","total_count":7}}}