{"id":"229244010425617_707747685908578","type":"status","from":{"id":"100000064686295","name":"Huy Roli"},"message":"Có bạn nào giúp mình giải thích rõ hơn về vấn đề này không với, trong sách viết thế này không sao mình hiểu được\n何か〜こと\n何か〜もの\nどこか〜ところ\nだれか〜ひと\nいつか〜とき","created_time":"2013-08-23T07:06:22+0000","updated_time":"2013-08-23T11:20:23+0000","likes":{"data":{"100003011417151":{"id":"100003011417151","name":"Hue Kim"},"100001789054977":{"id":"100001789054977","name":"Ginga Idō Shi"},"100000070752758":{"id":"100000070752758","name":"Yen Panda"}},"paging":{"cursors":{"after":"MTAwMDAzMDExNDE3MTUx","before":"MTAwMDAzMDExNDE3MTUx"},"next":"https://graph.facebook.com/229244010425617_707747685908578/likes?limit=1&summary=1&after=MTAwMDAzMDExNDE3MTUx"},"summary":{"total_count":3}},"comments":{"data":{"707749242575089":{"id":"707749242575089","from":{"id":"100001458099624","name":"Kham Pha"},"message":"tức là từ để hỏi và hỏi cho cái gì.\nCái gì đó ~ việc\nCái gì đó ~việc\nỞ đâu đó ~địa điểm\n...","can_remove":false,"created_time":"2013-08-23T07:11:47+0000","like_count":4,"user_likes":false},"707771845906162":{"id":"707771845906162","from":{"id":"100003137067215","name":"Duong Thi Diem Hang"},"message":"Hình như \"nani ka\" đâu phải để hỏi đâu.nó có nghĩa là cái gì đó.ví dụ như khi mình nói:\"ima,watashi wa nani ka ga tabe tai desu!bây giờ tôi muốn ăn cái gì đó\"... P/s: mới học tiếng Nhật,có nhiều cái ko rõ.hihi.ko biết nói có đúng ko nữa.hihi","can_remove":false,"created_time":"2013-08-23T08:15:32+0000","like_count":0,"user_likes":false},"707772189239461":{"id":"707772189239461","from":{"id":"100000064686295","name":"Huy Roli"},"message":"Đại ca Kham Pha có thể chỉ bảo rõ hơn không, cho thật nhiều ví dụ đc ko?","message_tags":[{"id":"100001458099624","name":"Kham Pha","type":"user","offset":7,"length":8}],"can_remove":false,"created_time":"2013-08-23T08:17:38+0000","like_count":0,"user_likes":false},"707775239239156":{"id":"707775239239156","from":{"id":"100001458099624","name":"Kham Pha"},"message":"Hang Duong ờ mình nói nhầm ko phải là từ để hỏi. Căn bản chả biết gọi mấy cái đấy là loại từ gì. \nHuy Roli vấn đề ở đây có gì phức tạp đâu, sách viết thế kia là để nói đến sự tương xứng của các từ với nhau thôi, ko phải là một cấu trúc gì đặc biệt cả.","message_tags":[{"id":"100003137067215","name":"Hang Duong","type":"user","offset":0,"length":10},{"id":"100000064686295","name":"Huy Roli","type":"user","offset":98,"length":8}],"can_remove":false,"created_time":"2013-08-23T08:29:57+0000","like_count":2,"user_likes":false},"707775685905778":{"id":"707775685905778","from":{"id":"100000064686295","name":"Huy Roli"},"message":"cũng biết vậy nhưng nếu bạn có thể viết nhiều ví dụ ra thì mình sẽ đọc đc nhiều ví dụ, từ đó sẽ vận dụng tốt hơn mà :D (ăn sẵn quá nhỉ)","can_remove":false,"created_time":"2013-08-23T08:31:34+0000","like_count":0,"user_likes":false},"707816985901648":{"id":"707816985901648","from":{"id":"100000381394367","name":"Thành Nguyễn"},"message":"Post cả bài có context lên đây cho rõ hơn không thì mọi người cũng ko biết sách viết cái gì","can_remove":false,"created_time":"2013-08-23T11:20:23+0000","like_count":1,"user_likes":false}},"paging":{"cursors":{"after":"NzA3NzQ5MjQyNTc1MDg5","before":"NzA3NzQ5MjQyNTc1MDg5"},"next":"https://graph.facebook.com/229244010425617_707747685908578/comments?limit=1&summary=1&after=NzA3NzQ5MjQyNTc1MDg5"},"summary":{"order":"chronological","total_count":6}}}