{"id":"229244010425617_708186345864712","type":"status","from":{"id":"100004136795688","name":"Tùng Tử Tế"},"message":"ban vu manh tuan oi cho minh hoi ti dc k","created_time":"2013-08-24T03:27:50+0000","updated_time":"2013-08-24T12:23:48+0000","likes":{"data":{"100003968434559":{"id":"100003968434559","name":"Hoànlê Sevenlove"},"100002508122689":{"id":"100002508122689","name":"Vũ Mạnh Tuấn"}},"paging":{"cursors":{"after":"MTAwMDAzOTY4NDM0NTU5","before":"MTAwMDAzOTY4NDM0NTU5"},"next":"https://graph.facebook.com/229244010425617_708186345864712/likes?limit=1&summary=1&after=MTAwMDAzOTY4NDM0NTU5"},"summary":{"total_count":2}},"comments":{"data":{"708188552531158":{"id":"708188552531158","from":{"id":"100002508122689","name":"Vũ Mạnh Tuấn"},"message":"có việc j vậy Tùng Tử Tế","message_tags":[{"id":"100004136795688","name":"Tùng Tử Tế","type":"user","offset":14,"length":10}],"can_remove":false,"created_time":"2013-08-24T03:34:29+0000","like_count":0,"user_likes":false},"708188939197786":{"id":"708188939197786","from":{"id":"100004136795688","name":"Tùng Tử Tế"},"message":"cho minh ti nhe bay gio 2 nguoi sang do du hoc thi co the ket hon dc o ben do k","can_remove":false,"created_time":"2013-08-24T03:35:23+0000","like_count":2,"user_likes":false},"708194695863877":{"id":"708194695863877","from":{"id":"100001754136107","name":"Nguyễn Tuấn Vũ"},"message":"Kết hôn đc bạn ak","can_remove":false,"created_time":"2013-08-24T03:49:21+0000","like_count":1,"user_likes":false},"708196189197061":{"id":"708196189197061","from":{"id":"100004136795688","name":"Tùng Tử Tế"},"message":"Ban da thay trương hop nao nhu bay chua","can_remove":false,"created_time":"2013-08-24T03:53:07+0000","like_count":0,"user_likes":false},"708203005863046":{"id":"708203005863046","from":{"id":"100001754136107","name":"Nguyễn Tuấn Vũ"},"message":"Minh thấy nhiều.nhưng sao hả bạn","can_remove":false,"created_time":"2013-08-24T04:18:36+0000","like_count":0,"user_likes":false},"708203072529706":{"id":"708203072529706","from":{"id":"100001754136107","name":"Nguyễn Tuấn Vũ"},"message":"Định làm viza gia đình : 1 ng làm 1 ng đi học ak","can_remove":false,"created_time":"2013-08-24T04:18:59+0000","like_count":0,"user_likes":false},"708206365862710":{"id":"708206365862710","from":{"id":"100004136795688","name":"Tùng Tử Tế"},"message":"Ukm mình đang tính như thế","can_remove":false,"created_time":"2013-08-24T04:28:10+0000","like_count":0,"user_likes":false},"708206485862698":{"id":"708206485862698","from":{"id":"100004136795688","name":"Tùng Tử Tế"},"message":"Liệu có đ k hả bạn","can_remove":false,"created_time":"2013-08-24T04:28:31+0000","like_count":0,"user_likes":false},"708216255861721":{"id":"708216255861721","from":{"id":"100001754136107","name":"Nguyễn Tuấn Vũ"},"message":"Uhm.thường vào đại học thì làm dễ hơn senmon, tiền chứng minh tài chính nữa","can_remove":false,"created_time":"2013-08-24T04:54:09+0000","like_count":0,"user_likes":false},"708216892528324":{"id":"708216892528324","from":{"id":"100004136795688","name":"Tùng Tử Tế"},"message":"Bảo lanh nhu thế cũng cần tiền nưa hả bạn","can_remove":false,"created_time":"2013-08-24T04:55:47+0000","like_count":0,"user_likes":false},"708217019194978":{"id":"708217019194978","from":{"id":"100004136795688","name":"Tùng Tử Tế"},"message":"Bạn có thể giải thích kĩ cho minh hieu dc k","can_remove":false,"created_time":"2013-08-24T04:56:17+0000","like_count":0,"user_likes":false},"708230719193608":{"id":"708230719193608","from":{"id":"100001754136107","name":"Nguyễn Tuấn Vũ"},"message":"Đấy là tiền chứng minh tài chính bạn ak.ở vn,thu nhập của gia đình  2 bên.còn bên nay chứng minh bằng sổ ngân hàng của bạn.trong sổ ngân hàng phải có tầm 120 man","can_remove":false,"created_time":"2013-08-24T05:45:44+0000","like_count":0,"user_likes":false},"708231519193528":{"id":"708231519193528","from":{"id":"100004136795688","name":"Tùng Tử Tế"},"message":"O nhà thì bọn mình cũng chứng minh tài chính rồi","can_remove":false,"created_time":"2013-08-24T05:48:17+0000","like_count":0,"user_likes":false},"708231629193517":{"id":"708231629193517","from":{"id":"100004136795688","name":"Tùng Tử Tế"},"message":"Sang đó chứng minh đc là bảo lãnh đc hả bạn vậy bảo lãnh theo kiểu nhu thế nào","can_remove":false,"created_time":"2013-08-24T05:48:48+0000","like_count":0,"user_likes":false},"708231849193495":{"id":"708231849193495","from":{"id":"100004136795688","name":"Tùng Tử Tế"},"message":"Việc bảo lãnh như thế có đc lâu dài k","can_remove":false,"created_time":"2013-08-24T05:49:09+0000","like_count":0,"user_likes":false},"708237299192950":{"id":"708237299192950","from":{"id":"100001754136107","name":"Nguyễn Tuấn Vũ"},"message":"Lấy viza theo 1 ng.ví dụ là bạn đi học 1 năm thì viza cua ng kja sẽ là 1 năm","can_remove":false,"created_time":"2013-08-24T06:01:53+0000","like_count":0,"user_likes":false},"708323805850966":{"id":"708323805850966","from":{"id":"100004136795688","name":"Tùng Tử Tế"},"message":"Nhu vay thi minh hoc 3 năm dai hoc thi nguoi dc bao lanh cung o dc 3 năm ha bAn","can_remove":false,"created_time":"2013-08-24T09:36:14+0000","like_count":0,"user_likes":false},"708336019183078":{"id":"708336019183078","from":{"id":"100001416272263","name":"Mai PB"},"message":"Đi học ĐH cũng visa 1 năm thôi, mỗi năm làm thủ tục gia hạn 1 lần. ĐH thường là 4 năm.","can_remove":false,"created_time":"2013-08-24T10:14:01+0000","like_count":0,"user_likes":false},"708336972516316":{"id":"708336972516316","from":{"id":"100001754136107","name":"Nguyễn Tuấn Vũ"},"message":"Ko phải thế bạn ak.ví dụ visa bạn xin đc 1 năm thì ng kia cũng 1 năm\nA mai: chỗ e visa đại học thường 2 năm 1( e quen 1 a chị cung có visa 2 năm)","can_remove":false,"created_time":"2013-08-24T10:18:19+0000","like_count":0,"user_likes":false},"708337082516305":{"id":"708337082516305","from":{"id":"100004136795688","name":"Tùng Tử Tế"},"message":"Thế học chuyên ngành thì có bảo lãnh đc k mọi người và khi bảo lãnh cần những điều kiện gì","can_remove":false,"created_time":"2013-08-24T10:18:44+0000","like_count":0,"user_likes":false},"708337472516266":{"id":"708337472516266","from":{"id":"100001416272263","name":"Mai PB"},"message":"Thế à, Nguyễn Tuấn Vũ. Chắc đã có thay đổi so với hồi anh học, hoặc có thể trường em có uy tín.","message_tags":[{"id":"100001754136107","name":"Nguyễn Tuấn Vũ","type":"user","offset":7,"length":14}],"can_remove":false,"created_time":"2013-08-24T10:20:10+0000","like_count":0,"user_likes":false},"708338052516208":{"id":"708338052516208","from":{"id":"100001754136107","name":"Nguyễn Tuấn Vũ"},"message":"Mai PB: vâng.thường vào trường đại học se nhận đc 2 năm 1.có đứa bạn e nó nhận đc visa 4 năm\nTùng : chuyên ngành cung lấy theo viza du học sinh ma","message_tags":[{"id":"100001416272263","name":"Mai PB","type":"user","offset":0,"length":6}],"can_remove":false,"created_time":"2013-08-24T10:22:17+0000","like_count":0,"user_likes":false},"708357735847573":{"id":"708357735847573","from":{"id":"100004136795688","name":"Tùng Tử Tế"},"message":"Thế 2 người sang đó đăng kí kết hôn thì thủ tục có phức tạm k bạn","can_remove":false,"created_time":"2013-08-24T11:28:15+0000","like_count":0,"user_likes":false},"708358172514196":{"id":"708358172514196","from":{"id":"100001754136107","name":"Nguyễn Tuấn Vũ"},"message":"Đăng ky ket hon bên nay thì đơn gian hơn khoản chứng minh tài chính.","can_remove":false,"created_time":"2013-08-24T11:29:15+0000","like_count":0,"user_likes":false},"708368149179865":{"id":"708368149179865","from":{"id":"100004136795688","name":"Tùng Tử Tế"},"message":"Chính minh tài chính thì mình phải chứng minh ở nhà hay ở bên đó vậy","can_remove":false,"created_time":"2013-08-24T11:51:36+0000","like_count":0,"user_likes":false},"708379449178735":{"id":"708379449178735","from":{"id":"100001754136107","name":"Nguyễn Tuấn Vũ"},"message":"Chung minh bên nay","can_remove":false,"created_time":"2013-08-24T12:19:54+0000","like_count":0,"user_likes":false},"708379512512062":{"id":"708379512512062","from":{"id":"100001754136107","name":"Nguyễn Tuấn Vũ"},"message":"Chung minh ben nhật","can_remove":false,"created_time":"2013-08-24T12:20:03+0000","like_count":0,"user_likes":false},"708380825845264":{"id":"708380825845264","from":{"id":"100004136795688","name":"Tùng Tử Tế"},"message":"Chứng minh nhu thế nào hả bạn","can_remove":false,"created_time":"2013-08-24T12:23:48+0000","like_count":0,"user_likes":false}},"paging":{"cursors":{"after":"NzA4MTg4NTUyNTMxMTU4","before":"NzA4MTg4NTUyNTMxMTU4"},"next":"https://graph.facebook.com/229244010425617_708186345864712/comments?limit=1&summary=1&after=NzA4MTg4NTUyNTMxMTU4"},"summary":{"order":"chronological","total_count":28}}}