{"id":"229244010425617_708287869187893","type":"photo","object_id":"613999291985420","picture":"https://fbcdn-photos-c-a.akamaihd.net/hphotos-ak-frc1/t1.0-0/999766_613999291985420_94513962_s.jpg","link":"https://www.facebook.com/photo.php?fbid=613999291985420&set=pcb.708287869187893&type=1&relevant_count=9","from":{"id":"100001260645727","name":"Ngo Duy Son"},"message":"富士山に登りましょう！\n\nChào các bạn, sau một thời gian Deactivate facebook để ăn hành tỏi thì mình đã trở lại, tất nhiên mang theo một vài điều thú vị cho các bạn trong thời gian sắp tới.\n\nTrước mắt là mình lại bị thằng Ad Kham Pha nó gạ gẫm post bài.\nDo đó thì hôm nay mình sẽ giới thiệu sơ qua về cái vụ leo núi. Nói chung là các bạn tìm kiếm trên mạng thế nào cũng thấy đầy đủ thông tin, vậy nên là mình sẽ viết theo phong cách riêng, không có cái kiểu thống kê dụng cụ hay những điều cần chú ý làm cái gì gì cho nặng đầu hết.\n\nĐặc biệt sẽ có phần giới thiệu công thức giúp leo núi mấy ngày không mệt!\n\nTrước khi leo núi, trước hết là chúng ta phải có ý định leo. ^^ Rồi thì tìm hiểu xem lúc nào leo là hợp lý?\nVề cơ bản thì ngon nghẻ và dễ nhất là vào mùa hè, tầm từ tháng 6->tháng 8, rơi vào đợt lễ 御盆休み（obon yasumi) thì lại càng ngon.\nNói chung đi tầm đấy nó đang nóng, leo lên núi cho nó mát ^^\nKhổ nỗi tầm đó đỉnh núi hết tuyết rồi, nên là không được đẹp như lúc tuyết phủ.\n\nMà tin mình đi, bạn nào chịu chơi với mạo hiểm thì đi mùa thu hay mùa đông để có tuyết cho nó vui, chứ cứ cái kiểu giá một bộ chống rét kiêm luôn chống mưa tầm 10000￥, gậy leo núi hai cái tầm 2500￥, giày leo núi ngon nghẻ 8000￥... thì thôi, ở nhà cuộn chăn cho nó ấm.(-_-)\n\nXuất phát!\nMà xuất phát ở đâu? \n富士山có 10 cái　合目, từ 1->5 là đường nhựa, mà chả ai lại dỗi hơi leo đường nhựa làm gì, trừ con Z phòng tớ.\nVậy nên chúng ta sẽ xuất phát từ 五合目.\n\nChặng 1: Từ 5合目tới 8合目\nGiờ xuất phát: 3->5 giờ chiều và kết thúc lúc tầm 11h đêm.\nNói chung ở 5合目là tương đối lạnh rồi, thế nên các bạn nên mặc đủ ấm. Đợt đó mình rất chủ quan, chặng đầu tiên mặc phong phanh, không mũ nó khăn quàng gì hết, nên là bị lạnh buốt hết cả đầu suốt nửa cuối chặng.\nVậy thì.\n\n①：Lưu ý 1 là bạn phải mang một cái áo ấm đi, khẩu trang có thì càng tốt, khăn quàng, rồi mũ len. Nói chung bạn nào muốn tỏ ra nguy hiểm ta đây khỏe mạnh thì sẽ ăn hành giống mình ^^\n\nÀ, khoản giày leo núi với gậy thì chỉ cần giày chắc chắn bám tốt là được. Tất nhiên là khuyến khích các bạn ăn chơi cho kinh tế thế giới bớt khủng hoảng. Nhưng mà cũng như thằng bạn mình, thêm được vài món đồ vào danh sách những thứ chả bao giờ dùng tới và làm chật cả phòng (@@)\n\n②: Đang leo giữa chừng bụng réo, mà kiểu gì cũng réo, vì vừa leo mệt lại vừa lạnh, ta phải làm sao?\n\nĐừng lo, ở mỗi trạm nghỉ chân đều có bán đồ ăn linh tinh.\nCơ mà tuân theo nguyên lý nghịch với nhiệt độ- Nghĩa là càng lên cao càng đắt! ^^\nNguyên lý này áp dụng cho cả nhà vệ sinh và các dịch vụ khác.\nVậy nên.\nTheo mình thì các bạn nên mang sẵn một  ít bánh kẹo ngon ngon, Chocolate thì càng ngon.\n\n③：　Đợt mình leo đến giữa chừng thì mưa. Nhọ.\nVậy nên áo mưa rất cần thiết, cả để chống rét nữa.\nNhưng mặc vào khá là khó leo nên các bạn chú ý nhé!\n\nChặng 2: Xuất phát lúc 2 giờ sáng\nNghĩa là bạn có 3 giờ ăn ngủ nghỉ tại 旅館trên núi.\n\nCác bạn ắt hẳn sẽ thắc mắc: \"Ơ thế mấy thằng dở leo núi giữ đêm làm cái dell gì để phải tốn thêm tiền mua đèn?\"\n\nThực ra là vì ham em お来光(Mặt trời mọc trên đỉnh Phú Sĩ) xinh đẹp. Ở những chỗ khác thì người ta chỉ gọi là 朝日（あさひ：asahi）thôi. \nTại sao lại gọi vậy?\nThấy mấy bố Nhật chém gió là do đức tin, đất nước mặt trời mọc mà, mặt trời mọc trên đỉnh Phú Sĩ thì càng thiêng liêng hơn, nên thêm ごvào cho nó máu. (có anh còn chém là đọc lái của 御来迎）\n\n④　Vâng, tới phần này mình sẽ bật bí công thức leo núi mấy ngày không mệt!\nĐó là...\n.\n.\n\"Sĩ gái đại pháp\"\nCác bạn cứ đi kèm một em nào đó mới quen, hơi xinh xinh, rồi thì vì mục đích cao cả là đảm bảo an toàn cho em ấy và giúp em ấy đỡ mệt, đỡ đau chân. \nRồi tranh thủ nắm chân nắm tay cả cuộc hành trình thì đảm bảo các bạn nam không bao giờ thấm mệt.\n\n⑤ Ngắm mặt trời mọc\nLeo lên càng mêt, càng lâu thì lúc lên tới đỉnh càng sướng. !!!!!!!\nNguyên lý vĩ đại này đúng với quá là nhiều quá trình trong cuộc sống của chúng ta (^~^)\nNói chung là tận hưởng thôi. Đừng lo đường về vì đường về nhàn và bẳng phẳng, chả có vách đá gì đâu ^^\n\nThôi đến đây là hết rồi.\nVề thì tắm 温泉. Nói chung là cũng sướng.\nĐùa chứ 2 ngày leo núi ko tắm nhảy ngay vào 温泉, chắc mẩm sướng lắm đây. Cơ mà mấy anh Việt Nam không quen, ngâm mình được mấy phút trong nước nóng là quit rồi nên với mấy thằng bạn tớ thì chắc là cũng ko sướng lắm.\nCó tớ với một sempai ngâm được lâu là sướng thôi.\nNói chung là hồi mana nhanh lắm!","created_time":"2013-08-24T07:35:24+0000","updated_time":"2013-08-25T00:43:13+0000","likes":{"data":{"100002378900611":{"id":"100002378900611","name":"Bich Phuong"},"100004286045893":{"id":"100004286045893","name":"Khanh Huỳnh"},"100001416272263":{"id":"100001416272263","name":"Mai PB"},"100003806594580":{"id":"100003806594580","name":"Daothuy Linh"},"1845000884":{"id":"1845000884","name":"Trieu Thi Kieu Oanh"},"100001260645727":{"id":"100001260645727","name":"Ngo Duy Son"},"100002508122689":{"id":"100002508122689","name":"Vũ Mạnh Tuấn"}},"paging":{"cursors":{"after":"MTAwMDAyMzc4OTAwNjEx","before":"MTAwMDAyMzc4OTAwNjEx"},"next":"https://graph.facebook.com/229244010425617_708287869187893/likes?limit=1&summary=1&after=MTAwMDAyMzc4OTAwNjEx"},"summary":{"total_count":7}},"comments":{"data":{"708310225852324":{"id":"708310225852324","from":{"id":"100000212912217","name":"Trung Ha"},"message":"\"Rồi tranh thủ nắm chân nắm tay cả cuộc hành trình thì đảm bảo các bạn nam không bao giờ thấm mệt\" =)) sợ a quá ;))","can_remove":false,"created_time":"2013-08-24T08:50:46+0000","like_count":2,"user_likes":false},"708338485849498":{"id":"708338485849498","from":{"id":"1714365712","name":"Pi Maru"},"message":"Văn hay chữ tốt ! 9,5 !","can_remove":false,"created_time":"2013-08-24T10:24:32+0000","like_count":1,"user_likes":false},"708340662515947":{"id":"708340662515947","from":{"id":"100001416272263","name":"Mai PB"},"message":"Có phải \"sĩ gái đại pháp\" màu tím kia không?","can_remove":false,"created_time":"2013-08-24T10:33:47+0000","like_count":1,"user_likes":false},"708393449177335":{"id":"708393449177335","from":{"id":"100006248618563","name":"Momi Zi"},"message":"hè sang năm muốn lên đó wa.có ai đi nói với","can_remove":false,"created_time":"2013-08-24T12:47:40+0000","like_count":1,"user_likes":false},"708400689176611":{"id":"708400689176611","from":{"id":"100001260645727","name":"Ngo Duy Son"},"message":"Mai PB: Bạn là ai mà siêu vậy?","message_tags":[{"id":"100001416272263","name":"Mai PB","type":"user","offset":0,"length":6}],"can_remove":false,"created_time":"2013-08-24T13:04:18+0000","like_count":0,"user_likes":false},"708401152509898":{"id":"708401152509898","from":{"id":"100001260645727","name":"Ngo Duy Son"},"message":"Malaysian gốc China ^^","can_remove":false,"created_time":"2013-08-24T13:05:14+0000","like_count":0,"user_likes":false},"708405259176154":{"id":"708405259176154","from":{"id":"100001416272263","name":"Mai PB"},"message":"Ngo Duy Son dễ hiểu quá mà.","message_tags":[{"id":"100001260645727","name":"Ngo Duy Son","type":"user","offset":0,"length":11}],"can_remove":false,"created_time":"2013-08-24T13:14:42+0000","like_count":0,"user_likes":false},"708443969172283":{"id":"708443969172283","from":{"id":"100000250256418","name":"Nguyen Viet Anh"},"message":"Anh quên chưa giải thích là vì sao chị kia đi găng tay à? =))","can_remove":false,"created_time":"2013-08-24T14:43:44+0000","like_count":0,"user_likes":false},"708661269150553":{"id":"708661269150553","from":{"id":"100000687662713","name":"Vu Thi Man"},"message":"Oh, sao duong ve voi duong len lai khac nhau ah? Trong hinh anh, luc leo len thay toan da nhap nho, ma anh chup luc xuong lai bang phang the?","can_remove":false,"created_time":"2013-08-25T00:43:13+0000","like_count":0,"user_likes":false}},"paging":{"cursors":{"after":"NzA4MzEwMjI1ODUyMzI0","before":"NzA4MzEwMjI1ODUyMzI0"},"next":"https://graph.facebook.com/229244010425617_708287869187893/comments?limit=1&summary=1&after=NzA4MzEwMjI1ODUyMzI0"},"summary":{"order":"chronological","total_count":9}}}