{"id":"229244010425617_708201392529874","type":"status","from":{"id":"100001628612184","name":"Mai Tròn"},"message":"Có ai có file nghe choukai tasuku (25-50) của quyển minna 2 ko? Gửi cho mình xin vào mail với, mình tìm trên mạng toàn link die ko down được về. Mail: maintt5491@gmail.com ありがとうございます。","created_time":"2013-08-24T04:12:18+0000","updated_time":"2013-08-24T12:03:09+0000","comments":{"data":{"708203712529642":{"id":"708203712529642","from":{"id":"100001416272263","name":"Mai PB"},"message":"Bạn tìm ở đây xem có không? https://www.facebook.com/groups/CongdongVietNhat/doc/687429284607085/","can_remove":false,"created_time":"2013-08-24T04:20:21+0000","like_count":1,"user_likes":false},"708207462529267":{"id":"708207462529267","from":{"id":"100001628612184","name":"Mai Tròn"},"message":"mình tìm ko thấy...hị hị :(","can_remove":false,"created_time":"2013-08-24T04:31:39+0000","like_count":0,"user_likes":false},"708210202528993":{"id":"708210202528993","from":{"id":"100001723862714","name":"Bo Bien Vang"},"message":"trong đó ko có đâu, search google ý, bằng tiếng anh or tiếng nhật ra cả đống đấy.","can_remove":false,"created_time":"2013-08-24T04:39:31+0000","like_count":1,"user_likes":false},"708211799195500":{"id":"708211799195500","from":{"id":"100001723862714","name":"Bo Bien Vang"},"message":"mà xem comment mấy hôm trc ý có bạn cũng hỏi cái này, ll với bạn ấy ý, nếu vẫn ko tìm đc.","can_remove":false,"created_time":"2013-08-24T04:42:13+0000","like_count":1,"user_likes":false},"708216222528391":{"id":"708216222528391","from":{"id":"100000064686295","name":"Huy Roli"},"message":"Là gì, hình như a có đấy mai","can_remove":false,"created_time":"2013-08-24T04:54:01+0000","like_count":0,"user_likes":false},"708218075861539":{"id":"708218075861539","from":{"id":"100001628612184","name":"Mai Tròn"},"message":"Là CD trong cuốn nghe choukai minna no nihongo ý anh Huy Roli à, anh có gửi cho em nhé","message_tags":[{"id":"100000064686295","name":"Huy Roli","type":"user","offset":53,"length":8}],"can_remove":false,"created_time":"2013-08-24T05:00:52+0000","like_count":0,"user_likes":false},"708224315860915":{"id":"708224315860915","from":{"id":"100001416272263","name":"Mai PB"},"message":"Bạn thử các link download dưới mỗi phần ở trang này xem. Cẩn thận virus đấy (không biết có hay không). http://yuki-nezumi.blogspot.jp/2011/10/minna-no-nihongo-i-ii.html","can_remove":false,"created_time":"2013-08-24T05:24:06+0000","like_count":2,"user_likes":false},"708224445860902":{"id":"708224445860902","from":{"id":"100001723862714","name":"Bo Bien Vang"},"message":"thank u so much","can_remove":false,"created_time":"2013-08-24T05:24:49+0000","like_count":0,"user_likes":false},"708225009194179":{"id":"708225009194179","from":{"id":"100001416272263","name":"Mai PB"},"message":"Còn đây là link khác, không có file nghe nhưng là câu hỏi và giải đáp. http://www.slideshare.net/japanmylove1132011/minna-nonihongo2choukaitasuku-script-answer","can_remove":false,"created_time":"2013-08-24T05:25:30+0000","like_count":2,"user_likes":false},"708234292526584":{"id":"708234292526584","from":{"id":"100001628612184","name":"Mai Tròn"},"message":"Script mình co sách rồi, hình như file nghe vẫn chưa tìm thấy, để mình cố gắng tìm lại xem, cảm ơn mọi người nhé.","can_remove":false,"created_time":"2013-08-24T05:54:23+0000","like_count":0,"user_likes":false},"708280592521954":{"id":"708280592521954","from":{"id":"100002480343600","name":"Mặt Nạ Thủy Tinh"},"message":"chị Mai Mai Tròn đã có file nghe chưa? nếu chưa có e gửi cho chị nhé@@","message_tags":[{"id":"100001628612184","name":"Mai Tròn","type":"user","offset":8,"length":8}],"can_remove":false,"created_time":"2013-08-24T07:14:12+0000","like_count":0,"user_likes":false},"708281212521892":{"id":"708281212521892","from":{"id":"100001628612184","name":"Mai Tròn"},"message":"Chưa có Mặt Nạ Thủy Tinh à, gửi cho chị với, hê hê, cảm ơn em nhé :) mail chị là maintt5491@gmail.com. Em học đến đâu rồi?","message_tags":[{"id":"100002480343600","name":"Mặt Nạ Thủy Tinh","type":"user","offset":8,"length":16}],"can_remove":false,"created_time":"2013-08-24T07:15:20+0000","like_count":0,"user_likes":false},"708281605855186":{"id":"708281605855186","from":{"id":"100002480343600","name":"Mặt Nạ Thủy Tinh"},"message":"hi vâng e gửi luôn đây, e đang học sang năm 2 ở trường chị aj^^ kiki","can_remove":false,"created_time":"2013-08-24T07:16:07+0000","like_count":1,"user_likes":false},"708284202521593":{"id":"708284202521593","from":{"id":"100002480343600","name":"Mặt Nạ Thủy Tinh"},"message":"e gửi rồi đấy, chị Mai Tròn check mail xem dc chưa nhé","message_tags":[{"id":"100001628612184","name":"Mai Tròn","type":"user","offset":19,"length":8}],"can_remove":false,"created_time":"2013-08-24T07:26:29+0000","like_count":0,"user_likes":false},"708372409179439":{"id":"708372409179439","from":{"id":"100001416272263","name":"Mai PB"},"message":"Cái link từ blog nezumi trên kia dùng được đấy, mình vừa thử dl 1 file rồi.","can_remove":false,"created_time":"2013-08-24T12:03:09+0000","like_count":0,"user_likes":false}},"paging":{"cursors":{"after":"NzA4MjAzNzEyNTI5NjQy","before":"NzA4MjAzNzEyNTI5NjQy"},"next":"https://graph.facebook.com/229244010425617_708201392529874/comments?limit=1&summary=1&after=NzA4MjAzNzEyNTI5NjQy"},"summary":{"order":"chronological","total_count":15}},"likes":{"data":[]}}