{"id":"229244010425617_708892049127475","type":"status","from":{"id":"100000064686295","name":"Huy Roli"},"message":"Mình post đoạn này lên để hỏi admin và các bạn nhé.\nねえ、おじさん。このトラックどこまでいくの。\nちょっと町までさ。\nおねがい、乗せてって。途中まででいいから。\nよし。早く乗れよ。\nNhững.chỗ.mình thắc mắc.là có phải mấy chữ の、さ、よ ở cuối câu là cho lịch sự, có cũng đc ko có cũng đươc ko?\nThứ 2 là chỗ 乗せ、乗れ là sao? Và 乗せてって thì nghĩa là gì?\nThứ 3 ở chỗ câu 3 có 2 chữ でで là sao? \nCảm ơn admin và mọi người trc nhé :D","created_time":"2013-08-25T11:42:35+0000","updated_time":"2013-08-27T01:52:01+0000","likes":{"data":{"100001754136107":{"id":"100001754136107","name":"Nguyễn Tuấn Vũ"},"100000022163023":{"id":"100000022163023","name":"Kafe Ore"},"100001789054977":{"id":"100001789054977","name":"Ginga Idō Shi"}},"paging":{"cursors":{"after":"MTAwMDAxNzU0MTM2MTA3","before":"MTAwMDAxNzU0MTM2MTA3"},"next":"https://graph.facebook.com/229244010425617_708892049127475/likes?limit=1&summary=1&after=MTAwMDAxNzU0MTM2MTA3"},"summary":{"total_count":3}},"comments":{"data":{"708922089124471":{"id":"708922089124471","from":{"id":"100000969905909","name":"Shady Su"},"message":"Mình đóng góp tí , có thể là ko đúng m người chữa hộ .\nCái no đầu tiên là dạng nói của mẫu ndesu . Yo là kiểu như thông tin mình nói ra cho ng khác biết , kiểu : t học tiếng Nhật ĐẤY","can_remove":false,"created_time":"2013-08-25T12:45:42+0000","like_count":1,"user_likes":false},"708924622457551":{"id":"708924622457551","from":{"id":"100000064686295","name":"Huy Roli"},"message":"Thế sa","can_remove":false,"created_time":"2013-08-25T12:48:07+0000","like_count":1,"user_likes":false},"708929969123683":{"id":"708929969123683","from":{"id":"100000969905909","name":"Shady Su"},"message":"t ko biet =))))","can_remove":false,"created_time":"2013-08-25T12:56:32+0000","like_count":0,"user_likes":false},"709004852449528":{"id":"709004852449528","from":{"id":"100002265193557","name":"Gấu Mó"},"message":"Chỗ câu 3 là 途中 まで で de thứ nhất là của từ made chứ không phải là ででđâu bạn ạ","can_remove":false,"created_time":"2013-08-25T15:11:22+0000","like_count":0,"user_likes":false},"709009235782423":{"id":"709009235782423","from":{"id":"100000022163023","name":"Kafe Ore"},"message":"Rảnh quá ... nhìu chiện chút chơi, sai thì mong dc chỉ giáo :* 1. の、さ、よ ở cuối câu không phải để cho lịch sự mà bạn tạm hiểu nó như là thán từ, dùng nhiều trong văn nói. Cụ thể : trong câu đầu từ の biểu thị hàm ý câu hỏi, さ hàm ý bày tỏ vấn đề cá nhân một cách ngại ngùng, よ thường để đưa ra thông tin người nói biết mà người nghe chưa biết hoặc quyết định xuất phát từ phía người nói. **2. 乗せ、乗れ  cái này học thể bị động và thể sai khiến, cho phép sẽ hiểu nhé bạn. 乗せてって = cho tui lên xe nhé. ***3 : でで chữ で đầu tiên là nó đi liền của まで, còn chữ で thứ 2 là trợ từ chỉ bổ nghĩa cho phương tiện, cách thức thực hiện hành động, điều kiện. HẾT","can_remove":false,"created_time":"2013-08-25T15:21:26+0000","like_count":6,"user_likes":false},"709010059115674":{"id":"709010059115674","from":{"id":"100000022163023","name":"Kafe Ore"},"message":"P/s : Bạn học hết 50 bài Minano nihongo Sơ cấp sẽ hiểu toàn bộ vấn đề.","can_remove":false,"created_time":"2013-08-25T15:23:36+0000","like_count":2,"user_likes":false},"709242565759090":{"id":"709242565759090","from":{"id":"100001754136107","name":"Nguyễn Tuấn Vũ"},"message":"Những từ này thêm vào,dùng trong văn nói","can_remove":false,"created_time":"2013-08-26T01:28:06+0000","like_count":1,"user_likes":false},"709244489092231":{"id":"709244489092231","from":{"id":"100006248618563","name":"Momi Zi"},"message":"giao tiếp và nghe người nhật nc tự nhiên cảm nhận và hiểu vừa vừa . học chuyên sâu như các bạn du học mệt nhỉ","can_remove":false,"created_time":"2013-08-26T01:33:02+0000","like_count":0,"user_likes":false},"709245295758817":{"id":"709245295758817","from":{"id":"100001754136107","name":"Nguyễn Tuấn Vũ"},"message":"Thêm thái đô,cảm xúc của ng nói vào.","can_remove":false,"created_time":"2013-08-26T01:35:31+0000","like_count":0,"user_likes":false},"709245782425435":{"id":"709245782425435","from":{"id":"100001754136107","name":"Nguyễn Tuấn Vũ"},"message":"Momi Zi: cái đấy ng nhật cũng nói mà.Chứ ko phải chuyên sâu đâu","message_tags":[{"id":"100006248618563","name":"Momi Zi","type":"user","offset":0,"length":7}],"can_remove":false,"created_time":"2013-08-26T01:37:07+0000","like_count":0,"user_likes":false},"709246575758689":{"id":"709246575758689","from":{"id":"100000064686295","name":"Huy Roli"},"message":"Ban Kafe Ore oi, : でで chữ で đầu tiên là nó đi liền của まで, còn chữ で thứ 2 là trợ từ chỉ bổ nghĩa cho phương tiện, cách thức thực hiện hành động, điều kiện.  bạn nói rõ hơn cho mình hiểu đc không?","message_tags":[{"id":"100000022163023","name":"Kafe Ore","type":"user","offset":4,"length":8}],"can_remove":false,"created_time":"2013-08-26T01:40:43+0000","like_count":1,"user_likes":false},"709246992425314":{"id":"709246992425314","from":{"id":"100006248618563","name":"Momi Zi"},"message":"uhm.mình học ít.nhưng suốt ngày làm cung người nhật và phải nc với họ suốt ngày.trong lẩn ngoài nen toàn học theo kiểu suy nghĩ và cảm nhận.","can_remove":false,"created_time":"2013-08-26T01:42:14+0000","like_count":0,"user_likes":false},"709248865758460":{"id":"709248865758460","from":{"id":"100001754136107","name":"Nguyễn Tuấn Vũ"},"message":"Thế thì chắc học đc kiểu chém gió của nhật ;)","can_remove":false,"created_time":"2013-08-26T01:45:26+0000","like_count":0,"user_likes":false},"709271929089487":{"id":"709271929089487","from":{"id":"100006248618563","name":"Momi Zi"},"message":"ngắt quảng lắm vì trình độ chưa đủ...","can_remove":false,"created_time":"2013-08-26T02:44:10+0000","like_count":0,"user_likes":false},"709297439086936":{"id":"709297439086936","from":{"id":"100006153041734","name":"Ngoc Lam Ho"},"message":"Bo xung mot ti, cac chu no","can_remove":false,"created_time":"2013-08-26T03:53:50+0000","like_count":0,"user_likes":false},"709299099086770":{"id":"709299099086770","from":{"id":"100006153041734","name":"Ngoc Lam Ho"},"message":"Bo xung 1 ti, cac chu no, sa,yo hay wayo thuong dung voi tung doi tuong cu the. vi du nhu con gai hay dung chu no o moi cuoi cau de dien ta su nung niu. chu sa hay duoc dung cho tat ca cac cau khi noi, ma dan choi hay noi cac khac nhung nguoi muon the hien minh la dan choi thuong hay dung. chu yo cung mang tinh cach lam cho cau noi tro nen mem mai hon, hay them wa truoc chu yo thi chi dung cho nu gioio do tuoi OL (office lady). @MomiZi: ung ho y kien cua ban, hoc theo tu nhien bang cach cam nhan vao cau noi va tung truong hop, hoc ngon ngu ma cu nhu hoc toan 1+1=2 thi se de bi tau hoa nhap ma lam.","can_remove":false,"created_time":"2013-08-26T04:01:01+0000","like_count":2,"user_likes":false},"709408499075830":{"id":"709408499075830","from":{"id":"100000022163023","name":"Kafe Ore"},"message":"Huy Roli Ví dụ: スプーンで食べた。=> Phương tiện. 一人で食べた。=> Cách thức thực hiện hành động.全部で食べた。一個でいくらの？=> Điều kiện, số lượng ...","message_tags":[{"id":"100000064686295","name":"Huy Roli","type":"user","offset":0,"length":8}],"can_remove":false,"created_time":"2013-08-26T08:25:50+0000","like_count":0,"user_likes":false},"709435612406452":{"id":"709435612406452","from":{"id":"100000064686295","name":"Huy Roli"},"message":"Thế câu trên cụ thể ở đây là gì hả bạn ?","can_remove":false,"created_time":"2013-08-26T09:37:39+0000","like_count":0,"user_likes":false},"709449725738374":{"id":"709449725738374","from":{"id":"100004697134434","name":"Thảo Xexekubo"},"message":"Ah cái này trong cuốn nameraka nek cai này muốn hiểu kỉ thì nên học thật kỉ các thể như mệnh lệnh rồi thể nói vắn tắt của ng Nhật cụng khá mất nhiều tg đấy nhưng mak thú vị lắm học cái này đảm bảo xem phim Nhật vô tư ý là kèm cả kiến thức từ vựng và ngữ pháp nhá","can_remove":false,"created_time":"2013-08-26T10:23:41+0000","like_count":0,"user_likes":false},"709450735738273":{"id":"709450735738273","from":{"id":"100000064686295","name":"Huy Roli"},"message":"Thế bạn giải thích ngữ pháp cụ thể đi","can_remove":false,"created_time":"2013-08-26T10:26:05+0000","like_count":0,"user_likes":false},"709451099071570":{"id":"709451099071570","from":{"id":"100000022163023","name":"Kafe Ore"},"message":"Huy Roli Này ông ơi, xe tải này đi đến đâu vậy ?. Tôi muốn tới thành phố một chút ,,, ông làm ơn, cho tôi lên xe nhé, đi đến giữa đường cũng được mà. - Được rồi, mau lên xe đi.","message_tags":[{"id":"100000064686295","name":"Huy Roli","type":"user","offset":0,"length":8}],"can_remove":false,"created_time":"2013-08-26T10:27:25+0000","like_count":0,"user_likes":false},"709453382404675":{"id":"709453382404675","from":{"id":"100001754136107","name":"Nguyễn Tuấn Vũ"},"message":"Huy Huy Roli: hnay đứng hỏi thầy giáo về mấy cái này.t bổ xung thêm: thực ra từ さ ko mang ý nghĩa trong câu văn,nó thêm vào để nói ngắt quãng câu từ thôi.vùng tokyo hay dùng","message_tags":[{"id":"100000064686295","name":"Huy Roli","type":"user","offset":4,"length":8}],"can_remove":false,"created_time":"2013-08-26T10:33:10+0000","like_count":2,"user_likes":false},"709454712404542":{"id":"709454712404542","from":{"id":"100000064686295","name":"Huy Roli"},"message":"Tớ có bản dịch rồi, cảm ơn các bạn nhé, từ sa ở đoạn này là kết thúc câu mà bạn","can_remove":false,"created_time":"2013-08-26T10:35:59+0000","like_count":0,"user_likes":false},"709455959071084":{"id":"709455959071084","from":{"id":"100001754136107","name":"Nguyễn Tuấn Vũ"},"message":"Có hay ko thì nội dung vs ngữ pháp vân đúng ma","can_remove":false,"created_time":"2013-08-26T10:40:24+0000","like_count":0,"user_likes":false},"709496659067014":{"id":"709496659067014","from":{"id":"100001580479641","name":"Hà Xuân Thủy"},"message":"さ:\n1.Được dùng khi nhấn mạnh một cách chủ định về suy nghĩ hay ý kiến mình\n今日出来なければ、明日するさ\n2.Được dùng để chỉ phản ứng mạnh.\n何さ、あんなやつ？\n3.Được dùng sau một cụm từ để thu hút sự chú ý của người nghe\nこの間借りた本さ、もう読んじゃった\n4.Đôi khi đc dùng với thái độ khinh thường...to(tte)sa\n彼、試験は全然出来なかったんだと(って)さ.\nBạn tra từ điển để có thêm nhiều ví dụ nhé, mình dùng điện thoại nên ngại gõ quá","can_remove":false,"created_time":"2013-08-26T12:25:53+0000","like_count":4,"user_likes":false},"709516799065000":{"id":"709516799065000","from":{"id":"100000687662713","name":"Vu Thi Man"},"message":"Minh bo sung nhe.","can_remove":false,"created_time":"2013-08-26T13:00:43+0000","like_count":0,"user_likes":false},"709518052398208":{"id":"709518052398208","from":{"id":"100000687662713","name":"Vu Thi Man"},"message":"乗せてって。Day la cau tat, thuong su dung trong van noi. Dung cua cau nay se la 乗せていって。","can_remove":false,"created_time":"2013-08-26T13:03:59+0000","like_count":1,"user_likes":false},"709534185729928":{"id":"709534185729928","from":{"id":"100000064686295","name":"Huy Roli"},"message":"Nosete itte nghĩa là gì hả bạn? Vte +itte à?","can_remove":false,"created_time":"2013-08-26T13:15:36+0000","like_count":0,"user_likes":false},"709540759062604":{"id":"709540759062604","from":{"id":"100000687662713","name":"Vu Thi Man"},"message":"Co 1 so quy tac ma trong van noi va van viet se khac nhau.","can_remove":false,"created_time":"2013-08-26T13:21:31+0000","like_count":0,"user_likes":false},"709541255729221":{"id":"709541255729221","from":{"id":"100000064686295","name":"Huy Roli"},"message":"Minh hiểu chỗ.tắt đấy, mình ko hiểu ý nghĩa của chỗ nguyên thể bạn à","can_remove":false,"created_time":"2013-08-26T13:22:28+0000","like_count":0,"user_likes":false},"709541615729185":{"id":"709541615729185","from":{"id":"100000687662713","name":"Vu Thi Man"},"message":"Vi du: trong van viet la Vている....van noi la: Vてる。","can_remove":false,"created_time":"2013-08-26T13:23:31+0000","like_count":0,"user_likes":false},"709544309062249":{"id":"709544309062249","from":{"id":"100000064686295","name":"Huy Roli"},"message":"Chỗ đó mình hiểu, mình hỏi 載せていって　nghĩa là gì cơ, bạn giải thích cho mình đc ko","can_remove":false,"created_time":"2013-08-26T13:27:08+0000","like_count":0,"user_likes":false},"709544549062225":{"id":"709544549062225","from":{"id":"100000064686295","name":"Huy Roli"},"message":"乗せていって","can_remove":false,"created_time":"2013-08-26T13:27:29+0000","like_count":0,"user_likes":false},"709544625728884":{"id":"709544625728884","from":{"id":"100000064686295","name":"Huy Roli"},"message":"Xin lỗi viết nhầm","can_remove":false,"created_time":"2013-08-26T13:27:43+0000","like_count":0,"user_likes":false},"709545449062135":{"id":"709545449062135","from":{"id":"100000687662713","name":"Vu Thi Man"},"message":"Vていく...van noi la:Vてく。　Vておく...van noi :Vとく　.vi du cho tung cau truc tren: 待っている…待ってる。　連れていってください…連れてってください。　買っておいてください…買っといてください。","can_remove":false,"created_time":"2013-08-26T13:28:41+0000","like_count":0,"user_likes":false},"709546882395325":{"id":"709546882395325","from":{"id":"100000687662713","name":"Vu Thi Man"},"message":"Vay thi minh dich luon ca doan day nhe. Nay, anh oi, xe tai cua anh di den dau the? Di ra pho 1 chut. Anh lam on cho toi di nho xe voi, den nua duong thoi cung duoc. Duoc roi, len xe di.","can_remove":false,"created_time":"2013-08-26T13:32:44+0000","like_count":0,"user_likes":false},"709548595728487":{"id":"709548595728487","from":{"id":"100000064686295","name":"Huy Roli"},"message":"Ý mình đang hỏi là 乗せていって nghĩa là gì, cấu trúc gì mà dịch thành cho tôi đi nhờ xe???","can_remove":false,"created_time":"2013-08-26T13:37:22+0000","like_count":0,"user_likes":false},"709567729059907":{"id":"709567729059907","from":{"id":"100001416272263","name":"Mai PB"},"message":"Huy Roli 乗せる là một động từ riêng, không phải là biến thể từ 乗る đâu. Nghĩa của nó là \"cho ngồi lên (xe)\"\n乗せてって=乗せていって là dạng て của động từ ghép 乗せていく（乗せて行く） nghĩa là chở đi đâu đó.","message_tags":[{"id":"100000064686295","name":"Huy Roli","type":"user","offset":0,"length":8}],"can_remove":false,"created_time":"2013-08-26T14:24:57+0000","like_count":1,"user_likes":false},"709580129058667":{"id":"709580129058667","from":{"id":"100000064686295","name":"Huy Roli"},"message":"E chờ mãi mới thấy a trả lời, đúng là cao thủ có khác, đúng chỗ e đang thắc mắc. Anh có thể giải thích nốt mấy chỗ kia đc ko?","can_remove":false,"created_time":"2013-08-26T14:53:33+0000","like_count":0,"user_likes":false},"709590135724333":{"id":"709590135724333","from":{"id":"100001416272263","name":"Mai PB"},"message":"Huy Roli các chữ khác mọi người ở trên giải thích rồi còn gì, chỗ nào không hiểu nữa?","message_tags":[{"id":"100000064686295","name":"Huy Roli","type":"user","offset":0,"length":8}],"can_remove":false,"created_time":"2013-08-26T15:17:30+0000","like_count":0,"user_likes":false},"709590835724263":{"id":"709590835724263","from":{"id":"100000064686295","name":"Huy Roli"},"message":"でで ý anh, chỗ đấy mng giải thích hơi lý thuyết, ko sát với tình huống này","can_remove":false,"created_time":"2013-08-26T15:19:43+0000","like_count":0,"user_likes":false},"709595542390459":{"id":"709595542390459","from":{"id":"100001416272263","name":"Mai PB"},"message":"途中まででいい=途中まで ＋でいい\n途中まで thì rõ rồi chứ? \"Đi đến giữa đường/chừng\"\n～でいい nghĩa là \"cũng (tạm) được\", tức là không thỏa mãn hoàn toàn nhưng cũng ok. Rồi sẽ học mẫu câu này.\n-> Cho tôi đi đến nửa đường cũng được rồi.\nでいい thì hay dùng là でいいです hoặc でいいから như trong câu của em.","can_remove":false,"created_time":"2013-08-26T15:30:20+0000","like_count":1,"user_likes":false},"709597875723559":{"id":"709597875723559","from":{"id":"100000381394367","name":"Thành Nguyễn"},"message":"Câu này thông thường người ta hay nói 途中まででもいいから hơn là ko có も","can_remove":false,"created_time":"2013-08-26T15:36:27+0000","like_count":1,"user_likes":false},"709844315698915":{"id":"709844315698915","from":{"id":"100000064686295","name":"Huy Roli"},"message":"cảm ơn tất cả các comment của các anh và các bạn :D đúng là còn quá nhiều thứ mà chưa hoc, đọc xong cái này tuyệt thật","can_remove":false,"created_time":"2013-08-27T01:52:01+0000","like_count":0,"user_likes":false}},"paging":{"cursors":{"after":"NzA4OTIyMDg5MTI0NDcx","before":"NzA4OTIyMDg5MTI0NDcx"},"next":"https://graph.facebook.com/229244010425617_708892049127475/comments?limit=1&summary=1&after=NzA4OTIyMDg5MTI0NDcx"},"summary":{"order":"chronological","total_count":44}}}