{"id":"229244010425617_709295559087124","type":"status","from":{"id":"1843294954","name":"Nguyen Thanh Van"},"message":"Các bác cho em hỏi cái loại điện thoại Iphone mà phiên bản quốc tế thì tiếng Nhật viết thế nào ạ?\nEm hiện đang muốn tìm Iphone 4 cũ phiên bản quốc tế. Bác nào có biết cái nào rẻ rẻ thì cho em xin link em nhờ bạn mua với ạ. Em cảm ơn nhiều!","created_time":"2013-08-26T03:49:20+0000","updated_time":"2013-08-26T10:11:40+0000","comments":{"data":{"709297185753628":{"id":"709297185753628","from":{"id":"100003866609108","name":"Thế Béo"},"message":"Kokusai la quoc te","can_remove":false,"created_time":"2013-08-26T03:52:31+0000","like_count":0,"user_likes":false},"709297309086949":{"id":"709297309086949","from":{"id":"100003866609108","name":"Thế Béo"},"message":"Denwa","can_remove":false,"created_time":"2013-08-26T03:53:20+0000","like_count":0,"user_likes":false},"709297489086931":{"id":"709297489086931","from":{"id":"100003866609108","name":"Thế Béo"},"message":"Thi kokusainoketaidenwa","can_remove":false,"created_time":"2013-08-26T03:53:59+0000","like_count":0,"user_likes":false},"709297769086903":{"id":"709297769086903","from":{"id":"1843294954","name":"Nguyen Thanh Van"},"message":"Ko phai dau e oi","can_remove":false,"created_time":"2013-08-26T03:55:06+0000","like_count":0,"user_likes":false},"709299295753417":{"id":"709299295753417","from":{"id":"100000027754899","name":"Hoang Van Ba"},"message":"Chưa hiểu điện thoại phiên bản Quốc tế là j nữa !\nNếu hiểu đc nó là ntn thì mình nói tiếng Nhật cho","can_remove":false,"created_time":"2013-08-26T04:02:08+0000","like_count":0,"user_likes":false},"709332012416812":{"id":"709332012416812","from":{"id":"100000603915176","name":"悪いな ぁ"},"message":"Các bác nên hiểu người ta gọi thế nào chứ đừng nghĩ mình gọi thế nào thì họ gọi thế! Ở Nhật người ta gọi là SIMフリー iPhone nhé! Các máy kg khoá mạng nói chung gọi là SIMフリー vậy thôi!","can_remove":false,"created_time":"2013-08-26T04:29:50+0000","like_count":1,"user_likes":false},"709336872416326":{"id":"709336872416326","from":{"id":"100001754136107","name":"Nguyễn Tuấn Vũ"},"message":"Nhưng bên nhật ko có phiên bản quốc tế đâu.thường là nó nhập từ ngoai vào.","can_remove":false,"created_time":"2013-08-26T04:43:53+0000","like_count":0,"user_likes":false},"709337375749609":{"id":"709337375749609","from":{"id":"100000603915176","name":"悪いな ぁ"},"message":"Bên Nhật bắt đầu có từ vài năm nay, nhưng nguyên bản luôn luôn là khoá mạng. Khi khách có nhu cầu thì cứ trả tiền, họ sẽ bỏ khoá cho.","can_remove":false,"created_time":"2013-08-26T04:44:59+0000","like_count":0,"user_likes":false},"709337842416229":{"id":"709337842416229","from":{"id":"1843294954","name":"Nguyen Thanh Van"},"message":"Tks cac bac.","can_remove":false,"created_time":"2013-08-26T04:46:04+0000","like_count":0,"user_likes":false},"709352799081400":{"id":"709352799081400","from":{"id":"100001754136107","name":"Nguyễn Tuấn Vũ"},"message":"Đâu.mình ra hỏi nó kêu ko có mà.chỉ có docomo ( ko co iphone )thì mới mở khoá thôi","can_remove":false,"created_time":"2013-08-26T05:41:31+0000","like_count":1,"user_likes":false},"709353082414705":{"id":"709353082414705","from":{"id":"100000603915176","name":"悪いな ぁ"},"message":"Quên mất, tuỳ loại. Bạn có thể xem danh sách loại nào cho phép unlock trên site của hãng :)","can_remove":false,"created_time":"2013-08-26T05:43:05+0000","like_count":0,"user_likes":false},"709353535747993":{"id":"709353535747993","from":{"id":"100001754136107","name":"Nguyễn Tuấn Vũ"},"message":"Thèm có 1 con iphone quốc tế.hồi t đk,t hỏi nhà mạng,nó bảo k có.ra  apple store o fukuoka cung k :(","can_remove":false,"created_time":"2013-08-26T05:44:16+0000","like_count":0,"user_likes":false},"709354212414592":{"id":"709354212414592","from":{"id":"100000603915176","name":"悪いな ぁ"},"message":"Nếu bạn muốn mua luôn bản QT thì mình khuyên bạn nên mua tại các nước khác, lại đc rẻ hơn nếu là iPhone! Hoặc có thể nhờ ai đó ở VN mua hộ rồi chuyển qua Nhật cho mà dùng!","can_remove":false,"created_time":"2013-08-26T05:46:02+0000","like_count":1,"user_likes":false},"709354539081226":{"id":"709354539081226","from":{"id":"100001754136107","name":"Nguyễn Tuấn Vũ"},"message":"Uhn.tại vì tiên máy ma tính ra thì nó cung gần ngang bang hoăc hơn bản quốc tế @@","can_remove":false,"created_time":"2013-08-26T05:47:05+0000","like_count":0,"user_likes":false},"709355712414442":{"id":"709355712414442","from":{"id":"1843294954","name":"Nguyen Thanh Van"},"message":"http://www.amazon.co.jp/iphone-4-sim%E3%83%95%E3%83%AA%E3%83%BC/s?ie=UTF8&page=1&rh=i%3Aaps%2Ck%3Aiphone%204%20SIM%E3%83%95%E3%83%AA%E3%83%BC","can_remove":false,"created_time":"2013-08-26T05:53:05+0000","like_count":0,"user_likes":false},"709355812414432":{"id":"709355812414432","from":{"id":"1843294954","name":"Nguyen Thanh Van"},"message":"tren amazone có bán này Nguyen Nguyễn Tuấn Vũ","message_tags":[{"id":"100001754136107","name":"Nguyễn Tuấn Vũ","type":"user","offset":31,"length":14}],"can_remove":false,"created_time":"2013-08-26T05:53:30+0000","like_count":0,"user_likes":false},"709356272414386":{"id":"709356272414386","from":{"id":"100001754136107","name":"Nguyễn Tuấn Vũ"},"message":"Vân: t tim roi.thấy dăt hơn thế là t ko mua","can_remove":false,"created_time":"2013-08-26T05:55:37+0000","like_count":0,"user_likes":false},"709360045747342":{"id":"709360045747342","from":{"id":"1843294954","name":"Nguyen Thanh Van"},"message":"http://auction.item.rakuten.co.jp/11951092/a/10000047/?news=c2c_shop_18","can_remove":false,"created_time":"2013-08-26T06:09:32+0000","like_count":0,"user_likes":false},"709360145747332":{"id":"709360145747332","from":{"id":"1843294954","name":"Nguyen Thanh Van"},"message":"Tìm thấy link này. Không biết có ổn ko nhỉ?","can_remove":false,"created_time":"2013-08-26T06:09:56+0000","like_count":0,"user_likes":false},"709360525747294":{"id":"709360525747294","from":{"id":"1843294954","name":"Nguyen Thanh Van"},"message":"Cái này nữa http://auction.item.rakuten.co.jp/10913273/a/10002320/?news=c2c_shop_18","can_remove":false,"created_time":"2013-08-26T06:12:23+0000","like_count":0,"user_likes":false},"709360735747273":{"id":"709360735747273","from":{"id":"100000603915176","name":"悪いな ぁ"},"message":"Toàn là đấu giá, mà kg phải là hàng SIM free chuẩn!","can_remove":false,"created_time":"2013-08-26T06:13:14+0000","like_count":1,"user_likes":false},"709437469072933":{"id":"709437469072933","from":{"id":"100001717012614","name":"Trần Phước Hùng"},"message":"Bạn vào http://iosys.co.jp/cgi-bin/zaiko_list/list.php?BG=05&MAKER=Apple&LineNum=2 xem thử nhé","can_remove":false,"created_time":"2013-08-26T09:43:41+0000","like_count":0,"user_likes":false},"709445102405503":{"id":"709445102405503","from":{"id":"100006248618563","name":"Momi Zi"},"message":"máy của AU về vn có dùng được ko mọi người","can_remove":false,"created_time":"2013-08-26T10:11:40+0000","like_count":0,"user_likes":false}},"paging":{"cursors":{"after":"NzA5Mjk3MTg1NzUzNjI4","before":"NzA5Mjk3MTg1NzUzNjI4"},"next":"https://graph.facebook.com/229244010425617_709295559087124/comments?limit=1&summary=1&after=NzA5Mjk3MTg1NzUzNjI4"},"summary":{"order":"chronological","total_count":23}},"likes":{"data":[]}}