{"id":"229244010425617_709577155725631","type":"status","from":{"id":"100001754136107","name":"Nguyễn Tuấn Vũ"},"message":"Cho e hỏi bên này ai biêt về bùa mả bên nhật k ak.Chuyện là như thế này:\nMấy ng mới sang,lúc dọn nhà ko để ý thế là xé lá bùa vất đi,thế là giờ nó cứ trêu :(.phải chuyển sang phòng khác :(","created_time":"2013-08-26T14:46:05+0000","updated_time":"2013-08-27T05:22:39+0000","likes":{"data":{"100002975003974":{"id":"100002975003974","name":"Cực Kì Nguy Hiểm"},"100004102730856":{"id":"100004102730856","name":"Yunny Hoang"},"100001954728699":{"id":"100001954728699","name":"Shinpei Morigami"},"1797023909":{"id":"1797023909","name":"Nhoc Misaki Vu"},"100003656590865":{"id":"100003656590865","name":"Nile Haru"},"100003180366829":{"id":"100003180366829","name":"Ngọc Hà"}},"paging":{"cursors":{"after":"MTAwMDAyOTc1MDAzOTc0","before":"MTAwMDAyOTc1MDAzOTc0"},"next":"https://graph.facebook.com/229244010425617_709577155725631/likes?limit=1&summary=1&after=MTAwMDAyOTc1MDAzOTc0"},"summary":{"total_count":6}},"comments":{"data":{"709578279058852":{"id":"709578279058852","from":{"id":"100003179905990","name":"Trâm Yoko"},"message":"quá nguy hiểm. bùa Việt cò sợ nữa là bùa Nhật. haizzz. ở đâu chẳng có tâm linh mà con người chưa giải thích được","can_remove":false,"created_time":"2013-08-26T14:49:05+0000","like_count":1,"user_likes":false},"709578652392148":{"id":"709578652392148","from":{"id":"100001754136107","name":"Nguyễn Tuấn Vũ"},"message":"Ở khu kí túc bạn ấy sống ,trước xảy ra 1 vụ nổ gas,làm 1 ng trung quốc mất :(","can_remove":false,"created_time":"2013-08-26T14:50:02+0000","like_count":0,"user_likes":false},"709578852392128":{"id":"709578852392128","from":{"id":"100001754136107","name":"Nguyễn Tuấn Vũ"},"message":"4 phòng đều có nhưng từ hồi xé  đi.cứ vào phong bị xé là bị trêu.","can_remove":false,"created_time":"2013-08-26T14:50:37+0000","like_count":0,"user_likes":false},"709579589058721":{"id":"709579589058721","from":{"id":"100003179905990","name":"Trâm Yoko"},"message":"nhưng tưởng bạn đấy chuyển đi phòng khác rồi.","can_remove":false,"created_time":"2013-08-26T14:52:42+0000","like_count":0,"user_likes":false},"709580295725317":{"id":"709580295725317","from":{"id":"100001754136107","name":"Nguyễn Tuấn Vũ"},"message":"Chuyển đi cùng toà nhà.sống nhờ,nhưng ma chật chội :(","can_remove":false,"created_time":"2013-08-26T14:53:59+0000","like_count":0,"user_likes":false},"709584709058209":{"id":"709584709058209","from":{"id":"100001754136107","name":"Nguyễn Tuấn Vũ"},"message":"Trà Chanh: nó đung đưa giương,dúi đâu. ...","can_remove":false,"created_time":"2013-08-26T15:03:32+0000","like_count":0,"user_likes":false},"709586545724692":{"id":"709586545724692","from":{"id":"100001754136107","name":"Nguyễn Tuấn Vũ"},"message":"Cung tuy chỗ bạn ak","can_remove":false,"created_time":"2013-08-26T15:08:12+0000","like_count":0,"user_likes":false},"709589045724442":{"id":"709589045724442","from":{"id":"100004950392708","name":"Đừng Hỏi"},"message":"ma ở bên đấy còn kinh hơn VN ạ ?","can_remove":false,"created_time":"2013-08-26T15:14:44+0000","like_count":0,"user_likes":false},"709589425724404":{"id":"709589425724404","from":{"id":"100004950392708","name":"Đừng Hỏi"},"message":"trêu ntn nữa anh kể đi ?","can_remove":false,"created_time":"2013-08-26T15:15:25+0000","like_count":0,"user_likes":false},"709592052390808":{"id":"709592052390808","from":{"id":"100004608482123","name":"Bé Bi"},"message":"ghê thế :ss","can_remove":false,"created_time":"2013-08-26T15:22:58+0000","like_count":0,"user_likes":false},"709594059057274":{"id":"709594059057274","from":{"id":"100004007685622","name":"Mưa Lạnh Lùng"},"message":"Eo.nhật có ma à.ntkế đi làm về đêm sợ chết đj đc ý","can_remove":false,"created_time":"2013-08-26T15:27:12+0000","like_count":1,"user_likes":false},"709597099056970":{"id":"709597099056970","from":{"id":"100001416272263","name":"Mai PB"},"message":"Đi ra 神社 hay vào chùa, hỏi mấy ông ở đó xem. :-)","can_remove":false,"created_time":"2013-08-26T15:34:09+0000","like_count":1,"user_likes":false},"709598489056831":{"id":"709598489056831","from":{"id":"100001754136107","name":"Nguyễn Tuấn Vũ"},"message":"Ngay bên cạnh là 1 nhà xác,va 1 ngôi chua a ak @@","can_remove":false,"created_time":"2013-08-26T15:37:54+0000","like_count":0,"user_likes":false},"709600179056662":{"id":"709600179056662","from":{"id":"100000042138129","name":"Duong David"},"message":"Em xem ma Nhật chưa mà hỏi câu như vậy? Ma Nhật nó kinh khủng lắm đó em. Có cần anh gửi link phim ko? ;)","can_remove":false,"created_time":"2013-08-26T15:43:02+0000","like_count":0,"user_likes":false},"709600755723271":{"id":"709600755723271","from":{"id":"100004950392708","name":"Đừng Hỏi"},"message":"@@","can_remove":false,"created_time":"2013-08-26T15:44:40+0000","like_count":0,"user_likes":false},"709603785722968":{"id":"709603785722968","from":{"id":"100001754136107","name":"Nguyễn Tuấn Vũ"},"message":"E chưa :(((","can_remove":false,"created_time":"2013-08-26T15:52:42+0000","like_count":0,"user_likes":false},"709626365720710":{"id":"709626365720710","from":{"id":"100001458099624","name":"Kham Pha"},"message":"Thật hay đùa đấy, đừng làm anh sợ. Nhà anh chả có bùa, hỏng rồi.","can_remove":false,"created_time":"2013-08-26T16:46:28+0000","like_count":0,"user_likes":false},"709628295720517":{"id":"709628295720517","from":{"id":"100001754136107","name":"Nguyễn Tuấn Vũ"},"message":"Thật mà a :(.đây nó có ng chêt vì nổ gas rồi nên phòng nào nó cung dán.","can_remove":false,"created_time":"2013-08-26T16:51:43+0000","like_count":0,"user_likes":false},"709628999053780":{"id":"709628999053780","from":{"id":"100001458099624","name":"Kham Pha"},"message":"nhưng ma trêu kiểu gì, chú dính chưa?","can_remove":false,"created_time":"2013-08-26T16:54:08+0000","like_count":0,"user_likes":false},"709632762386737":{"id":"709632762386737","from":{"id":"100004826612667","name":"Đào Hạnh"},"message":"Hic ! Hồi mình học trường tiếng có 1 Anh bị ma theo từ ở sân bay Việt Nam sang tận Nhật ! Ra chùa làm phép mà k ăn thua phải về Vn 1 tháng để đi chùa cúng ! Nghe bảo lúc ma nhập khỏe dã man ! Nhấc mấy đồ nặng như đồ chơi vậy . Hic ! Mấy sư ở Nhật được ăn thịt uống rượu lấy vợ như người thường chắc làm phép k ăn thua đâu ! Bảo nhà gửi bùa sang ý ! Mình cũng bảo mẹ gửi bùa sang cho mà !","can_remove":false,"created_time":"2013-08-26T17:02:21+0000","like_count":1,"user_likes":false},"709634719053208":{"id":"709634719053208","from":{"id":"100001458099624","name":"Kham Pha"},"message":"sao biết ma theo từ VN sang? Ma cũng lên máy bay ah :D","can_remove":false,"created_time":"2013-08-26T17:07:39+0000","like_count":0,"user_likes":false},"709636172386396":{"id":"709636172386396","from":{"id":"100001458099624","name":"Kham Pha"},"message":"Ma Việt sang Nhật có phải mang hộ chiếu, visa mới đc nhập cảnh vào ma Nhật ko nhỉ ;))","can_remove":false,"created_time":"2013-08-26T17:10:11+0000","like_count":2,"user_likes":false},"709636309053049":{"id":"709636309053049","from":{"id":"100001754136107","name":"Nguyễn Tuấn Vũ"},"message":"E chỉ nghe kể lại thôi ( khu đấy truoc e cung o 1 thoi gian ): cái đứa xé tờ bùa ấy,đang nằm trong phòng thì khóc um lên,tưởng làm sao,mọi ng quây lai,ng túm tóc lôi dậy ko thể nào mà lôi nó dậy đc.ông ng to béo vs 1 đứa nữa vào túm cũng ko ăn thua.","can_remove":false,"created_time":"2013-08-26T17:10:30+0000","like_count":0,"user_likes":false},"709636419053038":{"id":"709636419053038","from":{"id":"100001458099624","name":"Kham Pha"},"message":"Ở trên 5 năm hoặc lấy ma Nhật có khi cũng đc mang quốc tịch ma Nhật ấy chứ :))","can_remove":false,"created_time":"2013-08-26T17:10:52+0000","like_count":0,"user_likes":false},"709636902386323":{"id":"709636902386323","from":{"id":"100001754136107","name":"Nguyễn Tuấn Vũ"},"message":"Gọi 1 đứa con gái( tên Giang) sang.đứa con gái nó xoa đầu,nói : thôi trêu gì mà trêu lắm thế,tha nó đi.dần dần thằng xé bùa mới tỉnh","can_remove":false,"created_time":"2013-08-26T17:12:09+0000","like_count":0,"user_likes":false},"709637795719567":{"id":"709637795719567","from":{"id":"100001754136107","name":"Nguyễn Tuấn Vũ"},"message":"Nhân chứng kể lại: e bị đau hết đầu vs người,e biết mọi ng gọi e mà e ko tài nào nói đc.e nhìn thấy bóng ng trên bờ tường","can_remove":false,"created_time":"2013-08-26T17:14:02+0000","like_count":0,"user_likes":false},"709638135719533":{"id":"709638135719533","from":{"id":"100001458099624","name":"Kham Pha"},"message":"bóng đè thôi, thần hồn nát thần tính","can_remove":false,"created_time":"2013-08-26T17:14:42+0000","like_count":0,"user_likes":false},"709638865719460":{"id":"709638865719460","from":{"id":"100001754136107","name":"Nguyễn Tuấn Vũ"},"message":"Ko a.:))) .2 đứa ngủ cái giường phòng xé lá bùa ấy.tự dưng giường rung rung:))).đeo tai nghe vào ngủ tiếp.nó rung mạnh quá.tinh dậy ôm đt chạy mất hút sang phòng khác :))).","can_remove":false,"created_time":"2013-08-26T17:16:45+0000","like_count":1,"user_likes":false},"709639549052725":{"id":"709639549052725","from":{"id":"100001754136107","name":"Nguyễn Tuấn Vũ"},"message":"3 phòng còn lại ko làm sao mà a","can_remove":false,"created_time":"2013-08-26T17:18:44+0000","like_count":0,"user_likes":false},"709640249052655":{"id":"709640249052655","from":{"id":"100001458099624","name":"Kham Pha"},"message":"anh lắm đêm thức liền viết luận văn ngủ ít quá đang ngồi cũng thấy ghế rung giường rung, chắc gì tại ma.","can_remove":false,"created_time":"2013-08-26T17:20:52+0000","like_count":0,"user_likes":false},"709641199052560":{"id":"709641199052560","from":{"id":"100001754136107","name":"Nguyễn Tuấn Vũ"},"message":":)) đây toàn bọn ăn ngủ khoẻ a ak :)))","can_remove":false,"created_time":"2013-08-26T17:23:35+0000","like_count":0,"user_likes":false},"709641512385862":{"id":"709641512385862","from":{"id":"100001754136107","name":"Nguyễn Tuấn Vũ"},"message":"Vào phòng ấy lạnh toát sống lưng :))).gio phong ấy ko ai ở,thằng kia nó sang phòng khác lại ổn :)))","can_remove":false,"created_time":"2013-08-26T17:24:33+0000","like_count":0,"user_likes":false},"709819345701412":{"id":"709819345701412","from":{"id":"100000042138129","name":"Duong David"},"message":"Sao ma Trung Quốc nó hiểu đc tiếng Việt à mà sao con bé Giang sang nói nó lại hiểu đc????@@@","can_remove":false,"created_time":"2013-08-27T00:45:14+0000","like_count":0,"user_likes":false},"709824705700876":{"id":"709824705700876","from":{"id":"100000042138129","name":"Duong David"},"message":"Trà Chanh xem tạm cái này đi em :3 http://www.youtube.com/watch?v=gIMdHrEGFt8","message_tags":[{"id":"100003217701950","name":"Trà Chanh","type":"user","offset":0,"length":9}],"can_remove":false,"created_time":"2013-08-27T01:01:35+0000","like_count":0,"user_likes":false},"709886052361408":{"id":"709886052361408","from":{"id":"100001754136107","name":"Nguyễn Tuấn Vũ"},"message":"Duong Duong David: mình k biết.cai đấy ko thấy giải thích gì :)))","message_tags":[{"id":"100000042138129","name":"Duong David","type":"user","offset":6,"length":11}],"can_remove":false,"created_time":"2013-08-27T03:43:03+0000","like_count":0,"user_likes":false},"709901209026559":{"id":"709901209026559","from":{"id":"1400326262","name":"Matsumoto Soutarou"},"message":":D Dán bùa trong phòng thì con ma ra ngoài quậy, như thế càng nguy hiểm cho nhiều người thêm.","can_remove":false,"created_time":"2013-08-27T04:39:33+0000","like_count":0,"user_likes":false},"709911815692165":{"id":"709911815692165","from":{"id":"100004697134434","name":"Thảo Xexekubo"},"message":"Có chuyện này thật á","can_remove":false,"created_time":"2013-08-27T05:22:39+0000","like_count":1,"user_likes":false}},"paging":{"cursors":{"after":"NzA5NTc4Mjc5MDU4ODUy","before":"NzA5NTc4Mjc5MDU4ODUy"},"next":"https://graph.facebook.com/229244010425617_709577155725631/comments?limit=1&summary=1&after=NzA5NTc4Mjc5MDU4ODUy"},"summary":{"order":"chronological","total_count":42}}}