{"id":"229244010425617_709547712395242","type":"status","from":{"id":"1702076006","name":"Nguyễn Hồng Anh"},"message":"Mọi người cho em hỏi 1 xíu đc k ạ, e đang có ý định đi du học ở Nhật nhưng chưa biết bắt đầu như thế nào, trung tâm nào uy tín, giá hợp lý là khoảng bao nhiêu ạ , với cả sang Nhật thì nên học và ở đâu thì tốt ạ . Em cảm ơn cả nhà ạ !","created_time":"2013-08-26T13:34:30+0000","updated_time":"2013-08-27T15:16:06+0000","likes":{"data":{"711491571":{"id":"711491571","name":"Graziani Inaizarg"},"100001731744647":{"id":"100001731744647","name":"Niềm Vui"},"100001954728699":{"id":"100001954728699","name":"Shinpei Morigami"},"100001754136107":{"id":"100001754136107","name":"Nguyễn Tuấn Vũ"},"100003616116150":{"id":"100003616116150","name":"Nguyễn Phúc Tuấn"}},"paging":{"cursors":{"after":"NzExNDkxNTcx","before":"NzExNDkxNTcx"},"next":"https://graph.facebook.com/229244010425617_709547712395242/likes?limit=1&summary=1&after=NzExNDkxNTcx"},"summary":{"total_count":5}},"comments":{"data":{"709560189060661":{"id":"709560189060661","from":{"id":"100003616116150","name":"Nguyễn Phúc Tuấn"},"message":"Mình cũng đang học tiếng để đi du học nhật.. số tiền đi tùy vào trường bạn đang ký học nhưng cũng tầm khoảng 200 tr đến 250 tr..","can_remove":false,"created_time":"2013-08-26T14:04:40+0000","like_count":0,"user_likes":false},"709564149060265":{"id":"709564149060265","from":{"id":"1702076006","name":"Nguyễn Hồng Anh"},"message":"Bạn có biết trung tâm du học nào uy tín k , tại tớ cũng chưa biết j , bạn học tiếng ở đâu vậy, có tốt k bạn","can_remove":false,"created_time":"2013-08-26T14:14:24+0000","like_count":0,"user_likes":false},"709566382393375":{"id":"709566382393375","from":{"id":"100003616116150","name":"Nguyễn Phúc Tuấn"},"message":"Mình đang học ở trung tâm simco sông đà. Mình cũng mới học thôi :))  chỗ này uy tín bạn khỏi lo","can_remove":false,"created_time":"2013-08-26T14:20:36+0000","like_count":0,"user_likes":false},"709609789055701":{"id":"709609789055701","from":{"id":"100004747622463","name":"Tuan Phuong"},"message":"Neu pan muon di thi minh gioi thieu cty dua di cho.sag ben nay co nguoi xin viec lm luon,gia ca hop ly.ban nen chon di vung osaka thi tot hon de kiem viec hon","can_remove":false,"created_time":"2013-08-26T16:08:11+0000","like_count":0,"user_likes":false},"709610459055634":{"id":"709610459055634","from":{"id":"100004747622463","name":"Tuan Phuong"},"message":"Ban dag o dau vay.","can_remove":false,"created_time":"2013-08-26T16:09:36+0000","like_count":0,"user_likes":false},"709622605721086":{"id":"709622605721086","from":{"id":"1702076006","name":"Nguyễn Hồng Anh"},"message":"e ở hà nội ạ","can_remove":false,"created_time":"2013-08-26T16:36:29+0000","like_count":0,"user_likes":false},"709718562378157":{"id":"709718562378157","from":{"id":"100005911238479","name":"Bom Kito"},"message":"Oh vn dau kug co the hoc dc. Nhug e phai tim dc 1 truong ben nay. Joi thieu cong vjec cho e.","can_remove":false,"created_time":"2013-08-26T20:15:26+0000","like_count":0,"user_likes":false},"709718752378138":{"id":"709718752378138","from":{"id":"100005911238479","name":"Bom Kito"},"message":"Cuoc song ben nay rat vat va. An sag day zui kug deu lan tri.","can_remove":false,"created_time":"2013-08-26T20:16:04+0000","like_count":0,"user_likes":false},"709719875711359":{"id":"709719875711359","from":{"id":"100005911238479","name":"Bom Kito"},"message":"Ko tien. Ko vc   Ap luc coc song. That su tat kho khan e ah. Muc sinh hoat toi thieu oh ben nay la 70000¥ leu hang thag e ko co dc thu nhap nay. Thi dung sag day. De zui phai khoc loc khj tro ve nha","can_remove":false,"created_time":"2013-08-26T20:19:29+0000","like_count":0,"user_likes":false},"710098312340182":{"id":"710098312340182","from":{"id":"100001731744647","name":"Niềm Vui"},"message":"ý cử ban Bom Kito là ko nên đi à..mình có đưa bạn cũng chuẩn bị sang nhật vào t10 này..","message_tags":[{"id":"100005911238479","name":"Bom Kito","type":"user","offset":9,"length":8}],"can_remove":false,"created_time":"2013-08-27T14:09:57+0000","like_count":1,"user_likes":false},"710099519006728":{"id":"710099519006728","from":{"id":"100003616116150","name":"Nguyễn Phúc Tuấn"},"message":"Niềm Vui chuẩn :))","can_remove":false,"created_time":"2013-08-27T14:13:24+0000","like_count":0,"user_likes":false},"710102499006430":{"id":"710102499006430","from":{"id":"100001731744647","name":"Niềm Vui"},"message":"Nguyễn Phúc Tuấn sao ý bạn nói nó lại mâu thuẫn vậy..","message_tags":[{"id":"100003616116150","name":"Nguyễn Phúc Tuấn","type":"user","offset":0,"length":16}],"can_remove":false,"created_time":"2013-08-27T14:21:31+0000","like_count":0,"user_likes":false},"710109435672403":{"id":"710109435672403","from":{"id":"100003616116150","name":"Nguyễn Phúc Tuấn"},"message":"Mâu thuẫn ?_?  . Mình thấy bạn nói đúng nên cho là chuẩn ý của mình là vậy đó","can_remove":false,"created_time":"2013-08-27T14:38:00+0000","like_count":0,"user_likes":false},"710110022339011":{"id":"710110022339011","from":{"id":"100001731744647","name":"Niềm Vui"},"message":"Thế cái CMT đầu tiên của  bạn là seo..\"chuẩn\" sao con chọn..=>ý mình mâu thuẫn là ở chỗ đó ạ :((((","can_remove":false,"created_time":"2013-08-27T14:39:38+0000","like_count":0,"user_likes":false},"710126292337384":{"id":"710126292337384","from":{"id":"100005911238479","name":"Bom Kito"},"message":"Len di. Nhug ban dinh dau. Ten truong do la ji","can_remove":false,"created_time":"2013-08-27T15:15:12+0000","like_count":0,"user_likes":false},"710126522337361":{"id":"710126522337361","from":{"id":"100005911238479","name":"Bom Kito"},"message":"Mjnh se tim hjeu jup ban neu co the","can_remove":false,"created_time":"2013-08-27T15:15:39+0000","like_count":0,"user_likes":false},"710126872337326":{"id":"710126872337326","from":{"id":"100001731744647","name":"Niềm Vui"},"message":"phụ thuộc vào trường mà mình chọn ấy ạ :D","can_remove":false,"created_time":"2013-08-27T15:16:06+0000","like_count":0,"user_likes":false}},"paging":{"cursors":{"after":"NzA5NTYwMTg5MDYwNjYx","before":"NzA5NTYwMTg5MDYwNjYx"},"next":"https://graph.facebook.com/229244010425617_709547712395242/comments?limit=1&summary=1&after=NzA5NTYwMTg5MDYwNjYx"},"summary":{"order":"chronological","total_count":17}}}