{"id":"229244010425617_709625202387493","type":"status","from":{"id":"100001458099624","name":"Kham Pha"},"message":"Chúc mừng Cửu Vĩ Thiên Hồ là thành viên thứ 4000 của group. Yêu cầu khao group một chầu :D","created_time":"2013-08-26T16:43:28+0000","updated_time":"2013-08-26T22:58:35+0000","likes":{"data":{"100003011417151":{"id":"100003011417151","name":"Hue Kim"},"100004996359569":{"id":"100004996359569","name":"Trần Tú Linh"},"1416265619":{"id":"1416265619","name":"Starwar Bbj"},"100003690163310":{"id":"100003690163310","name":"Hiroshi Yoshide"},"100005710212437":{"id":"100005710212437","name":"Đinh Tiến Hoàng"},"100001628612184":{"id":"100001628612184","name":"Mai Tròn"},"100001508739620":{"id":"100001508739620","name":"Lê Ngọc Hoàn"},"100001954728699":{"id":"100001954728699","name":"Shinpei Morigami"}},"paging":{"cursors":{"after":"MTAwMDAzMDExNDE3MTUx","before":"MTAwMDAzMDExNDE3MTUx"},"next":"https://graph.facebook.com/229244010425617_709625202387493/likes?limit=1&summary=1&after=MTAwMDAzMDExNDE3MTUx"},"summary":{"total_count":8}},"comments":{"data":{"709626939053986":{"id":"709626939053986","from":{"id":"100001458099624","name":"Kham Pha"},"message":"Shinpei Morigami さん、ベトナム語が分かるの？","message_tags":[{"id":"100001954728699","name":"Shinpei Morigami","type":"user","offset":0,"length":16}],"can_remove":false,"created_time":"2013-08-26T16:48:07+0000","like_count":1,"user_likes":false},"709627699053910":{"id":"709627699053910","from":{"id":"100001508739620","name":"Lê Ngọc Hoàn"},"message":"Nhớ mang máng là ko đc cmt = ảnh trong group cơ mà lần này phải khao 1 chầu nên dùng tạm vậy :D. Xin mời mọi ng nhào zô =))","can_remove":false,"created_time":"2013-08-26T16:50:02+0000","like_count":5,"user_likes":false},"709628132387200":{"id":"709628132387200","from":{"id":"100001458099624","name":"Kham Pha"},"message":"ko đỡ đc ảnh này","can_remove":false,"created_time":"2013-08-26T16:51:22+0000","like_count":0,"user_likes":false},"709629052387108":{"id":"709629052387108","from":{"id":"100001628612184","name":"Mai Tròn"},"message":":v. Cái kia ko ăn đc???","can_remove":false,"created_time":"2013-08-26T16:54:17+0000","like_count":0,"user_likes":false},"709629122387101":{"id":"709629122387101","from":{"id":"100001508739620","name":"Lê Ngọc Hoàn"},"message":"Ảnh này là 1 trong những cái e dùng hôm thuyết trình gthieu món nổi tiếng VN này ở Lab cho Gs vs mấy thằng Nhật a ah :))","can_remove":false,"created_time":"2013-08-26T16:54:30+0000","like_count":1,"user_likes":false},"709629329053747":{"id":"709629329053747","from":{"id":"100001628612184","name":"Mai Tròn"},"message":"Thế thì ngta chạy mất dép.","can_remove":false,"created_time":"2013-08-26T16:55:03+0000","like_count":0,"user_likes":false},"709629355720411":{"id":"709629355720411","from":{"id":"100001458099624","name":"Kham Pha"},"message":"có đứa nào ngất ko?","can_remove":false,"created_time":"2013-08-26T16:55:07+0000","like_count":0,"user_likes":false},"709629692387044":{"id":"709629692387044","from":{"id":"100001508739620","name":"Lê Ngọc Hoàn"},"message":"Không! Chỉ là lúc đầu họ tưởng món này có thật nên chỉ hơi shock tí thôi =))","can_remove":false,"created_time":"2013-08-26T16:55:55+0000","like_count":1,"user_likes":false},"709639565719390":{"id":"709639565719390","from":{"id":"100004107540749","name":"۞V̲̲̲ũ̲̲̲ ̲̲̲A̲̲̲n̲̲̲h̲̲̲ ̲̲̲T̲̲̲h̲̲̲ư̲̲̲۞"},"message":"Cho góp vui với","can_remove":false,"created_time":"2013-08-26T17:18:48+0000","like_count":0,"user_likes":false},"709641272385886":{"id":"709641272385886","from":{"id":"100001458099624","name":"Kham Pha"},"message":"vậy góp chung với Cửu Vĩ Thiên Hồ khao group đi :D","message_tags":[{"id":"100003690163310","name":"Cửu Vĩ Thiên Hồ","type":"user","offset":18,"length":15}],"can_remove":false,"created_time":"2013-08-26T17:23:53+0000","like_count":1,"user_likes":false},"709641935719153":{"id":"709641935719153","from":{"id":"100001754136107","name":"Nguyễn Tuấn Vũ"},"message":"A cho cái ảnh 1 mâm thịt cày 7 món chắc hấp dẫn hơn :)","can_remove":false,"created_time":"2013-08-26T17:25:42+0000","like_count":0,"user_likes":false},"709642969052383":{"id":"709642969052383","from":{"id":"100001458099624","name":"Kham Pha"},"message":"Thôi khỏi ăn uống đi, 2 hôm nay anh sang Ấn dự hội nghị, ăn ở khách sạn hẳn hoi mà toàn bị Tào tháo đuổi. Vài hôm nữa về chắc teo mấy cân :(","can_remove":false,"created_time":"2013-08-26T17:28:11+0000","like_count":0,"user_likes":false},"709644355718911":{"id":"709644355718911","from":{"id":"100001754136107","name":"Nguyễn Tuấn Vũ"},"message":":)))) thế đi có cầm mấy viên cloxit ko a","can_remove":false,"created_time":"2013-08-26T17:32:04+0000","like_count":0,"user_likes":false},"709645302385483":{"id":"709645302385483","from":{"id":"100004107540749","name":"۞V̲̲̲ũ̲̲̲ ̲̲̲A̲̲̲n̲̲̲h̲̲̲ ̲̲̲T̲̲̲h̲̲̲ư̲̲̲۞"},"message":"Chắc xài metronizazon rồi @@","can_remove":false,"created_time":"2013-08-26T17:33:44+0000","like_count":0,"user_likes":false},"709645552385458":{"id":"709645552385458","from":{"id":"100001458099624","name":"Kham Pha"},"message":"Anh chả mang cái gì cả, phải xin bọn khách sạn. Ngại ghê gớm :(","can_remove":false,"created_time":"2013-08-26T17:34:31+0000","like_count":2,"user_likes":false},"709648125718534":{"id":"709648125718534","from":{"id":"100001458099624","name":"Kham Pha"},"message":"Trong đoàn có mấy thằng Nhật, có thằng ko dám ăn tí gì vì bụng dạ biểu tình. Lúc đầu anh cười nó gà ăn mỗi tí đã sợ, sau mình cũng dính phốt. Buồn đời thê thảm :(","can_remove":false,"created_time":"2013-08-26T17:41:39+0000","like_count":2,"user_likes":false},"709786742371339":{"id":"709786742371339","from":{"id":"100003690163310","name":"Hiroshi Yoshide"},"message":"có tí vinh dự =))","can_remove":false,"created_time":"2013-08-26T22:58:35+0000","like_count":1,"user_likes":false}},"paging":{"cursors":{"after":"NzA5NjI2OTM5MDUzOTg2","before":"NzA5NjI2OTM5MDUzOTg2"},"next":"https://graph.facebook.com/229244010425617_709625202387493/comments?limit=1&summary=1&after=NzA5NjI2OTM5MDUzOTg2"},"summary":{"order":"chronological","total_count":17}}}