{"id":"229244010425617_710328522317161","type":"status","from":{"id":"100005337850702","name":"Xứ Tuyết"},"message":"m.n oi co ai di vung hiroshima ko ah minh di vung do ma chua biet thong tin ji ca mong m.n giup do ah!","created_time":"2013-08-27T23:24:00+0000","updated_time":"2013-08-28T15:30:10+0000","likes":{"data":{"100003171672878":{"id":"100003171672878","name":"Tầu Heo"}},"paging":{"cursors":{"after":"MTAwMDAzMTcxNjcyODc4","before":"MTAwMDAzMTcxNjcyODc4"}},"summary":{"total_count":1}},"comments":{"data":{"710373008979379":{"id":"710373008979379","from":{"id":"100003821364511","name":"Nguyễn Tuấn Anh"},"message":"Có kết quả rồj à a","can_remove":false,"created_time":"2013-08-28T01:46:09+0000","like_count":0,"user_likes":false},"710388022311211":{"id":"710388022311211","from":{"id":"100005337850702","name":"Xứ Tuyết"},"message":"chua co hoi thu xem ai di cung y ma","can_remove":false,"created_time":"2013-08-28T02:31:18+0000","like_count":0,"user_likes":false},"710471915636155":{"id":"710471915636155","from":{"id":"100006138905315","name":"Một Răng Cũng Bừa"},"message":"mjh dag o hjroshjma nek  co the gjup dk jg ko","can_remove":false,"created_time":"2013-08-28T06:57:49+0000","like_count":0,"user_likes":false},"710493038967376":{"id":"710493038967376","from":{"id":"100001754136107","name":"Nguyễn Tuấn Vũ"},"message":"Nguyen Huy Thach Nguyen Huy Son:","message_tags":[{"id":"100001043265886","name":"Nguyen Huy Thach","type":"user","offset":0,"length":16},{"id":"100001535653711","name":"Nguyen Huy Son","type":"user","offset":17,"length":14}],"can_remove":false,"created_time":"2013-08-28T08:41:26+0000","like_count":0,"user_likes":false},"710497805633566":{"id":"710497805633566","from":{"id":"100005337850702","name":"Xứ Tuyết"},"message":"nguyen quang camgiacsungsuong:mong giup do minh tim hieu ve truong dc ko?","can_remove":false,"created_time":"2013-08-28T09:03:01+0000","like_count":0,"user_likes":false},"710499168966763":{"id":"710499168966763","from":{"id":"100001535653711","name":"Nguyen Huy Son"},"message":"Bạn sang Hiroshima thì học ở trường nào?","can_remove":false,"created_time":"2013-08-28T09:07:25+0000","like_count":0,"user_likes":false},"710499432300070":{"id":"710499432300070","from":{"id":"100005337850702","name":"Xứ Tuyết"},"message":"truong cao dang thuong mai hiroshima ban ah","can_remove":false,"created_time":"2013-08-28T09:08:31+0000","like_count":0,"user_likes":false},"710499538966726":{"id":"710499538966726","from":{"id":"100001535653711","name":"Nguyen Huy Son"},"message":"Vậy à","can_remove":false,"created_time":"2013-08-28T09:08:52+0000","like_count":0,"user_likes":false},"710500152299998":{"id":"710500152299998","from":{"id":"100005337850702","name":"Xứ Tuyết"},"message":"uh","can_remove":false,"created_time":"2013-08-28T09:11:53+0000","like_count":0,"user_likes":false},"710500225633324":{"id":"710500225633324","from":{"id":"100005337850702","name":"Xứ Tuyết"},"message":"co ji giup do minh voi","can_remove":false,"created_time":"2013-08-28T09:12:12+0000","like_count":0,"user_likes":false},"710593082290705":{"id":"710593082290705","from":{"id":"100001043265886","name":"Nguyen Huy Thach"},"message":"Bạn muốn hỏi thông tin gì? Bạn có thể nêu rõ hơn đc không? Hay bạn thử vào group của người Việt ở Hiroshima hỏi coi xem có ai biết không.\nhttps://www.facebook.com/groups/495230373902884/","can_remove":false,"created_time":"2013-08-28T13:51:01+0000","like_count":0,"user_likes":false},"710641268952553":{"id":"710641268952553","from":{"id":"100001535653711","name":"Nguyen Huy Son"},"message":"Mình mới đến Hiro đc 7 tháng nên ko biết trường đó. Để m hỏi bạn bè đã nha.","can_remove":false,"created_time":"2013-08-28T15:30:10+0000","like_count":0,"user_likes":false}},"paging":{"cursors":{"after":"NzEwMzczMDA4OTc5Mzc5","before":"NzEwMzczMDA4OTc5Mzc5"},"next":"https://graph.facebook.com/229244010425617_710328522317161/comments?limit=1&summary=1&after=NzEwMzczMDA4OTc5Mzc5"},"summary":{"order":"chronological","total_count":12}}}