{"id":"229244010425617_710888948927785","type":"status","from":{"id":"100001754136107","name":"Nguyễn Tuấn Vũ"},"message":"[ Trải nghiệm cuộc sống bên Nhật ] Tìm việc làm (đi phỏng vấn)\n 皆さん、おはよう。\n Đầu tiên là khâu chuẩn bị:\n Chuẩn bị ở đây là chuẩn bị giấy tờ cầm theo （履歴書:りれきしょ）đã viết đầy đủ chưa,còn thiếu chỗ nào ko?.Chuẩn bị thứ 2 là quần áo,ăn mặc bình thường như đi học.Vì là công việc làm thêm ( làm quán,làm combini...) nên mình chỉ cần ăn mặc gọn gàng,sáng sủa là ok.Chứ ko cần vet vs cà vạt đi làm gì đâu :)).\n Chuẩn bị xong rồi,cưỡi xe đi phỏng vấn thôi.Khi đi phỏng vấn cần chú ý tới thời gian,bạn đến sớm còn hơn đến muộn,(ng nhật rất coi trọng giờ giấc nên nếu đến muộn thì coi như đã tạch 50% ) thường là đến sớm từ 10-15 phút,trước khi đi nhớ kiểm tra lại những thứ cần thiết như bản khai lý lịch có đem hay chưa.\n Vì ng nhật rất coi trọng lễ nghi( mình cảm thấy để ý từng ly từng tý một) nên khi mở cưa bước vào phòng nói 失礼します。\n Khi bắt đầu phỏng vấn: giới thiệu qua tên tuổi xong thêm câu よろしくお願いします。(rất mong đc sự giúp đỡ của anh chị) \n Lúc phỏng vấn thì ngồi thăng,2 tay đặt lên trên đui,ăn nói rõ ràng,rành mạch,to ( thể hiện sự nỗ lực,cố gắng nếu như đc nhận vào làm).mình có kinh nghiệm muốn chia sẻ vs mọi ng: khi đi phỏng vấn giúp chúng ta bớt run thì trước khi đi nên uống 1 cốc nước,và mình đi lấy tâm lý là đi để có kinh nghiệm phỏng vấn vì một lần chưa chắc đa đc.dù thế nao đi nữa nếu đc thì ok còn ko thì mình đã cố gắng hết mình rồi.ko đc việc nay ta tìm việc khác.Lúc trả lời phỏng vấn thì mặt ngẩng lên,có gì ko hiểu thì hỏi ngay ( hỏi thì hỏi ít thôi nhé,nhiều quá nó cũng tạch ấy :)) ).\n Trước khi ra về thì ngoài những câu chào quen thuộc mình nên nói よろしくお願いします。và cúi đầu chào.Ra về trong tư thế ngẩng cao đầu vì đã hoàn thành xuất sắc :))).Và cùng chờ đợi kết quả là ok.\n Khi lựa chon công việc minh khuyên bạn nên sắp xếp,phân chia thời gian hợp lý,tránh tình trạng chồng chéo khi ng ta hỏi bạn có thể làm từ mấy giờ đến mấy giờ.\nVí du: công việc A : từ 5-9\n          công việc B : từ 11-18\n          công việc C : tư 20-1 chẳng hạn .các bạn nên thêm cả thời gian đi lại cho thoải         mái.\n \nChúc các bạn tìm đc công việc như ý.hẹn gặp lai lần sau.","created_time":"2013-08-29T01:59:33+0000","updated_time":"2013-11-19T13:00:54+0000","likes":{"data":{"100001526631937":{"id":"100001526631937","name":"Tường Oanh Mineko"},"100001997876607":{"id":"100001997876607","name":"Phằn Xong Lứa"},"100003099238943":{"id":"100003099238943","name":"Luyen Nguyen"},"100002388453066":{"id":"100002388453066","name":"Chich Choe"},"100000017007673":{"id":"100000017007673","name":"Hồ Vương Phi"},"100002966658166":{"id":"100002966658166","name":"Giọt Nắng"},"100004975178796":{"id":"100004975178796","name":"Hương Yuki"},"100004096243144":{"id":"100004096243144","name":"Shorai Nguyễn"},"100004889430124":{"id":"100004889430124","name":"Quiet Man"},"100002855090345":{"id":"100002855090345","name":"Xuan Huy"},"100000215142696":{"id":"100000215142696","name":"Tăng Anh Thư"},"100000314753906":{"id":"100000314753906","name":"Lén Má Yêu Anh"},"100001458099624":{"id":"100001458099624","name":"Kham Pha"},"100001416272263":{"id":"100001416272263","name":"Mai PB"},"100000329191240":{"id":"100000329191240","name":"Mai Tran"},"100000075741073":{"id":"100000075741073","name":"Khanh Tung"},"100004346623532":{"id":"100004346623532","name":"Chiisai Namida"},"100002871405403":{"id":"100002871405403","name":"Thach Sanh"},"100005478454231":{"id":"100005478454231","name":"Maruko Chan"},"711491571":{"id":"711491571","name":"Graziani Inaizarg"},"100002508122689":{"id":"100002508122689","name":"Vũ Mạnh Tuấn"},"100002327743510":{"id":"100002327743510","name":"Tuan Thanh"},"100000195299558":{"id":"100000195299558","name":"Giọt Sương Sớm Mai"},"100005801442456":{"id":"100005801442456","name":"An Nguyen"},"100004715524978":{"id":"100004715524978","name":"Minh Chiến"},"100006581073344":{"id":"100006581073344","name":"Tsuki No Koi"},"100000257036404":{"id":"100000257036404","name":"Nguyễn Quốc Việt"},"1850147953":{"id":"1850147953","name":"Rùa Con"},"100003307609044":{"id":"100003307609044","name":"Ha Jp"},"100000232957215":{"id":"100000232957215","name":"Minh Quyen Pham"},"100003580740276":{"id":"100003580740276","name":"Bui Tuyen"},"100001731744647":{"id":"100001731744647","name":"Niềm Vui"},"100001415407078":{"id":"100001415407078","name":"Kha Pham"},"100001789054977":{"id":"100001789054977","name":"Ginga Idō Shi"}},"paging":{"cursors":{"after":"MTAwMDAxNTI2NjMxOTM3","before":"MTAwMDAxNTI2NjMxOTM3"},"next":"https://graph.facebook.com/229244010425617_710888948927785/likes?limit=1&summary=1&after=MTAwMDAxNTI2NjMxOTM3"},"summary":{"total_count":36}},"comments":{"data":{"710951945588152":{"id":"710951945588152","from":{"id":"1845000884","name":"Trieu Thi Kieu Oanh"},"message":":v ^^","can_remove":false,"created_time":"2013-08-29T04:38:35+0000","like_count":0,"user_likes":false},"710952008921479":{"id":"710952008921479","from":{"id":"1845000884","name":"Trieu Thi Kieu Oanh"},"message":"like qua","can_remove":false,"created_time":"2013-08-29T04:38:38+0000","like_count":1,"user_likes":false},"742038575812822":{"id":"742038575812822","from":{"id":"100004715524978","name":"Minh Chiến"},"message":"Admin oi .cho minh hoi nếu minh mun tim ハローわーく o? Lipbori .ban pit cho nào co k vay piu minh voi","can_remove":false,"created_time":"2013-10-19T07:07:05+0000","like_count":0,"user_likes":false},"742270349122978":{"id":"742270349122978","from":{"id":"100001754136107","name":"Nguyễn Tuấn Vũ"},"message":"bạn vào trang này xem\nhttps://www.hellowork.go.jp/","can_remove":false,"created_time":"2013-10-19T14:53:32+0000","like_count":1,"user_likes":false},"743089992374347":{"id":"743089992374347","from":{"id":"100004715524978","name":"Minh Chiến"},"message":"Ủi kho wa di huhu .admin pit cv nào o? Lipbori k gioi thieu cho minh voi ありがと","can_remove":false,"created_time":"2013-10-20T10:22:30+0000","like_count":0,"user_likes":false},"760714973945182":{"id":"760714973945182","from":{"id":"100003157509892","name":"Binh Nguyen"},"message":"bạn Nguyễn Tuấn Vũ ơi cho mình đang làm CV xin việc bằng tiếng nhật, nhưng thấy ngôn ngữ dùng để giao tiếp và viết bằng văn bản thấy nó cũng khác nhiều, và mình cũng không sành lắm, lên mạng xem mẫu thì cũng ít loại quá, bạn có biết về cái này không xin chỉ giúp. cảm ơn ban nhiều.","message_tags":[{"id":"100001754136107","name":"Nguyễn Tuấn Vũ","type":"user","offset":4,"length":14}],"can_remove":false,"created_time":"2013-11-18T14:26:36+0000","like_count":0,"user_likes":false},"761241820559164":{"id":"761241820559164","from":{"id":"100001754136107","name":"Nguyễn Tuấn Vũ"},"message":"Binh Nguyen: mình vẫn ko hiểu lắm, bạn có thể nói cụ thể đc không?","message_tags":[{"id":"100003157509892","name":"Binh Nguyen","type":"user","offset":0,"length":11}],"can_remove":false,"created_time":"2013-11-19T13:00:54+0000","like_count":0,"user_likes":false}},"paging":{"cursors":{"after":"NzEwOTUxOTQ1NTg4MTUy","before":"NzEwOTUxOTQ1NTg4MTUy"},"next":"https://graph.facebook.com/229244010425617_710888948927785/comments?limit=1&summary=1&after=NzEwOTUxOTQ1NTg4MTUy"},"summary":{"order":"chronological","total_count":8}}}