{"id":"229244010425617_711395195543827","type":"status","from":{"id":"100001628612184","name":"Mai Tròn"},"message":"Help me! Please. Có anh(chị) nào biết chỉnh sửa CV tiếng nhật không ạ, sửa giúp em với. Em chưa có kinh nghiệm về viết bằng tiếng Nhật nên không biết viết như vậy đã được chưa. ありがとうございます","created_time":"2013-08-30T02:45:16+0000","updated_time":"2013-08-30T05:55:14+0000","likes":{"data":{"100000064686295":{"id":"100000064686295","name":"Huy Roli"}},"paging":{"cursors":{"after":"MTAwMDAwMDY0Njg2Mjk1","before":"MTAwMDAwMDY0Njg2Mjk1"}},"summary":{"total_count":1}},"comments":{"data":{"711426775540669":{"id":"711426775540669","from":{"id":"100000064686295","name":"Huy Roli"},"message":"thi tim cai mau nao day ma dung luon","can_remove":false,"created_time":"2013-08-30T04:19:29+0000","like_count":0,"user_likes":false},"711434508873229":{"id":"711434508873229","from":{"id":"100001628612184","name":"Mai Tròn"},"message":"Cái đó chỉ tham khảo được thôi chứ ko dùng được cho mình anh Huy Roli à","message_tags":[{"id":"100000064686295","name":"Huy Roli","type":"user","offset":61,"length":8}],"can_remove":false,"created_time":"2013-08-30T04:49:53+0000","like_count":0,"user_likes":false},"711448002205213":{"id":"711448002205213","from":{"id":"1254412774","name":"Ha Thi Linh Huong"},"message":"Em gửi qua địa chỉ email greenlightvietnam@gmail.com. Bên chị chuyên làm về mảng tuyển dụng, chị sẽ kiểm tra CV và nhận xét những phần thừa hoặc thiếu. Nếu chưa có mẫu chuẩn thì cũng email địa chỉ trên, chị sẽ gửi template tiếng Nhật cho em trước sau đó em điền theo mẫu.","can_remove":false,"created_time":"2013-08-30T05:55:14+0000","like_count":1,"user_likes":false}},"paging":{"cursors":{"after":"NzExNDI2Nzc1NTQwNjY5","before":"NzExNDI2Nzc1NTQwNjY5"},"next":"https://graph.facebook.com/229244010425617_711395195543827/comments?limit=1&summary=1&after=NzExNDI2Nzc1NTQwNjY5"},"summary":{"order":"chronological","total_count":3}}}