{"id":"229244010425617_711399045543442","type":"photo","object_id":"566487796741758","picture":"https://fbcdn-photos-f-a.akamaihd.net/hphotos-ak-prn2/t1.0-0/1231259_566487796741758_310161016_s.jpg","link":"https://www.facebook.com/photo.php?fbid=566487796741758&set=gm.711399045543442&type=1&relevant_count=1","from":{"id":"100001416272263","name":"Mai PB"},"message":"Otaku オタク :-)","created_time":"2013-08-30T02:58:34+0000","updated_time":"2013-09-01T03:59:22+0000","likes":{"data":{"100004102730856":{"id":"100004102730856","name":"Yunny Hoang"},"100003702043787":{"id":"100003702043787","name":"Hằng Hanu"},"100006468883392":{"id":"100006468883392","name":"Linh Đặng"},"100004041794244":{"id":"100004041794244","name":"Watanuki Kimihiro"},"100004016574848":{"id":"100004016574848","name":"Tùng Thật Thà"},"1415095672":{"id":"1415095672","name":"Thom Cao Thi"},"100004566972183":{"id":"100004566972183","name":"Tsuyoshi Ta"},"100000052335280":{"id":"100000052335280","name":"Thị Pắp"},"100004094346107":{"id":"100004094346107","name":"Thuy Nga Nguyen"},"100000167920988":{"id":"100000167920988","name":"Lê Cường"},"100001365545442":{"id":"100001365545442","name":"Nguyễn Nam"},"100003011417151":{"id":"100003011417151","name":"Hue Kim"},"100001723862714":{"id":"100001723862714","name":"Bo Bien Vang"},"100001458099624":{"id":"100001458099624","name":"Kham Pha"},"100005610785327":{"id":"100005610785327","name":"Sơn Phan"},"100003518695666":{"id":"100003518695666","name":"Anh Ấy"},"100001754136107":{"id":"100001754136107","name":"Nguyễn Tuấn Vũ"},"100001260645727":{"id":"100001260645727","name":"Ngo Duy Son"},"100000128764209":{"id":"100000128764209","name":"Chau Le"},"1416265619":{"id":"1416265619","name":"Starwar Bbj"}},"paging":{"cursors":{"after":"MTAwMDA0MTAyNzMwODU2","before":"MTAwMDA0MTAyNzMwODU2"},"next":"https://graph.facebook.com/229244010425617_711399045543442/likes?limit=1&summary=1&after=MTAwMDA0MTAyNzMwODU2"},"summary":{"total_count":21}},"comments":{"data":{"711494225533924":{"id":"711494225533924","from":{"id":"100004094346107","name":"Thuy Nga Nguyen"},"message":"すてき！","can_remove":false,"created_time":"2013-08-30T09:39:10+0000","like_count":0,"user_likes":false},"711513272198686":{"id":"711513272198686","from":{"id":"100001416272263","name":"Mai PB"},"message":"Cũng có người bảo là 怖い :-)","can_remove":false,"created_time":"2013-08-30T10:41:22+0000","like_count":0,"user_likes":false},"711556558861024":{"id":"711556558861024","from":{"id":"100003580740276","name":"Bui Tuyen"},"message":"たくさん　ぬいぐるみ、めずらしいですね。","can_remove":false,"created_time":"2013-08-30T12:50:56+0000","like_count":0,"user_likes":false},"712284048788275":{"id":"712284048788275","from":{"id":"100000687662713","name":"Vu Thi Man"},"message":"De avatar cu dep hon Admin ah.","can_remove":false,"created_time":"2013-09-01T01:47:51+0000","like_count":0,"user_likes":false},"712291082120905":{"id":"712291082120905","from":{"id":"100004923553810","name":"Xuan KY Nguyen"},"message":"dung rui,,hinh nay k men bag hinh truoc a Mai PB","message_tags":[{"id":"100001416272263","name":"Mai PB","type":"user","offset":42,"length":6}],"can_remove":false,"created_time":"2013-09-01T02:13:10+0000","like_count":0,"user_likes":false},"712326842117329":{"id":"712326842117329","from":{"id":"100001416272263","name":"Mai PB"},"message":"Ơ, comment lệch đề :-)","can_remove":false,"created_time":"2013-09-01T03:59:22+0000","like_count":0,"user_likes":false}},"paging":{"cursors":{"after":"NzExNDk0MjI1NTMzOTI0","before":"NzExNDk0MjI1NTMzOTI0"},"next":"https://graph.facebook.com/229244010425617_711399045543442/comments?limit=1&summary=1&after=NzExNDk0MjI1NTMzOTI0"},"summary":{"order":"chronological","total_count":6}}}