{"id":"229244010425617_711491835534163","type":"status","from":{"id":"100001416272263","name":"Mai PB"},"message":"Học cách nói tiếng Nhật trong đời sống nhé.\n\n＜ニュース＞\n「インスタントコーヒー」終了＝呼称変更し新製法で―ネスレ日本\n時事通信 8月28日(水)21時0分配信\n　ネスレ日本（神戸市）は28日、「インスタントコーヒー」という呼び方をやめると発表した。9月からは新たな製法を取り入れた「レギュラーソリュブルコーヒー」として売り出す。\nhttp://headlines.yahoo.co.jp/hl?a=20130828-00000142-jij-bus_all\n\n＜面白いコメント＞\nA: 「レギュラーソリュブルコーヒー」\n   浸透しないと思います！\nB: ヤフーのコメ欄といい、ネスレといい、\n   余計なシステムチェンジしやがる・・・\nC: 飲む前に舌をかむ。\nD: まぁ俺の中では変わらずインスタントコーヒーだろうな。\nE: 普及しなそうだなw\n   当分インスタントコーヒーと呼ばれるだろう。\nF: イメージを変えようってことだろうけど、\n   一般人にはインスタントコーヒーのままでしょう。\nG: 言いにくい上に意味もわからない。\nH: そのネーミング、浸透しない気がする\nI: れぎゅらーそりゅ・・・\n   舌噛みそう\nJ: そもそも「ソリュブル」の意味が日本人には全くと言っていいほど認知されていない。\nK: ビンに入ってりゃいっしょでしょう。\n   お湯かけりゃすぐ飲める、それインスタントですね？\nL: インスタントコーヒーはインスタントコーヒーだろう\nM: ソリュブルコーヒー\n   噛みそうで言いにくいし全く頭に入って来ない。\nN: どうせすぐ「インスタントコーヒー」に戻るでしょ\nO: 長い、言いにくい。流行らない。\nP: 差別化じゃなくて気の迷いとしか思えない。。。。\nQ: 一般の消費者はそんな言葉遊びにはつき合ってくれんだろうに\nR: それでもインスタントって云うね。\nS: 名前変わっても味は変わりません。\nT: 無駄なことを\nU: 粉コーヒーでいいじゃん","created_time":"2013-08-30T09:27:50+0000","updated_time":"2013-08-31T06:00:13+0000","likes":{"data":{"100002959594535":{"id":"100002959594535","name":"Nguyen Ngoc Anh"},"100001458099624":{"id":"100001458099624","name":"Kham Pha"},"100003702043787":{"id":"100003702043787","name":"Hằng Hanu"},"100000284487802":{"id":"100000284487802","name":"Buu Lam Gia"},"100001723862714":{"id":"100001723862714","name":"Bo Bien Vang"},"100003321786144":{"id":"100003321786144","name":"Baloon Bambootatoo"},"100002754998000":{"id":"100002754998000","name":"Nguyen Duc"}},"paging":{"cursors":{"after":"MTAwMDAyOTU5NTk0NTM1","before":"MTAwMDAyOTU5NTk0NTM1"},"next":"https://graph.facebook.com/229244010425617_711491835534163/likes?limit=1&summary=1&after=MTAwMDAyOTU5NTk0NTM1"},"summary":{"total_count":7}},"comments":{"data":{"711535265529820":{"id":"711535265529820","from":{"id":"100002754998000","name":"Nguyen Duc"},"message":"舌を噛む có nghĩa là phát âm đau cả miệng à a  giống vs 言いにくい。","can_remove":false,"created_time":"2013-08-30T11:53:08+0000","like_count":0,"user_likes":false},"711535432196470":{"id":"711535432196470","from":{"id":"100001416272263","name":"Mai PB"},"message":"\"cắn cả lưỡi\"","can_remove":false,"created_time":"2013-08-30T11:53:45+0000","like_count":0,"user_likes":false},"711537242196289":{"id":"711537242196289","from":{"id":"100002754998000","name":"Nguyen Duc"},"message":"Khó phát âm, đánh vần chắc người ta hay dùng cụm từ này","can_remove":false,"created_time":"2013-08-30T11:58:39+0000","like_count":1,"user_likes":false},"711543778862302":{"id":"711543778862302","from":{"id":"100001416272263","name":"Mai PB"},"message":"Ai muốn học ngôn ngữ nói thì chịu khó đọc và bắt chước nhé.","can_remove":false,"created_time":"2013-08-30T12:15:11+0000","like_count":0,"user_likes":false},"711588382191175":{"id":"711588382191175","from":{"id":"100006368081099","name":"Man Thu"},"message":"Mai PB ah, có một vấn đề mà mình vẫn chưa tìm ra cách tốt nhất: trong bài đọc có quá nhiều chữ Hán.Đành rằng là ban đầu phải chịu khó nhiều, phải gian nan khi quen rồi vốn từ có rồi sẽ ổn. Nhưng để đi dc nhanh hơn một tẹo: bạn có thể ghi cách đọc phía trên những chữ Hán Ko.chỉ ghi những chữ mới, những chữ đã có trong bài cũ thì Ko ghi lại nữa.???!!!!","can_remove":false,"created_time":"2013-08-30T14:21:29+0000","like_count":0,"user_likes":false},"711590735524273":{"id":"711590735524273","from":{"id":"100001416272263","name":"Mai PB"},"message":"Man Thu, từ điển online có ngay cách đọc mà? Nếu chưa biết cách đọc thì thế nào chẳng phải vào từ điển tra nghĩa?","message_tags":[{"id":"100006368081099","name":"Man Thu","type":"user","offset":0,"length":7}],"can_remove":false,"created_time":"2013-08-30T14:27:45+0000","like_count":0,"user_likes":false},"711817342168279":{"id":"711817342168279","from":{"id":"100000687662713","name":"Vu Thi Man"},"message":"Dung la van noi, minh chang hieu ty gi. Chan....","can_remove":false,"created_time":"2013-08-31T00:46:22+0000","like_count":0,"user_likes":false},"711902228826457":{"id":"711902228826457","from":{"id":"100001416272263","name":"Mai PB"},"message":"Vu Thi Man văn nói nhưng có khác gì văn viết lắm đâu?","message_tags":[{"id":"100000687662713","name":"Vu Thi Man","type":"user","offset":0,"length":10}],"can_remove":false,"created_time":"2013-08-31T06:00:13+0000","like_count":0,"user_likes":false}},"paging":{"cursors":{"after":"NzExNTM1MjY1NTI5ODIw","before":"NzExNTM1MjY1NTI5ODIw"},"next":"https://graph.facebook.com/229244010425617_711491835534163/comments?limit=1&summary=1&after=NzExNTM1MjY1NTI5ODIw"},"summary":{"order":"chronological","total_count":8}}}