{"id":"229244010425617_711892155494131","type":"status","from":{"id":"100001754136107","name":"Nguyễn Tuấn Vũ"},"message":"Bên nhật giờ đang bão,thay đổi không khí: Các bạn thấy những điểm gì ko tốt ở ng nhât? ( đây ko mang tính chất nói xấu mà la để mình học hỏi)","created_time":"2013-08-31T05:23:19+0000","updated_time":"2013-09-01T03:54:22+0000","likes":{"data":{"100004169731179":{"id":"100004169731179","name":"Hường Hoàng"},"100004030436081":{"id":"100004030436081","name":"Thi Chu"},"100000599734835":{"id":"100000599734835","name":"Panda Young"},"100001906669146":{"id":"100001906669146","name":"Người Của Công Lý"},"100003631860637":{"id":"100003631860637","name":"Meaningof Thelife"}},"paging":{"cursors":{"after":"MTAwMDA0MTY5NzMxMTc5","before":"MTAwMDA0MTY5NzMxMTc5"},"next":"https://graph.facebook.com/229244010425617_711892155494131/likes?limit=1&summary=1&after=MTAwMDA0MTY5NzMxMTc5"},"summary":{"total_count":5}},"comments":{"data":{"711892485494098":{"id":"711892485494098","from":{"id":"100000198219367","name":"Chang Jiang"},"message":"làm việc trâu bò quá mức (quá mức thôi nhé): vừa là điểm tốt (với xã hội) những cũng đồng thời là điểm xấu (với bản thân) :-s\n\nP/s: HN cũng chuẩn bị mưa to :v","can_remove":false,"created_time":"2013-08-31T05:25:08+0000","like_count":4,"user_likes":false},"711895515493795":{"id":"711895515493795","from":{"id":"100000064686295","name":"Huy Roli"},"message":"Quá mức trên ra trên dưới ra dưới, mình thích kiêu như phương tây hơn","can_remove":false,"created_time":"2013-08-31T05:40:24+0000","like_count":0,"user_likes":false},"711897355493611":{"id":"711897355493611","from":{"id":"100001754136107","name":"Nguyễn Tuấn Vũ"},"message":"Lợi thi co lợi nhưng răng vẫn còn :v ( còn ít )","can_remove":false,"created_time":"2013-08-31T05:46:36+0000","like_count":0,"user_likes":false},"711897502160263":{"id":"711897502160263","from":{"id":"100000221150592","name":"Nanami Moe"},"message":"khá lạnh lùng trong giao tiếp điện thoại nhưng có thể là người nhật thích nói chuyện và làm việc trực tiếp","can_remove":false,"created_time":"2013-08-31T05:47:16+0000","like_count":1,"user_likes":false},"711942738822406":{"id":"711942738822406","from":{"id":"100004473882508","name":"Anh Va Em"},"message":"người nhật nghiêm túc quá thì phải lạnh lùng","can_remove":false,"created_time":"2013-08-31T08:45:59+0000","like_count":0,"user_likes":false},"712014208815259":{"id":"712014208815259","from":{"id":"100001458099624","name":"Kham Pha"},"message":"anh vừa bay chiều nay về Nhật, đúng lúc qua vùng bão, nhìn ra ngoài mưa trắng xóa.","can_remove":false,"created_time":"2013-08-31T13:05:24+0000","like_count":0,"user_likes":false},"712021105481236":{"id":"712021105481236","from":{"id":"100006248618563","name":"Momi Zi"},"message":"đi làm ko ngày nghỉ.đúng lúc trơi đang trở chứng đau đầu với mệt mỏi ghê.uống thuốc hoài không hết.mình thấy tụi nhật nó rắn hơn vn mình...vd như đợt mình làm quá sữ xỉu ở công trình tụi nó mới công nhận là mình mệt thật rồi mới chịu cho nghỉ phép...","can_remove":false,"created_time":"2013-08-31T13:25:48+0000","like_count":1,"user_likes":false},"712021298814550":{"id":"712021298814550","from":{"id":"100006248618563","name":"Momi Zi"},"message":"đổi lại tụi nó sắp xếp công việc hợp lý và khoa học đấy","can_remove":false,"created_time":"2013-08-31T13:26:29+0000","like_count":2,"user_likes":false},"712055445477802":{"id":"712055445477802","from":{"id":"100004112258038","name":"Chung Tran"},"message":"dễ thân, khó gần --","can_remove":false,"created_time":"2013-08-31T15:00:10+0000","like_count":1,"user_likes":false},"712081908808489":{"id":"712081908808489","from":{"id":"1845000884","name":"Trieu Thi Kieu Oanh"},"message":"minh lai thay dễ gần mà khó thân","can_remove":false,"created_time":"2013-08-31T16:05:44+0000","like_count":2,"user_likes":false},"712101268806553":{"id":"712101268806553","from":{"id":"1845000884","name":"Trieu Thi Kieu Oanh"},"message":"minh thay ho rat thick thach do nguoi khac luon giu cho minh bi quyet lam nguoi khac bat ngo....haizzzz ghet cai kieu day lam i'","can_remove":false,"created_time":"2013-08-31T17:08:15+0000","like_count":0,"user_likes":false},"712318365451510":{"id":"712318365451510","from":{"id":"100004112258038","name":"Chung Tran"},"message":"Trieu Thi Kieu Oanh à hình như mình nói ngược :d","message_tags":[{"id":"1845000884","name":"Trieu Thi Kieu Oanh","type":"user","offset":0,"length":19}],"can_remove":false,"created_time":"2013-09-01T03:26:21+0000","like_count":0,"user_likes":false},"712325805450766":{"id":"712325805450766","from":{"id":"881070057","name":"Pham Viet Ha"},"message":"Hay nói dối cảm xúc của mình :)) Làm việc chuyên nghiệp nhưng cũng khá nặng về diễn xuất, ko có tính mềm dẻo hợp lý!","can_remove":false,"created_time":"2013-09-01T03:54:22+0000","like_count":4,"user_likes":false}},"paging":{"cursors":{"after":"NzExODkyNDg1NDk0MDk4","before":"NzExODkyNDg1NDk0MDk4"},"next":"https://graph.facebook.com/229244010425617_711892155494131/comments?limit=1&summary=1&after=NzExODkyNDg1NDk0MDk4"},"summary":{"order":"chronological","total_count":13}}}