{"id":"229244010425617_711926045490742","type":"photo","object_id":"379185828877439","picture":"https://fbcdn-photos-a-a.akamaihd.net/hphotos-ak-ash3/t1.0-0/165898_379185828877439_4238556_s.jpg","link":"https://www.facebook.com/photo.php?fbid=379185828877439&set=gm.711926045490742&type=1&relevant_count=1","from":{"id":"100003580740276","name":"Bui Tuyen"},"message":"祇園祭（ぎおんまつり）\nhttp://photohousekyoto.cocolog-nifty.com/blog/maturi08.html","created_time":"2013-08-31T07:33:49+0000","updated_time":"2013-09-01T09:12:51+0000","likes":{"data":{"100001723862714":{"id":"100001723862714","name":"Bo Bien Vang"},"100001731744647":{"id":"100001731744647","name":"Niềm Vui"},"100004102629198":{"id":"100004102629198","name":"Sakura Vu"},"100000383155614":{"id":"100000383155614","name":"Phạm Thúc Hưng"},"100001416272263":{"id":"100001416272263","name":"Mai PB"},"1416265619":{"id":"1416265619","name":"Starwar Bbj"},"100002676363987":{"id":"100002676363987","name":"Myluong Vn"},"100001685304400":{"id":"100001685304400","name":"Mùa Lá Rơi"},"100001458099624":{"id":"100001458099624","name":"Kham Pha"}},"paging":{"cursors":{"after":"MTAwMDAxNzIzODYyNzE0","before":"MTAwMDAxNzIzODYyNzE0"},"next":"https://graph.facebook.com/229244010425617_711926045490742/likes?limit=1&summary=1&after=MTAwMDAxNzIzODYyNzE0"},"summary":{"total_count":9}},"comments":{"data":{"712014455481901":{"id":"712014455481901","from":{"id":"100001458099624","name":"Kham Pha"},"message":"cái này trông giống vụ lần trước Phạm Thúc Hưng up, có đúng ko nhỉ?","message_tags":[{"id":"100000383155614","name":"Phạm Thúc Hưng","type":"user","offset":33,"length":14}],"can_remove":false,"created_time":"2013-08-31T13:06:15+0000","like_count":0,"user_likes":false},"712413718775308":{"id":"712413718775308","from":{"id":"100000383155614","name":"Phạm Thúc Hưng"},"message":"Chính xác là vụ đấy :v","can_remove":false,"created_time":"2013-09-01T09:12:51+0000","like_count":0,"user_likes":false}},"paging":{"cursors":{"after":"NzEyMDE0NDU1NDgxOTAx","before":"NzEyMDE0NDU1NDgxOTAx"},"next":"https://graph.facebook.com/229244010425617_711926045490742/comments?limit=1&summary=1&after=NzEyMDE0NDU1NDgxOTAx"},"summary":{"order":"chronological","total_count":2}}}