{"id":"229244010425617_712044005478946","type":"photo","object_id":"570009219724343","picture":"https://fbcdn-photos-e-a.akamaihd.net/hphotos-ak-prn2/t1.0-0/1240235_570009219724343_1693468681_s.jpg","link":"https://www.facebook.com/photo.php?fbid=570009219724343&set=pcb.712044005478946&type=1&relevant_count=3","from":{"id":"100001458099624","name":"Kham Pha"},"message":"Mùa tuyết đầu-2012. 処女雪（しょじょゆき）、 trong tiếng Anh gọi là \"virgin snow\".\nCái ảnh đầu tiên mình phải liều mạng chui vào trong rừng trường chụp ra đấy, nghe đâu có rắn. \nBức thứ 2 là đường vào trường.  \nBức thứ 3 chụp tại nhà.","created_time":"2013-08-31T14:33:12+0000","updated_time":"2013-09-06T15:23:13+0000","likes":{"data":{"100000273338245":{"id":"100000273338245","name":"Thanh Geni"},"100002508122689":{"id":"100002508122689","name":"Vũ Mạnh Tuấn"},"100003011417151":{"id":"100003011417151","name":"Hue Kim"},"100004123327271":{"id":"100004123327271","name":"Nguyễn Phương"},"100002630333938":{"id":"100002630333938","name":"Huong Le"},"100001311743715":{"id":"100001311743715","name":"Quỳnh Trang"},"100000603915176":{"id":"100000603915176","name":"悪いな ぁ"},"100004842993862":{"id":"100004842993862","name":"Trương Thị Thanh Tâm"},"100004501053544":{"id":"100004501053544","name":"Neko Do Vuong"},"881070057":{"id":"881070057","name":"Pham Viet Ha"},"100000309978634":{"id":"100000309978634","name":"Tan Vu"},"100001754136107":{"id":"100001754136107","name":"Nguyễn Tuấn Vũ"},"100003702043787":{"id":"100003702043787","name":"Hằng Hanu"},"100006468883392":{"id":"100006468883392","name":"Linh Đặng"},"100003614120479":{"id":"100003614120479","name":"Dam Thanh"},"100001433646632":{"id":"100001433646632","name":"Min Max"},"100001116169487":{"id":"100001116169487","name":"Minh le Dinh"},"100002782131785":{"id":"100002782131785","name":"Hasegawa Kiyotake"},"100003821503042":{"id":"100003821503042","name":"ThucQuyen Yuki"},"100006368081099":{"id":"100006368081099","name":"Man Thu"},"100001789054977":{"id":"100001789054977","name":"Ginga Idō Shi"},"100002279693302":{"id":"100002279693302","name":"Không Ai"},"100004996359569":{"id":"100004996359569","name":"Trần Tú Linh"},"1845000884":{"id":"1845000884","name":"Trieu Thi Kieu Oanh"},"100000262070143":{"id":"100000262070143","name":"Sachiko Kam"},"100003728367339":{"id":"100003728367339","name":"Mai Phuong Tham"},"100004458131717":{"id":"100004458131717","name":"Minh Huệ"},"100002329538994":{"id":"100002329538994","name":"Xuka Sakura"},"1416265619":{"id":"1416265619","name":"Starwar Bbj"},"100000050843975":{"id":"100000050843975","name":"Chè Kem"},"100004003969053":{"id":"100004003969053","name":"Hà Jennifer"},"100001617216740":{"id":"100001617216740","name":"Peter Nguyễn"},"100000235206649":{"id":"100000235206649","name":"Tiptop Nguyễn"},"100001495688011":{"id":"100001495688011","name":"Chung Kếu"},"100001508739620":{"id":"100001508739620","name":"Lê Ngọc Hoàn"},"100003806594580":{"id":"100003806594580","name":"Daothuy Linh"},"100001731744647":{"id":"100001731744647","name":"Niềm Vui"},"100004479253002":{"id":"100004479253002","name":"Nguyen Huong"},"100001723862714":{"id":"100001723862714","name":"Bo Bien Vang"},"100003180366829":{"id":"100003180366829","name":"Ngọc Hà"},"100004112258038":{"id":"100004112258038","name":"Chung Tran"},"100000189000953":{"id":"100000189000953","name":"Từ Ái"}},"paging":{"cursors":{"after":"MTAwMDAwMjczMzM4MjQ1","before":"MTAwMDAwMjczMzM4MjQ1"},"next":"https://graph.facebook.com/229244010425617_712044005478946/likes?limit=1&summary=1&after=MTAwMDAwMjczMzM4MjQ1"},"summary":{"total_count":44}},"comments":{"data":{"712050225478324":{"id":"712050225478324","from":{"id":"100001495688011","name":"Chung Kếu"},"message":"ôi đẹp thế nhỉ....:)","can_remove":false,"created_time":"2013-08-31T14:46:38+0000","like_count":0,"user_likes":false},"712053448811335":{"id":"712053448811335","from":{"id":"100006457419726","name":"Nam Văn Lê"},"message":"có lạnh lắm k e","can_remove":false,"created_time":"2013-08-31T14:54:46+0000","like_count":0,"user_likes":false},"712054472144566":{"id":"712054472144566","from":{"id":"100001458099624","name":"Kham Pha"},"message":"Mặc sơ mi là vừa mát :))","can_remove":false,"created_time":"2013-08-31T14:57:15+0000","like_count":0,"user_likes":false},"712063122143701":{"id":"712063122143701","from":{"id":"100000042138129","name":"Duong David"},"message":"Tiếng Anh dịch ra là Tuyết còn trinh :v","can_remove":false,"created_time":"2013-08-31T15:15:26+0000","like_count":1,"user_likes":false},"712069538809726":{"id":"712069538809726","from":{"id":"100003221880243","name":"Ngân Siêu Nhân"},"message":"dep the.uoc j...","can_remove":false,"created_time":"2013-08-31T15:30:26+0000","like_count":0,"user_likes":false},"712078605475486":{"id":"712078605475486","from":{"id":"100003728367339","name":"Mai Phuong Tham"},"message":"thich qua...e muon dc nhin thay tuyet.","can_remove":false,"created_time":"2013-08-31T15:56:01+0000","like_count":0,"user_likes":false},"712215825461764":{"id":"712215825461764","from":{"id":"100001116169487","name":"Minh le Dinh"},"message":"k lời nào có thể diễn tả, cho e xin bản quyền nha a Kham Phaam","message_tags":[{"id":"100001458099624","name":"Kham Pha","type":"user","offset":52,"length":8}],"can_remove":false,"created_time":"2013-08-31T22:30:59+0000","like_count":0,"user_likes":false},"712216148795065":{"id":"712216148795065","from":{"id":"100001458099624","name":"Kham Pha"},"message":"uhm, share thoải mái :)","can_remove":false,"created_time":"2013-08-31T22:32:37+0000","like_count":1,"user_likes":false},"712217675461579":{"id":"712217675461579","from":{"id":"100001458099624","name":"Kham Pha"},"message":"Tặng các bạn bài guitar ảo diệu của 2 tay guitar Nhật :)\nhttp://www.youtube.com/watch?v=TIqlHhcD2ME","can_remove":false,"created_time":"2013-08-31T22:39:42+0000","like_count":2,"user_likes":false},"712248842125129":{"id":"712248842125129","from":{"id":"100004473882508","name":"Anh Va Em"},"message":"nkật có tuyết vào tkág mấy vậy. Ở tokyo có tuyết k","can_remove":false,"created_time":"2013-09-01T00:12:20+0000","like_count":0,"user_likes":false},"712323028784377":{"id":"712323028784377","from":{"id":"100001458099624","name":"Kham Pha"},"message":"Tháng 12 trở đi, cũng tùy nơi. Tokyo bị núi chặn nên ít mưa, ít tuyết. Thường 1 năm có 2 đợt tuyết. Năm vừa rồi có đợt đầu là to nhất, đợt sau bé :)","can_remove":false,"created_time":"2013-09-01T03:43:55+0000","like_count":0,"user_likes":false},"712874978729182":{"id":"712874978729182","from":{"id":"100000027754899","name":"Hoang Van Ba"},"message":"Hờ hờ. しょじょ là trinh nữ mà ??","can_remove":false,"created_time":"2013-09-02T07:44:00+0000","like_count":0,"user_likes":false},"715082128508467":{"id":"715082128508467","from":{"id":"100000110601676","name":"장미"},"message":"các bạn cứ dịch thế thì người ta chả cần cụm từ ''dịch thuật''","can_remove":false,"created_time":"2013-09-06T15:23:13+0000","like_count":1,"user_likes":false}},"paging":{"cursors":{"after":"NzEyMDUwMjI1NDc4MzI0","before":"NzEyMDUwMjI1NDc4MzI0"},"next":"https://graph.facebook.com/229244010425617_712044005478946/comments?limit=1&summary=1&after=NzEyMDUwMjI1NDc4MzI0"},"summary":{"order":"chronological","total_count":13}}}