{"id":"229244010425617_712376802112333","type":"link","picture":"https://external.xx.fbcdn.net/safe_image.php?d=AQDOwANhvnIScy12&w=154&h=154&url=http%3A%2F%2Fjpf.org.vn%2Fiwtcore%2Fuploads%2F2013%2F09%2FFacebookCover-final-600x222.jpg&l","link":"http://jpf.org.vn/2013/09/01/tuan-le-phim-nhat-ban-2013-cung-nghi-cach-phong-chong-va-khac-phuc-thien-tai-qua-cac-bo-phim/","from":{"id":"100001458099624","name":"Kham Pha"},"created_time":"2013-09-01T06:42:22+0000","updated_time":"2013-09-02T09:01:45+0000","likes":{"data":{"100000328742646":{"id":"100000328742646","name":"Trần Giáp"},"100001723862714":{"id":"100001723862714","name":"Bo Bien Vang"},"100002949055983":{"id":"100002949055983","name":"Joke Nguyễn"},"100003232653278":{"id":"100003232653278","name":"Bé Hạt Tiêu"},"100006287771656":{"id":"100006287771656","name":"Yo Nguyễn"},"100004433463487":{"id":"100004433463487","name":"Lê Anh Kim"},"100001789054977":{"id":"100001789054977","name":"Ginga Idō Shi"},"100001416272263":{"id":"100001416272263","name":"Mai PB"}},"paging":{"cursors":{"after":"MTAwMDAwMzI4NzQyNjQ2","before":"MTAwMDAwMzI4NzQyNjQ2"},"next":"https://graph.facebook.com/229244010425617_712376802112333/likes?limit=1&summary=1&after=MTAwMDAwMzI4NzQyNjQ2"},"summary":{"total_count":8}},"comments":{"data":{"712378928778787":{"id":"712378928778787","from":{"id":"100001416272263","name":"Mai PB"},"message":"Người nhà mà đi xem cái này thì lại bảo Kham Pha ơi về mau đi","message_tags":[{"id":"100001458099624","name":"Kham Pha","type":"user","offset":40,"length":8}],"can_remove":false,"created_time":"2013-09-01T06:49:34+0000","like_count":0,"user_likes":false},"712384522111561":{"id":"712384522111561","from":{"id":"100001902317590","name":"Midori Chan"},"message":"làm sao để xin vé vậy bạn? Đến đó là xin được luôn à, có cần mang theo gì không","can_remove":false,"created_time":"2013-09-01T07:17:39+0000","like_count":0,"user_likes":false},"712396225443724":{"id":"712396225443724","from":{"id":"100003264330800","name":"Tiểu Mộc"},"message":"nếu như lần trước lấy thì ko cần gì :)","can_remove":false,"created_time":"2013-09-01T08:03:16+0000","like_count":1,"user_likes":false},"712941635389183":{"id":"712941635389183","from":{"id":"100001902317590","name":"Midori Chan"},"message":"cám ơn bạn nhé :x","can_remove":false,"created_time":"2013-09-02T09:01:45+0000","like_count":0,"user_likes":false}},"paging":{"cursors":{"after":"NzEyMzc4OTI4Nzc4Nzg3","before":"NzEyMzc4OTI4Nzc4Nzg3"},"next":"https://graph.facebook.com/229244010425617_712376802112333/comments?limit=1&summary=1&after=NzEyMzc4OTI4Nzc4Nzg3"},"summary":{"order":"chronological","total_count":4}}}