{"id":"229244010425617_712370532112960","type":"video","picture":"https://fbexternal-a.akamaihd.net/safe_image.php?d=AQAOpFsOudm8Qhre&w=130&h=130&url=http%3A%2F%2Fi1.ytimg.com%2Fvi%2FegiEACo2Rhk%2Fhqdefault.jpg%3Ffeature%3Dog","link":"http://www.youtube.com/watch?v=egiEACo2Rhk","source":"http://www.youtube.com/v/egiEACo2Rhk?autohide=1&version=3&autoplay=1","from":{"id":"100001416272263","name":"Mai PB"},"message":"Giới thiệu với mọi người bài hát cũ nhưng nổi tiếng này. Có thể là không hợp với các bạn trẻ quen với nhạc anime hoặc nhạc hiện đại, nhưng khá là dễ nghe, lời tiếng Nhật rất thuần. http://www.youtube.com/watch?v=egiEACo2Rhk","created_time":"2013-09-01T06:22:09+0000","updated_time":"2013-09-27T23:09:43+0000","likes":{"data":{"100002959594535":{"id":"100002959594535","name":"Nguyen Ngoc Anh"},"100000110601676":{"id":"100000110601676","name":"장미"},"100003011417151":{"id":"100003011417151","name":"Hue Kim"},"100006489490202":{"id":"100006489490202","name":"Javi Net"},"100003737244054":{"id":"100003737244054","name":"Tien Trieu Nguyen"},"100005215419182":{"id":"100005215419182","name":"Tuyen Tran"},"100001638306972":{"id":"100001638306972","name":"Lê Thường"},"100002879943075":{"id":"100002879943075","name":"Lan Phuong"},"100004123327271":{"id":"100004123327271","name":"Nguyễn Phương"},"100003702043787":{"id":"100003702043787","name":"Hằng Hanu"},"100006287771656":{"id":"100006287771656","name":"Yo Nguyễn"},"1844799725":{"id":"1844799725","name":"Đinh Quang Phú"},"100003893158172":{"id":"100003893158172","name":"Maru MO"},"100002837878520":{"id":"100002837878520","name":"Cu Shejin"},"100003137067215":{"id":"100003137067215","name":"Duong Thi Diem Hang"},"100001458099624":{"id":"100001458099624","name":"Kham Pha"}},"paging":{"cursors":{"after":"MTAwMDAyOTU5NTk0NTM1","before":"MTAwMDAyOTU5NTk0NTM1"},"next":"https://graph.facebook.com/229244010425617_712370532112960/likes?limit=1&summary=1&after=MTAwMDAyOTU5NTk0NTM1"},"summary":{"total_count":16}},"comments":{"data":{"712372242112789":{"id":"712372242112789","from":{"id":"100001416272263","name":"Mai PB"},"message":"Đây cũng là một bài hát hay được hát trong lễ tốt nghiệp. Không biết lễ tốt nghiệp ở VN có hát gì bao giờ không, chứ ở Nhật có nhiều bài hát về lễ tốt nghiệp như thế này. Ai đang học tiếng Nhật thì luyện bài này hát xem, các thầy cô có khi cảm động phát khóc đấy.","can_remove":false,"created_time":"2013-09-01T06:32:21+0000","like_count":3,"user_likes":false},"712375978779082":{"id":"712375978779082","from":{"id":"1552036787","name":"Lyklyk Tran"},"message":"em se học anh nhé !!!","can_remove":false,"created_time":"2013-09-01T06:37:34+0000","like_count":1,"user_likes":false},"712376902112323":{"id":"712376902112323","from":{"id":"100001416272263","name":"Mai PB"},"message":"Lyklyk Tran\n\n卒業写真\n\n  作詞・作曲／荒井由美\n\n悲しいことがあると　開く皮の表紙\n卒業写真のあの人はやさしい目をしてる\n\n町でみかけたとき　何も言えなかった\n卒業写真の面影がそのままだったから\n\n人ごみに流されて　変わってゆく私を\nあなたはときどき　遠くでしかっって\n\n話しかけるように　ゆれる柳の下を\n通った道さえ今はもう電車から見るだけ\n\nあの頃の生き方を　あなたは忘れないで\nあなたは私の　青春そのもの\n\n人ごみに流されて　変わってゆく私を\nあなたはときどき　遠くでしかっって\nあなたは私の　青春そのもの","message_tags":[{"id":"1552036787","name":"Lyklyk Tran","type":"user","offset":0,"length":11}],"can_remove":false,"created_time":"2013-09-01T06:42:59+0000","like_count":1,"user_likes":false},"712377062112307":{"id":"712377062112307","from":{"id":"1552036787","name":"Lyklyk Tran"},"message":"em vừa nghe xong anh oi, link anh đưa có lyric luon ah, hihi","can_remove":false,"created_time":"2013-09-01T06:43:58+0000","like_count":0,"user_likes":false},"712377892112224":{"id":"712377892112224","from":{"id":"100001416272263","name":"Mai PB"},"message":"Thế à, sao a không thấy nhỉ.","can_remove":false,"created_time":"2013-09-01T06:45:41+0000","like_count":0,"user_likes":false},"712378725445474":{"id":"712378725445474","from":{"id":"100001416272263","name":"Mai PB"},"message":"Hồi trước ai mà bảo mình \"あなたは私の　青春そのもの\" thì chắc chết luôn.","can_remove":false,"created_time":"2013-09-01T06:48:36+0000","like_count":0,"user_likes":false},"712379132112100":{"id":"712379132112100","from":{"id":"1552036787","name":"Lyklyk Tran"},"message":"あなたは私の　青春 tới đây thì em hiểu /そのもの đi theo sau la sao anh nhể ^^","can_remove":false,"created_time":"2013-09-01T06:50:57+0000","like_count":0,"user_likes":false},"712379978778682":{"id":"712379978778682","from":{"id":"100001416272263","name":"Mai PB"},"message":"そのもの nghĩa là \"chính là cái đó\", cả câu thì là \"Anh chính là tuổi thanh xuân của em\"","can_remove":false,"created_time":"2013-09-01T06:55:40+0000","like_count":1,"user_likes":false},"728976287119051":{"id":"728976287119051","from":{"id":"100000687662713","name":"Vu Thi Man"},"message":"Hihi, sao vội chết thế hả ad ơi? Còn phải xem là đối tượng nào nói mới chết chứ.","can_remove":false,"created_time":"2013-09-27T23:09:43+0000","like_count":1,"user_likes":false}},"paging":{"cursors":{"after":"NzEyMzcyMjQyMTEyNzg5","before":"NzEyMzcyMjQyMTEyNzg5"},"next":"https://graph.facebook.com/229244010425617_712370532112960/comments?limit=1&summary=1&after=NzEyMzcyMjQyMTEyNzg5"},"summary":{"order":"chronological","total_count":9}}}