{"id":"229244010425617_712992782050735","type":"link","picture":"https://fbcdn-profile-a.akamaihd.net/hprofile-ak-frc1/t1.0-1/c85.0.200.200/p200x200/10258987_278136292361996_8626100770696773726_n.png","link":"https://www.facebook.com/nihongonote","from":{"id":"100002909924960","name":"Duc Anh Nguyen"},"message":"Nihongo Note là một quyển sách tập hợp những bài viết bằng tiếng Anh đăng trên báo The Japan Times năm 1976, giải thích những cụm từ thường gặp hàng ngày trong tiếng Nhật. Vì mình thấy đây là một quyển sách rất hay nên mình sẽ cố gắng 1 tuần dịch khoảng 1-2 bài.","created_time":"2013-09-02T10:44:56+0000","updated_time":"2013-09-02T11:51:37+0000","likes":{"data":{"100000381394367":{"id":"100000381394367","name":"Thành Nguyễn"},"100004094346107":{"id":"100004094346107","name":"Thuy Nga Nguyen"},"100003702043787":{"id":"100003702043787","name":"Hằng Hanu"},"100001508739620":{"id":"100001508739620","name":"Lê Ngọc Hoàn"},"100003265320558":{"id":"100003265320558","name":"Nguyễn Huyền"},"100003082343329":{"id":"100003082343329","name":"Ta Ke"},"100000328742646":{"id":"100000328742646","name":"Trần Giáp"},"100001232849121":{"id":"100001232849121","name":"Thịnh Nguyễn"},"100002508122689":{"id":"100002508122689","name":"Vũ Mạnh Tuấn"},"100000942176772":{"id":"100000942176772","name":"Amaya Quỳnh"},"1264623539":{"id":"1264623539","name":"Tom Tran"},"738235689":{"id":"738235689","name":"Dang Thi Phuong"},"100003078368623":{"id":"100003078368623","name":"Ngọc Vân"},"100003492623881":{"id":"100003492623881","name":"Hoa Khanh"},"100001895297908":{"id":"100001895297908","name":"Do Khoi"},"100004028173069":{"id":"100004028173069","name":"Jin Ngốc"},"100000042138129":{"id":"100000042138129","name":"Duong David"},"100000257036404":{"id":"100000257036404","name":"Nguyễn Quốc Việt"},"100000167920988":{"id":"100000167920988","name":"Lê Cường"},"100000266887521":{"id":"100000266887521","name":"Hương Lê Thu"},"100000240706191":{"id":"100000240706191","name":"U' Bồng Bột"},"100003093364781":{"id":"100003093364781","name":"Hayashi Taiyou"},"100002594112476":{"id":"100002594112476","name":"Thiên Di"},"100006191946474":{"id":"100006191946474","name":"Kim Luyên"},"1764773046":{"id":"1764773046","name":"Thu Thao Bui"},"100000268489214":{"id":"100000268489214","name":"Kaka Huy"},"100001416272263":{"id":"100001416272263","name":"Mai PB"},"100004965272241":{"id":"100004965272241","name":"Cỏ Nhỏ"},"100001458099624":{"id":"100001458099624","name":"Kham Pha"}},"paging":{"cursors":{"after":"MTAwMDAwMzgxMzk0MzY3","before":"MTAwMDAwMzgxMzk0MzY3"},"next":"https://graph.facebook.com/229244010425617_712992782050735/likes?limit=1&summary=1&after=MTAwMDAwMzgxMzk0MzY3"},"summary":{"total_count":30}},"comments":{"data":{"712993005384046":{"id":"712993005384046","from":{"id":"100001458099624","name":"Kham Pha"},"message":"yêu bạn rồi đấy :)","can_remove":false,"created_time":"2013-09-02T10:45:54+0000","like_count":0,"user_likes":false},"712993205384026":{"id":"712993205384026","from":{"id":"100002909924960","name":"Duc Anh Nguyen"},"message":"mình pr hộ bạn mình thôi =)) :p","can_remove":false,"created_time":"2013-09-02T10:46:36+0000","like_count":0,"user_likes":false},"712993228717357":{"id":"712993228717357","from":{"id":"100001416272263","name":"Mai PB"},"message":"Đừng nhầm nhé, Kham Pha :-)","message_tags":[{"id":"100001458099624","name":"Kham Pha","type":"user","offset":15,"length":8}],"can_remove":false,"created_time":"2013-09-02T10:46:39+0000","like_count":0,"user_likes":false},"712993522050661":{"id":"712993522050661","from":{"id":"100001458099624","name":"Kham Pha"},"message":"ah thế thì thôi, ko yêu bạn nữa :v","can_remove":false,"created_time":"2013-09-02T10:47:53+0000","like_count":1,"user_likes":false},"713012482048765":{"id":"713012482048765","from":{"id":"100003221880243","name":"Ngân Siêu Nhân"},"message":"hai.doumo","can_remove":false,"created_time":"2013-09-02T11:51:37+0000","like_count":0,"user_likes":false}},"paging":{"cursors":{"after":"NzEyOTkzMDA1Mzg0MDQ2","before":"NzEyOTkzMDA1Mzg0MDQ2"},"next":"https://graph.facebook.com/229244010425617_712992782050735/comments?limit=1&summary=1&after=NzEyOTkzMDA1Mzg0MDQ2"},"summary":{"order":"chronological","total_count":5}}}