{"id":"229244010425617_713452265338120","type":"status","from":{"id":"100001416272263","name":"Mai PB"},"message":"＜ニュース＞\n韓国の「スマイル整形」に日本人は否定的＝「いつも笑っているのはドラえもんだけ」―中国メディア\n\nRecord China 9月3日(火)14時10分配信\n\n韓国では、第一印象が人に与える影響は大きいと考えられており、多くの人が「仕事や生活の中で常に芸能人のように笑顔を保ち続けたい」と思っている。そこで生まれたのがこの「スマイル整形」だ。\n\n韓国でこの手術を扱う美容整形外科医院は多い。表情を作る筋肉は、目の周りや口角に集中している。口角の手術は目の手術に比べて歴史は浅いが、口角が上がる自然な表情は、見た人に健康的な印象を与えることができると、20～30代の就職活動をしている女性を中心に人気だという。\n\n日本の美容整形外科医院にも「スマイル整形」は存在するが、知名度は高くない。日本メディアによると、以前、日本のお笑い芸人などが親近感を増そうとこの手術を受けたことがあるというが、一般の人々には普及していない。「スマイル整形」が韓国で話題となっていることは日本のネット上でも報道されているが、多くの日本人はこの手術に否定的な見方を示しており、あるネットユーザーは「いつも笑っているのはドラえもんだけ」とコメントしている。（翻訳・編集/北田）\n\n＜面白いコメント＞\nA: 中身をかえれば自然と笑顔になる\n　　韓国には無理かもしれないが\nB: 精神異常なんだから、仕方がありませんねえ。\nC: 益々、間抜け顔になるために何故金掛けるのか？\nD: ドラえもんに失礼だろ！人造人間！\nE: まともな人間なら前向きに笑っていようと心を開くものです。\n　　それを「整形でいつも笑っている顔に」という発想の貧しさに気付かない。\n　　だから他人の欠点ばかりあげつらって、\n　　自分の短所や長所を振り返ることのできない民族なんて言われるんです。\nF: 韓国の事にいちいち日本（人）を引き合いにだすなよ。\nG: そこまで行けば整形でなく改造だよ！\n　　韓国人は改造人間だらけ・・・\n　　まるでショッカーだ！\nH: 親が死のうが、子供が事故に遭おうが、友人が殺されようが\n　　つねに笑っていられる朝鮮人の神経を疑いますｗｗｗ","created_time":"2013-09-03T09:05:52+0000","updated_time":"2013-09-04T15:07:34+0000","likes":{"data":{"100003011417151":{"id":"100003011417151","name":"Hue Kim"},"1552036787":{"id":"1552036787","name":"Lyklyk Tran"},"1122379216":{"id":"1122379216","name":"Hà Ngô"}},"paging":{"cursors":{"after":"MTAwMDAzMDExNDE3MTUx","before":"MTAwMDAzMDExNDE3MTUx"},"next":"https://graph.facebook.com/229244010425617_713452265338120/likes?limit=1&summary=1&after=MTAwMDAzMDExNDE3MTUx"},"summary":{"total_count":3}},"comments":{"data":{"713452368671443":{"id":"713452368671443","from":{"id":"100001416272263","name":"Mai PB"},"message":"Luyện đọc, dịch, đặt câu hỏi, tùy ý nhé.","can_remove":false,"created_time":"2013-09-03T09:06:29+0000","like_count":0,"user_likes":false},"714071128609567":{"id":"714071128609567","from":{"id":"100004010270189","name":"Suna Phạm"},"message":"Yusuke  Matukawa","message_tags":[{"id":"100006597751741","name":"Yusuke  Matukawa","type":"user","offset":0,"length":16}],"can_remove":false,"created_time":"2013-09-04T14:58:48+0000","like_count":0,"user_likes":false},"714074015275945":{"id":"714074015275945","from":{"id":"100001416272263","name":"Mai PB"},"message":"Bài này hơi nhạy cảm, đừng share cho người Nhật, Suna Phạm :-)","message_tags":[{"id":"100004010270189","name":"Suna Phạm","type":"user","offset":49,"length":9}],"can_remove":false,"created_time":"2013-09-04T15:07:34+0000","like_count":0,"user_likes":false}},"paging":{"cursors":{"after":"NzEzNDUyMzY4NjcxNDQz","before":"NzEzNDUyMzY4NjcxNDQz"},"next":"https://graph.facebook.com/229244010425617_713452265338120/comments?limit=1&summary=1&after=NzEzNDUyMzY4NjcxNDQz"},"summary":{"order":"chronological","total_count":3}}}