{"id":"229244010425617_714026575280689","type":"status","from":{"id":"100001814569801","name":"Trần Thoa"},"message":"THÔNG BÁO TUYỂN DỤNG\nThực tập sinh đi Thực tập kỹ năng thời hạn tại Nhật Bản trong tháng 09/2013\n    Trên cơ sở của Hợp đồng cung ứng phái cử và tiếp nhận Thực tập sinh Việt Nam sang Nhật Bản được ký kết giữa Công ty cổ phần TMS Nhân lực (TMS HR.,JSC) với đối tác Nhật Bản. TMS HR.,JSC  đang cần tuyển một số Thực tập sinh đi Thực tập kỹ năng có thời hạn tại Nhật Bản với những tiêu chí cụ thể như sau:     \n1. Ngành nghề tuyển dụng.\n- Cơ khí(tiện, phay, bào, hàn, dập kim loại, mạ, đúc, chế tạo và vận hành máy, lắp ráp máy.\n- Điện, điện tử, tự động hóa, nhựa và công nghệ vật liệu.\n- Công nghệ thông tin (IT).\n- Xây dưng (mộc, sơn, nề, cốt pha).\n- Nấu ăn, chế biến thực phẩm, hải sản.\n- Nông nghiệp ( trồng trọt, chăn nuôi).\n- May mặc, đóng gói sản phẩm.\n- Và một số nghành nghề khác…\n2. Đối tượng, tiêu chuẩn :\nNam, nữ độ tuổi: Từ 19 đến 30 tuổi, có sức khỏe tốt.\nNam giới nặng 55kg, cao 1m65 trở lên.\nNữ giới nặng 45kg, cao 1m55 trở lên.  \n   Yêu cầu: \n          +  Tốt nghiệp từ cấp III trở lên.\n   + Chưa từng tham gia chương trình Thực tập sinh kỹ năng tại Nhật Bản, chưa từng xin Visa  vào Nhật Bản.\n        + Ưu tiên có kinh nghiệm ít nhất 01 năm đối với ngành nghề đăng ký tham gia thực tập sinh kỹ năng.\n3. Thời hạn Hợp đồng : \nHợp đồng 1 năm và 3 năm. Bao gồm thời gian Thực tập kỹ năng 1 (1 tháng) và thực tập kỹ năng 2 (thời gian còn lại).\n4. Lương/ trợ cấp Thực tập sinh kỹ năng tại:\n - Thời gian Thực tập kỹ năng 1 ( 01 – 02 tháng đầu tiên) : Thực tập sinh được hưởng trợ cấp Thực tập kỹ năng trung bình từ 65.000 đến 75.000 Yên/tháng (tương đương 16.000.000 – 18.000.000VND/tháng hoặc 750 – 850 USD/tháng).\n- Sau thời gian Thực tập kỹ năng 2 (sau 2 – 6 tháng): Thực tâp sinh kỹ năng được áp dụng mức lương theo mức lương tối thiểu của lao động tại Nhật Bản, khoảng 130.000 yên/tháng (tương đương với 28.000.000VND/tháng) chưa bao gồm tiền làm thêm giờ.\n5. Quyền lợi và nghĩa vụ của Thực tập sinh\n5.1. Quyền lợi:\n - Được tham gia khoá học giáo dục định hướng theo quy định của luật XKLĐ Việt Nam, do TMS HR.,JSC  trực tiếp tổ chức và đào tạo.\n - Ngoài mức trợ cấp và mức lương sẽ được nhận (như đã thông báo tại mục 4), người tham gia chương trình Thực tập kỹ năng tại Nhật Bản còn được hưởng những chế độ ưu đãi kèm theo như sau:\n + Được hỗ trợ nhà ở, tiền điện, nước, phương tiện đi lại trong thời gian Thực tập kỹ năng tại Nhật Bản.\n + Được hưởng chế độ nghỉ lễ, nghỉ phép, BHYT, BHXH theo quy định của  luật Lao động Nhật Bản.\n5.2. Nghĩa vụ: \n- Nộp các giấy tờ cá nhân theo quy định tại mục 6 và phải chịu trách nhiệm về tính chính xác và trung thực của những thông tin cá nhân trong hồ sơ đó.\n - Tuân theo các quy định về đào tạo và giáo dục định hướng của  TMS HR.,JSC\n- Nộp tiền đặt cọc: 500USD (tương đương 10.000.000 VNĐ) sau khi trúng sơ tuyển theo hợp đồng tuyển chọn Thực tập sinh.\n - Nộp kết quả sức khoẻ tổng thể theo quy định của Bộ Y Tế về việc Thực tập sinh đi Thực tập kỹ năng tại Nhật Bản do Bệnh viện Giao Thông Vận tải cấp và xác nhận trước khi nộp 500 USD tiền đặt cọc.\n6. Hồ sơ dự tuyển:\n - 01 Ảnh gia đình.\n - 12 ảnh 4x6 và 12 ảnh 3x4; 12 ảnh (3,5x4,5) và 4 ảnh (4,5x4,5) (Chụp trên nền trắng và mới chụp trong vòng 03 tháng trở lại). \n - 02 Sơ yếu lý lịch có xác nhận của địa phương và cam kết của gia đình về tính trung thực của bộ hồ sơ (bản gốc). \n - 02 bản phô tô công chứng dịch ra tiếng Anh Bằng tốt nghiệp PTTH và các văn bằng có liên quan.\n - 02 bản Hộ Khẩu (phô tô công chứng).\n      - 02 bản CMND (phô tô công chứng trên một mặt giấy).\n- Thực tập sinh sau khi đạt sơ tuyển phải nộp Hồ sơ sức khỏe đạt yêu cầu đi Thực tập kỹ năng tại Nhật Bản do Bệnh viện Giao thông vận tải cấp.\nMọi chi tiết xin liên hệ theo địa chỉ sau:\n\n      Mss: 0932.12.08.86 hoặc 0968.035.606\n      Mail : ceciliathoatran@gmail.com\n      CÔNG TY CỔ PHẦN TMS NHÂN LỰC\n      Địa chỉ : TTTM Interserco só 17 Phạm Hùng, Cầu Giấy, Hà Nội (đối diện bến xe mỹ đình).\n\n   \n\n                 CÔNG TY CP TMS NHÂN LỰC","created_time":"2013-09-04T12:59:42+0000","updated_time":"2013-09-07T02:07:35+0000","likes":{"data":{"711491571":{"id":"711491571","name":"Graziani Inaizarg"}},"paging":{"cursors":{"after":"NzExNDkxNTcx","before":"NzExNDkxNTcx"}},"summary":{"total_count":1}},"comments":{"data":{"715070778509602":{"id":"715070778509602","from":{"id":"100000195299558","name":"Giọt Sương Sớm Mai"},"message":"Dj theo truong trinh nay chi dj het het nhiu ko add?","can_remove":false,"created_time":"2013-09-06T14:59:10+0000","like_count":0,"user_likes":false},"715080928508587":{"id":"715080928508587","from":{"id":"100001814569801","name":"Trần Thoa"},"message":"tùy vào đơn hàng c ah","can_remove":false,"created_time":"2013-09-06T15:20:49+0000","like_count":0,"user_likes":false},"715081078508572":{"id":"715081078508572","from":{"id":"100001814569801","name":"Trần Thoa"},"message":"hiện c đang làm gì?","can_remove":false,"created_time":"2013-09-06T15:21:10+0000","like_count":0,"user_likes":false},"715083648508315":{"id":"715083648508315","from":{"id":"100000195299558","name":"Giọt Sương Sớm Mai"},"message":"M hoi ho 1ng. Nam di theo don hang co khi (hàn) thj het bao nhiu vay?","can_remove":false,"created_time":"2013-09-06T15:27:16+0000","like_count":0,"user_likes":false},"715084175174929":{"id":"715084175174929","from":{"id":"100001814569801","name":"Trần Thoa"},"message":"bên em k đc phép báo giá ngoài c ah","can_remove":false,"created_time":"2013-09-06T15:28:40+0000","like_count":0,"user_likes":false},"715084381841575":{"id":"715084381841575","from":{"id":"100000195299558","name":"Giọt Sương Sớm Mai"},"message":"Co fai thj tuyen j ko? Co fai hoc tieng ? Neu trung so tuyen thi bao lau thj dj?","can_remove":false,"created_time":"2013-09-06T15:29:15+0000","like_count":0,"user_likes":false},"715084421841571":{"id":"715084421841571","from":{"id":"100000195299558","name":"Giọt Sương Sớm Mai"},"message":"The m goi nc nha","can_remove":false,"created_time":"2013-09-06T15:29:23+0000","like_count":0,"user_likes":false},"715085305174816":{"id":"715085305174816","from":{"id":"100001814569801","name":"Trần Thoa"},"message":"bạn c thật sự có nhu cầu đi nhật, em mời anh ấy bớt chút thời gian lên vp cty em để tìm hiểu kỹ hơn về đơn hàng c nhé","can_remove":false,"created_time":"2013-09-06T15:30:20+0000","like_count":0,"user_likes":false},"715085878508092":{"id":"715085878508092","from":{"id":"100001814569801","name":"Trần Thoa"},"message":"hiện tại bạn c đang ở đâu ah?","can_remove":false,"created_time":"2013-09-06T15:31:42+0000","like_count":0,"user_likes":false},"715086205174726":{"id":"715086205174726","from":{"id":"100000195299558","name":"Giọt Sương Sớm Mai"},"message":"Dang o Hai Duong","can_remove":false,"created_time":"2013-09-06T15:32:33+0000","like_count":0,"user_likes":false},"715086765174670":{"id":"715086765174670","from":{"id":"100000195299558","name":"Giọt Sương Sớm Mai"},"message":"Lm co khj dc 1nam gjo muon sang nhat nhung chua bjt tn","can_remove":false,"created_time":"2013-09-06T15:33:58+0000","like_count":0,"user_likes":false},"715087815174565":{"id":"715087815174565","from":{"id":"100001814569801","name":"Trần Thoa"},"message":"vâng. vậy c cho em sdt của anh ấy nhé","can_remove":false,"created_time":"2013-09-06T15:36:07+0000","like_count":0,"user_likes":false},"715088045174542":{"id":"715088045174542","from":{"id":"100001814569801","name":"Trần Thoa"},"message":"mai em sẽ gọi điện nc với anh ấy","can_remove":false,"created_time":"2013-09-06T15:36:29+0000","like_count":0,"user_likes":false},"715088365174510":{"id":"715088365174510","from":{"id":"100000195299558","name":"Giọt Sương Sớm Mai"},"message":"Ok 0909503707","can_remove":false,"created_time":"2013-09-06T15:37:16+0000","like_count":0,"user_likes":false},"715088495174497":{"id":"715088495174497","from":{"id":"100001814569801","name":"Trần Thoa"},"message":"anh ấy tên gì c?","can_remove":false,"created_time":"2013-09-06T15:37:45+0000","like_count":0,"user_likes":false},"715088681841145":{"id":"715088681841145","from":{"id":"100000195299558","name":"Giọt Sương Sớm Mai"},"message":"Ten Tuấn ban nha","can_remove":false,"created_time":"2013-09-06T15:38:10+0000","like_count":0,"user_likes":false},"715088948507785":{"id":"715088948507785","from":{"id":"100001814569801","name":"Trần Thoa"},"message":"vâng. cũng ở Hải Dương ah?","can_remove":false,"created_time":"2013-09-06T15:39:02+0000","like_count":0,"user_likes":false},"715089285174418":{"id":"715089285174418","from":{"id":"100000195299558","name":"Giọt Sương Sớm Mai"},"message":"Dung oi","can_remove":false,"created_time":"2013-09-06T15:39:46+0000","like_count":0,"user_likes":false},"715089538507726":{"id":"715089538507726","from":{"id":"100001814569801","name":"Trần Thoa"},"message":"ok. mai em sẽ gọi cho a ấy","can_remove":false,"created_time":"2013-09-06T15:40:12+0000","like_count":0,"user_likes":false},"715090035174343":{"id":"715090035174343","from":{"id":"100000195299558","name":"Giọt Sương Sớm Mai"},"message":"Neu dc thi bjo bay?","can_remove":false,"created_time":"2013-09-06T15:41:08+0000","like_count":0,"user_likes":false},"715091248507555":{"id":"715091248507555","from":{"id":"100001814569801","name":"Trần Thoa"},"message":"còn tùy anh ấy thi. nhưng nếu anh ấy thật sự muốn đi chị nói lại với anh ấy lên vp em 1 chuyến để tìm hiểu cụ thể hơn","can_remove":false,"created_time":"2013-09-06T15:44:09+0000","like_count":0,"user_likes":false},"715091531840860":{"id":"715091531840860","from":{"id":"100001814569801","name":"Trần Thoa"},"message":"chứ nc ntn cũng k nói hết đc","can_remove":false,"created_time":"2013-09-06T15:44:42+0000","like_count":0,"user_likes":false},"715091865174160":{"id":"715091865174160","from":{"id":"100000195299558","name":"Giọt Sương Sớm Mai"},"message":"Ko noi cu the hon dc ak?","can_remove":false,"created_time":"2013-09-06T15:45:30+0000","like_count":0,"user_likes":false},"715092035174143":{"id":"715092035174143","from":{"id":"100000195299558","name":"Giọt Sương Sớm Mai"},"message":"Ma co fai hoc tieng ko ban?","can_remove":false,"created_time":"2013-09-06T15:45:54+0000","like_count":0,"user_likes":false},"715092455174101":{"id":"715092455174101","from":{"id":"100001814569801","name":"Trần Thoa"},"message":"có chứ c. k học sao","can_remove":false,"created_time":"2013-09-06T15:46:59+0000","like_count":0,"user_likes":false},"715093271840686":{"id":"715093271840686","from":{"id":"100000195299558","name":"Giọt Sương Sớm Mai"},"message":"The hoc co lau ko?","can_remove":false,"created_time":"2013-09-06T15:48:52+0000","like_count":0,"user_likes":false},"715095528507127":{"id":"715095528507127","from":{"id":"100001814569801","name":"Trần Thoa"},"message":"anh ấy có tay nghề rồi thì chỉ nhập nguồn 3 tháng c ah","can_remove":false,"created_time":"2013-09-06T15:55:00+0000","like_count":0,"user_likes":false},"715095951840418":{"id":"715095951840418","from":{"id":"100001814569801","name":"Trần Thoa"},"message":"trong 3 tháng đó em sẽ tiến cử anh ấy khi có đơn gàng phù hợp","can_remove":false,"created_time":"2013-09-06T15:55:44+0000","like_count":0,"user_likes":false},"715101938506486":{"id":"715101938506486","from":{"id":"100003226958394","name":"LongTri PY"},"message":"cai nay di ton het bao nhieu tien vay cac ban","can_remove":false,"created_time":"2013-09-06T16:12:21+0000","like_count":0,"user_likes":false},"715107651839248":{"id":"715107651839248","from":{"id":"100001814569801","name":"Trần Thoa"},"message":"tùy theo đơn hàng bạn nhé","can_remove":false,"created_time":"2013-09-06T16:29:46+0000","like_count":0,"user_likes":false},"715108241839189":{"id":"715108241839189","from":{"id":"100003226958394","name":"LongTri PY"},"message":"thuong thi khoang bao nhieu tien vay ban","can_remove":false,"created_time":"2013-09-06T16:30:43+0000","like_count":0,"user_likes":false},"715129875170359":{"id":"715129875170359","from":{"id":"100005262312396","name":"Thua Tranquang"},"message":"Pạn nếu mún đk mà mình ở miền nam thì có tuyển đc ko ạ","can_remove":false,"created_time":"2013-09-06T17:22:04+0000","like_count":0,"user_likes":false},"715242731825740":{"id":"715242731825740","from":{"id":"100001814569801","name":"Trần Thoa"},"message":"m tuyển khắp cả nươc bạn nhé","can_remove":false,"created_time":"2013-09-06T23:04:17+0000","like_count":0,"user_likes":false},"715243088492371":{"id":"715243088492371","from":{"id":"100001814569801","name":"Trần Thoa"},"message":"hiện tại anh LongTri PY đang ở đâu ah?  em mời anh lên vp cty em nói chuyện sẽ cụ thể hơn anh nhé","can_remove":false,"created_time":"2013-09-06T23:05:34+0000","like_count":0,"user_likes":false},"715243238492356":{"id":"715243238492356","from":{"id":"100001814569801","name":"Trần Thoa"},"message":"bạn muốn biết thêm thông tin gì bạn alo cho m nhé","can_remove":false,"created_time":"2013-09-06T23:06:22+0000","like_count":0,"user_likes":false},"715298738486806":{"id":"715298738486806","from":{"id":"100001458099624","name":"Kham Pha"},"message":"Trần Thoa https://www.facebook.com/groups/CongdongVietNhat/permalink/714381228578557/","message_tags":[{"id":"100001814569801","name":"Trần Thoa","type":"user","offset":0,"length":9}],"can_remove":false,"created_time":"2013-09-07T02:07:35+0000","like_count":0,"user_likes":false}},"paging":{"cursors":{"after":"NzE1MDcwNzc4NTA5NjAy","before":"NzE1MDcwNzc4NTA5NjAy"},"next":"https://graph.facebook.com/229244010425617_714026575280689/comments?limit=1&summary=1&after=NzE1MDcwNzc4NTA5NjAy"},"summary":{"order":"chronological","total_count":36}}}