{"id":"229244010425617_714087461941267","type":"status","from":{"id":"100001416272263","name":"Mai PB"},"message":"Thi thử cho JLPT N4 + N3: http://www.all.co.nz/support/lesson/c4/index.htm","created_time":"2013-09-04T15:45:47+0000","updated_time":"2013-09-07T18:58:13+0000","likes":{"data":{"100000221648144":{"id":"100000221648144","name":"Nguyen Hung"},"100005495773832":{"id":"100005495773832","name":"Hiền Vũ"},"100000042138129":{"id":"100000042138129","name":"Duong David"},"100003806594580":{"id":"100003806594580","name":"Daothuy Linh"},"100004172081230":{"id":"100004172081230","name":"Thu Nga"},"100002526707690":{"id":"100002526707690","name":"Phan Toan"},"1416265619":{"id":"1416265619","name":"Starwar Bbj"},"100000284487802":{"id":"100000284487802","name":"Buu Lam Gia"},"100001723862714":{"id":"100001723862714","name":"Bo Bien Vang"},"100003155380603":{"id":"100003155380603","name":"Khuong Pham"},"100003321786144":{"id":"100003321786144","name":"Baloon Bambootatoo"},"100000041691073":{"id":"100000041691073","name":"Phuong Nam Hoang"},"1683010782":{"id":"1683010782","name":"Luan Nguyen"},"100006558942298":{"id":"100006558942298","name":"雪子"},"1518127741":{"id":"1518127741","name":"Mẹ Ken"},"1552036787":{"id":"1552036787","name":"Lyklyk Tran"},"100001458099624":{"id":"100001458099624","name":"Kham Pha"},"1146680551":{"id":"1146680551","name":"優しい なぁ"},"1821970083":{"id":"1821970083","name":"Nguyễn Mạnh Cường"},"100000603915176":{"id":"100000603915176","name":"悪いな ぁ"},"100004556712097":{"id":"100004556712097","name":"Chishi Jung"},"100003011417151":{"id":"100003011417151","name":"Hue Kim"}},"paging":{"cursors":{"after":"MTAwMDAwMjIxNjQ4MTQ0","before":"MTAwMDAwMjIxNjQ4MTQ0"},"next":"https://graph.facebook.com/229244010425617_714087461941267/likes?limit=1&summary=1&after=MTAwMDAwMjIxNjQ4MTQ0"},"summary":{"total_count":22}},"comments":{"data":{"714087988607881":{"id":"714087988607881","from":{"id":"100003011417151","name":"Hue Kim"},"message":"có n2 ko anh","can_remove":false,"created_time":"2013-09-04T15:47:02+0000","like_count":0,"user_likes":false},"714088191941194":{"id":"714088191941194","from":{"id":"100000266887521","name":"Hương Lê Thu"},"message":"sao mình vào bị lỗi font nhỉ","can_remove":false,"created_time":"2013-09-04T15:47:32+0000","like_count":0,"user_likes":false},"714089171941096":{"id":"714089171941096","from":{"id":"100001416272263","name":"Mai PB"},"message":"Chỉ có cái này thôi. Sample chính thống. http://www.jlpt.jp/samples/forlearners.html","can_remove":false,"created_time":"2013-09-04T15:51:08+0000","like_count":1,"user_likes":false},"714090005274346":{"id":"714090005274346","from":{"id":"100003011417151","name":"Hue Kim"},"message":"arigatou nhé anh Mai PB","message_tags":[{"id":"100001416272263","name":"Mai PB","type":"user","offset":18,"length":6}],"can_remove":false,"created_time":"2013-09-04T15:53:26+0000","like_count":1,"user_likes":false},"714092905274056":{"id":"714092905274056","from":{"id":"100001416272263","name":"Mai PB"},"message":"Hương Lê Thu chọn encoding cho browser là Japanese (Shift-JIS)","message_tags":[{"id":"100000266887521","name":"Hương Lê Thu","type":"user","offset":0,"length":12}],"can_remove":false,"created_time":"2013-09-04T16:00:40+0000","like_count":1,"user_likes":false},"714221658594514":{"id":"714221658594514","from":{"id":"1518127741","name":"Mẹ Ken"},"message":"Cam on ban da up","can_remove":false,"created_time":"2013-09-04T21:47:36+0000","like_count":1,"user_likes":false},"714282641921749":{"id":"714282641921749","from":{"id":"100003506953061","name":"Ennino Trần"},"message":"e ko dùng dc là sao.hic","can_remove":false,"created_time":"2013-09-05T01:25:46+0000","like_count":0,"user_likes":false},"714292241920789":{"id":"714292241920789","from":{"id":"100000687662713","name":"Vu Thi Man"},"message":"K co N2 nao ha Admin oi?","can_remove":false,"created_time":"2013-09-05T01:57:51+0000","like_count":0,"user_likes":false},"714354068581273":{"id":"714354068581273","from":{"id":"100004041794244","name":"Watanuki Kimihiro"},"message":"ma cai nay thi thu duoc co 14 cau thoi ha anh","can_remove":false,"created_time":"2013-09-05T05:27:21+0000","like_count":0,"user_likes":false},"714431838573496":{"id":"714431838573496","from":{"id":"100001416272263","name":"Mai PB"},"message":"Watanuki Kimihiro ở cuối mỗi phần có số câu hỏi đấy, đâu phải 14 câu đâu.","message_tags":[{"id":"100004041794244","name":"Watanuki Kimihiro","type":"user","offset":0,"length":17}],"can_remove":false,"created_time":"2013-09-05T11:02:03+0000","like_count":0,"user_likes":false},"714431955240151":{"id":"714431955240151","from":{"id":"100001416272263","name":"Mai PB"},"message":"Vu Thi Man N2 ở cái link JLPT có đấy thôi?","message_tags":[{"id":"100000687662713","name":"Vu Thi Man","type":"user","offset":0,"length":10}],"can_remove":false,"created_time":"2013-09-05T11:02:34+0000","like_count":0,"user_likes":false},"714434285239918":{"id":"714434285239918","from":{"id":"100004041794244","name":"Watanuki Kimihiro"},"message":"Ua m thay co 14 cau khj an vao cai n5 thoi ,con cho nao nua ,ban huog dan minh lun di","can_remove":false,"created_time":"2013-09-05T11:11:58+0000","like_count":0,"user_likes":false},"714435055239841":{"id":"714435055239841","from":{"id":"100001416272263","name":"Mai PB"},"message":"À cái link JLPT phải không, thì nó chỉ có thế thôi. Ví dụ ấy mà, nhưng có đủ các phần thi kể cả thi nghe.","can_remove":false,"created_time":"2013-09-05T11:14:45+0000","like_count":0,"user_likes":false},"715881965095150":{"id":"715881965095150","from":{"id":"100000221648144","name":"Nguyen Hung"},"message":"Thanks bac chu thot","can_remove":false,"created_time":"2013-09-07T18:58:13+0000","like_count":0,"user_likes":false}},"paging":{"cursors":{"after":"NzE0MDg3OTg4NjA3ODgx","before":"NzE0MDg3OTg4NjA3ODgx"},"next":"https://graph.facebook.com/229244010425617_714087461941267/comments?limit=1&summary=1&after=NzE0MDg3OTg4NjA3ODgx"},"summary":{"order":"chronological","total_count":14}}}