{"id":"229244010425617_714290088587671","type":"link","link":"http://www3.nhk.or.jp/news/easy/http://www3.nhk.or.jp/news/easy/","from":{"id":"100001458099624","name":"Kham Pha"},"message":"Có một việc muốn thông báo đến mọi người thế này. Từ nay việc quảng cáo tuyển dụng từ các cty sẽ  dừng đăng trên group thay vào đó đăng trên một group liên kết chuyên về tuyển dụng. Sẽ có admin khác hướng dẫn các bạn về việc này sau. \n\nĐây là trang tin tức của NHK dành cho học sinh tiểu học và người ngoại quốc, tất cả kanji trong đó đều có thêm cách đọc và tra nghĩa ngay bên trên mỗi từ. Các ngữ pháp cũng dễ hiểu, tầm N3 là đọc được rồi. Đọc tin tiếng Nhật vừa giúp các bạn hiểu hơn về nước Nhật vừa giúp nâng cao khả năng đọc, vốn từ, cách diễn đạt, thậm chí là nghe vì có luôn file audio. Nhiều bạn hỏi làm thế nào để học tốt tiếng Nhật, mình sẽ không ngần ngại trả lời là học như thế này. \n\nChúc các bạn may mắn :)\nhttp://www3.nhk.or.jp/news/easy/","created_time":"2013-09-05T01:51:42+0000","updated_time":"2013-09-08T04:08:05+0000","likes":{"data":{"100000167920988":{"id":"100000167920988","name":"Lê Cường"},"100002594112476":{"id":"100002594112476","name":"Thiên Di"},"100001659230540":{"id":"100001659230540","name":"Lemon Tea"},"100002959594535":{"id":"100002959594535","name":"Nguyen Ngoc Anh"},"100003209161756":{"id":"100003209161756","name":"Nguyễn Lê Thảo Quyên"},"100001594722256":{"id":"100001594722256","name":"Viết An Phạm"},"100000427448138":{"id":"100000427448138","name":"Anh Tuan Pham"},"100002230230544":{"id":"100002230230544","name":"Nakamura Minako"},"100003937342570":{"id":"100003937342570","name":"Oanh Thụn"},"100005504642044":{"id":"100005504642044","name":"Võ Tú Duyên"},"100004642933206":{"id":"100004642933206","name":"Aloha Aloha"},"100001690659856":{"id":"100001690659856","name":"Nguyễn Trường Giang"},"100001754136107":{"id":"100001754136107","name":"Nguyễn Tuấn Vũ"},"100002754998000":{"id":"100002754998000","name":"Nguyen Duc"},"100004241019333":{"id":"100004241019333","name":"Linda Evans"},"100004028173069":{"id":"100004028173069","name":"Jin Ngốc"},"100001116169487":{"id":"100001116169487","name":"Minh le Dinh"},"100004390833725":{"id":"100004390833725","name":"Huong Hong"},"100002573114104":{"id":"100002573114104","name":"Một Ngày Gió"},"100002144324087":{"id":"100002144324087","name":"Yuki Hana"},"1824015127":{"id":"1824015127","name":"Bùi Quang Tân"},"100002508122689":{"id":"100002508122689","name":"Vũ Mạnh Tuấn"},"100003011417151":{"id":"100003011417151","name":"Hue Kim"},"100003814756892":{"id":"100003814756892","name":"Hai Nguyen"},"100000776461179":{"id":"100000776461179","name":"Jotaro Nguyen"},"100004455759017":{"id":"100004455759017","name":"VN JP"},"100000280776405":{"id":"100000280776405","name":"Viet Nguyen Thanh"},"100000299798248":{"id":"100000299798248","name":"Vẹt Đêm"},"100000266887521":{"id":"100000266887521","name":"Hương Lê Thu"},"100003702043787":{"id":"100003702043787","name":"Hằng Hanu"},"100001416272263":{"id":"100001416272263","name":"Mai PB"},"100000328742646":{"id":"100000328742646","name":"Trần Giáp"},"100001723862714":{"id":"100001723862714","name":"Bo Bien Vang"},"1416265619":{"id":"1416265619","name":"Starwar Bbj"},"100002969177514":{"id":"100002969177514","name":"Tien Thien"},"100001683443068":{"id":"100001683443068","name":"Dương Tươi"},"1146680551":{"id":"1146680551","name":"優しい なぁ"},"100000193104491":{"id":"100000193104491","name":"Hac Nguyet"},"100002185080351":{"id":"100002185080351","name":"Nguyễn Xuân Bách"},"100005478454231":{"id":"100005478454231","name":"Maruko Chan"},"100000073848158":{"id":"100000073848158","name":"Hoàng Đắc"}},"paging":{"cursors":{"after":"MTAwMDAwMTY3OTIwOTg4","before":"MTAwMDAwMTY3OTIwOTg4"},"next":"https://graph.facebook.com/229244010425617_714290088587671/likes?limit=1&summary=1&after=MTAwMDAwMTY3OTIwOTg4"},"summary":{"total_count":41}},"comments":{"data":{"714358661914147":{"id":"714358661914147","from":{"id":"100000264268101","name":"Back To December"},"message":"Ken Nguyen nè","message_tags":[{"id":"100005854747916","name":"Ken Nguyen","type":"user","offset":0,"length":10}],"can_remove":false,"created_time":"2013-09-05T05:51:44+0000","like_count":0,"user_likes":false},"714361161913897":{"id":"714361161913897","from":{"id":"100006368081099","name":"Man Thu"},"message":"Tuyệt vời!!!!","can_remove":false,"created_time":"2013-09-05T06:00:22+0000","like_count":0,"user_likes":false},"714405538576126":{"id":"714405538576126","from":{"id":"100004028173069","name":"Jin Ngốc"},"message":"hay quá :D cám ơn rất nhiều ạ","can_remove":false,"created_time":"2013-09-05T09:16:39+0000","like_count":0,"user_likes":false},"715533895129957":{"id":"715533895129957","from":{"id":"100000687662713","name":"Vu Thi Man"},"message":"素晴らしい。どうも","can_remove":false,"created_time":"2013-09-07T08:10:38+0000","like_count":0,"user_likes":false},"716178495065497":{"id":"716178495065497","from":{"id":"100001594722256","name":"Viết An Phạm"},"message":"どうも、本当に役に立つ。^_^","can_remove":false,"created_time":"2013-09-08T04:08:05+0000","like_count":0,"user_likes":false}},"paging":{"cursors":{"after":"NzE0MzU4NjYxOTE0MTQ3","before":"NzE0MzU4NjYxOTE0MTQ3"},"next":"https://graph.facebook.com/229244010425617_714290088587671/comments?limit=1&summary=1&after=NzE0MzU4NjYxOTE0MTQ3"},"summary":{"order":"chronological","total_count":5}}}