{"id":"229244010425617_714381228578557","type":"photo","object_id":"643921918961129","picture":"https://fbcdn-photos-h-a.akamaihd.net/hphotos-ak-prn2/t1.0-0/1238297_643921918961129_828518463_s.jpg","link":"https://www.facebook.com/photo.php?fbid=643921918961129&set=gm.714381228578557&type=1&relevant_count=1","from":{"id":"100000299798248","name":"Vẹt Đêm"},"message":"[HƯỚNG DẪN VỀ VIỆC ĐĂNG TIN TUYỂN DỤNG] \n\n[ CHÚ Ý ]---> Từ giờ, mọi người vui lòng đăng tin tuyển dụng sang trang “Tuyển dụng nhân sự tiếng Nhật ở Việt Nam” (www.facebook.com/japanese.job ) nhé. Để đảm bảo tin đăng đến với các mems nhanh nhất thì các bạn vui lòng đọc phần giới thiệu và hướng dẫn sau  ^____^. Bà con nào đang tìm việc hay muốn đổi gió thì cứ nhấn thích trang và hóng tin tuyển được post mỗi ngày của trang nhé. Kiếm việc ko dễ nhưng mà sẽ ko khó nếu ngó từ trang “Tuyển dụng nhân sự tiếng Nhật ở Việt Nam” . ^____^. \n---------------------------------------------\n\nKính gửi các thành viên Cộng đồng Việt Nhật ( Vietnam-Japan community )!\n\n Xuất phát từ nhu cầu tuyển dụng ngày càng cao của các doanh nghiệp Nhật Bản tại Việt Nam nói riêng cũng như các doanh nghiệp cần nguồn nhân sự biết tiếng Nhật nói chung, tháng 7 năm 2012 trang “Tuyển dụng nhân sự tiếng Nhật ở Việt Nam” đã chính thức ra đời với mong muốn làm cầu nối cho các doanh nghiệp và lực lượng lao động trẻ tại Việt Nam.\n\n Trải qua hơn 1 năm hoạt động, đến nay trang “Tuyển dụng nhân sự tiếng Nhật ở Việt Nam” đã đạt hơn 12,000 thành viên (đã, đang và sẽ học tiếng nhật) đăng ký theo dõi. Số lượt đăng ký tăng dần cùng với số lượng tin đăng tuyển trên khắp các lĩnh vực mỗi ngày, điều đó tạo nên một sự khích lệ và động lực vô cùng lớn cho các thành viên Ban Quản Trị cũng như các thành viên của trang. \n\nĐể tìm hiểu rõ hơn về hoạt động của trang, xin vui lòng truy cập và nhấn thích trang để theo dõi thông tin tại link: www.facebook.com/japanese.job \n\n Trong tương lai, các thành viên trong nhóm Cộng đồng Việt Nhật ( Vietnam-Japan community ) nếu có nhu cầu tuyển dụng, xin hãy liên hệ với chúng mình qua e-mail: japanese.jobfb@gmail.com hoặc mess facebook và gửi thông tin tuyển dụng theo mẫu sau để nhận được sự đăng tin nhanh chóng- kịp thời- hiệu quả nhé. \n\n Mẫu tuyển dụng như sau:\n\n [Địa điểm làm việc] TUYỂN DỤNG …(vị trí)… \nGiới thiệu công ty:… \nMô tả công việc:… \nYêu cầu ứng viên:… \nMức lương và các đãi ngộ khác:… \nHồ sơ ứng tuyển gồm:… \nThông tin liên hệ:…\n\nThông tin sẽ được đăng trong vòng 03 ngày kể từ khi email, mess được gửi. Sau khi đăng tin, chúng mình sẽ xác nhận lại bằng cách gửi email, bình luận...phản hồi có kèm đường link đăng tin để mọi người tiện kiểm tra thông tin. \n\n Mọi thắc mắc khác, xin vui lòng gửi đến hộp mail: japanese.jobfb@gmail.com. Chúng mình sẽ phản hồi trong thời gian sớm nhất.\n\n Ban quản tri viên trang Tuyển dụng nhân sự tiếng Nhật ở Việt Nam xin chân thành gửi lời chúc sức khỏe và thành công đến toàn thể thành viên trong Cộng đồng Việt Nhật ( Vietnam-Japan community ). Chúng mình rất mong nhận được sự cộng tác của mọi người.\n\n Trân trọng, \nĐội ngũ ban quản trị","created_time":"2013-09-05T07:22:03+0000","updated_time":"2013-09-14T15:23:46+0000","likes":{"data":{"1795482302":{"id":"1795482302","name":"Hùng Ngô"},"100005672623737":{"id":"100005672623737","name":"Ánh Hà Nguyễn"},"100002508122689":{"id":"100002508122689","name":"Vũ Mạnh Tuấn"},"100001416272263":{"id":"100001416272263","name":"Mai PB"},"100001754136107":{"id":"100001754136107","name":"Nguyễn Tuấn Vũ"},"100001458099624":{"id":"100001458099624","name":"Kham Pha"}},"paging":{"cursors":{"after":"MTc5NTQ4MjMwMg==","before":"MTc5NTQ4MjMwMg=="},"next":"https://graph.facebook.com/229244010425617_714381228578557/likes?limit=1&summary=1&after=MTc5NTQ4MjMwMg%3D%3D"},"summary":{"total_count":6}},"comments":{"data":{"720308694652477":{"id":"720308694652477","from":{"id":"100001814569801","name":"Trần Thoa"},"message":"với bài đăng này của mình đã đủ yêu cầu mà bạn đưa ra rồi chứ ah?","can_remove":false,"created_time":"2013-09-14T11:25:33+0000","like_count":0,"user_likes":false},"720352877981392":{"id":"720352877981392","from":{"id":"100000381394367","name":"Thành Nguyễn"},"message":"Em cho cái này vào phần hướng dẫn group chưa nhỉ?","can_remove":false,"created_time":"2013-09-14T13:29:09+0000","like_count":0,"user_likes":false},"720409474642399":{"id":"720409474642399","from":{"id":"100000299798248","name":"Vẹt Đêm"},"message":"a Thành Nguyễnem bỏ vào phần hd group rồi ạ","message_tags":[{"id":"100000381394367","name":"Thành Nguyễn","type":"user","offset":2,"length":12}],"can_remove":false,"created_time":"2013-09-14T15:23:46+0000","like_count":0,"user_likes":false}},"paging":{"cursors":{"after":"NzIwMzA4Njk0NjUyNDc3","before":"NzIwMzA4Njk0NjUyNDc3"},"next":"https://graph.facebook.com/229244010425617_714381228578557/comments?limit=1&summary=1&after=NzIwMzA4Njk0NjUyNDc3"},"summary":{"order":"chronological","total_count":3}}}