{"id":"229244010425617_714433618573318","type":"link","picture":"https://fbexternal-a.akamaihd.net/safe_image.php?d=AQBXGsMBRtPWazAN&w=154&h=154&url=http%3A%2F%2Fwww.accjapan.com%2Fwebtest%2F..%2Fimg%2Fwebtest%2Fboard01.jpg","link":"http://www.accjapan.com/webtest/","from":{"id":"100001416272263","name":"Mai PB"},"message":"Tiếp nhé. Thi thử ngữ pháp N5～N1.\n\nhttp://www.accjapan.com/webtest/","created_time":"2013-09-05T11:09:01+0000","updated_time":"2013-09-06T04:41:44+0000","likes":{"data":{"100002959594535":{"id":"100002959594535","name":"Nguyen Ngoc Anh"},"100005478454231":{"id":"100005478454231","name":"Maruko Chan"},"100006582816122":{"id":"100006582816122","name":"Kẹo Đắng"},"100003207550369":{"id":"100003207550369","name":"Khoa Doan"},"100001755012731":{"id":"100001755012731","name":"Ma Tran"},"100001695345798":{"id":"100001695345798","name":"Tyn Aki"},"100006246883024":{"id":"100006246883024","name":"Hong Nhung"},"100003702043787":{"id":"100003702043787","name":"Hằng Hanu"},"1837866264":{"id":"1837866264","name":"QuynhDo Anh"},"100003179905990":{"id":"100003179905990","name":"Trâm Yoko"},"100002748307690":{"id":"100002748307690","name":"Anh Traro"},"100004172081230":{"id":"100004172081230","name":"Thu Nga"},"100006558942298":{"id":"100006558942298","name":"雪子"},"1060893770":{"id":"1060893770","name":"Hyhy Zui Zẻ"},"100002470650247":{"id":"100002470650247","name":"LinhLinh Chan"},"100005495773832":{"id":"100005495773832","name":"Hiền Vũ"},"100000280776405":{"id":"100000280776405","name":"Viet Nguyen Thanh"},"100003342122124":{"id":"100003342122124","name":"Xuan Nguyen"},"100002246274598":{"id":"100002246274598","name":"Tran Quang Anh"},"100002969177514":{"id":"100002969177514","name":"Tien Thien"},"100001066021488":{"id":"100001066021488","name":"Nguyen Hoai"},"100004450956167":{"id":"100004450956167","name":"Thắng Satoh"},"100001365545442":{"id":"100001365545442","name":"Nguyễn Nam"},"100003955883683":{"id":"100003955883683","name":"Đặng Phương Thanh"},"100001754136107":{"id":"100001754136107","name":"Nguyễn Tuấn Vũ"},"100001458099624":{"id":"100001458099624","name":"Kham Pha"},"100003011417151":{"id":"100003011417151","name":"Hue Kim"},"100001739865592":{"id":"100001739865592","name":"Tung Le"}},"paging":{"cursors":{"after":"MTAwMDAyOTU5NTk0NTM1","before":"MTAwMDAyOTU5NTk0NTM1"},"next":"https://graph.facebook.com/229244010425617_714433618573318/likes?limit=1&summary=1&after=MTAwMDAyOTU5NTk0NTM1"},"summary":{"total_count":29}},"comments":{"data":{"714435758573104":{"id":"714435758573104","from":{"id":"100001458099624","name":"Kham Pha"},"message":"Anh Mai PB cập nhật luôn mấy link web này vào note đi kẻo quên.","can_remove":false,"created_time":"2013-09-05T11:17:38+0000","like_count":0,"user_likes":false},"714436745239672":{"id":"714436745239672","from":{"id":"100001416272263","name":"Mai PB"},"message":"Chốc nữa, bây giờ đi bơi đã :-)","can_remove":false,"created_time":"2013-09-05T11:20:27+0000","like_count":0,"user_likes":false},"714443568572323":{"id":"714443568572323","from":{"id":"100001365545442","name":"Nguyễn Nam"},"message":"thk anh Mai PB nhìu nhìu.. tháng 10 này tính thi n5.. cơ mà nge khó qá :'(","message_tags":[{"id":"100001416272263","name":"Mai PB","type":"user","offset":8,"length":6}],"can_remove":false,"created_time":"2013-09-05T11:43:41+0000","like_count":0,"user_likes":false},"714446228572057":{"id":"714446228572057","from":{"id":"100005763421419","name":"Luuluyenhainisai Nguyen"},"message":"A cho e hoi n5 thi hoc đen bai may vay.e hoc đen b32 e cb hoc đen bai 50 khog biet co the thi n4 k?","can_remove":false,"created_time":"2013-09-05T11:52:22+0000","like_count":0,"user_likes":false},"714488591901154":{"id":"714488591901154","from":{"id":"1845000884","name":"Trieu Thi Kieu Oanh"},"message":"hoc het bai 50 nho hoc ca chu han nhe. neu hoc het tat tan tat ngu phap, tu vung va chu han thi thoai con ga mai do n4 nhe'","can_remove":false,"created_time":"2013-09-05T13:08:52+0000","like_count":0,"user_likes":false},"714739748542705":{"id":"714739748542705","from":{"id":"100005763421419","name":"Luuluyenhainisai Nguyen"},"message":"Thank.","can_remove":false,"created_time":"2013-09-05T22:49:26+0000","like_count":0,"user_likes":false},"714803625202984":{"id":"714803625202984","from":{"id":"100006437927747","name":"Tian Vova"},"message":"Không quan trọng bạn học được bao nhiêu bài mà là bạn đã học được bao nhiêu kiến thưc. Bạn học 50 bài nhưng mà không nắm vững thì N5 cũng chưa đậu được. Vì vậy nên quan trọng bạn cứ học cho kỹ từng bài. Thi chắc chắn sẽ đỗ. Chứ bữa trước mình đi thi mà thấy bọn nó cứ nhìn bài nhau, chẳng biết chữ j mà đi thi rùi du học. Qua bển thì vất vả hơn chứ được j đâu","can_remove":false,"created_time":"2013-09-06T01:14:50+0000","like_count":1,"user_likes":false},"714863361863677":{"id":"714863361863677","from":{"id":"100006246883024","name":"Hong Nhung"},"message":">:O","can_remove":false,"created_time":"2013-09-06T04:41:44+0000","like_count":0,"user_likes":false}},"paging":{"cursors":{"after":"NzE0NDM1NzU4NTczMTA0","before":"NzE0NDM1NzU4NTczMTA0"},"next":"https://graph.facebook.com/229244010425617_714433618573318/comments?limit=1&summary=1&after=NzE0NDM1NzU4NTczMTA0"},"summary":{"order":"chronological","total_count":8}}}