{"id":"229244010425617_714532635230083","type":"link","picture":"https://fbexternal-a.akamaihd.net/safe_image.php?d=AQD2ueZX7SZb5mHf&w=154&h=154&url=http%3A%2F%2Fafamily1.vcmedia.vn%2FUskNccccccccccccn4XgRp45LZn2xV%2FImage%2F2013%2F08%2FNewFolder%2FNewFolder%2Favd-3a549.jpg","link":"http://afamily.vn/me-va-be/mau-giao-nhat-lam-toi-choang-vang-20130904043922555.chn","from":{"id":"100001458099624","name":"Kham Pha"},"created_time":"2013-09-05T14:40:19+0000","updated_time":"2013-09-07T07:23:54+0000","likes":{"data":{"100001104538854":{"id":"100001104538854","name":"Gia Trịnh"},"100006287771656":{"id":"100006287771656","name":"Yo Nguyễn"},"1416265619":{"id":"1416265619","name":"Starwar Bbj"},"100001755012731":{"id":"100001755012731","name":"Ma Tran"},"100003702043787":{"id":"100003702043787","name":"Hằng Hanu"},"100006246883024":{"id":"100006246883024","name":"Hong Nhung"},"100005982402082":{"id":"100005982402082","name":"Hcm Ilu"},"100004458131717":{"id":"100004458131717","name":"Minh Huệ"},"100003941338766":{"id":"100003941338766","name":"Nhinl Pe"},"1146680551":{"id":"1146680551","name":"優しい なぁ"},"100000167920988":{"id":"100000167920988","name":"Lê Cường"},"100002470650247":{"id":"100002470650247","name":"LinhLinh Chan"},"100001723862714":{"id":"100001723862714","name":"Bo Bien Vang"},"100000293174570":{"id":"100000293174570","name":"Vịt Vụng Về"},"100000328742646":{"id":"100000328742646","name":"Trần Giáp"},"100002508122689":{"id":"100002508122689","name":"Vũ Mạnh Tuấn"},"100003264330800":{"id":"100003264330800","name":"Tiểu Mộc"},"100004705145167":{"id":"100004705145167","name":"Ngọc Tuệ Bạch"},"100003011417151":{"id":"100003011417151","name":"Hue Kim"},"1308881663":{"id":"1308881663","name":"Nguyễn Đình Lộc"}},"paging":{"cursors":{"after":"MTAwMDAxMTA0NTM4ODU0","before":"MTAwMDAxMTA0NTM4ODU0"},"next":"https://graph.facebook.com/229244010425617_714532635230083/likes?limit=1&summary=1&after=MTAwMDAxMTA0NTM4ODU0"},"summary":{"total_count":20}},"comments":{"data":{"714819191868094":{"id":"714819191868094","from":{"id":"100005982402082","name":"Hcm Ilu"},"message":"t mơ ước được sống trong môi trường như vậy.","can_remove":false,"created_time":"2013-09-06T02:09:09+0000","like_count":0,"user_likes":false},"714833555199991":{"id":"714833555199991","from":{"id":"100001458099624","name":"Kham Pha"},"message":"Vậy thì hãy cùng nhau xây dựng môi trường như vậy :)","can_remove":false,"created_time":"2013-09-06T02:58:14+0000","like_count":0,"user_likes":false},"714851385198208":{"id":"714851385198208","from":{"id":"100006246883024","name":"Hong Nhung"},"message":"8-)","can_remove":false,"created_time":"2013-09-06T03:54:50+0000","like_count":0,"user_likes":false},"715520941797919":{"id":"715520941797919","from":{"id":"100000687662713","name":"Vu Thi Man"},"message":"Doc xong bai nay cua ban ma minh chay ca nuoc mat. Dua thang be con sang, ma chang the xin cho no di hoc duoc, lai phai dua no ve nuoc, thay toi nghiep qua.","can_remove":false,"created_time":"2013-09-07T07:16:08+0000","like_count":0,"user_likes":false},"715522438464436":{"id":"715522438464436","from":{"id":"100005982402082","name":"Hcm Ilu"},"message":"Vu Thi Man sao vậy chị?","message_tags":[{"id":"100000687662713","name":"Vu Thi Man","type":"user","offset":0,"length":10}],"can_remove":false,"created_time":"2013-09-07T07:23:54+0000","like_count":0,"user_likes":false}},"paging":{"cursors":{"after":"NzE0ODE5MTkxODY4MDk0","before":"NzE0ODE5MTkxODY4MDk0"},"next":"https://graph.facebook.com/229244010425617_714532635230083/comments?limit=1&summary=1&after=NzE0ODE5MTkxODY4MDk0"},"summary":{"order":"chronological","total_count":5}}}