{"id":"229244010425617_714620345221312","type":"video","object_id":"155529711307183","picture":"https://fbcdn-vthumb-a.akamaihd.net/hvthumb-ak-frc3/t15.0-10/1095334_155530581307096_155529711307183_47239_690_t.jpg","link":"https://www.facebook.com/photo.php?v=155529711307183","source":"https://fbcdn-video-a.akamaihd.net/hvideo-ak-prn1/v/t42.1790-2/1054112_155529967973824_1878128402_n.mp4?oh=05a212713779f3c82ca0de4e7a0b91f2&oe=534FCB00&__gda__=1397736913_e0a5dac3523a26aef7922ad963be0cda","from":{"id":"100005504642044","name":"Võ Tú Duyên"},"message":"Tsubasa wo kudasai - Xin hãy cho tôi đôi cánh\nCa sĩ: Hayashibara Megumi\nDịch và sub bởi Đại Tá Cá Vàng (ilovekazehikaru)\n\n________________________________________\nNhìn thì dài chứ có vài câu hát đi hát lại à [○･｀Д´･○] hát rất dễ nghe\n\n翼(つばさ)をください\n\n１．いま私(わたし)の願(ねが)いごとが\nかなうならば翼(つばさ)がほしい\nIma watashi no negaigoto ga\nkanau naraba Tsubasa ga hoshii\n\nNếu giờ điều tôi ước có thể thành hiện thực,\nTôi sẽ muốn có một đôi cánh.\nこの背中(せなか)に鳥(とり)のように\n白(しろ)い翼(つばさ)つけてください\nKono senaka ni tori no you ni\nShiroi tsubasa tsukete kudasai\n\nXin cho tôi mang đôi cánh trắng\nTrên lưng như những chú chim.\n\nこの大空(おおぞら)に翼(つばさ)をひろげ\n飛(と)んで行(い)きたいよ\nKono oozora ni tsubasa wo hiroge\nTonde ikitai yo\n\nTrên bầu trời mênh mông này, tôi muốn giang rộng đôi cánh\nVút bay đi\n\n悲(かな)しみのない自由(じゆう)な空( そら)へ\n翼(つばさ)はためかせ\n行(ゆ)きたい\nKanashimi no nai jiyuu na sora he\nTsubasa hatamekase\nYukitai\n\nHướng về bầu trời tự do, không còn phiền muộn\nTôi muốn vỗ đôi cánh\nRa đi.\n\n２．子(こ)どものとき夢(ゆめ)みたこと\nKodomo no toki yumemita koto\nNhững điều tôi đã mơ thuở nhỏ\n\n今(いま)も同(おな)じ夢(ゆめ)に見(み)ている\nIma mo onaji yume ni mite iru\nNay tôi cũng đang mơ những giấc mơ như thế.\n\nこの大空(おおぞら)に翼(つばさ)をひろげ\n飛(と)んで行(い)きたいよ\nKono oozora ni tsubasa wo hiroge\nTonde ikitai yo\n\nTrên bầu trời mênh mông này, tôi muốn giang rộng đôi cánh\nVút bay đi\n\n悲(かな)しみのない自由(じゆう)な空( そら)へ\n翼(つばさ)はためかせ\nKanashimi no nai jiyuu na sora he\nTsubasa hatamekase\n\nHướng về bầu trời tự do, không còn phiền muộn\nTôi vỗ cánh\n\nこの大空(おおぞら)に翼(つばさ)をひろげ\n飛(と)んで行(い)きたいよ\nKono oozora ni tsubasa wo hiroge\nTonde ikitai yo\n\nTrên bầu trời mênh mông này, tôi muốn giang rộng đôi cánh\nVút bay đi\n\n悲(かな)しみのない自由(じゆう)な空( そら)へ\n翼(つばさ)はためかせ\nKanashimi no nai jiyuu na sora he\nTsubasa hatamekase\n\nvề hướng bầu trời tự do, không còn muộn phiền.\nTôi vỗ cánh\n\nこの大空(おおぞら)に翼(つばさ)をひろげ\n飛(と)んで行(い)きたいよ\nKono oozora ni tsubasa wo hiroge\nTonde ikitai yo\n\nTrên bầu trời mênh mông này, tôi muốn giang rộng đôi cánh\nVút bay đi\n\n悲(かな)しみのない自由(じゆう)な空( そら)へ\n翼(つばさ)はためかせ\n行(ゆ)きたい\nKanashimi no nai jiyuu na sora he\nTsubasa hatamekase\nYukitai\n\nvề hướng bầu trời tự do, không còn muộn phiền.\nTôi vỗ cánh\nRa đi.\n\nこの大空(おおぞら)に翼(つばさ)をひろげ\n飛(と)んで行(い)きたいよ\nKono oozora ni tsubasa wo hiroge\nTonde ikitai yo\n\nTrên bầu trời mênh mông này, tôi muốn giang rộng đôi cánh\nVút bay đi.\n\n悲(かな)しみのない自由(じゆう)な空( そら)へ\n翼(つばさ)はためかせ\nKanashimi no nai jiyuu na sora he\nTsubasa hatamekase\n\nvề hướng bầu trời tự do, không còn muộn phiền.\nTôi vỗ cánh.\n\nこの大空(おおぞら)に翼(つばさ)をひろげ\n飛(と)んで行(い)きたいよ\nKono oozora ni tsubasa wo hiroge\nTonde ikitai yo\n\nTrên bầu trời mênh mông này, tôi muốn giang rộng đôi cánh\nVút bay đi.\n悲(かな)しみのない自由(じゆう)な空( そら)へ\n翼(つばさ)はためかせ\n行(ゆ)きたい\nKanashimi no nai jiyuu na sora he\nTsubasa hatamekase\nYukitai\n\nvề hướng bầu trời tự do, không còn muộn phiền.\nTôi vỗ cánh\nRa đi.\n\n________________________________\n#### Từ vựng: ####\n\nいまima bây giờ\n私 - わたし watashi tôi (cách viết kanji: http://tangorin.com/kanji/私)\n願い - ねがい sự mong ước,ước muốn (cách viết kanji: http://tangorin.com/kanji/願)\nかなうkanau đáp ứng, thoả mãn (tính từ naな)\n翼 - つばさ tsubasa đôi cánh (cách viết kanji: http://tangorin.com/kanji/翼)\nほしい hoshii muốn có gì đó (tính từ i い)\n背中 - せなか senaka cái lưng (cách viết kanji: http://tangorin.com/kanji/背中)\n鳥 - とりtori con chim (cách viết kanji: http://tangorin.com/kanji/鳥)\n白い - しろい shiroi màu trắng (cách viết kanji: http://tangorin.com/kanji/白)\nつける- tsukeru gắn vào, dán vào, đắp (thuốc), trét (bơ, mứt)\n大空 - おおぞら oozora thiên đường (nghĩa đen) & (nghĩa bóng) Ngọc hoàng, Thượng đế, trời\nTuy nhiên cũng có nghĩa dạng từ ghép 大 - おおきooki sự to lớn với 空 - そら sora bầu trời\n=> 大空 bầu trời rộng lớn\n(cách viết kanji: http://tangorin.com/kanji/大空)\nひろげる hirogeru giang rộng, trải ra, mở ra (mở báo ..v…v..)\n飛ぶ -とぶ tofu bay, nhảy (cách viết kanji: http://tangorin.com/kanji/飛)\n行き - いき iki hoặc ゆきyuki sự ra đi (cách viết kanji: http://tangorin.com/kanji/行)\n悲しみ - かなしみ kanashime sự phiền muộn, đau khổ (cách viết kanji: http://tangorin.com/kanji/悲)\n自由 - じゆうjiyuu sự tự do, thoải mái (tính từ naな) (cách viết kanji: http://tangorin.com/kanji/自由)\nはためかせ hatamekase tung bay, hướng về\n子 - こども: trẻ em, đứa bé (cách viết kanji: http://tangorin.com/kanji/自由)\n夢 - ゆめ: giấc mơ (cách viết kanji: http://tangorin.com/kanji/子)\n同 おなじ: không thay đổi (cách viết kanji: http://tangorin.com/kanji/同)\n見 みている: nhìn thấy, quan sát (cách viết kanji: http://tangorin.com/kanji/見)\n\n_______________________________________\n#### Ngữ pháp ####\n\n-*- Muốn làm gì\n\nV + たいです\nV + taidesu.\n\n& Không muốn làm gì\n\nV + たくないです.\nV + takunaidesu.\n\nVí dụ:\n飛(と)んで行(い)きたい.\nTon de ikitai .\nmuốn bay đi.\n(nghe: http://tinyurl.com/lbv3lzv)\n行(ゆ)きたい.\nYuki tai. - ikitai\nmuốn ra đi.\n(nghe: http://tinyurl.com/nyyezmp)\n私(わたし)はえいが を みたいです.\nWatashi wa eiga wo mitaidesu.\nTôi muốn đi xem phim.\n(nghe: http://tinyurl.com/ldg9b7r)\nあなたは　コーヒーが　のみたいですか。\nBạn muốn uống cà phê không?\n(nghe: http://tinyurl.com/mpqekr2)\nはい、わたしは　コーヒーが　のみたいです\nHai,Watashi wa kouhii ga nomitaidesu.\nVâng,Tôi muốn uống cà phê.\n(nghe: http://tinyurl.com/kxhf63b)\n私(わたし)は あそび に いきたくないです.\nTôi không muốn đi chơi.\n(nghe:http://tinyurl.com/lkzum6j)\n私(わたし)はにほんご と えいご をべんきょう したくないです.\nTôi không muốn học tiếng nhật và tiếng anh.\n(nghe: http://tinyurl.com/l7la6of)\n\n-*- muốn có gì đó\nN がほしいです\nN ga hoshiidesu.\n\n& không muốn có gì đó\nN がほしくないです\nN ga hoshikunaidesu. Do ほしい hoshii là tình từ i い nên chữ i い biến đổi thành ku く.\n\nVí dụ:\n翼(つばさ)がほしい\nTsubasa ga hoshii\nMuốn có đôi cánh.\n(nghe: http://tinyurl.com/k8ycxgf)\n私(わたし)は Ipad が ほしいです.\nWatashi wa Ipad ga hoshiidesu.\nTôi muốn có Ipad.\n私(わたし)は こいびと が ほしくない です.\nWatashi wa koibito ga hoshikunai desu.\nTôi không muốn người yêu.\n(nghe: http://tinyurl.com/meh8el8)\n\n-*- nếu thì (sao đó)\nもし …. すれば\nMoshi …. sureba\nCó thể rút gọn còn chữ れば reba người ta cũng hiểu là nói nếu thì\n\nVí dụ:\nいま私(わたし)の願(ねが)いごとがかなうな らば 翼(つばさ)がほしい\nIma watashi no negaigoto ga kanau na raba Tsubasa ga hoshii\nNếu giờ điều tôi ước có thể thành hiện thực, Tôi sẽ muốn có một đôi cánh\n(nghe: http://tinyurl.com/md2vdj4)\n(Do かなう kanau là tính từ na な nên thêm chữ na な trước らば raba)\nもしあまが ふれば,きょう は あそびに いきません.\nMoshi ame ga fureba, kyou wa asobi ni ikimasen.\nNếu trời mưa, hôm nay tôi sẽ không đi chơi.\n(nghe: http://tinyurl.com/mdbq6ce)\nもし おかね が あれば, にほん へ りょこうに いきます.\nNếu có tiền thì tôi sẽ đi du lịch Nhật bản.\n(nghe: http://tinyurl.com/kj5xrmb)\n\n-*- Xin phép điều gì đó\nN (を) ください.\nN (wo) kudasai.\n\nVí dụ:\nこの背中(せなか)に鳥(とり)のように白(しろ)い翼(つばさ)つけてください.\nKono senaka ni tori no you ni Shiroi tsubasa tsukete kudasai.\nXin cho tôi mang đôi cánh trắng trên lưng như những chú chim.\n(nghe: http://tinyurl.com/n76he4y)\nきってをください.\nKitte wo kudasai.\nXin hãy cho tôi con tem.\n(nghe: http://tinyurl.com/mq3end3)\nちょっと まって ください.\nChotto matte kudasai.\nXin chờ tôi một chút.\n(nghe: http://tinyurl.com/l8229zc)\nあした きて ください.\nAshita kite kudasai.\nXin hãy đến vào ngày mai.\n(nghe: http://tinyurl.com/ll7lbup)\n\n______________________________________\nおしもい. oshimoi\n^‿^ đã hết bài rồi.\n\nCác bạn thấy học tốt chứ?\n\n٩◔‿◔۶ Hãy tiếp tục theo dõi lần tới nhé.","created_time":"2013-09-05T16:58:10+0000","updated_time":"2013-09-06T13:47:54+0000","likes":{"data":{"100004411770431":{"id":"100004411770431","name":"Giap Viet Dung"},"100004028173069":{"id":"100004028173069","name":"Jin Ngốc"},"100000250256418":{"id":"100000250256418","name":"Nguyen Viet Anh"},"100004094371699":{"id":"100004094371699","name":"Hoàng Bá Phương"},"100001416272263":{"id":"100001416272263","name":"Mai PB"},"100005982402082":{"id":"100005982402082","name":"Hcm Ilu"},"1416265619":{"id":"1416265619","name":"Starwar Bbj"},"100001723862714":{"id":"100001723862714","name":"Bo Bien Vang"},"100002508122689":{"id":"100002508122689","name":"Vũ Mạnh Tuấn"},"100003518966987":{"id":"100003518966987","name":"Thanh Hoài Ngô"},"100001458099624":{"id":"100001458099624","name":"Kham Pha"}},"paging":{"cursors":{"after":"MTAwMDA0NDExNzcwNDMx","before":"MTAwMDA0NDExNzcwNDMx"},"next":"https://graph.facebook.com/229244010425617_714620345221312/likes?limit=1&summary=1&after=MTAwMDA0NDExNzcwNDMx"},"summary":{"total_count":11}},"comments":{"data":{"714807881869225":{"id":"714807881869225","from":{"id":"100001458099624","name":"Kham Pha"},"message":"Võ Tú Duyên bạn viết hết chỗ này đấy ah?","message_tags":[{"id":"100005504642044","name":"Võ Tú Duyên","type":"user","offset":0,"length":11}],"can_remove":false,"created_time":"2013-09-06T01:30:10+0000","like_count":1,"user_likes":false},"714843251865688":{"id":"714843251865688","from":{"id":"100001723862714","name":"Bo Bien Vang"},"message":"thank u  Võ Tú Duyên","message_tags":[{"id":"100005504642044","name":"Võ Tú Duyên","type":"user","offset":9,"length":11}],"can_remove":false,"created_time":"2013-09-06T03:27:26+0000","like_count":1,"user_likes":false},"715020688514611":{"id":"715020688514611","from":{"id":"100001416272263","name":"Mai PB"},"message":"Đây là bài hát mà người Nhật nào cũng biết. Original cũng của ca sĩ Yamamoto Junko mà hôm nọ mình giới thiệu bài hát 卒業写真. Bài trên chắc là được cover lại.","can_remove":false,"created_time":"2013-09-06T12:52:08+0000","like_count":1,"user_likes":false},"715029868513693":{"id":"715029868513693","from":{"id":"100005504642044","name":"Võ Tú Duyên"},"message":"(●´ω｀●)ゞ clip nhạc là của bạn khác làm, bài học thì mình soạn đó","can_remove":false,"created_time":"2013-09-06T13:14:31+0000","like_count":0,"user_likes":false},"715030478513632":{"id":"715030478513632","from":{"id":"100005504642044","name":"Võ Tú Duyên"},"message":"(｡･｀ω´･｡) mí bạn thấy dc hông? có gì góp ý để mình chỉnh sửa","can_remove":false,"created_time":"2013-09-06T13:16:20+0000","like_count":0,"user_likes":false},"715039205179426":{"id":"715039205179426","from":{"id":"100001458099624","name":"Kham Pha"},"message":"Mình nghĩ nên giải thích ngữ pháp và từ cho từng câu thì dễ nhớ dễ hiểu hơn là kéo xuống tận dưới mới thấy. Bạn có thể tham khảo cách viết của mình ở mục \"Học tiếng Nhật qua bài hát\" trên đầu group.","can_remove":false,"created_time":"2013-09-06T13:38:11+0000","like_count":1,"user_likes":false},"715041201845893":{"id":"715041201845893","from":{"id":"100005504642044","name":"Võ Tú Duyên"},"message":"vâng mình sẽ tham khảo","can_remove":false,"created_time":"2013-09-06T13:42:54+0000","like_count":0,"user_likes":false},"715042545179092":{"id":"715042545179092","from":{"id":"100001416272263","name":"Mai PB"},"message":"Quá kỳ công. Võ Tú Duyên không cần phải dịch tất cả như cho các bạn học あいうえお vậy, chỉ cần hướng dẫn những cách nói khó hoặc hơi khác cách dạy trong sgk, từ ít dùng... thôi. Có vậy mới đủ sức làm bài khác nữa. Mục tiêu là 100 bài nhé ;-)","message_tags":[{"id":"100005504642044","name":"Võ Tú Duyên","type":"user","offset":13,"length":11}],"can_remove":false,"created_time":"2013-09-06T13:47:54+0000","like_count":0,"user_likes":false}},"paging":{"cursors":{"after":"NzE0ODA3ODgxODY5MjI1","before":"NzE0ODA3ODgxODY5MjI1"},"next":"https://graph.facebook.com/229244010425617_714620345221312/comments?limit=1&summary=1&after=NzE0ODA3ODgxODY5MjI1"},"summary":{"order":"chronological","total_count":8}}}