{"id":"229244010425617_714875411862472","type":"status","from":{"id":"100001416272263","name":"Mai PB"},"message":"So sánh sự quan tâm đối với số like trong các post mà mình đưa ra, mình thấy có vẻ mọi người chú trọng học và thi, nhưng không quan tâm lắm đến tiếng Nhật trong thực tế? Thi là thi thôi, có khả năng tiếng Nhật hay không lại là chuyện khác. Hôm nọ mới biết có những người có bằng N2 mà biết đọc không biết nói, hoặc ngược lại. Lưu ý nhé, mọi người, nhất là các bạn đã qua N3.","created_time":"2013-09-06T05:27:21+0000","updated_time":"2013-09-06T06:04:14+0000","likes":{"data":{"100006558942298":{"id":"100006558942298","name":"雪子"},"100003011417151":{"id":"100003011417151","name":"Hue Kim"},"100003806594580":{"id":"100003806594580","name":"Daothuy Linh"},"100000022163023":{"id":"100000022163023","name":"Kafe Ore"},"100000089472724":{"id":"100000089472724","name":"Duy Nguyen"},"100002421205294":{"id":"100002421205294","name":"Nghèo Kệ Tôi"},"100003102655084":{"id":"100003102655084","name":"Cô Gái Xứ Dừa"},"100000027754899":{"id":"100000027754899","name":"Hoang Van Ba"},"100002837878520":{"id":"100002837878520","name":"Cu Shejin"},"100006248618563":{"id":"100006248618563","name":"Momi Zi"},"100001458099624":{"id":"100001458099624","name":"Kham Pha"},"100000041691073":{"id":"100000041691073","name":"Phuong Nam Hoang"},"1146680551":{"id":"1146680551","name":"優しい なぁ"},"100003702043787":{"id":"100003702043787","name":"Hằng Hanu"},"100000776461179":{"id":"100000776461179","name":"Jotaro Nguyen"},"100005801442456":{"id":"100005801442456","name":"An Nguyen"},"100005478454231":{"id":"100005478454231","name":"Maruko Chan"},"100000190208890":{"id":"100000190208890","name":"Vũ Mai"},"100002508122689":{"id":"100002508122689","name":"Vũ Mạnh Tuấn"},"100004041794244":{"id":"100004041794244","name":"Watanuki Kimihiro"},"100005805939075":{"id":"100005805939075","name":"Phong Kaze"}},"paging":{"cursors":{"after":"MTAwMDA2NTU4OTQyMjk4","before":"MTAwMDA2NTU4OTQyMjk4"},"next":"https://graph.facebook.com/229244010425617_714875411862472/likes?limit=1&summary=1&after=MTAwMDA2NTU4OTQyMjk4"},"summary":{"total_count":21}},"comments":{"data":{"714877071862306":{"id":"714877071862306","from":{"id":"100005763421419","name":"Luuluyenhainisai Nguyen"},"message":"Nhung phai hoc tot moi wa đuoc ki thi.nhung van phai on du gioi ma lo la thi ket qua van kem thoi.","can_remove":false,"created_time":"2013-09-06T05:30:59+0000","like_count":0,"user_likes":false},"714878965195450":{"id":"714878965195450","from":{"id":"100005801442456","name":"An Nguyen"},"message":"Nói chung cái máu thành tích nó ăn sâu vào trong suy nghĩ vn rồi a ơi","can_remove":false,"created_time":"2013-09-06T05:39:02+0000","like_count":1,"user_likes":false},"714879701862043":{"id":"714879701862043","from":{"id":"100001416272263","name":"Mai PB"},"message":"Đó là chuyện khác An Nguyen. Từ phía người học thì cũng chưa hẳn thế, dù sao học rồi thi cũng là phương hướng tự nhiên. Ở đây anh chỉ hướng dẫn thêm là nên học cả ở bên ngoài sách vở nữa thôi. Cũng là để quảng cáo thêm cho mấy post của anh khỏi bị hắt hủi quá. :-)","message_tags":[{"id":"100005801442456","name":"An Nguyen","type":"user","offset":18,"length":9}],"can_remove":false,"created_time":"2013-09-06T05:42:41+0000","like_count":6,"user_likes":false},"714881511861862":{"id":"714881511861862","from":{"id":"100000042138129","name":"Duong David"},"message":"Mấy post của anh Mai em thấy khá hữu dụng. Chỉ tiếc trình độ của em mới hơi chớm N4, chưa thể hiểu hết đc :3","can_remove":false,"created_time":"2013-09-06T05:50:06+0000","like_count":1,"user_likes":false},"714882211861792":{"id":"714882211861792","from":{"id":"100003210512769","name":"Trang Nguyễn"},"message":"mình rất thích tiếng nhật dùng trong giao tiếp hàng ngày. mong ad sẽ đăng nhiều bài kiểu như thế hơn nữa. cảm ơn ad ạ :)","can_remove":false,"created_time":"2013-09-06T05:53:49+0000","like_count":1,"user_likes":false},"714882221861791":{"id":"714882221861791","from":{"id":"100001458099624","name":"Kham Pha"},"message":"Em đã có N nào đâu, sống vẫn sung sướng :))","can_remove":false,"created_time":"2013-09-06T05:53:54+0000","like_count":2,"user_likes":false},"714882615195085":{"id":"714882615195085","from":{"id":"100006248618563","name":"Momi Zi"},"message":"E khoái học tiếng nhật giao tiếp lắm.nhưng không thể đọc được kanji còn những cuốn sách em biết mà chỉ ko có kanji thì phần lớn em hiểu rồi.toàn cứ phải nc với người nhật rồi ngữ pháp ko hiểu thì cứ bảo người ta nói hết cái này đến cái khác cho đến khi hiêu rồi lấy đó suy ra ngử pháp.nhưng mà vậy nhiều khi cứ sợ sai.a Mai PB dúp e nhé...e là tns","can_remove":false,"created_time":"2013-09-06T05:56:17+0000","like_count":1,"user_likes":false},"714884331861580":{"id":"714884331861580","from":{"id":"100005801442456","name":"An Nguyen"},"message":"E có quyển sách này hay lắm ,nó chỉ mấy câu dạng như kiểu ếch ngồi đáy giếng,cười miệng rộng tới mang tai...dạng như giống mấy câu của vậy của vn Á.hehe hnao post lên cho bà con coi chơ","can_remove":false,"created_time":"2013-09-06T06:04:14+0000","like_count":3,"user_likes":false}},"paging":{"cursors":{"after":"NzE0ODc3MDcxODYyMzA2","before":"NzE0ODc3MDcxODYyMzA2"},"next":"https://graph.facebook.com/229244010425617_714875411862472/comments?limit=1&summary=1&after=NzE0ODc3MDcxODYyMzA2"},"summary":{"order":"chronological","total_count":8}}}