{"id":"229244010425617_714976345185712","type":"video","object_id":"572748002783798","picture":"https://fbcdn-vthumb-a.akamaihd.net/hvthumb-ak-frc3/t15.0-10/1096510_572748536117078_572748002783798_59788_1870_t.jpg","link":"https://fbcdn-video-a.akamaihd.net/hvideo-ak-frc1/v/t42.1790-2/1248891_572748432783755_649351556_n.mp4?oh=40b7da51c0bcb9dba1e03f9588812f57&oe=534FDC30&__gda__=1397740829_f7329cc1e5ae85241cddd8c72a7af2fd","source":"https://fbcdn-video-a.akamaihd.net/hvideo-ak-frc1/v/t42.1790-2/1248891_572748432783755_649351556_n.mp4?oh=40b7da51c0bcb9dba1e03f9588812f57&oe=534FDC30&__gda__=1397740829_f7329cc1e5ae85241cddd8c72a7af2fd","from":{"id":"100001458099624","name":"Kham Pha"},"message":"Mèo Ngố đi lạc (Tên tự bịa :D )\nTập 2: Chi được nhặt về.","created_time":"2013-09-06T10:34:31+0000","updated_time":"2013-09-07T06:28:47+0000","likes":{"data":{"100006438522754":{"id":"100006438522754","name":"Anh Thư Phạm"},"100002922084177":{"id":"100002922084177","name":"Nguyễn Quang Trường"},"100001723862714":{"id":"100001723862714","name":"Bo Bien Vang"},"100000243996953":{"id":"100000243996953","name":"Giang Nguyễn"},"100004140850631":{"id":"100004140850631","name":"Huong Trang"},"100003931107487":{"id":"100003931107487","name":"Hồng Võ"},"100001079726837":{"id":"100001079726837","name":"Hatenai Yume"},"1250876107":{"id":"1250876107","name":"Kim Hoan"},"100005801442456":{"id":"100005801442456","name":"An Nguyen"},"100004028173069":{"id":"100004028173069","name":"Jin Ngốc"},"100004055040287":{"id":"100004055040287","name":"Nguyễn Minh"},"100000368603703":{"id":"100000368603703","name":"Truc Ly Phan"},"100005043309731":{"id":"100005043309731","name":"Mario Nguyễn"},"100003011417151":{"id":"100003011417151","name":"Hue Kim"},"100003321786144":{"id":"100003321786144","name":"Baloon Bambootatoo"},"100002508122689":{"id":"100002508122689","name":"Vũ Mạnh Tuấn"},"100002594112476":{"id":"100002594112476","name":"Thiên Di"},"100003397876835":{"id":"100003397876835","name":"Nabito Lazy"}},"paging":{"cursors":{"after":"MTAwMDA2NDM4NTIyNzU0","before":"MTAwMDA2NDM4NTIyNzU0"},"next":"https://graph.facebook.com/229244010425617_714976345185712/likes?limit=1&summary=1&after=MTAwMDA2NDM4NTIyNzU0"},"summary":{"total_count":18}},"comments":{"data":{"715041371845876":{"id":"715041371845876","from":{"id":"100004055040287","name":"Nguyễn Minh"},"message":"Sao k  share đc ạ","can_remove":false,"created_time":"2013-09-06T13:43:34+0000","like_count":0,"user_likes":false},"715043378512342":{"id":"715043378512342","from":{"id":"100001458099624","name":"Kham Pha"},"message":"Đc chứ, hôm qua vẫn có người share đc mà.","can_remove":false,"created_time":"2013-09-06T13:50:35+0000","like_count":0,"user_likes":false},"715048605178486":{"id":"715048605178486","from":{"id":"100004055040287","name":"Nguyễn Minh"},"message":"K thấy cái nút share ở đâu cả","can_remove":false,"created_time":"2013-09-06T14:05:33+0000","like_count":0,"user_likes":false},"715073168509363":{"id":"715073168509363","from":{"id":"100001723862714","name":"Bo Bien Vang"},"message":"mỗi hôm nhử mồi có hơn 3p thôi á Kham Pha","message_tags":[{"id":"100001458099624","name":"Kham Pha","type":"user","offset":33,"length":8}],"can_remove":false,"created_time":"2013-09-06T15:04:38+0000","like_count":1,"user_likes":false},"715508148465865":{"id":"715508148465865","from":{"id":"100001458099624","name":"Kham Pha"},"message":"oan quá, phim chỉ có từng đấy mỗi tập thì biết làm sao :(","can_remove":false,"created_time":"2013-09-07T06:28:47+0000","like_count":0,"user_likes":false}},"paging":{"cursors":{"after":"NzE1MDQxMzcxODQ1ODc2","before":"NzE1MDQxMzcxODQ1ODc2"},"next":"https://graph.facebook.com/229244010425617_714976345185712/comments?limit=1&summary=1&after=NzE1MDQxMzcxODQ1ODc2"},"summary":{"order":"chronological","total_count":5}}}