{"id":"229244010425617_714911418525538","type":"status","from":{"id":"100002805246239","name":"Hoàng Hiếu"},"message":"Chào các bạn mình là men đợt tháng 10 này sang sinh sống và học tập ở nhật bản , mà khi đi chưa biết mang gì đưa theo, anh em sang trước rồi có gì bày cho mình nên mang gì khi sang nhật bản cái nhé, thank cảm ơn cả nhà","created_time":"2013-09-06T06:40:49+0000","updated_time":"2013-09-06T15:59:55+0000","likes":{"data":{"100000368603703":{"id":"100000368603703","name":"Truc Ly Phan"}},"paging":{"cursors":{"after":"MTAwMDAwMzY4NjAzNzAz","before":"MTAwMDAwMzY4NjAzNzAz"}},"summary":{"total_count":1}},"comments":{"data":{"714911698525510":{"id":"714911698525510","from":{"id":"100003759697108","name":"Lê Văn Thành"},"message":"mang ít thui bạn ak","can_remove":false,"created_time":"2013-09-06T06:41:33+0000","like_count":1,"user_likes":false},"714911748525505":{"id":"714911748525505","from":{"id":"100003759697108","name":"Lê Văn Thành"},"message":"mang bột canh mà ăn thôi","can_remove":false,"created_time":"2013-09-06T06:41:44+0000","like_count":1,"user_likes":false},"714911915192155":{"id":"714911915192155","from":{"id":"100002805246239","name":"Hoàng Hiếu"},"message":"mang ít là mang những gi đồ dùng sinh hoạt cá nhân à bạn","can_remove":false,"created_time":"2013-09-06T06:42:15+0000","like_count":0,"user_likes":false},"714912248525455":{"id":"714912248525455","from":{"id":"100003759697108","name":"Lê Văn Thành"},"message":"bạn đi du học hay đi ld","can_remove":false,"created_time":"2013-09-06T06:44:17+0000","like_count":1,"user_likes":false},"714912295192117":{"id":"714912295192117","from":{"id":"100002805246239","name":"Hoàng Hiếu"},"message":"Du học ban à","can_remove":false,"created_time":"2013-09-06T06:44:34+0000","like_count":0,"user_likes":false},"714912455192101":{"id":"714912455192101","from":{"id":"100003759697108","name":"Lê Văn Thành"},"message":"vậy ak du học thì mình k biết thế nào mình đi ld thì mình biết mang j thoii","can_remove":false,"created_time":"2013-09-06T06:45:14+0000","like_count":0,"user_likes":false},"714912505192096":{"id":"714912505192096","from":{"id":"100003759697108","name":"Lê Văn Thành"},"message":"du học chắc mang nhiều hơn mình","can_remove":false,"created_time":"2013-09-06T06:45:26+0000","like_count":0,"user_likes":false},"714912581858755":{"id":"714912581858755","from":{"id":"100002805246239","name":"Hoàng Hiếu"},"message":"uhm đồ dùng sinh hoat cá nhân thì mua ở viet nam khoe hơn bạn nhỉ, mình chưa biết tiếng :D","can_remove":false,"created_time":"2013-09-06T06:46:00+0000","like_count":0,"user_likes":false},"714912701858743":{"id":"714912701858743","from":{"id":"100003759697108","name":"Lê Văn Thành"},"message":"cái này thì cũng tuỳ mà ra cửa hàng mua j thì nó có giá rui lên mình k quan trọng","can_remove":false,"created_time":"2013-09-06T06:46:51+0000","like_count":0,"user_likes":false},"714912771858736":{"id":"714912771858736","from":{"id":"100003759697108","name":"Lê Văn Thành"},"message":"bên này cũng k thiếu thứ j cả","can_remove":false,"created_time":"2013-09-06T06:47:02+0000","like_count":0,"user_likes":false},"714912878525392":{"id":"714912878525392","from":{"id":"100003759697108","name":"Lê Văn Thành"},"message":"dầu gội, thuôc đánh răng xà phòng có hết","can_remove":false,"created_time":"2013-09-06T06:47:31+0000","like_count":0,"user_likes":false},"714913025192044":{"id":"714913025192044","from":{"id":"100003759697108","name":"Lê Văn Thành"},"message":"bạn chưa quen thì lên mang 1 ít đi dùng đc 2 3 tuần quen là biết hết thui mà","can_remove":false,"created_time":"2013-09-06T06:48:09+0000","like_count":0,"user_likes":false},"714913165192030":{"id":"714913165192030","from":{"id":"100002805246239","name":"Hoàng Hiếu"},"message":"uhm sag do phai 2 thang sau minh ma di lam` ko biet 20 trieu. mang sag co du? ko","can_remove":false,"created_time":"2013-09-06T06:49:06+0000","like_count":0,"user_likes":false},"714913285192018":{"id":"714913285192018","from":{"id":"100003759697108","name":"Lê Văn Thành"},"message":"cái này thì mjnh k biết vì mình k đi du học bạn tìm xem có ai đi du học k bạn hỏi","can_remove":false,"created_time":"2013-09-06T06:49:56+0000","like_count":1,"user_likes":false},"714913851858628":{"id":"714913851858628","from":{"id":"100002805246239","name":"Hoàng Hiếu"},"message":"uhm thak ban nhé","can_remove":false,"created_time":"2013-09-06T06:52:16+0000","like_count":0,"user_likes":false},"714914878525192":{"id":"714914878525192","from":{"id":"1341670471","name":"An Nguyen"},"message":"Bạn đồ ăn đi e, vì đồ ăn bên nhật mắc. Như mì gói, lạp xưởng.. Dạng đồ khô đó, đồ hộp nữa.. Tháng 10 là chuẩn bị se lạnh, e phải mang đồ ấm , k thì qua đây mua rất mắc.. Mang giày pata đi nhé vì đi bộ nhiều","can_remove":false,"created_time":"2013-09-06T06:56:46+0000","like_count":1,"user_likes":false},"714915278525152":{"id":"714915278525152","from":{"id":"1341670471","name":"An Nguyen"},"message":"E mang đc mấy kí biết k??  Mang đúng số kí. Còn xách tay e cứ mang theo khả năng \" lực sĩ\" của mình nhé.. Mang nhiều càng tốt cho e vì đỡ tốn tiền một số thứ","can_remove":false,"created_time":"2013-09-06T06:58:45+0000","like_count":1,"user_likes":false},"714916408525039":{"id":"714916408525039","from":{"id":"100002805246239","name":"Hoàng Hiếu"},"message":"giay pata la giay gi thế chi An Nguyen e cũng chưa biết mang được mấy kí , còn xách tay thì lực sĩ thoải mái :)) mà mang ở tay hay đeo ba lô hả chị để em còn biết","message_tags":[{"id":"1341670471","name":"An Nguyen","type":"user","offset":29,"length":9}],"can_remove":false,"created_time":"2013-09-06T07:02:53+0000","like_count":0,"user_likes":false},"714916935191653":{"id":"714916935191653","from":{"id":"1341670471","name":"An Nguyen"},"message":"Giày thể thao đó, dạng cho chạy bộ đó.","can_remove":false,"created_time":"2013-09-06T07:05:47+0000","like_count":0,"user_likes":false},"714917115191635":{"id":"714917115191635","from":{"id":"1341670471","name":"An Nguyen"},"message":"Xách tay là dạng hành lí e đem theo lên ng. Nên dùng j cũng dc","can_remove":false,"created_time":"2013-09-06T07:06:23+0000","like_count":0,"user_likes":false},"714917305191616":{"id":"714917305191616","from":{"id":"100002805246239","name":"Hoàng Hiếu"},"message":"An Nguyen vừa xách tay vừa mang ba lô có được ko","message_tags":[{"id":"1341670471","name":"An Nguyen","type":"user","offset":0,"length":9}],"can_remove":false,"created_time":"2013-09-06T07:07:04+0000","like_count":0,"user_likes":false},"714918218524858":{"id":"714918218524858","from":{"id":"1341670471","name":"An Nguyen"},"message":"Đc e ah. Một vai đeo. Hai tay xách cũng đc :)","can_remove":false,"created_time":"2013-09-06T07:09:19+0000","like_count":1,"user_likes":false},"714918368524843":{"id":"714918368524843","from":{"id":"1341670471","name":"An Nguyen"},"message":"Chất lỏng thì e nhớ để kí gửi..","can_remove":false,"created_time":"2013-09-06T07:10:09+0000","like_count":1,"user_likes":false},"714918661858147":{"id":"714918661858147","from":{"id":"100002805246239","name":"Hoàng Hiếu"},"message":"An Nguyen ok thank chi có gì sang đó mời chị đi uống nước hehe","message_tags":[{"id":"1341670471","name":"An Nguyen","type":"user","offset":0,"length":9}],"can_remove":false,"created_time":"2013-09-06T07:11:27+0000","like_count":0,"user_likes":false},"714918748524805":{"id":"714918748524805","from":{"id":"1341670471","name":"An Nguyen"},"message":"Nên mang theo gia vị Vn để mà còn nấu ăn cho dễ neu chưa quen ăn đồ nhật , mà muốn rẻ cũng toàn ăn cơm hộp. Chủ yếu mang mì gói, phở ăn liền.. Để có khi làm biếng mà có cái nấu ăn liền","can_remove":false,"created_time":"2013-09-06T07:11:54+0000","like_count":1,"user_likes":false},"714919088524771":{"id":"714919088524771","from":{"id":"100002805246239","name":"Hoàng Hiếu"},"message":"An Nguyen dạ chi em thì đễ nuôi nên khẩu vị sao cũng ăn được, e chưa biết nấu ăn :((","message_tags":[{"id":"1341670471","name":"An Nguyen","type":"user","offset":0,"length":9}],"can_remove":false,"created_time":"2013-09-06T07:13:35+0000","like_count":0,"user_likes":false},"714919175191429":{"id":"714919175191429","from":{"id":"1341670471","name":"An Nguyen"},"message":"Mời j. Biết có cùng tp k mà mời. E đi đâu, c ở osaka. Nói mời đi uông nc bên nhật k phải dễ đâu e nhé,đg xá thì k rành , vả lại hiện jo c ở Vn, qua tết c mới về lẠi","can_remove":false,"created_time":"2013-09-06T07:13:39+0000","like_count":1,"user_likes":false},"714919658524714":{"id":"714919658524714","from":{"id":"100002805246239","name":"Hoàng Hiếu"},"message":"dạ chi nà em học ở trường HỌC PHÍ\n\nYohan Waseda Foreign Language School \n\n　　2-9-13 Hyakunin-cho, Shinjuku-Ku, Tokyo, JAPAN","can_remove":false,"created_time":"2013-09-06T07:15:53+0000","like_count":0,"user_likes":false},"714919698524710":{"id":"714919698524710","from":{"id":"100002805246239","name":"Hoàng Hiếu"},"message":"chỗ em với chị xa ko","can_remove":false,"created_time":"2013-09-06T07:16:09+0000","like_count":0,"user_likes":false},"714919838524696":{"id":"714919838524696","from":{"id":"100002805246239","name":"Hoàng Hiếu"},"message":"em đi chơi với bạn có gì nc sau chị nhá, chào chị chúc chị buổi chiều tốt  lành An Nguyen","message_tags":[{"id":"1341670471","name":"An Nguyen","type":"user","offset":80,"length":9}],"can_remove":false,"created_time":"2013-09-06T07:16:48+0000","like_count":0,"user_likes":false},"714920098524670":{"id":"714920098524670","from":{"id":"1341670471","name":"An Nguyen"},"message":"Xa chứ e. Phải đi bằng tàu siêu tốc. Nên c mới kêu e mang mì gói vi ăn ngoai cung mắc, 20tr của e hai tháng k đủ tiền ăn 1 tháng nếu cứ ăn đồ nhật. Chúc e đi chơi vui vẻ","can_remove":false,"created_time":"2013-09-06T07:18:17+0000","like_count":0,"user_likes":false},"714920228524657":{"id":"714920228524657","from":{"id":"100003759697108","name":"Lê Văn Thành"},"message":"thì mình đặt đồ việt đc mà bạn","can_remove":false,"created_time":"2013-09-06T07:18:49+0000","like_count":0,"user_likes":false},"714920638524616":{"id":"714920638524616","from":{"id":"1341670471","name":"An Nguyen"},"message":"Nhưng dù sao cũng mắc hơn mang từ vn qua bạn ah","can_remove":false,"created_time":"2013-09-06T07:19:53+0000","like_count":0,"user_likes":false},"714920835191263":{"id":"714920835191263","from":{"id":"1341670471","name":"An Nguyen"},"message":"Bạn đó mang có 20tr qua thôi, k tiết kiệm thì k đủ sống đâu","can_remove":false,"created_time":"2013-09-06T07:20:55+0000","like_count":0,"user_likes":false},"714923811857632":{"id":"714923811857632","from":{"id":"100003759697108","name":"Lê Văn Thành"},"message":"uo","can_remove":false,"created_time":"2013-09-06T07:31:33+0000","like_count":0,"user_likes":false},"714923825190964":{"id":"714923825190964","from":{"id":"100003759697108","name":"Lê Văn Thành"},"message":"uk","can_remove":false,"created_time":"2013-09-06T07:31:35+0000","like_count":0,"user_likes":false},"714923855190961":{"id":"714923855190961","from":{"id":"100003759697108","name":"Lê Văn Thành"},"message":"minh thi k biet","can_remove":false,"created_time":"2013-09-06T07:31:42+0000","like_count":0,"user_likes":false},"714925871857426":{"id":"714925871857426","from":{"id":"100003155380603","name":"Khuong Pham"},"message":"cho minh hoi co the mang nuoc mam nen may bay dc ko cac tien boi?","can_remove":false,"created_time":"2013-09-06T07:39:57+0000","like_count":1,"user_likes":false},"714952668521413":{"id":"714952668521413","from":{"id":"1341670471","name":"An Nguyen"},"message":"Mang nc mắm đc nha b, nhớ gói thật kĩ . Mình còn mang cả mắm ruốc :)\nMang gao chi cho nặng chiếm nhìu trọng lượng, mang cho lắm rồi làm biếng nấu cơm.. Bên đây cũng có mấy Trang ưeb bán gạo rẻ.","can_remove":false,"created_time":"2013-09-06T09:19:57+0000","like_count":0,"user_likes":false},"714983605184986":{"id":"714983605184986","from":{"id":"100000024629190","name":"Thanh Ngọc"},"message":"mang đồ dùng cá nhân, gia vị nấu ăn, quần áo ấm, và càng nhiều tiền càng tốt.  hie hie","can_remove":false,"created_time":"2013-09-06T11:00:00+0000","like_count":0,"user_likes":false},"714985195184827":{"id":"714985195184827","from":{"id":"100003759697108","name":"Lê Văn Thành"},"message":"mang sang cho bạn Thanh Ngoc vay đó hjhj","can_remove":false,"created_time":"2013-09-06T11:04:40+0000","like_count":1,"user_likes":false},"714987928517887":{"id":"714987928517887","from":{"id":"100000024629190","name":"Thanh Ngọc"},"message":"tớ cần vay khoảng 100man. bạn nào cho tớ vay k.  :v","can_remove":false,"created_time":"2013-09-06T11:13:30+0000","like_count":0,"user_likes":false},"714997085183638":{"id":"714997085183638","from":{"id":"100003759697108","name":"Lê Văn Thành"},"message":"có đợi tớ cướp ngân hàng nha thì tơ cho vay","can_remove":false,"created_time":"2013-09-06T11:42:03+0000","like_count":0,"user_likes":false},"715094641840549":{"id":"715094641840549","from":{"id":"100002805246239","name":"Hoàng Hiếu"},"message":"uhm cảm ơn cả nhà nà, mình đang lo nhoe vì mình chưa biết tiếng, chữ cái cũng chưa thuộc luôn ;d","can_remove":false,"created_time":"2013-09-06T15:52:33+0000","like_count":0,"user_likes":false},"715095551840458":{"id":"715095551840458","from":{"id":"1341670471","name":"An Nguyen"},"message":"Vậy thì 20tr k đủ đâu nha e. Mấy bạn biết tiếng rành còn chưa tìm đc việc. Chúc e may mắn","can_remove":false,"created_time":"2013-09-06T15:55:02+0000","like_count":0,"user_likes":false},"715096128507067":{"id":"715096128507067","from":{"id":"100002805246239","name":"Hoàng Hiếu"},"message":"e cũng ko biết e có thằng anh ở bên đó 10 năm sang nói 5 ngày là đi làm mà làm viêc xuyên đêm nà","can_remove":false,"created_time":"2013-09-06T15:56:21+0000","like_count":0,"user_likes":false},"715097538506926":{"id":"715097538506926","from":{"id":"1341670471","name":"An Nguyen"},"message":"Có mấy bạn ở 3-4 tháng còn k có việc . Tuỳ theo e đi mà có ng quen giúp thì may ra còn hi vọng, qua đó k quen ai thì tư bơi hơi đuối e nhé.. E phải nghĩ tới tình huống khó khăn nhất mà còn chuẩn bị, chứ đừng nghĩ tới niềm hi vọng Nta \" ban \" cho mình.. Nghe cách nói , thấy e chủ yếu qua đi làm chứ k đi học","can_remove":false,"created_time":"2013-09-06T15:59:55+0000","like_count":0,"user_likes":false}},"paging":{"cursors":{"after":"NzE0OTExNjk4NTI1NTEw","before":"NzE0OTExNjk4NTI1NTEw"},"next":"https://graph.facebook.com/229244010425617_714911418525538/comments?limit=1&summary=1&after=NzE0OTExNjk4NTI1NTEw"},"summary":{"order":"chronological","total_count":50}}}