{"id":"229244010425617_714928661857147","type":"photo","object_id":"159404057596308","picture":"https://fbcdn-photos-d-a.akamaihd.net/hphotos-ak-prn2/t1.0-0/971973_159404057596308_1426793668_s.jpg","link":"https://www.facebook.com/photo.php?fbid=159404057596308&set=gm.714928661857147&type=1&relevant_count=1","from":{"id":"100005801442456","name":"An Nguyen"},"message":"Nhìn tranh và hãy đoán xem nghĩa câu \"口を出す\" ý là gì? ( những bạn như Anh Mai PB thì k đc phép trả lời câu hỏi trên để nhường phần cho các khán giả khác)","created_time":"2013-09-06T07:54:14+0000","updated_time":"2013-09-07T07:06:09+0000","likes":{"data":{"1843294954":{"id":"1843294954","name":"Nguyen Thanh Van"},"1400326262":{"id":"1400326262","name":"Matsumoto Soutarou"},"100002928863986":{"id":"100002928863986","name":"Cườngg CR"},"100003011417151":{"id":"100003011417151","name":"Hue Kim"},"100003702043787":{"id":"100003702043787","name":"Hằng Hanu"},"100000359762118":{"id":"100000359762118","name":"Mi Tra"},"100002959594535":{"id":"100002959594535","name":"Nguyen Ngoc Anh"},"100000045271667":{"id":"100000045271667","name":"Nam Thai Nguyen"},"100005801442456":{"id":"100005801442456","name":"An Nguyen"},"100005222472531":{"id":"100005222472531","name":"Tuấn Anhh"},"100001416272263":{"id":"100001416272263","name":"Mai PB"},"100001458099624":{"id":"100001458099624","name":"Kham Pha"}},"paging":{"cursors":{"after":"MTg0MzI5NDk1NA==","before":"MTg0MzI5NDk1NA=="},"next":"https://graph.facebook.com/229244010425617_714928661857147/likes?limit=1&summary=1&after=MTg0MzI5NDk1NA%3D%3D"},"summary":{"total_count":12}},"comments":{"data":{"714928985190448":{"id":"714928985190448","from":{"id":"100001458099624","name":"Kham Pha"},"message":"Anh Mai PB bị mem ban nick rồi :))","message_tags":[{"id":"100001416272263","name":"Mai PB","type":"user","offset":4,"length":6}],"can_remove":false,"created_time":"2013-09-06T07:55:35+0000","like_count":0,"user_likes":false},"714930168523663":{"id":"714930168523663","from":{"id":"100002508122689","name":"Vũ Mạnh Tuấn"},"message":"Như kiểu im miệng đi ( vì nói qúa nhiều )","can_remove":false,"created_time":"2013-09-06T07:59:26+0000","like_count":0,"user_likes":false},"714930291856984":{"id":"714930291856984","from":{"id":"100001416272263","name":"Mai PB"},"message":"Đương nhiên rồi. :-)","can_remove":false,"created_time":"2013-09-06T07:59:39+0000","like_count":1,"user_likes":false},"714930465190300":{"id":"714930465190300","from":{"id":"100005801442456","name":"An Nguyen"},"message":"Ten...SAI!","can_remove":false,"created_time":"2013-09-06T07:59:59+0000","like_count":0,"user_likes":false},"714930525190294":{"id":"714930525190294","from":{"id":"100001458099624","name":"Kham Pha"},"message":"Vũ Mạnh Tuấn ko phải đâu","message_tags":[{"id":"100002508122689","name":"Vũ Mạnh Tuấn","type":"user","offset":0,"length":12}],"can_remove":false,"created_time":"2013-09-06T08:00:15+0000","like_count":0,"user_likes":false},"714931025190244":{"id":"714931025190244","from":{"id":"1042936079","name":"Bui Dung"},"message":"Nói leo :)","can_remove":false,"created_time":"2013-09-06T08:02:27+0000","like_count":0,"user_likes":false},"714931081856905":{"id":"714931081856905","from":{"id":"100005801442456","name":"An Nguyen"},"message":"Ten...SAI","can_remove":false,"created_time":"2013-09-06T08:02:51+0000","like_count":0,"user_likes":false},"714931221856891":{"id":"714931221856891","from":{"id":"1845000884","name":"Trieu Thi Kieu Oanh"},"message":"không được chõ mõm vào đây, ra chỗ khác kiếm cơm đê!","can_remove":false,"created_time":"2013-09-06T08:03:35+0000","like_count":0,"user_likes":false},"714931235190223":{"id":"714931235190223","from":{"id":"100004169731179","name":"Hường Hoàng"},"message":"nói chen vào,cắt ngang,mói leo ,quấy nhiểu desu ka ?","can_remove":false,"created_time":"2013-09-06T08:03:40+0000","like_count":0,"user_likes":false},"714931825190164":{"id":"714931825190164","from":{"id":"100002508122689","name":"Vũ Mạnh Tuấn"},"message":"Chõ mũi vào chuyện của người khác.  Ngược nghĩa là kuchi wo dasanai  Dúng k ạ","can_remove":false,"created_time":"2013-09-06T08:06:10+0000","like_count":0,"user_likes":false},"714931845190162":{"id":"714931845190162","from":{"id":"100005801442456","name":"An Nguyen"},"message":"頼まれていないのに、関係がないの横から意見を言うーkhông khiến mà cứ bày đặt Tài lanh chỉ mỏ vào...mọi người dùng từ điển tra cũng k sao nhưng cố Tranh luận đoán như vây đảm bảo sẽ khó mà quên đc.coi như làm 1 sân chơi vui đi","can_remove":false,"created_time":"2013-09-06T08:06:21+0000","like_count":3,"user_likes":false},"714986785184668":{"id":"714986785184668","from":{"id":"100000381394367","name":"Thành Nguyễn"},"message":"Quan kỳ bất ngữ chân quân tử.","can_remove":false,"created_time":"2013-09-06T11:10:06+0000","like_count":0,"user_likes":false},"714991181850895":{"id":"714991181850895","from":{"id":"100004340104072","name":"Vì Em Là Nắng"},"message":"Nhỡ mồm","can_remove":false,"created_time":"2013-09-06T11:22:49+0000","like_count":0,"user_likes":false},"714995415183805":{"id":"714995415183805","from":{"id":"100003011417151","name":"Hue Kim"},"message":"noi cho~ mom~ vao","can_remove":false,"created_time":"2013-09-06T11:36:05+0000","like_count":0,"user_likes":false},"715035458513134":{"id":"715035458513134","from":{"id":"100000368603703","name":"Truc Ly Phan"},"message":"mỡ mồm nhưng chắc có nghĩa là ko tốt","can_remove":false,"created_time":"2013-09-06T13:28:26+0000","like_count":0,"user_likes":false},"715518068464873":{"id":"715518068464873","from":{"id":"100000687662713","name":"Vu Thi Man"},"message":"lo mom?","can_remove":false,"created_time":"2013-09-07T07:06:09+0000","like_count":0,"user_likes":false}},"paging":{"cursors":{"after":"NzE0OTI4OTg1MTkwNDQ4","before":"NzE0OTI4OTg1MTkwNDQ4"},"next":"https://graph.facebook.com/229244010425617_714928661857147/comments?limit=1&summary=1&after=NzE0OTI4OTg1MTkwNDQ4"},"summary":{"order":"chronological","total_count":16}}}