{"id":"229244010425617_715074388509241","type":"video","picture":"https://fbexternal-a.akamaihd.net/safe_image.php?d=AQAqIMGkTvqMsBTp&w=130&h=130&url=http%3A%2F%2Fi1.ytimg.com%2Fvi%2FSExEJ2xTz8Y%2Fhqdefault.jpg%3Ffeature%3Dog","link":"http://www.youtube.com/watch?v=SExEJ2xTz8Y","source":"http://www.youtube.com/v/SExEJ2xTz8Y?version=3&autohide=1&autoplay=1","from":{"id":"100001416272263","name":"Mai PB"},"message":"Hay không các mem? http://www.youtube.com/watch?v=SExEJ2xTz8Y","created_time":"2013-09-06T15:08:02+0000","updated_time":"2013-09-06T15:37:40+0000","likes":{"data":{"100004642933206":{"id":"100004642933206","name":"Aloha Aloha"},"711883396":{"id":"711883396","name":"Kazuma Hoàng"},"100000034711710":{"id":"100000034711710","name":"Anh Vu Nguyen"},"100000110601676":{"id":"100000110601676","name":"장미"},"100001723862714":{"id":"100001723862714","name":"Bo Bien Vang"},"100002059771738":{"id":"100002059771738","name":"Yen Hai"},"100003011417151":{"id":"100003011417151","name":"Hue Kim"}},"paging":{"cursors":{"after":"MTAwMDA0NjQyOTMzMjA2","before":"MTAwMDA0NjQyOTMzMjA2"},"next":"https://graph.facebook.com/229244010425617_715074388509241/likes?limit=1&summary=1&after=MTAwMDA0NjQyOTMzMjA2"},"summary":{"total_count":8}},"comments":{"data":{"715077588508921":{"id":"715077588508921","from":{"id":"100003011417151","name":"Hue Kim"},"message":"bài này đã từng nghe rồi, khá hay, giờ nghe lại vẫn thấy hay, arigatou anh Mai PB nhé ^^","message_tags":[{"id":"100001416272263","name":"Mai PB","type":"user","offset":85,"length":6}],"can_remove":false,"created_time":"2013-09-06T15:12:30+0000","like_count":1,"user_likes":false},"715087511841262":{"id":"715087511841262","from":{"id":"100001723862714","name":"Bo Bien Vang"},"message":"mình lại thích nghe giọng ca của người post bài cơ. ca này hơi khó chữa nhỉ? :v há há há há.","can_remove":false,"created_time":"2013-09-06T15:35:22+0000","like_count":1,"user_likes":false},"715088451841168":{"id":"715088451841168","from":{"id":"100003011417151","name":"Hue Kim"},"message":"mình ủng hộ","can_remove":false,"created_time":"2013-09-06T15:37:40+0000","like_count":0,"user_likes":false}},"paging":{"cursors":{"after":"NzE1MDc3NTg4NTA4OTIx","before":"NzE1MDc3NTg4NTA4OTIx"},"next":"https://graph.facebook.com/229244010425617_715074388509241/comments?limit=1&summary=1&after=NzE1MDc3NTg4NTA4OTIx"},"summary":{"order":"chronological","total_count":3}}}