{"id":"229244010425617_715020075181339","type":"status","from":{"id":"100000687662713","name":"Vu Thi Man"},"message":"Cả ngày hôm nay, đi Osaka, mỏi hết cả cẳng, đói hoa cả mắt. Tranh thủ lúc tranh tối tranh sáng, dựa cột đứng ngặm 2 cái bánh ngắm thiên hạ tý. Sau 1 hồi ngứa con mắt bên trái, đỏ con mắt bên phải, em tổng kết lại mấy dòng dưới đây về thời trang của Nhật. \nTrong cái bản nhạc ồn ào, vội vã ấy thời trang là nổi bật nhất. Đúng là rất đa dạng và phong phú nhưng vẫn có cái đặc trưng riêng rất Nhật nhé. Tao nhã, thanh lịch, cổ điển, hiện đại, tiểu thư, bụi bặm, tối giản, rườm rà, kín đáo, sexy, kỳ bí, kinh dị và có những kiểu chẳng biết gọi nó là cái gì nữa. Ví dụ nhé: dưới mặc váy ngắn nhưng trên áo khoác, hoặc trên mặc áo ngắn tay, dưới vẫn đi tất mùa đông. Rồi còn kiểu này nữa chứ, không biết có thành xu hướng không nhưng mình thấy thiên hạ không kể tuổi tác, giới tính, địa vị, công việc, dáng người vẫn đang mặc: đó là mặc quần áo, hoặc váy nhưng trên lưng lại khoác 1 chiếc áo len (khoác chứ không phải mặc) hai tay áo len thì buộc lên cổ. Thật đúng là: Thời trang ở Nhật.","created_time":"2013-09-06T12:49:41+0000","updated_time":"2013-09-07T07:46:53+0000","likes":{"data":{"100004270681738":{"id":"100004270681738","name":"Khánh Sakura"},"1717530880":{"id":"1717530880","name":"Triệu Việt Cường"},"100000240706191":{"id":"100000240706191","name":"U' Bồng Bột"},"1416265619":{"id":"1416265619","name":"Starwar Bbj"},"100004041794244":{"id":"100004041794244","name":"Watanuki Kimihiro"},"100001416272263":{"id":"100001416272263","name":"Mai PB"},"100001458099624":{"id":"100001458099624","name":"Kham Pha"},"100001731744647":{"id":"100001731744647","name":"Niềm Vui"},"100004097774156":{"id":"100004097774156","name":"Hoai Bee"}},"paging":{"cursors":{"after":"MTAwMDA0MjcwNjgxNzM4","before":"MTAwMDA0MjcwNjgxNzM4"},"next":"https://graph.facebook.com/229244010425617_715020075181339/likes?limit=1&summary=1&after=MTAwMDA0MjcwNjgxNzM4"},"summary":{"total_count":9}},"comments":{"data":{"715040025179344":{"id":"715040025179344","from":{"id":"100001458099624","name":"Kham Pha"},"message":"Mẹ mình sang Nhật chơi cũng nói hệt như bạn :))","can_remove":false,"created_time":"2013-09-06T13:40:24+0000","like_count":2,"user_likes":false},"715046551845358":{"id":"715046551845358","from":{"id":"100001416272263","name":"Mai PB"},"message":"Phụ nữ thì ăn mặc quá đẹp, nam giới thì như hâm ấy. Bao nhiêu năm nay chưa bao giờ thôi suy nghĩ này.","can_remove":false,"created_time":"2013-09-06T13:59:51+0000","like_count":3,"user_likes":false},"715064281843585":{"id":"715064281843585","from":{"id":"100000042138129","name":"Duong David"},"message":"Liệu sang đấy ăn mặc đẹp đẹp zai tí có đc mấy em Nhật để ý ko nhỉ o.O","can_remove":false,"created_time":"2013-09-06T14:44:13+0000","like_count":0,"user_likes":false},"715516645131682":{"id":"715516645131682","from":{"id":"100000687662713","name":"Vu Thi Man"},"message":"Chua biet la co em Nhat nao k, n the nao cung co khoi em VN de y day Duong David ah","message_tags":[{"id":"100000042138129","name":"Duong David","type":"user","offset":69,"length":11}],"can_remove":false,"created_time":"2013-09-07T07:01:13+0000","like_count":1,"user_likes":false},"715527971797216":{"id":"715527971797216","from":{"id":"100000042138129","name":"Duong David"},"message":";))","can_remove":false,"created_time":"2013-09-07T07:46:53+0000","like_count":0,"user_likes":false}},"paging":{"cursors":{"after":"NzE1MDQwMDI1MTc5MzQ0","before":"NzE1MDQwMDI1MTc5MzQ0"},"next":"https://graph.facebook.com/229244010425617_715020075181339/comments?limit=1&summary=1&after=NzE1MDQwMDI1MTc5MzQ0"},"summary":{"order":"chronological","total_count":5}}}