{"id":"229244010425617_715118005171546","type":"link","picture":"https://fbexternal-a.akamaihd.net/safe_image.php?d=AQDFD6RsNAlA6KOO&w=154&h=154&url=https%3A%2F%2Fsphotos-b-mxp.xx.fbcdn.net%2Fhphotos-prn1%2F61412_185350121640614_723254820_n.png","link":"http://jpc.vietfuji.com/threads/project-dich-sach-nihongo-note.40/","from":{"id":"100002508122689","name":"Vũ Mạnh Tuấn"},"message":"NIHONGO NOTES QUYỂN 1 - cách nói chuyện và cách sống ở Nhật\nTác giả: Osamu Mizutani, Nobuko Mizutani\n\n[ Cuốn sách được viết bằng tiếng anh, sau được 1 người có tâm huyết dịch ra tiếng việt để nhiều người Việt đọc được hơn :D ]\nMong mọi người thu được nhiều lợi ích khi đọc các bài viết này .\nCác bài viết có ở : http://jpc.vietfuji.com/threads/project-dich-sach-nihongo-note.40/\n\nLời giới thiệu :\n\nĐây là một quyển sách tập hợp 70 bài báo nhỏ, lần đầu tiên xuất hiện trên tạp chí The Japan Times dưới cái tên \"Nihongo Notes\", bắt đầu từ 1/8/1976 đến 27/11/1977, đưa ra một loạt những cách diễn đạt thông dụng trong cuộc sống hàng ngày.\nNhững bài báo này được thiết kế nhằm giải thích một vài điểm trong tiếng Nhật mà người nước ngoài thường cảm thấy khó khi học, nhưng một khi được giải thích rõ ràng thì sẽ giúp họ hiểu tiếng Nhật hơn. Ban đầu chúng tôi hướng đến đối tượng là những người học tiếng Nhật như một ngoại ngữ, nhưng chắc chắn những người bản ngữ cũng sẽ tìm thấy nhiều thứ thú vị trong quyển sách này, vì nó mang đến cho họ một cơ hội để nhìn tiếng mẹ đẻ dưới một góc độ hoàn toàn mới mẻ. \nNhững bài báo nhỏ này tập trung chủ yếu vào cách sử dụng trong thực tế của nhiều lối diễn đạt thông dụng, hơn là tập trung vào cấu trúc của chúng. Chúng tôi tin rằng, để giao tiếp một ngoại ngữ tốt hơn, thì việc hiểu rõ một câu nói được sử dụng thế nào và chức năng của nó trong hội thoại cũng quan trọng không kém việc phân tích ngữ pháp của nó. Khía cạnh ngữ pháp của ngôn ngữ nói trong tiếng Nhật được giải thích trong quyển \"An Introduction to Modern Japanese\" , cũng được xuất bản vào tháng Chín năm nay. Đọc hai cuốn sách này cùng lúc sẽ cung cấp cho các bạn một kiến thức toàn diện về tiếng Nhật ngày nay.\nQuyển sách này khá là nhỏ gọn, nhưng mong muốn giúp mọi người có thể giao tiếp tốt hơn - động lực đã thôi thúc chúng tôi viết quyển sách này - lại rất lớn. \nTháng 11, năm 1977\nOsamu và Nobuko Mizutani","created_time":"2013-09-06T16:53:07+0000","updated_time":"2013-09-07T04:28:15+0000","likes":{"data":{"1488695633":{"id":"1488695633","name":"Nguyễn Phương Khánh Linh"},"100003950005025":{"id":"100003950005025","name":"Tara Cobra"},"100003918976454":{"id":"100003918976454","name":"Mai Hoa"},"100001557279247":{"id":"100001557279247","name":"Ngo Dinh Le Diem"},"100003321786144":{"id":"100003321786144","name":"Baloon Bambootatoo"},"711491571":{"id":"711491571","name":"Graziani Inaizarg"},"100001458099624":{"id":"100001458099624","name":"Kham Pha"},"1264767242":{"id":"1264767242","name":"Anh Duc"},"100003265320558":{"id":"100003265320558","name":"Nguyễn Huyền"},"1122379216":{"id":"1122379216","name":"Hà Ngô"},"100003055356509":{"id":"100003055356509","name":"Thuan Nguyen"},"100001508739620":{"id":"100001508739620","name":"Lê Ngọc Hoàn"},"100001051668011":{"id":"100001051668011","name":"Mạnh Hùng"},"100002837878520":{"id":"100002837878520","name":"Cu Shejin"},"100003694868974":{"id":"100003694868974","name":"Hổ Con Đáng Yêu"},"100001231404357":{"id":"100001231404357","name":"Quoc Anh"},"100005982402082":{"id":"100005982402082","name":"Hcm Ilu"},"100003822395163":{"id":"100003822395163","name":"Takeda Shingen"}},"paging":{"cursors":{"after":"MTQ4ODY5NTYzMw==","before":"MTQ4ODY5NTYzMw=="},"next":"https://graph.facebook.com/229244010425617_715118005171546/likes?limit=1&summary=1&after=MTQ4ODY5NTYzMw%3D%3D"},"summary":{"total_count":18}},"comments":{"data":{"715122138504466":{"id":"715122138504466","from":{"id":"100000328742646","name":"Trần Giáp"},"message":"k biết bên vietfuji này có phải là ng dịch ở trang này k : https://m.facebook.com/?_rdr#!/profile.php?id=184170521758574&__user=100000328742646","can_remove":false,"created_time":"2013-09-06T17:02:49+0000","like_count":1,"user_likes":false},"715122515171095":{"id":"715122515171095","from":{"id":"100002508122689","name":"Vũ Mạnh Tuấn"},"message":"Trần Giáp: đúng r cậu ạ :D","message_tags":[{"id":"100000328742646","name":"Trần Giáp","type":"user","offset":0,"length":9}],"can_remove":false,"created_time":"2013-09-06T17:03:51+0000","like_count":1,"user_likes":false},"715418071808206":{"id":"715418071808206","from":{"id":"100004473882508","name":"Anh Va Em"},"message":"[Project dịch sách] Nihongo Note jpc.vietfuji.com","can_remove":false,"created_time":"2013-09-07T04:28:15+0000","like_count":1,"user_likes":false}},"paging":{"cursors":{"after":"NzE1MTIyMTM4NTA0NDY2","before":"NzE1MTIyMTM4NTA0NDY2"},"next":"https://graph.facebook.com/229244010425617_715118005171546/comments?limit=1&summary=1&after=NzE1MTIyMTM4NTA0NDY2"},"summary":{"order":"chronological","total_count":3}}}