{"id":"229244010425617_716197651730248","type":"link","picture":"https://fbexternal-a.akamaihd.net/safe_image.php?d=AQDCCyjckxoEBc-3&w=154&h=154&url=https%3A%2F%2Ftokyo2020.jp%2Fen%2Fpromotion%2Fimages%2Fbrochure_2_1.jpg","link":"https://tokyo2020.jp/en/promotion/","from":{"id":"100001416272263","name":"Mai PB"},"message":"Chúc mừng Tokyo trở thành chủ nhà của Olympics Games 2020, 7 năm nữa. Tuy nhiên có một sự thật là không phải người Nhật nào cũng tán thành chuyện đăng cai này. Tiền cho Olympics lẽ ra nên dùng cho việc tái thiết Fukushima, nơi bị ảnh hưởng phóng xạ từ tai nạn nhà máy điện nguyên tử. Mình cũng nghĩ vậy. Tuy nhiên dù sao thì việc đăng cai này cũng tốt cho thế giới có cơ hội biết đến Nhật Bản và Tokyo nói riêng. Mọi người xem video quảng cáo cho Olympics của Tokyo ở đây. https://tokyo2020.jp/en/promotion/","created_time":"2013-09-08T05:14:22+0000","updated_time":"2013-09-09T23:47:24+0000","likes":{"data":{"100001754136107":{"id":"100001754136107","name":"Nguyễn Tuấn Vũ"},"100003209161756":{"id":"100003209161756","name":"Nguyễn Lê Thảo Quyên"},"100003216142531":{"id":"100003216142531","name":"Dudu Tròn"},"711491571":{"id":"711491571","name":"Graziani Inaizarg"},"1322880906":{"id":"1322880906","name":"Lê Thanh Hà"},"100003925443381":{"id":"100003925443381","name":"Minh Thọ Ngô"},"620134445":{"id":"620134445","name":"Anh Do"},"100001462797083":{"id":"100001462797083","name":"Tan Thanh"},"100003937342570":{"id":"100003937342570","name":"Oanh Thụn"},"100002959594535":{"id":"100002959594535","name":"Nguyen Ngoc Anh"},"100006336280628":{"id":"100006336280628","name":"Linh Diệu"},"100001546217296":{"id":"100001546217296","name":"Steve Giáp"},"100004088172713":{"id":"100004088172713","name":"Vuong Thao"},"100002754998000":{"id":"100002754998000","name":"Nguyen Duc"},"100004123327271":{"id":"100004123327271","name":"Nguyễn Phương"},"100004172081230":{"id":"100004172081230","name":"Thu Nga"},"100001639419018":{"id":"100001639419018","name":"Tiểu Rồng"},"100001594722256":{"id":"100001594722256","name":"Viết An Phạm"},"100001723862714":{"id":"100001723862714","name":"Bo Bien Vang"},"100006481303025":{"id":"100006481303025","name":"Mitsuru Hayashi"},"517300955":{"id":"517300955","name":"Duong Thuy Dinh"},"1146680551":{"id":"1146680551","name":"優しい なぁ"},"1295846007":{"id":"1295846007","name":"Hang Nga"},"100003011417151":{"id":"100003011417151","name":"Hue Kim"},"100001043265886":{"id":"100001043265886","name":"Nguyen Huy Thach"},"100004514621076":{"id":"100004514621076","name":"Hason Angle"},"100002425288918":{"id":"100002425288918","name":"Kira Chiến ND"},"100006368081099":{"id":"100006368081099","name":"Man Thu"},"100001458099624":{"id":"100001458099624","name":"Kham Pha"},"100004478832761":{"id":"100004478832761","name":"Thiên Trang"},"1821970083":{"id":"1821970083","name":"Nguyễn Mạnh Cường"},"100001637056893":{"id":"100001637056893","name":"Nhoc Coionline"},"100005571974356":{"id":"100005571974356","name":"Thẻ Gọi Quốc Tế"}},"paging":{"cursors":{"after":"MTAwMDAxNzU0MTM2MTA3","before":"MTAwMDAxNzU0MTM2MTA3"},"next":"https://graph.facebook.com/229244010425617_716197651730248/likes?limit=1&summary=1&after=MTAwMDAxNzU0MTM2MTA3"},"summary":{"total_count":33}},"comments":{"data":{"716216078395072":{"id":"716216078395072","from":{"id":"100001416272263","name":"Mai PB"},"message":"Mọi người có thể xem presentation của 3 thành phố đăng cai Olympics 2020 là Tokyo, Istanbul, Madrid ở đây. Chọn từ menu video bên phải, hơi scroll xuống dưới một chút. http://www.olympic.org/2020-host-city-election","can_remove":false,"created_time":"2013-09-08T06:09:26+0000","like_count":0,"user_likes":false},"716248965058450":{"id":"716248965058450","from":{"id":"100002754998000","name":"Nguyen Duc"},"message":"Ô thủ tướng đóng vai trò lớn trong việc này, đi đâu cũng kêu gọi moii người ủng hộ nhật bản đăng cai olympic 2020. Cuộc hội nghị olympic nào ô cũng tham gia... Hơn hết là sự đồng lòng của cả 1 dân tộc. chúc mừng Nhật Bản","can_remove":false,"created_time":"2013-09-08T08:16:13+0000","like_count":0,"user_likes":false},"716255141724499":{"id":"716255141724499","from":{"id":"100001416272263","name":"Mai PB"},"message":"Nhân sự kiện Tokyo được đăng cai chủ nhà Olympics 2020, trang web Yahoo Japan có làm một khảo sát dư luận: bạn có tán đồng kết quả này không? \nhttp://polls.dailynews.yahoo.co.jp/sports/10001/result\nKết quả cho đến thời điểm này là 3/4 tán đồng.\n\nTrong khi đó, mới hôm kia, 1 khảo sát khác \"bạn nghĩ thành phố nào sẽ thắng cuộc (Tokyo, Istanbul, Madrid)?\", thì có đến 50% nghĩ là Madrid, và 40% là Tokyo.\nhttp://polls.dailynews.yahoo.co.jp/sports/9984/result\n\nNgười Nhật nói chung là rất thích châu Âu, đặc biệt là Pháp, Ý, và Tây Ban Nha.","can_remove":false,"created_time":"2013-09-08T08:36:32+0000","like_count":2,"user_likes":false},"716255758391104":{"id":"716255758391104","from":{"id":"100004088172713","name":"Vuong Thao"},"message":"hay wa du sao thi cung phai co 1 nuoc chau a co vjnh du duoc dang caj tiep chu nhj.mac du tokyo da tung dk dang caj olimpic rui ,nhung k sao,chuc mung tokyo","can_remove":false,"created_time":"2013-09-08T08:40:00+0000","like_count":0,"user_likes":false},"716331885050158":{"id":"716331885050158","from":{"id":"100004826612667","name":"Đào Hạnh"},"message":"Đầu tư cho Olimpic dự tính mất khoảng 3兆円 nhưng hiệu quả kinh tế mà nó mang lại có thể lên tới 150兆円 . Chẳng khác gì \" thả con săn sắt bắt con cá rô \" đúng k nào ? Kinh tế Nhật bao năm qua vẫn lẹt đẹt là vậy . K có sự kích thích tăng trưởng kinh tế này thì biết đợi đến bao giờ kinh tế Nhật mới phục hồi ?","can_remove":false,"created_time":"2013-09-08T09:24:49+0000","like_count":4,"user_likes":false},"716357418380938":{"id":"716357418380938","from":{"id":"100001416272263","name":"Mai PB"},"message":"https://www.facebook.com/groups/CongdongVietNhat/permalink/716258088390871/","can_remove":false,"created_time":"2013-09-08T10:45:32+0000","like_count":0,"user_likes":false},"716763788340301":{"id":"716763788340301","from":{"id":"1146680551","name":"優しい なぁ"},"message":"Chẳng qua hiện nay so với các thành phố đăng cai.Tokyo được xem là nơi an toàn nhất.Istanbul bị mất điểm là do cuộc biểu tình lớn hồi tháng 7 vừa rồi.con Madrid thì spain đã trải qua 1 khoảng thời gian khủng hoảng kinh tế nặng nề.","can_remove":false,"created_time":"2013-09-09T02:49:13+0000","like_count":0,"user_likes":false},"716764165006930":{"id":"716764165006930","from":{"id":"1146680551","name":"優しい なぁ"},"message":"Nhưng cũng k thể nói đến nỗ lực của người nhật.bất kì nơi đâu cũng thấy họ nói về olympic 2020 .chúc mừng họ,người anh cả của châu á.hy vong nam 2200 ,olympic sẽ đến vn","can_remove":false,"created_time":"2013-09-09T02:51:20+0000","like_count":0,"user_likes":false},"716922341657779":{"id":"716922341657779","from":{"id":"100000687662713","name":"Vu Thi Man"},"message":"Minh k nghi the dau ban Mai PB ah. Nhin ca ve truoc mat va lau dai, dang cai dem lai nhieu loi ich hon la cai von ban dau bo ra. Hau het cac nuoc dang cai deu thu duoc 1 nguon loi khong lo ma.","message_tags":[{"id":"100001416272263","name":"Mai PB","type":"user","offset":24,"length":6}],"can_remove":false,"created_time":"2013-09-09T09:12:35+0000","like_count":1,"user_likes":false},"716926251657388":{"id":"716926251657388","from":{"id":"100005801442456","name":"An Nguyen"},"message":"Dự là tương lai học vè cách ngành dịch vụ thì khả năng xin việc cao hehe","can_remove":false,"created_time":"2013-09-09T09:26:25+0000","like_count":0,"user_likes":false},"717299191620094":{"id":"717299191620094","from":{"id":"100004826612667","name":"Đào Hạnh"},"message":"Nói như bạn Anh Nguyễn thì Nhật cũng bị vụ phóng xạ Fukushima thì sao coi là an toàn được ? May mắn cũng chỉ là 1 phần nhỏ thôi ! Phần lớn là ở nỗ lực của ng Nhật. Ông Abe đã phải bỏ cuộc họp G20 để tham gia hội nghị Olimpic. Ngta làm việc hiệu quả như thế mà vẫn bị dân với báo Chí chửi suốt ngày . Như thế thì đất nước ngta mới giàu và phát triển đc . Chứ cứ như mấy ông lãnh đạo Việt Nam làm vc theo kiểu chỉ đc khen k đc chê , chê ông ông gô cổ bỏ tù và kết cho tội phản động. Thế thì kể cả đến 2200 thì Olimpic  tới Việt Nam vẫn là 1 tương lai xa vời","can_remove":false,"created_time":"2013-09-09T23:47:24+0000","like_count":2,"user_likes":false}},"paging":{"cursors":{"after":"NzE2MjE2MDc4Mzk1MDcy","before":"NzE2MjE2MDc4Mzk1MDcy"},"next":"https://graph.facebook.com/229244010425617_716197651730248/comments?limit=1&summary=1&after=NzE2MjE2MDc4Mzk1MDcy"},"summary":{"order":"chronological","total_count":11}}}