{"id":"229244010425617_716214828395197","type":"photo","object_id":"624428960935207","picture":"https://fbcdn-photos-c-a.akamaihd.net/hphotos-ak-prn2/t1.0-0/9905_624428960935207_562616075_s.jpg","link":"https://www.facebook.com/photo.php?fbid=624428960935207&set=gm.716214828395197&type=1&relevant_count=1","from":{"id":"100001043265886","name":"Nguyen Huy Thach"},"message":"Khu vực Obihiro-shi, Hokkaidō – Nhờ người giúp đỡ.\nChào cả nhà. Cuối tháng này, cơ quan của người thân mình ở Việt Nam có 3 người qua bên Hokkaido hội thảo, khoảng 1 tuần, từ 23/9 đến 29/9.\nBởi vì cả 3 người đều không biết tiếng Nhật nên có rất nhiều lo lắng. Mình ở Hiroshima xa quá nên không giúp được nhiều ngoài gọi điện thoại. Mình đăng thông tin này lên, mong rằng có bạn nào ở gần khu vực đó giúp đỡ. \nĐịa điểm là ở: Minami, Nishi, Obihiro, Hokkaido. (có hình trong file đính kèm)\nCông việc: \n1. Hỗ trợ phiên dịch tại Hội thảo chính vào ngày 28/9/2013 (thứ 7) \n2. Tư vấn mua sắm 1 số thứ về làm quà tặng cho cơ quan và gia đình.","created_time":"2013-09-08T06:06:39+0000","updated_time":"2013-09-11T12:17:11+0000","likes":{"data":{"100001458099624":{"id":"100001458099624","name":"Kham Pha"},"100000262143403":{"id":"100000262143403","name":"Có Gì Hót"},"1845000884":{"id":"1845000884","name":"Trieu Thi Kieu Oanh"}},"paging":{"cursors":{"after":"MTAwMDAxNDU4MDk5NjI0","before":"MTAwMDAxNDU4MDk5NjI0"},"next":"https://graph.facebook.com/229244010425617_716214828395197/likes?limit=1&summary=1&after=MTAwMDAxNDU4MDk5NjI0"},"summary":{"total_count":3}},"comments":{"data":{"716384598378220":{"id":"716384598378220","from":{"id":"100006337662088","name":"LO Ve SOe BOd"},"message":"Tsu gan osaka la dia diem tot khong moi nguoi chon noi nay du hoc tot k","can_remove":false,"created_time":"2013-09-08T12:13:24+0000","like_count":0,"user_likes":false},"716448611705152":{"id":"716448611705152","from":{"id":"100001458099624","name":"Kham Pha"},"message":"Nguyen Huy Thach sao cơ quan đó ko có chuẩn bị gì cho việc thuê người vậy, nếu ko tìm đc ai thì làm thế nào?\nMà thù lao ra sao vậy, ko thấy đề cập.","message_tags":[{"id":"100001043265886","name":"Nguyen Huy Thach","type":"user","offset":0,"length":16}],"can_remove":false,"created_time":"2013-09-08T14:40:30+0000","like_count":1,"user_likes":false},"716927058323974":{"id":"716927058323974","from":{"id":"100000687662713","name":"Vu Thi Man"},"message":"Noi nhu vay la mien phi roi con hoi thu lao chi nua ban Kham Pha oi!","message_tags":[{"id":"100001458099624","name":"Kham Pha","type":"user","offset":56,"length":8}],"can_remove":false,"created_time":"2013-09-09T09:29:40+0000","like_count":0,"user_likes":false},"716927074990639":{"id":"716927074990639","from":{"id":"100000687662713","name":"Vu Thi Man"},"message":"`","can_remove":false,"created_time":"2013-09-09T09:29:46+0000","like_count":0,"user_likes":false},"716983081651705":{"id":"716983081651705","from":{"id":"100001043265886","name":"Nguyen Huy Thach"},"message":"Kham Pha Thực ra mình cũng chưa hỏi kỹ về thù lao, cảm ơn bạn đã nhắc nhở, để mình hỏi lại rồi đưa tin lên nhé.","message_tags":[{"id":"100001458099624","name":"Kham Pha","type":"user","offset":0,"length":8}],"can_remove":false,"created_time":"2013-09-09T12:31:41+0000","like_count":0,"user_likes":false},"718318474851499":{"id":"718318474851499","from":{"id":"100001043265886","name":"Nguyen Huy Thach"},"message":"Xin lỗi các bạn vì mình hồi âm hơi muộn. Sau khi mình hỏi lại thì được biết là do cơ quan không hỗ trợ tiền thuê người phiên dịch nên thực sự xin lỗi là trong trường hợp này mong nhờ sự hảo tâm của các bạn giúp đỡ. Nếu không nhờ được ai đó thì 3 người phải tự thân vận động với vốn tiếng Anh vậy. \nCảm ơn các bạn đã quan tâm!","can_remove":false,"created_time":"2013-09-11T12:17:11+0000","like_count":0,"user_likes":false}},"paging":{"cursors":{"after":"NzE2Mzg0NTk4Mzc4MjIw","before":"NzE2Mzg0NTk4Mzc4MjIw"},"next":"https://graph.facebook.com/229244010425617_716214828395197/comments?limit=1&summary=1&after=NzE2Mzg0NTk4Mzc4MjIw"},"summary":{"order":"chronological","total_count":6}}}