{"id":"229244010425617_716237625059584","type":"status","from":{"id":"100003819875708","name":"Piglazy Pham"},"message":"ai có trang nào học tiếng nhật hay chỉ t với \np/s: h mới bắt đầu học ạ","created_time":"2013-09-08T07:34:20+0000","updated_time":"2013-09-08T10:44:17+0000","likes":{"data":{"100001731744647":{"id":"100001731744647","name":"Niềm Vui"}},"paging":{"cursors":{"after":"MTAwMDAxNzMxNzQ0NjQ3","before":"MTAwMDAxNzMxNzQ0NjQ3"}},"summary":{"total_count":1}},"comments":{"data":{"716242445059102":{"id":"716242445059102","from":{"id":"100004567334301","name":"Thẩm Nhược Dực"},"message":"Ta cx mún pjk nữa~","can_remove":false,"created_time":"2013-09-08T07:53:38+0000","like_count":0,"user_likes":false},"716247338391946":{"id":"716247338391946","from":{"id":"100001416272263","name":"Mai PB"},"message":"Mình đang soạn lại danh sách. Dưới đây là một phần cho xem trước nhé. :-) Dấu sao ★ là mình tự đánh giá theo chủ quan. 5 sao là cao nhất.\n----------------------------\n<Tự học tiếng Nhật tổng hợp (không nhất thiết theo JLPT)>\n\n1)\nU-biq ゆーびっく\nhttp://study.u-biq.org/english.html ★★★★★\nWebsite tự học tiếng Nhật từ chưa biết gì đến trung cấp.\n\n2)\nオンライン日本語テスト\nhttp://test.u-biq.org/japanese.html ★★★★★\nKiểm tra trình độ từ sơ cấp ~ trung cấp: ngữ pháp 文法, từ vựng 語彙, chữ Hán 漢字, nghe hiểu 聴解, đọc hiểu 読解\n\n3)\nWEB版『エリンが挑戦！にほんごできます。』 国際交流基金\nhttps://www.erin.ne.jp/en/ ★★★★★\nHọc tiếng Nhật sơ cấp online. JAPAN FOUNDATION cung cấp!\n\n4)\nCùng nhau học tiếng Nhật, tải văn bản/âm thanh miễn phí | NHK WORLD\nhttp://www.nhk.or.jp/lesson/vietnamese/index.html ★★★★★\nChủ yếu trình độ sơ cấp. NHK WORLD!\n\n5)\nＪＰＬＡＮＧ　日本語を学ぶ ★★★★★\nhttp://jplang.tufs.ac.jp/vi/ka/1/1.html (sơ cấp)\nhttp://jplang.tufs.ac.jp/int2/bu/1/bu-1.html (trung cấp)\nhttp://jplang.tufs.ac.jp/int2/ka/5-1/be5-1.html (hội thoại)\n\n6)\n初級日本語げんき（げんきな自習室） ★★★★★\nhttp://genki.japantimes.co.jp/self_en\nTự học tiếng Nhật sơ cấp theo khóa học \"Genki\" của báo Japan Times.\n\n7)\nMy Kikitori - Practice Your Japanese Listening Skills\nhttp://mykikitori.com/index.html ★★★★\nLuyện nghe sơ cấp soạn theo khóa học \"Genki\" của báo Japan Times.\n\n8.\nAJALT Online教材\nhttp://www.ajalt.org/online/ ★★★★\nTự học tiếng Nhật từ sơ cấp đến trung cấp. Hiệp hội Phổ cập Tiếng Nhật Quốc Tế cung cấp.\n\n9)\nSurvival Japanese (Practical Spoken Japanese) ★★★★\nhttp://www.ajalt.org/sj/\nHọc tiếng Nhật thực dụng bằng tiếng Anh. Trình độ sơ cấp.\n\n10)\nちまたの日本語 ★★★★★\nhttp://www.ajalt.org/rwj/\nHọc tiếng Nhật theo các chủ đề bằng tiếng Anh. Sơ cấp - trung cấp.\n\n11)\n日本の生活みとこっと ★★★★\nhttp://www.ajalt.org/mitokotto/index1.html\nHọc tiếng Nhật thực dụng bằng tiếng Anh. Trình độ sơ cấp.","can_remove":false,"created_time":"2013-09-08T08:10:01+0000","like_count":4,"user_likes":false},"716248131725200":{"id":"716248131725200","from":{"id":"100003819875708","name":"Piglazy Pham"},"message":"thanks Mai PB tr'","message_tags":[{"id":"100001416272263","name":"Mai PB","type":"user","offset":7,"length":6}],"can_remove":false,"created_time":"2013-09-08T08:12:39+0000","like_count":0,"user_likes":false},"716248648391815":{"id":"716248648391815","from":{"id":"100003819875708","name":"Piglazy Pham"},"message":"ôi toàn tiếng nhật hok hiểu gì hết","can_remove":false,"created_time":"2013-09-08T08:14:41+0000","like_count":0,"user_likes":false},"716248931725120":{"id":"716248931725120","from":{"id":"100001416272263","name":"Mai PB"},"message":"Nói chung đều có link chuyển sang tiếng Anh để học đó.","can_remove":false,"created_time":"2013-09-08T08:16:05+0000","like_count":0,"user_likes":false},"716266935056653":{"id":"716266935056653","from":{"id":"100003773848585","name":"Quangbac Le"},"message":"lophoctiengnhat.comhttp://lophoctiengnhat.com","can_remove":false,"created_time":"2013-09-08T08:59:54+0000","like_count":0,"user_likes":false},"716272231722790":{"id":"716272231722790","from":{"id":"100003773848585","name":"Quangbac Le"},"message":"trang nay hoc tot lam do e ah","can_remove":false,"created_time":"2013-09-08T09:00:55+0000","like_count":0,"user_likes":false},"716331581716855":{"id":"716331581716855","from":{"id":"100002941646391","name":"Lưu Bình Công"},"message":"Lớp học tiếng nhật","message_tags":[{"id":"259423054204298","name":"Lớp học tiếng nhật","type":"page","offset":0,"length":18}],"can_remove":false,"created_time":"2013-09-08T09:23:54+0000","like_count":0,"user_likes":false},"716349605048386":{"id":"716349605048386","from":{"id":"100003819875708","name":"Piglazy Pham"},"message":"thanks mọi người đã giúp ạ.","can_remove":false,"created_time":"2013-09-08T10:19:07+0000","like_count":0,"user_likes":false},"716350095048337":{"id":"716350095048337","from":{"id":"100004567334301","name":"Thẩm Nhược Dực"},"message":"tks mn nhá","can_remove":false,"created_time":"2013-09-08T10:20:41+0000","like_count":0,"user_likes":false},"716356981714315":{"id":"716356981714315","from":{"id":"100001416272263","name":"Mai PB"},"message":"Piglazy Pham Các link trên đã được cập nhật vào doc dưới đây rồi nhé. https://www.facebook.com/groups/CongdongVietNhat/doc/687429284607085/","message_tags":[{"id":"100003819875708","name":"Piglazy Pham","type":"user","offset":0,"length":12}],"can_remove":false,"created_time":"2013-09-08T10:44:17+0000","like_count":2,"user_likes":false}},"paging":{"cursors":{"after":"NzE2MjQyNDQ1MDU5MTAy","before":"NzE2MjQyNDQ1MDU5MTAy"},"next":"https://graph.facebook.com/229244010425617_716237625059584/comments?limit=1&summary=1&after=NzE2MjQyNDQ1MDU5MTAy"},"summary":{"order":"chronological","total_count":11}}}