{"id":"229244010425617_716443178372362","type":"video","object_id":"573936052664993","picture":"https://fbcdn-vthumb-a.akamaihd.net/hvthumb-ak-frc3/t15.0-10/1096934_573936795998252_573936052664993_21197_1004_t.jpg","link":"https://scontent-b.xx.fbcdn.net/hvideo-ash3/v/t42.1790-2/1249099_573936759331589_666205807_n.mp4?oh=2ddbeda448ce4370cfc0110db0045230&oe=534FE8F2","source":"https://scontent-b.xx.fbcdn.net/hvideo-ash3/v/t42.1790-2/1249099_573936759331589_666205807_n.mp4?oh=2ddbeda448ce4370cfc0110db0045230&oe=534FE8F2","from":{"id":"100001458099624","name":"Kham Pha"},"message":"Mèo Ngố đi lạc.\nTập 4: Chii lãng quên.","created_time":"2013-09-08T14:33:12+0000","updated_time":"2013-09-09T04:58:17+0000","likes":{"data":{"100004642933206":{"id":"100004642933206","name":"Aloha Aloha"},"100005211189763":{"id":"100005211189763","name":"Oliveu Cchann"},"100000950925713":{"id":"100000950925713","name":"Mẹ Thảo Nguyên"},"100004823948087":{"id":"100004823948087","name":"Nguyễn Ngọc Ánh"},"100003011417151":{"id":"100003011417151","name":"Hue Kim"},"100003504236087":{"id":"100003504236087","name":"Nguyễn Văn Tèo"},"100002532459655":{"id":"100002532459655","name":"Totto Chan"},"100005058398238":{"id":"100005058398238","name":"Minh Thư Nguyễn"},"100000844467820":{"id":"100000844467820","name":"Trịnh Minh Hùng"},"100006368081099":{"id":"100006368081099","name":"Man Thu"},"100001723862714":{"id":"100001723862714","name":"Bo Bien Vang"},"100005959893512":{"id":"100005959893512","name":"Kay Jung"},"100000062884729":{"id":"100000062884729","name":"Huệ Ca"},"100003937342570":{"id":"100003937342570","name":"Oanh Thụn"},"100000328742646":{"id":"100000328742646","name":"Trần Giáp"},"100004478832761":{"id":"100004478832761","name":"Thiên Trang"},"100001910146056":{"id":"100001910146056","name":"Huyền Thoa"},"100000183450732":{"id":"100000183450732","name":"Kelly Kẹo"}},"paging":{"cursors":{"after":"MTAwMDA0NjQyOTMzMjA2","before":"MTAwMDA0NjQyOTMzMjA2"},"next":"https://graph.facebook.com/229244010425617_716443178372362/likes?limit=1&summary=1&after=MTAwMDA0NjQyOTMzMjA2"},"summary":{"total_count":19}},"comments":{"data":{"716444681705545":{"id":"716444681705545","from":{"id":"100000183450732","name":"Kelly Kẹo"},"message":"Mai Hồng fim này","message_tags":[{"id":"100001367457114","name":"Mai Hồng","type":"user","offset":0,"length":8}],"can_remove":false,"created_time":"2013-09-08T14:36:32+0000","like_count":0,"user_likes":false},"716510405032306":{"id":"716510405032306","from":{"id":"100002532459655","name":"Totto Chan"},"message":"Cute wa","can_remove":false,"created_time":"2013-09-08T16:16:16+0000","like_count":0,"user_likes":false},"716520615031285":{"id":"716520615031285","from":{"id":"100003011417151","name":"Hue Kim"},"message":"chi đáng yêu cực, mình đã xem tới ep 40, hehe, nhìn người bố bùn cười chết đc","can_remove":false,"created_time":"2013-09-08T16:42:29+0000","like_count":1,"user_likes":false},"716520788364601":{"id":"716520788364601","from":{"id":"100000183450732","name":"Kelly Kẹo"},"message":"tren youtube co du bo k ban?;))","can_remove":false,"created_time":"2013-09-08T16:42:54+0000","like_count":0,"user_likes":false},"716521435031203":{"id":"716521435031203","from":{"id":"100003011417151","name":"Hue Kim"},"message":"có á, gõ chii's sweet home là ra thôi","can_remove":false,"created_time":"2013-09-08T16:43:58+0000","like_count":1,"user_likes":false},"716521818364498":{"id":"716521818364498","from":{"id":"100000183450732","name":"Kelly Kẹo"},"message":"arigatou ne ^^!","can_remove":false,"created_time":"2013-09-08T16:44:31+0000","like_count":1,"user_likes":false},"716739501676063":{"id":"716739501676063","from":{"id":"100002270269220","name":"Nguyen Tien Hai"},"message":"Haha","can_remove":false,"created_time":"2013-09-09T02:00:13+0000","like_count":0,"user_likes":false},"716825598334120":{"id":"716825598334120","from":{"id":"100000950925713","name":"Mẹ Thảo Nguyên"},"message":"Bộ phim ưa thik hồi ĐH :P","can_remove":false,"created_time":"2013-09-09T03:16:13+0000","like_count":0,"user_likes":false},"716854378331242":{"id":"716854378331242","from":{"id":"100000198892785","name":"Mạnh Phi"},"message":"Nhìn đồ họa khá đơn giản mà sao nhìn đẹp thế nhỉ @@","can_remove":false,"created_time":"2013-09-09T04:58:17+0000","like_count":0,"user_likes":false}},"paging":{"cursors":{"after":"NzE2NDQ0NjgxNzA1NTQ1","before":"NzE2NDQ0NjgxNzA1NTQ1"},"next":"https://graph.facebook.com/229244010425617_716443178372362/comments?limit=1&summary=1&after=NzE2NDQ0NjgxNzA1NTQ1"},"summary":{"order":"chronological","total_count":9}}}