{"id":"229244010425617_716919314991415","type":"photo","object_id":"327214047422126","picture":"https://fbcdn-photos-f-a.akamaihd.net/hphotos-ak-ash3/t1.0-0/1231236_327214047422126_1153027898_s.jpg","link":"https://www.facebook.com/photo.php?fbid=327214047422126&set=gm.716919314991415&type=1&relevant_count=1","from":{"id":"100004006018580","name":"Nguyễn Thanh Nam"},"message":"Chào các bạn!\nMình ở bên phòng vé máy bay Tam Vương \nBên mình chuyên bán vé máy bay đi Nhật và các nước khác giá rẻ. Đặc biệt ưu tiên đối tượng là sinh viên du học, lao động, thăm thân,...\nNếu các bạn có nhu cầu thì liên hệ với mình nhé.\nMình tên Nam, sdt: 0986 48 3899 \nYahoo: tamvuong128, email: tamvuong128@gmail.com\nRất mong sớm nhận được hồi âm và hợp tác từ bạn!","created_time":"2013-09-09T09:04:04+0000","updated_time":"2013-09-10T02:55:02+0000","likes":{"data":{"100000042138129":{"id":"100000042138129","name":"Duong David"}},"paging":{"cursors":{"after":"MTAwMDAwMDQyMTM4MTI5","before":"MTAwMDAwMDQyMTM4MTI5"}},"summary":{"total_count":1}},"comments":{"data":{"716945851655428":{"id":"716945851655428","from":{"id":"100000042138129","name":"Duong David"},"message":"Cuối tháng này mình đi từ Nội Bài qua Narita. Bạn có bán vé của những hãng nào và giá vé bao nhiêu bạn ơi. Bạn có biểu phí ko?","can_remove":false,"created_time":"2013-09-09T10:39:53+0000","like_count":0,"user_likes":false},"716960051654008":{"id":"716960051654008","from":{"id":"100004006018580","name":"Nguyễn Thanh Nam"},"message":"Có bạn ạ. Bay thẳng vietnamairlines, japanairlines.\nTransit inchone thì bay Asian airlines nhé","can_remove":false,"created_time":"2013-09-09T11:26:11+0000","like_count":0,"user_likes":false},"716960934987253":{"id":"716960934987253","from":{"id":"100000042138129","name":"Duong David"},"message":"Ok. Vậy giá vé của từng hãng và số kg hành lý ký gửi + xách tay là bao nhiêu hả bạn?","can_remove":false,"created_time":"2013-09-09T11:28:43+0000","like_count":0,"user_likes":false},"716961864987160":{"id":"716961864987160","from":{"id":"100004006018580","name":"Nguyễn Thanh Nam"},"message":"Mình inbox rồi nhé","can_remove":false,"created_time":"2013-09-09T11:31:55+0000","like_count":1,"user_likes":false},"716980578318622":{"id":"716980578318622","from":{"id":"100005646341173","name":"Quốc Phương"},"message":"Có mấy đứa bạn mình cũng chuẩn bị đi niigata.cậu có thể mail cho mình chi tiết cụ thể giá vé số cân hành lý và chặng ntn được ko ? Mail tớ là quocphuongvd@gmail.com thanhk","can_remove":false,"created_time":"2013-09-09T12:25:52+0000","like_count":0,"user_likes":false},"716981081651905":{"id":"716981081651905","from":{"id":"100004006018580","name":"Nguyễn Thanh Nam"},"message":"Quốc Phương oki bạn mai mình sẽ gửi nhé ^^","message_tags":[{"id":"100005646341173","name":"Quốc Phương","type":"user","offset":0,"length":11}],"can_remove":false,"created_time":"2013-09-09T12:27:18+0000","like_count":0,"user_likes":false},"717084888308191":{"id":"717084888308191","from":{"id":"100000042138129","name":"Duong David"},"message":"Thanks bạn!","can_remove":false,"created_time":"2013-09-09T15:32:09+0000","like_count":1,"user_likes":false},"717363971613616":{"id":"717363971613616","from":{"id":"100004006018580","name":"Nguyễn Thanh Nam"},"message":"Quốc Phương mình xem rồi, đi niigata thì phải transit 1 điểm. đi của Korean airlines rẻ nhất quá cảnh inchone. bạn hỏi các bạn xem ngày đi cụ thể là khi nào nhé. Vì các ngày khác nhau giá khác nhau ^^","message_tags":[{"id":"100005646341173","name":"Quốc Phương","type":"user","offset":0,"length":11}],"can_remove":false,"created_time":"2013-09-10T02:55:02+0000","like_count":0,"user_likes":false}},"paging":{"cursors":{"after":"NzE2OTQ1ODUxNjU1NDI4","before":"NzE2OTQ1ODUxNjU1NDI4"},"next":"https://graph.facebook.com/229244010425617_716919314991415/comments?limit=1&summary=1&after=NzE2OTQ1ODUxNjU1NDI4"},"summary":{"order":"chronological","total_count":8}}}