{"id":"229244010425617_717022258314454","type":"status","from":{"id":"100001754136107","name":"Nguyễn Tuấn Vũ"},"message":"Hôm nọ cảnh sát rảnh hỏi thăm :)))","created_time":"2013-09-09T14:00:32+0000","updated_time":"2013-09-10T00:32:36+0000","likes":{"data":{"100004909750156":{"id":"100004909750156","name":"Lặng Lẽ"},"100000641227862":{"id":"100000641227862","name":"Anh Lê"},"100002327743510":{"id":"100002327743510","name":"Tuan Thanh"},"100000027754899":{"id":"100000027754899","name":"Hoang Van Ba"},"100001835880788":{"id":"100001835880788","name":"Hằng Kio"},"100002508122689":{"id":"100002508122689","name":"Vũ Mạnh Tuấn"},"100001458099624":{"id":"100001458099624","name":"Kham Pha"}},"paging":{"cursors":{"after":"MTAwMDA0OTA5NzUwMTU2","before":"MTAwMDA0OTA5NzUwMTU2"},"next":"https://graph.facebook.com/229244010425617_717022258314454/likes?limit=1&summary=1&after=MTAwMDA0OTA5NzUwMTU2"},"summary":{"total_count":7}},"comments":{"data":{"717024898314190":{"id":"717024898314190","from":{"id":"100000198219367","name":"Chang Jiang"},"message":"đèo 2 à :v","can_remove":false,"created_time":"2013-09-09T14:06:54+0000","like_count":0,"user_likes":false},"717025158314164":{"id":"717025158314164","from":{"id":"100001458099624","name":"Kham Pha"},"message":"cảnh ở đấy nghiêm thế, chỗ anh đèo 2 chỉ nhắc nhở thôi.","can_remove":false,"created_time":"2013-09-09T14:07:54+0000","like_count":0,"user_likes":false},"717025538314126":{"id":"717025538314126","from":{"id":"100000198219367","name":"Chang Jiang"},"message":"phạt bao tiền thế nhỉ, nhìn mờ quá :))","can_remove":false,"created_time":"2013-09-09T14:09:00+0000","like_count":0,"user_likes":false},"717037601646253":{"id":"717037601646253","from":{"id":"100001754136107","name":"Nguyễn Tuấn Vũ"},"message":"Chỗ e nhắc nhiều quá rồi :)))\nPhạt ko quá 2 man a ak :))","can_remove":false,"created_time":"2013-09-09T14:17:10+0000","like_count":0,"user_likes":false},"717038908312789":{"id":"717038908312789","from":{"id":"100000198219367","name":"Chang Jiang"},"message":"thế là bị phạt 2 man à :-ss","can_remove":false,"created_time":"2013-09-09T14:17:55+0000","like_count":0,"user_likes":false},"717039941646019":{"id":"717039941646019","from":{"id":"100001754136107","name":"Nguyễn Tuấn Vũ"},"message":"Ko,viết giấy cảnh cáo thôi a :))","can_remove":false,"created_time":"2013-09-09T14:18:30+0000","like_count":0,"user_likes":false},"717047364978610":{"id":"717047364978610","from":{"id":"100000027754899","name":"Hoang Van Ba"},"message":"Ngon :)","can_remove":false,"created_time":"2013-09-09T14:22:27+0000","like_count":0,"user_likes":false},"717094444973902":{"id":"717094444973902","from":{"id":"100001739865592","name":"Tung Le"},"message":"Đi xe đạp ở Nhật không đc đèo 2 à @@","can_remove":false,"created_time":"2013-09-09T15:57:26+0000","like_count":0,"user_likes":false},"717312144952132":{"id":"717312144952132","from":{"id":"100001754136107","name":"Nguyễn Tuấn Vũ"},"message":"Tung Le: ko đc bạn ak.Nhưng mà mình thấy bọn Nhật nó đeò nhau đầy từ già đến trẻ :)). Hôm nào chụp ảnh úp lên","message_tags":[{"id":"100001739865592","name":"Tung Le","type":"user","offset":0,"length":7}],"can_remove":false,"created_time":"2013-09-10T00:32:36+0000","like_count":0,"user_likes":false}},"paging":{"cursors":{"after":"NzE3MDI0ODk4MzE0MTkw","before":"NzE3MDI0ODk4MzE0MTkw"},"next":"https://graph.facebook.com/229244010425617_717022258314454/comments?limit=1&summary=1&after=NzE3MDI0ODk4MzE0MTkw"},"summary":{"order":"chronological","total_count":9}}}