{"id":"229244010425617_717480054935341","type":"photo","object_id":"383222918473730","picture":"https://fbcdn-photos-g-a.akamaihd.net/hphotos-ak-ash3/t1.0-0/r270/1231658_383222918473730_699894298_s.jpg","link":"https://www.facebook.com/photo.php?fbid=383222918473730&set=pcb.717480054935341&type=1&relevant_count=2","from":{"id":"100003580740276","name":"Bui Tuyen"},"message":"Cho mình hỏi cách sử dụng của kem này như thế nào?\n指先：しせん＿vùng chỉ định ?\nなじませる？\n                           arigatoo","created_time":"2013-09-10T07:23:35+0000","updated_time":"2013-09-10T10:21:47+0000","likes":{"data":{"100001074875869":{"id":"100001074875869","name":"Ly Hoang"}},"paging":{"cursors":{"after":"MTAwMDAxMDc0ODc1ODY5","before":"MTAwMDAxMDc0ODc1ODY5"}},"summary":{"total_count":1}},"comments":{"data":{"717481271601886":{"id":"717481271601886","from":{"id":"100000027754899","name":"Hoang Van Ba"},"message":"Sau khi rửa mặt thì lấy 1 ít bôi vào vùng ( kín ) :)  xoa đều\nHờ hờ. Ko nhìn thấy hình ah ??","can_remove":false,"created_time":"2013-09-10T07:29:09+0000","like_count":0,"user_likes":false},"717482888268391":{"id":"717482888268391","from":{"id":"100000027754899","name":"Hoang Van Ba"},"message":":) hờ hờ","can_remove":false,"created_time":"2013-09-10T07:36:50+0000","like_count":0,"user_likes":false},"717483394935007":{"id":"717483394935007","from":{"id":"100000027754899","name":"Hoang Van Ba"},"message":"Chiêu trò khoe đồ ý mà. Mua về rồi có tranh hướng dẫn thế kia. Đi hỏi làm j ??\nCó cơm ko có đũa thì vẫn ăn đc chứ có đũa mà ko có cơm thì ăn cái zề","can_remove":false,"created_time":"2013-09-10T07:39:05+0000","like_count":0,"user_likes":false},"717483668268313":{"id":"717483668268313","from":{"id":"100003580740276","name":"Bui Tuyen"},"message":"ko phai nhu vay","can_remove":false,"created_time":"2013-09-10T07:40:20+0000","like_count":0,"user_likes":false},"717483728268307":{"id":"717483728268307","from":{"id":"100003580740276","name":"Bui Tuyen"},"message":"nho ban mua, hoi minh ma","can_remove":false,"created_time":"2013-09-10T07:40:39+0000","like_count":0,"user_likes":false},"717483791601634":{"id":"717483791601634","from":{"id":"100003580740276","name":"Bui Tuyen"},"message":"minh ko ro may","can_remove":false,"created_time":"2013-09-10T07:40:49+0000","like_count":0,"user_likes":false},"717483834934963":{"id":"717483834934963","from":{"id":"100000027754899","name":"Hoang Van Ba"},"message":"Sorry","can_remove":false,"created_time":"2013-09-10T07:41:04+0000","like_count":0,"user_likes":false},"717484244934922":{"id":"717484244934922","from":{"id":"100003580740276","name":"Bui Tuyen"},"message":"dich doan mo thoi? minh ko dung my pham nhieu dau, co sua rua mat thui, danh  tien de lo nhung khoan  khac kia.","can_remove":false,"created_time":"2013-09-10T07:43:25+0000","like_count":0,"user_likes":false},"717484624934884":{"id":"717484624934884","from":{"id":"100001454348698","name":"Phạm Quang Tùng"},"message":"指先 la dau ngon tay, doc la ゆびさき、 rua mat xong cho co 2 giot lon xoa deu len mat","can_remove":false,"created_time":"2013-09-10T07:45:54+0000","like_count":0,"user_likes":false},"717485008268179":{"id":"717485008268179","from":{"id":"100000027754899","name":"Hoang Van Ba"},"message":"Sau khi rửa mặt. Dùng 1 lượng  vừa đủ ( lượng thích ứng ) bằng khoảng 2 cái xẻng :)  dùng tay bôi lên da rồi chát đều. :)","can_remove":false,"created_time":"2013-09-10T07:47:49+0000","like_count":1,"user_likes":false},"717485388268141":{"id":"717485388268141","from":{"id":"100003580740276","name":"Bui Tuyen"},"message":"ban Tùng Dở dich hay,chac la dau ngon tay do","message_tags":[{"id":"100001454348698","name":"Tùng Dở","type":"user","offset":4,"length":7}],"can_remove":false,"created_time":"2013-09-10T07:49:22+0000","like_count":0,"user_likes":false},"717485731601440":{"id":"717485731601440","from":{"id":"100003580740276","name":"Bui Tuyen"},"message":"cam on cac ban nhieu nha.bye","can_remove":false,"created_time":"2013-09-10T07:51:17+0000","like_count":0,"user_likes":false},"717487928267887":{"id":"717487928267887","from":{"id":"100001416272263","name":"Mai PB"},"message":"Từ điển đâu?","can_remove":false,"created_time":"2013-09-10T08:01:32+0000","like_count":1,"user_likes":false},"717522961597717":{"id":"717522961597717","from":{"id":"100003580740276","name":"Bui Tuyen"},"message":"tra tu dien  roi,  tu dien minh ko co tu nay.","can_remove":false,"created_time":"2013-09-10T10:21:47+0000","like_count":0,"user_likes":false}},"paging":{"cursors":{"after":"NzE3NDgxMjcxNjAxODg2","before":"NzE3NDgxMjcxNjAxODg2"},"next":"https://graph.facebook.com/229244010425617_717480054935341/comments?limit=1&summary=1&after=NzE3NDgxMjcxNjAxODg2"},"summary":{"order":"chronological","total_count":14}}}