{"id":"229244010425617_717544451595568","type":"status","from":{"id":"100001580479641","name":"Hà Xuân Thủy"},"message":"Có bạn nào học lái xe ở nhật rồi cho mình hỏi, tiếng nhật khoảng trình độ nào thì có khả năng đỗ.","created_time":"2013-09-10T11:34:45+0000","updated_time":"2013-09-10T12:30:15+0000","likes":{"data":{"100003779147254":{"id":"100003779147254","name":"Marsu Pilami"}},"paging":{"cursors":{"after":"MTAwMDAzNzc5MTQ3MjU0","before":"MTAwMDAzNzc5MTQ3MjU0"}},"summary":{"total_count":1}},"comments":{"data":{"717545681595445":{"id":"717545681595445","from":{"id":"100000027754899","name":"Hoang Van Ba"},"message":"N5","can_remove":false,"created_time":"2013-09-10T11:38:25+0000","like_count":1,"user_likes":false},"717547734928573":{"id":"717547734928573","from":{"id":"100001416272263","name":"Mai PB"},"message":"Hoang Van Ba thi chưa mà nói vậy? Để thi thì có lẽ phải ít nhất N3, nhưng bạn có thể thi bằng tiếng Anh được. Tuy nhiên lúc học thì người ta không dạy bằng tiếng Anh đâu. Ngoài ra lúc thi thì tỷ lệ đỗ cũng khoảng 60% thôi nhé.","message_tags":[{"id":"100000027754899","name":"Hoang Van Ba","type":"user","offset":0,"length":12}],"can_remove":false,"created_time":"2013-09-10T11:43:19+0000","like_count":1,"user_likes":false},"717549188261761":{"id":"717549188261761","from":{"id":"100001580479641","name":"Hà Xuân Thủy"},"message":"Tiếng anh của mình gần như là zero nên chỉ có mỗi cách là thi bằng tiếng nhật, nghe người nhật bảo ngay cả người nhật thi cũng trượt ko ít, khoảng một nửa phải đến lần thứ hai mới đậu, n5 như bạn Ba nói thì đi thi viết bảng chữ cái thôi, còn n3 nếu học đc thì chắc phải tầm 160/180đ của n3 trở lên, cái này tốn khá nhiều tiền nên muốn bạn nào thực tế rồi chỉ giáo.","can_remove":false,"created_time":"2013-09-10T11:48:23+0000","like_count":0,"user_likes":false},"717549401595073":{"id":"717549401595073","from":{"id":"100000359762118","name":"Mi Tra"},"message":"Trong quyển lý thuyết có furigana ở trên các chữ kanji hết. Nếu chịu khó bỏ thời gian ra tra thì cũng ko đến nỗi khó nhai lắm.","can_remove":false,"created_time":"2013-09-10T11:49:12+0000","like_count":0,"user_likes":false},"717550141594999":{"id":"717550141594999","from":{"id":"100000359762118","name":"Mi Tra"},"message":"Bí quyết để thi một phát đỗ ngay là \"luyện đề\". Có thể tải trên app store","can_remove":false,"created_time":"2013-09-10T11:51:43+0000","like_count":0,"user_likes":false},"717550318261648":{"id":"717550318261648","from":{"id":"100001416272263","name":"Mai PB"},"message":"Đề thi lý thuyết thử đây. Có furigana như Mi Tra nói không thì mình cũng quên rồi. Bạn nào quan tâm thì đọc thử xem. http://www5b.biglobe.ne.jp/~nobusann/honmen/honmen1.html","message_tags":[{"id":"100000359762118","name":"Mi Tra","type":"user","offset":42,"length":6}],"can_remove":false,"created_time":"2013-09-10T11:52:29+0000","like_count":0,"user_likes":false},"717550594928287":{"id":"717550594928287","from":{"id":"100000359762118","name":"Mi Tra"},"message":"Đề trên mạng thì ko có furigana nhưng sách giáo khoa trường dạy lái phát cho là có.","can_remove":false,"created_time":"2013-09-10T11:53:47+0000","like_count":0,"user_likes":false},"717552081594805":{"id":"717552081594805","from":{"id":"100001416272263","name":"Mai PB"},"message":"Mi Tra đã đi thi chưa? Có thể là sgk của trường bạn có nhưng mình cố nhớ thì đề thi hình như không có furigana. Mới tra thử trên mạng thì cũng không thấy nói là không có. Nhưng nếu đã học đến N3 rồi thì còn furigana gì nữa? :-) Thêm nữa, các bảng chỉ dẫn giao thông làm gì có furigana, không đọc được là hỏng rồi.","message_tags":[{"id":"100000359762118","name":"Mi Tra","type":"user","offset":0,"length":6}],"can_remove":false,"created_time":"2013-09-10T11:58:40+0000","like_count":0,"user_likes":false},"717552114928135":{"id":"717552114928135","from":{"id":"100001580479641","name":"Hà Xuân Thủy"},"message":"Cám ơn bạn maipb và bạn mì chả.","can_remove":false,"created_time":"2013-09-10T11:58:45+0000","like_count":0,"user_likes":false},"717553144928032":{"id":"717553144928032","from":{"id":"100001580479641","name":"Hà Xuân Thủy"},"message":"N3 chỉ biết khoảng ~800kanji thôi, làm sao mà đọc hết đc khi mà đề thi ko hề giới hạn, hơn nữa mình tự học chứ ko theo trường lớp nên văn phạm cũng là vấn đề, có lẽ phải luyện cho lên lv trc rồi học sau:(","can_remove":false,"created_time":"2013-09-10T12:01:43+0000","like_count":0,"user_likes":false},"717554104927936":{"id":"717554104927936","from":{"id":"100000359762118","name":"Mi Tra"},"message":"Mình check lại rồi. sách giáo khoa thì có nhưng đề thì ko. Nhưng nhớ được trong sách này thì khi lướt qua đề sẽ nhận dạng chữ kanji được ngay ý mà. \nMình thi cách đây cũng 4 năm rồi nên ko rõ bây giờ thế nào.","can_remove":false,"created_time":"2013-09-10T12:04:29+0000","like_count":0,"user_likes":false},"717554961594517":{"id":"717554961594517","from":{"id":"100001416272263","name":"Mai PB"},"message":"Nhìn sách biết là người chăm học","can_remove":false,"created_time":"2013-09-10T12:05:41+0000","like_count":1,"user_likes":false},"717556324927714":{"id":"717556324927714","from":{"id":"100001754136107","name":"Nguyễn Tuấn Vũ"},"message":"A có bằng ở vn thì dịch sang cho nhanh.\nCon nếu mà thi thì mua quyển sách ngoài hiệu sách 免許を合格( tên sách e ko nhớ lắm)","can_remove":false,"created_time":"2013-09-10T12:08:32+0000","like_count":1,"user_likes":false},"717556434927703":{"id":"717556434927703","from":{"id":"100000359762118","name":"Mi Tra"},"message":"Mình thì cũng chẳng chăm lắm đâu. Phải thi lại thì đau bao tử lắm nên cố cắm đầu học thôi.","can_remove":false,"created_time":"2013-09-10T12:08:51+0000","like_count":0,"user_likes":false},"717556471594366":{"id":"717556471594366","from":{"id":"100001754136107","name":"Nguyễn Tuấn Vũ"},"message":"Nó tầm 800","can_remove":false,"created_time":"2013-09-10T12:08:57+0000","like_count":0,"user_likes":false},"717558361594177":{"id":"717558361594177","from":{"id":"100001580479641","name":"Hà Xuân Thủy"},"message":"Mình xem bằng điện thoại nên ko rõ nó ghi gì, cũng ko tải đc tài liệu bạn maipb up, xếp mình hình như cũng có một cuốn nhưng đang để ở nagano@@, mai bảo ổng lấy về cho mượn mới đc:(. Chưa lái xe bao h nên học lái cũng là vấn đề luôn:)), ông senpai vừa gây một vụ đụng xe hôm qua:(","can_remove":false,"created_time":"2013-09-10T12:13:21+0000","like_count":0,"user_likes":false},"717559278260752":{"id":"717559278260752","from":{"id":"100001754136107","name":"Nguyễn Tuấn Vũ"},"message":"Mà học lái xe oto ạ :)","can_remove":false,"created_time":"2013-09-10T12:15:00+0000","like_count":0,"user_likes":false},"717559574927389":{"id":"717559574927389","from":{"id":"100001580479641","name":"Hà Xuân Thủy"},"message":"Ùh đương nhiên là oto rồi","can_remove":false,"created_time":"2013-09-10T12:15:47+0000","like_count":0,"user_likes":false},"717559828260697":{"id":"717559828260697","from":{"id":"100001754136107","name":"Nguyễn Tuấn Vũ"},"message":"Nếu ma học trung tâm thì mất 26-30 man :(","can_remove":false,"created_time":"2013-09-10T12:16:25+0000","like_count":0,"user_likes":false},"717560461593967":{"id":"717560461593967","from":{"id":"100000359762118","name":"Mi Tra"},"message":"Xe là một phương tiện rất tiện lợi phục vụ cuộc sống con người nhưng nó cũng trở thành vũ khí giết người. Tất cả đểu nằm ở ý thức và kỹ năng của người điều khiển phương tiện.","can_remove":false,"created_time":"2013-09-10T12:18:26+0000","like_count":1,"user_likes":false},"717561234927223":{"id":"717561234927223","from":{"id":"100000359762118","name":"Mi Tra"},"message":"Nếu bạn thực sự muốn học lái xe thì mình khuyên bạn ko nên tiếc 30man. Hãy tới trường dạy lái để hiểu rõ về luật giao thông, để học được những kĩ năng lái và ngoài ra còn học được \"văn hóa lái xe\" mà có lẽ ở VN ko có dạy.","can_remove":false,"created_time":"2013-09-10T12:20:27+0000","like_count":1,"user_likes":false},"717566111593402":{"id":"717566111593402","from":{"id":"100001580479641","name":"Hà Xuân Thủy"},"message":"Có lẽ cũng chỉ có mỗi cách đó thôi, vấn đề là vẫn chưa tự tin với năng lực hiện tại nếu thi toàn kanji nên chắc phải luyện thêm vài skill nữa.","can_remove":false,"created_time":"2013-09-10T12:30:15+0000","like_count":0,"user_likes":false}},"paging":{"cursors":{"after":"NzE3NTQ1NjgxNTk1NDQ1","before":"NzE3NTQ1NjgxNTk1NDQ1"},"next":"https://graph.facebook.com/229244010425617_717544451595568/comments?limit=1&summary=1&after=NzE3NTQ1NjgxNTk1NDQ1"},"summary":{"order":"chronological","total_count":22}}}