{"id":"229244010425617_717563984926948","type":"status","from":{"id":"100004487171641","name":"Lâm Còi"},"message":"Có bạn nào có xe đạp cũ bán ko? Mình cần mua 1 cái.Bạn nào có bán thì pm cho mình nhé.thks all","created_time":"2013-09-10T12:27:12+0000","updated_time":"2013-09-10T17:04:16+0000","likes":{"data":{"100003137067215":{"id":"100003137067215","name":"Duong Thi Diem Hang"}},"paging":{"cursors":{"after":"MTAwMDAzMTM3MDY3MjE1","before":"MTAwMDAzMTM3MDY3MjE1"}},"summary":{"total_count":1}},"comments":{"data":{"717567121593301":{"id":"717567121593301","from":{"id":"100001416272263","name":"Mai PB"},"message":"Lên mạng mua đi bạn, ng ta chở đến nhà cho. Mua mới cũng chỉ 1 vạn thôi","can_remove":false,"created_time":"2013-09-10T12:32:56+0000","like_count":0,"user_likes":false},"717570244926322":{"id":"717570244926322","from":{"id":"100000042138129","name":"Duong David"},"message":"Mua xe đạp ở trên mạng thì vào trang nào mua thì tốt hả anh Mai PB?","message_tags":[{"id":"100001416272263","name":"Mai PB","type":"user","offset":60,"length":6}],"can_remove":false,"created_time":"2013-09-10T12:41:09+0000","like_count":0,"user_likes":false},"717585088258171":{"id":"717585088258171","from":{"id":"100004322010992","name":"Nhím Xù"},"message":"Trag nao đấy chỉ mih vs","can_remove":false,"created_time":"2013-09-10T13:11:48+0000","like_count":0,"user_likes":false},"717597164923630":{"id":"717597164923630","from":{"id":"100001416272263","name":"Mai PB"},"message":"Ví dụ trang này http://search.rakuten.co.jp/search/mall/%E4%B8%AD%E5%8F%A4%E8%87%AA%E8%BB%A2%E8%BB%8A/-/","can_remove":false,"created_time":"2013-09-10T13:15:07+0000","like_count":0,"user_likes":false},"717600228256657":{"id":"717600228256657","from":{"id":"100004322010992","name":"Nhím Xù"},"message":"Rẻ nhỉ ma xe cũ ak","can_remove":false,"created_time":"2013-09-10T13:16:04+0000","like_count":0,"user_likes":false},"717601581589855":{"id":"717601581589855","from":{"id":"100004322010992","name":"Nhím Xù"},"message":"Ma rẻ vay tại moi ng keu xe bt toan 1 man hoac 9 sen thui","can_remove":false,"created_time":"2013-09-10T13:16:30+0000","like_count":0,"user_likes":false},"717603834922963":{"id":"717603834922963","from":{"id":"100004487171641","name":"Lâm Còi"},"message":"thế cậu ở đâu vậy,tớ ở tokio","can_remove":false,"created_time":"2013-09-10T13:17:28+0000","like_count":0,"user_likes":false},"717604174922929":{"id":"717604174922929","from":{"id":"100001416272263","name":"Mai PB"},"message":"Nó ghi ở dưới là 中古品 thì có nghĩa là đồ cũ. Cái xe trên cùng thì thêm tiền gửi 2500-3000, tùy khu vực.","can_remove":false,"created_time":"2013-09-10T13:18:24+0000","like_count":0,"user_likes":false},"717606188256061":{"id":"717606188256061","from":{"id":"100004322010992","name":"Nhím Xù"},"message":"Tks nhe","can_remove":false,"created_time":"2013-09-10T13:22:57+0000","like_count":0,"user_likes":false},"717606494922697":{"id":"717606494922697","from":{"id":"100001458099624","name":"Kham Pha"},"message":"tra trên mạng mấy cửa hiệu hard off, recycle ra địa điểm của nó xem cái nào gần thì đi ra tận nơi rước xe về luôn","can_remove":false,"created_time":"2013-09-10T13:23:31+0000","like_count":0,"user_likes":false},"717611688255511":{"id":"717611688255511","from":{"id":"100004322010992","name":"Nhím Xù"},"message":"Hic nhug toan kanji co pit ji dau","can_remove":false,"created_time":"2013-09-10T13:30:30+0000","like_count":0,"user_likes":false},"717627131587300":{"id":"717627131587300","from":{"id":"100001074875869","name":"Ly Hoang"},"message":"nhà ấy ở đâu, nếu ga shinjuku hoặc toda thì pm tớ, tớ chỉ đg cho đi mua, chỉ độ 5 sen thôi","can_remove":false,"created_time":"2013-09-10T14:10:36+0000","like_count":0,"user_likes":false},"717627578253922":{"id":"717627578253922","from":{"id":"100004487171641","name":"Lâm Còi"},"message":"tớ ở toda cậu ak","can_remove":false,"created_time":"2013-09-10T14:11:43+0000","like_count":0,"user_likes":false},"717700954913251":{"id":"717700954913251","from":{"id":"100004322010992","name":"Nhím Xù"},"message":"B bỉt cho nao ggan ike ko","can_remove":false,"created_time":"2013-09-10T17:04:16+0000","like_count":0,"user_likes":false}},"paging":{"cursors":{"after":"NzE3NTY3MTIxNTkzMzAx","before":"NzE3NTY3MTIxNTkzMzAx"},"next":"https://graph.facebook.com/229244010425617_717563984926948/comments?limit=1&summary=1&after=NzE3NTY3MTIxNTkzMzAx"},"summary":{"order":"chronological","total_count":14}}}