{"id":"229244010425617_717553238261356","type":"link","picture":"https://fbexternal-a.akamaihd.net/safe_image.php?d=AQCQ4LcaPQ99TCHX&w=154&h=154&url=http%3A%2F%2Fwww.hiragana.jp%2Fimages%2Flogo.gif","link":"http://www.hiragana.jp/","from":{"id":"100001416272263","name":"Mai PB"},"message":"Mọi người thử xem tiện ích này thế nào? Nhập trang web tiếng Nhật vào thì nó sẽ thêm furigana (phiên âm hiragana) vào tất cả chữ Hán cho mình. Hợp với ai đang học shokyuu. http://www.hiragana.jp/","created_time":"2013-09-10T12:02:03+0000","updated_time":"2013-09-10T13:34:57+0000","likes":{"data":{"100000603915176":{"id":"100000603915176","name":"悪いな ぁ"},"1416265619":{"id":"1416265619","name":"Starwar Bbj"},"100004450956167":{"id":"100004450956167","name":"Thắng Satoh"},"100004478832761":{"id":"100004478832761","name":"Thiên Trang"},"100001723862714":{"id":"100001723862714","name":"Bo Bien Vang"},"100001256765181":{"id":"100001256765181","name":"Anh Tuc Flower"},"100000189000953":{"id":"100000189000953","name":"Từ Ái"},"100000473889720":{"id":"100000473889720","name":"Ngọc Trung"},"100003823008938":{"id":"100003823008938","name":"Rám Nắng"},"1805084026":{"id":"1805084026","name":"Phuong Lan"},"100002508122689":{"id":"100002508122689","name":"Vũ Mạnh Tuấn"},"100003342122124":{"id":"100003342122124","name":"Xuan Nguyen"},"100000303662777":{"id":"100000303662777","name":"Trang Táo Mèo"}},"paging":{"cursors":{"after":"MTAwMDAwNjAzOTE1MTc2","before":"MTAwMDAwNjAzOTE1MTc2"},"next":"https://graph.facebook.com/229244010425617_717553238261356/likes?limit=1&summary=1&after=MTAwMDAwNjAzOTE1MTc2"},"summary":{"total_count":13}},"comments":{"data":{"717555221594491":{"id":"717555221594491","from":{"id":"100001416272263","name":"Mai PB"},"message":"Trang này cũng tương tự chức năng. http://yomoyomo.jp/","can_remove":false,"created_time":"2013-09-10T12:06:22+0000","like_count":1,"user_likes":false},"717613401588673":{"id":"717613401588673","from":{"id":"100001458099624","name":"Kham Pha"},"message":"oh, trang này ngày trước em cũng hay dùng. Anh Mai PB update link web vào note nhé","message_tags":[{"id":"100001416272263","name":"Mai PB","type":"user","offset":47,"length":6}],"can_remove":false,"created_time":"2013-09-10T13:34:57+0000","like_count":1,"user_likes":false}},"paging":{"cursors":{"after":"NzE3NTU1MjIxNTk0NDkx","before":"NzE3NTU1MjIxNTk0NDkx"},"next":"https://graph.facebook.com/229244010425617_717553238261356/comments?limit=1&summary=1&after=NzE3NTU1MjIxNTk0NDkx"},"summary":{"order":"chronological","total_count":2}}}