{"id":"229244010425617_717671564916190","type":"status","from":{"id":"100000435689227","name":"Huong Nguyen"},"message":"mình mới bắt đầu học tiếng nhật thì nên học theo giáo trình nào hả mọi người?giúp mình với ạ.Thanks nhiều.:D","created_time":"2013-09-10T15:51:52+0000","updated_time":"2013-09-10T23:11:51+0000","likes":{"data":{"100003920522288":{"id":"100003920522288","name":"Hoa Thuỷ Tiên Rừng"},"100003802129171":{"id":"100003802129171","name":"Nguyễn Ngọc Ý"},"100005982402082":{"id":"100005982402082","name":"Hcm Ilu"},"100003383827564":{"id":"100003383827564","name":"Khoảng Lặng"}},"paging":{"cursors":{"after":"MTAwMDAzOTIwNTIyMjg4","before":"MTAwMDAzOTIwNTIyMjg4"},"next":"https://graph.facebook.com/229244010425617_717671564916190/likes?limit=1&summary=1&after=MTAwMDAzOTIwNTIyMjg4"},"summary":{"total_count":4}},"comments":{"data":{"717673434916003":{"id":"717673434916003","from":{"id":"100000062884729","name":"Huệ Ca"},"message":"minnano nihongo","can_remove":false,"created_time":"2013-09-10T15:57:30+0000","like_count":2,"user_likes":false},"717673908249289":{"id":"717673908249289","from":{"id":"100005982402082","name":"Hcm Ilu"},"message":"theo các bậc tiền bối đi trước, có kinh ngiệm, đã học qua nhiều giáo trình và khuyên mình nên học giáo trình minna là tốt nhất!","can_remove":false,"created_time":"2013-09-10T15:59:04+0000","like_count":1,"user_likes":false},"717674091582604":{"id":"717674091582604","from":{"id":"100000435689227","name":"Huong Nguyen"},"message":"t cảm ơn nhé","can_remove":false,"created_time":"2013-09-10T15:59:42+0000","like_count":0,"user_likes":false},"717675984915748":{"id":"717675984915748","from":{"id":"100003802129171","name":"Nguyễn Ngọc Ý"},"message":"cho t hỏi học đến giai đoạn nào thì bắt buộc phải đến trung tâm ạ, hay tự học hết dc :D","can_remove":false,"created_time":"2013-09-10T16:04:56+0000","like_count":1,"user_likes":false},"717676451582368":{"id":"717676451582368","from":{"id":"100000435689227","name":"Huong Nguyen"},"message":"hj,t cũng mới đang tìm tài liệu để tự học bạn ak,t cũng ko rõ lắm","can_remove":false,"created_time":"2013-09-10T16:06:20+0000","like_count":0,"user_likes":false},"717676854915661":{"id":"717676854915661","from":{"id":"100000062884729","name":"Huệ Ca"},"message":"giai đoạn minna :)","can_remove":false,"created_time":"2013-09-10T16:07:20+0000","like_count":0,"user_likes":false},"717677164915630":{"id":"717677164915630","from":{"id":"100000435689227","name":"Huong Nguyen"},"message":"có những giai đoạn nào hả bạn Huệ Ca?","message_tags":[{"id":"100000062884729","name":"Huệ Ca","type":"user","offset":30,"length":6}],"can_remove":false,"created_time":"2013-09-10T16:08:08+0000","like_count":0,"user_likes":false},"717679164915430":{"id":"717679164915430","from":{"id":"100000062884729","name":"Huệ Ca"},"message":"e cũng ko biết nữa :D\ne học trên trường là Minna1 -> minna2 -> chuukyuu -> joukyuu \nhọc chuukyuu xong thì thi N3, còn joukyuu thì thi N2,N1","can_remove":false,"created_time":"2013-09-10T16:13:59+0000","like_count":0,"user_likes":false},"717679401582073":{"id":"717679401582073","from":{"id":"100000435689227","name":"Huong Nguyen"},"message":"hj,hơi khó hiểu.","can_remove":false,"created_time":"2013-09-10T16:14:51+0000","like_count":0,"user_likes":false},"717679524915394":{"id":"717679524915394","from":{"id":"100000435689227","name":"Huong Nguyen"},"message":"học cách viêt thì học như thế nào hả bạn?","can_remove":false,"created_time":"2013-09-10T16:15:14+0000","like_count":0,"user_likes":false},"717680694915277":{"id":"717680694915277","from":{"id":"100000062884729","name":"Huệ Ca"},"message":"cách viết là sao hả c? viết kanji hay là viết ngữ pháp?","can_remove":false,"created_time":"2013-09-10T16:17:53+0000","like_count":0,"user_likes":false},"717681131581900":{"id":"717681131581900","from":{"id":"100000435689227","name":"Huong Nguyen"},"message":"cách viết thông thường đó bạn","can_remove":false,"created_time":"2013-09-10T16:19:09+0000","like_count":0,"user_likes":false},"717681301581883":{"id":"717681301581883","from":{"id":"100000435689227","name":"Huong Nguyen"},"message":"giống như người mới tập viết í.:D","can_remove":false,"created_time":"2013-09-10T16:19:33+0000","like_count":0,"user_likes":false},"717682078248472":{"id":"717682078248472","from":{"id":"100000062884729","name":"Huệ Ca"},"message":"à, mấy chữ cái thì trong quyển sách có nét viết mẫu, nét nào trước nét nào sau đều có, rồi mình tự tập theo :)","can_remove":false,"created_time":"2013-09-10T16:21:44+0000","like_count":0,"user_likes":false},"717682711581742":{"id":"717682711581742","from":{"id":"100000435689227","name":"Huong Nguyen"},"message":"uhm,tại mình vừa xem thấy hơi khó viết.hj","can_remove":false,"created_time":"2013-09-10T16:22:53+0000","like_count":0,"user_likes":false},"717684941581519":{"id":"717684941581519","from":{"id":"100000062884729","name":"Huệ Ca"},"message":"viết ko khó, nhớ mới là vấn đề :v e học chữ hán cứ quên lên quên xuống :D","can_remove":false,"created_time":"2013-09-10T16:27:29+0000","like_count":1,"user_likes":false},"717706124912734":{"id":"717706124912734","from":{"id":"1341670471","name":"An Nguyen"},"message":"Ra ngoài tiệm sách mua mấy cuốn tập viết hiragana, katakana đó bạn.. Như là học sinh lớp 1 viết vậy đó.","can_remove":false,"created_time":"2013-09-10T17:18:47+0000","like_count":1,"user_likes":false},"717968668219813":{"id":"717968668219813","from":{"id":"100000435689227","name":"Huong Nguyen"},"message":"hj.cam on moi nguoi nhe.","can_remove":false,"created_time":"2013-09-10T23:11:51+0000","like_count":0,"user_likes":false}},"paging":{"cursors":{"after":"NzE3NjczNDM0OTE2MDAz","before":"NzE3NjczNDM0OTE2MDAz"},"next":"https://graph.facebook.com/229244010425617_717671564916190/comments?limit=1&summary=1&after=NzE3NjczNDM0OTE2MDAz"},"summary":{"order":"chronological","total_count":18}}}