{"id":"229244010425617_717985181551495","type":"status","from":{"id":"100002221209340","name":"Estewong Thuy Nguyen"},"message":"Chào các bạn!!! Mình hiện đang là sinh viên năm thứ 2 ngành công nghệ Kỹ Thuật Điều Khiển và Tự Động Hóa, DHSPKT TPHCM, lực học của mình cũng khá, tiếng anh giao tiếp nghe nói đọc viết rất tốt( mình đều tự học qua mạng cả và chưa tham gia để thi chứng chỉ), mình cũng có tự học thêm tiếng nhật, chào hỏi đơn giản bằng tiếng hoa. Mình rất thích đại học Tokyo, và có dự định sẽ sang đó học. Mình biết để dc cấp học bổng vào Đh Tokyo ko phải là điều dễ dàng ( kinh tế gia đình mình thuộc dạng nghèo) nên mình rất quyết tâm học cả ngoại ngữ lẫn chuyên ngành. Nhưng mình không biết để xin dc học bổng vào dh Tokyo và mình nên học ngành gì giống ngành của mình ở VN. Thủ tục như thế nào? nếu wa nhật làm bán thời gian thì có đủ chi phí không?! CÁC anh chị đi trước hay các bạn có kinh nghiệm thì chia sẻ giúp mình với. Mình cũng yêu nước Nhật lắm!!! nhưng chưa dc trải nghiệm. Mong sao dc wa đó tìm hỉu hàng công nghệ của Nhật. Mình rất là iu ngành ROBOT","created_time":"2013-09-11T00:03:34+0000","updated_time":"2013-09-11T14:20:28+0000","likes":{"data":{"100001260645727":{"id":"100001260645727","name":"Ngo Duy Son"},"100001062202744":{"id":"100001062202744","name":"Hoang Garu"},"100000042138129":{"id":"100000042138129","name":"Duong David"},"100001731744647":{"id":"100001731744647","name":"Niềm Vui"}},"paging":{"cursors":{"after":"MTAwMDAxMjYwNjQ1NzI3","before":"MTAwMDAxMjYwNjQ1NzI3"},"next":"https://graph.facebook.com/229244010425617_717985181551495/likes?limit=1&summary=1&after=MTAwMDAxMjYwNjQ1NzI3"},"summary":{"total_count":4}},"comments":{"data":{"718001581549855":{"id":"718001581549855","from":{"id":"100000383155614","name":"Phạm Thúc Hưng"},"message":"Thường thì sẽ có học bổng MEXT đủ cho bạn sống bên đấy mà ko phải bỏ tiền túi,  sẽ có 2 cách apply, nhưng cả 2 đều yêu cầu bạn học chuyên ngành sau đại học đúng chuyên ngàng của bạn ở trường đại học. Và robot thì nó có vẻ chung chung nên ban nên xác định một lĩnh vực hẹp hơn để xin học bổng này.","can_remove":false,"created_time":"2013-09-11T00:53:38+0000","like_count":1,"user_likes":false},"718002258216454":{"id":"718002258216454","from":{"id":"100000383155614","name":"Phạm Thúc Hưng"},"message":"À quên, mình đang nói học bổng mext sau đại học, bạn vẫn đang năm 2 nên có thể apply mext trong đại học nữa","can_remove":false,"created_time":"2013-09-11T00:55:36+0000","like_count":1,"user_likes":false},"718093298207350":{"id":"718093298207350","from":{"id":"100001458099624","name":"Kham Pha"},"message":"gian nan đây, vụ 進学của Quoc Anh Tran có lẽ sẽ giúp ích cho em","message_tags":[{"id":"100001231404357","name":"Quoc Anh Tran","type":"user","offset":23,"length":13}],"can_remove":false,"created_time":"2013-09-11T06:09:20+0000","like_count":1,"user_likes":false},"718094054873941":{"id":"718094054873941","from":{"id":"100001231404357","name":"Quoc Anh"},"message":"Trong một vài tuần nữa mình sẽ đăng thông tin cụ thể buổi tư vấn進学 lên group, hi vọng được sự ủng hộ của các bạn :)","can_remove":false,"created_time":"2013-09-11T06:12:22+0000","like_count":2,"user_likes":false},"718095248207155":{"id":"718095248207155","from":{"id":"100001231404357","name":"Quoc Anh"},"message":"@Phạm Thúc Hưng: nếu có thời gian, mình rất hi vọng bạn có thể tham gia chia sẻ kinh nghiệm lấy học bổng của bạn cho những bạn còn thiếu thông tin về khoản này :)\nBọn mình sẽ tổng hợp, lưu trữ thông tin những kinh nghiệm của các bạn. Sau này hi vọng sẽ không còn ai phải chạy đôn chạy đáo đi hỏi khắp nơi như thế này nữa ^^","can_remove":false,"created_time":"2013-09-11T06:17:25+0000","like_count":0,"user_likes":false},"718095784873768":{"id":"718095784873768","from":{"id":"100000383155614","name":"Phạm Thúc Hưng"},"message":"Mình đang xin học bổng nên cũng chẳng có kinh nghiệm gì bạn ạ, rất mong chờ bài của ban :v","can_remove":false,"created_time":"2013-09-11T06:19:35+0000","like_count":2,"user_likes":false},"718096238207056":{"id":"718096238207056","from":{"id":"100001231404357","name":"Quoc Anh"},"message":":)","can_remove":false,"created_time":"2013-09-11T06:21:56+0000","like_count":0,"user_likes":false},"718124464870900":{"id":"718124464870900","from":{"id":"100000383155614","name":"Phạm Thúc Hưng"},"message":"À, hiện tại mình đang phải đấu tranh tư tưởng giữa việc đi làm luôn và 進学 @@, đầu tháng 10 mình sẽ kí naitei với 1 cty ở Tokyo, còn 進学　thì có vẻ chả có gì chắc chắn cả @@.\nTheo bạn nên theo con đường chắc chắn hơn hay đi theo ước mơ nhưng không có gì đảm bảo :))","can_remove":false,"created_time":"2013-09-11T06:30:04+0000","like_count":3,"user_likes":false},"718128391537174":{"id":"718128391537174","from":{"id":"100000383155614","name":"Phạm Thúc Hưng"},"message":"Kham Pha nữa, làm công tác tư tưởng hộ tao cái :)), mấy hôm nay vồ được ai tao cũng hỏi câu này :))","message_tags":[{"id":"100001458099624","name":"Kham Pha","type":"user","offset":0,"length":8}],"can_remove":false,"created_time":"2013-09-11T06:31:07+0000","like_count":1,"user_likes":false},"718133178203362":{"id":"718133178203362","from":{"id":"100001458099624","name":"Kham Pha"},"message":"xúc xắc thôi :))","can_remove":false,"created_time":"2013-09-11T06:32:55+0000","like_count":1,"user_likes":false},"718137588202921":{"id":"718137588202921","from":{"id":"100001231404357","name":"Quoc Anh"},"message":"Nếu chọn con đường nào bạn cũng không hối hận, thì mình thấy tung đồng xu có vẻ hay :) trong lúc đồng xu đang lơ lửng bạn sẽ biết mình muốn gì :) mình nghe nói thế :)","can_remove":false,"created_time":"2013-09-11T06:34:45+0000","like_count":2,"user_likes":false},"718140838202596":{"id":"718140838202596","from":{"id":"100000383155614","name":"Phạm Thúc Hưng"},"message":"thế chắc sẽ tung thật cao để có nhiều thời gian suy nghĩ :))","can_remove":false,"created_time":"2013-09-11T06:36:07+0000","like_count":1,"user_likes":false},"718141094869237":{"id":"718141094869237","from":{"id":"100001458099624","name":"Kham Pha"},"message":"Quoc Anh Tran chính xác đấy, lúc đấy mình muốn nó rơi về bên nào thì đó chính là thứ mình muốn nhất\nPhạm Thúc Hưng nói tao nghe mày đi học tiếp để làm gì?","message_tags":[{"id":"100001231404357","name":"Quoc Anh Tran","type":"user","offset":0,"length":13},{"id":"100000383155614","name":"Phạm Thúc Hưng","type":"user","offset":100,"length":14}],"can_remove":false,"created_time":"2013-09-11T06:36:13+0000","like_count":1,"user_likes":false},"718145054868841":{"id":"718145054868841","from":{"id":"100000383155614","name":"Phạm Thúc Hưng"},"message":"Kham Pha nói có vẻ ngu nhưng tao muốn học để làm xã hội tốt hơn :)), đi làm thì chỉ kiếm tiền vào túi mình đến lúc chết thì cuộc đời mình cũng chả ý nghĩa gì cả.","message_tags":[{"id":"100001458099624","name":"Kham Pha","type":"user","offset":0,"length":8}],"can_remove":false,"created_time":"2013-09-11T06:37:52+0000","like_count":3,"user_likes":false},"718146508202029":{"id":"718146508202029","from":{"id":"100001458099624","name":"Kham Pha"},"message":"tốt, tao thích những thằng ngu như mày, đi học đi :))","can_remove":false,"created_time":"2013-09-11T06:38:30+0000","like_count":6,"user_likes":false},"718161414867205":{"id":"718161414867205","from":{"id":"100001508739620","name":"Lê Ngọc Hoàn"},"message":"Sao đi học có thể làm cho xã hội tốt hơn còn đi làm thì lại ko?","can_remove":false,"created_time":"2013-09-11T07:14:56+0000","like_count":1,"user_likes":false},"718163701533643":{"id":"718163701533643","from":{"id":"100006368081099","name":"Man Thu"},"message":"Minh nghi y ban y ko Phai la di hoc thi tot hon cho Xa Hoi con di lam thi ko.lam viec dung viec dung thoi Diem thi gan nhu dc cong Huong, ....","can_remove":false,"created_time":"2013-09-11T07:23:05+0000","like_count":0,"user_likes":false},"718167344866612":{"id":"718167344866612","from":{"id":"100001416272263","name":"Mai PB"},"message":"Viết cho Estewong ThuyNguyen. Bạn hãy vào trang web của trường, chọn một ông gs hay phó gs, viết thư cho ông ấy xin bảo lãnh bằng một recommendation letter cho tổ chức học bổng. Cơ hội sẽ cao hơn. Trước đó thì bạn phải tìm thông tin về các học bổng, và cũng có thể gs sẽ cho bạn cả thông tin về học bổng không chừng. Ngoài ra, khả năng bạn đc miễn học phí cũng rất cao dù khg dc học bổng. Trường quốc lập đều vậy.","message_tags":[{"id":"100002221209340","name":"Estewong ThuyNguyen","type":"user","offset":9,"length":19}],"can_remove":false,"created_time":"2013-09-11T07:38:59+0000","like_count":2,"user_likes":false},"718168004866546":{"id":"718168004866546","from":{"id":"100001416272263","name":"Mai PB"},"message":"Phạm Thúc Hưng có ng hợp với việc học, nghiên cứu, có ng hợp với đi lamg cty. Nếu học cũng có cơ hội làm việc cho môi trường nghiên cứu. Nếu học chỉ để học mà khg đam mê nó thì đi làm là hơn. Và ngược lại.","message_tags":[{"id":"100000383155614","name":"Phạm Thúc Hưng","type":"user","offset":0,"length":14}],"can_remove":false,"created_time":"2013-09-11T07:42:21+0000","like_count":2,"user_likes":false},"718174084865938":{"id":"718174084865938","from":{"id":"100001458099624","name":"Kham Pha"},"message":"Lê Ngọc Hoàn ý Hưng nó là đi theo nghiệp nghiên cứu làm ra các đề tài để đời ấy. Có lẽ Phạm Thúc Hưng nó đang đánh đồng việc đi làm với làm công ăn lương chăng.","message_tags":[{"id":"100001508739620","name":"Lê Ngọc Hoàn","type":"user","offset":0,"length":12},{"id":"100000383155614","name":"Phạm Thúc Hưng","type":"user","offset":87,"length":14}],"can_remove":false,"created_time":"2013-09-11T08:09:32+0000","like_count":2,"user_likes":false},"718196321530381":{"id":"718196321530381","from":{"id":"100001508739620","name":"Lê Ngọc Hoàn"},"message":"Đi làm cũng có thể tạo ra được những cái như thế mà?","can_remove":false,"created_time":"2013-09-11T09:36:19+0000","like_count":0,"user_likes":false},"718205221529491":{"id":"718205221529491","from":{"id":"100001458099624","name":"Kham Pha"},"message":"Làm gì cũng có thể thành công, miễn là làm cái mình thích và cái mình giỏi.","can_remove":false,"created_time":"2013-09-11T10:05:08+0000","like_count":0,"user_likes":false},"718336771516336":{"id":"718336771516336","from":{"id":"100001062202744","name":"Hoang Garu"},"message":"công ty thấy hỗ trợ nếu muốn học thêm hay nghiên cứu gì mà.","can_remove":false,"created_time":"2013-09-11T13:04:33+0000","like_count":0,"user_likes":false},"718380934845253":{"id":"718380934845253","from":{"id":"100001260645727","name":"Ngo Duy Son"},"message":"Phạm Thúc Hưng: Theo ngu ý của em thì anh nên đánh bài trâu dân, học tiếp lên thạc sỹ ở VN, rồi cố gắng làm tạm ở trường một thời gian, sau đó xin học bổng học tiếp Tiến Sỹ.\nCòn đi làm, em thấy lab em nó giống cái công ty thu nhỏ, nghiệt lắm nếu anh ko định bám trụ lâu dài.","message_tags":[{"id":"100000383155614","name":"Phạm Thúc Hưng","type":"user","offset":0,"length":14}],"can_remove":false,"created_time":"2013-09-11T13:57:31+0000","like_count":0,"user_likes":false},"718381771511836":{"id":"718381771511836","from":{"id":"100001458099624","name":"Kham Pha"},"message":"Ngo Duy Son lợi ích của học Thạc sĩ trong nước là gì?","message_tags":[{"id":"100001260645727","name":"Ngo Duy Son","type":"user","offset":0,"length":11}],"can_remove":false,"created_time":"2013-09-11T13:59:46+0000","like_count":0,"user_likes":false},"718382354845111":{"id":"718382354845111","from":{"id":"100001458099624","name":"Kham Pha"},"message":"Nếu có điều kiện thì cứ ra nước ngoài mà học, ở VN ko có điều kiện được đi hội thảo quốc tế học hỏi đâu. Như chuyến đi Ấn của tôi hôm nọ hết 100tr mõi người. VN lấy đâu ra tiền?","can_remove":false,"created_time":"2013-09-11T14:01:35+0000","like_count":2,"user_likes":false},"718382898178390":{"id":"718382898178390","from":{"id":"100001260645727","name":"Ngo Duy Son"},"message":"Thì anh Hưng muốn học lên giúp nước nhà. Học Thạc sĩ trong nước rồi thì sẽ vào làm nhà nước, nhà nước sẽ cấp học bổng với điều kiện cống hiến cho nhà nước ta.\nVậy là một công 3 việc, anh ấy vừa cống hiến được, vừa có xiền, nhà nước lại có chỗ đầu tư với xin viện trợ nước ngoài.","can_remove":false,"created_time":"2013-09-11T14:02:55+0000","like_count":0,"user_likes":false},"718383118178368":{"id":"718383118178368","from":{"id":"100001458099624","name":"Kham Pha"},"message":"Việc vào cơ quan nhà nước và cống hiến cho nước nhà là 2 chuyện chẳng liên quan.\nChuyện thằng Hưng nó có học Thạc sĩ hay ko cũng chẳng ảnh hưởng đến việc nước ta đi xin viện trợ nước ngoài. Bởi vì có suất đi học quy định sẵn rồi, Hưng nó ko đi thì đứa khác cũng đi. Ko xin đc thêm cũng chẳng rút bớt đi đc.","message_tags":[{"id":"100000383155614","name":"Hưng","type":"user","offset":94,"length":4}],"can_remove":false,"created_time":"2013-09-11T14:03:35+0000","like_count":1,"user_likes":false},"718390058177674":{"id":"718390058177674","from":{"id":"100001062202744","name":"Hoang Garu"},"message":"mình đâu cần phải làm nhà nước mới là giúp ích cho nhà nước nhỉ :v","can_remove":false,"created_time":"2013-09-11T14:20:28+0000","like_count":1,"user_likes":false}},"paging":{"cursors":{"after":"NzE4MDAxNTgxNTQ5ODU1","before":"NzE4MDAxNTgxNTQ5ODU1"},"next":"https://graph.facebook.com/229244010425617_717985181551495/comments?limit=1&summary=1&after=NzE4MDAxNTgxNTQ5ODU1"},"summary":{"order":"chronological","total_count":29}}}