{"id":"229244010425617_718038034879543","type":"status","from":{"id":"100000219148071","name":"Anh Còi"},"message":"Mọi người ơi, em đang cần mua gấp 5 bộ hồ sơ thi năng lực tiếng Nhật mà ở Đại Học Quốc Gia Hà Nội đã hết hồ sơ để bán. Ai biết ở đâu bán thì chỉ em với ạ. Em cảm ơn cả nhà!","created_time":"2013-09-11T02:34:53+0000","updated_time":"2013-09-12T14:51:38+0000","comments":{"data":{"718043424879004":{"id":"718043424879004","from":{"id":"100000969905909","name":"Shady Su"},"message":"Đại học Hà Nội có","can_remove":false,"created_time":"2013-09-11T02:55:05+0000","like_count":0,"user_likes":false},"718045628212117":{"id":"718045628212117","from":{"id":"100000219148071","name":"Anh Còi"},"message":"Shady Su: Arigatou!","message_tags":[{"id":"100000969905909","name":"Shady Su","type":"user","offset":0,"length":8}],"can_remove":false,"created_time":"2013-09-11T03:02:06+0000","like_count":0,"user_likes":false},"718977368118943":{"id":"718977368118943","from":{"id":"100002921712970","name":"ThuyDung Virgo"},"message":"bạn có thể đến ĐHQG để mua","can_remove":false,"created_time":"2013-09-12T14:51:38+0000","like_count":0,"user_likes":false}},"paging":{"cursors":{"after":"NzE4MDQzNDI0ODc5MDA0","before":"NzE4MDQzNDI0ODc5MDA0"},"next":"https://graph.facebook.com/229244010425617_718038034879543/comments?limit=1&summary=1&after=NzE4MDQzNDI0ODc5MDA0"},"summary":{"order":"chronological","total_count":3}},"likes":{"data":[]}}