{"id":"229244010425617_718190968197583","type":"status","from":{"id":"100002508122689","name":"Vũ Mạnh Tuấn"},"message":"Bài viết tâm huyết danh cho những ai chưa rõ về nhân xưng trong tiếng Nhật \n@Saromalang\n\n[Nhân xưng trong tiếng Nhật]\n\nBài này giới thiệu nhân xưng trong tiếng Nhật và cách sử dụng. Các bạn có thể thấy là khác với tiếng Anh, tiếng Nhật cũng sử dụng nhân xưng khác nhau tùy hoàn cảnh nói chuyện, cách người nói nhìn nhận về bản thân và quan hệ giữa người nói và người nghe như tiếng Việt.\n\nDanh sách nhân xưng trong tiếng Nhật\n\nNhân xưng thứ nhất và thứ hai trong tiếng Nhật\n私＝わたし＝watashi\n\"Tôi\": Dùng trong hoàn cảnh thông thường, lịch sự, trang trọng. Ví dụ khi bạn gặp người lạ, hoặc với người lớn tuổi hơn.\nSố nhiều là: 私たち（わたしたち、watashi-tachi）\n\nあなた＝anata\nNghĩa: Anh, chị, bạn, ông, bà. \n\"Anata\" là cách gọi lịch sự người mà bạn không thân thiết lắm, hoặc là cách gọi thân mật của người vợ với chồng.\nĐây là cách gọi lịch sự với người mới quen, trong văn viết thì sẽ dùng chữ kanji là 貴方 (quý phương, anata) cho nam và 貴女 (quý nữ, anata) cho nữ. Chú ý là trong văn viết bạn không nên dùng chữ hiragana あなた trừ khi muốn gọi thân mật.\nSố nhiều dạng lịch sự: 貴方がた（あなたがた、anatagata）= Quý vị, quý anh chị\nSố nhiều dạng thân mật hay suồng sã: あなたたち（anatatachi）= Các bạn, các người\nCác bạn cần chú ý là anata là dạng hết sức lịch sự, nhất là dạng số nhiều \"anatagata\" (các anh, các chị, các vị).\n\n君＝きみ＝kimi\n\"Em\": Cách gọi thân ái với người nghe ít tuổi hơn.\nBạn trai gọi bạn gái, thầy giáo gọi học sinh, người lớn tuổi hơn gọi đàn em.\n君がそばにいなくて僕はさびしい。\nKhông có em bên cạnh anh rất cô đơn.\n\n私＝わたくし＝watakushi\n\"Tôi\" ở dạng lịch sự hơn \"watashi\", dùng trong các trường hợp buổi lễ hay không khí trang trọng.\nSố nhiều: 私ども (watakushi domo)\nĐây là cách xưng hô khiêm tốn nhất cho nhân xưng thứ nhất.\n\n僕＝ぼく＝boku\n\"Tôi\": Dùng cho nam giới trong các tình huống thân mật, ví dụ trong gia đình (\"con\", \"cháu\"), với thầy giáo (\"em\"), với bạn bè (\"tôi\", \"tớ\"), với bạn gái (\"anh\"). Chú ý là đây là dạng thân mật nhưng không hề suồng sã. Tránh dùng trong các tình huống trang trọng hay lễ nghi.\n\nあたし＝atashi\nLà cách xưng \"tôi\" mà phụ nữ hay dùng. Giống \"watashi\" nhưng điệu đà hơn.\n\n俺＝おれ＝ore\n\"Tôi, tao, tớ\": Dùng cho trường hợp thân mật giữa bạn bè, với người thân thiết ít tuổi hơn hay dùng như \"tao\" là cách xưng hô ngoài đường phố.\nĐây là cách mà những kẻ đấm đá ngoài đường hay xã hội đen thường xuyên nói, được coi là cách nói không lịch sự.\nTuy nhiên trong tiếng Nhật bạn trai có thể dùng \"ore\" với bạn gái và gọi bạn gái là \"omae\" (\"mày\").\n\nお前＝おまえ＝omae\n\"Mày\", \"cậu\" (bạn bè): Dùng cho đường phố. \"Mae\" là trước mặt, omae tạo thành danh từ chỉ người đứng trước mặt. Còn gọi chệch là おめえ (omee).\nBạn trai có thể gọi bạn gái không lịch sự là \"omae\".\n\n手前＝てまえ hay てめえ = temae, temee\n\"Mày\" ở dạng còn mạnh hơn hơn \"omae\". Không nên dùng từ này trừ trong tình huống chửi bới.\nĐây là cách xưng hô bất lịch sự nhất đối với nhân xưng thứ hai.\n\nわし＝washi\n\"Lão\": Cách xưng \"tôi\" của người già, các bạn xem truyện tranh chắc hay thấy.\n\n我々＝われわれ＝wareware\n\"Chúng ta\": Bao gồm cả người nghe. \"Watashi tachi\" là \"chúng tôi\", không bao gồm người nghe.\nVí dụ:\n我々サイゴン人は繊細な心を持っている人間です。\nChúng ta, những người Sài Gòn, là những người có tâm hồn nhạy cảm.\n\n諸君＝しょくん＝shokun\n(kanji: \"chư quân\")\n\"Các bạn\": Xưng hô lịch sự với đám người ít tuổi hơn, như vua nói với binh lính, thầy giáo nói với học sinh, v.v...\nĐây là cách nói khá văn chương, kiểu cách. Dạng lịch sự hơn sẽ là \"anata gata\".\n\nNhân xưng ngôi thứ ba và cách xưng hô với ngôi thứ 2 trong tiếng Nhật\n彼＝かれ＝kare\nNghĩa: Anh ấy, anh ta\nDùng gọi nam giới ngôi thứ ba. \"~san\" sẽ là dạng lịch sự hơn. \"Kare\" là cách gọi trung lập.\nSố nhiều: 彼ら＝かれら＝karera\nChú ý là \"kare\" cũng dùng để chỉ \"bạn trai\", cách nói âu yếm hơn là \"kareshi\" (彼氏).\n私の彼：Bạn trai tôi\n\n彼女＝かのじょ＝kanojo\nNghĩa: Cô ấy, cô ta\nGiống \"kare\" nhưng dùng cho nữ.\nぼくの彼女：Bạn gái của tôi\n\n～さん＝~san\nCách gọi thông thường với ai đó \"Anh\", \"chị\", \"ông\", \"bà\".\n鈴木さん：Chị Suzuki\n佐藤さん：Anh Satoh\n高原さん：Ông Takahara\nĐây là cách dùng thông thường với người lớn tuổi hơn, hay với người mà bạn không thân thiết lắm. Các bạn có thể dùng cách này để gọi người nghe hay gọi người nào đó với người nghe.\n\n～氏 = ~shi\nĐây là dạng cứng hơn (lịch sự trang trọng hơn) của \"~san\", thường dùng trong văn bản (cách nói cứng và chính thống). Ví dụ:\n鈴木氏 Suzuki-shi: Ông/bà Suzuki\nĐây là cách nói TRUNG LẬP (khách quan, không chứa đựng cảm xúc) về người thứ ba, không gọi người đối diện là \"~shi\" nhé.\n\n～君＝～くん＝~kun\n\"Bạn\", \"em\" dùng để gọi bạn bè hay người nam dưới tuổi bạn. Các bạn nữ có thể gọi các bạn nam cùng lớp hay cùng nhóm. Có thể gọi \"em\" với người nam nhỏ tuổi hơn. Các bạn có thể dùng cách này để gọi người nghe hay gọi người nào đó với người nghe.\n加藤君：Bạn Katoh\n\n～ちゃん＝~chan\nGiống như \"~kun\" nhưng gọi cho nữ. Có thể dịch là \"em\", hay \"bé\".\nマイちゃん：bé Mai\n\n～様＝～さま＝~sama\nCách gọi lịch sự \"ông\", \"bà\", \"ngài\", \"quý bà\". Cách gọi này lịch sự hơn \"~san\".\nVí dụ: 高橋様 = Ngài Takahashi\nCác bạn có thể dùng cách này với người mới quen mà bạn tôn kính, hay mối quan hệ công việc. Thường dùng để gọi trực tiếp người nghe.\nお客様：Quý khách (okyaku sama)\n\n～殿＝～どの＝~dono\n(kanji: \"điện\")\nCách gọi lịch sự nhất với người nghe, trên cả \"~sama\". Sử dụng trong hoàn cảnh cực kỳ trang trọng.\n\nお宅＝おたく＝otaku\n\"Otaku\" vốn là từ dùng để gọi nhà của ai một cách lịch sự (taku = nhà, tư dinh), trong xưng hô là cách nói kiểu cách như kiểu \"các hạ\". Cách này là cách nói hết sức kiểu cách, thường hay dùng trong văn hóa \"otaku\" là văn hóa của những người đam mê manga Nhật Bản (trong đó các nhân vật gọi nhau hết sức kiểu cách.)\n\nCác cách gọi người thứ ba không có mặt trong tiếng Nhật\n人＝ひと＝hito\nCách gọi thông thường, ví dụ:\nその人：Người đó\n安藤さんという人：Người gọi là anh Andoh\n\n方＝かた＝kata\nCách gọi lịch sự. \"Ngài ấy\", \"bà ấy\", \"quý cô đó\".\nその方：Quý bà đó\n安藤さんとい方：Người gọi là anh Andoh\nBạn nên dùng cách này để gọi người của đối phương.\nSố nhiều: kata gata (gata là để cấu tạo số nhiều dạng tôn kính)\n\nもの＝mono\n弊社の安西というものが対応いたします。\nAnzai của công ty chúng tôi sẽ giải quyết.\nTên + \"to iu mono\" là cách gọi khiêm nhường người thuộc bên người nói, chú ý là trong trường hợp này chỉ dùng tên không mà không phải dạng \"~san\".\n\nあいつ＝aitsu\n\"Thằng đó\", \"hắn\": Chỉ người thứ 3. Đây là cách gọi khinh miệt.\nSố nhiều: あいつら (aitsura) bọn nó\n\nこいつ＝koitsu\n\"Thằng này\": Gọi người nghe một cách khinh miệt\n\nそいつ＝soitsu\n\"Thằng đó\": Gọi khinh miệt một người thứ 3 không có mặt\n\nこの野郎＝このやろう＝kono yarou\n\"Thằng chó này\": Cách gọi nhục mạ người đối diện\n(Tham khảo: ばか野郎=baka yarou = \"thằng ngu, thằng ngốc\" cũng là một cách gọi nhục mạ)\n\"yarou\" là cách gọi miệt thị, ví dụ \"sono yarou\",...\n\nCấu tạo số nhiều nhân xưng và cách gọi trong tiếng Nhật\nDạng lịch sự: Thêm \"gata\"\n貴方がた： Quý vị, các bạn\n方々（かたがた）： Những người (dạng lịch sự hơn 人々 hitobito)\n\nDạng thông thường: Thêm \"tachi\"\nあなたたち：Mấy người, các người\n安西さんたち：Nhóm chị Anzai\n子供たち：Lũ trẻ\n友達（ともだち）：Bạn bè \n兵士たち：Những người lính\nその人たち：Những người đó\n\nDạng suồng sã: Thêm \"ra\"\n彼ら：Đám anh ta\n彼女ら：Đám chị ấy\n放浪者ら：Đám người lang thang\nお前ら：Chúng mày\nあいつら：Chúng nó\n\nCác cách gọi khác trong tiếng Nhật\n王様：ousama, vua\n陛下様：Bệ hạ\n閣下：kakka (các hạ) = các hạ (gọi đối phương là người cao quý một cách tôn kính)\n小生：shousei (tiểu sinh) = tiểu sinh (tự gọi bản thân một cách khiêm tốn)\nNgoài ra có thể dùng danh từ chung để gọi như:\n青年＝せいねん＝Thanh niên\n若者＝わかもの＝Người trẻ tuổi","created_time":"2013-09-11T09:15:07+0000","updated_time":"2013-09-11T15:03:11+0000","likes":{"data":{"100004089979962":{"id":"100004089979962","name":"Thuy Tien Nguyen"},"100003011417151":{"id":"100003011417151","name":"Hue Kim"},"100003692844643":{"id":"100003692844643","name":"Ngoc Hoang"},"100003669604211":{"id":"100003669604211","name":"Mặt Trời Phương Đông"},"100004028173069":{"id":"100004028173069","name":"Jin Ngốc"},"100001062202744":{"id":"100001062202744","name":"Hoang Garu"},"100003631860637":{"id":"100003631860637","name":"Meaningof Thelife"},"100001416272263":{"id":"100001416272263","name":"Mai PB"},"100003216142531":{"id":"100003216142531","name":"Dudu Tròn"},"100003221880243":{"id":"100003221880243","name":"Ngân Siêu Nhân"},"100000193104491":{"id":"100000193104491","name":"Hac Nguyet"}},"paging":{"cursors":{"after":"MTAwMDA0MDg5OTc5OTYy","before":"MTAwMDA0MDg5OTc5OTYy"},"next":"https://graph.facebook.com/229244010425617_718190968197583/likes?limit=1&summary=1&after=MTAwMDA0MDg5OTc5OTYy"},"summary":{"total_count":11}},"comments":{"data":{"718206008196079":{"id":"718206008196079","from":{"id":"100001458099624","name":"Kham Pha"},"message":"chú đọc loạt bài về xưng hô trong tiếng Nhật anh viết trong group chưa?","can_remove":false,"created_time":"2013-09-11T10:08:15+0000","like_count":0,"user_likes":false},"718206358196044":{"id":"718206358196044","from":{"id":"100002508122689","name":"Vũ Mạnh Tuấn"},"message":"list dài quá nên e chưa xem hết được, lúc nãy ấn vào check qua ko thấy , em tưởng chưa ai viết nên post lên ^^","can_remove":false,"created_time":"2013-09-11T10:09:33+0000","like_count":0,"user_likes":false},"718206728196007":{"id":"718206728196007","from":{"id":"100001458099624","name":"Kham Pha"},"message":"đúng là bụt nhà ko thiêng mà","can_remove":false,"created_time":"2013-09-11T10:10:58+0000","like_count":1,"user_likes":false},"718206901529323":{"id":"718206901529323","from":{"id":"100002508122689","name":"Vũ Mạnh Tuấn"},"message":":3 gomen ne :3","can_remove":false,"created_time":"2013-09-11T10:11:47+0000","like_count":0,"user_likes":false},"718239564859390":{"id":"718239564859390","from":{"id":"100003221880243","name":"Ngân Siêu Nhân"},"message":"kimi ga suki kara. moi hieu nghja duoc cau nay","can_remove":false,"created_time":"2013-09-11T10:44:52+0000","like_count":0,"user_likes":false},"718241318192548":{"id":"718241318192548","from":{"id":"100002508122689","name":"Vũ Mạnh Tuấn"},"message":"kimi là đại từ nhân xưng ngôi thứ 2 mà :D tỏ tình vs bạn gái thì dùng câu đó là đúng r","can_remove":false,"created_time":"2013-09-11T10:45:42+0000","like_count":0,"user_likes":false},"718250868191593":{"id":"718250868191593","from":{"id":"100001416272263","name":"Mai PB"},"message":"Cái list này để tham khảo như từ điển thôi, ai mà học được kiểu này chứ. Những list khác cũng vậy. Cách học và nhớ tốt nhất: học theo hội thoại.","can_remove":false,"created_time":"2013-09-11T10:55:08+0000","like_count":1,"user_likes":false},"718258064857540":{"id":"718258064857540","from":{"id":"100002508122689","name":"Vũ Mạnh Tuấn"},"message":"vâng. chỉ là sự tổng hợp thôi ạ","can_remove":false,"created_time":"2013-09-11T11:05:07+0000","like_count":1,"user_likes":false},"718263801523633":{"id":"718263801523633","from":{"id":"100000064686295","name":"Huy Roli"},"message":"Tất cả đúng chưa để mình còn copy và in ra? Cái này toàn kiến thức mình cần mà chưa biết, cám ơns nhiều nhé","can_remove":false,"created_time":"2013-09-11T11:21:49+0000","like_count":0,"user_likes":false},"718265891523424":{"id":"718265891523424","from":{"id":"100002508122689","name":"Vũ Mạnh Tuấn"},"message":"khá là chuẩn đó :D","can_remove":false,"created_time":"2013-09-11T11:28:24+0000","like_count":0,"user_likes":false},"718268261523187":{"id":"718268261523187","from":{"id":"100001344072551","name":"Việt Đức Hoàng"},"message":"ơ thế ko có ware à :v","can_remove":false,"created_time":"2013-09-11T11:36:14+0000","like_count":0,"user_likes":false},"718268474856499":{"id":"718268474856499","from":{"id":"100001416272263","name":"Mai PB"},"message":"Mình muốn chọc ngoáy chút nhưng mà để lúc khác.","can_remove":false,"created_time":"2013-09-11T11:36:59+0000","like_count":1,"user_likes":false},"718273254856021":{"id":"718273254856021","from":{"id":"100001458099624","name":"Kham Pha"},"message":"Vũ Mạnh Tuấn chú tìm thấy 3 bài anh viết về vấn đề này chưa? Thấy rồi thì comment link vào đây cho anh. Công sức viết bài rồi pin cả danh mục lên trên mà chả mấy người biết là sao.","message_tags":[{"id":"100002508122689","name":"Vũ Mạnh Tuấn","type":"user","offset":0,"length":12}],"can_remove":false,"created_time":"2013-09-11T11:47:52+0000","like_count":2,"user_likes":false},"718279601522053":{"id":"718279601522053","from":{"id":"100001416272263","name":"Mai PB"},"message":"Chỉ muốn nhắn trước 1 câu là tránh chữ anata đi.","can_remove":false,"created_time":"2013-09-11T11:53:23+0000","like_count":1,"user_likes":false},"718332761516737":{"id":"718332761516737","from":{"id":"100000064686295","name":"Huy Roli"},"message":"Ý, sao anh lại nói vậy? Sách mina no nihongo dạy chữ anata ngay bài 1, vậy là sao ạ?????","can_remove":false,"created_time":"2013-09-11T12:51:46+0000","like_count":0,"user_likes":false},"718333018183378":{"id":"718333018183378","from":{"id":"100001416272263","name":"Mai PB"},"message":"Đó là cái chết của sách giáo khoa","can_remove":false,"created_time":"2013-09-11T12:52:22+0000","like_count":0,"user_likes":false},"718333861516627":{"id":"718333861516627","from":{"id":"100000064686295","name":"Huy Roli"},"message":"Hic, buồn vì nền gd của vn quá, tiền tiền và ko hiệu quả","can_remove":false,"created_time":"2013-09-11T12:54:54+0000","like_count":0,"user_likes":false},"718337601516253":{"id":"718337601516253","from":{"id":"100001458099624","name":"Kham Pha"},"message":"Đó là lí do có group này, để cho các bạn tránh học mấy thứ trong sách, sang Nhật ko dùng đc đâu","can_remove":false,"created_time":"2013-09-11T13:07:06+0000","like_count":2,"user_likes":false},"718398101510203":{"id":"718398101510203","from":{"id":"100002508122689","name":"Vũ Mạnh Tuấn"},"message":"tại sao không nên sử dụng từ anata :D \nCùng tham khảo :\n\n\" Anata\nあなた\n(Bạn)\nAnh Lerner đang nói chuyện với ông Yamamoto, giám đốc công ty anh. Khi anh hỏi:\n\nAnata-mo ikimasu-ka.\nあなたも行きますか。\n\nÔng Yamamoto im lặng một lúc, rồi nhìn anh Lerner và trả lời “Có” một cách lạnh lùng. Sau đó, anh Tanaka, người cũng có mặt ở đó, nói với anh Lerner rằng gọi giám đốc bằng “anata” là thiếu lịch sự.\nQua chuyện này, anh Lerner bắt đầu chú ý đến cách người Nhật dùng “anata”, và phát hiện ra họ không ưa dùng nó lắm. Hẳn bạn sẽ rất ngạc nhiên khi biết “anata” ít được sử dụng như thế nào nếu so sánh với “you”, một từ tương đương với nó trong tiếng Anh.\n\nNgười Nhật thường xuyên giao tiếp mà không dùng đến các đại từ nhân xưng; thậm chí họ còn cò vẻ tránh dùng chúng. Khi phải dùng đến những từ để ám chỉ một người nào đó, họ dùng tên riêng thay vì đại từ nhân xưng tương ứng như “anh ấy”, “cô ấy” hay “bạn” trong tiếng Anh. Đôi khi chúng ta hoàn toàn không thể phân biệt được người nói đang nói về người thứ hai (người nghe) hay người thứ ba nếu chỉ nhìn vào bản thân câu nói. Lấy ví dụ, “Yamamoto-san -mo ikimasu-ka” có nghĩa đen là “Anh/Ngài Yamamoto cũng sắp đi à?” nhưng trong thực tế, nó có thể mang nghĩa “Bạn cũng sắp đi à?”.\n\nĐôi khi những tên chỉ chức vụ, vị trí trong xã hội cũng được dùng thay cho đại từ nhân xưng. Những cụm từ như “sensee” (giáo viên), shachoo (giám đốc), okusan (người vợ) và okaasan (mẹ) được sử dụng thay cho tên riêng hay “anata”. Đặc biệt khi vị trí của người nghe đáng nhận được sự tôn trọng thì nên dùng vị trí đó để gọi họ hơn là tên riêng hay “anata”. Ví thế, đang lẽ ra anh Lerner nên nói “Sachoo-mo irasshaimasu-ka” với giám đốc của anh, thay vì nói “Anata-mo ikimasu-ka” (Phải chọn động từ dựa theo mức độ lịch sự của câu, do đó irasshaimasu được dùng thay vì ikimasu).\n\nChúng ta chỉ dùng “anata” trong những hoàn cảnh rất giới hạn. Nó có thể được sử dụng khi người nhiều tuổi hơn nói với người ít tuổi hơn. Một giáo viên có thể gọi học sinh của mình bằng “anata”, nhưng một học sinh lại không được dùng “anata” với giáo viên. Một người mẹ có thể hỏi đứa con: “Anata-mo iku?” (“Iku” là thể ngắn của “ikimasu”), nhưng đứa con lại không bao giờ dùng câu nói tương tự với mẹ mình.\n\n“Anata” còn được dùng giữa những người phụ nữ ở cùng độ tuổi. (Đàn ông dùng “kimi” hay “omae” trong trường hợp tương tự). Ở đây, từ “nhạy cảm” “anata” thường được thay thế bằng tên riêng hoặc tên chỉ vị trí trong xã hội. Hai người nội trợ sẽ hay nói với nhau thế này:\n\nA: Okusan-mo iku? (nghĩa đen: Mẹ nó cũng sắp đi à?)\nB: Ee, okusan-mo? (nghĩa đen: Ừ. Thế mẹ nó?)\n\n\"","can_remove":false,"created_time":"2013-09-11T14:40:33+0000","like_count":2,"user_likes":false},"718398778176802":{"id":"718398778176802","from":{"id":"100001458099624","name":"Kham Pha"},"message":"Vũ Mạnh Tuấn chú vẫn chưa đọc bài của anh phải ko. ko chịu đọc mà cứ hỏi là sao. Chú làm anh bực rồi đấy.","message_tags":[{"id":"100002508122689","name":"Vũ Mạnh Tuấn","type":"user","offset":0,"length":12}],"can_remove":false,"created_time":"2013-09-11T14:41:54+0000","like_count":0,"user_likes":false},"718399041510109":{"id":"718399041510109","from":{"id":"100002508122689","name":"Vũ Mạnh Tuấn"},"message":"ơ em vừa mới về đến nhà :D \nchotto matte kudasai :D","can_remove":false,"created_time":"2013-09-11T14:42:25+0000","like_count":0,"user_likes":false},"718399334843413":{"id":"718399334843413","from":{"id":"100002508122689","name":"Vũ Mạnh Tuấn"},"message":"ps: em có hỏi gì đâu. \nvà bây giờ sẽ đi tìm bài ạ","can_remove":false,"created_time":"2013-09-11T14:42:52+0000","like_count":0,"user_likes":false},"718400601509953":{"id":"718400601509953","from":{"id":"100001458099624","name":"Kham Pha"},"message":"Chú thắc mắc thì cũng khác gì. Học đi rồi hãng hỏi. Lúc đó mà còn hỏi nữa thì anh sẽ trả lời.","can_remove":false,"created_time":"2013-09-11T14:44:19+0000","like_count":0,"user_likes":false},"718400948176585":{"id":"718400948176585","from":{"id":"100004112258038","name":"Chung Tran"},"message":"có 1 cái khó là đôi khi ko nhớ được tên, hay chức vụ của người mới gặp , để tránh anata, chúng ta nên xưng hô như thế nào ?","can_remove":false,"created_time":"2013-09-11T14:44:51+0000","like_count":0,"user_likes":false},"718401668176513":{"id":"718401668176513","from":{"id":"100001458099624","name":"Kham Pha"},"message":"hỏi lại tên người ta cho đến khi nhớ.","can_remove":false,"created_time":"2013-09-11T14:45:53+0000","like_count":0,"user_likes":false},"718402268176453":{"id":"718402268176453","from":{"id":"100001416272263","name":"Mai PB"},"message":"Kham Pha hiểu nhầm vì câu đầu tiên rồi, thực ra Vũ Mạnh Tuấn đang tìm bài giải thích cho câu anata của anh đấy, có hỏi gì đâu.","message_tags":[{"id":"100001458099624","name":"Kham Pha","type":"user","offset":0,"length":8},{"id":"100002508122689","name":"Vũ Mạnh Tuấn","type":"user","offset":48,"length":12}],"can_remove":false,"created_time":"2013-09-11T14:46:51+0000","like_count":0,"user_likes":false},"718402811509732":{"id":"718402811509732","from":{"id":"100002508122689","name":"Vũ Mạnh Tuấn"},"message":"Chúng ta cùng tham khảo bài viết của anh Kham Pha trong chuyên mục Ngữ Pháp Tiếng Nhật về xưng hô trong tiếng Nhật qua 3 bài viết :\n\nBài 84: Xưng hô trong tiếng Nhật và các tình huống sử dụng (Phần 1)\nhttps://www.facebook.com/groups/229244010425617/doc/632381650111849/\n\n \nBài 85: Xưng hô trong tiếng Nhật và các tình huống sử dụng (Phần 2)\nhttps://www.facebook.com/groups/229244010425617/doc/633337263349621/\n\nBài 97 : Xưng hô trong tiếng Nhật và các tình huống sử dụng (Phần 3: các hậu tố sau đại từ nhân xưng)\nhttps://www.facebook.com/groups/229244010425617/doc/643875238962490/\n\nDouzo !","message_tags":[{"id":"100001458099624","name":"Kham Pha","type":"user","offset":41,"length":8}],"can_remove":false,"created_time":"2013-09-11T14:48:10+0000","like_count":0,"user_likes":false},"718409838175696":{"id":"718409838175696","from":{"id":"100002185080351","name":"Nguyễn Xuân Bách"},"message":"Hnay thầy keita xưng là boku.","can_remove":false,"created_time":"2013-09-11T15:02:59+0000","like_count":0,"user_likes":false},"718409928175687":{"id":"718409928175687","from":{"id":"100001416272263","name":"Mai PB"},"message":"Chung Tran vẫn không được dùng anata thế mới oái oăm. Phải nói cách khác.","message_tags":[{"id":"100004112258038","name":"Chung Tran","type":"user","offset":0,"length":10}],"can_remove":false,"created_time":"2013-09-11T15:03:11+0000","like_count":0,"user_likes":false}},"paging":{"cursors":{"after":"NzE4MjA2MDA4MTk2MDc5","before":"NzE4MjA2MDA4MTk2MDc5"},"next":"https://graph.facebook.com/229244010425617_718190968197583/comments?limit=1&summary=1&after=NzE4MjA2MDA4MTk2MDc5"},"summary":{"order":"chronological","total_count":29}}}