{"id":"229244010425617_718403411509672","type":"status","from":{"id":"100001508739620","name":"Lê Ngọc Hoàn"},"message":"ACE trong group cho mình hỏi trong tình huống nếu F nói như này thì M nên trả lời như nào? Vì sao?\n\nF: 今度こそ、頑張りたいと思っているんだ。\nM:１．うん、応援してるよ。\n　２．そんなこと言わずに、もっと頑張ってよ。\n　３．前回もよく頑張ったからね。","created_time":"2013-09-11T14:49:41+0000","updated_time":"2013-09-12T15:07:23+0000","likes":{"data":{"100000027754899":{"id":"100000027754899","name":"Hoang Van Ba"},"100000309978634":{"id":"100000309978634","name":"Tan Vu"},"100001789054977":{"id":"100001789054977","name":"Ginga Idō Shi"},"100001458099624":{"id":"100001458099624","name":"Kham Pha"},"100000083393860":{"id":"100000083393860","name":"Bùi Minh Kết"}},"paging":{"cursors":{"after":"MTAwMDAwMDI3NzU0ODk5","before":"MTAwMDAwMDI3NzU0ODk5"},"next":"https://graph.facebook.com/229244010425617_718403411509672/likes?limit=1&summary=1&after=MTAwMDAwMDI3NzU0ODk5"},"summary":{"total_count":5}},"comments":{"data":{"718404461509567":{"id":"718404461509567","from":{"id":"100001260645727","name":"Ngo Duy Son"},"message":"3","can_remove":false,"created_time":"2013-09-11T14:50:55+0000","like_count":0,"user_likes":false},"718404654842881":{"id":"718404654842881","from":{"id":"100001458099624","name":"Kham Pha"},"message":"1. mà quất","can_remove":false,"created_time":"2013-09-11T14:51:03+0000","like_count":2,"user_likes":false},"718404794842867":{"id":"718404794842867","from":{"id":"100001508739620","name":"Lê Ngọc Hoàn"},"message":"Vì sao lại thế các a?","can_remove":false,"created_time":"2013-09-11T14:51:18+0000","like_count":0,"user_likes":false},"718405214842825":{"id":"718405214842825","from":{"id":"100001458099624","name":"Kham Pha"},"message":"người ta bảo \"Tôi sẽ thật cố gắng vào lần sau\" thì phải bảo là \"Tôi sẽ ủng hộ nhiệt tình\" chứ còn gì.","can_remove":false,"created_time":"2013-09-11T14:52:28+0000","like_count":0,"user_likes":false},"718405528176127":{"id":"718405528176127","from":{"id":"100001508739620","name":"Lê Ngọc Hoàn"},"message":"A Ngo Duy Son bảo vệ chính kiến của mình đi chứ :v","message_tags":[{"id":"100001260645727","name":"Ngo Duy Son","type":"user","offset":2,"length":11}],"can_remove":false,"created_time":"2013-09-11T14:53:11+0000","like_count":0,"user_likes":false},"718405584842788":{"id":"718405584842788","from":{"id":"100001458099624","name":"Kham Pha"},"message":"Tất nhiên là cũng còn tùy hoàn cảnh thôi, ko có văn cảnh khó chọn","can_remove":false,"created_time":"2013-09-11T14:53:22+0000","like_count":0,"user_likes":false},"718405671509446":{"id":"718405671509446","from":{"id":"100001260645727","name":"Ngo Duy Son"},"message":"Đời phải có gió xoáy mới hay chứ anh!","can_remove":false,"created_time":"2013-09-11T14:53:38+0000","like_count":0,"user_likes":false},"718405714842775":{"id":"718405714842775","from":{"id":"100001508739620","name":"Lê Ngọc Hoàn"},"message":"Nó chỉ có đoạn đấy thôi","can_remove":false,"created_time":"2013-09-11T14:53:45+0000","like_count":0,"user_likes":false},"718405921509421":{"id":"718405921509421","from":{"id":"100001458099624","name":"Kham Pha"},"message":"Lịch sự nhất, ko làm mất lòng người ta thì nên chọn 1","can_remove":false,"created_time":"2013-09-11T14:54:14+0000","like_count":0,"user_likes":false},"718406288176051":{"id":"718406288176051","from":{"id":"100001260645727","name":"Ngo Duy Son"},"message":"Cái chữ こそ. Rõ ràng là thằng này mấy lần trước có nói rồi. Cơ mà ko được, nên xoáy vậy hợp lý hơn","can_remove":false,"created_time":"2013-09-11T14:55:11+0000","like_count":0,"user_likes":false},"718407128175967":{"id":"718407128175967","from":{"id":"100001458099624","name":"Kham Pha"},"message":"Ngo Duy Son hiểu nhầm ý câu 3 rồi","message_tags":[{"id":"100001260645727","name":"Ngo Duy Son","type":"user","offset":0,"length":11}],"can_remove":false,"created_time":"2013-09-11T14:57:19+0000","like_count":0,"user_likes":false},"718407401509273":{"id":"718407401509273","from":{"id":"100001458099624","name":"Kham Pha"},"message":"thôi dành chỗ cho các bạn khác vào bàn luận","can_remove":false,"created_time":"2013-09-11T14:57:43+0000","like_count":1,"user_likes":false},"718407418175938":{"id":"718407418175938","from":{"id":"100000328306722","name":"Tran Ngoc Anh"},"message":"anh Sơn xoáy người ta quá =))","can_remove":false,"created_time":"2013-09-11T14:57:45+0000","like_count":0,"user_likes":false},"718409171509096":{"id":"718409171509096","from":{"id":"100001416272263","name":"Mai PB"},"message":"Chỉ có thể 1 mà thôi. Chắc đây là đề N2 hay N1 chứ gì?","can_remove":false,"created_time":"2013-09-11T15:01:42+0000","like_count":2,"user_likes":false},"718410214842325":{"id":"718410214842325","from":{"id":"100001508739620","name":"Lê Ngọc Hoàn"},"message":"N2 a Mai PB ah\nKhả năng là a Sơn đang troll. A Sơn xin lỗi a Khám đi :D","message_tags":[{"id":"100001416272263","name":"Mai PB","type":"user","offset":5,"length":6}],"can_remove":false,"created_time":"2013-09-11T15:04:02+0000","like_count":0,"user_likes":false},"718430521506961":{"id":"718430521506961","from":{"id":"100000309978634","name":"Tan Vu"},"message":"nếu là người Việt thì 2 cũng có thể chứ nhỉ :-/","can_remove":false,"created_time":"2013-09-11T15:48:18+0000","like_count":0,"user_likes":false},"718624214820925":{"id":"718624214820925","from":{"id":"100003344971432","name":"Tấn Quỳnh Ht"},"message":"minh thay dap an nao cung dc. hehe","can_remove":false,"created_time":"2013-09-11T22:31:20+0000","like_count":0,"user_likes":false},"718728431477170":{"id":"718728431477170","from":{"id":"100000687662713","name":"Vu Thi Man"},"message":"Minh lai nghi ngay den dap an 2. Viet Nam qua day ma.","can_remove":false,"created_time":"2013-09-12T02:17:38+0000","like_count":0,"user_likes":false},"718744414808905":{"id":"718744414808905","from":{"id":"100001416272263","name":"Mai PB"},"message":"Các câu trả lời bản thân nó khg sai về tiếng N, chỉ đúng hay sai khi nó có phải là \"ông nói gà bà nói vịt\" hay không thôi. Mọi ng suy nghĩ tiếp đi.","can_remove":false,"created_time":"2013-09-12T02:51:11+0000","like_count":0,"user_likes":false},"718780821471931":{"id":"718780821471931","from":{"id":"566093622","name":"Loby Huong"},"message":"Mình cũng nghĩ là đáp án 2. Nhưng vì đây là đề nghe nên tớ nghĩ còn phải xem giọng điệu của họ nữa.","can_remove":false,"created_time":"2013-09-12T05:02:27+0000","like_count":0,"user_likes":false},"718793611470652":{"id":"718793611470652","from":{"id":"100003344971432","name":"Tấn Quỳnh Ht"},"message":"vay chac 2 roi","can_remove":false,"created_time":"2013-09-12T06:07:49+0000","like_count":0,"user_likes":false},"718817824801564":{"id":"718817824801564","from":{"id":"100000027754899","name":"Hoang Van Ba"},"message":"1","can_remove":false,"created_time":"2013-09-12T08:06:16+0000","like_count":0,"user_likes":false},"718826864800660":{"id":"718826864800660","from":{"id":"566093622","name":"Loby Huong"},"message":"Mình hỏi một chị người Nhật, chị ý bảo đáp án 1 :)))))","can_remove":false,"created_time":"2013-09-12T08:44:45+0000","like_count":0,"user_likes":false},"718982438118436":{"id":"718982438118436","from":{"id":"100001416272263","name":"Mai PB"},"message":"Mọi người ok rồi chứ?","can_remove":false,"created_time":"2013-09-12T15:06:43+0000","like_count":0,"user_likes":false},"718982754785071":{"id":"718982754785071","from":{"id":"100001508739620","name":"Lê Ngọc Hoàn"},"message":"Ok","can_remove":false,"created_time":"2013-09-12T15:07:23+0000","like_count":0,"user_likes":false}},"paging":{"cursors":{"after":"NzE4NDA0NDYxNTA5NTY3","before":"NzE4NDA0NDYxNTA5NTY3"},"next":"https://graph.facebook.com/229244010425617_718403411509672/comments?limit=1&summary=1&after=NzE4NDA0NDYxNTA5NTY3"},"summary":{"order":"chronological","total_count":25}}}