{"id":"229244010425617_718440304839316","type":"status","from":{"id":"1821970083","name":"Nguyễn Mạnh Cường"},"message":"Cho mình hỏi có ai đang đi du học theo Chikyuji không ạ? Và các bạn đã lựa chọn Chikjuji thấy thế nào? có tốt không ? cả không tốt không ạ?\n\nMình đã có kế hoạch du học tự túc thôi, mong muốn vào tháng 4 năm sau. Nhưng chưa biết chọn công ty nào ? Có người góp ý là theo Hinata tại Vn nhánh liên kết gì đó của Chikyuji. \n\nMình đã gọi điện và gọi điện với chí phí trọn gói cho 1 năm học tiếng và 3 tháng tiền nhà, note \"100% đảm bảo có việc làm\": cụ thể là làm cơm hộp ngay sau khi sang Nhật tầm 1 tháng, và được những senpai bên đó giúp đỡ support nữa.. Giá 1 cục là 235 triệu (chưa chứng minh tài chính)\n\nCá nhân mình cảm thấy khá tin tưởng, và cũng dự định lựa chọn nó. Nhưng vẫn mong có ý kiến đóng góp của mọi người nếu như đã trải nghiệm qua, để thêm tin tưởng.\n\nMình đã search thử thông tin về Hinata và Chikyuji tại Vn, nhưng lịch sử của nó thì rất mới tầm có 2 năm xây dựng, hỏi về điều này, được anh hướng dẫn giải thích rằng, bên anh trước đó là ko làm về việc hướng dẫn này nhiều, mà chia ra cho nhiều cơ sở, nhưng thực trạng hiện nay các cơ sở lấy tiền cao, và đảm bảo ko rõ ràng, nên chính thức bên anh mở rộng. (??? Mọi người có thông tin gì không ạ?)\n\nRất mong được các bạn góp ý, vì thời gian làm hồ sơ cũng đến gần rồi. \n\nCảm ơn mọi người rất nhiều!","created_time":"2013-09-11T16:15:03+0000","updated_time":"2013-09-11T17:28:24+0000","likes":{"data":{"100002508122689":{"id":"100002508122689","name":"Vũ Mạnh Tuấn"},"100002955969216":{"id":"100002955969216","name":"Hieu Lanh"},"100006451675000":{"id":"100006451675000","name":"Lanh Chan"},"100002483398063":{"id":"100002483398063","name":"Min Pop"},"1603137055":{"id":"1603137055","name":"Nguyen Song Lan Anh"},"100005478454231":{"id":"100005478454231","name":"Maruko Chan"}},"paging":{"cursors":{"after":"MTAwMDAyNTA4MTIyNjg5","before":"MTAwMDAyNTA4MTIyNjg5"},"next":"https://graph.facebook.com/229244010425617_718440304839316/likes?limit=1&summary=1&after=MTAwMDAyNTA4MTIyNjg5"},"summary":{"total_count":6}},"comments":{"data":{"718441108172569":{"id":"718441108172569","from":{"id":"1821970083","name":"Nguyễn Mạnh Cường"},"message":"\"gọi điện và hỏi\" ạ :D vội chưa sửa :)","can_remove":false,"created_time":"2013-09-11T16:16:28+0000","like_count":0,"user_likes":false},"718443684838978":{"id":"718443684838978","from":{"id":"1821970083","name":"Nguyễn Mạnh Cường"},"message":"Mọi người có thông tin thì chia sẻ cho mình biết với ạ","can_remove":false,"created_time":"2013-09-11T16:23:07+0000","like_count":0,"user_likes":false},"718475684835778":{"id":"718475684835778","from":{"id":"100000282680283","name":"Cường Văn"},"message":"mình cũng tính đi tháng 4 như bạn đây, đau đầu cái vụ cân nhắc đi qua công ty nào quá hic","can_remove":false,"created_time":"2013-09-11T16:45:29+0000","like_count":1,"user_likes":false},"718477401502273":{"id":"718477401502273","from":{"id":"1821970083","name":"Nguyễn Mạnh Cường"},"message":"Và bạn cũng tên Cường :D trùng hợp quá vậy, đang cần giúp đỡ quá, bạn đã có những lựa chọn nào rồi? mình biết mỗi Hinata này thôi. Bạn đang đắn đo giữa công ty nào, lo lắng gì từ họ?","can_remove":false,"created_time":"2013-09-11T16:49:10+0000","like_count":0,"user_likes":false},"718478818168798":{"id":"718478818168798","from":{"id":"100005478454231","name":"Maruko Chan"},"message":"mình đang đi theo cty ichikawa, hum trc có đi nghe hội thảo của trung tâm kyodai họ liên kết với trường matsuyama cũng nói qua đó có việc làm 100% vì trường liên kết với cty làm bánh í, mà học phí cũng rẻ so với các tt khac, nhưng tt này vùa mới mở, nghe họ nói cũng hay , nhưng vì mình đã đăng ký đi tt khac rồi Du Đãng tham khảo  http://kyodai.vn/ xem sao nó ở chiba đó","message_tags":[{"id":"1821970083","name":"Du Đãng","type":"user","offset":313,"length":7}],"can_remove":false,"created_time":"2013-09-11T16:54:18+0000","like_count":1,"user_likes":false},"718480284835318":{"id":"718480284835318","from":{"id":"100006451675000","name":"Lanh Chan"},"message":"chọn chikyujin ở vjcc đại học ngoại thương ý","can_remove":false,"created_time":"2013-09-11T16:56:38+0000","like_count":1,"user_likes":false},"718480351501978":{"id":"718480351501978","from":{"id":"1821970083","name":"Nguyễn Mạnh Cường"},"message":"rẻ là bao gồm những gì? và như thế nào vậy Maruko Chan ?","message_tags":[{"id":"100005478454231","name":"Maruko Chan","type":"user","offset":43,"length":11}],"can_remove":false,"created_time":"2013-09-11T16:56:45+0000","like_count":0,"user_likes":false},"718481328168547":{"id":"718481328168547","from":{"id":"100000282680283","name":"Cường Văn"},"message":"mình có bạn ở yosida thôi, thấy bảo đi qua vinahure nhưng thấy nhiều bất cập quá","can_remove":false,"created_time":"2013-09-11T16:58:27+0000","like_count":0,"user_likes":false},"718482234835123":{"id":"718482234835123","from":{"id":"100000282680283","name":"Cường Văn"},"message":"chikyujin ở vjcc ngoại thương nghe có vẻ sáng sủa đấy nhỉ, Lanh Cuong đi qua cty này ak","message_tags":[{"id":"100006451675000","name":"Lanh Cuong","type":"user","offset":59,"length":10}],"can_remove":false,"created_time":"2013-09-11T17:00:06+0000","like_count":0,"user_likes":false},"718482341501779":{"id":"718482341501779","from":{"id":"100005478454231","name":"Maruko Chan"},"message":"Du Đãng http://duhoc.kyodai.vn/?p=144 xem link này đi, mình nghe cũng thấy rất hay vì 2 anh này làm tham gia nhiều hoạt động của hội thanh niên việt nam ở nhật đó là họ nói thế vì hum đó hội thảo có cả ng nhật đến giới thiệu, bác ng nhật này nghe nhiều chức vụ cơ mà k có nhớ :) chủ yếu bác í thúc đẩy quan hệ giữa Việt Nam mình và Nhật, aiz nghe thôi nha còn đúng hay k chả biết nữa :3","message_tags":[{"id":"1821970083","name":"Du Đãng","type":"user","offset":0,"length":7}],"can_remove":false,"created_time":"2013-09-11T17:00:16+0000","like_count":1,"user_likes":false},"718483014835045":{"id":"718483014835045","from":{"id":"100006451675000","name":"Lanh Chan"},"message":"uh mình đi nhưng tháng 7 ko đi tháng 4 như 2 bạn","can_remove":false,"created_time":"2013-09-11T17:01:16+0000","like_count":1,"user_likes":false},"718483058168374":{"id":"718483058168374","from":{"id":"100005478454231","name":"Maruko Chan"},"message":"Nhưng nếu cậu đi tự túc thì đi theo trường kia được đấy, ở chiba công việc làm thêm cũng có nhiều","can_remove":false,"created_time":"2013-09-11T17:01:19+0000","like_count":1,"user_likes":false},"718484748168205":{"id":"718484748168205","from":{"id":"100000282680283","name":"Cường Văn"},"message":"ok cám ơn 2 bạn nhiều, mình sẽ đi đến tận 2 nơi các bạn giới thiệu để tìm hiểu. ai đi cùng thì cùng đi nhé ^^","can_remove":false,"created_time":"2013-09-11T17:03:55+0000","like_count":0,"user_likes":false},"718485568168123":{"id":"718485568168123","from":{"id":"100006451675000","name":"Lanh Chan"},"message":"uh đến tầng 1 vjcc nhé,mình muốn đến nhưng mình chưa phải làm hồ sơ ngay như các bạn ,tháng 11 mình đến","can_remove":false,"created_time":"2013-09-11T17:04:58+0000","like_count":0,"user_likes":false},"718485651501448":{"id":"718485651501448","from":{"id":"100006451675000","name":"Lanh Chan"},"message":"biết đâu nao cùng trường hii","can_remove":false,"created_time":"2013-09-11T17:05:08+0000","like_count":0,"user_likes":false},"718485654834781":{"id":"718485654834781","from":{"id":"100000282680283","name":"Cường Văn"},"message":"mình cũng phân vân đi tokyo hay thành phố lân cận, mỗi nới theo mình tìm hiểu thì đều có ưu và nhược điểm riêng.","can_remove":false,"created_time":"2013-09-11T17:05:08+0000","like_count":1,"user_likes":false},"718485891501424":{"id":"718485891501424","from":{"id":"100006451675000","name":"Lanh Chan"},"message":"chuẩn đấy mình đâu đầu cái đó quá","can_remove":false,"created_time":"2013-09-11T17:05:40+0000","like_count":0,"user_likes":false},"718486594834687":{"id":"718486594834687","from":{"id":"100000282680283","name":"Cường Văn"},"message":"mình thấy nếu nhập học tháng 4 thì phải hoàn thành hồ sơ hình như trc 30/11 ấy, thấy mấy trg bên kia đều quy định vậy đấy","can_remove":false,"created_time":"2013-09-11T17:07:46+0000","like_count":1,"user_likes":false},"718488178167862":{"id":"718488178167862","from":{"id":"100000282680283","name":"Cường Văn"},"message":"trường matsuyama mà Maruko Chan giới thiệu sao lại đào tạo ý tá kìa =)) vừa đào tạo y tá vừa dạy kinh doanh liệu có tốt ko nhỉ ~~","message_tags":[{"id":"100005478454231","name":"Maruko Chan","type":"user","offset":20,"length":11}],"can_remove":false,"created_time":"2013-09-11T17:10:38+0000","like_count":0,"user_likes":false},"718488354834511":{"id":"718488354834511","from":{"id":"100006451675000","name":"Lanh Chan"},"message":"uh từ tháng 10-12 là của tháng 4","can_remove":false,"created_time":"2013-09-11T17:11:08+0000","like_count":0,"user_likes":false},"718488394834507":{"id":"718488394834507","from":{"id":"100006451675000","name":"Lanh Chan"},"message":"http://www.chikyujin.jp/","can_remove":false,"created_time":"2013-09-11T17:11:17+0000","like_count":1,"user_likes":false},"718489234834423":{"id":"718489234834423","from":{"id":"100005478454231","name":"Maruko Chan"},"message":"Cường Văn cái này tớ k biết vì hum đó đi nghe hội thảo họ nói cũng thấy hay, mình chi  nói để mng tham khảo thôi hi, còn mình k đi vì đăng ký trường khác rồi","message_tags":[{"id":"100000282680283","name":"Cường Văn","type":"user","offset":0,"length":9}],"can_remove":false,"created_time":"2013-09-11T17:13:32+0000","like_count":1,"user_likes":false},"718492441500769":{"id":"718492441500769","from":{"id":"100004111872291","name":"Dee Nguyễn"},"message":"cẩn thận bị các cty nó lừa nhé bạn","can_remove":false,"created_time":"2013-09-11T17:19:23+0000","like_count":0,"user_likes":false},"718493904833956":{"id":"718493904833956","from":{"id":"100000282680283","name":"Cường Văn"},"message":"mình ko còn time nên đành để cho họ làm, k cũng tính tự làm hồ sơ cho vui @@","can_remove":false,"created_time":"2013-09-11T17:24:55+0000","like_count":0,"user_likes":false},"718494041500609":{"id":"718494041500609","from":{"id":"100000282680283","name":"Cường Văn"},"message":"mà Lanh Cuong là con gái haha@@","message_tags":[{"id":"100006451675000","name":"Lanh Cuong","type":"user","offset":3,"length":10}],"can_remove":false,"created_time":"2013-09-11T17:25:27+0000","like_count":0,"user_likes":false},"718494811500532":{"id":"718494811500532","from":{"id":"100004111872291","name":"Dee Nguyễn"},"message":"Cường Văn: các cty nó nói sang đấy khoảng 1 tháng là có việc làm luôn...cẩn thận nó lừa có khi sang đấy tháng thứ 6 mới có việc :v","message_tags":[{"id":"100000282680283","name":"Cường Văn","type":"user","offset":0,"length":9}],"can_remove":false,"created_time":"2013-09-11T17:28:05+0000","like_count":0,"user_likes":false},"718494918167188":{"id":"718494918167188","from":{"id":"100006451675000","name":"Lanh Chan"},"message":"tưởng có thêm cường nữa là 3 cường à hii","can_remove":false,"created_time":"2013-09-11T17:28:24+0000","like_count":0,"user_likes":false}},"paging":{"cursors":{"after":"NzE4NDQxMTA4MTcyNTY5","before":"NzE4NDQxMTA4MTcyNTY5"},"next":"https://graph.facebook.com/229244010425617_718440304839316/comments?limit=1&summary=1&after=NzE4NDQxMTA4MTcyNTY5"},"summary":{"order":"chronological","total_count":27}}}