{"id":"229244010425617_718752761474737","type":"status","from":{"id":"1617248012","name":"Thoa Nguyen"},"message":"Mình là Thoa. Hiện mình đang có dự án dịch Nhât-Anh. Phí dịch: 150.000/trang. Bạn nào có thể dịch cặp ngôn ngữ này thì liên lạc với mình nhé. thoanguyen11@gmail.com hoặc 0902060740. (Nếu ko dịch được sang tiếng Anh thì có thể dịch sang tiếng Việt. Phí: 100.000/trang)","created_time":"2013-09-12T03:21:20+0000","updated_time":"2013-09-13T05:32:30+0000","likes":{"data":{"100003614120479":{"id":"100003614120479","name":"Dam Thanh"},"100002921712970":{"id":"100002921712970","name":"ThuyDung Virgo"},"100000133587536":{"id":"100000133587536","name":"Mei Ki"},"566093622":{"id":"566093622","name":"Loby Huong"},"100004016574848":{"id":"100004016574848","name":"Tùng Thật Thà"},"100003702043787":{"id":"100003702043787","name":"Hằng Hanu"}},"paging":{"cursors":{"after":"MTAwMDAzNjE0MTIwNDc5","before":"MTAwMDAzNjE0MTIwNDc5"},"next":"https://graph.facebook.com/229244010425617_718752761474737/likes?limit=1&summary=1&after=MTAwMDAzNjE0MTIwNDc5"},"summary":{"total_count":6}},"comments":{"data":{"718755044807842":{"id":"718755044807842","from":{"id":"100003702043787","name":"Hằng Hanu"},"message":"Bạn ơi mình muốn đăng kí dịch Nhật-Việt,nhưng cụ thể là dịch về đề tài gì hả bạn?","can_remove":false,"created_time":"2013-09-12T03:29:46+0000","like_count":0,"user_likes":false},"718756721474341":{"id":"718756721474341","from":{"id":"1617248012","name":"Thoa Nguyen"},"message":"Bạn cho mình địa chỉ email mình sẽ gửi cho bạn thông tin cụ thể.","can_remove":false,"created_time":"2013-09-12T03:34:45+0000","like_count":0,"user_likes":false},"718764271473586":{"id":"718764271473586","from":{"id":"100003208271332","name":"Ben Huu Nguyen"},"message":"Minh dang ki Nhat - Viet. Mail : huuben.hanu08@gmail.com","can_remove":false,"created_time":"2013-09-12T04:04:26+0000","like_count":0,"user_likes":false},"718766178140062":{"id":"718766178140062","from":{"id":"100003579192498","name":"Tham Ha"},"message":"Nhật việt nhé!  hathitham92@gmail.com","can_remove":false,"created_time":"2013-09-12T04:10:58+0000","like_count":0,"user_likes":false},"718772274806119":{"id":"718772274806119","from":{"id":"100000020988042","name":"Viet Huong Nguyen"},"message":"minh cung dang ki nhat - viet nhe: viethuong.pdu@gmail.com","can_remove":false,"created_time":"2013-09-12T04:33:08+0000","like_count":0,"user_likes":false},"718772734806073":{"id":"718772734806073","from":{"id":"100002594112476","name":"Thiên Di"},"message":"Mình đăng ký dịch Nhật - Việt: rabbi2205@gmail.com","can_remove":false,"created_time":"2013-09-12T04:34:20+0000","like_count":0,"user_likes":false},"718775344805812":{"id":"718775344805812","from":{"id":"100000064686295","name":"Huy Roli"},"message":"quochuy.nguyen86@gmail.com","can_remove":false,"created_time":"2013-09-12T04:43:41+0000","like_count":0,"user_likes":false},"718777708138909":{"id":"718777708138909","from":{"id":"1617248012","name":"Thoa Nguyen"},"message":"Mình đã gửi thông tin qua email cho các bạn. Các bạn check mail nhé.","can_remove":false,"created_time":"2013-09-12T04:51:26+0000","like_count":0,"user_likes":false},"718778091472204":{"id":"718778091472204","from":{"id":"566093622","name":"Loby Huong"},"message":"Mình đăng kí dịch Nhật Việt. Trước đây mình có dịch Nhật Anh về mảng test di động, nên cũng có chút xíu kiến thức dịch Nhật Anh. Email của mình là sevenvssix@gmail.com","can_remove":false,"created_time":"2013-09-12T04:52:48+0000","like_count":0,"user_likes":false},"718778501472163":{"id":"718778501472163","from":{"id":"1617248012","name":"Thoa Nguyen"},"message":"Mình vừa gửi thư cho bạn Loby Huong","message_tags":[{"id":"566093622","name":"Loby Huong","type":"user","offset":25,"length":10}],"can_remove":false,"created_time":"2013-09-12T04:54:55+0000","like_count":0,"user_likes":false},"718780081472005":{"id":"718780081472005","from":{"id":"100001470078978","name":"Ganna Chan"},"message":"em nhé, có thể nhật- anh, nhật- việt nhưng tùy chủ đề ạ","can_remove":false,"created_time":"2013-09-12T04:59:43+0000","like_count":0,"user_likes":false},"718780108138669":{"id":"718780108138669","from":{"id":"100001470078978","name":"Ganna Chan"},"message":"nguyengiang.hanu2010@gmail.com","can_remove":false,"created_time":"2013-09-12T04:59:54+0000","like_count":0,"user_likes":false},"718780188138661":{"id":"718780188138661","from":{"id":"566093622","name":"Loby Huong"},"message":"Tớ check mail và trả lời rồi bạn Thoa Nguyen nhé","message_tags":[{"id":"1617248012","name":"Thoa Nguyen","type":"user","offset":33,"length":11}],"can_remove":false,"created_time":"2013-09-12T05:00:14+0000","like_count":0,"user_likes":false},"718780964805250":{"id":"718780964805250","from":{"id":"100001454348698","name":"Phạm Quang Tùng"},"message":"Mình tự tin dịch nhật việt ở tất cả các mảng. Nếu có thể mail cho mình qua địa chỉ phamquangtung157@gmail.com","can_remove":false,"created_time":"2013-09-12T05:02:54+0000","like_count":0,"user_likes":false},"718782054805141":{"id":"718782054805141","from":{"id":"1617248012","name":"Thoa Nguyen"},"message":"Mình đã mail cho bạn Tùng Dở","message_tags":[{"id":"100001454348698","name":"Tùng Dở","type":"user","offset":21,"length":7}],"can_remove":false,"created_time":"2013-09-12T05:08:39+0000","like_count":0,"user_likes":false},"718782154805131":{"id":"718782154805131","from":{"id":"100001470078978","name":"Ganna Chan"},"message":"mail cho em nữa chị ơi","can_remove":false,"created_time":"2013-09-12T05:09:15+0000","like_count":0,"user_likes":false},"718782251471788":{"id":"718782251471788","from":{"id":"1617248012","name":"Thoa Nguyen"},"message":"mình đã mail cho bạn rồi Ganna Chan","message_tags":[{"id":"100001470078978","name":"Ganna Chan","type":"user","offset":25,"length":10}],"can_remove":false,"created_time":"2013-09-12T05:09:53+0000","like_count":0,"user_likes":false},"718782768138403":{"id":"718782768138403","from":{"id":"100001470078978","name":"Ganna Chan"},"message":"e check mail nhưng chưa nhận đc ạ, c có thể gửi lại đc ko ạ nguyengiang.hanu2010@gmailcom","can_remove":false,"created_time":"2013-09-12T05:12:15+0000","like_count":0,"user_likes":false},"718782854805061":{"id":"718782854805061","from":{"id":"100001470078978","name":"Ganna Chan"},"message":"à em đã thấy rồi à, thks chị","can_remove":false,"created_time":"2013-09-12T05:12:56+0000","like_count":0,"user_likes":false},"718791248137555":{"id":"718791248137555","from":{"id":"100001470078978","name":"Ganna Chan"},"message":"chị ơi check mail hộ em với, e thấy chị gửi cho nhiều ng thì ai sẽ nhận việc ạ","can_remove":false,"created_time":"2013-09-12T05:52:29+0000","like_count":0,"user_likes":false},"718791641470849":{"id":"718791641470849","from":{"id":"100000282680283","name":"Cường Văn"},"message":"hihihi dĩ nhiên là ai đây là check khả năng của các ứng viên, ai dịch tốt sẽ nhận việc thoai ~~!","can_remove":false,"created_time":"2013-09-12T05:55:33+0000","like_count":0,"user_likes":false},"718791744804172":{"id":"718791744804172","from":{"id":"100000282680283","name":"Cường Văn"},"message":"mình dịch Nhật- Arap @@","can_remove":false,"created_time":"2013-09-12T05:56:13+0000","like_count":0,"user_likes":false},"718791748137505":{"id":"718791748137505","from":{"id":"1617248012","name":"Thoa Nguyen"},"message":"Chị đã gửi thư cho em Ganna Chan.","message_tags":[{"id":"100001470078978","name":"Ganna Chan","type":"user","offset":22,"length":10}],"can_remove":false,"created_time":"2013-09-12T05:56:14+0000","like_count":0,"user_likes":false},"718792304804116":{"id":"718792304804116","from":{"id":"100001470078978","name":"Ganna Chan"},"message":"thế tức là tất cả cùng dịch rồi gửi cho chị à, nếu check ko đc thì ko đc thanh toán à","can_remove":false,"created_time":"2013-09-12T05:59:47+0000","like_count":0,"user_likes":false},"718806278136052":{"id":"718806278136052","from":{"id":"100001910146056","name":"Huyền Thoa"},"message":"E nhật-việt. huyenthoa1909@gmail.com","can_remove":false,"created_time":"2013-09-12T07:13:51+0000","like_count":0,"user_likes":false},"718922771457736":{"id":"718922771457736","from":{"id":"100001621450837","name":"Hiếu"},"message":"trình độ như thế nào thì đc hả chị?","can_remove":false,"created_time":"2013-09-12T12:28:30+0000","like_count":0,"user_likes":false},"718969191453094":{"id":"718969191453094","from":{"id":"100002921712970","name":"ThuyDung Virgo"},"message":"chị ơi em có thể dịch anh - việt :)","can_remove":false,"created_time":"2013-09-12T14:35:15+0000","like_count":0,"user_likes":false},"718969461453067":{"id":"718969461453067","from":{"id":"100002921712970","name":"ThuyDung Virgo"},"message":"Thoa Nguyen","message_tags":[{"id":"1617248012","name":"Thoa Nguyen","type":"user","offset":0,"length":11}],"can_remove":false,"created_time":"2013-09-12T14:36:12+0000","like_count":0,"user_likes":false},"718999514783395":{"id":"718999514783395","from":{"id":"100001199506063","name":"Nguyễn Anh"},"message":"Bạn ơi.bây giờ mình đăng ký dịch Nhật Việt còn được không.mail mình là nguyen.anh288@gmail.com","can_remove":false,"created_time":"2013-09-12T15:38:44+0000","like_count":0,"user_likes":false},"718999854783361":{"id":"718999854783361","from":{"id":"100002921712970","name":"ThuyDung Virgo"},"message":"thuydungpham2408@gmail.com","can_remove":false,"created_time":"2013-09-12T15:39:40+0000","like_count":0,"user_likes":false},"719331964750150":{"id":"719331964750150","from":{"id":"100003614120479","name":"Dam Thanh"},"message":"Damthithanh1991@gmail.com","can_remove":false,"created_time":"2013-09-13T02:55:25+0000","like_count":0,"user_likes":false},"719342928082387":{"id":"719342928082387","from":{"id":"100000057852313","name":"Tuan Nguyen"},"message":"Mình cũng muốn tham gia, địa chỉ mail của mình là: tuanna.it.hut@gmail.com.","can_remove":false,"created_time":"2013-09-13T03:22:29+0000","like_count":0,"user_likes":false},"719485548068125":{"id":"719485548068125","from":{"id":"100002437100585","name":"Thu Thuy"},"message":"Chị gửi lại mail cho em vào địa chỉ này nhé: thuthuy.jp@gmail.com. Thanks!","can_remove":false,"created_time":"2013-09-13T05:32:30+0000","like_count":0,"user_likes":false}},"paging":{"cursors":{"after":"NzE4NzU1MDQ0ODA3ODQy","before":"NzE4NzU1MDQ0ODA3ODQy"},"next":"https://graph.facebook.com/229244010425617_718752761474737/comments?limit=1&summary=1&after=NzE4NzU1MDQ0ODA3ODQy"},"summary":{"order":"chronological","total_count":33}}}