{"id":"229244010425617_718939694789377","type":"status","from":{"id":"100001458099624","name":"Kham Pha"},"message":"待（ま）ち合（あ）わせ và 打（う）ち合わせ. \nĐây là 2 từ thường gặp trong hẹn gặp với người khác. Các bạn có biết sự khác biệt là ở đâu không?","created_time":"2013-09-12T13:11:36+0000","updated_time":"2013-09-12T22:02:21+0000","likes":{"data":{"100002424123619":{"id":"100002424123619","name":"Le Luong"},"100002508122689":{"id":"100002508122689","name":"Vũ Mạnh Tuấn"}},"paging":{"cursors":{"after":"MTAwMDAyNDI0MTIzNjE5","before":"MTAwMDAyNDI0MTIzNjE5"},"next":"https://graph.facebook.com/229244010425617_718939694789377/likes?limit=1&summary=1&after=MTAwMDAyNDI0MTIzNjE5"},"summary":{"total_count":2}},"comments":{"data":{"718943511455662":{"id":"718943511455662","from":{"id":"100000282680283","name":"Cường Văn"},"message":"hình như là machiawase dùng cho cuộc hẹn bình thường ( bạn bè....) còn uchiawase là hẹn về công việc ( đối tác....) haha mình đoán vậy thôi . Nhân tiện hỏi cái wase kia nó là cấu trúc ngữ pháp ak, mình có một câu thế này: atashi ni hara wasetekdasai ( để tôi thanh toán, trả tiền cho ). cũng ko hiểu cái cụm wase là gì ~~","can_remove":false,"created_time":"2013-09-12T13:20:42+0000","like_count":0,"user_likes":false},"718948171455196":{"id":"718948171455196","from":{"id":"100004112258038","name":"Chung Tran"},"message":"Kham Pha có thấy 2 từ này có cùng nghĩa đâu nhỉ ? chỉ thấy giữa 打ち合わせ  và 相談  là thấy  nhiều khi bọn Nhật dùng 1 từ mà mình lại nghĩ là từ còn lại mới đúng ^^","message_tags":[{"id":"100001458099624","name":"Kham Pha","type":"user","offset":0,"length":8}],"can_remove":false,"created_time":"2013-09-12T13:34:35+0000","like_count":1,"user_likes":false},"718950328121647":{"id":"718950328121647","from":{"id":"849149395","name":"Đặng Ngọc Trân"},"message":"払う(harau) -> 払わせる(harawaseru) -> 払わせて下さい. Nếu mình ko nhầm thì wase ở câu của bạn chỉ là động từ harau đc chia ở thể 使役(shieki) thôi. Thể sai khiến. Nó ko giống với wase ở trên. @@ hi vọng ko lầm  +__+","can_remove":false,"created_time":"2013-09-12T13:40:54+0000","like_count":2,"user_likes":false},"718950698121610":{"id":"718950698121610","from":{"id":"100000282680283","name":"Cường Văn"},"message":"domo Đặng Ngọc Trân, tại mình mới học đến bài 16, chắc điểm ngữ pháp này học về sau haha","message_tags":[{"id":"849149395","name":"Đặng Ngọc Trân","type":"user","offset":5,"length":14}],"can_remove":false,"created_time":"2013-09-12T13:42:12+0000","like_count":1,"user_likes":false},"719231361426877":{"id":"719231361426877","from":{"id":"100000359762118","name":"Mi Tra"},"message":"合わせ là từ động từ 合わせる có nghĩa là: hợp (lực, sức), hợp lại thành một, làm cho phù hợp.\nTrong trường hợp này, 待ち合わせ là đợi ai đó vào thời điểm, địa điểm đã được thống nhất từ trước. \nVd: 喫茶店(きっさてん)で待ち合わせる。\nCòn 打ち合わせ có nghĩa là cùng nhau trao đổi trước về một vấn đề gì đó.\nVd: 仕事の打ち合わせをする。","can_remove":false,"created_time":"2013-09-12T22:02:21+0000","like_count":1,"user_likes":false}},"paging":{"cursors":{"after":"NzE4OTQzNTExNDU1NjYy","before":"NzE4OTQzNTExNDU1NjYy"},"next":"https://graph.facebook.com/229244010425617_718939694789377/comments?limit=1&summary=1&after=NzE4OTQzNTExNDU1NjYy"},"summary":{"order":"chronological","total_count":5}}}