{"id":"229244010425617_718963631453650","type":"link","picture":"https://fbexternal-a.akamaihd.net/safe_image.php?d=AQDgm2-haiq8hVlZ&url=https%3A%2F%2Ffbcdn-sphotos-b-a.akamaihd.net%2Fhphotos-ak-prn2%2Ft1.0-9%2F1175456_213516642145313_1553260994_n.jpg","link":"https://www.facebook.com/notes/wow-japanese-phi%C3%AAu-c%C3%B9ng-ti%E1%BA%BFng-nh%E1%BA%ADt/th%C3%B4ng-b%C3%A1o-tuy%E1%BB%83n-sinh-ch%C6%B0%C6%A1ng-tr%C3%ACnh-h%E1%BB%8Dc-b%E1%BB%95ng-%C4%91%E1%BA%A1i-h%E1%BB%8Dc-t%E1%BA%A1i-nh%E1%BA%ADt-b%E1%BA%A3n-n%C4%83m-2014-ng%C3%A0nh-c/212737055556605","from":{"id":"100002508122689","name":"Vũ Mạnh Tuấn"},"message":"Em tình cờ biết được thông tin về 1 chương trình học bổng học CNTT tại Nhật Bản. Tuy nhiên chỉ free học phí 4 năm ( khoảng 40000 usd ), còn lại sinh hoạt phí, tiền nhập học, thiết bị học tập , đều phải tự đóng ?\nEm muốn hỏi các senpai, liệu với học bổng như thế này , thì có thể theo được không ạ \n宜しくお願いします\n\nhttps://www.facebook.com/notes/wow-japanese-phi%C3%AAu-c%C3%B9ng-ti%E1%BA%BFng-nh%E1%BA%ADt/th%C3%B4ng-b%C3%A1o-tuy%E1%BB%83n-sinh-ch%C6%B0%C6%A1ng-tr%C3%ACnh-h%E1%BB%8Dc-b%E1%BB%95ng-%C4%91%E1%BA%A1i-h%E1%BB%8Dc-t%E1%BA%A1i-nh%E1%BA%ADt-b%E1%BA%A3n-n%C4%83m-2014-ng%C3%A0nh-c/212737055556605?comment_id=654369&reply_comment_id=657487&offset=0&total_comments=150&ref=notif&notif_t=note_reply","created_time":"2013-09-12T14:20:06+0000","updated_time":"2013-09-12T15:32:37+0000","likes":{"data":{"100001075952639":{"id":"100001075952639","name":"Alex Chou"},"100000184434912":{"id":"100000184434912","name":"Trần Tráng"},"1023965040":{"id":"1023965040","name":"Juli KimChi"}},"paging":{"cursors":{"after":"MTAwMDAxMDc1OTUyNjM5","before":"MTAwMDAxMDc1OTUyNjM5"},"next":"https://graph.facebook.com/229244010425617_718963631453650/likes?limit=1&summary=1&after=MTAwMDAxMDc1OTUyNjM5"},"summary":{"total_count":3}},"comments":{"data":{"718964211453592":{"id":"718964211453592","from":{"id":"100002839170200","name":"Sahara Vương"},"message":"THEO HAY KHÔNG TÙY THUỘC VÀO TÀI CHÍNH CỦA EM MÀ :))","can_remove":false,"created_time":"2013-09-12T14:22:12+0000","like_count":0,"user_likes":false},"718964521453561":{"id":"718964521453561","from":{"id":"100002508122689","name":"Vũ Mạnh Tuấn"},"message":"-_- haizz, sag đấy phải đi làm thêm mà c, tiền đâu ra mà tài chính -_-","can_remove":false,"created_time":"2013-09-12T14:23:05+0000","like_count":0,"user_likes":false},"718964774786869":{"id":"718964774786869","from":{"id":"100002839170200","name":"Sahara Vương"},"message":"RÕ RÀNG LÀ VẬY MÀ :D ĐKTC MÀ TỐT THÌ CŨNG ĐỠ ĐƯỢC NHIỀU :d","can_remove":false,"created_time":"2013-09-12T14:23:52+0000","like_count":0,"user_likes":false},"718965108120169":{"id":"718965108120169","from":{"id":"100002508122689","name":"Vũ Mạnh Tuấn"},"message":"cơ mà em không đề cập đến yếu tố ý","can_remove":false,"created_time":"2013-09-12T14:24:24+0000","like_count":0,"user_likes":false},"718979598118720":{"id":"718979598118720","from":{"id":"100000226801560","name":"Lương Anh Sơn"},"message":"ngon như thế ai mà chả muốn đi, mình nghĩ sẽ chỉ có 2 suất thôi, 1 cho người chưa biết tiếng và 1 cho biết tiêng rồi. Cạnh tranh khốc liệt lắm đấy, đâu phải muốn là đc đâu.","can_remove":false,"created_time":"2013-09-12T14:57:56+0000","like_count":0,"user_likes":false},"718980064785340":{"id":"718980064785340","from":{"id":"100002508122689","name":"Vũ Mạnh Tuấn"},"message":"Lương Anh Sơn không biết tiếng thì được đào tạo để có trình độ tương đương n4 mà . \nvs lại, cái học bổng này cũng ko hẳn là ngon.\nvì ngoài học phí ra, chả cái j free cả","message_tags":[{"id":"100000226801560","name":"Lương Anh Sơn","type":"user","offset":0,"length":13}],"can_remove":false,"created_time":"2013-09-12T14:59:37+0000","like_count":1,"user_likes":false},"718982721451741":{"id":"718982721451741","from":{"id":"100002508122689","name":"Vũ Mạnh Tuấn"},"message":"Lương Anh Sơn: nếu bạn tốt nghiệp đh r sao ko kiếm học bổng cao học nhỉ :D","message_tags":[{"id":"100000226801560","name":"Lương Anh Sơn","type":"user","offset":0,"length":13}],"can_remove":false,"created_time":"2013-09-12T15:07:15+0000","like_count":0,"user_likes":false},"718984008118279":{"id":"718984008118279","from":{"id":"100001416272263","name":"Mai PB"},"message":"Nếu Vũ Mạnh Tuấn thi được vào trường ĐH quốc lập thì khả năng xin miễn học phí cũng cao, không cần phải đến chương trình này. Miễn học phí mà gọi là học bổng là cũng hơi đánh lận đấy.","message_tags":[{"id":"100002508122689","name":"Vũ Mạnh Tuấn","type":"user","offset":4,"length":12}],"can_remove":false,"created_time":"2013-09-12T15:10:14+0000","like_count":1,"user_likes":false},"718984598118220":{"id":"718984598118220","from":{"id":"100000226801560","name":"Lương Anh Sơn"},"message":"học CNTT thì chỉ cần DH là đi làm ngon rồi cần gì cao học đâu, nếu đây là học bổng trung cấp mình cũng muốn đi chứ đừng nói là DH, căn bản mình rất muốn cày đến N1 mà ở VN học ko chuyên nhật thế này thì chắc ko thể","can_remove":false,"created_time":"2013-09-12T15:11:59+0000","like_count":1,"user_likes":false},"718985094784837":{"id":"718985094784837","from":{"id":"100002508122689","name":"Vũ Mạnh Tuấn"},"message":"cơ mà khả năng đó với em ở thời điểm này là ko thể anh Mai PB ạ","message_tags":[{"id":"100001416272263","name":"Mai PB","type":"user","offset":55,"length":6}],"can_remove":false,"created_time":"2013-09-12T15:13:10+0000","like_count":0,"user_likes":false},"718986074784739":{"id":"718986074784739","from":{"id":"100002508122689","name":"Vũ Mạnh Tuấn"},"message":"Lương Anh Sơn: chúc may mắn :D \ncơ mà học tiếng nhật theo chương trình trên thì cũng ko phải là được học ở trường chuyên dạy ngoại ngữ ( như tokai chẳng hạn )","message_tags":[{"id":"100000226801560","name":"Lương Anh Sơn","type":"user","offset":0,"length":13}],"can_remove":false,"created_time":"2013-09-12T15:15:42+0000","like_count":0,"user_likes":false},"718990941450919":{"id":"718990941450919","from":{"id":"100000226801560","name":"Lương Anh Sơn"},"message":"Vũ Mạnh Tuấn cũng chúc bạn may mắn, mình nghĩ đc hay ko là do lúc phỏng vấn chứ trình độ tiêng nhật ko nói lên điều gì, mà phỏng vấn mình hơi kém, nó bảo 2 năm vẫn dạy tiếng nhật cho đến khi đc N2 mà, cũng giống như các trường tiếng bt thôi","message_tags":[{"id":"100002508122689","name":"Vũ Mạnh Tuấn","type":"user","offset":0,"length":12}],"can_remove":false,"created_time":"2013-09-12T15:18:42+0000","like_count":1,"user_likes":false},"718991094784237":{"id":"718991094784237","from":{"id":"100001416272263","name":"Mai PB"},"message":"ĐH Yamaguchi kia là tên gọi không chính xác, nó chỉ là ĐH ngắn hạn 2 năm thôi. Còn ĐH CNTT Kyushu kia thì 4 năm nhưng là ĐH tư phí, không rõ chất lượng thế nào.","can_remove":false,"created_time":"2013-09-12T15:19:00+0000","like_count":2,"user_likes":false},"718991588117521":{"id":"718991588117521","from":{"id":"100002508122689","name":"Vũ Mạnh Tuấn"},"message":"Lương Anh Sơn: có thể là N1 ấy chứ :D vì học = tiếng nhật hết mà","message_tags":[{"id":"100000226801560","name":"Lương Anh Sơn","type":"user","offset":0,"length":13}],"can_remove":false,"created_time":"2013-09-12T15:20:11+0000","like_count":0,"user_likes":false},"718992071450806":{"id":"718992071450806","from":{"id":"100002508122689","name":"Vũ Mạnh Tuấn"},"message":"Mai PB: hình như là trường đh quốc lập Kyushu anh ạ \nhttp://www.kyushu-u.ac.jp/","message_tags":[{"id":"100001416272263","name":"Mai PB","type":"user","offset":0,"length":6}],"can_remove":false,"created_time":"2013-09-12T15:21:14+0000","like_count":0,"user_likes":false},"718994791450534":{"id":"718994791450534","from":{"id":"100001416272263","name":"Mai PB"},"message":"Không phải. Quảng cáo trên đăng link đến trường đấy đấy.","can_remove":false,"created_time":"2013-09-12T15:27:37+0000","like_count":0,"user_likes":false},"718997088116971":{"id":"718997088116971","from":{"id":"100002508122689","name":"Vũ Mạnh Tuấn"},"message":"em cứ nghĩ trường này là trường quốc lập kyushu :3 thế là không phải ạ anh Mai PB. Hơi nguy hiểm","message_tags":[{"id":"100001416272263","name":"Mai PB","type":"user","offset":75,"length":6}],"can_remove":false,"created_time":"2013-09-12T15:32:37+0000","like_count":1,"user_likes":false}},"paging":{"cursors":{"after":"NzE4OTY0MjExNDUzNTky","before":"NzE4OTY0MjExNDUzNTky"},"next":"https://graph.facebook.com/229244010425617_718963631453650/comments?limit=1&summary=1&after=NzE4OTY0MjExNDUzNTky"},"summary":{"order":"chronological","total_count":17}}}