{"id":"229244010425617_718970881452925","type":"status","from":{"id":"100004463889537","name":"Zibi Tuan Anh"},"message":"THÔNG BÁO TUYỂN KĨ SƯ LÀM VIỆC TẠI NHẬT BẢN\nNgành nghề: Công nghệ ô tô, May, Nhựa.\n1. Giới tính:Nữ. (có nhận Nam)\n2. Tuổi: Từ 23 tuổi đến 35 tuổi.\n3. Chiều cao: Nữ: 152cm và nặng 43kg trở lên.\n4. Yêu cầu:\nKhông có tiền án tiền sự, có sức khỏe tốt, không mắc các bệnh mãn tính, các\nbệnh viêm gan B, viêm gan C, HIV,… có đủ sức khỏe để đi làm việc ở nước ngoài.\n5. Trình độ văn hóa:\nTốt nghiệp cao đẳng trở lên (chuyên ngành cơ khí, công nghệ ô tô, ngành may,\nđiện, điện tử, công nghệ thông tin, IT.)\n6. Thời gian làm việc:\n08h/ngày, 05 ngày/tuần. Ngoài ra tùy thuộc vào Công việc của từng Công ty,\nngười lao động có thể làm thêm giờ.\n7. Mức lương cơ bản:\n18.0000 Yen/ 1 tháng ( Khoảng 38.000.000 đến 40.000.000 VNĐ/ tháng.)\nNgoài ra phụ thuộc vào công việc của từng Công Ty, người lao động có thể làm\nthêm giờ.\n\nHiện đang cần gấp 15 kỹ sư cho đợt tuyển dụng 25/9 này.\nCông việc: lắp ráp nhựa của linh kiện xe oto tại saitamaken","created_time":"2013-09-12T14:40:08+0000","updated_time":"2013-09-12T15:39:04+0000","likes":{"data":{"100000466295678":{"id":"100000466295678","name":"Tha Nguyen"},"100003019923910":{"id":"100003019923910","name":"Luân Pig"},"100004236752636":{"id":"100004236752636","name":"恋の 悩み"}},"paging":{"cursors":{"after":"MTAwMDAwNDY2Mjk1Njc4","before":"MTAwMDAwNDY2Mjk1Njc4"},"next":"https://graph.facebook.com/229244010425617_718970881452925/likes?limit=1&summary=1&after=MTAwMDAwNDY2Mjk1Njc4"},"summary":{"total_count":3}},"comments":{"data":{"718974084785938":{"id":"718974084785938","from":{"id":"100003019923910","name":"Luân Pig"},"message":"Đã đi tu nghiệp rồi có đc k vậy bạn ơi","can_remove":false,"created_time":"2013-09-12T14:45:26+0000","like_count":0,"user_likes":false},"718974984785848":{"id":"718974984785848","from":{"id":"100004463889537","name":"Zibi Tuan Anh"},"message":"có bạn à.được ưu tiên nhá.vì đã biết tiếng nhật","can_remove":false,"created_time":"2013-09-12T14:47:10+0000","like_count":0,"user_likes":false},"718975808119099":{"id":"718975808119099","from":{"id":"100003019923910","name":"Luân Pig"},"message":"Vậy hả. Cty mình ở đâu vậy bạn. Mình có bằng cao đẳng cơ khí và bằng n3 tiếng nhật.","can_remove":false,"created_time":"2013-09-12T14:48:59+0000","like_count":0,"user_likes":false},"718977041452309":{"id":"718977041452309","from":{"id":"100003235972334","name":"Az Xa Quê"},"message":"Có baito ko anh?","can_remove":false,"created_time":"2013-09-12T14:50:34+0000","like_count":0,"user_likes":false},"718977144785632":{"id":"718977144785632","from":{"id":"100004463889537","name":"Zibi Tuan Anh"},"message":"vậy ok rùi.cty ở hải phòng bạn nhá.nhưng có văn phòng đại diện ở hn Luân Pig","message_tags":[{"id":"100003019923910","name":"Luân Pig","type":"user","offset":68,"length":8}],"can_remove":false,"created_time":"2013-09-12T14:50:56+0000","like_count":0,"user_likes":false},"718977244785622":{"id":"718977244785622","from":{"id":"100004463889537","name":"Zibi Tuan Anh"},"message":"Az Xa Quê kỹ sư chứ có phải đi học đâu bạn.","message_tags":[{"id":"100003235972334","name":"Az Xa Quê","type":"user","offset":0,"length":9}],"can_remove":false,"created_time":"2013-09-12T14:51:15+0000","like_count":0,"user_likes":false},"718977648118915":{"id":"718977648118915","from":{"id":"100003019923910","name":"Luân Pig"},"message":"Ak. Xa quá nhỉ. Mình đang ở sg. Haizz","can_remove":false,"created_time":"2013-09-12T14:52:28+0000","like_count":0,"user_likes":false},"718977788118901":{"id":"718977788118901","from":{"id":"100003235972334","name":"Az Xa Quê"},"message":"Em có bằng kĩ sư công nghệ oto cũng đang ở saitamaken nên em hỏi hịhi em đang học bên này mà bác","can_remove":false,"created_time":"2013-09-12T14:52:36+0000","like_count":0,"user_likes":false},"718977894785557":{"id":"718977894785557","from":{"id":"100003019923910","name":"Luân Pig"},"message":"Cho mình xin sđt văn phòng đc k?? Arigato","can_remove":false,"created_time":"2013-09-12T14:52:54+0000","like_count":0,"user_likes":false},"718978448118835":{"id":"718978448118835","from":{"id":"100004463889537","name":"Zibi Tuan Anh"},"message":"ok bạn","can_remove":false,"created_time":"2013-09-12T14:54:24+0000","like_count":0,"user_likes":false},"718978694785477":{"id":"718978694785477","from":{"id":"100004463889537","name":"Zibi Tuan Anh"},"message":"Khoai Tây:văn phongwf đại diện ở Phường Giáp Bát, Quận Hoàng Mai, Hà Nội nhá","can_remove":false,"created_time":"2013-09-12T14:55:08+0000","like_count":0,"user_likes":false},"718978758118804":{"id":"718978758118804","from":{"id":"100004463889537","name":"Zibi Tuan Anh"},"message":"Luân Pig bạn nt cho mình","message_tags":[{"id":"100003019923910","name":"Luân Pig","type":"user","offset":0,"length":8}],"can_remove":false,"created_time":"2013-09-12T14:55:24+0000","like_count":0,"user_likes":false},"718980338118646":{"id":"718980338118646","from":{"id":"100001676558789","name":"Dinh Quan"},"message":"đăng cái tin gì mà thiếu thông tin liên hệ hết trơn vậy Zibi Tuan Anh!","message_tags":[{"id":"100004463889537","name":"Zibi Tuan Anh","type":"user","offset":56,"length":13}],"can_remove":false,"created_time":"2013-09-12T15:00:27+0000","like_count":0,"user_likes":false},"718993534783993":{"id":"718993534783993","from":{"id":"100003062182912","name":"Hung Nguyen"},"message":"bên này ký 18 man,chắc gì sang bên ấy cũng dc vậy","can_remove":false,"created_time":"2013-09-12T15:24:46+0000","like_count":0,"user_likes":false},"718993898117290":{"id":"718993898117290","from":{"id":"100003062182912","name":"Hung Nguyen"},"message":"chi phí bn vaany bạn","can_remove":false,"created_time":"2013-09-12T15:25:20+0000","like_count":0,"user_likes":false},"718994434783903":{"id":"718994434783903","from":{"id":"100004463889537","name":"Zibi Tuan Anh"},"message":"Đình Đình Quân sr bạn.vì h nhiều người lợi dụng thông tin để mô giới nên bạn nào mún tìm hiểu thì ll trực tiếp với mình","message_tags":[{"id":"100001676558789","name":"Đình Quân","type":"user","offset":5,"length":9}],"can_remove":false,"created_time":"2013-09-12T15:26:41+0000","like_count":0,"user_likes":false},"718994691450544":{"id":"718994691450544","from":{"id":"100004463889537","name":"Zibi Tuan Anh"},"message":"Hung Nguyen kỹ sư lương ccow bản vậy rồi bạn à.có khi còn cao hơn.","message_tags":[{"id":"100003062182912","name":"Hung Nguyen","type":"user","offset":0,"length":11}],"can_remove":false,"created_time":"2013-09-12T15:27:21+0000","like_count":0,"user_likes":false},"718995194783827":{"id":"718995194783827","from":{"id":"100004463889537","name":"Zibi Tuan Anh"},"message":"Thông báo;đợt này chỉ tuyển nữ.hạn nộp hồ sơ đến ngày 20 này.và thi tuyển là ngày 25 nhá.","can_remove":false,"created_time":"2013-09-12T15:28:23+0000","like_count":0,"user_likes":false},"718995271450486":{"id":"718995271450486","from":{"id":"100003062182912","name":"Hung Nguyen"},"message":"bnaj mình đi dạng kỹ sư,bên này ký 18 man,sang bên ấy ký lại 12,8 man","can_remove":false,"created_time":"2013-09-12T15:28:35+0000","like_count":1,"user_likes":false},"718999091450104":{"id":"718999091450104","from":{"id":"100004463889537","name":"Zibi Tuan Anh"},"message":"đó là công ty nhật họ làm sai bạn à","can_remove":false,"created_time":"2013-09-12T15:37:39+0000","like_count":0,"user_likes":false},"718999201450093":{"id":"718999201450093","from":{"id":"100004463889537","name":"Zibi Tuan Anh"},"message":"nhật cũng có người tham mà","can_remove":false,"created_time":"2013-09-12T15:37:51+0000","like_count":0,"user_likes":false},"718999654783381":{"id":"718999654783381","from":{"id":"100001676558789","name":"Dinh Quan"},"message":"Ừ, ok bạn Zibi Tuan Anh!","message_tags":[{"id":"100004463889537","name":"Zibi Tuan Anh","type":"user","offset":10,"length":13}],"can_remove":false,"created_time":"2013-09-12T15:39:04+0000","like_count":0,"user_likes":false}},"paging":{"cursors":{"after":"NzE4OTc0MDg0Nzg1OTM4","before":"NzE4OTc0MDg0Nzg1OTM4"},"next":"https://graph.facebook.com/229244010425617_718970881452925/comments?limit=1&summary=1&after=NzE4OTc0MDg0Nzg1OTM4"},"summary":{"order":"chronological","total_count":22}}}