{"id":"229244010425617_718920168124663","type":"status","from":{"id":"100001416272263","name":"Mai PB"},"message":"Vừa mới 4000 thành viên mà đã sắp 5000?","created_time":"2013-09-12T12:22:06+0000","updated_time":"2013-09-12T15:33:57+0000","likes":{"data":{"100001754136107":{"id":"100001754136107","name":"Nguyễn Tuấn Vũ"},"100002327743510":{"id":"100002327743510","name":"Tuan Thanh"},"100003702043787":{"id":"100003702043787","name":"Hằng Hanu"},"100004112258038":{"id":"100004112258038","name":"Chung Tran"},"100004892648303":{"id":"100004892648303","name":"Cherry Pham"},"100006387723695":{"id":"100006387723695","name":"Hoa Minh"},"100004478832761":{"id":"100004478832761","name":"Thiên Trang"},"100000328742646":{"id":"100000328742646","name":"Trần Giáp"},"100002508122689":{"id":"100002508122689","name":"Vũ Mạnh Tuấn"},"100001458099624":{"id":"100001458099624","name":"Kham Pha"}},"paging":{"cursors":{"after":"MTAwMDAxNzU0MTM2MTA3","before":"MTAwMDAxNzU0MTM2MTA3"},"next":"https://graph.facebook.com/229244010425617_718920168124663/likes?limit=1&summary=1&after=MTAwMDAxNzU0MTM2MTA3"},"summary":{"total_count":10}},"comments":{"data":{"718920511457962":{"id":"718920511457962","from":{"id":"100002508122689","name":"Vũ Mạnh Tuấn"},"message":"mỗi ngày gần trăm người tham gia cơ mà anh","can_remove":false,"created_time":"2013-09-12T12:22:57+0000","like_count":0,"user_likes":false},"718920848124595":{"id":"718920848124595","from":{"id":"100001458099624","name":"Kham Pha"},"message":"tốc độ thành viên tăng nhanh thế này phải mau chóng tìm thêm admin thôi :(","can_remove":false,"created_time":"2013-09-12T12:24:03+0000","like_count":0,"user_likes":false},"718931218123558":{"id":"718931218123558","from":{"id":"100005801442456","name":"An Nguyen"},"message":"Thiếu 1 ai đó biết đưa Nội dung nhỉ","can_remove":false,"created_time":"2013-09-12T12:50:01+0000","like_count":0,"user_likes":false},"718931968123483":{"id":"718931968123483","from":{"id":"100001416272263","name":"Mai PB"},"message":"An Nguyen xem pin post chưa?","message_tags":[{"id":"100005801442456","name":"An Nguyen","type":"user","offset":0,"length":9}],"can_remove":false,"created_time":"2013-09-12T12:52:17+0000","like_count":0,"user_likes":false},"718932461456767":{"id":"718932461456767","from":{"id":"100005801442456","name":"An Nguyen"},"message":"Là cái j a?e thấy j đâu huynh?","can_remove":false,"created_time":"2013-09-12T12:53:42+0000","like_count":0,"user_likes":false},"718933138123366":{"id":"718933138123366","from":{"id":"100001416272263","name":"Mai PB"},"message":"Bạn dùng phone thì click vào \"View 1 Pinned Post\", dùng PC thì click vào cái doc [Quan Trọng] ở trên cùng đó.","can_remove":false,"created_time":"2013-09-12T12:55:38+0000","like_count":0,"user_likes":false},"718934681456545":{"id":"718934681456545","from":{"id":"100005801442456","name":"An Nguyen"},"message":"À rồi anh","can_remove":false,"created_time":"2013-09-12T12:59:07+0000","like_count":0,"user_likes":false},"718959954787351":{"id":"718959954787351","from":{"id":"1845000884","name":"Trieu Thi Kieu Oanh"},"message":"tai vi tat ca moi nguoi deu bi cuon hut boi nhung bai a dang len do. bo ick lam co","can_remove":false,"created_time":"2013-09-12T14:10:01+0000","like_count":2,"user_likes":false},"718981861451827":{"id":"718981861451827","from":{"id":"100001416272263","name":"Mai PB"},"message":"Arigato","can_remove":false,"created_time":"2013-09-12T15:05:03+0000","like_count":0,"user_likes":false},"718997671450246":{"id":"718997671450246","from":{"id":"100001754136107","name":"Nguyễn Tuấn Vũ"},"message":"Mỗi ngày tầm hơn 100 ng tham gia a ak.có ngày nhiều hơn :))","can_remove":false,"created_time":"2013-09-12T15:33:57+0000","like_count":0,"user_likes":false}},"paging":{"cursors":{"after":"NzE4OTIwNTExNDU3OTYy","before":"NzE4OTIwNTExNDU3OTYy"},"next":"https://graph.facebook.com/229244010425617_718920168124663/comments?limit=1&summary=1&after=NzE4OTIwNTExNDU3OTYy"},"summary":{"order":"chronological","total_count":10}}}