{"id":"229244010425617_719041988112481","type":"status","from":{"id":"100004460525997","name":"Hà Trang Nguyễn"},"message":"có ai biết trang web từ điển nhật việt nào hay ko chỉ giúp mình với \nmình đang cần tra từ dịch bài mà tìm mấy trang rồi dịch lung tung quá\nai biết chỉ dùm mình với . ARIGATOU","created_time":"2013-09-12T16:24:49+0000","updated_time":"2013-09-12T23:43:07+0000","comments":{"data":{"719054831444530":{"id":"719054831444530","from":{"id":"100001754136107","name":"Nguyễn Tuấn Vũ"},"message":"Bạn vào mục tệp của nhóm, xong tìm những trang web hưu ích ( sorry vì minh ko có máy tính","can_remove":false,"created_time":"2013-09-12T16:55:04+0000","like_count":1,"user_likes":false},"719055431444470":{"id":"719055431444470","from":{"id":"100004460525997","name":"Hà Trang Nguyễn"},"message":"ko sao , thanks you hihi Nguyễn Tuấn Vũ","message_tags":[{"id":"100001754136107","name":"Nguyễn Tuấn Vũ","type":"user","offset":25,"length":14}],"can_remove":false,"created_time":"2013-09-12T16:56:36+0000","like_count":0,"user_likes":false},"719058354777511":{"id":"719058354777511","from":{"id":"100002757169954","name":"Trần Vũ Anh Duy"},"message":"tải Javidic về đi bạn, đủ thứ trong đó :v","can_remove":false,"created_time":"2013-09-12T16:59:54+0000","like_count":1,"user_likes":false},"719063211443692":{"id":"719063211443692","from":{"id":"100004460525997","name":"Hà Trang Nguyễn"},"message":"Trần Vũ Anh Duy bạn có thể chỉ cho mình tải Javidic đó được ko? mình kiếm nhưng ko ra","message_tags":[{"id":"100002757169954","name":"Trần Vũ Anh Duy","type":"user","offset":0,"length":15}],"can_remove":false,"created_time":"2013-09-12T17:01:04+0000","like_count":0,"user_likes":false},"719071764776170":{"id":"719071764776170","from":{"id":"100002955969216","name":"Hieu Lanh"},"message":"javidic 2010. len mang tai ve","can_remove":false,"created_time":"2013-09-12T17:06:26+0000","like_count":0,"user_likes":false},"719072198109460":{"id":"719072198109460","from":{"id":"100004460525997","name":"Hà Trang Nguyễn"},"message":"minh da kiem va tai ma ko duoc","can_remove":false,"created_time":"2013-09-12T17:07:45+0000","like_count":0,"user_likes":false},"719083441441669":{"id":"719083441441669","from":{"id":"100005982402082","name":"Hcm Ilu"},"message":"link nè:   http://www.mediafire.com/?m8y7tw1226ftd","can_remove":false,"created_time":"2013-09-12T17:21:42+0000","like_count":0,"user_likes":false},"719087741441239":{"id":"719087741441239","from":{"id":"100004460525997","name":"Hà Trang Nguyễn"},"message":"Hcm Ilu arigatou, để mình thử xem tn","message_tags":[{"id":"100005982402082","name":"Hcm Ilu","type":"user","offset":0,"length":7}],"can_remove":false,"created_time":"2013-09-12T17:28:31+0000","like_count":0,"user_likes":false},"719092781440735":{"id":"719092781440735","from":{"id":"100005982402082","name":"Hcm Ilu"},"message":"Bạn có thẻ tham khảo cách cài đặt tại: http://www.studyjapanese.net/2011/03/tu-ien-javidic-2010.html","can_remove":false,"created_time":"2013-09-12T17:33:42+0000","like_count":0,"user_likes":false},"719228698093810":{"id":"719228698093810","from":{"id":"100000027754899","name":"Hoang Van Ba"},"message":"http://tratu.soha.vn/dict/en_vn/Trang_đầu\nThử cái này đi","can_remove":false,"created_time":"2013-09-12T21:56:35+0000","like_count":1,"user_likes":false},"719260484757298":{"id":"719260484757298","from":{"id":"100004460525997","name":"Hà Trang Nguyễn"},"message":"thanks Hoang Van Ba　nhé, t cài javidic ko được ko biết cái này được ko nữa","message_tags":[{"id":"100000027754899","name":"Hoang Van Ba","type":"user","offset":7,"length":12}],"can_remove":false,"created_time":"2013-09-12T23:43:07+0000","like_count":0,"user_likes":false}},"paging":{"cursors":{"after":"NzE5MDU0ODMxNDQ0NTMw","before":"NzE5MDU0ODMxNDQ0NTMw"},"next":"https://graph.facebook.com/229244010425617_719041988112481/comments?limit=1&summary=1&after=NzE5MDU0ODMxNDQ0NTMw"},"summary":{"order":"chronological","total_count":11}},"likes":{"data":[]}}