{"id":"229244010425617_719294834753863","type":"status","from":{"id":"100001864793577","name":"Sakura Đhbkhn"},"message":"Chào các bạn!\nCác bạn cho mình hỏi:Mình sắp sang Nhật tham quan khảo sát công ty 1 tuần tại Niigata.Mình  nên mua máy laptop ở bên đó hay ko?Vì mình làm về kĩ thuật nên cần máy cấu hình cao.Mình chưa sang bên Nhật bao giờ nên chưa có kinh nghiệm gì về mua đồ điện tử bên đó.Không biết laptop bên đó có rẻ hơn so với Việt nam mình nhiều không?Vậy rất mong các bạn tư vấn  giúp!","created_time":"2013-09-13T01:21:33+0000","updated_time":"2013-09-13T13:16:36+0000","comments":{"data":{"719296278087052":{"id":"719296278087052","from":{"id":"100001754136107","name":"Nguyễn Tuấn Vũ"},"message":"Nếu mà bạn mua hàng Sony hay là fuzjtu thi minh khuyen mua bên nay","can_remove":false,"created_time":"2013-09-13T01:25:36+0000","like_count":0,"user_likes":false},"719296788087001":{"id":"719296788087001","from":{"id":"100001864793577","name":"Sakura Đhbkhn"},"message":"thế hàng hãng khác thì sao hả bạn?tư vấn giúp mình...","can_remove":false,"created_time":"2013-09-13T01:27:32+0000","like_count":0,"user_likes":false},"719297851420228":{"id":"719297851420228","from":{"id":"100001754136107","name":"Nguyễn Tuấn Vũ"},"message":"Vì hàng này nó là bản nhật :))","can_remove":false,"created_time":"2013-09-13T01:30:32+0000","like_count":0,"user_likes":false},"719298561420157":{"id":"719298561420157","from":{"id":"100001864793577","name":"Sakura Đhbkhn"},"message":"Vậy ah?hình như theo mình biết thì nếu mua bên Nhật mà cam kết hợp đồng sử dụng nhà mạng cty liên kết thì giá giảm rất nhiều đúng ko?","can_remove":false,"created_time":"2013-09-13T01:33:05+0000","like_count":0,"user_likes":false},"719299501420063":{"id":"719299501420063","from":{"id":"100001754136107","name":"Nguyễn Tuấn Vũ"},"message":"Uhm.nhưng hợp đông đấy phải dùng trong 2 năm thì phải","can_remove":false,"created_time":"2013-09-13T01:36:08+0000","like_count":0,"user_likes":false},"719299974753349":{"id":"719299974753349","from":{"id":"100001864793577","name":"Sakura Đhbkhn"},"message":"dùng ít nhất trong 2 năm ah?Ng việt mình bên đó có hay dùng theo kiểu đó ko?","can_remove":false,"created_time":"2013-09-13T01:37:59+0000","like_count":0,"user_likes":false},"719301144753232":{"id":"719301144753232","from":{"id":"100001754136107","name":"Nguyễn Tuấn Vũ"},"message":"Minh thì ko sử dụng. Nhưng mọi ng thường bùng là nhièu :))","can_remove":false,"created_time":"2013-09-13T01:41:45+0000","like_count":0,"user_likes":false},"719301824753164":{"id":"719301824753164","from":{"id":"100001864793577","name":"Sakura Đhbkhn"},"message":":))bùng như vậy vẫn ko bị tóm ah? Ng việt giỏi nhỉ? Mà không biết đồ cũ bên đó có đảm bảo ko nhi?","can_remove":false,"created_time":"2013-09-13T01:44:05+0000","like_count":0,"user_likes":false},"719310021419011":{"id":"719310021419011","from":{"id":"100001754136107","name":"Nguyễn Tuấn Vũ"},"message":"Nó gửi giấy về nhưng ko đóng :))","can_remove":false,"created_time":"2013-09-13T01:47:21+0000","like_count":0,"user_likes":false},"719310061419007":{"id":"719310061419007","from":{"id":"100001754136107","name":"Nguyễn Tuấn Vũ"},"message":"T đùng đam bảo c ak","can_remove":false,"created_time":"2013-09-13T01:47:31+0000","like_count":0,"user_likes":false},"719310611418952":{"id":"719310611418952","from":{"id":"100001864793577","name":"Sakura Đhbkhn"},"message":"Vũ ơi,ở bên đó nhiều nơi bán đồ điện tử cũ ko?như laptop,điện thoại...","can_remove":false,"created_time":"2013-09-13T01:49:20+0000","like_count":0,"user_likes":false},"719330714750275":{"id":"719330714750275","from":{"id":"100001754136107","name":"Nguyễn Tuấn Vũ"},"message":"Có a ak, trên mạng có, mặt đất ( cửa hàng ) cũng có :))","can_remove":false,"created_time":"2013-09-13T02:50:54+0000","like_count":0,"user_likes":false},"719467378069942":{"id":"719467378069942","from":{"id":"100000422494322","name":"Khởi Khắc"},"message":"Bạn nên ra hệ thông siêu thị Eden mua, đồ Nhật cực tốt. Đồ cũ cũng rất tốt ở hệ thống siêu thị handoff (Laptop ko nen mua do cu) Có đk thì lên phố akibahara o tokyo nhe","can_remove":false,"created_time":"2013-09-13T04:30:19+0000","like_count":0,"user_likes":false},"719672078049472":{"id":"719672078049472","from":{"id":"100000687662713","name":"Vu Thi Man"},"message":"K biet la co tot hon khong, tuy nhien minh da co su so sanh voi may tinh ban tai VN, nhin be ngoai thi giong nhau, gia cung giong nhau nhung thong so ky thuat thi khac nhau 1 troi 1 vuc","can_remove":false,"created_time":"2013-09-13T11:59:31+0000","like_count":0,"user_likes":false},"719676241382389":{"id":"719676241382389","from":{"id":"100006248618563","name":"Momi Zi"},"message":"mua cái máy rồi dùng wifi của công ty hoặc rò mạng chùa mà xài chứ đăng ký chi cho mất tiền.còn máy bên này mà đồ cũ thì hên xui một phần mà tiền nào của nấy một phần và họ có ghi thông số về máy và yên tâm một điều là cửa hàng nhật có lẽ ko làm ăn gian dối.phòng mình có gần chục cái máy cũ tầm 2 đến 3 man 1 cái mà xài tốt lắm còn máy mới thì mình ko rõ nhưng có mấy người toàn xài jujitfu gì gì đó như bạn tuấn vũ nói đó tốt lắm","can_remove":false,"created_time":"2013-09-13T12:12:00+0000","like_count":0,"user_likes":false},"719689014714445":{"id":"719689014714445","from":{"id":"100001416272263","name":"Mai PB"},"message":"Sakura Đhbkhn sang có 1 tuần, thời gian đâu mà đi mua đồ với lại setup cho công việc? Còn đăng ký khuyến mãi gì đó như Nguyễn Tuấn Vũ chỉ dành cho ai ở Nhật lâu dài, bạn không đăng ký được đâu.","message_tags":[{"id":"100001864793577","name":"Sakura Đhbkhn","type":"user","offset":0,"length":13},{"id":"100001754136107","name":"Nguyễn Tuấn Vũ","type":"user","offset":119,"length":14}],"can_remove":false,"created_time":"2013-09-13T12:53:47+0000","like_count":2,"user_likes":false},"719692648047415":{"id":"719692648047415","from":{"id":"100006248618563","name":"Momi Zi"},"message":"với lại ko có biza hơn 3 tháng cũng bó tay thì phải","can_remove":false,"created_time":"2013-09-13T13:04:35+0000","like_count":0,"user_likes":false},"719697008046979":{"id":"719697008046979","from":{"id":"100004112258038","name":"Chung Tran"},"message":"bạn xem có bạn bè nhờ mua trước rồi sang gửi trả lại họ tiền, mình thì hay Amazon, Rakuten vs Kakaku ^^ vì tren đấy thấy giá mềm hơn.  Nói chung là máy bên này rẻ hơn ở nhà nhiều, chỉ tội layout Nhật ^^, như mình dùng thì thích vì chuyển bộ gõ nhanh , vd : Macbook pro bản Mid 2012 ở nhà khoảng 30 thì hồi đầu 2013 mình mua được chỗ có 20 thôi.","can_remove":false,"created_time":"2013-09-13T13:16:36+0000","like_count":1,"user_likes":false}},"paging":{"cursors":{"after":"NzE5Mjk2Mjc4MDg3MDUy","before":"NzE5Mjk2Mjc4MDg3MDUy"},"next":"https://graph.facebook.com/229244010425617_719294834753863/comments?limit=1&summary=1&after=NzE5Mjk2Mjc4MDg3MDUy"},"summary":{"order":"chronological","total_count":18}},"likes":{"data":[]}}