{"id":"229244010425617_719487764734570","type":"video","picture":"https://fbexternal-a.akamaihd.net/safe_image.php?d=AQABo0f1WfR9wUYY&w=130&h=130&url=http%3A%2F%2Fi1.ytimg.com%2Fvi%2FUyhrIZsclb0%2Fmaxresdefault.jpg%3Ffeature%3Dog","link":"http://www.youtube.com/watch?v=UyhrIZsclb0","source":"http://www.youtube.com/v/UyhrIZsclb0?version=3&autohide=1&autoplay=1","from":{"id":"100001810450026","name":"Nguyễn Đức Phú"},"message":"http://www.youtube.com/watch?v=UyhrIZsclb0\nKhông biết trong group, có nhiều người đọc One piece không. Mình là 1 fan của One piece cả manga lẫn anime. Có 1 điều mà mình băn khoăn là: Tại sao Luffy lại đi tìm kiếm One piece?\nSẽ có rất nhiều câu trả lời cho câu hỏi này. Nhưng ở đây mình chỉ nói về 1 khía cạnh, điều mà mình nghĩ được thể hiện rõ ràng nhất trong đoạn Anime trên.\nKhi Usopp định hỏi Rayleigh (người đã từng trong nhóm hải tặc huyền thoại duy  nhất tìm ra được One piece) : \"ワンピースは本当に。。。\". Lập tức Luffy tức giận, quát lên rằng:\"Usopppppp!!!!! Tớ không muốn nghe xem là One piece nó ở đâu, Tớ cũng không muốn biết là ở đó có kho báu（宝） hay ko? Nhưng bao nhiêu người vì điều đó mà đặt cược cả tinh mạng của mình (命をかける). Nếu ông chú này nói bất cứ điều gì, tớ sẽ từ bỏ con đường làm vua hải tặc (海賊王). Nếu phải tham gia 1 chuyến phiêu lưu 'chán' như thế, tờ thà chết còn hơn! \".\nCâu chuyện này làm tôi liên hệ đến bản thân mình hồi xưa khi còn là 1 cậu bé thích học Toán.  Khi tìm cách giải 1 bài toán khó, nghĩ mãi mà không ra cách. Tôi rất bực mình, và không muốn ai chỉ cho mình cả. Tôi cũng không nghĩ nhiều là giải nó xong thì mình được cái gì, chỉ biết là nếu không giải được thì rất là khó chịu :D. Và sau khi giải xong, tôi nhận ra... đúng thật là mình không được cái gì cả :). Nhưng giờ tôi nghĩ lại, niềm vui trong cái KHOẢNH KHẮC giải được vấn đề nào đó, chính là “kho báu” của cả cuộc đời tôi.\nVậy đó, nhiều khi cái có ý nghĩa không chỉ là cái \"đích\" mà còn là niềm vui được đi trên con đường đến cái \"đích\" đó! Một quá trình từ không biết gì, đến tò mò hiếu kỳ, sau đó trải qua bao khó khăn, ngập nghềnh, rồi cảm giác hồi hộp khi gần đến cái mình mong đợi, và cuối cùng là niềm vui vỡ oà khi đã thành công. Đó mới là thứ thực sự thú vị, chứ không hẳn chỉ là cái “đích”. \nCòn bây giờ, nếu bạn còn trẻ và có 1 cái “đích” mà mình thực sự mong muốn thì sao lại không tận hưởng nó nhỉ ^^.","created_time":"2013-09-13T05:44:18+0000","updated_time":"2013-09-14T02:58:09+0000","likes":{"data":{"100004483051243":{"id":"100004483051243","name":"Knari Nguyen"},"100001580479641":{"id":"100001580479641","name":"Hà Xuân Thủy"},"100000866758943":{"id":"100000866758943","name":"Nguyen Dinh Quan"},"100000198892785":{"id":"100000198892785","name":"Mạnh Phi"},"100000073848158":{"id":"100000073848158","name":"Hoàng Đắc"},"100001416272263":{"id":"100001416272263","name":"Mai PB"},"100005904761637":{"id":"100005904761637","name":"Ken"},"100000280776405":{"id":"100000280776405","name":"Viet Nguyen Thanh"},"100003148524016":{"id":"100003148524016","name":"Chu Giang"},"100006626797935":{"id":"100006626797935","name":"私 はにほんをあいしている"},"100002907249759":{"id":"100002907249759","name":"Mimi Joe"},"100001508739620":{"id":"100001508739620","name":"Lê Ngọc Hoàn"},"100001479894331":{"id":"100001479894331","name":"Diệu Nguyễn"},"100000499350811":{"id":"100000499350811","name":"Nguyễn Văn Linh"},"100002425288918":{"id":"100002425288918","name":"Kira Chiến ND"},"100001739865592":{"id":"100001739865592","name":"Tung Le"},"100001754136107":{"id":"100001754136107","name":"Nguyễn Tuấn Vũ"},"1145584654":{"id":"1145584654","name":"Tobe Tung"},"1828906841":{"id":"1828906841","name":"Trọng Nghĩa Bùi"},"100000078235197":{"id":"100000078235197","name":"Lưu Thế Anh"},"100001458099624":{"id":"100001458099624","name":"Kham Pha"},"100000578149244":{"id":"100000578149244","name":"Minh Nc"}},"paging":{"cursors":{"after":"MTAwMDA0NDgzMDUxMjQz","before":"MTAwMDA0NDgzMDUxMjQz"},"next":"https://graph.facebook.com/229244010425617_719487764734570/likes?limit=1&summary=1&after=MTAwMDA0NDgzMDUxMjQz"},"summary":{"total_count":22}},"comments":{"data":{"719535584729788":{"id":"719535584729788","from":{"id":"100002425288918","name":"Kira Chiến ND"},"message":"hay và chuẩn nhỉ Nguyễn Đức Phú (y) like mạnh","message_tags":[{"id":"100001810450026","name":"Nguyễn Đức Phú","type":"user","offset":17,"length":14}],"can_remove":false,"created_time":"2013-09-13T09:10:02+0000","like_count":0,"user_likes":false},"719660158050664":{"id":"719660158050664","from":{"id":"100006626797935","name":"私 はにほんをあいしている"},"message":"like nhe....","can_remove":false,"created_time":"2013-09-13T11:22:55+0000","like_count":1,"user_likes":false},"719668028049877":{"id":"719668028049877","from":{"id":"100003148524016","name":"Chu Giang"},"message":"おもしろいでしね","can_remove":false,"created_time":"2013-09-13T11:45:27+0000","like_count":0,"user_likes":false},"719696868046993":{"id":"719696868046993","from":{"id":"100001416272263","name":"Mai PB"},"message":"Đừng ai áp dụng vào việc trồng cây si nhé","can_remove":false,"created_time":"2013-09-13T13:16:09+0000","like_count":3,"user_likes":false},"719697581380255":{"id":"719697581380255","from":{"id":"100006626797935","name":"私 はにほんをあいしている"},"message":">_<","can_remove":false,"created_time":"2013-09-13T13:18:01+0000","like_count":0,"user_likes":false},"720051391344874":{"id":"720051391344874","from":{"id":"100001580479641","name":"Hà Xuân Thủy"},"message":"Fan OP","can_remove":false,"created_time":"2013-09-14T02:58:09+0000","like_count":0,"user_likes":false}},"paging":{"cursors":{"after":"NzE5NTM1NTg0NzI5Nzg4","before":"NzE5NTM1NTg0NzI5Nzg4"},"next":"https://graph.facebook.com/229244010425617_719487764734570/comments?limit=1&summary=1&after=NzE5NTM1NTg0NzI5Nzg4"},"summary":{"order":"chronological","total_count":6}}}