{"id":"229244010425617_719498971400116","type":"photo","object_id":"242227922595582","picture":"https://fbcdn-photos-c-a.akamaihd.net/hphotos-ak-ash3/v/t1.0-0/600146_242227922595582_1670422319_s.jpg?oh=0eb067bab02d55654db98abe812cf6e7&oe=53DBC8FD&__gda__=1405788843_53be964fb5f5f3033e3b595e7cc0b34b","link":"https://www.facebook.com/photo.php?fbid=242227922595582&set=gm.719498971400116&type=1&relevant_count=1","from":{"id":"100004251279517","name":"Việt Nam Nhật Bản"},"message":"CÁC ANH CHỊ VÀ CÁC BẠN CHO MÌNH HỎI チーズ T字 nghĩa là gì ạ????? google dịch là pho mát cái chữ チーズ nên chắc là sai rồi\nCẢM ƠN CÁC ANH CHỊ VÀ CÁC BẠN","created_time":"2013-09-13T06:41:53+0000","updated_time":"2013-09-14T03:43:12+0000","likes":{"data":{"566093622":{"id":"566093622","name":"Loby Huong"},"100000064686295":{"id":"100000064686295","name":"Huy Roli"},"100000237315573":{"id":"100000237315573","name":"Tu Vu Van"},"100006650553201":{"id":"100006650553201","name":"Nhóc Maruko"},"100003941338766":{"id":"100003941338766","name":"Nhinl Pe"}},"paging":{"cursors":{"after":"NTY2MDkzNjIy","before":"NTY2MDkzNjIy"},"next":"https://graph.facebook.com/229244010425617_719498971400116/likes?limit=1&summary=1&after=NTY2MDkzNjIy"},"summary":{"total_count":5}},"comments":{"data":{"719499721400041":{"id":"719499721400041","from":{"id":"100005319071446","name":"Huan Nguyen"},"message":"チーズpho mat ma","can_remove":false,"created_time":"2013-09-13T06:44:49+0000","like_count":0,"user_likes":false},"719500144733332":{"id":"719500144733332","from":{"id":"100004251279517","name":"Việt Nam Nhật Bản"},"message":"nhìn cái chữ trên tranh đi bạn???","can_remove":false,"created_time":"2013-09-13T06:46:42+0000","like_count":0,"user_likes":false},"719500441399969":{"id":"719500441399969","from":{"id":"100004251279517","name":"Việt Nam Nhật Bản"},"message":"có chỗ còn viết là T型チーズ","can_remove":false,"created_time":"2013-09-13T06:48:12+0000","like_count":0,"user_likes":false},"719520824731264":{"id":"719520824731264","from":{"id":"100000064686295","name":"Huy Roli"},"message":"cái này chắc anh Mai Bp biết","can_remove":false,"created_time":"2013-09-13T08:11:13+0000","like_count":0,"user_likes":false},"719534904729856":{"id":"719534904729856","from":{"id":"849149395","name":"Đặng Ngọc Trân"},"message":"Ống nối (hoặc khớp nối) chữ T đó bạn. Nó là cái khớp 3 đầu ở giữa dùng để nối các ống nước á","can_remove":false,"created_time":"2013-09-13T09:07:24+0000","like_count":1,"user_likes":false},"719541164729230":{"id":"719541164729230","from":{"id":"100000064686295","name":"Huy Roli"},"message":"Chủ yếu chữ chi-zu là gì ý chứ nhỉ","can_remove":false,"created_time":"2013-09-13T09:30:56+0000","like_count":0,"user_likes":false},"719543691395644":{"id":"719543691395644","from":{"id":"100001416272263","name":"Mai PB"},"message":"Đặng Ngọc Trân nói đúng rồi đó. Từ chuyên ngành, phải tra mới biết. :-)","message_tags":[{"id":"849149395","name":"Đặng Ngọc Trân","type":"user","offset":0,"length":14}],"can_remove":false,"created_time":"2013-09-13T09:40:40+0000","like_count":0,"user_likes":false},"719610614722285":{"id":"719610614722285","from":{"id":"100000603915176","name":"悪いな ぁ"},"message":"Từ này không thể là từ chuyên ngành vì nó có bán rất nhiều ngoài các cửa hàng, phải có tên để gọi chứ!","can_remove":false,"created_time":"2013-09-13T10:04:37+0000","like_count":0,"user_likes":false},"719652054718141":{"id":"719652054718141","from":{"id":"100000064686295","name":"Huy Roli"},"message":"Khó nhỉ","can_remove":false,"created_time":"2013-09-13T10:54:08+0000","like_count":0,"user_likes":false},"719670134716333":{"id":"719670134716333","from":{"id":"100000687662713","name":"Vu Thi Man"},"message":"Troi oi, tieng Viet goi la cut chu T","can_remove":false,"created_time":"2013-09-13T11:52:27+0000","like_count":0,"user_likes":false},"719670211382992":{"id":"719670211382992","from":{"id":"100000687662713","name":"Vu Thi Man"},"message":"day la tu chuyen nganh day, cut noi chu T","can_remove":false,"created_time":"2013-09-13T11:52:47+0000","like_count":0,"user_likes":false},"719686128048067":{"id":"719686128048067","from":{"id":"100001416272263","name":"Mai PB"},"message":"Vu Thi Man viết từ có dấu nhé, mấy từ ít ai biết này, biết đọc thế nào, nguy hiểm","message_tags":[{"id":"100000687662713","name":"Vu Thi Man","type":"user","offset":0,"length":10}],"can_remove":false,"created_time":"2013-09-13T12:44:43+0000","like_count":4,"user_likes":false},"719688901381123":{"id":"719688901381123","from":{"id":"849149395","name":"Đặng Ngọc Trân"},"message":"Nguy hiểm thiệt  :)) e đã lộn","can_remove":false,"created_time":"2013-09-13T12:53:20+0000","like_count":1,"user_likes":false},"719690718047608":{"id":"719690718047608","from":{"id":"100000064686295","name":"Huy Roli"},"message":"Vấn đề là chữ chi-zu là chữ katakana, gốc của nó là chữ gì mà bạn google ko biết?????","can_remove":false,"created_time":"2013-09-13T12:59:22+0000","like_count":0,"user_likes":false},"719712338045446":{"id":"719712338045446","from":{"id":"100000052661831","name":"Shuntoku Pham"},"message":"Nó lấy từ từ \"tees\" trong water pipe tee thì phải.","can_remove":false,"created_time":"2013-09-13T13:54:14+0000","like_count":0,"user_likes":false},"719713948045285":{"id":"719713948045285","from":{"id":"100000603915176","name":"悪いな ぁ"},"message":"Có vẻ cũng kg đúng lắm. Tee (danh từ) có nghĩa là vật giống hình chữ T, lại thêm T字 nữa làm gì? Với lại nếu 2 chữ gần cùng nghĩa đứng cạnh nhau chẳng thể nêu bật vật đó là vật gì, có nghĩa gì. Nhất là tự điển lại không có, từ ngoại lai, người Nhật muốn mua họ hỏi kiểu gì?","can_remove":false,"created_time":"2013-09-13T13:58:24+0000","like_count":0,"user_likes":false},"719714478045232":{"id":"719714478045232","from":{"id":"100000064686295","name":"Huy Roli"},"message":"Thế mới khó các cao thủ bên nhật đâu rồi","can_remove":false,"created_time":"2013-09-13T13:59:55+0000","like_count":0,"user_likes":false},"719826018034078":{"id":"719826018034078","from":{"id":"100000381394367","name":"Thành Nguyễn"},"message":"Từ điển tiếng Nhật thì có mấy nghĩa của  チーズ như sau","can_remove":false,"created_time":"2013-09-13T16:01:57+0000","like_count":0,"user_likes":false},"719826498034030":{"id":"719826498034030","from":{"id":"100000381394367","name":"Thành Nguyễn"},"message":"1. チーズ - 乳製品","can_remove":false,"created_time":"2013-09-13T16:03:03+0000","like_count":0,"user_likes":false},"719826521367361":{"id":"719826521367361","from":{"id":"100000381394367","name":"Thành Nguyễn"},"message":"2.チーズ -　配管と配管を繋ぐ継ぎ手の一種で、T字に分岐するために使用する。作業員らの間で広まった呼称","can_remove":false,"created_time":"2013-09-13T16:03:06+0000","like_count":0,"user_likes":false},"719826808033999":{"id":"719826808033999","from":{"id":"100000381394367","name":"Thành Nguyễn"},"message":"3.チーズ -　写真を撮る際のかけ声。もともとは英語圏で使われた\"cheese\"で、/ɪː/の発音の際に笑顔ができるとされる。","can_remove":false,"created_time":"2013-09-13T16:03:30+0000","like_count":0,"user_likes":false},"719830664700280":{"id":"719830664700280","from":{"id":"100000381394367","name":"Thành Nguyễn"},"message":"cái tranh kia là theo nghĩa thứ 2, còn nguồn gốc lịch sử tại sao họ dùng từ này thì mình nghĩ nó chính là việc Nhật hóa từ cheese ( pho mát hay phô mai ) mà thôi chứ không phải là chuyển âm từ 1 từ khác sang. Còn lý do tại sao cái ống nước lại gọi là pho mát thì cũng không lạ lắm, bản thân trong lĩnh vực kỹ thuật rất hay vay mượn từ đời thường ( với nghĩa khác ) để dùng làm từ chuyên ngành, ví dụ như con chuột máy tính ( mouse ) vì nó hay chạy đi chạy lại, trong lập trình người ta gọi những lỗi sai là bug ( con bọ ) hoặc bộ vi xử lý là chip ( khoai tây chiên vì nó mỏng như khoai tây ). Từ cheese được dùng có lẽ vì cái ống nước này nó giống một mẩu vụn ( trong tiếng anh có từ cheese paring là mẩu vụn hoặc apple-cheese là bã táo ép ) , người ta có thể dùng cheese vì nghĩ nó là thứ để mồi ( dẫn truyền ) các thiết bị với nhau. Như trong tiếng việt hay có câu \"phở không người lái\" người lái ở đây là thịt, có thịt ( có người lái thì chuyến đi sẽ diễn ra nhanh hơn ) phở trôi vào bụng sớm hơn.","can_remove":false,"created_time":"2013-09-13T16:08:36+0000","like_count":2,"user_likes":false},"719833291366684":{"id":"719833291366684","from":{"id":"100000381394367","name":"Thành Nguyễn"},"message":"Đó cũng là phỏng đoán của mình, ngoài ra có thể nó cũng chính là chữ T đọc theo kiểu chơi chữ, hồi trước mình có anh bạn Nhật mỗi lần nói chuyện khi nói từ donogurai anh ấy thường đùa thành don't cry. Vì hai âm đó đọc giống nhau. Một điều nữa cần chú ý trong cái tranh kia là chữ チーズ để dòng trên cùng còn T字 là ở dưới ( giống kiểu description ) chứ ko phải nó viết liền nhau, chỉ cần một trong hai từ là đủ hiểu nó là cái cút nước rồi. Các bạn có thể tham khảo thêm link này sẽ thấy mô tả kỹ thuật của nó http://www.hkpnote.com/mtrl/mtrl02.html","can_remove":false,"created_time":"2013-09-13T16:15:06+0000","like_count":1,"user_likes":false},"719983374685009":{"id":"719983374685009","from":{"id":"100000687662713","name":"Vu Thi Man"},"message":"Hihi, nhung ma may tinh cua minh k cai font tieng Viet, biet danh dau the nao day ha Mai PB?","message_tags":[{"id":"100001416272263","name":"Mai PB","type":"user","offset":85,"length":6}],"can_remove":false,"created_time":"2013-09-13T22:54:16+0000","like_count":0,"user_likes":false},"719996564683690":{"id":"719996564683690","from":{"id":"100000064686295","name":"Huy Roli"},"message":"Ở trên mạng ng ta viết là T字　チーズ32mm, mình ko biết có phải là ống 32 ko nữa","can_remove":false,"created_time":"2013-09-13T23:43:25+0000","like_count":0,"user_likes":false},"720029668013713":{"id":"720029668013713","from":{"id":"100000603915176","name":"悪いな ぁ"},"message":"Câu hỏi thế có đáng hỏi kg Vu Thi Man? Kg cài thì cài đi!","can_remove":false,"created_time":"2013-09-14T01:42:08+0000","like_count":0,"user_likes":false},"720045254678821":{"id":"720045254678821","from":{"id":"100001580479641","name":"Hà Xuân Thủy"},"message":"チーズLà cái cút nối ba đầu, cút nối hai đầu có thể là エルボーnối hình chữ L, ソケット nối thẳng có miệng bên ngoài、ニップル nối thẳng có miệng bên trong,....tất cả đều đc gọi là 継手cút nối, trở lại Tチーズchữ T để chỉ hình dạng cút nối, ngoài ra bạn có thể gặp các từ Yチーズ tức là cút nối  ba đầu hình chữ Y, Uボルトbu lông hình chữ U,....","can_remove":false,"created_time":"2013-09-14T02:35:40+0000","like_count":2,"user_likes":false},"720056268011053":{"id":"720056268011053","from":{"id":"100000064686295","name":"Huy Roli"},"message":"Hay quá, thế bạn có biết gốc gác của chữ đó ko, để mng đỡ nhầm với pho mát cheese","can_remove":false,"created_time":"2013-09-14T03:15:22+0000","like_count":0,"user_likes":false},"720064978010182":{"id":"720064978010182","from":{"id":"100001580479641","name":"Hà Xuân Thủy"},"message":"^^ tại sao cái cút ba đầu đc gọi là チーズ cái này mình cũng ko rõ, có lẽ cách giải thích của anh Thành Nguyễn cũng là hợp lý, đôi khi ý nghĩa và tên gọi nó chả ăn nhằm gì với nhau cũng ko phải là ko có, vd từ 平hira nghĩa là bằng phẳng đc dùng để gọi cái xe tải bình thường-トラックchỉ để phân biệt với cái xe tải có gắn máy cẩu đc gọi là ユニック","can_remove":false,"created_time":"2013-09-14T03:40:35+0000","like_count":0,"user_likes":false},"720066034676743":{"id":"720066034676743","from":{"id":"100001580479641","name":"Hà Xuân Thủy"},"message":"Nhân tiện bác Thành Nguyễn cho e hỏi bác dùng từ điển gì mà giải thích khá đầy đủ vậy, e cũng có dùng nhật-nhật nhưng ko đc đầy đủ như vậy.","can_remove":false,"created_time":"2013-09-14T03:43:12+0000","like_count":0,"user_likes":false}},"paging":{"cursors":{"after":"NzE5NDk5NzIxNDAwMDQx","before":"NzE5NDk5NzIxNDAwMDQx"},"next":"https://graph.facebook.com/229244010425617_719498971400116/comments?limit=1&summary=1&after=NzE5NDk5NzIxNDAwMDQx"},"summary":{"order":"chronological","total_count":30}}}