{"id":"229244010425617_719568408059839","type":"status","from":{"id":"1227016020","name":"Giang Huong Nguyen"},"message":"Tuyển gấp Brse lương 1500$ net, lương onsite 2,500$ net và trợ cấp nhà ở\nGiới thiệu công ty:  \nKhách hàng của J-Job lần này là công ty IT hoạt động trong lĩnh vực outsource cho thị trường Nhật Bản. Giám đốc của công ty đã làm việc nhiều năm tại FPT, sau khi thành lập công ty luôn cố gắng sang lọc và đem văn hóa tốt nhất của FPT vào công ty mình, ví dụ như môi trường làm việc thoải mái bình đẳng, tự do ngôn luận.\n Nội dung công việc:\n Làm ở Tokyo, khách hàng là một SI quy mô vừa phải, làm chủ yếu vẫn là phần development nên nghiệp vụ chưa quan trọng, end-user là cty liên quan đến đồ nội thất. Công việc BrSE chủ yếu là làm requirement và công đoạn cao Nếu bạn BrSE OK sẽ bắt đầu từ tháng 9 hoặc chậm nhất là tháng 10,\n Lương onsite = lương VN + 45$/ ngày + công ty hoặc khách hàng lo chỗ ở. \nMức lương VN: \nĐối với các bạn đang ở Việt Nam: 1,000-1,200\nĐối với các bạn đang ở Nhật: 1500$\nThời gian làm việc:\nĐối với các bạn đang ở Nhật: 3-6 tháng tùy thuộc vào hạn còn lại của visa\nĐối với các bạn ở Việt Nam: 3 tháng\nYêu cầu công việc: \nTiếng Nhật tốt, tương đương N2, có khả năng làm được các công việc của Brse\n\nContact: Giang (Ms) : )097-597-8276. Mail: giang.nguyen@j-job.com.vn","created_time":"2013-09-13T09:46:01+0000","updated_time":"2013-09-13T11:12:06+0000","likes":{"data":{"100006558942298":{"id":"100006558942298","name":"雪子"},"100005801442456":{"id":"100005801442456","name":"An Nguyen"},"100003631860637":{"id":"100003631860637","name":"Meaningof Thelife"}},"paging":{"cursors":{"after":"MTAwMDA2NTU4OTQyMjk4","before":"MTAwMDA2NTU4OTQyMjk4"},"next":"https://graph.facebook.com/229244010425617_719568408059839/likes?limit=1&summary=1&after=MTAwMDA2NTU4OTQyMjk4"},"summary":{"total_count":3}},"comments":{"data":{"719652321384781":{"id":"719652321384781","from":{"id":"100000064686295","name":"Huy Roli"},"message":"Chả hiểu brse là việc gì nữa cơ :((","can_remove":false,"created_time":"2013-09-13T10:55:29+0000","like_count":0,"user_likes":false},"719657201384293":{"id":"719657201384293","from":{"id":"1227016020","name":"Giang Huong Nguyen"},"message":"Brse là kỹ sư cầu nối, đây là cho công ty IT :D hiểu nôm na la trung gian giữa công ty khách hàng ở Nhật và công ty VIệt nam ấy Huy Roli :D","message_tags":[{"id":"100000064686295","name":"Huy Roli","type":"user","offset":128,"length":8}],"can_remove":false,"created_time":"2013-09-13T11:12:06+0000","like_count":2,"user_likes":false}},"paging":{"cursors":{"after":"NzE5NjUyMzIxMzg0Nzgx","before":"NzE5NjUyMzIxMzg0Nzgx"},"next":"https://graph.facebook.com/229244010425617_719568408059839/comments?limit=1&summary=1&after=NzE5NjUyMzIxMzg0Nzgx"},"summary":{"order":"chronological","total_count":2}}}