{"id":"229244010425617_719764608040219","type":"status","from":{"id":"100006381962627","name":"Hậu Đào"},"message":"a c ơi cho e hỏi \nmáy tính nhà e ko tài nào viết đk chữ nhật thì phải làm gì ạ\nmáy e dùng unicode\nthaks các a, c","created_time":"2013-09-13T15:03:08+0000","updated_time":"2013-09-13T15:51:15+0000","likes":{"data":{"100003941338766":{"id":"100003941338766","name":"Nhinl Pe"}},"paging":{"cursors":{"after":"MTAwMDAzOTQxMzM4NzY2","before":"MTAwMDAzOTQxMzM4NzY2"}},"summary":{"total_count":1}},"comments":{"data":{"719765611373452":{"id":"719765611373452","from":{"id":"100003179905990","name":"Trâm Yoko"},"message":"bạn phải cài font nhật chứ","can_remove":false,"created_time":"2013-09-13T15:05:11+0000","like_count":0,"user_likes":false},"719765621373451":{"id":"719765621373451","from":{"id":"100003504236087","name":"Nguyễn Văn Tèo"},"message":"http://topglobis.com/hoc-tieng-nhat-online/i-topglobis/huong-dan-cai-dat-bo-go-tieng-nhat.html","can_remove":false,"created_time":"2013-09-13T15:05:13+0000","like_count":0,"user_likes":false},"719765878040092":{"id":"719765878040092","from":{"id":"100001416272263","name":"Mai PB"},"message":"Em download bộ gõ tiếng Nhật của Google này vào. http://www.google.co.jp/ime/","can_remove":false,"created_time":"2013-09-13T15:05:52+0000","like_count":1,"user_likes":false},"719765984706748":{"id":"719765984706748","from":{"id":"100006381962627","name":"Hậu Đào"},"message":"e cảm ơn nhìu","can_remove":false,"created_time":"2013-09-13T15:06:05+0000","like_count":0,"user_likes":false},"719769574706389":{"id":"719769574706389","from":{"id":"100006381962627","name":"Hậu Đào"},"message":"ko đk a ơi máy nó đòi đĩa. nó kiểu gì í.í.í...","can_remove":false,"created_time":"2013-09-13T15:12:10+0000","like_count":0,"user_likes":false},"719770631372950":{"id":"719770631372950","from":{"id":"100003504236087","name":"Nguyễn Văn Tèo"},"message":"dùng windows xp thì chịu khó cho đĩa cài winxp vào k thì download theo địa chỉ mà bác Mai PB kia post lên á","can_remove":false,"created_time":"2013-09-13T15:14:50+0000","like_count":0,"user_likes":false},"719771921372821":{"id":"719771921372821","from":{"id":"100000056061298","name":"Anh Tran"},"message":"http://download635.mediafire.com/qgxbjjh19zog/uzmaykt5uzm/font.rar","can_remove":false,"created_time":"2013-09-13T15:18:15+0000","like_count":0,"user_likes":false},"719772131372800":{"id":"719772131372800","from":{"id":"100000056061298","name":"Anh Tran"},"message":"cài bộ cài của bác Mai PB rùi cài font nhé","message_tags":[{"id":"100001416272263","name":"Mai PB","type":"user","offset":19,"length":6}],"can_remove":false,"created_time":"2013-09-13T15:18:55+0000","like_count":0,"user_likes":false},"719772688039411":{"id":"719772688039411","from":{"id":"100000056061298","name":"Anh Tran"},"message":"vào phần language add thêm Japan nhé :)","can_remove":false,"created_time":"2013-09-13T15:19:58+0000","like_count":0,"user_likes":false},"719773738039306":{"id":"719773738039306","from":{"id":"100006381962627","name":"Hậu Đào"},"message":"e vào trag mà bác mai pb rùi nhưng vào đó ko thấy gì hết ko hiểu nên ko biết bấm vào chỗ nào máy nó cũg ko đọc đk","can_remove":false,"created_time":"2013-09-13T15:22:21+0000","like_count":0,"user_likes":false},"719822031367810":{"id":"719822031367810","from":{"id":"1227859163","name":"Pham Hung Thinh"},"message":"Control panel/ region & language setting/ keyboard/ add keyboard -> chọn japanese IME, nó sẽ tự hiện lên","can_remove":false,"created_time":"2013-09-13T15:51:15+0000","like_count":1,"user_likes":false}},"paging":{"cursors":{"after":"NzE5NzY1NjExMzczNDUy","before":"NzE5NzY1NjExMzczNDUy"},"next":"https://graph.facebook.com/229244010425617_719764608040219/comments?limit=1&summary=1&after=NzE5NzY1NjExMzczNDUy"},"summary":{"order":"chronological","total_count":11}}}