{"id":"229244010425617_719932168023463","type":"link","picture":"https://fbstatic-a.akamaihd.net/rsrc.php/v2/y3/r/0PnClccPFXs.png","link":"https://www.facebook.com/groups/CongdongVietNhat/permalink/719886214694725/","from":{"id":"100001458099624","name":"Kham Pha"},"message":"Một bài viết rất hay, cảm ơn anh Thành Nguyễn. Hơi dài một chút nhưng lý luận rất chặt chẽ súc tích, nếu mọi người đọc và hiểu hết được thì cực kì hữu ích. Còn sau đây mình xin bổ sung thêm một vài điểm. \n\nQuả thật người Việt Nam ta hiếm bao giờ được dạy dỗ phải tôn trọng ý kiến riêng của người khác kể cả trong trường lớp lẫn gia đình. Đó là lý do người nước ngoài nói rằng chúng ta làm việc chung rất kém, thiếu tinh thần hợp tác. Bởi vì ai cũng đặt cái tôi của mình lên đầu và không chịu suy nghĩ cho cộng đồng chung. Và chúng ta biết người Nhật thì hoàn toàn ngược lại. \n\nAnh Thành Nguyễn nói đúng, chúng ta chỉ biết “tranh cãi” chứ không biết “tranh luận” thành ra hiểu được nhau thì ít mà tổn thương nhau thì nhiều. Một cách cụ thể là khi “tranh luận” (không phải tranh cãi nhé) chúng ta nên tránh các câu gây tổn thương người khác như:\n\n-Không biết gì thì đừng có nói. \n\n-Các bạn đã làm được gì cho Việt Nam/ các bạn có làm được không mà chê mình. → Nhà phê bình văn học thì phải viết được tiểu thuyết phỏng? Không phải vấn đề so đo hơn nhau hay trì triết nhau mà vấn đề là bạn sai thì bạn phải chấp nhận. Đừng lôi chuyện khác, người khác vào vấn đề bàn luận.  \n\n-Thế thì tôi biết con người cậu thế nào rồi. --> Ví dụ cũng một lần tranh luận trong group, mình nói là “học bổng của mình là của nhà nước nên sau khi học xong bắt buộc phải về”. Tức thì người bạn đang tranh luận đáp thẳng cái comment vào mặt mình:“Nếu bạn nghĩ kiểu bắt buộc phải về thì tôi hiểu con người bạn thế nào rồi”. Ôi cái đệt, thế éo nào. \n\n-Xin lỗi tớ chỉ là....(thằng bán bánh giò chẳng hạn :D ) không được giỏi giang hiểu biết nhiều như cậu.\n…\n\nKhi các bạn nói một trong các câu trên thì chỉ một số ít người giữ được bình tĩnh không điên tiết với bạn. Còn lại đa số sẽ “cả giận mất khôn” quay lại công kích, mạt sát bạn và mọi chuyện càng ngày càng trở nên tồi tệ. \n\nNếu bạn lại nghĩ ”mày tức thì kệ mày, liên quan gì đến tao, tao thích nói thế đấy sướng mồm”. Vậy thì xin nói với bạn, cẩn thận bị đâm chết đấy. Các bạn thừa hiểu XH Việt Nam giờ thế nào rồi, không ít vụ tranh cãi nhỏ gây ra án mạng. Bây giờ nói chuyện với nhau qua bàn phím có thể bạn chả sao cả, nhưng giữ cái thói quen tranh luận ấy thì tranh luận ngoài đời thực tình hình cũng chẳng khác là bao. \n\nVì vậy hãy học cách \"tranh luận\" bởi vì lợi ích của nó là thuộc về bạn.\n\n--Kham Pha","created_time":"2013-09-13T21:00:27+0000","updated_time":"2013-09-14T11:32:14+0000","likes":{"data":{"100005801442456":{"id":"100005801442456","name":"An Nguyen"},"100001495688011":{"id":"100001495688011","name":"Chung Kếu"},"100001416272263":{"id":"100001416272263","name":"Mai PB"},"100003518966987":{"id":"100003518966987","name":"Thanh Hoài Ngô"},"100004460525997":{"id":"100004460525997","name":"Hà Trang Nguyễn"},"100002594112476":{"id":"100002594112476","name":"Thiên Di"},"100001727857917":{"id":"100001727857917","name":"Bui Duyen"},"100006248618563":{"id":"100006248618563","name":"Momi Zi"},"100001751941162":{"id":"100001751941162","name":"Vinh Lê"},"100001739865592":{"id":"100001739865592","name":"Tung Le"},"100000301107340":{"id":"100000301107340","name":"Bảo Bảnh Bao"},"100002676859353":{"id":"100002676859353","name":"Chu Quang Viên"},"100001007000967":{"id":"100001007000967","name":"Bibi Nguyễn"},"100005389234209":{"id":"100005389234209","name":"Cỏ Dại"},"100001116169487":{"id":"100001116169487","name":"Minh le Dinh"},"100000876802397":{"id":"100000876802397","name":"Trần Bảo Ngân"},"100001723862714":{"id":"100001723862714","name":"Bo Bien Vang"},"100002508122689":{"id":"100002508122689","name":"Vũ Mạnh Tuấn"}},"paging":{"cursors":{"after":"MTAwMDA1ODAxNDQyNDU2","before":"MTAwMDA1ODAxNDQyNDU2"},"next":"https://graph.facebook.com/229244010425617_719932168023463/likes?limit=1&summary=1&after=MTAwMDA1ODAxNDQyNDU2"},"summary":{"total_count":18}},"comments":{"data":{"719939281356085":{"id":"719939281356085","from":{"id":"100000548197209","name":"Move Forward"},"message":"Trong tranh luận thì đáng lẽ ra là lập luận logic, nhưng mà đa số thì lại thích đem yếu tố cảm xúc ra (thường là bôi nhọ hay sỉ nhục người khác), ôi giáo dục...","can_remove":false,"created_time":"2013-09-13T21:24:14+0000","like_count":0,"user_likes":false},"720061168010563":{"id":"720061168010563","from":{"id":"100006248618563","name":"Momi Zi"},"message":"bởi thế.nhớ cái bài viết của ai đó nói về\"sự im lặng của người tử tế\"","can_remove":false,"created_time":"2013-09-14T03:27:48+0000","like_count":0,"user_likes":false},"720295707987109":{"id":"720295707987109","from":{"id":"100005801442456","name":"An Nguyen"},"message":"Không biết mọi người ai coi phim P ちゃん chưa? Bộ phim kể về 1 giáo viên trẻ 1 hộp mang 1 con heo con tới lớp và ra 1 cuộc thảo luận là : cùng chung tay nuôi con heo đó đến khi đó lớn ,và khi lớn thì sẽ làm k với nó : \nA: giết ăn thịt và nói cho cùng nó cũng chỉ là con vật nuôi thôi\nB:chăm sóc  nó nghĩa là có tình cảm k thể giết hại\nCái hay Bộ phim là nó thể hiện cách tư duy trong giáo dục của Nhật luôn đổi mới và luôn để mọi người đc quyền nêu lên ý kiến bản thân dù họ là ai.và lắng nghe họ.trong cả Bộ phim người giáo viên k đứng về a lẫn B mà chỉ Trung lập.cho các đứa trẻ tự suy nghĩ và lập luận chứng Minh lý lẽ mình 1 cách sòng phẳng,hai bên 2 dãy ghế,bên nào phát biểu thì bên kia lắng nghe và ngược lại...đảm bảo người lớn chúng ta xem xong Bộ phim cũng phải học từ tụi nhỏ k phải là ít...nếu admin nào có tgian dịch đc cho mọi người xem học hỏi đc thì hay quá!","can_remove":false,"created_time":"2013-09-14T10:42:44+0000","like_count":2,"user_likes":false},"720300414653305":{"id":"720300414653305","from":{"id":"100001458099624","name":"Kham Pha"},"message":"An Nguyen hay là chúng ta tổ chức up phim lên group và bàn luận về các tình huống trong phim :D","message_tags":[{"id":"100005801442456","name":"An Nguyen","type":"user","offset":0,"length":9}],"can_remove":false,"created_time":"2013-09-14T10:57:21+0000","like_count":0,"user_likes":false},"720302314653115":{"id":"720302314653115","from":{"id":"100005801442456","name":"An Nguyen"},"message":"E chỉ biêt coi thôi chứ bảo e làm sub Việt thì thôi e chịu! Phim đó chỉ Cần ra tiệm đĩa thuê 100¥ mà tôi cái e đang k có máy tính@.@","can_remove":false,"created_time":"2013-09-14T11:05:26+0000","like_count":0,"user_likes":false},"720305494652797":{"id":"720305494652797","from":{"id":"100001458099624","name":"Kham Pha"},"message":"ko cần sub, nếu có phim thì up lên cho mọi người xem, link cũng được. Nhưng có bao nhiêu tập tất cả?","can_remove":false,"created_time":"2013-09-14T11:15:44+0000","like_count":0,"user_likes":false},"720306047986075":{"id":"720306047986075","from":{"id":"100005801442456","name":"An Nguyen"},"message":"Phim lẻ mà. Có 1 tập chứ mấy.msf coi mấy đứa nhỏ nó nói chuyện mình cảm thấy nhột nhột.khả năng lý luận của nó mình đôi khi cảm thấy thua kém,có lẽ từ bé k đc tập thoái quen thoải mái tranh luận ,lý luận bao giờ.chỉ toàn lý thuyết và rập khuôn..","can_remove":false,"created_time":"2013-09-14T11:17:55+0000","like_count":0,"user_likes":false},"720308041319209":{"id":"720308041319209","from":{"id":"100005801442456","name":"An Nguyen"},"message":"http://m.youtube.com/watch?v=C9BKVBBpQ74 clip giới thiệu nè,để coi có chỗ nào up k","can_remove":false,"created_time":"2013-09-14T11:23:14+0000","like_count":0,"user_likes":false},"720309214652425":{"id":"720309214652425","from":{"id":"100005801442456","name":"An Nguyen"},"message":"Quả thật biệt danh An google thật k sai.hê hê. Đây links coi online đây: http://moviedougakan.blog.fc2.com/blog-entry-301.html up đi ẹc-min.","can_remove":false,"created_time":"2013-09-14T11:27:34+0000","like_count":0,"user_likes":false},"720309561319057":{"id":"720309561319057","from":{"id":"100001458099624","name":"Kham Pha"},"message":"sao việc gì cứ đùn admin thế, xây dựng cộng đồng thì mọi người phải tự giác chứ.","can_remove":false,"created_time":"2013-09-14T11:28:55+0000","like_count":0,"user_likes":false},"720310407985639":{"id":"720310407985639","from":{"id":"100005801442456","name":"An Nguyen"},"message":"Đang đi làm ... Trời ới!","can_remove":false,"created_time":"2013-09-14T11:32:14+0000","like_count":0,"user_likes":false}},"paging":{"cursors":{"after":"NzE5OTM5MjgxMzU2MDg1","before":"NzE5OTM5MjgxMzU2MDg1"},"next":"https://graph.facebook.com/229244010425617_719932168023463/comments?limit=1&summary=1&after=NzE5OTM5MjgxMzU2MDg1"},"summary":{"order":"chronological","total_count":11}}}