{"id":"229244010425617_720332281316785","type":"photo","object_id":"576624032396195","picture":"https://fbcdn-photos-e-a.akamaihd.net/hphotos-ak-ash3/t1.0-0/1236256_576624032396195_371411138_s.jpg","link":"https://www.facebook.com/photo.php?fbid=576624032396195&set=gm.720332281316785&type=1&relevant_count=1","from":{"id":"100001458099624","name":"Kham Pha"},"message":"Đang giới thiệu về đàn cổ truyền Việt thì gặp đúng bài \"Bèo dạt mây trôi\". Hứng lên giải thích cho cô bạn người Nhật lời bài hát. Các bạn xem thử có ổn ko?\n\nこの曲はすべてある女性の彼氏への思いですよ。歌い出しは日本語に翻訳したら、ひつじ雲が静に揺れて、「べオ」という諸物が水に流されて、私は君をずっとずっと待ってるよていう歌詞ですよ。なぜひつじ雲と流されたべオが入ってるかというと、それは時間が経つにつれて、なんでも変わってきたというイメージです。それでも、私はずっとずっと君を待っているという思いはいいでしょ？\n\nTạm dịch\nKhúc nhạc này là tấm lòng của một cô gái gửi chàng trai. Đoạn đầu nếu dịch sang tiếng Nhật là \"Bèo dạt mây trôi, chốn xa xôi em vẫn đợi vẫn chờ.\" Tại sao mà hình ảnh mây trôi vào bèo dạt lại xuất hiện ấy là vì nó tượng trưng cho việc thời gian thay đổi mọi vật cũng thay đổi theo. Dù vậy thì em vẫn luôn chờ anh chẳng phải là ý nghĩa sao?\n\n--> Lúc ở đấy nghĩ rồi nói chắc ko chuẩn lắm đâu. Nhưng đại khái là thế.","created_time":"2013-09-14T12:42:24+0000","updated_time":"2013-09-15T04:03:22+0000","likes":{"data":{"100000045271667":{"id":"100000045271667","name":"Nam Thai Nguyen"},"100000027754899":{"id":"100000027754899","name":"Hoang Van Ba"},"100004916406283":{"id":"100004916406283","name":"Hoa Nguyễn"},"100004123327271":{"id":"100004123327271","name":"Nguyễn Phương"},"1821970083":{"id":"1821970083","name":"Nguyễn Mạnh Cường"},"100003702043787":{"id":"100003702043787","name":"Hằng Hanu"},"100003165554056":{"id":"100003165554056","name":"Sâu Bét"},"1717530880":{"id":"1717530880","name":"Triệu Việt Cường"},"100001062202744":{"id":"100001062202744","name":"Hoang Garu"},"100000249832456":{"id":"100000249832456","name":"Dung Genie"},"100000195299558":{"id":"100000195299558","name":"Giọt Sương Sớm Mai"},"100005389234209":{"id":"100005389234209","name":"Cỏ Dại"},"100005043309731":{"id":"100005043309731","name":"Mario Nguyễn"},"100004293973335":{"id":"100004293973335","name":"Nga Ngố"},"100000250256418":{"id":"100000250256418","name":"Nguyen Viet Anh"},"100003599920499":{"id":"100003599920499","name":"ふゆ はな"},"100005904728319":{"id":"100005904728319","name":"Duong BiBi Ka"},"100004460525997":{"id":"100004460525997","name":"Hà Trang Nguyễn"},"100002594112476":{"id":"100002594112476","name":"Thiên Di"},"100003055356509":{"id":"100003055356509","name":"Thuan Nguyen"}},"paging":{"cursors":{"after":"MTAwMDAwMDQ1MjcxNjY3","before":"MTAwMDAwMDQ1MjcxNjY3"},"next":"https://graph.facebook.com/229244010425617_720332281316785/likes?limit=1&summary=1&after=MTAwMDAwMDQ1MjcxNjY3"},"summary":{"total_count":21}},"comments":{"data":{"720344214648925":{"id":"720344214648925","from":{"id":"100000250256418","name":"Nguyen Viet Anh"},"message":"Dịch sang tiếng Việt hay vãi. =)))","can_remove":false,"created_time":"2013-09-14T13:12:21+0000","like_count":1,"user_likes":false},"720364384646908":{"id":"720364384646908","from":{"id":"100001416272263","name":"Mai PB"},"message":"Có động lực mà.","can_remove":false,"created_time":"2013-09-14T13:54:56+0000","like_count":0,"user_likes":false},"720417097974970":{"id":"720417097974970","from":{"id":"1717530880","name":"Triệu Việt Cường"},"message":"(Y)","can_remove":false,"created_time":"2013-09-14T15:41:35+0000","like_count":0,"user_likes":false},"720586281291385":{"id":"720586281291385","from":{"id":"1108328257","name":"Kenji Le"},"message":"日本語が上手くなったね。\n(^.^)","can_remove":false,"created_time":"2013-09-14T21:10:13+0000","like_count":1,"user_likes":false},"720679924615354":{"id":"720679924615354","from":{"id":"100001458099624","name":"Kham Pha"},"message":"Mai PB ý gì vậy anh? :D","message_tags":[{"id":"100001416272263","name":"Mai PB","type":"user","offset":0,"length":6}],"can_remove":false,"created_time":"2013-09-15T02:04:42+0000","like_count":0,"user_likes":false},"720706061279407":{"id":"720706061279407","from":{"id":"100000027754899","name":"Hoang Van Ba"},"message":"Ko tồi","can_remove":false,"created_time":"2013-09-15T03:26:04+0000","like_count":0,"user_likes":false},"720706684612678":{"id":"720706684612678","from":{"id":"100002508122689","name":"Vũ Mạnh Tuấn"},"message":"anh Mai PB bảo anh Kham Pha có động lực dịch bài hát vì người yêu cầu dịch là gái :)))","message_tags":[{"id":"100001416272263","name":"Mai PB","type":"user","offset":4,"length":6},{"id":"100001458099624","name":"Kham Pha","type":"user","offset":19,"length":8}],"can_remove":false,"created_time":"2013-09-15T03:28:26+0000","like_count":1,"user_likes":false},"720716281278385":{"id":"720716281278385","from":{"id":"100001458099624","name":"Kham Pha"},"message":"cũng có lý :))","can_remove":false,"created_time":"2013-09-15T04:03:22+0000","like_count":0,"user_likes":false}},"paging":{"cursors":{"after":"NzIwMzQ0MjE0NjQ4OTI1","before":"NzIwMzQ0MjE0NjQ4OTI1"},"next":"https://graph.facebook.com/229244010425617_720332281316785/comments?limit=1&summary=1&after=NzIwMzQ0MjE0NjQ4OTI1"},"summary":{"order":"chronological","total_count":8}}}