{"id":"229244010425617_720310047985675","type":"video","object_id":"576608692397729","picture":"https://fbcdn-vthumb-a.akamaihd.net/hvthumb-ak-ash3/t15.0-10/1096783_576612192397379_576608692397729_36580_1826_t.jpg","link":"https://scontent-a.xx.fbcdn.net/hvideo-frc3/v/t42.1790-2/1243433_576612082397390_1874994748_n.mp4?oh=814924e96314728217dabd177835c911&oe=53500F42","source":"https://scontent-a.xx.fbcdn.net/hvideo-frc3/v/t42.1790-2/1243433_576612082397390_1874994748_n.mp4?oh=814924e96314728217dabd177835c911&oe=53500F42","from":{"id":"100001458099624","name":"Kham Pha"},"message":"Anh chàng người Nhật này tên là Nam thì phải. Hát rap song ngữ nhé :))\n\n-----------------------------\nMọi người có bắt được khoảnh khắc gì đặc biệt đặc biệt \ntrong lễ hội ngày hôm nay muốn chia sẻ tới group không?","created_time":"2013-09-14T11:30:41+0000","updated_time":"2013-09-14T17:43:12+0000","likes":{"data":{"100005287571414":{"id":"100005287571414","name":"Gia Thoại Lưu"},"100000195299558":{"id":"100000195299558","name":"Giọt Sương Sớm Mai"},"100004460525997":{"id":"100004460525997","name":"Hà Trang Nguyễn"},"100000052661831":{"id":"100000052661831","name":"Shuntoku Pham"},"100001062202744":{"id":"100001062202744","name":"Hoang Garu"},"100000381394367":{"id":"100000381394367","name":"Thành Nguyễn"},"100003888576324":{"id":"100003888576324","name":"Nguyen Quan"},"1821970083":{"id":"1821970083","name":"Nguyễn Mạnh Cường"},"100005982402082":{"id":"100005982402082","name":"Hcm Ilu"},"100000473889720":{"id":"100000473889720","name":"Ngọc Trung"},"100002959594535":{"id":"100002959594535","name":"Nguyen Ngoc Anh"},"100000250256418":{"id":"100000250256418","name":"Nguyen Viet Anh"},"100002508122689":{"id":"100002508122689","name":"Vũ Mạnh Tuấn"},"100001260645727":{"id":"100001260645727","name":"Ngo Duy Son"}},"paging":{"cursors":{"after":"MTAwMDA1Mjg3NTcxNDE0","before":"MTAwMDA1Mjg3NTcxNDE0"},"next":"https://graph.facebook.com/229244010425617_720310047985675/likes?limit=1&summary=1&after=MTAwMDA1Mjg3NTcxNDE0"},"summary":{"total_count":14}},"comments":{"data":{"720310731318940":{"id":"720310731318940","from":{"id":"100002508122689","name":"Vũ Mạnh Tuấn"},"message":"nghe anh này đọc rap hay thật :))","can_remove":false,"created_time":"2013-09-14T11:33:46+0000","like_count":0,"user_likes":false},"720311204652226":{"id":"720311204652226","from":{"id":"100001260645727","name":"Ngo Duy Son"},"message":"Gioi qua!","can_remove":false,"created_time":"2013-09-14T11:35:42+0000","like_count":0,"user_likes":false},"720312004652146":{"id":"720312004652146","from":{"id":"100000250256418","name":"Nguyen Viet Anh"},"message":"Kham Pha người Nhật tên là Nam? Biệt danh à?","message_tags":[{"id":"100001458099624","name":"Kham Pha","type":"user","offset":0,"length":8}],"can_remove":false,"created_time":"2013-09-14T11:38:30+0000","like_count":0,"user_likes":false},"720312121318801":{"id":"720312121318801","from":{"id":"100001458099624","name":"Kham Pha"},"message":"đoạn sau chả có đọc 1 đoạn dài tên tiếng Việt đấ ythôi.","can_remove":false,"created_time":"2013-09-14T11:39:23+0000","like_count":0,"user_likes":false},"720312321318781":{"id":"720312321318781","from":{"id":"100000250256418","name":"Nguyen Viet Anh"},"message":"Hóa ra người lai.","can_remove":false,"created_time":"2013-09-14T11:40:20+0000","like_count":0,"user_likes":false},"720319687984711":{"id":"720319687984711","from":{"id":"100001448993206","name":"Takahashi Ryunoshikei Takahashi"},"message":"đu tài dzậy..","can_remove":false,"created_time":"2013-09-14T12:02:22+0000","like_count":0,"user_likes":false},"720326897983990":{"id":"720326897983990","from":{"id":"1821970083","name":"Nguyễn Mạnh Cường"},"message":"nghe vui tai nhỉ? T ôi là ai.. hê, tôi là.. xin chao... Hoài Nam, .. :))","can_remove":false,"created_time":"2013-09-14T12:26:28+0000","like_count":0,"user_likes":false},"720327041317309":{"id":"720327041317309","from":{"id":"1821970083","name":"Nguyễn Mạnh Cường"},"message":"=))","can_remove":false,"created_time":"2013-09-14T12:26:53+0000","like_count":0,"user_likes":false},"720394611310552":{"id":"720394611310552","from":{"id":"100001062202744","name":"Hoang Garu"},"message":"lần đầu tiên nghe rap Nhật :)) ko khác gì Thái Lan cho lắm =)) sr nhé","can_remove":false,"created_time":"2013-09-14T14:54:33+0000","like_count":0,"user_likes":false},"720467951303218":{"id":"720467951303218","from":{"id":"100004460525997","name":"Hà Trang Nguyễn"},"message":"hay thật I <3 Việt Nam  and I <3 Japan","can_remove":false,"created_time":"2013-09-14T17:43:12+0000","like_count":0,"user_likes":false}},"paging":{"cursors":{"after":"NzIwMzEwNzMxMzE4OTQw","before":"NzIwMzEwNzMxMzE4OTQw"},"next":"https://graph.facebook.com/229244010425617_720310047985675/comments?limit=1&summary=1&after=NzIwMzEwNzMxMzE4OTQw"},"summary":{"order":"chronological","total_count":10}}}