{"id":"229244010425617_720886561261357","type":"photo","object_id":"161988030671244","picture":"https://fbcdn-photos-c-a.akamaihd.net/hphotos-ak-ash3/t1.0-0/1239947_161988030671244_2008344898_s.jpg","link":"https://www.facebook.com/photo.php?fbid=161988030671244&set=gm.720886561261357&type=1&relevant_count=1","from":{"id":"100005801442456","name":"An Nguyen"},"message":"Bộ phim: ブタがいた教室(tạm dịch : lớp học có 1 con heo )\r\nThể loại : tâm lý xã hội\r\nNăm :2008( Liên hoan phim Quốc tế Nhật bản)\r\nNội dụng: Bộ phim xoay quanh 1 giáo viên trẻ đầy nhiệt huyết muốn mang lại tụi nhỏ tiểu học sắp tốt nghiệp 1 phương pháp giáo dục mới ,nên 1 ngày nọ a ấy mang 1 chú heo con tới lớp và đưa ra 1 đề tài rằng : sẽ nuôi chú heo ấy ( p ちゃん)đến lớn và sau đó cả lớp sẽ quyết định chú heo ấy sẽ thế nào.\r\nA- sẽ mang đến lò mổ thịt chú heo ấy vì đằng nào nó cũng chỉ là 1 con heo\r\nB-sẽ chăm sóc nó mãi vì nuôi nấng sẽ để lại tỉnh cảm nên k thể giết hại.\r\nBộ phim coi chừng k mấy hấp dẫn. Nhưng các tình tiết và hơn nữa là sự tranh luận của những đứa trẻ làm người xem phải bất ngờ.bản thân mình xem phim này vô cùng ... Cảm thấy nhột nhột xấu hổ thế nào vì bản thân trước giờ chưa thể như tụi trẻ con Nhật có thể thảo luận 1 cách vô cùng sòng phẳng với nhau: lắng nghe -> suy nghĩ -> và lại suy nghĩ -> và cuối cùng mới trả lời .khj bạn xem phim có lẽ bạn sẽ hiểu phần nào Nhật luôn đc coi là đất nước làm việc nhóm tốt nhất.\r\nCó những câu nói của tụi trẻ mà người lớn chúng ta phải ngẫm nghĩ thật lâu.và có 1 cô bé đã nói thế này : \" P ちゃんsinh ra là để người khác quyết định số phận sao\".ngẫm đi thì trong cuộc sống chúng ta đôi lúc cũng như chú heo ấy k thể làm chủ định mệnh của chính mình ,và có khj chúng ta lại tự mang nó đi cho người khác và lại oán trách về nó! Bạn có cảm\r\nThấy mình từng như thế? Phải chăng csong khó khăn của bạn đang ở Nhật cũng chính là do bạn để cho ai đó quyết định số phận mình ? Hãy xem Bộ phim này nhé !\r\n\r\nhttp://moviedougakan.blog.fc2.com/blog-entry-301.html","created_time":"2013-09-15T09:37:35+0000","updated_time":"2013-09-16T01:36:48+0000","likes":{"data":{"100004016574848":{"id":"100004016574848","name":"Tùng Thật Thà"},"100001754136107":{"id":"100001754136107","name":"Nguyễn Tuấn Vũ"},"100001954728699":{"id":"100001954728699","name":"Shinpei Morigami"},"100003216142531":{"id":"100003216142531","name":"Dudu Tròn"},"100005982402082":{"id":"100005982402082","name":"Hcm Ilu"},"100000971222044":{"id":"100000971222044","name":"Nhoc' Satoshi"},"100001638306972":{"id":"100001638306972","name":"Lê Thường"},"100000101180940":{"id":"100000101180940","name":"Trà Chanh"},"100004028173069":{"id":"100004028173069","name":"Jin Ngốc"},"100002508122689":{"id":"100002508122689","name":"Vũ Mạnh Tuấn"},"100006650553201":{"id":"100006650553201","name":"Nhóc Maruko"},"100003171274010":{"id":"100003171274010","name":"Nguyen Yen"},"100006626797935":{"id":"100006626797935","name":"私 はにほんをあいしている"},"100002676859353":{"id":"100002676859353","name":"Chu Quang Viên"},"100003230638578":{"id":"100003230638578","name":"VO Quyen"},"100000020988042":{"id":"100000020988042","name":"Viet Huong Nguyen"},"100003837141956":{"id":"100003837141956","name":"Mai Hoàng"},"100002290906582":{"id":"100002290906582","name":"Kanashimi No Yukue"},"100001416272263":{"id":"100001416272263","name":"Mai PB"},"100006329763157":{"id":"100006329763157","name":"Một Mình Không Sao"},"100001458099624":{"id":"100001458099624","name":"Kham Pha"},"1122379216":{"id":"1122379216","name":"Hà Ngô"}},"paging":{"cursors":{"after":"MTAwMDA0MDE2NTc0ODQ4","before":"MTAwMDA0MDE2NTc0ODQ4"},"next":"https://graph.facebook.com/229244010425617_720886561261357/likes?limit=1&summary=1&after=MTAwMDA0MDE2NTc0ODQ4"},"summary":{"total_count":24}},"comments":{"data":{"720897624593584":{"id":"720897624593584","from":{"id":"1122379216","name":"Hà Ngô"},"message":"Tiếng mình còn kém chưa xem đc phim nhật. Ko bít có phụ đề Việt ko nhỉ","can_remove":false,"created_time":"2013-09-15T09:40:20+0000","like_count":0,"user_likes":false},"720905617926118":{"id":"720905617926118","from":{"id":"100005801442456","name":"An Nguyen"},"message":"Coi đi ,không khó đâu,mà phải có khó thì mới có dễ chứ.k đc nữa ... Thì xem hình .hehe","can_remove":false,"created_time":"2013-09-15T09:44:03+0000","like_count":0,"user_likes":false},"720907234592623":{"id":"720907234592623","from":{"id":"100001458099624","name":"Kham Pha"},"message":"Cảm ơn bạn đã chia sẻ, nhìn con lợn buồn cười quá :))\nVai thầy giáo do diễn viên cũng đóng trong phim \"Nước mắt tuôn rơi\" đã giới thiệu trong group. \nhttps://www.facebook.com/groups/CongdongVietNhat/permalink/707412565942090/","can_remove":false,"created_time":"2013-09-15T09:49:51+0000","like_count":0,"user_likes":false},"720952144588132":{"id":"720952144588132","from":{"id":"100002724611926","name":"To Bee"},"message":"Sao to ko xem dc nhỉ","can_remove":false,"created_time":"2013-09-15T11:45:37+0000","like_count":0,"user_likes":false},"720999777916702":{"id":"720999777916702","from":{"id":"100001531816305","name":"Mẫn Nghi"},"message":"có link trang web không vaz bạn An Nguyen","message_tags":[{"id":"100005801442456","name":"An Nguyen","type":"user","offset":32,"length":9}],"can_remove":false,"created_time":"2013-09-15T12:56:20+0000","like_count":0,"user_likes":false},"721061774577169":{"id":"721061774577169","from":{"id":"100005801442456","name":"An Nguyen"},"message":"Link nằm dưới cùng đó bạn,mình xem đc mà.hi","can_remove":false,"created_time":"2013-09-15T14:00:53+0000","like_count":0,"user_likes":false},"721063144577032":{"id":"721063144577032","from":{"id":"100000006686516","name":"Hạnh Anh"},"message":"rảnh qá:))","can_remove":false,"created_time":"2013-09-15T14:02:35+0000","like_count":0,"user_likes":false},"721073654575981":{"id":"721073654575981","from":{"id":"100001458099624","name":"Kham Pha"},"message":"Hạnh Anh chia sẻ với mọi người có gì mà bạn nói \"rảnh quá\"?","message_tags":[{"id":"100000006686516","name":"Hạnh Anh","type":"user","offset":0,"length":8}],"can_remove":false,"created_time":"2013-09-15T14:28:16+0000","like_count":1,"user_likes":false},"721076471242366":{"id":"721076471242366","from":{"id":"100005801442456","name":"An Nguyen"},"message":"À ,lợn nhà e đó mà a.=]] quân tâm làm j.hehe","can_remove":false,"created_time":"2013-09-15T14:35:23+0000","like_count":0,"user_likes":false},"721078177908862":{"id":"721078177908862","from":{"id":"100005801442456","name":"An Nguyen"},"message":"Khám phá coi phim okuribito chưa ? Bữa nào Bình phẩm thể loại oscar đó nhỉ?","can_remove":false,"created_time":"2013-09-15T14:39:42+0000","like_count":0,"user_likes":false},"721101784573168":{"id":"721101784573168","from":{"id":"100001458099624","name":"Kham Pha"},"message":"Chưa, nhưng đạt Oscar cơ ah?","can_remove":false,"created_time":"2013-09-15T15:37:28+0000","like_count":0,"user_likes":false},"721114431238570":{"id":"721114431238570","from":{"id":"100005801442456","name":"An Nguyen"},"message":"Uh.đoạt giải thể loại phim nước ngoài hay nhất.phim oscar thường nó cứ thể loại Bác học thế nào ấy.nhưng công nhận xem phim ấy nó nhiều ý nghĩa nhân Văn thật.nhất là về tình mẫu tử.giống Văn hoá Việt mình.xem xog chả hiểu sao khóc ?!?","can_remove":false,"created_time":"2013-09-15T16:06:50+0000","like_count":0,"user_likes":false},"721117174571629":{"id":"721117174571629","from":{"id":"100000198892785","name":"Mạnh Phi"},"message":"Không phải là phim con heo >_<","can_remove":false,"created_time":"2013-09-15T16:13:01+0000","like_count":0,"user_likes":false},"721412257875454":{"id":"721412257875454","from":{"id":"100001458099624","name":"Kham Pha"},"message":"hay vậy thì ko xem ko được rồi :D","can_remove":false,"created_time":"2013-09-16T01:36:48+0000","like_count":0,"user_likes":false}},"paging":{"cursors":{"after":"NzIwODk3NjI0NTkzNTg0","before":"NzIwODk3NjI0NTkzNTg0"},"next":"https://graph.facebook.com/229244010425617_720886561261357/comments?limit=1&summary=1&after=NzIwODk3NjI0NTkzNTg0"},"summary":{"order":"chronological","total_count":14}}}