{"id":"229244010425617_720954834587863","type":"status","from":{"id":"100003629530970","name":"Hoa Thiên Điểu"},"message":"Xin chào các mọi ngườị !mình rất thích nước nhật,nên quyết tâm học tiếng Nhật, mình không biết nên học như thế nào mới có hiệu quả tốt nhất?\n Mong mọi người chỉ bảo giùm mình cách tự học như thế nào tốt nhất ak?\nCảm ơn mọi người!","created_time":"2013-09-15T11:55:51+0000","updated_time":"2013-09-15T13:45:22+0000","likes":{"data":{"100002776762279":{"id":"100002776762279","name":"Đỗ Công Được"},"100001458099624":{"id":"100001458099624","name":"Kham Pha"},"100004479997015":{"id":"100004479997015","name":"Nguyễn Quốc Nam"},"100004137517626":{"id":"100004137517626","name":"Cường Man"},"100003179905990":{"id":"100003179905990","name":"Trâm Yoko"}},"paging":{"cursors":{"after":"MTAwMDAyNzc2NzYyMjc5","before":"MTAwMDAyNzc2NzYyMjc5"},"next":"https://graph.facebook.com/229244010425617_720954834587863/likes?limit=1&summary=1&after=MTAwMDAyNzc2NzYyMjc5"},"summary":{"total_count":5}},"comments":{"data":{"720958967920783":{"id":"720958967920783","from":{"id":"100000064686295","name":"Huy Roli"},"message":"Mỗi ngày học viết 10 chữ kanji, khi nào thuộc 1000 chữ thì đc lên level mới sẽ có hướng dẫn mới nhé","can_remove":false,"created_time":"2013-09-15T12:09:48+0000","like_count":0,"user_likes":false},"720959117920768":{"id":"720959117920768","from":{"id":"100000064686295","name":"Huy Roli"},"message":"Học cách viết và học nghĩa hán việt của chữ kanji đó","can_remove":false,"created_time":"2013-09-15T12:10:33+0000","like_count":0,"user_likes":false},"720959224587424":{"id":"720959224587424","from":{"id":"100003069824169","name":"Quang Lê"},"message":"Ban hok het 50 bai cua giao trinh tieng nhat di nhat la dk con hok thj cAn cu bu thong mjnh.quan trong nhat la hoc thuok","can_remove":false,"created_time":"2013-09-15T12:11:06+0000","like_count":0,"user_likes":false},"720968777919802":{"id":"720968777919802","from":{"id":"100003629530970","name":"Hoa Thiên Điểu"},"message":"umk, thanks mọi người nhá! nhưng trên mạng có trang nào dậy đầy đủ ko nhỉ?","can_remove":false,"created_time":"2013-09-15T12:39:53+0000","like_count":0,"user_likes":false},"721029294580417":{"id":"721029294580417","from":{"id":"100003069824169","name":"Quang Lê"},"message":"Dang ky hok o trung tam nao do bn ak","can_remove":false,"created_time":"2013-09-15T13:08:08+0000","like_count":0,"user_likes":false},"721040737912606":{"id":"721040737912606","from":{"id":"100001416272263","name":"Mai PB"},"message":"Hoa Thiên Điểu vào đây, chọn 1 khóa học online trong phần \"Tự học theo course\", học thử trong 1 tháng xem sao. Nếu thấy được thì ra ngoài đăng ký lớp học. https://www.facebook.com/groups/CongdongVietNhat/doc/687429284607085/","message_tags":[{"id":"100003629530970","name":"Hoa Thiên Điểu","type":"user","offset":0,"length":14}],"can_remove":false,"created_time":"2013-09-15T13:32:47+0000","like_count":1,"user_likes":false},"721048641245149":{"id":"721048641245149","from":{"id":"100003629530970","name":"Hoa Thiên Điểu"},"message":"oh, cảm ơn Mai PB nhé!","message_tags":[{"id":"100001416272263","name":"Mai PB","type":"user","offset":11,"length":6}],"can_remove":false,"created_time":"2013-09-15T13:45:22+0000","like_count":0,"user_likes":false}},"paging":{"cursors":{"after":"NzIwOTU4OTY3OTIwNzgz","before":"NzIwOTU4OTY3OTIwNzgz"},"next":"https://graph.facebook.com/229244010425617_720954834587863/comments?limit=1&summary=1&after=NzIwOTU4OTY3OTIwNzgz"},"summary":{"order":"chronological","total_count":7}}}