{"id":"229244010425617_720968214586525","type":"status","from":{"id":"100006663365866","name":"Yoshi Taka"},"message":"SỰ THẬT  \"Du học - Tự túc. Nguồn nhân lực chiến lược cho Tỉnh Bắc Giang\"\n     Sự thật này đã khiến rất nhiều người trong đó có bản thân tôi muốn nói ra. Bởi không phải xuất phát từ GATO mà chính từ lương tâm của những con người với nhau, chính xác là hai chữ quê hương, sẽ có rất nhiều các a, c, e đằng sau tôi sẽ mắc phải điều này.\n    Tôi và rất nhiều người cùng suy nghĩ liệu có nên nói ra hay không. Và hôm nay sẽ nói bởi nó liên quan đến tương lai của cả một thế hệ, kinh tế của không biết bao gia đình.\n        Đây là suy nghĩ của một cá nhân,tâm lý của cả cộng đồng du học. nếu ai có ý kiến phản biện trái chiều thì đừng trách bởi vì nó là suy nghĩ chủ quan.\n Có rất nhiều anh chị em đang cùng tâm trạng của chúng tôi bây giờ, sinh ra trong thời buổi khó khăn khốn đốn vì việc làm, có người vừa rời ghế nhà trường cấp 3, có người đã tốt nghiệp ĐH, CĐ...đang ở trạng thái lơ lửng của sự nghiệp thì được chính người thân, họ hàng (làm du học) của mình lôi kéo theo con đường (du học, vừa học vừa làm). Xét cho đến cùng, thì lỗi vẫn thuộc về chúng tôi bởi chúng tôi phải là người xác minh thông tin và lựa chọn con đường. nhưng những thứ mà chúng tôi thấy quá sốc khi đặt chân đến nước Nhật phát triển như lời công ty du học (Đường Hoàng văn Thụ- Bắc Giang) quảng cáo. Dù có lường trước nhiều thứ, tính đến tình huống xấu nhất nhưng mà vẫn ngoài dự đoán của mọi người.\n        Vẫn biết rằng cuộc sống khắc nghiệt sẽ dạy cho chúng ta nhiều thứ. Nhưng cái giá mà hàng trăm gia đình, tương lai của cả thế hệ phải trả nó quá đắt. tuổi trẻ, kinh tế, niềm tin, hi vọng sẽ bị đẩy lùi về thời đồ đá.\nKhi đứng trước chiến lược marketing, lời ong bướm của cán bộ du học đẳng cấp thì có hàng trăm gia đình nghe và bị cuốn theo và lựa chọn du học nhật bản. Nhưng có ai biết  về con đường mà họ nói ra những viễn cảnh như người trong cuộc nói ra, tốt đẹp hào nhoáng.\n          Sau 6 tháng học tiếng nhật có người giỏi thì được N5 thực sự còn đa phần là hữu danh vô thực đã khoác vali đi du học như ai, trong khi để du học được tốt sinh viên ngoại ngữ mất 4 năm mới có thể đáp ứng được yêu cầu. trước chiến thuật của Công ty du học đó tất cả các phụ huynh, học sinh hào hứng lắm,họ đâu biết gì cả chuỗi tháng ngày bĩ cực, tủi nhục khi sống trên nước nhật này. mỗi gia đình  để giúp ước vọng, vì tương lai của con em mình sẵn sàng đầu tư, vay chạy, cắm bìa đỏ chạy tiền cho con đi. Nhưng sang đến đây mới vỡ lẽ ra nhiều thứ vốn tiếng hạn chế, nhiều dịch vụ quá mức, những lời xa hoa, hứa hẹn nay mất tích\" các bạn và gia đình yên tâm sang đó  sẽ được nhà trường giới thiệu việc làm, có khó khăn gì công ty giúp đỡ hết mình\" nhưng họ biết hay cố tình không biết với vốn tiếng N5 như công ty đã tạo dựng niềm tin cho họ có thể xin được việc không hay mỗi người phải mất 8 triệu tiền việt để xin được việc làm. xin được việc rồi đi làm từ 7 h tối đến 9h sáng hôm sau mới về trong đó mất 4 tiếng đi tàu, cơm niêu nước lọ. không được ngủ và chuẩn bị đến trường,lao lực kéo dài từ ngày này sang ngày khác, cuộc sống khác gì đi tù. đó là những bạn may mắn có việc cầm cự đó. Còn hàng loạt các bạn khác cứ loay hoay phỏng vấn lại trượt, số tiền ít ỏi mang đi cứ kiệt dần. \n               Đó là hạn chế thứ nhất, tiếp theo lôi kéo bằng mọi cách để thu hút được nguồn để du học , biết rằng để đi học gia đình phải có tiền kinh tế thuộc tầm cực khá trở lên. Đằng này họ vẽ ra con đường vay ngân hàng cho các gia đình để mỗi tháng bây giờ phải chịu 3 triệu tiền lãi. Sang nhật đã không có việc nuôi mồm chẳng xong lại còn suy nghĩ tiền lãi ở nhà sao đây huống chi là gốc khi nào mới trả được. nỗi lo cứ kéo dài ai qua nhật không gầy đi 3 -4kg mới là điều khác thường. \n           Kết quả nhận được thì sao hỡi nguồn nhân lực chất lượng cao. sau khi sang nhật mất 6 tháng chưa thể ổn định được cuộc sống ai cũng phải loay hoay mưu sinh để tồn tại. rảnh đi làm để có tiền đóng học ngủ còn không được ngủ huống chi là học. Nếu ai không tin thì cứ hỏi thực tế các bạn đang đi có ai học được không. hay thời gian lên lớp là ngủ và mộng du. kết quả sau thời gian học tiếng này là gì? ai nhanh nhẹn thông minh may mắn có N3 phải nói là nỗ lực lắm, thực tế các trường tiếng nhật dựng lên treo đầu dê bán thịt chó dạy có ra cái hồn gì đâu. mục đích thu tiền là chính. mọi sẽ hình dung được phần nào cái kết rồi. tiếng không tốt làm sao có thể học lên trên.\n        Thêm nữa, học phí trương tiếng  khoảng 150 tr/ năm thì học phí các trường trung cấp đại học, cao học cao hơn  khoảng 200 triệu/ năm thử hỏi ai có thể theo học được. viễn cảnh quá xa vời phải không.\n        Vậy, mấu chốt vấn đề nằm ở đâu chắc chắn nằm ở chúng tôi, chúng tôi không xác định hệ quả, vậy nên lựa chọn du học nhật cho nên phải chịu. Nhưng nguyên nhân sâu xa nằm ở đâu chính là công ty du học họ vẽ ra một bức tranh muôn màu mà không có thực. Kinh doanh ai cũng phải thừa nhận phải có lợi nhuận nhưng mà nó phải dựa trên giá trị thực tế và giá trị của hàng hoá. huống chi hàng hoá là con người phải đảm bảo có tính chiến lược và tính thực tế cao. phải khẳng định du học tự túc nhật bản về cơ bản là lỗi cả hệ thống, bị lợi nhuận che mắt, lòng tham lấn lướt cho nên trong mắt bạn bè quốc tế du học sinh việt nam ở nhật bản là nỗi niềm kinh khủng. \nThế mà trước dư luận xã hội, trước chính quyền Bắc Giang họ vỗ ngực thừa nhận \"chúng tôi tự hào những người tiên phong đào tạo, mang nguồn nhân lực chất lượng cao về xây dựng quê  hương\". Thực tế cho thấy hệ thống nhân lực này đang có dấu hiệu sụp đổ, nhìn thấy sự đổ vỡ trong đó. Thực tế mà nói chưa có một chế tài nào, phương pháp nào kiểm định được lỗ hổng này cho nên là cơ hội cho công ty du học lợi dụng. Nhà lãnh đạo của tỉnh đâu biết thực tế nguồn nhân lực đó bên này nên nhiệt tình ủng hộ. Nhưng vấn đề tai hại hơn khi đối tượng của công ty du học không chỉ là các anh chị tốt nghiệp đại học cao đẳng mà là các em học sinh cấp 3. tư vấn, lôi kéo \" băng bài toán buồn cười \"dù có Đh ở Việt nam các e cũng không xin được việc mà mất tiền, tại sao không lựa chọn du học nhật vừa có thể trang trải học hành mà còn để ra gửi về cho gia đình băng 3-4 đời làm công chức ở Việt Nam\"  y nguyên lời của phó tổng giám đốc đó. Nhưng có ai thấu được cảnh đói khổ bên này, cảnh bố mẹ vay chạy trả lãi lờ không. Đành rằng kinh doanh phải có lợi nhuận nhưng phải đi kèm đạo đức người kinh doanh thì nó mới bền và dài. Chứ kiểu kinh doanh \"KHỞI ĐẦU TỪ NIỀM TIN\" mà \"KHÔNG CÓ THỰC\" thì liệu có bị người đời nhắc nhở đến muôn đời không? lương tâm có bị rằn vặt không?","created_time":"2013-09-15T12:38:47+0000","updated_time":"2013-09-16T01:27:20+0000","likes":{"data":{"100003697539923":{"id":"100003697539923","name":"Minh Thắng"},"100002941298439":{"id":"100002941298439","name":"Nhat Nguyen"},"100003925443381":{"id":"100003925443381","name":"Minh Thọ Ngô"},"100002849008610":{"id":"100002849008610","name":"Nguyễn Phương Hùng"},"100001458099624":{"id":"100001458099624","name":"Kham Pha"},"100003702043787":{"id":"100003702043787","name":"Hằng Hanu"},"100000096928751":{"id":"100000096928751","name":"Lê Linh"},"100002526707690":{"id":"100002526707690","name":"Phan Toan"},"100000042138129":{"id":"100000042138129","name":"Duong David"},"100003667126955":{"id":"100003667126955","name":"Thúy An"},"100001754136107":{"id":"100001754136107","name":"Nguyễn Tuấn Vũ"},"100001043265886":{"id":"100001043265886","name":"Nguyen Huy Thach"},"100001416272263":{"id":"100001416272263","name":"Mai PB"},"745565751":{"id":"745565751","name":"Tuyen Hoang Thi"}},"paging":{"cursors":{"after":"MTAwMDAzNjk3NTM5OTIz","before":"MTAwMDAzNjk3NTM5OTIz"},"next":"https://graph.facebook.com/229244010425617_720968214586525/likes?limit=1&summary=1&after=MTAwMDAzNjk3NTM5OTIz"},"summary":{"total_count":14}},"comments":{"data":{"721028771247136":{"id":"721028771247136","from":{"id":"100003634822576","name":"Jessica Lam Phuong"},"message":"Hay cảm ơn và chửi vào bọn chỉ biết đến lợi nhuận mà bất chấp mọi thứ","can_remove":false,"created_time":"2013-09-15T13:06:57+0000","like_count":1,"user_likes":false},"721050854578261":{"id":"721050854578261","from":{"id":"745565751","name":"Tuyen Hoang Thi"},"message":"Bạn là học viên của cty tư vấn du học đó ?\n Bạn đã sang Nhật ?\n Theo mình đoán bạn sang hồi tháng 4/2013.\n đọc đc bài này khiến mình Hoang Mang Style đấy bạn ạk :(","can_remove":false,"created_time":"2013-09-15T13:48:01+0000","like_count":1,"user_likes":false},"721052564578090":{"id":"721052564578090","from":{"id":"100006663365866","name":"Yoshi Taka"},"message":"Uh, mình chỉ có ý chia sẻ cho những người có ý định đi biết để lựa chọn vùng cho phù hợp thôi.","can_remove":false,"created_time":"2013-09-15T13:49:37+0000","like_count":0,"user_likes":false},"721076811242332":{"id":"721076811242332","from":{"id":"100001458099624","name":"Kham Pha"},"message":"Tuấn Đặng Bài viết quá hay, mình đã mong chờ một bài viết thế này từ những người có kinh nghiệm thực tế. Nếu sửa các lỗi chính tả và sắp xếp cách trình bày có thể lên báo được đấy. Không biết bạn đã nghĩ đến chưa. \nThành Nguyễn anh có bạn bè gì bên báo chí có thể giúp được không?","message_tags":[{"id":"100006663365866","name":"Tuấn Đặng","type":"user","offset":0,"length":9},{"id":"100000381394367","name":"Thành Nguyễn","type":"user","offset":215,"length":12}],"can_remove":false,"created_time":"2013-09-15T14:36:15+0000","like_count":1,"user_likes":false},"721078831242130":{"id":"721078831242130","from":{"id":"100001458099624","name":"Kham Pha"},"message":"Trước tiên cần lưu bài này vào mục Trải nghiệm cuộc sống Nhật trong group đã. Bạn Tuấn Đặng có thể làm được ko? \nCopy link của bài này ở chỗ chỉ thời gian \"2 hours via mobile\" và cập nhật vào note ghi link trên đầu group :)","message_tags":[{"id":"100006663365866","name":"Tuấn Đặng","type":"user","offset":82,"length":9}],"can_remove":false,"created_time":"2013-09-15T14:41:35+0000","like_count":2,"user_likes":false},"721084077908272":{"id":"721084077908272","from":{"id":"100001754136107","name":"Nguyễn Tuấn Vũ"},"message":"Làm thế về sau ng ta ko có phúc","can_remove":false,"created_time":"2013-09-15T14:57:29+0000","like_count":0,"user_likes":false},"721110477905632":{"id":"721110477905632","from":{"id":"100000381394367","name":"Thành Nguyễn"},"message":"Bài viết này phản ánh rất đúng thực trạng hiện nay của các công ty du học tự túc, họ vẽ vời ra rất nhiều viễn cảnh tươi sáng nhưng thực tế chỉ đem con bỏ chợ. Mình nghĩ các bạn chỉ nên đi theo con đường này khi có người thực sự tin cậy đã đi trước chỉ bảo cho đường đi nước bước ( cũng có các công ty uy tín nhưng số này khong nhiều ) rồi hoặc gia đình khá giả có đủ tiềm lực tài chính để trang trải cho những chi phí cho việc ăn học, nếu không thì tương lai sẽ chỉ là những chuỗi ngày bi ai. Đã gửi mail cho vnexpress rồi, ko biết họ có đăng ko.","can_remove":false,"created_time":"2013-09-15T15:57:09+0000","like_count":2,"user_likes":false},"721156751234338":{"id":"721156751234338","from":{"id":"100006663365866","name":"Yoshi Taka"},"message":"Mình viết bài này hơi vội nên chưa kịp chỉnh sửa gì. Cảm ơn sự chia sẻ của mọi người. Hãy đưa thông tin này đến những người cần biết giúp mình. Cảm ơn.","can_remove":false,"created_time":"2013-09-15T17:46:41+0000","like_count":1,"user_likes":false},"721157901234223":{"id":"721157901234223","from":{"id":"100006663365866","name":"Yoshi Taka"},"message":"Mình vẫn giữ bản mềm nếu cần bạn cứ pm mình gửi cho Kham Pha nhé","can_remove":false,"created_time":"2013-09-15T17:49:52+0000","like_count":0,"user_likes":false},"721408491209164":{"id":"721408491209164","from":{"id":"100001535653711","name":"Nguyen Huy Son"},"message":"Mình sang Nhật theo visa đi làm của chồng. Mình sống 2 năm ở Fukuoka, và hiện đang sống đc gần 1 năm ở Hiroshima. Cả 2 nơi mình đều có cơ hội làm việc chung với các em du học sinh tự túc. Và thực sự tất cả những điều bài viết nói hoàn toàn đúng với những điều mình nghe, nhìn và cảm nhận được từ cuộc sống của du học sinh tự túc bên Nhật.","can_remove":false,"created_time":"2013-09-16T01:26:52+0000","like_count":2,"user_likes":false},"721408987875781":{"id":"721408987875781","from":{"id":"100001535653711","name":"Nguyen Huy Son"},"message":"Bài viết rất hay và rất đúng với những gì mình cũng muốn nói.","can_remove":false,"created_time":"2013-09-16T01:27:20+0000","like_count":1,"user_likes":false}},"paging":{"cursors":{"after":"NzIxMDI4NzcxMjQ3MTM2","before":"NzIxMDI4NzcxMjQ3MTM2"},"next":"https://graph.facebook.com/229244010425617_720968214586525/comments?limit=1&summary=1&after=NzIxMDI4NzcxMjQ3MTM2"},"summary":{"order":"chronological","total_count":11}}}