{"id":"229244010425617_721871617829518","type":"status","from":{"id":"100001727857917","name":"Bui Duyen"},"message":"「どっちの道を選ぶかじゃなくて選んだ道でどう生きるかが大事だと思います。」\n\n“Điều quan trọng không phải là chọn con đường nào mà là sống thế nào trên con đường đã chọn.”\n\n小雪","created_time":"2013-09-16T14:57:39+0000","updated_time":"2013-09-17T05:59:07+0000","likes":{"data":{"745565751":{"id":"745565751","name":"Tuyen Hoang Thi"},"100001954728699":{"id":"100001954728699","name":"Shinpei Morigami"},"100004478832761":{"id":"100004478832761","name":"Thiên Trang"},"100001584153352":{"id":"100001584153352","name":"Snow Kute"},"1845000884":{"id":"1845000884","name":"Trieu Thi Kieu Oanh"},"100003011417151":{"id":"100003011417151","name":"Hue Kim"},"100003216142531":{"id":"100003216142531","name":"Dudu Tròn"},"100004123327271":{"id":"100004123327271","name":"Nguyễn Phương"},"100001864479440":{"id":"100001864479440","name":"Nguyễn Minh Tuyến"},"100002816124387":{"id":"100002816124387","name":"Ngọc Nguyễn"},"100003102655084":{"id":"100003102655084","name":"Cô Gái Xứ Dừa"},"100001113783887":{"id":"100001113783887","name":"Tien Pham"},"100002327743510":{"id":"100002327743510","name":"Tuan Thanh"},"100004251847599":{"id":"100004251847599","name":"Yuki Yuki"},"100004460525997":{"id":"100004460525997","name":"Hà Trang Nguyễn"},"100004965272241":{"id":"100004965272241","name":"Cỏ Nhỏ"},"100003669292626":{"id":"100003669292626","name":"Nhok Xinh"},"100003629530970":{"id":"100003629530970","name":"Hoa Thiên Điểu"},"100001104538854":{"id":"100001104538854","name":"Gia Trịnh"},"1308881663":{"id":"1308881663","name":"Nguyễn Đình Lộc"},"100004046108560":{"id":"100004046108560","name":"MiSo Cochunho"},"100002883266700":{"id":"100002883266700","name":"Hương Thảo"},"100003702043787":{"id":"100003702043787","name":"Hằng Hanu"},"100001810450026":{"id":"100001810450026","name":"Nguyễn Đức Phú"},"100001789054977":{"id":"100001789054977","name":"Ginga Idō Shi"},"100005235669327":{"id":"100005235669327","name":"Diep Tran"},"100000187856584":{"id":"100000187856584","name":"Linh Hachi"},"100002676859353":{"id":"100002676859353","name":"Chu Quang Viên"},"100004138804778":{"id":"100004138804778","name":"Booxing Chan"},"1617323109":{"id":"1617323109","name":"Phuong Thao"},"100003055356509":{"id":"100003055356509","name":"Thuan Nguyen"},"100000280776405":{"id":"100000280776405","name":"Viet Nguyen Thanh"},"100001416272263":{"id":"100001416272263","name":"Mai PB"},"100000020988042":{"id":"100000020988042","name":"Viet Huong Nguyen"},"100001458099624":{"id":"100001458099624","name":"Kham Pha"},"100003007563291":{"id":"100003007563291","name":"Đào Trần"},"100003019923910":{"id":"100003019923910","name":"Luân Pig"},"100001603388890":{"id":"100001603388890","name":"Ken Ayunpa"},"100001791497926":{"id":"100001791497926","name":"Summer Rain"},"100003631860637":{"id":"100003631860637","name":"Meaningof Thelife"},"100003084870026":{"id":"100003084870026","name":"Nguyễn Hiền"},"100001754136107":{"id":"100001754136107","name":"Nguyễn Tuấn Vũ"}},"paging":{"cursors":{"after":"NzQ1NTY1NzUx","before":"NzQ1NTY1NzUx"},"next":"https://graph.facebook.com/229244010425617_721871617829518/likes?limit=1&summary=1&after=NzQ1NTY1NzUx"},"summary":{"total_count":43}},"comments":{"data":{"721879601162053":{"id":"721879601162053","from":{"id":"100001727857917","name":"Bui Duyen"},"message":"日本であり、ベトナムであり、どこに住むとしても、元気良く、自分なりで頑張って有意義な人生を送るべしと思うんだ。君の人生は君のものだから.","can_remove":false,"created_time":"2013-09-16T15:14:32+0000","like_count":6,"user_likes":false},"721881684495178":{"id":"721881684495178","from":{"id":"100001727857917","name":"Bui Duyen"},"message":"Câu này dành riêng cho các bạn đã, đang và sẽ đi du học:). Nhất là những ai đang có muộn phiền về cuộc sống, tiền nong, học hành, thi cử...Cuộc sống ở Nhật thực sự có nhiều cái rất khó khăn, nhất là với du học sinh.Có người đã thất bại nhưng không ít người đã trưởng thành và thu được những điều vô giá ở xứ Phù Tang này. Được hay mất là do bản thân thôi. Thất bại sẽ chả là gì nếu bạn nhận ra bản thân m lớn lên sau mỗi lần như thế.  Thật đấy. ファイト. Đừng bỏ cuộc nhé. いままで頑張ったことが絶対無駄にならないと信じて","can_remove":false,"created_time":"2013-09-16T15:20:12+0000","like_count":11,"user_likes":false},"721882767828403":{"id":"721882767828403","from":{"id":"100001416272263","name":"Mai PB"},"message":"Cho mình sửa chút nhé. であり -> であれ、自分なりで -> 自分なりに","can_remove":false,"created_time":"2013-09-16T15:22:25+0000","like_count":3,"user_likes":false},"721888484494498":{"id":"721888484494498","from":{"id":"100001727857917","name":"Bui Duyen"},"message":"Mai PB: nhanh quá à nha:)) e cố tình đấy :v","message_tags":[{"id":"100001416272263","name":"Mai PB","type":"user","offset":0,"length":6}],"can_remove":false,"created_time":"2013-09-16T15:31:20+0000","like_count":0,"user_likes":false},"721890184494328":{"id":"721890184494328","from":{"id":"100001416272263","name":"Mai PB"},"message":"thế thì để anh xóa nhé? :-)","can_remove":false,"created_time":"2013-09-16T15:35:50+0000","like_count":0,"user_likes":false},"721893947827285":{"id":"721893947827285","from":{"id":"100001727857917","name":"Bui Duyen"},"message":":D lí do đấy. a sửa  đúng mà^^\nđể đấy cùng học N1 luôn ak","can_remove":false,"created_time":"2013-09-16T15:45:16+0000","like_count":2,"user_likes":false},"722191137797566":{"id":"722191137797566","from":{"id":"100001458099624","name":"Kham Pha"},"message":"Bui Duyen em sắp thành triết gia tới nơi rồi đó.  :))\nCố gắng phát huy, anh thích cách nghĩ của em :)","message_tags":[{"id":"100001727857917","name":"Bui Duyen","type":"user","offset":0,"length":9}],"can_remove":false,"created_time":"2013-09-17T00:37:57+0000","like_count":0,"user_likes":false},"722290887787591":{"id":"722290887787591","from":{"id":"1845000884","name":"Trieu Thi Kieu Oanh"},"message":"=)) e thick a Mai PB rùi đóa","message_tags":[{"id":"100001416272263","name":"Mai PB","type":"user","offset":14,"length":6}],"can_remove":false,"created_time":"2013-09-17T05:59:07+0000","like_count":0,"user_likes":false}},"paging":{"cursors":{"after":"NzIxODc5NjAxMTYyMDUz","before":"NzIxODc5NjAxMTYyMDUz"},"next":"https://graph.facebook.com/229244010425617_721871617829518/comments?limit=1&summary=1&after=NzIxODc5NjAxMTYyMDUz"},"summary":{"order":"chronological","total_count":8}}}