{"id":"229244010425617_722339304449416","type":"status","from":{"id":"100004030436081","name":"Thi Chu"},"message":"Các anh ,chị cho em hỏi có ạ đi du học hay đi lao động theo diện bảo lãnh chưa ak.chị chồng của chị gái em là ng nhật h muốn bảo lãnh cho em sang thì làm thế nào ak.anh ,chj nào đi rui chỉ giúp em với ak.","created_time":"2013-09-17T08:06:04+0000","updated_time":"2013-09-18T09:53:20+0000","likes":{"data":{"100004217528783":{"id":"100004217528783","name":"Meow Rapper"},"100004016574848":{"id":"100004016574848","name":"Tùng Thật Thà"},"100002071129468":{"id":"100002071129468","name":"Phạm Hà Hiệp"}},"paging":{"cursors":{"after":"MTAwMDA0MjE3NTI4Nzgz","before":"MTAwMDA0MjE3NTI4Nzgz"},"next":"https://graph.facebook.com/229244010425617_722339304449416/likes?limit=1&summary=1&after=MTAwMDA0MjE3NTI4Nzgz"},"summary":{"total_count":3}},"comments":{"data":{"722339367782743":{"id":"722339367782743","from":{"id":"100002071129468","name":"Phạm Hà Hiệp"},"message":"o.O","can_remove":false,"created_time":"2013-09-17T08:06:36+0000","like_count":0,"user_likes":false},"722436941106319":{"id":"722436941106319","from":{"id":"100001580479641","name":"Hà Xuân Thủy"},"message":"Chưa có kiểu đi như bạn nói đâu nhé.","can_remove":false,"created_time":"2013-09-17T11:27:35+0000","like_count":0,"user_likes":false},"722525184430828":{"id":"722525184430828","from":{"id":"1693102459","name":"Châu Hoàng"},"message":"hình như bạn vẫn đi kiểu du học hay lao động như các bạn khác, nhưng mỗi việc là k phải lo nhà ở, và có người thân ở bên kia rồi thì việc xét visa dễ dàng hơn các bạn tự túc thì phải :)","can_remove":false,"created_time":"2013-09-17T12:23:07+0000","like_count":0,"user_likes":false},"722557211094292":{"id":"722557211094292","from":{"id":"100004030436081","name":"Thi Chu"},"message":"Minh dinh di du hoc theo dien bao lanh ma kop hieu lam .","can_remove":false,"created_time":"2013-09-17T13:30:33+0000","like_count":0,"user_likes":false},"722557977760882":{"id":"722557977760882","from":{"id":"1693102459","name":"Châu Hoàng"},"message":"thế \"diện bảo lãnh\" theo ý bạn nghĩa là gì :) vì bạn mình cũng có người đi theo kiểu có người quen ở bên đấy rồi giờ sang du học, nên mình share với bạn thế :)","can_remove":false,"created_time":"2013-09-17T13:32:28+0000","like_count":0,"user_likes":false},"722559057760774":{"id":"722559057760774","from":{"id":"100004030436081","name":"Thi Chu"},"message":"Minh chi biet di theo cong ty va co ng wen bao lanh.nhung thu tuc the nao thi minh ko hieu.ban giup minh voi","can_remove":false,"created_time":"2013-09-17T13:36:18+0000","like_count":0,"user_likes":false},"722559781094035":{"id":"722559781094035","from":{"id":"1693102459","name":"Châu Hoàng"},"message":"thế bạn hỏi các Trung tâm du học thử :)","can_remove":false,"created_time":"2013-09-17T13:37:44+0000","like_count":0,"user_likes":false},"722560474427299":{"id":"722560474427299","from":{"id":"100004030436081","name":"Thi Chu"},"message":"Hoi qua trung tam du hoc ho khuyen minh di theo cong ty cho yen tam ay thui","can_remove":false,"created_time":"2013-09-17T13:39:18+0000","like_count":0,"user_likes":false},"722571921092821":{"id":"722571921092821","from":{"id":"100001754136107","name":"Nguyễn Tuấn Vũ"},"message":"Tức là ko phai mất tiền gì cả. Bên nhật làm thủ tục xong, bạn đc cấp visa rồi, thì bạn chỉ việc mua vé máy bay sang thôi","can_remove":false,"created_time":"2013-09-17T14:05:49+0000","like_count":0,"user_likes":false},"722574024425944":{"id":"722574024425944","from":{"id":"100004030436081","name":"Thi Chu"},"message":"Don gian the thui ak anh","can_remove":false,"created_time":"2013-09-17T14:11:24+0000","like_count":0,"user_likes":false},"722574411092572":{"id":"722574411092572","from":{"id":"100004030436081","name":"Thi Chu"},"message":"Tim trg hoc thi nho ng Nhat lam ho dc ak","can_remove":false,"created_time":"2013-09-17T14:12:11+0000","like_count":0,"user_likes":false},"722576117759068":{"id":"722576117759068","from":{"id":"100001754136107","name":"Nguyễn Tuấn Vũ"},"message":"Bạn sang nhật rồi thì vào trường nào thì làm hồ sơ trương đó, đóng học phí như bọn mình bên này. VD bên này 1 năm la 50 man thì bạn chỉ phải đóng thế thôi","can_remove":false,"created_time":"2013-09-17T14:15:14+0000","like_count":0,"user_likes":false},"722578834425463":{"id":"722578834425463","from":{"id":"100004030436081","name":"Thi Chu"},"message":"Ko pai tim truong tu Viet nam ak. Nhug ng Nhat nay se pai lam nhug j de bao lanh.minh sang dc ak .em ko biet j ve thu tuc nay.mong aanh chi giup do","can_remove":false,"created_time":"2013-09-17T14:19:57+0000","like_count":0,"user_likes":false},"722580777758602":{"id":"722580777758602","from":{"id":"100001754136107","name":"Nguyễn Tuấn Vũ"},"message":"Cái này thì ng bên nhật làm bạn ak","can_remove":false,"created_time":"2013-09-17T14:25:24+0000","like_count":0,"user_likes":false},"722582177758462":{"id":"722582177758462","from":{"id":"100004030436081","name":"Thi Chu"},"message":"Hix.ng nay chua lam thu tuc nay bjo ko biet co biet lam sao day","can_remove":false,"created_time":"2013-09-17T14:28:50+0000","like_count":0,"user_likes":false},"722582401091773":{"id":"722582401091773","from":{"id":"100004030436081","name":"Thi Chu"},"message":"Anh co biet o Viet nam cho nao co the giup minh ve nhung vde nay ko.ak.","can_remove":false,"created_time":"2013-09-17T14:29:38+0000","like_count":0,"user_likes":false},"722582537758426":{"id":"722582537758426","from":{"id":"100001754136107","name":"Nguyễn Tuấn Vũ"},"message":"Ng nhật hả bạn?","can_remove":false,"created_time":"2013-09-17T14:29:55+0000","like_count":0,"user_likes":false},"722582701091743":{"id":"722582701091743","from":{"id":"100001754136107","name":"Nguyễn Tuấn Vũ"},"message":"Bạn ra đại sứ quán nhật","can_remove":false,"created_time":"2013-09-17T14:30:15+0000","like_count":0,"user_likes":false},"722582717758408":{"id":"722582717758408","from":{"id":"100004030436081","name":"Thi Chu"},"message":"Vang ak","can_remove":false,"created_time":"2013-09-17T14:30:19+0000","like_count":0,"user_likes":false},"722582941091719":{"id":"722582941091719","from":{"id":"100001416272263","name":"Mai PB"},"message":"Người Nhật đó chỉ bảo lãnh cho bạn được 2 thứ: (1) bảo lãnh tài chính; (2) là người liên lạc ở Nhật khi cần thiết. Chưa chắc người Nhật đã chịu bảo lãnh cho bạn mục (1) nên bạn phải hỏi lại đi. Nếu họ đồng ý thì họ sẽ phải nộp các giấy tờ cần thiết để chứng minh tài sản của mình, ví dụ người làm cty thì (1) giấy chứng nhận nộp thuế và (2) giấy chứng nhận đang làm việc ở cty nào đó. Ngoài ra họ tìm trường cho bạn hay không lại là việc khác. Tìm trường rồi thì họ sẽ cung cấp danh sách giấy tờ chuẩn bị, trong đó có giấy tờ bảo lãnh, cứ thế mà chuẩn bị. Không phải thông qua công ty du học nào cả.","can_remove":false,"created_time":"2013-09-17T14:30:58+0000","like_count":1,"user_likes":false},"722583581091655":{"id":"722583581091655","from":{"id":"100001416272263","name":"Mai PB"},"message":"À viết thêm là mình nói trường trên là trường tiếng Nhật đấy nhé. Như bạn hôm qua đã viết là có N3 rồi thì có thể cân nhắc thi luôn vào ĐH, thì phải thi đỗ mới có tính đến chuyện bảo lãnh này nọ.","can_remove":false,"created_time":"2013-09-17T14:32:52+0000","like_count":1,"user_likes":false},"722583594424987":{"id":"722583594424987","from":{"id":"100004030436081","name":"Thi Chu"},"message":"Vang cam on anh nhieu nhieu ak","can_remove":false,"created_time":"2013-09-17T14:32:53+0000","like_count":0,"user_likes":false},"722584977758182":{"id":"722584977758182","from":{"id":"100004030436081","name":"Thi Chu"},"message":"Em hoc chuyen nghanh tieng anh.nhug em muon qua Nhat de hoc chuyen tieng Nhat ak.thi lam the nao ak","can_remove":false,"created_time":"2013-09-17T14:36:18+0000","like_count":0,"user_likes":false},"722973811052632":{"id":"722973811052632","from":{"id":"100000232957215","name":"Minh Quyen Pham"},"message":"Thi Chu, e có IELTS 4.5 trở lên chưa? Nếu có rui thì có học bổng toàn phần đấy em à","can_remove":false,"created_time":"2013-09-18T06:01:03+0000","like_count":1,"user_likes":false},"723052974378049":{"id":"723052974378049","from":{"id":"100001769773733","name":"Ngọc Sugoi"},"message":"Minh Quyen Pham  anh nói cụ thể hơn chút được k ạ","message_tags":[{"id":"100000232957215","name":"Minh Quyen Pham","type":"user","offset":0,"length":15}],"can_remove":false,"created_time":"2013-09-18T08:30:14+0000","like_count":0,"user_likes":false},"723053937711286":{"id":"723053937711286","from":{"id":"100000232957215","name":"Minh Quyen Pham"},"message":"à, nhưng ko phải đi Nhat học mà là đi Hàn Quốc học em à. Học bổng toàn phần của trường DH tổng hợp Seoul .","can_remove":false,"created_time":"2013-09-18T08:32:52+0000","like_count":0,"user_likes":false},"723054674377879":{"id":"723054674377879","from":{"id":"100001769773733","name":"Ngọc Sugoi"},"message":"ôi, hàn thì em k biết gì, ielts thì giờ chắc 5.5, cảm ơn anh","can_remove":false,"created_time":"2013-09-18T08:35:45+0000","like_count":0,"user_likes":false},"723054941044519":{"id":"723054941044519","from":{"id":"100000232957215","name":"Minh Quyen Pham"},"message":"neu da co IELTS 5.5 thi di du hoc tu tuc JP lam gi em !","can_remove":false,"created_time":"2013-09-18T08:36:41+0000","like_count":0,"user_likes":false},"723055437711136":{"id":"723055437711136","from":{"id":"100001769773733","name":"Ngọc Sugoi"},"message":"ơ, e không hiểu lắm","can_remove":false,"created_time":"2013-09-18T08:38:06+0000","like_count":0,"user_likes":false},"723071994376147":{"id":"723071994376147","from":{"id":"100004030436081","name":"Thi Chu"},"message":"Em muon di sang do hoc chuyen tieng Nhat.ma ng bao lanh cho minh dc may nam ak.","can_remove":false,"created_time":"2013-09-18T09:46:58+0000","like_count":0,"user_likes":false},"723073907709289":{"id":"723073907709289","from":{"id":"100000232957215","name":"Minh Quyen Pham"},"message":"thế này nhé, bảo lãnh đc bao nhieu năm thì phụ thuộc vào người bảo lãnh, em phải nói chuyện với họ rõ ràng, vì họ phải là người chuyển tien nop học phi cho em hàng năm . Hơn nua đó chỉ là 1 phần nhỏ của xin visa du học tự túc .Inbox chi hoac call chi : 0934560386, vào buổi tối OK nhưng truoc 10h, sau 8h tối  nhe vì chị bận con nhỏ . Chị sẽ hướng dẫn em cách nói chuyện với ngf bảo lãnh cho rõ ràng .","can_remove":false,"created_time":"2013-09-18T09:51:38+0000","like_count":0,"user_likes":false},"723075231042490":{"id":"723075231042490","from":{"id":"100004030436081","name":"Thi Chu"},"message":"Vâng ak.em cam on chị","can_remove":false,"created_time":"2013-09-18T09:53:20+0000","like_count":0,"user_likes":false}},"paging":{"cursors":{"after":"NzIyMzM5MzY3NzgyNzQz","before":"NzIyMzM5MzY3NzgyNzQz"},"next":"https://graph.facebook.com/229244010425617_722339304449416/comments?limit=1&summary=1&after=NzIyMzM5MzY3NzgyNzQz"},"summary":{"order":"chronological","total_count":32}}}