{"id":"229244010425617_722555464427800","type":"status","from":{"id":"100003927345049","name":"Bùi Liên"},"message":"mọi người cho em hỏi cài phông chữ tiếng nhật làm sao để gõ chữ nhật với ạ","created_time":"2013-09-17T13:25:07+0000","updated_time":"2013-09-18T08:29:53+0000","likes":{"data":{"100004217528783":{"id":"100004217528783","name":"Meow Rapper"},"100003320012955":{"id":"100003320012955","name":"Ông Dâm Pụt"},"100000111767260":{"id":"100000111767260","name":"Shiori Shiomiya"},"100004461005204":{"id":"100004461005204","name":"San Shain"}},"paging":{"cursors":{"after":"MTAwMDA0MjE3NTI4Nzgz","before":"MTAwMDA0MjE3NTI4Nzgz"},"next":"https://graph.facebook.com/229244010425617_722555464427800/likes?limit=1&summary=1&after=MTAwMDA0MjE3NTI4Nzgz"},"summary":{"total_count":4}},"comments":{"data":{"722559697760710":{"id":"722559697760710","from":{"id":"100003084870026","name":"Nguyễn Hiền"},"message":"de go chu nhat ban chon bieu tuong JP sau do chu A de chon cach viet hiragana hoac katakana","can_remove":false,"created_time":"2013-09-17T13:37:36+0000","like_count":0,"user_likes":false},"722560424427304":{"id":"722560424427304","from":{"id":"100003927345049","name":"Bùi Liên"},"message":"gõ chữ A ?///","can_remove":false,"created_time":"2013-09-17T13:39:09+0000","like_count":0,"user_likes":false},"722560637760616":{"id":"722560637760616","from":{"id":"100003927345049","name":"Bùi Liên"},"message":"mình không hiểu lắm. :( chọn biểu tượng JP rồi nhưng vẫn gõ tiếng việt bình thường","can_remove":false,"created_time":"2013-09-17T13:39:50+0000","like_count":0,"user_likes":false},"722560661093947":{"id":"722560661093947","from":{"id":"100003927345049","name":"Bùi Liên"},"message":"@@","can_remove":false,"created_time":"2013-09-17T13:39:54+0000","like_count":0,"user_likes":false},"722560811093932":{"id":"722560811093932","from":{"id":"100003084870026","name":"Nguyễn Hiền"},"message":"ko phai go chu A ma ban kich vao chu A no se hien ra cac lua chon cah viet chu ma","can_remove":false,"created_time":"2013-09-17T13:40:25+0000","like_count":0,"user_likes":false},"722564567760223":{"id":"722564567760223","from":{"id":"100003927345049","name":"Bùi Liên"},"message":"chữ A ở đâu á...:(","can_remove":false,"created_time":"2013-09-17T13:46:18+0000","like_count":0,"user_likes":false},"722564794426867":{"id":"722564794426867","from":{"id":"100003084870026","name":"Nguyễn Hiền"},"message":"vay chac ban cai phong chu nhat khong du roi","can_remove":false,"created_time":"2013-09-17T13:46:54+0000","like_count":0,"user_likes":false},"722566457760034":{"id":"722566457760034","from":{"id":"100003084870026","name":"Nguyễn Hiền"},"message":"ban xem nhu the nay ne","can_remove":false,"created_time":"2013-09-17T13:50:23+0000","like_count":1,"user_likes":false},"722568357759844":{"id":"722568357759844","from":{"id":"100003927345049","name":"Bùi Liên"},"message":"hix","can_remove":false,"created_time":"2013-09-17T13:55:36+0000","like_count":0,"user_likes":false},"722568431093170":{"id":"722568431093170","from":{"id":"100003927345049","name":"Bùi Liên"},"message":"của mình pont nó không có hiện như thế","can_remove":false,"created_time":"2013-09-17T13:55:47+0000","like_count":0,"user_likes":false},"722568531093160":{"id":"722568531093160","from":{"id":"100003927345049","name":"Bùi Liên"},"message":"ấn vào chọn JP mà vẫn là pont bình thường á","can_remove":false,"created_time":"2013-09-17T13:56:07+0000","like_count":0,"user_likes":false},"722568721093141":{"id":"722568721093141","from":{"id":"100003084870026","name":"Nguyễn Hiền"},"message":"ban tu cai fong hay la ai cai","can_remove":false,"created_time":"2013-09-17T13:56:41+0000","like_count":0,"user_likes":false},"722569097759770":{"id":"722569097759770","from":{"id":"100003927345049","name":"Bùi Liên"},"message":"người ta cài cho t","can_remove":false,"created_time":"2013-09-17T13:57:49+0000","like_count":0,"user_likes":false},"722569177759762":{"id":"722569177759762","from":{"id":"100003927345049","name":"Bùi Liên"},"message":"chả biết dùng thế nào cả","can_remove":false,"created_time":"2013-09-17T13:58:00+0000","like_count":0,"user_likes":false},"722569411093072":{"id":"722569411093072","from":{"id":"100003084870026","name":"Nguyễn Hiền"},"message":"ban co the mo word va chup anh man hinh lai minh  xem the nao dc ko","can_remove":false,"created_time":"2013-09-17T13:58:49+0000","like_count":0,"user_likes":false},"722570527759627":{"id":"722570527759627","from":{"id":"100003084870026","name":"Nguyễn Hiền"},"message":"hoac ban len google go cach cai font tieng nhat va  lam theo cung de hieu lam","can_remove":false,"created_time":"2013-09-17T14:02:11+0000","like_count":1,"user_likes":false},"722570531092960":{"id":"722570531092960","from":{"id":"100003927345049","name":"Bùi Liên"},"message":"còn chẳng biết chụp hình màn hình ý :D","can_remove":false,"created_time":"2013-09-17T14:02:12+0000","like_count":0,"user_likes":false},"722570741092939":{"id":"722570741092939","from":{"id":"100003927345049","name":"Bùi Liên"},"message":"ok/ để t lên coi thứ","can_remove":false,"created_time":"2013-09-17T14:02:41+0000","like_count":0,"user_likes":false},"722570947759585":{"id":"722570947759585","from":{"id":"100003084870026","name":"Nguyễn Hiền"},"message":"ctrl+printscr sau do mo paint ra dan vao va luu lai la ok","can_remove":false,"created_time":"2013-09-17T14:03:20+0000","like_count":1,"user_likes":false},"722574467759233":{"id":"722574467759233","from":{"id":"100003927345049","name":"Bùi Liên"},"message":"どもありがとう","can_remove":false,"created_time":"2013-09-17T14:12:20+0000","like_count":1,"user_likes":false},"722574497759230":{"id":"722574497759230","from":{"id":"100003927345049","name":"Bùi Liên"},"message":"：））","can_remove":false,"created_time":"2013-09-17T14:12:24+0000","like_count":0,"user_likes":false},"722872417729438":{"id":"722872417729438","from":{"id":"100005597975596","name":"Lang Tu Thieu Toan"},"message":"minh cung dang tim hieu giong ban ne","can_remove":false,"created_time":"2013-09-18T00:31:23+0000","like_count":0,"user_likes":false},"722872474396099":{"id":"722872474396099","from":{"id":"100005597975596","name":"Lang Tu Thieu Toan"},"message":"neu ban da biet thi chi cho minh voi nha","can_remove":false,"created_time":"2013-09-18T00:31:35+0000","like_count":0,"user_likes":false},"722873374396009":{"id":"722873374396009","from":{"id":"100000091042517","name":"Nguyễn Minh Thành"},"message":"download phần mềm NJStar về dùng cho nhanh bạn ah","can_remove":false,"created_time":"2013-09-18T00:34:45+0000","like_count":0,"user_likes":false},"723018294381517":{"id":"723018294381517","from":{"id":"100005597975596","name":"Lang Tu Thieu Toan"},"message":"minh ko bit downloand","can_remove":false,"created_time":"2013-09-18T06:38:48+0000","like_count":0,"user_likes":false},"723018664381480":{"id":"723018664381480","from":{"id":"100005597975596","name":"Lang Tu Thieu Toan"},"message":"ban  co the chi cho minh bit duoc ko Hien Nguyen","message_tags":[{"id":"100003084870026","name":"Hien Nguyen","type":"user","offset":37,"length":11}],"can_remove":false,"created_time":"2013-09-18T06:39:26+0000","like_count":0,"user_likes":false},"723021201047893":{"id":"723021201047893","from":{"id":"100003084870026","name":"Nguyễn Hiền"},"message":"the ban muon hoi cai gi ?","can_remove":false,"created_time":"2013-09-18T06:48:47+0000","like_count":0,"user_likes":false},"723026927713987":{"id":"723026927713987","from":{"id":"100006315220914","name":"Sakura Sakura"},"message":"may nao cug taj dc het hak ban ? chj mjh vs.","can_remove":false,"created_time":"2013-09-18T07:11:32+0000","like_count":0,"user_likes":false},"723030101047003":{"id":"723030101047003","from":{"id":"100003084870026","name":"Nguyễn Hiền"},"message":"win 7 co phong chu tieng tieng nhat nen ko can tai chi het","can_remove":false,"created_time":"2013-09-18T07:16:51+0000","like_count":0,"user_likes":false},"723037524379594":{"id":"723037524379594","from":{"id":"100006315220914","name":"Sakura Sakura"},"message":"mjh mun hoj la lam sao taj phan mem chu caj tjeg nhat len dt oh pan ?","can_remove":false,"created_time":"2013-09-18T07:34:14+0000","like_count":0,"user_likes":false},"723039011046112":{"id":"723039011046112","from":{"id":"100000091042517","name":"Nguyễn Minh Thành"},"message":"https://www.facebook.com/download/620427657996010/JML.NJStar.Com.v3.0.rar","can_remove":false,"created_time":"2013-09-18T07:39:41+0000","like_count":0,"user_likes":false},"723052864378060":{"id":"723052864378060","from":{"id":"100005597975596","name":"Lang Tu Thieu Toan"},"message":"may minh moi mua coi3 ram4kb co cai duoc phong tieng nhat ko ban","can_remove":false,"created_time":"2013-09-18T08:29:53+0000","like_count":0,"user_likes":false}},"paging":{"cursors":{"after":"NzIyNTU5Njk3NzYwNzEw","before":"NzIyNTU5Njk3NzYwNzEw"},"next":"https://graph.facebook.com/229244010425617_722555464427800/comments?limit=1&summary=1&after=NzIyNTU5Njk3NzYwNzEw"},"summary":{"order":"chronological","total_count":32}}}