{"id":"229244010425617_722873191062694","type":"status","from":{"id":"100005801442456","name":"An Nguyen"},"message":"人間死に方は選べないが、生き方は自由だろ。\n\nBạn không thể chọn cách mình chết nhưng có thể sống tự do.\n\n２０歳だろうが８０歳だろうが、とにかく学ぶことをやめてしまったものは老人である。 学び続ける者は、みな若い。人生において一番大切なこと は、頭を若く保つことだ。\nDù ở tuổi 20 hay 80 đi nữa ,việc từ bỏ con đường học tập có nghĩa bạn đã già,và tiếp tục con đường học tập nghĩa là bạn vẫn là người trẻ .và đối với con người điều quan trọng là giúp  cho bạn là \" 1 người trẻ \".","created_time":"2013-09-18T00:33:45+0000","updated_time":"2013-09-18T02:17:33+0000","likes":{"data":{"100001584153352":{"id":"100001584153352","name":"Snow Kute"},"100006625652258":{"id":"100006625652258","name":"Du Học Nhật Bản"},"100006471014750":{"id":"100006471014750","name":"Nga Bếu"},"100003216142531":{"id":"100003216142531","name":"Dudu Tròn"},"100002470650247":{"id":"100002470650247","name":"LinhLinh Chan"},"100000027754899":{"id":"100000027754899","name":"Hoang Van Ba"},"1031841670":{"id":"1031841670","name":"Ngọc Trâm"},"718011337":{"id":"718011337","name":"Quynh Quyt"},"100001114549932":{"id":"100001114549932","name":"Bui Thanh Hung"},"100000922232765":{"id":"100000922232765","name":"Ca Duoi"},"100002327743510":{"id":"100002327743510","name":"Tuan Thanh"},"100003837141956":{"id":"100003837141956","name":"Mai Hoàng"},"100001954728699":{"id":"100001954728699","name":"Shinpei Morigami"},"1289154577":{"id":"1289154577","name":"Chuyen Tien Sbi Remit"},"100003320012955":{"id":"100003320012955","name":"Ông Dâm Pụt"},"100004094346107":{"id":"100004094346107","name":"Thuy Nga Nguyen"},"100004140850631":{"id":"100004140850631","name":"Huong Trang"},"100001627822638":{"id":"100001627822638","name":"Duong Lam"},"100003631860637":{"id":"100003631860637","name":"Meaningof Thelife"},"100001727857917":{"id":"100001727857917","name":"Bui Duyen"},"100004088753245":{"id":"100004088753245","name":"Leu Huu Hien"},"100001458099624":{"id":"100001458099624","name":"Kham Pha"},"100001416272263":{"id":"100001416272263","name":"Mai PB"},"100000284487802":{"id":"100000284487802","name":"Buu Lam Gia"},"100002917553472":{"id":"100002917553472","name":"Emi Chan"},"100002508122689":{"id":"100002508122689","name":"Vũ Mạnh Tuấn"},"100006329763157":{"id":"100006329763157","name":"Một Mình Không Sao"}},"paging":{"cursors":{"after":"MTAwMDAxNTg0MTUzMzUy","before":"MTAwMDAxNTg0MTUzMzUy"},"next":"https://graph.facebook.com/229244010425617_722873191062694/likes?limit=1&summary=1&after=MTAwMDAxNTg0MTUzMzUy"},"summary":{"total_count":28}},"comments":{"data":{"722875654395781":{"id":"722875654395781","from":{"id":"100000045271667","name":"Nam Thai Nguyen"},"message":"(Y)","can_remove":false,"created_time":"2013-09-18T00:45:27+0000","like_count":0,"user_likes":false},"722887841061229":{"id":"722887841061229","from":{"id":"100001458099624","name":"Kham Pha"},"message":"Câu đầu ko nên dịch 自由 là tự do.  Nên dịch vế sau của nó là \"có thể chọn cách mình sống\"","can_remove":false,"created_time":"2013-09-18T01:27:43+0000","like_count":3,"user_likes":false},"722888907727789":{"id":"722888907727789","from":{"id":"100005801442456","name":"An Nguyen"},"message":"","can_remove":false,"created_time":"2013-09-18T01:31:24+0000","like_count":0,"user_likes":false},"722894817727198":{"id":"722894817727198","from":{"id":"100001627822638","name":"Duong Lam"},"message":"Học tiếng Nhật kiểu này hay lắm, post tiếp nhé An Nguyen. Arigato!","message_tags":[{"id":"100005801442456","name":"An Nguyen","type":"user","offset":47,"length":9}],"can_remove":false,"created_time":"2013-09-18T01:47:45+0000","like_count":1,"user_likes":false},"722895454393801":{"id":"722895454393801","from":{"id":"100001627822638","name":"Duong Lam"},"message":"Anh Cao Thi, Thu Hang, Thu Nguyen.","message_tags":[{"id":"100003754637320","name":"Anh Cao Thi","type":"user","offset":0,"length":11},{"id":"100000241683297","name":"Thu Hang","type":"user","offset":13,"length":8},{"id":"100002108642799","name":"Thu Nguyen","type":"user","offset":23,"length":10}],"can_remove":false,"created_time":"2013-09-18T01:49:30+0000","like_count":0,"user_likes":false},"722904204392926":{"id":"722904204392926","from":{"id":"100001744546054","name":"Quân Dương"},"message":"Nhưng không có tiền thì sao học được đây ? Mối quan hệ giữa  tiền - tình - học quá lớn. Tôi tốt nghiệp ĐH rồi, sang đây theo diện du học sinh, công việc  bấp bênh, chả biết các bạn sao chứ, t KO BAO H YÊN TÂM chuyện học hành được. Đời nó thế đó","can_remove":false,"created_time":"2013-09-18T02:12:00+0000","like_count":0,"user_likes":false},"722906454392701":{"id":"722906454392701","from":{"id":"100001954728699","name":"Shinpei Morigami"},"message":"素晴らしい。","can_remove":false,"created_time":"2013-09-18T02:15:55+0000","like_count":1,"user_likes":false},"722907621059251":{"id":"722907621059251","from":{"id":"100005801442456","name":"An Nguyen"},"message":"Tặng bạn 1 câu: 一生懸命努力すればするほど、運は味方する。\nMay mắn chỉ đến với ngừoi nỗ lực.","can_remove":false,"created_time":"2013-09-18T02:17:33+0000","like_count":7,"user_likes":false}},"paging":{"cursors":{"after":"NzIyODc1NjU0Mzk1Nzgx","before":"NzIyODc1NjU0Mzk1Nzgx"},"next":"https://graph.facebook.com/229244010425617_722873191062694/comments?limit=1&summary=1&after=NzIyODc1NjU0Mzk1Nzgx"},"summary":{"order":"chronological","total_count":8}}}