{"id":"229244010425617_722937204389626","type":"link","picture":"https://fbexternal-a.akamaihd.net/safe_image.php?d=AQBKY4t7vwlXHoOh&w=154&h=154&url=http%3A%2F%2Fduhoc.odau.com%2Fimages%2Fodau-new%2FNgan-204%2Fduhocnhat1.jpg","link":"http://goo.gl/E5qH7J","from":{"id":"100000227056592","name":"Phan Hai"},"message":"kinh nghiệm dành cho những ai sắp đi du học Nhật nha. Giành 3' đọc sẽ không uổng phí.\n5 Lưu Ý Khi Thuê Nhà Du Học Nhật Bản\nhttp://goo.gl/E5qH7J","created_time":"2013-09-18T03:31:11+0000","updated_time":"2013-09-18T06:34:23+0000","likes":{"data":{"100005979874995":{"id":"100005979874995","name":"Va Lo"},"100000098161575":{"id":"100000098161575","name":"Vic Tran"},"100003040281667":{"id":"100003040281667","name":"Banglangtim Nguyen"},"100003159439913":{"id":"100003159439913","name":"Noitinhyeubat Dau"},"100003202290206":{"id":"100003202290206","name":"Yoshikuni Takashi"},"100000280776405":{"id":"100000280776405","name":"Viet Nguyen Thanh"},"100002508122689":{"id":"100002508122689","name":"Vũ Mạnh Tuấn"},"100003895165855":{"id":"100003895165855","name":"Mỹ Ánh"},"100000313497022":{"id":"100000313497022","name":"Van Dang"},"100004317667175":{"id":"100004317667175","name":"Hoàng Tử Chăn Lợn"},"100003227211791":{"id":"100003227211791","name":"Lan Lan"},"100000427448138":{"id":"100000427448138","name":"Anh Tuan Pham"},"100000395572237":{"id":"100000395572237","name":"Ớt Cay"},"100001458099624":{"id":"100001458099624","name":"Kham Pha"},"100002782131785":{"id":"100002782131785","name":"Hasegawa Kiyotake"},"1835233444":{"id":"1835233444","name":"Nhung Dong"},"100005043309731":{"id":"100005043309731","name":"Mario Nguyễn"},"100001887921127":{"id":"100001887921127","name":"Kata Apple"},"100000227056592":{"id":"100000227056592","name":"Phan Hai"}},"paging":{"cursors":{"after":"MTAwMDA1OTc5ODc0OTk1","before":"MTAwMDA1OTc5ODc0OTk1"},"next":"https://graph.facebook.com/229244010425617_722937204389626/likes?limit=1&summary=1&after=MTAwMDA1OTc5ODc0OTk1"},"summary":{"total_count":20}},"comments":{"data":{"722938774389469":{"id":"722938774389469","from":{"id":"100001416272263","name":"Mai PB"},"message":"Bài thì tốt nhưng các bức ảnh không phù hợp. Nhà cho thuê thường không như trong ảnh, vốn là các nhà riêng truyền thống của người Nhật.","can_remove":false,"created_time":"2013-09-18T03:38:05+0000","like_count":2,"user_likes":false},"722938947722785":{"id":"722938947722785","from":{"id":"100000227056592","name":"Phan Hai"},"message":":3 sẽ rút kinh nghiệm","can_remove":false,"created_time":"2013-09-18T03:38:56+0000","like_count":0,"user_likes":false},"722939384389408":{"id":"722939384389408","from":{"id":"100000064686295","name":"Huy Roli"},"message":"anh Mai PB có thể dịch giúp em mấy cái từ trong ảnh đc ko ạ","message_tags":[{"id":"100001416272263","name":"Mai PB","type":"user","offset":4,"length":6}],"can_remove":false,"created_time":"2013-09-18T03:40:33+0000","like_count":0,"user_likes":false},"722942244389122":{"id":"722942244389122","from":{"id":"100001416272263","name":"Mai PB"},"message":"Sao mà dịch nổi, đó là tên gọi của các bộ phận cấu thành nên một 和室 washitsu mà? Còn cách đọc thì đây: http://homepage2.nifty.com/NAGAI/kiso-05.html","can_remove":false,"created_time":"2013-09-18T03:50:25+0000","like_count":1,"user_likes":false},"723014994381847":{"id":"723014994381847","from":{"id":"100003227211791","name":"Lan Lan"},"message":"qu","can_remove":false,"created_time":"2013-09-18T06:34:23+0000","like_count":0,"user_likes":false}},"paging":{"cursors":{"after":"NzIyOTM4Nzc0Mzg5NDY5","before":"NzIyOTM4Nzc0Mzg5NDY5"},"next":"https://graph.facebook.com/229244010425617_722937204389626/comments?limit=1&summary=1&after=NzIyOTM4Nzc0Mzg5NDY5"},"summary":{"order":"chronological","total_count":5}}}