{"id":"229244010425617_723557074327639","type":"status","from":{"id":"100000687662713","name":"Vu Thi Man"},"message":"Ho viet thu gui nhu the nay thi co nen di khong ha cac ban oi?\nおそらく来週から出勤してもらうことになります。","created_time":"2013-09-18T22:28:18+0000","updated_time":"2013-09-19T08:21:20+0000","likes":{"data":{"100003769655241":{"id":"100003769655241","name":"Đăng Ninh"}},"paging":{"cursors":{"after":"MTAwMDAzNzY5NjU1MjQx","before":"MTAwMDAzNzY5NjU1MjQx"}},"summary":{"total_count":1}},"comments":{"data":{"723589087657771":{"id":"723589087657771","from":{"id":"100000687662713","name":"Vu Thi Man"},"message":"o kia, khong thay ban nao vao giup minh the??? Binh thuong thi da di roi, nhung dau cau van lai de 3 chu おそらく vay nen moi lan tan, viet thu hoi lai roi nhung khong thay tra loi nen phan van qua.","can_remove":false,"created_time":"2013-09-18T23:27:11+0000","like_count":0,"user_likes":false},"723638317652848":{"id":"723638317652848","from":{"id":"100001754136107","name":"Nguyễn Tuấn Vũ"},"message":"おそらく: có thể :). Bạn cứ đi thử đi.","can_remove":false,"created_time":"2013-09-19T00:24:04+0000","like_count":0,"user_likes":false},"723732877643392":{"id":"723732877643392","from":{"id":"100001416272263","name":"Mai PB"},"message":"Không phải là nên hay không nên mà 2 bên cần phải xác định 1 lần nữa. Đoán là bên kia sẽ liên lạc lại chậm nhất là thứ 6, nếu không Vu Thi Man cần liên lạc lại.","message_tags":[{"id":"100000687662713","name":"Vu Thi Man","type":"user","offset":132,"length":10}],"can_remove":false,"created_time":"2013-09-19T04:45:08+0000","like_count":0,"user_likes":false},"723751204308226":{"id":"723751204308226","from":{"id":"1400326262","name":"Matsumoto Soutarou"},"message":":D hồi đó học lớp tiếng Nhật, thầy người Việt kể kinh nghiệm về tính cách \"từ chối lịch sự\" đến mức \"vòng vo\" của người Nhật, từ chối nhưng lại không nói thẳng từ chối, mà vòng vo đến mức nếu không phải là người Nhật hoặc không hiểu người Nhật có thể không nhận ra :D Mình nhớ hình như là câu chuyện trường đại học nơi thầy dạy muốn liên kết gì đó với trường bên Nhật, trường Nhật lấy lý do bận gì đó và hẹn 1 thời điểm không cụ thể sẽ liên lạc lại. Sau 1 thời gian chờ đợi không thấy họ liên lạc lại thì biết họ từ chối rồi đấy. Rồi câu chuyện về bức mail của ông thầy hướng dẫn sau khi thầy người Việt cự với ổng vì kiểu cách thường xuyên chửi bớt của ổng, mà theo thấy nói thì trong bức mail đó ổng không đả động gì đến việc kêu thầy chọn người hướng dẫn khác, thầy nhờ 1 người Nhật khác đọc bức thư để xác minh lại :D kể chuyện chút xíu cho vui thôi, mình không hiểu ý câu tiếng Nhật ở trên đâu :D","can_remove":false,"created_time":"2013-09-19T05:45:52+0000","like_count":0,"user_likes":false},"723790624304284":{"id":"723790624304284","from":{"id":"100001754136107","name":"Nguyễn Tuấn Vũ"},"message":"Duhoc Vieclam NhatBan: ko đăng tin tìm việc trong comment ban. Lần đầu mình xoá.","can_remove":false,"created_time":"2013-09-19T08:21:20+0000","like_count":0,"user_likes":false}},"paging":{"cursors":{"after":"NzIzNTg5MDg3NjU3Nzcx","before":"NzIzNTg5MDg3NjU3Nzcx"},"next":"https://graph.facebook.com/229244010425617_723557074327639/comments?limit=1&summary=1&after=NzIzNTg5MDg3NjU3Nzcx"},"summary":{"order":"chronological","total_count":5}}}