{"id":"229244010425617_723875990962414","type":"photo","object_id":"373161882815944","picture":"https://fbcdn-photos-b-a.akamaihd.net/hphotos-ak-prn1/t1.0-0/996006_373161882815944_1364986884_s.jpg","link":"https://www.facebook.com/photo.php?fbid=373161882815944&set=a.158161894315945.35948.108439755954826&type=1","from":{"id":"100001458099624","name":"Kham Pha"},"message":"Tin vui phải không?","created_time":"2013-09-19T12:03:49+0000","updated_time":"2013-09-20T16:08:19+0000","likes":{"data":{"100001168538606":{"id":"100001168538606","name":"Gà Quay"},"100001416272263":{"id":"100001416272263","name":"Mai PB"},"100000073848158":{"id":"100000073848158","name":"Hoàng Đắc"},"100002493974023":{"id":"100002493974023","name":"Tuyết Nhung"},"100003702043787":{"id":"100003702043787","name":"Hằng Hanu"},"100001789054977":{"id":"100001789054977","name":"Ginga Idō Shi"},"100000041691073":{"id":"100000041691073","name":"Phuong Nam Hoang"},"100003893158172":{"id":"100003893158172","name":"Maru MO"},"100000193104491":{"id":"100000193104491","name":"Hac Nguyet"},"100003389919177":{"id":"100003389919177","name":"Chuột Trang"},"100002171270684":{"id":"100002171270684","name":"Do Thanh Thanh"},"100001260645727":{"id":"100001260645727","name":"Ngo Duy Son"},"100005043309731":{"id":"100005043309731","name":"Mario Nguyễn"},"100003821503042":{"id":"100003821503042","name":"ThucQuyen Yuki"},"100004794727976":{"id":"100004794727976","name":"Song Tử"},"100006587292639":{"id":"100006587292639","name":"Masaki Chan"},"100001440054060":{"id":"100001440054060","name":"Pi Trần"},"100000250256418":{"id":"100000250256418","name":"Nguyen Viet Anh"},"100004133618300":{"id":"100004133618300","name":"Yến Nguyễn"},"100001727857917":{"id":"100001727857917","name":"Bui Duyen"}},"paging":{"cursors":{"after":"MTAwMDAxMTY4NTM4NjA2","before":"MTAwMDAxMTY4NTM4NjA2"},"next":"https://graph.facebook.com/229244010425617_723875990962414/likes?limit=1&summary=1&after=MTAwMDAxMTY4NTM4NjA2"},"summary":{"total_count":20}},"comments":{"data":{"723877597628920":{"id":"723877597628920","from":{"id":"100000250256418","name":"Nguyen Viet Anh"},"message":"Ngon rồi. Ít nhất là dẹp được mấy phim Tàu. :)))","can_remove":false,"created_time":"2013-09-19T12:09:20+0000","like_count":1,"user_likes":false},"723878904295456":{"id":"723878904295456","from":{"id":"100001458099624","name":"Kham Pha"},"message":"Dẹp cả Hàn xẻng đi cho lũ trẻ bớt cuồng, bố mẹ chúng nó cũng đỡ khổ.","can_remove":false,"created_time":"2013-09-19T12:13:08+0000","like_count":1,"user_likes":false},"723879700962043":{"id":"723879700962043","from":{"id":"100000250256418","name":"Nguyen Viet Anh"},"message":"Kể ra thì mấy phim Hàn của bọn trẻ thì dở hơi thật. Nhưng phim gia đình của Hàn thì cũng hay phết chứ ko dở đâu. :))","can_remove":false,"created_time":"2013-09-19T12:15:09+0000","like_count":0,"user_likes":false},"723880140961999":{"id":"723880140961999","from":{"id":"100000250256418","name":"Nguyen Viet Anh"},"message":"Hoặc mấy phim kiểu cổ cổ của mấy diễn viên trung niên đóng cũng hay. :))","can_remove":false,"created_time":"2013-09-19T12:16:14+0000","like_count":0,"user_likes":false},"723880200961993":{"id":"723880200961993","from":{"id":"100001458099624","name":"Kham Pha"},"message":"Thì có đứa nào cuồng phim gia đình của Hàn xẻng đến độ bỏ nhà đâu :))","can_remove":false,"created_time":"2013-09-19T12:16:33+0000","like_count":0,"user_likes":false},"723880787628601":{"id":"723880787628601","from":{"id":"100000064686295","name":"Huy Roli"},"message":"ベトナム語で補訳するから、あまり好きではない","can_remove":false,"created_time":"2013-09-19T12:17:56+0000","like_count":0,"user_likes":false},"723882527628427":{"id":"723882527628427","from":{"id":"100000250256418","name":"Nguyen Viet Anh"},"message":"Nói chung chỉ ngứa nhất mấy phim Tàu. Đầu độc suy nghĩ con người.\nCó thù phải trả, quân tử trả thù 10 năm chưa muộn, âu cũng là duyên số... Mấy khẩu hiệu kinh điển đi ngược lại hoàn toàn với thực tế. =)))","can_remove":false,"created_time":"2013-09-19T12:21:19+0000","like_count":1,"user_likes":false},"723906214292725":{"id":"723906214292725","from":{"id":"100001416272263","name":"Mai PB"},"message":"Được có 6 tháng thôi.","can_remove":false,"created_time":"2013-09-19T13:15:47+0000","like_count":0,"user_likes":false},"724069940943019":{"id":"724069940943019","from":{"id":"100000073848158","name":"Hoàng Đắc"},"message":"ooh hana yori dango :)","can_remove":false,"created_time":"2013-09-19T17:09:08+0000","like_count":0,"user_likes":false},"724641754219171":{"id":"724641754219171","from":{"id":"100001168538606","name":"Gà Quay"},"message":"Thân Tuấn Anh sắp có truyền hình giải trí VTV3","message_tags":[{"id":"100002748307690","name":"Thân Tuấn Anh","type":"user","offset":0,"length":13}],"can_remove":false,"created_time":"2013-09-20T16:08:19+0000","like_count":0,"user_likes":false}},"paging":{"cursors":{"after":"NzIzODc3NTk3NjI4OTIw","before":"NzIzODc3NTk3NjI4OTIw"},"next":"https://graph.facebook.com/229244010425617_723875990962414/comments?limit=1&summary=1&after=NzIzODc3NTk3NjI4OTIw"},"summary":{"order":"chronological","total_count":10}}}