{"id":"229244010425617_723938077622872","type":"photo","object_id":"691757430852176","picture":"https://fbcdn-photos-h-a.akamaihd.net/hphotos-ak-prn2/t1.0-0/1233421_691757430852176_1423850591_s.jpg","link":"https://www.facebook.com/VYSAJP/photos/a.365244170170172.97502.227424387285485/691757430852176/?type=1","from":{"id":"100001416272263","name":"Mai PB"},"message":"Mai ai rảnh thì đi cổ vũ anh ấy, ở Tokyo.","created_time":"2013-09-19T14:38:06+0000","updated_time":"2013-09-20T09:14:02+0000","likes":{"data":{"100003502450270":{"id":"100003502450270","name":"Nguyen Bac"},"100000073848158":{"id":"100000073848158","name":"Hoàng Đắc"},"100006476388706":{"id":"100006476388706","name":"Cường Euro"},"100000603915176":{"id":"100000603915176","name":"悪いな ぁ"},"100000328742646":{"id":"100000328742646","name":"Trần Giáp"},"100004478832761":{"id":"100004478832761","name":"Thiên Trang"},"100004032585669":{"id":"100004032585669","name":"Đoàn Phú Minh"},"100003758594233":{"id":"100003758594233","name":"Đặng Văn Quyết"},"100001458099624":{"id":"100001458099624","name":"Kham Pha"},"100002508122689":{"id":"100002508122689","name":"Vũ Mạnh Tuấn"}},"paging":{"cursors":{"after":"MTAwMDAzNTAyNDUwMjcw","before":"MTAwMDAzNTAyNDUwMjcw"},"next":"https://graph.facebook.com/229244010425617_723938077622872/likes?limit=1&summary=1&after=MTAwMDAzNTAyNDUwMjcw"},"summary":{"total_count":10}},"comments":{"data":{"723940004289346":{"id":"723940004289346","from":{"id":"100001723862714","name":"Bo Bien Vang"},"message":"hớ hớ Bo Bien Vang rảnh :v","message_tags":[{"id":"100001723862714","name":"Bo Bien Vang","type":"user","offset":6,"length":12}],"can_remove":false,"created_time":"2013-09-19T14:41:50+0000","like_count":0,"user_likes":false},"724438537572826":{"id":"724438537572826","from":{"id":"100006476388706","name":"Cường Euro"},"message":":-*","can_remove":false,"created_time":"2013-09-20T09:14:02+0000","like_count":0,"user_likes":false}},"paging":{"cursors":{"after":"NzIzOTQwMDA0Mjg5MzQ2","before":"NzIzOTQwMDA0Mjg5MzQ2"},"next":"https://graph.facebook.com/229244010425617_723938077622872/comments?limit=1&summary=1&after=NzIzOTQwMDA0Mjg5MzQ2"},"summary":{"order":"chronological","total_count":2}}}