{"id":"229244010425617_724266337590046","type":"photo","object_id":"399722520154493","picture":"https://fbcdn-photos-c-a.akamaihd.net/hphotos-ak-ash3/t1.0-0/554125_399722520154493_1925188504_s.jpg","link":"https://www.facebook.com/photo.php?fbid=399722520154493&set=gm.724266337590046&type=1&relevant_count=1","from":{"id":"100003502450270","name":"Nguyen Bac"},"message":"Học Kanji bằng Manga cho mọi người. Không khó  mà lại vui\nhttp://adf.ly/W1kTr\nhttp://adf.ly/W1jys","created_time":"2013-09-20T02:02:16+0000","updated_time":"2013-09-24T11:53:23+0000","likes":{"data":{"100003366941701":{"id":"100003366941701","name":"Hong Ngoc Le"},"100003654590354":{"id":"100003654590354","name":"Nguyen Duc"},"1822854513":{"id":"1822854513","name":"Sữa Chua Không Đường"},"100003155265209":{"id":"100003155265209","name":"さび しい"},"100004711450616":{"id":"100004711450616","name":"Hân Chocopie"},"1850147953":{"id":"1850147953","name":"Rùa Con"},"100005566321381":{"id":"100005566321381","name":"Bin Lee"},"100003276696481":{"id":"100003276696481","name":"Viet Đong"},"100003171672878":{"id":"100003171672878","name":"Tầu Heo"},"100003320012955":{"id":"100003320012955","name":"Ông Dâm Pụt"},"1820882040":{"id":"1820882040","name":"Trần Thanh Hải"},"100005389234209":{"id":"100005389234209","name":"Cỏ Dại"},"100005323657722":{"id":"100005323657722","name":"Hoa Nguyen"},"100001789054977":{"id":"100001789054977","name":"Ginga Idō Shi"},"100000823407127":{"id":"100000823407127","name":"Neko Ngox"},"100004452704201":{"id":"100004452704201","name":"Đông Đô"}},"paging":{"cursors":{"after":"MTAwMDAzMzY2OTQxNzAx","before":"MTAwMDAzMzY2OTQxNzAx"},"next":"https://graph.facebook.com/229244010425617_724266337590046/likes?limit=1&summary=1&after=MTAwMDAzMzY2OTQxNzAx"},"summary":{"total_count":16}},"comments":{"data":{"724285627588117":{"id":"724285627588117","from":{"id":"100003320012955","name":"Ông Dâm Pụt"},"message":"Kanji hán tự","can_remove":false,"created_time":"2013-09-20T02:51:59+0000","like_count":0,"user_likes":false},"726783557338324":{"id":"726783557338324","from":{"id":"100003654590354","name":"Nguyen Duc"},"message":"có hướng dẫn tiếng việt không, trong này tiếng anh e ko hiểu","can_remove":false,"created_time":"2013-09-23T15:54:43+0000","like_count":0,"user_likes":false},"726786644004682":{"id":"726786644004682","from":{"id":"100001416272263","name":"Mai PB"},"message":"Nguyen Bac đừng dùng dịch vụ adf.ly nữa. Post link thẳng hoặc dịch vụ rút gọn link khác mà free, ví dụ bit.ly . Thanks.","message_tags":[{"id":"100003502450270","name":"Nguyen Bac","type":"user","offset":0,"length":10}],"can_remove":false,"created_time":"2013-09-23T16:01:03+0000","like_count":0,"user_likes":false},"727234423959904":{"id":"727234423959904","from":{"id":"100003502450270","name":"Nguyen Bac"},"message":"Mai PB tài liệu là do mình tìm dc trên mạng nhé ;) ,nên mình nghĩ nên tôn trọng chủ nhân của nó. dù sao thì adf.ly cũng ko phải là 1 dịch vụ xấu và lợi ích mà nó mang lại cũng rất ít nếu ko muốn nói là ko có. và việc đợi 5s để down về ko phải là việc khó nhé ;)........nếu ko hài lòng Mai PB có thể ban nick và cho mình 1 lý do trc đó........thân","message_tags":[{"id":"100001416272263","name":"Mai PB","type":"user","offset":0,"length":6}],"can_remove":false,"created_time":"2013-09-24T11:53:23+0000","like_count":0,"user_likes":false}},"paging":{"cursors":{"after":"NzI0Mjg1NjI3NTg4MTE3","before":"NzI0Mjg1NjI3NTg4MTE3"},"next":"https://graph.facebook.com/229244010425617_724266337590046/comments?limit=1&summary=1&after=NzI0Mjg1NjI3NTg4MTE3"},"summary":{"order":"chronological","total_count":4}}}