{"id":"229244010425617_724515247565155","type":"link","link":"http://yomoyomo.jp/index.php","from":{"id":"100001416272263","name":"Mai PB"},"message":"Post lại cho ai chưa biết. Mọi người bookmark vào.\nDùng tool sau đây để phiên âm chữ Hán sang Hiragana hoặc Romaji.\nCopy địa chỉ trang web tiếng Nhật (nếu dịch trang web), hoặc chọn TARGET là TEXT, rồi copy (nhóm) chữ Hán vào đó, nhấn nút Process ở dưới. \n\nhttp://yomoyomo.jp/index.php","created_time":"2013-09-20T12:43:08+0000","updated_time":"2013-09-20T22:24:50+0000","likes":{"data":{"100003702043787":{"id":"100003702043787","name":"Hằng Hanu"},"100001431767662":{"id":"100001431767662","name":"Ha Pham Lien"},"100002883266700":{"id":"100002883266700","name":"Hương Thảo"},"100001365545442":{"id":"100001365545442","name":"Nguyễn Nam"},"100001802076152":{"id":"100001802076152","name":"Hoang Thanh Dong"},"100000603915176":{"id":"100000603915176","name":"悪いな ぁ"},"100003502450270":{"id":"100003502450270","name":"Nguyen Bac"},"100003168392933":{"id":"100003168392933","name":"Mơ Nguyễn"},"100004514621076":{"id":"100004514621076","name":"Hason Angle"},"100004478832761":{"id":"100004478832761","name":"Thiên Trang"},"100000226646981":{"id":"100000226646981","name":"My Nguyen"},"100003005597243":{"id":"100003005597243","name":"Zany Royal"},"100000064686295":{"id":"100000064686295","name":"Huy Roli"},"100002594112476":{"id":"100002594112476","name":"Thiên Di"},"100002470650247":{"id":"100002470650247","name":"LinhLinh Chan"},"100000070752758":{"id":"100000070752758","name":"Yen Panda"},"100000030073288":{"id":"100000030073288","name":"Thanh Danh Tran"},"100004362480675":{"id":"100004362480675","name":"Đi Tìm Thất Bại"},"1629517470":{"id":"1629517470","name":"Nguyen Thi Thanh Van"},"100004120094356":{"id":"100004120094356","name":"Yoah Nguyen"},"100002508122689":{"id":"100002508122689","name":"Vũ Mạnh Tuấn"}},"paging":{"cursors":{"after":"MTAwMDAzNzAyMDQzNzg3","before":"MTAwMDAzNzAyMDQzNzg3"},"next":"https://graph.facebook.com/229244010425617_724515247565155/likes?limit=1&summary=1&after=MTAwMDAzNzAyMDQzNzg3"},"summary":{"total_count":21}},"comments":{"data":{"724548197561860":{"id":"724548197561860","from":{"id":"100000064686295","name":"Huy Roli"},"message":"Em toàn dùng google.translate","can_remove":false,"created_time":"2013-09-20T13:51:35+0000","like_count":0,"user_likes":false},"724549687561711":{"id":"724549687561711","from":{"id":"100001416272263","name":"Mai PB"},"message":"Google Translate có phiên âm không, Huy Roli?","message_tags":[{"id":"100000064686295","name":"Huy Roli","type":"user","offset":36,"length":8}],"can_remove":false,"created_time":"2013-09-20T13:54:36+0000","like_count":0,"user_likes":false},"724551107561569":{"id":"724551107561569","from":{"id":"100000064686295","name":"Huy Roli"},"message":"Ở dưới có mà anh, mà ý anh là phiên âm trên đầu chữ hán hay gì","can_remove":false,"created_time":"2013-09-20T13:57:57+0000","like_count":0,"user_likes":false},"724553134228033":{"id":"724553134228033","from":{"id":"100001416272263","name":"Mai PB"},"message":"Đúng thật, Huy Roli. Hôm nay mới để ý thấy Google Translate có phiên âm romaji. :-)  Thế thì yomoyomo chỉ khác GT ở chỗ phiên âm cả trang web thay vì dịch trang web đó.","message_tags":[{"id":"100000064686295","name":"Huy Roli","type":"user","offset":11,"length":8}],"can_remove":false,"created_time":"2013-09-20T14:02:25+0000","like_count":2,"user_likes":false},"724798770870136":{"id":"724798770870136","from":{"id":"100004322010992","name":"Nhím Xù"},"message":"Tải cái này về ip lm nào vậy mih chả bít gì về đt cả","can_remove":false,"created_time":"2013-09-20T22:24:50+0000","like_count":0,"user_likes":false}},"paging":{"cursors":{"after":"NzI0NTQ4MTk3NTYxODYw","before":"NzI0NTQ4MTk3NTYxODYw"},"next":"https://graph.facebook.com/229244010425617_724515247565155/comments?limit=1&summary=1&after=NzI0NTQ4MTk3NTYxODYw"},"summary":{"order":"chronological","total_count":5}}}