{"id":"229244010425617_725066934176653","type":"status","from":{"id":"100001458099624","name":"Kham Pha"},"message":"僕の行動は僕の責任だ。他の人は関係ない。\n\nTheo các bạn 行動（こうどう） khác 行為（こうい） ở đâu. Câu trên có thể thay bằng 行為 không?","created_time":"2013-09-21T10:25:46+0000","updated_time":"2013-09-25T09:52:42+0000","likes":{"data":{"100006626797935":{"id":"100006626797935","name":"私 はにほんをあいしている"},"100000162152142":{"id":"100000162152142","name":"Bà Già Đau Khổ"},"100004033186653":{"id":"100004033186653","name":"Uzu Vongola Jump"},"100001723862714":{"id":"100001723862714","name":"Bo Bien Vang"},"100005389234209":{"id":"100005389234209","name":"Cỏ Dại"}},"paging":{"cursors":{"after":"MTAwMDA2NjI2Nzk3OTM1","before":"MTAwMDA2NjI2Nzk3OTM1"},"next":"https://graph.facebook.com/229244010425617_725066934176653/likes?limit=1&summary=1&after=MTAwMDA2NjI2Nzk3OTM1"},"summary":{"total_count":5}},"comments":{"data":{"725177964165550":{"id":"725177964165550","from":{"id":"100000073848158","name":"Hoàng Đắc"},"message":"Từ thứ 2 hình như hay dùng với  nghĩa tiêu cực, các hành động mục đích xấu. T nghĩ là thay được","can_remove":false,"created_time":"2013-09-21T13:34:02+0000","like_count":1,"user_likes":false},"725392364144110":{"id":"725392364144110","from":{"id":"1400326262","name":"Matsumoto Soutarou"},"message":"đọc những thông tin từ \"từ điển\" ở trên, cũng như là so sánh, mình thấy \"hành động\" nhấn mạnh đến chữ \"động\" hơn, chỉ là những động tác, cử động. Còn \"hành vi\" nhấn mạnh đến chữ \"vi\" hơn, nghĩa là kèm theo cả ý chí, suy nghĩ, thái độ, mục đích của chủ thể. Câu ở trên có thể thay \"hành động\" thành \"hành vi\" :D nói chung cái gì của mình thì mình cũng đều phải chịu trách nhiệm hết.","can_remove":false,"created_time":"2013-09-21T18:49:23+0000","like_count":2,"user_likes":false},"725574784125868":{"id":"725574784125868","from":{"id":"100001458099624","name":"Kham Pha"},"message":"Tran Thong nói đúng đấy, hành vi là chứa ý chí còn hành động là có thể có hoặc ko có ý chí.","message_tags":[{"id":"1400326262","name":"Tran Thong","type":"user","offset":0,"length":10}],"can_remove":false,"created_time":"2013-09-22T03:29:25+0000","like_count":0,"user_likes":false},"725742880775725":{"id":"725742880775725","from":{"id":"100001458099624","name":"Kham Pha"},"message":"Kết luận là thay thế đc :)","can_remove":false,"created_time":"2013-09-22T08:45:06+0000","like_count":0,"user_likes":false},"725802260769787":{"id":"725802260769787","from":{"id":"100000073848158","name":"Hoàng Đắc"},"message":"dịch thành hành động vs hành vi chỉ mang tính tương đối thôi, mà nếu em bê vào tiếng việt để thấy nó không ổn thì  không ổn rồi.","can_remove":false,"created_time":"2013-09-22T11:17:44+0000","like_count":0,"user_likes":false},"725831720766841":{"id":"725831720766841","from":{"id":"1828906841","name":"Trọng Nghĩa Bùi"},"message":"Thang Luu Duc dịch nguyên từng chữ ra vốn sẽ là không ổn, nếu anh dịch thế này thì em nghĩ sao: \"Tôi chịu trách nhiệm về hành động của tôi.\" và \"Tôi chịu trách nhiệm về hành vi của tôi.\" ?","message_tags":[{"id":"100003713652370","name":"Thang Luu Duc","type":"user","offset":0,"length":13}],"can_remove":false,"created_time":"2013-09-22T12:41:31+0000","like_count":2,"user_likes":false},"725833864099960":{"id":"725833864099960","from":{"id":"100000073848158","name":"Hoàng Đắc"},"message":"Theo tiếng việt thì từ hành vi rộng và bao quát, nó là cụm các hành động theo hướng nào đấy (có ý chí ) như là hành vi gian lận, hành vi phạm tội....\nHành động thì cụ thể hơn rất nhiều. \nThường ngày thấy từ hành vi hay đi vs nghĩa tiêu cực, cũng ít dùng, mà cũng đúng là chưa thấy dùng để nói về mình bao giờ ( có thể vì nó mang nghĩa tiêu cực ? ) \nNhưng mà từ đó trong tiếng nhật có thể nó có sắc thái khác, tùy thói quen sử dụng thôi.","can_remove":false,"created_time":"2013-09-22T12:47:25+0000","like_count":0,"user_likes":false},"725837724099574":{"id":"725837724099574","from":{"id":"1828906841","name":"Trọng Nghĩa Bùi"},"message":"anh chỉ nghĩ là cả 2 từ đều có thể dùng vào bản thân mình được, anh ko giải thích được tại sao lại thế. Tuy nhiên đọc phần định nghĩa trong tiếng Nhật em post lên thì dùng như thế hoàn toàn đúng mà :D\nNgoài ra, đi sâu vào giải thích từ tiếng Việt anh nghĩ là ko hiệu quả, có thể đi vào ngôn ngữ khác từ đó lại mang ý nghĩa khác (sắc thái khác) thì sao :)","can_remove":false,"created_time":"2013-09-22T12:55:04+0000","like_count":0,"user_likes":false},"725905014092845":{"id":"725905014092845","from":{"id":"1400326262","name":"Matsumoto Soutarou"},"message":"nhờ ông Google search từ khóa \"hành vi của tôi\" hoặc \"hành vi của mình\" xem từ \"hành vi\" có dùng cho bản thân hay không, có thể là do nó hơi tiêu cực với nghĩa \"hành động vị phạm\" nên ít dùng cho bản thân, nhưng vẫn có đấy chứ.","can_remove":false,"created_time":"2013-09-22T14:16:17+0000","like_count":0,"user_likes":false},"727460060604007":{"id":"727460060604007","from":{"id":"1845000884","name":"Trieu Thi Kieu Oanh"},"message":"theo e thi k the thay bang tu \"hanh vi\" duoc. vi cha ai noi \" toi se chiu trach nhiem ve hanh vi cua toi\" ca. va ai cung noi \" toi se chiu trach nhiem ve nhung hanh dong cua minh\"   cai nay thuoc ve shuukan mat roi ak. giong nhu nguoi nhat khi tang qua toan noi la \" tsumaranai mono desu\"   ay' ak","can_remove":false,"created_time":"2013-09-24T18:46:16+0000","like_count":0,"user_likes":false},"727591753924171":{"id":"727591753924171","from":{"id":"100001458099624","name":"Kham Pha"},"message":"Nếu dịch ra tiếng Việt như vậy thì đương nhiên ko đc rồi. Nhưng làm gì có nghĩa tương đương để dịch như vậy. Các bạn có biết từ 利用 dịch ra là \"lợi dụng\". Dùng theo nghĩa lợi dụng ai đó thì đúng nhưng với đồ vật thì nó đc dịch là \"sử dụng\" :)","can_remove":false,"created_time":"2013-09-25T00:56:39+0000","like_count":0,"user_likes":false},"727592480590765":{"id":"727592480590765","from":{"id":"100001458099624","name":"Kham Pha"},"message":"Nói chung đây ko phải loại vấn đề phân tích câu chữ là ra được.","can_remove":false,"created_time":"2013-09-25T00:59:33+0000","like_count":0,"user_likes":false},"727744497242230":{"id":"727744497242230","from":{"id":"100000687662713","name":"Vu Thi Man"},"message":"Hai từ trên k thể thay thế cho nhau mới đúng chứ. Trong tiếng Việt hành động và hành vi nghĩa hoàn toàn khác nhau mà. Hành động là những việc làm mang chủ đích, còn hành vi là phán ứng, cách cư xử của con người ở 1 hoàn cảnh nhất định nào đấy. Thông thường, hành vi thường mang nghĩa xấu.","can_remove":false,"created_time":"2013-09-25T09:52:42+0000","like_count":0,"user_likes":false}},"paging":{"cursors":{"after":"NzI1MTc3OTY0MTY1NTUw","before":"NzI1MTc3OTY0MTY1NTUw"},"next":"https://graph.facebook.com/229244010425617_725066934176653/comments?limit=1&summary=1&after=NzI1MTc3OTY0MTY1NTUw"},"summary":{"order":"chronological","total_count":13}}}