{"id":"229244010425617_725197470830266","type":"link","picture":"https://fbexternal-a.akamaihd.net/safe_image.php?d=AQBabLXMgD6_wd3f&w=154&h=154&url=http%3A%2F%2Ffs.chungta.com%2FFile.ashx%2F14124E6776864C6D8FB32525A6F38DAA%2Fimage%3Dpjpeg%2Fe287cc7e2fbe4c9c85b9e291390cc894%2FFukuzawaYukichidoc.jpg","link":"http://chungta.com/tulieu/tu-lieu-tra-cuu/thoat_a_luan/default.aspx","from":{"id":"100001416272263","name":"Mai PB"},"message":"Sau \"Khuyến Học\" thì đọc tiếp \"Thoát Á Luận\" nhé. Nội dung này đặc biệt đáng để người Việt Nam đọc, so với \"Khuyến Học\" vốn có thể áp dụng cho toàn thế giới.","created_time":"2013-09-21T14:22:31+0000","updated_time":"2013-09-22T04:43:02+0000","likes":{"data":{"100002327743510":{"id":"100002327743510","name":"Tuan Thanh"},"100001044080438":{"id":"100001044080438","name":"Huyen Vy"},"100006626797935":{"id":"100006626797935","name":"私 はにほんをあいしている"},"1814478345":{"id":"1814478345","name":"Nguyễn Quốc Bửu Trân"},"100001580479641":{"id":"100001580479641","name":"Hà Xuân Thủy"},"100004041794244":{"id":"100004041794244","name":"Watanuki Kimihiro"},"100002959594535":{"id":"100002959594535","name":"Nguyen Ngoc Anh"},"100000603915176":{"id":"100000603915176","name":"悪いな ぁ"},"100003819875708":{"id":"100003819875708","name":"Piglazy Pham"},"1114300791":{"id":"1114300791","name":"Tra Mi"},"100001458099624":{"id":"100001458099624","name":"Kham Pha"},"100001723862714":{"id":"100001723862714","name":"Bo Bien Vang"}},"paging":{"cursors":{"after":"MTAwMDAyMzI3NzQzNTEw","before":"MTAwMDAyMzI3NzQzNTEw"},"next":"https://graph.facebook.com/229244010425617_725197470830266/likes?limit=1&summary=1&after=MTAwMDAyMzI3NzQzNTEw"},"summary":{"total_count":12}},"comments":{"data":{"725201994163147":{"id":"725201994163147","from":{"id":"100001723862714","name":"Bo Bien Vang"},"message":"há há, kinh tế nữa nhé Mai PB","message_tags":[{"id":"100001416272263","name":"Mai PB","type":"user","offset":23,"length":6}],"can_remove":false,"created_time":"2013-09-21T14:29:53+0000","like_count":0,"user_likes":false},"725213180828695":{"id":"725213180828695","from":{"id":"100001416272263","name":"Mai PB"},"message":"Nếu VN không cởi mở báo chí tư nhân thì sẽ không bao giờ có những bài xã luận báo chí như thế này để toàn dân đọc.","can_remove":false,"created_time":"2013-09-21T14:54:31+0000","like_count":0,"user_likes":false},"725213824161964":{"id":"725213824161964","from":{"id":"100001416272263","name":"Mai PB"},"message":"Bo Bien Vang, là sao?","message_tags":[{"id":"100001723862714","name":"Bo Bien Vang","type":"user","offset":0,"length":12}],"can_remove":false,"created_time":"2013-09-21T14:56:08+0000","like_count":0,"user_likes":false},"725249467491733":{"id":"725249467491733","from":{"id":"100001416272263","name":"Mai PB"},"message":"悪友と親しく交わる者も、また悪名をまぬかれない。筆者は心の中で、東アジアの悪友を謝絶するものである。\nTục ngữ có câu “gần mực thì đen, gần đèn thì rạng”, nghĩa là nếu chúng ta chơi với những người bạn xấu, thì chúng ta cũng trở thành người xấu. Đơn giản là chúng ta đoạn tuyệt kết giao với những người bạn xấu ở Châu Á!","can_remove":false,"created_time":"2013-09-21T15:28:24+0000","like_count":0,"user_likes":false},"725496070800406":{"id":"725496070800406","from":{"id":"100002959594535","name":"Nguyen Ngoc Anh"},"message":"Bài này hay quá! \nAnh Mai PB lùng bài này giỏi thiệt'","can_remove":false,"created_time":"2013-09-21T22:57:28+0000","like_count":0,"user_likes":false},"725531870796826":{"id":"725531870796826","from":{"id":"100000381394367","name":"Thành Nguyễn"},"message":"Việt Nam thời đó cũng có những người có tầm nhìn xa trông rộng như Fukuzawa như Nguyễn Lộ Trạch, Nguyễn Trường Tộ, Phạm Phú Thứ nhưng họ chỉ là số ít, vua Tự Đức thì u mê đâu óc hạn hepj , quan lại hủ bại còn Nhật có minh quân và cả một giai cấp võ sĩ samurai đồng lòng nhất chí canh tân đất nước nên họ có ngày nay. Việt nam không phải không có những người hào kiệt, chỉ là vận nước gian nan mà thôi.","can_remove":false,"created_time":"2013-09-22T01:12:11+0000","like_count":1,"user_likes":false},"725532097463470":{"id":"725532097463470","from":{"id":"100000381394367","name":"Thành Nguyễn"},"message":"Thiên hạ đại thế luận của Nguyễn Trường Tộ http://vanhoanghean.com.vn/thu-vien-van-hoc-nghe-thuat/thien-ha-dai-the-luan","can_remove":false,"created_time":"2013-09-22T01:13:05+0000","like_count":0,"user_likes":false},"725532440796769":{"id":"725532440796769","from":{"id":"100000381394367","name":"Thành Nguyễn"},"message":"Thiên hạ đại thế luận của Nguyễn Lộ Trạch http://www.gactholoc.net/c6/t6-3/b43/3-thien-ha-dai-the-luan-cua-nguyen-lo-trach.html","can_remove":false,"created_time":"2013-09-22T01:14:45+0000","like_count":0,"user_likes":false},"725540977462582":{"id":"725540977462582","from":{"id":"100001580479641","name":"Hà Xuân Thủy"},"message":"Nếu xét về nội dung của các bài viết trên thì có thể thấy nguyễn lộ trạch và nguyễn trường tộ tầm nhìn, kiến thức,...chưa thể so với fukuzawa đc :).","can_remove":false,"created_time":"2013-09-22T01:42:35+0000","like_count":0,"user_likes":false},"725544107462269":{"id":"725544107462269","from":{"id":"100000381394367","name":"Thành Nguyễn"},"message":"So chung về sự nghiệp và cuộc đời thì những người kia không bằng được fukuzawa là điều ai cũng thấy, nhưng nếu chỉ so với bài thoát á luận thì 2 bài luận kia cũng chẳng kém chút nào, thậm chí phân tích của Nguyễn Trường Tộ còn có chỗ sắc sảo và chi tiết hơn ( dù cách hành văn vẫn theo lối cổ, nhưng bản dịch thoát á luận được dịch theo ngôn ngữ hiện đại nên đọc thấy gần với quan điểm của ngày nay ). Căn bản là phải có cả một hệ thống môi trường rộng lớn, Fukuzawa mà làm quan dưới triều Tự Đức thì cũng rất có thể chỉ ngồi bó gối, còn Nguyễn Trường Tộ , Phạm Phú Thứ, Nguyễn Lộ Trạch mà sống ở Nhật thời minh trị thì có lẽ sự nghiệp của họ cũng lẫy lừng chẳng kém, chỉ vì anh hùng chưa có đất dụng võ mà thôi.","can_remove":false,"created_time":"2013-09-22T01:53:16+0000","like_count":1,"user_likes":false},"725568867459793":{"id":"725568867459793","from":{"id":"100001416272263","name":"Mai PB"},"message":"Nhân tài Việt đời nào cũng có, nhưng lãnh đạo hầu hết đời nào cũng u mê. Thời này cũng có nhiều lắm nhưng họ chỉ được viết bài trên mạng thôi, chưa kể viết bài còn nguy hiểm đến an ninh bản thân. Một điều nữa là người VN có bàn tính xấu đố kỵ, kèn cựa từ ngày xưa, nên người giỏi ở VN càng vất vả để thể hiện mình.","can_remove":false,"created_time":"2013-09-22T03:10:29+0000","like_count":3,"user_likes":false},"725573887459291":{"id":"725573887459291","from":{"id":"100001458099624","name":"Kham Pha"},"message":"Mai PB Một trong những điều khó khăn nhất em phải đối mặt cho đến giờ là làm sao để luôn được là bản thân mình. Thật khó để người khác chấp nhận sự khác biệt của mình.","message_tags":[{"id":"100001416272263","name":"Mai PB","type":"user","offset":0,"length":6}],"can_remove":false,"created_time":"2013-09-22T03:25:11+0000","like_count":2,"user_likes":false},"725625264120820":{"id":"725625264120820","from":{"id":"100000381394367","name":"Thành Nguyễn"},"message":"Mahatma Gandhi có nói \"Be the change that you wish to see in the world.\". Nếu người ta muốn có hòa bình thì hãy cư xử một cách hòa bình, nếu muốn người khác chấp nhận sự khác biệt của mình thì trước tiên hãy chấp nhận sự khác biệt của người khác. Để có thể làm thay đổi thế giới xung quanh thì có thể phải chờ đợi rất lâu, phải đòi hỏi lòng kiên trì. Có thể những điều mà chúng ta mong đợi sẽ thay đổi sẽ chẳng xảy ra  khi chúng ta còn sống, tuy nhiên không nên vì thế mà thất vọng, điều quan trong là \"be apart of solution, not be apart of problem\". Hãy trở thành một phần của giải pháp chứ đừng là một phần của vấn đề. Xã hội có thể sa sút, chất lượng con người có thể đi xuống, nhưng chỉ cần chúng ta sống đúng với bản thân mình, không làm cho xã hội xấu đi ( không trở thành một phần của vấn đề ) thì đã là điều tốt đẹp rồi.","can_remove":false,"created_time":"2013-09-22T04:43:02+0000","like_count":3,"user_likes":false}},"paging":{"cursors":{"after":"NzI1MjAxOTk0MTYzMTQ3","before":"NzI1MjAxOTk0MTYzMTQ3"},"next":"https://graph.facebook.com/229244010425617_725197470830266/comments?limit=1&summary=1&after=NzI1MjAxOTk0MTYzMTQ3"},"summary":{"order":"chronological","total_count":13}}}