{"id":"229244010425617_725854844097862","type":"status","from":{"id":"100000687662713","name":"Vu Thi Man"},"message":"Da tham gia xong le hoi giao luu da van hoa cac dan toc Omi.\nKe ra cung that kham phuc dan Nhat. Mac du troi mua tam ta, do anh huong cua con bao so 18, nhung moi nguoi van den le hoi rat dong. Minh trom nghi, neu khong mua chac se con den dong hon nua. Voi thoi tiet mua to tam ta ca ngay the nay, neu o VN chac chang co 1 mong nguoi nao den.\nMinh da co co hoi duoc khoac len nguoi bo trang phuc truyen thong cuoi hoi cua nguoi Nhat. Thay the nao nhi? Them 1 lan nua kham phuc con gai Nhat, mac ca ngay bo le phuc ay ma van tuoi cuoi, vui ve don tiep khach duoc. Minh chi duoc mac thu bo Kimono 3 lop, nhu vay la da cach tan so voi bo truyen thong 6 lop roi. Neu mac 6 lop thi the nao nhi? Ba lop da kho tho va truc nga ra phia sau roi....\nLai bat dau len day cot, chuan bi cho dot giao luu sap toi. Dot nay chac se met hon, vi ngoai bieu dien ra, may chi em cung hoi ru nhau kinh doanh ti. Ma thuong truong la chien truong ma... Kha kha, khong biet se dien bien ra sao nhi? Ban nao o gan den ung ho trai KIFA va an mon an truyen thong Pho VN nhe.\nHy vong anh em trong hoi se dang ky duoc 1 trai o truong RIT, lam vu nay moi co loi day.\nCuoi thang 11, lai huong dan 1 vai em nho lam mon Namaharumaki, khong biet co ra gi khong nhi, khi phai cuon toi 100 cai. Hy vong tat ca moi thu deu on.\n\nChuc ngu ngon thoi nao...","created_time":"2013-09-22T13:21:22+0000","updated_time":"2013-09-22T13:23:35+0000","likes":{"data":{"1416265619":{"id":"1416265619","name":"Starwar Bbj"},"100001416272263":{"id":"100001416272263","name":"Mai PB"},"100002508122689":{"id":"100002508122689","name":"Vũ Mạnh Tuấn"},"100004033186653":{"id":"100004033186653","name":"Uzu Vongola Jump"},"100005326598672":{"id":"100005326598672","name":"Duong Duong"},"100001479894331":{"id":"100001479894331","name":"Diệu Nguyễn"}},"paging":{"cursors":{"after":"MTQxNjI2NTYxOQ==","before":"MTQxNjI2NTYxOQ=="},"next":"https://graph.facebook.com/229244010425617_725854844097862/likes?limit=1&summary=1&after=MTQxNjI2NTYxOQ%3D%3D"},"summary":{"total_count":6}},"comments":{"data":{"725855607431119":{"id":"725855607431119","from":{"id":"100001416272263","name":"Mai PB"},"message":"Vu Thi Man: http://www.unikey.org/bdownload.php","message_tags":[{"id":"100000687662713","name":"Vu Thi Man","type":"user","offset":0,"length":10}],"can_remove":false,"created_time":"2013-09-22T13:23:35+0000","like_count":3,"user_likes":false}},"paging":{"cursors":{"after":"NzI1ODU1NjA3NDMxMTE5","before":"NzI1ODU1NjA3NDMxMTE5"}},"summary":{"order":"chronological","total_count":2}}}