{"id":"229244010425617_725828590767154","type":"photo","object_id":"577050769018794","picture":"https://fbcdn-photos-c-a.akamaihd.net/hphotos-ak-ash3/t1.0-0/1231646_577050769018794_581948082_s.jpg","link":"https://www.facebook.com/photo.php?fbid=577050769018794&set=pcb.725828590767154&type=1&relevant_count=2","from":{"id":"100001416272263","name":"Mai PB"},"message":"秋 Aki, là gì? Không đơn thuần là mùa thu đâu.\n\n食欲の秋 mùa thu của ẩm thực\n読書の秋 mùa thu của đọc sách\n運動の秋・運動会の秋・スポーツの秋 mùa thu của vận động / hội khỏe / thể thao\n芸術の秋 mùa thu của nghệ thuật\n行楽の秋・観光の秋 mùa thu của vui chơi / du lịch\n文化祭の秋・ 学園祭の秋 mùa thu của festival / hội trường Đại học\nアニメの秋 mùa thu của anime\n結婚式の秋 mùa thu của các lễ cưới\n友情の秋 mùa thu của tình bạn\n\nもちろん、紅葉狩りの秋でしょう。 Đương nhiên là mùa thu \"săn\" lá đỏ rồi.\n\nあなたの「○○○の秋」を教えてください Mùa thu của bạn là gì?","created_time":"2013-09-22T12:33:05+0000","updated_time":"2013-09-27T13:18:27+0000","likes":{"data":{"100001298890643":{"id":"100001298890643","name":"Dinh Tung"},"100000359762118":{"id":"100000359762118","name":"Mi Tra"},"745565751":{"id":"745565751","name":"Tuyen Hoang Thi"},"100000111767260":{"id":"100000111767260","name":"Shiori Shiomiya"},"100000284487802":{"id":"100000284487802","name":"Buu Lam Gia"},"100003173058715":{"id":"100003173058715","name":"Đinh Hương Tử"},"100004041794244":{"id":"100004041794244","name":"Watanuki Kimihiro"},"100004028173069":{"id":"100004028173069","name":"Jin Ngốc"},"100003320012955":{"id":"100003320012955","name":"Ông Dâm Pụt"},"100004923553810":{"id":"100004923553810","name":"Xuan KY Nguyen"},"100004514621076":{"id":"100004514621076","name":"Hason Angle"},"1254412774":{"id":"1254412774","name":"Ha Thi Linh Huong"},"100005801442456":{"id":"100005801442456","name":"An Nguyen"},"100004477292126":{"id":"100004477292126","name":"Kien Xinh Doan"},"100003229549416":{"id":"100003229549416","name":"Ku Bin"},"100000299798248":{"id":"100000299798248","name":"Vẹt Đêm"},"100006387723695":{"id":"100006387723695","name":"Hoa Minh"},"100004253979918":{"id":"100004253979918","name":"Louis Hoàng Văn Thái"},"100003617633569":{"id":"100003617633569","name":"Van Anh Nguyen"},"100003846433926":{"id":"100003846433926","name":"Người Con Của Rừng"},"100000922232765":{"id":"100000922232765","name":"Ca Duoi"},"100002093975536":{"id":"100002093975536","name":"Thùy Trang Nguyễn"},"100001051668011":{"id":"100001051668011","name":"Mạnh Hùng"},"100004672236926":{"id":"100004672236926","name":"Văn Khẩn"},"100004094371699":{"id":"100004094371699","name":"Hoàng Bá Phương"},"100003102655084":{"id":"100003102655084","name":"Cô Gái Xứ Dừa"},"100003005597243":{"id":"100003005597243","name":"Zany Royal"},"1743323104":{"id":"1743323104","name":"Le Trung Thanh"},"100001727857917":{"id":"100001727857917","name":"Bui Duyen"},"1308881663":{"id":"1308881663","name":"Nguyễn Đình Lộc"},"1146680551":{"id":"1146680551","name":"優しい なぁ"},"1845000884":{"id":"1845000884","name":"Trieu Thi Kieu Oanh"},"657157297":{"id":"657157297","name":"Phan Dien"},"100001723862714":{"id":"100001723862714","name":"Bo Bien Vang"},"100000226646981":{"id":"100000226646981","name":"My Nguyen"},"100003683390259":{"id":"100003683390259","name":"Huệ Hoàng"},"100004123327271":{"id":"100004123327271","name":"Nguyễn Phương"},"100002059771738":{"id":"100002059771738","name":"Yen Hai"},"100001199506063":{"id":"100001199506063","name":"Nguyễn Anh"},"100003702043787":{"id":"100003702043787","name":"Hằng Hanu"},"620134445":{"id":"620134445","name":"Anh Do"},"100000603915176":{"id":"100000603915176","name":"悪いな ぁ"},"1114300791":{"id":"1114300791","name":"Tra Mi"},"100001703216050":{"id":"100001703216050","name":"Anh Tuan"},"100001216203214":{"id":"100001216203214","name":"Lala Rita"},"100003231761385":{"id":"100003231761385","name":"Chả Biết Gì"},"100004965272241":{"id":"100004965272241","name":"Cỏ Nhỏ"},"100000073848158":{"id":"100000073848158","name":"Hoàng Đắc"},"100001754136107":{"id":"100001754136107","name":"Nguyễn Tuấn Vũ"},"100004478832761":{"id":"100004478832761","name":"Thiên Trang"},"100003332255834":{"id":"100003332255834","name":"Nhung Ai Haibara"},"100002510566830":{"id":"100002510566830","name":"Thanh Trang"},"100003755289414":{"id":"100003755289414","name":"Unsozack"},"100006558942298":{"id":"100006558942298","name":"雪子"},"100002508122689":{"id":"100002508122689","name":"Vũ Mạnh Tuấn"},"100001458099624":{"id":"100001458099624","name":"Kham Pha"}},"paging":{"cursors":{"after":"MTAwMDAxMjk4ODkwNjQz","before":"MTAwMDAxMjk4ODkwNjQz"},"next":"https://graph.facebook.com/229244010425617_725828590767154/likes?limit=1&summary=1&after=MTAwMDAxMjk4ODkwNjQz"},"summary":{"total_count":56}},"comments":{"data":{"725939140756099":{"id":"725939140756099","from":{"id":"100004617871532","name":"Tran Luong Cam Tu"},"message":"恋の秋なああ。","can_remove":false,"created_time":"2013-09-22T15:18:38+0000","like_count":2,"user_likes":false},"726299600720053":{"id":"726299600720053","from":{"id":"100002493819706","name":"Giang Nguyen"},"message":"結婚式の秋","can_remove":false,"created_time":"2013-09-23T00:51:38+0000","like_count":0,"user_likes":false},"726330320716981":{"id":"726330320716981","from":{"id":"100004672236926","name":"Văn Khẩn"},"message":"愁える","can_remove":false,"created_time":"2013-09-23T02:24:04+0000","like_count":0,"user_likes":false},"726482060701807":{"id":"726482060701807","from":{"id":"100001416272263","name":"Mai PB"},"message":"Vì sao Van Khan?","message_tags":[{"id":"100004672236926","name":"Van Khan","type":"user","offset":7,"length":8}],"can_remove":false,"created_time":"2013-09-23T07:48:16+0000","like_count":0,"user_likes":false},"726672754016071":{"id":"726672754016071","from":{"id":"100001416272263","name":"Mai PB"},"message":"Vậy xem comment của Jasmine Garden ở trên nhé, Van Khan","message_tags":[{"id":"100004617871532","name":"Jasmine Garden","type":"user","offset":20,"length":14},{"id":"100004672236926","name":"Van Khan","type":"user","offset":47,"length":8}],"can_remove":false,"created_time":"2013-09-23T13:36:21+0000","like_count":0,"user_likes":false},"726674210682592":{"id":"726674210682592","from":{"id":"100004672236926","name":"Văn Khẩn"},"message":"Vang a! E hieu roi a! Cam on anh nha! Ma tieg cua e con kem lam e chi vao hoc hoi them thoi anh a","can_remove":false,"created_time":"2013-09-23T13:39:42+0000","like_count":1,"user_likes":false},"726791760670837":{"id":"726791760670837","from":{"id":"100004672236926","name":"Văn Khẩn"},"message":"Anh oi nhug ma e noi 愁いの 秋 thi. Van duoc ma dung ko anh","can_remove":false,"created_time":"2013-09-23T16:11:08+0000","like_count":0,"user_likes":false},"726792254004121":{"id":"726792254004121","from":{"id":"100001416272263","name":"Mai PB"},"message":":-D thế là chưa hiểu gì rồi. Em có nói gì sai đâu, anh chỉ bảo để giải quyết nỗi niềm của em thì tham khảo comment kia thôi.","can_remove":false,"created_time":"2013-09-23T16:12:41+0000","like_count":1,"user_likes":false},"726794557337224":{"id":"726794557337224","from":{"id":"100004672236926","name":"Văn Khẩn"},"message":"Hjhjjj cug cha biet duoc sao ah a??? Hjhjh vay a anh e cam on ah nha! Hjh","can_remove":false,"created_time":"2013-09-23T16:15:26+0000","like_count":0,"user_likes":false},"728738823809464":{"id":"728738823809464","from":{"id":"100001416272263","name":"Mai PB"},"message":"Ở trên mình có viết về 学園祭. Nay giải thích thêm, đây là các lễ hội của trường ĐH. Hiện giờ cũng đã lác đác được tổ chức rồi, nhưng cao điểm là tháng 10, 11. Các lễ hội này rất vui nhộn (theo ý chủ quan thì hay hơn nhiều lễ hội Việt Nam Festival), do sinh viên tự điều hành, tổ chức, biểu diễn. Có nhiều trường tổ chức thi Hoa Hậu Hoa Nam, trường nào cũng mời các nhân vật nổi tiếng trong giới giải trí đến biểu diễn. Mọi người định thi vào trường nào thì vào trang web của trường xem lịch rồi đi thử nhé. Các trường nổi tiếng như Keio, Waseda, Todai, Tsukuba ... thì thôi rồi.  :-) Đây là cũng là dịp để ngắm khuôn viên đẹp đẽ của các trường nữa.","can_remove":false,"created_time":"2013-09-27T12:52:12+0000","like_count":0,"user_likes":false},"728750893808257":{"id":"728750893808257","from":{"id":"100000359762118","name":"Mi Tra"},"message":"Sáng nay em cũng mới nghĩ về điều này. Đang suy nghĩ và tìm câu trả lời cho mùa thu năm nay của mình ^^","can_remove":false,"created_time":"2013-09-27T13:18:27+0000","like_count":1,"user_likes":false}},"paging":{"cursors":{"after":"NzI1OTM5MTQwNzU2MDk5","before":"NzI1OTM5MTQwNzU2MDk5"},"next":"https://graph.facebook.com/229244010425617_725828590767154/comments?limit=1&summary=1&after=NzI1OTM5MTQwNzU2MDk5"},"summary":{"order":"chronological","total_count":11}}}