{"id":"229244010425617_725976884085658","type":"status","from":{"id":"100001508739620","name":"Lê Ngọc Hoàn"},"message":"Lại xin hỏi ace trong group 1 câu :D\nLựa chọn phương án thích hợp và giải thích lý do vì sao?\nF: 田中さんの頼むなら、聞かないわけにはいかないでしょう。\nM: １．そう言わずに、なんとかお願いします。\n　　２．いえ、たまに聞くこともありますよ。\n　　３．ありがとうございます。よろしくお願いします。","created_time":"2013-09-22T15:49:00+0000","updated_time":"2013-09-23T06:47:00+0000","likes":{"data":{"100005915713419":{"id":"100005915713419","name":"Hà TaNoshii"},"100000027754899":{"id":"100000027754899","name":"Hoang Van Ba"}},"paging":{"cursors":{"after":"MTAwMDA1OTE1NzEzNDE5","before":"MTAwMDA1OTE1NzEzNDE5"},"next":"https://graph.facebook.com/229244010425617_725976884085658/likes?limit=1&summary=1&after=MTAwMDA1OTE1NzEzNDE5"},"summary":{"total_count":2}},"comments":{"data":{"725978480752165":{"id":"725978480752165","from":{"id":"100000027754899","name":"Hoang Van Ba"},"message":"2 \nNhưng trước đt 頼む lại là の ah\nVà いいえ、chứ ko phải いえ、(^_^)","can_remove":false,"created_time":"2013-09-22T15:53:10+0000","like_count":0,"user_likes":false},"725979384085408":{"id":"725979384085408","from":{"id":"100001508739620","name":"Lê Ngọc Hoàn"},"message":"ah sr, cái đấy là 頼み　:D\nCái sau là いえko phải いいえ nhé","can_remove":false,"created_time":"2013-09-22T15:54:34+0000","like_count":1,"user_likes":false},"725980890751924":{"id":"725980890751924","from":{"id":"100001416272263","name":"Mai PB"},"message":"Đưa câu trả lời thì dễ thôi nhưng Lê Ngọc Hoàn phải nói vì sao không hiểu thì mới phân tích được.","message_tags":[{"id":"100001508739620","name":"Lê Ngọc Hoàn","type":"user","offset":34,"length":12}],"can_remove":false,"created_time":"2013-09-22T15:58:22+0000","like_count":0,"user_likes":false},"725983007418379":{"id":"725983007418379","from":{"id":"100001508739620","name":"Lê Ngọc Hoàn"},"message":"E đang phân vân câu 1 vs 3 ko biết cái nào phù hợp với câu này\nP/s: a có thể giải thích cho e cái なんとか là gì, dùng ntnao ko?","can_remove":false,"created_time":"2013-09-22T16:01:53+0000","like_count":1,"user_likes":false},"726003334083013":{"id":"726003334083013","from":{"id":"1400326262","name":"Matsumoto Soutarou"},"message":"câu 1 có vẻ \"lịch sự\" hơn nhỉ","can_remove":false,"created_time":"2013-09-22T16:14:12+0000","like_count":0,"user_likes":false},"726010614082285":{"id":"726010614082285","from":{"id":"100001416272263","name":"Mai PB"},"message":"なんとか: thế nào đó, một chút cũng được (ý là khẩn khoản)","can_remove":false,"created_time":"2013-09-22T16:18:32+0000","like_count":0,"user_likes":false},"726011864082160":{"id":"726011864082160","from":{"id":"100001416272263","name":"Mai PB"},"message":"Mình nghĩ là Lê Ngọc Hoàn chưa hoàn toàn hiểu đáp án câu hỏi lần trước nên mới hỏi băn khoăn 1 và 3 ở đây. Bạn xem lại câu lần trước xem.\nhttps://www.facebook.com/groups/CongdongVietNhat/permalink/718403411509672/","message_tags":[{"id":"100001508739620","name":"Lê Ngọc Hoàn","type":"user","offset":13,"length":12}],"can_remove":false,"created_time":"2013-09-22T16:21:15+0000","like_count":0,"user_likes":false},"726013067415373":{"id":"726013067415373","from":{"id":"100001508739620","name":"Lê Ngọc Hoàn"},"message":"Sao a lại nghĩ thế?","can_remove":false,"created_time":"2013-09-22T16:23:01+0000","like_count":0,"user_likes":false},"726013297415350":{"id":"726013297415350","from":{"id":"100001416272263","name":"Mai PB"},"message":"Là vì 2 câu hỏi này giống nhau về cách cần trả lời","can_remove":false,"created_time":"2013-09-22T16:23:46+0000","like_count":0,"user_likes":false},"726013620748651":{"id":"726013620748651","from":{"id":"100001508739620","name":"Lê Ngọc Hoàn"},"message":"Đúng là giống nhau về cách cần trả lời, nhưng quan trọng câu nào phù hợp hơn trong hoàn cảnh này?","can_remove":false,"created_time":"2013-09-22T16:24:31+0000","like_count":0,"user_likes":false},"726015110748502":{"id":"726015110748502","from":{"id":"100001416272263","name":"Mai PB"},"message":"Vậy trong bài lần trước tại sao không phải câu trả lời là 2 mà là 1?","can_remove":false,"created_time":"2013-09-22T16:28:27+0000","like_count":0,"user_likes":false},"726017257414954":{"id":"726017257414954","from":{"id":"100001416272263","name":"Mai PB"},"message":"Thôi mình đi ngủ nhé. Câu trả lời là 3","can_remove":false,"created_time":"2013-09-22T16:34:02+0000","like_count":1,"user_likes":false},"726017277414952":{"id":"726017277414952","from":{"id":"100001508739620","name":"Lê Ngọc Hoàn"},"message":"Câu đấy e nghĩ là M động viên F bằng cách sẽ cổ vũ cho F hay hơn là việc bảo nó cố gắng hơn nữa (kiểu như muốn nói F chưa thực sự cố gắng vào lần trc đó).\nP/s: Thực sự ý a ở đây là gì? Chắc ko phải định bảo e là mày phải đi tìm hiểu thêm văn hóa của bọn Nhật trước đi chứ?","can_remove":false,"created_time":"2013-09-22T16:34:07+0000","like_count":0,"user_likes":false},"726019197414760":{"id":"726019197414760","from":{"id":"100001416272263","name":"Mai PB"},"message":"Liên quan gì đến văn hóa đâu. Câu quan trọng ở đây là \"そういわずに\". Ở câu hỏi trước, F bảo sẽ cố gắng, đương nhiên M trả lời \"đừng nói thế\" là không thích hợp.\nỞ câu hỏi này, F bảo \"đương nhiên sẽ làm cho cậu\" rồi, thì M còn nói câu \"đừng nói thế\" sao được nữa.","can_remove":false,"created_time":"2013-09-22T16:38:32+0000","like_count":0,"user_likes":false},"726020344081312":{"id":"726020344081312","from":{"id":"100001508739620","name":"Lê Ngọc Hoàn"},"message":"Sao lại ko đc a? F bảo thế như kiểu là luôn sẵn sàng làm cho M bất cứ cái j. M nghe thế cảm giác có vẻ hơi nặng nề nên nó có thể bảo \"đừng nói thế\" chứ a?","can_remove":false,"created_time":"2013-09-22T16:41:30+0000","like_count":1,"user_likes":false},"726087827407897":{"id":"726087827407897","from":{"id":"1845000884","name":"Trieu Thi Kieu Oanh"},"message":"E k co n1 ve tieng nhat nhung doc cau nay e thay dap an chi co the la 3. \nLi do:\nDap an 1: \"何とか\" duoc su dung k dung cho. Vi cau noi cua F The hien ro: neu ma la tanaka  nho va thi  toi khong the nao ma tu choi duoc . ( thai do cua F: dang tan tinh M) \nVay nen cau tra loi:  giup do 1chut cung dc ma  …～…～ la k chap nhan duoc.\nDap an 2: sai thang cang …～…～ k ban cai.\nDap an 3: (*^^*)vay thi nho cay vao anh do. Hi' hi' hi'\n\nDay la suy nghi cua rieng e. Anh Mai PB cho y kien voi a","can_remove":false,"created_time":"2013-09-22T19:05:34+0000","like_count":2,"user_likes":false},"726103820739631":{"id":"726103820739631","from":{"id":"100000027754899","name":"Hoang Van Ba"},"message":"2\nSai bét :) \nわりーな(^_^)","can_remove":false,"created_time":"2013-09-22T19:24:44+0000","like_count":0,"user_likes":false},"726262194057127":{"id":"726262194057127","from":{"id":"100000687662713","name":"Vu Thi Man"},"message":"Mình cũng chọn 3. Cái này chọn theo đúng nghĩa câu văn thôi, k có gì đặc biệt cả.","can_remove":false,"created_time":"2013-09-22T23:12:40+0000","like_count":1,"user_likes":false},"726353014048045":{"id":"726353014048045","from":{"id":"100001416272263","name":"Mai PB"},"message":"Lê Ngọc Hoàn そう言わず không phải là câu từ chối lấy lệ cho bớt nặng nề gì đó như bạn nghĩ đâu. Nhất là trong thi cử thì yếu tố \"văn hóa\" tức là dễ gây hiểu lầm hầu như không có đâu. Nghĩa của nó là \"đừng nói thế mà/chứ, hãy làm .... đi\". Như câu 1 thì chỉ có thể hiểu là \"đừng nói thế mà, cố giúp tôi đi\". Còn lại thì như  mấy bạn trên nói rồi đó, nghĩa không có gì khó hiểu cả, đơn giản là 3 thôi.","message_tags":[{"id":"100001508739620","name":"Lê Ngọc Hoàn","type":"user","offset":0,"length":12}],"can_remove":false,"created_time":"2013-09-23T03:36:52+0000","like_count":1,"user_likes":false},"726397547376925":{"id":"726397547376925","from":{"id":"100001508739620","name":"Lê Ngọc Hoàn"},"message":"Xin cảm ơn mọi ng đã giải đáp thắc mắc :)","can_remove":false,"created_time":"2013-09-23T04:41:15+0000","like_count":0,"user_likes":false},"726466670703346":{"id":"726466670703346","from":{"id":"100001458099624","name":"Kham Pha"},"message":"Mà sao hết F,M lại có cả 田中さん. Như thế cảm giác như có 3 người ấy.","can_remove":false,"created_time":"2013-09-23T06:47:00+0000","like_count":0,"user_likes":false}},"paging":{"cursors":{"after":"NzI1OTc4NDgwNzUyMTY1","before":"NzI1OTc4NDgwNzUyMTY1"},"next":"https://graph.facebook.com/229244010425617_725976884085658/comments?limit=1&summary=1&after=NzI1OTc4NDgwNzUyMTY1"},"summary":{"order":"chronological","total_count":21}}}