{"id":"229244010425617_726469010703112","type":"status","from":{"id":"100004251279517","name":"Việt Nam Nhật Bản"},"message":"các bạn các anh chị em ở bên Nhật cho mình hỏi cái 地域共同開発研究センター là cái trung tâm dùng để làm gì được không ạ? dịch chả ra cái chữ 地域共同 để ghép với 開発研究センター","created_time":"2013-09-23T06:59:49+0000","updated_time":"2013-09-26T14:53:11+0000","comments":{"data":{"726472394036107":{"id":"726472394036107","from":{"id":"100001416272263","name":"Mai PB"},"message":"\"本センターは、大学が地域社会や民間企業等と連携し、共同研究の推進や技術相談、人材育成などを通じて社会との交流を深め、また優れた研究成果が生まれることを推進するための拠点でもあります。\"\nhttp://www.crc.shinshu-u.ac.jp/","can_remove":false,"created_time":"2013-09-23T07:15:10+0000","like_count":1,"user_likes":false},"726473377369342":{"id":"726473377369342","from":{"id":"100004251279517","name":"Việt Nam Nhật Bản"},"message":"anh oi, o VN co cai nay ko","can_remove":false,"created_time":"2013-09-23T07:20:39+0000","like_count":0,"user_likes":false},"726474494035897":{"id":"726474494035897","from":{"id":"100001416272263","name":"Mai PB"},"message":"Trung tâm nghiên cứu hợp tác với địa phương/thành phố gì đó, có lẽ có. Hỏi dân Bách Khoa xem","can_remove":false,"created_time":"2013-09-23T07:27:35+0000","like_count":1,"user_likes":false},"726477857368894":{"id":"726477857368894","from":{"id":"100000205616258","name":"Đoàn Bắc"},"message":"trung tâm nghiêm cứu phát triển liên hiệp khu vực","can_remove":false,"created_time":"2013-09-23T07:33:47+0000","like_count":0,"user_likes":false},"726479267368753":{"id":"726479267368753","from":{"id":"100004251279517","name":"Việt Nam Nhật Bản"},"message":"nghe có vẻ việt nam ko có rồi","can_remove":false,"created_time":"2013-09-23T07:36:44+0000","like_count":0,"user_likes":false},"726480224035324":{"id":"726480224035324","from":{"id":"100001416272263","name":"Mai PB"},"message":"Nếu có thì chắc ĐH VN đã lên hạng trong khu vực","can_remove":false,"created_time":"2013-09-23T07:41:54+0000","like_count":2,"user_likes":false},"727457243937622":{"id":"727457243937622","from":{"id":"1845000884","name":"Trieu Thi Kieu Oanh"},"message":"cha le lai la \" Trung tam nghien cuu phat trien cac nuoc trong khu vuc\" ......nghe cu kieu gi ay nhi","can_remove":false,"created_time":"2013-09-24T18:39:05+0000","like_count":0,"user_likes":false},"727802540569759":{"id":"727802540569759","from":{"id":"100001416272263","name":"Mai PB"},"message":"地域 là địa phương (local). Ở đây là địa phương mà trung tâm đó có địa chỉ. Không phải các nước nào cả đâu, Trieu Thi Kieu Oanh.","message_tags":[{"id":"1845000884","name":"Trieu Thi Kieu Oanh","type":"user","offset":106,"length":19}],"can_remove":false,"created_time":"2013-09-25T13:06:15+0000","like_count":2,"user_likes":false},"728140073869339":{"id":"728140073869339","from":{"id":"100000381394367","name":"Thành Nguyễn"},"message":"Cooperative Research and Development Center","can_remove":false,"created_time":"2013-09-26T05:14:39+0000","like_count":1,"user_likes":false},"728297800520233":{"id":"728297800520233","from":{"id":"100004251279517","name":"Việt Nam Nhật Bản"},"message":"mình rất dốt t.anh","can_remove":false,"created_time":"2013-09-26T14:28:37+0000","like_count":0,"user_likes":false},"728307250519288":{"id":"728307250519288","from":{"id":"1845000884","name":"Trieu Thi Kieu Oanh"},"message":"Cai nay,con tuy vao van canh nua ma.","can_remove":false,"created_time":"2013-09-26T14:53:11+0000","like_count":0,"user_likes":false}},"paging":{"cursors":{"after":"NzI2NDcyMzk0MDM2MTA3","before":"NzI2NDcyMzk0MDM2MTA3"},"next":"https://graph.facebook.com/229244010425617_726469010703112/comments?limit=1&summary=1&after=NzI2NDcyMzk0MDM2MTA3"},"summary":{"order":"chronological","total_count":11}},"likes":{"data":[]}}