{"id":"229244010425617_726482107368469","type":"status","from":{"id":"1146680551","name":"優しい なぁ"},"message":"Mình đang muốn mua chiếc xe máy loại 50cc.các bác biết thủ tục,cách mua,mua ở đâu ntn tư vấn e với","created_time":"2013-09-23T07:48:40+0000","updated_time":"2013-09-25T23:06:18+0000","comments":{"data":{"726482407368439":{"id":"726482407368439","from":{"id":"100001416272263","name":"Mai PB"},"message":"Có bằng chưa?","can_remove":false,"created_time":"2013-09-23T07:50:02+0000","like_count":0,"user_likes":false},"726482897368390":{"id":"726482897368390","from":{"id":"1146680551","name":"優しい なぁ"},"message":"Bằng ở nhật thì chưa đại ca ơi","can_remove":false,"created_time":"2013-09-23T07:52:08+0000","like_count":0,"user_likes":false},"726484914034855":{"id":"726484914034855","from":{"id":"100001416272263","name":"Mai PB"},"message":"Mua sách học lấy bằng 原付き (gentsuki) đã, dễ thôi, thi mất 2 man. Mua xe thì lên mạng mua","can_remove":false,"created_time":"2013-09-23T07:59:10+0000","like_count":1,"user_likes":false},"727456667271013":{"id":"727456667271013","from":{"id":"1845000884","name":"Trieu Thi Kieu Oanh"},"message":"cho e hoi hoc lay bang oto thi tnao a?","can_remove":false,"created_time":"2013-09-24T18:37:11+0000","like_count":0,"user_likes":false},"727575657259114":{"id":"727575657259114","from":{"id":"100004672236926","name":"Văn Khẩn"},"message":"Anh oi sach do ban o dau anh? Va  muon chuyen bag tu viet nam qua co duoc khong ha anh? Ca bag oto va xe may a ???","can_remove":false,"created_time":"2013-09-25T00:00:08+0000","like_count":0,"user_likes":false},"727803423903004":{"id":"727803423903004","from":{"id":"100001416272263","name":"Mai PB"},"message":"Trieu Thi Kieu Oanh Van Khan Tham khảo ở đây, nhưng tốt nhất là đọc thông tin gốc tiếng Nhật. \n\nhttp://wiki.vysajp.org/B%E1%BA%B1ng_l%C3%A1i_xe_m%C3%A1y\n\nhttp://www.echigo.edu.vn/huong-dan-tung-buoc-thuc-hien-thu-tuc-chuyen-doi-bang-lai-xe_p1_1-1_2-1_3-599_4-50_11-35_12-1_13-35.html","message_tags":[{"id":"1845000884","name":"Trieu Thi Kieu Oanh","type":"user","offset":0,"length":19},{"id":"100004672236926","name":"Van Khan","type":"user","offset":20,"length":8}],"can_remove":false,"created_time":"2013-09-25T13:08:34+0000","like_count":2,"user_likes":false},"728028567213823":{"id":"728028567213823","from":{"id":"1845000884","name":"Trieu Thi Kieu Oanh"},"message":"A dung la cuon tu dien song!","can_remove":false,"created_time":"2013-09-25T23:06:18+0000","like_count":0,"user_likes":false}},"paging":{"cursors":{"after":"NzI2NDgyNDA3MzY4NDM5","before":"NzI2NDgyNDA3MzY4NDM5"},"next":"https://graph.facebook.com/229244010425617_726482107368469/comments?limit=1&summary=1&after=NzI2NDgyNDA3MzY4NDM5"},"summary":{"order":"chronological","total_count":7}},"likes":{"data":[]}}