{"id":"229244010425617_726443417372338","type":"status","from":{"id":"100001327275562","name":"Aoki Hagane No Arpeggio"},"message":"Các bạn ơi, cho mình hỏi cái này ạ :\nCâu \"Sợ năm sau mình không thể chúc mừng sinh nhật cho bạn được nên mình chúc trước\" có thể được dịch sang tiếng nhật như thế nào ạ ?","created_time":"2013-09-23T05:26:59+0000","updated_time":"2013-09-23T07:46:01+0000","comments":{"data":{"726451000704913":{"id":"726451000704913","from":{"id":"100001327275562","name":"Aoki Hagane No Arpeggio"},"message":"tại một người bạn của mình sắp sang nhật học mà mình ko biết nói câu này = tiếng nhật ra sao cả nên muốn nhờ giúp đỡ ạ :'(","can_remove":false,"created_time":"2013-09-23T05:33:07+0000","like_count":0,"user_likes":false},"726458620704151":{"id":"726458620704151","from":{"id":"100001458099624","name":"Kham Pha"},"message":"ơ ko chúc mừng qua fb được ah. Năm sau vẫn có fb mà :D","can_remove":false,"created_time":"2013-09-23T06:08:47+0000","like_count":0,"user_likes":false},"726460637370616":{"id":"726460637370616","from":{"id":"100001416272263","name":"Mai PB"},"message":"Chắc gì người bạn đó đã hiểu được tiếng Nhật đó, viết tiếng Việt cho nó tình cảm","can_remove":false,"created_time":"2013-09-23T06:16:23+0000","like_count":2,"user_likes":false},"726473300702683":{"id":"726473300702683","from":{"id":"100001458099624","name":"Kham Pha"},"message":"Anh Mai PB chưa hiểu hết vấn đề rồi. Nếu người bạn kia ko biết tiếng Nhật thì mới hay. Nghệ thuật cả đấy ;))","message_tags":[{"id":"100001416272263","name":"Mai PB","type":"user","offset":4,"length":6}],"can_remove":false,"created_time":"2013-09-23T07:20:13+0000","like_count":1,"user_likes":false},"726480197368660":{"id":"726480197368660","from":{"id":"100000064686295","name":"Huy Roli"},"message":"câu này mà nói ra nghe có vẻ ko vui lắm, mình nghĩ ko nên nói thì hay hơn, cứ đơn giản là chúc mừng sinh nhật sớm cho vui","can_remove":false,"created_time":"2013-09-23T07:41:44+0000","like_count":1,"user_likes":false},"726480580701955":{"id":"726480580701955","from":{"id":"100001416272263","name":"Mai PB"},"message":"Bây giờ thành group tư vấn tình cảm à? :-)","can_remove":false,"created_time":"2013-09-23T07:43:16+0000","like_count":5,"user_likes":false},"726481600701853":{"id":"726481600701853","from":{"id":"1146680551","name":"優しい なぁ"},"message":"Haha a Mai PB","can_remove":false,"created_time":"2013-09-23T07:46:01+0000","like_count":1,"user_likes":false}},"paging":{"cursors":{"after":"NzI2NDUxMDAwNzA0OTEz","before":"NzI2NDUxMDAwNzA0OTEz"},"next":"https://graph.facebook.com/229244010425617_726443417372338/comments?limit=1&summary=1&after=NzI2NDUxMDAwNzA0OTEz"},"summary":{"order":"chronological","total_count":7}},"likes":{"data":[]}}