{"id":"229244010425617_726476977368982","type":"status","from":{"id":"100004079885075","name":"Linhbily Nguyen"},"message":"Có cách nào để học tiếng nhật nhanh hok mọi ngừơi!chỉ dùng e với!thanks","created_time":"2013-09-23T07:30:48+0000","updated_time":"2013-09-24T03:01:03+0000","likes":{"data":{"1431049967":{"id":"1431049967","name":"Nguyen Manh Cuong"},"100004794727976":{"id":"100004794727976","name":"Song Tử"}},"paging":{"cursors":{"after":"MTQzMTA0OTk2Nw==","before":"MTQzMTA0OTk2Nw=="},"next":"https://graph.facebook.com/229244010425617_726476977368982/likes?limit=1&summary=1&after=MTQzMTA0OTk2Nw%3D%3D"},"summary":{"total_count":2}},"comments":{"data":{"726477807368899":{"id":"726477807368899","from":{"id":"100006367084828","name":"Nguyễn Quý Dương"},"message":"tích cực xem phim bạn ơi","can_remove":false,"created_time":"2013-09-23T07:33:28+0000","like_count":0,"user_likes":false},"726478130702200":{"id":"726478130702200","from":{"id":"100004079885075","name":"Linhbily Nguyen"},"message":"pim j cơ!hok đùa dau nhe!","can_remove":false,"created_time":"2013-09-23T07:35:02+0000","like_count":0,"user_likes":false},"726479584035388":{"id":"726479584035388","from":{"id":"100000969905909","name":"Shady Su"},"message":"dung' la` nen xem nhieu` phim day'","can_remove":false,"created_time":"2013-09-23T07:38:23+0000","like_count":0,"user_likes":false},"726479817368698":{"id":"726479817368698","from":{"id":"100004079885075","name":"Linhbily Nguyen"},"message":"ak!pim của nhat!vi du nhu :doremon.","can_remove":false,"created_time":"2013-09-23T07:39:50+0000","like_count":0,"user_likes":false},"726480397368640":{"id":"726480397368640","from":{"id":"100000064686295","name":"Huy Roli"},"message":"học nhanh thì dễ lắm, nhưng nhớ nhanh thì do bộ não của từng người","can_remove":false,"created_time":"2013-09-23T07:42:28+0000","like_count":0,"user_likes":false},"726480494035297":{"id":"726480494035297","from":{"id":"1659470191","name":"Hằng Thu Trần"},"message":"bạn nên học tiếng Việt cho sõi đã -_-","can_remove":false,"created_time":"2013-09-23T07:42:57+0000","like_count":0,"user_likes":false},"726480584035288":{"id":"726480584035288","from":{"id":"100000969905909","name":"Shady Su"},"message":"Nên hoàn thiện tiếng Việt đi đã","can_remove":false,"created_time":"2013-09-23T07:43:16+0000","like_count":1,"user_likes":false},"726481080701905":{"id":"726481080701905","from":{"id":"100004079885075","name":"Linhbily Nguyen"},"message":"Tieng vjet hok can pai hoc moa!mk paj hoc tieng nhat sag do con giao tiep dc chu!","can_remove":false,"created_time":"2013-09-23T07:44:45+0000","like_count":0,"user_likes":false},"726481637368516":{"id":"726481637368516","from":{"id":"100000064686295","name":"Huy Roli"},"message":"Tieng vjet hok can pai hoc moa!mk paj hoc tieng nhat sag do con giao tiep dc chu! ---> viết tiếng gì đấy","can_remove":false,"created_time":"2013-09-23T07:46:15+0000","like_count":2,"user_likes":false},"726481640701849":{"id":"726481640701849","from":{"id":"1659470191","name":"Hằng Thu Trần"},"message":"tiếng mẹ đẻ chưa sõi thì sao mà học được tiếng Nhật -_- mà chữ ph nó khác chữ p bạn nhé -_-","can_remove":false,"created_time":"2013-09-23T07:46:16+0000","like_count":1,"user_likes":false},"726481907368489":{"id":"726481907368489","from":{"id":"100004079885075","name":"Linhbily Nguyen"},"message":"moi ng thong cảm!viet vay cho nhanh!hị","can_remove":false,"created_time":"2013-09-23T07:47:38+0000","like_count":0,"user_likes":false},"726483134035033":{"id":"726483134035033","from":{"id":"1659470191","name":"Hằng Thu Trần"},"message":"tôn trọng sự trong sáng của tiếng Việt chút bạn ạ -_- học nhanh thì bạn có thể ra mấy trung tâm đăng kí học nhanh. Ngoài ra thì bạn học ở nhà nữa. Chăm thì mới nhanh được vì tiếng Nhật không phải là dễ bạn à :3","can_remove":false,"created_time":"2013-09-23T07:52:54+0000","like_count":0,"user_likes":false},"726484810701532":{"id":"726484810701532","from":{"id":"100002724611926","name":"To Bee"},"message":"Bạn có thể liên hệ với doremon theo sdt: +818099099909.... Để đặt mua ít \"bánh mỳ trí nhớ\"  vê chỉ việc ăn là nhớ thôi! Chúc bạn may mắn thay vì ngồi đây hỏi xem làm sao để học tốt nha!","can_remove":false,"created_time":"2013-09-23T07:58:44+0000","like_count":0,"user_likes":false},"726485090701504":{"id":"726485090701504","from":{"id":"100004079885075","name":"Linhbily Nguyen"},"message":"hị!","can_remove":false,"created_time":"2013-09-23T08:00:02+0000","like_count":0,"user_likes":false},"726517240698289":{"id":"726517240698289","from":{"id":"100005904761637","name":"Ken"},"message":"Xem Ninja Loan thi ban tieng nhat co vietsub ay","can_remove":false,"created_time":"2013-09-23T08:27:52+0000","like_count":1,"user_likes":false},"726534670696546":{"id":"726534670696546","from":{"id":"1431049967","name":"Nguyen Manh Cuong"},"message":"Sang Nhật sống 3 tháng là giao tiếp tốt :v","can_remove":false,"created_time":"2013-09-23T09:22:12+0000","like_count":0,"user_likes":false},"726536180696395":{"id":"726536180696395","from":{"id":"100000064686295","name":"Huy Roli"},"message":"Điêu","can_remove":false,"created_time":"2013-09-23T09:26:04+0000","like_count":0,"user_likes":false},"726582820691731":{"id":"726582820691731","from":{"id":"100004079885075","name":"Linhbily Nguyen"},"message":"oh!the sau naj e sag 3 nam thj noi nhu gió ak a Nguyen Manh Cuong","can_remove":false,"created_time":"2013-09-23T10:39:06+0000","like_count":0,"user_likes":false},"726583200691693":{"id":"726583200691693","from":{"id":"100000969905909","name":"Shady Su"},"message":"tinh than` hoc. hoi? , di ra ngoai` nhieu` thi` moi' duoc. vay. , hoac. co' khi chi? biet' noi' boi` thoi , ko phai? la` chinh' xac'","can_remove":false,"created_time":"2013-09-23T10:40:26+0000","like_count":0,"user_likes":false},"726585100691503":{"id":"726585100691503","from":{"id":"100000064686295","name":"Huy Roli"},"message":"Nói như gió nhưng có ai hiểu ko mới là vd","can_remove":false,"created_time":"2013-09-23T10:48:50+0000","like_count":0,"user_likes":false},"726585524024794":{"id":"726585524024794","from":{"id":"100004079885075","name":"Linhbily Nguyen"},"message":"hị","can_remove":false,"created_time":"2013-09-23T10:49:28+0000","like_count":0,"user_likes":false},"726585937358086":{"id":"726585937358086","from":{"id":"100000969905909","name":"Shady Su"},"message":"tốt nhất với cái tiếng khó như tiếng Nhật bạn bắt đầu học và cảm nhận đi , xác định quyết tâm bản thân nữa , chứ hỏi 3 năm sau đc như nào thì vô cùng , tùy 3 năm đấy bạn làm j","can_remove":false,"created_time":"2013-09-23T10:50:34+0000","like_count":1,"user_likes":false},"726586557358024":{"id":"726586557358024","from":{"id":"100004079885075","name":"Linhbily Nguyen"},"message":"ukm!mk bjt r","can_remove":false,"created_time":"2013-09-23T10:52:59+0000","like_count":0,"user_likes":false},"726587460691267":{"id":"726587460691267","from":{"id":"100001416272263","name":"Mai PB"},"message":"Đã xóa comment của Đăng Ninh vì nói bậy. Một lần nữa sẽ bị xóa khỏi nhóm.","message_tags":[{"id":"100003769655241","name":"Đăng Ninh","type":"user","offset":19,"length":9}],"can_remove":false,"created_time":"2013-09-23T10:56:48+0000","like_count":3,"user_likes":false},"726609697355710":{"id":"726609697355710","from":{"id":"100003769655241","name":"Đăng Ninh"},"message":"A nói sự thật.mà.híc.","can_remove":false,"created_time":"2013-09-23T11:51:19+0000","like_count":0,"user_likes":false},"726846587332021":{"id":"726846587332021","from":{"id":"100000289523222","name":"Lệ Giang Ngang Bướng"},"message":"E mới học tiếng Nhật ở vn thôi .1 tuần nữa sẽ bay sang Nhật. Cũng lo lắm. Tiếng Nhật khó quá","can_remove":false,"created_time":"2013-09-23T17:29:49+0000","like_count":0,"user_likes":false},"726873823995964":{"id":"726873823995964","from":{"id":"100006687605750","name":"Reus Marco"},"message":"học cô Maria Ozawa..cô này dạy dễ hiểu lắm","can_remove":false,"created_time":"2013-09-23T18:31:16+0000","like_count":0,"user_likes":false},"727049853978361":{"id":"727049853978361","from":{"id":"100000212162912","name":"Tôi Yêu Nhật Bản"},"message":"Bạn tham khảo những bí quyết ở web này nhé: http://duhoc.viet-sse.vn/2011/08/vuot-qua-noi-kinh-hoang-tieng-nhat-nhu-the-nao","can_remove":false,"created_time":"2013-09-24T02:46:18+0000","like_count":0,"user_likes":false},"727055937311086":{"id":"727055937311086","from":{"id":"100003769655241","name":"Đăng Ninh"},"message":"Le giang Lệ Giang Ngang Bướng chuẩn bị tinh thần đi","message_tags":[{"id":"100000289523222","name":"Lệ Giang Ngang Bướng","type":"user","offset":9,"length":20}],"can_remove":false,"created_time":"2013-09-24T03:01:03+0000","like_count":1,"user_likes":false}},"paging":{"cursors":{"after":"NzI2NDc3ODA3MzY4ODk5","before":"NzI2NDc3ODA3MzY4ODk5"},"next":"https://graph.facebook.com/229244010425617_726476977368982/comments?limit=1&summary=1&after=NzI2NDc3ODA3MzY4ODk5"},"summary":{"order":"chronological","total_count":29}}}