{"id":"229244010425617_726686447348035","type":"status","from":{"id":"100005377474696","name":"Kien Nguyen"},"message":"Moi nguoi oi! Cho minh hoi chut nhe!\nTu nghiep sinh khi het han hop dong ve nuoc thi duoc huong nhung khoan tien gi?\nAi biet tra loi giup nhe! Cam on nhieu.","created_time":"2013-09-23T14:07:36+0000","updated_time":"2013-09-23T14:14:21+0000","comments":{"data":{"726687487347931":{"id":"726687487347931","from":{"id":"100000030073288","name":"Thanh Danh Tran"},"message":"Kien Nguyen viết có unikey đi bạn :)","message_tags":[{"id":"100005377474696","name":"Kien Nguyen","type":"user","offset":0,"length":11}],"can_remove":false,"created_time":"2013-09-23T14:09:29+0000","like_count":0,"user_likes":false},"726687997347880":{"id":"726687997347880","from":{"id":"100004102629198","name":"Sakura Vu"},"message":"Dc huong tien bao hiem 3nam dong o ben do","can_remove":false,"created_time":"2013-09-23T14:10:53+0000","like_count":0,"user_likes":false},"726688160681197":{"id":"726688160681197","from":{"id":"100004102629198","name":"Sakura Vu"},"message":"Va tien dat coc inh dc lay lai","can_remove":false,"created_time":"2013-09-23T14:11:20+0000","like_count":0,"user_likes":false},"726688334014513":{"id":"726688334014513","from":{"id":"100005377474696","name":"Kien Nguyen"},"message":"Thanh Danh Tran ah! May minh ko co unikey","can_remove":false,"created_time":"2013-09-23T14:12:06+0000","like_count":0,"user_likes":false},"726688660681147":{"id":"726688660681147","from":{"id":"100005377474696","name":"Kien Nguyen"},"message":"Co ai biet them ve tien nghi phep ko?","can_remove":false,"created_time":"2013-09-23T14:13:00+0000","like_count":0,"user_likes":false},"726689304014416":{"id":"726689304014416","from":{"id":"100000030073288","name":"Thanh Danh Tran"},"message":"ah vậy down về đi bạn, ko có lâu đâu, dễ hiểu người khác sẽ dễ trả lời câu hỏi của bạn ^^","can_remove":false,"created_time":"2013-09-23T14:14:18+0000","like_count":0,"user_likes":false},"726689317347748":{"id":"726689317347748","from":{"id":"100000030073288","name":"Thanh Danh Tran"},"message":"http://www.download.com.vn/timkiem/unikey/index.aspx","can_remove":false,"created_time":"2013-09-23T14:14:21+0000","like_count":0,"user_likes":false}},"paging":{"cursors":{"after":"NzI2Njg3NDg3MzQ3OTMx","before":"NzI2Njg3NDg3MzQ3OTMx"},"next":"https://graph.facebook.com/229244010425617_726686447348035/comments?limit=1&summary=1&after=NzI2Njg3NDg3MzQ3OTMx"},"summary":{"order":"chronological","total_count":7}},"likes":{"data":[]}}