{"id":"229244010425617_726688390681174","type":"status","from":{"id":"100000030073288","name":"Thanh Danh Tran"},"message":"-Các Senpai ơi cho em hỏi 1 cái, hiện tại thì em đang học tiếng nhật cũng được 6 tháng hơn roài, chữ Hira và chữ Kata thì em tự tin là thuộc, chỉ còn sượng sượng khi nhìn mặt chữ đọc thoai, riêng mỗi loại chữ Kanji là khó nhất, em học thì thuộc ngặc nỗi cứ nhầm hoài \" gắn bộ của chữ này vào chữ khác \" \n\n- Các senpai đã học rồi có bí quyết hoặc cách nào học chữ Kanji hiệu quả chỉ giúp giùm em với, em hỏi thật tình mong các senpai giúp giúp giùm em, cám ơn các anh nhiều. \nPS: sorry mình click nhầm del post :(","created_time":"2013-09-23T14:12:18+0000","updated_time":"2013-09-24T14:14:05+0000","comments":{"data":{"726690227347657":{"id":"726690227347657","from":{"id":"100005369824074","name":"Minh Minh"},"message":"Chịu khó học các bộ và viết thật nhiều vào là ok","can_remove":false,"created_time":"2013-09-23T14:17:22+0000","like_count":0,"user_likes":false},"726690930680920":{"id":"726690930680920","from":{"id":"100000030073288","name":"Thanh Danh Tran"},"message":"hiện tại mình cũng cặm cụi học các bộ nhưng thật tình mình ko hiểu sao mà nhầm tùm lum tè le, dù sao cũng cảm ơn Minh Minh đã giúp :)","message_tags":[{"id":"100005369824074","name":"Minh Minh","type":"user","offset":113,"length":9}],"can_remove":false,"created_time":"2013-09-23T14:19:10+0000","like_count":0,"user_likes":false},"726691277347552":{"id":"726691277347552","from":{"id":"100005166820615","name":"Mưa"},"message":"ai có bí quyết học kanji k chia sẻ đi","can_remove":false,"created_time":"2013-09-23T14:20:31+0000","like_count":0,"user_likes":false},"726691520680861":{"id":"726691520680861","from":{"id":"100001416272263","name":"Mai PB"},"message":"Nhiều người hỏi câu này nên mình chia sẻ kinh nghiệm thế này nhé. Chung cho cả học Kanji và học từ.\n\nHọc ngoại ngữ giống như hiện tượng thủy triều vậy. Nước lên cuốn theo cát, nước rút thì cát cũng xuống nhưng vẫn còn lại một ít cát, đó là cái kiến thức còn đọng lại cho mình, dù là học trước quên sau. Chỉ có cách là học đi học lại, chăm chỉ thôi.\n\n- Nếu ngày nào cũng bỏ ra 15 phút học thì sau 1 năm chắc chắn nhớ được vài trăm chữ.\n\n- Học từ thấp đến cao. Nhìn bảng chữ Hán của học sinh tiểu học Nhật (link dưới đây) thì có thể thấy là không cần học nhiều, chỉ cần học đi học lại. Nhưng trẻ con học 1 năm thì người lớn phải học trong 1, 2 tháng.\nhttp://www001.upp.so-net.ne.jp/NYAO/db/kanji/\n\n- Học chữ Kanji đứng riêng rồi còn phải viết ra, học theo câu ví dụ, so sánh các chữ tương tự nhau.\n\n- Dùng công cụ hỗ trợ, ví dụ như flashcard (hôm nọ có bạn nào rao bán đó ^^). Flashcard trên mạng cũng có, ví dụ: http://nuthatch.com/kanjicards/\n\n- Cuối cùng: tập viết bài text (đoạn văn)!\n\n- Luôn nhớ trong đầu, ai cũng học được cả, không lý gì mình không học được.","can_remove":false,"created_time":"2013-09-23T14:21:08+0000","like_count":7,"user_likes":false},"726692560680757":{"id":"726692560680757","from":{"id":"100005166820615","name":"Mưa"},"message":"mới bắt đầu học e hơi khó hiểu cái âm on và âm kun, vậy có mẹo nào k ạ","can_remove":false,"created_time":"2013-09-23T14:23:40+0000","like_count":0,"user_likes":false},"726693180680695":{"id":"726693180680695","from":{"id":"100000030073288","name":"Thanh Danh Tran"},"message":"em cám ơn anh Mai PB rất nhiều đã send link và chia sẽ những kinh nghiệm của anh. :)","message_tags":[{"id":"100001416272263","name":"Mai PB","type":"user","offset":14,"length":6}],"can_remove":false,"created_time":"2013-09-23T14:25:37+0000","like_count":0,"user_likes":false},"726694577347222":{"id":"726694577347222","from":{"id":"100001416272263","name":"Mai PB"},"message":"Không có mẹo gì cả, chỉ có 2 điểm dễ nhớ:\n- Trong từ điển thì âm on viết bằng chữ cứng Katakana, âm kun viết bằng chữ mềm Hiragana\n- Âm ôn thường là không đa dạng, ngắn 2, 3 chữ cái. Nhưng âm kun (khi ghép với chữ Hiragana khác) thường là dài 3, 4, 5 chữ, khá là đa dạng. Chịu khó nhớ :-)","can_remove":false,"created_time":"2013-09-23T14:28:47+0000","like_count":4,"user_likes":false},"727243053959041":{"id":"727243053959041","from":{"id":"100002456874174","name":"Xuan Thuan"},"message":"Bạn cứ tập viết nhiều vào, tốt nhất là vừa viết, đọc và suy nghĩ cùng một lúc. chíu khó ôn lại nhiều lần bạn nhé ++","can_remove":false,"created_time":"2013-09-24T12:14:21+0000","like_count":0,"user_likes":false},"727291057287574":{"id":"727291057287574","from":{"id":"100000030073288","name":"Thanh Danh Tran"},"message":"thx Xuan Thuan đã góp ý, mình cũng đang học theo các góp ý và những kinh nghiệm mà mọi người chia sẽ cho mình ^^","message_tags":[{"id":"100002456874174","name":"Xuan Thuan","type":"user","offset":4,"length":10}],"can_remove":false,"created_time":"2013-09-24T14:14:05+0000","like_count":0,"user_likes":false}},"paging":{"cursors":{"after":"NzI2NjkwMjI3MzQ3NjU3","before":"NzI2NjkwMjI3MzQ3NjU3"},"next":"https://graph.facebook.com/229244010425617_726688390681174/comments?limit=1&summary=1&after=NzI2NjkwMjI3MzQ3NjU3"},"summary":{"order":"chronological","total_count":9}},"likes":{"data":[]}}