{"id":"229244010425617_726646514018695","type":"status","from":{"id":"100003629530970","name":"Hoa Thiên Điểu"},"message":"Chào mọi người! Cho mình hỏi chút nhé!\n\nMình dự định sang nhật du học, nhưng chưa biết đi du học đăng kí ở đâu là tốt nhất, và hình thức vừa học vừa làm là như thế nào?\n \nCảm ơn mọi người!","created_time":"2013-09-23T13:22:02+0000","updated_time":"2013-09-23T22:36:59+0000","comments":{"data":{"726675387349141":{"id":"726675387349141","from":{"id":"100003830473409","name":"Thiên Tân"},"message":"tức là bạn sẽ qua đó học và đc đi làm! nhưng cụ thể thì bạn phải chọn đc nơi bạn đến bên nhật,  bạn sẽ học tiếng trong vòng 1 năm  5 tháng hay 2 năm thì tùy tại trường dạy tiếng, hay gọi đố là lớp dự bị  cd hay đh sau đó sẽ thi chuyển tiếp lên bậc học cao hơn, và troong quá trình đố bạn sẽ được đi làm ngoài giờ học tùy vào trình đọ tiếng nhật và sức khỏe lẫn nghệ thuật của bản thân bạn sẽ ko fải xin tiền từ gd hoặc gửi tiền về cho gd đó là cách bạn chọn","can_remove":false,"created_time":"2013-09-23T13:42:39+0000","like_count":1,"user_likes":false},"726676624015684":{"id":"726676624015684","from":{"id":"100003629530970","name":"Hoa Thiên Điểu"},"message":"oh! vậy ak, cảm ơn bạn nha!","can_remove":false,"created_time":"2013-09-23T13:46:13+0000","like_count":0,"user_likes":false},"726676930682320":{"id":"726676930682320","from":{"id":"100003830473409","name":"Thiên Tân"},"message":"nếu cần thông tin hãy cứ hỏi mình sẽ trả lời!","can_remove":false,"created_time":"2013-09-23T13:47:19+0000","like_count":0,"user_likes":false},"726678680682145":{"id":"726678680682145","from":{"id":"100003629530970","name":"Hoa Thiên Điểu"},"message":"umk, vậy, phiền bạn cho mình hỏi câu nữa: mình rất băn khoăn không biết nên đến nơi nào của Nhật là ổn với du học như mình?","can_remove":false,"created_time":"2013-09-23T13:52:09+0000","like_count":0,"user_likes":false},"726680304015316":{"id":"726680304015316","from":{"id":"100003830473409","name":"Thiên Tân"},"message":"trình độ của bạn là gì? bạn sinh năm nào hay vừa tốt nghiệp cấp 3? bạn có thể sẽ đc trường bên nhật phỏng vấn trực tiếp hoặc qua skype thông qua một trung tâm nhật ngữ bên việt nam! hoặc nếu đã tốt nghiệp đại học thì được ưu tieen hơn! vậy bạn trong trường hợp nào","can_remove":false,"created_time":"2013-09-23T13:55:51+0000","like_count":0,"user_likes":false},"726682920681721":{"id":"726682920681721","from":{"id":"100003629530970","name":"Hoa Thiên Điểu"},"message":"mình mới tốt nghiệp cao đẳng, mình sinh năm 1992, mình học tiếng nhật đc khoảng 2 tháng rồi, cũng không biết nhiều lắm ak!","can_remove":false,"created_time":"2013-09-23T14:01:02+0000","like_count":0,"user_likes":false},"726683534014993":{"id":"726683534014993","from":{"id":"100003830473409","name":"Thiên Tân"},"message":"sang nhật vùng tokyo cũng tạm ổn, tôi thì tôi chọn vùng giữa tokyo và  osaka, vì osaka xin visa rất khó,  nhưng nếu được công việc trong vùng osaka khá nhiều và tốt!  bạn tự tin về tài chính và các khoản chứng minh nhân thân, nhất là chứng minh tài chính này, thời gian làm việc của bản thân,  công việc của bố mệ thu nhập của gd","can_remove":false,"created_time":"2013-09-23T14:01:55+0000","like_count":0,"user_likes":false},"726684050681608":{"id":"726684050681608","from":{"id":"100003830473409","name":"Thiên Tân"},"message":"thì vùng osaka sẽ nằm trong tay bạn và bạn chỉ cần chăm lo học tiếng","can_remove":false,"created_time":"2013-09-23T14:03:02+0000","like_count":1,"user_likes":false},"726685210681492":{"id":"726685210681492","from":{"id":"100003629530970","name":"Hoa Thiên Điểu"},"message":"ak, ra thế ak.","can_remove":false,"created_time":"2013-09-23T14:04:41+0000","like_count":0,"user_likes":false},"726685604014786":{"id":"726685604014786","from":{"id":"100003629530970","name":"Hoa Thiên Điểu"},"message":"Umk,cảm ơn bạn đã cho mình những thông tin đó nhé!","can_remove":false,"created_time":"2013-09-23T14:05:51+0000","like_count":0,"user_likes":false},"726686620681351":{"id":"726686620681351","from":{"id":"100001754136107","name":"Nguyễn Tuấn Vũ"},"message":"Fukuoka bạn ơi ;)","can_remove":false,"created_time":"2013-09-23T14:08:16+0000","like_count":1,"user_likes":false},"726686854014661":{"id":"726686854014661","from":{"id":"100003830473409","name":"Thiên Tân"},"message":"như vậy bạn sẽ có hồ sơ sáng hơn đó, nhưng bạn phải tìm hiểu thông tin kỹ lưỡng hơn về trường bạn chọn nằm ở vùng nào bạn thấy khả quan trong số vùng mình đã nói,  và bạn sẽ lấy thêm thông tiin từ người tư vấn của trung tâm bạn đến,","can_remove":false,"created_time":"2013-09-23T14:08:42+0000","like_count":1,"user_likes":false},"726688214014525":{"id":"726688214014525","from":{"id":"100003629530970","name":"Hoa Thiên Điểu"},"message":"umk.Mình hiểu rồi ak!","can_remove":false,"created_time":"2013-09-23T14:11:33+0000","like_count":0,"user_likes":false},"726688960681117":{"id":"726688960681117","from":{"id":"100003830473409","name":"Thiên Tân"},"message":"bạn đang học tiếng? bạn jikoshokai đc chưa","can_remove":false,"created_time":"2013-09-23T14:13:44+0000","like_count":0,"user_likes":false},"726691060680907":{"id":"726691060680907","from":{"id":"100003629530970","name":"Hoa Thiên Điểu"},"message":"umk, cũng được rồi, mình xem nhiều phim hoạt hình nhật, nên nge nhiều cũng hiểu và thích nhật bản.","can_remove":false,"created_time":"2013-09-23T14:19:35+0000","like_count":0,"user_likes":false},"726692064014140":{"id":"726692064014140","from":{"id":"100003830473409","name":"Thiên Tân"},"message":"vậy à, vậy bạn đang ở hà nội hay học tại trung tâm nào? bạn định sẽ đi nhật vào năm tới hay khoảng thời gian nào?","can_remove":false,"created_time":"2013-09-23T14:22:26+0000","like_count":0,"user_likes":false},"726692820680731":{"id":"726692820680731","from":{"id":"100003629530970","name":"Hoa Thiên Điểu"},"message":"mình trước từng học tại trường đc 1 tháng, do viết bài tốt nghiệp nên ko học tiếp, giờ tốt nghiệp rồi, ở nhà tự học 2 tháng nay.","can_remove":false,"created_time":"2013-09-23T14:24:21+0000","like_count":0,"user_likes":false},"726692934014053":{"id":"726692934014053","from":{"id":"100003629530970","name":"Hoa Thiên Điểu"},"message":"Mình định đi vào cuối hoặc giữa năm 2014.","can_remove":false,"created_time":"2013-09-23T14:24:43+0000","like_count":0,"user_likes":false},"726694104013936":{"id":"726694104013936","from":{"id":"100003830473409","name":"Thiên Tân"},"message":"tốt nhất đi vào đầu hoặc giữa thì tốt hơn, vì qua đó vào tầm ấy sẽ có nhiều dịp lễ hội mình kiếm việc trong dịp lễ hội sẽ tốt hơn và nhiều okane money  hơn","can_remove":false,"created_time":"2013-09-23T14:27:41+0000","like_count":1,"user_likes":false},"726694107347269":{"id":"726694107347269","from":{"id":"100000030073288","name":"Thanh Danh Tran"},"message":"vậy sao bạn ko kiếm lớp học đi,, theo cá nhân mình thấy thì tự học cũng được nhưng về văn phạm thì có thầy hoặc cô giải thích sẽ dễ hiểu hơn, học cho đến lúc bạn sang nhật cũng có 1 số lớn vốn từ để sử dụng rồi.","can_remove":false,"created_time":"2013-09-23T14:27:42+0000","like_count":0,"user_likes":false},"726695214013825":{"id":"726695214013825","from":{"id":"100003629530970","name":"Hoa Thiên Điểu"},"message":"umk, mình nghe nói, nếu đăng kí du học cũng phải học qua 1 lớp tiếng nhật ở công ty đăng kí mất mất tháng, nên đang phân vân chưa biết chọn công ty nào là ổn hơn?","can_remove":false,"created_time":"2013-09-23T14:30:50+0000","like_count":0,"user_likes":false},"726695857347094":{"id":"726695857347094","from":{"id":"100003629530970","name":"Hoa Thiên Điểu"},"message":"Thiên Tân ak, cảm ơn bạn đã nhiệt tình tư vấn cho mình! Mình có đi được cung phải chờ đến giữa năm ak.","message_tags":[{"id":"100003830473409","name":"Thiên Tân","type":"user","offset":0,"length":9}],"can_remove":false,"created_time":"2013-09-23T14:32:33+0000","like_count":0,"user_likes":false},"726696624013684":{"id":"726696624013684","from":{"id":"100003830473409","name":"Thiên Tân"},"message":"tìm một trung tâm đưa người đi tốt và vào đó học! ok nếu bạn muốn hãy tới trung tâm của mình ddii nếu bạn ở hải  dương thì mình giiowis thiệu trung tâm mình đã học và đi là ico và số điện thoại là  01683 557 577","can_remove":false,"created_time":"2013-09-23T14:33:57+0000","like_count":0,"user_likes":false},"726697550680258":{"id":"726697550680258","from":{"id":"100003629530970","name":"Hoa Thiên Điểu"},"message":"umk, mình ở hải dương.có gì mình sẽ gọi làm phiền c nhé!","can_remove":false,"created_time":"2013-09-23T14:36:04+0000","like_count":0,"user_likes":false},"726699047346775":{"id":"726699047346775","from":{"id":"100003830473409","name":"Thiên Tân"},"message":"nếu bạn muốn đi nhật và cần thông tin thì  số điện thoại mình  cho bạn đí hãy gọi điện và mình là Cao minh  thanh  học viên của trung tâm đó,  số đt đó là của anh Kiên làm bên tuyển sinh của trung tâm","can_remove":false,"created_time":"2013-09-23T14:40:05+0000","like_count":1,"user_likes":false},"726699714013375":{"id":"726699714013375","from":{"id":"100003629530970","name":"Hoa Thiên Điểu"},"message":"umk, Mình biết rồi!","can_remove":false,"created_time":"2013-09-23T14:41:42+0000","like_count":0,"user_likes":false},"726700094013337":{"id":"726700094013337","from":{"id":"100003830473409","name":"Thiên Tân"},"message":"ojk! nhưng 2 hôm nữa tớ không ở việt nam nữa đâu! số dt  cậu cần gọi là số tớ đưa đó! mình  ở truong shizuoka nhé nếu đi qua trường mình nhé!","can_remove":false,"created_time":"2013-09-23T14:42:53+0000","like_count":1,"user_likes":false},"726700334013313":{"id":"726700334013313","from":{"id":"100003830473409","name":"Thiên Tân"},"message":"thế nhé!","can_remove":false,"created_time":"2013-09-23T14:43:20+0000","like_count":0,"user_likes":false},"726700797346600":{"id":"726700797346600","from":{"id":"100003629530970","name":"Hoa Thiên Điểu"},"message":"umk.^^","can_remove":false,"created_time":"2013-09-23T14:44:43+0000","like_count":0,"user_likes":false},"726844837332196":{"id":"726844837332196","from":{"id":"100004111872291","name":"Dee Nguyễn"},"message":"đi tháng 4 ý vì đó tháng nhập học chính thức đấy việc làm nhiều","can_remove":false,"created_time":"2013-09-23T17:24:58+0000","like_count":0,"user_likes":false},"726963343987012":{"id":"726963343987012","from":{"id":"100001754136107","name":"Nguyễn Tuấn Vũ"},"message":"Thiên tan: ( ngoài lề) bạn ở đâu fukuoka","can_remove":false,"created_time":"2013-09-23T22:36:59+0000","like_count":0,"user_likes":false}},"paging":{"cursors":{"after":"NzI2Njc1Mzg3MzQ5MTQx","before":"NzI2Njc1Mzg3MzQ5MTQx"},"next":"https://graph.facebook.com/229244010425617_726646514018695/comments?limit=1&summary=1&after=NzI2Njc1Mzg3MzQ5MTQx"},"summary":{"order":"chronological","total_count":31}},"likes":{"data":[]}}