{"id":"229244010425617_726779080672105","type":"status","from":{"id":"100000191119123","name":"Anh Trung Nguyễn"},"message":"cho e hỏi muốn tự học tiếng nhật thì trc tiên bắt đầu từ đâu a ??","created_time":"2013-09-23T15:47:06+0000","updated_time":"2013-09-24T08:53:26+0000","likes":{"data":{"100003097410255":{"id":"100003097410255","name":"Keiji Maeda"},"100004697978845":{"id":"100004697978845","name":"Mai Hien"},"100004892648303":{"id":"100004892648303","name":"Cherry Pham"},"100000091753379":{"id":"100000091753379","name":"Anna Phạm"},"100006612130719":{"id":"100006612130719","name":"Kool Girl'sShop"}},"paging":{"cursors":{"after":"MTAwMDAzMDk3NDEwMjU1","before":"MTAwMDAzMDk3NDEwMjU1"},"next":"https://graph.facebook.com/229244010425617_726779080672105/likes?limit=1&summary=1&after=MTAwMDAzMDk3NDEwMjU1"},"summary":{"total_count":6}},"comments":{"data":{"726780250671988":{"id":"726780250671988","from":{"id":"100002508122689","name":"Vũ Mạnh Tuấn"},"message":"hai bảng chữ cái hiragana và katakana.","can_remove":false,"created_time":"2013-09-23T15:48:51+0000","like_count":1,"user_likes":false},"726780357338644":{"id":"726780357338644","from":{"id":"100004705145167","name":"Ngọc Tuệ Bạch"},"message":"Bang chu cai hiragana va katakana","can_remove":false,"created_time":"2013-09-23T15:49:03+0000","like_count":1,"user_likes":false},"726780864005260":{"id":"726780864005260","from":{"id":"100000603915176","name":"悪いな ぁ"},"message":"Lại quảng cáo linh tinh gì thế Kool Girl'sShop?","message_tags":[{"id":"100006612130719","name":"Kool Girl'sShop","type":"user","offset":31,"length":15}],"can_remove":false,"created_time":"2013-09-23T15:50:18+0000","like_count":0,"user_likes":false},"726781630671850":{"id":"726781630671850","from":{"id":"100000969905909","name":"Shady Su"},"message":"ra đăng kí ở trung tâm nơi gần nhất","can_remove":false,"created_time":"2013-09-23T15:51:17+0000","like_count":0,"user_likes":false},"726782284005118":{"id":"726782284005118","from":{"id":"100000191119123","name":"Anh Trung Nguyễn"},"message":"mình uốn tự học trc cho tiết kiemfj =.='","can_remove":false,"created_time":"2013-09-23T15:52:17+0000","like_count":0,"user_likes":false},"726783187338361":{"id":"726783187338361","from":{"id":"100000969905909","name":"Shady Su"},"message":"theo kiinh nghiệm thì chỉ học đc hết 2 bảng chữ là căng","can_remove":false,"created_time":"2013-09-23T15:53:50+0000","like_count":0,"user_likes":false},"726783430671670":{"id":"726783430671670","from":{"id":"100004705145167","name":"Ngọc Tuệ Bạch"},"message":"Ban hoc hai bang chu do quan trog phai ghi nho, thuoc ,biet doc va viet dung","can_remove":false,"created_time":"2013-09-23T15:54:24+0000","like_count":0,"user_likes":false},"726783477338332":{"id":"726783477338332","from":{"id":"100000191119123","name":"Anh Trung Nguyễn"},"message":"thế ahr =.=''","can_remove":false,"created_time":"2013-09-23T15:54:33+0000","like_count":0,"user_likes":false},"726787314004615":{"id":"726787314004615","from":{"id":"100004533241933","name":"Tuyen Vu"},"message":"học hết 2 bảng chữ cái và rồi tự học đéo hiểu j :v","can_remove":false,"created_time":"2013-09-23T16:02:04+0000","like_count":0,"user_likes":false},"726788030671210":{"id":"726788030671210","from":{"id":"100001416272263","name":"Mai PB"},"message":"Anh Trung Nguyễn thử học các khóa online ở mục 4. trong link sau đây xem. Nếu không học được thì ra trung tâm. https://www.facebook.com/groups/CongdongVietNhat/doc/687429284607085/","message_tags":[{"id":"100000191119123","name":"Anh Trung Nguyễn","type":"user","offset":0,"length":16}],"can_remove":false,"created_time":"2013-09-23T16:03:23+0000","like_count":1,"user_likes":false},"726803227336357":{"id":"726803227336357","from":{"id":"100004697978845","name":"Mai Hien"},"message":"Bang Chu Cai","can_remove":false,"created_time":"2013-09-23T16:26:50+0000","like_count":0,"user_likes":false},"726805554002791":{"id":"726805554002791","from":{"id":"100000191119123","name":"Anh Trung Nguyễn"},"message":"thnk để mình thử","can_remove":false,"created_time":"2013-09-23T16:31:19+0000","like_count":0,"user_likes":false},"726843820665631":{"id":"726843820665631","from":{"id":"100003830473409","name":"Thiên Tân"},"message":"fải sang trung quốc học trước đã, bắt đầu học từ thời Đường","can_remove":false,"created_time":"2013-09-23T17:22:47+0000","like_count":0,"user_likes":false},"727059707310709":{"id":"727059707310709","from":{"id":"100005222737414","name":"Angle Kiss"},"message":"Tự học sẽ là con số không cho em","can_remove":false,"created_time":"2013-09-24T03:15:20+0000","like_count":0,"user_likes":false},"727060113977335":{"id":"727060113977335","from":{"id":"100004697978845","name":"Mai Hien"},"message":"Tu hoc trên mang cung dc ma ng Ta cung day tu bang Chu Cai cho den het Bai 50","can_remove":false,"created_time":"2013-09-24T03:16:54+0000","like_count":0,"user_likes":false},"727180350631978":{"id":"727180350631978","from":{"id":"100004672236926","name":"Văn Khẩn"},"message":"Sao lai noi vay chu? Tu hoc cug tot ma!  Ban cu hoc tu dau di hoc cah viet va cah doc 2 bag chu cai cho that tot sau do bat dau qua hoc tu moi va ngu phap na! Tren wed co nhieu trag ho chi cah hoc cug hay day!","can_remove":false,"created_time":"2013-09-24T08:53:26+0000","like_count":0,"user_likes":false}},"paging":{"cursors":{"after":"NzI2NzgwMjUwNjcxOTg4","before":"NzI2NzgwMjUwNjcxOTg4"},"next":"https://graph.facebook.com/229244010425617_726779080672105/comments?limit=1&summary=1&after=NzI2NzgwMjUwNjcxOTg4"},"summary":{"order":"chronological","total_count":16}}}