{"id":"229244010425617_726788520671161","type":"photo","object_id":"10200895716051480","picture":"https://fbcdn-photos-f-a.akamaihd.net/hphotos-ak-ash3/t1.0-0/561545_10200895716051480_698262102_s.jpg","link":"https://www.facebook.com/photo.php?fbid=10200895716051480&set=pcb.726788520671161&type=1&relevant_count=1","from":{"id":"1122379216","name":"Hà Ngô"},"message":"Các anh chị cho e hỏi với ạ. Các món viết bằng chữ kanji đọc như nào ạ. E mới học chữ Hán được một ít, mà tra từ điển rồi không ra. Chữ viết kiểu thư pháp khó quá. Nhờ các anh chị giúp đỡ ạ.\nEm cảm ơn nhiều ạ.","created_time":"2013-09-23T16:03:45+0000","updated_time":"2013-10-02T01:38:26+0000","likes":{"data":{"100002327743510":{"id":"100002327743510","name":"Tuan Thanh"},"100002883266700":{"id":"100002883266700","name":"Hương Thảo"},"100000027754899":{"id":"100000027754899","name":"Hoang Van Ba"},"100002145658145":{"id":"100002145658145","name":"Yến Kều"},"100001416272263":{"id":"100001416272263","name":"Mai PB"}},"paging":{"cursors":{"after":"MTAwMDAyMzI3NzQzNTEw","before":"MTAwMDAyMzI3NzQzNTEw"},"next":"https://graph.facebook.com/229244010425617_726788520671161/likes?limit=1&summary=1&after=MTAwMDAyMzI3NzQzNTEw"},"summary":{"total_count":5}},"comments":{"data":{"726791817337498":{"id":"726791817337498","from":{"id":"100000027754899","name":"Hoang Van Ba"},"message":"1 mình làm ah","can_remove":false,"created_time":"2013-09-23T16:11:19+0000","like_count":0,"user_likes":false},"726791884004158":{"id":"726791884004158","from":{"id":"100000027754899","name":"Hoang Van Ba"},"message":"Sao ko hỏi chủ quán","can_remove":false,"created_time":"2013-09-23T16:11:31+0000","like_count":0,"user_likes":false},"726793574003989":{"id":"726793574003989","from":{"id":"1122379216","name":"Hà Ngô"},"message":"Dạ, e mới phỏng vấn quán này, họ hẹn em quay lại ký hợp đồng. E mới biết 1 chút tiếng Nhật, lúc phỏng vấn họ nói là e phải nhớ thực đơn này. Em muốn chuẩn bị trước khi đến đó. E mới sang tháng 7 cũng chưa có kinh nghiệm gì. A chị nào có kinh nghiệm làm bồi bàn chỉ thêm cho e với ạ.","can_remove":false,"created_time":"2013-09-23T16:14:17+0000","like_count":0,"user_likes":false},"726800344003312":{"id":"726800344003312","from":{"id":"100000027754899","name":"Hoang Van Ba"},"message":"Tất cả hay j ??","can_remove":false,"created_time":"2013-09-23T16:20:50+0000","like_count":0,"user_likes":false},"726800457336634":{"id":"726800457336634","from":{"id":"100000027754899","name":"Hoang Van Ba"},"message":"Chắc chắn phải biết từ nào đó","can_remove":false,"created_time":"2013-09-23T16:21:02+0000","like_count":0,"user_likes":false},"726800834003263":{"id":"726800834003263","from":{"id":"100000027754899","name":"Hoang Van Ba"},"message":"Viết ra giấy rồi nhờ người chỉ giúp. \nViết lên Fb như này có nói thì chác j đã nhớ","can_remove":false,"created_time":"2013-09-23T16:21:42+0000","like_count":0,"user_likes":false},"726801957336484":{"id":"726801957336484","from":{"id":"1122379216","name":"Hà Ngô"},"message":"Học thuộc hết a ạ. E đang nghiêm cứu những món chưx cứng, chữ mềm, các món trứng thì e biết. Nhưng món đầu tiên, ảnh số 2 e không biết là món gì. Chữ ấy e cũng ko tra được cách viết ạ :(","can_remove":false,"created_time":"2013-09-23T16:23:43+0000","like_count":0,"user_likes":false},"726802977336382":{"id":"726802977336382","from":{"id":"1122379216","name":"Hà Ngô"},"message":"Món thịt hầm ở ảnh 1 380¥, món cơm 320¥ e cũng ko biết đọc như nào ạ. Mong a/c chỉ giúp e","can_remove":false,"created_time":"2013-09-23T16:26:05+0000","like_count":0,"user_likes":false},"726803097336370":{"id":"726803097336370","from":{"id":"100000027754899","name":"Hoang Van Ba"},"message":"Thịt luộc","can_remove":false,"created_time":"2013-09-23T16:26:19+0000","like_count":1,"user_likes":false},"726803364003010":{"id":"726803364003010","from":{"id":"100000027754899","name":"Hoang Van Ba"},"message":"角煮 đọc là kakuni","can_remove":false,"created_time":"2013-09-23T16:27:19+0000","like_count":1,"user_likes":false},"726803707336309":{"id":"726803707336309","from":{"id":"100000027754899","name":"Hoang Van Ba"},"message":"明太子 đọc là mentaiko","can_remove":false,"created_time":"2013-09-23T16:28:13+0000","like_count":0,"user_likes":false},"726803980669615":{"id":"726803980669615","from":{"id":"100000027754899","name":"Hoang Van Ba"},"message":"Chữ ご飯 chắc là biết rồi","can_remove":false,"created_time":"2013-09-23T16:28:48+0000","like_count":1,"user_likes":false},"726804230669590":{"id":"726804230669590","from":{"id":"1122379216","name":"Hà Ngô"},"message":"Món đầu tiên ảnh 2 650¥ viết và đọc như nào ạ :)","can_remove":false,"created_time":"2013-09-23T16:29:06+0000","like_count":0,"user_likes":false},"726805557336124":{"id":"726805557336124","from":{"id":"100000027754899","name":"Hoang Van Ba"},"message":"面歩 めんぽ thì phải","can_remove":false,"created_time":"2013-09-23T16:31:20+0000","like_count":1,"user_likes":false},"726806177336062":{"id":"726806177336062","from":{"id":"1122379216","name":"Hà Ngô"},"message":"Vâng e biết chữ ごはん","can_remove":false,"created_time":"2013-09-23T16:33:04+0000","like_count":0,"user_likes":false},"726806817335998":{"id":"726806817335998","from":{"id":"1122379216","name":"Hà Ngô"},"message":"百歩 e tưởng món ấy là chữ này ạ. Em không biết nó viết như nào luôn ấy ạ","can_remove":false,"created_time":"2013-09-23T16:35:11+0000","like_count":0,"user_likes":false},"726807027335977":{"id":"726807027335977","from":{"id":"100000027754899","name":"Hoang Van Ba"},"message":"Ko rõ lắm","can_remove":false,"created_time":"2013-09-23T16:35:45+0000","like_count":0,"user_likes":false},"726807657335914":{"id":"726807657335914","from":{"id":"100000027754899","name":"Hoang Van Ba"},"message":"Nếu là chữ ý thì là ひゃっぽ","can_remove":false,"created_time":"2013-09-23T16:37:38+0000","like_count":1,"user_likes":false},"726807730669240":{"id":"726807730669240","from":{"id":"100000027754899","name":"Hoang Van Ba"},"message":"Ko biết có phải ko :)","can_remove":false,"created_time":"2013-09-23T16:37:46+0000","like_count":0,"user_likes":false},"726807900669223":{"id":"726807900669223","from":{"id":"1122379216","name":"Hà Ngô"},"message":"Quán ấy có cả bảng khẩu hiệu bằng chữ mềm mà e cũng không biết nghĩa tra từ điển JV dictionary cũng không ra ấy ạ :)","can_remove":false,"created_time":"2013-09-23T16:38:06+0000","like_count":0,"user_likes":false},"726808390669174":{"id":"726808390669174","from":{"id":"100000027754899","name":"Hoang Van Ba"},"message":"Từ điển nhiều khi ko có đâu. :)","can_remove":false,"created_time":"2013-09-23T16:39:01+0000","like_count":0,"user_likes":false},"726810290668984":{"id":"726810290668984","from":{"id":"1122379216","name":"Hà Ngô"},"message":"Dạ, để e tra thử xem món ấy không ạ. Thế làm sao mình biết được nghĩa ạ?","can_remove":false,"created_time":"2013-09-23T16:39:57+0000","like_count":0,"user_likes":false},"726810677335612":{"id":"726810677335612","from":{"id":"100000027754899","name":"Hoang Van Ba"},"message":"Xl nhé. Đi chick cái rồi vào làm thôi","can_remove":false,"created_time":"2013-09-23T16:40:37+0000","like_count":0,"user_likes":false},"726812654002081":{"id":"726812654002081","from":{"id":"100000027754899","name":"Hoang Van Ba"},"message":"Ko biết rõ. Nhưng nhiều danh từ tên riêng tra từ điển nó ko ra nghĩa j cả. \nDịch là Bách Bộ thì ko biết nó là j","can_remove":false,"created_time":"2013-09-23T16:41:35+0000","like_count":1,"user_likes":false},"726813064002040":{"id":"726813064002040","from":{"id":"100000027754899","name":"Hoang Van Ba"},"message":"Thuần hán mà dùng thôi :)\nHỏi các 先輩 khác cho chắc chắn nhé.","can_remove":false,"created_time":"2013-09-23T16:42:30+0000","like_count":1,"user_likes":false},"726813404002006":{"id":"726813404002006","from":{"id":"1122379216","name":"Hà Ngô"},"message":"Hi, vâng. Hôm sau đến quán ấy e sẽ bảo từ này e chưa biết họ chỉ cho, thì e về e nhắn lại ạ. Rất cảm ơn tiền bối ạ :)","can_remove":false,"created_time":"2013-09-23T16:43:41+0000","like_count":1,"user_likes":false},"727018863981460":{"id":"727018863981460","from":{"id":"100003110364988","name":"Kim Dung"},"message":"CHị Hà Ngô ơi cố lên","message_tags":[{"id":"1122379216","name":"Hà Ngô","type":"user","offset":4,"length":6}],"can_remove":false,"created_time":"2013-09-24T01:31:35+0000","like_count":1,"user_likes":false},"731143013569045":{"id":"731143013569045","from":{"id":"1122379216","name":"Hà Ngô"},"message":"E đi làm các buổi tối ngày đi học nên giờ mới nhắn lại chữ 百歩: ひゃぽ là món mỳ đuocwj gọi nhiều nhất hàng ngày cũng là tên quán luôn ạ. Cảm ơn các tiền bối :)","can_remove":false,"created_time":"2013-10-02T01:38:26+0000","like_count":1,"user_likes":false}},"paging":{"cursors":{"after":"NzI2NzkxODE3MzM3NDk4","before":"NzI2NzkxODE3MzM3NDk4"},"next":"https://graph.facebook.com/229244010425617_726788520671161/comments?limit=1&summary=1&after=NzI2NzkxODE3MzM3NDk4"},"summary":{"order":"chronological","total_count":28}}}