{"id":"229244010425617_726794154003931","type":"status","from":{"id":"100003084111971","name":"Edward Nguyen"},"message":"mọi người em học viết tiếng hoa cũng tạm tạm vậy khi học thêm tiếng nhật có bị nhầm ko ạ ,mọi người giúp dùm em nha, em muốn học nói rành trước ạ, tks cả nhà","created_time":"2013-09-23T16:14:58+0000","updated_time":"2013-09-24T05:36:30+0000","comments":{"data":{"726820720667941":{"id":"726820720667941","from":{"id":"100003769655241","name":"Đăng Ninh"},"message":"Khác đấy.nhưng học sẽ nhanh hơn.nhiều từ cánh viết khác bạn ạ","can_remove":false,"created_time":"2013-09-23T16:58:25+0000","like_count":0,"user_likes":false},"726820984001248":{"id":"726820984001248","from":{"id":"100003769655241","name":"Đăng Ninh"},"message":"Nc là Ko sao đâu.người trung học tiếng nhật.ghê lắm","can_remove":false,"created_time":"2013-09-23T16:58:58+0000","like_count":1,"user_likes":false},"726821567334523":{"id":"726821567334523","from":{"id":"100003084111971","name":"Edward Nguyen"},"message":"cám ơn bác Đăng Ninh ,tớ đang học katarana và higrarana:))","message_tags":[{"id":"100003769655241","name":"Đăng Ninh","type":"user","offset":11,"length":9}],"can_remove":false,"created_time":"2013-09-23T17:00:36+0000","like_count":0,"user_likes":false},"726821870667826":{"id":"726821870667826","from":{"id":"100003769655241","name":"Đăng Ninh"},"message":"Ukm.vừa học tiếng hán vừa học âm hán việt nữa","can_remove":false,"created_time":"2013-09-23T17:01:45+0000","like_count":1,"user_likes":false},"726822044001142":{"id":"726822044001142","from":{"id":"100003769655241","name":"Đăng Ninh"},"message":"Học bảng katakana qua tên nc dễ nhớ nhé","can_remove":false,"created_time":"2013-09-23T17:02:08+0000","like_count":1,"user_likes":false},"726822160667797":{"id":"726822160667797","from":{"id":"100003084111971","name":"Edward Nguyen"},"message":"muốn nói tốt mà ko cần học viết ,bác cho tớ vài lời khuyên???","can_remove":false,"created_time":"2013-09-23T17:02:30+0000","like_count":0,"user_likes":false},"726822464001100":{"id":"726822464001100","from":{"id":"100003769655241","name":"Đăng Ninh"},"message":"ホテル　khach san.カラオケ　hat karaoke.ラジオ　dai.","can_remove":false,"created_time":"2013-09-23T17:03:13+0000","like_count":0,"user_likes":false},"726822667334413":{"id":"726822667334413","from":{"id":"100003769655241","name":"Đăng Ninh"},"message":"V du vay.nhung cai gan voi doi song minh ay.","can_remove":false,"created_time":"2013-09-23T17:03:37+0000","like_count":1,"user_likes":false},"726822940667719":{"id":"726822940667719","from":{"id":"100003769655241","name":"Đăng Ninh"},"message":"Sach minao tu moi co ten quoc gia day","can_remove":false,"created_time":"2013-09-23T17:04:18+0000","like_count":0,"user_likes":false},"726823167334363":{"id":"726823167334363","from":{"id":"100003084111971","name":"Edward Nguyen"},"message":"oke.muốn học nói thôi được ko đăng ninh?","can_remove":false,"created_time":"2013-09-23T17:04:57+0000","like_count":0,"user_likes":false},"727111053972241":{"id":"727111053972241","from":{"id":"100003769655241","name":"Đăng Ninh"},"message":"Thế sang nhật sống khoảng mười năm.là Ok ngay","can_remove":false,"created_time":"2013-09-24T05:36:17+0000","like_count":1,"user_likes":false},"727111087305571":{"id":"727111087305571","from":{"id":"100003769655241","name":"Đăng Ninh"},"message":"Con nói mà Ko viết đk.thì khác nào....","can_remove":false,"created_time":"2013-09-24T05:36:30+0000","like_count":0,"user_likes":false}},"paging":{"cursors":{"after":"NzI2ODIwNzIwNjY3OTQx","before":"NzI2ODIwNzIwNjY3OTQx"},"next":"https://graph.facebook.com/229244010425617_726794154003931/comments?limit=1&summary=1&after=NzI2ODIwNzIwNjY3OTQx"},"summary":{"order":"chronological","total_count":12}},"likes":{"data":[]}}