{"id":"229244010425617_727849623898384","type":"video","picture":"https://fbexternal-a.akamaihd.net/safe_image.php?d=AQDup3pdzuPShGuO&w=130&h=130&url=http%3A%2F%2Fi1.ytimg.com%2Fvi%2F27ieR6fe7bc%2Fhqdefault.jpg%3Ffeature%3Dog","link":"http://bit.ly/14H9Nyc","source":"http://www.youtube.com/v/27ieR6fe7bc?autohide=1&version=3&autoplay=1","from":{"id":"100001416272263","name":"Mai PB"},"message":"Cuối ngày rồi, mọi người nghe bài hát này. Nhiều like thì mình sẽ giới thiệu thêm về câu chuyện của nó.\nhttp://bit.ly/14H9Nyc","created_time":"2013-09-25T14:57:25+0000","updated_time":"2013-09-27T12:10:29+0000","likes":{"data":{"100004889430124":{"id":"100004889430124","name":"Quiet Man"},"100002449514019":{"id":"100002449514019","name":"Lương Hoa"},"100004460525997":{"id":"100004460525997","name":"Hà Trang Nguyễn"},"100000359762118":{"id":"100000359762118","name":"Mi Tra"},"100001754136107":{"id":"100001754136107","name":"Nguyễn Tuấn Vũ"},"100005307004792":{"id":"100005307004792","name":"Kiều Văn"},"100004923553810":{"id":"100004923553810","name":"Xuan KY Nguyen"},"100002829897061":{"id":"100002829897061","name":"Xiêu Nhân"},"100004479997015":{"id":"100004479997015","name":"Nguyễn Quốc Nam"},"100004492933662":{"id":"100004492933662","name":"Sorakira Bui"},"100004533241933":{"id":"100004533241933","name":"Tuyen Vu"},"100000163739190":{"id":"100000163739190","name":"Luyến Nhớ"},"100003696134321":{"id":"100003696134321","name":"Phạm Hạnh"},"1603137055":{"id":"1603137055","name":"Nguyen Song Lan Anh"},"100003171672878":{"id":"100003171672878","name":"Tầu Heo"},"1850147953":{"id":"1850147953","name":"Rùa Con"},"100005495773832":{"id":"100005495773832","name":"Hiền Vũ"},"100006540967595":{"id":"100006540967595","name":"Cheryl Blossom"},"100000062884729":{"id":"100000062884729","name":"Huệ Ca"},"100002853258192":{"id":"100002853258192","name":"Phương Diệu Thu"},"100003090738530":{"id":"100003090738530","name":"Ngô Thị Thanh Hường"},"1376232495":{"id":"1376232495","name":"Út Lê"},"100002942842506":{"id":"100002942842506","name":"Quyên Lê"},"100003702043787":{"id":"100003702043787","name":"Hằng Hanu"},"1822854513":{"id":"1822854513","name":"Sữa Chua Không Đường"},"100000303662777":{"id":"100000303662777","name":"Trang Táo Mèo"},"100004794727976":{"id":"100004794727976","name":"Song Tử"},"100003842981495":{"id":"100003842981495","name":"Hong Van Nguyen"},"100001806981402":{"id":"100001806981402","name":"Cookie Panda"},"100003950139327":{"id":"100003950139327","name":"Kathy Banh"},"100000960252631":{"id":"100000960252631","name":"Takumi Tuan"},"100001639419018":{"id":"100001639419018","name":"Tiểu Rồng"},"1122379216":{"id":"1122379216","name":"Hà Ngô"},"100006368081099":{"id":"100006368081099","name":"Man Thu"},"100003005597243":{"id":"100003005597243","name":"Zany Royal"},"100003055422184":{"id":"100003055422184","name":"Kaze Le"},"100000224938370":{"id":"100000224938370","name":"Yamn Xiahxu"},"100005478454231":{"id":"100005478454231","name":"Maruko Chan"},"100001659230540":{"id":"100001659230540","name":"Lemon Tea"},"100003011417151":{"id":"100003011417151","name":"Hue Kim"},"100006599683871":{"id":"100006599683871","name":"Trần Lan Phương"},"100002959594535":{"id":"100002959594535","name":"Nguyen Ngoc Anh"},"100002714693472":{"id":"100002714693472","name":"Nguyen Tuan Anh"},"100004028173069":{"id":"100004028173069","name":"Jin Ngốc"},"100003320012955":{"id":"100003320012955","name":"Ông Dâm Pụt"},"718011337":{"id":"718011337","name":"Quynh Quyt"},"100001918556636":{"id":"100001918556636","name":"Yoshiki Mataro"},"100003055356509":{"id":"100003055356509","name":"Thuan Nguyen"}},"paging":{"cursors":{"after":"MTAwMDA0ODg5NDMwMTI0","before":"MTAwMDA0ODg5NDMwMTI0"},"next":"https://graph.facebook.com/229244010425617_727849623898384/likes?limit=1&summary=1&after=MTAwMDA0ODg5NDMwMTI0"},"summary":{"total_count":49}},"comments":{"data":{"727854087231271":{"id":"727854087231271","from":{"id":"100002959594535","name":"Nguyen Ngoc Anh"},"message":"E cũng rất thích nghe các bài của c này!","can_remove":false,"created_time":"2013-09-25T15:07:54+0000","like_count":0,"user_likes":false},"727854543897892":{"id":"727854543897892","from":{"id":"100002959594535","name":"Nguyen Ngoc Anh"},"message":"I believe","can_remove":false,"created_time":"2013-09-25T15:09:17+0000","like_count":0,"user_likes":false},"727854690564544":{"id":"727854690564544","from":{"id":"100002959594535","name":"Nguyen Ngoc Anh"},"message":"E thích nghe bài I believe nhất!","can_remove":false,"created_time":"2013-09-25T15:09:47+0000","like_count":1,"user_likes":false},"727857473897599":{"id":"727857473897599","from":{"id":"100001416272263","name":"Mai PB"},"message":"Ca sĩ Ayaka hát hay là một chuyện, mình đang nói bài hát này :-)","can_remove":false,"created_time":"2013-09-25T15:15:26+0000","like_count":0,"user_likes":false},"727866187230061":{"id":"727866187230061","from":{"id":"1122379216","name":"Hà Ngô"},"message":"Cậu bé này cô đơn và đáng thương quá :(","can_remove":false,"created_time":"2013-09-25T15:34:14+0000","like_count":0,"user_likes":false},"727879737228706":{"id":"727879737228706","from":{"id":"1122379216","name":"Hà Ngô"},"message":"E nghe hết cả 3 phần rồi a giới thiệu luôn đi ạ. Xem video đoán phần nào ý nghĩa câu chuyện. Cây ấy đúng như 1 người tri kỉ, từ lúc bé đến khi già chết đi :)","can_remove":false,"created_time":"2013-09-25T15:53:48+0000","like_count":0,"user_likes":false},"728077100542303":{"id":"728077100542303","from":{"id":"100004533241933","name":"Tuyen Vu"},"message":"hay đó.post thêm nữa đi","can_remove":false,"created_time":"2013-09-26T01:47:34+0000","like_count":0,"user_likes":false},"728722277144452":{"id":"728722277144452","from":{"id":"100001416272263","name":"Mai PB"},"message":"Câu chuyện về bài hát này mà mình nói không phải là cái Story1 kia đâu, Hà Ngô. Ngẫu nhiên là Ayaka chọn bài hát này và 2 bài nữa để minh họa cho 1 series nội dung thôi.\n\nThực ra video clip ở trên là bài hát do ca sĩ Ayaka cover lại, nhưng bản cover này rất thành công, rất truyền cảm. Bản chính sẽ được post dưới đây, do ca sĩ nổi tiếng qua hơn 4 thâp kỷ qua là Nakajima Miyuki sáng tác và trình bày. Mọi người nghe bản này xem thấy thế nào? Giọng của NM không truyền cảm như Ayaka nhưng đầy nội lực, mạnh mẽ, đầy nhiệt huyết đúng không? Các bài hát của NM đều như vậy, và đều trở thành hit song cả. Hôm nọ mình cũng đã giới thiệu bài hát 時代 của NM, mọi người nghe lại xem đúng thế không nhé.\n\nQuay lại bài hát, bài này vốn được sáng tác ra để làm bài hát chủ đề của phim 家なき子 (Cô bé không nhà (không gia đình)). Khi được đặt hàng sáng tác, NK chỉ được cho biết là nội dung nói về một cô bé không có nhà, chỉ có con chó làm bạn. Vì vậy NK đã viết lời như là tâm sự của con chó. Từ con mắt của con chó thì nó chỉ nhìn thấy 君 (cô bé) và 空 (bầu trời) mà thôi. Vì vậy mà tên bài hát là 空と君のあいだに (ở giữa bạn và bầu trời). Ở đây lại có một điều thú vị nữa, là trong lời bài hát thì câu này được viết là 空と君とのあいだに (ở giữa tôi và bạn, giữa tôi và bầu trời) nên nhiều người nhầm tưởng tên bài hát cũng vậy. Mọi người có thấy là chỉ cần có thêm 1 chữ と mà nghĩa khác hẳn không? Hôm nào mình sẽ phân tích ngữ pháp này.","message_tags":[{"id":"1122379216","name":"Hà Ngô","type":"user","offset":72,"length":6}],"can_remove":false,"created_time":"2013-09-27T12:09:11+0000","like_count":2,"user_likes":false},"728722343811112":{"id":"728722343811112","from":{"id":"100001416272263","name":"Mai PB"},"message":"Đây là bản gốc của Nakajima Miyuki 中島みゆき.\nhttp://www.youtube.com/watch?v=02l9AROoSZM","can_remove":false,"created_time":"2013-09-27T12:09:26+0000","like_count":1,"user_likes":false},"728722680477745":{"id":"728722680477745","from":{"id":"100001416272263","name":"Mai PB"},"message":"Chưa hết. Bản sau đây là cover của ca sĩ cũng nổi tiếng (ca sĩ nổi tiếng và có tài của Nhật nhiều lắm, kể không hết) Yamamoto Junko 山本潤子. Hôm nọ admin Kham Pha đã có bài giới thiệu một bài hát khác do YJ trình bày rồi đó, mọi người nhớ chứ? Mọi người thấy bản cover này thế nào?\nhttp://www.youtube.com/watch?v=xUSuVuEogwI","message_tags":[{"id":"100001458099624","name":"Kham Pha","type":"user","offset":151,"length":8}],"can_remove":false,"created_time":"2013-09-27T12:10:29+0000","like_count":2,"user_likes":false}},"paging":{"cursors":{"after":"NzI3ODU0MDg3MjMxMjcx","before":"NzI3ODU0MDg3MjMxMjcx"},"next":"https://graph.facebook.com/229244010425617_727849623898384/comments?limit=1&summary=1&after=NzI3ODU0MDg3MjMxMjcx"},"summary":{"order":"chronological","total_count":10}}}