{"id":"229244010425617_727827117233968","type":"status","from":{"id":"100001723862714","name":"Bo Bien Vang"},"message":"\" Dân ngu tự chuốc lấy chính sách bạo tàn\"\n\" Nước Nhật chúng  ta có dân, trên dân có chính phủ. Phẩm cách của dân rơi vào vòng ngu tối, vô học thì luật pháp của chính phủ cũng trở nên hà khắc. Nhưng nếu quốc dân có chí học hành, tiếp thu văn minh thì không có cách nào khác, chính phủ cũng sẽ phải quảng đại, nhân đạo.\nLuật nước hà khắc hay quảng đại hoàn toàn tùy thuộc vào thái độ, phẩm cách của quốc dân.\nCó người dân nào lại mong muốn một chế độ chính trị tàn bạo?\nCó người dân nào lại mong cho đất nước kém phát triển?\nCó người dân nào lại mong cho nước mình bị ngoại bang khinh miệt?\nKhông và không thể có. Đó là tình con người trong mỗi chúng ta\"\n\nTrích trang 32-33  phần 1 \" Sách khuyến học\" Fukuzawa Yukichi\nRảnh rỗi post lên cho mọi người đọc, hy vọng giúp chút ít gì cho các mem.","created_time":"2013-09-25T14:08:40+0000","updated_time":"2013-09-26T05:22:32+0000","likes":{"data":{"100003669604211":{"id":"100003669604211","name":"Mặt Trời Phương Đông"},"100003145636260":{"id":"100003145636260","name":"Động Cơ Điện"},"100004745884493":{"id":"100004745884493","name":"Echigo Edu"},"100002185080351":{"id":"100002185080351","name":"Nguyễn Xuân Bách"},"100001458099624":{"id":"100001458099624","name":"Kham Pha"},"100001583056786":{"id":"100001583056786","name":"Van La Chanh Leo"},"100001416272263":{"id":"100001416272263","name":"Mai PB"},"100004041794244":{"id":"100004041794244","name":"Watanuki Kimihiro"}},"paging":{"cursors":{"after":"MTAwMDAzNjY5NjA0MjEx","before":"MTAwMDAzNjY5NjA0MjEx"},"next":"https://graph.facebook.com/229244010425617_727827117233968/likes?limit=1&summary=1&after=MTAwMDAzNjY5NjA0MjEx"},"summary":{"total_count":8}},"comments":{"data":{"727827953900551":{"id":"727827953900551","from":{"id":"100001646814780","name":"Nhật Dương"},"message":"Còn chính phủ ngu và bảo thủ thì làm sao","can_remove":false,"created_time":"2013-09-25T14:10:57+0000","like_count":0,"user_likes":false},"727837893899557":{"id":"727837893899557","from":{"id":"100001416272263","name":"Mai PB"},"message":"Nhật Dương: ném câu hỏi ra thì dễ lắm. Bạn đưa ra một câu trả lời xem nào?","message_tags":[{"id":"100001646814780","name":"Nhật Dương","type":"user","offset":0,"length":10}],"can_remove":false,"created_time":"2013-09-25T14:29:02+0000","like_count":1,"user_likes":false},"727839263899420":{"id":"727839263899420","from":{"id":"100000381394367","name":"Thành Nguyễn"},"message":"Chính phủ ngu và bảo thủ thì dân phải đi học trước, tự thân khai sáng trước rồi dạy chính phủ. Sau khi dạy mà chính phủ vẫn không tiếp thu được thì dân phải tiếp tục học cách để bãi truất chính phủ đi môt cách hòa bình.","can_remove":false,"created_time":"2013-09-25T14:33:03+0000","like_count":0,"user_likes":false},"727839467232733":{"id":"727839467232733","from":{"id":"100001416272263","name":"Mai PB"},"message":"Chính phủ không được ngu. Nhưng nếu đã ngu thì phải trở lại làm dân và học. Nếu không chịu trở lại làm dân và không chịu học (bảo thủ) thì phải bị chỉ trích và bị thay thế bằng người không ngu.\nĐúng với mọi quốc gia, trừ Việt Nam hiện nay.","can_remove":false,"created_time":"2013-09-25T14:33:43+0000","like_count":0,"user_likes":false},"727840737232606":{"id":"727840737232606","from":{"id":"100000381394367","name":"Thành Nguyễn"},"message":"Chính phủ làm hại dân thì dân có quyền đuổi Chính phủ. Từ Chủ tịch nước đến giao thông viên cũng vậy, nếu không làm được việc cho dân, thì dân không cần đến nữa” (Hồ Chí Minh toàn tập, tập 4, trang 283).","can_remove":false,"created_time":"2013-09-25T14:37:18+0000","like_count":0,"user_likes":false},"727843543898992":{"id":"727843543898992","from":{"id":"100001458099624","name":"Kham Pha"},"message":"Ngu sẽ đc làm quan, cứ yên tâm :))","can_remove":false,"created_time":"2013-09-25T14:43:08+0000","like_count":1,"user_likes":false},"727843603898986":{"id":"727843603898986","from":{"id":"100001646814780","name":"Nhật Dương"},"message":"Vấn đề là ở chính phủ VN nói mà không làm,hô hào rồi đưa ra nghị quyết nhưng không chịu làm đến nơi đến chốn, cán bộ sai nát ra mà không xử lý nghiêm minh làm luật pháp bị nhờn ,dân kiện cán bộ thì không được bảo vệ , mất sự thượng tôn pháp luật. Tỷ lệ người phạm pháp cao nhất ở VN có lẽ là cán bộ cơ quan nhà nước.","can_remove":false,"created_time":"2013-09-25T14:43:12+0000","like_count":0,"user_likes":false},"727846813898665":{"id":"727846813898665","from":{"id":"100001646814780","name":"Nhật Dương"},"message":"Pháp luật thì rất nhiều kẻ hở, cơ quan nhà nước nhiệm vụ thì chồng chéo, trách nhiệm khi xảy ra sai phạm luôn chung chung, tập thể khó xử lý, không đề cao trách nhiệm đứng đầu, bao che lẫn nhau... thằng nào dám kiện 1 tập thể cơ quan địa phương,1 tổ chức  mà không có bất cứ cái gì bảo vệ họ không ? .Nếu người đó có thể bị trù dập ,xã hội đen hù dọa đòi xử lý.","can_remove":false,"created_time":"2013-09-25T14:51:32+0000","like_count":0,"user_likes":false},"727850697231610":{"id":"727850697231610","from":{"id":"100001458099624","name":"Kham Pha"},"message":"Luôn có con đường để giải quyết mọi chuyện. Chỉ là có người đủ giỏi tìm ra và làm nó hay ko thôi. Đừng bi quan quá, cứ sống tốt cs của mình làm cho xh tốt lên, một ngày nào đó bạn sẽ gặp những người ấy ^^","can_remove":false,"created_time":"2013-09-25T15:00:20+0000","like_count":2,"user_likes":false},"727851897231490":{"id":"727851897231490","from":{"id":"100001416272263","name":"Mai PB"},"message":"đến gặp Kham Pha đi ;-)","message_tags":[{"id":"100001458099624","name":"Kham Pha","type":"user","offset":8,"length":8}],"can_remove":false,"created_time":"2013-09-25T15:02:43+0000","like_count":1,"user_likes":false},"728142213869125":{"id":"728142213869125","from":{"id":"100000381394367","name":"Thành Nguyễn"},"message":"Thời bây giờ sao có thể có suy nghĩ cổ điển kiểu chờ gặp người đó tài giỏi tìm ra con đường giải quyết mọi chuyện được. Đấy là lối tư duy phong kiến mong chờ Minh Quân, Lãnh tụ hay các cứu tinh kiểu \"Bác Hồ ra đi tìm đường cứu nước \" cái mô hình đó đã không còn thích hợp cho thời đại ngày nay. Muốn thay đổi xã hội thì tự bản thân mỗi người phải tự lực khai sáng cho bản thân mình, để mỗi người trở thành một phần cho giải pháp chung của xã hội chứ không chỉ ngồi. Ngay cả Nhật bản có duy tân thành công đó cũng ko phải là trông cậy vào vài ba cá nhân mà thành, là cả một thế hệ cùng nhất trí đồng lòng thì mới làm được. Tất nhiên sẽ có những thành phần hạt nhân làm lãnh đạo nhưng cốt lõi vẫn là truyền bá được tư tưởng \"tư cách quốc dân độc lập\" . Muốn mỗi người có tư cách đốc lập thì trước tiên mỗi cá nhân phải suy nghĩ dựa vào bản thân mình chứ không ngồi đợi trông cậy ở người khác.","can_remove":false,"created_time":"2013-09-26T05:21:27+0000","like_count":0,"user_likes":false},"728142770535736":{"id":"728142770535736","from":{"id":"100000381394367","name":"Thành Nguyễn"},"message":"Một đàn trâu có thể húc chết con hổ, tìm một con hổ thì khó nhưng tìm trâu thì có rất nhiều. Giải pháp bây giờ phải tìm ở đàn trâu chứ không phải trông cậy vào chúa sơn lâm. Tinh thần của  cái đoạn trong Khuyến học kia chính là như thế, tự mỗi người bình thường nhất cũng phải vận động cho công cuộc canh tân đất nước.","can_remove":false,"created_time":"2013-09-26T05:22:32+0000","like_count":1,"user_likes":false}},"paging":{"cursors":{"after":"NzI3ODI3OTUzOTAwNTUx","before":"NzI3ODI3OTUzOTAwNTUx"},"next":"https://graph.facebook.com/229244010425617_727827117233968/comments?limit=1&summary=1&after=NzI3ODI3OTUzOTAwNTUx"},"summary":{"order":"chronological","total_count":12}}}