{"id":"229244010425617_728140117202668","type":"status","from":{"id":"100006434591983","name":"Mizunashi Akari"},"message":"Cho mình hỏi, mọi người ở bên Nhật ngủ bao nhiêu giờ một ngày?\nNhật là một đất nước bận rộn, ngủ nhiều không phải la một lựa chọn tốt, mình tham khảo nhiều bài viết trên mạng, một ngày chỉ cần ngủ khoảng dưới 6h vẫn có thể làm việc hiệu quả như bình thường, mình muốn tham khảo để từ bây giờ thay đổi dần thói quen trước khi sang bên đó.\nCám ơn.","created_time":"2013-09-26T05:14:43+0000","updated_time":"2013-09-27T14:14:41+0000","likes":{"data":{"100003629530970":{"id":"100003629530970","name":"Hoa Thiên Điểu"},"100002371267781":{"id":"100002371267781","name":"Rainy Mai"},"100004322010992":{"id":"100004322010992","name":"Nhím Xù"},"100000073848158":{"id":"100000073848158","name":"Hoàng Đắc"},"100003269104309":{"id":"100003269104309","name":"Tuấn Ham Hố"},"100005356273065":{"id":"100005356273065","name":"Pham Linh"}},"paging":{"cursors":{"after":"MTAwMDAzNjI5NTMwOTcw","before":"MTAwMDAzNjI5NTMwOTcw"},"next":"https://graph.facebook.com/229244010425617_728140117202668/likes?limit=1&summary=1&after=MTAwMDAzNjI5NTMwOTcw"},"summary":{"total_count":7}},"comments":{"data":{"728140953869251":{"id":"728140953869251","from":{"id":"100000073848158","name":"Hoàng Đắc"},"message":"có tài liệu nói là 8h đấy :v","can_remove":false,"created_time":"2013-09-26T05:17:14+0000","like_count":0,"user_likes":false},"728148660535147":{"id":"728148660535147","from":{"id":"100001327275562","name":"Aoki Hagane No Arpeggio"},"message":"6 tiếng :v cơ mà đối với 1 số dạng ng thì có thể ngủ nhiều hơn :v","can_remove":false,"created_time":"2013-09-26T05:37:06+0000","like_count":1,"user_likes":false},"728204773862869":{"id":"728204773862869","from":{"id":"100001754136107","name":"Nguyễn Tuấn Vũ"},"message":"Thuong la 5-6h bạn ak, ng nhât dậy sớm thường từ 4h30-5h","can_remove":false,"created_time":"2013-09-26T09:50:09+0000","like_count":2,"user_likes":false},"728217610528252":{"id":"728217610528252","from":{"id":"100006248618563","name":"Momi Zi"},"message":"ngủ thì muộn","can_remove":false,"created_time":"2013-09-26T10:41:32+0000","like_count":0,"user_likes":false},"728775483805798":{"id":"728775483805798","from":{"id":"100006572713690","name":"Đại Chim Lợn"},"message":"Ặc! Toàn nói lung tung! Tôi sống đây mà thấy như mấy bạn nói đâu! Tầm 10h tắt hết điện! 11h ko còn cái bóng nào! Ngủ sơm sang mai họ dậy bt vì 9 h mới là giờ hành chính của nhật! Các cụ ko nên nói linh tinh! Ai cũng có cách sống của rieng họ! Mình sống theo cv và cách sống của mình'! Theo làm gì! Làm thế nào mà phù hợp vs hoàn cảnh của mình là dc!","can_remove":false,"created_time":"2013-09-27T14:08:59+0000","like_count":1,"user_likes":false},"728776317139048":{"id":"728776317139048","from":{"id":"100001327275562","name":"Aoki Hagane No Arpeggio"},"message":"Hùng Tàu Điện thì mình chỉ nói 1 số dạng ng thôi mà :( có nhiều người phải làm việc vào ban đêm thay vì ban ngày nữa chứ bộ, ko kể những người quyết định đi làm thêm ở cơ quan. Nên làm ơn bình tĩnh một tí đi ạ :(","message_tags":[{"id":"100006572713690","name":"Hùng Tàu Điện","type":"user","offset":0,"length":13}],"can_remove":false,"created_time":"2013-09-27T14:11:50+0000","like_count":0,"user_likes":false},"728777753805571":{"id":"728777753805571","from":{"id":"100006572713690","name":"Đại Chim Lợn"},"message":"Oh ha! Vậy ai dám đảm bảo họ ngủ dứoi 6 tiếng một ngày! Làm đêm thì họ ngủ ngày! Họ sẽ tự biết săp xếp thời gian hợp lý! Các bạn làm sao phải theo nhưng cái vơ vẩn ấy! Các bạn làm thế nào mà cv học tập làm việc và sức khoẻ tốt là dc! Chẳng phải theo ai cả?","can_remove":false,"created_time":"2013-09-27T14:14:41+0000","like_count":0,"user_likes":false}},"paging":{"cursors":{"after":"NzI4MTQwOTUzODY5MjUx","before":"NzI4MTQwOTUzODY5MjUx"},"next":"https://graph.facebook.com/229244010425617_728140117202668/comments?limit=1&summary=1&after=NzI4MTQwOTUzODY5MjUx"},"summary":{"order":"chronological","total_count":7}}}