{"id":"229244010425617_728104583872888","type":"status","from":{"id":"100001458099624","name":"Kham Pha"},"message":"Có bạn nào phân biệt đc cách dùng của những từ này ko? \n使用する、利用する、使う、用いる。\nNói cho mọi người cùng biết cách nghĩ của bạn nào ^^","created_time":"2013-09-26T03:11:46+0000","updated_time":"2013-09-26T11:16:51+0000","likes":{"data":{"100003688887538":{"id":"100003688887538","name":"Chibi Maruko"},"1400326262":{"id":"1400326262","name":"Matsumoto Soutarou"},"100005478454231":{"id":"100005478454231","name":"Maruko Chan"},"1821970083":{"id":"1821970083","name":"Nguyễn Mạnh Cường"},"100004514621076":{"id":"100004514621076","name":"Hason Angle"},"100004477292126":{"id":"100004477292126","name":"Kien Xinh Doan"},"100002246102863":{"id":"100002246102863","name":"Thuong Nht"},"100002508122689":{"id":"100002508122689","name":"Vũ Mạnh Tuấn"},"100002470650247":{"id":"100002470650247","name":"LinhLinh Chan"},"100004555149996":{"id":"100004555149996","name":"Dat Phan Tan"},"100001723862714":{"id":"100001723862714","name":"Bo Bien Vang"},"1822854513":{"id":"1822854513","name":"Sữa Chua Không Đường"},"100001062202744":{"id":"100001062202744","name":"Hoang Garu"},"100003055356509":{"id":"100003055356509","name":"Thuan Nguyen"},"1146680551":{"id":"1146680551","name":"優しい なぁ"},"100002568133487":{"id":"100002568133487","name":"Ty Ti"},"100004112258038":{"id":"100004112258038","name":"Chung Tran"},"100002976213828":{"id":"100002976213828","name":"Nana"}},"paging":{"cursors":{"after":"MTAwMDAzNjg4ODg3NTM4","before":"MTAwMDAzNjg4ODg3NTM4"},"next":"https://graph.facebook.com/229244010425617_728104583872888/likes?limit=1&summary=1&after=MTAwMDAzNjg4ODg3NTM4"},"summary":{"total_count":18}},"comments":{"data":{"728104977206182":{"id":"728104977206182","from":{"id":"100000198219367","name":"Chang Jiang"},"message":"cái này mình cũng ko biết khác nhau như thế nào, hóng cao nhân :3","can_remove":false,"created_time":"2013-09-26T03:12:48+0000","like_count":1,"user_likes":false},"728110217205658":{"id":"728110217205658","from":{"id":"100006089102969","name":"カメ 悪い"},"message":"Tra từ điển thì nên đọc cả ví dụ","can_remove":false,"created_time":"2013-09-26T03:29:39+0000","like_count":0,"user_likes":false},"728110297205650":{"id":"728110297205650","from":{"id":"100006089102969","name":"カメ 悪い"},"message":"","can_remove":false,"created_time":"2013-09-26T03:29:53+0000","like_count":0,"user_likes":false},"728110600538953":{"id":"728110600538953","from":{"id":"100006089102969","name":"カメ 悪い"},"message":"","can_remove":false,"created_time":"2013-09-26T03:30:13+0000","like_count":1,"user_likes":false},"728110763872270":{"id":"728110763872270","from":{"id":"100006089102969","name":"カメ 悪い"},"message":"","can_remove":false,"created_time":"2013-09-26T03:30:25+0000","like_count":1,"user_likes":false},"728110803872266":{"id":"728110803872266","from":{"id":"100006089102969","name":"カメ 悪い"},"message":"","can_remove":false,"created_time":"2013-09-26T03:30:39+0000","like_count":1,"user_likes":false},"728111673872179":{"id":"728111673872179","from":{"id":"100001458099624","name":"Kham Pha"},"message":"Tra xong thì kết luận nó khác nhau ở đâu ^^","can_remove":false,"created_time":"2013-09-26T03:32:32+0000","like_count":0,"user_likes":false},"728112037205476":{"id":"728112037205476","from":{"id":"100006089102969","name":"カメ 悪い"},"message":"Đọc kỹ ví dụ thì khắc hiểu\nNói nó 曖昧 chả rõ dc","can_remove":false,"created_time":"2013-09-26T03:33:41+0000","like_count":0,"user_likes":false},"728113850538628":{"id":"728113850538628","from":{"id":"100001458099624","name":"Kham Pha"},"message":"車を利用する、使用する、使う、用いる cái nào được cái nào ko?","can_remove":false,"created_time":"2013-09-26T03:39:28+0000","like_count":0,"user_likes":false},"728119227204757":{"id":"728119227204757","from":{"id":"100006089102969","name":"カメ 悪い"},"message":"Cái nào cũng sd dc mỗi từ một hoàn cảnh bối cảnh khác nhau\nĐọc kỹ vd ở trên sẽ thấy sự khác nhau \nTrc khi nhìn vào nghĩa nhìn âm hán việt của nó trc","can_remove":false,"created_time":"2013-09-26T03:56:22+0000","like_count":0,"user_likes":false},"728123567204323":{"id":"728123567204323","from":{"id":"100000025833265","name":"Nghia Duong Tuan"},"message":"ban Khanh Vu cho minh hoi fan mem tu dien Viet-Nhat ban dang dung ten la gi dc ko a","can_remove":false,"created_time":"2013-09-26T04:08:52+0000","like_count":0,"user_likes":false},"728132803870066":{"id":"728132803870066","from":{"id":"100000198219367","name":"Chang Jiang"},"message":"nếu thế thì chỗ shiyouhou và tsukaikata thì khác nhau ở đâu, như ở VD ở hình 1 ấy :))","can_remove":false,"created_time":"2013-09-26T04:43:39+0000","like_count":0,"user_likes":false},"728134893869857":{"id":"728134893869857","from":{"id":"100000098004511","name":"Nguyễn Đức Tùng"},"message":"sau khi kết hợp tra từ điển Nhật-Nhật với khả năng giác ngộ của bản thân thì tôi tạm kết luận thế này :))\n\n使う：nghĩa chỉ đơn giản là dùng, ko có nghĩa đặc biệt khác, dùng được cho mọi đối tượng (người, vật, phương pháp...)\n\n用いる：硬い表現 của 使う, trang trọng hơn, dùng trong văn viết hoặc trong スピーチ, ko hay dùng với những vật nhỏ bé như dùng bút, dùng tẩy, dùng giấy...\n\n使用する：特定の目的のために人や物やシステムを使うこと\ndùng đối tượng với mục đích đặc trưng, riêng biệt, ví dụ như dùng gia vị hay dùng phòng họp để họp...\n\n利用する：物、システム、施設等が持つ機能や特性を十分に(あるいは拡張させて)使うこと。「人を利用する」という場合は、人の力を使って自分に都合がよいことを行う意\nchữ hán là \"lợi dụng\", có thể hiểu là dùng và phát huy tối đa khả năng của đối tượng và mang lại lợi ích cho người dùng\n\n活用する： từ này có nghĩa khá giống với 利用する tuy nhiên nghĩa tích cực hơn, thử cảm nhận xem 人を利用する và 人を活用する có gì khác nhau ko ;)\n\n利活用する： trong từ điển chỉ giải thích từ này là　利用と活用, có lẽ từ này nghĩa còn mạnh hơn 2 từ kia...\n\nngoài ra thì còn 1 đống từ nữa như 所用、運用、採用、応用、併用... khuyến khích các bạn tra từ điển Nhật-Nhật để hiểu thêm :3","can_remove":false,"created_time":"2013-09-26T04:51:10+0000","like_count":12,"user_likes":false},"728135080536505":{"id":"728135080536505","from":{"id":"100000198219367","name":"Chang Jiang"},"message":"Tun có khác, sáng tỏ ngay vấn đề :3","can_remove":false,"created_time":"2013-09-26T04:52:10+0000","like_count":0,"user_likes":false},"728135117203168":{"id":"728135117203168","from":{"id":"100000198219367","name":"Chang Jiang"},"message":"lần sau cứ phải tag Nguyễn Đức Tùng vào cho nhanh :3","message_tags":[{"id":"100000098004511","name":"Nguyễn Đức Tùng","type":"user","offset":20,"length":15}],"can_remove":false,"created_time":"2013-09-26T04:52:27+0000","like_count":0,"user_likes":false},"728136370536376":{"id":"728136370536376","from":{"id":"100001458099624","name":"Kham Pha"},"message":"Đúng như Nguyễn Đức Tùng nói 用いる là dùng trong văn viết nhiều hơn. Nhưng bổ sung thêm một chút.\n「頭を使う」「神経を使う」 không dùng được với 「用いる」.\nNgược lại 「意を用いる」「心を用いる」 không dùng được với 「使う」.","message_tags":[{"id":"100000098004511","name":"Nguyễn Đức Tùng","type":"user","offset":9,"length":15}],"can_remove":false,"created_time":"2013-09-26T04:57:35+0000","like_count":1,"user_likes":false},"728137170536296":{"id":"728137170536296","from":{"id":"100001458099624","name":"Kham Pha"},"message":"人を利用する mang nghĩa ko tốt. Ngoại trừ trường hợp đó thì nó không có nghĩa xấu. \n活用 là hoạt dụng, tức là sử dụng linh hoạt, sử dụng một cách khôn ngoan. \n利用 là sử dụng nhưng đề cao rằng việc sử dụng ấy đem lại lợi ích rõ ràng cho người dùng khác với 使用 chỉ là sử dụng nói chung.","can_remove":false,"created_time":"2013-09-26T05:00:53+0000","like_count":0,"user_likes":false},"728138373869509":{"id":"728138373869509","from":{"id":"100000098004511","name":"Nguyễn Đức Tùng"},"message":"Chang Jiang group có người Nhật thì tag vào là nhanh nhất :))\nKham Pha riêng trường hợp của 心 thì tôi dám chắc là dùng đc cả 2, tuy nhiên ko hiểu có khác gì nhau ko thôi, tra từ điển cũng ko rõ lắm\n心を用いる:いろいろ注意する。配慮する。「来客のもてなしに―・いる」\n心(こころ)を使う:気を配る。心配する。心遣いをする。「来客への応対に―・う」","message_tags":[{"id":"100000198219367","name":"Chang Jiang","type":"user","offset":0,"length":11},{"id":"100001458099624","name":"Kham Pha","type":"user","offset":62,"length":8}],"can_remove":false,"created_time":"2013-09-26T05:06:54+0000","like_count":0,"user_likes":false},"728211477195532":{"id":"728211477195532","from":{"id":"1821970083","name":"Nguyễn Mạnh Cường"},"message":"Hôm nay thầy giáo có lấy ví dụ về từ 利用 (lợi dụng), nó khác hoàn toàn với tiếng Hán mình, mình thì nghĩa vẻ như không tốt khi lợi dụng cái gì đó, nhưng với người Nhật thì ko phải như vậy. 活用 thì hiểu theo 1 nghĩa nữa là tận dụng hết có thể","can_remove":false,"created_time":"2013-09-26T10:20:07+0000","like_count":0,"user_likes":false},"728228947193785":{"id":"728228947193785","from":{"id":"100001458099624","name":"Kham Pha"},"message":"人を利用する là nghĩa xấu đấy.","can_remove":false,"created_time":"2013-09-26T11:16:51+0000","like_count":1,"user_likes":false}},"paging":{"cursors":{"after":"NzI4MTA0OTc3MjA2MTgy","before":"NzI4MTA0OTc3MjA2MTgy"},"next":"https://graph.facebook.com/229244010425617_728104583872888/comments?limit=1&summary=1&after=NzI4MTA0OTc3MjA2MTgy"},"summary":{"order":"chronological","total_count":20}}}