{"id":"229244010425617_728201553863191","type":"photo","object_id":"1379589538944084","picture":"https://fbcdn-photos-d-a.akamaihd.net/hphotos-ak-ash3/t1.0-0/1240401_1379589538944084_2040351724_s.jpg","link":"https://www.facebook.com/photo.php?fbid=1379589538944084&set=gm.728201553863191&type=1&relevant_count=1","from":{"id":"100006791522748","name":"Hưng Tuấn"},"message":"Xin phép admin bài viết này có thể sẽ hữu ích cho một số thành viên trong nhóm chúng ta.\nBạn đang muốn theo học tiếng nhật ? nhưng mà bạn lại không biết là nên học ở đâu?\nhay là chọn trung tâm nào ? vừa với khả năng tài chính của bạn mà chất lượng không hề thua kém những Trung tâm Tiếng nhật lớn !\nHãy đến với Trung tâm Nhật ngữ SOFL !\nTại đây bạn được tham gia học ở một một trường thân thiện\nCơ sở vật chất hiện đại, giáo trình tiên tiến.\nĐặc biệt là có đội ngũ giảng viên giàu kinh nghiệm và nhiệt huyết !\nHiện Tại Nhật Ngữ SOFL đang tuyển sinh lớp Sơ Cấp 1,2 với nhiều ưu đãi đặc biệt !\nThông tin chi tiết tại website:http://jp.sofl.edu.vn/","created_time":"2013-09-26T09:33:11+0000","updated_time":"2013-09-27T13:23:26+0000","likes":{"data":{"100006791522748":{"id":"100006791522748","name":"Hưng Tuấn"}},"paging":{"cursors":{"after":"MTAwMDA2NzkxNTIyNzQ4","before":"MTAwMDA2NzkxNTIyNzQ4"}},"summary":{"total_count":1}},"comments":{"data":{"728580240491989":{"id":"728580240491989","from":{"id":"100006791522748","name":"Hưng Tuấn"},"message":"Trang Kem ơi xem cái này đi !","message_tags":[{"id":"1572811744","name":"Trang Kem","type":"user","offset":0,"length":9}],"can_remove":false,"created_time":"2013-09-27T03:55:33+0000","like_count":0,"user_likes":false},"728680257148654":{"id":"728680257148654","from":{"id":"100006760322718","name":"Nhóc Kute"},"message":"mai mình sẽ đi đk!","can_remove":false,"created_time":"2013-09-27T09:23:42+0000","like_count":0,"user_likes":false},"728753160474697":{"id":"728753160474697","from":{"id":"100006791522748","name":"Hưng Tuấn"},"message":"Ok ! bạn có thể đăng ký online hoặc đến trực tiếp trung tâm nhé ! rất hân hạnh đón tiếp bạn !","can_remove":false,"created_time":"2013-09-27T13:23:26+0000","like_count":1,"user_likes":false}},"paging":{"cursors":{"after":"NzI4NTgwMjQwNDkxOTg5","before":"NzI4NTgwMjQwNDkxOTg5"},"next":"https://graph.facebook.com/229244010425617_728201553863191/comments?limit=1&summary=1&after=NzI4NTgwMjQwNDkxOTg5"},"summary":{"order":"chronological","total_count":3}}}