{"id":"229244010425617_728576993825647","type":"status","from":{"id":"100004745884493","name":"Echigo Edu"},"message":"Du học Nhật Bản tháng 4 - 2014\nĐối tượng:\n1-Học sinh tốt nghiệp 12\n2-Sinh viên đang/sắp tốt nghiệp Cao Đẳng/Đại học\n3-Sinh viên đã tốt nghiệp và đang đi làm \n\nMục đích đi học:\n1-Để tiếp cận nền giáo dục chất lượng cao\n2-Để rèn luyện và phát triển khả năng tiếng Nhật \n3-Để có nhiều cơ hội việc làm ổn định, thu nhập cao\n4-Tìm hiểu và trãi nghiệm văn hóa Nhật Bản \nThời gian và qui trình xin nhập học: \nTháng 9-10: Học viên liên hệ ECHIGO tư vấn và chọn trường (hoàn toàn miễn phí) \n(info@echigo.edu.vn hoặc đt: 0909-202-171)\nHọc viên nhận kết quả đồng ý tiềp nhận của trường trong vòng 1tuần. \nTháng 10: Học viên nộp hồ sơ (*) đến ECHIGO\nECHIGO bảo lãnh thủ tục chứng minh tài chính \nTháng 11: ECHIGO đảm bảo hồ sơ đầy đủ chính xác theo qui định Sở Nhập Cảnh và chuyển hồ sơ đến trường\nTrường nộp hồ sơ cho Sở Nhập Cảnh\nTháng 1-2: Sở Nhập Cảnh xác minh hồ sơ\nCuối th-2: Sở Nhập Cảnh thông báo kết quả cấp giấy phép đến Nhật nhập học\nHọc viên đóng học phí trực tiếp cho trường (chuyển khoản)\nTháng 3: Học viên nhận giấy nhập học và nộp đơn xin visa (lệ phí 750,000đ)\nHọc viên nhận visa và mua vé bay (~400USD)\nTháng 4-2014: Nhập học tại Nhật Bản\n\nMọi chi tiết xin vui lòng liên hệ: \nTS. Trương Quang Đăng Khoa, \nechigo.edu@gmail.com","created_time":"2013-09-27T03:45:22+0000","updated_time":"2013-09-27T15:19:46+0000","likes":{"data":{"100001616356630":{"id":"100001616356630","name":"Lan Anh Nguyen"},"100004882561663":{"id":"100004882561663","name":"Nguyen Hau"},"100004253979918":{"id":"100004253979918","name":"Louis Hoàng Văn Thái"},"100006054123269":{"id":"100006054123269","name":"Hoai Linh Lê"},"100006435726291":{"id":"100006435726291","name":"Amethyst Nguyen"},"100005882954389":{"id":"100005882954389","name":"Thu Hằng Nguyễn"},"100003629530970":{"id":"100003629530970","name":"Hoa Thiên Điểu"}},"paging":{"cursors":{"after":"MTAwMDAxNjE2MzU2NjMw","before":"MTAwMDAxNjE2MzU2NjMw"},"next":"https://graph.facebook.com/229244010425617_728576993825647/likes?limit=1&summary=1&after=MTAwMDAxNjE2MzU2NjMw"},"summary":{"total_count":7}},"comments":{"data":{"728589270491086":{"id":"728589270491086","from":{"id":"100003629530970","name":"Hoa Thiên Điểu"},"message":"vậy tức là ko phải học ở việt nam 1 khóa trước khi sang hả bạn?","can_remove":false,"created_time":"2013-09-27T04:30:39+0000","like_count":0,"user_likes":false},"728593950490618":{"id":"728593950490618","from":{"id":"100006434038893","name":"Gấu Béo"},"message":"Ở đâu mà chả phải học bạn","can_remove":false,"created_time":"2013-09-27T04:49:08+0000","like_count":0,"user_likes":false},"728615897155090":{"id":"728615897155090","from":{"id":"100004745884493","name":"Echigo Edu"},"message":"Ở VN phải học 150 giờ + bằng N5 năng lực Nhật ngữ nhé bạn","can_remove":false,"created_time":"2013-09-27T05:53:38+0000","like_count":0,"user_likes":false},"728623903820956":{"id":"728623903820956","from":{"id":"100004608482123","name":"Bé Bi"},"message":"học phí thế nào bạn :","can_remove":false,"created_time":"2013-09-27T06:11:30+0000","like_count":1,"user_likes":false},"728624783820868":{"id":"728624783820868","from":{"id":"100004745884493","name":"Echigo Edu"},"message":"bạn muốn hỏi học phí nào? học phí đi học bên nhật hay học phí học Tiếng Nhật để lấy bằng N5","can_remove":false,"created_time":"2013-09-27T06:13:03+0000","like_count":0,"user_likes":false},"728625160487497":{"id":"728625160487497","from":{"id":"100004608482123","name":"Bé Bi"},"message":"học phí học bên nhật :D","can_remove":false,"created_time":"2013-09-27T06:13:34+0000","like_count":0,"user_likes":false},"728626440487369":{"id":"728626440487369","from":{"id":"100004745884493","name":"Echigo Edu"},"message":"Trường tiếng Nhật bên Nhật dao động từ 5500~ 7500 USD/ năm . Tùy trường tùy thành phố nhé bạn","can_remove":false,"created_time":"2013-09-27T06:15:33+0000","like_count":1,"user_likes":false},"728638560486157":{"id":"728638560486157","from":{"id":"100002568133487","name":"Ty Ti"},"message":"b cho mình ít thông tin về trường yamate ở saitama dc k ?","can_remove":false,"created_time":"2013-09-27T06:44:35+0000","like_count":0,"user_likes":false},"728639237152756":{"id":"728639237152756","from":{"id":"100004745884493","name":"Echigo Edu"},"message":"http://yis.ygnet.jp/index_v.html đây là link của trường bạn có thể tham khảo nhé","can_remove":false,"created_time":"2013-09-27T06:47:26+0000","like_count":0,"user_likes":false},"728640310485982":{"id":"728640310485982","from":{"id":"100002568133487","name":"Ty Ti"},"message":"arigatougozaimashita","can_remove":false,"created_time":"2013-09-27T06:50:55+0000","like_count":0,"user_likes":false},"728640637152616":{"id":"728640637152616","from":{"id":"100004745884493","name":"Echigo Edu"},"message":"^^! nếu còn thắc mắc bạn có thể hỏi mình nhé! Cám ơn bạn!","can_remove":false,"created_time":"2013-09-27T06:52:44+0000","like_count":0,"user_likes":false},"728641280485885":{"id":"728641280485885","from":{"id":"100002568133487","name":"Ty Ti"},"message":"nếu mình đóng học phí 1 năm+các chi phí tất cả để làm hồ sơ ,thì tống số tiền sẽ phải bỏ  để du học  là bnhieeu vậy ? ( đối với các trường ở saitama )","can_remove":false,"created_time":"2013-09-27T06:56:11+0000","like_count":1,"user_likes":false},"728675870482426":{"id":"728675870482426","from":{"id":"100003324969497","name":"Nam Phạm"},"message":"tu nghiệp sinh về nước hợp pháp mà muốn quay trở lại du học thì như thế nào hả bạn Echigo Edu?","message_tags":[{"id":"100004745884493","name":"Echigo Edu","type":"user","offset":83,"length":10}],"can_remove":false,"created_time":"2013-09-27T09:09:58+0000","like_count":0,"user_likes":false},"728679927148687":{"id":"728679927148687","from":{"id":"100004745884493","name":"Echigo Edu"},"message":"để được tư vấn chi tiết về những thắc mắc bạn vui lòng gửi email đến echigo.edu@gmail.com để được tư vấn chính xác nhé. Cám ơn bạn!","can_remove":false,"created_time":"2013-09-27T09:22:21+0000","like_count":0,"user_likes":false},"728806020469411":{"id":"728806020469411","from":{"id":"100004882561663","name":"Nguyen Hau"},"message":"^_^","can_remove":false,"created_time":"2013-09-27T15:19:46+0000","like_count":1,"user_likes":false}},"paging":{"cursors":{"after":"NzI4NTg5MjcwNDkxMDg2","before":"NzI4NTg5MjcwNDkxMDg2"},"next":"https://graph.facebook.com/229244010425617_728576993825647/comments?limit=1&summary=1&after=NzI4NTg5MjcwNDkxMDg2"},"summary":{"order":"chronological","total_count":15}}}