{"id":"229244010425617_728984027118277","type":"status","from":{"id":"100000687662713","name":"Vu Thi Man"},"message":"Ở Nhật thì...\n1. Cảm giác như mặt trời chiếu xuống trái đất gần hơn vậy nên buổi sớm đi làm hay buổi chiều đi làm mặt trời cứ chiếu thẳng mặt với 1 cường độ rất mạnh, cái nắng rất chói chang, mặc dù đã đeo 1 quả kính đen xì nhưng cũng không bớt chói.\nCòn buổi trưa thì rát bỏng cả da, độ bắt nắng thì cực nhanh không phải suy nghĩ.\n2. Mặc dù được đánh giá là 1 nước có nền giáo dục tốt nhưng sao vẫn cứ thấy thương.\nVì được đào tạo ngay từ khi còn nhỏ, nên trẻ con ở Nhật tính độc lập và tự giác rất cao. Sáng nào đi làm cũng thấy khoảng gần 100 trẻ, rồng rắn nối đuôi nhau đến trường. Thường thường mấy anh chị lớn sẽ là người dẫn đầu đoàn, không có chuyện người lớn đón đưa như ở VN, tuy nhiên ở các ngã tư có những người tình nguyện hướng dẫn. Mà tình nguyện cũng lạ nữa chứ. Không kể tuổi tác, giới tính, nghề nghiệp, cứ đến giờ đó, họ đứng đấy chờ các em đi qua hướng dẫn xong rồi lại tất bật về đi làm. Và cả những cây nấm lùn bé tí ti với 1 chiếc cặp khủng trên lưng. Hầu hết, em nào cũng đeo hoặc xách 2 túi trở lên. Cặp đựng sách vở sau lưng, 1 chiếc túi xách ở tay ( mình đoán là túi cơm hộp), 1 chiếc túi nữa đeo ở cổ (túi này chắc đựng nước), một số em còn xách thêm 1 túi nữa (mình không đoán được là gì), cứ thế bước đi mà đường ở Nhật không bằng, toàn thấy dốc. Ừ thì các em tự làm và có thể việc mang đồ như thế đối với các em không thấy phiền toái nhưng nhìn thấy mình cứ thấy thương. Đôi khi đi chơi hoặc đi làm, mình chỉ khoác lên vai cái túi, nhẹ nhàng vậy mà còn thấy khó chịu, lúc đấy lại nghĩ đến hình ảnh các em, bụng bảo dạ rằng: các em làm được nên mình phải cố gắng thôi.\n3. Có lẽ, không ở đâu lịch sự bằng Nhật. Dường như lúc nào trên môi người Nhật cũng có 2 từ xin lỗi và cảm ơn. Họ dùng mọi lúc, mọi nơi và sử dụng với bất kì hoàn cảnh, đối tượng nào. Ngay cả với bạn bè, họ cũng sử dụng thường xuyên. Mình nghĩ, với bạn bè mà dùng nhiều quá thì thật là khách sáo. Mình cũng sử dụng nó thường ngày nhưng chỉ tiếng Nhật thôi, còn với tiếng Việt mình rất ít sử dụng đặc biệt là với người thân vì mình thấy đến người thân mà phải dùng đến những câu đó thường ngày thì chẳng khác gì người ngoài. Mình nghĩ phải khi nào thật đặc biệt mới sử dụng đến nó. Cũng có thể suy nghĩ đó của mình là sai...\nHôm vừa rồi đi làm về, vừa quẹo vào ngõ thấy 2 cậu con trai khoảng chừng 18 ~ 20 tuổi, mặc trang phục trắng toát, từ đầu đến chân đang đi nhặt rác, nhìn thấy mình, 2 cậu ấy đứng nghiêm lại, ngả mũ, cúi đầu chào. Thật đúng là 1 hình tượng đẹp.\n4. Ý thức của người Nhật cũng thật tuyệt vời. Khi chấp hành những việc đó, họ tự ý thức, tự làm mà không cần người giám sát. Ví dụ rất đơn giản như việc bỏ chai, lọ vào thùng rác, trước khi bỏ vào cần phải bóc nhãn mác chẳng hạn. Từ việc ý thức này suy luận đến vấn đề giao thông ở VN. Bên mình thường viện cớ nhiều lí do để giải thích cho tình trạng ùn tắc nghiêm trọng ở các tuyến phố, họp hành triền miên rồi sau cùng quy cho việc hạ tầng đô thị không thích hợp. Sang đây chứng kiến mình nhận thấy không phải thế. Không biết ở các tỉnh, thành phố lớn khác thế nào, chỗ ` quê`mình ở thấy đường phố cũng chỉ có 1 làn xe nhưng hầu như chẳng khi nào bị tắc đường. Hãy nhìn dân Nhật tham gia giao thông xem, ý thức rất cao. Không có chuyện thấy chỗ kia còn trống mà xe sau lại chen lên đỗ vào. Họ luôn đỗ xe đúng làn đường. Còn ở VN thì sao, thấy chỗ trống có thể di chuyển được là chen vào không cần biết là làn bên phải hay bên trái, và vô tình bít luôn đường lưu thông của làn xe đi ngược lại, thế là tắc đường thành 1 làn dài vì tất cả đều không có lối thoát.\n5. Và còn nhiều nữa...","created_time":"2013-09-27T23:48:27+0000","updated_time":"2013-09-28T15:00:21+0000","likes":{"data":{"100002615664668":{"id":"100002615664668","name":"PuPu Phương Elf"},"100003820151744":{"id":"100003820151744","name":"Thu Cá Tính"},"100005982402082":{"id":"100005982402082","name":"Hcm Ilu"},"100001690659856":{"id":"100001690659856","name":"Nguyễn Trường Giang"},"100000073848158":{"id":"100000073848158","name":"Hoàng Đắc"},"100003761520870":{"id":"100003761520870","name":"Strange Moon"},"100000022163023":{"id":"100000022163023","name":"Kafe Ore"},"100003847583376":{"id":"100003847583376","name":"さよなら 大好き な人"},"100003011417151":{"id":"100003011417151","name":"Hue Kim"},"100004028173069":{"id":"100004028173069","name":"Jin Ngốc"},"100000266887521":{"id":"100000266887521","name":"Hương Lê Thu"},"100004514621076":{"id":"100004514621076","name":"Hason Angle"},"100002607997537":{"id":"100002607997537","name":"Trần Đức Chiến"},"1341670471":{"id":"1341670471","name":"An Nguyen"},"1828906841":{"id":"1828906841","name":"Trọng Nghĩa Bùi"},"100002957210847":{"id":"100002957210847","name":"Lan Anh Vũ"},"100004152600048":{"id":"100004152600048","name":"Vô Diện Nhân"},"100001416272263":{"id":"100001416272263","name":"Mai PB"},"100001062202744":{"id":"100001062202744","name":"Hoang Garu"},"100002816124387":{"id":"100002816124387","name":"Ngọc Nguyễn"},"100004483051243":{"id":"100004483051243","name":"Knari Nguyen"},"100003239455545":{"id":"100003239455545","name":"Yuki Daruma"},"1693102459":{"id":"1693102459","name":"Châu Hoàng"},"100004069396046":{"id":"100004069396046","name":"Tosyna Phan"},"100002224992538":{"id":"100002224992538","name":"Nguyễn Văn Tâm"},"100004293973335":{"id":"100004293973335","name":"Nga Ngố"},"100003061728442":{"id":"100003061728442","name":"Kawa Chan"},"100001918168798":{"id":"100001918168798","name":"Sen Đá"},"100001260645727":{"id":"100001260645727","name":"Ngo Duy Son"},"100001706718528":{"id":"100001706718528","name":"Trần Văn Thành"},"100003167214922":{"id":"100003167214922","name":"Hikari Rin"},"100000249832456":{"id":"100000249832456","name":"Dung Genie"},"100001495688011":{"id":"100001495688011","name":"Chung Kếu"},"100004705145167":{"id":"100004705145167","name":"Ngọc Tuệ Bạch"},"100002876323062":{"id":"100002876323062","name":"Linh Nguyen"},"726423323":{"id":"726423323","name":"Trần Thư"},"100000984312948":{"id":"100000984312948","name":"Philleas Truong Kim"},"1061065777":{"id":"1061065777","name":"Xoắn Quẩy"},"100006457419726":{"id":"100006457419726","name":"Nam Văn Lê"},"100002369341715":{"id":"100002369341715","name":"Xu Li"},"100003629530970":{"id":"100003629530970","name":"Hoa Thiên Điểu"},"100001479894331":{"id":"100001479894331","name":"Diệu Nguyễn"},"1416265619":{"id":"1416265619","name":"Starwar Bbj"},"1114300791":{"id":"1114300791","name":"Tra Mi"},"100001659230540":{"id":"100001659230540","name":"Lemon Tea"},"100004112258038":{"id":"100004112258038","name":"Chung Tran"},"100000195299558":{"id":"100000195299558","name":"Giọt Sương Sớm Mai"},"100004094346107":{"id":"100004094346107","name":"Thuy Nga Nguyen"},"100005073001419":{"id":"100005073001419","name":"An Chelsea"},"100001458099624":{"id":"100001458099624","name":"Kham Pha"},"100002449514019":{"id":"100002449514019","name":"Lương Hoa"},"100000250256418":{"id":"100000250256418","name":"Nguyen Viet Anh"},"100000810651467":{"id":"100000810651467","name":"Thao Le"},"100004534838904":{"id":"100004534838904","name":"Nguyễn Thùy Heo"},"100006014164976":{"id":"100006014164976","name":"Bình Bông"},"100001723862714":{"id":"100001723862714","name":"Bo Bien Vang"},"100000805584201":{"id":"100000805584201","name":"Loc Best"},"100000264268101":{"id":"100000264268101","name":"Back To December"},"100005646341173":{"id":"100005646341173","name":"Quốc Phương"},"100004932944108":{"id":"100004932944108","name":"Kei"},"100002573114104":{"id":"100002573114104","name":"Một Ngày Gió"},"100003800328678":{"id":"100003800328678","name":"Takahashi Phan"},"100004322010992":{"id":"100004322010992","name":"Nhím Xù"}},"paging":{"cursors":{"after":"MTAwMDAyNjE1NjY0NjY4","before":"MTAwMDAyNjE1NjY0NjY4"},"next":"https://graph.facebook.com/229244010425617_728984027118277/likes?limit=1&summary=1&after=MTAwMDAyNjE1NjY0NjY4"},"summary":{"total_count":63}},"comments":{"data":{"729014880448525":{"id":"729014880448525","from":{"id":"100001458099624","name":"Kham Pha"},"message":"Hay quá, xin phép Vu Thi Man cho bài này vào phần trải nghiệm cuộc sống nhé :)","message_tags":[{"id":"100000687662713","name":"Vu Thi Man","type":"user","offset":18,"length":10}],"can_remove":false,"created_time":"2013-09-28T01:35:09+0000","like_count":0,"user_likes":false},"729028290447184":{"id":"729028290447184","from":{"id":"100006457419726","name":"Nam Văn Lê"},"message":"kinh tế có thể phát triển.nhưng ý thức thì khó có thể thay đổi dcd","can_remove":false,"created_time":"2013-09-28T02:09:16+0000","like_count":0,"user_likes":false},"729045197112160":{"id":"729045197112160","from":{"id":"100000687662713","name":"Vu Thi Man"},"message":"Cứ tự nhiên đi bạn","can_remove":false,"created_time":"2013-09-28T02:59:12+0000","like_count":0,"user_likes":false},"729047367111943":{"id":"729047367111943","from":{"id":"100001458099624","name":"Kham Pha"},"message":"Tạm đặt tên là  \"Cảm nhận về cuộc sống Nhật. Phần 1:\" nhé ^^\nhttps://www.facebook.com/groups/CongdongVietNhat/doc/704098726273474/","can_remove":false,"created_time":"2013-09-28T03:07:11+0000","like_count":0,"user_likes":false},"729057093777637":{"id":"729057093777637","from":{"id":"100000687662713","name":"Vu Thi Man"},"message":"OK, thank","can_remove":false,"created_time":"2013-09-28T03:41:30+0000","like_count":0,"user_likes":false},"729182313765115":{"id":"729182313765115","from":{"id":"100001416272263","name":"Mai PB"},"message":"Vu Thi Man học sinh không phải mang cơm đi đâu vì bữa ăn ở trường hoàn toàn do trường nấu rồi. Đó là các túi đựng giầy thể thao trong nhà (上履き uwabaki), túi đựng đồ học môn thủ công hay là môn nhạc, tùy theo ngày.","message_tags":[{"id":"100000687662713","name":"Vu Thi Man","type":"user","offset":0,"length":10}],"can_remove":false,"created_time":"2013-09-28T11:42:45+0000","like_count":2,"user_likes":false},"729217977094882":{"id":"729217977094882","from":{"id":"100000042138129","name":"Duong David"},"message":"Thảo nào trong phim Fast 3 có cảnh 1 thằng Mỹ qua lớp học của Nhật đi hẳn giày vào trong lớp, bị cô giáo mắng là uwabaki uwabaki, thằng bé ngơ người ra ko hiểu gì luôn, hóa ra là thế.","can_remove":false,"created_time":"2013-09-28T13:05:24+0000","like_count":1,"user_likes":false},"729220993761247":{"id":"729220993761247","from":{"id":"100001416272263","name":"Mai PB"},"message":"Uwabaki cũng là văn hóa Nhật. Ở nhiều nước tuy cũng có văn hóa cởi giày để ngoài cửa, ngoài chùa hay thánh đường, nhưng phân biệt giày trong nhà ngoài đường nhiều như Nhật chắc không có.","can_remove":false,"created_time":"2013-09-28T13:14:25+0000","like_count":3,"user_likes":false},"729246157092064":{"id":"729246157092064","from":{"id":"100000213464426","name":"Tuấn Nguyễn"},"message":"buồn mỗi cái tình trạng học đường ở nhật phân chia giai cấp rõ nét luôn :(","can_remove":false,"created_time":"2013-09-28T14:20:31+0000","like_count":0,"user_likes":false},"729252910424722":{"id":"729252910424722","from":{"id":"100004028173069","name":"Jin Ngốc"},"message":"phân chia giai cấp nữa ạ? @@","can_remove":false,"created_time":"2013-09-28T14:39:35+0000","like_count":0,"user_likes":false},"729254030424610":{"id":"729254030424610","from":{"id":"100000213464426","name":"Tuấn Nguyễn"},"message":"tớ xem mấy phim nói về hsinh c2 vs c3 ý nó phân chia rõ ràng luôn. Hình như cái tỉ lệ tự sát cao cũng vì thế ...","can_remove":false,"created_time":"2013-09-28T14:42:59+0000","like_count":2,"user_likes":false},"729259117090768":{"id":"729259117090768","from":{"id":"100001416272263","name":"Mai PB"},"message":"Không có giai cấp đâu mà phân chia, Tuấn Nguyễn hiểu nhầm rồi.","message_tags":[{"id":"100000213464426","name":"Tuấn Nguyễn","type":"user","offset":36,"length":11}],"can_remove":false,"created_time":"2013-09-28T14:57:59+0000","like_count":0,"user_likes":false},"729260013757345":{"id":"729260013757345","from":{"id":"100000213464426","name":"Tuấn Nguyễn"},"message":"Mình xem trong phim thôi :D kiểu khác thường là bị tẩy chay luôn ý. Trc mình cũng đọc 1 bài nói về cái đấy mà quên mất link r :D","can_remove":false,"created_time":"2013-09-28T15:00:21+0000","like_count":1,"user_likes":false}},"paging":{"cursors":{"after":"NzI5MDE0ODgwNDQ4NTI1","before":"NzI5MDE0ODgwNDQ4NTI1"},"next":"https://graph.facebook.com/229244010425617_728984027118277/comments?limit=1&summary=1&after=NzI5MDE0ODgwNDQ4NTI1"},"summary":{"order":"chronological","total_count":13}}}