{"id":"229244010425617_729067863776560","type":"status","from":{"id":"100000687662713","name":"Vu Thi Man"},"message":"Học và ứng dụng tiếng Nhật.\n1. Chào hỏi trong công ty, bình thường khi chào về trước, nếu là người lớn tuổi thì dùng お疲れ様です。Còn người ít tuổi hơn sẽ dùng お先に失礼します。Người ở lại sẽ là お疲れ様で すNhưng khi mình sử dụng chào thế ông sếp bảo không được phải dùng \nthế mà phải chào là お疲れ様です, và khi sang đến đây thì mọi người cũng dùng như vậy.\n2. Học thì là gọi tên người + さん nhưng khi minh dùng ông khách bảo, dùng như thế là sai. Khi nói chuyện với khách hàng mà nhắc đến ai đó trong cùng công ty thì không được nói tên + さん, nói như thế là bất lịch sự với khách, mà chỉ được nói tên không thôi. Thật mình không hiểu thế nào nữa, vì dù sao thì họ cũng nhiều tuổi hơn mình và + さん là tôn trọng thông thường thôi mà.\n\nMọi người nghĩ thế nào? Chém chút cho sôi động đi.","created_time":"2013-09-28T04:12:54+0000","updated_time":"2013-09-29T00:52:12+0000","likes":{"data":{"100002327743510":{"id":"100002327743510","name":"Tuan Thanh"},"711491571":{"id":"711491571","name":"Graziani Inaizarg"},"100003011417151":{"id":"100003011417151","name":"Hue Kim"},"100003157509892":{"id":"100003157509892","name":"Binh Nguyen"},"100003124640776":{"id":"100003124640776","name":"Cú Mèo Bụng Bự"},"100003097410255":{"id":"100003097410255","name":"Keiji Maeda"},"100003748783397":{"id":"100003748783397","name":"Quỳnh Nguyễn"},"100005620532978":{"id":"100005620532978","name":"Quynh Shi"},"100002290906582":{"id":"100002290906582","name":"Kanashimi No Yukue"},"100004362480675":{"id":"100004362480675","name":"Đi Tìm Thất Bại"},"100000195299558":{"id":"100000195299558","name":"Giọt Sương Sớm Mai"}},"paging":{"cursors":{"after":"MTAwMDAyMzI3NzQzNTEw","before":"MTAwMDAyMzI3NzQzNTEw"},"next":"https://graph.facebook.com/229244010425617_729067863776560/likes?limit=1&summary=1&after=MTAwMDAyMzI3NzQzNTEw"},"summary":{"total_count":11}},"comments":{"data":{"729075200442493":{"id":"729075200442493","from":{"id":"100000195299558","name":"Giọt Sương Sớm Mai"},"message":"Lm quy cu nhiu quy tac 疲れた","can_remove":false,"created_time":"2013-09-28T04:41:25+0000","like_count":0,"user_likes":false},"729075340442479":{"id":"729075340442479","from":{"id":"744320899","name":"Dung Vu"},"message":"Có thể bạn mới học tiếng Nhật lại chưa làm cùng với NHật nhiều. Thực tế học và hành đều như nhau mà. Người nào về trước thì nói:お先に失礼します(câu này có nghĩa là tôi xin phép về trước ạ). còn người ở lại sẽ nói với bạn: お疲れ様で す.","can_remove":false,"created_time":"2013-09-28T04:42:20+0000","like_count":1,"user_likes":false},"729085083774838":{"id":"729085083774838","from":{"id":"100006089102969","name":"カメ 悪い"},"message":"Nói với đối tác khách hàng dùng さん bị nói là đúng rồi","can_remove":false,"created_time":"2013-09-28T05:20:51+0000","like_count":0,"user_likes":false},"729085147108165":{"id":"729085147108165","from":{"id":"100004398127401","name":"Đứng Dậy Vươn Vai"},"message":"Bạn ơi viết chữ katagana dc k cho mình học vs mình chưa dc học chữ hán","can_remove":false,"created_time":"2013-09-28T05:21:04+0000","like_count":1,"user_likes":false},"729086083774738":{"id":"729086083774738","from":{"id":"100001416272263","name":"Mai PB"},"message":"Hảo Lỡ Bước https://www.facebook.com/groups/CongdongVietNhat/permalink/724515247565155/","message_tags":[{"id":"100004398127401","name":"Hảo Lỡ Bước","type":"user","offset":0,"length":11}],"can_remove":false,"created_time":"2013-09-28T05:25:04+0000","like_count":0,"user_likes":false},"729090053774341":{"id":"729090053774341","from":{"id":"100002508122689","name":"Vũ Mạnh Tuấn"},"message":"Mình và người công ty mình được coi như người trog cùng nhóm, khi nói chuyện với khách hàng thì dù có đề cập đến giám đốc cũng chỉ coi như người trog nhóm; khi đó ko thể thêm san đc ; khách hàng lúc này mới được đặt lên hàg đầu","can_remove":false,"created_time":"2013-09-28T05:41:34+0000","like_count":2,"user_likes":false},"729092297107450":{"id":"729092297107450","from":{"id":"100001416272263","name":"Mai PB"},"message":"Cách gọi không dùng さん này cũng tương tự như không dùng あなた đó thôi. Đáng ra sgk nên hướng dẫn ngay từ vài bài đầu.","can_remove":false,"created_time":"2013-09-28T05:52:18+0000","like_count":1,"user_likes":false},"729103483772998":{"id":"729103483772998","from":{"id":"100001243411261","name":"Ngưu Tỷ Tỷ"},"message":"Sao ma em lai khong nghe thay co nhac den vu nay, cam on senpai Mai PB","message_tags":[{"id":"100001416272263","name":"Mai PB","type":"user","offset":64,"length":6}],"can_remove":false,"created_time":"2013-09-28T06:48:15+0000","like_count":0,"user_likes":false},"729103990439614":{"id":"729103990439614","from":{"id":"100005620532978","name":"Quynh Shi"},"message":"3:)","can_remove":false,"created_time":"2013-09-28T06:50:41+0000","like_count":0,"user_likes":false},"729109317105748":{"id":"729109317105748","from":{"id":"100001416272263","name":"Mai PB"},"message":"Để lúc nào sẽ mời ad nào đó giới thiệuKham Pha Tyn Aki Bui Duyen","message_tags":[{"id":"100001458099624","name":"Kham Pha","type":"user","offset":38,"length":8},{"id":"100001695345798","name":"Tyn Aki","type":"user","offset":47,"length":7},{"id":"100001727857917","name":"Bui Duyen","type":"user","offset":55,"length":9}],"can_remove":false,"created_time":"2013-09-28T07:13:18+0000","like_count":0,"user_likes":false},"729124137104266":{"id":"729124137104266","from":{"id":"100003157509892","name":"Binh Nguyen"},"message":"tieng nhat qua la phuc tap qua cac bac nhi? ca nha oi co ai biet dia chi web cua cac cty hakken ko cho e xin voi.","can_remove":false,"created_time":"2013-09-28T08:14:19+0000","like_count":0,"user_likes":false},"729124830437530":{"id":"729124830437530","from":{"id":"100001193749870","name":"Ông Văn Khiết"},"message":"kiểu nó thế. vị khách nó coi mình và ng trong công ty mình là 1  cục. mà san là để nói về ng khác. bgio dùng san vơi ng trong công ty thì kiểu như bảo nó éo phải ng trong công ty tui, thế là bất kính :v.","can_remove":false,"created_time":"2013-09-28T08:16:04+0000","like_count":0,"user_likes":false},"729125620437451":{"id":"729125620437451","from":{"id":"100001193749870","name":"Ông Văn Khiết"},"message":"お先に失礼します nó k sai nhưng mà căn bản ngta k dùng thế. cái đó coi như là tục lệ. ngôn ngữ nhiều cái phải coi nó là định lý mà học thuộc thôi","can_remove":false,"created_time":"2013-09-28T08:19:33+0000","like_count":0,"user_likes":false},"729152087101471":{"id":"729152087101471","from":{"id":"100003004836248","name":"Cún Con Say Sữa"},"message":"Đúng rồi.khi nói với khách hàng thì mình và những người trong công ty mình được coi như là  watashi.nên k dùng san với người cùng cty với mình khi nói ch với khách hàng.","can_remove":false,"created_time":"2013-09-28T09:54:32+0000","like_count":0,"user_likes":false},"729480663735280":{"id":"729480663735280","from":{"id":"566093622","name":"Loby Huong"},"message":"Mình thấy mọi người trong công ty khi về vẫn chào là お先に失礼します mà, có sao đâu nhỉ","can_remove":false,"created_time":"2013-09-29T00:52:12+0000","like_count":0,"user_likes":false}},"paging":{"cursors":{"after":"NzI5MDc1MjAwNDQyNDkz","before":"NzI5MDc1MjAwNDQyNDkz"},"next":"https://graph.facebook.com/229244010425617_729067863776560/comments?limit=1&summary=1&after=NzI5MDc1MjAwNDQyNDkz"},"summary":{"order":"chronological","total_count":17}}}