{"id":"229244010425617_729034387113241","type":"status","from":{"id":"100001458099624","name":"Kham Pha"},"message":"Hôm qua đi cắt tóc, ngồi hóng hớt được là ở 伊豆（いず） vùng Kanto có anh đào nở sớm lắm, tháng 2 thì phải. Có ai biết vụ này không nhỉ. \nNăm sau tốt nghiệp xong cuối tháng 3 là về nước rồi nên muốn đi ngắm anh đào lần cuối nhưng ở nhiều nơi lúc đó còn chưa nở. Nếu ở  伊豆 mà anh đào nở sớm thật thì tốt quá ^^","created_time":"2013-09-28T02:23:23+0000","updated_time":"2013-09-28T12:38:24+0000","likes":{"data":{"100003124307460":{"id":"100003124307460","name":"Duc Giang"},"1828906841":{"id":"1828906841","name":"Trọng Nghĩa Bùi"},"100004823948087":{"id":"100004823948087","name":"Nguyễn Ngọc Ánh"},"100005215779789":{"id":"100005215779789","name":"Luna Nguyễn"},"100001706718528":{"id":"100001706718528","name":"Trần Văn Thành"},"100004965272241":{"id":"100004965272241","name":"Cỏ Nhỏ"},"100001597573934":{"id":"100001597573934","name":"Ly Chu"},"100001062202744":{"id":"100001062202744","name":"Hoang Garu"}},"paging":{"cursors":{"after":"MTAwMDAzMTI0MzA3NDYw","before":"MTAwMDAzMTI0MzA3NDYw"},"next":"https://graph.facebook.com/229244010425617_729034387113241/likes?limit=1&summary=1&after=MTAwMDAzMTI0MzA3NDYw"},"summary":{"total_count":8}},"comments":{"data":{"729034743779872":{"id":"729034743779872","from":{"id":"100004112258038","name":"Chung Tran"},"message":"trước khi về chú có thể xuống Okinawa, chắc vẫn kịp ^^","can_remove":false,"created_time":"2013-09-28T02:24:25+0000","like_count":0,"user_likes":false},"729034953779851":{"id":"729034953779851","from":{"id":"100001458099624","name":"Kham Pha"},"message":"xuống Okinawa người ta đi tắm biển chứ ai đi ngắm anh đào hả anh :(","can_remove":false,"created_time":"2013-09-28T02:25:14+0000","like_count":0,"user_likes":false},"729035400446473":{"id":"729035400446473","from":{"id":"100004112258038","name":"Chung Tran"},"message":"để phục vụ cho vụ \"hoa nở sớm\" ^^,  thấy Tivi vẫn đưa tin hoa anh đào nở sớm ở Okinawa, bà con vẫn kéo nhau đi xem ầm ầm mà ?","can_remove":false,"created_time":"2013-09-28T02:26:54+0000","like_count":0,"user_likes":false},"729036047113075":{"id":"729036047113075","from":{"id":"100001458099624","name":"Kham Pha"},"message":"giàu mới thế, em sv nghèo, đi 1 chuyến ăn mì tôm 1 năm, ko chơi :(","can_remove":false,"created_time":"2013-09-28T02:29:09+0000","like_count":0,"user_likes":false},"729037317112948":{"id":"729037317112948","from":{"id":"100000359762118","name":"Mi Tra"},"message":"Bạn xem link này nhé! \nhttp://www.kawazu-onsen.com/sakura/sakura.htm","can_remove":false,"created_time":"2013-09-28T02:33:38+0000","like_count":1,"user_likes":false},"729038653779481":{"id":"729038653779481","from":{"id":"100001580479641","name":"Hà Xuân Thủy"},"message":"Đến mùa anh đào, lá đỏ thì tivi ngày nào cũng có bản tin dự báo mà:)","can_remove":false,"created_time":"2013-09-28T02:37:32+0000","like_count":0,"user_likes":false},"729041650445848":{"id":"729041650445848","from":{"id":"100000603915176","name":"悪いな ぁ"},"message":"伊豆 đâu chỉ có mùa hoa Anh Đào mới đẹp, mùa Thu cũng tuyệt lắm!","can_remove":false,"created_time":"2013-09-28T02:45:28+0000","like_count":0,"user_likes":false},"729090263774320":{"id":"729090263774320","from":{"id":"100004734241392","name":"Hoàng Phương"},"message":"sakura","can_remove":false,"created_time":"2013-09-28T05:42:38+0000","like_count":0,"user_likes":false},"729095197107160":{"id":"729095197107160","from":{"id":"100003616116150","name":"Nguyễn Phúc Tuấn"},"message":"A chị ơi thương thường thì bh hoa đào bắt đầu nở ạ","can_remove":false,"created_time":"2013-09-28T06:07:56+0000","like_count":0,"user_likes":false},"729121750437838":{"id":"729121750437838","from":{"id":"100001912633316","name":"Du Ca"},"message":"độ tháng 3 đến tháng 4, nơi nào ấm thì nở sớm hơn chút ^ ^","can_remove":false,"created_time":"2013-09-28T08:02:44+0000","like_count":1,"user_likes":false},"729122457104434":{"id":"729122457104434","from":{"id":"100004041794244","name":"Watanuki Kimihiro"},"message":"Học xong không xin ở lại làm đựơc ak ","can_remove":false,"created_time":"2013-09-28T08:05:39+0000","like_count":0,"user_likes":false},"729122647104415":{"id":"729122647104415","from":{"id":"100001416272263","name":"Mai PB"},"message":"Kham Pha đó là loại sakura nở sớm, gọi là 河津桜 kawazuzakura http://www.kawazuzakura.net/","message_tags":[{"id":"100001458099624","name":"Kham Pha","type":"user","offset":0,"length":8}],"can_remove":false,"created_time":"2013-09-28T08:06:33+0000","like_count":0,"user_likes":false},"729194480430565":{"id":"729194480430565","from":{"id":"100001416272263","name":"Mai PB"},"message":"À bây giờ mới thấy là trùng thông tin của Mi Tra. 流石.","message_tags":[{"id":"100000359762118","name":"Mi Tra","type":"user","offset":42,"length":6}],"can_remove":false,"created_time":"2013-09-28T12:06:48+0000","like_count":1,"user_likes":false},"729208470429166":{"id":"729208470429166","from":{"id":"100000359762118","name":"Mi Tra"},"message":"Hi ^^","can_remove":false,"created_time":"2013-09-28T12:38:24+0000","like_count":0,"user_likes":false}},"paging":{"cursors":{"after":"NzI5MDM0NzQzNzc5ODcy","before":"NzI5MDM0NzQzNzc5ODcy"},"next":"https://graph.facebook.com/229244010425617_729034387113241/comments?limit=1&summary=1&after=NzI5MDM0NzQzNzc5ODcy"},"summary":{"order":"chronological","total_count":14}}}