{"id":"229244010425617_729145747102105","type":"status","from":{"id":"1822854513","name":"Sữa Chua Không Đường"},"message":"cho em hỏi thêm cái nữa nha :) khác nhau giữa がち / ぎみ　/ ～っぽい","created_time":"2013-09-28T09:37:01+0000","updated_time":"2013-09-28T11:16:01+0000","likes":{"data":{"100001416272263":{"id":"100001416272263","name":"Mai PB"}},"paging":{"cursors":{"after":"MTAwMDAxNDE2MjcyMjYz","before":"MTAwMDAxNDE2MjcyMjYz"}},"summary":{"total_count":1}},"comments":{"data":{"729159587100721":{"id":"729159587100721","from":{"id":"100001727857917","name":"Bui Duyen"},"message":"+気味（ぎみ）：từ này vốn mang sắc thái, biểu cảm 1 cái j ko thích.\nTrong ngữ pháp,ぎみdiễn tả trạng thái “(thân thể, tâm hồn) có 1 chút cảm giác....”. Hầu hết nó được dùng trong những câu có mang hàm ý phê phán, ko tốt.\nかぜぎみ(có 1 chút cảm nhẹ)、つかれぎみ(hơi mệt)\n気味　thường đi với 少し,ちょっと\n\n+がちcũng mang ý nghĩa chỉ điều ko tốt, nhưng nhấn mạnh đến số lần (tính liên tục.) Có thể liên hệ là nếu hay làm việc tốt ngta dùng よくthì hay làm việc ko tốt ngta dùng がち.\nありがち(thường có)、起こりがち。。(dễ xảy ra)\n\n+っぽい(có khuynh hướng, có nhiều yếu tố...): thường diễn tả ấn tượng xấu về bề ngoài tại thời điểm nói.\n男っぽい: (con gái) có (nhiều ) vẻ nam tính\n飽きっぽい（あきっぽい）dễ chán。","can_remove":false,"created_time":"2013-09-28T10:21:27+0000","like_count":3,"user_likes":false},"729167203766626":{"id":"729167203766626","from":{"id":"1822854513","name":"Sữa Chua Không Đường"},"message":"hihi, em hiểu rồi, cám ơn c Bui Duyen nhiều nhé :-*","message_tags":[{"id":"100001727857917","name":"Bui Duyen","type":"user","offset":28,"length":9}],"can_remove":false,"created_time":"2013-09-28T10:53:52+0000","like_count":0,"user_likes":false},"729169983766348":{"id":"729169983766348","from":{"id":"100001727857917","name":"Bui Duyen"},"message":"ko có gì đâu bạn. ngữ pháp học thuộc là 1 chuyện. còn fai so sánh và sử dụng nhiều mới quen đc. Cứ fai tiếp xúc nhiều vào, biết đâu lại fat hiện ra những điểm mới còn dễ nhớ, dễ hiều hơn :)","can_remove":false,"created_time":"2013-09-28T11:04:08+0000","like_count":1,"user_likes":false},"729171150432898":{"id":"729171150432898","from":{"id":"1822854513","name":"Sữa Chua Không Đường"},"message":"c có cách học ngữ pháp vs kanji nào dễ thuộc chỉ giúp em được k, mày mò hoài mà vẫn ko thể nhớ nối kanji :'(","can_remove":false,"created_time":"2013-09-28T11:08:26+0000","like_count":0,"user_likes":false},"729172437099436":{"id":"729172437099436","from":{"id":"100001727857917","name":"Bui Duyen"},"message":"cách thì có nhiều, nhưng mỗi người hợp 1 kiểu. ví dụ ngày nào cũng đọc kanji trc khi đi ngủ và sau khi vừa tỉnh dậy chẳng hạn.  học tiếng nhật ko vội đc đâu b ạ ;).","can_remove":false,"created_time":"2013-09-28T11:13:04+0000","like_count":1,"user_likes":false},"729173333766013":{"id":"729173333766013","from":{"id":"1822854513","name":"Sữa Chua Không Đường"},"message":"ほんとに　ありがとうございます　：）","can_remove":false,"created_time":"2013-09-28T11:16:01+0000","like_count":0,"user_likes":false}},"paging":{"cursors":{"after":"NzI5MTU5NTg3MTAwNzIx","before":"NzI5MTU5NTg3MTAwNzIx"},"next":"https://graph.facebook.com/229244010425617_729145747102105/comments?limit=1&summary=1&after=NzI5MTU5NTg3MTAwNzIx"},"summary":{"order":"chronological","total_count":6}}}