{"id":"229244010425617_729128120437201","type":"status","from":{"id":"100003157509892","name":"Binh Nguyen"},"message":"bac Mai PB oi, Bac co biet trang web cua cac ty ve hakken ko? cho e xin link voi nhe? thanksyou bac nhe.","created_time":"2013-09-28T08:30:38+0000","updated_time":"2013-09-28T14:22:44+0000","comments":{"data":{"729134483769898":{"id":"729134483769898","from":{"id":"100000064686295","name":"Huy Roli"},"message":"Hakken là gì thế","can_remove":false,"created_time":"2013-09-28T09:00:23+0000","like_count":0,"user_likes":false},"729156890434324":{"id":"729156890434324","from":{"id":"100001416272263","name":"Mai PB"},"message":"Google thôi, mình khg rõ cty nào tốt cả. Mà haken 派遣 nhé, khg phải hakken đâu.","can_remove":false,"created_time":"2013-09-28T10:11:23+0000","like_count":0,"user_likes":false},"729175867099093":{"id":"729175867099093","from":{"id":"100000064686295","name":"Huy Roli"},"message":"Là gì hả a, dịch là phái đi à","can_remove":false,"created_time":"2013-09-28T11:21:24+0000","like_count":0,"user_likes":false},"729181617098518":{"id":"729181617098518","from":{"id":"100001416272263","name":"Mai PB"},"message":"Là loại công ty dịch vụ nhân lực ngắn hạn. Các công ty này cho công ty khác thuê nhân lực theo hợp đồng. Ở VN có lẽ chưa có hình thức công ty này.","can_remove":false,"created_time":"2013-09-28T11:39:44+0000","like_count":2,"user_likes":false},"729194930430520":{"id":"729194930430520","from":{"id":"100000064686295","name":"Huy Roli"},"message":"À, ngày xưa e cũng bị đem đi cho thuê, nhưng cùng trong hà nội ạ","can_remove":false,"created_time":"2013-09-28T12:08:26+0000","like_count":0,"user_likes":false},"729195073763839":{"id":"729195073763839","from":{"id":"100000064686295","name":"Huy Roli"},"message":"Thế dịch là haken kaisha à anh","can_remove":false,"created_time":"2013-09-28T12:08:51+0000","like_count":0,"user_likes":false},"729199620430051":{"id":"729199620430051","from":{"id":"100001416272263","name":"Mai PB"},"message":"Đọc là はけんかいしゃ hoặc はけんがいしゃ","can_remove":false,"created_time":"2013-09-28T12:23:11+0000","like_count":1,"user_likes":false},"729246893758657":{"id":"729246893758657","from":{"id":"100003157509892","name":"Binh Nguyen"},"message":"vang cam on bac Mai PB","message_tags":[{"id":"100001416272263","name":"Mai PB","type":"user","offset":16,"length":6}],"can_remove":false,"created_time":"2013-09-28T14:22:44+0000","like_count":0,"user_likes":false}},"paging":{"cursors":{"after":"NzI5MTM0NDgzNzY5ODk4","before":"NzI5MTM0NDgzNzY5ODk4"},"next":"https://graph.facebook.com/229244010425617_729128120437201/comments?limit=1&summary=1&after=NzI5MTM0NDgzNzY5ODk4"},"summary":{"order":"chronological","total_count":8}},"likes":{"data":[]}}