{"id":"229244010425617_729202167096463","type":"photo","object_id":"1417837031763087","picture":"https://fbcdn-photos-b-a.akamaihd.net/hphotos-ak-frc1/t1.0-0/600759_1417837031763087_854609771_s.jpg","link":"https://www.facebook.com/photo.php?fbid=1417837031763087&set=gm.729202167096463&type=1&relevant_count=1","from":{"id":"100006104100639","name":"Kiếm Phong Vũ"},"message":"Giới thiệu Plastic Flashcards Kanji ( PFK ) \nPlastic Flashcard Kanji ( PFK ) là loại flashcard gồm 100 Kanji và được bảo vệ bởi hai bìa cứng và bền. Bên trong sử dụng giấy bìa, màu xanh , ép plastic chống thấm nước . Sản phẩm PFK bền, đẹp, nhỏ gọn trong bàn tay rất tiện lợi khi mang theo người. \nCác bạn có thể xem thêm các loại Flashcard khác tại đây nhé https://www.facebook.com/pages/Japanese-Flashcards/565267773509213\nPFK gồm 3 quyển ( level 1,2,3 ) cho sơ cấp và 2 quyển (level 4,5 ) cho trung cấp.\nGiá 40.000 VND/1 quyển PFK. Nếu bạn mua nhiều hơn 10 quyển thì áp dụng 35.000VND /1 quyển PFK. \nLiên hệ :\nTại Hà Nội : Chị Tâm - 0946 421 586 \n( Lưu ý : Tất cả các ngày trong tuần trừ buổi tối )\nĐịa chỉ: Số nhà 94, Ngõ 68, đường Cầu giấy , Hà Nội ( Cách tiệm thuốc 1 nhà )\nNgoài Hà Nội : Chuyển phát nhanh ( Các bạn đọc kỹ hướng dẫn trong page https://www.facebook.com/pages/Japanese-Flashcards/565267773509213 nhé )","created_time":"2013-09-28T12:29:03+0000","updated_time":"2013-10-01T02:08:48+0000","likes":{"data":{"100000808815001":{"id":"100000808815001","name":"Xuong Tran"},"100001041225299":{"id":"100001041225299","name":"Võ Thành Long"},"711491571":{"id":"711491571","name":"Graziani Inaizarg"},"100003011417151":{"id":"100003011417151","name":"Hue Kim"},"100002883266700":{"id":"100002883266700","name":"Hương Thảo"},"100005323657722":{"id":"100005323657722","name":"Hoa Nguyen"},"100003799763269":{"id":"100003799763269","name":"Vùng Trời Bình Yên"},"100003893158172":{"id":"100003893158172","name":"Maru MO"},"100001553557343":{"id":"100001553557343","name":"Lin Huỳnh"},"100006357126163":{"id":"100006357126163","name":"Hồ NGọc Qùynh HươNg"},"100003102474819":{"id":"100003102474819","name":"Hoshi Hoshi"},"100001557279247":{"id":"100001557279247","name":"Ngo Dinh Le Diem"},"100000074585438":{"id":"100000074585438","name":"Dzung Nguyen Van"},"100004697978845":{"id":"100004697978845","name":"Mai Hien"},"100003924638739":{"id":"100003924638739","name":"Toi La Ai"},"100006767705219":{"id":"100006767705219","name":"Kim Liên"},"100002327743510":{"id":"100002327743510","name":"Tuan Thanh"},"100000640653021":{"id":"100000640653021","name":"Tuyền Ngọc Trầm"},"100003232093086":{"id":"100003232093086","name":"Vo Danh"},"100003082343329":{"id":"100003082343329","name":"Ta Ke"},"100006737737029":{"id":"100006737737029","name":"Cỏ Nhỏ"},"100005460966516":{"id":"100005460966516","name":"Hải Dương"},"1061065777":{"id":"1061065777","name":"Xoắn Quẩy"},"100005915713419":{"id":"100005915713419","name":"Hà TaNoshii"},"100000089472724":{"id":"100000089472724","name":"Duy Nguyen"},"100005389234209":{"id":"100005389234209","name":"Cỏ Dại"},"100000128875786":{"id":"100000128875786","name":"Gà Hà"},"100002341042174":{"id":"100002341042174","name":"Phuong Ngoc Minh"},"726423323":{"id":"726423323","name":"Trần Thư"},"100003097410255":{"id":"100003097410255","name":"Keiji Maeda"},"100003239773322":{"id":"100003239773322","name":"Sake Salmon"},"100001484541006":{"id":"100001484541006","name":"Quang Vũ"},"100004362480675":{"id":"100004362480675","name":"Đi Tìm Thất Bại"},"100002769463643":{"id":"100002769463643","name":"Ookami Janai"},"100002157379029":{"id":"100002157379029","name":"Nguyen Hai Dung"},"100000022163023":{"id":"100000022163023","name":"Kafe Ore"},"100005132739035":{"id":"100005132739035","name":"Mai Ngoan"}},"paging":{"cursors":{"after":"MTAwMDAwODA4ODE1MDAx","before":"MTAwMDAwODA4ODE1MDAx"},"next":"https://graph.facebook.com/229244010425617_729202167096463/likes?limit=1&summary=1&after=MTAwMDAwODA4ODE1MDAx"},"summary":{"total_count":37}},"comments":{"data":{"729212927095387":{"id":"729212927095387","from":{"id":"100004441680220","name":"Đông Phương Póc"},"message":"quyển này với quyển màu trắng trước bên tiệm của bạn khác nhau chỗ nào?","can_remove":false,"created_time":"2013-09-28T12:51:57+0000","like_count":0,"user_likes":false},"729215517095128":{"id":"729215517095128","from":{"id":"100002609621366","name":"KÚn KOn"},"message":"chị ơi, gồm 3 quyển là 40k hay là 1,2,3 mỗi quyển 40k hả chị","can_remove":false,"created_time":"2013-09-28T12:58:24+0000","like_count":0,"user_likes":false},"729232643760082":{"id":"729232643760082","from":{"id":"100000030073288","name":"Thanh Danh Tran"},"message":"\" Giá 40.000 VND/1 quyển PFK. Nếu bạn mua nhiều hơn 10 quyển thì áp dụng 35.000VND /1 quyển PFK. \" mình thấy bạn ấy ghi như vậy :(","can_remove":false,"created_time":"2013-09-28T13:46:19+0000","like_count":0,"user_likes":false},"729233573759989":{"id":"729233573759989","from":{"id":"100000030073288","name":"Thanh Danh Tran"},"message":"vậy tổng cộng là cho sơ cấp và trung cấp là 5 quyển hả bạn ? sao trong thông tin đăng ký giá là 25.000đ ta :) mình cũng định đang lấy luôn 5 cuốn, mình tự làm cũng được khá nhiều thấy các học đó tiếp thu rất nhanh, bạn Kiếm Phong Vũ cho mình biết là tổng 5 quyển bao nhiêu luôn để mình chuyển khoản cả tiền phí vận chuyển luôn nhe.","message_tags":[{"id":"100006104100639","name":"Kiếm Phong Vũ","type":"user","offset":219,"length":13}],"can_remove":false,"created_time":"2013-09-28T13:48:35+0000","like_count":1,"user_likes":false},"729238543759492":{"id":"729238543759492","from":{"id":"100002609621366","name":"KÚn KOn"},"message":"thế tính 40k là tổng hết 200k ạ,ừ rõ ghi thông tin là 25k nhỉ :(","can_remove":false,"created_time":"2013-09-28T13:59:01+0000","like_count":0,"user_likes":false},"729238963759450":{"id":"729238963759450","from":{"id":"100006104100639","name":"Kiếm Phong Vũ"},"message":"Quyển màu xanh và trắng khác nhau ở chất liệu giấy . Màu xanh chống thấm nước dc nên giá sẽ khác nhau nhé. Các bạn xem thêm quyển màu trắng ở đây nhé https://www.facebook.com/photo.php?fbid=568379916531332&set=a.565270173508973.1073741827.565267773509213&type=1&theater","can_remove":false,"created_time":"2013-09-28T14:00:16+0000","like_count":0,"user_likes":false},"729239243759422":{"id":"729239243759422","from":{"id":"100002921053009","name":"Mèo Con"},"message":"Chuột Trang Huệ Kuma Hạnh Hoàng góp gạo mua chugn đi :p","message_tags":[{"id":"100003389919177","name":"Chuột Trang","type":"user","offset":0,"length":11}],"can_remove":false,"created_time":"2013-09-28T14:00:45+0000","like_count":1,"user_likes":false},"729240417092638":{"id":"729240417092638","from":{"id":"100000030073288","name":"Thanh Danh Tran"},"message":"Kiếm Phong Vũ send mình tổng giá luôn đi bạn, mình ở TPHCM, mình lấy 5 quyển màu xanh luôn có gì vừa đi tắm vừa xem chống ướt =)) mai hoặc T2 mình chuyển khoản xong sau đó mình sẽ phone báo bạn biết.","message_tags":[{"id":"100006104100639","name":"Kiếm Phong Vũ","type":"user","offset":0,"length":13}],"can_remove":false,"created_time":"2013-09-28T14:04:24+0000","like_count":2,"user_likes":false},"729240677092612":{"id":"729240677092612","from":{"id":"100003389919177","name":"Chuột Trang"},"message":"trông hôm đấy anh vội thế? từ Mina ra ạ? em hôm đó học bên Ngoại thương trông ngày càng đập chai anh Nắng BK :3","message_tags":[{"id":"100003210459316","name":"Nắng BK","type":"user","offset":101,"length":7}],"can_remove":false,"created_time":"2013-09-28T14:05:14+0000","like_count":1,"user_likes":false},"729240773759269":{"id":"729240773759269","from":{"id":"100006104100639","name":"Kiếm Phong Vũ"},"message":"Thanh Danh Tran 5 quyển là 200 K + 40 K phí chuyển phát nhanh bạn nhé. Bạn in box dịa chỉ vào face của mình nhé","message_tags":[{"id":"100000030073288","name":"Thanh Danh Tran","type":"user","offset":0,"length":15}],"can_remove":false,"created_time":"2013-09-28T14:05:29+0000","like_count":0,"user_likes":false},"729241390425874":{"id":"729241390425874","from":{"id":"100000030073288","name":"Thanh Danh Tran"},"message":"oki bạn, bên đấy mình thấy link đơn đăng ký rồi, mình sẽ inbox và điền đơn đăng ký luôn.","can_remove":false,"created_time":"2013-09-28T14:06:56+0000","like_count":0,"user_likes":false},"729241683759178":{"id":"729241683759178","from":{"id":"100006104100639","name":"Kiếm Phong Vũ"},"message":"ok bạn. Cám ơn bạn nhé :)","can_remove":false,"created_time":"2013-09-28T14:07:48+0000","like_count":0,"user_likes":false},"729242260425787":{"id":"729242260425787","from":{"id":"100002921053009","name":"Mèo Con"},"message":"Bạn ơi có trình độ trung cấp với thượng cấp ko . từ n3 đến n1 í .","can_remove":false,"created_time":"2013-09-28T14:09:12+0000","like_count":0,"user_likes":false},"729242867092393":{"id":"729242867092393","from":{"id":"100000213464426","name":"Tuấn Nguyễn"},"message":"trùi ui đang cần :'(","can_remove":false,"created_time":"2013-09-28T14:11:20+0000","like_count":0,"user_likes":false},"729245170425496":{"id":"729245170425496","from":{"id":"100006104100639","name":"Kiếm Phong Vũ"},"message":"Mèo Con Mình chưa có bạn nhé. Chắc sắp tới sẽ làm bạn ah","message_tags":[{"id":"100002921053009","name":"Mèo Con","type":"user","offset":0,"length":7}],"can_remove":false,"created_time":"2013-09-28T14:17:24+0000","like_count":0,"user_likes":false},"729245503758796":{"id":"729245503758796","from":{"id":"100001705024122","name":"Hùng Xuân"},"message":"Bên mina bán có 25k/1","can_remove":false,"created_time":"2013-09-28T14:18:27+0000","like_count":0,"user_likes":false},"729246007092079":{"id":"729246007092079","from":{"id":"100006104100639","name":"Kiếm Phong Vũ"},"message":"Ở mina là bán loại ko ép Plastic và dùng giấy mỏng, ko phải giấy bìa nhé bạn. Giá sẽ khác nhé Chi tiết Flashcard Kanji (FK) :\nFK gồm 3 quyển cho sơ cấp và 2 quyển cho trung cấp. FK in trên giấy in Double A, định lượng 80 gsm ( là loại giấy A4 dày và cứng nhất). Mỗi tập FK gồm 100 Kanji và được bảo vệ bởi hai bìa cứng bền .Hơn nữa FK nhỏ gọn trong bàn tay rất tiện lợi khi mang theo người. \nGiá 25.000 VND/1 quyển FK. Nếu bạn mua nhiều hơn 5 quyển thì áp dụng 22.000VND /1 quyển FK.","can_remove":false,"created_time":"2013-09-28T14:20:03+0000","like_count":0,"user_likes":false},"729247380425275":{"id":"729247380425275","from":{"id":"100004368483606","name":"Hangminh Truong"},"message":"Nguyen Huong c ơi, c cần mua nữa k này","message_tags":[{"id":"100004479253002","name":"Nguyen Huong","type":"user","offset":0,"length":12}],"can_remove":false,"created_time":"2013-09-28T14:24:14+0000","like_count":1,"user_likes":false},"729270663756280":{"id":"729270663756280","from":{"id":"100003106320056","name":"Iris Nguyễn"},"message":"đắt vậy, có 25k 1 tập ah? :)","can_remove":false,"created_time":"2013-09-28T15:24:33+0000","like_count":1,"user_likes":false},"729272373756109":{"id":"729272373756109","from":{"id":"100001416272263","name":"Mai PB"},"message":"Hôm nay đắt hàng nhỉ?","can_remove":false,"created_time":"2013-09-28T15:28:34+0000","like_count":0,"user_likes":false},"729272617089418":{"id":"729272617089418","from":{"id":"100001878058153","name":"Nguyễn Phú Quý"},"message":"Le Thanh","message_tags":[{"id":"100004409922456","name":"Le Thanh","type":"user","offset":0,"length":8}],"can_remove":false,"created_time":"2013-09-28T15:29:17+0000","like_count":1,"user_likes":false},"729302997086380":{"id":"729302997086380","from":{"id":"100000993551114","name":"Ngọc Mai"},"message":"lên giá r sao????","can_remove":false,"created_time":"2013-09-28T16:36:24+0000","like_count":0,"user_likes":false},"729304210419592":{"id":"729304210419592","from":{"id":"1822854513","name":"Sữa Chua Không Đường"},"message":"anh Kiếm Phong Vũ ơi, e mua quyển 3, 4, 5 mà loại màu trắng + ship vào Huế thì bn vậy anh ? cho e số tài khoản nữa nha","message_tags":[{"id":"100006104100639","name":"Kiếm Phong Vũ","type":"user","offset":4,"length":13}],"can_remove":false,"created_time":"2013-09-28T16:39:47+0000","like_count":0,"user_likes":false},"729613013722045":{"id":"729613013722045","from":{"id":"100006104100639","name":"Kiếm Phong Vũ"},"message":"Mau trang 3 quyen 75K + 35K ship hang la 110 ban nhe. Ban inbox vao face ca nhan cua minh nhe","can_remove":false,"created_time":"2013-09-29T08:04:45+0000","like_count":0,"user_likes":false},"729618930388120":{"id":"729618930388120","from":{"id":"100004041794244","name":"Watanuki Kimihiro"},"message":"Tp hcm thj mua o dau","can_remove":false,"created_time":"2013-09-29T08:17:19+0000","like_count":0,"user_likes":false},"730642956952384":{"id":"730642956952384","from":{"id":"100006104100639","name":"Kiếm Phong Vũ"},"message":"Đối với các bạn ở xa thì bọn mình chỉ gửi flashcards qua đường bưu điện và các bạn chuyển khoản cho mình.\nĐối với các bạn ở xa Hà Nội ( TP HCM ) thì bọn mình chỉ gửi flashcards qua đường bưu điện và các bạn chuyển khoản cho mình.\nNgân Hàng VietinBank : 711A34788992.\nChủ tài khoản : Bùi Mạnh Đán\nSố điện thoại: 0983 814 912\n\nThao tác để nhân Flashcards Kanji (FK):\n1- Thông tin theo đơn đăng ký http://bit.ly/1aGhGJ0 or chủ động gọi điện.\n2- Gửi phí FK vào tài khoản ( Phí flashcard + Cước chuyển phát nhanh: http://viettelpost.com.vn/LinkClick.aspx?fileticket=eVuVKF%2B1P%2BM%3D&tabid=210&mid=801 ) \n3- Khi gửi thì nhắn tin hoặc gọi điện để xác nhận về việc đã gửi phí\n4- Xác nhận xong, chờ FK .^^\n5- Xác nhận lại là : Đã nhận được FK","can_remove":false,"created_time":"2013-10-01T02:08:48+0000","like_count":0,"user_likes":false}},"paging":{"cursors":{"after":"NzI5MjEyOTI3MDk1Mzg3","before":"NzI5MjEyOTI3MDk1Mzg3"},"next":"https://graph.facebook.com/229244010425617_729202167096463/comments?limit=1&summary=1&after=NzI5MjEyOTI3MDk1Mzg3"},"summary":{"order":"chronological","total_count":32}}}