{"id":"229244010425617_729308217085858","type":"photo","object_id":"530848156981570","picture":"https://fbcdn-photos-h-a.akamaihd.net/hphotos-ak-frc3/t1.0-0/1157495_530848156981570_562355701_s.jpg","link":"https://www.facebook.com/photo.php?fbid=530848156981570&set=gm.729308217085858&type=1&relevant_count=1","from":{"id":"100001691712784","name":"Tí Tẹo"},"message":"Moi nguoi cho minh hoi lam tn de gui dc ma so QR code den cua hang muon tuyen?","created_time":"2013-09-28T16:48:52+0000","updated_time":"2013-09-30T04:43:58+0000","comments":{"data":{"729728420377171":{"id":"729728420377171","from":{"id":"566093622","name":"Loby Huong"},"message":"Tớ chỉ mới biết down app QR code về để đọc QR code thôi. Bình thường khi mình chụp QR code bằng app, thì nó sẽ tự động đưa mình đến đường link mà","can_remove":false,"created_time":"2013-09-29T13:17:08+0000","like_count":0,"user_likes":false},"729755617041118":{"id":"729755617041118","from":{"id":"100001691712784","name":"Tí Tẹo"},"message":"Bạn có biết down app QR code ở đâu ko. mình dùng samsung.","can_remove":false,"created_time":"2013-09-29T14:26:18+0000","like_count":0,"user_likes":false},"729786447038035":{"id":"729786447038035","from":{"id":"566093622","name":"Loby Huong"},"message":"Bạn vào play store rùi search qr code  reader nhé","can_remove":false,"created_time":"2013-09-29T15:46:06+0000","like_count":0,"user_likes":false},"729786993704647":{"id":"729786993704647","from":{"id":"100001691712784","name":"Tí Tẹo"},"message":"uhm. mình tải rồi. quét rồi nhưng nó hiện lên trang web của cửa hàng đó. nhưng trên giấy đăng ký cũng có rồi bạn ah","can_remove":false,"created_time":"2013-09-29T15:47:43+0000","like_count":0,"user_likes":false},"729787637037916":{"id":"729787637037916","from":{"id":"566093622","name":"Loby Huong"},"message":"Uh thì cái qr code này cũng chỉ là để cho việc truy cập link nhanh và đơn giản hơn thôi mà","can_remove":false,"created_time":"2013-09-29T15:49:15+0000","like_count":0,"user_likes":false},"729789557037724":{"id":"729789557037724","from":{"id":"100001691712784","name":"Tí Tẹo"},"message":"thế sao. thanks bạn nhiều nha. muốn tìm việc mà khó quá.","can_remove":false,"created_time":"2013-09-29T15:53:06+0000","like_count":0,"user_likes":false},"730047603678586":{"id":"730047603678586","from":{"id":"566093622","name":"Loby Huong"},"message":"Kinh nghiệm của tớ là, bạn tìm mấy quán nhỏ nhỏ trong ngõ ý, lựa thời gian họ không làm việc, vắng khách, rồi vào hỏi trực tiếp luôn. Người ta nhìn mặt, thấy mình khỏe mạnh, nhanh nhẹn thì dù tiếng Nhật có chưa tốt vẫn sẽ có cơ hội hơn là gọi điện thoại đó b :))))))","can_remove":false,"created_time":"2013-09-30T02:10:31+0000","like_count":1,"user_likes":false},"730066277010052":{"id":"730066277010052","from":{"id":"100001691712784","name":"Tí Tẹo"},"message":"Uhm. Dung roi. Ma ban qua day lau chua.","can_remove":false,"created_time":"2013-09-30T02:49:40+0000","like_count":0,"user_likes":false},"730069760343037":{"id":"730069760343037","from":{"id":"566093622","name":"Loby Huong"},"message":"Tớ qua đây tháng 7","can_remove":false,"created_time":"2013-09-30T03:01:07+0000","like_count":0,"user_likes":false},"730102950339718":{"id":"730102950339718","from":{"id":"100001416272263","name":"Mai PB"},"message":"Tí Tẹo có thể tham khảo bài viết này do admin Nguyễn Tuấn Vũ viết.\nhttps://www.facebook.com/groups/CongdongVietNhat/doc/705927949423885/","message_tags":[{"id":"100001691712784","name":"Tí Tẹo","type":"user","offset":0,"length":6},{"id":"100001754136107","name":"Nguyễn Tuấn Vũ","type":"user","offset":46,"length":14}],"can_remove":false,"created_time":"2013-09-30T04:43:58+0000","like_count":0,"user_likes":false}},"paging":{"cursors":{"after":"NzI5NzI4NDIwMzc3MTcx","before":"NzI5NzI4NDIwMzc3MTcx"},"next":"https://graph.facebook.com/229244010425617_729308217085858/comments?limit=1&summary=1&after=NzI5NzI4NDIwMzc3MTcx"},"summary":{"order":"chronological","total_count":10}},"likes":{"data":[]}}