{"id":"229244010425617_729507543732592","type":"photo","object_id":"201546853351387","picture":"https://fbcdn-photos-h-a.akamaihd.net/hphotos-ak-prn1/v/t1.0-0/1237887_201546853351387_441431700_s.jpg?oh=07c53e81b8678c0bb5fbdb5d3b72315b&oe=53DEA9F0&__gda__=1406873076_40466a3752d8516fc53ba705fd3ffe11","link":"https://www.facebook.com/photo.php?fbid=201546853351387&set=gm.586933528035133&type=1","from":{"id":"100001458099624","name":"Kham Pha"},"message":"Đây là một bài viết không đáng tin cậy. Bởi vì bất kì nhận xét, comment nào cũng đều bị tác giả cảnh báo là sẽ xóa. Như vậy chúng ta sẽ chẳng bao giờ được nghe những ý kiến trái chiều cả. \nTốt hay xấu không quan trọng, sự thật nghe từ một phía không bao giờ là sự thật.","created_time":"2013-09-29T02:07:23+0000","updated_time":"2013-09-29T09:07:24+0000","likes":{"data":{"100006767705219":{"id":"100006767705219","name":"Kim Liên"},"100005095353419":{"id":"100005095353419","name":"Listina Listina"},"1146680551":{"id":"1146680551","name":"優しい なぁ"},"100003731305416":{"id":"100003731305416","name":"Nam Nguyen"},"100002230230544":{"id":"100002230230544","name":"Nakamura Minako"},"100005245024552":{"id":"100005245024552","name":"Bá Đạo"},"100004705145167":{"id":"100004705145167","name":"Ngọc Tuệ Bạch"},"100003828118579":{"id":"100003828118579","name":"Khanh Linh"}},"paging":{"cursors":{"after":"MTAwMDA2NzY3NzA1MjE5","before":"MTAwMDA2NzY3NzA1MjE5"},"next":"https://graph.facebook.com/229244010425617_729507543732592/likes?limit=1&summary=1&after=MTAwMDA2NzY3NzA1MjE5"},"summary":{"total_count":9}},"comments":{"data":{"729531463730200":{"id":"729531463730200","from":{"id":"100004705145167","name":"Ngọc Tuệ Bạch"},"message":"Thankyou,ar4ato","can_remove":false,"created_time":"2013-09-29T03:24:29+0000","like_count":0,"user_likes":false},"729563443727002":{"id":"729563443727002","from":{"id":"100001416272263","name":"Mai PB"},"message":"Bài này đáng xóa.","can_remove":false,"created_time":"2013-09-29T04:54:38+0000","like_count":0,"user_likes":false},"729567487059931":{"id":"729567487059931","from":{"id":"100004705145167","name":"Ngọc Tuệ Bạch"},"message":"Vo duyen bai dang xem de hoc hoi ma xoa,khùng","can_remove":false,"created_time":"2013-09-29T05:12:10+0000","like_count":0,"user_likes":false},"729572623726084":{"id":"729572623726084","from":{"id":"100001416272263","name":"Mai PB"},"message":"Nên xóa vì admin không kiểm chứng được, và thêm nữa ng viết lại đăng quảng cáo bên dưới, càng khó tin cậy. Thực ra nếu muốn xóa thì đã xóa rồi.","can_remove":false,"created_time":"2013-09-29T05:33:32+0000","like_count":0,"user_likes":false},"729575893725757":{"id":"729575893725757","from":{"id":"100001458099624","name":"Kham Pha"},"message":"Tại sao mình đăng bài viết này ở đây khi biết nó không đáng tin. Ấy là để cảnh báo mọi người biết cảnh giác trước thông tin vì mình thấy nhiều bạn share thông tin này đi khắp nơi mà chẳng rõ thực hư thế nào.\nNó có thể ảnh hưởng xấu đến người trong bài viết trong trường hợp thông tin trong bài viết là bịa đặt. Mong các bạn hãy cẩn thận trước thông tin khi chia sẻ. Nhất là với những bài viết khả nghi thế này.","can_remove":false,"created_time":"2013-09-29T05:48:11+0000","like_count":1,"user_likes":false},"729578477058832":{"id":"729578477058832","from":{"id":"100003731305416","name":"Nam Nguyen"},"message":"K nen xoá","can_remove":false,"created_time":"2013-09-29T05:57:31+0000","like_count":0,"user_likes":false},"729581547058525":{"id":"729581547058525","from":{"id":"100004705145167","name":"Ngọc Tuệ Bạch"},"message":"Ko nen xoa,thanh phan co tat giat minh thi moi phan doi,bai nay rat dang tin va hay bổ ích","can_remove":false,"created_time":"2013-09-29T06:12:16+0000","like_count":0,"user_likes":false},"729629877053692":{"id":"729629877053692","from":{"id":"1828906841","name":"Trọng Nghĩa Bùi"},"message":"Các bạn nói về việc (đáng hay không đáng) xóa bài viết của  Bin CalvinKlein hay là xóa share của Kham Pha vậy :-??","message_tags":[{"id":"100001458099624","name":"Kham Pha","type":"user","offset":97,"length":8}],"can_remove":false,"created_time":"2013-09-29T09:07:24+0000","like_count":0,"user_likes":false}},"paging":{"cursors":{"after":"NzI5NTMxNDYzNzMwMjAw","before":"NzI5NTMxNDYzNzMwMjAw"},"next":"https://graph.facebook.com/229244010425617_729507543732592/comments?limit=1&summary=1&after=NzI5NTMxNDYzNzMwMjAw"},"summary":{"order":"chronological","total_count":8}}}