{"id":"229244010425617_729503497066330","type":"link","picture":"https://fbexternal-a.akamaihd.net/safe_image.php?d=AQB6TIXHo6ZMJq5T&w=154&h=154&url=http%3A%2F%2Fimgs.vietnamnet.vn%2FImages%2Fvnn%2F2013%2F09%2F27%2F11%2F20130927111728-1.jpg%3Fw%3D400%26h%3D300","link":"http://vietnamnet.vn/vn/xa-hoi/142186/rung-dong-vu-trao-thuy-tinh-the-o-benh-vien-mat-ha-noi.html","from":{"id":"100001260645727","name":"Ngo Duy Son"},"message":"TẢN MẠN VỀ NỀN TẢNG ĐẠO ĐỨC CỦA XÃ HỘI HIỆN NAY:\n\nThực sự thì mình cũng không biết nhân tố nào đang ảnh hưởng tới nền tảng đạo đức của nước mình: Nho giáo ,Phật giáo, hay là Chủ Nghĩa Mac-Lênin và tư tưởng Hồ Chí Minh, hoặc có khi nào là lương tâm của mỗi người?\n\nNếu nói là Nho giáo thì có lẽ không phải, vì chính nó cũng đã chết ngay ở đất nước mà nó sinh ra rồi. Người Trung Quốc bây giờ lấy tấm gương cứu người chết đuối xong rồi bị thân nhân người được cứu bơ đi để mặc cho chết để soi vào; Kêu oan thay cho người dùng dao đâm chết mấy “Thành quản”; rồi thì căm ghét người giàu vì đa số họ đều là con cháu thân nhân của các đồng chí có cấp có quyền… \nChủ nghĩ quân tử nói chung chắc là không còn.\nTrung Quốc giờ  cũng loạn lên rồi.\n \nNếu nói là Phật giáo,  thì có lẽ cũng khá là hợp lý. Trừ một vài trường hợp ví dụ như thấy người gặp nạn giữa đường chả ai cứu mà chỉ bâu xâu vào xem, như vụ  cả làng cùng đánh chết trộm chó rồi cùng đứng ra nhận trách nhiệm, rồi mấy vụ giết người chặt xác của mấy thanh niên còn nguyên “năng lực hành vi”  hay vụ mấy bạn trẻ ham chơi game về nhà thực hành với người thân vài skill khủng để lấy tiền; thì nói chung mọi người đều sống trong hiền hoà, không quan tâm nhiều tới thế sự và chính trị mặc dù biết thừa nó thế nào và “có khả năng ảnh hưởng” tới mình ra sao. \nNói chung người Việt Nam mình tương đối hiền hoà và thân thiện.\n\nNếu nói là nhân tố thứ 3, thực sự thì cũng khó mà giải thích cho khá là nhiều vụ việc tương tự như cái link ở dưới đây.\nĐọc bài thì thấy chắc khó có thể nói dối được chuyện tày trời như vậy, cơ mà nếu mà lều báo chém gió được ra như thế thì cũng là vấn đề đạo đức nhà báo này nọ kia. Nói chung suy  luận đường nào cũng ra vấn đề cả.\nLại còn mấy vụ cứu hoả tắc trách để 500 tỉ đồng mang đi hoá vàng cả, suy cho cùng thì đâu có thấy ai là “đầy tớ của nhân dân” đâu?\n\nCòn dùng lương tâm để định hướng thì chắc là khó, nếu mà dễ thì đâu có nhiều ví dụ ở bên trên như vậy? \nLại còn cái V-bitch, à nhầm V-biz toàn là các hình thức lô lố, các bạn trẻ chen vào bằng đủ các bộ phận như mông, ngực, chân… Nguy hiểm hơn là với những chiêu trò quen thuộc như vậy mà dư luận vẫn hé cửa cho vào thoải mái…\n\nQuanh đi quẩn lại thì tất cả các nhân tố trên đều không thể dùng được. Vậy có thể có nhân tố khác được hay không?\n\nVậy thì có bạn nào có thể cho mình biết thực sự nhân tố đang ảnh hưởng tới đạo đức của nước mình là gì không?\n\nhttp://vietnamnet.vn/vn/xa-hoi/142186/rung-dong-vu-trao-thuy-tinh-the-o-benh-vien-mat-ha-noi.html","created_time":"2013-09-29T01:57:40+0000","updated_time":"2013-09-29T11:27:59+0000","likes":{"data":{"100001416272263":{"id":"100001416272263","name":"Mai PB"},"100003005597243":{"id":"100003005597243","name":"Zany Royal"},"100004905101408":{"id":"100004905101408","name":"Oanh Maruko"}},"paging":{"cursors":{"after":"MTAwMDAxNDE2MjcyMjYz","before":"MTAwMDAxNDE2MjcyMjYz"},"next":"https://graph.facebook.com/229244010425617_729503497066330/likes?limit=1&summary=1&after=MTAwMDAxNDE2MjcyMjYz"},"summary":{"total_count":4}},"comments":{"data":{"729563883726958":{"id":"729563883726958","from":{"id":"100001416272263","name":"Mai PB"},"message":"Chúng ta có thể suy nghĩ trước như thế này, ở VN hiện giờ có cái gọi là đạo đức không? Nếu có thì nó có được tôn trọng hay là kim chỉ nam hành động không?","can_remove":false,"created_time":"2013-09-29T04:57:27+0000","like_count":0,"user_likes":false},"729610110389002":{"id":"729610110389002","from":{"id":"100000027754899","name":"Hoang Van Ba"},"message":"Tiền","can_remove":false,"created_time":"2013-09-29T07:52:14+0000","like_count":1,"user_likes":false},"729633300386683":{"id":"729633300386683","from":{"id":"100002754998000","name":"Nguyen Duc"},"message":"Tất cả từ giáo dục con người, mà giáo dục ở việt nam thì lại liên quan chặt chẽ đến chính trị nên..","can_remove":false,"created_time":"2013-09-29T09:23:10+0000","like_count":0,"user_likes":false},"729645030385510":{"id":"729645030385510","from":{"id":"100001260645727","name":"Ngo Duy Son"},"message":"Mình nghĩ bạn Hoang Van Ba nói có vẻ chuẩn nhất.\nThấy các bậc cha mẹ bây giờ toàn dạy con mình phải \"khôn\" thôi, chứ chẳng thấy dạy phải làm người \"tốt\" gì cả.\nNhưng mà như vậy là hoặc là chẳng có cái gì là kim chỉ nam cho hành động à?","message_tags":[{"id":"100000027754899","name":"Hoang Van Ba","type":"user","offset":14,"length":12}],"can_remove":false,"created_time":"2013-09-29T09:57:34+0000","like_count":0,"user_likes":false},"729676303715716":{"id":"729676303715716","from":{"id":"100000381394367","name":"Thành Nguyễn"},"message":"Đạo đức xã hội xuống cấp vì \"vốn xã hội\" ( social capital ) thấphttps://www.facebook.com/vonxahoivietnam","can_remove":false,"created_time":"2013-09-29T11:27:59+0000","like_count":1,"user_likes":false}},"paging":{"cursors":{"after":"NzI5NTYzODgzNzI2OTU4","before":"NzI5NTYzODgzNzI2OTU4"},"next":"https://graph.facebook.com/229244010425617_729503497066330/comments?limit=1&summary=1&after=NzI5NTYzODgzNzI2OTU4"},"summary":{"order":"chronological","total_count":5}}}