{"id":"229244010425617_730008340349179","type":"status","from":{"id":"100001458099624","name":"Kham Pha"},"message":"Vừa đọc đc từ 思い余る lên đây đặt câu xem có bị ai chém ko ^^\n彼は結構モテるんだけど、女の子に告白するのに思い余ってるね。","created_time":"2013-09-30T00:23:00+0000","updated_time":"2013-10-01T04:13:59+0000","likes":{"data":{"100004857314400":{"id":"100004857314400","name":"Lê Nguyễn"}},"paging":{"cursors":{"after":"MTAwMDA0ODU3MzE0NDAw","before":"MTAwMDA0ODU3MzE0NDAw"}},"summary":{"total_count":1}},"comments":{"data":{"730388340311179":{"id":"730388340311179","from":{"id":"100001416272263","name":"Mai PB"},"message":"Không ai chém à? :-)","can_remove":false,"created_time":"2013-09-30T14:42:27+0000","like_count":0,"user_likes":false},"730405886976091":{"id":"730405886976091","from":{"id":"100001458099624","name":"Kham Pha"},"message":"chờ mãi ko ai chém, thôi anh Mai PB chém cho em một nhát đi để em còn đi ngủ cho say nào :D","message_tags":[{"id":"100001416272263","name":"Mai PB","type":"user","offset":29,"length":6}],"can_remove":false,"created_time":"2013-09-30T15:28:09+0000","like_count":0,"user_likes":false},"730687626947917":{"id":"730687626947917","from":{"id":"100001416272263","name":"Mai PB"},"message":"Hôm qua không nhìn ra request này, chắc không ngủ được? :-) Thực ra thì cũng không phải chém gì, mà từ này rất ít được dùng nên anh cũng không quen lắm, chỉ thấy cách nói hơi lạ lạ. Tra thử thì thấy quả nhiên là hay dùng như là một phó từ, dạng \"思い余って\" và sau đó phải có 1 động từ thôi. Thế nên câu trên có lẽ nên dùng cách nói khác.","can_remove":false,"created_time":"2013-10-01T04:13:59+0000","like_count":0,"user_likes":false}},"paging":{"cursors":{"after":"NzMwMzg4MzQwMzExMTc5","before":"NzMwMzg4MzQwMzExMTc5"},"next":"https://graph.facebook.com/229244010425617_730008340349179/comments?limit=1&summary=1&after=NzMwMzg4MzQwMzExMTc5"},"summary":{"order":"chronological","total_count":3}}}