{"id":"229244010425617_730277033655643","type":"status","from":{"id":"100001458099624","name":"Kham Pha"},"message":"Bắt gặp hiệp khách thời hại điện ^^","created_time":"2013-09-30T11:01:49+0000","updated_time":"2013-09-30T15:21:36+0000","likes":{"data":{"100006572713690":{"id":"100006572713690","name":"Đại Chim Lợn"},"100000004663910":{"id":"100000004663910","name":"Phong Thanh Lam"},"100002508122689":{"id":"100002508122689","name":"Vũ Mạnh Tuấn"},"100002329538994":{"id":"100002329538994","name":"Xuka Sakura"},"100002793054191":{"id":"100002793054191","name":"Lai Vuong"},"100003806594580":{"id":"100003806594580","name":"Daothuy Linh"},"100000250256418":{"id":"100000250256418","name":"Nguyen Viet Anh"},"1114300791":{"id":"1114300791","name":"Tra Mi"},"100005597975596":{"id":"100005597975596","name":"Lang Tu Thieu Toan"},"100003340386748":{"id":"100003340386748","name":"Thi Đăng"},"100001754136107":{"id":"100001754136107","name":"Nguyễn Tuấn Vũ"},"100001508739620":{"id":"100001508739620","name":"Lê Ngọc Hoàn"}},"paging":{"cursors":{"after":"MTAwMDA2NTcyNzEzNjkw","before":"MTAwMDA2NTcyNzEzNjkw"},"next":"https://graph.facebook.com/229244010425617_730277033655643/likes?limit=1&summary=1&after=MTAwMDA2NTcyNzEzNjkw"},"summary":{"total_count":12}},"comments":{"data":{"730279826988697":{"id":"730279826988697","from":{"id":"100001508739620","name":"Lê Ngọc Hoàn"},"message":"Thơ hay :)","can_remove":false,"created_time":"2013-09-30T11:11:12+0000","like_count":0,"user_likes":false},"730295233653823":{"id":"730295233653823","from":{"id":"100000250256418","name":"Nguyen Viet Anh"},"message":"Khó đỡ vãi! Thơ mày chế đấy à? =))))","can_remove":false,"created_time":"2013-09-30T11:49:44+0000","like_count":0,"user_likes":false},"730343550315658":{"id":"730343550315658","from":{"id":"100001458099624","name":"Kham Pha"},"message":"Thơ dở thơ hay xin đừng vội\nGọi bằng thơ chế, buồn lòng tôi.\nDẫu sao đó là lời tâm huyết\nCứ gọi \"thơ\" không cũng được rồi. ^^","can_remove":false,"created_time":"2013-09-30T13:32:33+0000","like_count":1,"user_likes":false},"730343983648948":{"id":"730343983648948","from":{"id":"100000250256418","name":"Nguyen Viet Anh"},"message":"Kham Pha vãi ***. Mày có phải thằng Đức ko đấy? =)))","message_tags":[{"id":"100001458099624","name":"Kham Pha","type":"user","offset":0,"length":8}],"can_remove":false,"created_time":"2013-09-30T13:33:29+0000","like_count":0,"user_likes":false},"730349506981729":{"id":"730349506981729","from":{"id":"100001416272263","name":"Mai PB"},"message":"Nhìn kỹ trong hình xem phía trên \"hiệp khách\" Kham Pha là ai, hiểu ngay lý do thơ thẩn","message_tags":[{"id":"100001458099624","name":"Kham Pha","type":"user","offset":46,"length":8}],"can_remove":false,"created_time":"2013-09-30T13:47:54+0000","like_count":1,"user_likes":false},"730403743642972":{"id":"730403743642972","from":{"id":"100001458099624","name":"Kham Pha"},"message":"Hiệp khách đeo cây rõ mồn một thế kia cần gì nhìn kĩ :)","can_remove":false,"created_time":"2013-09-30T15:21:36+0000","like_count":0,"user_likes":false}},"paging":{"cursors":{"after":"NzMwMjc5ODI2OTg4Njk3","before":"NzMwMjc5ODI2OTg4Njk3"},"next":"https://graph.facebook.com/229244010425617_730277033655643/comments?limit=1&summary=1&after=NzMwMjc5ODI2OTg4Njk3"},"summary":{"order":"chronological","total_count":6}}}