{"id":"229244010425617_730601953623151","type":"status","from":{"id":"100001458099624","name":"Kham Pha"},"message":"Không tra từ điển đố ai đoán được nghĩa từ này?\n四捨五入（ししゃごにゅう）する\nGợi ý: nghĩa đen của nó là \"bỏ 4 lấy 5\" ^^","created_time":"2013-09-30T23:52:05+0000","updated_time":"2013-10-01T04:34:13+0000","likes":{"data":{"100005915713419":{"id":"100005915713419","name":"Hà TaNoshii"},"100005973217688":{"id":"100005973217688","name":"Hermie Uyên"},"100002694914418":{"id":"100002694914418","name":"Duy Đạt Đoàn"},"100001701000514":{"id":"100001701000514","name":"Mực Đùi Gà"},"100006493055181":{"id":"100006493055181","name":"Tuyên Nguyễn"}},"paging":{"cursors":{"after":"MTAwMDA1OTE1NzEzNDE5","before":"MTAwMDA1OTE1NzEzNDE5"},"next":"https://graph.facebook.com/229244010425617_730601953623151/likes?limit=1&summary=1&after=MTAwMDA1OTE1NzEzNDE5"},"summary":{"total_count":5}},"comments":{"data":{"730603476956332":{"id":"730603476956332","from":{"id":"100001458099624","name":"Kham Pha"},"message":"Google thì câu đố còn ý nghĩa gì nữa :(","can_remove":false,"created_time":"2013-09-30T23:58:44+0000","like_count":0,"user_likes":false},"730603640289649":{"id":"730603640289649","from":{"id":"100001458099624","name":"Kham Pha"},"message":"Nhưng mà đáp án kia vẫn chưa chính xác :))","can_remove":false,"created_time":"2013-09-30T23:59:19+0000","like_count":0,"user_likes":false},"730612000288813":{"id":"730612000288813","from":{"id":"100000027754899","name":"Hoang Van Ba"},"message":"Ko góp ý\n15 = 20\n14=10","can_remove":false,"created_time":"2013-10-01T00:24:27+0000","like_count":0,"user_likes":false},"730620620287951":{"id":"730620620287951","from":{"id":"100003828347619","name":"Huyền Tuyết"},"message":"Học trên học tiếng nhật online.biz. Nhỏ hon 5 thì xuống. Lon hon hoac bag 5 thj len. Hj.","can_remove":false,"created_time":"2013-10-01T00:52:46+0000","like_count":0,"user_likes":false},"730622326954447":{"id":"730622326954447","from":{"id":"100004460525997","name":"Hà Trang Nguyễn"},"message":"Vẽ vòng tròn. Nhjeu cau t.nhat djch ra t.vjet kho hjeu qua","can_remove":false,"created_time":"2013-10-01T00:58:41+0000","like_count":0,"user_likes":false},"730649263618420":{"id":"730649263618420","from":{"id":"100006368081099","name":"Man Thu"},"message":"Bỏ cái nhỏ, làm cái lớn hay ý như câu: bỏ con săn sắt, bắt con cá rô.","can_remove":false,"created_time":"2013-10-01T02:24:25+0000","like_count":0,"user_likes":false},"730656190284394":{"id":"730656190284394","from":{"id":"100001458099624","name":"Kham Pha"},"message":"Đáp án là \"làm tròn lên\" tiếng Anh là \"rouding up\".","can_remove":false,"created_time":"2013-10-01T02:37:37+0000","like_count":2,"user_likes":false},"730656286951051":{"id":"730656286951051","from":{"id":"100001458099624","name":"Kham Pha"},"message":"Rounding up","can_remove":false,"created_time":"2013-10-01T02:37:49+0000","like_count":0,"user_likes":false},"730659390284074":{"id":"730659390284074","from":{"id":"100000062884729","name":"Huệ Ca"},"message":"có giống câu \"9 bỏ làm 10\" trong tiếng Việt ko nhỉ????","can_remove":false,"created_time":"2013-10-01T02:48:06+0000","like_count":0,"user_likes":false},"730661476950532":{"id":"730661476950532","from":{"id":"100000027754899","name":"Hoang Van Ba"},"message":"Nó ko phải là châm ngôn tục ngữ ca dao j cả :)","can_remove":false,"created_time":"2013-10-01T02:55:04+0000","like_count":0,"user_likes":false},"730675316949148":{"id":"730675316949148","from":{"id":"100000064686295","name":"Huy Roli"},"message":"bỏ con săn sắt bắt con cá rô à","can_remove":false,"created_time":"2013-10-01T03:36:51+0000","like_count":1,"user_likes":false},"730690233614323":{"id":"730690233614323","from":{"id":"100001243411261","name":"Ngưu Tỷ Tỷ"},"message":"hợp lý hợp lý.....cao nhân Huy Roli  (y)","message_tags":[{"id":"100000064686295","name":"Huy Roli","type":"user","offset":27,"length":8}],"can_remove":false,"created_time":"2013-10-01T04:24:24+0000","like_count":1,"user_likes":false},"730692856947394":{"id":"730692856947394","from":{"id":"100001156666759","name":"Kenshuu Steam"},"message":"Bỏ con thạch thùng bắt con khủng long.","can_remove":false,"created_time":"2013-10-01T04:34:13+0000","like_count":0,"user_likes":false}},"paging":{"cursors":{"after":"NzMwNjAzNDc2OTU2MzMy","before":"NzMwNjAzNDc2OTU2MzMy"},"next":"https://graph.facebook.com/229244010425617_730601953623151/comments?limit=1&summary=1&after=NzMwNjAzNDc2OTU2MzMy"},"summary":{"order":"chronological","total_count":15}}}