{"id":"229244010425617_731155520234461","type":"status","from":{"id":"100004048585920","name":"Ninh Pressing"},"message":"VÉ MÁY BAY DU HỌC RẺ NHẤT VIỆT NAM\nMình ở bên phòng vé máy bay Tam Vương \nBên mình có giá vé du học Nhật Bản, Hàn Quốc giá rất tốt\nCác bạn Sinh viên có nhu cầu đặt vé hãy liên hệ với mình nhé mình sẽ báo giá cho bạn, mình đảm bảo giá mình cung cấp là rẻ nhất so với tất cả các đại lý trên toàn quốc.\nMình tên Ninh, số di động của mình: 0979 576 046, \nYahoo: tamvuonghp01, email: tamvuongbooking@gmail.com\nRất mong sớm nhận được hồi âm và sự hợp tác từ bạn!","created_time":"2013-10-02T02:09:26+0000","updated_time":"2013-10-02T08:43:58+0000","comments":{"data":{"731162810233732":{"id":"731162810233732","from":{"id":"100005684619923","name":"Le Thieu"},"message":"re la bao nhieu vay bn","can_remove":false,"created_time":"2013-10-02T02:32:37+0000","like_count":0,"user_likes":false},"731163043567042":{"id":"731163043567042","from":{"id":"100004048585920","name":"Ninh Pressing"},"message":"Le Thieu bạn đi Nhật hay Hàn?","message_tags":[{"id":"100005684619923","name":"Le Thieu","type":"user","offset":0,"length":8}],"can_remove":false,"created_time":"2013-10-02T02:33:26+0000","like_count":0,"user_likes":false},"731164066900273":{"id":"731164066900273","from":{"id":"100004048585920","name":"Ninh Pressing"},"message":"Đi Nhật mình có 2 giá: 1 bay thẳng giá 460$, hành lý 40 đến 46kg + xách tay; bay transit qua Hàn giá 399$  Le Thieu nhé","message_tags":[{"id":"100005684619923","name":"Le Thieu","type":"user","offset":107,"length":8}],"can_remove":false,"created_time":"2013-10-02T02:37:08+0000","like_count":0,"user_likes":false},"731164170233596":{"id":"731164170233596","from":{"id":"100005684619923","name":"Le Thieu"},"message":"minh di nhat","can_remove":false,"created_time":"2013-10-02T02:37:27+0000","like_count":0,"user_likes":false},"731168470233166":{"id":"731168470233166","from":{"id":"100005684619923","name":"Le Thieu"},"message":"oh vay ag,tks bn nhe m tham khao xem","can_remove":false,"created_time":"2013-10-02T02:50:05+0000","like_count":1,"user_likes":false},"731169256899754":{"id":"731169256899754","from":{"id":"100004048585920","name":"Ninh Pressing"},"message":"Ok bạn, khi nào bạn bay hoặc bạn bè của bạn bay thì alo mình mình lấy vé cho nhé. số của mình 0979 576 046 mình tên Ninh","can_remove":false,"created_time":"2013-10-02T02:51:37+0000","like_count":0,"user_likes":false},"731169336899746":{"id":"731169336899746","from":{"id":"100003205232355","name":"Nguyen Viet Tien"},"message":"Osaka - Ha noi ( khứ hồi bảo tiền vậy bạn)","can_remove":false,"created_time":"2013-10-02T02:51:43+0000","like_count":0,"user_likes":false},"731169623566384":{"id":"731169623566384","from":{"id":"100003205232355","name":"Nguyen Viet Tien"},"message":"Tính ra tièn việt luôn cái nhá, ( hoặc tiền nhật ok hết","can_remove":false,"created_time":"2013-10-02T02:52:41+0000","like_count":0,"user_likes":false},"731169670233046":{"id":"731169670233046","from":{"id":"100004048585920","name":"Ninh Pressing"},"message":"Bạn xuất phát từ HN hay từ Osaka? Nguyen Viet Tien","message_tags":[{"id":"100003205232355","name":"Nguyen Viet Tien","type":"user","offset":34,"length":16}],"can_remove":false,"created_time":"2013-10-02T02:52:43+0000","like_count":0,"user_likes":false},"731169923566354":{"id":"731169923566354","from":{"id":"100003205232355","name":"Nguyen Viet Tien"},"message":"Osaka, mình viết rõ rồi mà","can_remove":false,"created_time":"2013-10-02T02:53:43+0000","like_count":0,"user_likes":false},"731182730231740":{"id":"731182730231740","from":{"id":"100004048585920","name":"Ninh Pressing"},"message":"Nguyen Viet Tien mình chỉ xuất vé từ VN đi thôi bạn nhé. vé chiều ngược lại mình ko xuất.","message_tags":[{"id":"100003205232355","name":"Nguyen Viet Tien","type":"user","offset":0,"length":16}],"can_remove":false,"created_time":"2013-10-02T03:36:50+0000","like_count":0,"user_likes":false},"731254476891232":{"id":"731254476891232","from":{"id":"100003205232355","name":"Nguyen Viet Tien"},"message":"Ơ đặt vé thì đặt chiều nao chả dc, bạn đặt trên trang chủ viêtnamairline","can_remove":false,"created_time":"2013-10-02T06:04:17+0000","like_count":0,"user_likes":false},"731265706890109":{"id":"731265706890109","from":{"id":"100004048585920","name":"Ninh Pressing"},"message":"Oh không bạn ơi, vé online thì ai có thẻ thanh toán là đặt được nhưng giá cao lắm, đặt online khách phải contact trực tiếp với hãng. mình bán tất cả những giá riêng, giá ưu tiên cho từng đối tượng khách khác nhau và của nhiều hãng chứ không chỉ của VNA","can_remove":false,"created_time":"2013-10-02T07:02:07+0000","like_count":0,"user_likes":false},"731268933556453":{"id":"731268933556453","from":{"id":"100004007685622","name":"Mưa Lạnh Lùng"},"message":"Viet nam + sendai thj pnhjêu ạ","can_remove":false,"created_time":"2013-10-02T07:12:24+0000","like_count":0,"user_likes":false},"731270016889678":{"id":"731270016889678","from":{"id":"100004048585920","name":"Ninh Pressing"},"message":"Mưa Lạnh Lùng sân bay ở sendai là sân bay nội địa, đến sendai mình sẽ đến sân bay quốc tế cạnh đó. giá bay thẳng 460$ và bay transit qua Hàn là 399$ em nhé","message_tags":[{"id":"100004007685622","name":"Mưa Lạnh Lùng","type":"user","offset":0,"length":13}],"can_remove":false,"created_time":"2013-10-02T07:17:07+0000","like_count":0,"user_likes":false},"731271406889539":{"id":"731271406889539","from":{"id":"100004007685622","name":"Mưa Lạnh Lùng"},"message":"Tính tjền vjêt a","can_remove":false,"created_time":"2013-10-02T07:23:26+0000","like_count":0,"user_likes":false},"731271696889510":{"id":"731271696889510","from":{"id":"100004048585920","name":"Ninh Pressing"},"message":"Mưa Lạnh Lùng em muốn bay thẳng hay transit?","message_tags":[{"id":"100004007685622","name":"Mưa Lạnh Lùng","type":"user","offset":0,"length":13}],"can_remove":false,"created_time":"2013-10-02T07:24:39+0000","like_count":0,"user_likes":false},"731271936889486":{"id":"731271936889486","from":{"id":"100004007685622","name":"Mưa Lạnh Lùng"},"message":"Pay thẳg","can_remove":false,"created_time":"2013-10-02T07:26:05+0000","like_count":0,"user_likes":false},"731271973556149":{"id":"731271973556149","from":{"id":"100004048585920","name":"Ninh Pressing"},"message":"Bay thẳng là 9.720.000 em nhé","can_remove":false,"created_time":"2013-10-02T07:26:22+0000","like_count":0,"user_likes":false},"731272200222793":{"id":"731272200222793","from":{"id":"100004007685622","name":"Mưa Lạnh Lùng"},"message":"Co vẻ kũng hợp lý nhỷ.","can_remove":false,"created_time":"2013-10-02T07:27:28+0000","like_count":0,"user_likes":false},"731272296889450":{"id":"731272296889450","from":{"id":"100004007685622","name":"Mưa Lạnh Lùng"},"message":"Vé thỳ thế nào a.","can_remove":false,"created_time":"2013-10-02T07:27:54+0000","like_count":0,"user_likes":false},"731272396889440":{"id":"731272396889440","from":{"id":"100004048585920","name":"Ninh Pressing"},"message":"Em ở Nam Sách HD phải ko?","can_remove":false,"created_time":"2013-10-02T07:28:14+0000","like_count":0,"user_likes":false},"731273056889374":{"id":"731273056889374","from":{"id":"100004048585920","name":"Ninh Pressing"},"message":"Em chọn ngày bay anh lấy vé cho em rồi em có thể nhận vé qua mail và thanh toán bằng chuyển khoản. Nếu em ở Nam Sách HD thì ưu tiên giao vé đến tận nhà vì anh cùng ở Nam Sách Mưa Lạnh Lùng","message_tags":[{"id":"100004007685622","name":"Mưa Lạnh Lùng","type":"user","offset":175,"length":13}],"can_remove":false,"created_time":"2013-10-02T07:31:44+0000","like_count":0,"user_likes":false},"731274216889258":{"id":"731274216889258","from":{"id":"100004007685622","name":"Mưa Lạnh Lùng"},"message":"A ở đâu của ns","can_remove":false,"created_time":"2013-10-02T07:36:17+0000","like_count":0,"user_likes":false},"731274433555903":{"id":"731274433555903","from":{"id":"100004048585920","name":"Ninh Pressing"},"message":"Anh ở Hiệp Cát, em bên Hợp Tiến phải ko?","can_remove":false,"created_time":"2013-10-02T07:37:08+0000","like_count":0,"user_likes":false},"731274813555865":{"id":"731274813555865","from":{"id":"100004007685622","name":"Mưa Lạnh Lùng"},"message":"Sao a pjết","can_remove":false,"created_time":"2013-10-02T07:38:33+0000","like_count":0,"user_likes":false},"731275083555838":{"id":"731275083555838","from":{"id":"100004048585920","name":"Ninh Pressing"},"message":"Anh check trên bản thông tin của em này hihi. anh thấy có cái ảnh giống trường Mạc Đĩnh Chi nên vào xem :)","can_remove":false,"created_time":"2013-10-02T07:39:33+0000","like_count":0,"user_likes":false},"731275386889141":{"id":"731275386889141","from":{"id":"100004007685622","name":"Mưa Lạnh Lùng"},"message":"Ồ, vậy à","can_remove":false,"created_time":"2013-10-02T07:40:23+0000","like_count":0,"user_likes":false},"731275560222457":{"id":"731275560222457","from":{"id":"100004048585920","name":"Ninh Pressing"},"message":"Uhm, em chuẩn bị đi du học Nhật hả?","can_remove":false,"created_time":"2013-10-02T07:41:01+0000","like_count":0,"user_likes":false},"731275893555757":{"id":"731275893555757","from":{"id":"100004007685622","name":"Mưa Lạnh Lùng"},"message":"Vâng !đúg rồj","can_remove":false,"created_time":"2013-10-02T07:41:56+0000","like_count":0,"user_likes":false},"731276520222361":{"id":"731276520222361","from":{"id":"100004048585920","name":"Ninh Pressing"},"message":"Có visa chưa em? chọn được ngày bay thì anh lấy vé cho. có ngày cụ thể anh check cho e có thể có dc giá thấp hơn giá anh vừa báo không thì anh lấy cho em","can_remove":false,"created_time":"2013-10-02T07:43:55+0000","like_count":0,"user_likes":false},"731276900222323":{"id":"731276900222323","from":{"id":"100004007685622","name":"Mưa Lạnh Lùng"},"message":"E đj thág 1 cơ.còn lâu ạ.e tham khảo truôc thôj.hý","can_remove":false,"created_time":"2013-10-02T07:46:08+0000","like_count":0,"user_likes":false},"731277126888967":{"id":"731277126888967","from":{"id":"100004048585920","name":"Ninh Pressing"},"message":"Uhm thế em lưu số anh nhé. khi nào bay alo anh lấy vé cho.","can_remove":false,"created_time":"2013-10-02T07:47:24+0000","like_count":0,"user_likes":false},"731277196888960":{"id":"731277196888960","from":{"id":"100004048585920","name":"Ninh Pressing"},"message":"số của anh 0979 576 046. anh tên Ninh","can_remove":false,"created_time":"2013-10-02T07:47:46+0000","like_count":0,"user_likes":false},"731277630222250":{"id":"731277630222250","from":{"id":"100004007685622","name":"Mưa Lạnh Lùng"},"message":"vâng","can_remove":false,"created_time":"2013-10-02T07:50:05+0000","like_count":1,"user_likes":false},"731277716888908":{"id":"731277716888908","from":{"id":"100004048585920","name":"Ninh Pressing"},"message":":)","can_remove":false,"created_time":"2013-10-02T07:50:37+0000","like_count":0,"user_likes":false},"731287766887903":{"id":"731287766887903","from":{"id":"100005684619923","name":"Le Thieu"},"message":"mua lanh lung di truong nao vay?","can_remove":false,"created_time":"2013-10-02T08:43:58+0000","like_count":0,"user_likes":false}},"paging":{"cursors":{"after":"NzMxMTYyODEwMjMzNzMy","before":"NzMxMTYyODEwMjMzNzMy"},"next":"https://graph.facebook.com/229244010425617_731155520234461/comments?limit=1&summary=1&after=NzMxMTYyODEwMjMzNzMy"},"summary":{"order":"chronological","total_count":37}},"likes":{"data":[]}}