{"id":"229244010425617_731134046903275","type":"photo","object_id":"584074421630017","picture":"https://fbcdn-photos-h-a.akamaihd.net/hphotos-ak-prn1/t1.0-0/559403_584074421630017_1301880347_s.jpg","link":"https://www.facebook.com/cooljapanfan/photos/a.204333086270821.46480.184699534900843/584074421630017/?type=1","from":{"id":"100001416272263","name":"Mai PB"},"message":"Kyoto, đi chăng?","created_time":"2013-10-02T01:08:12+0000","updated_time":"2013-10-02T12:04:57+0000","likes":{"data":{"100004460525997":{"id":"100004460525997","name":"Hà Trang Nguyễn"},"100000594793048":{"id":"100000594793048","name":"Thùy Ú Xinh Đẹp"},"100003823847512":{"id":"100003823847512","name":"Phuong Le"},"100006387723695":{"id":"100006387723695","name":"Hoa Minh"},"100006014164976":{"id":"100006014164976","name":"Bình Bông"},"718011337":{"id":"718011337","name":"Quynh Quyt"},"100003011417151":{"id":"100003011417151","name":"Hue Kim"},"100004973283998":{"id":"100004973283998","name":"Hoai Dang"},"100001723862714":{"id":"100001723862714","name":"Bo Bien Vang"},"100005887419564":{"id":"100005887419564","name":"Cười Một Mình"},"100003005597243":{"id":"100003005597243","name":"Zany Royal"},"100001695345798":{"id":"100001695345798","name":"Tyn Aki"},"1114300791":{"id":"1114300791","name":"Tra Mi"},"100003820074306":{"id":"100003820074306","name":"Dao Thi Thu Huong"},"100000603915176":{"id":"100000603915176","name":"悪いな ぁ"},"100001754136107":{"id":"100001754136107","name":"Nguyễn Tuấn Vũ"},"100000264801587":{"id":"100000264801587","name":"Nguyễn Đình Toàn"},"100002189883327":{"id":"100002189883327","name":"Thudoland Hanoiproperty"},"1845000884":{"id":"1845000884","name":"Trieu Thi Kieu Oanh"},"1122379216":{"id":"1122379216","name":"Hà Ngô"}},"paging":{"cursors":{"after":"MTAwMDA0NDYwNTI1OTk3","before":"MTAwMDA0NDYwNTI1OTk3"},"next":"https://graph.facebook.com/229244010425617_731134046903275/likes?limit=1&summary=1&after=MTAwMDA0NDYwNTI1OTk3"},"summary":{"total_count":20}},"comments":{"data":{"731135326903147":{"id":"731135326903147","from":{"id":"1845000884","name":"Trieu Thi Kieu Oanh"},"message":":D nam sau di anh ak. nam sau cho em di theo voi nhe","can_remove":false,"created_time":"2013-10-02T01:13:12+0000","like_count":1,"user_likes":false},"731253573557989":{"id":"731253573557989","from":{"id":"100006368081099","name":"Man Thu"},"message":"Rừng phong thu đã nhuộm mầu quan sang!","can_remove":false,"created_time":"2013-10-02T05:59:25+0000","like_count":0,"user_likes":false},"731395093543837":{"id":"731395093543837","from":{"id":"100001416272263","name":"Mai PB"},"message":"Lá momiji đó, không phải lá phong (maple) đâu, Man Thu","message_tags":[{"id":"100006368081099","name":"Man Thu","type":"user","offset":47,"length":7}],"can_remove":false,"created_time":"2013-10-02T12:04:57+0000","like_count":0,"user_likes":false}},"paging":{"cursors":{"after":"NzMxMTM1MzI2OTAzMTQ3","before":"NzMxMTM1MzI2OTAzMTQ3"},"next":"https://graph.facebook.com/229244010425617_731134046903275/comments?limit=1&summary=1&after=NzMxMTM1MzI2OTAzMTQ3"},"summary":{"order":"chronological","total_count":4}}}