{"id":"229244010425617_731374746879205","type":"status","from":{"id":"100001754136107","name":"Nguyễn Tuấn Vũ"},"message":"Hôm nay mới đi lên lãnh sự quán thấy cái thông báo này.","created_time":"2013-10-02T11:00:42+0000","updated_time":"2013-10-02T12:06:54+0000","likes":{"data":{"100001609833418":{"id":"100001609833418","name":"Tsunami Hime"},"100005646341173":{"id":"100005646341173","name":"Quốc Phương"},"100005460966516":{"id":"100005460966516","name":"Hải Dương"},"100001637565304":{"id":"100001637565304","name":"Chung Dương Quang"},"100002189883327":{"id":"100002189883327","name":"Thudoland Hanoiproperty"},"100000206492868":{"id":"100000206492868","name":"Quỳnh Lê Phạm"},"100001754136107":{"id":"100001754136107","name":"Nguyễn Tuấn Vũ"},"1693102459":{"id":"1693102459","name":"Châu Hoàng"},"100000238363006":{"id":"100000238363006","name":"Dương Thiên Tân"},"100001458099624":{"id":"100001458099624","name":"Kham Pha"}},"paging":{"cursors":{"after":"MTAwMDAxNjA5ODMzNDE4","before":"MTAwMDAxNjA5ODMzNDE4"},"next":"https://graph.facebook.com/229244010425617_731374746879205/likes?limit=1&summary=1&after=MTAwMDAxNjA5ODMzNDE4"},"summary":{"total_count":10}},"comments":{"data":{"731375176879162":{"id":"731375176879162","from":{"id":"100001754136107","name":"Nguyễn Tuấn Vũ"},"message":"Chưa mất quốc tịch ???","can_remove":false,"created_time":"2013-10-02T11:02:53+0000","like_count":0,"user_likes":false},"731379153545431":{"id":"731379153545431","from":{"id":"100000238363006","name":"Dương Thiên Tân"},"message":";-)","can_remove":false,"created_time":"2013-10-02T11:15:39+0000","like_count":0,"user_likes":false},"731384210211592":{"id":"731384210211592","from":{"id":"1693102459","name":"Châu Hoàng"},"message":"nếu k làm thì có đc nhập quốc tịch nhật k?","can_remove":false,"created_time":"2013-10-02T11:32:38+0000","like_count":0,"user_likes":false},"731385050211508":{"id":"731385050211508","from":{"id":"100003019923910","name":"Luân Pig"},"message":"Mất quốc tịch vn càng tốt nhập ở nhật cho sướng :))))","can_remove":false,"created_time":"2013-10-02T11:35:28+0000","like_count":0,"user_likes":false},"731385083544838":{"id":"731385083544838","from":{"id":"100000359762118","name":"Mi Tra"},"message":"Thông báo gì mà lủng củng, từ lặp đi lặp lại :((","can_remove":false,"created_time":"2013-10-02T11:35:36+0000","like_count":1,"user_likes":false},"731387433544603":{"id":"731387433544603","from":{"id":"100002801290859","name":"Arsène Lupin"},"message":"đọc thông báo xong chẳng hiểu cái gì cả","can_remove":false,"created_time":"2013-10-02T11:41:38+0000","like_count":0,"user_likes":false},"731387770211236":{"id":"731387770211236","from":{"id":"100001754136107","name":"Nguyễn Tuấn Vũ"},"message":"T đọc xong trong đầu 1 mớ hỗn độn :)))","can_remove":false,"created_time":"2013-10-02T11:42:22+0000","like_count":0,"user_likes":false},"731387900211223":{"id":"731387900211223","from":{"id":"100001754136107","name":"Nguyễn Tuấn Vũ"},"message":"Châu Hoàng cái này ko biết :))","message_tags":[{"id":"1693102459","name":"Châu Hoàng","type":"user","offset":0,"length":10}],"can_remove":false,"created_time":"2013-10-02T11:42:51+0000","like_count":0,"user_likes":false},"731389153544431":{"id":"731389153544431","from":{"id":"100001416272263","name":"Mai PB"},"message":"\"và không có hộ chiếu Việt Nam còn giá trị\", tức là hộ chiếu đã hết hạn. Trường hợp này thì hiếm thôi.","can_remove":false,"created_time":"2013-10-02T11:45:55+0000","like_count":1,"user_likes":false},"731389646877715":{"id":"731389646877715","from":{"id":"100001416272263","name":"Mai PB"},"message":"Nhưng mà cái nước VN này vui nhỉ, sẵn sàng cho công dân mất quốc tịch chỉ vì thủ tục hành chính, mà thông báo chỉ ở mỗi LSQ. :-D","can_remove":false,"created_time":"2013-10-02T11:47:02+0000","like_count":4,"user_likes":false},"731390953544251":{"id":"731390953544251","from":{"id":"100001754136107","name":"Nguyễn Tuấn Vũ"},"message":"A Mai PB: nói là hộ chiếu hết thời hạn thì hiểu ngay a ak @@ đây mà nói thế thì kho hiểu. E đoc lại càng khó hiểu :)))","message_tags":[{"id":"100001416272263","name":"Mai PB","type":"user","offset":2,"length":6}],"can_remove":false,"created_time":"2013-10-02T11:50:56+0000","like_count":2,"user_likes":false},"731391480210865":{"id":"731391480210865","from":{"id":"100001416272263","name":"Mai PB"},"message":"Ai không hiểu tiếng Việt của ĐSQ nghĩa là chưa pass V1 (tự đặt) nên mất quốc tịch là phải ;-)","can_remove":false,"created_time":"2013-10-02T11:51:56+0000","like_count":1,"user_likes":false},"731392180210795":{"id":"731392180210795","from":{"id":"100000359762118","name":"Mi Tra"},"message":"Tình hình này ko vác mặt lên gặp các bác ấy gấp thì hết được làm công dân VN","can_remove":false,"created_time":"2013-10-02T11:54:42+0000","like_count":0,"user_likes":false},"731392850210728":{"id":"731392850210728","from":{"id":"100001754136107","name":"Nguyễn Tuấn Vũ"},"message":"Cái passport của mình vẫn còn thơi hạn? Ko biết có sao k :)))","can_remove":false,"created_time":"2013-10-02T11:57:01+0000","like_count":0,"user_likes":false},"731394466877233":{"id":"731394466877233","from":{"id":"100001754136107","name":"Nguyễn Tuấn Vũ"},"message":"A Mai PB: trường hợp chưa mất quốc tịch là như bọn e đang du học nhật hả a","message_tags":[{"id":"100001416272263","name":"Mai PB","type":"user","offset":2,"length":6}],"can_remove":false,"created_time":"2013-10-02T12:01:45+0000","like_count":0,"user_likes":false},"731395650210448":{"id":"731395650210448","from":{"id":"100001416272263","name":"Mai PB"},"message":"Nguyễn Tuấn Vũ Mất sao được, lo gì :-D  Theo như thông báo trên thì đối tượng mất quốc tịch là những người đã có visa định cư ở Nhật, rồi cứ ở Nhật mãi không nhận ra là hộ chiếu đã hết hạn, không đi gia hạn.","message_tags":[{"id":"100001754136107","name":"Nguyễn Tuấn Vũ","type":"user","offset":0,"length":14}],"can_remove":false,"created_time":"2013-10-02T12:06:54+0000","like_count":0,"user_likes":false}},"paging":{"cursors":{"after":"NzMxMzc1MTc2ODc5MTYy","before":"NzMxMzc1MTc2ODc5MTYy"},"next":"https://graph.facebook.com/229244010425617_731374746879205/comments?limit=1&summary=1&after=NzMxMzc1MTc2ODc5MTYy"},"summary":{"order":"chronological","total_count":18}}}