{"id":"229244010425617_731408270209186","type":"link","picture":"https://fbexternal-a.akamaihd.net/safe_image.php?d=AQAus5TkEeQgF_BC&w=154&h=154&url=http%3A%2F%2Fimg.v3.news.zdn.vn%2FUploaded%2Fxpcwvovb%2F2013_10_01%2Fvodap14.jpg","link":"http://news.zing.vn/Xa-lu-khan-cap-Quynh-Luu-nuoc-ngap-nuot-mai-nha-post356849.html#home_featured.tinnong","from":{"id":"100001416272263","name":"Mai PB"},"message":"Mất bao nhiêu năm trồng người nhưng chỉ cần một vài giờ để giết người. http://news.zing.vn/Xa-lu-khan-cap-Quynh-Luu-nuoc-ngap-nuot-mai-nha-post356849.html#home_featured.tinnong","created_time":"2013-10-02T12:38:37+0000","updated_time":"2013-10-03T00:58:26+0000","likes":{"data":{"100004460525997":{"id":"100004460525997","name":"Hà Trang Nguyễn"},"100004529465617":{"id":"100004529465617","name":"Nga Nguyen"},"100002470650247":{"id":"100002470650247","name":"LinhLinh Chan"},"100006539769735":{"id":"100006539769735","name":"Rùa Nuna"},"100006104100639":{"id":"100006104100639","name":"Kiếm Phong Vũ"},"1846809835":{"id":"1846809835","name":"Dorae Phương"},"100001754136107":{"id":"100001754136107","name":"Nguyễn Tuấn Vũ"},"100004923553810":{"id":"100004923553810","name":"Xuan KY Nguyen"},"100003104049512":{"id":"100003104049512","name":"Thao Phan"},"100003160219586":{"id":"100003160219586","name":"Nghia July"},"100003819875708":{"id":"100003819875708","name":"Piglazy Pham"},"100004123327271":{"id":"100004123327271","name":"Nguyễn Phương"},"100003011417151":{"id":"100003011417151","name":"Hue Kim"},"100001260645727":{"id":"100001260645727","name":"Ngo Duy Son"},"100002694966360":{"id":"100002694966360","name":"Gọi Giấc Mơ Về"},"100006620193226":{"id":"100006620193226","name":"バン トゥアン"}},"paging":{"cursors":{"after":"MTAwMDA0NDYwNTI1OTk3","before":"MTAwMDA0NDYwNTI1OTk3"},"next":"https://graph.facebook.com/229244010425617_731408270209186/likes?limit=1&summary=1&after=MTAwMDA0NDYwNTI1OTk3"},"summary":{"total_count":16}},"comments":{"data":{"731456820204331":{"id":"731456820204331","from":{"id":"100001416272263","name":"Mai PB"},"message":"Xin chia sẻ với các mem ở miền Trung. Năm nào cũng có lụt bão, tại sao không xây vùng cao tránh lụt, tại sao không có công quỹ bảo hiểm lụt bão, tại sao không xây dựng kênh riêng xả lũ không ảnh hưởng đến dân? Tự hào ca ngợi gì gì ở đâu? Đánh ngoại xâm thì giỏi, xây dựng đất nước không ra gì cả.\n\nhttps://www.facebook.com/groups/CongdongVietNhat/permalink/700462999970380/","can_remove":false,"created_time":"2013-10-02T14:28:15+0000","like_count":1,"user_likes":false},"731464330203580":{"id":"731464330203580","from":{"id":"100004923553810","name":"Xuan KY Nguyen"},"message":"lay tien xay tien dau de tui rieng a","can_remove":false,"created_time":"2013-10-02T14:49:54+0000","like_count":0,"user_likes":false},"731472850202728":{"id":"731472850202728","from":{"id":"100000381394367","name":"Thành Nguyễn"},"message":"https://www.facebook.com/photo.php?fbid=625061074213181&set=a.142174512501842.35874.100001278811108&type=1&relevant_count=1","can_remove":false,"created_time":"2013-10-02T15:11:49+0000","like_count":0,"user_likes":false},"731688123514534":{"id":"731688123514534","from":{"id":"100006687010442","name":"Thịt Gà Luộc"},"message":"Anh Mai PB ơi, những điều anh chỉ ra là đúng, miền trung khó khăn nhất cả nước! cứ mỗi năm một một vài trận như này thì kinh tế chả bao giờ khá lên được nếu mà không có cách tránh lũ...","message_tags":[{"id":"100001416272263","name":"Mai PB","type":"user","offset":4,"length":6}],"can_remove":false,"created_time":"2013-10-03T00:56:54+0000","like_count":0,"user_likes":false},"731688363514510":{"id":"731688363514510","from":{"id":"100006687010442","name":"Thịt Gà Luộc"},"message":"hôm qua đọc báo thấy tin ở Nghệ An, một vị PGD sở đã bị lũ cuốn trôi khi đang trên đường đem mì tôm cứu trợ cho người dân vùng lũ","can_remove":false,"created_time":"2013-10-03T00:58:26+0000","like_count":0,"user_likes":false}},"paging":{"cursors":{"after":"NzMxNDU2ODIwMjA0MzMx","before":"NzMxNDU2ODIwMjA0MzMx"},"next":"https://graph.facebook.com/229244010425617_731408270209186/comments?limit=1&summary=1&after=NzMxNDU2ODIwMjA0MzMx"},"summary":{"order":"chronological","total_count":5}}}