{"id":"229244010425617_731444103538936","type":"photo","object_id":"635059399879409","picture":"https://fbcdn-photos-h-a.akamaihd.net/hphotos-ak-prn2/t1.0-0/1382889_635059399879409_643906173_s.jpg","link":"https://www.facebook.com/photo.php?fbid=635059399879409&set=gm.731444103538936&type=1&relevant_count=1","from":{"id":"100001260645727","name":"Ngo Duy Son"},"message":"\"Giáo dục\" có một quyền năng khủng khiếp! Đó là nó có thể khiến cho người ta cảm thấy chẳng có vấn đề gì, thậm chí là bình yên trong khi thực ra đang sống như một động vật \"máu lạnh\"\n\nẢnh này được download từ haivl.com, và cmt được nhiều like nhất chính là \"Cũng tốt. Dạy cho các cháu từ nhỏ rằng: Xã hội vốn không công bằng\"\n\nVâng! Hãy thử tưởng tượng một ngày nào đó những đứa con của bạn dùng cái \"công bằng\" chúng học được để đối xử với bạn, thì biết đâu cmt đó và những người like cmt đó sẽ làm khác đi?","created_time":"2013-10-02T13:56:45+0000","updated_time":"2013-10-02T22:11:28+0000","likes":{"data":{"100000022163023":{"id":"100000022163023","name":"Kafe Ore"},"100000844467820":{"id":"100000844467820","name":"Trịnh Minh Hùng"},"100005389234209":{"id":"100005389234209","name":"Cỏ Dại"},"100001416272263":{"id":"100001416272263","name":"Mai PB"}},"paging":{"cursors":{"after":"MTAwMDAwMDIyMTYzMDIz","before":"MTAwMDAwMDIyMTYzMDIz"},"next":"https://graph.facebook.com/229244010425617_731444103538936/likes?limit=1&summary=1&after=MTAwMDAwMDIyMTYzMDIz"},"summary":{"total_count":4}},"comments":{"data":{"731444880205525":{"id":"731444880205525","from":{"id":"100000198892785","name":"Mạnh Phi"},"message":"Link đâu anh >_<","can_remove":false,"created_time":"2013-10-02T13:58:09+0000","like_count":0,"user_likes":false},"731444916872188":{"id":"731444916872188","from":{"id":"100002676859353","name":"Chu Quang Viên"},"message":"tao nói thật là tao ko thích đọc mấy cái mày viết nhưng tao muốn đọc bài báo kia và đền nghị chụp ảnh thì cũng lên đưa link nhé :3","can_remove":false,"created_time":"2013-10-02T13:58:15+0000","like_count":1,"user_likes":false},"731445453538801":{"id":"731445453538801","from":{"id":"100001260645727","name":"Ngo Duy Son"},"message":"Tao đang dùng điện thoại!","can_remove":false,"created_time":"2013-10-02T13:59:33+0000","like_count":0,"user_likes":false},"731445790205434":{"id":"731445790205434","from":{"id":"100000328306722","name":"Tran Ngoc Anh"},"message":"http://danviet.vn/giao-duc-du-hoc/bon-chuc-ngan-tien-xem-xiec-va-tieng-khoc-tre-tho/2013092910311946p1c28.htm","can_remove":false,"created_time":"2013-10-02T14:00:13+0000","like_count":1,"user_likes":false},"731446366872043":{"id":"731446366872043","from":{"id":"100000198892785","name":"Mạnh Phi"},"message":"I see :v","can_remove":false,"created_time":"2013-10-02T14:01:48+0000","like_count":0,"user_likes":false},"731446763538670":{"id":"731446763538670","from":{"id":"100001260645727","name":"Ngo Duy Son"},"message":"http://www.haivl.com/photo/1270378","can_remove":false,"created_time":"2013-10-02T14:02:53+0000","like_count":1,"user_likes":false},"731456116871068":{"id":"731456116871068","from":{"id":"100000198892785","name":"Mạnh Phi"},"message":"Và hồi học cấp 1, năm lớp 3, lớp tớ đã không được giấy khen vì hội phụ huynh phản đối đóng quỹ khuyến học, hay quỹ ABC XYZ gì đó :v \nChỉ có 2 3 lớp đóng và chúng nó được giấy khen :))\nVà cũng hồi đó,bọn tớ thi học sinh giỏi, đạt giải và nhà trường trừ 10k của mỗi đứa bảo là tiền làm giấy khen ép plat-tíc :3\nVà vẫn có nhà trường bây giờ vẫn rất thích cái kiểu làm ăn chộp giật của dân chợ búa :3 :3","can_remove":false,"created_time":"2013-10-02T14:26:16+0000","like_count":2,"user_likes":false},"731522703531076":{"id":"731522703531076","from":{"id":"100002676859353","name":"Chu Quang Viên"},"message":"Cỏ Dại: em có thể bớt nguy hiểm được ko ?","message_tags":[{"id":"100005389234209","name":"Cỏ Dại","type":"user","offset":0,"length":6}],"can_remove":false,"created_time":"2013-10-02T17:13:01+0000","like_count":0,"user_likes":false},"731532600196753":{"id":"731532600196753","from":{"id":"100000022163023","name":"Kafe Ore"},"message":"Với thực trạng này ... Có lẽ các bậc phụ huynh phải nghĩ đến việc đưa con đi du học Nhật từ Mầm non.","can_remove":false,"created_time":"2013-10-02T17:32:48+0000","like_count":1,"user_likes":false},"731638013519545":{"id":"731638013519545","from":{"id":"100001458099624","name":"Kham Pha"},"message":"hậu quả của giáo dục sai lầm nặng nề lắm, vài chục thế hệ cũng ko gánh hết đc.","can_remove":false,"created_time":"2013-10-02T22:11:28+0000","like_count":0,"user_likes":false}},"paging":{"cursors":{"after":"NzMxNDQ0ODgwMjA1NTI1","before":"NzMxNDQ0ODgwMjA1NTI1"},"next":"https://graph.facebook.com/229244010425617_731444103538936/comments?limit=1&summary=1&after=NzMxNDQ0ODgwMjA1NTI1"},"summary":{"order":"chronological","total_count":10}}}