{"id":"229244010425617_731550710194942","type":"status","from":{"id":"100005801442456","name":"An Nguyen"},"message":"BẠN THÂN!!\n\nDù bạn là ai, dù bạn Nam hay nữ hay thậm chí dù bạn biết tiếng hay  ko  thì chỉ cần hiểu đc \" 友達だから\"( bởi vì chúng ta là bạn) thì Bộ phim này sẽ lấy nước mắt của bạn..lý do thì đơn giản vô cùng,bởi trong mỗi chúng ta luôn tồn tại 1 thứ là tình bạn với ai đó,cho nên dù ko viết thì lời thì cảm nhận vẫn sẽ cho bạn biết điều đó tồn tại... \n\nMình nhận thấy thế này,có 3 thứ hữa hình và vô hình quan trọng nhất ở csong này.\nVô hình: danh vọng, thời gian, sức khỏe .Hữu hình: tình phụ mẫu,tình yêu và tình bằng hữu.Thiếu 1 trong các điều nay csong chúng ta sẽ còn sẽ mất đi 1 phần ý nghĩa cuộc sống,các bạn có thấy thế ko?\n Hãy gửi đến chính mình và tri kỷ của bạn. Và hãy biết trân trọng vì chúng ta đến với nhau là do duyên phận và tôi hạnh phúc vì có bạn trong cuộc đời này...\n\nBộ phim DEAR FRIEND \nSản xuất : 2007\nBộ phim làm dựa trên tiểu thuyết dear friend rina & maki thuộc best seller của nhà văn yoshi \nLink phim:\nhttp://touch.dailymotion.com/video/x4w93e_dear-friends-part1_shortfilms\n\nP/s: bạn zai nhớ xem nhé,nữ diễn viên nhìn đẹp nhỏ dãi lắm ạ m(_ _)m","created_time":"2013-10-02T18:12:01+0000","updated_time":"2013-10-04T06:51:00+0000","likes":{"data":{"100000063030943":{"id":"100000063030943","name":"Bao Yen"},"100006329763157":{"id":"100006329763157","name":"Một Mình Không Sao"},"100003321786144":{"id":"100003321786144","name":"Baloon Bambootatoo"},"100000273338245":{"id":"100000273338245","name":"Thanh Geni"},"100003907081547":{"id":"100003907081547","name":"Van Ta"},"100003011417151":{"id":"100003011417151","name":"Hue Kim"},"100001754136107":{"id":"100001754136107","name":"Nguyễn Tuấn Vũ"},"100003819875708":{"id":"100003819875708","name":"Piglazy Pham"},"566093622":{"id":"566093622","name":"Loby Huong"},"100003702043787":{"id":"100003702043787","name":"Hằng Hanu"},"100001416272263":{"id":"100001416272263","name":"Mai PB"},"100002754998000":{"id":"100002754998000","name":"Nguyen Duc"},"100000101180940":{"id":"100000101180940","name":"Trà Chanh"},"100002782131785":{"id":"100002782131785","name":"Hasegawa Kiyotake"},"100002446120607":{"id":"100002446120607","name":"Hoanhuy Luu"},"100001458099624":{"id":"100001458099624","name":"Kham Pha"},"100005415788693":{"id":"100005415788693","name":"Hai NT"},"100006794885669":{"id":"100006794885669","name":"Thương Nhau Để Đó"},"1850147953":{"id":"1850147953","name":"Rùa Con"},"1146680551":{"id":"1146680551","name":"優しい なぁ"},"100003847583376":{"id":"100003847583376","name":"さよなら 大好き な人"},"100000045271667":{"id":"100000045271667","name":"Nam Thai Nguyen"}},"paging":{"cursors":{"after":"MTAwMDAwMDYzMDMwOTQz","before":"MTAwMDAwMDYzMDMwOTQz"},"next":"https://graph.facebook.com/229244010425617_731550710194942/likes?limit=1&summary=1&after=MTAwMDAwMDYzMDMwOTQz"},"summary":{"total_count":22}},"comments":{"data":{"731740766842603":{"id":"731740766842603","from":{"id":"100001416272263","name":"Mai PB"},"message":"Dear Friends ディア フレンズ\n\nこの商品について\nAmazonレビュー\n   2007年2月に公開された、北川景子・本仮屋ユイカ主演のリアルな友情物語。原作は、女子中高生に圧倒的な支持を受けるカリスマ作家・Yoshiによる同名のベストセラー小説。現代を生きる少女たちの体験談を盛り込み、ライヴ感あふれる作品に定評のある彼が描いたのは、見せかけでない「本当の友情とはなにか？」を問うドラマ。端正な顔立ちにスラリとした肢体。人も羨むルックスをもち、自由奔放に生きるリナ（北川景子）。控えめだが奥深い優しさを湛え、笑顔の可憐なマキ（本仮屋ユイカ）。対照的な2人の少女が過酷な運命のなかで触れ合い、気づいてゆく大切なものの正体。それこそが、うわべだけの関係では決してつかめない“友情”。やや過激と思われる演出さえもドラマティックに作用しており、随所で熱い涙を誘う。（みき~る）\n\n内容（「キネマ旬報社」データベースより）\n女子中高生にカリスマ的な人気を誇る作家・Yoshiの同名小説を北川景子、本仮屋ユイカ共演で映画化。自由気ままに生きる女子高生・リナと、そんなリナを慕い、自暴自棄になっていく彼女を励ます同級生・マキとの痛々しいまでのリアルな友情を描く。\n\n内容（「Oricon」データベースより）\nYoshi原作、綺麗ごとばかりではない今時の友達関係を赤裸々に描いたもうひとつの“DeepLove”。心と心がぶつかり合う、痛々しいまでの女の子同士の友情をリアルに映し出した作品。","can_remove":false,"created_time":"2013-10-03T03:33:22+0000","like_count":1,"user_likes":false},"731851670164846":{"id":"731851670164846","from":{"id":"100001754136107","name":"Nguyễn Tuấn Vũ"},"message":"Mình chưa xem nhưng đọc đến câu kết thì hứng xem rồi đấy","can_remove":false,"created_time":"2013-10-03T10:35:28+0000","like_count":0,"user_likes":false},"731866053496741":{"id":"731866053496741","from":{"id":"100005801442456","name":"An Nguyen"},"message":"Bởi thế có nói nội dung đâu@.@ tại anh Mai đó chứ=))","can_remove":false,"created_time":"2013-10-03T11:09:41+0000","like_count":0,"user_likes":false},"731875326829147":{"id":"731875326829147","from":{"id":"100001416272263","name":"Mai PB"},"message":"Câu kết của cậu đó, An Nguyen :-D","message_tags":[{"id":"100005801442456","name":"An Nguyen","type":"user","offset":20,"length":9}],"can_remove":false,"created_time":"2013-10-03T11:31:07+0000","like_count":0,"user_likes":false},"731877340162279":{"id":"731877340162279","from":{"id":"100001754136107","name":"Nguyễn Tuấn Vũ"},"message":"E xem đc 20 phút rôi :D. Công nhận xinh thật. :)","can_remove":false,"created_time":"2013-10-03T11:38:40+0000","like_count":0,"user_likes":false},"731890993494247":{"id":"731890993494247","from":{"id":"100005801442456","name":"An Nguyen"},"message":"Coi cứ tưởng nó les chứ..mà bực nhất lúc cuối...nói ú a ú ơ' chả hiểu máu zề!!","can_remove":false,"created_time":"2013-10-03T12:19:59+0000","like_count":0,"user_likes":false},"731892706827409":{"id":"731892706827409","from":{"id":"100001754136107","name":"Nguyễn Tuấn Vũ"},"message":":))) ở dưới đầu tiên e tưởng là tiếng anh ( dịch ) nhưng hoá ra là nó dịch ra tiếng pháp :))","can_remove":false,"created_time":"2013-10-03T12:25:12+0000","like_count":0,"user_likes":false},"732020536814626":{"id":"732020536814626","from":{"id":"100001458099624","name":"Kham Pha"},"message":"Bé gái: お姉ちゃんって可愛いね。お姉ちゃんって胸も大きいいい。\nかなえ： 高校生ぐらいだったら出てくるよ。\nBé gái: お姉ちゃんは高校生なの？いいなあ、私もはやく大きくなりたいなぁ\n\nXem đến đoạn này cười chết ngất :))","can_remove":false,"created_time":"2013-10-03T16:56:33+0000","like_count":0,"user_likes":false},"732210276795652":{"id":"732210276795652","from":{"id":"100005801442456","name":"An Nguyen"},"message":"=))","can_remove":false,"created_time":"2013-10-04T00:29:35+0000","like_count":0,"user_likes":false},"732330023450344":{"id":"732330023450344","from":{"id":"100001609833418","name":"Tsunami Hime"},"message":"hờ, sao lúc nào các bác giai cũng chỉ chú ý đến ngực bự nhỉ?","can_remove":false,"created_time":"2013-10-04T06:51:00+0000","like_count":0,"user_likes":false}},"paging":{"cursors":{"after":"NzMxNzQwNzY2ODQyNjAz","before":"NzMxNzQwNzY2ODQyNjAz"},"next":"https://graph.facebook.com/229244010425617_731550710194942/comments?limit=1&summary=1&after=NzMxNzQwNzY2ODQyNjAz"},"summary":{"order":"chronological","total_count":10}}}