{"id":"229244010425617_731849203498426","type":"status","from":{"id":"100000064686295","name":"Huy Roli"},"message":"Các bạn cho mình hỏi 2 câu sau câu nào mới đúng\n1. どうしてもうちへ帰って欲しいです\n2.どうしてもうちへ帰ってきて欲しいです\nNghĩa: dù thế nào tôi cũng muốn về nhà (vào dịp năm mới)","created_time":"2013-10-03T10:29:48+0000","updated_time":"2013-10-03T15:11:54+0000","likes":{"data":{"100001458099624":{"id":"100001458099624","name":"Kham Pha"},"100003011417151":{"id":"100003011417151","name":"Hue Kim"},"100003165554056":{"id":"100003165554056","name":"Sâu Bét"},"100006208292318":{"id":"100006208292318","name":"Sống Đúng Nghĩa"}},"paging":{"cursors":{"after":"MTAwMDAxNDU4MDk5NjI0","before":"MTAwMDAxNDU4MDk5NjI0"},"next":"https://graph.facebook.com/229244010425617_731849203498426/likes?limit=1&summary=1&after=MTAwMDAxNDU4MDk5NjI0"},"summary":{"total_count":4}},"comments":{"data":{"731850226831657":{"id":"731850226831657","from":{"id":"100002189990373","name":"Long Pham Ngoc"},"message":"cái V thể te+ thêm kimasu hình như là đi làm gì đó,xong quay trở lại\nem nghĩ là cả 2 câu đều ok","can_remove":false,"created_time":"2013-10-03T10:32:10+0000","like_count":1,"user_likes":false},"731851536831526":{"id":"731851536831526","from":{"id":"100000064686295","name":"Huy Roli"},"message":"Uh, bạn nói cũng có lí, cảm ơn bạn nhiều nhed","can_remove":false,"created_time":"2013-10-03T10:35:14+0000","like_count":0,"user_likes":false},"731854650164548":{"id":"731854650164548","from":{"id":"100000064686295","name":"Huy Roli"},"message":"Bạn có thể dịch hộ câu\n親として黙っているわけにはいかない。","can_remove":false,"created_time":"2013-10-03T10:44:48+0000","like_count":0,"user_likes":false},"731854696831210":{"id":"731854696831210","from":{"id":"100000064686295","name":"Huy Roli"},"message":"Được ko ạ","can_remove":false,"created_time":"2013-10-03T10:45:00+0000","like_count":0,"user_likes":false},"731855203497826":{"id":"731855203497826","from":{"id":"100001416272263","name":"Mai PB"},"message":"Chọn câu đúng với nghĩa tiếng Việt á? 2 câu đó và câu tiếng Việt mỗi câu đều có nghĩa khác nhau cả.","can_remove":false,"created_time":"2013-10-03T10:46:24+0000","like_count":0,"user_likes":false},"731855476831132":{"id":"731855476831132","from":{"id":"100000064686295","name":"Huy Roli"},"message":"Là sao ạ anh?","can_remove":false,"created_time":"2013-10-03T10:47:17+0000","like_count":0,"user_likes":false},"731855533497793":{"id":"731855533497793","from":{"id":"100001580479641","name":"Hà Xuân Thủy"},"message":"Vて 欲しい ko dùng để chỉ hành động mong muốn của bản thân, nghĩa tiếng việt bạn dịch chưa chính xác:d","can_remove":false,"created_time":"2013-10-03T10:47:30+0000","like_count":0,"user_likes":false},"731855796831100":{"id":"731855796831100","from":{"id":"100000064686295","name":"Huy Roli"},"message":"Vậy nếu nói về người khác thì câu nào đúng","can_remove":false,"created_time":"2013-10-03T10:48:25+0000","like_count":0,"user_likes":false},"731856406831039":{"id":"731856406831039","from":{"id":"1657595398","name":"Hoàng Anh"},"message":"て欲しい dùng để thể hiện ý muốn ng khác làm gì . K dùng cho mong muốn làm j của bản thân người nói.vì vậy phải dùng 帰りたいです。","can_remove":false,"created_time":"2013-10-03T10:50:24+0000","like_count":1,"user_likes":false},"731860903497256":{"id":"731860903497256","from":{"id":"100000064686295","name":"Huy Roli"},"message":"Trong sách ko nói chữ tôi, mình viết vào nên đó là sai của mình, vấn đề mình muốn biết nằm ở kaette hay kaette kite các bạn à, có giống nhau ko?","can_remove":false,"created_time":"2013-10-03T10:56:24+0000","like_count":0,"user_likes":false},"731879890162024":{"id":"731879890162024","from":{"id":"100001416272263","name":"Mai PB"},"message":"Huy Roli tự học à, có sgk và giáo viên khg?","message_tags":[{"id":"100000064686295","name":"Huy Roli","type":"user","offset":0,"length":8}],"can_remove":false,"created_time":"2013-10-03T11:47:48+0000","like_count":0,"user_likes":false},"731881480161865":{"id":"731881480161865","from":{"id":"1657595398","name":"Hoàng Anh"},"message":"Vầy cho đơn giản : không Te : muốn *** quay về \nCó Te : muốn *** về đến","can_remove":false,"created_time":"2013-10-03T11:53:32+0000","like_count":0,"user_likes":false},"731884830161530":{"id":"731884830161530","from":{"id":"100002189990373","name":"Long Pham Ngoc"},"message":"te hoshii = với te kureru thì phải :D\nlâu em ko học lại,bác thông cảm :)","can_remove":false,"created_time":"2013-10-03T12:02:39+0000","like_count":0,"user_likes":false},"731896240160389":{"id":"731896240160389","from":{"id":"100001458099624","name":"Kham Pha"},"message":"vて欲しい＝vてください\nCâu 1 là kiểu như mẹ nói với con khi con vẫn đang ở Nhật \" dù thế nào mẹ cũng muốn con về\".\nCâu 2 là giống như mẹ nói với con khi con đang ở VN và chuẩn bị đi Nhật \"dù thế nào mẹ cũng muốn con có ngày trở về\"","can_remove":false,"created_time":"2013-10-03T12:28:43+0000","like_count":3,"user_likes":false},"731938003489546":{"id":"731938003489546","from":{"id":"100000064686295","name":"Huy Roli"},"message":"Mình tự học = điện thoại bạn ạ, chân thành cảm ơn các anh em nhé :)","can_remove":false,"created_time":"2013-10-03T13:56:06+0000","like_count":0,"user_likes":false},"731938460156167":{"id":"731938460156167","from":{"id":"100000064686295","name":"Huy Roli"},"message":"À nhầm, em tự học anh ạ","can_remove":false,"created_time":"2013-10-03T13:56:39+0000","like_count":0,"user_likes":false},"731940993489247":{"id":"731940993489247","from":{"id":"100001416272263","name":"Mai PB"},"message":"Tự học à? Thế thì ít nhất cũng nên học theo sách giáo khoa. Cái gì cũng vậy, kể cả chữ Hán, cứ phải từ thấp đến cao. Có ai xây nhà từ cửa sổ bao giờ, phải không?","can_remove":false,"created_time":"2013-10-03T13:59:53+0000","like_count":2,"user_likes":false},"731944020155611":{"id":"731944020155611","from":{"id":"100000064686295","name":"Huy Roli"},"message":"Em đang cố gắng anh à, em hết 50 bài mina rồi, đang ôn sang n3, chữ hán e cũng đang học","can_remove":false,"created_time":"2013-10-03T14:06:27+0000","like_count":3,"user_likes":false},"731975800152433":{"id":"731975800152433","from":{"id":"100003776781273","name":"Dou Ckt"},"message":"Bạn giỏi thật ,","can_remove":false,"created_time":"2013-10-03T15:11:54+0000","like_count":0,"user_likes":false}},"paging":{"cursors":{"after":"NzMxODUwMjI2ODMxNjU3","before":"NzMxODUwMjI2ODMxNjU3"},"next":"https://graph.facebook.com/229244010425617_731849203498426/comments?limit=1&summary=1&after=NzMxODUwMjI2ODMxNjU3"},"summary":{"order":"chronological","total_count":19}}}