{"id":"229244010425617_731902766826403","type":"link","picture":"https://fbexternal-a.akamaihd.net/safe_image.php?d=AQAW8RGWEqBfZU_O&w=154&h=154&url=http%3A%2F%2Fi1150.photobucket.com%2Falbums%2Fo617%2Fredsvn%2F2013%2F10%2FJapan-suicide-04-Copy.jpg%7Eoriginal","link":"http://forum.vietdesigner.net/threads/phong-su-anh-cuoc-song-buon-tham-cua-nguoi-lao-dong-nhat-ban.36973/","from":{"id":"100005446931997","name":"Sakurasou San"},"message":"http://forum.vietdesigner.net/threads/phong-su-anh-cuoc-song-buon-tham-cua-nguoi-lao-dong-nhat-ban.36973/...Bài viết Chính Xác 100%","created_time":"2013-10-03T12:43:40+0000","updated_time":"2013-10-04T04:20:30+0000","likes":{"data":{"100006530739713":{"id":"100006530739713","name":"Phan Châu Trinh"},"100005389234209":{"id":"100005389234209","name":"Cỏ Dại"},"100006767705219":{"id":"100006767705219","name":"Kim Liên"},"100003005597243":{"id":"100003005597243","name":"Zany Royal"},"100000273338245":{"id":"100000273338245","name":"Thanh Geni"},"100001723862714":{"id":"100001723862714","name":"Bo Bien Vang"},"100003907081547":{"id":"100003907081547","name":"Van Ta"},"100001744546054":{"id":"100001744546054","name":"Quân Dương"},"100005262754682":{"id":"100005262754682","name":"Souji Rippukan"},"100001260645727":{"id":"100001260645727","name":"Ngo Duy Son"},"100004716640495":{"id":"100004716640495","name":"Thúy An Dương"},"100003055422184":{"id":"100003055422184","name":"Kaze Le"},"1657595398":{"id":"1657595398","name":"Hoàng Anh"},"100004290459709":{"id":"100004290459709","name":"Akira Hide"},"566093622":{"id":"566093622","name":"Loby Huong"},"100003923401884":{"id":"100003923401884","name":"Vũ Ngọc Bích"},"100000110601676":{"id":"100000110601676","name":"장미"}},"paging":{"cursors":{"after":"MTAwMDA2NTMwNzM5NzEz","before":"MTAwMDA2NTMwNzM5NzEz"},"next":"https://graph.facebook.com/229244010425617_731902766826403/likes?limit=1&summary=1&after=MTAwMDA2NTMwNzM5NzEz"},"summary":{"total_count":17}},"comments":{"data":{"731904163492930":{"id":"731904163492930","from":{"id":"100000110601676","name":"장미"},"message":"Dần dần chính VN cũng phải đối mặt với vấn đề này, quy luật của sự phát triển thôi","can_remove":false,"created_time":"2013-10-03T12:48:16+0000","like_count":0,"user_likes":false},"731906286826051":{"id":"731906286826051","from":{"id":"100005446931997","name":"Sakurasou San"},"message":"Đúng đó..ỡ Nhật thỳ Ganh Đua nhau Đến Phát Khóc..Như đổi lại đc 1 Cuộc Sống Đẹp và Độc Lập và Tiện nghi Hơn ỡ VN...Ỡ Nhật thỳ chỉ No muỗi ko Có tiền và Công việc Phù hợp Thôi nhỉ...","can_remove":false,"created_time":"2013-10-03T12:53:38+0000","like_count":0,"user_likes":false},"731914340158579":{"id":"731914340158579","from":{"id":"100001416272263","name":"Mai PB"},"message":"Đây là một góc của xã hội Nhật. Những ai đang nghĩ đến việc sống lâu dài ở Nhật hãy chú ý: nếu không có trình độ, chỉ đi làm thuê, chỉ làm những việc không dùng đầu óc, chỉ biết tiếng Nhật tàm tạm, không biết tiếng Anh... thì nguy cơ cao là sẽ vất vả như trên bài báo.\n\nVà ngược lại thì kết quả cũng ngược lại.","can_remove":false,"created_time":"2013-10-03T13:08:53+0000","like_count":8,"user_likes":false},"731917396824940":{"id":"731917396824940","from":{"id":"100005446931997","name":"Sakurasou San"},"message":"Chắc Chú Sống ỡ Nhật lâu rùi nhỉ ....Cháu sang đó 1 Thời Gian mà Thích Nước Nhật Lắm...Cũng Bị Ganh đua...H chỉ Muốn 1 Công việc Đơn giản Thôi...Nói Chung là Khắc nghiệt..Khó Sống Nếu ko Thục Lực và Quen biết:'(","can_remove":false,"created_time":"2013-10-03T13:17:48+0000","like_count":0,"user_likes":false},"731986386818041":{"id":"731986386818041","from":{"id":"100004028173069","name":"Jin Ngốc"},"message":"hix, tưởng đâu chỉ có VN thì mới nhờ quen biết mới được, thì ra Nhật cũng chú trọng quen biết à @@","can_remove":false,"created_time":"2013-10-03T15:33:22+0000","like_count":0,"user_likes":false},"732047753478571":{"id":"732047753478571","from":{"id":"1146680551","name":"優しい なぁ"},"message":"khac chu ban","can_remove":false,"created_time":"2013-10-03T18:10:58+0000","like_count":0,"user_likes":false},"732294800120533":{"id":"732294800120533","from":{"id":"100001416272263","name":"Mai PB"},"message":"Quen biết ở Nhật mang nghĩa khác bạn nhé, mà cũng không có phổ biến đâu, mấy bạn đừng hiểu nhầm. Người được giới thiệu và người giới thiệu chịu áp lực về chất lượng làm việc của người được giới thiệu. Ngược lại thì sự giới thiệu mang một ý nghĩa đảm bảo chất lượng nên dễ được để mắt đến hơn thôi, không phải là sẽ được ưu tiên bất công bằng đâu.","can_remove":false,"created_time":"2013-10-04T04:19:05+0000","like_count":2,"user_likes":false},"732295373453809":{"id":"732295373453809","from":{"id":"100004028173069","name":"Jin Ngốc"},"message":"em hiểu rồi ạ, cám ơn chú Mai PB ^^","message_tags":[{"id":"100001416272263","name":"Mai PB","type":"user","offset":26,"length":6}],"can_remove":false,"created_time":"2013-10-04T04:20:30+0000","like_count":0,"user_likes":false}},"paging":{"cursors":{"after":"NzMxOTA0MTYzNDkyOTMw","before":"NzMxOTA0MTYzNDkyOTMw"},"next":"https://graph.facebook.com/229244010425617_731902766826403/comments?limit=1&summary=1&after=NzMxOTA0MTYzNDkyOTMw"},"summary":{"order":"chronological","total_count":8}}}