{"id":"229244010425617_731958660154147","type":"video","picture":"https://fbexternal-a.akamaihd.net/safe_image.php?d=AQDghdSR9I4YFLy_&w=130&h=130&url=http%3A%2F%2Fi1.ytimg.com%2Fvi%2FA5ARLPL9UBw%2Fmaxresdefault.jpg%3Ffeature%3Dog","link":"http://www.youtube.com/watch?v=A5ARLPL9UBw","source":"http://www.youtube.com/v/A5ARLPL9UBw?version=3&autohide=1&autoplay=1","from":{"id":"100001416272263","name":"Mai PB"},"message":"Nhiều người thích Nhật vì anime, manga, jpop.. Nhưng chắc không nhiều người biết Nhật có nhóm nhạc rock tài năng và quyến rũ nhất châu Á, X Japan? X Japan có fan cuồng nhiệt trên toàn thế giới, thậm chí được coi như Queen của châu Á. Việt Nam cũng có những nhóm fan của X nhưng ít thôi. X đặc biệt ở chỗ vừa rock vừa ballad rock mà phần lớn đều hay. Dù có thể không thích rock nhưng thế nào chẳng có lúc bạn buồn chán, mệt mỏi, muốn hét lên? Lúc đó hãy nghe X.\n\nCác mem thử nghe bản rock ballad Forever Love nổi tiếng của X. Đặc biệt là video clip này được trình diễn trong \"The last live\" khi mà X tan rã năm 1997, rất cảm động (nhưng mọi người yên tâm, nhóm đã tái hợp rồi, tuy có 1 thành viên quan trọng là HIDE đã tự sát năm sau đó). Nhiều người chẳng hiểu gì tiếng Nhật, cũng chẳng mê rock lắm, cũng đã cảm động và khóc vì video clip này.\n\nhttp://www.youtube.com/watch?v=A5ARLPL9UBw","created_time":"2013-10-03T14:35:25+0000","updated_time":"2013-10-05T00:27:03+0000","likes":{"data":{"100001365545442":{"id":"100001365545442","name":"Nguyễn Nam"},"100000328742646":{"id":"100000328742646","name":"Trần Giáp"},"100005801442456":{"id":"100005801442456","name":"An Nguyen"},"100003806594580":{"id":"100003806594580","name":"Daothuy Linh"},"100004123327271":{"id":"100004123327271","name":"Nguyễn Phương"},"100003803384040":{"id":"100003803384040","name":"Ngọc Phan"},"100001442509723":{"id":"100001442509723","name":"Nguyễn Mai Anh"},"1828906841":{"id":"1828906841","name":"Trọng Nghĩa Bùi"},"100004251845458":{"id":"100004251845458","name":"Hoàng Anh"},"100004253979918":{"id":"100004253979918","name":"Louis Hoàng Văn Thái"},"100000152947177":{"id":"100000152947177","name":"Ha Nguyen"},"100003005597243":{"id":"100003005597243","name":"Zany Royal"},"100004889430124":{"id":"100004889430124","name":"Quiet Man"},"100004556712097":{"id":"100004556712097","name":"Chishi Jung"},"100000073848158":{"id":"100000073848158","name":"Hoàng Đắc"},"100001723862714":{"id":"100001723862714","name":"Bo Bien Vang"},"100003761520870":{"id":"100003761520870","name":"Strange Moon"},"1114300791":{"id":"1114300791","name":"Tra Mi"},"100001590881469":{"id":"100001590881469","name":"Tuan Dinh"},"100000427448138":{"id":"100000427448138","name":"Anh Tuan Pham"},"100000280776405":{"id":"100000280776405","name":"Viet Nguyen Thanh"},"100004923553810":{"id":"100004923553810","name":"Xuan KY Nguyen"},"100000237783607":{"id":"100000237783607","name":"Vũ"}},"paging":{"cursors":{"after":"MTAwMDAxMzY1NTQ1NDQy","before":"MTAwMDAxMzY1NTQ1NDQy"},"next":"https://graph.facebook.com/229244010425617_731958660154147/likes?limit=1&summary=1&after=MTAwMDAxMzY1NTQ1NDQy"},"summary":{"total_count":24}},"comments":{"data":{"731962573487089":{"id":"731962573487089","from":{"id":"100000237783607","name":"Vũ"},"message":"Rất thích nghe bài này với bài \"Tears\" nữa.","can_remove":false,"created_time":"2013-10-03T14:43:51+0000","like_count":2,"user_likes":false},"731971910152822":{"id":"731971910152822","from":{"id":"1114300791","name":"Tra Mi"},"message":"x-japan thi dinh cao r anh oi 👌","can_remove":false,"created_time":"2013-10-03T15:04:16+0000","like_count":1,"user_likes":false},"732125800137433":{"id":"732125800137433","from":{"id":"1828906841","name":"Trọng Nghĩa Bùi"},"message":"mê nhất Art of Life với Endless Rain của nhóm này :)","can_remove":false,"created_time":"2013-10-03T20:35:16+0000","like_count":1,"user_likes":false},"732483580101655":{"id":"732483580101655","from":{"id":"100004923553810","name":"Xuan KY Nguyen"},"message":"a biet ly do sao ma tu sat k a Mai PB","message_tags":[{"id":"100001416272263","name":"Mai PB","type":"user","offset":31,"length":6}],"can_remove":false,"created_time":"2013-10-04T13:06:28+0000","like_count":0,"user_likes":false},"732488543434492":{"id":"732488543434492","from":{"id":"100005801442456","name":"An Nguyen"},"message":"Ứ coi YouTube đc nên coi chỗ khác .hay ghê@.@","can_remove":false,"created_time":"2013-10-04T13:14:50+0000","like_count":1,"user_likes":false},"732497690100244":{"id":"732497690100244","from":{"id":"1828906841","name":"Trọng Nghĩa Bùi"},"message":"Xuan KY Nguyen theo Wikipedia thì có thể HIDE chết không phải do tự sát mà vì tai nạn: lúc đó HIDE cột 1 chiếc khăn mặt vào nắm đấm cửa để giảm cơn đau ở lưng và vai, tuy nhiên trong lúc say không kiểm soát được nên trở thành bị siết cổ. \nMình nghiêng về giả thuyết này, mặc dù vẫn còn nhiều tranh cãi\nhttp://en.wikipedia.org/wiki/Hide_(musician)\nhttp://vi.wikipedia.org/wiki/Hide_(nh%E1%BA%A1c_s%C4%A9)\nhttp://ja.wikipedia.org/wiki/Hide#hide.E3.81.AE.E6.AD.BB","message_tags":[{"id":"100004923553810","name":"Xuan KY Nguyen","type":"user","offset":0,"length":14}],"can_remove":false,"created_time":"2013-10-04T13:37:01+0000","like_count":0,"user_likes":false},"732499223433424":{"id":"732499223433424","from":{"id":"100004923553810","name":"Xuan KY Nguyen"},"message":"cam on Bùi Trọng Nghĩa nhieu nha:)","message_tags":[{"id":"1828906841","name":"Bùi Trọng Nghĩa","type":"user","offset":7,"length":15}],"can_remove":false,"created_time":"2013-10-04T13:41:56+0000","like_count":0,"user_likes":false},"732505713432775":{"id":"732505713432775","from":{"id":"100001416272263","name":"Mai PB"},"message":"Không nghe nhạc mà lại quan tâm đến chuyện HIDE à? :-) Lễ tang của HIDE có đến 5 vạn người viếng (đông nhất kể từ 1945), dài vài cây số, một loạt fan tự tử theo. https://www.youtube.com/watch?feature=player_embedded&v=P7ufrQEJzp0","can_remove":false,"created_time":"2013-10-04T13:57:55+0000","like_count":0,"user_likes":false},"732511376765542":{"id":"732511376765542","from":{"id":"100004923553810","name":"Xuan KY Nguyen"},"message":"hihi da e co nge rui ,tai k biet chet vi ly do gi nen moi hoi ,dag tiec that","can_remove":false,"created_time":"2013-10-04T14:09:14+0000","like_count":0,"user_likes":false},"732800210069992":{"id":"732800210069992","from":{"id":"100000687662713","name":"Vu Thi Man"},"message":"Ghe the, dung la rat dong fan","can_remove":false,"created_time":"2013-10-05T00:27:03+0000","like_count":0,"user_likes":false}},"paging":{"cursors":{"after":"NzMxOTYyNTczNDg3MDg5","before":"NzMxOTYyNTczNDg3MDg5"},"next":"https://graph.facebook.com/229244010425617_731958660154147/comments?limit=1&summary=1&after=NzMxOTYyNTczNDg3MDg5"},"summary":{"order":"chronological","total_count":10}}}