{"id":"229244010425617_732211510128862","type":"status","from":{"id":"100006725439301","name":"Không Phải Em"},"message":"mọi người ơi cho em hỏi xíu được không ạ ... :)\nem đang định đi du học và chủ nhật này em sẽ lên hà nội để dự hội thảo 2 trường Sendai English Center và Sapporo language center \nmọi người có ai bít thông tin về 2 trường này và 2 khu này thì chia sẻ cho em bít vs nhé , không bít 2 vùng này có nhìu việc làm ko nữa ..\nthanks mọi người trk nhé :)","created_time":"2013-10-04T00:33:01+0000","updated_time":"2013-10-04T01:46:49+0000","likes":{"data":{"100001458099624":{"id":"100001458099624","name":"Kham Pha"},"100001731744647":{"id":"100001731744647","name":"Niềm Vui"}},"paging":{"cursors":{"after":"MTAwMDAxNDU4MDk5NjI0","before":"MTAwMDAxNDU4MDk5NjI0"},"next":"https://graph.facebook.com/229244010425617_732211510128862/likes?limit=1&summary=1&after=MTAwMDAxNDU4MDk5NjI0"},"summary":{"total_count":2}},"comments":{"data":{"732226590127354":{"id":"732226590127354","from":{"id":"100001458099624","name":"Kham Pha"},"message":"Vùng sendai hỏi Tran Ngoc Anh :)","message_tags":[{"id":"100000328306722","name":"Tran Ngoc Anh","type":"user","offset":16,"length":13}],"can_remove":false,"created_time":"2013-10-04T01:20:23+0000","like_count":0,"user_likes":false},"732231773460169":{"id":"732231773460169","from":{"id":"100003500706942","name":"Bui Songtoan"},"message":"Lich hoi thao cu the nhu nao the b.minh cung len tim hieu xem sao","can_remove":false,"created_time":"2013-10-04T01:36:31+0000","like_count":0,"user_likes":false},"732236463459700":{"id":"732236463459700","from":{"id":"100006725439301","name":"Không Phải Em"},"message":"http://www.ss-nihongo.com/ day b nhe","can_remove":false,"created_time":"2013-10-04T01:46:06+0000","like_count":0,"user_likes":false},"732236660126347":{"id":"732236660126347","from":{"id":"100006725439301","name":"Không Phải Em"},"message":"Tran Ngoc Anh giup m vs b oi :)","message_tags":[{"id":"100000328306722","name":"Tran Ngoc Anh","type":"user","offset":0,"length":13}],"can_remove":false,"created_time":"2013-10-04T01:46:49+0000","like_count":0,"user_likes":false}},"paging":{"cursors":{"after":"NzMyMjI2NTkwMTI3MzU0","before":"NzMyMjI2NTkwMTI3MzU0"},"next":"https://graph.facebook.com/229244010425617_732211510128862/comments?limit=1&summary=1&after=NzMyMjI2NTkwMTI3MzU0"},"summary":{"order":"chronological","total_count":4}}}