{"id":"229244010425617_732461076770572","type":"status","from":{"id":"100001744546054","name":"Quân Dương"},"message":"Tháng 12 thi Năng lực tiếng Nhật rùi. Anh chị e nào có Tàu liệu ôn thi ko ? Chúng ta cùng chia sẻ kinh nghiệm ôn thi để đạt hiệu quả nha. Thanks mọi ngươi !","created_time":"2013-10-04T12:01:45+0000","updated_time":"2013-10-04T14:57:22+0000","likes":{"data":{"100004460525997":{"id":"100004460525997","name":"Hà Trang Nguyễn"},"100005620532978":{"id":"100005620532978","name":"Quynh Shi"},"100005703791922":{"id":"100005703791922","name":"Hoa Tiên Tử"},"1845000884":{"id":"1845000884","name":"Trieu Thi Kieu Oanh"},"100005938513791":{"id":"100005938513791","name":"Lặng Yêu"},"100001744546054":{"id":"100001744546054","name":"Quân Dương"}},"paging":{"cursors":{"after":"MTAwMDA0NDYwNTI1OTk3","before":"MTAwMDA0NDYwNTI1OTk3"},"next":"https://graph.facebook.com/229244010425617_732461076770572/likes?limit=1&summary=1&after=MTAwMDA0NDYwNTI1OTk3"},"summary":{"total_count":7}},"comments":{"data":{"732461626770517":{"id":"732461626770517","from":{"id":"100001416272263","name":"Mai PB"},"message":"Xem pin doc ở  trên cùng nhé.","can_remove":false,"created_time":"2013-10-04T12:03:11+0000","like_count":0,"user_likes":false},"732463993436947":{"id":"732463993436947","from":{"id":"100003877451650","name":"Huy Tự"},"message":"The ban sang thang may ma thang 12 thi vay","can_remove":false,"created_time":"2013-10-04T12:10:27+0000","like_count":0,"user_likes":false},"732490916767588":{"id":"732490916767588","from":{"id":"100001744546054","name":"Quân Dương"},"message":"Thang 4/2013 Tu ak","can_remove":false,"created_time":"2013-10-04T13:18:00+0000","like_count":0,"user_likes":false},"732491140100899":{"id":"732491140100899","from":{"id":"100001744546054","name":"Quân Dương"},"message":"Ko hieu Mai PB noi gi ?","can_remove":false,"created_time":"2013-10-04T13:18:25+0000","like_count":0,"user_likes":false},"732492213434125":{"id":"732492213434125","from":{"id":"100003877451650","name":"Huy Tự"},"message":"Ai day","can_remove":false,"created_time":"2013-10-04T13:19:44+0000","like_count":0,"user_likes":false},"732493403434006":{"id":"732493403434006","from":{"id":"100005620532978","name":"Quynh Shi"},"message":"8-)","can_remove":false,"created_time":"2013-10-04T13:22:55+0000","like_count":0,"user_likes":false},"732494153433931":{"id":"732494153433931","from":{"id":"100003877451650","name":"Huy Tự"},"message":"Sao minh ko nhan ra ban nhi","can_remove":false,"created_time":"2013-10-04T13:25:02+0000","like_count":0,"user_likes":false},"732558780094135":{"id":"732558780094135","from":{"id":"100001416272263","name":"Mai PB"},"message":"Quân Dương https://www.facebook.com/groups/CongdongVietNhat/doc/687429284607085/","message_tags":[{"id":"100001744546054","name":"Quân Dương","type":"user","offset":0,"length":10}],"can_remove":false,"created_time":"2013-10-04T14:57:22+0000","like_count":1,"user_likes":false}},"paging":{"cursors":{"after":"NzMyNDYxNjI2NzcwNTE3","before":"NzMyNDYxNjI2NzcwNTE3"},"next":"https://graph.facebook.com/229244010425617_732461076770572/comments?limit=1&summary=1&after=NzMyNDYxNjI2NzcwNTE3"},"summary":{"order":"chronological","total_count":8}}}