{"id":"229244010425617_732908480059165","type":"status","from":{"id":"100000064686295","name":"Huy Roli"},"created_time":"2013-10-05T06:55:45+0000","updated_time":"2013-10-23T11:09:35+0000","likes":{"data":{"100005973217688":{"id":"100005973217688","name":"Hermie Uyên"},"100006670753175":{"id":"100006670753175","name":"しん 愛 かずお"},"100002950812239":{"id":"100002950812239","name":"Vinhgia Bui"},"100003263272915":{"id":"100003263272915","name":"Teddy Smile"},"100004477292126":{"id":"100004477292126","name":"Kien Xinh Doan"}},"paging":{"cursors":{"after":"MTAwMDA1OTczMjE3Njg4","before":"MTAwMDA1OTczMjE3Njg4"},"next":"https://graph.facebook.com/229244010425617_732908480059165/likes?limit=1&summary=1&after=MTAwMDA1OTczMjE3Njg4"},"summary":{"total_count":6}},"comments":{"data":{"732911460058867":{"id":"732911460058867","from":{"id":"1146680551","name":"優しい なぁ"},"message":"Câu tiếng anh đã nói về ngữ cảnh rồi đó bạn","can_remove":false,"created_time":"2013-10-05T07:10:47+0000","like_count":0,"user_likes":false},"732911810058832":{"id":"732911810058832","from":{"id":"100000064686295","name":"Huy Roli"},"message":"Nói thế thì nói làm gì, đang ko hiểu từng cái nhỏ, cái mà mình khoanh vùng đỏ ấy","can_remove":false,"created_time":"2013-10-05T07:12:12+0000","like_count":0,"user_likes":false},"732912873392059":{"id":"732912873392059","from":{"id":"1146680551","name":"優しい なぁ"},"message":"Theo mình hiểu thì có thể bạn コール được chuyển về công ty mẹ (hoặc về nơi có liênquan đến cty cũ).thì phải dùng cấu trúc trên là để cảm ơn thôi.","can_remove":false,"created_time":"2013-10-05T07:16:54+0000","like_count":0,"user_likes":false},"732914376725242":{"id":"732914376725242","from":{"id":"100000064686295","name":"Huy Roli"},"message":"Thế cần gì vế sau của koto ni? Dừng ở naru là được rồi mà","can_remove":false,"created_time":"2013-10-05T07:22:23+0000","like_count":0,"user_likes":false},"732915756725104":{"id":"732915756725104","from":{"id":"1146680551","name":"優しい なぁ"},"message":"\"Từ đây chính thức phải nhờ vào sự giúp đỡ của anh/chị \" theo mình hiểu là thế","can_remove":false,"created_time":"2013-10-05T07:29:37+0000","like_count":0,"user_likes":false},"732973290052684":{"id":"732973290052684","from":{"id":"100001257093338","name":"Hanh Dang"},"message":"Câu khoanh vùng theo mình hiểu là thế này \"Nhân dịp này, tôi xin phép được giới thiệu. Tôi là Go-ru, là người đã nhận được sự giúp đỡ của mọi người ở đâ \"","can_remove":false,"created_time":"2013-10-05T11:04:58+0000","like_count":1,"user_likes":false},"733033550046658":{"id":"733033550046658","from":{"id":"100001416272263","name":"Mai PB"},"message":"Huy Roli còn cần trả lời không?","message_tags":[{"id":"100000064686295","name":"Huy Roli","type":"user","offset":0,"length":8}],"can_remove":false,"created_time":"2013-10-05T13:25:52+0000","like_count":0,"user_likes":false},"733040460045967":{"id":"733040460045967","from":{"id":"100001257093338","name":"Hanh Dang"},"message":"Chắc vẫn cần đấy bác Mai PB ạ.  Mong bác cho ý kiến!","message_tags":[{"id":"100001416272263","name":"Mai PB","type":"user","offset":21,"length":6}],"can_remove":false,"created_time":"2013-10-05T13:44:31+0000","like_count":0,"user_likes":false},"733052920044721":{"id":"733052920044721","from":{"id":"100001416272263","name":"Mai PB"},"message":"thực ra không có gì lắt léo, chẳng qua có 2 chữ なります nên khó hiểu thôi. Tiếng Việt cũng chẳng kém: \"ở chỗ đấy đấy\" \"cái này này\" :-D\n\nお世話（せわ）になる là câu chào trong công việc: chào người có thể sẽ là khách hàng (chứ chưa là khách hàng thật), chào đồng nghiệp mới (khi vào công ty, khi vào phòng ban mới), ý là \"rất hân hạnh được làm việc cùng\". Nói thêm là khi đã là khách hàng hoặc bạn hàng của nhau rồi thì phải nói là お世話になっております. Nói không biết bao nhiêu lần cho đủ. Thậm chí thư đi thư lại trong ngày, thư nào cũng viết. Chỉ trừ khi reply lại cùng 1 vẫn đề thì mới lược thôi.\n\n（すること）になりました: một việc gì đó đã được quyết định (bởi ai đó, bởi tập thể, không nhất thiết là bởi tôi). Đây là cách nói với sắc thái hoàn toàn ngược với （何）にしました : tôi sẽ làm (tôi đã quyết) cái gì đó.\n\nこの度（たび）: không có trong câu hỏi nhưng cũng nói luôn, đây là một cách mào đầu kiểu cách trong công việc, phát biểu. Nghĩa là lần này, từ bây giờ\n\nこの度、こちらにお世話になることになりました、コールと申します : Tôi là Cole, rất hân hạnh được làm việc cùng các anh chị từ hôm nay.","can_remove":false,"created_time":"2013-10-05T14:09:43+0000","like_count":8,"user_likes":false},"733058403377506":{"id":"733058403377506","from":{"id":"100000064686295","name":"Huy Roli"},"message":"Em chờ anh mãi., cảm ơn anh Mai PB nhiều ạ","can_remove":false,"created_time":"2013-10-05T14:23:42+0000","like_count":0,"user_likes":false},"733058576710822":{"id":"733058576710822","from":{"id":"100001257093338","name":"Hanh Dang"},"message":"Chỉ một câu ngắn gọn thế mà phải giải thích bấy nhiêu mới hiểu hết ý nghĩa của nó.èo..èo.. Biết khi nào mới có khả năng phân tích được như trên đây! Cảm ơn bác!","can_remove":false,"created_time":"2013-10-05T14:24:13+0000","like_count":1,"user_likes":false},"733061606710519":{"id":"733061606710519","from":{"id":"100001416272263","name":"Mai PB"},"message":"Huy Roli lần nào cũng phải chờ thôi, chỉ khi nào không có câu trả lời đúng thì mình mới trả lời. Thế mọi người mới nhớ được lâu và hiểu kỹ.\nHanh Dang chia 1 câu thành các thành phần nhỏ thì sẽ dễ hiểu được thôi.","message_tags":[{"id":"100000064686295","name":"Huy Roli","type":"user","offset":0,"length":8},{"id":"100001257093338","name":"Hanh Dang","type":"user","offset":140,"length":9}],"can_remove":false,"created_time":"2013-10-05T14:30:08+0000","like_count":5,"user_likes":false},"733063566710323":{"id":"733063566710323","from":{"id":"100001257093338","name":"Hanh Dang"},"message":"Chắc có lẽ kiến thức cơ bản của em chưa chắc nên việc chia nhỏ và phân tích là việc khá khó đối với em ạ. Nhưng em sẽ cố. Hy vọng sẽ được bác và mọi người giúp đỡ nhiều!","can_remove":false,"created_time":"2013-10-05T14:34:46+0000","like_count":1,"user_likes":false},"733070373376309":{"id":"733070373376309","from":{"id":"100000064686295","name":"Huy Roli"},"message":"Nhưng nếu dùng 1 câu tiếng việt cho cả câu thì anh thấy câu nào phù hợp nhất ạ?","can_remove":false,"created_time":"2013-10-05T14:52:04+0000","like_count":0,"user_likes":false},"733071673376179":{"id":"733071673376179","from":{"id":"100001416272263","name":"Mai PB"},"message":"Mình không hiểu ý, Huy Roli. Chỉ có 1 câu dịch đó thôi?","message_tags":[{"id":"100000064686295","name":"Huy Roli","type":"user","offset":19,"length":8}],"can_remove":false,"created_time":"2013-10-05T14:55:29+0000","like_count":0,"user_likes":false},"733072996709380":{"id":"733072996709380","from":{"id":"100000064686295","name":"Huy Roli"},"message":"Em xin lỗi, quên mất câu cuối trong comment của anh :))","can_remove":false,"created_time":"2013-10-05T14:59:13+0000","like_count":0,"user_likes":false},"744894852193861":{"id":"744894852193861","from":{"id":"100004251279517","name":"Việt Nam Nhật Bản"},"message":"anh cho em hỏi ごぞんじなんですか là gì aj","can_remove":false,"created_time":"2013-10-23T07:03:17+0000","like_count":0,"user_likes":false},"744909558859057":{"id":"744909558859057","from":{"id":"1146680551","name":"優しい なぁ"},"message":"Mina no nihon go bài 49","can_remove":false,"created_time":"2013-10-23T08:00:24+0000","like_count":1,"user_likes":false},"744914972191849":{"id":"744914972191849","from":{"id":"100000064686295","name":"Huy Roli"},"message":"Mina no nihon go bài 49 có ごぞんじ, nhưng câu hỏi này có thêm なんですか, cũng khó nhỉ","can_remove":false,"created_time":"2013-10-23T08:22:28+0000","like_count":0,"user_likes":false},"744918578858155":{"id":"744918578858155","from":{"id":"1146680551","name":"優しい なぁ"},"message":"Mina no bài 32-33 j đó có đề cập đến \"ん\"","can_remove":false,"created_time":"2013-10-23T08:39:37+0000","like_count":0,"user_likes":false},"744952982188048":{"id":"744952982188048","from":{"id":"100000064686295","name":"Huy Roli"},"message":"Nhầm rồi, bài 26, nhưng cả câu nghĩa là gì hả bạn","can_remove":false,"created_time":"2013-10-23T10:43:36+0000","like_count":0,"user_likes":false},"744960195520660":{"id":"744960195520660","from":{"id":"100001416272263","name":"Mai PB"},"message":"なんですか＝ですか","can_remove":false,"created_time":"2013-10-23T11:09:35+0000","like_count":2,"user_likes":false}},"paging":{"cursors":{"after":"NzMyOTExNDYwMDU4ODY3","before":"NzMyOTExNDYwMDU4ODY3"},"next":"https://graph.facebook.com/229244010425617_732908480059165/comments?limit=1&summary=1&after=NzMyOTExNDYwMDU4ODY3"},"summary":{"order":"chronological","total_count":22}}}