{"id":"229244010425617_732973973385949","type":"status","from":{"id":"100001257093338","name":"Hanh Dang"},"message":"Mọi người có thể dịch sang tiếng Nhật giúp mình ý của các câu này không.\nXin cảm ơn trước!\n\nkhao khát được làm chủ máy móc\nlàm chủ khoa học kỹ thuật.\nlàm chủ được công nghệ\nlàm chủ bản thân","created_time":"2013-10-05T11:07:23+0000","updated_time":"2013-10-05T13:34:46+0000","likes":{"data":{"100001754136107":{"id":"100001754136107","name":"Nguyễn Tuấn Vũ"}},"paging":{"cursors":{"after":"MTAwMDAxNzU0MTM2MTA3","before":"MTAwMDAxNzU0MTM2MTA3"}},"summary":{"total_count":1}},"comments":{"data":{"732977866718893":{"id":"732977866718893","from":{"id":"100000064686295","name":"Huy Roli"},"message":"Dùng thể tai là đc rồi","can_remove":false,"created_time":"2013-10-05T11:17:49+0000","like_count":0,"user_likes":false},"732980933385253":{"id":"732980933385253","from":{"id":"100001257093338","name":"Hanh Dang"},"message":"Không đơn giản như thế đâu Huy Roli^^","message_tags":[{"id":"100000064686295","name":"Huy Roli","type":"user","offset":27,"length":8}],"can_remove":false,"created_time":"2013-10-05T11:19:27+0000","like_count":0,"user_likes":false},"732983506718329":{"id":"732983506718329","from":{"id":"100000064686295","name":"Huy Roli"},"message":"Thế theo bạn thì thế nào","can_remove":false,"created_time":"2013-10-05T11:20:24+0000","like_count":0,"user_likes":false},"732987120051301":{"id":"732987120051301","from":{"id":"100001257093338","name":"Hanh Dang"},"message":"Cái đó thì đang nhờ mọi người giúp!","can_remove":false,"created_time":"2013-10-05T11:21:39+0000","like_count":0,"user_likes":false},"733033460046667":{"id":"733033460046667","from":{"id":"100001416272263","name":"Mai PB"},"message":"khao khát: 渇望する、望する、熱望する\nlàm chủ (cái gì): （何）を制する\n\nTiếp theo chắc bạn tự dịch được?","can_remove":false,"created_time":"2013-10-05T13:25:29+0000","like_count":2,"user_likes":false},"733037326712947":{"id":"733037326712947","from":{"id":"100001257093338","name":"Hanh Dang"},"message":"素晴らしい答えをして頂き、ありがとうございました。\n本当に勉強になりました・","can_remove":false,"created_time":"2013-10-05T13:34:46+0000","like_count":1,"user_likes":false}},"paging":{"cursors":{"after":"NzMyOTc3ODY2NzE4ODkz","before":"NzMyOTc3ODY2NzE4ODkz"},"next":"https://graph.facebook.com/229244010425617_732973973385949/comments?limit=1&summary=1&after=NzMyOTc3ODY2NzE4ODkz"},"summary":{"order":"chronological","total_count":6}}}