{"id":"229244010425617_733018186714861","type":"status","from":{"id":"100005801442456","name":"An Nguyen"},"created_time":"2013-10-05T12:40:15+0000","updated_time":"2013-10-05T12:41:51+0000","comments":{"data":{"733018553381491":{"id":"733018553381491","from":{"id":"100002508122689","name":"Vũ Mạnh Tuấn"},"message":"Bài đăng của An Nguyen bị sạo vậy ạ. Không có nội dung gì cả ?","message_tags":[{"id":"100005801442456","name":"An Nguyen","type":"user","offset":13,"length":9}],"can_remove":false,"created_time":"2013-10-05T12:41:28+0000","like_count":0,"user_likes":false},"733018640048149":{"id":"733018640048149","from":{"id":"100000045271667","name":"Nam Thai Nguyen"},"message":"Mấy lần đều ko được sao ??","can_remove":false,"created_time":"2013-10-05T12:41:51+0000","like_count":0,"user_likes":false}},"paging":{"cursors":{"after":"NzMzMDE4NTUzMzgxNDkx","before":"NzMzMDE4NTUzMzgxNDkx"},"next":"https://graph.facebook.com/229244010425617_733018186714861/comments?limit=1&summary=1&after=NzMzMDE4NTUzMzgxNDkx"},"summary":{"order":"chronological","total_count":2}},"likes":{"data":[]}}