{"id":"229244010425617_733043703378976","type":"photo","object_id":"167453483458032","picture":"https://fbcdn-photos-a-a.akamaihd.net/hphotos-ak-ash3/t1.0-0/1382918_167453483458032_312384143_s.jpg","link":"https://www.facebook.com/photo.php?fbid=167453483458032&set=gm.733043703378976&type=1&relevant_count=1","from":{"id":"100005801442456","name":"An Nguyen"},"message":"Chương trình phim truyện vào khung  giờ vàng cuối tuần tại đài phát sóng của thôn Cộng đồng Việt Nhật!\n\nいま会いにゆきます！\n( tựa tiếng Anh : Be with you)\n\nNhân dịp... Cuối tuần ban văn nghệ của xóm xin giới thiệu các bạn 1 bộ phim rất nổi tiếng tại Nhật,bộ phim xoay quanh câu chuyện 1 ông bố độc thân và đứa con nhỏ 6 tuổi,họ sống với nỗi nhớ và tyeu vô hạn dành cho người phụ nữ của mình.cả 2 luôn tin rồi 1 ngày mưa sẽ đem tình yêu của họ về.và rồi 1 năm sau ngày mất cô gái,và cũng trong  trong 1 ngày mưa,cô gái đã trở về nhưng cô k còn nhớ mình là ai? Tại sao? Vì sao? Đó sẽ là câu hỏi cho bạn suốt cả tập phim.\nNăm sản xuất 2004\nThể loại: tình cảm\nĐánh giá: 1 Bộ phim ... Phải xem!theo bảng xếp hạng IMbd ( 1 trang đánh giá phim toàn cầu,Bộ phim này đc 7,7 điểm.1 điểm số rất cao,cao hơn hẳn bộ phim tcam nổi tiếng làm theo tiểu thuyết bán tới 3 triệu bản 世界の中心で愛を叫ぶ ( được 7,2), cũng thật khập khiển khi dựa vào điều này để đánh giá ai hay hơn nhưng chắc chắn đây là 1 Bộ phim k thể bỏ qua.\nLinks: tìm mãi mới đc link này xem là tạm ổn ,có sub English nhé. Coi từ dưới lên nhé.\nhttp://dramaview.blog112.fc2.com/blog-category-53.html\np/s: đoạn kết e coi phải 2 lần mới hiểu,hơi lằng quăng nhưng thật sự rất hay .Xin mời xin mời....","created_time":"2013-10-05T13:52:03+0000","updated_time":"2013-10-05T22:21:14+0000","likes":{"data":{"100001443373636":{"id":"100001443373636","name":"Hoa Nguyen Huu"},"100000199780783":{"id":"100000199780783","name":"Nguyen Thu Hoai"},"100003217248176":{"id":"100003217248176","name":"Quang Tuấn Bùi"},"100004916406283":{"id":"100004916406283","name":"Hoa Nguyễn"},"100002526707690":{"id":"100002526707690","name":"Phan Toan"},"100006767705219":{"id":"100006767705219","name":"Kim Liên"},"100000578806138":{"id":"100000578806138","name":"Dang Tung"},"100001458099624":{"id":"100001458099624","name":"Kham Pha"},"100001526631937":{"id":"100001526631937","name":"Tường Oanh Mineko"},"100001365545442":{"id":"100001365545442","name":"Nguyễn Nam"},"620134445":{"id":"620134445","name":"Anh Do"},"100005389234209":{"id":"100005389234209","name":"Cỏ Dại"},"100005478454231":{"id":"100005478454231","name":"Maruko Chan"},"100003837141956":{"id":"100003837141956","name":"Mai Hoàng"},"100004362480675":{"id":"100004362480675","name":"Đi Tìm Thất Bại"},"100001051668011":{"id":"100001051668011","name":"Mạnh Hùng"},"100005915713419":{"id":"100005915713419","name":"Hà TaNoshii"},"100000002047093":{"id":"100000002047093","name":"Mint Candy"},"100001754136107":{"id":"100001754136107","name":"Nguyễn Tuấn Vũ"},"100001732119820":{"id":"100001732119820","name":"Sapphire Rain"},"100006329763157":{"id":"100006329763157","name":"Một Mình Không Sao"},"100004452123869":{"id":"100004452123869","name":"Pham Tiên Bach"},"100002543558467":{"id":"100002543558467","name":"Pham Bao Ngoc"},"100006531934770":{"id":"100006531934770","name":"Trâm Anh"},"100001723862714":{"id":"100001723862714","name":"Bo Bien Vang"},"1822854513":{"id":"1822854513","name":"Sữa Chua Không Đường"},"100002876323062":{"id":"100002876323062","name":"Linh Nguyen"},"100002950812239":{"id":"100002950812239","name":"Vinhgia Bui"},"100000250256418":{"id":"100000250256418","name":"Nguyen Viet Anh"},"100000328742646":{"id":"100000328742646","name":"Trần Giáp"},"100001416272263":{"id":"100001416272263","name":"Mai PB"},"100004052599880":{"id":"100004052599880","name":"Nguyen-chan Hsj"},"100003188914702":{"id":"100003188914702","name":"Quyết Lê Đình"},"100001298890643":{"id":"100001298890643","name":"Dinh Tung"},"100002508122689":{"id":"100002508122689","name":"Vũ Mạnh Tuấn"},"1693340855":{"id":"1693340855","name":"Nguyen Hoai Anh"},"100001847199226":{"id":"100001847199226","name":"Tiến Trần Xuân"},"100001912633316":{"id":"100001912633316","name":"Du Ca"}},"paging":{"cursors":{"after":"MTAwMDAxNDQzMzczNjM2","before":"MTAwMDAxNDQzMzczNjM2"},"next":"https://graph.facebook.com/229244010425617_733043703378976/likes?limit=1&summary=1&after=MTAwMDAxNDQzMzczNjM2"},"summary":{"total_count":38}},"comments":{"data":{"733045903378756":{"id":"733045903378756","from":{"id":"100003313957422","name":"Tùng Sunrise"},"message":"bên Kites có link down vietsub mà","can_remove":false,"created_time":"2013-10-05T13:55:54+0000","like_count":0,"user_likes":false},"733052366711443":{"id":"733052366711443","from":{"id":"1264767242","name":"Anh Duc"},"message":"ai coi cái này cũng nên coi heavenly forest, cùng tác giả","can_remove":false,"created_time":"2013-10-05T14:08:10+0000","like_count":0,"user_likes":false},"733054436711236":{"id":"733054436711236","from":{"id":"100001416272263","name":"Mai PB"},"message":"Nhân đây xin nói thêm là phim (màn ảnh rộng) Nhật được đánh giá rất cao trên thế giới, gần đây được khá nhiều giải thưởng. Lượng phim nội địa chiếu ở Nhật cũng ngang ngửa với lượng phim Hollywood mà không cần đến \"định hướng\" hay hạn chế của ai cả, đã nói lên chất lượng của dòng phim này. Nói vậy chứ mình cũng ít đi xem rạp. :-)","can_remove":false,"created_time":"2013-10-05T14:14:18+0000","like_count":1,"user_likes":false},"733058043377542":{"id":"733058043377542","from":{"id":"100001669118656","name":"Jetvier Hernandez"},"message":"em sẽ đến cùng cơn mưa","can_remove":false,"created_time":"2013-10-05T14:22:31+0000","like_count":1,"user_likes":false},"733059496710730":{"id":"733059496710730","from":{"id":"100000381394367","name":"Thành Nguyễn"},"message":"Phim này có bản movie và bản dramma, mình đã xem cả 2,không biết có phải vì lúc đầu bản mình xem là dramma hay không mà mình thấy xem dramma hay hơn, xúc động hơn. Về sau xem bản movie không thấy hay bằng. Mặc dù bản movie ra đời trước, bản dramma thì có sự xáo trộn trật tự so với bản phim nên khó hiểu hơn, nhưng cảm giác sau khi hiểu ra thì thấy rất xúc động.","can_remove":false,"created_time":"2013-10-05T14:26:57+0000","like_count":1,"user_likes":false},"733074050042608":{"id":"733074050042608","from":{"id":"100001416272263","name":"Mai PB"},"message":"An Nguyen nên làm một document để lưu các bài lại","message_tags":[{"id":"100005801442456","name":"An Nguyen","type":"user","offset":0,"length":9}],"can_remove":false,"created_time":"2013-10-05T15:02:05+0000","like_count":0,"user_likes":false},"733098730040140":{"id":"733098730040140","from":{"id":"100005801442456","name":"An Nguyen"},"message":"Ok,a,.nhưbg e chỉ xài đt thôi.k có dùng lap","can_remove":false,"created_time":"2013-10-05T16:01:30+0000","like_count":0,"user_likes":false},"733299363353410":{"id":"733299363353410","from":{"id":"100001458099624","name":"Kham Pha"},"message":"Phim này xem cái cảnh 2 bố con mong mùa mưa đừng bao giờ kết thúc tự dưng mình cũng mong cho họ như vậy :)","can_remove":false,"created_time":"2013-10-05T21:45:06+0000","like_count":0,"user_likes":false},"733316150018398":{"id":"733316150018398","from":{"id":"100005801442456","name":"An Nguyen"},"message":"Mình cũng thế,mưa thì quán sẽ ế,bởi vậy giải lao vô thời hạn,ôi mong chờ những con mưa=))","can_remove":false,"created_time":"2013-10-05T22:21:14+0000","like_count":0,"user_likes":false}},"paging":{"cursors":{"after":"NzMzMDQ1OTAzMzc4NzU2","before":"NzMzMDQ1OTAzMzc4NzU2"},"next":"https://graph.facebook.com/229244010425617_733043703378976/comments?limit=1&summary=1&after=NzMzMDQ1OTAzMzc4NzU2"},"summary":{"order":"chronological","total_count":9}}}