{"id":"229244010425617_733612296655450","type":"link","picture":"https://fbexternal-a.akamaihd.net/safe_image.php?d=AQAaV0zKrxdvzTL9&w=154&h=154&url=http%3A%2F%2Fi.yimg.jp%2Fimages%2Fnews%2Ffacebook%2Ffbico_ogp_200x200.png","link":"http://headlines.yahoo.co.jp/hl?a=20131002-00000191-jij-soci","from":{"id":"100001458099624","name":"Kham Pha"},"message":"Hôm trước có đọc bài báo này về người Việt ăn cắp mới bị bắt của anh Mai PB trên VYSA. \n\nĐọc phần comment của người Nhật bên dưới thấy nhiều người cho rằng cần thắt chặt quy định nhập quốc và trục xuất đối với người Việt. Với tình trạng phạm tội của người Việt ở Nhật tiếp tục như thế này sợ rằng một vài năm tới số lượng du học sinh và lao động sang Nhật sẽ bị hạn chế. Điều đó sẽ ảnh hưởng xấu tới rất nhiều người tốt có mong muốn được sang Nhật học tập, làm việc. \n\nNhưng như vậy thì chúng ta làm thế nào? Đọc một comment ở dưới của một người Nhật họ viết thế này. \n\n「外国人に対する差別が彼らを犯罪に走らせるでは？\nそういう意味で、私たち日本人にも責任がある気がする。」\n\nTạm dich là \"Sự phân biệt đối xử đối với người nước ngoài phải chăng cũng chính là nguyên nhân dẫn đến họ phạm tội? Nếu như vậy thì chính người Nhật chúng ta cũng có trách nhiệm.\"\n\nĐến người ngoài cuộc, là người Nhật họ còn có ý thức rằng họ cũng có thể là nguyên nhân gián tiếp gây ra hành vi phạm tội. Họ thấy cả trách nhiệm ở bản thân mình. Huống hồ chúng ta là người Việt Nam với nhau lại không thấy gì? Đồng bào anh em của chúng ta phạm tội cũng có phần trách nhiệm của chúng ta. Đừng bao giờ nói \"Mấy đứa đấy cứ trục xuất hết về nước\" hay \"Làm người Việt thật xấu hổ\". Những câu nói ấy đâu có thay đổi được điều gì, thậm chí còn làm người Việt chúng ta bị chia rẽ. Không có đoàn kết, không có giáo dục, tương lai của chúng ta sẽ chẳng đi về đâu cả. Nước Nhật cũng có chiến tranh và mất mát nhưng họ được như ngày nay là nhờ có 2 điều đó. \n\nNước Nhật hiện nay tỉ lệ sinh đang giảm, để cứu lấy nền kinh tế Nhật, chính phủ Nhật ước tính đến năm 2050 sẽ phải có 30% dân số là người ngoại quốc. Quan hệ Trung-Nhật căng thẳng và quan hệ Việt-Nhật đang rất phát triển. Đây là cơ hội hơn bao giờ hết chúng ta có được để thay đổi được vận mệnh dân tộc. Ước ao của mình khi cùng mọi người xây dựng Cộng đồng Việt Nhật chính là để giáo dục con người, gửi nhiều hơn nữa những người ưu tú sang Nhật học tập, làm việc rồi bằng cách nào đó thay đổi được đất nước, giúp đỡ những người kém may mắn hơn. Sẽ không ai phải chịu khổ vì một xã hội bất công, không còn nỗi khiếp sợ của tai nạn giao thông, trẻ em được lớn lên trong một xã hội văn minh, an toàn như trẻ em Nhật vậy. Chúng ta sẽ làm được, phải vậy không mọi người?","created_time":"2013-10-06T09:45:59+0000","updated_time":"2013-10-07T01:23:49+0000","likes":{"data":{"1392762854":{"id":"1392762854","name":"Đỗ Minh Thu"},"100003225980553":{"id":"100003225980553","name":"Quyên Xanh"},"849149395":{"id":"849149395","name":"Đặng Ngọc Trân"},"100000211237467":{"id":"100000211237467","name":"Nguyễn Thị Hà"},"100006248618563":{"id":"100006248618563","name":"Momi Zi"},"100000052661831":{"id":"100000052661831","name":"Shuntoku Pham"},"100004460525997":{"id":"100004460525997","name":"Hà Trang Nguyễn"},"100001128589118":{"id":"100001128589118","name":"Giang Manh"},"100001723862714":{"id":"100001723862714","name":"Bo Bien Vang"},"1146680551":{"id":"1146680551","name":"優しい なぁ"},"100006579366555":{"id":"100006579366555","name":"Thắng Trương"},"100004251845458":{"id":"100004251845458","name":"Hoàng Anh"},"100003955066638":{"id":"100003955066638","name":"Nho'k Maruko"},"1804434883":{"id":"1804434883","name":"Duyen Le"},"100001744546054":{"id":"100001744546054","name":"Quân Dương"},"100003005597243":{"id":"100003005597243","name":"Zany Royal"},"100006767705219":{"id":"100006767705219","name":"Kim Liên"},"100001345315262":{"id":"100001345315262","name":"Cuong Hoang"},"100001840875327":{"id":"100001840875327","name":"Phạm Chí Long"},"100004234301106":{"id":"100004234301106","name":"Hà Kawaii"},"100000383155614":{"id":"100000383155614","name":"Phạm Thúc Hưng"},"100000271705877":{"id":"100000271705877","name":"Nguyễn Văn Minh"},"100003011417151":{"id":"100003011417151","name":"Hue Kim"},"100004362480675":{"id":"100004362480675","name":"Đi Tìm Thất Bại"},"100004140850631":{"id":"100004140850631","name":"Huong Trang"},"100002754998000":{"id":"100002754998000","name":"Nguyen Duc"},"1828906841":{"id":"1828906841","name":"Trọng Nghĩa Bùi"},"100003683390259":{"id":"100003683390259","name":"Huệ Hoàng"},"100001260645727":{"id":"100001260645727","name":"Ngo Duy Son"},"100004306806098":{"id":"100004306806098","name":"Tự Đi Tìm Chết"},"100000111767260":{"id":"100000111767260","name":"Shiori Shiomiya"},"100004705145167":{"id":"100004705145167","name":"Ngọc Tuệ Bạch"},"100003806594580":{"id":"100003806594580","name":"Daothuy Linh"},"100003301197657":{"id":"100003301197657","name":"Cháu Ông Hủm"},"100000266887521":{"id":"100000266887521","name":"Hương Lê Thu"},"521525966":{"id":"521525966","name":"Hoa Tím Tất"},"1822854513":{"id":"1822854513","name":"Sữa Chua Không Đường"},"100000359762118":{"id":"100000359762118","name":"Mi Tra"},"100003731623249":{"id":"100003731623249","name":"Mai Nguyen"},"100002676859353":{"id":"100002676859353","name":"Chu Quang Viên"},"718011337":{"id":"718011337","name":"Quynh Quyt"},"1787333994":{"id":"1787333994","name":"Kiên Mậu"},"100001181007750":{"id":"100001181007750","name":"Ngô Thị Hồng Hân"},"100000415551216":{"id":"100000415551216","name":"Nguyen Kien"},"100005801442456":{"id":"100005801442456","name":"An Nguyen"},"100002425288918":{"id":"100002425288918","name":"Kira Chiến ND"},"100001318098340":{"id":"100001318098340","name":"Trang Anh"},"100001541536632":{"id":"100001541536632","name":"Viet Do"},"100000776461179":{"id":"100000776461179","name":"Jotaro Nguyen"},"100000578806138":{"id":"100000578806138","name":"Dang Tung"},"100005478454231":{"id":"100005478454231","name":"Maruko Chan"},"100004492933662":{"id":"100004492933662","name":"Sorakira Bui"},"1824015127":{"id":"1824015127","name":"Bùi Quang Tân"},"100001115111251":{"id":"100001115111251","name":"Hoa Nguyen"},"100000250256418":{"id":"100000250256418","name":"Nguyen Viet Anh"},"100000427448138":{"id":"100000427448138","name":"Anh Tuan Pham"},"1603137055":{"id":"1603137055","name":"Nguyen Song Lan Anh"},"100003671803669":{"id":"100003671803669","name":"Tojika Sakura"},"100004168804627":{"id":"100004168804627","name":"Yuki Aki"},"100001416272263":{"id":"100001416272263","name":"Mai PB"}},"paging":{"cursors":{"after":"MTM5Mjc2Mjg1NA==","before":"MTM5Mjc2Mjg1NA=="},"next":"https://graph.facebook.com/229244010425617_733612296655450/likes?limit=1&summary=1&after=MTM5Mjc2Mjg1NA%3D%3D"},"summary":{"total_count":60}},"comments":{"data":{"733615373321809":{"id":"733615373321809","from":{"id":"100001156666759","name":"Kenshuu Steam"},"message":"việt nam ăn cắp 1 trung quốc ăn cắp 1 ngàn, vietj nam chi la an cap vat, trung quoc moi la an cap co tot chuc","can_remove":false,"created_time":"2013-10-06T09:56:42+0000","like_count":0,"user_likes":false},"733615826655097":{"id":"733615826655097","from":{"id":"100001458099624","name":"Kham Pha"},"message":"Chê TQ, Việt Nam đâu có tốt hơn.","can_remove":false,"created_time":"2013-10-06T09:58:49+0000","like_count":2,"user_likes":false},"733616503321696":{"id":"733616503321696","from":{"id":"100001416272263","name":"Mai PB"},"message":"Anh muốn đính chính ý của Kham Pha về comment Yahoo kia. Đó là comment của một tay Hàn Quốc hoặc người Nhật gốc Hàn, chuyên môn comment đả phá xã hội Nhật. Nó cũng không nhận được đồng tình của người Nhật. Xã hội Nhật họ không có trách nhiệm gì ở đây cả, nói chung họ không phân biệt đối xử người nước ngoài (cá biệt thì cũng có). Ai sống ở đây thì biết, chẳng xã hội nào cho người nước ngoài các cơ hội học tập, làm việc, thuế, bảo hiểm y hệt như người Nhật cả. Vấn đề ở đây là chính chúng ta tự phân biệt đối xử với nhau từ trong nước VN ra nước Nhật.","message_tags":[{"id":"100001458099624","name":"Kham Pha","type":"user","offset":26,"length":8}],"can_remove":false,"created_time":"2013-10-06T09:59:44+0000","like_count":3,"user_likes":false},"733617283321618":{"id":"733617283321618","from":{"id":"100001458099624","name":"Kham Pha"},"message":"oh xin lỗi, vậy mà em không biết, đưa vào làm ví dụ mất rồi :(","can_remove":false,"created_time":"2013-10-06T10:01:29+0000","like_count":0,"user_likes":false},"733618406654839":{"id":"733618406654839","from":{"id":"100000154892124","name":"Hanh Pham"},"message":"ăn cắp thì mãi là ăn cắp dù 1 hay 1 ngàn,có người Nhật nói rằng người Việt chỉ là những đứa trẻ to xác!thật tiếc là những con người đang là đại diện cho đất nước làm những hành động này lại không ít!","can_remove":false,"created_time":"2013-10-06T10:02:02+0000","like_count":1,"user_likes":false},"733620443321302":{"id":"733620443321302","from":{"id":"100001156666759","name":"Kenshuu Steam"},"message":"bọn nhật cũng ăn cắp, đá tàu như điên, ở đâu mà chẳng vậy.. nên thực tế hơn chút đi bạn","can_remove":false,"created_time":"2013-10-06T10:03:01+0000","like_count":0,"user_likes":false},"733621666654513":{"id":"733621666654513","from":{"id":"100001416272263","name":"Mai PB"},"message":"Không sao, ý của Kham Pha là họ luôn tự nhìn nhận lại bản thân chứ không chỉ trách người khác, và luôn cố gắng nhìn mọi việc khách quan, thì là đúng không sai gì cả. Đó là một trong những việc anh khâm phục họ nhất, vì ít có nước tiên tiến nào làm được điều đó.","message_tags":[{"id":"100001458099624","name":"Kham Pha","type":"user","offset":17,"length":8}],"can_remove":false,"created_time":"2013-10-06T10:03:36+0000","like_count":5,"user_likes":false},"733623036654376":{"id":"733623036654376","from":{"id":"100001458099624","name":"Kham Pha"},"message":"Kenshuu Steam tiếc là mình chưa bao giờ được gặp những người như vậy. \nCâu so sánh \"ở đâu mà chẳng vậy\" của bạn giống như kiểu mình bảo với một ông đại gia lắm tiền : \"Ông không mua được máy bay phản lực, tôi cũng không. Chúng ta ngang nhau\" vậy đó.","message_tags":[{"id":"100001156666759","name":"Kenshuu Steam","type":"user","offset":0,"length":13}],"can_remove":false,"created_time":"2013-10-06T10:07:01+0000","like_count":0,"user_likes":false},"733623896654290":{"id":"733623896654290","from":{"id":"100001416272263","name":"Mai PB"},"message":"Thực tế gì, Kenshuu Steam, không cần xấu hổ chăng? Không xấu hổ cho bản thân nhưng xấu hổ vì đồng bào mình làm điều xấu chứ? Người Nhật đá tàu ăn cắp thì mình ở đây bao lâu rồi chưa bao giờ thấy, mà có thì đó cũng là vấn đề của người Nhật, mình cứ biết giáo dục người Việt đã.","message_tags":[{"id":"100001156666759","name":"Kenshuu Steam","type":"user","offset":12,"length":13}],"can_remove":false,"created_time":"2013-10-06T10:07:45+0000","like_count":0,"user_likes":false},"733624143320932":{"id":"733624143320932","from":{"id":"100001416272263","name":"Mai PB"},"message":"Mà nếu Kenshuu Steam không muốn bị gọi là bọn VN thì bỏ kiểu nói bọn Nhật đi nhé.","message_tags":[{"id":"100001156666759","name":"Kenshuu Steam","type":"user","offset":7,"length":13}],"can_remove":false,"created_time":"2013-10-06T10:08:52+0000","like_count":2,"user_likes":false},"733624829987530":{"id":"733624829987530","from":{"id":"100001156666759","name":"Kenshuu Steam"},"message":"mình bị gọi như vậy nhiều rồi ông bạn ơi, hồi mình ở nhật toàn bị gọi như vậy đâm ra mới gọi lại là bọn nhật ấy chứ...","can_remove":false,"created_time":"2013-10-06T10:10:37+0000","like_count":0,"user_likes":false},"733625279987485":{"id":"733625279987485","from":{"id":"100005801442456","name":"An Nguyen"},"message":"Quan điểm mình thì rõ ràng,trắng là trắng ,đen la đen,xấu tốt k có chỗ lan man k rõ ràng ,nếu mà có quay đầu thì may ra xem xét ,chứ đung tới lý do với lý trấu thưong xót làm gì...","can_remove":false,"created_time":"2013-10-06T10:12:24+0000","like_count":1,"user_likes":false},"733625486654131":{"id":"733625486654131","from":{"id":"100001156666759","name":"Kenshuu Steam"},"message":"ông bạn ở nhật lâu không thấy nhg mình ở có vài năm thôi nhưng mình thấy, đó là thực tế chứ không phải chuyện bịa. còn vấn đề giáo dục ko nên nói ở đây, giao dục tốt chưa chắc tất cả mọi người đã nhận thức tốt","can_remove":false,"created_time":"2013-10-06T10:13:04+0000","like_count":0,"user_likes":false},"733626159987397":{"id":"733626159987397","from":{"id":"100001156666759","name":"Kenshuu Steam"},"message":"An nguyen: o day minh chi noi thuc te khong ly do di chau gi ca nhe.","can_remove":false,"created_time":"2013-10-06T10:14:34+0000","like_count":0,"user_likes":false},"733626183320728":{"id":"733626183320728","from":{"id":"100001458099624","name":"Kham Pha"},"message":"Giáo dục tốt hơn thì nhận thức sẽ tốt hơn, nó giống như bạn tập thể thao nhiều hơn thì bạn sẽ khỏe hơn. Tại sao lại phải bàn lùi?","can_remove":false,"created_time":"2013-10-06T10:14:46+0000","like_count":0,"user_likes":false},"733626393320707":{"id":"733626393320707","from":{"id":"100000154892124","name":"Hanh Pham"},"message":"ông sang đó lúc nào cũng nói là tiền đâu mà đi vé chanto,suốt ngày đá tàu,chủi lủi như....!dù ở đâu thì những hành động đó đều không tốt,hơn hết là khi ra nước ngoài,chúng ta mang cả 1 nền văn hóa,một hình ảnh đất nước,đôi khi ấn tượng về một đất nước chỉ qua một vài con người vì vậy khi chúng ta có những hành động xấu thì sẽ làm bẩn hình ảnh đất nước!tốt là tôt mà xấu thì mãi là xấu!","can_remove":false,"created_time":"2013-10-06T10:16:00+0000","like_count":1,"user_likes":false},"733627093320637":{"id":"733627093320637","from":{"id":"100001156666759","name":"Kenshuu Steam"},"message":"không phải bàn lùi, mà vấn đề giáo dục là vấn đề của toàn xã hội ở đây có mấy nguwof mình không muốn nói thôi. \ntui ko bao che viec trom cap la xau nhe..doc lai toan bo comment di nhe Hanh Pham, Ko biet Hanh Pham co song o nhat chua nhưng tui thay co nhieu da kich qua gay gat qua nen noi thoi. ai noi an cap la tot ???","message_tags":[{"id":"100000154892124","name":"Hanh Pham","type":"user","offset":184,"length":9}],"can_remove":false,"created_time":"2013-10-06T10:18:27+0000","like_count":0,"user_likes":false},"733628329987180":{"id":"733628329987180","from":{"id":"100000154892124","name":"Hanh Pham"},"message":"=)) giáo dục Việt Nam không dạy cho học sinh bài ăn cắp và đá tàuKenshuu Steam@tôi không nói bạn!chỉ là comment với mọi người!ukei","message_tags":[{"id":"100001156666759","name":"Kenshuu Steam","type":"user","offset":65,"length":13}],"can_remove":false,"created_time":"2013-10-06T10:20:34+0000","like_count":0,"user_likes":false},"733629029987110":{"id":"733629029987110","from":{"id":"100001458099624","name":"Kham Pha"},"message":"Kenshuu Steam Việc của chung = chẳng việc của ai, xã hội VN là như vậy bạn còn ko hiểu sao? Sao ko thấy trách nhiệm của bản thân mình trong đó.","message_tags":[{"id":"100001156666759","name":"Kenshuu Steam","type":"user","offset":0,"length":13}],"can_remove":false,"created_time":"2013-10-06T10:21:21+0000","like_count":1,"user_likes":false},"733629063320440":{"id":"733629063320440","from":{"id":"100001156666759","name":"Kenshuu Steam"},"message":"xã hội và cuộc sống sẽ dạy Hanh Pham ạ !!!","can_remove":false,"created_time":"2013-10-06T10:21:29+0000","like_count":0,"user_likes":false},"733630033320343":{"id":"733630033320343","from":{"id":"100000154892124","name":"Hanh Pham"},"message":"không lẽ xã hội và cuộc sống ở VN làm con người trở thành kẻ cắp uh?haizzz buồn thật!","can_remove":false,"created_time":"2013-10-06T10:24:21+0000","like_count":0,"user_likes":false},"733630053320341":{"id":"733630053320341","from":{"id":"100001156666759","name":"Kenshuu Steam"},"message":"Vậy bạn nên sang Nhật để tuyê n truyền nhé, tôi chỉ đích danh những đối tượng cho bạn tuyên truyền* 1: tu nghiệp sinh, thực tập sinh, 2: những người sinh sống và lao động bất hợp pháp, 3: một bộ phận người kết hôn giả với người nhật, 4: 1 bộ phận du học sinh . bạn sang đó tuyên truyền đi nhé...ở đây nói nhảm ..anh hùng bàn phím nhiều làm gì... bạn nên đứng ở ga tàu nửa ngày đặc biệt là các ga lớn, ga trung tâm. bạn nên ở siêu thị nhiều vào thì bạn sẽ quan sát thấy hết thôi mà...","can_remove":false,"created_time":"2013-10-06T10:24:23+0000","like_count":0,"user_likes":false},"733630246653655":{"id":"733630246653655","from":{"id":"100001156666759","name":"Kenshuu Steam"},"message":"bạn nói sai rồi, chủ đề đang là ăn cắp ở Nhật, không bàn đến ở VN nhé","can_remove":false,"created_time":"2013-10-06T10:24:59+0000","like_count":0,"user_likes":false},"733630489986964":{"id":"733630489986964","from":{"id":"100001156666759","name":"Kenshuu Steam"},"message":"mình xin hỏi Hanh Pham 1 cau: bạn đã đi nhật chưa? nếu có thì tư cách cư trú của bạn là gì ?","can_remove":false,"created_time":"2013-10-06T10:25:33+0000","like_count":0,"user_likes":false},"733630733320273":{"id":"733630733320273","from":{"id":"100005801442456","name":"An Nguyen"},"message":"Có 1 cái ví dụ thế này bà con xem mình nói xem thế nào:\nBữa rằm tháng 7 trung thu.bà con thì có tục cúng cô hồn các bác để bàn cúng trước cửa,cái đó thì ai cũng biẻtd nhỉ.rồi cái việc ăn dưt mâm đò cúng người ta chắc ai cũng biết.báo Chí lúc đó an có xem rất nhiều tin đang tin cứ như \" nét đep văn hoá \" mà k thấy phê phán gì cả.cái đó là chính người làm báo còn chưa ni biết phân biệt đúng sai,tốt xấu.ở 1 xã hội mà vấn đề đó chưa thể phân minh rạch ròi thì xen vào đo' chính là sự thương cảm k đáng có để rồi cái xấu đc cớ tiếp tục nãy sinh.","can_remove":false,"created_time":"2013-10-06T10:25:50+0000","like_count":0,"user_likes":false},"733632223320124":{"id":"733632223320124","from":{"id":"100000154892124","name":"Hanh Pham"},"message":"tôi chỉ là 1 hạt cát và chúng ta đều là những hạt cát nhỏ trong một sa mạc,những hành động xấu khi bị xã hội phê phán thì sẽ dần ít đi,chúng ta chỉ là một nguồn tin nhỏ,tôi cũng từng ở Nhật và trong thời gian ở Nhật tôi k bao giờ làm hành động như vậy,sống ở đâu cũng vậy thôi!mỗi chúng ta luôn làm hành động tốt thì xã hội tốt hơn,và hơn hết thế hệ sau của chúng ta,con chúng ta sẽ nhìn vào đó làm gương phải không bạn!","can_remove":false,"created_time":"2013-10-06T10:28:46+0000","like_count":4,"user_likes":false},"733632713320075":{"id":"733632713320075","from":{"id":"100001156666759","name":"Kenshuu Steam"},"message":"vâng, bạn hiểu vậy thì tôi rất mừng, bạn đã hiểu ý tôi ở câu comment này rồi đấy \"Kenshuu Steam Việc của chung = chẳng việc của ai, xã hội VN là như vậy bạn còn ko hiểu sao? Sao ko thấy trách nhiệm của bản thân mình trong đó.\"","can_remove":false,"created_time":"2013-10-06T10:30:30+0000","like_count":0,"user_likes":false},"733633323320014":{"id":"733633323320014","from":{"id":"100005801442456","name":"An Nguyen"},"message":"Hồi giáo có nhiều cái vô cùng khăc nghiệt nhưng có 1 cái là thấy hay\" ăn cắp tay nào chặt tay đó\" áp dụng là đảm bảo k ai có thể làm quá 2 lần =)).","can_remove":false,"created_time":"2013-10-06T10:32:22+0000","like_count":0,"user_likes":false},"733633916653288":{"id":"733633916653288","from":{"id":"100003731623249","name":"Mai Nguyen"},"message":"Hay","can_remove":false,"created_time":"2013-10-06T10:34:32+0000","like_count":0,"user_likes":false},"733655153317831":{"id":"733655153317831","from":{"id":"100000687662713","name":"Vu Thi Man"},"message":"Có thể comment của mình, sẽ động chạm đến 1 số người nhưng nói thật mình không hướng đến ai, chỉ là ý kiến riêng của mình thôi, có người đồng tình và cũng có người không. Xét về khía cạnh cá nhân thì hành động trộm cắp là không thể chấp nhận được huống hồ là ăn cắp ở nước ngoài. Bạn sẽ trả lời người Nhật thế nào khi họ hỏi bạn là: Nghe thấy tin người Việt ăn cắp bị bắt đấy, bạn có biết không? Tất nhiên là thấy thật xấu hổ rồi, và chẳng biết giải thích thế nào cho hợp lý. Nói thật, mình biết, người Việt mình sống ở nước ngoài có một số người, đã đang và thậm trí là sẽ ăn cắp. Đơn giản thôi, hãy nhìn vào cuộc sống ở VN và các nước xem, khi lần đầu tiên tiếp xúc với van minh bạn có bị choáng ngợp không, bị hấp dẫn không? Câu trả lời là có và từ việc thấy quá dễ dàng mới phát sinh lòng tham. Chính ý nghĩ trục lợi đó đã đẩy người ta tới hành động đó, họ thấy quá đơn giản nên họ làm chứ không phải vì thiếu thốn, bản chất hay không được giáo dục hợp lý. Những người sống ở nước ngoài, về cơ bản họ cũng khá giả hơn ở VN vì hầu hết là tu nghiệp sinh, du học sinh, đi công tác...và sang đến đây cũng không phải là chuyện đơn giản. Vậy nên việc làm đấy chỉ là cá nhân và mình nghĩ chúng ta không phải chịu trách nhiệm gì về hành động đó cả. Chỉ là thấy buồn, thấy thất vọng, thấy xấu hổ. Người VN mình có câu <con sâu bỏ giàu nồi canh>, vậy nên khi chuẩn bị làm hành động nào xấu hãy nghĩ đến hình ảnh dân tộc mình, đừng để cho thế giới nhìn dân tộc mình với con mắt khinh thường. Thật buồn khi có những người vẫn đang nỗ lực, xây dựng 1 hình ảnh VN đẹp đẽ trong mắt dân Nhật mà xây dựng thì khó và phải mất nhiều thời gian, còn đạp đổ thì thật dễ dàng, nhưng lại có những người phá hỏng nó 1 cách tàn nhẫn thế. Nói về vấn đề này có nhiều cái muốn nói quá, nhưng thôi...dừng ở đây.","can_remove":false,"created_time":"2013-10-06T11:34:41+0000","like_count":1,"user_likes":false},"733661036650576":{"id":"733661036650576","from":{"id":"100001458099624","name":"Kham Pha"},"message":"Trách nhiệm là đã để con sâu nó lớn chui vào đc nồi canh đó. Còn trục xuất về nc hay hắt hủi họ thì chỉ là thấy sâu trong nồi vứt đi. Sâu vứt đi rồi nhưng nồi canh cũng hỏng rồi còn đâu.","can_remove":false,"created_time":"2013-10-06T11:47:04+0000","like_count":0,"user_likes":false},"733723506644329":{"id":"733723506644329","from":{"id":"100003955066638","name":"Nho'k Maruko"},"message":"Quả thật, mỗi người có nguyện vọng sang Nhật học tập và làm việc đều có mơ ước và mục đích riêng. Ban đầu đều là tốt đẹp. Nhưng khi sang tới đó, các bạn cảm thấy bị hụt hẫng về viễn cảnh đã suy nghĩ trước khi sống tại Nhật. Vật lộn để kiếm tiền lo cho cuộc sống, khi không còn cách nào khác các bạn đã xa chân vào những hành động sai lầm, đó là ăn cắp. Mình vừa thương cũng vừa trách các bạn ấy. Thương vì xuất phát điểm do không tìm hiểu rõ cuộc sống bên ấy, bị một số người môi giới vẽ nên một tương lai, viễn cảnh màu hồng để rồi tin, để rồi quyết định tương lai của bản thân của gia đình một cách vội vàng. Rồi khi cuộc sống nó không như mong muốn, không tiền, các bạn lo lắng, áp lực. Bỏ cuộc giữa trừng về nước ư? Khoản nợ gia đình vay mượn biết làm sao, kỳ vọng của cả họ hàng sẽ làm sao? Nhưng đó không phải lý do các bạn lựa chọn cách làm mất đi phẩm chất tốt đẹp, hoài bão bản thân.","can_remove":false,"created_time":"2013-10-06T14:25:24+0000","like_count":1,"user_likes":false},"733724773310869":{"id":"733724773310869","from":{"id":"100003955066638","name":"Nho'k Maruko"},"message":"Mình làm cho công ty liên quan đến du học sinh. Nhiều bạn có hành vi ăn cắp. Mình buồn lắm, có bạn chỉ là ăn cắ cái sạc iphone, ăn cắp túi đựng ipad. Có bạn, là con của hiệu trường cấp 2 ở Đông Anh. Gia đình có điều kiện, không phải là thiếu thốn gì nhưng lại bị cảnh sát bắt vì hành vi ăn cắp gạo và thực phẩm ở siêu thị. Mình cũng không lý giải nổi những hành động đó là vì nguyên nhân gì? Do chúng ta sao? Hay do người Nhật họ không đề phòng.","can_remove":false,"created_time":"2013-10-06T14:28:45+0000","like_count":2,"user_likes":false},"733727083310638":{"id":"733727083310638","from":{"id":"100001416272263","name":"Mai PB"},"message":"Hơi giống chuyện Kiều Trinh. https://www.facebook.com/photo.php?fbid=540538939352121&set=a.390033231069360.93015.100001880589280&type=1","can_remove":false,"created_time":"2013-10-06T14:34:22+0000","like_count":1,"user_likes":false},"733874486629231":{"id":"733874486629231","from":{"id":"100000027754899","name":"Hoang Van Ba"},"message":"Ko ai là hoàn Hảo cả. \nTrách móc cũng ko làm j đc ko giúp j đc\nMỗi người có một cảnh. Vì vậy ng ta có sa cơ thì cũng phải thông cảm vì nhiều lý do\nNhững người phải trốn ra để rồi đi ăn cắp. Có lẽ lương tâm cũng cắn rứt. Rồi phải sống trong bóng tối. Sổng chui lủi !...","can_remove":false,"created_time":"2013-10-06T19:53:52+0000","like_count":0,"user_likes":false},"733876193295727":{"id":"733876193295727","from":{"id":"100000027754899","name":"Hoang Van Ba"},"message":"Vì vậy đừng trách móc. Hãy tỏ ra là người có trách nhiệm và thông cảm cho họ và đừng vạch áo cho người xem lưng","can_remove":false,"created_time":"2013-10-06T19:59:04+0000","like_count":0,"user_likes":false},"733969929953020":{"id":"733969929953020","from":{"id":"100006777003880","name":"Hoa ThienTu"},"message":"-_-","can_remove":false,"created_time":"2013-10-07T00:02:54+0000","like_count":0,"user_likes":false},"733986836617996":{"id":"733986836617996","from":{"id":"100006777003880","name":"Hoa ThienTu"},"message":":v","can_remove":false,"created_time":"2013-10-07T00:55:59+0000","like_count":0,"user_likes":false},"733995393283807":{"id":"733995393283807","from":{"id":"100006248618563","name":"Momi Zi"},"message":"để giáo dục tốt chắc phải dài dài.mình thấy ai cũng hướng đến Nhật cả nhưng mà mình thấy nhiều người sang đây thời gian dài rồi mà cũng đâu đổi thay chút nào đâu.có lẽ phải chăng là giáo dục là phải từ khi còn bé thì mới đạt nhỉ?","can_remove":false,"created_time":"2013-10-07T01:21:56+0000","like_count":3,"user_likes":false},"733995963283750":{"id":"733995963283750","from":{"id":"100000027754899","name":"Hoang Van Ba"},"message":"Nói rất hay. Thâm Thuý !","can_remove":false,"created_time":"2013-10-07T01:23:49+0000","like_count":2,"user_likes":false}},"paging":{"cursors":{"after":"NzMzNjE1MzczMzIxODA5","before":"NzMzNjE1MzczMzIxODA5"},"next":"https://graph.facebook.com/229244010425617_733612296655450/comments?limit=1&summary=1&after=NzMzNjE1MzczMzIxODA5"},"summary":{"order":"chronological","total_count":40}}}