{"id":"229244010425617_733727543310592","type":"status","from":{"id":"100006368081099","name":"Man Thu"},"message":"Chào mọi người!\nMình có việc nhờ mọi người giúp đỡ.Đợt trước bạn Kham Pha có post một Link luyện nghe tiếng Nhật,dành cho các bạn từ N3 và cả trẻ em cũng nghe được( link đọc này có phần phiên âm chữ Hán ngay phía trên mỗi chữ Hán).mình rất thích link này nhưng bị mất link để mở,bạn nào còn link thì gửi lại cho mình xin nhé.\nCảm ơn mọi người.","created_time":"2013-10-06T14:35:55+0000","updated_time":"2013-10-06T15:11:11+0000","likes":{"data":{"100001365545442":{"id":"100001365545442","name":"Nguyễn Nam"},"100001458099624":{"id":"100001458099624","name":"Kham Pha"},"100000047107627":{"id":"100000047107627","name":"Tiểu Phương"},"100004923553810":{"id":"100004923553810","name":"Xuan KY Nguyen"}},"paging":{"cursors":{"after":"MTAwMDAxMzY1NTQ1NDQy","before":"MTAwMDAxMzY1NTQ1NDQy"},"next":"https://graph.facebook.com/229244010425617_733727543310592/likes?limit=1&summary=1&after=MTAwMDAxMzY1NTQ1NDQy"},"summary":{"total_count":4}},"comments":{"data":{"733728346643845":{"id":"733728346643845","from":{"id":"100004923553810","name":"Xuan KY Nguyen"},"message":"ban hoi lai Kham Pha hoac a Mai PB","message_tags":[{"id":"100001458099624","name":"Kham Pha","type":"user","offset":12,"length":8},{"id":"100001416272263","name":"Mai PB","type":"user","offset":28,"length":6}],"can_remove":false,"created_time":"2013-10-06T14:38:25+0000","like_count":0,"user_likes":false},"733728539977159":{"id":"733728539977159","from":{"id":"100002508122689","name":"Vũ Mạnh Tuấn"},"message":"Man Thu thử tìm trong link này xem \nhttps://www.facebook.com/groups/CongdongVietNhat/doc/704106249606055/\n\nTrong link đó tập hợp tất cả các tài liệu liên quan đến tiếng nhật đã từng up :D","message_tags":[{"id":"100006368081099","name":"Man Thu","type":"user","offset":0,"length":7}],"can_remove":false,"created_time":"2013-10-06T14:38:55+0000","like_count":0,"user_likes":false},"733729289977084":{"id":"733729289977084","from":{"id":"100001416272263","name":"Mai PB"},"message":"Search keyword NHK thì ra đây rồi. Mà Kham Pha chưa cập nhật link này vào note thì phải. \nhttps://www.facebook.com/groups/CongdongVietNhat/permalink/714290088587671/","message_tags":[{"id":"100001458099624","name":"Kham Pha","type":"user","offset":38,"length":8}],"can_remove":false,"created_time":"2013-10-06T14:40:46+0000","like_count":0,"user_likes":false},"733733543309992":{"id":"733733543309992","from":{"id":"100006368081099","name":"Man Thu"},"message":"Đúng rồi, chính là link này, cảm ơn Mai PB,","message_tags":[{"id":"100001416272263","name":"Mai PB","type":"user","offset":36,"length":6}],"can_remove":false,"created_time":"2013-10-06T14:50:28+0000","like_count":0,"user_likes":false},"733734783309868":{"id":"733734783309868","from":{"id":"100001416272263","name":"Mai PB"},"message":"Mọi người học cách tìm kiếm trong group nhé, nhưng phải dùng máy tính mới được. Ở góc trên bên phải có hình cái kính lúp đó, click vào đó rồi nhập keyword vào.","can_remove":false,"created_time":"2013-10-06T14:53:17+0000","like_count":3,"user_likes":false},"733741699975843":{"id":"733741699975843","from":{"id":"100006368081099","name":"Man Thu"},"message":"Những bạn chỉ dùng dt thì có cách tìm kiếm không??","can_remove":false,"created_time":"2013-10-06T15:11:11+0000","like_count":0,"user_likes":false}},"paging":{"cursors":{"after":"NzMzNzI4MzQ2NjQzODQ1","before":"NzMzNzI4MzQ2NjQzODQ1"},"next":"https://graph.facebook.com/229244010425617_733727543310592/comments?limit=1&summary=1&after=NzMzNzI4MzQ2NjQzODQ1"},"summary":{"order":"chronological","total_count":6}}}