{"id":"229244010425617_733701029979910","type":"link","link":"http://www3.nhk.or.jp/news/html/20131006/k10015072471000.html","from":{"id":"100001416272263","name":"Mai PB"},"message":"Tuần trước có một tin làm xúc động cả nước Nhật. Một người phụ nữ 40 tuổi ở Yokohama đã quên mình cứu 1 người già ngã trên đường ray tàu điện, không kể gì đến đoàn tàu đang lao về phía mình. Kết quả là người già không hề hấn gì vì được đặt ngay ngắn giữa đường ray dù đoàn tàu lướt qua ở trên, còn người phụ nữ kia thì... Ở VN hay trên thế giới cũng có những trường hợp quên mình cứu người như thế (ví dụ lao xuống sông), nhưng điều đặc biệt ở đây là nhìn thấy cái chết chắc chắn 100% trước mắt mà người phụ nữ này vẫn không màng tới, trong khi những trường hợp cứu người bình thường thì chỉ mới là \"có nguy cơ mình cũng bị nạn\" thôi. Bởi vậy đã có 1 cuộc tranh luận trong xã hội Nhât về tâm lý của người cứu nạn, rồi nên đánh giá hành động này là dũng cảm hay là cứu người mà mình chắc chết thì cũng là không nên... Tuy nhiên cuối cùng thì hôm nay NHK đưa tin là cả Thủ tướng (được đại diện bởi Chánh văn phòng Chính phủ), Tỉnh trường tỉnh Kanagawa, Thị trưởng thành phố Yokohama, và Giám đốc sở cảnh sát Yokohama đều đến viếng và tặng bằng cảm tạ (感謝状) hành động dũng cảm của người phụ nữ này.\nTheo mình thì dũng cảm là hành động tuyệt vời đáng ca tụng, nhưng 1 mạng đổi 1 mạng như vậy thì đau xót quá, chưa chắc đã nên cổ vũ.\n\nhttp://www3.nhk.or.jp/news/html/20131006/k10015072471000.html","created_time":"2013-10-06T13:33:34+0000","updated_time":"2013-10-06T16:15:08+0000","likes":{"data":{"100005087436518":{"id":"100005087436518","name":"Vũ Trịnh"},"1392762854":{"id":"1392762854","name":"Đỗ Minh Thu"},"100003758594233":{"id":"100003758594233","name":"Đặng Văn Quyết"},"100006738850876":{"id":"100006738850876","name":"Ho Tuan"},"100000249832456":{"id":"100000249832456","name":"Dung Genie"},"100004617871532":{"id":"100004617871532","name":"Tran Luong Cam Tu"},"100001723862714":{"id":"100001723862714","name":"Bo Bien Vang"},"100000022163023":{"id":"100000022163023","name":"Kafe Ore"},"100000021018532":{"id":"100000021018532","name":"Hương Nguyễn"},"100004234301106":{"id":"100004234301106","name":"Hà Kawaii"},"100004104803891":{"id":"100004104803891","name":"Hải Tiểu My"},"100003118911926":{"id":"100003118911926","name":"Trà Giang Trần"},"100002826418598":{"id":"100002826418598","name":"Harry Minji"},"1122379216":{"id":"1122379216","name":"Hà Ngô"},"100004362480675":{"id":"100004362480675","name":"Đi Tìm Thất Bại"},"100006767705219":{"id":"100006767705219","name":"Kim Liên"},"100002676859353":{"id":"100002676859353","name":"Chu Quang Viên"},"100001216203214":{"id":"100001216203214","name":"Lala Rita"},"100000027754899":{"id":"100000027754899","name":"Hoang Van Ba"},"100005887419564":{"id":"100005887419564","name":"Cười Một Mình"},"100003011417151":{"id":"100003011417151","name":"Hue Kim"},"100003005597243":{"id":"100003005597243","name":"Zany Royal"},"100001044080438":{"id":"100001044080438","name":"Huyen Vy"},"100003955066638":{"id":"100003955066638","name":"Nho'k Maruko"},"1804434883":{"id":"1804434883","name":"Duyen Le"},"100000282035510":{"id":"100000282035510","name":"Enter Max"},"100001260645727":{"id":"100001260645727","name":"Ngo Duy Son"},"100001495688011":{"id":"100001495688011","name":"Chung Kếu"},"100003814756892":{"id":"100003814756892","name":"Hai Nguyen"},"100000262070143":{"id":"100000262070143","name":"Sachiko Kam"},"100004923553810":{"id":"100004923553810","name":"Xuan KY Nguyen"},"100003107603691":{"id":"100003107603691","name":"Hoa Nắng Tháng Ba"},"100000226646981":{"id":"100000226646981","name":"My Nguyen"},"100001652646820":{"id":"100001652646820","name":"Trung Hoàng"},"100004123327271":{"id":"100004123327271","name":"Nguyễn Phương"},"100001458099624":{"id":"100001458099624","name":"Kham Pha"},"620134445":{"id":"620134445","name":"Anh Do"},"100000128764209":{"id":"100000128764209","name":"Chau Le"},"100000250256418":{"id":"100000250256418","name":"Nguyen Viet Anh"},"1146680551":{"id":"1146680551","name":"優しい なぁ"},"100004372208548":{"id":"100004372208548","name":"Neko Chan"},"100002327743510":{"id":"100002327743510","name":"Tuan Thanh"},"100002694966360":{"id":"100002694966360","name":"Gọi Giấc Mơ Về"},"100005801442456":{"id":"100005801442456","name":"An Nguyen"},"100003731623249":{"id":"100003731623249","name":"Mai Nguyen"}},"paging":{"cursors":{"after":"MTAwMDA1MDg3NDM2NTE4","before":"MTAwMDA1MDg3NDM2NTE4"},"next":"https://graph.facebook.com/229244010425617_733701029979910/likes?limit=1&summary=1&after=MTAwMDA1MDg3NDM2NTE4"},"summary":{"total_count":45}},"comments":{"data":{"733703693312977":{"id":"733703693312977","from":{"id":"100001416272263","name":"Mai PB"},"message":"Có video bên trong đó, mọi người xem nhé.","can_remove":false,"created_time":"2013-10-06T13:40:17+0000","like_count":0,"user_likes":false},"733705096646170":{"id":"733705096646170","from":{"id":"100004923553810","name":"Xuan KY Nguyen"},"message":"theo e ngi neu cuu nguoi ma van giu dc antoan cho ca 2 thi nen cuu","can_remove":false,"created_time":"2013-10-06T13:44:09+0000","like_count":1,"user_likes":false},"733712253312121":{"id":"733712253312121","from":{"id":"100004923553810","name":"Xuan KY Nguyen"},"message":"ong cu do cung rat may man,co nguoi hi sinh tinh mang de cuu minh,chac kiep truoc mac no nen kiep nay pai tra no ong cu hi","can_remove":false,"created_time":"2013-10-06T14:02:17+0000","like_count":0,"user_likes":false},"733712509978762":{"id":"733712509978762","from":{"id":"100001416272263","name":"Mai PB"},"message":"Ông cụ :-)","can_remove":false,"created_time":"2013-10-06T14:02:46+0000","like_count":0,"user_likes":false},"733727146643965":{"id":"733727146643965","from":{"id":"100001260645727","name":"Ngo Duy Son"},"message":"Quan trọng là tấm gương, chứ không phải vấn đề mạng đổi mạng.\nMột người chắc chắc phải chết, nhưng hành động của người phụ nữ lại làm rung động trái tim hàng triệu người.\nBà ấy đã cứu được hơn một mạng người rất nhiều, có thể là rất nhiều mạng người nhờ mọi người noi theo tấm gương dũng cảm ấy!","can_remove":false,"created_time":"2013-10-06T14:34:36+0000","like_count":5,"user_likes":false},"733737283309618":{"id":"733737283309618","from":{"id":"100001416272263","name":"Mai PB"},"message":"Ngo Duy Son nói đúng lắm, mình đã không nghĩ đến hiệu quả giáo dục của chuyện này.","message_tags":[{"id":"100001260645727","name":"Ngo Duy Son","type":"user","offset":0,"length":11}],"can_remove":false,"created_time":"2013-10-06T15:00:17+0000","like_count":0,"user_likes":false},"733748313308515":{"id":"733748313308515","from":{"id":"100000381394367","name":"Thành Nguyễn"},"message":"Nói trường hợp này tạo ra hiệu quả giáo dục e cũng không có sức thuyết phục. Nói chung thì ai cũng phải chết nên người ta đều mong muốn mình được chết một cách có ý nghĩa ( tức là cái chết mang lại một giá trị nào đó ). Thế nhưng một cái chết thế nào được coi là cái chết có giá trị thì tùy thuộc vào thời đại và tùy thuộc vào từng nền văn hóa mà người ta lại đánh giá khác nhau. Thường thì trong xã hội người ta thường ca ngợi những cái chết \"vì đại nghĩa\" tức là cái chết, sự hy sinh của một người đổi lại bằng việc tránh được tổn thất lớn lao cho cộng đồng xã hội hoặc là cái chết bảo vệ được giá trị đạo đức , bảo vệ được mối quan hệ truyền thống tốt đẹp được xã hội gìn giữ.","can_remove":false,"created_time":"2013-10-06T15:21:53+0000","like_count":0,"user_likes":false},"733750523308294":{"id":"733750523308294","from":{"id":"100000381394367","name":"Thành Nguyễn"},"message":"Tuy nhiên ở trường hợp này nếu phân tích ra thì không thỏa mãn những điều kiện theo tiêu chí trên, nói về trường hợp hy sinh một đổi một thì phải kể đến mấy trường hợp sau:\nHy sinh vì người thân, nếu người được cứu là người thân của người phụ nữ kia như cha mẹ, chú bác, hoặc người mà người phụ nữ đó rất yêu quý thì đó là việc bảo vệ quan hệ tình cảm gia đình, dám hy sinh bản thân mình vì người mình yêu, xưa nay những trường như vậy thì cũng rất nhiều và đều được xã hội đề cao, đưa nhiều vào phim ảnh tiểu thuyết. Những trường hợp đó những người hy sinh biết chắc mình phải chết nhưng vẫn sẵn sàng hy sinh thân mình cho người thân của họ được sống vì họ yêu quý người thân của mình hơn bản thân họ, là điều hết sức tự nhiên.","can_remove":false,"created_time":"2013-10-06T15:25:52+0000","like_count":1,"user_likes":false},"733752059974807":{"id":"733752059974807","from":{"id":"100000381394367","name":"Thành Nguyễn"},"message":"Hy sinh vì ân nhân: Thường có những chịu hơn sâu nặng với người khác, họ luôn tìm cách báo đáp nên khi gặp hiểm nguy họ xả thân vì ân nhân của mình, điều này cũng rất tự nhiên vì có đi thì có lại, có vay có trả dù là món nợ ân tình.","can_remove":false,"created_time":"2013-10-06T15:28:16+0000","like_count":0,"user_likes":false},"733756319974381":{"id":"733756319974381","from":{"id":"100000381394367","name":"Thành Nguyễn"},"message":"Hy sinh vì lãnh tụ ( hay nhân vật quan trọng ): Trong lịch sử có rất nhiều người hy sinh vì một người khác dù người kia không phải là ân nhân hay người thân của họ, ví dụ cận vệ hy sinh cho lãnh tụ, thị vệ hy sinh  để bảo vệ vua ( họ lao ra đỡ đạn hoặc chịu gươm đâm ) chúng ta xem phim thường thấy những câu \"Nước không thể không có hoàng thượng\" hay \"Nghĩa quân có thể không có Lê Lai nhưng không thể có Bình Định Vương Lê Lợi\", Kỷ tín đóng giả Lưu Bang để chết thay     etc.. Những trường hợp đó dù đối tượng được hy sinh không có những quan hệ huyết thống thân thích nhưng họ đại diện cho một quốc gia, một tổ chức một đoàn thể etc... nên khi người hy sinh chấp nhận chết thay cho người đó thực chất là anh ta gián tiếp bảo vệ vận mệnh cho quốc gia cho tổ chức, chết vì đại cục lớn hơn chứ không chết cho cá nhân, bản thân người đó biết là mình sống thì ko thể đóng góp cho tổ chức, cho cách mang, quốc gia etc... bằng nhân vật mà họ cứu sống nên họ cũng nguyện chết vì đại nghĩa.","can_remove":false,"created_time":"2013-10-06T15:33:56+0000","like_count":0,"user_likes":false},"733759236640756":{"id":"733759236640756","from":{"id":"100000381394367","name":"Thành Nguyễn"},"message":"Những trường hợp trên đều cho thấy người chết có đủ dũng cảm đối mặt với cái chết và đón nhận nó một cách tự nguyện và cái chết của họ có động cơ rất rõ ràng. Còn như trường hợp trong bài báo nếu cụ già được cứu đó không có quan hệ gì với người phụ nữ kia theo 3 trường hợp trên thì liệu phụ nữ này  thực sự có sự nhận thức rõ ràng về động cơ của mình trong việc cứu người hay không ? Mình không nghĩ là lúc cứu người lại có đủ thời gian để mà nghĩ là biết mình chết mà vẫn cứu người, giả sử người phụ nữ kia có con cái, liệu cô ấy có nghĩ rằng \"mình chắc chắn sẽ chết con mình chắc chắn mồ côi nhưng mình vẫn cứu cụ già kia vì đó là việc làm đúng đắn\" không? Liệu rằng đấy có phải chết vì việc nghĩa không? Nếu bảo mình chấp nhận chết vì việc nghĩa với người ngoài xã hội trong khi lựa chọn bất nghĩa với người trong gia đình mình ( đề người nhà đau khổ ) thì rõ ràng không tự nhiên. Còn nói cái chết ấy đổi lại bằng sự rung động của hàng triệu trái tím thì có vẻ khiên cưỡng, chẳng lẽ cô ấy nghĩ rằng mình chết sẽ làm rung động hàng triệu trái tim nên quyết định xã thân ư? Nếu có kiểu người suy nghĩ thế này thì thực chất là bị biến thái chứ không phải đạo đức cao cả gì. Cổ vũ chết cho người thân thì được chứ cổ vũ việc chết cho một người xa lạ trong khi mất mát thuộc về gia đình và người thân của mình thì là hành động biến thái. Nếu gia đình mình chịu mất mát hy sinh vì quốc gia dân tộc thì còn có lý, chứ chỉ để đổi lại việc một người xa lạ thoát chết thì là vô nghĩa.","can_remove":false,"created_time":"2013-10-06T15:39:46+0000","like_count":0,"user_likes":false},"733763143307032":{"id":"733763143307032","from":{"id":"100000381394367","name":"Thành Nguyễn"},"message":"Nếu cái chết như thế này được đề cao rồi nói là có tác dụng giáo dục xã hội thì rất nguy hiểm và sai lầm. Vì nó cổ vũ cho loại hình tâm lý bị biến thái. Nó giống như kiểu các nước XHCN hay có cách giáo dục nhi đồng từ tấm bé lúc đến trường mẫu giáo đã dạy phải kính yêu lãnh tụ, treo ảnh lãnh tụ khắp nơi. Như ở VN thì dạy những bài hát \"ai yêu nhi đồng bằng Bác Hồ Chí Minh\". Những nhân vật lớn,những vật lịch sử dù vĩ đại đến cỡ nào thì vẫn là những người xa lạ, trẻ con phải biết ông bà cha mẹ là người thân yêu nhất sau đó mới đến những người khác, Bác có vĩ đại thì để lớn có nhận thức chúng nó tự tìm hiểu tự quyết định có yêu Bác hay không, Bác vĩ đại chúng nó cũng khắc yêu chứ không thể giáo dục kiểu nhồi sọ từ bé như thế. Bằng chứng chính là khi Stalin  chết Tố  Hữu có những câu thơ như là \"Thương cha thương mẹ, thương chồng, thương mình thương một thương ông thương mười\" rất phản tự nhiên và phản giáo dục. Đa số thế hệ trẻ VN bây giờ yêu quý bác Hồ vì từ nhỏ đã được học hát như thế, mỗi lúc lớn lên lại được tích lũy sự giáo dục ăn sẵn như thế chứ đâu phải vì nghiên cứu lịch sử để thấy vai trò của HCM trong lịch sử thế nào, công lao thế nào với dân tộc ( hs VN đa số dốt sử, đấy là thực tế ).","can_remove":false,"created_time":"2013-10-06T15:48:21+0000","like_count":0,"user_likes":false},"733764299973583":{"id":"733764299973583","from":{"id":"100000381394367","name":"Thành Nguyễn"},"message":"Một sự hy sinh chỉ nên được cổ vũ khi người chết có sự nhận thức rõ ràng về động cơ và mục đích của mình mà thôi, theo mình vấn đề không phải ở chỗ hành động này có nên cổ vũ hay không vì thực ra đó là vấn đề không có thực. Người phụ nữ này xứng đáng được nêu gương vì hành động nghĩa hiệp của cô ấy nhưng hãy đánh giá nó như các hành đônhj cứu người khác như ( xã thân cứu người trong nước lũ, cứu đồng đội trong chiến tranh etc.. ) nhưng đừng tách cô ấy ra với những người đó vào bảo rằng cô ấy hơn họ ở chỗ biết chết mà vẫn cứu. Người nghĩa hiệp thì họ hành động theo thói quen nghĩa hiệp của người ta và không tính toán, chứ không ai tính toán là có chết hay không chết rồi mới hành động. Đây chỉ là cách mà giới truyền thông làm rùm beng lên để gây dư luận xã hội mà thôi.","can_remove":false,"created_time":"2013-10-06T15:51:10+0000","like_count":0,"user_likes":false},"733773776639302":{"id":"733773776639302","from":{"id":"100000381394367","name":"Thành Nguyễn"},"message":"Cái bài này làm nhớ đến vụ 1 nông dân ở Triều Tiên không cứu được con gái trong bão lũ nhưng lại cứu được \"ảnh\" lãnh tụ nên được báo chí, truyền hình đưa lên đài ca ngợi. Ai cũng thấy người Triều Tiên được giáo dục nhồi sọ khiến cho tâm lý trở nên biến thái, cái đó dễ nhận ra vì người ta đều có cái nhìn chung về Triều Tiên thế nào. Còn Nhật ai cũng nghĩ là văn minh, cái gì cũng hay cũng đáng học, nhưng thực tế mình thấy Nhật rất nhiều cái hay nhưng cái dở không hề ít, nhiều thứ cũng rất biến thái. Nếu không phải làm sao người Nhật tự sát nhiều như vậy. Cần cảnh giác khi đánh giá về cái hay cái dở của người Nhật.","can_remove":false,"created_time":"2013-10-06T16:15:08+0000","like_count":1,"user_likes":false}},"paging":{"cursors":{"after":"NzMzNzAzNjkzMzEyOTc3","before":"NzMzNzAzNjkzMzEyOTc3"},"next":"https://graph.facebook.com/229244010425617_733701029979910/comments?limit=1&summary=1&after=NzMzNzAzNjkzMzEyOTc3"},"summary":{"order":"chronological","total_count":14}}}