{"id":"229244010425617_734169119933101","type":"status","from":{"id":"100001754136107","name":"Nguyễn Tuấn Vũ"},"message":"Hôm qua mình đi tham dự lễ hội, thấy cái này hay hay. Ko biết có ai biết về nét văn hoá này ko. Mong đc chỉ dạy","created_time":"2013-10-07T09:47:11+0000","updated_time":"2013-10-08T11:54:35+0000","likes":{"data":{"100002327743510":{"id":"100002327743510","name":"Tuan Thanh"},"1821970083":{"id":"1821970083","name":"Nguyễn Mạnh Cường"},"100001458099624":{"id":"100001458099624","name":"Kham Pha"},"100002508122689":{"id":"100002508122689","name":"Vũ Mạnh Tuấn"},"100002424123619":{"id":"100002424123619","name":"Le Luong"}},"paging":{"cursors":{"after":"MTAwMDAyMzI3NzQzNTEw","before":"MTAwMDAyMzI3NzQzNTEw"},"next":"https://graph.facebook.com/229244010425617_734169119933101/likes?limit=1&summary=1&after=MTAwMDAyMzI3NzQzNTEw"},"summary":{"total_count":6}},"comments":{"data":{"734173379932675":{"id":"734173379932675","from":{"id":"100001695345798","name":"Tyn Aki"},"message":"Vũ thấy hay điểm nào?","can_remove":false,"created_time":"2013-10-07T09:57:10+0000","like_count":0,"user_likes":false},"734179966598683":{"id":"734179966598683","from":{"id":"100001754136107","name":"Nguyễn Tuấn Vũ"},"message":"Tyn Aki: t thấy nó xếp thành hàng đẹp","message_tags":[{"id":"100001695345798","name":"Tyn Aki","type":"user","offset":0,"length":7}],"can_remove":false,"created_time":"2013-10-07T10:15:59+0000","like_count":1,"user_likes":false},"734257663257580":{"id":"734257663257580","from":{"id":"100001416272263","name":"Mai PB"},"message":"Treo đèn ở lễ hội chứ văn hóa gì khác nữa? Còn các chữ ở trên đèn là đơn vị tài trợ nhé.","can_remove":false,"created_time":"2013-10-07T13:51:07+0000","like_count":0,"user_likes":false},"734262766590403":{"id":"734262766590403","from":{"id":"100001754136107","name":"Nguyễn Tuấn Vũ"},"message":"Mai PB: nhiều khi e nghĩ nó phức tạp lắm, văn hoá lắm a ak","message_tags":[{"id":"100001416272263","name":"Mai PB","type":"user","offset":0,"length":6}],"can_remove":false,"created_time":"2013-10-07T14:04:25+0000","like_count":0,"user_likes":false},"734264223256924":{"id":"734264223256924","from":{"id":"100001416272263","name":"Mai PB"},"message":"Thế thì phải làm quen với một ông già nào đó ở Hakata, chứ chỉ quen với các cô nàng Canal City thì không thể biết đâu.","can_remove":false,"created_time":"2013-10-07T14:07:51+0000","like_count":2,"user_likes":false},"734273073256039":{"id":"734273073256039","from":{"id":"100001416272263","name":"Mai PB"},"message":"Nguyễn Tuấn Vũ phải cái matsuri này không? http://www.j-medix.com/blog/hukuoka/10719.html","message_tags":[{"id":"100001754136107","name":"Nguyễn Tuấn Vũ","type":"user","offset":0,"length":14}],"can_remove":false,"created_time":"2013-10-07T14:29:10+0000","like_count":0,"user_likes":false},"734605796556100":{"id":"734605796556100","from":{"id":"100001695345798","name":"Tyn Aki"},"message":"お金だしてくれた会社の名前だねー (*´∀｀*)  \n特に意味は無いよー。\n「この会社がお祭を手伝ってくれました」っていう、宣伝みたいなものだね (*´∀｀*)","can_remove":false,"created_time":"2013-10-08T06:33:00+0000","like_count":1,"user_likes":false},"734705036546176":{"id":"734705036546176","from":{"id":"100001416272263","name":"Mai PB"},"message":"Hôm nay SN có khác","can_remove":false,"created_time":"2013-10-08T11:49:57+0000","like_count":1,"user_likes":false},"734705386546141":{"id":"734705386546141","from":{"id":"100001754136107","name":"Nguyễn Tuấn Vũ"},"message":"Mai PB: ko phải a ak, ở dưới itoshima cơ :D","message_tags":[{"id":"100001416272263","name":"Mai PB","type":"user","offset":0,"length":6}],"can_remove":false,"created_time":"2013-10-08T11:50:54+0000","like_count":0,"user_likes":false},"734706993212647":{"id":"734706993212647","from":{"id":"100001416272263","name":"Mai PB"},"message":"Thấy mấy cái đèn ở đó giống hệt, cũng chỉ gọi là 提灯 như bình thường thôi, nên chắc không có ý nghĩa đặc biệt gì.","can_remove":false,"created_time":"2013-10-08T11:54:35+0000","like_count":1,"user_likes":false}},"paging":{"cursors":{"after":"NzM0MTczMzc5OTMyNjc1","before":"NzM0MTczMzc5OTMyNjc1"},"next":"https://graph.facebook.com/229244010425617_734169119933101/comments?limit=1&summary=1&after=NzM0MTczMzc5OTMyNjc1"},"summary":{"order":"chronological","total_count":10}}}