{"id":"229244010425617_734313669918646","type":"photo","object_id":"451679991616400","picture":"https://fbcdn-photos-a-a.akamaihd.net/hphotos-ak-frc3/t1.0-0/1238243_451679991616400_1786228066_s.jpg","link":"https://www.facebook.com/photo.php?fbid=451679991616400&set=gm.734313669918646&type=1&relevant_count=1","from":{"id":"100003232093086","name":"Vo Danh"},"message":"Bạn thích loại Flashcards Kanji nào nhất ?\n...........................................\nChi tiết nội dung  Flashcards các bạn xem tại: https://www.facebook.com/pages/Japanese-Flashcards/565267773509213?ref=hl","created_time":"2013-10-07T16:02:06+0000","updated_time":"2013-10-08T02:36:57+0000","likes":{"data":{"100000292250041":{"id":"100000292250041","name":"Nguyễn Thanh Tùng"}},"paging":{"cursors":{"after":"MTAwMDAwMjkyMjUwMDQx","before":"MTAwMDAwMjkyMjUwMDQx"}},"summary":{"total_count":1}},"comments":{"data":{"734327949917218":{"id":"734327949917218","from":{"id":"1376232495","name":"Út Lê"},"message":"anh ơi, em muốn mua 1 bộ 5lv bìa màu loại 150msg thì tổng tiền là 30.000x5 hả anh.ko có order à anh :(","can_remove":false,"created_time":"2013-10-07T16:35:50+0000","like_count":0,"user_likes":false},"734536993229647":{"id":"734536993229647","from":{"id":"100006089102969","name":"カメ 悪い"},"message":"5 lvl là thế nào ? \nN1 n2 n3 n4 n5 ?","can_remove":false,"created_time":"2013-10-08T02:36:25+0000","like_count":0,"user_likes":false},"734537173229629":{"id":"734537173229629","from":{"id":"100006089102969","name":"カメ 悪い"},"message":"Đỗ Hoạt em ơi xem mua dc bộ này ko mua giùm anh 2 bộ :3","message_tags":[{"id":"100003282907883","name":"Đỗ Hoạt","type":"user","offset":0,"length":7}],"can_remove":false,"created_time":"2013-10-08T02:36:57+0000","like_count":0,"user_likes":false}},"paging":{"cursors":{"after":"NzM0MzI3OTQ5OTE3MjE4","before":"NzM0MzI3OTQ5OTE3MjE4"},"next":"https://graph.facebook.com/229244010425617_734313669918646/comments?limit=1&summary=1&after=NzM0MzI3OTQ5OTE3MjE4"},"summary":{"order":"chronological","total_count":3}}}