{"id":"229244010425617_734789343204412","type":"video","picture":"https://fbexternal-a.akamaihd.net/safe_image.php?d=AQD0unwRPrdOHFj_&w=130&h=130&url=http%3A%2F%2Fi1.ytimg.com%2Fvi%2FoTKTYWlYofs%2Fmaxresdefault.jpg%3Ffeature%3Dog","link":"https://www.youtube.com/watch?v=oTKTYWlYofs","source":"http://www.youtube.com/v/oTKTYWlYofs?autohide=1&version=3&autoplay=1","from":{"id":"100001416272263","name":"Mai PB"},"message":"Giải trí cuối ngày nha. :-)  ENDLESS RAIN, một trong những tuyệt phẩm (nghe hơi \"hải ngoại\" nhỉ?) của X JAPAN.\n\nMình đang có một âm mưu là tăng số lượng fan của X ở VN đủ lớn để X cũng đến VN trong world live tour của mình. :-)\n\nhttps://www.youtube.com/watch?v=oTKTYWlYofs","created_time":"2013-10-08T14:12:38+0000","updated_time":"2013-10-10T15:10:23+0000","likes":{"data":{"100002327743510":{"id":"100002327743510","name":"Tuan Thanh"},"100001723862714":{"id":"100001723862714","name":"Bo Bien Vang"},"1828906841":{"id":"1828906841","name":"Trọng Nghĩa Bùi"},"100004973283998":{"id":"100004973283998","name":"Hoai Dang"}},"paging":{"cursors":{"after":"MTAwMDAyMzI3NzQzNTEw","before":"MTAwMDAyMzI3NzQzNTEw"},"next":"https://graph.facebook.com/229244010425617_734789343204412/likes?limit=1&summary=1&after=MTAwMDAyMzI3NzQzNTEw"},"summary":{"total_count":4}},"comments":{"data":{"734800479869965":{"id":"734800479869965","from":{"id":"100001416272263","name":"Mai PB"},"message":"Xuân Kaká bản này đúng không? Cảm động hơn đối với fan, nhưng âm thanh không tốt bằng bản trên nên mình không chọn. https://www.youtube.com/watch?v=ztvMwmPaByg","message_tags":[{"id":"100003055440673","name":"Xuân Kaká","type":"user","offset":0,"length":9}],"can_remove":false,"created_time":"2013-10-08T14:36:54+0000","like_count":2,"user_likes":false},"735948433088503":{"id":"735948433088503","from":{"id":"100004889430124","name":"Quiet Man"},"message":"Hôm nay là sinh nhật lần thứ 48 của Toshi (tên thật ToshimitsU Deyama), vocalist cũng như thành viên đồng sáng lập ban nhạc heavy metal nổi tiếng của Nhật Bản X-Japan.","can_remove":false,"created_time":"2013-10-10T15:10:23+0000","like_count":1,"user_likes":false}},"paging":{"cursors":{"after":"NzM0ODAwNDc5ODY5OTY1","before":"NzM0ODAwNDc5ODY5OTY1"},"next":"https://graph.facebook.com/229244010425617_734789343204412/comments?limit=1&summary=1&after=NzM0ODAwNDc5ODY5OTY1"},"summary":{"order":"chronological","total_count":2}}}