{"id":"229244010425617_735674033115943","type":"photo","object_id":"303795803096193","picture":"https://fbcdn-photos-f-a.akamaihd.net/hphotos-ak-ash4/t1.0-0/1384142_303795803096193_403934668_s.jpg","link":"https://www.facebook.com/photo.php?fbid=303795803096193&set=pcb.735674033115943&type=1&relevant_count=2","from":{"id":"100003973288267","name":"Duhoc Vieclam Nhật Bản"},"message":"Tuyển gấp 100 nam làm nông nghiệp tại HIROSHIMA phí 1200$\nyêu cầu:\nTuổi từ 19-35.\nCao từ 162cm trở lên\ntrình độ: tốt nghiệp cấp 2 trở lên.\nKhông cần thi tuyển, chỉ cần gửi hồ sơ.\nThu nhập tối thiểu từ 15-20 man/tháng.\nThời gian hợp đồng 8 tháng.\nThông tin chi tiết vui lòng liên hệ: Mr. Tiến: 0976 470 886","created_time":"2013-10-10T03:47:55+0000","updated_time":"2013-10-10T14:51:39+0000","likes":{"data":{"100003152981062":{"id":"100003152981062","name":"BichLien Dinh"},"100006709480567":{"id":"100006709480567","name":"Le Minh"},"100004315807280":{"id":"100004315807280","name":"Winny Son"},"100002805246239":{"id":"100002805246239","name":"Hoàng Hiếu"},"100004716640495":{"id":"100004716640495","name":"Thúy An Dương"},"100003888576324":{"id":"100003888576324","name":"Nguyen Quan"},"100000494993512":{"id":"100000494993512","name":"Nguyễn Văn CHiến"},"100000639075483":{"id":"100000639075483","name":"Thao Nh"},"100000022163023":{"id":"100000022163023","name":"Kafe Ore"},"100005738132651":{"id":"100005738132651","name":"Ti Ti"},"100006767705219":{"id":"100006767705219","name":"Kim Liên"},"100003143578550":{"id":"100003143578550","name":"Vn Tim"},"100002157379029":{"id":"100002157379029","name":"Nguyen Hai Dung"}},"paging":{"cursors":{"after":"MTAwMDAzMTUyOTgxMDYy","before":"MTAwMDAzMTUyOTgxMDYy"},"next":"https://graph.facebook.com/229244010425617_735674033115943/likes?limit=1&summary=1&after=MTAwMDAzMTUyOTgxMDYy"},"summary":{"total_count":13}},"comments":{"data":{"735675293115817":{"id":"735675293115817","from":{"id":"100002157379029","name":"Nguyen Hai Dung"},"message":"本当かな","can_remove":false,"created_time":"2013-10-10T03:51:53+0000","like_count":0,"user_likes":false},"735680113115335":{"id":"735680113115335","from":{"id":"100003634822576","name":"Jessica Lam Phuong"},"message":"Sao có 8 tháng làm gì","can_remove":false,"created_time":"2013-10-10T03:59:47+0000","like_count":0,"user_likes":false},"735683929781620":{"id":"735683929781620","from":{"id":"100000075052330","name":"Quelam Huynh"},"message":"đi ít vậy?nữ đi có dc hok? chi phi đi het bao nhieu vay?","can_remove":false,"created_time":"2013-10-10T04:10:38+0000","like_count":0,"user_likes":false},"735684873114859":{"id":"735684873114859","from":{"id":"100001284703208","name":"Ba Duy"},"message":"Cẩn thận khi đăng ký nhé mọi người !","can_remove":false,"created_time":"2013-10-10T04:13:26+0000","like_count":1,"user_likes":false},"735687166447963":{"id":"735687166447963","from":{"id":"100003634822576","name":"Jessica Lam Phuong"},"message":"Phí 1200 là nghi rồi","can_remove":false,"created_time":"2013-10-10T04:21:14+0000","like_count":0,"user_likes":false},"735689293114417":{"id":"735689293114417","from":{"id":"100003973288267","name":"Duhoc Vieclam Nhật Bản"},"message":"Jessica Lam Phuong vì họ tuyển làm thời vụ thôi bạn ah.\nQuelam Huynh hợp đồng như vậy mình ko có quyền tăng thêm bạn ah. Yêu cầu và chi phí mình đã ghi rõ rồi bạn, đọc kỹ nhé.\nBa Duy, Jessica Lam Phuong : các bạn nghi ngại điều gì? vì hợp đồng ngắn quá hay vì phí thấp quá so với mức 7000- 8000$ kia?\nĐơn giản đây là đơn hàng có thời gian ngắn nên phí phải thấp thôi. Nếu cao như đơn hàng 3 năm thì ai ngu gì đi! Mặt khác, họ tuyển nhiều, công việc đơn giản là thu hoạch nông sản thì phải hạ tiêu chí tuyển chọn rồi.\nCác bạn cứ tỏ ra nguy hiểm quá, mình sợ!","message_tags":[{"id":"100003634822576","name":"Jessica Lam Phuong","type":"user","offset":0,"length":18},{"id":"100000075052330","name":"Quelam Huynh","type":"user","offset":56,"length":12},{"id":"100001284703208","name":"Ba Duy","type":"user","offset":176,"length":6}],"can_remove":false,"created_time":"2013-10-10T04:27:29+0000","like_count":3,"user_likes":false},"735695493113797":{"id":"735695493113797","from":{"id":"100003634822576","name":"Jessica Lam Phuong"},"message":"Hết 8 tháng có dc gia hạn ko","can_remove":false,"created_time":"2013-10-10T04:44:06+0000","like_count":0,"user_likes":false},"735705143112832":{"id":"735705143112832","from":{"id":"100005387894580","name":"Hien Bui"},"message":"Trinh do tieng n may thi di dk vay","can_remove":false,"created_time":"2013-10-10T05:15:52+0000","like_count":0,"user_likes":false},"735710003112346":{"id":"735710003112346","from":{"id":"100003973288267","name":"Duhoc Vieclam Nhật Bản"},"message":"Jessica Lam Phuong nếu còn việc thì có thể gian hạn thêm 1-2 tháng thôi bạn ah","message_tags":[{"id":"100003634822576","name":"Jessica Lam Phuong","type":"user","offset":0,"length":18}],"can_remove":false,"created_time":"2013-10-10T05:29:39+0000","like_count":0,"user_likes":false},"735710139778999":{"id":"735710139778999","from":{"id":"100003973288267","name":"Duhoc Vieclam Nhật Bản"},"message":"Không yêu cầu trình độ tiếng bạn Hien Bui ah, sau khi trúng tuyển cty sẽ đao tạo miễn phí cho bạn","message_tags":[{"id":"100005387894580","name":"Hien Bui","type":"user","offset":33,"length":8}],"can_remove":false,"created_time":"2013-10-10T05:30:08+0000","like_count":0,"user_likes":false},"735710913112255":{"id":"735710913112255","from":{"id":"100003634822576","name":"Jessica Lam Phuong"},"message":"Mình ở tận đà nẵng","can_remove":false,"created_time":"2013-10-10T05:32:12+0000","like_count":1,"user_likes":false},"735717116444968":{"id":"735717116444968","from":{"id":"100000022163023","name":"Kafe Ore"},"message":"Không tuyển Nữ ah bạn ?? :((","can_remove":false,"created_time":"2013-10-10T05:41:51+0000","like_count":1,"user_likes":false},"735717893111557":{"id":"735717893111557","from":{"id":"100003973288267","name":"Duhoc Vieclam Nhật Bản"},"message":"Khi nào có mình sẽ báo nhé Kafe Ore","message_tags":[{"id":"100000022163023","name":"Kafe Ore","type":"user","offset":27,"length":8}],"can_remove":false,"created_time":"2013-10-10T05:42:54+0000","like_count":0,"user_likes":false},"735719443111402":{"id":"735719443111402","from":{"id":"100003634822576","name":"Jessica Lam Phuong"},"message":"Khi nào đi vậy bạn,mà lương đó có tiền nhà và ăn uống ko","can_remove":false,"created_time":"2013-10-10T05:46:54+0000","like_count":0,"user_likes":false},"735724113110935":{"id":"735724113110935","from":{"id":"100003973288267","name":"Duhoc Vieclam Nhật Bản"},"message":"thu nhập đó chưa trừ tiền ăn và tiền nhà. Tuy nhiên 2 khoản này ko nhiều vì cv của các bạn là thu hoạch nông sản nên xin chủ rau quả cg đỡ nhiều. tiền nhà ở nông thôn ngoại thành nên ko cao","can_remove":false,"created_time":"2013-10-10T06:00:17+0000","like_count":0,"user_likes":false},"735734083109938":{"id":"735734083109938","from":{"id":"100001248140499","name":"לאָק נגויען"},"message":"1m60 dc ko","can_remove":false,"created_time":"2013-10-10T06:25:20+0000","like_count":0,"user_likes":false},"735739249776088":{"id":"735739249776088","from":{"id":"100003973288267","name":"Duhoc Vieclam Nhật Bản"},"message":"Mình ngoài Hà Nội bạn nhé","can_remove":false,"created_time":"2013-10-10T06:42:07+0000","like_count":0,"user_likes":false},"735742456442434":{"id":"735742456442434","from":{"id":"100003634822576","name":"Jessica Lam Phuong"},"message":"Khó khăn về mặt địa lý nhỉ","can_remove":false,"created_time":"2013-10-10T06:57:47+0000","like_count":0,"user_likes":false},"735742626442417":{"id":"735742626442417","from":{"id":"100000277882542","name":"Thedhxd Nguyen"},"message":"nếu đạt hồ sơ thì bao giờ đi vậy?","can_remove":false,"created_time":"2013-10-10T06:58:39+0000","like_count":0,"user_likes":false},"735745573108789":{"id":"735745573108789","from":{"id":"100004975085302","name":"Viet Anh Vu"},"message":"minh co dua em muon sang Nhat xuat khau, ban co trang ca nhan facebook share cho moi nguoi tin tuong chut di :)","can_remove":false,"created_time":"2013-10-10T07:11:15+0000","like_count":0,"user_likes":false},"735757426440937":{"id":"735757426440937","from":{"id":"100003973288267","name":"Duhoc Vieclam Nhật Bản"},"message":"Tháng 3 xuất cảnh nhé các bạn.\nCông việc là công việc, cá nhân là cá nhân mình ko muốn dính dáng đến nhau vì nhiều lý do,mong bạn thông cảm. nếu muốn liên lạc với mình cứ gọi điện hoặc đến trực tiếp công ty gặp mình nhé. \nRất mong được tiếp mọi người ở công ty!","can_remove":false,"created_time":"2013-10-10T07:53:25+0000","like_count":0,"user_likes":false},"735772776439402":{"id":"735772776439402","from":{"id":"100000277882542","name":"Thedhxd Nguyen"},"message":"người lao động ngoài chi phí 1200usd còn phải chi phí gì nữa không?, ví dụ tiền sinh hoạt,học phí,vé máy bay, bảo hiểm...?","can_remove":false,"created_time":"2013-10-10T08:35:59+0000","like_count":0,"user_likes":false},"735777789772234":{"id":"735777789772234","from":{"id":"100003973288267","name":"Duhoc Vieclam Nhật Bản"},"message":"ngoài đó bạn nộp tiền ở KTX trong thời gian học tiếng khaong 600k/tháng nhé, học khoảng 3-4 tháng","can_remove":false,"created_time":"2013-10-10T08:49:29+0000","like_count":0,"user_likes":false},"735788599771153":{"id":"735788599771153","from":{"id":"100004130556584","name":"Khuong Tung"},"message":"dung la dang nam mo phi di it vay ma luong tu 15 den 20 man .co noi wa ko vay ?","can_remove":false,"created_time":"2013-10-10T09:25:24+0000","like_count":0,"user_likes":false},"735788686437811":{"id":"735788686437811","from":{"id":"100004130556584","name":"Khuong Tung"},"message":"chac 1 ngay lam 24 tieng ak ?","can_remove":false,"created_time":"2013-10-10T09:25:41+0000","like_count":0,"user_likes":false},"735803156436364":{"id":"735803156436364","from":{"id":"100001284703208","name":"Ba Duy"},"message":"Rõ ràng và Cẩn thận các bạn nhé !","can_remove":false,"created_time":"2013-10-10T10:07:04+0000","like_count":0,"user_likes":false},"735805909769422":{"id":"735805909769422","from":{"id":"100003973288267","name":"Duhoc Vieclam Nhật Bản"},"message":"cac bạn đọc kỹ là thu nhập và đi 8 tháng thôi chứ ko phải 3 năm. Các bạn đọc ko kỹ nên cứ phản ứng ko hay","can_remove":false,"created_time":"2013-10-10T10:13:11+0000","like_count":0,"user_likes":false},"735811073102239":{"id":"735811073102239","from":{"id":"100003634822576","name":"Jessica Lam Phuong"},"message":"Mình ở tận đà nẵng mà cty thì ở hn chả biết sao","can_remove":false,"created_time":"2013-10-10T10:30:05+0000","like_count":0,"user_likes":false},"735837006432979":{"id":"735837006432979","from":{"id":"100002805246239","name":"Hoàng Hiếu"},"message":"Bạn oi minh o tokyo dang di học tu ga shinzocu đến đó có xa ko ban","can_remove":false,"created_time":"2013-10-10T11:19:42+0000","like_count":0,"user_likes":false},"735843729765640":{"id":"735843729765640","from":{"id":"100004130556584","name":"Khuong Tung"},"message":"xa lam","can_remove":false,"created_time":"2013-10-10T11:37:52+0000","like_count":0,"user_likes":false},"735843829765630":{"id":"735843829765630","from":{"id":"100004130556584","name":"Khuong Tung"},"message":"di shin cung phai 4h do","can_remove":false,"created_time":"2013-10-10T11:38:12+0000","like_count":0,"user_likes":false},"735860756430604":{"id":"735860756430604","from":{"id":"100003662422191","name":"Lê Hải"},"message":"luong cao the","can_remove":false,"created_time":"2013-10-10T12:17:31+0000","like_count":0,"user_likes":false},"735883249761688":{"id":"735883249761688","from":{"id":"100006248618563","name":"Momi Zi"},"message":"muốn biết rõ ràng thì.\"hợp đồng\"","can_remove":false,"created_time":"2013-10-10T13:06:09+0000","like_count":0,"user_likes":false},"735931283090218":{"id":"735931283090218","from":{"id":"100003814756892","name":"Hai Nguyen"},"message":"Kham Pha   xem e với ạ","message_tags":[{"id":"100001458099624","name":"Kham Pha","type":"user","offset":0,"length":8}],"can_remove":false,"created_time":"2013-10-10T14:35:43+0000","like_count":0,"user_likes":false},"735932203090126":{"id":"735932203090126","from":{"id":"100001458099624","name":"Kham Pha"},"message":"ủa em đi cái này làm gì? đi học chứ sao lại đi làm. Làm thế kia sau 8 tháng ko ở lại làm tiếp chắc chỉ hòa vốn đem về.","can_remove":false,"created_time":"2013-10-10T14:37:39+0000","like_count":1,"user_likes":false},"735933729756640":{"id":"735933729756640","from":{"id":"100003814756892","name":"Hai Nguyen"},"message":"ko ạ. e chỉ hỏi giúp bạn thôi ạ.","can_remove":false,"created_time":"2013-10-10T14:40:55+0000","like_count":0,"user_likes":false},"735939086422771":{"id":"735939086422771","from":{"id":"100003973288267","name":"Duhoc Vieclam Nhật Bản"},"message":"8 tháng mà làm được 1200$ thì thà ở VN làm gần vợ gần con cho rồi. Người tuyển chúng tôi cũng nhận thấy điều đó chứ! Các bạn đọc kỹ và nghĩ kỹ trước khi nói nhé!","can_remove":false,"created_time":"2013-10-10T14:51:39+0000","like_count":0,"user_likes":false}},"paging":{"cursors":{"after":"NzM1Njc1MjkzMTE1ODE3","before":"NzM1Njc1MjkzMTE1ODE3"},"next":"https://graph.facebook.com/229244010425617_735674033115943/comments?limit=1&summary=1&after=NzM1Njc1MjkzMTE1ODE3"},"summary":{"order":"chronological","total_count":37}}}