{"id":"229244010425617_735726549777358","type":"link","picture":"https://fbexternal-a.akamaihd.net/safe_image.php?d=AQAa0bOOPvrPBgz8&w=154&h=154&url=http%3A%2F%2Fimgs.vietnamnet.vn%2FImages%2Fvnn%2F2013%2F10%2F09%2F16%2F20131009162319-mt1-top.JPG%3Fw%3D400%26h%3D300","link":"http://vietnamnet.vn/vn/chinh-tri/144018/hinh-anh-cam-dong-o-duong-hoang-dieu.html","from":{"id":"100003973288267","name":"Duhoc Vieclam Nhật Bản"},"message":"http://vietnamnet.vn/vn/chinh-tri/144018/hinh-anh-cam-dong-o-duong-hoang-dieu.html\nLâu lắm rồi tôi mới thấy một Việt Nam như thế, đoàn kết, đùm bọc yêu thương nhau chứ không vô cảm nữa!\nNgàn lần cảm ơn cụ Đại tướng!","created_time":"2013-10-10T06:04:13+0000","updated_time":"2013-10-11T12:00:04+0000","likes":{"data":{"100005566321381":{"id":"100005566321381","name":"Bin Lee"},"100006767705219":{"id":"100006767705219","name":"Kim Liên"},"100001826289419":{"id":"100001826289419","name":"Hana Sakura"},"100006471014750":{"id":"100006471014750","name":"Nga Bếu"},"100001541536632":{"id":"100001541536632","name":"Viet Do"},"100001458099624":{"id":"100001458099624","name":"Kham Pha"},"100002508122689":{"id":"100002508122689","name":"Vũ Mạnh Tuấn"},"100001754136107":{"id":"100001754136107","name":"Nguyễn Tuấn Vũ"},"100001416272263":{"id":"100001416272263","name":"Mai PB"},"100000293174570":{"id":"100000293174570","name":"Vịt Vụng Về"},"100003205024849":{"id":"100003205024849","name":"Thanh Do Nguyen"},"100004061761057":{"id":"100004061761057","name":"Nguyễn Bảo Thơ"},"100005738132651":{"id":"100005738132651","name":"Ti Ti"},"100005478454231":{"id":"100005478454231","name":"Maruko Chan"},"100005801442456":{"id":"100005801442456","name":"An Nguyen"},"100004716640495":{"id":"100004716640495","name":"Thúy An Dương"},"100004536125153":{"id":"100004536125153","name":"Hoàng Đàn"}},"paging":{"cursors":{"after":"MTAwMDA1NTY2MzIxMzgx","before":"MTAwMDA1NTY2MzIxMzgx"},"next":"https://graph.facebook.com/229244010425617_735726549777358/likes?limit=1&summary=1&after=MTAwMDA1NTY2MzIxMzgx"},"summary":{"total_count":17}},"comments":{"data":{"736391593044187":{"id":"736391593044187","from":{"id":"100000293174570","name":"Vịt Vụng Về"},"message":"Việt Nam vẫn vậy, truyền thống của ta là thế, và tôi luôn có lòng tin.","can_remove":false,"created_time":"2013-10-11T07:48:41+0000","like_count":0,"user_likes":false},"736409453042401":{"id":"736409453042401","from":{"id":"100001416272263","name":"Mai PB"},"message":"Giá mà VN luôn luôn đoàn kết, đùm bọc yêu thương nhau thì còn tốt hơn nữa. Mong sao đây là dịp để toàn dân nhìn lại mình.","can_remove":false,"created_time":"2013-10-11T08:58:03+0000","like_count":1,"user_likes":false},"736423716374308":{"id":"736423716374308","from":{"id":"100006687010442","name":"Thịt Gà Luộc"},"message":"tôi thấy dân VN mình chưa bao giờ hết đoàn kết và yêu thương nhau!","can_remove":false,"created_time":"2013-10-11T09:50:01+0000","like_count":0,"user_likes":false},"736434629706550":{"id":"736434629706550","from":{"id":"100001458099624","name":"Kham Pha"},"message":"Nhưng người ta sẵn sàng dùng hóa chất tẩy thịt thiu, đánh tráo kết quả xét nghiệm, đổ nước thải ra sông hồ.. hại chết đồng bào mình. Đoàn kết và yêu thương nhau ko thể nói bằng lời được, phải có học vấn, dân trí tốt mới làm được.","can_remove":false,"created_time":"2013-10-11T10:22:01+0000","like_count":2,"user_likes":false},"736437336372946":{"id":"736437336372946","from":{"id":"100001416272263","name":"Mai PB"},"message":"Thịt Gà Luộc mình thấy bạn lạc quan, hoặc là bạn ít va chạm xã hội. Mình mới đọc thông tin này và muốn chia sẻ với bạn.\nhttps://www.facebook.com/huy.doan.7169/posts/10152717795284460","message_tags":[{"id":"100006687010442","name":"Thịt Gà Luộc","type":"user","offset":0,"length":12}],"can_remove":false,"created_time":"2013-10-11T10:26:33+0000","like_count":0,"user_likes":false},"736444566372223":{"id":"736444566372223","from":{"id":"100000381394367","name":"Thành Nguyễn"},"message":"Nói về lòng yêu nước tinh thần đoàn kết với nhau của người VN thì nó đã được hình tượng hóa và gửi gắm vào trong 1 nhân vật đó là Thánh Gióng, Thánh Gióng là chính là lòng yêu nước của con người Việt nam, chỉ có điều lúc bình thường nó chỉ là đứa trẻ không biết nói biết cười ( biểu hiện ra rất tiêu cực, còn kém cả mức bình thường ). Nhưng khi đất nước lâm nguy thì lòng yêu nước ( tinh thần đoàn kết yêu thương nhau ) phát triển rất nhanh chóng ( chỉ trong một ngày Gióng từ thằng bé đã trở thành chàng trai to lớn ). Việc bà cơm cô bác góp cơm cho Gióng ăn, may quần áo cho Gióng mặc chính là biểu hiện của tinh thần đoàn kết ấy. Có điều là sau khi đánh giặc xong \"ông Bèn :D\" bay về trời. Các Gióng khác lần lượt ra đời, và vẫn cứ là đứa trẻ ốm yếu què quặt ( nên chúng ta mới có đủ thứ kiểu người Việt đầu độc hại nhau, hành nhau, xung đột lợi ích nhau trong cuộc sống ) vì lúc đó đang ở trạng thái đứa trẻ không trưởng thành. Chỉ lúc nguy cấp mới trưởng thành, đáng tiếc.","can_remove":false,"created_time":"2013-10-11T10:48:18+0000","like_count":0,"user_likes":false},"736445409705472":{"id":"736445409705472","from":{"id":"100006687010442","name":"Thịt Gà Luộc"},"message":"những trường hợp đó chỉ là con sâu làm hư nồi canh thôi anh Mai PB, không thể nhìn một vài con người này mà đánh giá cả một thế hệ người VN được phải không ạ! những tư tưởng trăn trở cho đất nước của mọi người thì đáng trân trọng và ngẫm nghĩ, nhưng thiết nghĩ chúng ta nên hiểu đúng, bàn luận đúng! vì một VN tốt đẹp hơn!","message_tags":[{"id":"100001416272263","name":"Mai PB","type":"user","offset":60,"length":6}],"can_remove":false,"created_time":"2013-10-11T10:50:43+0000","like_count":0,"user_likes":false},"736446029705410":{"id":"736446029705410","from":{"id":"100001458099624","name":"Kham Pha"},"message":"Thực ra theo mình thấy phẩm chất đoàn kết yêu thương nhau ấy thì không phải mỗi VN mình cũng có đâu, các dân tộc khác cũng chẳng kém gì. Cái mà ai cũng có thì mình có cũng đâu có gì to tát. Nếu không thì đưa thử ví dụ xem dân tộc nào không đoàn kết thì mình sẽ tin :D","can_remove":false,"created_time":"2013-10-11T10:52:42+0000","like_count":0,"user_likes":false},"736447199705293":{"id":"736447199705293","from":{"id":"100006687010442","name":"Thịt Gà Luộc"},"message":"Kham Pha  bạn nói đoàn kết và yêu thương nhau phải có học vấn mới làm được sao, bạn nói như vậy vô hình chung ng khác đọc sẽ nghĩ là k có học vẫn thì khó mà biết đoàn kết và yêu thương nhau. bạn nên đọc lại lịch sử VN.","message_tags":[{"id":"100001458099624","name":"Kham Pha","type":"user","offset":0,"length":8}],"can_remove":false,"created_time":"2013-10-11T10:56:06+0000","like_count":0,"user_likes":false},"736449096371770":{"id":"736449096371770","from":{"id":"100001458099624","name":"Kham Pha"},"message":"người Việt Nam trong lịch sử đoàn kết lại là để đánh giặc ngoại xâm, đó là điều tất yếu vì không hiệp sức sẽ chết. Còn thời bình ko thấy chỗ nào nói về sự đoàn kết và yêu thương nhau, nếu có bạn có thể đưa ra ví dụ, mình sẽ nghe. \nTheo mình, sống trong thời bình con người ta biết hợp tác làm việc với nhau mới gọi là đoàn kết. Cái đó thì cần một trình độ dân trí tốt mới làm được. Sự thật là người Việt làm việc nhóm rất kém, đó chẳng nói lên cái gì về đoàn kết cả.","can_remove":false,"created_time":"2013-10-11T11:02:09+0000","like_count":0,"user_likes":false},"736449136371766":{"id":"736449136371766","from":{"id":"100000381394367","name":"Thành Nguyễn"},"message":"học vấn khác với bằng cấp, nông dân cũng có thể có học vấn. Người ta có thể có học vấn dù ở bất cứ địa vị nào trong xã hội. Làm người cũng là một học vấn cần phải học.","can_remove":false,"created_time":"2013-10-11T11:02:18+0000","like_count":2,"user_likes":false},"736450793038267":{"id":"736450793038267","from":{"id":"100006687010442","name":"Thịt Gà Luộc"},"message":"Kham Pha bạn đang có cái nhìn khá tiêu cực về VN thì phải?","message_tags":[{"id":"100001458099624","name":"Kham Pha","type":"user","offset":0,"length":8}],"can_remove":false,"created_time":"2013-10-11T11:06:08+0000","like_count":0,"user_likes":false},"736451683038178":{"id":"736451683038178","from":{"id":"100006687010442","name":"Thịt Gà Luộc"},"message":"mình k nói ở đâu xa xôi, ngay ở tại nơi mình sống tp hcm, nhà mình bán cơm, có hàng tá người dân quê lên tp tìm việc k có ăn thì nhà mình vẫn cho thiếu và lúc nào có tiền đến trả","can_remove":false,"created_time":"2013-10-11T11:08:37+0000","like_count":1,"user_likes":false},"736452186371461":{"id":"736452186371461","from":{"id":"100006687010442","name":"Thịt Gà Luộc"},"message":"chị mình đã từng nuôi một cụ bà bị phong cùi hơn nửa năm (chưa kể time sống cùng bên nhà khác nhưng vẫn cho tiền)","can_remove":false,"created_time":"2013-10-11T11:09:37+0000","like_count":0,"user_likes":false},"736452993038047":{"id":"736452993038047","from":{"id":"100006687010442","name":"Thịt Gà Luộc"},"message":"mặc dù nhà mình k có giàu, nhưng vẫn chu cấp bữa ăn trưa cho một ông bị tâm thần.","can_remove":false,"created_time":"2013-10-11T11:11:10+0000","like_count":0,"user_likes":false},"736453573037989":{"id":"736453573037989","from":{"id":"100001458099624","name":"Kham Pha"},"message":"không mình rất thực tế, mình nhìn vào chứng cứ để đưa ra kết luận, ko bao giờ dám nói suông. Sự thật nhiều khi không được mọi người chấp nhận nhưng nó là sự thật. Người Nhật thì khỏi nói, họ quá đoàn kết. Nhưng mình thấy người nước ngoài ở Nhật họ cũng rất đoàn kết, chẳng kém gì. Những tấm gương tốt bạn nêu như vậy mình công nhận nhưng cũng có những kẻ lừa đảo, làm hại người. \nMình tin vào những điều tốt đẹp của con người Việt Nam, nhưng để kết luận VN đoàn kết yêu thương nhau thì ko thể. Chúng ta chẳng đoàn kết hơn người dân nước khác đâu.","can_remove":false,"created_time":"2013-10-11T11:12:38+0000","like_count":0,"user_likes":false},"736454153037931":{"id":"736454153037931","from":{"id":"100000381394367","name":"Thành Nguyễn"},"message":"Những việc làm của gia đình bạn Thịt Gà Luộc  là rất đáng hoan nghênh nhưng bạn có thống kê được trong xã hội số lượng người giống như gia đình bạn chiếm bao nhiêu % trong xã hội ko? Trong nghiên cứu khi người ta kết luận đánh giá về bản chất của một hệ thống nào đó thì người ta không thể dựa vào việc chỉ nghiên cứu  những \"mẫu\" đơn lẻ được.","message_tags":[{"id":"100006687010442","name":"Thịt Gà Luộc","type":"user","offset":32,"length":12}],"can_remove":false,"created_time":"2013-10-11T11:13:52+0000","like_count":0,"user_likes":false},"736455789704434":{"id":"736455789704434","from":{"id":"100006687010442","name":"Thịt Gà Luộc"},"message":"những ng có thể và đã giúp đỡ người khác thì nhiều lắm, các cô chú gần khu mình sống cũng thường giúp đỡ người bệnh và các bạn học sinh khó khăn. anh mình mới đi quyên góp được 1t5 cho cụ sáu bán vé số bị tiểu đường,.. mình thấy thay vì lên đây \"đàm tọa\" về vấn đề to lớn này thì tại sao mỗi người không tự giúp đỡ những người xung quanh mình!","can_remove":false,"created_time":"2013-10-11T11:19:12+0000","like_count":0,"user_likes":false},"736457023037644":{"id":"736457023037644","from":{"id":"100006687010442","name":"Thịt Gà Luộc"},"message":"Thành Nguyễn Kham Pha các bạn có muốn giúp đỡ người nghèo và các người bệnh không?","message_tags":[{"id":"100000381394367","name":"Thành Nguyễn","type":"user","offset":0,"length":12},{"id":"100001458099624","name":"Kham Pha","type":"user","offset":13,"length":8}],"can_remove":false,"created_time":"2013-10-11T11:22:53+0000","like_count":0,"user_likes":false},"736457143037632":{"id":"736457143037632","from":{"id":"100001458099624","name":"Kham Pha"},"message":"Thịt Gà Luộc bạn có biết mỗi tháng mình vẫn gửi tiền về cho mẹ để gửi cho những người nghèo. Mình ngồi đây nói ko có nghĩa mình chỉ nói, chỉ là bạn không biết những gì mình đang làm thôi.","message_tags":[{"id":"100006687010442","name":"Thịt Gà Luộc","type":"user","offset":0,"length":12}],"can_remove":false,"created_time":"2013-10-11T11:23:24+0000","like_count":0,"user_likes":false},"736458209704192":{"id":"736458209704192","from":{"id":"100006687010442","name":"Thịt Gà Luộc"},"message":"bạn hiểu sai ý mình rồi. những việc bạn làm rất quý!","can_remove":false,"created_time":"2013-10-11T11:26:36+0000","like_count":0,"user_likes":false},"736458603037486":{"id":"736458603037486","from":{"id":"100006687010442","name":"Thịt Gà Luộc"},"message":"không biết bạn có nhã ý giúp đỡ cho cụ Sáu bán vé số bị ung thư và tiểu đường gần chỗ mình k?","can_remove":false,"created_time":"2013-10-11T11:27:32+0000","like_count":0,"user_likes":false},"736458863037460":{"id":"736458863037460","from":{"id":"100001458099624","name":"Kham Pha"},"message":"vậy bạn kể về hoàn cảnh của cụ đi","can_remove":false,"created_time":"2013-10-11T11:28:09+0000","like_count":0,"user_likes":false},"736459093037437":{"id":"736459093037437","from":{"id":"100006687010442","name":"Thịt Gà Luộc"},"message":"hiện tại a mình chỉ mới quyên góp được một ít thôi... gia đình cụ khó khăn lắm, cụ ông bị liệt, cụ bà bị tiểu đường lại mới phát hiện ung thư vú mà khổ lắm!","can_remove":false,"created_time":"2013-10-11T11:28:48+0000","like_count":0,"user_likes":false},"736459819704031":{"id":"736459819704031","from":{"id":"100006687010442","name":"Thịt Gà Luộc"},"message":"nếu bạn cần thêm thông tin thì mình sẽ cung cấp đầy đủ.","can_remove":false,"created_time":"2013-10-11T11:30:12+0000","like_count":0,"user_likes":false},"736459923037354":{"id":"736459923037354","from":{"id":"100001416272263","name":"Mai PB"},"message":"Thịt Gà Luộc bạn sa đà vào một trường hợp cụ thể của gia đình bạn hay là chỉ riêng Kham Pha thì không ra đánh giá vấn đề của toàn thể rồi.","message_tags":[{"id":"100006687010442","name":"Thịt Gà Luộc","type":"user","offset":0,"length":12},{"id":"100001458099624","name":"Kham Pha","type":"user","offset":83,"length":8}],"can_remove":false,"created_time":"2013-10-11T11:30:30+0000","like_count":0,"user_likes":false},"736460529703960":{"id":"736460529703960","from":{"id":"100001416272263","name":"Mai PB"},"message":"Cái link trên kia mình đưa ra chỉ là một trong vô vàn điều xấu trong xh mà báo chí vẫn đưa mãi, thế nên mới đáng nói. Chứ chỉ riêng cái link đó thì không đáng để coi là vấn đề xh rồi.","can_remove":false,"created_time":"2013-10-11T11:32:10+0000","like_count":0,"user_likes":false},"736461403037206":{"id":"736461403037206","from":{"id":"100006687010442","name":"Thịt Gà Luộc"},"message":"toàn thể cũng là bao gồm các cá nhân và gia đình thôi! chúng ta nói những vấn đề to tát nhưng cuối cùng những con ng thật, việc thật đang xảy ra thì sao? nói như vậy dễ làm ng khác hiểu nhầm là chém gió.","can_remove":false,"created_time":"2013-10-11T11:34:25+0000","like_count":0,"user_likes":false},"736463866370293":{"id":"736463866370293","from":{"id":"100001416272263","name":"Mai PB"},"message":"Những chuyện kia cũng là những con người cụ thể chứ có hư cấu đâu?","can_remove":false,"created_time":"2013-10-11T11:40:53+0000","like_count":0,"user_likes":false},"736465333036813":{"id":"736465333036813","from":{"id":"100001458099624","name":"Kham Pha"},"message":"Thịt Gà Luộc chém gió là chỉ nói không làm, bạn ko biết người khác có làm hay ko mà bảo người ta chém gió là chứng tỏ bạn ko có lòng tin vào người khác. Xã hội mà người thiếu lòng tin vào nhau thì làm sao có đoàn kết, yêu thương? \nBạn có thêm thông tin gì về ông cụ thì bảo mình, cả thông tin làm thế nào để giúp đỡ ông cụ nữa.","message_tags":[{"id":"100006687010442","name":"Thịt Gà Luộc","type":"user","offset":0,"length":12}],"can_remove":false,"created_time":"2013-10-11T11:44:43+0000","like_count":0,"user_likes":false},"736465509703462":{"id":"736465509703462","from":{"id":"100001614219310","name":"Heo Hớn Hở"},"message":"Có thể các anh nói rằng Vn mình bây giờ chưa đoàn kết, cũng đúng nhưng kĩ năng làm việc nhóm là kĩ năng mềm chứ đâu thể coi là đoàn kết hay ko. Trong cuộc sống bìn thường, vì cơm áo gạo tiền, có thể sự đoàn kết, yêu thương chưa được bộc lộ nhưng trong những lúc nguy nan,khó khăn, dân tộc VN vẫn đoàn kết cùng nhau đấu tranh vượt qua đấy thôi.","can_remove":false,"created_time":"2013-10-11T11:45:08+0000","like_count":1,"user_likes":false},"736466843036662":{"id":"736466843036662","from":{"id":"100001458099624","name":"Kham Pha"},"message":"Có liên quan nhiều đấy, ko phải chỉ kĩ năng mềm đâu, em chưa hiểu hết vấn đề đâu. Người VN vốn hay ghen ghét, ghen ăn tức ở, thấy người khác hay thì ko thích nên mới khó làm việc nhóm. Nếu em công nhận điều này thì hãy xem xét lại việc người VN có đoàn kết hay không. Anh tin là em sẽ hiểu.","can_remove":false,"created_time":"2013-10-11T11:48:26+0000","like_count":0,"user_likes":false},"736467116369968":{"id":"736467116369968","from":{"id":"100006687010442","name":"Thịt Gà Luộc"},"message":"haizz Kham Pha bạn nhạy cảm quá! bạn có thể nhắn tin gửi mail của bạn cho mình, ngoài sđt và các giấy tờ khám bệnh thì bạn cần thêm gì nữa k?","message_tags":[{"id":"100001458099624","name":"Kham Pha","type":"user","offset":6,"length":8}],"can_remove":false,"created_time":"2013-10-11T11:49:12+0000","like_count":0,"user_likes":false},"736468739703139":{"id":"736468739703139","from":{"id":"100001614219310","name":"Heo Hớn Hở"},"message":"những thói hư tật xấu như vậy đâu cũng có mà anh,có riêng gì nc mình. Như cái anh nói thì là công việc hàng ngày,ng Vn mình,do đặc trưng là nc nông nghiệp nhỏ,làm ăn nhỏ,nên hay để ý đến lợi cá nhân trc rồi mới đến tập thể . Khi nhận ra là lợi ích chung thì mọi người luôn đoàn kết đấy thôi.","can_remove":false,"created_time":"2013-10-11T11:53:42+0000","like_count":0,"user_likes":false},"736471619702851":{"id":"736471619702851","from":{"id":"100001458099624","name":"Kham Pha"},"message":"Chính vì nhận ra lợi ích chung mới đoàn kết yêu thương nhau nên anh mới nói cần học vấn và giáo dục chứ ko đơn thuần có sẵn đâu. Dân tộc nào cũng đoàn kết yêu thương nhau cả, nơi nào giáo dục tốt hơn thì đoàn kết hơn. Mà giáo dục VN trong nhiều năm qua đang làm hỏng điều đó.","can_remove":false,"created_time":"2013-10-11T12:00:04+0000","like_count":0,"user_likes":false}},"paging":{"cursors":{"after":"NzM2MzkxNTkzMDQ0MTg3","before":"NzM2MzkxNTkzMDQ0MTg3"},"next":"https://graph.facebook.com/229244010425617_735726549777358/comments?limit=1&summary=1&after=NzM2MzkxNTkzMDQ0MTg3"},"summary":{"order":"chronological","total_count":35}}}