{"id":"229244010425617_735925899757423","type":"video","object_id":"588498534542078","picture":"https://fbcdn-vthumb-a.akamaihd.net/hvthumb-ak-prn2/t15.0-10/1394554_588499014542030_588498534542078_36300_886_t.jpg","link":"https://fbcdn-video-a.akamaihd.net/hvideo-ak-frc3/v/t42.1790-2/1248898_588498967875368_578100293_n.mp4?oh=3fd6f8da490b28e80f442f40ecfd6c35&oe=53500391&__gda__=1397739472_7765bed48f1c1e35306d8cf5bd550036","source":"https://fbcdn-video-a.akamaihd.net/hvideo-ak-frc3/v/t42.1790-2/1248898_588498967875368_578100293_n.mp4?oh=3fd6f8da490b28e80f442f40ecfd6c35&oe=53500391&__gda__=1397739472_7765bed48f1c1e35306d8cf5bd550036","from":{"id":"100001458099624","name":"Kham Pha"},"message":"Mèo ngố đi lạc.\nTập 9: Chii nhớ ra.","created_time":"2013-10-10T14:24:46+0000","updated_time":"2013-10-11T14:22:42+0000","likes":{"data":{"100000022163023":{"id":"100000022163023","name":"Kafe Ore"},"100006576913431":{"id":"100006576913431","name":"Le Hoa Tran"},"100000167920988":{"id":"100000167920988","name":"Lê Cường"},"100002508122689":{"id":"100002508122689","name":"Vũ Mạnh Tuấn"},"100001609833418":{"id":"100001609833418","name":"Tsunami Hime"},"100003671803669":{"id":"100003671803669","name":"Tojika Sakura"},"100003683390259":{"id":"100003683390259","name":"Huệ Hoàng"},"100004477292126":{"id":"100004477292126","name":"Kien Xinh Doan"},"100003814756892":{"id":"100003814756892","name":"Hai Nguyen"},"100001248140499":{"id":"100001248140499","name":"לאָק נגויען"},"100001723862714":{"id":"100001723862714","name":"Bo Bien Vang"},"1787333994":{"id":"1787333994","name":"Kiên Mậu"}},"paging":{"cursors":{"after":"MTAwMDAwMDIyMTYzMDIz","before":"MTAwMDAwMDIyMTYzMDIz"},"next":"https://graph.facebook.com/229244010425617_735925899757423/likes?limit=1&summary=1&after=MTAwMDAwMDIyMTYzMDIz"},"summary":{"total_count":13}},"comments":{"data":{"736334503049896":{"id":"736334503049896","from":{"id":"100001458099624","name":"Kham Pha"},"message":"いいえ、いいえ。どういたいまして。","can_remove":false,"created_time":"2013-10-11T05:21:31+0000","like_count":1,"user_likes":false},"736532809696732":{"id":"736532809696732","from":{"id":"100000022163023","name":"Kafe Ore"},"message":"Xin lỗi ! ...Kham Pha cho mình hỏi \" どういたいまして。\" là văn nói của Dooitashimashite ah ??","message_tags":[{"id":"100001458099624","name":"Kham Pha","type":"user","offset":13,"length":8}],"can_remove":false,"created_time":"2013-10-11T13:42:39+0000","like_count":0,"user_likes":false},"736546043028742":{"id":"736546043028742","from":{"id":"100001458099624","name":"Kham Pha"},"message":"cả 2 cách đều được nhưng cái bạn nói có vẻ chính thống hơn vì sách dạy vâỵ. Mình thấy có người nói như cách mình viết nên dùng luôn.","can_remove":false,"created_time":"2013-10-11T14:07:33+0000","like_count":0,"user_likes":false},"736555656361114":{"id":"736555656361114","from":{"id":"100000022163023","name":"Kafe Ore"},"message":"Vay ah. Cam on ban!","can_remove":false,"created_time":"2013-10-11T14:22:42+0000","like_count":0,"user_likes":false}},"paging":{"cursors":{"after":"NzM2MzM0NTAzMDQ5ODk2","before":"NzM2MzM0NTAzMDQ5ODk2"},"next":"https://graph.facebook.com/229244010425617_735925899757423/comments?limit=1&summary=1&after=NzM2MzM0NTAzMDQ5ODk2"},"summary":{"order":"chronological","total_count":5}}}