{"id":"229244010425617_735940069756006","type":"status","from":{"id":"100001257093338","name":"Hanh Dang"},"message":"Xin giúp mình dịch câu tiếng nhật này với?\n\nĐây là câu mình dịch: Chỉ với một câu 残念=Thất vọng mà trong lòng tôi chỉ toàn tâm trạng buồn và phiền muộn\n\n残念という言葉だけでは済まない苦しい気持ちで私の心の中はいっぱいになりました。","created_time":"2013-10-10T14:53:41+0000","updated_time":"2013-10-11T15:41:42+0000","likes":{"data":{"100000027754899":{"id":"100000027754899","name":"Hoang Van Ba"},"100006471014750":{"id":"100006471014750","name":"Nga Bếu"}},"paging":{"cursors":{"after":"MTAwMDAwMDI3NzU0ODk5","before":"MTAwMDAwMDI3NzU0ODk5"},"next":"https://graph.facebook.com/229244010425617_735940069756006/likes?limit=1&summary=1&after=MTAwMDAwMDI3NzU0ODk5"},"summary":{"total_count":2}},"comments":{"data":{"735943546422325":{"id":"735943546422325","from":{"id":"100001156666759","name":"Kenshuu Steam"},"message":"Zannen trong.nay dich kieu gi chabg dc. Thất vọng, đáng tiếc, buồn phiền... nói chung toàn ý nghĩa chẳng ra gì...","can_remove":false,"created_time":"2013-10-10T14:59:44+0000","like_count":0,"user_likes":false},"735948179755195":{"id":"735948179755195","from":{"id":"100001257093338","name":"Hanh Dang"},"message":"Kenshuu Steam dịch cả câu đi...onegai","message_tags":[{"id":"100001156666759","name":"Kenshuu Steam","type":"user","offset":0,"length":13}],"can_remove":false,"created_time":"2013-10-10T15:09:58+0000","like_count":0,"user_likes":false},"735949719755041":{"id":"735949719755041","from":{"id":"100001156666759","name":"Kenshuu Steam"},"message":"Ko thể nào diễn đạt tâm trạng khổ sở bây giờ chỉ bằng 1 từ zannen, nó đang chiếm hết tâm trí tôi nek.... gì mà đau lòng dữ vậy nàng...","can_remove":false,"created_time":"2013-10-10T15:12:56+0000","like_count":2,"user_likes":false},"735954879754525":{"id":"735954879754525","from":{"id":"100001257093338","name":"Hanh Dang"},"message":"Tuyệt quá @Kèn ơi!","can_remove":false,"created_time":"2013-10-10T15:21:49+0000","like_count":0,"user_likes":false},"735964263086920":{"id":"735964263086920","from":{"id":"100001416272263","name":"Mai PB"},"message":"Tỏ tình thất bại :-)","can_remove":false,"created_time":"2013-10-10T15:40:30+0000","like_count":0,"user_likes":false},"735972016419478":{"id":"735972016419478","from":{"id":"100001257093338","name":"Hanh Dang"},"message":"hahaha...được thế cũng mừng!!!","can_remove":false,"created_time":"2013-10-10T15:53:30+0000","like_count":0,"user_likes":false},"736601983023148":{"id":"736601983023148","from":{"id":"100001156666759","name":"Kenshuu Steam"},"message":"Đc tỏ tình thì sao mà lại thất bại nhỉ","can_remove":false,"created_time":"2013-10-11T15:41:42+0000","like_count":0,"user_likes":false}},"paging":{"cursors":{"after":"NzM1OTQzNTQ2NDIyMzI1","before":"NzM1OTQzNTQ2NDIyMzI1"},"next":"https://graph.facebook.com/229244010425617_735940069756006/comments?limit=1&summary=1&after=NzM1OTQzNTQ2NDIyMzI1"},"summary":{"order":"chronological","total_count":7}}}