{"id":"229244010425617_735901506426529","type":"link","picture":"https://fbexternal-a.akamaihd.net/safe_image.php?d=AQB98rXchV30qcNd&w=154&h=154&url=http%3A%2F%2Fi.huffpost.com%2Fgen%2F1399079%2Fthumbs%2Fo-ALICE-MUNRO-facebook.jpg","link":"http://www.huffingtonpost.jp/2013/10/10/haruki-nobel_n_4075891.html?utm_hp_ref=japan","from":{"id":"100001416272263","name":"Mai PB"},"message":"Nhà văn Nhật 村上春樹 Murakami Haruki nổi tiếng ở VN với tác phẩm ノルウェイの森 (tên bản dịch tiếng Việt là Rừng Nauy), năm nay đã không được giải Nobel Văn học như được trông chờ. Không biết là đã bị trượt đến lần thứ mấy rồi, đáng tiếc.\n\nMột điều thú vị là đạo diễn Việt kiều Trần Anh Hùng đã được Murakami đồng ý cho làm phim dựa trên tiểu thuyết này. Có vẻ như đây là vinh dự đối với TAH vì nhiều đạo diễn khác chưa được đồng ý trước đó. Tuy nhiên phim không rõ có thành công không.\n\nhttp://www.huffingtonpost.jp/2013/10/10/haruki-nobel_n_4075891.html?utm_hp_ref=japan","created_time":"2013-10-10T13:41:38+0000","updated_time":"2013-10-11T06:41:40+0000","likes":{"data":{"100002871405403":{"id":"100002871405403","name":"Thach Sanh"},"100003865478998":{"id":"100003865478998","name":"Đại Gia Chân Đất"},"100001754136107":{"id":"100001754136107","name":"Nguyễn Tuấn Vũ"},"100002327743510":{"id":"100002327743510","name":"Tuan Thanh"},"100000945434826":{"id":"100000945434826","name":"Dualeo Nhapnho"},"100003011417151":{"id":"100003011417151","name":"Hue Kim"},"100001458099624":{"id":"100001458099624","name":"Kham Pha"},"100001257093338":{"id":"100001257093338","name":"Hanh Dang"},"100002850792999":{"id":"100002850792999","name":"Viet le Minh"}},"paging":{"cursors":{"after":"MTAwMDAyODcxNDA1NDAz","before":"MTAwMDAyODcxNDA1NDAz"},"next":"https://graph.facebook.com/229244010425617_735901506426529/likes?limit=1&summary=1&after=MTAwMDAyODcxNDA1NDAz"},"summary":{"total_count":9}},"comments":{"data":{"735903309759682":{"id":"735903309759682","from":{"id":"100001416272263","name":"Mai PB"},"message":"Phim \"Noruwei no mori\". http://www.imdb.com/title/tt1270842/","can_remove":false,"created_time":"2013-10-10T13:44:32+0000","like_count":1,"user_likes":false},"735906559759357":{"id":"735906559759357","from":{"id":"100001458099624","name":"Kham Pha"},"message":"Em là fan của ông này đây. Nhưng mà xem phim ko hay bằng truyện. Truyện có nhiều ý nghĩa nhân sinh quan sâu sắc mà phim ko diễn tả hết được. Phải đọc và ngẫm nghĩ mới thấm.","can_remove":false,"created_time":"2013-10-10T13:51:15+0000","like_count":2,"user_likes":false},"735935833089763":{"id":"735935833089763","from":{"id":"100000399879223","name":"Hoan Le"},"message":"Truyện này có quái gì đâu mà đòi nobel","can_remove":false,"created_time":"2013-10-10T14:44:57+0000","like_count":0,"user_likes":false},"735936863089660":{"id":"735936863089660","from":{"id":"100001458099624","name":"Kham Pha"},"message":"Mình cũng đọc ko ít các tiểu thuyết kinh điển rồi, thế mà đây là một trong những truyện hay nhất mình đã từng đọc. Nhớ cái hồi đọc xong, bị ám ảnh hết cả một tuần liền, như người mất hồn, lúc nào thấy trong tim cũng trống rỗng.","can_remove":false,"created_time":"2013-10-10T14:47:11+0000","like_count":2,"user_likes":false},"735938793089467":{"id":"735938793089467","from":{"id":"100001416272263","name":"Mai PB"},"message":"Ông ấy viết nhiều tác phẩm nổi tiếng, nếu có được giải Nobel cũng chưa chắc vì tác phẩm Rừng Nauy. Mà Hoan Le dùng từ không thích hợp với một tác phẩm được cả thế giới say mê rồi.","message_tags":[{"id":"100000399879223","name":"Hoan Le","type":"user","offset":102,"length":7}],"can_remove":false,"created_time":"2013-10-10T14:51:01+0000","like_count":1,"user_likes":false},"735944193088927":{"id":"735944193088927","from":{"id":"100000042138129","name":"Duong David"},"message":"Truyện này em đọc 1 mạch từ đầu đến cuối, ko thể nào dứt ra được. Những quyển tiểu thuyết khác thì buổi sáng em đọc, trưa lại nghỉ, chiều đọc tiếp. Quyển này thì đọc thông 1 mạch từ sáng đến chiều luôn. :)","can_remove":false,"created_time":"2013-10-10T15:01:06+0000","like_count":2,"user_likes":false},"735944393088907":{"id":"735944393088907","from":{"id":"100000399879223","name":"Hoan Le"},"message":"cũng tùy từng người cảm nhận, mà truyện này ko để lại ấn tượng cho mình bằng mấy quyển kinh điển như: Thằng gù nhà thờ đức bà Paris, Những người khốn khổ","can_remove":false,"created_time":"2013-10-10T15:01:46+0000","like_count":1,"user_likes":false},"736371709712842":{"id":"736371709712842","from":{"id":"100001609833418","name":"Tsunami Hime"},"message":"mỗi người đọc sẽ có 1 cách cảm nhận riêng thôi mà :)","can_remove":false,"created_time":"2013-10-11T06:41:40+0000","like_count":0,"user_likes":false}},"paging":{"cursors":{"after":"NzM1OTAzMzA5NzU5Njgy","before":"NzM1OTAzMzA5NzU5Njgy"},"next":"https://graph.facebook.com/229244010425617_735901506426529/comments?limit=1&summary=1&after=NzM1OTAzMzA5NzU5Njgy"},"summary":{"order":"chronological","total_count":8}}}