{"id":"229244010425617_736165563066790","type":"status","from":{"id":"100001458099624","name":"Kham Pha"},"message":"[Một chút tiếng Nhật] 抜（ぬ）く\n\n考えぬく: nghĩ hết cách\nやりぬく: làm hết sức\n生きぬく: sống hết mình\n\nTất cả các động từ bỏ ます thêm ぬく đều có nghĩa là \" làm cái gì đó hết công suất\" hay \"làm cái gì đó đến cuối cùng, không bỏ cuộc\". \n\nNgười Nhật rất thích từ này :)","created_time":"2013-10-10T22:27:01+0000","updated_time":"2013-10-11T03:14:58+0000","likes":{"data":{"100006493055181":{"id":"100006493055181","name":"Tuyên Nguyễn"},"100000035226247":{"id":"100000035226247","name":"Thanh Lan"},"100003276696481":{"id":"100003276696481","name":"Viet Đong"},"1042936079":{"id":"1042936079","name":"Bui Dung"},"100004506938250":{"id":"100004506938250","name":"Ninh Yuna"},"100006471014750":{"id":"100006471014750","name":"Nga Bếu"},"100000007294630":{"id":"100000007294630","name":"Ray Chan"},"100000309978634":{"id":"100000309978634","name":"Tan Vu"},"100005801442456":{"id":"100005801442456","name":"An Nguyen"},"100001257093338":{"id":"100001257093338","name":"Hanh Dang"},"1837866264":{"id":"1837866264","name":"QuynhDo Anh"},"100001609833418":{"id":"100001609833418","name":"Tsunami Hime"},"100002982264086":{"id":"100002982264086","name":"Danh Huong"},"100000062884729":{"id":"100000062884729","name":"Huệ Ca"},"100001045605606":{"id":"100001045605606","name":"Seto Ichitaka"},"100002423410684":{"id":"100002423410684","name":"Nguyễn Khắc Lương"},"100004322010992":{"id":"100004322010992","name":"Nhím Xù"},"100003649684742":{"id":"100003649684742","name":"Anhtuyet Tranthi"},"100006353983213":{"id":"100006353983213","name":"ティエン ビン"},"100003189755733":{"id":"100003189755733","name":"Vương Phương"},"100002829897061":{"id":"100002829897061","name":"Xiêu Nhân"},"100001723862714":{"id":"100001723862714","name":"Bo Bien Vang"},"100001541536632":{"id":"100001541536632","name":"Viet Do"},"100003907081547":{"id":"100003907081547","name":"Van Ta"},"100004295983075":{"id":"100004295983075","name":"Nguyen Hoai Bao"},"100001051044941":{"id":"100001051044941","name":"Khanh Trung"},"100002047631241":{"id":"100002047631241","name":"Dontask Nguyễn"},"100001646814780":{"id":"100001646814780","name":"Nhật Dương"},"100003662422191":{"id":"100003662422191","name":"Lê Hải"},"100000052335280":{"id":"100000052335280","name":"Thị Pắp"},"100006737737029":{"id":"100006737737029","name":"Cỏ Nhỏ"},"100002425288918":{"id":"100002425288918","name":"Kira Chiến ND"},"100000070097014":{"id":"100000070097014","name":"Huy Nguyen"},"100002508122689":{"id":"100002508122689","name":"Vũ Mạnh Tuấn"},"100001062202744":{"id":"100001062202744","name":"Hoang Garu"},"100000451899565":{"id":"100000451899565","name":"Tien Dung Nguyen"},"100003814756892":{"id":"100003814756892","name":"Hai Nguyen"},"100001760336965":{"id":"100001760336965","name":"Sakae Kun"},"100003132591245":{"id":"100003132591245","name":"Hải Yến"},"100003005597243":{"id":"100003005597243","name":"Zany Royal"},"100006605340835":{"id":"100006605340835","name":"Kokko Bon"},"100000028932078":{"id":"100000028932078","name":"Ngọc Mính"},"100003957878204":{"id":"100003957878204","name":"Ma Kết"},"100002853258192":{"id":"100002853258192","name":"Phương Diệu Thu"},"100003132354797":{"id":"100003132354797","name":"Binhnguyen Pham"},"100000211315177":{"id":"100000211315177","name":"Ha Bac"},"100001828489071":{"id":"100001828489071","name":"Thanh Tra"},"100000284487802":{"id":"100000284487802","name":"Buu Lam Gia"},"100001416272263":{"id":"100001416272263","name":"Mai PB"},"100003209161756":{"id":"100003209161756","name":"Nguyễn Lê Thảo Quyên"},"100003179905990":{"id":"100003179905990","name":"Trâm Yoko"},"1725907325":{"id":"1725907325","name":"Nguyen Van Dung"},"100000639075483":{"id":"100000639075483","name":"Thao Nh"},"566723239":{"id":"566723239","name":"Huyen Nguyen"},"100002777714051":{"id":"100002777714051","name":"Thiên Trang"},"100004251847599":{"id":"100004251847599","name":"Yuki Yuki"},"100001755138063":{"id":"100001755138063","name":"Naga Nguyen"},"1550521697":{"id":"1550521697","name":"Trình Nguyễn"},"100003683390259":{"id":"100003683390259","name":"Huệ Hoàng"},"100001594722256":{"id":"100001594722256","name":"Viết An Phạm"},"100004112258038":{"id":"100004112258038","name":"Chung Tran"},"849149395":{"id":"849149395","name":"Đặng Ngọc Trân"},"100001597573934":{"id":"100001597573934","name":"Ly Chu"},"100003155380603":{"id":"100003155380603","name":"Khuong Pham"},"100003828118579":{"id":"100003828118579","name":"Khanh Linh"},"1707142975":{"id":"1707142975","name":"Bùi Thu Hà"},"100004460525997":{"id":"100004460525997","name":"Hà Trang Nguyễn"}},"paging":{"cursors":{"after":"MTAwMDA2NDkzMDU1MTgx","before":"MTAwMDA2NDkzMDU1MTgx"},"next":"https://graph.facebook.com/229244010425617_736165563066790/likes?limit=1&summary=1&after=MTAwMDA2NDkzMDU1MTgx"},"summary":{"total_count":68}},"comments":{"data":{"736178799732133":{"id":"736178799732133","from":{"id":"100003155380603","name":"Khuong Pham"},"message":"Rất hay.thanks đại ca","can_remove":false,"created_time":"2013-10-10T23:02:30+0000","like_count":0,"user_likes":false},"736194899730523":{"id":"736194899730523","from":{"id":"100001458099624","name":"Kham Pha"},"message":"ơ, ko có ai vào phản đối ah :))","can_remove":false,"created_time":"2013-10-10T23:42:38+0000","like_count":0,"user_likes":false},"736196663063680":{"id":"736196663063680","from":{"id":"100001156666759","name":"Kenshuu Steam"},"message":"The còn V bỏ masu +kiru thì sao.","can_remove":false,"created_time":"2013-10-10T23:45:31+0000","like_count":0,"user_likes":false},"736197976396882":{"id":"736197976396882","from":{"id":"100001458099624","name":"Kham Pha"},"message":"nghĩa gần giống vậy nhưng sắc thái khác nhau. Ai vào giải thích cho bạn kìa, mình lên lớp đây :)","can_remove":false,"created_time":"2013-10-10T23:49:30+0000","like_count":0,"user_likes":false},"736198256396854":{"id":"736198256396854","from":{"id":"100001458099624","name":"Kham Pha"},"message":"chú ý: ai đọc cái phần dịch kia cẩn thận đấy :)","can_remove":false,"created_time":"2013-10-10T23:50:17+0000","like_count":1,"user_likes":false},"736214159728597":{"id":"736214159728597","from":{"id":"100001416272263","name":"Mai PB"},"message":"Sẽ phản đối sau, Kham Pha. Tự phản đối trước đi :-)","message_tags":[{"id":"100001458099624","name":"Kham Pha","type":"user","offset":17,"length":8}],"can_remove":false,"created_time":"2013-10-11T00:32:51+0000","like_count":2,"user_likes":false},"736270446389635":{"id":"736270446389635","from":{"id":"100002425288918","name":"Kira Chiến ND"},"message":"V bỏ masu + kiru: làm gì đó hết. Nhưng không phải hết sức, hết khả năng mà là hết kiểu thế này: ăn hết ( chỗ thức ăn đã mua): 食べきる。 hay là chạy hết 1000m thì thật là mệt là 1000メトルはしきることはとても大変ですね。","can_remove":false,"created_time":"2013-10-11T02:39:10+0000","like_count":4,"user_likes":false},"736285213054825":{"id":"736285213054825","from":{"id":"100001458099624","name":"Kham Pha"},"message":"Kira Chiến ND nói đúng rồi đấy. Mẹo phân biệt: \n切る: chú trọng vào kết quả hành động, có hoàn thành hay ko. Đơn giản là xong hay là không xong. \n抜く: chú trọng vào thái độ, cách thức thực hiện hành động. Trong đó nó có cả tâm ý người nói.  \n\nBởi vậy mới nảy sinh trường hợp có 考えぬく nhưng không có 考えきる và rất nhiều trường hợp như vậy.","message_tags":[{"id":"100002425288918","name":"Kira Chiến ND","type":"user","offset":0,"length":13}],"can_remove":false,"created_time":"2013-10-11T03:14:58+0000","like_count":5,"user_likes":false}},"paging":{"cursors":{"after":"NzM2MTc4Nzk5NzMyMTMz","before":"NzM2MTc4Nzk5NzMyMTMz"},"next":"https://graph.facebook.com/229244010425617_736165563066790/comments?limit=1&summary=1&after=NzM2MTc4Nzk5NzMyMTMz"},"summary":{"order":"chronological","total_count":8}}}