{"id":"229244010425617_736248676391812","type":"status","from":{"id":"100002478302848","name":"Nozomi Neko"},"message":"Các bạn ơi, có ai có đề thi Nat-test N5 các lần thi trước không? Nếu có thì chia sẻ cho mình với! Mình cảm ơn trước nhé! ^^ Hiện tại m đang luyện N5 của JPLT à ^^","created_time":"2013-10-11T01:58:18+0000","updated_time":"2013-10-11T12:12:58+0000","likes":{"data":{"100006471014750":{"id":"100006471014750","name":"Nga Bếu"}},"paging":{"cursors":{"after":"MTAwMDA2NDcxMDE0NzUw","before":"MTAwMDA2NDcxMDE0NzUw"}},"summary":{"total_count":1}},"comments":{"data":{"736281836388496":{"id":"736281836388496","from":{"id":"100003767594753","name":"Mít Tờ Chiến"},"message":"Có đc mag đề ra đâu","can_remove":false,"created_time":"2013-10-11T03:05:46+0000","like_count":0,"user_likes":false},"736366489713364":{"id":"736366489713364","from":{"id":"100001416272263","name":"Mai PB"},"message":"Nozomi Neko vào pin post trên đầu nhé, có nhiều link lắm","message_tags":[{"id":"100002478302848","name":"Nozomi Neko","type":"user","offset":0,"length":11}],"can_remove":false,"created_time":"2013-10-11T06:21:57+0000","like_count":1,"user_likes":false},"736475203035826":{"id":"736475203035826","from":{"id":"100002478302848","name":"Nozomi Neko"},"message":"Cám ơn bạn ^^ sẽ dò hết Link trên đó hihi","can_remove":false,"created_time":"2013-10-11T12:09:28+0000","like_count":0,"user_likes":false},"736476353035711":{"id":"736476353035711","from":{"id":"100002478302848","name":"Nozomi Neko"},"message":"Có đề nào được mang về đâu bạn ơi, nếu có thì mình xin còn không thì vẫn luyện JPLT^^ cách thức thi chắc cũng như nhau cả thôi nhỉ","can_remove":false,"created_time":"2013-10-11T12:12:58+0000","like_count":0,"user_likes":false}},"paging":{"cursors":{"after":"NzM2MjgxODM2Mzg4NDk2","before":"NzM2MjgxODM2Mzg4NDk2"},"next":"https://graph.facebook.com/229244010425617_736248676391812/comments?limit=1&summary=1&after=NzM2MjgxODM2Mzg4NDk2"},"summary":{"order":"chronological","total_count":4}}}