{"id":"229244010425617_736375323045814","type":"photo","object_id":"218932534941355","picture":"https://fbcdn-photos-f-a.akamaihd.net/hphotos-ak-prn2/t1.0-0/1393692_218932534941355_1067142327_s.jpg","link":"https://www.facebook.com/photo.php?fbid=218932534941355&set=a.192988464202429.1073741828.185866234914652&type=1","from":{"id":"100001416272263","name":"Mai PB"},"message":"Các vĩ nhân tự hiểu họ không phải là thánh thần. Ai tôn họ là thánh, thực ra là làm hoen ố hình ảnh của họ. Kính trọng tướng Giáp và luôn tin rằng lịch sử sẽ đánh giá ông đúng mực.","created_time":"2013-10-11T06:55:31+0000","updated_time":"2013-10-14T08:11:35+0000","likes":{"data":{"100003055356509":{"id":"100003055356509","name":"Thuan Nguyen"},"100005566321381":{"id":"100005566321381","name":"Bin Lee"},"100004716640495":{"id":"100004716640495","name":"Thúy An Dương"},"100001260645727":{"id":"100001260645727","name":"Ngo Duy Son"},"100001614219310":{"id":"100001614219310","name":"Heo Hớn Hở"},"100002327743510":{"id":"100002327743510","name":"Tuan Thanh"},"100005013365720":{"id":"100005013365720","name":"Hoàng BáCh"},"1416265619":{"id":"1416265619","name":"Starwar Bbj"},"100004155757260":{"id":"100004155757260","name":"Tran Trang"},"100003011417151":{"id":"100003011417151","name":"Hue Kim"},"100006767705219":{"id":"100006767705219","name":"Kim Liên"},"100005801442456":{"id":"100005801442456","name":"An Nguyen"},"100000603915176":{"id":"100000603915176","name":"悪いな ぁ"},"100001723862714":{"id":"100001723862714","name":"Bo Bien Vang"},"1725907325":{"id":"1725907325","name":"Nguyen Van Dung"}},"paging":{"cursors":{"after":"MTAwMDAzMDU1MzU2NTA5","before":"MTAwMDAzMDU1MzU2NTA5"},"next":"https://graph.facebook.com/229244010425617_736375323045814/likes?limit=1&summary=1&after=MTAwMDAzMDU1MzU2NTA5"},"summary":{"total_count":15}},"comments":{"data":{"736393906377289":{"id":"736393906377289","from":{"id":"100000381394367","name":"Thành Nguyễn"},"message":"Nếu ai đã xem phim Inception ( tiếng Việt là kẻ cắp giấc mơ ) thì đều biết đến khái niệm projection ( hình chiếu của nhân vật trong tâm thức của con người, trong thế giới của những giấc mơ ). Thực ra thì đối với đa số dân chúng đang xếp hàng đi tưởng niệm tướng giáp bây giờ thì đúng là họ thương cảm thật, cảm xúc từ trong tim họ mà ra, nhưng cảm xúc ấy là về projection của Võ Nguyên Giáp trong tâm thức của họ, là hình chiếu của con người  Võ Nguyên Giáp ngoài đời thực vào trong ý thức của họ chứ không phải bản thân con người Võ Nguyên Giáp. Những người có học vấn và có lương tri đều sẽ kính trọng Võ Nguyên Giáp như một anh hùng giống bao anh hùng khác của dân tộc khác trong lịch sử nhưng chắc chắn họ sẽ không bao giờ coi ông ấy là thánh như báo chí đang cố gắng miêu tả, vì hình chiếu của Võ Nguyên Giáp trong đầu họ gần với hiện thực hơn là hình chiếu đã được thi vị hóa, khuếch đại và tô điểm trong tâm lý của đám đông. Một đất nước mà càng có nhiều thần thánh và càng nhiều thần tượng càng chứng tỏ dân tộc đó chưa trưởng thành, có những chỗ khuyết thiếu trong đời sống tinh thần. Hình ảnh của thần tượng chẳng qua là những mong muốn kỳ vọng về cuộc sống mà họ chưa thực hiện được, họ mong có những con người như vậy để che trở cho họ. Con đường để đi đến văn minh của những đất nước như thế vẫn còn dài vì người dân vẫn còn có tâm lý trông cậy ở người khác, vẫn mong có những cứu tinh có những anh hùng thay vì tự mình hành đông. Quốc gia chỉ độc lập thực sự khi mọi người dân có tinh thần độc lập, mà tinh thần độc lập trước tiên phải là không trông cậy ở người khác mà chỉ trông cậy ở chính bản thân mình.","can_remove":false,"created_time":"2013-10-11T07:58:09+0000","like_count":9,"user_likes":false},"736432653040081":{"id":"736432653040081","from":{"id":"100001416272263","name":"Mai PB"},"message":"Thành Nguyễn: admin \"muối\". :-D","message_tags":[{"id":"100000381394367","name":"Thành Nguyễn","type":"user","offset":0,"length":12}],"can_remove":false,"created_time":"2013-10-11T10:16:42+0000","like_count":0,"user_likes":false},"736439903039356":{"id":"736439903039356","from":{"id":"100000381394367","name":"Thành Nguyễn"},"message":"muối là sao anh?","can_remove":false,"created_time":"2013-10-11T10:33:15+0000","like_count":0,"user_likes":false},"736440279705985":{"id":"736440279705985","from":{"id":"100001416272263","name":"Mai PB"},"message":"là mặn chát","can_remove":false,"created_time":"2013-10-11T10:34:28+0000","like_count":1,"user_likes":false},"736440706372609":{"id":"736440706372609","from":{"id":"100000381394367","name":"Thành Nguyễn"},"message":"Đọc xách ba lô lên và đi của Huyền chip thấy nói có ở loại muối mỏ ở Ấn ngon lắm, ko mặn.","can_remove":false,"created_time":"2013-10-11T10:35:47+0000","like_count":1,"user_likes":false},"736441466372533":{"id":"736441466372533","from":{"id":"100001416272263","name":"Mai PB"},"message":"Bây giờ có thêm lý do để đi Ấn ngoài mấy cô diễn viên Bollywood","can_remove":false,"created_time":"2013-10-11T10:38:00+0000","like_count":0,"user_likes":false},"738544486162231":{"id":"738544486162231","from":{"id":"100006268926873","name":"Thuan Osaka"},"message":"Xem xong le tang minh ngi chac han moi nguoi ai cung cam dong","can_remove":false,"created_time":"2013-10-14T08:10:58+0000","like_count":0,"user_likes":false},"738544639495549":{"id":"738544639495549","from":{"id":"100006268926873","name":"Thuan Osaka"},"message":"Day co le la nguoi cuoi cung trong the he lanh dao tai ba khang chien","can_remove":false,"created_time":"2013-10-14T08:11:35+0000","like_count":0,"user_likes":false}},"paging":{"cursors":{"after":"NzM2MzkzOTA2Mzc3Mjg5","before":"NzM2MzkzOTA2Mzc3Mjg5"},"next":"https://graph.facebook.com/229244010425617_736375323045814/comments?limit=1&summary=1&after=NzM2MzkzOTA2Mzc3Mjg5"},"summary":{"order":"chronological","total_count":8}}}