{"id":"229244010425617_736510083032338","type":"video","object_id":"589045907820674","picture":"https://fbcdn-vthumb-a.akamaihd.net/hvthumb-ak-prn2/t15.0-10/1095769_589046044487327_589045907820674_32545_468_t.jpg","link":"https://fbcdn-video-a.akamaihd.net/hvideo-ak-ash2/v/t42.1790-2/1245420_589046027820662_350380946_n.mp4?oh=414857c7d0a192f73816750b0d9d1717&oe=53503007&__gda__=1397775466_20cf875b21bef7a649c40259c7645baf","source":"https://fbcdn-video-a.akamaihd.net/hvideo-ak-ash2/v/t42.1790-2/1245420_589046027820662_350380946_n.mp4?oh=414857c7d0a192f73816750b0d9d1717&oe=53503007&__gda__=1397775466_20cf875b21bef7a649c40259c7645baf","from":{"id":"100001458099624","name":"Kham Pha"},"message":"[Trải nghiệm cuộc sống Nhật] Review đến chơi nhà người Nhật lần 2\n \nChào mọi người. Dạo này bận quá nên chẳng có thời gian viết được bài nào tử tế cả. Nhờ tinh thần đóng góp chia sẻ của mọi người và sự nhiệt tình của các admin mà group vẫn hoạt động rất sôi nổi :)\n\nHôm nay mình viết một bài chia sẻ với mọi người việc đến chơi nhà người Nhật. \nLần trước mình cũng có viết một review rồi nhưng không tìm được link post nên chỉ còn cái note tiều tụy này mọi người đọc tạm vậy. \n\nhttps://www.facebook.com/groups/229244010425617/doc/672939746056039/\n\nThực ra lần này là lần thứ 3, lần thứ nhất là một gia đình khác vào dịp đầu năm nhưng hồi ấy không viết review nên tạm gọi là review lần 2 :)\n\nĐến chơi nhà người Nhật thì trước tiên là nên mang theo chút quà. Văn hóa tặng quà thì lần trước admin Vẹt đêm đã có bài viết rồi, mục văn hóa, các bạn vào note trên đầu group đọc sẽ thấy. Mình sẽ không giải thích thêm nữa nhưng có một chút lưu ý là người Nhật rất hay có thói quen tặng quà nhau nhất là những dịp họ đi đâu xa về, tặng dưới hình thức là お土産. Không cần to tát gì, đôi khi chỉ là hộp bánh kẹo họ mua về mở ra mọi người cùng ăn luôn. Mình cũng có mang đến hộp trà Ấn Độ lần trước đi hội nghị mua về. Tặng trà thì chắc là admin Vẹt Đêm sẽ mắng mình tới tấp đây :D\n\nBuổi đến chơi này mình đi cùng một số người khác và khác với lần trước là chủ nhà nấu nướng gần xong hết rồi, thì lần này là mọi người cùng làm món たこ焼き (món có vỏ ngoài là bột trộn bắp cải,... bên trong là nhân bạch tuộc). Làm たこ焼きthì người ta có một cái máy nướng chuyên dụng để làm. Các bạn có thể thấy như trong hình bên dưới. \n\nNguyên liệu làm vỏ bánh là loại bột chuyên dụng, hình như dùng được cho cả 天ぷら và たこ焼き. Trộn bột với một tỉ lệ trứng nước vừa phải và đánh nhuyễn lên cho đến khi bột hết vón cục. Ah nhưng mà không phải lúc nào cũng có trứng vì lần này là không có. Nhưng lần trước mình đi đến nhà mấy đứa bạn trong cùng サークル 合気道 chơi cũng làm món này, đó là lần đầu tiên học được cách làm. Lúc đó mình tài lanh nhảy vào giúp làm vỡ xừ nó mấy quả trứng. Xấu hổ không đỡ được. Một nguyên liệu cần thiết nữa là bắp cải. Bắp cải được băm nhỏ ra và trộn cùng với hỗn hợp bột. Và cũng với lượng vừa phải. Bạch tuộc thì được cắt nhỏ ra từng miếng để làm nhân.\n \nSau đó bật máy lên, quét mỡ qua các khuôn rồi đổ hỗn hợp cải bắp trứng bột kia vào và thả các miếng たこ焼き vào khuôn. Chờ một lúc khi phần dưới đã chin chín thì lấy que chọc vào và lật lên úp phần chưa chín xuống dưới. Quan trọng nhất là phải quay tay cho đều thì bánh mới tròn được :D\n\nKhi được rồi thì lấy ra đĩa, cho nước chấm, mayone, … các kiểu vào rồi chén. \n\nThực ra việc ăn uống cũng chỉ là phụ quan trọng lúc làm với nhau mọi người sẽ nói chuyện, như thế hay hơn là để một ai đó đứng nấu cả buổi vừa mệt cho họ, áy náy cho mình, mà cũng chẳng có gì vui cả. Đấy là lúc sau mọi người nhảy vào làm chứ lúc đầu có mỗi mình với cô con gái ngồi quay 30 cái một lúc mỏi hết cả tay. Ông bố toàn ngồi húc con ghita điện chả chịu làm gì cả. \n\nLúc no xôi chán chè, mặc dù vẫn còn đang nướng tiếp nhưng vì có mấy cái đàn  琴 dựng ở tường nên cô con gái chiều ý mọi người lấy chiếc đàn 琴（こと）ra đánh (giống kiểu đàn tam thập lục của Việt Nam nhưng có 13 dây thôi, cùng với さみせん là những loại đàn truyền thống của Nhật). Nếu như đã đọc post trước thì các bạn biết là gia đình nhà này văn nghệ sĩ thế nào rồi, ông bố tàng trữ tận 4 con ghita trong nhà (lần trước thấy có 3 lần này thấy thêm 1 con khác), 2 cô con gái cả 2 đều chơi đc piano, 琴, riêng cô chị chơi được thêm cả violin. Nói chung là bá đạo. \n\nQuyển nhạc phổ của đàn này được ghi theo kiểu cổ và toàn số kanji để biểu thị nhịp phách, dây đánh. Các bạn xem video sẽ thấy các khấc nâng dây đàn lên, vị trí các khấc đó có thể thay đổi và tạo ra nốt cố định cho dây. Nói tóm lại là nếu không thay đổi vị trí khấc thì đánh vào dây ấy chỉ ra được một nốt thôi. Nhưng trớ trêu là một bài hát về lý thuyết chỉ có 7 nốt chính nhưng nếu nằm ở các quãng khác nhau thì có thể nhiều hơn. Ở đây chỉ có 13 dây thì làm thế nào đánh được? Lúc này mới thấy cái bá đạo của người chơi. Bài nào phức tạp nhiều nốt thì người chơi trong lúc dùng tay phải gẩy dây này phải dùng tay trái thay đổi vị trí của khấc ở dây sắp đánh, mà quan trọng hơn là vào đúng được vị trí thì âm mới chuẩn, cái này mới thực sự khó, đòi hỏi trình độ cực cao.  \n\nDưới là video mình quay lại, bài 未来へ nhưng mà nghe video không hay bằng nghe trực tiếp được. Hôm nào có thời gian giới thiệu với các bạn bài này.  Lúc ấy có sẵn cây ghita và không khí nên mình cũng góp thêm một bài ３月９日, nhạc phim ”1 lít nước mắt” nếu bạn nào biết cũng là một bài hát rất hay. Còn người hát không hay thì chịu thôi :))  \n\nCòn gì không nhỉ, đọc cả 2 phần chắc là đủ rồi đấy. Nếu không đủ thì bao giờ nhớ ra viết tiếp vậy :D\n\n--Kham Pha","created_time":"2013-10-11T13:04:00+0000","updated_time":"2013-10-11T14:08:41+0000","likes":{"data":{"1305472811":{"id":"1305472811","name":"Tuan Nguyen"},"100001754136107":{"id":"100001754136107","name":"Nguyễn Tuấn Vũ"},"100002375344981":{"id":"100002375344981","name":"Trung Tran"},"100004514621076":{"id":"100004514621076","name":"Hason Angle"},"100002157379029":{"id":"100002157379029","name":"Nguyen Hai Dung"},"100001723862714":{"id":"100001723862714","name":"Bo Bien Vang"},"100002754998000":{"id":"100002754998000","name":"Nguyen Duc"},"100002801290859":{"id":"100002801290859","name":"Arsène Lupin"},"100002508122689":{"id":"100002508122689","name":"Vũ Mạnh Tuấn"},"849149395":{"id":"849149395","name":"Đặng Ngọc Trân"},"100005801442456":{"id":"100005801442456","name":"An Nguyen"},"100001416272263":{"id":"100001416272263","name":"Mai PB"}},"paging":{"cursors":{"after":"MTMwNTQ3MjgxMQ==","before":"MTMwNTQ3MjgxMQ=="},"next":"https://graph.facebook.com/229244010425617_736510083032338/likes?limit=1&summary=1&after=MTMwNTQ3MjgxMQ%3D%3D"},"summary":{"total_count":12}},"comments":{"data":{"736513793031967":{"id":"736513793031967","from":{"id":"100001416272263","name":"Mai PB"},"message":"Kham Pha search ra bài này, phải không? https://www.facebook.com/groups/CongdongVietNhat/permalink/667611549922192/","message_tags":[{"id":"100001458099624","name":"Kham Pha","type":"user","offset":0,"length":8}],"can_remove":false,"created_time":"2013-10-11T13:11:53+0000","like_count":0,"user_likes":false},"736514106365269":{"id":"736514106365269","from":{"id":"100001458099624","name":"Kham Pha"},"message":"ah chuẩn rồi, nhưng mà sao em search ko ra nhỉ :D","can_remove":false,"created_time":"2013-10-11T13:12:34+0000","like_count":0,"user_likes":false},"736514449698568":{"id":"736514449698568","from":{"id":"100001416272263","name":"Mai PB"},"message":"Search engine không tốt lắm, anh cũng nhiều khi không ra","can_remove":false,"created_time":"2013-10-11T13:13:14+0000","like_count":0,"user_likes":false},"736518703031476":{"id":"736518703031476","from":{"id":"100001458099624","name":"Kham Pha"},"message":"Ah quên chưa up ảnh","can_remove":false,"created_time":"2013-10-11T13:20:19+0000","like_count":4,"user_likes":false},"736518883031458":{"id":"736518883031458","from":{"id":"100001458099624","name":"Kham Pha"},"message":"","can_remove":false,"created_time":"2013-10-11T13:20:39+0000","like_count":5,"user_likes":false},"736519063031440":{"id":"736519063031440","from":{"id":"100001458099624","name":"Kham Pha"},"message":"","can_remove":false,"created_time":"2013-10-11T13:21:06+0000","like_count":5,"user_likes":false},"736520549697958":{"id":"736520549697958","from":{"id":"100001723862714","name":"Bo Bien Vang"},"message":"chẳng thấy nói là ăn có ngon ko? hương vị thế nào?","can_remove":false,"created_time":"2013-10-11T13:24:14+0000","like_count":1,"user_likes":false},"736528003030546":{"id":"736528003030546","from":{"id":"100002508122689","name":"Vũ Mạnh Tuấn"},"message":"trông không tròn lắm nhỉ anh :D hơi nát","can_remove":false,"created_time":"2013-10-11T13:35:01+0000","like_count":0,"user_likes":false},"736546566362023":{"id":"736546566362023","from":{"id":"100001458099624","name":"Kham Pha"},"message":"đang quay nên thành bánh chưa cứng ko thành hình ngay được, đến cuối cùng nó mới tròn.","can_remove":false,"created_time":"2013-10-11T14:08:41+0000","like_count":0,"user_likes":false}},"paging":{"cursors":{"after":"NzM2NTEzNzkzMDMxOTY3","before":"NzM2NTEzNzkzMDMxOTY3"},"next":"https://graph.facebook.com/229244010425617_736510083032338/comments?limit=1&summary=1&after=NzM2NTEzNzkzMDMxOTY3"},"summary":{"order":"chronological","total_count":9}}}