{"id":"229244010425617_737059946310685","type":"status","from":{"id":"100001754136107","name":"Nguyễn Tuấn Vũ"},"message":"Có gì đo hơi thất vọng về quảng bá  Việt Nam tại lễ hôi. Hình như  Việt Nam Airlines chỉ quảng cáo cho hãng hàng không thoii. Ng thì ko có để đấy.","created_time":"2013-10-12T09:34:11+0000","updated_time":"2013-10-12T11:34:53+0000","likes":{"data":{"1305472811":{"id":"1305472811","name":"Tuan Nguyen"},"100006179012972":{"id":"100006179012972","name":"Thy Dang"},"100004362480675":{"id":"100004362480675","name":"Đi Tìm Thất Bại"},"100006767705219":{"id":"100006767705219","name":"Kim Liên"},"100001458099624":{"id":"100001458099624","name":"Kham Pha"}},"paging":{"cursors":{"after":"MTMwNTQ3MjgxMQ==","before":"MTMwNTQ3MjgxMQ=="},"next":"https://graph.facebook.com/229244010425617_737059946310685/likes?limit=1&summary=1&after=MTMwNTQ3MjgxMQ%3D%3D"},"summary":{"total_count":5}},"comments":{"data":{"737060559643957":{"id":"737060559643957","from":{"id":"100001754136107","name":"Nguyễn Tuấn Vũ"},"message":"Tại ga hakata @@","can_remove":false,"created_time":"2013-10-12T09:35:43+0000","like_count":0,"user_likes":false},"737062422977104":{"id":"737062422977104","from":{"id":"100001416272263","name":"Mai PB"},"message":"Có lẽ ở nước ngoài thì hình ảnh VN ít khi được chú trọng, một phần vì không chuyên nghiệp, một phần vì không có tiền. Có lẽ ảnh trưng bày không bị bẩn và không viết sai thông tin là đã thành công đối với VN rồi.","can_remove":false,"created_time":"2013-10-12T09:40:34+0000","like_count":0,"user_likes":false},"737105579639455":{"id":"737105579639455","from":{"id":"100004923553810","name":"Xuan KY Nguyen"},"message":"chẳng lẽ vn thẩp kém đển mủ́c nhủ vậy sao a Mai PB","message_tags":[{"id":"100001416272263","name":"Mai PB","type":"user","offset":52,"length":6}],"can_remove":false,"created_time":"2013-10-12T11:26:24+0000","like_count":0,"user_likes":false},"737109696305710":{"id":"737109696305710","from":{"id":"100001416272263","name":"Mai PB"},"message":"Chính xác là chính phủ VN kém. Đưa cho dân làm, họ làm tốt ngay.","can_remove":false,"created_time":"2013-10-12T11:34:53+0000","like_count":2,"user_likes":false}},"paging":{"cursors":{"after":"NzM3MDYwNTU5NjQzOTU3","before":"NzM3MDYwNTU5NjQzOTU3"},"next":"https://graph.facebook.com/229244010425617_737059946310685/comments?limit=1&summary=1&after=NzM3MDYwNTU5NjQzOTU3"},"summary":{"order":"chronological","total_count":4}}}