{"id":"229244010425617_737593122924034","type":"status","from":{"id":"100006603217047","name":"NC Chỉnh"},"message":"Xin phép AD nhé ! \n\nMình có 1 chút tài liệu nhằm chia sẻ cho mọi người cùng học chung tại địa chỉ : http://japanesestyle4u.blogspot.com/\n\ntại đây tất cả tài liệu là miễn phí, mong các bạn đóng góp ý kiến và ủng hộ web của mình. \n\nCùng chia sẻ nhé ! ( ' _ ' )","created_time":"2013-10-13T01:34:19+0000","updated_time":"2013-10-14T06:02:30+0000","likes":{"data":{"100002871405403":{"id":"100002871405403","name":"Thach Sanh"},"1821970083":{"id":"1821970083","name":"Nguyễn Mạnh Cường"},"100001438932250":{"id":"100001438932250","name":"Luong Anh Nguyet"},"100002327743510":{"id":"100002327743510","name":"Tuan Thanh"},"100000226646981":{"id":"100000226646981","name":"My Nguyen"},"100000221147466":{"id":"100000221147466","name":"Kiệt Nguyễn"},"100003079912929":{"id":"100003079912929","name":"Chen Miku"},"100002876323062":{"id":"100002876323062","name":"Linh Nguyen"},"100004705145167":{"id":"100004705145167","name":"Ngọc Tuệ Bạch"}},"paging":{"cursors":{"after":"MTAwMDAyODcxNDA1NDAz","before":"MTAwMDAyODcxNDA1NDAz"},"next":"https://graph.facebook.com/229244010425617_737593122924034/likes?limit=1&summary=1&after=MTAwMDAyODcxNDA1NDAz"},"summary":{"total_count":10}},"comments":{"data":{"737594456257234":{"id":"737594456257234","from":{"id":"100001416272263","name":"Mai PB"},"message":"Nên tạo thành category các trình độ khác nhau.","can_remove":false,"created_time":"2013-10-13T01:38:11+0000","like_count":1,"user_likes":false},"737614442921902":{"id":"737614442921902","from":{"id":"1122379216","name":"Hà Ngô"},"message":"Bạn ơi trên điện thoại thì ko xem được à. Mình chưa máy tính :(","can_remove":false,"created_time":"2013-10-13T02:29:58+0000","like_count":0,"user_likes":false},"737734949576518":{"id":"737734949576518","from":{"id":"100000221147466","name":"Kiệt Nguyễn"},"message":"Cám ơn bạn nhiều nhé :)","can_remove":false,"created_time":"2013-10-13T06:05:49+0000","like_count":0,"user_likes":false},"738043779545635":{"id":"738043779545635","from":{"id":"100001597637331","name":"Nguyen Minh Tien"},"message":"\"DỰ ÁN HEDSPI TRƯỜNG ĐẠI HỌC BÁCH KHOA HN\"???","can_remove":false,"created_time":"2013-10-13T15:51:08+0000","like_count":0,"user_likes":false},"738120202871326":{"id":"738120202871326","from":{"id":"100000328742646","name":"Trần Giáp"},"message":"toàn tài liệu đi copy paste của người khác thế bạn ? \"Pass nếu có : studyjapanese.net\" :3","can_remove":false,"created_time":"2013-10-13T17:58:38+0000","like_count":0,"user_likes":false},"738409216175758":{"id":"738409216175758","from":{"id":"100002508122689","name":"Vũ Mạnh Tuấn"},"message":"Trần Giáp: ô Chỉnh học cùng mình đây mà :3","message_tags":[{"id":"100000328742646","name":"Trần Giáp","type":"user","offset":0,"length":9}],"can_remove":false,"created_time":"2013-10-14T02:47:05+0000","like_count":0,"user_likes":false},"738492156167464":{"id":"738492156167464","from":{"id":"100000328742646","name":"Trần Giáp"},"message":":3","can_remove":false,"created_time":"2013-10-14T06:02:30+0000","like_count":0,"user_likes":false}},"paging":{"cursors":{"after":"NzM3NTk0NDU2MjU3MjM0","before":"NzM3NTk0NDU2MjU3MjM0"},"next":"https://graph.facebook.com/229244010425617_737593122924034/comments?limit=1&summary=1&after=NzM3NTk0NDU2MjU3MjM0"},"summary":{"order":"chronological","total_count":7}}}