{"id":"229244010425617_737648712918475","type":"status","from":{"id":"100001416272263","name":"Mai PB"},"message":"Đảng và Chính phủ nợ Đại tướng những lời xin lỗi. Nhưng dân biết hết.","created_time":"2013-10-13T03:39:34+0000","updated_time":"2013-10-14T16:25:57+0000","likes":{"data":{"100004094346107":{"id":"100004094346107","name":"Thuy Nga Nguyen"},"100002885753460":{"id":"100002885753460","name":"Giap Dinh Che"},"100003235972334":{"id":"100003235972334","name":"Az Xa Quê"},"1061065777":{"id":"1061065777","name":"Xoắn Quẩy"},"1804434883":{"id":"1804434883","name":"Duyen Le"},"100004923553810":{"id":"100004923553810","name":"Xuan KY Nguyen"},"100001754136107":{"id":"100001754136107","name":"Nguyễn Tuấn Vũ"},"100004140850631":{"id":"100004140850631","name":"Huong Trang"},"100004372208548":{"id":"100004372208548","name":"Neko Chan"},"100005440689746":{"id":"100005440689746","name":"Trang Mapy"},"100003055356509":{"id":"100003055356509","name":"Thuan Nguyen"},"100006738850876":{"id":"100006738850876","name":"Ho Tuan"},"100003925443381":{"id":"100003925443381","name":"Minh Thọ Ngô"},"100001627822638":{"id":"100001627822638","name":"Duong Lam"},"100004617871532":{"id":"100004617871532","name":"Tran Luong Cam Tu"},"100006767705219":{"id":"100006767705219","name":"Kim Liên"},"1416265619":{"id":"1416265619","name":"Starwar Bbj"},"100002470650247":{"id":"100002470650247","name":"LinhLinh Chan"},"100003850641990":{"id":"100003850641990","name":"Lê Trang"},"100002327743510":{"id":"100002327743510","name":"Tuan Thanh"},"100006639693310":{"id":"100006639693310","name":"Hong Phuc Le Nguyen"},"100004672236926":{"id":"100004672236926","name":"Văn Khẩn"},"100003683390259":{"id":"100003683390259","name":"Huệ Hoàng"},"100001458099624":{"id":"100001458099624","name":"Kham Pha"},"100001640692629":{"id":"100001640692629","name":"Binh Duong"},"100004697134434":{"id":"100004697134434","name":"Thảo Xexekubo"},"1846809835":{"id":"1846809835","name":"Dorae Phương"},"100004362480675":{"id":"100004362480675","name":"Đi Tìm Thất Bại"},"100005365830857":{"id":"100005365830857","name":"Đặng Thu Huyền"},"100000309978634":{"id":"100000309978634","name":"Tan Vu"},"100005566321381":{"id":"100005566321381","name":"Bin Lee"},"100005326598672":{"id":"100005326598672","name":"Duong Duong"},"100004996359569":{"id":"100004996359569","name":"Trần Tú Linh"},"100002294599580":{"id":"100002294599580","name":"Đầu Cá Ngão"},"100002230230544":{"id":"100002230230544","name":"Nakamura Minako"},"100003324969497":{"id":"100003324969497","name":"Nam Phạm"},"100003973288267":{"id":"100003973288267","name":"Duhoc Vieclam Nhật Bản"},"100004644242069":{"id":"100004644242069","name":"Sakura Bùi"},"100005478454231":{"id":"100005478454231","name":"Maruko Chan"},"1122379216":{"id":"1122379216","name":"Hà Ngô"},"100000603915176":{"id":"100000603915176","name":"悪いな ぁ"},"100000027754899":{"id":"100000027754899","name":"Hoang Van Ba"}},"paging":{"cursors":{"after":"MTAwMDA0MDk0MzQ2MTA3","before":"MTAwMDA0MDk0MzQ2MTA3"},"next":"https://graph.facebook.com/229244010425617_737648712918475/likes?limit=1&summary=1&after=MTAwMDA0MDk0MzQ2MTA3"},"summary":{"total_count":44}},"comments":{"data":{"737652192918127":{"id":"737652192918127","from":{"id":"100003973288267","name":"Duhoc Vieclam Nhật Bản"},"message":"Mình thấy câu này chưa chuẩn lắm, nên sưa là: người đứng đầu đảng và chính phủ mấy khóa gần đây nợ cụ Đại tướng những lời xin lỗi. Nhung dân biết hết.\"\nLãnh đạo ai có công, ai tốt, ai xấu dân biết hết.\nSau này chắc chẳng còn ai để dân ta tiếng thương như thế nữa!\n\"Việc nhân nghĩa cốt ở yên dân\", ko được lòng dân thì sớm muộn cũng mất nước, mất chính quyền!","can_remove":false,"created_time":"2013-10-13T03:48:15+0000","like_count":10,"user_likes":false},"737660612917285":{"id":"737660612917285","from":{"id":"100001416272263","name":"Mai PB"},"message":"Tại sao lại chỉ mấy khóa gần đây? Bạn chưa biết hết rồi.","can_remove":false,"created_time":"2013-10-13T03:50:56+0000","like_count":1,"user_likes":false},"737662362917110":{"id":"737662362917110","from":{"id":"100003634822576","name":"Jessica Lam Phuong"},"message":"Mình nghĩ ko nhiều người biết đâu bạn à,nhiều đứa chả biết chủ tịch nước hiện giờ là ai","can_remove":false,"created_time":"2013-10-13T03:51:35+0000","like_count":2,"user_likes":false},"737665879583425":{"id":"737665879583425","from":{"id":"100003973288267","name":"Duhoc Vieclam Nhật Bản"},"message":"Cứ tạm tính từ khóa Tổng bí thư L D được chưa bạn?","can_remove":false,"created_time":"2013-10-13T03:53:01+0000","like_count":2,"user_likes":false},"737666339583379":{"id":"737666339583379","from":{"id":"100001416272263","name":"Mai PB"},"message":"Sẽ có ngày mọi việc rõ ràng như ban ngày thôi.","can_remove":false,"created_time":"2013-10-13T03:53:11+0000","like_count":0,"user_likes":false},"737673379582675":{"id":"737673379582675","from":{"id":"100000381394367","name":"Thành Nguyễn"},"message":"https://fbcdn-sphotos-c-a.akamaihd.net/hphotos-ak-prn2/q71/1382277_747358808624202_1355917432_n.jpg","can_remove":false,"created_time":"2013-10-13T03:56:42+0000","like_count":4,"user_likes":false},"737674289582584":{"id":"737674289582584","from":{"id":"100001416272263","name":"Mai PB"},"message":"Duhoc Vieclam Nhật Bản thế cũng gần 40 năm rồi...","message_tags":[{"id":"100003973288267","name":"Duhoc Vieclam Nhật Bản","type":"user","offset":0,"length":22}],"can_remove":false,"created_time":"2013-10-13T03:59:12+0000","like_count":2,"user_likes":false},"737674322915914":{"id":"737674322915914","from":{"id":"100003973288267","name":"Duhoc Vieclam Nhật Bản"},"message":"Có người nói cụ Đại tướng nhu nhược, họ chẳng hiểu gì về chữ nhẫn trong con người cụ cả.\nNếu cứ đòi rõ ràng đến cùng trong điều kiện VN ta thì rất rễ loạn và có thể lại có \"cuộc chiến hoa hồng\" diễn ra và sẽ kết thúc tất cả.","can_remove":false,"created_time":"2013-10-13T03:59:20+0000","like_count":6,"user_likes":false},"737693116247368":{"id":"737693116247368","from":{"id":"100003964401371","name":"Hạnh Candy"},"message":"moi nguoi noi chuan qua di...ai bao nhan dan k biet chi la co noi hay k thoi...","can_remove":false,"created_time":"2013-10-13T04:47:31+0000","like_count":1,"user_likes":false},"737696196247060":{"id":"737696196247060","from":{"id":"100000399879223","name":"Hoan Le"},"message":"Biết mà ko dám nói = 0","can_remove":false,"created_time":"2013-10-13T04:56:13+0000","like_count":5,"user_likes":false},"737728592910487":{"id":"737728592910487","from":{"id":"100004672236926","name":"Văn Khẩn"},"message":"Con nguoi viet nam la vay ma! Khi dag con song thi khong them nhac den! Khi qua doi thi lai noi la vo cung thuong tiec nhug su thuong tiec do lai khong duoc bao lau! Minh sợ  Đại Tướng lại di vào dĩ vãng mất!!!!","can_remove":false,"created_time":"2013-10-13T05:47:20+0000","like_count":0,"user_likes":false},"737769076239772":{"id":"737769076239772","from":{"id":"100003973288267","name":"Duhoc Vieclam Nhật Bản"},"message":"Mình tin ở VNN, thế hệ Bác Hồ thì Bác và Đại Tướng sẽ mãi trong lòng mọi người! Quan trọng chúng ta có kể cho con cháu chúng ta thế nào thôi","can_remove":false,"created_time":"2013-10-13T07:47:57+0000","like_count":0,"user_likes":false},"737792782904068":{"id":"737792782904068","from":{"id":"100001416272263","name":"Mai PB"},"message":"Nghe nói là VTV hôm nay rất là thất đức và bất tài. Nhưng có lẽ đều theo kịch bản được trên duyệt rồi.","can_remove":false,"created_time":"2013-10-13T08:49:57+0000","like_count":2,"user_likes":false},"737795212903825":{"id":"737795212903825","from":{"id":"100001458099624","name":"Kham Pha"},"message":"làm gì cũng bị kiểm duyệt, cũng phải lo sợ thì ko thể ko bất tài.","can_remove":false,"created_time":"2013-10-13T08:55:54+0000","like_count":0,"user_likes":false},"737999002883446":{"id":"737999002883446","from":{"id":"100000381394367","name":"Thành Nguyễn"},"message":"tài đè đầu cưỡi cổ dân và tranh đoạt quyền lực thì khỏi phải bàn, chắc chắn là có, nhưng tài kinh bang tế thế trị quốc an dân thì 100% là không.","can_remove":false,"created_time":"2013-10-13T15:17:05+0000","like_count":0,"user_likes":false},"738007222882624":{"id":"738007222882624","from":{"id":"100000027754899","name":"Hoang Van Ba"},"message":"Xl. E chưa biết. Mọi ng có thể giải thích 1 chút đc ko ??","can_remove":false,"created_time":"2013-10-13T15:30:37+0000","like_count":0,"user_likes":false},"738009722882374":{"id":"738009722882374","from":{"id":"100000381394367","name":"Thành Nguyễn"},"message":"http://bolapquechoa.blogspot.com/2013/10/tot-cung-hon-lao-voi-dan-toc-viet-nam.html?spref=fb","can_remove":false,"created_time":"2013-10-13T15:34:44+0000","like_count":0,"user_likes":false},"738095946207085":{"id":"738095946207085","from":{"id":"1146680551","name":"優しい なぁ"},"message":"Có 1 điều mình k hiểu đươc là khi xem ảnh về đám tang Đại Tướng bên cạnh những người đan khóc thì rất rất rất nhiều người giơ máy ảnh lên chụp lấy chụp để.Ngay ở đám táng bình thường người ta còn rất hạn chế việc chụp ảnh,huống hồ đây là 1 con người đại diện cho cả dân tộc.mình k thể hiểu nổi....Từ trên đến mọi người đều k tôn trọng Đại Tướng.","can_remove":false,"created_time":"2013-10-13T17:14:41+0000","like_count":1,"user_likes":false},"738151852868161":{"id":"738151852868161","from":{"id":"100000027754899","name":"Hoang Van Ba"},"message":"Hỏng !!! Thanks thành Nguyễn nhá","can_remove":false,"created_time":"2013-10-13T18:56:36+0000","like_count":0,"user_likes":false},"738329892850357":{"id":"738329892850357","from":{"id":"100005801442456","name":"An Nguyen"},"message":"Những ngày tang lễ đáng lẽ k nên nói mấy điều này vì có lẽ bác cũng mong 1 sự yên bình k đố kị dèm pha ,ngăn chặn quyền lực.nhưng có lẽ 1 điều mà ít ai ít biết về con người vĩ đại này,1 vị tướng oai hùng của cả thế kỉ 21,1 vị tướng hết mình vì đất nước,để rồi cuối cùng đc cho phân về \" Bộ sinh đẻ,kế hoạch hoá gia đình\" ?!?hơi thắc mắc! Chẳng lẽ hết người?chẳng lẽ ai k thể làm? Hay mục đích khác,như lo sợ quyền lực sẽ mất...!?!nhưng cái tôi Tôn trọng nhất ở ông là vị tướng của nhân dân nên dù là cv gì,chỉ cần có thể đóng góp đc cho đất nước ông sẽ hết mình! ...","can_remove":false,"created_time":"2013-10-14T00:06:20+0000","like_count":3,"user_likes":false},"738748669475146":{"id":"738748669475146","from":{"id":"100000128764209","name":"Chau Le"},"message":"Đây cũng chưa phải là tin xác thực, chúng ta cũng chưa biết thực hư mọi chuyện như thế nào nên cũng ko thể nói gì đc. Tuy nhiên quả thật phải công nhận một điều rằng người duy nhất còn có thể lấy đi nước mắt của nhân dân đã ra đi. Các lãnh đạo ngày sau có thể là học thức cao nhưng những gì họ thể hiện năng lực cũng như phẩm chất đều quả thật thua xa. Nhưng mà như mọi người đã nói dân biết nhưng dân ko bàn cũng ko có quyền bàn vì nếu đi quá sâu có ngày bỏ mạng _ _ thế nên người VN ta cứ im lặng là vàng còn bất mãn thì tìm đường xuất ngoại _ _ vòng lẩn quẩn của chúng ta là đây _ _","can_remove":false,"created_time":"2013-10-14T15:21:54+0000","like_count":1,"user_likes":false},"738767026139977":{"id":"738767026139977","from":{"id":"100000128764209","name":"Chau Le"},"message":"_ _ nhà nc lúc đầu vốn đã ko dự định tổ chức quốc tang rồi, nếu ko sau lại để đến một tuần. Nếu ko phải áp lực quần chúng thì... Mà thôi nói nhiều nói dai mà ai trên cao có hỉu _ _ nhìn cả một bộ sậu đi đưa tang mà chả ai có mặt thương tâm, trừ người dân bình thường. hài.","can_remove":false,"created_time":"2013-10-14T15:44:44+0000","like_count":2,"user_likes":false},"738788512804495":{"id":"738788512804495","from":{"id":"100000381394367","name":"Thành Nguyễn"},"message":"cái ảnh kia down từ trang thông tin http://www.thudo.gov.vn/ mà còn ko xác thực gì nữa","can_remove":false,"created_time":"2013-10-14T16:25:57+0000","like_count":0,"user_likes":false}},"paging":{"cursors":{"after":"NzM3NjUyMTkyOTE4MTI3","before":"NzM3NjUyMTkyOTE4MTI3"},"next":"https://graph.facebook.com/229244010425617_737648712918475/comments?limit=1&summary=1&after=NzM3NjUyMTkyOTE4MTI3"},"summary":{"order":"chronological","total_count":25}}}