{"id":"229244010425617_737881142895232","type":"status","from":{"id":"100005801442456","name":"An Nguyen"},"message":"Qua có gọi điện về trường cũ thăm ae bạn bè ở sendai thì có 1 thông tin chắc các bạn có hứng.\n\" anh ơi! Tuần trước nyukan tới trường,nó lôi hết ai làm 2 job ra anh ạ,mấy trường luôn\",sao thấy hot không?\n- 2 việc 1 sổ ngân hàng : chết!\n-2 việc 2 sổ ngân hàng : chết!\n-1 việc nhưng làm quá 2 , 3h: cũng chết\n-làm 2 job cách đây 3 tháng nhưng đã nghĩ : chết ko kịp ngáp.\n-lương tay nhưng lúc làm có nộp thẻ ngoại kiều: chết!\n-lương tay không nộp gì hết ngoài ghi tên địa chỉ: chết nốt.\nNói chung không có hốc nào hẻm nào mà thoát.Ơ cái đất nước này tỉ lệ tội phạm bắt tới 90% cao hơn cả Mỹ 70%,thì ở đó đứng bảo mấy sổ mà thoát,chỉ là họ muốn hay không thôi. tất cả có visa mới hết,ít thì cũng mới có khoảng 1 tuần.đừng nghĩ cầm visa mà sống sót.Mà hay cái chỉ học sinh Việt Nam thôi nhé,Trung không ,philippin không ,chile không! Chỉ mỗi Việt Nam!Lý do thì nói mãi 1 đề tài nghe nhạt cả tai:không trộm thì đá,ko đá thì lại trộm cứ cái vòng đó. \n1 thành phố chịu cơn sóng thần rồi gồng mình vươn lên như biểu tượng mạnh mẽ cả nước Nhật giờ phải chịu đựng cơn sóng người Việt Nam,cứ như đàn châu chấu háu ăn; đi tới đâu quơ đồ tới đó,cây có trái vặt trái,cây có hoa vặt hoa,xe đạp ko khoá hay khoá đểu thì bốc hơi,xe đạp mà có khoá thì ... Vẫn ở lại! Nhưng xin mỗi cái bánh,\" xe nó hư săm nên thôi lấy gắn đỡ\"!!! Hết thuốc!để rồi cảnh sát tới từng khu nhà người Việt ở mà điều tra xe từng người,có cái nhục nào hơn nhục này.\nai bảo \" 1 con sâu làm rầu nồi canh\"thôi nào?.Ví như cái nồi đó mà từ nhà hàng, quán ăn mà đi phục vụ người ta thì sẽ dẫn đến đóng cửa=>rồi nhân viên thất nghiệp=>mẹ thì không công ăn việc làm dẫn đến cờ bạc,bố buồn bực dẫn đến rượu chè bê tha đánh đập vợ con=> rồi dẫn đến đứa trẻ lớn lên thiếu tình thương =>và cuối cùng mất 1 thế hệ trẻ và lí do là do.. 1 con sâu!!! Nói chắc chưa hiểu rõ vậy phân tích thêm:\n1 lớp 16 anh thì 12 anh bị bắt,còn 2 anh mới nộp hồ sơ việc 2 chưa đi làm,1 anh chưa kiếm đc 1 việc thứ 2 và chỉ đúng 1 anh đủ lực tài chính mà k đi làm 2 việc!Trường nào ít thì cứ cho vài chục hs Việt,trường nào nhiều thì vài trăm,cứ đoán sơ thì chắc cũng trên 70% số đó đang hay sắp làm 2 việc.Mà ai đã bước đc sang tới đây thì bỏ ít cũng 2 300,mà đa phần là nợ vậy thì có mà bị hốt xác thì chỉ có mập chủ nợ với ngân hàng thôi,1 ngưoi bỏ 300tr tiền nợ thì 100 người số tiền nợ là 30 tỷ,1000 người là 300 tỷ...có làng thì đầu tư \" du học \" cũng 20 30 mạng,nếu mà cho về hết thì cái làng đó chắc ko xa cái ngày liệt vào danh sách nghèo khó nợ nầng,nghe đâu 2 3 năm trước nyukan tiễn 1 phát hơn 300 bạn Trung hàng xóm về nước nhanh gọn ko thắc mắc,vậy có khi cái ngày Việt Nam thay thế chắc không xa khi riêng 1 tháng 4 - 2013 cả nước Nhật nhận hơn 5200 học sinh việt Nam thì bao trong số đó có tâm học thật,có thể sống tốt đúng pháp luật ở nhật được?\n Xét cái trường hợp mà về nước đi,thì đối với những ngừoi cố mà đi làm trả nợ thì việc học chăc' chắn gác 1 bên bởi thế có về nước thì 2 năm cũng có đc \" hẳn \" tấm bằng n3!!còn có mà đc ở lại thì cũng chưa chắc đã yên thân.đã mà vào danh sách đen thì đừng có nghĩ đến chuyện trốn chui ở đâu mà tái phạm,còn có mà đi nơi khác để tránh nyukan nơi đó thì đi kiểu nào? Tiền đâu mà đi?việc đâu mà trả nợ?mà chắc gì hồ sơ nó k chuyển tới nyukan mới?\nĐời lắm cái buồn cười,cái người mà kể lại thì trước cũng tham gia dịch vụ đặt hàng qua \" miệng \" trao hàng tận tay,giá thì 1 nữa,thì giờ quay lại trách mắng thế này \" mẹ cái bọn ăn cắp,làm ảnh hưởng chung mọi người,ăn cắp thì đc bảo lãnh ở lại đc,còn làm việc chân chính mà chỉ quá giờ thì lại về nước\".Cái đó phải gọi là khi con người ta  bị tác động đến quyền lợi và lợi ích của chính mình thì họ mới nhận ra sự nguy hiểm xâu xa của việc thương hại của mình trước kia.nói về cái việc thương hại những người có hành động xấu đó thì có 1 Bộ phận nêu lên là cần phải có 1 phần trách nhiệm và nghĩa vụ trong đó,cái này thì xin phép nói thẳng.: Chả có cái gọi là trách nhiệm nghĩa vụ ở đây.nghe nó hơi phủ 1 tí chứ ngoài 3 điều: tổ quốc, bố mẹ gia đình ảe  ruột thịt, và công việc vì đó là những điều đc nhận nên phải có nghĩa vụ báo đáp trả lại ngoài ra thì k lôi 2 chữ trách nhiệm vào, vì thật chất những điều bạn nói nó đã có 2 chữ trách nhiệm chưa?chỉ nêu lên giúp họ khuyên họ mà chả có hành động nào cụ thể vậy chẳng phải tự mình vô trách nhiệm khi nói người khác phải có trách nhiệm?!?có lẽ nói ra chỉ giải quyết cái nhu cầu \" sướng \" cái đã tính sau!Trách nhiệm là gì? Khi tự dưng cả trăm con người bị đẩy vào con đường tiến thoái lưỡng nan,hồi hộp đợi cái cuộc đt từ 1 số bàn là lạ mà có khi sẽ bắt đầu vào thứ 3 tuần sau khi nyukan bắt đầu làm việc trở lại?nhẹ thì đóng số tiền làm quá giờ,nặng thì hẹn 1 ngày ko trở lại narita,thế ai lãnh cái trách nhiệm đấy?có phải cái người mà bạn bảo người khác phải có trách nhiệm trong khi họ lại gián tiếp hay trực tiếp gây ra việc kia mà miệng thì cứ thanh minh,và giải thích.?!\nCòn nói về vấn đề khuyên bảo mấy người \" vô tình lỡ bước \" ấy thì không hề mỉa mai mà tận trong đáy lòng xin nói 2 chữ cảm phục!phục ở chỗ để mà thay đổi bản thân thì đã mất không ít thời gian,mà bạn lại thay đổi người khác cải tà quy chính thì vô cùng có tính nhân văn ,\" giúp 1 người bằng xây 7 cảnh chùa\" đấy nhỉ nhưng có lẽ vô cùng thiếu hiệu quả! Xây 1 cái chùa nhanh thì 1 năm,hẳn 7 cái thì 7 năm! Đợi mà lúc đó chắc hàng hàng lớp lớp con người mà bị trực tiếp hay gián tiếp nối đuôi nhau ra narita thì chắc k ít!\nNhững người đó quan điểm thương xót thì có lẽ thuộc 3 kiểu như sau( thứ tự tăng dần)\nA/ người rất tốt bụng,tâm rất thiện\nB/ đồng phạm,có mối quan hệ Liên kết với họ.à sẵn tiện nói luôn,bữa có đăng cái hình bạn Việt Nam mặc áo quốc kì đi hành nghề bj bắt thì có mấy anh vào bênh can,mình nói thật trong đó có 1,2 anh thuộc nhóm này,còn biết mới ra khỏi đó ko đc bao lâu nữa nhưng đánh người chạy đi k ai đánh người chạy lại nên thôi k nói chứ k có nghĩa ko biết nên thôi thay vì giải thích thì nên im lặng vì lời nói nó không có giá trị lưu thông.\nC/ cuối cùng là nhóm người chưa bị đụng chạm đến quyền lợi cá nhân hay chưa suy nghĩ đến nó và có lẽ chưa bao giờ tiếp xúc những người này và thực sự chưa thấy cái \"khổ\" thật sự mà họ cứ kêu ca, Mình thì k nghĩ bạn nào mà còn có suy nghĩ trên khi nằm trong cái lớp người đang mất ăn mất ngủ chờ cái tin sét đánh kia hay nhẹ nhẹ như đi phỏng vấn ở đâu mà ai nó bảo thẳng toẹt Việt Nam sao thích ăn trộm thế!\nKhông biết sau này thế nào chứ giờ rõ mồn một:\n*Các tu nghiệp sinh giờ muốn quay lại để đi học thì cánh cửa gần nhau đóng kín,dù ko phải họ , ai cũng đều thực tâm thế\n*xét Hồ sơ dhs Việt Nam trở nên vô cùng khó,nếu trước kia 1 năm có trường đưa cả hàng trăm học sinh thì chính ngôi trường đó chỉ có vài mạng cho 1 đợt,dẫn đến đôi khi những người có ý Chí thật sự tự dưng gặp khốn.\n*biết đâu được thêm cuộc thanh trừ giống như kia nữa,khi đó khỏi oán ai\n*rồi bao thứ bủa vây như khi bị từ chối xin việc ,v.vv\nHey thôi cố tuần sau xem số lượng bao nhiêu,đặt hoa hôm nào ra narita tặng từng em,chúc mấy e thượng lộ bình an,đáp cánh an toàn,trả nợ xuông sẻ!","created_time":"2013-10-13T12:13:36+0000","updated_time":"2013-10-14T04:42:32+0000","likes":{"data":{"100005537491082":{"id":"100005537491082","name":"Dang Oanh"},"100003366941701":{"id":"100003366941701","name":"Hong Ngoc Le"},"100002871405403":{"id":"100002871405403","name":"Thach Sanh"},"100004743935020":{"id":"100004743935020","name":"Thanh Huyen"},"100004041794244":{"id":"100004041794244","name":"Watanuki Kimihiro"},"100003671803669":{"id":"100003671803669","name":"Tojika Sakura"},"100003726227911":{"id":"100003726227911","name":"Hoang Nguyen Huy"},"100002134083104":{"id":"100002134083104","name":"Bùi Quang Hoàng"},"100004411770431":{"id":"100004411770431","name":"Giap Viet Dung"},"1828193213":{"id":"1828193213","name":"An Ha"},"100004362480675":{"id":"100004362480675","name":"Đi Tìm Thất Bại"},"100003849244990":{"id":"100003849244990","name":"Dung Ngo"},"100002327743510":{"id":"100002327743510","name":"Tuan Thanh"},"100006652034531":{"id":"100006652034531","name":"Thuythuy Nguyen"},"1023965040":{"id":"1023965040","name":"Juli KimChi"},"100001416272263":{"id":"100001416272263","name":"Mai PB"},"100006530739713":{"id":"100006530739713","name":"Phan Châu Trinh"},"100000027754899":{"id":"100000027754899","name":"Hoang Van Ba"},"100002801290859":{"id":"100002801290859","name":"Arsène Lupin"},"100005347960626":{"id":"100005347960626","name":"Kevin Đạo"},"100001580479641":{"id":"100001580479641","name":"Hà Xuân Thủy"},"100004234301106":{"id":"100004234301106","name":"Hà Kawaii"},"100000226801560":{"id":"100000226801560","name":"Lương Anh Sơn"},"100001257093338":{"id":"100001257093338","name":"Hanh Dang"},"1725907325":{"id":"1725907325","name":"Nguyen Van Dung"},"100001622486348":{"id":"100001622486348","name":"Tuan Lam"},"100003828118579":{"id":"100003828118579","name":"Khanh Linh"},"100001754136107":{"id":"100001754136107","name":"Nguyễn Tuấn Vũ"},"100006469978177":{"id":"100006469978177","name":"Nắng"},"100001802560977":{"id":"100001802560977","name":"Củ Chuối"},"100004461275333":{"id":"100004461275333","name":"Ô Hay Hay"},"100001458099624":{"id":"100001458099624","name":"Kham Pha"},"100001501594956":{"id":"100001501594956","name":"Hieu Tran"},"100005599265794":{"id":"100005599265794","name":"Nam Hoang"},"100002265193557":{"id":"100002265193557","name":"Gấu Mó"},"100000301107340":{"id":"100000301107340","name":"Bảo Bảnh Bao"}},"paging":{"cursors":{"after":"MTAwMDA1NTM3NDkxMDgy","before":"MTAwMDA1NTM3NDkxMDgy"},"next":"https://graph.facebook.com/229244010425617_737881142895232/likes?limit=1&summary=1&after=MTAwMDA1NTM3NDkxMDgy"},"summary":{"total_count":38}},"comments":{"data":{"737887529561260":{"id":"737887529561260","from":{"id":"100005599265794","name":"Nam Hoang"},"message":"Theo mình thì các bạn nên  có  hành động để tác động đến Đại sứ quán Việt Nam để hạn chế tình trạng lừa người qua đây, nên dập tại nguồn thì tốt hơn. Mình thì thấy nhà nước VN quá vô trách nhiệm với công dân nước mình nên cứ làm ngơ để xảy ra tình trạng này","can_remove":false,"created_time":"2013-10-13T12:27:02+0000","like_count":8,"user_likes":false},"737895836227096":{"id":"737895836227096","from":{"id":"100001535362081","name":"Mukan Kokoro"},"message":"k lam 2 job k du sog? K con cach nao sao","can_remove":false,"created_time":"2013-10-13T12:35:13+0000","like_count":2,"user_likes":false},"737911742892172":{"id":"737911742892172","from":{"id":"100003255352496","name":"Vicky Martin"},"message":"Thế e chết chắc. Mới qua thế này thì nguy hẻm. Azidaphat","can_remove":false,"created_time":"2013-10-13T12:56:46+0000","like_count":0,"user_likes":false},"737947176221962":{"id":"737947176221962","from":{"id":"100004322010992","name":"Nhím Xù"},"message":"Nuykan là ji vậy e ko hỉu a c ơi keisatsu ak","can_remove":false,"created_time":"2013-10-13T13:39:55+0000","like_count":0,"user_likes":false},"737965539553459":{"id":"737965539553459","from":{"id":"1725957011","name":"Mizuki Dau Tay"},"message":"Mỗi sinh viên chỉ đc làm thêm 1 chỗ thôi ah bạn?","can_remove":false,"created_time":"2013-10-13T14:16:39+0000","like_count":0,"user_likes":false},"737965999553413":{"id":"737965999553413","from":{"id":"100002801290859","name":"Arsène Lupin"},"message":"Sang đây có một điều sợ vô hình là khi nói mình là người Việt Nam!","can_remove":false,"created_time":"2013-10-13T14:17:31+0000","like_count":3,"user_likes":false},"737969286219751":{"id":"737969286219751","from":{"id":"100005801442456","name":"An Nguyen"},"message":"Nyukan là cơ quan quản lý xuất nhập cảnh,ngưoi nước ngoài cư trú tại nhật,luật của Nhật quy định đối với dhs chỉ đc làm 28H/1 tuần ,và có thể làm thêm nếu đó trong tgian nghĩ của trường.","can_remove":false,"created_time":"2013-10-13T14:23:51+0000","like_count":0,"user_likes":false},"737994129550600":{"id":"737994129550600","from":{"id":"100006530739713","name":"Phan Châu Trinh"},"message":"Bài viết của bạn được chia sẻ tại đây. Hy vọng nó giống như lieu thuốc cảnh tỉnh cho những đứa trẻ ngây ngô, thơ dại, cho những kẻ lưu manh gian ác nhưng vẫn còn có lương tâm\n\nhttps://www.facebook.com/photo.php?fbid=531200680295730&set=a.519154464833685.1073741831.518862408196224&type=1&theater&notif_t=photo_comment","can_remove":false,"created_time":"2013-10-13T15:09:25+0000","like_count":1,"user_likes":false},"738002312883115":{"id":"738002312883115","from":{"id":"100001535362081","name":"Mukan Kokoro"},"message":"Trog thoj jan nghj thj mun lam may jo thj lam hay co joj han nao k?","can_remove":false,"created_time":"2013-10-13T15:22:46+0000","like_count":0,"user_likes":false},"738006059549407":{"id":"738006059549407","from":{"id":"100000027754899","name":"Hoang Van Ba"},"message":"Vãi chưởng","can_remove":false,"created_time":"2013-10-13T15:28:48+0000","like_count":0,"user_likes":false},"738447476171932":{"id":"738447476171932","from":{"id":"100002964741018","name":"Eric Vu"},"message":"Linh Yến cái này nè","message_tags":[{"id":"100004598742926","name":"Linh Yến","type":"user","offset":0,"length":8}],"can_remove":false,"created_time":"2013-10-14T04:05:15+0000","like_count":0,"user_likes":false},"738468339503179":{"id":"738468339503179","from":{"id":"100006368081099","name":"Man Thu"},"message":"Phải làm 2 việc mới có thế tốt dc mà vẫn bị tìm ra thì có lẽ là ngoài tầm kiểm soát.nhưng đây lại là hệ quả của việc ăn trộm, ăn cắp nên càng đáng trách.những kẻ làm liều thì ko có cảm giác j rồi nhưng những người bị ảnh hưởng chung    Cũng sống trong mệt mỏi vì lo lắng. Ăn trộm của người Việt bên này tớ nghĩ thành vấn nạn rồi,có lẽ còn thành nếp nghĩ: ko có gan ăn trộm thì thôi, có gan lấy trộm mà ko lấy chỉ có người ko Bình thường. Hết tiền - lấy trộm.\nĐể xem cái cảm giác lấy trộm thế nào- lấy trộm, lấy những thứ chả để làm j, ko dùng. Em\nMuốn ăn cái này, có cái kia- lấy trộm. Có bạn nữ biết lợi dụng tính sĩ bọ của các bạn Nam: xin hết cái này đến cái kia, 7 ngày Đeo đến 5 cái đồng Hồ khác nhau, ở nhà thì treo đồng Hồ từ nhà tắm đến giường ngủ, ..... Hậu quả phải gánh đến khi nào mới hết thì chưa biết, nhưng dừng lại ngay từ lúc này cũng đã là quá đủ rồi.","can_remove":false,"created_time":"2013-10-14T04:42:32+0000","like_count":1,"user_likes":false}},"paging":{"cursors":{"after":"NzM3ODg3NTI5NTYxMjYw","before":"NzM3ODg3NTI5NTYxMjYw"},"next":"https://graph.facebook.com/229244010425617_737881142895232/comments?limit=1&summary=1&after=NzM3ODg3NTI5NTYxMjYw"},"summary":{"order":"chronological","total_count":12}}}