{"id":"229244010425617_737979426218737","type":"photo","object_id":"663347710351883","picture":"https://fbcdn-photos-g-a.akamaihd.net/hphotos-ak-frc3/t1.0-0/1377383_663347710351883_1716817668_s.jpg","link":"https://www.facebook.com/photo.php?fbid=663347710351883&set=gm.737979426218737&type=1&relevant_count=1","from":{"id":"100000299798248","name":"Vẹt Đêm"},"message":"[TẠI SAO NGƯỜI NHẬT LẠI QUAN TÂM VỀ NHÓM MÁU CỦA NGƯỜI KHÁC]\n\nHồi bữa đi phỏng vấn trong công ty Nhật, khi nghe họ ( ý là các bác chú phỏng vấn mình á) hỏi về nhóm máu của mình thì mình hơi ngớ người vì mình cũng chẳng biết mình thuộc nhóm nào. Và sau khi nghe câu trả lời rất chi là trung thực của mình rằng mình không biết thì họ phản ứng rất kì lạ ~~. Chả hiểu sao nữa sau đó về nhà hỏi mấy anh chị đi trước cùng với bác google thì cũng hiểu ra vấn đề:) Mọi người tham khảo nhé :)\n---------------\n\nCó lẽ không hiếm người ngoại quốc khi đến Nhật đã cảm thấy khó chịu vì luôn bị người Nhật hỏi vể nhóm máu. Và nhiều người sau khi đến Nhật bị hỏi về nhóm máu rồi mới đi kiểm tra xem mình là nhóm máu gì. Ở đây xin nêu ra một vài lý do của việc này.\n\nThứ Nhất, Nhật bản là nước coi trọng về sức khỏe và an toàn cho tính mạng con người. Cường độ làm việc của người Nhật rất lớn và thường phải làm thêm ngoài giờ, do đó, những người khỏe mạnh được đánh giá cao trong công việc. Xác định nhóm máu là cũng xác định được phần nào những bệnh tật mà người đó dễ mắc phải. Việc này được coi là có ý nghĩa quan trọng khi tuyển một nhân viên vào công ty làm việc\n\nThứ hai, như chúng ta đã biết Nhật Bản theo chế độ cho truyền con nối và thường thì người con trai trưởng sẽ nối dõi tông đường. Tất nhiên việc nối dõi này liên quan đến dòng máu họ hàng thân tộc. Điều này đã khiến cho việc coi trọng nhóm máu in sâu vào tâm khảm người Nhật. \n\nThứ ba, vào khỏang năm 1916 các nhà khoa học đề ra thuyết về sự liên quan giữ nhóm máu và tính cách càng làm cho quan niện về nhóm máu của người Nhật in sâu vào tiềm thức của mỗi người. Chính học thuyết này đã tạo ra một làn sóng đoán tính cách qua nhóm máu tại Nhật Bản vào năm 1930, 1970 và 1980. Thêm vào đó, người Nhật tin rằng, nhờ vào nhóm máu, có thể đoán được số mệnh không kém gì những quân bài tây hay bói cung hoàng đạo. Nếu một người được coi là không hợp nhóm máu với sếp thì cũng có thể bị “xem xét”. Ngược lại, nếu được coi là hợp thì coi như công việc của người đó sẽ được suôn sẻ hơn.\n\nSau đây là một số điểm đặc trưng của các nhóm máu theo suy nghĩ của người Nhật Bản:\n\n+++ Nhóm máu A: Người có nhóm máu A luôn tuân theo luật pháp, thích thời trang, và khá giữ kẽ. Họ thường nóng nảy, hay lo âu, cáu gắt nên tỉ lệ người mắc bệnh tin ở nhóm máu này thường cao hơn các nhóm khác. Nhóm máu A còn có các tế bào ung thư như Antigen,nên khi mắc phải bệnh này, hệ thống miễm dịch không thể nhận ra “kẻ thù” nên cũng khá nhiều người nhóm máu A mắc phải căn bệnh này.\n\n+++ Nhóm máu B: Người có nhóm máu B thường rất độc lập, linh hoạt trong công việc, sôi nổi, không ổn định, và rất hài hước. Ngoài ra họ còn rất đam mê  với những công việc mang tính giao lưu rộng rãi, tiếp xúc với nhiều người\n\n+++ Nhóm máu O: Những người thuộc nhóm máu O nếu ăn uống không đúng sẽ làm tăng nguy cơ bị loét bao tử. Họ còn thườnggặp phải các vấn đề về tuyến giáp. Họ duy tâm, gợi cảm, luôn tìm kiếm danh vọng, hay ghen, và tham lam.\n\n+++ Nhóm máu AB: Nhóm máu AB là sự kết hợp đa số các ưu điểm… cũng như nhược điểm của nhóm máu A và B. Người có nhóm máu AB thừa hưởng kiểu bị stress của nhóm A như lo âu, dễ cáu gắt, năng động thái quá có khi làm việc đến kiệt sức và dễ mắc bệnh nhiễm trùng. Đồng thời, họ giống người có nhóm máu B ở chỗ dễ bị các bệnh nhiễm siêu vi như bệnh xơ cứng rải rác và bệnh Lou Gehrig. Người có nhóm máu AB có lí trí cao, trung thực, có tài ngoại giao, không khoan dung.\n\nNói tóm lại là vì những lẽ này nếu như bạn chuẩn bị đến Nhật thì nên tìm hiểu trước xem nhóm máu của mình là gì nhé! >^________^<\n\nNguồn : lụm lặt đó đây ( internet)\n\n>TL<","created_time":"2013-10-13T14:42:41+0000","updated_time":"2013-10-14T14:00:47+0000","likes":{"data":{"100001723862714":{"id":"100001723862714","name":"Bo Bien Vang"},"100001695345798":{"id":"100001695345798","name":"Tyn Aki"},"100003907081547":{"id":"100003907081547","name":"Van Ta"},"100001508739620":{"id":"100001508739620","name":"Lê Ngọc Hoàn"},"100005043309731":{"id":"100005043309731","name":"Mario Nguyễn"},"100002871405403":{"id":"100002871405403","name":"Thach Sanh"},"100003814756892":{"id":"100003814756892","name":"Hai Nguyen"},"100002424045951":{"id":"100002424045951","name":"Hoàng Tùng Anh"},"100001609833418":{"id":"100001609833418","name":"Tsunami Hime"},"726423323":{"id":"726423323","name":"Trần Thư"},"100002508122689":{"id":"100002508122689","name":"Vũ Mạnh Tuấn"},"1821970083":{"id":"1821970083","name":"Nguyễn Mạnh Cường"},"100001156522232":{"id":"100001156522232","name":"Le Na Nguyen Tran"},"100001066021488":{"id":"100001066021488","name":"Nguyen Hoai"},"100001458099624":{"id":"100001458099624","name":"Kham Pha"},"100003683390259":{"id":"100003683390259","name":"Huệ Hoàng"},"100004102730856":{"id":"100004102730856","name":"Yunny Hoang"},"100002470650247":{"id":"100002470650247","name":"LinhLinh Chan"},"100001715785740":{"id":"100001715785740","name":"Huỳnh Hải Đăng"},"100000266887521":{"id":"100000266887521","name":"Hương Lê Thu"},"100001754136107":{"id":"100001754136107","name":"Nguyễn Tuấn Vũ"},"100002968664154":{"id":"100002968664154","name":"Rùa Già"},"100004705145167":{"id":"100004705145167","name":"Ngọc Tuệ Bạch"},"100004716640495":{"id":"100004716640495","name":"Thúy An Dương"},"100004691321165":{"id":"100004691321165","name":"Ánh Lê"},"1658912883":{"id":"1658912883","name":"Pham Quy Duong"},"100003124640776":{"id":"100003124640776","name":"Cú Mèo Bụng Bự"},"100001416272263":{"id":"100001416272263","name":"Mai PB"},"100003019923910":{"id":"100003019923910","name":"Luân Pig"}},"paging":{"cursors":{"after":"MTAwMDAxNzIzODYyNzE0","before":"MTAwMDAxNzIzODYyNzE0"},"next":"https://graph.facebook.com/229244010425617_737979426218737/likes?limit=1&summary=1&after=MTAwMDAxNzIzODYyNzE0"},"summary":{"total_count":30}},"comments":{"data":{"737990599550953":{"id":"737990599550953","from":{"id":"100001416272263","name":"Mai PB"},"message":"Phật ý quá","can_remove":false,"created_time":"2013-10-13T15:02:26+0000","like_count":1,"user_likes":false},"737992359550777":{"id":"737992359550777","from":{"id":"100004716640495","name":"Thúy An Dương"},"message":"Hay quá nhỉ...Cái nào cũng có ưu có nhược....^_^....hihi...","can_remove":false,"created_time":"2013-10-13T15:05:44+0000","like_count":0,"user_likes":false},"737998736216806":{"id":"737998736216806","from":{"id":"100004705145167","name":"Ngọc Tuệ Bạch"},"message":"Hay minh nhom b, chuẩn","can_remove":false,"created_time":"2013-10-13T15:16:34+0000","like_count":0,"user_likes":false},"738018662881480":{"id":"738018662881480","from":{"id":"100003683666961","name":"Củ Cải Nhỏ"},"message":"rut cuoc ng nhat thik nhom mau j ab?","can_remove":false,"created_time":"2013-10-13T15:41:09+0000","like_count":0,"user_likes":false},"738039819546031":{"id":"738039819546031","from":{"id":"100001754136107","name":"Nguyễn Tuấn Vũ"},"message":"Đến giờ e vẫn ko biết nhóm máu gì :)), mặc dù trước vào viẹn mổ mấy tháng @@","can_remove":false,"created_time":"2013-10-13T15:46:46+0000","like_count":0,"user_likes":false},"738043152879031":{"id":"738043152879031","from":{"id":"1845000884","name":"Trieu Thi Kieu Oanh"},"message":"minh nhom mau o ma mjnh laj thay cha dung j voi mjnh ca","can_remove":false,"created_time":"2013-10-13T15:50:05+0000","like_count":1,"user_likes":false},"738043169545696":{"id":"738043169545696","from":{"id":"1845000884","name":"Trieu Thi Kieu Oanh"},"message":"haiz....","can_remove":false,"created_time":"2013-10-13T15:50:08+0000","like_count":1,"user_likes":false},"738045392878807":{"id":"738045392878807","from":{"id":"100001416272263","name":"Mai PB"},"message":"Tính cách theo nhóm máu mình đã đọc ở chỗ khác thì thấy có vẻ đúng với mình hơn là ở đây.","can_remove":false,"created_time":"2013-10-13T15:53:23+0000","like_count":2,"user_likes":false},"738047102878636":{"id":"738047102878636","from":{"id":"100001754136107","name":"Nguyễn Tuấn Vũ"},"message":"Mai PB: e hỏi đi khám bệnh viện ở Nhật thì mình yêu cầu kiểm tra nhóm máu ko thì ng ta có làm ko hả a","message_tags":[{"id":"100001416272263","name":"Mai PB","type":"user","offset":0,"length":6}],"can_remove":false,"created_time":"2013-10-13T15:56:50+0000","like_count":0,"user_likes":false},"738048629545150":{"id":"738048629545150","from":{"id":"100001416272263","name":"Mai PB"},"message":"Có, nhưng có lẽ tốn 1-2 nghìn. Đợi bao giờ đến lúc khám sức khỏe định kỳ ở trường thì đề nghị người ta cho biết cả nhóm máu nữa.","can_remove":false,"created_time":"2013-10-13T15:58:58+0000","like_count":1,"user_likes":false},"738048906211789":{"id":"738048906211789","from":{"id":"1845000884","name":"Trieu Thi Kieu Oanh"},"message":"^^LIKE","can_remove":false,"created_time":"2013-10-13T15:59:25+0000","like_count":0,"user_likes":false},"738052492878097":{"id":"738052492878097","from":{"id":"100001416272263","name":"Mai PB"},"message":"Nếu nói 1 câu ngắn gọn về 4 nhóm máu này thì người Nhật sẽ nghĩ như sau: (A) cẩn thận tỉ mỉ (B) kỳ cục (O) cởi mở hướng ngoại (AB) thông minh. Người Nhật biết rằng hầu hết họ đều là nhóm A.","can_remove":false,"created_time":"2013-10-13T16:01:52+0000","like_count":2,"user_likes":false},"738059006210779":{"id":"738059006210779","from":{"id":"100004060541557","name":"Toàn Phạm"},"message":"như mình thấy thì hầu như người vn nhóm máu B là nhiều ah.... nếu thế thì ai cũng kì cục á?","can_remove":false,"created_time":"2013-10-13T16:13:01+0000","like_count":1,"user_likes":false},"738198326196847":{"id":"738198326196847","from":{"id":"100000027754899","name":"Hoang Van Ba"},"message":":) họ rất thích và để ý ng có nhóm O","can_remove":false,"created_time":"2013-10-13T20:34:00+0000","like_count":0,"user_likes":false},"738315659518447":{"id":"738315659518447","from":{"id":"100001458099624","name":"Kham Pha"},"message":"chuyện nhóm máu đi đâu cũng có, gặp ai mà nói chuyện lâu lâu kiểu gì cũng bị hỏi :))\nKo biết nhóm máu và tính cách mọi người ra sao chứ mình đọc thấy đúng đên 90% :))","can_remove":false,"created_time":"2013-10-13T23:28:03+0000","like_count":0,"user_likes":false},"738522176164462":{"id":"738522176164462","from":{"id":"100003143578550","name":"Vn Tim"},"message":"nói ngu.","can_remove":false,"created_time":"2013-10-14T07:03:56+0000","like_count":0,"user_likes":false},"738575559492457":{"id":"738575559492457","from":{"id":"100001458099624","name":"Kham Pha"},"message":"ko biết bạn Timbaby Tim nói ai nhưng hành vi xúc phạm người khác là ko thể chấp nhận được, yêu cầu bạn vào rút lại lời nói. Nếu ko sau một ngày sẽ bị xóa nick.","message_tags":[{"id":"100003143578550","name":"Timbaby Tim","type":"user","offset":12,"length":11}],"can_remove":false,"created_time":"2013-10-14T09:23:53+0000","like_count":0,"user_likes":false},"738579279492085":{"id":"738579279492085","from":{"id":"100002508122689","name":"Vũ Mạnh Tuấn"},"message":"anh Kham Pha nhóm máu nào ạ :D","message_tags":[{"id":"100001458099624","name":"Kham Pha","type":"user","offset":4,"length":8}],"can_remove":false,"created_time":"2013-10-14T09:37:06+0000","like_count":0,"user_likes":false},"738579919492021":{"id":"738579919492021","from":{"id":"100001458099624","name":"Kham Pha"},"message":"đoán được không? anh không nói đâu :D","can_remove":false,"created_time":"2013-10-14T09:39:32+0000","like_count":0,"user_likes":false},"738584156158264":{"id":"738584156158264","from":{"id":"100005336765342","name":"Son  Man"},"message":"Kham Pha nhóm B rồi.","message_tags":[{"id":"100001458099624","name":"Kham Pha","type":"user","offset":0,"length":8}],"can_remove":false,"created_time":"2013-10-14T09:52:47+0000","like_count":0,"user_likes":false},"738585169491496":{"id":"738585169491496","from":{"id":"100002508122689","name":"Vũ Mạnh Tuấn"},"message":"em thì em đoán anh Kham Pha  là A, B hoặc AB :3","message_tags":[{"id":"100001458099624","name":"Kham Pha","type":"user","offset":19,"length":8}],"can_remove":false,"created_time":"2013-10-14T09:56:08+0000","like_count":0,"user_likes":false},"738585736158106":{"id":"738585736158106","from":{"id":"100002508122689","name":"Vũ Mạnh Tuấn"},"message":"mà em nghiêng về AB hơn :3","can_remove":false,"created_time":"2013-10-14T09:58:10+0000","like_count":0,"user_likes":false},"738586912824655":{"id":"738586912824655","from":{"id":"100002424045951","name":"Hoàng Tùng Anh"},"message":"Đi pv mình thấy ngta thick nhóm máu O hok ak","can_remove":false,"created_time":"2013-10-14T10:02:36+0000","like_count":0,"user_likes":false},"738588506157829":{"id":"738588506157829","from":{"id":"100001458099624","name":"Kham Pha"},"message":"Vũ Mạnh Tuấn chú đoán như không ấy :))\nDạo trước có một người hỏi anh nhóm máu gì anh bảo đoán đi, ông ấy bảo là nhóm AB. Anh quay sang hỏi một người khác nhóm AB là nhóm thế nào, họ bảo là 天才の血液型. Sướng phổng mũi :))","message_tags":[{"id":"100002508122689","name":"Vũ Mạnh Tuấn","type":"user","offset":0,"length":12}],"can_remove":false,"created_time":"2013-10-14T10:07:56+0000","like_count":2,"user_likes":false},"738591606157519":{"id":"738591606157519","from":{"id":"100001864793577","name":"Sakura Đhbkhn"},"message":"minh nhom mau B.vay thi lam cong viec cua 1 ki su ,ng Nhat co thich ko ah? sap sang Nhat lam nen minh muon moi ng cho y kien!","can_remove":false,"created_time":"2013-10-14T10:16:42+0000","like_count":0,"user_likes":false},"738592056157474":{"id":"738592056157474","from":{"id":"100002508122689","name":"Vũ Mạnh Tuấn"},"message":":3 hóa ra là anh nhóm AB :3\nem nhóm máu B . cơ mà AB nhiều bệnh :))","can_remove":false,"created_time":"2013-10-14T10:18:37+0000","like_count":0,"user_likes":false},"738593999490613":{"id":"738593999490613","from":{"id":"100001458099624","name":"Kham Pha"},"message":"Rất tiếc anh ko phải AB :))","can_remove":false,"created_time":"2013-10-14T10:22:57+0000","like_count":0,"user_likes":false},"738594132823933":{"id":"738594132823933","from":{"id":"100002508122689","name":"Vũ Mạnh Tuấn"},"message":"ơ thế ko phải ạ :)) thế chắc anh B giống em :))","can_remove":false,"created_time":"2013-10-14T10:23:39+0000","like_count":0,"user_likes":false},"738663532816993":{"id":"738663532816993","from":{"id":"100001416272263","name":"Mai PB"},"message":"Nghe nói nhóm máu phổ biến ở VN cũng là nhóm A như người Nhật. Hàn Quốc cũng coi trọng xem tính cách qua nhóm máu y hệt Nhật vậy. Chắc nhiều người nghe nói đến bộ phim có cái tên đại để là \"người yêu tôi nhóm máu B\" gì đó.","can_remove":false,"created_time":"2013-10-14T12:44:42+0000","like_count":0,"user_likes":false},"738692412814105":{"id":"738692412814105","from":{"id":"100006248618563","name":"Momi Zi"},"message":"ủa.du học sinh sang nhật \" ko cần biết nhóm máu à\"thế còn khám sức khoẻ và thủ tục nhập cảnh ở sân bay thì sao vậy?","can_remove":false,"created_time":"2013-10-14T13:42:25+0000","like_count":0,"user_likes":false},"738703542812992":{"id":"738703542812992","from":{"id":"100006179012972","name":"Thy Dang"},"message":"Sao o nhat rac roi vay ta","can_remove":false,"created_time":"2013-10-14T14:00:47+0000","like_count":0,"user_likes":false}},"paging":{"cursors":{"after":"NzM3OTkwNTk5NTUwOTUz","before":"NzM3OTkwNTk5NTUwOTUz"},"next":"https://graph.facebook.com/229244010425617_737979426218737/comments?limit=1&summary=1&after=NzM3OTkwNTk5NTUwOTUz"},"summary":{"order":"chronological","total_count":31}}}