{"id":"229244010425617_738039476212732","type":"photo","object_id":"587203191336885","picture":"https://fbcdn-photos-e-a.akamaihd.net/hphotos-ak-ash3/t1.0-0/1374166_587203191336885_99101291_s.jpg","link":"https://www.facebook.com/photo.php?fbid=587203191336885&set=gm.738039476212732&type=1&relevant_count=1","from":{"id":"100001416272263","name":"Mai PB"},"created_time":"2013-10-13T15:46:18+0000","updated_time":"2013-10-15T09:19:14+0000","likes":{"data":{"100003820151744":{"id":"100003820151744","name":"Thu Cá Tính"},"1148962646":{"id":"1148962646","name":"Tran Thi Tuong Van"},"100004342064322":{"id":"100004342064322","name":"Út Tâm"},"1846809835":{"id":"1846809835","name":"Dorae Phương"},"100001695345798":{"id":"100001695345798","name":"Tyn Aki"},"100004714890281":{"id":"100004714890281","name":"Nguyenthikimthanh Nguyen"},"100004372208548":{"id":"100004372208548","name":"Neko Chan"},"100003907081547":{"id":"100003907081547","name":"Van Ta"},"100005887419564":{"id":"100005887419564","name":"Cười Một Mình"},"100002872956261":{"id":"100002872956261","name":"Kenny Heo Tachirimi"},"100004234301106":{"id":"100004234301106","name":"Hà Kawaii"},"100006368081099":{"id":"100006368081099","name":"Man Thu"},"100001452102432":{"id":"100001452102432","name":"Phương Trình"},"100000064686295":{"id":"100000064686295","name":"Huy Roli"},"100001458099624":{"id":"100001458099624","name":"Kham Pha"},"100003683390259":{"id":"100003683390259","name":"Huệ Hoàng"},"100004318983882":{"id":"100004318983882","name":"お酒"},"100002383557875":{"id":"100002383557875","name":"Minami MP"},"100001784385644":{"id":"100001784385644","name":"Nga Nguyen"},"100002327743510":{"id":"100002327743510","name":"Tuan Thanh"},"100003055356509":{"id":"100003055356509","name":"Thuan Nguyen"},"100006767705219":{"id":"100006767705219","name":"Kim Liên"},"100001058098161":{"id":"100001058098161","name":"DoTa Allstar"},"100003019923910":{"id":"100003019923910","name":"Luân Pig"},"100005323657722":{"id":"100005323657722","name":"Hoa Nguyen"},"1023965040":{"id":"1023965040","name":"Juli KimChi"},"100004514621076":{"id":"100004514621076","name":"Hason Angle"},"100000226646981":{"id":"100000226646981","name":"My Nguyen"},"1845000884":{"id":"1845000884","name":"Trieu Thi Kieu Oanh"},"100001754136107":{"id":"100001754136107","name":"Nguyễn Tuấn Vũ"},"100000022163023":{"id":"100000022163023","name":"Kafe Ore"},"100002508122689":{"id":"100002508122689","name":"Vũ Mạnh Tuấn"}},"paging":{"cursors":{"after":"MTAwMDAzODIwMTUxNzQ0","before":"MTAwMDAzODIwMTUxNzQ0"},"next":"https://graph.facebook.com/229244010425617_738039476212732/likes?limit=1&summary=1&after=MTAwMDAzODIwMTUxNzQ0"},"summary":{"total_count":34}},"comments":{"data":{"738040609545952":{"id":"738040609545952","from":{"id":"100001754136107","name":"Nguyễn Tuấn Vũ"},"message":"A ơi, cây này có phải phong vàng ko hả a","can_remove":false,"created_time":"2013-10-13T15:47:21+0000","like_count":0,"user_likes":false},"738041892879157":{"id":"738041892879157","from":{"id":"100000381394367","name":"Thành Nguyễn"},"message":"Đây là cây ginko ( Ngân hạnh ) chứ nhỉ. Tùng xanh phong đỏ, có nói phong vàng bao giờ đâu","can_remove":false,"created_time":"2013-10-13T15:48:46+0000","like_count":1,"user_likes":false},"738043286212351":{"id":"738043286212351","from":{"id":"100001416272263","name":"Mai PB"},"message":"Tiếng Việt gọi là phong vàng hay không thì anh không rõ. Tiếng Nhật gọi là 銀杏（ぎんなん）hoặc イチョウ. Phong thì có lẽ là không phải, vì phong là maple, là loại khác.","can_remove":false,"created_time":"2013-10-13T15:50:20+0000","like_count":2,"user_likes":false},"738046419545371":{"id":"738046419545371","from":{"id":"100001754136107","name":"Nguyễn Tuấn Vũ"},"message":"E cảm ơn 2 a, e vưa tra theo đáp án của a Thành Nguyễn và gộp đáp án của a Mai PB thì  Việt Nam minh gọi là cây ngân hạnh, ng nhật gọi là cây 銀杏","message_tags":[{"id":"100000381394367","name":"Thành Nguyễn","type":"user","offset":42,"length":12},{"id":"100001416272263","name":"Mai PB","type":"user","offset":75,"length":6}],"can_remove":false,"created_time":"2013-10-13T15:55:41+0000","like_count":0,"user_likes":false},"738411519508861":{"id":"738411519508861","from":{"id":"100006368081099","name":"Man Thu"},"message":"Chưa bao giờ thấy con đường toàn một mầu vàng thế này.","can_remove":false,"created_time":"2013-10-14T02:52:21+0000","like_count":0,"user_likes":false},"738716942811652":{"id":"738716942811652","from":{"id":"100001695345798","name":"Tyn Aki"},"message":"cây ngân hạnh là cây rẻ quạt, lá giống hình rẻ quạt.","can_remove":false,"created_time":"2013-10-14T14:24:10+0000","like_count":0,"user_likes":false},"739278606088819":{"id":"739278606088819","from":{"id":"100000381394367","name":"Thành Nguyễn"},"message":"Cây ngân hạnh và cây rẻ quạt là khác nhau mà  \nNgân hạnh http://vi.wikipedia.org/wiki/B%E1%BA%A1ch_qu%E1%BA%A3\nRẻ quạt http://vi.wikipedia.org/wiki/C%C3%A2y_r%E1%BA%BB_qu%E1%BA%A1t","can_remove":false,"created_time":"2013-10-15T09:16:06+0000","like_count":0,"user_likes":false},"739279506088729":{"id":"739279506088729","from":{"id":"100000381394367","name":"Thành Nguyễn"},"message":"Hồi trước vào mùa thu đi dưới những hàng cây này, quả của nó rụng đầy trông thì rất ngon như quả mơ, thèm nhưng lại ko thể nhặt để ăn sống được.","can_remove":false,"created_time":"2013-10-15T09:19:14+0000","like_count":0,"user_likes":false}},"paging":{"cursors":{"after":"NzM4MDQwNjA5NTQ1OTUy","before":"NzM4MDQwNjA5NTQ1OTUy"},"next":"https://graph.facebook.com/229244010425617_738039476212732/comments?limit=1&summary=1&after=NzM4MDQwNjA5NTQ1OTUy"},"summary":{"order":"chronological","total_count":8}}}