{"id":"229244010425617_738529479497065","type":"status","from":{"id":"100003973288267","name":"Duhoc Vieclam Nhật Bản"},"message":"Tuyển gấp 100 nam làm nông nghiệp tại HIROSHIMA phí 1200$\nyêu cầu:\nTuổi từ 19-35.\nCao từ 162cm trở lên\ntrình độ: tốt nghiệp cấp 2 trở lên.\nKhông cần thi tuyển, chỉ cần gửi hồ sơ.\nThu nhập tối thiểu từ 15-20 man/tháng.\nThời gian hợp đồng 8 tháng.\nThông tin chi tiết vui lòng liên hệ: Mr. Tiến: 0976 470 886","created_time":"2013-10-14T07:28:23+0000","updated_time":"2013-10-15T02:04:14+0000","likes":{"data":{"100006731434378":{"id":"100006731434378","name":"Quang Thuần"},"100000165008731":{"id":"100000165008731","name":"Gà Huyền Bí"}},"paging":{"cursors":{"after":"MTAwMDA2NzMxNDM0Mzc4","before":"MTAwMDA2NzMxNDM0Mzc4"},"next":"https://graph.facebook.com/229244010425617_738529479497065/likes?limit=1&summary=1&after=MTAwMDA2NzMxNDM0Mzc4"},"summary":{"total_count":2}},"comments":{"data":{"738531716163508":{"id":"738531716163508","from":{"id":"100003891367470","name":"Ñhø'ç Hoàng"},"message":"Day la tuyen tu vn ak","can_remove":false,"created_time":"2013-10-14T07:35:38+0000","like_count":0,"user_likes":false},"738532092830137":{"id":"738532092830137","from":{"id":"100003973288267","name":"Duhoc Vieclam Nhật Bản"},"message":"đúng rồi bạn","can_remove":false,"created_time":"2013-10-14T07:37:08+0000","like_count":0,"user_likes":false},"738532969496716":{"id":"738532969496716","from":{"id":"100004130556584","name":"Khuong Tung"},"message":"ten cong ty phai cu la gi vay ?","can_remove":false,"created_time":"2013-10-14T07:40:07+0000","like_count":0,"user_likes":false},"738534019496611":{"id":"738534019496611","from":{"id":"100005387894580","name":"Hien Bui"},"message":"Ho so nhu,the nao vay","can_remove":false,"created_time":"2013-10-14T07:42:47+0000","like_count":0,"user_likes":false},"738539379496075":{"id":"738539379496075","from":{"id":"100003973288267","name":"Duhoc Vieclam Nhật Bản"},"message":"Công ty mình là cty Dêt may Sài Gòn, chi nhành Hà Nội.\nHồ sơ trước mắt các bạn chỉ cần mang những thứ sau: Bằng gốc, chứng minh thư, sổ hộ khẩu gốc đã. Sau khi sơ tuyển xong các bạn sẽ đi khám sk và chup ảnh. Khi nào trúng tuyển các bạn làm hồ sơ đầy đủ sau nhé","can_remove":false,"created_time":"2013-10-14T07:53:26+0000","like_count":0,"user_likes":false},"738540356162644":{"id":"738540356162644","from":{"id":"100004130556584","name":"Khuong Tung"},"message":"dia diem cty o dau vay ,xin cho bit cu the dk ko","can_remove":false,"created_time":"2013-10-14T07:57:13+0000","like_count":0,"user_likes":false},"738542676162412":{"id":"738542676162412","from":{"id":"100005387894580","name":"Hien Bui"},"message":"Co  'phai texgamex ko o phap van do","can_remove":false,"created_time":"2013-10-14T08:04:59+0000","like_count":0,"user_likes":false},"738545202828826":{"id":"738545202828826","from":{"id":"100003891367470","name":"Ñhø'ç Hoàng"},"message":"Xin hoi la lm hfog 8thg roi ve nc hay ki tiep","can_remove":false,"created_time":"2013-10-14T08:12:53+0000","like_count":0,"user_likes":false},"738556412827705":{"id":"738556412827705","from":{"id":"100003973288267","name":"Duhoc Vieclam Nhật Bản"},"message":"Địa chỉ cty ở 23 Bùi Huy Bích, mình sợ các bạn tìm đg đó khó nên  nói cạnh Toyota pháp vân cho dễ tìm.\nĐơn hàng này làm theo mùa vụ nên thời gian làm có thể 8 tháng, cũng có thể hơn 8 tháng 1 chút các bạn nhé!","can_remove":false,"created_time":"2013-10-14T08:25:20+0000","like_count":0,"user_likes":false},"738562589493754":{"id":"738562589493754","from":{"id":"100003891367470","name":"Ñhø'ç Hoàng"},"message":"The la sau 8 thg la ve nc ạ.. Chan nhỉ","can_remove":false,"created_time":"2013-10-14T08:34:13+0000","like_count":1,"user_likes":false},"738567182826628":{"id":"738567182826628","from":{"id":"100002472470715","name":"Phan Duy Hùng"},"message":"chi phí đi lại thế nào bạn ơi","can_remove":false,"created_time":"2013-10-14T08:50:29+0000","like_count":0,"user_likes":false},"738567262826620":{"id":"738567262826620","from":{"id":"100003973288267","name":"Duhoc Vieclam Nhật Bản"},"message":"Đi lại là sao bạn?","can_remove":false,"created_time":"2013-10-14T08:51:04+0000","like_count":0,"user_likes":false},"738567592826587":{"id":"738567592826587","from":{"id":"100005387894580","name":"Hien Bui"},"message":"Lai lien ket vs itm","can_remove":false,"created_time":"2013-10-14T08:52:29+0000","like_count":0,"user_likes":false},"738567919493221":{"id":"738567919493221","from":{"id":"100002472470715","name":"Phan Duy Hùng"},"message":"vé máy bay, ăn ở, thủ tục","can_remove":false,"created_time":"2013-10-14T08:53:38+0000","like_count":0,"user_likes":false},"738568622826484":{"id":"738568622826484","from":{"id":"100002793054191","name":"Lai Vuong"},"message":"Hão huyền ư","can_remove":false,"created_time":"2013-10-14T08:56:40+0000","like_count":0,"user_likes":false},"738570142826332":{"id":"738570142826332","from":{"id":"100003973288267","name":"Duhoc Vieclam Nhật Bản"},"message":"Ăn ở các bạn phải tự túc, thủ tục bạn chỉ cần mang bằng gôc, chứng minh thư, sổ hộ khẩu lên cty để sơ tuyển và khám sk. sau khi qua sơ tuyển nộp tiền cọc tham gia chương trình là 10 tr để cty mình gửi form của các bạn sang Nhật nhé. Nếu ko trúng tuyển trả lại các bạn toàn bộ","can_remove":false,"created_time":"2013-10-14T09:02:51+0000","like_count":0,"user_likes":false},"738570349492978":{"id":"738570349492978","from":{"id":"100002472470715","name":"Phan Duy Hùng"},"message":"còn trình độ nhậtngữ ?","can_remove":false,"created_time":"2013-10-14T09:04:04+0000","like_count":0,"user_likes":false},"738570606159619":{"id":"738570606159619","from":{"id":"100003973288267","name":"Duhoc Vieclam Nhật Bản"},"message":"Trúng tuyển xong sẽ đào tạo","can_remove":false,"created_time":"2013-10-14T09:05:09+0000","like_count":0,"user_likes":false},"738571169492896":{"id":"738571169492896","from":{"id":"100004130556584","name":"Khuong Tung"},"message":"di nhat ve roi co di tiep dk ko","can_remove":false,"created_time":"2013-10-14T09:06:49+0000","like_count":0,"user_likes":false},"738571366159543":{"id":"738571366159543","from":{"id":"100003973288267","name":"Duhoc Vieclam Nhật Bản"},"message":"Ko đi lại được bạn nhé","can_remove":false,"created_time":"2013-10-14T09:07:28+0000","like_count":0,"user_likes":false},"738591326157547":{"id":"738591326157547","from":{"id":"100004501053544","name":"Neko Do Vuong"},"message":"hic phí rẻ như bèo mà lương cao như bên Kỹ sư","can_remove":false,"created_time":"2013-10-14T10:15:49+0000","like_count":0,"user_likes":false},"738591349490878":{"id":"738591349490878","from":{"id":"100004501053544","name":"Neko Do Vuong"},"message":"điêu đéo tưởng","can_remove":false,"created_time":"2013-10-14T10:15:55+0000","like_count":0,"user_likes":false},"739083642774982":{"id":"739083642774982","from":{"id":"100003973288267","name":"Duhoc Vieclam Nhật Bản"},"message":"Bạn lại chưa đọc kỹ  thông tin rồi comement ko đúng rồi Neko Độ Vương! Bạn xem kỹ thời hạn hợp đồng như thế mà phí ko hạ liệu có ai đi không? đơn hàng tuyển nhiều vậy ko hạ phí sao tuyển đủ được? Thu nhập tính cả làm thêm chứ có phải lương cơ bản đâu?\nĐúng là vẫn mang \"kỹ năng\" làm việc của người VN có khác!","message_tags":[{"id":"100004501053544","name":"Neko Độ Vương","type":"user","offset":56,"length":13}],"can_remove":false,"created_time":"2013-10-15T01:51:00+0000","like_count":0,"user_likes":false},"739089439441069":{"id":"739089439441069","from":{"id":"100004501053544","name":"Neko Do Vuong"},"message":"hic thì phải ghi rõ là tính cả gio  làm thêm.nếu đạt lương tối thiểu 20 lá chắc làm thêm ít lắm nhỉ ...Mình làm bên nhật có vài năm nên vẫn phải mang kỹ nawg của nguwoif việt chứ:Làm cũng người nhật mà chỉ huy hộ mới sợ kaka","can_remove":false,"created_time":"2013-10-15T02:04:14+0000","like_count":0,"user_likes":false}},"paging":{"cursors":{"after":"NzM4NTMxNzE2MTYzNTA4","before":"NzM4NTMxNzE2MTYzNTA4"},"next":"https://graph.facebook.com/229244010425617_738529479497065/comments?limit=1&summary=1&after=NzM4NTMxNzE2MTYzNTA4"},"summary":{"order":"chronological","total_count":24}}}