{"id":"229244010425617_738696699480343","type":"status","from":{"id":"760980208","name":"Kim Giao Tong"},"message":"Lễ hội Halloween .\n\nNăm nay chúng tôi sẽ tổ chức dạ tiệc Hóa Trang tại Hội trường Seifu thuộc Ga Kozashibuya đường tàu Enoshima Odakyu đi bộ 1 phút.\nTừ 11 giờ tối đêm thứ bảy 26 tháng 10 đến 3 giò sáng chủ nhật ngày 27-10 ( từ 23 h PM đến 3... h AM ). Bạn nào không có xe tàu về có thể ở lại chơi vì chúng tôi thuê Hội trường đến 5 giờ sáng .\nLệ phí tham gia : Người lớn 2000 yen /người ,Trẻ em: 500 yen /người .\nBao gồm: Thức ăn , thức uống gồm nước ngọt .trà .cà phê - tiền thuê Hội trường , tiền chuẩn bị trò chơi và quà \n(bạn nào muốn ương bia rượu thì tự mua tại siêu thị gần đó) .\nĐiều kiện tham dự :\nCác bạn hãy đăng ký inbox, khi đăng ký phải nói rõ số người tham dự. nếu số người đến không đủ số mà bạn đã đăng ký, thì cũng phải trả tiền bằng số lương người đã đăng ký . (nghĩa là con số đăng ký tham dự phải chính xác để chúng tôi chuẩn bị )\n\nLưu ý : Không nhận người đến đột xuất không đăng ký trước.\nChỉ nhận trẻ em từ cấp I trở lên (trên 6 tuổi )\n\nThời hạn đăng ký' dến hết ngày 23 tháng 10 .\nKhi đến các bạn hãy hóa trang , sẽ có giải thưởng cho bạn nào hóa trang tốt nhất .\nChương trình gồm có :\n# Ăn uống họp mặt (thức ăn do nhà hàng Motiti đảm nhận ).\n# Các trò chơi, xổ số có thưởng.\n# Biểu diễn hóa trang(bạn nào muốn thi về Hóa trang hãy đăng ký)\n# Karaoke.\n# Dance.\nCác bạn sẽ có một đêm Halloween thật vui nhộn, sẽ có cơ hội để gặp gỡ làm quen , sẽ có một kỷ niệm khó quên .\nXin hãy liên lạc với Motiti Restaurant 045-362-8008 , hoặc 0466-44-9037 hoặc đăng ký inbox( ho tên người đại diện , tổng số người tham dự của nhóm của bạn, số điện thoại )","created_time":"2013-10-14T13:49:48+0000","updated_time":"2013-10-14T14:41:11+0000","likes":{"data":{"100001458099624":{"id":"100001458099624","name":"Kham Pha"},"100002270269220":{"id":"100002270269220","name":"Nguyen Tien Hai"},"100005903071473":{"id":"100005903071473","name":"Yume Sun"},"1816269439":{"id":"1816269439","name":"Dao Ngoc"}},"paging":{"cursors":{"after":"MTAwMDAxNDU4MDk5NjI0","before":"MTAwMDAxNDU4MDk5NjI0"},"next":"https://graph.facebook.com/229244010425617_738696699480343/likes?limit=1&summary=1&after=MTAwMDAxNDU4MDk5NjI0"},"summary":{"total_count":4}},"comments":{"data":{"738725779477435":{"id":"738725779477435","from":{"id":"100000282680283","name":"Cường Văn"},"message":"Ho Thanh","message_tags":[{"id":"100001817431129","name":"Ho Thanh","type":"user","offset":0,"length":8}],"can_remove":false,"created_time":"2013-10-14T14:41:11+0000","like_count":0,"user_likes":false}},"paging":{"cursors":{"after":"NzM4NzI1Nzc5NDc3NDM1","before":"NzM4NzI1Nzc5NDc3NDM1"}},"summary":{"order":"chronological","total_count":1}}}