{"id":"229244010425617_739163729433640","type":"photo","object_id":"169884833214897","picture":"https://fbcdn-photos-a-a.akamaihd.net/hphotos-ak-prn2/t1.0-0/1379349_169884833214897_1369057041_s.jpg","link":"https://www.facebook.com/photo.php?fbid=169884833214897&set=gm.739163729433640&type=1&relevant_count=1","from":{"id":"100005801442456","name":"An Nguyen"},"message":"LOA LOA....thông báo thông báo,ngày mai siêu bão sẽ đến,dự khoảng 9h sáng mai,đây là 1 cơn bão...siêu to siêu bự..yêu cầu bà con tìm nơi ẩn nấp ..loa loa — feeling lost","created_time":"2013-10-15T04:41:03+0000","updated_time":"2013-10-17T05:36:38+0000","likes":{"data":{"100002801290859":{"id":"100002801290859","name":"Arsène Lupin"},"100000845994100":{"id":"100000845994100","name":"Hà Lợi"},"100002782131785":{"id":"100002782131785","name":"Hasegawa Kiyotake"},"100003806594580":{"id":"100003806594580","name":"Daothuy Linh"},"100002327743510":{"id":"100002327743510","name":"Tuan Thanh"},"100002941298439":{"id":"100002941298439","name":"Nhat Nguyen"},"100002508122689":{"id":"100002508122689","name":"Vũ Mạnh Tuấn"},"100001458099624":{"id":"100001458099624","name":"Kham Pha"},"1416265619":{"id":"1416265619","name":"Starwar Bbj"},"100000264801587":{"id":"100000264801587","name":"Nguyễn Đình Toàn"},"100005211189763":{"id":"100005211189763","name":"Oliveu Cchann"},"100004514621076":{"id":"100004514621076","name":"Hason Angle"},"100001416272263":{"id":"100001416272263","name":"Mai PB"},"100001754136107":{"id":"100001754136107","name":"Nguyễn Tuấn Vũ"}},"paging":{"cursors":{"after":"MTAwMDAyODAxMjkwODU5","before":"MTAwMDAyODAxMjkwODU5"},"next":"https://graph.facebook.com/229244010425617_739163729433640/likes?limit=1&summary=1&after=MTAwMDAyODAxMjkwODU5"},"summary":{"total_count":15}},"comments":{"data":{"739202779429735":{"id":"739202779429735","from":{"id":"100001416272263","name":"Mai PB"},"message":"Ai đi học đi làm tối nay sáng mai thì nhớ giữ liên lạc với trường, nơi làm. Nhiều khả năng là được nghỉ, hoặc ít nhất cũng không thể đi lại được, nhưng đừng có tự nghỉ mà không liên lạc.","can_remove":false,"created_time":"2013-10-15T05:44:49+0000","like_count":3,"user_likes":false},"739223939427619":{"id":"739223939427619","from":{"id":"1416265619","name":"Starwar Bbj"},"message":"Trường em bảo là nếu có thông báo j j đó mà ko thu lại trước mấy giờ đó thì tiết ấy ấy đó đc nghỉ, hình như ko cần xin phép. Chiều mai lại có tiết kiểm tra :v","can_remove":false,"created_time":"2013-10-15T06:23:33+0000","like_count":0,"user_likes":false},"739249422758404":{"id":"739249422758404","from":{"id":"100001458099624","name":"Kham Pha"},"message":"haizz. Mai đi làm sao bây giờ, công việc thì đang còn dở. T2 vừa nghỉ 体育の日 xong :(","can_remove":false,"created_time":"2013-10-15T07:40:30+0000","like_count":0,"user_likes":false},"739254022757944":{"id":"739254022757944","from":{"id":"100001416272263","name":"Mai PB"},"message":"Ở lại lab luôn, Kham Pha","message_tags":[{"id":"100001458099624","name":"Kham Pha","type":"user","offset":16,"length":8}],"can_remove":false,"created_time":"2013-10-15T07:50:55+0000","like_count":0,"user_likes":false},"739264319423581":{"id":"739264319423581","from":{"id":"100006572713690","name":"Đại Chim Lợn"},"message":"Trương mình biêt trc có bão! Cho nghi từ thứ hai đến mai! Ọc! Sưgooi","can_remove":false,"created_time":"2013-10-15T08:28:56+0000","like_count":0,"user_likes":false},"739427956073884":{"id":"739427956073884","from":{"id":"100002801290859","name":"Arsène Lupin"},"message":"Trường nay thông báo nghỉ học trên trường với cả trên Facebook. Công nhận là ng Nhật họ làm việc có trách nhiệm thật!","can_remove":false,"created_time":"2013-10-15T14:31:29+0000","like_count":0,"user_likes":false},"739429756073704":{"id":"739429756073704","from":{"id":"100001622486348","name":"Tuan Lam"},"message":"hang minh thj nghj thu 7 chua nhat thu 2 dilam hum nay mai lai dc nghj","can_remove":false,"created_time":"2013-10-15T14:35:10+0000","like_count":0,"user_likes":false},"740677685948911":{"id":"740677685948911","from":{"id":"100006709480567","name":"Le Minh"},"message":"Ở Nhật có hay bị bão không các bạn? Theo mình nghĩ Nhật là đảo nên quanh năm sẽ hứng chịu bão thường xuyên. Vậy làm sao mà mình tránh được?","can_remove":false,"created_time":"2013-10-17T05:30:47+0000","like_count":0,"user_likes":false},"740679172615429":{"id":"740679172615429","from":{"id":"100006572713690","name":"Đại Chim Lợn"},"message":"Sao pai tránh! Sống chung đi^_^","can_remove":false,"created_time":"2013-10-17T05:36:38+0000","like_count":0,"user_likes":false}},"paging":{"cursors":{"after":"NzM5MjAyNzc5NDI5NzM1","before":"NzM5MjAyNzc5NDI5NzM1"},"next":"https://graph.facebook.com/229244010425617_739163729433640/comments?limit=1&summary=1&after=NzM5MjAyNzc5NDI5NzM1"},"summary":{"order":"chronological","total_count":9}}}