{"id":"229244010425617_739412529408760","type":"photo","object_id":"200057566841039","picture":"https://fbcdn-photos-d-a.akamaihd.net/hphotos-ak-prn2/v/t1.0-0/1375907_200057566841039_2130483966_s.jpg?oh=e98f7c620bd371a58b61d8a0652c2903&oe=53C59991&__gda__=1406973499_eef4ea625da354ce2c085dd45c1db62b","link":"https://www.facebook.com/photo.php?fbid=200057566841039&set=a.155314861315310.1073741828.155270941319702&type=1","from":{"id":"100001416272263","name":"Mai PB"},"message":"\"Thật kỳ lạ...\nTrẻ con hễ (được) ôm vào lòng thì nín khóc, \nthế mà vợ mình (được) ôm vào lòng lại bật khóc.\nChắc là đã chịu đựng nhiều lắm rồi.\n\nHãy nương tựa vào anh nhiều hơn nữa nhé (^ω^). Gia đình mà.\"\n\nNgười Nhật họ cũng tình cảm lắm đấy nhé.","created_time":"2013-10-15T14:01:38+0000","updated_time":"2013-10-15T14:36:51+0000","likes":{"data":{"100006387723695":{"id":"100006387723695","name":"Hoa Minh"},"100000221648144":{"id":"100000221648144","name":"Nguyen Hung"},"100003055356509":{"id":"100003055356509","name":"Thuan Nguyen"},"100001727857917":{"id":"100001727857917","name":"Bui Duyen"},"100005043309731":{"id":"100005043309731","name":"Mario Nguyễn"},"100003806594580":{"id":"100003806594580","name":"Daothuy Linh"},"100003696134321":{"id":"100003696134321","name":"Phạm Hạnh"},"566093622":{"id":"566093622","name":"Loby Huong"},"100004094346107":{"id":"100004094346107","name":"Thuy Nga Nguyen"},"100004372208548":{"id":"100004372208548","name":"Neko Chan"},"100005336765342":{"id":"100005336765342","name":"Son  Man"},"100001458099624":{"id":"100001458099624","name":"Kham Pha"},"100003849244990":{"id":"100003849244990","name":"Dung Ngo"},"100002782131785":{"id":"100002782131785","name":"Hasegawa Kiyotake"},"1828906841":{"id":"1828906841","name":"Trọng Nghĩa Bùi"},"100000062884729":{"id":"100000062884729","name":"Huệ Ca"},"100004578459229":{"id":"100004578459229","name":"Chan Apple"},"100004045646629":{"id":"100004045646629","name":"Trjnh Pham"},"100000022163023":{"id":"100000022163023","name":"Kafe Ore"},"1114300791":{"id":"1114300791","name":"Tra Mi"},"100001442509723":{"id":"100001442509723","name":"Nguyễn Mai Anh"},"100001785694149":{"id":"100001785694149","name":"Thành Tuấn Nguyễn"},"100002327743510":{"id":"100002327743510","name":"Tuan Thanh"},"100006441162188":{"id":"100006441162188","name":"Lệ Quỳnh"},"100003077687581":{"id":"100003077687581","name":"Để Gió Cuốn Đi"},"100006767705219":{"id":"100006767705219","name":"Kim Liên"},"100003683390259":{"id":"100003683390259","name":"Huệ Hoàng"},"100003767594753":{"id":"100003767594753","name":"Mít Tờ Chiến"},"100002804485809":{"id":"100002804485809","name":"Vy Nguyễn"},"100005013365720":{"id":"100005013365720","name":"Hoàng BáCh"},"100005211189763":{"id":"100005211189763","name":"Oliveu Cchann"},"1804434883":{"id":"1804434883","name":"Duyen Le"},"100000007294630":{"id":"100000007294630","name":"Ray Chan"},"100001111044581":{"id":"100001111044581","name":"Đoàn Huyền"},"100001723862714":{"id":"100001723862714","name":"Bo Bien Vang"},"100004271227796":{"id":"100004271227796","name":"Huong Luong"},"100000110601676":{"id":"100000110601676","name":"장미"},"100003850641990":{"id":"100003850641990","name":"Lê Trang"},"100001339152427":{"id":"100001339152427","name":"Trần Phương Huyền"},"100002157379029":{"id":"100002157379029","name":"Nguyen Hai Dung"},"100003005597243":{"id":"100003005597243","name":"Zany Royal"},"100000264268101":{"id":"100000264268101","name":"Back To December"},"100001257093338":{"id":"100001257093338","name":"Hanh Dang"},"100000197353039":{"id":"100000197353039","name":"Phương Nguyễn"},"1061065777":{"id":"1061065777","name":"Xoắn Quẩy"},"100005440689746":{"id":"100005440689746","name":"Trang Mapy"},"100001622486348":{"id":"100001622486348","name":"Tuan Lam"},"100000064686295":{"id":"100000064686295","name":"Huy Roli"},"100000776461179":{"id":"100000776461179","name":"Jotaro Nguyen"}},"paging":{"cursors":{"after":"MTAwMDA2Mzg3NzIzNjk1","before":"MTAwMDA2Mzg3NzIzNjk1"},"next":"https://graph.facebook.com/229244010425617_739412529408760/likes?limit=1&summary=1&after=MTAwMDA2Mzg3NzIzNjk1"},"summary":{"total_count":49}},"comments":{"data":{"739413859408627":{"id":"739413859408627","from":{"id":"100001622486348","name":"Tuan Lam"},"message":"hp thj khoc hjhj","can_remove":false,"created_time":"2013-10-15T14:03:46+0000","like_count":0,"user_likes":false},"739415196075160":{"id":"739415196075160","from":{"id":"100001257093338","name":"Hanh Dang"},"message":"Vợ bác Mai PB mà đọc được bài này chắc \"sướng\" lắm lắm đây. Like bác quá! :D","message_tags":[{"id":"100001416272263","name":"Mai PB","type":"user","offset":7,"length":6}],"can_remove":false,"created_time":"2013-10-15T14:06:44+0000","like_count":0,"user_likes":false},"739415469408466":{"id":"739415469408466","from":{"id":"100000101180940","name":"Trà Chanh"},"message":"đọc xong lại muốn lấy chồng r:)","can_remove":false,"created_time":"2013-10-15T14:07:19+0000","like_count":1,"user_likes":false},"739415569408456":{"id":"739415569408456","from":{"id":"100001416272263","name":"Mai PB"},"message":"Ơ có phải mình nói đâu, đây là dẫn lời người khác đấy chứ.","can_remove":false,"created_time":"2013-10-15T14:07:28+0000","like_count":0,"user_likes":false},"739417036074976":{"id":"739417036074976","from":{"id":"100000101180940","name":"Trà Chanh"},"message":"nhưng đọc đc câu ấy, ấm cả lòng, dù chẳng phải của ai đó nói riêng tặng mình:)","can_remove":false,"created_time":"2013-10-15T14:09:53+0000","like_count":1,"user_likes":false},"739417462741600":{"id":"739417462741600","from":{"id":"100001622486348","name":"Tuan Lam"},"message":"minh thj co moi cai goi de om zz","can_remove":false,"created_time":"2013-10-15T14:10:47+0000","like_count":0,"user_likes":false},"739417476074932":{"id":"739417476074932","from":{"id":"100004322010992","name":"Nhím Xù"},"message":"E chả hỉu kanji mọi ng dịk cho e đi \nNghe mọi ng cmt cũg múg hóg hớt tý","can_remove":false,"created_time":"2013-10-15T14:10:48+0000","like_count":0,"user_likes":false},"739418552741491":{"id":"739418552741491","from":{"id":"100001416272263","name":"Mai PB"},"message":"Mình thì nghĩ là người Việt khó mà nảy ra cái message này, vì phụ nữ thì ít chịu đựng trong lòng mà sẽ nói ra ngay, và đàn ông thì ít tâm lý đến thế. Ai ném đá coi nào. :-)","can_remove":false,"created_time":"2013-10-15T14:13:23+0000","like_count":1,"user_likes":false},"739419349408078":{"id":"739419349408078","from":{"id":"100001416272263","name":"Mai PB"},"message":"Nhím Xù xem status, đừng chỉ xem ảnh, sẽ có tiếng Việt.","message_tags":[{"id":"100004322010992","name":"Nhím Xù","type":"user","offset":0,"length":7}],"can_remove":false,"created_time":"2013-10-15T14:15:12+0000","like_count":0,"user_likes":false},"739421272741219":{"id":"739421272741219","from":{"id":"100004322010992","name":"Nhím Xù"},"message":"Ak tiếg việt ở trên hả bác","can_remove":false,"created_time":"2013-10-15T14:18:43+0000","like_count":0,"user_likes":false},"739421926074487":{"id":"739421926074487","from":{"id":"100004322010992","name":"Nhím Xù"},"message":"Hihi thixxx nhở t/c tek","can_remove":false,"created_time":"2013-10-15T14:20:00+0000","like_count":0,"user_likes":false},"739423159407697":{"id":"739423159407697","from":{"id":"100001622486348","name":"Tuan Lam"},"message":"wa thick day chu zz","can_remove":false,"created_time":"2013-10-15T14:22:23+0000","like_count":0,"user_likes":false},"739426362740710":{"id":"739426362740710","from":{"id":"100004923553810","name":"Xuan KY Nguyen"},"message":"thế vọ̉ a có ôm a khóc bao giỏ̀ chủa a Mai PB","message_tags":[{"id":"100001416272263","name":"Mai PB","type":"user","offset":45,"length":6}],"can_remove":false,"created_time":"2013-10-15T14:28:11+0000","like_count":0,"user_likes":false},"739427509407262":{"id":"739427509407262","from":{"id":"100001416272263","name":"Mai PB"},"message":"Không hỏi chuyện riêng tư ở nơi công cộng nhá. :-)","can_remove":false,"created_time":"2013-10-15T14:30:21+0000","like_count":1,"user_likes":false},"739427786073901":{"id":"739427786073901","from":{"id":"100001622486348","name":"Tuan Lam"},"message":"thjtam su cho em ut nghe di  anh trai","can_remove":false,"created_time":"2013-10-15T14:31:04+0000","like_count":0,"user_likes":false},"739427869407226":{"id":"739427869407226","from":{"id":"100004923553810","name":"Xuan KY Nguyen"},"message":"hahaha..","can_remove":false,"created_time":"2013-10-15T14:31:16+0000","like_count":0,"user_likes":false},"739428676073812":{"id":"739428676073812","from":{"id":"100000603915176","name":"悪いな ぁ"},"message":"Ặc ặc, giật cả mình :))","can_remove":false,"created_time":"2013-10-15T14:33:07+0000","like_count":1,"user_likes":false},"739430462740300":{"id":"739430462740300","from":{"id":"100001257093338","name":"Hanh Dang"},"message":"Bác Mai PB cũng thử xem sao nhé! tình củm lắm đấy ạh!","message_tags":[{"id":"100001416272263","name":"Mai PB","type":"user","offset":4,"length":6}],"can_remove":false,"created_time":"2013-10-15T14:36:51+0000","like_count":1,"user_likes":false}},"paging":{"cursors":{"after":"NzM5NDEzODU5NDA4NjI3","before":"NzM5NDEzODU5NDA4NjI3"},"next":"https://graph.facebook.com/229244010425617_739412529408760/comments?limit=1&summary=1&after=NzM5NDEzODU5NDA4NjI3"},"summary":{"order":"chronological","total_count":18}}}