{"id":"229244010425617_739441079405905","type":"status","from":{"id":"1023965040","name":"Juli KimChi"},"message":"Chào mọi người, ai đã du học ở fukuoka có thể tư vấn giúp em về trường học, chi phí và việc làm thêm được ko ạ, em chưa biết chọn trường nào cả, cũng ko quen ai bên đó hết, hix hix.","created_time":"2013-10-15T14:56:13+0000","updated_time":"2013-10-16T03:30:18+0000","comments":{"data":{"739459852737361":{"id":"739459852737361","from":{"id":"100004350818279","name":"Nguễn Văn Thọ"},"message":"Nguyễn Đức Thọ tu van cho e ay","message_tags":[{"id":"100004532586774","name":"Nguyễn Đức Thọ","type":"user","offset":0,"length":14}],"can_remove":false,"created_time":"2013-10-15T15:18:32+0000","like_count":0,"user_likes":false},"739843352699011":{"id":"739843352699011","from":{"id":"100005333138526","name":"Nguyễn Hữu Huy"},"message":"Fukuoka thi nhieu truong lam. Hoc phi tu 60 den 70 man tuy theo truong","can_remove":false,"created_time":"2013-10-16T03:30:18+0000","like_count":0,"user_likes":false}},"paging":{"cursors":{"after":"NzM5NDU5ODUyNzM3MzYx","before":"NzM5NDU5ODUyNzM3MzYx"},"next":"https://graph.facebook.com/229244010425617_739441079405905/comments?limit=1&summary=1&after=NzM5NDU5ODUyNzM3MzYx"},"summary":{"order":"chronological","total_count":2}},"likes":{"data":[]}}