{"id":"229244010425617_739458562737490","type":"video","picture":"https://fbexternal-a.akamaihd.net/safe_image.php?d=AQCcf9IMWi79q6Uz&w=130&h=130&url=http%3A%2F%2Fi1.ytimg.com%2Fvi%2FERWYegcKF8o%2Fhqdefault.jpg%3Ffeature%3Dog","link":"http://www.youtube.com/watch?v=ERWYegcKF8o","source":"http://www.youtube.com/v/ERWYegcKF8o?version=3&autohide=1&autoplay=1","from":{"id":"100001416272263","name":"Mai PB"},"message":"Đây là bài hát kỷ niệm thời học tiếng Nhật của mình. Cô giáo hồi đó rất trẻ đẹp, dạy buổi gần cuối khóa thì cho nghe bài này. Cả lớp đang nghe thì cô bật khóc, chẳng hiểu khóc vì thương cảm lời bài hát, hay vì anh ca sĩ điển trai này, hay là vì sắp chia tay lớp. Thực ra bài hát này cũng rất nổi tiếng, mà anh ca sĩ này cũng là thuộc hạng \"bất tử\", vì vừa là thần tượng của giới trẻ Nhật, vừa mất sớm lúc mới 26 tuổi. Đám tang có 4 vạn fan đi đưa!\n\nhttp://www.youtube.com/watch?v=ERWYegcKF8o","created_time":"2013-10-15T15:17:10+0000","updated_time":"2013-10-16T12:04:04+0000","likes":{"data":{"100004409731083":{"id":"100004409731083","name":"Đô Trong Nghia"},"1658912883":{"id":"1658912883","name":"Pham Quy Duong"},"100001754136107":{"id":"100001754136107","name":"Nguyễn Tuấn Vũ"},"100003055356509":{"id":"100003055356509","name":"Thuan Nguyen"},"100003629530970":{"id":"100003629530970","name":"Hoa Thiên Điểu"},"100001727857917":{"id":"100001727857917","name":"Bui Duyen"},"100002871405403":{"id":"100002871405403","name":"Thach Sanh"},"100001609833418":{"id":"100001609833418","name":"Tsunami Hime"},"100000950925713":{"id":"100000950925713","name":"Mẹ Thảo Nguyên"},"100004352312315":{"id":"100004352312315","name":"Bút Chì Gỗ"},"100002230230544":{"id":"100002230230544","name":"Nakamura Minako"},"100003978847425":{"id":"100003978847425","name":"Diễm My"},"100003090738530":{"id":"100003090738530","name":"Ngô Thị Thanh Hường"},"100001828489071":{"id":"100001828489071","name":"Thanh Tra"},"100005644621343":{"id":"100005644621343","name":"Nihongo  Suki"},"100004362480675":{"id":"100004362480675","name":"Đi Tìm Thất Bại"},"100003076762517":{"id":"100003076762517","name":"ThiênKim Nhị Tiểu Quỷ"},"100001844269163":{"id":"100001844269163","name":"Bằng Ngô Quý"},"100000942176772":{"id":"100000942176772","name":"Amaya Quỳnh"},"100004022761085":{"id":"100004022761085","name":"Yuko Chan"},"100004028173069":{"id":"100004028173069","name":"Jin Ngốc"},"1839033553":{"id":"1839033553","name":"Sơn Trần"},"100000221648144":{"id":"100000221648144","name":"Nguyen Hung"},"100001910146056":{"id":"100001910146056","name":"Huyền Thoa"},"1318895018":{"id":"1318895018","name":"Van T Tran"},"100000292556230":{"id":"100000292556230","name":"Duy Anh Phạm"},"1295034025":{"id":"1295034025","name":"Sam Apple"},"100000078235197":{"id":"100000078235197","name":"Lưu Thế Anh"},"100002327743510":{"id":"100002327743510","name":"Tuan Thanh"},"100000022163023":{"id":"100000022163023","name":"Kafe Ore"},"100002185080351":{"id":"100002185080351","name":"Nguyễn Xuân Bách"},"100001442509723":{"id":"100001442509723","name":"Nguyễn Mai Anh"},"100001622486348":{"id":"100001622486348","name":"Tuan Lam"},"100003005597243":{"id":"100003005597243","name":"Zany Royal"},"100000328742646":{"id":"100000328742646","name":"Trần Giáp"},"1146680551":{"id":"1146680551","name":"優しい なぁ"},"100004889430124":{"id":"100004889430124","name":"Quiet Man"},"1850147953":{"id":"1850147953","name":"Rùa Con"},"100001563076732":{"id":"100001563076732","name":"Nguyễn Tam Vũ"},"100000062884729":{"id":"100000062884729","name":"Huệ Ca"},"100006767705219":{"id":"100006767705219","name":"Kim Liên"},"100005307004792":{"id":"100005307004792","name":"Kiều Văn"},"100000226646981":{"id":"100000226646981","name":"My Nguyen"},"100000101180940":{"id":"100000101180940","name":"Trà Chanh"},"100004328084860":{"id":"100004328084860","name":"Mai Loan Le"},"100005887419564":{"id":"100005887419564","name":"Cười Một Mình"},"100002508122689":{"id":"100002508122689","name":"Vũ Mạnh Tuấn"}},"paging":{"cursors":{"after":"MTAwMDA0NDA5NzMxMDgz","before":"MTAwMDA0NDA5NzMxMDgz"},"next":"https://graph.facebook.com/229244010425617_739458562737490/likes?limit=1&summary=1&after=MTAwMDA0NDA5NzMxMDgz"},"summary":{"total_count":47}},"comments":{"data":{"739459629404050":{"id":"739459629404050","from":{"id":"100002508122689","name":"Vũ Mạnh Tuấn"},"message":"bài này hay lắm , em nghe thấy mê luôn","can_remove":false,"created_time":"2013-10-15T15:18:18+0000","like_count":1,"user_likes":false},"739460389403974":{"id":"739460389403974","from":{"id":"100001416272263","name":"Mai PB"},"message":"Ai có bạn Nhật thì tập hát bài này karaoke, khả năng cao là sẽ kiếm được bạn trai bạn gái. ;-)","can_remove":false,"created_time":"2013-10-15T15:19:13+0000","like_count":0,"user_likes":false},"739465739403439":{"id":"739465739403439","from":{"id":"100004889430124","name":"Quiet Man"},"message":"Lời bài hát nội dung đại loại thế nào vậy bác Mai PB?","can_remove":false,"created_time":"2013-10-15T15:25:56+0000","like_count":0,"user_likes":false},"739467326069947":{"id":"739467326069947","from":{"id":"100001416272263","name":"Mai PB"},"message":"Lời đây. Còn giải nghĩa thì để admin Kham Pha\n\n尾崎豊 \n\nI LOVE YOU\n\n作詞：尾崎豊\n作曲：尾崎豊\n\nI love you　今だけは悲しい歌聞きたくないよ\nI love you　逃れ逃れ　辿り着いたこの部屋\n何もかも許された恋じゃないから\n二人はまるで　捨て猫みたい\nこの部屋は落葉に埋もれた空き箱みたい\nだからおまえは小猫の様な泣き声で\n\nきしむベッドの上で　優しさを持ちより\nきつく躰　抱きしめあえば\nそれからまた二人は目を閉じるよ\n悲しい歌に愛がしらけてしまわぬ様に\n更多更詳盡歌詞 在 ※ Mojim.com　魔鏡歌詞網 \n\nI love you　若すぎる二人の愛には触れられぬ秘密がある\nI love you　今の暮しの中では　辿り着けない\nひとつに重なり生きてゆく恋を\n夢みて傷つくだけの二人だよ\n何度も愛してるって聞くおまえは\nこの愛なしでは生きてさえゆけないと\n\nきしむベッドの上で　優しさを持ちより\nきつく躰　抱きしめあえば\nそれからまた二人は目を閉じるよ\n悲しい歌に愛がしらけてしまわぬ様に","message_tags":[{"id":"100001458099624","name":"Kham Pha","type":"user","offset":37,"length":8}],"can_remove":false,"created_time":"2013-10-15T15:29:03+0000","like_count":3,"user_likes":false},"739471606069519":{"id":"739471606069519","from":{"id":"100001622486348","name":"Tuan Lam"},"message":"nghe cung hiu dc nhiu kha la tam trang","can_remove":false,"created_time":"2013-10-15T15:38:09+0000","like_count":0,"user_likes":false},"739471916069488":{"id":"739471916069488","from":{"id":"100000328742646","name":"Trần Giáp"},"message":"Lời dịch tham khảo từ http://loidich.com/?id=8214\n\"Anh yêu em\n\nAnh yêu em, chỉ là bắt đầu từ lúc này, anh không muốn nghe thấy bất cứ một bài hát buồn bã nào nữa\nAnh yêu em, anh cứ chạy mãi, và tìm thấy con đường anh đi đến căn phòng này\nBởi vì tình yêu của chúng ta chẳng phải một thứ hoàn toàn có thể bị lãng quên\nChúng ta giống như những chú mèo bị bỏ rơi\nCăn phòng này như một chiếc hộp rỗng bị chôn vùi trong đống lá úa\nVà đó là lý do giọng em khóc thét lên như một chú mèo con\n\n*Nếu cùng nhau ta ôm nhau thật chặt\nTrên chiếc giường cũ kỹ ta chia sẻ cho nhau tình cảm trìu mến\nVà rồi, từ nơi đó, một lần nữa ta sẽ khép mắt\nĐể tình yêu của mình không làm ta nản chí trong một bản tình ca buồn*\n\nAnh yêu em, vì ta đều còn trẻ,\nCó những bí mật về tình yêu đôi ta vẫn chưa được khám phá\nAnh yêu em, ngay lúc này có điều gì đó ta không thể đạt đến trong cuộc sống\nMình chỉ bị tổn thương khi mơ mộng về một tình yêu mà thôi\nNơi ta có thể sống hòa hợp cùng nhau\nEm cứ mãi hỏi anh liệu anh có yêu em không\nNhư thể em không thể sống nếu thiếu tình yêu này\"","can_remove":false,"created_time":"2013-10-15T15:38:36+0000","like_count":4,"user_likes":false},"739480762735270":{"id":"739480762735270","from":{"id":"100004889430124","name":"Quiet Man"},"message":"mà nguyên nhân chết của ca sĩ này là gì vậy bác Mai PB?","can_remove":false,"created_time":"2013-10-15T15:48:56+0000","like_count":0,"user_likes":false},"739488076067872":{"id":"739488076067872","from":{"id":"100004781103522","name":"Phú Ông"},"message":"Cũng đc","can_remove":false,"created_time":"2013-10-15T15:53:29+0000","like_count":0,"user_likes":false},"739720556044624":{"id":"739720556044624","from":{"id":"100001458099624","name":"Kham Pha"},"message":"Mai PB thôi để các mem viết bài cho group cho vui, em dạo này bận rồi, ko ôm được. Gặp khó chỗ nào thì em chỉ cho còn được chứ viết 1 bài thì chịu thôi :(","message_tags":[{"id":"100001416272263","name":"Mai PB","type":"user","offset":0,"length":6}],"can_remove":false,"created_time":"2013-10-15T23:37:27+0000","like_count":0,"user_likes":false},"739758939374119":{"id":"739758939374119","from":{"id":"100002297226886","name":"Nguyễn Bá Ngọc"},"message":"hát mà kiếm đc bạn gái ng nhật thì hay đấy, nhưng mà hơi khó hát :D","can_remove":false,"created_time":"2013-10-16T00:57:32+0000","like_count":0,"user_likes":false},"739919022691444":{"id":"739919022691444","from":{"id":"100000950925713","name":"Mẹ Thảo Nguyên"},"message":"Ôi...","can_remove":false,"created_time":"2013-10-16T06:06:01+0000","like_count":0,"user_likes":false},"739965392686807":{"id":"739965392686807","from":{"id":"100006387723695","name":"Hoa Minh"},"message":"ô...mình ko biết a này đã mất ...thỉnh thoảng buồn nghe bài này, thấy ấm áp lạ...cũng có suy nghĩ sao ko thấy anh hát những bài mới thì ra a ko còn.","can_remove":false,"created_time":"2013-10-16T08:33:50+0000","like_count":1,"user_likes":false},"740010549348958":{"id":"740010549348958","from":{"id":"100001609833418","name":"Tsunami Hime"},"message":"Quiet Man: gúc gồ :) còn lười tra thì là tràn dịch phổi (t nghĩ là tự tử thì đúng hơn)\nMai PB: ôi, bây giờ mới biết ở vn có người thích ozaki (giống cháu)","message_tags":[{"id":"100004889430124","name":"Quiet Man","type":"user","offset":0,"length":9},{"id":"100001416272263","name":"Mai PB","type":"user","offset":87,"length":6}],"can_remove":false,"created_time":"2013-10-16T10:45:09+0000","like_count":1,"user_likes":false},"740054859344527":{"id":"740054859344527","from":{"id":"100004889430124","name":"Quiet Man"},"message":"Mình check trên wiki rồi bạn à. Nhưng nói chung mù mờ. Một anh sống bên Nhật nói rằng anh ta chết do bị sơ gan, vì anh ta uống rượu rất dữ, bạn à","can_remove":false,"created_time":"2013-10-16T12:04:04+0000","like_count":0,"user_likes":false}},"paging":{"cursors":{"after":"NzM5NDU5NjI5NDA0MDUw","before":"NzM5NDU5NjI5NDA0MDUw"},"next":"https://graph.facebook.com/229244010425617_739458562737490/comments?limit=1&summary=1&after=NzM5NDU5NjI5NDA0MDUw"},"summary":{"order":"chronological","total_count":15}}}