{"id":"229244010425617_739501592733187","type":"status","from":{"id":"100004998936727","name":"Kanda Kyota"},"message":"Xin chào các bạn. Tôi đang học tiếng Việt và sống ở Hà Nội. \nNên tôi muốn nói tiếng Nhật rất giởi và muốn giao lưu với nhiều người Việt Nam.  vì vậy nếu có cơ hội thì kết bạn và nói chuyện với Tôi nhé. \nRất vui được làm quen. \n初めまして。今ハノイでベトナム語の勉強をしております。多くのベトナム人の方々と交流しながら、ベトナム語を流暢に話せるようになりたいと考えております。ぜひ、機会があれば、お話しましょう^_^","created_time":"2013-10-15T16:13:29+0000","updated_time":"2013-10-17T04:26:16+0000","likes":{"data":{"100000383155614":{"id":"100000383155614","name":"Phạm Thúc Hưng"},"100000264801587":{"id":"100000264801587","name":"Nguyễn Đình Toàn"},"100003629530970":{"id":"100003629530970","name":"Hoa Thiên Điểu"},"100001416272263":{"id":"100001416272263","name":"Mai PB"},"100003888576324":{"id":"100003888576324","name":"Nguyen Quan"},"100000226646981":{"id":"100000226646981","name":"My Nguyen"},"100001074085075":{"id":"100001074085075","name":"Đào Hà My"},"100001754136107":{"id":"100001754136107","name":"Nguyễn Tuấn Vũ"},"1227859163":{"id":"1227859163","name":"Pham Hung Thinh"},"100003291760304":{"id":"100003291760304","name":"Nhóc Con Độc Ác"},"100003055356509":{"id":"100003055356509","name":"Thuan Nguyen"},"100003187036702":{"id":"100003187036702","name":"Phuong Hoa Smile"},"100004118822404":{"id":"100004118822404","name":"Hà Văn Đăng"},"100000929965616":{"id":"100000929965616","name":"Ngan Do"},"100002871405403":{"id":"100002871405403","name":"Thach Sanh"},"100005043309731":{"id":"100005043309731","name":"Mario Nguyễn"},"100006471014750":{"id":"100006471014750","name":"Nga Bếu"},"100003235972334":{"id":"100003235972334","name":"Az Xa Quê"},"100002709038300":{"id":"100002709038300","name":"Sìu Châu"},"100003696134321":{"id":"100003696134321","name":"Phạm Hạnh"},"100002859388277":{"id":"100002859388277","name":"Lê Khanh Lý"},"569263718":{"id":"569263718","name":"Phuong Thao Tran"},"100004794464085":{"id":"100004794464085","name":"Hoài Thương Trịnh"},"100004362480675":{"id":"100004362480675","name":"Đi Tìm Thất Bại"},"100003225980553":{"id":"100003225980553","name":"Quyên Xanh"},"100004117718366":{"id":"100004117718366","name":"Phạm Kim Ngân"},"100004094346107":{"id":"100004094346107","name":"Thuy Nga Nguyen"},"100001880901011":{"id":"100001880901011","name":"Số Không"},"100004490496995":{"id":"100004490496995","name":"Rai Chamu"},"100003275789728":{"id":"100003275789728","name":"Quoc Tran"},"100004088753245":{"id":"100004088753245","name":"Leu Huu Hien"},"100003957878204":{"id":"100003957878204","name":"Ma Kết"},"100002297226886":{"id":"100002297226886","name":"Nguyễn Bá Ngọc"},"100003090738530":{"id":"100003090738530","name":"Ngô Thị Thanh Hường"},"100002793054191":{"id":"100002793054191","name":"Lai Vuong"},"1828638775":{"id":"1828638775","name":"Lynk Trần"},"1322880906":{"id":"1322880906","name":"Lê Thanh Hà"},"100003270012484":{"id":"100003270012484","name":"Thủy Đoàn"},"100000638295545":{"id":"100000638295545","name":"Thu Huyen"},"100004446394296":{"id":"100004446394296","name":"Nguyen Tien"},"100000160859016":{"id":"100000160859016","name":"Thien Binh"},"100000259462975":{"id":"100000259462975","name":"Trường Giang"},"100004656601256":{"id":"100004656601256","name":"Tuấn Totti"},"100003731623249":{"id":"100003731623249","name":"Mai Nguyen"},"100001723862714":{"id":"100001723862714","name":"Bo Bien Vang"},"1577104209":{"id":"1577104209","name":"Ngoc Plh"},"100000027754899":{"id":"100000027754899","name":"Hoang Van Ba"},"100003245420682":{"id":"100003245420682","name":"Thỏ Ngọc Usagi"},"1295034025":{"id":"1295034025","name":"Sam Apple"},"100000070752758":{"id":"100000070752758","name":"Yen Panda"},"100003050841775":{"id":"100003050841775","name":"Lì Mà Bướng"},"100002414995202":{"id":"100002414995202","name":"Nguyễn Duy Công"},"100000368213854":{"id":"100000368213854","name":"Người Lạ Từng Yêu"},"100003081227774":{"id":"100003081227774","name":"Lê Tuyết"},"100002236525357":{"id":"100002236525357","name":"Diệu DiDi"},"100003753046005":{"id":"100003753046005","name":"Anh Ha"},"100003907081547":{"id":"100003907081547","name":"Van Ta"},"100003683390259":{"id":"100003683390259","name":"Huệ Hoàng"},"100006771039269":{"id":"100006771039269","name":"Yu Na"},"100003171672878":{"id":"100003171672878","name":"Tầu Heo"},"100004716640495":{"id":"100004716640495","name":"Thúy An Dương"},"100000328742646":{"id":"100000328742646","name":"Trần Giáp"},"100001583529210":{"id":"100001583529210","name":"Nguyễn Kim Hà"},"100003156783866":{"id":"100003156783866","name":"Nguyễn Dương"},"100002981945060":{"id":"100002981945060","name":"Quý Trần"},"100001458099624":{"id":"100001458099624","name":"Kham Pha"},"100002676859353":{"id":"100002676859353","name":"Chu Quang Viên"},"100002508122689":{"id":"100002508122689","name":"Vũ Mạnh Tuấn"},"100005801442456":{"id":"100005801442456","name":"An Nguyen"},"100003000867819":{"id":"100003000867819","name":"Masayuki Ochika"},"100005991164555":{"id":"100005991164555","name":"Cheda Miu"},"100004566972183":{"id":"100004566972183","name":"Tsuyoshi Ta"},"100003276696481":{"id":"100003276696481","name":"Viet Đong"},"100000052661831":{"id":"100000052661831","name":"Shuntoku Pham"},"100003209298923":{"id":"100003209298923","name":"Phuongcham Nguyen"},"100001359798024":{"id":"100001359798024","name":"November Gi"},"100003097410255":{"id":"100003097410255","name":"Keiji Maeda"},"100004169731179":{"id":"100004169731179","name":"Hường Hoàng"},"100002383557875":{"id":"100002383557875","name":"Minami MP"},"100004705411324":{"id":"100004705411324","name":"Tớ Tên Hiền"},"100002921712970":{"id":"100002921712970","name":"ThuyDung Virgo"},"100001864793577":{"id":"100001864793577","name":"Sakura Đhbkhn"},"100000398514180":{"id":"100000398514180","name":"Linh Thu"},"100003950139327":{"id":"100003950139327","name":"Kathy Banh"},"100005211189763":{"id":"100005211189763","name":"Oliveu Cchann"},"100005144645210":{"id":"100005144645210","name":"Ngố YuuKi"},"100005557419433":{"id":"100005557419433","name":"Quý Đặng Đắc"},"100003793638030":{"id":"100003793638030","name":"Bông Tuyết"},"100006579366555":{"id":"100006579366555","name":"Thắng Trương"},"100001216203214":{"id":"100001216203214","name":"Lala Rita"},"100000200742771":{"id":"100000200742771","name":"Nấm Ngoan Hiền"},"100004269360907":{"id":"100004269360907","name":"Chipbong Langxang"},"792083330":{"id":"792083330","name":"Duc Le"},"100004794727976":{"id":"100004794727976","name":"Song Tử"},"100003167234177":{"id":"100003167234177","name":"Đô La"},"100000062884729":{"id":"100000062884729","name":"Huệ Ca"},"100001557279247":{"id":"100001557279247","name":"Ngo Dinh Le Diem"},"100003064245522":{"id":"100003064245522","name":"Nguyễn Đức Phương"},"100002850792999":{"id":"100002850792999","name":"Viet le Minh"},"100003124640776":{"id":"100003124640776","name":"Cú Mèo Bụng Bự"},"1318895018":{"id":"1318895018","name":"Van T Tran"},"100004037576947":{"id":"100004037576947","name":"Mã Nhi"},"100000345787396":{"id":"100000345787396","name":"Hành Khô Áp Chảo"},"100003824535898":{"id":"100003824535898","name":"Trần Đạt"},"1816269439":{"id":"1816269439","name":"Dao Ngoc"},"100000183867315":{"id":"100000183867315","name":"Hung Chelsea"},"100004155757260":{"id":"100004155757260","name":"Tran Trang"},"100005478454231":{"id":"100005478454231","name":"Maruko Chan"},"100003795586875":{"id":"100003795586875","name":"Huyen Nguyen"},"100000381394367":{"id":"100000381394367","name":"Thành Nguyễn"}},"paging":{"cursors":{"after":"MTAwMDAwMzgzMTU1NjE0","before":"MTAwMDAwMzgzMTU1NjE0"},"next":"https://graph.facebook.com/229244010425617_739501592733187/likes?limit=1&summary=1&after=MTAwMDAwMzgzMTU1NjE0"},"summary":{"total_count":110}},"comments":{"data":{"739504206066259":{"id":"739504206066259","from":{"id":"100000381394367","name":"Thành Nguyễn"},"message":"Chào mừng anh gia nhập group Cộng đồng Việt Nhật","can_remove":false,"created_time":"2013-10-15T16:15:40+0000","like_count":1,"user_likes":false},"739505119399501":{"id":"739505119399501","from":{"id":"100001257093338","name":"Hanh Dang"},"message":"Tôi muốn nói tiếng Việt giỏi nhé.....Kanda Kyota viết nhầm rồi kìa.","message_tags":[{"id":"100004998936727","name":"Kanda Kyota","type":"user","offset":37,"length":11}],"can_remove":false,"created_time":"2013-10-15T16:16:24+0000","like_count":1,"user_likes":false},"739506146066065":{"id":"739506146066065","from":{"id":"1816269439","name":"Dao Ngoc"},"message":"10月27日ベトナム学生青年協会のコンサートがあります。そこに行けば、多くのベトナム人と友達になるはずです。","can_remove":false,"created_time":"2013-10-15T16:17:42+0000","like_count":3,"user_likes":false},"739516156065064":{"id":"739516156065064","from":{"id":"100004738442662","name":"Nguyen Haiyen"},"message":"よく頑張ってくださいね","can_remove":false,"created_time":"2013-10-15T16:30:23+0000","like_count":1,"user_likes":false},"739516716065008":{"id":"739516716065008","from":{"id":"100003170058959","name":"Teru Teru Bozu"},"message":"今　どこに　住んでいますか。","can_remove":false,"created_time":"2013-10-15T16:31:59+0000","like_count":1,"user_likes":false},"739518329398180":{"id":"739518329398180","from":{"id":"683231044","name":"Hoàng Hải Đăng"},"message":"Muốn nói tiếng Việt giỏi phải kết bạn với người không biết tiếng Nhật :))","can_remove":false,"created_time":"2013-10-15T16:35:34+0000","like_count":3,"user_likes":false},"739522029397810":{"id":"739522029397810","from":{"id":"100005211189763","name":"Oliveu Cchann"},"message":"Xin chào xin chào xD Bạn học Tiếng Việt sao? Điều đó nghe thật vui xD","can_remove":false,"created_time":"2013-10-15T16:44:04+0000","like_count":1,"user_likes":false},"739525762730770":{"id":"739525762730770","from":{"id":"100001864793577","name":"Sakura Đhbkhn"},"message":"はじめまして。私はManhと申します。今、ハノイに住んでいます。手伝いしましょうか。よろしくお願いします。","can_remove":false,"created_time":"2013-10-15T16:50:43+0000","like_count":1,"user_likes":false},"739535969396416":{"id":"739535969396416","from":{"id":"100003097410255","name":"Keiji Maeda"},"message":"お～よろしく。","can_remove":false,"created_time":"2013-10-15T17:08:00+0000","like_count":1,"user_likes":false},"739544076062272":{"id":"739544076062272","from":{"id":"100002981655149","name":"Đỗ Văn Nghĩa"},"message":"xin chào bạn nhé, bạn thấy tiếng việt thế nào, có thú vị không","can_remove":false,"created_time":"2013-10-15T17:23:56+0000","like_count":1,"user_likes":false},"739545296062150":{"id":"739545296062150","from":{"id":"1804696475","name":"Bé Bi"},"message":"xin chào","can_remove":false,"created_time":"2013-10-15T17:26:27+0000","like_count":1,"user_likes":false},"739556216061058":{"id":"739556216061058","from":{"id":"100004566972183","name":"Tsuyoshi Ta"},"message":"頑張って ^^;","can_remove":false,"created_time":"2013-10-15T17:49:15+0000","like_count":2,"user_likes":false},"739718889378124":{"id":"739718889378124","from":{"id":"100002297226886","name":"Nguyễn Bá Ngọc"},"message":"xin chào","can_remove":false,"created_time":"2013-10-15T23:33:03+0000","like_count":1,"user_likes":false},"739722166044463":{"id":"739722166044463","from":{"id":"100001458099624","name":"Kham Pha"},"message":"ベトナム語は難しいですね。なんか分からないところがあれば、ぜひ遠慮なく教えてください。皆は熱心で助けてあげますよ。ベトナム語または日本語でどっちでもいいですよ。\nよろしくお願いしますね。","can_remove":false,"created_time":"2013-10-15T23:42:13+0000","like_count":1,"user_likes":false},"739741909375822":{"id":"739741909375822","from":{"id":"100000368213854","name":"Người Lạ Từng Yêu"},"message":"頑張って ^^@@","can_remove":false,"created_time":"2013-10-16T00:28:07+0000","like_count":1,"user_likes":false},"739750236041656":{"id":"739750236041656","from":{"id":"100004971783092","name":"Cô Gái Xứ Nghệ"},"message":"Ohayou gozai masu.","can_remove":false,"created_time":"2013-10-16T00:45:32+0000","like_count":1,"user_likes":false},"739754329374580":{"id":"739754329374580","from":{"id":"100002853258192","name":"Phương Diệu Thu"},"message":"yoroshiku onegaishimasu!","can_remove":false,"created_time":"2013-10-16T00:51:55+0000","like_count":1,"user_likes":false},"739772979372715":{"id":"739772979372715","from":{"id":"100001415407078","name":"Kha Pham"},"message":"Hương Nguyễn !! Có đối tượng nè chị ơi !!","message_tags":[{"id":"100000021018532","name":"Hương Nguyễn","type":"user","offset":0,"length":12}],"can_remove":false,"created_time":"2013-10-16T01:18:10+0000","like_count":1,"user_likes":false},"739779702705376":{"id":"739779702705376","from":{"id":"100003245420682","name":"Thỏ Ngọc Usagi"},"message":"はじめまして！私は日本語を話したいんです。よろしくお願いします","can_remove":false,"created_time":"2013-10-16T01:33:16+0000","like_count":1,"user_likes":false},"739826582700688":{"id":"739826582700688","from":{"id":"100000064686295","name":"Huy Roli"},"message":"初めまして","can_remove":false,"created_time":"2013-10-16T02:52:48+0000","like_count":1,"user_likes":false},"739847606031919":{"id":"739847606031919","from":{"id":"100001416272263","name":"Mai PB"},"message":"Nhiều like quá, chứng tỏ đây là đề tài hấp dẫn các mem ;-)","can_remove":false,"created_time":"2013-10-16T03:35:41+0000","like_count":3,"user_likes":false},"739847872698559":{"id":"739847872698559","from":{"id":"100002793054191","name":"Lai Vuong"},"message":"Xin chao.Hay quá! Bạn học tiếng Việt lâu chưa?","can_remove":false,"created_time":"2013-10-16T03:36:08+0000","like_count":1,"user_likes":false},"739903042693042":{"id":"739903042693042","from":{"id":"100003225980553","name":"Quyên Xanh"},"message":"Oh, tuyệt vời, mình đang muốn học tiếng Nhật của bạn, rất vui khi được làm quen, chào mừng bạn đến với văn hóa Việt Nam.","can_remove":false,"created_time":"2013-10-16T05:30:11+0000","like_count":1,"user_likes":false},"739918592691487":{"id":"739918592691487","from":{"id":"100002859388277","name":"Lê Khanh Lý"},"message":"こちらこそ！ところで、ベトナムにどのぐらいいらっしゃいますか！？こんなに話せるレベルであれば、・・・・","can_remove":false,"created_time":"2013-10-16T06:04:49+0000","like_count":1,"user_likes":false},"740058012677545":{"id":"740058012677545","from":{"id":"100003262381147","name":"Venusstar Dang"},"message":"I really admire the country and people in Japan, nice to make friend with you.","can_remove":false,"created_time":"2013-10-16T12:11:49+0000","like_count":0,"user_likes":false},"740481109301902":{"id":"740481109301902","from":{"id":"100001416272263","name":"Mai PB"},"message":"Anh viết tiếng Việt rất tốt. Mà anh vào group này là đúng rồi, group này rất giỏi tiếng Việt. :-)","can_remove":false,"created_time":"2013-10-17T00:36:37+0000","like_count":2,"user_likes":false},"740595289290484":{"id":"740595289290484","from":{"id":"100000381394367","name":"Thành Nguyễn"},"message":"Bạn ấy còn rất trẻ thôi, sinh năm 1986.","can_remove":false,"created_time":"2013-10-17T02:45:23+0000","like_count":0,"user_likes":false},"740630455953634":{"id":"740630455953634","from":{"id":"100000603915176","name":"悪いな ぁ"},"message":"Có vẻ rất đông và vui :)","can_remove":false,"created_time":"2013-10-17T03:56:29+0000","like_count":0,"user_likes":false},"740644839285529":{"id":"740644839285529","from":{"id":"100004322010992","name":"Nhím Xù"},"message":"上手ですよ。","can_remove":false,"created_time":"2013-10-17T04:26:16+0000","like_count":0,"user_likes":false}},"paging":{"cursors":{"after":"NzM5NTA0MjA2MDY2MjU5","before":"NzM5NTA0MjA2MDY2MjU5"},"next":"https://graph.facebook.com/229244010425617_739501592733187/comments?limit=1&summary=1&after=NzM5NTA0MjA2MDY2MjU5"},"summary":{"order":"chronological","total_count":29}}}