{"id":"229244010425617_739772949372718","type":"status","from":{"id":"100001458099624","name":"Kham Pha"},"message":"Không ổn rồi, không ổn rồi. Mình dịch các bài hát trong group theo ngôi của ca sĩ mà bây giờ có bạn inbox gọi mình bằng \"chị\". Dẹp thôi, dẹp thôi, ko làm nữa, có bạn nào làm thay mình không?","created_time":"2013-10-16T01:18:09+0000","updated_time":"2013-10-17T12:56:20+0000","likes":{"data":{"100000517479592":{"id":"100000517479592","name":"Mỳ Tra"},"100004322010992":{"id":"100004322010992","name":"Nhím Xù"},"1570934720":{"id":"1570934720","name":"Đặng Thanh Tú"},"100000062884729":{"id":"100000062884729","name":"Huệ Ca"},"100003102655084":{"id":"100003102655084","name":"Cô Gái Xứ Dừa"},"100003264330800":{"id":"100003264330800","name":"Tiểu Mộc"},"100001044224883":{"id":"100001044224883","name":"Fan Tom"},"100001727857917":{"id":"100001727857917","name":"Bui Duyen"},"100000309978634":{"id":"100000309978634","name":"Tan Vu"},"100001415407078":{"id":"100001415407078","name":"Kha Pham"},"100001609833418":{"id":"100001609833418","name":"Tsunami Hime"},"100003806594580":{"id":"100003806594580","name":"Daothuy Linh"},"100002876323062":{"id":"100002876323062","name":"Linh Nguyen"},"100001912324973":{"id":"100001912324973","name":"Totto Chan"},"100003225980553":{"id":"100003225980553","name":"Quyên Xanh"},"100003055356509":{"id":"100003055356509","name":"Thuan Nguyen"},"100001495688011":{"id":"100001495688011","name":"Chung Kếu"},"100006767705219":{"id":"100006767705219","name":"Kim Liên"},"1821970083":{"id":"1821970083","name":"Nguyễn Mạnh Cường"},"100004094346107":{"id":"100004094346107","name":"Thuy Nga Nguyen"},"100005440689746":{"id":"100005440689746","name":"Trang Mapy"},"100001257093338":{"id":"100001257093338","name":"Hanh Dang"},"100001784385644":{"id":"100001784385644","name":"Nga Nguyen"},"100004360751785":{"id":"100004360751785","name":"Hà Nguyễn"},"100001627822638":{"id":"100001627822638","name":"Duong Lam"},"100004460525997":{"id":"100004460525997","name":"Hà Trang Nguyễn"},"100000328742646":{"id":"100000328742646","name":"Trần Giáp"},"100002375344981":{"id":"100002375344981","name":"Trung Tran"},"100000383155614":{"id":"100000383155614","name":"Phạm Thúc Hưng"},"100005478454231":{"id":"100005478454231","name":"Maruko Chan"},"100001622486348":{"id":"100001622486348","name":"Tuan Lam"},"100001720990331":{"id":"100001720990331","name":"Đỗ Đình Tiệp"}},"paging":{"cursors":{"after":"MTAwMDAwNTE3NDc5NTky","before":"MTAwMDAwNTE3NDc5NTky"},"next":"https://graph.facebook.com/229244010425617_739772949372718/likes?limit=1&summary=1&after=MTAwMDAwNTE3NDc5NTky"},"summary":{"total_count":33}},"comments":{"data":{"739775772705769":{"id":"739775772705769","from":{"id":"100001622486348","name":"Tuan Lam"},"message":"zz","can_remove":false,"created_time":"2013-10-16T01:23:47+0000","like_count":0,"user_likes":false},"739775846039095":{"id":"739775846039095","from":{"id":"100001622486348","name":"Tuan Lam"},"message":"khoipai wa thai phau thuot","can_remove":false,"created_time":"2013-10-16T01:23:59+0000","like_count":0,"user_likes":false},"739780846038595":{"id":"739780846038595","from":{"id":"100001416272263","name":"Mai PB"},"message":"Ai bảo không để avatar tử tế :-)","can_remove":false,"created_time":"2013-10-16T01:36:35+0000","like_count":2,"user_likes":false},"739791792704167":{"id":"739791792704167","from":{"id":"100001458099624","name":"Kham Pha"},"message":"Xấu trai nên ko dám để, sợ người ta chạy mất :(","can_remove":false,"created_time":"2013-10-16T01:57:14+0000","like_count":1,"user_likes":false},"739806412702705":{"id":"739806412702705","from":{"id":"100004460525997","name":"Hà Trang Nguyễn"},"message":"hohoooooo the thi duoc doi gioi tinh mot chut thu cam giac lam con gai xem tn","can_remove":false,"created_time":"2013-10-16T02:19:07+0000","like_count":0,"user_likes":false},"739835312699815":{"id":"739835312699815","from":{"id":"100004360751785","name":"Hà Nguyễn"},"message":"hự hự, tại vì là cả tên và avatar đều không phải đặc chủng của bên nào cả ý :D","can_remove":false,"created_time":"2013-10-16T03:12:46+0000","like_count":0,"user_likes":false},"739836356033044":{"id":"739836356033044","from":{"id":"100001622486348","name":"Tuan Lam"},"message":"than xacdan ongkiep dan ba zz","can_remove":false,"created_time":"2013-10-16T03:14:03+0000","like_count":0,"user_likes":false},"739838046032875":{"id":"739838046032875","from":{"id":"100001458099624","name":"Kham Pha"},"message":"Bệnh quá, đây 100% đàn ông nguyên chất. Ko ăn nói lung tung.","can_remove":false,"created_time":"2013-10-16T03:18:25+0000","like_count":2,"user_likes":false},"739839086032771":{"id":"739839086032771","from":{"id":"100004460525997","name":"Hà Trang Nguyễn"},"message":"Kham Pha có ai kiểm nghiệm được là đàn ông nguyên chất 100% đâu, ko nói thì đỡ nói lại càng nghi ngờ","message_tags":[{"id":"100001458099624","name":"Kham Pha","type":"user","offset":0,"length":8}],"can_remove":false,"created_time":"2013-10-16T03:20:35+0000","like_count":3,"user_likes":false},"739841456032534":{"id":"739841456032534","from":{"id":"100005336765342","name":"Son  Man"},"message":"Chuan girl!\nSuper girl.","can_remove":false,"created_time":"2013-10-16T03:26:12+0000","like_count":3,"user_likes":false},"739858572697489":{"id":"739858572697489","from":{"id":"100001257093338","name":"Hanh Dang"},"message":"đăng hình đính chính đê...ai mà làm cho \"chị\" Kham Pha dỗi thế nhỉ!?","message_tags":[{"id":"100001458099624","name":"Kham Pha","type":"user","offset":46,"length":8}],"can_remove":false,"created_time":"2013-10-16T03:51:56+0000","like_count":1,"user_likes":false},"739869046029775":{"id":"739869046029775","from":{"id":"100004094346107","name":"Thuy Nga Nguyen"},"message":"mọi người yêu quý bạn vì tấm lòng mà, đâu phải vì tấm hình xấu mà bỏ chạy đâu Kham Pha","message_tags":[{"id":"100001458099624","name":"Kham Pha","type":"user","offset":78,"length":8}],"can_remove":false,"created_time":"2013-10-16T04:19:14+0000","like_count":1,"user_likes":false},"739882952695051":{"id":"739882952695051","from":{"id":"100002508122689","name":"Vũ Mạnh Tuấn"},"message":"anh đổi avatar chính chủ đi là được :D","can_remove":false,"created_time":"2013-10-16T04:52:55+0000","like_count":0,"user_likes":false},"739948596021820":{"id":"739948596021820","from":{"id":"100001458099624","name":"Kham Pha"},"message":"Làm gì có mà đổi :))","can_remove":false,"created_time":"2013-10-16T07:51:54+0000","like_count":0,"user_likes":false},"739951809354832":{"id":"739951809354832","from":{"id":"100003806594580","name":"Daothuy Linh"},"message":"Anh trở lên nổi tiếng còn ji","can_remove":false,"created_time":"2013-10-16T08:03:20+0000","like_count":1,"user_likes":false},"739984749351538":{"id":"739984749351538","from":{"id":"100006368081099","name":"Man Thu"},"message":"Chỉ là nhỡ miệng hoặc là cố tình để dc ghi nhớ. Bình tĩnh, Bình tĩnh đi ad.","can_remove":false,"created_time":"2013-10-16T09:25:38+0000","like_count":1,"user_likes":false},"739991399350873":{"id":"739991399350873","from":{"id":"100000687662713","name":"Vu Thi Man"},"message":"Hehe, cam on Kham Pha cho minh tre them may tuoi nhe.","message_tags":[{"id":"100001458099624","name":"Kham Pha","type":"user","offset":13,"length":8}],"can_remove":false,"created_time":"2013-10-16T09:46:26+0000","like_count":0,"user_likes":false},"740004806016199":{"id":"740004806016199","from":{"id":"100001458099624","name":"Kham Pha"},"message":"@Mochi: rậm râu sâu mắt đẹp giai như anh Mai PB thì còn nói làm gì :(\n@Vu Thi Man: có gì đâu mà cười ghê vậy.","message_tags":[{"id":"100001416272263","name":"Mai PB","type":"user","offset":41,"length":6}],"can_remove":false,"created_time":"2013-10-16T10:27:32+0000","like_count":2,"user_likes":false},"740111789338834":{"id":"740111789338834","from":{"id":"100000687662713","name":"Vu Thi Man"},"message":"Khong phai cuoi vi Kham Pha bi goi la chi, ma cuoi vi tuong tuong ra cai mat cua KP khi phat hien ra dieu do va thai do khi thot len nhung cau ben tren.","message_tags":[{"id":"100001458099624","name":"Kham Pha","type":"user","offset":19,"length":8}],"can_remove":false,"created_time":"2013-10-16T13:42:22+0000","like_count":1,"user_likes":false},"740134022669944":{"id":"740134022669944","from":{"id":"100001458099624","name":"Kham Pha"},"message":"Sao nội dung lộn xộn thế này. Rốt cuộc là các bạn có ai muốn làm phần học tiếng Nhật qua bài hát không? Nhiều bạn cùng làm thì lập nhóm.","can_remove":false,"created_time":"2013-10-16T14:18:37+0000","like_count":0,"user_likes":false},"740147042668642":{"id":"740147042668642","from":{"id":"100001458099624","name":"Kham Pha"},"message":"Hết chị lại đến chú. Ức phọt máu.","can_remove":false,"created_time":"2013-10-16T14:30:02+0000","like_count":0,"user_likes":false},"740148636001816":{"id":"740148636001816","from":{"id":"100004360751785","name":"Hà Nguyễn"},"message":"ko phải là cố ý nhưng mà ko có cái avt e nói thật là ko đoán dc tuổi tác thật ợ","can_remove":false,"created_time":"2013-10-16T14:32:57+0000","like_count":0,"user_likes":false},"740148682668478":{"id":"740148682668478","from":{"id":"100004360751785","name":"Hà Nguyễn"},"message":":(","can_remove":false,"created_time":"2013-10-16T14:33:03+0000","like_count":0,"user_likes":false},"740150432668303":{"id":"740150432668303","from":{"id":"100002508122689","name":"Vũ Mạnh Tuấn"},"message":":))))","can_remove":false,"created_time":"2013-10-16T14:36:26+0000","like_count":0,"user_likes":false},"740170562666290":{"id":"740170562666290","from":{"id":"100000198219367","name":"Chang Jiang"},"message":"mọi người cứ gọi Kham Pha bằng \"thím\" là hay nhất, luôn đúng với mọi hoàn cảnh và mọi lứa tuổi :v","can_remove":false,"created_time":"2013-10-16T15:07:18+0000","like_count":2,"user_likes":false},"740174785999201":{"id":"740174785999201","from":{"id":"100004360751785","name":"Hà Nguyễn"},"message":"bác nào cho e hỏi là bác kham pha bao nhieu tuổi r ợ ???","can_remove":false,"created_time":"2013-10-16T15:11:55+0000","like_count":0,"user_likes":false},"740179259332087":{"id":"740179259332087","from":{"id":"100002508122689","name":"Vũ Mạnh Tuấn"},"message":"anh Kham Pha sinh năm 91 :))","message_tags":[{"id":"100001458099624","name":"Kham Pha","type":"user","offset":4,"length":8}],"can_remove":false,"created_time":"2013-10-16T15:16:47+0000","like_count":0,"user_likes":false},"740448612638485":{"id":"740448612638485","from":{"id":"100001458099624","name":"Kham Pha"},"message":"91 chỉ là năm sinh thôi, còn thực ra là đã 1002 tuổi rồi nên mọi người cứ gọi sama cũng được, mình không ngại đâu :3","can_remove":false,"created_time":"2013-10-16T23:34:36+0000","like_count":0,"user_likes":false},"740568089293204":{"id":"740568089293204","from":{"id":"100004360751785","name":"Hà Nguyễn"},"message":"uầy ôi, 91 thì ứ gọi bằng a nữa, lỗ mất mấy câu anh hự hự :3","can_remove":false,"created_time":"2013-10-17T01:52:41+0000","like_count":0,"user_likes":false},"740738045942875":{"id":"740738045942875","from":{"id":"100001458099624","name":"Kham Pha"},"message":"Ko lỗ đâu, cứ thế phát huy nhé :D","can_remove":false,"created_time":"2013-10-17T09:09:59+0000","like_count":0,"user_likes":false},"740743855942294":{"id":"740743855942294","from":{"id":"1824015127","name":"Bùi Quang Tân"},"message":"Nhiều bạn gái bị hố phết nhể :))","can_remove":false,"created_time":"2013-10-17T09:24:05+0000","like_count":0,"user_likes":false},"740744372608909":{"id":"740744372608909","from":{"id":"100004094346107","name":"Thuy Nga Nguyen"},"message":"he cu tuong lon tuoi rui chu","can_remove":false,"created_time":"2013-10-17T09:25:33+0000","like_count":0,"user_likes":false},"740747545941925":{"id":"740747545941925","from":{"id":"100001458099624","name":"Kham Pha"},"message":"Bùi Quang Tân tại anh đứng đắn quá :3","message_tags":[{"id":"1824015127","name":"Bùi Quang Tân","type":"user","offset":0,"length":13}],"can_remove":false,"created_time":"2013-10-17T09:33:13+0000","like_count":0,"user_likes":false},"740847039265309":{"id":"740847039265309","from":{"id":"100004360751785","name":"Hà Nguyễn"},"message":"nói thật chứ mà tớ nghĩ cậu ít cũng phải đầu 8 đuôi chơi vơi, ai ngờ cũng \"dê \" như mình :v","can_remove":false,"created_time":"2013-10-17T12:49:47+0000","like_count":0,"user_likes":false},"740852875931392":{"id":"740852875931392","from":{"id":"1570934720","name":"Đặng Thanh Tú"},"message":"Chị Phá ^^","can_remove":false,"created_time":"2013-10-17T12:56:20+0000","like_count":0,"user_likes":false}},"paging":{"cursors":{"after":"NzM5Nzc1NzcyNzA1NzY5","before":"NzM5Nzc1NzcyNzA1NzY5"},"next":"https://graph.facebook.com/229244010425617_739772949372718/comments?limit=1&summary=1&after=NzM5Nzc1NzcyNzA1NzY5"},"summary":{"order":"chronological","total_count":40}}}