{"id":"229244010425617_739818706034809","type":"link","picture":"https://fbcdn-profile-a.akamaihd.net/hprofile-ak-frc3/t1.0-1/c9.0.165.165/1798051_526539494131762_337898231_n.png","link":"https://www.facebook.com/vuahannhat","from":{"id":"100005090677811","name":"Trí Chơn"},"message":"Ai muốn cần tài liệu học và đề thi N1, N2, N3, N4, N5 \n誰はＮ１、Ｎ２、Ｎ３、Ｎ４、Ｎ５の材料と試験問題が必要なら、\n下のページにありますので、自由に取ってくださいね。\n\nhttps://www.facebook.com/vuahannhat?ref=hl","created_time":"2013-10-16T02:37:42+0000","updated_time":"2013-10-16T05:19:29+0000","likes":{"data":{"100000101180940":{"id":"100000101180940","name":"Trà Chanh"},"100002832648280":{"id":"100002832648280","name":"Giabao Trangmi"}},"paging":{"cursors":{"after":"MTAwMDAwMTAxMTgwOTQw","before":"MTAwMDAwMTAxMTgwOTQw"},"next":"https://graph.facebook.com/229244010425617_739818706034809/likes?limit=1&summary=1&after=MTAwMDAwMTAxMTgwOTQw"},"summary":{"total_count":2}},"comments":{"data":{"739841762699170":{"id":"739841762699170","from":{"id":"100001416272263","name":"Mai PB"},"message":"Trí Chơn là ad của trang đó chăng? Bạn nên sửa câu trên đi nhé.","message_tags":[{"id":"100005090677811","name":"Trí Chơn","type":"user","offset":0,"length":8}],"can_remove":false,"created_time":"2013-10-16T03:26:50+0000","like_count":0,"user_likes":false},"739898796026800":{"id":"739898796026800","from":{"id":"100002779080239","name":"Nguyễn Biên"},"message":"2 bài đăng đều có nhầm lẫn :)","can_remove":false,"created_time":"2013-10-16T05:19:29+0000","like_count":0,"user_likes":false}},"paging":{"cursors":{"after":"NzM5ODQxNzYyNjk5MTcw","before":"NzM5ODQxNzYyNjk5MTcw"},"next":"https://graph.facebook.com/229244010425617_739818706034809/comments?limit=1&summary=1&after=NzM5ODQxNzYyNjk5MTcw"},"summary":{"order":"chronological","total_count":2}}}