{"id":"229244010425617_739915996025080","type":"status","from":{"id":"100000064686295","name":"Huy Roli"},"message":"Nhờ admin đưa trang web này lên đầu cho mọi người cùng xem và cùng học tiếng Nhật nhé http://www.gooddrama.net/drama-list#japanese-movies","created_time":"2013-10-16T05:55:19+0000","updated_time":"2013-10-17T00:37:27+0000","likes":{"data":{"100002949055983":{"id":"100002949055983","name":"Joke Nguyễn"},"100001723862714":{"id":"100001723862714","name":"Bo Bien Vang"},"100000047107627":{"id":"100000047107627","name":"Tiểu Phương"},"1264623539":{"id":"1264623539","name":"Tom Tran"},"100000328742646":{"id":"100000328742646","name":"Trần Giáp"},"100004028173069":{"id":"100004028173069","name":"Jin Ngốc"},"100003187036702":{"id":"100003187036702","name":"Phuong Hoa Smile"},"100004251845458":{"id":"100004251845458","name":"Hoàng Anh"},"1168996060":{"id":"1168996060","name":"Chanh Leo"},"100002508122689":{"id":"100002508122689","name":"Vũ Mạnh Tuấn"},"100003751343484":{"id":"100003751343484","name":"Bạch Dương"},"100005211189763":{"id":"100005211189763","name":"Oliveu Cchann"},"100003160219586":{"id":"100003160219586","name":"Nghia July"},"100004131812183":{"id":"100004131812183","name":"Liên Chuột"},"100004716640495":{"id":"100004716640495","name":"Thúy An Dương"},"849149395":{"id":"849149395","name":"Đặng Ngọc Trân"},"100000110601676":{"id":"100000110601676","name":"장미"}},"paging":{"cursors":{"after":"MTAwMDAyOTQ5MDU1OTgz","before":"MTAwMDAyOTQ5MDU1OTgz"},"next":"https://graph.facebook.com/229244010425617_739915996025080/likes?limit=1&summary=1&after=MTAwMDAyOTQ5MDU1OTgz"},"summary":{"total_count":18}},"comments":{"data":{"739920852691261":{"id":"739920852691261","from":{"id":"100000110601676","name":"장미"},"message":"nhieu phim qua khong biet xem phim nao","can_remove":false,"created_time":"2013-10-16T06:12:05+0000","like_count":1,"user_likes":false},"739930636023616":{"id":"739930636023616","from":{"id":"849149395","name":"Đặng Ngọc Trân"},"message":"WOAAA, thx bạn nhìu nhìu nhìu nhìu thiệt nhìu xD","can_remove":false,"created_time":"2013-10-16T06:48:58+0000","like_count":0,"user_likes":false},"740127392670607":{"id":"740127392670607","from":{"id":"100000064686295","name":"Huy Roli"},"message":"Cũng đang muốn nhưng chưa tìm dc","can_remove":false,"created_time":"2013-10-16T14:07:42+0000","like_count":0,"user_likes":false},"740481439301869":{"id":"740481439301869","from":{"id":"100001416272263","name":"Mai PB"},"message":"Huy Roli https://www.facebook.com/groups/CongdongVietNhat/doc/740853609264652/","message_tags":[{"id":"100000064686295","name":"Huy Roli","type":"user","offset":0,"length":8}],"can_remove":false,"created_time":"2013-10-17T00:37:27+0000","like_count":0,"user_likes":false}},"paging":{"cursors":{"after":"NzM5OTIwODUyNjkxMjYx","before":"NzM5OTIwODUyNjkxMjYx"},"next":"https://graph.facebook.com/229244010425617_739915996025080/comments?limit=1&summary=1&after=NzM5OTIwODUyNjkxMjYx"},"summary":{"order":"chronological","total_count":6}}}