{"id":"229244010425617_739990766017603","type":"status","from":{"id":"100001727857917","name":"Bui Duyen"},"message":"「金がないから何も出来ないという人間は、金があっても何も出来ない人間である。」\n\n　　　　　　　　　　　　　　　　　　　　　　　　小林一三（阪急グループ創設者）","created_time":"2013-10-16T09:44:33+0000","updated_time":"2013-10-16T10:57:30+0000","likes":{"data":{"100001754136107":{"id":"100001754136107","name":"Nguyễn Tuấn Vũ"},"100003084870026":{"id":"100003084870026","name":"Nguyễn Hiền"},"100002230230544":{"id":"100002230230544","name":"Nakamura Minako"},"100002508122689":{"id":"100002508122689","name":"Vũ Mạnh Tuấn"},"100003512453640":{"id":"100003512453640","name":"Cá Midori"},"100004140850631":{"id":"100004140850631","name":"Huong Trang"},"100001580479641":{"id":"100001580479641","name":"Hà Xuân Thủy"},"100001458099624":{"id":"100001458099624","name":"Kham Pha"},"100001415407078":{"id":"100001415407078","name":"Kha Pham"},"100003231761385":{"id":"100003231761385","name":"Chả Biết Gì"},"1797046701":{"id":"1797046701","name":"Tuyết Anh Nguyễn"},"100001416272263":{"id":"100001416272263","name":"Mai PB"}},"paging":{"cursors":{"after":"MTAwMDAxNzU0MTM2MTA3","before":"MTAwMDAxNzU0MTM2MTA3"},"next":"https://graph.facebook.com/229244010425617_739990766017603/likes?limit=1&summary=1&after=MTAwMDAxNzU0MTM2MTA3"},"summary":{"total_count":12}},"comments":{"data":{"740001006016579":{"id":"740001006016579","from":{"id":"100001415407078","name":"Kha Pham"},"message":"お金があっても何も出来ない人間である。分かりません","can_remove":false,"created_time":"2013-10-16T10:16:22+0000","like_count":0,"user_likes":false},"740003796016300":{"id":"740003796016300","from":{"id":"100003806594580","name":"Daothuy Linh"},"message":"Có nghĩa là \" dù có tiền cũng ko làm dc việc ji cả\"","can_remove":false,"created_time":"2013-10-16T10:24:44+0000","like_count":0,"user_likes":false},"740005272682819":{"id":"740005272682819","from":{"id":"100001415407078","name":"Kha Pham"},"message":"thế mới khó hiểu . ^_^ Daothuy Linhah!!","message_tags":[{"id":"100003806594580","name":"Daothuy Linh","type":"user","offset":23,"length":12}],"can_remove":false,"created_time":"2013-10-16T10:28:40+0000","like_count":0,"user_likes":false},"740006466016033":{"id":"740006466016033","from":{"id":"100003806594580","name":"Daothuy Linh"},"message":"thì ý như này nè\" Con người mà ko có tiền thì ko thể thực hiện bất cứ điều ji, Nhưng cũng có những người dù có tiền đi nữa cũng ko làm nên trò trống ji\". Có thể ở đây nói nên những kẻ có tiền nhưng ko biết dùng đúng cách ý. Theo tớ hiểu nôm na là như vậy.","can_remove":false,"created_time":"2013-10-16T10:32:40+0000","like_count":1,"user_likes":false},"740007509349262":{"id":"740007509349262","from":{"id":"100001727857917","name":"Bui Duyen"},"message":"Daothuy Linh: Bạn ơi, trong câu này 2 chữ 人間　đều chỉ cùng 1 người đấy. Bạn  thử dịch lại xem","message_tags":[{"id":"100003806594580","name":"Daothuy Linh","type":"user","offset":0,"length":12}],"can_remove":false,"created_time":"2013-10-16T10:35:55+0000","like_count":0,"user_likes":false},"740014746015205":{"id":"740014746015205","from":{"id":"100001580479641","name":"Hà Xuân Thủy"},"message":"Người nói nếu ko có tiền thì ko thể làm bất cứ việc gì là người dù có tiền cũng ko thể làm bất cứ việc gì. \nCả câu này là cấu trúc sơ cấp N1 は N2.","can_remove":false,"created_time":"2013-10-16T10:57:30+0000","like_count":6,"user_likes":false}},"paging":{"cursors":{"after":"NzQwMDAxMDA2MDE2NTc5","before":"NzQwMDAxMDA2MDE2NTc5"},"next":"https://graph.facebook.com/229244010425617_739990766017603/comments?limit=1&summary=1&after=NzQwMDAxMDA2MDE2NTc5"},"summary":{"order":"chronological","total_count":6}}}