{"id":"229244010425617_740158372667509","type":"photo","object_id":"214535702056393","picture":"https://fbcdn-photos-d-a.akamaihd.net/hphotos-ak-frc3/t1.0-0/1395847_214535702056393_120592967_s.jpg","link":"https://www.facebook.com/photo.php?fbid=214535702056393&set=gm.740158372667509&type=1&relevant_count=1","from":{"id":"100004998936727","name":"Kanda Kyota"},"message":"桜島\r\n桜島は鹿児島県の中央に位置し、雄大にそびえております。そにため、桜島は鹿児島県の象徴だとも言えます。桜島は今も噴火を繰り返している活火山です。\r\nGiới thiệu quê\r\nNúi sakurajima nằm giữa tỉnh kagoshima và có vẻ đẹp hũng vĩ. Ví vậy ,núi sakurajima là biểu tương của tỉnh kagoshima. \r\nNúi sakurajima là núi lửa hoạt động và có thể phùn trào.","created_time":"2013-10-16T14:47:55+0000","updated_time":"2013-10-16T18:58:21+0000","likes":{"data":{"100006690902901":{"id":"100006690902901","name":"Nhóc Maruko"},"100003225980553":{"id":"100003225980553","name":"Quyên Xanh"},"100003753046005":{"id":"100003753046005","name":"Anh Ha"},"100002575102109":{"id":"100002575102109","name":"Cậu Bé To Xác"},"100001416272263":{"id":"100001416272263","name":"Mai PB"},"100000052661831":{"id":"100000052661831","name":"Shuntoku Pham"},"100003504835155":{"id":"100003504835155","name":"Sao Pha Lê"},"100005801442456":{"id":"100005801442456","name":"An Nguyen"},"100003229084469":{"id":"100003229084469","name":"Huyền Phạm"},"100001458099624":{"id":"100001458099624","name":"Kham Pha"},"100002981945060":{"id":"100002981945060","name":"Quý Trần"},"100004405054916":{"id":"100004405054916","name":"Trần Anh Dũng"},"1400326262":{"id":"1400326262","name":"Matsumoto Soutarou"},"100004452704201":{"id":"100004452704201","name":"Đông Đô"},"100005646697689":{"id":"100005646697689","name":"Công Đi Tông"},"100003055356509":{"id":"100003055356509","name":"Thuan Nguyen"},"100003924638739":{"id":"100003924638739","name":"Toi La Ai"},"100001754136107":{"id":"100001754136107","name":"Nguyễn Tuấn Vũ"},"100004490496995":{"id":"100004490496995","name":"Rai Chamu"},"100004566972183":{"id":"100004566972183","name":"Tsuyoshi Ta"},"100003662604894":{"id":"100003662604894","name":"Mai Hana"},"100000826279369":{"id":"100000826279369","name":"Linh Vi"},"100001723862714":{"id":"100001723862714","name":"Bo Bien Vang"},"100003566412558":{"id":"100003566412558","name":"Anh Việt Nguyễn"},"100004360751785":{"id":"100004360751785","name":"Hà Nguyễn"},"100002680505635":{"id":"100002680505635","name":"Khanh Vu"},"100002850792999":{"id":"100002850792999","name":"Viet le Minh"},"100006426778916":{"id":"100006426778916","name":"Tiểu Anh Đào"},"100005991164555":{"id":"100005991164555","name":"Cheda Miu"},"100006471014750":{"id":"100006471014750","name":"Nga Bếu"},"100000381394367":{"id":"100000381394367","name":"Thành Nguyễn"},"100004409922456":{"id":"100004409922456","name":"Le Thanh"},"100005211189763":{"id":"100005211189763","name":"Oliveu Cchann"},"100003134784326":{"id":"100003134784326","name":"Sao Mai"},"100001495688011":{"id":"100001495688011","name":"Chung Kếu"},"100006767705219":{"id":"100006767705219","name":"Kim Liên"}},"paging":{"cursors":{"after":"MTAwMDA2NjkwOTAyOTAx","before":"MTAwMDA2NjkwOTAyOTAx"},"next":"https://graph.facebook.com/229244010425617_740158372667509/likes?limit=1&summary=1&after=MTAwMDA2NjkwOTAyOTAx"},"summary":{"total_count":37}},"comments":{"data":{"740223982660948":{"id":"740223982660948","from":{"id":"100001754136107","name":"Nguyễn Tuấn Vũ"},"message":"Vì vậy :)","can_remove":false,"created_time":"2013-10-16T16:29:41+0000","like_count":0,"user_likes":false},"740309619319051":{"id":"740309619319051","from":{"id":"100001458099624","name":"Kham Pha"},"message":"Hình như 鹿児島 là nơi đặt bệ phóng tên lửa vệ tinh của Nhật phải không anh Kanda Kyota. \nNgười ta thường chọn những nơi có vĩ độ thấp để phóng tên lửa để tận dụng gia tốc li tâm của Trái Đất. Đây là nơi có vĩ độ thấp nhất của Nhật Bản nếu không tính đến quần đảo 沖縄.","message_tags":[{"id":"100004998936727","name":"Kanda Kyota","type":"user","offset":73,"length":11}],"can_remove":false,"created_time":"2013-10-16T18:58:21+0000","like_count":0,"user_likes":false}},"paging":{"cursors":{"after":"NzQwMjIzOTgyNjYwOTQ4","before":"NzQwMjIzOTgyNjYwOTQ4"},"next":"https://graph.facebook.com/229244010425617_740158372667509/comments?limit=1&summary=1&after=NzQwMjIzOTgyNjYwOTQ4"},"summary":{"order":"chronological","total_count":2}}}