{"id":"229244010425617_740592959290717","type":"status","from":{"id":"100000359762118","name":"Mi Tra"},"message":"Vừa nhận được bảng thống kê từ Cục XNC. Trong kỳ tháng 10 vừa qua chỉ riêng Vn thôi là có tất cả \nHồ sơ nộp lên : 5,024 bộ\nĐỗ                 : 4,079 bộ\nTrượt             : 942 bộ\nBảo lưu          : 3 bộ\nTỉ lệ đỗ là 81.2% ( cao hơn so với Nepal 68% và　Sri Lanka 76%. Các nước còn lại toàn trên 84,85 %. Có Mỹ, Malaysia, Indonesia là 100%. Taiwan 99.9%)\n\nSo với tháng 10 năm 2012\nHồ sơ nộp lên : 1,936 bộ\nĐỗ                 : 1,598 bộ\nTrượt             : 337 bộ\nBảo lưu          : 1 bộ\nTỉ lệ đỗ 82.5%\n\nQuân ta kéo sang Nhật quá đông. Kỳ nhập học sau lại tăng hơn kỳ trước gấp 4, 5 lần như thế này thì chẳng mấy chốc sẽ có Phố VN to đùng giữa Tokyo hoặc Yokohama giống như các bạn TQ  chứ chẳng đùa ^^","created_time":"2013-10-17T02:39:22+0000","updated_time":"2013-10-18T09:58:23+0000","likes":{"data":{"100004293973335":{"id":"100004293973335","name":"Nga Ngố"},"100002805246239":{"id":"100002805246239","name":"Hoàng Hiếu"},"100004461275333":{"id":"100004461275333","name":"Ô Hay Hay"},"100003055356509":{"id":"100003055356509","name":"Thuan Nguyen"},"100003241206021":{"id":"100003241206021","name":"Minh Anh Nguyen"},"100005336765342":{"id":"100005336765342","name":"Son  Man"},"100001609833418":{"id":"100001609833418","name":"Tsunami Hime"},"1822854513":{"id":"1822854513","name":"Sữa Chua Không Đường"},"100003890244727":{"id":"100003890244727","name":"Mua Thuy Tinh"},"100006738850876":{"id":"100006738850876","name":"Ho Tuan"},"100002676859353":{"id":"100002676859353","name":"Chu Quang Viên"},"100006042037840":{"id":"100006042037840","name":"Le Mi"},"100003837141956":{"id":"100003837141956","name":"Mai Hoàng"},"100001458099624":{"id":"100001458099624","name":"Kham Pha"},"1023965040":{"id":"1023965040","name":"Juli KimChi"},"100004460525997":{"id":"100004460525997","name":"Hà Trang Nguyễn"},"100006493055181":{"id":"100006493055181","name":"Tuyên Nguyễn"},"100003107603691":{"id":"100003107603691","name":"Hoa Nắng Tháng Ba"},"100000639075483":{"id":"100000639075483","name":"Thao Nh"},"100002793066505":{"id":"100002793066505","name":"Vang Vu"},"100002327743510":{"id":"100002327743510","name":"Tuan Thanh"},"100000022163023":{"id":"100000022163023","name":"Kafe Ore"},"100004094371699":{"id":"100004094371699","name":"Hoàng Bá Phương"},"100004099050589":{"id":"100004099050589","name":"Nguyễn Đức Hiệp"},"100002145658145":{"id":"100002145658145","name":"Yến Kều"},"100004177206535":{"id":"100004177206535","name":"Vy Vũ"},"100003978847425":{"id":"100003978847425","name":"Diễm My"},"100002157379029":{"id":"100002157379029","name":"Nguyen Hai Dung"},"100004743935020":{"id":"100004743935020","name":"Thanh Huyen"},"100005440689746":{"id":"100005440689746","name":"Trang Mapy"},"100004409731083":{"id":"100004409731083","name":"Đô Trong Nghia"},"100000041691073":{"id":"100000041691073","name":"Phuong Nam Hoang"},"100000195299558":{"id":"100000195299558","name":"Giọt Sương Sớm Mai"},"100000277882542":{"id":"100000277882542","name":"Thedhxd Nguyen"},"566093622":{"id":"566093622","name":"Loby Huong"},"100005460966516":{"id":"100005460966516","name":"Hải Dương"},"100001832281281":{"id":"100001832281281","name":"Mắm Bệu"},"100003143578550":{"id":"100003143578550","name":"Vn Tim"},"100001594722256":{"id":"100001594722256","name":"Viết An Phạm"},"100005347960626":{"id":"100005347960626","name":"Kevin Đạo"},"100006838682202":{"id":"100006838682202","name":"Say Bia"},"100002793054191":{"id":"100002793054191","name":"Lai Vuong"},"100003249054848":{"id":"100003249054848","name":"Quang Nguyen"},"100003231761385":{"id":"100003231761385","name":"Chả Biết Gì"},"100002276015196":{"id":"100002276015196","name":"Tųấƞ Aŋĥ"},"100001754136107":{"id":"100001754136107","name":"Nguyễn Tuấn Vũ"},"1797910583":{"id":"1797910583","name":"Tran Van Sang"},"100006709480567":{"id":"100006709480567","name":"Le Minh"},"711491571":{"id":"711491571","name":"Graziani Inaizarg"},"1094162178":{"id":"1094162178","name":"Ngô Vũ Hoàng"},"100002887947757":{"id":"100002887947757","name":"Nguyen Dang"},"100000027754899":{"id":"100000027754899","name":"Hoang Van Ba"},"100001731744647":{"id":"100001731744647","name":"Niềm Vui"},"100004360751785":{"id":"100004360751785","name":"Hà Nguyễn"},"100001887921127":{"id":"100001887921127","name":"Kata Apple"},"100005801442456":{"id":"100005801442456","name":"An Nguyen"}},"paging":{"cursors":{"after":"MTAwMDA0MjkzOTczMzM1","before":"MTAwMDA0MjkzOTczMzM1"},"next":"https://graph.facebook.com/229244010425617_740592959290717/likes?limit=1&summary=1&after=MTAwMDA0MjkzOTczMzM1"},"summary":{"total_count":57}},"comments":{"data":{"740595169290496":{"id":"740595169290496","from":{"id":"100000027754899","name":"Hoang Van Ba"},"message":"Kéo hết sang đây làm giàu cho Nhật \n:)","can_remove":false,"created_time":"2013-10-17T02:44:56+0000","like_count":0,"user_likes":false},"740595989290414":{"id":"740595989290414","from":{"id":"1094162178","name":"Ngô Vũ Hoàng"},"message":"kéo hết sang làm baito , sai vặt cho Nhật","can_remove":false,"created_time":"2013-10-17T02:47:07+0000","like_count":2,"user_likes":false},"740597695956910":{"id":"740597695956910","from":{"id":"1403031497","name":"Hoa Blue"},"message":"lao động lương thấp","can_remove":false,"created_time":"2013-10-17T02:50:54+0000","like_count":1,"user_likes":false},"740598255956854":{"id":"740598255956854","from":{"id":"100004360751785","name":"Hà Nguyễn"},"message":"cứ tình trạng này Việt Nam lo gì đất chật ng đông nữa, đi hết r còn đâu. Nhưng hệ quả là ng giỏi ng tài >> đi. Thanh niên trai tráng  năng động >>> đi. Việt Nam còn lại ai ?????","can_remove":false,"created_time":"2013-10-17T02:52:03+0000","like_count":3,"user_likes":false},"740599069290106":{"id":"740599069290106","from":{"id":"100000264801587","name":"Nguyễn Đình Toàn"},"message":"Nhà khả năng cho con cái sang thì ít mà vay mượn thế chấp sổ đỏ đất đai, bán đất bán ruộng thì nhiều !!","can_remove":false,"created_time":"2013-10-17T02:53:58+0000","like_count":2,"user_likes":false},"740600305956649":{"id":"740600305956649","from":{"id":"100003249054848","name":"Quang Nguyen"},"message":"Cậu Ba","message_tags":[{"id":"100000251534049","name":"Cậu Ba","type":"user","offset":0,"length":6}],"can_remove":false,"created_time":"2013-10-17T02:57:46+0000","like_count":0,"user_likes":false},"740603569289656":{"id":"740603569289656","from":{"id":"100004360751785","name":"Hà Nguyễn"},"message":"thường thì ở đâu tốt mới là nơi ng ta chọn để dừng chân, VN còn nhiều bất cập quá :(","can_remove":false,"created_time":"2013-10-17T03:02:15+0000","like_count":0,"user_likes":false},"740607042622642":{"id":"740607042622642","from":{"id":"1787333994","name":"Kiên Mậu"},"message":"số liệu này là hs sang học trường tiếng Nhật hay cả vào ĐH luôn bạn nhỉ?","can_remove":false,"created_time":"2013-10-17T03:06:10+0000","like_count":0,"user_likes":false},"740607929289220":{"id":"740607929289220","from":{"id":"100006179012972","name":"Thy Dang"},"message":"Người VN có câu:\" Đất lành chim đậu\" mà.","can_remove":false,"created_time":"2013-10-17T03:07:21+0000","like_count":1,"user_likes":false},"740610532622293":{"id":"740610532622293","from":{"id":"100000359762118","name":"Mi Tra"},"message":"阮茂 堅: Số liệu này là chỉ nguyên của hs sang học trường tiếng Nhật thôi nhé!","can_remove":false,"created_time":"2013-10-17T03:13:07+0000","like_count":1,"user_likes":false},"740610812622265":{"id":"740610812622265","from":{"id":"1787333994","name":"Kiên Mậu"},"message":"thankiu :)","can_remove":false,"created_time":"2013-10-17T03:14:03+0000","like_count":0,"user_likes":false},"740629399287073":{"id":"740629399287073","from":{"id":"100000251534049","name":"Cậu Ba"},"message":"sao lại tag a vào hả Quang Nguyen","message_tags":[{"id":"100003249054848","name":"Quang Nguyen","type":"user","offset":21,"length":12}],"can_remove":false,"created_time":"2013-10-17T03:55:00+0000","like_count":0,"user_likes":false},"740632842620062":{"id":"740632842620062","from":{"id":"100000184434912","name":"Trần Tráng"},"message":"5000 hs 2013 so vs 1900hs 2012 chứ","can_remove":false,"created_time":"2013-10-17T04:01:28+0000","like_count":1,"user_likes":false},"740635119286501":{"id":"740635119286501","from":{"id":"100000359762118","name":"Mi Tra"},"message":"Mình nhầm ;(","can_remove":false,"created_time":"2013-10-17T04:08:01+0000","like_count":0,"user_likes":false},"740636669286346":{"id":"740636669286346","from":{"id":"100005801442456","name":"An Nguyen"},"message":"1 khoá thôi,1 năm có 4 khoá ,tháng 4 tháng 1 tháng 8 tháng 10,1 đợi 4 5000 thì 1 năm gần 20k!!!","can_remove":false,"created_time":"2013-10-17T04:11:44+0000","like_count":0,"user_likes":false},"740652119284801":{"id":"740652119284801","from":{"id":"100002157379029","name":"Nguyen Hai Dung"},"message":"Khiep via","can_remove":false,"created_time":"2013-10-17T04:35:40+0000","like_count":0,"user_likes":false},"740653115951368":{"id":"740653115951368","from":{"id":"100004360751785","name":"Hà Nguyễn"},"message":"thôi các bác đi hết để mình e ở lại thôi :v","can_remove":false,"created_time":"2013-10-17T04:36:49+0000","like_count":0,"user_likes":false},"740674289282584":{"id":"740674289282584","from":{"id":"100000022163023","name":"Kafe Ore"},"message":"Nguyen Tien Dung thấy ghê chưa","message_tags":[{"id":"100000067647301","name":"Nguyen Tien Dung","type":"user","offset":0,"length":16}],"can_remove":false,"created_time":"2013-10-17T05:17:55+0000","like_count":0,"user_likes":false},"740675532615793":{"id":"740675532615793","from":{"id":"100002793066505","name":"Vang Vu"},"message":"shoc","can_remove":false,"created_time":"2013-10-17T05:22:40+0000","like_count":0,"user_likes":false},"740676939282319":{"id":"740676939282319","from":{"id":"100000027754899","name":"Hoang Van Ba"},"message":"Rồi cả tu nghiẹp sinh nữa :)\nNhà nước mình ơi. Giữ mọi ng lại đi","can_remove":false,"created_time":"2013-10-17T05:27:34+0000","like_count":0,"user_likes":false},"740678255948854":{"id":"740678255948854","from":{"id":"100000381394367","name":"Thành Nguyễn"},"message":"Sang đông mà có trật tự quy củ thì tốt, còn sang mà ồ ạt theo phong trào thì hỏng. Hy vọng là các bạn sang Nhật không mang theo kỳ vọng và ảo tưởng về nước Nhật mà mang theo quyết tâm vượt khó. Sau này về Việt Nam sẽ đóng góp được nhiều cho sự phát triển của đất nước.","can_remove":false,"created_time":"2013-10-17T05:33:18+0000","like_count":7,"user_likes":false},"740680979281915":{"id":"740680979281915","from":{"id":"100006493055181","name":"Tuyên Nguyễn"},"message":"Mình thich điều này","can_remove":false,"created_time":"2013-10-17T05:42:53+0000","like_count":0,"user_likes":false},"740681782615168":{"id":"740681782615168","from":{"id":"100002472470715","name":"Phan Duy Hùng"},"message":"Bạn Thành Nguyễn nói chính xác","message_tags":[{"id":"100000381394367","name":"Thành Nguyễn","type":"user","offset":4,"length":12}],"can_remove":false,"created_time":"2013-10-17T05:45:16+0000","like_count":2,"user_likes":false},"740685005948179":{"id":"740685005948179","from":{"id":"100001458099624","name":"Kham Pha"},"message":"Sang Nhật các bạn chỉ đc làm nv quèn thôi, học cái hay ở Nhật về VN áp dụng thì khả năng thành ông này bà nọ là cao lắm đấy :)","can_remove":false,"created_time":"2013-10-17T05:57:57+0000","like_count":1,"user_likes":false},"740685209281492":{"id":"740685209281492","from":{"id":"100000027754899","name":"Hoang Van Ba"},"message":"Về thì các Bác đã già :(","can_remove":false,"created_time":"2013-10-17T05:58:50+0000","like_count":0,"user_likes":false},"741418762541470":{"id":"741418762541470","from":{"id":"100005013365720","name":"Hoàng BáCh"},"message":"Càg đôg càng vui","can_remove":false,"created_time":"2013-10-18T09:58:23+0000","like_count":0,"user_likes":false}},"paging":{"cursors":{"after":"NzQwNTk1MTY5MjkwNDk2","before":"NzQwNTk1MTY5MjkwNDk2"},"next":"https://graph.facebook.com/229244010425617_740592959290717/comments?limit=1&summary=1&after=NzQwNTk1MTY5MjkwNDk2"},"summary":{"order":"chronological","total_count":27}}}