{"id":"229244010425617_740675665949113","type":"status","from":{"id":"100000221648144","name":"Nguyen Hung"},"message":"Mình đang ở saitama ga naka urawa qua nhật theo visa dinh cu . Hiện minh đang cần tìm việc làm . Nhà mình có ai biết cty môi giới việc làm ko giới thiệu mình với. Trân thành cảm ơn và hậu tạ","created_time":"2013-10-17T05:22:59+0000","updated_time":"2013-10-19T05:09:03+0000","likes":{"data":{"1023965040":{"id":"1023965040","name":"Juli KimChi"}},"paging":{"cursors":{"after":"MTAyMzk2NTA0MA==","before":"MTAyMzk2NTA0MA=="}},"summary":{"total_count":1}},"comments":{"data":{"740677135948966":{"id":"740677135948966","from":{"id":"100000221648144","name":"Nguyen Hung"},"message":"A Mai PB nhờ a giúp đỡ . A sống ở nhật lâu năm và cũng am hiểu về nhật bản nhiều mong a giúp đỡ. E mới qua nhật thang 8 nay chua co việcmlam","message_tags":[{"id":"100001416272263","name":"Mai PB","type":"user","offset":2,"length":6}],"can_remove":false,"created_time":"2013-10-17T05:28:20+0000","like_count":0,"user_likes":false},"740684675948212":{"id":"740684675948212","from":{"id":"100001570773655","name":"Hoàng A Chang"},"message":"A dinh chuyen viec ah","can_remove":false,"created_time":"2013-10-17T05:56:35+0000","like_count":0,"user_likes":false},"740685505948129":{"id":"740685505948129","from":{"id":"100000221648144","name":"Nguyen Hung"},"message":"Làm yamato chuẩn bị hết hạn rồi","can_remove":false,"created_time":"2013-10-17T06:00:01+0000","like_count":0,"user_likes":false},"740685612614785":{"id":"740685612614785","from":{"id":"100000221648144","name":"Nguyen Hung"},"message":"Qua thang la o nha choi ko ah","can_remove":false,"created_time":"2013-10-17T06:00:30+0000","like_count":0,"user_likes":false},"740864375930242":{"id":"740864375930242","from":{"id":"100001416272263","name":"Mai PB"},"message":"Nguyen Hung vào pin post ở trên đầu ([Quan trong]...) đọc phần Arubaito.","message_tags":[{"id":"100000221648144","name":"Nguyen Hung","type":"user","offset":0,"length":11}],"can_remove":false,"created_time":"2013-10-17T13:19:26+0000","like_count":1,"user_likes":false},"741027302580616":{"id":"741027302580616","from":{"id":"100000221648144","name":"Nguyen Hung"},"message":"Là sao e ko hiểu a Mai PB. E muốn xin vào cty làm cho ổn định .","message_tags":[{"id":"100001416272263","name":"Mai PB","type":"user","offset":19,"length":6}],"can_remove":false,"created_time":"2013-10-17T18:25:21+0000","like_count":0,"user_likes":false},"741303222553024":{"id":"741303222553024","from":{"id":"100000381394367","name":"Thành Nguyễn"},"message":"Visa định cư là sao nhỉ? Bạn có thẻ vĩnh trú à, thường đã là visa định cư thì phải có công việc rồi họ mới cấp visa đó cho chứ.","can_remove":false,"created_time":"2013-10-18T04:16:22+0000","like_count":1,"user_likes":false},"741481322535214":{"id":"741481322535214","from":{"id":"100001416272263","name":"Mai PB"},"message":"Nếu muốn xin việc lâu dài (kể cả arubaito) thì tốt nhất là đi ra các văn phòng ハローワーク có trên toàn nước Nhật nhé. Trên mạng cũng có thông tin, nhưng ra văn phòng sẽ được tư vấn. Đây là dịch vụ tư vấn miễn phí của chính phủ Nhật dành cho tất cả công dân Nhật và người nước ngoài, miễn là nói được chút xíu tiếng Nhật. https://www.hellowork.go.jp/\nCòn nếu bạn có kỹ năng cao cấp thì có thể đăng ký với các công ty môi giới việc làm, cũng miễn phí. Sẽ có khả năng có lương bằng hoặc hơn trung bình, tùy kỹ năng của mình.","can_remove":false,"created_time":"2013-10-18T12:15:57+0000","like_count":3,"user_likes":false},"741482419201771":{"id":"741482419201771","from":{"id":"100001416272263","name":"Mai PB"},"message":"Tất cả những ai cần arubaito, đừng nhờ shokai mất tiền của ai mà hãy ra ハローワーク như nói ở trên. Họ rất nhiệt tình và hoàn toàn miễn phí, cũng có khả năng đậu cao hơn tự đi xin việc. Tất cả các ga lớn đều có văn phòng.","can_remove":false,"created_time":"2013-10-18T12:17:46+0000","like_count":4,"user_likes":false},"741482872535059":{"id":"741482872535059","from":{"id":"100001416272263","name":"Mai PB"},"message":"Viết đến đây lại ước gì VN có văn phòng như thế này. :-( Đây là chủ nghĩa xã hội thực sự chứ đâu ra?","can_remove":false,"created_time":"2013-10-18T12:18:40+0000","like_count":2,"user_likes":false},"741870019163011":{"id":"741870019163011","from":{"id":"100000195299558","name":"Giọt Sương Sớm Mai"},"message":"E cung dang nho hellowork ma chua dc. Nhung cong nhan ho nhiet tinh that","can_remove":false,"created_time":"2013-10-19T03:56:19+0000","like_count":1,"user_likes":false},"741957475820932":{"id":"741957475820932","from":{"id":"100001416272263","name":"Mai PB"},"message":"Chiếc Lá Cuối Cùng những người như vậy là những người vừa không biết tiếng Nhật vừa không tìm hiểu gì từ khi ở VN, cũng vì vậy mà một số lớn bị lừa. Khi sang Nhật cũng vẫn ỷ lại nguyên như vậy. Người Việt có 2 tệ nạn lớn: quá nhiều sói và cũng quá nhiều gà.","message_tags":[{"id":"100006469315671","name":"Chiếc Lá Cuối Cùng","type":"user","offset":0,"length":18}],"can_remove":false,"created_time":"2013-10-19T05:09:03+0000","like_count":3,"user_likes":false}},"paging":{"cursors":{"after":"NzQwNjc3MTM1OTQ4OTY2","before":"NzQwNjc3MTM1OTQ4OTY2"},"next":"https://graph.facebook.com/229244010425617_740675665949113/comments?limit=1&summary=1&after=NzQwNjc3MTM1OTQ4OTY2"},"summary":{"order":"chronological","total_count":13}}}