{"id":"229244010425617_740633575953322","type":"status","from":{"id":"100006179012972","name":"Thy Dang"},"message":"Cho mình hỏi chút nha. Nếu muốn đi du học Nhật Bản thì mình phải chuẩn bị những gì? ( tốt nghiệp cao đẳng về điện, không biết tiếng Nhật)","created_time":"2013-10-17T04:03:38+0000","updated_time":"2013-10-18T11:23:56+0000","likes":{"data":{"100004461275333":{"id":"100004461275333","name":"Ô Hay Hay"},"100003888576324":{"id":"100003888576324","name":"Nguyen Quan"},"100004446394296":{"id":"100004446394296","name":"Nguyen Tien"},"100005460966516":{"id":"100005460966516","name":"Hải Dương"}},"paging":{"cursors":{"after":"MTAwMDA0NDYxMjc1MzMz","before":"MTAwMDA0NDYxMjc1MzMz"},"next":"https://graph.facebook.com/229244010425617_740633575953322/likes?limit=1&summary=1&after=MTAwMDA0NDYxMjc1MzMz"},"summary":{"total_count":4}},"comments":{"data":{"740634472619899":{"id":"740634472619899","from":{"id":"100006193872567","name":"Vé Hàn Nhật"},"message":"Trang Tokyo bạn có thể hỏi chị bên này :D","message_tags":[{"id":"100002770422167","name":"Trang Tokyo","type":"user","offset":0,"length":11}],"can_remove":false,"created_time":"2013-10-17T04:06:50+0000","like_count":0,"user_likes":false},"740832322600114":{"id":"740832322600114","from":{"id":"100000359762118","name":"Mi Tra"},"message":"Trước hết xác định mục đích đi Nhật\nTiếp theo tìm hiểu kĩ về cuộc sống của DHS tại Nhật. \nXác định tư tưởng lại một lần nữa.\nSau đó học tiếng Nhật và tìm một nơi uy tín giúp bạn làm hồ sơ.","can_remove":false,"created_time":"2013-10-17T12:17:04+0000","like_count":2,"user_likes":false},"740883659261647":{"id":"740883659261647","from":{"id":"100004446394296","name":"Nguyen Tien"},"message":"と","can_remove":false,"created_time":"2013-10-17T13:49:35+0000","like_count":0,"user_likes":false},"741210725895607":{"id":"741210725895607","from":{"id":"657157297","name":"Phan Dien"},"message":"Ban co the lien lac voi Minh,chi phi re,de xin visa","can_remove":false,"created_time":"2013-10-18T00:50:40+0000","like_count":0,"user_likes":false},"741236132559733":{"id":"741236132559733","from":{"id":"100001415407078","name":"Kha Pham"},"message":"chuẩn bị có N4 ở nhà rồi sang . Nếu có N3 thì tốt hơn .","can_remove":false,"created_time":"2013-10-18T01:41:21+0000","like_count":0,"user_likes":false},"741266232556723":{"id":"741266232556723","from":{"id":"100006179012972","name":"Thy Dang"},"message":"Thanks all","can_remove":false,"created_time":"2013-10-18T02:50:32+0000","like_count":0,"user_likes":false},"741453242538022":{"id":"741453242538022","from":{"id":"100004461275333","name":"Ô Hay Hay"},"message":"Thy Dang inbox mình nhé. tham khảo thêm tại www.facebook.com/duhocHQSV","can_remove":false,"created_time":"2013-10-18T11:23:56+0000","like_count":0,"user_likes":false}},"paging":{"cursors":{"after":"NzQwNjM0NDcyNjE5ODk5","before":"NzQwNjM0NDcyNjE5ODk5"},"next":"https://graph.facebook.com/229244010425617_740633575953322/comments?limit=1&summary=1&after=NzQwNjM0NDcyNjE5ODk5"},"summary":{"order":"chronological","total_count":7}}}