{"id":"229244010425617_740780695938610","type":"status","from":{"id":"100003144937413","name":"Bách Gà"},"message":"Mình cần tìm việc yamato ai có chỗ shyokai việc cho mình xin cái số dt với","created_time":"2013-10-17T10:39:46+0000","updated_time":"2013-10-19T06:31:27+0000","likes":{"data":{"100003769655241":{"id":"100003769655241","name":"Đăng Ninh"},"100000195299558":{"id":"100000195299558","name":"Giọt Sương Sớm Mai"}},"paging":{"cursors":{"after":"MTAwMDAzNzY5NjU1MjQx","before":"MTAwMDAzNzY5NjU1MjQx"},"next":"https://graph.facebook.com/229244010425617_740780695938610/likes?limit=1&summary=1&after=MTAwMDAzNzY5NjU1MjQx"},"summary":{"total_count":2}},"comments":{"data":{"740862649263748":{"id":"740862649263748","from":{"id":"100003769655241","name":"Đăng Ninh"},"message":"5 man.Ok chứ.liên lạc với đức tốp","can_remove":false,"created_time":"2013-10-17T13:15:33+0000","like_count":0,"user_likes":false},"741210942562252":{"id":"741210942562252","from":{"id":"100001416272263","name":"Mai PB"},"message":"Có gà nên cứ cắt tiết phải không?","can_remove":false,"created_time":"2013-10-18T00:51:19+0000","like_count":1,"user_likes":false},"741759669174046":{"id":"741759669174046","from":{"id":"100006716918619","name":"Ốc Tiêu"},"message":"Em đang làm gần ga Yamato, em cho chị số đt rồi chị gọi nha 09055454771 tsumanashi  nha","can_remove":false,"created_time":"2013-10-18T22:34:39+0000","like_count":2,"user_likes":false},"741867422496604":{"id":"741867422496604","from":{"id":"100000195299558","name":"Giọt Sương Sớm Mai"},"message":"Fi shokai la bao nhiu ? Akiko Nguyen","can_remove":false,"created_time":"2013-10-19T03:47:35+0000","like_count":0,"user_likes":false},"741867752496571":{"id":"741867752496571","from":{"id":"100006716918619","name":"Ốc Tiêu"},"message":"Mình đâu có lấy tiền đâu bạn, giúp dc gì thì mình giúp thôi","can_remove":false,"created_time":"2013-10-19T03:48:58+0000","like_count":0,"user_likes":false},"741868009163212":{"id":"741868009163212","from":{"id":"100000195299558","name":"Giọt Sương Sớm Mai"},"message":"Hj,","can_remove":false,"created_time":"2013-10-19T03:50:04+0000","like_count":0,"user_likes":false},"741874375829242":{"id":"741874375829242","from":{"id":"100001784385644","name":"Nga Nguyen"},"message":"Ai gọi cug dc ah bạn Akiko Nguyen","message_tags":[{"id":"100006716918619","name":"Akiko Nguyen","type":"user","offset":21,"length":12}],"can_remove":false,"created_time":"2013-10-19T04:09:12+0000","like_count":0,"user_likes":false},"741874655829214":{"id":"741874655829214","from":{"id":"100006716918619","name":"Ốc Tiêu"},"message":"Đúng rồi bạn Nga Nguyen","can_remove":false,"created_time":"2013-10-19T04:10:38+0000","like_count":0,"user_likes":false},"741875952495751":{"id":"741875952495751","from":{"id":"100001784385644","name":"Nga Nguyen"},"message":"Đag tuyển ah bạn, tuyển nhiều ko bạn","can_remove":false,"created_time":"2013-10-19T04:15:50+0000","like_count":0,"user_likes":false},"741881189161894":{"id":"741881189161894","from":{"id":"100001416272263","name":"Mai PB"},"message":"Đăng Ninh từ trước luôn chửi bậy nên hôm nay bị xóa nick.","message_tags":[{"id":"100003769655241","name":"Đăng Ninh","type":"user","offset":0,"length":9}],"can_remove":false,"created_time":"2013-10-19T04:33:10+0000","like_count":0,"user_likes":false},"741882289161784":{"id":"741882289161784","from":{"id":"100001416272263","name":"Mai PB"},"message":"Bách Gà https://www.facebook.com/photo.php?fbid=170363926500321&set=a.111101652426549.1073741826.100005801442456&type=1&relevant_count=1","message_tags":[{"id":"100003144937413","name":"Bách Gà","type":"user","offset":0,"length":7}],"can_remove":false,"created_time":"2013-10-19T04:37:56+0000","like_count":1,"user_likes":false},"742024385814241":{"id":"742024385814241","from":{"id":"100003144937413","name":"Bách Gà"},"message":"dạ em cảm ơn mọi người nhé","can_remove":false,"created_time":"2013-10-19T06:31:27+0000","like_count":0,"user_likes":false}},"paging":{"cursors":{"after":"NzQwODYyNjQ5MjYzNzQ4","before":"NzQwODYyNjQ5MjYzNzQ4"},"next":"https://graph.facebook.com/229244010425617_740780695938610/comments?limit=1&summary=1&after=NzQwODYyNjQ5MjYzNzQ4"},"summary":{"order":"chronological","total_count":12}}}