{"id":"229244010425617_740863439263669","type":"link","picture":"https://fbexternal-a.akamaihd.net/safe_image.php?d=AQDo2vpLof3FR4Cd&w=154&h=154&url=http%3A%2F%2Fimage.itmedia.co.jp%2Fnac%2Fimages%2Flogo%2F200_ebook_bgw.gif","link":"http://ebook.itmedia.co.jp/ebook/articles/1310/17/news089.html","from":{"id":"100001416272263","name":"Mai PB"},"message":"Người Nhật nói nên học tập Việt Nam kìa :-D. Học gì, các mem đọc xem.\n\n\"食べる時間は起床後14時間以内、米や野菜中心の食事、1食の量を少なくて、食べる回数が多い分食。ベトナムの生活スタイルが自然と太りにくい食生活となっているのだ。ダイエットを始めたいという人は、ベトナムの食生活から見習うべきところは多いはずだ。\"\n\nhttp://ebook.itmedia.co.jp/ebook/articles/1310/17/news089.html","created_time":"2013-10-17T13:17:15+0000","updated_time":"2013-10-18T08:18:54+0000","likes":{"data":{"100001847108567":{"id":"100001847108567","name":"Dư Tuấn"},"100002470650247":{"id":"100002470650247","name":"LinhLinh Chan"},"100005336765342":{"id":"100005336765342","name":"Son  Man"},"1816269439":{"id":"1816269439","name":"Dao Ngoc"},"100004933327576":{"id":"100004933327576","name":"Yanagi Nguyen"},"100003090738530":{"id":"100003090738530","name":"Ngô Thị Thanh Hường"},"100000047107627":{"id":"100000047107627","name":"Tiểu Phương"},"657157297":{"id":"657157297","name":"Phan Dien"},"100001844269163":{"id":"100001844269163","name":"Bằng Ngô Quý"},"100006767705219":{"id":"100006767705219","name":"Kim Liên"},"100002994568283":{"id":"100002994568283","name":"Pham Cuong"},"1295846007":{"id":"1295846007","name":"Hang Nga"},"100003835631538":{"id":"100003835631538","name":"Tien Loc Pham"},"100000002047093":{"id":"100000002047093","name":"Mint Candy"},"100000303753500":{"id":"100000303753500","name":"Đỗ Tiến"},"100003005597243":{"id":"100003005597243","name":"Zany Royal"},"100001754136107":{"id":"100001754136107","name":"Nguyễn Tuấn Vũ"},"1146680551":{"id":"1146680551","name":"優しい なぁ"},"100000408035586":{"id":"100000408035586","name":"Nguyen Van"},"100006361266631":{"id":"100006361266631","name":"Nguyen Huynh Dung"},"100001594722256":{"id":"100001594722256","name":"Viết An Phạm"},"100004253979918":{"id":"100004253979918","name":"Louis Hoàng Văn Thái"},"100000110601676":{"id":"100000110601676","name":"장미"},"100001468685770":{"id":"100001468685770","name":"Katykaty Hello"},"100000154892124":{"id":"100000154892124","name":"Hanh Pham"},"100000022163023":{"id":"100000022163023","name":"Kafe Ore"},"100001723862714":{"id":"100001723862714","name":"Bo Bien Vang"},"100000064686295":{"id":"100000064686295","name":"Huy Roli"},"100000128764209":{"id":"100000128764209","name":"Chau Le"},"100001475606142":{"id":"100001475606142","name":"Thanh Hoa Dang"}},"paging":{"cursors":{"after":"MTAwMDAxODQ3MTA4NTY3","before":"MTAwMDAxODQ3MTA4NTY3"},"next":"https://graph.facebook.com/229244010425617_740863439263669/likes?limit=1&summary=1&after=MTAwMDAxODQ3MTA4NTY3"},"summary":{"total_count":31}},"comments":{"data":{"740870462596300":{"id":"740870462596300","from":{"id":"100001416272263","name":"Mai PB"},"message":"Ai dịch cho mọi người cùng đọc đi. Chỉ cần đoạn ngắn trên thôi.","can_remove":false,"created_time":"2013-10-17T13:30:32+0000","like_count":1,"user_likes":false},"740881422595204":{"id":"740881422595204","from":{"id":"100000154892124","name":"Hanh Pham"},"message":"hay đấy bác!","can_remove":false,"created_time":"2013-10-17T13:46:50+0000","like_count":0,"user_likes":false},"740890979260915":{"id":"740890979260915","from":{"id":"1845000884","name":"Trieu Thi Kieu Oanh"},"message":"Hay! Chắc phải mở 1 quán là ベト食スタイル(((o(*ﾟ▽ﾟ*)o)))","can_remove":false,"created_time":"2013-10-17T13:56:15+0000","like_count":1,"user_likes":false},"740894082593938":{"id":"740894082593938","from":{"id":"100000022163023","name":"Kafe Ore"},"message":"Em thử, sai chỗ nào mọi người chỉ giùm em nha ! : \"Thời gian ăn trong khoảng 14h sau khi ngủ trưa dậy ăn làm nhiều bữa, mỗi bữa ăn lượng nhỏ chủ yếu với cơm và rau. Phong cách sinh hoạt của người VN đã trở thành phong cách sinh hoạt ẩm thực tự nhiên và giữ dáng ( khó mập ). Chắc chắn một điều rằng những người muốn bắt đầu việc ăn kiêng nên học tập sinh hoạt ẩm thực của người VN \".  Hem bik đúng hok nữa... ^^","can_remove":false,"created_time":"2013-10-17T14:02:02+0000","like_count":1,"user_likes":false},"740895145927165":{"id":"740895145927165","from":{"id":"100002493819706","name":"Giang Nguyen"},"message":"k hiểu chi hết.","can_remove":false,"created_time":"2013-10-17T14:04:25+0000","like_count":0,"user_likes":false},"740896529260360":{"id":"740896529260360","from":{"id":"100001912633316","name":"Du Ca"},"message":"He he, vào dịch thử coi, mong mọi ngươi giúp đỡ cho ^ ^\n\nHọ thường ăn trong vòng 14 tiếng sau khi thức dậy với những món chủ lực là cơm và rau. Lượng thức ăn ít và chia thành nhiều bữa nhỏ. Lối sống của người Việt thuận theo tự nhiên với những bữa ăn ít gây béo. Những người bắt đầu ăn kiêng có thể học tập được nhiều thứ từ phong cách ăn uống của người Việt.","can_remove":false,"created_time":"2013-10-17T14:07:07+0000","like_count":2,"user_likes":false},"740899362593410":{"id":"740899362593410","from":{"id":"100001416272263","name":"Mai PB"},"message":"Nói chung là mọi người hiểu nhưng lười dịch, chỉ trông mong vào admin thôi. :-)  Kafe Ore: 14h sau khi ngủ dậy buổi sáng chứ không phải chỉ ngủ trưa","message_tags":[{"id":"100000022163023","name":"Kafe Ore","type":"user","offset":81,"length":8}],"can_remove":false,"created_time":"2013-10-17T14:12:48+0000","like_count":2,"user_likes":false},"740900349259978":{"id":"740900349259978","from":{"id":"100004360751785","name":"Hà Nguyễn"},"message":"may quá có ng dịch hộ e mới hiểu, chứ trình độ hết bài 5 minna như e thì .....","can_remove":false,"created_time":"2013-10-17T14:15:04+0000","like_count":0,"user_likes":false},"740906545926025":{"id":"740906545926025","from":{"id":"100000408035586","name":"Nguyen Van"},"message":"Anh hay chia sẻ những bài viết hay thật đấy, như là bài viết về cách uống đồ uống mới của người Nhật. \nAnh có thể chỉ hộ em trang web nào hay để đọc những nội dung ntn hay báo mạng giống như Việt Nam mình được không ạ. \nEm cám ơn anh nhiều ạ ^^","can_remove":false,"created_time":"2013-10-17T14:28:08+0000","like_count":1,"user_likes":false},"740907085925971":{"id":"740907085925971","from":{"id":"100000022163023","name":"Kafe Ore"},"message":"Mai PB Ô... Thấy 14h là e nghĩ ngay đến ngủ trưa...^^. Đúng là : \" Chuẩn người VN \". Cơ mà sai một li, đi nhầm nguyên một dặm :(. Tks anh !  :)","message_tags":[{"id":"100001416272263","name":"Mai PB","type":"user","offset":0,"length":6}],"can_remove":false,"created_time":"2013-10-17T14:29:13+0000","like_count":0,"user_likes":false},"740911549258858":{"id":"740911549258858","from":{"id":"100001416272263","name":"Mai PB"},"message":"Nguyen Van ví dụ có thể tìm như thế này: google với keyword \"面白いニュース\"","message_tags":[{"id":"100000408035586","name":"Nguyen Van","type":"user","offset":0,"length":10}],"can_remove":false,"created_time":"2013-10-17T14:37:45+0000","like_count":2,"user_likes":false},"740938645922815":{"id":"740938645922815","from":{"id":"100000408035586","name":"Nguyen Van"},"message":"Em cám ơn nhé.","can_remove":false,"created_time":"2013-10-17T15:30:54+0000","like_count":1,"user_likes":false},"740944895922190":{"id":"740944895922190","from":{"id":"100001912633316","name":"Du Ca"},"message":"Mai PB : đọc thì hiểu đấy ạ, nhưng em khá là ngại đọc tiếng nhật trên mạng, tiếng anh thì còn đỡ vì nhanh mỏi mắt và khó nhìn kanji nào có nhiều nét :< Những cái gì cần đọc toàn cóp về word phóng to đến cỡ 20 để đọc ^ ^\"","message_tags":[{"id":"100001416272263","name":"Mai PB","type":"user","offset":0,"length":6}],"can_remove":false,"created_time":"2013-10-17T15:44:01+0000","like_count":1,"user_likes":false},"741389752544371":{"id":"741389752544371","from":{"id":"1146680551","name":"優しい なぁ"},"message":"Chắc người viết bài này quên vụ chất lượng sản phẩm rồi ^_^","can_remove":false,"created_time":"2013-10-18T08:18:54+0000","like_count":0,"user_likes":false}},"paging":{"cursors":{"after":"NzQwODcwNDYyNTk2MzAw","before":"NzQwODcwNDYyNTk2MzAw"},"next":"https://graph.facebook.com/229244010425617_740863439263669/comments?limit=1&summary=1&after=NzQwODcwNDYyNTk2MzAw"},"summary":{"order":"chronological","total_count":14}}}