{"id":"229244010425617_740906992592647","type":"status","from":{"id":"100001416272263","name":"Mai PB"},"message":"Lâu lâu lại đọc bài cảm động nhé.\n\n＜感動する話５＞\n\n人生最大の悔い\n\n高校の頃とにかくバイトと遊びではしゃぎまくってた。\n無免で中型乗って馬鹿だからマッポに捕まったりしてお母さんに迷惑かけまくった。\n\nバイトもキャバクラと他に掛け持ちして学校も公立の普通科で超多忙で通学費だけは自分で払ってた。\n\nそんな中、高2～3までダイエットと忙しさで拒食症になった。\nすごいガリガリになって普通の生活が辛くて眠くてイライラがずっとあった。\nでもバイトも学校もしっかり行っていたが、毎朝おかんが作るお弁当を全く食べずに家においていったままにした。\n\nほとんど食事をとらず友達にも家族にも相当心配かけてた時期。\n家族との仲に溝ができて、会話がほとんどなかった。\n\nしかしやっぱり人間の本能。\nいずれ食欲は出て来て普通の生活が出来るようになり、今ではその反動がきてるw\n拒食症の症状も軽くなった頃の高校卒業間際、学校最後のお弁当がある登校日。\n\n久々の朝の会話\n「お弁当忘れてるよ。」\n\nその日学校で丁寧に包まれたお弁当ばこを開けた。\n\n母からの手紙が。\n\nあなたがダイエットをする頃から母はお弁当を作らなくなり、\n悲しいような…楽チンだったような…\n一時期は本当にどうなるのか不安で仕方ありませんでした。\nたくさん心配かけることをしてくれたあなたですが体だけは健康にね。\nいずれあなたにも子供ができて、文句を言いながらお弁当を作る様子を思い浮かべると笑っちゃう。\nでもあなたはママの娘。何があっても大丈夫。\nこれからも頑張ろうね。\n\n学校で泣いた。友達に自慢しまくったw\n\n泣きながら手紙入ってるよーって。\nそのお弁当には私の大好きな母の手作りだし巻き卵焼きが入ってました。\nうちのおかんは本当に料理がうますぎて、ピザも生地から手作りで、味噌とかも家で作ってます。絶品。\n\n今私は19歳。就職して1人暮らししています。\nおかんのお弁当、なんでなんでもっと欲張って食べなかったんだろう。\n人生最大の悔い。\n今更だけどおかんのお弁当ってどれだけあったかくておいしかったのか思い知らされました。あの愛情に勝てるものはこの世にないでしょう…\nおかんみたいなおかんになることが私の夢です。","created_time":"2013-10-17T14:29:03+0000","updated_time":"2013-10-20T06:15:17+0000","likes":{"data":{"100005334430359":{"id":"100005334430359","name":"Mưa Lạnh"},"1816269439":{"id":"1816269439","name":"Dao Ngoc"},"100006807102053":{"id":"100006807102053","name":"Tina Nguyen"},"100005694491959":{"id":"100005694491959","name":"Phuong Truong Thi Thanh"},"100003055356509":{"id":"100003055356509","name":"Thuan Nguyen"},"100005801442456":{"id":"100005801442456","name":"An Nguyen"},"100001257093338":{"id":"100001257093338","name":"Hanh Dang"},"100000027754899":{"id":"100000027754899","name":"Hoang Van Ba"},"100006767705219":{"id":"100006767705219","name":"Kim Liên"},"100000221648144":{"id":"100000221648144","name":"Nguyen Hung"},"100001609833418":{"id":"100001609833418","name":"Tsunami Hime"},"100000002047093":{"id":"100000002047093","name":"Mint Candy"},"100000747635624":{"id":"100000747635624","name":"Nguyễn Xuân Đại"},"100000022163023":{"id":"100000022163023","name":"Kafe Ore"},"100000064686295":{"id":"100000064686295","name":"Huy Roli"},"100003239455545":{"id":"100003239455545","name":"Yuki Daruma"}},"paging":{"cursors":{"after":"MTAwMDA1MzM0NDMwMzU5","before":"MTAwMDA1MzM0NDMwMzU5"},"next":"https://graph.facebook.com/229244010425617_740906992592647/likes?limit=1&summary=1&after=MTAwMDA1MzM0NDMwMzU5"},"summary":{"total_count":16}},"comments":{"data":{"740907429259270":{"id":"740907429259270","from":{"id":"100001416272263","name":"Mai PB"},"message":"Vẫn như mọi khi, trình độ 中級, nhiều người cùng dịch nào. Mỗi người dịch một đoạn.","can_remove":false,"created_time":"2013-10-17T14:29:47+0000","like_count":0,"user_likes":false},"740907832592563":{"id":"740907832592563","from":{"id":"100001416272263","name":"Mai PB"},"message":"Các bài cũ: https://www.facebook.com/groups/CongdongVietNhat/doc/696075460409134/","can_remove":false,"created_time":"2013-10-17T14:30:42+0000","like_count":0,"user_likes":false},"740915872591759":{"id":"740915872591759","from":{"id":"100000064686295","name":"Huy Roli"},"message":"Ước gì học xong tc để dịch đc","can_remove":false,"created_time":"2013-10-17T14:44:16+0000","like_count":1,"user_likes":false},"740920835924596":{"id":"740920835924596","from":{"id":"100000747635624","name":"Nguyễn Xuân Đại"},"message":"Sự hối hận lớn nhất của đời người","can_remove":false,"created_time":"2013-10-17T14:54:34+0000","like_count":0,"user_likes":false},"740947249255288":{"id":"740947249255288","from":{"id":"100000022163023","name":"Kafe Ore"},"message":"助けてくれ。。。Ai làm ơn chỉ cho mình nghĩa của từ \"はしゃぎまくる\" ... Please !. Mình  tra Google không ra..:((","can_remove":false,"created_time":"2013-10-17T15:48:56+0000","like_count":0,"user_likes":false},"740983672584979":{"id":"740983672584979","from":{"id":"100000022163023","name":"Kafe Ore"},"message":"人生最大の悔い\nSự hối hận lớn nhất cuộc đời.\n高校の頃とにかくバイトと遊びではしゃぎまくってた。\nThời trung học, tôi đã mê mẩn với việc chơi bời và làm thêm.\n無免で中型乗って馬鹿だからマッポに捕まったりしてお母さんに迷惑かけまくった。\nChính vì đã ngu ngốc đi xe máy ( cỡ phân khối trung bình ) trong khi không có bằng lái nên bị cảnh sát bắt mà tôi đã gây phiền phức cho Mẹ.\nバイトもキャバクラと他に掛け持ちして学校も公立の普通科で超多忙で通学費だけは自分で払ってた。\nBận rộn khủng khiếp với ông việc làm thêm thì làm cùng lúc nhiều nơi ở quán rượu và nơi khác, trường học thì cũng là trường công lập với mức phí bình thường, chỉ có mỗi chi phí đi lại là tôi tự mình trang trải.\nそんな中、高2～3までダイエットと忙しさで拒食症になった。\nTrong (hoàn cảnh ) đó, bận rộn và ăn kiêng tới mức độ 2,3 mà tôi đã bị chứng biếng ăn.\nすごいガリガリになって普通の生活が辛くて眠くてイライラがずっとあった。\nTrở lên hết sức mảnh mai, cuộc sống bình thường thì chán nản, tôi thường xuyên lơ mơ và buồn ngủ.\nでもバイトも学校もしっかり行っていたが、毎朝おかんが作るお弁当を全く食べずに家においていったままにした。\nDù vậy, tôi vẫn đi làm thêm và tới trường đầy đủ nhưng mỗi sáng phần cơm hộp do mẹ làm tôi đều hoàn toàn không ăn, cứ bỏ lại ở nhà mà đi.\n\nほとんど食事をとらず友達にも家族にも相当心配かけてた時期。\n( Đây là ) thời kỳ mà tôi hầu như không ăn, khiến cho cả gia đình và bạn bè đều lo lắng.\n家族との仲に溝ができて、会話がほとんどなかった。\nTôi hầu như không nói chuyện, tách biệt mình với mọi người trong gia đình.\nしかしやっぱり人間の本能。\nThế nhưng, quả thật là bản năng của con người.\nいずれ食欲は出て来て普通の生活が出来るようになり、今ではその反動がきてる\nChẳng mấy chốc tôi đã có cảm thấy thèm ăn và có thể sinh hoạt lại bình thường.\nBây giờ tôi sẽ kể cho bạn nghe về ( hành động ) trái ngược đó.\n拒食症の症状も軽くなった頃の高校卒業間際、学校最後のお弁当がある登校日。","can_remove":false,"created_time":"2013-10-17T16:58:39+0000","like_count":1,"user_likes":false},"741223402561006":{"id":"741223402561006","from":{"id":"100004251279517","name":"Việt Nam Nhật Bản"},"message":"＜感動する話５＞\n1. [感] cảm, hám 2. [動] động 3. [話] thoại \n\n人生最大の悔い \n1. [人] nhân 2. [生] sanh, sinh 3. [最] tối 4. [大] đại, thái 5. [悔] hối, hổi \n\n高校の頃とにかくバイトと遊びではしゃぎまくってた。\n1. [高] cao 2. [校] giáo, hiệu, hào 3. [頃] khoảnh, khuynh, khuể 4. [遊] du \n\n無免で中型乗って馬鹿だからマッポに捕まったりしてお母さんに迷惑かけまくった。\n1. [無] vô, mô 2. [免] miễn, vấn 3. [中] trung, trúng 4. [型] hình 5. [馬] mã 6. [鹿] lộc 7. [捕] bộ 8. [母] mẫu, mô 9. [迷] mê 10. [惑] hoặc \n\nバイトもキャバクラと他に掛け持ちして学校も公立の普通科で超多忙で通学費だけは自分で払ってた。\n1. [他] tha 2. [掛] quải 3. [持] trì 4. [学] học 5. [校] giáo, hiệu, hào 6. [公] công 7. [立] lập 8. [普] phổ 9. [通] thông 10. [科] khoa 11. [超] siêu 12. [多] đa 13. [忙] mang 14. [通] thông 15. [学] học 16. [費] phí, bỉ 17. [自] tự 18. [分] phân, phần, phận \n\nそんな中、高2～3までダイエットと忙しさで拒食症になった。\n1. [中] trung, trúng 2. [高] cao 3. [忙] mang 4. [拒] cự, củ 5. [食] thực, tự 6. [症] chứng \n\nすごいガリガリになって普通の生活が辛くて眠くてイライラがずっとあった。\n1. [普] phổ 2. [通] thông 3. [生] sanh, sinh 4. [活] hoạt, quạt 5. [辛] tân 6. [眠] miên \n\nでもバイトも学校もしっかり行っていたが、毎朝おかんが作るお弁当を全く食べずに家においていったままにした。\n1. [学] học 2. [校] giáo, hiệu, hào 3. [行] hành, hạnh, hàng, hạng 4. [朝] triêu, triều 5. [作] tác 6. [弁] biện, bàn, biền 7. [当] đương, đang, đáng 8. [全] toàn 9. [食] thực, tự 10. [家] gia, cô \n\nほとんど食事をとらず友達にも家族にも相当心配かけてた時期。\n1. [食] thực, tự 2. [事] sự 3. [友] hữu 4. [達] đạt 5. [家] gia, cô 6. [族] tộc, tấu, thấu 7. [相] tương, tướng 8. [当] đương, đang, đáng 9. [心] tâm 10. [配] phối 11. [時] thì, thời 12. [期] kì, ki \n\n家族との仲に溝ができて、会話がほとんどなかった。\n1. [家] gia, cô 2. [族] tộc, tấu, thấu 3. [仲] trọng 4. [溝] câu 5. [会] hội, cối 6. [話] thoại \n\nしかしやっぱり人間の本能。\n1. [人] nhân 2. [間] gian, gián, nhàn 3. [本] bổn, bản, bôn 4. [能] năng, nai, nại \n\nいずれ食欲は出て来て普通の生活が出来るようになり、今ではその反動がきてる\n1. [食] thực, tự 2. [欲] dục 3. [出] xuất, xúy 4. [来] lai, lãi 5. [普] phổ 6. [通] thông 7. [生] sanh, sinh 8. [活] hoạt, quạt 9. [出] xuất, xúy 10. [来] lai, lãi 11. [今] kim 12. [反] phản, phiên 13. [動] động \n\n拒食症の症状も軽くなった頃の高校卒業間際、学校最後のお弁当がある登校日。\n1. [拒] cự, củ 2. [食] thực, tự 3. [症] chứng 4. [症] chứng 5. [状] trạng 6. [頃] khoảnh, khuynh, khuể 7. [高] cao 8. [校] giáo, hiệu, hào 9. [卒] tốt, tuất, thốt 10. [業] nghiệp 11. [間] gian, gián, nhàn 12. [際] tế 13. [学] học 14. [校] giáo, hiệu, hào 15. [最] tối 16. [後] hậu, hấu 17. [弁] biện, bàn, biền 18. [当] đương, đang, đáng 19. [登] đăng 20. [校] giáo, hiệu, hào 21. [日] nhật, nhựt \n\n久々の朝の会話\n1. [久] cửu 2. [朝] triêu, triều 3. [会] hội, cối 4. [話] thoại \n\n「お弁当忘れてるよ。」\n1. [弁] biện, bàn, biền 2. [当] đương, đang, đáng 3. [忘] vong \n\nその日学校で丁寧に包まれたお弁当ばこを開けた。\n1. [日] nhật, nhựt 2. [学] học 3. [校] giáo, hiệu, hào 4. [丁] đinh, chênh, trành 5. [寧] ninh, trữ 6. [包] bao 7. [弁] biện, bàn, biền 8. [当] đương, đang, đáng 9. [開] khai \n\n母からの手紙が。\n1. [母] mẫu, mô 2. [手] thủ 3. [紙] chỉ \n\nあなたがダイエットをする頃から母はお弁当を作らなくなり、\n悲しいような…楽チンだったような…\n1. [頃] khoảnh, khuynh, khuể 2. [母] mẫu, mô 3. [弁] biện, bàn, biền 4. [当] đương, đang, đáng 5. [作] tác 6. [悲] bi \n\n一時期は本当にどうなるのか不安で仕方ありませんでした。\n1. [一] nhất 2. [時] thì, thời 3. [期] kì, ki 4. [本] bổn, bản, bôn 5. [当] đương, đang, đáng 6. [不] bất, phầu, phủ, phi 7. [安] an, yên 8. [仕] sĩ 9. [方] phương \n\nたくさん心配かけることをしてくれたあなたですが体だけは健康にね。\n1. [心] tâm 2. [配] phối 3. [体] thể 4. [健] kiện 5. [康] khang, khương \n\nいずれあなたにも子供ができて、文句を言いながらお弁当を作る様子を思い浮かべると笑っちゃう。\n1. [子] tử, tí 2. [供] cung 3. [文] văn, vấn 4. [句] cú, câu, cấu 5. [言] ngôn, ngân 6. [弁] biện, bàn, biền 7. [当] đương, đang, đáng 8. [作] tác 9. [子] tử, tí 10. [思] tư, tứ, tai 11. [浮] phù 12. [笑] tiếu \n\nでもあなたはママの娘。何があっても大丈夫。\n1. [娘] nương 2. [何] hà 3. [大] đại, thái 4. [丈] trượng 5. [夫] phu, phù \n\nこれからも頑張ろうね。\n1. [頑] ngoan 2. [張] trương, trướng \n\n学校で泣いた。友達に自慢しまくった\n1. [学] học 2. [校] giáo, hiệu, hào 3. [泣] khấp 4. [友] hữu 5. [達] đạt 6. [自] tự 7. [慢] mạn \n\n泣きながら手紙入ってるよーって。\n1. [泣] khấp 2. [手] thủ 3. [紙] chỉ 4. [入] nhập \n\nそのお弁当には私の大好きな母の手作りだし巻き卵焼きが入ってました。\n1. [弁] biện, bàn, biền 2. [当] đương, đang, đáng 3. [私] tư 4. [大] đại, thái 5. [好] hảo, hiếu 6. [母] mẫu, mô 7. [手] thủ 8. [作] tác 9. [巻] quyển 10. [卵] noãn 11. [入] nhập \n\nうちのおかんは本当に料理がうますぎて、ピザも生地から手作りで、味噌とかも家で作ってます。絶品。\n1. [本] bổn, bản, bôn 2. [当] đương, đang, đáng 3. [料] liệu 4. [理] lí 5. [生] sanh, sinh 6. [地] địa 7. [手] thủ 8. [作] tác 9. [味] vị 10. [家] gia, cô 11. [作] tác 12. [絶] tuyệt 13. [品] phẩm \n\n今私は19歳。就職して1人暮らししています。\n1. [今] kim 2. [私] tư 3. [就] tựu 4. [職] chức 5. [人] nhân 6. [暮] mộ \n\nおかんのお弁当、なんでなんでもっと欲張って食べなかったんだろう。\n1. [弁] biện, bàn, biền 2. [当] đương, đang, đáng 3. [欲] dục 4. [張] trương, trướng 5. [食] thực, tự \n人生最大の悔い。\n1. [人] nhân 2. [生] sanh, sinh 3. [最] tối 4. [大] đại, thái 5. [悔] hối, hổi \n\n今更だけどおかんのお弁当ってどれだけあったかくておいしかったのか思い知らされました。あの愛情に勝てるものはこの世にないでしょう…\n1. [今] kim 2. [更] canh, cánh 3. [弁] biện, bàn, biền 4. [当] đương, đang, đáng 5. [思] tư, tứ, tai 6. [知] tri, trí 7. [愛] ái 8. [情] tình 9. [勝] thắng, thăng 10. [世] thế \n\nおかんみたいなおかんになることが私の夢です。\n1. [私] tư 2. [夢] mộng, mông","can_remove":false,"created_time":"2013-10-18T01:20:00+0000","like_count":1,"user_likes":false},"741232329226780":{"id":"741232329226780","from":{"id":"1252017053","name":"Minh Pham"},"message":"はしゃぎ回る bỡn cợt","can_remove":false,"created_time":"2013-10-18T01:37:06+0000","like_count":1,"user_likes":false},"741235979226415":{"id":"741235979226415","from":{"id":"100000064686295","name":"Huy Roli"},"message":"hình như ban Kafe one dịch đoạn này không chuẩn lắm,\nmình thử dịch xem có được không nhé:\nlàm việc vất vả ở quán キャバクラ và các nơi khác nên tôi đã tự chi trả tiền học ở trường công lập và các chi phí đi lại","can_remove":false,"created_time":"2013-10-18T01:41:12+0000","like_count":1,"user_likes":false},"741237532559593":{"id":"741237532559593","from":{"id":"1252017053","name":"Minh Pham"},"message":"はしゃぎまくる làm gđ Thái quá","can_remove":false,"created_time":"2013-10-18T01:44:32+0000","like_count":1,"user_likes":false},"741237629226250":{"id":"741237629226250","from":{"id":"100000022163023","name":"Kafe Ore"},"message":"^^... Tks các bạn. Mình nghĩ là còn nhiều chỗ chưa đúng, không chuẩn và nghe lủng củng lắm. Mong mọi người góp ý, chỉ giáo thêm nhiều nhé !","can_remove":false,"created_time":"2013-10-18T01:44:47+0000","like_count":1,"user_likes":false},"741238952559451":{"id":"741238952559451","from":{"id":"1252017053","name":"Minh Pham"},"message":"Cũng tạm rồi mà","can_remove":false,"created_time":"2013-10-18T01:48:25+0000","like_count":0,"user_likes":false},"741239472559399":{"id":"741239472559399","from":{"id":"100000064686295","name":"Huy Roli"},"message":"câu này thế nào ý\nhay là \ndo cái độ bận rộn đó nên tôi mắc chứng bệnh biếng ăn ở cấp độ 2-3","can_remove":false,"created_time":"2013-10-18T01:49:27+0000","like_count":1,"user_likes":false},"741241079225905":{"id":"741241079225905","from":{"id":"100000022163023","name":"Kafe Ore"},"message":"Đúng là câu mình dịch cứ thế nào ý nhỉ. Nhưng sửa thế thì mình ko đồng ý lắm. Vì hình như mắc bệnh biếng ăn là do 2 lý do : Bận rộn + Ăn kiêng","can_remove":false,"created_time":"2013-10-18T01:53:14+0000","like_count":1,"user_likes":false},"741248535891826":{"id":"741248535891826","from":{"id":"100000064686295","name":"Huy Roli"},"message":"thôi chờ anh Mai PB chỉnh sau vậy","message_tags":[{"id":"100001416272263","name":"Mai PB","type":"user","offset":13,"length":6}],"can_remove":false,"created_time":"2013-10-18T02:11:03+0000","like_count":0,"user_likes":false},"741260142557332":{"id":"741260142557332","from":{"id":"100000027754899","name":"Hoang Van Ba"},"message":"Chú ý 方言\nまくった= ました って思うわ","can_remove":false,"created_time":"2013-10-18T02:35:26+0000","like_count":1,"user_likes":false},"741260375890642":{"id":"741260375890642","from":{"id":"100000027754899","name":"Hoang Van Ba"},"message":"Dài quá. Dịch chẳng đc đâu nhưng cũng ngại :)","can_remove":false,"created_time":"2013-10-18T02:35:55+0000","like_count":0,"user_likes":false},"741261139223899":{"id":"741261139223899","from":{"id":"100000027754899","name":"Hoang Van Ba"},"message":"はしゃぐ nhé dịch là vui đùa có khi hay hơn :)","can_remove":false,"created_time":"2013-10-18T02:37:48+0000","like_count":1,"user_likes":false},"741265335890146":{"id":"741265335890146","from":{"id":"100000022163023","name":"Kafe Ore"},"message":"Huy Roli Ô kê bạn ... vậy mình xí xọn post phần típ , rùi mình cùng ngồi chờ Sung nhà anh Mai PB rụng luôn một thể nhỉ.","message_tags":[{"id":"100000064686295","name":"Huy Roli","type":"user","offset":0,"length":8},{"id":"100001416272263","name":"Mai PB","type":"user","offset":90,"length":6}],"can_remove":false,"created_time":"2013-10-18T02:47:55+0000","like_count":1,"user_likes":false},"741267029223310":{"id":"741267029223310","from":{"id":"100000022163023","name":"Kafe Ore"},"message":"...Bây giờ tôi sẽ kể cho bạn nghe về ( sự thay đổi hành động ) trái ngược đó.\n拒食症の症状も軽くなった頃の高校卒業間際、学校最後のお弁当がある登校日。\nCái ngày cuối cùng đến trường mà có mang theo cơm hộp vào khoảng thời gian sắp tốt nghiệp trung học sau khi tình trạng bệnh biếng ăn đã kéo dài.\n\n久々の朝の会話 Cuộc hội thoại buổi sáng sau một thời gian dài.\n「お弁当忘れてるよ。」” Con quên hộp cơm rồi đấy.\n\nその日学校で丁寧に包まれたお弁当ばこを開けた。\nNgày đó, tôi đã mở hộp cơm được gói gém một cách cẩn thận.\n\n母からの手紙が。Bức thư từ Mẹ.\n\nあなたがダイエットをする頃から母はお弁当を作らなくなり、\n悲しいような…楽チンだったような…\nKể từ khi con ăn kiêng, Mẹ không làm cơm hộp nữa … vừa thấy buồn … mà lại vừa thấy thảnh thơi.\n一時期は本当にどうなるのか不安で仕方ありませんでした。\nKhoảng thời gian này, quả thực là Mẹ không làm sao mà yên tâm được.\nたくさん心配かけることをしてくれたあなたですが体だけは健康にね。\nDù con có làm cho Mẹ phải lo lắng nhiều đi nữa thì Mẹ cũng chỉ cần con khỏe mạnh.\nいずれあなたにも子供ができて、文句を言いながらお弁当を作る様子を思い浮かべると笑っちゃう。\nChẳng mấy chốc con cũng sẽ có con, rồi con sẽ mỉm cười mà nhớ lại khi vừa làm cơm hộp vừa càu nhàu.\nでもあなたはママの娘。何があっても大丈夫。\nNhưng vì con là con của mẹ. Dù cho có chuyện gì, cũng không sao cả.\nこれからも頑張ろうね。\nVà cả từ nay về sau, con cũng hãy cố gắng lên nhé !.\n\n学校で泣いた。友達に自慢しまくったw\nTôi đã khóc ở trường. Đã cảm thấy tự hào với bạn bè.","can_remove":false,"created_time":"2013-10-18T02:52:15+0000","like_count":2,"user_likes":false},"741342352549111":{"id":"741342352549111","from":{"id":"100000022163023","name":"Kafe Ore"},"message":"Mình hok bik dịch câu này làm sao đây .Các bạn Huy Roli Hoang Van  Minh Pham ơi, giúp mình với ! 泣きながら手紙入ってるよーって。","message_tags":[{"id":"100000064686295","name":"Huy Roli","type":"user","offset":47,"length":8},{"id":"1252017053","name":"Minh Pham","type":"user","offset":67,"length":9}],"can_remove":false,"created_time":"2013-10-18T05:57:54+0000","like_count":0,"user_likes":false},"741342589215754":{"id":"741342589215754","from":{"id":"100000022163023","name":"Kafe Ore"},"message":"Típ nè ....そのお弁当には私の大好きな母の手作りだし巻き卵焼きが入ってました。\nHộp cơm đó có món trứng cuộn yêu thích của tôi do chính tay Mẹ tôi làm.\nうちのおかんは本当に料理がうますぎて、ピザも生地から手作りで、味噌とかも家で作ってます。絶品。\nMẹ tôi quả thực là nấu ăn quá ngon lun, Pizza mẹ tôi cũng tự tay làm bằng nguyên liệu vùng quê sẵn có, hay đến như Miso cũng tự làm ở nhà.\n\n今私は19歳。就職して1人暮らししています。\nBây giờ tôi đã 19 tuổi, đi làm rồi sống một mình.\nおかんのお弁当、なんでなんでもっと欲張って食べなかったんだろう。\n人生最大の悔い。\nSự ân hận lớn nhất cuộc đời tôi.\n今更だけどおかんのお弁当ってどれだけあったかくておいしかったのか思い知らされました。 Bạn đọc dịch giùm mình câu này nhoa ! <3\nあの愛情に勝てるものはこの世にないでしょう…\nTrên đời này không có gì hơn được tình yêu thương ( của người mẹ ) đâu…\nおかんみたいなおかんになることが私の夢です。\nTrở thành một người Mẹ giống như Mẹ mình, chính là ước mơ của tôi.","can_remove":false,"created_time":"2013-10-18T05:58:58+0000","like_count":2,"user_likes":false},"741387805877899":{"id":"741387805877899","from":{"id":"100001416272263","name":"Mai PB"},"message":"Các mem khác giúp bạn nào. Đọc hiểu 読解 và viết bài 作文 có lẽ là 2 môn khó nhất, quan trọng nhất đấy, nên cố gắng nhé.","can_remove":false,"created_time":"2013-10-18T08:11:47+0000","like_count":1,"user_likes":false},"741389912544355":{"id":"741389912544355","from":{"id":"100000027754899","name":"Hoang Van Ba"},"message":"ちょっと気になるのは、心配かけた時間、これって、期間じゃなかったっけ？","can_remove":false,"created_time":"2013-10-18T08:19:39+0000","like_count":0,"user_likes":false},"741390452544301":{"id":"741390452544301","from":{"id":"1146680551","name":"優しい なぁ"},"message":"おかん:tiếng vùng nào vậy mn","can_remove":false,"created_time":"2013-10-18T08:21:54+0000","like_count":0,"user_likes":false},"741487529201260":{"id":"741487529201260","from":{"id":"100001416272263","name":"Mai PB"},"message":"Vì dài nên mới cần mỗi người một đoạn mà. Để đến mai xem có ai tham gia đính chính hay trả lời thắc mắc ở trên nhé.","can_remove":false,"created_time":"2013-10-18T12:28:49+0000","like_count":1,"user_likes":false},"742287419121271":{"id":"742287419121271","from":{"id":"100001416272263","name":"Mai PB"},"message":"Chẳng ai viết thêm nhỉ. Kafe Ore anh sửa các đoạn em dịch sai hoặc không dịch.\n\n無免で中型乗って馬鹿だからマッポに捕まったり\n-> Đi xe máy không bằng, còn ngu ngốc để bị CS bắt\n\nバイトもキャバクラと他に掛け持ちして学校も公立の普通科で超多忙で通学費だけは自分で払ってた。\nLàm thêm thì ở quán rượu và vài chỗ nữa, trường thì học trung học (tương đương cấp 2 và 3) công lập, rất bận rộn, chỉ có tiền đi lại đến trường là tự mình trả.\n\nそんな中、高2～3までダイエットと忙しさで拒食症になった。\nGiữa lúc đó, cho đến năm 2-3 cấp 3 (tương đương lớp 10, 11) do ăn kiêng và sự bận rộn mà tôi mắc chứng biếng ăn.\n\n今ではその反動がきてるw\nbây giờ thì (cơ thể) phản ứng ngược lại. (Tức là bị phì. Chữ \"w\" là tương đương với ký hiệu mặt cười)\n\n悲しいような…楽チンだったような…\ncũng có buồn...cũng thấy rảnh tay... (ý nói cảm xúc lẫn lộn)\n\n文句を言いながらお弁当を作る様子を思い浮かべると笑っちゃう。\nMẹ tưởng tưởng đến lúc (con sẽ) vừa làm cơm hộp vừa càu nhàu mà bật cười.\n\n友達に自慢しまくったw\nTôi đem khoe với bao nhiêu bạn.\n\n泣きながら手紙入ってるよーって\nVừa khóc vừa khoe \"có thư bên trong đây này\". (って=と言いました)\n\nおかんのお弁当、なんでなんでもっと欲張って食べなかったんだろう。\nCơm hộp của mẹ, tại sao, tại sao đã không ăn nhiều hơn.\n\n今更だけど\nBây giờ nói cũng chẳng để làm gì, \nおかんのお弁当ってどれだけあったかくておいしかったのか\ncơm của mẹ nóng, ngon đến thế nào\n思い知らされました。\ntôi đã được một bài học.","message_tags":[{"id":"100000022163023","name":"Kafe Ore","type":"user","offset":24,"length":8}],"can_remove":false,"created_time":"2013-10-19T15:30:11+0000","like_count":2,"user_likes":false},"742419909108022":{"id":"742419909108022","from":{"id":"1252017053","name":"Minh Pham"},"message":"学生の宴会(えんかい)で学生たちは、はしゃぎまくった","can_remove":false,"created_time":"2013-10-19T19:20:17+0000","like_count":0,"user_likes":false},"743007055715974":{"id":"743007055715974","from":{"id":"100000022163023","name":"Kafe Ore"},"message":"Mai PB Woaa... @@... Em sai nhìu dễ sợ lun !. Vậy mà ko dịch hẳn hoi ra thì cứ hiểu qua loa rùi cho rằng mình nghĩ đúng, thật tai hại quá. Cảm ơn anh nhìu nhìu ! ^^","message_tags":[{"id":"100001416272263","name":"Mai PB","type":"user","offset":0,"length":6}],"can_remove":false,"created_time":"2013-10-20T05:43:40+0000","like_count":2,"user_likes":false},"743013652381981":{"id":"743013652381981","from":{"id":"100001416272263","name":"Mai PB"},"message":"Đọc hiểu tiếng Nhật là khó mà.","can_remove":false,"created_time":"2013-10-20T06:08:41+0000","like_count":0,"user_likes":false},"743016022381744":{"id":"743016022381744","from":{"id":"100000064686295","name":"Huy Roli"},"message":"Hom nay chua soat dc cac cau cua anh mai pb, mai len may tinh roi hoi tiep :))","can_remove":false,"created_time":"2013-10-20T06:15:17+0000","like_count":0,"user_likes":false}},"paging":{"cursors":{"after":"NzQwOTA3NDI5MjU5Mjcw","before":"NzQwOTA3NDI5MjU5Mjcw"},"next":"https://graph.facebook.com/229244010425617_740906992592647/comments?limit=1&summary=1&after=NzQwOTA3NDI5MjU5Mjcw"},"summary":{"order":"chronological","total_count":31}}}