{"id":"229244010425617_741209662562380","type":"photo","object_id":"590784467625679","picture":"https://fbcdn-photos-g-a.akamaihd.net/hphotos-ak-frc3/t1.0-0/1377024_590784467625679_1476747940_s.jpg","link":"https://www.facebook.com/cooljapanfan/photos/a.204333086270821.46480.184699534900843/590784467625679/?type=1","from":{"id":"100001416272263","name":"Mai PB"},"message":"Một trong các trường ĐH nhiều tiểu thư :-) 青山学院大学.","created_time":"2013-10-18T00:48:02+0000","updated_time":"2013-10-23T21:56:27+0000","likes":{"data":{"100000128242314":{"id":"100000128242314","name":"Nagayama Sei"},"100003011417151":{"id":"100003011417151","name":"Hue Kim"},"100005440689746":{"id":"100005440689746","name":"Trang Mapy"},"100002676859353":{"id":"100002676859353","name":"Chu Quang Viên"},"100002327743510":{"id":"100002327743510","name":"Tuan Thanh"},"100003005597243":{"id":"100003005597243","name":"Zany Royal"},"100000226369400":{"id":"100000226369400","name":"Vạn Lý Độc Hành"},"100001622486348":{"id":"100001622486348","name":"Tuan Lam"},"100005057979909":{"id":"100005057979909","name":"Ngô Hằng"},"100006522340975":{"id":"100006522340975","name":"Đức Nguyễn"},"100003696134321":{"id":"100003696134321","name":"Phạm Hạnh"},"100001553557343":{"id":"100001553557343","name":"Lin Huỳnh"},"100005460966516":{"id":"100005460966516","name":"Hải Dương"},"100002594112476":{"id":"100002594112476","name":"Thiên Di"},"100001727700391":{"id":"100001727700391","name":"Lanxinh Dao"},"100002535489295":{"id":"100002535489295","name":"Moteru Seikoo"},"100003700084315":{"id":"100003700084315","name":"Trầm Luân"},"100006087877560":{"id":"100006087877560","name":"Bố Bé Pon"},"100001754136107":{"id":"100001754136107","name":"Nguyễn Tuấn Vũ"},"100001864793577":{"id":"100001864793577","name":"Sakura Đhbkhn"},"100006767705219":{"id":"100006767705219","name":"Kim Liên"},"100004398330290":{"id":"100004398330290","name":"Lam Linh"}},"paging":{"cursors":{"after":"MTAwMDAwMTI4MjQyMzE0","before":"MTAwMDAwMTI4MjQyMzE0"},"next":"https://graph.facebook.com/229244010425617_741209662562380/likes?limit=1&summary=1&after=MTAwMDAwMTI4MjQyMzE0"},"summary":{"total_count":22}},"comments":{"data":{"741215102561836":{"id":"741215102561836","from":{"id":"100001864793577","name":"Sakura Đhbkhn"},"message":"em moi duoc giao luu cung sv truong nay hoi thang 3 nam nay xong.Cac ban nu rat de thuong!","can_remove":false,"created_time":"2013-10-18T01:03:20+0000","like_count":1,"user_likes":false},"741275375889142":{"id":"741275375889142","from":{"id":"100001622486348","name":"Tuan Lam"},"message":"phai di hoc lai thuj","can_remove":false,"created_time":"2013-10-18T03:11:42+0000","like_count":0,"user_likes":false},"741287585887921":{"id":"741287585887921","from":{"id":"100001458099624","name":"Kham Pha"},"message":"Sao lại nhiều tiểu thư mà ko phải công tử?","can_remove":false,"created_time":"2013-10-18T03:39:00+0000","like_count":0,"user_likes":false},"741290092554337":{"id":"741290092554337","from":{"id":"100000152947177","name":"Ha Nguyen"},"message":"này Vit 'tiểu thư' :))","message_tags":[{"id":"1651465211","name":"Vit","type":"user","offset":4,"length":3}],"can_remove":false,"created_time":"2013-10-18T03:43:46+0000","like_count":0,"user_likes":false},"745054512177895":{"id":"745054512177895","from":{"id":"100001416272263","name":"Mai PB"},"message":"Dao Ngoc này","message_tags":[{"id":"1816269439","name":"Dao Ngoc","type":"user","offset":0,"length":8}],"can_remove":false,"created_time":"2013-10-23T14:39:50+0000","like_count":0,"user_likes":false},"745056398844373":{"id":"745056398844373","from":{"id":"1816269439","name":"Dao Ngoc"},"message":":))). Trường này tiền thân là trường dành riêng cho các thiểu thư con gái nhà giàu. Nó tương đương với Keio. Có từ trường mẫu giáo đến cao đẳng, đại học, sau đại học. Nhưng theo xu thế của thời đại, nó dần tiếp nhận sinh viên ko giới hạn.","can_remove":false,"created_time":"2013-10-23T14:44:39+0000","like_count":1,"user_likes":false},"745249708825042":{"id":"745249708825042","from":{"id":"100001458099624","name":"Kham Pha"},"message":"Keio có Keio boy dành để chỉ các cậu ấm nhà giàu học từ tiểu học đến đại học.  \nLần trước có đi chơi cùng một thằng Keio boy chính hiệu, nói chung là thông minh, nhạy bén chứ ko hề đụt như mấy cậu ấm Việt.","can_remove":false,"created_time":"2013-10-23T21:56:27+0000","like_count":0,"user_likes":false}},"paging":{"cursors":{"after":"NzQxMjE1MTAyNTYxODM2","before":"NzQxMjE1MTAyNTYxODM2"},"next":"https://graph.facebook.com/229244010425617_741209662562380/comments?limit=1&summary=1&after=NzQxMjE1MTAyNTYxODM2"},"summary":{"order":"chronological","total_count":7}}}