{"id":"229244010425617_741385952544751","type":"photo","object_id":"743889498958850","picture":"https://fbcdn-photos-a-a.akamaihd.net/hphotos-ak-ash3/t1.0-0/1378891_743889498958850_546397741_s.png","link":"https://www.facebook.com/Triet.Hoc.Duong.Pho/photos/a.348318408515963.100638.189774357703703/743889498958850/?type=1","from":{"id":"100001416272263","name":"Mai PB"},"message":"Bài tập cho các mem: đọc hiểu tiếng Nhật trên bảng. :-)","created_time":"2013-10-18T08:05:48+0000","updated_time":"2013-10-19T14:09:17+0000","likes":{"data":{"100002676859353":{"id":"100002676859353","name":"Chu Quang Viên"},"100000524361416":{"id":"100000524361416","name":"Dao Minh"},"100004933327576":{"id":"100004933327576","name":"Yanagi Nguyen"},"100002829590553":{"id":"100002829590553","name":"Hoàng Ngọc Anh"},"1122379216":{"id":"1122379216","name":"Hà Ngô"},"100000152947177":{"id":"100000152947177","name":"Ha Nguyen"},"100004398330290":{"id":"100004398330290","name":"Lam Linh"},"100002327743510":{"id":"100002327743510","name":"Tuan Thanh"},"100000359762118":{"id":"100000359762118","name":"Mi Tra"},"100006387723695":{"id":"100006387723695","name":"Hoa Minh"},"100004009345656":{"id":"100004009345656","name":"Hung Trinh"},"100001458099624":{"id":"100001458099624","name":"Kham Pha"},"100003133102930":{"id":"100003133102930","name":"Trần Minh Anh"},"100006767705219":{"id":"100006767705219","name":"Kim Liên"},"100001594722256":{"id":"100001594722256","name":"Viết An Phạm"},"100005326598672":{"id":"100005326598672","name":"Duong Duong"},"100000027754899":{"id":"100000027754899","name":"Hoang Van Ba"},"100000128764209":{"id":"100000128764209","name":"Chau Le"},"1797046701":{"id":"1797046701","name":"Tuyết Anh Nguyễn"},"100004251279517":{"id":"100004251279517","name":"Việt Nam Nhật Bản"}},"paging":{"cursors":{"after":"MTAwMDAyNjc2ODU5MzUz","before":"MTAwMDAyNjc2ODU5MzUz"},"next":"https://graph.facebook.com/229244010425617_741385952544751/likes?limit=1&summary=1&after=MTAwMDAyNjc2ODU5MzUz"},"summary":{"total_count":20}},"comments":{"data":{"741389325877747":{"id":"741389325877747","from":{"id":"100000027754899","name":"Hoang Van Ba"},"message":"Cái phần dịch là \" ngày nộp bài --- \" có đúng ko vậy ??\n提出期限なし ko phải nộp ???","can_remove":false,"created_time":"2013-10-18T08:17:23+0000","like_count":0,"user_likes":false},"741389822544364":{"id":"741389822544364","from":{"id":"100000022163023","name":"Kafe Ore"},"message":"Không có thời hạn nộp bài.... nhỉ ???","can_remove":false,"created_time":"2013-10-18T08:19:17+0000","like_count":0,"user_likes":false},"741485852534761":{"id":"741485852534761","from":{"id":"100001416272263","name":"Mai PB"},"message":"Không có kỳ hạn. Cũng chẳng được bảo phải hay không phải nộp, nhưng người thầy đó hy vọng sẽ được nhận câu trả lời đó. Câu dịch \"cứ thong thả, không cần gấp\", đề nghị mọi người dịch lại.","can_remove":false,"created_time":"2013-10-18T12:25:34+0000","like_count":1,"user_likes":false},"741501722533174":{"id":"741501722533174","from":{"id":"100000022163023","name":"Kafe Ore"},"message":"E nghĩ là:  Nhất định không được vội vàng đến báo cáo ( với thầy ), cứ từ từ cũng được.","can_remove":false,"created_time":"2013-10-18T12:56:46+0000","like_count":0,"user_likes":false},"742124909137522":{"id":"742124909137522","from":{"id":"100001416272263","name":"Mai PB"},"message":"Kafe Ore mệnh lệnh quá. :-)","message_tags":[{"id":"100000022163023","name":"Kafe Ore","type":"user","offset":0,"length":8}],"can_remove":false,"created_time":"2013-10-19T11:43:19+0000","like_count":1,"user_likes":false},"742137355802944":{"id":"742137355802944","from":{"id":"100000022163023","name":"Kafe Ore"},"message":"Vậy e sửa thành :Nhất định đừng vội vàng mà đến nộp bài, cứ từ từ cũng được.... Okie chưa a ?","can_remove":false,"created_time":"2013-10-19T12:21:48+0000","like_count":0,"user_likes":false},"742153915801288":{"id":"742153915801288","from":{"id":"100001416272263","name":"Mai PB"},"message":"Thay \"nhất định đừng\" bằng \"không được\" thì đỡ mang nghĩa tuyệt đối, sẽ đúng ý hơn","can_remove":false,"created_time":"2013-10-19T13:00:26+0000","like_count":0,"user_likes":false},"742155962467750":{"id":"742155962467750","from":{"id":"100002508122689","name":"Vũ Mạnh Tuấn"},"message":"cho em hoỉ sau chữ いつか là chữ gì vậy ạ anh Mai PB ?","message_tags":[{"id":"100001416272263","name":"Mai PB","type":"user","offset":43,"length":6}],"can_remove":false,"created_time":"2013-10-19T13:05:34+0000","like_count":0,"user_likes":false},"742158705800809":{"id":"742158705800809","from":{"id":"100001416272263","name":"Mai PB"},"message":"\"面と向かう\" : gặp trực tiếp, đối diện.\nMột ngày nào đó hãy đến trước mặt (mộ) tôi mà nói \"em đã có hạnh phúc rồi thầy ạ\".","can_remove":false,"created_time":"2013-10-19T13:12:09+0000","like_count":1,"user_likes":false},"742162205800459":{"id":"742162205800459","from":{"id":"100002508122689","name":"Vũ Mạnh Tuấn"},"message":"vâng em cảm ơn anh ạ","can_remove":false,"created_time":"2013-10-19T13:19:22+0000","like_count":0,"user_likes":false},"742163202467026":{"id":"742163202467026","from":{"id":"100002508122689","name":"Vũ Mạnh Tuấn"},"message":"Nhật sub cho ai muốn tra từ mới:\n\n最後の宿題\n\n「幸せになりなさい」\n\n提出期限なし\n\n君たちが宿題を出す頃に\nおそらく僕は天国にいるでしょう。\n急いで報告に来るな、ゆっくりでええから\nいつか面と向かって\n「幸せになったで」と聞かせてください。\n待ってるで。","can_remove":false,"created_time":"2013-10-19T13:20:40+0000","like_count":1,"user_likes":false},"742247925791887":{"id":"742247925791887","from":{"id":"100000027754899","name":"Hoang Van Ba"},"message":"写真に書いてあるじゃん？","can_remove":false,"created_time":"2013-10-19T14:00:16+0000","like_count":0,"user_likes":false},"742251675791512":{"id":"742251675791512","from":{"id":"100000022163023","name":"Kafe Ore"},"message":"Mai PB ^^... Ohh, em hiểu em sai thế nào rồi. Cảm ơn anh !","message_tags":[{"id":"100001416272263","name":"Mai PB","type":"user","offset":0,"length":6}],"can_remove":false,"created_time":"2013-10-19T14:09:17+0000","like_count":1,"user_likes":false}},"paging":{"cursors":{"after":"NzQxMzg5MzI1ODc3NzQ3","before":"NzQxMzg5MzI1ODc3NzQ3"},"next":"https://graph.facebook.com/229244010425617_741385952544751/comments?limit=1&summary=1&after=NzQxMzg5MzI1ODc3NzQ3"},"summary":{"order":"chronological","total_count":13}}}