{"id":"229244010425617_741527579197255","type":"status","from":{"id":"100004360751785","name":"Hà Nguyễn"},"message":"Vào đây loanh quanh rùi lại đi ra, bjo e mới đang học sơ cấp ợ. bao giờ mới đọc hiểu được những bài các anh chị post nhở.\nThôi lại ra học tiếp vậy","created_time":"2013-10-18T13:44:09+0000","updated_time":"2013-10-18T14:02:06+0000","likes":{"data":{"100002871405403":{"id":"100002871405403","name":"Thach Sanh"},"100001458099624":{"id":"100001458099624","name":"Kham Pha"},"100003019923910":{"id":"100003019923910","name":"Luân Pig"},"100002804485809":{"id":"100002804485809","name":"Vy Nguyễn"}},"paging":{"cursors":{"after":"MTAwMDAyODcxNDA1NDAz","before":"MTAwMDAyODcxNDA1NDAz"},"next":"https://graph.facebook.com/229244010425617_741527579197255/likes?limit=1&summary=1&after=MTAwMDAyODcxNDA1NDAz"},"summary":{"total_count":4}},"comments":{"data":{"741534952529851":{"id":"741534952529851","from":{"id":"100001416272263","name":"Mai PB"},"message":"Hà Nguyễn Đây có phải group học tiếng Nhật đâu. Các admin lợi dụng tiếng Nhật để truyền đạt các suy nghĩ mới cho các member thôi. Vì vậy hầu hết đều có tiếng Việt đi kèm cả (trừ phần giải trí). Hãy đọc tiếng Việt đó và suy ngẫm nhé. Rồi bao giờ giỏi tiếng Nhật hơn thì tham gia vào cùng giúp các mem khác. Đó là mục đích chính của group.","message_tags":[{"id":"100004360751785","name":"Hà Nguyễn","type":"user","offset":0,"length":9}],"can_remove":false,"created_time":"2013-10-18T13:59:28+0000","like_count":1,"user_likes":false},"741536069196406":{"id":"741536069196406","from":{"id":"100004360751785","name":"Hà Nguyễn"},"message":"dạ e biết chứ ạ, e đi vào đi ra để lấy quyết tâm học bằng dc thôi ạ, cố gắng để có thể tự đọc và hiểu được các a chị viết gì :D","can_remove":false,"created_time":"2013-10-18T14:02:06+0000","like_count":1,"user_likes":false}},"paging":{"cursors":{"after":"NzQxNTM0OTUyNTI5ODUx","before":"NzQxNTM0OTUyNTI5ODUx"},"next":"https://graph.facebook.com/229244010425617_741527579197255/comments?limit=1&summary=1&after=NzQxNTM0OTUyNTI5ODUx"},"summary":{"order":"chronological","total_count":2}}}