{"id":"229244010425617_742158625800817","type":"status","from":{"id":"100002145579460","name":"Nhất Cước Sanji"},"message":"Moi nguoi oi cho em hoi 1 chut. Em co mong uoc dc sang Nhat du hoc. Neu do ho so thi thang 4 sang nam em se sang Osaka. Gia dinh em cung lo cho em sang dc ko pai vay muon gi ca. Em cung dang rat no luc hoc tieng. Chi co 1 thac mac nho em muon hoi la voi so gio lam theo luat thi co du tien de chi tieu trong cuoc song va de danh den ky sau ko ah. Em rat muon dc di hoc nhung em so bo me pai lo them cho em. :(. Va em cung ko hi vong de danh dc tien chi mong du tien dong hoc va chi tieu thoi. Anh chi nao co kinh nghiem chia se voi em chut nhe. Arigatoo","created_time":"2013-10-19T13:11:55+0000","updated_time":"2013-10-20T13:41:38+0000","likes":{"data":{"100001917790709":{"id":"100001917790709","name":"Tran Thang"},"100006807102053":{"id":"100006807102053","name":"Tina Nguyen"},"100003941338766":{"id":"100003941338766","name":"Nhinl Pe"}},"paging":{"cursors":{"after":"MTAwMDAxOTE3NzkwNzA5","before":"MTAwMDAxOTE3NzkwNzA5"},"next":"https://graph.facebook.com/229244010425617_742158625800817/likes?limit=1&summary=1&after=MTAwMDAxOTE3NzkwNzA5"},"summary":{"total_count":3}},"comments":{"data":{"742160192467327":{"id":"742160192467327","from":{"id":"100006794583161","name":"Anh Thắng"},"message":"Bạn đóng học 1nam hay 6thang","can_remove":false,"created_time":"2013-10-19T13:14:54+0000","like_count":0,"user_likes":false},"742160455800634":{"id":"742160455800634","from":{"id":"100006794583161","name":"Anh Thắng"},"message":"Cs bên nay tiết kiệm nhất cung phai hét 5man 1thang","can_remove":false,"created_time":"2013-10-19T13:15:28+0000","like_count":0,"user_likes":false},"742161455800534":{"id":"742161455800534","from":{"id":"100003209298923","name":"Phuongcham Nguyen"},"message":"cố gắng chắc sẽ đc ak","can_remove":false,"created_time":"2013-10-19T13:17:31+0000","like_count":0,"user_likes":false},"742164375800242":{"id":"742164375800242","from":{"id":"100003822434250","name":"Sói Đây Gà Đâu"},"message":"còn tùy ăn tiêu thế nào","can_remove":false,"created_time":"2013-10-19T13:22:48+0000","like_count":0,"user_likes":false},"742166455800034":{"id":"742166455800034","from":{"id":"100006794583161","name":"Anh Thắng"},"message":"Sang đây kiếm tiền gửi về nhà thi...Oh yeah","can_remove":false,"created_time":"2013-10-19T13:28:12+0000","like_count":0,"user_likes":false},"742169062466440":{"id":"742169062466440","from":{"id":"100002145579460","name":"Nhất Cước Sanji"},"message":"em dong 1 nam va 3 thang tien nha.","can_remove":false,"created_time":"2013-10-19T13:34:59+0000","like_count":0,"user_likes":false},"742169105799769":{"id":"742169105799769","from":{"id":"100002145579460","name":"Nhất Cước Sanji"},"message":"5 man la ca tien nha va tien an ha anh?","can_remove":false,"created_time":"2013-10-19T13:35:06+0000","like_count":0,"user_likes":false},"742252172458129":{"id":"742252172458129","from":{"id":"100000209176558","name":"Samui Kaze"},"message":"Thứ 1: dựa vào điều kiện học tập trên trg bạn thế nào \nThư 2: có việc để làm ko nữa .. \nThư 3: vs số giờ theo luật thì rất khó dành tiền cho sinh hoạt , vì bạn phải trả các khoản phí linh tinh phát sinh ra .. Vì thế nên rất nhiều người phải cày 2 việc trong 1 tuần :3..","can_remove":false,"created_time":"2013-10-19T14:10:35+0000","like_count":0,"user_likes":false},"742252555791424":{"id":"742252555791424","from":{"id":"100002966928087","name":"Nguyen van Dat"},"message":"neu 1 viec thi du tien an uong ,dien thoai.va cai lat vat.chu hoc phi va phong tro.thi phai 2 cho ban à","can_remove":false,"created_time":"2013-10-19T14:11:39+0000","like_count":0,"user_likes":false},"742256499124363":{"id":"742256499124363","from":{"id":"100002145579460","name":"Nhất Cước Sanji"},"message":"Tai em thay neu lam du so gio trong thang thi thap nhat cung de dc 9,6 man. Với thứ 7 chủ nhật cày thêm được moi ngay 4 tieng là dc khoang 2,5 man nua. Van ko du de tiet kiem den ky sau ạ? Cac anh chi sang truoc thay chi tieu 1 thang tiet kiem thi rơi vào khoảng bao nhieu ạ?","can_remove":false,"created_time":"2013-10-19T14:21:16+0000","like_count":0,"user_likes":false},"742257405790939":{"id":"742257405790939","from":{"id":"100002966928087","name":"Nguyen van Dat"},"message":"binh thuojg hoc phi khoanh 5 den 6 man1 than tuy tung truong,an uong 2 man,tien tro khoang 2 man,dien thoai 1 man,cong voi chi tieu lat vat nua,1 tahng khoang 13 den 14 man,la du ban à","can_remove":false,"created_time":"2013-10-19T14:24:06+0000","like_count":0,"user_likes":false},"742258815790798":{"id":"742258815790798","from":{"id":"100002145579460","name":"Nhất Cước Sanji"},"message":"ai cha'. Thế làm ngoài 2 việc có sợ bị bắt đuổi về nước kô ạ?","can_remove":false,"created_time":"2013-10-19T14:27:20+0000","like_count":0,"user_likes":false},"742259639124049":{"id":"742259639124049","from":{"id":"100002966928087","name":"Nguyen van Dat"},"message":"tùy tung truong em a.va hoc luc cua em nua,co truong lên lop ngủ cũng duoc,chi can thi qua la duoc,ong ban anh lam tu 8h toi den 7h sang,8h vao lop,vua hoc vua ngủ,nhưng có truong nó làm gắp,nó phat hiện ra,thì ko cap vía nua,thì về nươc thôi","can_remove":false,"created_time":"2013-10-19T14:29:44+0000","like_count":0,"user_likes":false},"742264442456902":{"id":"742264442456902","from":{"id":"100005882954389","name":"Thu Hằng Nguyễn"},"message":"Ở Nhật,có qui định số giờ làm thêm cho sinh viên nước ngoài theo học mà vẫn đảm bảo việc học cũng như sinh sống. Nếu bạn quyết tâm  thì tiến hành thôi :).","can_remove":false,"created_time":"2013-10-19T14:39:58+0000","like_count":0,"user_likes":false},"742266135790066":{"id":"742266135790066","from":{"id":"100002145579460","name":"Nhất Cước Sanji"},"message":"Thu Hằng Nguyễn: Chi so lam theo luat ko du tien an thoi. hi'. :)","message_tags":[{"id":"100005882954389","name":"Thu Hằng Nguyễn","type":"user","offset":0,"length":15}],"can_remove":false,"created_time":"2013-10-19T14:44:13+0000","like_count":0,"user_likes":false},"742266659123347":{"id":"742266659123347","from":{"id":"100002966928087","name":"Nguyen van Dat"},"message":"tat nhien roi 1 tuan lam 24 tieng,thi dủ làm sao duoc,","can_remove":false,"created_time":"2013-10-19T14:45:25+0000","like_count":0,"user_likes":false},"742269959123017":{"id":"742269959123017","from":{"id":"100002145579460","name":"Nhất Cước Sanji"},"message":"truoc luc sang em cung da xac dinh tinh than roi. du an du tieu la dc. xác dinh khổ chứ không sung sướng gì nên đang cố gắng học càng nhiều ở VN thì sang đấy việc học sẽ giảm bớt đi. :D","can_remove":false,"created_time":"2013-10-19T14:52:37+0000","like_count":0,"user_likes":false},"742270419122971":{"id":"742270419122971","from":{"id":"100002966928087","name":"Nguyen van Dat"},"message":"co gang hoc chac 25 bai,ma xin vao truong nao vung ngoai o re xin viec.","can_remove":false,"created_time":"2013-10-19T14:53:49+0000","like_count":0,"user_likes":false},"742271052456241":{"id":"742271052456241","from":{"id":"100002966928087","name":"Nguyen van Dat"},"message":"nham 50 bao minano","can_remove":false,"created_time":"2013-10-19T14:55:39+0000","like_count":1,"user_likes":false},"742706262412720":{"id":"742706262412720","from":{"id":"100002145579460","name":"Nhất Cước Sanji"},"message":"em dinh nop meric - osaka. :D.","can_remove":false,"created_time":"2013-10-20T01:18:14+0000","like_count":0,"user_likes":false},"743085025708177":{"id":"743085025708177","from":{"id":"100005801442456","name":"An Nguyen"},"message":"Mình rất thích mấy câu hỏi như bạn,vì có nhiều điều chia sẽ:\nNói chung bạn đi đâu làm gì thì cũng phụ thuộc vào nỗ lực của bạn nên bạn đừng mất đi sự quyết tâm như bây giờ,csong bên đây nhiều cái nó vùi dập ước mơ ban đầu bạn định thực hiện lắm nên phải cố gắng giữ sự kiên định và tránh cám dỗ,osaka thì phức tạp chả thua nagoya là mấy.\nCòn việc chi tiêu thì mình nghĩ nằm ở bạn,bản thân mình ngày trước lúc mới sang k có tiền nên chỉ xài đt nắp gập thôi,măc lắm cũng k bao giờ quá 1000¥ 1 tháng,chỉ 300¥ j đó,nhưng cũng bất tiện khi muôbs gọi về nhà,muốn gọi về thì mua thẻ đt 1500 đc 10h hay gọi qua máy tính bằng cách sử dụng internet ( tụi mình xài internet dây 1 tháng 2000 mấy mà chia cho 8 người nhưng vẫn nhanh hơn LTE của softbank là cái chắc),bây giờ thì mọi người xài ip là chính,nếu muốn rẻ thì bạn đky cái 4s mà xài,bỏ đk 3G đi,1 tháng 1000 hơn tí,rồi đk cục wifi cơ 2800¥ 1 tháng vừa nhanh hơn 4g của đt mà lại đc tặng tiền khi đky nó...\nCòn ăn uống thì ngày trước minh ơ tp cũng nhỏ nen chi phí cũng rẻ cỡ 1man5 2 man tiên ăn uống,toàn tự nấu mang đi làm,ở thì ở chung,mà thật sự bản thân mình đúc kết cái j tiết kiệm đc chứ nhà mình vẫn thích 1\nMình tiện lợi cho học hành và thoải mái cho tâm lý,còn làm thêm thì đúng thì luật chỉ 28h,nhưng coi bộ mà khó sóng với nhiêu đó.nên nhiều khi phải làm thêm giờ ..mình thì k khuyến khích vì đôi khi cái lợi trước mắt làm bạn quên lí do ban đầu,và cái khổ mệt nhọc của hiện tại làm bạn có lí do ngụy biện cho sự không cố gắng..tất cả là ở với bản thân ban thôi..còn nhiều điều muốn nói nên có lẽ nen viết cho mọi người còn đọc chứ cm chả ai xem đc!","can_remove":false,"created_time":"2013-10-20T10:05:43+0000","like_count":2,"user_likes":false},"743086409041372":{"id":"743086409041372","from":{"id":"100002966928087","name":"Nguyen van Dat"},"message":"an nguyen noi chuan do.dung dang ki iphone,mua 1 con may binh thuong,roi dang ki cai sim re di rat nhieu,nếu muốn dùng mạng thì mua 1 con máy tính cũ,tấm 2 man,la ngon rôi,rồi kéo mạng mà dùng,mình dùng đây hết có hơn 1sen 1 tháng tiền mạng","can_remove":false,"created_time":"2013-10-20T10:10:05+0000","like_count":0,"user_likes":false},"743248922358454":{"id":"743248922358454","from":{"id":"100002145579460","name":"Nhất Cước Sanji"},"message":"Cam on anh An Nguyen: Hom truoc hinh nhu em cung doc 1 bai viet cua anh. Co' thuc su la bay gio ben Nhat ho lam gat vay ko ah. Neu vay thi pai lam the nao de du an voi song ha anh?","message_tags":[{"id":"100005801442456","name":"An Nguyen","type":"user","offset":11,"length":9}],"can_remove":false,"created_time":"2013-10-20T13:41:38+0000","like_count":0,"user_likes":false}},"paging":{"cursors":{"after":"NzQyMTYwMTkyNDY3MzI3","before":"NzQyMTYwMTkyNDY3MzI3"},"next":"https://graph.facebook.com/229244010425617_742158625800817/comments?limit=1&summary=1&after=NzQyMTYwMTkyNDY3MzI3"},"summary":{"order":"chronological","total_count":23}}}