{"id":"229244010425617_742107372472609","type":"status","from":{"id":"100000467499280","name":"Phạm Tuấn Hải"},"message":"Konichiha!!! \nMinh moi toi Yame, Fukuoka. Co ban nao trong khu vuc nay thi ket ban nhe, minh can hoi tham va nho chi giao mot it. Thanks all!!!","created_time":"2013-10-19T11:20:13+0000","updated_time":"2013-10-19T11:23:10+0000","likes":{"data":{"100000524361416":{"id":"100000524361416","name":"Dao Minh"},"100004233458748":{"id":"100004233458748","name":"Thanh Sói"}},"paging":{"cursors":{"after":"MTAwMDAwNTI0MzYxNDE2","before":"MTAwMDAwNTI0MzYxNDE2"},"next":"https://graph.facebook.com/229244010425617_742107372472609/likes?limit=1&summary=1&after=MTAwMDAwNTI0MzYxNDE2"},"summary":{"total_count":2}},"comments":{"data":{"742108165805863":{"id":"742108165805863","from":{"id":"100000467499280","name":"Phạm Tuấn Hải"},"message":"Thanh Sói may bua nua Trum xuong tham, chuan bi de.","message_tags":[{"id":"100004233458748","name":"Thanh Sói","type":"user","offset":0,"length":9}],"can_remove":false,"created_time":"2013-10-19T11:23:10+0000","like_count":1,"user_likes":false}},"paging":{"cursors":{"after":"NzQyMTA4MTY1ODA1ODYz","before":"NzQyMTA4MTY1ODA1ODYz"}},"summary":{"order":"chronological","total_count":1}}}