{"id":"229244010425617_742300069120006","type":"status","from":{"id":"1100984790","name":"Tran Nhat Khoi Nguyen"},"message":"Hỏi ngu tí. Ai giải thích giùm làm răg để fân biệt dokokahe ikimasu với dokohe ikimasu\nbiết là dokokahe là k xđịnh được thời gian, địa điểm...rồi mà răng vẫn k hiểu được =.=\narigatou","created_time":"2013-10-19T15:56:26+0000","updated_time":"2013-10-20T14:41:37+0000","likes":{"data":{"100006807102053":{"id":"100006807102053","name":"Tina Nguyen"},"100004977420613":{"id":"100004977420613","name":"Tuấn Thịnh Vũ"}},"paging":{"cursors":{"after":"MTAwMDA2ODA3MTAyMDUz","before":"MTAwMDA2ODA3MTAyMDUz"},"next":"https://graph.facebook.com/229244010425617_742300069120006/likes?limit=1&summary=1&after=MTAwMDA2ODA3MTAyMDUz"},"summary":{"total_count":2}},"comments":{"data":{"742301882453158":{"id":"742301882453158","from":{"id":"100001058098161","name":"DoTa Allstar"},"message":"@@","can_remove":false,"created_time":"2013-10-19T16:00:56+0000","like_count":0,"user_likes":false},"742302422453104":{"id":"742302422453104","from":{"id":"100001058098161","name":"DoTa Allstar"},"message":"ví dụ tôi hỏi bạn mai có đi đâu ko? thì dùng dokokahe","can_remove":false,"created_time":"2013-10-19T16:01:47+0000","like_count":0,"user_likes":false},"742302495786430":{"id":"742302495786430","from":{"id":"100001058098161","name":"DoTa Allstar"},"message":"còn hỏi bạn đi đau vậy thì dung dokohe","can_remove":false,"created_time":"2013-10-19T16:01:58+0000","like_count":0,"user_likes":false},"742302592453087":{"id":"742302592453087","from":{"id":"100001058098161","name":"DoTa Allstar"},"message":":))","can_remove":false,"created_time":"2013-10-19T16:02:05+0000","like_count":0,"user_likes":false},"742303935786286":{"id":"742303935786286","from":{"id":"1100984790","name":"Tran Nhat Khoi Nguyen"},"message":"Arigatou ban nhieu ^^ hoc len trug cap roi ma con fai di hoi lai so cap","can_remove":false,"created_time":"2013-10-19T16:05:25+0000","like_count":0,"user_likes":false},"742304149119598":{"id":"742304149119598","from":{"id":"100001058098161","name":"DoTa Allstar"},"message":"ghê. trung cấp luôn hả :)) đây củng trung cấp","can_remove":false,"created_time":"2013-10-19T16:06:00+0000","like_count":0,"user_likes":false},"742305535786126":{"id":"742305535786126","from":{"id":"1100984790","name":"Tran Nhat Khoi Nguyen"},"message":"Nam 3 roi ma con ngu lam.n3 moi thi rung nhu chuoi nek TT_TT k biet hoc rag de co n2 ma ra truog nua ban ah","can_remove":false,"created_time":"2013-10-19T16:08:55+0000","like_count":0,"user_likes":false},"742305702452776":{"id":"742305702452776","from":{"id":"100001058098161","name":"DoTa Allstar"},"message":":))","can_remove":false,"created_time":"2013-10-19T16:09:16+0000","like_count":0,"user_likes":false},"742305759119437":{"id":"742305759119437","from":{"id":"100001058098161","name":"DoTa Allstar"},"message":"tr nào thế","can_remove":false,"created_time":"2013-10-19T16:09:25+0000","like_count":0,"user_likes":false},"742305789119434":{"id":"742305789119434","from":{"id":"100004977420613","name":"Tuấn Thịnh Vũ"},"message":"何処かへ行きますla di dau do ko．。どこへ行きますla di dau","can_remove":false,"created_time":"2013-10-19T16:09:31+0000","like_count":1,"user_likes":false},"742306875785992":{"id":"742306875785992","from":{"id":"1100984790","name":"Tran Nhat Khoi Nguyen"},"message":"Ngoai ngu hue (_ _\")","can_remove":false,"created_time":"2013-10-19T16:12:01+0000","like_count":0,"user_likes":false},"742307229119290":{"id":"742307229119290","from":{"id":"100001058098161","name":"DoTa Allstar"},"message":"mà đòi n2 luôn hả. vào trang này học lại ngữ pháp cho chắc nè lophoctiengnhat.com","can_remove":false,"created_time":"2013-10-19T16:12:51+0000","like_count":0,"user_likes":false},"742308492452497":{"id":"742308492452497","from":{"id":"1100984790","name":"Tran Nhat Khoi Nguyen"},"message":"Thak ban.k co n2 khoi nhan bag tot nghiep.biet sao dc TT.TT","can_remove":false,"created_time":"2013-10-19T16:15:46+0000","like_count":0,"user_likes":false},"742309102452436":{"id":"742309102452436","from":{"id":"100003891367470","name":"Ñhø'ç Hoàng"},"message":"Dokoka mang tinh chat dò xét hỏi .. Hoac tham chi la moi xem doi phuong co di dau k vu du nhu vao ki nghi hoi co di dau choi k thi dug dokoka..\nCo the hanh dog k xay ra .. K di dau ka.\nCon doko la hỏi thêm thong tin ve viec doi phuog di dau.. Doi phuog dag thuc hien hanh dong rồi.. Co chủ dich cua vc di dau lmj rồi..","can_remove":false,"created_time":"2013-10-19T16:16:42+0000","like_count":0,"user_likes":false},"742309189119094":{"id":"742309189119094","from":{"id":"100001058098161","name":"DoTa Allstar"},"message":"vậy cố lên. thi 1 phát đậu n2 luô","can_remove":false,"created_time":"2013-10-19T16:16:52+0000","like_count":0,"user_likes":false},"742311075785572":{"id":"742311075785572","from":{"id":"1100984790","name":"Tran Nhat Khoi Nguyen"},"message":"Ha?sieu nhan cug k dau noi.n3 con rot ne.tai lieu thi nhieu ma k biet bat dau tu dau het :(","can_remove":false,"created_time":"2013-10-19T16:20:08+0000","like_count":0,"user_likes":false},"742313499118663":{"id":"742313499118663","from":{"id":"100001058098161","name":"DoTa Allstar"},"message":"@@. z chịu á. nếu bạn thích giao luuw thì add face mình lại. có gì trao dổi :))","can_remove":false,"created_time":"2013-10-19T16:25:30+0000","like_count":0,"user_likes":false},"742318232451523":{"id":"742318232451523","from":{"id":"1100984790","name":"Tran Nhat Khoi Nguyen"},"message":"Um.dc thoi.co them ng giup cug hay ma.ma ban co n3 chua","can_remove":false,"created_time":"2013-10-19T16:35:18+0000","like_count":0,"user_likes":false},"742327649117248":{"id":"742327649117248","from":{"id":"100004676861270","name":"Hạt Cát Vô Danh"},"message":"câu hỏi dokoka có nghĩa là bạn có đi đâu đó không ? và trả lời cho câu hỏi nì sẽ là có hoặc k .còn dokoe thì dễ rùi mừ Tran Nhat Khoi Nguyen ^_^","message_tags":[{"id":"1100984790","name":"Tran Nhat Khoi Nguyen","type":"user","offset":140,"length":21}],"can_remove":false,"created_time":"2013-10-19T16:52:10+0000","like_count":0,"user_likes":false},"742330489116964":{"id":"742330489116964","from":{"id":"1100984790","name":"Tran Nhat Khoi Nguyen"},"message":"Um.chj la muon fan bjet cho ro rag thoi ban.di day nen faj gjaj thjx tuog tan cho hoc tro ma :)","can_remove":false,"created_time":"2013-10-19T16:54:10+0000","like_count":0,"user_likes":false},"742332642450082":{"id":"742332642450082","from":{"id":"100004676861270","name":"Hạt Cát Vô Danh"},"message":"bữa ni có đi gia sư nữa ak Tran Nhat Khoi Nguyen hjc","message_tags":[{"id":"1100984790","name":"Tran Nhat Khoi Nguyen","type":"user","offset":30,"length":21}],"can_remove":false,"created_time":"2013-10-19T16:55:10+0000","like_count":0,"user_likes":false},"742335865783093":{"id":"742335865783093","from":{"id":"1100984790","name":"Tran Nhat Khoi Nguyen"},"message":"Di lau oy.moi lop 8 cha may.cug de lam :D","can_remove":false,"created_time":"2013-10-19T16:56:38+0000","like_count":0,"user_likes":false},"742365665780113":{"id":"742365665780113","from":{"id":"100001058098161","name":"DoTa Allstar"},"message":"có gì k hiểu pm trao đôi nhé :))","can_remove":false,"created_time":"2013-10-19T17:21:26+0000","like_count":0,"user_likes":false},"742812412402105":{"id":"742812412402105","from":{"id":"100003865478998","name":"Đại Gia Chân Đất"},"message":"Dokokahe la hoi may co di dau ko\nDokohe la hoi may di da \n1 hoi nhu the thi tra loi co hoac ko\n2 tra loi dia diem cu the","can_remove":false,"created_time":"2013-10-20T02:22:52+0000","like_count":1,"user_likes":false},"743060452377301":{"id":"743060452377301","from":{"id":"100005801442456","name":"An Nguyen"},"message":"sao lại hỏi mà gọi là ngu? Hỏi phải gọi là khôn chứ! Không biết không hỏi mới gọi là ngu !!!!cố nhên!","can_remove":false,"created_time":"2013-10-20T08:47:48+0000","like_count":1,"user_likes":false},"743077565708923":{"id":"743077565708923","from":{"id":"1100984790","name":"Tran Nhat Khoi Nguyen"},"message":"Tại k hiểu vì hỏi cả 2 kiểu như thế nhưng khi tl thì ng tl cũng có thể tl có hoặc k và địa điểm mà. Nếu làm trắc ngiệm dựa vào câu tl để tìm dokokahe hay dokohe thì làm sao để biết.  vd: a: yasumi ni (dokokahe/ dokohe) ikimashitaka?  b: hai, Hanoi he ikimasu  vậy chọn dokokahe hay dokohe???? Ai giai thjx gium vs","can_remove":false,"created_time":"2013-10-20T09:46:38+0000","like_count":0,"user_likes":false},"743083845708295":{"id":"743083845708295","from":{"id":"100001058098161","name":"DoTa Allstar"},"message":"chọn dokokahe chứ","can_remove":false,"created_time":"2013-10-20T10:03:10+0000","like_count":0,"user_likes":false},"743084235708256":{"id":"743084235708256","from":{"id":"100001058098161","name":"DoTa Allstar"},"message":"vì câu trả lời có hai kìa :))","can_remove":false,"created_time":"2013-10-20T10:03:52+0000","like_count":0,"user_likes":false},"743097549040258":{"id":"743097549040258","from":{"id":"1100984790","name":"Tran Nhat Khoi Nguyen"},"message":"Ah.oh. Vậy nếu hỏi dokokahe thì hai hoặc iie. Còn dokohe thì tl thẳng địa điểm luôn fải k? Arigatou ^^","can_remove":false,"created_time":"2013-10-20T10:42:42+0000","like_count":0,"user_likes":false},"743127855703894":{"id":"743127855703894","from":{"id":"100004566972183","name":"Tsuyoshi Ta"},"message":"tren do co ban Dai Gia tra loi roi ma","can_remove":false,"created_time":"2013-10-20T11:56:15+0000","like_count":0,"user_likes":false},"743279479022065":{"id":"743279479022065","from":{"id":"1100984790","name":"Tran Nhat Khoi Nguyen"},"message":"Onl dt doc k het cm ban ah :)","can_remove":false,"created_time":"2013-10-20T14:41:37+0000","like_count":0,"user_likes":false}},"paging":{"cursors":{"after":"NzQyMzAxODgyNDUzMTU4","before":"NzQyMzAxODgyNDUzMTU4"},"next":"https://graph.facebook.com/229244010425617_742300069120006/comments?limit=1&summary=1&after=NzQyMzAxODgyNDUzMTU4"},"summary":{"order":"chronological","total_count":31}}}