{"id":"229244010425617_743026305714049","type":"video","picture":"https://fbexternal-a.akamaihd.net/safe_image.php?d=AQDiDKrtQhIwHRlv&w=130&h=130&url=http%3A%2F%2Fi1.ytimg.com%2Fvi%2FtGkOuPAitNs%2Fhqdefault.jpg%3Ffeature%3Dog","link":"http://www.youtube.com/watch?v=tGkOuPAitNs","source":"http://www.youtube.com/v/tGkOuPAitNs?version=3&autohide=1&autoplay=1","from":{"id":"100001416272263","name":"Mai PB"},"message":"Nói đến ngày 20-10 thì mình không thấy gần gũi lắm, cảm thấy như một ngày đẹp trời thức dậy tự dưng lại có thêm một ngày của phụ nữ nữa, trong khi ngày của nam giới thì không có ngày nào cả. Nhưng thôi cũng chẳng sao, còn hơn là bị bắt ngày nào cũng là ngày phụ nữ. :-) Tặng chị em anh chàng đẹp trai này.\n\nhttp://www.youtube.com/watch?v=tGkOuPAitNs","created_time":"2013-10-20T06:43:51+0000","updated_time":"2013-10-20T13:46:52+0000","likes":{"data":{"100001526631937":{"id":"100001526631937","name":"Tường Oanh Mineko"},"100002871405403":{"id":"100002871405403","name":"Thach Sanh"},"100001458099624":{"id":"100001458099624","name":"Kham Pha"},"100000221648144":{"id":"100000221648144","name":"Nguyen Hung"},"100000022163023":{"id":"100000022163023","name":"Kafe Ore"},"100004460525997":{"id":"100004460525997","name":"Hà Trang Nguyễn"},"100003160479777":{"id":"100003160479777","name":"Tran Nu Hoang Yen"},"1146680551":{"id":"1146680551","name":"優しい なぁ"},"100004372208548":{"id":"100004372208548","name":"Neko Chan"},"100004360751785":{"id":"100004360751785","name":"Hà Nguyễn"},"100003670920063":{"id":"100003670920063","name":"Hoàng Dung"}},"paging":{"cursors":{"after":"MTAwMDAxNTI2NjMxOTM3","before":"MTAwMDAxNTI2NjMxOTM3"},"next":"https://graph.facebook.com/229244010425617_743026305714049/likes?limit=1&summary=1&after=MTAwMDAxNTI2NjMxOTM3"},"summary":{"total_count":11}},"comments":{"data":{"743037252379621":{"id":"743037252379621","from":{"id":"100004360751785","name":"Hà Nguyễn"},"message":"một năm có một cơ số ngày cho phụ nữ thôi mà bác đã thấy nhiều ư????? :D","can_remove":false,"created_time":"2013-10-20T07:10:35+0000","like_count":4,"user_likes":false},"743251425691537":{"id":"743251425691537","from":{"id":"100000022163023","name":"Kafe Ore"},"message":"Anh Mai PB hào phóng quá nhỉ... :)","message_tags":[{"id":"100001416272263","name":"Mai PB","type":"user","offset":4,"length":6}],"can_remove":false,"created_time":"2013-10-20T13:46:52+0000","like_count":0,"user_likes":false}},"paging":{"cursors":{"after":"NzQzMDM3MjUyMzc5NjIx","before":"NzQzMDM3MjUyMzc5NjIx"},"next":"https://graph.facebook.com/229244010425617_743026305714049/comments?limit=1&summary=1&after=NzQzMDM3MjUyMzc5NjIx"},"summary":{"order":"chronological","total_count":2}}}