{"id":"229244010425617_743898185626861","type":"photo","object_id":"532998120108510","picture":"https://fbcdn-photos-c-a.akamaihd.net/hphotos-ak-ash3/t1.0-0/1379592_532998120108510_49949373_s.png","link":"https://www.facebook.com/xomhocvn/photos/a.526784240729898.1073741833.477345852340404/532998120108510/?type=1","from":{"id":"100006471356382","name":"Mika Nguyen"},"message":"Đợt tuyển dụng rất lớn về IT, Điện-điện tử, Cơ khí và tiếng Nhật ;)","created_time":"2013-10-21T16:07:18+0000","updated_time":"2013-10-22T14:55:27+0000","likes":{"data":{"100002756459268":{"id":"100002756459268","name":"Tran Dat"},"100001784348435":{"id":"100001784348435","name":"Nguyễn Văn Thắng"},"100000354542602":{"id":"100000354542602","name":"Bom Hatran"},"100001637318798":{"id":"100001637318798","name":"Kora Kora"},"100004379524300":{"id":"100004379524300","name":"Kỹ Sư Nghèo"},"100002398072996":{"id":"100002398072996","name":"Hoàng Long"},"100000280776405":{"id":"100000280776405","name":"Viet Nguyen Thanh"}},"paging":{"cursors":{"after":"MTAwMDAyNzU2NDU5MjY4","before":"MTAwMDAyNzU2NDU5MjY4"},"next":"https://graph.facebook.com/229244010425617_743898185626861/likes?limit=1&summary=1&after=MTAwMDAyNzU2NDU5MjY4"},"summary":{"total_count":7}},"comments":{"data":{"743920802291266":{"id":"743920802291266","from":{"id":"100006709480567","name":"Le Minh"},"message":"Thông tin này có tin được không mọi người? \n    - Cơ hội việc làm tốt nhất : trở thành nhân viên chính thức cho cá-c tập đoàn Nhật Bản thuộc nhiều lĩnh vưc.\n    Hoàn toàn miễn phí : không hề đóng một mức phí nào để tham gia chương trình và sang Nhật Bản làm việc.\n    - Lương cao và chế độ tương đương người Nhật : Lương khởi điểm 2500 USD cùng các chế độ phúc lợi tương đương nhân viên người Nhật.\n    - Được đào tạo tiếng Nhật miễn phí : ứng viên phỏng vấn thành công sẽ được đào tạo tiếng Nhật miễn phí để hỗ trợ qua Nhật làm việc.\n   - Cơ hội trở thành manager, kĩ sư cầu nối cho các tập đoàn Nhật Bản : đi kèm với việc tuyển dụng là các cơ hội đào tạo của các tập đoàn nhằm bồi dưỡng các ứng viên vào các vị trí manager trong tương lai.","can_remove":false,"created_time":"2013-10-21T16:51:57+0000","like_count":0,"user_likes":false},"743921912291155":{"id":"743921912291155","from":{"id":"100006709480567","name":"Le Minh"},"message":"Sao lại có chuyện miễn phí hết nhỉ? Nếu vậy công ty lấy kinh phí đâu mà hoạt động ? với lại mới thành lập năm 2011 nữa chứ","can_remove":false,"created_time":"2013-10-21T16:53:53+0000","like_count":0,"user_likes":false},"743922272291119":{"id":"743922272291119","from":{"id":"100000073848158","name":"Hoàng Đắc"},"message":"Đối vs người đk tuyển dụng tất nhien là miễn phí rồi.\nCòn các công ty đứng giữa tuyển người sẽ đc tiền hoa hồng từ các công ty kia","can_remove":false,"created_time":"2013-10-21T16:54:56+0000","like_count":1,"user_likes":false},"743926585624021":{"id":"743926585624021","from":{"id":"100006709480567","name":"Le Minh"},"message":"Vậy sao lại có những nơi, chẳng hạn như Suluco, GA..tuyển dụng với phí 50-80tr/1 người cho 3 năm làm ở Nhật (chưa kể tiền học tiếng Nhật)","can_remove":false,"created_time":"2013-10-21T17:01:41+0000","like_count":0,"user_likes":false},"743933768956636":{"id":"743933768956636","from":{"id":"100000073848158","name":"Hoàng Đắc"},"message":"Nghe lạ vậy nhỉ, mình đi mấy cái jobfair mà chưa mất đồng nào cả.","can_remove":false,"created_time":"2013-10-21T17:14:37+0000","like_count":0,"user_likes":false},"743935238956489":{"id":"743935238956489","from":{"id":"100003079912929","name":"Chen Miku"},"message":"khong ro rang lam","can_remove":false,"created_time":"2013-10-21T17:16:24+0000","like_count":0,"user_likes":false},"743937338956279":{"id":"743937338956279","from":{"id":"100000280776405","name":"Viet Nguyen Thanh"},"message":"cậu gặp chỗ mất phí chẳng lẽ k có chỗ nào mất phí ư.\nBọn t thì ngược lại. :3","can_remove":false,"created_time":"2013-10-21T17:20:28+0000","like_count":1,"user_likes":false},"743937542289592":{"id":"743937542289592","from":{"id":"100000280776405","name":"Viet Nguyen Thanh"},"message":"Hoàng Đắc có apply ko :v","message_tags":[{"id":"100000073848158","name":"Hoàng Đắc","type":"user","offset":0,"length":9}],"can_remove":false,"created_time":"2013-10-21T17:21:03+0000","like_count":1,"user_likes":false},"744206015596078":{"id":"744206015596078","from":{"id":"100001784348435","name":"Nguyễn Văn Thắng"},"message":"tuyển ở mỗi hcm thui à, hn k có ha anh chị","can_remove":false,"created_time":"2013-10-22T01:41:35+0000","like_count":0,"user_likes":false},"744366298913383":{"id":"744366298913383","from":{"id":"100006709480567","name":"Le Minh"},"message":"http://vietlabo.com/news/view/23","can_remove":false,"created_time":"2013-10-22T09:03:32+0000","like_count":0,"user_likes":false},"744366375580042":{"id":"744366375580042","from":{"id":"100006709480567","name":"Le Minh"},"message":"Group mình đã có ai đi qua Nhật với cty này chưa?","can_remove":false,"created_time":"2013-10-22T09:03:53+0000","like_count":0,"user_likes":false},"744486738901339":{"id":"744486738901339","from":{"id":"100006471356382","name":"Mika Nguyen"},"message":"click vào cái link ấy thì đúng là ko biết ntn :-sss\ne thấy bên trang này chia sẻ thông tin việc làm nên share chứ ko để ý kỹ lắm :3\nthôi lần sau e sẽ lọc tin kỹ hơn :((","can_remove":false,"created_time":"2013-10-22T14:00:21+0000","like_count":0,"user_likes":false},"744487412234605":{"id":"744487412234605","from":{"id":"100006471356382","name":"Mika Nguyen"},"message":"nhưng hình như là chương trình thường niên mà :-??","can_remove":false,"created_time":"2013-10-22T14:02:03+0000","like_count":0,"user_likes":false},"744502838899729":{"id":"744502838899729","from":{"id":"100002756459268","name":"Tran Dat"},"message":"Để tìm hiểu xem sao rồi sang năm đăng kí :D","can_remove":false,"created_time":"2013-10-22T14:37:45+0000","like_count":1,"user_likes":false},"744510758898937":{"id":"744510758898937","from":{"id":"100000280776405","name":"Viet Nguyen Thanh"},"message":"dù sao cũng là cơ hội. tại sao lại không thử ?\nHơn nữa 1 vài năm gần đây các công ty thứ ba tuyển dụng nhân sự cho nhật phát triển mạnh.","can_remove":false,"created_time":"2013-10-22T14:55:27+0000","like_count":1,"user_likes":false}},"paging":{"cursors":{"after":"NzQzOTIwODAyMjkxMjY2","before":"NzQzOTIwODAyMjkxMjY2"},"next":"https://graph.facebook.com/229244010425617_743898185626861/comments?limit=1&summary=1&after=NzQzOTIwODAyMjkxMjY2"},"summary":{"order":"chronological","total_count":15}}}