{"id":"229244010425617_743849522298394","type":"status","from":{"id":"100000062884729","name":"Huệ Ca"},"message":"anh chị nào có lòng hảo tâm dịch giúp em câu này với :'( \n我々はこの生命の誕生を、人の手の及ばぬもの、神の領域に属するものとして　”自然の摂理”と呼び、謙虚な姿勢で受け入れてきた.\nem dịch ko ổn cho lắm, nhất là chỗ 人の手の及ばぬもの\nhelp em!!!!!!!!!!! thanks ac nhìu nhìu :)","created_time":"2013-10-21T14:29:01+0000","updated_time":"2013-10-22T12:59:11+0000","likes":{"data":{"100006842738433":{"id":"100006842738433","name":"Asami Nguyễn"},"100002157379029":{"id":"100002157379029","name":"Nguyen Hai Dung"},"100001637318798":{"id":"100001637318798","name":"Kora Kora"}},"paging":{"cursors":{"after":"MTAwMDA2ODQyNzM4NDMz","before":"MTAwMDA2ODQyNzM4NDMz"},"next":"https://graph.facebook.com/229244010425617_743849522298394/likes?limit=1&summary=1&after=MTAwMDA2ODQyNzM4NDMz"},"summary":{"total_count":3}},"comments":{"data":{"743852022298144":{"id":"743852022298144","from":{"id":"100005768796195","name":"Chín Ô Vuông"},"message":"Một cái gì đó không phải là thiếu bàn tay của người đàn ông, là thuộc về khu vực của Thiên Chúa được gọi là \"luật tự nhiên\", sự ra đời của cuộc sống này, chúng tôi đã chấp nhận với sự khiêm nhường.","can_remove":false,"created_time":"2013-10-21T14:35:36+0000","like_count":0,"user_likes":false},"743852152298131":{"id":"743852152298131","from":{"id":"100005768796195","name":"Chín Ô Vuông"},"message":"google dịch \\:v/","can_remove":false,"created_time":"2013-10-21T14:36:10+0000","like_count":4,"user_likes":false},"743857142297632":{"id":"743857142297632","from":{"id":"100001416272263","name":"Mai PB"},"message":"Dịch Kinh thánh hay là sách truyền đạo làm gì hả bạn? @@ Nếu vẫn muốn dịch thì bạn viết lời dịch của mình ra, mọi người sẽ sửa cho.","can_remove":false,"created_time":"2013-10-21T14:50:44+0000","like_count":1,"user_likes":false},"743858582297488":{"id":"743858582297488","from":{"id":"100000187612259","name":"Karasoul IOo"},"message":"Con người chúng ta sinh ra trên đời này, có những thứ mà vượt ra ngoài tầm với của chúng ta, đó chính là lãnh địa của chúa, cái được gọi là quy luật của tạo hóa, hãy kính cẩn khiêm nhường mà nhận lấy nó","can_remove":false,"created_time":"2013-10-21T14:54:16+0000","like_count":5,"user_likes":false},"744102628939750":{"id":"744102628939750","from":{"id":"100000062884729","name":"Huệ Ca"},"message":"グエン チュンヒエウ：Thanks nhưng nhà mình cũng có google :3","can_remove":false,"created_time":"2013-10-21T22:39:07+0000","like_count":0,"user_likes":false},"744102988939714":{"id":"744102988939714","from":{"id":"100000062884729","name":"Huệ Ca"},"message":"Mai PB: dạ ko, bài này trong bài đọc hiểu của e ở trên lớp thôi\nmà a cũng theo đạo hả? :D","message_tags":[{"id":"100001416272263","name":"Mai PB","type":"user","offset":0,"length":6}],"can_remove":false,"created_time":"2013-10-21T22:40:24+0000","like_count":0,"user_likes":false},"744103312273015":{"id":"744103312273015","from":{"id":"100000062884729","name":"Huệ Ca"},"message":"Thanks Karasoul IOo nhiều nhiều <3","message_tags":[{"id":"100000187612259","name":"Karasoul IOo","type":"user","offset":7,"length":12}],"can_remove":false,"created_time":"2013-10-21T22:41:30+0000","like_count":0,"user_likes":false},"744115522271794":{"id":"744115522271794","from":{"id":"1713049662","name":"Nguyen Khac Diep"},"message":"Sự sống của chúng ta được sinh ra không phải do bàn tay của con người. Nhưng nó thuộc quyền năng của Thiên Chúa, qua sự “tuần hoàn của tự nhiên” .(Vì vậy )Bằng một thái độ khiêm tốn hãy đón nhận (or đã đón nhận)","can_remove":false,"created_time":"2013-10-21T23:18:41+0000","like_count":1,"user_likes":false},"744115808938432":{"id":"744115808938432","from":{"id":"1713049662","name":"Nguyen Khac Diep"},"message":"Chắc có lẽ ý nghĩa là vậy chăng Huệ Ca nhỉ?","message_tags":[{"id":"100000062884729","name":"Huệ Ca","type":"user","offset":32,"length":6}],"can_remove":false,"created_time":"2013-10-21T23:19:29+0000","like_count":1,"user_likes":false},"744211338928879":{"id":"744211338928879","from":{"id":"100001727857917","name":"Bui Duyen"},"message":"Huệ Ca: có thể dịch thế này bạn ạ : \"chúng ta đón nhận sự ra đời của một sinh mệnh với tư thế khiêm nhường, coi nó là ý của tạo hóa, thuộc về lãnh địa của thần thánh- nơi con người không thể với tới\"","message_tags":[{"id":"100000062884729","name":"Huệ Ca","type":"user","offset":0,"length":6}],"can_remove":false,"created_time":"2013-10-22T01:57:35+0000","like_count":1,"user_likes":false},"744212038928809":{"id":"744212038928809","from":{"id":"100001727857917","name":"Bui Duyen"},"message":"Giờ mới nhớ ra là m đã từng học bài này, có câu đồng dao về シャボン玉phải ko ^^. Mình nghĩ dựa vào mạch văn của bài mà  dịch sẽ dễ hiểu hơn đấy :)","can_remove":false,"created_time":"2013-10-22T01:59:51+0000","like_count":2,"user_likes":false},"744463445570335":{"id":"744463445570335","from":{"id":"100000062884729","name":"Huệ Ca"},"message":"dạ thanks mọi người nhiều ạ :) đọc lời dịch của mọi người rồi lên lớp học, e mới thấy mọi người dịch hay hơn cô của e :3\ne bị giền group này rồi đó <3","can_remove":false,"created_time":"2013-10-22T12:59:11+0000","like_count":2,"user_likes":false}},"paging":{"cursors":{"after":"NzQzODUyMDIyMjk4MTQ0","before":"NzQzODUyMDIyMjk4MTQ0"},"next":"https://graph.facebook.com/229244010425617_743849522298394/comments?limit=1&summary=1&after=NzQzODUyMDIyMjk4MTQ0"},"summary":{"order":"chronological","total_count":12}}}