{"id":"229244010425617_743927302290616","type":"link","picture":"https://fbexternal-a.akamaihd.net/safe_image.php?d=AQB3q7eqO0uswXI-&w=154&h=154&url=http%3A%2F%2Fwww.ddvn.com.vn%2Fstatic%2Fimage%2Fcommon%2Flogo.png","link":"http://www.ddvn.com.vn/forum.php?mod=viewthread&tid=107&fromuid=6","from":{"id":"100003770118011","name":"Trung Hoa Pham"},"message":"Căn cứ Công hàm số J.F.235/13 ngày 02/4/2013 của Đại sứ quán Nhật Bản tại Việt Nam về Chương trình học bổng Chính phủ Nhật Bản cấp năm 2014 (học bổng Monbukagakusho – MEXT), Bộ Giáo dục và Đào tạo thông báo tuyển sinh đi học sau đại học tại Nhật Bản.\n\nTuyển sinh học sau đại học tại Nhật Bản theo học bổng MEXT\nhttp://www.ddvn.com.vn/forum.php?mod=viewthread&tid=107&fromuid=6","created_time":"2013-10-21T17:03:13+0000","updated_time":"2013-10-21T17:17:41+0000","likes":{"data":{"100001458099624":{"id":"100001458099624","name":"Kham Pha"},"100001723862714":{"id":"100001723862714","name":"Bo Bien Vang"},"100000297613157":{"id":"100000297613157","name":"Milkyway Vu"},"100000280776405":{"id":"100000280776405","name":"Viet Nguyen Thanh"},"100000494772697":{"id":"100000494772697","name":"Lam Huong"}},"paging":{"cursors":{"after":"MTAwMDAxNDU4MDk5NjI0","before":"MTAwMDAxNDU4MDk5NjI0"},"next":"https://graph.facebook.com/229244010425617_743927302290616/likes?limit=1&summary=1&after=MTAwMDAxNDU4MDk5NjI0"},"summary":{"total_count":5}},"comments":{"data":{"743929915623688":{"id":"743929915623688","from":{"id":"100000159131502","name":"Quyên Bùi"},"message":"Spring Rose","message_tags":[{"id":"1091816728","name":"Spring Rose","type":"user","offset":0,"length":11}],"can_remove":false,"created_time":"2013-10-21T17:08:45+0000","like_count":0,"user_likes":false},"743936075623072":{"id":"743936075623072","from":{"id":"1575796946","name":"Bich Ptn"},"message":"cái này hết hạn r mà","can_remove":false,"created_time":"2013-10-21T17:17:41+0000","like_count":0,"user_likes":false}},"paging":{"cursors":{"after":"NzQzOTI5OTE1NjIzNjg4","before":"NzQzOTI5OTE1NjIzNjg4"},"next":"https://graph.facebook.com/229244010425617_743927302290616/comments?limit=1&summary=1&after=NzQzOTI5OTE1NjIzNjg4"},"summary":{"order":"chronological","total_count":2}}}