{"id":"229244010425617_744262762257070","type":"status","from":{"id":"100001416272263","name":"Mai PB"},"message":"Diễn đàn và group về Nhật sao bây giờ nhiều thế nhỉ. Member cũng bị phân tán hoặc phải đăng ký trùng lặp,  vất vả phết. :-)","created_time":"2013-10-22T04:37:51+0000","updated_time":"2013-10-22T19:19:00+0000","likes":{"data":{"100004826551500":{"id":"100004826551500","name":"Oishiiyo Quán"},"100006248618563":{"id":"100006248618563","name":"Momi Zi"},"100006767705219":{"id":"100006767705219","name":"Kim Liên"},"1305472811":{"id":"1305472811","name":"Tuan Nguyen"},"100002508122689":{"id":"100002508122689","name":"Vũ Mạnh Tuấn"},"100006709480567":{"id":"100006709480567","name":"Le Minh"},"100003770118011":{"id":"100003770118011","name":"Trung Hoa Pham"},"100001912324973":{"id":"100001912324973","name":"Totto Chan"},"100001754136107":{"id":"100001754136107","name":"Nguyễn Tuấn Vũ"},"100002327743510":{"id":"100002327743510","name":"Tuan Thanh"},"100001458099624":{"id":"100001458099624","name":"Kham Pha"},"100002724611926":{"id":"100002724611926","name":"To Bee"},"100005801442456":{"id":"100005801442456","name":"An Nguyen"},"100000027754899":{"id":"100000027754899","name":"Hoang Van Ba"},"1845000884":{"id":"1845000884","name":"Trieu Thi Kieu Oanh"},"1821970083":{"id":"1821970083","name":"Nguyễn Mạnh Cường"},"100004360751785":{"id":"100004360751785","name":"Hà Nguyễn"},"1693102459":{"id":"1693102459","name":"Châu Hoàng"}},"paging":{"cursors":{"after":"MTAwMDA0ODI2NTUxNTAw","before":"MTAwMDA0ODI2NTUxNTAw"},"next":"https://graph.facebook.com/229244010425617_744262762257070/likes?limit=1&summary=1&after=MTAwMDA0ODI2NTUxNTAw"},"summary":{"total_count":18}},"comments":{"data":{"744300742253272":{"id":"744300742253272","from":{"id":"100005801442456","name":"An Nguyen"},"message":"Để e nói ý kiến em nhé:\nTheo em cái phần a nêu nó thuộc về người quản lý trang đó chứ người tham gia họ k có thấy gì thú vị thì không thu hút đc họ truy cập thường xuyên.Mỗi người quản lý điều đầu tiên là phải có trách nhiệm ,thứ 2 là phải hiểu ngưoi ta cần gì ở mình.bản thân thì có cái gì nổi bật thì dùng điều đó để làm lợi thế,ví dụ nhự em:e không có trình độ tiếng cao,nhưng e lại có lợi thế là băt đầu Trãi qua cuộc sống du học cũng gần đây,nên e gặp những vấn đề mà những ban khác cũng đang mắc phải,nên e dùng cái đó là lợi thế của e cho các bài viết,còn ví dụ như anh:a có khả năng về học vấn cao và trãi nghiệm csong lâu ở nhật nên a hãy dùng điều đó,e lúc mới sang rất thích nghe thông tin csong ở nhật qua báo chí đài báo nhưng k biẻtd đọc kanji nên có thông tin nào từ giáo viên về xã hội nhật thì e rất hứng thú ví như năm ngoái ở tokyo có vụ cướp của giết ngừoi ngay trung tâm do người ukaraina j j đó,cả trường e cứ xôn xao..với nữa là tập thói quen cho ngừoi đọc,như e thì không có thgian nhiều nên chỉ có thứ 4 e nghĩ e sẽ viết 1 bài,thấy dài vậy chứ e viết k quá 1h vì cả tuần trong lúc e làm viẹc hay làm j đó thì e đã nghĩ e nên viết gì rồi ,nên moi ngừoi cứ thành thói quen. Đợi thứ 4 coi nó viết cái gì tiếp ,còn a thì có thể như e nói làm chương trình đọc báo mỗi ngày gì đó,hay đưa lên. Các bài tập đọc mỗi ngày v.vv có những bài viết cá nhân của e nó có người xem nhiều nhưng e thấy chả có giống mục đích diễn đàn nên e k bỏ lên.Ngoài ra nữa là viẹc làm các hoạt động ,giống như cái hôm bữa e hỏi mọi người,nhưng hơi buồn tí ,tổng cộng 14 thành viên ,xem 8 người ,phát biểu ý kiến... 4 người tính luôn e!! Làm viẹc nhóm nó k hề đơn giản là ở chỗ đó!","can_remove":false,"created_time":"2013-10-22T05:07:09+0000","like_count":2,"user_likes":false},"744307332252613":{"id":"744307332252613","from":{"id":"1845000884","name":"Trieu Thi Kieu Oanh"},"message":"E thi trung thanh voi group nay vi co anh Mai PB thong thai! Rat like anh!","message_tags":[{"id":"100001416272263","name":"Mai PB","type":"user","offset":42,"length":6}],"can_remove":false,"created_time":"2013-10-22T05:10:53+0000","like_count":4,"user_likes":false},"744318288918184":{"id":"744318288918184","from":{"id":"100001458099624","name":"Kham Pha"},"message":"Chúng ta tự hào vì đã nỗ lực xây dựng một cộng đồng văn minh lành mạnh. Đem lại những thông tin giá trị, những điều tốt đẹp nhất cho mọi người :)","can_remove":false,"created_time":"2013-10-22T06:02:28+0000","like_count":2,"user_likes":false},"744321515584528":{"id":"744321515584528","from":{"id":"100002145579460","name":"Nhất Cước Sanji"},"message":"Mac du chua sang nhung qua nhung bai viet cua cac anh chi em cung hieu ra rat nhieu dieu. :). Cam on cac anh chi nhieu mong cac anh chi ngay cang co nhieu bai viet hay de dan loi chi duong cho nhung nguoi moi nhu bon em de ko con nhung canh an trom, an cap gay anh huong xau den hinh anh cua nguoi VN nua. :D","can_remove":false,"created_time":"2013-10-22T06:11:55+0000","like_count":2,"user_likes":false},"744323118917701":{"id":"744323118917701","from":{"id":"100001458099624","name":"Kham Pha"},"message":"Nhất Cước Sanji giáo dục con người Việt Nam theo tấm gương người Nhật đó chính là mục đích của group. Các admin quả thật rất nhiệt tình, nhưng nhiệt tình đến đâu thì vẫn có lúc bận bịu không thể viết bài. Vì vậy rất mong chờ sự đóng góp của các bạn, dù nhỏ hay to đều đáng quý :)","message_tags":[{"id":"100002145579460","name":"Nhất Cước Sanji","type":"user","offset":0,"length":15}],"can_remove":false,"created_time":"2013-10-22T06:17:18+0000","like_count":3,"user_likes":false},"744333012250045":{"id":"744333012250045","from":{"id":"100003770118011","name":"Trung Hoa Pham"},"message":"Rất đồng tình với ý kiến của Mai PB, hiện nay có nhiều Group và Page liên quan đến Nhật Bản, điều đó chứng tỏ nhu cầu của người Việt ta sang sinh sống và làm việc ngày càng tăng. Mong rằng mọi người cùng chung sức xây dựng một cộng đồng người Việt hùng mạnh ở bên đất nước bạn, để dân Việt ta luôn ngẩng cao đầu dù đi đến bất kỳ quốc gia nào.","can_remove":false,"created_time":"2013-10-22T06:55:12+0000","like_count":1,"user_likes":false},"744447635571916":{"id":"744447635571916","from":{"id":"100006248618563","name":"Momi Zi"},"message":"để ý rồi.mang tiếng là cộng đồng nhưng chỉ một vài người có tiếng nói và song song vào đó thì cũng chỉ được một vài người được đáp trả...","can_remove":false,"created_time":"2013-10-22T12:14:20+0000","like_count":2,"user_likes":false},"744460362237310":{"id":"744460362237310","from":{"id":"100006248618563","name":"Momi Zi"},"message":"mình nghĩ rằng \"học hỏi để phát triển,rèn luyện để nâng cao giá trị và phẩm chất đạo đức và hướng thiện \"...,có lọt tai bạn a.đôi lúc từ giáo dục nó biểu thị cảm xúc nặng nề sao ý các bạn à","can_remove":false,"created_time":"2013-10-22T12:51:06+0000","like_count":1,"user_likes":false},"744633438886669":{"id":"744633438886669","from":{"id":"100001458099624","name":"Kham Pha"},"message":"Mình cũng thấy vậy, sửa thôi :D","can_remove":false,"created_time":"2013-10-22T19:19:00+0000","like_count":0,"user_likes":false}},"paging":{"cursors":{"after":"NzQ0MzAwNzQyMjUzMjcy","before":"NzQ0MzAwNzQyMjUzMjcy"},"next":"https://graph.facebook.com/229244010425617_744262762257070/comments?limit=1&summary=1&after=NzQ0MzAwNzQyMjUzMjcy"},"summary":{"order":"chronological","total_count":9}}}