{"id":"229244010425617_744498112233535","type":"status","from":{"id":"100000089472724","name":"Duy Nguyen"},"message":"ACE cho mình hỏi một cái này sắp tới mình định nộp hồ sơ vào đại học nhưng không biết là các hồ sơ mang từ Việt Nam thì lãnh sự quán ở Osaka có dịch và công chính được không ạh.","created_time":"2013-10-22T14:26:29+0000","updated_time":"2013-10-22T15:30:57+0000","comments":{"data":{"744498502233496":{"id":"744498502233496","from":{"id":"1787333994","name":"Kiên Mậu"},"message":"làm đc em ạ, nhưng chi phí thì ko rẻ và thái độ cũng rất đắt nữa :D","can_remove":false,"created_time":"2013-10-22T14:27:35+0000","like_count":0,"user_likes":false},"744498822233464":{"id":"744498822233464","from":{"id":"100005801442456","name":"An Nguyen"},"message":"Vào đại học phải mang hồ sơ cho đại sứ quán chứng nhận sao? Kiểu này hơi ...bị đậm cho nhà chú đsq nhà ts","can_remove":false,"created_time":"2013-10-22T14:28:31+0000","like_count":0,"user_likes":false},"744499465566733":{"id":"744499465566733","from":{"id":"100005446931997","name":"Sakurasou San"},"message":"đc..phải thông qua đại xứ quán rỳ nữa thỳ phải...Osaka....thành phố tuyệt vời..","can_remove":false,"created_time":"2013-10-22T14:30:01+0000","like_count":0,"user_likes":false},"744499538900059":{"id":"744499538900059","from":{"id":"100000089472724","name":"Duy Nguyen"},"message":"giấy tờ gốc chỉ có một, nhưng đại học họ đâu cần giấy đó. cần giấy công chứng sau đó dịch ra tiếng nhật và đóng dấu...","can_remove":false,"created_time":"2013-10-22T14:30:11+0000","like_count":0,"user_likes":false},"744500015566678":{"id":"744500015566678","from":{"id":"100002428163247","name":"Trần Đức Hùng"},"message":"Xin giấy tờ bên trường cũ đuoc mà","can_remove":false,"created_time":"2013-10-22T14:31:26+0000","like_count":0,"user_likes":false},"744501315566548":{"id":"744501315566548","from":{"id":"100000089472724","name":"Duy Nguyen"},"message":"hem được....vì họ bảo lưu kho với lại đã quá cũ nên không nhận.","can_remove":false,"created_time":"2013-10-22T14:34:33+0000","like_count":0,"user_likes":false},"744503598899653":{"id":"744503598899653","from":{"id":"100001416272263","name":"Mai PB"},"message":"Giấy tờ liên quan đến Vn thì bạn nên xin công chứng ở VN, không nên làm gì ở ĐSQ hay LSQ, lý do như bạn Kiên Mậu nói đó. Nếu ở VN không có bản gốc thì đành gửi bản gốc về VN làm rồi gửi qua Nhật lại. Giấy tờ nộp cho phía Nhật thì phải có bản dịch, nhưng nếu bạn tự dịch được thì chỉ cần kèm bản dịch đi kèm với bản công chứng đó. Nếu không thì làm luôn công chứng dịch ở VN.","message_tags":[{"id":"1787333994","name":"Kiên Mậu","type":"user","offset":104,"length":8}],"can_remove":false,"created_time":"2013-10-22T14:39:45+0000","like_count":3,"user_likes":false},"744507338899279":{"id":"744507338899279","from":{"id":"100005801442456","name":"An Nguyen"},"message":"chính xác!","can_remove":false,"created_time":"2013-10-22T14:47:44+0000","like_count":0,"user_likes":false},"744508668899146":{"id":"744508668899146","from":{"id":"1146680551","name":"優しい なぁ"},"message":"Tự dịch xong qua trươmg đống dấu đc mà.cần j ra đsq chi mắc công.tốn tiền mà bị hạch sách","can_remove":false,"created_time":"2013-10-22T14:50:35+0000","like_count":0,"user_likes":false},"744527638897249":{"id":"744527638897249","from":{"id":"100000089472724","name":"Duy Nguyen"},"message":"Thanks mọi người....gi tại giờ có thêm 2 trường muốn nộp nên thiếu hồ sơ....biết sớm thì hay biết mấy.","can_remove":false,"created_time":"2013-10-22T15:30:57+0000","like_count":0,"user_likes":false}},"paging":{"cursors":{"after":"NzQ0NDk4NTAyMjMzNDk2","before":"NzQ0NDk4NTAyMjMzNDk2"},"next":"https://graph.facebook.com/229244010425617_744498112233535/comments?limit=1&summary=1&after=NzQ0NDk4NTAyMjMzNDk2"},"summary":{"order":"chronological","total_count":10}},"likes":{"data":[]}}