{"id":"229244010425617_744530488896964","type":"link","picture":"https://fbexternal-a.akamaihd.net/safe_image.php?d=AQACbvqkOLioLa2w&w=154&h=154&url=http%3A%2F%2Fwww.asahicom.jp%2Farticles%2Fimages%2FAS20131022002388_commL.jpg","link":"http://www.asahi.com/articles/TKY201310220331.html","from":{"id":"100001416272263","name":"Mai PB"},"message":"和食 Washoku, tức ẩm thực Nhật Bản, sắp được công nhận chính thức là Di sản văn hóa thế giới, thể loại phi vật thể! Sẽ được công bố chính thức vào tháng 12.\n\nhttp://www.asahi.com/articles/TKY201310220331.html","created_time":"2013-10-22T15:36:48+0000","updated_time":"2013-10-23T04:20:20+0000","likes":{"data":{"100001695345798":{"id":"100001695345798","name":"Tyn Aki"},"100004642933206":{"id":"100004642933206","name":"Aloha Aloha"},"100002826418598":{"id":"100002826418598","name":"Harry Minji"},"100003005597243":{"id":"100003005597243","name":"Zany Royal"},"100003011417151":{"id":"100003011417151","name":"Hue Kim"},"1822854513":{"id":"1822854513","name":"Sữa Chua Không Đường"},"100000064686295":{"id":"100000064686295","name":"Huy Roli"},"100006387723695":{"id":"100006387723695","name":"Hoa Minh"},"100001754136107":{"id":"100001754136107","name":"Nguyễn Tuấn Vũ"},"620134445":{"id":"620134445","name":"Anh Do"},"100005801442456":{"id":"100005801442456","name":"An Nguyen"},"100004362480675":{"id":"100004362480675","name":"Đi Tìm Thất Bại"},"100006767705219":{"id":"100006767705219","name":"Kim Liên"},"1846809835":{"id":"1846809835","name":"Dorae Phương"},"100003950139327":{"id":"100003950139327","name":"Kathy Banh"},"100000045271667":{"id":"100000045271667","name":"Nam Thai Nguyen"},"1816269439":{"id":"1816269439","name":"Dao Ngoc"},"100001257093338":{"id":"100001257093338","name":"Hanh Dang"},"1146680551":{"id":"1146680551","name":"優しい なぁ"},"100004112258038":{"id":"100004112258038","name":"Chung Tran"},"100004041794244":{"id":"100004041794244","name":"Watanuki Kimihiro"},"100002134083104":{"id":"100002134083104","name":"Bùi Quang Hoàng"}},"paging":{"cursors":{"after":"MTAwMDAxNjk1MzQ1Nzk4","before":"MTAwMDAxNjk1MzQ1Nzk4"},"next":"https://graph.facebook.com/229244010425617_744530488896964/likes?limit=1&summary=1&after=MTAwMDAxNjk1MzQ1Nzk4"},"summary":{"total_count":22}},"comments":{"data":{"744792668870746":{"id":"744792668870746","from":{"id":"100000064686295","name":"Huy Roli"},"message":"cái này trình độ ngữ pháp nào thì đọc dịch đc hả anh Mai PB","message_tags":[{"id":"100001416272263","name":"Mai PB","type":"user","offset":53,"length":6}],"can_remove":false,"created_time":"2013-10-23T02:40:19+0000","like_count":0,"user_likes":false},"744851135531566":{"id":"744851135531566","from":{"id":"1816269439","name":"Dao Ngoc"},"message":"Bạn xem phẩn lược dịch ở đây nhé: https://www.facebook.com/photo.php?fbid=171716083022726&set=a.167847920076209.1073741828.167832026744465&type=1&theater","can_remove":false,"created_time":"2013-10-23T04:20:20+0000","like_count":1,"user_likes":false}},"paging":{"cursors":{"after":"NzQ0NzkyNjY4ODcwNzQ2","before":"NzQ0NzkyNjY4ODcwNzQ2"},"next":"https://graph.facebook.com/229244010425617_744530488896964/comments?limit=1&summary=1&after=NzQ0NzkyNjY4ODcwNzQ2"},"summary":{"order":"chronological","total_count":2}}}