{"id":"229244010425617_745020445514635","type":"status","from":{"id":"100001744546054","name":"Quân Dương"},"message":"ần thêm chỉ giáo của các sempai: Mình đi phỏng vấn nhà hàng, conbini suốt, vậy mà cuối cùng vẫn \" xịt như thường \".Hồ sơ, lý lịch đẹp ( tốt nghiệp Đh ), tiếng Nhật giao tiếp khá. Khá ở đây là mức độ bình thường, đôi chút ngấp ngứng ( mới qua đc 6 tháng mà ), nhưg hầu hết các câu hỏi ng ta hỏi đều phản xạ tốt, đôi bên gật đầu lia lịa.Ngoại hình trung bình. Tự tin khoảng 90 %, vậy mà ...Vậy trong đây xin nhờ các senpai đã từng có kinh nghiệm xin chỉ giáo thêm cũng như một số chú ý khác ạ. Thanks cả nhà","created_time":"2013-10-23T13:27:52+0000","updated_time":"2013-10-24T03:29:35+0000","likes":{"data":{"100001458099624":{"id":"100001458099624","name":"Kham Pha"},"100002724611926":{"id":"100002724611926","name":"To Bee"},"100005801442456":{"id":"100005801442456","name":"An Nguyen"},"100003502346209":{"id":"100003502346209","name":"Mèo Ngao"},"100002662449432":{"id":"100002662449432","name":"Thuc Van Phan"},"100004409922456":{"id":"100004409922456","name":"Le Thanh"},"100003155380603":{"id":"100003155380603","name":"Khuong Pham"},"100003462033553":{"id":"100003462033553","name":"Hoàng Ly"},"100001744546054":{"id":"100001744546054","name":"Quân Dương"}},"paging":{"cursors":{"after":"MTAwMDAxNDU4MDk5NjI0","before":"MTAwMDAxNDU4MDk5NjI0"},"next":"https://graph.facebook.com/229244010425617_745020445514635/likes?limit=1&summary=1&after=MTAwMDAxNDU4MDk5NjI0"},"summary":{"total_count":9}},"comments":{"data":{"745020912181255":{"id":"745020912181255","from":{"id":"100001744546054","name":"Quân Dương"},"message":"Xin phép \" nhận gạch\" của các vị âk  ^-^","can_remove":false,"created_time":"2013-10-23T13:28:52+0000","like_count":0,"user_likes":false},"745021028847910":{"id":"745021028847910","from":{"id":"100006089102969","name":"カメ 悪い"},"message":"Tên chồ nó ko gay =))","can_remove":false,"created_time":"2013-10-23T13:29:18+0000","like_count":0,"user_likes":false},"745022058847807":{"id":"745022058847807","from":{"id":"100001744546054","name":"Quân Dương"},"message":"Gay hay ko thì ko liên quan bạn ak. Ng Nhật tách bạch chuyện tình cảm và công việc. Kể cả là Gay đi chăng nữa thì ng ta cũng ko bao h thể hiện trong công việc, có chăng là lúc đi chơi thì xoã thôi bạn à","can_remove":false,"created_time":"2013-10-23T13:31:53+0000","like_count":0,"user_likes":false},"745022858847727":{"id":"745022858847727","from":{"id":"100000195299558","name":"Giọt Sương Sớm Mai"},"message":"Ek. Chac nha hang y tencho kho tinh sao y nhj. M ms qua dc 3thang ma cung tu xin dc viec o nha hang oi. Tieu chuan mjnh chac ko dc nhu ban. Ho fong van rat bt. Ho chj noi la tieng nhat chua tot lam the nen hoi kho. Nhung mjnh chj noi moi cau. Kho nhung tao se co gang. The la ok thoi","can_remove":false,"created_time":"2013-10-23T13:34:05+0000","like_count":2,"user_likes":false},"745023992180947":{"id":"745023992180947","from":{"id":"100001744546054","name":"Quân Dương"},"message":"Tôi kém may mắn hơn nhữn bạn khác là chiều cao khiêm tốn 1m63 và nc da ngăm đen nên chắc là làm những việc tiếp xúc  với khách hàng thì hơi khó.Vì dù sao nhân viên là bộ mặt của cty, nhà hàng mà","can_remove":false,"created_time":"2013-10-23T13:36:25+0000","like_count":0,"user_likes":false},"745024862180860":{"id":"745024862180860","from":{"id":"100006089102969","name":"カメ 悪い"},"message":"Troll chứ sao","can_remove":false,"created_time":"2013-10-23T13:38:16+0000","like_count":0,"user_likes":false},"745025135514166":{"id":"745025135514166","from":{"id":"100000195299558","name":"Giọt Sương Sớm Mai"},"message":"Ko han la the dau. Sao lai tu ti the nhj. Chieu cao dau co the danh gia dc viec ban lm dc viec hay ko lm dc dau","can_remove":false,"created_time":"2013-10-23T13:39:01+0000","like_count":2,"user_likes":false},"745026368847376":{"id":"745026368847376","from":{"id":"100001744546054","name":"Quân Dương"},"message":"đúng thế, nhưng cần phải có yếu tố CẦN VÀ ĐỦ .","can_remove":false,"created_time":"2013-10-23T13:41:41+0000","like_count":0,"user_likes":false},"745027465513933":{"id":"745027465513933","from":{"id":"100006089102969","name":"カメ 悪い"},"message":"Nhật nó chả quan tâm cái chiều cao ngoại hình đâu =))\nCơ mà ng nhật thích xem tướng số lắm","can_remove":false,"created_time":"2013-10-23T13:43:58+0000","like_count":0,"user_likes":false},"745032198846793":{"id":"745032198846793","from":{"id":"100001744546054","name":"Quân Dương"},"message":"chưa ai xem tay của tôi ka,","can_remove":false,"created_time":"2013-10-23T13:55:51+0000","like_count":0,"user_likes":false},"745035688846444":{"id":"745035688846444","from":{"id":"100001416272263","name":"Mai PB"},"message":"Em ra ハローワーク xem","can_remove":false,"created_time":"2013-10-23T14:03:33+0000","like_count":0,"user_likes":false},"745036985512981":{"id":"745036985512981","from":{"id":"1094162178","name":"Ngô Vũ Hoàng"},"message":"có lẽ ít cười","can_remove":false,"created_time":"2013-10-23T14:06:47+0000","like_count":1,"user_likes":false},"745042285512451":{"id":"745042285512451","from":{"id":"100001744546054","name":"Quân Dương"},"message":"Tuần nào cùng dày mặt ở con phố KABUKICHO , cũng cái đường đi mòn lốp xe ấy,thậm chí cũng lật đi lật lại cho nát quyểnTownwork ra, và  có những hôm ng ta gọi cho 5 - 6 cuộc vẫn ko ăn nhằm gì, ng ta động viên : \" Thôi cháu ạ, cháu về học thêm tiếng Nhật nha \" ( ngôn ngữ Việt ) . Cháu thì thầm : \" Bác shoukai việc cho cháu, cháu có việc, cháu mới yên tâm học đc chứ Bác \" .","can_remove":false,"created_time":"2013-10-23T14:17:50+0000","like_count":1,"user_likes":false},"745046718845341":{"id":"745046718845341","from":{"id":"100001416272263","name":"Mai PB"},"message":"Vậy em xin việc làm ít giao tiếp đi, Yamato hay 引っ越し chẳng hạn","can_remove":false,"created_time":"2013-10-23T14:25:35+0000","like_count":2,"user_likes":false},"745048108845202":{"id":"745048108845202","from":{"id":"100002724611926","name":"To Bee"},"message":"がんばってね❗️","can_remove":false,"created_time":"2013-10-23T14:27:41+0000","like_count":2,"user_likes":false},"745051152178231":{"id":"745051152178231","from":{"id":"100001744546054","name":"Quân Dương"},"message":"yamato cũng toàn hên xui Bác ạ","can_remove":false,"created_time":"2013-10-23T14:32:40+0000","like_count":1,"user_likes":false},"745051332178213":{"id":"745051332178213","from":{"id":"100001744546054","name":"Quân Dương"},"message":"Huân biết việc shoukai a  với , hehe","can_remove":false,"created_time":"2013-10-23T14:33:11+0000","like_count":1,"user_likes":false},"745052038844809":{"id":"745052038844809","from":{"id":"100002724611926","name":"To Bee"},"message":"Em thấy em thành công việc hiện tại cua em đó cũng tốt, anh thử hỏi ku ấy xem, làm cho khách sạn đó anh ! Quân Dương","message_tags":[{"id":"100001744546054","name":"Quân Dương","type":"user","offset":106,"length":10}],"can_remove":false,"created_time":"2013-10-23T14:34:48+0000","like_count":0,"user_likes":false},"745053922177954":{"id":"745053922177954","from":{"id":"100001744546054","name":"Quân Dương"},"message":"nó  cũng mới làm, chắc vẫn non kinh nghiệm","can_remove":false,"created_time":"2013-10-23T14:39:05+0000","like_count":0,"user_likes":false},"745275015489178":{"id":"745275015489178","from":{"id":"100005675104683","name":"Nguyễn Hoa"},"message":"a oi yamato hay nhung viec giao tiep it la ji vay a","can_remove":false,"created_time":"2013-10-23T23:09:55+0000","like_count":0,"user_likes":false},"745327822150564":{"id":"745327822150564","from":{"id":"100001744546054","name":"Quân Dương"},"message":"Yamato là sắp xếp, khiêng hàng hoá, đại loại vậy, còn việc tiếng ít là mỳ lanh, cơm hộp, dọn dẹp...","can_remove":false,"created_time":"2013-10-24T02:06:18+0000","like_count":0,"user_likes":false},"745347878815225":{"id":"745347878815225","from":{"id":"100005675104683","name":"Nguyễn Hoa"},"message":"cam on a nhieu nhe","can_remove":false,"created_time":"2013-10-24T03:09:45+0000","like_count":0,"user_likes":false},"745348135481866":{"id":"745348135481866","from":{"id":"100005675104683","name":"Nguyễn Hoa"},"message":"a oi o day lam com hop phai qua mo gioi phai ko","can_remove":false,"created_time":"2013-10-24T03:10:11+0000","like_count":0,"user_likes":false},"745348705481809":{"id":"745348705481809","from":{"id":"100000195299558","name":"Giọt Sương Sớm Mai"},"message":"Qua hay ko do mjnh ma","can_remove":false,"created_time":"2013-10-24T03:11:21+0000","like_count":0,"user_likes":false},"745348975481782":{"id":"745348975481782","from":{"id":"100001744546054","name":"Quân Dương"},"message":"Tuỳ thôi, nhưng theo mình thấy là nhiều Ng qua môi giới đó","can_remove":false,"created_time":"2013-10-24T03:12:19+0000","like_count":0,"user_likes":false},"745351732148173":{"id":"745351732148173","from":{"id":"100006089102969","name":"カメ 悪い"},"message":"Xem tướng đâu phải xem tay :))\nNgta nhìn dáng người mặt mũi :))","can_remove":false,"created_time":"2013-10-24T03:20:00+0000","like_count":0,"user_likes":false},"745355835481096":{"id":"745355835481096","from":{"id":"100005675104683","name":"Nguyễn Hoa"},"message":"tinh chiba co phai co nhieu cong ty com hop ko a","can_remove":false,"created_time":"2013-10-24T03:29:35+0000","like_count":0,"user_likes":false}},"paging":{"cursors":{"after":"NzQ1MDIwOTEyMTgxMjU1","before":"NzQ1MDIwOTEyMTgxMjU1"},"next":"https://graph.facebook.com/229244010425617_745020445514635/comments?limit=1&summary=1&after=NzQ1MDIwOTEyMTgxMjU1"},"summary":{"order":"chronological","total_count":27}}}