{"id":"229244010425617_745414225475257","type":"status","from":{"id":"100005775182411","name":"Tuấn Milo"},"message":"Mọi người có thể chỉ cho em sự khác biệt giữa 他動詞 (tadosi)và じどうしい(jidosi) được k ạ và nó sử dụng vào trường hợp ntn k ak,thân ái","created_time":"2013-10-24T07:35:20+0000","updated_time":"2013-10-26T04:50:15+0000","likes":{"data":{"100004094346107":{"id":"100004094346107","name":"Thuy Nga Nguyen"},"100004833332138":{"id":"100004833332138","name":"Thuat Nguyen"},"100006940086648":{"id":"100006940086648","name":"Phòng Nhân Sự"}},"paging":{"cursors":{"after":"MTAwMDA0MDk0MzQ2MTA3","before":"MTAwMDA0MDk0MzQ2MTA3"},"next":"https://graph.facebook.com/229244010425617_745414225475257/likes?limit=1&summary=1&after=MTAwMDA0MDk0MzQ2MTA3"},"summary":{"total_count":3}},"comments":{"data":{"745415005475179":{"id":"745415005475179","from":{"id":"100006940086648","name":"Phòng Nhân Sự"},"message":"8-|","can_remove":false,"created_time":"2013-10-24T07:39:06+0000","like_count":0,"user_likes":false},"745425275474152":{"id":"745425275474152","from":{"id":"100006520210904","name":"Miu Miu"},"message":"1 cái là tha động từ, 1 cái là tự động từ( ~te aru , ~ te iru)","can_remove":false,"created_time":"2013-10-24T08:19:30+0000","like_count":0,"user_likes":false},"745430562140290":{"id":"745430562140290","from":{"id":"100005775182411","name":"Tuấn Milo"},"message":"Có thể giải thích kỹ hơn k bạn","can_remove":false,"created_time":"2013-10-24T08:37:17+0000","like_count":0,"user_likes":false},"745439548806058":{"id":"745439548806058","from":{"id":"100000187612259","name":"Karasoul IOo"},"message":"Thử đặt một câu hỏi: sao phải phân 2 loại, không có có được ko. Cái khó ở chỗ, cùng một động từ nhưng lúc thì loại này, lúc lại là loại kia, làm mình lộn hết. Nếu theo định nghĩa, sơ sơ ta hiểu: một thằng tự thân vận động, ko có tác động từ bên ngoài n vẫn xảy ra hành động, một loại là phải có thêm đối tượng hay tác động từ bên ngoài. Nhưng rốt cuộc định nghĩa thế rồi n cũng chả để làm gì, khi đi vào thực hành ta lại chả biết làm gì với nó. Cái này phần nào có thể ví như từ \"được\" trong tiếng việt khi dùng với các đồ vật, sự việc. Và được ví như thể bị động ,chủ động trong tiếng Anh. Xem trang này sẽ hiểu ngày, và phân biệt nhờ vào phó từ đi kèm trước chúng (ga,wo)   http://www.mlcjapanese.co.jp/Download/JidoushiTadoushi70Pairs.swf","can_remove":false,"created_time":"2013-10-24T09:14:38+0000","like_count":4,"user_likes":false},"745441625472517":{"id":"745441625472517","from":{"id":"100005775182411","name":"Tuấn Milo"},"message":"E cám. Ơn nhiều ạ","can_remove":false,"created_time":"2013-10-24T09:25:06+0000","like_count":0,"user_likes":false},"745444378805575":{"id":"745444378805575","from":{"id":"644903651","name":"Nguyen Ngoc Diep"},"message":"Nói một cách nôm na thế này: Tha động từ dùng khi chủ thể làm một hành động nào đó mà có tác động đến một vật thể khác (S ha Nwo V); Còn Tự động từ thì dùng khi mà vật thể này đứng lên làm chủ thể (Nga V). Tuy nhiên, phân biệt với bị động ở chỗ, tự động từ dùng khi mà muốn nói tới trạng thái của chủ thể, tự bản thân chủ thể có trạng thái này, chứ ko muốn nói đến do tác động của cái j đó mà có trạng thái như vậy. Ví dụ: tôi đánh rơi ví (財布をおとした)- Ví của tôi rơi đâu mất rồi (財布がどこかおちた)","can_remove":false,"created_time":"2013-10-24T09:33:45+0000","like_count":4,"user_likes":false},"745444938805519":{"id":"745444938805519","from":{"id":"644903651","name":"Nguyen Ngoc Diep"},"message":"Đây là theo ngu ý của mình và đúc rút một cách ngắn gọn nhất, tất nhiên để hiểu sâu & kỹ hơn về cách dùng & cách chia thì bạn cần nghiên cứu nhiều hơn nữa.","can_remove":false,"created_time":"2013-10-24T09:35:52+0000","like_count":0,"user_likes":false},"745445748805438":{"id":"745445748805438","from":{"id":"100005775182411","name":"Tuấn Milo"},"message":"Có phải jidosi hiểu nôm na là những thứ mình có thể tự làm được,va tadosi thì là k tự làm đuoc đúng k ah.. E đang học thể động từ sai khiến しえき。nó hơi rắc rối 1 chút ạ mong các ac chỉ giup ạ","can_remove":false,"created_time":"2013-10-24T09:38:24+0000","like_count":0,"user_likes":false},"745538492129497":{"id":"745538492129497","from":{"id":"100005775182411","name":"Tuấn Milo"},"message":"Cám ơn nhiều ạ","can_remove":false,"created_time":"2013-10-24T13:49:37+0000","like_count":1,"user_likes":false},"745883258761687":{"id":"745883258761687","from":{"id":"100004095052965","name":"Mai Nguyễn"},"message":"Ko phải jidoshi là tự mình lm dc và tadoshi là ko lm dc dau.","can_remove":false,"created_time":"2013-10-25T04:18:07+0000","like_count":0,"user_likes":false},"745883355428344":{"id":"745883355428344","from":{"id":"100004095052965","name":"Mai Nguyễn"},"message":"Tuấn Milo ong bữa nay bị nhầm lẫn cái này ah","message_tags":[{"id":"100005775182411","name":"Tuấn Milo","type":"user","offset":0,"length":9}],"can_remove":false,"created_time":"2013-10-25T04:18:37+0000","like_count":1,"user_likes":false},"746403545376325":{"id":"746403545376325","from":{"id":"100004322010992","name":"Nhím Xù"},"message":"Hic càg đọc càg rối","can_remove":false,"created_time":"2013-10-26T04:50:15+0000","like_count":0,"user_likes":false}},"paging":{"cursors":{"after":"NzQ1NDE1MDA1NDc1MTc5","before":"NzQ1NDE1MDA1NDc1MTc5"},"next":"https://graph.facebook.com/229244010425617_745414225475257/comments?limit=1&summary=1&after=NzQ1NDE1MDA1NDc1MTc5"},"summary":{"order":"chronological","total_count":12}}}