{"id":"229244010425617_745410275475652","type":"photo","object_id":"172232292980151","picture":"https://fbcdn-photos-f-a.akamaihd.net/hphotos-ak-frc3/t1.0-0/1383534_172232292980151_1486453425_s.jpg","link":"https://www.facebook.com/photo.php?fbid=172232292980151&set=gm.745410275475652&type=1&relevant_count=1","from":{"id":"100005801442456","name":"An Nguyen"},"message":"CẢNH BÁO:\n\nĐây là 1 vụ té xe trước cửa chỗ  làm lúc nãy,tuy là tai nạn do người Nhật nhưng sẵn đây cũng cảnh báo cho mọi người đi lại cẩn thận trong những ngày mưa bão hay sắp tới là tuyết .\nLúc học trường tiếng có 1 senpai người trung quốc tung vào 1 bà lão,dẫn đến gãy tay nằm viện 3 tháng đền cả trăm man,phải bỏ việc làm chăm sóc ,lo việc ăn uống thuốc men hằng ngày.may mà gia đình khá giả chứ k về nước sớm.\nThêm 1 vụ năm ngoái,1 anh Việt Nam lái xe đạp vì trời tuyết nên đóng băng mặt đường nên a ấy té làm 1 người bong gân tay.Thế là người ta bắt đền 80 man,người nhật tốt thì cũng tốt nhưng k phải ai cũng vậy.giáo viên tới tận nhà năng nỉ mà k ích gì mà còn thuê luật sư làm to chuyện nữa.Ở Việt Nam thì cái tính xuề xoà ẩu tả nó quen chứ qua đây lỡ có gì đền không nổi đâu nhé mọi người! Xin chú ý vì bản thân chính mình!","created_time":"2013-10-24T07:14:44+0000","updated_time":"2013-10-26T03:25:05+0000","likes":{"data":{"100005801442456":{"id":"100005801442456","name":"An Nguyen"},"1305472811":{"id":"1305472811","name":"Tuan Nguyen"},"100005903373573":{"id":"100005903373573","name":"HaLinh Phong Phan"},"100006095319933":{"id":"100006095319933","name":"Nam Khánh Nguyễn"},"100004362480675":{"id":"100004362480675","name":"Đi Tìm Thất Bại"},"100002137253818":{"id":"100002137253818","name":"Anh Khoa"},"100001695345798":{"id":"100001695345798","name":"Tyn Aki"},"100001526631937":{"id":"100001526631937","name":"Tường Oanh Mineko"},"100000971073873":{"id":"100000971073873","name":"Nam Trinh"},"1846809835":{"id":"1846809835","name":"Dorae Phương"},"100003005597243":{"id":"100003005597243","name":"Zany Royal"},"100002982264086":{"id":"100002982264086","name":"Danh Huong"},"100004360751785":{"id":"100004360751785","name":"Hà Nguyễn"},"100005446931997":{"id":"100005446931997","name":"Sakurasou San"},"100005417492772":{"id":"100005417492772","name":"Kim Yến"},"100002157379029":{"id":"100002157379029","name":"Nguyen Hai Dung"},"100002327743510":{"id":"100002327743510","name":"Tuan Thanh"},"100003173529851":{"id":"100003173529851","name":"Linh Duy Thuật"},"100004005510336":{"id":"100004005510336","name":"Minh Đức"},"100001458099624":{"id":"100001458099624","name":"Kham Pha"},"100004492933662":{"id":"100004492933662","name":"Sorakira Bui"},"1707142975":{"id":"1707142975","name":"Bùi Thu Hà"},"100002754998000":{"id":"100002754998000","name":"Nguyen Duc"},"100005707810047":{"id":"100005707810047","name":"Nghiên Thị Vân Anh"},"100002793054191":{"id":"100002793054191","name":"Lai Vuong"},"100004094371699":{"id":"100004094371699","name":"Hoàng Bá Phương"},"1416265619":{"id":"1416265619","name":"Starwar Bbj"},"1830001967":{"id":"1830001967","name":"Chiến Nguyễn"},"100001484541006":{"id":"100001484541006","name":"Quang Vũ"},"100006522340975":{"id":"100006522340975","name":"Đức Nguyễn"},"100000195299558":{"id":"100000195299558","name":"Giọt Sương Sớm Mai"},"100002446120607":{"id":"100002446120607","name":"Hoanhuy Luu"},"100006539769735":{"id":"100006539769735","name":"Rùa Nuna"},"100004715524978":{"id":"100004715524978","name":"Minh Chiến"},"100004055040287":{"id":"100004055040287","name":"Nguyễn Minh"},"100000339385551":{"id":"100000339385551","name":"Le Minh Trang"},"100001416272263":{"id":"100001416272263","name":"Mai PB"},"100000925189769":{"id":"100000925189769","name":"Fanzhen Zhensanj"},"100000022163023":{"id":"100000022163023","name":"Kafe Ore"},"100006539223553":{"id":"100006539223553","name":"Kỳ Nguyễn"},"100002451143782":{"id":"100002451143782","name":"New Light"},"100002937804655":{"id":"100002937804655","name":"Dương Nguyễn"},"1146680551":{"id":"1146680551","name":"優しい なぁ"},"100000328306722":{"id":"100000328306722","name":"Tran Ngoc Anh"},"100006767705219":{"id":"100006767705219","name":"Kim Liên"},"1023965040":{"id":"1023965040","name":"Juli KimChi"},"100001059086820":{"id":"100001059086820","name":"Nguyễn Thành Long"},"1822854513":{"id":"1822854513","name":"Sữa Chua Không Đường"},"100004016574848":{"id":"100004016574848","name":"Tùng Thật Thà"},"100000045271667":{"id":"100000045271667","name":"Nam Thai Nguyen"},"100003981681171":{"id":"100003981681171","name":"Moon Sún"},"100006940086648":{"id":"100006940086648","name":"Phòng Nhân Sự"}},"paging":{"cursors":{"after":"MTAwMDA1ODAxNDQyNDU2","before":"MTAwMDA1ODAxNDQyNDU2"},"next":"https://graph.facebook.com/229244010425617_745410275475652/likes?limit=1&summary=1&after=MTAwMDA1ODAxNDQyNDU2"},"summary":{"total_count":54}},"comments":{"data":{"745413318808681":{"id":"745413318808681","from":{"id":"100004398127401","name":"Đứng Dậy Vươn Vai"},"message":"Hay qúa","can_remove":false,"created_time":"2013-10-24T07:29:50+0000","like_count":0,"user_likes":false},"745434005473279":{"id":"745434005473279","from":{"id":"100004715524978","name":"Minh Chiến"},"message":"Nhat la vay sao .uoc j minh cung pi bong gan tay hjhj","can_remove":false,"created_time":"2013-10-24T08:50:26+0000","like_count":0,"user_likes":false},"745440518805961":{"id":"745440518805961","from":{"id":"100006248618563","name":"Momi Zi"},"message":"mềnh gặp hoài.đụng đến người nhật mệt lắm.ko dễ bỏ qua cho đâu","can_remove":false,"created_time":"2013-10-24T09:19:40+0000","like_count":1,"user_likes":false},"745441665472513":{"id":"745441665472513","from":{"id":"1830001967","name":"Chiến Nguyễn"},"message":"Lời khuyên bổ ích","can_remove":false,"created_time":"2013-10-24T09:25:19+0000","like_count":0,"user_likes":false},"745442885472391":{"id":"745442885472391","from":{"id":"100006248618563","name":"Momi Zi"},"message":"bình thường thì rất tử tế.nhưng một khi đã đụng chạm thì bị hành đến khi bản thân thoả mãn mới thôi.không chỉ riêng chuyện này mà trong công việc hay cuộc sống cũng vậy.bản thân người nhật mỗi khi bị đụng chạm là trái tim bằng hạt ớt.minh gặp hầu hết là vậy","can_remove":false,"created_time":"2013-10-24T09:30:01+0000","like_count":6,"user_likes":false},"745461372137209":{"id":"745461372137209","from":{"id":"100004088172713","name":"Vuong Thao"},"message":"Arigatou b nha","can_remove":false,"created_time":"2013-10-24T10:36:51+0000","like_count":0,"user_likes":false},"745491765467503":{"id":"745491765467503","from":{"id":"100002157379029","name":"Nguyen Hai Dung"},"message":"Hic hic dung day , neu bj cho nhat can thi tien den bu rat la nhieu ,","can_remove":false,"created_time":"2013-10-24T12:03:48+0000","like_count":0,"user_likes":false},"745586485458031":{"id":"745586485458031","from":{"id":"100001416272263","name":"Mai PB"},"message":"Hồi trước An Nguyen cũng đã có viết về việc đền bù này rồi, và lúc đó mình đã viết là thử đặt mình vào vị trí của người bị hại xem như thế nào. Bây giờ mình vẫn nói vậy. Họ bắt đền bù 80 vạn thì có nghĩa là họ bị thiệt hại ngần đó. Nếu như ở VN thì sao, tự dưng ra ngoài đường bị đâm xe gãy chân, bạn bè đến thăm chỉ biết tha thở số đen đúng không? Còn ở Nhật và các xã hội phát triển thì thế nào? Người bị hại phải được bồi thường. Còn người gia hại thì phải mua bảo hiểm. Hôm nay anh là người gia hại, nhưng lúc nào anh là người bị hại mới thấm thía.\nDu học sinh thì trước tiên phải mua bảo hiểm y tế. Thuê nhà thì có bảo hiểm thiệt hại nhà cửa. Kèm theo bảo hiểm này thì có bảo hiểm phụ không bắt buộc phải mua, ví dụ bảo hiểm bồi thường thiệt hại (làm chảy nước vào nhà hàng xóm, làm rơi đồ vào đầu người đi đường chẳng hạn). Cái bảo hiểm phụ này rất nên mua, vì nó có khả năng có phạm vi bảo hiểm rất lớn ngoài cái nhà của mình. Ví dụ có khả năng nó bồi thường cho tai nạn ngoài đường chẳng hạn. Nếu mua thì chịu khó xác nhận với công ty bảo hiểm hoặc công ty bất động sản.\nNgoài ra xe đạp thì cũng có loại bảo hiểm kèm theo xe đạp, hoặc loại \"bảo hiểm xe đạp\", đều là không bắt buộc mua. Ai cẩn thận thì có thể mua. Không thì đi lại hãy cẩn thận.\nHồi trước có chuyện kể là 1 học sinh cấp 3 vừa đi xe đạp vừa sử dụng điện thoại, đâm vào một người phữ trẻ làm người ta bị liệt nửa người, không đi làm được, phải đền bù vài ngàn vạn Yên. Người bố không chịu được sự cực khổ vì phải đền bù này, đã tự tử. Khi đó ông ấy có bảo hiểm nhân thọ nên gia đình đã dùng bảo hiểm này đền bù cho người kia. Nếu không có bảo hiểm nhân thọ thì cứ phải chịu vay nợ ngân hàng rồi trả dần đến thế hệ sau...","message_tags":[{"id":"100005801442456","name":"An Nguyen","type":"user","offset":10,"length":9}],"can_remove":false,"created_time":"2013-10-24T15:22:14+0000","like_count":8,"user_likes":false},"745625648787448":{"id":"745625648787448","from":{"id":"100001458099624","name":"Kham Pha"},"message":"Thằng kohai của mình chỉ chạm xe vào chân một người đi đường, cũng chả làm sao cả nhưng bị dẫn lên đồn giải quyết, mời cả thầy đến làm việc. Nạn nhân nằng nặc bảo là nó muốn ám sát mình. Cuối cùng may chỉ mất 5sen tiền đi khám.","can_remove":false,"created_time":"2013-10-24T16:38:28+0000","like_count":2,"user_likes":false},"745776985438981":{"id":"745776985438981","from":{"id":"100001622486348","name":"Tuan Lam"},"message":"nguoi nhat thj hau het dung den la an va ghe lam con minh bj dung thj tuj noa kiem cach xl de lan chon la chu yeu","can_remove":false,"created_time":"2013-10-24T22:50:18+0000","like_count":0,"user_likes":false},"746376898712323":{"id":"746376898712323","from":{"id":"100005903373573","name":"HaLinh Phong Phan"},"message":"cam on ban","can_remove":false,"created_time":"2013-10-26T03:25:05+0000","like_count":0,"user_likes":false}},"paging":{"cursors":{"after":"NzQ1NDEzMzE4ODA4Njgx","before":"NzQ1NDEzMzE4ODA4Njgx"},"next":"https://graph.facebook.com/229244010425617_745410275475652/comments?limit=1&summary=1&after=NzQ1NDEzMzE4ODA4Njgx"},"summary":{"order":"chronological","total_count":12}}}