{"id":"229244010425617_745536378796375","type":"photo","object_id":"172304362972944","picture":"https://fbcdn-photos-h-a.akamaihd.net/hphotos-ak-prn2/t1.0-0/1379321_172304362972944_1272836347_s.jpg","link":"https://www.facebook.com/photo.php?fbid=172304362972944&set=gm.745536378796375&type=1&relevant_count=1","from":{"id":"100005801442456","name":"An Nguyen"},"message":"TÌM HIỂU NHỮNG PHONG TỤC TẬP QUÁN CỦA NHẬT BẢN\r\n\r\nNhật bản có tổng cộng 47 đơn vị hành chính khác nhau, được gọi là 都道府県ーとどうふけん(1-1-2-43)\r\nCác số trong ngoặc tượng trưng cho số các địa phương ứng với số đơn vị.\r\n都 là tokyo ( 1 ) - gồm 23 quận\r\n道 là 北海道 ( 1 )\r\n府 là 2 thành phố 京都府và 大坂府(kyoto và osaka)\r\n県 gồm 43 đơn vị hành chính khác nhau như 愛知県、千葉県、...\r\n\r\nNếu các bạn thi 留学試験 có lựa 諸語科目 ( kiến thức tổng quát ) thì thường rất ra những phần này, bởi thế giờ mình sẽ cùng các bạn tìm hiểu những phong tục tập quán hay và lạ ở các địa phương , bài này sẽ thay cho các bài trước về \" BẠN CÓ BIẾT \" vì mình sẽ tìm các bài nói về phong tục,tập quán có kèm theo bài viết để tăng khả năng đọc hiểu cho mọi người, rồi từ đó biết thêm về cả địa lý nước Nhật.Nào cùng bắt đầu nhé!\r\n\r\n Bài 1: NGƯỜI NHẬT GHÉT SỬ DỤNG XE ĐẠP????\r\n\r\nChắc nghe có vẻ khó tin vì các bạn thấy hằng ngày họ sử dụng xe đạp đi chuyển rất nhiều,thế mà có 1 nơi họ lại không thích đấy! Đó là 長崎県ーながさきけん。\r\nLý do là thế nào nhỉ?hãy đọc bài viết dưới đây!\r\n\r\n古くから外国と貿易を行い、ハイカラなイメージのある長崎市。海外から新しいものが伝わるのも早かったはずなのだが、なぜか長崎市は自転車の数がダントツに少ないという。その理由は、長崎市の地形にあった。\r\n長崎市は海と山に狭まれていて、道路のうち8割が傾斜(けいしゃ)地なのだという。自転車の利用率が低いのは坂道(さかみち)が多いからだ。\r\nあまりに傾斜が急で、自転車も走行禁止になる道もあるというから、自転車で走行する際(きわ)の危険度は推して知るべし。市内の学校では、自転車通学を禁止しているところまであるそうだ。\r\n\r\nAi không hiểu cứ coppy và tra kanji nhé,lấy sự tò mò làm động lực học tập!!☆〜（ゝ。∂）","created_time":"2013-10-24T13:42:46+0000","updated_time":"2013-11-14T11:37:23+0000","likes":{"data":{"1318895018":{"id":"1318895018","name":"Van T Tran"},"100001365545442":{"id":"100001365545442","name":"Nguyễn Nam"},"100003011417151":{"id":"100003011417151","name":"Hue Kim"},"100005903373573":{"id":"100005903373573","name":"HaLinh Phong Phan"},"100004743935020":{"id":"100004743935020","name":"Thanh Huyen"},"100001257093338":{"id":"100001257093338","name":"Hanh Dang"},"100006738850876":{"id":"100006738850876","name":"Ho Tuan"},"1843294954":{"id":"1843294954","name":"Nguyen Thanh Van"},"100005801442456":{"id":"100005801442456","name":"An Nguyen"},"100001723862714":{"id":"100001723862714","name":"Bo Bien Vang"},"100001754136107":{"id":"100001754136107","name":"Nguyễn Tuấn Vũ"},"100006767705219":{"id":"100006767705219","name":"Kim Liên"},"100005144645210":{"id":"100005144645210","name":"Ngố YuuKi"},"100001458099624":{"id":"100001458099624","name":"Kham Pha"},"100002137253818":{"id":"100002137253818","name":"Anh Khoa"},"100004362480675":{"id":"100004362480675","name":"Đi Tìm Thất Bại"},"100000128242314":{"id":"100000128242314","name":"Nagayama Sei"},"100000284487802":{"id":"100000284487802","name":"Buu Lam Gia"},"100003702043787":{"id":"100003702043787","name":"Hằng Hanu"},"100004088172713":{"id":"100004088172713","name":"Vuong Thao"},"100003783699639":{"id":"100003783699639","name":"Tô Ngọc Ánh"},"100004251847599":{"id":"100004251847599","name":"Yuki Yuki"},"100002157379029":{"id":"100002157379029","name":"Nguyen Hai Dung"},"100003822434250":{"id":"100003822434250","name":"Sói Đây Gà Đâu"},"100001438932250":{"id":"100001438932250","name":"Luong Anh Nguyet"},"100004094371699":{"id":"100004094371699","name":"Hoàng Bá Phương"},"100003957878204":{"id":"100003957878204","name":"Ma Kết"},"100003981681171":{"id":"100003981681171","name":"Moon Sún"},"100003272242369":{"id":"100003272242369","name":"Shin Satoh"},"100000062884729":{"id":"100000062884729","name":"Huệ Ca"},"100001416272263":{"id":"100001416272263","name":"Mai PB"},"100005211189763":{"id":"100005211189763","name":"Oliveu Cchann"},"100000045271667":{"id":"100000045271667","name":"Nam Thai Nguyen"},"100003069824169":{"id":"100003069824169","name":"Quang Lê"},"100001663326777":{"id":"100001663326777","name":"Yuri Chan"},"100003837141956":{"id":"100003837141956","name":"Mai Hoàng"},"100001059086820":{"id":"100001059086820","name":"Nguyễn Thành Long"},"100002508122689":{"id":"100002508122689","name":"Vũ Mạnh Tuấn"}},"paging":{"cursors":{"after":"MTMxODg5NTAxOA==","before":"MTMxODg5NTAxOA=="},"next":"https://graph.facebook.com/229244010425617_745536378796375/likes?limit=1&summary=1&after=MTMxODg5NTAxOA%3D%3D"},"summary":{"total_count":38}},"comments":{"data":{"745537382129608":{"id":"745537382129608","from":{"id":"100005801442456","name":"An Nguyen"},"message":"Anh Mai PB Duỵet dùm em..khổ ghê đụng cái hú anh=)).để e làm nguyên 1 sẻrie về cái này a thấy sao?","message_tags":[{"id":"100001416272263","name":"Mai PB","type":"user","offset":4,"length":6}],"can_remove":false,"created_time":"2013-10-24T13:46:21+0000","like_count":0,"user_likes":false},"745538315462848":{"id":"745538315462848","from":{"id":"1023965040","name":"Juli KimChi"},"message":"Ad ởi viết về osaka đi.","can_remove":false,"created_time":"2013-10-24T13:49:21+0000","like_count":0,"user_likes":false},"745538925462787":{"id":"745538925462787","from":{"id":"100002375344981","name":"Trung Tran"},"message":"Dich het doan van nay ....ohlala.....","can_remove":false,"created_time":"2013-10-24T13:50:48+0000","like_count":0,"user_likes":false},"745540512129295":{"id":"745540512129295","from":{"id":"100001416272263","name":"Mai PB"},"message":"Ủa duyệt cái gì, An Nguyen? Viết được gì cứ viết đi chứ, sai nghiêm trọng mới sửa, chứ còn cảm nhận cá nhân thì không đặt nặng đúng sai ở đây.","message_tags":[{"id":"100005801442456","name":"An Nguyen","type":"user","offset":17,"length":9}],"can_remove":false,"created_time":"2013-10-24T13:53:03+0000","like_count":1,"user_likes":false},"745541002129246":{"id":"745541002129246","from":{"id":"100001416272263","name":"Mai PB"},"message":"Các mem cũng có thể cùng đóng góp, viết về thành phố mình được mà.","can_remove":false,"created_time":"2013-10-24T13:54:06+0000","like_count":1,"user_likes":false},"745542635462416":{"id":"745542635462416","from":{"id":"100005801442456","name":"An Nguyen"},"message":"Thấy mấy từ ( trong ngoăc chứ? ) mấy bạn hãy tra đi ,từ khoá đấy.","can_remove":false,"created_time":"2013-10-24T13:58:40+0000","like_count":0,"user_likes":false},"745544418795571":{"id":"745544418795571","from":{"id":"100000359762118","name":"Mi Tra"},"message":"Theo thống kê thì Nagasaki còn là tỉnh dùng taxi nhiều nhất nước Nhật. Lý do cũng là vì ... nhiều dốc quá!","can_remove":false,"created_time":"2013-10-24T14:03:15+0000","like_count":0,"user_likes":false},"745545748795438":{"id":"745545748795438","from":{"id":"100005801442456","name":"An Nguyen"},"message":"Chắc dân nagasaki đùi to như củ cải ấy nhỉ=))","can_remove":false,"created_time":"2013-10-24T14:05:59+0000","like_count":0,"user_likes":false},"745546598795353":{"id":"745546598795353","from":{"id":"1023965040","name":"Juli KimChi"},"message":"Bác ơi,  em Ko ở nhật. Ko bít gì nên Ko viết  đc.","can_remove":false,"created_time":"2013-10-24T14:08:33+0000","like_count":0,"user_likes":false},"745546855461994":{"id":"745546855461994","from":{"id":"100000359762118","name":"Mi Tra"},"message":"^^\nCái này để mình làm chuyến điều tra thực tế rồi về báo cáo :) \nThực tình là cũng muốn tới đây từ lâu rồi mà nghe chị bạn người Nagasaki kể chặng đường về quê của c ấy mà hết muốn đi.","can_remove":false,"created_time":"2013-10-24T14:09:10+0000","like_count":3,"user_likes":false},"745548222128524":{"id":"745548222128524","from":{"id":"100005801442456","name":"An Nguyen"},"message":"Chẳng lẽ hơn Đà Lạt nhỉ?tết nằm nào đi xe đạp đôi tí cắm đầu gốc cây =))","can_remove":false,"created_time":"2013-10-24T14:11:22+0000","like_count":2,"user_likes":false},"745560208793992":{"id":"745560208793992","from":{"id":"100002157379029","name":"Nguyen Hai Dung"},"message":"面白いです。ありがとうね 、","can_remove":false,"created_time":"2013-10-24T14:30:01+0000","like_count":1,"user_likes":false},"745568412126505":{"id":"745568412126505","from":{"id":"100001754136107","name":"Nguyễn Tuấn Vũ"},"message":"Nagasaki có biển đẹp, và nhiều tàu","can_remove":false,"created_time":"2013-10-24T14:49:43+0000","like_count":0,"user_likes":false},"745568452126501":{"id":"745568452126501","from":{"id":"100001754136107","name":"Nguyễn Tuấn Vũ"},"message":"nhiều ng trung","can_remove":false,"created_time":"2013-10-24T14:49:50+0000","like_count":0,"user_likes":false},"745609352122411":{"id":"745609352122411","from":{"id":"100002375344981","name":"Trung Tran"},"message":"Gio thay may ban noi ve dat nuoc nhat ..minh buon wa deeee...ngay xua cung da song o nhat roi...nhung chua di dc nhiu noi...gio thi hoi tiec......ma thoi...","can_remove":false,"created_time":"2013-10-24T15:54:22+0000","like_count":0,"user_likes":false},"745719122111434":{"id":"745719122111434","from":{"id":"100003171672878","name":"Tầu Heo"},"message":"Có chỗ k hiểu lăm nhug tra tu mới la hiểu luôn.tks a nhé","can_remove":false,"created_time":"2013-10-24T20:14:44+0000","like_count":2,"user_likes":false},"745794855437194":{"id":"745794855437194","from":{"id":"100005801442456","name":"An Nguyen"},"message":"Trước khi có được trạng thái hiểu con người ta luôn được đặt ở 1 ví trí là Không hiểu^^ nên chả có gì lạ.k cố cho nó thành hiểu thì cứ mãi là k hiểu thôi.cố đê!","can_remove":false,"created_time":"2013-10-24T23:55:56+0000","like_count":0,"user_likes":false},"746129012070445":{"id":"746129012070445","from":{"id":"100001912633316","name":"Du Ca"},"message":"CÓ lịch sử thông thương lâu đời với ngoại quốc, Nagasaki tự tạo cho mình một hình tượng năng động, luôn là vùng đất đầu tiên tiếp nhận những thứ mới lạ từ bên ngoài. Nhưng tại sao số lượng xe đạp ở đây lại ít đến vậy? Lý do chính là địa thế của Nagasaki.\nDải đất Nagasaki hẹp giữa núi và biển với 80% đường dốc. Nếu người dân sử dụng xe đạp sẽ rất chậm vì có quá nhiều dốc. \nCũng vì nhiều chỗ quá dốc buộc phải cấm xe đạp và biết được sự nguy hiểm khi sử dụng xe đạp, nhiều trường học trong thành phố còn có luật cấm đi xe đạp tới trường.\n\nDịch lướt, lược nhiều và tái cấu trúc nhiều :p","can_remove":false,"created_time":"2013-10-25T16:00:52+0000","like_count":3,"user_likes":false},"758050254211654":{"id":"758050254211654","from":{"id":"100005801442456","name":"An Nguyen"},"message":"Nè","can_remove":false,"created_time":"2013-11-14T10:48:39+0000","like_count":1,"user_likes":false},"758065830876763":{"id":"758065830876763","from":{"id":"100005801442456","name":"An Nguyen"},"message":"Cái này xếp vào phần Tìm hiểu những\nPhong tục tập quán , cái đó lại bỏ vào phần Văn hoá Nhật nhé mạnh!","can_remove":false,"created_time":"2013-11-14T11:37:23+0000","like_count":0,"user_likes":false}},"paging":{"cursors":{"after":"NzQ1NTM3MzgyMTI5NjA4","before":"NzQ1NTM3MzgyMTI5NjA4"},"next":"https://graph.facebook.com/229244010425617_745536378796375/comments?limit=1&summary=1&after=NzQ1NTM3MzgyMTI5NjA4"},"summary":{"order":"chronological","total_count":22}}}