{"id":"229244010425617_745511002132246","type":"link","picture":"https://fbexternal-a.akamaihd.net/app_full_proxy.php?app=350685531728&v=1&size=z&cksum=57cdc1d64ef04569293242cea73b0b6d&src=http%3A%2F%2Ferct.com%2F2-ThoVan%2F0-NBDuyTan%2F..%2FRosa-coralflowers.gif","link":"http://erct.com/2-ThoVan/0-NBDuyTan/Osaka_ky_su.htm","from":{"id":"100004393294754","name":"Le Chi Phan"},"message":"Osaka ký sự - Trông người mà nghĩ đến ta \n\nKo bít osaka bây giờ đây có còn như lời kể của tác giả từ năm 2006 này Ko. Mình thích nhất là được sống ở vùng như vầy. Cho dù có làm nhiều hơn cũng được.","created_time":"2013-10-24T12:51:52+0000","updated_time":"2013-10-25T11:13:43+0000","likes":{"data":{"100001458099624":{"id":"100001458099624","name":"Kham Pha"},"100000381394367":{"id":"100000381394367","name":"Thành Nguyễn"},"100001416272263":{"id":"100001416272263","name":"Mai PB"},"1023965040":{"id":"1023965040","name":"Juli KimChi"},"100005446931997":{"id":"100005446931997","name":"Sakurasou San"}},"paging":{"cursors":{"after":"MTAwMDAxNDU4MDk5NjI0","before":"MTAwMDAxNDU4MDk5NjI0"},"next":"https://graph.facebook.com/229244010425617_745511002132246/likes?limit=1&summary=1&after=MTAwMDAxNDU4MDk5NjI0"},"summary":{"total_count":5}},"comments":{"data":{"745518488798164":{"id":"745518488798164","from":{"id":"100005446931997","name":"Sakurasou San"},"message":"Osaka hài hòa một cách lạ lùng ...và con người cũng vậy ....Chuẩn nhất đó..KO cười nói Vô duyên như ỡ VN","can_remove":false,"created_time":"2013-10-24T13:05:29+0000","like_count":2,"user_likes":false},"745531142130232":{"id":"745531142130232","from":{"id":"1629517470","name":"Nguyen Thi Thanh Van"},"message":"ko dám đâu. Ng Osaka là bất lịch sự nhất, ồn ào nhất, soi mói chuyện ng khác nhất. Đó là đúc kết sau bao năm ở Osaka ... Chạy xe ngoài đường thì ẩu ko thể tả.","can_remove":false,"created_time":"2013-10-24T13:28:05+0000","like_count":1,"user_likes":false},"745539912129355":{"id":"745539912129355","from":{"id":"1023965040","name":"Juli KimChi"},"message":"Vậy a?","can_remove":false,"created_time":"2013-10-24T13:51:30+0000","like_count":0,"user_likes":false},"745539998796013":{"id":"745539998796013","from":{"id":"100005446931997","name":"Sakurasou San"},"message":"ha ha...chắc chỵ lăn lộn nhiều...lên mấy gặp mấy cái đó ..em ỡ Higashiosaka-shi thỳ yên bình lắm..nói chung là người nhật hơn Người Vn nhiều","can_remove":false,"created_time":"2013-10-24T13:51:46+0000","like_count":0,"user_likes":false},"745540208795992":{"id":"745540208795992","from":{"id":"1023965040","name":"Juli KimChi"},"message":"Oh!","can_remove":false,"created_time":"2013-10-24T13:52:18+0000","like_count":0,"user_likes":false},"745543222129024":{"id":"745543222129024","from":{"id":"1629517470","name":"Nguyen Thi Thanh Van"},"message":"Tại chồng mình là ng Tokyo nên rất ghét cái kiểu ồn ào của ng Osaka. Mẹ chồng mình cũng thế. Ng Osaka ko giáo dục con đàng hoàng như ng Tokyo.","can_remove":false,"created_time":"2013-10-24T14:00:15+0000","like_count":0,"user_likes":false},"745545335462146":{"id":"745545335462146","from":{"id":"100001416272263","name":"Mai PB"},"message":"Bài viết trên so sánh Nhật Mỹ với Osaka đại diện cho Nhật Bản, nên nhiều điều là không phải chỉ riêng của Osaka. Còn so sánh Tokyo Osaka thì đây là một điều khó nói, có cái hay có cái dở, chẳng khác gì muốn so sánh các thành phố ở VN cả. Thực sự Osaka hay dở thế nào thì có lẽ không nên nhìn chung chung. Có mấy điều mà ai cũng công nhận về Osaka là như sau:\n- Người Osaka sởi lởi hay nói (lắm mồm), hơn hẳn người vùng Tokyo ít nói lạnh lùng.\n- Món ăn Osaka rất ngon.\n- Nhà cửa có vẻ được xây thấp.\n- Hệ thống tàu vô cùng phức tạp khó hiểu.","can_remove":false,"created_time":"2013-10-24T14:05:24+0000","like_count":3,"user_likes":false},"745795465437133":{"id":"745795465437133","from":{"id":"100000687662713","name":"Vu Thi Man"},"message":"Vẫn còn nguyên thế bạn ạ, không thay đổi gì nhiều. Mình còn mới phát hiện ra ở gần ga Osaka có 1 con phố chuyên bán hàng ăn kiểu như phố Tống Duy Tân ở Hà Nội, nhưng lịch sự và quy mô hơn nhiều. Có nhiều cái đúng là ấn tượng mãi không thôi","can_remove":false,"created_time":"2013-10-24T23:59:10+0000","like_count":2,"user_likes":false},"745796708770342":{"id":"745796708770342","from":{"id":"100000687662713","name":"Vu Thi Man"},"message":"Mình chỉ công nhận cái ý cuối của bạn Mai PB còn những ý trên mình không đưa ra nhận xét. Ở ga Umeda, đến người dân Nhật cũng không thể lý giải nổi các tuyến đường huống chi là người nước ngoài. Đã rất nhiều lần, mình đứng ở mặt đất để định vị vị trí, nhưng đi xuống hầm vẫn không thể lý giải nổi, sau lại về nhờ Google map để xác định xem tại sao lại như thế mới hình dung ra được 1 phần.","message_tags":[{"id":"100001416272263","name":"Mai PB","type":"user","offset":38,"length":6}],"can_remove":false,"created_time":"2013-10-25T00:03:18+0000","like_count":1,"user_likes":false},"745991968750816":{"id":"745991968750816","from":{"id":"100006738850876","name":"Ho Tuan"},"message":"Đấy là do các bạn không định hướng được các tuyến mình cần đi thôi, đâu khó tới vậy đâu nhỉ, mình cách Umeda có 10p đi tàu, mình cũng thường xuyên tới Umeda mà, o phức tạp tới vậy đâu.","can_remove":false,"created_time":"2013-10-25T11:13:43+0000","like_count":0,"user_likes":false}},"paging":{"cursors":{"after":"NzQ1NTE4NDg4Nzk4MTY0","before":"NzQ1NTE4NDg4Nzk4MTY0"},"next":"https://graph.facebook.com/229244010425617_745511002132246/comments?limit=1&summary=1&after=NzQ1NTE4NDg4Nzk4MTY0"},"summary":{"order":"chronological","total_count":10}}}