{"id":"229244010425617_745515092131837","type":"link","picture":"https://fbexternal-a.akamaihd.net/app_full_proxy.php?app=350685531728&v=1&size=z&cksum=adc32a45cd6021eb36a4b07916bfaf07&src=http%3A%2F%2Fupload.wikimedia.org%2Fwikipedia%2Fcommons%2Fthumb%2F4%2F4b%2FOsaka_montage.jpg%2F220px-Osaka_montage.jpg","link":"http://vi.m.wikipedia.org/wiki/%C5%8Csaka_(th%C3%A0nh_ph%E1%BB%91)","from":{"id":"100004393294754","name":"Le Chi Phan"},"message":"Nhiều người phát cáu lên khi người Tokyo có thể đem Osaka ra làm trò cười chỉ dựa vào 1 chương trình TV kể về thành phố của họ. Một ví dụ rõ ràng của chuyện này là khi nghệ sĩ hài kịch ở Tokyo (sinh ra ở Shikoku) là Saibara Rieko, trên một chương trình truyền hình, đã cảnh báo rằng ai muốn đến Osaka thì nên biết nước máy ở đó rất dơ bẩn và không nên uống. Điều này đã tác động mạnh tới Công ty cấp nước Osaka. Họ đã mời Saibara đến Osaka để thử một show diễn: bịt mắt bà lại và đố bà có thể nhận ra nước máy ở Osaka với nước máy ở Tokyo và nước khoáng. Trò thử này được chiếu trên tivi, nhưng Công ty cấp nước Osaka đã phải thất vọng vì Saibara đã nhận ra nước ở Osaka. Tuy nhiên, một lời xin lỗi được đưa ra và Saibara nói rằng nước ở Osaka cũng không tệ lắm.","created_time":"2013-10-24T13:01:03+0000","updated_time":"2013-10-24T14:36:13+0000","likes":{"data":{"100006738850876":{"id":"100006738850876","name":"Ho Tuan"},"100001458099624":{"id":"100001458099624","name":"Kham Pha"},"100001631115882":{"id":"100001631115882","name":"Shin Chan VN Sasuke"},"100001416272263":{"id":"100001416272263","name":"Mai PB"},"100006504133664":{"id":"100006504133664","name":"ʚɞTiểu Tử Ngang Ngạnhʚɞ"},"100005801442456":{"id":"100005801442456","name":"An Nguyen"},"100000329191240":{"id":"100000329191240","name":"Mai Tran"},"100005440689746":{"id":"100005440689746","name":"Trang Mapy"},"100005446931997":{"id":"100005446931997","name":"Sakurasou San"},"100000603915176":{"id":"100000603915176","name":"悪いな ぁ"}},"paging":{"cursors":{"after":"MTAwMDA2NzM4ODUwODc2","before":"MTAwMDA2NzM4ODUwODc2"},"next":"https://graph.facebook.com/229244010425617_745515092131837/likes?limit=1&summary=1&after=MTAwMDA2NzM4ODUwODc2"},"summary":{"total_count":10}},"comments":{"data":{"745518568798156":{"id":"745518568798156","from":{"id":"100004393294754","name":"Le Chi Phan"},"message":"Đọc xong ngẫm lại những chuyện trong nước xảy ra gần đây thấy mình xử lý theo kiểu 36 kế tẩu vì thượng sách Ko hà. Ko mấy ai dám đối mặt hết. Lấp liếm cho qua rồi thôi.","can_remove":false,"created_time":"2013-10-24T13:05:36+0000","like_count":3,"user_likes":false},"745535148796498":{"id":"745535148796498","from":{"id":"100000329191240","name":"Mai Tran"},"message":"Quách Thiểu Atsushi Sengen ơi câu chuyện tớ kể hôm trước này :\">","message_tags":[{"id":"1702460232","name":"Quách Thiểu","type":"user","offset":0,"length":11},{"id":"100003519276305","name":"Atsushi Sengen","type":"user","offset":12,"length":14}],"can_remove":false,"created_time":"2013-10-24T13:39:42+0000","like_count":0,"user_likes":false},"745535502129796":{"id":"745535502129796","from":{"id":"100005801442456","name":"An Nguyen"},"message":"Phân chia đối xử làm gì! Đâu cũng một nước cả.Việt Nam chúng ta cũng nên ngẫm nghĩ nhiều hơn","can_remove":false,"created_time":"2013-10-24T13:40:31+0000","like_count":0,"user_likes":false},"745542135462466":{"id":"745542135462466","from":{"id":"1023965040","name":"Juli KimChi"},"message":"https://m.facebook.com/?_rdr#!/story.php?story_fbid=10200354900509820&substory_index=0&id=1674099665&__user=1023965040","can_remove":false,"created_time":"2013-10-24T13:57:30+0000","like_count":0,"user_likes":false},"745562265460453":{"id":"745562265460453","from":{"id":"100001416272263","name":"Mai PB"},"message":"Đọc cái này cho vui: kết quả phỏng vấn người Tokyo về hình ảnh cảm nhận (không nhất thiết là cảm nhận thực tế) với Osaka.\nhttp://ranking.goo.ne.jp/ranking/999/U7IY52uo_2D-/","can_remove":false,"created_time":"2013-10-24T14:36:13+0000","like_count":2,"user_likes":false}},"paging":{"cursors":{"after":"NzQ1NTE4NTY4Nzk4MTU2","before":"NzQ1NTE4NTY4Nzk4MTU2"},"next":"https://graph.facebook.com/229244010425617_745515092131837/comments?limit=1&summary=1&after=NzQ1NTE4NTY4Nzk4MTU2"},"summary":{"order":"chronological","total_count":5}}}