{"id":"229244010425617_745838125432867","type":"status","from":{"id":"100000064686295","name":"Huy Roli"},"message":"Các anh chị cho em hỏi câu này dịch thế nào à, đoạn đầu thì đại loại như vợ anh bị mắc chứng bệnh loạn thần kinh, còn đoàn sau em ko hiểu lắm\n奥さんがノイローゼになっちゃって帰国した人もいたらしいぜ","created_time":"2013-10-25T02:02:58+0000","updated_time":"2013-10-26T04:56:33+0000","likes":{"data":{"100000027754899":{"id":"100000027754899","name":"Hoang Van Ba"}},"paging":{"cursors":{"after":"MTAwMDAwMDI3NzU0ODk5","before":"MTAwMDAwMDI3NzU0ODk5"}},"summary":{"total_count":1}},"comments":{"data":{"745852115431468":{"id":"745852115431468","from":{"id":"100000383155614","name":"Phạm Thúc Hưng"},"message":"đoạn sau kiểu : hình như cũng có người đã về nước","can_remove":false,"created_time":"2013-10-25T02:49:31+0000","like_count":0,"user_likes":false},"745861218763891":{"id":"745861218763891","from":{"id":"100004251279517","name":"Việt Nam Nhật Bản"},"message":"dịch thế thì 2 đoạn chả liên quan","can_remove":false,"created_time":"2013-10-25T03:06:21+0000","like_count":0,"user_likes":false},"745875118762501":{"id":"745875118762501","from":{"id":"100000383155614","name":"Phạm Thúc Hưng"},"message":"cái đấy lại tùy vào ngữ cảnh","can_remove":false,"created_time":"2013-10-25T03:49:14+0000","like_count":0,"user_likes":false},"745878085428871":{"id":"745878085428871","from":{"id":"100004482187943","name":"Bùi Thành Chung"},"message":"Ban phai up ca doan truoc len de biet ngu canh nua. Minh thi hieu the nay: Co nguoi con phai ve nuoc vi Vo anh ta bi mac chung tram cam day!","can_remove":false,"created_time":"2013-10-25T03:57:05+0000","like_count":2,"user_likes":false},"745881168761896":{"id":"745881168761896","from":{"id":"100000383155614","name":"Phạm Thúc Hưng"},"message":"Còn mình lại hiểu kiểu bà chủ nhà bị thần kinh chập chập, cũng có mấy đứa thuê phòng bỏ về nước rồi :))","can_remove":false,"created_time":"2013-10-25T04:11:06+0000","like_count":0,"user_likes":false},"745898732093473":{"id":"745898732093473","from":{"id":"100000064686295","name":"Huy Roli"},"message":"đây. đoạn hội thoại trong sách nó như thế này này","can_remove":false,"created_time":"2013-10-25T05:16:03+0000","like_count":1,"user_likes":false},"745904185426261":{"id":"745904185426261","from":{"id":"1400326262","name":"Matsumoto Soutarou"},"message":"hình như đoạn sau là ông chồng sắp điên vì công việc nhiều :D còn cái câu nói về bà vợ cũng không hiểu lắm :D chắc là cái công ty toàn người đã điên và sắp điên","can_remove":false,"created_time":"2013-10-25T05:40:39+0000","like_count":1,"user_likes":false},"745920808757932":{"id":"745920808757932","from":{"id":"100000027754899","name":"Hoang Van Ba"},"message":":) vế trước nữa chắc là vẫn còn và đề cập tới cv của vk ck nhà 深沢","can_remove":false,"created_time":"2013-10-25T07:09:09+0000","like_count":0,"user_likes":false},"745921738757839":{"id":"745921738757839","from":{"id":"100000027754899","name":"Hoang Van Ba"},"message":"Mình thử dịch cái :)\nCũng có ng về nước vì cv bận rộn đến phát khùng rồi đấy :)","can_remove":false,"created_time":"2013-10-25T07:12:53+0000","like_count":0,"user_likes":false},"745926352090711":{"id":"745926352090711","from":{"id":"1575796946","name":"Bich Ptn"},"message":"Theo mình thì Fukazawa than thở là bà vợ cùng về nước với mình nhưng có vẻ bà ấy thích bên kia hơn. Do đó Kosaka an ủi là thế còn may vì có ng vợ ở bên đó phát điên nên phải về nước. Xong Fukazawa lại tiếp tục than thở về việc mình mới là ng phải phát điên vì bận rộn...","can_remove":false,"created_time":"2013-10-25T07:31:54+0000","like_count":1,"user_likes":false},"745975645419115":{"id":"745975645419115","from":{"id":"100004482187943","name":"Bùi Thành Chung"},"message":"A: a, lâu k gặp, khoẻ ko?\nB: ờ...\nA: bên đấy thế nào?\nA: ôi, mệt lắm. K trụ đc nữa rồi\nB: thế à, vơ mày thì sao\nA: lần này thì cùng trơ về với nhau đấy nhưng bà ấy có vẻ thích bên kia\nB: tốt rồi còn gì. Có người còn phải về nước vì vợ nó bi tram cam rồi đấy.\nA: à, tao biết. Nhưng mà tao săp phát điên đến nơi rồi đây\nB: bận thế cơ à?\nA: ờ, vì lần này bả định rủ thêm người...","can_remove":false,"created_time":"2013-10-25T10:23:48+0000","like_count":3,"user_likes":false},"745995778750435":{"id":"745995778750435","from":{"id":"1400326262","name":"Matsumoto Soutarou"},"message":"câu cuối hình như dịch không chuẩn, ông Fukazawa mới là người định yêu cầu tăng thêm nhân viên","can_remove":false,"created_time":"2013-10-25T11:26:42+0000","like_count":1,"user_likes":false},"746011008748912":{"id":"746011008748912","from":{"id":"100000064686295","name":"Huy Roli"},"message":"Bạn Bùi Thành Chung có vẻ dịch hay nhất, không biết anh nào còn cho ý kiến không nhỉ","message_tags":[{"id":"100004482187943","name":"Bùi Thành Chung","type":"user","offset":4,"length":15}],"can_remove":false,"created_time":"2013-10-25T12:09:25+0000","like_count":0,"user_likes":false},"746116698738343":{"id":"746116698738343","from":{"id":"100001416272263","name":"Mai PB"},"message":"Sửa câu cuối của Bùi Thành Chung bằng ý của Kukimoto Soutarou là chuẩn rồi. Ngoài ra nên thống nhất ノイローゼ, lúc thì điên, lúc thì trầm cảm là không được. :-) Trầm cảm có lẽ là thích hợp hơn.","message_tags":[{"id":"100004482187943","name":"Bùi Thành Chung","type":"user","offset":17,"length":15},{"id":"1400326262","name":"Kukimoto Soutarou","type":"user","offset":44,"length":17}],"can_remove":false,"created_time":"2013-10-25T15:37:47+0000","like_count":2,"user_likes":false},"746149725401707":{"id":"746149725401707","from":{"id":"1400326262","name":"Matsumoto Soutarou"},"message":"ううん　＝　いいえ nên dịch là không khỏe","can_remove":false,"created_time":"2013-10-25T16:49:25+0000","like_count":0,"user_likes":false},"746393038710709":{"id":"746393038710709","from":{"id":"683231044","name":"Hoàng Hải Đăng"},"message":"Bạn ơi cho mình hỏi sách bạn là sách gì thế","can_remove":false,"created_time":"2013-10-26T04:17:49+0000","like_count":0,"user_likes":false},"746405535376126":{"id":"746405535376126","from":{"id":"100000064686295","name":"Huy Roli"},"message":"Business pratical japanese, search phat ra ngay","can_remove":false,"created_time":"2013-10-26T04:56:33+0000","like_count":0,"user_likes":false}},"paging":{"cursors":{"after":"NzQ1ODUyMTE1NDMxNDY4","before":"NzQ1ODUyMTE1NDMxNDY4"},"next":"https://graph.facebook.com/229244010425617_745838125432867/comments?limit=1&summary=1&after=NzQ1ODUyMTE1NDMxNDY4"},"summary":{"order":"chronological","total_count":17}}}