{"id":"229244010425617_746030632080283","type":"status","from":{"id":"100002290906582","name":"Kanashimi No Yukue"},"message":"Hiện tại mình thấy nhiều bạn muốn học tiếng nhật nhưng lại không có ý định đi học trung tâm thế nên mình muốn mở lớp giúp đỡ cho những bạn bắt đầu học hoặc có ý định ôn thi N5. Mình cũng có thể ôn N4 cho các bạn nhưng hiện tại mình chưa có ý định mở lớp N4.\nMình định mở lớp tầm 10-15 người, dự định sẽ chỉ thu mỗi người 10k/ buổi để chi trả tiền thuê phòng học. Vì dự định là để giúp đỡ mọi người học là chính nên nếu bạn nào quan tâm thì comment ở đây hoặc inbox cho mình nhé.\n\nMình ở HN, dự định sẽ mở lớp tầm buổi chiều và ở gần trường Kim Liên nhé\n\nCảm ơn vì đã đọc","created_time":"2013-10-25T13:00:10+0000","updated_time":"2013-11-04T17:53:48+0000","likes":{"data":{"100006807030214":{"id":"100006807030214","name":"Thúy Phạm"},"100000141968619":{"id":"100000141968619","name":"Chacha Bubu"},"100000359762118":{"id":"100000359762118","name":"Mi Tra"},"100003209298923":{"id":"100003209298923","name":"Phuongcham Nguyen"},"100005688424533":{"id":"100005688424533","name":"Nhật Úc Du Học"},"100000299405036":{"id":"100000299405036","name":"Tú Anhh"},"100004249722210":{"id":"100004249722210","name":"Lật Đật"},"100000381394367":{"id":"100000381394367","name":"Thành Nguyễn"},"100001755012731":{"id":"100001755012731","name":"Ma Tran"},"100002871405403":{"id":"100002871405403","name":"Thach Sanh"},"100005013365720":{"id":"100005013365720","name":"Hoàng BáCh"},"100002793054191":{"id":"100002793054191","name":"Lai Vuong"},"100004716640495":{"id":"100004716640495","name":"Thúy An Dương"},"100000184434912":{"id":"100000184434912","name":"Trần Tráng"},"100006577271694":{"id":"100006577271694","name":"Hằng Bill"},"100003621566393":{"id":"100003621566393","name":"Phương Nam Nguyễn"},"100003310716068":{"id":"100003310716068","name":"Lân Mỹ Nhân"},"100001122451473":{"id":"100001122451473","name":"Lavender Cullen"},"100000427448138":{"id":"100000427448138","name":"Anh Tuan Pham"},"1305472811":{"id":"1305472811","name":"Tuan Nguyen"},"100001723862714":{"id":"100001723862714","name":"Bo Bien Vang"},"1830667446":{"id":"1830667446","name":"Bùi Quỳnh Hoa"},"100004147083424":{"id":"100004147083424","name":"Chuyền"},"100001024733529":{"id":"100001024733529","name":"Đầu Heo"},"100000383155614":{"id":"100000383155614","name":"Phạm Thúc Hưng"},"100002904984187":{"id":"100002904984187","name":"Thuy Nguyen"},"100003262381147":{"id":"100003262381147","name":"Venusstar Dang"},"100003171672878":{"id":"100003171672878","name":"Tầu Heo"},"100003102443177":{"id":"100003102443177","name":"Vu Keytop"},"100003005597243":{"id":"100003005597243","name":"Zany Royal"},"100000219148071":{"id":"100000219148071","name":"Anh Còi"},"100004409731083":{"id":"100004409731083","name":"Đô Trong Nghia"},"100005707810047":{"id":"100005707810047","name":"Nghiên Thị Vân Anh"},"100002002392998":{"id":"100002002392998","name":"Thuy Linh Nguyen"},"100006111728204":{"id":"100006111728204","name":"La Ka Ta Tu"},"100001416272263":{"id":"100001416272263","name":"Mai PB"},"100004889430124":{"id":"100004889430124","name":"Quiet Man"},"100004240265206":{"id":"100004240265206","name":"Hạnh SuSu"},"100000369027683":{"id":"100000369027683","name":"Huyen Anton"},"100000366780924":{"id":"100000366780924","name":"Tiêu Siêu Điên"},"100003143578550":{"id":"100003143578550","name":"Vn Tim"},"100003733581822":{"id":"100003733581822","name":"Tàu Lu"},"100003670920063":{"id":"100003670920063","name":"Hoàng Dung"},"100003513323831":{"id":"100003513323831","name":"Trần Phương"},"100001754136107":{"id":"100001754136107","name":"Nguyễn Tuấn Vũ"},"100002589963683":{"id":"100002589963683","name":"Hà Văn Tuấn"},"100006767705219":{"id":"100006767705219","name":"Kim Liên"},"100001686456421":{"id":"100001686456421","name":"Phạm Diệu"},"100001447641416":{"id":"100001447641416","name":"Lê Linh"},"100003235211481":{"id":"100003235211481","name":"Huyền Ngố"},"1061065777":{"id":"1061065777","name":"Xoắn Quẩy"},"100000603915176":{"id":"100000603915176","name":"悪いな ぁ"},"100005503388025":{"id":"100005503388025","name":"Quynh Jhvnh"},"100003616116150":{"id":"100003616116150","name":"Nguyễn Phúc Tuấn"},"100006539775885":{"id":"100006539775885","name":"Kỹ Thuật Hải Nam"},"100001651634648":{"id":"100001651634648","name":"Divine ExorcisTx"},"100000347908720":{"id":"100000347908720","name":"Linh Thảo"},"100002508122689":{"id":"100002508122689","name":"Vũ Mạnh Tuấn"},"100001458099624":{"id":"100001458099624","name":"Kham Pha"},"100004747622463":{"id":"100004747622463","name":"Tuan Phuong"},"100004875961008":{"id":"100004875961008","name":"Hằng Thiên"},"100001083191089":{"id":"100001083191089","name":"Tran Xuan Tien"}},"paging":{"cursors":{"after":"MTAwMDA2ODA3MDMwMjE0","before":"MTAwMDA2ODA3MDMwMjE0"},"next":"https://graph.facebook.com/229244010425617_746030632080283/likes?limit=1&summary=1&after=MTAwMDA2ODA3MDMwMjE0"},"summary":{"total_count":64}},"comments":{"data":{"746031632080183":{"id":"746031632080183","from":{"id":"100004875961008","name":"Hằng Thiên"},"message":"pạn ở đâu thế. nếu có lớp thì pạn nt mình bk vs nha. thanks 01699211506. Mình tên hằng","can_remove":false,"created_time":"2013-10-25T13:02:47+0000","like_count":1,"user_likes":false},"746031965413483":{"id":"746031965413483","from":{"id":"100002290906582","name":"Kanashimi No Yukue"},"message":"mình ở HN, dự định sẽ mở lớp vào tầm buổi chiều, chỗ thuê chắc là sẽ ở gần trường Kim Liên :)","can_remove":false,"created_time":"2013-10-25T13:03:42+0000","like_count":2,"user_likes":false},"746032225413457":{"id":"746032225413457","from":{"id":"100002508122689","name":"Vũ Mạnh Tuấn"},"message":"Giang Lê Sahara Vương : 見てみよう","message_tags":[{"id":"100004628590172","name":"Giang Lê","type":"user","offset":0,"length":8},{"id":"100002839170200","name":"Sahara Vương","type":"user","offset":9,"length":12}],"can_remove":false,"created_time":"2013-10-25T13:04:46+0000","like_count":3,"user_likes":false},"746032628746750":{"id":"746032628746750","from":{"id":"100003170058959","name":"Teru Teru Bozu"},"message":"Mình muốn học N4 bạn ơi. ;)","can_remove":false,"created_time":"2013-10-25T13:06:09+0000","like_count":1,"user_likes":false},"746032972080049":{"id":"746032972080049","from":{"id":"100002290906582","name":"Kanashimi No Yukue"},"message":"học N4 thì cứ từ từ nhé ^^ hiện tại mình mở lớp bắt đầu với N5 để dạy thử đã ^^","can_remove":false,"created_time":"2013-10-25T13:07:07+0000","like_count":2,"user_likes":false},"746033418746671":{"id":"746033418746671","from":{"id":"100002839170200","name":"Sahara Vương"},"message":"Vũ Mạnh Tuấn: :3 Trong tương lai gần chưa có ý định :))","message_tags":[{"id":"100002508122689","name":"Vũ Mạnh Tuấn","type":"user","offset":0,"length":12}],"can_remove":false,"created_time":"2013-10-25T13:08:14+0000","like_count":2,"user_likes":false},"746033952079951":{"id":"746033952079951","from":{"id":"100001651634648","name":"Divine ExorcisTx"},"message":"c ui lúc nào có t/g và địa điểm cụ thể thì inbox e vs ạ. mà trg kim liên ở đâu ạ?","can_remove":false,"created_time":"2013-10-25T13:09:09+0000","like_count":1,"user_likes":false},"746034395413240":{"id":"746034395413240","from":{"id":"100002290906582","name":"Kanashimi No Yukue"},"message":"ok em ^^ trường Kim Liên ở gần Hồ Đắc Di đó em :)","can_remove":false,"created_time":"2013-10-25T13:10:09+0000","like_count":2,"user_likes":false},"746036258746387":{"id":"746036258746387","from":{"id":"100002508122689","name":"Vũ Mạnh Tuấn"},"message":"Giang Lê: ừ. nếu có đk thì đi học, free mà :))","message_tags":[{"id":"100004628590172","name":"Giang Lê","type":"user","offset":0,"length":8}],"can_remove":false,"created_time":"2013-10-25T13:12:58+0000","like_count":2,"user_likes":false},"746036528746360":{"id":"746036528746360","from":{"id":"100002508122689","name":"Vũ Mạnh Tuấn"},"message":"Sahara Vương: chị thì bá đạo tàu khựa rồi :))","message_tags":[{"id":"100002839170200","name":"Sahara Vương","type":"user","offset":0,"length":12}],"can_remove":false,"created_time":"2013-10-25T13:13:18+0000","like_count":2,"user_likes":false},"746036738746339":{"id":"746036738746339","from":{"id":"100002839170200","name":"Sahara Vương"},"message":"Ế tụi này sao cứ định kiến với chị thế nhờ -_-","can_remove":false,"created_time":"2013-10-25T13:14:07+0000","like_count":0,"user_likes":false},"746036968746316":{"id":"746036968746316","from":{"id":"100002508122689","name":"Vũ Mạnh Tuấn"},"message":":)) định kiến đâu, em đang khen mà . chị cứ tưởng tượng hê hê :D","can_remove":false,"created_time":"2013-10-25T13:14:49+0000","like_count":1,"user_likes":false},"746037505412929":{"id":"746037505412929","from":{"id":"100002839170200","name":"Sahara Vương"},"message":"Hờ hờ kiểu gì chị cũng theo Jap tiếp, vài năm nữa ngôn tình TQ quá đát còn nhảy vô manga được :v :v","can_remove":false,"created_time":"2013-10-25T13:16:32+0000","like_count":0,"user_likes":false},"746041458745867":{"id":"746041458745867","from":{"id":"100002508122689","name":"Vũ Mạnh Tuấn"},"message":":)) chúc chị thành công . lúc nào thành dịch giả nổi tiếng đừng quên bọn e, nhớ kí tặng đấy :))","can_remove":false,"created_time":"2013-10-25T13:21:44+0000","like_count":0,"user_likes":false},"746041678745845":{"id":"746041678745845","from":{"id":"100001447641416","name":"Lê Linh"},"message":"oa :-o cho t đăng kí với, tự học ở nhà lười quá :'(","can_remove":false,"created_time":"2013-10-25T13:22:09+0000","like_count":0,"user_likes":false},"746042138745799":{"id":"746042138745799","from":{"id":"100002290906582","name":"Kanashimi No Yukue"},"message":"ok nếu đủ tầm 10-15 người thì mình sẽ tổ chức nhé ^^","can_remove":false,"created_time":"2013-10-25T13:22:47+0000","like_count":2,"user_likes":false},"746042422079104":{"id":"746042422079104","from":{"id":"100001447641416","name":"Lê Linh"},"message":"khi nào học thì báo t với nhé :D, thank bạn","can_remove":false,"created_time":"2013-10-25T13:23:33+0000","like_count":0,"user_likes":false},"746043238745689":{"id":"746043238745689","from":{"id":"100002290906582","name":"Kanashimi No Yukue"},"message":"ok cậu ^^ \nà nhưng nói trước là mình dự định thu mỗi người 10k để trả tiền phòng nhưng thực chất tiền phòng bn mình chưa rõ, để sau này hỏi nếu mà cao hơn hay ít bạn học quá có khi phải tăng lên 15k :(","can_remove":false,"created_time":"2013-10-25T13:24:58+0000","like_count":2,"user_likes":false},"746043932078953":{"id":"746043932078953","from":{"id":"100001458099624","name":"Kham Pha"},"message":"Bạn ấy đã có lòng tốt vậy, mọi người nên biết trân trọng. Có gì hãy chủ động liên lạc giúp đỡ, đừng để bạn ấy phải lo hết, vất vả ra :)","can_remove":false,"created_time":"2013-10-25T13:25:49+0000","like_count":3,"user_likes":false},"746050732078273":{"id":"746050732078273","from":{"id":"100002290906582","name":"Kanashimi No Yukue"},"message":"nếu thấy đông người đk có thể mình sẽ mở 2 lớp sáng và chiều để tiện cho mọi người nhé ^^","can_remove":false,"created_time":"2013-10-25T13:40:08+0000","like_count":0,"user_likes":false},"746051912078155":{"id":"746051912078155","from":{"id":"100004360751785","name":"Hà Nguyễn"},"message":"aaaaaaaaa e mới di cư từ hà nội về quê, tiếc quá :(, chả có nhẽ lại khăn gói lên thủ đô nhỉ? tự học ko có khí thế, cứ lười dần đều hic","can_remove":false,"created_time":"2013-10-25T13:42:48+0000","like_count":0,"user_likes":false},"746053018744711":{"id":"746053018744711","from":{"id":"100002290906582","name":"Kanashimi No Yukue"},"message":"quá đen cho em :v","can_remove":false,"created_time":"2013-10-25T13:45:11+0000","like_count":0,"user_likes":false},"746053062078040":{"id":"746053062078040","from":{"id":"100002589963683","name":"Hà Văn Tuấn"},"message":":D","can_remove":false,"created_time":"2013-10-25T13:45:19+0000","like_count":0,"user_likes":false},"746054692077877":{"id":"746054692077877","from":{"id":"100002290906582","name":"Kanashimi No Yukue"},"message":"Mochi Sweets cảm ơn bạn :) bởi vì dù sao mình cũng thích dạy, coi như để tự củng cố kiến thức cho bản thân luôn :)","message_tags":[{"id":"100006767705219","name":"Mochi Sweets","type":"user","offset":0,"length":12}],"can_remove":false,"created_time":"2013-10-25T13:48:43+0000","like_count":1,"user_likes":false},"746056092077737":{"id":"746056092077737","from":{"id":"100001809346292","name":"Nguyen Yen"},"message":"Huyen Anton dang ki di","message_tags":[{"id":"100000369027683","name":"Huyen Anton","type":"user","offset":0,"length":11}],"can_remove":false,"created_time":"2013-10-25T13:51:29+0000","like_count":0,"user_likes":false},"746056898744323":{"id":"746056898744323","from":{"id":"100002290906582","name":"Kanashimi No Yukue"},"message":"bây giờ mình dự định sẽ mở lớp bắt đầu và lớp N5, bạn nào muốn học thì inbox tên, sđt và lớp muốn thâm gia cho mình để mình dễ thống kê nhé chứ ở đây khó quá :D","can_remove":false,"created_time":"2013-10-25T13:53:13+0000","like_count":2,"user_likes":false},"746057792077567":{"id":"746057792077567","from":{"id":"100002589963683","name":"Hà Văn Tuấn"},"message":"Loan Xd","message_tags":[{"id":"100000999502927","name":"Loan Xd","type":"user","offset":0,"length":7}],"can_remove":false,"created_time":"2013-10-25T13:54:59+0000","like_count":0,"user_likes":false},"746065015410178":{"id":"746065015410178","from":{"id":"100004240265206","name":"Hạnh SuSu"},"message":"Em là Đào Hồng Hạnh ạ, em có ý định muốn học ạ","can_remove":false,"created_time":"2013-10-25T14:01:07+0000","like_count":1,"user_likes":false},"746066398743373":{"id":"746066398743373","from":{"id":"100002290906582","name":"Kanashimi No Yukue"},"message":"các bạn inbox nhé chứ đừng chỉ kết bạn, mình ko nhớ nổi đâu T^T\nvới cả bạn nào thực sự có thể đi được hay thực sự mong muốn học hãy đk để mình có được con số cụ thể chứ đừng đk xong rồi bỏ T^T","can_remove":false,"created_time":"2013-10-25T14:02:07+0000","like_count":0,"user_likes":false},"746068735409806":{"id":"746068735409806","from":{"id":"100003776781273","name":"Dou Ckt"},"message":"Có lớp buổi tối không bạn, mình chỉ học dc buổi tối thôi.","can_remove":false,"created_time":"2013-10-25T14:06:29+0000","like_count":0,"user_likes":false},"746069025409777":{"id":"746069025409777","from":{"id":"100002290906582","name":"Kanashimi No Yukue"},"message":"ko bạn à, buổi tối mình bận rồi :) chỉ có lớp sáng và chiều thôi nhé :)","can_remove":false,"created_time":"2013-10-25T14:07:04+0000","like_count":0,"user_likes":false},"746070085409671":{"id":"746070085409671","from":{"id":"100000369027683","name":"Huyen Anton"},"message":"mình đk, phiền bạn p.m cho mình wa số  01698.169.971 :D","can_remove":false,"created_time":"2013-10-25T14:08:34+0000","like_count":0,"user_likes":false},"746070195409660":{"id":"746070195409660","from":{"id":"100002589963683","name":"Hà Văn Tuấn"},"message":"a có thể nói trước là a có thể dạy vào các buổi sáng hoặc chiều hôm nào không ạ :)","can_remove":false,"created_time":"2013-10-25T14:08:43+0000","like_count":0,"user_likes":false},"746070968742916":{"id":"746070968742916","from":{"id":"100003631262001","name":"Thuy Linh"},"message":"t 1 suat di t o ha noi hoc chieu hay sang minh deu co the sep dk mo som di ban","can_remove":false,"created_time":"2013-10-25T14:10:34+0000","like_count":0,"user_likes":false},"746071012076245":{"id":"746071012076245","from":{"id":"100003776781273","name":"Dou Ckt"},"message":"Tiếc quá , cảm ơn bạn nhé. Ý tưởng của bạn thật quá tốt. Ag thế dạy trên fac có đc ko bạn.","can_remove":false,"created_time":"2013-10-25T14:10:39+0000","like_count":0,"user_likes":false},"746072012076145":{"id":"746072012076145","from":{"id":"100003631262001","name":"Thuy Linh"},"message":"c oi t bi chan ket ban rui nen co j co c lien lac qua so 01647943212 minh la do thuy linh thank ban rat nhieu","can_remove":false,"created_time":"2013-10-25T14:12:30+0000","like_count":0,"user_likes":false},"746075638742449":{"id":"746075638742449","from":{"id":"100002290906582","name":"Kanashimi No Yukue"},"message":"Huyen Anton Thuy Linh inbox mình nhé, ko cần kết bạn cũng được mà :) nhớ cho mình tên, sđt, mail và lớp muons tham gia nhé :)\nDou Ckt mình từng thử dạy trên fb và nó ko thành công bạn ạh :v\nHà Văn Tuấn mình có thể dạy vào tất cả các buổi chiều còn sáng thì chưa chắc chắn lắm nhé :)","message_tags":[{"id":"100000369027683","name":"Huyen Anton","type":"user","offset":0,"length":11},{"id":"100003631262001","name":"Thuy Linh","type":"user","offset":12,"length":9},{"id":"100003776781273","name":"Dou Ckt","type":"user","offset":126,"length":7},{"id":"100002589963683","name":"Hà Văn Tuấn","type":"user","offset":190,"length":11}],"can_remove":false,"created_time":"2013-10-25T14:19:11+0000","like_count":0,"user_likes":false},"746082368741776":{"id":"746082368741776","from":{"id":"100003776781273","name":"Dou Ckt"},"message":"Ag vì mình cũng học đc một chút rồi nên hỏi vậy, khi nào có thắc mắc gì mong bạn giúp đỡ mình nhé","can_remove":false,"created_time":"2013-10-25T14:23:46+0000","like_count":0,"user_likes":false},"746082605408419":{"id":"746082605408419","from":{"id":"100002290906582","name":"Kanashimi No Yukue"},"message":"ok bạn :)","can_remove":false,"created_time":"2013-10-25T14:24:29+0000","like_count":0,"user_likes":false},"746084085408271":{"id":"746084085408271","from":{"id":"100004360751785","name":"Hà Nguyễn"},"message":"nói thật là từ lúc đọc được cái thông báo của chị làm e tiếc ngẩn ngơ, e mới học đến bài 5, học một mình ko có hứng tý nào, lười quá đi òa òa","can_remove":false,"created_time":"2013-10-25T14:28:01+0000","like_count":0,"user_likes":false},"746084905408189":{"id":"746084905408189","from":{"id":"100002290906582","name":"Kanashimi No Yukue"},"message":"^^ để lúc khác nếu chị có thể mở thêm lớp nữa mà phù hợp với em thì em đi học nhé :)","can_remove":false,"created_time":"2013-10-25T14:29:45+0000","like_count":1,"user_likes":false},"746085152074831":{"id":"746085152074831","from":{"id":"100004120021450","name":"Bèo Dạt Mây Trôi"},"message":"neu co op cho minh 1 xuat nha 0984053301 . vu tu vinh 1993 oki ban . tk ban","can_remove":false,"created_time":"2013-10-25T14:30:13+0000","like_count":0,"user_likes":false},"746085255408154":{"id":"746085255408154","from":{"id":"100004016057800","name":"Pi Bo"},"message":"Ở đau vay pan","can_remove":false,"created_time":"2013-10-25T14:30:28+0000","like_count":0,"user_likes":false},"746085675408112":{"id":"746085675408112","from":{"id":"100004360751785","name":"Hà Nguyễn"},"message":"c ơi c mở lớp ở Kim Liên buổi chiều thứ mấy hả c, hay cả tuần để e sắp xếp, nếu đc e dky, lại khăn gói lên thủ đô hê hê","can_remove":false,"created_time":"2013-10-25T14:31:46+0000","like_count":0,"user_likes":false},"746085825408097":{"id":"746085825408097","from":{"id":"100003631262001","name":"Thuy Linh"},"message":"chi oi e hoc tieng nhat tu nam ngoai so quen het rui a chua chac e da theo dk","can_remove":false,"created_time":"2013-10-25T14:32:24+0000","like_count":0,"user_likes":false},"746086008741412":{"id":"746086008741412","from":{"id":"100004120021450","name":"Bèo Dạt Mây Trôi"},"message":"ban oi neu dc thi nt minh nha :) tk ban nhieu arigatogozaima","can_remove":false,"created_time":"2013-10-25T14:32:47+0000","like_count":0,"user_likes":false},"746086208741392":{"id":"746086208741392","from":{"id":"100001416272263","name":"Mai PB"},"message":"Rủ thêm anh bạn Shota Karakawa làm đạo cụ trực quan thì càng tốt :-)","message_tags":[{"id":"100000995071588","name":"Shota Karakawa","type":"user","offset":16,"length":14}],"can_remove":false,"created_time":"2013-10-25T14:33:17+0000","like_count":0,"user_likes":false},"746086665408013":{"id":"746086665408013","from":{"id":"100003106320056","name":"Iris Nguyễn"},"message":"nếu có lớp, bảo mình vs mình sđt: 0978774629","can_remove":false,"created_time":"2013-10-25T14:34:40+0000","like_count":0,"user_likes":false},"746088335407846":{"id":"746088335407846","from":{"id":"100002290906582","name":"Kanashimi No Yukue"},"message":"Mai PB nếu anh ý chịu đồng ý dạy miễn phí ^^\nIris Nguyễn inbox mình tên, sđt lớp muốn học và mail nhé, mình ko nhớ hết đâu","message_tags":[{"id":"100001416272263","name":"Mai PB","type":"user","offset":0,"length":6},{"id":"100003106320056","name":"Iris Nguyễn","type":"user","offset":45,"length":11}],"can_remove":false,"created_time":"2013-10-25T14:37:10+0000","like_count":0,"user_likes":false},"746088958741117":{"id":"746088958741117","from":{"id":"100002290906582","name":"Kanashimi No Yukue"},"message":"Hà Nguyễn chắc ko được cả tuần đâu, mỗi tuần 1 buổi thôi ^^\nBèo Dạt Mây Trôi inbox mình nhé\nThuy Linh thì học lại tư lớp bắt đầu hoặc học N5, t dạy c ko nhớ chỗ nào hỏi cũng được mà :)","message_tags":[{"id":"100004360751785","name":"Hà Nguyễn","type":"user","offset":0,"length":9},{"id":"100004120021450","name":"Bèo Dạt Mây Trôi","type":"user","offset":60,"length":16},{"id":"100003631262001","name":"Thuy Linh","type":"user","offset":92,"length":9}],"can_remove":false,"created_time":"2013-10-25T14:38:37+0000","like_count":0,"user_likes":false},"746097542073592":{"id":"746097542073592","from":{"id":"1061065777","name":"Xoắn Quẩy"},"message":"Kanashimi No Yukue ơi, tối học thì khoảng tầm mấy giờ hả bạn?","message_tags":[{"id":"100002290906582","name":"Kanashimi No Yukue","type":"user","offset":0,"length":18}],"can_remove":false,"created_time":"2013-10-25T14:56:59+0000","like_count":0,"user_likes":false},"746098038740209":{"id":"746098038740209","from":{"id":"100002290906582","name":"Kanashimi No Yukue"},"message":"bh mới chỉ có 5 bạn inbox đk với mình ở lớp bắt đầu và 3 bạn ở lớp n5 thế nên dự là chưa chắc mở nổi lớp :v\nXoắn Quẩy mình ko mở lớp tối bạn nhé :)","message_tags":[{"id":"1061065777","name":"Xoắn Quẩy","type":"user","offset":108,"length":9}],"can_remove":false,"created_time":"2013-10-25T14:58:22+0000","like_count":0,"user_likes":false},"746098742073472":{"id":"746098742073472","from":{"id":"1061065777","name":"Xoắn Quẩy"},"message":"Kanashimi No Yukue T__T vậy Kana đã xác định được ngày nào chưa? Nếu chiều thứ 7 đc thì tuyệt quá (nếu học chiều kiểu 2, 3h) :'( mình cũng muốn đăng ký nhưng chỉ sợ ko đi được thì lỡ những bạn khác","message_tags":[{"id":"100002290906582","name":"Kanashimi No Yukue","type":"user","offset":0,"length":18}],"can_remove":false,"created_time":"2013-10-25T14:59:32+0000","like_count":0,"user_likes":false},"746099302073416":{"id":"746099302073416","from":{"id":"100004360751785","name":"Hà Nguyễn"},"message":"c ơi vừa mới đăng tin mà được quan tâm thế này thì lo gì ko đủ ng để mở lớp, mọi ng đăng ký ầm ầm ý chứ.c nhiệt tình thật đấy.","can_remove":false,"created_time":"2013-10-25T15:00:02+0000","like_count":0,"user_likes":false},"746099555406724":{"id":"746099555406724","from":{"id":"100002290906582","name":"Kanashimi No Yukue"},"message":"Hà Nguyễn mọi người cm thì nhiều chứ có mấy ai inbox đưa đầy đủ thông tin đâu ^^","message_tags":[{"id":"100004360751785","name":"Hà Nguyễn","type":"user","offset":0,"length":9}],"can_remove":false,"created_time":"2013-10-25T15:00:51+0000","like_count":0,"user_likes":false},"746100142073332":{"id":"746100142073332","from":{"id":"100002290906582","name":"Kanashimi No Yukue"},"message":"Xoắn Quẩy nếu c ko rảnh lắm thì cho t cả tg cậu đi được nhé, nếu thấy nhiều người cũng rảnh h đó thì mình sẽ mở lớp h đó :)","message_tags":[{"id":"1061065777","name":"Xoắn Quẩy","type":"user","offset":0,"length":9}],"can_remove":false,"created_time":"2013-10-25T15:02:31+0000","like_count":2,"user_likes":false},"746305822052764":{"id":"746305822052764","from":{"id":"100002904984187","name":"Thuy Nguyen"},"message":"Nguyễn Thủy","message_tags":[{"id":"100003042028830","name":"Nguyễn Thủy","type":"user","offset":0,"length":11}],"can_remove":false,"created_time":"2013-10-26T00:19:30+0000","like_count":0,"user_likes":false},"746372555379424":{"id":"746372555379424","from":{"id":"100000972132035","name":"Hung Lee"},"message":"Ku Đào","message_tags":[{"id":"100001331302919","name":"Ku Đào","type":"user","offset":0,"length":6}],"can_remove":false,"created_time":"2013-10-26T03:11:03+0000","like_count":0,"user_likes":false},"746381802045166":{"id":"746381802045166","from":{"id":"100004892648303","name":"Cherry Pham"},"message":"b ơi. mình mới bắt đầu học thêm tiếng Nhật ở trug tâm.mình tham gia với đc ko ?","can_remove":false,"created_time":"2013-10-26T03:43:40+0000","like_count":1,"user_likes":false},"746423605374319":{"id":"746423605374319","from":{"id":"100001458099624","name":"Kham Pha"},"message":"Các bạn đăng kí vào link này\nhttps://www.facebook.com/groups/CongdongVietNhat/permalink/746348818715131/","can_remove":false,"created_time":"2013-10-26T05:53:10+0000","like_count":0,"user_likes":false},"746428282040518":{"id":"746428282040518","from":{"id":"100000427448138","name":"Anh Tuan Pham"},"message":"Trương Tú này :v","message_tags":[{"id":"100001392105927","name":"Trương Tú","type":"user","offset":0,"length":9}],"can_remove":false,"created_time":"2013-10-26T06:09:23+0000","like_count":0,"user_likes":false},"746500555366624":{"id":"746500555366624","from":{"id":"100002510273680","name":"Ai Neji"},"message":"bạn ơi...mình muốn học tiếng Nhật lắm..nhưng h 1 chữ Nhật bẻ đôi k biết..huhu..bạn có mở lớp nào cho người mới như mình k? nếu có thì cho mình đăng ký 1 slot nhé. sđt của mình nè 01673119590.mình là Thảo","can_remove":false,"created_time":"2013-10-26T10:05:02+0000","like_count":0,"user_likes":false},"746511312032215":{"id":"746511312032215","from":{"id":"100003621566393","name":"Phương Nam Nguyễn"},"message":"đk ở đoạn nào vậy bạn?","can_remove":false,"created_time":"2013-10-26T10:30:44+0000","like_count":0,"user_likes":false},"746540192029327":{"id":"746540192029327","from":{"id":"100002676859353","name":"Chu Quang Viên"},"message":"Luận Trần :D","message_tags":[{"id":"100001764197770","name":"Luận Trần","type":"user","offset":0,"length":9}],"can_remove":false,"created_time":"2013-10-26T11:58:07+0000","like_count":0,"user_likes":false},"746590438690969":{"id":"746590438690969","from":{"id":"100002290906582","name":"Kanashimi No Yukue"},"message":"https://docs.google.com/spreadsheet/ccc?key=0ApidjvrjKduPdDFMZVh1anI0VU9DMlhVTGhQM1BTX3c&usp=sharing#gid=0\nnhững ai đã pm cho mình rồi phiền các bạn đk lại vào đây nhé :)\nCảm ơn Kham Pha đã giúp em làm cái này ạh, cả ngày hôm nay em bận quá nên h mới lên được ^^","message_tags":[{"id":"100001458099624","name":"Kham Pha","type":"user","offset":178,"length":8}],"can_remove":false,"created_time":"2013-10-26T13:50:08+0000","like_count":1,"user_likes":false},"746983335318346":{"id":"746983335318346","from":{"id":"100002792994108","name":"Thuat Le Minh"},"message":":) trân trọng tấm lòng của bạn","can_remove":false,"created_time":"2013-10-27T05:29:50+0000","like_count":0,"user_likes":false},"747193728630640":{"id":"747193728630640","from":{"id":"100000381394367","name":"Thành Nguyễn"},"message":"Thêm một người như bạn cộng đồng sẽ có thêm 10 phần sức sống để phát triển.","can_remove":false,"created_time":"2013-10-27T14:16:47+0000","like_count":0,"user_likes":false},"752137568136256":{"id":"752137568136256","from":{"id":"100002290906582","name":"Kanashimi No Yukue"},"message":"mình đã gửi mail cho tất cả những ai đk về thông tin lớp học, mọi người vào check mail nhé :)","can_remove":false,"created_time":"2013-11-04T10:02:46+0000","like_count":3,"user_likes":false},"752287818121231":{"id":"752287818121231","from":{"id":"100003079752043","name":"Smile Named Hân"},"message":"Còn slot ko bạn ơi? :(. Trường Kim Liên là gần Bách khoa phải ko bạn?","can_remove":false,"created_time":"2013-11-04T16:10:26+0000","like_count":1,"user_likes":false},"752292211454125":{"id":"752292211454125","from":{"id":"100002290906582","name":"Kanashimi No Yukue"},"message":"bạn cho mình xin mail, mình sẽ gửi chi tiết thông tin cho nhé :)\ncấp 3 KL nằm ở trên đường đặng văn ngữ, gần hồ đắc di với xã đàn ý :)","can_remove":false,"created_time":"2013-11-04T16:20:08+0000","like_count":0,"user_likes":false},"752296201453726":{"id":"752296201453726","from":{"id":"100003079752043","name":"Smile Named Hân"},"message":"Oh. Gần trường mình rồi! Tiện quá trời!\nEmail: bt.fet08@gmail.com\nSDT: 01656094020.\nCảm ơn bạn! ^_^.","can_remove":false,"created_time":"2013-11-04T16:23:47+0000","like_count":0,"user_likes":false},"752296778120335":{"id":"752296778120335","from":{"id":"100002904984187","name":"Thuy Nguyen"},"message":"gửi cho mình với :P\n thuy.bk55@gmail.com\ncảm ơn c nhé :<","can_remove":false,"created_time":"2013-11-04T16:25:06+0000","like_count":0,"user_likes":false},"752366288113384":{"id":"752366288113384","from":{"id":"100002990183494","name":"Lee Mi Su"},"message":"chị ơi, gửi cho em với ạ, mail là lee.su051318@gmail.com ạ, thank chị\nsđt: 01242311637","can_remove":false,"created_time":"2013-11-04T17:53:48+0000","like_count":0,"user_likes":false}},"paging":{"cursors":{"after":"NzQ2MDMxNjMyMDgwMTgz","before":"NzQ2MDMxNjMyMDgwMTgz"},"next":"https://graph.facebook.com/229244010425617_746030632080283/comments?limit=1&summary=1&after=NzQ2MDMxNjMyMDgwMTgz"},"summary":{"order":"chronological","total_count":75}}}