{"id":"229244010425617_746101348739878","type":"link","picture":"https://fbexternal-a.akamaihd.net/safe_image.php?d=AQD2PpwTz-D93wlK&w=154&h=154&url=http%3A%2F%2Fimg.v3.news.zdn.vn%2FUploaded%2Fsotnvw%2F2013_10_25%2F1_3_1.jpg","link":"http://news.zing.vn/Hang-nghin-nguoi-chen-lan-nhau-an-sushi-mien-phi-post363335.html#detail_discover.samecate","from":{"id":"100001416272263","name":"Mai PB"},"message":"Chẳng đọc trang Zing bao giờ nhưng ngẫu nhiên tìm thấy bài này. Theo mọi người thì có những vấn đề gì ở đây, cả phía tổ chức và phía người đến ăn?\n\nhttp://news.zing.vn/Hang-nghin-nguoi-chen-lan-nhau-an-sushi-mien-phi-post363335.html#detail_discover.samecate","created_time":"2013-10-25T15:05:46+0000","updated_time":"2013-10-26T10:00:53+0000","likes":{"data":{"100004716640495":{"id":"100004716640495","name":"Thúy An Dương"},"683231044":{"id":"683231044","name":"Hoàng Hải Đăng"},"100001059086820":{"id":"100001059086820","name":"Nguyễn Thành Long"},"1305472811":{"id":"1305472811","name":"Tuan Nguyen"},"100000292556230":{"id":"100000292556230","name":"Duy Anh Phạm"},"100003404539251":{"id":"100003404539251","name":"Bell Tũn"},"1023965040":{"id":"1023965040","name":"Juli KimChi"},"100001458099624":{"id":"100001458099624","name":"Kham Pha"},"100006767705219":{"id":"100006767705219","name":"Kim Liên"},"1412022734":{"id":"1412022734","name":"Người Yêu Triển Chiêu"},"100002705761951":{"id":"100002705761951","name":"Te Kureijī"},"100001723862714":{"id":"100001723862714","name":"Bo Bien Vang"}},"paging":{"cursors":{"after":"MTAwMDA0NzE2NjQwNDk1","before":"MTAwMDA0NzE2NjQwNDk1"},"next":"https://graph.facebook.com/229244010425617_746101348739878/likes?limit=1&summary=1&after=MTAwMDA0NzE2NjQwNDk1"},"summary":{"total_count":12}},"comments":{"data":{"746105378739475":{"id":"746105378739475","from":{"id":"100001723862714","name":"Bo Bien Vang"},"message":"ngất :((","can_remove":false,"created_time":"2013-10-25T15:14:46+0000","like_count":0,"user_likes":false},"746106485406031":{"id":"746106485406031","from":{"id":"100000030073288","name":"Thanh Danh Tran"},"message":"em thấy chả có trật tự gì cả, chí ít cũng phải xếp hàng hay sao chứ, Ban tổ chức lẫn người đến ăn chen lấn nhau như là 1 cuộc ẩu đã của xã hội đen, hôm bữa mới xem cái ckip của senpai nào gửi lên giữa Nhật và VN cách xa nhau quá trời :(","can_remove":false,"created_time":"2013-10-25T15:17:51+0000","like_count":0,"user_likes":false},"746110292072317":{"id":"746110292072317","from":{"id":"100004510093838","name":"Ti Gôn"},"message":"Le Thanh.đay đây","message_tags":[{"id":"100004409922456","name":"Le Thanh","type":"user","offset":0,"length":8}],"can_remove":false,"created_time":"2013-10-25T15:24:07+0000","like_count":0,"user_likes":false},"746110568738956":{"id":"746110568738956","from":{"id":"100001416272263","name":"Mai PB"},"message":"Theo kinh nghiệm ở Nhật thì có thể nhận xét các vấn đề như sau:\n- Người đến ăn quá ham hố mấy trò miễn phí này khi mà quá đông người, tuy nhiên cái này cũng không hẳn là xấu.\n- Được vào ăn rồi cũng không đi ra ngay để nhường người khác\n- Cố ních cho thích miệng mà không để ý đến người xung quanh, hoắc để dành cho người sau\n- Không xếp hàng, nhưng cũng do nhà hàng không tổ chức cho xếp hàng\n\nThực ra lỗi của nhà hàng tổ chức là nhiều hơn.\n- Không hạn chế số thực khách có thể vào ăn\n- Không hạn chế từng lượng khách nhất định vào ăn trong một thời gian nhất định\n- Không phát tích kê lượt, không hướng dẫn xếp hàng\n- Không hướng dẫn cụ thể bên trong bên ngoài nhà hàng để mọi người biết cái gì đang xảy ra, có thể vào hay không...\n\nNói chung là trình độ tổ chức event ở VN là rất kém.","can_remove":false,"created_time":"2013-10-25T15:24:51+0000","like_count":15,"user_likes":false},"746113545405325":{"id":"746113545405325","from":{"id":"100000030073288","name":"Thanh Danh Tran"},"message":"em đồng tình với senpai Mai PB nhưng em nghĩ cũng 1 phần là do ý thức con người nữa ah, vì em thấy ko chỉ trong việc miễn phí giành nhau mà đơn giản chỉ là giảm giá thôi cũng đã chen lấn rồi, bữa gần nhà em cái Buger King đại hạ giá 75% giá tiền mà em thấy chen lấn nhau hãi hùng luôn =))","message_tags":[{"id":"100001416272263","name":"Mai PB","type":"user","offset":24,"length":6}],"can_remove":false,"created_time":"2013-10-25T15:30:34+0000","like_count":1,"user_likes":false},"746114008738612":{"id":"746114008738612","from":{"id":"100000603915176","name":"悪いな ぁ"},"message":":)","can_remove":false,"created_time":"2013-10-25T15:31:50+0000","like_count":0,"user_likes":false},"746119265404753":{"id":"746119265404753","from":{"id":"100000226369400","name":"Vạn Lý Độc Hành"},"message":"Ở Việt Nam! Thấy chữ miễn phí là tưởng tượng ngay đến cảnh y như bạo động rồi :))) BTC cứ pr tràn lan mà ko có dự tính . Tận bên này mà e thấy các bạn trẻ tag gọi nhau đi ăn í ới từ cả tuần trước đó :))","can_remove":false,"created_time":"2013-10-25T15:42:52+0000","like_count":3,"user_likes":false},"746129072070439":{"id":"746129072070439","from":{"id":"100001257093338","name":"Hanh Dang"},"message":"bản chất con người vẫn luôn hiếu kỳ và thích miễn phí mà. vì thế làm thế nào để hài hòa được cung và cầu , điều đó cần phải có cách thức tổ chức tốt.. bác Mai PB phân tích sâu sắc quá!","can_remove":false,"created_time":"2013-10-25T16:01:05+0000","like_count":0,"user_likes":false},"746154625401217":{"id":"746154625401217","from":{"id":"100001458099624","name":"Kham Pha"},"message":"nhưng người VN mới lôn xộn vậy, buồn thật.","can_remove":false,"created_time":"2013-10-25T16:59:42+0000","like_count":0,"user_likes":false},"746178768732136":{"id":"746178768732136","from":{"id":"100000030073288","name":"Thanh Danh Tran"},"message":"thật tình có đôi lúc mình là người việt mình cũng tự hào có một số điều tốt đẹp của việt lắm, chẳng hạn như cướp giực luôn luôn đi từ 2 thằng trở lên (tinh thần đoàn kết) :)) roài bị giang hồ đánh giữa đường thì tinh thần tương thân tương ái chạy về kéo 1 lũ ra đập lại (đùm bọc lẫn nhau), phải nói tự hào rất rất nhiều =)) ko biết đến bao giờ mới khá, nhất là tính ý thức + mất vệ sinh nơi công cộng (hàng ngày ngoài đường như cơm bữa) :(","can_remove":false,"created_time":"2013-10-25T18:02:36+0000","like_count":2,"user_likes":false},"746317715384908":{"id":"746317715384908","from":{"id":"1175139401","name":"Phan Phuoc"},"message":"đây chỉ là ý thức tự phát, không nên cho đó là hình ảnh xấu của dân tộc, còn kém nhưng không phải mãi mãi bị như vậy, chính chúng ta nên học cái tiến bộ và không nản khi làm điều gì đó dù nhỏ hay lớn, đứng làm kẻ đứng ngoài cuộc.","can_remove":false,"created_time":"2013-10-26T00:48:30+0000","like_count":1,"user_likes":false},"746319512051395":{"id":"746319512051395","from":{"id":"1175139401","name":"Phan Phuoc"},"message":"Tôi thấy nhiều bạn chỉ biết buồn, biết trách \" người Việt Nam\", và xấu hổ khi ra nước ngoài, các bạn không nên như vậy. Dân tộc nào cũng có ưu nhược điểm, bác Hồ ngày xưa đi ra các nước cũng thấy được ưu nhược điểm của dân tộc khác, Bác đâu có tự ti là người Việt có nhiều người làm cho dân tộc bị nô lệ. Quan trọng là mình biết khuyết điểm để tìm cách khắc phục, biết cái ưu điểm mà yêu lấy con người, linh hồn Việt, nơi chôn nhau cắt rốn của chính mình. Đúng như câu \"có hiểu thì mới biết yêu thật sự\", các bạn chưa biết hết về cái đẹp của Việt Nam, để biết yêu nó. Quê hương nếu ai không hiểu, sẽ không lớn nổi thành người. Hiểu để yêu, để làm cho quê hương mình tốt đẹp hơn, dù việc đó nhỏ hay lớn.","can_remove":false,"created_time":"2013-10-26T00:55:02+0000","like_count":5,"user_likes":false},"746336362049710":{"id":"746336362049710","from":{"id":"100000064686295","name":"Huy Roli"},"message":"Cái này là tư duy marketing ở VN.  Ko cần gì chỉ cần được nhiều ng biết + đc lên các phương tiện báo miễn phí là oke","can_remove":false,"created_time":"2013-10-26T01:33:22+0000","like_count":0,"user_likes":false},"746345082048838":{"id":"746345082048838","from":{"id":"100001569902714","name":"Trung Nguyen"},"message":"Hết nói với Phan Phuoc luôn, đã xấu rồi mà còn ko biết nhục, chỉ biết cãi cố. Nhục quá, nhục quá Phản Phước à.","message_tags":[{"id":"1175139401","name":"Phan Phuoc","type":"user","offset":12,"length":10}],"can_remove":false,"created_time":"2013-10-26T01:54:30+0000","like_count":0,"user_likes":false},"746345905382089":{"id":"746345905382089","from":{"id":"100001458099624","name":"Kham Pha"},"message":"Trung Nguyen đề nghị không xúc phạm Phan Phuoc. Mình thấy bạn ấy nói đúng đấy. Nhục hay xấu hổ thì phải làm cơ sở để biết phấn đấu vươn lên chứ không phỉ đem ra chỉ trích nhau. Như vậy chỉ tổn thương nhau chứ không tốt lên được.","message_tags":[{"id":"100001569902714","name":"Trung Nguyen","type":"user","offset":0,"length":12},{"id":"1175139401","name":"Phan Phuoc","type":"user","offset":36,"length":10}],"can_remove":false,"created_time":"2013-10-26T01:57:22+0000","like_count":3,"user_likes":false},"746346855381994":{"id":"746346855381994","from":{"id":"1845000884","name":"Trieu Thi Kieu Oanh"},"message":"Thuc ra thj o dau cug the thoi. Chj la cach to chuc cua cua hang chua duoc tot. Va ho k luong trc dc vc nhjeu ng den nthe. Han la bat cu nha kjnh doanh nao cug muon cua hang mjnh duoc noi tieng va len. Bao chj mjen phj tuy nhjen vj cach to chuc su kien chua dc chu dao ma laj thanh tai tieng. Theo toi thj cug co nhug phan hoi kha tot day chu. Trong 1 buc tranh xjn dung chj nhjn vao vet xuoc!","can_remove":false,"created_time":"2013-10-26T01:59:41+0000","like_count":1,"user_likes":false},"746394848710528":{"id":"746394848710528","from":{"id":"100000128764209","name":"Chau Le"},"message":"Thật ra hồi trước mình cũng đã từng là một thành viên trong số ấy, nhưng sau khi được tiếp xúc với môi trường Nhật Bản rồi thì cũng ko muốn chen vào chốn xô bồ ấy nữa. Ko bit mọi người nghĩ sao chứ vừa mệt vừa quê, làm như chưa từng đc ăn bao giờ cả. Dù sao cũng là tâm lí thôi, rẻ thì nào vào, mắc thì lùi xa nhưng mà chen chúc giành giựt kiểu này thì quả là... ăn xong miếng shushi cũng chẳng còn cảm giác ngon _ _","can_remove":false,"created_time":"2013-10-26T04:21:13+0000","like_count":2,"user_likes":false},"746403385376341":{"id":"746403385376341","from":{"id":"1175139401","name":"Phan Phuoc"},"message":"Vâng, con người tốt hay chưa tốt ở điều do thiện chí hay không, nếu có tinh thần thiện chí và cái nhìn khách quan thì mọi điều sẽ tốt đẹp hơn. Người thì sống với người, ở đâu cũng từ một gốc đó sinh ra.","can_remove":false,"created_time":"2013-10-26T04:50:02+0000","like_count":1,"user_likes":false},"746499228700090":{"id":"746499228700090","from":{"id":"100000030073288","name":"Thanh Danh Tran"},"message":"thấy các bạn tranh luận vấn đề này sôi nổi ghê ^^ (nhưng đừng xúc phạm nhau hen :) ) tranh luận để hiểu rõ vấn đề, tất nhiên ở quốc gia nào cũng có cái xấu, ko bao giờ 100% là tốt nhưng theo cá nhân mình thấy thì chỉ khi nào biết cách nhận mình sai (cái này mình thấy nhiều nè, lúc sai rất ít khi nào nhận, đã vậy còn cãi chài, cãi cối nữa :( ), biết cách học hỏi cái tốt của người khác và làm là được xD","can_remove":false,"created_time":"2013-10-26T10:00:53+0000","like_count":2,"user_likes":false}},"paging":{"cursors":{"after":"NzQ2MTA1Mzc4NzM5NDc1","before":"NzQ2MTA1Mzc4NzM5NDc1"},"next":"https://graph.facebook.com/229244010425617_746101348739878/comments?limit=1&summary=1&after=NzQ2MTA1Mzc4NzM5NDc1"},"summary":{"order":"chronological","total_count":19}}}