{"id":"229244010425617_746348818715131","type":"link","link":"https://docs.google.com/spreadsheet/ccc?key=0ApidjvrjKduPdDFMZVh1anI0VU9DMlhVTGhQM1BTX3c&usp=sharing","from":{"id":"100001458099624","name":"Kham Pha"},"message":"Hôm qua bạn Kanashimi No Yukue có đề nghị mở lớp ôn thi tiếng Nhật N4, N5 miễn phí cho mọi người. Để đáp lại sự nhiệt tình ấy, mình tạo file đăng kí này để các bạn vào đăng kí cho tiện, dễ tổng hợp thông tin và lựa chọn thời gian học (ghi thứ trong tuần và giờ).\n\nTrong xã hội VN con người ta đang dần mất niềm tin lẫn nhau hiện nay, những người như bạn sẽ là người chứng minh được điều ngược lại :)\n\nhttps://docs.google.com/spreadsheet/ccc?key=0ApidjvrjKduPdDFMZVh1anI0VU9DMlhVTGhQM1BTX3c&usp=sharing","created_time":"2013-10-26T02:05:17+0000","updated_time":"2013-10-26T15:41:52+0000","likes":{"data":{"1824015127":{"id":"1824015127","name":"Bùi Quang Tân"},"100002976271181":{"id":"100002976271181","name":"Kumira Ariko"},"1828906841":{"id":"1828906841","name":"Trọng Nghĩa Bùi"},"1816269439":{"id":"1816269439","name":"Dao Ngoc"},"100004716640495":{"id":"100004716640495","name":"Thúy An Dương"},"100004240265206":{"id":"100004240265206","name":"Hạnh SuSu"},"100001415407078":{"id":"100001415407078","name":"Kha Pham"},"100003924638739":{"id":"100003924638739","name":"Toi La Ai"},"100002290906582":{"id":"100002290906582","name":"Kanashimi No Yukue"},"100001546217296":{"id":"100001546217296","name":"Steve Giáp"},"100001122451473":{"id":"100001122451473","name":"Lavender Cullen"},"100003814756892":{"id":"100003814756892","name":"Hai Nguyen"},"1308881663":{"id":"1308881663","name":"Nguyễn Đình Lộc"},"1821970083":{"id":"1821970083","name":"Nguyễn Mạnh Cường"},"100002904984187":{"id":"100002904984187","name":"Thuy Nguyen"},"1214116060":{"id":"1214116060","name":"Trần Xuân Đức"},"100000328742646":{"id":"100000328742646","name":"Trần Giáp"},"100001416272263":{"id":"100001416272263","name":"Mai PB"},"100004409731083":{"id":"100004409731083","name":"Đô Trong Nghia"},"100006767705219":{"id":"100006767705219","name":"Kim Liên"},"100000219148071":{"id":"100000219148071","name":"Anh Còi"},"100002508122689":{"id":"100002508122689","name":"Vũ Mạnh Tuấn"},"100005801442456":{"id":"100005801442456","name":"An Nguyen"},"1830667446":{"id":"1830667446","name":"Bùi Quỳnh Hoa"},"100001447641416":{"id":"100001447641416","name":"Lê Linh"},"100003179905990":{"id":"100003179905990","name":"Trâm Yoko"}},"paging":{"cursors":{"after":"MTgyNDAxNTEyNw==","before":"MTgyNDAxNTEyNw=="},"next":"https://graph.facebook.com/229244010425617_746348818715131/likes?limit=1&summary=1&after=MTgyNDAxNTEyNw%3D%3D"},"summary":{"total_count":27}},"comments":{"data":{"746410505375629":{"id":"746410505375629","from":{"id":"100001416272263","name":"Mai PB"},"message":"Quả là admin","can_remove":false,"created_time":"2013-10-26T05:10:36+0000","like_count":0,"user_likes":false},"746417075374972":{"id":"746417075374972","from":{"id":"100001458099624","name":"Kham Pha"},"message":"bao giờ mọi người tự ý thức được giúp đỡ người khác thì mới tốt, chứ để admin làm thì xem ra mọi người vẫn chưa ai học được tinh thần của người Nhật.","can_remove":false,"created_time":"2013-10-26T05:33:28+0000","like_count":0,"user_likes":false},"746423332041013":{"id":"746423332041013","from":{"id":"100001458099624","name":"Kham Pha"},"message":"Bạn xem thông tin ở post này.\nhttps://www.facebook.com/groups/CongdongVietNhat/permalink/746030632080283/","can_remove":false,"created_time":"2013-10-26T05:52:08+0000","like_count":0,"user_likes":false},"746435035373176":{"id":"746435035373176","from":{"id":"1308881663","name":"Nguyễn Đình Lộc"},"message":"những link kiểu này em cho qua bit.ly đi, vừa rút ngắn link vừa đo đc click rate luôn :)\n\nmà cái này là sheet ko phải form à","can_remove":false,"created_time":"2013-10-26T06:34:32+0000","like_count":2,"user_likes":false},"746583968691616":{"id":"746583968691616","from":{"id":"100002290906582","name":"Kanashimi No Yukue"},"message":"ad ơi, mình mở lớp bắt đầu và ôn N5 thôi đã nhé, lớp N4 cứ từ từ ^^ \ncảm ơn ad đã giúp :)","can_remove":false,"created_time":"2013-10-26T13:34:52+0000","like_count":0,"user_likes":false},"746589562024390":{"id":"746589562024390","from":{"id":"100004405054916","name":"Trần Anh Dũng"},"message":"Kanashimi No Yukue  N4 luôn đi bạn..:D","message_tags":[{"id":"100002290906582","name":"Kanashimi No Yukue","type":"user","offset":0,"length":18}],"can_remove":false,"created_time":"2013-10-26T13:47:36+0000","like_count":0,"user_likes":false},"746590078691005":{"id":"746590078691005","from":{"id":"100002290906582","name":"Kanashimi No Yukue"},"message":"N4 thì ít ngườ quá với cả mình mới thi xong đh, bỏ bê quá nên chờ mình ôn lại rồi mở sau nhé ^^","can_remove":false,"created_time":"2013-10-26T13:49:02+0000","like_count":0,"user_likes":false},"746590672024279":{"id":"746590672024279","from":{"id":"100004405054916","name":"Trần Anh Dũng"},"message":"Oh, bé quá nhỉ? :D E trình độ nào rồi?","can_remove":false,"created_time":"2013-10-26T13:50:43+0000","like_count":0,"user_likes":false},"746590825357597":{"id":"746590825357597","from":{"id":"100002290906582","name":"Kanashimi No Yukue"},"message":"em đang ôn thi N3 ạh ^^","can_remove":false,"created_time":"2013-10-26T13:51:00+0000","like_count":0,"user_likes":false},"746591095357570":{"id":"746591095357570","from":{"id":"100004405054916","name":"Trần Anh Dũng"},"message":"Uk, a ôn n4.Anh thấy mình kém phần nghe thôi..:(","can_remove":false,"created_time":"2013-10-26T13:52:03+0000","like_count":0,"user_likes":false},"746591728690840":{"id":"746591728690840","from":{"id":"100002290906582","name":"Kanashimi No Yukue"},"message":"dạ em cũng hơi kém khoản đó, đang cố cải thiện ạh :)","can_remove":false,"created_time":"2013-10-26T13:53:35+0000","like_count":0,"user_likes":false},"746592115357468":{"id":"746592115357468","from":{"id":"100004405054916","name":"Trần Anh Dũng"},"message":":) Uk, bao giờ có N4 thì gọi anh nhé.. N3 cũng đc..:D","can_remove":false,"created_time":"2013-10-26T13:54:52+0000","like_count":0,"user_likes":false},"746592388690774":{"id":"746592388690774","from":{"id":"100002290906582","name":"Kanashimi No Yukue"},"message":"vâng, anh cứ đk trước đi nhé rồi lúc nào được em gọi luôn ạh :)","can_remove":false,"created_time":"2013-10-26T13:55:35+0000","like_count":0,"user_likes":false},"746592622024084":{"id":"746592622024084","from":{"id":"100004405054916","name":"Trần Anh Dũng"},"message":"*gãi đầu* đăng kí ở đâu hả e?","can_remove":false,"created_time":"2013-10-26T13:56:13+0000","like_count":0,"user_likes":false},"746592832024063":{"id":"746592832024063","from":{"id":"100002290906582","name":"Kanashimi No Yukue"},"message":"dạ anh ấn vô link của anh kham pha đó, nếu anh đk rồi thì thôi ạh ^^","can_remove":false,"created_time":"2013-10-26T13:56:44+0000","like_count":0,"user_likes":false},"746593515357328":{"id":"746593515357328","from":{"id":"100004405054916","name":"Trần Anh Dũng"},"message":"Ok desu.. Có lẽ phải thêm mục sđt để dễ ll..^^ Ko thông báo trên Group nhiều bạn ko biết,,^^","can_remove":false,"created_time":"2013-10-26T13:58:37+0000","like_count":0,"user_likes":false},"746593892023957":{"id":"746593892023957","from":{"id":"100004405054916","name":"Trần Anh Dũng"},"message":"À, thấy rồi..:D","can_remove":false,"created_time":"2013-10-26T13:59:39+0000","like_count":0,"user_likes":false},"746615018688511":{"id":"746615018688511","from":{"id":"100001415407078","name":"Kha Pham"},"message":"dat gạch ôn thi N4 tháng 12 và kaiwa chút nữa","can_remove":false,"created_time":"2013-10-26T14:40:49+0000","like_count":0,"user_likes":false},"746644532018893":{"id":"746644532018893","from":{"id":"100001416272263","name":"Mai PB"},"message":"Nên đổi thành form thôi, Kham Pha Kanashimi No Yukue","message_tags":[{"id":"100001458099624","name":"Kham Pha","type":"user","offset":25,"length":8},{"id":"100002290906582","name":"Kanashimi No Yukue","type":"user","offset":34,"length":18}],"can_remove":false,"created_time":"2013-10-26T15:41:52+0000","like_count":0,"user_likes":false}},"paging":{"cursors":{"after":"NzQ2NDEwNTA1Mzc1NjI5","before":"NzQ2NDEwNTA1Mzc1NjI5"},"next":"https://graph.facebook.com/229244010425617_746348818715131/comments?limit=1&summary=1&after=NzQ2NDEwNTA1Mzc1NjI5"},"summary":{"order":"chronological","total_count":19}}}