{"id":"229244010425617_746429635373716","type":"status","from":{"id":"100000995071588","name":"Shota Karakawa"},"message":"cam on cac ban gui message cho toi.\ngio toi nhan rat nhieu message, nen toi khong doc xue!\nneu cac ban co thoi gian va song o Ha noi thi chung ta co the tap trung o quan cafe gan Bach Khoa khong?\nneu co ban muon tap trung thi toi tim quan cafe.\nnguoi song o hue va TPHCM thi thang sau hay thang hai sau toi se den tham : )","created_time":"2013-10-26T06:14:26+0000","updated_time":"2013-10-26T17:01:44+0000","likes":{"data":{"100002871405403":{"id":"100002871405403","name":"Thach Sanh"},"100002290906582":{"id":"100002290906582","name":"Kanashimi No Yukue"},"1336460055":{"id":"1336460055","name":"Hoa Phuong"},"100001257093338":{"id":"100001257093338","name":"Hanh Dang"},"100000047107627":{"id":"100000047107627","name":"Tiểu Phương"},"100003733581822":{"id":"100003733581822","name":"Tàu Lu"},"100006678781295":{"id":"100006678781295","name":"ふく しの"},"100000226646981":{"id":"100000226646981","name":"My Nguyen"},"100003016747298":{"id":"100003016747298","name":"Minh Phượng"},"100003297765079":{"id":"100003297765079","name":"Dương Dương"},"100003783699639":{"id":"100003783699639","name":"Tô Ngọc Ánh"},"100002676859353":{"id":"100002676859353","name":"Chu Quang Viên"},"100002982264086":{"id":"100002982264086","name":"Danh Huong"},"100002876323062":{"id":"100002876323062","name":"Linh Nguyen"},"100001531816305":{"id":"100001531816305","name":"Mẫn Nghi"},"100003756172905":{"id":"100003756172905","name":"Trang Cat"},"100001690185813":{"id":"100001690185813","name":"JiJi KoRi Chan"},"100004362480675":{"id":"100004362480675","name":"Đi Tìm Thất Bại"},"100002414995202":{"id":"100002414995202","name":"Nguyễn Duy Công"},"100005440689746":{"id":"100005440689746","name":"Trang Mapy"},"100000027754899":{"id":"100000027754899","name":"Hoang Van Ba"},"100004090172888":{"id":"100004090172888","name":"Nguyễn Ngọc"},"100003107603691":{"id":"100003107603691","name":"Hoa Nắng Tháng Ba"},"100003118445812":{"id":"100003118445812","name":"Cẩu Nhi"},"100001729677424":{"id":"100001729677424","name":"Thy Tran"},"100000047290427":{"id":"100000047290427","name":"Ira Phan"},"100003050841775":{"id":"100003050841775","name":"Lì Mà Bướng"},"669604268":{"id":"669604268","name":"Tuyển Nguyễn"},"100006126133935":{"id":"100006126133935","name":"Hoàng Thị Thu"},"100000971222044":{"id":"100000971222044","name":"Nhoc' Satoshi"},"100001723862714":{"id":"100001723862714","name":"Bo Bien Vang"},"100003013864105":{"id":"100003013864105","name":"Thu Trang"},"100001917790709":{"id":"100001917790709","name":"Tran Thang"},"100003103961241":{"id":"100003103961241","name":"Nhung Nguyen"},"100004319587455":{"id":"100004319587455","name":"Hằng Eva"},"100002799210522":{"id":"100002799210522","name":"Lệ Đào"},"100003743767998":{"id":"100003743767998","name":"Băng Tâm"},"100004409922456":{"id":"100004409922456","name":"Le Thanh"},"100001541536632":{"id":"100001541536632","name":"Viet Do"},"100000347908720":{"id":"100000347908720","name":"Linh Thảo"},"1814478345":{"id":"1814478345","name":"Nguyễn Quốc Bửu Trân"},"100000219148071":{"id":"100000219148071","name":"Anh Còi"},"100001458099624":{"id":"100001458099624","name":"Kham Pha"},"100006767705219":{"id":"100006767705219","name":"Kim Liên"},"100005211189763":{"id":"100005211189763","name":"Oliveu Cchann"},"100003225980553":{"id":"100003225980553","name":"Quyên Xanh"},"100004374631332":{"id":"100004374631332","name":"Huyền Pomigc"},"1655067722":{"id":"1655067722","name":"Mc Seo Yeonie"},"100002135182523":{"id":"100002135182523","name":"Huỵch Toẹt"},"100002470650247":{"id":"100002470650247","name":"LinhLinh Chan"},"100004055040287":{"id":"100004055040287","name":"Nguyễn Minh"},"100001754136107":{"id":"100001754136107","name":"Nguyễn Tuấn Vũ"},"100003665380536":{"id":"100003665380536","name":"Thanh PT"},"100004057444453":{"id":"100004057444453","name":"Vân Este"},"100005018671400":{"id":"100005018671400","name":"Ngân Trần"},"100001594722256":{"id":"100001594722256","name":"Viết An Phạm"},"1580589258":{"id":"1580589258","name":"Kani Oboeru"},"1431049967":{"id":"1431049967","name":"Nguyen Manh Cuong"},"100003837141956":{"id":"100003837141956","name":"Mai Hoàng"},"100003157796395":{"id":"100003157796395","name":"Hao Hao"},"100003332255834":{"id":"100003332255834","name":"Nhung Ai Haibara"},"100001526631937":{"id":"100001526631937","name":"Tường Oanh Mineko"},"100003275789728":{"id":"100003275789728","name":"Quoc Tran"},"100002535489295":{"id":"100002535489295","name":"Moteru Seikoo"},"100000383155614":{"id":"100000383155614","name":"Phạm Thúc Hưng"},"100004458131717":{"id":"100004458131717","name":"Minh Huệ"},"100000102495571":{"id":"100000102495571","name":"فرحان بسيم"}},"paging":{"cursors":{"after":"MTAwMDAyODcxNDA1NDAz","before":"MTAwMDAyODcxNDA1NDAz"},"next":"https://graph.facebook.com/229244010425617_746429635373716/likes?limit=1&summary=1&after=MTAwMDAyODcxNDA1NDAz"},"summary":{"total_count":68}},"comments":{"data":{"746429902040356":{"id":"746429902040356","from":{"id":"100000102495571","name":"فرحان بسيم"},"message":"Shota tốt bụng quá","can_remove":false,"created_time":"2013-10-26T06:15:27+0000","like_count":0,"user_likes":false},"746430125373667":{"id":"746430125373667","from":{"id":"100001878379620","name":"STiến Jp"},"message":"khi nào vào TPHCM thì liên lạc cho bọn tớ..cảm ơn nhé","can_remove":false,"created_time":"2013-10-26T06:16:25+0000","like_count":0,"user_likes":false},"746430135373666":{"id":"746430135373666","from":{"id":"1431049967","name":"Nguyen Manh Cuong"},"message":"Ngay và luôn cafe mộc :v","can_remove":false,"created_time":"2013-10-26T06:16:27+0000","like_count":0,"user_likes":false},"746431825373497":{"id":"746431825373497","from":{"id":"100001867930140","name":"Phong Linh Smile"},"message":"Hcm city","can_remove":false,"created_time":"2013-10-26T06:21:42+0000","like_count":1,"user_likes":false},"746434185373261":{"id":"746434185373261","from":{"id":"100000995071588","name":"Shota Karakawa"},"message":"1. toi chua quyet dinh khi nao vao TRHCM va Hue.","can_remove":false,"created_time":"2013-10-26T06:31:01+0000","like_count":0,"user_likes":false},"746434408706572":{"id":"746434408706572","from":{"id":"100000995071588","name":"Shota Karakawa"},"message":"2. bay gio co nhieu message den noi toi khong doc xue, nen lam on khong gui qua nhieu message cho toi","can_remove":false,"created_time":"2013-10-26T06:32:07+0000","like_count":0,"user_likes":false},"746434458706567":{"id":"746434458706567","from":{"id":"100000995071588","name":"Shota Karakawa"},"message":"xin loi nha!","can_remove":false,"created_time":"2013-10-26T06:32:16+0000","like_count":3,"user_likes":false},"746435915373088":{"id":"746435915373088","from":{"id":"100001156666759","name":"Kenshuu Steam"},"message":"vậy tốc độ rely comment của bạn chậm rồi, cố gắng luyện đánh tiếng việt cho nhanh lên bạn nhé...","can_remove":false,"created_time":"2013-10-26T06:36:29+0000","like_count":0,"user_likes":false},"746438045372875":{"id":"746438045372875","from":{"id":"100004749153687","name":"Hùng Tẹo Hjhj"},"message":"anh shota chọn chỗ nào tập trung uống nước cho em 1 slot nhé :D","can_remove":false,"created_time":"2013-10-26T06:38:02+0000","like_count":0,"user_likes":false},"746443195372360":{"id":"746443195372360","from":{"id":"100001458099624","name":"Kham Pha"},"message":"Phạm Thúc Hưng Tyn Aki Vũ Mạnh Tuấn Trần Giáp các admin ở HN đứng ra làm vụ này đi. Để anh ấy tự làm ko ổn đâu. Người ta mới sang còn nhiều điều chưa biết về VN.","message_tags":[{"id":"100000383155614","name":"Phạm Thúc Hưng","type":"user","offset":0,"length":14},{"id":"100001695345798","name":"Tyn Aki","type":"user","offset":15,"length":7},{"id":"100002508122689","name":"Vũ Mạnh Tuấn","type":"user","offset":23,"length":12},{"id":"100000328742646","name":"Trần Giáp","type":"user","offset":36,"length":9}],"can_remove":false,"created_time":"2013-10-26T06:55:21+0000","like_count":8,"user_likes":false},"746443395372340":{"id":"746443395372340","from":{"id":"100004749153687","name":"Hùng Tẹo Hjhj"},"message":"like anh Kham Pha","message_tags":[{"id":"100001458099624","name":"Kham Pha","type":"user","offset":9,"length":8}],"can_remove":false,"created_time":"2013-10-26T06:56:24+0000","like_count":0,"user_likes":false},"746443512038995":{"id":"746443512038995","from":{"id":"100002508122689","name":"Vũ Mạnh Tuấn"},"message":"Em chưa rõ lắm về việc này. Chủ post này là người Nhật ạ.","can_remove":false,"created_time":"2013-10-26T06:56:50+0000","like_count":0,"user_likes":false},"746443925372287":{"id":"746443925372287","from":{"id":"100004749153687","name":"Hùng Tẹo Hjhj"},"message":"anh ấy là người Nhật đang học khoa VNH ở trường Nhân văn","can_remove":false,"created_time":"2013-10-26T06:57:56+0000","like_count":1,"user_likes":false},"746443935372286":{"id":"746443935372286","from":{"id":"100001458099624","name":"Kham Pha"},"message":"Ừ, Thúc Hưng nó quen đấy.","can_remove":false,"created_time":"2013-10-26T06:57:59+0000","like_count":1,"user_likes":false},"746445935372086":{"id":"746445935372086","from":{"id":"100002508122689","name":"Vũ Mạnh Tuấn"},"message":"giờ em mới phát hiện ra là anh ấy kết bạn với khá nhiều người trong Hedspi, và cả cô Sakuma nữa ạ. Không biết anh ấy sống ở đâu, hay là khu ktx cho sv nướ ngoài ở gần BK ?","can_remove":false,"created_time":"2013-10-26T07:05:24+0000","like_count":1,"user_likes":false},"746451698704843":{"id":"746451698704843","from":{"id":"100003013864105","name":"Thu Trang"},"message":"ai xung phong đứng ra làm admin vụ này đi ạ :3","can_remove":false,"created_time":"2013-10-26T07:27:00+0000","like_count":0,"user_likes":false},"746452828704730":{"id":"746452828704730","from":{"id":"100004749153687","name":"Hùng Tẹo Hjhj"},"message":"ai giàu làm đi =))))","can_remove":false,"created_time":"2013-10-26T07:30:05+0000","like_count":0,"user_likes":false},"746453865371293":{"id":"746453865371293","from":{"id":"100000244577367","name":"Minh Tam Duong"},"message":"to chuc o ho chi minh di moi nguoi oi","can_remove":false,"created_time":"2013-10-26T07:33:49+0000","like_count":0,"user_likes":false},"746454118704601":{"id":"746454118704601","from":{"id":"100002508122689","name":"Vũ Mạnh Tuấn"},"message":"anh ấy đang ở HN bạn ạ ^^\nmà cần gì phải giàu mới làm đc hả Hùng Tẹo Hjhj ^^","message_tags":[{"id":"100004749153687","name":"Hùng Tẹo Hjhj","type":"user","offset":60,"length":13}],"can_remove":false,"created_time":"2013-10-26T07:34:54+0000","like_count":1,"user_likes":false},"746454205371259":{"id":"746454205371259","from":{"id":"100004749153687","name":"Hùng Tẹo Hjhj"},"message":"anh này ở HN mà sao tổ chức ở tp HCM đc?","can_remove":false,"created_time":"2013-10-26T07:35:08+0000","like_count":1,"user_likes":false},"746454572037889":{"id":"746454572037889","from":{"id":"100004749153687","name":"Hùng Tẹo Hjhj"},"message":"hè hè em đùa thế, sv cuối tháng thì 1lits đã là giàu =)))","can_remove":false,"created_time":"2013-10-26T07:35:52+0000","like_count":1,"user_likes":false},"746454675371212":{"id":"746454675371212","from":{"id":"100000244577367","name":"Minh Tam Duong"},"message":"thi anh ay noi se vao hcm ma, dki to chuc truocthoi","can_remove":false,"created_time":"2013-10-26T07:36:11+0000","like_count":1,"user_likes":false},"746472472036099":{"id":"746472472036099","from":{"id":"100002508122689","name":"Vũ Mạnh Tuấn"},"message":"anh Kham Pha nhờ mấy anh chị admin có nhiều kinh nghiệm về tiếng Nhật đứng lên hỗ trợ đi ạ, như a Hưng chẳng hạn .","message_tags":[{"id":"100001458099624","name":"Kham Pha","type":"user","offset":4,"length":8}],"can_remove":false,"created_time":"2013-10-26T08:33:29+0000","like_count":0,"user_likes":false},"746485155368164":{"id":"746485155368164","from":{"id":"100004409731083","name":"Đô Trong Nghia"},"message":"quán nào đấy a( chị) Shota Karakawa","message_tags":[{"id":"100000995071588","name":"Shota","type":"user","offset":21,"length":5}],"can_remove":false,"created_time":"2013-10-26T09:15:40+0000","like_count":0,"user_likes":false},"746498205366859":{"id":"746498205366859","from":{"id":"100004094346107","name":"Thuy Nga Nguyen"},"message":"khi nào vào thành phố chí minh bạn nhớ báo nhé","can_remove":false,"created_time":"2013-10-26T09:57:19+0000","like_count":0,"user_likes":false},"746498355366844":{"id":"746498355366844","from":{"id":"100001754136107","name":"Nguyễn Tuấn Vũ"},"message":"Thanh Hoa Dang  hcoj trường c ak","message_tags":[{"id":"100001475606142","name":"Thanh Hoa Dang","type":"user","offset":0,"length":14}],"can_remove":false,"created_time":"2013-10-26T09:57:44+0000","like_count":0,"user_likes":false},"746499992033347":{"id":"746499992033347","from":{"id":"100003783699639","name":"Tô Ngọc Ánh"},"message":"いいですよ！！！会いましよう。！","can_remove":false,"created_time":"2013-10-26T10:03:33+0000","like_count":0,"user_likes":false},"746502835366396":{"id":"746502835366396","from":{"id":"1822854513","name":"Sữa Chua Không Đường"},"message":"今、私はフエに住んでいます。お会いできる日を楽しみにしています。よろしくお願いします ^o^","can_remove":false,"created_time":"2013-10-26T10:12:49+0000","like_count":0,"user_likes":false},"746541372029209":{"id":"746541372029209","from":{"id":"100002676859353","name":"Chu Quang Viên"},"message":"Chắc cậu ấy hay tham gia kouryuukai tại MAXX Cafe ở Trần Đại Nghĩa nên mới hẹn các bạn tại quán cafe ở BK,Vũ Vũ Mạnh Tuấn chú nhiều tgian và ham học thì tổ chức event giúp anh ấy :D","message_tags":[{"id":"100002508122689","name":"Vũ Mạnh Tuấn","type":"user","offset":109,"length":12}],"can_remove":false,"created_time":"2013-10-26T12:00:51+0000","like_count":1,"user_likes":false},"746552605361419":{"id":"746552605361419","from":{"id":"100001416272263","name":"Mai PB"},"message":"Cẩn thận không lại giống vụ sushi miễn phí :-D","can_remove":false,"created_time":"2013-10-26T12:28:47+0000","like_count":2,"user_likes":false},"746558988694114":{"id":"746558988694114","from":{"id":"100002508122689","name":"Vũ Mạnh Tuấn"},"message":"Chu Quang Viên: em có nhiều nhiệt huyết cơ mà kiến thức thì chưa đủ nên muốn nhờ các anh ạ.","message_tags":[{"id":"100002676859353","name":"Chu Quang Viên","type":"user","offset":0,"length":14}],"can_remove":false,"created_time":"2013-10-26T12:40:25+0000","like_count":0,"user_likes":false},"746687238681289":{"id":"746687238681289","from":{"id":"100003170058959","name":"Teru Teru Bozu"},"message":"Mong các ad xếp được 1 buổi gặp với bạn Shota Karakawa, cho mình đặt 1 chỗ :)","can_remove":false,"created_time":"2013-10-26T17:01:44+0000","like_count":0,"user_likes":false}},"paging":{"cursors":{"after":"NzQ2NDI5OTAyMDQwMzU2","before":"NzQ2NDI5OTAyMDQwMzU2"},"next":"https://graph.facebook.com/229244010425617_746429635373716/comments?limit=1&summary=1&after=NzQ2NDI5OTAyMDQwMzU2"},"summary":{"order":"chronological","total_count":32}}}