{"id":"229244010425617_746492775367402","type":"status","from":{"id":"100003310716068","name":"Lân Mỹ Nhân"},"message":"nếu em sang nhật học ngành ngôn ngữ và văn hóa nhật bản thì học trường đại học nào là phù hợp ạ ? mọi người giúp em với, cám ơn mọi người nhiều <3","created_time":"2013-10-26T09:40:36+0000","updated_time":"2013-10-26T13:00:42+0000","likes":{"data":{"1603137055":{"id":"1603137055","name":"Nguyen Song Lan Anh"}},"paging":{"cursors":{"after":"MTYwMzEzNzA1NQ==","before":"MTYwMzEzNzA1NQ=="}},"summary":{"total_count":1}},"comments":{"data":{"746551835361496":{"id":"746551835361496","from":{"id":"100001416272263","name":"Mai PB"},"message":"Song Lan Anh Nguyen giúp bạn này được không?","message_tags":[{"id":"1603137055","name":"Song Lan Anh Nguyen","type":"user","offset":0,"length":19}],"can_remove":false,"created_time":"2013-10-26T12:27:02+0000","like_count":2,"user_likes":false},"746569055359774":{"id":"746569055359774","from":{"id":"100003310716068","name":"Lân Mỹ Nhân"},"message":"con cám ơn chú ạ ^^","can_remove":false,"created_time":"2013-10-26T12:59:51+0000","like_count":1,"user_likes":false},"746569208693092":{"id":"746569208693092","from":{"id":"1603137055","name":"Nguyen Song Lan Anh"},"message":"Vâng. Em inbox cho chị nhé. Chị sẽ hướng dẫn kỹ hơn.","can_remove":false,"created_time":"2013-10-26T13:00:14+0000","like_count":0,"user_likes":false},"746569392026407":{"id":"746569392026407","from":{"id":"100003310716068","name":"Lân Mỹ Nhân"},"message":"dạ ^^","can_remove":false,"created_time":"2013-10-26T13:00:42+0000","like_count":0,"user_likes":false}},"paging":{"cursors":{"after":"NzQ2NTUxODM1MzYxNDk2","before":"NzQ2NTUxODM1MzYxNDk2"},"next":"https://graph.facebook.com/229244010425617_746492775367402/comments?limit=1&summary=1&after=NzQ2NTUxODM1MzYxNDk2"},"summary":{"order":"chronological","total_count":4}}}