{"id":"229244010425617_746565788693434","type":"photo","object_id":"1402866023282507","picture":"https://scontent-b.xx.fbcdn.net/hphotos-prn1/l/t1.0-0/541433_1402866023282507_2106161277_s.jpg","link":"https://www.facebook.com/photo.php?fbid=1402866023282507&set=gm.746565788693434&type=1&relevant_count=1","from":{"id":"100006773683757","name":"毎日 一つ漢字"},"message":"Hướng dẫn Cài đặt phần mềm giả lập Blue Stacks ,Phần mềm giúp máy tính bạn sẽ cài đặt được các ứng dụng học tiếng Nhật, từ điển Tiếng nhật, Kanji ... giống với các app có trong Androi.\nBạn nào có ý định thử thì xem file đính kèm và thử cài đặt ra xem sao nhé .\n\nHi vọng sẽ có ích cho mọi người. Good luck^^\n\nhttps://docs.google.com/document/d/1TdweOWOqEr74YpYlqGjRz9DEIX2T6Cy4wzmmneJ5Tmg/edit","created_time":"2013-10-26T12:52:21+0000","updated_time":"2013-11-05T10:44:52+0000","likes":{"data":{"100005478454231":{"id":"100005478454231","name":"Maruko Chan"},"100000284487802":{"id":"100000284487802","name":"Buu Lam Gia"},"100003209298923":{"id":"100003209298923","name":"Phuongcham Nguyen"},"100004716640495":{"id":"100004716640495","name":"Thúy An Dương"},"620134445":{"id":"620134445","name":"Anh Do"},"100004398330290":{"id":"100004398330290","name":"Lam Linh"},"100001458099624":{"id":"100001458099624","name":"Kham Pha"},"100001326003401":{"id":"100001326003401","name":"Zenryl Caramen"},"100003291913734":{"id":"100003291913734","name":"Phuong Le"},"100005380082514":{"id":"100005380082514","name":"Hoài Thu"},"100006767705219":{"id":"100006767705219","name":"Kim Liên"},"100002676859353":{"id":"100002676859353","name":"Chu Quang Viên"},"100003957878204":{"id":"100003957878204","name":"Ma Kết"},"100003893158172":{"id":"100003893158172","name":"Maru MO"},"100005694491959":{"id":"100005694491959","name":"Phuong Truong Thi Thanh"}},"paging":{"cursors":{"after":"MTAwMDA1NDc4NDU0MjMx","before":"MTAwMDA1NDc4NDU0MjMx"},"next":"https://graph.facebook.com/229244010425617_746565788693434/likes?limit=1&summary=1&after=MTAwMDA1NDc4NDU0MjMx"},"summary":{"total_count":16}},"comments":{"data":{"746576835358996":{"id":"746576835358996","from":{"id":"100003957878204","name":"Ma Kết"},"message":"like cơ mà tớ k bít cài.. :(((","can_remove":false,"created_time":"2013-10-26T13:17:43+0000","like_count":0,"user_likes":false},"746579215358758":{"id":"746579215358758","from":{"id":"100006773683757","name":"毎日 一つ漢字"},"message":"Ma Kết: Bạn đọc File ở links dưới và làm theo hướng dẫn, ko thì nhờ ai đó biết 1 chút về tin học cài là được","message_tags":[{"id":"100003957878204","name":"Ma Kết","type":"user","offset":0,"length":6}],"can_remove":false,"created_time":"2013-10-26T13:23:10+0000","like_count":1,"user_likes":false},"746593105357369":{"id":"746593105357369","from":{"id":"100001326003401","name":"Zenryl Caramen"},"message":"Arigatoo. :)","can_remove":false,"created_time":"2013-10-26T13:57:32+0000","like_count":0,"user_likes":false},"746599318690081":{"id":"746599318690081","from":{"id":"100000226801560","name":"Lương Anh Sơn"},"message":"Cái này chỉ chơi game là chính chứ từ điển với các phần mềm dùng của máy cho lành, bật lên đã lâu rồi và ngốn Ram cực kì","can_remove":false,"created_time":"2013-10-26T14:09:38+0000","like_count":0,"user_likes":false},"746610515355628":{"id":"746610515355628","from":{"id":"100006773683757","name":"毎日 一つ漢字"},"message":"Mình dùng thử thấy cũng ko đến nỗi nào.Nhất là cho những ai ko có điều kiện mua điện thoại có Androi .^^","can_remove":false,"created_time":"2013-10-26T14:31:57+0000","like_count":0,"user_likes":false},"746619292021417":{"id":"746619292021417","from":{"id":"100003957878204","name":"Ma Kết"},"message":"để tớ thử :D","can_remove":false,"created_time":"2013-10-26T14:48:58+0000","like_count":0,"user_likes":false},"746634128686600":{"id":"746634128686600","from":{"id":"100004716640495","name":"Thúy An Dương"},"message":"Hay quá ạ..Em cảm ơn ạ...どうも ありがとう ございます ^_^","can_remove":false,"created_time":"2013-10-26T15:19:52+0000","like_count":0,"user_likes":false},"746699565346723":{"id":"746699565346723","from":{"id":"100005801442456","name":"An Nguyen"},"message":"Nên gim vào phần góc học tập nhỉ bác Kham Pha","message_tags":[{"id":"100001458099624","name":"Kham Pha","type":"user","offset":37,"length":8}],"can_remove":false,"created_time":"2013-10-26T17:35:52+0000","like_count":0,"user_likes":false},"746703565346323":{"id":"746703565346323","from":{"id":"100001458099624","name":"Kham Pha"},"message":"ghim vào phần phần mềm,..","can_remove":false,"created_time":"2013-10-26T17:45:10+0000","like_count":0,"user_likes":false},"746707715345908":{"id":"746707715345908","from":{"id":"100005801442456","name":"An Nguyen"},"message":"Cái phần mình nói vác đọc chưa, nếu chậm đến .net còn chả có dsayss","can_remove":false,"created_time":"2013-10-26T17:54:59+0000","like_count":0,"user_likes":false},"752574384759241":{"id":"752574384759241","from":{"id":"100003957878204","name":"Ma Kết"},"message":"mình cài được rồi mà k bít cái bên học tiếng nhật nó nằm ở chỗ nào..ad chỉ vs :D","can_remove":false,"created_time":"2013-11-05T02:04:35+0000","like_count":0,"user_likes":false},"752787564737923":{"id":"752787564737923","from":{"id":"100006773683757","name":"毎日 一つ漢字"},"message":"Ma Kết' sau khi cài xong thì bạn làm theo hướng dẫn ở file google dos mình gửi lên đó. Muốn cài ứng dụng nào thì trước hết bạn vào mục App store --> 1 Mobile-->sau đó tìm biểu tượng cái kính lúp (tìm kiếm) việc gõ tên của ứng dụng vào ô tìm kiếm, sau đó ấn enter .ví dụ bạn gõ từ '' nihongo '' thì nó sẽ cho ra 1 loạt ứng dụng, bạn chọn vào ứng dụng cần tải về và cài đặt ra thôi.","message_tags":[{"id":"100003957878204","name":"Ma Kết","type":"user","offset":0,"length":6}],"can_remove":false,"created_time":"2013-11-05T10:29:59+0000","like_count":1,"user_likes":false},"752792284737451":{"id":"752792284737451","from":{"id":"100003957878204","name":"Ma Kết"},"message":"arigatou :)))","can_remove":false,"created_time":"2013-11-05T10:44:52+0000","like_count":0,"user_likes":false}},"paging":{"cursors":{"after":"NzQ2NTc2ODM1MzU4OTk2","before":"NzQ2NTc2ODM1MzU4OTk2"},"next":"https://graph.facebook.com/229244010425617_746565788693434/comments?limit=1&summary=1&after=NzQ2NTc2ODM1MzU4OTk2"},"summary":{"order":"chronological","total_count":15}}}