{"id":"229244010425617_746642742019072","type":"photo","object_id":"360492220753284","picture":"https://fbcdn-photos-g-a.akamaihd.net/hphotos-ak-ash3/t1.0-0/1383482_360492220753284_1512486729_s.jpg","link":"https://www.facebook.com/photo.php?fbid=360492220753284&set=gm.746642742019072&type=1&relevant_count=1","from":{"id":"100003775274952","name":"Masahiro Kano"},"message":"Thank u for approving on this Facebook group.im Masahiro Kano from Tokyo. 2years ago ,Only as for three weeks I have learned at Ho Chi Minh City University of Social Sciences and Humanities. so I like here so much.i would like to stay in Vietnam again. And I want get a job in Vietnam.","created_time":"2013-10-26T15:37:11+0000","updated_time":"2013-10-30T04:48:32+0000","likes":{"data":{"100001917485436":{"id":"100001917485436","name":"Cun Mit"},"100006902799015":{"id":"100006902799015","name":"Đào Tạo Seo"},"1148962646":{"id":"1148962646","name":"Tran Thi Tuong Van"},"100000190521247":{"id":"100000190521247","name":"Sữa Nhí Nhố"},"100000299798248":{"id":"100000299798248","name":"Vẹt Đêm"},"100001003687542":{"id":"100001003687542","name":"PhạmNgân Same"},"100000027754899":{"id":"100000027754899","name":"Hoang Van Ba"},"1214116060":{"id":"1214116060","name":"Trần Xuân Đức"},"100001723862714":{"id":"100001723862714","name":"Bo Bien Vang"},"100000427448138":{"id":"100000427448138","name":"Anh Tuan Pham"},"100002508122689":{"id":"100002508122689","name":"Vũ Mạnh Tuấn"},"757996837":{"id":"757996837","name":"Tuan Anh"},"1733088155":{"id":"1733088155","name":"Lynn Kunz"},"1138105190":{"id":"1138105190","name":"Vita Min"},"100000629560377":{"id":"100000629560377","name":"Yuki Hana"},"100006767705219":{"id":"100006767705219","name":"Kim Liên"},"100001458099624":{"id":"100001458099624","name":"Kham Pha"},"100002327743510":{"id":"100002327743510","name":"Tuan Thanh"},"100001659230540":{"id":"100001659230540","name":"Lemon Tea"},"100005801442456":{"id":"100005801442456","name":"An Nguyen"},"100000110601676":{"id":"100000110601676","name":"장미"},"100000359762118":{"id":"100000359762118","name":"Mi Tra"}},"paging":{"cursors":{"after":"MTAwMDAxOTE3NDg1NDM2","before":"MTAwMDAxOTE3NDg1NDM2"},"next":"https://graph.facebook.com/229244010425617_746642742019072/likes?limit=1&summary=1&after=MTAwMDAxOTE3NDg1NDM2"},"summary":{"total_count":22}},"comments":{"data":{"746657702017576":{"id":"746657702017576","from":{"id":"100001867930140","name":"Phong Linh Smile"},"message":"Nice to meet you!","can_remove":false,"created_time":"2013-10-26T16:06:41+0000","like_count":0,"user_likes":false},"746662142017132":{"id":"746662142017132","from":{"id":"100003775274952","name":"Masahiro Kano"},"message":"Nice to meet u too.rất vui được gặp ban.","can_remove":false,"created_time":"2013-10-26T16:16:20+0000","like_count":1,"user_likes":false},"746668788683134":{"id":"746668788683134","from":{"id":"100004293973335","name":"Nga Ngố"},"message":"shi tsu rei de su ga,o i ku tsu de su ka","can_remove":false,"created_time":"2013-10-26T16:32:22+0000","like_count":0,"user_likes":false},"746674245349255":{"id":"746674245349255","from":{"id":"100003775274952","name":"Masahiro Kano"},"message":"21sai de su yo","can_remove":false,"created_time":"2013-10-26T16:38:27+0000","like_count":0,"user_likes":false},"746676358682377":{"id":"746676358682377","from":{"id":"100004293973335","name":"Nga Ngố"},"message":"e,wa ta shi 22 de su","can_remove":false,"created_time":"2013-10-26T16:44:14+0000","like_count":0,"user_likes":false},"746677905348889":{"id":"746677905348889","from":{"id":"100004293973335","name":"Nga Ngố"},"message":"anata wa doko ni sun de i ma du ka","can_remove":false,"created_time":"2013-10-26T16:46:14+0000","like_count":0,"user_likes":false},"746679252015421":{"id":"746679252015421","from":{"id":"100003775274952","name":"Masahiro Kano"},"message":"Tokyo desu","can_remove":false,"created_time":"2013-10-26T16:48:56+0000","like_count":0,"user_likes":false},"746683255348354":{"id":"746683255348354","from":{"id":"100003170058959","name":"Teru Teru Bozu"},"message":"いつ　ベトナムへ　来るつもりですか。","can_remove":false,"created_time":"2013-10-26T16:54:26+0000","like_count":0,"user_likes":false},"746683315348348":{"id":"746683315348348","from":{"id":"100004293973335","name":"Nga Ngố"},"message":"ima Tokyo wa nan ji de su ka","can_remove":false,"created_time":"2013-10-26T16:54:37+0000","like_count":0,"user_likes":false},"746683765348303":{"id":"746683765348303","from":{"id":"100003775274952","name":"Masahiro Kano"},"message":"1:55 desuyo","can_remove":false,"created_time":"2013-10-26T16:55:48+0000","like_count":0,"user_likes":false},"746683925348287":{"id":"746683925348287","from":{"id":"100004293973335","name":"Nga Ngố"},"message":"Viet Nam wa 23h56 desu","can_remove":false,"created_time":"2013-10-26T16:56:21+0000","like_count":0,"user_likes":false},"746684932014853":{"id":"746684932014853","from":{"id":"100003170058959","name":"Teru Teru Bozu"},"message":"どうして　遅い　寝たんですか。","can_remove":false,"created_time":"2013-10-26T16:57:32+0000","like_count":0,"user_likes":false},"746691235347556":{"id":"746691235347556","from":{"id":"100001458099624","name":"Kham Pha"},"message":"các bạn viết tiếng Nhật đừng viết bằng romanji, như vậy ko đọc được đâu.","can_remove":false,"created_time":"2013-10-26T17:13:04+0000","like_count":1,"user_likes":false},"746859241997422":{"id":"746859241997422","from":{"id":"1733088155","name":"Lynn Kunz"},"message":"まさひろ さん、どんな仕事をしたいんですか。","can_remove":false,"created_time":"2013-10-26T23:38:16+0000","like_count":0,"user_likes":false},"747130395303640":{"id":"747130395303640","from":{"id":"100001458099624","name":"Kham Pha"},"message":"Masahiro Kano Welcome to our group. There are many group members in HCM city, over 20 percent, I guess. One of our admins Vẹt Đêm, she is now living in there. She's kind and very helpful. I'm sure you guys will be good friends. When you come back to Vietnam, please tell us, you will find many helps for sure :)","message_tags":[{"id":"100003775274952","name":"Masahiro Kano","type":"user","offset":0,"length":13},{"id":"100000299798248","name":"Vẹt Đêm","type":"user","offset":122,"length":7}],"can_remove":false,"created_time":"2013-10-27T12:05:46+0000","like_count":6,"user_likes":false},"747569635259716":{"id":"747569635259716","from":{"id":"100000027754899","name":"Hoang Van Ba"},"message":"阮忠德\nさーすがぁぁわね","can_remove":false,"created_time":"2013-10-28T05:09:03+0000","like_count":1,"user_likes":false},"747594791923867":{"id":"747594791923867","from":{"id":"100000299798248","name":"Vẹt Đêm"},"message":"Masahiro Kano: hi, Masahiro Kano. I used to study Japanese department at Ho Chi Minh City University of Social Sciences and Humanities.  You can call me Truc or Take. \nI'm glad to know your feeling about Viet Nam and Ho Chi Minh  city. Vietnam welcome not only foreign visitors but also foreigners who want to live and work. If you have any questions about jobs, you can get touch with me by fb or email thanhtruc.jp@gmail.com. I hope I can help you to find a job appropriate for you in here:)","message_tags":[{"id":"100003775274952","name":"Masahiro Kano","type":"user","offset":0,"length":13}],"can_remove":false,"created_time":"2013-10-28T06:37:46+0000","like_count":1,"user_likes":false},"748936935122986":{"id":"748936935122986","from":{"id":"100000381394367","name":"Thành Nguyễn"},"message":"Welcome Masahiro Kano. This group is created for everyone interested in relationship between Vietnam and Japan, we share the spiritual values of two countries and help eachother in our lives. The development of group and community base on the contribution of every members. I hope you will be active contributor for our group.","can_remove":false,"created_time":"2013-10-30T02:40:59+0000","like_count":0,"user_likes":false},"748939848456028":{"id":"748939848456028","from":{"id":"100003775274952","name":"Masahiro Kano"},"message":"Lynn kunz 遅くなりました。すいません。\nまだ決まってないですが、日本とベトナムに関係してる仕事ならなんでもいいですよ。","can_remove":false,"created_time":"2013-10-30T02:49:12+0000","like_count":0,"user_likes":false},"748943778455635":{"id":"748943778455635","from":{"id":"100000381394367","name":"Thành Nguyễn"},"message":"Masahiro Kano: you can come here http://www.oshigoto.com/. I think there are some jobs suitable for you","can_remove":false,"created_time":"2013-10-30T02:59:39+0000","like_count":0,"user_likes":false},"748979438452069":{"id":"748979438452069","from":{"id":"100003775274952","name":"Masahiro Kano"},"message":"阮忠 徳 Hoang Van Ba 竹羅 okay . I know.I appreciate your thoughtful offer of assistance if the need should arise. Acutually,I'll drop by one of these days again. It will not be long before I visit to Ho Chi Minh city.decision date is still up in the air.","can_remove":false,"created_time":"2013-10-30T04:48:32+0000","like_count":0,"user_likes":false}},"paging":{"cursors":{"after":"NzQ2NjU3NzAyMDE3NTc2","before":"NzQ2NjU3NzAyMDE3NTc2"},"next":"https://graph.facebook.com/229244010425617_746642742019072/comments?limit=1&summary=1&after=NzQ2NjU3NzAyMDE3NTc2"},"summary":{"order":"chronological","total_count":21}}}