{"id":"229244010425617_746643322019014","type":"status","from":{"id":"100005603820219","name":"Phuong Luong"},"message":"chào cả nhà. mình đang muốn tự học tiếng nhật mà không biết bắt đầu từ đâu mọi người chỉ cho mình với","created_time":"2013-10-26T15:38:49+0000","updated_time":"2013-10-27T02:47:33+0000","likes":{"data":{"100006767705219":{"id":"100006767705219","name":"Kim Liên"},"100005503388025":{"id":"100005503388025","name":"Quynh Jhvnh"}},"paging":{"cursors":{"after":"MTAwMDA2NzY3NzA1MjE5","before":"MTAwMDA2NzY3NzA1MjE5"},"next":"https://graph.facebook.com/229244010425617_746643322019014/likes?limit=1&summary=1&after=MTAwMDA2NzY3NzA1MjE5"},"summary":{"total_count":2}},"comments":{"data":{"746644945352185":{"id":"746644945352185","from":{"id":"100003822434250","name":"Sói Đây Gà Đâu"},"message":"こんばんは","can_remove":false,"created_time":"2013-10-26T15:42:33+0000","like_count":0,"user_likes":false},"746645415352138":{"id":"746645415352138","from":{"id":"100005603820219","name":"Phuong Luong"},"message":"là sao? giúp mình với","can_remove":false,"created_time":"2013-10-26T15:43:49+0000","like_count":0,"user_likes":false},"746645548685458":{"id":"746645548685458","from":{"id":"100003050841775","name":"Lì Mà Bướng"},"message":"bạn học bảng chữ cái đi!","can_remove":false,"created_time":"2013-10-26T15:44:08+0000","like_count":0,"user_likes":false},"746645968685416":{"id":"746645968685416","from":{"id":"100005603820219","name":"Phuong Luong"},"message":"bạn có không gửi cho mình, thanks","can_remove":false,"created_time":"2013-10-26T15:45:05+0000","like_count":0,"user_likes":false},"746646248685388":{"id":"746646248685388","from":{"id":"100003822434250","name":"Sói Đây Gà Đâu"},"message":"","can_remove":false,"created_time":"2013-10-26T15:46:03+0000","like_count":1,"user_likes":false},"746646465352033":{"id":"746646465352033","from":{"id":"100003822434250","name":"Sói Đây Gà Đâu"},"message":"hiragana đây","can_remove":false,"created_time":"2013-10-26T15:46:40+0000","like_count":0,"user_likes":false},"746646595352020":{"id":"746646595352020","from":{"id":"100003106320056","name":"Iris Nguyễn"},"message":"Lì Mà Bướng bà học đến bài bao nhiêu mina ròi vậy","message_tags":[{"id":"100003050841775","name":"Lì Mà Bướng","type":"user","offset":0,"length":11}],"can_remove":false,"created_time":"2013-10-26T15:46:58+0000","like_count":0,"user_likes":false},"746646638685349":{"id":"746646638685349","from":{"id":"100003822434250","name":"Sói Đây Gà Đâu"},"message":"katakana","can_remove":false,"created_time":"2013-10-26T15:47:00+0000","like_count":3,"user_likes":false},"746646918685321":{"id":"746646918685321","from":{"id":"100005603820219","name":"Phuong Luong"},"message":"cảm ơn nha có gì nhờ cả nhà giúp","can_remove":false,"created_time":"2013-10-26T15:47:35+0000","like_count":0,"user_likes":false},"746648038685209":{"id":"746648038685209","from":{"id":"100003822434250","name":"Sói Đây Gà Đâu"},"message":"どいたしまして","can_remove":false,"created_time":"2013-10-26T15:50:34+0000","like_count":0,"user_likes":false},"746652288684784":{"id":"746652288684784","from":{"id":"100004398127401","name":"Đứng Dậy Vươn Vai"},"message":"đọc romari trước đi bạn ạ","can_remove":false,"created_time":"2013-10-26T15:57:40+0000","like_count":0,"user_likes":false},"746652762018070":{"id":"746652762018070","from":{"id":"100005603820219","name":"Phuong Luong"},"message":"là cái gì cơ bạn","can_remove":false,"created_time":"2013-10-26T15:58:32+0000","like_count":0,"user_likes":false},"746654162017930":{"id":"746654162017930","from":{"id":"100001867930140","name":"Phong Linh Smile"},"message":"Là 2 bảng chữ cái đó pạn!","can_remove":false,"created_time":"2013-10-26T16:01:01+0000","like_count":0,"user_likes":false},"746655098684503":{"id":"746655098684503","from":{"id":"100005603820219","name":"Phuong Luong"},"message":"ok","can_remove":false,"created_time":"2013-10-26T16:02:56+0000","like_count":0,"user_likes":false},"746890598660953":{"id":"746890598660953","from":{"id":"100001156666759","name":"Kenshuu Steam"},"message":"Bắt đầu từ việc \"lên facebook đăng stt hỏi.mọi người.nên bắt đầu từ đâu\"","can_remove":false,"created_time":"2013-10-27T01:09:34+0000","like_count":0,"user_likes":false},"746916088658404":{"id":"746916088658404","from":{"id":"100002145579460","name":"Nhất Cước Sanji"},"message":"tu hoc cung kho khan day ban ah. co nhieu cai nhin ko tuong dc dau. tot nhat nen di hoc o 1 trung tam uy tin roi minh tu phat trien them thoi. :D","can_remove":false,"created_time":"2013-10-27T02:06:11+0000","like_count":0,"user_likes":false},"746927765323903":{"id":"746927765323903","from":{"id":"100004409731083","name":"Đô Trong Nghia"},"message":"thế e học hết 2 bảng chữ cái,bảng phụ âm ghép xúc âm trường âm thì bắt đầu tiếp như thế nào ah.","can_remove":false,"created_time":"2013-10-27T02:35:39+0000","like_count":0,"user_likes":false},"746928398657173":{"id":"746928398657173","from":{"id":"100001156666759","name":"Kenshuu Steam"},"message":"Học từ vựng tiếp","can_remove":false,"created_time":"2013-10-27T02:36:57+0000","like_count":0,"user_likes":false},"746928971990449":{"id":"746928971990449","from":{"id":"100004409731083","name":"Đô Trong Nghia"},"message":"a(c) có biết quyển sách nào hay link chỉ cho e với","can_remove":false,"created_time":"2013-10-27T02:39:07+0000","like_count":0,"user_likes":false},"746931301990216":{"id":"746931301990216","from":{"id":"100002145579460","name":"Nhất Cước Sanji"},"message":"ban len mang seach full bo sach mina no nihongo. :D","can_remove":false,"created_time":"2013-10-27T02:46:10+0000","like_count":0,"user_likes":false},"746931851990161":{"id":"746931851990161","from":{"id":"100004409731083","name":"Đô Trong Nghia"},"message":"arigato gozaimasu Nhất Cước Sanji","message_tags":[{"id":"100002145579460","name":"Nhất Cước Sanji","type":"user","offset":18,"length":15}],"can_remove":false,"created_time":"2013-10-27T02:47:33+0000","like_count":0,"user_likes":false}},"paging":{"cursors":{"after":"NzQ2NjQ0OTQ1MzUyMTg1","before":"NzQ2NjQ0OTQ1MzUyMTg1"},"next":"https://graph.facebook.com/229244010425617_746643322019014/comments?limit=1&summary=1&after=NzQ2NjQ0OTQ1MzUyMTg1"},"summary":{"order":"chronological","total_count":21}}}