{"id":"229244010425617_746895068660506","type":"link","picture":"https://fbstatic-a.akamaihd.net/rsrc.php/v2/y3/r/0PnClccPFXs.png","link":"https://www.facebook.com/groups/CongdongVietNhat/permalink/746030632080283/","from":{"id":"100002290906582","name":"Kanashimi No Yukue"},"message":"Mình đã đăng tin sẽ mở lớp học miễn phí cho những bạn muốn học nhật, chi tiết các bạn xem ở đây nhé\nhttps://www.facebook.com/groups/CongdongVietNhat/permalink/746030632080283/\n\nVì cũng đã có khá nhiều bạn đk nên mình dự định nhanh nhất là trong vòng 2 tuần tới sau khi ổn định lịch học của mình và tìm được địa điểm thuê phù hợp sẽ mở lớp bắt đầu trước vào khoảng chiều thứ 7.\nBạn nào còn muốn đk hay những bạn nào đã đk với mình qua fb rồi có thể giúp mình điền thông tin vào đây để mình dễ lọc thông tin\nhttps://docs.google.com/spreadsheet/ccc?key=0ApidjvrjKduPdDFMZVh1anI0VU9DMlhVTGhQM1BTX3c&usp=sharing#gid=0\n\nCó ai biết chỗ thuê phòng học nào tốt, gần văn miếu nữa thì càng hay thì liên hệ với mình nhé\n\nKhi nào lớp chính thức được mở, mình sẽ gửi mail cho tất cả mọi người. Mọi người xem lịch học và địa điểm nếu thấy ko phù hợp thì gửi mail cho mình báo ko đi được nhé, cả những bạn có thể tham gia cũng gửi mail cho mình để mình chốt ds lần cuối\n\nCảm ơn đã đọc","created_time":"2013-10-27T01:24:16+0000","updated_time":"2013-10-27T14:01:30+0000","likes":{"data":{"100001122451473":{"id":"100001122451473","name":"Lavender Cullen"},"100002185080351":{"id":"100002185080351","name":"Nguyễn Xuân Bách"},"100002508122689":{"id":"100002508122689","name":"Vũ Mạnh Tuấn"},"100001754136107":{"id":"100001754136107","name":"Nguyễn Tuấn Vũ"},"100006767705219":{"id":"100006767705219","name":"Kim Liên"},"100005013365720":{"id":"100005013365720","name":"Hoàng BáCh"},"100004405054916":{"id":"100004405054916","name":"Trần Anh Dũng"}},"paging":{"cursors":{"after":"MTAwMDAxMTIyNDUxNDcz","before":"MTAwMDAxMTIyNDUxNDcz"},"next":"https://graph.facebook.com/229244010425617_746895068660506/likes?limit=1&summary=1&after=MTAwMDAxMTIyNDUxNDcz"},"summary":{"total_count":7}},"comments":{"data":{"746899068660106":{"id":"746899068660106","from":{"id":"100004405054916","name":"Trần Anh Dũng"},"message":"Có quan tâm thì comment gì nhỉ? :-ss","can_remove":false,"created_time":"2013-10-27T01:32:29+0000","like_count":0,"user_likes":false},"746899135326766":{"id":"746899135326766","from":{"id":"100002290906582","name":"Kanashimi No Yukue"},"message":"lớp bắt đầu mình sẽ dạy tất cả các kĩ năng nghe nói đọc viết nên khuyến khích cả các bạn trình độ N5 đi nhé","can_remove":false,"created_time":"2013-10-27T01:32:32+0000","like_count":0,"user_likes":false},"746899498660063":{"id":"746899498660063","from":{"id":"100002290906582","name":"Kanashimi No Yukue"},"message":"cm gì PR cho mình đi Trần Anh Dũng :v","message_tags":[{"id":"100004405054916","name":"Trần Anh Dũng","type":"user","offset":21,"length":13}],"can_remove":false,"created_time":"2013-10-27T01:33:14+0000","like_count":0,"user_likes":false},"746900491993297":{"id":"746900491993297","from":{"id":"100004405054916","name":"Trần Anh Dũng"},"message":"Có cần thêm ảnh để nhận dạng ko e? :D","can_remove":false,"created_time":"2013-10-27T01:35:47+0000","like_count":0,"user_likes":false},"746900801993266":{"id":"746900801993266","from":{"id":"100002290906582","name":"Kanashimi No Yukue"},"message":"dạ thôi :v có tên để điểm danh là đủ rồi ạh :3","can_remove":false,"created_time":"2013-10-27T01:36:30+0000","like_count":0,"user_likes":false},"746901261993220":{"id":"746901261993220","from":{"id":"100004405054916","name":"Trần Anh Dũng"},"message":"*gãi đầu* tên có rồi đó thôi..PR thêm gì nữa?","can_remove":false,"created_time":"2013-10-27T01:37:46+0000","like_count":0,"user_likes":false},"746901438659869":{"id":"746901438659869","from":{"id":"100002290906582","name":"Kanashimi No Yukue"},"message":"thì đk vô link đi nữa ạh :3","can_remove":false,"created_time":"2013-10-27T01:38:12+0000","like_count":1,"user_likes":false},"746933881989958":{"id":"746933881989958","from":{"id":"100004360751785","name":"Hà Nguyễn"},"message":"thứ bảy máu chảy về tim, ta đi học heheehe. c ơi có nhiều bạn đăng ký chưa :D?","can_remove":false,"created_time":"2013-10-27T02:52:26+0000","like_count":0,"user_likes":false},"747130211970325":{"id":"747130211970325","from":{"id":"100002290906582","name":"Kanashimi No Yukue"},"message":"27 bạn :v","can_remove":false,"created_time":"2013-10-27T12:05:15+0000","like_count":0,"user_likes":false},"747142631969083":{"id":"747142631969083","from":{"id":"100001122451473","name":"Lavender Cullen"},"message":"hầy, nhiều người có nguyện vọng vào cuối tuần quá nhỉ? :( cuối tuần mình phải về quê mất rồi :(","can_remove":false,"created_time":"2013-10-27T12:38:00+0000","like_count":0,"user_likes":false},"747185598631453":{"id":"747185598631453","from":{"id":"100002290906582","name":"Kanashimi No Yukue"},"message":"ko tuần này thì tuần sau cũng được mà ^^","can_remove":false,"created_time":"2013-10-27T14:01:30+0000","like_count":0,"user_likes":false}},"paging":{"cursors":{"after":"NzQ2ODk5MDY4NjYwMTA2","before":"NzQ2ODk5MDY4NjYwMTA2"},"next":"https://graph.facebook.com/229244010425617_746895068660506/comments?limit=1&summary=1&after=NzQ2ODk5MDY4NjYwMTA2"},"summary":{"order":"chronological","total_count":11}}}