{"id":"229244010425617_747092601974086","type":"status","from":{"id":"100004409731083","name":"Đô Trong Nghia"},"message":"Mọi người  cho em hỏi 1 chút.Em đang học thêm tiếng nhật ,tiếng anh thì em cũng học được nhưng lâu ko động đến cũng quên 1 chút ..E định học tốt cả 2 thứ tiếng đó nhưng e ko biết sắp xếp ntn cho phù hợp.Những a c nào học dk như vậy thì chỉ giúp e dk ko ạ.","created_time":"2013-10-27T10:57:53+0000","updated_time":"2013-10-27T12:39:53+0000","likes":{"data":{"100002887947757":{"id":"100002887947757","name":"Nguyen Dang"},"100002414995202":{"id":"100002414995202","name":"Nguyễn Duy Công"}},"paging":{"cursors":{"after":"MTAwMDAyODg3OTQ3NzU3","before":"MTAwMDAyODg3OTQ3NzU3"},"next":"https://graph.facebook.com/229244010425617_747092601974086/likes?limit=1&summary=1&after=MTAwMDAyODg3OTQ3NzU3"},"summary":{"total_count":2}},"comments":{"data":{"747093285307351":{"id":"747093285307351","from":{"id":"100002414995202","name":"Nguyễn Duy Công"},"message":"sáng c dậy lúc 5h học tiếng Anh 1 tiếng, xong chuyển sang tiếng Nhật. Cứ đều đều vậy :) Phân ra hôm nào học nghe, hôm nào học viết, học đọc, hoặc trộn lại :D","can_remove":false,"created_time":"2013-10-27T10:59:22+0000","like_count":2,"user_likes":false},"747094408640572":{"id":"747094408640572","from":{"id":"683231044","name":"Hoàng Hải Đăng"},"message":"Mình cũng đang học tieng nhat va tieng anh nhu bạn này. Muon hoc dc phai quen tieng viẹt","can_remove":false,"created_time":"2013-10-27T11:01:58+0000","like_count":1,"user_likes":false},"747094415307238":{"id":"747094415307238","from":{"id":"100004409731083","name":"Đô Trong Nghia"},"message":"mình cứ dk vài hôm thì lại trở về như cũ.chắc m cũng phải xem lại thoy..thế b cũng như vậy hả Nguyễn Duy Tiếng Nhật Công Đoàn","message_tags":[{"id":"100006463950316","name":"Tiếng Nhật Công Đoàn","type":"user","offset":105,"length":20}],"can_remove":false,"created_time":"2013-10-27T11:02:00+0000","like_count":0,"user_likes":false},"747094718640541":{"id":"747094718640541","from":{"id":"100002414995202","name":"Nguyễn Duy Công"},"message":"quan trọng là chịu khó :D Mưa dầm thấm lâu :D","can_remove":false,"created_time":"2013-10-27T11:03:30+0000","like_count":0,"user_likes":false},"747094868640526":{"id":"747094868640526","from":{"id":"100004409731083","name":"Đô Trong Nghia"},"message":"thế ạ ..chắc khó lắm ..1 thứ còn ko xong đây lại 2 thứ tiếng .chắc chỉ có e nghĩ vậy","can_remove":false,"created_time":"2013-10-27T11:04:13+0000","like_count":0,"user_likes":false},"747095075307172":{"id":"747095075307172","from":{"id":"100002414995202","name":"Nguyễn Duy Công"},"message":":v","can_remove":false,"created_time":"2013-10-27T11:04:45+0000","like_count":0,"user_likes":false},"747096621973684":{"id":"747096621973684","from":{"id":"100004409731083","name":"Đô Trong Nghia"},"message":"nhưng e có gốc tiếng anh rồi,,chỉ do vào bách khoa ko học nhiều mà đa số là tự học,,e thích tiếng nhật nên đang học rồi ạ,,nhưng e thấy học tiếng nhật mất nhiều thời gian bởi vì e mới bắt đầu,nên e phân vân ko biết nhtn nên hỏi mọi người.","can_remove":false,"created_time":"2013-10-27T11:09:13+0000","like_count":0,"user_likes":false},"747102008639812":{"id":"747102008639812","from":{"id":"100000187612259","name":"Karasoul IOo"},"message":"khó tức là có cơ hội làm được! đi từ mấu chốt vấn đề, đạp tan  tất cả là suy xét vì sao. Ngoại ngữ như bạn trên nói ko sai chút nào: mưa dầm thấm lâu, cơ n mà bạn thì chưa thấm vì ko phải mưa dầm. Vậy sao ngta là mưa dầm mà mình thì ko, muốn có đc mưa dầm thì làm sao. Có được ngoại ngữ tốt nhờ vào 2 yếu tố: bạn thiếu yếu tố nào thì bổ sung cân bằng. Môi trường & Động lực. Môi trường nếu là tự nhiên thì có thể động lực ko lớn, nhác nhác một tý ko sao, lâu dài nó vẫn ngấm, đc môi trường tự nhiên này là tốt nhất. Cơ nếu mà ko có, thì phải tạo môi trường nhân tạo, làm nó y như môi trường thật đến mức có thể, khi đó động lực phải lớn, động lực sao cho lớn, ngay từ đầu xác định học để cuối cùng làm gì, nghĩ xem với động lực ta có chịu khó chịu khổ, chịu học đến cuối con đường hay ko. Nếu ngay từ đầu ướm chừng mà học vui vui, hay thấy ai giỏi thôi ta cũng phải mới được, ngưỡng mộ quá, thì chuyển ngạch khác luôn, bởi sau này ko tới nơi tới  chốn, bỏ là phí cả một quãng thời gian dài quằn quại. Nếu tự tin ta đủ thì ngon rồi, ta sẽ chơi với nó đến cùng: giờ chỉ là xem đấu pháp với 2 đối thủ này ra sao thôi. Biết người biết ta, trăm trận trăm thắng. Rõ ràng, ta phải hiểu rõ về đặc điểm của từng thằng, khó ở đâu, gian nan chỗ nào, rồi từ đó mà đánh du kích, đánh chắc thắng chắc, phân phối thời gian hợp lý kẻo bị tẩu hỏa nhập ma, mất cả chì lẫn chài. 2 thằng này ai cũng biết là nó ngược ngược, cảm giác như ai học 2 cái này vào như kiểu nếu ko nắm chắc được từng thứ 1, thì như kiểu mặc một cái quần rỗng, ta cố kéo bên này lên, thì bên kia nó lại tụt. kéo mãi kéo mãi, chả thấy nó có tiến triển thêm chút nào, chi bằng, chậm mà chắc, ta kéo nhẹ nhàng, nhịp nhàng, từ từ cả 2 bên. Cách học và kinh nghiệm từng cái, dành đi khoảng thời gian khá khá mà tìm hiểu thêm trên mạng. Cao thủ ở khắp nơi, ta ko giỏi như a nói tiếng anh này, ta ko thật sự bằng chị nói tiếng nhật kia, n ta tự tin những gì ta có và sẽ có trong tương lai với cả 2 thằng này. Chúc bạn đi đúng đường và may mắn, ng chăm học ngoại ngữ hầu như là những người tốt tính.","can_remove":false,"created_time":"2013-10-27T11:19:07+0000","like_count":5,"user_likes":false},"747102865306393":{"id":"747102865306393","from":{"id":"100001557279247","name":"Ngo Dinh Le Diem"},"message":"oh, bạn muốn học cả 2 thì phải chăm nhiều hơn hơn nữa. Mình học ngành NB học nè, tiếng 2 là tiếng Anh. Phải sắp xếp thời gian  hợp lý, tại tiếng Nhật khó và nhiều ( Kanji,cấu trúc) nên phải dành thời gian nhiều hơn cả tiếng anh, mỗi ngày phải học chứ bỏ lâu là quên liền. Nói chung sẽ ok thôi nếu bạn phân bố thời gian hợp lý và quan trọng là chăm.","can_remove":false,"created_time":"2013-10-27T11:20:15+0000","like_count":1,"user_likes":false},"747103151973031":{"id":"747103151973031","from":{"id":"100005684619923","name":"Le Thieu"},"message":"vo van","can_remove":false,"created_time":"2013-10-27T11:21:12+0000","like_count":0,"user_likes":false},"747134541969892":{"id":"747134541969892","from":{"id":"100006437927747","name":"Tian Vova"},"message":"Bạn hãy mượn quyển giáo trình minano nihongo song ngữ Nhật-Anh đó. Khôg biết ở siêu thị Viet Nam có bán ko vì mình chưa mua nhưng mà ở Nhật, ngừoi ta có biên soạn quyển giáo trình này cho những ngừoi nc ngoài mà có nói tiếng anh. Nó cũng giống vs quyên minano tiếng việt của mình. Chỉ khác là thay vì tiếng việt thì noa là tiếng anh. Nvay thì bạn có thể học được cả 2 rồi vs lại từ vỡ lòng nua chứa","can_remove":false,"created_time":"2013-10-27T12:15:03+0000","like_count":1,"user_likes":false},"747143361969010":{"id":"747143361969010","from":{"id":"100001156666759","name":"Kenshuu Steam"},"message":"chẳng có cái kinh  nghiệm hay cách nào cả, chỉ đơn giản là  \" văn ôn võ luyện\"... mà đồng chí đang học mảng văn thôi","can_remove":false,"created_time":"2013-10-27T12:39:53+0000","like_count":0,"user_likes":false}},"paging":{"cursors":{"after":"NzQ3MDkzMjg1MzA3MzUx","before":"NzQ3MDkzMjg1MzA3MzUx"},"next":"https://graph.facebook.com/229244010425617_747092601974086/comments?limit=1&summary=1&after=NzQ3MDkzMjg1MzA3MzUx"},"summary":{"order":"chronological","total_count":12}}}