{"id":"229244010425617_747193408630672","type":"link","picture":"https://fbexternal-a.akamaihd.net/safe_image.php?d=AQCfyVZ1C_lVgdX2&w=154&h=154&url=http%3A%2F%2Fwww.viet.rfi.fr%2Fsites%2Fviet.filesrfi%2Fdynimagecache%2F140%2F0%2F585%2F437%2F344%2F257%2Fsites%2Fimages.rfi.fr%2Ffiles%2Faef_image%2F800px-Mitsubishi_F-2_at_Guam_%28Cropped%29.jpg","link":"http://rfi.my/1apmOwP","from":{"id":"100001416272263","name":"Mai PB"},"message":"Hồi hộp ghê. VN đương nhiên phải ủng hộ Nhật rồi chứ nhỉ? Chính phủ thế nào thì chịu.","created_time":"2013-10-27T14:15:44+0000","updated_time":"2013-10-28T05:28:33+0000","likes":{"data":{"100003819875708":{"id":"100003819875708","name":"Piglazy Pham"},"100004558111125":{"id":"100004558111125","name":"Toi HaDanh"},"100003696134321":{"id":"100003696134321","name":"Phạm Hạnh"},"100005003803711":{"id":"100005003803711","name":"Yuki Shiroi"},"100004092183472":{"id":"100004092183472","name":"Bich Ngoc"},"100003005597243":{"id":"100003005597243","name":"Zany Royal"},"100001113365914":{"id":"100001113365914","name":"Thanh Xuân Nguyễn"},"100006857311073":{"id":"100006857311073","name":"Tu Pham"},"100001744546054":{"id":"100001744546054","name":"Quân Dương"},"100000027754899":{"id":"100000027754899","name":"Hoang Van Ba"},"100001458099624":{"id":"100001458099624","name":"Kham Pha"},"100006767705219":{"id":"100006767705219","name":"Kim Liên"},"100005228473715":{"id":"100005228473715","name":"Lik Cầu Vồng"},"100004055040287":{"id":"100004055040287","name":"Nguyễn Minh"},"100001541536632":{"id":"100001541536632","name":"Viet Do"},"100000226369400":{"id":"100000226369400","name":"Vạn Lý Độc Hành"},"100005013365720":{"id":"100005013365720","name":"Hoàng BáCh"},"1412022734":{"id":"1412022734","name":"Người Yêu Triển Chiêu"},"100002327743510":{"id":"100002327743510","name":"Tuan Thanh"},"1846809835":{"id":"1846809835","name":"Dorae Phương"},"100003493089716":{"id":"100003493089716","name":"Đại Tuyền"},"100001113783887":{"id":"100001113783887","name":"Tien Pham"},"1694966999":{"id":"1694966999","name":"Nguyễn Công Tiến"},"100003814756892":{"id":"100003814756892","name":"Hai Nguyen"},"569263718":{"id":"569263718","name":"Phuong Thao Tran"},"100003462033553":{"id":"100003462033553","name":"Hoàng Ly"},"100005801442456":{"id":"100005801442456","name":"An Nguyen"},"100004514621076":{"id":"100004514621076","name":"Hason Angle"},"100006457419726":{"id":"100006457419726","name":"Nam Văn Lê"},"100002526707690":{"id":"100002526707690","name":"Phan Toan"},"100006363635494":{"id":"100006363635494","name":"Wms Lmc"},"100005478454231":{"id":"100005478454231","name":"Maruko Chan"},"100001526631937":{"id":"100001526631937","name":"Tường Oanh Mineko"},"100000603915176":{"id":"100000603915176","name":"悪いな ぁ"},"1845000884":{"id":"1845000884","name":"Trieu Thi Kieu Oanh"},"100004923553810":{"id":"100004923553810","name":"Xuan KY Nguyen"},"100003221149832":{"id":"100003221149832","name":"Con Gà Công Nghệ"},"100000022163023":{"id":"100000022163023","name":"Kafe Ore"},"100003313957422":{"id":"100003313957422","name":"Tùng Sunrise"},"100002508122689":{"id":"100002508122689","name":"Vũ Mạnh Tuấn"}},"paging":{"cursors":{"after":"MTAwMDAzODE5ODc1NzA4","before":"MTAwMDAzODE5ODc1NzA4"},"next":"https://graph.facebook.com/229244010425617_747193408630672/likes?limit=1&summary=1&after=MTAwMDAzODE5ODc1NzA4"},"summary":{"total_count":42}},"comments":{"data":{"747200791963267":{"id":"747200791963267","from":{"id":"100000022163023","name":"Kafe Ore"},"message":"Các bạn VN không thích điều này.","can_remove":false,"created_time":"2013-10-27T14:26:31+0000","like_count":0,"user_likes":false},"747203061963040":{"id":"747203061963040","from":{"id":"100004178730972","name":"Hải Triều"},"message":"Không thích chiến tranh tí nào","can_remove":false,"created_time":"2013-10-27T14:31:21+0000","like_count":0,"user_likes":false},"747214628628550":{"id":"747214628628550","from":{"id":"100006173952546","name":"Tinh Messi"},"message":"TNS,DHS Viet Nam k thich dieu nay","can_remove":false,"created_time":"2013-10-27T14:51:42+0000","like_count":0,"user_likes":false},"747215585295121":{"id":"747215585295121","from":{"id":"100003873803655","name":"Gà Khùng"},"message":"Có vẻ như TQ muốn làm bá chủ thế giới...","can_remove":false,"created_time":"2013-10-27T14:53:34+0000","like_count":0,"user_likes":false},"747223148627698":{"id":"747223148627698","from":{"id":"100006457419726","name":"Nam Văn Lê"},"message":"m ung ho nhat ban.bon tau khua bat nat dan minh qua","can_remove":false,"created_time":"2013-10-27T15:09:14+0000","like_count":0,"user_likes":false},"747223578627655":{"id":"747223578627655","from":{"id":"100005801442456","name":"An Nguyen"},"message":"Mấy bác lãnh đạo Tq thích sống kiểu \n弱肉強食 [じゃくにくきょうしょく] => bạn nào giải hộ  表現 này nhỉ??","can_remove":false,"created_time":"2013-10-27T15:10:25+0000","like_count":0,"user_likes":false},"747242715292408":{"id":"747242715292408","from":{"id":"1405577167","name":"Dương Minh Khoa"},"message":"An Nguyen câu này có vẻ như là \"cá lớn nuốt cá bé\", con nào khoẻ thì ăn thịt con yếu :s","message_tags":[{"id":"100005801442456","name":"An Nguyen","type":"user","offset":0,"length":9}],"can_remove":false,"created_time":"2013-10-27T15:49:17+0000","like_count":1,"user_likes":false},"747243415292338":{"id":"747243415292338","from":{"id":"100005801442456","name":"An Nguyen"},"message":"\" thịt \" nhầm con cá óc nóc là vỡ mồm =))","can_remove":false,"created_time":"2013-10-27T15:50:27+0000","like_count":0,"user_likes":false},"747243605292319":{"id":"747243605292319","from":{"id":"1405577167","name":"Dương Minh Khoa"},"message":":v","can_remove":false,"created_time":"2013-10-27T15:50:57+0000","like_count":0,"user_likes":false},"747272251956121":{"id":"747272251956121","from":{"id":"100000603915176","name":"悪いな ぁ"},"message":"Không mong có đối đầu thật sự tí nào cả, nhưng nếu có thì thắp hương cầu cho TQ thua.","can_remove":false,"created_time":"2013-10-27T16:53:22+0000","like_count":0,"user_likes":false},"747451381938208":{"id":"747451381938208","from":{"id":"100000027754899","name":"Hoang Van Ba"},"message":"Ủng hộ nhật","can_remove":false,"created_time":"2013-10-28T00:13:13+0000","like_count":0,"user_likes":false},"747451508604862":{"id":"747451508604862","from":{"id":"100000027754899","name":"Hoang Van Ba"},"message":"Đánh đê eeeeeeeeeeee","can_remove":false,"created_time":"2013-10-28T00:13:28+0000","like_count":0,"user_likes":false},"747456878604325":{"id":"747456878604325","from":{"id":"100005801442456","name":"An Nguyen"},"message":"@.@ chiến tranh chỉ chết chóc,hãy nghĩ đến người dân họ,họ cũng chỉ là nạn nhân của 1 tầng lớp lãnh đạo đói kém về kiến thức và bại hoại về nhân cách.Sẽ bao nhiêu con người bị giết và bị chết ? Bao nhiêu cảnh hoang tàng bao gia đình chia ly và mất mát@.@ muốn đánh thì mấy bố lãnh đạo cứ vác đao ra mà chém chứ cứ đem dân ra làm bình phông cuối cùng vẫn nhe răng ..","can_remove":false,"created_time":"2013-10-28T00:28:46+0000","like_count":1,"user_likes":false},"747486138601399":{"id":"747486138601399","from":{"id":"1175139401","name":"Phan Phuoc"},"message":"Trong khi noi bo My bi giat day boi Trung Quoc (dieu nay hoan toan co the, boi nguoi da den cung da lam tong thong My), tieng noi cua Obama co phan bi han che, su thong nhat nuoc My dang suy yeu thi Trung Quoc khong con ngan gi den cac luc luong khac. Neu co chien tranh giua Trung Quoc va Nhat, thi the gioi cung nguy co den noi roi.","can_remove":false,"created_time":"2013-10-28T01:09:41+0000","like_count":0,"user_likes":false},"747507485265931":{"id":"747507485265931","from":{"id":"100000027754899","name":"Hoang Van Ba"},"message":"Ngon.","can_remove":false,"created_time":"2013-10-28T01:59:55+0000","like_count":0,"user_likes":false},"747570211926325":{"id":"747570211926325","from":{"id":"100004398127401","name":"Đứng Dậy Vươn Vai"},"message":"Ôi k thích chiến tranh chút nào hết đừng mà thế này sao mình dám sang nhật đây huhu chuẩn bị sang mà nghe thấy chiến tranh vãi đạn qqúa","can_remove":false,"created_time":"2013-10-28T05:10:31+0000","like_count":0,"user_likes":false},"747574251925921":{"id":"747574251925921","from":{"id":"100003834897467","name":"Hải Trịnh Văn"},"message":"hi chác không xảy ra được đâu :D","can_remove":false,"created_time":"2013-10-28T05:28:33+0000","like_count":0,"user_likes":false}},"paging":{"cursors":{"after":"NzQ3MjAwNzkxOTYzMjY3","before":"NzQ3MjAwNzkxOTYzMjY3"},"next":"https://graph.facebook.com/229244010425617_747193408630672/comments?limit=1&summary=1&after=NzQ3MjAwNzkxOTYzMjY3"},"summary":{"order":"chronological","total_count":18}}}