{"id":"229244010425617_747538471929499","type":"photo","object_id":"10200754134592842","picture":"https://fbcdn-photos-h-a.akamaihd.net/hphotos-ak-ash4/t1.0-0/1377973_10200754134592842_1842817311_s.jpg","link":"https://www.facebook.com/photo.php?fbid=10200754134592842&set=gm.747538471929499&type=1&relevant_count=1","from":{"id":"1146680551","name":"優しい なぁ"},"message":"Một nét văn hoá khá hay của người Nhật","created_time":"2013-10-28T03:22:44+0000","updated_time":"2013-10-31T14:58:38+0000","likes":{"data":{"100006042037840":{"id":"100006042037840","name":"Le Mi"},"100006984725456":{"id":"100006984725456","name":"Mai Anh"},"100004716640495":{"id":"100004716640495","name":"Thúy An Dương"},"1629517470":{"id":"1629517470","name":"Nguyen Thi Thanh Van"},"100000971222044":{"id":"100000971222044","name":"Nhoc' Satoshi"},"1575796946":{"id":"1575796946","name":"Bich Ptn"},"100004642933206":{"id":"100004642933206","name":"Aloha Aloha"},"100004458131717":{"id":"100004458131717","name":"Minh Huệ"},"100003171672878":{"id":"100003171672878","name":"Tầu Heo"},"1816269439":{"id":"1816269439","name":"Dao Ngoc"},"100003321786144":{"id":"100003321786144","name":"Baloon Bambootatoo"},"100004055040287":{"id":"100004055040287","name":"Nguyễn Minh"},"100003097410255":{"id":"100003097410255","name":"Keiji Maeda"},"100001754136107":{"id":"100001754136107","name":"Nguyễn Tuấn Vũ"},"100000101180940":{"id":"100000101180940","name":"Trà Chanh"},"100005842838585":{"id":"100005842838585","name":"Lê Tiến Nga"},"100001501391912":{"id":"100001501391912","name":"Lai Hoang Duc"},"100001248140499":{"id":"100001248140499","name":"לאָק נגויען"},"100003074092549":{"id":"100003074092549","name":"Hạnh Phạm Phạm"},"100000027754899":{"id":"100000027754899","name":"Hoang Van Ba"},"100003291701878":{"id":"100003291701878","name":"Bui Anhdat"},"100000020988042":{"id":"100000020988042","name":"Viet Huong Nguyen"},"100004094346107":{"id":"100004094346107","name":"Thuy Nga Nguyen"},"1250876107":{"id":"1250876107","name":"Kim Hoan"},"100000368213854":{"id":"100000368213854","name":"Người Lạ Từng Yêu"},"1845000884":{"id":"1845000884","name":"Trieu Thi Kieu Oanh"},"100003218000425":{"id":"100003218000425","name":"Tran MiYun"},"1783149889":{"id":"1783149889","name":"Xu Chan"},"100004743935020":{"id":"100004743935020","name":"Thanh Huyen"},"100004168804627":{"id":"100004168804627","name":"Yuki Aki"},"100001458099624":{"id":"100001458099624","name":"Kham Pha"},"100003207505208":{"id":"100003207505208","name":"Tuyển Osaka Minami"},"100002544783251":{"id":"100002544783251","name":"Hải Hà Bùi"},"100004398330290":{"id":"100004398330290","name":"Lam Linh"},"100000959416590":{"id":"100000959416590","name":"Yuki Nguyen"},"100001416272263":{"id":"100001416272263","name":"Mai PB"},"100005801442456":{"id":"100005801442456","name":"An Nguyen"}},"paging":{"cursors":{"after":"MTAwMDA2MDQyMDM3ODQw","before":"MTAwMDA2MDQyMDM3ODQw"},"next":"https://graph.facebook.com/229244010425617_747538471929499/likes?limit=1&summary=1&after=MTAwMDA2MDQyMDM3ODQw"},"summary":{"total_count":38}},"comments":{"data":{"747538921929454":{"id":"747538921929454","from":{"id":"100005801442456","name":"An Nguyen"},"message":"Công nhận trình độ vẽ võ của họ tốt thật từ già đến trẻ☻","can_remove":false,"created_time":"2013-10-28T03:24:28+0000","like_count":2,"user_likes":false},"747568068593206":{"id":"747568068593206","from":{"id":"100000027754899","name":"Hoang Van Ba"},"message":"Ngon. Khuân hết về thôi :)","can_remove":false,"created_time":"2013-10-28T05:02:22+0000","like_count":1,"user_likes":false},"747629108587102":{"id":"747629108587102","from":{"id":"100004393294754","name":"Le Chi Phan"},"message":"これはなんですか？","can_remove":false,"created_time":"2013-10-28T08:47:19+0000","like_count":0,"user_likes":false},"748503575166322":{"id":"748503575166322","from":{"id":"100001416272263","name":"Mai PB"},"message":"Anh Nguyễn giải thích cho bạn kìa","message_tags":[{"id":"1146680551","name":"Anh Nguyễn","type":"user","offset":0,"length":10}],"can_remove":false,"created_time":"2013-10-29T12:38:46+0000","like_count":0,"user_likes":false},"748541138495899":{"id":"748541138495899","from":{"id":"100006361266631","name":"Nguyen Huynh Dung"},"message":"vậy có lấy về hết ko","can_remove":false,"created_time":"2013-10-29T13:53:35+0000","like_count":0,"user_likes":false},"749717808378232":{"id":"749717808378232","from":{"id":"1146680551","name":"優しい なぁ"},"message":"Le Chi Phan đồ k dùng tới nữa họ đem để ra trước nhà ai có nhu cầu thì lấy về dùng đó bạn.\nCâu tiếng nhật có nghĩa là \"take free \" đó ^_^","can_remove":false,"created_time":"2013-10-31T12:29:35+0000","like_count":2,"user_likes":false},"749788625037817":{"id":"749788625037817","from":{"id":"100004393294754","name":"Le Chi Phan"},"message":"oh, nguoi nhat that la tu te.","can_remove":false,"created_time":"2013-10-31T14:58:38+0000","like_count":0,"user_likes":false}},"paging":{"cursors":{"after":"NzQ3NTM4OTIxOTI5NDU0","before":"NzQ3NTM4OTIxOTI5NDU0"},"next":"https://graph.facebook.com/229244010425617_747538471929499/comments?limit=1&summary=1&after=NzQ3NTM4OTIxOTI5NDU0"},"summary":{"order":"chronological","total_count":7}}}