{"id":"229244010425617_747509425265737","type":"status","from":{"id":"1816269439","name":"Dao Ngoc"},"message":"Các add cho em quảng cáo chương trình một tí nha. Ai ở gần Khu vực này tới gian hàng ủng hộ bọn em nhé. \nToàn các món NGON, BỔ, RẺ, vừa ăn lại vừa làm từ thiện nữa nhé. Mỗi người góp chút công, chút của cho các bé nghèo Việt Nam có cơ hội học tập để tự thay đổi cuộc sống của chính mình. \nCảm ơn cả nhà.","created_time":"2013-10-28T02:05:23+0000","updated_time":"2013-10-28T04:02:32+0000","likes":{"data":{"100005801442456":{"id":"100005801442456","name":"An Nguyen"},"100001416272263":{"id":"100001416272263","name":"Mai PB"},"1603137055":{"id":"1603137055","name":"Nguyen Song Lan Anh"}},"paging":{"cursors":{"after":"MTAwMDA1ODAxNDQyNDU2","before":"MTAwMDA1ODAxNDQyNDU2"},"next":"https://graph.facebook.com/229244010425617_747509425265737/likes?limit=1&summary=1&after=MTAwMDA1ODAxNDQyNDU2"},"summary":{"total_count":3}},"comments":{"data":{"747540631929283":{"id":"747540631929283","from":{"id":"100001416272263","name":"Mai PB"},"message":"Em viết giới thiệu bằng tiếng Nhật nữa, sẽ dễ share cho người Nhật hơn.","can_remove":false,"created_time":"2013-10-28T03:28:53+0000","like_count":1,"user_likes":false},"747551055261574":{"id":"747551055261574","from":{"id":"1816269439","name":"Dao Ngoc"},"message":"Tối nay em sẽ viết. Cảm ơn bác Mai PB ^^","message_tags":[{"id":"100001416272263","name":"Mai PB","type":"user","offset":31,"length":6}],"can_remove":false,"created_time":"2013-10-28T04:02:32+0000","like_count":0,"user_likes":false}},"paging":{"cursors":{"after":"NzQ3NTQwNjMxOTI5Mjgz","before":"NzQ3NTQwNjMxOTI5Mjgz"},"next":"https://graph.facebook.com/229244010425617_747509425265737/comments?limit=1&summary=1&after=NzQ3NTQwNjMxOTI5Mjgz"},"summary":{"order":"chronological","total_count":2}}}