{"id":"229244010425617_747580765258603","type":"video","picture":"https://external.xx.fbcdn.net/safe_image.php?d=AQBvBkeO5hMYlYb2&w=130&h=130&url=http%3A%2F%2Fi1.ytimg.com%2Fvi%2FHDVpOBWNPsc%2Fmaxresdefault.jpg%3Ffeature%3Dog&l","link":"http://www.youtube.com/watch?v=HDVpOBWNPsc","source":"http://www.youtube.com/v/HDVpOBWNPsc?version=3&autohide=1&autoplay=1","from":{"id":"100004094346107","name":"Thuy Nga Nguyen"},"message":"Đây là bài hát mà em rất thích mọi người cùng nghe nhé!\nwww.youtube.com/watch?v=HDVpOBWNPsc","created_time":"2013-10-28T05:53:14+0000","updated_time":"2013-10-30T00:25:44+0000","likes":{"data":{"100004716640495":{"id":"100004716640495","name":"Thúy An Dương"},"1400326262":{"id":"1400326262","name":"Matsumoto Soutarou"},"100005644621343":{"id":"100005644621343","name":"Nihongo  Suki"},"100003670920063":{"id":"100003670920063","name":"Hoàng Dung"},"1821970083":{"id":"1821970083","name":"Nguyễn Mạnh Cường"},"100001458099624":{"id":"100001458099624","name":"Kham Pha"},"100001416272263":{"id":"100001416272263","name":"Mai PB"}},"paging":{"cursors":{"after":"MTAwMDA0NzE2NjQwNDk1","before":"MTAwMDA0NzE2NjQwNDk1"},"next":"https://graph.facebook.com/229244010425617_747580765258603/likes?limit=1&summary=1&after=MTAwMDA0NzE2NjQwNDk1"},"summary":{"total_count":7}},"comments":{"data":{"747618058588207":{"id":"747618058588207","from":{"id":"100004094346107","name":"Thuy Nga Nguyen"},"message":"Đây là bài hát mà một người bạn Nhật đã giới thiệu \"この歌は凄く良い歌です\"đúng là một tác phẩm xuất sắc nhỉ!","can_remove":false,"created_time":"2013-10-28T08:02:33+0000","like_count":0,"user_likes":false},"747684568581556":{"id":"747684568581556","from":{"id":"100001416272263","name":"Mai PB"},"message":"7 điểm :-)","can_remove":false,"created_time":"2013-10-28T11:34:10+0000","like_count":0,"user_likes":false},"748098741873472":{"id":"748098741873472","from":{"id":"100004360751785","name":"Hà Nguyễn"},"message":"a Mai PB ơi, hay thế này mà dc có 7d, a cho  nghe bài 10d đi :)","message_tags":[{"id":"100001416272263","name":"Mai PB","type":"user","offset":2,"length":6}],"can_remove":false,"created_time":"2013-10-29T00:34:12+0000","like_count":0,"user_likes":false},"748099651873381":{"id":"748099651873381","from":{"id":"100004094346107","name":"Thuy Nga Nguyen"},"message":"ui bài tủ của em mà anh　Mai PB cho có 7 điểm (泣）","message_tags":[{"id":"100001416272263","name":"Mai PB","type":"user","offset":24,"length":6}],"can_remove":false,"created_time":"2013-10-29T00:36:38+0000","like_count":0,"user_likes":false},"748298588520154":{"id":"748298588520154","from":{"id":"1400326262","name":"Matsumoto Soutarou"},"message":"Bài hát hay, ca từ cũng hay, chỉ có vấn đề là ca sĩ trong phiên bản mà bạn post lên hát không hay :D Mình mò sang các clip khác cũng tìm thấy giọng ca chất.\nAnh Mai PB hình như chỉ thích cổ nhạc thôi thì phải :D","message_tags":[{"id":"100001416272263","name":"Mai PB","type":"user","offset":161,"length":6}],"can_remove":false,"created_time":"2013-10-29T05:54:43+0000","like_count":0,"user_likes":false},"748299145186765":{"id":"748299145186765","from":{"id":"100004094346107","name":"Thuy Nga Nguyen"},"message":"ra là vây, mình lại thấy anh ca sĩ này hát rất cảm xúc.","can_remove":false,"created_time":"2013-10-29T05:57:24+0000","like_count":0,"user_likes":false},"748314955185184":{"id":"748314955185184","from":{"id":"1400326262","name":"Matsumoto Soutarou"},"message":":D vậy tóm lại gu âm nhạc mỗi người mỗi khác.","can_remove":false,"created_time":"2013-10-29T06:57:12+0000","like_count":0,"user_likes":false},"748315878518425":{"id":"748315878518425","from":{"id":"100004094346107","name":"Thuy Nga Nguyen"},"message":"hihi mà bạn là đang du học ở nhật ah Kukimoto Soutarou","message_tags":[{"id":"1400326262","name":"Kukimoto Soutarou","type":"user","offset":37,"length":17}],"can_remove":false,"created_time":"2013-10-29T06:59:10+0000","like_count":0,"user_likes":false},"748450735171606":{"id":"748450735171606","from":{"id":"1400326262","name":"Matsumoto Soutarou"},"message":"ở VN :D","can_remove":false,"created_time":"2013-10-29T10:39:01+0000","like_count":0,"user_likes":false},"748494248500588":{"id":"748494248500588","from":{"id":"100001416272263","name":"Mai PB"},"message":"Hà Nguyễn Thuy Nga Nguyen chưa có bài nào 10 điểm. Còn 8 và 9 thì cũng kha khá. Thế bài hôm qua mình post so với bài này thế nào?","message_tags":[{"id":"100004360751785","name":"Hà Nguyễn","type":"user","offset":0,"length":9},{"id":"100004094346107","name":"Thuy Nga Nguyen","type":"user","offset":10,"length":15}],"can_remove":false,"created_time":"2013-10-29T12:20:10+0000","like_count":0,"user_likes":false},"748494335167246":{"id":"748494335167246","from":{"id":"100001416272263","name":"Mai PB"},"message":"Kukimoto Soutarou bài trên có phải là cổ nhạc không?","message_tags":[{"id":"1400326262","name":"Kukimoto Soutarou","type":"user","offset":0,"length":17}],"can_remove":false,"created_time":"2013-10-29T12:20:31+0000","like_count":0,"user_likes":false},"748496878500325":{"id":"748496878500325","from":{"id":"100004360751785","name":"Hà Nguyễn"},"message":"bác cho thêm bài 9d nữa đi? bài hôm trc duyệt :D","can_remove":false,"created_time":"2013-10-29T12:24:18+0000","like_count":0,"user_likes":false},"748885938461419":{"id":"748885938461419","from":{"id":"100004094346107","name":"Thuy Nga Nguyen"},"message":"Bạn Hà Nguyễn nói có lý ! hihi( anh Mai PB post bài nào cũng hay cả)","message_tags":[{"id":"100004360751785","name":"Hà Nguyễn","type":"user","offset":4,"length":9},{"id":"100001416272263","name":"Mai PB","type":"user","offset":36,"length":6}],"can_remove":false,"created_time":"2013-10-30T00:25:44+0000","like_count":0,"user_likes":false}},"paging":{"cursors":{"after":"NzQ3NjE4MDU4NTg4MjA3","before":"NzQ3NjE4MDU4NTg4MjA3"},"next":"https://graph.facebook.com/229244010425617_747580765258603/comments?limit=1&summary=1&after=NzQ3NjE4MDU4NTg4MjA3"},"summary":{"order":"chronological","total_count":13}}}