{"id":"229244010425617_747616885254991","type":"status","from":{"id":"100000393546403","name":"Việt"},"message":"Các bạn đang du học tại Nhật cho mình hỏi có biết trường nào hỗ trợ việc nhanh và tốt ko? Mình đang cần tìm cho đứa em. Cảm ơn mọi người.","created_time":"2013-10-28T07:57:58+0000","updated_time":"2013-10-29T07:55:50+0000","likes":{"data":{"100000450088239":{"id":"100000450088239","name":"Diep Anh Hoang"},"100001754136107":{"id":"100001754136107","name":"Nguyễn Tuấn Vũ"},"100004346623532":{"id":"100004346623532","name":"Chiisai Namida"},"100004393294754":{"id":"100004393294754","name":"Le Chi Phan"}},"paging":{"cursors":{"after":"MTAwMDAwNDUwMDg4MjM5","before":"MTAwMDAwNDUwMDg4MjM5"},"next":"https://graph.facebook.com/229244010425617_747616885254991/likes?limit=1&summary=1&after=MTAwMDAwNDUwMDg4MjM5"},"summary":{"total_count":4}},"comments":{"data":{"747940438555969":{"id":"747940438555969","from":{"id":"100000359762118","name":"Mi Tra"},"message":"Em bạn đi du học hay đi làm mà chỉ chăm chăm quan tâm tới công việc? Tại sao ko tự mình mà phải trông mong vào trường hay một ai đó?\nViệc chọn trường, tìm thông tin, em bạn là người đi thì đáng lẽ em bạn phải là người tự lên diễn đàn mà hỏi chứ sao lại là bạn?\nSống ở đâu thì sống. Làm gì thì làm. Bản thân mình ko chịu khó vận động thì ko có chuyện sung rơi sẵn hứng đâu.\nNếu em bạn chịu khó học tốt tiếng ngay từ bây giờ thì khi sang Nhật sẽ ko lo chết đói đâu. \nChúc em bạn sẽ có hướng đi đúng đắn.","can_remove":false,"created_time":"2013-10-28T19:10:39+0000","like_count":5,"user_likes":false},"748302815186398":{"id":"748302815186398","from":{"id":"100000393546403","name":"Việt"},"message":"Mi Tra Thứ nhất cảm ơn bạn đã trả lời mình, tuy nhiên bạn chưa trả lời đúng câu hòi của mình. Về những gì bạn nói mình hiểu, nhưng bạn có nghĩ thế này.\nKhi vừa sang Nhật, chân ướt chân ráo thì làm sao có thể tự chủ động xin việc, gia đình ở nhà đương nhiên cũng xác định cho em vừa học là chính nhưng nếu không đi làm thì gia đình cũng không thể đủ điều kiện chi trả cho em.\nCòm về vấn đề chủ động, em mình vẫn tự tìm thông tin, tuy nhiên thì nhiều người tìm hiểu vẫn hơn, có lẽ mấy bài báo về du học Nhật Bản đã ngấm hơi sâu vào máu mấy bạn nên nhiều khi đánh đồng tất cả.\nNói thêm về vấn đề tiếng, em mình cũng sắp có N3, mình nghĩ cũng là tương đối đủ điều kiện.\nLần nữa cảm ơn bạn, nếu có thông tin gì chia sẻ thêm cho mình nhé.","message_tags":[{"id":"100000359762118","name":"Mi Tra","type":"user","offset":0,"length":6}],"can_remove":false,"created_time":"2013-10-29T06:07:18+0000","like_count":1,"user_likes":false},"748308885185791":{"id":"748308885185791","from":{"id":"100003213171499","name":"Van Nguyen"},"message":"赤門会日本語学校が一番良いと思います。調べてみて下さい。","can_remove":false,"created_time":"2013-10-29T06:32:52+0000","like_count":0,"user_likes":false},"748309651852381":{"id":"748309651852381","from":{"id":"100000393546403","name":"Việt"},"message":"Van Nguyen Mình cũng đang xem xét Akamonkai, tuy nhiên thì em mình chỉ TN CĐ, ko phải ĐH, mình nghe nói phải ĐH mới đc.","message_tags":[{"id":"100003213171499","name":"Van Nguyen","type":"user","offset":0,"length":10}],"can_remove":false,"created_time":"2013-10-29T06:35:50+0000","like_count":0,"user_likes":false},"748312288518784":{"id":"748312288518784","from":{"id":"100000359762118","name":"Mi Tra"},"message":"Việt: Bạn đọc lại câu hỏi của bạn xem có gây được cảm tình cho người đọc không? \n\" giới thiệu việc vừa nhanh vừa tốt\". Đọc vậy mà người đọc không đánh đồng mới mà lạ.\nMình cũng xin nói luôn là trường học là nơi dạy học chứ không phải nơi giới thiệu việc làm thêm. Ngay cả ở Vn cũng vậy thôi. Có trường nào có trách nhiệm phải giới thiệu cho học sinh không? Một số trường Nhật ngữ giới thiệu việc làm cho học sinh vì họ hiểu được sự khó khăn, bỡ ngỡ của học sinh khi mới qua nên họ mới giúp. Thế nhưng ở nhà mình bây giờ lại coi nghiễm nhiên đó là trách nhiệm của trường và ai cũng lấy lí do là chân ướt chân ráo để ỷ lại. Trường không giới thiệu việc cho thì quy kết ngay là trường xấu. \nBây giờ có rất rất nhiều trường tiếng Nhật nên việc chọn trường cũng là điều rất quan trọng. Nhưng đừng vì vấn đề giới thiệu việc làm hay không mà quyết định tất cả bạn ạ.","message_tags":[{"id":"100000393546403","name":"Việt","type":"user","offset":0,"length":4}],"can_remove":false,"created_time":"2013-10-29T06:47:17+0000","like_count":1,"user_likes":false},"748315265185153":{"id":"748315265185153","from":{"id":"100003213171499","name":"Van Nguyen"},"message":"Du học sinh Việt không như du học sinh Hàn hay Trung Quốc,du học sinh Việt sang Nhật đa phần là con nhà nghèo.buộc phải đi làm,không làm sẽ không thể tiếp tục học.\"có thực mới vực được đạo\"nên yêu tiên số 1 cho việc chọn trường là:trường có giới thiệu việc làm và kí túc  rẻ,kì học phí tiếp theo cho học sinh đóng nhiều đợt.tôi nghĩ như thế đấy.","can_remove":false,"created_time":"2013-10-29T06:58:30+0000","like_count":1,"user_likes":false},"748317911851555":{"id":"748317911851555","from":{"id":"100003213171499","name":"Van Nguyen"},"message":"Mặt khác,trường giới thiệu việc làm là trường có mối quan hệ rộng,và hiểu tâm lý du học sinh Việt cần gì.có thể nhìn vào việc giới thiệu việc làm để đánh giá trường tốt hay không tốt.cũng có thể bạn sẽ nghĩ trường giới thiệu việc để học sinh đi làm để đóng học phí cho trường.nhưng như thế còn hơn là không có việc.","can_remove":false,"created_time":"2013-10-29T07:04:10+0000","like_count":0,"user_likes":false},"748334468516566":{"id":"748334468516566","from":{"id":"100000359762118","name":"Mi Tra"},"message":"Với tình trạng qua nhiều, ồ ạt hơn nữa trình độ tiếng kém như hiện nay, dù có thông cảm, thấu hiểu hoàn cảnh của học sinh nhưng các trường ko thể nào mà giới thiệu việc cho tất cả. Vậy mới nói tự mình phải cứu mình thôi. Cứu bằng cách nào thì chắc ko nói ra thì các bạn cũng quá thừa biết. \nBiết để đó và biết để tránh, để cố gắng thì lại khác nhau một trời một vực đó nhé!","can_remove":false,"created_time":"2013-10-29T07:55:50+0000","like_count":1,"user_likes":false}},"paging":{"cursors":{"after":"NzQ3OTQwNDM4NTU1OTY5","before":"NzQ3OTQwNDM4NTU1OTY5"},"next":"https://graph.facebook.com/229244010425617_747616885254991/comments?limit=1&summary=1&after=NzQ3OTQwNDM4NTU1OTY5"},"summary":{"order":"chronological","total_count":9}}}