{"id":"229244010425617_747774658572547","type":"link","link":"http://www.nihongonomori.com/","from":{"id":"100001416272263","name":"Mai PB"},"message":"Cô giáo kawaii mà tốt bụng nhỉ. Lớp học miễn phí này. http://www.nihongonomori.com/","created_time":"2013-10-28T14:19:52+0000","updated_time":"2013-10-29T14:40:41+0000","likes":{"data":{"100003763768548":{"id":"100003763768548","name":"Nguyễn Dũng"},"100003893158172":{"id":"100003893158172","name":"Maru MO"},"100005801442456":{"id":"100005801442456","name":"An Nguyen"},"100002871405403":{"id":"100002871405403","name":"Thach Sanh"},"100003011417151":{"id":"100003011417151","name":"Hue Kim"},"100006042037840":{"id":"100006042037840","name":"Le Mi"},"1822854513":{"id":"1822854513","name":"Sữa Chua Không Đường"},"100001637056893":{"id":"100001637056893","name":"Nhoc Coionline"},"100001580010233":{"id":"100001580010233","name":"Dương Quân"},"100003209298923":{"id":"100003209298923","name":"Phuongcham Nguyen"},"100004650060478":{"id":"100004650060478","name":"Đào Huy Liệu"},"100004073088301":{"id":"100004073088301","name":"LãngTửcôđơn Độc Bướcvạnhành"},"100001458099624":{"id":"100001458099624","name":"Kham Pha"},"100004642933206":{"id":"100004642933206","name":"Aloha Aloha"},"100001663797483":{"id":"100001663797483","name":"Linh ShidooSha"},"100001622486348":{"id":"100001622486348","name":"Tuan Lam"},"100002941646391":{"id":"100002941646391","name":"Lưu Bình Công"},"100003469188925":{"id":"100003469188925","name":"Hien Le"},"100006767705219":{"id":"100006767705219","name":"Kim Liên"},"1850147953":{"id":"1850147953","name":"Rùa Con"},"100002327743510":{"id":"100002327743510","name":"Tuan Thanh"},"100001508739620":{"id":"100001508739620","name":"Lê Ngọc Hoàn"},"100004205437257":{"id":"100004205437257","name":"Nỗi Đau Xót Xa"},"100001789054977":{"id":"100001789054977","name":"Ginga Idō Shi"},"100006649719501":{"id":"100006649719501","name":"Hà Thu Nguyễn"},"100003599920499":{"id":"100003599920499","name":"ふゆ はな"},"100003404539251":{"id":"100003404539251","name":"Bell Tũn"},"100004028173069":{"id":"100004028173069","name":"Jin Ngốc"},"100003650047305":{"id":"100003650047305","name":"Quốc Túy Nguyễn"},"100000284487802":{"id":"100000284487802","name":"Buu Lam Gia"},"100003873803655":{"id":"100003873803655","name":"Gà Khùng"},"100005043309731":{"id":"100005043309731","name":"Mario Nguyễn"},"100002508122689":{"id":"100002508122689","name":"Vũ Mạnh Tuấn"},"100001062202744":{"id":"100001062202744","name":"Hoang Garu"},"100004084770426":{"id":"100004084770426","name":"Mặt Trời Mọc"},"100001079726837":{"id":"100001079726837","name":"Hatenai Yume"},"1146680551":{"id":"1146680551","name":"優しい なぁ"},"100000073848158":{"id":"100000073848158","name":"Hoàng Đắc"},"100005707810047":{"id":"100005707810047","name":"Nghiên Thị Vân Anh"},"100003819875708":{"id":"100003819875708","name":"Piglazy Pham"},"100000381394367":{"id":"100000381394367","name":"Thành Nguyễn"},"100003016747298":{"id":"100003016747298","name":"Minh Phượng"},"100004923553810":{"id":"100004923553810","name":"Xuan KY Nguyen"},"100002145579460":{"id":"100002145579460","name":"Nhất Cước Sanji"},"100001531816305":{"id":"100001531816305","name":"Mẫn Nghi"},"100001770616282":{"id":"100001770616282","name":"Bùi Thu Hiền"},"100001231404357":{"id":"100001231404357","name":"Quoc Anh"},"100000266887521":{"id":"100000266887521","name":"Hương Lê Thu"},"100001659230540":{"id":"100001659230540","name":"Lemon Tea"},"100000427448138":{"id":"100000427448138","name":"Anh Tuan Pham"},"100003038637858":{"id":"100003038637858","name":"Lê Viễn Chí"},"100000359762118":{"id":"100000359762118","name":"Mi Tra"},"100004716640495":{"id":"100004716640495","name":"Thúy An Dương"},"100005644621343":{"id":"100005644621343","name":"Nihongo  Suki"},"100002967791944":{"id":"100002967791944","name":"Tôi Yêu VietNam"},"1821970083":{"id":"1821970083","name":"Nguyễn Mạnh Cường"},"100001995263460":{"id":"100001995263460","name":"Chibi Yuriko"},"100003689850495":{"id":"100003689850495","name":"Huong Phi"},"100004041794244":{"id":"100004041794244","name":"Watanuki Kimihiro"},"100000328742646":{"id":"100000328742646","name":"Trần Giáp"},"100001754136107":{"id":"100001754136107","name":"Nguyễn Tuấn Vũ"},"1658912883":{"id":"1658912883","name":"Pham Quy Duong"},"100003616840561":{"id":"100003616840561","name":"Nguyen Quy"},"100004360751785":{"id":"100004360751785","name":"Hà Nguyễn"},"100000826279369":{"id":"100000826279369","name":"Linh Vi"},"100003055356509":{"id":"100003055356509","name":"Thuan Nguyen"}},"paging":{"cursors":{"after":"MTAwMDAzNzYzNzY4NTQ4","before":"MTAwMDAzNzYzNzY4NTQ4"},"next":"https://graph.facebook.com/229244010425617_747774658572547/likes?limit=1&summary=1&after=MTAwMDAzNzYzNzY4NTQ4"},"summary":{"total_count":67}},"comments":{"data":{"747802111903135":{"id":"747802111903135","from":{"id":"1552036787","name":"Lyklyk Tran"},"message":"hay thiệt đó anh !!!","can_remove":false,"created_time":"2013-10-28T15:06:08+0000","like_count":1,"user_likes":false},"747811288568884":{"id":"747811288568884","from":{"id":"100001458099624","name":"Kham Pha"},"message":"Cô giáo cute giọng ngọt, yêu rồi đấy :))\nHọc ko giỏi ko được rồi :D","can_remove":false,"created_time":"2013-10-28T15:08:22+0000","like_count":1,"user_likes":false},"747820328567980":{"id":"747820328567980","from":{"id":"100001416272263","name":"Mai PB"},"message":"Nhưng để thi JLPT thì học thế này không đủ đâu nhé. Đọc nhiều tiếng Nhật vào.","can_remove":false,"created_time":"2013-10-28T15:16:27+0000","like_count":0,"user_likes":false},"747821338567879":{"id":"747821338567879","from":{"id":"1146680551","name":"優しい なぁ"},"message":"中指。cô giáo nói đơn giản quá :))))))","can_remove":false,"created_time":"2013-10-28T15:18:49+0000","like_count":0,"user_likes":false},"747829318567081":{"id":"747829318567081","from":{"id":"100002508122689","name":"Vũ Mạnh Tuấn"},"message":"cô giáo này là admin trang Yêu Nhật Bản :D \nPs: chị ấy có chồng rồi đấy các anh ạ :))","can_remove":false,"created_time":"2013-10-28T15:31:27+0000","like_count":0,"user_likes":false},"747832931900053":{"id":"747832931900053","from":{"id":"744207207","name":"Hoàng Công Luận"},"message":"https://www.facebook.com/misato.kawama/info \nTheo FB thì cô giáo sinh năm 94 :D","can_remove":false,"created_time":"2013-10-28T15:36:34+0000","like_count":3,"user_likes":false},"747840095232670":{"id":"747840095232670","from":{"id":"100001416272263","name":"Mai PB"},"message":"Chài ai, học tiếng Nhật là tìm cô giáo đây? :-)  Trang web đó có vài giáo viên đấy nhé.","can_remove":false,"created_time":"2013-10-28T15:51:17+0000","like_count":0,"user_likes":false},"748496911833655":{"id":"748496911833655","from":{"id":"100001416272263","name":"Mai PB"},"message":"Con Ga Con bạn nên viết ra post riêng, không nên post thêm vào chủ đề khác thế","message_tags":[{"id":"100004512692366","name":"Con Ga Con","type":"user","offset":0,"length":10}],"can_remove":false,"created_time":"2013-10-29T12:24:27+0000","like_count":0,"user_likes":false},"748498635166816":{"id":"748498635166816","from":{"id":"100000603915176","name":"悪いな ぁ"},"message":"Bác chủ thớt có vẻ rất khoái cô giáo, xinh đới :v","can_remove":false,"created_time":"2013-10-29T12:28:40+0000","like_count":0,"user_likes":false},"748499691833377":{"id":"748499691833377","from":{"id":"100004512692366","name":"Con Ga Con"},"message":"vâng ok  e trưa biết","can_remove":false,"created_time":"2013-10-29T12:31:00+0000","like_count":0,"user_likes":false},"748571141826232":{"id":"748571141826232","from":{"id":"100000226801560","name":"Lương Anh Sơn"},"message":"mình cũng đang ôn N2 của cô kawama, học ngữ pháp hay lắm","can_remove":false,"created_time":"2013-10-29T14:40:41+0000","like_count":0,"user_likes":false}},"paging":{"cursors":{"after":"NzQ3ODAyMTExOTAzMTM1","before":"NzQ3ODAyMTExOTAzMTM1"},"next":"https://graph.facebook.com/229244010425617_747774658572547/comments?limit=1&summary=1&after=NzQ3ODAyMTExOTAzMTM1"},"summary":{"order":"chronological","total_count":11}}}