{"id":"229244010425617_747844825232197","type":"status","from":{"id":"1146680551","name":"優しい なぁ"},"message":"”この列車には特急券が必要です。あらかじめ特急券をお買い求めの上、ご乗車ください”\nこの”あらかじめ”と””求め”どういう意味でしょうか？電車に乗るとき、アナウンスの声よく聞いているので、他の文書がありますか？教えていただきたいんです。ありがとうございます","created_time":"2013-10-28T16:01:39+0000","updated_time":"2013-10-29T07:57:43+0000","likes":{"data":{"100001813175379":{"id":"100001813175379","name":"Huyen Nguyen"},"100001458099624":{"id":"100001458099624","name":"Kham Pha"},"100004398330290":{"id":"100004398330290","name":"Lam Linh"},"100003291760304":{"id":"100003291760304","name":"Nhóc Con Độc Ác"},"100000027754899":{"id":"100000027754899","name":"Hoang Van Ba"},"100001248140499":{"id":"100001248140499","name":"לאָק נגויען"}},"paging":{"cursors":{"after":"MTAwMDAxODEzMTc1Mzc5","before":"MTAwMDAxODEzMTc1Mzc5"},"next":"https://graph.facebook.com/229244010425617_747844825232197/likes?limit=1&summary=1&after=MTAwMDAxODEzMTc1Mzc5"},"summary":{"total_count":7}},"comments":{"data":{"747857425230937":{"id":"747857425230937","from":{"id":"100000027754899","name":"Hoang Van Ba"},"message":"Mai nhá. Cho 1 tràng luôn :( h đang làm ko có nguồn :)","can_remove":false,"created_time":"2013-10-28T16:25:45+0000","like_count":2,"user_likes":false},"747870285229651":{"id":"747870285229651","from":{"id":"100003291760304","name":"Nhóc Con Độc Ác"},"message":"nghĩa là gì thế b?","can_remove":false,"created_time":"2013-10-28T16:47:06+0000","like_count":0,"user_likes":false},"748083031875043":{"id":"748083031875043","from":{"id":"100001792751155","name":"Akari Nguyen"},"message":"Anh Nguyễn あらかじめ đó là trước, sẵn . Còn 買い求める đó là một cụm từ có nghĩa là mua. Có nghĩa là phái mua vé đó trước khi lên cái tàu đó thôi","message_tags":[{"id":"1146680551","name":"Anh Nguyễn","type":"user","offset":0,"length":10}],"can_remove":false,"created_time":"2013-10-28T23:50:58+0000","like_count":3,"user_likes":false},"748084095208270":{"id":"748084095208270","from":{"id":"100001792751155","name":"Akari Nguyen"},"message":"あらかじめご連絡いただければいつでもお迎えにまいります。đó là một ví dụ về あらかじめ。","can_remove":false,"created_time":"2013-10-28T23:54:49+0000","like_count":3,"user_likes":false},"748106978539315":{"id":"748106978539315","from":{"id":"100000027754899","name":"Hoang Van Ba"},"message":"","can_remove":false,"created_time":"2013-10-29T00:55:31+0000","like_count":2,"user_likes":false},"748107111872635":{"id":"748107111872635","from":{"id":"100000027754899","name":"Hoang Van Ba"},"message":"","can_remove":false,"created_time":"2013-10-29T00:56:01+0000","like_count":2,"user_likes":false},"748107188539294":{"id":"748107188539294","from":{"id":"100000027754899","name":"Hoang Van Ba"},"message":"Thông cảm lười ko muốn dở sách ra nữa :)","can_remove":false,"created_time":"2013-10-29T00:56:24+0000","like_count":0,"user_likes":false},"748107891872557":{"id":"748107891872557","from":{"id":"100000027754899","name":"Hoang Van Ba"},"message":"求めるって、","can_remove":false,"created_time":"2013-10-29T00:58:13+0000","like_count":2,"user_likes":false},"748107975205882":{"id":"748107975205882","from":{"id":"100000027754899","name":"Hoang Van Ba"},"message":"","can_remove":false,"created_time":"2013-10-29T00:58:34+0000","like_count":2,"user_likes":false},"748335021849844":{"id":"748335021849844","from":{"id":"1146680551","name":"優しい なぁ"},"message":"Cảm ơn mấy mem nhé","can_remove":false,"created_time":"2013-10-29T07:57:43+0000","like_count":0,"user_likes":false}},"paging":{"cursors":{"after":"NzQ3ODU3NDI1MjMwOTM3","before":"NzQ3ODU3NDI1MjMwOTM3"},"next":"https://graph.facebook.com/229244010425617_747844825232197/comments?limit=1&summary=1&after=NzQ3ODU3NDI1MjMwOTM3"},"summary":{"order":"chronological","total_count":10}}}