{"id":"229244010425617_747908945225785","type":"status","from":{"id":"100001813175379","name":"Huyen Nguyen"},"message":"Chào cả nhà. Em đang định đi du học nb và cũng đang học tiếng nhật rồi. Em định tháng 10 năm sau đi. Lúc đó chắc được tầm n3.\nNếu em đi tokyo thì 1 tháng chi phí sinh hoạt ăn ở hết bao nhiêu ạ?\nVà nếu sang tìm được việc làm thêm thì kể cả làm quá giờ và 2 việc cùng 1 lúc thì một tháng được tầm bao nhiêu ạ? Mọi người ở tầm n3 có thể xin được nghê j ạ? Cho em mạn phép hỏi chứ có ai được đến 25 30man 1 tháng ko, tại nghe quảng cáo thế :-ss\nEm nhẩm tính năm đầu và cả chi phí ở VN nữa chắc em mất 400~500tr. Như thế thì bao giờ mới trả đủ và bắt đầu có thể ki cóp được nhỉ.\nMong mọi người giải đáp giúp em với ạ.\nEm cảm ơn nhiều!!","created_time":"2013-10-28T18:08:31+0000","updated_time":"2013-10-29T17:35:44+0000","likes":{"data":{"100005739757809":{"id":"100005739757809","name":"Mina Le"},"683231044":{"id":"683231044","name":"Hoàng Hải Đăng"},"100002793054191":{"id":"100002793054191","name":"Lai Vuong"},"100002833803367":{"id":"100002833803367","name":"Hoang Anh Luong"},"100001458099624":{"id":"100001458099624","name":"Kham Pha"},"1821970083":{"id":"1821970083","name":"Nguyễn Mạnh Cường"}},"paging":{"cursors":{"after":"MTAwMDA1NzM5NzU3ODA5","before":"MTAwMDA1NzM5NzU3ODA5"},"next":"https://graph.facebook.com/229244010425617_747908945225785/likes?limit=1&summary=1&after=MTAwMDA1NzM5NzU3ODA5"},"summary":{"total_count":8}},"comments":{"data":{"747929898557023":{"id":"747929898557023","from":{"id":"100003796430338","name":"Cường Ađam Z"},"message":"Làm j đến 400 đâu e nếu n3 e làm đc 2cong việk lương của e đc tầm 20man","can_remove":false,"created_time":"2013-10-28T18:49:00+0000","like_count":0,"user_likes":false},"747932425223437":{"id":"747932425223437","from":{"id":"100001813175379","name":"Huyen Nguyen"},"message":"Ý em là 400 là tính cả 1 năm đầu tiên sống ở Nhật cộng lại nữa í ạ","can_remove":false,"created_time":"2013-10-28T18:53:53+0000","like_count":0,"user_likes":false},"747932818556731":{"id":"747932818556731","from":{"id":"100003796430338","name":"Cường Ađam Z"},"message":"E mak có n3 giao tiếp tốt thỳ sag 1 2thang có viek ngay mak","can_remove":false,"created_time":"2013-10-28T18:54:57+0000","like_count":1,"user_likes":false},"747933528556660":{"id":"747933528556660","from":{"id":"100003796430338","name":"Cường Ađam Z"},"message":"Khoảng 300la tất cả e ah","can_remove":false,"created_time":"2013-10-28T18:56:11+0000","like_count":1,"user_likes":false},"747934791889867":{"id":"747934791889867","from":{"id":"100001813175379","name":"Huyen Nguyen"},"message":"Thường thì lương ở tokyo tầm 800~900¥ đúng không ạ?\nLàm để được 20man thì liệu còn có tgian học k ạ?","can_remove":false,"created_time":"2013-10-28T18:59:11+0000","like_count":0,"user_likes":false},"747935415223138":{"id":"747935415223138","from":{"id":"100003796430338","name":"Cường Ađam Z"},"message":"Tuy vào làm đêm hay ngày lam đêm 1sen1 e ah lm ngay 880 ko có time học đâu nhug sag học lại mk","can_remove":false,"created_time":"2013-10-28T19:00:21+0000","like_count":1,"user_likes":false},"747937725222907":{"id":"747937725222907","from":{"id":"100001813175379","name":"Huyen Nguyen"},"message":"Anh có ở gần tokyo k ạ? Sinh hoạt phí ở đó 1 tháng tầm bao nhiêu anh nhỉ? Rẻ nhất mà share phòng các kiểu rồi í ạ","can_remove":false,"created_time":"2013-10-28T19:04:10+0000","like_count":0,"user_likes":false},"747938308556182":{"id":"747938308556182","from":{"id":"100003796430338","name":"Cường Ađam Z"},"message":"A ở sát tokyo nek 1thang nếu là con gái khoảng 3 4man là thoải mãi oy","can_remove":false,"created_time":"2013-10-28T19:05:32+0000","like_count":0,"user_likes":false},"747938485222831":{"id":"747938485222831","from":{"id":"100003796430338","name":"Cường Ađam Z"},"message":"Tokyo còn rẻ hơn chỗ a ở","can_remove":false,"created_time":"2013-10-28T19:05:57+0000","like_count":0,"user_likes":false},"747939088556104":{"id":"747939088556104","from":{"id":"100001813175379","name":"Huyen Nguyen"},"message":"Ôi thế ạ :O thế mà e nghe bảo tokyo đắt đỏ lắm :O","can_remove":false,"created_time":"2013-10-28T19:07:45+0000","like_count":1,"user_likes":false},"747939245222755":{"id":"747939245222755","from":{"id":"100003796430338","name":"Cường Ađam Z"},"message":"Rẻ hơn ở chi ba e ah","can_remove":false,"created_time":"2013-10-28T19:08:12+0000","like_count":1,"user_likes":false},"747941398555873":{"id":"747941398555873","from":{"id":"100004293973335","name":"Nga Ngố"},"message":"3 4 man là all sinh hoạt fí rồi í Ạ","can_remove":false,"created_time":"2013-10-28T19:13:01+0000","like_count":0,"user_likes":false},"747945371888809":{"id":"747945371888809","from":{"id":"100003796430338","name":"Cường Ađam Z"},"message":"Nếu bạn thuê ở ngoài thỳ 1thag hết khoảng 2man tiền. Nhà ăn uống 2 3man là thoải mãi oy","can_remove":false,"created_time":"2013-10-28T19:21:14+0000","like_count":0,"user_likes":false},"747946345222045":{"id":"747946345222045","from":{"id":"100004293973335","name":"Nga Ngố"},"message":"bạn ê,bi h bên ấy là mấ giờ ạ","can_remove":false,"created_time":"2013-10-28T19:24:03+0000","like_count":0,"user_likes":false},"747950955221584":{"id":"747950955221584","from":{"id":"100000210061617","name":"Vũ Tuấn"},"message":"Chiba mà đắt đỏ hơn tokyo ạ?","can_remove":false,"created_time":"2013-10-28T19:32:30+0000","like_count":1,"user_likes":false},"747963688553644":{"id":"747963688553644","from":{"id":"100006504133664","name":"ʚɞTiểu Tử Ngang Ngạnhʚɞ"},"message":"Vãi.tính kiểu ji ko biết.ở kí túc lag nhất cũng 2m5 ko thì 3m.thuê nhà ngoài đầu  vào mất 25m.ở tokyo mà rẻ hơn chiba.ông bị đơ ak","can_remove":false,"created_time":"2013-10-28T20:01:35+0000","like_count":1,"user_likes":false},"747964488553564":{"id":"747964488553564","from":{"id":"100004293973335","name":"Nga Ngố"},"message":"có vẻ hợp lí hơn","can_remove":false,"created_time":"2013-10-28T20:03:17+0000","like_count":0,"user_likes":false},"747964708553542":{"id":"747964708553542","from":{"id":"100004293973335","name":"Nga Ngố"},"message":"3 4 man nge ảo quá","can_remove":false,"created_time":"2013-10-28T20:04:00+0000","like_count":0,"user_likes":false},"747965435220136":{"id":"747965435220136","from":{"id":"100006504133664","name":"ʚɞTiểu Tử Ngang Ngạnhʚɞ"},"message":"Ở đây tiền nhà tầm 3la ở ký túc.ăn khoảng lá 5.dt 1 lá.tàu xe khoảng 1 đến 2 lá.chưa kể mua sắm chơi bời.tự tính nhé","can_remove":false,"created_time":"2013-10-28T20:05:34+0000","like_count":2,"user_likes":false},"747967445219935":{"id":"747967445219935","from":{"id":"100004293973335","name":"Nga Ngố"},"message":"nge lm 20man mà chi fí 3 4 man chắc kéo qua  nhật hết","can_remove":false,"created_time":"2013-10-28T20:09:41+0000","like_count":2,"user_likes":false},"747979721885374":{"id":"747979721885374","from":{"id":"100006504133664","name":"ʚɞTiểu Tử Ngang Ngạnhʚɞ"},"message":"Ăn cướp dc 20 man.kiếm 1 việc 13 man còn khó.đòi kiếm 2 việc.mà bjo bọn luukan làm kinh lắm.chiba và canda vừa bị sờ tới vì làm quá giờ.sắp tới là tokyo","can_remove":false,"created_time":"2013-10-28T20:27:11+0000","like_count":2,"user_likes":false},"747986855217994":{"id":"747986855217994","from":{"id":"100004293973335","name":"Nga Ngố"},"message":"tình hình có vẻ căng nhể","can_remove":false,"created_time":"2013-10-28T20:39:00+0000","like_count":0,"user_likes":false},"748015325215147":{"id":"748015325215147","from":{"id":"100004380181780","name":"Be Boo"},"message":"Đừng đi bạn ơi","can_remove":false,"created_time":"2013-10-28T21:40:15+0000","like_count":0,"user_likes":false},"748015725215107":{"id":"748015725215107","from":{"id":"100004380181780","name":"Be Boo"},"message":"Đung có nghe ở nhà rụ rỗ","can_remove":false,"created_time":"2013-10-28T21:41:54+0000","like_count":3,"user_likes":false},"748019788548034":{"id":"748019788548034","from":{"id":"100004293973335","name":"Nga Ngố"},"message":"thực trạng k bit thế nào,chỉ thấy nhiều trung tâm du học","can_remove":false,"created_time":"2013-10-28T21:54:19+0000","like_count":0,"user_likes":false},"748040445212635":{"id":"748040445212635","from":{"id":"100000209176558","name":"Samui Kaze"},"message":":))) chenm gió ảo vãi :v ở tokyo ns chung cái gì cũng đắt đỏ thôi .. Kiếm đc 1 việc ngon cũng là may lắm r :v có người còn chả dám mua thịt ăn mà phải mua khoai tây ăn qua bữa kìa :v","can_remove":false,"created_time":"2013-10-28T22:34:37+0000","like_count":1,"user_likes":false},"748058408544172":{"id":"748058408544172","from":{"id":"100001458099624","name":"Kham Pha"},"message":"Ở Tokyo thuê nhà+sinh hoạt  phí tối thiểu là 8 man. Đắt nhất Nhật.\nCông việc 25-30 man chắc chắn ko có. Chắc ở Nhật 10 năm nữa sẽ có cv như thế cho bạn, đấy là đi làm chính thức chứ ko phải đi học.\nLàm 2 việc là vi phạm pháp luật. Bị bắt nhiều khả năng về nc. Hôm nọ 1 đoàn VN vừa bị bắt. Hỏi An Nguyen\nTin vào mấy bọn môi giới chỉ có cạp đất mà ăn thôi.","message_tags":[{"id":"100005801442456","name":"An Nguyen","type":"user","offset":293,"length":9}],"can_remove":false,"created_time":"2013-10-28T22:51:25+0000","like_count":7,"user_likes":false},"748076895208990":{"id":"748076895208990","from":{"id":"100005684619923","name":"Le Thieu"},"message":"dien du hok sinh chi kan lam quá 28 tieng siukan soi duoc no duoi thang cổ ve nc noi j 20-25 la","can_remove":false,"created_time":"2013-10-28T23:31:34+0000","like_count":2,"user_likes":false},"748078715208808":{"id":"748078715208808","from":{"id":"1108328257","name":"Kenji Le"},"message":"Kham Pha nói đúng đấy em àh.... việc học va đi làm kh phải là màu Hồng mà nhiều cty mô giới thường hay vạch ra cho nhiều người như tụi em đâu... Bạn muốn co 1 cv lam ổn định trước hết phải học thêm tiếng Nhật cho khá và kinh tế cho 1 năm bên này đầy đủ rồi hẩy đi..","message_tags":[{"id":"100001458099624","name":"Kham Pha","type":"user","offset":0,"length":8}],"can_remove":false,"created_time":"2013-10-28T23:37:08+0000","like_count":2,"user_likes":false},"748087161874630":{"id":"748087161874630","from":{"id":"100004533241933","name":"Tuyen Vu"},"message":"bạn bảo là đi 'du hocj\" cơ mà.đi du bố mẹ k phải nuôi đã tốt r.còn tính chuyện ki cóp.:)","can_remove":false,"created_time":"2013-10-29T00:02:23+0000","like_count":3,"user_likes":false},"748087518541261":{"id":"748087518541261","from":{"id":"100000209176558","name":"Samui Kaze"},"message":":v sống còn khổ .. Ns gì ki cop :v","can_remove":false,"created_time":"2013-10-29T00:03:15+0000","like_count":1,"user_likes":false},"748090755207604":{"id":"748090755207604","from":{"id":"100006245672842","name":"CôLong TiêuDao"},"message":"Chán lắm sang hok dễ kiếm việc đâu","can_remove":false,"created_time":"2013-10-29T00:13:15+0000","like_count":0,"user_likes":false},"748091041874242":{"id":"748091041874242","from":{"id":"100006245672842","name":"CôLong TiêuDao"},"message":"Học N3 sang con tàm tạm chỗ tôi vùng nông thôn còn cần N2 mới xin dc việc","can_remove":false,"created_time":"2013-10-29T00:14:07+0000","like_count":5,"user_likes":false},"748105678539445":{"id":"748105678539445","from":{"id":"100000133587536","name":"Mei Ki"},"message":"o tokyo moi qua phat bao la luong cao nhat , sang tu 2h den 6h , chieu tu 2h30 den 5h30 neu duoc vao cho tot , tru het tien hoc tien nha , ban nhan ve dc 9man chi phai tra sinh hoat phi. con n3 chang la cai ji doi voi ben nay ca , chi co bi vn voi vn lua them thoi , chuc ban may man","can_remove":false,"created_time":"2013-10-29T00:52:03+0000","like_count":3,"user_likes":false},"748114648538548":{"id":"748114648538548","from":{"id":"100002793054191","name":"Lai Vuong"},"message":"Tốt nhất k nên đi du học. Vất vả lắm cưng ah\nNếu gd co điều kiện thì sang du học rất tốt\nCòn k thì ơ nhà kiếm cty Nhật mà làm","can_remove":false,"created_time":"2013-10-29T01:16:16+0000","like_count":2,"user_likes":false},"748122295204450":{"id":"748122295204450","from":{"id":"100004293973335","name":"Nga Ngố"},"message":"1 vài thời gian nữa binh chủng DHS cập bến quê hương,có lẽ nào có hẳn 1 dân tộc nói tiếng nhật.ở nhà cũng sô nhau học,mà toàn thấy việc tìm ng,cơ mà k cần kinh nghiệm, chỉ cần N2.căn bản nói dc nhưng viết là cả 1 quá trình","can_remove":false,"created_time":"2013-10-29T01:33:00+0000","like_count":0,"user_likes":false},"748123711870975":{"id":"748123711870975","from":{"id":"100002157379029","name":"Nguyen Hai Dung"},"message":"Ban lai bj bon no du vao rung mo , bat con tuong bo rui ,,,,,, chj du tien an va tien nha thui , tien hoc phi chac gd van phai chu cap , lam nhieu se bj ve nuoc","can_remove":false,"created_time":"2013-10-29T01:36:07+0000","like_count":0,"user_likes":false},"748236858526327":{"id":"748236858526327","from":{"id":"100005801442456","name":"An Nguyen"},"message":"Chi phí sinh hoạt cũng là 1 vấn đề phải lo mà .tất nhiên k đc quên mục đích ban đầu","can_remove":false,"created_time":"2013-10-29T02:54:00+0000","like_count":3,"user_likes":false},"748250671858279":{"id":"748250671858279","from":{"id":"100001813175379","name":"Huyen Nguyen"},"message":"Cảm ơn lời khuyên của mọi người rất nhiều ạ. Em định đi học tiếng rồi cố thi vào senmon hoặc tanki daigaku. Tiền học chắc phải xin bố mẹ ban đầu, nhưng để trang trải tiền học cả 4,5 năm như vậy thì bố mẹ em không thể. Nên em mới quan tâm đến mức sinh hoạt phí và đi làm thêm. Em sẽ cân nhắc kĩ hơn nữa ạ.","can_remove":false,"created_time":"2013-10-29T03:32:10+0000","like_count":0,"user_likes":false},"748250991858247":{"id":"748250991858247","from":{"id":"100003796430338","name":"Cường Ađam Z"},"message":"Sao nói mak ko tin nhể đứa nào sang mua ở funabashi xem có đắt hơn tokyo ko","can_remove":false,"created_time":"2013-10-29T03:32:54+0000","like_count":0,"user_likes":false},"748251388524874":{"id":"748251388524874","from":{"id":"100003796430338","name":"Cường Ađam Z"},"message":"Ng ta ở tokyo thuê 1cai nhà 7man 4ng ở đc hỏi 1ng bao nhiu","can_remove":false,"created_time":"2013-10-29T03:34:06+0000","like_count":0,"user_likes":false},"748251941858152":{"id":"748251941858152","from":{"id":"100003796430338","name":"Cường Ađam Z"},"message":"Chứ ai chưa sang thỳ kais j cũng tưởng đắt bên nay có cái còn rẻ hơn vn nhiu","can_remove":false,"created_time":"2013-10-29T03:35:39+0000","like_count":0,"user_likes":false},"748252168524796":{"id":"748252168524796","from":{"id":"100003796430338","name":"Cường Ađam Z"},"message":"Cứ tưởng tượng 1toa nhà 7tang mak toàn 20k 1 mon xem ở vn có cái nào như vậy ko","can_remove":false,"created_time":"2013-10-29T03:36:24+0000","like_count":0,"user_likes":false},"748253628524650":{"id":"748253628524650","from":{"id":"100003796430338","name":"Cường Ađam Z"},"message":"Mức lương cao nhất là từ 22h đến 5h sáng đứa nào ko bik thỳ im làm cho ng ta phân vân ah","can_remove":false,"created_time":"2013-10-29T03:40:43+0000","like_count":0,"user_likes":false},"748253848524628":{"id":"748253848524628","from":{"id":"100003796430338","name":"Cường Ađam Z"},"message":"Gà 200k 4 con có rẻ hơn vn ko ở gà ueno","can_remove":false,"created_time":"2013-10-29T03:41:29+0000","like_count":0,"user_likes":false},"748256638524349":{"id":"748256638524349","from":{"id":"100003796430338","name":"Cường Ađam Z"},"message":"うえのえき","can_remove":false,"created_time":"2013-10-29T03:48:36+0000","like_count":0,"user_likes":false},"748262258523787":{"id":"748262258523787","from":{"id":"100006504133664","name":"ʚɞTiểu Tử Ngang Ngạnhʚɞ"},"message":"Nói chuyện vs thằng ngáo chán.","can_remove":false,"created_time":"2013-10-29T04:03:48+0000","like_count":0,"user_likes":false},"748263988523614":{"id":"748263988523614","from":{"id":"100003796430338","name":"Cường Ađam Z"},"message":"Mấy thag éo bil im mẹ đi ngồi nhà mak đoán mò","can_remove":false,"created_time":"2013-10-29T04:08:59+0000","like_count":0,"user_likes":false},"748265128523500":{"id":"748265128523500","from":{"id":"100006504133664","name":"ʚɞTiểu Tử Ngang Ngạnhʚɞ"},"message":"Thế mày nghĩ mọi ng nói ở đây đều ở nhà đoán mò ak.m biết ở tokyo sống khó khăn ntn không.Gà 250¥ 1 con thì mày có ăn dc cả tháng không.tao tìm  1 cái nhà ở ueno còn mất 23 man chưa kể đồ đạc.cứ ngồi đó mà tưởng tượng đi","can_remove":false,"created_time":"2013-10-29T04:13:35+0000","like_count":1,"user_likes":false},"748265148523498":{"id":"748265148523498","from":{"id":"100000209176558","name":"Samui Kaze"},"message":"Chắc chỉ có mình bạn sang nhật r @cường adam ak :3","can_remove":false,"created_time":"2013-10-29T04:13:38+0000","like_count":0,"user_likes":false},"748265545190125":{"id":"748265545190125","from":{"id":"100003796430338","name":"Cường Ađam Z"},"message":"Ko phải là sag oy mak có j nói vậy thôi chưa đồn thổi quá làm j cho ng ta ko có hứng học chứ","can_remove":false,"created_time":"2013-10-29T04:15:15+0000","like_count":0,"user_likes":false},"748266171856729":{"id":"748266171856729","from":{"id":"100005801442456","name":"An Nguyen"},"message":"Đối với cường ÀDam: có lẽ bạn mới sang nên cách nhìn cuộc sống của ban chưa đc thấu đáo cho lắm.\n\nĐối vơi tiểu tử ngang ngạnh: quyền tự do phát biểu là ở mỗi người , chúng ta cần tôn trọng . mỗi người đặt vị trí khác nhau nên cách nhìn khác nhau .nên đừng đánh đồng rồi gây ra mâu thuẫn.\n\nĐối với cả 2 : cả hai bạn đều trên 18 tuổi nên mới tới đây du học đc,nên cử xử cho đúng với độ tuổi mình đang có.Diễn đan có rất nhiều ban Người nhật đang sống và học tập tại Việt Nam và họ rất giỏi tiếng việt.vậy cả hai nghĩ thế nào khi họ thấy cả 2 cãi nhau vì những điều vô nghĩa???","can_remove":false,"created_time":"2013-10-29T04:16:43+0000","like_count":2,"user_likes":false},"748266401856706":{"id":"748266401856706","from":{"id":"100000209176558","name":"Samui Kaze"},"message":"Đây là mọi người thẳng thắn góp ý.. Ai ntn người ta sẽ ns vậy .. Bởi vì mn ở đây góp ý cũng chẳng lợi lộc gì .. Đừng để bạn ý ở trên 9 tầng mây rồi lại rơi xuống đât thì tội lắm :3","can_remove":false,"created_time":"2013-10-29T04:17:23+0000","like_count":1,"user_likes":false},"748266608523352":{"id":"748266608523352","from":{"id":"100006504133664","name":"ʚɞTiểu Tử Ngang Ngạnhʚɞ"},"message":"Nghe nó nc thấy ức chế bác ạ.ko biết mà nói như thánh phán","can_remove":false,"created_time":"2013-10-29T04:18:13+0000","like_count":1,"user_likes":false},"748266751856671":{"id":"748266751856671","from":{"id":"100003796430338","name":"Cường Ađam Z"},"message":"Nhug có j nsvay thôi chứ t chang tâng bốc lam j ka","can_remove":false,"created_time":"2013-10-29T04:18:38+0000","like_count":0,"user_likes":false},"748266951856651":{"id":"748266951856651","from":{"id":"100003796430338","name":"Cường Ađam Z"},"message":"Tag bốc có lợi j cho tớ ko","can_remove":false,"created_time":"2013-10-29T04:19:10+0000","like_count":0,"user_likes":false},"748267135189966":{"id":"748267135189966","from":{"id":"100005801442456","name":"An Nguyen"},"message":"OK vậy đi. Xì tóp! @.@ mõi tay và tốn pin điện thoại đấy!","can_remove":false,"created_time":"2013-10-29T04:19:43+0000","like_count":0,"user_likes":false},"748267341856612":{"id":"748267341856612","from":{"id":"100000209176558","name":"Samui Kaze"},"message":":v nc chung là mỗi người góp ý 1 tý .. Bạn ý nghe thế nào là ở bạn ý :3","can_remove":false,"created_time":"2013-10-29T04:20:32+0000","like_count":0,"user_likes":false},"748267388523274":{"id":"748267388523274","from":{"id":"100003796430338","name":"Cường Ađam Z"},"message":"Thôi học đây co j tối về cãi nhau nhé","can_remove":false,"created_time":"2013-10-29T04:20:44+0000","like_count":0,"user_likes":false},"748277431855603":{"id":"748277431855603","from":{"id":"100003836234937","name":"Yuki Ame"},"message":"Bình thường thì nhà ở học phí ăn uống điện thoại +... 1 tháng mình mất khoảng 10-11m","can_remove":false,"created_time":"2013-10-29T04:49:39+0000","like_count":2,"user_likes":false},"748279608522052":{"id":"748279608522052","from":{"id":"100005450524828","name":"Beo Beo"},"message":"Mình suốt ngay ăn mình cố găng tiết kiêm\n Ma tiền ăn hang thang con lên 2 man nha 3 man tien tau xe đi hoc 6 sen chua kể tiên tàu đi lam hơn 1 man hành tháng nưa lấy đâu ra tiền ma để dành","can_remove":false,"created_time":"2013-10-29T04:54:19+0000","like_count":4,"user_likes":false},"748282638521749":{"id":"748282638521749","from":{"id":"100003796430338","name":"Cường Ađam Z"},"message":"Đi làm có cty hỗ trợ 100% tiền tàu xe","can_remove":false,"created_time":"2013-10-29T05:06:33+0000","like_count":0,"user_likes":false},"748283131855033":{"id":"748283131855033","from":{"id":"100005450524828","name":"Beo Beo"},"message":"La có chu k phai tats cả viec h khó khăn lắm tớ phải chấp nhân đi làm xa chấp nhận bỏ tiền tàu để có cv \nK phai ai cung may mắn tim đc cv tốt đâu","can_remove":false,"created_time":"2013-10-29T05:09:21+0000","like_count":0,"user_likes":false},"748284761854870":{"id":"748284761854870","from":{"id":"100003836234937","name":"Yuki Ame"},"message":"Ukm đúng vậy. Tớ đi làm lương 12m 1 tháng mà mất 1m6 tiền tàu rồi.","can_remove":false,"created_time":"2013-10-29T05:15:42+0000","like_count":0,"user_likes":false},"748285028521510":{"id":"748285028521510","from":{"id":"100005688424533","name":"Nhật Úc Du Học"},"message":"em ơi, tính cả năm đầu học phí và nửa năm ktx thì cũng chưa đến 250 triệu đâu em ạ","can_remove":false,"created_time":"2013-10-29T05:16:46+0000","like_count":0,"user_likes":false},"748285921854754":{"id":"748285921854754","from":{"id":"100005450524828","name":"Beo Beo"},"message":"Chắc tính cả chi phí rủi ro chăng","can_remove":false,"created_time":"2013-10-29T05:19:14+0000","like_count":0,"user_likes":false},"748303318519681":{"id":"748303318519681","from":{"id":"100002793054191","name":"Lai Vuong"},"message":"Uhm chi phí thì đắt đỏ mà ng Nhật bay gio cung khôn hơn thuê rẻ hơn","can_remove":false,"created_time":"2013-10-29T06:09:08+0000","like_count":0,"user_likes":false},"748311748518838":{"id":"748311748518838","from":{"id":"100000442929887","name":"Mike Yi"},"message":"Coi chừng bị gạt....đó e","can_remove":false,"created_time":"2013-10-29T06:44:34+0000","like_count":0,"user_likes":false},"748328691850477":{"id":"748328691850477","from":{"id":"100001458099624","name":"Kham Pha"},"message":"Cường Ađam Z bạn ăn học cách nói tôn trọng người khác đi. Tái phạm nữa là ban nick đấy. \nChúng ta đang nói ở đây là mặt bằng chung Tokyo là đắt nhất Nhật, bạn nào đó may mắn tìm được chỗ rẻ chỉ là số ít. Và nhiều khi chỗ rẻ lại xa trường bạn học, ko thuê được. Sang bên này lạ nước lạ cái lấy ai hướng dẫn mà tìm được chỗ rẻ. Nhiều người sống ở đây bao năm còn chả tìm được nữa là. Tốt nhất là đảm bảo về trình độ, điều kiện kinh tế đi rồi hãy sang, nếu không sẽ tự chuốc khổ vào mình thôi. Chẳng phải tự nhiên mà có mấy bài báo \"bát cơm chan đầy nước mắt\" và cũng chẳng có gì đảm bảo bạn không phải là một trong số họ. Suy nghĩ cho kĩ rồi quyết định.","message_tags":[{"id":"100003796430338","name":"Cường Ađam Z","type":"user","offset":0,"length":12}],"can_remove":false,"created_time":"2013-10-29T07:37:27+0000","like_count":7,"user_likes":false},"748332691850077":{"id":"748332691850077","from":{"id":"100004380181780","name":"Be Boo"},"message":"Ở nhà ở nhà lấy số tiền đó đầu tư làm ăn sang đây khổ lắm đi lm thi chẳng đc bao nhiêu cái j cũng đắt đỏ tốt nhất là lên ở nhà nếu thich tiếng Nhật thì học ở nhà cũng đc con nếu ban muốn đi thì tập xác định đi","can_remove":false,"created_time":"2013-10-29T07:49:58+0000","like_count":1,"user_likes":false},"748333951849951":{"id":"748333951849951","from":{"id":"100000442929887","name":"Mike Yi"},"message":"Mấy chú mấy bác la ôm lên vây.A ở Japan này này chán quá.Đi tù mấy lần về rồi mà nó ko đuổi về vn được chán thật.Ai yêu vn thì đừng đi Japan cho khổ.OK chưa mấy chú...?","can_remove":false,"created_time":"2013-10-29T07:53:54+0000","like_count":0,"user_likes":false},"748334125183267":{"id":"748334125183267","from":{"id":"100000442929887","name":"Mike Yi"},"message":"Giờ a ăn trợ cấp nó hoài củng chán.........chán lắm","can_remove":false,"created_time":"2013-10-29T07:54:39+0000","like_count":0,"user_likes":false},"748536938496319":{"id":"748536938496319","from":{"id":"100006173952546","name":"Tinh Messi"},"message":"Cường Ađam Z :ban la sen sei ha?sao nc thay mat day qua vay,o dau ban ga 200k 4 con vay chi minh mua voi ,minh kinh doanh,chi phi o vung sau da dat do roi noi gi den Tokyo ,ban xao cung vua vua thoi chu","message_tags":[{"id":"100003796430338","name":"Cường Ađam Z","type":"user","offset":0,"length":12}],"can_remove":false,"created_time":"2013-10-29T13:45:02+0000","like_count":0,"user_likes":false},"748550088495004":{"id":"748550088495004","from":{"id":"100001058098161","name":"DoTa Allstar"},"message":"Thanh Anchú tư vấn cho bạn ấy cái kìa :)) ở tokyo","message_tags":[{"id":"100005183733661","name":"Thanh An","type":"user","offset":0,"length":8}],"can_remove":false,"created_time":"2013-10-29T14:07:17+0000","like_count":0,"user_likes":false},"748597355156944":{"id":"748597355156944","from":{"id":"100003796430338","name":"Cường Ađam Z"},"message":"Bạn đến ga ueno mua 1sen 4con gà nhé","can_remove":false,"created_time":"2013-10-29T15:33:01+0000","like_count":1,"user_likes":false},"748603718489641":{"id":"748603718489641","from":{"id":"100003796430338","name":"Cường Ađam Z"},"message":"217k","can_remove":false,"created_time":"2013-10-29T15:50:41+0000","like_count":0,"user_likes":false},"748605245156155":{"id":"748605245156155","from":{"id":"100003796430338","name":"Cường Ađam Z"},"message":"Ko có j he","can_remove":false,"created_time":"2013-10-29T15:54:56+0000","like_count":0,"user_likes":false},"748668788483134":{"id":"748668788483134","from":{"id":"100005327500410","name":"Hung Doan"},"message":"toi muon di nhat","can_remove":false,"created_time":"2013-10-29T17:24:14+0000","like_count":0,"user_likes":false},"748672755149404":{"id":"748672755149404","from":{"id":"100005450524828","name":"Beo Beo"},"message":"Ăn gà đấy rồi có ngày chết không ngắm mắt gà già cua trung quốc toàn khác sinh ở ngay cạnh chợ ma còn chả dám mua ăn đây","can_remove":false,"created_time":"2013-10-29T17:35:44+0000","like_count":0,"user_likes":false}},"paging":{"cursors":{"after":"NzQ3OTI5ODk4NTU3MDIz","before":"NzQ3OTI5ODk4NTU3MDIz"},"next":"https://graph.facebook.com/229244010425617_747908945225785/comments?limit=1&summary=1&after=NzQ3OTI5ODk4NTU3MDIz"},"summary":{"order":"chronological","total_count":83}}}