{"id":"229244010425617_748529408497072","type":"status","from":{"id":"100000036456284","name":"Ngo Phuong Linh"},"message":"Hi all, Mình đang là sv của trường Kyushu, ở Fukuoka. Trường mình ít sv VN lắm và mình không có bạn là người VN ở trường :( cả ngày cứ xì xà xì xồ toàn tiếng Anh với thỉnh thoảng nói tý tiếng Nhật, thèm nói tiếng Việt để thấy bớt lạc lõng và đỡ nhớ quê hương ^^ bạn nào ở Fukuoka hoặc học ở Kyushu thì càng tốt, get contact với mình nhé :) \nPS:Trình tiếng Nhật của mình vãn còn kém nên có gì mong mọi ng chỉ giáo\n初めて宜しくお願い　＾＾","created_time":"2013-10-29T13:26:51+0000","updated_time":"2013-11-03T00:21:01+0000","likes":{"data":{"100002849008610":{"id":"100002849008610","name":"Nguyễn Phương Hùng"},"100002421205294":{"id":"100002421205294","name":"Nghèo Kệ Tôi"},"100000271705877":{"id":"100000271705877","name":"Nguyễn Văn Minh"},"100004716640495":{"id":"100004716640495","name":"Thúy An Dương"},"100005009580054":{"id":"100005009580054","name":"Anna Nguyen"},"100006572713690":{"id":"100006572713690","name":"Đại Chim Lợn"},"100004060359875":{"id":"100004060359875","name":"Sơn Đítbông Sơnđâu Cũngđẹp"},"100003783699639":{"id":"100003783699639","name":"Tô Ngọc Ánh"},"100001760984973":{"id":"100001760984973","name":"Neo Quynh"},"100003941338766":{"id":"100003941338766","name":"Nhinl Pe"},"100004446394296":{"id":"100004446394296","name":"Nguyen Tien"},"100000057852313":{"id":"100000057852313","name":"Tuan Nguyen"},"100003013864105":{"id":"100003013864105","name":"Thu Trang"},"100002508122689":{"id":"100002508122689","name":"Vũ Mạnh Tuấn"},"100005801442456":{"id":"100005801442456","name":"An Nguyen"},"100005690740678":{"id":"100005690740678","name":"Bui Thanh Tung"},"100004084770426":{"id":"100004084770426","name":"Mặt Trời Mọc"},"100002327743510":{"id":"100002327743510","name":"Tuan Thanh"},"1082956399":{"id":"1082956399","name":"Danny Dee Nguyen IE"}},"paging":{"cursors":{"after":"MTAwMDAyODQ5MDA4NjEw","before":"MTAwMDAyODQ5MDA4NjEw"},"next":"https://graph.facebook.com/229244010425617_748529408497072/likes?limit=1&summary=1&after=MTAwMDAyODQ5MDA4NjEw"},"summary":{"total_count":19}},"comments":{"data":{"748536071829739":{"id":"748536071829739","from":{"id":"100005801442456","name":"An Nguyen"},"message":"Fukuoka nhiều việt kiều nhât lắm mà","can_remove":false,"created_time":"2013-10-29T13:42:58+0000","like_count":0,"user_likes":false},"748536695163010":{"id":"748536695163010","from":{"id":"1023965040","name":"Juli KimChi"},"message":"Nguyễn Hồng Lộc","message_tags":[{"id":"100001246861493","name":"Nguyễn Hồng Lộc","type":"user","offset":0,"length":15}],"can_remove":false,"created_time":"2013-10-29T13:44:29+0000","like_count":0,"user_likes":false},"748536868496326":{"id":"748536868496326","from":{"id":"100000036456284","name":"Ngo Phuong Linh"},"message":"Nhưnv có ít ng học ở trường mềnh, chính xác là ko quen ai:(","can_remove":false,"created_time":"2013-10-29T13:44:52+0000","like_count":0,"user_likes":false},"748537595162920":{"id":"748537595162920","from":{"id":"100005690740678","name":"Bui Thanh Tung"},"message":"Có mình đang ở Kikuchi shi , Kumamoto đây này , ở đây cũng ít người Việt lắm , contact nhé :)","can_remove":false,"created_time":"2013-10-29T13:46:41+0000","like_count":0,"user_likes":false},"748538681829478":{"id":"748538681829478","from":{"id":"100006361121356","name":"Xuka Mũm Mĩm"},"message":"Học 九州大学 nghe nói trường đó phải pro lắm mới vào dc mà. Thế mà bảo tiếng nhật kém","can_remove":false,"created_time":"2013-10-29T13:49:18+0000","like_count":0,"user_likes":false},"748539371829409":{"id":"748539371829409","from":{"id":"100000036456284","name":"Ngo Phuong Linh"},"message":"He he, mình học bằng tiếng anh:\")","can_remove":false,"created_time":"2013-10-29T13:50:24+0000","like_count":0,"user_likes":false},"748540465162633":{"id":"748540465162633","from":{"id":"1023965040","name":"Juli KimChi"},"message":"Để vào đc trường đại học đó có phải thì Ko bạn? Cần những điện jì thế? Mà bạn học tiếng hay đã vào chuyện ngành chưa?","can_remove":false,"created_time":"2013-10-29T13:52:03+0000","like_count":0,"user_likes":false},"748541015162578":{"id":"748541015162578","from":{"id":"1023965040","name":"Juli KimChi"},"message":"(ý mình là có thi đầu vào Ko í )","can_remove":false,"created_time":"2013-10-29T13:53:18+0000","like_count":0,"user_likes":false},"748541445162535":{"id":"748541445162535","from":{"id":"100000036456284","name":"Ngo Phuong Linh"},"message":"Mình học master, quy trinhf thế nào thì có hết trên web của trường","can_remove":false,"created_time":"2013-10-29T13:54:23+0000","like_count":0,"user_likes":false},"748544511828895":{"id":"748544511828895","from":{"id":"100000036456284","name":"Ngo Phuong Linh"},"message":"Ko thi nhưng qua 3 vòng, hồ sơ, luận, phỏng vấn, ok hết thì vào","can_remove":false,"created_time":"2013-10-29T13:56:38+0000","like_count":0,"user_likes":false},"748545598495453":{"id":"748545598495453","from":{"id":"100006361121356","name":"Xuka Mũm Mĩm"},"message":"Thấy mọi ng bảo ngừoi nhật thi trường đó còn trượt nhiều lắm","can_remove":false,"created_time":"2013-10-29T13:57:31+0000","like_count":0,"user_likes":false},"748546075162072":{"id":"748546075162072","from":{"id":"100005690740678","name":"Bui Thanh Tung"},"message":"What the hell they are talking about above ? Ngo Phuong Linh : bạn là con gái Hn và là cựu sv Ngoại thương à ?","message_tags":[{"id":"100000036456284","name":"Ngo Phuong Linh","type":"user","offset":45,"length":15}],"can_remove":false,"created_time":"2013-10-29T13:57:53+0000","like_count":0,"user_likes":false},"748546361828710":{"id":"748546361828710","from":{"id":"100000036456284","name":"Ngo Phuong Linh"},"message":"Thế ah? Chắc mình may mắn :D","can_remove":false,"created_time":"2013-10-29T13:58:30+0000","like_count":0,"user_likes":false},"748547375161942":{"id":"748547375161942","from":{"id":"100000036456284","name":"Ngo Phuong Linh"},"message":"Vẫn là ng mà, ko phải ng ngoài hành tinh đâu:D đồng bào cứ yên tâm ^^","can_remove":false,"created_time":"2013-10-29T14:01:13+0000","like_count":2,"user_likes":false},"748547395161940":{"id":"748547395161940","from":{"id":"100003918997915","name":"Nguyễn Văn Còn"},"message":"Em sang lau chua? Roi em học giáo trình bang tieng Anh ah","can_remove":false,"created_time":"2013-10-29T14:01:17+0000","like_count":0,"user_likes":false},"748551925161487":{"id":"748551925161487","from":{"id":"100005333138526","name":"Nguyễn Hữu Huy"},"message":"Mình ở 6 chome nè. Ngay gần đh kyushu. Khoảng 5p đi bộ","can_remove":false,"created_time":"2013-10-29T14:11:22+0000","like_count":0,"user_likes":false},"748552261828120":{"id":"748552261828120","from":{"id":"100005801442456","name":"An Nguyen"},"message":"Rồi quá đã! Tình duyên chớm nở:)) chúc may mắn cả hai","can_remove":false,"created_time":"2013-10-29T14:12:07+0000","like_count":2,"user_likes":false},"748552605161419":{"id":"748552605161419","from":{"id":"100005333138526","name":"Nguyễn Hữu Huy"},"message":"Ở đây nhiều sv việt nam lắm","can_remove":false,"created_time":"2013-10-29T14:13:14+0000","like_count":0,"user_likes":false},"748552721828074":{"id":"748552721828074","from":{"id":"100005333138526","name":"Nguyễn Hữu Huy"},"message":"Có cả nepan và tq nua","can_remove":false,"created_time":"2013-10-29T14:13:33+0000","like_count":0,"user_likes":false},"748553115161368":{"id":"748553115161368","from":{"id":"100005333138526","name":"Nguyễn Hữu Huy"},"message":"Ngày nào chả đi học qua dh kyushyu","can_remove":false,"created_time":"2013-10-29T14:14:22+0000","like_count":0,"user_likes":false},"748553128494700":{"id":"748553128494700","from":{"id":"100000036456284","name":"Ngo Phuong Linh"},"message":"Hô hô, làm quen với nhiều ng đâu có nghiã mình chưa có partner nhỉ","can_remove":false,"created_time":"2013-10-29T14:14:23+0000","like_count":1,"user_likes":false},"748554058494607":{"id":"748554058494607","from":{"id":"100000036456284","name":"Ngo Phuong Linh"},"message":"Comment thêm là ai múôn làm bạn thì rất welcome, tán tỉnh vớ vẩn thì nhầm ng rùi nhé:D","can_remove":false,"created_time":"2013-10-29T14:16:49+0000","like_count":0,"user_likes":false},"748555065161173":{"id":"748555065161173","from":{"id":"100005690740678","name":"Bui Thanh Tung"},"message":"Đụng phải tường sắt rồi ;))","can_remove":false,"created_time":"2013-10-29T14:19:03+0000","like_count":1,"user_likes":false},"748572408492772":{"id":"748572408492772","from":{"id":"1023965040","name":"Juli KimChi"},"message":"Nếu đkí vào khoa tiếng nhật mà luận = tiếng Việt thì có đc ko hả bạn?","can_remove":false,"created_time":"2013-10-29T14:43:27+0000","like_count":0,"user_likes":false},"748573325159347":{"id":"748573325159347","from":{"id":"100004087433871","name":"Kyosuke Rinnie"},"message":"Em la sv nam nhat o vn . Lam quen nha , em me manga v anime lam","can_remove":false,"created_time":"2013-10-29T14:45:49+0000","like_count":0,"user_likes":false},"748575398492473":{"id":"748575398492473","from":{"id":"1023965040","name":"Juli KimChi"},"message":"Mình thì chắc bachelor thoy.","can_remove":false,"created_time":"2013-10-29T14:50:32+0000","like_count":0,"user_likes":false},"748581728491840":{"id":"748581728491840","from":{"id":"100004446394296","name":"Nguyen Tien"},"message":"Chet chua Nguyễn Hữu Huy dãm phải đỉnh rùi","message_tags":[{"id":"100005333138526","name":"Nguyễn Hữu Huy","type":"user","offset":10,"length":14}],"can_remove":false,"created_time":"2013-10-29T14:58:34+0000","like_count":0,"user_likes":false},"748583011825045":{"id":"748583011825045","from":{"id":"100004446394296","name":"Nguyen Tien"},"message":"Lam ban la ok rui phuong linh ak","can_remove":false,"created_time":"2013-10-29T15:01:24+0000","like_count":0,"user_likes":false},"748608578489155":{"id":"748608578489155","from":{"id":"100005327500410","name":"Hung Doan"},"message":"toi muon dc di nhat","can_remove":false,"created_time":"2013-10-29T16:03:00+0000","like_count":0,"user_likes":false},"748858708464142":{"id":"748858708464142","from":{"id":"100001754136107","name":"Nguyễn Tuấn Vũ"},"message":"A học trường kyusyu ở hakozaki hay ito. Nói chung la đông ng việt ma","can_remove":false,"created_time":"2013-10-29T23:13:37+0000","like_count":1,"user_likes":false},"748877845128895":{"id":"748877845128895","from":{"id":"100000467499280","name":"Phạm Tuấn Hải"},"message":"Minh cung i Fukuoka, o Yame. Ban o cho nao Fukuoka the? Minh cung moi sag dc 1 thang.","can_remove":false,"created_time":"2013-10-30T00:10:40+0000","like_count":1,"user_likes":false},"748902115126468":{"id":"748902115126468","from":{"id":"100006520210904","name":"Miu Miu"},"message":"Phạm Tuấn Hảiđiêu quá đấy","message_tags":[{"id":"100000467499280","name":"Phạm Tuấn Hải","type":"user","offset":0,"length":13}],"can_remove":false,"created_time":"2013-10-30T01:04:30+0000","like_count":1,"user_likes":false},"748946748455338":{"id":"748946748455338","from":{"id":"100000467499280","name":"Phạm Tuấn Hải"},"message":"Sax, dieu ko bang 86 ma 30 tuoi, va con gai 7 tuoi dau... kaka Miu Xinh a","message_tags":[{"id":"100006520210904","name":"Miu Xinh","type":"user","offset":63,"length":8}],"can_remove":false,"created_time":"2013-10-30T03:10:05+0000","like_count":1,"user_likes":false},"749202205096459":{"id":"749202205096459","from":{"id":"100000036456284","name":"Ngo Phuong Linh"},"message":"Học ở hakozaki campus. Chẳng biết đông thế nào mà khoa kinh tế chỉ có mình mình là ng VN:D","can_remove":false,"created_time":"2013-10-30T14:59:14+0000","like_count":2,"user_likes":false},"749208368429176":{"id":"749208368429176","from":{"id":"100004446394296","name":"Nguyen Tien"},"message":"Vay thi bun nhi","can_remove":false,"created_time":"2013-10-30T15:05:14+0000","like_count":0,"user_likes":false},"749231605093519":{"id":"749231605093519","from":{"id":"100001501594956","name":"Hieu Tran"},"message":"Có Việt Kiều nào sắp học xong về nước giao lưu nhỉ?","can_remove":false,"created_time":"2013-10-30T15:35:16+0000","like_count":0,"user_likes":false},"751215398228473":{"id":"751215398228473","from":{"id":"100005675104683","name":"Nguyễn Hoa"},"message":"ban oi truong ban it sv viet nam vay ban hoc o day la khoa may","can_remove":false,"created_time":"2013-11-03T00:20:24+0000","like_count":0,"user_likes":false},"751215551561791":{"id":"751215551561791","from":{"id":"100005675104683","name":"Nguyễn Hoa"},"message":"truong day chat luong giao vien tot ko co xin viec cho hs ko ban","can_remove":false,"created_time":"2013-11-03T00:21:01+0000","like_count":0,"user_likes":false}},"paging":{"cursors":{"after":"NzQ4NTM2MDcxODI5NzM5","before":"NzQ4NTM2MDcxODI5NzM5"},"next":"https://graph.facebook.com/229244010425617_748529408497072/comments?limit=1&summary=1&after=NzQ4NTM2MDcxODI5NzM5"},"summary":{"order":"chronological","total_count":38}}}