{"id":"229244010425617_748907168459296","type":"status","from":{"id":"100006539223553","name":"Kỳ Nguyễn"},"message":"Mọi người ơi cho mình hỏi tý, mình bị mất hết giấy tờ, còn lại mỗi cái hộ chiếu, hỏi trường thì trường  bảo mình phải tự đi làm lại, trường chỉ bảo địa chỉ làm thẻ ngoại kiều ở shinnagawa. Chứ ko biết cụ thể địa chỉ ở  đâu, ai biết địa chỉ cụ thể hoặc thủ tục như thế nào, chỉ hộ mình với đc ko","created_time":"2013-10-30T01:18:51+0000","updated_time":"2013-10-31T06:16:40+0000","likes":{"data":{"100006902799015":{"id":"100006902799015","name":"Đào Tạo Seo"},"100006537512163":{"id":"100006537512163","name":"Lam Truc"},"100004527602326":{"id":"100004527602326","name":"Vân Vân"}},"paging":{"cursors":{"after":"MTAwMDA2OTAyNzk5MDE1","before":"MTAwMDA2OTAyNzk5MDE1"},"next":"https://graph.facebook.com/229244010425617_748907168459296/likes?limit=1&summary=1&after=MTAwMDA2OTAyNzk5MDE1"},"summary":{"total_count":3}},"comments":{"data":{"748909665125713":{"id":"748909665125713","from":{"id":"100005801442456","name":"An Nguyen"},"message":"入館 品川","can_remove":false,"created_time":"2013-10-30T01:25:02+0000","like_count":1,"user_likes":false},"748909755125704":{"id":"748909755125704","from":{"id":"100005801442456","name":"An Nguyen"},"message":"","can_remove":false,"created_time":"2013-10-30T01:25:15+0000","like_count":2,"user_likes":false},"748909851792361":{"id":"748909851792361","from":{"id":"100005801442456","name":"An Nguyen"},"message":"Tới ga shinakawa đi bus tuyến 99","can_remove":false,"created_time":"2013-10-30T01:25:38+0000","like_count":0,"user_likes":false},"748910001792346":{"id":"748910001792346","from":{"id":"100005801442456","name":"An Nguyen"},"message":"","can_remove":false,"created_time":"2013-10-30T01:26:16+0000","like_count":1,"user_likes":false},"748918398458173":{"id":"748918398458173","from":{"id":"100002981418378","name":"Phụ Tiểu Đậu"},"message":"A an nguyen ơi.cho e biet cai trn phan mem tra duong nay cua anh di,tra tàu,xe buyt kia y a","can_remove":false,"created_time":"2013-10-30T01:49:27+0000","like_count":0,"user_likes":false},"748919805124699":{"id":"748919805124699","from":{"id":"100005801442456","name":"An Nguyen"},"message":"Google maps do e","can_remove":false,"created_time":"2013-10-30T01:53:18+0000","like_count":0,"user_likes":false},"748920675124612":{"id":"748920675124612","from":{"id":"100001754136107","name":"Nguyễn Tuấn Vũ"},"message":"Riêng thẻ ngoại kiều thì ban phải lên nyukan.Đầu tiên, bạn ra đồn cảnh sát gần nhất xin 1 cái dãy số ( bảo là tôi bị mất hết giấy tờ thì ng ta sẽ đưa cho bạn), cầm cái dãy số ấy lên nyukan kaf ng ta làm lại cho bạn","can_remove":false,"created_time":"2013-10-30T01:55:52+0000","like_count":0,"user_likes":false},"748921058457907":{"id":"748921058457907","from":{"id":"100005801442456","name":"An Nguyen"},"message":"Quên! Đầu tiên kiếm giấy báo đã","can_remove":false,"created_time":"2013-10-30T01:57:05+0000","like_count":0,"user_likes":false},"748921428457870":{"id":"748921428457870","from":{"id":"100001754136107","name":"Nguyễn Tuấn Vũ"},"message":"còn những giấy tờ còn lại thì bạn có thể ra 市役所 làm lại đc.\nbạn giữ cái dãy số ấy cẩn thận nhé, mình ko nhớ rõ lắm, hình như đi ra shiyakusyo cung cần dãy số đấy","can_remove":false,"created_time":"2013-10-30T01:58:06+0000","like_count":1,"user_likes":false},"748931858456827":{"id":"748931858456827","from":{"id":"100006539223553","name":"Kỳ Nguyễn"},"message":"Cảm ơn mọi người rất nhiều ạ","can_remove":false,"created_time":"2013-10-30T02:25:40+0000","like_count":0,"user_likes":false},"748950988454914":{"id":"748950988454914","from":{"id":"100001458099624","name":"Kham Pha"},"message":"Theo quy định là sau khi mất trong vòng 14 ngày phải làm lại, giấy tờ cần thiết thì như Nguyễn Tuấn Vũ nói đó.","message_tags":[{"id":"100001754136107","name":"Nguyễn Tuấn Vũ","type":"user","offset":88,"length":14}],"can_remove":false,"created_time":"2013-10-30T03:23:00+0000","like_count":1,"user_likes":false},"748951215121558":{"id":"748951215121558","from":{"id":"100001458099624","name":"Kham Pha"},"message":"Nhớ mang cả hộ chiếu theo.","can_remove":false,"created_time":"2013-10-30T03:23:49+0000","like_count":0,"user_likes":false},"748957828454230":{"id":"748957828454230","from":{"id":"1108328257","name":"Kenji Le"},"message":"ban toi ga shinagawa di xe bus ve Huong 入国 管理xuong Tram 入国 管理前. \nvao toa nhà đo lên lau 2 toi khu lam the ngọai kieu","can_remove":false,"created_time":"2013-10-30T03:44:23+0000","like_count":0,"user_likes":false},"748971911786155":{"id":"748971911786155","from":{"id":"100004527602326","name":"Vân Vân"},"message":"Chả quan tâm đến hs  gì cả, bảo ở shinagawa sao lại k cho dia cho cu the thi ai ma bit dc","can_remove":false,"created_time":"2013-10-30T04:29:21+0000","like_count":1,"user_likes":false},"748972501786096":{"id":"748972501786096","from":{"id":"100003173529851","name":"Linh Duy Thuật"},"message":"Báo công an . Nó tìm hộ.xóm mình có ng mất báo nó khoảng hơn 1 tuần nó tìm thấy báo mình đến lấy mà","can_remove":false,"created_time":"2013-10-30T04:31:32+0000","like_count":1,"user_likes":false},"748989618451051":{"id":"748989618451051","from":{"id":"100005801442456","name":"An Nguyen"},"message":"Không nên nói bậy nhé bé Vân@.@ k phải page cá nhân","can_remove":false,"created_time":"2013-10-30T05:16:44+0000","like_count":2,"user_likes":false},"748989821784364":{"id":"748989821784364","from":{"id":"100001754136107","name":"Nguyễn Tuấn Vũ"},"message":"Linh Duy Thuật: t mất 3 tháng rồi chưa thấy này","message_tags":[{"id":"100003173529851","name":"Linh Duy Thuật","type":"user","offset":0,"length":14}],"can_remove":false,"created_time":"2013-10-30T05:17:36+0000","like_count":0,"user_likes":false},"748989948451018":{"id":"748989948451018","from":{"id":"100001754136107","name":"Nguyễn Tuấn Vũ"},"message":"Vân Vân: t xóa comment nói bậy","message_tags":[{"id":"100004527602326","name":"Vân Vân","type":"user","offset":0,"length":7}],"can_remove":false,"created_time":"2013-10-30T05:18:06+0000","like_count":1,"user_likes":false},"748990531784293":{"id":"748990531784293","from":{"id":"100001416272263","name":"Mai PB"},"message":"Xóa comment nói bậy ở trên rồi. Đã có mem bị loại khỏi group vì nói bậy, cẩn thận.","can_remove":false,"created_time":"2013-10-30T05:20:02+0000","like_count":2,"user_likes":false},"748994228450590":{"id":"748994228450590","from":{"id":"100004527602326","name":"Vân Vân"},"message":"Tuấn Vũ.: thoải mái đê bạn","can_remove":false,"created_time":"2013-10-30T05:30:28+0000","like_count":0,"user_likes":false},"749015525115127":{"id":"749015525115127","from":{"id":"100003173529851","name":"Linh Duy Thuật"},"message":"Thế báo công an. Ko tìm đc thì báo luu kan","can_remove":false,"created_time":"2013-10-30T06:51:14+0000","like_count":1,"user_likes":false},"749579845058695":{"id":"749579845058695","from":{"id":"100006539223553","name":"Kỳ Nguyễn"},"message":"mình bị mất cắp ở cty, toàn người mình lấy cả, mất cả 2 đôi giày nữa,ví để trong balo gửi ở phòng  trực cũng bị móc.\ncó bạn nào làm warabeya chi nhánh ga tamagawajosui cùng cảnh ngộ ko nhỉ, người việt ở đấy  ýt nhất cũng hơn  100 người, hôm nào cũng nghe người kêu mất giày, mất quần, áo,ví, tiền, điện thoại, giấy tờ.có chị mất luôn cả hộ chiếu, vì có 1 số người có thói quen mang tất giấy tờ theo nên đùng 1 cái là trắng tay luôn. \nĐạo chích chuyên nghiệp nào đọc đc dòng này làm ơn: cái gì ko dùng đc thì vứt ra đường đề nó còn có cơ hội về với chủ. Chứ thủ tiêu luôn thì cặn tàu ráo máng quá.\nXin cảm ơn nhiều ạ.","can_remove":false,"created_time":"2013-10-31T05:10:07+0000","like_count":0,"user_likes":false},"749582045058475":{"id":"749582045058475","from":{"id":"100001416272263","name":"Mai PB"},"message":"Báo cảnh sát đi, họ sẽ kiểm tra camera chống trộm","can_remove":false,"created_time":"2013-10-31T05:16:27+0000","like_count":2,"user_likes":false},"749593331724013":{"id":"749593331724013","from":{"id":"100003173529851","name":"Linh Duy Thuật"},"message":"Vậy àh. Thăng e mình cùng làm cty ông. Chỉ mất đôi giầy thôi. Số ông đen vậy. Hi vọng nó vất đi công an tìm đc cho ông,","can_remove":false,"created_time":"2013-10-31T05:57:11+0000","like_count":1,"user_likes":false},"749596968390316":{"id":"749596968390316","from":{"id":"100001583529210","name":"Nguyễn Kim Hà"},"message":"Trước hết nên báo công an rồi đến 入国管","can_remove":false,"created_time":"2013-10-31T06:11:03+0000","like_count":1,"user_likes":false},"749597771723569":{"id":"749597771723569","from":{"id":"100006539223553","name":"Kỳ Nguyễn"},"message":"ảnh đấy là gì đấy bạn","can_remove":false,"created_time":"2013-10-31T06:12:58+0000","like_count":0,"user_likes":false},"749599615056718":{"id":"749599615056718","from":{"id":"100001583529210","name":"Nguyễn Kim Hà"},"message":"Đây là nyuu kan tokyo ở shinakawa đấy bạn","can_remove":false,"created_time":"2013-10-31T06:16:40+0000","like_count":1,"user_likes":false}},"paging":{"cursors":{"after":"NzQ4OTA5NjY1MTI1NzEz","before":"NzQ4OTA5NjY1MTI1NzEz"},"next":"https://graph.facebook.com/229244010425617_748907168459296/comments?limit=1&summary=1&after=NzQ4OTA5NjY1MTI1NzEz"},"summary":{"order":"chronological","total_count":27}}}