{"id":"229244010425617_748904528459560","type":"status","from":{"id":"100002145579460","name":"Nhất Cước Sanji"},"message":"cac anh chi cho em hoi chut: Co pai sau khi hoc len trung cap, cao dang hoac dai hoc thi ko bi quy dinh ve gio lam them nua phai ko a?","created_time":"2013-10-30T01:10:48+0000","updated_time":"2013-10-30T01:56:04+0000","comments":{"data":{"748905151792831":{"id":"748905151792831","from":{"id":"100001754136107","name":"Nguyễn Tuấn Vũ"},"message":"Ko ban ak, vì là visa du học sinh nên vẫn quy đình bình thường. 1 tuần làm ko quá 28 tiếng","can_remove":false,"created_time":"2013-10-30T01:12:42+0000","like_count":1,"user_likes":false},"748905625126117":{"id":"748905625126117","from":{"id":"100001754136107","name":"Nguyễn Tuấn Vũ"},"message":"An An Nguyen: 1 tháng làm ko quá 120 h hay 140 nhỉ","message_tags":[{"id":"100005801442456","name":"An Nguyen","type":"user","offset":3,"length":9}],"can_remove":false,"created_time":"2013-10-30T01:13:51+0000","like_count":1,"user_likes":false},"748906691792677":{"id":"748906691792677","from":{"id":"100005801442456","name":"An Nguyen"},"message":"112h bác ạ","can_remove":false,"created_time":"2013-10-30T01:17:28+0000","like_count":1,"user_likes":false},"748907008459312":{"id":"748907008459312","from":{"id":"100005801442456","name":"An Nguyen"},"message":"Quy Định áp dụng với tất cả ai có visa tư cách Dhs","can_remove":false,"created_time":"2013-10-30T01:18:22+0000","like_count":1,"user_likes":false},"748908905125789":{"id":"748908905125789","from":{"id":"100001754136107","name":"Nguyễn Tuấn Vũ"},"message":"Hả, 112 thì 1 tháng 28 ngay","can_remove":false,"created_time":"2013-10-30T01:23:29+0000","like_count":0,"user_likes":false},"748909521792394":{"id":"748909521792394","from":{"id":"100005801442456","name":"An Nguyen"},"message":"1 tuần 28h 1 tháng 112 chứ sao","can_remove":false,"created_time":"2013-10-30T01:24:40+0000","like_count":0,"user_likes":false},"748911851792161":{"id":"748911851792161","from":{"id":"100002145579460","name":"Nhất Cước Sanji"},"message":"Vậy thì làm sao để đủ tiền đóng học đại học bây giờ. :(.","can_remove":false,"created_time":"2013-10-30T01:31:47+0000","like_count":0,"user_likes":false},"748913328458680":{"id":"748913328458680","from":{"id":"100003291701878","name":"Bui Anhdat"},"message":":(","can_remove":false,"created_time":"2013-10-30T01:35:34+0000","like_count":0,"user_likes":false},"748920698457943":{"id":"748920698457943","from":{"id":"100005801442456","name":"An Nguyen"},"message":"@.@","can_remove":false,"created_time":"2013-10-30T01:56:04+0000","like_count":0,"user_likes":false}},"paging":{"cursors":{"after":"NzQ4OTA1MTUxNzkyODMx","before":"NzQ4OTA1MTUxNzkyODMx"},"next":"https://graph.facebook.com/229244010425617_748904528459560/comments?limit=1&summary=1&after=NzQ4OTA1MTUxNzkyODMx"},"summary":{"order":"chronological","total_count":9}},"likes":{"data":[]}}