{"id":"229244010425617_749127778437235","type":"status","from":{"id":"100001416272263","name":"Mai PB"},"message":"＜笑い話＞ 取引先\n\n今朝、同僚の○○君が取引先の担当者に電話をかけてたの。\nその担当者は、まだ会社に出社してなかったので、電話応対してくれた相手に\n「出社されたら電話下さい」\nと言おうとして\n「出世されたら電話下さい」\nって言ってたわ。","created_time":"2013-10-30T12:32:42+0000","updated_time":"2013-11-01T05:38:34+0000","likes":{"data":{"569263718":{"id":"569263718","name":"Phuong Thao Tran"},"100000054567015":{"id":"100000054567015","name":"Vũ Tuấn Nghĩa"},"100000250256418":{"id":"100000250256418","name":"Nguyen Viet Anh"},"100001520307352":{"id":"100001520307352","name":"Nguyen Sang"},"100005801442456":{"id":"100005801442456","name":"An Nguyen"},"100003696134321":{"id":"100003696134321","name":"Phạm Hạnh"},"100006984725456":{"id":"100006984725456","name":"Mai Anh"},"100003005597243":{"id":"100003005597243","name":"Zany Royal"},"100002855090345":{"id":"100002855090345","name":"Xuan Huy"},"100002134083104":{"id":"100002134083104","name":"Bùi Quang Hoàng"},"100001526631937":{"id":"100001526631937","name":"Tường Oanh Mineko"},"100004716640495":{"id":"100004716640495","name":"Thúy An Dương"},"100001501594956":{"id":"100001501594956","name":"Hieu Tran"},"100004253979918":{"id":"100004253979918","name":"Louis Hoàng Văn Thái"},"100006361121356":{"id":"100006361121356","name":"Xuka Mũm Mĩm"}},"paging":{"cursors":{"after":"NTY5MjYzNzE4","before":"NTY5MjYzNzE4"},"next":"https://graph.facebook.com/229244010425617_749127778437235/likes?limit=1&summary=1&after=NTY5MjYzNzE4"},"summary":{"total_count":16}},"comments":{"data":{"749141525102527":{"id":"749141525102527","from":{"id":"100001416272263","name":"Mai PB"},"message":"出世（しゅっせ）= thành đạt, thăng tiến cao","can_remove":false,"created_time":"2013-10-30T13:05:38+0000","like_count":1,"user_likes":false},"749155701767776":{"id":"749155701767776","from":{"id":"100001501594956","name":"Hieu Tran"},"message":"面白いね","can_remove":false,"created_time":"2013-10-30T13:36:09+0000","like_count":0,"user_likes":false},"749175951765751":{"id":"749175951765751","from":{"id":"100001526631937","name":"Tường Oanh Mineko"},"message":":v","can_remove":false,"created_time":"2013-10-30T14:15:01+0000","like_count":0,"user_likes":false},"749531358396877":{"id":"749531358396877","from":{"id":"100001416272263","name":"Mai PB"},"message":"Các bài cũ: https://www.facebook.com/groups/CongdongVietNhat/doc/688496434500370/","can_remove":false,"created_time":"2013-10-31T02:50:27+0000","like_count":0,"user_likes":false},"749617131721633":{"id":"749617131721633","from":{"id":"100006984725456","name":"Mai Anh"},"message":"Sao khó hiểu quá vzay ... Ai thọc léc giùm cái coi... đọc hem có hỉu chi hết ... hix hix","can_remove":false,"created_time":"2013-10-31T07:21:51+0000","like_count":0,"user_likes":false},"749618598388153":{"id":"749618598388153","from":{"id":"100006984725456","name":"Mai Anh"},"message":"Khách Hàng ( Truyện cười )\nSáng nay\nBạn đồng nghiệp ... của tôi, đã điện thoại cho người phụ trách khách hàng.\nVì người phụ trách đó vẫn chưa tới công ty nên cậu ấy đã gọi ngược lại cho người đã điện thoại tới , định sẽ nói rằng \" vui lòng gọi cho tôi nếu ngài tới công ty \" nhưng lại nói mất tiêu là \" Vui lòng gọi cho tôi nếu ngài thành đạt \".","can_remove":false,"created_time":"2013-10-31T07:26:57+0000","like_count":0,"user_likes":false},"749618758388137":{"id":"749618758388137","from":{"id":"100006984725456","name":"Mai Anh"},"message":"Ai đó chỉ giùm mình chỗ sai, cho mình hiểu đúng ... cho mình cười cùng với nè.","can_remove":false,"created_time":"2013-10-31T07:27:39+0000","like_count":0,"user_likes":false},"749726221710724":{"id":"749726221710724","from":{"id":"100001416272263","name":"Mai PB"},"message":"Các đại từ sai rồi. Ai gọi cho ai, xem lại nhé.","can_remove":false,"created_time":"2013-10-31T12:51:01+0000","like_count":1,"user_likes":false},"749727261710620":{"id":"749727261710620","from":{"id":"100006984725456","name":"Mai Anh"},"message":"Sáng nay, bạn đồng nghiệp của tôi đã nhận được cuộc điện thoại từ người phụ trách khách hàng.","can_remove":false,"created_time":"2013-10-31T12:53:54+0000","like_count":0,"user_likes":false},"749742138375799":{"id":"749742138375799","from":{"id":"100001416272263","name":"Mai PB"},"message":"Sửa 1 chỗ của Chiếc Lá Cuối Cùng: người phụ trách khách hàng -> người phụ trách phía khách hàng, hoặc người khách hàng phụ trách","message_tags":[{"id":"100006469315671","name":"Chiếc Lá Cuối Cùng","type":"user","offset":14,"length":18}],"can_remove":false,"created_time":"2013-10-31T13:28:54+0000","like_count":1,"user_likes":false},"749742368375776":{"id":"749742368375776","from":{"id":"100001416272263","name":"Mai PB"},"message":"Mai Anh nhầm đoạn sau thôi, đoạn đầu không sai đâu","message_tags":[{"id":"100006984725456","name":"Mai Anh","type":"user","offset":0,"length":7}],"can_remove":false,"created_time":"2013-10-31T13:29:20+0000","like_count":1,"user_likes":false},"749762178373795":{"id":"749762178373795","from":{"id":"100006984725456","name":"Mai Anh"},"message":"Sáng nay, bạn đồng nghiệp của tôi đã gọi cho người phụ trách phía khách hàng. Vì người phụ trách đó chưa tới công ty nên tôi định nói với người nhận điện thoại là \" vui lòng gọi cho tôi khi đến công ty \", nhưng lại nói thành \" vui lòng gọi cho tôi nếu ngài thành đạt \". ---> Chuẩn là thế này ạ ?? :((","can_remove":false,"created_time":"2013-10-31T14:05:29+0000","like_count":0,"user_likes":false},"749765231706823":{"id":"749765231706823","from":{"id":"100001416272263","name":"Mai PB"},"message":"→khi nào thành đạt đã hẵng gọi cho tôi","can_remove":false,"created_time":"2013-10-31T14:10:34+0000","like_count":1,"user_likes":false},"749767268373286":{"id":"749767268373286","from":{"id":"100006984725456","name":"Mai Anh"},"message":"huhu...đống bã đậu của em vẫn chưa chịu hiểu : Trong truyện này có 3 hướng đối tượng là Tôi, Đồng nghiệp, Khách hàng. Vậy đoạn đầu thì Tôi đứng ở phía đồng nghiệp để kể. Nhưng đoạn sau lại đứng ở phía của Khách hàng ? Sao e ko hiểu chuyện gì đang xảy ra hết vậy ?","can_remove":false,"created_time":"2013-10-31T14:15:34+0000","like_count":0,"user_likes":false},"749769071706439":{"id":"749769071706439","from":{"id":"100001416272263","name":"Mai PB"},"message":"Chiếc Lá Cuối Cùng giải thích xem","message_tags":[{"id":"100006469315671","name":"Chiếc Lá Cuối Cùng","type":"user","offset":0,"length":18}],"can_remove":false,"created_time":"2013-10-31T14:18:58+0000","like_count":0,"user_likes":false},"749787858371227":{"id":"749787858371227","from":{"id":"100006984725456","name":"Mai Anh"},"message":"Giải thích giùm mình với bạn Chiếc Lá Cuối Cùng ơi ! :(","message_tags":[{"id":"100006469315671","name":"Chiếc Lá Cuối Cùng","type":"user","offset":29,"length":18}],"can_remove":false,"created_time":"2013-10-31T14:56:53+0000","like_count":0,"user_likes":false},"750038008346212":{"id":"750038008346212","from":{"id":"100001416272263","name":"Mai PB"},"message":"Trong ngữ cảnh này chỉ có 1 người gọi điện là \"đồng nghiệp của tôi\". Vì cùng một ngữ cảnh nên trong  đoạn sau chủ ngữ ẩn (như thường thấy trong tiếng Nhật) vẫn không đổi. Ngược lại nếu đổi so với câu trước thì sẽ phải được thêm chủ ngữ vào, nhưng như vậy thì chẳng ăn nhập gì với câu trước cả.","can_remove":false,"created_time":"2013-11-01T00:26:30+0000","like_count":2,"user_likes":false},"750076791675667":{"id":"750076791675667","from":{"id":"100005801442456","name":"An Nguyen"},"message":"Cho thêm mấy bài nữa đi anh! Đọc hay và học cũng nhiều!❤️","can_remove":false,"created_time":"2013-11-01T01:16:49+0000","like_count":0,"user_likes":false},"750083945008285":{"id":"750083945008285","from":{"id":"100001416272263","name":"Mai PB"},"message":"Đọc mấy bài cũ đi, link ở trên đó. Trước mãi chẳng thấy ai comment gì cả nên đã định bỏ loạt bài này rồi.","can_remove":false,"created_time":"2013-11-01T01:33:17+0000","like_count":1,"user_likes":false},"750146865001993":{"id":"750146865001993","from":{"id":"100001416272263","name":"Mai PB"},"message":"Đố mọi người, \"tôi\" là nam hay nữ?","can_remove":false,"created_time":"2013-11-01T03:21:16+0000","like_count":0,"user_likes":false},"750162168333796":{"id":"750162168333796","from":{"id":"100001458099624","name":"Kham Pha"},"message":"\"tôi\" trong bài là nữ, còn \"tôi\" của anh Mai PB tất nhiên là nam rồi. Sao lại hỏi mọi người câu khó thế :v","message_tags":[{"id":"100001416272263","name":"Mai PB","type":"user","offset":41,"length":6}],"can_remove":false,"created_time":"2013-11-01T04:01:55+0000","like_count":0,"user_likes":false},"750189928331020":{"id":"750189928331020","from":{"id":"100006984725456","name":"Mai Anh"},"message":"==> Sáng nay, bạn đồng nghiệp của tôi đã gọi cho người phụ trách phía khách hàng. Người phụ trách đó, vì vẫn chưa tới công ty nên cậu ấy đã định bụng nói với người tiếp nhận cuộc điện thoại  rằng \" vui lòng gọi cho tôi khi tới công ty \", nhưng lại nói thành \" Khi nào thành đạt hẵng gọi cho tôi \". ( Cuối cùng mình cũng hiểu, xin cảm ơn mọi người rất nhiều . ^^ )","can_remove":false,"created_time":"2013-11-01T05:38:34+0000","like_count":0,"user_likes":false}},"paging":{"cursors":{"after":"NzQ5MTQxNTI1MTAyNTI3","before":"NzQ5MTQxNTI1MTAyNTI3"},"next":"https://graph.facebook.com/229244010425617_749127778437235/comments?limit=1&summary=1&after=NzQ5MTQxNTI1MTAyNTI3"},"summary":{"order":"chronological","total_count":27}}}