{"id":"229244010425617_749235178426495","type":"status","from":{"id":"1816269439","name":"Dao Ngoc"},"message":"Banner hôm tới tại Saitama Fair 2.3/ 11 cả nhà nhé. ^^. Chúc mọi người ngủ ngon.","created_time":"2013-10-30T15:38:50+0000","updated_time":"2013-10-31T02:29:07+0000","likes":{"data":{"100004094346107":{"id":"100004094346107","name":"Thuy Nga Nguyen"},"100000021018532":{"id":"100000021018532","name":"Hương Nguyễn"},"100003502346209":{"id":"100003502346209","name":"Mèo Ngao"},"100005801442456":{"id":"100005801442456","name":"An Nguyen"},"100001754136107":{"id":"100001754136107","name":"Nguyễn Tuấn Vũ"},"1603137055":{"id":"1603137055","name":"Nguyen Song Lan Anh"},"1575796946":{"id":"1575796946","name":"Bich Ptn"},"100006886237437":{"id":"100006886237437","name":"Akira Quỳnh"},"100002855090345":{"id":"100002855090345","name":"Xuan Huy"},"100004881932416":{"id":"100004881932416","name":"Anhđưataygiữlấy Nhữngnắmtrotànembỏlại"},"100001416272263":{"id":"100001416272263","name":"Mai PB"},"100002724611926":{"id":"100002724611926","name":"To Bee"},"100001458099624":{"id":"100001458099624","name":"Kham Pha"},"100004009345656":{"id":"100004009345656","name":"Hung Trinh"},"100006767705219":{"id":"100006767705219","name":"Kim Liên"},"100005439396391":{"id":"100005439396391","name":"Ngocminh Vo"},"100000045271667":{"id":"100000045271667","name":"Nam Thai Nguyen"}},"paging":{"cursors":{"after":"MTAwMDA0MDk0MzQ2MTA3","before":"MTAwMDA0MDk0MzQ2MTA3"},"next":"https://graph.facebook.com/229244010425617_749235178426495/likes?limit=1&summary=1&after=MTAwMDA0MDk0MzQ2MTA3"},"summary":{"total_count":17}},"comments":{"data":{"749235845093095":{"id":"749235845093095","from":{"id":"100000045271667","name":"Nam Thai Nguyen"},"message":"Ngon quá, ước gì...","can_remove":false,"created_time":"2013-10-30T15:40:04+0000","like_count":1,"user_likes":false},"749260295090650":{"id":"749260295090650","from":{"id":"100006886237437","name":"Akira Quỳnh"},"message":"Minasan Oyasuminasai :)","can_remove":false,"created_time":"2013-10-30T16:26:29+0000","like_count":1,"user_likes":false},"749262948423718":{"id":"749262948423718","from":{"id":"1816269439","name":"Dao Ngoc"},"message":"良い夢を見るように","can_remove":false,"created_time":"2013-10-30T16:33:22+0000","like_count":2,"user_likes":false},"749523701730976":{"id":"749523701730976","from":{"id":"1816269439","name":"Dao Ngoc"},"message":"Nam Thai Nguyen　: ようこそ！","message_tags":[{"id":"100000045271667","name":"Nam Thai Nguyen","type":"user","offset":0,"length":15}],"can_remove":false,"created_time":"2013-10-31T02:29:07+0000","like_count":2,"user_likes":false}},"paging":{"cursors":{"after":"NzQ5MjM1ODQ1MDkzMDk1","before":"NzQ5MjM1ODQ1MDkzMDk1"},"next":"https://graph.facebook.com/229244010425617_749235178426495/comments?limit=1&summary=1&after=NzQ5MjM1ODQ1MDkzMDk1"},"summary":{"order":"chronological","total_count":4}}}