{"id":"229244010425617_749208921762454","type":"status","from":{"id":"100001458099624","name":"Kham Pha"},"message":"Thấy nhiều mem hỏi về tự động từ, tha động từ và nhiều cấu trúc ngữ pháp hay gặp nhưng rất dễ nhầm lẫn và khó hiểu khác, mình định viết bài nhưng lại chẳng có thời gian. Nói chung là viết một bài cần sắp xếp nội dung, lựa chọn cách viết ví dụ cho dễ hiểu cũng tốn rất nhiều thời gian, gần đây mình bận nên không giúp gì được nhiều, mong mọi người hiểu cho. \n\nCòn cả 1 thư mục [Học tiếng Nhật qua bài hát] trước giờ mình ôm cũng bỏ không rồi. Có bạn nào yêu thích các bài hát Nhật và muốn tìm hiểu cái hay của ngôn từ trong các bài hát đó thì chúng ta sẽ lập nhóm trao đổi, chia các phần ra và tìm hiểu. Mình sẽ đứng giữa đóng vai trò điều phối cho các bạn. Nếu gặp cấu trúc nào không hiểu thì mình sẽ chỉ chỗ để cho các bạn có thể tìm hiểu. Các bạn có thể tự đề cử bài mình thích hoặc nếu không biết chọn bài nào thì mình có thể đề cử vài bài rất hay và nổi tiếng này:\n\n三月九日\n粉雪\n花雪\nありがとう\n未来へ\nさくら\n涙そうそう\n帰りたくなったよ\n....\n\nKinh nghiệm của mình là ngồi ôm sách học không vào đâu, ngày mai lại quên thôi. Học phải có gì hứng thú mới nhớ lâu được :D\n\nhttp://www.youtube.com/watch?v=qOZJ2t174V8","created_time":"2013-10-30T15:05:35+0000","updated_time":"2013-11-02T00:36:30+0000","likes":{"data":{"1821970083":{"id":"1821970083","name":"Nguyễn Mạnh Cường"},"100001365545442":{"id":"100001365545442","name":"Nguyễn Nam"},"1148962646":{"id":"1148962646","name":"Tran Thi Tuong Van"},"100002137253818":{"id":"100002137253818","name":"Anh Khoa"},"100004094346107":{"id":"100004094346107","name":"Thuy Nga Nguyen"},"100004322010992":{"id":"100004322010992","name":"Nhím Xù"},"100004460525997":{"id":"100004460525997","name":"Hà Trang Nguyễn"},"100000168961543":{"id":"100000168961543","name":"Le Kien"},"100001526631937":{"id":"100001526631937","name":"Tường Oanh Mineko"},"100004194542918":{"id":"100004194542918","name":"Đào Hana"},"100003649525235":{"id":"100003649525235","name":"Phuong JP"},"100006767705219":{"id":"100006767705219","name":"Kim Liên"},"100004052599880":{"id":"100004052599880","name":"Nguyen-chan Hsj"},"100003669604211":{"id":"100003669604211","name":"Mặt Trời Phương Đông"},"100001433646632":{"id":"100001433646632","name":"Min Max"},"1122379216":{"id":"1122379216","name":"Hà Ngô"},"1816269439":{"id":"1816269439","name":"Dao Ngoc"},"1118453345":{"id":"1118453345","name":"Tâm Tung Tăng"}},"paging":{"cursors":{"after":"MTgyMTk3MDA4Mw==","before":"MTgyMTk3MDA4Mw=="},"next":"https://graph.facebook.com/229244010425617_749208921762454/likes?limit=1&summary=1&after=MTgyMTk3MDA4Mw%3D%3D"},"summary":{"total_count":19}},"comments":{"data":{"749210851762261":{"id":"749210851762261","from":{"id":"100000466295678","name":"Tha Nguyen"},"message":"chắc là giống kiểu nội động từ S+V\nvà ngoại động từ S+V+O trong tiếng anh =)","can_remove":false,"created_time":"2013-10-30T15:06:46+0000","like_count":0,"user_likes":false},"749217255094954":{"id":"749217255094954","from":{"id":"100001458099624","name":"Kham Pha"},"message":"hi vọng là nó đơn giản như vậy :)","can_remove":false,"created_time":"2013-10-30T15:12:45+0000","like_count":0,"user_likes":false},"749225975094082":{"id":"749225975094082","from":{"id":"100004360751785","name":"Hà Nguyễn"},"message":"càng học tiếng nhật e lại càng yêu tiếng anh :D","can_remove":false,"created_time":"2013-10-30T15:23:43+0000","like_count":7,"user_likes":false},"749240818425931":{"id":"749240818425931","from":{"id":"100001458099624","name":"Kham Pha"},"message":"comment là đồng ý vào nhóm hát hò nhé :))","can_remove":false,"created_time":"2013-10-30T15:51:36+0000","like_count":1,"user_likes":false},"749241835092496":{"id":"749241835092496","from":{"id":"100004360751785","name":"Hà Nguyễn"},"message":":D tình nguyện vào nhóm nghe và nhìn, tiếng Nhật tớ đang học sơ cấp, chắc không giúp gì được mọi ng rùi","can_remove":false,"created_time":"2013-10-30T15:53:43+0000","like_count":0,"user_likes":false},"749248961758450":{"id":"749248961758450","from":{"id":"100001458099624","name":"Kham Pha"},"message":"Thôi mình đi ngủ đây, mai còn đi làm sớm. Mọi người muốn tham gia thì cứ tự nhiên comment vào đây :)","can_remove":false,"created_time":"2013-10-30T16:02:30+0000","like_count":1,"user_likes":false},"749253328424680":{"id":"749253328424680","from":{"id":"100003011417151","name":"Hue Kim"},"message":"tình hình là dạo này em ko có nhiều thời gian rảnh cho lắm, nên bon chen đc khi mô thì bon chen, đừng vứt em ra là đc","can_remove":false,"created_time":"2013-10-30T16:12:13+0000","like_count":0,"user_likes":false},"749253718424641":{"id":"749253718424641","from":{"id":"100001458099624","name":"Kham Pha"},"message":"hát hò nhé, chọn bài đi :D","can_remove":false,"created_time":"2013-10-30T16:12:58+0000","like_count":0,"user_likes":false},"749472355069444":{"id":"749472355069444","from":{"id":"100004094346107","name":"Thuy Nga Nguyen"},"message":"cho em tham gia với, em rất thích học tiếng nhật qua bài hát.","can_remove":false,"created_time":"2013-10-31T00:35:43+0000","like_count":0,"user_likes":false},"750385288311484":{"id":"750385288311484","from":{"id":"100001458099624","name":"Kham Pha"},"message":"Thuy Nga Nguyen có đk làm admin đúng không? Làm admin mục này luôn nhé :)","message_tags":[{"id":"100004094346107","name":"Thuy Nga Nguyen","type":"user","offset":0,"length":15}],"can_remove":false,"created_time":"2013-11-01T15:00:24+0000","like_count":0,"user_likes":false},"750629721620374":{"id":"750629721620374","from":{"id":"100004094346107","name":"Thuy Nga Nguyen"},"message":"Em chưa làm bao giờ nên cũng không biết như thế nào. Em với anh cùng làm nhé!","can_remove":false,"created_time":"2013-11-02T00:36:30+0000","like_count":0,"user_likes":false}},"paging":{"cursors":{"after":"NzQ5MjEwODUxNzYyMjYx","before":"NzQ5MjEwODUxNzYyMjYx"},"next":"https://graph.facebook.com/229244010425617_749208921762454/comments?limit=1&summary=1&after=NzQ5MjEwODUxNzYyMjYx"},"summary":{"order":"chronological","total_count":11}}}