{"id":"229244010425617_749561138393899","type":"status","from":{"id":"100004346623532","name":"Chiisai Namida"},"message":"Hôm trước minh nhớ có một bạn post bài về từ vựng dùng trong quán ăn, nhà hang. Mình tìm mãi mà không được. Bạn nào có post lại một lần nữa cho mình xin được không ạ","created_time":"2013-10-31T04:04:26+0000","updated_time":"2013-10-31T04:21:57+0000","likes":{"data":{"100005775182411":{"id":"100005775182411","name":"Tuấn Milo"}},"paging":{"cursors":{"after":"MTAwMDA1Nzc1MTgyNDEx","before":"MTAwMDA1Nzc1MTgyNDEx"}},"summary":{"total_count":1}},"comments":{"data":{"749561638393849":{"id":"749561638393849","from":{"id":"100005801442456","name":"An Nguyen"},"message":"Nằm trong mục tổng hợp bài viết của diễn đàn ays","can_remove":false,"created_time":"2013-10-31T04:06:36+0000","like_count":0,"user_likes":false},"749562685060411":{"id":"749562685060411","from":{"id":"100004346623532","name":"Chiisai Namida"},"message":"không hiểu","can_remove":false,"created_time":"2013-10-31T04:10:52+0000","like_count":0,"user_likes":false},"749563045060375":{"id":"749563045060375","from":{"id":"100005801442456","name":"An Nguyen"},"message":"Không biết mấy thành viên hiểu đc phần lưu trữ bài viết nhỉ bác Mai PB!","message_tags":[{"id":"100001416272263","name":"Mai PB","type":"user","offset":64,"length":6}],"can_remove":false,"created_time":"2013-10-31T04:12:23+0000","like_count":0,"user_likes":false},"749563108393702":{"id":"749563108393702","from":{"id":"100004346623532","name":"Chiisai Namida"},"message":"thế thì phải giải thích đi","can_remove":false,"created_time":"2013-10-31T04:12:47+0000","like_count":0,"user_likes":false},"749563228393690":{"id":"749563228393690","from":{"id":"100000195299558","name":"Giọt Sương Sớm Mai"},"message":"Ban dinh xin vao nha hang ak","can_remove":false,"created_time":"2013-10-31T04:13:37+0000","like_count":0,"user_likes":false},"749563418393671":{"id":"749563418393671","from":{"id":"100001416272263","name":"Mai PB"},"message":"Dùng đt thì khó thấy thật. An Nguyen post cái màn hình chỉ chỗ cho bạn ấy","message_tags":[{"id":"100005801442456","name":"An Nguyen","type":"user","offset":27,"length":9}],"can_remove":false,"created_time":"2013-10-31T04:14:28+0000","like_count":0,"user_likes":false},"749563898393623":{"id":"749563898393623","from":{"id":"100005801442456","name":"An Nguyen"},"message":"Đang xài đt đúng ko?\nThấy chư more bên cạnh chứ photo ko? Nhấp vào đó nó hiện ra các thông tin về diễn đàn, \n206 file là tổng hợp các bạn viết hay của diễn đàn vào đó tra là thấy","can_remove":false,"created_time":"2013-10-31T04:16:42+0000","like_count":0,"user_likes":false},"749563921726954":{"id":"749563921726954","from":{"id":"100001416272263","name":"Mai PB"},"message":"Ở đầu group có 1 dòng ghi là \"View 1 Pinned Post\" đó, vào đó xem phần Arubaito","can_remove":false,"created_time":"2013-10-31T04:16:48+0000","like_count":0,"user_likes":false},"749564015060278":{"id":"749564015060278","from":{"id":"100005801442456","name":"An Nguyen"},"message":"","can_remove":false,"created_time":"2013-10-31T04:17:12+0000","like_count":0,"user_likes":false},"749565211726825":{"id":"749565211726825","from":{"id":"100004346623532","name":"Chiisai Namida"},"message":"ok tìm thấy ui. Thanks","can_remove":false,"created_time":"2013-10-31T04:21:57+0000","like_count":0,"user_likes":false}},"paging":{"cursors":{"after":"NzQ5NTYxNjM4MzkzODQ5","before":"NzQ5NTYxNjM4MzkzODQ5"},"next":"https://graph.facebook.com/229244010425617_749561138393899/comments?limit=1&summary=1&after=NzQ5NTYxNjM4MzkzODQ5"},"summary":{"order":"chronological","total_count":10}}}