{"id":"229244010425617_749558558394157","type":"status","from":{"id":"1813611352","name":"To Đùng"},"message":"Em đang có ít vợt cầu lông ở Tokyo cần nhờ người chuyển xách tay về trong đầu tháng 11 này. Ai có người từ Tokyo về thì báo giá giúp em nhé. Khu vực khác thì để em nhờ bạn gửi Yamato hoặc Sagawa xuống.\nChi phí xách tay thoả thuận nhé mọi người.\n\nThanks.\n0922101188","created_time":"2013-10-31T03:58:40+0000","updated_time":"2013-10-31T09:48:04+0000","comments":{"data":{"749564628393550":{"id":"749564628393550","from":{"id":"100001583529210","name":"Nguyễn Kim Hà"},"message":"E ve 19/11 co dc ko?","can_remove":false,"created_time":"2013-10-31T04:20:07+0000","like_count":1,"user_likes":false},"749566148393398":{"id":"749566148393398","from":{"id":"1813611352","name":"To Đùng"},"message":"Nguyễn Kim Hà  hơi xa nhỉ. chắc đến lúc đó mình sẽ nhờ bạn chuyến tiếp theo vậy. Mình cần trong khoảng đầu tháng 11. hic T.T","message_tags":[{"id":"100001583529210","name":"Nguyễn Kim Hà","type":"user","offset":0,"length":13}],"can_remove":false,"created_time":"2013-10-31T04:25:34+0000","like_count":0,"user_likes":false},"749580668391946":{"id":"749580668391946","from":{"id":"1813611352","name":"To Đùng"},"message":"có bác nào sắp về ko ạ? Ở khu vực khác thì để em nhờ bạn gửi Yamato đến vậy.","can_remove":false,"created_time":"2013-10-31T05:12:51+0000","like_count":0,"user_likes":false},"749608595055820":{"id":"749608595055820","from":{"id":"1813611352","name":"To Đùng"},"message":"có ai sắp về nước ko ạ :D","can_remove":false,"created_time":"2013-10-31T06:54:48+0000","like_count":0,"user_likes":false},"749611325055547":{"id":"749611325055547","from":{"id":"1813611352","name":"To Đùng"},"message":"khu vực khác cũng được nha mọi người.","can_remove":false,"created_time":"2013-10-31T07:03:53+0000","like_count":0,"user_likes":false},"749647355051944":{"id":"749647355051944","from":{"id":"1813611352","name":"To Đùng"},"message":"lên trên cái nhá :D","can_remove":false,"created_time":"2013-10-31T09:15:27+0000","like_count":0,"user_likes":false},"749657668384246":{"id":"749657668384246","from":{"id":"1813611352","name":"To Đùng"},"message":"xin phép cả nhà lên tiếp :v","can_remove":false,"created_time":"2013-10-31T09:48:04+0000","like_count":0,"user_likes":false}},"paging":{"cursors":{"after":"NzQ5NTY0NjI4MzkzNTUw","before":"NzQ5NTY0NjI4MzkzNTUw"},"next":"https://graph.facebook.com/229244010425617_749558558394157/comments?limit=1&summary=1&after=NzQ5NTY0NjI4MzkzNTUw"},"summary":{"order":"chronological","total_count":7}},"likes":{"data":[]}}