{"id":"229244010425617_749587085057971","type":"status","from":{"id":"100002472751268","name":"Sumire Shimizu"},"message":"Chào các bạn.\nM mới vào cộng đồng Việt Nhật. M là người Nhật. M nói tiếng Việt chưa giỏi nhưng muốn nói chuyện với các bạn.","created_time":"2013-10-31T05:30:43+0000","updated_time":"2013-10-31T16:24:07+0000","likes":{"data":{"100001848885057":{"id":"100001848885057","name":"Tiểu Mỡ Nhi"},"100001584153352":{"id":"100001584153352","name":"Snow Kute"},"100000808815001":{"id":"100000808815001","name":"Xuong Tran"},"100002059771738":{"id":"100002059771738","name":"Yen Hai"},"100004138537915":{"id":"100004138537915","name":"Nông Dân Mải Chơi"},"100003822434250":{"id":"100003822434250","name":"Sói Đây Gà Đâu"},"100002470650247":{"id":"100002470650247","name":"LinhLinh Chan"},"100005091962655":{"id":"100005091962655","name":"Bùi Đình Thụ"},"100003955883683":{"id":"100003955883683","name":"Đặng Phương Thanh"},"100000381942173":{"id":"100000381942173","name":"Vì Nghèo Mà Ra"},"100000047107627":{"id":"100000047107627","name":"Tiểu Phương"},"100003874832426":{"id":"100003874832426","name":"Tú Còi"},"100002508122689":{"id":"100002508122689","name":"Vũ Mạnh Tuấn"},"100004833332138":{"id":"100004833332138","name":"Thuat Nguyen"},"100000101180940":{"id":"100000101180940","name":"Trà Chanh"},"100001557279247":{"id":"100001557279247","name":"Ngo Dinh Le Diem"},"100000280776405":{"id":"100000280776405","name":"Viet Nguyen Thanh"},"100004716640495":{"id":"100004716640495","name":"Thúy An Dương"},"100003013864105":{"id":"100003013864105","name":"Thu Trang"},"100004005510336":{"id":"100004005510336","name":"Minh Đức"},"1274385560":{"id":"1274385560","name":"Nguyen Quang Phuong"},"100000237315573":{"id":"100000237315573","name":"Tu Vu Van"},"100005690740678":{"id":"100005690740678","name":"Bui Thanh Tung"},"100001458099624":{"id":"100001458099624","name":"Kham Pha"},"100000027754899":{"id":"100000027754899","name":"Hoang Van Ba"},"100001995263460":{"id":"100001995263460","name":"Chibi Yuriko"},"100002967791944":{"id":"100002967791944","name":"Tôi Yêu VietNam"},"100003743767998":{"id":"100003743767998","name":"Băng Tâm"},"100000383155614":{"id":"100000383155614","name":"Phạm Thúc Hưng"},"100003179905990":{"id":"100003179905990","name":"Trâm Yoko"},"100005478454231":{"id":"100005478454231","name":"Maruko Chan"},"100002871405403":{"id":"100002871405403","name":"Thach Sanh"},"100002826418598":{"id":"100002826418598","name":"Harry Minji"},"1082956399":{"id":"1082956399","name":"Danny Dee Nguyen IE"},"100003142097064":{"id":"100003142097064","name":"Thu Hương Ngô"},"100002949055983":{"id":"100002949055983","name":"Joke Nguyễn"},"100001357646859":{"id":"100001357646859","name":"Rối Ơi Giúp Tôi"},"100000641227862":{"id":"100000641227862","name":"Anh Lê"},"1787202785":{"id":"1787202785","name":"Thang Nguyen"},"100003171672878":{"id":"100003171672878","name":"Tầu Heo"},"100000052661831":{"id":"100000052661831","name":"Shuntoku Pham"},"1822854513":{"id":"1822854513","name":"Sữa Chua Không Đường"},"100003084870026":{"id":"100003084870026","name":"Nguyễn Hiền"},"100000187612259":{"id":"100000187612259","name":"Karasoul IOo"},"100006330543489":{"id":"100006330543489","name":"Mỹ Nhung Nguyễn"},"100000028932078":{"id":"100000028932078","name":"Ngọc Mính"},"1830001967":{"id":"1830001967","name":"Chiến Nguyễn"},"100002904984187":{"id":"100002904984187","name":"Thuy Nguyen"},"100005018671400":{"id":"100005018671400","name":"Ngân Trần"},"100005801442456":{"id":"100005801442456","name":"An Nguyen"},"100003992111176":{"id":"100003992111176","name":"Nam Tào"},"100002451143782":{"id":"100002451143782","name":"New Light"},"1813611352":{"id":"1813611352","name":"To Đùng"},"100002907128122":{"id":"100002907128122","name":"Trang Đỗ"},"100002941809570":{"id":"100002941809570","name":"Hằng Nguyễn"},"1387557597":{"id":"1387557597","name":"Clara Latte"},"100003173058715":{"id":"100003173058715","name":"Đinh Hương Tử"},"100004018390691":{"id":"100004018390691","name":"Pham Thi"},"1250876107":{"id":"1250876107","name":"Kim Hoan"},"100001880901011":{"id":"100001880901011","name":"Số Không"},"100000328742646":{"id":"100000328742646","name":"Trần Giáp"},"100004892648303":{"id":"100004892648303","name":"Cherry Pham"},"100000918009301":{"id":"100000918009301","name":"Phuong Nguyen"},"100001416272263":{"id":"100001416272263","name":"Mai PB"},"100004362480675":{"id":"100004362480675","name":"Đi Tìm Thất Bại"},"100003074092549":{"id":"100003074092549","name":"Hạnh Phạm Phạm"},"100003325600635":{"id":"100003325600635","name":"Nguyen Hong Nhi"},"1392762854":{"id":"1392762854","name":"Đỗ Minh Thu"},"100006222422224":{"id":"100006222422224","name":"Снегпр Инцесса"},"100003137067215":{"id":"100003137067215","name":"Duong Thi Diem Hang"},"100001508739620":{"id":"100001508739620","name":"Lê Ngọc Hoàn"},"100001583529210":{"id":"100001583529210","name":"Nguyễn Kim Hà"},"1340056952":{"id":"1340056952","name":"Nguyễn Nhật Minh"},"100000036456284":{"id":"100000036456284","name":"Ngo Phuong Linh"},"100001298890643":{"id":"100001298890643","name":"Dinh Tung"},"100002939968163":{"id":"100002939968163","name":"Ngo Van Duong"},"1146680551":{"id":"1146680551","name":"優しい なぁ"},"1821970083":{"id":"1821970083","name":"Nguyễn Mạnh Cường"},"100006540967595":{"id":"100006540967595","name":"Cheryl Blossom"},"100004743935020":{"id":"100004743935020","name":"Thanh Huyen"},"100001688644423":{"id":"100001688644423","name":"Hong Do"},"100003183921263":{"id":"100003183921263","name":"Umi Chan"},"100000984312948":{"id":"100000984312948","name":"Philleas Truong Kim"},"100000045271667":{"id":"100000045271667","name":"Nam Thai Nguyen"},"100001256731971":{"id":"100001256731971","name":"Khải Đăng Dũng"},"100000638295545":{"id":"100000638295545","name":"Thu Huyen"},"100000995071588":{"id":"100000995071588","name":"Shota Karakawa"},"100001003687542":{"id":"100001003687542","name":"PhạmNgân Same"},"620134445":{"id":"620134445","name":"Anh Do"},"100004304971399":{"id":"100004304971399","name":"Anh Ga Vu"},"100000073848158":{"id":"100000073848158","name":"Hoàng Đắc"},"1816269439":{"id":"1816269439","name":"Dao Ngoc"},"100004041794244":{"id":"100004041794244","name":"Watanuki Kimihiro"},"100003125522026":{"id":"100003125522026","name":"Giang Nguyen"},"100006767705219":{"id":"100006767705219","name":"Kim Liên"}},"paging":{"cursors":{"after":"MTAwMDAxODQ4ODg1MDU3","before":"MTAwMDAxODQ4ODg1MDU3"},"next":"https://graph.facebook.com/229244010425617_749587085057971/likes?limit=1&summary=1&after=MTAwMDAxODQ4ODg1MDU3"},"summary":{"total_count":98}},"comments":{"data":{"749588468391166":{"id":"749588468391166","from":{"id":"100004446394296","name":"Nguyen Tien"},"message":"はじめまして","can_remove":false,"created_time":"2013-10-31T05:34:38+0000","like_count":1,"user_likes":false},"749588585057821":{"id":"749588585057821","from":{"id":"100002472751268","name":"Sumire Shimizu"},"message":"はじめまして^ ^","can_remove":false,"created_time":"2013-10-31T05:35:14+0000","like_count":0,"user_likes":false},"749589161724430":{"id":"749589161724430","from":{"id":"100004346623532","name":"Chiisai Namida"},"message":"chào bạn, mình là người Việt đang học tiếng Nhật. Mong bạn giúp đỡ:)","can_remove":false,"created_time":"2013-10-31T05:38:27+0000","like_count":1,"user_likes":false},"749589211724425":{"id":"749589211724425","from":{"id":"100004346623532","name":"Chiisai Namida"},"message":"chào bạn, mình là người Việt đang học tiếng Nhật. Mong bạn giúp đỡ:)","can_remove":false,"created_time":"2013-10-31T05:38:50+0000","like_count":0,"user_likes":false},"749589558391057":{"id":"749589558391057","from":{"id":"100002472751268","name":"Sumire Shimizu"},"message":"Cám ơn:))","can_remove":false,"created_time":"2013-10-31T05:40:36+0000","like_count":1,"user_likes":false},"749590298390983":{"id":"749590298390983","from":{"id":"100004405054916","name":"Trần Anh Dũng"},"message":"Oh?","can_remove":false,"created_time":"2013-10-31T05:43:28+0000","like_count":0,"user_likes":false},"749590321724314":{"id":"749590321724314","from":{"id":"100006540967595","name":"Cheryl Blossom"},"message":"mh đang học đh khoa nhật :D hi vọng cũng đc giúp đỡ","can_remove":false,"created_time":"2013-10-31T05:43:34+0000","like_count":1,"user_likes":false},"749590445057635":{"id":"749590445057635","from":{"id":"100003183921263","name":"Umi Chan"},"message":"Hí. Em cũng học đại học Hà Nội đây ạ. Lúc nào chị rảnh hãy cùng em đi ăn gì đi. ^^","can_remove":false,"created_time":"2013-10-31T05:44:07+0000","like_count":1,"user_likes":false},"749590838390929":{"id":"749590838390929","from":{"id":"100006540967595","name":"Cheryl Blossom"},"message":"mh học NT :D có j bạn giúp mh na","can_remove":false,"created_time":"2013-10-31T05:45:56+0000","like_count":2,"user_likes":false},"749592288390784":{"id":"749592288390784","from":{"id":"100000036456284","name":"Ngo Phuong Linh"},"message":"Bạn nói tiếng Việt giỏi thế này còn gì! Có nhiều người Việt học tiếng Nhật nhưng có ít người Nhật nói tiếng Việt giỏi như bạn lắm","can_remove":false,"created_time":"2013-10-31T05:52:27+0000","like_count":2,"user_likes":false},"749592325057447":{"id":"749592325057447","from":{"id":"100004446394296","name":"Nguyen Tien"},"message":"し水 どこにすんでいます","can_remove":false,"created_time":"2013-10-31T05:52:43+0000","like_count":0,"user_likes":false},"749592591724087":{"id":"749592591724087","from":{"id":"1340056952","name":"Nguyễn Nhật Minh"},"message":"はじめまして！私の彼女は日本人です。\nよろしくお願いいたします。","can_remove":false,"created_time":"2013-10-31T05:54:20+0000","like_count":0,"user_likes":false},"749592815057398":{"id":"749592815057398","from":{"id":"100004446394296","name":"Nguyen Tien"},"message":"そうか","can_remove":false,"created_time":"2013-10-31T05:55:08+0000","like_count":1,"user_likes":false},"749593675057312":{"id":"749593675057312","from":{"id":"100000036456284","name":"Ngo Phuong Linh"},"message":"日本語ができるベトナム人 はだんだん多くなった、 でも ベトナム語ができる日本人は少ない。 あなたはべトナム 語が上手ですが、 楽しかった ：）","can_remove":false,"created_time":"2013-10-31T05:58:29+0000","like_count":1,"user_likes":false},"749594295057250":{"id":"749594295057250","from":{"id":"100001778972847","name":"Trần Tiến Thành"},"message":"はじめまして :)","can_remove":false,"created_time":"2013-10-31T06:00:59+0000","like_count":0,"user_likes":false},"749594765057203":{"id":"749594765057203","from":{"id":"100004446394296","name":"Nguyen Tien"},"message":"Phuong linh sang day hoc lau chua","can_remove":false,"created_time":"2013-10-31T06:02:46+0000","like_count":0,"user_likes":false},"749595478390465":{"id":"749595478390465","from":{"id":"100004446394296","name":"Nguyen Tien"},"message":"Minh dang hoc truong tieng ma khi di ra duong giao tiep van ko the nge ng ta noi ko hieu duoc。分からない","can_remove":false,"created_time":"2013-10-31T06:05:31+0000","like_count":1,"user_likes":false},"749595708390442":{"id":"749595708390442","from":{"id":"100003074092549","name":"Hạnh Phạm Phạm"},"message":"Mình là người Việt và mong muốn được học hỏi và giao tiếp với người Nhật ! :) arigato !","can_remove":false,"created_time":"2013-10-31T06:06:39+0000","like_count":0,"user_likes":false},"749595795057100":{"id":"749595795057100","from":{"id":"100000036456284","name":"Ngo Phuong Linh"},"message":"Sang tháng 4, bảo ng ta nói chậm thôi thì sẽ hiểu mà:D","can_remove":false,"created_time":"2013-10-31T06:07:02+0000","like_count":0,"user_likes":false},"749600031723343":{"id":"749600031723343","from":{"id":"100003079912929","name":"Chen Miku"},"message":"yeah u wellcome :D","can_remove":false,"created_time":"2013-10-31T06:18:32+0000","like_count":0,"user_likes":false},"749606658389347":{"id":"749606658389347","from":{"id":"100004094346107","name":"Thuy Nga Nguyen"},"message":"CHÀO BẠN RẤT VUI ĐƯỢC LÀM QUEN!","can_remove":false,"created_time":"2013-10-31T06:45:24+0000","like_count":0,"user_likes":false},"749608501722496":{"id":"749608501722496","from":{"id":"1813611352","name":"To Đùng"},"message":"Mình thì không biết tiếng Nhật. Xài Google Translate thôi :))","can_remove":false,"created_time":"2013-10-31T06:54:24+0000","like_count":0,"user_likes":false},"749608935055786":{"id":"749608935055786","from":{"id":"100002451143782","name":"New Light"},"message":"Hajimemashite :)))","can_remove":false,"created_time":"2013-10-31T06:56:41+0000","like_count":0,"user_likes":false},"749615591721787":{"id":"749615591721787","from":{"id":"100005801442456","name":"An Nguyen"},"message":"Diễn đàn nhiều bạn Nhật biết tiếng Việt thật! Rất bất ngờ và thú vị! Rất vui vì sự tham gia diễn đàn của các bạn!","can_remove":false,"created_time":"2013-10-31T07:15:25+0000","like_count":0,"user_likes":false},"749616368388376":{"id":"749616368388376","from":{"id":"100002904984187","name":"Thuy Nguyen"},"message":"bạn biết anh yuta suzuki àh \n:)","can_remove":false,"created_time":"2013-10-31T07:19:31+0000","like_count":0,"user_likes":false},"749628045053875":{"id":"749628045053875","from":{"id":"100000368213854","name":"Người Lạ Từng Yêu"},"message":"はじめまして","can_remove":false,"created_time":"2013-10-31T08:01:36+0000","like_count":0,"user_likes":false},"749635758386437":{"id":"749635758386437","from":{"id":"100000068660150","name":"Hito Kami"},"message":"Hajimemashite , watashi wa betonamu-jin , ima , nihon go wo benkyou shiteimasu.","can_remove":false,"created_time":"2013-10-31T08:30:13+0000","like_count":1,"user_likes":false},"749646985051981":{"id":"749646985051981","from":{"id":"100002826418598","name":"Harry Minji"},"message":"watashi mo nihongo wo benkyou shiteimasu","can_remove":false,"created_time":"2013-10-31T09:14:15+0000","like_count":0,"user_likes":false},"749658825050797":{"id":"749658825050797","from":{"id":"100003179905990","name":"Trâm Yoko"},"message":"Hajimemashite.","can_remove":false,"created_time":"2013-10-31T09:51:54+0000","like_count":0,"user_likes":false},"749669845049695":{"id":"749669845049695","from":{"id":"100002967791944","name":"Tôi Yêu VietNam"},"message":"xin chào bạn. chúng ta có thể trở thành bạn bè. mình cũng học tiếng nhật nên có thể trao đổi và học hỏi","can_remove":false,"created_time":"2013-10-31T10:23:50+0000","like_count":0,"user_likes":false},"749720325044647":{"id":"749720325044647","from":{"id":"100000198219367","name":"Chang Jiang"},"message":"tiếng Việt của Sumire Shimizu càng ngày càng giỏi ;))","message_tags":[{"id":"100002472751268","name":"Sumire Shimizu","type":"user","offset":15,"length":14}],"can_remove":false,"created_time":"2013-10-31T12:36:20+0000","like_count":0,"user_likes":false},"749740311709315":{"id":"749740311709315","from":{"id":"100002508122689","name":"Vũ Mạnh Tuấn"},"message":"Sumire Shimizu còn nhớ em không . Hôm qua chúng ta vừa gặp nhau đó :D","message_tags":[{"id":"100002472751268","name":"Sumire Shimizu","type":"user","offset":0,"length":14}],"can_remove":false,"created_time":"2013-10-31T13:26:14+0000","like_count":0,"user_likes":false},"749827828367230":{"id":"749827828367230","from":{"id":"100004886341959","name":"奉仕"},"message":"Sumire Shimizu  rất vui khi được làm quen với bạn. rất ấn tượng về trình độ tiếng việt của bạn","message_tags":[{"id":"100002472751268","name":"Sumire Shimizu","type":"user","offset":0,"length":14}],"can_remove":false,"created_time":"2013-10-31T16:24:07+0000","like_count":0,"user_likes":false}},"paging":{"cursors":{"after":"NzQ5NTg4NDY4MzkxMTY2","before":"NzQ5NTg4NDY4MzkxMTY2"},"next":"https://graph.facebook.com/229244010425617_749587085057971/comments?limit=1&summary=1&after=NzQ5NTg4NDY4MzkxMTY2"},"summary":{"order":"chronological","total_count":34}}}