{"id":"229244010425617_750130358336977","type":"photo","object_id":"174212076115506","picture":"https://fbcdn-photos-g-a.akamaihd.net/hphotos-ak-frc3/t1.0-0/397481_174212076115506_1535822035_s.jpg","link":"https://www.facebook.com/photo.php?fbid=174212076115506&set=gm.750130358336977&type=1&relevant_count=1","from":{"id":"100005801442456","name":"An Nguyen"},"message":"Bạn nào trả lời dùm bạn ấy? Có lẽ nhiều bạn cùng thắc mắc nhỉ? Bởi vậy hãy để lại câu hỏi ở diễn đàn thì tốt hơn là cho mình! Vì mình có thể không biết và câu hỏi của bạn cũng có lẽ là câu hỏi nhiều bạn khác đấy!!!","created_time":"2013-11-01T02:40:27+0000","updated_time":"2013-11-02T02:51:51+0000","likes":{"data":{"100005887419564":{"id":"100005887419564","name":"Cười Một Mình"},"100005801442456":{"id":"100005801442456","name":"An Nguyen"},"100005495773832":{"id":"100005495773832","name":"Hiền Vũ"},"100006767705219":{"id":"100006767705219","name":"Kim Liên"}},"paging":{"cursors":{"after":"MTAwMDA1ODg3NDE5NTY0","before":"MTAwMDA1ODg3NDE5NTY0"},"next":"https://graph.facebook.com/229244010425617_750130358336977/likes?limit=1&summary=1&after=MTAwMDA1ODg3NDE5NTY0"},"summary":{"total_count":5}},"comments":{"data":{"750131655003514":{"id":"750131655003514","from":{"id":"100005801442456","name":"An Nguyen"},"message":"A nghĩ e nên dùng cái này tra ngữ pháp tuy N2 nhưng N3 cũng có lhb","can_remove":false,"created_time":"2013-11-01T02:43:06+0000","like_count":0,"user_likes":false},"750139478336065":{"id":"750139478336065","from":{"id":"100000273786070","name":"Dũng Yamato Dũng Yamato"},"message":"Vào trang cannguyen.com","can_remove":false,"created_time":"2013-11-01T03:02:32+0000","like_count":0,"user_likes":false},"750139721669374":{"id":"750139721669374","from":{"id":"100000273786070","name":"Dũng Yamato Dũng Yamato"},"message":"","can_remove":false,"created_time":"2013-11-01T03:03:39+0000","like_count":0,"user_likes":false},"750139811669365":{"id":"750139811669365","from":{"id":"100000273786070","name":"Dũng Yamato Dũng Yamato"},"message":"","can_remove":false,"created_time":"2013-11-01T03:04:01+0000","like_count":0,"user_likes":false},"750161775000502":{"id":"750161775000502","from":{"id":"100001809376963","name":"Nguyễn Thư"},"message":"","can_remove":false,"created_time":"2013-11-01T04:00:05+0000","like_count":0,"user_likes":false},"750163275000352":{"id":"750163275000352","from":{"id":"100001415407078","name":"Kha Pham"},"message":"Iphone だけ。","can_remove":false,"created_time":"2013-11-01T04:06:17+0000","like_count":0,"user_likes":false},"750164218333591":{"id":"750164218333591","from":{"id":"100000184434912","name":"Trần Tráng"},"message":"nguyễn thư cái đó vào chổ nào vậy","can_remove":false,"created_time":"2013-11-01T04:08:37+0000","like_count":0,"user_likes":false},"750165605000119":{"id":"750165605000119","from":{"id":"100000273786070","name":"Dũng Yamato Dũng Yamato"},"message":"Tải phần mềm 日本語大好き trên app store:)","can_remove":false,"created_time":"2013-11-01T04:12:59+0000","like_count":0,"user_likes":false},"750166338333379":{"id":"750166338333379","from":{"id":"100000273786070","name":"Dũng Yamato Dũng Yamato"},"message":"","can_remove":false,"created_time":"2013-11-01T04:14:18+0000","like_count":0,"user_likes":false},"750166718333341":{"id":"750166718333341","from":{"id":"100000006686516","name":"Hạnh Anh"},"message":"Dũng Yamato Dũng Yamato ib e cái ngữ pháp n2","message_tags":[{"id":"100000273786070","name":"Dũng Yamato Dũng Yamato","type":"user","offset":0,"length":23}],"can_remove":false,"created_time":"2013-11-01T04:15:27+0000","like_count":0,"user_likes":false},"750167044999975":{"id":"750167044999975","from":{"id":"100000273786070","name":"Dũng Yamato Dũng Yamato"},"message":"Hi   Cái đo mua mất 1,7$ thì phải","can_remove":false,"created_time":"2013-11-01T04:16:57+0000","like_count":0,"user_likes":false},"750167501666596":{"id":"750167501666596","from":{"id":"100000006686516","name":"Hạnh Anh"},"message":"Dũng Yamato Dũng Yamato hiu hiu mua trên aple hả","message_tags":[{"id":"100000273786070","name":"Dũng Yamato Dũng Yamato","type":"user","offset":0,"length":23}],"can_remove":false,"created_time":"2013-11-01T04:18:12+0000","like_count":0,"user_likes":false},"750167748333238":{"id":"750167748333238","from":{"id":"100000273786070","name":"Dũng Yamato Dũng Yamato"},"message":"Uhn chuẩn luôn em vào link này http://cannguyen.foramu.net/f16-forum cũng có nhưng ko đầy đủ lắm","can_remove":false,"created_time":"2013-11-01T04:19:26+0000","like_count":4,"user_likes":false},"750168791666467":{"id":"750168791666467","from":{"id":"100005801442456","name":"An Nguyen"},"message":"Thấy chưa đã bảo!!! Kiến thức ai cũng có! Chỉ có điều họ biêtd điều đó người khác cần không thôi, và có lẽ đôi khi ngại nói lên. Tốt lăm' mấy bạn!!!","can_remove":false,"created_time":"2013-11-01T04:23:00+0000","like_count":5,"user_likes":false},"750202298329783":{"id":"750202298329783","from":{"id":"100000064686295","name":"Huy Roli"},"message":"mua bánh mì giúp trí nhớ đi","can_remove":false,"created_time":"2013-11-01T06:28:45+0000","like_count":0,"user_likes":false},"750458111637535":{"id":"750458111637535","from":{"id":"100004088753245","name":"Leu Huu Hien"},"message":"Dũng Yamato Dũng Yamato ban co n4-n3 ko?link kja cua n2 ma :)","message_tags":[{"id":"100000273786070","name":"Dũng Yamato Dũng Yamato","type":"user","offset":0,"length":23}],"can_remove":false,"created_time":"2013-11-01T17:34:20+0000","like_count":0,"user_likes":false},"750641711619175":{"id":"750641711619175","from":{"id":"100000273786070","name":"Dũng Yamato Dũng Yamato"},"message":"Cái link tớ gửi có cả n3-n4 đấy","can_remove":false,"created_time":"2013-11-02T01:06:18+0000","like_count":0,"user_likes":false},"750658228284190":{"id":"750658228284190","from":{"id":"100001156666759","name":"Kenshuu Steam"},"message":"phần mềm thì không có, chỉ có phần mềm phát âm chuẩn của tiếng Nhật thôi. còn học hiệu quả hay không là do bản thân chứ không phải do phần mềm bạn ah. thời mình học mình còn không có cả máy tính, kim từ điểm mà mình vẫn học tốt đó thôi bạn. chúc bạn thành công nhé","can_remove":false,"created_time":"2013-11-02T01:57:30+0000","like_count":2,"user_likes":false},"750666328283380":{"id":"750666328283380","from":{"id":"100001156666759","name":"Kenshuu Steam"},"message":"bạn nên tải cái ngữ pháp kazenmaster bunpou 2kyu ve hoc, no cung co day du day. con neu không tải được thì quăng email nên đây tui gửi choi","can_remove":false,"created_time":"2013-11-02T02:23:16+0000","like_count":0,"user_likes":false},"750673688282644":{"id":"750673688282644","from":{"id":"100004088753245","name":"Leu Huu Hien"},"message":"Kenshuu Steam neu dc ban guj cho mjh ngu phap n4-n3 vs naz.trjh do mjh moj chi o n4 thoj. leuhuuhien@gmail.com.cam on ban trc","message_tags":[{"id":"100001156666759","name":"Kenshuu Steam","type":"user","offset":0,"length":13}],"can_remove":false,"created_time":"2013-11-02T02:43:32+0000","like_count":0,"user_likes":false},"750675921615754":{"id":"750675921615754","from":{"id":"100001156666759","name":"Kenshuu Steam"},"message":"Oh, xin lỗi Leu Huu Hien mình lại chỉ có 2kyu va 1 kyuu thôi.","message_tags":[{"id":"100004088753245","name":"Leu Huu Hien","type":"user","offset":12,"length":12}],"can_remove":false,"created_time":"2013-11-02T02:47:39+0000","like_count":0,"user_likes":false},"750676758282337":{"id":"750676758282337","from":{"id":"100004088753245","name":"Leu Huu Hien"},"message":"vay ah.ko sao b ah.neu b bjet hay co taj ljeu day thj share cho mjh vs naz","can_remove":false,"created_time":"2013-11-02T02:49:44+0000","like_count":0,"user_likes":false},"750677324948947":{"id":"750677324948947","from":{"id":"100001156666759","name":"Kenshuu Steam"},"message":"bạn chịu khó tìm trên mạng kanzen master 3kyuu ay, the nao cung có","can_remove":false,"created_time":"2013-11-02T02:51:51+0000","like_count":1,"user_likes":false}},"paging":{"cursors":{"after":"NzUwMTMxNjU1MDAzNTE0","before":"NzUwMTMxNjU1MDAzNTE0"},"next":"https://graph.facebook.com/229244010425617_750130358336977/comments?limit=1&summary=1&after=NzUwMTMxNjU1MDAzNTE0"},"summary":{"order":"chronological","total_count":24}}}