{"id":"229244010425617_750188631664483","type":"status","from":{"id":"100006536707989","name":"Afj Travel"},"message":"Knoc..knoc..knoc\n\nTháng 11 gõ cửa rồi đó ..\nMùa đẹp nhất trong năm với trời xanh mây trắng và gió lành lạnh..\nSắp lịch với Ad đi ngắm Mimoji và chụp thật nhiều ảnh mùa thu nước Nhật nhé\n\nNgắm Mimoji ở đâu\n\n1. Cố đô Kyoto \nĐến Nhật Bản chưa đến Kyoto vào mùa thu thì coi như chưa đến Nhật. Những hàng cây phong sắc đỏ vàng tại đền Tofukuji, kiyomizudera hay chùa vàng Kinkakuji đẹp đến mơ màng..\n\n2. Tohoku\nNhững dãy núi thuộc vùng núi Hachimantai phủ một sắc vàng đỏ đẹp ngỡ ngàng..\nBạn có thể dạo chơi ở hồ Towadako và khu suối Oirase nơi Mimoji đỏ vàng nghiêng soi bóng..\n\n３．Tokyo\nỞ thủ đô Tokyo, điểm đến tuyệt nhất để ngắm lá thu là vườn Rikugien. \nKhu vườncó thêm nhiều thiết bị chiếu sáng khiến khung cảnh ban đêm đẹp rạng ngời\n\n-Bên cạnh Rikugien, Koishikawa Korakuen cũng là vườn cảnh đẹp và không gian tĩnh lặng hơn cho những ai muốn vừa ngắm sắc vàng, đỏ của cây lá vừa suy ngẫm về nhân tình thế thái khi thu về. \n\n-Đặc biệt, tới Tokyo mùa thu, bạn không thể bỏ qua hàng cây bạch quả ở đại lộ Icho Namiki, thuộc công viên Meij-jingu Gaien.\n\n4. Và Nơi đẹp nhất chính trên chính con đường bạn đang đi\nCuộc sống ở Nhật thật là bận rộn với học tập và công việc phải không? \nHãy thử trải lòng mình ra, hít đầy một mùa thu căng tràn lồng ngực trên con đường quen bạn đi mỗi ngày..Thật sảng khoái và nhẹ nhàng phải không?\nMùa thu với một nỗi nhớ phương xa..\nVà mùa thu với con đường dài tương lai phía trước.\nRáng lên nào..\n\n-Ad Afj Sky Fly- \nVé Máy Bay Dành CHo Du Học Sinh và Tu Nghiệp Sinh \n\nhttp://www.afjapan.net/afj-tiengviet/News/121/MUA_THU_LA_DO","created_time":"2013-11-01T05:33:57+0000","updated_time":"2013-11-01T07:47:19+0000","likes":{"data":{"100002131699773":{"id":"100002131699773","name":"Minh Chau"},"1177637289":{"id":"1177637289","name":"Tanh Tanhtanh"},"100002833803367":{"id":"100002833803367","name":"Hoang Anh Luong"},"100001580479641":{"id":"100001580479641","name":"Hà Xuân Thủy"},"100003310618708":{"id":"100003310618708","name":"BiNô Triết Gia"},"100006865964549":{"id":"100006865964549","name":"Vâng Em Đểu"},"100002966658166":{"id":"100002966658166","name":"Giọt Nắng"},"100001912633316":{"id":"100001912633316","name":"Du Ca"}},"paging":{"cursors":{"after":"MTAwMDAyMTMxNjk5Nzcz","before":"MTAwMDAyMTMxNjk5Nzcz"},"next":"https://graph.facebook.com/229244010425617_750188631664483/likes?limit=1&summary=1&after=MTAwMDAyMTMxNjk5Nzcz"},"summary":{"total_count":8}},"comments":{"data":{"750207961662550":{"id":"750207961662550","from":{"id":"100001416272263","name":"Mai PB"},"message":"ad khác add bạn nhé.","can_remove":false,"created_time":"2013-11-01T06:55:53+0000","like_count":0,"user_likes":false},"750222368327776":{"id":"750222368327776","from":{"id":"100006536707989","name":"Afj Travel"},"message":"cam on Ad Mai PB nhe.","message_tags":[{"id":"100001416272263","name":"Mai PB","type":"user","offset":10,"length":6}],"can_remove":false,"created_time":"2013-11-01T07:47:19+0000","like_count":0,"user_likes":false}},"paging":{"cursors":{"after":"NzUwMjA3OTYxNjYyNTUw","before":"NzUwMjA3OTYxNjYyNTUw"},"next":"https://graph.facebook.com/229244010425617_750188631664483/comments?limit=1&summary=1&after=NzUwMjA3OTYxNjYyNTUw"},"summary":{"order":"chronological","total_count":2}}}