{"id":"229244010425617_750383361645010","type":"status","from":{"id":"100000047107627","name":"Tiểu Phương"},"message":"|[HÀ NỘI]|\n{Tuyển sinh lớp học TIẾNG NHẬT do NGƯỜI NHẬT}\nxin chào các bạn. Hnay tớ muốn share vs mng 1 thông tin về lớp học tiếng Nhật thú vị như sau ạ. \n*** Lớp TC. : giao tiếp trung cấp dành cho học viên có trình độ trên 50 bài minna\nSố lượng cần tuyển : 3 bạn\nSố hv của lớp học : tối đa 10 người\nMục đích của lớp học : Trong vòng 1 tháng đầu ôn lại các bài hội thoại của minna quyển 2 để hsinh luyện phát âm chuẩn và nói nghe một cách tự nhiên nhất. \nGiai đoạn 2 : học các giao tiếp tình huống cụ thể.\nThời gian học dự kiến : 2 ngày cuối tuần. Sáng or chiều. \nKhai giảng : thứ 7 ngày 2/11/2013\n(buổi khai giảng làm quen với cô giáo và trao đổi pp học- vẫn tính phí)\nHọc phí : 2-4$/90'/1ng tuỳ số lượng hv.\nĐịa điểm : Chùa láng - HN\nGiảng viên : cô Tamagawa - giảng viên kinh nghiệm đã từng giảng dạy tại hần quốc,hn,tp hcm...Cô rất nhiệt tình và yêu việt nam nên mng tên tâm nhé :)\nVì đây là lớp do bọn tớ mở mời ng nhật về dạy không phải trung tâm nên học phí sẽ rất rẻ và sẽ đóng theo tháng để phù hợp với các bạn sinh viên yêu thích tiếng nhật muốn nâng cao khả năng giao tiếp nên mọi ng hãy yên tâm nhé. \n*** Lớp SC : 100% giáo viên nhật\nĐối tượng : những bạn chưa biết gì về tiếng Nhật, muốn học tiếng nhật với người Nhật ngay từ gốc. \nMục đích của lớp học : rất nhiều bạn hỏi mình học ngay vs ng nhật như thế có hiểu k?! Câu trả lời rất đơn giản thôi, đương nhiên là các bạn không hiểu ngay đc rồi. Trong vòng 10 buổi đầu chúng tớ sẽ có trợ giảng người việt hỗ trợ các bạn trog quá trình học. Các bạn trợ giảng chỉ giúp đỡ chứ không tham gia giảng dạy. Học vs ng nước ngoài ngay từ những cái thấp nhất sẽ rèn luyện cho các bạn khả năng nghe hiểu và đoán ý :). Những điều mà học viên học nhiều năm chưa chắc đã có cơ hội Được cọ xát. \nThời gian : hiện tại lớp đang chiêu sinh. Mong các bạn học viên quan tâm hãy gửi cho mình thông tin liên lạc bao gồm tên- sdt- thời gian rảnh để mình tiện liên lạc nhé :)\nHọc phí dự kiến : 2-5$/90'/1 ng( đóng 2 tháng 1. \nĐịa điểm : Chùa láng-HN\nGiảng viên : cô Uchino và thầy Ishizuka những giảng viên lâu năm tại việt nam.\nĐặc điểm của 2 lớp học này của chúng tớ đó là Giảng viên là GIÁO VIÊN NHẬT 100% chứ không phải \"Tây ba lô\" nên mọi ng hãy yên tâm nhé :)\nMọi thông tin chi tiết mời các bạn liên hệ : \nPhương - sdt : 01628153710( chỉ nhận cuộc gọi không nhận sms, mong mọi ng thông cảm )\nFb : Tiểu Phương (inbox)\nCảm ơn mọi người đã quan tâm đến thôg tin của mình. \nVui lòng share nếu bạn thấy nó có ích với người khác. Xin chân thành cảm ơn các bạn. \nChúc mọi người một ngày vui vẻ :)","created_time":"2013-11-01T14:55:54+0000","updated_time":"2013-11-03T03:46:17+0000","comments":{"data":{"750389304977749":{"id":"750389304977749","from":{"id":"100004779512042","name":"Oanh Oanh"},"message":"Bạn ơi, lớp TC còn slot nào k vậy? thời gian học như thế nào thế?","can_remove":false,"created_time":"2013-11-01T15:08:27+0000","like_count":0,"user_likes":false},"750402488309764":{"id":"750402488309764","from":{"id":"100005646697689","name":"Công Đi Tông"},"message":"Mình cũng hóng tin như thế nầy","can_remove":false,"created_time":"2013-11-01T15:36:31+0000","like_count":0,"user_likes":false},"750408561642490":{"id":"750408561642490","from":{"id":"100000047107627","name":"Tiểu Phương"},"message":"Lớp tc vẫn còn slot ấy nhé. Cho mình xin thông tin của ấy vào inbox vs nhé","can_remove":false,"created_time":"2013-11-01T15:50:54+0000","like_count":0,"user_likes":false},"750408858309127":{"id":"750408858309127","from":{"id":"100000047107627","name":"Tiểu Phương"},"message":"Hiẹn tại vì lớp gt tc đông quá nên 1 tuần nữa bọn t mở thêm lớp 2 nhé :)","can_remove":false,"created_time":"2013-11-01T15:51:27+0000","like_count":0,"user_likes":false},"750409718309041":{"id":"750409718309041","from":{"id":"100004779512042","name":"Oanh Oanh"},"message":"Tiểu Phương, tớ rủ thêm được mấy đứa bạn tớ rồi nhé :)","message_tags":[{"id":"100000047107627","name":"Tiểu Phương","type":"user","offset":0,"length":11}],"can_remove":false,"created_time":"2013-11-01T15:52:43+0000","like_count":0,"user_likes":false},"750411238308889":{"id":"750411238308889","from":{"id":"100005646697689","name":"Công Đi Tông"},"message":"Mình cũng thích học lớp trung cấp","can_remove":false,"created_time":"2013-11-01T15:56:13+0000","like_count":0,"user_likes":false},"751305384886141":{"id":"751305384886141","from":{"id":"506296543","name":"Trinh Hoai Anh"},"message":"Trinh Mai ơi","message_tags":[{"id":"1495936298","name":"Trinh Mai","type":"user","offset":0,"length":9}],"can_remove":false,"created_time":"2013-11-03T03:46:17+0000","like_count":0,"user_likes":false}},"paging":{"cursors":{"after":"NzUwMzg5MzA0OTc3NzQ5","before":"NzUwMzg5MzA0OTc3NzQ5"},"next":"https://graph.facebook.com/229244010425617_750383361645010/comments?limit=1&summary=1&after=NzUwMzg5MzA0OTc3NzQ5"},"summary":{"order":"chronological","total_count":7}},"likes":{"data":[]}}