{"id":"229244010425617_750385071644839","type":"status","from":{"id":"100001416272263","name":"Mai PB"},"message":"Chào mừng các bạn admin mới!!!!\n\nNhất Kiếm Vô Tình, Tân Trần, Anh Nguyen, Tran Thi Tuong Van, Rai Chamu, Chiếc Lá Cuối Cùng, Yuki Nguyen, Hà Nguyễn, Eo Pi, Dzung Nguyen Van, Thuy Nga Nguyen, Nguyễn Kim Hà, To Đùng, Kanda Kyota, Giang Mạnh, Kenshuu Steam, Mai Anh, Nghèo kệ tôi, Mạnh Mómmém, Nguyễn Văn Minh, Onii Chan Otaku, Ngoc Hien QB\n\nBọn mình rất vui vì có được nhiều bạn mới cùng giúp đóng góp vào group. Admin thực ra chính là thành viên tích cực, vừa vui vẻ trong group vừa có chút trách nhiệm, nhưng trách nhiệm cũng chính là từ sở thích của bản thân tức là mối quan tâm đến Nhật Bản trong tinh thần Việt Nhật. Cụ thể một số công việc mà mọi người có thể đảm nhận giúp trong group như sau:\n- Quản lý chung: chấp nhận request tham gia group của thành viên, xóa các post spam (như thế nào là spam thì có 1 status khác rồi), xóa bỏ member spammer, cảnh cáo các hành vi xấu như nói tục chửi bậy...\n- Tham gia tích cực vào hoạt động của group: like, comment, share bài, viết bài.\n- Hoạt động cần nhiều công sức nhất là viết bài là hoạt động đóng góp nhiều nhất cho cộng đồng, thì mọi người đều nên tham gia, tuy rằng không bắt buộc. Nhưng ai có khả năng viết lách, biết tiếng Nhật tiếng Anh thì mình khuyến khích. Bởi vì viết bài thì không những giúp mọi người mà còn là khẳng định bản thân, trưởng thành thêm, nhận thức thêm. Về việc viết bài thì mình hoặc admin nào khác sẽ viết các status khác cho cả admin mới và cũ. Nhưng một điều có thể nói chung là mọi người được tự do viết cái gì mình thích, nghĩ là người khác thích, có ích cho nhiều người.\n\nWelcome!!!!","created_time":"2013-11-01T14:59:47+0000","updated_time":"2013-11-02T02:50:51+0000","likes":{"data":{"100000747635624":{"id":"100000747635624","name":"Nguyễn Xuân Đại"},"100003743767998":{"id":"100003743767998","name":"Băng Tâm"},"100004360751785":{"id":"100004360751785","name":"Hà Nguyễn"},"100000240694048":{"id":"100000240694048","name":"Hau Vu"},"100003888576324":{"id":"100003888576324","name":"Nguyen Quan"},"100002421205294":{"id":"100002421205294","name":"Nghèo Kệ Tôi"},"100004095043055":{"id":"100004095043055","name":"Rober Robert"},"100004094346107":{"id":"100004094346107","name":"Thuy Nga Nguyen"},"100005903373573":{"id":"100005903373573","name":"HaLinh Phong Phan"},"100001594722256":{"id":"100001594722256","name":"Viết An Phạm"},"100000271705877":{"id":"100000271705877","name":"Nguyễn Văn Minh"},"100003105034037":{"id":"100003105034037","name":"Pham Oanh"},"100004716640495":{"id":"100004716640495","name":"Thúy An Dương"},"100004398330290":{"id":"100004398330290","name":"Lam Linh"},"100005801442456":{"id":"100005801442456","name":"An Nguyen"},"100003171672878":{"id":"100003171672878","name":"Tầu Heo"},"100001754136107":{"id":"100001754136107","name":"Nguyễn Tuấn Vũ"},"100002898154513":{"id":"100002898154513","name":"Gã Shrek"},"100004998936727":{"id":"100004998936727","name":"Kanda Kyota"},"100003310618708":{"id":"100003310618708","name":"BiNô Triết Gia"},"100002508122689":{"id":"100002508122689","name":"Vũ Mạnh Tuấn"},"100001622486348":{"id":"100001622486348","name":"Tuan Lam"},"100000603915176":{"id":"100000603915176","name":"悪いな ぁ"},"1535104031":{"id":"1535104031","name":"Hoang Nguyen"},"100000166915328":{"id":"100000166915328","name":"Tân Trần"},"100000062884729":{"id":"100000062884729","name":"Huệ Ca"},"100003005597243":{"id":"100003005597243","name":"Zany Royal"},"100000028932078":{"id":"100000028932078","name":"Ngọc Mính"},"100001438932250":{"id":"100001438932250","name":"Luong Anh Nguyet"},"1813611352":{"id":"1813611352","name":"To Đùng"},"100002157379029":{"id":"100002157379029","name":"Nguyen Hai Dung"},"100005478454231":{"id":"100005478454231","name":"Maruko Chan"},"100001583529210":{"id":"100001583529210","name":"Nguyễn Kim Hà"},"100006767705219":{"id":"100006767705219","name":"Kim Liên"},"1148962646":{"id":"1148962646","name":"Tran Thi Tuong Van"},"100001723862714":{"id":"100001723862714","name":"Bo Bien Vang"},"100000381394367":{"id":"100000381394367","name":"Thành Nguyễn"},"100006984725456":{"id":"100006984725456","name":"Mai Anh"}},"paging":{"cursors":{"after":"MTAwMDAwNzQ3NjM1NjI0","before":"MTAwMDAwNzQ3NjM1NjI0"},"next":"https://graph.facebook.com/229244010425617_750385071644839/likes?limit=1&summary=1&after=MTAwMDAwNzQ3NjM1NjI0"},"summary":{"total_count":39}},"comments":{"data":{"750387821644564":{"id":"750387821644564","from":{"id":"100001416272263","name":"Mai PB"},"message":"Còn bạn nào đăng ký rồi mà chưa thấy được phong admin, nhắn tin cho mình","can_remove":false,"created_time":"2013-11-01T15:06:19+0000","like_count":0,"user_likes":false},"750393314977348":{"id":"750393314977348","from":{"id":"100000381394367","name":"Thành Nguyễn"},"message":"Ý là anh Mai PB đòi đi cửa sau đây, vòi vĩnh lộ liễu quá :D Bạn nào nhắn tin nhớ gửi cho anh ấy cái hình phong bì trước.","message_tags":[{"id":"100001416272263","name":"Mai PB","type":"user","offset":9,"length":6}],"can_remove":false,"created_time":"2013-11-01T15:15:38+0000","like_count":2,"user_likes":false},"750395061643840":{"id":"750395061643840","from":{"id":"100001416272263","name":"Mai PB"},"message":"Sợ mọi người nhắn lên đây ngại thì nói thế thôi :-)","can_remove":false,"created_time":"2013-11-01T15:20:56+0000","like_count":0,"user_likes":false},"750403008309712":{"id":"750403008309712","from":{"id":"100006984725456","name":"Mai Anh"},"message":"\" Nhiều Mai Anh quá \" ==> Liệu em có bị nhầm với ai khác ko anh  Mai PB ?","message_tags":[{"id":"100001416272263","name":"Mai PB","type":"user","offset":65,"length":6}],"can_remove":false,"created_time":"2013-11-01T15:37:51+0000","like_count":0,"user_likes":false},"750405744976105":{"id":"750405744976105","from":{"id":"100001416272263","name":"Mai PB"},"message":"nếu em có đăng ký thì không nhầm","can_remove":false,"created_time":"2013-11-01T15:44:10+0000","like_count":1,"user_likes":false},"750406101642736":{"id":"750406101642736","from":{"id":"100001622486348","name":"Tuan Lam"},"message":"sao nhiu admin vay a trai","can_remove":false,"created_time":"2013-11-01T15:44:54+0000","like_count":0,"user_likes":false},"750406641642682":{"id":"750406641642682","from":{"id":"100001416272263","name":"Mai PB"},"message":"Group tha hồ mà thú vị chứ sao, đỡ nhìn mặt anh suốt :-)","can_remove":false,"created_time":"2013-11-01T15:46:17+0000","like_count":1,"user_likes":false},"750407588309254":{"id":"750407588309254","from":{"id":"100000381394367","name":"Thành Nguyễn"},"message":"Công việc admin thực chất là công việc của tình nguyện viên mà thôi, nếu càng có nhiều người tình nguyện thì càng tốt chứ sao.","can_remove":false,"created_time":"2013-11-01T15:48:31+0000","like_count":0,"user_likes":false},"750408891642457":{"id":"750408891642457","from":{"id":"100001622486348","name":"Tuan Lam"},"message":"hay to chuc offine club di anh","can_remove":false,"created_time":"2013-11-01T15:51:30+0000","like_count":0,"user_likes":false},"750417638308249":{"id":"750417638308249","from":{"id":"100001458099624","name":"Kham Pha"},"message":"Tuan Lam cuối tháng này sẽ có offline của group tại HN. Các admin đang lên kế hoạch chuẩn bị. Sẽ thông báo sớm cho các bạn.","message_tags":[{"id":"100001622486348","name":"Tuan Lam","type":"user","offset":0,"length":8}],"can_remove":false,"created_time":"2013-11-01T16:07:16+0000","like_count":3,"user_likes":false},"750419234974756":{"id":"750419234974756","from":{"id":"100001622486348","name":"Tuan Lam"},"message":"o HN ak zz tuong o ben nhat","can_remove":false,"created_time":"2013-11-01T16:10:27+0000","like_count":0,"user_likes":false},"750422148307798":{"id":"750422148307798","from":{"id":"100000381394367","name":"Thành Nguyễn"},"message":"Sẽ tổ chức ở Nhật nếu đủ nhân sự","can_remove":false,"created_time":"2013-11-01T16:17:30+0000","like_count":1,"user_likes":false},"750656451617701":{"id":"750656451617701","from":{"id":"100004715524978","name":"Minh Chiến"},"message":"Tuan lam loi dung day len to chuc 1 buoi offline o nhat a admin .ma o tokio thi cang tot oy","can_remove":false,"created_time":"2013-11-02T01:51:38+0000","like_count":0,"user_likes":false},"750666314950048":{"id":"750666314950048","from":{"id":"100005903373573","name":"HaLinh Phong Phan"},"message":"troi m cu tuong la o nhat chu","can_remove":false,"created_time":"2013-11-02T02:23:12+0000","like_count":0,"user_likes":false},"750671414949538":{"id":"750671414949538","from":{"id":"100004094346107","name":"Thuy Nga Nguyen"},"message":"Rất mong sự giúp đỡ của senpai và mọi người!","can_remove":false,"created_time":"2013-11-02T02:36:42+0000","like_count":1,"user_likes":false},"750677111615635":{"id":"750677111615635","from":{"id":"100001156666759","name":"Kenshuu Steam"},"message":"rất mong group sẽ phát triển","can_remove":false,"created_time":"2013-11-02T02:50:51+0000","like_count":0,"user_likes":false}},"paging":{"cursors":{"after":"NzUwMzg3ODIxNjQ0NTY0","before":"NzUwMzg3ODIxNjQ0NTY0"},"next":"https://graph.facebook.com/229244010425617_750385071644839/comments?limit=1&summary=1&after=NzUwMzg3ODIxNjQ0NTY0"},"summary":{"order":"chronological","total_count":16}}}