{"id":"229244010425617_750326748317338","type":"status","from":{"id":"100001416272263","name":"Mai PB"},"message":"Hôm nay tháng 11, và vừa vặn từ ngày mai là 3 ngày nghỉ. Đây cũng là mùa lễ hội trường, chủ yếu là trường ĐH, senmon. Ai ở Nhật muốn đi chơi thì đến các trường mà xem, rất vui. Ngày xưa lúc mới đến Nhật, mình đến chơi Tsukuba daigaku, một lần không thể quên.\n\nĐây là danh sách lễ hội trường toàn nước Nhật nhé. http://s.gaku-sai.com/when/11/0/1","created_time":"2013-11-01T12:49:01+0000","updated_time":"2013-11-02T02:14:01+0000","likes":{"data":{"100002508122689":{"id":"100002508122689","name":"Vũ Mạnh Tuấn"},"100002826418598":{"id":"100002826418598","name":"Harry Minji"},"100001754136107":{"id":"100001754136107","name":"Nguyễn Tuấn Vũ"},"100004716640495":{"id":"100004716640495","name":"Thúy An Dương"},"100003981681171":{"id":"100003981681171","name":"Moon Sún"},"100001442509723":{"id":"100001442509723","name":"Nguyễn Mai Anh"},"100004224663188":{"id":"100004224663188","name":"Linh Tamako"},"100001438932250":{"id":"100001438932250","name":"Luong Anh Nguyet"},"100003005597243":{"id":"100003005597243","name":"Zany Royal"},"100006767705219":{"id":"100006767705219","name":"Kim Liên"},"1717530880":{"id":"1717530880","name":"Triệu Việt Cường"},"100000492998065":{"id":"100000492998065","name":"か とり"},"100001594722256":{"id":"100001594722256","name":"Viết An Phạm"},"100002754998000":{"id":"100002754998000","name":"Nguyen Duc"},"100001723862714":{"id":"100001723862714","name":"Bo Bien Vang"},"100000226369400":{"id":"100000226369400","name":"Vạn Lý Độc Hành"},"100002470650247":{"id":"100002470650247","name":"LinhLinh Chan"},"100004362480675":{"id":"100004362480675","name":"Đi Tìm Thất Bại"},"100002594112476":{"id":"100002594112476","name":"Thiên Di"},"100000064686295":{"id":"100000064686295","name":"Huy Roli"},"100002137253818":{"id":"100002137253818","name":"Anh Khoa"},"100000238980415":{"id":"100000238980415","name":"Mèo Hen Mai Linh"},"100004715524978":{"id":"100004715524978","name":"Minh Chiến"},"100000328742646":{"id":"100000328742646","name":"Trần Giáp"},"1148962646":{"id":"1148962646","name":"Tran Thi Tuong Van"},"1816269439":{"id":"1816269439","name":"Dao Ngoc"},"100003124307460":{"id":"100003124307460","name":"Duc Giang"}},"paging":{"cursors":{"after":"MTAwMDAyNTA4MTIyNjg5","before":"MTAwMDAyNTA4MTIyNjg5"},"next":"https://graph.facebook.com/229244010425617_750326748317338/likes?limit=1&summary=1&after=MTAwMDAyNTA4MTIyNjg5"},"summary":{"total_count":29}},"comments":{"data":{"750329464983733":{"id":"750329464983733","from":{"id":"100001416272263","name":"Mai PB"},"message":"Nhiều trường có máu mặt trong danh sách này đấy. Ai định thi ĐH thì đến thử xem.","can_remove":false,"created_time":"2013-11-01T12:55:34+0000","like_count":2,"user_likes":false},"750359761647370":{"id":"750359761647370","from":{"id":"100000226369400","name":"Vạn Lý Độc Hành"},"message":"Nó ko có chế độ tìm kiếm a nhỉ :(( mở từng trang nhiều trg quá :((","can_remove":false,"created_time":"2013-11-01T14:07:45+0000","like_count":0,"user_likes":false},"750361418313871":{"id":"750361418313871","from":{"id":"100001416272263","name":"Mai PB"},"message":"Đây: http://s.gaku-sai.com/","can_remove":false,"created_time":"2013-11-01T14:11:38+0000","like_count":2,"user_likes":false},"750361648313848":{"id":"750361648313848","from":{"id":"100001458099624","name":"Kham Pha"},"message":"Hè vừa rồi em có đi 合宿 2 ngày ở trường Tsukuba. Rộng thênh thang, khuôn viên nhiều rừng cây, mùa thu chắc đẹp lắm.","can_remove":false,"created_time":"2013-11-01T14:12:02+0000","like_count":1,"user_likes":false},"750362398313773":{"id":"750362398313773","from":{"id":"100001416272263","name":"Mai PB"},"message":"Tsukuba là trường ĐH quốc lập chuyên về khoa học kỹ thuật nổi tiếng đấy. Rất nhiều lưu học sinh.","can_remove":false,"created_time":"2013-11-01T14:13:42+0000","like_count":1,"user_likes":false},"750552018294811":{"id":"750552018294811","from":{"id":"100005801442456","name":"An Nguyen"},"message":"Tưởng takudai chứ! Nếu mà là trường này thì sẽ như tin dưới hình đây!!!","can_remove":false,"created_time":"2013-11-01T21:31:42+0000","like_count":0,"user_likes":false},"750648924951787":{"id":"750648924951787","from":{"id":"100000687662713","name":"Vu Thi Man"},"message":"Về Shiga ủng hộ pà kon bán phở VN và ăn nem rán đi Admin. Trong đợt này, những người con VN giới thiệu ẩm thực văn hóa VN cùng lúc ở 2 địa điểm, trường tiểu học Tamagawa và trường Đại học Ritsumeikan.","can_remove":false,"created_time":"2013-11-02T01:28:28+0000","like_count":0,"user_likes":false},"750657728284240":{"id":"750657728284240","from":{"id":"100001156666759","name":"Kenshuu Steam"},"message":"bạn vẫn có thể đi làm thêm,  bạn nên tìm hiểu quy định về thời gian làm thêm cho từng loại đối tượng tai nhật nhé.","can_remove":false,"created_time":"2013-11-02T01:56:05+0000","like_count":0,"user_likes":false},"750658518284161":{"id":"750658518284161","from":{"id":"100001416272263","name":"Mai PB"},"message":"Kenshuu Steam post nhầm chủ đề chăng?","message_tags":[{"id":"100001156666759","name":"Kenshuu Steam","type":"user","offset":0,"length":13}],"can_remove":false,"created_time":"2013-11-02T01:58:25+0000","like_count":0,"user_likes":false},"750659128284100":{"id":"750659128284100","from":{"id":"100001156666759","name":"Kenshuu Steam"},"message":"hihi, quên post thiếu chứ không nhầm. Mình định trả lời cho hình bạn An Nguyễn thôi","can_remove":false,"created_time":"2013-11-02T01:59:44+0000","like_count":0,"user_likes":false},"750662711617075":{"id":"750662711617075","from":{"id":"100005801442456","name":"An Nguyen"},"message":"@.@!!!","can_remove":false,"created_time":"2013-11-02T02:12:13+0000","like_count":0,"user_likes":false},"750663184950361":{"id":"750663184950361","from":{"id":"100005801442456","name":"An Nguyen"},"message":"Cái đó thì mình biết !! Mình tưởng đấy là cái trường 1 bạn đang học sắp bị nyukan tới kiểm tra thôi!!!","can_remove":false,"created_time":"2013-11-02T02:14:01+0000","like_count":0,"user_likes":false}},"paging":{"cursors":{"after":"NzUwMzI5NDY0OTgzNzMz","before":"NzUwMzI5NDY0OTgzNzMz"},"next":"https://graph.facebook.com/229244010425617_750326748317338/comments?limit=1&summary=1&after=NzUwMzI5NDY0OTgzNzMz"},"summary":{"order":"chronological","total_count":12}}}