{"id":"229244010425617_750436961639650","type":"status","from":{"id":"100002898154513","name":"Gã Shrek"},"message":"Chào các bạn mình mới được bổ nhiệm làm một trong những admin của nhóm.\nMình đang tự học để thi N3 vào tháng 12.\nAi cũng như mình thì thêm bạn có gì cùng nhau học nha!\nThân!","created_time":"2013-11-01T16:47:12+0000","updated_time":"2013-11-02T02:09:39+0000","likes":{"data":{"100002629655875":{"id":"100002629655875","name":"Đỗ Thế Phong"},"100001416272263":{"id":"100001416272263","name":"Mai PB"},"100001754136107":{"id":"100001754136107","name":"Nguyễn Tuấn Vũ"},"1821970083":{"id":"1821970083","name":"Nguyễn Mạnh Cường"},"100000328742646":{"id":"100000328742646","name":"Trần Giáp"},"100001848885057":{"id":"100001848885057","name":"Tiểu Mỡ Nhi"},"100000168961543":{"id":"100000168961543","name":"Le Kien"},"100006767705219":{"id":"100006767705219","name":"Kim Liên"},"100001622486348":{"id":"100001622486348","name":"Tuan Lam"},"100001458099624":{"id":"100001458099624","name":"Kham Pha"},"100002508122689":{"id":"100002508122689","name":"Vũ Mạnh Tuấn"}},"paging":{"cursors":{"after":"MTAwMDAyNjI5NjU1ODc1","before":"MTAwMDAyNjI5NjU1ODc1"},"next":"https://graph.facebook.com/229244010425617_750436961639650/likes?limit=1&summary=1&after=MTAwMDAyNjI5NjU1ODc1"},"summary":{"total_count":12}},"comments":{"data":{"750438024972877":{"id":"750438024972877","from":{"id":"100001622486348","name":"Tuan Lam"},"message":"minh cha co N nao het zz","can_remove":false,"created_time":"2013-11-01T16:48:42+0000","like_count":0,"user_likes":false},"750438224972857":{"id":"750438224972857","from":{"id":"100002898154513","name":"Gã Shrek"},"message":"Tuan Lam bạn mới học à","message_tags":[{"id":"100001622486348","name":"Tuan Lam","type":"user","offset":0,"length":8}],"can_remove":false,"created_time":"2013-11-01T16:49:07+0000","like_count":0,"user_likes":false},"750438404972839":{"id":"750438404972839","from":{"id":"100001622486348","name":"Tuan Lam"},"message":"ko mjnh di hoc lom hjhj","can_remove":false,"created_time":"2013-11-01T16:49:36+0000","like_count":0,"user_likes":false},"750439664972713":{"id":"750439664972713","from":{"id":"100002900541524","name":"Nguyễn Khắc Khôi"},"message":"giống mình vậy :3","can_remove":false,"created_time":"2013-11-01T16:52:07+0000","like_count":1,"user_likes":false},"750440144972665":{"id":"750440144972665","from":{"id":"100002898154513","name":"Gã Shrek"},"message":"Nguyễn Khắc Khôi bạn cũng tự học à","message_tags":[{"id":"100002900541524","name":"Nguyễn Khắc Khôi","type":"user","offset":0,"length":16}],"can_remove":false,"created_time":"2013-11-01T16:53:12+0000","like_count":0,"user_likes":false},"750441041639242":{"id":"750441041639242","from":{"id":"100002900541524","name":"Nguyễn Khắc Khôi"},"message":"uk. nhưng mình mới học đc 1 ít","can_remove":false,"created_time":"2013-11-01T16:54:59+0000","like_count":0,"user_likes":false},"750441318305881":{"id":"750441318305881","from":{"id":"100002898154513","name":"Gã Shrek"},"message":"Nguyễn Khắc Khôi mình học hết phần ngữ pháp ở cuốn somatome N3 bunbou rồi. Nhưng mau quên :)","message_tags":[{"id":"100002900541524","name":"Nguyễn Khắc Khôi","type":"user","offset":0,"length":16}],"can_remove":false,"created_time":"2013-11-01T16:55:43+0000","like_count":0,"user_likes":false},"750441521639194":{"id":"750441521639194","from":{"id":"100001622486348","name":"Tuan Lam"},"message":"chiu kho xem tivi nhiu vo","can_remove":false,"created_time":"2013-11-01T16:56:25+0000","like_count":0,"user_likes":false},"750441884972491":{"id":"750441884972491","from":{"id":"100002900541524","name":"Nguyễn Khắc Khôi"},"message":"èo. thế chỗ kanji :3","can_remove":false,"created_time":"2013-11-01T16:57:32+0000","like_count":0,"user_likes":false},"750442131639133":{"id":"750442131639133","from":{"id":"100002898154513","name":"Gã Shrek"},"message":"từ mai bắt đầu kanji :3","can_remove":false,"created_time":"2013-11-01T16:57:53+0000","like_count":0,"user_likes":false},"750442424972437":{"id":"750442424972437","from":{"id":"100001622486348","name":"Tuan Lam"},"message":"may ban o dau","can_remove":false,"created_time":"2013-11-01T16:58:44+0000","like_count":0,"user_likes":false},"750442468305766":{"id":"750442468305766","from":{"id":"100001622486348","name":"Tuan Lam"},"message":"khj nao an nhau thuj","can_remove":false,"created_time":"2013-11-01T16:58:50+0000","like_count":0,"user_likes":false},"750442708305742":{"id":"750442708305742","from":{"id":"100002900541524","name":"Nguyễn Khắc Khôi"},"message":"t học cùng nhau nhưng mới đc vài tuần :3","can_remove":false,"created_time":"2013-11-01T16:59:40+0000","like_count":1,"user_likes":false},"750445258305487":{"id":"750445258305487","from":{"id":"100002898154513","name":"Gã Shrek"},"message":"Tháng 12 bạn cũng thi chứ.","can_remove":false,"created_time":"2013-11-01T17:05:01+0000","like_count":0,"user_likes":false},"750445451638801":{"id":"750445451638801","from":{"id":"100002900541524","name":"Nguyễn Khắc Khôi"},"message":"ukm. chắc tạch thôi :3","can_remove":false,"created_time":"2013-11-01T17:05:31+0000","like_count":0,"user_likes":false},"750445681638778":{"id":"750445681638778","from":{"id":"100002898154513","name":"Gã Shrek"},"message":"thi thử cảm giác ý mà. :))","can_remove":false,"created_time":"2013-11-01T17:05:55+0000","like_count":0,"user_likes":false},"750446281638718":{"id":"750446281638718","from":{"id":"100001588310557","name":"Trang Min"},"message":"minh muon mua quyen day ngu phap cac ban co biet o dau ban ko?minh o hn","can_remove":false,"created_time":"2013-11-01T17:07:36+0000","like_count":0,"user_likes":false},"750446871638659":{"id":"750446871638659","from":{"id":"100002898154513","name":"Gã Shrek"},"message":"Trang Min Nhà Sách Thanh Xuân địa chỉ :  Số 8A cổng trường Đại Học Hà Nội. bạn đến đó sách gì cũng có. Mình mới làm một bộ ở đó.","message_tags":[{"id":"100001588310557","name":"Trang Min","type":"user","offset":0,"length":9}],"can_remove":false,"created_time":"2013-11-01T17:09:00+0000","like_count":1,"user_likes":false},"750448131638533":{"id":"750448131638533","from":{"id":"100002900541524","name":"Nguyễn Khắc Khôi"},"message":"tháng 7 năm sau mình thi lại :3","can_remove":false,"created_time":"2013-11-01T17:11:28+0000","like_count":0,"user_likes":false},"750448301638516":{"id":"750448301638516","from":{"id":"100001588310557","name":"Trang Min"},"message":"vay a.uhm.cam on ban nhe.^^. minh tu hoc o nha dang can hoi ve phan ghep chu hoc nhu the nao.cu ghep va doc thoi hay no phai co cau truc ha ban","can_remove":false,"created_time":"2013-11-01T17:11:38+0000","like_count":0,"user_likes":false},"750448878305125":{"id":"750448878305125","from":{"id":"100002898154513","name":"Gã Shrek"},"message":"Trang Min mình cũng tự học ở nhà. Nhưng bạn cần hỏi về phần gì cơ?","message_tags":[{"id":"100001588310557","name":"Trang Min","type":"user","offset":0,"length":9}],"can_remove":false,"created_time":"2013-11-01T17:12:24+0000","like_count":0,"user_likes":false},"750449534971726":{"id":"750449534971726","from":{"id":"100001588310557","name":"Trang Min"},"message":"ghép chữ bạn ạ.mình mới học thôi","can_remove":false,"created_time":"2013-11-01T17:13:56+0000","like_count":0,"user_likes":false},"750449728305040":{"id":"750449728305040","from":{"id":"100002898154513","name":"Gã Shrek"},"message":"Trang Min không hiểu ý bạn lắm. Ghép các chữ vào thành một từ mới phải không?","message_tags":[{"id":"100001588310557","name":"Trang Min","type":"user","offset":0,"length":9}],"can_remove":false,"created_time":"2013-11-01T17:14:41+0000","like_count":0,"user_likes":false},"750449801638366":{"id":"750449801638366","from":{"id":"100002900541524","name":"Nguyễn Khắc Khôi"},"message":"thì có 1 số trợ từ như trong tiếng anh vậy :3 c hiểu đc thì ghét dễ thôi","can_remove":false,"created_time":"2013-11-01T17:14:55+0000","like_count":0,"user_likes":false},"750450734971606":{"id":"750450734971606","from":{"id":"100001588310557","name":"Trang Min"},"message":"minh hoc ma thay kho qua.uh.ghep cac chu de thanh tu moi do ban","can_remove":false,"created_time":"2013-11-01T17:16:06+0000","like_count":0,"user_likes":false},"750451368304876":{"id":"750451368304876","from":{"id":"100002898154513","name":"Gã Shrek"},"message":"Trang Min  Nói sao giờ nhỉ. Từ vựng thì có phần từ vựng bạn cứ thuộc 2 bảng chứ cái ngon lành là đọc các từ vựng có sẵn là ok thôi.","message_tags":[{"id":"100001588310557","name":"Trang Min","type":"user","offset":0,"length":9}],"can_remove":false,"created_time":"2013-11-01T17:17:22+0000","like_count":0,"user_likes":false},"750451861638160":{"id":"750451861638160","from":{"id":"100001588310557","name":"Trang Min"},"message":"hi.cam on ban nhieu nhe.","can_remove":false,"created_time":"2013-11-01T17:18:53+0000","like_count":0,"user_likes":false},"750647971618549":{"id":"750647971618549","from":{"id":"100004251845458","name":"Hoàng Anh"},"message":"ôi, có bạn nào chỉ cho tớ cách học kanji mà không bị quên k?:(","can_remove":false,"created_time":"2013-11-02T01:25:37+0000","like_count":0,"user_likes":false},"750650141618332":{"id":"750650141618332","from":{"id":"100001622486348","name":"Tuan Lam"},"message":"hoc kanji thj phai thuong xuyen luyen lai va doc nhiu ko se de wen lam","can_remove":false,"created_time":"2013-11-02T01:31:56+0000","like_count":0,"user_likes":false},"750661834950496":{"id":"750661834950496","from":{"id":"100002629655875","name":"Đỗ Thế Phong"},"message":"mih mơi thi xog n4 hôi thag 7, đih thag 12 thi n3 đây, tư vưg, ngư fap hc đc sơ sơ r, ma k pik nhơ j ko nưa, mog mn giup đơ","can_remove":false,"created_time":"2013-11-02T02:09:39+0000","like_count":1,"user_likes":false}},"paging":{"cursors":{"after":"NzUwNDM4MDI0OTcyODc3","before":"NzUwNDM4MDI0OTcyODc3"},"next":"https://graph.facebook.com/229244010425617_750436961639650/comments?limit=1&summary=1&after=NzUwNDM4MDI0OTcyODc3"},"summary":{"order":"chronological","total_count":30}}}