{"id":"229244010425617_750642604952419","type":"status","from":{"id":"100003828347619","name":"Huyền Tuyết"},"message":"mọi người ơi giúp e với ạ! anh chị(bạn) nào giúp e dịch mấy dòng này với ạ\n+ Thời lượng số giờ học: 3 tiết/ ngày\n+ Thời lượng số ngày học: 5 ngày/ tuần\n+ Tổng số giờ đã học: 360 tiết\n+ Tổng số giờ hoàn thành: 360 tiết\ne xin chân thành cảm ơn ạ","created_time":"2013-11-02T01:08:33+0000","updated_time":"2013-11-02T01:41:25+0000","comments":{"data":{"750644484952231":{"id":"750644484952231","from":{"id":"100003753956075","name":"Tôi Đi Tìm Tôi"},"message":"学校の一日の長さ：3ピリオド/日\n学校の一日の長さ：5日/週\n出席した総時間数：360もっと\n完成した総時間数：360もっと","can_remove":false,"created_time":"2013-11-02T01:14:06+0000","like_count":2,"user_likes":false},"750645844952095":{"id":"750645844952095","from":{"id":"100003828347619","name":"Huyền Tuyết"},"message":"dạ, e cảm ơn ạ. thế giấy xác nhận là 確認書hay認定書hay証明書 ạ?","can_remove":false,"created_time":"2013-11-02T01:19:05+0000","like_count":0,"user_likes":false},"750646624952017":{"id":"750646624952017","from":{"id":"100003753956075","name":"Tôi Đi Tìm Tôi"},"message":"証明書\nShoumei-sho","can_remove":false,"created_time":"2013-11-02T01:21:30+0000","like_count":0,"user_likes":false},"750647691618577":{"id":"750647691618577","from":{"id":"100003828347619","name":"Huyền Tuyết"},"message":"e thấy từ ý hay dùng cho chứng minh thư nhân dân ý ạ. k biết là dùng cho tiêu đề là giấy xác nhận thì có ổn k nữa ạ","can_remove":false,"created_time":"2013-11-02T01:24:48+0000","like_count":0,"user_likes":false},"750648318285181":{"id":"750648318285181","from":{"id":"100003753956075","name":"Tôi Đi Tìm Tôi"},"message":"ok ma ban a","can_remove":false,"created_time":"2013-11-02T01:26:39+0000","like_count":1,"user_likes":false},"750649191618427":{"id":"750649191618427","from":{"id":"100003828347619","name":"Huyền Tuyết"},"message":"thế còn câu : Em Ly được giáo viên đánh giá cao về tinh thần học tập chăm chỉ cũng như khả năng tiếp thu và hiểu bài rất nhanh","can_remove":false,"created_time":"2013-11-02T01:29:19+0000","like_count":0,"user_likes":false},"750649248285088":{"id":"750649248285088","from":{"id":"100003828347619","name":"Huyền Tuyết"},"message":"dịch giúp e với ạ","can_remove":false,"created_time":"2013-11-02T01:29:31+0000","like_count":0,"user_likes":false},"750649258285087":{"id":"750649258285087","from":{"id":"100003828347619","name":"Huyền Tuyết"},"message":"hihi","can_remove":false,"created_time":"2013-11-02T01:29:34+0000","like_count":0,"user_likes":false},"750653218284691":{"id":"750653218284691","from":{"id":"100003753956075","name":"Tôi Đi Tìm Tôi"},"message":"inbox em Huyền Tuyết nhé !","message_tags":[{"id":"100003828347619","name":"Huyền Tuyết","type":"user","offset":9,"length":11}],"can_remove":false,"created_time":"2013-11-02T01:41:25+0000","like_count":0,"user_likes":false}},"paging":{"cursors":{"after":"NzUwNjQ0NDg0OTUyMjMx","before":"NzUwNjQ0NDg0OTUyMjMx"},"next":"https://graph.facebook.com/229244010425617_750642604952419/comments?limit=1&summary=1&after=NzUwNjQ0NDg0OTUyMjMx"},"summary":{"order":"chronological","total_count":9}},"likes":{"data":[]}}