{"id":"229244010425617_750682304948449","type":"status","from":{"id":"100004101462769","name":"Thao Vo"},"message":"chào mọi người, mình đang cần viết cv với đơn xin việc bằng tiếng nhật, m.n ai có mẫu cho mình tham khảo với. cám ơn nhiều. email: thuthao_1891@yahoo.com.vn","created_time":"2013-11-02T03:01:43+0000","updated_time":"2013-11-02T14:39:43+0000","likes":{"data":{"100001675172237":{"id":"100001675172237","name":"Sorano Hoshi"},"100003775274952":{"id":"100003775274952","name":"Masahiro Kano"},"100004095043055":{"id":"100004095043055","name":"Rober Robert"}},"paging":{"cursors":{"after":"MTAwMDAxNjc1MTcyMjM3","before":"MTAwMDAxNjc1MTcyMjM3"},"next":"https://graph.facebook.com/229244010425617_750682304948449/likes?limit=1&summary=1&after=MTAwMDAxNjc1MTcyMjM3"},"summary":{"total_count":3}},"comments":{"data":{"750683858281627":{"id":"750683858281627","from":{"id":"100001156666759","name":"Kenshuu Steam"},"message":"tham khảo ở đây đi cho khỏi phải gửi email, mọi nguwoif cùng đọc \n\n求職願望\n御中、\nインターネット上と通じて、御社が翻・通訳社員を募集中」という情報を知っており、御社の能動的な職場に挑戦させていただきたい願望があります。私の経験及び技能の元で、御社での募集中職位の仕事をよくできると自信を持っております。\n\n添付履歴書通り、私は日本・日系企業及び日系企業をお顧客とする会社における各職位でかなり経験を積もっております。他には各会社に就職していた間、日本人とのやり方、考えなどに経験を持っております。いろいろ経験及び能力をもちまして、募集中の仕事にあまりにも符号すると自信しております。\nその上に、日本での3年間に実践して積もっていたあげくの体験をもちまして、は御社の採用ニーズに対応できると信じます。\nお多忙のところ、私の求職願望を一読していただきまして、誠に謝意を述べたいと思います。自分の表現で、募集中仕事の要請を理解できるように、直接に面接時間を調整させていただけたいと思います。\n突然でお失礼致しましたが、よろしくお願い申し上げます。\n\n敬具。","can_remove":false,"created_time":"2013-11-02T03:06:05+0000","like_count":2,"user_likes":false},"750685351614811":{"id":"750685351614811","from":{"id":"100001156666759","name":"Kenshuu Steam"},"message":"インターネット上には多数あるよ、先に検索してみ、検索可能のものはあっちで検索を進め。検索不可能のものはここで聞くと薦め。自立心を練習。","can_remove":false,"created_time":"2013-11-02T03:10:32+0000","like_count":1,"user_likes":false},"750687578281255":{"id":"750687578281255","from":{"id":"100004101462769","name":"Thao Vo"},"message":"ありがとございます","can_remove":false,"created_time":"2013-11-02T03:16:34+0000","like_count":0,"user_likes":false},"750820901601256":{"id":"750820901601256","from":{"id":"100001416272263","name":"Mai PB"},"message":"Thao Võ xin việc arubaito hay việc chính thức sao?","can_remove":false,"created_time":"2013-11-02T10:27:02+0000","like_count":0,"user_likes":false},"750896388260374":{"id":"750896388260374","from":{"id":"100004101462769","name":"Thao Vo"},"message":"Mai PB  công việc chính thức a","message_tags":[{"id":"100001416272263","name":"Mai PB","type":"user","offset":0,"length":6}],"can_remove":false,"created_time":"2013-11-02T13:39:00+0000","like_count":0,"user_likes":false},"750918901591456":{"id":"750918901591456","from":{"id":"100001416272263","name":"Mai PB"},"message":"Thế thì viết như thế này. Form mua ở combini 1 bộ rồi copy ra nhiều bản để dùng nhiều lần. https://www.facebook.com/groups/CongdongVietNhat/permalink/750824344934245/","can_remove":false,"created_time":"2013-11-02T14:12:41+0000","like_count":1,"user_likes":false},"750931084923571":{"id":"750931084923571","from":{"id":"100004101462769","name":"Thao Vo"},"message":"Mai PB ありがとございます","message_tags":[{"id":"100001416272263","name":"Mai PB","type":"user","offset":0,"length":6}],"can_remove":false,"created_time":"2013-11-02T14:39:43+0000","like_count":0,"user_likes":false}},"paging":{"cursors":{"after":"NzUwNjgzODU4MjgxNjI3","before":"NzUwNjgzODU4MjgxNjI3"},"next":"https://graph.facebook.com/229244010425617_750682304948449/comments?limit=1&summary=1&after=NzUwNjgzODU4MjgxNjI3"},"summary":{"order":"chronological","total_count":7}}}