{"id":"229244010425617_750702838279729","type":"link","link":"http://www3.nhk.or.jp/news/html/20131101/k10015724471000.html","from":{"id":"100001416272263","name":"Mai PB"},"message":"Lên tin NHK rồi đây: lưu học sinh VN tăng 5 lần so với năm ngoái.\n\nhttp://www3.nhk.or.jp/news/html/20131101/k10015724471000.html","created_time":"2013-11-02T03:56:10+0000","updated_time":"2013-11-02T06:47:23+0000","likes":{"data":{"100003076762517":{"id":"100003076762517","name":"ThiênKim Nhị Tiểu Quỷ"},"100001813175379":{"id":"100001813175379","name":"Huyen Nguyen"},"657157297":{"id":"657157297","name":"Phan Dien"},"100005801442456":{"id":"100005801442456","name":"An Nguyen"},"100002676859353":{"id":"100002676859353","name":"Chu Quang Viên"},"100006767705219":{"id":"100006767705219","name":"Kim Liên"},"100001257093338":{"id":"100001257093338","name":"Hanh Dang"},"100003913383051":{"id":"100003913383051","name":"Tho Tran"},"100000240694048":{"id":"100000240694048","name":"Hau Vu"},"100004094346107":{"id":"100004094346107","name":"Thuy Nga Nguyen"},"1148962646":{"id":"1148962646","name":"Tran Thi Tuong Van"},"100001059086820":{"id":"100001059086820","name":"Nguyễn Thành Long"},"100001003687542":{"id":"100001003687542","name":"PhạmNgân Same"},"100001880901011":{"id":"100001880901011","name":"Số Không"},"100001458099624":{"id":"100001458099624","name":"Kham Pha"},"100003188289732":{"id":"100003188289732","name":"Kim Anh Huynh"},"100002421205294":{"id":"100002421205294","name":"Nghèo Kệ Tôi"},"100000167405491":{"id":"100000167405491","name":"Đỗ Đức Việt"},"100001594722256":{"id":"100001594722256","name":"Viết An Phạm"},"100000064686295":{"id":"100000064686295","name":"Huy Roli"},"100004041794244":{"id":"100004041794244","name":"Watanuki Kimihiro"},"100003592120817":{"id":"100003592120817","name":"Đỗ Vân Hà"},"100004084770426":{"id":"100004084770426","name":"Mặt Trời Mọc"},"100001442509723":{"id":"100001442509723","name":"Nguyễn Mai Anh"},"100002898154513":{"id":"100002898154513","name":"Gã Shrek"},"100005478454231":{"id":"100005478454231","name":"Maruko Chan"},"1813611352":{"id":"1813611352","name":"To Đùng"}},"paging":{"cursors":{"after":"MTAwMDAzMDc2NzYyNTE3","before":"MTAwMDAzMDc2NzYyNTE3"},"next":"https://graph.facebook.com/229244010425617_750702838279729/likes?limit=1&summary=1&after=MTAwMDAzMDc2NzYyNTE3"},"summary":{"total_count":28}},"comments":{"data":{"750706588279354":{"id":"750706588279354","from":{"id":"100000064686295","name":"Huy Roli"},"message":"5 lần trong 1 năm, tình hình này rất nhiều ng giỏi tiếng nhật, mình ko biết sẽ ra sao đây, hu hu","can_remove":false,"created_time":"2013-11-02T04:08:16+0000","like_count":1,"user_likes":false},"750736674943012":{"id":"750736674943012","from":{"id":"100001583529210","name":"Nguyễn Kim Hà"},"message":"E cũng xem tin này trên tivi phát hôm qua","can_remove":false,"created_time":"2013-11-02T05:22:56+0000","like_count":0,"user_likes":false},"750740198275993":{"id":"750740198275993","from":{"id":"100001156666759","name":"Kenshuu Steam"},"message":"mình thấy rất nhiều người mượn danh nghĩa đi du học với mục đích sang đó đi cày... làm ảnh hưởng rất nhiều đến chất lượng du học của việt nam","can_remove":false,"created_time":"2013-11-02T05:33:56+0000","like_count":0,"user_likes":false},"750742778275735":{"id":"750742778275735","from":{"id":"100006457419726","name":"Nam Văn Lê"},"message":"hoho.việt nam định sang làm loạn nhật bản à","can_remove":false,"created_time":"2013-11-02T05:45:32+0000","like_count":0,"user_likes":false},"750744694942210":{"id":"750744694942210","from":{"id":"100001156666759","name":"Kenshuu Steam"},"message":"bạn nói thế thì không hay cho lắm, nhưng do cộng đồng người việt tại nhật tăng lên quá nhaanh dẫn đến sẽ sảy ra chuyên nọ chuyện kia thôi, đôi khi la những chuyện làm mất hình ảnh người việt trên đất nhật. Hi vọng sẽ không dẫm đúng bước chân của người TQ","can_remove":false,"created_time":"2013-11-02T05:54:02+0000","like_count":2,"user_likes":false},"750759481607398":{"id":"750759481607398","from":{"id":"100005211189763","name":"Oliveu Cchann"},"message":"Kenshuu Steam: đúng rồi đó T^T nhưng mà bây giờ người VN trong mắt người Nhật ko còn được như xưa nữa rồi, thấy người Nhật giờ có vẻ ko còn thích người VN mấy nữa :<","message_tags":[{"id":"100001156666759","name":"Kenshuu Steam","type":"user","offset":0,"length":13}],"can_remove":false,"created_time":"2013-11-02T06:47:23+0000","like_count":1,"user_likes":false}},"paging":{"cursors":{"after":"NzUwNzA2NTg4Mjc5MzU0","before":"NzUwNzA2NTg4Mjc5MzU0"},"next":"https://graph.facebook.com/229244010425617_750702838279729/comments?limit=1&summary=1&after=NzUwNzA2NTg4Mjc5MzU0"},"summary":{"order":"chronological","total_count":6}}}