{"id":"229244010425617_750721011611245","type":"status","from":{"id":"100001416272263","name":"Mai PB"},"message":"Phân tích đúng lắm. Đây là vấn đề niềm tin vào sự công bằng chứ không phải không có thói quen xếp hàng. https://www.facebook.com/nhatkyyeunuoc1/posts/762104827149600","created_time":"2013-11-02T04:50:28+0000","updated_time":"2013-11-04T04:02:16+0000","likes":{"data":{"100002779080239":{"id":"100002779080239","name":"Nguyễn Biên"},"100003005597243":{"id":"100003005597243","name":"Zany Royal"},"100001128589118":{"id":"100001128589118","name":"Giang Manh"},"100005478454231":{"id":"100005478454231","name":"Maruko Chan"},"100003105034037":{"id":"100003105034037","name":"Pham Oanh"},"1023965040":{"id":"1023965040","name":"Juli KimChi"},"1114300791":{"id":"1114300791","name":"Tra Mi"},"100000062884729":{"id":"100000062884729","name":"Huệ Ca"},"100003099454910":{"id":"100003099454910","name":"Bac Ngo Duc"},"100000381394367":{"id":"100000381394367","name":"Thành Nguyễn"},"100003310618708":{"id":"100003310618708","name":"BiNô Triết Gia"},"100002594112476":{"id":"100002594112476","name":"Thiên Di"},"100003822434250":{"id":"100003822434250","name":"Sói Đây Gà Đâu"},"100000173039166":{"id":"100000173039166","name":"Kukku Lee"},"100002157379029":{"id":"100002157379029","name":"Nguyen Hai Dung"},"100004041794244":{"id":"100004041794244","name":"Watanuki Kimihiro"}},"paging":{"cursors":{"after":"MTAwMDAyNzc5MDgwMjM5","before":"MTAwMDAyNzc5MDgwMjM5"},"next":"https://graph.facebook.com/229244010425617_750721011611245/likes?limit=1&summary=1&after=MTAwMDAyNzc5MDgwMjM5"},"summary":{"total_count":17}},"comments":{"data":{"750722741611072":{"id":"750722741611072","from":{"id":"100002157379029","name":"Nguyen Hai Dung"},"message":"em thich cau Niem tin Vao su Công bang","can_remove":false,"created_time":"2013-11-02T04:56:38+0000","like_count":1,"user_likes":false},"750741814942498":{"id":"750741814942498","from":{"id":"100003310618708","name":"BiNô Triết Gia"},"message":"không có người đưa hối lộ => ko có người nhận hối lộ=> công bằng sẽ được thực thi.","can_remove":false,"created_time":"2013-11-02T05:40:50+0000","like_count":1,"user_likes":false},"750769981606348":{"id":"750769981606348","from":{"id":"100001580479641","name":"Hà Xuân Thủy"},"message":"Nếu bạn nghĩ ở nhật ko có đưa và nhận hối lộ thì bạn nhầm rồi.","can_remove":false,"created_time":"2013-11-02T07:27:43+0000","like_count":0,"user_likes":false},"750807331602613":{"id":"750807331602613","from":{"id":"100003310618708","name":"BiNô Triết Gia"},"message":"bạn nói vậy rất đúng, mình từng đọc qua một tạp chí thi thấy hầu như quốc gia nào cũng có hối lộ, chỉ là tỷ lệ đó ít hay nhiều thôi,và theo bạn tỷ lệ hối lộ ở việt nam và nhật là như thế nào. Cá nhân mình thấy, hầu như Việt Nam luôn tìm cách hối lộ từ việc nhỏ đến việc lớn, dẫn chứng đơn giản từ việc xếp hàng như bài đăng kia đã nêu. và từ đây phải chăng niềm tin công bằng ko còn và chỉ còn quan điểm đồng tiền đi trước là đồng tiền khôn. \ncó lẽ bạn đúng, có lẽ mình sai, vì một vấn đề phải xet nhiều khía cạnh. đây chỉ là quan điểm cá nhân. nhờ bạn chỉ giáo \n\np/s: tôi yêu việt nam","can_remove":false,"created_time":"2013-11-02T09:38:41+0000","like_count":0,"user_likes":false},"751385828211430":{"id":"751385828211430","from":{"id":"100001580479641","name":"Hà Xuân Thủy"},"message":"Có thể là bạn ko hiểu ý của t rồi, ở nhật có hối lộ nhưng họ vẫn xếp hàng, người việt nam  qua nhật và cũng xếp hàng như họ đó chỉ là khi có số ít giữa số đông là người nhật, còn như hôm mình có xếp hàng nhận vé mua hàng giảm giá với khoảng hơn trăm bạn du học sinh việt nam thì thật sự là số người nghiêm túc ko chen lấn ko nhiều, mặc dù những người xếp hàng trc sau gì đều nhận đc vé. Các nước phương tây công bằng xã hội so với nhật cũng ko thua kém nhưng cũng ko có đc văn hoá xếp hàng như người nhật.\n Nếu bạn đc đến các trường tiểu học của nhật thì sẽ dễ dàng nhận thấy ở đây bọn trẻ đc chơi các trò chơi tập thể, đc dạy dỗ để ko làm phiền người khác từ bé, đc học cách xếp đồ, làm việc khoa học ngăn nắp từ nhỏ,... Trở lại việc xếp hàng, nó ko đơn giản là chỉ người đến trc thì đc nhận quyền lợi trc mà đó còn là cách làm nhanh nhất mang tính khoa học, không chen lấn nghĩa là ko làm phiền, ảnh hưởng đến người khác, và nó cũng giống như việc làm việc tập thể, vì tập thể chứ ko phải ích kỉ chỉ vì bản thân mình.\n Quan điểm mỗi người là khác nhau, thước đo cho sự đúng sai cũng vì vậy chỉ mang tính chất tương đối.","can_remove":false,"created_time":"2013-11-03T06:28:00+0000","like_count":4,"user_likes":false},"751624604854219":{"id":"751624604854219","from":{"id":"100000381394367","name":"Thành Nguyễn"},"message":"Mới comment về cái này trên face của anh Mai PB post lại phát nữa ở đây \n\nViệc xếp hàng có thể lý giải \"một phần\" vào việc thiếu niềm tin vào sự công bằng, nhưng niềm tin lại là một dạng của ý thức xã hội, là hệ quả do một nguyên nhân sâu sắc hơn gây ra từ hệ thống xã hội mà hạt nhân là chính quyền, tồn tại xã hội đẻ ra ý thức xã hội, hiện nay hạ tầng xã hội quá yếu và thiếu, vì thiếu và yếu nên không đủ chỗ cho tất cả mọi người nên người ta ko tin rằng có phần có chỗ cho mình là điều dễ hiểu.\n\nViệc không xếp hàng cũng là bởi người Việt nam không có thói quen hành động tập thể. Ví dụ ở Nhật dùng tàu điện ngầm, phương tiên công cộng là chủ yếu và việc đi lại bằng phương tiện công cộng là một hành động tập thể, nó có môi trường, có hạ tầng để hình thành thói quen tuân thủ nguyên tắc tập thể trong khi ở VN ra đường mỗi ông một cái xe, phương tiện cá nhân chiếm ưu thế nên tư duy cá thể cũng chiếm ưu thế, xã hội bị xé lẻ ra thành các cá nhân nhiều hơn là các khối cộng đồng. Không có phần mềm xã hội để vận hành các nhóm, cộng đồng nên kết quả của hợp tác rất thấp, trong đó có việc không hình thành được thói quen trật tự cho môi trường tập thể. Nên sớm có những \"hạ tầng mang tính tập thể\" như tàu điện ngầm, có những tồn tại xã hội mang tính tập thể sẽ dần đẻ ra được ý thức tập thế của người dân.","can_remove":false,"created_time":"2013-11-03T16:25:10+0000","like_count":0,"user_likes":false},"751984734818206":{"id":"751984734818206","from":{"id":"100001416272263","name":"Mai PB"},"message":"Thế là qua thực tế của Hà Xuân Thủy và Thành Nguyễn thì có thể thấy yếu tố không xếp hàng có cả nguyên nhân thiếu thói quen. Có lẽ một nguyên nhân nữa có thể kể đến là không được tổ chức việc xếp hàng nữa. Không biết ngày nay thế nào, ngày xưa để mua được vé xem phim là cả một vấn đề.","message_tags":[{"id":"100001580479641","name":"Hà Xuân Thủy","type":"user","offset":23,"length":12}],"can_remove":false,"created_time":"2013-11-04T04:02:16+0000","like_count":0,"user_likes":false}},"paging":{"cursors":{"after":"NzUwNzIyNzQxNjExMDcy","before":"NzUwNzIyNzQxNjExMDcy"},"next":"https://graph.facebook.com/229244010425617_750721011611245/comments?limit=1&summary=1&after=NzUwNzIyNzQxNjExMDcy"},"summary":{"order":"chronological","total_count":7}}}