{"id":"229244010425617_750850668264946","type":"photo","object_id":"607988492580780","picture":"https://fbcdn-photos-e-a.akamaihd.net/hphotos-ak-frc1/t1.0-0/1424499_607988492580780_1102366731_s.jpg","link":"https://www.facebook.com/monngonhanoi.vn/photos/a.369621039750861.82773.369597459753219/607988492580780/?type=1","from":{"id":"100001416272263","name":"Mai PB"},"message":"Đố member biết tại sao gọi là omusoba, omurice? ^^ Quán Nhật ở HN.","created_time":"2013-11-02T11:55:22+0000","updated_time":"2013-11-02T13:30:00+0000","likes":{"data":{"100001365545442":{"id":"100001365545442","name":"Nguyễn Nam"},"100000064686295":{"id":"100000064686295","name":"Huy Roli"},"100006767705219":{"id":"100006767705219","name":"Kim Liên"},"100003888576324":{"id":"100003888576324","name":"Nguyen Quan"}},"paging":{"cursors":{"after":"MTAwMDAxMzY1NTQ1NDQy","before":"MTAwMDAxMzY1NTQ1NDQy"},"next":"https://graph.facebook.com/229244010425617_750850668264946/likes?limit=1&summary=1&after=MTAwMDAxMzY1NTQ1NDQy"},"summary":{"total_count":5}},"comments":{"data":{"750892141594132":{"id":"750892141594132","from":{"id":"100000064686295","name":"Huy Roli"},"message":"Linh Thuy trả lời hộ cái","message_tags":[{"id":"100000877599453","name":"Linh Thuy","type":"user","offset":0,"length":9}],"can_remove":false,"created_time":"2013-11-02T13:30:00+0000","like_count":0,"user_likes":false}},"paging":{"cursors":{"after":"NzUwODkyMTQxNTk0MTMy","before":"NzUwODkyMTQxNTk0MTMy"}},"summary":{"order":"chronological","total_count":1}}}