{"id":"229244010425617_750849548265058","type":"photo","object_id":"604200332970869","picture":"https://fbcdn-photos-a-a.akamaihd.net/hphotos-ak-prn1/t1.0-0/149307_604200332970869_1788911752_s.jpg","link":"https://www.facebook.com/photo.php?fbid=604200332970869&set=a.430409103683327.95741.430400403684197&type=1","from":{"id":"100001416272263","name":"Mai PB"},"message":"Bạn nào đang ở vùng gần Tokyo mà rảnh ngày mai thì đến đây ăn, chơi, và giúp đồng hương này. Mục đích từ thiện nhé.","created_time":"2013-11-02T11:52:00+0000","updated_time":"2013-11-02T13:08:09+0000","likes":{"data":{"100005801442456":{"id":"100005801442456","name":"An Nguyen"},"100002826418598":{"id":"100002826418598","name":"Harry Minji"},"1305472811":{"id":"1305472811","name":"Tuan Nguyen"},"100000222974192":{"id":"100000222974192","name":"Hoàng Thị Vân Anh"},"100001594722256":{"id":"100001594722256","name":"Viết An Phạm"},"100000064686295":{"id":"100000064686295","name":"Huy Roli"},"1148962646":{"id":"1148962646","name":"Tran Thi Tuong Van"},"100000359762118":{"id":"100000359762118","name":"Mi Tra"},"100001622486348":{"id":"100001622486348","name":"Tuan Lam"},"100004923553810":{"id":"100004923553810","name":"Xuan KY Nguyen"},"100006767705219":{"id":"100006767705219","name":"Kim Liên"},"100005903373573":{"id":"100005903373573","name":"HaLinh Phong Phan"},"100005211189763":{"id":"100005211189763","name":"Oliveu Cchann"},"100003171672878":{"id":"100003171672878","name":"Tầu Heo"}},"paging":{"cursors":{"after":"MTAwMDA1ODAxNDQyNDU2","before":"MTAwMDA1ODAxNDQyNDU2"},"next":"https://graph.facebook.com/229244010425617_750849548265058/likes?limit=1&summary=1&after=MTAwMDA1ODAxNDQyNDU2"},"summary":{"total_count":15}},"comments":{"data":{"750850018265011":{"id":"750850018265011","from":{"id":"100003171672878","name":"Tầu Heo"},"message":"Cho nao vay a.k có địa chỉ","can_remove":false,"created_time":"2013-11-02T11:53:27+0000","like_count":0,"user_likes":false},"750850158264997":{"id":"750850158264997","from":{"id":"1816269439","name":"Dao Ngoc"},"message":"Cảm ơn bác Mai PB nhóe. ^^. Chờ đón các tấm lòng trong ngày đầu đông.","message_tags":[{"id":"100001416272263","name":"Mai PB","type":"user","offset":11,"length":6}],"can_remove":false,"created_time":"2013-11-02T11:53:56+0000","like_count":1,"user_likes":false},"750850394931640":{"id":"750850394931640","from":{"id":"1816269439","name":"Dao Ngoc"},"message":"Bạn vào banner của Page là thấy ngay địa chỉ nha. https://www.facebook.com/ComcothitJapan","can_remove":false,"created_time":"2013-11-02T11:54:31+0000","like_count":1,"user_likes":false},"750851324931547":{"id":"750851324931547","from":{"id":"1816269439","name":"Dao Ngoc"},"message":"https://www.facebook.com/notes/c%C6%A1m-c%C3%B3-th%E1%BB%8Bt-japan/c%C3%A1ch-%C4%91i-t%E1%BB%9Bi-saitama-fair-ng%C3%A0y-2-311-th%E1%BB%A9-7-ch%E1%BB%A7-nh%E1%BA%ADt-t%E1%BB%9Bi/603520956372140","can_remove":false,"created_time":"2013-11-02T11:57:10+0000","like_count":1,"user_likes":false},"750864421596904":{"id":"750864421596904","from":{"id":"100005903373573","name":"HaLinh Phong Phan"},"message":"may gio la to chuc ban oi","can_remove":false,"created_time":"2013-11-02T12:27:38+0000","like_count":0,"user_likes":false},"750867308263282":{"id":"750867308263282","from":{"id":"100004715524978","name":"Minh Chiến"},"message":"Bac mai pb nhjet tinh that day ....namber1","can_remove":false,"created_time":"2013-11-02T12:32:38+0000","like_count":1,"user_likes":false},"750867981596548":{"id":"750867981596548","from":{"id":"1816269439","name":"Dao Ngoc"},"message":"Tưd 9-4 chiều các bạn ơi","can_remove":false,"created_time":"2013-11-02T12:34:30+0000","like_count":1,"user_likes":false},"750868671596479":{"id":"750868671596479","from":{"id":"100004715524978","name":"Minh Chiến"},"message":"Dao ngoc mai co dj k vay hi","can_remove":false,"created_time":"2013-11-02T12:36:28+0000","like_count":0,"user_likes":false},"750868911596455":{"id":"750868911596455","from":{"id":"100004715524978","name":"Minh Chiến"},"message":"K pit thu vj k nhi","can_remove":false,"created_time":"2013-11-02T12:36:44+0000","like_count":0,"user_likes":false},"750869071596439":{"id":"750869071596439","from":{"id":"1816269439","name":"Dao Ngoc"},"message":"Có chớ. Luôn luôn có mẹt. :)))","can_remove":false,"created_time":"2013-11-02T12:37:01+0000","like_count":0,"user_likes":false},"750869324929747":{"id":"750869324929747","from":{"id":"100001622486348","name":"Tuan Lam"},"message":"Ở ga nào vay á trai","can_remove":false,"created_time":"2013-11-02T12:37:38+0000","like_count":0,"user_likes":false},"750869921596354":{"id":"750869921596354","from":{"id":"100004715524978","name":"Minh Chiến"},"message":"Hj mai minh cung di sem tn minh chua di pjo","can_remove":false,"created_time":"2013-11-02T12:39:11+0000","like_count":1,"user_likes":false},"750869948263018":{"id":"750869948263018","from":{"id":"1816269439","name":"Dao Ngoc"},"message":"埼玉新都心","can_remove":false,"created_time":"2013-11-02T12:39:13+0000","like_count":1,"user_likes":false},"750871654929514":{"id":"750871654929514","from":{"id":"100004715524978","name":"Minh Chiến"},"message":"Trung tam do thi moi saitama phai k p","can_remove":false,"created_time":"2013-11-02T12:43:15+0000","like_count":0,"user_likes":false},"750871788262834":{"id":"750871788262834","from":{"id":"100004715524978","name":"Minh Chiến"},"message":"O? Tai trung tam chac .","can_remove":false,"created_time":"2013-11-02T12:43:44+0000","like_count":0,"user_likes":false},"750881528261860":{"id":"750881528261860","from":{"id":"1816269439","name":"Dao Ngoc"},"message":"Ở Keiyaki Hiroba ngay phía trái cổng ra ga Saimta Shintoshin nhe","can_remove":false,"created_time":"2013-11-02T13:08:09+0000","like_count":0,"user_likes":false}},"paging":{"cursors":{"after":"NzUwODUwMDE4MjY1MDEx","before":"NzUwODUwMDE4MjY1MDEx"},"next":"https://graph.facebook.com/229244010425617_750849548265058/comments?limit=1&summary=1&after=NzUwODUwMDE4MjY1MDEx"},"summary":{"order":"chronological","total_count":16}}}