{"id":"229244010425617_750923434924336","type":"photo","object_id":"174647912738589","picture":"https://fbcdn-photos-c-a.akamaihd.net/hphotos-ak-prn1/t1.0-0/537999_174647912738589_1333890413_s.jpg","link":"https://www.facebook.com/photo.php?fbid=174647912738589&set=gm.750923434924336&type=1&relevant_count=1","from":{"id":"100005801442456","name":"An Nguyen"},"message":"Một chương trình học tập rất bổ ích và có lẽ là lần đầu xuất hiện trên các diễn đàn trực tuyến!sẽ là cơ hội tốt cho ai đang ôn N2 hay các bạn khác thử trình độ của mình.\r\n\r\nDự kiến phát sóng lần đầu vào thứ 3 ngày 5-11!! Chờ xem nhé❤️❤️❤️","created_time":"2013-11-02T14:22:55+0000","updated_time":"2013-11-03T01:51:47+0000","likes":{"data":{"100004965272241":{"id":"100004965272241","name":"Cỏ Nhỏ"},"100006984725456":{"id":"100006984725456","name":"Mai Anh"},"1733088155":{"id":"1733088155","name":"Lynn Kunz"},"1031841670":{"id":"1031841670","name":"Ngọc Trâm"},"100002157379029":{"id":"100002157379029","name":"Nguyen Hai Dung"},"1816269439":{"id":"1816269439","name":"Dao Ngoc"},"100006865964549":{"id":"100006865964549","name":"Vâng Em Đểu"},"100005775182411":{"id":"100005775182411","name":"Tuấn Milo"},"100003013864105":{"id":"100003013864105","name":"Thu Trang"},"657157297":{"id":"657157297","name":"Phan Dien"},"1821970083":{"id":"1821970083","name":"Nguyễn Mạnh Cường"},"100003763768548":{"id":"100003763768548","name":"Nguyễn Dũng"},"100004716640495":{"id":"100004716640495","name":"Thúy An Dương"},"100001438932250":{"id":"100001438932250","name":"Luong Anh Nguyet"},"100001848885057":{"id":"100001848885057","name":"Tiểu Mỡ Nhi"},"1822854513":{"id":"1822854513","name":"Sữa Chua Không Đường"},"100000047107627":{"id":"100000047107627","name":"Tiểu Phương"},"100001806981402":{"id":"100001806981402","name":"Cookie Panda"},"1575796946":{"id":"1575796946","name":"Bich Ptn"},"100002941809570":{"id":"100002941809570","name":"Hằng Nguyễn"},"100000062884729":{"id":"100000062884729","name":"Huệ Ca"},"100003881499881":{"id":"100003881499881","name":"Pe Pon"},"100004360751785":{"id":"100004360751785","name":"Hà Nguyễn"},"100002383557875":{"id":"100002383557875","name":"Minami MP"},"1305472811":{"id":"1305472811","name":"Tuan Nguyen"},"100002898154513":{"id":"100002898154513","name":"Gã Shrek"},"100001917879633":{"id":"100001917879633","name":"Phạm Sinh Quân"}},"paging":{"cursors":{"after":"MTAwMDA0OTY1MjcyMjQx","before":"MTAwMDA0OTY1MjcyMjQx"},"next":"https://graph.facebook.com/229244010425617_750923434924336/likes?limit=1&summary=1&after=MTAwMDA0OTY1MjcyMjQx"},"summary":{"total_count":29}},"comments":{"data":{"750925718257441":{"id":"750925718257441","from":{"id":"100001416272263","name":"Mai PB"},"message":"Unicom inc. có liên quan không? :-)","can_remove":false,"created_time":"2013-11-02T14:28:42+0000","like_count":0,"user_likes":false},"750926141590732":{"id":"750926141590732","from":{"id":"100005801442456","name":"An Nguyen"},"message":"Cho mọi người tò mò là cái gì! Còn cái đó là bìa sau sách , sẽ là quyển đầu tiên e chia sẽ^^ rất hay...","can_remove":false,"created_time":"2013-11-02T14:30:06+0000","like_count":0,"user_likes":false},"750926738257339":{"id":"750926738257339","from":{"id":"100001257093338","name":"Hanh Dang"},"message":"Phat song tren Cong dong Viet Nhat ha An Nguyen ?","message_tags":[{"id":"100005801442456","name":"An Nguyen","type":"user","offset":38,"length":9}],"can_remove":false,"created_time":"2013-11-02T14:31:33+0000","like_count":0,"user_likes":false},"750927124923967":{"id":"750927124923967","from":{"id":"100004360751785","name":"Hà Nguyễn"},"message":"trên kênh nhà mình à An Nguyen ? đặt chỗ hóng.Tò mò rất khổ :v","message_tags":[{"id":"100005801442456","name":"An Nguyen","type":"user","offset":24,"length":9}],"can_remove":false,"created_time":"2013-11-02T14:32:36+0000","like_count":0,"user_likes":false},"750935644923115":{"id":"750935644923115","from":{"id":"100005801442456","name":"An Nguyen"},"message":"😘😘😘","can_remove":false,"created_time":"2013-11-02T14:50:09+0000","like_count":0,"user_likes":false},"750941171589229":{"id":"750941171589229","from":{"id":"1822854513","name":"Sữa Chua Không Đường"},"message":"hóng quá <3","can_remove":false,"created_time":"2013-11-02T15:02:47+0000","like_count":0,"user_likes":false},"750977741585572":{"id":"750977741585572","from":{"id":"100003763768548","name":"Nguyễn Dũng"},"message":"Có vẻ hot đây","can_remove":false,"created_time":"2013-11-02T15:55:24+0000","like_count":0,"user_likes":false},"751263948223618":{"id":"751263948223618","from":{"id":"100006984725456","name":"Mai Anh"},"message":"Hot news nha ... (y)","can_remove":false,"created_time":"2013-11-03T01:51:47+0000","like_count":0,"user_likes":false}},"paging":{"cursors":{"after":"NzUwOTI1NzE4MjU3NDQx","before":"NzUwOTI1NzE4MjU3NDQx"},"next":"https://graph.facebook.com/229244010425617_750923434924336/comments?limit=1&summary=1&after=NzUwOTI1NzE4MjU3NDQx"},"summary":{"order":"chronological","total_count":9}}}