{"id":"229244010425617_751307321552614","type":"status","from":{"id":"100003878870701","name":"Phong Linh"},"message":"Chào các anh chị ạ. Em là sinh viên năm cuối 1 trường cao đẳng ở VN. Em rất yêu thích Nhật Bản và có niềm đam mê với tiếng Nhật. Em khao khát 1 lần được đặt chân lên đất nước Nhật Bản để học tập và làm việc, nhưng ở nhà ba mẹ chỉ làm nông nên dường như việc giúp em thực hiện mong ước bằng con đường đi du học tự túc là rất khó khăn và dường như không thể. Em có mong ước là xin 1 suất du học từ trường đại học Nhật. Em cũng có tìm hiểu trên mạng nhưng không hiểu rõ lắm. Các quý anh chị đi trước, có anh chị nào biết tư vấn giúp em với ạ, về trường em nên xin học bổng, về thủ tục và hồ sơ xin học bổng, và về cả phương pháp học để có thể xin được học bổng, giúp em thực hiện được ước mơ của mình ạ. Em xin chân thành cảm ơn quý anh chị!","created_time":"2013-11-03T03:50:36+0000","updated_time":"2013-11-03T12:02:59+0000","likes":{"data":{"100006436037655":{"id":"100006436037655","name":"Ngo Na"},"100002279693302":{"id":"100002279693302","name":"Không Ai"},"100001622486348":{"id":"100001622486348","name":"Tuan Lam"},"100006541920997":{"id":"100006541920997","name":"Sơn Lầm Lỡ"},"100006865964549":{"id":"100006865964549","name":"Vâng Em Đểu"},"100001458099624":{"id":"100001458099624","name":"Kham Pha"},"100004998936727":{"id":"100004998936727","name":"Kanda Kyota"},"100005801442456":{"id":"100005801442456","name":"An Nguyen"},"100004208134437":{"id":"100004208134437","name":"Tinh Te"}},"paging":{"cursors":{"after":"MTAwMDA2NDM2MDM3NjU1","before":"MTAwMDA2NDM2MDM3NjU1"},"next":"https://graph.facebook.com/229244010425617_751307321552614/likes?limit=1&summary=1&after=MTAwMDA2NDM2MDM3NjU1"},"summary":{"total_count":9}},"comments":{"data":{"751322468217766":{"id":"751322468217766","from":{"id":"1270781159","name":"Pham Thi Thanh Nga"},"message":"sang Nhật bạn học lên thạc sĩ hay học lại đại học, bạn hiện giờ có biết tiếng Nhật không, sang Nhật bạn định học bằng tiếng anh hay tiếng nhật, trình độ tiếng anh của bạn thế nào, mình biết học bổng mext của chính phủ Nhật dành cho sinh viên đại học ở Việt Nam nhưng mà học bổng này tuyển chọn khá là khắt khe.","can_remove":false,"created_time":"2013-11-03T04:18:28+0000","like_count":1,"user_likes":false},"751327418217271":{"id":"751327418217271","from":{"id":"100003878870701","name":"Phong Linh"},"message":"em học lên đại học chị à. tiếng anh giao tiếp của em khá ổn. em muốn học bằng tiếng Nhật. hiện giờ em có bằng N5 tiếng Nhật. em được biết muốn xin học bổng thì phải có bằng N3 trở lên. nên em đặt mục tiêu trong vòng 1 năm tới sẽ có ít nhất được bằng N3 ạ.","can_remove":false,"created_time":"2013-11-03T04:27:05+0000","like_count":0,"user_likes":false},"751333288216684":{"id":"751333288216684","from":{"id":"1270781159","name":"Pham Thi Thanh Nga"},"message":"bạn vào trang vied tham khảo xem, thực ra mình  đi theo tư phí nên cũng không rõ mấy loại học bổng xin từ Việt Nam thế nào","can_remove":false,"created_time":"2013-11-03T04:33:21+0000","like_count":0,"user_likes":false},"751333984883281":{"id":"751333984883281","from":{"id":"100003878870701","name":"Phong Linh"},"message":"vâng. em cảm ơn c.","can_remove":false,"created_time":"2013-11-03T04:33:53+0000","like_count":0,"user_likes":false},"751351638214849":{"id":"751351638214849","from":{"id":"100005327500410","name":"Hung Doan"},"message":"t cung muon dc di nhat","can_remove":false,"created_time":"2013-11-03T05:01:23+0000","like_count":0,"user_likes":false},"751351921548154":{"id":"751351921548154","from":{"id":"100004998936727","name":"Kanda Kyota"},"message":"Đầu tiên em nên cố gắng học tiếng Nhật nhé. Nếu em có N2 thì chắc chắn em có thể tìm đại học Nhật được.","can_remove":false,"created_time":"2013-11-03T05:02:23+0000","like_count":2,"user_likes":false},"751352361548110":{"id":"751352361548110","from":{"id":"100003878870701","name":"Phong Linh"},"message":"vâng. em đã và đang đặt mục tiêu lấy bằng N3, N2. Cảm ơn anh Kanda Kyota ạ.","message_tags":[{"id":"100004998936727","name":"Kanda Kyota","type":"user","offset":61,"length":11}],"can_remove":false,"created_time":"2013-11-03T05:03:56+0000","like_count":0,"user_likes":false},"751417081541638":{"id":"751417081541638","from":{"id":"1270781159","name":"Pham Thi Thanh Nga"},"message":"theo như mình biết thì các trường đại học của Nhật không cấp học bổng cho du học sinh, tất cả các học bổng đều là do các bạn xin được từ chính phủ Nhật, Việt Nam, jasso, các tổ chức đoàn thể và công ty Nhật. Bạn nên tìm hiểu kĩ, tất nhiên việc học tiếng nhật cũng rất quan trọng và mình cũng biết rất nhiều bạn có N2 từ khi ở Việt Nam. Nhưng tiếng nhật ko thôi ko đủ đâu bạn, bạn cũng phải biết được mấy kiến thức toán, lý, hoá, sử, địa, chính trị, xã hội, kinh tế mà mấy em cấp 3 Nhật, vào học cùng với học sinh Nhật ko được ưu tiên bất cứ cái gì hơn, tiếng nhật N1 vào học vẫn còn chật vật. Mình miêu tả vậy để bạn hình dung thôi, đại loại học tiếng Nhật là bước đầu tiên trong quá trình. Thông thường học sinh nước ngoài phải học ở trường tiếng nhật từ 1 đến 2 năm để tích luỹ kiến thức trước bạn ạ","can_remove":false,"created_time":"2013-11-03T08:15:21+0000","like_count":1,"user_likes":false},"751496984866981":{"id":"751496984866981","from":{"id":"100001622486348","name":"Tuan Lam"},"message":"Co gang Phan đấu nhat dinh thanh cong","can_remove":false,"created_time":"2013-11-03T12:02:59+0000","like_count":1,"user_likes":false}},"paging":{"cursors":{"after":"NzUxMzIyNDY4MjE3NzY2","before":"NzUxMzIyNDY4MjE3NzY2"},"next":"https://graph.facebook.com/229244010425617_751307321552614/comments?limit=1&summary=1&after=NzUxMzIyNDY4MjE3NzY2"},"summary":{"order":"chronological","total_count":9}}}