{"id":"229244010425617_751437014872978","type":"photo","object_id":"654048394617147","picture":"https://fbcdn-photos-h-a.akamaihd.net/hphotos-ak-ash4/t1.0-0/1454637_654048394617147_519093734_s.jpg","link":"https://www.facebook.com/photo.php?fbid=654048394617147&set=gm.751437014872978&type=1&relevant_count=1","from":{"id":"100000359762118","name":"Mi Tra"},"message":"Xem lại album cũ tình cờ tìm được 2 bức ảnh chụp cùng 1 địa điểm tại núi Oze tỉnh Gunma. Thiên nhiên quả là kỳ diệu và thú vị. \nĐang mùa lá đỏ, cả nhà mình cũng xách ba lô lên và đi nào!!!! Săn những bức hình tuyệt đẹp làm kỉ niệm nào(*^◯^*)","created_time":"2013-11-03T09:10:31+0000","updated_time":"2013-11-03T14:26:55+0000","likes":{"data":{"1416265619":{"id":"1416265619","name":"Starwar Bbj"},"798546542":{"id":"798546542","name":"Peco Daydreamer"},"100004642933206":{"id":"100004642933206","name":"Aloha Aloha"},"100003773667252":{"id":"100003773667252","name":"Phương Thảo"},"100000193631571":{"id":"100000193631571","name":"Khánh-Linh Hoàng"},"1148962646":{"id":"1148962646","name":"Tran Thi Tuong Van"},"100004458583267":{"id":"100004458583267","name":"Trung Quang"},"100003671803669":{"id":"100003671803669","name":"Tojika Sakura"},"100000359762118":{"id":"100000359762118","name":"Mi Tra"},"1821970083":{"id":"1821970083","name":"Nguyễn Mạnh Cường"},"100001257093338":{"id":"100001257093338","name":"Hanh Dang"},"100003665380536":{"id":"100003665380536","name":"Thanh PT"},"100001365545442":{"id":"100001365545442","name":"Nguyễn Nam"},"100001416272263":{"id":"100001416272263","name":"Mai PB"},"100004608482123":{"id":"100004608482123","name":"Bé Bi"},"100001193749870":{"id":"100001193749870","name":"Ông Văn Khiết"},"100002327743510":{"id":"100002327743510","name":"Tuan Thanh"},"100005436934892":{"id":"100005436934892","name":"Quang Quynh"},"560246902":{"id":"560246902","name":"Anh Ngọc"},"100003775274952":{"id":"100003775274952","name":"Masahiro Kano"},"100000747635624":{"id":"100000747635624","name":"Nguyễn Xuân Đại"},"100000381394367":{"id":"100000381394367","name":"Thành Nguyễn"},"100003853752853":{"id":"100003853752853","name":"Khanh Vy Le"},"100003822434250":{"id":"100003822434250","name":"Sói Đây Gà Đâu"},"100002327089512":{"id":"100002327089512","name":"Lộc Nguyễn"},"1322880906":{"id":"1322880906","name":"Lê Thanh Hà"},"100003118911926":{"id":"100003118911926","name":"Trà Giang Trần"},"1250876107":{"id":"1250876107","name":"Kim Hoan"},"100004063125151":{"id":"100004063125151","name":"Đốm Smile"},"100003005597243":{"id":"100003005597243","name":"Zany Royal"},"100002826418598":{"id":"100002826418598","name":"Harry Minji"},"1846809835":{"id":"1846809835","name":"Dorae Phương"},"100003124307460":{"id":"100003124307460","name":"Duc Giang"},"100000120242088":{"id":"100000120242088","name":"Nevaeh Hara"},"100002959594535":{"id":"100002959594535","name":"Nguyen Ngoc Anh"},"100001458099624":{"id":"100001458099624","name":"Kham Pha"},"100005801442456":{"id":"100005801442456","name":"An Nguyen"},"100003828118579":{"id":"100003828118579","name":"Khanh Linh"},"100000435036779":{"id":"100000435036779","name":"Hiep Dao Xuan"},"100006838682202":{"id":"100006838682202","name":"Say Bia"},"100000271705877":{"id":"100000271705877","name":"Nguyễn Văn Minh"},"100002833803367":{"id":"100002833803367","name":"Hoang Anh Luong"},"100003700084315":{"id":"100003700084315","name":"Trầm Luân"},"100006102422065":{"id":"100006102422065","name":"Cókhônggiữ Mấtđừngtìm"},"100002428163247":{"id":"100002428163247","name":"Trần Đức Hùng"},"100004251845458":{"id":"100004251845458","name":"Hoàng Anh"}},"paging":{"cursors":{"after":"MTQxNjI2NTYxOQ==","before":"MTQxNjI2NTYxOQ=="},"next":"https://graph.facebook.com/229244010425617_751437014872978/likes?limit=1&summary=1&after=MTQxNjI2NTYxOQ%3D%3D"},"summary":{"total_count":47}},"comments":{"data":{"751460574870622":{"id":"751460574870622","from":{"id":"100005801442456","name":"An Nguyen"},"message":"Thiên nhiên Nhật đẹp thật!","can_remove":false,"created_time":"2013-11-03T10:24:22+0000","like_count":1,"user_likes":false},"751461568203856":{"id":"751461568203856","from":{"id":"100001458099624","name":"Kham Pha"},"message":"Gunma hơi xa. Kanagawa ngoài Hakone có chỗ nào lá đỏ đẹp ko nhỉ?","can_remove":false,"created_time":"2013-11-03T10:26:48+0000","like_count":0,"user_likes":false},"751464314870248":{"id":"751464314870248","from":{"id":"100005801442456","name":"An Nguyen"},"message":"Nói guma mới nhớ! Thứ 3 đi Guma nữa @.@ nãn gì đâu","can_remove":false,"created_time":"2013-11-03T10:36:31+0000","like_count":0,"user_likes":false},"751465321536814":{"id":"751465321536814","from":{"id":"100000359762118","name":"Mi Tra"},"message":"Ở Kanagawa thì gần nhà mình có 2 địa điểm.\n Miyagase (宮ヶ瀬ダム). Đi đến ga Honatsugi rồi đi bus vào. \nOYama (大山). Đi tới ga Isehara rồi đi bus vào. Ở đây từ 23/11~1/12 có thắp đèn buổi tối. Đẹp lắm luôn.","can_remove":false,"created_time":"2013-11-03T10:40:05+0000","like_count":2,"user_likes":false},"751465448203468":{"id":"751465448203468","from":{"id":"100000359762118","name":"Mi Tra"},"message":"An Nguyen: mình đang ở Gunma ^^","message_tags":[{"id":"100005801442456","name":"An Nguyen","type":"user","offset":0,"length":9}],"can_remove":false,"created_time":"2013-11-03T10:40:36+0000","like_count":0,"user_likes":false},"751466284870051":{"id":"751466284870051","from":{"id":"100005801442456","name":"An Nguyen"},"message":"À mà hôm nay có lễ hội gì gần shinjuku đấy , qua đang làm khách đông bà cố! Ai coi thử nó là cái gì thông báo các mem tới chơi^^ 神社 gì gì ấy","can_remove":false,"created_time":"2013-11-03T10:43:04+0000","like_count":1,"user_likes":false},"751466648203348":{"id":"751466648203348","from":{"id":"100005801442456","name":"An Nguyen"},"message":"Sao suốt ngày cưỡi xe phiêu bạt thế@.@","can_remove":false,"created_time":"2013-11-03T10:43:57+0000","like_count":1,"user_likes":false},"751467104869969":{"id":"751467104869969","from":{"id":"100000359762118","name":"Mi Tra"},"message":"Hihi.(hình như sinh vào giờ ngựa). Ko đi thì rất phí. Cuộc đời có mấy mươi năm đâu ^^","can_remove":false,"created_time":"2013-11-03T10:45:28+0000","like_count":5,"user_likes":false},"751467364869943":{"id":"751467364869943","from":{"id":"100005801442456","name":"An Nguyen"},"message":"E chịu độ chất của \" chị \"!","can_remove":false,"created_time":"2013-11-03T10:46:18+0000","like_count":0,"user_likes":false},"751467651536581":{"id":"751467651536581","from":{"id":"100000359762118","name":"Mi Tra"},"message":"Há há. Thì An cũng đâu ngồi một chỗ đâu. Thấy An cũng đi suốt mà :)))","can_remove":false,"created_time":"2013-11-03T10:47:16+0000","like_count":3,"user_likes":false},"751562301527116":{"id":"751562301527116","from":{"id":"100000271705877","name":"Nguyễn Văn Minh"},"message":"Minh o gunma, ma chua biet cho do, ngay ngi nhat dinh se di","can_remove":false,"created_time":"2013-11-03T14:23:16+0000","like_count":0,"user_likes":false},"751563668193646":{"id":"751563668193646","from":{"id":"100000359762118","name":"Mi Tra"},"message":"Ở đó lá đỏ sớm nên giờ bắt đầu rụng rồi. Bạn tranh thủ đi sớm ko là hết đẹp. Đi chỗ này nên đi bằng oto. Chạy từ núi này qua núi khác rất tuyệt.","can_remove":false,"created_time":"2013-11-03T14:26:55+0000","like_count":1,"user_likes":false}},"paging":{"cursors":{"after":"NzUxNDYwNTc0ODcwNjIy","before":"NzUxNDYwNTc0ODcwNjIy"},"next":"https://graph.facebook.com/229244010425617_751437014872978/comments?limit=1&summary=1&after=NzUxNDYwNTc0ODcwNjIy"},"summary":{"order":"chronological","total_count":12}}}