{"id":"229244010425617_751499168200096","type":"photo","object_id":"582770701784118","picture":"https://fbcdn-photos-f-a.akamaihd.net/hphotos-ak-frc3/t1.0-0/1456671_582770701784118_2007969840_s.jpg","link":"https://www.facebook.com/photo.php?fbid=582770701784118&set=gm.751499168200096&type=1&relevant_count=1","from":{"id":"100001535813596","name":"Đạt Acoustic"},"message":"a chị ơi, e đang học N2 , mà ngư pháp e không hiểu!!! Cái chương trình anh An Nguyen khi nào tiếp tục vậy,chúng e đang gặp khó khăn về 2 quyển sách này","created_time":"2013-11-03T12:07:49+0000","updated_time":"2013-11-04T06:45:03+0000","likes":{"data":{"100001458099624":{"id":"100001458099624","name":"Kham Pha"},"100000027754899":{"id":"100000027754899","name":"Hoang Van Ba"},"100005801442456":{"id":"100005801442456","name":"An Nguyen"},"100006867721682":{"id":"100006867721682","name":"Yuri Sabishii"},"1322880906":{"id":"1322880906","name":"Lê Thanh Hà"},"100001535813596":{"id":"100001535813596","name":"Đạt Acoustic"}},"paging":{"cursors":{"after":"MTAwMDAxNDU4MDk5NjI0","before":"MTAwMDAxNDU4MDk5NjI0"},"next":"https://graph.facebook.com/229244010425617_751499168200096/likes?limit=1&summary=1&after=MTAwMDAxNDU4MDk5NjI0"},"summary":{"total_count":7}},"comments":{"data":{"751521478197865":{"id":"751521478197865","from":{"id":"100006984725456","name":"Mai Anh"},"message":"An Nguyen Sếp ơi ... có khiếu kiện kìa","message_tags":[{"id":"100005801442456","name":"An Nguyen","type":"user","offset":0,"length":9}],"can_remove":false,"created_time":"2013-11-03T12:52:52+0000","like_count":1,"user_likes":false},"751591491524197":{"id":"751591491524197","from":{"id":"100005801442456","name":"An Nguyen"},"message":"Mai AnhChuyển giao trách nhiệm rồi nhé! Quyển sách ngữ pháp e đưa rất hay đấy ! Đầy đủ ý","message_tags":[{"id":"100006984725456","name":"Mai Anh","type":"user","offset":0,"length":7}],"can_remove":false,"created_time":"2013-11-03T15:26:08+0000","like_count":0,"user_likes":false},"751626024854077":{"id":"751626024854077","from":{"id":"100001535813596","name":"Đạt Acoustic"},"message":"dạ vâng ạ","can_remove":false,"created_time":"2013-11-03T16:28:35+0000","like_count":0,"user_likes":false},"751875011495845":{"id":"751875011495845","from":{"id":"100000027754899","name":"Hoang Van Ba"},"message":"Ôh. Lâu rồi ko nhìn quyển này. Nhớ quá đh ah","can_remove":false,"created_time":"2013-11-04T00:50:52+0000","like_count":0,"user_likes":false},"751888288161184":{"id":"751888288161184","from":{"id":"100006984725456","name":"Mai Anh"},"message":"An Nguyen MA ko có sách này, chỉ có duy nhất cuốn Somatome thôi. An chuyển giao trách nhiệm kiểu như vậy, ko vui đâu, MA còn chưa bik phải làm thế nào :(","message_tags":[{"id":"100005801442456","name":"An Nguyen","type":"user","offset":0,"length":9}],"can_remove":false,"created_time":"2013-11-04T01:19:51+0000","like_count":0,"user_likes":false},"751891718160841":{"id":"751891718160841","from":{"id":"100006984725456","name":"Mai Anh"},"message":"Đạt Acoustic Bạn không hiểu phần ngữ pháp nào thì post lên hỏi, mọi người sẽ trao đổi, thảo luận, trả lời giúp bạn hiểu. Bạn vui lòng hỏi cụ thể hơn đi nhé. Theo mình dc biết thì chương trình của An Nguyen là giúp mọi người ôn tập ngữ pháp N2, nếu bạn chưa học hết mà bước ngay vào ôn tập thì mình nghĩ là chọn phương pháp khác sẽ tốt hơn. Chúc bạn học giỏi !","message_tags":[{"id":"100001535813596","name":"Đạt Acoustic","type":"user","offset":0,"length":12},{"id":"100005801442456","name":"An Nguyen","type":"user","offset":196,"length":9}],"can_remove":false,"created_time":"2013-11-04T01:26:51+0000","like_count":1,"user_likes":false},"751982421485104":{"id":"751982421485104","from":{"id":"100001535813596","name":"Đạt Acoustic"},"message":"dạ vâng cảm ơn chi Mai Anh","can_remove":false,"created_time":"2013-11-04T03:58:13+0000","like_count":0,"user_likes":false},"752047178145295":{"id":"752047178145295","from":{"id":"100001754136107","name":"Nguyễn Tuấn Vũ"},"message":"Quyển phía dưới khi ôn lại, lam bai tập hay lắm, nó phân từ khó đến dễ.","can_remove":false,"created_time":"2013-11-04T06:04:23+0000","like_count":0,"user_likes":false},"752057388144274":{"id":"752057388144274","from":{"id":"100001156666759","name":"Kenshuu Steam"},"message":"nên post những gì không hiểu nên đây để mọi người trao đổi dễ hơn hỏi 1 người","can_remove":false,"created_time":"2013-11-04T06:45:03+0000","like_count":0,"user_likes":false}},"paging":{"cursors":{"after":"NzUxNTIxNDc4MTk3ODY1","before":"NzUxNTIxNDc4MTk3ODY1"},"next":"https://graph.facebook.com/229244010425617_751499168200096/comments?limit=1&summary=1&after=NzUxNTIxNDc4MTk3ODY1"},"summary":{"order":"chronological","total_count":10}}}