{"id":"229244010425617_751539874862692","type":"link","picture":"https://fbcdn-profile-a.akamaihd.net/hprofile-ak-prn2/t1.0-1/c0.0.100.100/p100x100/1904247_641766445890599_455635828_a.jpg","link":"https://www.facebook.com/tiengnhat4s/posts/582321018501809","from":{"id":"100004028509063","name":"Ruby Rubie"},"created_time":"2013-11-03T13:31:03+0000","updated_time":"2013-11-03T14:32:39+0000","likes":{"data":{"100006886237437":{"id":"100006886237437","name":"Akira Quỳnh"},"100004927662273":{"id":"100004927662273","name":"Thuy Dinh"},"100006678781295":{"id":"100006678781295","name":"ふく しの"}},"paging":{"cursors":{"after":"MTAwMDA2ODg2MjM3NDM3","before":"MTAwMDA2ODg2MjM3NDM3"},"next":"https://graph.facebook.com/229244010425617_751539874862692/likes?limit=1&summary=1&after=MTAwMDA2ODg2MjM3NDM3"},"summary":{"total_count":3}},"comments":{"data":{"751564018193611":{"id":"751564018193611","from":{"id":"100005478454231","name":"Maruko Chan"},"message":"cho em hỏi ạ chỉ học có 5 bài đầu thôi ạ ad?","can_remove":false,"created_time":"2013-11-03T14:27:39+0000","like_count":0,"user_likes":false},"751565931526753":{"id":"751565931526753","from":{"id":"100004028509063","name":"Ruby Rubie"},"message":"Maruko Chan đây là khoá học định hướng nên trung tâm chỉ dạy 2 bảng chữ cái và 5 bài bạn ạ. Nếu bạn muốn học tiếp thì đăng kí học tiếp tại trung tâm bạn ạ","message_tags":[{"id":"100005478454231","name":"Maruko Chan","type":"user","offset":0,"length":11}],"can_remove":false,"created_time":"2013-11-03T14:32:39+0000","like_count":0,"user_likes":false}},"paging":{"cursors":{"after":"NzUxNTY0MDE4MTkzNjEx","before":"NzUxNTY0MDE4MTkzNjEx"},"next":"https://graph.facebook.com/229244010425617_751539874862692/comments?limit=1&summary=1&after=NzUxNTY0MDE4MTkzNjEx"},"summary":{"order":"chronological","total_count":2}}}