{"id":"229244010425617_752061414810538","type":"video","picture":"https://fbexternal-a.akamaihd.net/safe_image.php?d=AQBC01j9u6y58Bcx&w=130&h=130&url=http%3A%2F%2Fi1.ytimg.com%2Fvi%2FbcgrWlLK7jI%2Fhqdefault.jpg%3Ffeature%3Dog","link":"http://www.youtube.com/watch?v=bcgrWlLK7jI","source":"http://www.youtube.com/v/bcgrWlLK7jI?version=3&autohide=1&autoplay=1","from":{"id":"100004094346107","name":"Thuy Nga Nguyen"},"message":"Chào cả nhà , Mình là Thy Nga là admin mới , hôm nay là lần đầu tiên mình chia sẻ một bài hát tiếng Nhật , mọi người cùng nghe và cho mình ý kiến nhé \nChúc cả nhà một buổi chiều vui vẻ:)\n\n太陽の歌\nCa khúc  mặt trời\nwww.youtube.com/watch?v=bcgrWlLK7jI\n\n1.震えている 私の手にはじめて君が触れて\nKhi lần đầu tiên anh chạm vào đôi bàn tay đang run rẩy của em.\n震える（ふるえる）：Run rẩy, rung động, lắc\n触れる（さわれる）：Chạm, tiếp xúc\n\n2.優しい気持ち 暖かさにやっと気づいたんだ\nCuối cùng thì em đã hiểu được xúc cảm của sự ấm áp\n 暖かさ：Ấm áp, nồng hậu\nやっと: Cuối cùng\n\n3. 閉ざした窓 開ければ新しい風が吹いた\nNếu em mở ra khung cửa sổ đã bị đóng chặt\nThì sẽ có một làn gió mới thổi vào\n閉ざす：Khóa lại, bịt lại, vặn lại, đóng lại \n閉ざした窓: Cửa sổ bị đóng lại, 開ければ:　開ける：Mở, mở ra\n Nếu mở ra\n4. 笑って 泣いて 君と出会えて\nMỉm cười, bật khóc và tình cờ gặp anh\n出会う：cuộc hội ngộ, gặp gỡ ngẫu nhiên\n\n5. 見える 世界は 輝きだした\nThế giới mà em nhìn thấy đã bắt đầu tỏa sáng\n見える: Nhìn thấy, 輝き（かがやき）：Tỏa sáng, rực rỡ\n\n6. ひまわり揺れる タイヨウの下で\nNhững bông hoa hướng dương đu đưa dưới ánh mặt trời\nひまわり:  Hoa hướng dương, 揺れる: Run rẩy, đu đưa, タイヨウ（太陽）: Mặt trời\n\n7.感じていた 風を 君を\n感じる（かんじる）：Cảm nhận, cảm giác, cảm thấy.\nEm cảm nhận được làn gió và cảm nhận được anh\n\n8. 信じること 迷うことも立ち止まることも全部\nNiềm tin, sự lầm lạc, sự bất lực và tất cả\n信じる: Niềm tin, 迷う: Lạc lối, lầm lạc, 立ち止まる: Dừng lại\n\n9.私が今ここで生きてる　10．答えかもしれない\nCó lẽ đó là câu trả lời cho sự sinh ra của em ở đây tại lúc này.\n生きてる　（生きてる）：Sống, かもしれない: cấu trúc (có lẽ...)\n\n10. モノクロの毎日が色づいてゆくように\nHãy để em chấm dứt những ngày buồn chán vô vị để bước vào cuộc sống muôn màu\nモノクロ: Đơn sắc, một màu, ゆく(行く)：đi,ように: Để mà/ cốt để mà\n\n11. 笑って 泣いて 君と出会えて\nMỉm cười, bật khóc và tình cờ gặp anh\n\n12. 続く未来は 輝いていた。\nTương lai vẫn tiếp tục tỏa sáng\n続く(つづく)：Tiếp tục、未来（みらい）：Tương lai\n\n13. ひまわり揺れる タイヨウの下で\nNhững bông hoa hướng dương đu đưa dưới ánh mặt trời\n\n14．私のまま明日を歌うよ。\nEm hát lên bài ca cho ngày mai như em đã từng như thế\n\n15.限りある日々を止まらない時間を\nNếu ngày vẫn cứ tiếp diễn, thời gian cứ thế trôi đi\n止まらない: Không thể dừng lại  Trôi đi, 日々(ひび):Ngày ngày\n\n16．どれだけ愛せるかな。愛せるよね。\nThì ta có thể yêu nhau đến chừng nào. \n\n17．君がいれば光さえもそらさないで\n\n18. 笑って 泣いて 君と出会えて\nMỉm cười, bật khóc và tình cờ gặp anh\n\n19. 続く未来は 輝いていた。\nTương lai vẫn tiếp tục tỏa sáng\n\n20. ひまわり揺れる タイヨウの下で\nNhững bông hoa hướng dương đu đưa dưới ánh mặt trời\n\n21．私のまま明日を歌うよ。\nEm hát lên bài ca cho ngày mai như em đã từng như thế\n\n22．ありがとう伝えたい今なら言えるよ\nLúc này nếu có thể em chỉ muốn cám ơn anh\n\n23．過ごした季節もわすれはしないよ。\nEm không thể quên khoảng thời gian được ở bên anh\n過ごした（すごした）：Đã trải qua ( thể quá khứ)\n\n                                                              Thy Nga\n\n                                                           Thy Nga","created_time":"2013-11-04T06:59:46+0000","updated_time":"2013-11-05T02:37:03+0000","likes":{"data":{"100003670920063":{"id":"100003670920063","name":"Hoàng Dung"},"100001754136107":{"id":"100001754136107","name":"Nguyễn Tuấn Vũ"},"100002799210522":{"id":"100002799210522","name":"Lệ Đào"},"100003828347619":{"id":"100003828347619","name":"Huyền Tuyết"},"100002137253818":{"id":"100002137253818","name":"Anh Khoa"},"100001755605266":{"id":"100001755605266","name":"Totto Chan"},"100003011417151":{"id":"100003011417151","name":"Hue Kim"},"1816269439":{"id":"1816269439","name":"Dao Ngoc"},"100001817747524":{"id":"100001817747524","name":"Nguyễn Hữu Tuân"},"100001695345798":{"id":"100001695345798","name":"Tyn Aki"},"100001227216008":{"id":"100001227216008","name":"Phùng Tiến"},"100004658310795":{"id":"100004658310795","name":"Lu Li"},"100006767705219":{"id":"100006767705219","name":"Kim Liên"},"100003209298923":{"id":"100003209298923","name":"Phuongcham Nguyen"},"100002898154513":{"id":"100002898154513","name":"Gã Shrek"},"100002829897061":{"id":"100002829897061","name":"Xiêu Nhân"},"100003755289414":{"id":"100003755289414","name":"Unsozack"},"100003310618708":{"id":"100003310618708","name":"BiNô Triết Gia"},"100001550033545":{"id":"100001550033545","name":"Dang Luan Dang Luan"},"100002941809570":{"id":"100002941809570","name":"Hằng Nguyễn"},"100000708075798":{"id":"100000708075798","name":"Chibi Baka"},"100003013864105":{"id":"100003013864105","name":"Thu Trang"},"100001650541298":{"id":"100001650541298","name":"Do Van Tuan"},"100005801442456":{"id":"100005801442456","name":"An Nguyen"},"100000064686295":{"id":"100000064686295","name":"Huy Roli"},"100002131699773":{"id":"100002131699773","name":"Minh Chau"},"100003907081547":{"id":"100003907081547","name":"Van Ta"},"100004094346107":{"id":"100004094346107","name":"Thuy Nga Nguyen"},"100001416272263":{"id":"100001416272263","name":"Mai PB"},"1146680551":{"id":"1146680551","name":"優しい なぁ"},"100001458099624":{"id":"100001458099624","name":"Kham Pha"},"100006507411089":{"id":"100006507411089","name":"ヴァン ミン"}},"paging":{"cursors":{"after":"MTAwMDAzNjcwOTIwMDYz","before":"MTAwMDAzNjcwOTIwMDYz"},"next":"https://graph.facebook.com/229244010425617_752061414810538/likes?limit=1&summary=1&after=MTAwMDAzNjcwOTIwMDYz"},"summary":{"total_count":33}},"comments":{"data":{"752066464810033":{"id":"752066464810033","from":{"id":"1146680551","name":"優しい なぁ"},"message":"Chi tiết gọn gàng dễ hiểu .cảm ơn bạn nhiều","can_remove":false,"created_time":"2013-11-04T07:16:35+0000","like_count":1,"user_likes":false},"752069934809686":{"id":"752069934809686","from":{"id":"100004094346107","name":"Thuy Nga Nguyen"},"message":"Có chỗ nào sai sót hay cần bổ sung thì các bạn hãy góp ý nhé !:)","can_remove":false,"created_time":"2013-11-04T07:23:41+0000","like_count":0,"user_likes":false},"752078088142204":{"id":"752078088142204","from":{"id":"100001458099624","name":"Kham Pha"},"message":"Trình bày sáng sủa, dễ đọc +1\nThiếu giải thích ngữ pháp khó +0 :)","can_remove":false,"created_time":"2013-11-04T07:26:06+0000","like_count":2,"user_likes":false},"752089864807693":{"id":"752089864807693","from":{"id":"100004094346107","name":"Thuy Nga Nguyen"},"message":"chỗ nào vậy anh Kham Pha?","message_tags":[{"id":"100001458099624","name":"Kham Pha","type":"user","offset":16,"length":8}],"can_remove":false,"created_time":"2013-11-04T07:30:06+0000","like_count":0,"user_likes":false},"752093101474036":{"id":"752093101474036","from":{"id":"100001458099624","name":"Kham Pha"},"message":"Ví dụ どれだけ, học sơ cấp ko biết đc đâu. Hoặc khác biệt giữa mấy từ 閉める 閉じる 閉ざす. Cái nào tha động từ, tự đt. Khi nào dùng với cái nào...","can_remove":false,"created_time":"2013-11-04T07:40:03+0000","like_count":0,"user_likes":false},"752093501473996":{"id":"752093501473996","from":{"id":"100001458099624","name":"Kham Pha"},"message":"Cấu trúc ように cũng rất dễ gây nhầm lẫn, vì có nhiều kiểu giống giống nhau.","can_remove":false,"created_time":"2013-11-04T07:41:17+0000","like_count":0,"user_likes":false},"752093881473958":{"id":"752093881473958","from":{"id":"100001458099624","name":"Kham Pha"},"message":"Giải thích cấu trúc trong bài hát đơn lẻ đã là tốt nhưng khả năng liên tưởng đến các cấu trúc khác tương tự để so sánh với nhau còn tốt hơn :)","can_remove":false,"created_time":"2013-11-04T07:42:47+0000","like_count":0,"user_likes":false},"752094914807188":{"id":"752094914807188","from":{"id":"100004094346107","name":"Thuy Nga Nguyen"},"message":"vậy em còn giải thích sơ sài quá, em sợ giải thích dài các bạn sẽ bị nản không muốn đọc :(","can_remove":false,"created_time":"2013-11-04T07:46:39+0000","like_count":1,"user_likes":false},"752095588140454":{"id":"752095588140454","from":{"id":"100002131699773","name":"Minh Chau"},"message":"Hay quá. Làm sao để tải về máy điện thoại để đi đâu cũng nghe được nhỉ???","can_remove":false,"created_time":"2013-11-04T07:49:08+0000","like_count":0,"user_likes":false},"752095911473755":{"id":"752095911473755","from":{"id":"100001458099624","name":"Kham Pha"},"message":"Nghĩ vậy cũng đúng nhưng thế thì ta tìm cách tách nhỏ ra chứ ko nên giảm chất lượng bài viết :)","can_remove":false,"created_time":"2013-11-04T07:50:33+0000","like_count":0,"user_likes":false},"752096291473717":{"id":"752096291473717","from":{"id":"100004094346107","name":"Thuy Nga Nguyen"},"message":"uh tiêu chí là đầy đủ xúc tích phải không anh Kham Pha!","message_tags":[{"id":"100001458099624","name":"Kham Pha","type":"user","offset":46,"length":8}],"can_remove":false,"created_time":"2013-11-04T07:51:52+0000","like_count":0,"user_likes":false},"752096368140376":{"id":"752096368140376","from":{"id":"100000064686295","name":"Huy Roli"},"message":"hịc, bạn khám phá yêu cầu cao quá, mình thấy cứ thế này, bạn nào chú ý thì sẽ đọc, không hiểu đâu sẽ hỏi, chứ bầy sẵn lên mà không học thì phí công của admin Thuy Nga","can_remove":false,"created_time":"2013-11-04T07:52:16+0000","like_count":2,"user_likes":false},"752097064806973":{"id":"752097064806973","from":{"id":"100004094346107","name":"Thuy Nga Nguyen"},"message":"Mọi người góp ý để cùng nhau tiến bộ mà bạn Huy Roli :)","message_tags":[{"id":"100000064686295","name":"Huy Roli","type":"user","offset":44,"length":8}],"can_remove":false,"created_time":"2013-11-04T07:54:57+0000","like_count":0,"user_likes":false},"752097094806970":{"id":"752097094806970","from":{"id":"100001458099624","name":"Kham Pha"},"message":"Súc tích có mức độ, ko rườm rà. Đủ cho mọi người hiểu cái hay của bài hát. Cuối cùng viết thế nào thì tưn các admin phải ra quyết định, ko ai bắt ép được :)","can_remove":false,"created_time":"2013-11-04T07:55:04+0000","like_count":2,"user_likes":false},"752097411473605":{"id":"752097411473605","from":{"id":"100004094346107","name":"Thuy Nga Nguyen"},"message":"Em hiểu rồi anh Kham Pha:)","message_tags":[{"id":"100001458099624","name":"Kham Pha","type":"user","offset":16,"length":8}],"can_remove":false,"created_time":"2013-11-04T07:56:22+0000","like_count":0,"user_likes":false},"752098081473538":{"id":"752098081473538","from":{"id":"100004094346107","name":"Thuy Nga Nguyen"},"message":"Em chỉ tải mp3 về máy thôi chị Minh Chauòn yutobe thì em cũng không biết! Cái này có thể nhờ anh Kham Pha được không?","message_tags":[{"id":"100002131699773","name":"Minh Chau","type":"user","offset":31,"length":9},{"id":"100001458099624","name":"Kham Pha","type":"user","offset":97,"length":8}],"can_remove":false,"created_time":"2013-11-04T07:58:04+0000","like_count":0,"user_likes":false},"752098734806806":{"id":"752098734806806","from":{"id":"100004094346107","name":"Thuy Nga Nguyen"},"message":"uh tải yutobe đó Huy Roli!","message_tags":[{"id":"100000064686295","name":"Huy Roli","type":"user","offset":17,"length":8}],"can_remove":false,"created_time":"2013-11-04T08:00:23+0000","like_count":0,"user_likes":false},"752099411473405":{"id":"752099411473405","from":{"id":"100004094346107","name":"Thuy Nga Nguyen"},"message":"bạn biết không Huy Roli","message_tags":[{"id":"100000064686295","name":"Huy Roli","type":"user","offset":15,"length":8}],"can_remove":false,"created_time":"2013-11-04T08:03:16+0000","like_count":0,"user_likes":false},"752099608140052":{"id":"752099608140052","from":{"id":"100000064686295","name":"Huy Roli"},"message":"bạn thay chữ https://www. bằng ss trên đường link của youtube đó, xong đợi khoảng 30s thì chon kiểu đuôi để click vào, chú ý không được ấn vào chữ download mà chỉ được ấn vào kiểu đuôi file muốn download về máy thôi nhé","can_remove":false,"created_time":"2013-11-04T08:04:04+0000","like_count":0,"user_likes":false},"752099654806714":{"id":"752099654806714","from":{"id":"100000064686295","name":"Huy Roli"},"message":"hịc","can_remove":false,"created_time":"2013-11-04T08:04:22+0000","like_count":0,"user_likes":false},"752099681473378":{"id":"752099681473378","from":{"id":"100000064686295","name":"Huy Roli"},"message":"vừa viết 1 đoạn mà đâu mất rồi","can_remove":false,"created_time":"2013-11-04T08:04:30+0000","like_count":0,"user_likes":false},"752100028140010":{"id":"752100028140010","from":{"id":"100000064686295","name":"Huy Roli"},"message":"ví dụ nhé đây là link youtube http://www.youtube.com/watch?v=yXUk-5GJmm4&list=RD02bcgrWlLK7jI thì bạn thay phần đầu  http://www. thành ss rồi vào chọn đuôi file là download được, nhưng chú ý ko đc ấn vào chữ download nhé, cứ click vào định dạng đuôi file là oke","can_remove":false,"created_time":"2013-11-04T08:05:55+0000","like_count":0,"user_likes":false},"752100084806671":{"id":"752100084806671","from":{"id":"100001458099624","name":"Kham Pha"},"message":"Ở Nhật download video từ youtube có thể bị phạt 200 man và 2 năm tù giam đó. Luật mới có hiệu lực tháng 10 năm ngoái.","can_remove":false,"created_time":"2013-11-04T08:06:10+0000","like_count":2,"user_likes":false},"752100154806664":{"id":"752100154806664","from":{"id":"100000064686295","name":"Huy Roli"},"message":"http://en.savefrom.net/#url=http://youtube.com/watch?v=QBT4KyEb234&list=RD02bcgrWlLK7jI&utm_source=youtube.com&utm_medium=short_domains&utm_campaign=ssyoutube.com","can_remove":false,"created_time":"2013-11-04T08:06:26+0000","like_count":1,"user_likes":false},"752100254806654":{"id":"752100254806654","from":{"id":"100000064686295","name":"Huy Roli"},"message":"đấy, nó sẽ ra cái trang này này","can_remove":false,"created_time":"2013-11-04T08:06:41+0000","like_count":0,"user_likes":false},"752100378139975":{"id":"752100378139975","from":{"id":"100000064686295","name":"Huy Roli"},"message":"cẩn thận nhé kẻo đi tù","can_remove":false,"created_time":"2013-11-04T08:07:05+0000","like_count":0,"user_likes":false},"752102378139775":{"id":"752102378139775","from":{"id":"100004094346107","name":"Thuy Nga Nguyen"},"message":"cảm ơn ban nhé Huy Roli! mình hiểu rồi :)","message_tags":[{"id":"100000064686295","name":"Huy Roli","type":"user","offset":15,"length":8}],"can_remove":false,"created_time":"2013-11-04T08:14:12+0000","like_count":1,"user_likes":false},"752104168139596":{"id":"752104168139596","from":{"id":"100004094346107","name":"Thuy Nga Nguyen"},"message":"Mình sẽ làm thử nếu không được mình sẽ hỏi lại","can_remove":false,"created_time":"2013-11-04T08:19:11+0000","like_count":1,"user_likes":false},"752104454806234":{"id":"752104454806234","from":{"id":"100001416272263","name":"Mai PB"},"message":"Đúng rồi, giải thích từ khó, ngữ pháp khó thôi. Ai hỏi nội dung đơn giản thì sẽ trả lời hay hơn.","can_remove":false,"created_time":"2013-11-04T08:20:32+0000","like_count":2,"user_likes":false},"752109064805773":{"id":"752109064805773","from":{"id":"100001416272263","name":"Mai PB"},"message":"Kham Pha không phải đơn giản như thế đâu. Theo như link dưới đây thì chỉ những video nào được upload lậu, thì download nó mới là vi phạm. Chứ nếu video đó do chính nhà sản xuất upload lên hoặc không cấm việc upload lên thì không sao (thông tin đó thường được ghi ở dưới video). Ngoài ra dù việc download video có vi phạm như trên nhưng video đó không phải là DVD hay CD vốn được bán trên thị trường, thì cũng không bị bắt. Ví dụ, nếu người up cắt các bài hát riêng ra từ một DVD, hoặc lồng nhạc vào video do mình edit, thì cũng không có chuyện bị bắt.  http://ihoudownload.chosakuken-kouza.com/q/q2.html","message_tags":[{"id":"100001458099624","name":"Kham Pha","type":"user","offset":0,"length":8}],"can_remove":false,"created_time":"2013-11-04T08:36:14+0000","like_count":0,"user_likes":false},"752109921472354":{"id":"752109921472354","from":{"id":"100004094346107","name":"Thuy Nga Nguyen"},"message":"cái luật này em cũng không hiểu lắm!","can_remove":false,"created_time":"2013-11-04T08:38:37+0000","like_count":0,"user_likes":false},"752110034805676":{"id":"752110034805676","from":{"id":"100001416272263","name":"Mai PB"},"message":"Ai ở VN thì vô tư đi, đây là luật ở Nhật thôi","can_remove":false,"created_time":"2013-11-04T08:39:23+0000","like_count":1,"user_likes":false},"752117054804974":{"id":"752117054804974","from":{"id":"1148962646","name":"Tran Thi Tuong Van"},"message":"Mai PB Anh ơi nếu em download những audio, video dạy tiếng Nhật và văn hóa Nhật một cách hợp pháp trong khoảng thời gian em còn là member trên 1 website, rồi share lại trên group của chúng ta thì có bị xem là vi phạm không ạ? Hiện giờ e không còn là thành viên của trang web ấy nữa :)","message_tags":[{"id":"100001416272263","name":"Mai PB","type":"user","offset":0,"length":6}],"can_remove":false,"created_time":"2013-11-04T09:02:10+0000","like_count":0,"user_likes":false},"752117188138294":{"id":"752117188138294","from":{"id":"100003310618708","name":"BiNô Triết Gia"},"message":"em dơn ve bua nay co sao dau","can_remove":false,"created_time":"2013-11-04T09:02:44+0000","like_count":0,"user_likes":false},"752117308138282":{"id":"752117308138282","from":{"id":"100003310618708","name":"BiNô Triết Gia"},"message":"em chua de y minh down o dau nua, nhưng nhung cai nay la idm doc duoc, thi em kich chuot luon","can_remove":false,"created_time":"2013-11-04T09:03:24+0000","like_count":0,"user_likes":false},"752129201470426":{"id":"752129201470426","from":{"id":"100002131699773","name":"Minh Chau"},"message":"Thuy Nga Nguyen ơi. Bạn đã làm đc chưa? Mình vào link ở trên thử rồi mà vân chưa biết làm thế nào tiếp. Hic. Xấu hổ quá","can_remove":false,"created_time":"2013-11-04T09:33:14+0000","like_count":0,"user_likes":false},"752129448137068":{"id":"752129448137068","from":{"id":"100003310618708","name":"BiNô Triết Gia"},"message":"nu dien vien trong phim một lít nước mắt phải ko nhỉ","can_remove":false,"created_time":"2013-11-04T09:34:24+0000","like_count":0,"user_likes":false},"752129708137042":{"id":"752129708137042","from":{"id":"100004094346107","name":"Thuy Nga Nguyen"},"message":"Đúng rồi bạn Ngoc Hien QB!:)","message_tags":[{"id":"100003310618708","name":"Ngoc Hien QB","type":"user","offset":13,"length":12}],"can_remove":false,"created_time":"2013-11-04T09:35:28+0000","like_count":0,"user_likes":false},"752129834803696":{"id":"752129834803696","from":{"id":"100003310618708","name":"BiNô Triết Gia"},"message":"một bộ phim thật sự hay,","can_remove":false,"created_time":"2013-11-04T09:36:04+0000","like_count":0,"user_likes":false},"752130151470331":{"id":"752130151470331","from":{"id":"100003310618708","name":"BiNô Triết Gia"},"message":"có một bài hát quen thuộc có cả lời anh, lời trung, lời việt, lời nhật , người tình mùa đông mọi người tim và tag len thử xem","can_remove":false,"created_time":"2013-11-04T09:37:16+0000","like_count":0,"user_likes":false},"752130278136985":{"id":"752130278136985","from":{"id":"100004094346107","name":"Thuy Nga Nguyen"},"message":"uhm hay đúng không! Đúng là lấy đi một lít nước mắt của người xem!","can_remove":false,"created_time":"2013-11-04T09:37:45+0000","like_count":1,"user_likes":false},"752130511470295":{"id":"752130511470295","from":{"id":"100003310618708","name":"BiNô Triết Gia"},"message":"học giao tiếp từ bộ phim đó cũng hay mà, hê hê","can_remove":false,"created_time":"2013-11-04T09:38:32+0000","like_count":1,"user_likes":false},"752135094803170":{"id":"752135094803170","from":{"id":"100002131699773","name":"Minh Chau"},"message":"Aa. Mình download đuoc rồi. Cảm ơn bạn Huy Roli nhiều.","can_remove":false,"created_time":"2013-11-04T09:55:39+0000","like_count":2,"user_likes":false},"752205738129439":{"id":"752205738129439","from":{"id":"100002131699773","name":"Minh Chau"},"message":"Huy Roli: bạn có biết cách copy file mp4 vào iphone ko? Bài này mình load về thì nó thành file mp4. Không biết làm sao để copy vào điện thoại được.","can_remove":false,"created_time":"2013-11-04T13:06:21+0000","like_count":1,"user_likes":false},"752208108129202":{"id":"752208108129202","from":{"id":"100003310618708","name":"BiNô Triết Gia"},"message":"dung itune ban nhe","can_remove":false,"created_time":"2013-11-04T13:11:39+0000","like_count":0,"user_likes":false},"752209321462414":{"id":"752209321462414","from":{"id":"100001416272263","name":"Mai PB"},"message":"Tran Thi Tuong Van những media file đó là do member của website đó đóng góp hay là do website đó tự làm ra? Nếu của member mà họ cũng lấy từ nguồn khác thì website đó cũng không có quyền sở hữu được, em có thể post lại lên đây. Còn của website đó làm ra thì em phải xin phép họ.","message_tags":[{"id":"1148962646","name":"Tran Thi Tuong Van","type":"user","offset":0,"length":18}],"can_remove":false,"created_time":"2013-11-04T13:14:19+0000","like_count":0,"user_likes":false},"752211998128813":{"id":"752211998128813","from":{"id":"100000971073873","name":"Nam Trinh"},"message":"Minh Chau máy tính có sẵn itune rồi thì b đown itool ở link này về, cái này dùng dễ nhất,đơn giản mà ai cũng làm đc,cũng có khả năng tự convert file nếu file đưa vào máy k đúng định dạng đọc http://www.itools.cn/multi_lang_pc_download.htm","message_tags":[{"id":"100002131699773","name":"Minh Chau","type":"user","offset":0,"length":9}],"can_remove":false,"created_time":"2013-11-04T13:18:45+0000","like_count":1,"user_likes":false},"752213308128682":{"id":"752213308128682","from":{"id":"100003310618708","name":"BiNô Triết Gia"},"message":"mọi người cu dung idm co truyen ma down hien tai minh ko thấy có canh bao nao truoc khi dơn ca","can_remove":false,"created_time":"2013-11-04T13:22:13+0000","like_count":0,"user_likes":false},"752587158091297":{"id":"752587158091297","from":{"id":"100001458099624","name":"Kham Pha"},"message":"Quên chưa cập nhật link post vào chuyên mục kìa Thuy Nga Nguyen. Cách làm mình đã hướng dẫn trong group các admin phần 勉強会. Làm luôn kẻo quên.","message_tags":[{"id":"100004094346107","name":"Thuy Nga Nguyen","type":"user","offset":48,"length":15}],"can_remove":false,"created_time":"2013-11-05T02:37:03+0000","like_count":1,"user_likes":false}},"paging":{"cursors":{"after":"NzUyMDY2NDY0ODEwMDMz","before":"NzUyMDY2NDY0ODEwMDMz"},"next":"https://graph.facebook.com/229244010425617_752061414810538/comments?limit=1&summary=1&after=NzUyMDY2NDY0ODEwMDMz"},"summary":{"order":"chronological","total_count":49}}}