{"id":"229244010425617_752029981480348","type":"status","from":{"id":"100003140247721","name":"Dinh Huu Hao"},"message":"Chào mọi người. có anh nào đi dạng kỹ sư qua bên này mới bảo lãnh vợ con qua không cho mình hỏi chút.\nQui định về thủ tục bão lãnh vợ con qua mới có một số thay đổi( khoảng 2 tháng trở lại đây) là cần thêm một tờ giấy chứng nhận của công ty về việc cty đóng tiền bảo hiểm và tiền thuế cho mình nữa à?\n Cảm ơn mọi người nhiều","created_time":"2013-11-04T05:19:38+0000","updated_time":"2013-11-04T05:59:08+0000","comments":{"data":{"752043924812287":{"id":"752043924812287","from":{"id":"100001114549932","name":"Bui Thanh Hung"},"message":"Tuấn nó cũng mới bảo lãnh Vợ qua. Hào thử hỏi nó xem. 090-6094-3979","can_remove":false,"created_time":"2013-11-04T05:54:03+0000","like_count":0,"user_likes":false},"752045744812105":{"id":"752045744812105","from":{"id":"100003140247721","name":"Dinh Huu Hao"},"message":"ok thanks bac Bui Thanh Hung nha","message_tags":[{"id":"100001114549932","name":"Bui Thanh Hung","type":"user","offset":14,"length":14}],"can_remove":false,"created_time":"2013-11-04T05:59:08+0000","like_count":0,"user_likes":false}},"paging":{"cursors":{"after":"NzUyMDQzOTI0ODEyMjg3","before":"NzUyMDQzOTI0ODEyMjg3"},"next":"https://graph.facebook.com/229244010425617_752029981480348/comments?limit=1&summary=1&after=NzUyMDQzOTI0ODEyMjg3"},"summary":{"order":"chronological","total_count":2}},"likes":{"data":[]}}