{"id":"229244010425617_752104591472887","type":"status","from":{"id":"100000064686295","name":"Huy Roli"},"message":"bài này chắc ngữ pháp đơn giản hơn bài của admin này","created_time":"2013-11-04T08:21:06+0000","updated_time":"2013-11-05T03:27:42+0000","likes":{"data":{"100006441162188":{"id":"100006441162188","name":"Lệ Quỳnh"},"100005842838585":{"id":"100005842838585","name":"Lê Tiến Nga"},"100003940667112":{"id":"100003940667112","name":"Rong Bien"},"100001754136107":{"id":"100001754136107","name":"Nguyễn Tuấn Vũ"},"100000381942173":{"id":"100000381942173","name":"Vì Nghèo Mà Ra"},"100004705411324":{"id":"100004705411324","name":"Tớ Tên Hiền"},"100000695454369":{"id":"100000695454369","name":"Thanh Nga Do"},"100003097134275":{"id":"100003097134275","name":"Loc Do"},"100003144937413":{"id":"100003144937413","name":"Bách Gà"},"100000070255073":{"id":"100000070255073","name":"Sun Aileen Heaven"},"100004641579644":{"id":"100004641579644","name":"Qin Qin K"},"100006649719501":{"id":"100006649719501","name":"Hà Thu Nguyễn"},"100001337589910":{"id":"100001337589910","name":"Hoài Lê"},"798546542":{"id":"798546542","name":"Peco Daydreamer"},"100003853752853":{"id":"100003853752853","name":"Khanh Vy Le"},"100003011417151":{"id":"100003011417151","name":"Hue Kim"},"100004927662273":{"id":"100004927662273","name":"Thuy Dinh"},"100003055356509":{"id":"100003055356509","name":"Thuan Nguyen"},"100005058398238":{"id":"100005058398238","name":"Minh Thư Nguyễn"},"100003312527085":{"id":"100003312527085","name":"Ngat Pro"},"100002963252258":{"id":"100002963252258","name":"Yuki Hana"},"100002508122689":{"id":"100002508122689","name":"Vũ Mạnh Tuấn"},"100002808262328":{"id":"100002808262328","name":"Thành Hasamu Hasamu"},"1512382361":{"id":"1512382361","name":"Thu Hải"},"100006575053270":{"id":"100006575053270","name":"Phong Lan Tím"},"100002526707690":{"id":"100002526707690","name":"Phan Toan"},"1702100562":{"id":"1702100562","name":"Trương Thuỳ Linh"},"100003578872391":{"id":"100003578872391","name":"Hà Kyo"},"100000271705877":{"id":"100000271705877","name":"Nguyễn Văn Minh"},"100000758307606":{"id":"100000758307606","name":"Lương Ngọc Thành"},"100002676859353":{"id":"100002676859353","name":"Chu Quang Viên"},"100004642933206":{"id":"100004642933206","name":"Aloha Aloha"},"100003276696481":{"id":"100003276696481","name":"Viet Đong"},"100005495773832":{"id":"100005495773832","name":"Hiền Vũ"},"100001044224883":{"id":"100001044224883","name":"Fan Tom"},"100004253979918":{"id":"100004253979918","name":"Louis Hoàng Văn Thái"},"100000256064180":{"id":"100000256064180","name":"Tran Vu"},"100001441648308":{"id":"100001441648308","name":"Ly Loan"},"100002898154513":{"id":"100002898154513","name":"Gã Shrek"},"100003187036702":{"id":"100003187036702","name":"Phuong Hoa Smile"},"100000075741073":{"id":"100000075741073","name":"Khanh Tung"},"100004192421155":{"id":"100004192421155","name":"Yến Yến"},"100003318461313":{"id":"100003318461313","name":"Nhung Kool"},"100006610654836":{"id":"100006610654836","name":"Ánh Ngọc"},"100004340104072":{"id":"100004340104072","name":"Vì Em Là Nắng"},"1148962646":{"id":"1148962646","name":"Tran Thi Tuong Van"},"100004101462769":{"id":"100004101462769","name":"Thao Vo"},"100003745840190":{"id":"100003745840190","name":"Huyen Trang"},"100003171672878":{"id":"100003171672878","name":"Tầu Heo"},"100001203844437":{"id":"100001203844437","name":"Lưu Văn Khoa"},"1803772186":{"id":"1803772186","name":"Nguyễn Ngọc Mai"},"1717530880":{"id":"1717530880","name":"Triệu Việt Cường"},"100002879943075":{"id":"100002879943075","name":"Lan Phuong"},"100006867721682":{"id":"100006867721682","name":"Yuri Sabishii"},"100000368213854":{"id":"100000368213854","name":"Người Lạ Từng Yêu"},"100005450467240":{"id":"100005450467240","name":"Chibi Chan"},"100002641238579":{"id":"100002641238579","name":"Vịt Béo"},"100001416272263":{"id":"100001416272263","name":"Mai PB"},"100004028173069":{"id":"100004028173069","name":"Jin Ngốc"},"100002959594535":{"id":"100002959594535","name":"Nguyen Ngoc Anh"},"100005801442456":{"id":"100005801442456","name":"An Nguyen"},"100001365545442":{"id":"100001365545442","name":"Nguyễn Nam"},"100005478454231":{"id":"100005478454231","name":"Maruko Chan"}},"paging":{"cursors":{"after":"MTAwMDA2NDQxMTYyMTg4","before":"MTAwMDA2NDQxMTYyMTg4"},"next":"https://graph.facebook.com/229244010425617_752104591472887/likes?limit=1&summary=1&after=MTAwMDA2NDQxMTYyMTg4"},"summary":{"total_count":65}},"comments":{"data":{"752105688139444":{"id":"752105688139444","from":{"id":"100001458099624","name":"Kham Pha"},"message":"Bài này đã có giải thích trong group rồi. Các bạn chịu khó tìm trên thư mục đầu group.","can_remove":false,"created_time":"2013-11-04T08:24:38+0000","like_count":3,"user_likes":false},"752106134806066":{"id":"752106134806066","from":{"id":"100000064686295","name":"Huy Roli"},"message":"mình cũng nhớ mang máng là có, post lên cho nóng chương trình của admin Nga ý mà","can_remove":false,"created_time":"2013-11-04T08:26:19+0000","like_count":2,"user_likes":false},"752109034805776":{"id":"752109034805776","from":{"id":"100004360751785","name":"Hà Nguyễn"},"message":"bài này là bài hát tiếng Nhật đầu tiên tớ nghe, nghe mãi vẫn thấy hay, nhớ cái tình yêu thời bọ xít quá đi :D","can_remove":false,"created_time":"2013-11-04T08:36:03+0000","like_count":3,"user_likes":false},"752111401472206":{"id":"752111401472206","from":{"id":"100006867721682","name":"Yuri Sabishii"},"message":"hay wa...nge nhju van hay..\nThuong Akki","message_tags":[{"id":"100005825713367","name":"Thuong Akki","type":"user","offset":28,"length":11}],"can_remove":false,"created_time":"2013-11-04T08:44:28+0000","like_count":0,"user_likes":false},"752117011471645":{"id":"752117011471645","from":{"id":"100002703420852","name":"Hoàng Hữu Hội"},"message":"Bai nay hay ne Lua Nguyen","message_tags":[{"id":"100004385680037","name":"Lua Nguyen","type":"user","offset":15,"length":10}],"can_remove":false,"created_time":"2013-11-04T09:01:55+0000","like_count":0,"user_likes":false},"752157171467629":{"id":"752157171467629","from":{"id":"100003276696481","name":"Viet Đong"},"message":"hay quá","can_remove":false,"created_time":"2013-11-04T10:56:23+0000","like_count":1,"user_likes":false},"752200671463279":{"id":"752200671463279","from":{"id":"100002508122689","name":"Vũ Mạnh Tuấn"},"message":"hay hay hay :D","can_remove":false,"created_time":"2013-11-04T12:53:51+0000","like_count":1,"user_likes":false},"752324828117530":{"id":"752324828117530","from":{"id":"100003218959317","name":"Đá Tảng"},"message":"Hay qua!","can_remove":false,"created_time":"2013-11-04T17:05:10+0000","like_count":0,"user_likes":false},"752660444750635":{"id":"752660444750635","from":{"id":"100000695454369","name":"Thanh Nga Do"},"message":"Hay qua!!!","can_remove":false,"created_time":"2013-11-05T03:27:42+0000","like_count":0,"user_likes":false}},"paging":{"cursors":{"after":"NzUyMTA1Njg4MTM5NDQ0","before":"NzUyMTA1Njg4MTM5NDQ0"},"next":"https://graph.facebook.com/229244010425617_752104591472887/comments?limit=1&summary=1&after=NzUyMTA1Njg4MTM5NDQ0"},"summary":{"order":"chronological","total_count":9}}}