{"id":"229244010425617_752183091465037","type":"status","from":{"id":"100002792994108","name":"Thuat Le Minh"},"message":"Em xin chào cả nhà! Có một chuyện này mà em đang rất băn khoăn rất mong nhận được sự tư vấn từ phía anh chị trong group đặc biệt là nhưng người đang sống và làm việc bên Nhật ạ.\nEm sắp tốt nghiệp đh ngành cơ khí.. Hiện em có chị gái đang du học bên Nhật được 1 năm ( thực chất là đi lao động dưới dạng du học ) ở Tokyo. Gia đình em hoàn cảnh ( khoản nợ 300tr chạy cho chị gái em vẫn còn + lặt vặt 2 anh em ăn học nữa). Làm việc và sống bên Nhật là ướ mơ của em từ lâu ạ. Hiện em đang phân vân là sang năm em nên đi du học hay đi tu nghiệp sinh ạ.. Điều em lo là nếu đi Du học thì đồng nghĩa thêm gánh nặng cho chị gái em và gđ em. Đi tu nghiệp sinh thì cũng hên xui tùy theo công ty..\nanh chị tư vấn giúp cho em, nên đi du học hay đi tu nghiệp sinh ạ! tiếng Nhật em hiện giờ trình độ sơ cấp N5 ạ.\nem xin cảm ơn anh chị nhiều nhiều ạ. Mong mọi ng tư vấn giúp em với ạ.","created_time":"2013-11-04T12:10:33+0000","updated_time":"2013-11-05T00:36:22+0000","likes":{"data":{"100005798912871":{"id":"100005798912871","name":"Mạnh"},"100003122809775":{"id":"100003122809775","name":"Trong Hieu Nguyen"}},"paging":{"cursors":{"after":"MTAwMDA1Nzk4OTEyODcx","before":"MTAwMDA1Nzk4OTEyODcx"},"next":"https://graph.facebook.com/229244010425617_752183091465037/likes?limit=1&summary=1&after=MTAwMDA1Nzk4OTEyODcx"},"summary":{"total_count":2}},"comments":{"data":{"752187004797979":{"id":"752187004797979","from":{"id":"100004396021058","name":"Ngô Đình Minh"},"message":"nen hoi truc tiep chi p la tôt nhat","can_remove":false,"created_time":"2013-11-04T12:19:02+0000","like_count":1,"user_likes":false},"752187628131250":{"id":"752187628131250","from":{"id":"1748812390","name":"Đường Xưa Mây Trắng"},"message":"Um\n, ko dễ dàng gì đâu em!!!\nVới đk của e thì nên ở vn là tốt nhất;(","can_remove":false,"created_time":"2013-11-04T12:20:34+0000","like_count":3,"user_likes":false},"752190788130934":{"id":"752190788130934","from":{"id":"100002792994108","name":"Thuat Le Minh"},"message":"Đường Xưa Mây Trắng ko tốt đâu chị à","message_tags":[{"id":"1748812390","name":"Đường Xưa Mây Trắng","type":"user","offset":0,"length":19}],"can_remove":false,"created_time":"2013-11-04T12:28:42+0000","like_count":0,"user_likes":false},"752190938130919":{"id":"752190938130919","from":{"id":"100002792994108","name":"Thuat Le Minh"},"message":"Ngô Đình Minh vâng ạ.","message_tags":[{"id":"100004396021058","name":"Ngô Đình Minh","type":"user","offset":0,"length":13}],"can_remove":false,"created_time":"2013-11-04T12:29:04+0000","like_count":0,"user_likes":false},"752193158130697":{"id":"752193158130697","from":{"id":"100002463630497","name":"Hải Hùng"},"message":"Chú m k muốm khổ thì học tiếng tốt khoảng n3 rùi đi du học xang đây chuyển visa xang dạng kỹ sư cũng dc","can_remove":false,"created_time":"2013-11-04T12:35:05+0000","like_count":0,"user_likes":false},"752193481463998":{"id":"752193481463998","from":{"id":"100002792994108","name":"Thuat Le Minh"},"message":"Hải Hùng anh ơi thế chuyển visa có phức tạp ko ạ, cần đk gì không ạ..","message_tags":[{"id":"100002463630497","name":"Hải Hùng","type":"user","offset":0,"length":8}],"can_remove":false,"created_time":"2013-11-04T12:36:03+0000","like_count":0,"user_likes":false},"752193661463980":{"id":"752193661463980","from":{"id":"100000133587536","name":"Mei Ki"},"message":"ban nen di theo dang ky su , luong 18man va ky han viza ko bi gioi han","can_remove":false,"created_time":"2013-11-04T12:36:37+0000","like_count":0,"user_likes":false},"752193914797288":{"id":"752193914797288","from":{"id":"100002463630497","name":"Hải Hùng"},"message":"Nếu tuyển đi kỹ sư ở Việt Nam! Là ok nhất k thì fai có n3 là ít nhất","can_remove":false,"created_time":"2013-11-04T12:37:28+0000","like_count":0,"user_likes":false},"752194838130529":{"id":"752194838130529","from":{"id":"100002792994108","name":"Thuat Le Minh"},"message":"Mei Ki tuyển đi dưới dạng kỹ sư tầm chứng chỉ N mấy hả chị ơi? vs chi phí đi mất nhiều ko ạ","message_tags":[{"id":"100000133587536","name":"Mei Ki","type":"user","offset":0,"length":6}],"can_remove":false,"created_time":"2013-11-04T12:40:02+0000","like_count":1,"user_likes":false},"752195048130508":{"id":"752195048130508","from":{"id":"100002792994108","name":"Thuat Le Minh"},"message":"Hải Hùng vâng, em cảm ơn anh chị nhiều ạ. Vấn đề trước mắt là muốn đi hay ở là phải có N3 đã ạ :)","message_tags":[{"id":"100002463630497","name":"Hải Hùng","type":"user","offset":0,"length":8}],"can_remove":false,"created_time":"2013-11-04T12:40:43+0000","like_count":1,"user_likes":false},"752196324797047":{"id":"752196324797047","from":{"id":"100000133587536","name":"Mei Ki"},"message":"chi phi 4000~5000usd ban a, khong can chung chi N nhung wa day sau 1 nam ban fai lay dc N3, do la theo thong tin minh biet","can_remove":false,"created_time":"2013-11-04T12:43:17+0000","like_count":0,"user_likes":false},"752207931462553":{"id":"752207931462553","from":{"id":"100002131699773","name":"Minh Chau"},"message":"Theo mình biết thì không nhiều thế đâu. Hết khoảng 2000usd thôi. Nhưng cũng cần có tiếng Nhật. Ngoài ra. Ban cũng có thể xin vào các công ty Nhật ở VN. Làm ở đó khoảng 1 năm gì đó cho vững tiếng và kinh nghiệm rồi đi cung không muộn mà.","can_remove":false,"created_time":"2013-11-04T13:11:17+0000","like_count":1,"user_likes":false},"752208611462485":{"id":"752208611462485","from":{"id":"100000263658802","name":"Nguyễn Đức"},"message":"mình học hàng hải xong, chuẩn bị nộp hồ sơ đi nhật đây bạn\nmình có bằng thì nên đi theo diện kĩ sư bạn à, dễ đi hơn, mất khoảng 200tr, lương khởi điểm là 40tr( chưa tính làm thêm 2 ngày cuối tuần), nếu đã xác định sang năm đi thì giờ học tiếng đi, từ giờ đến lúc nhận bằng sang năm kiếm cái n4 (năm cuối học hành vất vả đấy), công ty của nhật sẽ phỏng vấn trực tiếp mình\nĐấy là 1 số thông tin mình tìm hiểu được","can_remove":false,"created_time":"2013-11-04T13:12:42+0000","like_count":1,"user_likes":false},"752324674784212":{"id":"752324674784212","from":{"id":"100005646455011","name":"Shin Saigai"},"message":"Thuat Le Minh e nen cay tieng Nhat cho that tot, neu dc n3 la cai tot, ko cung ko sao. cty Nhat o VN thi moi can chung chi, con cty ben Nhat thi ko yeu cau chung chi, nh no se kiem tra phan hoi thoai cua e co giao tiep tot hay ko, the thui e","message_tags":[{"id":"100002792994108","name":"Thuat Le Minh","type":"user","offset":0,"length":13}],"can_remove":false,"created_time":"2013-11-04T17:04:45+0000","like_count":1,"user_likes":false},"752325114784168":{"id":"752325114784168","from":{"id":"100002792994108","name":"Thuat Le Minh"},"message":"vâng em cảm ơn mọi ng nhiều ạ.","can_remove":false,"created_time":"2013-11-04T17:05:59+0000","like_count":0,"user_likes":false},"752329691450377":{"id":"752329691450377","from":{"id":"100003653354497","name":"Hien Mập"},"message":"Bây giờ người việt mình sang nhật nhiều quá.bạn bè mình cứ vài hôm lại nghe tin có đứa đi nhật.đôi khi muốn hỏi tại sao ? Mình đi dạy cho tu nghiệp sinh.nhưng khi đến ngày các em ý bay.lòng mình lại nghẹn ngào.","can_remove":false,"created_time":"2013-11-04T17:16:51+0000","like_count":2,"user_likes":false},"752526751430671":{"id":"752526751430671","from":{"id":"100003763768548","name":"Nguyễn Dũng"},"message":"Nếu bạn muốn đi học để kiếm bằng cấp thì đi du học. Nếu muốn kiếm tiền thì đi tu nghiệp sinh chứ đừng có theo con đường du học. Vì học ở thủ đô hay những tp lớn thì ng vn đông như kiến việc ko có tranh giành lừa lọc nhau, còn học ở các vùng quê thì cs vất vả mọi thứ k tiện lợi đi làm phải đi làm xa mà lương trả thì thấp. \nMình cũng khuyên tất cả các bạn sắp sang nhật đừng nghe những lời nói lời hứa hẹn sang có việc làm ổn định ngay... của các cty tuyển sinh du học NB. Tất nhiên ko phải tất cả các cty nên các bạn cần tìm hiểu thật kỹ trước khi chọn du học NB. \nCòn mình thì mình vẫn yêu đất nc này và cảm thấy thật thoải mái khi sống ở đây. Nhưng cũng nhiều ng mình biết..có 1 cs thật cực khổ và cũng nhiều đồng chí quyết định \"nhập ngũ\"","can_remove":false,"created_time":"2013-11-05T00:01:24+0000","like_count":2,"user_likes":false},"752537768096236":{"id":"752537768096236","from":{"id":"100004966322983","name":"Tran Huyen"},"message":"Di du hoc thi k kiem duoc tien dau ban ah chi du an hoc thui neu k di duoc theo dien ki su thi nen di tu nghiep sinh kiem tien rui sau nay ve lai di du hoc tiep duoc ma","can_remove":false,"created_time":"2013-11-05T00:36:22+0000","like_count":1,"user_likes":false}},"paging":{"cursors":{"after":"NzUyMTg3MDA0Nzk3OTc5","before":"NzUyMTg3MDA0Nzk3OTc5"},"next":"https://graph.facebook.com/229244010425617_752183091465037/comments?limit=1&summary=1&after=NzUyMTg3MDA0Nzk3OTc5"},"summary":{"order":"chronological","total_count":18}}}