{"id":"229244010425617_752133004803379","type":"link","picture":"https://fbexternal-a.akamaihd.net/safe_image.php?d=AQBc2SpQwjBIZP9H&w=154&h=154&url=http%3A%2F%2Fk14.vcmedia.vn%2FEgIRGTpQmdWlqKW2ysgHkod7XFk4WM%2FImage%2F2013%2F11%2Fcv-ava-7407f.jpg","link":"http://kenh14.vn/sport/cong-vinh-xuc-dong-chia-se-hinh-anh-co-do-sao-vang-tran-ngap-svd-nhat-ban-20131104114120415.chn","from":{"id":"100000045271667","name":"Nam Thai Nguyen"},"message":"Người Nhật luôn Văn minh \nhttp://kenh14.vn/sport/cong-vinh-xuc-dong-chia-se-hinh-anh-co-do-sao-vang-tran-ngap-svd-nhat-ban-20131104114120415.chn","created_time":"2013-11-04T09:47:21+0000","updated_time":"2013-11-04T16:34:18+0000","likes":{"data":{"100004251845458":{"id":"100004251845458","name":"Hoàng Anh"},"100006034601024":{"id":"100006034601024","name":"Phuong Chibi"},"100004306806098":{"id":"100004306806098","name":"Tự Đi Tìm Chết"},"100003907081547":{"id":"100003907081547","name":"Van Ta"},"100004923553810":{"id":"100004923553810","name":"Xuan KY Nguyen"},"100004860483084":{"id":"100004860483084","name":"Nguyễn Bá"},"100003122809775":{"id":"100003122809775","name":"Trong Hieu Nguyen"},"100004156500359":{"id":"100004156500359","name":"Nguyen Vu"},"100001840875327":{"id":"100001840875327","name":"Phạm Chí Long"},"100005652213287":{"id":"100005652213287","name":"Viet Mai"},"100001757749425":{"id":"100001757749425","name":"Quân Nhí Nhố"},"100000218007271":{"id":"100000218007271","name":"Luu Vinh Loc"},"100003893158172":{"id":"100003893158172","name":"Maru MO"},"100003239773322":{"id":"100003239773322","name":"Sake Salmon"},"100005440689746":{"id":"100005440689746","name":"Trang Mapy"},"100001416272263":{"id":"100001416272263","name":"Mai PB"},"100002526707690":{"id":"100002526707690","name":"Phan Toan"},"100000064686295":{"id":"100000064686295","name":"Huy Roli"},"100000359762118":{"id":"100000359762118","name":"Mi Tra"},"100001458099624":{"id":"100001458099624","name":"Kham Pha"},"100004092183472":{"id":"100004092183472","name":"Bich Ngoc"},"100003084870026":{"id":"100003084870026","name":"Nguyễn Hiền"},"100004101462769":{"id":"100004101462769","name":"Thao Vo"},"100002782131785":{"id":"100002782131785","name":"Hasegawa Kiyotake"},"100004094346107":{"id":"100004094346107","name":"Thuy Nga Nguyen"},"100003084111971":{"id":"100003084111971","name":"Edward Nguyen"},"100002378068025":{"id":"100002378068025","name":"Vung Pham"},"100003276696481":{"id":"100003276696481","name":"Viet Đong"},"100004007822738":{"id":"100004007822738","name":"Lê Văn Tùng"}},"paging":{"cursors":{"after":"MTAwMDA0MjUxODQ1NDU4","before":"MTAwMDA0MjUxODQ1NDU4"},"next":"https://graph.facebook.com/229244010425617_752133004803379/likes?limit=1&summary=1&after=MTAwMDA0MjUxODQ1NDU4"},"summary":{"total_count":30}},"comments":{"data":{"752133638136649":{"id":"752133638136649","from":{"id":"100000045271667","name":"Nam Thai Nguyen"},"message":"https://www.facebook.com/photo.php?fbid=192440924276496&set=a.160356294151626.1073741826.160354497485139&type=1&theater","can_remove":false,"created_time":"2013-11-04T09:50:15+0000","like_count":0,"user_likes":false},"752160741467272":{"id":"752160741467272","from":{"id":"100000381394367","name":"Thành Nguyễn"},"message":"Những người cầm cờ là người Việt Nam hay Nhật nhỉ? ko thấy nói.","can_remove":false,"created_time":"2013-11-04T11:08:56+0000","like_count":0,"user_likes":false},"752162554800424":{"id":"752162554800424","from":{"id":"100001580479641","name":"Hà Xuân Thủy"},"message":"Với số lượng như vậy thì chắc ko thể là khán giả Việt đc.","can_remove":false,"created_time":"2013-11-04T11:13:31+0000","like_count":0,"user_likes":false},"752164084800271":{"id":"752164084800271","from":{"id":"100000064686295","name":"Huy Roli"},"message":"Khán giả việt thì có khi còn chả quan tâm tới công vinh ý chứ","can_remove":false,"created_time":"2013-11-04T11:17:20+0000","like_count":0,"user_likes":false},"752184688131544":{"id":"752184688131544","from":{"id":"100002967791944","name":"Tôi Yêu VietNam"},"message":"chuẩn,,,,,,,,,,,chiêu PR để cố níu giữ hợp đồng với lecongvinh","can_remove":false,"created_time":"2013-11-04T12:12:59+0000","like_count":0,"user_likes":false},"752257831457563":{"id":"752257831457563","from":{"id":"100000381394367","name":"Thành Nguyễn"},"message":"Đừng suy nghĩ bi quan vậy chứ Huy Roli, thường người việt nam ở nước ngoài mà có đội việt nam hay vận động viên Việt nam thi đấu là đến cổ vũ ác lắm. Ví dụ như bóng đá hay robocon.","message_tags":[{"id":"100000064686295","name":"Huy Roli","type":"user","offset":30,"length":8}],"can_remove":false,"created_time":"2013-11-04T14:59:32+0000","like_count":1,"user_likes":false},"752297138120299":{"id":"752297138120299","from":{"id":"100001260645727","name":"Ngo Duy Son"},"message":"Nhin la biet photoshop, cam co gioi that, cai nao cung vuong van thang tung ^^","can_remove":false,"created_time":"2013-11-04T16:26:06+0000","like_count":1,"user_likes":false},"752301091453237":{"id":"752301091453237","from":{"id":"100000381394367","name":"Thành Nguyễn"},"message":"Sơn tinh mắt thật,  giờ mới để ý.","can_remove":false,"created_time":"2013-11-04T16:34:18+0000","like_count":0,"user_likes":false}},"paging":{"cursors":{"after":"NzUyMTMzNjM4MTM2NjQ5","before":"NzUyMTMzNjM4MTM2NjQ5"},"next":"https://graph.facebook.com/229244010425617_752133004803379/comments?limit=1&summary=1&after=NzUyMTMzNjM4MTM2NjQ5"},"summary":{"order":"chronological","total_count":8}}}