{"id":"229244010425617_752127601470586","type":"photo","object_id":"175122506024463","picture":"https://fbcdn-photos-h-a.akamaihd.net/hphotos-ak-prn2/t1.0-0/1459902_175122506024463_2063161623_s.jpg","link":"https://www.facebook.com/photo.php?fbid=175122506024463&set=gm.752127601470586&type=1&relevant_count=1","from":{"id":"100005801442456","name":"An Nguyen"},"message":"Nếu nhìn vào hình trên bạn thấy gì?\n\n_Đối với những ai mới tới Nhật, hay ở chưa tới  : ôi ôi! Con mẹ kia điên rồi,già không nên nết! Dở hơi!!!\n\n_Đối với ai ở 1 thời gian: tưởng gì,chuyện thường ở huyện,nhạt toẹt, ở đất nước này người ta tự do về cách sống và suy nghĩ nên cả đầu to mặt bự nếu cảm thấy lợi ích chung ảnh hưởng còn chửi từ đầu tới... Dép!\n\nSao kì thế nhỉ?\n\nNgày xưa còn ở Việt Nam ,có thằng bạn thân đi Tây,sống bên Tây rồi về nước,1 hôm 2 thằng đi ăn cùng.Cu cậu thấy người ta rửa mấy trăm cái chén đúng 1 xô nước thế là phê phán:\n\" Việt Nam ăn ở bẩn quá\"\n\nTui là tui điên lắm,cho 1 trận :\n\n\" thế chú mới đến từ 1 Văn minh ngoài trái đất à? Mới đi Tây về bô lu bô lo...\"thằng ku chả nói gì.\n\nCách đây 1 năm trong lần về Nước ,cả 2 lại đi ăn, tui làm rớt cái thìa, lúc đó quán cũng đông, tui xin cái thìa khác thế là bị con nhân viên nó liếc cho 1 phát .Tui bèn phán:\n\" ở nhật dù bất kì ai á! Đã là khách là coi chẳng khác gì bố mày ạ ,không như....\"\nThằng ku nói \" hình như nghe quen quen mà lạ lạ....\"\n\nTự nhiên thấy mình không khác gì .... 1 con Cá!\nCó 1 con cá sống trong 1 cái ao hình vuông,thế là cá ta nghĩ \" Chà !thì ra thế giới nó hình vuông!\"\nSóng lũ tràn về ,ào vào ao cuốn cá ra sông.Cá lại nghĩ \" ồ! Thì ra thế giới nó ..dài dài...thon thon\"\nCá bơi bơi,cuối cùng ra tới cửa biển,cá thốt lên :\" bỏ mẹ! Cuối cùng thế giới nó hình gì nhỉ?!?\n\nNhiều lúc khi nhắc đến 1 vấn đề phê phán gì đó về nơi gốc rễ cội nguồn thì rất dễ mà ăn quả phán đại loại: \" đi xa mấy hôm bắt đầu cái giọng chê bai! \" Vâng, thì chê! Chê đâu phải là xấu hết nhỉ? Mỗi con người khi đặt 1 địa vị và 1 cuộc sống xung quanh khác nhau thì họ có cách nhìn nhận trái nhau.Vấn đề là người Việt khó mà thay đổi nhìn nhận vì luôn tranh cãi hơn là tranh luận. Để thay đổi tốt hơn người ta phải tìm thấy lỗi sai trước cơ mà?không chê lấy gì biết nhỉ?\n\nMở rộng ra với 1 câu chuyện về 1 nơi nào đó  \"gần gần mà lại xa xa...\" Ở đó cuộc sống mọi người bị đóng cọc về suy nghĩ mà đa phần chả ai nhận ra,và \" vấn đề nhạy cảm \" là câu từ dùng giải đáp cho 1 số vấn đề . Nhưng mà \" vấn đề nhạy cảm \" định nghĩa thế nào nhỉ? Có giống chuyện tui sắp kể ko ta?\nNgày còn bé,thấy 1 ngươi mang bầu ,tui chỉ vào và hỏi\n\" ba! Sao cô kia bụng to zị?\"\nBa tui nói:\n\" cô đó sắp có e bé đó con!\"\n\" sao có em bé  đc hả ba?\" Tui hỏi tiếp!\n\" ờ thì cô đó có chồng thì họ có con con à!\"\nTui lại hỏi\" thế chồng cổ làm j mà cô đó có con vậy ba?\"\nBối rối,ba tui hơi bực \" hỏi linh tinh! Lớn rồi tự biết!!!\"\nVậy có phải đó là vấn đề nhạy cảm ko ta? Nếu vậy thì \" vấn đề nhạy cảm \"có  nghĩa : \"linh tinh!! Ko đc thắc mắc,tự biết à?!\"\n\nNhiều bạn khi đọc được các bài tui viết phê phán \" anh lấy quyền gì phê phán người khác ?\" .Quyền gì ta?phải chăng là  Nhân quyền?dù đó tốt hay xấu thì cũng được quyền nói lên,còn hơn là bịt miệng,bởi thế các bạn chả thấy sướng rung rinh khi chửi phê cả hai ngón tay mà tui đây có xoá đâu! mà đó là còn nêu lên vấn đề tiêu cực chứ còn hàng ngày bạn chẳng phán xét khối người sao?\" Ồ con kia béo như lợn ấy\"...quyền gì ấy nhỉ?\n\nTóm lại 1 điều : dù đó là ý kiến trái bản thân đi chăng nữa chúng ta cũng nên tôn trọng nó.Bởi để một xã hội tiến lên, cần có cách nhìn đa giác quan, và ở nhiều khía cạnh.Không nên vì sự đố kị hay hẹp hòi cá nhân mà từ chối lắng nghe hay khinh bác nó.Bởi đơn giản là 2 chữ Nhân quyền!Quyền được nói và quyền bày tỏ quan điểm cá nhân.","created_time":"2013-11-04T09:31:29+0000","updated_time":"2013-11-05T03:17:44+0000","likes":{"data":{"100003977703228":{"id":"100003977703228","name":"Ki Yu"},"100002428163247":{"id":"100002428163247","name":"Trần Đức Hùng"},"100003587314679":{"id":"100003587314679","name":"Why Die"},"100005801442456":{"id":"100005801442456","name":"An Nguyen"},"100004965272241":{"id":"100004965272241","name":"Cỏ Nhỏ"},"100004005510336":{"id":"100004005510336","name":"Minh Đức"},"100004091392967":{"id":"100004091392967","name":"Pé Hạt Tiêu"},"100001253342061":{"id":"100001253342061","name":"Victor Lưu"},"100005738132651":{"id":"100005738132651","name":"Ti Ti"},"1416265619":{"id":"1416265619","name":"Starwar Bbj"},"100002446120607":{"id":"100002446120607","name":"Hoanhuy Luu"},"100001754136107":{"id":"100001754136107","name":"Nguyễn Tuấn Vũ"},"100002451143782":{"id":"100002451143782","name":"New Light"},"100002941809570":{"id":"100002941809570","name":"Hằng Nguyễn"},"100006712270834":{"id":"100006712270834","name":"Rin Gen"},"100004028173069":{"id":"100004028173069","name":"Jin Ngốc"},"100001727857917":{"id":"100001727857917","name":"Bui Duyen"},"1412022734":{"id":"1412022734","name":"Người Yêu Triển Chiêu"},"100006256024092":{"id":"100006256024092","name":"Sơn Phạm"},"1846809835":{"id":"1846809835","name":"Dorae Phương"},"100005043309731":{"id":"100005043309731","name":"Mario Nguyễn"},"100003888576324":{"id":"100003888576324","name":"Nguyen Quan"},"100004234301106":{"id":"100004234301106","name":"Hà Kawaii"},"100000266887521":{"id":"100000266887521","name":"Hương Lê Thu"},"100002981418378":{"id":"100002981418378","name":"Phụ Tiểu Đậu"},"1031841670":{"id":"1031841670","name":"Ngọc Trâm"},"100000776461179":{"id":"100000776461179","name":"Jotaro Nguyen"},"100002959594535":{"id":"100002959594535","name":"Nguyen Ngoc Anh"},"1295034025":{"id":"1295034025","name":"Sam Apple"},"100004927662273":{"id":"100004927662273","name":"Thuy Dinh"},"100004923553810":{"id":"100004923553810","name":"Xuan KY Nguyen"},"100005440689746":{"id":"100005440689746","name":"Trang Mapy"},"100004450956167":{"id":"100004450956167","name":"Thắng Satoh"},"100004052599880":{"id":"100004052599880","name":"Nguyen-chan Hsj"},"100003122809775":{"id":"100003122809775","name":"Trong Hieu Nguyen"},"100000183867315":{"id":"100000183867315","name":"Hung Chelsea"},"100000068660150":{"id":"100000068660150","name":"Hito Kami"},"100006892482884":{"id":"100006892482884","name":"Tomato Sang Le"},"100004614840382":{"id":"100004614840382","name":"Amy Parker"},"1250063068":{"id":"1250063068","name":"Tuấn Tử Tế"},"100002535489295":{"id":"100002535489295","name":"Moteru Seikoo"},"100004092183472":{"id":"100004092183472","name":"Bich Ngoc"},"100003733581822":{"id":"100003733581822","name":"Tàu Lu"},"100003908822367":{"id":"100003908822367","name":"Endless Love"},"100002976213828":{"id":"100002976213828","name":"Nana"},"587084690":{"id":"587084690","name":"Bitter Candy"},"100001416272263":{"id":"100001416272263","name":"Mai PB"},"711491571":{"id":"711491571","name":"Graziani Inaizarg"},"100006715147567":{"id":"100006715147567","name":"Hoa Ngo"},"1828906841":{"id":"1828906841","name":"Trọng Nghĩa Bùi"},"100000347908720":{"id":"100000347908720","name":"Linh Thảo"},"100006540967595":{"id":"100006540967595","name":"Cheryl Blossom"},"100002762270141":{"id":"100002762270141","name":"Mien Nguyen"},"100004642933206":{"id":"100004642933206","name":"Aloha Aloha"},"100002508122689":{"id":"100002508122689","name":"Vũ Mạnh Tuấn"},"100002425288918":{"id":"100002425288918","name":"Kira Chiến ND"},"100005262312396":{"id":"100005262312396","name":"Thua Tranquang"},"100003041460661":{"id":"100003041460661","name":"Dương Mir"},"100001481900448":{"id":"100001481900448","name":"Bao Pham"},"100001079726837":{"id":"100001079726837","name":"Hatenai Yume"},"100001848885057":{"id":"100001848885057","name":"Tiểu Mỡ Nhi"},"100001602947390":{"id":"100001602947390","name":"Nguyễn Hải Sơn"},"1748812390":{"id":"1748812390","name":"Đường Xưa Mây Trắng"},"100006541920997":{"id":"100006541920997","name":"Sơn Lầm Lỡ"},"1250876107":{"id":"1250876107","name":"Kim Hoan"},"100005495773832":{"id":"100005495773832","name":"Hiền Vũ"},"100004514621076":{"id":"100004514621076","name":"Hason Angle"},"100003502346209":{"id":"100003502346209","name":"Mèo Ngao"},"100003147712857":{"id":"100003147712857","name":"Kamui Sunny"},"100004094346107":{"id":"100004094346107","name":"Thuy Nga Nguyen"},"1816269439":{"id":"1816269439","name":"Dao Ngoc"},"100001878991939":{"id":"100001878991939","name":"Maru Nguyen"},"100000143852350":{"id":"100000143852350","name":"Candy Tran"},"100001365545442":{"id":"100001365545442","name":"Nguyễn Nam"},"1060893770":{"id":"1060893770","name":"Hyhy Zui Zẻ"},"100006767705219":{"id":"100006767705219","name":"Kim Liên"},"1148962646":{"id":"1148962646","name":"Tran Thi Tuong Van"},"100006365250880":{"id":"100006365250880","name":"Thien Vu"},"100004097360313":{"id":"100004097360313","name":"Dzung Nguyen"},"100004185816022":{"id":"100004185816022","name":"Gia Đê Tiện"},"100002134083104":{"id":"100002134083104","name":"Bùi Quang Hoàng"},"100001627822638":{"id":"100001627822638","name":"Duong Lam"},"1082956399":{"id":"1082956399","name":"Danny Dee Nguyen IE"},"100000045271667":{"id":"100000045271667","name":"Nam Thai Nguyen"},"100001458099624":{"id":"100001458099624","name":"Kham Pha"},"100005903373573":{"id":"100005903373573","name":"HaLinh Phong Phan"},"1813611352":{"id":"1813611352","name":"To Đùng"}},"paging":{"cursors":{"after":"MTAwMDAzOTc3NzAzMjI4","before":"MTAwMDAzOTc3NzAzMjI4"},"next":"https://graph.facebook.com/229244010425617_752127601470586/likes?limit=1&summary=1&after=MTAwMDAzOTc3NzAzMjI4"},"summary":{"total_count":93}},"comments":{"data":{"752130111470335":{"id":"752130111470335","from":{"id":"100000045271667","name":"Nam Thai Nguyen"},"message":"Hay quá, rất thích tư duy phản biện Văn minh :D","can_remove":false,"created_time":"2013-11-04T09:37:06+0000","like_count":1,"user_likes":false},"752134551469891":{"id":"752134551469891","from":{"id":"100005222737414","name":"Angle Kiss"},"message":"Ông con này bài l** nào cũng thánh tướng vãi cả Bộ phận tiểu tiện nữ,đóng phòng thể hiện đi e","can_remove":false,"created_time":"2013-11-04T09:53:11+0000","like_count":1,"user_likes":false},"752136984802981":{"id":"752136984802981","from":{"id":"1843294954","name":"Nguyen Thanh Van"},"message":"Thật sự mình ko hiểu cái ảnh nó liên quan gì.","can_remove":false,"created_time":"2013-11-04T10:02:11+0000","like_count":8,"user_likes":false},"752139291469417":{"id":"752139291469417","from":{"id":"100004094346107","name":"Thuy Nga Nguyen"},"message":"Học tiếng Nhật không phải chỉ lấy cái bằng đâu . Quan trọng là kiến thức của mình như thế nào ,trước khi nói gì thì phải suy nghĩ. Mình thấy hối hận khi đã đọc mấy coment kiểu này!","can_remove":false,"created_time":"2013-11-04T10:08:54+0000","like_count":6,"user_likes":false},"752140831469263":{"id":"752140831469263","from":{"id":"100000442929887","name":"Mike Yi"},"message":"đến đất nước người ta nên tôn trọng người ta.Đừng để người ta nghe đến VN là sợ.","can_remove":false,"created_time":"2013-11-04T10:14:28+0000","like_count":1,"user_likes":false},"752140884802591":{"id":"752140884802591","from":{"id":"1252017053","name":"Minh Pham"},"message":"Nhuộm tóc đâu có ai nói Điên đâu? Bài viết vs hình ảnh hơi bị ...","can_remove":false,"created_time":"2013-11-04T10:14:40+0000","like_count":2,"user_likes":false},"752142518135761":{"id":"752142518135761","from":{"id":"100001676558789","name":"Dinh Quan"},"message":"Angle Kiss tứ chòm sao nào đến mà thái độ thế? Đề nghị xóa!","can_remove":false,"created_time":"2013-11-04T10:20:34+0000","like_count":0,"user_likes":false},"752142938135719":{"id":"752142938135719","from":{"id":"100001676558789","name":"Dinh Quan"},"message":"Công nhận là nhìn mới ra, nhưng viết thế là Ok rồi, hiểu được ý bạn ấy nói với hình ảnh so sánh thú vị.","can_remove":false,"created_time":"2013-11-04T10:22:05+0000","like_count":2,"user_likes":false},"752151188134894":{"id":"752151188134894","from":{"id":"100001458099624","name":"Kham Pha"},"message":"Thôi cãi nhau làm gì cho mệt người. Công nhận là mình muốn An Nguyen và các admin khác trình bày cẩn thận, có dẫn dắt hơn nhưng mà các bạn nên hiểu cho bạn ấy thường viết bài bằng điện thoại vì ko có máy tính nên khó trình bày. \nNgoài ra admin thì cũng như các thành viên bình thường thôi, có khác là họ nhiệt tình hơn hay chia sẻ hơn. Họ chẳng có lợi lộc gì mà ngược lại mất nhiều thời gian quản lý để giữ cho group sạch sẽ, ko có spam, giải đáp câu hỏi của các bạn. Các bạn đọc 1 bài chỉ hết 5 phút nhưng người viết bài dành cả tiếng đồng hồ. Tại sao không biết trân trọng hả Angle Kiss?  Nếu không thích thì cũng đừng xúc phạm vào tấm lòng của người khác. Nếu bạn viết hay hơn thì mời đóng góp, chứng minh bằng hành động chứ đừng dùng lời lẽ mắng chửi ai cả. Chỉ có con người độc ác mới muốn gây tổn thương cho đồng loại của mình. Nếu bạn như vậy thì ai muốn làm đồng loại của bạn?","message_tags":[{"id":"100005801442456","name":"An Nguyen","type":"user","offset":59,"length":9}],"can_remove":false,"created_time":"2013-11-04T10:41:13+0000","like_count":14,"user_likes":false},"752155158134497":{"id":"752155158134497","from":{"id":"100000381394367","name":"Thành Nguyễn"},"message":"Vote cho bài này của  An Nguyen là một trong những bài hay nhất trên group từ trước đến giờ.","can_remove":false,"created_time":"2013-11-04T10:51:30+0000","like_count":3,"user_likes":false},"752156518134361":{"id":"752156518134361","from":{"id":"100001458099624","name":"Kham Pha"},"message":"Mình sẽ không xóa post của bạn Angle Kiss vì tôn trọng cách nhìn của bạn. Ad An Nguyễn là người nhiệt tình nhưng cũng rất cá tính, trắng đen rất rõ ràng nên đôi khi làm nguời khác cảm thấy khó chịu. Người cương trực thì luôn như vậy đấy :)\nNhưng mà tấm lòng của cậu ấy thì mình hiểu, vì thế cũng rất tôn trọng cậu ấy. Mong mọi người cũng dùng tấm lòng để hiểu nhau, chứ đừng soi câu chữ ra trách móc.","can_remove":false,"created_time":"2013-11-04T10:55:24+0000","like_count":5,"user_likes":false},"752157391467607":{"id":"752157391467607","from":{"id":"100002425288918","name":"Kira Chiến ND"},"message":"Angle kiss sao lại có thể comment như vậy nhỉ, group này là group mình thấy văn hóa nhất trong số các group mình có tham gia. Ko xóa comment nhưng t nghĩ có nên giữ bạn đó trong group ko?\nCòn về bức ảnh, theo mình nghĩ đơn giản thôi mọi ng à, ng đàn bà trong bức ảnh là khá già rồi, nhưng lại mặc váy trên đầu gối và quần zen mỏng. Ở VN thì k ai thế, sẽ bị nói là mất nết ngay.","can_remove":false,"created_time":"2013-11-04T10:57:23+0000","like_count":4,"user_likes":false},"752157741467572":{"id":"752157741467572","from":{"id":"100002425288918","name":"Kira Chiến ND"},"message":"mà nhìn kỹ lại k rõ là váy hay chỉ là bộ vest quá đùi ko nữa. hình như k phải váy","can_remove":false,"created_time":"2013-11-04T10:58:39+0000","like_count":0,"user_likes":false},"752158348134178":{"id":"752158348134178","from":{"id":"1252017053","name":"Minh Pham"},"message":"Soi mói đúng là bản tính con Ng vn...nên đọc bài viết thôi các bạn ah","can_remove":false,"created_time":"2013-11-04T11:00:48+0000","like_count":0,"user_likes":false},"752158374800842":{"id":"752158374800842","from":{"id":"100000381394367","name":"Thành Nguyễn"},"message":"Angle kiss bị chính thức bị nhắc nhở lần thứ nhất, nội quy của group quy định không văng tục chửi bậy và sử dụng ngôn ngữ phản cảm, lời nói của bạn thuộc phạm vi ngôn ngữ phản cảm vì nội dung công kích cá nhân người khác, nếu quá ba lần tái diễn sẽ bị ban nick. Bạn có thể nói bạn An Nguyen viết không đúng hoặc không thực tế etc.. vì đó là quyền tự do ngôn luận nhưng không được công kích cá nhân hoặc xúc phạm người khác. Nếu mỗi người cứ có hành vi xúc phạm nhau rồi trả đũa bằng cách xúc phạm lại người kia để thỏa mãn cái tôi của mình thì sự việc sẽ leo thang thành cuộc cãi vã. Để duy trì hoạt động lành mạnh của group thì các Admin là những người  có trách nhiệm sẽ không cho phép điều này xảy ra.","can_remove":false,"created_time":"2013-11-04T11:00:49+0000","like_count":5,"user_likes":false},"752158671467479":{"id":"752158671467479","from":{"id":"100001458099624","name":"Kham Pha"},"message":"Kira Chiến ND nếu họ ko tốt mà đuổi họ đi thì làm sao giúp họ thay đổi được. Sinh hoạt chung cùng group với những người văn minh thì mới tốt lên được chứ. Gần mực thì đen, gần đèn thì rạng mà :)","message_tags":[{"id":"100002425288918","name":"Kira Chiến ND","type":"user","offset":0,"length":13}],"can_remove":false,"created_time":"2013-11-04T11:01:51+0000","like_count":2,"user_likes":false},"752166721466674":{"id":"752166721466674","from":{"id":"100002609621366","name":"KÚn KOn"},"message":"Tại sao nhiều người cứ phức tạp hóa vấn đề nhỉ. Đơn giản người viết muốn nói đến ý kiến cá nhân- nghĩa là tự do ngôn luận :) nhưng đừng quá phản cảm và mang cái tôi cao để phán xét và đánh giá vấn đề. Biết rằng mỗi người mỗi ý, nhưng phải nhìn đa chiều, khách quan và công tâm. Đâu fải người viết muốn phê phán bác gái trong hình, đó là sự minh hoạ. Có thể ở VN hình ảnh đó sẽ bị lên án, nhưng ở nơi khác ngoài VN, nó là bình thường. Cách hiểu đơn giản thôi mà : tùy suy nghĩ, tùy quan điểm sống, fong tục tập quá ! Miễn là đừng làm ảnh hưởng đến lợi ích chung của tập thể !.......hết ạ <3","can_remove":false,"created_time":"2013-11-04T11:26:41+0000","like_count":0,"user_likes":false},"752167994799880":{"id":"752167994799880","from":{"id":"1717530880","name":"Triệu Việt Cường"},"message":"Mình ở Việt Nam, xin thêm thìa vẫn được. Sang Nhật thấy họ ăn mặc khác thường cũng thấy vui vui ( vì giống mình ) Thật sự là chưa thấy có j phải hét lên cả. Đi mỗi nơi, gặp mỗi người lại thấy những điều khác nhau, có tốt, có xấu. Chỉ là, chưa bao h phải hét lên rằng ở đó thế này, ở kia thế nọ hết.\nP/s: Có nhiều người trước khi sang Nhật, thấy những người ăn mặc khác thường như mình. Thường dè bỉu, nói này nói nọ. Xong sang Nhật, thấy j cũng khen. Tưởng là thay đổi, đên khi về Việt Nam, gặp mình xong vẫn y như trước. Thật chả hiểu cái j đang xảy ra nữa.","can_remove":false,"created_time":"2013-11-04T11:30:57+0000","like_count":0,"user_likes":false},"752169711466375":{"id":"752169711466375","from":{"id":"100000045271667","name":"Nam Thai Nguyen"},"message":"Đúng sai hoàn toàn là quan điểm cá nhân nên ranh giới đúng sai khá mong manh. Có điều một người đang sống và sinh hoạt tại VN như mình khác thắc mắc: các bạn ở Gr phần lớn đang sống trên xứ người là Nhật Bản, một đát nước luôn nhắc đến với lòng kính trọng và tinh thần tập thể cao nhất TG, thế nhưng ngay topic này thôi đã thấy sự bất đồng trong cách nghĩ, hành xử. Thay vì chỉ trích nhau sao không mổ xẻ vấn đề An Nguyen đang đề cập. Đó mới vấn đề cần quan tâm","message_tags":[{"id":"100005801442456","name":"An Nguyen","type":"user","offset":412,"length":9}],"can_remove":false,"created_time":"2013-11-04T11:37:19+0000","like_count":3,"user_likes":false},"752170361466310":{"id":"752170361466310","from":{"id":"100001416272263","name":"Mai PB"},"message":"An Nguyen (Y)","message_tags":[{"id":"100005801442456","name":"An Nguyen","type":"user","offset":0,"length":9}],"can_remove":false,"created_time":"2013-11-04T11:39:03+0000","like_count":0,"user_likes":false},"752170544799625":{"id":"752170544799625","from":{"id":"100001416272263","name":"Mai PB"},"message":"Nam Thai Nguyen có vẻ như phần lớn sống ở VN đấy. Bất đồng ý kiến là chuyện thường thấy ở người VN mà (không nhất thiết là xấu).","message_tags":[{"id":"100000045271667","name":"Nam Thai Nguyen","type":"user","offset":0,"length":15}],"can_remove":false,"created_time":"2013-11-04T11:39:50+0000","like_count":3,"user_likes":false},"752172251466121":{"id":"752172251466121","from":{"id":"100000045271667","name":"Nam Thai Nguyen"},"message":"Nói thật, theo mình cần lám những tinh thần và cách nghĩ, cách làm của An Nguyen. Không phủ nhận giá trị Việt nhưng luôn nhìn về phía Mặt trời","message_tags":[{"id":"100005801442456","name":"An Nguyen","type":"user","offset":71,"length":9}],"can_remove":false,"created_time":"2013-11-04T11:44:19+0000","like_count":6,"user_likes":false},"752222778127735":{"id":"752222778127735","from":{"id":"100004923553810","name":"Xuan KY Nguyen"},"message":"ngủỏ̀i vn mình nên học cách nói chuyện nhủ ngủỏ̀i nhật","can_remove":false,"created_time":"2013-11-04T13:43:14+0000","like_count":0,"user_likes":false},"752227818127231":{"id":"752227818127231","from":{"id":"1146680551","name":"優しい なぁ"},"message":"Vãi cả đt.tốc độ bấm phím của chú cũng thuộc hàng thánh rồi.việc vệ sinh nó k chỉ dừng lại ở 1 nét văn hoá ma còn ở tuổi thọ.ở Nhật hay các nước châu Âu đều có tuổi thọ  bình quân là khá cao.nó đánh giá khá chuẩn về vệ sinh cá nhân và cộng đồng.nhắc đến mới nhỏ học 5 điều bác Hồ dạy.ở vn hiện nay tâm lý xều xoà là 1 căn bệnh khá là nan y.","can_remove":false,"created_time":"2013-11-04T13:54:17+0000","like_count":0,"user_likes":false},"752232378126775":{"id":"752232378126775","from":{"id":"1295034025","name":"Sam Apple"},"message":"Hôm nay e ms bị một \"anh \" mới từ vn sang kêu mất gốc...:3","can_remove":false,"created_time":"2013-11-04T14:03:43+0000","like_count":1,"user_likes":false},"752587511424595":{"id":"752587511424595","from":{"id":"100001458099624","name":"Kham Pha"},"message":"An Nguyen nhớ cập nhật link post vào chuyên mục kẻo quên.","message_tags":[{"id":"100005801442456","name":"An Nguyen","type":"user","offset":0,"length":9}],"can_remove":false,"created_time":"2013-11-05T02:38:08+0000","like_count":0,"user_likes":false},"752590048091008":{"id":"752590048091008","from":{"id":"100001416272263","name":"Mai PB"},"message":"An Nguyen dùng đt nên khó cập nhật link được, nhờ ad nào đang dùng PC làm giúp thôi.","message_tags":[{"id":"100005801442456","name":"An Nguyen","type":"user","offset":0,"length":9}],"can_remove":false,"created_time":"2013-11-05T02:45:10+0000","like_count":0,"user_likes":false},"752591091424237":{"id":"752591091424237","from":{"id":"100005801442456","name":"An Nguyen"},"message":"Cập nhật sao giờ@.@ chống spam còn chả được nữa nè!","can_remove":false,"created_time":"2013-11-05T02:47:12+0000","like_count":0,"user_likes":false},"752598598090153":{"id":"752598598090153","from":{"id":"100001458099624","name":"Kham Pha"},"message":"thôi để em làm","can_remove":false,"created_time":"2013-11-05T03:06:20+0000","like_count":1,"user_likes":false},"752655588084454":{"id":"752655588084454","from":{"id":"100001156666759","name":"Kenshuu Steam"},"message":"MÌnh xin nhận xét chung chung thế này nhé:  bài viết trên cùng và comment của các bạn đều là thể hiện quan điểm cá nhân về 1 khía cạnh chung trong xã hội. CŨng giống như mình đã từng thể hiện quan điểm riêng của mình với Mai PB trước đây. nhưng dù quan điểm thế nào, suy nghĩ ra sao thì trước hết các bạn nên hạn chế 1 số từ ngữ nhạy cảm để nói nên suy nghĩ, quan đểm của mình có lẽ sẽ hay hơn, và các mod trong đây cũng không cần phải đắn đo có nên xóa comment của các bạn hay không. mỗi người để ý 1 tẹo trong câu văn của mình thì là chuẩn ngay thôi mà, vì đây là group chung về ngôn ngữ và văn hóa cho nên mình hãy giữ cái gì tốt đẹp nhé.","message_tags":[{"id":"100001416272263","name":"Mai PB","type":"user","offset":221,"length":6}],"can_remove":false,"created_time":"2013-11-05T03:17:44+0000","like_count":0,"user_likes":false}},"paging":{"cursors":{"after":"NzUyMTMwMTExNDcwMzM1","before":"NzUyMTMwMTExNDcwMzM1"},"next":"https://graph.facebook.com/229244010425617_752127601470586/comments?limit=1&summary=1&after=NzUyMTMwMTExNDcwMzM1"},"summary":{"order":"chronological","total_count":32}}}