{"id":"229244010425617_752364091446937","type":"status","from":{"id":"100000273786070","name":"Dũng Yamato Dũng Yamato"},"message":"Có ai biết đường cây bạch quả ở công viên Showa Kinen(  công viên Tachikawa) đẹp nhất vào thời gian nào không nhỉ?\nVà công viên Hitachi seaside ở tỉnh Ibaraki vào kỉ nghỉ đông có hoa gì đẹp không nhỉ?!\n Ai hay đi du lịch có thông tin chia sẻ với! Cám ơn nhiều:)","created_time":"2013-11-04T17:48:51+0000","updated_time":"2013-11-04T23:23:02+0000","likes":{"data":{"100003049639881":{"id":"100003049639881","name":"Truong Luvuxy"}},"paging":{"cursors":{"after":"MTAwMDAzMDQ5NjM5ODgx","before":"MTAwMDAzMDQ5NjM5ODgx"}},"summary":{"total_count":1}},"comments":{"data":{"752375924779087":{"id":"752375924779087","from":{"id":"100005801442456","name":"An Nguyen"},"message":"Cái đó thì phải hỏi chị \" tổ lái Tokyo Mi Tra","message_tags":[{"id":"100000359762118","name":"Mi Tra","type":"user","offset":39,"length":6}],"can_remove":false,"created_time":"2013-11-04T18:12:25+0000","like_count":0,"user_likes":false},"752386771444669":{"id":"752386771444669","from":{"id":"100001175588275","name":"Duy Vinh"},"message":"Nhà mình gần đó. Bjo đẹp mình ới.0k!","can_remove":false,"created_time":"2013-11-04T18:32:32+0000","like_count":1,"user_likes":false},"752509204765759":{"id":"752509204765759","from":{"id":"100000359762118","name":"Mi Tra"},"message":"Trong ngày hnay mình sẽ đăng lên. Đợi mình chút nhé!","can_remove":false,"created_time":"2013-11-04T23:12:25+0000","like_count":5,"user_likes":false},"752512931432053":{"id":"752512931432053","from":{"id":"100000273786070","name":"Dũng Yamato Dũng Yamato"},"message":"Cám ơn mọi người nhiều","can_remove":false,"created_time":"2013-11-04T23:23:02+0000","like_count":0,"user_likes":false}},"paging":{"cursors":{"after":"NzUyMzc1OTI0Nzc5MDg3","before":"NzUyMzc1OTI0Nzc5MDg3"},"next":"https://graph.facebook.com/229244010425617_752364091446937/comments?limit=1&summary=1&after=NzUyMzc1OTI0Nzc5MDg3"},"summary":{"order":"chronological","total_count":4}}}