{"id":"229244010425617_752578191425527","type":"link","link":"http://www.meijijingugaien.jp/","from":{"id":"100000359762118","name":"Mi Tra"},"message":"Đi đâu vào mùa lá đỏ?\n\nCó nhiều bạn hỏi nên đi ngắm lá đỏ ở đâu. Mình xin tổng hợp lại một số địa điểm ở Tokyo. Các bạn tham khảo nhé!\n\nỞ Tokyo thì các bạn nên đi vào khoảng giữa tháng 11~ đầu tháng 12 là đẹp nhất. Kinh nghiệm của mình là nên đi vào sáng sớm vì lúc đó ít người, sẽ tha hồ chụp ảnh và không phải chen chúc.\n\nCó một số địa điểm nổi tiếng như sau:\n\n1.Hàng cây bạch quả ở Meiji jingu gaien (イチョウ並木　明治神宮外苑)\n\nhttp://www.meijijingugaien.jp/\n\nLà hàng cây có tuổi thọ hơn 100 năm, rất nổi tiếng ở Tokyo. Từ ngày 16/11 ~9/12 có lễ hội \nGa gần nhất: \n○Tàu JR tuyến Chuo sobusen  JR中央・総武線\nga Shinanomachi (信濃町駅)  ga Sendagaya (千駄ヶ谷駅)\n○Tàu ngầm Tokyo Metro　Tuyến Ginza 東京メトロ銀座線\nGa Gaienmae (外苑前駅) Ga Aoyama icchome (青山一丁目駅)\n○Tàu ngầm Tokyo Metro　Tuyến Hanzomon 東京メトロ半蔵門線\nGa Aoyama icchome (青山一丁目駅)\n○Tuyến Toei Oedo 都営大江戸線\nGa Kokuritsu kyogijo (国立競技場駅) Ga Aoyama icchome (青山一丁目駅)\n\n2. Shinjuku Gyoen (新宿御苑)\n\nhttp://www.fng.or.jp/shinjuku/shinjuku-index.html\n\n Công viên này khá rộng và chia thành nhiều khu vườn như vườn kiểu Nhật, Vườn kiểu Anh, Vườn kiểu Pháp. Không chỉ mùa lá đó mà mùa Sakura cũng rất đẹp.\n\nVé vào cửa: người lớn 200yen. Học sinh tiểu học, trung học: 50yen\n\nĐịa chỉ:  〒160-0014 東京都新宿区内藤町１１ Shinjiku-ku, Naitomachi 11\nGa gần nhất: \n○ Ga Shinjuku (新宿駅) Ra cửa nam đi bộ khoảng 10p\n○Shinjuku gyoen mae(新宿御苑前駅)　Ra cửa số 2 đi bộ khoảng 5p\n○Ga Sendagaya  (千駄ヶ谷) đi bộ khoảng 5p\n○Ga Shinjuku sanchome (新宿三丁目)  Ra cửa C1/C5 đi bộ 5p\n\n3. Công viên Tachikawa\n\nhttp://www.showakinenpark.go.jp/\n\nCông viên có hàng cây bạch quả, có các loại hoa như hoa cánh bướm, hoa hướng dương, hoa tulip cho mỗi mùa. Vì rất rộng nên các bạn nên chọn giày dép dễ đi để tránh bị đau chân. Ở đó còn có cho thuê xe đạp thường và xe đạp đôi (rất thích hợp cho các đôi ^^)\n\nVé vào cửa: người lớn 400yen. Học sinh tiểu học, trung học: 80yen\n\nĐịa chỉ: 〒190-0014 東京都立川市緑町3173  Tokyo-to, Tachikawa-shi, Midorimachi 3173\nGa gần nhất: ga Tachikawa（立川駅）.Ra cửa Tachikawa đi bộ khoảng 20p\n\nTạm thời là như thế này đã.Mình sẽ bổ sung sau.\n\nCác bạn có thể vào trang này để tìm thêm các địa điểm ở Chiba, Kanagawa, Saitama\nhttp://season.enjoytokyo.jp/kouyou/","created_time":"2013-11-05T02:15:26+0000","updated_time":"2013-11-05T04:29:37+0000","likes":{"data":{"100000271705877":{"id":"100000271705877","name":"Nguyễn Văn Minh"},"100004715524978":{"id":"100004715524978","name":"Minh Chiến"},"1846809835":{"id":"1846809835","name":"Dorae Phương"},"100001723862714":{"id":"100001723862714","name":"Bo Bien Vang"},"100001416272263":{"id":"100001416272263","name":"Mai PB"},"100003199788138":{"id":"100003199788138","name":"Quyen Nguyen"},"100005801442456":{"id":"100005801442456","name":"An Nguyen"},"100000250256418":{"id":"100000250256418","name":"Nguyen Viet Anh"},"1148962646":{"id":"1148962646","name":"Tran Thi Tuong Van"},"1787202785":{"id":"1787202785","name":"Thang Nguyen"},"100001887921127":{"id":"100001887921127","name":"Kata Apple"},"100006867721682":{"id":"100006867721682","name":"Yuri Sabishii"},"100001442509723":{"id":"100001442509723","name":"Nguyễn Mai Anh"},"100004091392967":{"id":"100004091392967","name":"Pé Hạt Tiêu"},"1816269439":{"id":"1816269439","name":"Dao Ngoc"},"100000068660150":{"id":"100000068660150","name":"Hito Kami"},"1146680551":{"id":"1146680551","name":"優しい なぁ"},"100001458099624":{"id":"100001458099624","name":"Kham Pha"},"100001754136107":{"id":"100001754136107","name":"Nguyễn Tuấn Vũ"},"100002535489295":{"id":"100002535489295","name":"Moteru Seikoo"},"100001583529210":{"id":"100001583529210","name":"Nguyễn Kim Hà"}},"paging":{"cursors":{"after":"MTAwMDAwMjcxNzA1ODc3","before":"MTAwMDAwMjcxNzA1ODc3"},"next":"https://graph.facebook.com/229244010425617_752578191425527/likes?limit=1&summary=1&after=MTAwMDAwMjcxNzA1ODc3"},"summary":{"total_count":21}},"comments":{"data":{"752580384758641":{"id":"752580384758641","from":{"id":"100001583529210","name":"Nguyễn Kim Hà"},"message":"Mọi người tham khảo thêm cái này xem lễ hội này mà đi chụp ảnh thì nó sẽ giống cái ảnh của nhóm mình đấy.","can_remove":false,"created_time":"2013-11-05T02:22:03+0000","like_count":1,"user_likes":false},"752582101425136":{"id":"752582101425136","from":{"id":"100000273786070","name":"Dũng Yamato Dũng Yamato"},"message":"Cám ơn chị nhá","can_remove":false,"created_time":"2013-11-05T02:25:01+0000","like_count":0,"user_likes":false},"752584394758240":{"id":"752584394758240","from":{"id":"100001458099624","name":"Kham Pha"},"message":"đúng thứ em cần, đang lên kế hoạch đi đây :)","can_remove":false,"created_time":"2013-11-05T02:31:05+0000","like_count":1,"user_likes":false},"752585824758097":{"id":"752585824758097","from":{"id":"100001458099624","name":"Kham Pha"},"message":"新宿御苑 hình như mất phí khoảng 1000 yen thì phải","can_remove":false,"created_time":"2013-11-05T02:33:04+0000","like_count":0,"user_likes":false},"752586091424737":{"id":"752586091424737","from":{"id":"100000359762118","name":"Mi Tra"},"message":"Ko đâu. Mất có mấy trăm yên thoii","can_remove":false,"created_time":"2013-11-05T02:33:58+0000","like_count":0,"user_likes":false},"752586354758044":{"id":"752586354758044","from":{"id":"100000273786070","name":"Dũng Yamato Dũng Yamato"},"message":"Tachikawa vé người lớn khoảng 500¥. \nChị có thông tin về công viên Hitachi seaside không ạ?","can_remove":false,"created_time":"2013-11-05T02:34:51+0000","like_count":0,"user_likes":false},"752588961424450":{"id":"752588961424450","from":{"id":"100000359762118","name":"Mi Tra"},"message":"Dũng Yamato Dũng Yamato: Công viên Hitachi thì bạn tham khảo trang này nhé!\nhttp://hitachikaihin.go.jp/\nNgày 9/11 miễn phí vé vào cửa đó","message_tags":[{"id":"100000273786070","name":"Dũng Yamato Dũng Yamato","type":"user","offset":0,"length":23}],"can_remove":false,"created_time":"2013-11-05T02:42:04+0000","like_count":0,"user_likes":false},"752657991417547":{"id":"752657991417547","from":{"id":"100001156666759","name":"Kenshuu Steam"},"message":"anh nói thật cái này cô đừng buồn anh nhé...nếu nói về ngắm lá đỏ thì ngắm trên tivi là đẹp nhất, còn ngắm lá đỏ thực tế nó khô khan, héo úa nhìn gớm chết. Lần trước anh cũng đi chơi gọi là đi ngắm lá đỏ, nhưng đến khi đến nơi ròi thì anh toàn ngắm người đi ngắm lá đỏ thôi","can_remove":false,"created_time":"2013-11-05T03:25:23+0000","like_count":1,"user_likes":false},"752660434750636":{"id":"752660434750636","from":{"id":"100001583529210","name":"Nguyễn Kim Hà"},"message":"Nhưng vẫn là cái thú vui mà a","can_remove":false,"created_time":"2013-11-05T03:27:41+0000","like_count":0,"user_likes":false},"752661448083868":{"id":"752661448083868","from":{"id":"100001156666759","name":"Kenshuu Steam"},"message":"thế nên mọi người mới đi xem, anh cũng đi mà... chẳng qua là tôt chức đi chơi thôi","can_remove":false,"created_time":"2013-11-05T03:30:01+0000","like_count":0,"user_likes":false},"752663414750338":{"id":"752663414750338","from":{"id":"100000359762118","name":"Mi Tra"},"message":"Thế thì chắc là Kenshuu Steam đi ko đúng lúc đẹp rồi. Ngắm lá đỏ cũng như Sakura. Đi sớm quá cũng ko đẹp mà đi muộn quá thì lá tàn, rụng hết rồi.","message_tags":[{"id":"100001156666759","name":"Kenshuu Steam","type":"user","offset":16,"length":13}],"can_remove":false,"created_time":"2013-11-05T03:36:18+0000","like_count":0,"user_likes":false},"752675154749164":{"id":"752675154749164","from":{"id":"100005801442456","name":"An Nguyen"},"message":"ai bảo dỡ Văn đâu chị \" tổ lái Tokyo\" hay thế còn gì!!","can_remove":false,"created_time":"2013-11-05T04:10:32+0000","like_count":0,"user_likes":false},"752681124748567":{"id":"752681124748567","from":{"id":"100000359762118","name":"Mi Tra"},"message":"Dở thật mà  An Nguyen^^ \nSáng nay \"ăn cắp\" 1 tiếng làm việc viết vội đó :))","message_tags":[{"id":"100005801442456","name":"An Nguyen","type":"user","offset":12,"length":9}],"can_remove":false,"created_time":"2013-11-05T04:29:37+0000","like_count":2,"user_likes":false}},"paging":{"cursors":{"after":"NzUyNTgwMzg0NzU4NjQx","before":"NzUyNTgwMzg0NzU4NjQx"},"next":"https://graph.facebook.com/229244010425617_752578191425527/comments?limit=1&summary=1&after=NzUyNTgwMzg0NzU4NjQx"},"summary":{"order":"chronological","total_count":13}}}