{"id":"229244010425617_752557121427634","type":"status","from":{"id":"100005801442456","name":"An Nguyen"},"message":"NHẬT KÍ CỦA 1 DU HỌC SINH:\n\nKỳ 1: CÁNH CỔNG DU HỌC VÀ BÀI HỌC VỀ NIỀM TIN\n\nTôi viết câu chuyện mình trên đây cũng như 1 quyển nhật ký mở cho tất cả mọi người, chia sẽ những khó khăn những điều vấp ngã cũng như thành công trong con đường tìm điều mong mỏi ở xứ người.Trong chúng ta có lẽ đều mang một sự ước mong, niềm hi vọng hay lý do nào đó khi chọn con đường du học để thay đổi, có thể là kiếm tri thức, cũng có thể là chỉ vì tiền , thoả ước vọng của mẹ cha hay thậm chí tôi từng gặp người du học bởi lí do đi cho biết! Còn tôi? ....Có lẽ đó là bài học về Niềm tin!\n\nSo với những đứa trẻ cùng lứa với tôi, có lẽ tôi có được tất cả những thứ mình mong muốn và gia đình luôn đặt niềm tin vào tôi.Thế vậy đã có một khoảng thời gian tôi đã đạp đổ những kì vọng mọi người dành cho mình, ham chơi cùng đám bạn,  tôi bỏ học và khi nhận ra thì đã quá muộn,  cánh cổng trường năm nào đã khép lại với mình, chán nản tôi chỉ biết chìm trong khoảng không của riêng mình mà không muốn chia sẽ cùng ai.Sau bao tháng ngày để cho tôi suy nghĩ, một ngày mẹ tôi đến và bảo tôi một điều mà tôi xem đó là bài học và dấu ấn đi theo suốt cuộc đời mình:\n\n\" Trong cuộc đua, người ta không quan tâm đến ai xuất phát chậm nhanh, chỉ là ai là người về đích đầu tiên thôi.Nếu con không thể là người đầu tiên thì ít ra con cũng đáng\ntự hào vì đã đủ can đảm để tham gia vào cuộc đua ấy\"\n\nCâu nói của mẹ như tiếp tôi sức mạnh và lòng tự tin để quay lại cánh cổng trường học năm nào và lại có thêm nhưng tình bạn mới chỉ có điều tôi lớn tuổi hơn tất cả họ.Tôi học và định cho mình sẽ đi thật xa và lập cho mình những kế hoạch mới cho cuộc đời và Nhật là con đường ấy.Nhưng đó có lẽ là con   đường chông gai và thử thách nhất.Hai lần thất bại trong đơn nộp học là hai lần tôi dường như rơi xuống tột cùng của sự thất vọng.Hai lần thất bại cũng có nghĩa tôi lại bỏ lỡ thêm hai năm, và so với đám bạn cùng lứa cảm giác bị tụt lại phía sau lại càng xa hơn, như trốn tránh thất bại, tôi lại tìm lại căn phòng và tự giam cầm suy nghĩ cơ hội sẽ không còn với mình.Khoảng thời gian trước đây việc xét hồ sơ không hề dễ dàng như hiện tại, một người quen của mẹ tôi ở lãnh sứ quán còn thừa nhận : đối với những hồ sơ từng bị rớt 2 lần như tôi có hội không quá 5% và có lẽ là người đầu tiên nếu có thể vượt qua.Câu nói như chôn thêm ước mơ của tôi sâu hơn...\n\nRồi khoảng thời gian không lâu sau đó, nước Nhật trãi qua trận động đất thế kỉ, báo chí chỉ in những dòng tít về điều này.Tôi thì chỉ mặc, với tôi suy nghĩ về nó đã không còn.Mẹ tôi thì vẫn không ngừng tìm cho tôi một cơ hội khác.Tháng 5 năm đó, tôi vẫn nhớ, bà có tìm được cho tôi được 1 ngôi trường ở Sendai và họ hứa sẽ giúp cho tôi có cơ hội lần nữa.Cảm giác đầu tiên của tôi là sự tức giận, tôi không muốn hi vọng và lại thất vọng.\n\n\"tại sao lại bỏ 1 khoảng tiền để rồi chỉ có được vỏn vẹn 5% kia ? Tại sao? \" Tôi đã hỏi mẹ tôi bằng sự tức giận.\n\n\"Nếu số tiền có cao hơn thế, mẹ vẫn sẽ làm.Mẹ không muốn con mất đi niềm hi vọng, bởi cuộc sống sẽ không còn giá trị nếu con người ta mất đi niềm  tin và hi vọng\" mẹ đáp.\n\nVà 3 tháng sau, tôi đã trở thành người đầu tiên đấy.Tôi đến được Nhật với chỉ 5% cơ hội nhỏ bé nhưng lại đc bù đắp vun đầy bởi niềm tin và hi vọng của mẹ....Bài học về niềm tin theo tôi những tháng năm,cách đây không lâu, khi vừa đặt chân tới Tokyo để bắt đầu một cuộc sống mới, tôi bắt gặp hàng trăm con người đang khốn đốn vì cuộc sống xa xứ, lo từng bữa cơm và tính toán cho khoảng phí rồi sẽ phải trả tiếp theo.Tôi đã giúp họ, giúp bằng sự thành tâm không vụ lợi,điều tôi đã nghĩ rằng cái họ cần làm một công việc để ổn định cuộc sống.Vậy là sau mỗi giờ học,tranh thủ khoảng thời gian nghĩ, cố kiếm thêm nơi nào đó tuyển dụng để chia sẻ cho mọi người, chả biết tự bao giờ nhiều người biết tới tôi hơn.Hàng ngày hàng chục dòng tin như cậy nhờ và mong mõi được giúp đỡ, tôi càng cố giúp họ thì dòng tin nhắn lại càng tăng lên gấp bội, cảm giác bế tắc đè nặng vì trở nên quá nhiều hi vọng được đẩy vào mình. Tôi đã quyết định dừng lại tất cả vì không thể giúp đỡ được tất cả, tôi chán nản!\n\nRồi tin nhắn của 1 cô gái không quá thân thuộc kể về câu chuyện hôm nay khi đang trên đường đưa tiền cho một người nào đó để được sokai việc làm, nhưng vì nghĩ đến những việc tôi đang cố làm mà đã quay về và tự trao thêm cơ hội cho mình.Cám ơn nhé Ngọc Trâm! Nếu không có dòng tin nhắn ấy của em thì có lẽ anh đã không nhận ra cái sai của anh.Tôi đã sai, sai vì đã cho người khác hi vọng , nhưng hi vọng ấy không đến từ chính họ mà lại là sự chờ đợi của tôi.Như vậy vô tình tôi đã giết đi niềm tin vào chính bản thân của mọi người.Cái mọi người cần nhất không phải là 1 công việc mà chính là niềm tin.Đó sẽ là mục tiêu tôi sẽ theo đuổi.Be Heo Beo, Tuyết yêu thương, Ngọc Trâm.... Các bạn chính là điều chứng minh cho cách giải bài toán của tôi.Tôi tin với niềm tin các bạn đã có được thì không chỉ công việc mà bất cứ điều gì các bạn muốn đều sẽ đạt được nếu thật sự dám ước mơ và dám hành động.\n\nCuộc sống hối hả làm ta quên dòng  thời gian đang trôi thế nào, đôi khi có thời gian tôi lại ngồi ngẫm về câu chuyện bản thân, những điều đã qua đi với mình. Đã nhiều lúc tôi đã xin lỗi mẹ vì những điều tôi đã làm nhưng có lẽ tôi vẫn chưa đủ mạnh mẽ để chạy tới và ôm bà vào lòng nói rằng \"con xin lỗi \" như những ngày còn bé.Chắc chắn một ngày nào đó khi có thể gom góp đủ tiền tôi sẽ lại về, lần nãy tôi sẽ làm thằng bé con của mẹ, siết chặt lấy mẹ và đc âm yếm như những ngày bé thơ.Những bài học về giá trị cuộc sống của mẹ con sẽ không bao giờ quên, người thầy đầu tiên và vĩ đại nhất của con!\n\nP/s: gửi Quân Dương!\nMình biết bạn từ khá lâu và bạn cũng là người rất hay theo dõi các bài viết của mình.Mình có thể giúp bạn tìm được công việc bạn muốn nhưng bạn có biết vì sao mình không làm thế không?\n\nBạn luôn tự cho minh là 1 kẻ bất tài , vậy nếu mình giúp bạn chẳng phải vô tình để bạn nghĩ rằng điều đó là sự thật, \" tôi không thể \" sẽ là điều bạn mang hết cả cuộc đời.Nếu thế thì mình thà quyết định đứng nhìn thì hơn.Đôi khi kiến thức sách vở không thể giúp bạn, mà chính thái độ khi đối mặt với cuộc sống mới tạo ra giá trị con người.\n\nHãy nhớ \" niềm tin là chìa khoá đầu tiên dẫn đến mọi thành công! \"","created_time":"2013-11-05T01:20:09+0000","updated_time":"2014-04-03T13:41:17+0000","likes":{"data":{"100005395026544":{"id":"100005395026544","name":"Xí NgẦu"},"100006722864042":{"id":"100006722864042","name":"Họ Bá Tên Đạo"},"100002711479595":{"id":"100002711479595","name":"Nguyen Linh"},"100002480814193":{"id":"100002480814193","name":"Đỗ Khắc Mức"},"100000500260636":{"id":"100000500260636","name":"Lưu Nguyễn Thảo Tiên"},"100005310091804":{"id":"100005310091804","name":"Han Yo"},"100003032663784":{"id":"100003032663784","name":"Vượt Qua Thử Thách"},"100003030567580":{"id":"100003030567580","name":"Chu Thuy"},"100001526631937":{"id":"100001526631937","name":"Tường Oanh Mineko"},"100004332344458":{"id":"100004332344458","name":"Heo Boo"},"100002615664668":{"id":"100002615664668","name":"PuPu Phương Elf"},"1146680551":{"id":"1146680551","name":"優しい なぁ"},"100004327473342":{"id":"100004327473342","name":"Đất Khách Quê Người"},"100000309415626":{"id":"100000309415626","name":"Kona Yuki"},"100004753690388":{"id":"100004753690388","name":"Anh Tuấn"},"1821970083":{"id":"1821970083","name":"Nguyễn Mạnh Cường"},"100003105034037":{"id":"100003105034037","name":"Pham Oanh"},"100004209453905":{"id":"100004209453905","name":"Hura Huong"},"100001965604540":{"id":"100001965604540","name":"Nguyen Thi Minh Phuong"},"569263718":{"id":"569263718","name":"Phuong Thao Tran"},"100000250256418":{"id":"100000250256418","name":"Nguyen Viet Anh"},"100003512651061":{"id":"100003512651061","name":"Mai Đinh"},"100000359762118":{"id":"100000359762118","name":"Mi Tra"},"100001646814780":{"id":"100001646814780","name":"Nhật Dương"},"100003074092549":{"id":"100003074092549","name":"Hạnh Phạm Phạm"},"100004056170384":{"id":"100004056170384","name":"Quang Sinh"},"100003933466469":{"id":"100003933466469","name":"Phong Aki"},"100001325163284":{"id":"100001325163284","name":"Nguyễn Thịnh"},"1443385821":{"id":"1443385821","name":"Mèo Màu Mè"},"100003913383051":{"id":"100003913383051","name":"Tho Tran"},"100001432462223":{"id":"100001432462223","name":"Truong Nguyen"},"100003179905990":{"id":"100003179905990","name":"Trâm Yoko"},"100002977923434":{"id":"100002977923434","name":"長流"},"100004360751785":{"id":"100004360751785","name":"Hà Nguyễn"},"100002805246239":{"id":"100002805246239","name":"Hoàng Hiếu"},"100005801442456":{"id":"100005801442456","name":"An Nguyen"},"100003209298923":{"id":"100003209298923","name":"Phuongcham Nguyen"},"1270781159":{"id":"1270781159","name":"Pham Thi Thanh Nga"},"100002871405403":{"id":"100002871405403","name":"Thach Sanh"},"100000408007601":{"id":"100000408007601","name":"Moon Clik"},"100002470650247":{"id":"100002470650247","name":"LinhLinh Chan"},"100006767705219":{"id":"100006767705219","name":"Kim Liên"},"100003820151744":{"id":"100003820151744","name":"Thu Cá Tính"},"100001849767677":{"id":"100001849767677","name":"Hoàng Hải Nam"},"100004794727976":{"id":"100004794727976","name":"Song Tử"},"100004234301106":{"id":"100004234301106","name":"Hà Kawaii"},"100006111728204":{"id":"100006111728204","name":"La Ka Ta Tu"},"100000037485025":{"id":"100000037485025","name":"KimLong Vien"},"100005495773832":{"id":"100005495773832","name":"Hiền Vũ"},"100004490496995":{"id":"100004490496995","name":"Rai Chamu"},"100001128589118":{"id":"100001128589118","name":"Giang Manh"},"100000423617109":{"id":"100000423617109","name":"Tuyết Mai"},"1082956399":{"id":"1082956399","name":"Danny Dee Nguyen IE"},"100002929294921":{"id":"100002929294921","name":"Óc Suun"},"100004028173069":{"id":"100004028173069","name":"Jin Ngốc"},"100001442509723":{"id":"100001442509723","name":"Nguyễn Mai Anh"},"100001520307352":{"id":"100001520307352","name":"Nguyen Sang"},"100006867721682":{"id":"100006867721682","name":"Yuri Sabishii"},"100001415407078":{"id":"100001415407078","name":"Kha Pham"},"100004090992847":{"id":"100004090992847","name":"Trang Dam"},"100001583529210":{"id":"100001583529210","name":"Nguyễn Kim Hà"},"100006479420145":{"id":"100006479420145","name":"Trịnh Thị Kim Anh"},"100006610654836":{"id":"100006610654836","name":"Ánh Ngọc"},"1148962646":{"id":"1148962646","name":"Tran Thi Tuong Van"},"1550521697":{"id":"1550521697","name":"Trình Nguyễn"},"100001640832299":{"id":"100001640832299","name":"Hoàng Đạt"},"100001754136107":{"id":"100001754136107","name":"Nguyễn Tuấn Vũ"},"100000971073873":{"id":"100000971073873","name":"Nam Trinh"},"100000098004511":{"id":"100000098004511","name":"Nguyễn Đức Tùng"},"100001416272263":{"id":"100001416272263","name":"Mai PB"},"1816269439":{"id":"1816269439","name":"Dao Ngoc"},"100004040090503":{"id":"100004040090503","name":"Lan Nhăn Nhở"},"100001458099624":{"id":"100001458099624","name":"Kham Pha"},"100003199788138":{"id":"100003199788138","name":"Quyen Nguyen"},"100002535489295":{"id":"100002535489295","name":"Moteru Seikoo"},"1748812390":{"id":"1748812390","name":"Đường Xưa Mây Trắng"},"100002762270141":{"id":"100002762270141","name":"Mien Nguyen"},"100004088753245":{"id":"100004088753245","name":"Leu Huu Hien"},"100003049639881":{"id":"100003049639881","name":"Truong Luvuxy"},"100004094346107":{"id":"100004094346107","name":"Thuy Nga Nguyen"},"100002457555442":{"id":"100002457555442","name":"Minh Tuấn"},"100003213171499":{"id":"100003213171499","name":"Van Nguyen"},"100001744546054":{"id":"100001744546054","name":"Quân Dương"},"100003770118011":{"id":"100003770118011","name":"Trung Hoa Pham"},"100000045271667":{"id":"100000045271667","name":"Nam Thai Nguyen"},"1031841670":{"id":"1031841670","name":"Ngọc Trâm"}},"paging":{"cursors":{"after":"MTAwMDA1Mzk1MDI2NTQ0","before":"MTAwMDA1Mzk1MDI2NTQ0"},"next":"https://graph.facebook.com/229244010425617_752557121427634/likes?limit=1&summary=1&after=MTAwMDA1Mzk1MDI2NTQ0"},"summary":{"total_count":89}},"comments":{"data":{"752568084759871":{"id":"752568084759871","from":{"id":"100001744546054","name":"Quân Dương"},"message":"Chả biết comment thế nào nữa : THẤM THÍA !","can_remove":false,"created_time":"2013-11-05T01:46:53+0000","like_count":0,"user_likes":false},"752573348092678":{"id":"752573348092678","from":{"id":"100004094346107","name":"Thuy Nga Nguyen"},"message":"Bài viết dùng từ hay vẫn chưa đủ! :)","can_remove":false,"created_time":"2013-11-05T02:02:02+0000","like_count":2,"user_likes":false},"752574658092547":{"id":"752574658092547","from":{"id":"100002145579460","name":"Nhất Cước Sanji"},"message":"thang ban em cung sang SenDai nam 2011 ko biet ong anh co hoc cung no ko. :D truong anh ngu Sendai thi pai.","can_remove":false,"created_time":"2013-11-05T02:05:24+0000","like_count":0,"user_likes":false},"752575458092467":{"id":"752575458092467","from":{"id":"100001458099624","name":"Kham Pha"},"message":"Trong cuộc đời người mỗi người đàn ông, nếu không từng có thời gian khó khăn khủng hoảng thì mãi mãi không trưởng thành được. Mừng cho bạn, bài viết hay lắm (y)","can_remove":false,"created_time":"2013-11-05T02:07:50+0000","like_count":10,"user_likes":false},"752576968092316":{"id":"752576968092316","from":{"id":"100001416272263","name":"Mai PB"},"message":"Người mẹ và người con (Y).","can_remove":false,"created_time":"2013-11-05T02:11:48+0000","like_count":2,"user_likes":false},"752579014758778":{"id":"752579014758778","from":{"id":"100002145579460","name":"Nhất Cước Sanji"},"message":"anh Mai PB oi: hôm trước anh có up 1 link về bài giảng của 1 cô giáo người Nhật. em tìm lại để luyện nghe ma chẳng thấy đâu nữa. anh tag giup em dc ko ạ. em cảm ơn anh. :D","message_tags":[{"id":"100001416272263","name":"Mai PB","type":"user","offset":4,"length":6}],"can_remove":false,"created_time":"2013-11-05T02:17:55+0000","like_count":0,"user_likes":false},"752586131424733":{"id":"752586131424733","from":{"id":"100004094346107","name":"Thuy Nga Nguyen"},"message":"Bạn An Nguyen cho mình hỏi mình đang định đi du học, bạn có thể tư vấn xem trường nào tốt không?","message_tags":[{"id":"100005801442456","name":"An Nguyen","type":"user","offset":4,"length":9}],"can_remove":false,"created_time":"2013-11-05T02:34:08+0000","like_count":1,"user_likes":false},"752587421424604":{"id":"752587421424604","from":{"id":"100001416272263","name":"Mai PB"},"message":"Thuy Nga Nguyen nên viết vào status mới.","message_tags":[{"id":"100004094346107","name":"Thuy Nga Nguyen","type":"user","offset":0,"length":15}],"can_remove":false,"created_time":"2013-11-05T02:37:44+0000","like_count":3,"user_likes":false},"752588024757877":{"id":"752588024757877","from":{"id":"100001416272263","name":"Mai PB"},"message":"Mình thì đang hạnh phúc vì group tìm được nhiều admin tốt và member tin cậy vào group.","can_remove":false,"created_time":"2013-11-05T02:39:19+0000","like_count":9,"user_likes":false},"752588584757821":{"id":"752588584757821","from":{"id":"100006610654836","name":"Ánh Ngọc"},"message":"Hay đấy","can_remove":false,"created_time":"2013-11-05T02:40:50+0000","like_count":0,"user_likes":false},"752595371423809":{"id":"752595371423809","from":{"id":"100005801442456","name":"An Nguyen"},"message":"Chiếc Lá Cuối Cùng: những lời từng trãi của chị cũng làm em thấm thía .Cám ơn chị!","message_tags":[{"id":"100006469315671","name":"Chiếc Lá Cuối Cùng","type":"user","offset":0,"length":18}],"can_remove":false,"created_time":"2013-11-05T02:58:02+0000","like_count":4,"user_likes":false},"752597918090221":{"id":"752597918090221","from":{"id":"100001583529210","name":"Nguyễn Kim Hà"},"message":"Vậy mới có câu \" mỗi cây mỗi hoa mỗi nhà mỗi cảnh\"  mới biết nhóm mình nhiều người bản lĩnh","can_remove":false,"created_time":"2013-11-05T03:04:19+0000","like_count":1,"user_likes":false},"752662428083770":{"id":"752662428083770","from":{"id":"100003049639881","name":"Truong Luvuxy"},"message":"Giúp ng khác tạo niềm tin vào họ đó mới là cách tốt nhất phải k.cảm ơn a/c nhiều","can_remove":false,"created_time":"2013-11-05T03:33:42+0000","like_count":0,"user_likes":false},"752671318082881":{"id":"752671318082881","from":{"id":"100001744546054","name":"Quân Dương"},"message":"Mình Văn Thơ kém nên chả biết nói sao, mình cảm ơn mọi người đã động viên tinh thần. Nỗ lực hơn nữa sẽ vượt qua tất cả.","can_remove":false,"created_time":"2013-11-05T04:01:06+0000","like_count":2,"user_likes":false},"752676158082397":{"id":"752676158082397","from":{"id":"100005801442456","name":"An Nguyen"},"message":"Điều vui mừng nhất ở mình là dù đồng cảm hay không nhưng khi đọc những cm của mọi người về bạn đều cảm thấy sự động viên cố gắng! Không hề mỉa mai, không hề châm chọc! Đó là điều rất hay!  Like cho tất cả!","can_remove":false,"created_time":"2013-11-05T04:13:40+0000","like_count":5,"user_likes":false},"752687534747926":{"id":"752687534747926","from":{"id":"100003074092549","name":"Hạnh Phạm Phạm"},"message":"(Y)","can_remove":false,"created_time":"2013-11-05T04:46:22+0000","like_count":0,"user_likes":false},"826029514080394":{"id":"826029514080394","from":{"id":"100001458099624","name":"Kham Pha"},"message":"bài viết hay, lôi ra cho các bạn đọc lại.","can_remove":false,"created_time":"2014-03-02T23:50:05+0000","like_count":1,"user_likes":false},"826043307412348":{"id":"826043307412348","from":{"id":"100004056170384","name":"Quang Sinh"},"message":"Cám ơn a đã cho e một cái góc nhìn mới lạ hơn","can_remove":false,"created_time":"2014-03-03T00:28:58+0000","like_count":0,"user_likes":false},"826044417412237":{"id":"826044417412237","from":{"id":"100001744546054","name":"Quân Dương"},"message":"Ôi Bác Kham Pha sao h này còn lôi cái này ra đọc. Thay vì kêu ca than phiền thì h e học đc cách \" tự cứu bản thân trước \" trước khi đc nhờ ban ơn của Ng khác Bác à","can_remove":false,"created_time":"2014-03-03T00:31:58+0000","like_count":0,"user_likes":false},"826104390739573":{"id":"826104390739573","from":{"id":"100003634822576","name":"Jessica Lam Phuong"},"message":"Người mẹ tuyệt vời","can_remove":false,"created_time":"2014-03-03T02:54:31+0000","like_count":1,"user_likes":false},"826148204068525":{"id":"826148204068525","from":{"id":"100004753690388","name":"Anh Tuấn"},"message":"Người mẹ hết lòng vì con .","can_remove":false,"created_time":"2014-03-03T05:04:14+0000","like_count":0,"user_likes":false},"826148297401849":{"id":"826148297401849","from":{"id":"100004753690388","name":"Anh Tuấn"},"message":"nhưng cũng lên giúp ng ta . ở nơi đất khách quê người mà :v . Giúp đc j thì lên giúp <3","can_remove":false,"created_time":"2014-03-03T05:04:41+0000","like_count":0,"user_likes":false},"844469495569729":{"id":"844469495569729","from":{"id":"1146680551","name":"優しい なぁ"},"message":"Có ai chưa đọc hông ta :3","can_remove":false,"created_time":"2014-04-03T05:14:37+0000","like_count":0,"user_likes":false},"844477128902299":{"id":"844477128902299","from":{"id":"100001526631937","name":"Tường Oanh Mineko"},"message":"\"người tiếp sức mạnh cho người khác, An san\"","can_remove":false,"created_time":"2014-04-03T05:39:58+0000","like_count":0,"user_likes":false},"844615495555129":{"id":"844615495555129","from":{"id":"100002779080239","name":"Nguyễn Biên"},"message":"Phải nói rằng hoàn cảnh của mình cũng giống thế này.\nLà người mà cũng đã từng đc học 2 trường ĐH. 2 năm đầu học ĐH Công Nghiệp HN. Đến năm thứ 2 do mải chơi nên mình đã bị tụt xuống khóa. Chán nản nên quyết ôn thi lại ĐH. Và mình lại đậu tiếp trường ĐH Giao Thông HN. Cũng kịch bản tương tự. Do bản tính ham chơi với suy nghĩ vẫn còn trẻ nên cứ từ từ cộng với suy nghĩ đậu ĐH để đc tự do làm gì mìn thích nên năm 2 học Giao Thông mình lại bị đình chỉ học tập. Quá chán nản. Mình xách vali về quê. Sau quãng thời gian dài sống cùng thầy u mình đã nhận ra rất nhiều điều. Và mình quyết định phải làm 1 điều gì đó cho đúng nghĩa. Và mình chọn Nhật Bản. Mới đầu chỉ là học tiếng để đi TNS kiếm ít vốn. Nhưng học đc 1 thời gian mình thấy mình có khả năng học tiếng và cũng hiểu đc là kiến thức có thể tạo ra vật chất. Và thế là hứng thú học hành lại quay lại. Mình quyết định làm hồ sơ đi du học với quyết tâm cao.\nNhưng chuyện gì đến cũng đến. Mình bị trượt visa. Càng hoảng loạn hơn khi biết rằng cơ hội cho mình sang Nhật vì đó sẽ càng ít đi. Thực sự là đã rất hoang mang, ko còn hy vọng gì với việc đi Nhật nữa.  Lúc đó cũng vô tình đọc đc bài viết này của An Nguyen. Mình đã nc và đã nhận đc những lời khuyên bổ ích.  Nó giúp mình có thêm chút hy vọng vào lúc này. Thực sự là cảm ơn bạn rất nhiều. Hy vọng mình sẽ đc may mắn như vậy","message_tags":[{"id":"100005801442456","name":"An Nguyen","type":"user","offset":1156,"length":9}],"can_remove":false,"created_time":"2014-04-03T13:04:52+0000","like_count":6,"user_likes":false},"844616688888343":{"id":"844616688888343","from":{"id":"1146680551","name":"優しい なぁ"},"message":"Cố lên bạn nhé :)","can_remove":false,"created_time":"2014-04-03T13:06:46+0000","like_count":0,"user_likes":false},"844617952221550":{"id":"844617952221550","from":{"id":"100002779080239","name":"Nguyễn Biên"},"message":"Cảm ơn đồng chí nha :)","can_remove":false,"created_time":"2014-04-03T13:09:15+0000","like_count":0,"user_likes":false},"844624148887597":{"id":"844624148887597","from":{"id":"100006803468897","name":"Maria Maria"},"message":"Mẹ!một người mẹ tuyệt vời.","can_remove":false,"created_time":"2014-04-03T13:22:24+0000","like_count":0,"user_likes":false},"844626135554065":{"id":"844626135554065","from":{"id":"100003032663784","name":"Vượt Qua Thử Thách"},"message":"vân e định bán nhà tu nghiệp trong tg không xa nữa","can_remove":false,"created_time":"2014-04-03T13:27:28+0000","like_count":0,"user_likes":false},"844635662219779":{"id":"844635662219779","from":{"id":"100002480814193","name":"Đỗ Khắc Mức"},"message":"Cảm ơn bạn đã chia sẻ . Mẹ luôn là người tuyệt vời nhất !","can_remove":false,"created_time":"2014-04-03T13:41:17+0000","like_count":0,"user_likes":false}},"paging":{"cursors":{"after":"NzUyNTY4MDg0NzU5ODcx","before":"NzUyNTY4MDg0NzU5ODcx"},"next":"https://graph.facebook.com/229244010425617_752557121427634/comments?limit=1&summary=1&after=NzUyNTY4MDg0NzU5ODcx"},"summary":{"order":"chronological","total_count":31}}}