{"id":"229244010425617_752663221417024","type":"status","from":{"id":"100004094346107","name":"Thuy Nga Nguyen"},"message":"Chào cả nhà. Năm tới này em có dự định du học Nhật Bản, hiện tại em có N3 tiếng Nhật và đang làm một công ty Nhật tại Việt Nam. \nCác anh chị Senpai có thể tư vấn cho em học trường nào thì tốt được không ạ!\nOnegaishimasu.","created_time":"2013-11-05T03:35:36+0000","updated_time":"2013-11-05T05:17:19+0000","likes":{"data":{"100003679483741":{"id":"100003679483741","name":"Niềm Vui Khó Tìm"},"100006457419726":{"id":"100006457419726","name":"Nam Văn Lê"},"1822854513":{"id":"1822854513","name":"Sữa Chua Không Đường"}},"paging":{"cursors":{"after":"MTAwMDAzNjc5NDgzNzQx","before":"MTAwMDAzNjc5NDgzNzQx"},"next":"https://graph.facebook.com/229244010425617_752663221417024/likes?limit=1&summary=1&after=MTAwMDAzNjc5NDgzNzQx"},"summary":{"total_count":3}},"comments":{"data":{"752674988082514":{"id":"752674988082514","from":{"id":"100002612714358","name":"Close To You"},"message":"trường tiếng nhật","can_remove":false,"created_time":"2013-11-05T04:10:04+0000","like_count":1,"user_likes":false},"752675224749157":{"id":"752675224749157","from":{"id":"100004094346107","name":"Thuy Nga Nguyen"},"message":"uh mình hỏi trường tiếng nhật nào ấy?","can_remove":false,"created_time":"2013-11-05T04:10:48+0000","like_count":0,"user_likes":false},"752676221415724":{"id":"752676221415724","from":{"id":"100002612714358","name":"Close To You"},"message":"có khắp nước nhật thích ở đâu thì cứ tới vùng đó chất lượng 大体同じ学費も七十万かな....","can_remove":false,"created_time":"2013-11-05T04:13:53+0000","like_count":0,"user_likes":false},"752676224749057":{"id":"752676224749057","from":{"id":"100001156666759","name":"Kenshuu Steam"},"message":"cái này bị chịu. trong mơ cũng không nghĩ đến sẽ được du học","can_remove":false,"created_time":"2013-11-05T04:13:55+0000","like_count":0,"user_likes":false},"752677251415621":{"id":"752677251415621","from":{"id":"100004094346107","name":"Thuy Nga Nguyen"},"message":"theo bạn Close To You thì nên học trường nào?","message_tags":[{"id":"100002612714358","name":"Close To You","type":"user","offset":9,"length":12}],"can_remove":false,"created_time":"2013-11-05T04:16:54+0000","like_count":0,"user_likes":false},"752679471415399":{"id":"752679471415399","from":{"id":"100005801442456","name":"An Nguyen"},"message":"Bạn định học ơ đâu? Minh thì ko rõ nhưng các trường đều có mối quan hệ với nhau, mình có thể hỏi tham khảo giáo viên giúp bạn.Đánh giá khách quan thì trường senmon họ nhận học sjnh từ trường tiếng nên chất lượng thế nào thì họ cũng hiểu thôi.","can_remove":false,"created_time":"2013-11-05T04:23:26+0000","like_count":0,"user_likes":false},"752679478082065":{"id":"752679478082065","from":{"id":"100002612714358","name":"Close To You"},"message":"だって、考え方次第だとゆったじゃないですか。じゃ、愛知学院大学行ってみて","can_remove":false,"created_time":"2013-11-05T04:23:29+0000","like_count":0,"user_likes":false},"752679951415351":{"id":"752679951415351","from":{"id":"100001156666759","name":"Kenshuu Steam"},"message":"行ってみとはいえないよ、やり直す機会がないほど大切なことで、慎重にコンサルティングを聞きたいじゃん","can_remove":false,"created_time":"2013-11-05T04:25:13+0000","like_count":1,"user_likes":false},"752681064748573":{"id":"752681064748573","from":{"id":"100004094346107","name":"Thuy Nga Nguyen"},"message":"Bạn An Nguyen, mình cũng chưa biết nên muốn hỏi mọi người, theo bạn thì nên học trường nào?","message_tags":[{"id":"100005801442456","name":"An Nguyen","type":"user","offset":4,"length":9}],"can_remove":false,"created_time":"2013-11-05T04:29:30+0000","like_count":0,"user_likes":false},"752681304748549":{"id":"752681304748549","from":{"id":"100002612714358","name":"Close To You"},"message":"大丈夫って、人生結構六十年であるから、心配しないで","can_remove":false,"created_time":"2013-11-05T04:29:54+0000","like_count":1,"user_likes":false},"752688914747788":{"id":"752688914747788","from":{"id":"100001416272263","name":"Mai PB"},"message":"Nếu em học cả sáng và chiều được (ít làm baito) thì học trường này của Monbukagakushou. 6 tháng từ chưa biết tiếng lấy được N2, 1 năm thi đậu ĐH hoặc cao học. Có cả ở Tokyo và Osaka. http://www.jasso.go.jp/tokyo/index_e.html","can_remove":false,"created_time":"2013-11-05T04:50:42+0000","like_count":2,"user_likes":false},"752691274747552":{"id":"752691274747552","from":{"id":"100004094346107","name":"Thuy Nga Nguyen"},"message":"Không biết học phí trường này như nào nhỉ anh Mai PB?","message_tags":[{"id":"100001416272263","name":"Mai PB","type":"user","offset":46,"length":6}],"can_remove":false,"created_time":"2013-11-05T05:00:23+0000","like_count":0,"user_likes":false},"752696268080386":{"id":"752696268080386","from":{"id":"100001416272263","name":"Mai PB"},"message":"Thuy Nga Nguyen thông tin ngay trong trang đó rồi còn gì? http://www.jasso.go.jp/tokyo/procedure/index_e.html","message_tags":[{"id":"100004094346107","name":"Thuy Nga Nguyen","type":"user","offset":0,"length":15}],"can_remove":false,"created_time":"2013-11-05T05:14:42+0000","like_count":0,"user_likes":false},"752696854746994":{"id":"752696854746994","from":{"id":"100004094346107","name":"Thuy Nga Nguyen"},"message":"ah em thấy rồi thanks anh Mai PB","message_tags":[{"id":"100001416272263","name":"Mai PB","type":"user","offset":26,"length":6}],"can_remove":false,"created_time":"2013-11-05T05:17:19+0000","like_count":0,"user_likes":false}},"paging":{"cursors":{"after":"NzUyNjc0OTg4MDgyNTE0","before":"NzUyNjc0OTg4MDgyNTE0"},"next":"https://graph.facebook.com/229244010425617_752663221417024/comments?limit=1&summary=1&after=NzUyNjc0OTg4MDgyNTE0"},"summary":{"order":"chronological","total_count":14}}}