{"id":"229244010425617_752724824744197","type":"link","picture":"https://fbexternal-a.akamaihd.net/safe_image.php?d=AQDi9vy6_z_zpfLQ&w=154&h=154&url=http%3A%2F%2Fwww.thesaigontimes.vn%2FUploads%2FArticles%2F105049%2F1afa4_osinonline.jpg","link":"http://www.thesaigontimes.vn/Home/giaitri/tingiaitri/105049/Lien-hoan-phim-Nhat-Ban-o-TPHCM.html","from":{"id":"1148962646","name":"Tran Thi Tuong Van"},"message":"Các mems nào ở SG có thời gian thì tranh thủ tham gia nhé! ^^","created_time":"2013-11-05T07:01:02+0000","updated_time":"2013-11-05T08:19:07+0000","likes":{"data":{"100000108039063":{"id":"100000108039063","name":"Secondhand Lion"},"100003011417151":{"id":"100003011417151","name":"Hue Kim"},"100000027754899":{"id":"100000027754899","name":"Hoang Van Ba"},"1023965040":{"id":"1023965040","name":"Juli KimChi"},"100001365545442":{"id":"100001365545442","name":"Nguyễn Nam"},"100001458099624":{"id":"100001458099624","name":"Kham Pha"},"100001416272263":{"id":"100001416272263","name":"Mai PB"}},"paging":{"cursors":{"after":"MTAwMDAwMTA4MDM5MDYz","before":"MTAwMDAwMTA4MDM5MDYz"},"next":"https://graph.facebook.com/229244010425617_752724824744197/likes?limit=1&summary=1&after=MTAwMDAwMTA4MDM5MDYz"},"summary":{"total_count":7}},"comments":{"data":{"752725194744160":{"id":"752725194744160","from":{"id":"100001416272263","name":"Mai PB"},"message":"Hình như đây là phim Osin màn ảnh rộng được dựng lại từ loạt phim truyền hình Osin ngày trước.","can_remove":false,"created_time":"2013-11-05T07:02:40+0000","like_count":1,"user_likes":false},"752727381410608":{"id":"752727381410608","from":{"id":"1148962646","name":"Tran Thi Tuong Van"},"message":"Mai PB Đúng rồi anh. \"Diễn viên HAMADA Kokone đóng vai Ôsin trong phim m\u0014ới này \u0017được chọn ra từ 2500 \u0002ứng viên tham gia thử vai. Ngoài ra cũng không thể bỏ qua diễn xuất của KOBAYASHI Ayako, người đóng vai Ôsin thời bé trong phim truyền hình “Ôsin” trước đây, lần này vào vai thiếu phụ trẻ nhà chủ mà Ôsin đi ở. (Onda)\"","message_tags":[{"id":"100001416272263","name":"Mai PB","type":"user","offset":0,"length":6}],"can_remove":false,"created_time":"2013-11-05T07:11:30+0000","like_count":2,"user_likes":false},"752748381408508":{"id":"752748381408508","from":{"id":"1023965040","name":"Juli KimChi"},"message":"My Hanh Camloan Tran","message_tags":[{"id":"100005855614847","name":"My Hanh","type":"user","offset":0,"length":7},{"id":"100004251091419","name":"Camloan Tran","type":"user","offset":8,"length":12}],"can_remove":false,"created_time":"2013-11-05T08:19:07+0000","like_count":0,"user_likes":false}},"paging":{"cursors":{"after":"NzUyNzI1MTk0NzQ0MTYw","before":"NzUyNzI1MTk0NzQ0MTYw"},"next":"https://graph.facebook.com/229244010425617_752724824744197/comments?limit=1&summary=1&after=NzUyNzI1MTk0NzQ0MTYw"},"summary":{"order":"chronological","total_count":3}}}