{"id":"229244010425617_752893051394041","type":"status","from":{"id":"100000960252631","name":"Takumi Tuan"},"message":"Xin chào các anh chị senpai.\nEm hiện đang là sinh viên ngành Ngôn ngữ Nhật trường ĐH Ngoại ngữ Đà Nẵng. Em có dự định du học tại Nhật. Qua tìm hiểu thì em có biết được chỉ cần có tiếng Nhật có thể học MBA ngành Quản trị kinh doanh tại Nhật, điều này đúng không ạ? Em thì k thích QTKD cho lắm mà rất đam mê với lập trình phần mềm nên mong anh chị cho em lời khuyên. Em nên học tiếng Nhật thôi rồi sang Nhật du học hay là vừa học tiếng Nhật, vừa học CNTT rồi sang Nhật học lên ạ.\nEm chân thành cảm ơn và nhận mọi sự đóng góp ý kiến từ anh chị. :)","created_time":"2013-11-05T14:13:24+0000","updated_time":"2013-11-05T17:32:19+0000","likes":{"data":{"100003132354797":{"id":"100003132354797","name":"Binhnguyen Pham"},"100003877275415":{"id":"100003877275415","name":"Yuki"}},"paging":{"cursors":{"after":"MTAwMDAzMTMyMzU0Nzk3","before":"MTAwMDAzMTMyMzU0Nzk3"},"next":"https://graph.facebook.com/229244010425617_752893051394041/likes?limit=1&summary=1&after=MTAwMDAzMTMyMzU0Nzk3"},"summary":{"total_count":2}},"comments":{"data":{"752955911387755":{"id":"752955911387755","from":{"id":"100001416272263","name":"Mai PB"},"message":"Bạn có thể học CNTT ở bậc ĐH hoặc cao đẳng. Chỉ cần thi đậu trường đó là có thể xin visa học luôn, không cần học tiếng Nhật nữa. MBA cũng phải thi đậu vào trường mới được, không có chuyện biết tiếng là xong.","can_remove":false,"created_time":"2013-11-05T15:59:05+0000","like_count":1,"user_likes":false},"752956651387681":{"id":"752956651387681","from":{"id":"100000960252631","name":"Takumi Tuan"},"message":"Có nghĩa là mình phải thi EJU tại Nhật phải không ạ? :)","can_remove":false,"created_time":"2013-11-05T16:00:52+0000","like_count":0,"user_likes":false},"752958084720871":{"id":"752958084720871","from":{"id":"100001416272263","name":"Mai PB"},"message":"Thi EJU tại bất cứ đâu, ở VN cũng được, không nhất thiết ở Nhật. Thêm nữa, ĐH thì cũng không phải trường nào cũng bắt thi EJU, có trường chỉ yêu cầu làm bài luận và phỏng vấn (ai xác nhận cái này hộ mình). Cao đẳng hình như đều không cần EJU.","can_remove":false,"created_time":"2013-11-05T16:04:26+0000","like_count":1,"user_likes":false},"752958138054199":{"id":"752958138054199","from":{"id":"100001416272263","name":"Mai PB"},"message":"Kỳ thi EJU: http://www.jasso.go.jp/eju/eju_guide25.html","can_remove":false,"created_time":"2013-11-05T16:04:36+0000","like_count":1,"user_likes":false},"752958841387462":{"id":"752958841387462","from":{"id":"100000960252631","name":"Takumi Tuan"},"message":"Dạ em định học song song tiếng Nhật với Lập trình viên QT (Aptech Ấn Độ cấp - tương đương bằng cao đẳng quốc tế) sau đó học lên để có bằng ĐH ngành CNTT tại Nhật có được không ạ? :)","can_remove":false,"created_time":"2013-11-05T16:06:41+0000","like_count":0,"user_likes":false},"752960168053996":{"id":"752960168053996","from":{"id":"100003310618708","name":"BiNô Triết Gia"},"message":"bạn ơi, bạn hãy tìm hiểu trường APU nhé, trường  này hay có học bong lam, cạu co the xin hoc bông offline tai viet nam thong qua dai dien cua truong, minh dang o tokyo sau nay minh ve do hoc, cau cu len youtube se tuong tan hon","can_remove":false,"created_time":"2013-11-05T16:10:15+0000","like_count":1,"user_likes":false},"752961168053896":{"id":"752961168053896","from":{"id":"100000960252631","name":"Takumi Tuan"},"message":"Dạ cảm ơn anh Ngoc Hien QB ạ :)","message_tags":[{"id":"100003310618708","name":"Ngoc Hien QB","type":"user","offset":14,"length":12}],"can_remove":false,"created_time":"2013-11-05T16:11:27+0000","like_count":1,"user_likes":false},"752961428053870":{"id":"752961428053870","from":{"id":"100000960252631","name":"Takumi Tuan"},"message":"Anh Mai PB cũng cung cấp nhiều thông tin bổ ích. Cảm ơn anh rất nhiều ạ :)","message_tags":[{"id":"100001416272263","name":"Mai PB","type":"user","offset":4,"length":6}],"can_remove":false,"created_time":"2013-11-05T16:12:02+0000","like_count":0,"user_likes":false},"752974704719209":{"id":"752974704719209","from":{"id":"100003310618708","name":"BiNô Triết Gia"},"message":"@Takumi Tuấn: em học gì giữ thế, anh thật bất ngờ đó, cảm ơn em đã chứng minh, thế giơi ko có phân công lao động,:),:), sách triết viet nam can viet lai roi\n\np/s : anh nói vui thôi nhé, chúc  thành công","can_remove":false,"created_time":"2013-11-05T16:43:31+0000","like_count":1,"user_likes":false},"752976561385690":{"id":"752976561385690","from":{"id":"100000960252631","name":"Takumi Tuan"},"message":"Nhưng mà em thấy APU tiền học phí hơi bị cao phải không anh Ngoc Hien QB :D","message_tags":[{"id":"100003310618708","name":"Ngoc Hien QB","type":"user","offset":60,"length":12}],"can_remove":false,"created_time":"2013-11-05T16:48:34+0000","like_count":0,"user_likes":false},"752978231385523":{"id":"752978231385523","from":{"id":"100003310618708","name":"BiNô Triết Gia"},"message":"có học bổng đó em, em giỏi tiếng anh, de xin ma, tính ra một so nganh anh thay, van re hon tokyo, em xem youtube chua","can_remove":false,"created_time":"2013-11-05T16:51:20+0000","like_count":1,"user_likes":false},"752979594718720":{"id":"752979594718720","from":{"id":"100000960252631","name":"Takumi Tuan"},"message":"hihi. Học tiếng Nhật giờ quên hết tiếng Anh rồi anh ơi :D","can_remove":false,"created_time":"2013-11-05T16:54:21+0000","like_count":0,"user_likes":false},"752980131385333":{"id":"752980131385333","from":{"id":"100003310618708","name":"BiNô Triết Gia"},"message":"thi xin xet hoc bong tieng nhat cua cty tu nhu cấp","can_remove":false,"created_time":"2013-11-05T16:55:24+0000","like_count":0,"user_likes":false},"752980374718642":{"id":"752980374718642","from":{"id":"100000960252631","name":"Takumi Tuan"},"message":"Mới năm 2 cũng chưa đủ trình độ anh ơi. :)","can_remove":false,"created_time":"2013-11-05T16:56:00+0000","like_count":0,"user_likes":false},"752989428051070":{"id":"752989428051070","from":{"id":"100003310618708","name":"BiNô Triết Gia"},"message":"em muon hoc lap trinh thi hay hoc lap trinh vien o arena di, da nang có, hoạc học ở trung tam .... dia chi so 2 tran phu thi phải, sau do em thi lay bang cua cisso","can_remove":false,"created_time":"2013-11-05T17:06:26+0000","like_count":1,"user_likes":false},"752991488050864":{"id":"752991488050864","from":{"id":"100003310618708","name":"BiNô Triết Gia"},"message":"bang cisso cao hon aptech, ap tech o viet nam chi la bang cao dang nghe quoc te thoi","can_remove":false,"created_time":"2013-11-05T17:07:11+0000","like_count":1,"user_likes":false},"752991764717503":{"id":"752991764717503","from":{"id":"100000960252631","name":"Takumi Tuan"},"message":"Dạ. Còn bằng Cisso thì sao ạ? Tương đương trình độ gì vậy a Ngoc Hien QB :)","message_tags":[{"id":"100003310618708","name":"Ngoc Hien QB","type":"user","offset":60,"length":12}],"can_remove":false,"created_time":"2013-11-05T17:07:53+0000","like_count":0,"user_likes":false},"752992118050801":{"id":"752992118050801","from":{"id":"100003310618708","name":"BiNô Triết Gia"},"message":"va con dieu nay nua, cisso la phai thi truc tuyen tren toan the gioi, nen em co the lay ngay bang nay o viet nam, ko can qua day moi hoc, em co bang cua cisso, em di i rac no cung nhan","can_remove":false,"created_time":"2013-11-05T17:08:50+0000","like_count":1,"user_likes":false},"752992598050753":{"id":"752992598050753","from":{"id":"100000960252631","name":"Takumi Tuan"},"message":"Hế hế. Qua đó làm thêm lượm bom hả a? Hihi. Thế cisso ở Nhật thì sao ạ? :)","can_remove":false,"created_time":"2013-11-05T17:09:55+0000","like_count":0,"user_likes":false},"752993054717374":{"id":"752993054717374","from":{"id":"100003310618708","name":"BiNô Triết Gia"},"message":"chứng chỉ toàn cầu, hơn bằng dại học, truoc anh muon hoc nhung lai vi phai di kiem com nen ko con thoi gian nua, lap trinh vien chi la noi chung thoi, neu muon thi hay hoc CDMA,","can_remove":false,"created_time":"2013-11-05T17:11:02+0000","like_count":1,"user_likes":false},"752993561383990":{"id":"752993561383990","from":{"id":"100003310618708","name":"BiNô Triết Gia"},"message":"hoc o nhat thi dat thoi, trong khi bang nay lai phai thi truc tuyen, tinh trung thuc cao va dc the gioi cong nhan, truoc anh lam o viet nam em ah","can_remove":false,"created_time":"2013-11-05T17:12:09+0000","like_count":1,"user_likes":false},"752993978050615":{"id":"752993978050615","from":{"id":"100000960252631","name":"Takumi Tuan"},"message":"Như vậy học lâu k a?","can_remove":false,"created_time":"2013-11-05T17:13:09+0000","like_count":0,"user_likes":false},"752994038050609":{"id":"752994038050609","from":{"id":"100003310618708","name":"BiNô Triết Gia"},"message":"bang lap trinh vien thi hay hoc o viet nam, anh khuyen chan thanh, vi qua ben nay no cung nhu vay thoi, van phai thi toan cau ma","can_remove":false,"created_time":"2013-11-05T17:13:18+0000","like_count":0,"user_likes":false},"752994288050584":{"id":"752994288050584","from":{"id":"100003310618708","name":"BiNô Triết Gia"},"message":"lau hay mau do la do em co chiu dau tu hay ko, that su la kho, chu ko de, neu em quen anh nao hoc quan tri mang em hoi ho hoc kho hay de","can_remove":false,"created_time":"2013-11-05T17:14:08+0000","like_count":0,"user_likes":false},"752994671383879":{"id":"752994671383879","from":{"id":"100000960252631","name":"Takumi Tuan"},"message":"Dạ lập trình thì phải khó rồi. Nhưng bù lại có tương lai hơn :D","can_remove":false,"created_time":"2013-11-05T17:14:55+0000","like_count":0,"user_likes":false},"752995954717084":{"id":"752995954717084","from":{"id":"100003310618708","name":"BiNô Triết Gia"},"message":"quan diem cua anh, nganh nao cung co thể giau cả, tuong lai do em, mien minh that su thich va gang phan dau, hay phan ra tung thoi ky ma học, hoc gi xong roi hay hoc cai tiep theo, dung vi ap luc tuoi tre ma phai hoc cung mot luc nhu the","can_remove":false,"created_time":"2013-11-05T17:17:29+0000","like_count":1,"user_likes":false},"752996818050331":{"id":"752996818050331","from":{"id":"100000960252631","name":"Takumi Tuan"},"message":"Dạ. Em cảm ơn a ạ. Mà hình như CISCO không có đào tạo về Lập trình mà nó chuyên bên mảng quản trị mạng thì phải a ơi :)","can_remove":false,"created_time":"2013-11-05T17:18:38+0000","like_count":0,"user_likes":false},"752997424716937":{"id":"752997424716937","from":{"id":"100003310618708","name":"BiNô Triết Gia"},"message":"lap trinh la chung, the dai y em muon hoc lap trinh de lam cai gi thì anh moi biet, chu lap trinh vien chi chung, hoc tất cả ah","can_remove":false,"created_time":"2013-11-05T17:20:21+0000","like_count":1,"user_likes":false},"752997598050253":{"id":"752997598050253","from":{"id":"100003310618708","name":"BiNô Triết Gia"},"message":"lap trinh java,, nhúng, wed....","can_remove":false,"created_time":"2013-11-05T17:20:42+0000","like_count":1,"user_likes":false},"752998144716865":{"id":"752998144716865","from":{"id":"100000960252631","name":"Takumi Tuan"},"message":"Dạ đúng rồi. Java, dot net, C#, SQL,...","can_remove":false,"created_time":"2013-11-05T17:21:50+0000","like_count":0,"user_likes":false},"752998364716843":{"id":"752998364716843","from":{"id":"100003310618708","name":"BiNô Triết Gia"},"message":"như bên nhật các công ty tuyen người việt sang đào tạo, miễn co n3 tiếng nhật, ko cần biêt học gì ra, va phai test iq, lam toan logic","can_remove":false,"created_time":"2013-11-05T17:22:20+0000","like_count":0,"user_likes":false},"752998644716815":{"id":"752998644716815","from":{"id":"100000960252631","name":"Takumi Tuan"},"message":"Em chuẩn bị tháng sau thi N3 đây a :)","can_remove":false,"created_time":"2013-11-05T17:23:01+0000","like_count":0,"user_likes":false},"752999168050096":{"id":"752999168050096","from":{"id":"100003310618708","name":"BiNô Triết Gia"},"message":"học lắm ra làm một thứ, có người anh biết từ luc thi robocon, nguoi nay hoc chi moi lap trinh nhung, intel Việt Nam tuyen luon, luong thang 2000, theo em tuongai chua","can_remove":false,"created_time":"2013-11-05T17:24:07+0000","like_count":1,"user_likes":false},"752999408050072":{"id":"752999408050072","from":{"id":"100003310618708","name":"BiNô Triết Gia"},"message":"cty nhan thuong tuyen lap trinh java,","can_remove":false,"created_time":"2013-11-05T17:24:53+0000","like_count":1,"user_likes":false},"752999471383399":{"id":"752999471383399","from":{"id":"100000960252631","name":"Takumi Tuan"},"message":"Gê quá :D","can_remove":false,"created_time":"2013-11-05T17:25:00+0000","like_count":0,"user_likes":false},"752999724716707":{"id":"752999724716707","from":{"id":"100000960252631","name":"Takumi Tuan"},"message":"Em đang nghiên cứu thêm Java vào thời gian rãnh, vì trên trường học tiếng Nhật cũng hơi nặng :)","can_remove":false,"created_time":"2013-11-05T17:25:31+0000","like_count":0,"user_likes":false},"753000461383300":{"id":"753000461383300","from":{"id":"100003310618708","name":"BiNô Triết Gia"},"message":"boi the, hoc cai gi hoc xong mot cai di, ko lam hong het du tinh cua em do","can_remove":false,"created_time":"2013-11-05T17:26:23+0000","like_count":0,"user_likes":false},"753001284716551":{"id":"753001284716551","from":{"id":"100000960252631","name":"Takumi Tuan"},"message":"Dạ thì ngành chính của em là biên phiên dịch nhưng em muốn có trình độ N2 cùng với IT để làm việc, thế là đủ rồi :)","can_remove":false,"created_time":"2013-11-05T17:27:18+0000","like_count":0,"user_likes":false},"753002488049764":{"id":"753002488049764","from":{"id":"100003310618708","name":"BiNô Triết Gia"},"message":"it la chung thôi, cố lên, ước muốn của em có một con đường khó khăn đó, hay thật chăm chỉ, chúc em thành công,","can_remove":false,"created_time":"2013-11-05T17:30:12+0000","like_count":1,"user_likes":false},"753003368049676":{"id":"753003368049676","from":{"id":"100000960252631","name":"Takumi Tuan"},"message":"Dạ em cảm ơn anh đã tư vấn ạ. Còn thực hiện được hay không phải xem lại :)","can_remove":false,"created_time":"2013-11-05T17:32:19+0000","like_count":0,"user_likes":false}},"paging":{"cursors":{"after":"NzUyOTU1OTExMzg3NzU1","before":"NzUyOTU1OTExMzg3NzU1"},"next":"https://graph.facebook.com/229244010425617_752893051394041/comments?limit=1&summary=1&after=NzUyOTU1OTExMzg3NzU1"},"summary":{"order":"chronological","total_count":40}}}