{"id":"229244010425617_752897908060222","type":"status","from":{"id":"1146680551","name":"優しい なぁ"},"message":"Gởi đến những người đã sống và đang sống ở nhật 1 câu hỏi mà tới bây giờ mình vẫn còn thắc mắc.Là tại sao người Nhật họ có thể giỏi chịu đựng đến thế\n(từ công việc , thiên tai hay đời sống xã hội...v.v.)? họ trung thành và tâm huyết,trách nhiệm khi làm 1 việc gì đó đến thế? Họ có điều đó nhờ vào điều gì....Mình cứ ngẩm nghĩ mãi về 1 câu đã nghe được từ 1 ai đó\n\"Văn hóa thằng Mỹ nó tự cho là tao thích cái gì tao làm cái đó\nNhưng mà văn hóa mỹ rất sợ văn hóa Nhật \nNhật là võ sỹ đạo nói là làm\nMẹ , chơi cực kỳ quân tử...\nNhưng Nhật rất sợ văn hóa trung quốc\nNó khó hiểu lắm, k nói mà làm\nÝ nhưng mà Trung Quốc ớn Việt Nam lắm\nVì Việt Nam nói 1 đằng làm 1 nẻo.\"","created_time":"2013-11-05T14:18:52+0000","updated_time":"2013-11-06T07:45:28+0000","likes":{"data":{"100001526631937":{"id":"100001526631937","name":"Tường Oanh Mineko"},"701545698":{"id":"701545698","name":"Ha Phong"},"100004397530540":{"id":"100004397530540","name":"Salry NGuyen Thu"},"100003888576324":{"id":"100003888576324","name":"Nguyen Quan"},"100002871405403":{"id":"100002871405403","name":"Thach Sanh"},"100000101180940":{"id":"100000101180940","name":"Trà Chanh"},"100002204642809":{"id":"100002204642809","name":"Meo Min"},"1748812390":{"id":"1748812390","name":"Đường Xưa Mây Trắng"},"100002288193040":{"id":"100002288193040","name":"Dung Thuy"},"100001257093338":{"id":"100001257093338","name":"Hanh Dang"},"100000386836450":{"id":"100000386836450","name":"Bích Châm"},"1082956399":{"id":"1082956399","name":"Danny Dee Nguyen IE"},"100001416272263":{"id":"100001416272263","name":"Mai PB"},"100002157379029":{"id":"100002157379029","name":"Nguyen Hai Dung"},"100000468762077":{"id":"100000468762077","name":"Youki Youki"},"100000543135715":{"id":"100000543135715","name":"Nguyễn Ngọc Ánh"},"100005801442456":{"id":"100005801442456","name":"An Nguyen"},"100006767705219":{"id":"100006767705219","name":"Kim Liên"},"100005859968752":{"id":"100005859968752","name":"Lan Tran"},"100000971222044":{"id":"100000971222044","name":"Nhoc' Satoshi"},"100000030073288":{"id":"100000030073288","name":"Thanh Danh Tran"}},"paging":{"cursors":{"after":"MTAwMDAxNTI2NjMxOTM3","before":"MTAwMDAxNTI2NjMxOTM3"},"next":"https://graph.facebook.com/229244010425617_752897908060222/likes?limit=1&summary=1&after=MTAwMDAxNTI2NjMxOTM3"},"summary":{"total_count":22}},"comments":{"data":{"752899081393438":{"id":"752899081393438","from":{"id":"100000030073288","name":"Thanh Danh Tran"},"message":"1 vote cho Anh Nguyễn kết nhất 4 câu cuối =)) vì tính xác thật rất là cao :)","message_tags":[{"id":"1146680551","name":"Anh Nguyễn","type":"user","offset":11,"length":10}],"can_remove":false,"created_time":"2013-11-05T14:22:11+0000","like_count":1,"user_likes":false},"752902501393096":{"id":"752902501393096","from":{"id":"100000468762077","name":"Youki Youki"},"message":"hehehe chuẩn ko cần phải chỉnh, ok lun","can_remove":false,"created_time":"2013-11-05T14:30:06+0000","like_count":0,"user_likes":false},"752903654726314":{"id":"752903654726314","from":{"id":"100001416272263","name":"Mai PB"},"message":"Cũng chí lí, nhưng mà câu hỏi trên với mấy lời \"bình loạn\" ở dưới không ăn nhập lắm nhỉ?","can_remove":false,"created_time":"2013-11-05T14:32:38+0000","like_count":2,"user_likes":false},"752913788058634":{"id":"752913788058634","from":{"id":"100001580479641","name":"Hà Xuân Thủy"},"message":"Muốn biết rõ nội tình thế nào thì bạn nên tìm hiểu kĩ về giáo dục của họ. Đều là Đông Á cả mới sinh ra ko khác gì người Việt đâu.","can_remove":false,"created_time":"2013-11-05T14:52:20+0000","like_count":0,"user_likes":false},"752919868058026":{"id":"752919868058026","from":{"id":"100001416272263","name":"Mai PB"},"message":"Anh trả lời cho câu hỏi của Anh Nguyễn nhé, hy vọng được thỏa mãn.\n\nNgười Nhật chịu đựng giỏi là vì 2 lý do chính: hoàn cảnh của họ đặc tính dân tộc của họ, nhưng lý do thứ 2 có khi cũng là do lý do thứ nhất mà ra. Hoàn cảnh của họ là gì, nhiều thiên tai, không có tài nguyên, nên họ phải học cách chịu đựng. Đặc tính dân tộc của họ là gì, khổ từ ngày xưa, trong quá khứ cũng bị các giai cấp trên áp bức (phong kiến) mà không có dân chủ như phong kiến châu Âu. Điều này khiến cho họ chỉ bật dậy phát triển khi cảm nhận nguy cơ, khi bị chê bai, khác với các nước Âu Mỹ phát huy được nội lực khi được khen ngợi, khích lệ.\n\nCó 1 ví dụ minh họa thú vị về sự chịu đựng trong luật lệ của người Nhật: địa chỉ bưu điện của người Nhật được viết theo thứ tự Quốc Gia -> Tỉnh -> Thành Phố -> Quận -> Phường -> Nhà, tức là từ lớn đến nhỏ dần. So với Âu Mỹ thì sao nhỉ, địa chỉ bưu điện của họ là từ nhỏ vươn ra to: Nhà -> Phường -> Quận -> Thành Phố -> Tỉnh -> Quốc Gia. ^^\n\nVN vừa thích Âu Mỹ vừa có nhiều giá trị quan châu Á, nên thực ra là một dân tộc rất thú vị và tiềm năng. Chỉ có điều chưa có cái đầu tầu và đường ray tốt thôi.\n\nAi đồng ý thì like giúp nào. :-D","message_tags":[{"id":"1146680551","name":"Anh Nguyễn","type":"user","offset":28,"length":10}],"can_remove":false,"created_time":"2013-11-05T14:59:24+0000","like_count":13,"user_likes":false},"753008351382511":{"id":"753008351382511","from":{"id":"1146680551","name":"優しい なぁ"},"message":"Sẵn bác Mai nói về địa chỉ bưu điện của Nhật.Cho e hỏi là họ quản lý thế nào khi đường  k có tên nhỉ.^_^","can_remove":false,"created_time":"2013-11-05T17:44:04+0000","like_count":1,"user_likes":false},"753015448048468":{"id":"753015448048468","from":{"id":"100000381394367","name":"Thành Nguyễn"},"message":"Một phần lý do theo nhận xét của mình https://www.facebook.com/notes/c%E1%BB%99ng-%C4%91%E1%BB%93ng-vi%E1%BB%87t-nh%E1%BA%ADt-vietnam-japan-community-/nghi%E1%BB%87p-%C4%91%E1%BA%A1o-t%C3%A2m-%C4%91%E1%BA%A1o-ng%E1%BB%AF-%C4%91%E1%BA%A1o/752316554785024","can_remove":false,"created_time":"2013-11-05T18:04:02+0000","like_count":1,"user_likes":false},"753347664681913":{"id":"753347664681913","from":{"id":"100000101180940","name":"Trà Chanh"},"message":"Viet Huong Nguyen :v","message_tags":[{"id":"100000020988042","name":"Viet Huong Nguyen","type":"user","offset":0,"length":17}],"can_remove":false,"created_time":"2013-11-06T07:45:28+0000","like_count":0,"user_likes":false}},"paging":{"cursors":{"after":"NzUyODk5MDgxMzkzNDM4","before":"NzUyODk5MDgxMzkzNDM4"},"next":"https://graph.facebook.com/229244010425617_752897908060222/comments?limit=1&summary=1&after=NzUyODk5MDgxMzkzNDM4"},"summary":{"order":"chronological","total_count":8}}}