{"id":"229244010425617_753179398032073","type":"photo","object_id":"10152335515520744","picture":"https://fbcdn-photos-g-a.akamaihd.net/hphotos-ak-prn2/t1.0-0/960042_10152335515520744_859036538_s.jpg","link":"https://www.facebook.com/photo.php?fbid=10152335515520744&set=a.10151363098395744.564569.131539760743&type=1","from":{"id":"100001416272263","name":"Mai PB"},"message":"Sắp tới có lẽ giá cước 3G ở VN sẽ tăng. Có vẻ là hợp lý vì đang rất rẻ. Nhưng chất lượng của nó so với 3G của Nhật thế nào, ai biết không?","created_time":"2013-11-06T00:39:21+0000","updated_time":"2013-11-06T05:30:29+0000","likes":{"data":{"100004253979918":{"id":"100004253979918","name":"Louis Hoàng Văn Thái"},"100005440689746":{"id":"100005440689746","name":"Trang Mapy"},"100002589963683":{"id":"100002589963683","name":"Hà Văn Tuấn"},"100003814756892":{"id":"100003814756892","name":"Hai Nguyen"},"100001594722256":{"id":"100001594722256","name":"Viết An Phạm"},"100001458099624":{"id":"100001458099624","name":"Kham Pha"},"100003005597243":{"id":"100003005597243","name":"Zany Royal"},"100006767705219":{"id":"100006767705219","name":"Kim Liên"},"100000299798248":{"id":"100000299798248","name":"Vẹt Đêm"},"100003097134275":{"id":"100003097134275","name":"Loc Do"},"100004041794244":{"id":"100004041794244","name":"Watanuki Kimihiro"},"100005801442456":{"id":"100005801442456","name":"An Nguyen"},"100006479420145":{"id":"100006479420145","name":"Trịnh Thị Kim Anh"},"100000128764209":{"id":"100000128764209","name":"Chau Le"},"100004094346107":{"id":"100004094346107","name":"Thuy Nga Nguyen"},"100006452505327":{"id":"100006452505327","name":"Nhã Nguyễn"}},"paging":{"cursors":{"after":"MTAwMDA0MjUzOTc5OTE4","before":"MTAwMDA0MjUzOTc5OTE4"},"next":"https://graph.facebook.com/229244010425617_753179398032073/likes?limit=1&summary=1&after=MTAwMDA0MjUzOTc5OTE4"},"summary":{"total_count":17}},"comments":{"data":{"753183288031684":{"id":"753183288031684","from":{"id":"100000128764209","name":"Chau Le"},"message":"Chất lượng bèo kinh khủng, giá cước 3G thật ra đã tăng rồi, mắc mà ko ổnh định tí nào chậm mà đôi khi còn mất tính hiệu vinaphone _ _ xài 15 phút đã tốn hơn 4000 rồi, tăng hơn 50% lun ấy chứ","can_remove":false,"created_time":"2013-11-06T00:47:21+0000","like_count":0,"user_likes":false},"753184074698272":{"id":"753184074698272","from":{"id":"100000128764209","name":"Chau Le"},"message":"50.000 mà xài trg vòng 1 ngày ~.~ chém đến bạo","can_remove":false,"created_time":"2013-11-06T00:49:33+0000","like_count":1,"user_likes":false},"753184874698192":{"id":"753184874698192","from":{"id":"100001156666759","name":"Kenshuu Steam"},"message":"3G = Gia Tăng Giá, Giảm chất lượng, Giảm khách hàng","can_remove":false,"created_time":"2013-11-06T00:51:43+0000","like_count":1,"user_likes":false},"753185081364838":{"id":"753185081364838","from":{"id":"100001156666759","name":"Kenshuu Steam"},"message":"nói chung là 3G cùi mía, không load nổi cái hình vê để coi","can_remove":false,"created_time":"2013-11-06T00:51:58+0000","like_count":1,"user_likes":false},"753186231364723":{"id":"753186231364723","from":{"id":"100001416272263","name":"Mai PB"},"message":"Nghĩa là của rẻ là của ôi? Tiếng Nhật nói là 安かろう悪かろう, rất hay được ví von.","can_remove":false,"created_time":"2013-11-06T00:54:40+0000","like_count":0,"user_likes":false},"753186824697997":{"id":"753186824697997","from":{"id":"100000603915176","name":"悪いな ぁ"},"message":"Nói quá đáng rồi, gì mà kg load đc! Anh Mai PB về VN dùng thử sẽ biết mà.","message_tags":[{"id":"100001416272263","name":"Mai PB","type":"user","offset":40,"length":6}],"can_remove":false,"created_time":"2013-11-06T00:56:20+0000","like_count":0,"user_likes":false},"753187114697968":{"id":"753187114697968","from":{"id":"100001156666759","name":"Kenshuu Steam"},"message":"xin thề nói thật, hôm qua đi ăn với vợ ở quận 2, ngồi định xem mấy cái hình mà load không nổi kìa. sau đó về nhà ở q9 cũng không xem được","can_remove":false,"created_time":"2013-11-06T00:57:09+0000","like_count":1,"user_likes":false},"753187951364551":{"id":"753187951364551","from":{"id":"100006452505327","name":"Nhã Nguyễn"},"message":"sáng load 1 chút nhưng tốii thì thôi rồi.....","can_remove":false,"created_time":"2013-11-06T00:58:56+0000","like_count":1,"user_likes":false},"753189848031028":{"id":"753189848031028","from":{"id":"100000128764209","name":"Chau Le"},"message":"nói gì đến load, đến khu đường phan văn trị q5, lúc nào cũng mất sóng 3G mất lun sóng mới ghê, ko lên đc mạng thì lấy gì đến load ~~","can_remove":false,"created_time":"2013-11-06T01:04:35+0000","like_count":0,"user_likes":false},"753190491364297":{"id":"753190491364297","from":{"id":"100001156666759","name":"Kenshuu Steam"},"message":"ko có sóng còn đỡ tốn pin, đằng này sóng như sóng biển ấy tốn pin như voi húp philatop ấy","can_remove":false,"created_time":"2013-11-06T01:05:59+0000","like_count":1,"user_likes":false},"753199218030091":{"id":"753199218030091","from":{"id":"100002145579460","name":"Nhất Cước Sanji"},"message":"tang roi va em noi that ko bang gprs","can_remove":false,"created_time":"2013-11-06T01:29:58+0000","like_count":1,"user_likes":false},"753204131362933":{"id":"753204131362933","from":{"id":"100000328742646","name":"Trần Giáp"},"message":"Nếu tăng giá mà tăng chất lượng dịch vụ hoặc giữ nguyên thì ko nói làm gì, đằng này tốc độ 3g giảm 4 lần, từ 120kps xuống 30kps thì đúng là -_-","can_remove":false,"created_time":"2013-11-06T01:44:25+0000","like_count":2,"user_likes":false},"753207604695919":{"id":"753207604695919","from":{"id":"100000299798248","name":"Vẹt Đêm"},"message":"tăng giá và giảm tốc độ : ai xài 3g cũng biết mấy điều đó, cơ mà cũng phải chịu vì có nói thế nào cũng ko bằng tiếng nói của mấy anh đứng đầu dịch vụ 3g đâu :))) sắp tới còn tăng nữa á","can_remove":false,"created_time":"2013-11-06T01:52:30+0000","like_count":1,"user_likes":false},"753208054695874":{"id":"753208054695874","from":{"id":"100000128764209","name":"Chau Le"},"message":"_ _!!","can_remove":false,"created_time":"2013-11-06T01:53:52+0000","like_count":0,"user_likes":false},"753259601357386":{"id":"753259601357386","from":{"id":"100004094346107","name":"Thuy Nga Nguyen"},"message":"Nói chung đánh giá 5 từ này\" đăng ký cũng như không\"!","can_remove":false,"created_time":"2013-11-06T03:20:59+0000","like_count":1,"user_likes":false},"753262054690474":{"id":"753262054690474","from":{"id":"100001416272263","name":"Mai PB"},"message":"Thế chẳng hóa ra là \"không đăng ký cũng không sao\" à? :-)","can_remove":false,"created_time":"2013-11-06T03:27:34+0000","like_count":2,"user_likes":false},"753270631356283":{"id":"753270631356283","from":{"id":"100004094346107","name":"Thuy Nga Nguyen"},"message":"Vậy nên tháng này e không đăng ký!","can_remove":false,"created_time":"2013-11-06T03:35:50+0000","like_count":1,"user_likes":false},"753271021356244":{"id":"753271021356244","from":{"id":"100000128764209","name":"Chau Le"},"message":"Vậy nên em cắt lun -.- khỏi xài","can_remove":false,"created_time":"2013-11-06T03:36:53+0000","like_count":1,"user_likes":false},"753312901352056":{"id":"753312901352056","from":{"id":"100005334430359","name":"Mưa Lạnh"},"message":"tùy vùng thôi chứ ở mấy nơi trung tâm thì 3G vẫn chạy vù vù","can_remove":false,"created_time":"2013-11-06T05:30:29+0000","like_count":0,"user_likes":false}},"paging":{"cursors":{"after":"NzUzMTgzMjg4MDMxNjg0","before":"NzUzMTgzMjg4MDMxNjg0"},"next":"https://graph.facebook.com/229244010425617_753179398032073/comments?limit=1&summary=1&after=NzUzMTgzMjg4MDMxNjg0"},"summary":{"order":"chronological","total_count":19}}}