{"id":"229244010425617_753257884690891","type":"status","from":{"id":"100005801442456","name":"An Nguyen"},"message":"LUYỆN NGHE N2 TRỰC TUYẾN\n\nBài 1:TÌM HIỂU 5 DẠNG GẶP TRONG PHẦN NGHE.\n\nNhư trước đây mình đã giới thiệu với mọi người về 1 chương trình đặc biệt và đó chính là điều mình mang đến cho các bạn ngày hôm nay!\n\nCó gì đặc biệt? Bạn có thể tìm tài liệu ngữ pháp, từ vựng hay cả đọc hiểu.Nhưng để luyện nghe thì gần như là không có! Nếu có thì đó là những tài liệu đã cũ và không giống các trọng tâm như N2,tất cả những bài nghe mình đưa lên đều mới nhất và sát đề thi N2 cả.Và 1 điều hơn nữa đó chính là chữ \" trực tuyến \", nó có nghĩa bạn có thể nghe, trả lời và hơn nữa đưa ra các câu hỏi về phần thắc mắc của mình và nhận câu trả lời từ mọi người!! Mình sẽ cố gắng đăng 1 tuần 1 bài nghe cho các bạn.\n\nTrong các đề thi nghe, có 5 dạng nghe và thật sự nhiều ban chỉ nghe mà không biết nó là gì và tìm ra cách  hiệu quả để nghe tốt từng dạng.Bây giờ thì tìm hiểu 5 dạng đó là gì và mình sẽ cho bạn nghe ví dụ !\n\nDạng 1 :Sau khi nghe, nhìn vào phần đáp án và chọn câu trả lời đúng.\n\n***Lời khuyên: phần này thì đầu đoạn nghe và cuối đoạn nghe luôn có câu hỏi, hãy ghi nhớ hay ghi ra nháp.Rất quan trọng đấy.\n\nDạng 2 :Sau khi đọc bạn có thời gian sau khi đọc các câu trả lời, các bạn sẽ có 20s cho lựa chọn đáp án ở khoảng này.Nên hãy chăm chú mà đọc nhé! Không nên vội vã!\n\n***Lời khuyên: không nên nghe cặn kẽ mà hãy nghe tổng quát cả đoạn\n\nDạng 3: Nghe đoạn văn, bạn sẽ nghe các câu trả lời và không có phần đọc và chọn đâu.\n\n***Lời khuyên: đối với phần này, điều đầu tiên cần biết ai đang nói và vị trí hành động đang ở đâu! Tiếp đến là hãy ghi nhớ ra giấy nháp! Nếu không thể chi tiết thì rất khó đưa ra câu trả lời đúng, hay ghi lại!\n\nDạng 4: Nghe đoạn văn ngắn không có ghi lại câu hỏi và đáp án, điều đó trong phần nghe.Dạng này khá giống như dạng 3 nhưng ngắn hơn và tốc độ đọc cũng nhanh hơn và đáp án chỉ có 3 câu a, b c thôi!\n\n***Lời khuyên: cần thận trọng khi nghe, thoải mái và thả lỏng! Đừng nên gò ép!\n\nDạng 5:Dạng này thường quay xung quanh các đoạn hội thoại của các nhân vật mà họ có từ Tivi, báo chí,...rồi đưa ra cảm nghĩ và ý kiến.\nĐoạn văn thường dài và không có phần đọc các đáp án.\n\n***Lời khuyên: hay ghi nhớ bằng cách chép ra nháp và cố nghe đến cuối đoạn văn đấy! Đừng vội đưa ra đáp án!\n\nBây giờ thì bắt đầu nào!\n\nHãy nghe 5 dạng qua 5 câu ví dụ.Đừng vội đọc cm của người khác mà hãy nghe và đưa ra đáp án của riêng mình....let's go!!!\n \n****Links nghe:\n\n  Link 1: ( dạng 1,2 và 3 )\nhttp://youtu.be/5MBOuVRx7_8\n\n  Link 2: ( dạng 4 và 5 )\nhttp://youtu.be/9cdNyQMwKqs\n\n****CÂU HỎI:\n\nDạng 1: hãy chọn đáp án sau:\n\nVd1:\n1/ 0001 02\n2/ 0001 01\n3/ 0227 01\n4/ 0227 02\n\nVd2:\n1/ 55154#2000204#   *\n2/ 55154#2000204*   #\n3/ 55154#2000294#  1\n4/5515  #2000204#   1\n\nDạng 2:hãy chọn đáp án sau:\n\n1/松本先生が論文を書くから。\n2/森田先生が論文を読むから。\n3/松本先生が風邪を引いたから。\n4/森田先生が風邪を引いたから。\n\nDạng 3, 4 và 5 hãy đưa ra đáp án nhé!!!","created_time":"2013-11-06T03:17:17+0000","updated_time":"2013-11-07T00:48:33+0000","likes":{"data":{"100002470650247":{"id":"100002470650247","name":"LinhLinh Chan"},"100004450956167":{"id":"100004450956167","name":"Thắng Satoh"},"100003049639881":{"id":"100003049639881","name":"Truong Luvuxy"},"1816269439":{"id":"1816269439","name":"Dao Ngoc"},"100003632988405":{"id":"100003632988405","name":"Skr Trang"},"100005801442456":{"id":"100005801442456","name":"An Nguyen"},"100005436934892":{"id":"100005436934892","name":"Quang Quynh"},"1122379216":{"id":"1122379216","name":"Hà Ngô"},"100000047107627":{"id":"100000047107627","name":"Tiểu Phương"},"100001231404357":{"id":"100001231404357","name":"Quoc Anh"},"1822854513":{"id":"1822854513","name":"Sữa Chua Không Đường"},"100002059771738":{"id":"100002059771738","name":"Yen Hai"},"100003055422184":{"id":"100003055422184","name":"Kaze Le"},"100002907128122":{"id":"100002907128122","name":"Trang Đỗ"},"100000062884729":{"id":"100000062884729","name":"Huệ Ca"},"100001906149396":{"id":"100001906149396","name":"Phan Nhựt Tường"},"100002526707690":{"id":"100002526707690","name":"Phan Toan"},"100001365545442":{"id":"100001365545442","name":"Nguyễn Nam"},"100004094346107":{"id":"100004094346107","name":"Thuy Nga Nguyen"},"100003770118011":{"id":"100003770118011","name":"Trung Hoa Pham"},"100001257093338":{"id":"100001257093338","name":"Hanh Dang"},"100005495773832":{"id":"100005495773832","name":"Hiền Vũ"},"1821970083":{"id":"1821970083","name":"Nguyễn Mạnh Cường"},"100001416272263":{"id":"100001416272263","name":"Mai PB"}},"paging":{"cursors":{"after":"MTAwMDAyNDcwNjUwMjQ3","before":"MTAwMDAyNDcwNjUwMjQ3"},"next":"https://graph.facebook.com/229244010425617_753257884690891/likes?limit=1&summary=1&after=MTAwMDAyNDcwNjUwMjQ3"},"summary":{"total_count":27}},"comments":{"data":{"753261641357182":{"id":"753261641357182","from":{"id":"100001416272263","name":"Mai PB"},"message":"An Nguyen đưa cả hướng dẫn cách làm bằng tiếng Nhật nữa, như khi làm đề thật ấy. Hay là bạn nào biết cũng post giúp vào đây.","message_tags":[{"id":"100005801442456","name":"An Nguyen","type":"user","offset":0,"length":9}],"can_remove":false,"created_time":"2013-11-06T03:26:27+0000","like_count":0,"user_likes":false},"753262414690438":{"id":"753262414690438","from":{"id":"100005801442456","name":"An Nguyen"},"message":"Cách làm bằng tiếng nhật là sao anh?","can_remove":false,"created_time":"2013-11-06T03:28:12+0000","like_count":0,"user_likes":false},"753265441356802":{"id":"753265441356802","from":{"id":"100001416272263","name":"Mai PB"},"message":"Tức là 5 dạng bài trên làm như thế nào, hướng dẫn bằng chính tiếng Nhật ấy.","can_remove":false,"created_time":"2013-11-06T03:32:38+0000","like_count":0,"user_likes":false},"753269688023044":{"id":"753269688023044","from":{"id":"100005801442456","name":"An Nguyen"},"message":"E dịch ra rồi đó@.@! Phải ghi lại tiếng Nhật nữa hả a! Đc tí e làm luôn","can_remove":false,"created_time":"2013-11-06T03:34:22+0000","like_count":1,"user_likes":false},"753270074689672":{"id":"753270074689672","from":{"id":"100001156666759","name":"Kenshuu Steam"},"message":"có link download thì tốt bạn ạh","can_remove":false,"created_time":"2013-11-06T03:34:41+0000","like_count":0,"user_likes":false},"753270698022943":{"id":"753270698022943","from":{"id":"100005801442456","name":"An Nguyen"},"message":"Bác chuyên ý kiến phản chiều ấy=))","can_remove":false,"created_time":"2013-11-06T03:36:02+0000","like_count":0,"user_likes":false},"753271458022867":{"id":"753271458022867","from":{"id":"100001416272263","name":"Mai PB"},"message":"Để mọi người đỡ bỡ ngỡ khi nghe tiếng Nhật đó lúc thi thật ấy mà.","can_remove":false,"created_time":"2013-11-06T03:37:40+0000","like_count":0,"user_likes":false},"753272694689410":{"id":"753272694689410","from":{"id":"100005801442456","name":"An Nguyen"},"message":"E là e tính làm links dơnload từ đầu rồi, nhưng các đề tài tiếp theo có Liên quan đến youtube nên e muốn tập trung 1 tài khoản luôn, chứ làm mp3 còn nhanh hơn! Nhưng bất lợi nhiều cái trong đó có khoảng quảng bá tên diễn đàn và bảo vệ lợi ích nguồn người đưa.","can_remove":false,"created_time":"2013-11-06T03:40:47+0000","like_count":1,"user_likes":false},"753276714689008":{"id":"753276714689008","from":{"id":"100004390833725","name":"Huong Hong"},"message":"Huong Lan","message_tags":[{"id":"100003852800956","name":"Huong Lan","type":"user","offset":0,"length":9}],"can_remove":false,"created_time":"2013-11-06T03:53:01+0000","like_count":0,"user_likes":false},"753278244688855":{"id":"753278244688855","from":{"id":"100004094346107","name":"Thuy Nga Nguyen"},"message":"Môn nghe là một vấn đề lớn với mình. Thanks bạn An Nguyen","message_tags":[{"id":"100005801442456","name":"An Nguyen","type":"user","offset":48,"length":9}],"can_remove":false,"created_time":"2013-11-06T03:56:43+0000","like_count":0,"user_likes":false},"753335184683161":{"id":"753335184683161","from":{"id":"100001416272263","name":"Mai PB"},"message":"Kenshuu Steam đó là robot đấy, xóa luôn đi :-)","message_tags":[{"id":"100001156666759","name":"Kenshuu Steam","type":"user","offset":0,"length":13}],"can_remove":false,"created_time":"2013-11-06T06:53:47+0000","like_count":1,"user_likes":false},"753335364683143":{"id":"753335364683143","from":{"id":"100001156666759","name":"Kenshuu Steam"},"message":"thảo nào thấy hắn cứ đăng mấy cái hình khoe ... tùm lum lên","can_remove":false,"created_time":"2013-11-06T06:54:34+0000","like_count":0,"user_likes":false},"753340818015931":{"id":"753340818015931","from":{"id":"100004094346107","name":"Thuy Nga Nguyen"},"message":"Đáp án là 1 & 3 phải không An Nguyen?","message_tags":[{"id":"100005801442456","name":"An Nguyen","type":"user","offset":27,"length":9}],"can_remove":false,"created_time":"2013-11-06T07:14:22+0000","like_count":1,"user_likes":false},"753346118015401":{"id":"753346118015401","from":{"id":"100005801442456","name":"An Nguyen"},"message":"Nghe hết đi! Trả lời sau!","can_remove":false,"created_time":"2013-11-06T07:37:54+0000","like_count":0,"user_likes":false},"753813247968688":{"id":"753813247968688","from":{"id":"100005801442456","name":"An Nguyen"},"message":"A đã thêm rồi đấy! Sr nhé@.@","can_remove":false,"created_time":"2013-11-07T00:48:33+0000","like_count":0,"user_likes":false}},"paging":{"cursors":{"after":"NzUzMjYxNjQxMzU3MTgy","before":"NzUzMjYxNjQxMzU3MTgy"},"next":"https://graph.facebook.com/229244010425617_753257884690891/comments?limit=1&summary=1&after=NzUzMjYxNjQxMzU3MTgy"},"summary":{"order":"chronological","total_count":15}}}