{"id":"229244010425617_753358371347509","type":"status","from":{"id":"100002508122689","name":"Vũ Mạnh Tuấn"},"message":"[ Ngữ Pháp N3] Cùng làm nhé mọi người .\nSắp xếp từ thành câu hợp lý: \n1.ここで_____　_____　_____　_____　されています。\n　１．多くの国に　　２．車は　　\n　３．輸出　　　　　４．作られた\n\n２．あの学生は日本語が_____　_____　_____　_____みたい。\n　１．明るくなった　２．ように　\n　３．なってから　　４．わかる\n\n３．忘れちゃうと_____　_____　_____　_____なくしちゃった。\n　１．のに　　　　　２．メモしといた\n　３．いけないから　４．そのメモを\n\n４．この子は_____　_____　_____　_____らしくない。\n　１．大人　　　　　２．子供\n　３．話し方をして　４．みたいな\n\n５．安売りセールで、買おうと_____　_____　_____　_____しまいました。\n　１．シャツを　　　２．買われて\n　３．思っていた　　４．ほかの人に","created_time":"2013-11-06T08:26:09+0000","updated_time":"2013-11-06T10:05:20+0000","likes":{"data":{"100003263272915":{"id":"100003263272915","name":"Teddy Smile"},"100001458099624":{"id":"100001458099624","name":"Kham Pha"},"100001486895069":{"id":"100001486895069","name":"Nguyễn Điệt"},"100001416272263":{"id":"100001416272263","name":"Mai PB"},"100002826418598":{"id":"100002826418598","name":"Harry Minji"},"100000221147466":{"id":"100000221147466","name":"Kiệt Nguyễn"},"100005915713419":{"id":"100005915713419","name":"Hà TaNoshii"},"100005801442456":{"id":"100005801442456","name":"An Nguyen"},"100003049639881":{"id":"100003049639881","name":"Truong Luvuxy"},"100000052335280":{"id":"100000052335280","name":"Thị Pắp"}},"paging":{"cursors":{"after":"MTAwMDAzMjYzMjcyOTE1","before":"MTAwMDAzMjYzMjcyOTE1"},"next":"https://graph.facebook.com/229244010425617_753358371347509/likes?limit=1&summary=1&after=MTAwMDAzMjYzMjcyOTE1"},"summary":{"total_count":11}},"comments":{"data":{"753359674680712":{"id":"753359674680712","from":{"id":"100001156666759","name":"Kenshuu Steam"},"message":"1.ここで作られた車は多くの国に輸出させています\n2.あの学生は日本語が分かるようになってから明るくなったみたい。\n3.忘れちゃうといけないから、メモしといたのに、メモをなくしちゃった。\n4.この子は大人話かたをし子供らしくない\n5.安売りセールで買おうよと思っていた、他の人にシャツを買われてしまいました。","can_remove":false,"created_time":"2013-11-06T08:32:01+0000","like_count":0,"user_likes":false},"753361691347177":{"id":"753361691347177","from":{"id":"100001156666759","name":"Kenshuu Steam"},"message":"chuẩn chưa bạn ?","can_remove":false,"created_time":"2013-11-06T08:40:49+0000","like_count":0,"user_likes":false},"753363684680311":{"id":"753363684680311","from":{"id":"100000625892035","name":"Lưu Trung"},"message":"Xem lai cau 4","can_remove":false,"created_time":"2013-11-06T08:48:47+0000","like_count":0,"user_likes":false},"753363784680301":{"id":"753363784680301","from":{"id":"1146680551","name":"優しい なぁ"},"message":"(Spam)ここで車は作られたとはいえ多くの国に輸出させています。","can_remove":false,"created_time":"2013-11-06T08:48:52+0000","like_count":0,"user_likes":false},"753363838013629":{"id":"753363838013629","from":{"id":"100002508122689","name":"Vũ Mạnh Tuấn"},"message":"Câu 4 có chút vấn đề nhá .","can_remove":false,"created_time":"2013-11-06T08:49:10+0000","like_count":0,"user_likes":false},"753364081346938":{"id":"753364081346938","from":{"id":"100002508122689","name":"Vũ Mạnh Tuấn"},"message":"câu 5 của Kenshuu Steam cũng có chút vấn đề đó","message_tags":[{"id":"100001156666759","name":"Kenshuu Steam","type":"user","offset":10,"length":13}],"can_remove":false,"created_time":"2013-11-06T08:50:01+0000","like_count":0,"user_likes":false},"753364258013587":{"id":"753364258013587","from":{"id":"100001156666759","name":"Kenshuu Steam"},"message":"câu 4 mình đánh thiếu từ, còn câu 5 vấn đề ở đâu ?","can_remove":false,"created_time":"2013-11-06T08:50:44+0000","like_count":0,"user_likes":false},"753365421346804":{"id":"753365421346804","from":{"id":"100002508122689","name":"Vũ Mạnh Tuấn"},"message":"安売りセールで買おうと思っていたシャツを他の人に買われてしまいました。\n＊Cả cụm [安売りセールで買おうと思っていた] nó sẽ bổ nghĩa cho シャツ , trong câu không có dấu phẩy nào đâu !","can_remove":false,"created_time":"2013-11-06T08:54:04+0000","like_count":2,"user_likes":false},"753365964680083":{"id":"753365964680083","from":{"id":"100001156666759","name":"Kenshuu Steam"},"message":"vậy bạn có dịch được câu của mình không? câu mình hoàn toàn không có vấn đề nhá. chỉ là đề cái áo vào về đằng sau thôi","can_remove":false,"created_time":"2013-11-06T08:55:19+0000","like_count":0,"user_likes":false},"753366584680021":{"id":"753366584680021","from":{"id":"100001156666759","name":"Kenshuu Steam"},"message":"đã xem xét lại câu 5, câu này chỉ thích hợp làm bài tập khi học ngữ pháp mệnh đề bổ nghĩa, còn nếu mà đưa ra trên đây cả câu của cậu Vũ Mạnh Tuấn và câu của tôi đều không sai !!!","message_tags":[{"id":"100002508122689","name":"Vũ Mạnh Tuấn","type":"user","offset":133,"length":12}],"can_remove":false,"created_time":"2013-11-06T08:57:45+0000","like_count":1,"user_likes":false},"753366928013320":{"id":"753366928013320","from":{"id":"100002508122689","name":"Vũ Mạnh Tuấn"},"message":"Câu của bạn dịch là : tôi đã định mua, nhưng đã có người khác mua cái áo rồi .\nCòn đáp án sẽ là : cái áo mà tôi định mua , đã có người khác mua rồi .\n\nChủ thể cái áo được đặt trước, thì vế sau người đọc sẽ hiểu là vẫn đang nói đến việc đã có người khác mua ( cái áo đó ) rồi .\nNếu đặt \" cái áo \" ở đằng sau, câu nghe không thuận lắm, về đầu khi đọc lên sẽ không hiểu luôn. Xem xét nghĩa tiếng Việt , nếu cần chọn 1 đáp án duy nhất , thì cái nào sẽ chuẩn hơn ? Mặc dù không hề sai .","can_remove":false,"created_time":"2013-11-06T08:59:04+0000","like_count":2,"user_likes":false},"753367648013248":{"id":"753367648013248","from":{"id":"100001156666759","name":"Kenshuu Steam"},"message":"câu của mình cũng là 1 đáp án đúng, nhưng nếu đi thi N3 thì có lẽ là của bạn sẽ chuẩn hơn,","can_remove":false,"created_time":"2013-11-06T09:01:32+0000","like_count":1,"user_likes":false},"753367848013228":{"id":"753367848013228","from":{"id":"100001156666759","name":"Kenshuu Steam"},"message":"còn khi giao tiếp thì câu của mình tỷ lệ sử dụng sẽ cao hơn đấy.","can_remove":false,"created_time":"2013-11-06T09:02:18+0000","like_count":1,"user_likes":false},"753367884679891":{"id":"753367884679891","from":{"id":"100002508122689","name":"Vũ Mạnh Tuấn"},"message":"đúng , nếu đi thi , cần chọn 1 đáp án thôi, thì sẽ phải chọn cái chuẩn hơn.","can_remove":false,"created_time":"2013-11-06T09:02:21+0000","like_count":1,"user_likes":false},"753382348011778":{"id":"753382348011778","from":{"id":"100004760974173","name":"Anh Tuấn"},"message":"1) 4213\n2) 4231\n3) 3214\n4) 1432\n5) 3142 \nđúng k nhỉ","can_remove":false,"created_time":"2013-11-06T09:50:15+0000","like_count":0,"user_likes":false},"753382661345080":{"id":"753382661345080","from":{"id":"100002508122689","name":"Vũ Mạnh Tuấn"},"message":"Anh Tuấn: chuẩn :D","message_tags":[{"id":"100004760974173","name":"Anh Tuấn","type":"user","offset":0,"length":8}],"can_remove":false,"created_time":"2013-11-06T09:51:44+0000","like_count":0,"user_likes":false},"753383428011670":{"id":"753383428011670","from":{"id":"100004760974173","name":"Anh Tuấn"},"message":"câu 5 bạn đánh thừa mất chữ yo thì phải. chỗ kaou yo to ấy :)","can_remove":false,"created_time":"2013-11-06T09:55:26+0000","like_count":0,"user_likes":false},"753383588011654":{"id":"753383588011654","from":{"id":"100002508122689","name":"Vũ Mạnh Tuấn"},"message":"Ừ, cảm ơn bạn . Mình sẽ sửa cho chuẩn.","can_remove":false,"created_time":"2013-11-06T09:56:09+0000","like_count":0,"user_likes":false},"753385901344756":{"id":"753385901344756","from":{"id":"100004760974173","name":"Anh Tuấn"},"message":"câu của bạn steam làm vậy cũng k hợp lí. trước sau thể thường và thể lịch sự k đồng nhất. :)","can_remove":false,"created_time":"2013-11-06T10:04:20+0000","like_count":0,"user_likes":false},"753388451344501":{"id":"753388451344501","from":{"id":"100004760974173","name":"Anh Tuấn"},"message":"còn nếu ở đấy là dấu phẩy thì k thể đưa về thể ta đc. phải chuyển te hoặc thêm noni :)","can_remove":false,"created_time":"2013-11-06T10:05:20+0000","like_count":1,"user_likes":false}},"paging":{"cursors":{"after":"NzUzMzU5Njc0NjgwNzEy","before":"NzUzMzU5Njc0NjgwNzEy"},"next":"https://graph.facebook.com/229244010425617_753358371347509/comments?limit=1&summary=1&after=NzUzMzU5Njc0NjgwNzEy"},"summary":{"order":"chronological","total_count":21}}}