{"id":"229244010425617_753302094686470","type":"status","from":{"id":"100001416272263","name":"Mai PB"},"message":"Mình biết mấy group của người Nhật thích VN như sau. Nói chuyện thì khá là chán vì nói chung là người Nhật kém communications ^^. Tuy nhiên thỉnh thoảng có những người Nhật đi VN, nhất là mấy thành phố lớn, muốn làm bạn với người Việt, các member có thể kết bạn với họ để luyện tiếng Nhật. Nhưng nhớ là khác với trên FB, kết bạn ngoài đời phải cẩn thận đấy. Chọn bạn mà chơi, nhìn mặt mà bắt hình dong, các cụ nói không sai bao giờ. :-D  Có những anh Nhật mục đích chỉ làm tìm bạn gái thôi đấy. Con gái VN thì phải giữ nhé, các anh VN.\nPS: nói đùa thôi đấy nhé, không phải là phân biệt chủng tộc gì đâu.\n\nベトナム日本交流　On　Facebook\nhttps://www.facebook.com/groups/157641594306750/\n\n日越文化交流会\nhttps://www.facebook.com/groups/632920753387885/\n\nベトナム会\nhttps://www.facebook.com/groups/122447717859958/","created_time":"2013-11-06T04:53:09+0000","updated_time":"2013-11-07T07:46:33+0000","likes":{"data":{"100003310716068":{"id":"100003310716068","name":"Lân Mỹ Nhân"},"100001848885057":{"id":"100001848885057","name":"Tiểu Mỡ Nhi"},"100003262381147":{"id":"100003262381147","name":"Venusstar Dang"},"100001606380276":{"id":"100001606380276","name":"Phan Đức Thái"},"1392762854":{"id":"1392762854","name":"Đỗ Minh Thu"},"100004253979918":{"id":"100004253979918","name":"Louis Hoàng Văn Thái"},"100001594722256":{"id":"100001594722256","name":"Viết An Phạm"},"100004514621076":{"id":"100004514621076","name":"Hason Angle"},"100005694491959":{"id":"100005694491959","name":"Phuong Truong Thi Thanh"},"100004923553810":{"id":"100004923553810","name":"Xuan KY Nguyen"},"100005440689746":{"id":"100005440689746","name":"Trang Mapy"},"100001580479641":{"id":"100001580479641","name":"Hà Xuân Thủy"},"100002871405403":{"id":"100002871405403","name":"Thach Sanh"},"100003321786144":{"id":"100003321786144","name":"Baloon Bambootatoo"},"100000406468208":{"id":"100000406468208","name":"Shmily Sói Iu"},"1305472811":{"id":"1305472811","name":"Tuan Nguyen"},"100002470650247":{"id":"100002470650247","name":"LinhLinh Chan"},"100003702043787":{"id":"100003702043787","name":"Hằng Hanu"},"100000240413391":{"id":"100000240413391","name":"Jessica Tran"},"100003649684742":{"id":"100003649684742","name":"Anhtuyet Tranthi"},"100000328742646":{"id":"100000328742646","name":"Trần Giáp"},"1094162178":{"id":"1094162178","name":"Ngô Vũ Hoàng"},"100005326598672":{"id":"100005326598672","name":"Duong Duong"},"100004614840382":{"id":"100004614840382","name":"Amy Parker"},"100001257093338":{"id":"100001257093338","name":"Hanh Dang"},"1822854513":{"id":"1822854513","name":"Sữa Chua Không Đường"},"100003004137960":{"id":"100003004137960","name":"Live TO Love"},"100003049639881":{"id":"100003049639881","name":"Truong Luvuxy"},"100004005510336":{"id":"100004005510336","name":"Minh Đức"},"100001754136107":{"id":"100001754136107","name":"Nguyễn Tuấn Vũ"},"1270781159":{"id":"1270781159","name":"Pham Thi Thanh Nga"},"100006767705219":{"id":"100006767705219","name":"Kim Liên"},"100001640832299":{"id":"100001640832299","name":"Hoàng Đạt"},"100005436934892":{"id":"100005436934892","name":"Quang Quynh"},"100000250256418":{"id":"100000250256418","name":"Nguyen Viet Anh"},"100001686456421":{"id":"100001686456421","name":"Phạm Diệu"},"100002826418598":{"id":"100002826418598","name":"Harry Minji"},"100005495773832":{"id":"100005495773832","name":"Hiền Vũ"},"100002526707690":{"id":"100002526707690","name":"Phan Toan"},"100002589963683":{"id":"100002589963683","name":"Hà Văn Tuấn"},"100003183921263":{"id":"100003183921263","name":"Umi Chan"},"100005801442456":{"id":"100005801442456","name":"An Nguyen"},"100004094346107":{"id":"100004094346107","name":"Thuy Nga Nguyen"},"100002283229675":{"id":"100002283229675","name":"Vũ Văn Hưng"},"100002508122689":{"id":"100002508122689","name":"Vũ Mạnh Tuấn"},"1148962646":{"id":"1148962646","name":"Tran Thi Tuong Van"},"1535104031":{"id":"1535104031","name":"Hoang Nguyen"}},"paging":{"cursors":{"after":"MTAwMDAzMzEwNzE2MDY4","before":"MTAwMDAzMzEwNzE2MDY4"},"next":"https://graph.facebook.com/229244010425617_753302094686470/likes?limit=1&summary=1&after=MTAwMDAzMzEwNzE2MDY4"},"summary":{"total_count":52}},"comments":{"data":{"753306864685993":{"id":"753306864685993","from":{"id":"100003743767998","name":"Băng Tâm"},"message":"cam on anh Mai PB","message_tags":[{"id":"100001416272263","name":"Mai PB","type":"user","offset":11,"length":6}],"can_remove":false,"created_time":"2013-11-06T05:08:14+0000","like_count":1,"user_likes":false},"753310068019006":{"id":"753310068019006","from":{"id":"100002589963683","name":"Hà Văn Tuấn"},"message":"Cảm ơn anh :D","can_remove":false,"created_time":"2013-11-06T05:19:30+0000","like_count":1,"user_likes":false},"753310641352282":{"id":"753310641352282","from":{"id":"100000381394367","name":"Thành Nguyễn"},"message":"Hôm trước định vào group này để giới thiệu về group mình, mời những người Nhật vào đây luôn, nhưng bận không có thời gian lại quên mất, có Ad nào xung phong làm việc này không?","can_remove":false,"created_time":"2013-11-06T05:21:29+0000","like_count":0,"user_likes":false},"753317204684959":{"id":"753317204684959","from":{"id":"100001231404357","name":"Quoc Anh"},"message":"Cảm ơn anh đã share :)","can_remove":false,"created_time":"2013-11-06T05:42:39+0000","like_count":0,"user_likes":false},"753322478017765":{"id":"753322478017765","from":{"id":"1146680551","name":"優しい なぁ"},"message":"K có ngược lại hả a mai.^_^","can_remove":false,"created_time":"2013-11-06T05:59:31+0000","like_count":0,"user_likes":false},"753326728017340":{"id":"753326728017340","from":{"id":"100001416272263","name":"Mai PB"},"message":"Đã có ngay 1 chị đây này, ở HN. https://www.facebook.com/groups/157641594306750/permalink/565903143480591/","can_remove":false,"created_time":"2013-11-06T06:18:48+0000","like_count":1,"user_likes":false},"753332188016794":{"id":"753332188016794","from":{"id":"100001416272263","name":"Mai PB"},"message":"Thành Nguyễn thực ra quảng cáo group của mình trong group khác, ng Nhật họ không thích lắm đâu, nên mình vẫn chưa có quảng cáo đấy. Để nói chuyện với mấy ng admin ở đó nhờ họ tự quảng cáo giúp mình xem vậy. Trong khi đó thì dân buôn bán VN mình cứ phang lia lịa quảng cáo vào group họ, không biết họ nghĩ ng Việt thế nào. Ng Nhật họ lịch sự đến nỗi member mới vào group ai cũng post cảm ơn đã cho tôi vào group :-). Group này mà thế thì chìm trong lời cảm ơn mất. :-D","message_tags":[{"id":"100000381394367","name":"Thành Nguyễn","type":"user","offset":0,"length":12}],"can_remove":false,"created_time":"2013-11-06T06:40:34+0000","like_count":2,"user_likes":false},"753347728015240":{"id":"753347728015240","from":{"id":"1270781159","name":"Pham Thi Thanh Nga"},"message":"日本人と話したいですけど、なかなか話題が出て来ないです。どうしたらいいのでしょうか。何かのアドバイスを頂けたら、大変嬉しく思っています。","can_remove":false,"created_time":"2013-11-06T07:45:55+0000","like_count":1,"user_likes":false},"753349801348366":{"id":"753349801348366","from":{"id":"1146680551","name":"優しい なぁ"},"message":"生活のことについて自分の考え方で相談したらいいと思う。","can_remove":false,"created_time":"2013-11-06T07:56:33+0000","like_count":4,"user_likes":false},"753355864681093":{"id":"753355864681093","from":{"id":"100001416272263","name":"Mai PB"},"message":"Để tối mình viết một bài về giao tiếp với người Nhật vậy, Pham Thi Thanh Nga","message_tags":[{"id":"1270781159","name":"Pham Thi Thanh Nga","type":"user","offset":58,"length":18}],"can_remove":false,"created_time":"2013-11-06T08:16:44+0000","like_count":3,"user_likes":false},"753356178014395":{"id":"753356178014395","from":{"id":"1270781159","name":"Pham Thi Thanh Nga"},"message":"dạ cảm ơn anh trước ạ","can_remove":false,"created_time":"2013-11-06T08:17:51+0000","like_count":1,"user_likes":false},"753400131343333":{"id":"753400131343333","from":{"id":"100001580479641","name":"Hà Xuân Thủy"},"message":"\"Trông mặt mà bắt hình dong, con lợn có béo thì lòng mới ngon\". Câu này ko chỉ đúng với với mình người Việt, các bạn nên cẩn thận, ít hơn ko có nghĩa là ko có, \" cẩn tắc vô ưu\" mà^^.","can_remove":false,"created_time":"2013-11-06T10:42:01+0000","like_count":0,"user_likes":false},"753404811342865":{"id":"753404811342865","from":{"id":"100002589963683","name":"Hà Văn Tuấn"},"message":"có cái nhóm vào mà toàn có nhìn thấy người việt vào quảng cáo với tuyển nhân viên, phát xấu hổ","can_remove":false,"created_time":"2013-11-06T10:55:49+0000","like_count":1,"user_likes":false},"753443351339011":{"id":"753443351339011","from":{"id":"100001416272263","name":"Mai PB"},"message":"Có điều vào mấy goup đó thì sẽ thấy group này vui hơn nhiều ;-) nên cũng không nhất thiết phải vào, chỉ xem thông tin thôi là đủ","can_remove":false,"created_time":"2013-11-06T12:34:13+0000","like_count":1,"user_likes":false},"753531047996908":{"id":"753531047996908","from":{"id":"100000381394367","name":"Thành Nguyễn"},"message":"Người Nhật bây giờ cũng cởi mở hơn xưa nhiều rồi, ở Nhật thì facebook không phải mạng xã hội chính của họ, những người dùng face thường là những người ít nhiều đã quốc tế hóa rồi nên chúng ta cũng không cần e ngại quá, cái chính là thái độ của mình chân thành và lịch sự thôi, còn em nghĩ việc vào group đó giới thiệu cũng ko có vấn đề gì cả, vì mình lấy danh nghĩa giao lưu đại diện cho cả group, mình nói giới thiệu các bạn việt nam vào group đó nữa thì chắc họ cũng welcome, nói tới giao lưu là nói đến tính hai chiều, chúng ta cũng có quyền tác động lại người Nhật để họ cởi mở hơn chứ không nên lúc nào cũng lấy cái chuẩn của họ để rồi theo họ một cách bị động.","can_remove":false,"created_time":"2013-11-06T14:41:55+0000","like_count":2,"user_likes":false},"753858047964208":{"id":"753858047964208","from":{"id":"100001416272263","name":"Mai PB"},"message":"Thành Nguyễn bây giờ thì FB là mạng xh chính ở Nhật lâu rồi, mà nó cũng có phiên bản tiếng Nhật nên không có yếu tố quốc tế hóa ở đây đâu. Số người dùng còn nhiều hơn cả VN đấy. http://www.auncon.co.jp/corporate/2013/0219.html","message_tags":[{"id":"100000381394367","name":"Thành Nguyễn","type":"user","offset":0,"length":12}],"can_remove":false,"created_time":"2013-11-07T03:03:42+0000","like_count":0,"user_likes":false},"753866767963336":{"id":"753866767963336","from":{"id":"100000381394367","name":"Thành Nguyễn"},"message":"Theo như thống kê của trang này thì trong các mạng top facebook xếp cuối http://www.digitalstrategyconsulting.com/intelligence/2013/02/top_6_social_networks_in_japan.php","can_remove":false,"created_time":"2013-11-07T03:26:41+0000","like_count":0,"user_likes":false},"753875654629114":{"id":"753875654629114","from":{"id":"100001416272263","name":"Mai PB"},"message":"Đúng là số người đăng ký thì Mixi là nhiều nhất, nhưng đó là trước FB. Bây giờ hoạt động rất ảm đạm, năm ngoái phải thay CEO, đang tính thay đổi phương thức dịch vụ. Bây giờ chẳng ai nói đến Mixi nữa rồi. Có khi ngày mai sẽ là FB không chừng, ví số ng dùng ở Nhật giảm so với năm ngoái.","can_remove":false,"created_time":"2013-11-07T03:40:57+0000","like_count":0,"user_likes":false},"753885587961454":{"id":"753885587961454","from":{"id":"100002157379029","name":"Nguyen Hai Dung"},"message":"Nhat ban ,,,, dat nuoc cua cong viec","can_remove":false,"created_time":"2013-11-07T03:59:29+0000","like_count":0,"user_likes":false},"753956837954329":{"id":"753956837954329","from":{"id":"100003262381147","name":"Venusstar Dang"},"message":"cám ơn anh, thông tin của anh đưa ra thật sự rất hữu ích.","can_remove":false,"created_time":"2013-11-07T07:46:33+0000","like_count":1,"user_likes":false}},"paging":{"cursors":{"after":"NzUzMzA2ODY0Njg1OTkz","before":"NzUzMzA2ODY0Njg1OTkz"},"next":"https://graph.facebook.com/229244010425617_753302094686470/comments?limit=1&summary=1&after=NzUzMzA2ODY0Njg1OTkz"},"summary":{"order":"chronological","total_count":22}}}