{"id":"229244010425617_753324961350850","type":"status","from":{"id":"100004094346107","name":"Thuy Nga Nguyen"},"message":"Mọi người cho mình hỏi câu này với \" không phận sự miễn vào\" tiếng nhật là gì?","created_time":"2013-11-06T06:11:43+0000","updated_time":"2013-11-06T10:32:34+0000","likes":{"data":{"100003069824169":{"id":"100003069824169","name":"Quang Lê"},"100002508122689":{"id":"100002508122689","name":"Vũ Mạnh Tuấn"},"100004094346107":{"id":"100004094346107","name":"Thuy Nga Nguyen"}},"paging":{"cursors":{"after":"MTAwMDAzMDY5ODI0MTY5","before":"MTAwMDAzMDY5ODI0MTY5"},"next":"https://graph.facebook.com/229244010425617_753324961350850/likes?limit=1&summary=1&after=MTAwMDAzMDY5ODI0MTY5"},"summary":{"total_count":4}},"comments":{"data":{"753325571350789":{"id":"753325571350789","from":{"id":"100001416272263","name":"Mai PB"},"message":"http://bit.ly/HvSGHh","can_remove":false,"created_time":"2013-11-06T06:14:46+0000","like_count":4,"user_likes":false},"753325641350782":{"id":"753325641350782","from":{"id":"100000328306722","name":"Tran Ngoc Anh"},"message":"関係者以外立入禁止。","can_remove":false,"created_time":"2013-11-06T06:15:08+0000","like_count":6,"user_likes":false},"753327788017234":{"id":"753327788017234","from":{"id":"100001156666759","name":"Kenshuu Steam"},"message":"","can_remove":false,"created_time":"2013-11-06T06:24:31+0000","like_count":1,"user_likes":false},"753328128017200":{"id":"753328128017200","from":{"id":"100001156666759","name":"Kenshuu Steam"},"message":"trong các bảng hiệu thì rất hiếm khi họ để các chữ hiragana còn dư hoặc trợ từ nếu thực thực sự không cần thiết nhé Akira Nguyen","message_tags":[{"id":"100000856540751","name":"Akira Nguyen","type":"user","offset":116,"length":12}],"can_remove":false,"created_time":"2013-11-06T06:26:04+0000","like_count":1,"user_likes":false},"753328728017140":{"id":"753328728017140","from":{"id":"100003676414929","name":"Au Kute"},"message":"hix...may chu kanji ni mjnh chua hoc ah.co ai dich ra hiragana duoc k a","can_remove":false,"created_time":"2013-11-06T06:26:33+0000","like_count":0,"user_likes":false},"753328994683780":{"id":"753328994683780","from":{"id":"100001156666759","name":"Kenshuu Steam"},"message":"bạn phải tự tìm cách chứ, copy qua wold hoặc quẳng lên google là tìm được thôi","can_remove":false,"created_time":"2013-11-06T06:27:22+0000","like_count":1,"user_likes":false},"753331468016866":{"id":"753331468016866","from":{"id":"100003245420682","name":"Thỏ Ngọc Usagi"},"message":"tachiirikinshi","can_remove":false,"created_time":"2013-11-06T06:37:18+0000","like_count":0,"user_likes":false},"753332381350108":{"id":"753332381350108","from":{"id":"100004094346107","name":"Thuy Nga Nguyen"},"message":"Cảm ơn mọi người :)","can_remove":false,"created_time":"2013-11-06T06:41:34+0000","like_count":0,"user_likes":false},"753333494683330":{"id":"753333494683330","from":{"id":"100001416272263","name":"Mai PB"},"message":"Câu này dễ quá phải không, biết thế mình không trả lời. :-)","can_remove":false,"created_time":"2013-11-06T06:45:43+0000","like_count":2,"user_likes":false},"753333761349970":{"id":"753333761349970","from":{"id":"100001156666759","name":"Kenshuu Steam"},"message":"haha, dễ với đồng chí nhưng là cả 1 vấn đề với mấy mem mới học đấy, hồi mới học mà học thuộc đc 9 cái chữ hán trên kia cũng mất 2 quả trứng lót bụng đấy","can_remove":false,"created_time":"2013-11-06T06:47:03+0000","like_count":2,"user_likes":false},"753336631349683":{"id":"753336631349683","from":{"id":"100007006297737","name":"Nhôm Kính Trường Phát"},"message":"kankeisyaigai tachiirikinshi","can_remove":false,"created_time":"2013-11-06T06:59:44+0000","like_count":1,"user_likes":false},"753337004682979":{"id":"753337004682979","from":{"id":"100007006297737","name":"Nhôm Kính Trường Phát"},"message":"関係者以外立ち入り禁止","can_remove":false,"created_time":"2013-11-06T07:01:20+0000","like_count":4,"user_likes":false},"753373611345985":{"id":"753373611345985","from":{"id":"100002833803367","name":"Hoang Anh Luong"},"message":"立ち入り禁止","can_remove":false,"created_time":"2013-11-06T09:23:47+0000","like_count":0,"user_likes":false},"753397444676935":{"id":"753397444676935","from":{"id":"100001416272263","name":"Mai PB"},"message":"Kenshuu Steam, không phải nói câu này dễ nhưng thấy bao nhiêu comment trả lời nên hơi hối hận là mình vô duyên lanh chanh trả lời trước.  Vậy để mình phân tích chút nhé.\n\nTại sao tiếng Nhật mà lại toàn chữ Hán từ đầu đến cuối như tiếng Trung vậy, phải có giới từ mới đúng chứ nhỉ? Đó là các khẩu hiệu, thành ngữ thường được biểu hiện không có giới từ như vậy để tránh có vẻ ngôn ngữ nói. Nếu có giới từ thì sẽ viết như sau:\n関係者以外の者（人）の立ち入りを禁止します","message_tags":[{"id":"100001156666759","name":"Kenshuu Steam","type":"user","offset":0,"length":13}],"can_remove":false,"created_time":"2013-11-06T10:32:34+0000","like_count":4,"user_likes":false}},"paging":{"cursors":{"after":"NzUzMzI1NTcxMzUwNzg5","before":"NzUzMzI1NTcxMzUwNzg5"},"next":"https://graph.facebook.com/229244010425617_753324961350850/comments?limit=1&summary=1&after=NzUzMzI1NTcxMzUwNzg5"},"summary":{"order":"chronological","total_count":14}}}