{"id":"229244010425617_753368348013178","type":"link","picture":"https://fbstatic-a.akamaihd.net/rsrc.php/v2/y3/r/0PnClccPFXs.png","link":"https://www.facebook.com/groups/157641594306750/permalink/565903143480591/","from":{"id":"100001416272263","name":"Mai PB"},"message":"Bạn gái nào ở HN muốn học tiếng Nhật thì làm bạn với chị này. https://www.facebook.com/groups/157641594306750/permalink/565903143480591/\n\nPS: Chớ add friend đường đột. Tự giới thiệu qua inbox hoặc ở group đó đã. Chào hỏi là quan trọng nhất đối với người Nhật.","created_time":"2013-11-06T09:03:58+0000","updated_time":"2013-11-06T12:14:35+0000","likes":{"data":{"100003803384040":{"id":"100003803384040","name":"Ngọc Phan"},"100004253979918":{"id":"100004253979918","name":"Louis Hoàng Văn Thái"},"100004360751785":{"id":"100004360751785","name":"Hà Nguyễn"},"100005694491959":{"id":"100005694491959","name":"Phuong Truong Thi Thanh"},"100006767705219":{"id":"100006767705219","name":"Kim Liên"},"100003250657085":{"id":"100003250657085","name":"Nhất Kiếm Vô Tình"},"100004716640495":{"id":"100004716640495","name":"Thúy An Dương"},"1148962646":{"id":"1148962646","name":"Tran Thi Tuong Van"},"100003005597243":{"id":"100003005597243","name":"Zany Royal"},"100002446750324":{"id":"100002446750324","name":"Hiền Tran"},"100004101462769":{"id":"100004101462769","name":"Thao Vo"},"100003998925054":{"id":"100003998925054","name":"Ngân Sandra"},"1816269439":{"id":"1816269439","name":"Dao Ngoc"},"100001359798024":{"id":"100001359798024","name":"November Gi"},"100000183792818":{"id":"100000183792818","name":"Le Nga"},"100001754136107":{"id":"100001754136107","name":"Nguyễn Tuấn Vũ"},"100000973295703":{"id":"100000973295703","name":"El Pipita Gà"},"100003090738530":{"id":"100003090738530","name":"Ngô Thị Thanh Hường"},"100004965272241":{"id":"100004965272241","name":"Cỏ Nhỏ"}},"paging":{"cursors":{"after":"MTAwMDAzODAzMzg0MDQw","before":"MTAwMDAzODAzMzg0MDQw"},"next":"https://graph.facebook.com/229244010425617_753368348013178/likes?limit=1&summary=1&after=MTAwMDAzODAzMzg0MDQw"},"summary":{"total_count":22}},"comments":{"data":{"753368968013116":{"id":"753368968013116","from":{"id":"100003043485649","name":"Minh Tuấn Trần"},"message":"còn ở sài gòn không có ha chú","can_remove":false,"created_time":"2013-11-06T09:06:28+0000","like_count":0,"user_likes":false},"753370888012924":{"id":"753370888012924","from":{"id":"100001416272263","name":"Mai PB"},"message":"Chắc chắn là có rồi, vào mấy group mình giới thiệu vừa nãy đó tìm đi.","can_remove":false,"created_time":"2013-11-06T09:14:12+0000","like_count":0,"user_likes":false},"753372451346101":{"id":"753372451346101","from":{"id":"100000381394367","name":"Thành Nguyễn"},"message":"Mọi người có thể vào trang này để tìm language partner http://www.conversationexchange.com/\r\n\nKhi đăng ký account nhớ viết profile mô tả về mình kỹ một chút mới có sức hấp dẫn để người ta tìm đến mình, trước đây có 5 người đã mail cho mình qua trang này trong đó có 2 người Nhật,một Ấn Độ, một Trung Quốc, một người Thái Lan và một người Mỹ. Trong đó có 1 lần anh bạn Nhật liên lạc do  bị mất máy ảnh cần nhờ người giải thích hộ ở đồn công an.","can_remove":false,"created_time":"2013-11-06T09:20:04+0000","like_count":0,"user_likes":false},"753373191346027":{"id":"753373191346027","from":{"id":"100004857314400","name":"Lê Nguyễn"},"message":"a oi the o hcm thi sao ak e moi hc toi bai20 mina ak","can_remove":false,"created_time":"2013-11-06T09:22:31+0000","like_count":0,"user_likes":false},"753377968012216":{"id":"753377968012216","from":{"id":"100002871405403","name":"Thach Sanh"},"message":"boy dc k a?","can_remove":false,"created_time":"2013-11-06T09:32:35+0000","like_count":0,"user_likes":false},"753379751345371":{"id":"753379751345371","from":{"id":"100004390833725","name":"Huong Hong"},"message":"Huong Lan","message_tags":[{"id":"100003852800956","name":"Huong Lan","type":"user","offset":0,"length":9}],"can_remove":false,"created_time":"2013-11-06T09:40:07+0000","like_count":0,"user_likes":false},"753383418011671":{"id":"753383418011671","from":{"id":"100002589963683","name":"Hà Văn Tuấn"},"message":"Con trai đc ko a, chị ấy biết tiếng anh chứ a","can_remove":false,"created_time":"2013-11-06T09:55:22+0000","like_count":0,"user_likes":false},"753388458011167":{"id":"753388458011167","from":{"id":"100002589963683","name":"Hà Văn Tuấn"},"message":"Vậy e cứ add vậy :D e cứ nghĩ đó là bạn anh","can_remove":false,"created_time":"2013-11-06T10:05:27+0000","like_count":0,"user_likes":false},"753390314677648":{"id":"753390314677648","from":{"id":"100001416272263","name":"Mai PB"},"message":"Chớ add friend đường đột. Tự giới thiệu qua inbox hoặc ở group đó đã. Chào hỏi là quan trọng nhất đối với ng Nhật.","can_remove":false,"created_time":"2013-11-06T10:07:45+0000","like_count":3,"user_likes":false},"753415654675114":{"id":"753415654675114","from":{"id":"100004512692366","name":"Con Ga Con"},"message":"a ơi mới học tiếng nhật lên tới đâu hả a","can_remove":false,"created_time":"2013-11-06T11:26:56+0000","like_count":0,"user_likes":false},"753435054673174":{"id":"753435054673174","from":{"id":"1108328257","name":"Kenji Le"},"message":"女性のみだって^_^","can_remove":false,"created_time":"2013-11-06T12:14:35+0000","like_count":0,"user_likes":false}},"paging":{"cursors":{"after":"NzUzMzY4OTY4MDEzMTE2","before":"NzUzMzY4OTY4MDEzMTE2"},"next":"https://graph.facebook.com/229244010425617_753368348013178/comments?limit=1&summary=1&after=NzUzMzY4OTY4MDEzMTE2"},"summary":{"order":"chronological","total_count":11}}}