{"id":"229244010425617_753536041329742","type":"link","picture":"https://fbexternal-a.akamaihd.net/safe_image.php?d=AQCszSuCT3uGtBjP&w=154&h=154&url=http%3A%2F%2Fvanhoanhat.com%2Fwp-content%2Fuploads%2Fme-nhat-chuan-bi-cho-con-di-hoc-voi-4-phut11-660x330.jpg","link":"http://vanhoanhat.com/video-me-nhat-chuan-bi-cho-con-di-hoc-chi-trong-4-phut/","from":{"id":"100006849903975","name":"Có Não"},"message":"Xem xong clip này, em vô cùng cảm phục người Nhật. Đối với họ, mỗi giọt thời gian còn quý hơn vàng. Các anh chị có ai từng sống hoặc làm việc với người Nhật có thể cho em lời khuyên trong việc quản lí thời gian không ạ?\n\nEm hiện đang là sinh viên, vừa học vừa làm thêm để cố vùng vẫy khỏi cảnh ngửa tay xin tiền bố mẹ.","created_time":"2013-11-06T14:51:27+0000","updated_time":"2013-11-13T14:49:17+0000","likes":{"data":{"100004716640495":{"id":"100004716640495","name":"Thúy An Dương"},"100005801442456":{"id":"100005801442456","name":"An Nguyen"},"100002871405403":{"id":"100002871405403","name":"Thach Sanh"},"100006500060232":{"id":"100006500060232","name":"Nguyễn Tình"},"1744556343":{"id":"1744556343","name":"Thùy Dương"},"1783190483":{"id":"1783190483","name":"Trần Xuân Hiệp"},"100002782131785":{"id":"100002782131785","name":"Hasegawa Kiyotake"},"100000198892785":{"id":"100000198892785","name":"Mạnh Phi"},"100003317038785":{"id":"100003317038785","name":"Minh Lý Nguyễn"},"100003235211481":{"id":"100003235211481","name":"Huyền Ngố"},"100001078275630":{"id":"100001078275630","name":"Thienbao Cao"},"1837866264":{"id":"1837866264","name":"QuynhDo Anh"},"100001754136107":{"id":"100001754136107","name":"Nguyễn Tuấn Vũ"},"100000284487802":{"id":"100000284487802","name":"Buu Lam Gia"},"100004000077929":{"id":"100004000077929","name":"Mai Htd"},"100001807609603":{"id":"100001807609603","name":"Nguyễn Khánh Huyền"},"1821970083":{"id":"1821970083","name":"Nguyễn Mạnh Cường"},"100006767705219":{"id":"100006767705219","name":"Kim Liên"},"1392762854":{"id":"1392762854","name":"Đỗ Minh Thu"},"100001122451473":{"id":"100001122451473","name":"Lavender Cullen"},"100005504642044":{"id":"100005504642044","name":"Võ Tú Duyên"},"100000359762118":{"id":"100000359762118","name":"Mi Tra"},"100003032658288":{"id":"100003032658288","name":"Mai Phương Đỗ"},"100003504835155":{"id":"100003504835155","name":"Sao Pha Lê"},"100001848885057":{"id":"100001848885057","name":"Tiểu Mỡ Nhi"},"100003069824169":{"id":"100003069824169","name":"Quang Lê"},"100006886237437":{"id":"100006886237437","name":"Akira Quỳnh"},"100002714693472":{"id":"100002714693472","name":"Nguyen Tuan Anh"},"100000398881439":{"id":"100000398881439","name":"Amy Vũ"},"100004368483606":{"id":"100004368483606","name":"Hangminh Truong"},"100004734241392":{"id":"100004734241392","name":"Hoàng Phương"},"100001149552981":{"id":"100001149552981","name":"Hà Ngọc Hiếu"},"1846809835":{"id":"1846809835","name":"Dorae Phương"},"100000379547036":{"id":"100000379547036","name":"Duy Thanh"},"100001662710959":{"id":"100001662710959","name":"Xin Đừng Hôn Em"},"100003733581822":{"id":"100003733581822","name":"Tàu Lu"},"100001458099624":{"id":"100001458099624","name":"Kham Pha"}},"paging":{"cursors":{"after":"MTAwMDA0NzE2NjQwNDk1","before":"MTAwMDA0NzE2NjQwNDk1"},"next":"https://graph.facebook.com/229244010425617_753536041329742/likes?limit=1&summary=1&after=MTAwMDA0NzE2NjQwNDk1"},"summary":{"total_count":39}},"comments":{"data":{"753536904662989":{"id":"753536904662989","from":{"id":"100001458099624","name":"Kham Pha"},"message":"quyết tâm không xin tiền bố mẹ, có chí khí (y)","can_remove":false,"created_time":"2013-11-06T14:53:29+0000","like_count":1,"user_likes":false},"753557034660976":{"id":"753557034660976","from":{"id":"100003099454910","name":"Bac Ngo Duc"},"message":"Linh Hoang Thi Thuy","message_tags":[{"id":"100005138850118","name":"Linh Hoang Thi Thuy","type":"user","offset":0,"length":19}],"can_remove":false,"created_time":"2013-11-06T15:35:41+0000","like_count":0,"user_likes":false},"753567144659965":{"id":"753567144659965","from":{"id":"806763983","name":"Nguyen Quang Minh"},"message":"Không phải người Nhật ai cũng vậy đâu em, trong clip là họ diễn nữa đó","can_remove":false,"created_time":"2013-11-06T15:55:05+0000","like_count":1,"user_likes":false},"753577251325621":{"id":"753577251325621","from":{"id":"100000359762118","name":"Mi Tra"},"message":"Clip trên là diễn thôi. Nhân vật người mẹ trong clip là diễn viên hài. Chị ấy gần đây mới có bầu được mấy tháng.","can_remove":false,"created_time":"2013-11-06T16:14:30+0000","like_count":1,"user_likes":false},"753595467990466":{"id":"753595467990466","from":{"id":"100000068660150","name":"Hito Kami"},"message":"diễn thôi mà bạn , nhưng về cách dậy con ngoài đời thì đúng là có khi đáng ngưỡng mộ thật","can_remove":false,"created_time":"2013-11-06T16:59:56+0000","like_count":0,"user_likes":false},"753624591320887":{"id":"753624591320887","from":{"id":"1146680551","name":"優しい なぁ"},"message":"http://docbao.vn/tin-tuc/06-11-2013/Sung-sot-voi-cach-day-con-qua-bua-an-cua-nguoi-Nhat/13/203321/","can_remove":false,"created_time":"2013-11-06T18:14:20+0000","like_count":0,"user_likes":false},"753916214625058":{"id":"753916214625058","from":{"id":"100002467172114","name":"Hoa Tươi Hồng Thắm"},"message":"NHìn bé con ăn cũng tội.^^","can_remove":false,"created_time":"2013-11-07T05:38:32+0000","like_count":0,"user_likes":false},"753937624622917":{"id":"753937624622917","from":{"id":"100001909094442","name":"Minh Sang"},"message":"chỉ là 1 show truyền hình thôi, chứ thực tế chắc chắn sẽ lâu hơn nếu cũng theo cách này","can_remove":false,"created_time":"2013-11-07T06:59:07+0000","like_count":0,"user_likes":false},"754082171275129":{"id":"754082171275129","from":{"id":"100001416272263","name":"Mai PB"},"message":"Họ đùa đấy mà, nhưng tất nhiên là cũng rất sáng tạo để nghĩ ra trò này.","can_remove":false,"created_time":"2013-11-07T13:49:17+0000","like_count":0,"user_likes":false},"754159524600727":{"id":"754159524600727","from":{"id":"1783190483","name":"Trần Xuân Hiệp"},"message":"Dù là diễn thì cũng cực kỳ đáng khâm phục rồi :D","can_remove":false,"created_time":"2013-11-07T16:40:00+0000","like_count":0,"user_likes":false},"754451794571500":{"id":"754451794571500","from":{"id":"100006500060232","name":"Nguyễn Tình"},"message":"Cái này em nghĩ là không thực tế, nó chỉ mang tính giải trí một chút thôi :)\n\nWebsite này hay phết, có cái clip này cũng hài hài này :v\n\nhttp://vanhoanhat.com/clip-hai-huoc-tinh-than-dong-doi-cua-nguoi-nhat/","can_remove":false,"created_time":"2013-11-08T03:43:59+0000","like_count":0,"user_likes":false},"754456084571071":{"id":"754456084571071","from":{"id":"100006458752500","name":"Nàng Bờm"},"message":"Vào trang này sao mình thấy trên trang chủ toàn sex vậy? @@","can_remove":false,"created_time":"2013-11-08T03:56:38+0000","like_count":0,"user_likes":false},"754749881208358":{"id":"754749881208358","from":{"id":"1783190483","name":"Trần Xuân Hiệp"},"message":"Ở Nhật thì \"văn hóa tình dục\" cũng là 1 nét văn hóa đáng để ngâm cứu :D","can_remove":false,"created_time":"2013-11-08T16:54:58+0000","like_count":0,"user_likes":false},"757430724273607":{"id":"757430724273607","from":{"id":"100006500060232","name":"Nguyễn Tình"},"message":"Mấy bài về tình dục chắc là để câu view :3","can_remove":false,"created_time":"2013-11-13T06:22:26+0000","like_count":0,"user_likes":false},"757525737597439":{"id":"757525737597439","from":{"id":"100005801442456","name":"An Nguyen"},"message":"Bạn sửa lại giống loạt bài về clip Thú vị về nhật bản giống mình được không, mình đưa vào forum luôn","can_remove":false,"created_time":"2013-11-13T12:22:50+0000","like_count":0,"user_likes":false},"757595727590440":{"id":"757595727590440","from":{"id":"1783190483","name":"Trần Xuân Hiệp"},"message":"An Nguyen: Mình chưa hiểu ý bạn lắm? :D","message_tags":[{"id":"100005801442456","name":"An Nguyen","type":"user","offset":0,"length":9}],"can_remove":false,"created_time":"2013-11-13T14:49:17+0000","like_count":0,"user_likes":false}},"paging":{"cursors":{"after":"NzUzNTM2OTA0NjYyOTg5","before":"NzUzNTM2OTA0NjYyOTg5"},"next":"https://graph.facebook.com/229244010425617_753536041329742/comments?limit=1&summary=1&after=NzUzNTM2OTA0NjYyOTg5"},"summary":{"order":"chronological","total_count":16}}}