{"id":"229244010425617_753534181329928","type":"status","from":{"id":"100001458099624","name":"Kham Pha"},"message":"Các bạn Nhât vào group đông vui ghê ^^. Nhưng mà các mem nhớ tập viết tiếng Việt có dấu nhé, cả comment lẫn post vì group bây giờ có rất nhiều bạn Nhật cũng đang học tiếng Việt. Họ nhìn thấy chữ không dấu thì hiểu làm sao? Thử tưởng tượng một người Nhật mà viết ra một bài dài toàn romaji thì \"Những người khốn khổ\" chẳng ai khác ngoài chúng ta cả. Viết đúng chính tả, dấu má đàng hoàng chính là thể hiện con người chúng ta và cũng là tôn trọng người đọc. \nMình biết có nhiều bạn dùng điện thoại nên ngại viết có dấu, nhưng chẳng phải admin An Nguyen của chúng ta cũng đang dùng điện thoại để viết cả đống bài đó sao. Vậy thì một hai câu comment chúng ta viết có dấu thì cũng đâu phải khó, phải không nào? \nChúc các bạn một buổi tối vui vẻ ^^","created_time":"2013-11-06T14:46:39+0000","updated_time":"2013-11-06T16:42:46+0000","likes":{"data":{"100004076321156":{"id":"100004076321156","name":"Hi Hi"},"100004028509063":{"id":"100004028509063","name":"Ruby Rubie"},"100005211189763":{"id":"100005211189763","name":"Oliveu Cchann"},"100001723862714":{"id":"100001723862714","name":"Bo Bien Vang"},"100004094346107":{"id":"100004094346107","name":"Thuy Nga Nguyen"},"100004185816022":{"id":"100004185816022","name":"Gia Đê Tiện"},"100005801442456":{"id":"100005801442456","name":"An Nguyen"},"100001754136107":{"id":"100001754136107","name":"Nguyễn Tuấn Vũ"},"100004398330290":{"id":"100004398330290","name":"Lam Linh"},"100001807609603":{"id":"100001807609603","name":"Nguyễn Khánh Huyền"},"100006767705219":{"id":"100006767705219","name":"Kim Liên"},"1392762854":{"id":"1392762854","name":"Đỗ Minh Thu"},"100001365545442":{"id":"100001365545442","name":"Nguyễn Nam"},"100003005597243":{"id":"100003005597243","name":"Zany Royal"},"100003671803669":{"id":"100003671803669","name":"Tojika Sakura"},"100001416272263":{"id":"100001416272263","name":"Mai PB"},"1816269439":{"id":"1816269439","name":"Dao Ngoc"},"100002676859353":{"id":"100002676859353","name":"Chu Quang Viên"},"100002163578657":{"id":"100002163578657","name":"Quốc Bảo"},"1148962646":{"id":"1148962646","name":"Tran Thi Tuong Van"},"100001848885057":{"id":"100001848885057","name":"Tiểu Mỡ Nhi"},"100003733581822":{"id":"100003733581822","name":"Tàu Lu"},"100004237355052":{"id":"100004237355052","name":"Kim Dung"},"100004881932416":{"id":"100004881932416","name":"Anhđưataygiữlấy Nhữngnắmtrotànembỏlại"},"100002941809570":{"id":"100002941809570","name":"Hằng Nguyễn"},"100003235972334":{"id":"100003235972334","name":"Az Xa Quê"},"100002589963683":{"id":"100002589963683","name":"Hà Văn Tuấn"},"100004360751785":{"id":"100004360751785","name":"Hà Nguyễn"},"100002508122689":{"id":"100002508122689","name":"Vũ Mạnh Tuấn"},"100005440689746":{"id":"100005440689746","name":"Trang Mapy"},"100001722286066":{"id":"100001722286066","name":"Eo Pi"},"1821970083":{"id":"1821970083","name":"Nguyễn Mạnh Cường"}},"paging":{"cursors":{"after":"MTAwMDA0MDc2MzIxMTU2","before":"MTAwMDA0MDc2MzIxMTU2"},"next":"https://graph.facebook.com/229244010425617_753534181329928/likes?limit=1&summary=1&after=MTAwMDA0MDc2MzIxMTU2"},"summary":{"total_count":34}},"comments":{"data":{"753535104663169":{"id":"753535104663169","from":{"id":"100005440689746","name":"Trang Mapy"},"message":"Mình cũng đang onl bằng điện thoại này. :3","can_remove":false,"created_time":"2013-11-06T14:48:32+0000","like_count":1,"user_likes":false},"753535201329826":{"id":"753535201329826","from":{"id":"1148962646","name":"Tran Thi Tuong Van"},"message":"Nhân tiện ad giới thiệu luôn application gõ dấu tiếng Việt trên điện thoại để mọi người tiện sử dụng nhé! :)","can_remove":false,"created_time":"2013-11-06T14:49:00+0000","like_count":0,"user_likes":false},"753535414663138":{"id":"753535414663138","from":{"id":"100001458099624","name":"Kham Pha"},"message":"trên smartphone thì có sẵn rồi chứ nhỉ?","can_remove":false,"created_time":"2013-11-06T14:49:44+0000","like_count":0,"user_likes":false},"753536047996408":{"id":"753536047996408","from":{"id":"1148962646","name":"Tran Thi Tuong Van"},"message":"Kham Pha Tùy dòng đt à. Đt của mình mua ở HQ nên chỉ có 2 ngôn ngữ là tiếng Anh và tiếng Hàn. Mình phải tự cài app để có thể hỗ trợ gõ dấu tiếng Việt đấy. Không biết bên Nhật thế nào. Mình cứ giới thiệu cũng chẳng sao mà :)","message_tags":[{"id":"100001458099624","name":"Kham Pha","type":"user","offset":0,"length":8}],"can_remove":false,"created_time":"2013-11-06T14:51:27+0000","like_count":0,"user_likes":false},"753536474663032":{"id":"753536474663032","from":{"id":"100001458099624","name":"Kham Pha"},"message":"Trang Mapy (y) vì comment bằng điện thoại có dấu :D","message_tags":[{"id":"100005440689746","name":"Trang Mapy","type":"user","offset":0,"length":10}],"can_remove":false,"created_time":"2013-11-06T14:52:20+0000","like_count":1,"user_likes":false},"753538741329472":{"id":"753538741329472","from":{"id":"100005440689746","name":"Trang Mapy"},"message":"Có app nào hỗ trợ gõ tiếng Nhật ko vậy mọi người? ;____;","can_remove":false,"created_time":"2013-11-06T14:58:06+0000","like_count":0,"user_likes":false},"753539214662758":{"id":"753539214662758","from":{"id":"1148962646","name":"Tran Thi Tuong Van"},"message":"Vậy còn các bạn mua feature phone sản xuất tại Nhật thì gõ tiếng Việt kiểu gì nhỉ?","can_remove":false,"created_time":"2013-11-06T14:59:36+0000","like_count":0,"user_likes":false},"753544911328855":{"id":"753544911328855","from":{"id":"100000381394367","name":"Thành Nguyễn"},"message":"Các bạn nào dùng điên thoại mà không gõ được tiếng Việt có dấu thì list ra dưới đây tên điện thoai, hệ điều hành để bộ phận kỹ thuật sẽ tìm cách giúp các bạn tìm phần mềm và cài đặt ứng dụng gõ được tiếng Việt có dấu.","can_remove":false,"created_time":"2013-11-06T15:11:38+0000","like_count":0,"user_likes":false},"753551594661520":{"id":"753551594661520","from":{"id":"1148962646","name":"Tran Thi Tuong Van"},"message":"Kham Pha bạn đừng hiểu nhầm ý mình nhé. Mình luôn ủng hộ và tuân thủ nguyên tắc gõ tiếng Việt có dấu và đúng chính tả. Mình chỉ muốn tìm giải pháp cho các bạn thực sự gặp khó khăn trong việc gõ tiếng Việt có dấu thôi! :)","message_tags":[{"id":"100001458099624","name":"Kham Pha","type":"user","offset":0,"length":8}],"can_remove":false,"created_time":"2013-11-06T15:24:06+0000","like_count":0,"user_likes":false},"753552387994774":{"id":"753552387994774","from":{"id":"100001458099624","name":"Kham Pha"},"message":"mình cũng hiểu thế mà :D","can_remove":false,"created_time":"2013-11-06T15:25:51+0000","like_count":0,"user_likes":false},"753556224661057":{"id":"753556224661057","from":{"id":"100001848885057","name":"Tiểu Mỡ Nhi"},"message":"Em thấy việc này đúng lắm. Nhiều khi đọc người Việt còn ko hiểu nữa ấy. Nên mọi người có gắng đánh tiếng Việt có dấu đi ạ. Nếu bất đắc dĩ thì cũng nên đúng chính tả. Chứ nhiều bạn viết ko dấu còn là ngôn ngữ teen. Em chịu ko đọc được","can_remove":false,"created_time":"2013-11-06T15:33:29+0000","like_count":3,"user_likes":false},"753588114657868":{"id":"753588114657868","from":{"id":"100002482249341","name":"Hải Lưu"},"message":"mình cũng không tán thành nhiều bạn trẻ bây giờ teen quá ngôn ngữ cũng teen theo. Phải giữ bản sắc, sự trong sáng của tiếng Việt chứ","can_remove":false,"created_time":"2013-11-06T16:40:48+0000","like_count":1,"user_likes":false},"753588751324471":{"id":"753588751324471","from":{"id":"100001848885057","name":"Tiểu Mỡ Nhi"},"message":"Thực ra em ko trách ngôn ngữ teen. Chủ yếu là dùng chỗ nào hay nơi nào thôi. Chứ ko thể ở đâu cũng dùng được","can_remove":false,"created_time":"2013-11-06T16:42:46+0000","like_count":0,"user_likes":false}},"paging":{"cursors":{"after":"NzUzNTM1MTA0NjYzMTY5","before":"NzUzNTM1MTA0NjYzMTY5"},"next":"https://graph.facebook.com/229244010425617_753534181329928/comments?limit=1&summary=1&after=NzUzNTM1MTA0NjYzMTY5"},"summary":{"order":"chronological","total_count":13}}}