{"id":"229244010425617_753874124629267","type":"photo","object_id":"175880812615299","picture":"https://fbcdn-photos-d-a.akamaihd.net/hphotos-ak-frc3/t1.0-0/1426471_175880812615299_343907994_s.jpg","link":"https://www.facebook.com/photo.php?fbid=175880812615299&set=gm.753874124629267&type=1&relevant_count=1","from":{"id":"100005801442456","name":"An Nguyen"},"message":"Đọc hiểu N3, thông tin thú vị này...❤️","created_time":"2013-11-07T03:39:12+0000","updated_time":"2013-11-07T16:46:30+0000","likes":{"data":{"100002959594535":{"id":"100002959594535","name":"Nguyen Ngoc Anh"},"100003599920499":{"id":"100003599920499","name":"ふゆ はな"},"100002981418378":{"id":"100002981418378","name":"Phụ Tiểu Đậu"},"100001520307352":{"id":"100001520307352","name":"Nguyen Sang"},"1250876107":{"id":"1250876107","name":"Kim Hoan"}},"paging":{"cursors":{"after":"MTAwMDAyOTU5NTk0NTM1","before":"MTAwMDAyOTU5NTk0NTM1"},"next":"https://graph.facebook.com/229244010425617_753874124629267/likes?limit=1&summary=1&after=MTAwMDAyOTU5NTk0NTM1"},"summary":{"total_count":6}},"comments":{"data":{"753905994626080":{"id":"753905994626080","from":{"id":"100001156666759","name":"Kenshuu Steam"},"message":"dễ hiểu hơn mấy bài trong bài tét nhiều","can_remove":false,"created_time":"2013-11-07T05:01:09+0000","like_count":0,"user_likes":false},"753906424626037":{"id":"753906424626037","from":{"id":"100005801442456","name":"An Nguyen"},"message":"Thế ạ@.@","can_remove":false,"created_time":"2013-11-07T05:02:46+0000","like_count":0,"user_likes":false},"753907364625943":{"id":"753907364625943","from":{"id":"100005801442456","name":"An Nguyen"},"message":"A chắc đùa chứ mấy bài test n3 mà khó hơn thế này nhiều thì ai cản đảm thi hả a?a cứ làm chúng e hoang mang^^","can_remove":false,"created_time":"2013-11-07T05:06:57+0000","like_count":0,"user_likes":false},"753909097959103":{"id":"753909097959103","from":{"id":"100001156666759","name":"Kenshuu Steam"},"message":"Xin lỗi An Nguyen về trình độ chữ hán thì N3 không chơi được bài này,nhưng nếu nói về nội dung và độ chơi chữ thì những cái bài thi N3 chơi chữ và khó hiểu hon thế này nhiều , không tính chữ hán nhé","message_tags":[{"id":"100005801442456","name":"An Nguyen","type":"user","offset":8,"length":9}],"can_remove":false,"created_time":"2013-11-07T05:13:27+0000","like_count":3,"user_likes":false},"753951491288197":{"id":"753951491288197","from":{"id":"100004510290091","name":"Long Hoàng"},"message":"N3 gì khó dữ zậy trời 😠","can_remove":false,"created_time":"2013-11-07T07:34:47+0000","like_count":0,"user_likes":false},"754027601280586":{"id":"754027601280586","from":{"id":"100005801442456","name":"An Nguyen"},"message":"Ờ thì hơn n3 tí@.@","can_remove":false,"created_time":"2013-11-07T11:31:26+0000","like_count":0,"user_likes":false},"754161954600484":{"id":"754161954600484","from":{"id":"1146680551","name":"優しい なぁ"},"message":"n2 ^_^ ad này lừa đảo qué ^_^","can_remove":false,"created_time":"2013-11-07T16:46:30+0000","like_count":0,"user_likes":false}},"paging":{"cursors":{"after":"NzUzOTA1OTk0NjI2MDgw","before":"NzUzOTA1OTk0NjI2MDgw"},"next":"https://graph.facebook.com/229244010425617_753874124629267/comments?limit=1&summary=1&after=NzUzOTA1OTk0NjI2MDgw"},"summary":{"order":"chronological","total_count":7}}}