{"id":"229244010425617_753848284631851","type":"status","from":{"id":"100006368081099","name":"Man Thu"},"message":"Chào mọi người,\nMình đang tìm lại link : ngữ_pháp_sơ_trung_tổng hợp tiếng Nhật(dạng file PDF) bạn nào có post cho mình xin nhé,\nMình dùng điện thoại nên ko seach từ khoa như cách Mai PB nói hôm trước, \nCảm ơn mọi người!","created_time":"2013-11-07T02:31:12+0000","updated_time":"2013-11-07T04:18:46+0000","comments":{"data":{"753864997963513":{"id":"753864997963513","from":{"id":"100001458099624","name":"Kham Pha"},"message":"Trong mục file của group có đấy. Mình đang ở ngoài ko tiện lấy ra.","can_remove":false,"created_time":"2013-11-07T03:21:24+0000","like_count":0,"user_likes":false},"753892031294143":{"id":"753892031294143","from":{"id":"100006368081099","name":"Man Thu"},"message":"https://attachment.fbsbx.com/file_download.php?id=435689099855821&eid=ASuVKNoKrQkdXH8Yph7p5lE5SJRVF-6252Fncjw0gt-iK21I6oteWTZ_n0lfoSWDKMc&ext=1383797865&hash=ASuIg3-nyTSbFMCR\nMình tìm lại được rồi, bạn nào Cần thì sử dụng nhé. Cảm ơn bạn Kham Pha đã hướng dẫn","message_tags":[{"id":"100001458099624","name":"Kham Pha","type":"user","offset":238,"length":8}],"can_remove":false,"created_time":"2013-11-07T04:18:46+0000","like_count":1,"user_likes":false}},"paging":{"cursors":{"after":"NzUzODY0OTk3OTYzNTEz","before":"NzUzODY0OTk3OTYzNTEz"},"next":"https://graph.facebook.com/229244010425617_753848284631851/comments?limit=1&summary=1&after=NzUzODY0OTk3OTYzNTEz"},"summary":{"order":"chronological","total_count":2}},"likes":{"data":[]}}