{"id":"229244010425617_753907497959263","type":"status","from":{"id":"100003250657085","name":"Nhất Kiếm Vô Tình"},"message":"mới thấy cái này hay hay ko biết có giúp ích cho bạn nào không nhưng mình nghĩ nên đọc để dùng cho đúng hjhj\n\nCó thể bạn chưa biết về các cách dùng : “Cám ơn” “xin lỗi” “Tôi đã hiểu”. Trong tiếng nhật, 3 từ “cám ơn” “xin lỗi” “tôi đã hiểu” có rất nhiều cách nói khác nhau, ví dụ như trong quan hệ xuồng xã, thân mật, lễ phép hay lịch sự. Bài viết dưới đây mình xin được giới thiệu về nó, để mọi người có cái nhìn bao quát hơn về “các cách nói” này. Hơn nữa, dựa vào đó, chúng ta sẽ nghe và đối thoại tốt hơn với người bản xứ, trong nhiều tình huống khác nhau. \n1. Về “XIN LỖI” Xin lỗiすみません có những biếm âm như sau すまん (đối tượng sử dụng là con trai, người lớn tuổi) すまない (đối tượng sử dụng là con trai, người lớn tuổi) すいません \nNgoài ra tất cả các cách nói dưới đây đều biểu hiện ý nghĩa “xin lỗi”. Cấp độ lịch sự tăng dần.\n ごめん ごめんなさい\n もうしわけない\n もうしわけありません\n もうしわけござません\n Chú ý: ない　là dạng ngắn của ありません, ござません là dạng lịch sự của ありません Tóm lại: ない　＝＞　ありません　＝＞　ございません 恐縮(きょうしゅく): lấy làm tiếc, Xin hay bỏ qua cho tôi....\n\n 2. Về “CÁM ƠN” Tất cả các cách nói dưới đây đều biểu hiện ý nghĩa “CÁM ƠN” あざっす a zassu ( à zát sự...)(đối tượng sử dụng là con trai, người lớn tuổi) ありがとう: ありがとうございます :\n (Tương lai ) ありがとうございました: ( Quá khứ ) おそれいります。　: khi ai đó làm việc gì đó cho mình thì mình sẽ nói câu này. Trong câu này bao hàm ca ý nghĩa “xin lỗi” và “cám ơn” \nví dụ:Trong quán ăn, khi khách hàng dọn đồ, cất bát đĩa, hay di chuyển chỗ ngồi để nhường chỗ cho người khác thì ta nói “おそれいります” - サンキュー: xuất phát từ tiếng anh “thank you” \n\n3. Về “Tôi đã hiểu” Tất cả các cách nói dưới đây đều biểu hiện ý nghĩa “TÔI ĐÃ HIỂU” わかった。\nLịch sự theo kiểu xuồng sã, bạn bè người thân わかりました。Lịch sự thông dụng 了解です。\nLịch sự thông dụng (Chú ý: rất hay sử dụng. Đặc biệt trong trường hợp ai đó nhờ mình một việc gì đó, nếu đồng ý mình sẽ sử dụng nó )\n Ví dụ:\nA: どんぶりをさげて dọn dẹp bát đi (cất bát loa) \nB:　りょうかいです　 vâng. (tôi đã hiểu) 了解(りょうかい)しました。 了解いたしました。 \n\ngiải thích:Theo từ điển “了解(りょうかい)” có nghĩa là “lĩnh hội, thấu hiểu”. Tức là “tôi đã hiểu” Bình thường khi ai nhờ việc gì đó thì sẽ nói “りょうかいです” hoặc “りょうかいしました” \n\nChú ý: いたしました là khiêm nhường ngữ của しました かしこまりました。Dạng kính ngữ của わかりました。(dùng trong nhà hàng) 承知(しょうち)いたしました。Kính ngữ <=> 了解いたしました うけたまわりました。Tôi đã “tiếp nhận” <=> ( Tôi đã hiểu rồi thưa ngài, thư quý khách...) (dùng trong thương mại, bán hàng)","created_time":"2013-11-07T05:07:25+0000","updated_time":"2013-11-08T11:25:37+0000","likes":{"data":{"100002916376886":{"id":"100002916376886","name":"Thủy Bee"},"100002508122689":{"id":"100002508122689","name":"Vũ Mạnh Tuấn"},"100005495773832":{"id":"100005495773832","name":"Hiền Vũ"},"100006767705219":{"id":"100006767705219","name":"Kim Liên"},"100005801442456":{"id":"100005801442456","name":"An Nguyen"},"100004251845458":{"id":"100004251845458","name":"Hoàng Anh"},"100002871405403":{"id":"100002871405403","name":"Thach Sanh"},"100001416272263":{"id":"100001416272263","name":"Mai PB"},"100001606380276":{"id":"100001606380276","name":"Phan Đức Thái"},"1305472811":{"id":"1305472811","name":"Tuan Nguyen"},"100003079752043":{"id":"100003079752043","name":"Smile Named Hân"},"100001848885057":{"id":"100001848885057","name":"Tiểu Mỡ Nhi"},"100001754136107":{"id":"100001754136107","name":"Nguyễn Tuấn Vũ"},"100005440689746":{"id":"100005440689746","name":"Trang Mapy"},"100003671803669":{"id":"100003671803669","name":"Tojika Sakura"},"100002833803367":{"id":"100002833803367","name":"Hoang Anh Luong"}},"paging":{"cursors":{"after":"MTAwMDAyOTE2Mzc2ODg2","before":"MTAwMDAyOTE2Mzc2ODg2"},"next":"https://graph.facebook.com/229244010425617_753907497959263/likes?limit=1&summary=1&after=MTAwMDAyOTE2Mzc2ODg2"},"summary":{"total_count":17}},"comments":{"data":{"753927517957261":{"id":"753927517957261","from":{"id":"100001848885057","name":"Tiểu Mỡ Nhi"},"message":"Cảm ơn anh vì đã chia sẻ ạ","can_remove":false,"created_time":"2013-11-07T06:17:10+0000","like_count":1,"user_likes":false},"753950144621665":{"id":"753950144621665","from":{"id":"100003250657085","name":"Nhất Kiếm Vô Tình"},"message":"người nhật tinh tế trong từ chi tiết và 3 từ trên rất cần trong cuộc sống khi ở bên Nhật hjhj nên sử dụng cho đúng ko để họ cười mình ko biết lễ nghĩa phải ko mọi người.","can_remove":false,"created_time":"2013-11-07T07:31:24+0000","like_count":1,"user_likes":false},"753998941283452":{"id":"753998941283452","from":{"id":"100001416272263","name":"Mai PB"},"message":"Nhất Kiếm Vô Tình bạn có thể sửa format cho dễ đọc hơn không? Dùng Shift+Enter để xuống dòng nhé.","message_tags":[{"id":"100003250657085","name":"Nhất Kiếm Vô Tình","type":"user","offset":0,"length":17}],"can_remove":false,"created_time":"2013-11-07T10:06:10+0000","like_count":0,"user_likes":false},"754021271281219":{"id":"754021271281219","from":{"id":"100003250657085","name":"Nhất Kiếm Vô Tình"},"message":"để lần sau nhé hjhj","can_remove":false,"created_time":"2013-11-07T11:14:49+0000","like_count":0,"user_likes":false},"754045131278833":{"id":"754045131278833","from":{"id":"100001416272263","name":"Mai PB"},"message":"Sửa luôn đc mà?","can_remove":false,"created_time":"2013-11-07T12:15:22+0000","like_count":1,"user_likes":false},"754047041278642":{"id":"754047041278642","from":{"id":"100003250657085","name":"Nhất Kiếm Vô Tình"},"message":"năng lực có hạn có gì thiếu sót mọi người thông cảm nhé !","can_remove":false,"created_time":"2013-11-07T12:21:43+0000","like_count":0,"user_likes":false},"754174077932605":{"id":"754174077932605","from":{"id":"1146680551","name":"優しい なぁ"},"message":"Bạn quên nói tới từ \"どうも”","can_remove":false,"created_time":"2013-11-07T17:12:01+0000","like_count":1,"user_likes":false},"754593467890666":{"id":"754593467890666","from":{"id":"100003245420682","name":"Thỏ Ngọc Usagi"},"message":"ございませんchứ ko phải ござませんbạn ơi","can_remove":false,"created_time":"2013-11-08T11:25:37+0000","like_count":0,"user_likes":false}},"paging":{"cursors":{"after":"NzUzOTI3NTE3OTU3MjYx","before":"NzUzOTI3NTE3OTU3MjYx"},"next":"https://graph.facebook.com/229244010425617_753907497959263/comments?limit=1&summary=1&after=NzUzOTI3NTE3OTU3MjYx"},"summary":{"order":"chronological","total_count":8}}}