{"id":"229244010425617_753900617959951","type":"status","from":{"id":"100001416272263","name":"Mai PB"},"message":"Hãy dịch các từ ra nghĩa thực, hoặc nghĩa đầy đủ của nó.\n\n1. ご検討いたします。/ Chúng tôi sẽ suy nghĩ.\n2. 分かりました。/分かります。/ Tôi hiểu (rồi).\n3. おそらく～だと思います。/ Tôi nghĩ có lẽ là....\n4. ～した方が良いですよ。/ Anh nên làm...\n5. 微妙です。/  Nhạy cảm, tinh tế","created_time":"2013-11-07T04:45:01+0000","updated_time":"2013-11-07T15:45:58+0000","likes":{"data":{"100002916376886":{"id":"100002916376886","name":"Thủy Bee"},"100003272717174":{"id":"100003272717174","name":"Hieu Nguyen"},"100001058098161":{"id":"100001058098161","name":"DoTa Allstar"},"100001216203214":{"id":"100001216203214","name":"Lala Rita"},"100000328742646":{"id":"100000328742646","name":"Trần Giáp"},"100005694491959":{"id":"100005694491959","name":"Phuong Truong Thi Thanh"},"100003055356509":{"id":"100003055356509","name":"Thuan Nguyen"},"100002508122689":{"id":"100002508122689","name":"Vũ Mạnh Tuấn"},"100002163578657":{"id":"100002163578657","name":"Quốc Bảo"},"100004253979918":{"id":"100004253979918","name":"Louis Hoàng Văn Thái"},"100001458099624":{"id":"100001458099624","name":"Kham Pha"},"100005817485663":{"id":"100005817485663","name":"Chí Cường"},"100005796581435":{"id":"100005796581435","name":"Hieu Nguyen Sagittarius"},"100002871405403":{"id":"100002871405403","name":"Thach Sanh"},"100000973295703":{"id":"100000973295703","name":"El Pipita Gà"},"100005801442456":{"id":"100005801442456","name":"An Nguyen"},"100000284487802":{"id":"100000284487802","name":"Buu Lam Gia"},"100002898154513":{"id":"100002898154513","name":"Gã Shrek"},"100003250657085":{"id":"100003250657085","name":"Nhất Kiếm Vô Tình"},"100001257093338":{"id":"100001257093338","name":"Hanh Dang"},"100003632988405":{"id":"100003632988405","name":"Skr Trang"}},"paging":{"cursors":{"after":"MTAwMDAyOTE2Mzc2ODg2","before":"MTAwMDAyOTE2Mzc2ODg2"},"next":"https://graph.facebook.com/229244010425617_753900617959951/likes?limit=1&summary=1&after=MTAwMDAyOTE2Mzc2ODg2"},"summary":{"total_count":22}},"comments":{"data":{"753904541292892":{"id":"753904541292892","from":{"id":"100001156666759","name":"Kenshuu Steam"},"message":"bác dịch lịch sự quá, dịch phiến diện tý thì em dịch như sau\n1. để tao coi\n2. biết rồi\n3. chắc là\n4. làm... kìa","can_remove":false,"created_time":"2013-11-07T04:56:19+0000","like_count":1,"user_likes":false},"753905127959500":{"id":"753905127959500","from":{"id":"100001416272263","name":"Mai PB"},"message":"Không phải. :-) Nghĩa \"đúng\" \"đầy đủ\" cơ.","can_remove":false,"created_time":"2013-11-07T04:57:55+0000","like_count":0,"user_likes":false},"753906601292686":{"id":"753906601292686","from":{"id":"573221482","name":"Chi Chi"},"message":"微妙co nhieu nghia lam. Nghia thuong dung nhat dau phai la tinh te nhay cam dau nhi???","can_remove":false,"created_time":"2013-11-07T05:03:41+0000","like_count":0,"user_likes":false},"753907794625900":{"id":"753907794625900","from":{"id":"100001156666759","name":"Kenshuu Steam"},"message":"微妙　bản thân nó đã   微妙 về nghĩa rồi mà, giống như từ 甘い、いい加減、... sợ nhất học mấy cái chữ này","can_remove":false,"created_time":"2013-11-07T05:08:45+0000","like_count":0,"user_likes":false},"753909501292396":{"id":"753909501292396","from":{"id":"100006984725456","name":"Mai Anh"},"message":"1. Tôi xin phép xem xét.\n2. Tôi đã hiểu rồi. Tôi hiểu.\n3. Tôi e rằng ...\n4. Làm ~ thì hơn đấy.\n5. ... =]]","can_remove":false,"created_time":"2013-11-07T05:14:40+0000","like_count":0,"user_likes":false},"753916717958341":{"id":"753916717958341","from":{"id":"100003250657085","name":"Nhất Kiếm Vô Tình"},"message":"lần sau anh viết hiragana thôi không thi mở ngoặc ra cũng được chứ viết kanji những bạn mới học như em thì bó tay luôn","can_remove":false,"created_time":"2013-11-07T05:40:16+0000","like_count":0,"user_likes":false},"753916861291660":{"id":"753916861291660","from":{"id":"100001156666759","name":"Kenshuu Steam"},"message":"thế mới có động lực để tra từ em àh, tra từ được thì sẽ nhớ được... ka ka","can_remove":false,"created_time":"2013-11-07T05:40:59+0000","like_count":1,"user_likes":false},"753918484624831":{"id":"753918484624831","from":{"id":"100001416272263","name":"Mai PB"},"message":"Ad nào lấy lại link chương trình phiên âm hiragana ra đây giúp. Ở trong doc của group đó.","can_remove":false,"created_time":"2013-11-07T05:48:27+0000","like_count":0,"user_likes":false},"753918944624785":{"id":"753918944624785","from":{"id":"100003250657085","name":"Nhất Kiếm Vô Tình"},"message":"ở đâu nhỉ em tìm ko ra cho em xin link  với","can_remove":false,"created_time":"2013-11-07T05:49:58+0000","like_count":0,"user_likes":false},"753931131290233":{"id":"753931131290233","from":{"id":"1270781159","name":"Pham Thi Thanh Nga"},"message":"1. từ chối khéo\n3. nói về phán đoán của mình\n5. tránh trả lời","can_remove":false,"created_time":"2013-11-07T06:32:21+0000","like_count":2,"user_likes":false},"753931477956865":{"id":"753931477956865","from":{"id":"100001156666759","name":"Kenshuu Steam"},"message":"you nói chưa chính xác rồi, chắc bạn chưa đi làm","can_remove":false,"created_time":"2013-11-07T06:33:42+0000","like_count":0,"user_likes":false},"753932207956792":{"id":"753932207956792","from":{"id":"100000166915328","name":"Tân Trần"},"message":"Mọi người tra cách đọc Kanji ở đây nhé http://hiragana.jp/","can_remove":false,"created_time":"2013-11-07T06:36:40+0000","like_count":0,"user_likes":false},"753949757955037":{"id":"753949757955037","from":{"id":"100003250657085","name":"Nhất Kiếm Vô Tình"},"message":"ok thank Tân Trần","message_tags":[{"id":"100000166915328","name":"Tân Trần","type":"user","offset":9,"length":8}],"can_remove":false,"created_time":"2013-11-07T07:29:31+0000","like_count":0,"user_likes":false},"754013357948677":{"id":"754013357948677","from":{"id":"100001416272263","name":"Mai PB"},"message":"Tối sẽ có \"đáp án\", ai thử tiếp đi.","can_remove":false,"created_time":"2013-11-07T10:54:59+0000","like_count":0,"user_likes":false},"754017484614931":{"id":"754017484614931","from":{"id":"1270781159","name":"Pham Thi Thanh Nga"},"message":"phải có văn cảnh thì mới biết được nghĩa chứ mỗi câu không cũng khó đoán lắm ạ","can_remove":false,"created_time":"2013-11-07T11:03:48+0000","like_count":1,"user_likes":false},"754025307947482":{"id":"754025307947482","from":{"id":"100001622486348","name":"Tuan Lam"},"message":"1. ご検討いたします。/ Chúng tôi sẽ suy nghĩ.\n2. 分かりました。/分かります。/ Tôi hiểu (rồi).\n3. おそらく～だと思います。/ Tôi nghĩ có lẽ là....\n4. ～した方が良いですよ。/ Anh nên làm...\n5. 微妙です。/ Nhạy cảm, tinh tế","can_remove":false,"created_time":"2013-11-07T11:25:45+0000","like_count":0,"user_likes":false},"754031837946829":{"id":"754031837946829","from":{"id":"100001416272263","name":"Mai PB"},"message":"Nga Pham Thi Thanh chỉ đơn giản là khi được người Nhật trả lời như vậy thì ý là họ muốn nói gì thôi. Ý trên của em viết cho đủ ý một chút nữa.","message_tags":[{"id":"1270781159","name":"Nga Pham Thi Thanh","type":"user","offset":0,"length":18}],"can_remove":false,"created_time":"2013-11-07T11:43:06+0000","like_count":0,"user_likes":false},"754047244611955":{"id":"754047244611955","from":{"id":"1270781159","name":"Pham Thi Thanh Nga"},"message":"1. Khi mình đưa cho họ 1 đề nghị gì đó mà họ chưa biết trả lời sao thì họ nói vậy","can_remove":false,"created_time":"2013-11-07T12:22:25+0000","like_count":0,"user_likes":false},"754047964611883":{"id":"754047964611883","from":{"id":"1270781159","name":"Pham Thi Thanh Nga"},"message":"2.わかりました。ý thông báo lại cho mình là họ đã nghe ý kiến của mình. わかります họ có biết được điều mình đang nói","can_remove":false,"created_time":"2013-11-07T12:24:27+0000","like_count":0,"user_likes":false},"754049044611775":{"id":"754049044611775","from":{"id":"1270781159","name":"Pham Thi Thanh Nga"},"message":"3.dự đoán có chứng cứ rõ ràng, khả năng xảy ra cao","can_remove":false,"created_time":"2013-11-07T12:26:36+0000","like_count":0,"user_likes":false},"754049187945094":{"id":"754049187945094","from":{"id":"1270781159","name":"Pham Thi Thanh Nga"},"message":"4. lời khuyên","can_remove":false,"created_time":"2013-11-07T12:26:49+0000","like_count":0,"user_likes":false},"754050264611653":{"id":"754050264611653","from":{"id":"1270781159","name":"Pham Thi Thanh Nga"},"message":"5. nói chung là phức tạp, không thể nói rõ ràng trong 1 hai từ được","can_remove":false,"created_time":"2013-11-07T12:29:22+0000","like_count":0,"user_likes":false},"754056367944376":{"id":"754056367944376","from":{"id":"100001416272263","name":"Mai PB"},"message":"Câu trả lời hợp lý đây. Hợp lý ở đây nghĩa là gì, là mọi người nên hiểu ý thực sự của câu nói đó.\n\n1. ご検討いたします。-> Xin lỗi nhé, chúng tôi không quan tâm nữa đâu. Đừng làm phiền chúng tôi nữa.\n2. 分かりました。/分かります。-> Tôi hiểu ý của anh là thế. Và chỉ thế thôi, đừng nghĩ rằng tôi đã đồng ý nhé.\n3. おそらく～だと思います。-> Có lẽ vậy, mà tôi cũng chẳng chắc đâu nhé\n4. ～した方が良いですよ。-> Anh mà không làm thì sẽ có chuyện không hay đó.\n5. 微妙です。-> Tôi chẳng biết trả lời thế nào, có thể là \"yes\", cũng có thể là \"no\"","can_remove":false,"created_time":"2013-11-07T12:45:46+0000","like_count":8,"user_likes":false},"754060744610605":{"id":"754060744610605","from":{"id":"100001458099624","name":"Kham Pha"},"message":"Kể ra đây cho các bạn 2 văn cảnh mình gặp với từ số 5, 微妙. \nMột lần là phát biểu cuối kì ở lab nghiên cứu, phải qua được thì mới được làm tốt nghiệp. Đánh giá thì dựa trên phiếu của các thầy. Có thằng cùng lab mình nó làm tiều quá, thầy chẳng biết nên cho qua hay không thế là ghi vào phần comment: 微妙かな。-> tức là \"khó nhỉ, không biết nên cho trượt hay đỗ bây giờ\"\nLần nữa là khi mình đi hội thảo ở châu Âu về có mua ít kẹo dẻo bên đó về tặng lab, nhưng lúc vận chuyển lên máy bay, bánh kẹo bị bẹp dính vào nhau mang về nhìn hơi tệ. Mình bảo một thằng cùng lab cứ ăn đi, trông hơi tệ nhưng ngon lắm đấy. Thế là nó bảo それは微妙だな -> \"cái này khó mà khẳng định được\". Nghe xong tức phọt máu, muốn đáp thẳng cái giày vào mồm nó, chứ ăn uống gì.","can_remove":false,"created_time":"2013-11-07T12:57:19+0000","like_count":4,"user_likes":false},"754070111276335":{"id":"754070111276335","from":{"id":"100001580479641","name":"Hà Xuân Thủy"},"message":"Xin góp ý một chút: 分かりました mang ý là tôi hiểu ý anh nói rồi, 分かります thì nó mang sắc thái tôi hiểu (nhưng là tôi tự hiểu từ trc chứ ko phải anh nói rồi tôi mới hiểu).\n 微妙 ( VI DIỆU) nghĩa gốc là sự nhỏ nhặt đến mức ko bằng cách nào có thể làm rõ đc, quá khó và phức tạp. Giống kiểu bên hiếu bên tình:))","can_remove":false,"created_time":"2013-11-07T13:17:25+0000","like_count":0,"user_likes":false},"754070241276322":{"id":"754070241276322","from":{"id":"100001365545442","name":"Nguyễn Nam"},"message":"Trường hợp 2.. nếu mình vừa đồng ý và hiểu với họ thì mình sẽ nói như thế nào anh Mai PB","message_tags":[{"id":"100001416272263","name":"Mai PB","type":"user","offset":82,"length":6}],"can_remove":false,"created_time":"2013-11-07T13:17:54+0000","like_count":0,"user_likes":false},"754123937937619":{"id":"754123937937619","from":{"id":"100001416272263","name":"Mai PB"},"message":"Nguyễn Nam có nhiều cách nói, nhưng đều là nói không phải bằng 1 câu là được mà bằng nhiều câu khác ý nói tiếp theo sẽ thế nào, sẽ làm gì đó... Ví dụ: 進めましょう (sẽ triển khai nhé).","message_tags":[{"id":"100001365545442","name":"Nguyễn Nam","type":"user","offset":0,"length":10}],"can_remove":false,"created_time":"2013-11-07T15:26:21+0000","like_count":2,"user_likes":false},"754136057936407":{"id":"754136057936407","from":{"id":"1146680551","name":"優しい なぁ"},"message":"4/ Làm cái đó thì sẽ hay nè ( tiếng miền Nam) ^_^","can_remove":false,"created_time":"2013-11-07T15:45:58+0000","like_count":0,"user_likes":false}},"paging":{"cursors":{"after":"NzUzOTA0NTQxMjkyODky","before":"NzUzOTA0NTQxMjkyODky"},"next":"https://graph.facebook.com/229244010425617_753900617959951/comments?limit=1&summary=1&after=NzUzOTA0NTQxMjkyODky"},"summary":{"order":"chronological","total_count":28}}}