{"id":"229244010425617_753970047953008","type":"status","from":{"id":"100002262262717","name":"Quả Táo Mèo"},"message":"Em moi qua tokyo hoc...muon kiem 1 viec lam them...mong cac anh chi giup do~ em","created_time":"2013-11-07T08:37:57+0000","updated_time":"2013-11-08T13:06:42+0000","likes":{"data":{"100005801442456":{"id":"100005801442456","name":"An Nguyen"},"100006522340975":{"id":"100006522340975","name":"Đức Nguyễn"}},"paging":{"cursors":{"after":"MTAwMDA1ODAxNDQyNDU2","before":"MTAwMDA1ODAxNDQyNDU2"},"next":"https://graph.facebook.com/229244010425617_753970047953008/likes?limit=1&summary=1&after=MTAwMDA1ODAxNDQyNDU2"},"summary":{"total_count":2}},"comments":{"data":{"753971171286229":{"id":"753971171286229","from":{"id":"100001156666759","name":"Kenshuu Steam"},"message":"anh nói thật, các chú qua đó học thì cố gắng dành thời gian để học, chăm chăm kiếm việc làm không có time học kết quả học tập kém, công việc cũng chẳng ra sao... hãy nghĩ ra 1 chút đừng vì lợi ích trước em em ạh","can_remove":false,"created_time":"2013-11-07T08:41:56+0000","like_count":0,"user_likes":false},"753971764619503":{"id":"753971764619503","from":{"id":"100002262262717","name":"Quả Táo Mèo"},"message":"em chi kan co 1viec lam de qua cai mua dog nay thui,chu ko kay nhu trau anh ah ;)","can_remove":false,"created_time":"2013-11-07T08:43:52+0000","like_count":0,"user_likes":false},"754094247940588":{"id":"754094247940588","from":{"id":"100001458099624","name":"Kham Pha"},"message":"Bạn viết tiếng Việt có dấu đi. Nếu ko sửa thì post sẽ bị xóa đấy.\n An Nguyen có rành vụ này ko nhỉ","message_tags":[{"id":"100005801442456","name":"An Nguyen","type":"user","offset":67,"length":9}],"can_remove":false,"created_time":"2013-11-07T14:18:07+0000","like_count":0,"user_likes":false},"754643751218971":{"id":"754643751218971","from":{"id":"100005599265794","name":"Nam Hoang"},"message":"Bạn có làm cơm hộp dưới Saitama k? Đi tàu mat́ 450yen tu ga Takadanobaba","can_remove":false,"created_time":"2013-11-08T13:06:42+0000","like_count":1,"user_likes":false}},"paging":{"cursors":{"after":"NzUzOTcxMTcxMjg2MjI5","before":"NzUzOTcxMTcxMjg2MjI5"},"next":"https://graph.facebook.com/229244010425617_753970047953008/comments?limit=1&summary=1&after=NzUzOTcxMTcxMjg2MjI5"},"summary":{"order":"chronological","total_count":4}}}