{"id":"229244010425617_754033034613376","type":"swf","picture":"https://fbexternal-a.akamaihd.net/app_full_proxy.php?app=350685531728&v=1&size=p&cksum=cf5df233c270f7959542308f227e6470&src=http%3A%2F%2Fi1.ytimg.com%2Fvi%2F4RTOCrXJfPM%2Fmaxresdefault.jpg%3Ffeature%3Dog","link":"https://www.youtube.com/watch?v=4RTOCrXJfPM&feature=youtube_gdata_player","source":"http://www.youtube.com/v/4RTOCrXJfPM?version=3&autohide=1&autoplay=1","from":{"id":"1023965040","name":"Juli KimChi"},"message":"Hoc hoi, hoc hoi cac bac oi.","created_time":"2013-11-07T11:46:21+0000","updated_time":"2013-11-07T13:52:34+0000","likes":{"data":{"100001458099624":{"id":"100001458099624","name":"Kham Pha"},"100004673281769":{"id":"100004673281769","name":"Ngọc Lam Man"},"100001416272263":{"id":"100001416272263","name":"Mai PB"},"100003763768548":{"id":"100003763768548","name":"Nguyễn Dũng"},"100005801442456":{"id":"100005801442456","name":"An Nguyen"},"100003489557712":{"id":"100003489557712","name":"Hòa Hoàng"}},"paging":{"cursors":{"after":"MTAwMDAxNDU4MDk5NjI0","before":"MTAwMDAxNDU4MDk5NjI0"},"next":"https://graph.facebook.com/229244010425617_754033034613376/likes?limit=1&summary=1&after=MTAwMDAxNDU4MDk5NjI0"},"summary":{"total_count":6}},"comments":{"data":{"754083591274987":{"id":"754083591274987","from":{"id":"100001458099624","name":"Kham Pha"},"message":"Juli KimChi viết tiếng việt có dấu nhé :)","message_tags":[{"id":"1023965040","name":"Juli KimChi","type":"user","offset":0,"length":11}],"can_remove":false,"created_time":"2013-11-07T13:52:34+0000","like_count":1,"user_likes":false}},"paging":{"cursors":{"after":"NzU0MDgzNTkxMjc0OTg3","before":"NzU0MDgzNTkxMjc0OTg3"}},"summary":{"order":"chronological","total_count":1}}}