{"id":"229244010425617_754050207944992","type":"status","from":{"id":"100004269570918","name":"Sói Neko"},"message":"chào mọi người mình là thành viên mới rất mong được chỉ bảo \np/s: cho mình hỏi là mình có thể đăng 1 bài để sale đồ cos được k ạ :)","created_time":"2013-11-07T12:29:13+0000","updated_time":"2013-11-07T13:20:59+0000","likes":{"data":{"100005008718062":{"id":"100005008718062","name":"Vu Pham"},"100003899510131":{"id":"100003899510131","name":"Hoa Oải Hương"},"100002371267781":{"id":"100002371267781","name":"Rainy Mai"}},"paging":{"cursors":{"after":"MTAwMDA1MDA4NzE4MDYy","before":"MTAwMDA1MDA4NzE4MDYy"},"next":"https://graph.facebook.com/229244010425617_754050207944992/likes?limit=1&summary=1&after=MTAwMDA1MDA4NzE4MDYy"},"summary":{"total_count":3}},"comments":{"data":{"754050917944921":{"id":"754050917944921","from":{"id":"100005446931997","name":"Sakurasou San"},"message":"no.... Bạn muốn sale đồ cos thỳ vào Hội Cosplay  nhé","can_remove":false,"created_time":"2013-11-07T12:31:18+0000","like_count":0,"user_likes":false},"754051321278214":{"id":"754051321278214","from":{"id":"100004269570918","name":"Sói Neko"},"message":"tks :) mình chỉ hỏi vậy thôi","can_remove":false,"created_time":"2013-11-07T12:32:31+0000","like_count":0,"user_likes":false},"754051511278195":{"id":"754051511278195","from":{"id":"100004269570918","name":"Sói Neko"},"message":"mình thấy gr có dạy tiếng nhật phải k ạ :) mình phải làm sao để có thể học được?","can_remove":false,"created_time":"2013-11-07T12:33:02+0000","like_count":0,"user_likes":false},"754051971278149":{"id":"754051971278149","from":{"id":"100005446931997","name":"Sakurasou San"},"message":"Ngốc như vậy ko học đc đâu... ^_^","can_remove":false,"created_time":"2013-11-07T12:34:24+0000","like_count":0,"user_likes":false},"754054977944515":{"id":"754054977944515","from":{"id":"100005440689746","name":"Trang Mapy"},"message":"Bạn vào Sai Gon Cosplay Sale,  Chợ Cosplay Sai Gon thì tiện hơn. Có nhiều group chuyên về sale đồ cos mà.","can_remove":false,"created_time":"2013-11-07T12:42:01+0000","like_count":0,"user_likes":false},"754055637944449":{"id":"754055637944449","from":{"id":"100004269570918","name":"Sói Neko"},"message":"dạ :v k học được ạ T^T xl e hơi ngốc...k dạy được sao ạ T^T","can_remove":false,"created_time":"2013-11-07T12:43:28+0000","like_count":0,"user_likes":false},"754061077943905":{"id":"754061077943905","from":{"id":"100001580479641","name":"Hà Xuân Thủy"},"message":"Bạn tsuyosi nói đùa đấy, người nhật ai cũng biết tiếng nhật nên ko có chuyện có người ko học đc đâu, có điều do ko đc học từ khi mới sinh ra nên nếu có điều kiện bạn nên đến trung tâm theo học thời gian đầu theo giáo trình sẽ dễ dàng hơn, còn tự học thì cũng phải đầu tư thời gian và giáo trình có giải thích bằng tiếng việt, học đến đâu ko hiểu thì hỏi tham khảo ý kiến trên các group, diễn đàn,... Thử tự mình tìm hiểu trc rồi hãy hỏi ai đó.\n Về quảng cáo cosplay thì bạn có thể viết một bài giới thiệu về văn hoá cos cho mọi người rồi cuối cùng kèm theo phần quảng cáo phía dưới chắc mọi người sẽ ủng hộ đấy.:d","can_remove":false,"created_time":"2013-11-07T12:58:16+0000","like_count":2,"user_likes":false},"754061364610543":{"id":"754061364610543","from":{"id":"100001458099624","name":"Kham Pha"},"message":"Sói Neko bạn có thấy post đính trên đầu group không? Ở đó có tất cả các bài học tiếng Nhật  và văn hóa Nhật của cả admin và mem biên soạn đấy :)","message_tags":[{"id":"100004269570918","name":"Sói Neko","type":"user","offset":0,"length":8}],"can_remove":false,"created_time":"2013-11-07T12:59:18+0000","like_count":1,"user_likes":false},"754061694610510":{"id":"754061694610510","from":{"id":"100001416272263","name":"Mai PB"},"message":"Bạn chưa biết chút nào tiếng Nhật chứ gì, group sắp mở lớp cho người mới bắt đầu, nhớ quay lại thường xuyên nhé. À mà dựa vào 1 course nào đó trong các doc mà Kham Pha nói ở trên đó.","message_tags":[{"id":"100001458099624","name":"Kham Pha","type":"user","offset":159,"length":8}],"can_remove":false,"created_time":"2013-11-07T13:00:27+0000","like_count":1,"user_likes":false},"754062491277097":{"id":"754062491277097","from":{"id":"100005446931997","name":"Sakurasou San"},"message":"Học như vậy thỳ sao mà Nhớ đc....hại não quá...có tiền thỳ đi học trực tiếp","can_remove":false,"created_time":"2013-11-07T13:02:43+0000","like_count":0,"user_likes":false},"754069917943021":{"id":"754069917943021","from":{"id":"100001416272263","name":"Mai PB"},"message":"Học cái này thì sao? Ví dụ: http://www.nhk.or.jp/lesson/vietnamese/learn/list/1.html","can_remove":false,"created_time":"2013-11-07T13:16:40+0000","like_count":1,"user_likes":false},"754070034609676":{"id":"754070034609676","from":{"id":"100001416272263","name":"Mai PB"},"message":"Hay cái này? https://www.erin.ne.jp/en/lesson01/basic/index.html","can_remove":false,"created_time":"2013-11-07T13:17:10+0000","like_count":1,"user_likes":false},"754071564609523":{"id":"754071564609523","from":{"id":"100004269570918","name":"Sói Neko"},"message":"thanks all ^^ I'll try it em cám ơn nha","can_remove":false,"created_time":"2013-11-07T13:20:59+0000","like_count":2,"user_likes":false}},"paging":{"cursors":{"after":"NzU0MDUwOTE3OTQ0OTIx","before":"NzU0MDUwOTE3OTQ0OTIx"},"next":"https://graph.facebook.com/229244010425617_754050207944992/comments?limit=1&summary=1&after=NzU0MDUwOTE3OTQ0OTIx"},"summary":{"order":"chronological","total_count":13}}}