{"id":"229244010425617_754099977940015","type":"link","picture":"https://fbexternal-a.akamaihd.net/safe_image.php?d=AQDxFh0RG6iAvEF3&w=154&h=154&url=http%3A%2F%2Fwww.nhk.or.jp%2Flesson%2Fvietnamese%2Fsyllabary%2F..%2F..%2Fupdate%2Flesson%2Fpic_syllabary.gif","link":"http://www.nhk.or.jp/lesson/vietnamese/syllabary/index.html","from":{"id":"100001416272263","name":"Mai PB"},"message":"Bao nhiêu người phát âm được đúng chữ つ ? Nghe ở đây nhé. http://www.nhk.or.jp/lesson/vietnamese/syllabary/index.html","created_time":"2013-11-07T14:31:48+0000","updated_time":"2013-11-08T14:51:35+0000","likes":{"data":{"100004716640495":{"id":"100004716640495","name":"Thúy An Dương"},"100003893158172":{"id":"100003893158172","name":"Maru MO"},"100002801290859":{"id":"100002801290859","name":"Arsène Lupin"},"100006767705219":{"id":"100006767705219","name":"Kim Liên"},"100001723862714":{"id":"100001723862714","name":"Bo Bien Vang"},"100003993223946":{"id":"100003993223946","name":"Kieu Quoc Dat"},"100002782131785":{"id":"100002782131785","name":"Hasegawa Kiyotake"},"100002629655875":{"id":"100002629655875","name":"Đỗ Thế Phong"},"100005801442456":{"id":"100005801442456","name":"An Nguyen"},"100003090738530":{"id":"100003090738530","name":"Ngô Thị Thanh Hường"},"100003272717174":{"id":"100003272717174","name":"Hieu Nguyen"},"1837866264":{"id":"1837866264","name":"QuynhDo Anh"},"100004614840382":{"id":"100004614840382","name":"Amy Parker"},"100003814756892":{"id":"100003814756892","name":"Hai Nguyen"},"100005436934892":{"id":"100005436934892","name":"Quang Quynh"},"100006652034531":{"id":"100006652034531","name":"Thuythuy Nguyen"},"100006687430060":{"id":"100006687430060","name":"Happy Ruan"},"100003696134321":{"id":"100003696134321","name":"Phạm Hạnh"},"100000141968619":{"id":"100000141968619","name":"Chacha Bubu"},"620134445":{"id":"620134445","name":"Anh Do"},"100003005597243":{"id":"100003005597243","name":"Zany Royal"},"100001257093338":{"id":"100001257093338","name":"Hanh Dang"},"100001216203214":{"id":"100001216203214","name":"Lala Rita"},"1535104031":{"id":"1535104031","name":"Hoang Nguyen"},"100003950139327":{"id":"100003950139327","name":"Kathy Banh"},"100000207685227":{"id":"100000207685227","name":"Glou Mai"},"100002163578657":{"id":"100002163578657","name":"Quốc Bảo"},"100000045271667":{"id":"100000045271667","name":"Nam Thai Nguyen"},"100004370470709":{"id":"100004370470709","name":"Hoa Linh Lan"},"1122379216":{"id":"1122379216","name":"Hà Ngô"},"100003076762517":{"id":"100003076762517","name":"ThiênKim Nhị Tiểu Quỷ"},"100000208398721":{"id":"100000208398721","name":"Nguyễn Nhật Linh"},"100004123327271":{"id":"100004123327271","name":"Nguyễn Phương"},"100003055356509":{"id":"100003055356509","name":"Thuan Nguyen"},"100004251845458":{"id":"100004251845458","name":"Hoàng Anh"},"100005440689746":{"id":"100005440689746","name":"Trang Mapy"},"100004041794244":{"id":"100004041794244","name":"Watanuki Kimihiro"},"100004360751785":{"id":"100004360751785","name":"Hà Nguyễn"},"1148962646":{"id":"1148962646","name":"Tran Thi Tuong Van"}},"paging":{"cursors":{"after":"MTAwMDA0NzE2NjQwNDk1","before":"MTAwMDA0NzE2NjQwNDk1"},"next":"https://graph.facebook.com/229244010425617_754099977940015/likes?limit=1&summary=1&after=MTAwMDA0NzE2NjQwNDk1"},"summary":{"total_count":41}},"comments":{"data":{"754102861273060":{"id":"754102861273060","from":{"id":"100002833803367","name":"Hoang Anh Luong"},"message":"Minh luon bi nguoi nhat cuoi khi phat am chu do hjhj","can_remove":false,"created_time":"2013-11-07T14:38:29+0000","like_count":0,"user_likes":false},"754103264606353":{"id":"754103264606353","from":{"id":"100000208398721","name":"Nguyễn Nhật Linh"},"message":"e thích nhất chữ đấy trong cả bảng chữ cái, mặc dù chưa chắc đã p.a đúng =))","can_remove":false,"created_time":"2013-11-07T14:39:29+0000","like_count":1,"user_likes":false},"754104114606268":{"id":"754104114606268","from":{"id":"1717530880","name":"Triệu Việt Cường"},"message":":'( Ko có chút hi vọng nào với cái chữ này. Từ hồi đi học, lúc phát âm đến cô giáo cũng bó tay rồi.","can_remove":false,"created_time":"2013-11-07T14:41:52+0000","like_count":0,"user_likes":false},"754108874605792":{"id":"754108874605792","from":{"id":"100003566412558","name":"Anh Việt Nguyễn"},"message":"Thấy mọi người ai cũng tặc lưỡi lắc đầu, nhất là câu của Thái Trần Hoàng và cô giáo của Triệu Việt Cường, tự nhiên khiến mình thấy hơi hoảng...\n\nTrước giờ vẫn dùng cũng như hướng dẫn học viên của mình theo cách sau:\n\"Âm 'tsu' do có 's' ở giữa, nên khi phát âm, bạn phải mở miệng, để cho khí khi lọt ra ngoài qua khe răng tạo âm /s/ nhẹ, cảm giác giống như là đang cười vậy\"\n\nMong được chỉ giáo.","message_tags":[{"id":"100006462449554","name":"Thái Trần Hoàng","type":"user","offset":57,"length":15},{"id":"1717530880","name":"Triệu Việt Cường","type":"user","offset":88,"length":16}],"can_remove":false,"created_time":"2013-11-07T14:52:19+0000","like_count":0,"user_likes":false},"754113451272001":{"id":"754113451272001","from":{"id":"100001458099624","name":"Kham Pha"},"message":"Làm gì khó đến vậy, các bạn chịu khoa tập đọc các bài tiếng Nhật là giỏi ngay ấy mà, mình nghĩ chưa đến 1 tháng thì giỏi như người Nhật. Tiếng Việt phát âm được tất cả các ngôn ngữ mà :)","can_remove":false,"created_time":"2013-11-07T15:03:49+0000","like_count":1,"user_likes":false},"754115134605166":{"id":"754115134605166","from":{"id":"100000381394367","name":"Thành Nguyễn"},"message":"Tiếng Việt Nam có 15000 âm khác nhau so với tiếng Trung Quốc có khoảng 5000 âm và tiếng Nhật có vài chục âm nên sự đa dạng trong khả năng phát âm của người Việt Nam là rất tốt, người nước ngoài nói tiếng Việt sẽ không thuận lợi bằng người Việt nói tiếng nước ngoài đâu nên các bạn đừng ngại. ( Chém thế này chứ mình cũng không sure là phát âm chuẩn từ này ).","can_remove":false,"created_time":"2013-11-07T15:08:14+0000","like_count":1,"user_likes":false},"754115264605153":{"id":"754115264605153","from":{"id":"100001458099624","name":"Kham Pha"},"message":"Muốn phát âm tsu đúng thì để lưỡi cong lên sát răng hàm trên và cho khí lọt qua chỉ cái khe ấy thôi.","can_remove":false,"created_time":"2013-11-07T15:08:35+0000","like_count":1,"user_likes":false},"754116471271699":{"id":"754116471271699","from":{"id":"100001416272263","name":"Mai PB"},"message":"Mình đùa một chút để giới thiệu bài học cho các bạn, chứ không phải bảo là rất khó! Để sát lưỡi vào hàm trên, phát âm nửa \"trư\" nửa \"sư\" hơi mạnh ra, là được. Đây là âm khí nên phải phát ra hơi. Sai lầm phần lớn là phất âm bình thường kiểu chữ \"trư\", mà chữ này thì cái lưỡi chỉ nằm giữa khoang miệng thôi, không sát lên hàm trên.","can_remove":false,"created_time":"2013-11-07T15:11:34+0000","like_count":3,"user_likes":false},"754117261271620":{"id":"754117261271620","from":{"id":"100004112258038","name":"Chung Tran"},"message":"cái âm này mấy anh Hàn Quốc nói giỏi ^^ , tiếng Việt có nhiều âm nhưng ko có âm này ( thấy giáo viên tiếng Nhật nói thế ^^ )","can_remove":false,"created_time":"2013-11-07T15:13:31+0000","like_count":0,"user_likes":false},"754117967938216":{"id":"754117967938216","from":{"id":"100000208398721","name":"Nguyễn Nhật Linh"},"message":"đâu có. Tiếng Hàn cũng chỉ có âm s sh giống t Việt thôi ạ, e thấy âm nào Hàn có thì tiếng Việt đều có cả :))","can_remove":false,"created_time":"2013-11-07T15:15:01+0000","like_count":0,"user_likes":false},"754133187936694":{"id":"754133187936694","from":{"id":"1005117187","name":"Juri Le"},"message":"âm này mấy anh trung quốc mới giỏi nhất :)","can_remove":false,"created_time":"2013-11-07T15:42:56+0000","like_count":0,"user_likes":false},"754439384572741":{"id":"754439384572741","from":{"id":"100001416272263","name":"Mai PB"},"message":"Hà Xuân Thủy khác thế nào, giới thiệu tiếp cho mọi người đi.","message_tags":[{"id":"100001580479641","name":"Hà Xuân Thủy","type":"user","offset":0,"length":12}],"can_remove":false,"created_time":"2013-11-08T03:18:00+0000","like_count":0,"user_likes":false},"754441327905880":{"id":"754441327905880","from":{"id":"1146680551","name":"優しい なぁ"},"message":"\"しゅっ\"\"じゅっ\" các bác bày e với cách phát âm.mỗi lần gặp mấy chỗ này hay bị ngắc ngứ.","can_remove":false,"created_time":"2013-11-08T03:23:25+0000","like_count":0,"user_likes":false},"754442784572401":{"id":"754442784572401","from":{"id":"100001416272263","name":"Mai PB"},"message":"Đây là lúc để người Nhật giải thích. :-)","can_remove":false,"created_time":"2013-11-08T03:26:43+0000","like_count":0,"user_likes":false},"754620964554583":{"id":"754620964554583","from":{"id":"100002801290859","name":"Arsène Lupin"},"message":"đúng cái đang cần các a ơi. mấy học sinh VN trường em toàn phát âm sai chữ tsu","can_remove":false,"created_time":"2013-11-08T12:19:37+0000","like_count":0,"user_likes":false},"754623344554345":{"id":"754623344554345","from":{"id":"100001416272263","name":"Mai PB"},"message":"Cần phải đúng từ những phát âm đầu tiên, cách viết đầu tiên. Mọi người kiểm tra lại tất cả các âm ở trên xem. Cá nhân mình thì chắc là hầu như tất cả người Việt (miền Bắc) đều sai các âm だ　で　ど bởi vì theo phân tích thì nó không rõ ràng là \"đa\" \"đê\" \"đô\" mà có vẻ là nhẹ hơn, nửa \"ta\" nửa \"đa\". Hình như phát âm của miền Nam thì âm này nhẹ hơn, biết đâu lại gần với tiếng Nhật?","can_remove":false,"created_time":"2013-11-08T12:24:47+0000","like_count":1,"user_likes":false},"754631604553519":{"id":"754631604553519","from":{"id":"100003250657085","name":"Nhất Kiếm Vô Tình"},"message":"mình cũng sai hjc giờ quen mồm rồi sửa khó ghê","can_remove":false,"created_time":"2013-11-08T12:44:19+0000","like_count":0,"user_likes":false},"754696947880318":{"id":"754696947880318","from":{"id":"100002833803367","name":"Hoang Anh Luong"},"message":"Các bạn có từ vựng tiếng nhật ngành kỷ thuật kg a, cho mình xin được kg,","can_remove":false,"created_time":"2013-11-08T14:51:35+0000","like_count":0,"user_likes":false}},"paging":{"cursors":{"after":"NzU0MTAyODYxMjczMDYw","before":"NzU0MTAyODYxMjczMDYw"},"next":"https://graph.facebook.com/229244010425617_754099977940015/comments?limit=1&summary=1&after=NzU0MTAyODYxMjczMDYw"},"summary":{"order":"chronological","total_count":19}}}