{"id":"229244010425617_754044684612211","type":"status","from":{"id":"100001416272263","name":"Mai PB"},"message":"Hôm nay group hơi trầm lắng, có lẽ vì mưa bão miền Nam chăng? Các mem cẩn trọng nhé.","created_time":"2013-11-07T12:14:26+0000","updated_time":"2013-11-09T02:26:41+0000","likes":{"data":{"100004094346107":{"id":"100004094346107","name":"Thuy Nga Nguyen"},"100003049639881":{"id":"100003049639881","name":"Truong Luvuxy"},"100000973295703":{"id":"100000973295703","name":"El Pipita Gà"},"100006330543489":{"id":"100006330543489","name":"Mỹ Nhung Nguyễn"},"100000064686295":{"id":"100000064686295","name":"Huy Roli"},"100006767705219":{"id":"100006767705219","name":"Kim Liên"},"1748812390":{"id":"1748812390","name":"Đường Xưa Mây Trắng"},"100002456874174":{"id":"100002456874174","name":"Xuan Thuan"},"100004857314400":{"id":"100004857314400","name":"Lê Nguyễn"},"100004716640495":{"id":"100004716640495","name":"Thúy An Dương"},"100003671803669":{"id":"100003671803669","name":"Tojika Sakura"},"100003743767998":{"id":"100003743767998","name":"Băng Tâm"},"1148962646":{"id":"1148962646","name":"Tran Thi Tuong Van"},"100002589963683":{"id":"100002589963683","name":"Hà Văn Tuấn"}},"paging":{"cursors":{"after":"MTAwMDA0MDk0MzQ2MTA3","before":"MTAwMDA0MDk0MzQ2MTA3"},"next":"https://graph.facebook.com/229244010425617_754044684612211/likes?limit=1&summary=1&after=MTAwMDA0MDk0MzQ2MTA3"},"summary":{"total_count":17}},"comments":{"data":{"754059021277444":{"id":"754059021277444","from":{"id":"100001416272263","name":"Mai PB"},"message":"Nhờ hệ thống thoát nước tối tân nhất thế giới thế này mà Tokyo không bao giờ bị ngập lụt như Hàn Quốc, Trung Quốc cả, nữa là TpHCM. http://hasegn.exblog.jp/10438814","can_remove":false,"created_time":"2013-11-07T12:51:51+0000","like_count":1,"user_likes":false},"754103894606290":{"id":"754103894606290","from":{"id":"100000064686295","name":"Huy Roli"},"message":"Chắc do dạo này ko có ai hỏi lắm như em ;)","can_remove":false,"created_time":"2013-11-07T14:41:09+0000","like_count":0,"user_likes":false},"754111631272183":{"id":"754111631272183","from":{"id":"100001416272263","name":"Mai PB"},"message":"Huy Roli không có chuyện đó. :-)","message_tags":[{"id":"100000064686295","name":"Huy Roli","type":"user","offset":0,"length":8}],"can_remove":false,"created_time":"2013-11-07T15:00:06+0000","like_count":0,"user_likes":false},"754434894573190":{"id":"754434894573190","from":{"id":"100004094346107","name":"Thuy Nga Nguyen"},"message":"Thanks anh Mai PB!","message_tags":[{"id":"100001416272263","name":"Mai PB","type":"user","offset":11,"length":6}],"can_remove":false,"created_time":"2013-11-08T03:06:57+0000","like_count":0,"user_likes":false},"754484314568248":{"id":"754484314568248","from":{"id":"100005334430359","name":"Mưa Lạnh"},"message":"mọi người ở miền Nam VN cũng đang lo lắng anh Mai PB ơi!!!","message_tags":[{"id":"100001416272263","name":"Mai PB","type":"user","offset":46,"length":6}],"can_remove":false,"created_time":"2013-11-08T05:22:05+0000","like_count":1,"user_likes":false},"754588667891146":{"id":"754588667891146","from":{"id":"100003011417151","name":"Hue Kim"},"message":"miền trung khổ hơn anh ơi, sắp bão mạnh nữa, tiếp tục chạy bão","can_remove":false,"created_time":"2013-11-08T11:16:42+0000","like_count":1,"user_likes":false},"754599791223367":{"id":"754599791223367","from":{"id":"100001416272263","name":"Mai PB"},"message":"Miền Trung lúc nào cũng khổ nhất rồi. Mọi ng tiếp tục cứu trợ nhé. Địa chỉ trên đầu group ấy. Dao Ngoc còn tiếp nhận không nhỉ?","message_tags":[{"id":"1816269439","name":"Dao Ngoc","type":"user","offset":94,"length":8}],"can_remove":false,"created_time":"2013-11-08T11:38:29+0000","like_count":0,"user_likes":false},"754600087890004":{"id":"754600087890004","from":{"id":"100003011417151","name":"Hue Kim"},"message":"ai về dọn nhà dùm em đi, đợt rồi mới bay nữa cái nhà, đợt này chắc bay nguyên cái, hix","can_remove":false,"created_time":"2013-11-08T11:39:21+0000","like_count":1,"user_likes":false},"754600627889950":{"id":"754600627889950","from":{"id":"100001416272263","name":"Mai PB"},"message":"Like là quan tâm đó, khg phải \"thích\" đâu","can_remove":false,"created_time":"2013-11-08T11:41:27+0000","like_count":0,"user_likes":false},"754601377889875":{"id":"754601377889875","from":{"id":"100003011417151","name":"Hue Kim"},"message":"anh Mai PB đã pahir chạy bão bao giờ chưa nhỉ?","message_tags":[{"id":"100001416272263","name":"Mai PB","type":"user","offset":4,"length":6}],"can_remove":false,"created_time":"2013-11-08T11:43:57+0000","like_count":1,"user_likes":false},"755027791180567":{"id":"755027791180567","from":{"id":"1816269439","name":"Dao Ngoc"},"message":"Theo kế hoạch thì VYSA tạm dừng tiếp nhận tiền cứu trợ từ 3/11 để tổng kết và gửi về Việt nam. Nhưng để em confirm lại tình hình cụ thể với chủ nhiệm quỹ xem sao ạ","can_remove":false,"created_time":"2013-11-09T02:26:41+0000","like_count":0,"user_likes":false}},"paging":{"cursors":{"after":"NzU0MDU5MDIxMjc3NDQ0","before":"NzU0MDU5MDIxMjc3NDQ0"},"next":"https://graph.facebook.com/229244010425617_754044684612211/comments?limit=1&summary=1&after=NzU0MDU5MDIxMjc3NDQ0"},"summary":{"order":"chronological","total_count":13}}}