{"id":"229244010425617_754174947932518","type":"status","from":{"id":"100000159131502","name":"Quyên Bùi"},"message":"xin chào, mình rất thích tiếng nhật nhưng nơi mình ở chỉ mở lớp dạy biết mặt chữ thui. mọi người cứ kêu tiếng nhật khó quá rùi nghỉ học nên k có đủ học viên mở lớp level cao hơn. mình lại quá yêu thích tiếng nhật nên đành lên mạng tìm tài liệu tự học. và sau một thời gian mình phát hiện là mình đã nói sai hết các từ. giống như tiếng anh, mình đã để dấu nhấn sai dẫn đến sai nghĩa luôn. hxhxxx \nthế nên, có bạn nào biết trang nào dạy phát âm từ vựng hay từ điển nào phát âm chuẩn thì chỉ cho mình với. hiện mình đang xài javidic 2008 nhưng là bản 'chui' nên chỉ có vài chữ được phát âm thui ah.\ncám ơn các bạn trước nha ^^","created_time":"2013-11-07T17:14:16+0000","updated_time":"2013-11-08T09:42:39+0000","likes":{"data":{"100000047107627":{"id":"100000047107627","name":"Tiểu Phương"},"100001622486348":{"id":"100001622486348","name":"Tuan Lam"},"100001458099624":{"id":"100001458099624","name":"Kham Pha"},"100001848885057":{"id":"100001848885057","name":"Tiểu Mỡ Nhi"},"100004380181780":{"id":"100004380181780","name":"Be Boo"}},"paging":{"cursors":{"after":"MTAwMDAwMDQ3MTA3NjI3","before":"MTAwMDAwMDQ3MTA3NjI3"},"next":"https://graph.facebook.com/229244010425617_754174947932518/likes?limit=1&summary=1&after=MTAwMDAwMDQ3MTA3NjI3"},"summary":{"total_count":6}},"comments":{"data":{"754182991265047":{"id":"754182991265047","from":{"id":"1146680551","name":"優しい なぁ"},"message":"nếu bạn xài Iphone thì có sẵn tiện ích luôn . đó là cái siri đó bạn.phát âm chuẩn nó mới hiện ra từ .Mình vẫn luyện như thế.^_^","can_remove":false,"created_time":"2013-11-07T17:33:21+0000","like_count":2,"user_likes":false},"754224997927513":{"id":"754224997927513","from":{"id":"100001848885057","name":"Tiểu Mỡ Nhi"},"message":"Bạn ở HN hay TPHCM vậy?. Nếu ở HN thì có 1 bạn mà mình quen muốn dạy tiếng Nhật cho mọi người mỗi buổi chỉ mất 10k tiền thuê phòng học thôi. Nếu muốn mình sẽ cho bạn cách liên lạc ha","can_remove":false,"created_time":"2013-11-07T19:18:02+0000","like_count":2,"user_likes":false},"754271827922830":{"id":"754271827922830","from":{"id":"100001580479641","name":"Hà Xuân Thủy"},"message":"http://www.coscom.co.jp/hiragana-katakana/kanatable-j.html bạn tham khảo trang này xem.","can_remove":false,"created_time":"2013-11-07T21:32:02+0000","like_count":1,"user_likes":false},"754468581236488":{"id":"754468581236488","from":{"id":"100005504642044","name":"Võ Tú Duyên"},"message":"mình cũng đang tự học tiếng nhật, có nhiều tài liệu sơ cấp cậu thích thì có thể liên lạc mình :D , mình cũng có mở trang Tiếng Nhật 15' để tổng hợp  https://www.facebook.com/TiengNhat15phut?ref=hl","can_remove":false,"created_time":"2013-11-08T04:23:49+0000","like_count":1,"user_likes":false},"754507681232578":{"id":"754507681232578","from":{"id":"100000159131502","name":"Quyên Bùi"},"message":"cám ơn các bạn đã cmt nhưng cái mình muốn hỏi là tra cách đọc từ vựng ấy. ví dụ như ì ma là bây giờ nhưng í mà thì ra nghĩa khác rùi.","can_remove":false,"created_time":"2013-11-08T06:50:16+0000","like_count":0,"user_likes":false},"754534807896532":{"id":"754534807896532","from":{"id":"100005801442456","name":"An Nguyen"},"message":"Cách bạn sai là không có Bộ gõ! Nếu bạn xài iphone thì rất nhiều ứng dụng có thể share, còn android thì cũng vô số.Nhưng bạn đang xài cái gì?!?","can_remove":false,"created_time":"2013-11-08T08:42:58+0000","like_count":0,"user_likes":false},"754535321229814":{"id":"754535321229814","from":{"id":"100005504642044","name":"Võ Tú Duyên"},"message":"đọc từ thì có thể gõ tiếng nhật rồi copy vào google tran chỉnh dịch Nhật->việt, ô nhập văn bản sẽ có nút phát âm tiếng nhật hình cái loa :D cậu bấm vào nghe cách đọc, kết hợp với việc coi phim nhạc nhât thì sẽ nghe tốt thui","can_remove":false,"created_time":"2013-11-08T08:44:06+0000","like_count":0,"user_likes":false},"754536947896318":{"id":"754536947896318","from":{"id":"100005504642044","name":"Võ Tú Duyên"},"message":"gõ tiếng nhật trên máy tính thì chỉnh font thì khó ở chỗ là đĩa cài win, nên mình hay dùng phần mềm gõ văn bản tiếng nhật http://www.mediafire.com/?8ix3nmnizar , tải về bấm xài thui ko giải nén, hoặc dùng Bàn Phim ảo ở đây\nhttp://gate2home.com/Japanese-Keyboard","can_remove":false,"created_time":"2013-11-08T08:47:10+0000","like_count":0,"user_likes":false},"754538411229505":{"id":"754538411229505","from":{"id":"100000159131502","name":"Quyên Bùi"},"message":"Võ Tú Duyên máy tính mình có bộ gõ tiếng nhật. đánh văn bản thì ok. mình chỉ lăn tăn phần phát âm thôi ah. \nAn Nguyen mình xài stupidphone nên k có hệ điều hành gì cả.","message_tags":[{"id":"100005504642044","name":"Võ Tú Duyên","type":"user","offset":0,"length":11},{"id":"100005801442456","name":"An Nguyen","type":"user","offset":108,"length":9}],"can_remove":false,"created_time":"2013-11-08T08:51:47+0000","like_count":0,"user_likes":false},"754539267896086":{"id":"754539267896086","from":{"id":"100005801442456","name":"An Nguyen"},"message":"Nếu vậy chắc xài ... lạc việt!!!","can_remove":false,"created_time":"2013-11-08T08:54:19+0000","like_count":0,"user_likes":false},"754539514562728":{"id":"754539514562728","from":{"id":"100000159131502","name":"Quyên Bùi"},"message":"lạc việt có tiếng nhật nữa hả bạn?","can_remove":false,"created_time":"2013-11-08T08:54:55+0000","like_count":0,"user_likes":false},"754540724562607":{"id":"754540724562607","from":{"id":"100005801442456","name":"An Nguyen"},"message":"Hình như lạc việt 2000. Nhưng nói chung tra sơ cấp thôi, lên cao tào lao bí đao!","can_remove":false,"created_time":"2013-11-08T08:58:10+0000","like_count":0,"user_likes":false},"754541141229232":{"id":"754541141229232","from":{"id":"100000159131502","name":"Quyên Bùi"},"message":"haizz..có đỡ hơn k. chứ cái javidic của mình cũng chữ đc chữ k. cám ơn các bạn nhiều nha ^^","can_remove":false,"created_time":"2013-11-08T08:59:25+0000","like_count":0,"user_likes":false},"754542514562428":{"id":"754542514562428","from":{"id":"100005504642044","name":"Võ Tú Duyên"},"message":"mình toàn cầm nguyên cuốn từ điển mà tra, vừa coi từ vựng vừa học câu áp dụng (｡+`･ω･´) có chữ romanji nữa","can_remove":false,"created_time":"2013-11-08T09:05:10+0000","like_count":0,"user_likes":false},"754543211229025":{"id":"754543211229025","from":{"id":"100000159131502","name":"Quyên Bùi"},"message":"uhm khổ cái là từ điển giấy k có phát âm. chẳng giống tiếng anh chỉ cần biết đọc phiên âm và dấu nhấn. tiếng nhật phải nghe người nhật đọc và tùy vùng miền cũng nhấn chữ khác nhau mà đôi khi đổi dấu nhấn là đổi nghĩa nữa chứ. bởi thế mình mới nhức đầu với cái vụ đọc đúng từ nè. cái này mình nghĩ ai tự học tiếng nhật sẽ có cùng nỗi khổ giống mình thui","can_remove":false,"created_time":"2013-11-08T09:07:27+0000","like_count":0,"user_likes":false},"754544414562238":{"id":"754544414562238","from":{"id":"100005504642044","name":"Võ Tú Duyên"},"message":":3 cậu cần trang từ có phát âm hả? mình cũng biết có vài trang web đó ヾ(＠^∇^＠)ノ còn có trang 2000 từ thông dụng trong tiếng nhật nữa","can_remove":false,"created_time":"2013-11-08T09:11:13+0000","like_count":1,"user_likes":false},"754544681228878":{"id":"754544681228878","from":{"id":"100000159131502","name":"Quyên Bùi"},"message":"*gật *gật* cho mình xin link đi bạn ^^","can_remove":false,"created_time":"2013-11-08T09:12:07+0000","like_count":0,"user_likes":false},"754545794562100":{"id":"754545794562100","from":{"id":"100005504642044","name":"Võ Tú Duyên"},"message":"vậy bạn like trang mình trước đi :3 https://www.facebook.com/TiengNhat15phut","can_remove":false,"created_time":"2013-11-08T09:16:38+0000","like_count":2,"user_likes":false},"754546254562054":{"id":"754546254562054","from":{"id":"100001580479641","name":"Hà Xuân Thủy"},"message":"Từ điển phát âm thì nên dùng từ điển nhk, do người nhật phát âm nên sẽ giúp ích cho bạn đấy, có điều là từ điển nhật-nhật nên để hiểu rõ nghĩa bạn nên kết hợp dùng cả nhật-việt như jv diction","can_remove":false,"created_time":"2013-11-08T09:17:02+0000","like_count":0,"user_likes":false},"754546587895354":{"id":"754546587895354","from":{"id":"100000159131502","name":"Quyên Bùi"},"message":"Võ Tú Duyên mình đã like trang của bạn lâu rùi na\nHà Xuân Thủy bạn chỉ rõ hơn giúp mình đi ^^","message_tags":[{"id":"100005504642044","name":"Võ Tú Duyên","type":"user","offset":0,"length":11},{"id":"100001580479641","name":"Hà Xuân Thủy","type":"user","offset":50,"length":12}],"can_remove":false,"created_time":"2013-11-08T09:18:23+0000","like_count":0,"user_likes":false},"754547304561949":{"id":"754547304561949","from":{"id":"100000159131502","name":"Quyên Bùi"},"message":"Võ Tú Duyên mình đã like trang của bạn lâu rùi na\nHà Xuân Thủy bạn chỉ rõ hơn giúp mình đi ^^","message_tags":[{"id":"100005504642044","name":"Võ Tú Duyên","type":"user","offset":0,"length":11},{"id":"100001580479641","name":"Hà Xuân Thủy","type":"user","offset":50,"length":12}],"can_remove":false,"created_time":"2013-11-08T09:20:51+0000","like_count":1,"user_likes":false},"754550037895009":{"id":"754550037895009","from":{"id":"100005504642044","name":"Võ Tú Duyên"},"message":"à vậy hả? cảm ơn bạn nhiều ←～（o ｀▽´ )oΨ , đây là trang từ điển của Japan Foundation bên kansai , gõ romanji thì từ ko đúng lắm nên cậu tra từ thì gõ tiếng nhật ô search, sẽ ra phát âm giọng nhật đọc chậm rất dễ nghe cũng hỗ trợ kanji nữa đó http://eng.nihongodecarenavi.jp/eng/index.php,  2000 từ và câu thông dụng của tiếng nhật, có phát âm minh họa đầy đủ http://iknow.jp/series/3318","can_remove":false,"created_time":"2013-11-08T09:27:53+0000","like_count":1,"user_likes":false},"754550857894927":{"id":"754550857894927","from":{"id":"100000159131502","name":"Quyên Bùi"},"message":"ok desu! cám ơn bạn nha Võ Tú Duyên","message_tags":[{"id":"100005504642044","name":"Võ Tú Duyên","type":"user","offset":24,"length":11}],"can_remove":false,"created_time":"2013-11-08T09:30:48+0000","like_count":1,"user_likes":false},"754553074561372":{"id":"754553074561372","from":{"id":"100001580479641","name":"Hà Xuân Thủy"},"message":"http://www.studyjapanese.net/2012/10/nhk-nihongo-hatsuon-akusento-jiten.html?m=1\nBạn truy cập vào trang này có đầy đủ bộ cài và hướng dẫn chi tiết.","can_remove":false,"created_time":"2013-11-08T09:38:14+0000","like_count":1,"user_likes":false},"754554317894581":{"id":"754554317894581","from":{"id":"100000159131502","name":"Quyên Bùi"},"message":"cám ơn bạn Hà Xuân Thủy nhiều lắm luôn nha","message_tags":[{"id":"100001580479641","name":"Hà Xuân Thủy","type":"user","offset":11,"length":12}],"can_remove":false,"created_time":"2013-11-08T09:42:39+0000","like_count":0,"user_likes":false}},"paging":{"cursors":{"after":"NzU0MTgyOTkxMjY1MDQ3","before":"NzU0MTgyOTkxMjY1MDQ3"},"next":"https://graph.facebook.com/229244010425617_754174947932518/comments?limit=1&summary=1&after=NzU0MTgyOTkxMjY1MDQ3"},"summary":{"order":"chronological","total_count":25}}}