{"id":"229244010425617_754390814577598","type":"photo","object_id":"176097229260324","picture":"https://fbcdn-photos-f-a.akamaihd.net/hphotos-ak-prn2/t1.0-0/1457508_176097229260324_1718019964_s.jpg","link":"https://www.facebook.com/photo.php?fbid=176097229260324&set=gm.754390814577598&type=1&relevant_count=1","from":{"id":"100005801442456","name":"An Nguyen"},"message":"THÔNG TIN TUYỂN DỤNG LÀM\nTHÊM NGẮN HẠN TẠI YAMATO( 東京)\n\nCó 2 địa điểm tuyển dụng yamato trong tuần này( công việc phân loại hàng và là công việc ngắn hạn từ tháng 11 đến tháng 12, tuy nhiên nếu bạn cố gắng có thể làm tốt có thể ký hợp đồng dài hạn )\n\nĐịa điểm 1: \n埼玉県八潮市八潮- yashio\n\n*Địa chỉ làm việc:埼玉県八潮市八潮4-1-5\n\n*Lương: 1000¥\n\n*Thời gian : \n1/14:00 - 22:00 ( giải lao 1h)\n                   2/17:00 - 22:00\n                   3/18:00 - 22:00\n                   4/19:00 - 22:00\n*cách phỏng vấn: tại địa điểm này, bạn NHẤT THIẾT PHẢI GỌI ĐIỆN THOẠI TRƯỚC khi tới nơi phỏng vấn. Số điện thoại tuyển dụng : 080-6699-5096 ( 13h-20h )\n\nĐịa điểm 2 : 北東京ベース店\n\n*Địa chỉ làm việc: 戸田市川岸1-1-29( Toda, kawagishi ), tầng 2\n\n*Thời gian: 9:00 -12:00 ( 2610¥ )\n                 13:00 - 18:00 (4140¥, giải lao 30')\n                 17:00 - 22:00(4500¥, giải lao 30')\n                 18:00 - 22:00 ( 4000¥)\n                 19:00 -22:00 ( 3000¥)\n                 20:00 - 0:00 (4364¥)\n                 21:00 - 0:00 (3394¥)\n                 22:00 - 3:00 (6016¥,giải lao 30') \n                 2:00 - 6:00 ( 5081¥)\n                 3:00 - 6:00 (3744¥)\n                 5:00 - 8:00 (3060¥)\n\n*Cách phỏng vấn: KHÔNG CẦN ĐIỆN THOẠI TRƯỚC,bạn có thể đến trực tiếp với tất cả hồ sơ cần thiết.\nCác ngày phỏng vấn :\n11/7, 11/8, 11/16: 18 giờ và 20 giờ.\n\n11/9: 10:00 giờ, 13:30 giờ ,18:00 giờ, 20:00 giờ.\n\n11/11 đến 11/15: 10:00 giờ, 18:00 giờ, và 22:00 giờ.\n\nCó xe bus đưa đón miễn phí tại 2 địa điểm:( xe như trong hình )\n\n川口駅 cổng phía Tây : giờ xuất phát \n9:30, 12:45, 17:30, 19:30, 19:30, 21:30( chỗ bãi xe bus )\n\n戸田公園駅 Cổng phía Tây: giờ xuất phát 13:10, 17:30, 21:30.( gần koban )\n\nSố điện thoại liên lạc :080-5451-8991","created_time":"2013-11-08T01:11:11+0000","updated_time":"2013-11-08T07:20:35+0000","likes":{"data":{"100004159951970":{"id":"100004159951970","name":"Nguyễn Tiến Thành"},"100002754998000":{"id":"100002754998000","name":"Nguyen Duc"},"100001723862714":{"id":"100001723862714","name":"Bo Bien Vang"},"100006610654836":{"id":"100006610654836","name":"Ánh Ngọc"},"100002535489295":{"id":"100002535489295","name":"Moteru Seikoo"},"100002855090345":{"id":"100002855090345","name":"Xuan Huy"},"100000925189769":{"id":"100000925189769","name":"Fanzhen Zhensanj"},"100004253979918":{"id":"100004253979918","name":"Louis Hoàng Văn Thái"},"100001594722256":{"id":"100001594722256","name":"Viết An Phạm"},"100003770118011":{"id":"100003770118011","name":"Trung Hoa Pham"},"100004094346107":{"id":"100004094346107","name":"Thuy Nga Nguyen"},"100001416272263":{"id":"100001416272263","name":"Mai PB"},"1146680551":{"id":"1146680551","name":"優しい なぁ"},"100002805246239":{"id":"100002805246239","name":"Hoàng Hiếu"},"1250876107":{"id":"1250876107","name":"Kim Hoan"},"100000222974192":{"id":"100000222974192","name":"Hoàng Thị Vân Anh"},"1707142975":{"id":"1707142975","name":"Bùi Thu Hà"},"100003837141956":{"id":"100003837141956","name":"Mai Hoàng"},"100001640832299":{"id":"100001640832299","name":"Hoàng Đạt"},"1031841670":{"id":"1031841670","name":"Ngọc Trâm"},"100005903373573":{"id":"100005903373573","name":"HaLinh Phong Phan"},"100003188540285":{"id":"100003188540285","name":"Đầu Gấu Xấu Trai"}},"paging":{"cursors":{"after":"MTAwMDA0MTU5OTUxOTcw","before":"MTAwMDA0MTU5OTUxOTcw"},"next":"https://graph.facebook.com/229244010425617_754390814577598/likes?limit=1&summary=1&after=MTAwMDA0MTU5OTUxOTcw"},"summary":{"total_count":23}},"comments":{"data":{"754408094575870":{"id":"754408094575870","from":{"id":"1031841670","name":"Ngọc Trâm"},"message":"Yahhh, có 1 thời m thèm 1 suất này phát rồ. Đi pvan như điên mà vẫn trượt thê thảm. :))))","can_remove":false,"created_time":"2013-11-08T01:59:03+0000","like_count":0,"user_likes":false},"754408837909129":{"id":"754408837909129","from":{"id":"100005801442456","name":"An Nguyen"},"message":"Số em là phải bên \" anh \" , bởi thế e phải theo gót anh mà đi làm Combini nghe chưa=))","can_remove":false,"created_time":"2013-11-08T02:02:05+0000","like_count":0,"user_likes":false},"754438291239517":{"id":"754438291239517","from":{"id":"100002805246239","name":"Hoàng Hiếu"},"message":"Ko biết tiến có đi làm dc ko vậy","can_remove":false,"created_time":"2013-11-08T03:15:31+0000","like_count":0,"user_likes":false},"754438867906126":{"id":"754438867906126","from":{"id":"1146680551","name":"優しい なぁ"},"message":"お疲れ様でした","can_remove":false,"created_time":"2013-11-08T03:16:49+0000","like_count":0,"user_likes":false},"754504051232941":{"id":"754504051232941","from":{"id":"100004715524978","name":"Minh Chiến"},"message":"Dia diem pv la ベ-ス店 phai k vay ban","can_remove":false,"created_time":"2013-11-08T06:37:10+0000","like_count":0,"user_likes":false},"754507067899306":{"id":"754507067899306","from":{"id":"100003879675484","name":"Nguyễn Hải Biên"},"message":"Minh o ga todacoen bay gio muon di lam thi phai lam the nao ha ban","can_remove":false,"created_time":"2013-11-08T06:47:36+0000","like_count":0,"user_likes":false},"754507731232573":{"id":"754507731232573","from":{"id":"100005801442456","name":"An Nguyen"},"message":"Coi các ngày nào phỏng vấn thì tới địa điểm xe bus đúng với tgian như trên, ăn mặc đàng hoàn tươm tất, Hồ sơ đầy đủ..","can_remove":false,"created_time":"2013-11-08T06:50:25+0000","like_count":0,"user_likes":false},"754508617899151":{"id":"754508617899151","from":{"id":"100004715524978","name":"Minh Chiến"},"message":"Tai sao dia diem 1 minh goi dien ho nai piu k nhan n nua vay ban...","can_remove":false,"created_time":"2013-11-08T06:55:04+0000","like_count":0,"user_likes":false},"754509394565740":{"id":"754509394565740","from":{"id":"100001583529210","name":"Nguyễn Kim Hà"},"message":"Nga Nguyen  cứ thắc mắc vào đây cho Ad An Nguyen trả lời nhé ^^ Ad An よろしく^^","message_tags":[{"id":"100001784385644","name":"Nga Nguyen","type":"user","offset":0,"length":10},{"id":"100005801442456","name":"An Nguyen","type":"user","offset":39,"length":9}],"can_remove":false,"created_time":"2013-11-08T06:59:10+0000","like_count":0,"user_likes":false},"754510891232257":{"id":"754510891232257","from":{"id":"100001784385644","name":"Nga Nguyen"},"message":"Địa điểm 2 là làm ở kawaguchi ah anh an An Nguyen","message_tags":[{"id":"100005801442456","name":"An Nguyen","type":"user","offset":40,"length":9}],"can_remove":false,"created_time":"2013-11-08T07:03:40+0000","like_count":0,"user_likes":false},"754514844565195":{"id":"754514844565195","from":{"id":"100005801442456","name":"An Nguyen"},"message":"Kawakuchi là cái chỗ xe bus chở bạn đi thôi.","can_remove":false,"created_time":"2013-11-08T07:20:35+0000","like_count":0,"user_likes":false}},"paging":{"cursors":{"after":"NzU0NDA4MDk0NTc1ODcw","before":"NzU0NDA4MDk0NTc1ODcw"},"next":"https://graph.facebook.com/229244010425617_754390814577598/comments?limit=1&summary=1&after=NzU0NDA4MDk0NTc1ODcw"},"summary":{"order":"chronological","total_count":11}}}