{"id":"229244010425617_754413977908615","type":"photo","object_id":"700834986594087","picture":"https://fbcdn-photos-f-a.akamaihd.net/hphotos-ak-frc3/t1.0-0/996653_700834986594087_1394337693_s.jpg","link":"https://www.facebook.com/photo.php?fbid=700834986594087&set=gm.754413977908615&type=1&relevant_count=1","from":{"id":"100000027754899","name":"Hoang Van Ba"},"message":"やろーともー☆〜（ゝ。∂）","created_time":"2013-11-08T02:14:39+0000","updated_time":"2013-11-08T16:22:23+0000","likes":{"data":{"100001416272263":{"id":"100001416272263","name":"Mai PB"},"100004094346107":{"id":"100004094346107","name":"Thuy Nga Nguyen"},"100000208398721":{"id":"100000208398721","name":"Nguyễn Nhật Linh"}},"paging":{"cursors":{"after":"MTAwMDAxNDE2MjcyMjYz","before":"MTAwMDAxNDE2MjcyMjYz"},"next":"https://graph.facebook.com/229244010425617_754413977908615/likes?limit=1&summary=1&after=MTAwMDAxNDE2MjcyMjYz"},"summary":{"total_count":3}},"comments":{"data":{"754716397878373":{"id":"754716397878373","from":{"id":"100001359798024","name":"November Gi"},"message":"Bài 1: đáp án 2: lỗ 200y\nBài 2: đáp án 2: lãi 240y\nBài 3: đ/a C: 295y\nBài 4: đ/a C: 2000y\nBài 5: đ/a D: 7200y\nBài 6: đ/a A: 816y\nBài 7: đ/a E: 1320y\n\n（≧∇≦）bị cuồng giải toán :v","can_remove":false,"created_time":"2013-11-08T15:38:51+0000","like_count":3,"user_likes":false},"754726411210705":{"id":"754726411210705","from":{"id":"100001416272263","name":"Mai PB"},"message":"Mới giải câu 1, thấy giống November Gi nên chắc đáp án trên đúng hết. :-)","message_tags":[{"id":"100001359798024","name":"November Gi","type":"user","offset":27,"length":11}],"can_remove":false,"created_time":"2013-11-08T16:01:30+0000","like_count":1,"user_likes":false},"754730214543658":{"id":"754730214543658","from":{"id":"100001365545442","name":"Nguyễn Nam"},"message":":'( kanji ko hà","can_remove":false,"created_time":"2013-11-08T16:11:12+0000","like_count":0,"user_likes":false},"754734781209868":{"id":"754734781209868","from":{"id":"100000027754899","name":"Hoang Van Ba"},"message":"Like mạnh ;) đang lười làm toán. Vậy thứ 2 làm tiếp nhé :)\nThanks","can_remove":false,"created_time":"2013-11-08T16:19:26+0000","like_count":0,"user_likes":false},"754735317876481":{"id":"754735317876481","from":{"id":"100001359798024","name":"November Gi"},"message":"Khong phải là lười làm rồi up lên cho mn giải rùi lấy kq đấy chứ =.=\"","can_remove":false,"created_time":"2013-11-08T16:20:47+0000","like_count":0,"user_likes":false},"754735384543141":{"id":"754735384543141","from":{"id":"100001416272263","name":"Mai PB"},"message":"Đề nghị viết rõ trình độ đọc để các mem không kỳ vọng hoặc thất vọng quá nhé.","can_remove":false,"created_time":"2013-11-08T16:21:02+0000","like_count":1,"user_likes":false},"754735961209750":{"id":"754735961209750","from":{"id":"100000027754899","name":"Hoang Van Ba"},"message":"Sao giỏi quá vậy ??? \nChuẩn luôn November Gi ah :)","can_remove":false,"created_time":"2013-11-08T16:22:23+0000","like_count":0,"user_likes":false}},"paging":{"cursors":{"after":"NzU0NzE2Mzk3ODc4Mzcz","before":"NzU0NzE2Mzk3ODc4Mzcz"},"next":"https://graph.facebook.com/229244010425617_754413977908615/comments?limit=1&summary=1&after=NzU0NzE2Mzk3ODc4Mzcz"},"summary":{"order":"chronological","total_count":7}}}