{"id":"229244010425617_754451421238204","type":"photo","object_id":"602213123149480","picture":"https://fbcdn-photos-c-a.akamaihd.net/hphotos-ak-ash3/t1.0-0/602130_602213123149480_54513678_s.jpg","link":"https://www.facebook.com/cooljapanfan/photos/a.204333086270821.46480.184699534900843/602213123149480/?type=1","from":{"id":"100001416272263","name":"Mai PB"},"message":"Bé  ngoan hay bố mẹ vui tính?","created_time":"2013-11-08T03:42:43+0000","updated_time":"2013-11-08T03:54:31+0000","likes":{"data":{"100002871405403":{"id":"100002871405403","name":"Thach Sanh"},"1629517470":{"id":"1629517470","name":"Nguyen Thi Thanh Van"},"1305472811":{"id":"1305472811","name":"Tuan Nguyen"},"100002969455554":{"id":"100002969455554","name":"Vương Siêu Nhân"},"100005440689746":{"id":"100005440689746","name":"Trang Mapy"},"100004094346107":{"id":"100004094346107","name":"Thuy Nga Nguyen"},"100003763768548":{"id":"100003763768548","name":"Nguyễn Dũng"},"1146680551":{"id":"1146680551","name":"優しい なぁ"},"100005801442456":{"id":"100005801442456","name":"An Nguyen"},"100001501594956":{"id":"100001501594956","name":"Hieu Tran"},"100001754136107":{"id":"100001754136107","name":"Nguyễn Tuấn Vũ"},"100003013864105":{"id":"100003013864105","name":"Thu Trang"},"100001458099624":{"id":"100001458099624","name":"Kham Pha"},"100005211189763":{"id":"100005211189763","name":"Oliveu Cchann"},"1816269439":{"id":"1816269439","name":"Dao Ngoc"}},"paging":{"cursors":{"after":"MTAwMDAyODcxNDA1NDAz","before":"MTAwMDAyODcxNDA1NDAz"},"next":"https://graph.facebook.com/229244010425617_754451421238204/likes?limit=1&summary=1&after=MTAwMDAyODcxNDA1NDAz"},"summary":{"total_count":17}},"comments":{"data":{"754451861238160":{"id":"754451861238160","from":{"id":"100005801442456","name":"An Nguyen"},"message":"E nghĩ đó là hiện trường 1 vụ tai nạn và cảnh sát đang vẽ lại hiện trường gây án(?)","can_remove":false,"created_time":"2013-11-08T03:44:30+0000","like_count":0,"user_likes":false},"754452447904768":{"id":"754452447904768","from":{"id":"100001637565304","name":"Chung Dương Quang"},"message":"chac chi la bag chi dan day la cho de xe dap thoi...doan vay, ..;)","can_remove":false,"created_time":"2013-11-08T03:46:30+0000","like_count":1,"user_likes":false},"754453621237984":{"id":"754453621237984","from":{"id":"100001416272263","name":"Mai PB"},"message":"An Nguyen đùa đấy chứ?","message_tags":[{"id":"100005801442456","name":"An Nguyen","type":"user","offset":0,"length":9}],"can_remove":false,"created_time":"2013-11-08T03:50:12+0000","like_count":0,"user_likes":false},"754453747904638":{"id":"754453747904638","from":{"id":"100005801442456","name":"An Nguyen"},"message":"=))","can_remove":false,"created_time":"2013-11-08T03:50:34+0000","like_count":0,"user_likes":false},"754453951237951":{"id":"754453951237951","from":{"id":"100005801442456","name":"An Nguyen"},"message":"E hay đùa dai mà bác@.@","can_remove":false,"created_time":"2013-11-08T03:51:34+0000","like_count":1,"user_likes":false},"754454387904574":{"id":"754454387904574","from":{"id":"100001416272263","name":"Mai PB"},"message":"Nheo mắt một cái ở cuối comment nhé.","can_remove":false,"created_time":"2013-11-08T03:52:43+0000","like_count":0,"user_likes":false},"754455117904501":{"id":"754455117904501","from":{"id":"100005801442456","name":"An Nguyen"},"message":"Bác thật tình thế.Còn phải nheo mắt ở cuối câu ^^","can_remove":false,"created_time":"2013-11-08T03:54:31+0000","like_count":0,"user_likes":false}},"paging":{"cursors":{"after":"NzU0NDUxODYxMjM4MTYw","before":"NzU0NDUxODYxMjM4MTYw"},"next":"https://graph.facebook.com/229244010425617_754451421238204/comments?limit=1&summary=1&after=NzU0NDUxODYxMjM4MTYw"},"summary":{"order":"chronological","total_count":7}}}