{"id":"229244010425617_754521984564481","type":"status","from":{"id":"1146680551","name":"優しい なぁ"},"message":"Nhờ các anh chị tư vấn giùm.E có gởi về Vn máy rửa chén (3,5man) bằng đường tàu biển qua bưu điện bên đây.thế nhưng khi về tới vn thì 1 người làm ở hải quan sài gòn gọi về gia đình e đòi 7trieu tiền thuế (4% )mới cho xuất hàng.Anh chị nào hay gởi đô về có thể tư vấn cho e đuoc không ạ.Từ luật đến giấy tờ liên quan.e bức xúc quá.Mong anh chị giúp đỡ.","created_time":"2013-11-08T07:54:42+0000","updated_time":"2013-11-08T13:20:10+0000","likes":{"data":{"100002421205294":{"id":"100002421205294","name":"Nghèo Kệ Tôi"},"100006767705219":{"id":"100006767705219","name":"Kim Liên"},"100000047107627":{"id":"100000047107627","name":"Tiểu Phương"},"100003823008938":{"id":"100003823008938","name":"Rám Nắng"},"100003250657085":{"id":"100003250657085","name":"Nhất Kiếm Vô Tình"}},"paging":{"cursors":{"after":"MTAwMDAyNDIxMjA1Mjk0","before":"MTAwMDAyNDIxMjA1Mjk0"},"next":"https://graph.facebook.com/229244010425617_754521984564481/likes?limit=1&summary=1&after=MTAwMDAyNDIxMjA1Mjk0"},"summary":{"total_count":5}},"comments":{"data":{"754525937897419":{"id":"754525937897419","from":{"id":"1813611352","name":"To Đùng"},"message":"thứ nhất là 3.5 man thì mới là ~8tr. đòi 4% thuế của 8tr thì phải là 300k chứ? tiếp theo sẽ là 10% VAT là 800k. \nTổng sẽ là 14% là khoảng 1tr2 chứ.","can_remove":false,"created_time":"2013-11-08T08:10:42+0000","like_count":1,"user_likes":false},"754526731230673":{"id":"754526731230673","from":{"id":"1813611352","name":"To Đùng"},"message":"Có thể việc hải quan tra biểu giá đã tra nhầm với 1 máy giá đắt tiền. Với 7tr tiền thuế thì có thể họ đã tra với 1 máy giá gần 60tr đồng rồi.","can_remove":false,"created_time":"2013-11-08T08:11:55+0000","like_count":1,"user_likes":false},"754527194563960":{"id":"754527194563960","from":{"id":"1146680551","name":"優しい なぁ"},"message":"Vậy đó ,lúc đầu còn đòi 10tr","can_remove":false,"created_time":"2013-11-08T08:12:16+0000","like_count":0,"user_likes":false},"754527817897231":{"id":"754527817897231","from":{"id":"1813611352","name":"To Đùng"},"message":"Có thể bạn gửi về đã không gửi kèm chứng từ mua hàng. Bây giờ bạn hãy lên Hải Quan làm thục tục nhận hàng. Cam kết giá kèm theo giấy tờ chứng minh giá trị hàng hoá.","can_remove":false,"created_time":"2013-11-08T08:13:19+0000","like_count":0,"user_likes":false},"754528254563854":{"id":"754528254563854","from":{"id":"1146680551","name":"優しい なぁ"},"message":"Nếu mình ở Vn thì cũng dễ rồi.2 ông bà già ở nhà cũng k rành luật mấy nữa.chán .","can_remove":false,"created_time":"2013-11-08T08:14:57+0000","like_count":0,"user_likes":false},"754528281230518":{"id":"754528281230518","from":{"id":"100003310618708","name":"BiNô Triết Gia"},"message":"họ làm vậy là đúng thôi","can_remove":false,"created_time":"2013-11-08T08:15:05+0000","like_count":0,"user_likes":false},"754528454563834":{"id":"754528454563834","from":{"id":"1146680551","name":"優しい なぁ"},"message":"Sao đúng vậy anh?!","can_remove":false,"created_time":"2013-11-08T08:15:40+0000","like_count":0,"user_likes":false},"754528627897150":{"id":"754528627897150","from":{"id":"100003310618708","name":"BiNô Triết Gia"},"message":"thuế nhập khẩu máy mà, nếu bạn kê cái đó là linh kiên hoặc là rác tái chế thì có lẽ được bớt đó","can_remove":false,"created_time":"2013-11-08T08:16:13+0000","like_count":0,"user_likes":false},"754528644563815":{"id":"754528644563815","from":{"id":"1813611352","name":"To Đùng"},"message":"Ngoc Hien QB đúng gì thế? Ko biết thì đừng phán lung tung làm người khác hoang mang.\n\nAnh Nguyễn giờ bạn fax giấy tờ mua bán về. rồi để bố mẹ bạn lên hải quan làm thủ tục nhận hàng. chứng minh giá trị hàng hoá.","message_tags":[{"id":"100003310618708","name":"Ngoc Hien QB","type":"user","offset":0,"length":12},{"id":"1146680551","name":"Anh Nguyễn","type":"user","offset":86,"length":10}],"can_remove":false,"created_time":"2013-11-08T08:16:14+0000","like_count":1,"user_likes":false},"754528707897142":{"id":"754528707897142","from":{"id":"100003310618708","name":"BiNô Triết Gia"},"message":"máy nguyên chiếc khác với linh kiện của máy","can_remove":false,"created_time":"2013-11-08T08:16:36+0000","like_count":1,"user_likes":false},"754528734563806":{"id":"754528734563806","from":{"id":"1146680551","name":"優しい なぁ"},"message":"Nhưng thuế nhập khẩu là 100% hả bác?!","can_remove":false,"created_time":"2013-11-08T08:16:42+0000","like_count":0,"user_likes":false},"754528884563791":{"id":"754528884563791","from":{"id":"100003310618708","name":"BiNô Triết Gia"},"message":"ơ đó , nếu có giấy tờ kê khai roii thi chang can phai ban","can_remove":false,"created_time":"2013-11-08T08:17:22+0000","like_count":0,"user_likes":false},"754529251230421":{"id":"754529251230421","from":{"id":"1813611352","name":"To Đùng"},"message":"Bạn Ngoc Hien QB thực sự rành thì hãy giúp đỡ.","message_tags":[{"id":"100003310618708","name":"Ngoc Hien QB","type":"user","offset":4,"length":12}],"can_remove":false,"created_time":"2013-11-08T08:18:41+0000","like_count":1,"user_likes":false},"754529681230378":{"id":"754529681230378","from":{"id":"100000359762118","name":"Mi Tra"},"message":"ai cũng là theo cách \"cho bọn hải quan ít tiền\" như bạn Ngoc Hien QB nói thì hải quan VN còn có đất lộng hành.\nChính vì tâm lý đồng tiền đi trước là đồng tiền khôn mới tạo ra cái xã hội tham nhũng từ trên xuống dưới như hiện nay.","message_tags":[{"id":"100003310618708","name":"Ngoc Hien QB","type":"user","offset":56,"length":12}],"can_remove":false,"created_time":"2013-11-08T08:20:48+0000","like_count":5,"user_likes":false},"754529714563708":{"id":"754529714563708","from":{"id":"1146680551","name":"優しい なぁ"},"message":"Mình xem luật thì nó kêu áp dụng giá tại nơi nhập khẩu đầu tiên To Đùng ạ","can_remove":false,"created_time":"2013-11-08T08:20:54+0000","like_count":0,"user_likes":false},"754529754563704":{"id":"754529754563704","from":{"id":"1813611352","name":"To Đùng"},"message":"Anh Nguyễn nếu bạn muốn trả đúng số tiền, đúng với gì mình phải trả. Thì fax hoá đơn mua hàng về. Nói bố mẹ bạn cầm cái đó lên hải quan Tân Sơn Nhất  (HCM) hoặc hải quan nội bài (HN) để làm thủ tục","message_tags":[{"id":"1146680551","name":"Anh Nguyễn","type":"user","offset":0,"length":10}],"can_remove":false,"created_time":"2013-11-08T08:21:04+0000","like_count":1,"user_likes":false},"754529997897013":{"id":"754529997897013","from":{"id":"1813611352","name":"To Đùng"},"message":"Biết là vậy. Nhưng cái máy của bạn nếu tính giá trị gốc có thể là 10tr. chứ ko phải là 60tr mua với giá 8tr được.","can_remove":false,"created_time":"2013-11-08T08:21:59+0000","like_count":1,"user_likes":false},"754530587896954":{"id":"754530587896954","from":{"id":"100000359762118","name":"Mi Tra"},"message":"Đề nghị bạn Ngoc Hien QB viết tiếng Việt có dấu. Lần này nhắc nhở, lần sau còn vi phạm sẽ xóa mà không báo trước nhé!","message_tags":[{"id":"100003310618708","name":"Ngoc Hien QB","type":"user","offset":12,"length":12}],"can_remove":false,"created_time":"2013-11-08T08:24:01+0000","like_count":3,"user_likes":false},"754530671230279":{"id":"754530671230279","from":{"id":"100000695454369","name":"Thanh Nga Do"},"message":"Ở viết nam   Đã nghèo lại con hay đánh thuế cao.ngày trước mình cũng gửi rồi ko nộp thuế ko xuất hành đâu. Có trình gì cũng vậy thôi","can_remove":false,"created_time":"2013-11-08T08:24:20+0000","like_count":0,"user_likes":false},"754533597896653":{"id":"754533597896653","from":{"id":"100003310618708","name":"BiNô Triết Gia"},"message":"đứng mỗi nơi mình đều có quan điểm khác nhau, như chuyện này nằm trong vấn đề kinh tế rồi, đối với mình, đã dính dáng tới kinh tế là phải có tiền. vẫn có một cách mà lâu nay ai cũng dùng mà báo chi noi nhiều đó thôi, còn chuyện ban chỉ có cái máy thôi thi dung luật mà lam. đừng lăn tăn.","can_remove":false,"created_time":"2013-11-08T08:37:59+0000","like_count":0,"user_likes":false},"754549564561723":{"id":"754549564561723","from":{"id":"100000991663833","name":"Mạnh Tạ"},"message":"Ở vn thì đừng nói chuyện đúng luật với hải quan nhé ;)) . Đúng hàng khai đúng thuế nó vẫn hạch . Các bạn cứ thử đi gặp chúng nó rồi hãy lên đây phát biểu .","can_remove":false,"created_time":"2013-11-08T09:26:51+0000","like_count":0,"user_likes":false},"754655671217779":{"id":"754655671217779","from":{"id":"100006572713690","name":"Đại Chim Lợn"},"message":"Chém!","can_remove":false,"created_time":"2013-11-08T13:20:10+0000","like_count":0,"user_likes":false}},"paging":{"cursors":{"after":"NzU0NTI1OTM3ODk3NDE5","before":"NzU0NTI1OTM3ODk3NDE5"},"next":"https://graph.facebook.com/229244010425617_754521984564481/comments?limit=1&summary=1&after=NzU0NTI1OTM3ODk3NDE5"},"summary":{"order":"chronological","total_count":22}}}