{"id":"229244010425617_754519121231434","type":"link","picture":"https://fbstatic-a.akamaihd.net/rsrc.php/v2/y3/r/0PnClccPFXs.png","link":"https://www.facebook.com/groups/631731173517072/","from":{"id":"100005090677811","name":"Trí Chơn"},"message":"Hãy load về học bạn ơi. Sắp thi rồi","created_time":"2013-11-08T07:39:22+0000","updated_time":"2013-11-08T08:23:57+0000","likes":{"data":{"100005887419564":{"id":"100005887419564","name":"Cười Một Mình"},"100003250657085":{"id":"100003250657085","name":"Nhất Kiếm Vô Tình"},"100003227211791":{"id":"100003227211791","name":"Lan Lan"}},"paging":{"cursors":{"after":"MTAwMDA1ODg3NDE5NTY0","before":"MTAwMDA1ODg3NDE5NTY0"},"next":"https://graph.facebook.com/229244010425617_754519121231434/likes?limit=1&summary=1&after=MTAwMDA1ODg3NDE5NTY0"},"summary":{"total_count":4}},"comments":{"data":{"754521424564537":{"id":"754521424564537","from":{"id":"100005090677811","name":"Trí Chơn"},"message":"Từ vựng N1~N5, Kanji N1~N5 đó nhé","can_remove":false,"created_time":"2013-11-08T07:50:55+0000","like_count":0,"user_likes":false},"754530561230290":{"id":"754530561230290","from":{"id":"100003250657085","name":"Nhất Kiếm Vô Tình"},"message":"xin lỗi Trí Chơn mình vừa coppy và đăng lên tường của diễn dàn bài viết về kanji mà chưa hỏi ý kiến của bạn, mình chỉ nhằm mục đích chia sẽ mong bạn đừng để bụng nhé chúc bạn onl vui vẻ hjhj","message_tags":[{"id":"100005090677811","name":"Trí Chơn","type":"user","offset":8,"length":8}],"can_remove":false,"created_time":"2013-11-08T08:23:57+0000","like_count":0,"user_likes":false}},"paging":{"cursors":{"after":"NzU0NTIxNDI0NTY0NTM3","before":"NzU0NTIxNDI0NTY0NTM3"},"next":"https://graph.facebook.com/229244010425617_754519121231434/comments?limit=1&summary=1&after=NzU0NTIxNDI0NTY0NTM3"},"summary":{"order":"chronological","total_count":2}}}