{"id":"229244010425617_754527944563885","type":"status","from":{"id":"100003634822576","name":"Jessica Lam Phuong"},"message":"Mong ad đăng giúp,mình dc biết người nhật rất nhạy bén trong kinh doanh,mn ở bên đó có ý tưởng kinh doanh gì hay chỉ mình với","created_time":"2013-11-08T08:13:47+0000","updated_time":"2013-11-09T05:39:16+0000","likes":{"data":{"100001520307352":{"id":"100001520307352","name":"Nguyen Sang"}},"paging":{"cursors":{"after":"MTAwMDAxNTIwMzA3MzUy","before":"MTAwMDAxNTIwMzA3MzUy"}},"summary":{"total_count":1}},"comments":{"data":{"754530674563612":{"id":"754530674563612","from":{"id":"100001458099624","name":"Kham Pha"},"message":"Nhật là nước rất phát triển, đem các ý tưởng đã thành công ở Nhật về VN nhiều khả năng thành công cao. Mình cũng có nhiều ý tưởng nhưng mới chỉ tính kế thực hiện. Không biết bạn hoạt động trong lĩnh vực nào?","can_remove":false,"created_time":"2013-11-08T08:24:21+0000","like_count":0,"user_likes":false},"754532014563478":{"id":"754532014563478","from":{"id":"1813611352","name":"To Đùng"},"message":"phương hướng kinh doanh của Nhật khác xa VN mình lắm bạn ạ ^^","can_remove":false,"created_time":"2013-11-08T08:30:58+0000","like_count":0,"user_likes":false},"754532457896767":{"id":"754532457896767","from":{"id":"100001458099624","name":"Kham Pha"},"message":"khác nên họ mới giàu, còn mình nghèo, nhưng mà nhiều ý tưởng ở VN là dùng được. Trang vatgia.com là một ví dụ điển hình.","can_remove":false,"created_time":"2013-11-08T08:32:38+0000","like_count":0,"user_likes":false},"754533004563379":{"id":"754533004563379","from":{"id":"1813611352","name":"To Đùng"},"message":"anh Điệp đã từng đi Nhật, mang theo kinh nghiệm về mở ra trang vatgia.com nhưng nó không phải là phong cách Nhật đâu bác Kham Pha ạ. Em đã từng làm ở VG thửa sơ khai và nghỉ cách đây 5 năm. bạn em bây giờ vẫn đang làm ở đó. Và em vẫn biết nó \"VN\" lắm. Chẳng quá anh Điệp đã biết chớp cơ hội và thời cơ của mình thôi bác Kham Pha ạ.","message_tags":[{"id":"100001458099624","name":"Kham Pha","type":"user","offset":121,"length":8}],"can_remove":false,"created_time":"2013-11-08T08:35:02+0000","like_count":0,"user_likes":false},"754533654563314":{"id":"754533654563314","from":{"id":"100001458099624","name":"Kham Pha"},"message":"Đang nói về ý tưởng mà. Còn quản lý tiều là do Việt Nam thôi. \nDù sao cứ tóm được các ý tưởng như thế về VN là cũng tốt lắm rồi, ích nước lợi nhà.","can_remove":false,"created_time":"2013-11-08T08:38:06+0000","like_count":0,"user_likes":false},"754534547896558":{"id":"754534547896558","from":{"id":"100000381394367","name":"Thành Nguyễn"},"message":"Nếu chỉ xét về khía cạnh ý tưởng thôi thì anh Điệp đã khai thác được một ý tưởng học từ Nhật rồi, còn sao chép cả mô hình thì tất nhiên là không phải. Mà nếu sao chép cả mô hình thì một là chưa đủ khả năng ( về mặt kỹ thuật, so sánh với rakuten ) còn hai là giả sử sao chép được mô hình của Nhật về Việt Nam thì chưa chắc đã thành công vì hạ tầng xã hội của Việt Nam cũng khác Nhật, dù sao thì vatgia cũng thành công tính cho đến bây giờ.\r\n","can_remove":false,"created_time":"2013-11-08T08:41:41+0000","like_count":1,"user_likes":false},"754534707896542":{"id":"754534707896542","from":{"id":"1813611352","name":"To Đùng"},"message":"à. nếu nói về ý tưởng thì đúng là Nhật họ luôn đột phá trong ý tưởng rồi.","can_remove":false,"created_time":"2013-11-08T08:42:24+0000","like_count":1,"user_likes":false},"754534911229855":{"id":"754534911229855","from":{"id":"100003634822576","name":"Jessica Lam Phuong"},"message":"Kham pha có ý tưởng gì hay ko,mình thì rất thích kinh doanh","can_remove":false,"created_time":"2013-11-08T08:43:19+0000","like_count":0,"user_likes":false},"754535331229813":{"id":"754535331229813","from":{"id":"1813611352","name":"To Đùng"},"message":"Xin giấy phép của bộ y tế. Cung cấp sextoy của Nhật :P\nJ4F","can_remove":false,"created_time":"2013-11-08T08:44:08+0000","like_count":0,"user_likes":false},"754535431229803":{"id":"754535431229803","from":{"id":"100001458099624","name":"Kham Pha"},"message":"vậy bạn kinh doanh lĩnh vực gì?","can_remove":false,"created_time":"2013-11-08T08:44:34+0000","like_count":0,"user_likes":false},"754536431229703":{"id":"754536431229703","from":{"id":"100003634822576","name":"Jessica Lam Phuong"},"message":"Mình đang tìm ý tưởng,tìm dc cái nào hay thì làm thôi","can_remove":false,"created_time":"2013-11-08T08:46:38+0000","like_count":0,"user_likes":false},"754536944562985":{"id":"754536944562985","from":{"id":"1813611352","name":"To Đùng"},"message":"Bác Kham Pha thấy ý tưởng của em thế nào :))","message_tags":[{"id":"100001458099624","name":"Kham Pha","type":"user","offset":4,"length":8}],"can_remove":false,"created_time":"2013-11-08T08:47:10+0000","like_count":0,"user_likes":false},"754537511229595":{"id":"754537511229595","from":{"id":"100003634822576","name":"Jessica Lam Phuong"},"message":"Ở vn mà đụng nhiều đến các cơ quan nn thì mệt lắm to đùng","can_remove":false,"created_time":"2013-11-08T08:48:37+0000","like_count":0,"user_likes":false},"754537881229558":{"id":"754537881229558","from":{"id":"100003634822576","name":"Jessica Lam Phuong"},"message":"Mình đang ở đn,ai quê đn ko","can_remove":false,"created_time":"2013-11-08T08:50:12+0000","like_count":0,"user_likes":false},"754546974561982":{"id":"754546974561982","from":{"id":"100003634822576","name":"Jessica Lam Phuong"},"message":"Có ai biết ý tưởng gì hay ko,hợp tác làm đi","can_remove":false,"created_time":"2013-11-08T09:19:40+0000","like_count":0,"user_likes":false},"754547281228618":{"id":"754547281228618","from":{"id":"1813611352","name":"To Đùng"},"message":"ý tưởng anh post kia kìa :v","can_remove":false,"created_time":"2013-11-08T09:20:45+0000","like_count":0,"user_likes":false},"754548627895150":{"id":"754548627895150","from":{"id":"100003634822576","name":"Jessica Lam Phuong"},"message":"Anh đang ở nhật à,cái đó bên nhật nhiêu 1cái","can_remove":false,"created_time":"2013-11-08T09:24:33+0000","like_count":0,"user_likes":false},"754549571228389":{"id":"754549571228389","from":{"id":"1813611352","name":"To Đùng"},"message":"ui. anh đùa thôi mà :)) con người Nhật họ rất cẩn trọng. và việc em đang nóng lòng đi tìm ý tưởng kinh doanh bằng các post lên đây hỏi mọi người thì đang là rất hấp tấp đó. không giống phong cách Nhật đâu ^^\nKinh doanh cái gì? Kinh doanh như nào? Đầu tư như nào?","can_remove":false,"created_time":"2013-11-08T09:26:55+0000","like_count":0,"user_likes":false},"754549824561697":{"id":"754549824561697","from":{"id":"1813611352","name":"To Đùng"},"message":"anh sẽ trả lời cho em 3 cái đó. \nThứ nhất. Kinh doanh cái gì. Phải dựa trên xu thế thị trường đang cần gì hoặc SẮP cần gì.","can_remove":false,"created_time":"2013-11-08T09:27:33+0000","like_count":0,"user_likes":false},"754550114561668":{"id":"754550114561668","from":{"id":"1813611352","name":"To Đùng"},"message":"thứ 2. Kinh doanh như nào? bao gồm hình thức kinh doanh. quy mô kinh doanh. TIỀN và LỰC","can_remove":false,"created_time":"2013-11-08T09:28:11+0000","like_count":0,"user_likes":false},"754550211228325":{"id":"754550211228325","from":{"id":"1813611352","name":"To Đùng"},"message":"thứ 3. đầu tư như nào? cái này thì nó sẽ liên quan tới cái thứ 2. phụ thuộc vào quy mô. hình thức như nào.","can_remove":false,"created_time":"2013-11-08T09:28:47+0000","like_count":0,"user_likes":false},"754551131228233":{"id":"754551131228233","from":{"id":"100003634822576","name":"Jessica Lam Phuong"},"message":"Cảm ơn","can_remove":false,"created_time":"2013-11-08T09:31:32+0000","like_count":0,"user_likes":false},"754551407894872":{"id":"754551407894872","from":{"id":"1813611352","name":"To Đùng"},"message":"anh ko học ngành kinh tế. nó là trên quan điểm của anh thôi.","can_remove":false,"created_time":"2013-11-08T09:32:07+0000","like_count":0,"user_likes":false},"754751014541578":{"id":"754751014541578","from":{"id":"1146680551","name":"優しい なぁ"},"message":"Kinh doanh thì có nhiều cái nhưng phải nắm bắt được thị trường việt nam nữa. Mình xin chia sẻ 1 kinh nghiệm về thị trường việt nam.Cách đây khoảng 4 năm mình có bán trên thị trường thuốc lidocain 5% dành cho tăng khả năng lâm trận của các quý ông. kéo dài thời gian \"chiến\".Lúc đó mình có thể coi như là 1 trong những người bán lidocain 5% ở việt nam.Nhưng thực chất lidocain 5% là thuốc gây tê vòm hòng thường dùng trong phẫu thuật cắt amidam hay nội soi.Nhưng khác biệt với các thuốc bán hiện nay trên thị trường là (k nóng, k mùi,vị).Được 1 ông bạn dược sĩ trong 1 lần đi nhậu chỉ.Lúc đó thuốc về kéo dài khả năng chiến là rất ít thế nên khi rao bán ,bán đắt như tôm tươi.Thế nhưng lúc đó mình k đủ tiềm lực để mở như 1 nơi cung cấp.Thế là 1 năm sau hàng loạt cửa hàng ra đời, từ giá bán 250k 1 lọ ,sau này bán còn 70k, có chỗ còn bán 50k.Đến bây giờ nhiều loại mới ra tốt hơn lidocain nên bây giờ ít ai bán nó nữa.Điều đó nói lên điều gì.Ý tưởng kinh doanh k chỉ là bạn ngồi nghỉ mà nó còn gọi là \"thời - thế\" \"thế - thời\" và các thị trường chuyên xâu xé và dẫm đạp lên nhau như ở VN thì bạn nên cân nhắc kĩ khi làm 1 cái gì đó.Kinh doanh là dám nghĩ dám làm thì sẽ thành công nhưng nó cũng cần 1 chút yếu tốt may mắn.May mắn ở đây là chiến lược của bạn đúng với thời - thế , thế thời. Bạn không thể hỏi người khác ý tưởng kinh doanh được,  bản thân bạn mới có thể trả lời câu hỏi đó được .Mong bạn sớm tìm ra con đường của mình.Thân.","can_remove":false,"created_time":"2013-11-08T16:57:49+0000","like_count":1,"user_likes":false},"755087524507927":{"id":"755087524507927","from":{"id":"100003634822576","name":"Jessica Lam Phuong"},"message":"Bạn nói thế thì ko hiểu ý mình rồi,mình xin ý tưởng mà người nhật đã làm rồi,chứ xin ý tưởng của người khác thì ai mà cho,bạn nói đúng,nhưng ý tưởng mà bạn nói thì bị bắt chước là đúng thôi,bạn chỉ lấy hàng về bán,cái đó ko thể gọi là ý tưởng dc","can_remove":false,"created_time":"2013-11-09T05:39:16+0000","like_count":0,"user_likes":false}},"paging":{"cursors":{"after":"NzU0NTMwNjc0NTYzNjEy","before":"NzU0NTMwNjc0NTYzNjEy"},"next":"https://graph.facebook.com/229244010425617_754527944563885/comments?limit=1&summary=1&after=NzU0NTMwNjc0NTYzNjEy"},"summary":{"order":"chronological","total_count":26}}}