{"id":"229244010425617_754555291227817","type":"status","from":{"id":"100005801442456","name":"An Nguyen"},"message":"CÙNG ÔN NGỮ PHÁP N2\n\nBài 3: Những ngữ pháp liên quan đến biểu hiện thời gian, địa điểm, lãnh thổ.(〜において/ 〜にわったて/ 〜からーにかけて/ 〜て以来)\n\n＊ 〜において，〜においても、〜においては、〜における。\n\n意味：で\nỞ tại,trong,về việc,đối với.Chỉ địa điểm thời gian,lĩnh vực,vv.vv\n\nVí dụ:2012 年のオリピックはイギリスのロンドンにおいて行われる。\n\nCách dùng: N + において\n\n＊〜にわたって、〜にわたり、〜にわたる\n\n意味：〜期間。回数。場所。分野など全範囲、広がりを表す。\nTrong suốt, suốt, trong cả...biểu thị sự trãi rộng trên phạm vi toàn thể về thời gian, số lần, địa điểm ,lĩnh vực ...\nVí dụ: 5回にわたる手術でやっと治す。\nTrãi qua phẩu thuật suốt 5 lần!\n\nCách dùng: N+ にわたって\n\n＊〜から〜にかけて:\n\n意味：時間や場所などのお範囲をお表す。\nTừ khoảng ... Đến... Chỉ phạm vi thời gian, địa điểm.Khác với から〜まで là cách nói chỉ phạm vi rõ ràng.Còn cái này chỉ dùng nói về phạm vi ước chừng.Khi nói về thời gian thì vế sau biểu hiện sự việc xãy ra liên tục, liên tiếp chứ không phải 1 lần.\n\nVí dụ: 彼は小さいころ、肩から腰にかけてやけどをした。\nthằng đó bị phỏng từ vai đến lưng từ bé.\n\nCách dùng: N+から+N＋にかけて\n\n＊〜て以来、〜以来(いらい)\n\n意味:後文には過去のある時点から続いている状態のことを表す文が出る(一回だけのことは出ない)\nSuốt từ đó đến bây giờ... Vế sau biểu hiện sự việc tiếp diễn từ thời điểm trong quá khứ đến hiện tại, không dùng biểu hiện sự việc chỉ 1 lần.\n\nあの映画をお見て以来、映画監督(かんとく)になりたいという夢をお持つようになった。\nTừ lúc coi xong cái phim đó, lúc nào cũng mong ước thành đạo diễn.\n\nCách dùng : V て型、danh từ + 以来。\n\nCoi xong hãy đưa ra ví dụ nhé!","created_time":"2013-11-08T09:45:23+0000","updated_time":"2013-11-08T15:14:43+0000","likes":{"data":{"100003105034037":{"id":"100003105034037","name":"Pham Oanh"},"100004253979918":{"id":"100004253979918","name":"Louis Hoàng Văn Thái"},"100001594722256":{"id":"100001594722256","name":"Viết An Phạm"},"100005495773832":{"id":"100005495773832","name":"Hiền Vũ"},"100001324611896":{"id":"100001324611896","name":"Meo Luoi"},"100002424045951":{"id":"100002424045951","name":"Hoàng Tùng Anh"},"100003881499881":{"id":"100003881499881","name":"Pe Pon"},"100003599920499":{"id":"100003599920499","name":"ふゆ はな"},"100005887419564":{"id":"100005887419564","name":"Cười Một Mình"},"100002508122689":{"id":"100002508122689","name":"Vũ Mạnh Tuấn"},"100001257093338":{"id":"100001257093338","name":"Hanh Dang"},"100003011417151":{"id":"100003011417151","name":"Hue Kim"},"100003489557712":{"id":"100003489557712","name":"Hòa Hoàng"},"100006767705219":{"id":"100006767705219","name":"Kim Liên"},"100004094346107":{"id":"100004094346107","name":"Thuy Nga Nguyen"},"100004475043858":{"id":"100004475043858","name":"Cởi Truồng Tắm Mưa"},"100003837141956":{"id":"100003837141956","name":"Mai Hoàng"},"100003913383051":{"id":"100003913383051","name":"Tho Tran"}},"paging":{"cursors":{"after":"MTAwMDAzMTA1MDM0MDM3","before":"MTAwMDAzMTA1MDM0MDM3"},"next":"https://graph.facebook.com/229244010425617_754555291227817/likes?limit=1&summary=1&after=MTAwMDAzMTA1MDM0MDM3"},"summary":{"total_count":19}},"comments":{"data":{"754657391217607":{"id":"754657391217607","from":{"id":"100005801442456","name":"An Nguyen"},"message":"Không bác nào cho e cái ví dụ được à?'b","can_remove":false,"created_time":"2013-11-08T13:23:40+0000","like_count":1,"user_likes":false},"754679661215380":{"id":"754679661215380","from":{"id":"100005887419564","name":"Cười Một Mình"},"message":"Tra giang","can_remove":false,"created_time":"2013-11-08T14:10:29+0000","like_count":0,"user_likes":false},"754707024545977":{"id":"754707024545977","from":{"id":"100002826418598","name":"Harry Minji"},"message":"この問題において解決がなかった。\nハノイにわたってタインニエンの道は一番きれいな道です。\n桜は１月から５月にかけて咲きます。\n日本語を勉強して以来いつも日本へ行きたい。\nAn Nguyen どう思いますか","message_tags":[{"id":"100005801442456","name":"An Nguyen","type":"user","offset":85,"length":9}],"can_remove":false,"created_time":"2013-11-08T15:14:43+0000","like_count":1,"user_likes":false}},"paging":{"cursors":{"after":"NzU0NjU3MzkxMjE3NjA3","before":"NzU0NjU3MzkxMjE3NjA3"},"next":"https://graph.facebook.com/229244010425617_754555291227817/comments?limit=1&summary=1&after=NzU0NjU3MzkxMjE3NjA3"},"summary":{"order":"chronological","total_count":3}}}