{"id":"229244010425617_754528767897136","type":"status","from":{"id":"100003250657085","name":"Nhất Kiếm Vô Tình"},"message":"Từ vựng [[[<<< N 5 >>>]]] có tiếng Việt nhé\nKanji Hiragana Tiếng Việt\n1 会う あう Gặp gỡ\n2 青 あお Màu xanh\n3 青い あおい Màu xanh\n4 赤 あか Màu đỏ\n5 赤い あかい Màu đỏ\n6 明い あかるい Sáng ,tươi\n7 秋 あき Mùa thu\n8 開く あく Mở\n9 開ける あける Mở\n10 上げる あげる Để cung cấp cho\n11 朝 あさ Buổi sáng\n12 朝御飯 あさごはん Bữa sáng\n13 あさって Ngày mốt\n14 足 あし Chân\n15 明日 あした Ngày mai\n16 あそこ Chổ đó\n17 遊ぶ あそぶ Chơi\n18 暖かい あたたかい Ấm áp\n19 頭 あたま Cái đầu\n20 新しい あたらしい Mới\n21 あちら Chỗ kia\n22 暑い あつい Nóng\n23 熱い あつい Nóng\n24 厚い あつい Dày\n25 あっち Ở đó\n26 後 あと Sau đó\n27 あなた Bạn\n28 兄 あに Anh trai\n29 姉 あね Chị gái\n30 あの um...\n31 あの um...\n32 アパート Căn hộ\n33 あびる Tắm\n34 危ない あぶない Nguy hiểm\n35 甘い あまい Ngọt\n36 あまり Không nhiều\n37 雨 あめ Mưa\n38 飴 あめ Kẹo\n39 洗う あらう Rửa\n40 ある Có ,được\n41 歩く あるく Đi bộ\n42 あれ Cái kia\n43 いい/よい Tốt\n44 いいえ không\n45 言う いう Nói\n46 家 いえ Nhà ở\n47 いかが Như thế nào\n48 行く いく Đi\n49 いくつ Bao nhiêu tuổi\n50 いくら Bao nhiêu\n51 池 いけ Cái hồ\n52 医者 いしゃ Bác sĩ\n53 いす Cái ghế\n54 忙しい いそがしい Bận rộn\n55 痛い いたい Đau\n56 一 いち Số 1\n57 一日 いちにち Một ngày\n58 いちばん Nhất\n59 いつ Khi nào\n60 五日 いつか Ngày 5\n61 一緒 いっしょ Cùng nhau\n62 五つ いつつ Số 5\n63 いつも Luôn luôn,lúc nào cũng\n64 犬 いぬ Con chó\n65 今 いま Bây giờ\n66 意味 いみ Ý nghĩa\n67 妹 いもうと Em gái\n68 嫌 いや \n69 入口 いりぐち Lối vào\n70 居る いる Có ,ở,được\n71 要る いる Cần\n72 入れる いれる Đặt vào\n73 色 いろ Màu sắc\n74 いろいろ Nhiều\n75 上 うえ Bên trên\n76 後ろ うしろ Phía sau\n77 薄い うすい Mỏng ,nhạt\n78 歌 うた Bài hát\n79 歌う うたう Hát\n80 生まれる うまれる Được sinh ra\n81 海 うみ Biển\n82 売る うる Bán\n83 煩い うるさい Ồn ào\n84 上着 うわぎ Áo khoác\n85 絵 え Bức tranh\n86 映画 えいが Phim\n87 映画館 えいがかん Rạp chiếu phim\n88 英語 えいご Tiếng anh\n89 ええ Vâng\n90 駅 えき Nhà ga\n91 エレベーター Thang máy\n92 鉛筆 えんぴつ Bút chì\n93 おいしい Ngon\n94 多い おおい Nhiều\n95 大きい おおきい To,lớn\n96 大きな おおきな To ,lớn\n97 大勢 おおぜい Nhiều người\n98 お母さん おかあさん Mẹ\n99 お菓子 おかし Kẹo\n100 お金 おかね Tiền\n101 起きる おきる Thức dậy\n102 置く おく Đặt ,để\n103 奥さん おくさん Vợ\n104 お酒 おさけ Rượu\n105 お皿 おさら Chén dĩa\n106 伯父/叔父 おじいさん Chú\n107 教える おしえる Giảng dạy\n108 伯父/叔父 おじさん Chú\n109 押す おす Ấn ,nhấn\n110 遅い おそい Chậm trễ,muộn giờ\n111 お茶 おちゃ Trà xanh\n112 お手洗い おてあらい Nhà vệ sinh\n113 お父さん おとうさん Bố ,cha\n114 弟 おとうと Em trai tôi\n115 男 おとこ Con trai,đàn ông\n116 男の子 おとこのこ Bé trai\n117 一昨日 おととい Hôm trước\n118 一昨年 おととし Năm trước\n119 大人 おとな Người lớn\n120 おなか Bụng\n121 同じ おなじ Giống nhau\n122 お兄さん おにいさん Anh trai người ta\n123 お姉さん おねえさん Chị gái người ta\n124 おばあさん Bà\n125 伯母さん/叔母さん おばさん Gì ,cô\n126 お風呂 おふろ Bốn tắm,phòng tắm\n127 お弁当 おべんとう Cơm hộp\n128 覚える おぼえる Nhớ\n129 おまわりさん Người thân thiện\n130 重い おもい Nặng\n131 おもしろい Thú vị\n132 泳ぐ およぐ Bơi lội\n133 降りる おりる Xuống xe\n134 終る おわる Kết thúc\n135 音楽 おんがく Âm nhạc\n136 女 おんな Con gái,phụ nữ\n137 女の子 おんなのこ Bé gái\n138 外国 がいこく Nước ngoài\n139 外国人 がいこくじん Người nước ngoài\n140 会社 かいしゃ Công ty\n141 階段 かいだん Cầu thang\n142 買い物 かいもの Mua sắm\n143 買う かう Mua\n144 返す かえす Trả lại\n145 帰る かえる Trở về\n146 かかる Tốn kém\n147 かぎ Chìa khóa\n148 書く かく Viết\n149 学生 がくせい Học sinh\n150 かける Gọi điện\n151 傘 かさ Cái dù\n152 貸す かす Cho mượn\n153 風 かぜ Gió\n154 風邪 かぜ Bệnh cảm\n155 家族 かぞく Gia đình\n156 方 かた Người,phương pháp,cách làm\n157 学校 がっこう Trường học\n158 カップ Cái li\n159 家庭 かてい Gia đình\n160 角 かど Cái góc\n161 かばん Cái cặp\n162 花瓶 かびん Bình hoa\n163 紙 かみ Giấy\n164 カメラ Máy ảnh\n165 火曜日 かようび Thứ 3\n166 辛い からい Cay \n167 体 からだ Thân thể\n168 借りる かりる Mượn\n169 軽い かるい Nhẹ\n170 カレー Món cary\n171 カレンダー Lịch\n172 川/河 かわ Sông\n173 かわいい Dễ thương\n174 漢字 かんじ Hán tự\n175 木 き Cây\n176 黄色 きいろ Màu vàng\n177 黄色い きいろい Màu vàng\n178 消える きえる Tắt ,biến mất\n179 聞く きく Lắng nghe,hỏi\n180 北 きた Phía bắc\n181 ギター Đàn ghita\n182 汚い きたない Dơ ,bẩn\n183 喫茶店 きっさてん Quán nước\n184 切手 きって Con tem\n185 切符 きっぷ Cái vé\n186 昨日 きのう Hôm qua\n187 九 きゅう / く Số 9\n188 牛肉 ぎゅうにく Thịt bò\n189 牛乳 ぎゅうにゅう Sữa\n190 今日 きょう Hôm nay\n191 教室 きょうしつ Lớp học\n192 兄弟 きょうだい Anh em trai\n193 去年 きょねん Năm ngoái\n194 嫌い きらい Ghét ,không thích\n195 切る きる Cắt\n196 着る きる Mặc áo\n197 きれい Đẹp\n198 キロ/キログラム Kilogam\n199 キロ/キロメートル Km\n200 銀行 ぎんこう Ngân hàng\n201 金曜日 きんようび Thứ 6\n202 薬 くすり Thuốc uống\n203 ください Xin hãy\n204 果物 くだもの Trái cây\n205 口 くち Cái miệng\n206 靴 くつ Đôi giày\n207 靴下 くつした Vớ ,tất chân\n208 国 くに Đất nước,quốc gia\n209 曇り くもり Đám mây\n210 曇る くもる Trở thành mây\n211 暗い くらい Tối\n212 クラス Lớp học\n213 グラム Gram\n214 来る くる Đến\n215 車 くるま Xe hơi\n216 黒 くろ Màu đen\n217 黒い くろい Màu đen\n218 警官 けいかん Cảnh sát\n219 今朝 けさ Sáng nay\n220 消す けす Tắt điện\n221 結構 けっこう Đủ rồi ,được rồi\n222 結婚 けっこん Kết hôn\n223 月曜日 げつようび Thứ 2\n224 玄関 げんかん Tiền sảnh,hành lang\n225 元気 げんき Sức khỏe\n226 五 ご Số 5\n227 公園 こうえん Công viên\n228 交差点 こうさてん Ngã 4\n229 紅茶 こうちゃ Hồng trà\n230 交番 こうばん Cảnh sát phường\n231 声 こえ Giọng nói,tiếng nói\n232 コート Áo khoác\n233 コーヒー cafe\n234 ここ Ở đây\n235 午後 ごご Buổi chiều\n236 九日 ここのか Ngày 9\n237 九つ ここのつ 9 cái\n238 午前 ごぜん Buổi sáng\n239 答える こたえる Trả lời\n240 こちら Chỗ này\n241 こっち Chỗ này\n242 コップ Cái cốc\n243 今年 ことし Năm nay\n244 言葉 ことば Từ vựng\n245 子供 こども Trẻ con\n246 この Này\n247 御飯 ごはん Cơm\n248 コピーする Coppy\n249 困る こまる Khốn khổ\n250 これ Cái này\n251 今月 こんげつ Tháng này\n252 今週 こんしゅう Tuần này\n253 こんな Chuyện này\n254 今晩 こんばん Tối nay\n255 さあ Vậy thì\n256 財布 さいふ Cái ví\n257 魚 さかな Cá\n258 先 さき Trước\n259 咲く さく Nở ,hoa nở\n260 作文 さくぶん Bài văn,tập làm văn\n261 差す さす Giương ,giơ tay\n262 雑誌 ざっし Tạp chí\n263 砂糖 さとう Đường\n264 寒い さむい Lạnh\n265 さ来年 さらいねん Năm tới\n266 三 さん Số 3\n267 散歩 さんぽする Đi dạo\n268 四 し / よん Số 4\n269 塩 しお Muối\n270 しかし Nhưng\n271 時間 じかん Thời gian\n272 仕事 しごと Công việc\n273 辞書 じしょ Từ điển\n274 静か しずか Yên lặng\n275 下 した Dưới\n276 七 しち / なな Số 7\n277 質問 しつもん Câu hỏi\n278 自転車 じてんしゃ Xe đạp\n279 自動車 じどうしゃ Xe hơi\n280 死ぬ しぬ Chết\n281 字引 じびき Từ điển\n282 自分 じぶん Tự mình\n283 閉まる しまる Đóng ,bị đóng\n284 閉める しめる Đóng lại\n285 締める しめる Buộc ,trói\n286 じゃ/じゃあ Vậy thì\n287 写真 しゃしん Tấm hình\n288 シャツ Áo sơ mi\n289 シャワー Tắm vòi sen\n290 十 じゅう とお Mười\n291 授業 じゅぎょう Giờ học\n292 宿題 しゅくだい Bài tập\n293 上手 じょうず Giỏi\n294 丈夫 じょうぶ Chắc chắn\n295 しょうゆ Xì dầu\n296 食堂 しょくどう Nhà ăn\n297 知る しる Biết\n298 白 しろ Màu trắng\n299 白い しろい Màu trắng\n300 新聞 しんぶん Tờ báo\n301 水曜日 すいようび Thứ 4\n302 吸う すう Hút ,hít\n303 スカート Cái váy\n304 好き すき Thích\n305 少ない すくない Một ít ,một chút\n306 すぐに Ngay lập tức\n307 少し すこし Một chút\n308 涼しい すずしい Mát mẻ\n309 ストーブ Lò sưởi\n310 スプーン Cái muỗng\n311 スポーツ Thể thao\n312 ズボン Quần dài\n313 住む すむ Sinh sống\n314 スリッパ Dép đi trong nhà\n315 する Làm\n316 座る すわる Ngồi\n317 背 せ Chiều cao,cái lưng\n318 生徒 せいと Học sinh\n319 セーター Áo len\n320 せっけん Xà bông\n321 背広 せびろ Bộ comle,áo choàng ngắn\n322 狭い せまい Hẹp\n323 ゼロ Số 0\n324 千 せん Một ngàn\n325 先月 せんげつ Tháng trước\n326 先週 せんしゅう Tuần trước\n327 先生 せんせい Giáo viên\n328 洗濯 せんたく Giặt đồ\n329 全部 ぜんぶ Tất cả\n330 掃除 そうじする Lau chùi,dọn dẹp\n331 そうして/そして Và\n332 そこ Chỗ đó\n333 そちら Nơi đó\n334 そっち Nơi đó\n335 外 そと Bên ngoài\n336 その Đó\n337 そば Bên cạnh\n338 空 そら Bầu trời\n339 それ Cái đó\n340 それから Sau đó\n341 それでは Vậy thì\n342 大学 だいがく Đại học\n343 大使館 たいしかん Đại sứ quán\n344 大丈夫 だいじょうぶ Không vấn đề gì\n345 大好き だいすき Rất thích\n346 大切 たいせつ Quan trọng\n347 台所 だいどころ Nhà bếp\n348 たいへん Vất vả\n349 たいへん Vất vả\n350 高い たかい Cao ,mắc\n351 たくさん Nhiều\n352 タクシー Taxi\n353 出す だす Lấy ra\n354 立つ たつ Đứng dậy\n355 たて Xây dựng\n356 建物 たてもの Tòa nhà\n357 楽しい たのしい Vui vẻ\n358 頼む たのむ Nhờ vả\n359 たばこ Thuốc lá\n360 たぶん Có lẽ\n361 食べ物 たべもの Món ăn\n362 食べる たべる Ăn\n363 卵 たまご Trứng\n364 誰 だれ Ai\n365 誰 だれか Ai vậy\n366 誕生日 たんじょうび Sinh nhật\n367 だんだん Dần dần\n368 小さい ちいさい Nhỏ ,bé\n369 小さな ちいさな Nhỏ bé\n370 近い ちかい Gần\n371 違う ちがう Khác ,sai\n372 近く ちかく Gần\n373 地下鉄 ちかてつ Tàu điện ngầm\n374 地図 ちず Bản đồ\n375 茶色 ちゃいろ Màu nâu\n376 ちゃわん Cái chén\n377 ちょうど Vừa đúng ,vừa chuẩn\n378 ちょっと Một chút\n379 一日 ついたち Ngày 1\n380 使う つかう Sử dụng\n381 疲れる つかれる Mệt mỏi\n382 次 つぎ Tiếp theo,kế tiếp\n383 着く つく Đến\n384 机 つくえ Cái bàn\n385 作る つくる Làm\n386 つける Bật điện,chấm ,đeo ,nêm\n387 勤める つとめる Làm việc\n388 つまらない Chán nản\n389 冷たい つめたい Lạnh\n390 強い つよい Mạnh\n391 手 て Tay\n392 テープ Cuộn băng\n393 テーブル Bàn tròn\n394 テープレコーダー Máy ghi âm\n395 出かける でかける Ra ngoài\n396 手紙 てがみ Lá thư\n397 できる Có thể\n398 出口 でぐち Lối thoát ra ngoài\n399 テスト Bài kiểm tra\n400 では Vậy thì\n401 デパート Căn hộ\n402 でも Nhưng\n403 出る でる Ra khỏi ,ra ngoài ,xuất hiện\n404 テレビ Tivi\n405 天気 てんき Thời tiết\n406 電気 でんき Điện\n407 電車 でんしゃ Xe điện\n408 電話 でんわ Điện thoại\n409 戸 と Cửa\n410 ドア Cửa chính\n411 トイレ toilet\n412 どう Như thế nào\n413 どうして Tại sao\n414 どうぞ Xin mời\n415 動物 どうぶつ Động vật\n416 どうも Cám ơn\n417 遠い とおい Xa\n418 十日 とおか Ngày 10\n419 時々 ときどき Thỉnh thoảng\n420 時計 とけい Đồng hồ\n421 どこ Ở đâu\n422 所 ところ Nơi ,sở\n423 年 とし Năm\n424 図書館 としょかん Thư viện\n425 どちら Từ đâu\n426 どっち Ở đâu\n427 とても Rất\n428 どなた Vị nào\n429 隣 となり Bên cạnh\n430 どの Cái nào\n431 飛ぶ とぶ Bay\n432 止まる とまる Dừng lại\n433 友達 ともだち Bạn\n434 土曜日 どようび Thứ 7\n435 鳥 とり Con chim\n436 とり肉 とりにく Thịt gà\n437 取る とる Lấy\n438 撮る とる Chụp hình\n439 どれ Cái nào\n440 ナイフ Dao nhỏ\n441 中 なか Bên trong\n442 長い ながい Dài\n443 鳴く なく Kêu,hót\n444 無くす なくす Làm mất\n445 なぜ Tại sao\n446 夏 なつ Mùa hè\n447 夏休み なつやすみ Kỳ nghỉ hè\n448 など Nào là\n449 七つ ななつ 7 cái\n450 七日 なのか Ngày 7\n451 名前 なまえ Họ tên\n452 習う ならう Học tập\n453 並ぶ ならぶ Được xếp ,được bài trí\n454 並べる ならべる Sắp hàng\n455 なる Trở thành\n456 何 なん/なに Cài gì\n457 二 に Số 2\n458 賑やか にぎやか Nhộn nhịp\n459 肉 にく Thịt\n460 西 にし Phía tây\n461 日曜日 にちようび Chủ nhật\n462 荷物 にもつ Hành lý\n463 ニュース Tin tức\n464 庭 にわ Vườn\n465 脱ぐ ぬぐ Cởi ,tháo\n466 温い ぬるい Nguội ,âm ấm\n467 ネクタイ Caravat\n468 猫 ねこ Con mèo\n469 寝る ねる Ngủ\n470 ノート Cuốn tập\n471 登る のぼる Leo trèo\n472 飲み物 のみもの Đồ uống\n473 飲む のむ Uống\n474 乗る のる Lên xe\n475 歯 は Răng\n476 パーティー Bữa tiệc\n477 はい Vâng\n478 灰皿 はいざら Gạt tàn thuốc lá\n479 入る はいる Đi vào\n480 葉書 はがき Thiệp\n481 はく Đi dép ,mặc quần\n482 箱 はこ Cái hộp\n483 橋 はし Cây cầu\n484 はし Đũa ăn cơm\n485 始まる はじまる Bắt đầu\n486 初め/始め はじめ Lần đầu ,bắt đầu\n487 初めて はじめて Lần đầu gặp gỡ\n488 走る はしる Chạy\n489 バス Xe bus\n490 バター Bơ\n491 二十歳 はたち 20 tuổi\n492 働く はたらく Làm việc\n493 八 はち Số 8\n494 二十日 はつか Ngày 20\n495 花 はな Hoa\n496 鼻 はな Mũi\n497 話 はなし Nói chuyện,câu chuyện\n498 話す はなす Nói chuyện\n499 早い はやい Sớm\n500 速い はやい Nhanh\n501 春 はる Mùa xuân\n502 貼る はる Dán\n503 晴れ はれ Trời trong xanh\n504 晴れる はれる Trời nắng\n505 半 はん Nửa\n506 晩 ばん Buổi tối\n507 パン Bánh mì\n508 ハンカチ Khăn tay\n509 番号 ばんごう Số\n510 晩御飯 ばんごはん Cơm tối\n511 半分 はんぶん Một nửa\n512 東 ひがし Phí đông\n513 引く ひく Kéo\n514 弾く ひく Đánh đàn\n515 低い ひくい Thấp\n516 飛行機 ひこうき Máy bay\n517 左 ひだり Bên trái\n518 人 ひと Người\n519 一つ ひとつ Một cái\n520 一月 ひとつき Tháng 1\n521 一人 ひとり Một người\n522 暇 ひま Rảnh rỗi\n523 百 ひゃく Một trăm\n524 病院 びょういん Bệnh viện\n525 病気 びょうき Bị bệnh\n526 昼 ひる Trưa\n527 昼御飯 ひるごはん Cơm trưa\n528 広い ひろい Rộng\n529 フィルム roll of film\n530 封筒 ふうとう Phong thư\n531 プール Hồ bơi\n532 フォーク \n533 吹く ふく Thổi\n534 服 ふく Quần áo\n535 二つ ふたつ 2 cái\n536 豚肉 ぶたにく Thịt heo\n537 二人 ふたり 2 người\n538 二日 ふつか 2 ngày\n539 太い ふとい Mập\n540 冬 ふゆ Mùa đông\n541 降る ふる Rơi xuống\n542 古い ふるい Đồ củ,cổ\n543 ふろ Bồn tắm\n544 文章 ぶんしょう Đoạn văn\n545 ページ Trang\n546 下手 へた Dở\n547 ベッド Màu đỏ\n548 ペット Thú cưng\n549 部屋 へや Căn phòng\n550 辺 へん Vùng\n551 ペン Bút bi\n552 勉強 べんきょうする Học\n553 便利 べんり Tiện lợi\n554 帽子 ぼうし Cái mũ\n555 ボールペン Bút bi\n556 ほか Cái khác\n557 ポケット Cái túi\n558 欲しい ほしい Muốn\n559 ポスト Hộp thư\n560 細い ほそい Ốm yếu\n561 ボタン Cái nút\n562 ホテル Khách sạn\n563 本 ほん Cuốn sách\n564 本棚 ほんだな Kệ sách\n565 ほんとう Sự thật\n566 毎朝 まいあさ Mỗi buổi sáng\n567 毎月 まいげつ/まいつき Mỗi tháng\n568 毎週 まいしゅう Mỗi tuần\n569 毎日 まいにち Mỗi ngày\n570 毎年 まいねん/まいとし Mỗi năm\n571 毎晩 まいばん Mỗi tối\n572 前 まえ Trước\n573 曲る まがる Gấp khúc,ghẹo\n574 まずい Dở ,không ngon\n575 また Vẫn\n576 まだ Chưa\n577 町 まち Thành phố\n578 待つ まつ Đợi\n579 まっすぐ Thẳng về phía trước\n580 マッチ Quẹt diêm\n581 窓 まど Cửa sổ\n582 丸い/円い まるい Tròn\n583 万 まん 10 ngàn\n584 万年筆 まんねんひつ Bút mực\n585 磨く みがく Đánh răng\n586 右 みぎ Bên phải\n587 短い みじかい Ngắn\n588 水 みず Nước\n589 店 みせ Cửa hàng\n590 見せる みせる Cho xem\n591 道 みち Con đường\n592 三日 みっか Ngày 3\n593 三つ みっつ 3 cái\n594 緑 みどり Màu xanh\n595 皆さん みなさん Tất cả mọi người\n596 南 みなみ Miền nam\n597 耳 みみ Tai\n598 見る 観る みる Nhìn ,xem, quan sát\n599 みんな Mọi người\n600 六日 むいか Ngày 6\n601 向こう むこう Hướng\n602 難しい むずかしい Khó\n603 六つ むっつ Số 6\n604 村 むら Làng\n605 目 め Mắt\n606 メートル met\n607 眼鏡 めがね Kính mắt\n608 もう Đã\n609 もう一度 もういちど Đã 1 lần\n610 木曜日 もくようび Thứ 5\n611 持つ もつ Cầm ,nắm\n612 もっと Hơn nửa\n613 物 もの Vật ,đồ vật\n614 門 もん Cổng\n615 問題 もんだい Vấn đề\n616 八百屋 やおや Cửa hàng rau\n617 野菜 やさい Rau\n618 易しい やさしい Dễ\n619 安い やすい Rẻ\n620 休み やすみ Kỳ nghỉ\n621 休む やすむ Nghỉ ngơi\n622 八つ やっつ 8 cái\n623 山 やま Núi\n624 やる Làm\n625 夕方 ゆうがた Chiều tối\n626 夕飯 ゆうはん Cơm tối\n627 郵便局 ゆうびんきょく Bưu điện\n628 昨夜 ゆうべ Tối qua\n629 有名 ゆうめい Nổi tiếng\n630 雪 ゆき Tuyết\n631 行く ゆく Đi\n632 ゆっくりと Thong thả,chậm rãi\n633 八日 ようか Ngày 8\n634 洋服 ようふく Quần áo của phương tây\n635 よく thường\n636 横 よこ Bên cạnh\n637 四日 よっか Ngày 4\n638 四つ よっつ 4 cái\n639 呼ぶ よぶ Gọi\n640 読む よむ Đọc\n641 夜 よる Buổi tối\n642 弱い よわい Yếu, kém\n643 来月 らいげつ Tháng tới\n644 来週 らいしゅう Tuần tới\n645 来年 らいねん Năm tới\n646 ラジオ Đài\n647 ラジカセ / ラジオカセット Nghe nhạc radio\n648 りっぱ Lộng lẫy\n649 留学生 りゅうがくせい Du học sinh\n650 両親 りょうしん Cha mẹ\n651 料理 りょうり Thức ăn\n652 旅行 りょこう Du lịch\n653 零 れい Số không\n654 冷蔵庫 れいぞうこ Tủ lạnh\n655 レコード Ghi âm\n656 レストラン Nhà hàng\n657 練習 れんしゅうする Luyện tập\n658 廊下 ろうか Hành lang\n659 六 ろく Số 6\n660 ワイシャツ Áo sơ mi trắng\n661 若い わかい Trẻ\n662 分かる わかる Hiểu\n663 忘れる わすれる Quên\n664 私 わたくし Tôi (khiêm tôn)\n665 私 わたし Tôi\n666 渡す わたす Giao cho,trao cho\n667 渡る わたる Đi qua\n668 悪い わるい Xấu \n669 より、ほう Hơn(dùng trong so sánh)","created_time":"2013-11-08T08:16:56+0000","updated_time":"2013-11-08T09:07:15+0000","likes":{"data":{"100003552597982":{"id":"100003552597982","name":"Đức Tiến"},"100005887419564":{"id":"100005887419564","name":"Cười Một Mình"},"100003731623249":{"id":"100003731623249","name":"Mai Nguyen"},"100005337850702":{"id":"100005337850702","name":"Xứ Tuyết"},"100003796430338":{"id":"100003796430338","name":"Cường Ađam Z"},"100005801442456":{"id":"100005801442456","name":"An Nguyen"},"100000075741073":{"id":"100000075741073","name":"Khanh Tung"},"100006473304502":{"id":"100006473304502","name":"Nguyễn Thắng"},"100001121620426":{"id":"100001121620426","name":"Ngoc Thanh"}},"paging":{"cursors":{"after":"MTAwMDAzNTUyNTk3OTgy","before":"MTAwMDAzNTUyNTk3OTgy"},"next":"https://graph.facebook.com/229244010425617_754528767897136/likes?limit=1&summary=1&after=MTAwMDAzNTUyNTk3OTgy"},"summary":{"total_count":9}},"comments":{"data":{"754533304563349":{"id":"754533304563349","from":{"id":"100005801442456","name":"An Nguyen"},"message":"Dài quá zị! Nên kèm hình ảnh thì tốt hơn!!","can_remove":false,"created_time":"2013-11-08T08:36:15+0000","like_count":0,"user_likes":false},"754533497896663":{"id":"754533497896663","from":{"id":"100005801442456","name":"An Nguyen"},"message":"Kiếm quyển này coi có không? Coi áp dụng làm thì hay hơn đó bạn","can_remove":false,"created_time":"2013-11-08T08:37:24+0000","like_count":1,"user_likes":false},"754533671229979":{"id":"754533671229979","from":{"id":"100003250657085","name":"Nhất Kiếm Vô Tình"},"message":"cái này là của người khác mình chỉ coppy lại thôi hjhj mục đích chia sẻ mong bạn ấy ko để bụng","can_remove":false,"created_time":"2013-11-08T08:38:08+0000","like_count":0,"user_likes":false},"754534337896579":{"id":"754534337896579","from":{"id":"100005801442456","name":"An Nguyen"},"message":"Thế thì nên ghi nguồn, và xin phép! Mình nghĩ như thế tốt hơn đấy.","can_remove":false,"created_time":"2013-11-08T08:40:41+0000","like_count":0,"user_likes":false},"754534947896518":{"id":"754534947896518","from":{"id":"100003250657085","name":"Nhất Kiếm Vô Tình"},"message":"bạn ý cũng có đăng nguồn nên rồi nhưng mình thấy như thế ko rõ rằng năm nên mình coppy từng phân cho dễ đọc. hjhj","can_remove":false,"created_time":"2013-11-08T08:43:30+0000","like_count":0,"user_likes":false},"754535574563122":{"id":"754535574563122","from":{"id":"100004360751785","name":"Hà Nguyễn"},"message":"An Nguyen ơi quyển trên là từ vựng hay gì đó, có tiếng việt nữa hả, để tớ đi kiếm?","message_tags":[{"id":"100005801442456","name":"An Nguyen","type":"user","offset":0,"length":9}],"can_remove":false,"created_time":"2013-11-08T08:45:03+0000","like_count":0,"user_likes":false},"754535601229786":{"id":"754535601229786","from":{"id":"100005801442456","name":"An Nguyen"},"message":"Ghi thế này không hiệu quả đâu! Nhìn nhức cả mắt! Bạn có thể nghĩ ra cách học bằng cách tìm các từ giống loại với nhau và ghép hình vào thì tốt hơn.","can_remove":false,"created_time":"2013-11-08T08:45:09+0000","like_count":0,"user_likes":false},"754535954563084":{"id":"754535954563084","from":{"id":"100005801442456","name":"An Nguyen"},"message":"Quyển này hướng dẫn du lịch việt Nam cho khách Nhật.nhìn khá thú vị.còn ban muốn học cái gì?!?","can_remove":false,"created_time":"2013-11-08T08:46:08+0000","like_count":0,"user_likes":false},"754536974562982":{"id":"754536974562982","from":{"id":"100003250657085","name":"Nhất Kiếm Vô Tình"},"message":"mình có thể tìm thấy quyển này ở đâu ?","can_remove":false,"created_time":"2013-11-08T08:47:12+0000","like_count":0,"user_likes":false},"754537464562933":{"id":"754537464562933","from":{"id":"100003310618708","name":"BiNô Triết Gia"},"message":"An Nguyen quyển đó mua ở đâu chỉ để mình mua tặng coi giáo mình với, thank","message_tags":[{"id":"100005801442456","name":"An Nguyen","type":"user","offset":0,"length":9}],"can_remove":false,"created_time":"2013-11-08T08:48:27+0000","like_count":0,"user_likes":false},"754538064562873":{"id":"754538064562873","from":{"id":"100005801442456","name":"An Nguyen"},"message":"Hiệu sách ấy! Những hiệu sách lớn sẽ có thôi,còn của minh là sưu tập về.Trong tương lai sẽ có thể phát cho thành viên admin để phát triển đề tài cho diễn đàn.Phải không đại ca Mai PB^^","message_tags":[{"id":"100001416272263","name":"Mai PB","type":"user","offset":176,"length":6}],"can_remove":false,"created_time":"2013-11-08T08:51:06+0000","like_count":1,"user_likes":false},"754538457896167":{"id":"754538457896167","from":{"id":"100003310618708","name":"BiNô Triết Gia"},"message":"phát miễn phí nhé, riêng mình, cảm ơn trước","can_remove":false,"created_time":"2013-11-08T08:52:02+0000","like_count":0,"user_likes":false},"754539234562756":{"id":"754539234562756","from":{"id":"100003250657085","name":"Nhất Kiếm Vô Tình"},"message":"chắc mình cũng có phần","can_remove":false,"created_time":"2013-11-08T08:54:15+0000","like_count":0,"user_likes":false},"754540254562654":{"id":"754540254562654","from":{"id":"100005801442456","name":"An Nguyen"},"message":"chỉ những việc như bạn đang cần tài liệu để phát triển đề tài thì sẵn sàng free.Còn ngoài ra là 500¥. Tiền đó sẽ nằm trong một chương trình đang ấp ủ riêng của mình với diễn đàn!","can_remove":false,"created_time":"2013-11-08T08:56:56+0000","like_count":0,"user_likes":false},"754542301229116":{"id":"754542301229116","from":{"id":"100003310618708","name":"BiNô Triết Gia"},"message":"cùng là admin, chia sẽ gánh nặng đi","can_remove":false,"created_time":"2013-11-08T09:04:30+0000","like_count":0,"user_likes":false},"754543164562363":{"id":"754543164562363","from":{"id":"100005801442456","name":"An Nguyen"},"message":"Có thể \" lách luật \" bằng cách học và đóng góp.Mượn sách về, học được cái gì đóng góp cái đó.Như vậy thì Free! Còn ngoài ra, admin cũng như mọi người, không cậy quen biết, nhờ vả!như member hết ^^","can_remove":false,"created_time":"2013-11-08T09:07:15+0000","like_count":0,"user_likes":false}},"paging":{"cursors":{"after":"NzU0NTMzMzA0NTYzMzQ5","before":"NzU0NTMzMzA0NTYzMzQ5"},"next":"https://graph.facebook.com/229244010425617_754528767897136/comments?limit=1&summary=1&after=NzU0NTMzMzA0NTYzMzQ5"},"summary":{"order":"chronological","total_count":16}}}