{"id":"229244010425617_754631911220155","type":"status","from":{"id":"100003607371727","name":"Nguyễn Huyến"},"message":"chào anh chị đang sống ở nhật.  e có 1 số vấn đề mún hỏi anh chị ở vùng sendai . có anh chị nào đang sống ở sendai không ak. e dự định đi du học ở vùng đó nhưng chưa bít j về vùng đó. anh chị có thể cho em hỏi  cuộc sống sinh hoạt thế nào có đắt đỏ k và công việc làm thêm có nhìu k ak. anh chị có thể chia sẻ cho chút kinh nghiệm k ak.  e cảm ơn ak.","created_time":"2013-11-08T12:44:45+0000","updated_time":"2013-11-09T14:04:55+0000","likes":{"data":{"100005801442456":{"id":"100005801442456","name":"An Nguyen"},"100003607371727":{"id":"100003607371727","name":"Nguyễn Huyến"},"100004159951970":{"id":"100004159951970","name":"Nguyễn Tiến Thành"},"100001848885057":{"id":"100001848885057","name":"Tiểu Mỡ Nhi"},"100000359762118":{"id":"100000359762118","name":"Mi Tra"}},"paging":{"cursors":{"after":"MTAwMDA1ODAxNDQyNDU2","before":"MTAwMDA1ODAxNDQyNDU2"},"next":"https://graph.facebook.com/229244010425617_754631911220155/likes?limit=1&summary=1&after=MTAwMDA1ODAxNDQyNDU2"},"summary":{"total_count":5}},"comments":{"data":{"754645191218827":{"id":"754645191218827","from":{"id":"100005801442456","name":"An Nguyen"},"message":"Đầu tiên , minh nhắc bạn tí nhé! Diễn đàn không chấp nhận viết không dấu! hãy sửa lại hay bị xoá đấy!\nCòn câu hỏi của bạn, mình trả lời luôn: giá cả sendai tương đối rẻ, nhà khoảng 3 man.2 người thì chia đôi ra.Có chợ trời gần ga nên ăn uống cũng rẻ, nhất là khoảng rau củ.Còn công việc thì trước đây khá dễ dàng nhưng hiện tại Việt Nam rất đông và nhiều vấn đề xã hội xấu phát sinh ra nên nyukan cũng khó hơn trước ! Chú ý!","can_remove":false,"created_time":"2013-11-08T13:09:20+0000","like_count":5,"user_likes":false},"754656944550985":{"id":"754656944550985","from":{"id":"100003607371727","name":"Nguyễn Huyến"},"message":"vâng ak!","can_remove":false,"created_time":"2013-11-08T13:22:19+0000","like_count":1,"user_likes":false},"754658084550871":{"id":"754658084550871","from":{"id":"100005801442456","name":"An Nguyen"},"message":"👏👏👏","can_remove":false,"created_time":"2013-11-08T13:24:57+0000","like_count":0,"user_likes":false},"754661204550559":{"id":"754661204550559","from":{"id":"100003607371727","name":"Nguyễn Huyến"},"message":"ở nhật các trường đào tạo tiếng có giống nhau không ak.","can_remove":false,"created_time":"2013-11-08T13:32:33+0000","like_count":0,"user_likes":false},"754663161217030":{"id":"754663161217030","from":{"id":"100005801442456","name":"An Nguyen"},"message":"Không đâu! Trường chính xác là 1 công ty kinh doanh dịch vụ giáo dục.Thế nên có dịch vụ tốt và xấu thậm chí lừa đảo còn có! Đừng mộng mơ Nhật cái gì cũng tốt!","can_remove":false,"created_time":"2013-11-08T13:35:00+0000","like_count":5,"user_likes":false},"754669604549719":{"id":"754669604549719","from":{"id":"100001848885057","name":"Tiểu Mỡ Nhi"},"message":"Xin chào bạn. Mình cũng muốn đi sendai. CHúng ta làm quen nha, lần đầu gặp. Mong chỉ giáo nhiều","can_remove":false,"created_time":"2013-11-08T13:46:25+0000","like_count":1,"user_likes":false},"754684507881562":{"id":"754684507881562","from":{"id":"100006572713690","name":"Đại Chim Lợn"},"message":"Vừa rồi bị njukan quét xong!","can_remove":false,"created_time":"2013-11-08T14:21:36+0000","like_count":0,"user_likes":false},"755168134499866":{"id":"755168134499866","from":{"id":"100005801442456","name":"An Nguyen"},"message":"Mình giới thiệu bạn 1 Người đang sống ở sendai , có gì hỏi ban đó cho dễ hiểu..Mít Cận","can_remove":false,"created_time":"2013-11-09T09:50:33+0000","like_count":0,"user_likes":false},"755169654499714":{"id":"755169654499714","from":{"id":"100001848885057","name":"Tiểu Mỡ Nhi"},"message":"Anh An Nguyen ơi. Em hỏi có được ko ạ????","message_tags":[{"id":"100005801442456","name":"An Nguyen","type":"user","offset":4,"length":9}],"can_remove":false,"created_time":"2013-11-09T09:56:22+0000","like_count":0,"user_likes":false},"755170381166308":{"id":"755170381166308","from":{"id":"100005801442456","name":"An Nguyen"},"message":"Hỏi gì e?","can_remove":false,"created_time":"2013-11-09T10:00:07+0000","like_count":0,"user_likes":false},"755170517832961":{"id":"755170517832961","from":{"id":"100001848885057","name":"Tiểu Mỡ Nhi"},"message":"Dạ hỏi thăm về một ít thông tin về Sendai từ chị Mít Cận        ấy ạ","can_remove":false,"created_time":"2013-11-09T10:00:54+0000","like_count":0,"user_likes":false},"755170624499617":{"id":"755170624499617","from":{"id":"100003177587874","name":"Nguyễn Kiều Trinh"},"message":"Hiện tại bây giờ ở sendai người Việt rất Đông . Nên cái nhìn  của Nhật về  người vn cũng ko tốt cho lắm bạn à .ở sen dai thì vật giá cũng ko đắt cho lắm cũng tương đối . Chuyện làm thêm thì có nhiều ..","can_remove":false,"created_time":"2013-11-09T10:01:28+0000","like_count":0,"user_likes":false},"755170837832929":{"id":"755170837832929","from":{"id":"100003177587874","name":"Nguyễn Kiều Trinh"},"message":"Chỉ cận các bạn tiếng giỏi thì có thể tự đi xin việc dc ...:)","can_remove":false,"created_time":"2013-11-09T10:02:05+0000","like_count":0,"user_likes":false},"755170937832919":{"id":"755170937832919","from":{"id":"100001848885057","name":"Tiểu Mỡ Nhi"},"message":"Em muốn hỏi thăm 1 chút về trường tiếng được koa j","can_remove":false,"created_time":"2013-11-09T10:02:27+0000","like_count":0,"user_likes":false},"755171267832886":{"id":"755171267832886","from":{"id":"100003177587874","name":"Nguyễn Kiều Trinh"},"message":"Hiện tại mình đang học trường sendai enghlish senter... Trường mình thì dạy cũng tốt . Nhưng .....cũng áp lực hơn các trường khác .","can_remove":false,"created_time":"2013-11-09T10:04:11+0000","like_count":0,"user_likes":false},"755171814499498":{"id":"755171814499498","from":{"id":"100003177587874","name":"Nguyễn Kiều Trinh"},"message":"ở sendai thì cũng nhiều trường tiếng lắm bạn ....tohoku gaigo cũng dc bạn . bạn cũng có thể chọn trường này để học","can_remove":false,"created_time":"2013-11-09T10:06:15+0000","like_count":0,"user_likes":false},"755172051166141":{"id":"755172051166141","from":{"id":"100001848885057","name":"Tiểu Mỡ Nhi"},"message":"Dạ em muốn học TOHOKU FOREIGN LANGUAGE & TOURISM COLLEGE  chị có biết gì về trường ko ạ","can_remove":false,"created_time":"2013-11-09T10:07:04+0000","like_count":0,"user_likes":false},"755172547832758":{"id":"755172547832758","from":{"id":"100001848885057","name":"Tiểu Mỡ Nhi"},"message":"Em nghe có 1 anh bảo nó nắm trong trường Tohoku Denshi ạ","can_remove":false,"created_time":"2013-11-09T10:09:12+0000","like_count":0,"user_likes":false},"755172681166078":{"id":"755172681166078","from":{"id":"100003177587874","name":"Nguyễn Kiều Trinh"},"message":"uhm. Cũng dc bạn ....","can_remove":false,"created_time":"2013-11-09T10:09:52+0000","like_count":0,"user_likes":false},"755173157832697":{"id":"755173157832697","from":{"id":"100003177587874","name":"Nguyễn Kiều Trinh"},"message":"Thực ra học hay ko là do mình cả. Còn trường nào cũng như nhau cả ....Đa số ai sang này vừa làm vừa học nên cũng khó khăn .","can_remove":false,"created_time":"2013-11-09T10:11:23+0000","like_count":0,"user_likes":false},"755174144499265":{"id":"755174144499265","from":{"id":"100003177587874","name":"Nguyễn Kiều Trinh"},"message":"các bạn có còn j thắc mắc nữa ko ?. Mình sẽ trả lời cho ...:)","can_remove":false,"created_time":"2013-11-09T10:15:29+0000","like_count":0,"user_likes":false},"755174304499249":{"id":"755174304499249","from":{"id":"100001848885057","name":"Tiểu Mỡ Nhi"},"message":"Thời tiết thì sao ạ. Bên Sendai tầm tháng 4 đã đỡ lạnh chưa ạ","can_remove":false,"created_time":"2013-11-09T10:16:15+0000","like_count":0,"user_likes":false},"755175051165841":{"id":"755175051165841","from":{"id":"100005801442456","name":"An Nguyen"},"message":"Tốt nhất thế này, cả 3 add nhau đi, rồi từ đó các e tìm bạn của chị mít rồi lan rộng ra, biết thêm mọi người để có thông tin Đa chiều!còn đừng quan trọng cái tên quá. Anh có thằng bạn tiếng nhật n4 j đó còn học nghiên cứu sinh ở .., Cao học bên đây.Nói chung cỡ nào cũng có!","can_remove":false,"created_time":"2013-11-09T10:19:27+0000","like_count":0,"user_likes":false},"755175317832481":{"id":"755175317832481","from":{"id":"100003177587874","name":"Nguyễn Kiều Trinh"},"message":"lúc đó cũng ấm áp rồi bạn . ...đến tháng 7 trở đi la mùa mưa . Hiện tại bây giờ đang mùa thu thôi mà nhiệt độ cỡ 10 :(\nSo vs các Vùng khác thì sendai cũng lạnh","can_remove":false,"created_time":"2013-11-09T10:20:33+0000","like_count":0,"user_likes":false},"755175331165813":{"id":"755175331165813","from":{"id":"100001848885057","name":"Tiểu Mỡ Nhi"},"message":"Dạ vâng. Em ad chị Mít rồi ạ","can_remove":false,"created_time":"2013-11-09T10:20:37+0000","like_count":0,"user_likes":false},"755176621165684":{"id":"755176621165684","from":{"id":"100005801442456","name":"An Nguyen"},"message":"Thanks mít !!","can_remove":false,"created_time":"2013-11-09T10:23:19+0000","like_count":1,"user_likes":false},"755179274498752":{"id":"755179274498752","from":{"id":"100001848885057","name":"Tiểu Mỡ Nhi"},"message":"Cảm ơn anh An, chị Mít","can_remove":false,"created_time":"2013-11-09T10:30:40+0000","like_count":0,"user_likes":false},"755208734495806":{"id":"755208734495806","from":{"id":"100001458099624","name":"Kham Pha"},"message":"Tran Ngoc Anh ở đó có vấn đề gì ko?","message_tags":[{"id":"100000328306722","name":"Tran Ngoc Anh","type":"user","offset":0,"length":13}],"can_remove":false,"created_time":"2013-11-09T11:50:38+0000","like_count":0,"user_likes":false},"755219881161358":{"id":"755219881161358","from":{"id":"100000328306722","name":"Tran Ngoc Anh"},"message":"Cho minh khac tren day lam Duc ah :(","can_remove":false,"created_time":"2013-11-09T12:20:57+0000","like_count":0,"user_likes":false},"755260061157340":{"id":"755260061157340","from":{"id":"1214116060","name":"Trần Xuân Đức"},"message":"Sendai có phải vùng bị sóng thần ko? Nghe thấy sendai là hơi run rồi:))","can_remove":false,"created_time":"2013-11-09T14:04:55+0000","like_count":0,"user_likes":false}},"paging":{"cursors":{"after":"NzU0NjQ1MTkxMjE4ODI3","before":"NzU0NjQ1MTkxMjE4ODI3"},"next":"https://graph.facebook.com/229244010425617_754631911220155/comments?limit=1&summary=1&after=NzU0NjQ1MTkxMjE4ODI3"},"summary":{"order":"chronological","total_count":30}}}