{"id":"229244010425617_754638214552858","type":"video","picture":"https://fbexternal-a.akamaihd.net/safe_image.php?d=AQD5VdKTZFwcFM4U&w=130&h=130&url=http%3A%2F%2Fi1.ytimg.com%2Fvi%2FX3VjPaH0X2c%2Fhqdefault.jpg%3Ffeature%3Dog","link":"http://www.youtube.com/watch?v=X3VjPaH0X2c","source":"http://www.youtube.com/v/X3VjPaH0X2c?version=3&autohide=1&autoplay=1","from":{"id":"100003852355786","name":"Makoto Aishite Ye-chan Velf"},"message":"http://www.youtube.com/watch?v=X3VjPaH0X2c\n\nhay nhỉ..........tớ chỉ bit khóc...nước mắt cứ lăn dài :(((( ...\n\nHonto honto daisuki desu Nihon-san * viết đúng ko ạ* \n\n* khóc*","created_time":"2013-11-08T12:55:57+0000","updated_time":"2013-11-09T04:42:33+0000","likes":{"data":{"100003814756892":{"id":"100003814756892","name":"Hai Nguyen"},"1305472811":{"id":"1305472811","name":"Tuan Nguyen"},"100001260645727":{"id":"100001260645727","name":"Ngo Duy Son"},"100004716640495":{"id":"100004716640495","name":"Thúy An Dương"},"100001416272263":{"id":"100001416272263","name":"Mai PB"},"100001365545442":{"id":"100001365545442","name":"Nguyễn Nam"},"100001754136107":{"id":"100001754136107","name":"Nguyễn Tuấn Vũ"},"1821970083":{"id":"1821970083","name":"Nguyễn Mạnh Cường"},"100002283885358":{"id":"100002283885358","name":"Tien Chuot"},"100002782131785":{"id":"100002782131785","name":"Hasegawa Kiyotake"},"100001912633316":{"id":"100001912633316","name":"Du Ca"},"100001248140499":{"id":"100001248140499","name":"לאָק נגויען"},"100005887419564":{"id":"100005887419564","name":"Cười Một Mình"},"100003011417151":{"id":"100003011417151","name":"Hue Kim"},"100000843003978":{"id":"100000843003978","name":"Ngo Quang"},"100005801442456":{"id":"100005801442456","name":"An Nguyen"},"1717530880":{"id":"1717530880","name":"Triệu Việt Cường"}},"paging":{"cursors":{"after":"MTAwMDAzODE0NzU2ODky","before":"MTAwMDAzODE0NzU2ODky"},"next":"https://graph.facebook.com/229244010425617_754638214552858/likes?limit=1&summary=1&after=MTAwMDAzODE0NzU2ODky"},"summary":{"total_count":17}},"comments":{"data":{"754657504550929":{"id":"754657504550929","from":{"id":"1717530880","name":"Triệu Việt Cường"},"message":"Xem clip này cả mấy chục lần mà ko chán. Mấy bạn đáng yêu thật <3","can_remove":false,"created_time":"2013-11-08T13:23:51+0000","like_count":2,"user_likes":false},"754658381217508":{"id":"754658381217508","from":{"id":"100003852355786","name":"Makoto Aishite Ye-chan Velf"},"message":"youtube đang diễn ra cãi cọ......chửi Yến hát kpop ...bác Sugi ko quảng bá Jpop ...kpop vs jpop nữa chứ...*buồn*","can_remove":false,"created_time":"2013-11-08T13:25:46+0000","like_count":1,"user_likes":false},"754659754550704":{"id":"754659754550704","from":{"id":"1717530880","name":"Triệu Việt Cường"},"message":":v :(","can_remove":false,"created_time":"2013-11-08T13:28:36+0000","like_count":1,"user_likes":false},"754660054550674":{"id":"754660054550674","from":{"id":"100003852355786","name":"Makoto Aishite Ye-chan Velf"},"message":"đã cười rồi còn buồn....bạn này lạ =D","can_remove":false,"created_time":"2013-11-08T13:29:17+0000","like_count":0,"user_likes":false},"754660421217304":{"id":"754660421217304","from":{"id":"1717530880","name":"Triệu Việt Cường"},"message":"Sốc tâm lí nên bị hâm dở đó :3","can_remove":false,"created_time":"2013-11-08T13:30:06+0000","like_count":0,"user_likes":false},"754956417854371":{"id":"754956417854371","from":{"id":"100000282680283","name":"Cường Văn"},"message":"Gemini Gemini , April Casablanca, nga ちゃん cua chung ta kia","message_tags":[{"id":"100006550144786","name":"Gemini Gemini","type":"user","offset":0,"length":13},{"id":"100000142273101","name":"April Casablanca","type":"user","offset":16,"length":16}],"can_remove":false,"created_time":"2013-11-09T00:10:46+0000","like_count":0,"user_likes":false},"754957321187614":{"id":"754957321187614","from":{"id":"100000282680283","name":"Cường Văn"},"message":"Hùng Minh,Phạm Thanh Tuấn. xem clip nay nhe,  y nghja day. chu y co nguoi quen kia","message_tags":[{"id":"100005501460918","name":"Hùng Minh","type":"user","offset":0,"length":9},{"id":"100003939278897","name":"Phạm Thanh Tuấn","type":"user","offset":10,"length":15}],"can_remove":false,"created_time":"2013-11-09T00:13:00+0000","like_count":0,"user_likes":false},"755069327843080":{"id":"755069327843080","from":{"id":"100001416272263","name":"Mai PB"},"message":"Xem những chương trình Nhật làm về VN nhiều nhưng ít chương trình nào làm mình xúc động như thế này.","can_remove":false,"created_time":"2013-11-09T04:42:33+0000","like_count":2,"user_likes":false}},"paging":{"cursors":{"after":"NzU0NjU3NTA0NTUwOTI5","before":"NzU0NjU3NTA0NTUwOTI5"},"next":"https://graph.facebook.com/229244010425617_754638214552858/comments?limit=1&summary=1&after=NzU0NjU3NTA0NTUwOTI5"},"summary":{"order":"chronological","total_count":8}}}