{"id":"229244010425617_754653967884616","type":"status","from":{"id":"100001416272263","name":"Mai PB"},"message":"Các mem miền Trung, đi tránh bão ngay! Lần này có vẻ kinh khủng lắm!\nhttp://m.bbc.co.uk/vietnamese/world/2013/11/131108_vietnam_philippines_haiyan_typhoon","created_time":"2013-11-08T13:16:12+0000","updated_time":"2013-11-09T03:43:55+0000","likes":{"data":{"100002871405403":{"id":"100002871405403","name":"Thach Sanh"},"100005058398238":{"id":"100005058398238","name":"Minh Thư Nguyễn"},"100001526631937":{"id":"100001526631937","name":"Tường Oanh Mineko"},"100000776461179":{"id":"100000776461179","name":"Jotaro Nguyen"},"100003873803655":{"id":"100003873803655","name":"Gà Khùng"},"1412022734":{"id":"1412022734","name":"Người Yêu Triển Chiêu"},"100000027754899":{"id":"100000027754899","name":"Hoang Van Ba"},"100004716640495":{"id":"100004716640495","name":"Thúy An Dương"},"100004490496995":{"id":"100004490496995","name":"Rai Chamu"},"1552036787":{"id":"1552036787","name":"Lyklyk Tran"},"100004923553810":{"id":"100004923553810","name":"Xuan KY Nguyen"},"100001365545442":{"id":"100001365545442","name":"Nguyễn Nam"},"100006767705219":{"id":"100006767705219","name":"Kim Liên"},"100005440689746":{"id":"100005440689746","name":"Trang Mapy"},"1148962646":{"id":"1148962646","name":"Tran Thi Tuong Van"},"100003250657085":{"id":"100003250657085","name":"Nhất Kiếm Vô Tình"},"100002629655875":{"id":"100002629655875","name":"Đỗ Thế Phong"},"100003005597243":{"id":"100003005597243","name":"Zany Royal"},"100002535489295":{"id":"100002535489295","name":"Moteru Seikoo"},"100004642933206":{"id":"100004642933206","name":"Aloha Aloha"},"100003011417151":{"id":"100003011417151","name":"Hue Kim"},"100002589963683":{"id":"100002589963683","name":"Hà Văn Tuấn"},"100001754136107":{"id":"100001754136107","name":"Nguyễn Tuấn Vũ"},"100000062884729":{"id":"100000062884729","name":"Huệ Ca"}},"paging":{"cursors":{"after":"MTAwMDAyODcxNDA1NDAz","before":"MTAwMDAyODcxNDA1NDAz"},"next":"https://graph.facebook.com/229244010425617_754653967884616/likes?limit=1&summary=1&after=MTAwMDAyODcxNDA1NDAz"},"summary":{"total_count":27}},"comments":{"data":{"754655324551147":{"id":"754655324551147","from":{"id":"100001754136107","name":"Nguyễn Tuấn Vũ"},"message":"Châu Hoàng","message_tags":[{"id":"1693102459","name":"Châu Hoàng","type":"user","offset":0,"length":10}],"can_remove":false,"created_time":"2013-11-08T13:19:31+0000","like_count":0,"user_likes":false},"754658451217501":{"id":"754658451217501","from":{"id":"100003011417151","name":"Hue Kim"},"message":"chạy trời ko khỏi nắng anh ơi, về nhà với bố mẹ là chắc nhất","can_remove":false,"created_time":"2013-11-08T13:25:54+0000","like_count":0,"user_likes":false},"754660467883966":{"id":"754660467883966","from":{"id":"100001416272263","name":"Mai PB"},"message":"Để xem lần này bao nhiêu công trình tiền tỉ của dân bị vạch mặt rút lõi.","can_remove":false,"created_time":"2013-11-08T13:30:17+0000","like_count":12,"user_likes":false},"754669554549724":{"id":"754669554549724","from":{"id":"100003250657085","name":"Nhất Kiếm Vô Tình"},"message":"mong rằng tất cả sẽ ổn hjc họ khổ quá","can_remove":false,"created_time":"2013-11-08T13:46:14+0000","like_count":0,"user_likes":false},"754677597882253":{"id":"754677597882253","from":{"id":"100004123327271","name":"Nguyễn Phương"},"message":"da ngheo lai con hay bi bao nua chu.","can_remove":false,"created_time":"2013-11-08T14:04:59+0000","like_count":0,"user_likes":false},"754680444548635":{"id":"754680444548635","from":{"id":"100001365545442","name":"Nguyễn Nam"},"message":"chạy đi đâu được anh =..=\" núp trong nhà thôi a ơi","can_remove":false,"created_time":"2013-11-08T14:11:12+0000","like_count":1,"user_likes":false},"754685991214747":{"id":"754685991214747","from":{"id":"100001416272263","name":"Mai PB"},"message":"Bão người cũng không kém bão trời. Ác nhân quá. http://vietnamnet.vn/vn/xa-hoi/148487/xa-lu-dot-ngot--4-nu-sinh-bi-cuon-troi.html","can_remove":false,"created_time":"2013-11-08T14:25:04+0000","like_count":3,"user_likes":false},"754728144543865":{"id":"754728144543865","from":{"id":"100004716640495","name":"Thúy An Dương"},"message":"Thiên tai thì gánh thôi chứ cháu chẳng biết đi đâu được cả...","can_remove":false,"created_time":"2013-11-08T16:05:38+0000","like_count":1,"user_likes":false},"754729067877106":{"id":"754729067877106","from":{"id":"100001416272263","name":"Mai PB"},"message":"Vào nơi kiên cố và ở trên tầng cao đó. Mua thực phẩm dự trữ. Nói vậy thôi nhưng cũng biết ở VN hầu như chỉ trông vào cái nhà mình. :-(","can_remove":false,"created_time":"2013-11-08T16:08:15+0000","like_count":1,"user_likes":false},"754740337875979":{"id":"754740337875979","from":{"id":"100000381394367","name":"Thành Nguyễn"},"message":"Ai biết kinh nghiệm phòng chống bão gì ở Nhật mà được tập huấn diễn tập, thấy ở Việt Nam chưa có thì nêu ra cho mọi người.","can_remove":false,"created_time":"2013-11-08T16:32:21+0000","like_count":1,"user_likes":false},"754740741209272":{"id":"754740741209272","from":{"id":"100001416272263","name":"Mai PB"},"message":"Lúc nào Chính phủ VN sang đây học tập làm nhà tránh bão cho dân thì anh hướng dẫn. :-)","can_remove":false,"created_time":"2013-11-08T16:33:43+0000","like_count":1,"user_likes":false},"754749034541776":{"id":"754749034541776","from":{"id":"1693102459","name":"Châu Hoàng"},"message":"Giờ chả biết tránh làm sao, thôi thì chờ nó đến :(","can_remove":false,"created_time":"2013-11-08T16:53:02+0000","like_count":0,"user_likes":false},"754753171208029":{"id":"754753171208029","from":{"id":"1146680551","name":"優しい なぁ"},"message":"Trước khi sang đây e có gặp mấy bạn Nhật chuyên làm dự án của chính phủ Nhật.Là sang Việt Nam ở các tỉnh như Huế,Quảng Bình,Quảng Trị... để vào nhà trường dạy cách phòng chống thiên tai như lũ lụt ,hỏa hạn ,động đất...Nhưng 1 sự đáng buồn là đi đâu mấy bạn đó cũng bị coi là hâm và xem thường công việc mà các bạn ấy đang làm.","can_remove":false,"created_time":"2013-11-08T17:03:20+0000","like_count":2,"user_likes":false},"754756417874371":{"id":"754756417874371","from":{"id":"100004293973335","name":"Nga Ngố"},"message":"thế h ms khổ","can_remove":false,"created_time":"2013-11-08T17:12:39+0000","like_count":0,"user_likes":false},"755051917844821":{"id":"755051917844821","from":{"id":"100001416272263","name":"Mai PB"},"message":"Muốn tránh bão, thiên tai, phải bắt đầu từ hạ tầng cơ sở với sự tham gia và đầu tư tích cực của Nhà nước, chính quyền các cấp. Còn người dân chỉ làm được việc trang bị kiến thức cho mình mà thôi. Tuy nhiên kiến thức hữu dụng nhất trong xã hội VN hiện giờ là...về nhà cố thủ và tích trữ lương thực thuốc men. Nếu là ở Nhật thì họ sẽ được yêu cầu nghe thông tin của chính quyền để biết thời điểm tránh thiên tai. Địa điểm thì họ đã được trang bị khắp nơi, luyện tập hướng dẫn suốt rồi. VN chưa làm nên người dân chịu trận.","can_remove":false,"created_time":"2013-11-09T03:43:55+0000","like_count":3,"user_likes":false}},"paging":{"cursors":{"after":"NzU0NjU1MzI0NTUxMTQ3","before":"NzU0NjU1MzI0NTUxMTQ3"},"next":"https://graph.facebook.com/229244010425617_754653967884616/comments?limit=1&summary=1&after=NzU0NjU1MzI0NTUxMTQ3"},"summary":{"order":"chronological","total_count":15}}}