{"id":"229244010425617_755181621165184","type":"status","from":{"id":"100001583529210","name":"Nguyễn Kim Hà"},"message":"Nhiều bạn đang thắc mắc hoặc có vấn đề liên quan đến nhà ở hãy liên lạc cho mình để được tư vấn nhé! 08043370989 (softBank) có thể gọi hoặc nhắn tin viber, line, zalo...","created_time":"2013-11-09T10:38:59+0000","updated_time":"2013-11-10T00:06:15+0000","likes":{"data":{"100002916376886":{"id":"100002916376886","name":"Thủy Bee"},"100005675104683":{"id":"100005675104683","name":"Nguyễn Hoa"},"100004360751785":{"id":"100004360751785","name":"Hà Nguyễn"},"100002508122689":{"id":"100002508122689","name":"Vũ Mạnh Tuấn"},"100001030555523":{"id":"100001030555523","name":"Hoa NT"},"100005566321381":{"id":"100005566321381","name":"Bin Lee"},"100001848885057":{"id":"100001848885057","name":"Tiểu Mỡ Nhi"},"100001754136107":{"id":"100001754136107","name":"Nguyễn Tuấn Vũ"},"100005801442456":{"id":"100005801442456","name":"An Nguyen"},"100001416272263":{"id":"100001416272263","name":"Mai PB"}},"paging":{"cursors":{"after":"MTAwMDAyOTE2Mzc2ODg2","before":"MTAwMDAyOTE2Mzc2ODg2"},"next":"https://graph.facebook.com/229244010425617_755181621165184/likes?limit=1&summary=1&after=MTAwMDAyOTE2Mzc2ODg2"},"summary":{"total_count":11}},"comments":{"data":{"755182354498444":{"id":"755182354498444","from":{"id":"100001416272263","name":"Mai PB"},"message":"Admin của group đấy nên mọi người yên tâm. Nhưng gọi đến thì chú ý thái độ của mình nhé.","can_remove":false,"created_time":"2013-11-09T10:41:34+0000","like_count":3,"user_likes":false},"755199094496770":{"id":"755199094496770","from":{"id":"100005566321381","name":"Bin Lee"},"message":"Vâng..!","can_remove":false,"created_time":"2013-11-09T11:28:01+0000","like_count":0,"user_likes":false},"755207407829272":{"id":"755207407829272","from":{"id":"100002508122689","name":"Vũ Mạnh Tuấn"},"message":"câu nói của anh Mai PB làm m.n yên tâm hơn nữa :D","message_tags":[{"id":"100001416272263","name":"Mai PB","type":"user","offset":16,"length":6}],"can_remove":false,"created_time":"2013-11-09T11:46:27+0000","like_count":0,"user_likes":false},"755207677829245":{"id":"755207677829245","from":{"id":"100001416272263","name":"Mai PB"},"message":"Có đóng dấu \"CĐNV\" :-D","can_remove":false,"created_time":"2013-11-09T11:47:34+0000","like_count":1,"user_likes":false},"755209051162441":{"id":"755209051162441","from":{"id":"100001583529210","name":"Nguyễn Kim Hà"},"message":"E sẽ cố gắng hết sức có thể @.@^^","can_remove":false,"created_time":"2013-11-09T11:51:38+0000","like_count":1,"user_likes":false},"755212034495476":{"id":"755212034495476","from":{"id":"100005566321381","name":"Bin Lee"},"message":"Mong các anh chị giúp đỡ cảnh mới sang như bọn em..!","can_remove":false,"created_time":"2013-11-09T11:59:27+0000","like_count":0,"user_likes":false},"755213311162015":{"id":"755213311162015","from":{"id":"100005566321381","name":"Bin Lee"},"message":"Bọn em mới sang mang có ít tiền thôi à..mà công việc hiện tại cũng chưa có,hơn 1 tháng rồi ạ..","can_remove":false,"created_time":"2013-11-09T12:01:13+0000","like_count":0,"user_likes":false},"755213581161988":{"id":"755213581161988","from":{"id":"100005566321381","name":"Bin Lee"},"message":"Nhà bọn em chỉ kí có 3 tháng thôi..! Sau tháng nữa chả biết đi đâu về đâu nữa..!","can_remove":false,"created_time":"2013-11-09T12:01:57+0000","like_count":0,"user_likes":false},"755445197805493":{"id":"755445197805493","from":{"id":"100001583529210","name":"Nguyễn Kim Hà"},"message":"Giờ bạn ở chỗ nào muốn tìm nhà khoảng bao nhiêu, bao nhiêu người ở tiền đầu vào bao nhiêu, dự định ngày chuyển nhà là ngày nao?","can_remove":false,"created_time":"2013-11-09T20:35:12+0000","like_count":0,"user_likes":false},"755517987798214":{"id":"755517987798214","from":{"id":"100005566321381","name":"Bin Lee"},"message":"Dạ hiện tại thì bây giờ em vẫn xin được việc nên em cũng chưa biết thế nào chị ạ","can_remove":false,"created_time":"2013-11-09T23:59:04+0000","like_count":0,"user_likes":false},"755518201131526":{"id":"755518201131526","from":{"id":"100005566321381","name":"Bin Lee"},"message":"Em ở Tokyo-to,bunkyo-ku,kohinata chị ạ","can_remove":false,"created_time":"2013-11-09T23:59:59+0000","like_count":0,"user_likes":false},"755519854464694":{"id":"755519854464694","from":{"id":"100001583529210","name":"Nguyễn Kim Hà"},"message":"Bạn học tiếng nhật lâu chưa?","can_remove":false,"created_time":"2013-11-10T00:05:12+0000","like_count":0,"user_likes":false},"755520151131331":{"id":"755520151131331","from":{"id":"100005566321381","name":"Bin Lee"},"message":"Dạ ơ VN e học khoảng 5 tháng chị ạ","can_remove":false,"created_time":"2013-11-10T00:06:15+0000","like_count":0,"user_likes":false}},"paging":{"cursors":{"after":"NzU1MTgyMzU0NDk4NDQ0","before":"NzU1MTgyMzU0NDk4NDQ0"},"next":"https://graph.facebook.com/229244010425617_755181621165184/comments?limit=1&summary=1&after=NzU1MTgyMzU0NDk4NDQ0"},"summary":{"order":"chronological","total_count":13}}}