{"id":"229244010425617_755534821129864","type":"status","from":{"id":"100002428163247","name":"Trần Đức Hùng"},"message":"Có bạn nào biết chỗ nào bán quần áo rẻ, tốt không hè? Không cần đẹp lắm đâu, mang ít quần áo qua nên cần mua mấy cái:)\nCám ơn mọi người nhiều :)","created_time":"2013-11-10T00:44:23+0000","updated_time":"2013-11-10T06:29:11+0000","likes":{"data":{"100002887947757":{"id":"100002887947757","name":"Nguyen Dang"}},"paging":{"cursors":{"after":"MTAwMDAyODg3OTQ3NzU3","before":"MTAwMDAyODg3OTQ3NzU3"}},"summary":{"total_count":1}},"comments":{"data":{"755547981128548":{"id":"755547981128548","from":{"id":"100000359762118","name":"Mi Tra"},"message":"Bạn có thể mua đồ của Uniqlo. Cửa hàng có ở khắp mọi nơi, rất dễ tìm.","can_remove":false,"created_time":"2013-11-10T01:23:31+0000","like_count":1,"user_likes":false},"755548524461827":{"id":"755548524461827","from":{"id":"100002428163247","name":"Trần Đức Hùng"},"message":"Thế à bạn! Có giảm giá k bạn? :)","can_remove":false,"created_time":"2013-11-10T01:25:31+0000","like_count":0,"user_likes":false},"755549107795102":{"id":"755549107795102","from":{"id":"100000359762118","name":"Mi Tra"},"message":"Thường các ngày cuối tuần sẽ có giảm giá một chút","can_remove":false,"created_time":"2013-11-10T01:27:24+0000","like_count":0,"user_likes":false},"755549331128413":{"id":"755549331128413","from":{"id":"100000359762118","name":"Mi Tra"},"message":"Mùa này ai cũng cần mua đồ ấm nên ko có sale 30% hay 50% đâu","can_remove":false,"created_time":"2013-11-10T01:28:12+0000","like_count":0,"user_likes":false},"755549487795064":{"id":"755549487795064","from":{"id":"100002428163247","name":"Trần Đức Hùng"},"message":"Cám ơn bạn nhé:)","can_remove":false,"created_time":"2013-11-10T01:28:43+0000","like_count":0,"user_likes":false},"755549931128353":{"id":"755549931128353","from":{"id":"100000359762118","name":"Mi Tra"},"message":"Bạn ở Shinjuku thì tới cửa tây hoặc cửa đông là đều có của hàng này đó. \nTiếng nhật là ユニクロ","can_remove":false,"created_time":"2013-11-10T01:29:51+0000","like_count":1,"user_likes":false},"755554154461264":{"id":"755554154461264","from":{"id":"1830001967","name":"Chiến Nguyễn"},"message":"Ở Nhật mua quần áo, giày dép cũ có đắt và có nhiều chỗ bán ko các bác","can_remove":false,"created_time":"2013-11-10T01:40:52+0000","like_count":0,"user_likes":false},"755554507794562":{"id":"755554507794562","from":{"id":"100000359762118","name":"Mi Tra"},"message":"Hoặc rẻ hơn nữa thì có GU(ジーユー). Tuy nhiên chất lượng của GU ko được tốt cho lắm. \nCửa hàng này có ở trong  ビックロ cửa tây shinjuku","can_remove":false,"created_time":"2013-11-10T01:41:41+0000","like_count":0,"user_likes":false},"755556257794387":{"id":"755556257794387","from":{"id":"100000359762118","name":"Mi Tra"},"message":"Đồ cũ thì ở ga Shimokitazawa có bán nhiều nhưng khá đắt. \nCác bạn có thể đến chợ trời (free market フリーマーケット). Các chợ này thường họp vào cuối tuần. \nỞ Tokyo thì có chợ ở công viên Meiji là lớn nhất. Có thể mặc cả. \nCác bạn tra địa điểm ở đây nhé! \nhttp://www2j.biglobe.ne.jp/~tatuta/","can_remove":false,"created_time":"2013-11-10T01:47:14+0000","like_count":1,"user_likes":false},"755556954460984":{"id":"755556954460984","from":{"id":"100002428163247","name":"Trần Đức Hùng"},"message":"Cám ơn bạn mi tra nhé :), nhiều thông tin bổ ich ghê:)","can_remove":false,"created_time":"2013-11-10T01:49:13+0000","like_count":0,"user_likes":false},"755557897794223":{"id":"755557897794223","from":{"id":"100003090582201","name":"Đại Ca Béo"},"message":"Đến chỗ tớ jujo đây quấn quần áo rẻ màk phong cách cũng hơp vs Việt Nam!","can_remove":false,"created_time":"2013-11-10T01:52:20+0000","like_count":0,"user_likes":false},"755558871127459":{"id":"755558871127459","from":{"id":"100004715524978","name":"Minh Chiến"},"message":"Jujo la o dau vay b","can_remove":false,"created_time":"2013-11-10T01:54:52+0000","like_count":0,"user_likes":false},"755559274460752":{"id":"755559274460752","from":{"id":"100002428163247","name":"Trần Đức Hùng"},"message":"Ở đâu bạn","can_remove":false,"created_time":"2013-11-10T01:55:58+0000","like_count":0,"user_likes":false},"755615857788427":{"id":"755615857788427","from":{"id":"100001416272263","name":"Mai PB"},"message":"Mi Tra : flea market","can_remove":false,"created_time":"2013-11-10T03:59:17+0000","like_count":1,"user_likes":false},"755616664455013":{"id":"755616664455013","from":{"id":"100002428163247","name":"Trần Đức Hùng"},"message":"Hic, kém chữ Hán mà cô bạn cho thế hoa cả mắt rồi^^","can_remove":false,"created_time":"2013-11-10T04:02:13+0000","like_count":1,"user_likes":false},"755617071121639":{"id":"755617071121639","from":{"id":"100001622486348","name":"Tuan Lam"},"message":"co ad nu thj may khoan nay that la chu dao","can_remove":false,"created_time":"2013-11-10T04:04:10+0000","like_count":1,"user_likes":false},"755618671121479":{"id":"755618671121479","from":{"id":"100000359762118","name":"Mi Tra"},"message":"Thanks anh Mai PB. Em luôn nghĩ là chữ kia. Nếu vậy thành free mất rùi nhỉ^^","message_tags":[{"id":"100001416272263","name":"Mai PB","type":"user","offset":11,"length":6}],"can_remove":false,"created_time":"2013-11-10T04:09:15+0000","like_count":1,"user_likes":false},"755618981121448":{"id":"755618981121448","from":{"id":"100001416272263","name":"Mai PB"},"message":"Thực ra đó cũng là chữ hiếm dùng, nên chắc hầu hết nhầm. Với lại người Nhật hay tự chế tiếng Anh ghép bất chấp ngữ nghĩa nên cũng ít ai thắc mắc.","can_remove":false,"created_time":"2013-11-10T04:10:39+0000","like_count":2,"user_likes":false},"755621791121167":{"id":"755621791121167","from":{"id":"100000359762118","name":"Mi Tra"},"message":"Bạn Hùng có thể xem bằng link tiếng Anh này\nhttp://www.paperlantern.net/fleamarket/","can_remove":false,"created_time":"2013-11-10T04:22:00+0000","like_count":1,"user_likes":false},"755637634452916":{"id":"755637634452916","from":{"id":"100002120720024","name":"Yuji Tokunaga"},"message":"Bạn sống shinjuku thì GA và H&M là gần. Những đó ở gần ga shinjuku-sanchome . Trước hàng bác hoa Isetan theo đường Meiji","can_remove":false,"created_time":"2013-11-10T05:18:06+0000","like_count":0,"user_likes":false},"755653021118044":{"id":"755653021118044","from":{"id":"100002120720024","name":"Yuji Tokunaga"},"message":"Nham, GU.","can_remove":false,"created_time":"2013-11-10T06:23:55+0000","like_count":0,"user_likes":false},"755653367784676":{"id":"755653367784676","from":{"id":"100002120720024","name":"Yuji Tokunaga"},"message":"Hay la gan ga koenji co nhieu hanh ao quan re.","can_remove":false,"created_time":"2013-11-10T06:25:44+0000","like_count":0,"user_likes":false},"755653701117976":{"id":"755653701117976","from":{"id":"100002428163247","name":"Trần Đức Hùng"},"message":"Cảm ơn Yuji Tokunaga nhé:)","message_tags":[{"id":"100002120720024","name":"Yuji Tokunaga","type":"user","offset":7,"length":13}],"can_remove":false,"created_time":"2013-11-10T06:27:38+0000","like_count":1,"user_likes":false},"755654071117939":{"id":"755654071117939","from":{"id":"100002120720024","name":"Yuji Tokunaga"},"message":"http://www.hardoff.co.jp/info_db.php?num=130034\nモードoff . Do la hang cu","can_remove":false,"created_time":"2013-11-10T06:29:11+0000","like_count":2,"user_likes":false}},"paging":{"cursors":{"after":"NzU1NTQ3OTgxMTI4NTQ4","before":"NzU1NTQ3OTgxMTI4NTQ4"},"next":"https://graph.facebook.com/229244010425617_755534821129864/comments?limit=1&summary=1&after=NzU1NTQ3OTgxMTI4NTQ4"},"summary":{"order":"chronological","total_count":24}}}