{"id":"229244010425617_756176967732316","type":"photo","object_id":"658305217554827","picture":"https://fbcdn-photos-g-a.akamaihd.net/hphotos-ak-frc3/t1.0-0/1463046_658305217554827_313316315_s.jpg","link":"https://www.facebook.com/photo.php?fbid=658305217554827&set=pcb.756176967732316&type=1&relevant_count=3","from":{"id":"100001260645727","name":"Ngo Duy Son"},"message":"Hôm nay là　11月11日\nThấy số khá là đẹp nên là từ sáng mình đã nghi ngờ không biết hôm nay có là ngày gì hay ho không?\n\nHóa ra ở Nhật người ta gọi ngày này là ポッキーの日.\nVậy ポッキーlà gì mà lại có ngày riêng như vậy?\n\nỜ thực ra nó chả có gì đặc biệt, chỉ là một cái que kẹo một đầu thường nhúng vào chocolate . hết. @@\n\nĐể kỉ niệm ngày ポッキーの日: ở trường mình người ta bán hạ giá mấy que ポッキー. Ai có hóa đơn mua thì sẽ được bốc thăm miễn phí. Và mình bốc được cái cùi nhất và nhiều nhất, bonus một cái kẹo ( bên cạnh cái hộp ポッキーấy). Ngoài ra phần thưởng thì cũng còn vô vàn, và rất nhiều người đứng xếp hàng chờ bốc thăm (như trong ảnh).\n\nP/s: Vì chụp hình người ta là hơi vô duyên nên mình chỉ dám chụp trộm thôi, lia máy hơi nhanh nên ảnh bị mờ, mong các bạn thông cảm.\n\nChúc các bạn vui vẻ và hạnh phúc nhân ngày \"cái que\"-Cho nó dễ gọi^^!\nMong là bão qua nhanh!","created_time":"2013-11-11T04:03:33+0000","updated_time":"2013-11-11T05:52:44+0000","likes":{"data":{"100004253979918":{"id":"100004253979918","name":"Louis Hoàng Văn Thái"},"100000659425505":{"id":"100000659425505","name":"Nguyen Thanh Tung"},"100004457410741":{"id":"100004457410741","name":"Trịnh Hoàng Đức Lộc"},"100003489557712":{"id":"100003489557712","name":"Hòa Hoàng"},"100000050509472":{"id":"100000050509472","name":"Dũng Thanh Đặng"},"100003272717174":{"id":"100003272717174","name":"Hieu Nguyen"},"100000092418040":{"id":"100000092418040","name":"Thiên Chân"},"100002629655875":{"id":"100002629655875","name":"Đỗ Thế Phong"},"100004094346107":{"id":"100004094346107","name":"Thuy Nga Nguyen"},"792083330":{"id":"792083330","name":"Duc Le"},"100000339385551":{"id":"100000339385551","name":"Le Minh Trang"},"100003763768548":{"id":"100003763768548","name":"Nguyễn Dũng"},"1031089243":{"id":"1031089243","name":"Tiet Khai"},"100002826418598":{"id":"100002826418598","name":"Harry Minji"},"100002060967373":{"id":"100002060967373","name":"Mai Hoang"},"100003103961241":{"id":"100003103961241","name":"Nhung Nguyen"},"100001676558789":{"id":"100001676558789","name":"Dinh Quan"},"100001318098340":{"id":"100001318098340","name":"Trang Anh"},"100001359798024":{"id":"100001359798024","name":"November Gi"},"100003276418137":{"id":"100003276418137","name":"Hop Trinh"},"100001880901011":{"id":"100001880901011","name":"Số Không"},"100004398330290":{"id":"100004398330290","name":"Lam Linh"},"100004112258038":{"id":"100004112258038","name":"Chung Tran"},"100001594722256":{"id":"100001594722256","name":"Viết An Phạm"},"100004776940538":{"id":"100004776940538","name":"Kendy Lee"},"100006387723695":{"id":"100006387723695","name":"Hoa Minh"},"1744556343":{"id":"1744556343","name":"Thùy Dương"},"100001416272263":{"id":"100001416272263","name":"Mai PB"},"100000359762118":{"id":"100000359762118","name":"Mi Tra"},"100003177587874":{"id":"100003177587874","name":"Nguyễn Kiều Trinh"},"100001847199226":{"id":"100001847199226","name":"Tiến Trần Xuân"},"100004168804627":{"id":"100004168804627","name":"Yuki Aki"},"100005801442456":{"id":"100005801442456","name":"An Nguyen"},"100003209695375":{"id":"100003209695375","name":"Le Thien Nhi"},"100000045271667":{"id":"100000045271667","name":"Nam Thai Nguyen"},"100003227211791":{"id":"100003227211791","name":"Lan Lan"},"100001754136107":{"id":"100001754136107","name":"Nguyễn Tuấn Vũ"},"100005887419564":{"id":"100005887419564","name":"Cười Một Mình"},"100000971222044":{"id":"100000971222044","name":"Nhoc' Satoshi"},"100003691126317":{"id":"100003691126317","name":"竹井幸子"},"100003179905990":{"id":"100003179905990","name":"Trâm Yoko"},"100001458099624":{"id":"100001458099624","name":"Kham Pha"}},"paging":{"cursors":{"after":"MTAwMDA0MjUzOTc5OTE4","before":"MTAwMDA0MjUzOTc5OTE4"},"next":"https://graph.facebook.com/229244010425617_756176967732316/likes?limit=1&summary=1&after=MTAwMDA0MjUzOTc5OTE4"},"summary":{"total_count":43}},"comments":{"data":{"756194254397254":{"id":"756194254397254","from":{"id":"100001594722256","name":"Viết An Phạm"},"message":"Theo đứa bạn cùng lớp người Trung Quốc thì hôm nay 11/11 theo người Trung Quốc là ngày Độc thân, toàn số 1 lẻ loi. :) thú vị đấy cả nhà nhỉ.","can_remove":false,"created_time":"2013-11-11T04:47:39+0000","like_count":3,"user_likes":false},"756196167730396":{"id":"756196167730396","from":{"id":"1148962646","name":"Tran Thi Tuong Van"},"message":"Còn ở Hàn Quốc ngày hôm nay được xem là ngày Lễ Tình yêu của Hàn Quốc Pepero Day (빼빼로 데이). Vào ngày này các cặp đôi thường mua bánh Pepero để tặng cho nhau. Bánh Pepero cũng giống bánh ポッキー của Nhật, là loại bánh que nhúng Socola. Cùng 1 ngày mà theo văn hóa mỗi nước lại có một câu chuyện khác nhau. Thật thú vị! :)\n\"Pepero Day is an observance in South Korea similar to Valentine's Day. It is named after the Korean snack Pepero and held on November 11, since the date \"11/11\" resembles four sticks of Pepero. Pepero (빼빼로) is a cookie stick, dipped in compound chocolate, manufactured by Lotte Confectionery in South Korea since 1983. This product originated from pocky which is manufactured by a Japanese confectionery company Glico since 1966. (Source: Wikipedia)\"","can_remove":false,"created_time":"2013-11-11T04:55:41+0000","like_count":7,"user_likes":false},"756201261063220":{"id":"756201261063220","from":{"id":"100003763768548","name":"Nguyễn Dũng"},"message":"Hô hô hay nhỉ. Thế giờ mới biết. Tí mua Pocky cho cả quán ^^","can_remove":false,"created_time":"2013-11-11T05:13:54+0000","like_count":1,"user_likes":false},"756201354396544":{"id":"756201354396544","from":{"id":"100001260645727","name":"Ngo Duy Son"},"message":"Viết An Phạm: Rõ ràng là hai cặp đôi số 1 mà sao lại cho nó là lẻ loi được nhỉ?\nTran Thi Tuong Van: Hay vậy à?!!!","message_tags":[{"id":"100001594722256","name":"Viết An Phạm","type":"user","offset":0,"length":12},{"id":"1148962646","name":"Tran Thi Tuong Van","type":"user","offset":80,"length":18}],"can_remove":false,"created_time":"2013-11-11T05:14:13+0000","like_count":1,"user_likes":false},"756202124396467":{"id":"756202124396467","from":{"id":"100003763768548","name":"Nguyễn Dũng"},"message":"Tran Thi Tuong Van: cho xin luôn bản 日本語 và 한국어 luôn bạn ơi","can_remove":false,"created_time":"2013-11-11T05:18:06+0000","like_count":0,"user_likes":false},"756206474396032":{"id":"756206474396032","from":{"id":"1148962646","name":"Tran Thi Tuong Van"},"message":"Nguyễn Dũng Đây là bản tiếng Hàn. Bản tiếng Nhật xin nhờ cao nhân tiếng Nhật chỉ giáo ạ -_-\n\"빼빼로 데이는 대한민국의 독특한 기념일로, 밸런타인데이처럼 특정한 날에 초콜릿 과자인 빼빼로를 주고받는다. '11월 11일'의 숫자 1 네 개가 빼빼로를 세워 놓은 모양을 닮았다고 하여 기념일이 되었다. 현재 이 날은 젊은 층과 연인들 사이에서 빼빼로나 선물을 주고받는 날로 자리잡았으며 대한민국 최대규모의 데이행사일이 되었다.\"","message_tags":[{"id":"100003763768548","name":"Nguyễn Dũng","type":"user","offset":0,"length":11}],"can_remove":false,"created_time":"2013-11-11T05:32:13+0000","like_count":1,"user_likes":false},"756208927729120":{"id":"756208927729120","from":{"id":"100003763768548","name":"Nguyễn Dũng"},"message":"감사해요","can_remove":false,"created_time":"2013-11-11T05:39:32+0000","like_count":1,"user_likes":false},"756212144395465":{"id":"756212144395465","from":{"id":"1148962646","name":"Tran Thi Tuong Van"},"message":"Ngo Duy Son Mình không bình luận về tính hợp lý của câu chuyện, nhưng đúng là ở Trung Quốc hôm nay là Single Day :) Mình đã hỏi bạn Trung Quốc của mình rồi :)","message_tags":[{"id":"100001260645727","name":"Ngo Duy Son","type":"user","offset":0,"length":11}],"can_remove":false,"created_time":"2013-11-11T05:52:44+0000","like_count":1,"user_likes":false}},"paging":{"cursors":{"after":"NzU2MTk0MjU0Mzk3MjU0","before":"NzU2MTk0MjU0Mzk3MjU0"},"next":"https://graph.facebook.com/229244010425617_756176967732316/comments?limit=1&summary=1&after=NzU2MTk0MjU0Mzk3MjU0"},"summary":{"order":"chronological","total_count":8}}}