{"id":"229244010425617_756152674401412","type":"status","from":{"id":"100002906117290","name":"Phương Thanh Nguyễn"},"message":"THÔNG TIN TUYỂN ĐIỀU DƯỠNG VIÊN LÀM VIỆC TẠI NHẬT BẢN\n( Làm việc tại bệnh viện Sashudai - Nhật Bản )\n\nI. ĐIỀU KIỆN THAM GIA DỰ TUYỂN\n1, ĐỐI TƯỢNG DỰ TUYỂN:\n• Nam , nữ độ tuổi từ 19 đến 28 tuổi - Nam : cao 1m65, Nữ : cao 1m57 trở lên.• Tốt nghiệp trung cấp y , cao đẳng y, đại học y - chuyên nghành điều dưỡng.• Ưu tiên có kinh nghiệm thực tế \n• Sức khỏe tốt, không mắc các bệnh truyền nhiễm ( HIV, iêm gan B,...v.v)• Số lượng : 50 người\n2, THỜI GIAN NHẬN HỒ SƠ\n• Nhận hồ sơ từ ngày 15/10 đến ngày 10/11/ 2013.\n• Bắt đầu từ ngày 15/11/2013 đến 30/12/2013 đào tạo sơ cấp .\n• Kết thúc lớp sơ cấp học viên được phát mẫu đăng ký tham gia làm việc tại Bệnh viện Sashudai,\n• Đầu tháng 02/2014. Bắt đầu đào tạo chính thức 06 tháng. Học viên được trợ cấp 5.000.000 đ / tháng ( Tiền ở, tiền học và đào tạo tiếng ) tiền này trả cho trung tâm đào tạo, học viên không được lấy về. \n• Thời gian làm việc : tối thiểu 5 năm - cam kết không hủy ngang hợp đồng\nII. CHẾ ĐỘ ĐÃI NGỘ VÀ LƯƠNG .\n1, CHẾ ĐỘ ĐÃI NGỘ\n• Được làm việc trong môi trường chuyên nghiệp, an ninh đảm bảo\n• Được đóng bảo hiểm đầy đủ như các nhân viên người Nhật\n• Có chỗ ở miễn phí. Hết thời hạn hợp đồng có thể được gia hạn hoặc nhập quốc tịch.\n2, LƯƠNG + LÀM THÊM GIỜ :\n•06 tháng đầu tiên hưởng lương : 45 triệu/tháng ( tính ra tiền việt nam )\n•Từ tháng thứ 7 đến năm thứ 2 hưởng lương : 60 đến 80 triệu / tháng + các chế độ đãi ngộ như mục 1.II\n•Từ năm thứ 3 trở đi hưởng lương : từ 85 đến 120 triệu / tháng\n•Làm thêm được tính theo hệ số quy định, theo luật của Nhật Bản.\nMọi chi tiết xin liên hệ nhân viên Viện Nghiên Cứu Giáo Dục và Đào Tạo Hướng Nghiệp Đông Nam Á. Gặp Mr.Thuận 0963664623","created_time":"2013-11-11T03:08:55+0000","updated_time":"2013-11-11T04:15:46+0000","likes":{"data":{"100002916376886":{"id":"100002916376886","name":"Thủy Bee"},"100001520307352":{"id":"100001520307352","name":"Nguyen Sang"},"1283298041":{"id":"1283298041","name":"Búa Đức Thanh"},"100005566321381":{"id":"100005566321381","name":"Bin Lee"},"100000578806138":{"id":"100000578806138","name":"Dang Tung"}},"paging":{"cursors":{"after":"MTAwMDAyOTE2Mzc2ODg2","before":"MTAwMDAyOTE2Mzc2ODg2"},"next":"https://graph.facebook.com/229244010425617_756152674401412/likes?limit=1&summary=1&after=MTAwMDAyOTE2Mzc2ODg2"},"summary":{"total_count":5}},"comments":{"data":{"756158541067492":{"id":"756158541067492","from":{"id":"100002826418598","name":"Harry Minji"},"message":"hôm nay là 11/11 rồi mà bạn","can_remove":false,"created_time":"2013-11-11T03:20:07+0000","like_count":0,"user_likes":false},"756160751067271":{"id":"756160751067271","from":{"id":"100002906117290","name":"Phương Thanh Nguyễn"},"message":"Hic hết hôm nay vân được bạn à vì chưa đủ hồ sơ","can_remove":false,"created_time":"2013-11-11T03:26:41+0000","like_count":0,"user_likes":false},"756161231067223":{"id":"756161231067223","from":{"id":"100000273786070","name":"Dũng Yamato Dũng Yamato"},"message":"Người ơr nhật được ko mà bệnh viện nay ở tỉnh nào vậy bạn","can_remove":false,"created_time":"2013-11-11T03:27:52+0000","like_count":0,"user_likes":false},"756161521067194":{"id":"756161521067194","from":{"id":"100004690333649","name":"Thanh An"},"message":"Haiz. Het han. Ma minh con chua ra truong nua.","can_remove":false,"created_time":"2013-11-11T03:28:53+0000","like_count":0,"user_likes":false},"756172301066116":{"id":"756172301066116","from":{"id":"100002906117290","name":"Phương Thanh Nguyễn"},"message":"Bệnh viện này ở Tokyo","message_tags":[{"id":"100005050537429","name":"Tokyo","type":"user","offset":16,"length":5}],"can_remove":false,"created_time":"2013-11-11T03:48:01+0000","like_count":0,"user_likes":false},"756172834399396":{"id":"756172834399396","from":{"id":"100004690333649","name":"Thanh An"},"message":"Đi mất phí bn vậy ạ?","can_remove":false,"created_time":"2013-11-11T03:49:48+0000","like_count":0,"user_likes":false},"756173367732676":{"id":"756173367732676","from":{"id":"100002906117290","name":"Phương Thanh Nguyễn"},"message":"5.500 USD","can_remove":false,"created_time":"2013-11-11T03:51:15+0000","like_count":0,"user_likes":false},"756173437732669":{"id":"756173437732669","from":{"id":"100002906117290","name":"Phương Thanh Nguyễn"},"message":"phí đi","can_remove":false,"created_time":"2013-11-11T03:51:36+0000","like_count":0,"user_likes":false},"756180047732008":{"id":"756180047732008","from":{"id":"100002906117290","name":"Phương Thanh Nguyễn"},"message":"Bên đó đang tuyển nhân viên tại Việt Nam đi bạn ạ","can_remove":false,"created_time":"2013-11-11T04:15:03+0000","like_count":0,"user_likes":false},"756180177731995":{"id":"756180177731995","from":{"id":"100002906117290","name":"Phương Thanh Nguyễn"},"message":"Các bạn quan tâm có thể điện thoại trực tiếp đến số dt 0963664623 nhé,  có thể nhận hồ sơ đến 15-11 nhé.","can_remove":false,"created_time":"2013-11-11T04:15:42+0000","like_count":0,"user_likes":false},"756180204398659":{"id":"756180204398659","from":{"id":"100002906117290","name":"Phương Thanh Nguyễn"},"message":"thanks các bạn.","can_remove":false,"created_time":"2013-11-11T04:15:46+0000","like_count":0,"user_likes":false}},"paging":{"cursors":{"after":"NzU2MTU4NTQxMDY3NDky","before":"NzU2MTU4NTQxMDY3NDky"},"next":"https://graph.facebook.com/229244010425617_756152674401412/comments?limit=1&summary=1&after=NzU2MTU4NTQxMDY3NDky"},"summary":{"order":"chronological","total_count":11}}}