{"id":"229244010425617_756425587707454","type":"photo","object_id":"602156429841561","picture":"https://fbcdn-photos-f-a.akamaihd.net/hphotos-ak-frc3/t1.0-0/1470377_602156429841561_1465476114_s.jpg","link":"https://www.facebook.com/photo.php?fbid=602156429841561&set=gm.756425587707454&type=1&relevant_count=1","from":{"id":"100001416272263","name":"Mai PB"},"message":"Arienai?","created_time":"2013-11-11T13:26:55+0000","updated_time":"2013-11-14T01:54:39+0000","likes":{"data":{"100000722821505":{"id":"100000722821505","name":"Saphia Quỳnh Như"},"100001723862714":{"id":"100001723862714","name":"Bo Bien Vang"},"100002327743510":{"id":"100002327743510","name":"Tuan Thanh"},"1845000884":{"id":"1845000884","name":"Trieu Thi Kieu Oanh"},"100001594722256":{"id":"100001594722256","name":"Viết An Phạm"},"100000221648144":{"id":"100000221648144","name":"Nguyen Hung"},"100004094346107":{"id":"100004094346107","name":"Thuy Nga Nguyen"},"100000064686295":{"id":"100000064686295","name":"Huy Roli"},"100004360751785":{"id":"100004360751785","name":"Hà Nguyễn"},"100001754136107":{"id":"100001754136107","name":"Nguyễn Tuấn Vũ"},"1816269439":{"id":"1816269439","name":"Dao Ngoc"},"100002589963683":{"id":"100002589963683","name":"Hà Văn Tuấn"},"100001520307352":{"id":"100001520307352","name":"Nguyen Sang"},"1146680551":{"id":"1146680551","name":"優しい なぁ"}},"paging":{"cursors":{"after":"MTAwMDAwNzIyODIxNTA1","before":"MTAwMDAwNzIyODIxNTA1"},"next":"https://graph.facebook.com/229244010425617_756425587707454/likes?limit=1&summary=1&after=MTAwMDAwNzIyODIxNTA1"},"summary":{"total_count":16}},"comments":{"data":{"756435921039754":{"id":"756435921039754","from":{"id":"100001754136107","name":"Nguyễn Tuấn Vũ"},"message":"超安値","can_remove":false,"created_time":"2013-11-11T13:44:37+0000","like_count":0,"user_likes":false},"756708641012482":{"id":"756708641012482","from":{"id":"100003763768548","name":"Nguyễn Dũng"},"message":"Vấn đề của bài này là gì nhỉ?","can_remove":false,"created_time":"2013-11-12T00:27:17+0000","like_count":0,"user_likes":false},"756728154343864":{"id":"756728154343864","from":{"id":"100001416272263","name":"Mai PB"},"message":"Là ứng dụng của từ arienai trong thực tế.","can_remove":false,"created_time":"2013-11-12T00:57:43+0000","like_count":1,"user_likes":false},"756840674332612":{"id":"756840674332612","from":{"id":"100001594722256","name":"Viết An Phạm"},"message":"Trước khi ứng dụng thì nghĩa của nó là gì đã anh ơi. ;)","can_remove":false,"created_time":"2013-11-12T05:16:33+0000","like_count":1,"user_likes":false},"756844760998870":{"id":"756844760998870","from":{"id":"100000381394367","name":"Thành Nguyễn"},"message":"Từ này ai cũng biết mà, nếu nói ra thì Viết An Phạm  sẽ lại à lên 1 tiếng,vấn đề không phải ở ngôn ngữ. Nhìn kỹ và nghĩ lại một chút là được.","message_tags":[{"id":"100001594722256","name":"Viết An Phạm","type":"user","offset":39,"length":12}],"can_remove":false,"created_time":"2013-11-12T05:28:31+0000","like_count":1,"user_likes":false},"756848220998524":{"id":"756848220998524","from":{"id":"100001594722256","name":"Viết An Phạm"},"message":"Sau khi nhìn kỹ, nghĩ lại 1 chút và nhờ cái từ điển em đã hiểu ra. Nhưng mà hình như từ này ko phải là từ gốc pk anh? Nó ghép bởi chư 有り và 得る nên tra từ điển ko được rõ nghĩa.","can_remove":false,"created_time":"2013-11-12T05:37:24+0000","like_count":0,"user_likes":false},"756856607664352":{"id":"756856607664352","from":{"id":"100004094346107","name":"Thuy Nga Nguyen"},"message":"Từ này ý nghĩa là : Không thể làm được/ không thể thực hiện được phải ko nhỉ!","can_remove":false,"created_time":"2013-11-12T06:08:03+0000","like_count":0,"user_likes":false},"756863707663642":{"id":"756863707663642","from":{"id":"100001594722256","name":"Viết An Phạm"},"message":"Kiểu như giá rẻ không thể rẻ hơn, rẻ không tưởng ấy mà.","can_remove":false,"created_time":"2013-11-12T06:37:54+0000","like_count":3,"user_likes":false},"756864310996915":{"id":"756864310996915","from":{"id":"100001594722256","name":"Viết An Phạm"},"message":"Like là đúng phải không anh Thành Nguyễn? Hì","message_tags":[{"id":"100000381394367","name":"Thành Nguyễn","type":"user","offset":28,"length":12}],"can_remove":false,"created_time":"2013-11-12T06:40:38+0000","like_count":0,"user_likes":false},"756864627663550":{"id":"756864627663550","from":{"id":"100000381394367","name":"Thành Nguyễn"},"message":"Từ 有り 得る trong tiếng Nhật xếp vào loại 複合動詞 ( tiếng Anh gọi là compound verb )  Xét về mặt chức năng ngữ pháp nó được xem là một động từ độc lập, tất nhiên về mặt ngữ nghĩa thì nó có gốc từ 2 từ như An đã chỉ ra. Các động từ phức hợp đều cấu tạo từ các động từ thông thường như vậy cả, nghĩa của nó sẽ bao hàm nghĩa của 2 động từ gốc, đôi khi có một vài trường hợp nó mang nghĩa khác. Ở câu này 有り  là to be, phủ định của 得る  thêm vào các ghép với các động từ khác làm cho nghĩa của động từ trước nó trở thành nghĩa phủ định về mặt khả năng kiểu imposible, cannot. Ở đây là không thể xảy ra, giá rẻ tới mức không thể tin nổi","can_remove":false,"created_time":"2013-11-12T06:42:39+0000","like_count":1,"user_likes":false},"756866050996741":{"id":"756866050996741","from":{"id":"100001594722256","name":"Viết An Phạm"},"message":"Học những loại 複合動詞 như anh nói vừa có cái tiện là khá dễ nhớ, có thể hiểu được nghĩa khi nhìn vào chữ kanji, nhưng mà cũng làm người học dễ đau đầu vì nó ghép quá nhiều và ko biết dùng trong trường hợp nào.","can_remove":false,"created_time":"2013-11-12T06:49:13+0000","like_count":1,"user_likes":false},"757147254301954":{"id":"757147254301954","from":{"id":"100000381394367","name":"Thành Nguyễn"},"message":"Nó cũng giống tiếng Việt thôi mà, ví dụ từ đi ghép với từ ra thành đi ra, từ ném ghép với từ đi thành ném đi, tiếng Anh cũng tương tự thế. Cách hình thành các từ này hết sức tự nhiên thôi.","can_remove":false,"created_time":"2013-11-12T17:50:24+0000","like_count":1,"user_likes":false},"757648237585189":{"id":"757648237585189","from":{"id":"1146680551","name":"優しい なぁ"},"message":"\"unbelievable\" e vẫn tưởng nó là từ này","can_remove":false,"created_time":"2013-11-13T16:30:49+0000","like_count":0,"user_likes":false},"757876234229056":{"id":"757876234229056","from":{"id":"100000381394367","name":"Thành Nguyễn"},"message":"Thì nó vẫn đúng là từ này còn gì, nếu xét về nghĩa chiết tự thì nó là unhappen, trong quảng cáo thì nó là cách dùng thậm xưng để thu hút sự chú ý, còn khi dịch thì hoàn toàn có thể dịch là unbelievable","can_remove":false,"created_time":"2013-11-14T01:54:39+0000","like_count":0,"user_likes":false}},"paging":{"cursors":{"after":"NzU2NDM1OTIxMDM5NzU0","before":"NzU2NDM1OTIxMDM5NzU0"},"next":"https://graph.facebook.com/229244010425617_756425587707454/comments?limit=1&summary=1&after=NzU2NDM1OTIxMDM5NzU0"},"summary":{"order":"chronological","total_count":14}}}