{"id":"229244010425617_756460461037300","type":"status","from":{"id":"100004617871532","name":"Tran Luong Cam Tu"},"message":"Em xin được hỏi các anh chị cái này,mong mọi người chỉ giáo giúp cho em với ạh.Các anh chị có thể cho em biết sự khác nhau giữa :\n+ 屋敷\n＋建物\n＋一戸建て\n＋ビル\n\n＋アパート\n＋マンション\n\nどうもありがとうございます。","created_time":"2013-11-11T14:27:35+0000","updated_time":"2013-11-12T10:23:31+0000","likes":{"data":{"1830001967":{"id":"1830001967","name":"Chiến Nguyễn"},"100001520307352":{"id":"100001520307352","name":"Nguyen Sang"},"100001458099624":{"id":"100001458099624","name":"Kham Pha"},"100007066140354":{"id":"100007066140354","name":"Tuyen Nguyen Tien"},"100005887419564":{"id":"100005887419564","name":"Cười Một Mình"},"100001079726837":{"id":"100001079726837","name":"Hatenai Yume"},"100003489557712":{"id":"100003489557712","name":"Hòa Hoàng"},"100002833803367":{"id":"100002833803367","name":"Hoang Anh Luong"},"100003049639881":{"id":"100003049639881","name":"Truong Luvuxy"},"1283298041":{"id":"1283298041","name":"Búa Đức Thanh"}},"paging":{"cursors":{"after":"MTgzMDAwMTk2Nw==","before":"MTgzMDAwMTk2Nw=="},"next":"https://graph.facebook.com/229244010425617_756460461037300/likes?limit=1&summary=1&after=MTgzMDAwMTk2Nw%3D%3D"},"summary":{"total_count":11}},"comments":{"data":{"756463687703644":{"id":"756463687703644","from":{"id":"100003259252978","name":"Biết Đâu Bất Ngờ"},"message":"kioshitsu la phong hoc, tatemono la toa nha, biru la toa nha cao to hon tatemono, apato la cua hang tap hoa , con cai cuoi cung la nha chung cu, hinh nhu la the , hjhj","can_remove":false,"created_time":"2013-11-11T14:35:17+0000","like_count":1,"user_likes":false},"756463787703634":{"id":"756463787703634","from":{"id":"100004617871532","name":"Tran Luong Cam Tu"},"message":"Anh Bua Duc Thanh và anh Truong Lubuxy có thể giải thích giúp em không ạh.Mọi người cứ like thế này...hic...hic...bế tắc quá :3","can_remove":false,"created_time":"2013-11-11T14:35:37+0000","like_count":0,"user_likes":false},"756465987703414":{"id":"756465987703414","from":{"id":"1146680551","name":"優しい なぁ"},"message":"http://lagudi.net/ xài cái này sẽ giúp e nắm rõ hơn.","can_remove":false,"created_time":"2013-11-11T14:40:12+0000","like_count":1,"user_likes":false},"756471681036178":{"id":"756471681036178","from":{"id":"1283298041","name":"Búa Đức Thanh"},"message":"Định ko trả lời mà em lôi đich danh rồi, nên cố gắng vậy,\nAnh chỉ biết 4 cái sau, 2 cái đầu ko rõ nhé,\n一戸建て là nhà nguyên căn, kiểu nhà truyền thống, tức là trên mảnh đất, chỉ có 1 căn nhà, có thể có vườn hoặc sân nhỏ,1 hay 2 tầng là tuỳ,thường thì 1 hộ gia đình ở.\nビル, có nghĩa là toà nhà, thường thì cao tầng, ở những tầng dưới thường là cho thuê măt bằng để kinh doanh, ở trên thì hoặc là để ở, hoặc là văn phòng làm việc.\nアパートとマンションthì là căn hộ thôi, có điều mansion thì cao cấp hơn, thường thì sẽ nằm trong ビル","can_remove":false,"created_time":"2013-11-11T14:52:28+0000","like_count":4,"user_likes":false},"756472557702757":{"id":"756472557702757","from":{"id":"1283298041","name":"Búa Đức Thanh"},"message":"Từ số 2 anh ko biết nhưng theo nghĩa Han Việt, là kiến vật, anh đoán nó chỉ chung hết cái đám còn lại, tưc là cái nào mà ng ta xây nên thì đều dùng chung từ đó đc","can_remove":false,"created_time":"2013-11-11T14:54:16+0000","like_count":3,"user_likes":false},"756474894369190":{"id":"756474894369190","from":{"id":"100001079726837","name":"Hatenai Yume"},"message":"theo từ điển thì từ số 1 là nhà đất có nghĩa là tính đất để xây nhà lun! :3","can_remove":false,"created_time":"2013-11-11T14:58:26+0000","like_count":1,"user_likes":false},"756478251035521":{"id":"756478251035521","from":{"id":"100004281672422","name":"Ngọc Nhi"},"message":"m.n ơi. e mún học tiếng nhật thì học ở đâu. chỉ giùm e zới. ^^!","can_remove":false,"created_time":"2013-11-11T15:03:23+0000","like_count":0,"user_likes":false},"756484711034875":{"id":"756484711034875","from":{"id":"100004617871532","name":"Tran Luong Cam Tu"},"message":"Ủn Ngốc,Đông Du thẳng tiến em nhé :)","message_tags":[{"id":"100004281672422","name":"Ủn Ngốc","type":"user","offset":0,"length":7}],"can_remove":false,"created_time":"2013-11-11T15:16:29+0000","like_count":0,"user_likes":false},"756485274368152":{"id":"756485274368152","from":{"id":"100001079726837","name":"Hatenai Yume"},"message":"vào tphcm đi chị Tú dạy cho! :v","can_remove":false,"created_time":"2013-11-11T15:17:15+0000","like_count":0,"user_likes":false},"756518181031528":{"id":"756518181031528","from":{"id":"100003972262291","name":"Đức Toàn"},"message":"zở sách ra mà ngẫm","can_remove":false,"created_time":"2013-11-11T16:28:15+0000","like_count":0,"user_likes":false},"756610561022290":{"id":"756610561022290","from":{"id":"100005801442456","name":"An Nguyen"},"message":" Ngoài ra còn có 物件ーぶっけん có nghĩa nhà cửa nói chung, thường được dùng trong Bất động sản, ví dụ như khi đi thuê nhà chẳng hạn. Còn cách để tra từ hiệu quả là e nên gõ từ đó lên google hình ảnh nhìn là biết thôi.","can_remove":false,"created_time":"2013-11-11T20:04:42+0000","like_count":0,"user_likes":false},"756623294354350":{"id":"756623294354350","from":{"id":"100007066140354","name":"Tuyen Nguyen Tien"},"message":"3:)","can_remove":false,"created_time":"2013-11-11T20:45:16+0000","like_count":0,"user_likes":false},"756681314348548":{"id":"756681314348548","from":{"id":"100004617871532","name":"Tran Luong Cam Tu"},"message":"Hatenai Yume,đừng xúi dại em ấy","message_tags":[{"id":"100001079726837","name":"Hatenai Yume","type":"user","offset":0,"length":12}],"can_remove":false,"created_time":"2013-11-11T23:09:01+0000","like_count":1,"user_likes":false},"756822214334458":{"id":"756822214334458","from":{"id":"100000070752758","name":"Yen Panda"},"message":"+ 屋敷: yashiki - biệt thự\n＋建物: tatemono: tòa nhà (theo mình đc biết là kiểu tòa nhà cao tầng thuê làm vp ý)\n＋一戸建て: ikkoudate - nhà riêng, nhà nguyên căn mình ở ý, chứ ko kiểu aparment hay chung cư\n＋ビル: biiru - thông thg mình học thì cái này bằng từ thứ 2 - tatemono ở trên ý, cũng là tòa nhà cao tầng\n＋アパート: apaato - theo mình đc biết là kiểu nhà tập thể 2-3 tầng ở bên nhật hay dùng để cho thuê ý, \n＋マンション: manshon - kiểu chung cư cao cấp, xây nhiều tầng,và tiện nghi như royal city, time city chứ ko kiểu chung cư bình dân khác như ở VN","can_remove":false,"created_time":"2013-11-12T04:08:51+0000","like_count":1,"user_likes":false},"756822994334380":{"id":"756822994334380","from":{"id":"100000070752758","name":"Yen Panda"},"message":"bạn Biet dau bat ngo, bị nhầm từ đầu, ko phải kyoushitsu đâu, từ apaato (nahf kiểu tập thể) chứ ko phải depaato (cửa hàng bách hóa)","can_remove":false,"created_time":"2013-11-12T04:11:21+0000","like_count":0,"user_likes":false},"756834894333190":{"id":"756834894333190","from":{"id":"100004281672422","name":"Ngọc Nhi"},"message":"các a c ơi. e đang ở hải phòng. hp có chỗ nào k ạ.","can_remove":false,"created_time":"2013-11-12T04:56:11+0000","like_count":0,"user_likes":false},"756835227666490":{"id":"756835227666490","from":{"id":"100004281672422","name":"Ngọc Nhi"},"message":"e chưa být gì về tiếng nhật hết. e mún học để giao tiếp tốt ấy.","can_remove":false,"created_time":"2013-11-12T04:57:17+0000","like_count":0,"user_likes":false},"756861820997164":{"id":"756861820997164","from":{"id":"100001813175379","name":"Huyen Nguyen"},"message":"Apaato theo em là nhà tập thể, nhưng tường mỏng (có nhiều nhà lấy tay đập mạnh là tường thủng), không chắc chắn, ko cách âm được tốt\nManshon thì cũng là nhà tập thể, nhưng xây kiên cố hơn, chống đc mưa gió động đất tốt hơn.","can_remove":false,"created_time":"2013-11-12T06:32:28+0000","like_count":0,"user_likes":false},"756863194330360":{"id":"756863194330360","from":{"id":"100000070752758","name":"Yen Panda"},"message":"apaato: https://www.google.com.vn/search?q=apaato&tbm=isch&tbo=u&source=univ&sa=X&ei=98uBUsWMMsjyiAf66oCoBQ&sqi=2&ved=0CDUQsAQ&biw=1280&bih=854#facrc=_&imgrc=GmmdQwr5IkmumM%3A%3ByGuKB_s6uzkDbM%3Bhttp%253A%252F%252Fupload.wikimedia.org%252Fwikipedia%252Fcommons%252Fd%252Fd5%252FApaato.jpg%3Bhttp%253A%252F%252Fcommons.wikimedia.org%252Fwiki%252FFile%253AApaato.jpg%3B1536%3B1152","can_remove":false,"created_time":"2013-11-12T06:35:39+0000","like_count":0,"user_likes":false},"756863320997014":{"id":"756863320997014","from":{"id":"100000070752758","name":"Yen Panda"},"message":"manshon http://www.google.com.vn/imgres?imgurl=http://4.bp.blogspot.com/-D-7JbgwmGyI/TgYZUaICxCI/AAAAAAAAAMM/_Q4V_9ziDqU/s1600/IMG_3755.JPG&imgrefurl=http://natsukomorebi.blogspot.com/2011_06_01_archive.html&h=1600&w=1067&sz=208&tbnid=7VI_Ey35VsqocM:&tbnh=90&tbnw=60&zoom=1&usg=__tol1DXrVvHd6c1T6x4OzobGdRHY=&docid=U25DtDje9iDfJM&sa=X&ei=HsyBUqzYNI31iQfEhYH4CA&ved=0CGQQ9QEwBw","can_remove":false,"created_time":"2013-11-12T06:36:04+0000","like_count":0,"user_likes":false},"756863797663633":{"id":"756863797663633","from":{"id":"100000070752758","name":"Yen Panda"},"message":"theo mình thấy Nhật chịu nhiều động đất, nếu mà nahf ko chắc chắn thì hơi muri 1 chút, apaato nếu bạn nào hay xem phim nhật thì nó là khu tập thể cỡ 2-3 tầng là phổ biến, cũng có cái 4 -5 tầng, 1 thường có 3-5 căn hộ nhỏ. manshon là loại chung cư cao tầng cũng như cao cấp hơn, diện tích rộng hơn","can_remove":false,"created_time":"2013-11-12T06:38:28+0000","like_count":0,"user_likes":false},"756928610990485":{"id":"756928610990485","from":{"id":"100004595223900","name":"Meo Mi"},"message":"Phân biệt Mansion và Apato: 1. Apato là khuchung cư chỉ có tối đa 2 tầng, thường được xây dựng bằng gỗ hoặc dạng cốt thép nhẹ. 2. Mansion cũng là khu chung cư nhưng  không bị hạn chế về số tầng, ko xây bằng gỗ mà hoàn toàn bằng bê tông cốt thép.3. Tiền thuê/ mua mansion đắt hơn tiền thuê/mua apato :).","can_remove":false,"created_time":"2013-11-12T09:51:02+0000","like_count":0,"user_likes":false},"756937947656218":{"id":"756937947656218","from":{"id":"100001580479641","name":"Hà Xuân Thủy"},"message":"Toà nhà dùng để ở, sinh sống là マンション、toà nhà dùng để để cho thuê, làm cty,...là ビル。\nCòn lại thì phần comment phía trên đã đc giải thích.","can_remove":false,"created_time":"2013-11-12T10:23:31+0000","like_count":1,"user_likes":false}},"paging":{"cursors":{"after":"NzU2NDYzNjg3NzAzNjQ0","before":"NzU2NDYzNjg3NzAzNjQ0"},"next":"https://graph.facebook.com/229244010425617_756460461037300/comments?limit=1&summary=1&after=NzU2NDYzNjg3NzAzNjQ0"},"summary":{"order":"chronological","total_count":23}}}