{"id":"229244010425617_756920744324605","type":"photo","object_id":"719778914701520","picture":"https://fbcdn-photos-b-a.akamaihd.net/hphotos-ak-ash4/t1.0-0/374477_719778914701520_1916577846_s.jpg","link":"https://www.facebook.com/BBCVietnamese/photos/a.269955539683862.78656.228458913833525/719778914701520/?type=1","from":{"id":"100001416272263","name":"Mai PB"},"message":"Vì sao Nhật Bản luôn đi đầu trong việc viện trợ các nơi gặp khó khăn trên thế giới? Vì \"giàu\"?","created_time":"2013-11-12T09:11:50+0000","updated_time":"2013-11-12T11:10:45+0000","likes":{"data":{"100004005510336":{"id":"100004005510336","name":"Minh Đức"},"100000200165187":{"id":"100000200165187","name":"Tu Anh Nguyen Phan"},"100001802076152":{"id":"100001802076152","name":"Hoang Thanh Dong"},"100001588310557":{"id":"100001588310557","name":"Trang Min"},"100000438877828":{"id":"100000438877828","name":"Teng Chil"},"100004889430124":{"id":"100004889430124","name":"Quiet Man"},"100004346623532":{"id":"100004346623532","name":"Chiisai Namida"},"100002327743510":{"id":"100002327743510","name":"Tuan Thanh"},"1680355585":{"id":"1680355585","name":"Bảo Châu"},"100000215142696":{"id":"100000215142696","name":"Tăng Anh Thư"},"100004642933206":{"id":"100004642933206","name":"Aloha Aloha"},"100001260645727":{"id":"100001260645727","name":"Ngo Duy Son"},"100002157379029":{"id":"100002157379029","name":"Nguyen Hai Dung"},"100002171614032":{"id":"100002171614032","name":"Nhat Truong Giang"},"100006767705219":{"id":"100006767705219","name":"Kim Liên"},"100003762427351":{"id":"100003762427351","name":"Hiroshi Yasu Oki"},"100005801442456":{"id":"100005801442456","name":"An Nguyen"},"1082956399":{"id":"1082956399","name":"Danny Dee Nguyen IE"},"100005334430359":{"id":"100005334430359","name":"Mưa Lạnh"},"100000128764209":{"id":"100000128764209","name":"Chau Le"},"100001848885057":{"id":"100001848885057","name":"Tiểu Mỡ Nhi"},"100000128242314":{"id":"100000128242314","name":"Nagayama Sei"},"100003019923910":{"id":"100003019923910","name":"Luân Pig"},"100003702043787":{"id":"100003702043787","name":"Hằng Hanu"},"100001807609603":{"id":"100001807609603","name":"Nguyễn Khánh Huyền"},"100003125522026":{"id":"100003125522026","name":"Giang Nguyen"},"100002137253818":{"id":"100002137253818","name":"Anh Khoa"},"100002567105508":{"id":"100002567105508","name":"Hong Do"},"100001754136107":{"id":"100001754136107","name":"Nguyễn Tuấn Vũ"},"100004253979918":{"id":"100004253979918","name":"Louis Hoàng Văn Thái"},"1816269439":{"id":"1816269439","name":"Dao Ngoc"},"100003850641990":{"id":"100003850641990","name":"Lê Trang"},"100004094346107":{"id":"100004094346107","name":"Thuy Nga Nguyen"},"100002871405403":{"id":"100002871405403","name":"Thach Sanh"},"100003074092549":{"id":"100003074092549","name":"Hạnh Phạm Phạm"},"100003142097064":{"id":"100003142097064","name":"Thu Hương Ngô"},"100000971222044":{"id":"100000971222044","name":"Nhoc' Satoshi"},"100001458099624":{"id":"100001458099624","name":"Kham Pha"},"100001359798024":{"id":"100001359798024","name":"November Gi"}},"paging":{"cursors":{"after":"MTAwMDA0MDA1NTEwMzM2","before":"MTAwMDA0MDA1NTEwMzM2"},"next":"https://graph.facebook.com/229244010425617_756920744324605/likes?limit=1&summary=1&after=MTAwMDA0MDA1NTEwMzM2"},"summary":{"total_count":41}},"comments":{"data":{"756928460990500":{"id":"756928460990500","from":{"id":"1813611352","name":"To Đùng"},"message":"Cảnh cáo Dinh Huu Hao lần 1.\nYêu cầu sử dụng tiếng Việt. Không sử dụng lời lẽ khiếm nhã.","message_tags":[{"id":"100003140247721","name":"Dinh Huu Hao","type":"user","offset":9,"length":12}],"can_remove":false,"created_time":"2013-11-12T09:50:29+0000","like_count":0,"user_likes":false},"756937417656271":{"id":"756937417656271","from":{"id":"100005504642044","name":"Võ Tú Duyên"},"message":"Philippines giúp Nhật qua đại nạn thì giờ Nhật giúp lại thui mà, Nhật vốn mang ơn các nước đã giúp đỡ trong trận lịch sử động đất - sóng thần 2011","can_remove":false,"created_time":"2013-11-12T10:20:34+0000","like_count":0,"user_likes":false},"756937870989559":{"id":"756937870989559","from":{"id":"100003140247721","name":"Dinh Huu Hao"},"message":"Sorry To Đùng qua bên này sống đi rùi bít... hic hic nó hok tốt như vậy đâu..Nhật Bản chỉ coi trọng dân Mỹ và Đức còn các dân tộc khác là hạ đẳng.. hic hic","message_tags":[{"id":"1813611352","name":"To Đùng","type":"user","offset":6,"length":7}],"can_remove":false,"created_time":"2013-11-12T10:23:04+0000","like_count":3,"user_likes":false},"756947927655220":{"id":"756947927655220","from":{"id":"1813611352","name":"To Đùng"},"message":"dù là như vậy đi nữa mình cũng không nên nói ra bạn ạ. nó làm mất hình ảnh, ảnh hướng tới suy nghĩ của những người khác. Nếu đúng là như thế thật thì hãy để mọi người tự cảm nhận và tự phán xét theo quan điểm riêng thì tốt hơn.","can_remove":false,"created_time":"2013-11-12T10:56:56+0000","like_count":1,"user_likes":false},"756951140988232":{"id":"756951140988232","from":{"id":"100005801442456","name":"An Nguyen"},"message":"Nói 1 câu thế này cho bạn dễ hiểu! \nNếu bạn ra đường thì 10 người hết 9 người bảo bạn người  trung quốc rồi! Vậy tại sao bạn vẫn đối xử bình đẳng trong csong và vẫn có thể đi làm được bên này? Trong khi mối quan hệ trung Nhật đang ở thời kì chả khác gì sắp chiến tranh! Bạn cứ nghĩ đơn giản thế này, việc tranh chấp đảo giữa Việt Trung tuy rất gay gắt nhưng chính quyền không muốn làm to lên thì người dân Việt đi đâu cũng thể hiện cách chống đối trung quốc bằng cách rất kích động như : đòi đánh đòi giết .v..vv. Vậy thử nghĩ nếu bạn là 1 người trung quốc mà sống ở Việt Nam học tập ở Việt Nam thì bạn có được đối xử giống như ở Nhật thế này?","can_remove":false,"created_time":"2013-11-12T11:10:45+0000","like_count":2,"user_likes":false}},"paging":{"cursors":{"after":"NzU2OTI4NDYwOTkwNTAw","before":"NzU2OTI4NDYwOTkwNTAw"},"next":"https://graph.facebook.com/229244010425617_756920744324605/comments?limit=1&summary=1&after=NzU2OTI4NDYwOTkwNTAw"},"summary":{"order":"chronological","total_count":6}}}