{"id":"229244010425617_757058774310802","type":"photo","object_id":"177356409134406","picture":"https://fbcdn-photos-g-a.akamaihd.net/hphotos-ak-frc3/t1.0-0/1470348_177356409134406_957175986_s.jpg","link":"https://www.facebook.com/photo.php?fbid=177356409134406&set=gm.757058774310802&type=1&relevant_count=1","from":{"id":"100005801442456","name":"An Nguyen"},"message":"NHỮNG CLIP THÚ VỊ VỀ NHẬT BẢN:\n\nClip 3 : TOKYO THÀNH PHỐ KHÔNG BAO GIỜ NGỦ!\n\nBạn yêu thành phố này chứ? Riêng tôi、tôi yêu nó từ ngày đặt chân lần đầu tới Nhật, chỉ vội kịp bắt xe bus từ Narita về tokyo và đi tàu về thành phố mình sống, nhưng những toà nhà trọc trời , những dòng sông uốn lượn ở 御茶ノ水 、hình ảnh các con đường cao tốc tầng tầng lớp lớp được nhìn qua khung cửa xe cũng làm cho tôi có quyết tâm vào 1 ngày nào đó phải sống tại đây!\n\nClip này thực hiện đa phần cảnh ở 渋谷 và 六本木。Vậy bạn có biết, nếu nói về 1 điểm giao thông mà có mật độ người tham gia đông nhất thì không nơi nào khác chính là ngã tư 渋谷❗️\n\nhttp://m.youtube.com/watch?v=d-ChRZunYaw&desktop_uri=%2Fwatch%3Fv%3Dd-ChRZunYaw","created_time":"2013-11-12T15:27:44+0000","updated_time":"2014-04-03T06:29:21+0000","likes":{"data":{"100004299274310":{"id":"100004299274310","name":"Jenny Sakura"},"100007235437741":{"id":"100007235437741","name":"Trang Virgo"},"100001745266291":{"id":"100001745266291","name":"Nguyen Huymen"},"100004374573625":{"id":"100004374573625","name":"Theu Vu"},"100003099325550":{"id":"100003099325550","name":"Thoa le Bao"},"100004523286018":{"id":"100004523286018","name":"Ryoma Hashiguchi"},"100003925839293":{"id":"100003925839293","name":"Cậu Sáu Diamond"},"100001526631937":{"id":"100001526631937","name":"Tường Oanh Mineko"},"100001246294733":{"id":"100001246294733","name":"Lan Ruby"},"100003059002710":{"id":"100003059002710","name":"Hạnh Nhân"},"100000560049048":{"id":"100000560049048","name":"Thuy Trang Ddo"},"569263718":{"id":"569263718","name":"Phuong Thao Tran"},"100003025648904":{"id":"100003025648904","name":"Hoa Nắng"},"100004085601482":{"id":"100004085601482","name":"Diu Tran"},"100004716640495":{"id":"100004716640495","name":"Thúy An Dương"},"100001723862714":{"id":"100001723862714","name":"Bo Bien Vang"},"100004095967794":{"id":"100004095967794","name":"Key Panda"},"100000215142696":{"id":"100000215142696","name":"Tăng Anh Thư"},"100004291057875":{"id":"100004291057875","name":"Thân Cao"},"100000314753906":{"id":"100000314753906","name":"Lén Má Yêu Anh"},"1082956399":{"id":"1082956399","name":"Danny Dee Nguyen IE"},"100006711245076":{"id":"100006711245076","name":"Thi Ly Le"},"1392762854":{"id":"1392762854","name":"Đỗ Minh Thu"},"100002871405403":{"id":"100002871405403","name":"Thach Sanh"},"100000271705877":{"id":"100000271705877","name":"Nguyễn Văn Minh"},"100006794583161":{"id":"100006794583161","name":"Anh Thắng"},"100006552360624":{"id":"100006552360624","name":"Quỳnh Anh Chuu"},"100002941809570":{"id":"100002941809570","name":"Hằng Nguyễn"},"100004126602815":{"id":"100004126602815","name":"Long Xương"},"100003599920499":{"id":"100003599920499","name":"ふゆ はな"},"100002327743510":{"id":"100002327743510","name":"Tuan Thanh"},"100005857120152":{"id":"100005857120152","name":"Sáng Dật Dẹo"},"100004253979918":{"id":"100004253979918","name":"Louis Hoàng Văn Thái"},"1657595398":{"id":"1657595398","name":"Hoàng Anh"},"100001458099624":{"id":"100001458099624","name":"Kham Pha"},"100005903373573":{"id":"100005903373573","name":"HaLinh Phong Phan"},"100003184926813":{"id":"100003184926813","name":"Linh Ta"},"100003731623249":{"id":"100003731623249","name":"Mai Nguyen"},"100001754136107":{"id":"100001754136107","name":"Nguyễn Tuấn Vũ"},"100004475043858":{"id":"100004475043858","name":"Cởi Truồng Tắm Mưa"},"100002120720024":{"id":"100002120720024","name":"Yuji Tokunaga"},"100001617216740":{"id":"100001617216740","name":"Peter Nguyễn"},"100000438877828":{"id":"100000438877828","name":"Teng Chil"},"757996837":{"id":"757996837","name":"Tuan Anh"},"100002383557875":{"id":"100002383557875","name":"Minami MP"},"100003118432528":{"id":"100003118432528","name":"Ngọc Lan"},"100001438932250":{"id":"100001438932250","name":"Luong Anh Nguyet"},"100002610420304":{"id":"100002610420304","name":"Nguyễn Quang Huy"},"100000925189769":{"id":"100000925189769","name":"Fanzhen Zhensanj"},"100000243619027":{"id":"100000243619027","name":"Trang Tống"},"100001365545442":{"id":"100001365545442","name":"Nguyễn Nam"},"100003763768548":{"id":"100003763768548","name":"Nguyễn Dũng"},"100000068660150":{"id":"100000068660150","name":"Hito Kami"},"1146680551":{"id":"1146680551","name":"優しい なぁ"},"100001806981402":{"id":"100001806981402","name":"Cookie Panda"},"100000222974192":{"id":"100000222974192","name":"Hoàng Thị Vân Anh"},"100005495773832":{"id":"100005495773832","name":"Hiền Vũ"},"100003102443177":{"id":"100003102443177","name":"Vu Keytop"},"100006767705219":{"id":"100006767705219","name":"Kim Liên"},"100002137253818":{"id":"100002137253818","name":"Anh Khoa"},"100006592840757":{"id":"100006592840757","name":"Le Dinh Hoang Son"},"100003913383051":{"id":"100003913383051","name":"Tho Tran"},"100000359762118":{"id":"100000359762118","name":"Mi Tra"},"100004041794244":{"id":"100004041794244","name":"Watanuki Kimihiro"},"100006111728204":{"id":"100006111728204","name":"La Ka Ta Tu"}},"paging":{"cursors":{"after":"MTAwMDA0Mjk5Mjc0MzEw","before":"MTAwMDA0Mjk5Mjc0MzEw"},"next":"https://graph.facebook.com/229244010425617_757058774310802/likes?limit=1&summary=1&after=MTAwMDA0Mjk5Mjc0MzEw"},"summary":{"total_count":66}},"comments":{"data":{"757060517643961":{"id":"757060517643961","from":{"id":"100000359762118","name":"Mi Tra"},"message":"Ngày mới sang Nhật sống ở Koiwa, ngày ngày đi tuyến Sobu qua Ochanomizu đi làm. Mùa Anh đào ngắm những cành hoa rủ xuống dòng sông đẹp mê hồn. Nhớ lại vẫn cảm thấy lâng lâng","can_remove":false,"created_time":"2013-11-12T15:32:32+0000","like_count":2,"user_likes":false},"757062434310436":{"id":"757062434310436","from":{"id":"1146680551","name":"優しい なぁ"},"message":"Mình thích nơi đây vì nó ít có động đất ^_^","can_remove":false,"created_time":"2013-11-12T15:36:12+0000","like_count":0,"user_likes":false},"757066080976738":{"id":"757066080976738","from":{"id":"100005801442456","name":"An Nguyen"},"message":"Một trong những may mắn là có từng làm công việc tại 1 nơi rất .. Cao, và đẹp nên hàng đêm được nhìn tp từ trên cao, tự nhiên thấy thích nó hơn! Cho coi hình nè!","can_remove":false,"created_time":"2013-11-12T15:44:20+0000","like_count":4,"user_likes":false},"757066274310052":{"id":"757066274310052","from":{"id":"100005801442456","name":"An Nguyen"},"message":"Thành phố tỉnh giấc!","can_remove":false,"created_time":"2013-11-12T15:45:01+0000","like_count":4,"user_likes":false},"757069120976434":{"id":"757069120976434","from":{"id":"100000359762118","name":"Mi Tra"},"message":"Gần nhà mình ko có những toà nhà chọc trời mà chỉ có cỏ cây như thế này thôi ^^","can_remove":false,"created_time":"2013-11-12T15:52:32+0000","like_count":6,"user_likes":false},"757069440976402":{"id":"757069440976402","from":{"id":"100005801442456","name":"An Nguyen"},"message":"Ai trãi thảm đẹp thế @.@","can_remove":false,"created_time":"2013-11-12T15:53:25+0000","like_count":0,"user_likes":false},"757069977643015":{"id":"757069977643015","from":{"id":"100000359762118","name":"Mi Tra"},"message":"Hội người cao tuổi của thành phố đó. Các cụ hàng năm trồng và chăm sóc rất cẩn thận","can_remove":false,"created_time":"2013-11-12T15:55:15+0000","like_count":2,"user_likes":false},"757074244309255":{"id":"757074244309255","from":{"id":"1146680551","name":"優しい なぁ"},"message":"Hoàng hôn trên odaiba","can_remove":false,"created_time":"2013-11-12T16:07:23+0000","like_count":6,"user_likes":false},"757075440975802":{"id":"757075440975802","from":{"id":"1146680551","name":"優しい なぁ"},"message":"Chập choạng trên odaiba","can_remove":false,"created_time":"2013-11-12T16:10:46+0000","like_count":3,"user_likes":false},"757075780975768":{"id":"757075780975768","from":{"id":"1146680551","name":"優しい なぁ"},"message":"Đêm trên vịnh odaiba","can_remove":false,"created_time":"2013-11-12T16:11:18+0000","like_count":2,"user_likes":false},"757075890975757":{"id":"757075890975757","from":{"id":"100000359762118","name":"Mi Tra"},"message":"Đu với Anh Nguyen\nHoàng hôn trên cảng Yokohama ^^","can_remove":false,"created_time":"2013-11-12T16:11:40+0000","like_count":6,"user_likes":false},"757075940975752":{"id":"757075940975752","from":{"id":"1146680551","name":"優しい なぁ"},"message":"Pháo hoa trên vịnh odaiba","can_remove":false,"created_time":"2013-11-12T16:11:53+0000","like_count":3,"user_likes":false},"757076084309071":{"id":"757076084309071","from":{"id":"100003310618708","name":"BiNô Triết Gia"},"message":"tháng sau sắm được cái máy ảnh mới được. cảm giác quá khích rồi","can_remove":false,"created_time":"2013-11-12T16:12:26+0000","like_count":0,"user_likes":false},"757076260975720":{"id":"757076260975720","from":{"id":"1146680551","name":"優しい なぁ"},"message":"Nhưng đây là nơi đẹp nhất với tôi .bình minh trên vịnh....điền vào chỗ trống nào","can_remove":false,"created_time":"2013-11-12T16:12:55+0000","like_count":4,"user_likes":false},"757076490975697":{"id":"757076490975697","from":{"id":"100005801442456","name":"An Nguyen"},"message":"Bồn ga ở Nhật =))","can_remove":false,"created_time":"2013-11-12T16:13:18+0000","like_count":4,"user_likes":false},"757077124308967":{"id":"757077124308967","from":{"id":"1146680551","name":"優しい なぁ"},"message":"Hàng độc của nhật","can_remove":false,"created_time":"2013-11-12T16:15:21+0000","like_count":1,"user_likes":false},"757098064306873":{"id":"757098064306873","from":{"id":"100001365545442","name":"Nguyễn Nam"},"message":"lạy trời tháng 2 phỏng vấn okie.. tháng 4 qa ngó shinjuku","can_remove":false,"created_time":"2013-11-12T16:52:35+0000","like_count":0,"user_likes":false},"757362250947121":{"id":"757362250947121","from":{"id":"100001640832299","name":"Hoàng Đạt"},"message":"Mong rằng cũng sẽ ngắm những cảnh này","can_remove":false,"created_time":"2013-11-13T03:06:53+0000","like_count":0,"user_likes":false},"757419777608035":{"id":"757419777608035","from":{"id":"100004126602815","name":"Long Xương"},"message":"Mọi người sướng thế đc sang Nhật :'(","can_remove":false,"created_time":"2013-11-13T05:31:51+0000","like_count":1,"user_likes":false},"757483627601650":{"id":"757483627601650","from":{"id":"100002375344981","name":"Trung Tran"},"message":"Nghe add noi ma minh co chut tiec nuoi....ngay xua o nhat ma chua dc di choi nhiu..hic hic...","can_remove":false,"created_time":"2013-11-13T10:04:04+0000","like_count":1,"user_likes":false},"757545890928757":{"id":"757545890928757","from":{"id":"100000314753906","name":"Lén Má Yêu Anh"},"message":"tui yêu tokyo Nguyễn Nam","message_tags":[{"id":"100001365545442","name":"Nguyễn Nam","type":"user","offset":14,"length":10}],"can_remove":false,"created_time":"2013-11-13T13:03:24+0000","like_count":0,"user_likes":false},"844478915568787":{"id":"844478915568787","from":{"id":"1146680551","name":"優しい なぁ"},"message":"Ai chuẩn bị đến Tokyo thì xem nhé :3","can_remove":false,"created_time":"2014-04-03T05:47:53+0000","like_count":0,"user_likes":false},"844483398901672":{"id":"844483398901672","from":{"id":"100005801442456","name":"An Nguyen"},"message":"Lục lại lăng xê tui hả ba :3","can_remove":false,"created_time":"2014-04-03T06:03:15+0000","like_count":0,"user_likes":false},"844483675568311":{"id":"844483675568311","from":{"id":"1146680551","name":"優しい なぁ"},"message":"Đào mộ guy :))","can_remove":false,"created_time":"2014-04-03T06:03:57+0000","like_count":0,"user_likes":false},"844484418901570":{"id":"844484418901570","from":{"id":"100005801442456","name":"An Nguyen"},"message":"Rãnh quởn viết mấy bài đi \" phượt \". Xách ba lô, mua mỳ gói đặt xe bú đường dài chỉ có 2 3000¥ Là đi đủ nơi, qua đêm thì vào quán net ngủ, có chỗ tắm, ăn uống rồi có ghế matxa để ngủ mà 1 đêm có 1000¥ chưa tới :3","can_remove":false,"created_time":"2014-04-03T06:07:43+0000","like_count":1,"user_likes":false},"844484532234892":{"id":"844484532234892","from":{"id":"1146680551","name":"優しい なぁ"},"message":"Nhờ chú ! A đã đi kiểu ấy bao giờ đâu :3","can_remove":false,"created_time":"2014-04-03T06:08:30+0000","like_count":0,"user_likes":false},"844484695568209":{"id":"844484695568209","from":{"id":"100005801442456","name":"An Nguyen"},"message":"Khoái không :3","can_remove":false,"created_time":"2014-04-03T06:09:29+0000","like_count":2,"user_likes":false},"844485035568175":{"id":"844485035568175","from":{"id":"1146680551","name":"優しい なぁ"},"message":"Chụp bằng j thế :v","can_remove":false,"created_time":"2014-04-03T06:10:41+0000","like_count":0,"user_likes":false},"844485348901477":{"id":"844485348901477","from":{"id":"100005801442456","name":"An Nguyen"},"message":"Mua giá đỡ ip có 1000¥ , không thì nhờ người dân chụp đấy. Ip có chế độ chụp pano. Lấy cái đó chụp rộng như vậy đc mà :3","can_remove":false,"created_time":"2014-04-03T06:11:57+0000","like_count":0,"user_likes":false},"844485552234790":{"id":"844485552234790","from":{"id":"1146680551","name":"優しい なぁ"},"message":"Giá đỡ có 1000¥ thui à :)","can_remove":false,"created_time":"2014-04-03T06:13:16+0000","like_count":0,"user_likes":false},"844486062234739":{"id":"844486062234739","from":{"id":"100005801442456","name":"An Nguyen"},"message":"Uhm :3 lên rakuten ấy","can_remove":false,"created_time":"2014-04-03T06:15:25+0000","like_count":0,"user_likes":false},"844487152234630":{"id":"844487152234630","from":{"id":"100005801442456","name":"An Nguyen"},"message":"Mà theo ý em, nếu gom bạn bè đi phượt ở Nhật thì gom nhiều người rồi thuê chiếc xe 12 chỗ đi chơi. 1 ngày 7000 1 man j đó nhưng đi đủ nơi.  Mà nhiều chỗ k thể tới đc bằng bus hay tàu đâu. Bữa có anh Nhật rủ đi chơi bằng oto thích lắm. Nếu đi đông tới vùng rừng, trong đó nó có mấy ngôi nhà gỗ có 5000¥ 1 ngày cho 1 ngôi nhà. Mang đồ nướng lên nhậu nhẹt tẹt phẹt .:v","can_remove":false,"created_time":"2014-04-03T06:20:25+0000","like_count":1,"user_likes":false},"844487912234554":{"id":"844487912234554","from":{"id":"100000845994100","name":"Hà Lợi"},"message":"A ơi, nếu đi phượt cho e xin một xuất nha a An.","can_remove":false,"created_time":"2014-04-03T06:23:48+0000","like_count":0,"user_likes":false},"844489485567730":{"id":"844489485567730","from":{"id":"100005801442456","name":"An Nguyen"},"message":"Cảnh này k thể thấy đc bằng phượng tiện đi lại khác ngoại trừ đi bằng oto cá nhân.","can_remove":false,"created_time":"2014-04-03T06:29:21+0000","like_count":1,"user_likes":false}},"paging":{"cursors":{"after":"NzU3MDYwNTE3NjQzOTYx","before":"NzU3MDYwNTE3NjQzOTYx"},"next":"https://graph.facebook.com/229244010425617_757058774310802/comments?limit=1&summary=1&after=NzU3MDYwNTE3NjQzOTYx"},"summary":{"order":"chronological","total_count":34}}}