{"id":"229244010425617_757039760979370","type":"status","from":{"id":"100006329763157","name":"Một Mình Không Sao"},"message":"みなさん、こんにちは！。\n\nすみませんございます！\n\nXin phiền các anh/chị/bạn một chút.\n\n Em/tớ đang theo Nhật sơ cấp ở trung tâm, tuần tới vào ngày 20/11 em/tớ có lịch học trùng đúng với lịch thầy giáo người Nhật dạy, để tỏ lòng biết ơn tới thầy cô nhân ngày đó, lớp em/tớ có ý định tặng quà cho thầy, nhưng sau khi tìm kiếm ở google một hồi thì thấy rằng người Nhật rất quan trọng lễ nghĩa. Vì vậy mà em/tớ đang rất băn khoăn, khó xử vì không biết nên tặng cho thầy quà gì, không quá phô trương mà thể hiện được tấm lòng( đặc biệt là phù hợp với túi tiền sinh viên).\n\nVậy các anh/chị/bạn đã, đang hoặc sẽ tặng quà cho người Nhật có thể tư vấn cho em/tớ được không ạ? Em/tớ xin chân thành cảm ơn!\n\nP.s: Năm nay thầy 49 tuổi.","created_time":"2013-11-12T14:52:55+0000","updated_time":"2013-11-13T09:49:07+0000","likes":{"data":{"100005337850702":{"id":"100005337850702","name":"Xứ Tuyết"},"100004005830479":{"id":"100004005830479","name":"Lam School"},"100003080722791":{"id":"100003080722791","name":"Hương Lê"}},"paging":{"cursors":{"after":"MTAwMDA1MzM3ODUwNzAy","before":"MTAwMDA1MzM3ODUwNzAy"},"next":"https://graph.facebook.com/229244010425617_757039760979370/likes?limit=1&summary=1&after=MTAwMDA1MzM3ODUwNzAy"},"summary":{"total_count":3}},"comments":{"data":{"757042177645795":{"id":"757042177645795","from":{"id":"100003796430338","name":"Cường Ađam Z"},"message":"Cà phê vn","can_remove":false,"created_time":"2013-11-12T14:58:48+0000","like_count":2,"user_likes":false},"757044280978918":{"id":"757044280978918","from":{"id":"100005801442456","name":"An Nguyen"},"message":"Hãy cm với ý xây dựng! Mình thì nghĩ bạn không nên quá quan trọng nó phải là món quà gì! Chỉ quan trọng là cái tâm bạn thôi. Người Nhật họ tinh tế lắm, ví như bạn thấy họ bị mất ngủ thì bạn kiếm cái gói hương nhỏ để cho moi người dễ ngủ ấy , và quan trọng là cách thể hiện! Bạn có thể giải thích vì sao bạn tặng họ, cách bạn giải bày mới cho họ hiểu bạn quan tâm họ, để ý họ từ những việc nhỏ nhất.. Đó mới là món quà giá trị!","can_remove":false,"created_time":"2013-11-12T15:03:59+0000","like_count":1,"user_likes":false},"757044284312251":{"id":"757044284312251","from":{"id":"100006329763157","name":"Một Mình Không Sao"},"message":"cảm ơn anh/bạn đã gợi ý cho em/tớ :D","can_remove":false,"created_time":"2013-11-12T15:04:01+0000","like_count":0,"user_likes":false},"757046410978705":{"id":"757046410978705","from":{"id":"100006329763157","name":"Một Mình Không Sao"},"message":"Hương Lê, chị hỏi đi :)","message_tags":[{"id":"100003080722791","name":"Hương Lê","type":"user","offset":0,"length":8}],"can_remove":false,"created_time":"2013-11-12T15:09:22+0000","like_count":0,"user_likes":false},"757049837645029":{"id":"757049837645029","from":{"id":"100003796430338","name":"Cường Ađam Z"},"message":"Cà fe là ngon nhất vừa ngon lại yk nghĩa he ng nhật thik uống cafe vn mak","can_remove":false,"created_time":"2013-11-12T15:14:34+0000","like_count":2,"user_likes":false},"757054420977904":{"id":"757054420977904","from":{"id":"100006329763157","name":"Một Mình Không Sao"},"message":"tiền bối An Nguyen, theo như tiền bối nói là việc giải thích tại sao mình tặng nó quan trọng hơn là tặng quà gì, nhưng em mới học có sơ cấp 1 nên không biết nói nhiều, vậy tiền bối có thể chuyển hộ em mấy câu sang tiếng Nhật được không ạ?","message_tags":[{"id":"100005801442456","name":"An Nguyen","type":"user","offset":9,"length":9}],"can_remove":false,"created_time":"2013-11-12T15:19:43+0000","like_count":0,"user_likes":false},"757058004310879":{"id":"757058004310879","from":{"id":"100005801442456","name":"An Nguyen"},"message":"Anh Nguyễn Trả lơi hộ phát!!","message_tags":[{"id":"1146680551","name":"Anh Nguyễn","type":"user","offset":0,"length":10}],"can_remove":false,"created_time":"2013-11-12T15:26:02+0000","like_count":0,"user_likes":false},"757060930977253":{"id":"757060930977253","from":{"id":"100003776781273","name":"Dou Ckt"},"message":"Mình thì thích tặng họ đồ gốm","can_remove":false,"created_time":"2013-11-12T15:33:52+0000","like_count":0,"user_likes":false},"757061010977245":{"id":"757061010977245","from":{"id":"1146680551","name":"優しい なぁ"},"message":"Tự nhiên kéo vào đây ^_^ thấy mem boy là thiếu nhiệt tình thế.\nSẵn mình cũng nói vài cái theo cảm nhận riêng của mình nhé.\nVề quà tặng: thì nên tặng các quà tặng mang tính việt nam chút như cafe, tranh thêu hay bánh kẹo gì đó.Nếu được thì chính tay bạn làm là hay nhất.Quan trọng là chú ý cách gói quà cho sao thấy được là mình rất chăm chút tới nó.\nVề tiếng Nhật: thì bạn đang học ở sơ cấp 1 đúng không,người dạy bạn biết rất rõ về trình độ của bạn.Nếu bạn viết 1 từ hay 1 câu ở 1 cấp độ cao hơn từ 1 người nào đó chỉ cho thì bạn không cho thấy kết quả của người thầy đã dạy bạn. Thế nên bạn chỉ cần nói đúng với khả năng của mình bằng những câu bạn đã học được .","can_remove":false,"created_time":"2013-11-12T15:34:06+0000","like_count":3,"user_likes":false},"757061207643892":{"id":"757061207643892","from":{"id":"100003776781273","name":"Dou Ckt"},"message":"Bạn học ở đâu vậy","can_remove":false,"created_time":"2013-11-12T15:34:25+0000","like_count":0,"user_likes":false},"757062744310405":{"id":"757062744310405","from":{"id":"100003080722791","name":"Hương Lê"},"message":"bọn mình học ở trường.","can_remove":false,"created_time":"2013-11-12T15:36:47+0000","like_count":0,"user_likes":false},"757063520976994":{"id":"757063520976994","from":{"id":"100006329763157","name":"Một Mình Không Sao"},"message":"Cảm ơn tiền bối  Anh Nguyễn đã cho em lời khuyên hữu ích. P.s: xin đính chính, em không phải boy :3","message_tags":[{"id":"1146680551","name":"Anh Nguyễn","type":"user","offset":17,"length":10}],"can_remove":false,"created_time":"2013-11-12T15:38:29+0000","like_count":1,"user_likes":false},"757063697643643":{"id":"757063697643643","from":{"id":"100006329763157","name":"Một Mình Không Sao"},"message":"Dou Ckt, tớ học ở Nhật ngữ Asuka :D","message_tags":[{"id":"100003776781273","name":"Dou Ckt","type":"user","offset":0,"length":7}],"can_remove":false,"created_time":"2013-11-12T15:38:49+0000","like_count":0,"user_likes":false},"757064224310257":{"id":"757064224310257","from":{"id":"100005801442456","name":"An Nguyen"},"message":"Thấy ba tám quá kéo vào để tui bấm bài khác cho lẹ. Keke","can_remove":false,"created_time":"2013-11-12T15:39:26+0000","like_count":1,"user_likes":false},"757100870973259":{"id":"757100870973259","from":{"id":"100003776781273","name":"Dou Ckt"},"message":"Địa chỉ nào vậy bạn ナ","can_remove":false,"created_time":"2013-11-12T16:59:43+0000","like_count":0,"user_likes":false},"757479627602050":{"id":"757479627602050","from":{"id":"100004005830479","name":"Lam School"},"message":"ネクタイ","can_remove":false,"created_time":"2013-11-13T09:49:07+0000","like_count":1,"user_likes":false}},"paging":{"cursors":{"after":"NzU3MDQyMTc3NjQ1Nzk1","before":"NzU3MDQyMTc3NjQ1Nzk1"},"next":"https://graph.facebook.com/229244010425617_757039760979370/comments?limit=1&summary=1&after=NzU3MDQyMTc3NjQ1Nzk1"},"summary":{"order":"chronological","total_count":16}}}