{"id":"229244010425617_757479490935397","type":"status","from":{"id":"100000064686295","name":"Huy Roli"},"message":"Chép 1 đoạn quảng cáo lên nhờ anh chị em nghiên cứu xem N mấy thì dịch đc đoạn này\nヴィラは、清涼な気候に恵まれたベトナム中部高原に佇む１７棟のヴィラ。\n改装をほどこした１９２０〜３０年代のフレンチヴィラは、周囲の町と郊外の素\n晴らしい景色を臨んでいます。\nヴィラ各棟はバスルーム付きの部屋３〜４室から成り、１７棟のヴィラで全５７室の客室があります。\nお食事には、ヨーロッパ風料理、ワインバー、ウォークインワインセラーをご用意いたしました。\nスパでは、トリートメントルーム、屋外のバスタブ、リゾート内のフラワーガーデンが生み出すアロマセラピーで、限リなくユニークなひと時をお過ごしください\nCản ơn các anh chị em","created_time":"2013-11-13T09:48:31+0000","updated_time":"2013-11-14T13:42:52+0000","likes":{"data":{"100002871405403":{"id":"100002871405403","name":"Thach Sanh"},"100004155757260":{"id":"100004155757260","name":"Tran Trang"},"100004253979918":{"id":"100004253979918","name":"Louis Hoàng Văn Thái"},"100003767676668":{"id":"100003767676668","name":"黒い猫"},"100000064686295":{"id":"100000064686295","name":"Huy Roli"}},"paging":{"cursors":{"after":"MTAwMDAyODcxNDA1NDAz","before":"MTAwMDAyODcxNDA1NDAz"},"next":"https://graph.facebook.com/229244010425617_757479490935397/likes?limit=1&summary=1&after=MTAwMDAyODcxNDA1NDAz"},"summary":{"total_count":5}},"comments":{"data":{"757483517601661":{"id":"757483517601661","from":{"id":"100004760974173","name":"Anh Tuấn"},"message":"ngữ pháp n3. từ vựng chắc n2. vì nhiều kata quá","can_remove":false,"created_time":"2013-11-13T10:03:35+0000","like_count":0,"user_likes":false},"757484630934883":{"id":"757484630934883","from":{"id":"100000064686295","name":"Huy Roli"},"message":"Bạn dịch ntn cho hợp lý nhỉ?","can_remove":false,"created_time":"2013-11-13T10:07:50+0000","like_count":0,"user_likes":false},"757973157552697":{"id":"757973157552697","from":{"id":"100000147414000","name":"Nguyễn Công Thắng"},"message":"google translate là đc mà :3 n mấy làm j ?","can_remove":false,"created_time":"2013-11-14T06:54:29+0000","like_count":0,"user_likes":false},"758077870875559":{"id":"758077870875559","from":{"id":"100003765750895","name":"Ken Thiếu Gia"},"message":"n4","can_remove":false,"created_time":"2013-11-14T12:12:39+0000","like_count":0,"user_likes":false},"758091304207549":{"id":"758091304207549","from":{"id":"100001416272263","name":"Mai PB"},"message":"Huy Roli học đừng có bó buộc trong N nào cả. Cứ học theo sách giáo khoa đi thôi.","message_tags":[{"id":"100000064686295","name":"Huy Roli","type":"user","offset":0,"length":8}],"can_remove":false,"created_time":"2013-11-14T12:47:49+0000","like_count":1,"user_likes":false},"758123210871025":{"id":"758123210871025","from":{"id":"100000064686295","name":"Huy Roli"},"message":"Vâng, e chỉ hỏi để khảo sát thế thôi, để biết tình hình ý mà","can_remove":false,"created_time":"2013-11-14T13:42:52+0000","like_count":0,"user_likes":false}},"paging":{"cursors":{"after":"NzU3NDgzNTE3NjAxNjYx","before":"NzU3NDgzNTE3NjAxNjYx"},"next":"https://graph.facebook.com/229244010425617_757479490935397/comments?limit=1&summary=1&after=NzU3NDgzNTE3NjAxNjYx"},"summary":{"order":"chronological","total_count":6}}}