{"id":"229244010425617_757496514267028","type":"status","from":{"id":"100006709480567","name":"Le Minh"},"message":"Ở đây có bạn nào làm bên mảng kỹ thuật viên (kỹ sư) cơ khí ở Nhật không nhỉ? Mình hỏi chút.","created_time":"2013-11-13T10:55:35+0000","updated_time":"2013-11-15T13:45:53+0000","likes":{"data":{"100007066140354":{"id":"100007066140354","name":"Tuyen Nguyen Tien"},"100001159898461":{"id":"100001159898461","name":"Giang Trường Bùi"}},"paging":{"cursors":{"after":"MTAwMDA3MDY2MTQwMzU0","before":"MTAwMDA3MDY2MTQwMzU0"},"next":"https://graph.facebook.com/229244010425617_757496514267028/likes?limit=1&summary=1&after=MTAwMDA3MDY2MTQwMzU0"},"summary":{"total_count":2}},"comments":{"data":{"757519084264771":{"id":"757519084264771","from":{"id":"100000271705877","name":"Nguyễn Văn Minh"},"message":"Bạn có câu hỏi cứ đưa ra, mọi ng sẽ giúp. Đâu fai cứ người nào kỹ thuật viên mới biết đâu.","can_remove":false,"created_time":"2013-11-13T12:03:25+0000","like_count":0,"user_likes":false},"757520214264658":{"id":"757520214264658","from":{"id":"100001193749870","name":"Ông Văn Khiết"},"message":"bạn cứ hỏi đi. mấy ad ăn cơm Nhật quen juj. hỏi cái j là trả lời kỹ lắm. ng nhật cũng vậy mà :)).\nkỹ sư nó cũng có dăm bảy loại bạn hỏi kỹ sư thế nó chung chung quá. hihi","can_remove":false,"created_time":"2013-11-13T12:06:27+0000","like_count":2,"user_likes":false},"757615640921782":{"id":"757615640921782","from":{"id":"100006709480567","name":"Le Minh"},"message":"Làm bên đó thì sử dụng một trong số phần mềm CAD /CAM như CATIA, NX, Mastercam hay sao? Mình chỉ biết Catia thôi thì vậy có đủ để làm việc không? Bên đó công việc chính là thiết kế những gì? Có gia công không? Vì một phần mềm nó có hàng ngàn ứng dụng nên biết bên đó làm việc gì để mình tập trung xoáy vào modul của phần mềm đó cho nó vững ấy mà","can_remove":false,"created_time":"2013-11-13T15:13:37+0000","like_count":0,"user_likes":false},"757646914251988":{"id":"757646914251988","from":{"id":"100000027754899","name":"Hoang Van Ba"},"message":"Chuẩn CAD thì rất chuộng !\nNhưng phải xem phía cty họ tuyển bạn vào vị trí nào","can_remove":false,"created_time":"2013-11-13T16:26:54+0000","like_count":1,"user_likes":false},"758012494215430":{"id":"758012494215430","from":{"id":"100001193749870","name":"Ông Văn Khiết"},"message":"đúng như bạn nói. mỗi phần mềm có nhiều modul thì bên này cũng thế, có nhiều công ty, mỗi nhóm công ty lại sử dụng khác nhau. không phải tự nhiên cái modul đó sinh ra mà là do nhu cầu thực thế. bạn muốn vào cty nào? bạn thạo cái nào, nên tìm cái công ty sử dụng cái đó. :v. mình mới sang. chém gió tý nhưng đó là suy nghĩ của minh. nhưng trước hết bạn phải giao tiếp tiếng Nhật được đã. cái j k biết nó còn dạy được. :v","can_remove":false,"created_time":"2013-11-14T09:08:51+0000","like_count":1,"user_likes":false},"758048104211869":{"id":"758048104211869","from":{"id":"100000271705877","name":"Nguyễn Văn Minh"},"message":"bạn có ý định sang đây làm việc thì mình nghĩ cái quan trọng nhất là ngôn ngữ, ngôn ngữ tốt bạn sẽ được chỉ bảo, đào tạo. Công ty cũng k yêu cầu cao lắm về chuyên môn của bạn, vì nếu bạn có giỏi đi chăng nữa nó cũng chẳng thế cho bạn làm luôn vị trí bạn mong muốn được, sẽ phải đào tạo. Nên tiếng nhật là yêu cầu tốt nếu muốn sang đây, và muốn apply vào công ty nào thì tìm hiểu kỹ trước, các chế độ, làm việc... Còn kỹ sư thì nhiều loại lắm, thiết kế gia công hay đại khái sử dụng phần mềm gì đó, nếu bạn lắm chắc một cái thì những cái còn lại học sẽ dễ hơn :) mình nghĩ là vậy :v","can_remove":false,"created_time":"2013-11-14T10:39:31+0000","like_count":1,"user_likes":false},"758301907519822":{"id":"758301907519822","from":{"id":"100006709480567","name":"Le Minh"},"message":"Mình đang ở VN nên cần tìm hiểu kỹ để chuẩn bị. Mình đọc thông tin là bên Nhật đa phần dùng NX và Catia. Bạn Ông Văn Khiết là dân cơ khí luôn hả? Trước khi qua đó, tiếng Nhật bạn N mấy rồi?","message_tags":[{"id":"100001193749870","name":"Ông Văn Khiết","type":"user","offset":109,"length":13}],"can_remove":false,"created_time":"2013-11-14T17:55:16+0000","like_count":0,"user_likes":false},"758618304154849":{"id":"758618304154849","from":{"id":"100001193749870","name":"Ông Văn Khiết"},"message":"t dân cơ điện tử nhưng lại làm về cơ khí. mới học được 6 tháng, sang nó nói có biết j đâu.","can_remove":false,"created_time":"2013-11-15T08:14:26+0000","like_count":0,"user_likes":false},"758734864143193":{"id":"758734864143193","from":{"id":"100002945807605","name":"Tran van Quynh"},"message":"các anh ơi khi nào có đơn đặt hàng bên cơ khí nhưng làm về đóng tàu( ráp tàu) các anh báo cho em với. em cảm ơn các anh nhiều.","can_remove":false,"created_time":"2013-11-15T13:45:53+0000","like_count":0,"user_likes":false}},"paging":{"cursors":{"after":"NzU3NTE5MDg0MjY0Nzcx","before":"NzU3NTE5MDg0MjY0Nzcx"},"next":"https://graph.facebook.com/229244010425617_757496514267028/comments?limit=1&summary=1&after=NzU3NTE5MDg0MjY0Nzcx"},"summary":{"order":"chronological","total_count":9}}}