{"id":"229244010425617_757547164261963","type":"status","from":{"id":"100001257093338","name":"Hanh Dang"},"message":"Xin phép Cộng đồng Việt Nhật cho mình hỏi một câu.\n\nBạn nào có thể giúp mình sửa lại câu tiếng Việt  bên dưới được không? \n<<sửa thêm>>Hoặc dịch câu tiếng nhật bên dưới ra tiếng việt.\n\nTừ những lý do trên, tôi đã trình bày những giải thích này \n上記の理由から、私は自分自身でこの説明を記述いたしました\n\nXin cảm ơn!","created_time":"2013-11-13T13:06:49+0000","updated_time":"2013-11-14T08:08:22+0000","comments":{"data":{"757547480928598":{"id":"757547480928598","from":{"id":"1657595398","name":"Hoàng Anh"},"message":"Cau TV hoi kho hieu :(","can_remove":false,"created_time":"2013-11-13T13:07:37+0000","like_count":0,"user_likes":false},"757547817595231":{"id":"757547817595231","from":{"id":"100001257093338","name":"Hanh Dang"},"message":"Vậy mới cần nhờ sửa đó Hoàng Anh","message_tags":[{"id":"1657595398","name":"Hoàng Anh","type":"user","offset":23,"length":9}],"can_remove":false,"created_time":"2013-11-13T13:08:22+0000","like_count":0,"user_likes":false},"757555777594435":{"id":"757555777594435","from":{"id":"100002612714358","name":"Close To You"},"message":"tức mún dịch câu này fải hôn???","can_remove":false,"created_time":"2013-11-13T13:28:00+0000","like_count":0,"user_likes":false},"757559474260732":{"id":"757559474260732","from":{"id":"100001257093338","name":"Hanh Dang"},"message":"Sửa câu tiếng việt hoặc dịch câu tiếng Nhật đều rất cảm ơn rất nhiều!","can_remove":false,"created_time":"2013-11-13T13:30:51+0000","like_count":0,"user_likes":false},"757573950925951":{"id":"757573950925951","from":{"id":"100001257093338","name":"Hanh Dang"},"message":"Quên mất không nói rõ cho mọi người biết là câu tiếng việt trên do mình dịch từ câu tiếng Nhật ghi ngay bên dưới nhưng vì nó lủng củng quá nên nhờ mọi người chỉnh giúp đó mà.","can_remove":false,"created_time":"2013-11-13T13:57:35+0000","like_count":0,"user_likes":false},"757580157591997":{"id":"757580157591997","from":{"id":"100002612714358","name":"Close To You"},"message":"nếu là câu do chính ngừi nhật ziết thì rất okashii ở chỗ jibunjishin nhưng ko sao giờ dịch tiếng việt cho ngon lành thì dễ mà\n\ntừ những lý do ghi trên, tui đã ziết ra bản thuyết minh này!!!\n\nđừng ráng dịch thêm jibunjishin sẽ rất tếu!!!","can_remove":false,"created_time":"2013-11-13T14:12:42+0000","like_count":1,"user_likes":false},"757583920924954":{"id":"757583920924954","from":{"id":"100001257093338","name":"Hanh Dang"},"message":"Cảm ơn Close To You nhiều nhiều !!! Mình nghĩ câu tiếng nhật không hề okashii chút nào đâu.","message_tags":[{"id":"100002612714358","name":"Close To You","type":"user","offset":7,"length":12}],"can_remove":false,"created_time":"2013-11-13T14:21:04+0000","like_count":0,"user_likes":false},"757602980923048":{"id":"757602980923048","from":{"id":"100001416272263","name":"Mai PB"},"message":"Không phải người Nhật nào cũng giỏi tiếng Nhật đâu. Thi vào công ty bị đánh trượt rất nhiều nếu viết lủng củng đấy. :-)  Còn câu tiếng Nhật trên tuy không sáng sủa và cũng không bình thường, nhưng có thể hiểu là người nói muốn nhấn mạnh \"chính tôi chứ không phải ai khác viết\".\n-> Vì những lý do trên, tôi đã tự tay viết bản giải trình này.","can_remove":false,"created_time":"2013-11-13T14:55:45+0000","like_count":3,"user_likes":false},"757907470892599":{"id":"757907470892599","from":{"id":"100001257093338","name":"Hanh Dang"},"message":"Em cam on bac Mai PB ^^","message_tags":[{"id":"100001416272263","name":"Mai PB","type":"user","offset":14,"length":6}],"can_remove":false,"created_time":"2013-11-14T03:21:40+0000","like_count":0,"user_likes":false},"757989377551075":{"id":"757989377551075","from":{"id":"569263718","name":"Phuong Thao Tran"},"message":"mình đang thắc mắc có nên thay:\n上記の理由から、私は自分自身でこの説明を記述いたしました\n↓\n上記の理由で、私は自分自身でこの説明を記述いたしました","can_remove":false,"created_time":"2013-11-14T07:57:13+0000","like_count":0,"user_likes":false},"757993500883996":{"id":"757993500883996","from":{"id":"100002612714358","name":"Close To You"},"message":"thay để làm chuy vại???","can_remove":false,"created_time":"2013-11-14T08:08:22+0000","like_count":0,"user_likes":false}},"paging":{"cursors":{"after":"NzU3NTQ3NDgwOTI4NTk4","before":"NzU3NTQ3NDgwOTI4NTk4"},"next":"https://graph.facebook.com/229244010425617_757547164261963/comments?limit=1&summary=1&after=NzU3NTQ3NDgwOTI4NTk4"},"summary":{"order":"chronological","total_count":12}},"likes":{"data":[]}}