{"id":"229244010425617_757540714262608","type":"photo","object_id":"177543219115725","picture":"https://fbcdn-photos-e-a.akamaihd.net/hphotos-ak-ash3/t1.0-0/945803_177543219115725_1761750733_s.jpg","link":"https://www.facebook.com/photo.php?fbid=177543219115725&set=gm.757540714262608&type=1&relevant_count=1","from":{"id":"100005801442456","name":"An Nguyen"},"message":"NHỮNG CLIP THÚ VỊ VỀ NHẬT BẢN:\r\n\r\nClip 6: NHỮNG CUỘC ĐUA ĐƯỜNG PHỐ.\r\n\r\nNếu như bạn là fan của loạt phim fast and furious thì có lẽ sẽ biết về những cảnh đua hoành tráng tại Tokyo. Vậy đó chỉ là phim hay có thật? \r\n\r\nCâu trả lời là : hoàn toàn có thật, ở một thế giới \" Underground \"...\r\n\r\nLink : http://m.youtube.com/watch?v=13C3n3NTV3o","created_time":"2013-11-13T12:51:28+0000","updated_time":"2013-11-13T14:04:13+0000","likes":{"data":{"1082956399":{"id":"1082956399","name":"Danny Dee Nguyen IE"},"1821970083":{"id":"1821970083","name":"Nguyễn Mạnh Cường"},"100001813175379":{"id":"100001813175379","name":"Huyen Nguyen"},"100004095967794":{"id":"100004095967794","name":"Key Panda"},"100003888576324":{"id":"100003888576324","name":"Nguyen Quan"},"100004716640495":{"id":"100004716640495","name":"Thúy An Dương"},"1305472811":{"id":"1305472811","name":"Tuan Nguyen"},"100001958220978":{"id":"100001958220978","name":"Trung Hiếu Bắp"}},"paging":{"cursors":{"after":"MTA4Mjk1NjM5OQ==","before":"MTA4Mjk1NjM5OQ=="},"next":"https://graph.facebook.com/229244010425617_757540714262608/likes?limit=1&summary=1&after=MTA4Mjk1NjM5OQ%3D%3D"},"summary":{"total_count":8}},"comments":{"data":{"757564047593608":{"id":"757564047593608","from":{"id":"100005801442456","name":"An Nguyen"},"message":"Đua ác chiến !!!","can_remove":false,"created_time":"2013-11-13T13:41:47+0000","like_count":0,"user_likes":false},"757576157592397":{"id":"757576157592397","from":{"id":"100004716640495","name":"Thúy An Dương"},"message":"An có biết bộ phim Nhật mà thể loại phim hành động không anh An Nguyen ? ^_^","message_tags":[{"id":"100005801442456","name":"An Nguyen","type":"user","offset":61,"length":9}],"can_remove":false,"created_time":"2013-11-13T14:02:15+0000","like_count":0,"user_likes":false},"757577284258951":{"id":"757577284258951","from":{"id":"100005801442456","name":"An Nguyen"},"message":"Toàn luyện phim tình cảm! Phim hành đồng bạn kiếm phim Bá vương học đường á","can_remove":false,"created_time":"2013-11-13T14:04:13+0000","like_count":1,"user_likes":false}},"paging":{"cursors":{"after":"NzU3NTY0MDQ3NTkzNjA4","before":"NzU3NTY0MDQ3NTkzNjA4"},"next":"https://graph.facebook.com/229244010425617_757540714262608/comments?limit=1&summary=1&after=NzU3NTY0MDQ3NTkzNjA4"},"summary":{"order":"chronological","total_count":3}}}