{"id":"229244010425617_757817967568216","type":"photo","object_id":"177731372430243","picture":"https://fbcdn-photos-f-a.akamaihd.net/hphotos-ak-frc3/t1.0-0/1391926_177731372430243_681206747_s.jpg","link":"https://www.facebook.com/photo.php?fbid=177731372430243&set=gm.757817967568216&type=1&relevant_count=1","from":{"id":"100005801442456","name":"An Nguyen"},"message":"Ồ.....! Mt.Fuji kìa ^o^","created_time":"2013-11-13T23:54:19+0000","updated_time":"2013-11-14T06:32:44+0000","likes":{"data":{"1416265619":{"id":"1416265619","name":"Starwar Bbj"},"100002120720024":{"id":"100002120720024","name":"Yuji Tokunaga"},"100001260645727":{"id":"100001260645727","name":"Ngo Duy Son"},"100000641266383":{"id":"100000641266383","name":"Linhling To"},"100001071396824":{"id":"100001071396824","name":"Thanh Binh Le"},"1846809835":{"id":"1846809835","name":"Dorae Phương"},"100002941809570":{"id":"100002941809570","name":"Hằng Nguyễn"},"100003102443177":{"id":"100003102443177","name":"Vu Keytop"},"100004450956167":{"id":"100004450956167","name":"Thắng Satoh"},"100000271705877":{"id":"100000271705877","name":"Nguyễn Văn Minh"},"100004514621076":{"id":"100004514621076","name":"Hason Angle"},"100002871405403":{"id":"100002871405403","name":"Thach Sanh"},"100004715524978":{"id":"100004715524978","name":"Minh Chiến"},"100006794583161":{"id":"100006794583161","name":"Anh Thắng"},"100006355141196":{"id":"100006355141196","name":"Vi Đặng Tường"},"100002916376886":{"id":"100002916376886","name":"Thủy Bee"},"100001416272263":{"id":"100001416272263","name":"Mai PB"},"100002801290859":{"id":"100002801290859","name":"Arsène Lupin"},"100004052599880":{"id":"100004052599880","name":"Nguyen-chan Hsj"},"100004716640495":{"id":"100004716640495","name":"Thúy An Dương"},"100004802197403":{"id":"100004802197403","name":"Công Tử Hào Hoa"},"100001894545350":{"id":"100001894545350","name":"Lhp Bin"},"100001520307352":{"id":"100001520307352","name":"Nguyen Sang"},"100000925189769":{"id":"100000925189769","name":"Fanzhen Zhensanj"},"100001880901011":{"id":"100001880901011","name":"Số Không"},"100003874832426":{"id":"100003874832426","name":"Tú Còi"},"100003163690158":{"id":"100003163690158","name":"清嶺"},"100003599920499":{"id":"100003599920499","name":"ふゆ はな"},"1082956399":{"id":"1082956399","name":"Danny Dee Nguyen IE"},"100002508122689":{"id":"100002508122689","name":"Vũ Mạnh Tuấn"},"1146680551":{"id":"1146680551","name":"優しい なぁ"},"100006480494916":{"id":"100006480494916","name":"Thúy Nguyễn"},"100003662874652":{"id":"100003662874652","name":"Thanh Thuy Nguyen"},"100004753564940":{"id":"100004753564940","name":"Diệu Linh"},"100004927662273":{"id":"100004927662273","name":"Thuy Dinh"},"1148962646":{"id":"1148962646","name":"Tran Thi Tuong Van"},"100002493819706":{"id":"100002493819706","name":"Giang Nguyen"},"100003291701878":{"id":"100003291701878","name":"Bui Anhdat"},"100004095967794":{"id":"100004095967794","name":"Key Panda"},"100000110601676":{"id":"100000110601676","name":"장미"},"100002912978945":{"id":"100002912978945","name":"Feliz Novia"},"100003820151744":{"id":"100003820151744","name":"Thu Cá Tính"},"100002907128122":{"id":"100002907128122","name":"Trang Đỗ"},"1318895018":{"id":"1318895018","name":"Van T Tran"},"100005495773832":{"id":"100005495773832","name":"Hiền Vũ"},"1250876107":{"id":"1250876107","name":"Kim Hoan"},"100000027216859":{"id":"100000027216859","name":"Định Nguyễn"},"100004877281136":{"id":"100004877281136","name":"Yuki Ori"},"100003696134321":{"id":"100003696134321","name":"Phạm Hạnh"},"100001458099624":{"id":"100001458099624","name":"Kham Pha"},"100000438877828":{"id":"100000438877828","name":"Teng Chil"},"100002826418598":{"id":"100002826418598","name":"Harry Minji"},"100006269700659":{"id":"100006269700659","name":"Nguyễn Linh"},"100001441648308":{"id":"100001441648308","name":"Ly Loan"},"100004140850631":{"id":"100004140850631","name":"Huong Trang"},"100002327743510":{"id":"100002327743510","name":"Tuan Thanh"},"100002607997537":{"id":"100002607997537","name":"Trần Đức Chiến"},"100001792751155":{"id":"100001792751155","name":"Akari Nguyen"},"100000147414000":{"id":"100000147414000","name":"Nguyễn Công Thắng"},"100001628612184":{"id":"100001628612184","name":"Mai Tròn"},"100001761278799":{"id":"100001761278799","name":"Pawn Small"},"100005144645210":{"id":"100005144645210","name":"Ngố YuuKi"},"100000359762118":{"id":"100000359762118","name":"Mi Tra"},"1295034025":{"id":"1295034025","name":"Sam Apple"},"100003793638030":{"id":"100003793638030","name":"Bông Tuyết"},"100004028946864":{"id":"100004028946864","name":"Thoang Do"},"100003878977188":{"id":"100003878977188","name":"Minh Canh"},"100000250256418":{"id":"100000250256418","name":"Nguyen Viet Anh"},"100004094346107":{"id":"100004094346107","name":"Thuy Nga Nguyen"},"100002922084177":{"id":"100002922084177","name":"Nguyễn Quang Trường"},"100006014164976":{"id":"100006014164976","name":"Bình Bông"},"100001754136107":{"id":"100001754136107","name":"Nguyễn Tuấn Vũ"},"100006767705219":{"id":"100006767705219","name":"Kim Liên"},"100001359798024":{"id":"100001359798024","name":"November Gi"},"100000045271667":{"id":"100000045271667","name":"Nam Thai Nguyen"},"100003763768548":{"id":"100003763768548","name":"Nguyễn Dũng"}},"paging":{"cursors":{"after":"MTQxNjI2NTYxOQ==","before":"MTQxNjI2NTYxOQ=="},"next":"https://graph.facebook.com/229244010425617_757817967568216/likes?limit=1&summary=1&after=MTQxNjI2NTYxOQ%3D%3D"},"summary":{"total_count":77}},"comments":{"data":{"757825017567511":{"id":"757825017567511","from":{"id":"100005801442456","name":"An Nguyen"},"message":"Bữa có đọc bài nói về Nhật lấy rác, rồi chế kiểu gì rồi lấy đó lấp biển xây sân bay, lấn biển xây khu công nghiệp, khu dân cư vv.vv giờ mới tận mắt thấy! Ngưỡng mộ!","can_remove":false,"created_time":"2013-11-14T00:11:21+0000","like_count":4,"user_likes":false},"757825337567479":{"id":"757825337567479","from":{"id":"100005801442456","name":"An Nguyen"},"message":"","can_remove":false,"created_time":"2013-11-14T00:11:51+0000","like_count":1,"user_likes":false},"757825717567441":{"id":"757825717567441","from":{"id":"100005801442456","name":"An Nguyen"},"message":"","can_remove":false,"created_time":"2013-11-14T00:12:24+0000","like_count":1,"user_likes":false},"757825987567414":{"id":"757825987567414","from":{"id":"100005801442456","name":"An Nguyen"},"message":"","can_remove":false,"created_time":"2013-11-14T00:13:28+0000","like_count":2,"user_likes":false},"757827287567284":{"id":"757827287567284","from":{"id":"100005801442456","name":"An Nguyen"},"message":"Cả 1 vùng rộng lớn fukuoka được lấp 😍","can_remove":false,"created_time":"2013-11-14T00:17:02+0000","like_count":1,"user_likes":false},"757827714233908":{"id":"757827714233908","from":{"id":"100000045271667","name":"Nam Thai Nguyen"},"message":"Xem stt An Nguyen lại nhớ bào báo lâu rồi về nước Nhật hành xử với tài nguyên rác. Tìm lại và đọc \nhttp://www.tinmoi.vn/Nguoi-Nhat-va-8-dieu-ldquoquai-dirdquo-trong-xu-ly-rac-01135380.html","message_tags":[{"id":"100005801442456","name":"An Nguyen","type":"user","offset":8,"length":9}],"can_remove":false,"created_time":"2013-11-14T00:17:47+0000","like_count":1,"user_likes":false},"757828277567185":{"id":"757828277567185","from":{"id":"100005801442456","name":"An Nguyen"},"message":"Tokyo với số dân 33 triệu người( tính luôn mấy tỉnh lân cận ) 1 ngày hay 1 năm gì ( không nhớ rõ vì đọc khá lâu ) sản sinh ra số rác gấp 8 lần diện tích sân vận động quốc gia Tokyo đấy!","can_remove":false,"created_time":"2013-11-14T00:20:07+0000","like_count":2,"user_likes":false},"757828757567137":{"id":"757828757567137","from":{"id":"100005801442456","name":"An Nguyen"},"message":"Chắc ... 1 ngày 😙😙","can_remove":false,"created_time":"2013-11-14T00:21:58+0000","like_count":0,"user_likes":false},"757829557567057":{"id":"757829557567057","from":{"id":"100001754136107","name":"Nguyễn Tuấn Vũ"},"message":"Mình xin phép copy vai ảnh nhé An An Nguyen\nMinh xin bổ xung: Cây cầu đươi kia đang hoàn thành gần xong, hiện đang được nửa bên cầu.","message_tags":[{"id":"100005801442456","name":"An Nguyen","type":"user","offset":34,"length":9}],"can_remove":false,"created_time":"2013-11-14T00:24:17+0000","like_count":0,"user_likes":false},"757829980900348":{"id":"757829980900348","from":{"id":"100000045271667","name":"Nam Thai Nguyen"},"message":"Cũng lại nhớ đọc bài báo, nước thuoc Châu âu thì nhập cả rác về để tái sinh. VN mình rác để lộ thiên, không qua xử lý. Ngay như HN ko có nổi hệ thống xử lý rác, cao tốc Thăng Long- Nội Bài xe rác chạy ngày đêm, gây mất mỹ quan và quá ô nhiễm môi trường. Nhật bản sang góp ý kiến về phân loại rác cho VN cách đây mấy năm nhưng kế hoạch đó đã phá sản hoàn toàn","can_remove":false,"created_time":"2013-11-14T00:25:32+0000","like_count":2,"user_likes":false},"757830164233663":{"id":"757830164233663","from":{"id":"100005801442456","name":"An Nguyen"},"message":"Muốn nhiu cũng có!! Thích nhất cách phục vụ hàng không Nhật! Không tính mấy cô tiếp viên, ngay đến mấy chú dẫn đường bay cũng gập người, vẫy chào cho đến khi máy nay khuất mắt! Chuyên nghiệp!","can_remove":false,"created_time":"2013-11-14T00:25:53+0000","like_count":5,"user_likes":false},"757833497566663":{"id":"757833497566663","from":{"id":"100005801442456","name":"An Nguyen"},"message":"Xếp hàng đứng đợi máy bay tới gập đầu cuối chào!","can_remove":false,"created_time":"2013-11-14T00:28:30+0000","like_count":3,"user_likes":false},"757848310898515":{"id":"757848310898515","from":{"id":"100005801442456","name":"An Nguyen"},"message":"Chả có Chí tiến thủ gì hết! Không đọc báo thấy mấy bác bảo 20 năm thôi à...!😚","can_remove":false,"created_time":"2013-11-14T01:06:59+0000","like_count":0,"user_likes":false},"757858984230781":{"id":"757858984230781","from":{"id":"100002145579460","name":"Nhất Cước Sanji"},"message":"furisan","can_remove":false,"created_time":"2013-11-14T01:20:28+0000","like_count":1,"user_likes":false},"757860087564004":{"id":"757860087564004","from":{"id":"100005801442456","name":"An Nguyen"},"message":"Mấy chú đó bẩu thế! Nghe thế chứ sao!","can_remove":false,"created_time":"2013-11-14T01:23:40+0000","like_count":0,"user_likes":false},"757861684230511":{"id":"757861684230511","from":{"id":"1128427597","name":"Quyên Nguyễn"},"message":"Cho phep minh copy hinh ve may nhe ^^","can_remove":false,"created_time":"2013-11-14T01:27:51+0000","like_count":1,"user_likes":false},"757864654230214":{"id":"757864654230214","from":{"id":"100005801442456","name":"An Nguyen"},"message":"Thích cho nốt! Tối làm tour nữa tặng luôn!","can_remove":false,"created_time":"2013-11-14T01:37:52+0000","like_count":1,"user_likes":false},"757864917563521":{"id":"757864917563521","from":{"id":"100005801442456","name":"An Nguyen"},"message":"Chắc gấp mấy chục cÁi sân bóng đá!","can_remove":false,"created_time":"2013-11-14T01:39:08+0000","like_count":2,"user_likes":false},"757865894230090":{"id":"757865894230090","from":{"id":"100005801442456","name":"An Nguyen"},"message":"Thành phố thơ mộng!","can_remove":false,"created_time":"2013-11-14T01:40:34+0000","like_count":0,"user_likes":false},"757866447563368":{"id":"757866447563368","from":{"id":"100005801442456","name":"An Nguyen"},"message":"","can_remove":false,"created_time":"2013-11-14T01:41:05+0000","like_count":0,"user_likes":false},"757866557563357":{"id":"757866557563357","from":{"id":"100005801442456","name":"An Nguyen"},"message":"","can_remove":false,"created_time":"2013-11-14T01:41:43+0000","like_count":0,"user_likes":false},"757866750896671":{"id":"757866750896671","from":{"id":"100005801442456","name":"An Nguyen"},"message":"\" ông \" Phú sĩ buổi sáng!","can_remove":false,"created_time":"2013-11-14T01:42:29+0000","like_count":3,"user_likes":false},"757898107560202":{"id":"757898107560202","from":{"id":"1146680551","name":"優しい なぁ"},"message":"Đi du lịch hả ku","can_remove":false,"created_time":"2013-11-14T02:54:26+0000","like_count":1,"user_likes":false},"757964487553564":{"id":"757964487553564","from":{"id":"100002801290859","name":"Arsène Lupin"},"message":"hôm qua lần đầu tiên đc đi fujisan công nhận là đẹp thật. nhưng mà lạnh quá","can_remove":false,"created_time":"2013-11-14T06:32:44+0000","like_count":0,"user_likes":false}},"paging":{"cursors":{"after":"NzU3ODI1MDE3NTY3NTEx","before":"NzU3ODI1MDE3NTY3NTEx"},"next":"https://graph.facebook.com/229244010425617_757817967568216/comments?limit=1&summary=1&after=NzU3ODI1MDE3NTY3NTEx"},"summary":{"order":"chronological","total_count":27}}}