{"id":"229244010425617_757913724225307","type":"status","from":{"id":"1813611352","name":"To Đùng"},"message":"Các bạn so sánh thế nào giữa phim \"MA THÁI\" và \"MA NHẬT\" ? :D\n\nMình là 1 người rất hay xem film thể loại hành động, viễn tưởng, võ thuật, chiến tranh và đặc biệt là....kinh dị. \nCó rất nhiều phim kinh dị, nhưng bản thân mình thực sự ấn tượng bở film kinh dị Nhật và film kinh dị Thái. Nó quá ám ảnh, dù là 1 người có thần kinh \"hơi cứng\" với những film kinh dị nhưng đối với film kinh dị của 2 đất nước này thì.....\n\nCác bạn những ai hay xem film kinh dị nào ^^","created_time":"2013-11-14T03:43:53+0000","updated_time":"2013-11-14T07:20:30+0000","comments":{"data":{"757914147558598":{"id":"757914147558598","from":{"id":"100002508122689","name":"Vũ Mạnh Tuấn"},"message":"thực sự thì e chưa xem phim ma nào của cả 2 nc. Đọc được duy nhất quyển Ring - vòng tròn ác nghiệt .","can_remove":false,"created_time":"2013-11-14T03:45:53+0000","like_count":0,"user_likes":false},"757917277558285":{"id":"757917277558285","from":{"id":"1813611352","name":"To Đùng"},"message":"Vũ Mạnh Tuấn  thế bạn nên xem phim chuyển thể \"The Ring\" >.<","message_tags":[{"id":"100002508122689","name":"Vũ Mạnh Tuấn","type":"user","offset":0,"length":12}],"can_remove":false,"created_time":"2013-11-14T03:56:47+0000","like_count":0,"user_likes":false},"757917380891608":{"id":"757917380891608","from":{"id":"100002508122689","name":"Vũ Mạnh Tuấn"},"message":":3 e sẽ thử ;D","can_remove":false,"created_time":"2013-11-14T03:57:22+0000","like_count":0,"user_likes":false},"757917794224900":{"id":"757917794224900","from":{"id":"100000217955936","name":"Tan Long Huynh"},"message":"Xem \"con mắt âm dương\" ma hongkong đi To Đùng","message_tags":[{"id":"1813611352","name":"To Đùng","type":"user","offset":38,"length":7}],"can_remove":false,"created_time":"2013-11-14T03:58:50+0000","like_count":0,"user_likes":false},"757917877558225":{"id":"757917877558225","from":{"id":"1813611352","name":"To Đùng"},"message":"http://www.hayhaytv.vn/xem-phim/phim-the-ring-tieng-chuong-hd-343534336E61.html\n\nMình thì chỉ xem film chứ ko đọc truyện nên ko biết có phải cái quyển Ring - vòng tròn ác nghiệt kia ko :D\n\nTối nay xem lúc 2h cho thêm phần sống động nhá :v","can_remove":false,"created_time":"2013-11-14T03:59:10+0000","like_count":1,"user_likes":false},"757918390891507":{"id":"757918390891507","from":{"id":"1813611352","name":"To Đùng"},"message":"đấy mới là phim Mỹ thôi nhá Vũ Mạnh Tuấn :)) xem dần cho đủ đô rồi xem phim kinh dị Nhật :))","message_tags":[{"id":"100002508122689","name":"Vũ Mạnh Tuấn","type":"user","offset":28,"length":12}],"can_remove":false,"created_time":"2013-11-14T04:01:36+0000","like_count":0,"user_likes":false},"757918467558166":{"id":"757918467558166","from":{"id":"100002508122689","name":"Vũ Mạnh Tuấn"},"message":":)) Ringu có phiên bản Nhật mà bác .","can_remove":false,"created_time":"2013-11-14T04:02:00+0000","like_count":0,"user_likes":false},"757919057558107":{"id":"757919057558107","from":{"id":"1813611352","name":"To Đùng"},"message":"Nguyễn Kiên không type kiểu đó nhé. Vui lòng comment bằng Tiếng Việt có dấu.","message_tags":[{"id":"100004985943852","name":"Nguyễn Kiên","type":"user","offset":0,"length":11}],"can_remove":false,"created_time":"2013-11-14T04:04:17+0000","like_count":0,"user_likes":false},"757919417558071":{"id":"757919417558071","from":{"id":"1813611352","name":"To Đùng"},"message":"Phạm Hoàng Sơn phim Ju-on thì liệt vào top rồi :))","message_tags":[{"id":"100000200962354","name":"Phạm Hoàng Sơn","type":"user","offset":0,"length":14}],"can_remove":false,"created_time":"2013-11-14T04:05:32+0000","like_count":0,"user_likes":false},"757925744224105":{"id":"757925744224105","from":{"id":"100004360751785","name":"Hà Nguyễn"},"message":"em ko bao giờ dám xem phim ma + kinh dị ạ, bọn bạn tụ tập mở phim ma là e lẩn sang khu vực khác ngay :v","can_remove":false,"created_time":"2013-11-14T04:29:17+0000","like_count":0,"user_likes":false},"757979427552070":{"id":"757979427552070","from":{"id":"100001458099624","name":"Kham Pha"},"message":"Ma Thái giới tính không phân biệt, còn ma Nhật thì trông như bước ra từ manga :))","can_remove":false,"created_time":"2013-11-14T07:14:48+0000","like_count":0,"user_likes":false},"757980657551947":{"id":"757980657551947","from":{"id":"1813611352","name":"To Đùng"},"message":"bác Kham Pha chưa xem MA THÁI thật rồi :))\ncó 1 phim cũng bình thường chưa ghê lắm là phim \nComing Soon. bác xem thử xem sao :D \nhttp://phimnhanh.net/movie/info/2861/Som-Tro-Lai","can_remove":false,"created_time":"2013-11-14T07:18:41+0000","like_count":0,"user_likes":false},"757981030885243":{"id":"757981030885243","from":{"id":"100004985943852","name":"Nguyễn Kiên"},"message":"Ai có film nao rợn rợn một tý k cho tên đê mk xem kái nảo","can_remove":false,"created_time":"2013-11-14T07:20:30+0000","like_count":0,"user_likes":false}},"paging":{"cursors":{"after":"NzU3OTE0MTQ3NTU4NTk4","before":"NzU3OTE0MTQ3NTU4NTk4"},"next":"https://graph.facebook.com/229244010425617_757913724225307/comments?limit=1&summary=1&after=NzU3OTE0MTQ3NTU4NTk4"},"summary":{"order":"chronological","total_count":13}},"likes":{"data":[]}}