{"id":"229244010425617_757950177554995","type":"status","from":{"id":"100003476529583","name":"Trần Hữu Hiệu"},"message":"Chào các anh chị, các anh chị cho hỏi một chút từ ga Narita vào khách sạn Narita tobu hotel airport thì có thể dùng phương tiện gì không ạ? Em cảm ơn mọi người!","created_time":"2013-11-14T05:45:31+0000","updated_time":"2013-11-14T10:50:38+0000","likes":{"data":{"757996837":{"id":"757996837","name":"Tuan Anh"}},"paging":{"cursors":{"after":"NzU3OTk2ODM3","before":"NzU3OTk2ODM3"}},"summary":{"total_count":1}},"comments":{"data":{"757966007553412":{"id":"757966007553412","from":{"id":"100003476529583","name":"Trần Hữu Hiệu"},"message":"Anh chị nào vào giúp em với ạ! :3","can_remove":false,"created_time":"2013-11-14T06:37:31+0000","like_count":0,"user_likes":false},"757975604219119":{"id":"757975604219119","from":{"id":"100005801442456","name":"An Nguyen"},"message":"","can_remove":false,"created_time":"2013-11-14T07:04:16+0000","like_count":1,"user_likes":false},"757976577552355":{"id":"757976577552355","from":{"id":"100005801442456","name":"An Nguyen"},"message":"","can_remove":false,"created_time":"2013-11-14T07:05:45+0000","like_count":0,"user_likes":false},"757976644219015":{"id":"757976644219015","from":{"id":"100005801442456","name":"An Nguyen"},"message":"Hiện có tai nạn nên không có tàu!","can_remove":false,"created_time":"2013-11-14T07:06:10+0000","like_count":0,"user_likes":false},"757977394218940":{"id":"757977394218940","from":{"id":"100003476529583","name":"Trần Hữu Hiệu"},"message":"An Nguyen: Vâng em cảm ơn ạ! Em hỏi đường giúp chi gái em để sáng mai chị ý đi ạ! Chị nói chi tiết hơn một chút giúp em được không ạ! Từ ga Narita vào tobu hotel đi ô tô mấy khoảng 20p nhưng chị em không biết đi xe nào, đi taxi thì đắt quá! :D.","message_tags":[{"id":"100005801442456","name":"An Nguyen","type":"user","offset":0,"length":9}],"can_remove":false,"created_time":"2013-11-14T07:10:08+0000","like_count":0,"user_likes":false},"757978504218829":{"id":"757978504218829","from":{"id":"100005801442456","name":"An Nguyen"},"message":"Narita cổng nsof","can_remove":false,"created_time":"2013-11-14T07:12:46+0000","like_count":0,"user_likes":false},"757978640885482":{"id":"757978640885482","from":{"id":"100005801442456","name":"An Nguyen"},"message":"E nói rõ chị tra cho","can_remove":false,"created_time":"2013-11-14T07:13:07+0000","like_count":0,"user_likes":false},"757979584218721":{"id":"757979584218721","from":{"id":"100003476529583","name":"Trần Hữu Hiệu"},"message":"An Nguyen: ý em là từ Ga Narita vào Narita tobu hotel chứ không phải từ Sân bay Narita đâu ạ! :D.","message_tags":[{"id":"100005801442456","name":"An Nguyen","type":"user","offset":0,"length":9}],"can_remove":false,"created_time":"2013-11-14T07:15:31+0000","like_count":0,"user_likes":false},"757989174217762":{"id":"757989174217762","from":{"id":"100001458099624","name":"Kham Pha"},"message":"ga narita là ga trước khi đến sân bay đấy. Tất cả các chuyến qua ga Narita đều sẽ vào sân bay thì phải. Nên có thể sử dụng chung. Chỉ lệch khoảng 10 phút thôi.","can_remove":false,"created_time":"2013-11-14T07:56:42+0000","like_count":1,"user_likes":false},"757997244216955":{"id":"757997244216955","from":{"id":"100003476529583","name":"Trần Hữu Hiệu"},"message":"Em cảm ơn các anh các chị nhiều nhé!  :)","can_remove":false,"created_time":"2013-11-14T08:23:06+0000","like_count":0,"user_likes":false},"758013650881981":{"id":"758013650881981","from":{"id":"100005801442456","name":"An Nguyen"},"message":"Sr chị đang có việc nên trả lời chậm! Cám ơn kham pha nhé!","can_remove":false,"created_time":"2013-11-14T09:16:17+0000","like_count":1,"user_likes":false},"758049417545071":{"id":"758049417545071","from":{"id":"100000381394367","name":"Thành Nguyễn"},"message":"sao An Nguyen mới sang Thái Lan phẫu thuật hay sao mà được gọi là chị thế.","message_tags":[{"id":"100005801442456","name":"An Nguyen","type":"user","offset":4,"length":9}],"can_remove":false,"created_time":"2013-11-14T10:45:12+0000","like_count":1,"user_likes":false},"758050640878282":{"id":"758050640878282","from":{"id":"100005801442456","name":"An Nguyen"},"message":"Lỡ được gọi nên tới luôn","can_remove":false,"created_time":"2013-11-14T10:50:38+0000","like_count":1,"user_likes":false}},"paging":{"cursors":{"after":"NzU3OTY2MDA3NTUzNDEy","before":"NzU3OTY2MDA3NTUzNDEy"},"next":"https://graph.facebook.com/229244010425617_757950177554995/comments?limit=1&summary=1&after=NzU3OTY2MDA3NTUzNDEy"},"summary":{"order":"chronological","total_count":13}}}