{"id":"229244010425617_758066044210075","type":"status","from":{"id":"100003599920499","name":"ふゆ はな"},"message":"mọi người ơi làm ơn cho em hỏi có ai biết phần mềm chữ hán của sơ cấp không ah chị em với cảm ơn đã quan tâm ah","created_time":"2013-11-14T11:38:24+0000","updated_time":"2013-11-14T16:43:44+0000","likes":{"data":{"100003284048317":{"id":"100003284048317","name":"Con Gái Tóc Ngắn"},"100005801442456":{"id":"100005801442456","name":"An Nguyen"},"100004881932416":{"id":"100004881932416","name":"Anhđưataygiữlấy Nhữngnắmtrotànembỏlại"}},"paging":{"cursors":{"after":"MTAwMDAzMjg0MDQ4MzE3","before":"MTAwMDAzMjg0MDQ4MzE3"},"next":"https://graph.facebook.com/229244010425617_758066044210075/likes?limit=1&summary=1&after=MTAwMDAzMjg0MDQ4MzE3"},"summary":{"total_count":3}},"comments":{"data":{"758075704209109":{"id":"758075704209109","from":{"id":"100005801442456","name":"An Nguyen"},"message":"Ai chỉ bạn xinh gái nào?","can_remove":false,"created_time":"2013-11-14T12:05:21+0000","like_count":0,"user_likes":false},"758076074209072":{"id":"758076074209072","from":{"id":"100003599920499","name":"ふゆ はな"},"message":"anh ơi đừng nói vậy An Nguyen em ko dám nhận đâu","message_tags":[{"id":"100005801442456","name":"An Nguyen","type":"user","offset":20,"length":9}],"can_remove":false,"created_time":"2013-11-14T12:06:34+0000","like_count":0,"user_likes":false},"758076657542347":{"id":"758076657542347","from":{"id":"100005801442456","name":"An Nguyen"},"message":"Nhận đi em! A không đòi lại giống thằng đang \" hot \" trong clip gần đây đâu=))","can_remove":false,"created_time":"2013-11-14T12:07:34+0000","like_count":0,"user_likes":false},"758077147542298":{"id":"758077147542298","from":{"id":"100003599920499","name":"ふゆ はな"},"message":"lời nói thì làm sao đòi lại được An Nguyen","message_tags":[{"id":"100005801442456","name":"An Nguyen","type":"user","offset":33,"length":9}],"can_remove":false,"created_time":"2013-11-14T12:09:49+0000","like_count":0,"user_likes":false},"758077664208913":{"id":"758077664208913","from":{"id":"100005801442456","name":"An Nguyen"},"message":"Keke","can_remove":false,"created_time":"2013-11-14T12:11:40+0000","like_count":0,"user_likes":false},"758077884208891":{"id":"758077884208891","from":{"id":"100003599920499","name":"ふゆ はな"},"message":"anh mà nói thế thì lại không có ai vào chỉ cho em thì sao An Nguyen","message_tags":[{"id":"100005801442456","name":"An Nguyen","type":"user","offset":58,"length":9}],"can_remove":false,"created_time":"2013-11-14T12:12:41+0000","like_count":0,"user_likes":false},"758078334208846":{"id":"758078334208846","from":{"id":"100005801442456","name":"An Nguyen"},"message":"Đợi đi! A muốn mọi người chỉ cho e! Vì đây là cộng động chứ phải trang cá nhân đâu mà lúc nào cũng anh@.@","can_remove":false,"created_time":"2013-11-14T12:14:10+0000","like_count":2,"user_likes":false},"758079780875368":{"id":"758079780875368","from":{"id":"100001365545442","name":"Nguyễn Nam"},"message":"phần mềm cho di động Obenkyo á :3\nkanji từ n1 tới n5.. ngữ pháp từ vựng đủ cả :3","can_remove":false,"created_time":"2013-11-14T12:19:25+0000","like_count":2,"user_likes":false},"758083194208360":{"id":"758083194208360","from":{"id":"100002612714358","name":"Close To You"},"message":"cần chi fần mềm với chương trình hỏi đi bất cứ chữ hán nào tui cũng có thể chỉ trực tiếp được é!!!","can_remove":false,"created_time":"2013-11-14T12:25:19+0000","like_count":0,"user_likes":false},"758230324193647":{"id":"758230324193647","from":{"id":"1146680551","name":"優しい なぁ"},"message":"em xài máy tính hay Iphone?","can_remove":false,"created_time":"2013-11-14T16:42:05+0000","like_count":0,"user_likes":false},"758230844193595":{"id":"758230844193595","from":{"id":"100003599920499","name":"ふゆ はな"},"message":"Máy tính anh ah","can_remove":false,"created_time":"2013-11-14T16:43:44+0000","like_count":0,"user_likes":false}},"paging":{"cursors":{"after":"NzU4MDc1NzA0MjA5MTA5","before":"NzU4MDc1NzA0MjA5MTA5"},"next":"https://graph.facebook.com/229244010425617_758066044210075/comments?limit=1&summary=1&after=NzU4MDc1NzA0MjA5MTA5"},"summary":{"order":"chronological","total_count":11}}}