{"id":"229244010425617_758077640875582","type":"video","object_id":"161434324065996","picture":"https://fbcdn-vthumb-a.akamaihd.net/hvthumb-ak-ash3/t15.0-10/1394629_161434517399310_161434324065996_50650_1268_t.jpg","link":"https://www.facebook.com/photo.php?v=161434324065996","source":"https://fbcdn-video-a.akamaihd.net/hvideo-ak-ash2/v/t42.1790-2/1075846_161434497399312_1089457838_n.mp4?oh=2bef4597fcf5a4cfa92ac27124e52446&oe=534FF41E&__gda__=1397765836_5484ba3196139ef8cb49ffc13308df7b","from":{"id":"100001416272263","name":"Mai PB"},"message":"Lần này Hội đồng nhân quyền LHQ góp mặt đủ Trung Quốc, Nga, VN, Cu Ba, Arập Xê Út. Mình cho rằng đây là một ví dụ sống động của từ ありえない đấy, các mem. Nói thực, cái tổ chức LHQ, trong đó Nga và Trung Quốc là 2 thành viên thường trực của Hội Đồng Bảo An, đã là một điều Arienai to lớn rồi.","created_time":"2013-11-14T12:11:35+0000","updated_time":"2013-11-14T13:00:17+0000","likes":{"data":{"100005503388025":{"id":"100005503388025","name":"Quynh Jhvnh"},"100001723862714":{"id":"100001723862714","name":"Bo Bien Vang"},"100001458099624":{"id":"100001458099624","name":"Kham Pha"},"100002589963683":{"id":"100002589963683","name":"Hà Văn Tuấn"},"100002694966360":{"id":"100002694966360","name":"Gọi Giấc Mơ Về"}},"paging":{"cursors":{"after":"MTAwMDA1NTAzMzg4MDI1","before":"MTAwMDA1NTAzMzg4MDI1"},"next":"https://graph.facebook.com/229244010425617_758077640875582/likes?limit=1&summary=1&after=MTAwMDA1NTAzMzg4MDI1"},"summary":{"total_count":5}},"comments":{"data":{"758079994208680":{"id":"758079994208680","from":{"id":"100002694966360","name":"Gọi Giấc Mơ Về"},"message":"Nghĩa của arienai là gì vậy ạ ?","can_remove":false,"created_time":"2013-11-14T12:20:21+0000","like_count":0,"user_likes":false},"758084140874932":{"id":"758084140874932","from":{"id":"100002612714358","name":"Close To You"},"message":"むり cũng được!!!","can_remove":false,"created_time":"2013-11-14T12:28:45+0000","like_count":0,"user_likes":false},"758087730874573":{"id":"758087730874573","from":{"id":"100002589963683","name":"Hà Văn Tuấn"},"message":"nghĩa là sao anh ?","can_remove":false,"created_time":"2013-11-14T12:39:35+0000","like_count":0,"user_likes":false},"758089110874435":{"id":"758089110874435","from":{"id":"100001416272263","name":"Mai PB"},"message":"Arienai đây. Nghĩa là \"không có lẽ nào\" \"khó tin quá\" (nhưng  thường là phản ứng đối với một việc đã xảy ra rồi). むり（無理）chỉ dùng với những gì chưa xảy ra thôi, Close To You nhé.\nhttps://www.facebook.com/groups/CongdongVietNhat/permalink/756425587707454/","message_tags":[{"id":"100002612714358","name":"Close To You","type":"user","offset":160,"length":12}],"can_remove":false,"created_time":"2013-11-14T12:44:22+0000","like_count":6,"user_likes":false},"758089720874374":{"id":"758089720874374","from":{"id":"100002694966360","name":"Gọi Giấc Mơ Về"},"message":"mấy từ này hình như là từ địa phương phải ko ạ, vì em tra trong từ điển ko có","can_remove":false,"created_time":"2013-11-14T12:46:19+0000","like_count":0,"user_likes":false},"758092660874080":{"id":"758092660874080","from":{"id":"100002612714358","name":"Close To You"},"message":"đúng ròy tui wên tính đến mạch nói hehehe domo!!!","can_remove":false,"created_time":"2013-11-14T12:50:05+0000","like_count":0,"user_likes":false},"758093117540701":{"id":"758093117540701","from":{"id":"100001416272263","name":"Mai PB"},"message":"Gọi Giấc Mơ Về xem cái link ở trên nói gì","message_tags":[{"id":"100002694966360","name":"Gọi Giấc Mơ Về","type":"user","offset":0,"length":14}],"can_remove":false,"created_time":"2013-11-14T12:51:13+0000","like_count":0,"user_likes":false},"758096584207021":{"id":"758096584207021","from":{"id":"100001580479641","name":"Hà Xuân Thủy"},"message":"まさか","can_remove":false,"created_time":"2013-11-14T13:00:17+0000","like_count":1,"user_likes":false}},"paging":{"cursors":{"after":"NzU4MDc5OTk0MjA4Njgw","before":"NzU4MDc5OTk0MjA4Njgw"},"next":"https://graph.facebook.com/229244010425617_758077640875582/comments?limit=1&summary=1&after=NzU4MDc5OTk0MjA4Njgw"},"summary":{"order":"chronological","total_count":8}}}