{"id":"229244010425617_758151537534859","type":"status","from":{"id":"100003250657085","name":"Nhất Kiếm Vô Tình"},"message":"mọi người ơi dịch giúp mình đoạn văn này với mai sensei kiểm tra huhu ak viết bằng chữ hiragana giúp mình nhé mình cám ơn nhiều.\n\nXin chào mình tên là Phong, mình đến từ Bắc Ninh. Gia đình mình có 4 người, bố mẹ và em gái. Hàng ngày mình đi học lúc 6h sáng và trở về nhà lúc 12h trưa. Nhà mình nhỏ nhưng sạch sẽ. Mình không thích động vật nên không nuôi con nào hết. Mình thích đi dạo và uống cafe vào buổi chiều. Buổi tối sau khi ăn cơm mình sẽ học tới 11h đêm rồi nghe Fm và đi ngủ lúc 12h. \n\ngiúp mình với huhuhu","created_time":"2013-11-14T14:38:18+0000","updated_time":"2013-11-15T05:23:24+0000","likes":{"data":{"100005973217688":{"id":"100005973217688","name":"Hermie Uyên"},"100007066140354":{"id":"100007066140354","name":"Tuyen Nguyen Tien"},"100003489557712":{"id":"100003489557712","name":"Hòa Hoàng"},"100002833803367":{"id":"100002833803367","name":"Hoang Anh Luong"},"100003171672878":{"id":"100003171672878","name":"Tầu Heo"},"100004360751785":{"id":"100004360751785","name":"Hà Nguyễn"}},"paging":{"cursors":{"after":"MTAwMDA1OTczMjE3Njg4","before":"MTAwMDA1OTczMjE3Njg4"},"next":"https://graph.facebook.com/229244010425617_758151537534859/likes?limit=1&summary=1&after=MTAwMDA1OTczMjE3Njg4"},"summary":{"total_count":6}},"comments":{"data":{"758153320868014":{"id":"758153320868014","from":{"id":"100003250657085","name":"Nhất Kiếm Vô Tình"},"message":"help me","can_remove":false,"created_time":"2013-11-14T14:43:09+0000","like_count":0,"user_likes":false},"758153334201346":{"id":"758153334201346","from":{"id":"100004360751785","name":"Hà Nguyễn"},"message":"những cái này học rùi thì cứ tự làm đi bạn, mai ss sửa sai đâu sửa đấy, như thế nhớ bài mới nhanh dc chứ. cố lên nào","can_remove":false,"created_time":"2013-11-14T14:43:13+0000","like_count":4,"user_likes":false},"758153547534658":{"id":"758153547534658","from":{"id":"100001848885057","name":"Tiểu Mỡ Nhi"},"message":"Cái này học 15 bài là viết được rồi mà anh","can_remove":false,"created_time":"2013-11-14T14:43:38+0000","like_count":0,"user_likes":false},"758153654201314":{"id":"758153654201314","from":{"id":"100003250657085","name":"Nhất Kiếm Vô Tình"},"message":"nhưng mình con 60 từ mới năn nỉ mà help mình đi","can_remove":false,"created_time":"2013-11-14T14:43:51+0000","like_count":0,"user_likes":false},"758154210867925":{"id":"758154210867925","from":{"id":"100000359762118","name":"Mi Tra"},"message":"cái này thì chịu ko giúp được rồi. 自分で　やりなさい","can_remove":false,"created_time":"2013-11-14T14:45:35+0000","like_count":4,"user_likes":false},"758154600867886":{"id":"758154600867886","from":{"id":"100003250657085","name":"Nhất Kiếm Vô Tình"},"message":"sao thế?","can_remove":false,"created_time":"2013-11-14T14:46:37+0000","like_count":0,"user_likes":false},"758154657534547":{"id":"758154657534547","from":{"id":"100002833803367","name":"Hoang Anh Luong"},"message":"cai nay fai tu lam mou nho dc, co len, lam thu roi up len moi nguoi chinh sua giup","can_remove":false,"created_time":"2013-11-14T14:46:48+0000","like_count":3,"user_likes":false},"758154927534520":{"id":"758154927534520","from":{"id":"100003250657085","name":"Nhất Kiếm Vô Tình"},"message":"có bạn nào nhìn thấy mình còn 50 từ mới ko? huhu","can_remove":false,"created_time":"2013-11-14T14:47:29+0000","like_count":0,"user_likes":false},"758155174201162":{"id":"758155174201162","from":{"id":"100000359762118","name":"Mi Tra"},"message":"Lý do như bạn Anh Luong đã nói.\n(Nhắc nhở bạn Anh Luong ,viết tiếng Việt có dấu nhé!)","message_tags":[{"id":"100002833803367","name":"Anh Luong","type":"user","offset":46,"length":9}],"can_remove":false,"created_time":"2013-11-14T14:48:14+0000","like_count":1,"user_likes":false},"758155490867797":{"id":"758155490867797","from":{"id":"100000359762118","name":"Mi Tra"},"message":"Còn 50 từ mới thì thay vì ngồi đây than hãy viết để tự nhớ từ mới luôn đi. Học hành thì ko thể học hộ được","can_remove":false,"created_time":"2013-11-14T14:49:21+0000","like_count":2,"user_likes":false},"758155537534459":{"id":"758155537534459","from":{"id":"100002833803367","name":"Hoang Anh Luong"},"message":"ごめんなさい","can_remove":false,"created_time":"2013-11-14T14:49:32+0000","like_count":2,"user_likes":false},"758155880867758":{"id":"758155880867758","from":{"id":"100003250657085","name":"Nhất Kiếm Vô Tình"},"message":"gọi giúp giờ còn bị măng thêm huhu tủi tân quá","can_remove":false,"created_time":"2013-11-14T14:50:19+0000","like_count":0,"user_likes":false},"758157330867613":{"id":"758157330867613","from":{"id":"100001416272263","name":"Mai PB"},"message":"Bao nhiêu người muốn được \"mắng\" đấy. :-)","can_remove":false,"created_time":"2013-11-14T14:53:35+0000","like_count":7,"user_likes":false},"758157410867605":{"id":"758157410867605","from":{"id":"100001754136107","name":"Nguyễn Tuấn Vũ"},"message":"Mình sẽ giúp bạn bằng cách: bạn viết ra tiếng nhật, sai đâu mọi ng sẽ bảo.","can_remove":false,"created_time":"2013-11-14T14:53:47+0000","like_count":2,"user_likes":false},"758157987534214":{"id":"758157987534214","from":{"id":"100003250657085","name":"Nhất Kiếm Vô Tình"},"message":"được rồi cố gắng vậy cám ơn mọi người","can_remove":false,"created_time":"2013-11-14T14:54:50+0000","like_count":0,"user_likes":false},"758161824200497":{"id":"758161824200497","from":{"id":"100004474144250","name":"Furby Cass"},"message":"Học đến bài bnhiu thỳ viết\nQtrong j\nHọc bên này lấy kthuc chứ k fai lấy cái bằg như ở VN","can_remove":false,"created_time":"2013-11-14T15:00:46+0000","like_count":1,"user_likes":false},"758164107533602":{"id":"758164107533602","from":{"id":"100001754136107","name":"Nguyễn Tuấn Vũ"},"message":"Nhắc nhở bạn Furby Cas viết có dấu, chữ đầy đủ.","can_remove":false,"created_time":"2013-11-14T15:03:55+0000","like_count":1,"user_likes":false},"758164260866920":{"id":"758164260866920","from":{"id":"100002508122689","name":"Vũ Mạnh Tuấn"},"message":"Bạn viết lên đây, có gì mọi người sẽ sửa giúp.Như thế mới nhớ lâu chứ. :D","can_remove":false,"created_time":"2013-11-14T15:04:21+0000","like_count":2,"user_likes":false},"758164464200233":{"id":"758164464200233","from":{"id":"100004474144250","name":"Furby Cass"},"message":"Rút kinh nghiệm\nTại quen viết tắt r\nHỳ","can_remove":false,"created_time":"2013-11-14T15:04:54+0000","like_count":0,"user_likes":false},"758179417532071":{"id":"758179417532071","from":{"id":"100001718883015","name":"Sayonara Daisukina Hito"},"message":"はじめまして。わたしはフォンともします。Bac Ninh からきました。かぞくは よんにんです、りょうしんといもととわたしです。まいにち 6じにがっこうへいきます それから 12じにいえへかえります。ごご わたしはさんぼとコーヒーをのみがすきです。よる ごはんをたべたあとで べんきょうします それから 11じにべんきょうがおわったあとで12じにねます。( thiếu phần nuôi động vật) trình tiếng nhật mình kém mong các sư huynh sư muội chỉ bảo","can_remove":false,"created_time":"2013-11-14T15:21:10+0000","like_count":3,"user_likes":false},"758185714198108":{"id":"758185714198108","from":{"id":"100003796430338","name":"Cường Ađam Z"},"message":"わたしはいぬがすきないですから。いぬがいない。 cho là ghét chó đc ko ta","can_remove":false,"created_time":"2013-11-14T15:29:34+0000","like_count":1,"user_likes":false},"758187367531276":{"id":"758187367531276","from":{"id":"100003922416229","name":"Hòa Nguyễn Văn"},"message":"初めまして、私はphong です。bacninh から来ました。家族が4人います。両親と妹がいます。毎日、6時に学校で来ます。そして 12時にうちで帰ります。私の家は小さいですが、きれいです。私は動物が好きではありませんから、何も飼いません。………","can_remove":false,"created_time":"2013-11-14T15:33:31+0000","like_count":4,"user_likes":false},"758188007531212":{"id":"758188007531212","from":{"id":"100003776781273","name":"Dou Ckt"},"message":"Mới học sao biết chữ kanji???","can_remove":false,"created_time":"2013-11-14T15:35:16+0000","like_count":1,"user_likes":false},"758188597531153":{"id":"758188597531153","from":{"id":"100001718883015","name":"Sayonara Daisukina Hito"},"message":"mấy chữ kanji này thông dụng mà bạn. nếu bạn kia học đến bài 15 là biết gần hết rồi.","can_remove":false,"created_time":"2013-11-14T15:36:46+0000","like_count":0,"user_likes":false},"758189664197713":{"id":"758189664197713","from":{"id":"100003250657085","name":"Nhất Kiếm Vô Tình"},"message":"tớ mù kanji  cám ơn các bạn đã nhiệt tình giúp đỡ arigato gozaimasu","can_remove":false,"created_time":"2013-11-14T15:37:49+0000","like_count":0,"user_likes":false},"758190617530951":{"id":"758190617530951","from":{"id":"100001718883015","name":"Sayonara Daisukina Hito"},"message":"わたしはどうぶつがきらいですから どうぶつを かいませんです。( vì ghét động vật nên tôi không nuôi) ( かいます( ( 飼います－＞ nuôi ( động vật bài 27))","can_remove":false,"created_time":"2013-11-14T15:40:23+0000","like_count":1,"user_likes":false},"758194564197223":{"id":"758194564197223","from":{"id":"100000359762118","name":"Mi Tra"},"message":"Sửa cho bạn Nguyen Phong :\n～と　もうします。（bạn thiếu う ）\nSau です・ます　luôn là dấu chấm kết thúc câu chứ ko dùng dấu phẩy.  \nKhi bạn viết bằng Hiragana nhiều như thế này bạn nên cách ở các trợ từ để cho người đọc dễ đọc.\nわたし は フォン と もうします。Bac Ninh から　きました。かぞく は よんにんです\n\nSau Vません　thì không có です nữa.\nどうぶつを かいませんです。 Như thế này là sai nhé!","can_remove":false,"created_time":"2013-11-14T15:50:46+0000","like_count":6,"user_likes":false},"758202434196436":{"id":"758202434196436","from":{"id":"100001718883015","name":"Sayonara Daisukina Hito"},"message":"わかりました。 ありがとうございました。（＾_＾）","can_remove":false,"created_time":"2013-11-14T15:54:22+0000","like_count":0,"user_likes":false},"758204437529569":{"id":"758204437529569","from":{"id":"100005801442456","name":"An Nguyen"},"message":"E yêu chị Mi tra thế không biết^^","can_remove":false,"created_time":"2013-11-14T15:54:52+0000","like_count":1,"user_likes":false},"758207264195953":{"id":"758207264195953","from":{"id":"100000359762118","name":"Mi Tra"},"message":"úi! có tỏ tình thì inbox riêng đi An Nguyen :))))","message_tags":[{"id":"100005801442456","name":"An Nguyen","type":"user","offset":34,"length":9}],"can_remove":false,"created_time":"2013-11-14T15:55:42+0000","like_count":0,"user_likes":false},"758209614195718":{"id":"758209614195718","from":{"id":"100003250657085","name":"Nhất Kiếm Vô Tình"},"message":"cho mình xin 1 xuất inbox nhé Mi Tra cũng đang muốn ....","message_tags":[{"id":"100000359762118","name":"Mi Tra","type":"user","offset":30,"length":6}],"can_remove":false,"created_time":"2013-11-14T15:56:40+0000","like_count":1,"user_likes":false},"758209944195685":{"id":"758209944195685","from":{"id":"100005801442456","name":"An Nguyen"},"message":"Đang inbox!","can_remove":false,"created_time":"2013-11-14T15:57:26+0000","like_count":0,"user_likes":false},"758211200862226":{"id":"758211200862226","from":{"id":"100002833803367","name":"Hoang Anh Luong"},"message":"夜ご飯を食べてから11時まで勉強しますそれからFmを聞きます\n12時にねます","can_remove":false,"created_time":"2013-11-14T16:00:12+0000","like_count":0,"user_likes":false},"758211884195491":{"id":"758211884195491","from":{"id":"1146680551","name":"優しい なぁ"},"message":"Chắc lập fan club của Mi Tra qua","can_remove":false,"created_time":"2013-11-14T16:01:52+0000","like_count":2,"user_likes":false},"758213320862014":{"id":"758213320862014","from":{"id":"100003250657085","name":"Nhất Kiếm Vô Tình"},"message":"xinh thông minh, sắc, giỏi tiếng vậy ai chẳng thích (trong đó chắc chắn có mình rồi)","can_remove":false,"created_time":"2013-11-14T16:04:10+0000","like_count":2,"user_likes":false},"758214640861882":{"id":"758214640861882","from":{"id":"1146680551","name":"優しい なぁ"},"message":"\" ペット \" xài hay hơn 動物 (doubutsu) chứ ^_^","can_remove":false,"created_time":"2013-11-14T16:05:20+0000","like_count":0,"user_likes":false},"758215327528480":{"id":"758215327528480","from":{"id":"100001848885057","name":"Tiểu Mỡ Nhi"},"message":"Đây là bài em dịch cộng vs trợ giúp của 1 sempai cùng lớp mọi người cho em thêm lời khuyên ạ\nはじめまして. わたし は Phongです.Bắc Ninh から きました. わたし の かぞく  は よにんです.  りゅうし と いもお です. まいにち　わたし　は　べんきょう　に　６じ　ごぜんに　いきます。それから　うち　へ　12 じ　ごぜん　に　かえります。わたし の うち は ちいさい です が, きれい です.\nわたし　は　どうぶつ　が　すきじゃありません, そして　いません. ごごわたしは さんぽと コーヒ が すき です.\nばん あとで ばんごはん　を　たべます。１１じ　まで　べんきょうします。ラジオFM を　ききます。それから　１２じ　に　ねます。","can_remove":false,"created_time":"2013-11-14T16:07:25+0000","like_count":0,"user_likes":false},"758216504195029":{"id":"758216504195029","from":{"id":"100001718883015","name":"Sayonara Daisukina Hito"},"message":"sai nhiều chỗ lắm bạn ak! mẫu câu sắp xếp chưa đúng","can_remove":false,"created_time":"2013-11-14T16:09:35+0000","like_count":0,"user_likes":false},"758216690861677":{"id":"758216690861677","from":{"id":"1146680551","name":"優しい なぁ"},"message":"Các bạn tập lược bỏ bớt masu vs desu đi sẽ hay hơn đó .","can_remove":false,"created_time":"2013-11-14T16:09:55+0000","like_count":0,"user_likes":false},"758217844194895":{"id":"758217844194895","from":{"id":"100003718429681","name":"Kawaii Tuti"},"message":"Đua đòi dịch tí xem có được ko. Vì viết cho ng mới nên mình k viết bằng kanji nha. \nはじめまして、フォンともうします。バック にんぐからまいりました。かぞくはよんにんいます。りょうしんといもうとです。まいにちがっこうは６じにはじめて、うちにかえるのは12じです。わたしのうちはせまいですが、きれいです。わたしはどうぶつがいやなので、なんにもかいません。ゆうがたにさんぽとかコーヒーをのむのがだいすきです。よるのたべたあとで、わたしは11じまでべんきょうして、それからfmをきいて、さいごはねます。\n                      以上です。","can_remove":false,"created_time":"2013-11-14T16:11:55+0000","like_count":3,"user_likes":false},"758217920861554":{"id":"758217920861554","from":{"id":"100002833803367","name":"Hoang Anh Luong"},"message":"毎日朝6時に学校へ行きますよ12時に家へ帰ります\n私の家は小さいですがキレイです","can_remove":false,"created_time":"2013-11-14T16:12:06+0000","like_count":2,"user_likes":false},"758218617528151":{"id":"758218617528151","from":{"id":"100001848885057","name":"Tiểu Mỡ Nhi"},"message":"Dạ vâng. em mới học tới bài 15 nên có những câu em chỉ dịch theo những ngữ pháp em đã có trong đầu. Có gì  mọi người sửa hộ em ạ","can_remove":false,"created_time":"2013-11-14T16:13:35+0000","like_count":1,"user_likes":false},"758218944194785":{"id":"758218944194785","from":{"id":"100001718883015","name":"Sayonara Daisukina Hito"},"message":"nếu như chủ thớt mới học đến bài 15 thì làm sao mà lược bỏ thể masu và desu được hả @anh nguyễn ( cả thể あとで của mình nữa :)))","can_remove":false,"created_time":"2013-11-14T16:14:40+0000","like_count":0,"user_likes":false},"758220454194634":{"id":"758220454194634","from":{"id":"100003718429681","name":"Kawaii Tuti"},"message":"Mọi người coi cmt của mình dịch có sai chỗ nào ko? Mong nhận được sự chỉ bảo","can_remove":false,"created_time":"2013-11-14T16:18:23+0000","like_count":0,"user_likes":false},"758222207527792":{"id":"758222207527792","from":{"id":"1146680551","name":"優しい なぁ"},"message":"Thầy an An Nguyen ới ời","message_tags":[{"id":"100005801442456","name":"An Nguyen","type":"user","offset":8,"length":9}],"can_remove":false,"created_time":"2013-11-14T16:23:27+0000","like_count":0,"user_likes":false},"758223227527690":{"id":"758223227527690","from":{"id":"100003718429681","name":"Kawaii Tuti"},"message":"皆さん、日本語で上手に話せるように勉強して下さい。今まで、僕は寝なくちゃ^ ^。頑張ってごらん。遅く寝ないでください。お休みなさい。","can_remove":false,"created_time":"2013-11-14T16:25:42+0000","like_count":2,"user_likes":false},"758226230860723":{"id":"758226230860723","from":{"id":"100005801442456","name":"An Nguyen"},"message":"Đang tỏ tình với Mi tra, gọi gì ấy?!?","can_remove":false,"created_time":"2013-11-14T16:31:51+0000","like_count":1,"user_likes":false},"758227120860634":{"id":"758227120860634","from":{"id":"100003250657085","name":"Nhất Kiếm Vô Tình"},"message":"An Nguyen khó nắm khó nắm","message_tags":[{"id":"100005801442456","name":"An Nguyen","type":"user","offset":0,"length":9}],"can_remove":false,"created_time":"2013-11-14T16:34:38+0000","like_count":0,"user_likes":false},"758230047527008":{"id":"758230047527008","from":{"id":"100000359762118","name":"Mi Tra"},"message":"Tiểu Mỡ Nhi  \n よにん→ よんにん\nりゅうし→　りょうしん\nいもお→　いもうと\nまいにち　わたし　は　べんきょう　に　６じ　ごぜんに　いきます。 →　まいにち　わたし　は　ごぜん　６じ　に　べんきょう　に　いきます。 ko dùng ごぜん　cũng được.\n\nそれから　うち　へ　12 じ　ごぜん　に　かえります。 →　それから　１２じ　に　うち　へ　かえります。\n\nわたし　は　どうぶつ　が　すきじゃありません, そして　いません. 　→　わたし　は　どうぶつ　が　すき　じゃありせん　から、（ペット　を）　かいません。\n\nごごわたしは さんぽと コーヒ が すき です.　→　さんぽ　したり、　コーヒー　を　のんだり　する　のは　すき　です。\n\nばん あとで ばんごはん　を　たべます。１１じ　まで　べんきょうします。ラジオFM を　ききます。それから　１２じ　に　ねます。\n→　ばんごはん　を　たべた　あと、　１１じ　まで　べんきょう　します。　ラジオ　を　きいて　から　１２じ　に　ねます。\n\nĐại loại là như thế này.","can_remove":false,"created_time":"2013-11-14T16:41:09+0000","like_count":5,"user_likes":false},"758230927526920":{"id":"758230927526920","from":{"id":"100001848885057","name":"Tiểu Mỡ Nhi"},"message":"Mi Tra Dạ em cảm ơn chị nhiều <3","message_tags":[{"id":"100000359762118","name":"Mi Tra","type":"user","offset":0,"length":6}],"can_remove":false,"created_time":"2013-11-14T16:44:01+0000","like_count":1,"user_likes":false},"758534020829944":{"id":"758534020829944","from":{"id":"100003671803669","name":"Tojika Sakura"},"message":"Mi Tra  neu dung とうもしょます。 thi cac ve sau cung phai dung khiem nhuong chu ak.e ngi Nhất Kiếm Vô Tình  chua hoc toi bai do thi nen dung です　hon","message_tags":[{"id":"100000359762118","name":"Mi Tra","type":"user","offset":0,"length":6},{"id":"100003250657085","name":"Nhất Kiếm Vô Tình","type":"user","offset":82,"length":17}],"can_remove":false,"created_time":"2013-11-15T03:15:06+0000","like_count":1,"user_likes":false},"758537337496279":{"id":"758537337496279","from":{"id":"100000359762118","name":"Mi Tra"},"message":"Bạn muốn nói ~と もうします phải không? \nĐúng là đã dùng văn ngắn thì tất cả các câu đều phải văn ngắn. です・ます thì phải です・ます.\nKhiêm nhường ngữ, kính ngữ thì phải đồng loạt khiêm nhường ngữ và kính ngữ. \nTuy nhiên các bạn ấy viết ra đây, câu bị sai thì mình sửa sai cho bạn ấy thôi. \nCòn dùng sao cho thống nhất dần dần học lên bạn ấy sẽ nhận ra ^^","can_remove":false,"created_time":"2013-11-15T03:21:18+0000","like_count":2,"user_likes":false},"758553630827983":{"id":"758553630827983","from":{"id":"100004776940538","name":"Kendy Lee"},"message":"Bài này ko làm đc thì đâm đầu tự tử hết, tất cả đều trong giáo trình, phải tự lôi ra đọc và tự làm mới nhớ lâu.","can_remove":false,"created_time":"2013-11-15T04:12:16+0000","like_count":1,"user_likes":false},"758555450827801":{"id":"758555450827801","from":{"id":"100001416272263","name":"Mai PB"},"message":"Kendy Lee đừng viết kiểu khiêu khích như thế, không hay đâu.","message_tags":[{"id":"100004776940538","name":"Kendy Lee","type":"user","offset":0,"length":9}],"can_remove":false,"created_time":"2013-11-15T04:13:50+0000","like_count":6,"user_likes":false},"758558257494187":{"id":"758558257494187","from":{"id":"100004776940538","name":"Kendy Lee"},"message":"Sự thật nó mất lòng, mình sang đến đất Nhật, 1 chữ bẻ đôi không biết đến cái câu đơn giản \"bạn đến nhật từ khi nào\" còn không hiểu là gì, đi trên tàu nghe từ \"ください\" cũng không biết nốt, ngồi trong lớp để 1 thằng trẻ hơn bảo \"ngu\". Cay cú cố mà học cho bằng chúng nó.","can_remove":false,"created_time":"2013-11-15T04:18:14+0000","like_count":1,"user_likes":false},"758558794160800":{"id":"758558794160800","from":{"id":"100005801442456","name":"An Nguyen"},"message":"Những lời như bạn làm người khác không dám hỏi nữa bạn biết chứ? Để nhân loại tiến lên được thì con người cần trau dồi kiến thức và hỏi chính là sự cầu thị để nâng cao kiến thức bản thân đấy!","can_remove":false,"created_time":"2013-11-15T04:20:53+0000","like_count":5,"user_likes":false},"758560837493929":{"id":"758560837493929","from":{"id":"100004776940538","name":"Kendy Lee"},"message":"Đúng là ko biết thì phải hỏi, nhưng hỏi những cái trong sách có (kiến thức cơ bản quyền mina 1 học đến tầm bài 7,8 là tự dịch đc), thì như thế này là hại người ta chứ ko phải giúp đâu, đây là đang dạy tính ỷ lại đấy !","can_remove":false,"created_time":"2013-11-15T04:24:45+0000","like_count":3,"user_likes":false},"758561197493893":{"id":"758561197493893","from":{"id":"100001848885057","name":"Tiểu Mỡ Nhi"},"message":"Anh nhầm rồi. Có những câu em học đến 15 rồi mà cũng ko viết được ạ.","can_remove":false,"created_time":"2013-11-15T04:26:05+0000","like_count":0,"user_likes":false},"758561450827201":{"id":"758561450827201","from":{"id":"100001416272263","name":"Mai PB"},"message":"Nói, mắng, hay trách móc đều được, nhưng cần có tính xây dựng và không cay nghiệt. Dù sao cũng là người trong xã hội chứ không phải con hay em của bạn, Kendy Lee","message_tags":[{"id":"100004776940538","name":"Kendy Lee","type":"user","offset":152,"length":9}],"can_remove":false,"created_time":"2013-11-15T04:27:03+0000","like_count":4,"user_likes":false},"758576484159031":{"id":"758576484159031","from":{"id":"100003250657085","name":"Nhất Kiếm Vô Tình"},"message":"Kendy Lee bạn là người đi trước bn học chắc mình đi sau còn nhiều bỡ ngỡ nên ko làm được chứ ko phải tới mức Ngu như bạn nói. Mình ko biết nên mình mới hỏi vậy thôi","message_tags":[{"id":"100004776940538","name":"Kendy Lee","type":"user","offset":0,"length":9}],"can_remove":false,"created_time":"2013-11-15T05:19:57+0000","like_count":1,"user_likes":false},"758577260825620":{"id":"758577260825620","from":{"id":"100001416272263","name":"Mai PB"},"message":"Dừng cái topic này tại đây nhé.","can_remove":false,"created_time":"2013-11-15T05:22:48+0000","like_count":1,"user_likes":false},"758577404158939":{"id":"758577404158939","from":{"id":"100003250657085","name":"Nhất Kiếm Vô Tình"},"message":"ok anh Mai PB","message_tags":[{"id":"100001416272263","name":"Mai PB","type":"user","offset":7,"length":6}],"can_remove":false,"created_time":"2013-11-15T05:23:24+0000","like_count":0,"user_likes":false}},"paging":{"cursors":{"after":"NzU4MTUzMzIwODY4MDE0","before":"NzU4MTUzMzIwODY4MDE0"},"next":"https://graph.facebook.com/229244010425617_758151537534859/comments?limit=1&summary=1&after=NzU4MTUzMzIwODY4MDE0"},"summary":{"order":"chronological","total_count":64}}}