{"id":"229244010425617_758611020822244","type":"status","from":{"id":"100001754136107","name":"Nguyễn Tuấn Vũ"},"message":"Cùng phân biệt 気持ち　気分\n1.　 あなたに対する｛気持ち/気分｝は変わらない\n2.　もっと｛気持ち/気分｝のいいときにお話しましょう。\n3.　学校を辞めようという｛気持ち/気分｝はまったくない。\n4.　雨で服がぬれて｛気持ち/気分｝が悪い。\n5.　相手の｛気持ち/気分｝も考えましょう。\n6.　皆の前でしかられて、｛気持ち/気分｝が悪かった。\n7.　試験の結果が思ったよりよかったので｛気持ち/気分｝がいい。\n8.　今日は｛気持ち/気分｝がいい天気ですね\n9.　いつもほめないA先生からほめられて、｛気持ち/気分｝が悪い\n10.　雨の日はなんとなく｛気持ち/気分｝がよくない。\n Chọn 1 đáp án trong ngoặc nhé.","created_time":"2013-11-15T07:48:35+0000","updated_time":"2013-11-16T14:28:33+0000","likes":{"data":{"100001723862714":{"id":"100001723862714","name":"Bo Bien Vang"},"100002958180210":{"id":"100002958180210","name":"Kusa Aki"},"100003049639881":{"id":"100003049639881","name":"Truong Luvuxy"},"657157297":{"id":"657157297","name":"Phan Dien"},"100001416272263":{"id":"100001416272263","name":"Mai PB"},"569263718":{"id":"569263718","name":"Phuong Thao Tran"},"100003599920499":{"id":"100003599920499","name":"ふゆ はな"},"1816269439":{"id":"1816269439","name":"Dao Ngoc"},"100000173039166":{"id":"100000173039166","name":"Kukku Lee"},"100005801442456":{"id":"100005801442456","name":"An Nguyen"}},"paging":{"cursors":{"after":"MTAwMDAxNzIzODYyNzE0","before":"MTAwMDAxNzIzODYyNzE0"},"next":"https://graph.facebook.com/229244010425617_758611020822244/likes?limit=1&summary=1&after=MTAwMDAxNzIzODYyNzE0"},"summary":{"total_count":11}},"comments":{"data":{"758634934153186":{"id":"758634934153186","from":{"id":"569263718","name":"Phuong Thao Tran"},"message":"1．気持ち\n2．気分\n3．気持ち\n4．気分\n5．気持ち\n6．気分\n7．気持ち\n8．気持ち\n9．気分\n10．気分","can_remove":false,"created_time":"2013-11-15T09:08:39+0000","like_count":0,"user_likes":false},"759077457442267":{"id":"759077457442267","from":{"id":"100001754136107","name":"Nguyễn Tuấn Vũ"},"message":"Phuong Thao Tran: 2 câu sai bạn ak :d","message_tags":[{"id":"569263718","name":"Phuong Thao Tran","type":"user","offset":0,"length":16}],"can_remove":false,"created_time":"2013-11-16T02:36:52+0000","like_count":1,"user_likes":false},"759266480756698":{"id":"759266480756698","from":{"id":"100002958180210","name":"Kusa Aki"},"message":"Cau tra loi o tren sai cau 4va cau 9phai ko nhi","can_remove":false,"created_time":"2013-11-16T10:38:09+0000","like_count":0,"user_likes":false},"759358924080787":{"id":"759358924080787","from":{"id":"100001754136107","name":"Nguyễn Tuấn Vũ"},"message":"Ko, câu 7 va câu 9","can_remove":false,"created_time":"2013-11-16T14:28:33+0000","like_count":0,"user_likes":false}},"paging":{"cursors":{"after":"NzU4NjM0OTM0MTUzMTg2","before":"NzU4NjM0OTM0MTUzMTg2"},"next":"https://graph.facebook.com/229244010425617_758611020822244/comments?limit=1&summary=1&after=NzU4NjM0OTM0MTUzMTg2"},"summary":{"order":"chronological","total_count":4}}}