{"id":"229244010425617_758792070804139","type":"status","from":{"id":"1816269439","name":"Dao Ngoc"},"message":"Trước giờ đi ngủ xin gửi cả nhà một câu hỏi: Nhân vật này là ai. \n\nÔng là một doanh nhân người Việt thành đạt tại Nhật Bản.\n Ông là một nhà nghiên cứu nhưng có định hướng và chiến lược cụ thể. \nTriết lý ông tâm niệm nhất là \"Nhất nghệ tinh, nhất thân vinh\".\n Trong suốt quá trình hoạt động không mệt mỏi, ông sở hữu trên 70 bằng sáng chế trong lĩnh vực của mình, góp phần quan trọng đưa Nhật trở thành quốc gia có tỷ lệ tử vong của trẻ sơ sinh xuống hàng thấp nhất thế giới và được Nhật Hoàng đích thân tới viếng thăm. \nÔng là một trong những niềm tự hào của đất Việt trên xứ xở này!\n\nCó lẽ có vài bạn sẽ có câu trả lời luôn đó. ;).\n おやすみなさいませ！","created_time":"2013-11-15T15:34:48+0000","updated_time":"2013-11-15T23:52:29+0000","likes":{"data":{"100002871405403":{"id":"100002871405403","name":"Thach Sanh"},"100000301107340":{"id":"100000301107340","name":"Bảo Bảnh Bao"},"100004251845458":{"id":"100004251845458","name":"Hoàng Anh"},"760980208":{"id":"760980208","name":"Kim Giao Tong"},"100003158735323":{"id":"100003158735323","name":"Tiêu Tương Dạ Vũ"},"100005801442456":{"id":"100005801442456","name":"An Nguyen"},"100003090738530":{"id":"100003090738530","name":"Ngô Thị Thanh Hường"},"100001116169487":{"id":"100001116169487","name":"Minh le Dinh"},"100004715524978":{"id":"100004715524978","name":"Minh Chiến"},"100000045271667":{"id":"100000045271667","name":"Nam Thai Nguyen"},"100001416272263":{"id":"100001416272263","name":"Mai PB"},"100006767705219":{"id":"100006767705219","name":"Kim Liên"}},"paging":{"cursors":{"after":"MTAwMDAyODcxNDA1NDAz","before":"MTAwMDAyODcxNDA1NDAz"},"next":"https://graph.facebook.com/229244010425617_758792070804139/likes?limit=1&summary=1&after=MTAwMDAyODcxNDA1NDAz"},"summary":{"total_count":12}},"comments":{"data":{"758817350801611":{"id":"758817350801611","from":{"id":"100004474144250","name":"Furby Cass"},"message":"Niềm tưj hào nà ai vậy\nMình muốn biết","can_remove":false,"created_time":"2013-11-15T16:06:19+0000","like_count":0,"user_likes":false},"758825714134108":{"id":"758825714134108","from":{"id":"100000045271667","name":"Nam Thai Nguyen"},"message":"Câu trả lời cuối cùng là Trần Ngọc Phúc đúng chưa  Dao Ngoc ơi :v","message_tags":[{"id":"1816269439","name":"Dao Ngoc","type":"user","offset":51,"length":8}],"can_remove":false,"created_time":"2013-11-15T16:21:09+0000","like_count":2,"user_likes":false},"759010284115651":{"id":"759010284115651","from":{"id":"1617159513","name":"竹田穂亜"},"message":"c biết nè.Dạo này trên ti vi ở VN cũng đưa tin về nhân vật này và dân cu mạng dạo này lại đưa tin về ông hơi bị nhiều.","can_remove":false,"created_time":"2013-11-15T23:05:06+0000","like_count":0,"user_likes":false},"759027150780631":{"id":"759027150780631","from":{"id":"1816269439","name":"Dao Ngoc"},"message":"Hi hi. Có lẽ nhiềm mem biết rồi nhưng em vẫn muốn post lên để mọi người biết thêm về cộng đồng bên này! ^^","can_remove":false,"created_time":"2013-11-15T23:52:29+0000","like_count":1,"user_likes":false}},"paging":{"cursors":{"after":"NzU4ODE3MzUwODAxNjEx","before":"NzU4ODE3MzUwODAxNjEx"},"next":"https://graph.facebook.com/229244010425617_758792070804139/comments?limit=1&summary=1&after=NzU4ODE3MzUwODAxNjEx"},"summary":{"order":"chronological","total_count":4}}}