{"id":"229244010425617_758816044135075","type":"video","picture":"https://fbexternal-a.akamaihd.net/safe_image.php?d=AQDQqazRNA5o8xOY&w=130&h=130&url=http%3A%2F%2Fi1.ytimg.com%2Fvi%2Fozx83qABbvs%2Fhqdefault.jpg%3Ffeature%3Dog","link":"http://www.youtube.com/watch?v=ozx83qABbvs","source":"http://www.youtube.com/v/ozx83qABbvs?version=3&autohide=1&autoplay=1","from":{"id":"100001416272263","name":"Mai PB"},"message":"Ngủ ngon với bằng bài tình ca này nhé.\n\nhttp://www.youtube.com/watch?v=ozx83qABbvs","created_time":"2013-11-15T16:03:26+0000","updated_time":"2013-11-17T05:18:41+0000","likes":{"data":{"100001122451473":{"id":"100001122451473","name":"Lavender Cullen"},"100001723862714":{"id":"100001723862714","name":"Bo Bien Vang"},"100003076762517":{"id":"100003076762517","name":"ThiênKim Nhị Tiểu Quỷ"},"100004716640495":{"id":"100004716640495","name":"Thúy An Dương"},"100006328542723":{"id":"100006328542723","name":"Dung Dung"},"100000022163023":{"id":"100000022163023","name":"Kafe Ore"},"100001365545442":{"id":"100001365545442","name":"Nguyễn Nam"},"100001594722256":{"id":"100001594722256","name":"Viết An Phạm"},"100000359762118":{"id":"100000359762118","name":"Mi Tra"},"1148962646":{"id":"1148962646","name":"Tran Thi Tuong Van"},"100000226369400":{"id":"100000226369400","name":"Vạn Lý Độc Hành"},"100000193104491":{"id":"100000193104491","name":"Hac Nguyet"},"100000226646981":{"id":"100000226646981","name":"My Nguyen"},"100004398330290":{"id":"100004398330290","name":"Lam Linh"},"100006767705219":{"id":"100006767705219","name":"Kim Liên"},"550401589":{"id":"550401589","name":"Cuong Cao"},"100003762427351":{"id":"100003762427351","name":"Hiroshi Yasu Oki"},"1146680551":{"id":"1146680551","name":"優しい なぁ"},"100000468762077":{"id":"100000468762077","name":"Youki Youki"}},"paging":{"cursors":{"after":"MTAwMDAxMTIyNDUxNDcz","before":"MTAwMDAxMTIyNDUxNDcz"},"next":"https://graph.facebook.com/229244010425617_758816044135075/likes?limit=1&summary=1&after=MTAwMDAxMTIyNDUxNDcz"},"summary":{"total_count":20}},"comments":{"data":{"758816540801692":{"id":"758816540801692","from":{"id":"1146680551","name":"優しい なぁ"},"message":"có lyric nữa thì tuyệt ^_^","can_remove":false,"created_time":"2013-11-15T16:04:30+0000","like_count":0,"user_likes":false},"758816824134997":{"id":"758816824134997","from":{"id":"100001416272263","name":"Mai PB"},"message":"徳永英明 \n\nレイニー ブルー\n\n作詞：大木誠\n作曲：徳永英明\n\n人影も見えない　午前0時\n電話BOXの外は雨\nかけなれたダイアル　回しかけて\nふと指を　止める\n\n冷たい雨に　打たれながら\n哀しい物語　想い出した\nあなたの帰り道　交差点\nふと足を　止める\n\nレイニー ブルー　もう終わったはずなのに\nレイニー ブルー　何故追いかけるの\nあなたの幻　消すように\n私も今日は　そっと雨\n\n行き過ぎる車の　ヘッドライトが\nひとりぼっちの　影をつくる\n\nあなたの白い車　捜しかけて\nふと瞳を　ふせる\n\nレイニー ブルー　もう終わったはずなのに\nレイニー ブルー　何時まで追いかけるの\nあなたの幻　消すように\n私も今日は　そっと雨\nレイニー ブルー　もう終わったはずなのに\nレイニー ブルー　何故追いかけるの\nあなたの幻　消すように\n私も今日は　そっと雨\n\nあの頃のやさしさに　つつまれてた想い出が\n流れてく　この街に\nIt's a rainy blue　It's a rainy blue\nゆれる心　ぬらす涙\nIt's a rainy blue,\nloneliness…","can_remove":false,"created_time":"2013-11-15T16:05:16+0000","like_count":1,"user_likes":false},"759067640776582":{"id":"759067640776582","from":{"id":"100001416272263","name":"Mai PB"},"message":"Ohayou, Mochi Sweets","message_tags":[{"id":"100006767705219","name":"Mochi Sweets","type":"user","offset":8,"length":12}],"can_remove":false,"created_time":"2013-11-16T02:03:42+0000","like_count":1,"user_likes":false},"759188214097858":{"id":"759188214097858","from":{"id":"100000359762118","name":"Mi Tra"},"message":"Vì bài này của em mà 3h sáng tỉnh giấc, ứ ngủ được nữa :)))","can_remove":false,"created_time":"2013-11-16T09:04:48+0000","like_count":1,"user_likes":false},"759192957430717":{"id":"759192957430717","from":{"id":"100001416272263","name":"Mai PB"},"message":"Lý do? :-)","can_remove":false,"created_time":"2013-11-16T09:18:22+0000","like_count":0,"user_likes":false},"759262517423761":{"id":"759262517423761","from":{"id":"100000359762118","name":"Mi Tra"},"message":"Vì em ngủ từ 8h tối tới 3h sáng tỉnh giấc. Mò vào face nghe bài này nhớ... người iu (cũ), ko ngủ được nữa hehehee","can_remove":false,"created_time":"2013-11-16T10:28:57+0000","like_count":1,"user_likes":false},"759264264090253":{"id":"759264264090253","from":{"id":"100001416272263","name":"Mai PB"},"message":"Bài 9 điểm của anh quả có tác dụng. Hà Nguyễn","message_tags":[{"id":"100004360751785","name":"Hà Nguyễn","type":"user","offset":36,"length":9}],"can_remove":false,"created_time":"2013-11-16T10:34:45+0000","like_count":0,"user_likes":false},"759301210753225":{"id":"759301210753225","from":{"id":"100001416272263","name":"Mai PB"},"message":"Rút kinh nghiệm sâu sắc.","can_remove":false,"created_time":"2013-11-16T11:58:15+0000","like_count":0,"user_likes":false},"759807814035898":{"id":"759807814035898","from":{"id":"100004360751785","name":"Hà Nguyễn"},"message":"Mai PB  âm nhạc có sức ảnh hưởng ghê gớm, bác có bài tình cảm hồn nhiên nào ko :D","message_tags":[{"id":"100001416272263","name":"Mai PB","type":"user","offset":0,"length":6}],"can_remove":false,"created_time":"2013-11-17T04:44:18+0000","like_count":1,"user_likes":false},"759820354034644":{"id":"759820354034644","from":{"id":"100001416272263","name":"Mai PB"},"message":"Có vẻ như các cô gái đều không thích bài này. :-)","can_remove":false,"created_time":"2013-11-17T05:18:41+0000","like_count":0,"user_likes":false}},"paging":{"cursors":{"after":"NzU4ODE2NTQwODAxNjky","before":"NzU4ODE2NTQwODAxNjky"},"next":"https://graph.facebook.com/229244010425617_758816044135075/comments?limit=1&summary=1&after=NzU4ODE2NTQwODAxNjky"},"summary":{"order":"chronological","total_count":14}}}