{"id":"229244010425617_759012267448786","type":"status","from":{"id":"1617159513","name":"竹田穂亜"},"message":"Cám ơn em Meo Luoi đã nhanh chóng accept c nhè.Chào cả nhà mình là mem mới toanh.Xin học hỏi cả nhà.","created_time":"2013-11-15T23:06:57+0000","updated_time":"2013-11-17T00:02:52+0000","likes":{"data":{"100001723862714":{"id":"100001723862714","name":"Bo Bien Vang"},"100005801442456":{"id":"100005801442456","name":"An Nguyen"},"1296997933":{"id":"1296997933","name":"Pham Thi Thu Phuong"},"100001416272263":{"id":"100001416272263","name":"Mai PB"},"100004094346107":{"id":"100004094346107","name":"Thuy Nga Nguyen"},"100006479420145":{"id":"100006479420145","name":"Trịnh Thị Kim Anh"},"100001324611896":{"id":"100001324611896","name":"Meo Luoi"},"1146680551":{"id":"1146680551","name":"優しい なぁ"},"1816269439":{"id":"1816269439","name":"Dao Ngoc"}},"paging":{"cursors":{"after":"MTAwMDAxNzIzODYyNzE0","before":"MTAwMDAxNzIzODYyNzE0"},"next":"https://graph.facebook.com/229244010425617_759012267448786/likes?limit=1&summary=1&after=MTAwMDAxNzIzODYyNzE0"},"summary":{"total_count":9}},"comments":{"data":{"759019007448112":{"id":"759019007448112","from":{"id":"100001324611896","name":"Meo Luoi"},"message":"K có gì chị ơi !!!! Cùng chung sức vì 1 vn k tai tiếng chị ah !!!! Mong chị giúp em và mọi ng","can_remove":false,"created_time":"2013-11-15T23:28:39+0000","like_count":1,"user_likes":false},"759019414114738":{"id":"759019414114738","from":{"id":"1617159513","name":"竹田穂亜"},"message":"c biết group này lâu rồi.Mà đâu biết e nằm trong admin.Hôm nay vô tình đọc stt của Đào Ngọc mà c muốn cmt nên gia nhập.hihi","can_remove":false,"created_time":"2013-11-15T23:30:28+0000","like_count":1,"user_likes":false},"759020657447947":{"id":"759020657447947","from":{"id":"100001324611896","name":"Meo Luoi"},"message":"Chị ơi e k phải admin đâu !!! Em cũng chưa đóng góp gì cho nhóm a","can_remove":false,"created_time":"2013-11-15T23:34:36+0000","like_count":0,"user_likes":false},"759021247447888":{"id":"759021247447888","from":{"id":"1617159513","name":"竹田穂亜"},"message":"vậy admin là ai thế nhỉ hihi.... sao e accept c được?","can_remove":false,"created_time":"2013-11-15T23:36:32+0000","like_count":0,"user_likes":false},"759021717447841":{"id":"759021717447841","from":{"id":"100001324611896","name":"Meo Luoi"},"message":"Admin của nhóm là anh Mai PB ah","can_remove":false,"created_time":"2013-11-15T23:38:09+0000","like_count":1,"user_likes":false},"759162097433803":{"id":"759162097433803","from":{"id":"100001416272263","name":"Mai PB"},"message":"admin là Dao Ngoc đấy","message_tags":[{"id":"1816269439","name":"Dao Ngoc","type":"user","offset":9,"length":8}],"can_remove":false,"created_time":"2013-11-16T07:35:14+0000","like_count":1,"user_likes":false},"759166967433316":{"id":"759166967433316","from":{"id":"1146680551","name":"優しい なぁ"},"message":"Admin là an An Nguyen đấy","message_tags":[{"id":"100005801442456","name":"An Nguyen","type":"user","offset":12,"length":9}],"can_remove":false,"created_time":"2013-11-16T07:51:09+0000","like_count":2,"user_likes":false},"759177077432305":{"id":"759177077432305","from":{"id":"1816269439","name":"Dao Ngoc"},"message":":))))","can_remove":false,"created_time":"2013-11-16T08:30:51+0000","like_count":0,"user_likes":false},"759177170765629":{"id":"759177170765629","from":{"id":"1816269439","name":"Dao Ngoc"},"message":"Sắp được điểm danh đủ roài","can_remove":false,"created_time":"2013-11-16T08:31:01+0000","like_count":2,"user_likes":false},"759285537421459":{"id":"759285537421459","from":{"id":"100005801442456","name":"An Nguyen"},"message":"Admin là Kham Pha Ấy @.@ em là mem!","message_tags":[{"id":"100001458099624","name":"Kham Pha","type":"user","offset":9,"length":8}],"can_remove":false,"created_time":"2013-11-16T11:24:32+0000","like_count":0,"user_likes":false},"759615720721774":{"id":"759615720721774","from":{"id":"1617159513","name":"竹田穂亜"},"message":"hahahha.Mọi người điểm danh ít thế?Ai cũng là Ad hết.Còn mình chỉ xin làm mem.","can_remove":false,"created_time":"2013-11-17T00:02:52+0000","like_count":0,"user_likes":false}},"paging":{"cursors":{"after":"NzU5MDE5MDA3NDQ4MTEy","before":"NzU5MDE5MDA3NDQ4MTEy"},"next":"https://graph.facebook.com/229244010425617_759012267448786/comments?limit=1&summary=1&after=NzU5MDE5MDA3NDQ4MTEy"},"summary":{"order":"chronological","total_count":11}}}