{"id":"229244010425617_759071667442846","type":"link","picture":"https://fbexternal-a.akamaihd.net/safe_image.php?d=AQAS3dm72Qnu4IBY&w=154&h=154&url=http%3A%2F%2Fascii.jp%2Felem%2F000%2F000%2F842%2F842623%2F007_660x304.jpg","link":"http://ascii.jp/elem/000/000/842/842623/img.html","from":{"id":"100001416272263","name":"Mai PB"},"message":"Có đúng là thị phần mạng xã hội ở VN hiện giờ như thế này không? Các mạng kia thế nào nhỉ? http://ascii.jp/elem/000/000/842/842623/img.html","created_time":"2013-11-16T02:18:23+0000","updated_time":"2013-11-17T06:12:00+0000","likes":{"data":{"100005440689746":{"id":"100005440689746","name":"Trang Mapy"},"100005801442456":{"id":"100005801442456","name":"An Nguyen"},"100002871405403":{"id":"100002871405403","name":"Thach Sanh"}},"paging":{"cursors":{"after":"MTAwMDA1NDQwNjg5NzQ2","before":"MTAwMDA1NDQwNjg5NzQ2"},"next":"https://graph.facebook.com/229244010425617_759071667442846/likes?limit=1&summary=1&after=MTAwMDA1NDQwNjg5NzQ2"},"summary":{"total_count":3}},"comments":{"data":{"759073547442658":{"id":"759073547442658","from":{"id":"100000603915176","name":"悪いな ぁ"},"message":"Sai bét, FB kg thể đứng dưới. Ra đg thấy ai cũng vào FB nhưng chưa bao giờ thấy vào ai vào Zing Me. Yahoo thì hầu như đã chết. Tamtay kg nhiều người biết đến. Diendanbaclieu thì chưa xứng tầm ghi trong top, chỉ là 1 diễn đàn nhỏ bé thôi!","can_remove":false,"created_time":"2013-11-16T02:23:27+0000","like_count":2,"user_likes":false},"759075097442503":{"id":"759075097442503","from":{"id":"100001257093338","name":"Hanh Dang"},"message":"Nhưng cái mũi tên nó chỉ ở trên và chỉ ở giữa có ý nghĩa gì không vậy?","can_remove":false,"created_time":"2013-11-16T02:27:57+0000","like_count":0,"user_likes":false},"759076060775740":{"id":"759076060775740","from":{"id":"100001257093338","name":"Hanh Dang"},"message":"Zing Me mình không dùng nên không rõ nhưng thấy teen  vn ai cũng có tài khoản hết, họ lên đó chơi game khá nhiều","can_remove":false,"created_time":"2013-11-16T02:31:15+0000","like_count":1,"user_likes":false},"759076287442384":{"id":"759076287442384","from":{"id":"100000603915176","name":"悪いな ぁ"},"message":"Chỉ là mũi tên chỉ vào VN thôi, kg có ý nghĩa vùng miền!","can_remove":false,"created_time":"2013-11-16T02:32:15+0000","like_count":0,"user_likes":false},"759077274108952":{"id":"759077274108952","from":{"id":"100000603915176","name":"悪いな ぁ"},"message":"Bài này đăng tháng 7 năm 2013: http://vtown.vn/news/mang-xa-hoi-o-viet-nam.html","can_remove":false,"created_time":"2013-11-16T02:36:13+0000","like_count":1,"user_likes":false},"759147477435265":{"id":"759147477435265","from":{"id":"1146680551","name":"優しい なぁ"},"message":"Lên alexa coi là chính xác nhât.","can_remove":false,"created_time":"2013-11-16T06:44:08+0000","like_count":1,"user_likes":false},"759165850766761":{"id":"759165850766761","from":{"id":"1146680551","name":"優しい なぁ"},"message":"Zing me nó chiếm tỉ lệ cao vì các trò chơi trực tuyến hiện nay ở vn đều từ zing.vi thế xếp hạng cao là chuyện bình thường vì nó link vs nhau mà","can_remove":false,"created_time":"2013-11-16T07:47:28+0000","like_count":0,"user_likes":false},"759168000766546":{"id":"759168000766546","from":{"id":"100000603915176","name":"悪いな ぁ"},"message":"Cũng kg hẳn, ở đây nói đến thị phần là nói đến số lượng người dùng tại Vn nhé! Zing mới chỉ chiếm một lượng nhỏ giới trẻ còn FB chiếm một lượng lớn, chưa kể những độ tuổi khác. Alexa có thể coi là một công cụ đo kém nhất trong số các công cụ :)","can_remove":false,"created_time":"2013-11-16T07:54:35+0000","like_count":1,"user_likes":false},"759168437433169":{"id":"759168437433169","from":{"id":"1146680551","name":"優しい なぁ"},"message":"Bạn đưa ra vài phép so sánh được k?!","can_remove":false,"created_time":"2013-11-16T07:56:31+0000","like_count":0,"user_likes":false},"759169480766398":{"id":"759169480766398","from":{"id":"100000603915176","name":"悪いな ぁ"},"message":"Vài phép so sánh thì mình đưa ra sẽ kg chuẩn nhưng có những ước lượng mang tính chất cảm tính để so sánh. Độ tuổi sử dụng, tần xuất sử dụng, số lượng người, giá trị quảng cáo, tốc độ lan truyền, .... Ở đây khi nói mạng xã hội, nên chỉ nói đến zing me chứ bạn kg nền đề cập đến game, music... vào nữa nhé!","can_remove":false,"created_time":"2013-11-16T08:01:41+0000","like_count":1,"user_likes":false},"759303740752972":{"id":"759303740752972","from":{"id":"100001243411261","name":"Ngưu Tỷ Tỷ"},"message":"taytam.vn em chưa biết đến trang này :]","can_remove":false,"created_time":"2013-11-16T12:05:52+0000","like_count":0,"user_likes":false},"759349014081778":{"id":"759349014081778","from":{"id":"1146680551","name":"優しい なぁ"},"message":"Ý mình hỏi bạn kêu alexa kém nhất.bạn cho mình vai phép so sánh.còn mấy điều bạn nói thì k sai.đó là những tiêu chí để đánh giá giá trị của 1 trang web","can_remove":false,"created_time":"2013-11-16T14:05:27+0000","like_count":0,"user_likes":false},"759366417413371":{"id":"759366417413371","from":{"id":"100000603915176","name":"悪いな ぁ"},"message":"Viết ra thì hơi dài nhưng đại khái mình có thể nói sơ qua thế này.\n\n- Alexa chỉ tính đc truy cập khi trình duyệt có càiđặt Alexa Tôlbar, mà kg phải trình duyệt nào cũng cài đc.\n- Alexa kg có nhiều chức năng, công việc của nó chỉ là hiển thị Alexa và ô tìm kiếm nhưng chẳng mấy ai đụng đến và rất khó để có lý do để người dùng cài đặt toolbar vào trình duyệt khi mà nó chỉ dùng để xem rank.\n- Hầu hết các chương trình Anti virus, Internet Security đều cảnh báo khi cài Alexa Toolbar vào IE và xem nó như là adware, spyware.\n- Cơ chế tính rank của Alexa quá đơn giản và quá dễ để lừa, điều hoàn toàn có thể làm được. Đầu tiên là bọn khựa đi đầu trong phong trào đó, sau đó là VN và nhiều nc khác. Có thể nói đến đó là đủ hiểu nó vô nghĩa.\n\nTheo mình, ít ra dùng Google Trends để đánh giá mức phổ biến, sự phát triển của site đó còn tốt hơn.\n\nNgoài ra, Google Analytics cũng rất tốt, nhất là với ai cần tìm hiểu website nào đó để đặt quảng cáo.","can_remove":false,"created_time":"2013-11-16T14:44:51+0000","like_count":0,"user_likes":false},"759367710746575":{"id":"759367710746575","from":{"id":"100000045271667","name":"Nam Thai Nguyen"},"message":"Có 3 loại nói dối: nói dối, nói dối thô bỉ và thống kê. Con số thống kê này là ảo nhé. VN chặn Fb nên để vào Fb cần nhiều cách, như đổi IP... do đó vô hình dung lượng người dùng đẩy sang nước ngoài. Điều nữa, không tiện nói ra, tóm lại là con số thống kê không thật!!","can_remove":false,"created_time":"2013-11-16T14:47:33+0000","like_count":0,"user_likes":false},"759370267412986":{"id":"759370267412986","from":{"id":"1146680551","name":"優しい なぁ"},"message":"Nó là alexa thì nó hiển thị alexa ?!  Còn web chạy thì liên quan j đến trình duyệt .có liên quan thì chẳng qua chèn vào css đoạn code của alexa.nếu mình nhớ k nhầm. Google analytics thì mới phát triển mạnh 5 năm đổ lại đây.khi SEO web phát triển thì có vẻ alexa k đc như trước.nhưng mình vẫn đánh giá alexa ổn","can_remove":false,"created_time":"2013-11-16T14:51:28+0000","like_count":0,"user_likes":false},"759377650745581":{"id":"759377650745581","from":{"id":"100001458099624","name":"Kham Pha"},"message":"trong các bài nói về SEO gần đây, mình nhớ một bài năm 2012 họ đều nói rank của alexa ko có giá trị gì nhiều.","can_remove":false,"created_time":"2013-11-16T15:04:51+0000","like_count":2,"user_likes":false},"759379160745430":{"id":"759379160745430","from":{"id":"100000603915176","name":"悪いな ぁ"},"message":"Anh Nguyễn nghiên cứu lại kỹ đi, có vẻ bạn đã bị lỗi thời về đề tài công cụ đánh giá website rồi. Còn nó liên quan gì đến trình duyệt, bạn hỏi câu đó có lẽ mình sẽ lại phải giải thích dài dòng hơn nhưng cũng có thể thấy hình như bản thân bạn chưa hiểu về Alexa. Mà mình có một ví dụ vui thế này, ngày trước công ty mình có tạo môt website, lúc đó cứ nghĩ mấy bác khách hàng buôn bán lơ ngơ không biết gì. Mình làm hẳn mấy tờ rơi có in ranking website của mình trên alexa rồi gửi đến họ. Vài bữa sau đến các ông ấy bảo, ranking alexa thì xem làm quái gì... Ngượng chín mặt :p","message_tags":[{"id":"1146680551","name":"Anh Nguyễn","type":"user","offset":0,"length":10}],"can_remove":false,"created_time":"2013-11-16T15:09:17+0000","like_count":1,"user_likes":false},"759382800745066":{"id":"759382800745066","from":{"id":"100000603915176","name":"悪いな ぁ"},"message":"Anh Nguyễn đọc thử cái này nhé: http://marketing.24h.com.vn/digital-marketing-24h/nhung-dieu-ban-can-biet-ve-alexa/","message_tags":[{"id":"1146680551","name":"Anh Nguyễn","type":"user","offset":0,"length":10}],"can_remove":false,"created_time":"2013-11-16T15:17:12+0000","like_count":0,"user_likes":false},"759385120744834":{"id":"759385120744834","from":{"id":"1146680551","name":"優しい なぁ"},"message":"mình đã bị lỗi thời.lâu k update thông tin.cảm ơn bạn.","can_remove":false,"created_time":"2013-11-16T15:22:59+0000","like_count":1,"user_likes":false},"759386137411399":{"id":"759386137411399","from":{"id":"100000603915176","name":"悪いな ぁ"},"message":"Chuyện thường mà, có bao nhiêu thứ phải quan tâm đến. Cái gì không nằm trong thứ hạng ưu tiên phải biết lâu ngày sẽ tự bị lỗi thời thôi, ai chẳng vậy :)","can_remove":false,"created_time":"2013-11-16T15:25:34+0000","like_count":1,"user_likes":false},"759836970699649":{"id":"759836970699649","from":{"id":"100000920768734","name":"Pun Pun"},"message":"vậy nên ưu tiên gì trước đây??","can_remove":false,"created_time":"2013-11-17T06:12:00+0000","like_count":0,"user_likes":false}},"paging":{"cursors":{"after":"NzU5MDczNTQ3NDQyNjU4","before":"NzU5MDczNTQ3NDQyNjU4"},"next":"https://graph.facebook.com/229244010425617_759071667442846/comments?limit=1&summary=1&after=NzU5MDczNTQ3NDQyNjU4"},"summary":{"order":"chronological","total_count":22}}}