{"id":"229244010425617_759082094108470","type":"photo","object_id":"607792185954905","picture":"https://fbcdn-photos-d-a.akamaihd.net/hphotos-ak-prn2/t1.0-0/1393784_607792185954905_1358508009_s.jpg","link":"https://www.facebook.com/photo.php?fbid=607792185954905&set=pcb.759082094108470&type=1&relevant_count=2","from":{"id":"100001723862714","name":"Bo Bien Vang"},"message":"THƯỜNG XUYÊN TÔI LUYỆN CHÍ KHÍ TINH THẦN LÀ RẤT QUAN TRỌNG\n\n\"Người không có tính độc lập thì thường phải dựa dẫm vào kẻ khác.\n Người dựa dẫm vào kẻ khác thì lúc nào cũng phải thăm dò ý tứ, trông vào thái độ của người ta.\n Người lúc nào cũng phải dò ý dò tứ, trông vào thái độ của người khác thì nhất định phải tìm cách lấy lòng người đó.\n Luôn phải lấy lòng thành ra chịu ơn, lâu dần sẽ trở nên xu nịnh và luồn cúi người mình dựa dẫm. \nChẳng mấy chốc, tính xu nịnh và luốn cúi trở thành thói quen. Một khi đã quen xu nịnh, quen luốn cúi thì mặt phải \"trơ\" ra và \"dây thần kinh\" xấu hổ cũng mất. Điều muốn nói không dám nói, gặp ai cũng phải xun xoe, khúm na khúm núm.\n Và cuối cùng thói quen xu nịnh, thói luốn cúi trở thành bản chất, tính cách. Nên người xưa mới có câu \"thói hư thành tật\" cũng là vậy. Đã là tật, là bản chất, là tính cách thì khó sửa.\n\nTuy vậy, để thay đổi thói cũ, tập quán cũ cũng cần phải có thời gian, không thể một sớm một chiều mà gột bỏ hết được. Ý thức của người dân chúng ta vẫn như xưa. Văng tục khi nói, bỗ bã khi ăn, nhu nhược trong thái độ, gặp cấp trên thì run sợ, bảo đứng thì đứng, bảo ngồi thì ngồi, bảo múa cũng phải múa, cứ y như lũ chó nuôi mãi mà cứ ốm nhom, chỉ biết xun xoe trước mặt chủ. \nThật là khí lực không có, hổ thẹn cũng không\".\n\nTrang 55,56 \"Sách Khuyến Học\" - Fukuzawa Yukichi.\n\nVăng tục chửi bậy nghe thấy rất nhiều ở Việt Nam mình, bàn ăn của khách người nước ngoài và bàn ăn của người Việt (trong quán ăn tại Việt) sau khi ăn xong ra về đã ai từng nhìn thấy chưa? Luồn cúi, xu nịnh,....không thể kể hết. Có rất nhiều điểm tương đồng trong thời ấy của người ta và mình bây giờ. Cuối tuần rảnh rỗi cùng suy ngẫm một chút, cùng nhìn lại một ít.","created_time":"2013-11-16T02:51:11+0000","updated_time":"2013-11-16T08:55:17+0000","likes":{"data":{"100003272717174":{"id":"100003272717174","name":"Hieu Nguyen"},"100003155380603":{"id":"100003155380603","name":"Khuong Pham"},"100002871405403":{"id":"100002871405403","name":"Thach Sanh"},"100001419373261":{"id":"100001419373261","name":"Ngọc Long"},"100001416272263":{"id":"100001416272263","name":"Mai PB"},"100005690740678":{"id":"100005690740678","name":"Bui Thanh Tung"},"100001260645727":{"id":"100001260645727","name":"Ngo Duy Son"},"100004041794244":{"id":"100004041794244","name":"Watanuki Kimihiro"},"100003669604211":{"id":"100003669604211","name":"Mặt Trời Phương Đông"},"1816269439":{"id":"1816269439","name":"Dao Ngoc"},"100004168804627":{"id":"100004168804627","name":"Yuki Aki"},"100003756172905":{"id":"100003756172905","name":"Trang Cat"},"100004543351101":{"id":"100004543351101","name":"Trí Nguyên Đỗ"},"100003225980553":{"id":"100003225980553","name":"Quyên Xanh"},"100004094346107":{"id":"100004094346107","name":"Thuy Nga Nguyen"},"586150873":{"id":"586150873","name":"Andy C Chan"},"100001754136107":{"id":"100001754136107","name":"Nguyễn Tuấn Vũ"},"100000218169837":{"id":"100000218169837","name":"Thu Dzo"},"100000146040566":{"id":"100000146040566","name":"Loan Trần"},"1318895018":{"id":"1318895018","name":"Van T Tran"},"100002959714236":{"id":"100002959714236","name":"Quỳnh Anh"},"100003188540285":{"id":"100003188540285","name":"Đầu Gấu Xấu Trai"},"100001458099624":{"id":"100001458099624","name":"Kham Pha"}},"paging":{"cursors":{"after":"MTAwMDAzMjcyNzE3MTc0","before":"MTAwMDAzMjcyNzE3MTc0"},"next":"https://graph.facebook.com/229244010425617_759082094108470/likes?limit=1&summary=1&after=MTAwMDAzMjcyNzE3MTc0"},"summary":{"total_count":24}},"comments":{"data":{"759084564108223":{"id":"759084564108223","from":{"id":"100001458099624","name":"Kham Pha"},"message":"Rất đúng (y)","can_remove":false,"created_time":"2013-11-16T02:56:45+0000","like_count":1,"user_likes":false},"759109157439097":{"id":"759109157439097","from":{"id":"100001416272263","name":"Mai PB"},"message":"Nữ nhi mà không thường tình chút nào, Bo Bien Vang. Nói về cuốn Khuyến học này, thực ra VN ta đang đề cập đến nó nhiều hơn vì ta đang cần nó, còn Nhật thì đã hòa nhập vào tinh thần của xh rồi, nếu nói chuyện với người Nhật về cuốn 学問のすすめ này, có lẽ nhiều người không biết hoặc không quan tâm. Có anh bạn Nhật nào ở đây bày tỏ ý kiến được không nhỉ?","message_tags":[{"id":"100001723862714","name":"Bo Bien Vang","type":"user","offset":38,"length":12}],"can_remove":false,"created_time":"2013-11-16T04:15:48+0000","like_count":1,"user_likes":false},"759184754098204":{"id":"759184754098204","from":{"id":"100006541391381","name":"Bruce Lee"},"message":"Cuốn sách thực sự đã đi rất đúng tới hơi thở cuộc sống, về những gì nên và ko nên làm ở đời! Về những nét văn hóa đáng học tập cùng sự thật về xã hội đáng để ta suy ngẫm!  Chắc chắn đây là một cuốn sách bổ ích cho suy nghĩ mà mỗi chúng ta nên tìm đọc !","can_remove":false,"created_time":"2013-11-16T08:55:17+0000","like_count":3,"user_likes":false}},"paging":{"cursors":{"after":"NzU5MDg0NTY0MTA4MjIz","before":"NzU5MDg0NTY0MTA4MjIz"},"next":"https://graph.facebook.com/229244010425617_759082094108470/comments?limit=1&summary=1&after=NzU5MDg0NTY0MTA4MjIz"},"summary":{"order":"chronological","total_count":3}}}