{"id":"229244010425617_759052837444729","type":"status","from":{"id":"100002937804655","name":"Dương Nguyễn"},"message":"'hom wa ngu ngon ko' noi the nao moi nguoi.viet romaji dum minh nha.","created_time":"2013-11-16T01:14:31+0000","updated_time":"2013-11-16T13:55:07+0000","comments":{"data":{"759053684111311":{"id":"759053684111311","from":{"id":"100001458099624","name":"Kham Pha"},"message":"bạn sửa lại bài viết cho có dấu đi, nếu ko các admin sẽ xóa đấy :)","can_remove":false,"created_time":"2013-11-16T01:17:26+0000","like_count":0,"user_likes":false},"759054237444589":{"id":"759054237444589","from":{"id":"100002937804655","name":"Dương Nguyễn"},"message":"vi dt minh ko bo dau duoc.sory nhe.","can_remove":false,"created_time":"2013-11-16T01:18:31+0000","like_count":0,"user_likes":false},"759054644111215":{"id":"759054644111215","from":{"id":"100001458099624","name":"Kham Pha"},"message":"vậy thì dúng máy tính, mọi người ko chấp nhận lý do đâu.","can_remove":false,"created_time":"2013-11-16T01:19:15+0000","like_count":0,"user_likes":false},"759055407444472":{"id":"759055407444472","from":{"id":"1830001967","name":"Chiến Nguyễn"},"message":"きのうは よく ねたんですか","can_remove":false,"created_time":"2013-11-16T01:22:10+0000","like_count":0,"user_likes":false},"759060960777250":{"id":"759060960777250","from":{"id":"100001156666759","name":"Kenshuu Steam"},"message":"cài đặt phần mền gõ tiếng việt cho máy bạn nhé,","can_remove":false,"created_time":"2013-11-16T01:43:16+0000","like_count":0,"user_likes":false},"759061144110565":{"id":"759061144110565","from":{"id":"100001156666759","name":"Kenshuu Steam"},"message":"kinou ha yoku nemashita ka ?","can_remove":false,"created_time":"2013-11-16T01:43:25+0000","like_count":1,"user_likes":false},"759069597443053":{"id":"759069597443053","from":{"id":"100001416272263","name":"Mai PB"},"message":"Dương Nguyễn nếu máy Android thì cài đặt cái này vào: https://play.google.com/store/apps/details?id=kynam.ime.gotiengviet","message_tags":[{"id":"100002937804655","name":"Dương Nguyễn","type":"user","offset":0,"length":12}],"can_remove":false,"created_time":"2013-11-16T02:10:57+0000","like_count":2,"user_likes":false},"759069640776382":{"id":"759069640776382","from":{"id":"100005597975596","name":"Lang Tu Thieu Toan"},"message":"Kinou wa yoku nemashita ka?","can_remove":false,"created_time":"2013-11-16T02:11:05+0000","like_count":0,"user_likes":false},"759074164109263":{"id":"759074164109263","from":{"id":"100003653354497","name":"Hien Mập"},"message":"Bạn học tiếng nhật rùi à","can_remove":false,"created_time":"2013-11-16T02:24:58+0000","like_count":0,"user_likes":false},"759093994107280":{"id":"759093994107280","from":{"id":"100005597975596","name":"Lang Tu Thieu Toan"},"message":"Hien map hoi ai da!","can_remove":false,"created_time":"2013-11-16T03:26:20+0000","like_count":0,"user_likes":false},"759100344106645":{"id":"759100344106645","from":{"id":"100004976257421","name":"Hoa Trà My"},"message":"A Chien Nguyen . Câu của a nv thi dich thành hôm qua bạn ngủ ngon à mất rùi.","can_remove":false,"created_time":"2013-11-16T03:51:39+0000","like_count":0,"user_likes":false},"759110800772266":{"id":"759110800772266","from":{"id":"100002937804655","name":"Dương Nguyễn"},"message":"thanks all.","can_remove":false,"created_time":"2013-11-16T04:22:37+0000","like_count":0,"user_likes":false},"759111254105554":{"id":"759111254105554","from":{"id":"1830001967","name":"Chiến Nguyễn"},"message":"Hoa Trà My câu của anh có か chứ. Với lại dịch nghĩa thì ko nên quá máy móc mà.","message_tags":[{"id":"100004976257421","name":"Hoa Trà My","type":"user","offset":0,"length":10}],"can_remove":false,"created_time":"2013-11-16T04:23:55+0000","like_count":0,"user_likes":false},"759344054082274":{"id":"759344054082274","from":{"id":"100000959416590","name":"Yuki Nguyen"},"message":"Kinou.yoku neraremashita ka.","can_remove":false,"created_time":"2013-11-16T13:55:07+0000","like_count":0,"user_likes":false}},"paging":{"cursors":{"after":"NzU5MDUzNjg0MTExMzEx","before":"NzU5MDUzNjg0MTExMzEx"},"next":"https://graph.facebook.com/229244010425617_759052837444729/comments?limit=1&summary=1&after=NzU5MDUzNjg0MTExMzEx"},"summary":{"order":"chronological","total_count":14}},"likes":{"data":[]}}