{"id":"229244010425617_759048340778512","type":"status","from":{"id":"100005641921914","name":"Thân Duy"},"message":"chào mọi người.e là du học sinh nhập học tháng 10 hiện giờ e đang cần tìm việc để đi làm .có ai giúp được cho e k ạ !qua sokai cũng được .e cảm ơn","created_time":"2013-11-16T00:56:18+0000","updated_time":"2013-11-16T15:21:07+0000","likes":{"data":{"100006457419726":{"id":"100006457419726","name":"Nam Văn Lê"}},"paging":{"cursors":{"after":"MTAwMDA2NDU3NDE5NzI2","before":"MTAwMDA2NDU3NDE5NzI2"}},"summary":{"total_count":1}},"comments":{"data":{"759053484111331":{"id":"759053484111331","from":{"id":"100001458099624","name":"Kham Pha"},"message":"Góp ý một chút, có 2 cách sửa lại bài viết cho có dấu. \n1. Sửa post\n2. Đăng lại, nếu đăng lại thì phải nhớ xóa post cũ đi để tránh loãng nội dung group. \nRất mong sự hợp tác của bạn :)","can_remove":false,"created_time":"2013-11-16T01:16:42+0000","like_count":0,"user_likes":false},"759062377443775":{"id":"759062377443775","from":{"id":"100001156666759","name":"Kenshuu Steam"},"message":"Góp ý\n1: để tránh quên tiếng việt bạn nên viết tiếng việt có dấu.\n2. một khi đã đi du học thì bạn nên chuyên tâm vào mà học hành để tương lai tươi sáng hơn, không nên cắm đầu vào mấy cái của hàng mà làm thêm, uổng công đi nhật du học mà về không làm thông dịch chuyên nghiệp được thì phí mấy năm trời, chưa nói đến các chuyên ngành bạn học. hãy vì tương lai, đừng vì lợi ích trước mắt","can_remove":false,"created_time":"2013-11-16T01:46:51+0000","like_count":2,"user_likes":false},"759063984110281":{"id":"759063984110281","from":{"id":"100005641921914","name":"Thân Duy"},"message":"e cảm ơn mọi người .nhưng e đang cần 1 việc làm thêm để duy trì tiếp .mong mọi người có ai biết thi giúp đỡ e ạ","can_remove":false,"created_time":"2013-11-16T01:50:58+0000","like_count":0,"user_likes":false},"759066200776726":{"id":"759066200776726","from":{"id":"100001257093338","name":"Hanh Dang"},"message":"Không nhờ sepai cùng trường được à!?","can_remove":false,"created_time":"2013-11-16T01:58:38+0000","like_count":0,"user_likes":false},"759068947443118":{"id":"759068947443118","from":{"id":"100001156666759","name":"Kenshuu Steam"},"message":"sao lại bay qua đây nhỉ","can_remove":false,"created_time":"2013-11-16T02:08:06+0000","like_count":0,"user_likes":false},"759069404109739":{"id":"759069404109739","from":{"id":"100001257093338","name":"Hanh Dang"},"message":"Làm sạch nhà bạn đó đi","can_remove":false,"created_time":"2013-11-16T02:09:56+0000","like_count":0,"user_likes":false},"759069840776362":{"id":"759069840776362","from":{"id":"100005641921914","name":"Thân Duy"},"message":"e nhờ senpai nhưng không được ạ","can_remove":false,"created_time":"2013-11-16T02:11:49+0000","like_count":0,"user_likes":false},"759070394109640":{"id":"759070394109640","from":{"id":"100001257093338","name":"Hanh Dang"},"message":"Thế thử kiếm mấy báo tìm việc tìm thử xem, thấy nó thường để ở trong cửa ra vào siêu thị thì phải, hoặc đi vòng vòng xem chỗ nào dán bảng tuyển arubaito thi vô hỏi xem","can_remove":false,"created_time":"2013-11-16T02:13:53+0000","like_count":0,"user_likes":false},"759071014109578":{"id":"759071014109578","from":{"id":"100001156666759","name":"Kenshuu Steam"},"message":"nó hay dán ở bảng thông báo ở siêu thị, nhà ga, các nơi công cộng ấy","can_remove":false,"created_time":"2013-11-16T02:15:24+0000","like_count":0,"user_likes":false},"759071527442860":{"id":"759071527442860","from":{"id":"100005641921914","name":"Thân Duy"},"message":"vâng e cũng tìm rồi nhưng mọi người thông cảm tiếng của e k được tốt lắm ạ .e mới học hết bài 25 mina thoi","can_remove":false,"created_time":"2013-11-16T02:17:35+0000","like_count":0,"user_likes":false},"759073237442689":{"id":"759073237442689","from":{"id":"100001257093338","name":"Hanh Dang"},"message":"Vậy trong lúc chờ tìm việc thì chịu khó học tiếng đi em, lấy báo tìm việc vừa đọc vừa tra vừa học cái nào không biết thì hỏi.","can_remove":false,"created_time":"2013-11-16T02:22:15+0000","like_count":1,"user_likes":false},"759099494106730":{"id":"759099494106730","from":{"id":"100002157379029","name":"Nguyen Hai Dung"},"message":"Cuoc song du hoc vat va la vay , kho cho nhung ai bj loi ngon ngot cua bon moi gioi sang day rui moi biet thuc te la the nao !","can_remove":false,"created_time":"2013-11-16T03:47:25+0000","like_count":2,"user_likes":false},"759376340745712":{"id":"759376340745712","from":{"id":"100001416272263","name":"Mai PB"},"message":"Thân Duy vào xem document ở trên cùng của group, xem mục Arubaito nhé.","message_tags":[{"id":"100005641921914","name":"Thân Duy","type":"user","offset":0,"length":8}],"can_remove":false,"created_time":"2013-11-16T15:02:01+0000","like_count":1,"user_likes":false},"759377264078953":{"id":"759377264078953","from":{"id":"100005641921914","name":"Thân Duy"},"message":"vào chỗ nào vậy a .chỉ rõ giúp e dk k","can_remove":false,"created_time":"2013-11-16T15:04:29+0000","like_count":0,"user_likes":false},"759384407411572":{"id":"759384407411572","from":{"id":"100001416272263","name":"Mai PB"},"message":"https://www.facebook.com/notes/c%E1%BB%99ng-%C4%91%E1%BB%93ng-vi%E1%BB%87t-nh%E1%BA%ADt-vietnam-japan-community-/ch%E1%BB%A7-%C4%91%E1%BB%81-arubaito-c%C3%B4ng-vi%E1%BB%87c-l%C3%A0m-th%C3%AAm/745063928843620","can_remove":false,"created_time":"2013-11-16T15:21:07+0000","like_count":0,"user_likes":false}},"paging":{"cursors":{"after":"NzU5MDUzNDg0MTExMzMx","before":"NzU5MDUzNDg0MTExMzMx"},"next":"https://graph.facebook.com/229244010425617_759048340778512/comments?limit=1&summary=1&after=NzU5MDUzNDg0MTExMzMx"},"summary":{"order":"chronological","total_count":15}}}