{"id":"229244010425617_759348094081870","type":"link","link":"http://www.facebook.com/notes/c%E1%BB%99ng-%C4%91%E1%BB%93ng-vi%E1%BB%87t-nh%E1%BA%ADt-vietnam-japan-community-/phong-tr%C3%A0o-%C4%91%C3%B4ng-du-x%C6%B0a-v%C3%A0-nay/704106249606055","from":{"id":"100000045271667","name":"Nam Thai Nguyen"},"message":"Theo ý tưởng Dao Ngoc, tham gia thử lần đầu\nHịch tướng Sỹ Đông Du đâu rồi \nhttp://www.facebook.com/notes/c%E1%BB%99ng-%C4%91%E1%BB%93ng-vi%E1%BB%87t-nh%E1%BA%ADt-vietnam-japan-community-/phong-tr%C3%A0o-%C4%91%C3%B4ng-du-x%C6%B0a-v%C3%A0-nay/704106249606055","created_time":"2013-11-16T14:03:38+0000","updated_time":"2013-11-16T14:25:57+0000","likes":{"data":{"1816269439":{"id":"1816269439","name":"Dao Ngoc"}},"paging":{"cursors":{"after":"MTgxNjI2OTQzOQ==","before":"MTgxNjI2OTQzOQ=="}},"summary":{"total_count":1}},"comments":{"data":{"759348677415145":{"id":"759348677415145","from":{"id":"1816269439","name":"Dao Ngoc"},"message":"Hoan nghênh anh Nam Thai Nguyen!","message_tags":[{"id":"100000045271667","name":"Nam Thai Nguyen","type":"user","offset":16,"length":15}],"can_remove":false,"created_time":"2013-11-16T14:04:43+0000","like_count":1,"user_likes":false},"759351634081516":{"id":"759351634081516","from":{"id":"100001458099624","name":"Kham Pha"},"message":"Nam Thai Nguyen sao lại xóa hết danh mục đi hết vậy? Haizzz","message_tags":[{"id":"100000045271667","name":"Nam Thai Nguyen","type":"user","offset":0,"length":15}],"can_remove":false,"created_time":"2013-11-16T14:12:30+0000","like_count":0,"user_likes":false},"759352154081464":{"id":"759352154081464","from":{"id":"100000045271667","name":"Nam Thai Nguyen"},"message":"Thôi chết rồi, em nhàm hàng","can_remove":false,"created_time":"2013-11-16T14:14:09+0000","like_count":0,"user_likes":false},"759352347414778":{"id":"759352347414778","from":{"id":"100000045271667","name":"Nam Thai Nguyen"},"message":"làm ntn bây giờ, e tưởng edit thi nó tạo ra cái Note mới :((((((((((((((((((((((((((","can_remove":false,"created_time":"2013-11-16T14:14:40+0000","like_count":0,"user_likes":false},"759353054081374":{"id":"759353054081374","from":{"id":"100001458099624","name":"Kham Pha"},"message":"thôi ko sao, để mình sửa","can_remove":false,"created_time":"2013-11-16T14:15:54+0000","like_count":0,"user_likes":false},"759353760747970":{"id":"759353760747970","from":{"id":"100001416272263","name":"Mai PB"},"message":"Chưa mất dữ liệu của group đấy chứ, Kham Pha. Hôm nọ đã nghĩ, nếu ai đó xóa mất thì chịu không recover lại được.","message_tags":[{"id":"100001458099624","name":"Kham Pha","type":"user","offset":36,"length":8}],"can_remove":false,"created_time":"2013-11-16T14:17:26+0000","like_count":0,"user_likes":false},"759354420747904":{"id":"759354420747904","from":{"id":"100001416272263","name":"Mai PB"},"message":"Có ai đã backup không nhỉ?","can_remove":false,"created_time":"2013-11-16T14:18:59+0000","like_count":1,"user_likes":false},"759354767414536":{"id":"759354767414536","from":{"id":"100001458099624","name":"Kham Pha"},"message":"Ko sao anh ạ, mỗi doc được edit đều có ghi lại các version của nó. Em sửa lại rồi.","can_remove":false,"created_time":"2013-11-16T14:19:57+0000","like_count":2,"user_likes":false},"759355490747797":{"id":"759355490747797","from":{"id":"100001458099624","name":"Kham Pha"},"message":"Có điều là Nam Thai Nguyen phải tạo doc mới cho bài này, link hiện giờ đang dẫn đến pinned post của group.","message_tags":[{"id":"100000045271667","name":"Nam Thai Nguyen","type":"user","offset":11,"length":15}],"can_remove":false,"created_time":"2013-11-16T14:21:25+0000","like_count":0,"user_likes":false},"759357550747591":{"id":"759357550747591","from":{"id":"100001416272263","name":"Mai PB"},"message":"Nam Thai Nguyen post luôn thành 1 post mới đi, không cần phải làm doc đâu. Làm doc chỉ khi nào cần nhiều người cùng edit chung thôi.","message_tags":[{"id":"100000045271667","name":"Nam Thai Nguyen","type":"user","offset":0,"length":15}],"can_remove":false,"created_time":"2013-11-16T14:25:50+0000","like_count":0,"user_likes":false},"759357617414251":{"id":"759357617414251","from":{"id":"100000045271667","name":"Nam Thai Nguyen"},"message":"Sai con toán, bán con trâu. Xấu hổ quá. どうもすみません :(","can_remove":false,"created_time":"2013-11-16T14:25:57+0000","like_count":2,"user_likes":false}},"paging":{"cursors":{"after":"NzU5MzQ4Njc3NDE1MTQ1","before":"NzU5MzQ4Njc3NDE1MTQ1"},"next":"https://graph.facebook.com/229244010425617_759348094081870/comments?limit=1&summary=1&after=NzU5MzQ4Njc3NDE1MTQ1"},"summary":{"order":"chronological","total_count":11}}}