{"id":"229244010425617_759668870716459","type":"status","from":{"id":"100002290906582","name":"Kanashimi No Yukue"},"message":"Lớp học của mình đã học được 2 buổi, đã học hết bảng chữ Hiragana cùng 1 số câu nói thông dụng và từ mới nên những ai đã tự học hết bảng chữ cái rồi cũng nên đi bởi mình ko chỉ dạy mỗi bảng chữ cái ko.\n\nMình biết lớp của mình là tự do, các bạn có thể đến hay ko đến học thoải mái nhưng số lượng người đk ảo quá nhiều (ko tính những bạn đã thông báo với mình ko đi mấy buổi đầu) dù mình đã yêu cầu các bạn xác nhận lại là có đi hay ko nên nhiều lúc làm mình gặp khó khăn trong vấn đề tiền phòng mà mình ko hề muốn tăng giá của mọi người\n\nVì thế nên ngoài lớp đang học ra có lẽ về sau mình sẽ ko mở những lớp học 10k/buổi như thế này nữa.\n\nCảm ơn đã đọc","created_time":"2013-11-17T01:50:31+0000","updated_time":"2013-11-19T05:48:54+0000","likes":{"data":{"100003079752043":{"id":"100003079752043","name":"Smile Named Hân"},"100004889430124":{"id":"100004889430124","name":"Quiet Man"},"100003864143890":{"id":"100003864143890","name":"Hue Nguyen"},"100001520307352":{"id":"100001520307352","name":"Nguyen Sang"},"100001432059171":{"id":"100001432059171","name":"Duonghoangminh Duong"},"100001447641416":{"id":"100001447641416","name":"Lê Linh"},"100001754136107":{"id":"100001754136107","name":"Nguyễn Tuấn Vũ"},"100003250657085":{"id":"100003250657085","name":"Nhất Kiếm Vô Tình"},"100004155757260":{"id":"100004155757260","name":"Tran Trang"},"100004776940538":{"id":"100004776940538","name":"Kendy Lee"},"100001458099624":{"id":"100001458099624","name":"Kham Pha"},"100001416272263":{"id":"100001416272263","name":"Mai PB"},"100003655265575":{"id":"100003655265575","name":"Hường Hà"}},"paging":{"cursors":{"after":"MTAwMDAzMDc5NzUyMDQz","before":"MTAwMDAzMDc5NzUyMDQz"},"next":"https://graph.facebook.com/229244010425617_759668870716459/likes?limit=1&summary=1&after=MTAwMDAzMDc5NzUyMDQz"},"summary":{"total_count":15}},"comments":{"data":{"759675527382460":{"id":"759675527382460","from":{"id":"100001416272263","name":"Mai PB"},"message":"Những người đăng ký mà không đi, thật vô trách nhiệm quá. Học tiếng gì nữa, đi học đạo đức trước đi.","can_remove":false,"created_time":"2013-11-17T02:11:20+0000","like_count":3,"user_likes":false},"759675697382443":{"id":"759675697382443","from":{"id":"100004240265206","name":"Hạnh SuSu"},"message":"chị ơi em rất xin lỗi vì đăng kí ngay buổi đầu mà không đi được ạ. Vì em không sắp xếp được nên xin phép chị cho em vắng mặt mấy hôm được không ạ. Em vẫn muốn đi theo học , nên sẽ cố gắng sắp xếp thời gian sớm nhất có thể . Em cảm ơn ạ.","can_remove":false,"created_time":"2013-11-17T02:11:49+0000","like_count":2,"user_likes":false},"759676574049022":{"id":"759676574049022","from":{"id":"100001458099624","name":"Kham Pha"},"message":"Các bạn nào ko đi, ko thông báo, ko có lý do, từ lần sau cho nghỉ luôn đi. Mình ghét cái kiểu làm ăn vô trách nhiệm này cực kì luôn. Không biết có hiểu đạo lý làm người nữa ko?","can_remove":false,"created_time":"2013-11-17T02:14:19+0000","like_count":0,"user_likes":false},"759679344048745":{"id":"759679344048745","from":{"id":"100002290906582","name":"Kanashimi No Yukue"},"message":"Hạnh SuSu mình chỉ nói những bạn đã đk xong rồi ko đi cũng ko báo lại thôi bạn :) khi nào bạn đi được thì cứ đi","message_tags":[{"id":"100004240265206","name":"Hạnh SuSu","type":"user","offset":0,"length":9}],"can_remove":false,"created_time":"2013-11-17T02:19:30+0000","like_count":1,"user_likes":false},"759708817379131":{"id":"759708817379131","from":{"id":"100004007822738","name":"Lê Văn Tùng"},"message":"nên học văn hóa thông báo,dù có đi hay không,làm được hay không cũng phải thông báo cho người tổ chức,người chịu trách nhiệm biết để họ xử lí.","can_remove":false,"created_time":"2013-11-17T02:47:11+0000","like_count":0,"user_likes":false},"759715467378466":{"id":"759715467378466","from":{"id":"100004240265206","name":"Hạnh SuSu"},"message":"vâng ạ , em cảm ơn chị ạ. Em sẽ cố gắng sắp xếp để đi học sơm ạ :v","can_remove":false,"created_time":"2013-11-17T03:08:33+0000","like_count":1,"user_likes":false},"759726797377333":{"id":"759726797377333","from":{"id":"100001416272263","name":"Mai PB"},"message":"Kanashimi No Yukue, gambatte.","can_remove":false,"created_time":"2013-11-17T03:46:34+0000","like_count":1,"user_likes":false},"759737940709552":{"id":"759737940709552","from":{"id":"1227392209","name":"Akai Wani"},"message":"Các bạn cho mình hỏi thời gian học và địa điểm nhé :)","can_remove":false,"created_time":"2013-11-17T04:20:18+0000","like_count":0,"user_likes":false},"759803287369684":{"id":"759803287369684","from":{"id":"100002990183494","name":"Lee Mi Su"},"message":"T7 tuần tới e sẽ đi tại mấy tuần nay bận quá -.-*","can_remove":false,"created_time":"2013-11-17T04:29:11+0000","like_count":0,"user_likes":false},"759897514026928":{"id":"759897514026928","from":{"id":"100001432059171","name":"Duonghoangminh Duong"},"message":"ban oi cho minh hoi lop to chuc o dau vay ban","can_remove":false,"created_time":"2013-11-17T08:21:21+0000","like_count":0,"user_likes":false},"759917570691589":{"id":"759917570691589","from":{"id":"100002463630497","name":"Hải Hùng"},"message":"Địa điểm ơ đâu vậy b","can_remove":false,"created_time":"2013-11-17T08:57:48+0000","like_count":0,"user_likes":false},"760013304015349":{"id":"760013304015349","from":{"id":"100002290906582","name":"Kanashimi No Yukue"},"message":"các bạn muốn đi học inbox cho mình nhé để mình xin tên luôn","can_remove":false,"created_time":"2013-11-17T12:42:46+0000","like_count":0,"user_likes":false},"760015354015144":{"id":"760015354015144","from":{"id":"100001432059171","name":"Duonghoangminh Duong"},"message":"doko de sagashimasuka.","can_remove":false,"created_time":"2013-11-17T12:45:56+0000","like_count":0,"user_likes":false},"761073250576021":{"id":"761073250576021","from":{"id":"100003209298923","name":"Phuongcham Nguyen"},"message":"E muốn đi học ak...đk thế nào vậy chị...giờ e mới biết cí lớp thế này....còn đk dc k ch","can_remove":false,"created_time":"2013-11-19T04:57:12+0000","like_count":0,"user_likes":false},"761074860575860":{"id":"761074860575860","from":{"id":"100002510273680","name":"Ai Neji"},"message":"mjh học mãi mà k thuộc dc bảng chữ cái ..huhu..làm sao h. có mấy chữ toàn bị nhầm @_@ toàn phải nghĩ 1 lúc mí ra chứ k thể kiểu đọc chữ r viết ra ngay dc -_-\" thảm hại quá. kiểu này đến lúc bạn dạy bảng Katakana k biết mjh sẽ thảm tới mức nào.huhu. ôi cái trí nhớ kém cỏi của t :'( có ai có cách nào dễ nhớ mặt chữ mà phản xạ nhanh dc k. chỉ mjh vs :<","can_remove":false,"created_time":"2013-11-19T05:01:38+0000","like_count":0,"user_likes":false},"761085327241480":{"id":"761085327241480","from":{"id":"100002290906582","name":"Kanashimi No Yukue"},"message":"ngày nào cũng luyện tí là nhớ được ngay ý mà :3 mà hôm nào t chả ktra, chả có nhẽ lại ko thuộc :v","can_remove":false,"created_time":"2013-11-19T05:39:14+0000","like_count":1,"user_likes":false},"761088830574463":{"id":"761088830574463","from":{"id":"100003655265575","name":"Hường Hà"},"message":"thôi xong,chưa dc một chữ vào đầu.","can_remove":false,"created_time":"2013-11-19T05:48:54+0000","like_count":0,"user_likes":false}},"paging":{"cursors":{"after":"NzU5Njc1NTI3MzgyNDYw","before":"NzU5Njc1NTI3MzgyNDYw"},"next":"https://graph.facebook.com/229244010425617_759668870716459/comments?limit=1&summary=1&after=NzU5Njc1NTI3MzgyNDYw"},"summary":{"order":"chronological","total_count":17}}}