{"id":"229244010425617_759877980695548","type":"photo","object_id":"588917577842153","picture":"https://fbcdn-photos-c-a.akamaihd.net/hphotos-ak-prn2/v/t1.0-0/1469985_588917577842153_1009024107_s.jpg?oh=89c0f8932337c8ec7a679cb26fa77ede&oe=53D6CCBB&__gda__=1407241745_b74c38a90c1487c9b542fedfbb36b188","link":"https://www.facebook.com/photo.php?fbid=588917577842153&set=a.557173117683266.1073741828.557166831017228&type=1","from":{"id":"100004028509063","name":"Ruby Rubie"},"created_time":"2013-11-17T08:08:42+0000","updated_time":"2013-11-18T11:26:35+0000","likes":{"data":{"100000641266383":{"id":"100000641266383","name":"Linhling To"},"100001723862714":{"id":"100001723862714","name":"Bo Bien Vang"},"100004895162841":{"id":"100004895162841","name":"Thu Huyền"},"100000959416590":{"id":"100000959416590","name":"Yuki Nguyen"},"100006767705219":{"id":"100006767705219","name":"Kim Liên"},"100005801442456":{"id":"100005801442456","name":"An Nguyen"},"1060893770":{"id":"1060893770","name":"Hyhy Zui Zẻ"},"100000359762118":{"id":"100000359762118","name":"Mi Tra"},"100003159721104":{"id":"100003159721104","name":"Ien Dao"},"100003632988405":{"id":"100003632988405","name":"Skr Trang"},"100001640832299":{"id":"100001640832299","name":"Hoàng Đạt"}},"paging":{"cursors":{"after":"MTAwMDAwNjQxMjY2Mzgz","before":"MTAwMDAwNjQxMjY2Mzgz"},"next":"https://graph.facebook.com/229244010425617_759877980695548/likes?limit=1&summary=1&after=MTAwMDAwNjQxMjY2Mzgz"},"summary":{"total_count":11}},"comments":{"data":{"759922877357725":{"id":"759922877357725","from":{"id":"100001416272263","name":"Mai PB"},"message":"Chú ý, chỉ có 1 tuần, và ảnh trong bài là ở Tokyo, không liên quan gì đến thành phố Hagi cả.","can_remove":false,"created_time":"2013-11-17T09:14:55+0000","like_count":2,"user_likes":false},"759924624024217":{"id":"759924624024217","from":{"id":"100003489557712","name":"Hòa Hoàng"},"message":"thì tình nguyện mà bạn Mai PB..thích quá nhưng mà mùa đông này chak mình bận rùi..:D","message_tags":[{"id":"100001416272263","name":"Mai PB","type":"user","offset":23,"length":6}],"can_remove":false,"created_time":"2013-11-17T09:19:46+0000","like_count":0,"user_likes":false},"759928067357206":{"id":"759928067357206","from":{"id":"100001416272263","name":"Mai PB"},"message":"1 tuần là đủ rồi, chỉ viết rõ ra thời gian và địa điểm để đừng ai kỳ vọng quá thôi.","can_remove":false,"created_time":"2013-11-17T09:28:05+0000","like_count":0,"user_likes":false},"759954080687938":{"id":"759954080687938","from":{"id":"100006690902901","name":"Nhóc Maruko"},"message":"Bạn ơi ko biết tiếng anh thì có đc tham gia ko?tiếng nhật mình biết chút ít","can_remove":false,"created_time":"2013-11-17T10:34:56+0000","like_count":0,"user_likes":false},"759958964020783":{"id":"759958964020783","from":{"id":"100001807609603","name":"Nguyễn Khánh Huyền"},"message":"hic, tiếc quá, muốn đăng kí nhưng đúng lúc đang thi :(","can_remove":false,"created_time":"2013-11-17T10:44:39+0000","like_count":0,"user_likes":false},"760606600622686":{"id":"760606600622686","from":{"id":"100000641266383","name":"Linhling To"},"message":"Bạn ơi, cho mình hỏi là mình phải chi trả chi phí gì?","can_remove":false,"created_time":"2013-11-18T11:26:35+0000","like_count":0,"user_likes":false}},"paging":{"cursors":{"after":"NzU5OTIyODc3MzU3NzI1","before":"NzU5OTIyODc3MzU3NzI1"},"next":"https://graph.facebook.com/229244010425617_759877980695548/comments?limit=1&summary=1&after=NzU5OTIyODc3MzU3NzI1"},"summary":{"order":"chronological","total_count":7}}}