{"id":"229244010425617_760095717340441","type":"status","from":{"id":"100003173098886","name":"Pháo Hoa Chóng Tàn"},"message":"Em xjn phép nhờ mn giúp ạ : a c ơi mai e đi phỏng vẫn xin việc a c nào có mẫu câu phỏng vấn pót cho e học qua vs dài và chi tiết càng tốt ạ e xin phép ạ . E xjn cám ơn !","created_time":"2013-11-17T15:03:36+0000","updated_time":"2013-11-18T01:32:07+0000","likes":{"data":{"100001520307352":{"id":"100001520307352","name":"Nguyen Sang"},"1821970083":{"id":"1821970083","name":"Nguyễn Mạnh Cường"},"100002958044330":{"id":"100002958044330","name":"Duke Togo"},"100003173098886":{"id":"100003173098886","name":"Pháo Hoa Chóng Tàn"}},"paging":{"cursors":{"after":"MTAwMDAxNTIwMzA3MzUy","before":"MTAwMDAxNTIwMzA3MzUy"},"next":"https://graph.facebook.com/229244010425617_760095717340441/likes?limit=1&summary=1&after=MTAwMDAxNTIwMzA3MzUy"},"summary":{"total_count":5}},"comments":{"data":{"760103044006375":{"id":"760103044006375","from":{"id":"100001416272263","name":"Mai PB"},"message":"Xem bài phỏng vấn xin việc của ad Nguyễn Tuấn Vũ ở đây: https://www.facebook.com/notes/c%E1%BB%99ng-%C4%91%E1%BB%93ng-vi%E1%BB%87t-nh%E1%BA%ADt-vietnam-japan-community-/ch%E1%BB%A7-%C4%91%E1%BB%81-arubaito-c%C3%B4ng-vi%E1%BB%87c-l%C3%A0m-th%C3%AAm/745063928843620","message_tags":[{"id":"100001754136107","name":"Nguyễn Tuấn Vũ","type":"user","offset":34,"length":14}],"can_remove":false,"created_time":"2013-11-17T15:19:04+0000","like_count":2,"user_likes":false},"760107160672630":{"id":"760107160672630","from":{"id":"100003173098886","name":"Pháo Hoa Chóng Tàn"},"message":"Mẫu câu hiragana ý ạ","can_remove":false,"created_time":"2013-11-17T15:27:12+0000","like_count":0,"user_likes":false},"760107294005950":{"id":"760107294005950","from":{"id":"100003173098886","name":"Pháo Hoa Chóng Tàn"},"message":"Trog đó ko có ạ","can_remove":false,"created_time":"2013-11-17T15:27:27+0000","like_count":0,"user_likes":false},"760235523993127":{"id":"760235523993127","from":{"id":"100003205232355","name":"Nguyen Viet Tien"},"message":"Câu này hay này : \nてんちょう、なんかいっしょにはたらきたくないです。","can_remove":false,"created_time":"2013-11-17T19:36:38+0000","like_count":0,"user_likes":false},"760372320646114":{"id":"760372320646114","from":{"id":"100001416272263","name":"Mai PB"},"message":"Nguyen Viet Tien đùa cợt không phải chỗ.","message_tags":[{"id":"100003205232355","name":"Nguyen Viet Tien","type":"user","offset":0,"length":16}],"can_remove":false,"created_time":"2013-11-18T01:32:07+0000","like_count":2,"user_likes":false}},"paging":{"cursors":{"after":"NzYwMTAzMDQ0MDA2Mzc1","before":"NzYwMTAzMDQ0MDA2Mzc1"},"next":"https://graph.facebook.com/229244010425617_760095717340441/comments?limit=1&summary=1&after=NzYwMTAzMDQ0MDA2Mzc1"},"summary":{"order":"chronological","total_count":5}}}