{"id":"229244010425617_760163650666981","type":"video","source":"http://www.youtube.com/v/Au708w_p_jA?version=3&autohide=1&autoplay=1","from":{"id":"1146680551","name":"優しい なぁ"},"message":"Clip 11:CHUYỆN NGỦ TRÊN TÀU VÀ CHUYỆN SAY XỈN CỦA NGƯỜI NHẬT\n\nThật ra đây là điều không mới, chuyện say xỉn thì không chỉ riêng ở Nhật mà ở Việt Nam hay các nước khác cũng có.Nhưng với 1 nước có hệ thống giao thông công cộng phát triển như nhật thì chuyện này được chúng ta chứng kiến từng bữa.\n\nChuyện thứ nhất: NGỦ TRÊN TÀU\n\nChắc hẳn các bạn khi qua Nhật mới đầu sẽ khá là bất ngờ và tò mò đôi chút chế giễu (Tâm trạng của mình lúc đó) khi thấy họ ngủ gà ngủ gật trên tàu.Nhưng khi đã hiểu cuộc sống ở đây thì chắc hẳn điều đó là quá bình thường. \n\nNgười Nhật theo đánh giá và tìm hiểu của mình thì họ chỉ ngủ khoảng 4,5 tiếng một ngày.Ngay chính các bạn du học sinh thì điều này càng thấy rõ nét.\nNgười Nhật họ không thích gây ồn ào ,hoặc gây ảnh hưởng đến người khác.Nếu lên tàu họ có thể dùng Smart phone để chat chit, đọc báo ,hay chơi game.Hoặc khác là tranh thủ ngủ vì tính trung bình 1 ngày 1 người sống ở tokyo phải mất từ 1,2 tiếng hoặc hơn cho việc đi lại.Áp lực công việc,đi sớm về muộn thế nên việc tranh thủ ngủ trên tàu là điều bình thường.\n\nỞ VN mà ra công viên hay bãi biển hoặc đi trên các chuyến xe khách mà ngủ thì coi như còn mỗi cái quần xịp đi về.\n\nMình có người bạn trên chuyến xe đi từ Nha Trang và Sài Gòn ,mệt quá ngủ thiếp đi, khi tỉnh dậy thì tiền bạc tư trang đã không cánh mà bay,\n\nhttp://www.youtube.com/watch?v=Au708w_p_jA\n\nChuyện thứ hai: CHUYỆN SAY XỈN CỦA NGƯỜI NHẬT.\n\nĐây là chuyện hàng ngày gặp ở các ga tàu hay những nơi đông người của Nhật.Trên tàu hay ga gặp các bạn nhật từ già đến các bạn trẻ,trai hay gái say xỉn ,ói mửa là chuyện bình thường ở huyện.\n\nVì sao có chuyện đó:\n\nThứ nhất: văn hóa nhậu của người Nhật là không có điểm dừng. ^_^ ói ra mới thôi.\nThường thấy nhiều khi chẳng cần vào quán nhậu tự vào siêu thị mua lon bia vừa đi vừa uống giải khát.\n\nThứ hai: Cuộc sống bận rộn,nhiều stress như xã hội Nhật thì chỉ có Nhậu và Nhậu mới là cách xả stress dễ nhất (Cái này là nghe từ các bạn nhật rồi thầy cô)\n\nNhững điều thấy được:\n\nDù có say bí tỉ đi chăng nữa,ngủ ngoài đường đi chăng nữa thì đồ đạc,những thứ có giá trị vẫn còn nguyên.Người Nhật cũng khá thờ ơ.Nếu ngủ ngoài đường có khi bạn được 1 anh cảnh sát hay 1 người đi đường chạy tới hỏi\" có sao không, về được không, nếu không về được sẽ được đưa đến tận nhà\" Mình đã được như thê,có lần say \"quên cả lối về\" được đi xe cảnh sát đưa về tận nhà ^_^\n\nNếu ở VN thì sao các bác nhỉ???\n\nNhưng những hình ảnh ngủ ,và say xỉn đã cho ta 1 cách nhìn khác về người Nhật, về XH này đúng không?\nhttp://www.youtube.com/watch?v=bY6dGzFDsxE","created_time":"2013-11-17T17:03:16+0000","updated_time":"2013-11-18T12:09:15+0000","likes":{"data":{"1305472811":{"id":"1305472811","name":"Tuan Nguyen"},"1082956399":{"id":"1082956399","name":"Danny Dee Nguyen IE"},"100003512537236":{"id":"100003512537236","name":"Nguyen Phu Dang"},"100003820151744":{"id":"100003820151744","name":"Thu Cá Tính"},"100001723862714":{"id":"100001723862714","name":"Bo Bien Vang"},"100004965272241":{"id":"100004965272241","name":"Cỏ Nhỏ"},"100006179012972":{"id":"100006179012972","name":"Thy Dang"},"100002508122689":{"id":"100002508122689","name":"Vũ Mạnh Tuấn"},"100000973295703":{"id":"100000973295703","name":"El Pipita Gà"},"100001958220978":{"id":"100001958220978","name":"Trung Hiếu Bắp"},"100001114549932":{"id":"100001114549932","name":"Bui Thanh Hung"},"100003090738530":{"id":"100003090738530","name":"Ngô Thị Thanh Hường"},"100001041225299":{"id":"100001041225299","name":"Võ Thành Long"},"100004095967794":{"id":"100004095967794","name":"Key Panda"},"100002629655875":{"id":"100002629655875","name":"Đỗ Thế Phong"},"100001458099624":{"id":"100001458099624","name":"Kham Pha"},"100001754136107":{"id":"100001754136107","name":"Nguyễn Tuấn Vũ"},"100001416272263":{"id":"100001416272263","name":"Mai PB"},"569263718":{"id":"569263718","name":"Phuong Thao Tran"},"100000264268101":{"id":"100000264268101","name":"Back To December"},"100000045271667":{"id":"100000045271667","name":"Nam Thai Nguyen"},"100001520307352":{"id":"100001520307352","name":"Nguyen Sang"},"100002938483020":{"id":"100002938483020","name":"Cuong Pham"},"100002185080351":{"id":"100002185080351","name":"Nguyễn Xuân Bách"},"100001168538606":{"id":"100001168538606","name":"Gà Quay"},"100004140850631":{"id":"100004140850631","name":"Huong Trang"},"100005801442456":{"id":"100005801442456","name":"An Nguyen"},"745565751":{"id":"745565751","name":"Tuyen Hoang Thi"},"100001359798024":{"id":"100001359798024","name":"November Gi"}},"paging":{"cursors":{"after":"MTMwNTQ3MjgxMQ==","before":"MTMwNTQ3MjgxMQ=="},"next":"https://graph.facebook.com/229244010425617_760163650666981/likes?limit=1&summary=1&after=MTMwNTQ3MjgxMQ%3D%3D"},"summary":{"total_count":30}},"comments":{"data":{"760165530666793":{"id":"760165530666793","from":{"id":"100000226369400","name":"Vạn Lý Độc Hành"},"message":"Ngủ trên tàu là 1 vấn nạn , vì lúc tỉnh dậy e ko biết mình đang ở đâu nữa :))))))","can_remove":false,"created_time":"2013-11-17T17:07:45+0000","like_count":1,"user_likes":false},"760166030666743":{"id":"760166030666743","from":{"id":"1146680551","name":"優しい なぁ"},"message":"bữa có thấy ,tính nhắc mà thui ^_^","can_remove":false,"created_time":"2013-11-17T17:09:07+0000","like_count":0,"user_likes":false},"760167417333271":{"id":"760167417333271","from":{"id":"100000226369400","name":"Vạn Lý Độc Hành"},"message":"Thấy gì ạ ?? :o","can_remove":false,"created_time":"2013-11-17T17:11:27+0000","like_count":0,"user_likes":false},"760167727333240":{"id":"760167727333240","from":{"id":"1146680551","name":"優しい なぁ"},"message":"e ngủ trên tàu","can_remove":false,"created_time":"2013-11-17T17:12:06+0000","like_count":0,"user_likes":false},"760167987333214":{"id":"760167987333214","from":{"id":"100000226369400","name":"Vạn Lý Độc Hành"},"message":"Thật a?? Lúc nào hả a :)))) ngại thật :)))","can_remove":false,"created_time":"2013-11-17T17:12:47+0000","like_count":1,"user_likes":false},"760169793999700":{"id":"760169793999700","from":{"id":"100005801442456","name":"An Nguyen"},"message":"Mới hôm qua, có chú xỉn qua ngủ trước quán, qẳng 5s ra ngoài đường ngủ không biết, ra lấy bỏ vào túi áo cho chả cũng không biết nốt =))","can_remove":false,"created_time":"2013-11-17T17:17:09+0000","like_count":0,"user_likes":false},"760170113999668":{"id":"760170113999668","from":{"id":"100005801442456","name":"An Nguyen"},"message":"Mà sao lên thành clip 11 nhanh thía @.@","can_remove":false,"created_time":"2013-11-17T17:17:49+0000","like_count":0,"user_likes":false},"760170543999625":{"id":"760170543999625","from":{"id":"1146680551","name":"優しい なぁ"},"message":"Ặc ,phạt 3sen cái tội k cập nhật","can_remove":false,"created_time":"2013-11-17T17:18:59+0000","like_count":0,"user_likes":false},"760171147332898":{"id":"760171147332898","from":{"id":"100005801442456","name":"An Nguyen"},"message":"Σ（・□・；） tại bà con ứ nói chứ bộ...","can_remove":false,"created_time":"2013-11-17T17:20:18+0000","like_count":0,"user_likes":false},"760352830648063":{"id":"760352830648063","from":{"id":"100001754136107","name":"Nguyễn Tuấn Vũ"},"message":"T thì ko đồng ý với văn hoá nhậu của ng Nhật là ko có điểm dừng. hôm nọ mới đi uống vs mấy ng nhật, họ uống rất có chừng mực, ko để đến say đâu.","can_remove":false,"created_time":"2013-11-18T00:42:26+0000","like_count":2,"user_likes":false},"760358497314163":{"id":"760358497314163","from":{"id":"100000383155614","name":"Phạm Thúc Hưng"},"message":"thế trường hợp ói mửa ra đường, hoặc không may vào người khác thì phải làm thế nào nhỉ?","can_remove":false,"created_time":"2013-11-18T00:59:32+0000","like_count":1,"user_likes":false},"760360177313995":{"id":"760360177313995","from":{"id":"100001419373261","name":"Ngọc Long"},"message":"không hiểu sao một số bạn trẻ có cái nhìn quá phiến diện về người Việt như vậy nhỉ! người Việt nhẩu say xỉn thì bảo là xấu còn người Nhật  thì bảo đó là văn hoá nhậu không có điểm dừng!","can_remove":false,"created_time":"2013-11-18T01:03:48+0000","like_count":4,"user_likes":false},"760388143977865":{"id":"760388143977865","from":{"id":"100001754136107","name":"Nguyễn Tuấn Vũ"},"message":"Phạm Thúc Hưng: oi mửa ra đường thì mọi ng né a ak :)). Ng nhật thì họ thơ ơ a ak.","message_tags":[{"id":"100000383155614","name":"Phạm Thúc Hưng","type":"user","offset":0,"length":14}],"can_remove":false,"created_time":"2013-11-18T02:01:27+0000","like_count":0,"user_likes":false},"760396070643739":{"id":"760396070643739","from":{"id":"1146680551","name":"優しい なぁ"},"message":"Việc ói mửa hay say xỉn đoạn kết mình có nói là có 1 cách nhìn khác về người nhật.còn nhậu k có điểm dừng mình dùng sai từ:tập quán thói quen chư k phải vh","can_remove":false,"created_time":"2013-11-18T02:18:46+0000","like_count":0,"user_likes":false},"760396527310360":{"id":"760396527310360","from":{"id":"100000383155614","name":"Phạm Thúc Hưng"},"message":"à ko, ý mình hỏi là ói ra đấy rồi ai dọn, ói vào người khác thì có bị bắt đền ko :))))","can_remove":false,"created_time":"2013-11-18T02:19:40+0000","like_count":0,"user_likes":false},"760435303973149":{"id":"760435303973149","from":{"id":"1146680551","name":"優しい なぁ"},"message":"Thì nhân viên vệ sịnh dọn chứ ai bạn","can_remove":false,"created_time":"2013-11-18T04:05:48+0000","like_count":0,"user_likes":false},"760443857305627":{"id":"760443857305627","from":{"id":"100004965272241","name":"Cỏ Nhỏ"},"message":"(không liên quan tới post lắm) nhưng cho em hỏi về vấn đề hút thuốc thì sao ạ? em thấy bạn em hút thuốc nhiều dã man luôn ==\"","can_remove":false,"created_time":"2013-11-18T04:25:19+0000","like_count":0,"user_likes":false},"760582103958469":{"id":"760582103958469","from":{"id":"1146680551","name":"優しい なぁ"},"message":"ở đâu cũng hút mà","can_remove":false,"created_time":"2013-11-18T10:36:56+0000","like_count":0,"user_likes":false},"760627550620591":{"id":"760627550620591","from":{"id":"100001754136107","name":"Nguyễn Tuấn Vũ"},"message":"Hút thuốc thì đa số khu vực đeu hút đc nhưng trung tâm thành phố lớn thường cấm .","can_remove":false,"created_time":"2013-11-18T12:09:15+0000","like_count":0,"user_likes":false}},"paging":{"cursors":{"after":"NzYwMTY1NTMwNjY2Nzkz","before":"NzYwMTY1NTMwNjY2Nzkz"},"next":"https://graph.facebook.com/229244010425617_760163650666981/comments?limit=1&summary=1&after=NzYwMTY1NTMwNjY2Nzkz"},"summary":{"order":"chronological","total_count":19}}}