{"id":"229244010425617_760543367295676","type":"link","picture":"https://fbexternal-a.akamaihd.net/safe_image.php?d=AQDXGnLXzk5v9Lpt&w=154&h=154&url=http%3A%2F%2Fngoaingu.odau.com%2Fimages%2Ftintuc%2F211%2Fngoaingu%2F24-quy-tac-hoc-kanji-tac-gia-tran-viet-thanh-va-nghiem-duc-thien-file-pdf.jpg","link":"http://goo.gl/fTOaBA","from":{"id":"100000227056592","name":"Phan Hai"},"message":"Theo yêu cầu của các bạn FanFacke của Odau.com. Mình xin chia sẻ\n\nCuốn dạy cách học Hán tự khá hay, trình bày dễ hiểu cho người học, nhưng hình như tác giả hơi cứng nhắc trong việc giải nghĩa một chữ theo kiểu của tiếng Nhật và cách nghĩ của người Nhật, nên nhiều khi hơi khó hiểu cho người đọc Việt Nam (chỉ là ý kiến bản thân mình thôi nhé). Dù sao đây cũng là 1 cuốn sách hay, nên có trong tủ sách của những bạn học tiếng Nhật. Có điều kiện các bạn nên mua sách in để ủng hộ tác giả nhé!\n\nhttp://goo.gl/fTOaBA","created_time":"2013-11-18T08:54:18+0000","updated_time":"2013-11-18T09:13:34+0000","likes":{"data":{"100003541155273":{"id":"100003541155273","name":"ɞ Lâm Ct ʚ"},"100001720990331":{"id":"100001720990331","name":"Đỗ Đình Tiệp"},"100000183792818":{"id":"100000183792818","name":"Le Nga"},"100002508122689":{"id":"100002508122689","name":"Vũ Mạnh Tuấn"},"100003076762517":{"id":"100003076762517","name":"ThiênKim Nhị Tiểu Quỷ"},"100000227056592":{"id":"100000227056592","name":"Phan Hai"}},"paging":{"cursors":{"after":"MTAwMDAzNTQxMTU1Mjcz","before":"MTAwMDAzNTQxMTU1Mjcz"},"next":"https://graph.facebook.com/229244010425617_760543367295676/likes?limit=1&summary=1&after=MTAwMDAzNTQxMTU1Mjcz"},"summary":{"total_count":6}},"comments":{"data":{"760556130627733":{"id":"760556130627733","from":{"id":"1837866264","name":"QuynhDo Anh"},"message":"Andy C Chan ưng ko :D","message_tags":[{"id":"586150873","name":"Andy C Chan","type":"user","offset":0,"length":11}],"can_remove":false,"created_time":"2013-11-18T09:13:34+0000","like_count":0,"user_likes":false}},"paging":{"cursors":{"after":"NzYwNTU2MTMwNjI3NzMz","before":"NzYwNTU2MTMwNjI3NzMz"}},"summary":{"order":"chronological","total_count":1}}}