{"id":"229244010425617_760736483943031","type":"link","picture":"https://fbexternal-a.akamaihd.net/safe_image.php?d=AQBxTOEVQc37lkjt&w=154&h=154&url=http%3A%2F%2Fwww.vietnamfoodnet.com%2Fimg%2Fhome%2Fmain.png","link":"http://www.vietnamfoodnet.com/","from":{"id":"1146680551","name":"優しい なぁ"},"message":"Người đem ẩm thực Việt Nam đến đất Nhật Bản\n\nĐó là Itou Shinobu - một cô gái Nhật Bản yêu món ăn Việt, không những tự mình tìm tòi học cách nấu mà còn lập website giới thiệu món ăn Việt tới người Nhật.Trong một lần tình cờ đọc được cuốn sách giới thiệu về món ăn Việt Nam, Itou Shinobu đã cảm thấy mê mẩn các món ăn ấy. Mặc dù tốt nghiệp Đại học Ngân hàng nhưng Itou Shinobu đã bỏ công việc tại Nhật để sang Việt Nam học cách nấu ăn. Khi trở lại Nhật, cô đã chuyển hẳn sang nghề dạy nấu ăn Việt Nam cho người Nhật Bản.\n\n \n\nTầm sư học… nấu\n\"Hình ảnh trong cuốn sách rất hấp dẫn, khiến tôi nhìn là muốn ăn thử và tìm hiểu thêm về những món ăn này\". Đó là lý do để Itou Shinobu giải thích với mọi người, khi cô quyết định từ bỏ công việc ở Nhật Bản để sang Việt Nam học cách nấu ăn. Năm 1996, trước khi đến Việt Nam, Shinobu đã bị ốm, không thể ăn uống được gì. \"Tôi bị sốt cao và vô cùng mệt mỏi, ăn uống chẳng cảm thấy ngon miệng. Thế mà khi đến Việt Nam, ăn các món ăn Việt Nam tôi cảm thấy thật thoải mái và ngon miệng. Rất nhiều món thích hợp với một người bệnh như tôi từ cháo, phở rồi đến cơm, món gì cũng ngon\". Và thế là ngày nào cô cũng ăn cơm Việt Nam mà không biết chán.\n\nSau đó, cô cùng với một người bạn làm phiên dịch tìm đến Nhà Văn hóa phụ nữ TP Hồ Chí Minh để học nấu ăn. Khổ nỗi người phiên dịch lại không biết về nấu ăn nên không chuyển được trọn vẹn ý nghĩa các từ chuyên môn, cũng như không thể hướng dẫn cô cách thức chọn mua, pha trộn các loại gia vị cho món ăn Việt Nam. Vì thế khi cô ăn thử những thứ mình đã nấu thì thấy hương vị không được đậm đà, thơm ngon như đã từng ăn ngoài tiệm. Quyết không bó tay, Shinobu quay về Nhật đăng ký học tiếng Việt. Khi có được một ít vốn tiếng Việt, cô lại quay lại Việt Nam học cách nấu ăn.\n\nTrong một lần tình cờ, biết được có một người Nhật sắp mở quán ăn và tổ chức lớp dạy món ăn Việt Nam cho du khách Nhật, Shinobu xin việc và nhận được chân quản lý kiêm nhiệm phiên dịch cho du khách học nấu ăn. Trong hai năm làm việc ở đây cô đã học được thêm rất nhiều món ăn Việt Nam từ các cô giáo. Cho đến khi về nước, Shinobu đã có cả thảy ba năm rưỡi học nấu ăn ở Việt Nam.\n\nMở website dạy nấu món ăn Việt Nam\nWebsite của Shinobu có tên là www.vietnamfoodnet.com mà Shinobu tâm huyết và dày công thiết kế các nội dung để giới thiệu các món ăn Việt Nam, cách làm những món ăn mà cô cho là phù hợp với người Nhật bằng hình ảnh rất đẹp và hấp dẫn người xem. Thông qua website này, Shinobu cũng giới thiệu khả năng có thể tư vấn cho những ai muốn học nấu món ăn Việt Nam hay mở nhà hàng bán thức ăn Việt Nam cho người Nhật.\n\nHiện nay ở Nhật, món ăn Việt Nam đang thu hút thực khách và số lượng nhà hàng Việt Nam ở Nhật cũng tăng lên rất nhiều. Shinobu đã truyền bá các món như gỏi bắp cải, chè chuối, chả giò, cá kho, gỏi khổ qua trộn với thơm, rau muống xào tỏi, cơm hến, canh rau muống... cho bạn bè và người quen, và mở lớp dạy nấu ăn Việt Nam cho người Nhật. Lớp học này của Itou Shinobu thu hút rất nhiều người Nhật đến học. \"Học trò của tôi ai cũng ngạc nhiên vì họ không nghĩ rằng, thức ăn Việt Nam ngon và phong phú đến như thế\" - Shinobu nói.\n\nBây giờ Shinobu không thể nhớ chính xác mình có thể nấu được bao nhiêu món ăn Việt Nam nhưng nhìn cách hướng dẫn bất cứ món ăn nào từ bình dân đến cao cấp cô cũng có thể hiểu và nấu được ngay! Theo Shinobu, nếu thông tin về các món ăn Việt Nam được phổ biến thêm nhiều nữa ở Nhật, chắc chắn ẩm thực Việt Nam sẽ có một vị trí quan trọng trong đời sống của người Nhật.\n\n  Sưu tầm","created_time":"2013-11-18T15:13:30+0000","updated_time":"2013-11-19T11:10:26+0000","likes":{"data":{"100002871405403":{"id":"100002871405403","name":"Thach Sanh"},"100004253979918":{"id":"100004253979918","name":"Louis Hoàng Văn Thái"},"100004052599880":{"id":"100004052599880","name":"Nguyen-chan Hsj"},"100002754998000":{"id":"100002754998000","name":"Nguyen Duc"},"1416265619":{"id":"1416265619","name":"Starwar Bbj"},"100001848885057":{"id":"100001848885057","name":"Tiểu Mỡ Nhi"},"100002629655875":{"id":"100002629655875","name":"Đỗ Thế Phong"},"100001416272263":{"id":"100001416272263","name":"Mai PB"},"100000264268101":{"id":"100000264268101","name":"Back To December"},"100000190521247":{"id":"100000190521247","name":"Sữa Nhí Nhố"},"100000273786070":{"id":"100000273786070","name":"Dũng Yamato Dũng Yamato"},"100001359798024":{"id":"100001359798024","name":"November Gi"},"100006100838234":{"id":"100006100838234","name":"佐藤剛賢"},"100001458099624":{"id":"100001458099624","name":"Kham Pha"},"100004642119075":{"id":"100004642119075","name":"Thaomy Nguyenthi"},"100005211189763":{"id":"100005211189763","name":"Oliveu Cchann"},"100005801442456":{"id":"100005801442456","name":"An Nguyen"},"1148962646":{"id":"1148962646","name":"Tran Thi Tuong Van"},"100000398514180":{"id":"100000398514180","name":"Linh Thu"},"100005504642044":{"id":"100005504642044","name":"Võ Tú Duyên"},"100001754136107":{"id":"100001754136107","name":"Nguyễn Tuấn Vũ"},"1816269439":{"id":"1816269439","name":"Dao Ngoc"},"100000250256418":{"id":"100000250256418","name":"Nguyen Viet Anh"},"569263718":{"id":"569263718","name":"Phuong Thao Tran"},"100006767705219":{"id":"100006767705219","name":"Kim Liên"},"100003171672878":{"id":"100003171672878","name":"Tầu Heo"},"100000359762118":{"id":"100000359762118","name":"Mi Tra"},"792083330":{"id":"792083330","name":"Duc Le"},"1813611352":{"id":"1813611352","name":"To Đùng"},"100001324611896":{"id":"100001324611896","name":"Meo Luoi"},"100003913383051":{"id":"100003913383051","name":"Tho Tran"},"100000045271667":{"id":"100000045271667","name":"Nam Thai Nguyen"}},"paging":{"cursors":{"after":"MTAwMDAyODcxNDA1NDAz","before":"MTAwMDAyODcxNDA1NDAz"},"next":"https://graph.facebook.com/229244010425617_760736483943031/likes?limit=1&summary=1&after=MTAwMDAyODcxNDA1NDAz"},"summary":{"total_count":33}},"comments":{"data":{"760744230608923":{"id":"760744230608923","from":{"id":"100000359762118","name":"Mi Tra"},"message":"Trang này mình cũng đang theo dõi :)","can_remove":false,"created_time":"2013-11-18T15:32:10+0000","like_count":3,"user_likes":false},"760745157275497":{"id":"760745157275497","from":{"id":"1146680551","name":"優しい なぁ"},"message":"Theo dõi làm gì thế ^_^","can_remove":false,"created_time":"2013-11-18T15:35:08+0000","like_count":0,"user_likes":false},"760747613941918":{"id":"760747613941918","from":{"id":"100000359762118","name":"Mi Tra"},"message":"Học nấu ăn ạ.","can_remove":false,"created_time":"2013-11-18T15:40:31+0000","like_count":0,"user_likes":false},"760748387275174":{"id":"760748387275174","from":{"id":"100000359762118","name":"Mi Tra"},"message":"Em thỉnh thoảnh có tham gia lớp dạy nấu ăn nên phải tham khảo để còn biết cách dùng từ khi giới thiệu về món ăn","can_remove":false,"created_time":"2013-11-18T15:41:52+0000","like_count":1,"user_likes":false},"760749133941766":{"id":"760749133941766","from":{"id":"1146680551","name":"優しい なぁ"},"message":"Món việt à em? E cũng biết nấu ăn à ^_^","can_remove":false,"created_time":"2013-11-18T15:43:38+0000","like_count":0,"user_likes":false},"760750857274927":{"id":"760750857274927","from":{"id":"100000359762118","name":"Mi Tra"},"message":"Món Việt ạ. \nMà sao anh \"xem nhẹ\" em thế? Nhìn vậy thôi chứ nữ công gia chánh lắm đó nha. \nVào album của em coi anh sẽ choáng vì tay nghề của em cho mà coi :))))","can_remove":false,"created_time":"2013-11-18T15:47:24+0000","like_count":0,"user_likes":false},"760754363941243":{"id":"760754363941243","from":{"id":"1146680551","name":"優しい なぁ"},"message":"Trong trí tưởng tượng thì Mi Tra xăm đầy mình,đi harley davidson ^_^","message_tags":[{"id":"100000359762118","name":"Mi Tra","type":"user","offset":26,"length":6}],"can_remove":false,"created_time":"2013-11-18T15:50:20+0000","like_count":1,"user_likes":false},"760755013941178":{"id":"760755013941178","from":{"id":"100000359762118","name":"Mi Tra"},"message":"Ối! Người em ko có hình xăm. Sao anh tưởng tượng em dữ dằn vậy?","can_remove":false,"created_time":"2013-11-18T15:51:54+0000","like_count":0,"user_likes":false},"760758540607492":{"id":"760758540607492","from":{"id":"1146680551","name":"優しい なぁ"},"message":"k kiểm chứng được nên tạm chưa tin :))","can_remove":false,"created_time":"2013-11-18T15:59:34+0000","like_count":0,"user_likes":false},"760760960607250":{"id":"760760960607250","from":{"id":"100000359762118","name":"Mi Tra"},"message":"Xì. Tính anh đa nghi quá!","can_remove":false,"created_time":"2013-11-18T16:06:35+0000","like_count":0,"user_likes":false},"760761163940563":{"id":"760761163940563","from":{"id":"1146680551","name":"優しい なぁ"},"message":"Mấy lớp này tham gia có tồn tiền k em? Thường tổ chức ở đâu? A muốn tham gia","can_remove":false,"created_time":"2013-11-18T16:07:22+0000","like_count":0,"user_likes":false},"760761237273889":{"id":"760761237273889","from":{"id":"100003105034037","name":"Pham Oanh"},"message":"A Anh Nguyen: có bạn gái chưa? C Mi Tra co bạn trai chưa ạ? ( hỳ","can_remove":false,"created_time":"2013-11-18T16:07:38+0000","like_count":0,"user_likes":false},"760761877273825":{"id":"760761877273825","from":{"id":"100000359762118","name":"Mi Tra"},"message":"Khi nào có em sẽ báo anh Anh Nguyen nhé!","can_remove":false,"created_time":"2013-11-18T16:09:23+0000","like_count":1,"user_likes":false},"760761997273813":{"id":"760761997273813","from":{"id":"100000359762118","name":"Mi Tra"},"message":"Pham Oanh: bạn trai thì mình chưa có.","can_remove":false,"created_time":"2013-11-18T16:09:46+0000","like_count":1,"user_likes":false},"760762477273765":{"id":"760762477273765","from":{"id":"100003105034037","name":"Pham Oanh"},"message":"-a Anh Nguyen thi sao ạ","can_remove":false,"created_time":"2013-11-18T16:11:04+0000","like_count":0,"user_likes":false},"760762657273747":{"id":"760762657273747","from":{"id":"100003105034037","name":"Pham Oanh"},"message":"E thấy 2 a chị nc thấy hay hay!!!","can_remove":false,"created_time":"2013-11-18T16:11:35+0000","like_count":1,"user_likes":false},"760763670606979":{"id":"760763670606979","from":{"id":"1146680551","name":"優しい なぁ"},"message":"Anh có gia đình rồi em","can_remove":false,"created_time":"2013-11-18T16:13:54+0000","like_count":1,"user_likes":false},"760764930606853":{"id":"760764930606853","from":{"id":"100003105034037","name":"Pham Oanh"},"message":"Ồ men!!!! Vậy ạb vậy ma e cứ tưởng! 2 a chi oi e hoi chut dc k ạ! E đang phân vân k biêtd nên học đh và cđ ! K biết nên học gi bh se tôt?","can_remove":false,"created_time":"2013-11-18T16:16:35+0000","like_count":0,"user_likes":false},"760765227273490":{"id":"760765227273490","from":{"id":"1146680551","name":"優しい なぁ"},"message":"gia đình a là group này^_^","can_remove":false,"created_time":"2013-11-18T16:17:09+0000","like_count":1,"user_likes":false},"760770303939649":{"id":"760770303939649","from":{"id":"100000359762118","name":"Mi Tra"},"message":"Nếu có ý định xin việc tại Nhật sau khi học thì Đại học sẽ có lợi thế hơn. Cao đẳng thì sẽ hơi khó khăn một chút. Đọc thông tin tuyển dụng toàn thấy yêu cầu tốt nghiệp ĐH. \nCòn chuyên ngành thì mình nghĩ bạn phải \"nói chuyện\" với bản thân bạn để tìm câu trả lời. \nNhiều người chọn ngành theo xu thế, theo mức thu nhập nhưng đối với mình, mình chọn ngành và công việc theo sự yêu thích của bản thân. Mình thích thì mới có thể theo đuổi lâu dài và cống hiến hết mình được.","can_remove":false,"created_time":"2013-11-18T16:25:48+0000","like_count":4,"user_likes":false},"760787063937973":{"id":"760787063937973","from":{"id":"100000359762118","name":"Mi Tra"},"message":"Mới vô fb của em mí biết em Pham Oanh là người quen ^^","message_tags":[{"id":"100003105034037","name":"Pham Oanh","type":"user","offset":28,"length":9}],"can_remove":false,"created_time":"2013-11-18T17:00:56+0000","like_count":0,"user_likes":false},"760891560594190":{"id":"760891560594190","from":{"id":"100001458099624","name":"Kham Pha"},"message":"Có kiểu học liên thông cao đẳng đh đó. Nhưng mà sao comment chẳng liên quan gì đến món ăn cả. Sao ko hỏi ở post riêng?","can_remove":false,"created_time":"2013-11-18T21:15:51+0000","like_count":2,"user_likes":false},"760892090594137":{"id":"760892090594137","from":{"id":"100001458099624","name":"Kham Pha"},"message":"Khâm phục chị shinobu thật, đúng là nữ lưu hào kiệt.","can_remove":false,"created_time":"2013-11-18T21:17:32+0000","like_count":1,"user_likes":false},"761199937230019":{"id":"761199937230019","from":{"id":"1146680551","name":"優しい なぁ"},"message":"muốn được gặp chị 1 lần *_*","can_remove":false,"created_time":"2013-11-19T11:10:26+0000","like_count":0,"user_likes":false}},"paging":{"cursors":{"after":"NzYwNzQ0MjMwNjA4OTIz","before":"NzYwNzQ0MjMwNjA4OTIz"},"next":"https://graph.facebook.com/229244010425617_760736483943031/comments?limit=1&summary=1&after=NzYwNzQ0MjMwNjA4OTIz"},"summary":{"order":"chronological","total_count":24}}}