{"id":"229244010425617_760701210613225","type":"link","picture":"https://fbexternal-a.akamaihd.net/safe_image.php?d=AQAsLJT47ZGUVR1w&w=154&h=154&url=http%3A%2F%2Frr.img.naver.jp%3A80%2Fmig%3Fsrc%3Dhttp%253A%252F%252Fimgcc.naver.jp%252Fkaze%252Fmission%252FUSER%252F20121104%252F15%252F1294865%252F7%252F406x411x2163731de9ebce8f30a01b17.jpg%252F300%252F600%26twidth%3D300%26theight%3D600%26qlt%3D80%26res_format%3Djpg%26op%3Dr","link":"http://matome.naver.jp/odai/2135203070283531901","from":{"id":"100005694491959","name":"Phuong Truong Thi Thanh"},"message":"夢なき者に理想なし、理想なき者に計画なし、\n計画なき者に実行なし、実行なき者に成功なし。\n故に、夢なき者に成功なし。","created_time":"2013-11-18T14:00:26+0000","updated_time":"2013-11-18T16:24:08+0000","likes":{"data":{"100001458099624":{"id":"100001458099624","name":"Kham Pha"},"100005801442456":{"id":"100005801442456","name":"An Nguyen"},"100000027754899":{"id":"100000027754899","name":"Hoang Van Ba"},"569263718":{"id":"569263718","name":"Phuong Thao Tran"},"100004923553810":{"id":"100004923553810","name":"Xuan KY Nguyen"},"1146680551":{"id":"1146680551","name":"優しい なぁ"},"569689629":{"id":"569689629","name":"Sang Phạm"},"100001416272263":{"id":"100001416272263","name":"Mai PB"},"100004965272241":{"id":"100004965272241","name":"Cỏ Nhỏ"}},"paging":{"cursors":{"after":"MTAwMDAxNDU4MDk5NjI0","before":"MTAwMDAxNDU4MDk5NjI0"},"next":"https://graph.facebook.com/229244010425617_760701210613225/likes?limit=1&summary=1&after=MTAwMDAxNDU4MDk5NjI0"},"summary":{"total_count":10}},"comments":{"data":{"760701597279853":{"id":"760701597279853","from":{"id":"100005694491959","name":"Phuong Truong Thi Thanh"},"message":"夢なき　＝　夢ない","can_remove":false,"created_time":"2013-11-18T14:00:53+0000","like_count":1,"user_likes":false},"760705867279426":{"id":"760705867279426","from":{"id":"100001416272263","name":"Mai PB"},"message":"Các bạn N4 N3, hiểu không?","can_remove":false,"created_time":"2013-11-18T14:08:17+0000","like_count":0,"user_likes":false},"760710120612334":{"id":"760710120612334","from":{"id":"1146680551","name":"優しい なぁ"},"message":"\"実年者\" どういう意味ですか？","can_remove":false,"created_time":"2013-11-18T14:16:17+0000","like_count":0,"user_likes":false},"760711610612185":{"id":"760711610612185","from":{"id":"100005694491959","name":"Phuong Truong Thi Thanh"},"message":"[Người có tuổi, người lớn tuổi, người lớn thật sự]だいたいという意味ですが、。。。","can_remove":false,"created_time":"2013-11-18T14:19:16+0000","like_count":1,"user_likes":false},"760713867278626":{"id":"760713867278626","from":{"id":"1146680551","name":"優しい なぁ"},"message":"”ですが。。。”次は？","can_remove":false,"created_time":"2013-11-18T14:23:55+0000","like_count":0,"user_likes":false},"760727027277310":{"id":"760727027277310","from":{"id":"100005694491959","name":"Phuong Truong Thi Thanh"},"message":"はっきり意味が分かりません。","can_remove":false,"created_time":"2013-11-18T14:51:49+0000","like_count":0,"user_likes":false},"760739570609389":{"id":"760739570609389","from":{"id":"100001416272263","name":"Mai PB"},"message":"実年=50歳代・60歳代の年齢層を指す言葉 https://ja.wikipedia.org/wiki/%E5%AE%9F%E5%B9%B4","can_remove":false,"created_time":"2013-11-18T15:21:43+0000","like_count":1,"user_likes":false},"760740503942629":{"id":"760740503942629","from":{"id":"100001416272263","name":"Mai PB"},"message":"Phuong Truong Thi Thanh gửi cái link trên, mình thấy câu đầu tiên còn hay hơn.\n\n「子育て四訓」\n１．乳児はしっかり肌を離すな\n２．幼児は肌を離せ　手を離すな\n３．少年は手を離せ　目を離すな\n４．青年は目を離せ　心を離すな","message_tags":[{"id":"100005694491959","name":"Phuong Truong Thi Thanh","type":"user","offset":0,"length":23}],"can_remove":false,"created_time":"2013-11-18T15:24:03+0000","like_count":3,"user_likes":false},"760740770609269":{"id":"760740770609269","from":{"id":"1146680551","name":"優しい なぁ"},"message":"熟年と同じでしょか？","can_remove":false,"created_time":"2013-11-18T15:24:54+0000","like_count":0,"user_likes":false},"760741737275839":{"id":"760741737275839","from":{"id":"100001416272263","name":"Mai PB"},"message":"熟年と同じ。Nhưng mà như cái link đó nói, 実年 là từ không phổ biến ngoài xh, chỉ trong cơ quan NN.","can_remove":false,"created_time":"2013-11-18T15:27:38+0000","like_count":1,"user_likes":false},"760750977274915":{"id":"760750977274915","from":{"id":"100005694491959","name":"Phuong Truong Thi Thanh"},"message":"Mai PBさん、「離す」と「離せ」何か違いますか？","message_tags":[{"id":"100001416272263","name":"Mai PB","type":"user","offset":0,"length":6}],"can_remove":false,"created_time":"2013-11-18T15:47:36+0000","like_count":0,"user_likes":false},"760754040607942":{"id":"760754040607942","from":{"id":"100001416272263","name":"Mai PB"},"message":"離せ = hãy 離す ≒ 離して","can_remove":false,"created_time":"2013-11-18T15:49:28+0000","like_count":1,"user_likes":false},"760755813941098":{"id":"760755813941098","from":{"id":"1146680551","name":"優しい なぁ"},"message":"\"道徳なき経済は犯罪であり、\n　経済なき道徳は寝言である\"\n意味がよく分からない。。。語呂合わせだろう？","can_remove":false,"created_time":"2013-11-18T15:53:23+0000","like_count":2,"user_likes":false},"760757460607600":{"id":"760757460607600","from":{"id":"100005694491959","name":"Phuong Truong Thi Thanh"},"message":"Giống như câu của Bác Hồ đã dạy, \"Có tài mà không có đức là người vô dụng, có đức mà không có tài thì làm việc gì cũng khó\". Tuy nhiên ý của câu trên thì mạnh mẽ hơn một chút, người vô dụng -> kẻ phạm tội; người làm việc gì cũng khó -> kẻ hồ đồ","can_remove":false,"created_time":"2013-11-18T15:56:38+0000","like_count":1,"user_likes":false},"760762930607053":{"id":"760762930607053","from":{"id":"569263718","name":"Phuong Thao Tran"},"message":"mình thì lại đoán ý câu trên là: kinh tế (kinh doanh) mà không có đạo đức thì chẳng khác gì tội phạm.  Đạo đức mà không có kinh tế thì chẳng khác nào nói mớ..., không biết đúng không, ^^","can_remove":false,"created_time":"2013-11-18T16:12:10+0000","like_count":3,"user_likes":false},"760763610606985":{"id":"760763610606985","from":{"id":"100005694491959","name":"Phuong Truong Thi Thanh"},"message":"Mình dịch sai rồi :D. Mình nghĩ là bạn dịch chính xác luôn","can_remove":false,"created_time":"2013-11-18T16:13:40+0000","like_count":1,"user_likes":false},"760764190606927":{"id":"760764190606927","from":{"id":"1146680551","name":"優しい なぁ"},"message":"Mình nghĩ 2 bạn đều có ý đúng :))","can_remove":false,"created_time":"2013-11-18T16:15:09+0000","like_count":0,"user_likes":false},"760765747273438":{"id":"760765747273438","from":{"id":"569263718","name":"Phuong Thao Tran"},"message":"như Anh Nguyễn vậy thì tiếng NHật được gọi là 八方美人 đấy, ;)","message_tags":[{"id":"1146680551","name":"Anh Nguyễn","type":"user","offset":4,"length":10}],"can_remove":false,"created_time":"2013-11-18T16:18:01+0000","like_count":1,"user_likes":false},"760768800606466":{"id":"760768800606466","from":{"id":"1146680551","name":"優しい なぁ"},"message":"いいえ、そんなことないよ","can_remove":false,"created_time":"2013-11-18T16:22:24+0000","like_count":0,"user_likes":false},"760769550606391":{"id":"760769550606391","from":{"id":"1146680551","name":"優しい なぁ"},"message":"”男の修行\n苦しいこともあるだろう。\n云い度いこともあるだろう。\n不満なこともあるだろう。\n腹の立つこともあるだろう。\n泣き度いこともあるだろう。”","can_remove":false,"created_time":"2013-11-18T16:23:59+0000","like_count":0,"user_likes":false},"760769597273053":{"id":"760769597273053","from":{"id":"569263718","name":"Phuong Thao Tran"},"message":"Phuong Truong Thi Thanh, cảm ơn bạn làm hoa tiêu trước ...^^","message_tags":[{"id":"100005694491959","name":"Phuong Truong Thi Thanh","type":"user","offset":0,"length":23}],"can_remove":false,"created_time":"2013-11-18T16:24:08+0000","like_count":0,"user_likes":false}},"paging":{"cursors":{"after":"NzYwNzAxNTk3Mjc5ODUz","before":"NzYwNzAxNTk3Mjc5ODUz"},"next":"https://graph.facebook.com/229244010425617_760701210613225/comments?limit=1&summary=1&after=NzYwNzAxNTk3Mjc5ODUz"},"summary":{"order":"chronological","total_count":21}}}