{"id":"229244010425617_761094893907190","type":"photo","object_id":"706574669353452","picture":"https://fbcdn-photos-d-a.akamaihd.net/hphotos-ak-frc1/t1.0-0/1001993_706574669353452_891743823_s.jpg","link":"https://www.facebook.com/photo.php?fbid=706574669353452&set=gm.761094893907190&type=1&relevant_count=1","from":{"id":"100000027754899","name":"Hoang Van Ba"},"message":"Cái này thì mức độ nào nhỉ ?? :((","created_time":"2013-11-19T06:13:04+0000","updated_time":"2013-11-19T13:18:16+0000","likes":{"data":{"100003016032686":{"id":"100003016032686","name":"ChinSu Hoàng"},"100003662604894":{"id":"100003662604894","name":"Mai Hana"},"100005953833214":{"id":"100005953833214","name":"Roro Zoro"},"1185693985":{"id":"1185693985","name":"Lee Mon"},"100001416272263":{"id":"100001416272263","name":"Mai PB"},"657157297":{"id":"657157297","name":"Phan Dien"},"100004096243144":{"id":"100004096243144","name":"Shorai Nguyễn"},"100004534321031":{"id":"100004534321031","name":"Kairyu Doraku"}},"paging":{"cursors":{"after":"MTAwMDAzMDE2MDMyNjg2","before":"MTAwMDAzMDE2MDMyNjg2"},"next":"https://graph.facebook.com/229244010425617_761094893907190/likes?limit=1&summary=1&after=MTAwMDAzMDE2MDMyNjg2"},"summary":{"total_count":8}},"comments":{"data":{"761099100573436":{"id":"761099100573436","from":{"id":"100006860141377","name":"Gấu Của Hôm Nay"},"message":"Nhiều chữ hán quá tiểu bối chịu chết","can_remove":false,"created_time":"2013-11-19T06:19:26+0000","like_count":0,"user_likes":false},"761103640572982":{"id":"761103640572982","from":{"id":"100006014164976","name":"Bình Bông"},"message":"Công nhận chữ đẹp","can_remove":false,"created_time":"2013-11-19T06:32:28+0000","like_count":0,"user_likes":false},"761121680571178":{"id":"761121680571178","from":{"id":"100004760974173","name":"Anh Tuấn"},"message":"chữ xấu quá :)","can_remove":false,"created_time":"2013-11-19T07:30:12+0000","like_count":0,"user_likes":false},"761126140570732":{"id":"761126140570732","from":{"id":"100001844269163","name":"Bằng Ngô Quý"},"message":"n3","can_remove":false,"created_time":"2013-11-19T07:44:41+0000","like_count":2,"user_likes":false},"761133717236641":{"id":"761133717236641","from":{"id":"100001365545442","name":"Nguyễn Nam"},"message":"chữ đệp hơn mềnh nhìu :'(","can_remove":false,"created_time":"2013-11-19T08:10:17+0000","like_count":0,"user_likes":false},"761139823902697":{"id":"761139823902697","from":{"id":"100003765750895","name":"Ken Thiếu Gia"},"message":"n5 à ???","can_remove":false,"created_time":"2013-11-19T08:31:51+0000","like_count":1,"user_likes":false},"761139973902682":{"id":"761139973902682","from":{"id":"100004760974173","name":"Anh Tuấn"},"message":"ngữ pháp n3. từ vựng hơi cao tí. :)","can_remove":false,"created_time":"2013-11-19T08:32:33+0000","like_count":1,"user_likes":false},"761191697230843":{"id":"761191697230843","from":{"id":"100002636949866","name":"Trung Thành"},"message":"N1","can_remove":false,"created_time":"2013-11-19T10:48:40+0000","like_count":0,"user_likes":false},"761230457226967":{"id":"761230457226967","from":{"id":"100006652841254","name":"Umi Tsuki"},"message":"Tien boi viet chu dep wa.","can_remove":false,"created_time":"2013-11-19T12:33:57+0000","like_count":0,"user_likes":false},"761230563893623":{"id":"761230563893623","from":{"id":"100006652841254","name":"Umi Tsuki"},"message":"Tien boi viet chu dep wa.","can_remove":false,"created_time":"2013-11-19T12:34:07+0000","like_count":0,"user_likes":false},"761234313893248":{"id":"761234313893248","from":{"id":"100000027754899","name":"Hoang Van Ba"},"message":"Vẫn còn rất xấu !!\nCần cố gắng","can_remove":false,"created_time":"2013-11-19T12:42:02+0000","like_count":0,"user_likes":false},"761235770559769":{"id":"761235770559769","from":{"id":"100000027754899","name":"Hoang Van Ba"},"message":"Cái này thì ko biết là mức độ nào. Quan trọng là hiểu đc chỗ nào Trung Thành ah","message_tags":[{"id":"100002636949866","name":"Trung Thành","type":"user","offset":65,"length":11}],"can_remove":false,"created_time":"2013-11-19T12:45:31+0000","like_count":0,"user_likes":false},"761236347226378":{"id":"761236347226378","from":{"id":"100002636949866","name":"Trung Thành"},"message":"thi noi dai thui ak :3","can_remove":false,"created_time":"2013-11-19T12:46:54+0000","like_count":0,"user_likes":false},"761236877226325":{"id":"761236877226325","from":{"id":"100002636949866","name":"Trung Thành"},"message":"chang hieu teo ji ca :v","can_remove":false,"created_time":"2013-11-19T12:48:23+0000","like_count":0,"user_likes":false},"761239203892759":{"id":"761239203892759","from":{"id":"100000027754899","name":"Hoang Van Ba"},"message":"Công nhận cái này chép từ bài tập 3級","can_remove":false,"created_time":"2013-11-19T12:54:30+0000","like_count":0,"user_likes":false},"761239660559380":{"id":"761239660559380","from":{"id":"100000027754899","name":"Hoang Van Ba"},"message":"Và chắc ko ai thèm trả lời câu hỏi bên dưới ??\nCó khi là chưa đọc tới :((\nBuồn quá. \nCâu trả lời là  E nhá","can_remove":false,"created_time":"2013-11-19T12:55:38+0000","like_count":1,"user_likes":false},"761248787225134":{"id":"761248787225134","from":{"id":"100001416272263","name":"Mai PB"},"message":"Đang định khen là viết hay quá. :-) Để đọc thì chắc 3級 thật, nhưng chưa chắc N1 đã viết được chắc thế này đâu. ;-)","can_remove":false,"created_time":"2013-11-19T13:18:16+0000","like_count":1,"user_likes":false}},"paging":{"cursors":{"after":"NzYxMDk5MTAwNTczNDM2","before":"NzYxMDk5MTAwNTczNDM2"},"next":"https://graph.facebook.com/229244010425617_761094893907190/comments?limit=1&summary=1&after=NzYxMDk5MTAwNTczNDM2"},"summary":{"order":"chronological","total_count":17}}}