{"id":"229244010425617_761051163911563","type":"link","picture":"https://fbexternal-a.akamaihd.net/safe_image.php?d=AQDzak--oUUbJLR6&w=154&h=154&url=http%3A%2F%2Fwww.career.fpt-software.com%2Fcgi-bin%2FReader%2FCandlepower_2008.jpg","link":"http://www.career.fpt-software.com/","from":{"id":"100000359762118","name":"Mi Tra"},"message":"CẦN TUYỂN THƯ KÝ GIÁM ĐỐC\n\n Sơ lược về công ty: FPT Japan – một thành viên của FPT Software thuộc tập đoàn công nghệ thông tin hàng đầu Việt Nam FPT, là công ty IT lớn nhất của Việt Nam tại Nhật Bản, chuyên cung cấp các dịch vụ gia công phần mềm cho các doanh nghiệp Nhật Bản. FPT Japan hiện chiếm khoảng 58% tổng doanh số gia công phát triển phần mềm của FPT Software Việt Nam. Trong thời gian tới FPT Japan mong muốn tập hợp một đội ngũ nhân viên trẻ tuổi, năng động, đam mê thử thách, để cùng chung sức xây dựng nên thương hiệu một doanh nghiệp IT Việt mang tầm vóc quốc tế.\n\nVị trí tuyển: Thư ký giám đốc\n Số lượng tuyển: 1 người\n Nơi làm việc: Văn phòng công ty tại Shinagawaku, Tokyo, Nhật Bản (gần ga Gotanda)\n Thời gian làm việc: bắt đầu từ tháng 1/2014\n\n 1. Mô tả công việc:\n Sắp xếp, quản lý lịch làm việc của Giám đốc\n Hỗ trợ Giám đốc trong việc giao dịch với các đối tác\n Sắp xếp, bố trí hậu cần cho các chuyến thăm của các VIP\n Hỗ trợ Giám đốc trong các công việc quản lý và các việc khác có liên quan\n\n 2. Yêu cầu:\n Tiếng Nhật tương đương N1, biết tiếng Anh là một lợi thế.\nSử dụng thành thạo vi tính văn phòng (word, excel, powerpoint).\n Tự tin, khả năng giao tiếp tốt, cẩn thận, nhanh nhẹn và chu đáo.\n Khả năng lập kế hoạch, sắp xếp công việc tốt\nƯu tiên người có kinh nghiệm sống nhiều năm tại Nhật Bản\n\n 3. Chế độ đãi ngộ:\nThu nhập: Thỏa　thuận. Từ 340 vạn yên/ năm trở lên. (Thu nhập bao gồm: Lương cơ bản, thưởng 1 năm 2 lần, trợ cấp đi lại, trợ cấp nhà ở, trợ cấp làm việc ngoài giờ, trợ cấp gia đình như trợ cấp cho vợ/chồng trong thời gian sinh sống ở Nhật nhưng thu nhập không ổn định, trợ cấp cho con nhỏ.)\nMột năm xét tăng lương một lần, căn cứ vào năng lực, kết quả của nhân viên trong kỳ.\nNgày nghỉ: Thứ 7, chủ nhật, ngày lễ theo quy định của pháp luật Nhật Bản (bao gồm những ngày nghỉ bù theo quy định của chính phủ Nhật ), nghỉ hè, nghỉ tết Dương lịch, các ngày nghỉ khác theo lịch công ty ban hành. \nĐược đóng BHXH, BHYT, BHTN theo quy định của chính phủ Nhật Bản\n Các chế độ phúc lợi khác như tiền mừng, hiếu hỷ, thăm viếng.\n\n 4. Cơ hội:\n Cơ hội tiếp xúc với các khách hàng lớn của Nhật Bản.\n Làm việc ổn định lâu dài tại Nhật.\n Môi trường làm việc cởi mở, dân chủ, đặc trưng văn hóa FPT.\n Nhiều hoạt động đoàn thể dành cho thanh niên.\n 5. Địa chỉ liên hệ:\nFPT Japan Co., Ltd.\n Bộ phận Tuyển dụng - Phòng Nhân sự.\n8F TokyoTatemono Gotanda Building, Higashi Gotanda 1-6-3, Shinagawa-ku, Tokyo 141-0022, Japan.\nĐiện thoại: +81 (3) 5789 2536 (liên hệ Ms Điểm)\n E－Mail: diemnt@fsoft.com.vn hoặc　fsj.recruitment@fsoft.com.vn \n Website: http://www.career.fpt-software.com/","created_time":"2013-11-19T03:56:02+0000","updated_time":"2013-11-19T07:26:55+0000","likes":{"data":{"1031841670":{"id":"1031841670","name":"Ngọc Trâm"},"1362130138":{"id":"1362130138","name":"Trọng Hòa Benny Trinh"},"100001594722256":{"id":"100001594722256","name":"Viết An Phạm"},"100000264268101":{"id":"100000264268101","name":"Back To December"},"100004253979918":{"id":"100004253979918","name":"Louis Hoàng Văn Thái"},"100005801442456":{"id":"100005801442456","name":"An Nguyen"},"100001526631937":{"id":"100001526631937","name":"Tường Oanh Mineko"},"100004460525997":{"id":"100004460525997","name":"Hà Trang Nguyễn"},"100001887921127":{"id":"100001887921127","name":"Kata Apple"},"100002535489295":{"id":"100002535489295","name":"Moteru Seikoo"},"1146680551":{"id":"1146680551","name":"優しい なぁ"},"100002428163247":{"id":"100002428163247","name":"Trần Đức Hùng"}},"paging":{"cursors":{"after":"MTAzMTg0MTY3MA==","before":"MTAzMTg0MTY3MA=="},"next":"https://graph.facebook.com/229244010425617_761051163911563/likes?limit=1&summary=1&after=MTAzMTg0MTY3MA%3D%3D"},"summary":{"total_count":13}},"comments":{"data":{"761070693909610":{"id":"761070693909610","from":{"id":"100001887921127","name":"Kata Apple"},"message":"Sếp người nhật hay người vn thế \"em\"?","can_remove":false,"created_time":"2013-11-19T04:49:04+0000","like_count":0,"user_likes":false},"761074590575887":{"id":"761074590575887","from":{"id":"792083330","name":"Duc Le"},"message":"Diệu Thảo thu o ban.","message_tags":[{"id":"1271836124","name":"Diệu Thảo","type":"user","offset":0,"length":9}],"can_remove":false,"created_time":"2013-11-19T05:00:54+0000","like_count":0,"user_likes":false},"761075647242448":{"id":"761075647242448","from":{"id":"100000359762118","name":"Mi Tra"},"message":"Kata Nguyen： Sếp người Việt 100% \"anh\" nhé! ^^","message_tags":[{"id":"100001887921127","name":"Kata Nguyen","type":"user","offset":0,"length":11}],"can_remove":false,"created_time":"2013-11-19T05:03:29+0000","like_count":1,"user_likes":false},"761077477242265":{"id":"761077477242265","from":{"id":"100001887921127","name":"Kata Apple"},"message":"Vậy ah, cám ơn e nhé. Để a nói chị nhà xem thế nào nhé^_^","can_remove":false,"created_time":"2013-11-19T05:09:33+0000","like_count":0,"user_likes":false},"761078587242154":{"id":"761078587242154","from":{"id":"100000359762118","name":"Mi Tra"},"message":"Dạ. Anh cứ nói vs chị nhà. Mà em nói nhỏ. E vs bên tuyển dụng có tí thân tình anh ạ. Anh biết phải làm gì rùi chứ hihi :)))))))","can_remove":false,"created_time":"2013-11-19T05:12:02+0000","like_count":1,"user_likes":false},"761079557242057":{"id":"761079557242057","from":{"id":"100001887921127","name":"Kata Apple"},"message":"Ok e, a e thì lúc nào cũng có thể bánh xèo shinjuku mà làm vậy chị nhà ko thik. Cứ để thử sức vậy^_^","can_remove":false,"created_time":"2013-11-19T05:15:49+0000","like_count":0,"user_likes":false},"761082843908395":{"id":"761082843908395","from":{"id":"100000381394367","name":"Thành Nguyễn"},"message":"Tuyển thư ký cho bác Trần Xuân Khôi hay bác nào vậy?","can_remove":false,"created_time":"2013-11-19T05:30:24+0000","like_count":0,"user_likes":false},"761088587241154":{"id":"761088587241154","from":{"id":"569263718","name":"Phuong Thao Tran"},"message":"năm ngoái đi onsite mà không biết Mi Tra để lên chào hỏi hè, ^^","message_tags":[{"id":"100000359762118","name":"Mi Tra","type":"user","offset":34,"length":6}],"can_remove":false,"created_time":"2013-11-19T05:48:06+0000","like_count":0,"user_likes":false},"761089140574432":{"id":"761089140574432","from":{"id":"100000359762118","name":"Mi Tra"},"message":"Em chỉ là người đưa tin hộ thôi chứ em ko làm ở FPT đâu ạ ^^","can_remove":false,"created_time":"2013-11-19T05:50:10+0000","like_count":1,"user_likes":false},"761120880571258":{"id":"761120880571258","from":{"id":"100001594722256","name":"Viết An Phạm"},"message":"Ủa anh Thành Nguyễn cũng biết anh Khôi hả?","message_tags":[{"id":"100000381394367","name":"Thành Nguyễn","type":"user","offset":7,"length":12}],"can_remove":false,"created_time":"2013-11-19T07:26:55+0000","like_count":0,"user_likes":false}},"paging":{"cursors":{"after":"NzYxMDcwNjkzOTA5NjEw","before":"NzYxMDcwNjkzOTA5NjEw"},"next":"https://graph.facebook.com/229244010425617_761051163911563/comments?limit=1&summary=1&after=NzYxMDcwNjkzOTA5NjEw"},"summary":{"order":"chronological","total_count":10}}}