{"id":"229244010425617_761200150563331","type":"status","from":{"id":"100003864143890","name":"Hue Nguyen"},"message":"cac anh chi oi. em moi di hc the tieng nhat. ma mai em chua thuoc bang chu cai. cac anh chi cho em bi quyet hc thuoc nhanh voi","created_time":"2013-11-19T11:11:21+0000","updated_time":"2013-11-19T14:25:05+0000","likes":{"data":{"100001616374728":{"id":"100001616374728","name":"Haruka Kanno"},"100004253979918":{"id":"100004253979918","name":"Louis Hoàng Văn Thái"},"100003655265575":{"id":"100003655265575","name":"Hường Hà"},"100004096243144":{"id":"100004096243144","name":"Shorai Nguyễn"},"100001718883015":{"id":"100001718883015","name":"Sayonara Daisukina Hito"}},"paging":{"cursors":{"after":"MTAwMDAxNjE2Mzc0NzI4","before":"MTAwMDAxNjE2Mzc0NzI4"},"next":"https://graph.facebook.com/229244010425617_761200150563331/likes?limit=1&summary=1&after=MTAwMDAxNjE2Mzc0NzI4"},"summary":{"total_count":5}},"comments":{"data":{"761205877229425":{"id":"761205877229425","from":{"id":"100001718883015","name":"Sayonara Daisukina Hito"},"message":"chịu khó kiếm sách, báo có tiếng nhật rôig cố đọc cho quen mặt chữ ko cần hiểu nghĩa mà chỉ cần nhìn cho quen mặt chữ trc đã.","can_remove":false,"created_time":"2013-11-19T11:22:35+0000","like_count":0,"user_likes":false},"761207557229257":{"id":"761207557229257","from":{"id":"100003864143890","name":"Hue Nguyen"},"message":"hu. vay ah a. em moi hc thuoc bang chu mem thoi a ah. em thay kho qua a Sayonara Daisukina Hito a","message_tags":[{"id":"100001718883015","name":"Sayonara Daisukina Hito","type":"user","offset":72,"length":23}],"can_remove":false,"created_time":"2013-11-19T11:28:22+0000","like_count":0,"user_likes":false},"761208480562498":{"id":"761208480562498","from":{"id":"100003024730023","name":"Sachiko Hạnh"},"message":"Mình nghĩ học ngoại ngữ cách nhanh nhất là chăm chỉ học thuộc để nhớ thôi. Bắt đầu 1 thứ ngoại ngữ mới tất nhiên là khó, mà tiếng nhật lại có đến 2 bảng chữ cái, bạn học dần dần, chịu khó học kỹ từ vựng rồi sẽ quen mặt chữ thôi.","can_remove":false,"created_time":"2013-11-19T11:31:34+0000","like_count":2,"user_likes":false},"761208487229164":{"id":"761208487229164","from":{"id":"100001718883015","name":"Sayonara Daisukina Hito"},"message":"cố lên em! mai sau vào bài em đọc nhìu rồi sẽ nhớ hết thôi! học tiếng là pải kiên trì thì mới khá đc em ak! đừng hấp tấp mà nản trí","can_remove":false,"created_time":"2013-11-19T11:31:36+0000","like_count":1,"user_likes":false},"761208847229128":{"id":"761208847229128","from":{"id":"100003864143890","name":"Hue Nguyen"},"message":"em cảm ơn anh phong","can_remove":false,"created_time":"2013-11-19T11:33:02+0000","like_count":0,"user_likes":false},"761211867228826":{"id":"761211867228826","from":{"id":"100004889430124","name":"Quiet Man"},"message":"http://www.fshare.vn/file/9KRREU1NPU/ (các flash luyện nhớ Hiragana và Katakana). Mấy cái này mình lên mạng xì trum (nó không cho dowload, mình phải dùng tí kỹ thuật mới lấy đc). Bạn tải cái này về là nhớ được mặt chữ. Ở hiragana có mấy chữ cái na ná nhau nên bạn phải có mẹo để nhớ, ví dụ chữ nu, me; nhóm chữ ne, wa, re. Mẹo của mình là gán chữ \"mê nữ\" (tức chữ me, nu). Nhắc đến mê nữ là nét của nó là dạng uốn tròn). Còn \"né wa re\" (tức ne, wa, re thì chữ của nó là chữ thẳng, luôn bắt đầu bằng cái kéo ngang rồi gạch xuống)","can_remove":false,"created_time":"2013-11-19T11:41:31+0000","like_count":1,"user_likes":false},"761225017227511":{"id":"761225017227511","from":{"id":"100004096243144","name":"Shorai Nguyễn"},"message":"Viet ra giay nhieu lan va doc thoi ban ah","can_remove":false,"created_time":"2013-11-19T12:18:29+0000","like_count":0,"user_likes":false},"761254137224599":{"id":"761254137224599","from":{"id":"100002969455554","name":"Vương Siêu Nhân"},"message":"Chăm chỉ","can_remove":false,"created_time":"2013-11-19T13:30:26+0000","like_count":0,"user_likes":false},"761255323891147":{"id":"761255323891147","from":{"id":"100000328742646","name":"Trần Giáp"},"message":"Cậu lên mạng tìm quyển kanji pict.o.graphix đi, phần đầu quyển đấy có minh họa các chữ trong bảng chữ cái khá hay, sẽ dễ nhớ hơn :)","can_remove":false,"created_time":"2013-11-19T13:33:17+0000","like_count":2,"user_likes":false},"761258083890871":{"id":"761258083890871","from":{"id":"100005211189763","name":"Oliveu Cchann"},"message":"Ôi cách này có hiệu quả này bản, bạn tìm mấy lời bài hát Nhật trên mạng í, viết kiểu chữ abcdxyz í, rồi bạn phiên âm ra Hiragana, Katakana. Viết cho đến khi nhớ thì thôi. Mấy bạn mình hồi đầu ko nhớ bảng chữ cái cũng toàn dùng cách này học nè :3","can_remove":false,"created_time":"2013-11-19T13:40:33+0000","like_count":0,"user_likes":false},"761266153890064":{"id":"761266153890064","from":{"id":"100001458099624","name":"Kham Pha"},"message":"Tất cả các comment và post không được sửa sang tiếng Việt có dấu sẽ bị xóa. Và nặng hơn mem có thể bị khai trừ khỏi group đó.","can_remove":false,"created_time":"2013-11-19T13:59:55+0000","like_count":1,"user_likes":false},"761267103889969":{"id":"761267103889969","from":{"id":"100001458099624","name":"Kham Pha"},"message":"Trần Giáp em quản luôn post này nhé, 2 tiếng nữa các comment và chủ post ko sửa bài sang có dấu thì em cứ thoải mái hành động :D","message_tags":[{"id":"100000328742646","name":"Trần Giáp","type":"user","offset":0,"length":9}],"can_remove":false,"created_time":"2013-11-19T14:02:25+0000","like_count":1,"user_likes":false},"761267537223259":{"id":"761267537223259","from":{"id":"100000328742646","name":"Trần Giáp"},"message":"vâng à :)","can_remove":false,"created_time":"2013-11-19T14:03:24+0000","like_count":0,"user_likes":false},"761268313889848":{"id":"761268313889848","from":{"id":"100003864143890","name":"Hue Nguyen"},"message":"em không hiểu anh. Kham Pha","message_tags":[{"id":"100001458099624","name":"Kham Pha","type":"user","offset":19,"length":8}],"can_remove":false,"created_time":"2013-11-19T14:05:18+0000","like_count":0,"user_likes":false},"761269917223021":{"id":"761269917223021","from":{"id":"100001458099624","name":"Kham Pha"},"message":"group có quy định các comment và post viết tiếng Việt không dấu sau khi đã nhắc nhở mà không được sửa lại thì sẽ bị xóa. Lặp lại nhiều lần thì sẽ bị ban nick.","can_remove":false,"created_time":"2013-11-19T14:08:27+0000","like_count":0,"user_likes":false},"761271230556223":{"id":"761271230556223","from":{"id":"100003864143890","name":"Hue Nguyen"},"message":"nghiã là không được viết tiếng việt có dấu hả anh. Kham Pha","message_tags":[{"id":"100001458099624","name":"Kham Pha","type":"user","offset":51,"length":8}],"can_remove":false,"created_time":"2013-11-19T14:10:55+0000","like_count":0,"user_likes":false},"761271633889516":{"id":"761271633889516","from":{"id":"100001458099624","name":"Kham Pha"},"message":"không được viết tiếng Việt không dấu","can_remove":false,"created_time":"2013-11-19T14:12:00+0000","like_count":1,"user_likes":false},"761271683889511":{"id":"761271683889511","from":{"id":"100000328742646","name":"Trần Giáp"},"message":"Nếu gặp vấn đề không gõ được thì bạn có thể nêu ra để được hỗ trợ về kĩ thuật nhé","can_remove":false,"created_time":"2013-11-19T14:12:07+0000","like_count":0,"user_likes":false},"761272630556083":{"id":"761272630556083","from":{"id":"100003864143890","name":"Hue Nguyen"},"message":"vâng. a Kham Pha","message_tags":[{"id":"100001458099624","name":"Kham Pha","type":"user","offset":8,"length":8}],"can_remove":false,"created_time":"2013-11-19T14:13:16+0000","like_count":0,"user_likes":false},"761273397222673":{"id":"761273397222673","from":{"id":"100001458099624","name":"Kham Pha"},"message":"biết nội quy rồi thì sửa lại cho có dấu đi thôi :)","can_remove":false,"created_time":"2013-11-19T14:14:54+0000","like_count":0,"user_likes":false},"761274513889228":{"id":"761274513889228","from":{"id":"100004998936727","name":"Kanda Kyota"},"message":"hue nguyen","can_remove":false,"created_time":"2013-11-19T14:17:48+0000","like_count":0,"user_likes":false},"761274993889180":{"id":"761274993889180","from":{"id":"100004998936727","name":"Kanda Kyota"},"message":"học thuộc thì rất khó nhưng bạn cố gắng học nhé.","can_remove":false,"created_time":"2013-11-19T14:18:53+0000","like_count":4,"user_likes":false},"761275630555783":{"id":"761275630555783","from":{"id":"100001458099624","name":"Kham Pha"},"message":"Hue Nguyen thấy anh Kanda Kyota chưa, anh ấy người Nhật mà vẫn chịu khó viết tiếng Việt có dấu đấy, chẳng lẽ mình là người Việt mà thua họ :)","message_tags":[{"id":"100003864143890","name":"Hue Nguyen","type":"user","offset":0,"length":10},{"id":"100004998936727","name":"Kanda Kyota","type":"user","offset":20,"length":11}],"can_remove":false,"created_time":"2013-11-19T14:20:14+0000","like_count":1,"user_likes":false},"761278253888854":{"id":"761278253888854","from":{"id":"100003864143890","name":"Hue Nguyen"},"message":"vâng. em cảm ơn anh Kham Pha","message_tags":[{"id":"100001458099624","name":"Kham Pha","type":"user","offset":20,"length":8}],"can_remove":false,"created_time":"2013-11-19T14:25:05+0000","like_count":0,"user_likes":false}},"paging":{"cursors":{"after":"NzYxMjA1ODc3MjI5NDI1","before":"NzYxMjA1ODc3MjI5NDI1"},"next":"https://graph.facebook.com/229244010425617_761200150563331/comments?limit=1&summary=1&after=NzYxMjA1ODc3MjI5NDI1"},"summary":{"order":"chronological","total_count":24}}}