{"id":"229244010425617_761256707224342","type":"status","from":{"id":"100001616374728","name":"Haruka Kanno"},"message":"chan lam viec tai NB qa.muon ve vn qa di mat.haizzz\nco ai biet cty nao rat can nhan vien ng NHAT thi bao m vs!hi","created_time":"2013-11-19T13:36:33+0000","updated_time":"2013-11-20T11:11:57+0000","likes":{"data":{"100000450088239":{"id":"100000450088239","name":"Diep Anh Hoang"},"100001857616844":{"id":"100001857616844","name":"Meo Lun"},"1305472811":{"id":"1305472811","name":"Tuan Nguyen"},"100001416272263":{"id":"100001416272263","name":"Mai PB"},"1717530880":{"id":"1717530880","name":"Triệu Việt Cường"},"100001754136107":{"id":"100001754136107","name":"Nguyễn Tuấn Vũ"},"100001887921127":{"id":"100001887921127","name":"Kata Apple"},"100005801442456":{"id":"100005801442456","name":"An Nguyen"},"100006845044669":{"id":"100006845044669","name":"ドアン ヴアン アン"},"100007087597966":{"id":"100007087597966","name":"Phong Cách Nhật"},"1821970083":{"id":"1821970083","name":"Nguyễn Mạnh Cường"},"100006738850876":{"id":"100006738850876","name":"Ho Tuan"},"100003171672878":{"id":"100003171672878","name":"Tầu Heo"},"100004889430124":{"id":"100004889430124","name":"Quiet Man"},"792083330":{"id":"792083330","name":"Duc Le"},"100000645988808":{"id":"100000645988808","name":"Vũ Hoàng Dương"},"1146680551":{"id":"1146680551","name":"優しい なぁ"},"100003655265575":{"id":"100003655265575","name":"Hường Hà"},"100001458099624":{"id":"100001458099624","name":"Kham Pha"},"100004112258038":{"id":"100004112258038","name":"Chung Tran"},"100000603915176":{"id":"100000603915176","name":"悪いな ぁ"}},"paging":{"cursors":{"after":"MTAwMDAwNDUwMDg4MjM5","before":"MTAwMDAwNDUwMDg4MjM5"},"next":"https://graph.facebook.com/229244010425617_761256707224342/likes?limit=1&summary=1&after=MTAwMDAwNDUwMDg4MjM5"},"summary":{"total_count":21}},"comments":{"data":{"761257183890961":{"id":"761257183890961","from":{"id":"100000603915176","name":"悪いな ぁ"},"message":"Trùi, member mới vào đã than rùi kìa :v","can_remove":false,"created_time":"2013-11-19T13:38:06+0000","like_count":1,"user_likes":false},"761257227224290":{"id":"761257227224290","from":{"id":"100001416272263","name":"Mai PB"},"message":"Thật không?","can_remove":false,"created_time":"2013-11-19T13:38:16+0000","like_count":0,"user_likes":false},"761260763890603":{"id":"761260763890603","from":{"id":"100000971073873","name":"Nam Trinh"},"message":":v","can_remove":false,"created_time":"2013-11-19T13:47:06+0000","like_count":1,"user_likes":false},"761263290557017":{"id":"761263290557017","from":{"id":"100001616374728","name":"Haruka Kanno"},"message":"Treu em ha cac anh","can_remove":false,"created_time":"2013-11-19T13:52:02+0000","like_count":0,"user_likes":false},"761263497223663":{"id":"761263497223663","from":{"id":"100000603915176","name":"悪いな ぁ"},"message":"Kg có đâu :p","can_remove":false,"created_time":"2013-11-19T13:52:43+0000","like_count":0,"user_likes":false},"761263780556968":{"id":"761263780556968","from":{"id":"100001458099624","name":"Kham Pha"},"message":"Biết cả từ lóng tiếng Việt cơ ah, bạn này giỏi thật :D","can_remove":false,"created_time":"2013-11-19T13:53:31+0000","like_count":3,"user_likes":false},"761263823890297":{"id":"761263823890297","from":{"id":"569263718","name":"Phuong Thao Tran"},"message":"chữ không dấu, ngôn ngữ teen kìa bạn Haruka Kanno","message_tags":[{"id":"100001616374728","name":"Haruka Kanno","type":"user","offset":37,"length":12}],"can_remove":false,"created_time":"2013-11-19T13:53:37+0000","like_count":2,"user_likes":false},"761264330556913":{"id":"761264330556913","from":{"id":"100001616374728","name":"Haruka Kanno"},"message":"Sao lại có dấu!?? Mệt Lắmk Cần đâu hiểu hết mà!!!haizzz","can_remove":false,"created_time":"2013-11-19T13:55:09+0000","like_count":6,"user_likes":false},"761264840556862":{"id":"761264840556862","from":{"id":"100000603915176","name":"悪いな ぁ"},"message":":))","can_remove":false,"created_time":"2013-11-19T13:56:32+0000","like_count":0,"user_likes":false},"761265010556845":{"id":"761265010556845","from":{"id":"100001416272263","name":"Mai PB"},"message":"Ở group này thành viên phải viết có dấu, giống như viết tiếng Nhật phải có Kanji đó Haruka Kanno","message_tags":[{"id":"100001616374728","name":"Haruka Kanno","type":"user","offset":84,"length":12}],"can_remove":false,"created_time":"2013-11-19T13:56:56+0000","like_count":3,"user_likes":false},"761265350556811":{"id":"761265350556811","from":{"id":"100001458099624","name":"Kham Pha"},"message":"Haruka Kanno cần chứ, rất cần là đằng khác.","message_tags":[{"id":"100001616374728","name":"Haruka Kanno","type":"user","offset":0,"length":12}],"can_remove":false,"created_time":"2013-11-19T13:57:55+0000","like_count":1,"user_likes":false},"761266467223366":{"id":"761266467223366","from":{"id":"569263718","name":"Phuong Thao Tran"},"message":"Kham Pha, bạn hãy chứng tỏ sự cần thiết cho bạn Haruka Kanno đi nè","message_tags":[{"id":"100001616374728","name":"Haruka Kanno","type":"user","offset":48,"length":12}],"can_remove":false,"created_time":"2013-11-19T14:00:57+0000","like_count":0,"user_likes":false},"761267453889934":{"id":"761267453889934","from":{"id":"100001580479641","name":"Hà Xuân Thủy"},"message":"Xem bài đăng t tưởng là người việt chứ, hoá ra là nhầm.","can_remove":false,"created_time":"2013-11-19T14:03:11+0000","like_count":0,"user_likes":false},"761267500556596":{"id":"761267500556596","from":{"id":"100000198219367","name":"Chang Jiang"},"message":"Kham Pha đổi tên có dấu đê :v","message_tags":[{"id":"100001458099624","name":"Kham Pha","type":"user","offset":0,"length":8}],"can_remove":false,"created_time":"2013-11-19T14:03:17+0000","like_count":3,"user_likes":false},"761267707223242":{"id":"761267707223242","from":{"id":"100001458099624","name":"Kham Pha"},"message":"Chang Jiang quá số lần đổi tên quy định rồi.","message_tags":[{"id":"100000198219367","name":"Chang Jiang","type":"user","offset":0,"length":11}],"can_remove":false,"created_time":"2013-11-19T14:03:56+0000","like_count":0,"user_likes":false},"761268403889839":{"id":"761268403889839","from":{"id":"100001416272263","name":"Mai PB"},"message":"Haruka có muốn giỏi tiếng Việt không? Vậy thì vào group thường xuyên nhé.","message_tags":[{"id":"100001616374728","name":"Haruka","type":"user","offset":0,"length":6}],"can_remove":false,"created_time":"2013-11-19T14:05:28+0000","like_count":1,"user_likes":false},"761268943889785":{"id":"761268943889785","from":{"id":"100001616374728","name":"Haruka Kanno"},"message":"ok.xloi cac a nhe.","can_remove":false,"created_time":"2013-11-19T14:06:26+0000","like_count":1,"user_likes":false},"761270747222938":{"id":"761270747222938","from":{"id":"100001616374728","name":"Haruka Kanno"},"message":"e nham ah a Mai PB?","message_tags":[{"id":"100001416272263","name":"Mai PB","type":"user","offset":12,"length":6}],"can_remove":false,"created_time":"2013-11-19T14:10:16+0000","like_count":0,"user_likes":false},"761271423889537":{"id":"761271423889537","from":{"id":"100001416272263","name":"Mai PB"},"message":"Anh không nói em nhầm gì cả.","can_remove":false,"created_time":"2013-11-19T14:11:25+0000","like_count":0,"user_likes":false},"761274613889218":{"id":"761274613889218","from":{"id":"100001458099624","name":"Kham Pha"},"message":"Haruka Kanno làm một post riêng giới thiệu bản thân đi, mọi người thích lắm đấy. Nhớ là tiếng Việt có dấu nhé :)","message_tags":[{"id":"100001616374728","name":"Haruka Kanno","type":"user","offset":0,"length":12}],"can_remove":false,"created_time":"2013-11-19T14:18:03+0000","like_count":1,"user_likes":false},"761276570555689":{"id":"761276570555689","from":{"id":"100001616374728","name":"Haruka Kanno"},"message":"thich j a?hahaha","can_remove":false,"created_time":"2013-11-19T14:22:18+0000","like_count":2,"user_likes":false},"761276910555655":{"id":"761276910555655","from":{"id":"100001416272263","name":"Mai PB"},"message":"Thích người Nhật chứ sao.","can_remove":false,"created_time":"2013-11-19T14:23:14+0000","like_count":1,"user_likes":false},"761278423888837":{"id":"761278423888837","from":{"id":"100001416272263","name":"Mai PB"},"message":"Mọi người ơi, có ai biết công ty nào ở VN cần tuyển 1 cô gái người Nhật giỏi tiếng Việt, dễ thương, yêu VN không, giới thiệu cho bạn Haruka Kanno này nhé.","message_tags":[{"id":"100001616374728","name":"Haruka Kanno","type":"user","offset":133,"length":12}],"can_remove":false,"created_time":"2013-11-19T14:25:33+0000","like_count":1,"user_likes":false},"761278993888780":{"id":"761278993888780","from":{"id":"569263718","name":"Phuong Thao Tran"},"message":"http://evolable.asia/ nè Haruka Kanno","message_tags":[{"id":"100001616374728","name":"Haruka Kanno","type":"user","offset":25,"length":12}],"can_remove":false,"created_time":"2013-11-19T14:27:04+0000","like_count":0,"user_likes":false},"761279753888704":{"id":"761279753888704","from":{"id":"100000198219367","name":"Chang Jiang"},"message":"tại sao Haruka Kanno lại chán làm việc ở NB? :))","message_tags":[{"id":"100001616374728","name":"Haruka Kanno","type":"user","offset":8,"length":12}],"can_remove":false,"created_time":"2013-11-19T14:28:55+0000","like_count":0,"user_likes":false},"761280267221986":{"id":"761280267221986","from":{"id":"100004028173069","name":"Jin Ngốc"},"message":"Tiếng việt giỏi thế @@, ngưỡng mộ, mà bạn nhớ viết có dấu để dễ đọc nhé","can_remove":false,"created_time":"2013-11-19T14:30:15+0000","like_count":0,"user_likes":false},"761282350555111":{"id":"761282350555111","from":{"id":"100001044224883","name":"Fan Tom"},"message":"bạn này người Việt đấy chứ @@","can_remove":false,"created_time":"2013-11-19T14:34:12+0000","like_count":0,"user_likes":false},"761288330554513":{"id":"761288330554513","from":{"id":"100000603915176","name":"悪いな ぁ"},"message":"Người N đấy Fan Tom :)","can_remove":false,"created_time":"2013-11-19T14:46:06+0000","like_count":0,"user_likes":false},"761289443887735":{"id":"761289443887735","from":{"id":"100001044224883","name":"Fan Tom"},"message":"xem profile thì chắc đây ko phải người nhật :v","can_remove":false,"created_time":"2013-11-19T14:47:24+0000","like_count":0,"user_likes":false},"761289997221013":{"id":"761289997221013","from":{"id":"100001416272263","name":"Mai PB"},"message":"Bạn mình đấy. :-)","can_remove":false,"created_time":"2013-11-19T14:48:26+0000","like_count":1,"user_likes":false},"761290450554301":{"id":"761290450554301","from":{"id":"100001044224883","name":"Fan Tom"},"message":"thế nhật đúng rồi :v","can_remove":false,"created_time":"2013-11-19T14:49:27+0000","like_count":0,"user_likes":false},"761290800554266":{"id":"761290800554266","from":{"id":"100000603915176","name":"悪いな ぁ"},"message":"Ồ, member nói kg có trọng lượng bằng admin :((","can_remove":false,"created_time":"2013-11-19T14:50:09+0000","like_count":3,"user_likes":false},"761291237220889":{"id":"761291237220889","from":{"id":"100001458099624","name":"Kham Pha"},"message":"biết vậy thì đăng ký làm admin thôi :D","can_remove":false,"created_time":"2013-11-19T14:51:05+0000","like_count":0,"user_likes":false},"761291260554220":{"id":"761291260554220","from":{"id":"100001044224883","name":"Fan Tom"},"message":"không phải thế mà bằng chứng rõ hơn ấy mà :3","can_remove":false,"created_time":"2013-11-19T14:51:07+0000","like_count":0,"user_likes":false},"761292783887401":{"id":"761292783887401","from":{"id":"100000603915176","name":"悪いな ぁ"},"message":"Làm trách nhiệm cao lắm, mà tớ kg phải người có trách nhiệm lắm nên kg dám đâu :p","can_remove":false,"created_time":"2013-11-19T14:53:20+0000","like_count":1,"user_likes":false},"761292863887393":{"id":"761292863887393","from":{"id":"569263718","name":"Phuong Thao Tran"},"message":"[fai lam viec de cuoc song] <--- người Nhật ^^","can_remove":false,"created_time":"2013-11-19T14:53:31+0000","like_count":2,"user_likes":false},"761292970554049":{"id":"761292970554049","from":{"id":"1813611352","name":"To Đùng"},"message":"anh Tú mong manh nhậy cảm quá :v","can_remove":false,"created_time":"2013-11-19T14:53:44+0000","like_count":1,"user_likes":false},"761293963887283":{"id":"761293963887283","from":{"id":"100000603915176","name":"悪いな ぁ"},"message":"Mày đừng vạch áo anh ra thế :v","can_remove":false,"created_time":"2013-11-19T14:54:44+0000","like_count":1,"user_likes":false},"761294420553904":{"id":"761294420553904","from":{"id":"1813611352","name":"To Đùng"},"message":"lưng anh có gì đâu mà lo mọi người nhìn thấy :v","can_remove":false,"created_time":"2013-11-19T14:55:57+0000","like_count":0,"user_likes":false},"761306193886060":{"id":"761306193886060","from":{"id":"100003473851777","name":"Xalach Xoong"},"message":"Công ty tôi muốn tuyển một nguoi nhật vê dạy.nhưng k biết tìm đâu ra.công ty tôi ở vinh","can_remove":false,"created_time":"2013-11-19T15:20:39+0000","like_count":2,"user_likes":false},"761310700552276":{"id":"761310700552276","from":{"id":"581014247","name":"Duong Thuy"},"message":"Ít người tin 菅野 陽香 là người Nhật thế. Hihi","message_tags":[{"id":"100001616374728","name":"菅野 陽香","type":"user","offset":13,"length":5}],"can_remove":false,"created_time":"2013-11-19T15:30:34+0000","like_count":1,"user_likes":false},"761310850552261":{"id":"761310850552261","from":{"id":"100004889430124","name":"Quiet Man"},"message":"Chỉnh proxy firefox sang nước khác là có thể đổi tên hiển thị được đó admin Kham Pha","message_tags":[{"id":"100001458099624","name":"Kham Pha","type":"user","offset":76,"length":8}],"can_remove":false,"created_time":"2013-11-19T15:30:58+0000","like_count":0,"user_likes":false},"761311013885578":{"id":"761311013885578","from":{"id":"1813611352","name":"To Đùng"},"message":"Mình tin mà :v đến từ Japan và sống tại Hà Nội còn gì :v","can_remove":false,"created_time":"2013-11-19T15:31:25+0000","like_count":0,"user_likes":false},"761311303885549":{"id":"761311303885549","from":{"id":"100000603915176","name":"悪いな ぁ"},"message":"Quay lại Nhật rồi, bây giờ muốn trở lại VN làm việc :)","can_remove":false,"created_time":"2013-11-19T15:32:06+0000","like_count":1,"user_likes":false},"761311710552175":{"id":"761311710552175","from":{"id":"1813611352","name":"To Đùng"},"message":"sống ở VN dễ chịu hơn ở Nhật :v","can_remove":false,"created_time":"2013-11-19T15:32:59+0000","like_count":1,"user_likes":false},"761312037218809":{"id":"761312037218809","from":{"id":"100000603915176","name":"悪いな ぁ"},"message":"Cũng không hẳn, tại Haruka Kanno thích VN thôi :)","message_tags":[{"id":"100001616374728","name":"Haruka Kanno","type":"user","offset":20,"length":12}],"can_remove":false,"created_time":"2013-11-19T15:33:52+0000","like_count":2,"user_likes":false},"761312973885382":{"id":"761312973885382","from":{"id":"1813611352","name":"To Đùng"},"message":"\"Hà Nội cái gì cũng rẻ Chỉ có đắt nhất bạn bè thôi, Hà Nội cái gì cũng rẻ, chỉ có đắt nhất tình nguời thôi\" :v câu này giờ cần phải hiểu sang 1 nghĩa khác :v","can_remove":false,"created_time":"2013-11-19T15:36:33+0000","like_count":1,"user_likes":false},"761315923885087":{"id":"761315923885087","from":{"id":"1146680551","name":"優しい なぁ"},"message":"ủa k phải đổi tên thành Hà Lội hả","can_remove":false,"created_time":"2013-11-19T15:41:49+0000","like_count":0,"user_likes":false},"761316440551702":{"id":"761316440551702","from":{"id":"1813611352","name":"To Đùng"},"message":"Lội xong rồi mà anh :)) hết mùa lội rồi :v","can_remove":false,"created_time":"2013-11-19T15:42:45+0000","like_count":1,"user_likes":false},"761331910550155":{"id":"761331910550155","from":{"id":"100002002392998","name":"Thuy Linh Nguyen"},"message":"sao bạn này siêu tiếng việt thế :'( Mh thì muốn đi nhật ko được","can_remove":false,"created_time":"2013-11-19T16:16:37+0000","like_count":1,"user_likes":false},"761390540544292":{"id":"761390540544292","from":{"id":"1252017053","name":"Minh Pham"},"message":"Diepanh Hoang","message_tags":[{"id":"100000450088239","name":"Diepanh Hoang","type":"user","offset":0,"length":13}],"can_remove":false,"created_time":"2013-11-19T18:26:41+0000","like_count":0,"user_likes":false},"761390840544262":{"id":"761390840544262","from":{"id":"1252017053","name":"Minh Pham"},"message":"Diepanh Hoang e xem ở vn có Công việc gì cho bạn người Nhật này không nè ^^","message_tags":[{"id":"100000450088239","name":"Diepanh Hoang","type":"user","offset":0,"length":13}],"can_remove":false,"created_time":"2013-11-19T18:27:32+0000","like_count":1,"user_likes":false},"761650980518248":{"id":"761650980518248","from":{"id":"100001616374728","name":"Haruka Kanno"},"message":"thanks cac anh chi a em se tim cty day a","can_remove":false,"created_time":"2013-11-20T03:47:34+0000","like_count":1,"user_likes":false},"761668053849874":{"id":"761668053849874","from":{"id":"1146680551","name":"優しい なぁ"},"message":"Chị làm giáo viên tiếng nhật đc đó","can_remove":false,"created_time":"2013-11-20T03:59:16+0000","like_count":1,"user_likes":false},"761741800509166":{"id":"761741800509166","from":{"id":"100003079752043","name":"Smile Named Hân"},"message":"Chị Haruka Kanno viết tiếng Việt ko dấu giỏi thế? :D. Em đang cần gia sư dạy tiếng Nhật nè! :\">.","message_tags":[{"id":"100001616374728","name":"Haruka Kanno","type":"user","offset":4,"length":12}],"can_remove":false,"created_time":"2013-11-20T07:44:06+0000","like_count":0,"user_likes":false},"761800643836615":{"id":"761800643836615","from":{"id":"100000450088239","name":"Diep Anh Hoang"},"message":"mình có tuyển bạn Haruka Kanno ah ^ ^","message_tags":[{"id":"100001616374728","name":"Haruka Kanno","type":"user","offset":18,"length":12}],"can_remove":false,"created_time":"2013-11-20T11:11:57+0000","like_count":1,"user_likes":false}},"paging":{"cursors":{"after":"NzYxMjU3MTgzODkwOTYx","before":"NzYxMjU3MTgzODkwOTYx"},"next":"https://graph.facebook.com/229244010425617_761256707224342/comments?limit=1&summary=1&after=NzYxMjU3MTgzODkwOTYx"},"summary":{"order":"chronological","total_count":56}}}