{"id":"229244010425617_761219663894713","type":"status","from":{"id":"100004104892182","name":"Anh Quên"},"message":"A.c cho em hỏi n5 thì học bao nhiêu bài minano thì mình có thể thi a. Mà n5 phần nghe có khó k a. Tk mọi người","created_time":"2013-11-19T12:04:02+0000","updated_time":"2013-11-24T08:38:42+0000","likes":{"data":{"100007070233684":{"id":"100007070233684","name":"Cười Xuyên Biên Giới"},"100002985173476":{"id":"100002985173476","name":"Trung Bin"},"100004303569394":{"id":"100004303569394","name":"Le Trungtin"},"100001520307352":{"id":"100001520307352","name":"Nguyen Sang"}},"paging":{"cursors":{"after":"MTAwMDA3MDcwMjMzNjg0","before":"MTAwMDA3MDcwMjMzNjg0"},"next":"https://graph.facebook.com/229244010425617_761219663894713/likes?limit=1&summary=1&after=MTAwMDA3MDcwMjMzNjg0"},"summary":{"total_count":5}},"comments":{"data":{"761220737227939":{"id":"761220737227939","from":{"id":"100002898154513","name":"Gã Shrek"},"message":"hết 25 bài theo giáo trình mInna no nihongo 1 hoặc shinnihongokiso 1 là có thể thi được N5. Phần nghe thì trong khi học hết 25 phần nghe của 25 bài mình nghĩ bạn cũng có thể nghe được. Luyện nhiều sẽ quen thôi bạn à :3","can_remove":false,"created_time":"2013-11-19T12:06:36+0000","like_count":2,"user_likes":false},"761221190561227":{"id":"761221190561227","from":{"id":"100004104892182","name":"Anh Quên"},"message":"Cảm ơn ban nhé","can_remove":false,"created_time":"2013-11-19T12:07:27+0000","like_count":0,"user_likes":false},"761222160561130":{"id":"761222160561130","from":{"id":"100003318461313","name":"Nhung Kool"},"message":"bạn có bài tập từng mảng ngữ fáp n5 k ạ.","can_remove":false,"created_time":"2013-11-19T12:10:40+0000","like_count":0,"user_likes":false},"761222477227765":{"id":"761222477227765","from":{"id":"100002898154513","name":"Gã Shrek"},"message":"mình có một ít đề thi N5 bạn có cần để lại email mình sẽ gửi cho bạn.","can_remove":false,"created_time":"2013-11-19T12:11:27+0000","like_count":2,"user_likes":false},"761222607227752":{"id":"761222607227752","from":{"id":"100004104892182","name":"Anh Quên"},"message":"Mình k có","can_remove":false,"created_time":"2013-11-19T12:11:48+0000","like_count":1,"user_likes":false},"761224007227612":{"id":"761224007227612","from":{"id":"100004889430124","name":"Quiet Man"},"message":"Ngữ pháp thì bạn search ngữ pháp của ĐH FPT ấy. Rất chi tiết","can_remove":false,"created_time":"2013-11-19T12:15:38+0000","like_count":0,"user_likes":false},"761224343894245":{"id":"761224343894245","from":{"id":"100004104892182","name":"Anh Quên"},"message":"Vây ak","can_remove":false,"created_time":"2013-11-19T12:16:33+0000","like_count":0,"user_likes":false},"761224483894231":{"id":"761224483894231","from":{"id":"100004104892182","name":"Anh Quên"},"message":"Mình cung k biêt lam. Minh cung moi hoc","can_remove":false,"created_time":"2013-11-19T12:16:51+0000","like_count":0,"user_likes":false},"761225953894084":{"id":"761225953894084","from":{"id":"100005597975596","name":"Lang Tu Thieu Toan"},"message":"ga shrek co the gui cho minh de thi cua n5 duoc ko email cua minh la anhchiyeu_moi tinhdau567@yahoo.com","can_remove":false,"created_time":"2013-11-19T12:22:05+0000","like_count":1,"user_likes":false},"761226150560731":{"id":"761226150560731","from":{"id":"100005597975596","name":"Lang Tu Thieu Toan"},"message":"arigatou gozaimasu","can_remove":false,"created_time":"2013-11-19T12:22:35+0000","like_count":1,"user_likes":false},"761226620560684":{"id":"761226620560684","from":{"id":"100002898154513","name":"Gã Shrek"},"message":"Lang Tu Thieu Toan trong page bạn nên sử dụng Tiếng Việt có dấu :3 bạn sẽ nhận được tài liệu trong ít phút nữa :3","message_tags":[{"id":"100005597975596","name":"Lang Tu Thieu Toan","type":"user","offset":0,"length":18}],"can_remove":false,"created_time":"2013-11-19T12:24:08+0000","like_count":1,"user_likes":false},"761228500560496":{"id":"761228500560496","from":{"id":"100002898154513","name":"Gã Shrek"},"message":"Lang Tu Thieu Toan bạn có thể cho mình lại email của bạn không. Gửi đi thì nó thông báo là địa chỉ email không hợp lệ.","message_tags":[{"id":"100005597975596","name":"Lang Tu Thieu Toan","type":"user","offset":0,"length":18}],"can_remove":false,"created_time":"2013-11-19T12:29:48+0000","like_count":0,"user_likes":false},"761231323893547":{"id":"761231323893547","from":{"id":"100002568133487","name":"Ty Ti"},"message":"bạn ơi,bạn có thể gửi cho m dc k .mail của minhd là Nguyenanh294@gmail.com.","can_remove":false,"created_time":"2013-11-19T12:36:28+0000","like_count":0,"user_likes":false},"761231387226874":{"id":"761231387226874","from":{"id":"100005597975596","name":"Lang Tu Thieu Toan"},"message":"anhchiyeu_moitinhdau567 @yahoo.com","can_remove":false,"created_time":"2013-11-19T12:36:37+0000","like_count":0,"user_likes":false},"761231450560201":{"id":"761231450560201","from":{"id":"100002568133487","name":"Ty Ti"},"message":"arigatou b nhé..","can_remove":false,"created_time":"2013-11-19T12:36:46+0000","like_count":0,"user_likes":false},"761232620560084":{"id":"761232620560084","from":{"id":"100002898154513","name":"Gã Shrek"},"message":"Lang Tu Thieu Toan địa chỉ này không gửi được bạn à. Ty Ti bạn vào email nhận tài liệu nha.","message_tags":[{"id":"100005597975596","name":"Lang Tu Thieu Toan","type":"user","offset":0,"length":18},{"id":"100002568133487","name":"Ty Ti","type":"user","offset":53,"length":5}],"can_remove":false,"created_time":"2013-11-19T12:38:28+0000","like_count":0,"user_likes":false},"761233927226620":{"id":"761233927226620","from":{"id":"1082956399","name":"Danny Dee Nguyen IE"},"message":"bạn ơi, có thể gửi cho mình xin với được không ^^. maidan.nguyen@gmail.com\nCảm ơn bạn nhiều nha :)","can_remove":false,"created_time":"2013-11-19T12:40:54+0000","like_count":0,"user_likes":false},"761234343893245":{"id":"761234343893245","from":{"id":"100002898154513","name":"Gã Shrek"},"message":"Danny Dee Nguyen ok bạn.","message_tags":[{"id":"1082956399","name":"Danny Dee Nguyen","type":"user","offset":0,"length":16}],"can_remove":false,"created_time":"2013-11-19T12:42:07+0000","like_count":1,"user_likes":false},"761234953893184":{"id":"761234953893184","from":{"id":"100005597975596","name":"Lang Tu Thieu Toan"},"message":"ban thu gui lai xem email nay minh dung lau nay ma ban","can_remove":false,"created_time":"2013-11-19T12:43:31+0000","like_count":0,"user_likes":false},"761235277226485":{"id":"761235277226485","from":{"id":"100002898154513","name":"Gã Shrek"},"message":"Lang Tu Thieu Toan nó báo là email không hợp lệ bạn à. Bạn kiểm tra lại email của bạn xem nào.","message_tags":[{"id":"100005597975596","name":"Lang Tu Thieu Toan","type":"user","offset":0,"length":18}],"can_remove":false,"created_time":"2013-11-19T12:44:13+0000","like_count":0,"user_likes":false},"761235630559783":{"id":"761235630559783","from":{"id":"100002568133487","name":"Ty Ti"},"message":"cảm ơn bạn nhieu nhé","can_remove":false,"created_time":"2013-11-19T12:45:01+0000","like_count":1,"user_likes":false},"761235723893107":{"id":"761235723893107","from":{"id":"100003318461313","name":"Nhung Kool"},"message":"gửi tớ vs. luuhongnhung2403hanu@gmail.com","can_remove":false,"created_time":"2013-11-19T12:45:21+0000","like_count":0,"user_likes":false},"761236190559727":{"id":"761236190559727","from":{"id":"100002898154513","name":"Gã Shrek"},"message":"Nhung Kool ok bạn","message_tags":[{"id":"100003318461313","name":"Nhung Kool","type":"user","offset":0,"length":10}],"can_remove":false,"created_time":"2013-11-19T12:46:26+0000","like_count":1,"user_likes":false},"761236243893055":{"id":"761236243893055","from":{"id":"100002568133487","name":"Ty Ti"},"message":"các bạn cùng cố gắng ôn luyện để đỗ n5 nhá....","can_remove":false,"created_time":"2013-11-19T12:46:38+0000","like_count":1,"user_likes":false},"761236773893002":{"id":"761236773893002","from":{"id":"100003318461313","name":"Nhung Kool"},"message":"t ms học. mà thấy khó wá","can_remove":false,"created_time":"2013-11-19T12:48:09+0000","like_count":0,"user_likes":false},"761241003892579":{"id":"761241003892579","from":{"id":"100005597975596","name":"Lang Tu Thieu Toan"},"message":"minh moi nhan duoc email cua ban .nhung chi thay co minh chu kanji thui ga shrek","can_remove":false,"created_time":"2013-11-19T12:59:02+0000","like_count":0,"user_likes":false},"761279453888734":{"id":"761279453888734","from":{"id":"100001044224883","name":"Fan Tom"},"message":"gửi mail giúp mình nữa nhé : hoapham0491@gmail.com . arigatou ^^","can_remove":false,"created_time":"2013-11-19T14:28:08+0000","like_count":0,"user_likes":false},"761316050551741":{"id":"761316050551741","from":{"id":"100003250657085","name":"Nhất Kiếm Vô Tình"},"message":"mình nữa thewindpro9x@gmail.com","can_remove":false,"created_time":"2013-11-19T15:42:05+0000","like_count":0,"user_likes":false},"761551137194899":{"id":"761551137194899","from":{"id":"100003899510131","name":"Hoa Oải Hương"},"message":"Bạn ơi gửi cho mình xin nữa nhé. Nguyenthanhtam139@gmail.com thanks b nhe","can_remove":false,"created_time":"2013-11-20T00:27:21+0000","like_count":0,"user_likes":false},"761591347190878":{"id":"761591347190878","from":{"id":"100004663298790","name":"Hạnh Phúc Nhé TrueLove"},"message":"mình nữa tinhfcammoinguoi@gmail.com","can_remove":false,"created_time":"2013-11-20T01:52:37+0000","like_count":0,"user_likes":false},"761747230508623":{"id":"761747230508623","from":{"id":"100003324969497","name":"Nam Phạm"},"message":"mình nữa.baonam142@gmail.com","can_remove":false,"created_time":"2013-11-20T08:06:55+0000","like_count":0,"user_likes":false},"761762477173765":{"id":"761762477173765","from":{"id":"100003219426562","name":"Thỏ Ngố"},"message":"bạn gửi cho mình nữa nhé :) thuthao.1693@gmail.com","can_remove":false,"created_time":"2013-11-20T09:04:28+0000","like_count":0,"user_likes":false},"762910757058937":{"id":"762910757058937","from":{"id":"1794153054","name":"Thư Anh"},"message":"Gã Shrek có thể gửi cho mình xin nữa nhé , minhthutm3012@gmail.com , tks ^^","message_tags":[{"id":"100002898154513","name":"Gã Shrek","type":"user","offset":0,"length":8}],"can_remove":false,"created_time":"2013-11-21T06:43:30+0000","like_count":0,"user_likes":false},"762915553725124":{"id":"762915553725124","from":{"id":"100002898154513","name":"Gã Shrek"},"message":"Thỏ Ngố Thư Anh mình đã gửi cho 2 bạn rồi.","message_tags":[{"id":"100003219426562","name":"Thỏ Ngố","type":"user","offset":0,"length":7},{"id":"1794153054","name":"Thư Anh","type":"user","offset":8,"length":7}],"can_remove":false,"created_time":"2013-11-21T07:05:23+0000","like_count":0,"user_likes":false},"762916037058409":{"id":"762916037058409","from":{"id":"100003219426562","name":"Thỏ Ngố"},"message":"thaks bạn nha :)","can_remove":false,"created_time":"2013-11-21T07:07:31+0000","like_count":0,"user_likes":false},"764004386949574":{"id":"764004386949574","from":{"id":"100004469770250","name":"Nu Lee"},"message":"gửi cho em với ạ , bexjnh_tjmkute@yahoo.com , em cảm ơn mọi người ^^","can_remove":false,"created_time":"2013-11-22T02:38:33+0000","like_count":0,"user_likes":false},"764005860282760":{"id":"764005860282760","from":{"id":"100003250657085","name":"Nhất Kiếm Vô Tình"},"message":"thành viên mới ak Thùy Dương muốn làm quen thì giới thiệu nên tường của group nhé đăng nên đây không ai biết được đâu bạn ak !","message_tags":[{"id":"100007094582055","name":"Thùy Dương","type":"user","offset":18,"length":10}],"can_remove":false,"created_time":"2013-11-22T02:41:41+0000","like_count":0,"user_likes":false},"764064053610274":{"id":"764064053610274","from":{"id":"100000381394367","name":"Thành Nguyễn"},"message":"Những comment mang tính giới thiệu cá nhân kiểu làm quen, post hình kiểu hot girl, hot boy  đều bị coi là spam và bị xóa. Không gian của group là nơi để phục vụ các hoạt động mang tính cộng đồng vì vậy các bạn lưu ý cho.","can_remove":false,"created_time":"2013-11-22T05:41:02+0000","like_count":1,"user_likes":false},"764083506941662":{"id":"764083506941662","from":{"id":"100002959714236","name":"Quỳnh Anh"},"message":"Gã Shrek có thể gửi giùm m với đc k? email là phamthiquynhanh9552@gmail.com thanks","message_tags":[{"id":"100002898154513","name":"Gã Shrek","type":"user","offset":0,"length":8}],"can_remove":false,"created_time":"2013-11-22T06:24:22+0000","like_count":1,"user_likes":false},"764091850274161":{"id":"764091850274161","from":{"id":"100002898154513","name":"Gã Shrek"},"message":"Quỳnh Anh bạn vào email check nha :v","message_tags":[{"id":"100002959714236","name":"Quỳnh Anh","type":"user","offset":0,"length":9}],"can_remove":false,"created_time":"2013-11-22T06:53:20+0000","like_count":0,"user_likes":false},"764100916939921":{"id":"764100916939921","from":{"id":"100002959714236","name":"Quỳnh Anh"},"message":"Gã Shrek cám ơn b ha ^_^","message_tags":[{"id":"100002898154513","name":"Gã Shrek","type":"user","offset":0,"length":8}],"can_remove":false,"created_time":"2013-11-22T07:26:53+0000","like_count":0,"user_likes":false},"764150770268269":{"id":"764150770268269","from":{"id":"100003785331000","name":"Phát"},"message":"@ Gã Shrek ơi. Cho mình xin đề thì n5 vào tanphattinhte.nd@gmail.com với. Arigato","can_remove":false,"created_time":"2013-11-22T10:10:50+0000","like_count":0,"user_likes":false},"764153686934644":{"id":"764153686934644","from":{"id":"100002898154513","name":"Gã Shrek"},"message":"Tấn Phát Tinh Tế bạn check email nha.","message_tags":[{"id":"100003785331000","name":"Tấn Phát Tinh Tế","type":"user","offset":0,"length":16}],"can_remove":false,"created_time":"2013-11-22T10:20:06+0000","like_count":1,"user_likes":false},"764168180266528":{"id":"764168180266528","from":{"id":"100003250657085","name":"Nhất Kiếm Vô Tình"},"message":"Gã Shrek send mình nữa thewindpro9x@gmail.com","message_tags":[{"id":"100002898154513","name":"Gã Shrek","type":"user","offset":0,"length":8}],"can_remove":false,"created_time":"2013-11-22T10:57:19+0000","like_count":0,"user_likes":false},"764183673598312":{"id":"764183673598312","from":{"id":"100002898154513","name":"Gã Shrek"},"message":"Nhất Kiếm Vô Tình ok bạn.","message_tags":[{"id":"100003250657085","name":"Nhất Kiếm Vô Tình","type":"user","offset":0,"length":17}],"can_remove":false,"created_time":"2013-11-22T11:26:03+0000","like_count":0,"user_likes":false},"764184173598262":{"id":"764184173598262","from":{"id":"100004469770250","name":"Nu Lee"},"message":"gửi em với anh Gã Shrek ơi  👅","message_tags":[{"id":"100002898154513","name":"Gã Shrek","type":"user","offset":15,"length":8}],"can_remove":false,"created_time":"2013-11-22T11:27:30+0000","like_count":0,"user_likes":false},"764184473598232":{"id":"764184473598232","from":{"id":"100002898154513","name":"Gã Shrek"},"message":"Heo Béo k có email sao gửi được bạn.","message_tags":[{"id":"100004469770250","name":"Heo Béo","type":"user","offset":0,"length":7}],"can_remove":false,"created_time":"2013-11-22T11:28:17+0000","like_count":0,"user_likes":false},"764184533598226":{"id":"764184533598226","from":{"id":"100004303569394","name":"Le Trungtin"},"message":"n5 thi dễ lam bạn ạ,hoc den bai 25 va 105 chu kanji","can_remove":false,"created_time":"2013-11-22T11:28:33+0000","like_count":0,"user_likes":false},"764184556931557":{"id":"764184556931557","from":{"id":"100004469770250","name":"Nu Lee"},"message":"liggbe@gmail.com  ☺","can_remove":false,"created_time":"2013-11-22T11:28:38+0000","like_count":0,"user_likes":false},"764184826931530":{"id":"764184826931530","from":{"id":"100002898154513","name":"Gã Shrek"},"message":"Heo Béo ok nha.","message_tags":[{"id":"100004469770250","name":"Heo Béo","type":"user","offset":0,"length":7}],"can_remove":false,"created_time":"2013-11-22T11:29:29+0000","like_count":1,"user_likes":false},"764205936929419":{"id":"764205936929419","from":{"id":"100004663298790","name":"Hạnh Phúc Nhé TrueLove"},"message":"Gã Shrek gửi t nữa tinhcammoinguoi@gmail.com","message_tags":[{"id":"100002898154513","name":"Gã Shrek","type":"user","offset":0,"length":8}],"can_remove":false,"created_time":"2013-11-22T12:31:41+0000","like_count":0,"user_likes":false},"764225660260780":{"id":"764225660260780","from":{"id":"100001848885057","name":"Tiểu Mỡ Nhi"},"message":"Gã Shrek ANh có thể gửi đề thi N5 cho em được ko ạ. Vì em cũng sắp thi N5 ạ. Email của em là leanhvan251@gmail.com","message_tags":[{"id":"100002898154513","name":"Gã Shrek","type":"user","offset":0,"length":8}],"can_remove":false,"created_time":"2013-11-22T13:16:32+0000","like_count":0,"user_likes":false},"764279333588746":{"id":"764279333588746","from":{"id":"100002898154513","name":"Gã Shrek"},"message":"Hạnh Phúc Nhé TrueLove Tiểu Mỡ Nhi check email nha 2 bạn.","message_tags":[{"id":"100004663298790","name":"Hạnh Phúc Nhé TrueLove","type":"user","offset":0,"length":22},{"id":"100001848885057","name":"Tiểu Mỡ Nhi","type":"user","offset":23,"length":11}],"can_remove":false,"created_time":"2013-11-22T15:13:38+0000","like_count":2,"user_likes":false},"764279713588708":{"id":"764279713588708","from":{"id":"100001848885057","name":"Tiểu Mỡ Nhi"},"message":"Dạ. Em cảm ơn.","can_remove":false,"created_time":"2013-11-22T15:14:33+0000","like_count":0,"user_likes":false},"764334786916534":{"id":"764334786916534","from":{"id":"100003134014076","name":"Quyên Phan"},"message":"quyenphan1102@gmail.com  ........ tuần sau thi n5 rui, cố gắng 1 chút nữa , hi","can_remove":false,"created_time":"2013-11-22T16:56:38+0000","like_count":0,"user_likes":false},"764337960249550":{"id":"764337960249550","from":{"id":"100000710451335","name":"Thiều Hoa"},"message":"Bạn ơi gửi cho mình với :)  \nhoantt.hanu@gmail.com\nArigatogozaimasu :)","can_remove":false,"created_time":"2013-11-22T17:03:53+0000","like_count":0,"user_likes":false},"764391800244166":{"id":"764391800244166","from":{"id":"100006785050169","name":"Quỳnh Arashi"},"message":"Bạn ơi gửi cho mình với. Email của mình là quynharashi.vnjp@gmail.com\nMình cảm ơn :)","can_remove":false,"created_time":"2013-11-22T18:13:07+0000","like_count":0,"user_likes":false},"764392360244110":{"id":"764392360244110","from":{"id":"100002898154513","name":"Gã Shrek"},"message":"Quyên PhanThiều HoaQuỳnh Arashi các bạn check email nha.","message_tags":[{"id":"100003134014076","name":"Quyên Phan","type":"user","offset":0,"length":10},{"id":"100000710451335","name":"Thiều Hoa","type":"user","offset":10,"length":9},{"id":"100006785050169","name":"Quỳnh Arashi","type":"user","offset":19,"length":12}],"can_remove":false,"created_time":"2013-11-22T18:15:03+0000","like_count":3,"user_likes":false},"764406746909338":{"id":"764406746909338","from":{"id":"100007070233684","name":"Cười Xuyên Biên Giới"},"message":"Hay day","can_remove":false,"created_time":"2013-11-22T18:53:15+0000","like_count":0,"user_likes":false},"764571086892904":{"id":"764571086892904","from":{"id":"100004663298790","name":"Hạnh Phúc Nhé TrueLove"},"message":"Gã Shrek m nhận đc rồi thank bạn","message_tags":[{"id":"100002898154513","name":"Gã Shrek","type":"user","offset":0,"length":8}],"can_remove":false,"created_time":"2013-11-23T01:55:45+0000","like_count":0,"user_likes":false},"764645436885469":{"id":"764645436885469","from":{"id":"100001848885057","name":"Tiểu Mỡ Nhi"},"message":"Gã Shrek Anh cho em hỏi là đề N5 mà anh gửi là 1 bài thi đầy đủ khi đi thi đúng ko ạ. Tại em tìm hiểu nhưng ko có nhiều thông tin rõ ràng ạ","message_tags":[{"id":"100002898154513","name":"Gã Shrek","type":"user","offset":0,"length":8}],"can_remove":false,"created_time":"2013-11-23T05:12:26+0000","like_count":0,"user_likes":false},"764649703551709":{"id":"764649703551709","from":{"id":"100002898154513","name":"Gã Shrek"},"message":"đúng rồi đấy Tiểu Mỡ Nhi à. giải nén cái file a gửi ra thì có tất cả các phần trong bài thi N5. làm xong e check đáp án ở trong đó luôn.","message_tags":[{"id":"100001848885057","name":"Tiểu Mỡ Nhi","type":"user","offset":13,"length":11}],"can_remove":false,"created_time":"2013-11-23T05:23:36+0000","like_count":1,"user_likes":false},"764669436883069":{"id":"764669436883069","from":{"id":"100003134014076","name":"Quyên Phan"},"message":"ありがとう。。。","can_remove":false,"created_time":"2013-11-23T06:22:04+0000","like_count":0,"user_likes":false},"764680046882008":{"id":"764680046882008","from":{"id":"100001848885057","name":"Tiểu Mỡ Nhi"},"message":"Dạ vâng. Em cảm ơn ạ.","can_remove":false,"created_time":"2013-11-23T07:05:43+0000","like_count":0,"user_likes":false},"764927980190548":{"id":"764927980190548","from":{"id":"100007079980637","name":"Jonah Moore"},"message":"add me plz, i m blocked!! <3 <3 x22","can_remove":false,"created_time":"2013-11-23T17:48:21+0000","like_count":0,"user_likes":false},"765285713488108":{"id":"765285713488108","from":{"id":"100002898154513","name":"Gã Shrek"},"message":"Thanh Trâm bạn check email nha.","message_tags":[{"id":"100002926493622","name":"Thanh Trâm","type":"user","offset":0,"length":10}],"can_remove":false,"created_time":"2013-11-24T08:38:42+0000","like_count":0,"user_likes":false}},"paging":{"cursors":{"after":"NzYxMjIwNzM3MjI3OTM5","before":"NzYxMjIwNzM3MjI3OTM5"},"next":"https://graph.facebook.com/229244010425617_761219663894713/comments?limit=1&summary=1&after=NzYxMjIwNzM3MjI3OTM5"},"summary":{"order":"chronological","total_count":69}}}