{"id":"229244010425617_761589580524388","type":"photo","object_id":"179263375610376","picture":"https://fbcdn-photos-b-a.akamaihd.net/hphotos-ak-prn2/t1.0-0/1422531_179263375610376_94213723_s.jpg","link":"https://www.facebook.com/photo.php?fbid=179263375610376&set=gm.761589580524388&type=1&relevant_count=1","from":{"id":"100005801442456","name":"An Nguyen"},"message":"Đố các bạn, đây là ga nào? Gợi ý có tuyến 中央線 và 山手線。。。","created_time":"2013-11-20T01:47:55+0000","updated_time":"2013-11-21T02:13:51+0000","likes":{"data":{"100002916376886":{"id":"100002916376886","name":"Thủy Bee"},"100002451143782":{"id":"100002451143782","name":"New Light"},"100003925839293":{"id":"100003925839293","name":"Cậu Sáu Diamond"},"1305472811":{"id":"1305472811","name":"Tuan Nguyen"},"1846809835":{"id":"1846809835","name":"Dorae Phương"},"100001416272263":{"id":"100001416272263","name":"Mai PB"},"100004157252710":{"id":"100004157252710","name":"Ngốc Buồn"},"100004840447585":{"id":"100004840447585","name":"Nguyễn Ngọc Thái"},"100006860141377":{"id":"100006860141377","name":"Gấu Của Hôm Nay"},"100000181968417":{"id":"100000181968417","name":"TranHo MyThuyen"},"1787333994":{"id":"1787333994","name":"Kiên Mậu"},"100000359762118":{"id":"100000359762118","name":"Mi Tra"},"100005450524828":{"id":"100005450524828","name":"Beo Beo"}},"paging":{"cursors":{"after":"MTAwMDAyOTE2Mzc2ODg2","before":"MTAwMDAyOTE2Mzc2ODg2"},"next":"https://graph.facebook.com/229244010425617_761589580524388/likes?limit=1&summary=1&after=MTAwMDAyOTE2Mzc2ODg2"},"summary":{"total_count":13}},"comments":{"data":{"761590630524283":{"id":"761590630524283","from":{"id":"1094162178","name":"Ngô Vũ Hoàng"},"message":"yoyogi","can_remove":false,"created_time":"2013-11-20T01:50:31+0000","like_count":1,"user_likes":false},"761590660524280":{"id":"761590660524280","from":{"id":"100001809376963","name":"Nguyễn Thư"},"message":"Sau động đất sóng thần đây à anh An Nguyen","message_tags":[{"id":"100005801442456","name":"An Nguyen","type":"user","offset":33,"length":9}],"can_remove":false,"created_time":"2013-11-20T01:50:37+0000","like_count":0,"user_likes":false},"761591590524187":{"id":"761591590524187","from":{"id":"100000045271667","name":"Nam Thai Nguyen"},"message":"Nhìn thảm thế","can_remove":false,"created_time":"2013-11-20T01:53:15+0000","like_count":0,"user_likes":false},"761591660524180":{"id":"761591660524180","from":{"id":"100005801442456","name":"An Nguyen"},"message":"Vẽ minh họa thui! Có thì ngồi đây sao đc! Đáp án đã đúng YOYOGI","can_remove":false,"created_time":"2013-11-20T01:53:24+0000","like_count":1,"user_likes":false},"761592107190802":{"id":"761592107190802","from":{"id":"100005801442456","name":"An Nguyen"},"message":"Muốn coi nữa không up cho:=>","can_remove":false,"created_time":"2013-11-20T01:54:15+0000","like_count":2,"user_likes":false},"761592267190786":{"id":"761592267190786","from":{"id":"100001809376963","name":"Nguyễn Thư"},"message":"Up up up!!!","can_remove":false,"created_time":"2013-11-20T01:54:40+0000","like_count":0,"user_likes":false},"761608517189161":{"id":"761608517189161","from":{"id":"100001059086820","name":"Nguyễn Thành Long"},"message":"Nhìn như yoyogi ấy nhỉ :D","can_remove":false,"created_time":"2013-11-20T02:33:15+0000","like_count":0,"user_likes":false},"762305327119480":{"id":"762305327119480","from":{"id":"100003210577905","name":"Mã Ngọc Tiến"},"message":"Chữ yoyogi to đùng kìa","can_remove":false,"created_time":"2013-11-21T02:13:51+0000","like_count":0,"user_likes":false}},"paging":{"cursors":{"after":"NzYxNTkwNjMwNTI0Mjgz","before":"NzYxNTkwNjMwNTI0Mjgz"},"next":"https://graph.facebook.com/229244010425617_761589580524388/comments?limit=1&summary=1&after=NzYxNTkwNjMwNTI0Mjgz"},"summary":{"order":"chronological","total_count":8}}}