{"id":"229244010425617_761629400520406","type":"photo","object_id":"662807290407924","picture":"https://fbcdn-photos-c-a.akamaihd.net/hphotos-ak-ash3/t1.0-0/1476154_662807290407924_1231605653_s.jpg","link":"https://www.facebook.com/photo.php?fbid=662807290407924&set=gm.761629400520406&type=1&relevant_count=1","from":{"id":"100000359762118","name":"Mi Tra"},"message":"Chúng ta cùng học về cách diễn tả 気分(きぶん)   qua chức năng mới của FB nào!!! \nBạn nào có thể dịch được???","created_time":"2013-11-20T03:05:08+0000","updated_time":"2013-11-20T05:01:44+0000","likes":{"data":{"100004251847599":{"id":"100004251847599","name":"Yuki Yuki"},"100003881499881":{"id":"100003881499881","name":"Pe Pon"},"100002270269220":{"id":"100002270269220","name":"Nguyen Tien Hai"},"100003055356509":{"id":"100003055356509","name":"Thuan Nguyen"},"1148962646":{"id":"1148962646","name":"Tran Thi Tuong Van"},"100000747635624":{"id":"100000747635624","name":"Nguyễn Xuân Đại"},"100002871405403":{"id":"100002871405403","name":"Thach Sanh"},"100002451143782":{"id":"100002451143782","name":"New Light"},"100006957814253":{"id":"100006957814253","name":"Nobita Buh"},"100004319231704":{"id":"100004319231704","name":"Tam Do"},"100005075583913":{"id":"100005075583913","name":"Hà Thương Thương"},"100005211189763":{"id":"100005211189763","name":"Oliveu Cchann"},"100000183792818":{"id":"100000183792818","name":"Le Nga"},"100003105034037":{"id":"100003105034037","name":"Pham Oanh"},"100002898154513":{"id":"100002898154513","name":"Gã Shrek"},"1787717432":{"id":"1787717432","name":"Nhi Nguyen"},"100004155757260":{"id":"100004155757260","name":"Tran Trang"},"100004028173069":{"id":"100004028173069","name":"Jin Ngốc"},"100004511499641":{"id":"100004511499641","name":"Yêu Thương Quay Về"},"100001754136107":{"id":"100001754136107","name":"Nguyễn Tuấn Vũ"},"100004488702678":{"id":"100004488702678","name":"Kabin Wang"},"100002782131785":{"id":"100002782131785","name":"Hasegawa Kiyotake"},"100004965272241":{"id":"100004965272241","name":"Cỏ Nhỏ"},"100002826418598":{"id":"100002826418598","name":"Harry Minji"},"100002535489295":{"id":"100002535489295","name":"Moteru Seikoo"},"100004237355052":{"id":"100004237355052","name":"Kim Dung"},"100000175468518":{"id":"100000175468518","name":"Chj Koj"},"100001359798024":{"id":"100001359798024","name":"November Gi"},"100005478454231":{"id":"100005478454231","name":"Maruko Chan"},"100005801442456":{"id":"100005801442456","name":"An Nguyen"},"1146680551":{"id":"1146680551","name":"優しい なぁ"},"100006860141377":{"id":"100006860141377","name":"Gấu Của Hôm Nay"},"100003269754628":{"id":"100003269754628","name":"EnLy Phạm"},"1305472811":{"id":"1305472811","name":"Tuan Nguyen"},"100000284487802":{"id":"100000284487802","name":"Buu Lam Gia"},"100004112740223":{"id":"100004112740223","name":"Yêu Làm Chi"},"100006329763157":{"id":"100006329763157","name":"Một Mình Không Sao"},"100001416272263":{"id":"100001416272263","name":"Mai PB"},"100004095967794":{"id":"100004095967794","name":"Key Panda"},"100002290906582":{"id":"100002290906582","name":"Kanashimi No Yukue"},"1820290178":{"id":"1820290178","name":"Tống Phương"},"100001458099624":{"id":"100001458099624","name":"Kham Pha"},"100004392823234":{"id":"100004392823234","name":"Anh Dũng Nguyễn"},"569263718":{"id":"569263718","name":"Phuong Thao Tran"},"792083330":{"id":"792083330","name":"Duc Le"},"100002833803367":{"id":"100002833803367","name":"Hoang Anh Luong"},"100001847199226":{"id":"100001847199226","name":"Tiến Trần Xuân"}},"paging":{"cursors":{"after":"MTAwMDA0MjUxODQ3NTk5","before":"MTAwMDA0MjUxODQ3NTk5"},"next":"https://graph.facebook.com/229244010425617_761629400520406/likes?limit=1&summary=1&after=MTAwMDA0MjUxODQ3NTk5"},"summary":{"total_count":49}},"comments":{"data":{"761630780520268":{"id":"761630780520268","from":{"id":"100005801442456","name":"An Nguyen"},"message":"Thông minh!!! Hay thế nhỉ =))","can_remove":false,"created_time":"2013-11-20T03:06:12+0000","like_count":2,"user_likes":false},"761636157186397":{"id":"761636157186397","from":{"id":"100005934548279","name":"Cậu Bé Buồn"},"message":"そうですね、つかれた....","can_remove":false,"created_time":"2013-11-20T03:15:06+0000","like_count":1,"user_likes":false},"761636950519651":{"id":"761636950519651","from":{"id":"100003269754628","name":"EnLy Phạm"},"message":"Sutekidesune","can_remove":false,"created_time":"2013-11-20T03:17:20+0000","like_count":1,"user_likes":false},"761638010519545":{"id":"761638010519545","from":{"id":"100006860141377","name":"Gấu Của Hôm Nay"},"message":"Happy","can_remove":false,"created_time":"2013-11-20T03:19:46+0000","like_count":1,"user_likes":false},"761672033849476":{"id":"761672033849476","from":{"id":"100003763768548","name":"Nguyễn Dũng"},"message":"Vui vẻ\nĐau khổ\nMệt mỏi\nTâm trạng rất tốt\nTuyệt vời\nỒn ào\nHồi hộp\nCó lỗi\n 😄😄😄","can_remove":false,"created_time":"2013-11-20T04:09:22+0000","like_count":5,"user_likes":false},"761675377182475":{"id":"761675377182475","from":{"id":"100000359762118","name":"Mi Tra"},"message":"Cảm ơn bạn Nguyễn Dũng (^_-)-☆\nBạn dịch còn chuẩn hơn mình ^^","message_tags":[{"id":"100003763768548","name":"Nguyễn Dũng","type":"user","offset":11,"length":11}],"can_remove":false,"created_time":"2013-11-20T04:19:44+0000","like_count":1,"user_likes":false},"761692577180755":{"id":"761692577180755","from":{"id":"100003763768548","name":"Nguyễn Dũng"},"message":"Hì. Bạn cứ nói đùa","can_remove":false,"created_time":"2013-11-20T05:00:17+0000","like_count":0,"user_likes":false},"761693237180689":{"id":"761693237180689","from":{"id":"100000359762118","name":"Mi Tra"},"message":"Mình nói thật chứ đâu có nói đùa.\nMình đọc thì hiểu chứ ko diễn đạt lại được bằng một từ chuẩn xác ^^","can_remove":false,"created_time":"2013-11-20T05:01:44+0000","like_count":2,"user_likes":false}},"paging":{"cursors":{"after":"NzYxNjMwNzgwNTIwMjY4","before":"NzYxNjMwNzgwNTIwMjY4"},"next":"https://graph.facebook.com/229244010425617_761629400520406/comments?limit=1&summary=1&after=NzYxNjMwNzgwNTIwMjY4"},"summary":{"order":"chronological","total_count":8}}}