{"id":"229244010425617_761600797189933","type":"photo","object_id":"179266592276721","picture":"https://fbcdn-photos-f-a.akamaihd.net/hphotos-ak-frc3/t1.0-0/1459198_179266592276721_115210496_s.jpg","link":"https://www.facebook.com/photo.php?fbid=179266592276721&set=gm.761600797189933&type=1&relevant_count=1","from":{"id":"100005801442456","name":"An Nguyen"},"message":"Đây là 1 nhà hát ca múa kịch rất nổi tiếng ở tokyo.Nó ở đâu?","created_time":"2013-11-20T02:14:51+0000","updated_time":"2013-11-21T14:24:16+0000","likes":{"data":{"1305472811":{"id":"1305472811","name":"Tuan Nguyen"},"100004253979918":{"id":"100004253979918","name":"Louis Hoàng Văn Thái"},"100002451143782":{"id":"100002451143782","name":"New Light"},"100001857616844":{"id":"100001857616844","name":"Meo Lun"},"100002912978945":{"id":"100002912978945","name":"Feliz Novia"},"100003908822367":{"id":"100003908822367","name":"Endless Love"},"100003165554056":{"id":"100003165554056","name":"Sâu Bét"},"100003696134321":{"id":"100003696134321","name":"Phạm Hạnh"},"100003902278509":{"id":"100003902278509","name":"Cậu Buồn Vì Ai"},"100003667085290":{"id":"100003667085290","name":"Xanh Xanh"},"100003731623249":{"id":"100003731623249","name":"Mai Nguyen"},"100000359762118":{"id":"100000359762118","name":"Mi Tra"},"569263718":{"id":"569263718","name":"Phuong Thao Tran"},"1813611352":{"id":"1813611352","name":"To Đùng"},"100004157252710":{"id":"100004157252710","name":"Ngốc Buồn"},"100000141968619":{"id":"100000141968619","name":"Chacha Bubu"}},"paging":{"cursors":{"after":"MTMwNTQ3MjgxMQ==","before":"MTMwNTQ3MjgxMQ=="},"next":"https://graph.facebook.com/229244010425617_761600797189933/likes?limit=1&summary=1&after=MTMwNTQ3MjgxMQ%3D%3D"},"summary":{"total_count":16}},"comments":{"data":{"761605467189466":{"id":"761605467189466","from":{"id":"1094162178","name":"Ngô Vũ Hoàng"},"message":"歌舞伎座","can_remove":false,"created_time":"2013-11-20T02:26:29+0000","like_count":1,"user_likes":false},"761605987189414":{"id":"761605987189414","from":{"id":"100005801442456","name":"An Nguyen"},"message":"Ở đâu í nhỉ@.@","can_remove":false,"created_time":"2013-11-20T02:27:44+0000","like_count":0,"user_likes":false},"761606690522677":{"id":"761606690522677","from":{"id":"1094162178","name":"Ngô Vũ Hoàng"},"message":"銀座","can_remove":false,"created_time":"2013-11-20T02:29:33+0000","like_count":1,"user_likes":false},"761607140522632":{"id":"761607140522632","from":{"id":"100005801442456","name":"An Nguyen"},"message":"Chơi gì kì!! Cái gì cũng biết! 、lần này đố cái không ai biết luôn!","can_remove":false,"created_time":"2013-11-20T02:30:42+0000","like_count":0,"user_likes":false},"761607793855900":{"id":"761607793855900","from":{"id":"569263718","name":"Phuong Thao Tran"},"message":"wow!!!","can_remove":false,"created_time":"2013-11-20T02:32:02+0000","like_count":0,"user_likes":false},"761609780522368":{"id":"761609780522368","from":{"id":"100005903373573","name":"HaLinh Phong Phan"},"message":"de the nhi. o dau vay ta?/","can_remove":false,"created_time":"2013-11-20T02:35:22+0000","like_count":0,"user_likes":false},"761610213855658":{"id":"761610213855658","from":{"id":"100005801442456","name":"An Nguyen"},"message":"Ngô vũ hoàng trả lời hết rồi kìa, 😗","can_remove":false,"created_time":"2013-11-20T02:36:17+0000","like_count":0,"user_likes":false},"761610390522307":{"id":"761610390522307","from":{"id":"100005903373573","name":"HaLinh Phong Phan"},"message":"hix chu han ko hieu An Nguyen oi","can_remove":false,"created_time":"2013-11-20T02:36:58+0000","like_count":0,"user_likes":false},"761610480522298":{"id":"761610480522298","from":{"id":"100005801442456","name":"An Nguyen"},"message":"Ginza!","can_remove":false,"created_time":"2013-11-20T02:37:21+0000","like_count":0,"user_likes":false},"761618200521526":{"id":"761618200521526","from":{"id":"100001580479641","name":"Hà Xuân Thủy"},"message":"Đến ginza cũng nhiều lần vậy mà chưa thấy chỗ này, lần sau đi phải chịu khó nhìn ngang ngó dọc hơn nữa.:d","can_remove":false,"created_time":"2013-11-20T02:55:33+0000","like_count":0,"user_likes":false},"761629397187073":{"id":"761629397187073","from":{"id":"100000314753906","name":"Lén Má Yêu Anh"},"message":"ơ sao cũ kỹ zậy","can_remove":false,"created_time":"2013-11-20T03:05:08+0000","like_count":0,"user_likes":false},"761649420518404":{"id":"761649420518404","from":{"id":"569263718","name":"Phuong Thao Tran"},"message":"Yuji Tokunaga: すごいぃ。。。、ベトナム語だね、[Hiện này nó đang được xái dựng mới cân nhà] --> .Hiện này nó đang được xây dựng mới căn nhàの方は正しい発音ですよ。","message_tags":[{"id":"100002120720024","name":"Yuji Tokunaga","type":"user","offset":0,"length":13}],"can_remove":false,"created_time":"2013-11-20T03:42:39+0000","like_count":1,"user_likes":false},"761650957184917":{"id":"761650957184917","from":{"id":"100005801442456","name":"An Nguyen"},"message":"Yuji Tokunaga Học tiếng Việt thì comment nhiều vào nhé^*","message_tags":[{"id":"100002120720024","name":"Yuji Tokunaga","type":"user","offset":0,"length":13}],"can_remove":false,"created_time":"2013-11-20T03:47:27+0000","like_count":0,"user_likes":false},"763501280333218":{"id":"763501280333218","from":{"id":"100002120720024","name":"Yuji Tokunaga"},"message":"Vâng.Lý do tôi xóa comment là tôi hiểu sai rằng  căn nhà đó ở kabukicho , gọi là Koma-gekijou vậy","can_remove":false,"created_time":"2013-11-21T14:21:11+0000","like_count":1,"user_likes":false},"763501713666508":{"id":"763501713666508","from":{"id":"100002120720024","name":"Yuji Tokunaga"},"message":"kabiki-za thì thật nói tiếng nhé","can_remove":false,"created_time":"2013-11-21T14:22:33+0000","like_count":1,"user_likes":false},"763502390333107":{"id":"763502390333107","from":{"id":"569263718","name":"Phuong Thao Tran"},"message":"[nổi tiếng] , và [Lý do] nha bạn Yuji Tokunaga, ^^","message_tags":[{"id":"100002120720024","name":"Yuji Tokunaga","type":"user","offset":33,"length":13}],"can_remove":false,"created_time":"2013-11-21T14:24:16+0000","like_count":1,"user_likes":false}},"paging":{"cursors":{"after":"NzYxNjA1NDY3MTg5NDY2","before":"NzYxNjA1NDY3MTg5NDY2"},"next":"https://graph.facebook.com/229244010425617_761600797189933/comments?limit=1&summary=1&after=NzYxNjA1NDY3MTg5NDY2"},"summary":{"order":"chronological","total_count":16}}}