{"id":"229244010425617_761730907176922","type":"photo","object_id":"662892303732756","picture":"https://fbcdn-photos-c-a.akamaihd.net/hphotos-ak-ash3/v/t1.0-0/1454808_662892303732756_651113614_s.jpg?oh=de1b374a48ca808c8e232d9828d3a14d&oe=53C6F327&__gda__=1407015537_ad0f86ecd8a32b38b8296f48c6bfbf08","link":"https://www.facebook.com/photo.php?fbid=662892303732756&set=gm.761730907176922&type=1&relevant_count=1","from":{"id":"100000359762118","name":"Mi Tra"},"message":"Tiếp tục học về 気分(きぶん) qua FB nào. \nBạn nào có thể dịch giúp mình??? \n( bài trước ở đây nhé ! https://www.facebook.com/groups/CongdongVietNhat/permalink/761629400520406/ )","created_time":"2013-11-20T07:04:27+0000","updated_time":"2013-11-20T07:59:34+0000","likes":{"data":{"100003881499881":{"id":"100003881499881","name":"Pe Pon"},"100004505702361":{"id":"100004505702361","name":"Mèo Lười"},"100003055356509":{"id":"100003055356509","name":"Thuan Nguyen"},"100004965272241":{"id":"100004965272241","name":"Cỏ Nhỏ"},"100004253979918":{"id":"100004253979918","name":"Louis Hoàng Văn Thái"},"100000022163023":{"id":"100000022163023","name":"Kafe Ore"},"100004889430124":{"id":"100004889430124","name":"Quiet Man"},"100003269754628":{"id":"100003269754628","name":"EnLy Phạm"},"100004096243144":{"id":"100004096243144","name":"Shorai Nguyễn"},"100002871405403":{"id":"100002871405403","name":"Thach Sanh"},"100004112740223":{"id":"100004112740223","name":"Yêu Làm Chi"},"100000284487802":{"id":"100000284487802","name":"Buu Lam Gia"},"100000183792818":{"id":"100000183792818","name":"Le Nga"},"1816269439":{"id":"1816269439","name":"Dao Ngoc"},"100006349021140":{"id":"100006349021140","name":"Scorp Black"},"100005801442456":{"id":"100005801442456","name":"An Nguyen"},"1146680551":{"id":"1146680551","name":"優しい なぁ"},"100005478454231":{"id":"100005478454231","name":"Maruko Chan"},"100000073848158":{"id":"100000073848158","name":"Hoàng Đắc"},"100004381871073":{"id":"100004381871073","name":"Isave Nguyen"},"100002898154513":{"id":"100002898154513","name":"Gã Shrek"},"100001754136107":{"id":"100001754136107","name":"Nguyễn Tuấn Vũ"}},"paging":{"cursors":{"after":"MTAwMDAzODgxNDk5ODgx","before":"MTAwMDAzODgxNDk5ODgx"},"next":"https://graph.facebook.com/229244010425617_761730907176922/likes?limit=1&summary=1&after=MTAwMDAzODgxNDk5ODgx"},"summary":{"total_count":23}},"comments":{"data":{"761735207176492":{"id":"761735207176492","from":{"id":"100005801442456","name":"An Nguyen"},"message":"Gặp MY là 2 番！","can_remove":false,"created_time":"2013-11-20T07:21:29+0000","like_count":2,"user_likes":false},"761735753843104":{"id":"761735753843104","from":{"id":"100000359762118","name":"Mi Tra"},"message":"される hay する vậy  An Nguyen???","message_tags":[{"id":"100005801442456","name":"An Nguyen","type":"user","offset":16,"length":9}],"can_remove":false,"created_time":"2013-11-20T07:23:02+0000","like_count":0,"user_likes":false},"761737410509605":{"id":"761737410509605","from":{"id":"100005801442456","name":"An Nguyen"},"message":"À する=))","can_remove":false,"created_time":"2013-11-20T07:28:24+0000","like_count":1,"user_likes":false},"761739130509433":{"id":"761739130509433","from":{"id":"1146680551","name":"優しい なぁ"},"message":"なるほど","can_remove":false,"created_time":"2013-11-20T07:31:42+0000","like_count":0,"user_likes":false},"761739453842734":{"id":"761739453842734","from":{"id":"100000359762118","name":"Mi Tra"},"message":"Hihi. Mi gặp An Nguyen là 2番","message_tags":[{"id":"100005801442456","name":"An Nguyen","type":"user","offset":13,"length":9}],"can_remove":false,"created_time":"2013-11-20T07:33:06+0000","like_count":0,"user_likes":false},"761743387175674":{"id":"761743387175674","from":{"id":"1146680551","name":"優しい なぁ"},"message":"4番じゃない","can_remove":false,"created_time":"2013-11-20T07:51:26+0000","like_count":0,"user_likes":false},"761744117175601":{"id":"761744117175601","from":{"id":"100000359762118","name":"Mi Tra"},"message":"あるかもしれないね(*^_^*)","can_remove":false,"created_time":"2013-11-20T07:53:54+0000","like_count":0,"user_likes":false},"761744587175554":{"id":"761744587175554","from":{"id":"100005801442456","name":"An Nguyen"},"message":"Nhắc rồi nhắc rồi, cẩn thận củi lửa, đây là diễn đàn không phải trang admin ! Coi chừng cháy nhà！！(5番❗️)","can_remove":false,"created_time":"2013-11-20T07:55:43+0000","like_count":2,"user_likes":false},"761744987175514":{"id":"761744987175514","from":{"id":"100000359762118","name":"Mi Tra"},"message":"^^","can_remove":false,"created_time":"2013-11-20T07:57:32+0000","like_count":0,"user_likes":false},"761745497175463":{"id":"761745497175463","from":{"id":"1146680551","name":"優しい なぁ"},"message":"7番 ^_^","can_remove":false,"created_time":"2013-11-20T07:59:34+0000","like_count":0,"user_likes":false}},"paging":{"cursors":{"after":"NzYxNzM1MjA3MTc2NDky","before":"NzYxNzM1MjA3MTc2NDky"},"next":"https://graph.facebook.com/229244010425617_761730907176922/comments?limit=1&summary=1&after=NzYxNzM1MjA3MTc2NDky"},"summary":{"order":"chronological","total_count":10}}}