{"id":"229244010425617_761796663837013","type":"status","from":{"id":"1157875295","name":"Thuy Bui Thanh"},"message":"Ban nao van ve dich gium em cau nay voi nhe:\n\n私達は\n自然と共生し\n命の根幹を担う\n食料生産とエネルギー交換の分野で\nお客様の話題を解決し\n未来につながる社会と\nより豊かな暮らしを実現します","created_time":"2013-11-20T11:01:07+0000","updated_time":"2013-11-20T12:42:03+0000","comments":{"data":{"761802680503078":{"id":"761802680503078","from":{"id":"100004760974173","name":"Anh Tuấn"},"message":"sao nó rời rạc vậy. đây là cả câu hay từng ý ?","can_remove":false,"created_time":"2013-11-20T11:16:56+0000","like_count":0,"user_likes":false},"761805127169500":{"id":"761805127169500","from":{"id":"1157875295","name":"Thuy Bui Thanh"},"message":"Anh Tuấn oi, to ap fich cty no viet xuog dong y chang vay do, Th hieu y ma cug dag ban khoan ko biet lap rap ntn nu~a","message_tags":[{"id":"100004760974173","name":"Anh Tuấn","type":"user","offset":0,"length":8}],"can_remove":false,"created_time":"2013-11-20T11:24:06+0000","like_count":0,"user_likes":false},"761843183832361":{"id":"761843183832361","from":{"id":"100004760974173","name":"Anh Tuấn"},"message":"chúng ta đang chung sống với thiên nhiên, gánh vác sự tồn tại của sự sống. Chúng ta giải đáp thắc mắc của khách hàng bằng mô tuýp chuyển hóa giữa năng lượng và sản xuất lương thực, tạo dựng lối sống năng động hơn với xã hội kết nối tương lai","can_remove":false,"created_time":"2013-11-20T11:47:14+0000","like_count":0,"user_likes":false},"761843277165685":{"id":"761843277165685","from":{"id":"100004760974173","name":"Anh Tuấn"},"message":"cũng k biết có hợp lí k :)","can_remove":false,"created_time":"2013-11-20T11:47:42+0000","like_count":0,"user_likes":false},"761845453832134":{"id":"761845453832134","from":{"id":"100004760974173","name":"Anh Tuấn"},"message":"à. cị à. e biết gì đâu cị :)","can_remove":false,"created_time":"2013-11-20T11:53:46+0000","like_count":0,"user_likes":false},"761853887164624":{"id":"761853887164624","from":{"id":"100001257093338","name":"Hanh Dang"},"message":"Anh Tuấn nhầm 社会 với 会社","message_tags":[{"id":"100004760974173","name":"Anh Tuấn","type":"user","offset":0,"length":8}],"can_remove":false,"created_time":"2013-11-20T12:14:23+0000","like_count":1,"user_likes":false},"761858200497526":{"id":"761858200497526","from":{"id":"100001257093338","name":"Hanh Dang"},"message":"Thử dịch xem sao\nChúng ta \nsống chung với thiên nhiên\ncáng đáng cốt lõi của sự sống\ntrong lĩnh vực trao đổi năng lượng và sản xuất lương thực\n(chúng ta) giải quyết các đề tài của khách hàng  \nvà thực hiện cuộc sống giàu có hơn với một xã hội kết nối đến tương lai","can_remove":false,"created_time":"2013-11-20T12:24:28+0000","like_count":0,"user_likes":false},"761861880497158":{"id":"761861880497158","from":{"id":"100004760974173","name":"Anh Tuấn"},"message":"cảm ơn bạn. nhìn lại ms thấy, thảo nào dịch đoạn này cứ kì2 :)","can_remove":false,"created_time":"2013-11-20T12:32:17+0000","like_count":0,"user_likes":false},"761868200496526":{"id":"761868200496526","from":{"id":"1157875295","name":"Thuy Bui Thanh"},"message":"Cam on Anh Tuấn va Hanh Dang nha, da cho Th y kien tham khao:)","message_tags":[{"id":"100004760974173","name":"Anh Tuấn","type":"user","offset":7,"length":8},{"id":"100001257093338","name":"Hanh Dang","type":"user","offset":19,"length":9}],"can_remove":false,"created_time":"2013-11-20T12:42:03+0000","like_count":0,"user_likes":false}},"paging":{"cursors":{"after":"NzYxODAyNjgwNTAzMDc4","before":"NzYxODAyNjgwNTAzMDc4"},"next":"https://graph.facebook.com/229244010425617_761796663837013/comments?limit=1&summary=1&after=NzYxODAyNjgwNTAzMDc4"},"summary":{"order":"chronological","total_count":11}},"likes":{"data":[]}}