{"id":"229244010425617_761764110506935","type":"status","from":{"id":"100001416272263","name":"Mai PB"},"message":"Gần đây group có quá nhiều bài mới, hay thì hay nhưng bị trôi tuồn tuột đi mất. Vào group mà chỉ xem 5 bài đầu, thậm chí xem trên đt còn không thấy rõ comment nữa. Làm thế nào để không bị lãng phí? Các mem hiến kế xem nào.","created_time":"2013-11-20T09:11:10+0000","updated_time":"2013-11-20T15:18:20+0000","likes":{"data":{"100005801442456":{"id":"100005801442456","name":"An Nguyen"},"100001887921127":{"id":"100001887921127","name":"Kata Apple"},"100004923553810":{"id":"100004923553810","name":"Xuan KY Nguyen"},"100001967757527":{"id":"100001967757527","name":"Vòng Quanh Thế Giới"},"100001324611896":{"id":"100001324611896","name":"Meo Luoi"},"100002898154513":{"id":"100002898154513","name":"Gã Shrek"},"100002844554339":{"id":"100002844554339","name":"Nguyễn Quang Huy"},"569263718":{"id":"569263718","name":"Phuong Thao Tran"}},"paging":{"cursors":{"after":"MTAwMDA1ODAxNDQyNDU2","before":"MTAwMDA1ODAxNDQyNDU2"},"next":"https://graph.facebook.com/229244010425617_761764110506935/likes?limit=1&summary=1&after=MTAwMDA1ODAxNDQyNDU2"},"summary":{"total_count":8}},"comments":{"data":{"761764580506888":{"id":"761764580506888","from":{"id":"1813611352","name":"To Đùng"},"message":"nó là sự hạn chế của group anh ạ. ngoài việc ghim thì gần như là không có cách nào khác. chỉ cần có comment là nó sẽ được đẩy lên đầu mà anh.","can_remove":false,"created_time":"2013-11-20T09:13:31+0000","like_count":1,"user_likes":false},"761765217173491":{"id":"761765217173491","from":{"id":"100005801442456","name":"An Nguyen"},"message":"E đã nói rồi, cần 1 nhóm để sắp xếp","can_remove":false,"created_time":"2013-11-20T09:16:02+0000","like_count":0,"user_likes":false},"761765437173469":{"id":"761765437173469","from":{"id":"100005801442456","name":"An Nguyen"},"message":"Nếu mấy bài nào không biết xếp ở đâu thì lưu vào file chưa rõ tựa đề","can_remove":false,"created_time":"2013-11-20T09:16:40+0000","like_count":0,"user_likes":false},"761765577173455":{"id":"761765577173455","from":{"id":"100005801442456","name":"An Nguyen"},"message":"À mà anh lưu lại bài e mới đăng đi:(","can_remove":false,"created_time":"2013-11-20T09:17:04+0000","like_count":0,"user_likes":false},"761765750506771":{"id":"761765750506771","from":{"id":"569263718","name":"Phuong Thao Tran"},"message":"bữa giờ đang không biết phải lọc như thế nào, và đang tự kỷ là: \"hay là mình ngu nên không biết lọc\", thì ra là dzầy...","can_remove":false,"created_time":"2013-11-20T09:17:34+0000","like_count":0,"user_likes":false},"761765933840086":{"id":"761765933840086","from":{"id":"1813611352","name":"To Đùng"},"message":"việc sắp xếp thế cũng bất tiện nhỉ :( đúng là vẫn cần 1 cái web. chỉ cần web tích hợp facebook comment plugin là mọi người vẫn comment ầm ầm ấy mà","can_remove":false,"created_time":"2013-11-20T09:18:12+0000","like_count":0,"user_likes":false},"761766067173406":{"id":"761766067173406","from":{"id":"100001416272263","name":"Mai PB"},"message":"Bây giờ anh đang bận quá, nhờ ad khác thôi.","can_remove":false,"created_time":"2013-11-20T09:18:35+0000","like_count":0,"user_likes":false},"761766257173387":{"id":"761766257173387","from":{"id":"100005801442456","name":"An Nguyen"},"message":"To dung lưu bài vấn đề 就職 vào phần kinh nghiệm sống ở nhật đi","can_remove":false,"created_time":"2013-11-20T09:19:18+0000","like_count":0,"user_likes":false},"761773313839348":{"id":"761773313839348","from":{"id":"100000603915176","name":"悪いな ぁ"},"message":"Lập page, kg phải group thì sẽ giải quyết vấn đề!","can_remove":false,"created_time":"2013-11-20T09:43:25+0000","like_count":3,"user_likes":false},"761774960505850":{"id":"761774960505850","from":{"id":"100001967757527","name":"Vòng Quanh Thế Giới"},"message":":v","can_remove":false,"created_time":"2013-11-20T09:48:32+0000","like_count":0,"user_likes":false},"761785080504838":{"id":"761785080504838","from":{"id":"100001887921127","name":"Kata Apple"},"message":"Nên tạo thành file rouof lưu trong Group khi nào ai cần gì thì vào file của group tìm, ghi rỏ từng chủ đề bài viết là dc^_^","can_remove":false,"created_time":"2013-11-20T10:24:56+0000","like_count":1,"user_likes":false},"761786953837984":{"id":"761786953837984","from":{"id":"100000359762118","name":"Mi Tra"},"message":"Có đang làm vậy rồi Kata Nguyen ạ","message_tags":[{"id":"100001887921127","name":"Kata Nguyen","type":"user","offset":20,"length":11}],"can_remove":false,"created_time":"2013-11-20T10:29:41+0000","like_count":1,"user_likes":false},"761787580504588":{"id":"761787580504588","from":{"id":"100001887921127","name":"Kata Apple"},"message":"Vậy thì cứ tiếp tục phát huy thôi, dần dần mọi người sẽ wen và thông tin luôn dc cập nhật khi cần.","can_remove":false,"created_time":"2013-11-20T10:31:35+0000","like_count":0,"user_likes":false},"761796773837002":{"id":"761796773837002","from":{"id":"100004409731083","name":"Đô Trong Nghia"},"message":"Nhưng e cũng thấy đa phần mọi người vào xem tin tức ,nếu cần thiết của mình thì mới đọc kỹ còn đa số là ko đủ thời gian đọc nên.nên e cũng đồng ý với ý kiến của Kata Nguyen là ghi rõ chủ đề tìm dễ hơn ạ","message_tags":[{"id":"100001887921127","name":"Kata Nguyen","type":"user","offset":161,"length":11}],"can_remove":false,"created_time":"2013-11-20T11:01:28+0000","like_count":3,"user_likes":false},"761802407169772":{"id":"761802407169772","from":{"id":"100000110601676","name":"장미"},"message":"thật tiếc khi công sức bỏ ra chả đáng là bao, em thường vào page rồi đọc lần lượt.","can_remove":false,"created_time":"2013-11-20T11:16:00+0000","like_count":1,"user_likes":false},"761802777169735":{"id":"761802777169735","from":{"id":"1813611352","name":"To Đùng"},"message":"chờ phiên bản web nhé bạn. đảm bảo vừa 8 ngon lành vừa duyệt bài viết hay dễ dàng ko bị mất công tìm kiếm ^^","can_remove":false,"created_time":"2013-11-20T11:17:15+0000","like_count":1,"user_likes":false},"761953073821372":{"id":"761953073821372","from":{"id":"1845000884","name":"Trieu Thi Kieu Oanh"},"message":"Doc tin nao hay thi an follow luon la duoc a ak, co j thi co thong bao hien den ngay ma","can_remove":false,"created_time":"2013-11-20T15:18:20+0000","like_count":1,"user_likes":false}},"paging":{"cursors":{"after":"NzYxNzY0NTgwNTA2ODg4","before":"NzYxNzY0NTgwNTA2ODg4"},"next":"https://graph.facebook.com/229244010425617_761764110506935/comments?limit=1&summary=1&after=NzYxNzY0NTgwNTA2ODg4"},"summary":{"order":"chronological","total_count":17}}}