{"id":"229244010425617_761945920488754","type":"photo","object_id":"701560919855411","picture":"https://fbcdn-photos-b-a.akamaihd.net/hphotos-ak-prn2/t1.0-0/1458599_701560919855411_151225066_s.jpg","link":"https://www.facebook.com/photo.php?fbid=701560919855411&set=gm.761945920488754&type=1&relevant_count=1","from":{"id":"100000045271667","name":"Nam Thai Nguyen"},"message":"Một bài viết khá lâu rồi của GS.Nhà giáo Nguyễn Lân Dũng về so sánh sự khác biệt tổng quát giữa hai quốc gia Nhật Bản và Việt Nam. Có thể thầy không hay từ như nhà văn Nguyễn Quang Thiều, số liêu đã lỗi thời khi thống kê nhưng đọc bài báo người ta vẫn hình dung được trực quan sự khác biệt giữa hai đất nước. Văn phong của người làm khoa học chính xác và chân chính thể hiện rõ trong bài viết.  Nền Giáo dục Việt Nam tự hào khi có một nhà giáo như thầy.\n-------------------------------------------------------------------------------------------------------\nNHẬT BẢN KHÁC TA NHỮNG GÌ?\n\nGS Nguyễn Lân Dũng\n\nNước ta có 85 triệu người, đứng thứ 13 trong 200 nước trên thế giới, nếu kể cả Việt kiều là 88 triệu người. Theo tài liệu thì vào tháng 07-2007 dự kiến nước ta có 85.403.000 người! Như vậy chắc chắn không phải là nước nhỏ. Chúng ta có một lịch sử hàng nghìn năm dựng nước và giữ nước, đã đánh bại chiến tranh xâm lược của hầu hết các cường quốc trên thế giới. Chắc chắn không phải là nước yếu. Thế hệ trẻ Việt Nam vứt vào môi trường Đại học nào ở nước ngoài đều học giỏi và rất nhiều người gốc Việt đang giữ các trọng trách tại các Trung tâm khoa học và công nghệ tiên tiến ở các nước phát triển . Chắc chắn trí tuệ dân mình chẳng chịu thua ai khi có điều kiện phát huy.\n\nNhưng chúng ta là nước nghèo và kém phát triển so với rất nhiều nước trên thế giới. GDP bình quân đầu người chỉ được có khoảng 640 USD (!). Mỗi năm hiện nay bình quân còn phải trả nợ 2 tỷ USD và càng ngày càng nhiều hơn nữa (!)\n\nDo điều kiện công tác tôi có nhiều dịp sang Nhật Bản và lần nào tôi cũng không thể không tự hỏi: Vì sao nước Nhật có thể phát triển nhanh đến như vậy ?\n\nNước Nhật rộng gần 378 nghìn km2 , không hơn ta bao nhiêu (Việt Nam gần 330 nghìn km2) nhưng Nhật Bản gồm tới khoảng 6800 hòn đảo, trong đó chỉ có 5 đảo lớn, hơn nữa có tới 67% lãnh thổ là...núi! Đất trồng trọt thường xuyên chỉ chiếm 0,9% diện tích (!). Tỷ lệ này ở nước ta là 6,93% .Chúng ta không nghèo vì đất.\n\nNước Nhật có tới khoảng 80 núi lửa hoạt động (10% tổng số núi lửa hoạt động trên thế giới ). Nhật lại là nước có cấu tạo địa tầng không ổn định nên rất hay động đất. Các trận động đất lớn là: năm 1923 làm khoảng 90 nghìn người chết và 100 nghìn người bị thương, năm 1995 làm chết 6 nghìn người và 40 nghìn người bị thương... Trung bình mỗi năm Nhật có 4 cơn bão đổ vào và có lần sóng thần đổ vào Okushiri đã làm cho 230 người chết và bị thương. Ta không có những hoàn cảnh khó khăn như vậy .\n\nChữ Nhật khó đọc và khó học vì bên cạnh chữ phiên âm lại còn có tới 5 vạn chữ Hán (Kanji) viết nguyên dạng, mỗi người dân tối thiểu cũng phải thuộc 1945 chữ Hán (!). Lại còn chữ mềm (Hiragana) dùng để ghép âm tiếng Nhật , chữ cứng (Katakana) dùng để phiên âm tiếng nước ngoài. Chữ Quốc ngữ của ta đâu có khó như thế, người dân học 3 tháng đã đủ thoát nạn mù chữ !\n\nNước Nhật là một quốc gia đất chật, người đông và hầu như có rất ít tài nguyên thiên nhiên. Dân số Nhật Bản là 127,46 triệu người (2006), đứng hàng thứ 7 trên thế giới , vậy mà vì diện tích nhỏ bé, lại nhiều núi non cho nên tuy theo lý thuyết thì bình quân mật độ dân cư là 335 người/km2 nhưng thực tế các khu dân cư có mật độ dân số rất cao. Người Nhật phải dành một nguồn ngoại tệ rất lớn (năm 2005 là 451,1 tỷ USD f.o.b.) để nhập khẩu nhiên liệu, kim loại, lương thực, thực phẩm... Nước ta có mật độ dân cư thấp hơn nhiều, là nước đứng thứ hai về xuất khẩu gạo, đứng thứ bậc cao trong xuất khẩu hải sản và nhiều sản phẩm cây công nghiệp (cà phê, điều, tiêu, cao su...), có nguồn dầu thô , khí thiên nhiên cùng nhiều khoáng sản quý giá khác đang được khai thác và còn có lượng dự trữ không nhỏ.\n\nNước Nhật phải đối đầu với tình trạng ô nhiễm hết sức nghiêm trọng . Mặc dầu Bộ luật Môi trường công bố năm 1967 đã làm giảm thiểu đi rõ rệt các bệnh có nguồn gốc từ các nhà máy (như bệnh hen suyễn do khí thải của công nghiệp lọc dầu, bệnh Mizumata do ô nhiễm thủy ngân, bệnh Itai-Itai do ô nhiễm cadmium...) nhưng đến nay vẫn chưa thể khắc phục được ô nhiễm từ các đám mây quang hóa, từ thủy triều đỏ (do sinh vật phù du phát triển quá mạnh khi tiếp nhận nhiều N và P trong nước thải) dẫn đến làm hạn chế sản lượng hải sản, các ô nhiễm do mưa acid gây thiệt hại cho mùa màng...\n\nVậy yếu tố nào làm cho nước Nhật nhanh chóng vươn lên từ đống tro tàn sau thế chiến II và hiện đã trở thành một quốc gia có nền kinh tế đứng thứ hai trên thế giới?\n\nNhiều người Nhật nói với tôi: nguyên nhân chính là do đạt tới trình độ kỹ thuật cao nhờ trí thông minh và tinh thần lao động cần cù, nghiêm túc. Tôi cũng tin là như vậy.\n\nTrong khi nhiều cường quốc lao vào công cuộc chạy đua vũ trang thì nước Nhật tập trung vào phát triển kinh tế. Độ độc lập ngoại thương (căn cứ vào tỷ lệ giữa tổng lượng mậu dịch (xuất nhập khẩu) trên tổng thu nhập quốc gia. Chỉ số này năm 1955 đã đạt tới 10%, nhưng từ năm 1955 đã tăng lên đến 20% và từ năm 1958 đến nay luôn giữ được ở mức 22-23%. Không có nước thứ hai nào trên thế giới đạt đến mức tăng trưởng như vậy. Năm 1960 GNP của Nhật chiếm 2,8% tổng sản lượng của thế giới, nhưng đến năm 1980 tỷ lệ này đã tăng lên đến 10,1% .GDP (tính theo PPP) của Nhật năm 2005 là 3 914 nghìn tỷ USD, trong khi GDP (tính theo PPP) của nước ta năm 2005 là 253,2 tỷ USD. Kim ngạch xuất khẩu của Nhật (f.o.b.)năm 2005 là 550,5 tỷ USD, trong khi của Việt Nam (f.o.b.)năm 2005 là 32,23 tỷ USD . Con đường công nghiệp hóa của Nhật phản ảnh rõ nét trong việc thu hẹp lại tỷ lệ nông dân. Nếu như năm 1960 còn có 26,8% dân số thuộc khu vực sản xuất nông nghiệp thì đến năm 1992 tỷ lệ này chỉ còn 5,5%. Diện tích canh tác thu hẹp lại rất nhiều nhưng nhờ có cải tiến kỹ thuật mà năng suất nông nghiệp lại tăng rất nhanh. Dù sao thì nước Nhật đã chọn con đường không cần tự túc lương thực , thực phẩm mà đầu tư vào các ngành công nghiệp, trong đó có Công nghệ sinh học. Tôi không chỉ được đến làm việc tại những trung tâm Công nghệ sinh học cấp quốc gia hết sức hiện đại như NITE, RIKEN...mà còn vô cùng ngạc nhiên khi tiếp cận với các trung tâm Công nghệ sinh học dược phẩm của tư nhân với quy mô đầu tư và hiệu quả lớn hơn rất nhiều. Sản phẩm nông nghiệp dùng làm nguyên liệu để lên men các chủng vi sinh vật mang gen tái tổ hợp nhằm chế tạo ra dược phẩm thì giá trị tăng lên không hiểu là hàng nghìn hay hàng vạn lần? Chắc là còn cao hơn nữa rất nhiều (!)\n\nCó thể nói dân chúng Nhật có cuộc sống rất sung túc khi GDP bình quân tính theo đầu người đã đạt đến 30 700 USD (2005) đứng thứ nhì thế giới. Tuổi thọ bình quân của người Nhật đứng vào hàng cao nhất thế giới (sau 60 năm mà tuổi thọ bình quân cả nam lẫn nữ đều tăng thêm ...30 tuổi (!).Tuổi thọ bình quân hiện nay với nam là 77,96, với nữ là 84,7 (2006) .\n\nSự tiến triển vượt bậc về trình độ khoa học và công nghệ không thể tách rời với các thành tựu về giáo dục. Giáo dục bắt buộc với bậc Tiểu học (6 năm) và Cấp II- gọi là Trung học (3 năm). Có thể học tiếp lên cấp III- gọi là Cao học (3 năm) hoặc vào thẳng các Trường chuyên nghiệp (5 năm). Gần 100% học sinh Nhật học tiếp cấp III sau đó nếu muốn chuyển sang Trường chuyên nghiệp chỉ cần học thêm 2 năm. Bậc học sau cấp III là Đại học (thường là 4 năm nhưng có trường chỉ 2 năm), bậc học mà ta gọi là Cao học thì Nhật gọi là Tu học. Sau bậc Thạc sĩ là bậc Tiến sĩ với trình độ tương đương với đẳng cấp quốc tế. Còn có các Trường dạy nghề (chỉ học 1 năm) và các Trường đặc biệt dành cho người khuyết tật. Ai cũng được học hành nhưng không phải ai cũng đổ xô vào việc có bằng được mảnh bằng Đại học. Có khoảng 48-50% học sinh cấp III vào học các Trường Đại học. Số còn lại chuyển sang học nghề và có tiền đồ cũng rất sáng sủa. Đã thi đỗ vào Đại học thi hầu như không có sinh viên nào không tốt nghiệp. Điều kiện nghiên cứu khoa học của thầy và trò ở các Trường Đại học là rất tốt.\n\nSự phát triển của giáo dục và khoa học- công nghệ ở Nhật được phản ánh một phần trên các giải Nobel. Có thể kể đến các giải Nobel dành cho các nhà khoa học Nhật Bản như Yukawa Hideki (Vật lý, 1949), Tomonaga Shin’ichiro (Vật lý, 1965), Esaki Reona (Vật lý,1973), Fukui Ken’Ichi (Hóa học, 1981), Tonegawa Susumu (Y học, 1987), Shirakawa Hideki (Hóa học, 2000), Noyori Ryoji (Hóa học, 2001), Masatoshi Koshiba (Vật lý, 2002), Koichi Tanaka (Hóa học, 2002). Trong Văn học có Kawabata Yasunari (1968), Oe Kenzaburo (1994). Ngoài ra còn có Nobel Hòa bình dành cho Thủ tướng Sato Eisaku (1974)...\n\nNgười Nhật chủ yếu làm việc trong các Công ty tư nhân. các Công ty này có truyền thống là tuyển dụng suốt đời và tạo được tâm lý Công ty là nhà của mình. Người Nhật nổi tiếng là làm việc nhiều . Tuy theo Luật lao động quy định mỗi tuần chỉ làm 5 ngày, mỗi ngày làm 8 tiếng nhưng giờ lao động ở Nhật thật sự là những giờ lao động nghiêm túc với kỷ luật rất tự giác.\n\nQuan sát xã hội Nhật Bản, dù không được sâu sắc, nhưng theo tôi điều đáng học là việc tạo được điều kiện cho mọi người phát huy được hết năng lực của mình. Không có chuyện tiền lương không đủ sống nên đầu óc không tập trung hết mình vào trách nhiệm được giao như chuyện rất phổ biến ở nước ta. Tiền lương và tiền thưởng vừa theo thâm niên vừa theo năng lực và hiệu quả. Điều ấy làm cho ai nấy đều thấy cần gắn mình vào với Công ty hay đơn vị công tác và luôn tìm cách để đạt hiệu quả cao nhất trong công việc được giao. Quản lý tài chính không quá phức tạp .Hầu như mọi thứ cần mua đều có ở các siêu thị (và các cửa hàng nhỏ phục vụ suốt ngày đêm). Tiêu pha chủ yếu bằng thẻ tín dụng, mua gì cũng được tính tiền (và thuế) qua máy tính nên khó có thể gian lận thương mại . Các cửa hàng khác hầu như chỉ là cửa hàng ăn và may mặc (vì ý thích của mọi người quá đa dạng).\n\nĐiều dễ thấy là lương công chức rất cao vì bộ máy hành chính rất gọn nhẹ. Một nước phát triển và đông dân như nước Nhật Bản mà chỉ có 9 bộ (!): bộ Tư pháp, bộ Ngoại giao, bộ Tài chính, bộ Giáo dục-Văn hóa-Khoa học (!), bộ Y tế- Phúc lợi, bộ Nông- lâm- ngư nghiệp, bộ Công nghiệp - Thương mại, bộ Quốc thổ-Giao thông, bộ Môi trường. Ngoài ra Thủ tướng chỉ còn bổ nhiệm thêm Bộ trưởng Tổng vụ, Bộ trưởng Ngân hàng, Trưởng ban Tổ chức Chính phủ, Chủ tịch Ủy ban Công an quốc gia ,Tổng tư lệnh Cục phòng vệ, Cục trưởng cục Khoa học -Kỹ thuật, Cục trưởng cục Kinh tế -Tài chính, Cục trưởng cục Cải cách hành chính.\n\nTôi đã có dịp giao thiệp với người phụ trách lĩnh vực Công nghệ sinh học trong Bộ Công nghiệp và Thương mại Nhật Bản. Tôi không ngờ được ở vị trí quan trọng như vậy mà lại là một người còn rất trẻ, và tất nhiên là rất thạo chuyên môn. Làm việc với chuyên gia Nhật Bản phải theo một lịch trình chính xác hết sức về giờ giấc và thường với cường độ khá căng thẳng. Hiệu quả cao của công việc tất yếu phải lĩnh lương cao. Nhiều người cho rằng nước ta hiện nay có tình trạng không làm việc thật sự nên không có lương thật sự. Tôi nghĩ rằng muốn có lương thật sự thì phải rà soát lại từng cương vị và trách nhiệm công tác của mỗi người để không phải gánh mãi một biên chế quá khổng lồ và rất kém hiệu quả như hiện nay. Nghe nói ngày xưa ở nước ta bình quân 3000 người mới có một người ăn cơm Vua (!). Nếu theo tỷ lệ này thì nhẽ ra hiện nay số người ăn lương của Chính phủ không được quá 28 000 người (!). Không hiểu số người thuộc biên chế ăn lương của ngân sách trong cả nước hiện nay là gấp bao nhiêu lần so với con số này? Số người hưởng lương và phụ cấp ngay ở một xã hiện nay cũng thường không dưới vài chục người (!), hiện nay cấp Thôn cũng đang đòi hỏi phải có lương hay phụ cấp cho cán bộ. Số tiền cho từng người thực tế chả đáng là bao, nhưng cộng lại tất cả xã, phường, thôn buôn thì số tiền lại là hết sức lớn.\n\nNgười ta đã tổng kết: Muốn làm giàu trước hết phải làm đường. Giao thông ở Nhật phát triển ở mức độ rất cao nên đã góp phần rất lớn cho sự nghiệp phát triển kinh tế- xã hội. Nhật Bản hiện có 173 sân bay, 23 577 km đường sắt (trong đó có 16 519km đường dành cho xe chạy bằng điện), 1 177 278 km đường bộ, đường thủy với 683 tầu biển (1000 GRT hay lớn hơn nữa) và rất nhiều tầu nhỏ hơn. Việt Nam có 23 sân bay nhưng chỉ có 2 sân bay quốc tế, chỉ mới có 2 600 km đường sắt (chưa có đường sắt cao tốc và chưa có đường tàu điện ngầm), 215 628 km đường bộ (chưa có đường cao tốc theo đúng nghĩa).\n\nChúng ta đã xem phim Oshin và thấy rõ sau chiến thanh thế giới (1945) nền kinh tế Nhật Bản bị tàn phá kiệt quệ đến mức nào. Vậy mà chỉ đến năm 1954 kinh tế Nhật Bản đã nhanh chóng phục hồi và sau đó là thời kỳ phát triển cao độ (1955-1973). Từ 1974 đến nay tuy tốc độ phát triển có chậm hơn nhưng mọi mặt kinh tế- công nghiệp- tài chính- thương mại- dịch vụ- khoa học- kỹ thuật đều được đánh giá là ở mức đứng thứ nhì trên thế giới (chỉ sau Hoa Kỳ) và với dự trữ ngoại tệ đứng vào hàng đầu thế giới. Ngày xưa Phan Bội Châu, Phan Chu Trinh đã chủ trương phong trào Đông Du- hướng tới Nhật Bản để học hỏi kinh nghiệm. Ngày nay với xu thế hội nhập thế giới nhẽ nào chúng ta không bình tĩnh và khiêm tốn nhìn lại những bài học kinh nghiệm mà Nhật Bản đã thu được trong 60 năm qua. Với nguồn tài nguyên thiên nhiên phong phú hơn, với điều kiện địa lý ít thiên tai bất khả kháng (núi lửa, động đất), với bản chất của một dân tộc không thua kém gì về trí tuệ, về tính cần cù lao động và chịu thương , chịu khó...chúng ta nhẽ nào không thể không có được những bước tiến nhảy vọt nếu như chúng ta biết đi ngay vào các mũi nhọn của khoa học và công nghệ , biết thực hiện cải cách hành chính để phát huy cao nhất tiềm lực của thiên nhiên và năng lực của toàn dân tộc ?\nNguồn:http://huc.edu.vn/chi-tiet/1031/Nhat-Ban-khac-ta-nhung-gi-.html","created_time":"2013-11-20T15:02:13+0000","updated_time":"2013-11-23T07:10:21+0000","likes":{"data":{"100001407263602":{"id":"100001407263602","name":"Loan Nguyễn"},"100001014186213":{"id":"100001014186213","name":"Phuong Nguyen Nguyen"},"100005061421918":{"id":"100005061421918","name":"Thương Xì Ke"},"100002224992538":{"id":"100002224992538","name":"Nguyễn Văn Tâm"},"100003993223946":{"id":"100003993223946","name":"Kieu Quoc Dat"},"100001727857917":{"id":"100001727857917","name":"Bui Duyen"},"100001416272263":{"id":"100001416272263","name":"Mai PB"},"100002535489295":{"id":"100002535489295","name":"Moteru Seikoo"},"779812883":{"id":"779812883","name":"Nguyen NgocAnh"},"100000068421167":{"id":"100000068421167","name":"Đặng Công Chánh"},"100005145330760":{"id":"100005145330760","name":"Sơn Vũ"},"1283298041":{"id":"1283298041","name":"Búa Đức Thanh"},"100003855847350":{"id":"100003855847350","name":"Khanh Tran"},"100005013365720":{"id":"100005013365720","name":"Hoàng BáCh"},"100003310618708":{"id":"100003310618708","name":"BiNô Triết Gia"},"100001723862714":{"id":"100001723862714","name":"Bo Bien Vang"},"100000027754899":{"id":"100000027754899","name":"Hoang Van Ba"},"100000173039166":{"id":"100000173039166","name":"Kukku Lee"},"100000579057457":{"id":"100000579057457","name":"Shiro Neko"},"100002245769151":{"id":"100002245769151","name":"Luot Pham"},"100006572713690":{"id":"100006572713690","name":"Đại Chim Lợn"},"100005235669327":{"id":"100005235669327","name":"Diep Tran"},"100003957878204":{"id":"100003957878204","name":"Ma Kết"},"1122379216":{"id":"1122379216","name":"Hà Ngô"},"100002290906582":{"id":"100002290906582","name":"Kanashimi No Yukue"},"100003255524049":{"id":"100003255524049","name":"Vương Xuân Mạnh"},"100002959594535":{"id":"100002959594535","name":"Nguyen Ngoc Anh"},"1146680551":{"id":"1146680551","name":"優しい なぁ"},"1082956399":{"id":"1082956399","name":"Danny Dee Nguyen IE"},"100005801442456":{"id":"100005801442456","name":"An Nguyen"}},"paging":{"cursors":{"after":"MTAwMDAxNDA3MjYzNjAy","before":"MTAwMDAxNDA3MjYzNjAy"},"next":"https://graph.facebook.com/229244010425617_761945920488754/likes?limit=1&summary=1&after=MTAwMDAxNDA3MjYzNjAy"},"summary":{"total_count":31}},"comments":{"data":{"761946560488690":{"id":"761946560488690","from":{"id":"100005801442456","name":"An Nguyen"},"message":"Bác chắc cho làm quản lý kho báo chí mảng quan hệ Nhật Việt chắc hợp=))","can_remove":false,"created_time":"2013-11-20T15:03:52+0000","like_count":1,"user_likes":false},"761947463821933":{"id":"761947463821933","from":{"id":"100000045271667","name":"Nam Thai Nguyen"},"message":"An Nguyen về nước tặng cho tập san nhé :D","message_tags":[{"id":"100005801442456","name":"An Nguyen","type":"user","offset":0,"length":9}],"can_remove":false,"created_time":"2013-11-20T15:06:29+0000","like_count":0,"user_likes":false},"761951350488211":{"id":"761951350488211","from":{"id":"100005599265794","name":"Nam Hoang"},"message":"Tiếc là ngày xưa cụ Phan sang Nhật về mà không học hỏi được gì nhiều","can_remove":false,"created_time":"2013-11-20T15:14:30+0000","like_count":0,"user_likes":false},"761952577154755":{"id":"761952577154755","from":{"id":"100003255524049","name":"Vương Xuân Mạnh"},"message":"(y) !! em đang cày phim o shin được hai tháng rùi","can_remove":false,"created_time":"2013-11-20T15:17:14+0000","like_count":0,"user_likes":false},"761997660483580":{"id":"761997660483580","from":{"id":"100000027754899","name":"Hoang Van Ba"},"message":"Quá hay !\nNhưng chỉ là đánh giá !!\nSao ko có hướng giải quyết !!","can_remove":false,"created_time":"2013-11-20T16:44:33+0000","like_count":1,"user_likes":false},"762250573791622":{"id":"762250573791622","from":{"id":"100000045271667","name":"Nam Thai Nguyen"},"message":"bạn đọc lại lời dẫn bài viết đi và nên đọc thêm tham khảo cái này\nhttp://vtc.vn/tapchi/447-444891/chuyen-de/gs-nguyen-lan-dung-toi-noi-ma-khong-ai-nghe.htm","can_remove":false,"created_time":"2013-11-21T01:13:44+0000","like_count":1,"user_likes":false},"763706096979403":{"id":"763706096979403","from":{"id":"1146680551","name":"優しい なぁ"},"message":"Một cánh én không thể làm nên mùa xuân ....haizzzz","can_remove":false,"created_time":"2013-11-21T17:32:30+0000","like_count":0,"user_likes":false},"763706746979338":{"id":"763706746979338","from":{"id":"100000045271667","name":"Nam Thai Nguyen"},"message":"Thế nên hãy rủ nhau cả đàn én về Anh nguyễn ơi","can_remove":false,"created_time":"2013-11-21T17:34:13+0000","like_count":0,"user_likes":false},"763708783645801":{"id":"763708783645801","from":{"id":"1146680551","name":"優しい なぁ"},"message":"Thời xưa,giặc dốt,giặc đói,giặc ngoại xâm ,Thời giờ nhiều giặc quá.Én rồi cũng sẽ tuyệt chủng hết.","can_remove":false,"created_time":"2013-11-21T17:39:51+0000","like_count":0,"user_likes":false},"763709516979061":{"id":"763709516979061","from":{"id":"100000045271667","name":"Nam Thai Nguyen"},"message":"Cứ về đi., rồi sẽ có bảo tàng chim én :3","can_remove":false,"created_time":"2013-11-21T17:41:40+0000","like_count":2,"user_likes":false},"764681686881844":{"id":"764681686881844","from":{"id":"100001243411261","name":"Ngưu Tỷ Tỷ"},"message":"em hâm mộ bác này nhất, mà cả nhà em đều hâm mộ bác này :))","can_remove":false,"created_time":"2013-11-23T07:10:21+0000","like_count":0,"user_likes":false}},"paging":{"cursors":{"after":"NzYxOTQ2NTYwNDg4Njkw","before":"NzYxOTQ2NTYwNDg4Njkw"},"next":"https://graph.facebook.com/229244010425617_761945920488754/comments?limit=1&summary=1&after=NzYxOTQ2NTYwNDg4Njkw"},"summary":{"order":"chronological","total_count":11}}}