{"id":"229244010425617_761928923823787","type":"status","from":{"id":"100001416272263","name":"Mai PB"},"message":"Nhân ngày Nhà Giáo VN cũng muốn viết cái gì đó, nhưng bận quá, đến cuối ngày mất rồi. Thôi gửi một câu đơn giản: cảm tạ các nhà giáo có tâm của VN, mong các vị tiếp tục quan tâm đào tạo những con người VN tử tế cho đất nước. Cảm tạ cả những con người tuy không phải làm nghề nhà giáo nhưng luôn luôn cố gắng hết sức mình cho sự nghiệp trồng người cho dân tộc Việt. Những gì không hay của ngành giáo dục thì tạm không nói đến hôm nay. :-)","created_time":"2013-11-20T14:32:13+0000","updated_time":"2013-11-20T14:46:58+0000","likes":{"data":{"100004923553810":{"id":"100004923553810","name":"Xuan KY Nguyen"},"100003655265575":{"id":"100003655265575","name":"Hường Hà"},"1816269439":{"id":"1816269439","name":"Dao Ngoc"},"100005694491959":{"id":"100005694491959","name":"Phuong Truong Thi Thanh"},"1283298041":{"id":"1283298041","name":"Búa Đức Thanh"},"1821970083":{"id":"1821970083","name":"Nguyễn Mạnh Cường"},"100000215142696":{"id":"100000215142696","name":"Tăng Anh Thư"},"100004716640495":{"id":"100004716640495","name":"Thúy An Dương"},"100001723862714":{"id":"100001723862714","name":"Bo Bien Vang"},"100000226369400":{"id":"100000226369400","name":"Vạn Lý Độc Hành"},"100002137253818":{"id":"100002137253818","name":"Anh Khoa"},"100001887921127":{"id":"100001887921127","name":"Kata Apple"},"100004246931935":{"id":"100004246931935","name":"Nga Tũn"},"100001458099624":{"id":"100001458099624","name":"Kham Pha"},"100004140850631":{"id":"100004140850631","name":"Huong Trang"},"569263718":{"id":"569263718","name":"Phuong Thao Tran"},"100006520210904":{"id":"100006520210904","name":"Miu Miu"},"100004763737953":{"id":"100004763737953","name":"Fuong Ank Nguyen"},"100003090738530":{"id":"100003090738530","name":"Ngô Thị Thanh Hường"},"100003767594753":{"id":"100003767594753","name":"Mít Tờ Chiến"},"100002833846724":{"id":"100002833846724","name":"Bilian Nguyen"},"100003055356509":{"id":"100003055356509","name":"Thuan Nguyen"},"1416265619":{"id":"1416265619","name":"Starwar Bbj"},"1146680551":{"id":"1146680551","name":"優しい なぁ"},"100000328742646":{"id":"100000328742646","name":"Trần Giáp"},"100003310618708":{"id":"100003310618708","name":"BiNô Triết Gia"},"100003662604894":{"id":"100003662604894","name":"Mai Hana"},"100002508122689":{"id":"100002508122689","name":"Vũ Mạnh Tuấn"},"100006479420145":{"id":"100006479420145","name":"Trịnh Thị Kim Anh"},"100000045271667":{"id":"100000045271667","name":"Nam Thai Nguyen"},"100002898154513":{"id":"100002898154513","name":"Gã Shrek"},"100005801442456":{"id":"100005801442456","name":"An Nguyen"},"100000359762118":{"id":"100000359762118","name":"Mi Tra"},"100003005597243":{"id":"100003005597243","name":"Zany Royal"}},"paging":{"cursors":{"after":"MTAwMDA0OTIzNTUzODEw","before":"MTAwMDA0OTIzNTUzODEw"},"next":"https://graph.facebook.com/229244010425617_761928923823787/likes?limit=1&summary=1&after=MTAwMDA0OTIzNTUzODEw"},"summary":{"total_count":36}},"comments":{"data":{"761931373823542":{"id":"761931373823542","from":{"id":"100000045271667","name":"Nam Thai Nguyen"},"message":"Nghe anh Mai PB viết stt,  em chắc phải share bài báo này của thầy Nguyễn Lân Dũng cho mọi người đọc!","message_tags":[{"id":"100001416272263","name":"Mai PB","type":"user","offset":9,"length":6}],"can_remove":false,"created_time":"2013-11-20T14:34:54+0000","like_count":1,"user_likes":false},"761932567156756":{"id":"761932567156756","from":{"id":"100005801442456","name":"An Nguyen"},"message":"Chúc mừng ngày của cô Mi tra! Hnay e chúc cô ngày càng đẹp càng tài giỏi và giúp đỡ cho cộng đồng nhiều hơn nữa .Tuy cô không dạy e , nhưng e tôn trọng công việc của cô đang làm lắm, dù là ở Việt Nam hay Nhật thì đối với người Việt chúng ta thì đều cảm thấy lòng cảm tạ như nhau cả! Em \" yêu \" cô lắm! Anh Nguyễn Có yêu cô không??","message_tags":[{"id":"1146680551","name":"Anh Nguyễn","type":"user","offset":304,"length":10}],"can_remove":false,"created_time":"2013-11-20T14:37:11+0000","like_count":4,"user_likes":false},"761935187156494":{"id":"761935187156494","from":{"id":"100000045271667","name":"Nam Thai Nguyen"},"message":"An Nguyen hay chữ ghê :3","message_tags":[{"id":"100005801442456","name":"An Nguyen","type":"user","offset":0,"length":9}],"can_remove":false,"created_time":"2013-11-20T14:39:19+0000","like_count":1,"user_likes":false},"761935257156487":{"id":"761935257156487","from":{"id":"1146680551","name":"優しい なぁ"},"message":"Cũng mong sẽ có 1 cuộc cách mạng về giáo dục ở vn.để k còn thấy cảnh chạy trường chạy điểm,học thêm học bớt.","can_remove":false,"created_time":"2013-11-20T14:39:26+0000","like_count":0,"user_likes":false},"761935747156438":{"id":"761935747156438","from":{"id":"100005801442456","name":"An Nguyen"},"message":"E nói thật lòng mình mà@.@","can_remove":false,"created_time":"2013-11-20T14:40:30+0000","like_count":0,"user_likes":false},"761935757156437":{"id":"761935757156437","from":{"id":"100003767594753","name":"Mít Tờ Chiến"},"message":"Hay đấy . Chuẩn men","can_remove":false,"created_time":"2013-11-20T14:40:30+0000","like_count":0,"user_likes":false},"761936403823039":{"id":"761936403823039","from":{"id":"1146680551","name":"優しい なぁ"},"message":"Mít tờ chiến.\"chuẩn men\" k có trong từ điển vn.mong bạn sửa giúp","can_remove":false,"created_time":"2013-11-20T14:42:01+0000","like_count":2,"user_likes":false},"761938587156154":{"id":"761938587156154","from":{"id":"100000359762118","name":"Mi Tra"},"message":"Chịu thua An Nguyen rồi ^^ \nDù sao cũng cảm ơn  An <3","message_tags":[{"id":"100005801442456","name":"An Nguyen","type":"user","offset":10,"length":9}],"can_remove":false,"created_time":"2013-11-20T14:46:31+0000","like_count":1,"user_likes":false},"761938837156129":{"id":"761938837156129","from":{"id":"100000045271667","name":"Nam Thai Nguyen"},"message":"Gìn giữ sự trong sáng tiếng Việt nào!","can_remove":false,"created_time":"2013-11-20T14:46:58+0000","like_count":1,"user_likes":false}},"paging":{"cursors":{"after":"NzYxOTMxMzczODIzNTQy","before":"NzYxOTMxMzczODIzNTQy"},"next":"https://graph.facebook.com/229244010425617_761928923823787/comments?limit=1&summary=1&after=NzYxOTMxMzczODIzNTQy"},"summary":{"order":"chronological","total_count":10}}}