{"id":"229244010425617_762803700402976","type":"status","from":{"id":"100005334430359","name":"Mưa Lạnh"},"message":"Cho em hỏi cách phân biệt nghĩa và cách dùng điểm ngữ pháp này nha cả nhà:\nN＋向きだ　Và\nN+向けだ　 \nNghĩa giống giống nhau nên khó phân biệt quá!\nCảm ơn cả nhà trước nhe <3","created_time":"2013-11-21T05:29:40+0000","updated_time":"2013-11-21T23:01:35+0000","likes":{"data":{"100004094346107":{"id":"100004094346107","name":"Thuy Nga Nguyen"},"100004253979918":{"id":"100004253979918","name":"Louis Hoàng Văn Thái"},"100005495773832":{"id":"100005495773832","name":"Hiền Vũ"},"100005801442456":{"id":"100005801442456","name":"An Nguyen"},"100003743767998":{"id":"100003743767998","name":"Băng Tâm"}},"paging":{"cursors":{"after":"MTAwMDA0MDk0MzQ2MTA3","before":"MTAwMDA0MDk0MzQ2MTA3"},"next":"https://graph.facebook.com/229244010425617_762803700402976/likes?limit=1&summary=1&after=MTAwMDA0MDk0MzQ2MTA3"},"summary":{"total_count":5}},"comments":{"data":{"762873070396039":{"id":"762873070396039","from":{"id":"100000359762118","name":"Mi Tra"},"message":"N向け：　đối tượng là ~ / dành cho~ （～対象　/ ～のため）\nVD: 女性向けのマンション　Nhà chung cư dành cho phụ nữ\n(Chỉ dành cho phụ nữ, đàn ông ko ở đó được)\nHoặc là 　大人向け chỉ dành cho người lớn, cấm trẻ con\n子供向けの絵本  truyện tranh dành cho trẻ em ( ở đây ko phải p là chỉ nguyên trẻ em mới được đọc mà ý nói là đối tượng nhắm tới là trẻ em. Mục đích viết ra là cho trẻ em)\n\nN向き：　hợp với ~　（その対象にちょうど合うように / その対象に気に入るように）\nVD: 10代女性向きにかわいいアクセサリーを作った　Sản xuất phụ kiện dễ thương dành cho các bạn nữ tuổi teen.\n(lứa tuổi 20, 30 cũng dùng được nhưng hợp nhất là với tuổi teen )","can_remove":false,"created_time":"2013-11-21T06:16:02+0000","like_count":7,"user_likes":false},"762913667058646":{"id":"762913667058646","from":{"id":"100001416272263","name":"Mai PB"},"message":"Ví dụ đầu type nhầm kìa.","can_remove":false,"created_time":"2013-11-21T06:56:26+0000","like_count":0,"user_likes":false},"762948303721849":{"id":"762948303721849","from":{"id":"100000359762118","name":"Mi Tra"},"message":"Thank anh Mai PB\nEm đã sửa ^^","message_tags":[{"id":"100001416272263","name":"Mai PB","type":"user","offset":10,"length":6}],"can_remove":false,"created_time":"2013-11-21T07:14:21+0000","like_count":0,"user_likes":false},"762949050388441":{"id":"762949050388441","from":{"id":"100005334430359","name":"Mưa Lạnh"},"message":"ah hay qua cam on ca nha nhiu nhiu nhe!!!<3","can_remove":false,"created_time":"2013-11-21T07:17:27+0000","like_count":0,"user_likes":false},"763071083709571":{"id":"763071083709571","from":{"id":"100005801442456","name":"An Nguyen"},"message":"Sẵn đang đọc sách nên ghi  luôn:\n\n* 向きだ thích hợp với... Mục đích nào đó phù hợp để sử dụng gì đó.\n\nVd: 彼は映画より舞台向きのお俳優だと思う！thằng đó hợp làm diễn viên đong kịch hơn phim ấy!\n\n* 向けだ:được tạo ra, dành riêng cho.., để cho...biểu thị cái gì đó được tạo ra sao cho phù hợp với cái gì đó!\n\nVd:これは絵本ですが、大人向けに書かれたものです。sách này là truyện tranh, nhưng dành cho người lớn thôi .","can_remove":false,"created_time":"2013-11-21T08:52:02+0000","like_count":2,"user_likes":false},"763071790376167":{"id":"763071790376167","from":{"id":"100005801442456","name":"An Nguyen"},"message":"Hỏi thế này tốt hơn inbox, các bạn đã thấy lợi chưa? Không nên inbox làm gì mà hãy bỏ lên đây này, ai cười thì \" vả \" cho 1 phát =)) ham học thế còn gì ^^","can_remove":false,"created_time":"2013-11-21T08:54:48+0000","like_count":5,"user_likes":false},"763101893706490":{"id":"763101893706490","from":{"id":"100005334430359","name":"Mưa Lạnh"},"message":"ko bit thi hoi Chu co gi dau ma cuoi nguoi khac!hjhj cam on ca nha nhe","can_remove":false,"created_time":"2013-11-21T09:13:02+0000","like_count":0,"user_likes":false},"763189140364432":{"id":"763189140364432","from":{"id":"100006508597181","name":"Nguyen Thanh Hoan"},"message":"thank ban Mi Tra nhe. gt cua ban de hieu hon va vd cung de nho hon.","can_remove":false,"created_time":"2013-11-21T10:20:12+0000","like_count":2,"user_likes":false},"763932476956765":{"id":"763932476956765","from":{"id":"100000359762118","name":"Mi Tra"},"message":"Cảm ơn bạn Nguyen Thanh Hoan <3","can_remove":false,"created_time":"2013-11-21T23:01:35+0000","like_count":0,"user_likes":false}},"paging":{"cursors":{"after":"NzYyODczMDcwMzk2MDM5","before":"NzYyODczMDcwMzk2MDM5"},"next":"https://graph.facebook.com/229244010425617_762803700402976/comments?limit=1&summary=1&after=NzYyODczMDcwMzk2MDM5"},"summary":{"order":"chronological","total_count":9}}}