{"id":"229244010425617_762950090388337","type":"status","from":{"id":"100006534789826","name":"Nơi Phương Xa"},"message":"場所:千葉みなと\n仕事内容:サンドイッチの調理補助\n時間帯:1、17-22  4人\n            2、22-05 2人\n交通費:18000円/月\n時給:1、960円(最初2ヶ月910)\n        2、1210(最初2ヶ月1160)\n条件:日本語を話せる、聞ける、読める、書ける","created_time":"2013-11-21T07:21:53+0000","updated_time":"2013-11-21T07:42:25+0000","likes":{"data":{"100006954194052":{"id":"100006954194052","name":"PhuongHoa Nguyen"},"100006269700659":{"id":"100006269700659","name":"Nguyễn Linh"},"100003188540285":{"id":"100003188540285","name":"Đầu Gấu Xấu Trai"},"100004253979918":{"id":"100004253979918","name":"Louis Hoàng Văn Thái"},"100001059086820":{"id":"100001059086820","name":"Nguyễn Thành Long"},"100003881499881":{"id":"100003881499881","name":"Pe Pon"},"100003049639881":{"id":"100003049639881","name":"Truong Luvuxy"},"1283298041":{"id":"1283298041","name":"Búa Đức Thanh"}},"paging":{"cursors":{"after":"MTAwMDA2OTU0MTk0MDUy","before":"MTAwMDA2OTU0MTk0MDUy"},"next":"https://graph.facebook.com/229244010425617_762950090388337/likes?limit=1&summary=1&after=MTAwMDA2OTU0MTk0MDUy"},"summary":{"total_count":8}},"comments":{"data":{"762951380388208":{"id":"762951380388208","from":{"id":"100003049639881","name":"Truong Luvuxy"},"message":"Liên lạc thế nào vậy ah.cho địa chỉ chỗ ga làm đi bạn","can_remove":false,"created_time":"2013-11-21T07:26:18+0000","like_count":0,"user_likes":false},"762952400388106":{"id":"762952400388106","from":{"id":"100006534789826","name":"Nơi Phương Xa"},"message":"ban inbox nha. ga lam la chibaminato","can_remove":false,"created_time":"2013-11-21T07:30:28+0000","like_count":0,"user_likes":false},"762952717054741":{"id":"762952717054741","from":{"id":"100001727700391","name":"Lanxinh Dao"},"message":"O tokyou a","can_remove":false,"created_time":"2013-11-21T07:31:49+0000","like_count":0,"user_likes":false},"762981573718522":{"id":"762981573718522","from":{"id":"100001416272263","name":"Mai PB"},"message":"Group không phải nơi vứt quảng cáo thiếu đầu thiếu đuôi toẹt như thế nhé nhé, bạn Nơi Phương Xa. Post cái gì, ai post, cách trao đổi thêm... thì nên có một câu nói giới thiệu ở đầu.","message_tags":[{"id":"100006534789826","name":"Nơi Phương Xa","type":"user","offset":82,"length":13}],"can_remove":false,"created_time":"2013-11-21T07:42:25+0000","like_count":6,"user_likes":false}},"paging":{"cursors":{"after":"NzYyOTUxMzgwMzg4MjA4","before":"NzYyOTUxMzgwMzg4MjA4"},"next":"https://graph.facebook.com/229244010425617_762950090388337/comments?limit=1&summary=1&after=NzYyOTUxMzgwMzg4MjA4"},"summary":{"order":"chronological","total_count":4}}}