{"id":"229244010425617_763509810332365","type":"status","from":{"id":"100000895978137","name":"Vũ Thắng"},"message":"Có bạn nào biết ở đâu bán cuốn 日本語能力試験直前対策 N2文字・語彙・文法 (xuất bản năm 2011) không nhỉ?\nCòn hơn 1 tuần, nên muốn ôn theo cuốn đấy.\nCám ơn mọi người đã quan tâm.","created_time":"2013-11-21T14:38:40+0000","updated_time":"2013-11-21T18:05:54+0000","likes":{"data":{"100002981418378":{"id":"100002981418378","name":"Phụ Tiểu Đậu"},"100005837944695":{"id":"100005837944695","name":"Nguyễn Tiên"},"1845000884":{"id":"1845000884","name":"Trieu Thi Kieu Oanh"},"100004253979918":{"id":"100004253979918","name":"Louis Hoàng Văn Thái"},"100001720990331":{"id":"100001720990331","name":"Đỗ Đình Tiệp"},"100001116169487":{"id":"100001116169487","name":"Minh le Dinh"},"100000280776405":{"id":"100000280776405","name":"Viet Nguyen Thanh"},"100005694491959":{"id":"100005694491959","name":"Phuong Truong Thi Thanh"}},"paging":{"cursors":{"after":"MTAwMDAyOTgxNDE4Mzc4","before":"MTAwMDAyOTgxNDE4Mzc4"},"next":"https://graph.facebook.com/229244010425617_763509810332365/likes?limit=1&summary=1&after=MTAwMDAyOTgxNDE4Mzc4"},"summary":{"total_count":8}},"comments":{"data":{"763728286977184":{"id":"763728286977184","from":{"id":"1146680551","name":"優しい なぁ"},"message":"Bạn ở đâu?","can_remove":false,"created_time":"2013-11-21T17:58:41+0000","like_count":0,"user_likes":false},"763729840310362":{"id":"763729840310362","from":{"id":"100000895978137","name":"Vũ Thắng"},"message":"Mình đang ở Hà Nội, nếu quanh khu vực các trường đại học thì mình đi được, nếu biết chỗ nào thì chỉ giùm mình nhé.","can_remove":false,"created_time":"2013-11-21T18:02:47+0000","like_count":0,"user_likes":false},"763730423643637":{"id":"763730423643637","from":{"id":"100001541536632","name":"Viet Do"},"message":"Mình có đấy,bạn có mua không mình bán cho,đảm bảo giá rẻ :v","can_remove":false,"created_time":"2013-11-21T18:04:24+0000","like_count":1,"user_likes":false},"763730996976913":{"id":"763730996976913","from":{"id":"100000895978137","name":"Vũ Thắng"},"message":"Viet Do, én lượn đê :v","message_tags":[{"id":"100001541536632","name":"Viet Do","type":"user","offset":0,"length":7}],"can_remove":false,"created_time":"2013-11-21T18:05:54+0000","like_count":0,"user_likes":false}},"paging":{"cursors":{"after":"NzYzNzI4Mjg2OTc3MTg0","before":"NzYzNzI4Mjg2OTc3MTg0"},"next":"https://graph.facebook.com/229244010425617_763509810332365/comments?limit=1&summary=1&after=NzYzNzI4Mjg2OTc3MTg0"},"summary":{"order":"chronological","total_count":4}}}