{"id":"229244010425617_763647420318604","type":"status","from":{"id":"1146680551","name":"優しい なぁ"},"message":"Cả nhà cùng thảo luận nào:\nMình thấy việc xài từ điển nào cũng quan trong không kém.Hiện nay mình xài từ điển chủ yếu trên iphone,nhưng thấy dịch thường không sát nghĩa cho lắm.Và thường k có ví dụ để mình hình dung được xài từ đấy trong trường hợp nào.Vì tiếng Nhật cũng khá nhiều từ đồng nghĩa. \nMình tính mua kim từ điển nhưng nghe nhiều bạn và thấy nhiều bạn bị phụ thuộc vào kim từ điển khá nhiều, lúc nào cũng khư khư cái kim từ điển.\nVầy mời cả nhà cùng thảo luận thì xài kim từ điển ,hay ứng dụng từ điển của iphone.Nếu mua kim từ điển thì loại nào là tốt,phù hợp.Còn nếu xài ứng dụng của iphone thì xài phần mềm gì.\nHiện giờ mình xài Nhật - Việt,Anh - Nhật của iphone nhưng thấy cũng bị hạn chế khá nhiều.Thường xảy ra tình trạng là không có nghĩa,hay là không có từ đó trong từ điển.\nMong mọi người cùng cho ý kiên.","created_time":"2013-11-21T16:32:42+0000","updated_time":"2013-11-22T04:11:46+0000","likes":{"data":{"100001526631937":{"id":"100001526631937","name":"Tường Oanh Mineko"},"100003893158172":{"id":"100003893158172","name":"Maru MO"},"100001723862714":{"id":"100001723862714","name":"Bo Bien Vang"},"100000027754899":{"id":"100000027754899","name":"Hoang Van Ba"},"100005801442456":{"id":"100005801442456","name":"An Nguyen"},"100001416272263":{"id":"100001416272263","name":"Mai PB"},"100000170318664":{"id":"100000170318664","name":"Luli KO"},"550401589":{"id":"550401589","name":"Cuong Cao"},"100004253979918":{"id":"100004253979918","name":"Louis Hoàng Văn Thái"},"1828906841":{"id":"1828906841","name":"Trọng Nghĩa Bùi"},"100001159898461":{"id":"100001159898461","name":"Giang Trường Bùi"}},"paging":{"cursors":{"after":"MTAwMDAxNTI2NjMxOTM3","before":"MTAwMDAxNTI2NjMxOTM3"},"next":"https://graph.facebook.com/229244010425617_763647420318604/likes?limit=1&summary=1&after=MTAwMDAxNTI2NjMxOTM3"},"summary":{"total_count":11}},"comments":{"data":{"763702903646389":{"id":"763702903646389","from":{"id":"1828906841","name":"Trọng Nghĩa Bùi"},"message":"Mình tạm thời xài từ điển Cooori JED (từ điển Nhật-Anh) trên iphone, thấy nó khá dễ sử dụng, kết hợp với bàn phím tiếng Nhật và bàn phím chữ Hán phồn thể (viết tay) để tra kanji.\n\nVẫn mong tìm được app từ điển nào khác (Nhật-Anh, Nhật-Việt hoặc Nhật-Nhật đều được) có thư viện từ lớn hơn (gồm cả những từ chuyên ngành, tên riêng....). Hiện giờ lúc nào cần tra tên riêng chẳng hạn mình toàn phải vào jisho.org, cũng khá là mất công.","can_remove":false,"created_time":"2013-11-21T17:24:10+0000","like_count":1,"user_likes":false},"763703816979631":{"id":"763703816979631","from":{"id":"1146680551","name":"優しい なぁ"},"message":"Bạn cùng giông trường hợp của mình đo.Rât mong được sự trợ giúp của mấy bác có kinh nghiệm","can_remove":false,"created_time":"2013-11-21T17:26:40+0000","like_count":0,"user_likes":false},"763708916979121":{"id":"763708916979121","from":{"id":"100003718429681","name":"Kawaii Tuti"},"message":"Sài từ điển bỏ túi! Oke 100%","can_remove":false,"created_time":"2013-11-21T17:40:19+0000","like_count":1,"user_likes":false},"763709390312407":{"id":"763709390312407","from":{"id":"100003718429681","name":"Kawaii Tuti"},"message":"Nhưng từ điển này mất tiền. Muốn sài phải jaibreak máy. ^^","can_remove":false,"created_time":"2013-11-21T17:41:21+0000","like_count":1,"user_likes":false},"763722363644443":{"id":"763722363644443","from":{"id":"1146680551","name":"優しい なぁ"},"message":"Nhưng dabase hạn chê quá.ví dụ từ きらきらネーム","can_remove":false,"created_time":"2013-11-21T17:45:16+0000","like_count":1,"user_likes":false},"763723103644369":{"id":"763723103644369","from":{"id":"100003718429681","name":"Kawaii Tuti"},"message":"Tách từ kirakira và từ name ra là sẽ tìm được ^^","can_remove":false,"created_time":"2013-11-21T17:47:26+0000","like_count":0,"user_likes":false},"763723553644324":{"id":"763723553644324","from":{"id":"1146680551","name":"優しい なぁ"},"message":"Cần để biết cách sử dụng nó nữa chứ.Rồi các từ chuyên ngành cũng vậy.Hầu hết toàn phải xài may tinh lên wikipedia","can_remove":false,"created_time":"2013-11-21T17:48:40+0000","like_count":0,"user_likes":false},"763724516977561":{"id":"763724516977561","from":{"id":"100003718429681","name":"Kawaii Tuti"},"message":"Kim từ điển thiếu từ nhiều lắm. Mình dùng app từ điển bỏ túi thấy ko thiếu từ nào đâu. Mà còn có ví dụ để xem nữa. ^^","can_remove":false,"created_time":"2013-11-21T17:50:52+0000","like_count":2,"user_likes":false},"763724996977513":{"id":"763724996977513","from":{"id":"1828906841","name":"Trọng Nghĩa Bùi"},"message":"Tên app là \"Từ điển bỏ túi\" hả bạn ? app trên ios, android hay máy khác vậy ?","can_remove":false,"created_time":"2013-11-21T17:52:04+0000","like_count":0,"user_likes":false},"763725473644132":{"id":"763725473644132","from":{"id":"100003718429681","name":"Kawaii Tuti"},"message":"Trên ios. Cái ứng dụng này cũng nổi tiếng nên mình nghĩ chắc android cũng có","can_remove":false,"created_time":"2013-11-21T17:53:12+0000","like_count":0,"user_likes":false},"763728750310471":{"id":"763728750310471","from":{"id":"1828906841","name":"Trọng Nghĩa Bùi"},"message":"Bạn nói lại tên app giúp mình được không, mình tìm không ra. \n\nNgoài ra còn 1 cách: nếu tìm không chỗ nào có từ đó thì mình lên google, gõ từ đó rồi thêm chữ とは vào và tìm. Thường thì 1 vài kết quả đầu tiên sẽ tìm được phần giải nghĩa ngay, giống như từ điển Nhật-Nhật (mà mình hơi lười nên ít khi dùng cách này)","can_remove":false,"created_time":"2013-11-21T17:59:54+0000","like_count":1,"user_likes":false},"763729406977072":{"id":"763729406977072","from":{"id":"100003718429681","name":"Kawaii Tuti"},"message":"Bạn ghi chữ từ điển vào và serch nha","can_remove":false,"created_time":"2013-11-21T18:01:33+0000","like_count":0,"user_likes":false},"763731143643565":{"id":"763731143643565","from":{"id":"1828906841","name":"Trọng Nghĩa Bùi"},"message":"uhm cám ơn bạn, mình thấy rồi, tên app là \"Từ điển (Vietnam Pocket Dictionary)\"","can_remove":false,"created_time":"2013-11-21T18:06:18+0000","like_count":1,"user_likes":false},"763854670297879":{"id":"763854670297879","from":{"id":"550401589","name":"Cuong Cao"},"message":"Bạn nào thích iPhone 5 & chán Note 3 thì đổi cho mình nhé :3","can_remove":false,"created_time":"2013-11-21T20:02:37+0000","like_count":0,"user_likes":false},"763914873625192":{"id":"763914873625192","from":{"id":"100000024629190","name":"Thanh Ngọc"},"message":"từ điển bỏ túi a ơi. cũg khá đầy đủ. dịch cùg lúc cả anh và nhật, còn có ví dụ luôn  :v","can_remove":false,"created_time":"2013-11-21T22:18:37+0000","like_count":1,"user_likes":false},"763934773623202":{"id":"763934773623202","from":{"id":"1283298041","name":"Búa Đức Thanh"},"message":"Thanh xài phần mềm imiwa, Anh -Nhật , Nhật-Anh,  khá tốt, có ví dụ, có tra kanji, có lịch sử tra từ, tóm lại là thấy hay, xài trên ip","can_remove":false,"created_time":"2013-11-21T23:08:30+0000","like_count":1,"user_likes":false},"763942416955771":{"id":"763942416955771","from":{"id":"100001606380276","name":"Phan Đức Thái"},"message":"Xài cái này đi","can_remove":false,"created_time":"2013-11-21T23:31:43+0000","like_count":2,"user_likes":false},"763960076954005":{"id":"763960076954005","from":{"id":"100001416272263","name":"Mai PB"},"message":"Mình xài từ điển có tên là Google, không từ nào không ra. Có điều là không có format nhất định, mỗi kết quả hiển thị một kiểu. Miễn phí.","can_remove":false,"created_time":"2013-11-22T00:22:15+0000","like_count":4,"user_likes":false},"763967120286634":{"id":"763967120286634","from":{"id":"100005801442456","name":"An Nguyen"},"message":"Cái này hiện tại free sau này có lẽ mất phí 2000¥ nhưng rất tốt và có hình ảnh mjnh hoạ\nhttp://www.appbank.net/2011/04/29/iphone-application/247963.php","can_remove":false,"created_time":"2013-11-22T00:43:33+0000","like_count":1,"user_likes":false},"763967603619919":{"id":"763967603619919","from":{"id":"100005801442456","name":"An Nguyen"},"message":"Cái này free: gọi là rất đầy đủ không thiếu gì\nhttp://www.appbank.net/2010/05/09/iphone-application/119576.php","can_remove":false,"created_time":"2013-11-22T00:44:52+0000","like_count":3,"user_likes":false},"763968266953186":{"id":"763968266953186","from":{"id":"100005801442456","name":"An Nguyen"},"message":"","can_remove":false,"created_time":"2013-11-22T00:47:24+0000","like_count":1,"user_likes":false},"763968510286495":{"id":"763968510286495","from":{"id":"100005801442456","name":"An Nguyen"},"message":"","can_remove":false,"created_time":"2013-11-22T00:48:14+0000","like_count":2,"user_likes":false},"763970643619615":{"id":"763970643619615","from":{"id":"100000027754899","name":"Hoang Van Ba"},"message":"Đang xài chú này !!","can_remove":false,"created_time":"2013-11-22T00:55:07+0000","like_count":2,"user_likes":false},"763970843619595":{"id":"763970843619595","from":{"id":"100000027754899","name":"Hoang Van Ba"},"message":"Chú này cũng sẽ cho kết quả tương tự !!","can_remove":false,"created_time":"2013-11-22T00:56:05+0000","like_count":1,"user_likes":false},"763975306952482":{"id":"763975306952482","from":{"id":"100005801442456","name":"An Nguyen"},"message":"Tra 福澤 諭吉 này","can_remove":false,"created_time":"2013-11-22T01:08:52+0000","like_count":1,"user_likes":false},"763975370285809":{"id":"763975370285809","from":{"id":"100005801442456","name":"An Nguyen"},"message":"","can_remove":false,"created_time":"2013-11-22T01:09:21+0000","like_count":1,"user_likes":false},"763981726951840":{"id":"763981726951840","from":{"id":"100005675104683","name":"Nguyễn Hoa"},"message":"moi nguoi chi cho minh cach dung voi","can_remove":false,"created_time":"2013-11-22T01:29:01+0000","like_count":0,"user_likes":false},"764026070280739":{"id":"764026070280739","from":{"id":"100004510290091","name":"Long Hoàng"},"message":"An Nguyen: cái mà a vừa bảo nó có free đâu a. Tốn 19,99 $ mà a @@","message_tags":[{"id":"100005801442456","name":"An Nguyen","type":"user","offset":0,"length":9}],"can_remove":false,"created_time":"2013-11-22T03:37:48+0000","like_count":0,"user_likes":false},"764026483614031":{"id":"764026483614031","from":{"id":"100005801442456","name":"An Nguyen"},"message":"Cái đó tốn tiền, xài thử 12 phút! Cái Zà hú ấy nó free","can_remove":false,"created_time":"2013-11-22T03:39:09+0000","like_count":0,"user_likes":false},"764026910280655":{"id":"764026910280655","from":{"id":"100004510290091","name":"Long Hoàng"},"message":"Ok a. Tks a.","can_remove":false,"created_time":"2013-11-22T03:40:20+0000","like_count":0,"user_likes":false},"764037416946271":{"id":"764037416946271","from":{"id":"100000089472724","name":"Duy Nguyen"},"message":"nếu tiếng anh okie thì mua cái từ điển tụi nhật hay dùng,,,,,,vì ở nhật đứa nào chảng có từ điển đi theo, hy hông phai lúc nào mang theo từ điển là xấu đâu, không biết thì tra, một lần không nhớ thì 100 lần.","can_remove":false,"created_time":"2013-11-22T04:11:46+0000","like_count":0,"user_likes":false}},"paging":{"cursors":{"after":"NzYzNzAyOTAzNjQ2Mzg5","before":"NzYzNzAyOTAzNjQ2Mzg5"},"next":"https://graph.facebook.com/229244010425617_763647420318604/comments?limit=1&summary=1&after=NzYzNzAyOTAzNjQ2Mzg5"},"summary":{"order":"chronological","total_count":32}}}