{"id":"229244010425617_763707856979227","type":"status","from":{"id":"100006539223553","name":"Kỳ Nguyễn"},"message":"bác nào có địa chỉ nyukan ở shinagawa ko ạ, sáng mai mình đi làm lại giấy tờ nhưng bị mất mất địa chỉ nyukang rồi, chỉ nhớ đến shinagawa đi bus 99 thôi\ncó link google map càng tốt ạ,\nmình xin chân thành cảm ơn","created_time":"2013-11-21T17:37:33+0000","updated_time":"2013-11-22T02:38:30+0000","likes":{"data":{"100001520307352":{"id":"100001520307352","name":"Nguyen Sang"},"100004763737953":{"id":"100004763737953","name":"Fuong Ank Nguyen"},"100001920547218":{"id":"100001920547218","name":"Chester Nguyễn"}},"paging":{"cursors":{"after":"MTAwMDAxNTIwMzA3MzUy","before":"MTAwMDAxNTIwMzA3MzUy"},"next":"https://graph.facebook.com/229244010425617_763707856979227/likes?limit=1&summary=1&after=MTAwMDAxNTIwMzA3MzUy"},"summary":{"total_count":4}},"comments":{"data":{"763721970311149":{"id":"763721970311149","from":{"id":"100003763768548","name":"Nguyễn Dũng"},"message":"Đến ga shinagawa ra cửa konan guchi rồi nhẩy lên xe bus số 8 (shinagawa eki ーnyukan) điểm cuối đỗ ngay trc cửa nyukan","can_remove":false,"created_time":"2013-11-21T17:44:36+0000","like_count":1,"user_likes":false},"763722760311070":{"id":"763722760311070","from":{"id":"100006539223553","name":"Kỳ Nguyễn"},"message":"lên xe bus bbi mất khoảng bao nhiêu phút bạn biết ko ạ","can_remove":false,"created_time":"2013-11-21T17:46:29+0000","like_count":0,"user_likes":false},"763723353644344":{"id":"763723353644344","from":{"id":"100003763768548","name":"Nguyễn Dũng"},"message":"Mất 10-15' gì đó mình ko để ý lắm","can_remove":false,"created_time":"2013-11-21T17:48:09+0000","like_count":1,"user_likes":false},"763723696977643":{"id":"763723696977643","from":{"id":"100006539223553","name":"Kỳ Nguyễn"},"message":"ありがとうね","can_remove":false,"created_time":"2013-11-21T17:49:06+0000","like_count":1,"user_likes":false},"763933466956666":{"id":"763933466956666","from":{"id":"100004763737953","name":"Fuong Ank Nguyen"},"message":"Đúng hu của Nguyễn Dũng","message_tags":[{"id":"100003763768548","name":"Nguyễn Dũng","type":"user","offset":12,"length":11}],"can_remove":false,"created_time":"2013-11-21T23:04:43+0000","like_count":1,"user_likes":false},"763938316956181":{"id":"763938316956181","from":{"id":"100003763768548","name":"Nguyễn Dũng"},"message":"Thì hôm đưa e đến còn gì","can_remove":false,"created_time":"2013-11-21T23:19:17+0000","like_count":1,"user_likes":false},"764002730283073":{"id":"764002730283073","from":{"id":"100001325163284","name":"Nguyễn Thịnh"},"message":"京入国管理局\n\nhttp://goo.gl/maps/sxG2T","can_remove":false,"created_time":"2013-11-22T02:32:37+0000","like_count":1,"user_likes":false},"764004370282909":{"id":"764004370282909","from":{"id":"100006539223553","name":"Kỳ Nguyễn"},"message":"đang ngồi chờ lấy thẻ rồi\ncảm ơn mọi người nhé\nありがとうごがいます","can_remove":false,"created_time":"2013-11-22T02:38:30+0000","like_count":0,"user_likes":false}},"paging":{"cursors":{"after":"NzYzNzIxOTcwMzExMTQ5","before":"NzYzNzIxOTcwMzExMTQ5"},"next":"https://graph.facebook.com/229244010425617_763707856979227/comments?limit=1&summary=1&after=NzYzNzIxOTcwMzExMTQ5"},"summary":{"order":"chronological","total_count":9}}}