{"id":"229244010425617_763967060286640","type":"link","picture":"https://fbexternal-a.akamaihd.net/safe_image.php?d=AQBse4FsOc9bza6H&w=154&h=154&url=http%3A%2F%2Fwww.inas.gov.vn%2Ftemplates%2FDBA%2Fimages%2Fncnb.jpg","link":"http://www.inas.gov.vn/503-cac-hinh-thuc-so-sanh-trong-tieng-nhat.html","from":{"id":"100000045271667","name":"Nam Thai Nguyen"},"message":"CÁC HÌNH THỨC SO SÁNH TRONG TIẾNG NHẬT\n\nCác hình thức so sánh hay cách nói so sánh giữa cái này với cái kia, giữa việc này với việc kia về khả năng, sở thích, thời gian, mức độ v.v…trong tiếng Nhật phần lớn được sử dụng các mẫu câu để diễn tả. Ví dụ :\n\nKyôwa kinôyori atsui deusu (Hôm nay nóng hơn hôm qua).\n\nSupôtsuno nakade naniga ichiban suki deusu ka ?\n\n(Trong các môn thể thao, bạn thích môn nào nhất ?)\n\nKhi trả lời câu hỏi trên thường chỉ trả lời vế sau là “bạn thích môn nào nhất?” sakkaga ichiban suki desu. “Tôi thích nhất môn bóng đá”. Tức là chỉ cần chúng ta thay thế từ nghi vấn “nani”(môn nào) bằng “bóng đá” còn toàn bộ mẫu câu vẫn giữ nguyên. Như vậy, hình thức so sánh trong tiếng Nhật dùng các mẫu câu để diễn tả các dạng so sánh, cho nên người học cần nắm vững các dạng mẫu câu để nói, hỏi và trả lời. Nếu người học nắm chắc các dạng mẫu câu mà chúng tôi sẽ giới thiệu sau đây thì chắc chắn các bạn sẽ cảm thấy tiếng Nhật “kể ra cũng không đến nỗi …”, thậm chí khi sử dụng được sẽ cảm thấy dễ dàng và thú vị.\n\nSau đây là các dạng mẫu câu so sánh về sở thích, khả năng, mức độ…từ đơn giản đến phức tạp.\n\nI. Dùng mẫu câu\n\n1. ～は～より（も）～\n\nĐây là hình thức so sánh trạng thái này với trạng thái khác. Hình thức này thông thường không dùng dạng phủ định.\n\nVí dụ : a)　今日は昨日より暖かいです。\n\nHôm nay ấm hơn hôm qua.\n\nb)　日本語は中国語より難しいです。\n\nTiếng Nhật khó hơn tiếng Trung Quốc.\n\nc)　父は家族の中でだれよりも早く起きます\n\nBố tôi dậy sớm hơn mọi người trong gia đình.\n\nChú ý không dùng dạng phủ định : Ví dụ :\nX　バスは電車より早くないです。\n\nX　私は兄より早く起きません。\n\n2. ～より～のほう（が、を）～\n\nĐây là hình thức so sánh về sở thích, mức độ. Cái sau quan trọng hơn cái trước. Chú ý trường hợp này cũng  không dùng dạng phủ định.\n\nVí dụ :\n\na)　私は山より海のほうが好きです。\n\nTôi thích biển hơn thích núi (Tôi thích ra biển hơn lên núi).\n\nb)　私は酒よりビールの方をよく飲みます。\n\nTôi hay uống bia hơn uống rượu.\n\nc)　ベトナムでは、スーパーの品物より市場の品物の方が安い。\n\nỞ Việt Nam hàng bán ở chợ rẻ hơn hàng bán ở siêu thị.\n\n \n\nMẫu câu trên có thể đánh đổi vế từ “…yori….no hôga…” sang “…no hôga …. yori…”. Hình thức so sánh giữa hai thứ. Cái trước cao hơn cái sau. Ví dụ :\n\na)　飛行機のほうが新幹線より速い。\n\nMáy bay nhanh hơn tàu Shinkansen.\n\nb)　新幹線で行く方が、飛行機で行くより便利だ。\n\nĐi tàu Shinkansen tiện hơn đi máy bay.\n\nc)　漢字は書くことの方が、読むことより難しい。\n\nChữ Hán viết khó hơn đọc.\n\n3. ～と～と　どちら（のほう）が～\n\nHình thức này nêu ra hai trường hợp để người nghe lựa chọn. Khi trả lời thường chỉ cần trả lời vế sau, lược bớt vế trước, hoặc đồng ý cả hai thì dùng mẫu “dochiramo ….” hoặc “dochirademo….” .Vídụ :\n\na)　あなたは紅茶とコーヒーと どちらが好きですか。\n\nコーヒーの方が好きです。\n\nHồng trà và cà phê, anh thích đằng nào ?\n\nTôi thích cà phê.\n\nb)　土曜日と日曜日とどちらが都合がいいですか。\n\nどちらでもいいです。\n\nThứ bảy và chủ nhật anh rảnh hôm nào ?\n\nHai ngày đó hôm nào tôi cũng rảnh.\n\nc)　サッカーをするのと見るのとどちらが好きですか。\n\nどちらも好きです。\n\nChơi bóng đá và xem bóng đá anh thích đằng nào ?\n\nTôi thích cả hai.\n\n4. Ｎ（何、どれ）が（を）いちばん～\n\nHình thức này người nói muốn thể hiện thứ gì (loại nào) hay nhất hoặc tốt nhất trong một phạm vi nhất định. Trợ từ “de” dùng trong mẫu câu này là chỉ phạm vi. Ví dụ :\n\na) の中で、何が一番好きですか。\n\nマンゴーが一番好きです。\n\nTrong các loại hoa quả, bạn thích thứ gì nhất ? (thích nhất thứ gì?)\n\nTôi thích xoài nhất. (thích nhất xoài).\n\nb) ケーキがいろいろありますが、この中でどれが一番おいしいでしょうか。\n\nBánh gatô có nhiều loại, chị thấy loại nào ngon nhất ?\n\nc) 電話とフアクスとメールと、どれを一番よく使いますか。\n\nĐiện thoại, FAX, mail, anh thấy người ta sử dụng loại nào nhiều nhât ?\n\n5. ～にくらべて（くらべ、くらべると）\n\nHình thức này khi trình bày một việc nào đó ta có thể so sánh với việc khác để thấy sự khác nhau. Cách nói này có thể chuyển sang cách nói ở mẫu câu 1 “…wa…yori (mo)…”.\n\nVí dụ : a）今年は昨年に比べて、米の出来がいいようだ。\n\nSo với năm ngoái,hình như tình hình thu hoạch lúa năm nay khá hơn.\n\nb)　女性は男性に比べ、平均寿命が長い。\n\nNữ giới có tuổi thọ trung bình cao hơn nam giới.\n\nc)　梅は桜に比べると、咲いている時期も長く、香りもいい。\n\nHoa mai so với hoa Anh đào thì thời gian nở dài hơn, có mùi thơm hơn\n\n6. ~くらいなら～ほうが～\n\nMẫu câu này người nói muốn so sánh việc mình không muốn và muốn bày tỏ ý muốn của mình. Tất nhiên vế sau là vế người nói thấy cần thiết và mong muốn. Ví dụ :\n\na) 自由がなくなるくらいなら、一生独身でいる方がいい。\n\nNếu mất tự do thì cứ sống độc thân suốt đời còn hơn.\n\nb) あんな店長の下で働くくらいなら、転職した方がましだ。\n\nNếu phải làm việc dưới quyền ông Trưởng cửa hàng ấy thì cứ xin đổi chỗ khác còn ơn.\n\nc) こんな面倒な道具を使うくらいなら、自分の手でやった方が早い。\n\nNếu phải dùng những dụng cụ bất tiện như thế thì thà làm bằng tay còn nhanh hơn.\n\n7 .～よりも (むしろ)～\n\nHình thức này dùng để so sánh giữa X và Y (X yorimo mushiro Y ) thì Y ở mức độ ao hơn.\n\nVí dụ :\n\na) 辱めを受けるよりも、(むしろ)死んだ方がいい。\n\nThà chết còn hơn chịu nhục.\n\nb) お祭りのこむ時期には、旅行なんかするよりも、(むしろ)家でゆっくりしたい。\n\nVào mùa lễ hội thì thà ở nhà nghỉ thoải mái còn hơn đi du lịch.\n\nc) 景気はよくなるどころか、むしろ悪くなってきている。\n\nTình hình kinh tế chẳng những không tốt lên, ngược lại còn xấu đi.\n\nd) じゃましょうと思っているわけではない。むしろ君たちに協力したいと思っているのだ。\n\nKhông phải tôi định làm phiền các anh, ngược lại tôi muốn hợp tác với các anh.\n\nCâu c) và d) có thể không dùng “yorimo” mà chỉ dùng “mushiro” thì trong câu tiếng Việt có thể dịch nghĩa “mushiro” là “ngược lại”.\n\n8. ～というより（むしろ）～\n\nHình thức này dùng để so sánh cách thể hiện hoặc phán đoán về hai sự việc nào đó. Có nghĩa là cách nói X cũng được, nhưng nếu đem so sánh với Y thì cách nói Y thoả đáng hơn. Ví dụ :\n\na) 野村さんは、学校の先生というより、銀行員のようだ。\n\nAnh Nomura giống như là một cán bộ ngân hàng hơn là một giáo viên.\n\nb) この絵本は、子供向けというより、むしろ大人のために書かれたような作品だ。\n\nCuốn truyện tranh này là tác phẩm như là viết cho người lớn đúng hơn là dành cho trẻ con.\n\nc) 彼は論争を静めるためというより、自分の力を見せ付けるために発言したに過ぎない。\n\nChẳng qua anh ta phát biểu là để tỏ ra khả năng của mình, đúng hơn là để giàn hoà\n\nsự tranh luận.\n\nd) 彼女は美人というより、むしろ可愛いという感じだ。\n\nTôi cảm thấy cô ta đáng yêu hơn là một người đẹp.\n\n9. ～（より）～のほうが(よほど、（よっぽど）、ずっと、はるかに)\n\nMẫu câu này dùng trước tính từ, động từ để so sánh hai sự việc, hai trạng thái. Sự việc, trạng thái sau ở mức cao hơn nhiều so với sự việc, trạng thái trước. Ví dụ :\n\na) 真夏の日本より、インドネシアの方がよっぽど涼しかった。\n\nỞ In-đô-nê-xi-a mát hơn nhiều so với ở Nhật Bản trong mùa hè.\n\nb) 姉より、弟の方がよっぽどよく家事を手伝ってくれる。\n\nĐứa em trai giúp đỡ việc nhà còn tốt hơn nhiều so với chị gái nó.\n\nc) こんなにつらいのなら、死んだ方がよほどましだ。\n\nNếu vất vả như thế thì thà chết quách đi còn hơn.\n\nBa câu trên có thể thay thế “yohodo”hay “yoppodo” bằng “zutto” hoặc “harukani” đều có nghĩa là “hơn thế nhiều”.\n\n10. ～ほど～ない\n\nMẫu câu này dùng để so sánh hai tình trạng không khác nhau nhiều lắm.Người nói muốn nêu ra rằng tình trạng này không bằng tình trạng kia, tức là mức độ có chênh nhau theo cảm giác của người nói. Ví dụ :\n\na) 今日も風が強いです。でも、今日はきのうほど寒くないです。\n\nHôm nay gió cũng to. Nhưng hôm nay không rét bằng hôm qua.\n\nb) この町は今も人が多いですが、昔ほどにぎやかではありません。\n\nKhu phố này bây giờ cũng đông người, nhưng không đông vui bằng hồi xưa.\n\nc) このテスト問題は、あなたが考えているほど易しくないです。\n\nĐề kiểm tra này không dễ như bạn nghĩ.\n\n11. ～ほど（くらい）～Ｎはない\n\nMẫu câu “N hodo(kurai) ~ Nwa nai “thường là cách nói so sánh chủ quan của người nói về một sự việc nào đó so sánh với mức bình thường thì sự việc này nổi trội hơn cả. Mẫu câu này có thể thay “hodo” bằng “kurai”.          Ví dụ :\n\na) 困っているとき、思いやりのある友人の言葉ほどうれしいものはない。\n\nKhi gặp khó khăn không có gì vui bằng có lời động viên của bạn.\n\nb) 祖母の作る梅干ぐらいおいしいものはない。\n\nKhông có loại ô mai nào ngon bằng ô mai ông bà tôi làm.\n\nc) 夕食後、好きな音楽を聴きながら、本を読むくらい楽しいことはない。\n\nKhông có gì vui bằng sau bữa cơm tối là vừa đọc sách vừa nghe\n\nnhạc mình ưa thích.\n\nd) 妻:　暑いわねえ。\n\n夫：まったく今年の夏ほど暑い夏はないね。\n\nVợ :  Nóng quá anh nhỉ ?\n\nChồng :  Ừ ! Không có mùa hè nào nóng như năm nay.\n\nHoặc có thể dùng trong câu thể hiện tình hình khách quan :\n\na) ベトナムには富士山ほど高い山はない。\n\nỞ Việt Nam không có ngọn núi nào cao bằng núi Fuji.\n\nb) ホーチミン市にはホータイほど大きい湖はない。\n\nỞ thành phố Hồ Chí Minh không có cái hồ nào lớn như hồ Tây.\n\nc) 日本には富士山ほど高い山はほかにない。\n\nỞ Nhật Bản ngoài núi Fuji ra không còn ngọn núi nào cao được như thế.\n\nCâu c) dùng thêm “hokani” trước “nai” có nghĩa là “ngoài(ngọn núi ấy) ra không còn (ngọn núi nào) cao bằng (ngọn núi ấy) nữa.”\n\n12. ～くらい（ほど）～\n\nMẫu câu này dùng trong trường hợp người nói muốn nhấn mạnh mức độ của trạng thái ấy như thể nào. Phần lớn động từ đi trước “kurai’ thường là động từ khả năng hoặc động từ + tai (muốn…). Cách dùng giống với “hodo”, nên có thể thay thế “kurai” bằng “hodo”, nghĩa tương đương.\n\nVí dụ :\n\na) 国家試験に合格した。大声で叫びたいくらいうれしい。（「ほど」もＯＫ）\n\nTôi đã đỗ trong kỳ thi quốc gia. Tôi vui sướng dến mức muốn kêu thật to.\n\nb) 山道は子供でも歩けるくらいの緩い坂です。（「ほど」もＯＫ）\n\nĐường núi là con đường dốc thoai thoải đến trẻ con cũng đi được.\n\nc) きのうは山登りに行って、もう一歩も歩けないほど疲れました。（「くらい」もＯＫ）\n\nHôm qua, tôi đi leo núi, mệt quá đến mức không thể nhấc nổi cái chân.\n\n13.　～にもまして\n\nMẫu câu này dùng trong trường hợp muốn nói rằng : điều đó là như vậy\n\nNhưng một điều khác còn hơn thế nữa. Tiếng Việt có thể dùng từ “hơn cả” hoặc “hơn thế”… Ví dụ :\n\na) ゴミ問題は何にもまして、急を要する問題だ。\n\nVấn đề rác thải là vấn đề cấp thiết hơn tất cả các vấn đề khác.\n\nb)きのう友達が結婚すると言う手紙が来たが、それにもまして、うれしかったのは、友達の病気がすっかり治ったということだった。\n\nHôm qua tôi có thư báo tin bạn tôi sắp cưới, nhưng điều còn vui hơn thế là bệnh tật\n\ncủa bạn tôi đã khỏi hẳn.\n\nc) 日本の夏は暑い。しかし、暑さにもまして耐えがたいのは、湿度の高さだ。\n\nMùa hè ở Nhật Bản nóng. Nhưng cái khó chịu hơn cả cái nóng là độ ẩm cao.\n\n14. ～に（は）あたらない\n\nMẫu câu này được sử dụng khi người nói tỏ ý đánh giá thấp :” Cái đó không có giá trị đến mức thế đâu ! “Phần lớn được sử dụng với các động từ”ngạcnhiên”(odoroku) “khâm phục” (kanshinsuru), “đáng khen” (homeru),\n\n“tán dương”(shôsan) v.v… Ví dụ :\n\na) 彼の才能なんてたいしたことはない。驚くにあたらないと思う。\n\nAnh ta có tài cán gì đâu ! Chả đáng kinh ngạc.\n\nb) この絵は上手だけれど、有名な画家のまねのようだ。感心するには当たらない。\n\nBức tranh này được, nhưng hình như bắt chước kiểu vẽ của hoạ sĩ nổi tiếng. Không\n\nđáng khâm phục.\n\nc) 山田さんの成功の裏には親の援助があるのです。称賛には当たりません。\n\nĐằng sau sự thành công của anh Yamada có sự giúp đỡ của cha mẹ anh ta. Chả có gì\n\nđáng tán dương cả.\n\n15.　Ｖないまでも （～まではできないが、～まではできなくても）\n\nMẫu câu này dùng trong trường hợp người nói muốn diễn đạt suy nghĩ rằng: “Tuy không đạt được mức ấy, nhưng cũng đã đạt được ở mức thấp hơn”. Có nghĩa là “tối thiểu”, “ít nhất” cũng đạt được như vậy.\n\nVí dụ :\n\na) 休みごとには帰らないまでも、一週間に一回位は電話をしたらどうですか。\n\nCoi như mỗi lần được nghỉ đều không về được thì cứ mỗi tuần gọi điện thoại một lần\n\ncó được không ?\n\nb) 大会に出られないまでも、趣味としてスポーツを楽しみたい。\n\nCoi như không thể tham gia thi đấu được, tôi cứ luyện tập cho vui thôi.\n\nc) 絶対とは言えないまでも、成功する確率はかなり高いと思います。\n\nCoi như không thể nói là tuyệt đối, nhưng theo tôi khả năng thành công khá cao.\n\nII. Dùng động từ\n\n1. Dùng động từ 「にかぎる」”nikagiru” với nghĩa là “ichiban ii”(tốt nhất là…, hoặc …..là tuyệt nhất). Đây là cách nói chủ quan của người nói. Vì vậy không dùng trong trường hợp phán đoán khách quan. Cách nối tiếp có thể dùng : :Ｖる、Ｖない、Ｎ＋に限る。\n\na) 一日の仕事を終えた後は、冷えたビールに限ります。\n\nSau một ngày làm việc được uống 1 cốc bia ướp lạnh là tuyệt nhất\n\nb) 自分が悪いと思ったら、素直に謝ってしまうに限る。\n\nNếu thấy mình có lỗi thì tốt nhất là cứ thành thật xin lỗi.\n\nc) 太りたくなければ、とにかくカロリーの高いものを食べないに限る。\n\nNếu sợ béo lên thì tốt nhất là không ăn những thực phẩm chứa nhiều ca-lo.\n\n2. Dùng động từ 「すぎる」“sugiru” làm động từ bổ trợ đi sau tính từ hoặc động từ khác để so sánh với mức tiêu chuẩn bình thường thì nó vượt quá hoặc quá mức. Cách nối tiếp có thể như sau : động từ ở đoạn i, tính từ 1 cắt đuôi i + sugiru. Riêng “nai” đổi thành “nasa” + sugiru.\n\nＶ(i)，A(cđ)＋すぎる Ngoại lệ:　ない➝ なさ＋すぎる\n\nVí dụ :\n\na) このケーキはちょっと甘すぎます。\n\nChiếc bánh ga-tô này hơi ngọt quá.\n\nb) 食べすぎて、おなかがいっぱいです。\n\nNo quá vì ăn hơi nhiều.\n\nc) あの人はまじめだけれど、ユーモアがなさすぎる。\n\nAnh ta rất chăm chỉ, nhưng tính tình hơi khô khan (thiếu tính dí dỏm)\n\nnguồn:http://www.inas.gov.vn/503-cac-hinh-thuc-so-sanh-trong-tieng-nhat.html","created_time":"2013-11-22T00:43:20+0000","updated_time":"2013-11-22T17:06:51+0000","likes":{"data":[],"paging":{"cursors":{"after":"MTAwMDA0NzE2NjQwNDk1","before":"MTAwMDA0NzE2NjQwNDk1"},"next":"https://graph.facebook.com/229244010425617_763967060286640/likes?limit=1&summary=1&after=MTAwMDA0NzE2NjQwNDk1"},"summary":{"total_count":11}},"comments":{"data":{"763975316952481":{"id":"763975316952481","from":{"id":"100001416272263","name":"Mai PB"},"message":"Tiếng Việt bị xuống dòng hoặc ngắt câu sai mấy chỗ nên sai ý hoặc khó hiểu kìa.","can_remove":false,"created_time":"2013-11-22T01:08:56+0000","like_count":0,"user_likes":false},"764276260255720":{"id":"764276260255720","from":{"id":"569263718","name":"Phuong Thao Tran"},"message":"[Nếu người học nắm chắc các dạng mẫu câu mà chúng tôi sẽ giới thiệu sau đây thì chắc chắn các bạn sẽ cảm thấy tiếng Nhật “kể ra cũng không đến nỗi …”, thậm chí khi sử dụng được sẽ cảm thấy dễ dàng và thú vị.]<--- đồng ý với Nam Thai Nguyen, có thể cất làm kim chỉ nam cho các bạn muốn tiến bọ tiếng Nhật, (y)","message_tags":[{"id":"100000045271667","name":"Nam Thai Nguyen","type":"user","offset":224,"length":15}],"can_remove":false,"created_time":"2013-11-22T15:06:40+0000","like_count":0,"user_likes":false},"764278183588861":{"id":"764278183588861","from":{"id":"100000045271667","name":"Nam Thai Nguyen"},"message":"Cái này mình copy nhé. Cám ơn bạn đã view bài :D","can_remove":false,"created_time":"2013-11-22T15:10:53+0000","like_count":0,"user_likes":false},"764278773588802":{"id":"764278773588802","from":{"id":"569263718","name":"Phuong Thao Tran"},"message":"oh, thế thì mình xin rut comment lại vây, ^^","can_remove":false,"created_time":"2013-11-22T15:12:14+0000","like_count":1,"user_likes":false},"764339083582771":{"id":"764339083582771","from":{"id":"100000710451335","name":"Thiều Hoa"},"message":"Cảm ơn bạn nhiều. :d","can_remove":false,"created_time":"2013-11-22T17:06:51+0000","like_count":0,"user_likes":false}},"paging":{"cursors":{"after":"NzYzOTc1MzE2OTUyNDgx","before":"NzYzOTc1MzE2OTUyNDgx"},"next":"https://graph.facebook.com/229244010425617_763967060286640/comments?limit=1&summary=1&after=NzYzOTc1MzE2OTUyNDgx"},"summary":{"order":"chronological","total_count":5}}}