{"id":"229244010425617_764019360281410","type":"status","from":{"id":"100005801442456","name":"An Nguyen"},"message":"Trang Luyện JLPT N1 hay nè\nhttp://nichinoshi.seesaa.net/s/","created_time":"2013-11-22T03:18:29+0000","updated_time":"2013-11-22T03:40:31+0000","likes":{"data":[],"paging":{"cursors":{"after":"MTAwMDAxODEzMTc1Mzc5","before":"MTAwMDAxODEzMTc1Mzc5"},"next":"https://graph.facebook.com/229244010425617_764019360281410/likes?limit=1&summary=1&after=MTAwMDAxODEzMTc1Mzc5"},"summary":{"total_count":18}},"comments":{"data":{"764019600281386":{"id":"764019600281386","from":{"id":"100005801442456","name":"An Nguyen"},"message":"Minh chau dấu vào coi đi!","can_remove":false,"created_time":"2013-11-22T03:18:55+0000","like_count":0,"user_likes":false},"764026953613984":{"id":"764026953613984","from":{"id":"100001257093338","name":"Hanh Dang"},"message":"Hay thật! cám ơn ban nhé An Nguyen","message_tags":[{"id":"100005801442456","name":"An Nguyen","type":"user","offset":25,"length":9}],"can_remove":false,"created_time":"2013-11-22T03:40:31+0000","like_count":0,"user_likes":false}},"paging":{"cursors":{"after":"NzY0MDE5NjAwMjgxMzg2","before":"NzY0MDE5NjAwMjgxMzg2"},"next":"https://graph.facebook.com/229244010425617_764019360281410/comments?limit=1&summary=1&after=NzY0MDE5NjAwMjgxMzg2"},"summary":{"order":"chronological","total_count":2}}}