{"id":"229244010425617_764138836936129","type":"status","from":{"id":"100004076321156","name":"Hi Hi"},"message":"Nhà mình có ai đang theo học Trường Yamate (saitama) và trường TCJ (tokyo) không ạ?\nHoặc biết một số trường Nhật ngữ bên đó chất lượng, học phí hợp lí và có  uy tín trong việc giới thiệu việc làm cho du học sinh... có thể tư vấn cho em không ạ? \nCho em xin một số thông tin tham khảo vì em đang có ý định du học vào tháng 4 năm sau\nXin chân thành cảm ơn :)","created_time":"2013-11-22T09:36:54+0000","updated_time":"2013-11-22T13:59:37+0000","likes":{"data":{"100005801442456":{"id":"100005801442456","name":"An Nguyen"}},"paging":{"cursors":{"after":"MTAwMDA1ODAxNDQyNDU2","before":"MTAwMDA1ODAxNDQyNDU2"}},"summary":{"total_count":2}},"comments":{"data":{"764160536933959":{"id":"764160536933959","from":{"id":"100001570773655","name":"Hoàng A Chang"},"message":"Đừng theo tcj nha","can_remove":false,"created_time":"2013-11-22T10:34:57+0000","like_count":0,"user_likes":false},"764160643600615":{"id":"764160643600615","from":{"id":"100001570773655","name":"Hoàng A Chang"},"message":"K gt việc chỉ quan tâm đến money thôi","can_remove":false,"created_time":"2013-11-22T10:35:27+0000","like_count":0,"user_likes":false},"764165723600107":{"id":"764165723600107","from":{"id":"100005934548279","name":"Cậu Bé Buồn"},"message":"học tốt tiếng ở nhà thì sang đây đỡ vất vả.....cứ học tốt tiếng rồi tính tiếp","can_remove":false,"created_time":"2013-11-22T10:50:05+0000","like_count":0,"user_likes":false},"764243640258982":{"id":"764243640258982","from":{"id":"100001754136107","name":"Nguyễn Tuấn Vũ"},"message":"Tung Doan Quang: đề nghị bạn viết có dấu nhé","message_tags":[{"id":"100002695973526","name":"Tung Doan Quang","type":"user","offset":0,"length":15}],"can_remove":false,"created_time":"2013-11-22T13:59:37+0000","like_count":0,"user_likes":false}},"paging":{"cursors":{"after":"NzY0MTYwNTM2OTMzOTU5","before":"NzY0MTYwNTM2OTMzOTU5"},"next":"https://graph.facebook.com/229244010425617_764138836936129/comments?limit=1&summary=1&after=NzY0MTYwNTM2OTMzOTU5"},"summary":{"order":"chronological","total_count":6}}}