{"id":"229244010425617_764228323593847","type":"status","from":{"id":"100002375957254","name":"Ladius Golden Luceria"},"message":"Em muốn học tiếng nhật để xem anime hay đọc manga, chơi gal-game. Vậy em nên học từ đâu ạ.","created_time":"2013-11-22T13:24:43+0000","updated_time":"2013-11-22T17:03:51+0000","likes":{"data":{"100005768796195":{"id":"100005768796195","name":"Chín Ô Vuông"},"100000322696747":{"id":"100000322696747","name":"Hàn Diện Băng Tâm"}},"paging":{"cursors":{"after":"MTAwMDA1NzY4Nzk2MTk1","before":"MTAwMDA1NzY4Nzk2MTk1"},"next":"https://graph.facebook.com/229244010425617_764228323593847/likes?limit=1&summary=1&after=MTAwMDA1NzY4Nzk2MTk1"},"summary":{"total_count":2}},"comments":{"data":{"764228993593780":{"id":"764228993593780","from":{"id":"100003634822576","name":"Jessica Lam Phuong"},"message":"Bảng chữ cái hiragana và katakana trước","can_remove":false,"created_time":"2013-11-22T13:26:55+0000","like_count":0,"user_likes":false},"764229323593747":{"id":"764229323593747","from":{"id":"550401589","name":"Cuong Cao"},"message":"Học từ nc Nhật :))","can_remove":false,"created_time":"2013-11-22T13:28:03+0000","like_count":0,"user_likes":false},"764229540260392":{"id":"764229540260392","from":{"id":"100000110601676","name":"장미"},"message":"xin lỗi chứ bạn có đủ kiên nhẫn ko, khó gấp vài lần tiếng anh nhé","can_remove":false,"created_time":"2013-11-22T13:28:45+0000","like_count":0,"user_likes":false},"764229543593725":{"id":"764229543593725","from":{"id":"100002375957254","name":"Ladius Golden Luceria"},"message":":v câu trả lời của anh làm em muốn sặc","can_remove":false,"created_time":"2013-11-22T13:28:45+0000","like_count":1,"user_likes":false},"764230146926998":{"id":"764230146926998","from":{"id":"100002375957254","name":"Ladius Golden Luceria"},"message":"Kiên nhẫn thừa ùi :v","can_remove":false,"created_time":"2013-11-22T13:30:12+0000","like_count":1,"user_likes":false},"764230656926947":{"id":"764230656926947","from":{"id":"100001754136107","name":"Nguyễn Tuấn Vũ"},"message":"nếu bạn có một chút vốn tiếng nhật thi mình khuyên bạn học theo cái bạn thích, bạn đam mê.","can_remove":false,"created_time":"2013-11-22T13:30:56+0000","like_count":1,"user_likes":false},"764231123593567":{"id":"764231123593567","from":{"id":"550401589","name":"Cuong Cao"},"message":"A nói thật, a ở Nhật nửa năm mà còn ngơ đây =))","can_remove":false,"created_time":"2013-11-22T13:31:34+0000","like_count":1,"user_likes":false},"764231736926839":{"id":"764231736926839","from":{"id":"100002375957254","name":"Ladius Golden Luceria"},"message":"mới đọc xong bảng hiragana bạn kia nói thì thuộc sơ sơ 15 kí tự ùi","can_remove":false,"created_time":"2013-11-22T13:32:34+0000","like_count":0,"user_likes":false},"764231886926824":{"id":"764231886926824","from":{"id":"100002375957254","name":"Ladius Golden Luceria"},"message":"=))","can_remove":false,"created_time":"2013-11-22T13:32:58+0000","like_count":0,"user_likes":false},"764232813593398":{"id":"764232813593398","from":{"id":"100001754136107","name":"Nguyễn Tuấn Vũ"},"message":"Thím Bảy: tự ti thế, nếu mà biết đọc hiểu như thế thì t tin bạn cũng nói đc tương đối rồi. \n p/s: từ ngữ cho trong ngoặc kép nhé","message_tags":[{"id":"100000787934403","name":"Thím Bảy","type":"user","offset":0,"length":8}],"can_remove":false,"created_time":"2013-11-22T13:35:10+0000","like_count":0,"user_likes":false},"764233676926645":{"id":"764233676926645","from":{"id":"100002375957254","name":"Ladius Golden Luceria"},"message":"nói thật chứ em cũng thích nhiều cái bên nhật và ước mơ lớn nhất là cưới vợ nhật =))","can_remove":false,"created_time":"2013-11-22T13:36:50+0000","like_count":0,"user_likes":false},"764235270259819":{"id":"764235270259819","from":{"id":"100002453747497","name":"Tháo Thố"},"message":"thừa kiên nhẫn và đã học hết bảng chữ cái Hira =)) Thôi bạn cứ học tiếp đi =)) mình cũng là fan manga nhưng ko có ước mơ lớn lao lấy chồng Nhật :))","can_remove":false,"created_time":"2013-11-22T13:38:11+0000","like_count":0,"user_likes":false},"764236026926410":{"id":"764236026926410","from":{"id":"100003634822576","name":"Jessica Lam Phuong"},"message":"Có ai có cách học hira và kata hay ko","can_remove":false,"created_time":"2013-11-22T13:39:35+0000","like_count":0,"user_likes":false},"764236046926408":{"id":"764236046926408","from":{"id":"550401589","name":"Cuong Cao"},"message":"E cứ ước mơ đi, a chỉ thích con gái Việt :))","can_remove":false,"created_time":"2013-11-22T13:39:38+0000","like_count":1,"user_likes":false},"764236280259718":{"id":"764236280259718","from":{"id":"100004776940538","name":"Kendy Lee"},"message":"Mút chỉ mới đọc + xem hiểu em nhé !","can_remove":false,"created_time":"2013-11-22T13:40:11+0000","like_count":1,"user_likes":false},"764236690259677":{"id":"764236690259677","from":{"id":"100002453747497","name":"Tháo Thố"},"message":"mình chốt 1 câu vs những bạn hỏi cách học bảng chữ cái: học đi ==","can_remove":false,"created_time":"2013-11-22T13:40:58+0000","like_count":4,"user_likes":false},"764236893592990":{"id":"764236893592990","from":{"id":"550401589","name":"Cuong Cao"},"message":"Hiragana & Katana thì kantan, học đi, đừng hỏi :))","can_remove":false,"created_time":"2013-11-22T13:41:39+0000","like_count":0,"user_likes":false},"764237016926311":{"id":"764237016926311","from":{"id":"100000110601676","name":"장미"},"message":"Tháo Thố bạn học chuyên ngành tiếng nhật ftu à","message_tags":[{"id":"100002453747497","name":"Tháo Thố","type":"user","offset":0,"length":8}],"can_remove":false,"created_time":"2013-11-22T13:41:49+0000","like_count":0,"user_likes":false},"764237560259590":{"id":"764237560259590","from":{"id":"100002453747497","name":"Tháo Thố"},"message":"ko, mình học chuyên ngành Tiếng Anh nhưng le ve học được chút Tiếng Nhật :D","can_remove":false,"created_time":"2013-11-22T13:42:22+0000","like_count":1,"user_likes":false},"764237803592899":{"id":"764237803592899","from":{"id":"100000425556503","name":"Tan Truong"},"message":"=)) vãi hà,bạn Ladius Golden Luceria có cùng ước mơ với mình rồi =))","message_tags":[{"id":"100002375957254","name":"Ladius Golden Luceria","type":"user","offset":15,"length":21}],"can_remove":false,"created_time":"2013-11-22T13:42:47+0000","like_count":0,"user_likes":false},"764238916926121":{"id":"764238916926121","from":{"id":"100004360751785","name":"Hà Nguyễn"},"message":"chia sẻ thật là bạn nên theo 1 lớp sơ cấp, có 1 chút vốn liếng r thì bạn có thể học những gì bạn thích","can_remove":false,"created_time":"2013-11-22T13:45:47+0000","like_count":4,"user_likes":false},"764261023590577":{"id":"764261023590577","from":{"id":"100003700084315","name":"Trầm Luân"},"message":"muốn tự học để xem anime thì hơi bị lâu nhé -_-","can_remove":false,"created_time":"2013-11-22T14:30:42+0000","like_count":0,"user_likes":false},"764333080250038":{"id":"764333080250038","from":{"id":"100003134014076","name":"Quyên Phan"},"message":"bên nhật có manga cho bọn trẻ con ko nhỉ :3","can_remove":false,"created_time":"2013-11-22T16:52:18+0000","like_count":0,"user_likes":false},"764333286916684":{"id":"764333286916684","from":{"id":"100002453747497","name":"Tháo Thố"},"message":":| Kodomo Manga bạn ơi :|","can_remove":false,"created_time":"2013-11-22T16:52:52+0000","like_count":1,"user_likes":false},"764333896916623":{"id":"764333896916623","from":{"id":"100003134014076","name":"Quyên Phan"},"message":"kiếm ở đâu bạn :3 , mình đang học n5 , hi, kiếm cái gì dễ dễ đọc","can_remove":false,"created_time":"2013-11-22T16:54:17+0000","like_count":0,"user_likes":false},"764337950249551":{"id":"764337950249551","from":{"id":"100002453747497","name":"Tháo Thố"},"message":"mình thường GG raw manga thôi bạn ạ","can_remove":false,"created_time":"2013-11-22T17:03:51+0000","like_count":0,"user_likes":false}},"paging":{"cursors":{"after":"NzY0MjI4OTkzNTkzNzgw","before":"NzY0MjI4OTkzNTkzNzgw"},"next":"https://graph.facebook.com/229244010425617_764228323593847/comments?limit=1&summary=1&after=NzY0MjI4OTkzNTkzNzgw"},"summary":{"order":"chronological","total_count":29}}}