{"id":"229244010425617_764283000255046","type":"status","from":{"id":"569263718","name":"Phuong Thao Tran"},"message":"「雨がざあざあふる」の「ざあざあ」や、「犬がワンワンほえる」の「ワンワン」のように、音や声を直接表す言葉を「擬音語」（または「擬声語」）といいます。\n\nまた、「星がきらきらひかる」の「きらきら」や、「ふらふら歩く」の「ふらふら」のように、ものや人のようすを直接表すことばを「擬態語」といいます。\n\n日本語には、このような【擬音語】・【擬態語】がたくさんありますが、皆さん、これについて、いかがでしょうか、興味を持っていますか。。。","created_time":"2013-11-22T15:23:45+0000","updated_time":"2013-11-23T14:22:15+0000","likes":{"data":{"100002841590856":{"id":"100002841590856","name":"Dai Do Binh"},"100004253979918":{"id":"100004253979918","name":"Louis Hoàng Văn Thái"},"100003926853498":{"id":"100003926853498","name":"Bạch Ngọc Tuân"},"100001324611896":{"id":"100001324611896","name":"Meo Luoi"}},"paging":{"cursors":{"after":"MTAwMDAyODQxNTkwODU2","before":"MTAwMDAyODQxNTkwODU2"},"next":"https://graph.facebook.com/229244010425617_764283000255046/likes?limit=1&summary=1&after=MTAwMDAyODQxNTkwODU2"},"summary":{"total_count":6}},"comments":{"data":{"764286140254732":{"id":"764286140254732","from":{"id":"100002453747497","name":"Tháo Thố"},"message":"http://www.studyjapanese.net/2011/09/giongo-gitaigo-cuon-sach-giup-ban-nang.html","can_remove":false,"created_time":"2013-11-22T15:31:57+0000","like_count":4,"user_likes":false},"764287236921289":{"id":"764287236921289","from":{"id":"569263718","name":"Phuong Thao Tran"},"message":"tuyệt vời bạn Tháo Thố","message_tags":[{"id":"100002453747497","name":"Tháo Thố","type":"user","offset":14,"length":8}],"can_remove":false,"created_time":"2013-11-22T15:34:41+0000","like_count":0,"user_likes":false},"764291736920839":{"id":"764291736920839","from":{"id":"100002453747497","name":"Tháo Thố"},"message":"vừa đọc vừa cố trans sang TV hay phết :))","can_remove":false,"created_time":"2013-11-22T15:39:49+0000","like_count":1,"user_likes":false},"764709480212398":{"id":"764709480212398","from":{"id":"569263718","name":"Phuong Thao Tran"},"message":"Phạm Hoàng Sơn日本語は難しいですが、面白いです。。。^_^","message_tags":[{"id":"100000200962354","name":"Phạm Hoàng Sơn","type":"user","offset":0,"length":14}],"can_remove":false,"created_time":"2013-11-23T08:57:23+0000","like_count":0,"user_likes":false},"764780703538609":{"id":"764780703538609","from":{"id":"100001416272263","name":"Mai PB"},"message":"Trong group cũng có mấy link về các từ này. Còn cái link ở trên, thực ra là vi phạm bản quyền nên お勧めしません。","can_remove":false,"created_time":"2013-11-23T12:27:04+0000","like_count":0,"user_likes":false},"764826360200710":{"id":"764826360200710","from":{"id":"569263718","name":"Phuong Thao Tran"},"message":"優しいぃ。。。なぁ。。。","can_remove":false,"created_time":"2013-11-23T14:22:15+0000","like_count":0,"user_likes":false}},"paging":{"cursors":{"after":"NzY0Mjg2MTQwMjU0NzMy","before":"NzY0Mjg2MTQwMjU0NzMy"},"next":"https://graph.facebook.com/229244010425617_764283000255046/comments?limit=1&summary=1&after=NzY0Mjg2MTQwMjU0NzMy"},"summary":{"order":"chronological","total_count":7}}}