{"id":"229244010425617_764293643587315","type":"video","picture":"https://fbexternal-a.akamaihd.net/safe_image.php?d=AQBbDdndmxmK41VS&w=130&h=130&url=http%3A%2F%2Fi1.ytimg.com%2Fvi%2FTW0P5PM-ZH0%2Fhqdefault.jpg","link":"http://www.youtube.com/watch?v=TW0P5PM-ZH0&list=PLAhx2XOq4JzKfT81930rG5y_6ECC_9opB","source":"http://www.youtube.com/v/TW0P5PM-ZH0?version=3&list=PLAhx2XOq4JzKfT81930rG5y_6ECC_9opB&autoplay=1","from":{"id":"100001416272263","name":"Mai PB"},"message":"Nếu mọi người gọi Teresa Teng (Đặng Lệ Quân) là ca sĩ Đài Loan thì không đúng hoàn toàn, bởi vì sự nghiệp của cô lên đỉnh điểm là ở Nhật Bản, hát nhiều bài hát nổi tiếng toàn châu Á cũng nhờ các bài hát tiếng Nhật do người Nhật sáng tác và produce. Cô đã đạt kỷ lục là ca sĩ đầu tiên mà 3 năm liên tục đoạt giải thưởng lớn nhất của 1 trong những cuộc thi âm nhạc lớn nhất nước Nhật là 日本有線大賞. Cô rất được hâm mộ ở Nhật, đến nỗi nhiều người Nhật vẫn còn hận chính phủ Nhật cấm ca sĩ này nhập cảnh Nhật sau một vụ scandal hộ chiếu giả. :-) Nhưng luật là luật mà.\n\nMọi người nghe bài hát nổi tiếng này xem cô ấy hát tiếng Nhật thế nào? Không có bản tiếng Trung nên fan Đài Loan cũng phải nghe tiếng Nhật thôi. ;-)\nhttp://www.youtube.com/watch?v=TW0P5PM-ZH0","created_time":"2013-11-22T15:41:35+0000","updated_time":"2013-11-23T01:39:17+0000","likes":{"data":{"100006387723695":{"id":"100006387723695","name":"Hoa Minh"},"100003792155259":{"id":"100003792155259","name":"Nam Nguyen"},"100004642933206":{"id":"100004642933206","name":"Aloha Aloha"},"100006882392587":{"id":"100006882392587","name":"Vũ Vũ"},"100004360751785":{"id":"100004360751785","name":"Hà Nguyễn"},"100000226646981":{"id":"100000226646981","name":"My Nguyen"},"100005694491959":{"id":"100005694491959","name":"Phuong Truong Thi Thanh"},"100001723862714":{"id":"100001723862714","name":"Bo Bien Vang"},"1185693985":{"id":"1185693985","name":"Lee Mon"},"100001257093338":{"id":"100001257093338","name":"Hanh Dang"},"1437470255":{"id":"1437470255","name":"珠愛"},"100002959594535":{"id":"100002959594535","name":"Nguyen Ngoc Anh"},"100004253979918":{"id":"100004253979918","name":"Louis Hoàng Văn Thái"},"569263718":{"id":"569263718","name":"Phuong Thao Tran"},"1821970083":{"id":"1821970083","name":"Nguyễn Mạnh Cường"},"100004354509874":{"id":"100004354509874","name":"Khanh Linh"},"100001754136107":{"id":"100001754136107","name":"Nguyễn Tuấn Vũ"},"100000207685227":{"id":"100000207685227","name":"Glou Mai"},"655982125":{"id":"655982125","name":"Le Thi Nga My"},"100003956124579":{"id":"100003956124579","name":"Cua Bướng Bỉnh"},"100004319231704":{"id":"100004319231704","name":"Tam Do"},"100003998925054":{"id":"100003998925054","name":"Ngân Sandra"},"100006009612602":{"id":"100006009612602","name":"Naru Katori"},"1303327291":{"id":"1303327291","name":"Nguyễn Thanh Tùng"},"100001359798024":{"id":"100001359798024","name":"November Gi"},"100005478454231":{"id":"100005478454231","name":"Maruko Chan"},"100002898154513":{"id":"100002898154513","name":"Gã Shrek"},"100004965272241":{"id":"100004965272241","name":"Cỏ Nhỏ"}},"paging":{"cursors":{"after":"MTAwMDA2Mzg3NzIzNjk1","before":"MTAwMDA2Mzg3NzIzNjk1"},"next":"https://graph.facebook.com/229244010425617_764293643587315/likes?limit=1&summary=1&after=MTAwMDA2Mzg3NzIzNjk1"},"summary":{"total_count":29}},"comments":{"data":{"764294416920571":{"id":"764294416920571","from":{"id":"100004965272241","name":"Cỏ Nhỏ"},"message":"cháu thích cô này ạ :3","can_remove":false,"created_time":"2013-11-22T15:42:51+0000","like_count":1,"user_likes":false},"764295806920432":{"id":"764295806920432","from":{"id":"100001416272263","name":"Mai PB"},"message":"Quên không nói, chính phủ Trung Quốc nói chung không thích cô ca sĩ này vì cô cổ vũ cho dân chủ. Các fan người TQ phải nghe lén bài hát Nhật (lại còn thế nữa, Nhật luôn bị TQ coi là kẻ thù), thật đáng thương. ;-)","can_remove":false,"created_time":"2013-11-22T15:46:23+0000","like_count":2,"user_likes":false},"764302880253058":{"id":"764302880253058","from":{"id":"100004965272241","name":"Cỏ Nhỏ"},"message":"và Nhật cũng đang ghét TQ đúng k ạ? :v","can_remove":false,"created_time":"2013-11-22T15:53:20+0000","like_count":1,"user_likes":false},"764315583585121":{"id":"764315583585121","from":{"id":"569263718","name":"Phuong Thao Tran"},"message":"彼女の声は川の流れのように...^^","can_remove":false,"created_time":"2013-11-22T16:13:09+0000","like_count":1,"user_likes":false},"764322423584437":{"id":"764322423584437","from":{"id":"569263718","name":"Phuong Thao Tran"},"message":"bài つぐない, có version tiếng Việt là gì ta...","can_remove":false,"created_time":"2013-11-22T16:28:56+0000","like_count":0,"user_likes":false},"764532313563448":{"id":"764532313563448","from":{"id":"100004923553810","name":"Xuan KY Nguyen"},"message":"bài hát rất hay,,,cảm ỏn anh Mai PB","message_tags":[{"id":"100001416272263","name":"Mai PB","type":"user","offset":34,"length":6}],"can_remove":false,"created_time":"2013-11-23T00:16:42+0000","like_count":1,"user_likes":false},"764559183560761":{"id":"764559183560761","from":{"id":"100000442929887","name":"Mike Yi"},"message":"Đính chính chút xíu nhé.Cô này nổi tiếng là nhờ bài hát \"tian mi mi \" và được mời đến nhật biểu diễn.http://www.youtube.com/watch?v=Ppccxy4YyKg","can_remove":false,"created_time":"2013-11-23T01:27:09+0000","like_count":1,"user_likes":false},"764564490226897":{"id":"764564490226897","from":{"id":"100005694491959","name":"Phuong Truong Thi Thanh"},"message":"http://www.youtube.com/watch?v=7plipwL2jb4","can_remove":false,"created_time":"2013-11-23T01:39:17+0000","like_count":1,"user_likes":false}},"paging":{"cursors":{"after":"NzY0Mjk0NDE2OTIwNTcx","before":"NzY0Mjk0NDE2OTIwNTcx"},"next":"https://graph.facebook.com/229244010425617_764293643587315/comments?limit=1&summary=1&after=NzY0Mjk0NDE2OTIwNTcx"},"summary":{"order":"chronological","total_count":9}}}