{"id":"229244010425617_764273196922693","type":"status","from":{"id":"100000199700717","name":"Kin Tran Dll"},"message":"có ai đã từng  học ở trường kanazawa theo dạng trao đổi sv ko, mình muốn đk đi du học ở trường đó mà ko bit xin học bổng ở trường có khó không nữa. thấy lo lo :((( trường yêu cầu tiếng anh phải tốt mà mình chưa có cái bằng tiếng anh nào, mới có n2 thôi. khả năng đậu có cao ko. vì nếu mình dk học bổng này sẽ ko đc dk học bổng khác nữa nên mình phân vân. các bạn có lời khuyên nào thì chô mình với. thanks ^^","created_time":"2013-11-22T14:59:55+0000","updated_time":"2013-11-23T02:54:54+0000","likes":{"data":{"100001637318798":{"id":"100001637318798","name":"Kora Kora"},"100006785050169":{"id":"100006785050169","name":"Quỳnh Arashi"},"100006954194052":{"id":"100006954194052","name":"PhuongHoa Nguyen"},"100000960252631":{"id":"100000960252631","name":"Takumi Tuan"}},"paging":{"cursors":{"after":"MTAwMDAxNjM3MzE4Nzk4","before":"MTAwMDAxNjM3MzE4Nzk4"},"next":"https://graph.facebook.com/229244010425617_764273196922693/likes?limit=1&summary=1&after=MTAwMDAxNjM3MzE4Nzk4"},"summary":{"total_count":4}},"comments":{"data":{"764277993588880":{"id":"764277993588880","from":{"id":"100000199700717","name":"Kin Tran Dll"},"message":"Takumi Tuan đừng có giưỡn mặt vs senbai.  xem lại cách ăn nói vs các anh các chị của e đi. e đừng thấy ko ai nói thì nghĩ răng cách nc của mình hay, cái đó chỉ phù hợp khi e nc vs bạn bè thôi.","message_tags":[{"id":"100000960252631","name":"Takumi Tuan","type":"user","offset":0,"length":11}],"can_remove":false,"created_time":"2013-11-22T15:10:28+0000","like_count":0,"user_likes":false},"764318986918114":{"id":"764318986918114","from":{"id":"100000199700717","name":"Kin Tran Dll"},"message":"xin học bổng theo diện trao đôi sv của dh kanazawa, mình mún hỏi có ai đã từng xin hb này chưa và xin nó có khó ko.","can_remove":false,"created_time":"2013-11-22T16:21:09+0000","like_count":0,"user_likes":false},"764320336917979":{"id":"764320336917979","from":{"id":"100000199700717","name":"Kin Tran Dll"},"message":"đi theo iện này dc miễn hp phải ko bạn? mình đi theo ct A, xin hb JASSO nữa. vậy nếu chọn các ngành về hành chính nhà nước thì tỉ lệ đậu sẽ cao đúng hk :))","can_remove":false,"created_time":"2013-11-22T16:24:42+0000","like_count":0,"user_likes":false},"764321873584492":{"id":"764321873584492","from":{"id":"100000199700717","name":"Kin Tran Dll"},"message":"vào rồi mới đk chứ. dành cho năm 3 vs năm 4. nhưng mà học ở đó thì mình chọn thêm 1 ngành để học trừ tiếng nhật ra mà.","can_remove":false,"created_time":"2013-11-22T16:27:25+0000","like_count":0,"user_likes":false},"764592900224056":{"id":"764592900224056","from":{"id":"100000199700717","name":"Kin Tran Dll"},"message":"thanks nhé ^^","can_remove":false,"created_time":"2013-11-23T02:54:54+0000","like_count":0,"user_likes":false}},"paging":{"cursors":{"after":"NzY0Mjc3OTkzNTg4ODgw","before":"NzY0Mjc3OTkzNTg4ODgw"},"next":"https://graph.facebook.com/229244010425617_764273196922693/comments?limit=1&summary=1&after=NzY0Mjc3OTkzNTg4ODgw"},"summary":{"order":"chronological","total_count":5}}}