{"id":"229244010425617_764214610261885","type":"status","from":{"id":"100006715147567","name":"Hoa Ngo"},"message":"mọi ng ui mình mới học tiếng nhật đc gần 3 tháng và bắt đầu học chữ hán nhưng giáo viên k dạy nhìu chỉ nói qua và bảo về tự học và tập viết nhưng mình không thể nhớ đc ai có phương pháp học j có thể học tốt đc hãy giúp mình nha. Cảm ơn các bạn rất nhìu","created_time":"2013-11-22T12:50:09+0000","updated_time":"2013-11-22T14:07:28+0000","likes":{"data":{"100004253979918":{"id":"100004253979918","name":"Louis Hoàng Văn Thái"},"100001919817742":{"id":"100001919817742","name":"Canh Nguyen Minh"}},"paging":{"cursors":{"after":"MTAwMDA0MjUzOTc5OTE4","before":"MTAwMDA0MjUzOTc5OTE4"},"next":"https://graph.facebook.com/229244010425617_764214610261885/likes?limit=1&summary=1&after=MTAwMDA0MjUzOTc5OTE4"},"summary":{"total_count":2}},"comments":{"data":{"764229070260439":{"id":"764229070260439","from":{"id":"100001754136107","name":"Nguyễn Tuấn Vũ"},"message":"bạn có thể xem qua trong này\nhttps://www.facebook.com/groups/CongdongVietNhat/permalink/748947685121911/","can_remove":false,"created_time":"2013-11-22T13:27:19+0000","like_count":1,"user_likes":false},"764236566926356":{"id":"764236566926356","from":{"id":"100004368162869","name":"Yenthuy Le"},"message":"mua cuốn 24 quy tắc học tiếng nhật ... học kanji rất hiệu quả ... hoặc cách hiệu quả hơn là nhìn văn bản và ttra từ điển xem cách đọc , nhìn hoài quen mắt sẽ nhớ","can_remove":false,"created_time":"2013-11-22T13:40:40+0000","like_count":0,"user_likes":false},"764237336926279":{"id":"764237336926279","from":{"id":"100006715147567","name":"Hoa Ngo"},"message":"thank mọi ng nhiều a","can_remove":false,"created_time":"2013-11-22T13:42:12+0000","like_count":0,"user_likes":false},"764240360259310":{"id":"764240360259310","from":{"id":"100004360751785","name":"Hà Nguyễn"},"message":"bạn ơi thử tìm cuốn kanji look and learn học theo đi, có giải thích, hình ảnh liên tưởng , có bài tập vận dụng luôn. tớ thấy hay lắm","can_remove":false,"created_time":"2013-11-22T13:50:14+0000","like_count":0,"user_likes":false},"764244393592240":{"id":"764244393592240","from":{"id":"100004479192798","name":"Đại Màn Thầu"},"message":"viết nhiều thật nhiều mỗi từ 50 lần thì sẽ nhớ!","can_remove":false,"created_time":"2013-11-22T14:01:37+0000","like_count":0,"user_likes":false},"764244746925538":{"id":"764244746925538","from":{"id":"100006715147567","name":"Hoa Ngo"},"message":"trơì mỗi lần cô giao 10 có nghĩa là viết 500 lần đó..........ó","can_remove":false,"created_time":"2013-11-22T14:02:42+0000","like_count":0,"user_likes":false},"764246446925368":{"id":"764246446925368","from":{"id":"100001754136107","name":"Nguyễn Tuấn Vũ"},"message":"Hoa Ngo: Người nhật cũng viết nhiều rồi nhớ đấy bạn, họ đi học cung thường viết từng chữ một, dần dần cũng thuộc, quen","message_tags":[{"id":"100006715147567","name":"Hoa Ngo","type":"user","offset":0,"length":7}],"can_remove":false,"created_time":"2013-11-22T14:05:06+0000","like_count":0,"user_likes":false},"764249513591728":{"id":"764249513591728","from":{"id":"100004479192798","name":"Đại Màn Thầu"},"message":"thì còn cách nào khác đâu bạn cứ viết nhiều thuộc chữ nào bạn ghi vào mảnh giấy nhỏ 5*5 mm ngày nào cũng bỏ ra đọc và xem một vài lần như thế sẽ ko quên!","can_remove":false,"created_time":"2013-11-22T14:07:28+0000","like_count":0,"user_likes":false}},"paging":{"cursors":{"after":"NzY0MjI5MDcwMjYwNDM5","before":"NzY0MjI5MDcwMjYwNDM5"},"next":"https://graph.facebook.com/229244010425617_764214610261885/comments?limit=1&summary=1&after=NzY0MjI5MDcwMjYwNDM5"},"summary":{"order":"chronological","total_count":8}}}