{"id":"229244010425617_764469436903069","type":"status","from":{"id":"100005801442456","name":"An Nguyen"},"message":"Đổi không khí đi! Toàn nghe nhạc Nhật! Hôm nay nghe bài nhạc Việt cái nhể^^\n\nMỗi khi cô đơn hay cảm thấy cuộc sống bế tắt thì mình thường nghe bài này! \n\nNhững câu lời của nó bạn có thấy giống hoàn cảnh của bản thân chứ? Ngày trước cũng nghĩ du học nó sướng lắm cơ, nhưng rồi... Sướng thật!!! Cảm thấy mình lớn hơn, sẹo sọ cuộc đời cũng chằng chịt hơn, hơn thế nữa luôn cảm thấy mạnh mẽ hơn rất nhiều mỗi khi vấp ngã và lại đứng lên, dù có đau nhưng quan trọng vẫn không bao giờ vì nó mà bỏ rơi tuổi trẻ...\n\n\"Sao quên mau những suy nghĩ ban đầu..Khi tôi còn trẻ.\"....\n\n...\"Sao tôi buông tay khi đời dở dang\n\nSao không đi đến hết cuối con đường \n\nHay tôi đã già?\"...\n\n\"Những tháng năm dài trôi thả như mây\n\nTôi đâu thấy nắng hồng như giấc mơ\n\nKhác xa những mong chờ.\"\n.......\n\nhttp://m.youtube.com/watch?v=YMiWD6qx5-Y","created_time":"2013-11-22T21:36:21+0000","updated_time":"2013-11-23T13:07:42+0000","likes":{"data":{"100003342368904":{"id":"100003342368904","name":"Truong Hanuyen"},"100006779201767":{"id":"100006779201767","name":"Yuki No Hana"},"100001458099624":{"id":"100001458099624","name":"Kham Pha"},"100002871405403":{"id":"100002871405403","name":"Thach Sanh"},"100004253979918":{"id":"100004253979918","name":"Louis Hoàng Văn Thái"},"100005387051072":{"id":"100005387051072","name":"Nguyễn Vinh Việt"},"100002932607957":{"id":"100002932607957","name":"Phạm Thơm"},"100001416272263":{"id":"100001416272263","name":"Mai PB"},"100002916376886":{"id":"100002916376886","name":"Thủy Bee"},"100003005597243":{"id":"100003005597243","name":"Zany Royal"},"100005495773832":{"id":"100005495773832","name":"Hiền Vũ"},"100000219148071":{"id":"100000219148071","name":"Anh Còi"},"1616974500":{"id":"1616974500","name":"Duong Lien"},"1146680551":{"id":"1146680551","name":"優しい なぁ"},"100004091855427":{"id":"100004091855427","name":"Đào Anh Hoàng"},"100000492998065":{"id":"100000492998065","name":"か とり"},"100000359762118":{"id":"100000359762118","name":"Mi Tra"},"100005061421918":{"id":"100005061421918","name":"Thương Xì Ke"},"1821970083":{"id":"1821970083","name":"Nguyễn Mạnh Cường"},"100003005273179":{"id":"100003005273179","name":"Hoang Dat"},"100000027754899":{"id":"100000027754899","name":"Hoang Van Ba"}},"paging":{"cursors":{"after":"MTAwMDAzMzQyMzY4OTA0","before":"MTAwMDAzMzQyMzY4OTA0"},"next":"https://graph.facebook.com/229244010425617_764469436903069/likes?limit=1&summary=1&after=MTAwMDAzMzQyMzY4OTA0"},"summary":{"total_count":21}},"comments":{"data":{"764470063569673":{"id":"764470063569673","from":{"id":"100000045271667","name":"Nam Thai Nguyen"},"message":"Bài gì thế An","can_remove":false,"created_time":"2013-11-22T21:38:01+0000","like_count":0,"user_likes":false},"764470910236255":{"id":"764470910236255","from":{"id":"100005801442456","name":"An Nguyen"},"message":"Link kìa😋","can_remove":false,"created_time":"2013-11-22T21:38:55+0000","like_count":0,"user_likes":false},"764471576902855":{"id":"764471576902855","from":{"id":"100000045271667","name":"Nam Thai Nguyen"},"message":"Đang mobile. Việt nam 3G mà xem được Youtube thì nhà mạng phá sản lâu rồi :((","can_remove":false,"created_time":"2013-11-22T21:40:01+0000","like_count":1,"user_likes":false},"764471803569499":{"id":"764471803569499","from":{"id":"100000045271667","name":"Nam Thai Nguyen"},"message":"À à, Yên Bình :))). Tháy mỗi đầu đề","can_remove":false,"created_time":"2013-11-22T21:40:52+0000","like_count":0,"user_likes":false},"764471823569497":{"id":"764471823569497","from":{"id":"100005801442456","name":"An Nguyen"},"message":"@.@ yên bình- Nguyễn Hồng Hải !","can_remove":false,"created_time":"2013-11-22T21:40:55+0000","like_count":0,"user_likes":false},"764473706902642":{"id":"764473706902642","from":{"id":"1821970083","name":"Nguyễn Mạnh Cường"},"message":"Em xin share bài nữa :D em nghĩ là bài này nghe sướng hơn\nhttp://www.nhaccuatui.com/video/tieng-viet-le-xuan-khoa.vNDpO7vAdRxSR.html","can_remove":false,"created_time":"2013-11-22T21:47:01+0000","like_count":2,"user_likes":false},"764473950235951":{"id":"764473950235951","from":{"id":"100005801442456","name":"An Nguyen"},"message":"Bậy bạ! Bài anh nghe \" phê \" hơn chứ =))","can_remove":false,"created_time":"2013-11-22T21:48:07+0000","like_count":0,"user_likes":false},"764474376902575":{"id":"764474376902575","from":{"id":"1821970083","name":"Nguyễn Mạnh Cường"},"message":"Bài kia em nghe nhiều, hát đàn nhiều nhưng mà cũng chán, nghe bài này là thấy vào thôi :3","can_remove":false,"created_time":"2013-11-22T21:49:28+0000","like_count":0,"user_likes":false},"764493836900629":{"id":"764493836900629","from":{"id":"100000492998065","name":"か とり"},"message":"bài hát hay quá","can_remove":false,"created_time":"2013-11-22T22:39:26+0000","like_count":0,"user_likes":false},"764505923566087":{"id":"764505923566087","from":{"id":"1717530880","name":"Triệu Việt Cường"},"message":"Mình thì thích bài \"Càng trưởng thành càng cô đơn\" , nhạc Trung Quốc. http://www.youtube.com/watch?v=fTaN2tBR97E","can_remove":false,"created_time":"2013-11-22T23:04:32+0000","like_count":2,"user_likes":false},"764582873558392":{"id":"764582873558392","from":{"id":"100002508122689","name":"Vũ Mạnh Tuấn"},"message":"bài yên bình này hay và ý nghĩa ^-^ . \nAnh An Nguyen nghe bản cover của It's time band chưa?","message_tags":[{"id":"100005801442456","name":"An Nguyen","type":"user","offset":43,"length":9}],"can_remove":false,"created_time":"2013-11-23T02:25:31+0000","like_count":0,"user_likes":false},"764748740208472":{"id":"764748740208472","from":{"id":"100005801442456","name":"An Nguyen"},"message":"Chưa@.@!","can_remove":false,"created_time":"2013-11-23T10:55:50+0000","like_count":0,"user_likes":false},"764750573541622":{"id":"764750573541622","from":{"id":"100000603915176","name":"悪いな ぁ"},"message":"Chưa bao giờ tớ dùng 3G mà không vào được Youtube Nam Thai Nguyen nhé :D","message_tags":[{"id":"100000045271667","name":"Nam Thai Nguyen","type":"user","offset":50,"length":15}],"can_remove":false,"created_time":"2013-11-23T11:03:21+0000","like_count":0,"user_likes":false},"764795756870437":{"id":"764795756870437","from":{"id":"100002508122689","name":"Vũ Mạnh Tuấn"},"message":"An Nguyen: a nghe thử xem :)\nhttp://www.youtube.com/watch?v=Pl7fPm0w9Gc","message_tags":[{"id":"100005801442456","name":"An Nguyen","type":"user","offset":0,"length":9}],"can_remove":false,"created_time":"2013-11-23T13:07:42+0000","like_count":0,"user_likes":false}},"paging":{"cursors":{"after":"NzY0NDcwMDYzNTY5Njcz","before":"NzY0NDcwMDYzNTY5Njcz"},"next":"https://graph.facebook.com/229244010425617_764469436903069/comments?limit=1&summary=1&after=NzY0NDcwMDYzNTY5Njcz"},"summary":{"order":"chronological","total_count":14}}}