{"id":"229244010425617_764651726884840","type":"status","from":{"id":"100000442929887","name":"Mike Yi"},"message":"Góp ý......cộng đồng gì mà chia sẻ bị xóa hết vậy ai vào nữa??????","created_time":"2013-11-23T05:30:50+0000","updated_time":"2013-11-25T05:18:30+0000","likes":{"data":{"100005936587420":{"id":"100005936587420","name":"Du Hoc Manh Cuong"},"100001416272263":{"id":"100001416272263","name":"Mai PB"},"100006464323686":{"id":"100006464323686","name":"Dương Phạm"},"100005801442456":{"id":"100005801442456","name":"An Nguyen"}},"paging":{"cursors":{"after":"MTAwMDA1OTM2NTg3NDIw","before":"MTAwMDA1OTM2NTg3NDIw"},"next":"https://graph.facebook.com/229244010425617_764651726884840/likes?limit=1&summary=1&after=MTAwMDA1OTM2NTg3NDIw"},"summary":{"total_count":5}},"comments":{"data":{"764657126884300":{"id":"764657126884300","from":{"id":"100001754136107","name":"Nguyễn Tuấn Vũ"},"message":"bài nào của bạn bị xóa","can_remove":false,"created_time":"2013-11-23T05:41:54+0000","like_count":0,"user_likes":false},"764657136884299":{"id":"764657136884299","from":{"id":"100001754136107","name":"Nguyễn Tuấn Vũ"},"message":"?","can_remove":false,"created_time":"2013-11-23T05:41:56+0000","like_count":0,"user_likes":false},"764657396884273":{"id":"764657396884273","from":{"id":"100000442929887","name":"Mike Yi"},"message":"mấy bài luôn","can_remove":false,"created_time":"2013-11-23T05:42:46+0000","like_count":0,"user_likes":false},"764657663550913":{"id":"764657663550913","from":{"id":"100004360751785","name":"Hà Nguyễn"},"message":"bạn chia sẻ về vde gì mà bị xóa?","can_remove":false,"created_time":"2013-11-23T05:43:23+0000","like_count":0,"user_likes":false},"764657816884231":{"id":"764657816884231","from":{"id":"100000442929887","name":"Mike Yi"},"message":"hình con mực nè........nhìu cái nữa","can_remove":false,"created_time":"2013-11-23T05:43:52+0000","like_count":0,"user_likes":false},"764658423550837":{"id":"764658423550837","from":{"id":"100000442929887","name":"Mike Yi"},"message":"ko chơi đầy nữa............bye mấy u.........","can_remove":false,"created_time":"2013-11-23T05:45:54+0000","like_count":0,"user_likes":false},"764660703550609":{"id":"764660703550609","from":{"id":"100000221648144","name":"Nguyen Hung"},"message":"Con mực của đại ca an hêt rùi nên nó bị mất đó kaka","can_remove":false,"created_time":"2013-11-23T05:52:50+0000","like_count":4,"user_likes":false},"764700900213256":{"id":"764700900213256","from":{"id":"100005801442456","name":"An Nguyen"},"message":"Đang tính hỏi nhiêu tiền, phải vào làm @.@","can_remove":false,"created_time":"2013-11-23T08:29:13+0000","like_count":1,"user_likes":false},"764794046870608":{"id":"764794046870608","from":{"id":"100001416272263","name":"Mai PB"},"message":"Để các admin xác nhận lại nhé, Mike Yi.","can_remove":false,"created_time":"2013-11-23T13:02:54+0000","like_count":0,"user_likes":false},"764802913536388":{"id":"764802913536388","from":{"id":"100002508122689","name":"Vũ Mạnh Tuấn"},"message":"con mực to tướng 4000 yên , mình vẫn còn nhớ . Chắc là fb có lỗi chăng. Chứ bài viết đấy ai lại xóa .","can_remove":false,"created_time":"2013-11-23T13:24:52+0000","like_count":0,"user_likes":false},"764805073536172":{"id":"764805073536172","from":{"id":"100001754136107","name":"Nguyễn Tuấn Vũ"},"message":"E cung ko xoá, e nghĩ lôi  facebook cung k phải.","can_remove":false,"created_time":"2013-11-23T13:29:44+0000","like_count":0,"user_likes":false},"765344156815597":{"id":"765344156815597","from":{"id":"100000381394367","name":"Thành Nguyễn"},"message":"Thỉnh thoảng facebook cũng bị lỗi đấy, bên group Cộng đồng sự kiện nhiều lúc còn mất sạch cả tất cả các bài luôn. Có lúc trên web không thấy nhưng vào điện thoại lại thấy, vào điện thoại comment vào post đó thì nó lại hiện ra. Facebook gần đây bị lỗi rất nhiều, mọi người không để ý hoặc ít kinh nghiệm về kỹ thuật sẽ không biết thôi. Sản phẩm do con người làm ra, lỗi là chuyện bình thường.","can_remove":false,"created_time":"2013-11-24T11:28:44+0000","like_count":1,"user_likes":false},"765344826815530":{"id":"765344826815530","from":{"id":"100000381394367","name":"Thành Nguyễn"},"message":"Trường hợp facebook không bị lỗi mà có một member nào đó không thích bạn mà chọn nút báo sai phạm với facebook thì post của bạn cũng có thể bị mất đi ( do facebook ẩn đi để duyệt ) dù Admin không xóa. Thế nên bạn cũng kiểm tra xem có hiềm khích với ai không, không chừng họ báo bài bạn sai phạm với facebook :D","can_remove":false,"created_time":"2013-11-24T11:30:37+0000","like_count":1,"user_likes":false},"765804796769533":{"id":"765804796769533","from":{"id":"100001416272263","name":"Mai PB"},"message":"Bạn Son Java, có đúng là có chuyên báo cáo (nhầm) không, nếu đúng thì đã rõ nguyên nhân.","message_tags":[{"id":"100004882693145","name":"Son Java","type":"user","offset":4,"length":8}],"can_remove":false,"created_time":"2013-11-25T04:36:20+0000","like_count":0,"user_likes":false},"765817483434931":{"id":"765817483434931","from":{"id":"100001416272263","name":"Mai PB"},"message":"Ok, cảm ơn đã xác nhận. Làm ơn đừng dùng chức năng đó nữa, vì FB không biết đọc tiếng Việt. :-)","can_remove":false,"created_time":"2013-11-25T05:18:30+0000","like_count":0,"user_likes":false}},"paging":{"cursors":{"after":"NzY0NjU3MTI2ODg0MzAw","before":"NzY0NjU3MTI2ODg0MzAw"},"next":"https://graph.facebook.com/229244010425617_764651726884840/comments?limit=1&summary=1&after=NzY0NjU3MTI2ODg0MzAw"},"summary":{"order":"chronological","total_count":17}}}