{"id":"229244010425617_764722700211076","type":"link","picture":"https://fbexternal-a.akamaihd.net/safe_image.php?d=AQADfX5bVV9WBA77&w=154&h=154&url=http%3A%2F%2Fm.f17.img.vnecdn.net%2F2013%2F11%2F19%2FNakano-Sakaue-Pao1-3393-1384834537.jpg","link":"http://www.kenh81.vn/home/Nhung-cho-do-cu-hay-ho-tai-Tokyo.493.html","from":{"id":"100002724611926","name":"To Bee"},"message":"Có ai biết mấy chợ đồ cũ này gần ga nào không ạ , chỉ giúp em với \nhttp://www.kenh81.vn/home/Nhung-cho-do-cu-hay-ho-tai-Tokyo.493.html","created_time":"2013-11-23T09:41:48+0000","updated_time":"2013-11-24T15:29:44+0000","likes":{"data":{"100005993282005":{"id":"100005993282005","name":"Canh Dong Xanh"},"100003667085290":{"id":"100003667085290","name":"Xanh Xanh"},"100001229144542":{"id":"100001229144542","name":"Còn Nói Còn Tát"},"100004881932416":{"id":"100004881932416","name":"Anhđưataygiữlấy Nhữngnắmtrotànembỏlại"},"100001570773655":{"id":"100001570773655","name":"Hoàng A Chang"},"100002724611926":{"id":"100002724611926","name":"To Bee"}},"paging":{"cursors":{"after":"MTAwMDA1OTkzMjgyMDA1","before":"MTAwMDA1OTkzMjgyMDA1"},"next":"https://graph.facebook.com/229244010425617_764722700211076/likes?limit=1&summary=1&after=MTAwMDA1OTkzMjgyMDA1"},"summary":{"total_count":7}},"comments":{"data":{"764723333544346":{"id":"764723333544346","from":{"id":"100000603915176","name":"悪いな ぁ"},"message":"Có ở nhiều nơi đâu phải chỉ 1 nơi, vào mạng mà tìm keyword là free market là ra.","can_remove":false,"created_time":"2013-11-23T09:43:36+0000","like_count":1,"user_likes":false},"764728826877130":{"id":"764728826877130","from":{"id":"100000199981795","name":"Ma Xó"},"message":"CÓ máy tính tốt mua giùm em cái. Liệu có cái tiền 1-2 triệu mà tốt khyonog nhit","can_remove":false,"created_time":"2013-11-23T09:58:51+0000","like_count":1,"user_likes":false},"764729240210422":{"id":"764729240210422","from":{"id":"100002724611926","name":"To Bee"},"message":"Có thể đấy .... mình thì đang ngía mấy cái mà không biết địa chỉ ở đâu","can_remove":false,"created_time":"2013-11-23T10:00:01+0000","like_count":1,"user_likes":false},"764729276877085":{"id":"764729276877085","from":{"id":"100000199981795","name":"Ma Xó"},"message":"nhà em ở gần sân bay nội bài. anh chị nào về Tết thăm nhà, mua giùm em cái, em cảm ơn nhiều.","can_remove":false,"created_time":"2013-11-23T10:00:06+0000","like_count":1,"user_likes":false},"764729426877070":{"id":"764729426877070","from":{"id":"100002724611926","name":"To Bee"},"message":":D","can_remove":false,"created_time":"2013-11-23T10:00:29+0000","like_count":0,"user_likes":false},"764730600210286":{"id":"764730600210286","from":{"id":"100000199981795","name":"Ma Xó"},"message":"To Bee: a ở Nhật Bản rồi à? có máy nào ngon ngon bảo em với nhé. Về thì alo em. hay kb fb luôn đi","message_tags":[{"id":"100002724611926","name":"To Bee","type":"user","offset":0,"length":6}],"can_remove":false,"created_time":"2013-11-23T10:02:36+0000","like_count":0,"user_likes":false},"764731323543547":{"id":"764731323543547","from":{"id":"100002724611926","name":"To Bee"},"message":":D hì biết cái nào ngon, ngon với anh những chưa chắc đã hợp khẩu vị với em :D","can_remove":false,"created_time":"2013-11-23T10:03:19+0000","like_count":0,"user_likes":false},"764734106876602":{"id":"764734106876602","from":{"id":"100000199981795","name":"Ma Xó"},"message":"hj, anh có trang đồ cũ nào trực tuyến không?? bảo em với","can_remove":false,"created_time":"2013-11-23T10:08:42+0000","like_count":0,"user_likes":false},"764734193543260":{"id":"764734193543260","from":{"id":"1122379216","name":"Hà Ngô"},"message":"Có ai biết nồi cơm điện cũ thì giá bao nhiêu và mua ở đâu không ạ. Chỉ mình với. Cảm ơn nhiều!","can_remove":false,"created_time":"2013-11-23T10:09:02+0000","like_count":0,"user_likes":false},"764734583543221":{"id":"764734583543221","from":{"id":"100002724611926","name":"To Bee"},"message":"Còn tùy từng nồi bao nhiêu lít Hà Ngô ạ","message_tags":[{"id":"1122379216","name":"Hà Ngô","type":"user","offset":31,"length":6}],"can_remove":false,"created_time":"2013-11-23T10:10:02+0000","like_count":0,"user_likes":false},"764734650209881":{"id":"764734650209881","from":{"id":"100002724611926","name":"To Bee"},"message":"Ma Xó vào đây xem nè : http://www.2ndstreet.jp/","can_remove":false,"created_time":"2013-11-23T10:10:13+0000","like_count":0,"user_likes":false},"764734846876528":{"id":"764734846876528","from":{"id":"1122379216","name":"Hà Ngô"},"message":"Nồi bé tẹo thôi ạ, mình e ăn thôi :)","can_remove":false,"created_time":"2013-11-23T10:10:52+0000","like_count":0,"user_likes":false},"764737193542960":{"id":"764737193542960","from":{"id":"100000199981795","name":"Ma Xó"},"message":"anh chị bên đó có laptop thì alo em, học kế toán mà không có laptop, mệt ghê","can_remove":false,"created_time":"2013-11-23T10:19:18+0000","like_count":0,"user_likes":false},"764738043542875":{"id":"764738043542875","from":{"id":"100003090582201","name":"Đại Ca Béo"},"message":"Ga nào vậy mn ơi","can_remove":false,"created_time":"2013-11-23T10:22:29+0000","like_count":0,"user_likes":false},"764738066876206":{"id":"764738066876206","from":{"id":"100005801442456","name":"An Nguyen"},"message":"Lên google maps gõ リサイクルショップ rồi coi gần nhà chỗ nào có thì tới! Đầy mà","can_remove":false,"created_time":"2013-11-23T10:22:32+0000","like_count":1,"user_likes":false},"764739066876106":{"id":"764739066876106","from":{"id":"100006860141377","name":"Gấu Của Hôm Nay"},"message":"Nồi cơm điện cũ tầm từ 3,5 đến 6000 . Đồ nhật ko phải khựa","can_remove":false,"created_time":"2013-11-23T10:26:37+0000","like_count":1,"user_likes":false},"764739263542753":{"id":"764739263542753","from":{"id":"1122379216","name":"Hà Ngô"},"message":"Cho tớ địa chỉ mua với bạn @gấu của hôm nay ới. Tks bạn :)","can_remove":false,"created_time":"2013-11-23T10:27:30+0000","like_count":0,"user_likes":false},"764739763542703":{"id":"764739763542703","from":{"id":"100006860141377","name":"Gấu Của Hôm Nay"},"message":"Tớ ở ga jujo ở đây có 1 chỗ bán đồ cũ bạn ạ.","can_remove":false,"created_time":"2013-11-23T10:29:32+0000","like_count":0,"user_likes":false},"764740910209255":{"id":"764740910209255","from":{"id":"1122379216","name":"Hà Ngô"},"message":"Hì. Tớ hay đi qua jujo. Chắc sang tuần sau tớ đo sắm cái nồi :). Cảm ơn bạn nhé!","can_remove":false,"created_time":"2013-11-23T10:33:09+0000","like_count":0,"user_likes":false},"764741416875871":{"id":"764741416875871","from":{"id":"100006860141377","name":"Gấu Của Hôm Nay"},"message":"Tận tuần sau hả. Mai rảnh đến tớ dẫn đi.","can_remove":false,"created_time":"2013-11-23T10:34:31+0000","like_count":0,"user_likes":false},"764741586875854":{"id":"764741586875854","from":{"id":"100005801442456","name":"An Nguyen"},"message":"Gần nha bán cái nồi toshiba 6000¥ , mua mới 5 man ấy@.@","can_remove":false,"created_time":"2013-11-23T10:35:01+0000","like_count":1,"user_likes":false},"764742333542446":{"id":"764742333542446","from":{"id":"1122379216","name":"Hà Ngô"},"message":"Ui, thế á. Bạn An Nguyen ở chỗ nào?\n@Gấu: mai tớ đi làm cậu ạ :)","message_tags":[{"id":"100005801442456","name":"An Nguyen","type":"user","offset":15,"length":9}],"can_remove":false,"created_time":"2013-11-23T10:36:57+0000","like_count":0,"user_likes":false},"764742356875777":{"id":"764742356875777","from":{"id":"100006860141377","name":"Gấu Của Hôm Nay"},"message":"Mình mua 1 cái 6900 cũng hãng toshiba ^^","can_remove":false,"created_time":"2013-11-23T10:37:04+0000","like_count":0,"user_likes":false},"764743093542370":{"id":"764743093542370","from":{"id":"100006860141377","name":"Gấu Của Hôm Nay"},"message":"Oh vậy à. Hjhj","can_remove":false,"created_time":"2013-11-23T10:39:31+0000","like_count":0,"user_likes":false},"764743413542338":{"id":"764743413542338","from":{"id":"100005801442456","name":"An Nguyen"},"message":"Shinokubo! Mà cuối tuần dọn đi rồi=)) ớn qué","can_remove":false,"created_time":"2013-11-23T10:40:38+0000","like_count":0,"user_likes":false},"764744523542227":{"id":"764744523542227","from":{"id":"1122379216","name":"Hà Ngô"},"message":"Hả! Thế quán í ko dọn theo bạn chứ. Tớ học ở ngay ga shinokubo nhưng sống xa đó tít mù lun. Bạo loạn lắm :(","can_remove":false,"created_time":"2013-11-23T10:44:05+0000","like_count":0,"user_likes":false},"764744876875525":{"id":"764744876875525","from":{"id":"100000199981795","name":"Ma Xó"},"message":"nồi cơm mà 1.5tr tiền việt à","can_remove":false,"created_time":"2013-11-23T10:45:16+0000","like_count":0,"user_likes":false},"764746583542021":{"id":"764746583542021","from":{"id":"100006860141377","name":"Gấu Của Hôm Nay"},"message":"20 tr cũng có. =))","can_remove":false,"created_time":"2013-11-23T10:50:15+0000","like_count":0,"user_likes":false},"764747036875309":{"id":"764747036875309","from":{"id":"100005801442456","name":"An Nguyen"},"message":"Bên đây nồi 10 man hay hơn còn có! Khách du lịch đặt biệt trung quốc hay mua làm quà vì hàng nhật k bán ra nưoc ngoài , cái nồi bên trong dày lắm! Cả kí đấy! Nấu không bao giờ cháy, mà cắm điện quài chả sao(･･;)","can_remove":false,"created_time":"2013-11-23T10:51:45+0000","like_count":0,"user_likes":false},"764747766875236":{"id":"764747766875236","from":{"id":"100000199981795","name":"Ma Xó"},"message":"hjj, anh chị tìm hộ em cái laptop với. e thấy bên đó laptop tốt lắm hay sao ý","can_remove":false,"created_time":"2013-11-23T10:53:13+0000","like_count":0,"user_likes":false},"764756520207694":{"id":"764756520207694","from":{"id":"100003476529583","name":"Trần Hữu Hiệu"},"message":"Ma Xó: =)). Bạn nên hiểu là nếu không có người thân thì chắc là không ai dám mua gì cho bạn luôn! Mua gì thì mua cũng phải có tiền, đồ cũ mua thì phải chịu thêm cả rủi ro nữa! Tốt nhất hay mua ở VN.","can_remove":false,"created_time":"2013-11-23T11:23:04+0000","like_count":1,"user_likes":false},"765401836809829":{"id":"765401836809829","from":{"id":"100002724611926","name":"To Bee"},"message":"ban Tran Huu Hieu noi chuan day","can_remove":false,"created_time":"2013-11-24T13:48:28+0000","like_count":0,"user_likes":false},"765439813472698":{"id":"765439813472698","from":{"id":"100001187487097","name":"Thang Hoang"},"message":"minh den nhat nhieu,minh thay o do dat qua viet nam,o viet nam cai noi tu co 500k o nhat 50 do...ma noi chung xin minh khong thay dau..dem ve dung tam tit lam...moi cai tu lanh minh dem o day ve viet nam thi re ...nhat la co lan minh vac cai laptop doi o kia ve,vua chai pin chay lai cham..ma ma day ha duoc","can_remove":false,"created_time":"2013-11-24T14:57:53+0000","like_count":1,"user_likes":false},"765452530138093":{"id":"765452530138093","from":{"id":"100002724611926","name":"To Bee"},"message":"mua laptop thì còn phải chon kỹ ...","can_remove":false,"created_time":"2013-11-24T15:25:20+0000","like_count":0,"user_likes":false},"765454936804519":{"id":"765454936804519","from":{"id":"100003476529583","name":"Trần Hữu Hiệu"},"message":"Em không có y định mua laptop cũ. Nếu mua là mua mới. Có máy ảnh và ống kính đến cửa hàng mua thì được vì họ đánh giá + phân loại rất chuẩn. Mua quần áo cũ cũng được đấy vì nó rất rẻ!  @@","can_remove":false,"created_time":"2013-11-24T15:29:44+0000","like_count":1,"user_likes":false}},"paging":{"cursors":{"after":"NzY0NzIzMzMzNTQ0MzQ2","before":"NzY0NzIzMzMzNTQ0MzQ2"},"next":"https://graph.facebook.com/229244010425617_764722700211076/comments?limit=1&summary=1&after=NzY0NzIzMzMzNTQ0MzQ2"},"summary":{"order":"chronological","total_count":35}}}