{"id":"229244010425617_764743973542282","type":"status","from":{"id":"100001219170314","name":"天丼"},"message":"Có ai đang làm ở FamilyMart không ạ? mình có 1 chút thắc mắc liên quan đến レジ muốn được giải đáp, thanks!","created_time":"2013-11-23T10:42:38+0000","updated_time":"2013-11-25T07:55:01+0000","likes":{"data":{"1031841670":{"id":"1031841670","name":"Ngọc Trâm"},"100004881932416":{"id":"100004881932416","name":"Anhđưataygiữlấy Nhữngnắmtrotànembỏlại"}},"paging":{"cursors":{"after":"MTAzMTg0MTY3MA==","before":"MTAzMTg0MTY3MA=="},"next":"https://graph.facebook.com/229244010425617_764743973542282/likes?limit=1&summary=1&after=MTAzMTg0MTY3MA%3D%3D"},"summary":{"total_count":3}},"comments":{"data":{"764746206875392":{"id":"764746206875392","from":{"id":"100005801442456","name":"An Nguyen"},"message":"Ngọc Trâm <== gọi em này nè!","message_tags":[{"id":"1031841670","name":"Ngọc Trâm","type":"user","offset":0,"length":9}],"can_remove":false,"created_time":"2013-11-23T10:48:48+0000","like_count":1,"user_likes":false},"764748470208499":{"id":"764748470208499","from":{"id":"100005801442456","name":"An Nguyen"},"message":"Giải thích hộ cái e gái âu díu..","can_remove":false,"created_time":"2013-11-23T10:55:00+0000","like_count":0,"user_likes":false},"765383723478307":{"id":"765383723478307","from":{"id":"1031841670","name":"Ngọc Trâm"},"message":"Có gì thắc mắc bạn cứ post lên đây. Nếu có thể trả lời đc m trả lời luôn cho mọi ng cùng tham khảo.","can_remove":false,"created_time":"2013-11-24T13:04:32+0000","like_count":0,"user_likes":false},"765820913434588":{"id":"765820913434588","from":{"id":"100001219170314","name":"天丼"},"message":"Ngọc Trâm: cho mình hỏi với có 3 loại đại khái là đồ chấm của những món này, mình chưa biết phân loại món nào tương ứng với đồ chấm nào, bạn chỉ mình với","can_remove":false,"created_time":"2013-11-25T05:30:11+0000","like_count":1,"user_likes":false},"765825316767481":{"id":"765825316767481","from":{"id":"1031841670","name":"Ngọc Trâm"},"message":"チキンナゲットThì có hai loại là バーベキュー màu tím với loại màu vàng ( tên k biết viết như nào. ;)) cái này dạng hộp. Hỏi khách xem muốn lấy loại nào. Gói nhỏ màu đen là dùng cho korokke, gói màu nâu trong hơn là dùng cho shiumai, còn アメリカンドッグ、フランク thì dùng loại có hai nửa ấy.","can_remove":false,"created_time":"2013-11-25T05:43:31+0000","like_count":2,"user_likes":false},"765825596767453":{"id":"765825596767453","from":{"id":"1031841670","name":"Ngọc Trâm"},"message":"Còn cái チキン南ばん  thì có 2 gói to hơn 1 chút. 1 gói màu trắng và 1 gói nâu trong.","can_remove":false,"created_time":"2013-11-25T05:44:45+0000","like_count":2,"user_likes":false},"765870463429633":{"id":"765870463429633","from":{"id":"100001219170314","name":"天丼"},"message":"woa!!! thanks bạn nhiều nhiều nhé! hi mình mới vào phải nhớ nhiều quá, hôm nay bắt đầu chuyển sang phải nhớ hết tên おでん với báo, hoang mang style luôn @@","can_remove":false,"created_time":"2013-11-25T07:55:01+0000","like_count":0,"user_likes":false}},"paging":{"cursors":{"after":"NzY0NzQ2MjA2ODc1Mzky","before":"NzY0NzQ2MjA2ODc1Mzky"},"next":"https://graph.facebook.com/229244010425617_764743973542282/comments?limit=1&summary=1&after=NzY0NzQ2MjA2ODc1Mzky"},"summary":{"order":"chronological","total_count":7}}}