{"id":"229244010425617_764790276870985","type":"status","from":{"id":"100001324611896","name":"Meo Luoi"},"message":"AD cho mình đăng nhờ cái tin này nhé \nTìm Nữ ở ghép \nHiện mình đang kiếm 2 bạn girl ở cùng \nGa : nishikawaguchi ( kehintohokkusen ) \nNhà 2 Dk có 2 phòng riêng biệt \nNhà cách ga 3 phút đi bộ !!! \nMọi ng nếu ai muốn ở ghép thì xin lệ sđt 0804451 7604 hoặc inbox để rõ thêm chi tiết nha","created_time":"2013-11-23T12:54:33+0000","updated_time":"2013-11-23T22:36:15+0000","likes":{"data":{"100005801442456":{"id":"100005801442456","name":"An Nguyen"},"100003118432528":{"id":"100003118432528","name":"Ngọc Lan"},"100002448951419":{"id":"100002448951419","name":"Thu Huyen Vu"}},"paging":{"cursors":{"after":"MTAwMDA1ODAxNDQyNDU2","before":"MTAwMDA1ODAxNDQyNDU2"},"next":"https://graph.facebook.com/229244010425617_764790276870985/likes?limit=1&summary=1&after=MTAwMDA1ODAxNDQyNDU2"},"summary":{"total_count":3}},"comments":{"data":{"764794650203881":{"id":"764794650203881","from":{"id":"100004474144250","name":"Furby Cass"},"message":"Nam đc k ạk\nNhà e cách nishi 15p đi mỏi chân lắm\n:3","can_remove":false,"created_time":"2013-11-23T13:04:55+0000","like_count":0,"user_likes":false},"764800150203331":{"id":"764800150203331","from":{"id":"100001324611896","name":"Meo Luoi"},"message":"Mình có ghi rất rõ mờ","can_remove":false,"created_time":"2013-11-23T13:19:16+0000","like_count":0,"user_likes":false},"765052506844762":{"id":"765052506844762","from":{"id":"100005011088753","name":"Tĩnh Trịnh"},"message":"Chán nhỉ, nam lại k được Furby Cass ah?","message_tags":[{"id":"100004474144250","name":"Furby Cass","type":"user","offset":25,"length":10}],"can_remove":false,"created_time":"2013-11-23T22:36:15+0000","like_count":0,"user_likes":false}},"paging":{"cursors":{"after":"NzY0Nzk0NjUwMjAzODgx","before":"NzY0Nzk0NjUwMjAzODgx"},"next":"https://graph.facebook.com/229244010425617_764790276870985/comments?limit=1&summary=1&after=NzY0Nzk0NjUwMjAzODgx"},"summary":{"order":"chronological","total_count":3}}}