{"id":"229244010425617_764821900201156","type":"status","from":{"id":"1816269439","name":"Dao Ngoc"},"message":"Ngày chủ nhật 24/11 đồng hành cùng với CƠM CÓ THỊT Nhật từ VYSA tại gian hàng số 25 tại hội chợ từ thiện Nghị Lực Việt các tấm lòng vàng nhé! ^^","created_time":"2013-11-23T14:11:27+0000","updated_time":"2013-11-23T15:30:27+0000","likes":{"data":{"100006886237437":{"id":"100006886237437","name":"Akira Quỳnh"},"100005801442456":{"id":"100005801442456","name":"An Nguyen"},"100004889430124":{"id":"100004889430124","name":"Quiet Man"},"100002916376886":{"id":"100002916376886","name":"Thủy Bee"},"100001416272263":{"id":"100001416272263","name":"Mai PB"},"1813611352":{"id":"1813611352","name":"To Đùng"},"100003250657085":{"id":"100003250657085","name":"Nhất Kiếm Vô Tình"},"1026780646":{"id":"1026780646","name":"Việt Hưng Khổng"}},"paging":{"cursors":{"after":"MTAwMDA2ODg2MjM3NDM3","before":"MTAwMDA2ODg2MjM3NDM3"},"next":"https://graph.facebook.com/229244010425617_764821900201156/likes?limit=1&summary=1&after=MTAwMDA2ODg2MjM3NDM3"},"summary":{"total_count":8}},"comments":{"data":{"764825086867504":{"id":"764825086867504","from":{"id":"1813611352","name":"To Đùng"},"message":"ui. em ké 1 suất với =p~","can_remove":false,"created_time":"2013-11-23T14:18:25+0000","like_count":1,"user_likes":false},"764826586867354":{"id":"764826586867354","from":{"id":"1816269439","name":"Dao Ngoc"},"message":"To Đùng liên hệ với với Ms Pham Thi Thu Phuong 0988218882 nhé. Pham Thi Thu Phuong","message_tags":[{"id":"1813611352","name":"To Đùng","type":"user","offset":0,"length":7},{"id":"1296997933","name":"Pham Thi Thu Phuong","type":"user","offset":63,"length":19}],"can_remove":false,"created_time":"2013-11-23T14:22:38+0000","like_count":0,"user_likes":false},"764828200200526":{"id":"764828200200526","from":{"id":"1813611352","name":"To Đùng"},"message":"hi hi. nói đùa là xin ké 1 suất cơm mà ko ngờ chị Dao Ngoc reply luôn ^^\nĐể xem hôm đó em thu xếp sang HN được thì sẽ giúp mọi người 1 chân bốc vác ^_^","message_tags":[{"id":"1816269439","name":"Dao Ngoc","type":"user","offset":50,"length":8}],"can_remove":false,"created_time":"2013-11-23T14:27:12+0000","like_count":0,"user_likes":false},"764842296865783":{"id":"764842296865783","from":{"id":"1296997933","name":"Pham Thi Thu Phuong"},"message":"Cố gắng wa nhé To To Đùng","message_tags":[{"id":"1813611352","name":"To Đùng","type":"user","offset":18,"length":7}],"can_remove":false,"created_time":"2013-11-23T14:59:11+0000","like_count":1,"user_likes":false},"764842893532390":{"id":"764842893532390","from":{"id":"1813611352","name":"To Đùng"},"message":"vâng. nhà em bên tận Gia Lâm chứ ko em chốt lịch có mặt luôn rồi. nhưng nhà cũng hơi xa nên phải sắp xếp. qua được em sẽ báo chị ngay ạ ^_^","can_remove":false,"created_time":"2013-11-23T15:00:35+0000","like_count":0,"user_likes":false},"764856266864386":{"id":"764856266864386","from":{"id":"100001416272263","name":"Mai PB"},"message":"Dao Ngoc nên viết rõ trong post là tổ chức ở HN. Bây giờ không gian là toàn cầu rồi nhé. :-)","message_tags":[{"id":"1816269439","name":"Dao Ngoc","type":"user","offset":0,"length":8}],"can_remove":false,"created_time":"2013-11-23T15:30:27+0000","like_count":0,"user_likes":false}},"paging":{"cursors":{"after":"NzY0ODI1MDg2ODY3NTA0","before":"NzY0ODI1MDg2ODY3NTA0"},"next":"https://graph.facebook.com/229244010425617_764821900201156/comments?limit=1&summary=1&after=NzY0ODI1MDg2ODY3NTA0"},"summary":{"order":"chronological","total_count":6}}}