{"id":"229244010425617_765167456833267","type":"status","from":{"id":"569263718","name":"Phuong Thao Tran"},"message":"Haizzz, đã có 1 bài của mình post đã bị xóa mà không biết lý do...!!!\n\nKhông phải MỘT bài mà HAI bài lận, huhuhu","created_time":"2013-11-24T02:46:37+0000","updated_time":"2013-11-24T08:42:40+0000","comments":{"data":{"765169643499715":{"id":"765169643499715","from":{"id":"100000359762118","name":"Mi Tra"},"message":"Bài gì chị ơi?\nNếu không phải nội dung spam thì ad không bao giờ xoá đâu ạ.","can_remove":false,"created_time":"2013-11-24T02:51:29+0000","like_count":0,"user_likes":false},"765171270166219":{"id":"765171270166219","from":{"id":"569263718","name":"Phuong Thao Tran"},"message":"chị nghĩ chắc chắn là không phải spam vì bài nào cũng được các ad like cả !!!","can_remove":false,"created_time":"2013-11-24T02:54:50+0000","like_count":0,"user_likes":false},"765172580166088":{"id":"765172580166088","from":{"id":"100000359762118","name":"Mi Tra"},"message":"Vậy không biết vì sao nhỉ!? \nThành thật xin lỗi chị vì sự cố nàym(_ _)m","can_remove":false,"created_time":"2013-11-24T02:57:57+0000","like_count":0,"user_likes":false},"765173040166042":{"id":"765173040166042","from":{"id":"100001458099624","name":"Kham Pha"},"message":"Chị có thể cho biết là những bài nào đc ko?","can_remove":false,"created_time":"2013-11-24T02:59:39+0000","like_count":0,"user_likes":false},"765173263499353":{"id":"765173263499353","from":{"id":"569263718","name":"Phuong Thao Tran"},"message":"có 1 bạn đã lên tiếng là xóa bài của mình, ko biết có phải ad hay không","can_remove":false,"created_time":"2013-11-24T03:00:40+0000","like_count":0,"user_likes":false},"765173416832671":{"id":"765173416832671","from":{"id":"100001458099624","name":"Kham Pha"},"message":"Chị tag người ấy vào đây đc ko, hoặc là tên fb thôi cũng đc","can_remove":false,"created_time":"2013-11-24T03:01:26+0000","like_count":0,"user_likes":false},"765173593499320":{"id":"765173593499320","from":{"id":"569263718","name":"Phuong Thao Tran"},"message":"bài mới nhất bị xóa là bài mới đăng ngày hôm qua","can_remove":false,"created_time":"2013-11-24T03:02:14+0000","like_count":0,"user_likes":false},"765173890165957":{"id":"765173890165957","from":{"id":"569263718","name":"Phuong Thao Tran"},"message":"còn 1 bài nữa là bài đăng nhờ tìm sách tiếng Nhật  cho người khiếm thị, bài này chưa chắc chắn là đã bị xóa chưa, hiện tại tìm không ra ....","can_remove":false,"created_time":"2013-11-24T03:03:20+0000","like_count":0,"user_likes":false},"765174473499232":{"id":"765174473499232","from":{"id":"100001458099624","name":"Kham Pha"},"message":"Chuyện này nhất định phải làm cho rõ ràng. Chị cho bọn em tên người ấy đi.","can_remove":false,"created_time":"2013-11-24T03:04:55+0000","like_count":0,"user_likes":false},"765176780165668":{"id":"765176780165668","from":{"id":"569263718","name":"Phuong Thao Tran"},"message":"Kham Pha  bài không có subject, chỉ có nội dung thôi thì có bị xóa không nhỉ, và nội dung cũng xoay quanh Nhật-Việt ...","message_tags":[{"id":"100001458099624","name":"Kham Pha","type":"user","offset":0,"length":8}],"can_remove":false,"created_time":"2013-11-24T03:11:54+0000","like_count":0,"user_likes":false},"765179056832107":{"id":"765179056832107","from":{"id":"569263718","name":"Phuong Thao Tran"},"message":"bài chắc chắn bị xóa là: bài đăng cái hình có 3 cái thẻ cầu mọi người đi lại bình an, tình duyên suôn sẽ, thi cử đỗ đạt bằng tiếng Nhật\nbài chưa chắc bị xóa, nhưng nay tìm chưa ra là bài: nhờ tìm sách giáo khoa tiếng Nhật cho người khiếm thị","can_remove":false,"created_time":"2013-11-24T03:17:30+0000","like_count":0,"user_likes":false},"765180626831950":{"id":"765180626831950","from":{"id":"100001458099624","name":"Kham Pha"},"message":"nếu bài viết bằng tiếng Việt ko dấu cũng sẽ bị xóa, bài đó chị viết có dấu không?","can_remove":false,"created_time":"2013-11-24T03:22:32+0000","like_count":0,"user_likes":false},"765180833498596":{"id":"765180833498596","from":{"id":"569263718","name":"Phuong Thao Tran"},"message":"từ khi tham gia group đến gờ chưa viết bài nào là chữ không dấu, và không viết tắt","can_remove":false,"created_time":"2013-11-24T03:23:23+0000","like_count":0,"user_likes":false},"765182043498475":{"id":"765182043498475","from":{"id":"569263718","name":"Phuong Thao Tran"},"message":"vấn đề là đưa ra hướng giải quyết: trước khi xóa bài của ai đó thì ad nên làm gì..., việc này không phải cho riêng trường hợp của mình mà là rule, và rule này nên bổ sung vào hướng dẫn sử dụng trước khi dùng của group!!!","can_remove":false,"created_time":"2013-11-24T03:28:24+0000","like_count":0,"user_likes":false},"765182973498382":{"id":"765182973498382","from":{"id":"100001458099624","name":"Kham Pha"},"message":"bạn Nhất Kiếm Vô Tình do ko đọc kĩ tưởng bài bùa may mắn của chị là bán bùa nên mới xóa. Bọn em chân thành xin lỗi chị. Sẽ cố gắng để ko xảy ra những chuyện như vậy nữa","message_tags":[{"id":"100003250657085","name":"Nhất Kiếm Vô Tình","type":"user","offset":4,"length":17}],"can_remove":false,"created_time":"2013-11-24T03:31:27+0000","like_count":1,"user_likes":false},"765184310164915":{"id":"765184310164915","from":{"id":"569263718","name":"Phuong Thao Tran"},"message":"Chiếc Lá Cuối Cùng đang ở Nhật phải không","message_tags":[{"id":"100006469315671","name":"Chiếc Lá Cuối Cùng","type":"user","offset":0,"length":18}],"can_remove":false,"created_time":"2013-11-24T03:35:22+0000","like_count":0,"user_likes":false},"765185223498157":{"id":"765185223498157","from":{"id":"569263718","name":"Phuong Thao Tran"},"message":"à, vì bạn Nhất Kiếm Vô Tình gửi thông báo bài đã bị xóa cho mình lúc 8:09 giờ VN","message_tags":[{"id":"100003250657085","name":"Nhất Kiếm Vô Tình","type":"user","offset":10,"length":17}],"can_remove":false,"created_time":"2013-11-24T03:37:19+0000","like_count":1,"user_likes":false},"765185860164760":{"id":"765185860164760","from":{"id":"569263718","name":"Phuong Thao Tran"},"message":"có điều mình bất mãn ở chỗ là, bạn ấy không nhớ là mình đã xóa cái gì, và vi phạm điều hướng dẫn nào <--- có lẽ vì lý do đó mà bạn ấy xóa nhầm chăng","can_remove":false,"created_time":"2013-11-24T03:39:52+0000","like_count":1,"user_likes":false},"765193893497290":{"id":"765193893497290","from":{"id":"100000603915176","name":"悪いな ぁ"},"message":"Tuyển admin bừa sẽ gây ra hiện tượng đó đấy. Nhiệt tình cộng ngu dốt thành phá hoại. Sau này muốn xoá bài, các admin nên có quy trình hơn 1 chút. Và cho dù có xoá đi nữa thì cũng phải chụp lại màn hình và có lý do rõ ràng. Không có kiểu nhìn không kỹ rồi xoá, xoá rồi xin lỗi!","can_remove":false,"created_time":"2013-11-24T04:05:44+0000","like_count":5,"user_likes":false},"765202750163071":{"id":"765202750163071","from":{"id":"100003250657085","name":"Nhất Kiếm Vô Tình"},"message":"bạn ám chỉ ai vây ?","can_remove":false,"created_time":"2013-11-24T04:31:37+0000","like_count":0,"user_likes":false},"765203050163041":{"id":"765203050163041","from":{"id":"100001458099624","name":"Kham Pha"},"message":"Waruina: Ko nên nói nặng lời như vậy, ai cũng có sai sót. Có sai thì có sửa. Nhưng qua vụ này các admin sẽ rút kinh nghiệm.","can_remove":false,"created_time":"2013-11-24T04:32:41+0000","like_count":2,"user_likes":false},"765203840162962":{"id":"765203840162962","from":{"id":"100000603915176","name":"悪いな ぁ"},"message":"Mình có thói quen nói thẳng. Điều mình nói không ám chỉ mà đơn giản là nói chung, hiện tượng sẽ còn tái diễn nếu không biết điều chỉnh. Còn nếu cần mình chỉ đích danh. Nếu cảm thấy không vừa lòng thì cứ việc cáu giận, mình không có ý định rút lại lời nói. Làm quản trị không đơn thuần như xung phong là xong đâu :)","can_remove":false,"created_time":"2013-11-24T04:34:53+0000","like_count":0,"user_likes":false},"765205553496124":{"id":"765205553496124","from":{"id":"100003250657085","name":"Nhất Kiếm Vô Tình"},"message":"mình xoá bài dựa trên nội quy của group thê nên mình thấy mình ko có điều gì sai, mình đã trao đổi với các ad khác nhưng cái bài viết của chị ấy nhằm mục đích chúc các bạn thi tốt mình nhận mình sai khi không xem xét về tình về lý của vấn đề còn mình dự theo quy định làm thì đề xoá bài thi ko có gì sai cả","can_remove":false,"created_time":"2013-11-24T04:38:18+0000","like_count":1,"user_likes":false},"765205940162752":{"id":"765205940162752","from":{"id":"100001458099624","name":"Kham Pha"},"message":"Đúng là làm quản trị ko phải đơn giản. Chẳng ai biết hết mọi thứ từ đầu cả nhưng các bạn ấy đang học đó thôi. \nKhi mình nhìn một ai đó mình nhìn thái độ học tập của họ chứ ko phải kiến thức họ có. Các bạn ấy có thái độ học hỏi rất tốt nên mình mới để làm admin. Còn nếu vô trách nhiệm thì sớm muộn cũng sẽ bị bãi nhiệm thôi.","can_remove":false,"created_time":"2013-11-24T04:40:32+0000","like_count":5,"user_likes":false},"765206580162688":{"id":"765206580162688","from":{"id":"100000603915176","name":"悪いな ぁ"},"message":"Tuỳ bạn hiểu về comment của mình, admin làm nghiêm điều đó mình ủng hộ. Nhưng việc xem xét kỹ trước khi làm là điều rất quan trọng với một người quản trị. Mà thôi, có lẽ chuyện nên dừng lại ở đây. Hi vọng sau này sẽ không có chuyện như vậy nữa :)","can_remove":false,"created_time":"2013-11-24T04:42:56+0000","like_count":4,"user_likes":false},"765209276829085":{"id":"765209276829085","from":{"id":"100001458099624","name":"Kham Pha"},"message":"Mình cũng hiểu ý tốt của bạn, nhưng đừng nói nặng lời vì một cái lỗi như vậy. Group hoạt động tốt nhờ các bạn ấy thì chẳng đc nhận một lời cảm ơn nhưng có chuyện thì ai cũng trách, như thế là ko công bằng.\nSau lần này các admin sẽ rút kinh nghiệm.","can_remove":false,"created_time":"2013-11-24T04:49:57+0000","like_count":4,"user_likes":false},"765209910162355":{"id":"765209910162355","from":{"id":"100003250657085","name":"Nhất Kiếm Vô Tình"},"message":"các bác cho em phát biết nốt câu cuối \" làm dâu trăm họ khổ thật đó \" nhưng em sẽ cố gắng hơn.","can_remove":false,"created_time":"2013-11-24T04:51:52+0000","like_count":8,"user_likes":false},"765211726828840":{"id":"765211726828840","from":{"id":"100000603915176","name":"悪いな ぁ"},"message":"Thực ra mọi người đều hiểu, để tạo nên được một cộng đồng tốt ngoài sự đóng góp của mọi cá nhân còn có sự đóng góp cực kỳ lớn của các admin. Cây cao bao giờ cũng hứng gió, đã làm admin sẽ phải biết chấp nhận lời chỉ trích nhiều hơn là lời cảm ơn. Nhưng nói là chẳng nhận được một lời cảm ơn thì không đúng, Kham Pha có thể xem lại, bài tốt của các admin có rất nhiều người nói lời cảm ơn đấy thôi. Chỉ có điều mọi hoạt động ở đây là phi lợi nhuận nên cũng chỉ dừng ở mức đó, không có thu nhâp, hihi :D Và cũng xin rút kinh nghiệm, lần sau sẽ không nặng lời quá nữa :p","message_tags":[{"id":"100001458099624","name":"Kham Pha","type":"user","offset":307,"length":8}],"can_remove":false,"created_time":"2013-11-24T04:56:34+0000","like_count":3,"user_likes":false},"765212430162103":{"id":"765212430162103","from":{"id":"100003250657085","name":"Nhất Kiếm Vô Tình"},"message":"mình thì chưa nhân được lời nào hehe nhưng thôi chắc ý mọi người là cần cô găng thêm","can_remove":false,"created_time":"2013-11-24T04:58:46+0000","like_count":0,"user_likes":false},"765212720162074":{"id":"765212720162074","from":{"id":"100001458099624","name":"Kham Pha"},"message":"Mình nói ko nhận đc lời cảm ơn là cho những công việc duyệt thành viên và xoá spam chứ ko phải mấy bài các admin viết ra hay đi sưu tầm về. Mấy cái cụ thể đấy thì phải cảm ơn là đung rồi.","can_remove":false,"created_time":"2013-11-24T04:59:45+0000","like_count":2,"user_likes":false},"765212840162062":{"id":"765212840162062","from":{"id":"100000603915176","name":"悪いな ぁ"},"message":"Cũng không hẳn, bạn mới làm admin thì phải. Bạn có thể xem các bài trước, những bài hay của các admin mọi người đều cảm ơn cà. Thực ra đôi khi lời cảm ơn chỉ là 1 nút like đơn giản :)","can_remove":false,"created_time":"2013-11-24T05:00:17+0000","like_count":1,"user_likes":false},"765227900160556":{"id":"765227900160556","from":{"id":"100004923553810","name":"Xuan KY Nguyen"},"message":"bài 3 cái hình bình an có đăng lên Phuong Thao Tran","message_tags":[{"id":"569263718","name":"Phuong Thao Tran","type":"user","offset":40,"length":16}],"can_remove":false,"created_time":"2013-11-24T05:41:48+0000","like_count":0,"user_likes":false},"765230536826959":{"id":"765230536826959","from":{"id":"569263718","name":"Phuong Thao Tran"},"message":"nói nhiều là vì gì nhỉ, âu cũng là muốn tốt cho nhau, cho công đồng thôi, chúng ta cùng cố gắng giảm bớt nhầm lẫn, tăng chất lượng bài, tăng tình thân ái đoàn kết là vui nhất rồi !!!","can_remove":false,"created_time":"2013-11-24T05:52:56+0000","like_count":1,"user_likes":false},"765240106826002":{"id":"765240106826002","from":{"id":"100000359762118","name":"Mi Tra"},"message":"Cảm ơn chị Phuong Thao Tran và các bạn đã góp ý. Admin chúng em sẽ rút kinh nghiệm và cố gắng làm tốt vai trò của mình hơn. Hi vọng vẫn sẽ nhận được sự ủng hộ và  đóng góp của các bạn cho Group.","message_tags":[{"id":"569263718","name":"Phuong Thao Tran","type":"user","offset":11,"length":16}],"can_remove":false,"created_time":"2013-11-24T06:30:59+0000","like_count":3,"user_likes":false},"765278063488873":{"id":"765278063488873","from":{"id":"100006464323686","name":"Dương Phạm"},"message":"Thôi zậy là làm hòa rồi nhé. Mọi người cùng cười lên để mình chộp 1 tấm tự sướng dìm hàng nào! ^_•`\nGanbarimashou!","can_remove":false,"created_time":"2013-11-24T08:10:30+0000","like_count":1,"user_likes":false},"765280193488660":{"id":"765280193488660","from":{"id":"100005801442456","name":"An Nguyen"},"message":"(･･;)❗️ nói cogate cái nào","can_remove":false,"created_time":"2013-11-24T08:18:33+0000","like_count":0,"user_likes":false},"765286533488026":{"id":"765286533488026","from":{"id":"100001958220978","name":"Trung Hiếu Bắp"},"message":"Konica :)","can_remove":false,"created_time":"2013-11-24T08:42:40+0000","like_count":0,"user_likes":false}},"paging":{"cursors":{"after":"NzY1MTY5NjQzNDk5NzE1","before":"NzY1MTY5NjQzNDk5NzE1"},"next":"https://graph.facebook.com/229244010425617_765167456833267/comments?limit=1&summary=1&after=NzY1MTY5NjQzNDk5NzE1"},"summary":{"order":"chronological","total_count":42}},"likes":{"data":[]}}