{"id":"229244010425617_765235653493114","type":"status","from":{"id":"100004162267469","name":"Nguyễn Hữu Gì Ấy"},"message":"E định đi du học tự túc vào tháng 10. Mọi ng cho e hỏi là nên xang đâu và học trường nào ạ","created_time":"2013-11-24T06:14:59+0000","updated_time":"2013-11-24T23:58:24+0000","likes":{"data":{"100007115589544":{"id":"100007115589544","name":"Oanh Đặng"},"100001781892599":{"id":"100001781892599","name":"Le Trung Thai"},"100003667085290":{"id":"100003667085290","name":"Xanh Xanh"}},"paging":{"cursors":{"after":"MTAwMDA3MTE1NTg5NTQ0","before":"MTAwMDA3MTE1NTg5NTQ0"},"next":"https://graph.facebook.com/229244010425617_765235653493114/likes?limit=1&summary=1&after=MTAwMDA3MTE1NTg5NTQ0"},"summary":{"total_count":3}},"comments":{"data":{"765236320159714":{"id":"765236320159714","from":{"id":"100007031552574","name":"Anh Nguyen"},"message":"bạn ơi tiếng việt sai rùi kìa","can_remove":false,"created_time":"2013-11-24T06:16:55+0000","like_count":1,"user_likes":false},"765236386826374":{"id":"765236386826374","from":{"id":"100007031552574","name":"Anh Nguyen"},"message":"hc tnhat lắm quá à","can_remove":false,"created_time":"2013-11-24T06:17:06+0000","like_count":0,"user_likes":false},"765236503493029":{"id":"765236503493029","from":{"id":"100007031552574","name":"Anh Nguyen"},"message":"vãi cả \" XANG \"","can_remove":false,"created_time":"2013-11-24T06:17:15+0000","like_count":0,"user_likes":false},"765236423493037":{"id":"765236423493037","from":{"id":"100007031552574","name":"Anh Nguyen"},"message":"mà quên cả tiếng việt thế","can_remove":false,"created_time":"2013-11-24T06:17:19+0000","like_count":0,"user_likes":false},"765236670159679":{"id":"765236670159679","from":{"id":"100004007822738","name":"Lê Văn Tùng"},"message":"Anh Nguyen 1 comment là được rồi bạn :3","message_tags":[{"id":"100007031552574","name":"Anh Nguyen","type":"user","offset":0,"length":10}],"can_remove":false,"created_time":"2013-11-24T06:18:16+0000","like_count":2,"user_likes":false},"765237830159563":{"id":"765237830159563","from":{"id":"100007031552574","name":"Anh Nguyen"},"message":"cơ mà nghĩ phải giải thích rõ ràng bạn à","can_remove":false,"created_time":"2013-11-24T06:23:05+0000","like_count":0,"user_likes":false},"765238330159513":{"id":"765238330159513","from":{"id":"100000359762118","name":"Mi Tra"},"message":"1. Học sinh (người đi du học)\n\n① Đơn xin nhập học (bạn đang ký vào trường nào thì trường đó sẽ đưa cho bạn)\n② Lý do du học ( viết rõ ràng lý do tại sao đi du học, dự định, kế hoạch khi tới Nhật,...)\n③ Bằng tốt nghiệp cấp học cao nhất ( bằng gốc)\n④ Học bạ cấp học cao nhất (bản gốc)\n⑤ Chứng nhận tiếng học Nhật\n⑥ Bằng tiếng Nhật của kỳ thi Nattest, GNK ... (trình độ N5 trở lên) \n⑦ Hộ chiếu phôtô\n⑧ Ảnh 3×4 (8 chiếc)\n   (Nếu có bằng tiếng anh hay giấy khen thưởng đặc biệt thì cũng nộp cùng)\n\n2. Người bảo lãnh (bố hoặc mẹ)\n\n① Giấy khai sinh ( bản sao công chứng)\n② Hộ khẩu (bản sao công chứng)\n③ Chứng nhận công việc (chức vụ, ngày bắt đầu làm, mức thu nhập trong vòng 3 năm gần nhất)\n④ Sổ ngân hàng sao công chứng \n⑤ Chứng nhận số dư ngân hàng\n⑥ Chứng minh thư nhân dân (bản sao công chứng)","can_remove":false,"created_time":"2013-11-24T06:25:24+0000","like_count":0,"user_likes":false},"765246730158673":{"id":"765246730158673","from":{"id":"1227016020","name":"Giang Huong Nguyen"},"message":"tự túc thì nên đi mấy trg phía nam thôi cho rẻ ^^","can_remove":false,"created_time":"2013-11-24T06:46:37+0000","like_count":0,"user_likes":false},"765246820158664":{"id":"765246820158664","from":{"id":"100001781892599","name":"Le Trung Thai"},"message":"chắc bạn học nihongo ghê ghớm lắm nè bởi vậy quên cả tiếng việt luôn.","can_remove":false,"created_time":"2013-11-24T06:46:52+0000","like_count":1,"user_likes":false},"765247720158574":{"id":"765247720158574","from":{"id":"1227016020","name":"Giang Huong Nguyen"},"message":"Trên đất nc này có bao nhiêu người nói ngọng hoặc viết sai chính tả? có gì to tát đâu nhi? :-?","can_remove":false,"created_time":"2013-11-24T06:50:15+0000","like_count":2,"user_likes":false},"765250213491658":{"id":"765250213491658","from":{"id":"100003796430338","name":"Cường Ađam Z"},"message":"Xai xửa vãi","can_remove":false,"created_time":"2013-11-24T06:58:42+0000","like_count":0,"user_likes":false},"765257310157615":{"id":"765257310157615","from":{"id":"100000359762118","name":"Mi Tra"},"message":"Các bạn đừng nhìn vào một lỗi sai của người ta mà chỉ trích như vậy. Các bạn có chắc chắn rằng các bạn không bao giờ viết sai lỗi chính tả?? Các bạn có chắc chắn rằng câu từ của mình luôn đúng với văn phạm ???\nAi có câu trả lời cho bạn ấy thì hãy cmt. Không thì thôi. Dừng việc soi mói vào một lỗi chính tả đó đi.","can_remove":false,"created_time":"2013-11-24T07:18:51+0000","like_count":7,"user_likes":false},"765261923490487":{"id":"765261923490487","from":{"id":"100000359762118","name":"Mi Tra"},"message":"Bạn tham khảo ở đây nhé!\nhttps://www.facebook.com/groups/CongdongVietNhat/permalink/765254623491217/","can_remove":false,"created_time":"2013-11-24T07:34:26+0000","like_count":0,"user_likes":false},"765270210156325":{"id":"765270210156325","from":{"id":"100000359762118","name":"Mi Tra"},"message":"Đề nghị Chester Nguyễn sửa lại cmt bằng tiếng Việt có dấu nhé!","message_tags":[{"id":"100001920547218","name":"Chester Nguyễn","type":"user","offset":8,"length":14}],"can_remove":false,"created_time":"2013-11-24T07:57:29+0000","like_count":0,"user_likes":false},"765271610156185":{"id":"765271610156185","from":{"id":"100001920547218","name":"Chester Nguyễn"},"message":"Mi Tra bạn sang nhật lâu chưa,mình lo không biết sang đó có tìm được việc làm thêm không nữa.bạn có kinh nghiệm cho mình biết với","message_tags":[{"id":"100000359762118","name":"Mi Tra","type":"user","offset":0,"length":6}],"can_remove":false,"created_time":"2013-11-24T08:01:42+0000","like_count":0,"user_likes":false},"765273906822622":{"id":"765273906822622","from":{"id":"100004360751785","name":"Hà Nguyễn"},"message":"Son Java sao bạn lại nói như vậy ?","message_tags":[{"id":"100004882693145","name":"Son Java","type":"user","offset":0,"length":8}],"can_remove":false,"created_time":"2013-11-24T08:08:46+0000","like_count":0,"user_likes":false},"765279780155368":{"id":"765279780155368","from":{"id":"100001920547218","name":"Chester Nguyễn"},"message":"các bạn ơi.điện thoại sky của hàn quốc mình có sử dụng được bên nhật không vậy..","can_remove":false,"created_time":"2013-11-24T08:16:22+0000","like_count":0,"user_likes":false},"765332516816761":{"id":"765332516816761","from":{"id":"100004977420613","name":"Tuấn Thịnh Vũ"},"message":"mang sang do nghe nhac voi chup a van ngon Chester Nguyễn a","message_tags":[{"id":"100001920547218","name":"Chester Nguyễn","type":"user","offset":43,"length":14}],"can_remove":false,"created_time":"2013-11-24T10:55:03+0000","like_count":0,"user_likes":false},"765332953483384":{"id":"765332953483384","from":{"id":"100004977420613","name":"Tuấn Thịnh Vũ"},"message":"neu di o mien bac thi den vjcc cua dh ngoai thuong ay no co may truong lien ket tien lam ho so chi mat dich Thuat voi cong chung  thui duoi 10 tr,ban goi dien hoi xem","can_remove":false,"created_time":"2013-11-24T10:56:58+0000","like_count":0,"user_likes":false},"765338576816155":{"id":"765338576816155","from":{"id":"100000359762118","name":"Mi Tra"},"message":"Đề nghị Tuấn Thịnh Vũ viết bằng tiếng Việt có dấu theo quy định của diễn đàn nhé!","message_tags":[{"id":"100004977420613","name":"Tuấn Thịnh Vũ","type":"user","offset":8,"length":13}],"can_remove":false,"created_time":"2013-11-24T11:13:19+0000","like_count":0,"user_likes":false},"765339450149401":{"id":"765339450149401","from":{"id":"100000359762118","name":"Mi Tra"},"message":"Chester Nguyễn: Việc làm thêm có thể tìm được nếu bạn biết tiếng. Còn không thì sẽ rất khó khăn.\nĐiện thoại của HQ có lẽ không sử dụng được ở Nhật.","message_tags":[{"id":"100001920547218","name":"Chester Nguyễn","type":"user","offset":0,"length":14}],"can_remove":false,"created_time":"2013-11-24T11:16:05+0000","like_count":0,"user_likes":false},"765342643482415":{"id":"765342643482415","from":{"id":"100006843131604","name":"Hoàng Thuận"},"message":"Ban có thể học tai trườngにしとうきょうこくさいきょいくがっくいん.chất lượng tốt. Hoc phí hơi đắt. Vung tokyo","can_remove":false,"created_time":"2013-11-24T11:25:01+0000","like_count":0,"user_likes":false},"765370790146267":{"id":"765370790146267","from":{"id":"100001920547218","name":"Chester Nguyễn"},"message":"Mi Tra vậy điện thoại bên nhật mua khoảng bao nhiêu tiền vậy bạn,","message_tags":[{"id":"100000359762118","name":"Mi Tra","type":"user","offset":0,"length":6}],"can_remove":false,"created_time":"2013-11-24T12:32:26+0000","like_count":0,"user_likes":false},"765370956812917":{"id":"765370956812917","from":{"id":"100004162267469","name":"Nguyễn Hữu Gì Ấy"},"message":"cái từ đó e ngọng rùi. mọi ng thông cảm. các anh chị xang rùi thì cho e ý kiến với","can_remove":false,"created_time":"2013-11-24T12:32:43+0000","like_count":0,"user_likes":false},"765372243479455":{"id":"765372243479455","from":{"id":"100000359762118","name":"Mi Tra"},"message":"Chester Nguyễn: Điện thoại bên này thì mỗi loại một giá. Như ip 5s hiện này tầm khoảng 8man = 16tr.","message_tags":[{"id":"100001920547218","name":"Chester Nguyễn","type":"user","offset":0,"length":14}],"can_remove":false,"created_time":"2013-11-24T12:34:58+0000","like_count":0,"user_likes":false},"765373520145994":{"id":"765373520145994","from":{"id":"100001920547218","name":"Chester Nguyễn"},"message":"điện thoại nội địa của nhật bản.mới qua không đủ tiền mua ip đâu bạn ơi","can_remove":false,"created_time":"2013-11-24T12:37:58+0000","like_count":0,"user_likes":false},"765374803479199":{"id":"765374803479199","from":{"id":"100000359762118","name":"Mi Tra"},"message":"Nguyễn Hữu Gì Ấy: các bạn đã góp ý thì bạn nên sửa đi. Đừng lặp lại nữa. \nNhững thông tin về du học mình đã gửi cho bạn ở những cmt trên. Còn đi vùng nào tốt và trường nào tốt thì mình không rõ lắm. \nDù đi trường nào hay vùng nào thì quan trọng nhất là ý chí và sự cố gắng của bạn. Hoàn cảnh, môi trường chỉ là một phần thôi.","message_tags":[{"id":"100004162267469","name":"Nguyễn Hữu Gì Ấy","type":"user","offset":0,"length":16}],"can_remove":false,"created_time":"2013-11-24T12:40:21+0000","like_count":0,"user_likes":false},"765376100145736":{"id":"765376100145736","from":{"id":"100004162267469","name":"Nguyễn Hữu Gì Ấy"},"message":"vâng ạ. e cảm ơn chị nha. mà chị là đi tự túc hay học bổng ạ","can_remove":false,"created_time":"2013-11-24T12:42:52+0000","like_count":0,"user_likes":false},"765377110145635":{"id":"765377110145635","from":{"id":"100000359762118","name":"Mi Tra"},"message":"Chester Nguyễn: Nếu mang điện thoại nước ngoài vào Nhật thì sim free may ra dùng được. Bạn có thể mua bằng hình thức trả góp.\nBạn nên nếu câu hỏi ra hẳn một topic riêng để tránh loãng topic này của Nguyễn Hữu.","message_tags":[{"id":"100001920547218","name":"Chester Nguyễn","type":"user","offset":0,"length":14}],"can_remove":false,"created_time":"2013-11-24T12:44:42+0000","like_count":0,"user_likes":false},"765377810145565":{"id":"765377810145565","from":{"id":"100000359762118","name":"Mi Tra"},"message":"Nguyễn Hữu Gì Ấy: Mình đi tự túc.","message_tags":[{"id":"100004162267469","name":"Nguyễn Hữu Gì Ấy","type":"user","offset":0,"length":16}],"can_remove":false,"created_time":"2013-11-24T12:46:55+0000","like_count":0,"user_likes":false},"765378246812188":{"id":"765378246812188","from":{"id":"100004162267469","name":"Nguyễn Hữu Gì Ấy"},"message":"chị đi ở vùng nào ạ. công việc ổn không chị","can_remove":false,"created_time":"2013-11-24T12:48:10+0000","like_count":0,"user_likes":false},"765378806812132":{"id":"765378806812132","from":{"id":"100001920547218","name":"Chester Nguyễn"},"message":"Mi Tra lúc trước bạn thì khả năng tiếng nhật của bạn giỏi chưa,qua nhật thì bao lâu bạn mới xin được việc làm vậy","message_tags":[{"id":"100000359762118","name":"Mi Tra","type":"user","offset":0,"length":6}],"can_remove":false,"created_time":"2013-11-24T12:49:16+0000","like_count":0,"user_likes":false},"765380100145336":{"id":"765380100145336","from":{"id":"100001920547218","name":"Chester Nguyễn"},"message":"mình đi theo gia đình chứ không phải đi du học,qua nhật minh mới đi học tiếng,ở việt nam minh chỉ mới học được sơ sơ thôi.mình không biết qua nhật học mấy tháng mới xin được việc làm","can_remove":false,"created_time":"2013-11-24T12:53:19+0000","like_count":0,"user_likes":false},"765380370145309":{"id":"765380370145309","from":{"id":"100000359762118","name":"Mi Tra"},"message":"Mình đi ở Tokyo. Trước khi đi, mình học hết 40 bài Minano Nihongo. Qua 3 tháng có việc (tự tìm)","can_remove":false,"created_time":"2013-11-24T12:54:07+0000","like_count":0,"user_likes":false},"765381040145242":{"id":"765381040145242","from":{"id":"100001920547218","name":"Chester Nguyễn"},"message":"nhật bản người ta không nói tiếng anh đúng không bạn.","can_remove":false,"created_time":"2013-11-24T12:56:17+0000","like_count":0,"user_likes":false},"765381100145236":{"id":"765381100145236","from":{"id":"100004162267469","name":"Nguyễn Hữu Gì Ấy"},"message":"giờ e mí đang học bảng chữ cái. e đi theo cty ICo mà không pít có tốt không","can_remove":false,"created_time":"2013-11-24T12:56:26+0000","like_count":0,"user_likes":false},"765382340145112":{"id":"765382340145112","from":{"id":"100000359762118","name":"Mi Tra"},"message":"Nguyễn Hữu Gì Ấy Mình không biết công ty ấy. Từ giờ tới tháng 10 còn đủ thời gian cho bạn nếu bạn cố gắng thực sự\n\nChester Nguyễn: người Nhật rất dở tiếng anh.","message_tags":[{"id":"100004162267469","name":"Nguyễn Hữu Gì Ấy","type":"user","offset":0,"length":16},{"id":"100001920547218","name":"Chester Nguyễn","type":"user","offset":115,"length":14}],"can_remove":false,"created_time":"2013-11-24T13:01:00+0000","like_count":0,"user_likes":false},"765389076811105":{"id":"765389076811105","from":{"id":"100001920547218","name":"Chester Nguyễn"},"message":"mìh tháng 3 là đi rồi","can_remove":false,"created_time":"2013-11-24T13:18:16+0000","like_count":0,"user_likes":false},"765389676811045":{"id":"765389676811045","from":{"id":"100001920547218","name":"Chester Nguyễn"},"message":"Mi Tra bây giờ công việc và việc hoc của bạn ổn định chưa.bạn làm thêm việc gì vậy","message_tags":[{"id":"100000359762118","name":"Mi Tra","type":"user","offset":0,"length":6}],"can_remove":false,"created_time":"2013-11-24T13:19:48+0000","like_count":0,"user_likes":false},"765390860144260":{"id":"765390860144260","from":{"id":"100000359762118","name":"Mi Tra"},"message":"Mình đã đi làm được mấy năm rồi.","can_remove":false,"created_time":"2013-11-24T13:22:12+0000","like_count":0,"user_likes":false},"765392053477474":{"id":"765392053477474","from":{"id":"100001920547218","name":"Chester Nguyễn"},"message":"oh.thế  bạn học sắp xong chưa.học xong bạn về việt nam or ở nhật làm luôn","can_remove":false,"created_time":"2013-11-24T13:24:47+0000","like_count":0,"user_likes":false},"765395486810464":{"id":"765395486810464","from":{"id":"100000359762118","name":"Mi Tra"},"message":"Mình ra trường được vài năm rồi. Tạm thời sẽ ở Nhật làm việc một thời gian.","can_remove":false,"created_time":"2013-11-24T13:31:41+0000","like_count":0,"user_likes":false},"765395783477101":{"id":"765395783477101","from":{"id":"100003634822576","name":"Jessica Lam Phuong"},"message":"Chester nguyễn,sao gia đình bạn sanh nhật dc","can_remove":false,"created_time":"2013-11-24T13:32:48+0000","like_count":0,"user_likes":false},"765408423475837":{"id":"765408423475837","from":{"id":"100000359762118","name":"Mi Tra"},"message":"Hồi đó đi ko cần N nào nên ko thi. Trình độ chắc giữa N4 - N3","can_remove":false,"created_time":"2013-11-24T14:02:15+0000","like_count":0,"user_likes":false},"765409020142444":{"id":"765409020142444","from":{"id":"100000359762118","name":"Mi Tra"},"message":"Ko có N nào. Chỉ có 1Kyu thôi. Thi lâu lắm rùi","can_remove":false,"created_time":"2013-11-24T14:03:57+0000","like_count":0,"user_likes":false},"765410740142272":{"id":"765410740142272","from":{"id":"100000359762118","name":"Mi Tra"},"message":"Cái này thì mình ko rõ vì lúc nào cũng thấy \"ngon ơ\". Thiệt đó. Vì luôn vận dụng từ và mẫu câu đã học để nói. Người ta nói thì chớp lấy nộp dung chính và phán đoán.","can_remove":false,"created_time":"2013-11-24T14:08:00+0000","like_count":0,"user_likes":false},"765413900141956":{"id":"765413900141956","from":{"id":"100000359762118","name":"Mi Tra"},"message":"Chắc tầm 4-5 tháng","can_remove":false,"created_time":"2013-11-24T14:13:53+0000","like_count":0,"user_likes":false},"765414640141882":{"id":"765414640141882","from":{"id":"100000359762118","name":"Mi Tra"},"message":"40 bài","can_remove":false,"created_time":"2013-11-24T14:15:23+0000","like_count":0,"user_likes":false},"765415870141759":{"id":"765415870141759","from":{"id":"100001781892599","name":"Le Trung Thai"},"message":"40 bài là nói ngon rồi hả Mi Tra. :D","message_tags":[{"id":"100000359762118","name":"Mi Tra","type":"user","offset":26,"length":6}],"can_remove":false,"created_time":"2013-11-24T14:18:19+0000","like_count":0,"user_likes":false},"765417910141555":{"id":"765417910141555","from":{"id":"100000359762118","name":"Mi Tra"},"message":"Chuyện riêng tư inbox riêng nhé Son Java ^^\n\nLe Trung Thai: 40 bài là cũng kha khá nếu biết vận dụng mẫu câu và từ","message_tags":[{"id":"100004882693145","name":"Son Java","type":"user","offset":32,"length":8}],"can_remove":false,"created_time":"2013-11-24T14:19:56+0000","like_count":0,"user_likes":false},"765427806807232":{"id":"765427806807232","from":{"id":"100000359762118","name":"Mi Tra"},"message":"Mình ko học bằng Romaji.","can_remove":false,"created_time":"2013-11-24T14:34:28+0000","like_count":0,"user_likes":false},"765428063473873":{"id":"765428063473873","from":{"id":"100004162267469","name":"Nguyễn Hữu Gì Ấy"},"message":"e sẽ cố gắng . sang năm xang mong anh chị giúp đỡ","can_remove":false,"created_time":"2013-11-24T14:35:14+0000","like_count":0,"user_likes":false},"765428400140506":{"id":"765428400140506","from":{"id":"100004162267469","name":"Nguyễn Hữu Gì Ấy"},"message":"domou arigato gozai masu","can_remove":false,"created_time":"2013-11-24T14:35:52+0000","like_count":0,"user_likes":false},"765428940140452":{"id":"765428940140452","from":{"id":"100000359762118","name":"Mi Tra"},"message":"Chỉ học lúc ban đầu để biết cách người Nhật dùng Romaji như thế nào thôi.","can_remove":false,"created_time":"2013-11-24T14:36:59+0000","like_count":1,"user_likes":false},"765430420140304":{"id":"765430420140304","from":{"id":"100000359762118","name":"Mi Tra"},"message":"Khi mới học mà nghe người bản địa, nhất là người già nói thì rất khó nghe. Chắc tiếng anh cũng vậy","can_remove":false,"created_time":"2013-11-24T14:40:44+0000","like_count":0,"user_likes":false},"765433706806642":{"id":"765433706806642","from":{"id":"100000359762118","name":"Mi Tra"},"message":"Người già nói thì câu nghe được câu không. (Nói chuyện với các cụ ở nhà cũng thế mừ ^^)","can_remove":false,"created_time":"2013-11-24T14:46:00+0000","like_count":0,"user_likes":false},"765437100139636":{"id":"765437100139636","from":{"id":"100000359762118","name":"Mi Tra"},"message":"Bạn vào đây tham khảo nhé!\nhttp://www.studyjapan.go.jp/vi/","can_remove":false,"created_time":"2013-11-24T14:51:48+0000","like_count":0,"user_likes":false},"765440920139254":{"id":"765440920139254","from":{"id":"100000359762118","name":"Mi Tra"},"message":"Mảng này thì mình ko rõ lắm.","can_remove":false,"created_time":"2013-11-24T15:00:56+0000","like_count":0,"user_likes":false},"765442596805753":{"id":"765442596805753","from":{"id":"100000359762118","name":"Mi Tra"},"message":"Cảm ơn bạn. Hi vọng sẽ giúp ích được chút nào đó cho bạn","can_remove":false,"created_time":"2013-11-24T15:04:23+0000","like_count":0,"user_likes":false},"765699050113441":{"id":"765699050113441","from":{"id":"100006508597181","name":"Nguyen Thanh Hoan"},"message":"ban nay chac chang co j co the giup ich cho ban y dau. o nha hoc lai tieng viet va cac dinh lai muc tieu da cho do phi tien bo me.","can_remove":false,"created_time":"2013-11-24T23:58:24+0000","like_count":0,"user_likes":false}},"paging":{"cursors":{"after":"NzY1MjM2MzIwMTU5NzE0","before":"NzY1MjM2MzIwMTU5NzE0"},"next":"https://graph.facebook.com/229244010425617_765235653493114/comments?limit=1&summary=1&after=NzY1MjM2MzIwMTU5NzE0"},"summary":{"order":"chronological","total_count":60}}}