{"id":"229244010425617_765254623491217","type":"status","from":{"id":"100000359762118","name":"Mi Tra"},"message":"NHỮNG GIẤY TỜ CẦN THIẾT VÀ CHI PHÍ THAM KHẢO KHI LÀM THỦ TỤC DU HỌC TỰ TÚC\n\n★ Khuyến cáo ★\nSang được đến Nhật không phải là một cái đích. Đó chỉ là nơi bắt đầu.  Thế nên KHÔNG PHÙ HỢP với các bạn sau: \n1. Không có mục đích, kế hoạch học tập rõ ràng. \n2. Không có sức khỏe, ý trí mạnh mẽ, vững vàng. Vừa học vừa làm mà chủ yếu là làm đêm rất vất vả, áp lực. Nếu không đủ sức khỏe thì không thể trụ được.\n3. Tiếng Nhật chưa tốt. Không giỏi tiếng thì không xin được việc, gặp nhiều khó khăn trong cuộc sống và sẽ dẫn tới hệ lụy là trộm cắp, đá vé\n4. Ở nhà chẳng biết làm gì. Thôi thì đi Nhật kiếm tí vốn. \nNhật không phải là thiên đường kiếm tiền nên những ai đang có ý định sẽ đi Nhật, hãy suy nghĩ thật kỹ và lập ra kế hoạch rõ ràng trước khi đi. Và hãy nhớ một điều nữa là khi ra nước ngoài, bạn là đại diện cho cả đất nước Việt Nam. Vì thế mỗi hành động, mỗi việc làm của cá nhân các bạn đều ảnh hưởng tới bộ mặt của đất nước và cộng đồng người Việt sinh sống và làm việc tại Nhật nói riêng và tại nước ngoài nói chung.\n\nVà dưới đây là nội dung chính. Mời các bạn tham khảo. \n\n★Những giấy tờ cần thiết khi làm thủ tục du học.\n\n1. Học sinh (người đi du học)\n\n① Đơn xin nhập học (mẫu đơn trường sẽ cung cấp)\n② Lý do du học ( viết rõ ràng lý do tại sao đi du học, dự định, kế hoạch khi tới Nhật, sau khi tốt nghiệp,...)\n③ Bằng tốt nghiệp cấp học cao nhất ( bằng gốc)\n④ Học bạ cấp học cao nhất (bản gốc)\n⑤ Chứng nhận tiếng học Nhật\n⑥ Bằng tiếng Nhật của kỳ thi Nattest, TopJ  (trình độ N5 trở lên) \n⑦ Hộ chiếu photo (nếu có)\n⑧ Ảnh thẻ.\n (Nếu có bằng tiếng anh hay giấy khen thưởng đặc biệt thì nộp cùng)\n\n2. Người bảo lãnh (bố hoặc mẹ)\n\n① Giấy khai sinh ( bản sao công chứng)\n② Hộ khẩu (bản sao công chứng)\n③ Chứng nhận công việc (chức vụ, ngày bắt đầu làm, mức thu nhập trong vòng 3 năm gần nhất)\n   Làm kinh doanh tự do thì cần giấy chứng nhận kinh doanh.\n④ Sổ ngân hàng sao công chứng \n⑤ Chứng nhận số dư ngân hàng\n⑥ Chứng minh thư nhân dân (bản sao công chứng)\n\n★Chi phí tham khảo\n\n(Mức chi phí dưới đây mang tính chất tham khảo. Sẽ có sự chênh lệch tùy từng trường)\n\nTrường hợp trả học phí 1 năm:\n1. Phí xét tuyển hồ sơ …………… 20,000 yen\n2. Tiền nhập học …………………  60,000 yen\n3. Học phí 1 năm…………………  600,000 yen\n4. Sách giáo khoa, \nhoạt động ngoại khóa, bảo hiểm…... 37,000 yen\n5. Cơ sở thiết bị……………………  20,000 yen\n6.Phí chuyển tiền, đưa đón…………15,000 yen\n\nTổng ………752,000 yen\n\nTrường hợp trả học phí nửa năm\n1. Phí xét tuyển hồ sơ …………… 20,000  yen\n2. Tiền nhập học …………………  60,000  yen\n3. Học phí 1 năm…………………  300,000  yen\n4. Sách giáo khoa, \nhoạt động ngoại khóa, bảo hiểm….... 37,000 yen\n5. Cơ sở thiết bị……………………  20,000 yen\n6.Phí chuyển tiền, đưa đón………   5,000 yen\n\nTổng ……… 452,000 yen\n\nNgoài ra sẽ phải đóng thêm tiền nhà ở 3 tháng hoặc 6 tháng. Giá nhà thì tùy vùng sẽ có sự khác nhau.\n\nChúc các bạn chọn được trường tốt và không phải đóng tiền với giá trên trời cho những trung tâm môi giới.","created_time":"2013-11-24T07:11:39+0000","updated_time":"2013-11-25T15:25:33+0000","likes":{"data":{"1816269439":{"id":"1816269439","name":"Dao Ngoc"},"100001526631937":{"id":"100001526631937","name":"Tường Oanh Mineko"},"100003090738530":{"id":"100003090738530","name":"Ngô Thị Thanh Hường"},"100004330389230":{"id":"100004330389230","name":"Nhóc Con Kawaii"},"100005801442456":{"id":"100005801442456","name":"An Nguyen"},"100001754136107":{"id":"100001754136107","name":"Nguyễn Tuấn Vũ"},"100000027754899":{"id":"100000027754899","name":"Hoang Van Ba"},"100001243411261":{"id":"100001243411261","name":"Ngưu Tỷ Tỷ"},"100001416272263":{"id":"100001416272263","name":"Mai PB"},"100001872458112":{"id":"100001872458112","name":"Alita Nguyen"},"100004306806098":{"id":"100004306806098","name":"Tự Đi Tìm Chết"},"100005291829327":{"id":"100005291829327","name":"Vinh Quang"},"100000215142696":{"id":"100000215142696","name":"Tăng Anh Thư"},"100004095967794":{"id":"100004095967794","name":"Key Panda"},"100001359798024":{"id":"100001359798024","name":"November Gi"},"100001723862714":{"id":"100001723862714","name":"Bo Bien Vang"},"100003321786144":{"id":"100003321786144","name":"Baloon Bambootatoo"},"100005859968752":{"id":"100005859968752","name":"Lan Tran"},"100001458099624":{"id":"100001458099624","name":"Kham Pha"},"100005057314988":{"id":"100005057314988","name":"Hà"},"100001958220978":{"id":"100001958220978","name":"Trung Hiếu Bắp"},"100003007563291":{"id":"100003007563291","name":"Đào Trần"},"100000089153942":{"id":"100000089153942","name":"Chii Rin"},"100000045271667":{"id":"100000045271667","name":"Nam Thai Nguyen"},"1821970083":{"id":"1821970083","name":"Nguyễn Mạnh Cường"},"100005620957314":{"id":"100005620957314","name":"Nguyễn Trọng Thái"},"100004360751785":{"id":"100004360751785","name":"Hà Nguyễn"},"1303327291":{"id":"1303327291","name":"Nguyễn Thanh Tùng"},"1026780646":{"id":"1026780646","name":"Việt Hưng Khổng"}},"paging":{"cursors":{"after":"MTgxNjI2OTQzOQ==","before":"MTgxNjI2OTQzOQ=="},"next":"https://graph.facebook.com/229244010425617_765254623491217/likes?limit=1&summary=1&after=MTgxNjI2OTQzOQ%3D%3D"},"summary":{"total_count":31}},"comments":{"data":{"765264356823577":{"id":"765264356823577","from":{"id":"100004360751785","name":"Hà Nguyễn"},"message":"thông tin hữu ích lắm đó c Mi Tra, giờ cty du học mọc như nấm, học sinh phải trả toàn giá trên trời. hy vọng nhiều bạn đọc được thông tin này","message_tags":[{"id":"100000359762118","name":"Mi Tra","type":"user","offset":27,"length":6}],"can_remove":false,"created_time":"2013-11-24T07:41:31+0000","like_count":2,"user_likes":false},"765269380156408":{"id":"765269380156408","from":{"id":"1821970083","name":"Nguyễn Mạnh Cường"},"message":"Em vừa làm hồ sơ với đúng những khoản như trên và lệ phí tương đương, may quá :D Chị Mi Tra có biết vùng ikebukuro Tokyo ko ạ. Em có xin học ở trg Meros tại đó :D","message_tags":[{"id":"100000359762118","name":"Mi Tra","type":"user","offset":85,"length":6}],"can_remove":false,"created_time":"2013-11-24T07:54:10+0000","like_count":2,"user_likes":false},"765269923489687":{"id":"765269923489687","from":{"id":"100000359762118","name":"Mi Tra"},"message":"Chị cũng đã tới trường đó 1 lần. Ikebukuro và khu sầm uất của Tokyo và khá đắt đỏ nhưng cũng ko phải là khó sống.","can_remove":false,"created_time":"2013-11-24T07:56:09+0000","like_count":0,"user_likes":false},"765270976822915":{"id":"765270976822915","from":{"id":"100005934548279","name":"Cậu Bé Buồn"},"message":"そうか、","can_remove":false,"created_time":"2013-11-24T07:59:50+0000","like_count":0,"user_likes":false},"765282190155127":{"id":"765282190155127","from":{"id":"100003250657085","name":"Nhất Kiếm Vô Tình"},"message":"đấy là giá cty đưa ra theo hay không là do mình mình đang cần họ họ bảo sao thì làm vậy thôi đắt cũng phải chỉ. chẳng nhẽ nói với họ rằng em tính chỉ hết cần này tiền cty lấy đắt quá em ko đi nữa. ai nghe được ko ?","can_remove":false,"created_time":"2013-11-24T08:26:40+0000","like_count":0,"user_likes":false},"765283730154973":{"id":"765283730154973","from":{"id":"100000359762118","name":"Mi Tra"},"message":"Nếu có bản học phí của trường bạn hãy đem ra và yêu cầu họ giải thích những khoản chi phí cần phải trả. Nếu cảm thấy không chấp nhận được thì tìm những trung tâm uy tín và chi phí hợp lý hơn. Làm dịch vụ thì đương nhiên họ sẽ phải chi phí thêm những khoản phát sinh khi xử lý hồ sơ nhưng ko phải vì thế mà lợi dụng sự không biết của người khác để lấy giá trên trời","can_remove":false,"created_time":"2013-11-24T08:32:21+0000","like_count":1,"user_likes":false},"765284406821572":{"id":"765284406821572","from":{"id":"100003250657085","name":"Nhất Kiếm Vô Tình"},"message":"mình quên mất mình có thể xin bản học phí của trường mình học và làm như Mi Tra nói hehe hôm nay mình bị sao vậy ta","can_remove":false,"created_time":"2013-11-24T08:34:27+0000","like_count":0,"user_likes":false},"765295746820438":{"id":"765295746820438","from":{"id":"1821970083","name":"Nguyễn Mạnh Cường"},"message":"Em đi theo Lapis trong Sài Gòn do được thầy giáo gt, đây là đại diện của trường Meros ở VN nên mới quyết định, bên Lapis thông báo là 73 man, em thấy hơi đắt. Em tìm trên mạng thì thấy thông báo trường tiếng ở Meros, đúng 73 man cho 1 năm, nếu nộp 2 năm thì là 140man. Chị Mi Tra có gần Ikebukuro ko ạ?","message_tags":[{"id":"100000359762118","name":"Mi Tra","type":"user","offset":273,"length":6}],"can_remove":false,"created_time":"2013-11-24T09:11:54+0000","like_count":0,"user_likes":false},"765303526819660":{"id":"765303526819660","from":{"id":"100003726227911","name":"Hoang Nguyen Huy"},"message":"Tớ mới sang tháng 10 thôi tơ ko biết trường meros của bạn nhưng tớ biết ga ikebukuro. Ga to lắm và khu đấy khá là sầm uất có khả năng bạn phải thuê nhà cách một hai ga (chỉ là khả năng thôi nha tớ ko rõ lắm). Còn về các mức học phí thì tớ thấy cty nó sẽ cung cấp rất chuẩn luôn(có dấu đỏ của trường luôn).Nó ăn là ăn ở tiền nhà bạn à nó sẽ thuê nhà cho bạn với mức giá như một mình bạn ở một nhà thôi xong nó sẽ ghép thêm khoảng 1 đến 2 người nữa ở cùng và ăn cái khoản dư ra của 1 hay 2 ng đấy bạn à. Nó còn ăn ở các tiền khác nữa tớ chưa tìm hiểu đc hết. Còn tiền học phí nó sẽ đc nhà trường trích phần trăm cho đấy. Bạn kiểu gì cũng phải mất khoảng 230tr( và nhiều lời hứa gió bay nữa bạn nha)một lần du học hoặc nếu rẻ hơn thì là do bạn chọn chỉ đóng nửa năm học phí thôi. Cẩn thận hỏi kỹ tiền nhà nha. Hỏi xem bao nhiêu tiền một tháng ở cùng khoảng bao nhiêu người bạn sẽ nhận đc câu trả lời vòng vo khó hiểu nên bạn bắt nó gt bằng đc thì thôi.","can_remove":false,"created_time":"2013-11-24T09:40:04+0000","like_count":1,"user_likes":false},"765305133486166":{"id":"765305133486166","from":{"id":"100000359762118","name":"Mi Tra"},"message":"Nguyễn Mạnh Cường : Học phí trương đó 73man/ 1 năm đó. Chị ko ở gần đó. Chị cách xa cả tiếng tàu cơ.","message_tags":[{"id":"1821970083","name":"Nguyễn Mạnh","type":"user","offset":0,"length":11}],"can_remove":false,"created_time":"2013-11-24T09:46:22+0000","like_count":1,"user_likes":false},"765322153484464":{"id":"765322153484464","from":{"id":"1821970083","name":"Nguyễn Mạnh Cường"},"message":"Hoang Nguyen Huy đúng rồi, mình đi với tầm tiền đó, hiện đang được yêu cầu đóng tiền làm hồ sơ là $410 ~ 8,6T VND :( không biết là giá như thế là thế nào? Chị Mi Tra , việc dịch thuật có mắc như vậy ko ạ, em hiểu làm hồ sơ là dịch rồi gửi qua trường bên thôi đúng ko ạ., tiền KTX nhà ở thì đắt quá, như Hoang Nguyen nói là đúng quá $1,700 3 tháng :-ss đang tìm xem có ai để xin ở trọ :(","message_tags":[{"id":"100003726227911","name":"Hoang Nguyen Huy","type":"user","offset":0,"length":16},{"id":"100000359762118","name":"Mi Tra","type":"user","offset":159,"length":6}],"can_remove":false,"created_time":"2013-11-24T10:31:35+0000","like_count":0,"user_likes":false},"765325073484172":{"id":"765325073484172","from":{"id":"1821970083","name":"Nguyễn Mạnh Cường"},"message":"Anh Nguyễn có giúp gì được mình ko ? Ad cũng đang học ở Meros phải ko ?","message_tags":[{"id":"1146680551","name":"Anh Nguyễn","type":"user","offset":0,"length":10}],"can_remove":false,"created_time":"2013-11-24T10:32:35+0000","like_count":0,"user_likes":false},"765326013484078":{"id":"765326013484078","from":{"id":"100000359762118","name":"Mi Tra"},"message":"Giá dịch hồ sơ, gửi sang trường nọ kia cũng tầm đó đó em ạ","can_remove":false,"created_time":"2013-11-24T10:36:22+0000","like_count":1,"user_likes":false},"765328800150466":{"id":"765328800150466","from":{"id":"100003673614573","name":"Nguyễn Sơn Hà"},"message":"hay cho cau n0j: qua nhat k phaj la caj djch, ma do la n0j bat dau","can_remove":false,"created_time":"2013-11-24T10:45:08+0000","like_count":3,"user_likes":false},"765329823483697":{"id":"765329823483697","from":{"id":"100003726227911","name":"Hoang Nguyen Huy"},"message":"Bạn nên tìm xem các mối quan hệ bên này rồi hoi ở cùng ý à đừng nên đưa tiền nhà thuê cho họ. Nói chung là hơi khó một tí nhưng đỡ đc cả Đống tiền.hihi.chứ vơis số tiền nhà đó bạn có thể thuê một phòng ở ba tháng một mình một vương quốc. Tiền dịch thuật và gửi hs thì theo tớ đó là hơi mắc ( ý kiến riêng thôi nha vì tớ tìm hiểu là tự làm hs còn đây là đi qua công ty nên sự so sánh hơi khập khiễng)","can_remove":false,"created_time":"2013-11-24T10:48:51+0000","like_count":2,"user_likes":false},"765330263483653":{"id":"765330263483653","from":{"id":"1821970083","name":"Nguyễn Mạnh Cường"},"message":"Trời xem profile của Anh Anh Nguyễn ko thể xưng hô là bạn bè được, Anh Anh giúp em với :D","message_tags":[{"id":"1146680551","name":"Anh Nguyễn","type":"user","offset":25,"length":10}],"can_remove":false,"created_time":"2013-11-24T10:50:15+0000","like_count":0,"user_likes":false},"766028776747135":{"id":"766028776747135","from":{"id":"100000024629190","name":"Thanh Ngọc"},"message":"hie hie mình cũg vừa tốt nghịêp meros :v","can_remove":false,"created_time":"2013-11-25T15:08:45+0000","like_count":1,"user_likes":false},"766029206747092":{"id":"766029206747092","from":{"id":"1146680551","name":"優しい なぁ"},"message":"e là hs cá biệt , theo trai bỏ cuộc chơi :v","can_remove":false,"created_time":"2013-11-25T15:09:56+0000","like_count":3,"user_likes":false},"766031100080236":{"id":"766031100080236","from":{"id":"100000024629190","name":"Thanh Ngọc"},"message":"kaka tr mừn bây h nhiều ng việt ghê ha a. may à học xong r chứ học cùg nhiều ng việt mất vui a nhể  :v","can_remove":false,"created_time":"2013-11-25T15:14:49+0000","like_count":2,"user_likes":false},"766031653413514":{"id":"766031653413514","from":{"id":"1146680551","name":"優しい なぁ"},"message":"anh k nc vs ai nên a k biết :v cũng hông quan tâm.Việc mình mình làm thui :v","can_remove":false,"created_time":"2013-11-25T15:15:49+0000","like_count":1,"user_likes":false},"766032220080124":{"id":"766032220080124","from":{"id":"100000024629190","name":"Thanh Ngọc"},"message":"chẹp chẹp thế bác sắp tự kỷ đến nơi r  :v","can_remove":false,"created_time":"2013-11-25T15:17:29+0000","like_count":0,"user_likes":false},"766034730079873":{"id":"766034730079873","from":{"id":"1821970083","name":"Nguyễn Mạnh Cường"},"message":"Còn anh nào ở bên đó dài dài ko ạ, em đang lo sợ sang đó bơ vơ ạ? Mặc dù tháng 4 năm sau mới qua, nhưng em đang lo trước việc thuê nhà trọ ạ :D ai giúp em với :D","can_remove":false,"created_time":"2013-11-25T15:23:35+0000","like_count":0,"user_likes":false},"766035423413137":{"id":"766035423413137","from":{"id":"1146680551","name":"優しい なぁ"},"message":"trường có KTX mà e.Nên ở KTX vì gần trường, trường ở ike nên đi đâu cũng tiện. Với lại qua đây nên sông tự thân vận đông. ^_^","can_remove":false,"created_time":"2013-11-25T15:25:33+0000","like_count":1,"user_likes":false}},"paging":{"cursors":{"after":"NzY1MjY0MzU2ODIzNTc3","before":"NzY1MjY0MzU2ODIzNTc3"},"next":"https://graph.facebook.com/229244010425617_765254623491217/comments?limit=1&summary=1&after=NzY1MjY0MzU2ODIzNTc3"},"summary":{"order":"chronological","total_count":24}}}