{"id":"229244010425617_765380993478580","type":"status","from":{"id":"100002898154513","name":"Gã Shrek"},"message":"Tuần 1: \nNgày thứ sáu \n\nI. Cấu trúc: V ようと思う\nVới động từ V được chia ở thể 意向形(いこうけい) -thể ý hướng. Mẫu này diễn tả quyết định, ý chí hoặc kế hoạch của người nói, quyết định đã có từ trước và bây giờ vẫn giữ quyết định đó. Thường hay gặp chia ở thể 思っています - Tôi đang nghĩ là~\nVí dụ\n1. 時間(じかん)があれば、旅行(りょこう)をしようと思(おも)っています. (旅行(りょこう)するつもりです)\nNếu mà có thời gian thì tôi dự định sẽ đi du lịch.\n2. 日本(にほん)で仕事(しごと)を見(み)つけようと思(おも)っています.\nTôi dự định là sẽ tìm việc tại Nhật Bản.\n3. 外国(がいこく)で勉強(べんきょう)しようと思(おも)っています.\nTôi dự định là sẽ học tập tại nước ngoài.\n\nII. Cấu trúc: V ようとする\nDiễn tả việc khi bắt đầu làm hành động 1 thì có hành động 2 xảy ra.\nVí dụ\n1. 電車(でんしゃ)に乗(の)ろうとしたときに、ドア(どあ)が閉(し)まって乗(の)れなかっ た 。(=乗(の)る動(どう)作(さく)を始(はじ)めたときに)\nLúc đang định bước lên tàu điện thì cánh cửa đóng sập lại, làm tớ không lên được.\n2. あ、ポチ(ぽち)が、あなたの靴(くつ)をかもうとしているよ。(=かみそうだ)\nƠ, có vẻ như Pochi muốn cắn giày của bạn. (Pochi là tên con chó thui)\nIII. Cấu trúc: V ようとしない\n\nDiễn tả việc không mong muốn làm gì đó.\nVí dụ\n1. 彼(かれ)は自分(じぶん)のことは何(なに)も言(い)おうとしない。(=言(い)うつもりがない)\nÔng ấy không có ý định nói về chính mình.\n\n練習しましょう。\nI.　正しい方にOをつけなさい。\n①　おふろに　（a　入よう　b　入ろう）としたとき、誰か来ました。\n②　父はそれについて何も（a　話そう　b　話しよう）としない。\n③　このジャムのふたは、いくら開け　（a　よう　b　ろう）としても（a　開かない　b　開こうとしない）。\n④　A　「昨日は授業に来なかったね」\n　　B　「うん、（a　来るだろう　b　来よう）と思っていたんだけど、熱が出て休んだんだ。」\nＩＩ。下の語を並べ替えて正しい文を作りなさい。＿＿＿に数字をかきなさい。\n⑤　買おう　＿＿＿　＿＿＿　＿＿＿　＿＿＿　きちゃった。\n　１　忘れて　２　書いといた　３　と思って　４　メモを\n⑥　弟の好きな＿＿＿　＿＿＿　＿＿＿　＿＿＿思っています。\n　１　誕生日に　２　買って　３　CDを　４　やろうと\n\nP/s: Ngày mai mình sẽ có một bài tập tổng hợp cho cả những cấu trúc ngữ pháp trong tuần thứ nhất này.\nChúc các bạn học tốt.\nGã Shrek!","created_time":"2013-11-24T12:56:09+0000","updated_time":"2013-11-24T14:37:07+0000","likes":{"data":{"1305472811":{"id":"1305472811","name":"Tuan Nguyen"},"100004802197403":{"id":"100004802197403","name":"Công Tử Hào Hoa"},"100006479420145":{"id":"100006479420145","name":"Trịnh Thị Kim Anh"},"100000271705877":{"id":"100000271705877","name":"Nguyễn Văn Minh"}},"paging":{"cursors":{"after":"MTMwNTQ3MjgxMQ==","before":"MTMwNTQ3MjgxMQ=="},"next":"https://graph.facebook.com/229244010425617_765380993478580/likes?limit=1&summary=1&after=MTMwNTQ3MjgxMQ%3D%3D"},"summary":{"total_count":5}},"comments":{"data":{"765421253474554":{"id":"765421253474554","from":{"id":"100004405054916","name":"Trần Anh Dũng"},"message":"Làm trận fifa rồi học..:)","can_remove":false,"created_time":"2013-11-24T14:23:09+0000","like_count":1,"user_likes":false},"765421750141171":{"id":"765421750141171","from":{"id":"100002898154513","name":"Gã Shrek"},"message":"Trần Anh Dũng :v :v :v ở đâu cũng có mặt, học ong hết cả đầu.","message_tags":[{"id":"100004405054916","name":"Trần Anh Dũng","type":"user","offset":0,"length":13}],"can_remove":false,"created_time":"2013-11-24T14:24:29+0000","like_count":0,"user_likes":false},"765423953474284":{"id":"765423953474284","from":{"id":"100004405054916","name":"Trần Anh Dũng"},"message":"Cậu n2 hay n3 rồi? :)","can_remove":false,"created_time":"2013-11-24T14:26:36+0000","like_count":0,"user_likes":false},"765424100140936":{"id":"765424100140936","from":{"id":"100002898154513","name":"Gã Shrek"},"message":"đang học N3 thôi. :3 còn Trần Anh Dũng","message_tags":[{"id":"100004405054916","name":"Trần Anh Dũng","type":"user","offset":25,"length":13}],"can_remove":false,"created_time":"2013-11-24T14:26:57+0000","like_count":0,"user_likes":false},"765424616807551":{"id":"765424616807551","from":{"id":"100004405054916","name":"Trần Anh Dũng"},"message":"T thì sắp thi n4 thôi..:) còn non lắm..:D","can_remove":false,"created_time":"2013-11-24T14:28:10+0000","like_count":1,"user_likes":false},"765424983474181":{"id":"765424983474181","from":{"id":"100002898154513","name":"Gã Shrek"},"message":"Trần Anh Dũng tháng 12 này thi à. Chủ nhật tuần sau ý :v","message_tags":[{"id":"100004405054916","name":"Trần Anh Dũng","type":"user","offset":0,"length":13}],"can_remove":false,"created_time":"2013-11-24T14:28:39+0000","like_count":0,"user_likes":false},"765425186807494":{"id":"765425186807494","from":{"id":"100004405054916","name":"Trần Anh Dũng"},"message":"Chuẩn rồi.. Chưa thấy giấy báo đâu cả, haiz","can_remove":false,"created_time":"2013-11-24T14:29:12+0000","like_count":0,"user_likes":false},"765425416807471":{"id":"765425416807471","from":{"id":"100002898154513","name":"Gã Shrek"},"message":"Trần Anh Dũng đang ở Nhật hay vn ? mà chưa thấy giấy bảo?","message_tags":[{"id":"100004405054916","name":"Trần Anh Dũng","type":"user","offset":0,"length":13}],"can_remove":false,"created_time":"2013-11-24T14:29:39+0000","like_count":0,"user_likes":false},"765425670140779":{"id":"765425670140779","from":{"id":"100004405054916","name":"Trần Anh Dũng"},"message":"t đang học ở HN thôi, c đang ở chõ nào?","can_remove":false,"created_time":"2013-11-24T14:30:16+0000","like_count":1,"user_likes":false},"765425863474093":{"id":"765425863474093","from":{"id":"100004405054916","name":"Trần Anh Dũng"},"message":"Nhật thì làm sao mà chơi fifa đc..=))","can_remove":false,"created_time":"2013-11-24T14:30:37+0000","like_count":0,"user_likes":false},"765425950140751":{"id":"765425950140751","from":{"id":"100002898154513","name":"Gã Shrek"},"message":"Trần Anh Dũng thế sao chưa nhận được giấy báo. Nhật vẫn chơi đc bình thường nha :v","message_tags":[{"id":"100004405054916","name":"Trần Anh Dũng","type":"user","offset":0,"length":13}],"can_remove":false,"created_time":"2013-11-24T14:30:53+0000","like_count":0,"user_likes":false},"765426576807355":{"id":"765426576807355","from":{"id":"100004405054916","name":"Trần Anh Dũng"},"message":"Ủa, thế c ở Nhật à? Chắc là do thất lạc, cũng ko quan trọng lắm..:)","can_remove":false,"created_time":"2013-11-24T14:32:05+0000","like_count":1,"user_likes":false},"765427173473962":{"id":"765427173473962","from":{"id":"100002898154513","name":"Gã Shrek"},"message":"Trần Anh Dũng k ở Việt Nam. Chủ nhật tuần sau lên HN thi đấy :v","message_tags":[{"id":"100004405054916","name":"Trần Anh Dũng","type":"user","offset":0,"length":13}],"can_remove":false,"created_time":"2013-11-24T14:33:26+0000","like_count":0,"user_likes":false},"765428376807175":{"id":"765428376807175","from":{"id":"100004405054916","name":"Trần Anh Dũng"},"message":"CN-Thi xong ra chơi làm ít trà đá bàn fifa chứ nhỉ? :v","can_remove":false,"created_time":"2013-11-24T14:35:50+0000","like_count":1,"user_likes":false},"765428623473817":{"id":"765428623473817","from":{"id":"100002898154513","name":"Gã Shrek"},"message":"Trần Anh Dũng okie :v :v :v","message_tags":[{"id":"100004405054916","name":"Trần Anh Dũng","type":"user","offset":0,"length":13}],"can_remove":false,"created_time":"2013-11-24T14:36:19+0000","like_count":1,"user_likes":false},"765429026807110":{"id":"765429026807110","from":{"id":"100004405054916","name":"Trần Anh Dũng"},"message":"Sang trường ấy thi ko có bạn bè cũng chán..:)","can_remove":false,"created_time":"2013-11-24T14:37:07+0000","like_count":1,"user_likes":false}},"paging":{"cursors":{"after":"NzY1NDIxMjUzNDc0NTU0","before":"NzY1NDIxMjUzNDc0NTU0"},"next":"https://graph.facebook.com/229244010425617_765380993478580/comments?limit=1&summary=1&after=NzY1NDIxMjUzNDc0NTU0"},"summary":{"order":"chronological","total_count":16}}}