{"id":"229244010425617_765442903472389","type":"status","from":{"id":"100005369944097","name":"Trái Tim Lạnh"},"message":"Có a nào ở aichi ko?thág 3 năm sau e tu nghiệp đó ak","created_time":"2013-11-24T15:04:58+0000","updated_time":"2013-11-24T15:39:35+0000","comments":{"data":{"765446296805383":{"id":"765446296805383","from":{"id":"100002949559606","name":"Thieu Ka"},"message":"Anh o gunma tren tokyo","can_remove":false,"created_time":"2013-11-24T15:11:37+0000","like_count":0,"user_likes":false},"765447840138562":{"id":"765447840138562","from":{"id":"100005369944097","name":"Trái Tim Lạnh"},"message":"xa wa.ban a co do ko???","can_remove":false,"created_time":"2013-11-24T15:15:36+0000","like_count":0,"user_likes":false},"765448516805161":{"id":"765448516805161","from":{"id":"100002949559606","name":"Thieu Ka"},"message":"Anh ha.","can_remove":false,"created_time":"2013-11-24T15:17:09+0000","like_count":0,"user_likes":false},"765448846805128":{"id":"765448846805128","from":{"id":"100005369944097","name":"Trái Tim Lạnh"},"message":"ko.pan cua a kja","can_remove":false,"created_time":"2013-11-24T15:17:57+0000","like_count":0,"user_likes":false},"765450243471655":{"id":"765450243471655","from":{"id":"100003250657085","name":"Nhất Kiếm Vô Tình"},"message":"làm gì cứ sốt sình sịch thế bn cứ từ từ nghe nói tu nghiệp sinh cty quản người kỹ nắm đâu cho ra làm ngoài đâu","can_remove":false,"created_time":"2013-11-24T15:21:19+0000","like_count":0,"user_likes":false},"765450816804931":{"id":"765450816804931","from":{"id":"100005369944097","name":"Trái Tim Lạnh"},"message":"z ha??","can_remove":false,"created_time":"2013-11-24T15:22:43+0000","like_count":0,"user_likes":false},"765450973471582":{"id":"765450973471582","from":{"id":"100000359762118","name":"Mi Tra"},"message":"Đề nghị các bạn khi đăng bài và bình luận hãy viết tiếng Việt có dấu theo quy định của diễn đàn nhé!\nBạn Trái Tim Lạnh sửa lại luôn ko là bắt buộc chúng mình phải xóa bài đăng","message_tags":[{"id":"100005369944097","name":"Trái Tim Lạnh","type":"user","offset":105,"length":13}],"can_remove":false,"created_time":"2013-11-24T15:22:54+0000","like_count":0,"user_likes":false},"765451066804906":{"id":"765451066804906","from":{"id":"100005369944097","name":"Trái Tim Lạnh"},"message":"co tih tron au","can_remove":false,"created_time":"2013-11-24T15:23:01+0000","like_count":0,"user_likes":false},"765452846804728":{"id":"765452846804728","from":{"id":"100003250657085","name":"Nhất Kiếm Vô Tình"},"message":"nghe chưa nghe chưa Trái Tim Lạnh cái cô Mi Mi Tra xinh xinh kia kia là tranh tra đó ác có tiếng của group mình đó ko đùa được đâu.","message_tags":[{"id":"100005369944097","name":"Trái Tim Lạnh","type":"user","offset":20,"length":13},{"id":"100000359762118","name":"Mi Tra","type":"user","offset":44,"length":6}],"can_remove":false,"created_time":"2013-11-24T15:25:47+0000","like_count":0,"user_likes":false},"765452866804726":{"id":"765452866804726","from":{"id":"100005369944097","name":"Trái Tim Lạnh"},"message":"うん","can_remove":false,"created_time":"2013-11-24T15:25:48+0000","like_count":0,"user_likes":false},"765455070137839":{"id":"765455070137839","from":{"id":"100005369944097","name":"Trái Tim Lạnh"},"message":"ko sợ âu","can_remove":false,"created_time":"2013-11-24T15:29:51+0000","like_count":0,"user_likes":false},"765456273471052":{"id":"765456273471052","from":{"id":"100003250657085","name":"Nhất Kiếm Vô Tình"},"message":"thôi sửa lại đi mình cũng là ad nên mình vào bạn ấy có trách nhiệm nhắc nhở bạn nếu bạn ko sửa  mình buộc phải xoá bài viết của bạn, bn thông cảm đó là nguyên tắc.","can_remove":false,"created_time":"2013-11-24T15:31:22+0000","like_count":1,"user_likes":false},"765458666804146":{"id":"765458666804146","from":{"id":"100005369944097","name":"Trái Tim Lạnh"},"message":"うん,mấy anh chị là du học sinh hả??","can_remove":false,"created_time":"2013-11-24T15:34:16+0000","like_count":0,"user_likes":false},"765458906804122":{"id":"765458906804122","from":{"id":"100003250657085","name":"Nhất Kiếm Vô Tình"},"message":"uhm","can_remove":false,"created_time":"2013-11-24T15:34:34+0000","like_count":0,"user_likes":false},"765459150137431":{"id":"765459150137431","from":{"id":"100003250657085","name":"Nhất Kiếm Vô Tình"},"message":"sửa bài đi rồi nói tiếp bạn ak.","can_remove":false,"created_time":"2013-11-24T15:34:52+0000","like_count":0,"user_likes":false},"765461403470539":{"id":"765461403470539","from":{"id":"100005369944097","name":"Trái Tim Lạnh"},"message":"sửa gì nữa??","can_remove":false,"created_time":"2013-11-24T15:38:24+0000","like_count":0,"user_likes":false},"765462170137129":{"id":"765462170137129","from":{"id":"100003250657085","name":"Nhất Kiếm Vô Tình"},"message":"nói nãy giờ sửa cái bài đăng của bn thành có dấu chứ còn sửa cái gì","can_remove":false,"created_time":"2013-11-24T15:39:24+0000","like_count":0,"user_likes":false},"765462236803789":{"id":"765462236803789","from":{"id":"100003250657085","name":"Nhất Kiếm Vô Tình"},"message":"Co a nao o Aichi ko.thag 3 nam sau e tu nghiep do ak\nGjup do e vs","can_remove":false,"created_time":"2013-11-24T15:39:35+0000","like_count":0,"user_likes":false}},"paging":{"cursors":{"after":"NzY1NDQ2Mjk2ODA1Mzgz","before":"NzY1NDQ2Mjk2ODA1Mzgz"},"next":"https://graph.facebook.com/229244010425617_765442903472389/comments?limit=1&summary=1&after=NzY1NDQ2Mjk2ODA1Mzgz"},"summary":{"order":"chronological","total_count":18}},"likes":{"data":[]}}