{"id":"229244010425617_765456400137706","type":"status","from":{"id":"100000017931640","name":"Cuộcđờinày Vềcơbảnlà Buồn"},"message":"Chào mọi người.\nMình là member mới của Group. Mình đang có ý định du học tự túc tại Nhật nhưng chưa hề có kinh nghiệm gì hết. Mình mong có bạn nào đã và đang học và làm việc tại Nhật bỏ chút thời gian tư vấn cho mình vài vấn đề về đời sống cũng như thủ tục được không ạ. Rất mong mọi người cũng như admin giúp đỡ","created_time":"2013-11-24T15:31:26+0000","updated_time":"2013-11-25T15:30:08+0000","likes":{"data":{"1685388801":{"id":"1685388801","name":"Oanh Chan"},"100001116169487":{"id":"100001116169487","name":"Minh le Dinh"}},"paging":{"cursors":{"after":"MTY4NTM4ODgwMQ==","before":"MTY4NTM4ODgwMQ=="},"next":"https://graph.facebook.com/229244010425617_765456400137706/likes?limit=1&summary=1&after=MTY4NTM4ODgwMQ%3D%3D"},"summary":{"total_count":2}},"comments":{"data":{"765462246803788":{"id":"765462246803788","from":{"id":"550401589","name":"Cuong Cao"},"message":"Trước hết là trình độ tiếng Nhật bạn nên là N3 trc khi sang, vì nếu ko sẽ khó xin việc.\n\nLàm việc tại Nhật rất vất vả, bạn sẽ phải vất vả như vậy ít nhất là 3 năm cho tới khi ổn định.\n\nChi phí đi du học Nhật khoảng 160 - 170tr (tiền học 1 năm + phí dịch vụ + vé máy bay).\n\nNếu cty làm dịch vụ cho bạn nói họ sẽ giới thiệu việc, đề nghị làm bản cam kết có chữ ký, tránh trường hợp như nhiều bạn bên này, sang k có việc, k có tiền, rất khổ ^^","can_remove":false,"created_time":"2013-11-24T15:39:38+0000","like_count":2,"user_likes":false},"765462600137086":{"id":"765462600137086","from":{"id":"100004397111046","name":"Rainy Hạ"},"message":"Quan trọng la bạn muốn được tư vấn về vấn đề gì mới là quan trọng. Bởi du học Nhật Bản giờ rất phức tạp","can_remove":false,"created_time":"2013-11-24T15:39:58+0000","like_count":0,"user_likes":false},"765462650137081":{"id":"765462650137081","from":{"id":"100000359762118","name":"Mi Tra"},"message":"Bạn tham khảo những bài đã đăng tại diễn đàn nhé!\n\nNhững KINH NGHIỆM BỔ ÍCH ĐỂ LÀM HÀNH TRANG CHO KHI ĐI DU HỌC\nhttps://www.facebook.com/groups/CongdongVietNhat/permalink/757339194282760/ \n\nNHỮNG GIẤY TỜ CẦN THIẾT VÀ CHI PHÍ THAM KHẢO KHI LÀM THỦ TỤC DU HỌC TỰ TÚC\nhttps://www.facebook.com/groups/CongdongVietNhat/permalink/765254623491217/","can_remove":false,"created_time":"2013-11-24T15:39:59+0000","like_count":5,"user_likes":false},"765465056803507":{"id":"765465056803507","from":{"id":"100002949559606","name":"Thieu Ka"},"message":"Quan trong.ban sag do de lam j","can_remove":false,"created_time":"2013-11-24T15:45:18+0000","like_count":1,"user_likes":false},"765465700136776":{"id":"765465700136776","from":{"id":"100000017931640","name":"Cuộcđờinày Vềcơbảnlà Buồn"},"message":"Vấn đề mình quan tâm hiện nay là mình đang muốn học làm 1 designer, ngành này có tốt khi học ở Nhật không. t2 là sau khi sang nhật, lương làm thêm có đủ để trang trải cuộc sống không ( sinh hoạt và học phí ), do nhà mình không có điều kiện gửi sang cho mình","can_remove":false,"created_time":"2013-11-24T15:46:15+0000","like_count":0,"user_likes":false},"765467516803261":{"id":"765467516803261","from":{"id":"550401589","name":"Cuong Cao"},"message":"Nếu muốn tiết kiệm & tốt nhất, học Design song song với tiếng Nhật 2 năm trước hãy sang Nhật.\n\n2 năm đủ nắm cơ bản tiếng Nhật & các nguyên lý thiết kế. Điều kiện như bạn nói, khó mà tránh được sự bấp bênh.","can_remove":false,"created_time":"2013-11-24T15:49:19+0000","like_count":0,"user_likes":false},"765474206802592":{"id":"765474206802592","from":{"id":"100000017931640","name":"Cuộcđờinày Vềcơbảnlà Buồn"},"message":"Hiện giờ trình độ mình là N5 thì mất khoảng bn lâu để đạt N3. Thêm nữa là học 2 năm tại việt nam chắc chỉ để đỡ vất vả hơn khi học tại Nhật đúng k","can_remove":false,"created_time":"2013-11-24T15:58:47+0000","like_count":0,"user_likes":false},"765483340135012":{"id":"765483340135012","from":{"id":"100004397111046","name":"Rainy Hạ"},"message":"Học ở Việt Nam sẽ vất vả hơn thật.","can_remove":false,"created_time":"2013-11-24T16:11:06+0000","like_count":0,"user_likes":false},"765705640112782":{"id":"765705640112782","from":{"id":"100003250657085","name":"Nhất Kiếm Vô Tình"},"message":"bạn ơi các thông tin bạn cần từ cuộc sông sinh hoat cho tới tài liệu tham khảo đều có trong nội quy của group bn nên tham khảo nhé !","can_remove":false,"created_time":"2013-11-25T00:18:04+0000","like_count":0,"user_likes":false},"765743146775698":{"id":"765743146775698","from":{"id":"100001116169487","name":"Minh le Dinh"},"message":"Định sang đó làm gì thế cu em :v","can_remove":false,"created_time":"2013-11-25T01:53:12+0000","like_count":0,"user_likes":false},"765776493439030":{"id":"765776493439030","from":{"id":"100000147414000","name":"Nguyễn Công Thắng"},"message":"học tầm 2 năm nữa thì n3 là qua đc :)","can_remove":false,"created_time":"2013-11-25T03:18:27+0000","like_count":1,"user_likes":false},"765806853435994":{"id":"765806853435994","from":{"id":"100000017931640","name":"Cuộcđờinày Vềcơbảnlà Buồn"},"message":"2 năm thì lâu quá nhỉ. Mình ko có nhiều thời gian như thế.","can_remove":false,"created_time":"2013-11-25T04:44:38+0000","like_count":0,"user_likes":false},"765814853435194":{"id":"765814853435194","from":{"id":"100004397111046","name":"Rainy Hạ"},"message":"dinh doa nguoi ta chac. Lam gi can den 2 nam nua moi hoc duoc den n3","can_remove":false,"created_time":"2013-11-25T05:10:37+0000","like_count":0,"user_likes":false},"766015086748504":{"id":"766015086748504","from":{"id":"1146680551","name":"優しい なぁ"},"message":"Nêu e học bên nhật , nếu chăm chỉ trau dồi thì trong vòng 1 năm rưỡi e có thể co được n2 (nhớ là phải chăm chỉ đó nhé). Cái thứ 2 thì muốn trở thành designer thì ở đâu cũng được. Việt Nam thì bạn có thể học FPT arena. Ở nhật thì designer nó phát triển theo nhiều hướng phong phú hơn ở VN rồi.","can_remove":false,"created_time":"2013-11-25T14:34:15+0000","like_count":2,"user_likes":false},"766030070080339":{"id":"766030070080339","from":{"id":"100000017931640","name":"Cuộcđờinày Vềcơbảnlà Buồn"},"message":"E muốn học design tại nhật. Nhưng không rõ là ngành đó bên đó có khó thi vào không. Nếu đc thì e muốn sau tốt nghiệp làm việc tại bên đó vài năm để học đc tác phong và phong cách nghệ thuật của họ","can_remove":false,"created_time":"2013-11-25T15:12:15+0000","like_count":0,"user_likes":false},"766032006746812":{"id":"766032006746812","from":{"id":"1146680551","name":"優しい なぁ"},"message":"Nếu e học đại học thì phải thi,còn học senmon thì nộp hồ sơ vào học thôi em à.","can_remove":false,"created_time":"2013-11-25T15:16:50+0000","like_count":0,"user_likes":false},"766032293413450":{"id":"766032293413450","from":{"id":"100000017931640","name":"Cuộcđờinày Vềcơbảnlà Buồn"},"message":"Nếu e đã bỏ sức sang đấy học thì em cũng muốn học đại học, senmon thì không bõ công sang ạ","can_remove":false,"created_time":"2013-11-25T15:17:43+0000","like_count":0,"user_likes":false},"766033153413364":{"id":"766033153413364","from":{"id":"1146680551","name":"優しい なぁ"},"message":"Mỗi cái nó có cái điểm hay và dở.Nếu e còn trẻ,tài chính vững vàng ,e có thể học đại học.Ở đâu cũng vậy thôi,học đại học vs nghề nó khác nhau mà.Nhưng theo a thấy designer cần lành nghề chứ k cần học cao ^_^","can_remove":false,"created_time":"2013-11-25T15:19:53+0000","like_count":0,"user_likes":false},"766034193413260":{"id":"766034193413260","from":{"id":"100000017931640","name":"Cuộcđờinày Vềcơbảnlà Buồn"},"message":"cho em hỏi thêm 1 câu là học phí đại học có như các công ty môi giới nói không ạ","can_remove":false,"created_time":"2013-11-25T15:22:13+0000","like_count":0,"user_likes":false},"766034370079909":{"id":"766034370079909","from":{"id":"100000017931640","name":"Cuộcđờinày Vềcơbảnlà Buồn"},"message":"nghĩa là trường công ~70 man 1 năm","can_remove":false,"created_time":"2013-11-25T15:22:35+0000","like_count":0,"user_likes":false},"766034946746518":{"id":"766034946746518","from":{"id":"1146680551","name":"優しい なぁ"},"message":"Là du học sinh em nên quên trường công đi nếu e không có học bổng hoặc tiêng nhật e n1 ,hoặc điểm thi ryu e cao.","can_remove":false,"created_time":"2013-11-25T15:24:14+0000","like_count":0,"user_likes":false},"766035330079813":{"id":"766035330079813","from":{"id":"100000017931640","name":"Cuộcđờinày Vềcơbảnlà Buồn"},"message":"tức là học phí trường công rất cao ạ. thế những lựa chọn khả thi cho lưu học sinh tự túc là gì ạ","can_remove":false,"created_time":"2013-11-25T15:25:17+0000","like_count":0,"user_likes":false},"766036090079737":{"id":"766036090079737","from":{"id":"1146680551","name":"優しい なぁ"},"message":"Trường công sao lại học phí cao hả em? ở việt nam mình cũng có trường công và dân lập đó thôi. Lựa chọn cho du học sinh tự túc là vào những trường tùy theo năng lực tiếng nhật.e hiểu chứ?","can_remove":false,"created_time":"2013-11-25T15:27:25+0000","like_count":0,"user_likes":false},"766037083412971":{"id":"766037083412971","from":{"id":"100000017931640","name":"Cuộcđờinày Vềcơbảnlà Buồn"},"message":"Vâng. em hiểu rồi. vậy thì điều trước tiên là phải học tiếng nhật càng tốt sang đó càng dễ phải không ạ","can_remove":false,"created_time":"2013-11-25T15:29:37+0000","like_count":1,"user_likes":false},"766037240079622":{"id":"766037240079622","from":{"id":"100003250657085","name":"Nhất Kiếm Vô Tình"},"message":"Anh Nguyễn học trường theo năng lực tiếng nhật, nếu sau 2 năm mình chỉ dùng lại ở N3 có được vào học dh ko? và các trường đó chất lượng đào tạo nó có tốt như các trường N1 N2 ko? học để được tốt nghiệp có quá khó ko mình tính học cntt","message_tags":[{"id":"1146680551","name":"Anh Nguyễn","type":"user","offset":0,"length":10}],"can_remove":false,"created_time":"2013-11-25T15:30:08+0000","like_count":0,"user_likes":false}},"paging":{"cursors":{"after":"NzY1NDYyMjQ2ODAzNzg4","before":"NzY1NDYyMjQ2ODAzNzg4"},"next":"https://graph.facebook.com/229244010425617_765456400137706/comments?limit=1&summary=1&after=NzY1NDYyMjQ2ODAzNzg4"},"summary":{"order":"chronological","total_count":25}}}