{"id":"229244010425617_765448810138465","type":"status","from":{"id":"100001014186213","name":"Phuong Nguyen Nguyen"},"message":"Các anh chj cho e hỏi là bằng đh kinh tế bên này nếu sang đấy có tác dung j k a?","created_time":"2013-11-24T15:17:54+0000","updated_time":"2013-11-24T15:29:55+0000","likes":{"data":{"100003250657085":{"id":"100003250657085","name":"Nhất Kiếm Vô Tình"}},"paging":{"cursors":{"after":"MTAwMDAzMjUwNjU3MDg1","before":"MTAwMDAzMjUwNjU3MDg1"}},"summary":{"total_count":1}},"comments":{"data":{"765452206804792":{"id":"765452206804792","from":{"id":"100000359762118","name":"Mi Tra"},"message":"Nếu tiếng Nhật giỏi và kiến thức chuyên ngành vững thì có thể tìm được công việc làm nhân viên chính thức đúng chuyên ngành","can_remove":false,"created_time":"2013-11-24T15:24:32+0000","like_count":1,"user_likes":false},"765453383471341":{"id":"765453383471341","from":{"id":"100001014186213","name":"Phuong Nguyen Nguyen"},"message":"nhưng mà có dễ kiếm việc k hả c Mi Tra???","message_tags":[{"id":"100000359762118","name":"Mi Tra","type":"user","offset":32,"length":6}],"can_remove":false,"created_time":"2013-11-24T15:27:04+0000","like_count":0,"user_likes":false},"765455146804498":{"id":"765455146804498","from":{"id":"100000359762118","name":"Mi Tra"},"message":"Dễ thì không hẳn là dễ nhưng cũng không phải là không có cơ hội.","can_remove":false,"created_time":"2013-11-24T15:29:55+0000","like_count":0,"user_likes":false}},"paging":{"cursors":{"after":"NzY1NDUyMjA2ODA0Nzky","before":"NzY1NDUyMjA2ODA0Nzky"},"next":"https://graph.facebook.com/229244010425617_765448810138465/comments?limit=1&summary=1&after=NzY1NDUyMjA2ODA0Nzky"},"summary":{"order":"chronological","total_count":3}}}