{"id":"229244010425617_765446706805342","type":"status","from":{"id":"100004715524978","name":"Minh Chiến"},"message":"Ad có thể cho mình đăng. Bài này k vậy :\nHiện tại mình đang mún có việc làm báo  bạn nào biết có thể giới thiệu cho mình sokai tn cũng dk mình có bằng lái xe và học sáng . Cảm ơn m.n","created_time":"2013-11-24T15:12:25+0000","updated_time":"2013-11-24T15:50:04+0000","likes":{"data":{"100003733287041":{"id":"100003733287041","name":"Phi Hoàng"},"100006379235603":{"id":"100006379235603","name":"Khoai Tây Rubi"},"100003667085290":{"id":"100003667085290","name":"Xanh Xanh"}},"paging":{"cursors":{"after":"MTAwMDAzNzMzMjg3MDQx","before":"MTAwMDAzNzMzMjg3MDQx"},"next":"https://graph.facebook.com/229244010425617_765446706805342/likes?limit=1&summary=1&after=MTAwMDAzNzMzMjg3MDQx"},"summary":{"total_count":3}},"comments":{"data":{"765448550138491":{"id":"765448550138491","from":{"id":"100004715524978","name":"Minh Chiến"},"message":"Đề nghị m.n k giúp thì đừng lói j thể hiện mình là n có văn hoá chút đi","can_remove":false,"created_time":"2013-11-24T15:17:15+0000","like_count":0,"user_likes":false},"765453636804649":{"id":"765453636804649","from":{"id":"100002453747497","name":"Tháo Thố"},"message":"thì bạn Son Java cũng có giúp đâu ==","message_tags":[{"id":"100004882693145","name":"Son Java","type":"user","offset":8,"length":8}],"can_remove":false,"created_time":"2013-11-24T15:27:50+0000","like_count":0,"user_likes":false},"765468163469863":{"id":"765468163469863","from":{"id":"100004715524978","name":"Minh Chiến"},"message":"Bạn biết có thể bảo mình được chứ","can_remove":false,"created_time":"2013-11-24T15:50:04+0000","like_count":0,"user_likes":false}},"paging":{"cursors":{"after":"NzY1NDQ4NTUwMTM4NDkx","before":"NzY1NDQ4NTUwMTM4NDkx"},"next":"https://graph.facebook.com/229244010425617_765446706805342/comments?limit=1&summary=1&after=NzY1NDQ4NTUwMTM4NDkx"},"summary":{"order":"chronological","total_count":3}}}