{"id":"229244010425617_765861346763878","type":"status","from":{"id":"100004142978193","name":"Nguyễn Hương"},"message":"Hi chào cả nhà.\nCả nhà ơi cho mình hỏi chút chuyện được không ạ? Mình đang chuẩn bị qua Nhật, mà đi trúng vào mùa đông, đi chỉ 3 tháng thôi. Chuẩn bị đồ lạnh ở VN thì tốn kém quá. Ai có bei61t chỗ nào cho thuê đồ lạnh ở Nhật ko a? Khu vực Kobe ạ?\nchỉ giúp mình với. Cảm ơn rất nhiều.","created_time":"2013-11-25T07:25:52+0000","updated_time":"2013-11-25T14:21:06+0000","likes":{"data":{"100003296170329":{"id":"100003296170329","name":"Minh Lụa"},"100001920547218":{"id":"100001920547218","name":"Chester Nguyễn"},"100001079726837":{"id":"100001079726837","name":"Hatenai Yume"}},"paging":{"cursors":{"after":"MTAwMDAzMjk2MTcwMzI5","before":"MTAwMDAzMjk2MTcwMzI5"},"next":"https://graph.facebook.com/229244010425617_765861346763878/likes?limit=1&summary=1&after=MTAwMDAzMjk2MTcwMzI5"},"summary":{"total_count":3}},"comments":{"data":{"765861680097178":{"id":"765861680097178","from":{"id":"100001079726837","name":"Hatenai Yume"},"message":"omedetou!...sướng nhá! ganh tỵ gùi hà! :v :v","can_remove":false,"created_time":"2013-11-25T07:27:33+0000","like_count":0,"user_likes":false},"765861920097154":{"id":"765861920097154","from":{"id":"100001079726837","name":"Hatenai Yume"},"message":"Thanh Hương: mèo kia, bít thì chỉ bạn kà! :3","message_tags":[{"id":"100000668534270","name":"Thanh Hương","type":"user","offset":0,"length":11}],"can_remove":false,"created_time":"2013-11-25T07:28:34+0000","like_count":0,"user_likes":false},"765864263430253":{"id":"765864263430253","from":{"id":"100000024629190","name":"Thanh Ngọc"},"message":"mới biết ở nhật có cho thuê đồ dạ hội chứ chưa thấy cho thuê áo ấm bao h  :|","can_remove":false,"created_time":"2013-11-25T07:38:51+0000","like_count":2,"user_likes":false},"765867676763245":{"id":"765867676763245","from":{"id":"100004142978193","name":"Nguyễn Hương"},"message":"Hatenai Yume đi từ giữa t1 đến giửa t4. hic, nghe nói là toàn nhiệt độ âm ko à. Mà mua đồ rồi về VN có xài được đâu, tấy phí quá. HIc.","message_tags":[{"id":"100001079726837","name":"Hatenai Yume","type":"user","offset":0,"length":12}],"can_remove":false,"created_time":"2013-11-25T07:42:33+0000","like_count":1,"user_likes":false},"765868590096487":{"id":"765868590096487","from":{"id":"100000359762118","name":"Mi Tra"},"message":"Thuê đồ lạnh thì đúng là mình cũng ko có nghe nói tới. \n3 tháng mùa đông thì bạn cũng chỉ cần 2 áo khoác, 2~3 áo cao cổ, 2~3 áo len, khăn len, găng tay, tất ấm. Mua thì cũng ko đắt lắm. Nếu đồ Uniqlo thì khoảng 2man là mua được rồi. \nBạn qua có  mấy tháng mà mua vậy thì cũng hơi phí thật nhưng cũng đành chịu thôi.","can_remove":false,"created_time":"2013-11-25T07:46:24+0000","like_count":1,"user_likes":false},"765869280096418":{"id":"765869280096418","from":{"id":"100001079726837","name":"Hatenai Yume"},"message":"Nguyễn Hương: chịu khó mua đê rùi kiếm có ai sắp đi ko rùi bán lại! :)","message_tags":[{"id":"100004142978193","name":"Nguyễn Hương","type":"user","offset":0,"length":12}],"can_remove":false,"created_time":"2013-11-25T07:49:33+0000","like_count":2,"user_likes":false},"765870153429664":{"id":"765870153429664","from":{"id":"100003718429681","name":"Kawaii Tuti"},"message":"Thuê quần áo ấm mua đông thì tớ ạk bạn rồi :))","can_remove":false,"created_time":"2013-11-25T07:53:33+0000","like_count":1,"user_likes":false},"765871733429506":{"id":"765871733429506","from":{"id":"100004441680220","name":"Đông Phương Póc"},"message":"chuẩn bị đồ lạnh ở VN mà tốn thì qua Nhật là siêu tốn à :-o","can_remove":false,"created_time":"2013-11-25T07:59:00+0000","like_count":0,"user_likes":false},"765871960096150":{"id":"765871960096150","from":{"id":"100000359762118","name":"Mi Tra"},"message":"Thực ra đồ mua ở Nhật có khi còn rẻ hơn và hợp với thời tiết, thời trang ở Nhật hơn là mua từ Vn qua.","can_remove":false,"created_time":"2013-11-25T08:00:16+0000","like_count":4,"user_likes":false},"765895023427177":{"id":"765895023427177","from":{"id":"100003296170329","name":"Minh Lụa"},"message":"thực ra thi đồ  bên nhật ko đắt so với mặt bằng chung. Con trai thì quần áo mắc chút con quần áo con gái thi rẻ","can_remove":false,"created_time":"2013-11-25T09:15:12+0000","like_count":0,"user_likes":false},"765899583426721":{"id":"765899583426721","from":{"id":"100004142978193","name":"Nguyễn Hương"},"message":"Cảm ơn mọi người nhiều nhiều. Cho mình hỏi them chút là nếu mua ở VN thì mua ở đâu thì được ạ? ai biết chỉ giúp mình với? cảm ơn nhiều. Vì lần đầu đi xa nên hơi bối rối ạ.","can_remove":false,"created_time":"2013-11-25T09:30:26+0000","like_count":0,"user_likes":false},"765906593426020":{"id":"765906593426020","from":{"id":"100000359762118","name":"Mi Tra"},"message":"Đề nghị Son Java không cmt lạc đề nhé! \nLần sau vậy nữa là buộc mình xoá cmt đó.","message_tags":[{"id":"100004882693145","name":"Son Java","type":"user","offset":8,"length":8}],"can_remove":false,"created_time":"2013-11-25T09:51:47+0000","like_count":1,"user_likes":false},"765913790091967":{"id":"765913790091967","from":{"id":"1252017053","name":"Minh Pham"},"message":"Sang đây uniqlo mua cho rẻ,rồi mang về vn dùng tiếp có sao đâu.","can_remove":false,"created_time":"2013-11-25T10:15:23+0000","like_count":0,"user_likes":false},"766009086749104":{"id":"766009086749104","from":{"id":"1146680551","name":"優しい なぁ"},"message":"Đồ len thì ở Việt Nam rẻ hơn bạn ạ.Bạn có thể mua 1 cái áo len dày ở VN khoảng 200k mà.nếu đi 3 tháng thì nên mua 1 cái ao len,rồi sang đây có mấy chỗ bán áo phao có 1 sen ,bận 2 cái bạn giống như đang ở trong sauna ^)^","can_remove":false,"created_time":"2013-11-25T14:21:06+0000","like_count":0,"user_likes":false}},"paging":{"cursors":{"after":"NzY1ODYxNjgwMDk3MTc4","before":"NzY1ODYxNjgwMDk3MTc4"},"next":"https://graph.facebook.com/229244010425617_765861346763878/comments?limit=1&summary=1&after=NzY1ODYxNjgwMDk3MTc4"},"summary":{"order":"chronological","total_count":14}}}