{"id":"229244010425617_765956623421017","type":"photo","object_id":"612469162145015","picture":"https://fbcdn-photos-g-a.akamaihd.net/hphotos-ak-prn2/t1.0-0/1464635_612469162145015_1216261473_s.jpg","link":"https://www.facebook.com/photo.php?fbid=612469162145015&set=gm.765956623421017&type=1&relevant_count=1","from":{"id":"100001458099624","name":"Kham Pha"},"message":"Có ai muốn mua hoa giảm nửa giá về tặng người yêu không nào ^^\nCó một điều đặc biệt ở Nhật là vào khoảng 8-9 giờ tối ở rất nhiều siêu thị các mặt hàng thực phẩm và cơm hộp được dán nhãn 半額（はんがく） tức là giảm một nửa giá tiền. Bởi vì sau giờ quy định của 賞味期限（しょうみきげん）tất cả những mặt hàng đó kém tươi ngon hoặc không đủ đảm bảo vệ sinh an toàn nên phải giảm giá trước kẻo đổ đi mà thua lỗ.\nTrong rất nhiều năm toàn nước Nhật ko có vụ ngộ độc vệ sinh an toàn thực phẩm nào đáng kể cũng vì họ tuân thủ rất nghiêm ngặt quy định này.","created_time":"2013-11-25T12:27:13+0000","updated_time":"2013-11-26T03:29:36+0000","likes":{"data":{"1821970083":{"id":"1821970083","name":"Nguyễn Mạnh Cường"},"100006100838234":{"id":"100006100838234","name":"佐藤剛賢"},"100000710451335":{"id":"100000710451335","name":"Thiều Hoa"},"100005811458124":{"id":"100005811458124","name":"Phúc Long"},"100003165554056":{"id":"100003165554056","name":"Sâu Bét"},"1478941068":{"id":"1478941068","name":"Dat Nguyen"},"100003103961241":{"id":"100003103961241","name":"Nhung Nguyen"},"1146680551":{"id":"1146680551","name":"優しい なぁ"},"100000219148071":{"id":"100000219148071","name":"Anh Còi"},"100001751941162":{"id":"100001751941162","name":"Vinh Lê"},"1416265619":{"id":"1416265619","name":"Starwar Bbj"},"100002290906582":{"id":"100002290906582","name":"Kanashimi No Yukue"},"100004889430124":{"id":"100004889430124","name":"Quiet Man"},"100003049639881":{"id":"100003049639881","name":"Truong Luvuxy"},"1828906841":{"id":"1828906841","name":"Trọng Nghĩa Bùi"},"100002554951306":{"id":"100002554951306","name":"Ha Thu"},"100000309978634":{"id":"100000309978634","name":"Tan Vu"},"1026780646":{"id":"1026780646","name":"Việt Hưng Khổng"},"100006379235603":{"id":"100006379235603","name":"Khoai Tây Rubi"},"100000045271667":{"id":"100000045271667","name":"Nam Thai Nguyen"},"100000359762118":{"id":"100000359762118","name":"Mi Tra"},"100001754136107":{"id":"100001754136107","name":"Nguyễn Tuấn Vũ"},"100000266887521":{"id":"100000266887521","name":"Hương Lê Thu"}},"paging":{"cursors":{"after":"MTgyMTk3MDA4Mw==","before":"MTgyMTk3MDA4Mw=="},"next":"https://graph.facebook.com/229244010425617_765956623421017/likes?limit=1&summary=1&after=MTgyMTk3MDA4Mw%3D%3D"},"summary":{"total_count":24}},"comments":{"data":{"765958070087539":{"id":"765958070087539","from":{"id":"100002446750324","name":"Hiền Tran"},"message":"ơ big c vn cũng thế mà","can_remove":false,"created_time":"2013-11-25T12:31:53+0000","like_count":1,"user_likes":false},"765958153420864":{"id":"765958153420864","from":{"id":"1026780646","name":"Việt Hưng Khổng"},"message":"J chứ tặng người yêu thì ko cần phải giảm giá ;))","can_remove":false,"created_time":"2013-11-25T12:32:18+0000","like_count":4,"user_likes":false},"765967690086577":{"id":"765967690086577","from":{"id":"100004889430124","name":"Quiet Man"},"message":"người kinh doanh có lỗ không nhỉ khi chẳng may hàng hóa của họ bị ế nhiều?","can_remove":false,"created_time":"2013-11-25T13:00:58+0000","like_count":0,"user_likes":false},"765968903419789":{"id":"765968903419789","from":{"id":"100001458099624","name":"Kham Pha"},"message":"ko bao giờ có chuyện thua lỗ đâu, họ có mô hình để tính sẵn sức mua rồi. Với lại nhiều nơi thường bán đắt hơn các chỗ khác, sau đó dán nhãn giảm giá để lợi dụng tâm lý người tiêu dùng.","can_remove":false,"created_time":"2013-11-25T13:04:25+0000","like_count":2,"user_likes":false},"766487573367922":{"id":"766487573367922","from":{"id":"100005811458124","name":"Phúc Long"},"message":"bên Nhật có \" bán đắt hơn các chỗ khác, sau đó dán nhãn giảm giá để lợi dụng tâm lý người tiêu dùng\" ko anh Kham Pha? Ở VN thì e thấy nhiều rồi :v","message_tags":[{"id":"100001458099624","name":"Kham Pha","type":"user","offset":108,"length":8}],"can_remove":false,"created_time":"2013-11-26T03:26:10+0000","like_count":0,"user_likes":false},"766489230034423":{"id":"766489230034423","from":{"id":"100001458099624","name":"Kham Pha"},"message":"Có chứ. Đâu thiếu.","can_remove":false,"created_time":"2013-11-26T03:29:36+0000","like_count":1,"user_likes":false}},"paging":{"cursors":{"after":"NzY1OTU4MDcwMDg3NTM5","before":"NzY1OTU4MDcwMDg3NTM5"},"next":"https://graph.facebook.com/229244010425617_765956623421017/comments?limit=1&summary=1&after=NzY1OTU4MDcwMDg3NTM5"},"summary":{"order":"chronological","total_count":6}}}