{"id":"229244010425617_765918556758157","type":"photo","object_id":"678202155537876","picture":"https://fbcdn-photos-g-a.akamaihd.net/hphotos-ak-ash3/t1.0-0/1479457_678202155537876_938068913_s.jpg","link":"https://www.facebook.com/photo.php?fbid=678202155537876&set=gm.765918556758157&type=1&relevant_count=1","from":{"id":"100000442929887","name":"Mike Yi"},"message":"Ai đoán đúng chỗ này mình dẫn đến đó vui chơi..........","created_time":"2013-11-25T10:31:18+0000","updated_time":"2013-11-26T04:05:55+0000","likes":{"data":{"100001416272263":{"id":"100001416272263","name":"Mai PB"},"100005801442456":{"id":"100005801442456","name":"An Nguyen"},"100003165554056":{"id":"100003165554056","name":"Sâu Bét"},"1821970083":{"id":"1821970083","name":"Nguyễn Mạnh Cường"},"100005934548279":{"id":"100005934548279","name":"Cậu Bé Buồn"},"100006379235603":{"id":"100006379235603","name":"Khoai Tây Rubi"}},"paging":{"cursors":{"after":"MTAwMDAxNDE2MjcyMjYz","before":"MTAwMDAxNDE2MjcyMjYz"},"next":"https://graph.facebook.com/229244010425617_765918556758157/likes?limit=1&summary=1&after=MTAwMDAxNDE2MjcyMjYz"},"summary":{"total_count":7}},"comments":{"data":{"765921883424491":{"id":"765921883424491","from":{"id":"100005934548279","name":"Cậu Bé Buồn"},"message":"disneyland","can_remove":false,"created_time":"2013-11-25T10:42:30+0000","like_count":0,"user_likes":false},"765925000090846":{"id":"765925000090846","from":{"id":"100005224952736","name":"Cường Kelvin"},"message":"Ở dưới yokohama à","can_remove":false,"created_time":"2013-11-25T10:54:07+0000","like_count":0,"user_likes":false},"765925063424173":{"id":"765925063424173","from":{"id":"100005222737414","name":"Angle Kiss"},"message":"Dineyland tokyo","can_remove":false,"created_time":"2013-11-25T10:54:18+0000","like_count":0,"user_likes":false},"765925190090827":{"id":"765925190090827","from":{"id":"100000050509472","name":"Dũng Thanh Đặng"},"message":"osaka, universal","can_remove":false,"created_time":"2013-11-25T10:54:46+0000","like_count":0,"user_likes":false},"765952630088083":{"id":"765952630088083","from":{"id":"100000442929887","name":"Mike Yi"},"message":"chính xác osaka universal","can_remove":false,"created_time":"2013-11-25T12:14:26+0000","like_count":0,"user_likes":false},"765952883421391":{"id":"765952883421391","from":{"id":"100000442929887","name":"Mike Yi"},"message":"bài viết này có ngoài chủ đề Việt Nhật ko? sao lại cảnh cáo ?","can_remove":false,"created_time":"2013-11-25T12:15:03+0000","like_count":1,"user_likes":false},"766007970082549":{"id":"766007970082549","from":{"id":"1146680551","name":"優しい なぁ"},"message":"Bình tĩnh nào bạn. Có gì đâu mà cay cú chứ. Mỗi cuộc chơi đều có quy định của nó mà. Với lại group lập ra 1 cách vô tư, mọi đóng góp của các bạn đều là vì cộng đồng chứ không phải vì 1 cá nhân nào hết.Thế nên khi ai đó làm sai thì hãy bỏ qua thôi.Hãy vì 1 cộng đồng khỏe khoắn và đoàn kết.","can_remove":false,"created_time":"2013-11-25T14:18:51+0000","like_count":1,"user_likes":false},"766421730041173":{"id":"766421730041173","from":{"id":"1813611352","name":"To Đùng"},"message":"Thay mặt nhóm quản trị group. Thành thật xin lỗi bạn Mike Yi vì sự sai sót lần này của thành viên trong BQT. Rất mong bạn có thêm nhiều bài hay nữa và đóng góp, gắn bó với group ^_^","message_tags":[{"id":"100000442929887","name":"Mike Yi","type":"user","offset":53,"length":7}],"can_remove":false,"created_time":"2013-11-26T01:18:40+0000","like_count":0,"user_likes":false},"766428473373832":{"id":"766428473373832","from":{"id":"100005222737414","name":"Angle Kiss"},"message":"Trao thưởng như đã Hứa thôi Anh :))","can_remove":false,"created_time":"2013-11-26T01:35:05+0000","like_count":0,"user_likes":false},"766499933366686":{"id":"766499933366686","from":{"id":"100000442929887","name":"Mike Yi"},"message":"Ok nói là làm…cho địa chỉ gửi mấy cục gạch qua nhé…lấy gạch thay vé vào cổng …kakaka","can_remove":false,"created_time":"2013-11-26T04:02:01+0000","like_count":0,"user_likes":false},"766500520033294":{"id":"766500520033294","from":{"id":"1813611352","name":"To Đùng"},"message":"Hả? ko ổn đâu nha. Ý Mike Yi là cầm gạch ném vỡ đầu bác bảo vệ rồi vào cổng free :| chết thật >.<","message_tags":[{"id":"100000442929887","name":"Mike Yi","type":"user","offset":21,"length":7}],"can_remove":false,"created_time":"2013-11-26T04:03:34+0000","like_count":0,"user_likes":false},"766501260033220":{"id":"766501260033220","from":{"id":"100000442929887","name":"Mike Yi"},"message":"Bạo lực nhe…ko được…!!!!","can_remove":false,"created_time":"2013-11-26T04:04:41+0000","like_count":0,"user_likes":false},"766503613366318":{"id":"766503613366318","from":{"id":"100000442929887","name":"Mike Yi"},"message":"Lấy gạch kê cao lên nhảy qua rào…kakaka","can_remove":false,"created_time":"2013-11-26T04:05:22+0000","like_count":1,"user_likes":false},"766503776699635":{"id":"766503776699635","from":{"id":"1813611352","name":"To Đùng"},"message":">.< chết thật. xí hổ quá. ko ngờ mình nghĩ tệ thế >.<","can_remove":false,"created_time":"2013-11-26T04:05:55+0000","like_count":0,"user_likes":false}},"paging":{"cursors":{"after":"NzY1OTIxODgzNDI0NDkx","before":"NzY1OTIxODgzNDI0NDkx"},"next":"https://graph.facebook.com/229244010425617_765918556758157/comments?limit=1&summary=1&after=NzY1OTIxODgzNDI0NDkx"},"summary":{"order":"chronological","total_count":15}}}