{"id":"229244010425617_766000520083294","type":"link","picture":"https://external.xx.fbcdn.net/safe_image.php?d=AQBas8CwXP6b37ev&w=154&h=154&url=http%3A%2F%2Fwscdn.bbc.co.uk%2Fworldservice%2Fassets%2Fimages%2F2013%2F11%2F25%2F131125124138_mrs_world_2013_304x171_internet_nocredit.jpg&l","link":"http://www.bbc.co.uk/vietnamese/vietnam/2013/11/131125_su_co_thi_hoa_hau_mrs_world.shtml","from":{"id":"100001416272263","name":"Mai PB"},"message":"Bây giờ mới biết sự cố này. Nhưng phải nói là người TQ đặc biệt hay viết sai chữ La Tinh. Thậm chí nhìn bắt chước thôi cũng sai. Ai bảo phiên âm tất cả chữ La Tinh sang chữ Hán cơ. :-)","created_time":"2013-11-25T14:02:56+0000","updated_time":"2013-11-27T05:46:25+0000","likes":{"data":{"100004253979918":{"id":"100004253979918","name":"Louis Hoàng Văn Thái"},"100003762427351":{"id":"100003762427351","name":"Hiroshi Yasu Oki"},"100002327743510":{"id":"100002327743510","name":"Tuan Thanh"},"100005503388025":{"id":"100005503388025","name":"Quynh Jhvnh"},"100004923553810":{"id":"100004923553810","name":"Xuan KY Nguyen"},"1845000884":{"id":"1845000884","name":"Trieu Thi Kieu Oanh"},"1146680551":{"id":"1146680551","name":"優しい なぁ"},"100002793054191":{"id":"100002793054191","name":"Lai Vuong"},"100001365545442":{"id":"100001365545442","name":"Nguyễn Nam"},"100004360751785":{"id":"100004360751785","name":"Hà Nguyễn"}},"paging":{"cursors":{"after":"MTAwMDA0MjUzOTc5OTE4","before":"MTAwMDA0MjUzOTc5OTE4"},"next":"https://graph.facebook.com/229244010425617_766000520083294/likes?limit=1&summary=1&after=MTAwMDA0MjUzOTc5OTE4"},"summary":{"total_count":11}},"comments":{"data":{"766001746749838":{"id":"766001746749838","from":{"id":"100000603915176","name":"悪いな ぁ"},"message":"Cũng kg hẳn, một chương trình tầm cỡ nhiều nước tham gia kg thể có ban tổ chức thiếu chuyên nghiệp. Rất nhiều nước tên dài, khó mà còn kg sai. Một cái nước \"anh em\" thường xuyên tên đc nhắc tới kg thể có sự nhầm lẫn. Đây là cố tình!","can_remove":false,"created_time":"2013-11-25T14:05:47+0000","like_count":3,"user_likes":false},"766002710083075":{"id":"766002710083075","from":{"id":"100000399879223","name":"Hoan Le"},"message":"Chuẩn! Cố tình, thằng Tàu nhiều trò bẩn lắm","can_remove":false,"created_time":"2013-11-25T14:08:12+0000","like_count":0,"user_likes":false},"766007030082643":{"id":"766007030082643","from":{"id":"100001264346476","name":"Anh Đàm"},"message":"Ờ chắc TQ có cố 1 tý -_-  nhưng chắc cũng phần vì cách phát âm yuènán :))) thấy các bạn í toàn đọc vietnæn :))","can_remove":false,"created_time":"2013-11-25T14:16:48+0000","like_count":0,"user_likes":false},"766007120082634":{"id":"766007120082634","from":{"id":"100001243411261","name":"Ngưu Tỷ Tỷ"},"message":"mọi người cứ nhắc đến Tàu là ầm ầm cả lên, mình thì mình thấy  Tàu cũng có nhiều loại, và nhiều người còn tốt hơn cả người Việt mình.","can_remove":false,"created_time":"2013-11-25T14:16:57+0000","like_count":0,"user_likes":false},"766008296749183":{"id":"766008296749183","from":{"id":"100000603915176","name":"悪いな ぁ"},"message":"Kg sai, nhiều người T còn tốt hơn người V nhưng kg có nghĩa người V toàn người kg bằng người T. Còn ầm ầm lên là có lý do của nó, bạn nên hiểu mọi người ầm ầm lên vì cái gì!","can_remove":false,"created_time":"2013-11-25T14:19:46+0000","like_count":1,"user_likes":false},"766008850082461":{"id":"766008850082461","from":{"id":"100000399879223","name":"Hoan Le"},"message":"Ai chả biết thế. Đâu chả có người tốt xấu. Đây là nói cách hành xử về cáh hành xử của chính quyền Tàu cơ!","can_remove":false,"created_time":"2013-11-25T14:20:40+0000","like_count":0,"user_likes":false},"766014266748586":{"id":"766014266748586","from":{"id":"100001243411261","name":"Ngưu Tỷ Tỷ"},"message":"ầm ầm lên chỉ vì thấy như thế là mất đi lòng tự trọng dân tộc,không thể chịu \"nhục\" được.","can_remove":false,"created_time":"2013-11-25T14:31:30+0000","like_count":0,"user_likes":false},"766014583415221":{"id":"766014583415221","from":{"id":"100000603915176","name":"悪いな ぁ"},"message":"Cũng không hẳn. Nói trắng ra 2 bên thù hận nhau!","can_remove":false,"created_time":"2013-11-25T14:32:21+0000","like_count":0,"user_likes":false},"766014830081863":{"id":"766014830081863","from":{"id":"100003767594753","name":"Mít Tờ Chiến"},"message":"Tàu cũng dăm ba loại tàu","can_remove":false,"created_time":"2013-11-25T14:33:17+0000","like_count":0,"user_likes":false},"766015950081751":{"id":"766015950081751","from":{"id":"100001243411261","name":"Ngưu Tỷ Tỷ"},"message":"xin lỗi bạn, chỉ có người Việt tự hành xác mình thôi, người Tàu chẳng ai quan tâm đến Việt Nam ở đâu trên bản đồ thế giới đâu bạn à, kẻ thù lớn nhất của Tàu là Mỹ. Nói trắng ra về sức mạnh quân sự, kinh tế mình chẳng là cái gì để Tàu quan tâm cả","can_remove":false,"created_time":"2013-11-25T14:37:06+0000","like_count":0,"user_likes":false},"766016333415046":{"id":"766016333415046","from":{"id":"100000603915176","name":"悪いな ぁ"},"message":"Bạn nói vậy mình không có gì để bàn thêm :)","can_remove":false,"created_time":"2013-11-25T14:38:00+0000","like_count":0,"user_likes":false},"766016800081666":{"id":"766016800081666","from":{"id":"100001243411261","name":"Ngưu Tỷ Tỷ"},"message":"ừm, không phải mình bịa chuyện, mình hỏi mấy người Trung trong lớp rồi, hầu như chẳng ai biết VN chỗ nào cả, phải chỉ trên bản đồ họ mới \"ồ thế à\"","can_remove":false,"created_time":"2013-11-25T14:39:05+0000","like_count":0,"user_likes":false},"766017026748310":{"id":"766017026748310","from":{"id":"100000603915176","name":"悪いな ぁ"},"message":"Không sao mà, mình có nói bạn bịa gì đâu :)","can_remove":false,"created_time":"2013-11-25T14:39:35+0000","like_count":0,"user_likes":false},"766018000081546":{"id":"766018000081546","from":{"id":"100001243411261","name":"Ngưu Tỷ Tỷ"},"message":"vâng, không dám, mình cảm thấy căng thẳng với những comment của bạn trên face, hy vọng không tranh cãi với bạn nữa :)","can_remove":false,"created_time":"2013-11-25T14:42:08+0000","like_count":0,"user_likes":false},"766018386748174":{"id":"766018386748174","from":{"id":"100000603915176","name":"悪いな ぁ"},"message":"Ô, có gì mà căng. Mình có tranh cãi gì đâu :p","can_remove":false,"created_time":"2013-11-25T14:43:15+0000","like_count":0,"user_likes":false},"766018656748147":{"id":"766018656748147","from":{"id":"100001243411261","name":"Ngưu Tỷ Tỷ"},"message":"đó là điều mình cũng đang tự hỏi chính mình bạn à :)","can_remove":false,"created_time":"2013-11-25T14:43:50+0000","like_count":0,"user_likes":false},"766023773414302":{"id":"766023773414302","from":{"id":"1146680551","name":"優しい なぁ"},"message":"Sự thật là các bạn trẻ TQ khi đi ra nước ngoài khác với các bạn trẻ đang ở tại TQ.Vì hầu hết thông tin của TG đều được TQ bưng bít hết.Bữa ông bạn đi TQ về kêu bên TQ thời sự quốc tế được chiếu khoảng 5p trên tivi thôi.","can_remove":false,"created_time":"2013-11-25T14:56:24+0000","like_count":1,"user_likes":false},"766024243414255":{"id":"766024243414255","from":{"id":"100001243411261","name":"Ngưu Tỷ Tỷ"},"message":"em nghe ông học cùng lớp bảo TQ không cho xài google nữa","can_remove":false,"created_time":"2013-11-25T14:57:40+0000","like_count":0,"user_likes":false},"766024790080867":{"id":"766024790080867","from":{"id":"1146680551","name":"優しい なぁ"},"message":"mọi thứ đều xài bải đu với QQ ^_^","can_remove":false,"created_time":"2013-11-25T14:58:46+0000","like_count":0,"user_likes":false},"766025606747452":{"id":"766025606747452","from":{"id":"100001243411261","name":"Ngưu Tỷ Tỷ"},"message":"lão kể chuyện với cô giáo Nhật ra vẻ bức xúc lắm, mọi thông tin đều phải đọc trên mạng, bản tin trên ti vi chỉ có 30% là sự thật là đang càng dối trá","can_remove":false,"created_time":"2013-11-25T15:00:54+0000","like_count":0,"user_likes":false},"766026366747376":{"id":"766026366747376","from":{"id":"100000603915176","name":"悪いな ぁ"},"message":"Sao cơ >.<","can_remove":false,"created_time":"2013-11-25T15:02:56+0000","like_count":0,"user_likes":false},"766026716747341":{"id":"766026716747341","from":{"id":"1146680551","name":"優しい なぁ"},"message":"Cú đêm đấy chị à.\"lắm mồm\" nhưng tốt bụng ^_^","can_remove":false,"created_time":"2013-11-25T15:03:51+0000","like_count":1,"user_likes":false},"766030573413622":{"id":"766030573413622","from":{"id":"100000603915176","name":"悪いな ぁ"},"message":"Có ghẹo đâu, chỉ là nghe thấy em ấy kết luận một cái là mình tuyên bố dừng hình ngay mà. Chuyện chính trị đâu thể giải thích đơn giản vậy được. Chuyện của các em ấy là học thôi, chưa cần quan tâm lắm vấn đề đó ;)","can_remove":false,"created_time":"2013-11-25T15:13:40+0000","like_count":3,"user_likes":false},"766032686746744":{"id":"766032686746744","from":{"id":"100001243411261","name":"Ngưu Tỷ Tỷ"},"message":"vâng, bỏ chút thời gian inbox để giải thích cho em hiểu đi ạ!!!!","can_remove":false,"created_time":"2013-11-25T15:18:52+0000","like_count":0,"user_likes":false},"766034213413258":{"id":"766034213413258","from":{"id":"100000603915176","name":"悪いな ぁ"},"message":"Nếu đã vậy thì mình đề nghị thế này. Các bác mời admin Mai PB có một bài về quan hệ Việt - Trung thì tốt hơn. Sau đó mọi người cùng tranh luận. Như vậy thì có thể sẽ có nhiều người biết hơn về vấn đề này. Để giải thích không nên dùng quan điểm cá nhân để giải thích mà nên có những dẫn chứng cụ thể rồi từ đó mọi người suy ngẫm.","message_tags":[{"id":"100001416272263","name":"Mai PB","type":"user","offset":55,"length":6}],"can_remove":false,"created_time":"2013-11-25T15:22:16+0000","like_count":0,"user_likes":false},"766035040079842":{"id":"766035040079842","from":{"id":"100001243411261","name":"Ngưu Tỷ Tỷ"},"message":"em nghĩ không cần phải đao to búa lớn như thế, cứ inbox dạy dỗ em là được rồi ạ","can_remove":false,"created_time":"2013-11-25T15:24:31+0000","like_count":1,"user_likes":false},"766036890079657":{"id":"766036890079657","from":{"id":"100000603915176","name":"悪いな ぁ"},"message":"Không phải đao to búa lớn. Có một điều mà rất nhiều người buồn là thanh niên VN bây giờ rất ít quan tâm đến chính trị, tình hình trong nước và quan hệ với các nước. Mọi người luôn thờ ơ mặc dù nó có ảnh hưởng rất lớn đến không chỉ tương lai đất nước mà còn ảnh hưởng tới trưc tiếp từng người. Chỉ ví dụ: một ông lên làm TT, trình độ kém sẽ làm cho kinh tế xấu đi, kinh tế xấu đi thì mọi người làm ăn khó khăn... Tặng em cái link này, tuy nó hơi đơn giản như cũng sơ qua để em hiểu: http://vi.wikipedia.org/wiki/Quan_h%E1%BB%87_Trung_Qu%E1%BB%91c_%E2%80%93_Vi%E1%BB%87t_Nam","can_remove":false,"created_time":"2013-11-25T15:29:04+0000","like_count":3,"user_likes":false},"766045030078843":{"id":"766045030078843","from":{"id":"100001243411261","name":"Ngưu Tỷ Tỷ"},"message":"ok, em hiểu nỗi lòng trăn trở của anh, em cũng thích môn Lịch sử, cũng thích tìm hiểu này nọ, vấn đề bành trướng lãnh thổ, thâu tóm nước khác thì nước nào cũng có âm mưu cả, thử nghĩ đến quan hệ Việt - Lào mà xem, liệu 2 nước có phải là là quan hệ song song như báo đài rêu rao không? Trong lịch sử chúng ta cũng thâu tóm lãnh thổ của nước Champa còn gì? Nói về chính trị thì chẳng có nước nào không có âm mưu cả. Cá lớn nuốt cá bé.","can_remove":false,"created_time":"2013-11-25T15:44:04+0000","like_count":0,"user_likes":false},"766050893411590":{"id":"766050893411590","from":{"id":"100001243411261","name":"Ngưu Tỷ Tỷ"},"message":"Còn em và vô số người khác không quan tâm tới chính trị Việt Nam vì thể chế chính trị VN việc bầu cử là gián tiếp chứ không phải là trực tiếp, bởi vậy rõ ràng rằng lá phiếu của mình chẳng có nhiều giá trị, có muốn quan tâm thì cũng chẳng biết quan tâm thế nào cho có hiệu quả.","can_remove":false,"created_time":"2013-11-25T15:52:46+0000","like_count":1,"user_likes":false},"766383416711671":{"id":"766383416711671","from":{"id":"100000068660150","name":"Hito Kami"},"message":"Rõ ràng là cố tình mà , vô ý cái gì cơ chứ :)) bọn tàu khựa thì có gì là tốt đẹp cơ chứ , mình sinh ra sống trong khu quân đội , trong khu toàn tướng , tá , ngay cả người trong nhà cũng toàn theo quân đội , từng bảo đến cái năm bọn tàu đánh việt nam , chỉ có tri thức trói gà không chặt là còn không tin bọn tàu nó đánh mình mà , người già đều biết bọn tàu khựa nó đểu thế nào rồi , còn các bạn vẫn nghĩ tàu khựa dân tốt còn chính phủ xấu ư , các bạn nhầm rồi , chỉ cần chính phủ nó hạ lệnh cái là dân nó kéo sang đây ngay , vì với dân tàu thì người dân việt ở đất nước này chưa từng một lần ngang hàng với chúng , trong mắt bọn tàu thì các bạn nghĩ người việt mình là thứ gì ?","can_remove":false,"created_time":"2013-11-25T23:43:37+0000","like_count":1,"user_likes":false},"766477513368928":{"id":"766477513368928","from":{"id":"1717530880","name":"Triệu Việt Cường"},"message":"Ngưu tỷ tỷ à, chắc tỷ tỷ xem nhiều phim Trung Quốc quá đây mà.","can_remove":false,"created_time":"2013-11-26T02:59:10+0000","like_count":0,"user_likes":false},"767084573308222":{"id":"767084573308222","from":{"id":"100000381394367","name":"Thành Nguyễn"},"message":"Mình thấy mọi người khi đọc bài này chỉ tập trung vào một khía cạnh là ban tổ chức viết sai tên, thường thì chuyện ban tổ chức xảy ra sai sót là chuyện thường, nhiều lần xảy ra rồi, điều đó không đáng bàn cãi lắm. Cái cần nói chính là cái cô hoa hậu Việt Nam kia, tiếng là đại diện cho Việt Nam mà đeo cái băng tên sai đến cả 2 ngày rồi mà không có phản ứng gì, đã vậy thấy cái cờ bị ngược mà vẫn vẫy qua vẫy lại rất 'hồn nhiên\", nói những lý do như cô ta trần tình bao biện nghe chẳng hợp lý chút nào, nói là tổ quốc trong trái tim tôi etc.. mà vì \"bận rộn\" nên bao nhiêu thứ \"đại diện cho tổ quốc\" ấy biến đi đâu mất. Điều này chỉ chứng tỏ một điều là Việt Nam không chọn nổi một người đại diện xứng đáng cho mình để ra các cuộc thi quốc tế, và bản thân các cuộc thi hoa hậu trong nước có thực sự là tôn vinh vẻ đẹp trí tuệ với vẻ đẹp hình thể như người ta quảng cáo không hay thực chất chỉ nhằm phục vụ cho mục đích giải trí là chính.","can_remove":false,"created_time":"2013-11-27T02:14:21+0000","like_count":2,"user_likes":false},"767087173307962":{"id":"767087173307962","from":{"id":"100000381394367","name":"Thành Nguyễn"},"message":"Còn các bạn gặp người TQ mà nói betonamu thường họ không biết là nước nào đâu, không phải là họ không biết Việt Nam, họ chỉ không biết cái phiên âm tiếng Nhật và tiếng Anh đó là chỉ Việt Nam thôi. Hồi ở Nhật mình có rất nhiều bạn TQ, họ đều có học hành cả, lúc nói betonamu họ không biết, thấy thế mình nói là Yuenan (phát âm gần giống duỷa nan ) thì họ biết ngay. Thử sẽ biết.","can_remove":false,"created_time":"2013-11-27T02:19:23+0000","like_count":1,"user_likes":false},"767088579974488":{"id":"767088579974488","from":{"id":"100003767594753","name":"Mít Tờ Chiến"},"message":"vo van","can_remove":false,"created_time":"2013-11-27T02:23:25+0000","like_count":0,"user_likes":false},"767153569967989":{"id":"767153569967989","from":{"id":"100001416272263","name":"Mai PB"},"message":"Càng kém phát triển kinh tế càng nhiều cuộc thi hoa hậu","can_remove":false,"created_time":"2013-11-27T04:29:05+0000","like_count":0,"user_likes":false},"767174299965916":{"id":"767174299965916","from":{"id":"1146680551","name":"優しい なぁ"},"message":"Càng kém về giáo dục thì show biz việt càng phát triển","can_remove":false,"created_time":"2013-11-27T05:46:25+0000","like_count":0,"user_likes":false}},"paging":{"cursors":{"after":"NzY2MDAxNzQ2NzQ5ODM4","before":"NzY2MDAxNzQ2NzQ5ODM4"},"next":"https://graph.facebook.com/229244010425617_766000520083294/comments?limit=1&summary=1&after=NzY2MDAxNzQ2NzQ5ODM4"},"summary":{"order":"chronological","total_count":40}}}