{"id":"229244010425617_766458053370874","type":"link","picture":"https://fbexternal-a.akamaihd.net/safe_image.php?d=AQDjAeaFIITRdXy6&w=154&h=154&url=http%3A%2F%2Fvtv.vn%2FUploaded%2Fthuhang%2F2013_11_26%2FDu%2520hoc%2520Nhat.jpg%3Fwidth%3D626%26height%3D370%26speed%3D0","link":"http://vtv.vn/video-clip/131/Bap-benh-cuoc-song-du-hoc-sinh-Viet-Nam-tai-Nhat/video20996.vtv","from":{"id":"100001014186213","name":"Phuong Nguyen Nguyen"},"message":"Bản tin tài chính kinh doanh sáng nay 26/11/2013","created_time":"2013-11-26T02:09:55+0000","updated_time":"2013-11-26T18:07:55+0000","likes":{"data":{"1685388801":{"id":"1685388801","name":"Oanh Chan"},"100003269104309":{"id":"100003269104309","name":"Tuấn Ham Hố"},"100006502552041":{"id":"100006502552041","name":"Xấu Xí"},"1825981403":{"id":"1825981403","name":"Tatsuya Rai"},"100002419566054":{"id":"100002419566054","name":"Khánh Toàn"},"1146680551":{"id":"1146680551","name":"優しい なぁ"},"100001658751624":{"id":"100001658751624","name":"Kim Chan"},"100002871405403":{"id":"100002871405403","name":"Thach Sanh"},"100004460015035":{"id":"100004460015035","name":"Vi Le"},"100001526631937":{"id":"100001526631937","name":"Tường Oanh Mineko"},"100001754136107":{"id":"100001754136107","name":"Nguyễn Tuấn Vũ"},"100001365545442":{"id":"100001365545442","name":"Nguyễn Nam"},"100000022163023":{"id":"100000022163023","name":"Kafe Ore"},"100000973295703":{"id":"100000973295703","name":"El Pipita Gà"},"100000045271667":{"id":"100000045271667","name":"Nam Thai Nguyen"},"745565751":{"id":"745565751","name":"Tuyen Hoang Thi"},"100001318098340":{"id":"100001318098340","name":"Trang Anh"},"100001264346476":{"id":"100001264346476","name":"Anh Đàm"},"100000615794580":{"id":"100000615794580","name":"HoangAnh Nguyen"},"100001634732453":{"id":"100001634732453","name":"Nguyễn Tiến Sinh"},"100002966928087":{"id":"100002966928087","name":"Nguyen van Dat"},"100002687858685":{"id":"100002687858685","name":"Love Out Loud"},"100001416272263":{"id":"100001416272263","name":"Mai PB"},"1060893770":{"id":"1060893770","name":"Hyhy Zui Zẻ"},"1816269439":{"id":"1816269439","name":"Dao Ngoc"},"100001415407078":{"id":"100001415407078","name":"Kha Pham"},"100002508122689":{"id":"100002508122689","name":"Vũ Mạnh Tuấn"},"100003334742630":{"id":"100003334742630","name":"Htl Nhjm"},"100006597284221":{"id":"100006597284221","name":"Du Học Quốc Tế"},"100002629655875":{"id":"100002629655875","name":"Đỗ Thế Phong"},"100005801442456":{"id":"100005801442456","name":"An Nguyen"},"100004084770426":{"id":"100004084770426","name":"Mặt Trời Mọc"},"100006359141706":{"id":"100006359141706","name":"Hayashi Shinya"},"100006379235603":{"id":"100006379235603","name":"Khoai Tây Rubi"}},"paging":{"cursors":{"after":"MTY4NTM4ODgwMQ==","before":"MTY4NTM4ODgwMQ=="},"next":"https://graph.facebook.com/229244010425617_766458053370874/likes?limit=1&summary=1&after=MTY4NTM4ODgwMQ%3D%3D"},"summary":{"total_count":36}},"comments":{"data":{"766531293363550":{"id":"766531293363550","from":{"id":"1813611352","name":"To Đùng"},"message":"Công Chày Cối sửa lại comment tí cho lịch sự nhá bạn ^_^","message_tags":[{"id":"100005880481788","name":"Công Chày Cối","type":"user","offset":0,"length":13}],"can_remove":false,"created_time":"2013-11-26T05:00:17+0000","like_count":0,"user_likes":false},"766532563363423":{"id":"766532563363423","from":{"id":"100006419622933","name":"Quà Tặng Cuộc Sống"},"message":"đang tìm hiểu đi du học.. xem cái này xong mà mất hết tinh thần","can_remove":false,"created_time":"2013-11-26T05:05:12+0000","like_count":0,"user_likes":false},"766538136696199":{"id":"766538136696199","from":{"id":"100001318098340","name":"Trang Anh"},"message":"wtf?? cty Hanami??  minh di theo cty nay :))))","can_remove":false,"created_time":"2013-11-26T05:26:13+0000","like_count":1,"user_likes":false},"766543093362370":{"id":"766543093362370","from":{"id":"100002689017246","name":"Vũ Văn Minh"},"message":"Anh Qlc","message_tags":[{"id":"100004123920931","name":"Anh Qlc","type":"user","offset":0,"length":7}],"can_remove":false,"created_time":"2013-11-26T05:43:25+0000","like_count":0,"user_likes":false},"766544863362193":{"id":"766544863362193","from":{"id":"100003512537236","name":"Nguyen Phu Dang"},"message":"Trang Anh em oi the nay la the nao","message_tags":[{"id":"100001318098340","name":"Trang Anh","type":"user","offset":0,"length":9}],"can_remove":false,"created_time":"2013-11-26T05:50:16+0000","like_count":1,"user_likes":false},"766544883362191":{"id":"766544883362191","from":{"id":"100003512537236","name":"Nguyen Phu Dang"},"message":":'(","can_remove":false,"created_time":"2013-11-26T05:50:24+0000","like_count":0,"user_likes":false},"766547953361884":{"id":"766547953361884","from":{"id":"100001318098340","name":"Trang Anh"},"message":"khóa t10 mấy a c.ấy đi vẫn bt mà :)) kệ thôi, hj","can_remove":false,"created_time":"2013-11-26T06:03:34+0000","like_count":0,"user_likes":false},"766548136695199":{"id":"766548136695199","from":{"id":"100003512537236","name":"Nguyen Phu Dang"},"message":"kệ thì vẫn phải tạo áp lực cho công ty cho họ sợ :v","can_remove":false,"created_time":"2013-11-26T06:04:16+0000","like_count":1,"user_likes":false},"766703516679661":{"id":"766703516679661","from":{"id":"1146680551","name":"優しい なぁ"},"message":"Thực trạng nó là như vậy, cũng chẳng có biện pháp hay đối sách gì, cũng không biết các bạn chuẩn bị làm hồ sơ có sn lại hay không?","can_remove":false,"created_time":"2013-11-26T10:19:24+0000","like_count":0,"user_likes":false},"766899473326732":{"id":"766899473326732","from":{"id":"100004368162869","name":"Yenthuy Le"},"message":"đi Lào lập nghiệp cũng đc mà, k thì qua Cam làm cao su ... không phải là sợ gian nan khó khăn khi sang Nhật, mà sợ là sợ mất số tiền ba mẹ bỏ ra ,,, lớn lắm đấy :(","can_remove":false,"created_time":"2013-11-26T18:07:55+0000","like_count":0,"user_likes":false}},"paging":{"cursors":{"after":"NzY2NTMxMjkzMzYzNTUw","before":"NzY2NTMxMjkzMzYzNTUw"},"next":"https://graph.facebook.com/229244010425617_766458053370874/comments?limit=1&summary=1&after=NzY2NTMxMjkzMzYzNTUw"},"summary":{"order":"chronological","total_count":10}}}