{"id":"229244010425617_766405526709460","type":"status","from":{"id":"1060893770","name":"Hyhy Zui Zẻ"},"message":"Mọi người cho e hỏi là e nghe nói lịch học của trường tiếng thường là mình có thể chọn học ca sáng hoạc tối, mỗi ca khoảng 4h đúng ko ạ? hay là mình phải học cả ngày ạ? Với lại nếu học tiếng trong 2 năm thì chắc chắn có được n1 ko và nếu ko có thì mình có thể học tiếp đến khi nào có n1 ko ạ? Doumo arigatou!","created_time":"2013-11-26T00:53:24+0000","updated_time":"2013-11-26T01:36:36+0000","likes":{"data":{"100004162267469":{"id":"100004162267469","name":"Nguyễn Hữu Gì Ấy"}},"paging":{"cursors":{"after":"MTAwMDA0MTYyMjY3NDY5","before":"MTAwMDA0MTYyMjY3NDY5"}},"summary":{"total_count":1}},"comments":{"data":{"766406126709400":{"id":"766406126709400","from":{"id":"100003103773473","name":"Rod Nick"},"message":"Học và thi là do mình chứ nhà trường k cho cái đó đâu bạn bạn học 5 năm k thi đc thì cũng vậy thôi","can_remove":false,"created_time":"2013-11-26T00:55:09+0000","like_count":0,"user_likes":false},"766406726709340":{"id":"766406726709340","from":{"id":"100006468709540","name":"Trần Minh"},"message":"Liều quá","can_remove":false,"created_time":"2013-11-26T00:57:04+0000","like_count":0,"user_likes":false},"766408323375847":{"id":"766408323375847","from":{"id":"1060893770","name":"Hyhy Zui Zẻ"},"message":"Rod Nick vậy nếu ko có n1 thì có thể đăng ký học tiếng tiếp đến khi nào có n1 ko bạn, hay là đúng 2 năm hết hạn visa là phải về nước???","message_tags":[{"id":"100003103773473","name":"Rod Nick","type":"user","offset":0,"length":8}],"can_remove":false,"created_time":"2013-11-26T01:00:49+0000","like_count":0,"user_likes":false},"766414723375207":{"id":"766414723375207","from":{"id":"100003103773473","name":"Rod Nick"},"message":"Trong 2 năm đó bạn đăng ký thi \nHết 2 năm bạn có thể về hoặc vào học senmon đại học v..vvv..","can_remove":false,"created_time":"2013-11-26T01:03:04+0000","like_count":1,"user_likes":false},"766416140041732":{"id":"766416140041732","from":{"id":"1060893770","name":"Hyhy Zui Zẻ"},"message":"ồ vậy à, nhưng mình ko muốn ở lại nhật, mình chỉ muốn có n1 rồi về việt nam mở trung tâm thôi, haizz, vậy có nghĩa là học xong 2 năm học tiếng thì chấm dứt chương trình và ko thể ở lại học tiếng thêm, ok mình hiểu rồi, cám ơn Thím Bảy và Rod Nick nhé","message_tags":[{"id":"100003103773473","name":"Rod Nick","type":"user","offset":238,"length":8}],"can_remove":false,"created_time":"2013-11-26T01:06:36+0000","like_count":0,"user_likes":false},"766418976708115":{"id":"766418976708115","from":{"id":"1060893770","name":"Hyhy Zui Zẻ"},"message":"ờ cái này mình có biết Thím Bảy ơi, mà ấy cho mình hỏi là 1 ngày mình học 4 tiếng thôi hả hay học cả ngày vậy bạn?","can_remove":false,"created_time":"2013-11-26T01:13:15+0000","like_count":0,"user_likes":false},"766420790041267":{"id":"766420790041267","from":{"id":"1060893770","name":"Hyhy Zui Zẻ"},"message":"hihi, cám ơn Thím Bảy nhiều nha, khi nào mình gần đi sẽ hỏi kinh nghiệm của bạn thêm nhé, lúc đó nhờ bạn chỉ giáo thêm, have a nice day nhé,","can_remove":false,"created_time":"2013-11-26T01:16:50+0000","like_count":0,"user_likes":false},"766424950040851":{"id":"766424950040851","from":{"id":"100005675104683","name":"Nguyễn Hoa"},"message":"hoc 2 nam di thang4 neu ban chui kho hoc thi se duoc n1 ma ko thi n2 cung on dinh ma quan trong la khi ve Việt Nam! ban mo trung tam cach quan ly trung tam va cach day hoc cua ban co tot ko thoi chu dau can phai n1 nhieu nguoi trinh n3 day hoc con hay hon n1,2 day","can_remove":false,"created_time":"2013-11-26T01:29:48+0000","like_count":1,"user_likes":false},"766425643374115":{"id":"766425643374115","from":{"id":"569263718","name":"Phuong Thao Tran"},"message":"học ở VN 1 năm, ngày 8 tiếng cũng có thể  lấy được N1 bạn ạ, quan trọng là mục tiêu học và phương pháp học ứng với mục tiêu đó như thế nào thôi bạn !!! chúc bạn học tốt !!! ^^","can_remove":false,"created_time":"2013-11-26T01:32:09+0000","like_count":2,"user_likes":false},"766429056707107":{"id":"766429056707107","from":{"id":"100005801442456","name":"An Nguyen"},"message":"1 năm lấy N1 mà còn ở Việt Nam là vấn đề không hề dễ đâu ấy@.@","can_remove":false,"created_time":"2013-11-26T01:36:36+0000","like_count":1,"user_likes":false}},"paging":{"cursors":{"after":"NzY2NDA2MTI2NzA5NDAw","before":"NzY2NDA2MTI2NzA5NDAw"},"next":"https://graph.facebook.com/229244010425617_766405526709460/comments?limit=1&summary=1&after=NzY2NDA2MTI2NzA5NDAw"},"summary":{"order":"chronological","total_count":14}}}