{"id":"229244010425617_766473763369303","type":"photo","object_id":"711835092160743","picture":"https://fbcdn-photos-g-a.akamaihd.net/hphotos-ak-ash3/t1.0-0/1479297_711835092160743_1397830279_s.jpg","link":"https://www.facebook.com/photo.php?fbid=711835092160743&set=gm.766473763369303&type=1&relevant_count=1","from":{"id":"100000027754899","name":"Hoang Van Ba"},"message":"Có cái này ko biết mọi người thấy sao ?? :))","created_time":"2013-11-26T02:51:15+0000","updated_time":"2013-11-26T03:42:22+0000","likes":{"data":{"100001416272263":{"id":"100001416272263","name":"Mai PB"},"100003775274952":{"id":"100003775274952","name":"Masahiro Kano"},"100004263270975":{"id":"100004263270975","name":"Chung Đức"},"100006379235603":{"id":"100006379235603","name":"Khoai Tây Rubi"},"1146680551":{"id":"1146680551","name":"優しい なぁ"}},"paging":{"cursors":{"after":"MTAwMDAxNDE2MjcyMjYz","before":"MTAwMDAxNDE2MjcyMjYz"},"next":"https://graph.facebook.com/229244010425617_766473763369303/likes?limit=1&summary=1&after=MTAwMDAxNDE2MjcyMjYz"},"summary":{"total_count":5}},"comments":{"data":{"766474506702562":{"id":"766474506702562","from":{"id":"1146680551","name":"優しい なぁ"},"message":"\"Biết rồi,khổ lắm nói mãi \" :v","can_remove":false,"created_time":"2013-11-26T02:53:00+0000","like_count":0,"user_likes":false},"766487446701268":{"id":"766487446701268","from":{"id":"550401589","name":"Cuong Cao"},"message":"Bạn nào dịch giúp những ng chưa đọc đc, đc ko ^^","can_remove":false,"created_time":"2013-11-26T03:25:34+0000","like_count":0,"user_likes":false},"766488820034464":{"id":"766488820034464","from":{"id":"100003775274952","name":"Masahiro Kano"},"message":"Biết rồi.1イ2ア3ウ4ウ5ウ :)","can_remove":false,"created_time":"2013-11-26T03:28:24+0000","like_count":2,"user_likes":false},"766491620034184":{"id":"766491620034184","from":{"id":"100001416272263","name":"Mai PB"},"message":"Đây khg phải bài dịch mà là bài test kiến thức, Cuong Cao","message_tags":[{"id":"550401589","name":"Cuong Cao","type":"user","offset":48,"length":9}],"can_remove":false,"created_time":"2013-11-26T03:38:03+0000","like_count":0,"user_likes":false},"766492476700765":{"id":"766492476700765","from":{"id":"100000027754899","name":"Hoang Van Ba"},"message":"おし〜。@Masahiro :))\n1 và 5 nhé :))","can_remove":false,"created_time":"2013-11-26T03:40:58+0000","like_count":0,"user_likes":false},"766492863367393":{"id":"766492863367393","from":{"id":"550401589","name":"Cuong Cao"},"message":"Nhiều chữ Hán em chưa biết, cảm ơn anh @Mai FB nhé ^^","can_remove":false,"created_time":"2013-11-26T03:42:22+0000","like_count":0,"user_likes":false}},"paging":{"cursors":{"after":"NzY2NDc0NTA2NzAyNTYy","before":"NzY2NDc0NTA2NzAyNTYy"},"next":"https://graph.facebook.com/229244010425617_766473763369303/comments?limit=1&summary=1&after=NzY2NDc0NTA2NzAyNTYy"},"summary":{"order":"chronological","total_count":6}}}