{"id":"229244010425617_766570803359599","type":"status","from":{"id":"100004346623532","name":"Chiisai Namida"},"message":"Cho mình hỏi một chút, có phải mạng softbank đang có chương trình chuyển đổi từ mạng khác sang mạng softbank được 9man k ạ.:)","created_time":"2013-11-26T07:11:45+0000","updated_time":"2013-11-26T14:34:12+0000","likes":{"data":{"825333483":{"id":"825333483","name":"Dac Nguyen"}},"paging":{"cursors":{"after":"ODI1MzMzNDgz","before":"ODI1MzMzNDgz"}},"summary":{"total_count":1}},"comments":{"data":{"766628420020504":{"id":"766628420020504","from":{"id":"100000442929887","name":"Mike Yi"},"message":"AU em ơi.Mà h hình như hết rồi thì phải.","can_remove":false,"created_time":"2013-11-26T08:17:34+0000","like_count":0,"user_likes":false},"766646136685399":{"id":"766646136685399","from":{"id":"100001754136107","name":"Nguyễn Tuấn Vũ"},"message":"mình vừa đi qua cửa hàng AU, khuyến mại 22 man 2 máy. :D nếu chuyển từ mạng khác","can_remove":false,"created_time":"2013-11-26T09:08:02+0000","like_count":1,"user_likes":false},"766647063351973":{"id":"766647063351973","from":{"id":"1813611352","name":"To Đùng"},"message":"eo... cạnh tranh nhỉ >.<  sao chỉ có AU hả Mike Yi sao ko kèm cả Docomo. Hay vì Docomo cũng thuộc ông lớn nên ko dám làm thế :D","message_tags":[{"id":"100000442929887","name":"Mike Yi","type":"user","offset":43,"length":7}],"can_remove":false,"created_time":"2013-11-26T09:10:20+0000","like_count":1,"user_likes":false},"766806676669345":{"id":"766806676669345","from":{"id":"100004346623532","name":"Chiisai Namida"},"message":"e thấy bạn e nói softbank cũng có mà","can_remove":false,"created_time":"2013-11-26T14:34:12+0000","like_count":0,"user_likes":false}},"paging":{"cursors":{"after":"NzY2NjI4NDIwMDIwNTA0","before":"NzY2NjI4NDIwMDIwNTA0"},"next":"https://graph.facebook.com/229244010425617_766570803359599/comments?limit=1&summary=1&after=NzY2NjI4NDIwMDIwNTA0"},"summary":{"order":"chronological","total_count":4}}}