{"id":"229244010425617_766632710020075","type":"status","from":{"id":"100003762427351","name":"Hiroshi Yasu Oki"},"message":"Rất xin lỗi vì đã làm phiền như thế này.\nNhư mọi người đã biết,hiện tại tại Việt Nam đang rộ lên phong trào du học tự túc tại Nhật,và hàng loạt các trung tâm môi giới lần lượt ra đời. Có một số là có khả năng,nhưng phần lớn là sau khi sang được bên ấy đều \"đem con bỏ chợ\",hết trách nhiệm và \"không liên quan\"...\nVì vậy,mình mong muốn có được những thông tin của những trung tâm uy tín tại Việt Nam,để giúp các bạn sau này sang Nhật Bản sẽ tránh được việc  \"bị lừa\"\nCảm ơn mọi người rất nhiều.","created_time":"2013-11-26T08:31:27+0000","updated_time":"2013-11-27T04:41:04+0000","likes":{"data":{"100000045271667":{"id":"100000045271667","name":"Nam Thai Nguyen"},"100004425093918":{"id":"100004425093918","name":"Khuong Khù Kho"},"100004505043108":{"id":"100004505043108","name":"Traitim Cua Gio"},"100001458099624":{"id":"100001458099624","name":"Kham Pha"},"100002167604860":{"id":"100002167604860","name":"Kjm Jun Kj"},"100003049639881":{"id":"100003049639881","name":"Truong Luvuxy"},"100001824172942":{"id":"100001824172942","name":"Phan Van"},"100001416272263":{"id":"100001416272263","name":"Mai PB"},"100003679958283":{"id":"100003679958283","name":"Vũ Hồ"},"100003105034037":{"id":"100003105034037","name":"Pham Oanh"},"100003726227911":{"id":"100003726227911","name":"Hoang Nguyen Huy"},"100004737961217":{"id":"100004737961217","name":"Truc Linh"},"100004958551770":{"id":"100004958551770","name":"Ohana Matsumae"},"1813611352":{"id":"1813611352","name":"To Đùng"}},"paging":{"cursors":{"after":"MTAwMDAwMDQ1MjcxNjY3","before":"MTAwMDAwMDQ1MjcxNjY3"},"next":"https://graph.facebook.com/229244010425617_766632710020075/likes?limit=1&summary=1&after=MTAwMDAwMDQ1MjcxNjY3"},"summary":{"total_count":14}},"comments":{"data":{"766647806685232":{"id":"766647806685232","from":{"id":"1813611352","name":"To Đùng"},"message":"Tự thân vận động là chính thôi. Chứ vẫn là Nước xa ko cứu được lửa gần mà.","can_remove":false,"created_time":"2013-11-26T09:13:07+0000","like_count":3,"user_likes":false},"766854893331190":{"id":"766854893331190","from":{"id":"100000359762118","name":"Mi Tra"},"message":"Nói thật là các trung tâm du học chỉ đóng vai trò xử lý hồ sơ trước khi nộp lên cục XNC. Khi đã qua đến Nhật rồi thì công ty du học chẳng còn trách nhiệm gì cả. Chịu trách nhiệm chính khi các bạn sang Nhật là nhà trường.\nVì thế, để tránh bị lừa chỉ có cách đừng tin vào những lời ngon ngọt của các trung tâm. Hãy đầu tư thời gian tìm hiểu về trường mình sẽ sang học.","can_remove":false,"created_time":"2013-11-26T16:16:23+0000","like_count":4,"user_likes":false},"766872509996095":{"id":"766872509996095","from":{"id":"100006100838234","name":"佐藤剛賢"},"message":"muốn đi du học ở Nhật tốt hơn nên học tiếng thật tốt trước khi qua Nhật để dễ kiếm việc trang trải sinh hoạt.","can_remove":false,"created_time":"2013-11-26T17:01:32+0000","like_count":2,"user_likes":false},"767125749970771":{"id":"767125749970771","from":{"id":"100003118432528","name":"Ngọc Lan"},"message":"Theo mình thì cần có vốn tiếng nhật tốt trước khi sang nhật và có thể tuwh nộp hồ sơ sang bên trường ở nhật .như vậy là tốt nhất","can_remove":false,"created_time":"2013-11-27T02:59:38+0000","like_count":1,"user_likes":false},"767152949968051":{"id":"767152949968051","from":{"id":"100001416272263","name":"Mai PB"},"message":"Hiroshi Oki lịch sự quá, có gì đâu mà xin lỗi? :-)","message_tags":[{"id":"100003762427351","name":"Hiroshi Oki","type":"user","offset":0,"length":11}],"can_remove":false,"created_time":"2013-11-27T04:26:47+0000","like_count":1,"user_likes":false},"767153813301298":{"id":"767153813301298","from":{"id":"569263718","name":"Phuong Thao Tran"},"message":"có mấy bạn qua du học Nhật với mục đích học tiếng ( chứ không phải nâng cao) thì làm sao có tiếng Nhật tốt được  !","can_remove":false,"created_time":"2013-11-27T04:30:32+0000","like_count":0,"user_likes":false},"767154219967924":{"id":"767154219967924","from":{"id":"1813611352","name":"To Đùng"},"message":"thường thì mình thấy là những ai học tiếng xong rồi. dùng tiếng Nhật rồi thì càng thêm muốn sang Nhật 1 thời gian để trải nghiệm và nâng cao tiếng Nhật của bản thân.\nchứ sang rồi mới học thì hơi ngược nhỉ.","can_remove":false,"created_time":"2013-11-27T04:31:45+0000","like_count":1,"user_likes":false},"767157086634304":{"id":"767157086634304","from":{"id":"569263718","name":"Phuong Thao Tran"},"message":"đó là mấy bạn con nhà giàu, chứ mấy bạn con nhà nghèo thì sau khi có vốn tiếng Nhật đủ xài rồi thì kiếm việc làm và kiếm cơ hội đi Nhật bằng cách khác chứ không đi du học, ^^","can_remove":false,"created_time":"2013-11-27T04:37:56+0000","like_count":1,"user_likes":false},"767157773300902":{"id":"767157773300902","from":{"id":"100000359762118","name":"Mi Tra"},"message":"Có cả trường hợp sang để học nữa đó To Đùng ạ. (Như c ngày xưa ^^)\nDù sao thì cũng cần có vốn tiếng Nhật ít nhất N4,N3 thì hãy sang. Chứ mình ko phải giàu như tụi tây qua Nhật vừa trải nghiệm văn hoá, vừa du lịch rồi thông qua đó học tiếng Nhật. \nSang Nhật mà không biết tiếng thì coi như người bị câm điếc ( người ta nói mình ko hiểu, mình cũng ko thể nói được). Mà người câm điếc để hoà nhập cuộc sống, tự làm mọi thứ đã khó chứ chẳng nói đến đi làm kiếm tiền. \nThời gian chuẩn bị hồ sơ để đi du học thì cũng tầm nửa năm. Nửa năm đó tập trung vào mà học ngày học đêm chứ chẳng cần nhiều nhặn gì.","message_tags":[{"id":"1813611352","name":"To Đùng","type":"user","offset":36,"length":7}],"can_remove":false,"created_time":"2013-11-27T04:40:25+0000","like_count":3,"user_likes":false},"767157896634223":{"id":"767157896634223","from":{"id":"100003762427351","name":"Hiroshi Yasu Oki"},"message":"http://vtv.vn/video-clip/131/Bap-benh-cuoc-song-du-hoc-sinh-Viet-Nam-tai-Nhat/video20996.vtv","can_remove":false,"created_time":"2013-11-27T04:41:04+0000","like_count":0,"user_likes":false}},"paging":{"cursors":{"after":"NzY2NjQ3ODA2Njg1MjMy","before":"NzY2NjQ3ODA2Njg1MjMy"},"next":"https://graph.facebook.com/229244010425617_766632710020075/comments?limit=1&summary=1&after=NzY2NjQ3ODA2Njg1MjMy"},"summary":{"order":"chronological","total_count":10}}}