{"id":"229244010425617_766716406678372","type":"video","picture":"https://fbexternal-a.akamaihd.net/safe_image.php?d=AQCr4QL8jWqIg96T&w=130&h=130&url=http%3A%2F%2Fi1.ytimg.com%2Fvi%2F_glijMjrYX0%2Fmaxresdefault.jpg","link":"http://www.youtube.com/watch?v=_glijMjrYX0","source":"http://www.youtube.com/v/_glijMjrYX0?version=3&autohide=1&autoplay=1","from":{"id":"569263718","name":"Phuong Thao Tran"},"message":"Chắc hẳn là nhiều bạn nhận ra ca khúc này...!\nCa khúc 1 thời thịnh hành ở VN cuối thể kỷ 20, (^_^);\nvà đặc biệt có hình nền giống hình nền của Group, ^^\nhttp://www.youtube.com/watch?v=_glijMjrYX0","created_time":"2013-11-26T10:48:47+0000","updated_time":"2013-11-26T14:00:31+0000","likes":{"data":{"100006581191444":{"id":"100006581191444","name":"Thư Trần"},"100002773890521":{"id":"100002773890521","name":"Lệnh Yến"},"100004094346107":{"id":"100004094346107","name":"Thuy Nga Nguyen"},"100004168804627":{"id":"100004168804627","name":"Yuki Aki"},"100006057482511":{"id":"100006057482511","name":"Neko Trần"},"825333483":{"id":"825333483","name":"Dac Nguyen"},"100005801442456":{"id":"100005801442456","name":"An Nguyen"},"100004360751785":{"id":"100004360751785","name":"Hà Nguyễn"},"100004642933206":{"id":"100004642933206","name":"Aloha Aloha"},"100000045271667":{"id":"100000045271667","name":"Nam Thai Nguyen"},"100001416272263":{"id":"100001416272263","name":"Mai PB"},"100001458099624":{"id":"100001458099624","name":"Kham Pha"},"1146680551":{"id":"1146680551","name":"優しい なぁ"}},"paging":{"cursors":{"after":"MTAwMDA2NTgxMTkxNDQ0","before":"MTAwMDA2NTgxMTkxNDQ0"},"next":"https://graph.facebook.com/229244010425617_766716406678372/likes?limit=1&summary=1&after=MTAwMDA2NTgxMTkxNDQ0"},"summary":{"total_count":13}},"comments":{"data":{"766758733340806":{"id":"766758733340806","from":{"id":"100001416272263","name":"Mai PB"},"message":"Anh này cover lại đấy. Giọng cao nên ra mấy CD cover lại toàn bài của ca sĩ nữ.","can_remove":false,"created_time":"2013-11-26T12:43:59+0000","like_count":1,"user_likes":false},"766768106673202":{"id":"766768106673202","from":{"id":"100004360751785","name":"Hà Nguyễn"},"message":"Bài xưa xưa nào bác Mai PB cũng biết nhở","message_tags":[{"id":"100001416272263","name":"Mai PB","type":"user","offset":20,"length":6}],"can_remove":false,"created_time":"2013-11-26T13:06:20+0000","like_count":1,"user_likes":false},"766790236670989":{"id":"766790236670989","from":{"id":"569263718","name":"Phuong Thao Tran"},"message":"bài gốc của ca sỹ, nhạc sỹ Itsuwa mayumi. Rất nhiều bài hát của bà được dịch sang tiếng Việt và bài nào cũng thịnh hành cả, ^^","can_remove":false,"created_time":"2013-11-26T14:00:31+0000","like_count":0,"user_likes":false}},"paging":{"cursors":{"after":"NzY2NzU4NzMzMzQwODA2","before":"NzY2NzU4NzMzMzQwODA2"},"next":"https://graph.facebook.com/229244010425617_766716406678372/comments?limit=1&summary=1&after=NzY2NzU4NzMzMzQwODA2"},"summary":{"order":"chronological","total_count":3}}}