{"id":"229244010425617_766732886676724","type":"status","from":{"id":"100002508122689","name":"Vũ Mạnh Tuấn"},"message":"「住めば都」Sumeba miyako\nCâu này có ý nghĩa gì nhỉ ???\n\n-- Đi sưu tầm --","created_time":"2013-11-26T11:35:00+0000","updated_time":"2013-11-26T13:29:40+0000","likes":{"data":{"100003599920499":{"id":"100003599920499","name":"ふゆ はな"},"100001526631937":{"id":"100001526631937","name":"Tường Oanh Mineko"},"100003877866058":{"id":"100003877866058","name":"Ly Nguyen"},"100000328742646":{"id":"100000328742646","name":"Trần Giáp"},"100005801442456":{"id":"100005801442456","name":"An Nguyen"},"100001416272263":{"id":"100001416272263","name":"Mai PB"},"100003055356509":{"id":"100003055356509","name":"Thuan Nguyen"},"100005537491082":{"id":"100005537491082","name":"Dang Oanh"}},"paging":{"cursors":{"after":"MTAwMDAzNTk5OTIwNDk5","before":"MTAwMDAzNTk5OTIwNDk5"},"next":"https://graph.facebook.com/229244010425617_766732886676724/likes?limit=1&summary=1&after=MTAwMDAzNTk5OTIwNDk5"},"summary":{"total_count":8}},"comments":{"data":{"766774680005878":{"id":"766774680005878","from":{"id":"100005801442456","name":"An Nguyen"},"message":"\"Nhà tui có rách thì cũng là nhà tui, tự do thoải mái tự tại ...\"","can_remove":false,"created_time":"2013-11-26T13:21:42+0000","like_count":1,"user_likes":false},"766776430005703":{"id":"766776430005703","from":{"id":"100002779080239","name":"Nguyễn Biên"},"message":"Tục ngữ Nhật .  Ý nó là : dù là chỗ nào , cứ sống lâu thì sẽ cảm thấy nơi đó là tốt nhất.","can_remove":false,"created_time":"2013-11-26T13:26:55+0000","like_count":4,"user_likes":false},"766776826672330":{"id":"766776826672330","from":{"id":"100000328742646","name":"Trần Giáp"},"message":"間取りも狭いし、周りもうるさいけど、住めば都なんだよ、この部屋。:3","can_remove":false,"created_time":"2013-11-26T13:27:28+0000","like_count":1,"user_likes":false},"766776883338991":{"id":"766776883338991","from":{"id":"100002508122689","name":"Vũ Mạnh Tuấn"},"message":"Nguyễn Biên trả lời đúng roài, còn bác An Nguyen xem lại đi nhá.","message_tags":[{"id":"100002779080239","name":"Nguyễn Biên","type":"user","offset":0,"length":11},{"id":"100005801442456","name":"An Nguyen","type":"user","offset":39,"length":9}],"can_remove":false,"created_time":"2013-11-26T13:27:33+0000","like_count":0,"user_likes":false},"766777000005646":{"id":"766777000005646","from":{"id":"100002508122689","name":"Vũ Mạnh Tuấn"},"message":"すめば(nếu sống), みやこ(thủ đô, nơi có thể sống thoải mái) \"Nếu sống là thủ đô\". Câu này có nghĩa là : một khi đã sống quen thì một nơi dù bất tiện thế nào đi nữa cũng trở thành nhà","can_remove":false,"created_time":"2013-11-26T13:27:52+0000","like_count":1,"user_likes":false},"766777350005611":{"id":"766777350005611","from":{"id":"100005801442456","name":"An Nguyen"},"message":"Đúng theo google là thế, còn dịch theo miệng tiếng Việt thì nó phải khác đi chứ.....","can_remove":false,"created_time":"2013-11-26T13:28:46+0000","like_count":0,"user_likes":false},"766777623338917":{"id":"766777623338917","from":{"id":"100005801442456","name":"An Nguyen"},"message":"どんな所でも、住み慣れるとそこが居心地よく思われてくるということ。\n\n[補説]住むのなら都会が良いの意で使うのは誤り。","can_remove":false,"created_time":"2013-11-26T13:29:40+0000","like_count":1,"user_likes":false}},"paging":{"cursors":{"after":"NzY2Nzc0NjgwMDA1ODc4","before":"NzY2Nzc0NjgwMDA1ODc4"},"next":"https://graph.facebook.com/229244010425617_766732886676724/comments?limit=1&summary=1&after=NzY2Nzc0NjgwMDA1ODc4"},"summary":{"order":"chronological","total_count":7}}}