{"id":"229244010425617_766753076674705","type":"status","from":{"id":"100003716043591","name":"Mi Mèo"},"message":"chào mọi người, e là nhân 95line *biết để dễ xưng hô thôi ạ*, e có tí thắc mắc mong ai rành nói cho e biết ạ \ne muốn thi N5 và đc biết thi N5 tổ chức định kì 2 lần mỗi năm ở Nhân Văn nhưng hôm nay e nghe 1 a trong lớp nói thi N5 ở các trung tâm tư cũng đc,thời gian cũng đa dạng hơn và vẫn có văn bằng đàng hoàng, việc này có đúng ko vậy mọi người?\ne cảm ơn","created_time":"2013-11-26T12:34:14+0000","updated_time":"2013-11-26T14:40:01+0000","likes":{"data":{"100004253979918":{"id":"100004253979918","name":"Louis Hoàng Văn Thái"},"825333483":{"id":"825333483","name":"Dac Nguyen"},"100002746730180":{"id":"100002746730180","name":"Thùy Minh"},"100002419566054":{"id":"100002419566054","name":"Khánh Toàn"}},"paging":{"cursors":{"after":"MTAwMDA0MjUzOTc5OTE4","before":"MTAwMDA0MjUzOTc5OTE4"},"next":"https://graph.facebook.com/229244010425617_766753076674705/likes?limit=1&summary=1&after=MTAwMDA0MjUzOTc5OTE4"},"summary":{"total_count":4}},"comments":{"data":{"766763706673642":{"id":"766763706673642","from":{"id":"100004802197403","name":"Công Tử Hào Hoa"},"message":"bằng của mấy trung tâm mà mấy anh bảo em đấy ko dùng được đâu...","can_remove":false,"created_time":"2013-11-26T12:55:07+0000","like_count":0,"user_likes":false},"766794433337236":{"id":"766794433337236","from":{"id":"100003716043591","name":"Mi Mèo"},"message":"dạ cảm ơn mọi ng :) Mạnh Mómmém dạ e có nghe về top J nhưng e ko biết rõ nó trình độ như nào, tại e học ko giỏi lắm ạ","message_tags":[{"id":"100002971492867","name":"Mạnh Mómmém","type":"user","offset":20,"length":11}],"can_remove":false,"created_time":"2013-11-26T14:11:10+0000","like_count":0,"user_likes":false},"766795986670414":{"id":"766795986670414","from":{"id":"100003716043591","name":"Mi Mèo"},"message":"dạ e cũng vậy, nghe anh chị nói nên cũng thắc mắc, nếu top J như a nói thì tầm n4 ko ạ","can_remove":false,"created_time":"2013-11-26T14:15:05+0000","like_count":0,"user_likes":false},"766797116670301":{"id":"766797116670301","from":{"id":"100001318098340","name":"Trang Anh"},"message":"top-j di thi toan dua.vao co ng nhac hoac tn kq thoi cau.ak.","can_remove":false,"created_time":"2013-11-26T14:17:35+0000","like_count":0,"user_likes":false},"766798533336826":{"id":"766798533336826","from":{"id":"100003716043591","name":"Mi Mèo"},"message":"Mạnh Mómmém dạ e cảm ơn ạ :3 Trang Anh gì thế, sao dã man vậy, mình chưa nghe thấy bao h luông á >\"<","message_tags":[{"id":"100002971492867","name":"Mạnh Mómmém","type":"user","offset":0,"length":11}],"can_remove":false,"created_time":"2013-11-26T14:21:28+0000","like_count":0,"user_likes":false},"766798696670143":{"id":"766798696670143","from":{"id":"100003716043591","name":"Mi Mèo"},"message":"Mạnh Mómmém dạ e nó cảm ơn anh nhiều :3 *cúi đầu*","message_tags":[{"id":"100002971492867","name":"Mạnh Mómmém","type":"user","offset":0,"length":11}],"can_remove":false,"created_time":"2013-11-26T14:21:58+0000","like_count":1,"user_likes":false},"766798980003448":{"id":"766798980003448","from":{"id":"100001318098340","name":"Trang Anh"},"message":"day la cau.chua biet thoi :)) di thi top-j hai` lam' :)))","can_remove":false,"created_time":"2013-11-26T14:22:15+0000","like_count":0,"user_likes":false},"766799543336725":{"id":"766799543336725","from":{"id":"100003716043591","name":"Mi Mèo"},"message":"vậy nếu vậy đi thi top J chắc dễ qua lắm :3 vợi ứ học nữa =)) *đùa thôi* hồi trước có nghe đồn là có vụ chỉ bài canh lỏng lẻo này nọ mà chưa tin lắm :v hóa ra là nó","can_remove":false,"created_time":"2013-11-26T14:23:44+0000","like_count":0,"user_likes":false},"766800196669993":{"id":"766800196669993","from":{"id":"100001318098340","name":"Trang Anh"},"message":"bg thi`cung~ tuy vao may man thoi cau. ak, dot minh di thi co' chi. ban tren o Nhat ve` chac theo cty nao ay vao lam bai cai nhoang` phat xong r vat bai day cho moi ng chep :)) tn ket qua o cac tt nhan' den' thi` am` am`, rung het ca dui ay :v","can_remove":false,"created_time":"2013-11-26T14:25:36+0000","like_count":0,"user_likes":false},"766800396669973":{"id":"766800396669973","from":{"id":"100001318098340","name":"Trang Anh"},"message":"bg coi thi cung~ chat lam', may man thi qa, k thi` thi lai.","can_remove":false,"created_time":"2013-11-26T14:26:04+0000","like_count":0,"user_likes":false},"766800413336638":{"id":"766800413336638","from":{"id":"100001318098340","name":"Trang Anh"},"message":"^^","can_remove":false,"created_time":"2013-11-26T14:26:06+0000","like_count":0,"user_likes":false},"766803283336351":{"id":"766803283336351","from":{"id":"100005369944097","name":"Trái Tim Lạnh"},"message":"đâu 2 lần pạn.mỗi tháng có thi nast text ma","can_remove":false,"created_time":"2013-11-26T14:31:48+0000","like_count":0,"user_likes":false},"766803693336310":{"id":"766803693336310","from":{"id":"100001318098340","name":"Trang Anh"},"message":"test :-p","can_remove":false,"created_time":"2013-11-26T14:32:24+0000","like_count":0,"user_likes":false},"766805053336174":{"id":"766805053336174","from":{"id":"100003716043591","name":"Mi Mèo"},"message":"Trái Tim Lạnh ủa, có ở đâu, nghe ai cũng nói chỉ tháng 7 và 12 mà bạn >\"<","message_tags":[{"id":"100005369944097","name":"Trái Tim Lạnh","type":"user","offset":0,"length":13}],"can_remove":false,"created_time":"2013-11-26T14:32:48+0000","like_count":0,"user_likes":false},"766807716669241":{"id":"766807716669241","from":{"id":"100005369944097","name":"Trái Tim Lạnh"},"message":"mình nghe thầy cô nói nèk.hình như cách thág ak.","can_remove":false,"created_time":"2013-11-26T14:36:25+0000","like_count":0,"user_likes":false},"766808473335832":{"id":"766808473335832","from":{"id":"100001318098340","name":"Trang Anh"},"message":"cu' len google go lich thi ra la se co thoi gian, dia diem chinh xac thoi ma","can_remove":false,"created_time":"2013-11-26T14:37:24+0000","like_count":0,"user_likes":false},"766808513335828":{"id":"766808513335828","from":{"id":"100003716043591","name":"Mi Mèo"},"message":"vậy hẻn, càm ơn bạn nhiều ^^ mình sẽ hỏi thầy cô chi tiết, tại sợ rớt ^^~","can_remove":false,"created_time":"2013-11-26T14:37:30+0000","like_count":0,"user_likes":false},"766809610002385":{"id":"766809610002385","from":{"id":"100005369944097","name":"Trái Tim Lạnh"},"message":"trời.cô mk nói học bài 25 có thể lấy n4 uj","can_remove":false,"created_time":"2013-11-26T14:39:17+0000","like_count":0,"user_likes":false},"766809920002354":{"id":"766809920002354","from":{"id":"100003716043591","name":"Mi Mèo"},"message":"ai biết mô chữ ngờ :3 tại t7 mình đi nên mình sợ rớt lắm :)","can_remove":false,"created_time":"2013-11-26T14:40:01+0000","like_count":0,"user_likes":false}},"paging":{"cursors":{"after":"NzY2NzYzNzA2NjczNjQy","before":"NzY2NzYzNzA2NjczNjQy"},"next":"https://graph.facebook.com/229244010425617_766753076674705/comments?limit=1&summary=1&after=NzY2NzYzNzA2NjczNjQy"},"summary":{"order":"chronological","total_count":27}}}