{"id":"229244010425617_766809550002391","type":"link","picture":"https://fbexternal-a.akamaihd.net/safe_image.php?d=AQA1QKOZSCMHdjSu&w=154&h=154&url=http%3A%2F%2Fvanhoanhat.com%2Fwp-content%2Fuploads%2Fbai-viet-du-thi-ms-16-takarazuka-nhung-ban-nhac-kich-mang-day-sac-mau-272x125.jpg","link":"http://vanhoanhat.com/","from":{"id":"825333483","name":"Dac Nguyen"},"message":"Mình cần tìm các site hay hay viết về Nhật để hiểu thêm về đất nước và con người Nhật Bản. Ngoài site www.vanhoanhat.com ra thì còn site nào nữa ko cả nhà?","created_time":"2013-11-26T14:39:10+0000","updated_time":"2013-11-26T14:57:28+0000","likes":{"data":{"1783190483":{"id":"1783190483","name":"Trần Xuân Hiệp"}},"paging":{"cursors":{"after":"MTc4MzE5MDQ4Mw==","before":"MTc4MzE5MDQ4Mw=="}},"summary":{"total_count":1}},"comments":{"data":{"766809793335700":{"id":"766809793335700","from":{"id":"825333483","name":"Dac Nguyen"},"message":"Trần Xuân Hiệp","message_tags":[{"id":"1783190483","name":"Trần Xuân Hiệp","type":"user","offset":0,"length":14}],"can_remove":false,"created_time":"2013-11-26T14:39:40+0000","like_count":0,"user_likes":false},"766810803335599":{"id":"766810803335599","from":{"id":"100001416272263","name":"Mai PB"},"message":"Tiếng Nhật tiếng Anh thì có được không?","can_remove":false,"created_time":"2013-11-26T14:41:15+0000","like_count":1,"user_likes":false},"766811646668848":{"id":"766811646668848","from":{"id":"825333483","name":"Dac Nguyen"},"message":"Site về Nhật Bản bằng tiếng Việt thì tốt nhất, còn ko thì tiếng Anh cũng OK vậy :D","can_remove":false,"created_time":"2013-11-26T14:42:49+0000","like_count":0,"user_likes":false},"766812563335423":{"id":"766812563335423","from":{"id":"100001416272263","name":"Mai PB"},"message":"https://www.facebook.com/groups/CongdongVietNhat","can_remove":false,"created_time":"2013-11-26T14:44:58+0000","like_count":4,"user_likes":false},"766815836668429":{"id":"766815836668429","from":{"id":"825333483","name":"Dac Nguyen"},"message":"Ặc, link tới chính group này à? :D","can_remove":false,"created_time":"2013-11-26T14:51:25+0000","like_count":0,"user_likes":false},"766816776668335":{"id":"766816776668335","from":{"id":"100001416272263","name":"Mai PB"},"message":"Vì group này có cái này: https://www.facebook.com/notes/c%E1%BB%99ng-%C4%91%E1%BB%93ng-vi%E1%BB%87t-nh%E1%BA%ADt-vietnam-japan-community-/quan-tr%E1%BB%8Dng-h%C6%B0%E1%BB%9Bng-d%E1%BA%ABn-s%E1%BB%AD-d%E1%BB%A5ng-group-%C4%91%E1%BB%8Dc-k%C4%A9-h%C6%B0%E1%BB%9Bng-d%E1%BA%ABn-s%E1%BB%AD-d%E1%BB%A5ng-tr%C6%B0%E1%BB%9Bc-khi-d%C3%B9ng/704106249606055","can_remove":false,"created_time":"2013-11-26T14:53:20+0000","like_count":2,"user_likes":false},"766818326668180":{"id":"766818326668180","from":{"id":"1783190483","name":"Trần Xuân Hiệp"},"message":"Nếu nói về website thì theo mình biết hiện tại chỉ có http://vanhoanhat.com/ là site duy nhất và chính thống viết về Văn hóa Nhật thôi bạn Dac Nguyen ạ :)","message_tags":[{"id":"825333483","name":"Dac Nguyen","type":"user","offset":139,"length":10}],"can_remove":false,"created_time":"2013-11-26T14:57:28+0000","like_count":1,"user_likes":false}},"paging":{"cursors":{"after":"NzY2ODA5NzkzMzM1NzAw","before":"NzY2ODA5NzkzMzM1NzAw"},"next":"https://graph.facebook.com/229244010425617_766809550002391/comments?limit=1&summary=1&after=NzY2ODA5NzkzMzM1NzAw"},"summary":{"order":"chronological","total_count":7}}}