{"id":"229244010425617_767087466641266","type":"photo","object_id":"497217027058461","picture":"https://fbcdn-photos-c-a.akamaihd.net/hphotos-ak-prn2/t1.0-0/1425744_497217027058461_1130967722_s.jpg","link":"https://www.facebook.com/photo.php?fbid=497217027058461&set=gm.767087466641266&type=1&relevant_count=1","from":{"id":"100003105034037","name":"Pham Oanh"},"message":"A chi nào có thơi gian thi đến tham gia nhé!","created_time":"2013-11-27T02:20:11+0000","updated_time":"2013-11-27T07:01:13+0000","likes":{"data":{"100002871405403":{"id":"100002871405403","name":"Thach Sanh"},"100004253979918":{"id":"100004253979918","name":"Louis Hoàng Văn Thái"},"100001723862714":{"id":"100001723862714","name":"Bo Bien Vang"},"1283298041":{"id":"1283298041","name":"Búa Đức Thanh"},"100000710451335":{"id":"100000710451335","name":"Thiều Hoa"},"100006925753108":{"id":"100006925753108","name":"Nin Gia"},"100000388100257":{"id":"100000388100257","name":"Yuu Eguwota"},"100001458099624":{"id":"100001458099624","name":"Kham Pha"},"100003667085290":{"id":"100003667085290","name":"Xanh Xanh"},"100002059771738":{"id":"100002059771738","name":"Yen Hai"},"100001416272263":{"id":"100001416272263","name":"Mai PB"},"100003763768548":{"id":"100003763768548","name":"Nguyễn Dũng"},"100005801442456":{"id":"100005801442456","name":"An Nguyen"},"100000359762118":{"id":"100000359762118","name":"Mi Tra"}},"paging":{"cursors":{"after":"MTAwMDAyODcxNDA1NDAz","before":"MTAwMDAyODcxNDA1NDAz"},"next":"https://graph.facebook.com/229244010425617_767087466641266/likes?limit=1&summary=1&after=MTAwMDAyODcxNDA1NDAz"},"summary":{"total_count":15}},"comments":{"data":{"767090523307627":{"id":"767090523307627","from":{"id":"100003105034037","name":"Pham Oanh"},"message":"Không cmt bậy bạ!","can_remove":false,"created_time":"2013-11-27T02:32:15+0000","like_count":0,"user_likes":false},"767091783307501":{"id":"767091783307501","from":{"id":"100003105034037","name":"Pham Oanh"},"message":"Không chơi nửa nhật nửa việt","can_remove":false,"created_time":"2013-11-27T02:36:42+0000","like_count":0,"user_likes":false},"767125246637488":{"id":"767125246637488","from":{"id":"100002589963683","name":"Hà Văn Tuấn"},"message":"Ở đâu anh ơi","can_remove":false,"created_time":"2013-11-27T02:58:01+0000","like_count":0,"user_likes":false},"767127253303954":{"id":"767127253303954","from":{"id":"100003105034037","name":"Pham Oanh"},"message":"Bạn nhin lại ảnh đi","can_remove":false,"created_time":"2013-11-27T03:04:14+0000","like_count":1,"user_likes":false},"767143503302329":{"id":"767143503302329","from":{"id":"100001416272263","name":"Mai PB"},"message":"Ca sĩ vẫn các gương mặt cũ.","can_remove":false,"created_time":"2013-11-27T03:54:49+0000","like_count":0,"user_likes":false},"767186383298041":{"id":"767186383298041","from":{"id":"100003105034037","name":"Pham Oanh"},"message":"Vậy ạ a  Mai PB!","can_remove":false,"created_time":"2013-11-27T06:34:18+0000","like_count":0,"user_likes":false},"767186573298022":{"id":"767186573298022","from":{"id":"100003105034037","name":"Pham Oanh"},"message":"Năm ngoái a có đi xem k ạ! Khoang đến mấy h thi kết thúc ạ","can_remove":false,"created_time":"2013-11-27T06:34:58+0000","like_count":0,"user_likes":false},"767189959964350":{"id":"767189959964350","from":{"id":"100002589963683","name":"Hà Văn Tuấn"},"message":"E ko biet nhieu tieng Nhat :3","can_remove":false,"created_time":"2013-11-27T06:48:38+0000","like_count":0,"user_likes":false},"767190113297668":{"id":"767190113297668","from":{"id":"1813611352","name":"To Đùng"},"message":"Hà Văn Tuấn sử dụng Tiếng Việt có dấu nhá ^_^","message_tags":[{"id":"100002589963683","name":"Hà Văn Tuấn","type":"user","offset":0,"length":11}],"can_remove":false,"created_time":"2013-11-27T06:49:18+0000","like_count":0,"user_likes":false},"767190589964287":{"id":"767190589964287","from":{"id":"100002589963683","name":"Hà Văn Tuấn"},"message":"Sao minh ko thay nhi, :3 minh xem tren dt nen phan cuoi buc anh bi che mot it :3","can_remove":false,"created_time":"2013-11-27T06:51:39+0000","like_count":0,"user_likes":false},"767192376630775":{"id":"767192376630775","from":{"id":"1813611352","name":"To Đùng"},"message":"Trien Nguyễn Dinh spam quảng cáo cty của mình à ^_^","message_tags":[{"id":"100001896649377","name":"Trien Nguyễn Dinh","type":"user","offset":0,"length":17}],"can_remove":false,"created_time":"2013-11-27T07:01:13+0000","like_count":0,"user_likes":false}},"paging":{"cursors":{"after":"NzY3MDkwNTIzMzA3NjI3","before":"NzY3MDkwNTIzMzA3NjI3"},"next":"https://graph.facebook.com/229244010425617_767087466641266/comments?limit=1&summary=1&after=NzY3MDkwNTIzMzA3NjI3"},"summary":{"order":"chronological","total_count":11}}}