{"id":"229244010425617_767048576645155","type":"photo","object_id":"679030115455080","picture":"https://fbcdn-photos-d-a.akamaihd.net/hphotos-ak-ash4/t1.0-0/1473070_679030115455080_390433169_s.jpg","link":"https://www.facebook.com/photo.php?fbid=679030115455080&set=pcb.767048576645155&type=1&relevant_count=2","from":{"id":"100000442929887","name":"Mike Yi"},"message":"Ăn sáng đọc báo lướt FB thấy anh chị cô bác nói nhiều đến du học Nhật bản và tu nghiệp sinh , sokai việc làm....thật buồn.Chúc mọi người ăn sáng đi làm vui vẻ.........","created_time":"2013-11-27T00:28:01+0000","updated_time":"2013-11-27T09:25:38+0000","likes":{"data":{"100003655265575":{"id":"100003655265575","name":"Hường Hà"},"100004763737953":{"id":"100004763737953","name":"Fuong Ank Nguyen"},"569263718":{"id":"569263718","name":"Phuong Thao Tran"},"1717530880":{"id":"1717530880","name":"Triệu Việt Cường"},"1252017053":{"id":"1252017053","name":"Minh Pham"},"100004253979918":{"id":"100004253979918","name":"Louis Hoàng Văn Thái"},"1813611352":{"id":"1813611352","name":"To Đùng"},"100001872458112":{"id":"100001872458112","name":"Alita Nguyen"},"100001187487097":{"id":"100001187487097","name":"Thang Hoang"},"100003932581391":{"id":"100003932581391","name":"Son Goku"},"100003188540285":{"id":"100003188540285","name":"Đầu Gấu Xấu Trai"},"100002409167805":{"id":"100002409167805","name":"Phôn Linh"},"100002421205294":{"id":"100002421205294","name":"Nghèo Kệ Tôi"},"100000368213854":{"id":"100000368213854","name":"Người Lạ Từng Yêu"},"100002554951306":{"id":"100002554951306","name":"Ha Thu"},"100003667085290":{"id":"100003667085290","name":"Xanh Xanh"},"1821970083":{"id":"1821970083","name":"Nguyễn Mạnh Cường"},"100000027754899":{"id":"100000027754899","name":"Hoang Van Ba"},"100000359762118":{"id":"100000359762118","name":"Mi Tra"},"100001789328064":{"id":"100001789328064","name":"Bùi Đức Trung"}},"paging":{"cursors":{"after":"MTAwMDAzNjU1MjY1NTc1","before":"MTAwMDAzNjU1MjY1NTc1"},"next":"https://graph.facebook.com/229244010425617_767048576645155/likes?limit=1&summary=1&after=MTAwMDAzNjU1MjY1NTc1"},"summary":{"total_count":20}},"comments":{"data":{"767049829978363":{"id":"767049829978363","from":{"id":"100001416272263","name":"Mai PB"},"message":"Ăn toàn washoku nhỉ. :-)","can_remove":false,"created_time":"2013-11-27T00:31:32+0000","like_count":0,"user_likes":false},"767050419978304":{"id":"767050419978304","from":{"id":"100000442929887","name":"Mike Yi"},"message":"Ăn theo kiểu Nhật làm theo kiểu VN..............kakakaka","can_remove":false,"created_time":"2013-11-27T00:32:31+0000","like_count":0,"user_likes":false},"767052466644766":{"id":"767052466644766","from":{"id":"100001416272263","name":"Mai PB"},"message":"Dame","can_remove":false,"created_time":"2013-11-27T00:38:36+0000","like_count":0,"user_likes":false},"767077809975565":{"id":"767077809975565","from":{"id":"100003103773473","name":"Rod Nick"},"message":"Khoe à","can_remove":false,"created_time":"2013-11-27T01:53:24+0000","like_count":0,"user_likes":false},"767089253307754":{"id":"767089253307754","from":{"id":"1813611352","name":"To Đùng"},"message":"ơ. có ~100k bữa này thôi á :D nhìn ngon thế :D","can_remove":false,"created_time":"2013-11-27T02:26:01+0000","like_count":0,"user_likes":false},"767120649971281":{"id":"767120649971281","from":{"id":"1252017053","name":"Minh Pham"},"message":"Chúc Anh vẻ vui ^^","can_remove":false,"created_time":"2013-11-27T02:42:36+0000","like_count":0,"user_likes":false},"767131186636894":{"id":"767131186636894","from":{"id":"100000991663833","name":"Mạnh Tạ"},"message":"Khoe thô thế :)","can_remove":false,"created_time":"2013-11-27T03:18:27+0000","like_count":0,"user_likes":false},"767168696633143":{"id":"767168696633143","from":{"id":"100000221648144","name":"Nguyen Hung"},"message":"Dai ca moi vo dc keo lon ma gio an uong vay tham gi kaka.","can_remove":false,"created_time":"2013-11-27T05:22:55+0000","like_count":0,"user_likes":false},"767196023297077":{"id":"767196023297077","from":{"id":"100005801442456","name":"An Nguyen"},"message":"Viết có dấu nhé Nguyen Hung!","can_remove":false,"created_time":"2013-11-27T07:16:07+0000","like_count":0,"user_likes":false},"767224346627578":{"id":"767224346627578","from":{"id":"100003788890238","name":"Dien Tran"},"message":"やすい","can_remove":false,"created_time":"2013-11-27T08:48:55+0000","like_count":0,"user_likes":false},"767241599959186":{"id":"767241599959186","from":{"id":"100001416272263","name":"Mai PB"},"message":"Fuong Ank Nguyen comment có nhầm chỗ không?","message_tags":[{"id":"100004763737953","name":"Fuong Ank Nguyen","type":"user","offset":0,"length":16}],"can_remove":false,"created_time":"2013-11-27T09:25:38+0000","like_count":1,"user_likes":false}},"paging":{"cursors":{"after":"NzY3MDQ5ODI5OTc4MzYz","before":"NzY3MDQ5ODI5OTc4MzYz"},"next":"https://graph.facebook.com/229244010425617_767048576645155/comments?limit=1&summary=1&after=NzY3MDQ5ODI5OTc4MzYz"},"summary":{"order":"chronological","total_count":11}}}