{"id":"229244010425617_767257873290892","type":"status","from":{"id":"569263718","name":"Phuong Thao Tran"},"message":"Có ai trong group ghét mình ko hè, sao xóa bài của mình mà ko cảnh báo gì hết nè...!!!\n\nXóa mà không cảnh báo, không chỉ trích thì lần sau không biết mà tránh đâu á....","created_time":"2013-11-27T10:10:40+0000","updated_time":"2013-11-28T03:06:38+0000","likes":{"data":{"100005739757809":{"id":"100005739757809","name":"Mina Le"},"100004253979918":{"id":"100004253979918","name":"Louis Hoàng Văn Thái"},"100002833803367":{"id":"100002833803367","name":"Hoang Anh Luong"}},"paging":{"cursors":{"after":"MTAwMDA1NzM5NzU3ODA5","before":"MTAwMDA1NzM5NzU3ODA5"},"next":"https://graph.facebook.com/229244010425617_767257873290892/likes?limit=1&summary=1&after=MTAwMDA1NzM5NzU3ODA5"},"summary":{"total_count":5}},"comments":{"data":{"767260136623999":{"id":"767260136623999","from":{"id":"100001416272263","name":"Mai PB"},"message":"Bài gì vậy?","can_remove":false,"created_time":"2013-11-27T10:18:38+0000","like_count":0,"user_likes":false},"767260146623998":{"id":"767260146623998","from":{"id":"100000359762118","name":"Mi Tra"},"message":"Chị ơi! Lại bị xóa bài gì vậy chị? Đã thống nhất giữa các ad là xóa bài phải inbox rồi. Nếu ko có inbox thì hơi lạ","can_remove":false,"created_time":"2013-11-27T10:18:41+0000","like_count":0,"user_likes":false},"767261469957199":{"id":"767261469957199","from":{"id":"100000381394367","name":"Thành Nguyễn"},"message":"Hiện giờ có 1 số member xấu sau khi bị admin ban nick phát sinh tâm lý tiêu cực muốn trả đũa và đang tìm cách phá hoại group bằng cách tạo nick mới join vào group rồi sử dụng chức năng báo cáo sai phạm của facebook để \"tố\" thành viên đó, facebook sẽ tạm thời ẩn bài đó đi, nên rất có khả năng bài của bạn nằm trong những bài như vậy, các Admin đang tìm cách khắc phục. Nếu bạn nào gặp trường hợp này thì hãy thông cảm, và giúp chúng tôi phát hiện những người có ác ý.","can_remove":false,"created_time":"2013-11-27T10:21:59+0000","like_count":7,"user_likes":false},"767299036620109":{"id":"767299036620109","from":{"id":"100006913894636","name":"Kim Thuy"},"message":"Nho cac ban dich dum minh cau nay voi.いま、なにをしますか。neu sai sua lai cho minh voi nha.arigatoo","can_remove":false,"created_time":"2013-11-27T12:08:57+0000","like_count":0,"user_likes":false},"767299499953396":{"id":"767299499953396","from":{"id":"100000359762118","name":"Mi Tra"},"message":"Bạn Kim Thuy viết tiếng việt có dấu đi nhé! \n\nBạn đang làm gì vậy? いま、なにを していますか。","can_remove":false,"created_time":"2013-11-27T12:10:41+0000","like_count":0,"user_likes":false},"767320946617918":{"id":"767320946617918","from":{"id":"100006913894636","name":"Kim Thuy"},"message":"Ok.cam on ban Mi Tra nhe","can_remove":false,"created_time":"2013-11-27T13:06:51+0000","like_count":0,"user_likes":false},"767331403283539":{"id":"767331403283539","from":{"id":"100001416272263","name":"Mai PB"},"message":"Nhắc thêm, lần sau không comment ngoài lề của post khác nhé.","can_remove":false,"created_time":"2013-11-27T13:25:21+0000","like_count":3,"user_likes":false},"767673203249359":{"id":"767673203249359","from":{"id":"569263718","name":"Phuong Thao Tran"},"message":"có bạn nào vô tình hay cố ý xóa bài \"Người đi xuyên qua ma\" không ???","can_remove":false,"created_time":"2013-11-28T02:48:14+0000","like_count":0,"user_likes":false},"767673849915961":{"id":"767673849915961","from":{"id":"100000359762118","name":"Mi Tra"},"message":"Bài đó e có like (dù hơi sợ) ^^","can_remove":false,"created_time":"2013-11-28T02:50:10+0000","like_count":0,"user_likes":false},"767674479915898":{"id":"767674479915898","from":{"id":"569263718","name":"Phuong Thao Tran"},"message":"bài đó vừa dọa mấy bạn như em Mi Tra, vừa luyện nghe đó, 一石二鳥 , vậy mà... :(","message_tags":[{"id":"100000359762118","name":"Mi Tra","type":"user","offset":30,"length":6}],"can_remove":false,"created_time":"2013-11-28T02:52:09+0000","like_count":1,"user_likes":false},"767675669915779":{"id":"767675669915779","from":{"id":"100001416272263","name":"Mai PB"},"message":"Không có thông báo bị xóa à? Thế lại là trò báo cáo với FB chăng?","can_remove":false,"created_time":"2013-11-28T02:57:02+0000","like_count":0,"user_likes":false},"767675853249094":{"id":"767675853249094","from":{"id":"100000359762118","name":"Mi Tra"},"message":"Hị. Thành thật xin lỗi chị :(","can_remove":false,"created_time":"2013-11-28T02:57:58+0000","like_count":0,"user_likes":false},"767676233249056":{"id":"767676233249056","from":{"id":"569263718","name":"Phuong Thao Tran"},"message":"không có bất kì inform hay warning nào cả ạ...","can_remove":false,"created_time":"2013-11-28T02:59:30+0000","like_count":0,"user_likes":false},"767678813248798":{"id":"767678813248798","from":{"id":"100001416272263","name":"Mai PB"},"message":"Chẳng ad nào xóa cả. 君のポストは基本的に大丈夫","can_remove":false,"created_time":"2013-11-28T03:06:38+0000","like_count":0,"user_likes":false}},"paging":{"cursors":{"after":"NzY3MjYwMTM2NjIzOTk5","before":"NzY3MjYwMTM2NjIzOTk5"},"next":"https://graph.facebook.com/229244010425617_767257873290892/comments?limit=1&summary=1&after=NzY3MjYwMTM2NjIzOTk5"},"summary":{"order":"chronological","total_count":14}}}