{"id":"229244010425617_767326816617331","type":"link","link":"http://www.nisshinkyo.org/","from":{"id":"100001848885057","name":"Tiểu Mỡ Nhi"},"message":"Ngoài ra về các trường Nhật ngữ thì dưới đây là trang wed của \"Hiệp hội Chấn hưng Giáo dục Nhật ngữ\" \n\"Hiệp hội Chấn hưng Giáo dục Nhật ngữ tiến hành đánh giá và công nhận các trường dạy tiếng Nhật. Nếu bạn dự định học tiếng Nhật tại một trường Nhật ngữ nào đó để chuẩn bị thi vào đại học, cao học, thì bạn phải kiểm tra xem trường đó có đạt được một số tiêu chuẩn nhất định mà Hiệp hội Chấn hưng Giáo dục Nhật ngữ đặt ra không. Nếu bạn vào học tại các trường Nhật ngữ được Hiệp hội Chấn hưng Nhật ngữ công nhận, visa của bạn sẽ là visa “du học” hoặc “đi học”.Danh sách các trường Nhật ngữ đã được Hiệp hội Chấn hưng Giáo dục Nhật ngữ công nhận, có thể tham khảo ở trang web dưới\"\n                     Sưu tầm:  Tổng lãnh sự quán Nhật Bản tại TPHCM\n\nNgoài ra nếu bạn ko hiểu hết tiếng Nhật có thể nhấtn vào chữ ENGLISH ở góc phải của wed. Sau đó nhấn vào phần \"Finding with Zone/Local Area\" sau đó wed sẽ đưa ra các vùng của Nhật Bản. Mọi người nhấn vào vùng/tỉnh/thành phố mà mọi người muốn đi thì   wed sẽ đưa ra các trường Nhật ngữ uy tín được Hiệp hội Chấn hưng Giáo dục Nhật ngữ công nhận ( có khoảng 370 trường tất cả) bạn nhấn vào tên các trường Nhật ngữ để xem các thông tin của trường trong các năm gần đây. Chúc mọi người tìm được những trường Nhật ngữ uy tín, chất lượng.","created_time":"2013-11-27T13:22:12+0000","updated_time":"2013-11-27T14:37:38+0000","likes":{"data":{"100001458099624":{"id":"100001458099624","name":"Kham Pha"},"100002419566054":{"id":"100002419566054","name":"Khánh Toàn"},"100000398514180":{"id":"100000398514180","name":"Linh Thu"},"1283298041":{"id":"1283298041","name":"Búa Đức Thanh"},"100004398330290":{"id":"100004398330290","name":"Lam Linh"},"100001416272263":{"id":"100001416272263","name":"Mai PB"}},"paging":{"cursors":{"after":"MTAwMDAxNDU4MDk5NjI0","before":"MTAwMDAxNDU4MDk5NjI0"},"next":"https://graph.facebook.com/229244010425617_767326816617331/likes?limit=1&summary=1&after=MTAwMDAxNDU4MDk5NjI0"},"summary":{"total_count":7}},"comments":{"data":{"767338423282837":{"id":"767338423282837","from":{"id":"100001416272263","name":"Mai PB"},"message":"Trang thông tin đây phải không, Tiểu Mỡ Nhi? http://www.hcmcgj.vn.emb-japan.go.jp/vn/duhoc/q18.htm","message_tags":[{"id":"100001848885057","name":"Tiểu Mỡ Nhi","type":"user","offset":32,"length":11}],"can_remove":false,"created_time":"2013-11-27T13:39:32+0000","like_count":1,"user_likes":false},"767344036615609":{"id":"767344036615609","from":{"id":"100001848885057","name":"Tiểu Mỡ Nhi"},"message":"Dạ vâng đúng rồi đó ạ :)","can_remove":false,"created_time":"2013-11-27T13:49:08+0000","like_count":0,"user_likes":false},"767351439948202":{"id":"767351439948202","from":{"id":"100001416272263","name":"Mai PB"},"message":"Có nhiều thông tin bổ ích ở đó nhỉ.","can_remove":false,"created_time":"2013-11-27T14:04:01+0000","like_count":1,"user_likes":false},"767352213281458":{"id":"767352213281458","from":{"id":"100001848885057","name":"Tiểu Mỡ Nhi"},"message":"Hì hôm nay các anh chị admin nói về các trường Nhật ngữ em mới nhớ ra cái này. Nên đăng lên giúp mọi người. Là của TLSQ nên em nghĩ là uy tín ạ","can_remove":false,"created_time":"2013-11-27T14:05:08+0000","like_count":2,"user_likes":false},"767363096613703":{"id":"767363096613703","from":{"id":"1146680551","name":"優しい なぁ"},"message":"Nhưng thấy thông tin cũ mèm à.","can_remove":false,"created_time":"2013-11-27T14:25:30+0000","like_count":0,"user_likes":false},"767368099946536":{"id":"767368099946536","from":{"id":"100001848885057","name":"Tiểu Mỡ Nhi"},"message":"Thông tin về các trường thì em toàn thấy 2010-2011 en cũng ko biết vì sao :(","can_remove":false,"created_time":"2013-11-27T14:36:03+0000","like_count":0,"user_likes":false},"767368799946466":{"id":"767368799946466","from":{"id":"1146680551","name":"優しい なぁ"},"message":"Thì hết ngân sách nên k làm.","can_remove":false,"created_time":"2013-11-27T14:37:38+0000","like_count":0,"user_likes":false}},"paging":{"cursors":{"after":"NzY3MzM4NDIzMjgyODM3","before":"NzY3MzM4NDIzMjgyODM3"},"next":"https://graph.facebook.com/229244010425617_767326816617331/comments?limit=1&summary=1&after=NzY3MzM4NDIzMjgyODM3"},"summary":{"order":"chronological","total_count":7}}}