{"id":"229244010425617_767370133279666","type":"status","from":{"id":"1693102459","name":"Châu Hoàng"},"message":"この辺の小学生は、＿＿＿＿かわいいですね。\n１．子供らしくて\n２．子供のようで\n３．子供のままで\nMọi người chọn giúp em câu này với :)","created_time":"2013-11-27T14:40:02+0000","updated_time":"2013-11-27T17:49:48+0000","likes":{"data":{"100002725612269":{"id":"100002725612269","name":"Thanh Hải Trần"},"100003837141956":{"id":"100003837141956","name":"Mai Hoàng"}},"paging":{"cursors":{"after":"MTAwMDAyNzI1NjEyMjY5","before":"MTAwMDAyNzI1NjEyMjY5"},"next":"https://graph.facebook.com/229244010425617_767370133279666/likes?limit=1&summary=1&after=MTAwMDAyNzI1NjEyMjY5"},"summary":{"total_count":2}},"comments":{"data":{"767373866612626":{"id":"767373866612626","from":{"id":"100003763768548","name":"Nguyễn Dũng"},"message":"1 番は正しいと思う。","can_remove":false,"created_time":"2013-11-27T14:48:09+0000","like_count":1,"user_likes":false},"767373969945949":{"id":"767373969945949","from":{"id":"100001717012614","name":"Trần Phước Hùng"},"message":"1","can_remove":false,"created_time":"2013-11-27T14:48:22+0000","like_count":0,"user_likes":false},"767375026612510":{"id":"767375026612510","from":{"id":"100001717012614","name":"Trần Phước Hùng"},"message":"2 đúng hơn","can_remove":false,"created_time":"2013-11-27T14:50:44+0000","like_count":0,"user_likes":false},"767375693279110":{"id":"767375693279110","from":{"id":"1693102459","name":"Châu Hoàng"},"message":"Trần Phước Hùng: câu 2 phải là youni mới đúng chứ anh, ở sau là Tính từ mà","message_tags":[{"id":"100001717012614","name":"Trần Phước Hùng","type":"user","offset":0,"length":15}],"can_remove":false,"created_time":"2013-11-27T14:51:38+0000","like_count":0,"user_likes":false},"767375943279085":{"id":"767375943279085","from":{"id":"100001717012614","name":"Trần Phước Hùng"},"message":"Ờ\n～ようです。 (có vẻ như - cảm thấy)\n～らしいです。 (có vẻ như - có căn cứ như nghe ai nói)","can_remove":false,"created_time":"2013-11-27T14:52:23+0000","like_count":0,"user_likes":false},"767376163279063":{"id":"767376163279063","from":{"id":"1693102459","name":"Châu Hoàng"},"message":"Trần Phước Hùng: e tính chọn câu 3, mà không biết đúng không :D","message_tags":[{"id":"100001717012614","name":"Trần Phước Hùng","type":"user","offset":0,"length":15}],"can_remove":false,"created_time":"2013-11-27T14:53:00+0000","like_count":0,"user_likes":false},"767376296612383":{"id":"767376296612383","from":{"id":"100001621450837","name":"Hiếu"},"message":"1 theo phương pháp loại trừ :)","can_remove":false,"created_time":"2013-11-27T14:53:19+0000","like_count":0,"user_likes":false},"767376809945665":{"id":"767376809945665","from":{"id":"100001326003401","name":"Zenryl Caramen"},"message":"1 dung\" do\" , cau này làm roi. ::D","can_remove":false,"created_time":"2013-11-27T14:55:03+0000","like_count":2,"user_likes":false},"767376916612321":{"id":"767376916612321","from":{"id":"100001717012614","name":"Trần Phước Hùng"},"message":"Câu 3 sai :p","can_remove":false,"created_time":"2013-11-27T14:55:20+0000","like_count":0,"user_likes":false},"767377483278931":{"id":"767377483278931","from":{"id":"100001717012614","name":"Trần Phước Hùng"},"message":"http://www.saromalang.com/2011/08/cac-cach-noi-hay-dung-trong-tieng-nhat.html?m=1","can_remove":false,"created_time":"2013-11-27T14:56:47+0000","like_count":2,"user_likes":false},"767378343278845":{"id":"767378343278845","from":{"id":"100006581073344","name":"Tsuki No Koi"},"message":"1","can_remove":false,"created_time":"2013-11-27T14:58:44+0000","like_count":0,"user_likes":false},"767454193271260":{"id":"767454193271260","from":{"id":"100001058098161","name":"DoTa Allstar"},"message":"câu này chọn câu 1 mà. sao phải hỏi lại @@","can_remove":false,"created_time":"2013-11-27T17:49:48+0000","like_count":0,"user_likes":false}},"paging":{"cursors":{"after":"NzY3MzczODY2NjEyNjI2","before":"NzY3MzczODY2NjEyNjI2"},"next":"https://graph.facebook.com/229244010425617_767370133279666/comments?limit=1&summary=1&after=NzY3MzczODY2NjEyNjI2"},"summary":{"order":"chronological","total_count":12}}}