{"id":"229244010425617_767411293275550","type":"status","from":{"id":"100003805874479","name":"My Thik Tao"},"message":"chào mọi người mình k biết phải nói thế nào mình muốn tham gia nhóm này là vì mình có e gái mình mới đi du học bên nhật bản nhưng hiện tại e gái mjnh vẫn chưa tìm được việc làm e gái mình đang ở fukuoka và đang muốn vào cty yamoto làm nhưng e gái mình chưa giỏi được tiếng nhật có a c e nào làm ở đó mong sự júp đỡ \n08046944600 day la sdt cua e gai mjnh \nminh mong duoc su giup do cua cac ban rat nhiu","created_time":"2013-11-27T16:13:20+0000","updated_time":"2013-11-28T05:29:20+0000","likes":{"data":{"100007093838925":{"id":"100007093838925","name":"Phát Chong Xáng"},"100005675104683":{"id":"100005675104683","name":"Nguyễn Hoa"},"100005674452639":{"id":"100005674452639","name":"Nguyễn Cẩm Phương"},"100005472901866":{"id":"100005472901866","name":"Thanh Tâm"},"100006572713690":{"id":"100006572713690","name":"Đại Chim Lợn"}},"paging":{"cursors":{"after":"MTAwMDA3MDkzODM4OTI1","before":"MTAwMDA3MDkzODM4OTI1"},"next":"https://graph.facebook.com/229244010425617_767411293275550/likes?limit=1&summary=1&after=MTAwMDA3MDkzODM4OTI1"},"summary":{"total_count":5}},"comments":{"data":{"767414183275261":{"id":"767414183275261","from":{"id":"100006572713690","name":"Đại Chim Lợn"},"message":"E giúp xong e làm em rẻ anh nha!","can_remove":false,"created_time":"2013-11-27T16:19:56+0000","like_count":0,"user_likes":false},"767417346608278":{"id":"767417346608278","from":{"id":"100003805874479","name":"My Thik Tao"},"message":"o saitama tokyo thi a jup dk k","can_remove":false,"created_time":"2013-11-27T16:28:29+0000","like_count":2,"user_likes":false},"767419429941403":{"id":"767419429941403","from":{"id":"1146680551","name":"優しい なぁ"},"message":"https://www.facebook.com/notes/c%E1%BB%99ng-%C4%91%E1%BB%93ng-vi%E1%BB%87t-nh%E1%BA%ADt-vietnam-japan-community-/ch%E1%BB%A7-%C4%91%E1%BB%81-arubaito-c%C3%B4ng-vi%E1%BB%87c-l%C3%A0m-th%C3%AAm/745063928843620\nKêu em gái bạn đọc cái này đi. Khi tự mình làm được,sẽ quý trọng công việc ,cũng như thay đổi 1 chút về sn đó bạn à.","can_remove":false,"created_time":"2013-11-27T16:33:12+0000","like_count":1,"user_likes":false},"767420043274675":{"id":"767420043274675","from":{"id":"100006572713690","name":"Đại Chim Lợn"},"message":"Có anh ak! Con gái là em giúp! Ctrai phải suy ngĩ! Hì","can_remove":false,"created_time":"2013-11-27T16:34:44+0000","like_count":0,"user_likes":false},"767420479941298":{"id":"767420479941298","from":{"id":"100003805874479","name":"My Thik Tao"},"message":"hiiii","can_remove":false,"created_time":"2013-11-27T16:35:11+0000","like_count":0,"user_likes":false},"767420556607957":{"id":"767420556607957","from":{"id":"1146680551","name":"優しい なぁ"},"message":"Bạn Đại Chim Lợn nên comment nghiêm túc đi","message_tags":[{"id":"100006572713690","name":"Đại Chim Lợn","type":"user","offset":4,"length":12}],"can_remove":false,"created_time":"2013-11-27T16:35:23+0000","like_count":1,"user_likes":false},"767420593274620":{"id":"767420593274620","from":{"id":"100003805874479","name":"My Thik Tao"},"message":"thi ai chang vay ma","can_remove":false,"created_time":"2013-11-27T16:35:27+0000","like_count":0,"user_likes":false},"767421653274514":{"id":"767421653274514","from":{"id":"100006572713690","name":"Đại Chim Lợn"},"message":"Sao ko nghiêm túc! Nói thật còn gì! Cgai tôi giúp nhiệt tình! Việc thì thiếu gì! Ctrai thì tôi phải xem xét! Ko phải ai tôi cũng giúp! Ko cận thận oan ra! Lm sao mà ko nghiêm túc! Nói thử xem!","can_remove":false,"created_time":"2013-11-27T16:37:20+0000","like_count":0,"user_likes":false},"767421936607819":{"id":"767421936607819","from":{"id":"100003805874479","name":"My Thik Tao"},"message":"moi ng jup mjnh minh cam on nhiu ma","can_remove":false,"created_time":"2013-11-27T16:38:11+0000","like_count":0,"user_likes":false},"767422136607799":{"id":"767422136607799","from":{"id":"1146680551","name":"優しい なぁ"},"message":"My Thik Tao comment có dấu đi bạn. Đại Chim Lợn à thì ra bạn có ác cảm với con trai à :v đã mang tiếng giúp còn phân biệt nữa à","message_tags":[{"id":"100003805874479","name":"My Thik Tao","type":"user","offset":0,"length":11},{"id":"100006572713690","name":"Đại Chim Lợn","type":"user","offset":35,"length":12}],"can_remove":false,"created_time":"2013-11-27T16:38:57+0000","like_count":1,"user_likes":false},"767423096607703":{"id":"767423096607703","from":{"id":"100006572713690","name":"Đại Chim Lợn"},"message":"Xl bạn! Tôi chăng ác cảm gì! Bọn ctrai làm ko làm ăn vs chơi! Đá đồ đá vé! Xin cho chúng nó vào làm nó vác cty đi bán! Tôi đi tù ak? Bạn thì biết hết dc ko!? Cuộc sống bạn nghĩ màu hồng và ai cũng tốt ak? Tôi nói là tôi có suy nghĩ của tôi! Bạn có thể hiểu dc ko?","can_remove":false,"created_time":"2013-11-27T16:41:31+0000","like_count":2,"user_likes":false},"767425043274175":{"id":"767425043274175","from":{"id":"100003805874479","name":"My Thik Tao"},"message":"e gái mình mới sang tiếng nhật k được tốt cho lắm liệu có xin đk việc k mọi người","can_remove":false,"created_time":"2013-11-27T16:44:30+0000","like_count":0,"user_likes":false},"767426043274075":{"id":"767426043274075","from":{"id":"100006572713690","name":"Đại Chim Lợn"},"message":"Người nhật họ lầm lì! Khó tính trong công việc nhưng họ rất hài hước và trọng chư tín! Nếu em bạn chưa tốt tiếng nhưng nếu có ng giới thiệu! 80% sẽ dc!","can_remove":false,"created_time":"2013-11-27T16:46:17+0000","like_count":0,"user_likes":false},"767426173274062":{"id":"767426173274062","from":{"id":"1146680551","name":"優しい なぁ"},"message":"Thì bạn nên nói rõ như vậy có tốt hơn không.Bạn nói k rõ sẽ làm người đọc nghĩ qua hướng khác.","can_remove":false,"created_time":"2013-11-27T16:46:38+0000","like_count":3,"user_likes":false},"767426189940727":{"id":"767426189940727","from":{"id":"100005446931997","name":"Sakurasou San"},"message":"Chim lợn có khác..ngốc như sò..^_^ giúp mà sợ mang vạ vào thân thỳ đừng nói","can_remove":false,"created_time":"2013-11-27T16:46:42+0000","like_count":1,"user_likes":false},"767430586606954":{"id":"767430586606954","from":{"id":"100005446931997","name":"Sakurasou San"},"message":"Tiếng Nhât chưa tốt thỳ it nói cũng đc^_^tối kỵ làm ẩu và tinh quái..cẩn thận ăn nói..kẻo bị vùi dập hội đồng","can_remove":false,"created_time":"2013-11-27T16:57:24+0000","like_count":1,"user_likes":false},"767431406606872":{"id":"767431406606872","from":{"id":"100003805874479","name":"My Thik Tao"},"message":"k e gái e thì chịu khó  e biết a ak k ngang bướng thích làm việc mà a e sẽ dạy bảo e gái e thêm","can_remove":false,"created_time":"2013-11-27T16:59:23+0000","like_count":0,"user_likes":false},"767433039940042":{"id":"767433039940042","from":{"id":"100006572713690","name":"Đại Chim Lợn"},"message":"Ngừoi khôn ăn nói nửa chừng ! Để cho kẻ dại vừa mừng vừa lo! \nThằng đân thì đứng ăn hôi! \nĐã ngu còn lại tỏ ra hơn người!","can_remove":false,"created_time":"2013-11-27T17:03:31+0000","like_count":2,"user_likes":false},"767433956606617":{"id":"767433956606617","from":{"id":"100005446931997","name":"Sakurasou San"},"message":"Ừa..nói chung đừng động chạm tới mấy người cấp cao ..tham khảo mấy cái tính cách của Nguơi  nhat..để dễ hành xử","can_remove":false,"created_time":"2013-11-27T17:06:15+0000","like_count":0,"user_likes":false},"767434946606518":{"id":"767434946606518","from":{"id":"1146680551","name":"優しい なぁ"},"message":"Thôi đi 2 bạn.Có gì mà phải tranh cãi nhau.Mỗi người một quan điểm mà.Người khác nhìn vào lại cười cho chứ được gì đâu.Ai cũng vậy,dù là ai,hãy sống tốt với chính bản thân là được.","can_remove":false,"created_time":"2013-11-27T17:07:57+0000","like_count":3,"user_likes":false},"767436549939691":{"id":"767436549939691","from":{"id":"100006572713690","name":"Đại Chim Lợn"},"message":"Nói chung bạn chỉ số iQ cao thì đọc lại xem! Nhưng lời tôi nói đi! Đừng đe tôi phải nghĩ bạn là ng ngắn não! Hay nói đungs hơn là nhà nghèo ko có muối iot để ăn!","can_remove":false,"created_time":"2013-11-27T17:11:36+0000","like_count":0,"user_likes":false},"767444419938904":{"id":"767444419938904","from":{"id":"100005801442456","name":"An Nguyen"},"message":"Ai cần cãi thì inbox cho thoải mái, chứ ghi ở đây tôi xoá cũng như không! Người ta cần giúp chứ đâu bắt ghế ngồi xem tuồng ?","can_remove":false,"created_time":"2013-11-27T17:28:08+0000","like_count":3,"user_likes":false},"767446849938661":{"id":"767446849938661","from":{"id":"550401589","name":"Cuong Cao"},"message":"Ngta nhờ giúp, bạn giúp dc thì tốt quá, cứ nêu quan điểm thế làm gì. Ở đâu cũng có những ng bình thường & những ng ko tốt ;)","can_remove":false,"created_time":"2013-11-27T17:33:11+0000","like_count":0,"user_likes":false},"767448026605210":{"id":"767448026605210","from":{"id":"100005446931997","name":"Sakurasou San"},"message":"Thỳ em ghét mấy thứ Vô tâm và NC như thế..","can_remove":false,"created_time":"2013-11-27T17:35:50+0000","like_count":0,"user_likes":false},"767452316604781":{"id":"767452316604781","from":{"id":"100003318461313","name":"Nhung Kool"},"message":"chết mất :)))","can_remove":false,"created_time":"2013-11-27T17:45:38+0000","like_count":0,"user_likes":false},"767612299922116":{"id":"767612299922116","from":{"id":"100006437927747","name":"Tian Vova"},"message":"Giúp người ta thì không giúp mà cứ lên đây giảng đạo","can_remove":false,"created_time":"2013-11-27T23:51:06+0000","like_count":1,"user_likes":false},"767721679911178":{"id":"767721679911178","from":{"id":"100005446931997","name":"Sakurasou San"},"message":"Mồ..theo phe ai thỳ  nói nhé..đừng nói kiểu vơ đũa cả nắm..mà đừng nói mấy câu như vậy.tian","can_remove":false,"created_time":"2013-11-28T05:29:20+0000","like_count":0,"user_likes":false}},"paging":{"cursors":{"after":"NzY3NDE0MTgzMjc1MjYx","before":"NzY3NDE0MTgzMjc1MjYx"},"next":"https://graph.facebook.com/229244010425617_767411293275550/comments?limit=1&summary=1&after=NzY3NDE0MTgzMjc1MjYx"},"summary":{"order":"chronological","total_count":27}}}