{"id":"229244010425617_767697013246978","type":"status","from":{"id":"100002568133487","name":"Ty Ti"},"message":"「この　じしょを　どうぞ。」「どうも　ありがとう。＿＿＿　つかいます。」\n １．たいせつ ２．たいせつな ３．たいせつに ４．たいせつだ\nmọi ng giải thích cho mình vi sao chọn câu 3 vậy ạ ! Vì mình tự học là chủ yếu nên tệ lắm","created_time":"2013-11-28T04:12:29+0000","updated_time":"2013-11-28T07:39:31+0000","likes":{"data":{"100003820151744":{"id":"100003820151744","name":"Thu Cá Tính"},"100004251847599":{"id":"100004251847599","name":"Yuki Yuki"},"100005337850702":{"id":"100005337850702","name":"Xứ Tuyết"},"100004303569394":{"id":"100004303569394","name":"Le Trungtin"},"100007093838925":{"id":"100007093838925","name":"Phát Chong Xáng"},"100006779677725":{"id":"100006779677725","name":"Cong Tran"},"100006838896104":{"id":"100006838896104","name":"Đặng Văn Quyết"}},"paging":{"cursors":{"after":"MTAwMDAzODIwMTUxNzQ0","before":"MTAwMDAzODIwMTUxNzQ0"},"next":"https://graph.facebook.com/229244010425617_767697013246978/likes?limit=1&summary=1&after=MTAwMDAzODIwMTUxNzQ0"},"summary":{"total_count":7}},"comments":{"data":{"767698606580152":{"id":"767698606580152","from":{"id":"100005703791922","name":"Hoa Tiên Tử"},"message":"Vì 大切(たいせつ) là Tính từ đuôi な、đứng trước động từ như: つかいます thì phải thêm に. Còn nếu là Tính từ đuôi い thì bỏ い thêm く.\nĐáp án 3 là đúng.","can_remove":false,"created_time":"2013-11-28T04:17:19+0000","like_count":3,"user_likes":false},"767698729913473":{"id":"767698729913473","from":{"id":"100004760974173","name":"Anh Tuấn"},"message":"3","can_remove":false,"created_time":"2013-11-28T04:17:42+0000","like_count":0,"user_likes":false},"767698939913452":{"id":"767698939913452","from":{"id":"100002568133487","name":"Ty Ti"},"message":"cái này chia giống như cấu trúc trở nên,,,,, j đó hả bạn","can_remove":false,"created_time":"2013-11-28T04:18:14+0000","like_count":0,"user_likes":false},"767699149913431":{"id":"767699149913431","from":{"id":"100004760974173","name":"Anh Tuấn"},"message":"như bạn hoa tiên tử nói. khi chuyển về Ana+ni/Ai bỏ i thêm ku nó sẽ mang chức năng là 1 phó từ chỉ mức độ","can_remove":false,"created_time":"2013-11-28T04:18:56+0000","like_count":0,"user_likes":false},"767699246580088":{"id":"767699246580088","from":{"id":"100000309978634","name":"Tan Vu"},"message":"大切に có nghĩa là sử dụng 1 cách cẩn thận. Ở câu này thì nên hiểu là người A cho ng B sử dụng quyển từ điển, ng B cảm ơn và nói thêm là sẽ trân trọng/ sử dụng nó cẩn thận. Tsukaimasu là động từ,taisetsuni là adv,bổ nghĩa cho động từ.","can_remove":false,"created_time":"2013-11-28T04:19:07+0000","like_count":1,"user_likes":false},"767700123246667":{"id":"767700123246667","from":{"id":"100002568133487","name":"Ty Ti"},"message":"ah, có nghĩa là Ai chuyển qua phó từ là A bỏ i thêm ku, còn Ana thì sẽ bỏ  na thêm ni.... . đúng không mọi ng","can_remove":false,"created_time":"2013-11-28T04:21:31+0000","like_count":0,"user_likes":false},"767701629913183":{"id":"767701629913183","from":{"id":"100002958044330","name":"Duke Togo"},"message":"Sao ko phải là 2","can_remove":false,"created_time":"2013-11-28T04:25:37+0000","like_count":0,"user_likes":false},"767702049913141":{"id":"767702049913141","from":{"id":"100003820151744","name":"Thu Cá Tính"},"message":"mình đồng ý với cách giải thích của bạn Hoa Tiên Tử","message_tags":[{"id":"100005703791922","name":"Hoa Tiên Tử","type":"user","offset":40,"length":11}],"can_remove":false,"created_time":"2013-11-28T04:26:41+0000","like_count":0,"user_likes":false},"767709049912441":{"id":"767709049912441","from":{"id":"100005934548279","name":"Cậu Bé Buồn"},"message":"đán 3 đúng ùi đi với đt là ní đi vs dt là na","can_remove":false,"created_time":"2013-11-28T04:45:50+0000","like_count":0,"user_likes":false},"767715536578459":{"id":"767715536578459","from":{"id":"100002874387018","name":"SơnTùng Vũ"},"message":"Không thể là 2 được vì TT + ĐT thì phải chuyển đổi đuôi な thành に. Còn giữ nguyên đuôi な thì chỉ đi với danh từ thôi.","can_remove":false,"created_time":"2013-11-28T05:05:47+0000","like_count":0,"user_likes":false},"767716169911729":{"id":"767716169911729","from":{"id":"100002568133487","name":"Ty Ti"},"message":"thế tóm lại là TT+ĐT thì TT đổi đuổi Na thành Ni và I thành Ku phải không bạn SơnTùng Vũ","message_tags":[{"id":"100002874387018","name":"SơnTùng Vũ","type":"user","offset":78,"length":10}],"can_remove":false,"created_time":"2013-11-28T05:07:29+0000","like_count":0,"user_likes":false},"767725109910835":{"id":"767725109910835","from":{"id":"100005802612629","name":"Hana Nguyen"},"message":"Ana bỏ na thêm ni và Ai bỏ i thêm ku +đt","can_remove":false,"created_time":"2013-11-28T05:42:32+0000","like_count":0,"user_likes":false},"767725456577467":{"id":"767725456577467","from":{"id":"100002874387018","name":"SơnTùng Vũ"},"message":"正しいです。","can_remove":false,"created_time":"2013-11-28T05:43:28+0000","like_count":0,"user_likes":false},"767729989910347":{"id":"767729989910347","from":{"id":"100002612714358","name":"Close To You"},"message":"fải jải thik như vài mới choánh xoác nè mấy zu à adj thì bổ nghĩa cho n còn adv thì bổ nghĩa cho v cho nên 大切 khi chuyển thành adv thì thêm に zô rõ chửa!!!","can_remove":false,"created_time":"2013-11-28T06:00:43+0000","like_count":1,"user_likes":false},"767761969907149":{"id":"767761969907149","from":{"id":"100003718429681","name":"Kawaii Tuti"},"message":"大切に使います","can_remove":false,"created_time":"2013-11-28T07:39:31+0000","like_count":0,"user_likes":false}},"paging":{"cursors":{"after":"NzY3Njk4NjA2NTgwMTUy","before":"NzY3Njk4NjA2NTgwMTUy"},"next":"https://graph.facebook.com/229244010425617_767697013246978/comments?limit=1&summary=1&after=NzY3Njk4NjA2NTgwMTUy"},"summary":{"order":"chronological","total_count":18}}}