{"id":"229244010425617_767796843236995","type":"status","from":{"id":"100001415407078","name":"Kha Pham"},"message":"皆さん今晩は。\n最近皆さんもお元気ですか。最近は仕事が多いんですか\nそれで日本語をあまり勉強しないです。週末日本語の試験があるけど\nあまり復習しないですから。試験に落ちやすいです。\n今三日が有る。困ったな。皆さんどんな復習ですか。","created_time":"2013-11-28T09:17:28+0000","updated_time":"2013-11-28T11:11:12+0000","likes":{"data":{"100004253979918":{"id":"100004253979918","name":"Louis Hoàng Văn Thái"},"100005887419564":{"id":"100005887419564","name":"Cười Một Mình"},"100003055356509":{"id":"100003055356509","name":"Thuan Nguyen"},"100003049639881":{"id":"100003049639881","name":"Truong Luvuxy"},"100005934548279":{"id":"100005934548279","name":"Cậu Bé Buồn"},"100002816124387":{"id":"100002816124387","name":"Ngọc Nguyễn"},"100003881499881":{"id":"100003881499881","name":"Pe Pon"},"100001880901011":{"id":"100001880901011","name":"Số Không"},"100001526631937":{"id":"100001526631937","name":"Tường Oanh Mineko"},"100005478454231":{"id":"100005478454231","name":"Maruko Chan"},"100002898154513":{"id":"100002898154513","name":"Gã Shrek"}},"paging":{"cursors":{"after":"MTAwMDA0MjUzOTc5OTE4","before":"MTAwMDA0MjUzOTc5OTE4"},"next":"https://graph.facebook.com/229244010425617_767796843236995/likes?limit=1&summary=1&after=MTAwMDA0MjUzOTc5OTE4"},"summary":{"total_count":11}},"comments":{"data":{"767797786570234":{"id":"767797786570234","from":{"id":"100002898154513","name":"Gã Shrek"},"message":"落ちやすいです。　自分で勉強しているけどよくわからない。","can_remove":false,"created_time":"2013-11-28T09:19:58+0000","like_count":1,"user_likes":false},"767798423236837":{"id":"767798423236837","from":{"id":"100001526631937","name":"Tường Oanh Mineko"},"message":"私も。がんばれ！","can_remove":false,"created_time":"2013-11-28T09:22:05+0000","like_count":1,"user_likes":false},"767798823236797":{"id":"767798823236797","from":{"id":"100001415407078","name":"Kha Pham"},"message":"落ちやすい＝dễ trượt. Cấu trúc Vmasu (Bỏ masu ) + yasui thành dễ ..","can_remove":false,"created_time":"2013-11-28T09:23:53+0000","like_count":0,"user_likes":false},"767798929903453":{"id":"767798929903453","from":{"id":"100004760974173","name":"Anh Tuấn"},"message":"N3ですか。どこで受けるの？","can_remove":false,"created_time":"2013-11-28T09:24:20+0000","like_count":0,"user_likes":false},"767799053236774":{"id":"767799053236774","from":{"id":"100001415407078","name":"Kha Pham"},"message":"いいえ。私はN4がありたいんです","can_remove":false,"created_time":"2013-11-28T09:24:51+0000","like_count":0,"user_likes":false},"767799096570103":{"id":"767799096570103","from":{"id":"100001415407078","name":"Kha Pham"},"message":"Anh Tuấnさんも復習するか？","can_remove":false,"created_time":"2013-11-28T09:25:01+0000","like_count":0,"user_likes":false},"767799513236728":{"id":"767799513236728","from":{"id":"100002898154513","name":"Gã Shrek"},"message":"Kha Pham うそ　(°д°)","message_tags":[{"id":"100001415407078","name":"Kha Pham","type":"user","offset":0,"length":8}],"can_remove":false,"created_time":"2013-11-28T09:25:56+0000","like_count":1,"user_likes":false},"767799713236708":{"id":"767799713236708","from":{"id":"100001526631937","name":"Tường Oanh Mineko"},"message":"合格しにくい。---> khó đậu.Cấu trúc tương tự dễ + ~","can_remove":false,"created_time":"2013-11-28T09:26:48+0000","like_count":1,"user_likes":false},"767799963236683":{"id":"767799963236683","from":{"id":"100004760974173","name":"Anh Tuấn"},"message":"そう。今練習してる。","can_remove":false,"created_time":"2013-11-28T09:27:45+0000","like_count":1,"user_likes":false},"767800013236678":{"id":"767800013236678","from":{"id":"100002898154513","name":"Gã Shrek"},"message":"ごうかくしにくいじゃなくて合格にくいでしょ。","can_remove":false,"created_time":"2013-11-28T09:27:52+0000","like_count":0,"user_likes":false},"767800016570011":{"id":"767800016570011","from":{"id":"100001415407078","name":"Kha Pham"},"message":"合格しにくい＝落ちやすい。","can_remove":false,"created_time":"2013-11-28T09:27:55+0000","like_count":1,"user_likes":false},"767800256569987":{"id":"767800256569987","from":{"id":"100001526631937","name":"Tường Oanh Mineko"},"message":"Vmasu bỏ masu mà","can_remove":false,"created_time":"2013-11-28T09:28:40+0000","like_count":0,"user_likes":false},"767800303236649":{"id":"767800303236649","from":{"id":"100004760974173","name":"Anh Tuấn"},"message":"どっちもいいと思うね","can_remove":false,"created_time":"2013-11-28T09:28:48+0000","like_count":0,"user_likes":false},"767800316569981":{"id":"767800316569981","from":{"id":"569263718","name":"Phuong Thao Tran"},"message":"なぜ、「。」ドットを使いすぎるのですか？ Kha Pham　君","message_tags":[{"id":"100001415407078","name":"Kha Pham","type":"user","offset":21,"length":8}],"can_remove":false,"created_time":"2013-11-28T09:28:49+0000","like_count":0,"user_likes":false},"767801223236557":{"id":"767801223236557","from":{"id":"100005934548279","name":"Cậu Bé Buồn"},"message":"大変らしいですね。皆さん頑張れ。","can_remove":false,"created_time":"2013-11-28T09:31:20+0000","like_count":0,"user_likes":false},"767801943236485":{"id":"767801943236485","from":{"id":"100001415407078","name":"Kha Pham"},"message":"Phuong Thao Tran さん。これは私の慣例です。段々私は矯正する","can_remove":false,"created_time":"2013-11-28T09:34:05+0000","like_count":0,"user_likes":false},"767802666569746":{"id":"767802666569746","from":{"id":"100003205024849","name":"Thanh Do Nguyen"},"message":"三日のみなので皆さん頑張って～","can_remove":false,"created_time":"2013-11-28T09:36:34+0000","like_count":1,"user_likes":false},"767803369903009":{"id":"767803369903009","from":{"id":"100001415407078","name":"Kha Pham"},"message":"学生の時は勉強しない。今働きながら外国語を勉強します。ちょっと寂しいです。","can_remove":false,"created_time":"2013-11-28T09:39:26+0000","like_count":0,"user_likes":false},"767804093236270":{"id":"767804093236270","from":{"id":"100001526631937","name":"Tường Oanh Mineko"},"message":"大丈夫よ。Kha Pham さん","can_remove":false,"created_time":"2013-11-28T09:41:38+0000","like_count":1,"user_likes":false},"767804466569566":{"id":"767804466569566","from":{"id":"100001415407078","name":"Kha Pham"},"message":"Tường Oanh Minekoさん。有難う。でもちょっと心配です。","message_tags":[{"id":"100001526631937","name":"Tường Oanh Mineko","type":"user","offset":0,"length":17}],"can_remove":false,"created_time":"2013-11-28T09:43:07+0000","like_count":0,"user_likes":false},"767804833236196":{"id":"767804833236196","from":{"id":"100001526631937","name":"Tường Oanh Mineko"},"message":"誰でも心配しているでしょ。だから、安心して、あくまでも頑張ってね","can_remove":false,"created_time":"2013-11-28T09:44:31+0000","like_count":1,"user_likes":false},"767805066569506":{"id":"767805066569506","from":{"id":"100004760974173","name":"Anh Tuấn"},"message":"悪魔？","can_remove":false,"created_time":"2013-11-28T09:45:15+0000","like_count":0,"user_likes":false},"767805529902793":{"id":"767805529902793","from":{"id":"100001526631937","name":"Tường Oanh Mineko"},"message":"わからへん。 Anh Tuấnさん。","message_tags":[{"id":"100004760974173","name":"Anh Tuấn","type":"user","offset":7,"length":8}],"can_remove":false,"created_time":"2013-11-28T09:46:47+0000","like_count":0,"user_likes":false},"767806113236068":{"id":"767806113236068","from":{"id":"100003205024849","name":"Thanh Do Nguyen"},"message":"Kha Pham君、働きながら外国語を勉強する事はちょっと大変だね、ただ、合理的な時間を分けば大丈夫だと思うよ～頑張ってね。","message_tags":[{"id":"100001415407078","name":"Kha Pham","type":"user","offset":0,"length":8}],"can_remove":false,"created_time":"2013-11-28T09:49:07+0000","like_count":2,"user_likes":false},"767807176569295":{"id":"767807176569295","from":{"id":"100001415407078","name":"Kha Pham"},"message":"Thanh Do Nguyenさん。有賀と。今私はとても問題がある。家族と仕事と勉強など。でも私も皆さんも頑張る、生活は夢と大変が有るけど。だから面白い生活です。","can_remove":false,"created_time":"2013-11-28T09:53:14+0000","like_count":1,"user_likes":false},"767808536569159":{"id":"767808536569159","from":{"id":"100004760974173","name":"Anh Tuấn"},"message":"あくまの漢字でしょ？","can_remove":false,"created_time":"2013-11-28T09:58:00+0000","like_count":1,"user_likes":false},"767809133235766":{"id":"767809133235766","from":{"id":"100001415407078","name":"Kha Pham"},"message":"私は　あく　まで　も　頑張ると思いますTường Oanh Minekoさん？","message_tags":[{"id":"100001526631937","name":"Tường Oanh Mineko","type":"user","offset":19,"length":17}],"can_remove":false,"created_time":"2013-11-28T10:00:19+0000","like_count":0,"user_likes":false},"767809233235756":{"id":"767809233235756","from":{"id":"100004760974173","name":"Anh Tuấn"},"message":"Tường Oanh Minekoの言葉、大阪弁でしょ。おかしいな。今大阪に住んでいるでしょうね","message_tags":[{"id":"100001526631937","name":"Tường Oanh Mineko","type":"user","offset":0,"length":17}],"can_remove":false,"created_time":"2013-11-28T10:00:42+0000","like_count":0,"user_likes":false},"767811799902166":{"id":"767811799902166","from":{"id":"100003205024849","name":"Thanh Do Nguyen"},"message":"「あくまでも」とは2級の文法だよ～この文法の意味は途中をあきらめない。そして、なるべく、出来るだけという言葉と同じだよ～。","can_remove":false,"created_time":"2013-11-28T10:10:11+0000","like_count":1,"user_likes":false},"767811943235485":{"id":"767811943235485","from":{"id":"100004760974173","name":"Anh Tuấn"},"message":"あ、ちょっと Tường Oanh Minekoちゃんの言ったことを勘違いしちゃったな。悪魔じゃなくて、飽く迄だね","can_remove":false,"created_time":"2013-11-28T10:10:47+0000","like_count":0,"user_likes":false},"767812479902098":{"id":"767812479902098","from":{"id":"100004760974173","name":"Anh Tuấn"},"message":"なるほど。ありがとう！","can_remove":false,"created_time":"2013-11-28T10:12:42+0000","like_count":0,"user_likes":false},"767819049901441":{"id":"767819049901441","from":{"id":"100001526631937","name":"Tường Oanh Mineko"},"message":"hiện tại,oanh ở Đà Nẵng nhé mọi người.","can_remove":false,"created_time":"2013-11-28T10:33:15+0000","like_count":0,"user_likes":false},"767820233234656":{"id":"767820233234656","from":{"id":"569263718","name":"Phuong Thao Tran"},"message":"oh, con gái Đà nẵng vừa ngẳng vừa lì, hì hì hì, (đùa thôi, ^^)","can_remove":false,"created_time":"2013-11-28T10:36:33+0000","like_count":2,"user_likes":false},"767820246567988":{"id":"767820246567988","from":{"id":"100005011088753","name":"Tĩnh Trịnh"},"message":"頑張ってね！","can_remove":false,"created_time":"2013-11-28T10:36:37+0000","like_count":0,"user_likes":false},"767820606567952":{"id":"767820606567952","from":{"id":"100001526631937","name":"Tường Oanh Mineko"},"message":":D, \" ngẳng\" hay \" nghịch\" ? từ ngẳng nghe lạ lạ","can_remove":false,"created_time":"2013-11-28T10:37:31+0000","like_count":0,"user_likes":false},"767820916567921":{"id":"767820916567921","from":{"id":"100001526631937","name":"Tường Oanh Mineko"},"message":"con gái Đà Nẵng ko hẳn đã ngẳng, nhưng giống thời tiết, thích nắng, thích được mắng :p..hehe đùa lại tí","can_remove":false,"created_time":"2013-11-28T10:38:41+0000","like_count":0,"user_likes":false},"767821369901209":{"id":"767821369901209","from":{"id":"100005011088753","name":"Tĩnh Trịnh"},"message":"わからへん！大阪の言葉、 Tường Oanh Mineko？","message_tags":[{"id":"100001526631937","name":"Tường Oanh Mineko","type":"user","offset":13,"length":17}],"can_remove":false,"created_time":"2013-11-28T10:40:03+0000","like_count":0,"user_likes":false},"767821989901147":{"id":"767821989901147","from":{"id":"100001526631937","name":"Tường Oanh Mineko"},"message":"そうです。大阪の言葉が好きですから、使ったよ。","can_remove":false,"created_time":"2013-11-28T10:42:06+0000","like_count":0,"user_likes":false},"767822203234459":{"id":"767822203234459","from":{"id":"569263718","name":"Phuong Thao Tran"},"message":"大阪弁 bạn Tĩnh Trịnh","message_tags":[{"id":"100005011088753","name":"Tĩnh Trịnh","type":"user","offset":8,"length":10}],"can_remove":false,"created_time":"2013-11-28T10:42:33+0000","like_count":1,"user_likes":false},"767823519900994":{"id":"767823519900994","from":{"id":"100005011088753","name":"Tĩnh Trịnh"},"message":"ベトナムで　突然　聞いてびっくりしましたよ。","can_remove":false,"created_time":"2013-11-28T10:46:28+0000","like_count":0,"user_likes":false},"767823953234284":{"id":"767823953234284","from":{"id":"100004760974173","name":"Anh Tuấn"},"message":"それはね！。面白いらしいけど、使いすぎて、ちょっと問題だと思う。笑","can_remove":false,"created_time":"2013-11-28T10:48:01+0000","like_count":0,"user_likes":false},"767824386567574":{"id":"767824386567574","from":{"id":"569263718","name":"Phuong Thao Tran"},"message":"Anh Tuấnさんの文は女っぽいなぁ。。","message_tags":[{"id":"100004760974173","name":"Anh Tuấn","type":"user","offset":0,"length":8}],"can_remove":false,"created_time":"2013-11-28T10:49:19+0000","like_count":1,"user_likes":false},"767824719900874":{"id":"767824719900874","from":{"id":"100001526631937","name":"Tường Oanh Mineko"},"message":"子供っぽいかな。使いすぎることはないよ。","can_remove":false,"created_time":"2013-11-28T10:50:55+0000","like_count":0,"user_likes":false},"767825246567488":{"id":"767825246567488","from":{"id":"100005011088753","name":"Tĩnh Trịnh"},"message":"ちょっと。。。分かると大丈夫です。いろいろ知ったほうがいいですよ。面白くなってる。","can_remove":false,"created_time":"2013-11-28T10:51:32+0000","like_count":0,"user_likes":false},"767825373234142":{"id":"767825373234142","from":{"id":"569263718","name":"Phuong Thao Tran"},"message":"どちらも一緒。。。","can_remove":false,"created_time":"2013-11-28T10:51:58+0000","like_count":0,"user_likes":false},"767825759900770":{"id":"767825759900770","from":{"id":"100004760974173","name":"Anh Tuấn"},"message":"そうね。日本人の女の声、独特の魅力があるので","can_remove":false,"created_time":"2013-11-28T10:53:15+0000","like_count":0,"user_likes":false},"767825846567428":{"id":"767825846567428","from":{"id":"100001526631937","name":"Tường Oanh Mineko"},"message":"へえ～、>;<","can_remove":false,"created_time":"2013-11-28T10:53:31+0000","like_count":0,"user_likes":false},"767826339900712":{"id":"767826339900712","from":{"id":"100004760974173","name":"Anh Tuấn"},"message":"歌うみたいに言うと感じるさ","can_remove":false,"created_time":"2013-11-28T10:55:13+0000","like_count":0,"user_likes":false},"767826479900698":{"id":"767826479900698","from":{"id":"100005011088753","name":"Tĩnh Trịnh"},"message":"もう一つ、わからん。同じです。","can_remove":false,"created_time":"2013-11-28T10:55:41+0000","like_count":0,"user_likes":false},"767828536567159":{"id":"767828536567159","from":{"id":"569263718","name":"Phuong Thao Tran"},"message":"もう一つはわからねん　かなぁ。。。","can_remove":false,"created_time":"2013-11-28T11:02:18+0000","like_count":1,"user_likes":false},"767829429900403":{"id":"767829429900403","from":{"id":"100001526631937","name":"Tường Oanh Mineko"},"message":"わかんない　かなあ。","can_remove":false,"created_time":"2013-11-28T11:05:43+0000","like_count":1,"user_likes":false},"767830999900246":{"id":"767830999900246","from":{"id":"569263718","name":"Phuong Thao Tran"},"message":"大阪弁ではないが、残りは、「分からぬ」「分からず」","can_remove":false,"created_time":"2013-11-28T11:11:12+0000","like_count":3,"user_likes":false}},"paging":{"cursors":{"after":"NzY3Nzk3Nzg2NTcwMjM0","before":"NzY3Nzk3Nzg2NTcwMjM0"},"next":"https://graph.facebook.com/229244010425617_767796843236995/comments?limit=1&summary=1&after=NzY3Nzk3Nzg2NTcwMjM0"},"summary":{"order":"chronological","total_count":52}}}