{"id":"229244010425617_767719226578090","type":"status","from":{"id":"100001416272263","name":"Mai PB"},"message":"Cứ đối xử với dân thế này, kinh tế yếu kém thế này, học cũng không đi đến đâu thế này, thì có nên trách dân đổ xô đi Nhật đi Hàn hay không? Nhiều người ở Nhật từ trước có phần trách những người sang \"du học\" sau này là làm hỏng môi trường học tập và làm việc của dân cư Việt ở Nhật. Tuy nhiên mình suy nghĩ rằng không riêng Nhật Bản mà người dân VN sẽ càng ngày càng hướng ngoại kiếm tiền, gần như mô hình Philippines vậy. Mình biết có những người lương vài nghìn USD/tháng vẫn muốn đi ra nước ngoài, vì nhiều vấn đề môi trường trong nước. Nói thế để thấy, những con người trẻ tuổi mới ra trường hoặc gia đình nghèo khó, để học tập và tru được trong xã hội VN hiện tại là rất vất vả. Mọi người hãy cố gắng giúp đỡ nhau, đừng nói đơn giản: đừng sang Nhật nữa.\n\nMọi người xem bài dưới đây để thông cảm hơn với đồng bào.\nhttp://m.vietnamnet.vn/vn/kinh-te/151070/noi-long-giam-doc-dap-xe-dao-ban-ca-phe.html#","created_time":"2013-11-28T05:19:21+0000","updated_time":"2013-11-29T15:11:46+0000","likes":{"data":{"100001442509723":{"id":"100001442509723","name":"Nguyễn Mai Anh"},"100000211237467":{"id":"100000211237467","name":"Nguyễn Thị Hà"},"100004272425803":{"id":"100004272425803","name":"Le Ynhi"},"100000282680283":{"id":"100000282680283","name":"Cường Văn"},"100005211189763":{"id":"100005211189763","name":"Oliveu Cchann"},"100003275789728":{"id":"100003275789728","name":"Quoc Tran"},"100004450956167":{"id":"100004450956167","name":"Thắng Satoh"},"100006167497302":{"id":"100006167497302","name":"Hoang Anhh"},"100004716640495":{"id":"100004716640495","name":"Thúy An Dương"},"100002662449432":{"id":"100002662449432","name":"Thuc Van Phan"},"726423323":{"id":"726423323","name":"Trần Thư"},"100001872458112":{"id":"100001872458112","name":"Alita Nguyen"},"100002137174815":{"id":"100002137174815","name":"Dong Nguyen"},"100006021877041":{"id":"100006021877041","name":"Bùi Trung Hiếu"},"100004409731083":{"id":"100004409731083","name":"Đô Trong Nghia"},"100006813603200":{"id":"100006813603200","name":"Yến Trần"},"100000292556230":{"id":"100000292556230","name":"Duy Anh Phạm"},"100003875131996":{"id":"100003875131996","name":"Ngoc Anh"},"100001114549932":{"id":"100001114549932","name":"Bui Thanh Hung"},"100001917790709":{"id":"100001917790709","name":"Tran Thang"},"100003210512769":{"id":"100003210512769","name":"Trang Nguyễn"},"100004253979918":{"id":"100004253979918","name":"Louis Hoàng Văn Thái"},"100005387051072":{"id":"100005387051072","name":"Nguyễn Vinh Việt"},"100000264801587":{"id":"100000264801587","name":"Nguyễn Đình Toàn"},"100004923553810":{"id":"100004923553810","name":"Xuan KY Nguyen"},"100001359798024":{"id":"100001359798024","name":"November Gi"},"100002871405403":{"id":"100002871405403","name":"Thach Sanh"},"100005903373573":{"id":"100005903373573","name":"HaLinh Phong Phan"},"100003806594580":{"id":"100003806594580","name":"Daothuy Linh"},"1629517470":{"id":"1629517470","name":"Nguyen Thi Thanh Van"},"100001324611896":{"id":"100001324611896","name":"Meo Luoi"},"100002754998000":{"id":"100002754998000","name":"Nguyen Duc"},"100001526631937":{"id":"100001526631937","name":"Tường Oanh Mineko"},"100002704268615":{"id":"100002704268615","name":"Bột Sữa"},"100005145330760":{"id":"100005145330760","name":"Sơn Vũ"},"100003225980553":{"id":"100003225980553","name":"Quyên Xanh"},"100004362480675":{"id":"100004362480675","name":"Đi Tìm Thất Bại"},"100001690659856":{"id":"100001690659856","name":"Nguyễn Trường Giang"},"100004614461970":{"id":"100004614461970","name":"Sunflower Love"},"1148962646":{"id":"1148962646","name":"Tran Thi Tuong Van"},"100004155757260":{"id":"100004155757260","name":"Tran Trang"},"100006850801926":{"id":"100006850801926","name":"Ngọc Đặng"},"1146680551":{"id":"1146680551","name":"優しい なぁ"},"100000960252631":{"id":"100000960252631","name":"Takumi Tuan"},"569263718":{"id":"569263718","name":"Phuong Thao Tran"},"550401589":{"id":"550401589","name":"Cuong Cao"},"100001887921127":{"id":"100001887921127","name":"Kata Apple"},"1023965040":{"id":"1023965040","name":"Juli KimChi"},"100006387723695":{"id":"100006387723695","name":"Hoa Minh"},"1821970083":{"id":"1821970083","name":"Nguyễn Mạnh Cường"},"100002589963683":{"id":"100002589963683","name":"Hà Văn Tuấn"},"100004360751785":{"id":"100004360751785","name":"Hà Nguyễn"}},"paging":{"cursors":{"after":"MTAwMDAxNDQyNTA5NzIz","before":"MTAwMDAxNDQyNTA5NzIz"},"next":"https://graph.facebook.com/229244010425617_767719226578090/likes?limit=1&summary=1&after=MTAwMDAxNDQyNTA5NzIz"},"summary":{"total_count":53}},"comments":{"data":{"767721476577865":{"id":"767721476577865","from":{"id":"100000381394367","name":"Thành Nguyễn"},"message":"Anh Mai PB phải thêm chú thích bằng tiếng Nhật cho tin này thì mới đúng nội quy đấy nhé. Nhắc cả Admin, admin càng phải gương mẫu chấp hành nội quy.","can_remove":false,"created_time":"2013-11-28T05:28:30+0000","like_count":2,"user_likes":false},"767722713244408":{"id":"767722713244408","from":{"id":"100001416272263","name":"Mai PB"},"message":"Quy định mới này khắt khe quá. Thôi để xóa vậy.","can_remove":false,"created_time":"2013-11-28T05:33:46+0000","like_count":1,"user_likes":false},"767722916577721":{"id":"767722916577721","from":{"id":"100000381394367","name":"Thành Nguyễn"},"message":"Nếu không có quy định này thì các member có thể post bất cứ tin gì cũng được, như thế group ngập tràn tin mất.","can_remove":false,"created_time":"2013-11-28T05:34:47+0000","like_count":0,"user_likes":false},"767722953244384":{"id":"767722953244384","from":{"id":"100001416272263","name":"Mai PB"},"message":"Đã cố gắng liên hệ đến việc dân đổ xô đi Nhật còn gì?","can_remove":false,"created_time":"2013-11-28T05:34:56+0000","like_count":2,"user_likes":false},"767722959911050":{"id":"767722959911050","from":{"id":"100004397111046","name":"Rainy Hạ"},"message":"Không hiểu đang ;àm cái gì nữa!\\","can_remove":false,"created_time":"2013-11-28T05:34:58+0000","like_count":0,"user_likes":false},"767723033244376":{"id":"767723033244376","from":{"id":"1214116060","name":"Trần Xuân Đức"},"message":"ông giám đốc này chưa hiểu hết \"luật\" :v","can_remove":false,"created_time":"2013-11-28T05:35:21+0000","like_count":0,"user_likes":false},"767723039911042":{"id":"767723039911042","from":{"id":"100000381394367","name":"Thành Nguyễn"},"message":"Nếu không có quy định này thì các member có thể post bất cứ tin gì cũng được, như thế group ngập tràn tin mất.","can_remove":false,"created_time":"2013-11-28T05:35:24+0000","like_count":1,"user_likes":false},"767723216577691":{"id":"767723216577691","from":{"id":"100000381394367","name":"Thành Nguyễn"},"message":"Nếu không biết tiếng Nhật thì các member  inbox cho chị Chiếc Chiếc Lá Cuối Cùng nhờ chị ấy dịch hộ rồi post lên ( nếu rất muốn post ):D còn nếu ngại nhờ thì thôi không đăng vậy.","can_remove":false,"created_time":"2013-11-28T05:36:08+0000","like_count":0,"user_likes":false},"767724513244228":{"id":"767724513244228","from":{"id":"100000603915176","name":"悪いな ぁ"},"message":"Ô, sao có nội quy viết song ngữ à?","can_remove":false,"created_time":"2013-11-28T05:39:42+0000","like_count":0,"user_likes":false},"767724649910881":{"id":"767724649910881","from":{"id":"100000381394367","name":"Thành Nguyễn"},"message":"Với các bài không có liên quan gì đến Nhật thôi, còn bài nào có liên quan đến Nhật thì không cần.","can_remove":false,"created_time":"2013-11-28T05:40:27+0000","like_count":0,"user_likes":false},"767724843244195":{"id":"767724843244195","from":{"id":"100000603915176","name":"悪いな ぁ"},"message":"Status này có liên quan gì đến Nhật đâu?","can_remove":false,"created_time":"2013-11-28T05:41:24+0000","like_count":1,"user_likes":false},"767724859910860":{"id":"767724859910860","from":{"id":"100000175468518","name":"Chj Koj"},"message":"nếu nhiều người k bjt tiếng nhật muốn post 1 cái j lên hỏi mà phải nhờ cái chị gì gì đó dịch hộ thì cái c đó cũng mệt lắm đó bạn Thành nguyễn j a","can_remove":false,"created_time":"2013-11-28T05:41:28+0000","like_count":1,"user_likes":false},"767724896577523":{"id":"767724896577523","from":{"id":"100000381394367","name":"Thành Nguyễn"},"message":"Quy định mới là nới rộng quyền post bài cho group chứ đâu phải là khắt khe hơn, vì trước nội quy không cho đăng các bài không có liên quan gì đến chủ đề Nhật-Việt.Giờ được đăng cả các bài thuần túy Việt Nam","can_remove":false,"created_time":"2013-11-28T05:41:49+0000","like_count":0,"user_likes":false},"767725186577494":{"id":"767725186577494","from":{"id":"100000381394367","name":"Thành Nguyễn"},"message":"@悪いな ぁ chính vì không liên quan gì đến Nhật nên mới phải viết tiếng Nhật để cho nó có liên quan mà bác.","can_remove":false,"created_time":"2013-11-28T05:42:38+0000","like_count":0,"user_likes":false},"767725219910824":{"id":"767725219910824","from":{"id":"569263718","name":"Phuong Thao Tran"},"message":"haha, quy chế lỏng lẻo nên, ad cũng có thể lách luật, :D","can_remove":false,"created_time":"2013-11-28T05:42:52+0000","like_count":0,"user_likes":false},"767725279910818":{"id":"767725279910818","from":{"id":"100000603915176","name":"悪いな ぁ"},"message":"Nếu nói vậy những bài đăng về nội quy sao kg có tiếng Nhật cho member người Nhật đọc?","can_remove":false,"created_time":"2013-11-28T05:43:03+0000","like_count":0,"user_likes":false},"767725529910793":{"id":"767725529910793","from":{"id":"569263718","name":"Phuong Thao Tran"},"message":"dù sao cũng vote cho bài viết !!! đúng là dân miền Trung !!! (y)","can_remove":false,"created_time":"2013-11-28T05:43:41+0000","like_count":0,"user_likes":false},"767725629910783":{"id":"767725629910783","from":{"id":"1023965040","name":"Juli KimChi"},"message":"\"Đất lành chim đậu\" mà anh.","can_remove":false,"created_time":"2013-11-28T05:44:05+0000","like_count":0,"user_likes":false},"767726209910725":{"id":"767726209910725","from":{"id":"100000381394367","name":"Thành Nguyễn"},"message":"Nội quy đâu thuộc phần tin đăng, nội quy có trước lúc có các member người Nhật Bản join vào, các bạn Nhật cũng đều đang học tiếng Việt nên cũng biết, số lượng người Nhật cũng chưa nhiều, nếu đông thì có thể sẽ có nhu cầu làm bản nội quy tiếng Nhật, lúc đó làm cũng chưa muộn.","can_remove":false,"created_time":"2013-11-28T05:46:48+0000","like_count":0,"user_likes":false},"767726573244022":{"id":"767726573244022","from":{"id":"100000381394367","name":"Thành Nguyễn"},"message":"Post lên hỏi thì thoải mái chứ có sao đâu nhỉ, group này mà có câu hỏi thì thường là câu hỏi liên quan đến Nhật rồi còn gì, hỏi câu liên không liên quan gì đến Nhật thì đâu có ai hỏi ở đây, không ai bắt các bạn phải hỏi bằng tiếng Nhật cả, mọi người hình như vẫn chưa hiểu nội quy.","can_remove":false,"created_time":"2013-11-28T05:47:29+0000","like_count":0,"user_likes":false},"767727156577297":{"id":"767727156577297","from":{"id":"100000603915176","name":"悪いな ぁ"},"message":"Kg đc, nói vậy là kg công bằng! Member biết tiếng Việt cũng kg giỏi để đọc hết vậy! Đã chấp nhận có member Nhật thì nên dịch đi thôi. Bản thân nội quy cũng cập nhật, thay đổi liên tục. Việc dịch phải làm ngay thôi :)","can_remove":false,"created_time":"2013-11-28T05:49:32+0000","like_count":0,"user_likes":false},"767728406577172":{"id":"767728406577172","from":{"id":"100001416272263","name":"Mai PB"},"message":"Thành Nguyễn update bằng tiếng Việt rồi đấy. :-) Nếu vẫn chưa vừa ý thì mình sẽ xóa bài này.","message_tags":[{"id":"100000381394367","name":"Thành Nguyễn","type":"user","offset":0,"length":12}],"can_remove":false,"created_time":"2013-11-28T05:54:56+0000","like_count":0,"user_likes":false},"767728583243821":{"id":"767728583243821","from":{"id":"100004617871532","name":"Tran Luong Cam Tu"},"message":"Không có ''diesel'' làm trơn động cơ,''máy'' khó ''chạy''lắm mọi người ơi,ráng ráng thì ''chạy'' được chút rồi cũng ''đứng'' máy thôi hà.''.Đã nếm mùi cay đắng rồi nên em biết. :(","can_remove":false,"created_time":"2013-11-28T05:55:56+0000","like_count":0,"user_likes":false},"767728706577142":{"id":"767728706577142","from":{"id":"100004360751785","name":"Hà Nguyễn"},"message":"đúng nội quy rồi mà bác Mai PB :)","message_tags":[{"id":"100001416272263","name":"Mai PB","type":"user","offset":24,"length":6}],"can_remove":false,"created_time":"2013-11-28T05:56:20+0000","like_count":0,"user_likes":false},"767729503243729":{"id":"767729503243729","from":{"id":"569263718","name":"Phuong Thao Tran"},"message":"[Nói thế để thấy, những con người trẻ tuổi mới ra trường hoặc gia đình nghèo khó, để học tập và tru được trong xã hội VN hiện tại là rất vất vả. Mọi người hãy cố gắng giúp đỡ nhau, đừng nói đơn giản: đừng sang Nhật nữa.] <--- (y)","can_remove":false,"created_time":"2013-11-28T05:58:42+0000","like_count":2,"user_likes":false},"767808263235853":{"id":"767808263235853","from":{"id":"100004923553810","name":"Xuan KY Nguyen"},"message":"bài này hay có ý nghĩa lẳm, a Mai PB đủ̀ng xóa","can_remove":false,"created_time":"2013-11-28T09:56:55+0000","like_count":0,"user_likes":false},"768264466523566":{"id":"768264466523566","from":{"id":"100002414995202","name":"Nguyễn Duy Công"},"message":"à vâng, sang Nhật :))\nhttp://vtv.vn/video-clip/131/Bap-benh-cuoc-song-du-hoc-sinh-Viet-Nam-tai-Nhat/video20996.vtv","can_remove":false,"created_time":"2013-11-29T03:39:37+0000","like_count":1,"user_likes":false},"768537103162969":{"id":"768537103162969","from":{"id":"100006244269241","name":"ハン チュン"},"message":"Sang được nhật có phải dễ đâu ?","can_remove":false,"created_time":"2013-11-29T15:11:46+0000","like_count":1,"user_likes":false}},"paging":{"cursors":{"after":"NzY3NzIxNDc2NTc3ODY1","before":"NzY3NzIxNDc2NTc3ODY1"},"next":"https://graph.facebook.com/229244010425617_767719226578090/comments?limit=1&summary=1&after=NzY3NzIxNDc2NTc3ODY1"},"summary":{"order":"chronological","total_count":29}}}