{"id":"229244010425617_767776243239055","type":"video","picture":"https://fbexternal-a.akamaihd.net/safe_image.php?d=AQB2hDtBCReVkIDY&w=130&h=130&url=http%3A%2F%2Fi1.ytimg.com%2Fvi%2FoDDRbmPQKn0%2Fhqdefault.jpg","link":"http://www.youtube.com/watch?v=oDDRbmPQKn0&list=PLAhx2XOq4JzKfT81930rG5y_6ECC_9opB","source":"http://www.youtube.com/v/oDDRbmPQKn0?list=PLAhx2XOq4JzKfT81930rG5y_6ECC_9opB&version=3&autoplay=1","from":{"id":"100001416272263","name":"Mai PB"},"message":"Ai chưa nghe bài này bao giờ, comment xuống dưới để các sempai mắng cho một trận. :-)  Bài này hát karaoke dễ lắm, nếu có sếp Nhật mà hát thì thế nào cũng được điểm cao.\nhttp://www.youtube.com/watch?v=oDDRbmPQKn0","created_time":"2013-11-28T08:25:23+0000","updated_time":"2013-11-30T08:13:40+0000","likes":{"data":{"1305472811":{"id":"1305472811","name":"Tuan Nguyen"},"100001723862714":{"id":"100001723862714","name":"Bo Bien Vang"},"100001754136107":{"id":"100001754136107","name":"Nguyễn Tuấn Vũ"},"100001848392312":{"id":"100001848392312","name":"Thanh Híp"},"100002093975536":{"id":"100002093975536","name":"Thùy Trang Nguyễn"},"100004140850631":{"id":"100004140850631","name":"Huong Trang"},"100001807609603":{"id":"100001807609603","name":"Nguyễn Khánh Huyền"},"100002290434796":{"id":"100002290434796","name":"Canh Pham"},"100000027754899":{"id":"100000027754899","name":"Hoang Van Ba"},"100004460525997":{"id":"100004460525997","name":"Hà Trang Nguyễn"},"100005690740678":{"id":"100005690740678","name":"Bui Thanh Tung"},"100003055356509":{"id":"100003055356509","name":"Thuan Nguyen"},"1416265619":{"id":"1416265619","name":"Starwar Bbj"},"100003957878204":{"id":"100003957878204","name":"Ma Kết"},"100003675925617":{"id":"100003675925617","name":"Lê Hậu"},"1693102459":{"id":"1693102459","name":"Châu Hoàng"},"100004923553810":{"id":"100004923553810","name":"Xuan KY Nguyen"},"100004253979918":{"id":"100004253979918","name":"Louis Hoàng Văn Thái"},"100003459838721":{"id":"100003459838721","name":"Đỗ Chí Trung"},"100004398330290":{"id":"100004398330290","name":"Lam Linh"},"1845000884":{"id":"1845000884","name":"Trieu Thi Kieu Oanh"},"100003090738530":{"id":"100003090738530","name":"Ngô Thị Thanh Hường"},"1821970083":{"id":"1821970083","name":"Nguyễn Mạnh Cường"},"100002098748602":{"id":"100002098748602","name":"Thuần Việt"},"100004614461970":{"id":"100004614461970","name":"Sunflower Love"},"100001526631937":{"id":"100001526631937","name":"Tường Oanh Mineko"},"100005903373573":{"id":"100005903373573","name":"HaLinh Phong Phan"}},"paging":{"cursors":{"after":"MTMwNTQ3MjgxMQ==","before":"MTMwNTQ3MjgxMQ=="},"next":"https://graph.facebook.com/229244010425617_767776243239055/likes?limit=1&summary=1&after=MTMwNTQ3MjgxMQ%3D%3D"},"summary":{"total_count":27}},"comments":{"data":{"767776829905663":{"id":"767776829905663","from":{"id":"100005903373573","name":"HaLinh Phong Phan"},"message":"du ko hieu nhung dang dung am trang qua","can_remove":false,"created_time":"2013-11-28T08:27:21+0000","like_count":0,"user_likes":false},"767777029905643":{"id":"767777029905643","from":{"id":"100001526631937","name":"Tường Oanh Mineko"},"message":"lần đầu tiên e được nghe, sẵn sàng nghe mắng từ senpai rồi :(","can_remove":false,"created_time":"2013-11-28T08:28:10+0000","like_count":4,"user_likes":false},"767778016572211":{"id":"767778016572211","from":{"id":"100000359762118","name":"Mi Tra"},"message":"May quá em nghe rồi. Cơ mà được anh Mai mắng thì em cũng tình nguyện :))","can_remove":false,"created_time":"2013-11-28T08:30:48+0000","like_count":1,"user_likes":false},"767778029905543":{"id":"767778029905543","from":{"id":"1146680551","name":"優しい なぁ"},"message":"Chưa nghe đc.cmt để chiếm chỗ tối về nghe :v","can_remove":false,"created_time":"2013-11-28T08:30:54+0000","like_count":4,"user_likes":false},"767778313238848":{"id":"767778313238848","from":{"id":"100001526631937","name":"Tường Oanh Mineko"},"message":"ai dành chỗ a đâu Anh Nguyễn","message_tags":[{"id":"1146680551","name":"Anh Nguyễn","type":"user","offset":18,"length":10}],"can_remove":false,"created_time":"2013-11-28T08:31:38+0000","like_count":0,"user_likes":false},"767781193238560":{"id":"767781193238560","from":{"id":"100002898154513","name":"Gã Shrek"},"message":"em :v","can_remove":false,"created_time":"2013-11-28T08:39:19+0000","like_count":0,"user_likes":false},"767781279905218":{"id":"767781279905218","from":{"id":"1821970083","name":"Nguyễn Mạnh Cường"},"message":"Em nghe thử, đang ngồi đàn hát, buồn quá, anh ơi nhạc Việt còn có nhiều bài cũng chưa đc nghe, cũng dễ hát, cũng đáng mắng đúng ko ạ :D đâu có chỉ nhạc Nhật :P","can_remove":false,"created_time":"2013-11-28T08:39:33+0000","like_count":3,"user_likes":false},"767783193238360":{"id":"767783193238360","from":{"id":"100000219148071","name":"Anh Còi"},"message":"Tối nay em sẽ nghe lần đầu tiên","can_remove":false,"created_time":"2013-11-28T08:46:06+0000","like_count":0,"user_likes":false},"767795529903793":{"id":"767795529903793","from":{"id":"100001526631937","name":"Tường Oanh Mineko"},"message":"thanks ad Mai PB nhé.Càng về sau các bài hát liên tiếp rất hay và hình như đã có 1 số bài có nhạc tiếng việt.","message_tags":[{"id":"100001416272263","name":"Mai PB","type":"user","offset":10,"length":6}],"can_remove":false,"created_time":"2013-11-28T09:11:54+0000","like_count":1,"user_likes":false},"767798169903529":{"id":"767798169903529","from":{"id":"569263718","name":"Phuong Thao Tran"},"message":"cạnh tranh với bài nì không a Mai PB ơi, http://www.youtube.com/watch?v=N9Hc_rP5oTE","can_remove":false,"created_time":"2013-11-28T09:21:05+0000","like_count":3,"user_likes":false},"767807586569254":{"id":"767807586569254","from":{"id":"100001416272263","name":"Mai PB"},"message":"Bài này mà cũng không biết? Hmm. Hmm. Phạt: mỗi người tìm 1 bản mà ca sĩ nước ngoài hát lại bài hát này, post link lên đây.","can_remove":false,"created_time":"2013-11-28T09:54:50+0000","like_count":0,"user_likes":false},"767807846569228":{"id":"767807846569228","from":{"id":"100001416272263","name":"Mai PB"},"message":"Phuong Thao Tran không cạnh tranh nhé, bài đó đáng lẽ em post riêng thì có phải hay hơn không? :-)","message_tags":[{"id":"569263718","name":"Phuong Thao Tran","type":"user","offset":0,"length":16}],"can_remove":false,"created_time":"2013-11-28T09:55:45+0000","like_count":2,"user_likes":false},"767807863235893":{"id":"767807863235893","from":{"id":"100001526631937","name":"Tường Oanh Mineko"},"message":":(","can_remove":false,"created_time":"2013-11-28T09:55:50+0000","like_count":0,"user_likes":false},"767808416569171":{"id":"767808416569171","from":{"id":"100001416272263","name":"Mai PB"},"message":"Hint cho mấy bạn bị phạt kia: tìm với keyword: \"春国の春\", \"北国之春\", \"mùa xuân bắc quốc\" :-)","can_remove":false,"created_time":"2013-11-28T09:57:26+0000","like_count":0,"user_likes":false},"767809816569031":{"id":"767809816569031","from":{"id":"569263718","name":"Phuong Thao Tran"},"message":"sắp rụng rồi  Chiếc Lá Cuối Cùng ơi, :D","message_tags":[{"id":"100006469315671","name":"Chiếc Lá Cuối Cùng","type":"user","offset":14,"length":18}],"can_remove":false,"created_time":"2013-11-28T10:02:57+0000","like_count":1,"user_likes":false},"767810296568983":{"id":"767810296568983","from":{"id":"100001416272263","name":"Mai PB"},"message":"xóa rồi, sợ ad giận :-)","can_remove":false,"created_time":"2013-11-28T10:04:45+0000","like_count":1,"user_likes":false},"767814806568532":{"id":"767814806568532","from":{"id":"569263718","name":"Phuong Thao Tran"},"message":"ngày xửa ngày xưa, có học 1 bài văn, tựa đề cũng là \"Chiếc lá cuối cùng\", và cũng có 1 bài hát có tựa Chiếc Lá Cuối Cùng\" hình như là của bác Phạm Duy thì phải ! chiếc lá này là chiếc lá nào nè, ^^","message_tags":[{"id":"100006469315671","name":"Chiếc Lá Cuối Cùng","type":"user","offset":102,"length":18}],"can_remove":false,"created_time":"2013-11-28T10:19:56+0000","like_count":1,"user_likes":false},"767815133235166":{"id":"767815133235166","from":{"id":"1821970083","name":"Nguyễn Mạnh Cường"},"message":"http://www.youtube.com/watch?v=QGWxvgwZvWs trả bài anh Mai PB :P","message_tags":[{"id":"100001416272263","name":"Mai PB","type":"user","offset":55,"length":6}],"can_remove":false,"created_time":"2013-11-28T10:20:43+0000","like_count":1,"user_likes":false},"767816783235001":{"id":"767816783235001","from":{"id":"100001416272263","name":"Mai PB"},"message":"Còn nhiều ;-)","can_remove":false,"created_time":"2013-11-28T10:26:26+0000","like_count":0,"user_likes":false},"767817733234906":{"id":"767817733234906","from":{"id":"100001526631937","name":"Tường Oanh Mineko"},"message":"e nộp phạt đây http://www.youtube.com/watch?v=K5EYVduXQvM","can_remove":false,"created_time":"2013-11-28T10:29:30+0000","like_count":1,"user_likes":false},"767819156568097":{"id":"767819156568097","from":{"id":"100001416272263","name":"Mai PB"},"message":"Cố tìm thêm 2, 3 bản nữa nhé các mem","can_remove":false,"created_time":"2013-11-28T10:33:35+0000","like_count":0,"user_likes":false},"767820849901261":{"id":"767820849901261","from":{"id":"100000399879223","name":"Hoan Le"},"message":"Đúng thể loại mình thích, thích cả kiểu sân khấu và dàn nhạc phía sau nữa. Tiếc là lại ko thích bài này :v","can_remove":false,"created_time":"2013-11-28T10:38:31+0000","like_count":1,"user_likes":false},"767826483234031":{"id":"767826483234031","from":{"id":"1821970083","name":"Nguyễn Mạnh Cường"},"message":"đây ạ thêm bản này của Tàu ạ, em cũng ko biết là có chắc của Tàu ko nữa :D\nhttp://www.youtube.com/watch?v=iBK7q8eGWS8","can_remove":false,"created_time":"2013-11-28T10:55:42+0000","like_count":0,"user_likes":false},"767826643234015":{"id":"767826643234015","from":{"id":"1821970083","name":"Nguyễn Mạnh Cường"},"message":"Còn 1 bản này thì em cũng ko thể hình dung là nước nào :))\nhttp://www.youtube.com/watch?v=woK7MwedC6o","can_remove":false,"created_time":"2013-11-28T10:56:25+0000","like_count":0,"user_likes":false},"767827246567288":{"id":"767827246567288","from":{"id":"1821970083","name":"Nguyễn Mạnh Cường"},"message":"Post lên google thì dịch là của Hmong :D tìm được cái bản này đúng là bò lăn, vì em fai nghe vài bài trước, lời bài hát quả thật là dễ xương","can_remove":false,"created_time":"2013-11-28T10:58:19+0000","like_count":3,"user_likes":false},"767840323232647":{"id":"767840323232647","from":{"id":"100000687662713","name":"Vu Thi Man"},"message":"Em cũng xin nộp phạt đây","can_remove":false,"created_time":"2013-11-28T11:38:34+0000","like_count":1,"user_likes":false},"767844589898887":{"id":"767844589898887","from":{"id":"100001416272263","name":"Mai PB"},"message":"Nguyễn Mạnh Cường giỏi quá, sao mà tìm ra cái bản đó vậy? :-D","message_tags":[{"id":"1821970083","name":"Nguyễn Mạnh Cường","type":"user","offset":0,"length":17}],"can_remove":false,"created_time":"2013-11-28T11:49:07+0000","like_count":0,"user_likes":false},"767845866565426":{"id":"767845866565426","from":{"id":"100001416272263","name":"Mai PB"},"message":"Có 3 bản này, ai tìm được? Bản Thái, bản Tibet (Tây Tạng), và 1 bản tuyệt tích giang hồ: bản tiếng Việt (nghe nói là có nhưng không biết có thật không).","can_remove":false,"created_time":"2013-11-28T11:52:56+0000","like_count":0,"user_likes":false},"767846146565398":{"id":"767846146565398","from":{"id":"100000399879223","name":"Hoan Le"},"message":"ko liên quan nhưng vừa nghe 1 bài của 山本　譲二trên NHK G post lên đây chơi :v http://www.youtube.com/watch?v=P_IrcbkhDt4","can_remove":false,"created_time":"2013-11-28T11:53:45+0000","like_count":0,"user_likes":false},"767846266565386":{"id":"767846266565386","from":{"id":"100001416272263","name":"Mai PB"},"message":"Còn bản tiếng Trung thì có rất nhiều version, hay hơn của Nguyễn Mạnh Cường cũng có.","message_tags":[{"id":"1821970083","name":"Nguyễn Mạnh Cường","type":"user","offset":58,"length":17}],"can_remove":false,"created_time":"2013-11-28T11:54:07+0000","like_count":0,"user_likes":false},"767846299898716":{"id":"767846299898716","from":{"id":"1821970083","name":"Nguyễn Mạnh Cường"},"message":"em cũng ko tìm mất công lắm, youtube + google nó giỏi anh ạ, em search tìm trên youtube tiếng anh thì ra bản tiếng tàu bên trên, nó giới thiệu mình vài bản nữa, em nghe riết vài bản lời nghe dễ xương, nhưng mà nhạc ko giống, nghe đc bài trên vừa giống nhạc dù dạo hơi lâu 1 chút, nhưng mà tiếng thì fai post lên google nó là tiếng nào, Hmong detected :))","can_remove":false,"created_time":"2013-11-28T11:54:18+0000","like_count":1,"user_likes":false},"767863489896997":{"id":"767863489896997","from":{"id":"100000603915176","name":"悪いな ぁ"},"message":"Giật cả mình nghe thử, may quá biết :v","can_remove":false,"created_time":"2013-11-28T12:34:07+0000","like_count":0,"user_likes":false},"767869076563105":{"id":"767869076563105","from":{"id":"100001416272263","name":"Mai PB"},"message":"Thôi mọi người tìm tiếp sau nhé. Bây giờ giải thích chút. Bài hát này có tên là 北国の春, tức là mùa xuân phương Bắc. 北国 dịch theo từ thì là đất nước miền Bắc, nhưng ở đây không phải là đất nước nào cả, mà chính là các miền Đông Bắc (Tohoku) và Hokkaidou của nước Nhật. Ngày xưa Nhật vốn chia năm xẻ bảy thành các quốc gia nhỏ mà. Lời bài hát này miêu tả tình cảm thương nhớ cố hương ở miền Bắc của một anh chàng người Nhật khi nhận được quà từ gia đình. Bài này đặc biệt ở chỗ được phổ biến rất nhiều ở các nước châu Á: TQ, Đài Loan, Hongkong, Hàn Quốc, Bắc Triều Tiên, Thái, Sing,... Nguyên nhân thì không rõ lắm nhưng rất đáng ngạc nhiên, vì nó được phổ biến ở ngay cả các nước thù địch với Nhật Bản là TQ và Bắc Triều Tiên. Việc nổi tiếng này chắc là hoàn toàn khác với hoàn cảnh nổi tiếng của bài hát 上を向いて歩こう mà Phuong Thao Tran giới thiệu ở trên (bài hát đó nổi tiếng ở Mỹ và cả ở châu Âu).","message_tags":[{"id":"569263718","name":"Phuong Thao Tran","type":"user","offset":814,"length":16}],"can_remove":false,"created_time":"2013-11-28T12:49:19+0000","like_count":4,"user_likes":false},"767869289896417":{"id":"767869289896417","from":{"id":"100001526631937","name":"Tường Oanh Mineko"},"message":"sonna koto ga nai yo.Ko biết thì nói ko biết ah, cách nói thâm thúy con gái có khác ha","can_remove":false,"created_time":"2013-11-28T12:49:55+0000","like_count":2,"user_likes":false},"767869509896395":{"id":"767869509896395","from":{"id":"100001416272263","name":"Mai PB"},"message":"Comment trên linh tinh quá. :-) Mấy bạn kia toàn là nam mà.","can_remove":false,"created_time":"2013-11-28T12:50:30+0000","like_count":1,"user_likes":false},"767869609896385":{"id":"767869609896385","from":{"id":"100000603915176","name":"悪いな ぁ"},"message":"Ờ hầy ai cũng muốn anh í phạt là sao?","can_remove":false,"created_time":"2013-11-28T12:50:44+0000","like_count":1,"user_likes":false},"767870216562991":{"id":"767870216562991","from":{"id":"100001526631937","name":"Tường Oanh Mineko"},"message":"Có dịp thì nên biết hình phạt của ng khác ra sao cũng là điều thú vị chăng? :D","can_remove":false,"created_time":"2013-11-28T12:52:33+0000","like_count":0,"user_likes":false},"767870573229622":{"id":"767870573229622","from":{"id":"100000603915176","name":"悪いな ぁ"},"message":"Có mem xinh gái nào muốn mình phạt hem nhỉ =))","can_remove":false,"created_time":"2013-11-28T12:53:39+0000","like_count":1,"user_likes":false},"767871609896185":{"id":"767871609896185","from":{"id":"100001526631937","name":"Tường Oanh Mineko"},"message":"làm gì có ch đó, phải có vấn đề đưa ra đc xem như đó là phần thưởng thì mới có hình phạt đc chớ a 悪いな ぁ","can_remove":false,"created_time":"2013-11-28T12:55:03+0000","like_count":0,"user_likes":false},"767872423229437":{"id":"767872423229437","from":{"id":"100001526631937","name":"Tường Oanh Mineko"},"message":"Mình bình thường mà, đùa cũng vui.Nhạy cảm là bệnh con gái đó mà :D","can_remove":false,"created_time":"2013-11-28T12:56:52+0000","like_count":2,"user_likes":false},"767875206562492":{"id":"767875206562492","from":{"id":"100000603915176","name":"悪いな ぁ"},"message":":v","can_remove":false,"created_time":"2013-11-28T13:03:15+0000","like_count":0,"user_likes":false},"767885423228137":{"id":"767885423228137","from":{"id":"569263718","name":"Phuong Thao Tran"},"message":"女の子は秋のようですねTường Oanh Mineko, ^^","message_tags":[{"id":"100001526631937","name":"Tường Oanh Mineko","type":"user","offset":11,"length":17}],"can_remove":false,"created_time":"2013-11-28T13:25:43+0000","like_count":0,"user_likes":false},"767886266561386":{"id":"767886266561386","from":{"id":"100001526631937","name":"Tường Oanh Mineko"},"message":"なんで春じゃなくて、秋のようですか？","can_remove":false,"created_time":"2013-11-28T13:27:38+0000","like_count":0,"user_likes":false},"767887113227968":{"id":"767887113227968","from":{"id":"569263718","name":"Phuong Thao Tran"},"message":"なんとなくわからねん、 :D","can_remove":false,"created_time":"2013-11-28T13:29:56+0000","like_count":0,"user_likes":false},"767887476561265":{"id":"767887476561265","from":{"id":"100001526631937","name":"Tường Oanh Mineko"},"message":":( わい、わからへん。","can_remove":false,"created_time":"2013-11-28T13:31:01+0000","like_count":0,"user_likes":false},"767894296560583":{"id":"767894296560583","from":{"id":"569263718","name":"Phuong Thao Tran"},"message":"ở đâu ạ?","can_remove":false,"created_time":"2013-11-28T13:46:38+0000","like_count":0,"user_likes":false},"767907199892626":{"id":"767907199892626","from":{"id":"100001416272263","name":"Mai PB"},"message":"Bản tiếng Trung này cũng hay này. http://mp3.zing.vn/bai-hat/Mua-Xuan-Bac-Quoc-Tieu-Nguyet/ZW6IAA60.html","can_remove":false,"created_time":"2013-11-28T14:14:44+0000","like_count":2,"user_likes":false},"767920296557983":{"id":"767920296557983","from":{"id":"1821970083","name":"Nguyễn Mạnh Cường"},"message":"Anh Mai PB chắc anh kỳ công tìm bài trên version tiếng Việt, có lẽ em tìm thấy rồi ạ, hơi kỳ công, nhạc khá giống, lời em ko rõ :D\nhttp://www.keeng.vn/audio/Loi-Hua-Da-Qua-Nhu-Quynh-192Kbps/BCOHS2NK.html","message_tags":[{"id":"100001416272263","name":"Mai PB","type":"user","offset":4,"length":6}],"can_remove":false,"created_time":"2013-11-28T14:45:27+0000","like_count":1,"user_likes":false},"767922809891065":{"id":"767922809891065","from":{"id":"100001416272263","name":"Mai PB"},"message":"Không phải :-)","can_remove":false,"created_time":"2013-11-28T14:49:21+0000","like_count":1,"user_likes":false},"767928206557192":{"id":"767928206557192","from":{"id":"100005690740678","name":"Bui Thanh Tung"},"message":"Hay quá , từ trước đến h e cứ tưởng bài này của Tàu , may nhờ các Sempai mở mắt cho . Domo !","can_remove":false,"created_time":"2013-11-28T15:01:40+0000","like_count":1,"user_likes":false},"767930326556980":{"id":"767930326556980","from":{"id":"100005903373573","name":"HaLinh Phong Phan"},"message":"gio nghe lai het tat ca  du ko hieu lam nhung hay that...cam on anh Mai PB va cac senpai nhe....","message_tags":[{"id":"100001416272263","name":"Mai PB","type":"user","offset":68,"length":6}],"can_remove":false,"created_time":"2013-11-28T15:06:29+0000","like_count":1,"user_likes":false},"767982409885105":{"id":"767982409885105","from":{"id":"100000027754899","name":"Hoang Van Ba"},"message":"Chưa từng nghe :((","can_remove":false,"created_time":"2013-11-28T16:06:45+0000","like_count":0,"user_likes":false},"767995206550492":{"id":"767995206550492","from":{"id":"100005838455931","name":"Vin Seagal"},"message":"anh chị ơi gõ giùm em cái captcha này với.","can_remove":false,"created_time":"2013-11-28T16:29:07+0000","like_count":0,"user_likes":false},"767995636550449":{"id":"767995636550449","from":{"id":"100000603915176","name":"悪いな ぁ"},"message":"もへはらたへ","can_remove":false,"created_time":"2013-11-28T16:29:59+0000","like_count":0,"user_likes":false},"767997266550286":{"id":"767997266550286","from":{"id":"100005838455931","name":"Vin Seagal"},"message":"cảm ơn nhiều nhưng mà em lỡ ấn nhầm nút quay lại, giúp em lần nữa đi ạ","can_remove":false,"created_time":"2013-11-28T16:33:10+0000","like_count":0,"user_likes":false},"767997529883593":{"id":"767997529883593","from":{"id":"100000603915176","name":"悪いな ぁ"},"message":"とこえはらに","can_remove":false,"created_time":"2013-11-28T16:33:48+0000","like_count":0,"user_likes":false},"767997936550219":{"id":"767997936550219","from":{"id":"1146680551","name":"優しい なぁ"},"message":"troll cú đêm à :v","can_remove":false,"created_time":"2013-11-28T16:34:32+0000","like_count":2,"user_likes":false},"767998026550210":{"id":"767998026550210","from":{"id":"100000603915176","name":"悪いな ぁ"},"message":":v","can_remove":false,"created_time":"2013-11-28T16:34:51+0000","like_count":0,"user_likes":false},"767998196550193":{"id":"767998196550193","from":{"id":"100000603915176","name":"悪いな ぁ"},"message":"Luyện Hiragana ấy mà :))","can_remove":false,"created_time":"2013-11-28T16:35:12+0000","like_count":0,"user_likes":false},"768000146549998":{"id":"768000146549998","from":{"id":"100005838455931","name":"Vin Seagal"},"message":"giúp em một lần cuối cùng nữa thôi, please.","can_remove":false,"created_time":"2013-11-28T16:40:02+0000","like_count":0,"user_likes":false},"768000513216628":{"id":"768000513216628","from":{"id":"100000603915176","name":"悪いな ぁ"},"message":"りほねこたひ Một lần nữa đời em nát đấy!","can_remove":false,"created_time":"2013-11-28T16:40:48+0000","like_count":1,"user_likes":false},"768000853216594":{"id":"768000853216594","from":{"id":"100005838455931","name":"Vin Seagal"},"message":"cảm ơn nhiều ạ","can_remove":false,"created_time":"2013-11-28T16:41:19+0000","like_count":0,"user_likes":false},"768000966549916":{"id":"768000966549916","from":{"id":"1146680551","name":"優しい なぁ"},"message":"sợ rùi :v","can_remove":false,"created_time":"2013-11-28T16:41:38+0000","like_count":0,"user_likes":false},"768001026549910":{"id":"768001026549910","from":{"id":"100000603915176","name":"悪いな ぁ"},"message":";)","can_remove":false,"created_time":"2013-11-28T16:41:53+0000","like_count":0,"user_likes":false},"768001333216546":{"id":"768001333216546","from":{"id":"100001526631937","name":"Tường Oanh Mineko"},"message":"a 悪いな ぁ  hù dọa đêm khuya, ám ảnh đời ngta luôn quá :v","can_remove":false,"created_time":"2013-11-28T16:42:37+0000","like_count":0,"user_likes":false},"768001676549845":{"id":"768001676549845","from":{"id":"100000603915176","name":"悪いな ぁ"},"message":"Khứa khứa, phải thế cho anh em nó nể :v","can_remove":false,"created_time":"2013-11-28T16:43:26+0000","like_count":2,"user_likes":false},"768200163196663":{"id":"768200163196663","from":{"id":"100001416272263","name":"Mai PB"},"message":"Phạt thì dễ, thưởng thì khó. Inbox vậy. :-)","can_remove":false,"created_time":"2013-11-29T00:52:04+0000","like_count":1,"user_likes":false},"768201473196532":{"id":"768201473196532","from":{"id":"1250063068","name":"Tuấn Tử Tế"},"message":"iem!","can_remove":false,"created_time":"2013-11-29T00:54:37+0000","like_count":0,"user_likes":false},"768204669862879":{"id":"768204669862879","from":{"id":"100001416272263","name":"Mai PB"},"message":"Đã không biết còn comment muộn, phạt gấp đôi: tìm 2 versions khác. ^^","can_remove":false,"created_time":"2013-11-29T01:03:26+0000","like_count":0,"user_likes":false},"768259273190752":{"id":"768259273190752","from":{"id":"1146680551","name":"優しい なぁ"},"message":"Hihi ảnh bận ùi","can_remove":false,"created_time":"2013-11-29T03:25:12+0000","like_count":0,"user_likes":false},"768261376523875":{"id":"768261376523875","from":{"id":"100001416272263","name":"Mai PB"},"message":"Chưa có lời giải, sao có pm được?","can_remove":false,"created_time":"2013-11-29T03:30:14+0000","like_count":0,"user_likes":false},"768264619856884":{"id":"768264619856884","from":{"id":"100000603915176","name":"悪いな ぁ"},"message":"Yên tâm đi, anh Mai mà có thưởng thì to lắm ;)","can_remove":false,"created_time":"2013-11-29T03:40:04+0000","like_count":0,"user_likes":false},"768271309856215":{"id":"768271309856215","from":{"id":"1146680551","name":"優しい なぁ"},"message":"Rành thế :v","can_remove":false,"created_time":"2013-11-29T04:02:26+0000","like_count":0,"user_likes":false},"768278549855491":{"id":"768278549855491","from":{"id":"100000603915176","name":"悪いな ぁ"},"message":"Mình biết xem tướng mà :))","can_remove":false,"created_time":"2013-11-29T04:20:02+0000","like_count":0,"user_likes":false},"768290603187619":{"id":"768290603187619","from":{"id":"100004094346107","name":"Thuy Nga Nguyen"},"message":"Sao em không xem được nhỉ","can_remove":false,"created_time":"2013-11-29T04:56:49+0000","like_count":0,"user_likes":false},"768290683187611":{"id":"768290683187611","from":{"id":"100004094346107","name":"Thuy Nga Nguyen"},"message":":)","can_remove":false,"created_time":"2013-11-29T04:56:56+0000","like_count":0,"user_likes":false},"768775903139089":{"id":"768775903139089","from":{"id":"100004360751785","name":"Hà Nguyễn"},"message":"e nói thật là e chưa nghe lần nào ạ :P","can_remove":false,"created_time":"2013-11-30T01:59:25+0000","like_count":1,"user_likes":false},"768859053130774":{"id":"768859053130774","from":{"id":"100001416272263","name":"Mai PB"},"message":"Vẫn chưa có bản tiếng Việt à?","can_remove":false,"created_time":"2013-11-30T05:58:23+0000","like_count":0,"user_likes":false},"768859196464093":{"id":"768859196464093","from":{"id":"1821970083","name":"Nguyễn Mạnh Cường"},"message":"Chị Chiếc Lá Cuối Cùng ???","message_tags":[{"id":"100006469315671","name":"Chiếc Lá Cuối Cùng","type":"user","offset":4,"length":18}],"can_remove":false,"created_time":"2013-11-30T05:59:14+0000","like_count":1,"user_likes":false},"768862453130434":{"id":"768862453130434","from":{"id":"100004094346107","name":"Thuy Nga Nguyen"},"message":"nói thật là em cũng lần đầu nghe bài nay luôn :(","can_remove":false,"created_time":"2013-11-30T06:14:20+0000","like_count":1,"user_likes":false},"768866246463388":{"id":"768866246463388","from":{"id":"100001416272263","name":"Mai PB"},"message":"Hòa tấu cũng hay","can_remove":false,"created_time":"2013-11-30T06:30:28+0000","like_count":0,"user_likes":false},"768866506463362":{"id":"768866506463362","from":{"id":"100001416272263","name":"Mai PB"},"message":"Chờ mãi 1 commnet \"hay quá\" mà chẳng có, toàn là chưa nghe với nghe rồi. ^^","can_remove":false,"created_time":"2013-11-30T06:31:18+0000","like_count":1,"user_likes":false},"768867489796597":{"id":"768867489796597","from":{"id":"100001416272263","name":"Mai PB"},"message":"Tiếng Triều Tiên này. http://www.youtube.com/watch?v=Db5uQx9xGD4","can_remove":false,"created_time":"2013-11-30T06:35:38+0000","like_count":1,"user_likes":false},"768867593129920":{"id":"768867593129920","from":{"id":"100001416272263","name":"Mai PB"},"message":"Tiếng Thái này. http://www.youtube.com/watch?v=FWFCoOn_T48","can_remove":false,"created_time":"2013-11-30T06:36:23+0000","like_count":2,"user_likes":false},"768892716460741":{"id":"768892716460741","from":{"id":"100001754136107","name":"Nguyễn Tuấn Vũ"},"message":"あの故郷へ帰ろかな　帰ろかな nghe xong mà nghĩ ngay đến tết a Mai PB ak","message_tags":[{"id":"100001416272263","name":"Mai PB","type":"user","offset":48,"length":6}],"can_remove":false,"created_time":"2013-11-30T07:53:43+0000","like_count":1,"user_likes":false},"768899223126757":{"id":"768899223126757","from":{"id":"100001416272263","name":"Mai PB"},"message":"Nguyễn Tuấn Vũ chắc vì câu này mà có nhiều version vậy chăng. \"Về quê thôi\".","message_tags":[{"id":"100001754136107","name":"Nguyễn Tuấn Vũ","type":"user","offset":0,"length":14}],"can_remove":false,"created_time":"2013-11-30T08:09:31+0000","like_count":0,"user_likes":false},"768899716460041":{"id":"768899716460041","from":{"id":"100001416272263","name":"Mai PB"},"message":"Chiếc Lá Cuối Cùng tính sao đây, đàn hát ra sao? Dịch ý không thôi thì nhờ Thành Nguyễn cũng làm được mà. Chưa đạt.","message_tags":[{"id":"100006469315671","name":"Chiếc Lá Cuối Cùng","type":"user","offset":0,"length":18},{"id":"100000381394367","name":"Thành Nguyễn","type":"user","offset":75,"length":12}],"can_remove":false,"created_time":"2013-11-30T08:11:13+0000","like_count":0,"user_likes":false},"768900193126660":{"id":"768900193126660","from":{"id":"100001416272263","name":"Mai PB"},"message":"Hổng có ép :-)","can_remove":false,"created_time":"2013-11-30T08:13:40+0000","like_count":0,"user_likes":false}},"paging":{"cursors":{"after":"NzY3Nzc2ODI5OTA1NjYz","before":"NzY3Nzc2ODI5OTA1NjYz"},"next":"https://graph.facebook.com/229244010425617_767776243239055/comments?limit=1&summary=1&after=NzY3Nzc2ODI5OTA1NjYz"},"summary":{"order":"chronological","total_count":104}}}