{"id":"229244010425617_767736719909674","type":"link","picture":"https://fbexternal-a.akamaihd.net/safe_image.php?d=AQAidqxdIl2hl-MU&w=154&h=154&url=http%3A%2F%2Fvanhoanhat.com%2Fwp-content%2Fuploads%2Ftai-sao-thich-xem-phim-han-hon-phim-nhat.jpg","link":"http://vanhoanhat.com/tai-sao-nguoi-viet-nam-thich-xem-phim-han-quoc-hon-phim-nhat/","from":{"id":"100001458099624","name":"Kham Pha"},"message":"Một bài viết khá hay. Cá nhân mình rất thích phim Nhật và cả tính cách Nhật. Cách thể hiện tình cảm của người Nhật ko phô trương, thoải mái thể hiện như Việt Nam hay Hàn Quốc. Thường nhẹ nhàng và lặng lẽ nhưng rất sâu sắc và bền bỉ. Quan trọng nhất là hiểu được tấm lòng của nhau phải không nào :)","created_time":"2013-11-28T06:21:45+0000","updated_time":"2013-11-30T03:20:58+0000","likes":{"data":{"100001754136107":{"id":"100001754136107","name":"Nguyễn Tuấn Vũ"},"100003814756892":{"id":"100003814756892","name":"Hai Nguyen"},"100001583056786":{"id":"100001583056786","name":"Van La Chanh Leo"},"100003599920499":{"id":"100003599920499","name":"ふゆ はな"},"1822854513":{"id":"1822854513","name":"Sữa Chua Không Đường"},"100004253979918":{"id":"100004253979918","name":"Louis Hoàng Văn Thái"},"100004286105743":{"id":"100004286105743","name":"Chiisai Sakana"},"100005690740678":{"id":"100005690740678","name":"Bui Thanh Tung"},"100003262381147":{"id":"100003262381147","name":"Venusstar Dang"},"100000022163023":{"id":"100000022163023","name":"Kafe Ore"},"100003055356509":{"id":"100003055356509","name":"Thuan Nguyen"},"726423323":{"id":"726423323","name":"Trần Thư"},"100004514621076":{"id":"100004514621076","name":"Hason Angle"},"100003733592186":{"id":"100003733592186","name":"Tuyền Lucy"},"100006355960514":{"id":"100006355960514","name":"Lê Thùy Dương"},"100003875131996":{"id":"100003875131996","name":"Ngoc Anh"},"100001792751155":{"id":"100001792751155","name":"Akari Nguyen"},"100003762427351":{"id":"100003762427351","name":"Hiroshi Yasu Oki"},"100006208292318":{"id":"100006208292318","name":"Sống Đúng Nghĩa"},"1026780646":{"id":"1026780646","name":"Việt Hưng Khổng"},"100003496991813":{"id":"100003496991813","name":"Gió Oo"},"100001338846010":{"id":"100001338846010","name":"Sơn Nguyễn Minh"},"100002470650247":{"id":"100002470650247","name":"LinhLinh Chan"},"100000050843975":{"id":"100000050843975","name":"Chè Kem"},"100001318098340":{"id":"100001318098340","name":"Trang Anh"},"100002911187986":{"id":"100002911187986","name":"Nghia Bui"},"100001416272263":{"id":"100001416272263","name":"Mai PB"},"100000292250041":{"id":"100000292250041","name":"Nguyễn Thanh Tùng"},"100001044080438":{"id":"100001044080438","name":"Huyen Vy"},"100006552360624":{"id":"100006552360624","name":"Quỳnh Anh Chuu"},"100000133587536":{"id":"100000133587536","name":"Mei Ki"},"100003079912929":{"id":"100003079912929","name":"Chen Miku"},"1308881663":{"id":"1308881663","name":"Nguyễn Đình Lộc"},"100002855307866":{"id":"100002855307866","name":"Mi Iêu Mèo"},"100000866044857":{"id":"100000866044857","name":"Nguyen Hanh"},"100001526631937":{"id":"100001526631937","name":"Tường Oanh Mineko"},"569263718":{"id":"569263718","name":"Phuong Thao Tran"},"100000141138651":{"id":"100000141138651","name":"Cẩm Vân"},"1783190483":{"id":"1783190483","name":"Trần Xuân Hiệp"},"1821970083":{"id":"1821970083","name":"Nguyễn Mạnh Cường"},"100005801442456":{"id":"100005801442456","name":"An Nguyen"},"100005966880267":{"id":"100005966880267","name":"Phương Clt"}},"paging":{"cursors":{"after":"MTAwMDAxNzU0MTM2MTA3","before":"MTAwMDAxNzU0MTM2MTA3"},"next":"https://graph.facebook.com/229244010425617_767736719909674/likes?limit=1&summary=1&after=MTAwMDAxNzU0MTM2MTA3"},"summary":{"total_count":44}},"comments":{"data":{"767737366576276":{"id":"767737366576276","from":{"id":"1813611352","name":"To Đùng"},"message":"Phim gì cũng xem. Miễn là hay :v nhưng ko cuồng là được :D","can_remove":false,"created_time":"2013-11-28T06:22:59+0000","like_count":0,"user_likes":false},"767737579909588":{"id":"767737579909588","from":{"id":"100001458099624","name":"Kham Pha"},"message":"Chiếc Lá Cuối Cùng bài viết có liên quan đến Nhật đâu cần phải vậy, chị chưa hiểu kĩ luật nhé.","message_tags":[{"id":"100006469315671","name":"Chiếc Lá Cuối Cùng","type":"user","offset":0,"length":18}],"can_remove":false,"created_time":"2013-11-28T06:23:45+0000","like_count":0,"user_likes":false},"767739909909355":{"id":"767739909909355","from":{"id":"1283298041","name":"Búa Đức Thanh"},"message":"bữa xem phim Ring , bản của Nhật , xem mãi chả thấy sợ mấy ( chắc tại ko hiểu từ ngữ)  tới khúc cuối, đoạn cô gái cầm đoạn băng đem qua nhà ông bố mới thấy rùng mình.","can_remove":false,"created_time":"2013-11-28T06:30:50+0000","like_count":0,"user_likes":false},"767740523242627":{"id":"767740523242627","from":{"id":"1283298041","name":"Búa Đức Thanh"},"message":":-? tại mình nặng vía, xem phim ma là buồn ngủ, xem phim kinh dị kiểu Mỹ thì ko ám ảnh như của Nhật, nhưng căng thẳng hơn.","can_remove":false,"created_time":"2013-11-28T06:33:30+0000","like_count":1,"user_likes":false},"767746106575402":{"id":"767746106575402","from":{"id":"1146680551","name":"優しい なぁ"},"message":"Mình mới ghê Búa Đức Thanh","message_tags":[{"id":"1283298041","name":"Búa Đức Thanh","type":"user","offset":13,"length":13}],"can_remove":false,"created_time":"2013-11-28T06:51:48+0000","like_count":0,"user_likes":false},"767747469908599":{"id":"767747469908599","from":{"id":"100000024629190","name":"Thanh Ngọc"},"message":"phim nhật xem dở. diễn viên k tự nhiên tí nào -_-","can_remove":false,"created_time":"2013-11-28T06:56:10+0000","like_count":0,"user_likes":false},"767747843241895":{"id":"767747843241895","from":{"id":"100001526631937","name":"Tường Oanh Mineko"},"message":"phim nhật diễn viên, tình tiết cũng tự nhiên mà...","can_remove":false,"created_time":"2013-11-28T06:58:19+0000","like_count":0,"user_likes":false},"767749639908382":{"id":"767749639908382","from":{"id":"1813611352","name":"To Đùng"},"message":"Mình xem film này thấy rất hay và cảm động, cũng có phần hài hước dí dỏm. Các bạn xem chưa :D\nhttp://www.imdb.com/title/tt0929860/","can_remove":false,"created_time":"2013-11-28T07:00:30+0000","like_count":1,"user_likes":false},"767750933241586":{"id":"767750933241586","from":{"id":"100002612714358","name":"Close To You"},"message":"hehehe zịt nam bị cái bóng hàn cuốc đè nặng wá nên hem hỉu gì về drama của nhựt chưa nói điện ảnh film nhựa các cái ha chứ thiệt ra style hàn cuốc toàn xách cặp học theo nhựt từ xưa ròy!!!","can_remove":false,"created_time":"2013-11-28T07:07:42+0000","like_count":0,"user_likes":false},"767751646574848":{"id":"767751646574848","from":{"id":"100000866044857","name":"Nguyen Hanh"},"message":"Chấp nhận phim Hàn được cái mã bề ngoài chứ trong ruột chẳng có cái gì để xem, chẳng có đọng lại để mà yêu thích nó cả. Có một nội dung lặp đi lặp lại diễn viên thì nhìn đứa nào cũng giống đứa nào, la hét um xùm.","can_remove":false,"created_time":"2013-11-28T07:10:37+0000","like_count":1,"user_likes":false},"767760999907246":{"id":"767760999907246","from":{"id":"1813611352","name":"To Đùng"},"message":"Nguyen Hanh nói như thế là không đúng rồi. Cái gì đúng thì phải công nhận, gì thì gì chứ phẫu thuật thẩm mỹ và điện ảnh là 2 cái mình phải công nhận ở Hàn Quốc.\n\nPhim ảnh HQ có quá nhiều film hay, từ hành động, lãng mạng tình cảm, hài hước...\n\nLâu rồi thì thôi chưa nhắc đến, nhưng gần đây nhất mình xem là film Miracle in Cell No. 7 (2013)\nMình đảm bảo là nó sẽ lấy nước mắt của bạn.\nhttp://www.imdb.com/title/tt2659414/","can_remove":false,"created_time":"2013-11-28T07:35:43+0000","like_count":0,"user_likes":false},"767761149907231":{"id":"767761149907231","from":{"id":"1813611352","name":"To Đùng"},"message":"Chứ nếu mang mấy film rẻ tiền ra so sánh thì bất hợp lý quá ^^","can_remove":false,"created_time":"2013-11-28T07:36:23+0000","like_count":0,"user_likes":false},"767762949907051":{"id":"767762949907051","from":{"id":"100006552360624","name":"Quỳnh Anh Chuu"},"message":"đồng ý cả 2 tay vs ý kiến bài viết này. nhưng nói đến phim ảnh đa phần giới trẻ bọn e hiện nay sẽ lựa chọn hàn quốc thay vì nhật bản. ^^~","can_remove":false,"created_time":"2013-11-28T07:42:58+0000","like_count":0,"user_likes":false},"767765563240123":{"id":"767765563240123","from":{"id":"1146680551","name":"優しい なぁ"},"message":"Phim nhật minh chỉ thích xem phim về nịnja vs samurai.nó thể hiện tính võ sĩ đạo :) chắc ai cũng coi the last samurai rồi nhỉ.","can_remove":false,"created_time":"2013-11-28T07:48:18+0000","like_count":0,"user_likes":false},"767765716573441":{"id":"767765716573441","from":{"id":"1813611352","name":"To Đùng"},"message":"thế anh ko thích xem film Ma à? Ma....ria :v","can_remove":false,"created_time":"2013-11-28T07:48:53+0000","like_count":1,"user_likes":false},"767767516573261":{"id":"767767516573261","from":{"id":"1146680551","name":"優しい なぁ"},"message":"Có chứ,nhưng xem rồi mau quên chẳng đọng lại gì.còn xem ma ria thì tốn giấy nên bỏ rồi :v","can_remove":false,"created_time":"2013-11-28T07:54:49+0000","like_count":2,"user_likes":false},"767768703239809":{"id":"767768703239809","from":{"id":"1283298041","name":"Búa Đức Thanh"},"message":"phim samurai là phim Mỹ chứ cưng","can_remove":false,"created_time":"2013-11-28T07:58:43+0000","like_count":0,"user_likes":false},"767768749906471":{"id":"767768749906471","from":{"id":"1283298041","name":"Búa Đức Thanh"},"message":"The last samurai ;)","can_remove":false,"created_time":"2013-11-28T07:58:54+0000","like_count":0,"user_likes":false},"767769016573111":{"id":"767769016573111","from":{"id":"1146680551","name":"優しい なぁ"},"message":"Mỹ nhưng nói về nhật thì sao đâu :) toàn mấy diễn viên nổi của nhật như ken watanabe...","can_remove":false,"created_time":"2013-11-28T07:59:46+0000","like_count":0,"user_likes":false},"767769386573074":{"id":"767769386573074","from":{"id":"1283298041","name":"Búa Đức Thanh"},"message":"he he, phim The Mommies là phim Mỹ hay phim Ai Cập ,just kd :p","can_remove":false,"created_time":"2013-11-28T08:01:17+0000","like_count":0,"user_likes":false},"767769759906370":{"id":"767769759906370","from":{"id":"1813611352","name":"To Đùng"},"message":"Nói chung là Mỹ vẫn là xưởng phim lớn. Nó làm những film nói về Samurai hay Ninja của nhật rất hay. Đạo diễn Mỹ, bối cảnh, cốt truyện Nhật.","can_remove":false,"created_time":"2013-11-28T08:02:51+0000","like_count":0,"user_likes":false},"767769926573020":{"id":"767769926573020","from":{"id":"1146680551","name":"優しい なぁ"},"message":"Đi chỗ khác chơi.xem lại bluan của a đi . A đã nói là thích xem các fim ninja vs samurai chứ kêu nhật làm the last samurai đâu ông nội bụng bự Búa Đức Thanh","message_tags":[{"id":"1283298041","name":"Búa Đức Thanh","type":"user","offset":143,"length":13}],"can_remove":false,"created_time":"2013-11-28T08:03:38+0000","like_count":0,"user_likes":false},"767770213239658":{"id":"767770213239658","from":{"id":"1283298041","name":"Búa Đức Thanh"},"message":"vâng, em xin lỗi.","can_remove":false,"created_time":"2013-11-28T08:04:46+0000","like_count":0,"user_likes":false},"767770383239641":{"id":"767770383239641","from":{"id":"1813611352","name":"To Đùng"},"message":"haha uýnh nhau đê :v","can_remove":false,"created_time":"2013-11-28T08:05:20+0000","like_count":0,"user_likes":false},"767772366572776":{"id":"767772366572776","from":{"id":"100001416272263","name":"Mai PB"},"message":"Văn hóa Nhật đi vào trái tim, văn hóa Hàn đi vào con mắt. Khi nào bạn bước vào tuổi chín chắn sẽ không còn thích xem phim Hàn nữa. Nhưng đa phần dân VN chắc sẽ vẫn thích phong cách Hàn hơn, đơn giản là vì người Việt có xu hướng \"tốt nước sơn hơn tốt gỗ\".","can_remove":false,"created_time":"2013-11-28T08:12:12+0000","like_count":9,"user_likes":false},"767772856572727":{"id":"767772856572727","from":{"id":"1146680551","name":"優しい なぁ"},"message":"Sao k thấy nói đến phim việt nam mình nhỉ","can_remove":false,"created_time":"2013-11-28T08:13:46+0000","like_count":0,"user_likes":false},"767773443239335":{"id":"767773443239335","from":{"id":"1813611352","name":"To Đùng"},"message":"Nói thế chứ. Phim VN cũng có rất nhiều phim hay. Phim tư thì không nói. Nhưng phim của hãng thì có rất nhiều đề tài thời chiến mà sx cũng rất lâu rồi làm rất hay. rất chân thực. Vậy mà bây giờ thì chả ra cái gì.","can_remove":false,"created_time":"2013-11-28T08:16:15+0000","like_count":1,"user_likes":false},"767773676572645":{"id":"767773676572645","from":{"id":"1146680551","name":"優しい なぁ"},"message":"Uh đúng rồi.vẫn nhớ các bộ phim truyền hình như phía trước là bầu trời...","can_remove":false,"created_time":"2013-11-28T08:17:18+0000","like_count":1,"user_likes":false},"767773956572617":{"id":"767773956572617","from":{"id":"1813611352","name":"To Đùng"},"message":"Biệt động Sài Gòn <3","can_remove":false,"created_time":"2013-11-28T08:17:58+0000","like_count":0,"user_likes":false},"767774059905940":{"id":"767774059905940","from":{"id":"1813611352","name":"To Đùng"},"message":"Ngã ba đồng lộc <3","can_remove":false,"created_time":"2013-11-28T08:18:26+0000","like_count":0,"user_likes":false},"767774096572603":{"id":"767774096572603","from":{"id":"1813611352","name":"To Đùng"},"message":"Hoa ban đỏ <3","can_remove":false,"created_time":"2013-11-28T08:18:31+0000","like_count":0,"user_likes":false},"767774273239252":{"id":"767774273239252","from":{"id":"100001526631937","name":"Tường Oanh Mineko"},"message":"Cánh đồng hoang..","can_remove":false,"created_time":"2013-11-28T08:18:58+0000","like_count":0,"user_likes":false},"767779839905362":{"id":"767779839905362","from":{"id":"100002911187986","name":"Nghia Bui"},"message":"Cá nhân minh cũng thích phim nhật hơn. Có lẽ những bạn hoc tiếng nhật và có biết qua về văn hóa của nhật thì dễ cảm phim nhật hơn..mà thực sự thì phim nhật cũng nhiều trai xinh gái đẹp lắm mà hihi mà lại còn là đẹp tự nhiên nhá....đang bấn loạn mấy bạn diên viên nhật qúa cơ!!!!","can_remove":false,"created_time":"2013-11-28T08:33:14+0000","like_count":1,"user_likes":false},"767785369904809":{"id":"767785369904809","from":{"id":"100002793054191","name":"Lai Vuong"},"message":"Còn Đường Đời đâu nhỉ?","can_remove":false,"created_time":"2013-11-28T08:51:14+0000","like_count":0,"user_likes":false},"767795069903839":{"id":"767795069903839","from":{"id":"1783190483","name":"Trần Xuân Hiệp"},"message":"Các bạn ơi, mình đang phụ trách site này ạ :3\n Các bạn có nguồn nào review về các phim Nhật không, giới thiệu cho mình với :D. Mình rất muốn giới thiệu các bộ phim hay của Nhật cho nhiều người biết nhưng mình lại không biết nhiều về mảng này :(\n\nMảng Phim của site VHN hiện còn yếu quá :(\nhttp://vanhoanhat.com/giai-tri/phim-anh/","can_remove":false,"created_time":"2013-11-28T09:09:54+0000","like_count":1,"user_likes":false},"767795583237121":{"id":"767795583237121","from":{"id":"569263718","name":"Phuong Thao Tran"},"message":"không ai trong group nì thâm thúi (í nhầm, thâm thúy) bằng đại ca Mai PB, :D","can_remove":false,"created_time":"2013-11-28T09:12:03+0000","like_count":1,"user_likes":false},"767796246570388":{"id":"767796246570388","from":{"id":"1813611352","name":"To Đùng"},"message":"Juon đi Trần Xuân Hiệp :3","message_tags":[{"id":"1783190483","name":"Trần Xuân Hiệp","type":"user","offset":8,"length":14}],"can_remove":false,"created_time":"2013-11-28T09:14:50+0000","like_count":0,"user_likes":false},"767822066567806":{"id":"767822066567806","from":{"id":"1026780646","name":"Việt Hưng Khổng"},"message":"Hiz, mạng chậm ko load được bài để đọc, cmt trước vậy: phim Nhật ko đc phổ biến ở Việt Nam một phần vì ...đắt quá. Còn những phim đã được trình chiếu thì được yêu thích- có khi còn hơn phim Hàn ấy chứ; như Osin này, Asuka, Chiaki- nữ tiếp viên hàng không...! Theo cảm nhận của mình thì phim Nhật ít khi chạy theo thị trường mà nhấn mạnh vào tính nhân văn. (Trừ jav ra nhé =))) )","can_remove":false,"created_time":"2013-11-28T10:42:14+0000","like_count":3,"user_likes":false},"767822716567741":{"id":"767822716567741","from":{"id":"569263718","name":"Phuong Thao Tran"},"message":"1 lít nước mắt nữa nè...","can_remove":false,"created_time":"2013-11-28T10:43:59+0000","like_count":0,"user_likes":false},"767825853234094":{"id":"767825853234094","from":{"id":"1717530880","name":"Triệu Việt Cường"},"message":"Nhiều người ko thích xem phim thần tượng của Hàn, xong chê tuốt. Nói vậy chứ phim điện ảnh của Hàn được nhiều giải quốc tế lắm. Có mảng này, mảng nọ, phù hợp với nhu cầu của nhiều đối tượng. Phim Nhật Bản, thấy phim ngày trước hay hơn, còn những phim gần đây, ko còn thấy được sự mới lạ, hấp dẫn như ban đầu nữa, nhất là đối với phim truyền hình. Còn phim điện ảnh của Nhật thì đáng tiếc là chưa được tiếp xúc nhiều. Nói về phim Nhật, có lẽ chỉ có anime là mãi mãi 1 tình yêu thôi.","can_remove":false,"created_time":"2013-11-28T10:53:31+0000","like_count":1,"user_likes":false},"767845146565498":{"id":"767845146565498","from":{"id":"100003875131996","name":"Ngoc Anh"},"message":"mình thích anime của Nhật, sâu sắc,tinh tế đậm chất nhân văn","can_remove":false,"created_time":"2013-11-28T11:51:05+0000","like_count":2,"user_likes":false},"767846873231992":{"id":"767846873231992","from":{"id":"100001580479641","name":"Hà Xuân Thủy"},"message":"Hay ho thế nào ko rõ nhưng đc cái nhìn mấy cô diễn viên kawaii là thích rồi:))","can_remove":false,"created_time":"2013-11-28T11:56:07+0000","like_count":0,"user_likes":false},"767861039897242":{"id":"767861039897242","from":{"id":"100006355960514","name":"Lê Thùy Dương"},"message":"đó là một vấn đề nan giải, ngay cả cô giáo dạy tiếng Nhật trên lớp mình cũng đã hỏi tới thì tất cả đều cười mà không một lời giải thích. có lẽ một phần theo phong trào của người đi trước: mê hàn","can_remove":false,"created_time":"2013-11-28T12:27:42+0000","like_count":0,"user_likes":false},"767901766559836":{"id":"767901766559836","from":{"id":"1783190483","name":"Trần Xuân Hiệp"},"message":"Bác Mai PB có giúp được em vấn đề trên không ạ? :D\nTo Đùng: Chưa hiểu ý bạn lắm (Nếu là tiếng Nhật thì mình ko biết @@ )","message_tags":[{"id":"100001416272263","name":"Mai PB","type":"user","offset":4,"length":6},{"id":"1813611352","name":"To Đùng","type":"user","offset":51,"length":7}],"can_remove":false,"created_time":"2013-11-28T14:02:42+0000","like_count":1,"user_likes":false},"767906779892668":{"id":"767906779892668","from":{"id":"100001416272263","name":"Mai PB"},"message":"http://www.imdb.com/list/COw8dVLUfxE/\nhttp://www.imdb.com/country/jp\nhttp://www.japanvisitor.com/japanese-culture/film\nhttp://www.japansociety.org/page/programs/film/a-tribute-to-donald-richie/japan-cuts-2013\nhttp://www.midnighteye.com/\nhttp://metropolis.co.jp/movies/\nhttp://japanmovietimes.com/\nhttp://mubi.com/lists/japanese-movies-all-time-best-200-kinejun-readers","can_remove":false,"created_time":"2013-11-28T14:13:26+0000","like_count":3,"user_likes":false},"768281573188522":{"id":"768281573188522","from":{"id":"100003599920499","name":"ふゆ はな"},"message":"chỉ có một điều đơn giản thui là diễn viên hàn đẹp hơn(nhờ PTTM) còn diễn viên nhật ko đẹp trai và xinh gái mấy","can_remove":false,"created_time":"2013-11-29T04:30:44+0000","like_count":0,"user_likes":false},"768316576518355":{"id":"768316576518355","from":{"id":"100003202290206","name":"Yoshikuni Takashi"},"message":"phim nhat cung lăm diễn viên xinh mà , chủ yếu là tiền bản quyền đắt , phim chiếu theo mùa , kén khán giả ..thế thôi","can_remove":false,"created_time":"2013-11-29T05:41:47+0000","like_count":0,"user_likes":false},"768805516469461":{"id":"768805516469461","from":{"id":"100001458099624","name":"Kham Pha"},"message":"Lần trước nhân dịp giới thiệu bài hát 涙そうそう mình có giới thiệu phim của nó. Đây là một bộ phim rất hay và ý nghĩa :)\nhttps://www.facebook.com/groups/CongdongVietNhat/permalink/707412565942090/\nTrong group cũng có cả một mục về phim, video Nhật được lưu ở post trên đầu group. Các bạn nên tìm hiểu kĩ vì nó rất có lợi cho chính các bạn.  \nhttps://www.facebook.com/groups/CongdongVietNhat/doc/740853609264652/","can_remove":false,"created_time":"2013-11-30T03:20:58+0000","like_count":1,"user_likes":false}},"paging":{"cursors":{"after":"NzY3NzM3MzY2NTc2Mjc2","before":"NzY3NzM3MzY2NTc2Mjc2"},"next":"https://graph.facebook.com/229244010425617_767736719909674/comments?limit=1&summary=1&after=NzY3NzM3MzY2NTc2Mjc2"},"summary":{"order":"chronological","total_count":51}}}