{"id":"229244010425617_767896666560346","type":"link","picture":"https://fbexternal-a.akamaihd.net/safe_image.php?d=AQAfQQ2CEn2NIcTL&w=154&h=154&url=http%3A%2F%2Fwww.rurubu.com%2Fseason%2Fwinter%2Fillumination%2Fimg%2Ffacebook.jpg","link":"http://www.rurubu.com/season/winter/illumination/","from":{"id":"100001416272263","name":"Mai PB"},"message":"Mùa thu có lá đỏ chưa qua, đã đến mùa イルミネーション (illumination, tiếng Việt có lẽ là hoa đăng, thắp đèn trang trí). Cuối tuần hay cuối ngày dẫn nhau đi chơi nhé. Phần lớn sẽ kéo dài đến hết Noel hoặc cuối năm Dương lịch đấy.\n\nhttp://www.rurubu.com/season/winter/illumination/","created_time":"2013-11-28T13:51:16+0000","updated_time":"2013-11-29T03:47:18+0000","likes":{"data":{"100002297226886":{"id":"100002297226886","name":"Nguyễn Bá Ngọc"},"100004253979918":{"id":"100004253979918","name":"Louis Hoàng Văn Thái"},"100001458099624":{"id":"100001458099624","name":"Kham Pha"},"100004398330290":{"id":"100004398330290","name":"Lam Linh"},"100001695345798":{"id":"100001695345798","name":"Tyn Aki"},"100003105034037":{"id":"100003105034037","name":"Pham Oanh"},"1122379216":{"id":"1122379216","name":"Hà Ngô"},"100002589963683":{"id":"100002589963683","name":"Hà Văn Tuấn"},"100004985943852":{"id":"100004985943852","name":"Nguyễn Kiên"},"100001359798024":{"id":"100001359798024","name":"November Gi"},"1148962646":{"id":"1148962646","name":"Tran Thi Tuong Van"},"100001723862714":{"id":"100001723862714","name":"Bo Bien Vang"},"1283298041":{"id":"1283298041","name":"Búa Đức Thanh"},"100006502552041":{"id":"100006502552041","name":"Xấu Xí"},"100001526631937":{"id":"100001526631937","name":"Tường Oanh Mineko"},"1146680551":{"id":"1146680551","name":"優しい なぁ"}},"paging":{"cursors":{"after":"MTAwMDAyMjk3MjI2ODg2","before":"MTAwMDAyMjk3MjI2ODg2"},"next":"https://graph.facebook.com/229244010425617_767896666560346/likes?limit=1&summary=1&after=MTAwMDAyMjk3MjI2ODg2"},"summary":{"total_count":17}},"comments":{"data":{"767897603226919":{"id":"767897603226919","from":{"id":"100001526631937","name":"Tường Oanh Mineko"},"message":"nhiều hoạt động thú vị quá ha..:p","can_remove":false,"created_time":"2013-11-28T13:53:09+0000","like_count":1,"user_likes":false},"767898903226789":{"id":"767898903226789","from":{"id":"1283298041","name":"Búa Đức Thanh"},"message":"Đây là 1 trong những lí do em yêu nước Nhật, em cũng thích tiếng Nhật nữa, mà tiếng Nhật ko có thích em :(","can_remove":false,"created_time":"2013-11-28T13:56:28+0000","like_count":4,"user_likes":false},"767899046560108":{"id":"767899046560108","from":{"id":"100001526631937","name":"Tường Oanh Mineko"},"message":":v","can_remove":false,"created_time":"2013-11-28T13:56:58+0000","like_count":0,"user_likes":false},"767908399892506":{"id":"767908399892506","from":{"id":"100001359798024","name":"November Gi"},"message":"Ai cho e theo vs~~~ :\">","can_remove":false,"created_time":"2013-11-28T14:17:21+0000","like_count":1,"user_likes":false},"767976556552357":{"id":"767976556552357","from":{"id":"1146680551","name":"優しい なぁ"},"message":"Búa Đức Thanh chém gió","message_tags":[{"id":"1283298041","name":"Búa Đức Thanh","type":"user","offset":0,"length":13}],"can_remove":false,"created_time":"2013-11-28T15:55:46+0000","like_count":0,"user_likes":false},"767984763218203":{"id":"767984763218203","from":{"id":"100000226369400","name":"Vạn Lý Độc Hành"},"message":"Lần đầu e nghe thấy cái này :o","can_remove":false,"created_time":"2013-11-28T16:10:34+0000","like_count":1,"user_likes":false},"767985536551459":{"id":"767985536551459","from":{"id":"1146680551","name":"優しい なぁ"},"message":"mới qua chưa được năm mà :v","can_remove":false,"created_time":"2013-11-28T16:11:41+0000","like_count":0,"user_likes":false},"767986063218073":{"id":"767986063218073","from":{"id":"100000226369400","name":"Vạn Lý Độc Hành"},"message":"Nhưg e đọc manga với qtam đến văn hoá Nhật từ bé :'( chắc bỏ sót cái vụ này r :'(","can_remove":false,"created_time":"2013-11-28T16:12:59+0000","like_count":2,"user_likes":false},"768266883189991":{"id":"768266883189991","from":{"id":"100000328306722","name":"Tran Ngoc Anh"},"message":"năm nay phải mặc thật ấm và vác theo cả cái tripod mới được :D","can_remove":false,"created_time":"2013-11-29T03:47:18+0000","like_count":0,"user_likes":false}},"paging":{"cursors":{"after":"NzY3ODk3NjAzMjI2OTE5","before":"NzY3ODk3NjAzMjI2OTE5"},"next":"https://graph.facebook.com/229244010425617_767896666560346/comments?limit=1&summary=1&after=NzY3ODk3NjAzMjI2OTE5"},"summary":{"order":"chronological","total_count":9}}}