{"id":"229244010425617_768333403183339","type":"status","from":{"id":"100003634822576","name":"Jessica Lam Phuong"},"message":"Mình tự học tiếng nhật vừa học xong hira và kata giờ ko biết học tiếp phần nào và cách học nào hay ạ","created_time":"2013-11-29T06:35:38+0000","updated_time":"2013-11-29T10:24:29+0000","likes":{"data":{"100002283885358":{"id":"100002283885358","name":"Tien Chuot"},"100004253979918":{"id":"100004253979918","name":"Louis Hoàng Văn Thái"},"100002907638629":{"id":"100002907638629","name":"Huyền Trang"},"1283298041":{"id":"1283298041","name":"Búa Đức Thanh"},"100004763737953":{"id":"100004763737953","name":"Fuong Ank Nguyen"}},"paging":{"cursors":{"after":"MTAwMDAyMjgzODg1MzU4","before":"MTAwMDAyMjgzODg1MzU4"},"next":"https://graph.facebook.com/229244010425617_768333403183339/likes?limit=1&summary=1&after=MTAwMDAyMjgzODg1MzU4"},"summary":{"total_count":5}},"comments":{"data":{"768334433183236":{"id":"768334433183236","from":{"id":"100004763737953","name":"Fuong Ank Nguyen"},"message":"Học kanji đi nó cần và quan trọng lắm ạ","can_remove":false,"created_time":"2013-11-29T06:39:38+0000","like_count":0,"user_likes":false},"768335433183136":{"id":"768335433183136","from":{"id":"100006860141377","name":"Gấu Của Hôm Nay"},"message":"Bài 1 giao tiếp","can_remove":false,"created_time":"2013-11-29T06:43:45+0000","like_count":0,"user_likes":false},"768335613183118":{"id":"768335613183118","from":{"id":"100003634822576","name":"Jessica Lam Phuong"},"message":"Học hira và kata xong là đến kanji hả bạn","can_remove":false,"created_time":"2013-11-29T06:44:33+0000","like_count":1,"user_likes":false},"768336699849676":{"id":"768336699849676","from":{"id":"100003634822576","name":"Jessica Lam Phuong"},"message":"Bài giao tiếp sách nào bạn","can_remove":false,"created_time":"2013-11-29T06:48:12+0000","like_count":0,"user_likes":false},"768336943182985":{"id":"768336943182985","from":{"id":"100002947904369","name":"Cường Ace"},"message":"みんなのにほんご","can_remove":false,"created_time":"2013-11-29T06:49:03+0000","like_count":0,"user_likes":false},"768337993182880":{"id":"768337993182880","from":{"id":"100003634822576","name":"Jessica Lam Phuong"},"message":"Minnanonihongo","can_remove":false,"created_time":"2013-11-29T06:52:32+0000","like_count":0,"user_likes":false},"768339483182731":{"id":"768339483182731","from":{"id":"100002947904369","name":"Cường Ace"},"message":"Ukm học sách đó","can_remove":false,"created_time":"2013-11-29T06:56:51+0000","like_count":0,"user_likes":false},"768339816516031":{"id":"768339816516031","from":{"id":"100003634822576","name":"Jessica Lam Phuong"},"message":"Ko học romaji và kanji hả bạn","can_remove":false,"created_time":"2013-11-29T06:58:16+0000","like_count":0,"user_likes":false},"768340783182601":{"id":"768340783182601","from":{"id":"100000467499280","name":"Phạm Tuấn Hải"},"message":"Nếu tự học thì nên học từ vựng chắc kết hợp ngữ pháp cơ bản đã.","can_remove":false,"created_time":"2013-11-29T06:59:35+0000","like_count":1,"user_likes":false},"768343353182344":{"id":"768343353182344","from":{"id":"100003634822576","name":"Jessica Lam Phuong"},"message":"Từ vựng và ngữ pháp cơ bản học trong sách hay ở đâu bạn","can_remove":false,"created_time":"2013-11-29T07:05:16+0000","like_count":0,"user_likes":false},"768347139848632":{"id":"768347139848632","from":{"id":"100003852803358","name":"Ngọc Điệp"},"message":"Trong sách ấy bạn, ngoài ra bạn còn có thể lên youtube xem và học theo các bài giảng cơ bản của giáo trình minna no nihongo hoặc giáo trình shin nihongo no kiso \nÀ tiện cho mình hỏi: Trường mình dạy theo giáo trình shin nihongo no kiso, vậy khi mình học xong cuốn thứ nhất thì trình độ của mình tương đương với N mấy? Và nếu mình học tiếp đến hết cuốn thứ 2 thì trình độ của mình tương đương với N mấy vậy ạ?","can_remove":false,"created_time":"2013-11-29T07:16:37+0000","like_count":0,"user_likes":false},"768348086515204":{"id":"768348086515204","from":{"id":"100000467499280","name":"Phạm Tuấn Hải"},"message":"Cuốn 1 tương đương N5, cuốn 2 tương đường N4","can_remove":false,"created_time":"2013-11-29T07:20:16+0000","like_count":1,"user_likes":false},"768348109848535":{"id":"768348109848535","from":{"id":"100003852803358","name":"Ngọc Điệp"},"message":"À bạn có thể nghe và học theo chương trình này nữa nhé\nhttp://www.nhk.or.jp/lesson/vietnamese/learn/list/","can_remove":false,"created_time":"2013-11-29T07:20:27+0000","like_count":2,"user_likes":false},"768349979848348":{"id":"768349979848348","from":{"id":"100005337850702","name":"Xứ Tuyết"},"message":"Ban nen học ngu phap-tu vung- nghe dia(video)cung hk tu moi va dat cau ban ah","can_remove":false,"created_time":"2013-11-29T07:25:27+0000","like_count":1,"user_likes":false},"768353273181352":{"id":"768353273181352","from":{"id":"100002907524963","name":"Tuyết Yêu Thương"},"message":"bạn mạnh mómém ơiii, làm ơn gửi cho tớ tài liệu cho người mới bắt đầ học với. Ních gmail ciả mình là letuyet1095@gmail.com . Doumo arigatou","can_remove":false,"created_time":"2013-11-29T07:38:04+0000","like_count":0,"user_likes":false},"768353699847976":{"id":"768353699847976","from":{"id":"100003634822576","name":"Jessica Lam Phuong"},"message":"Cảm ơn mn","can_remove":false,"created_time":"2013-11-29T07:39:50+0000","like_count":0,"user_likes":false},"768353996514613":{"id":"768353996514613","from":{"id":"100003634822576","name":"Jessica Lam Phuong"},"message":"vietnamdream2014@gmail.com","can_remove":false,"created_time":"2013-11-29T07:41:31+0000","like_count":0,"user_likes":false},"768362849847061":{"id":"768362849847061","from":{"id":"100003634822576","name":"Jessica Lam Phuong"},"message":"Sách giáo khoa tiếng việt như việt nam hả bạn","can_remove":false,"created_time":"2013-11-29T08:08:28+0000","like_count":0,"user_likes":false},"768374626512550":{"id":"768374626512550","from":{"id":"100004763737953","name":"Fuong Ank Nguyen"},"message":"Có trang nào học kanj có cả âm ôn và âm un k ạ","can_remove":false,"created_time":"2013-11-29T08:37:16+0000","like_count":0,"user_likes":false},"768376113179068":{"id":"768376113179068","from":{"id":"100000691510113","name":"Phu Tran"},"message":"Trang này học kanji nè, có chỉ cách viết: http://lophoctiengnhat.com/index.php?p=chitietbai&id=226","can_remove":false,"created_time":"2013-11-29T08:42:41+0000","like_count":0,"user_likes":false},"768409493175730":{"id":"768409493175730","from":{"id":"100005063707443","name":"Diễm Min"},"message":"Mạnh Mómmém cho mình xin với nhé ,gmail của mình là trandiem0994@gmail.com ,cảm ơn trước ạ","message_tags":[{"id":"100002971492867","name":"Mạnh Mómmém","type":"user","offset":0,"length":11}],"can_remove":false,"created_time":"2013-11-29T10:24:29+0000","like_count":0,"user_likes":false}},"paging":{"cursors":{"after":"NzY4MzM0NDMzMTgzMjM2","before":"NzY4MzM0NDMzMTgzMjM2"},"next":"https://graph.facebook.com/229244010425617_768333403183339/comments?limit=1&summary=1&after=NzY4MzM0NDMzMTgzMjM2"},"summary":{"order":"chronological","total_count":30}}}