{"id":"229244010425617_768497363166943","type":"video","picture":"https://fbexternal-a.akamaihd.net/safe_image.php?d=AQDPbh5jI_xnGJyW&w=130&h=130&url=http%3A%2F%2Fi1.ytimg.com%2Fvi%2FU3UAG6IOF5I%2Fhqdefault.jpg","link":"http://www.youtube.com/watch?v=U3UAG6IOF5I","source":"http://www.youtube.com/v/U3UAG6IOF5I?autohide=1&version=3&autoplay=1","from":{"id":"100000442929887","name":"Mike Yi"},"message":"Có ai đã tham dự chỗ này  ????? Kể nghe có gì ngon ko ????\n\nhttp://www.youtube.com/watch?v=U3UAG6IOF5I","created_time":"2013-11-29T13:42:53+0000","updated_time":"2013-11-30T05:19:28+0000","likes":{"data":{"100003334742630":{"id":"100003334742630","name":"Htl Nhjm"},"100004424702289":{"id":"100004424702289","name":"Long Nguyen"},"100003835631538":{"id":"100003835631538","name":"Tien Loc Pham"},"100003041594915":{"id":"100003041594915","name":"Hoa Cỏ May"},"100005887419564":{"id":"100005887419564","name":"Cười Một Mình"},"100001416272263":{"id":"100001416272263","name":"Mai PB"},"1821970083":{"id":"1821970083","name":"Nguyễn Mạnh Cường"},"100006882392587":{"id":"100006882392587","name":"Vũ Vũ"},"100000960252631":{"id":"100000960252631","name":"Takumi Tuan"},"100001526631937":{"id":"100001526631937","name":"Tường Oanh Mineko"}},"paging":{"cursors":{"after":"MTAwMDAzMzM0NzQyNjMw","before":"MTAwMDAzMzM0NzQyNjMw"},"next":"https://graph.facebook.com/229244010425617_768497363166943/likes?limit=1&summary=1&after=MTAwMDAzMzM0NzQyNjMw"},"summary":{"total_count":11}},"comments":{"data":{"768502939833052":{"id":"768502939833052","from":{"id":"100001526631937","name":"Tường Oanh Mineko"},"message":"a trong này hát hay ghê","can_remove":false,"created_time":"2013-11-29T13:57:10+0000","like_count":1,"user_likes":false},"768504983166181":{"id":"768504983166181","from":{"id":"100000442929887","name":"Mike Yi"},"message":"Người ta hỏi có gì ngon mà...........thấy a đó đẹp trai khen hát hay...........xí xí........kakakaka","can_remove":false,"created_time":"2013-11-29T14:02:12+0000","like_count":0,"user_likes":false},"768507426499270":{"id":"768507426499270","from":{"id":"100001526631937","name":"Tường Oanh Mineko"},"message":":( nhưng e ko thấy đồ ăn sao biết cái gì mà ngon, mặt nhìn còn ko rõ sao biết a đó đẹp trai được hè?","can_remove":false,"created_time":"2013-11-29T14:04:58+0000","like_count":0,"user_likes":false},"768516129831733":{"id":"768516129831733","from":{"id":"100001416272263","name":"Mai PB"},"message":"Bạn nam kia tiếng Nhật khá nhỉ","can_remove":false,"created_time":"2013-11-29T14:20:50+0000","like_count":1,"user_likes":false},"768708239812522":{"id":"768708239812522","from":{"id":"100003644019916","name":"Ơn-Đền Oán-Trả"},"message":"co gai ngon","can_remove":false,"created_time":"2013-11-29T22:43:58+0000","like_count":0,"user_likes":false},"768849189798427":{"id":"768849189798427","from":{"id":"100001416272263","name":"Mai PB"},"message":"Việt tiếng Việt đi bạn Ơn-Đền Oán-Trả, sau đó tùy vào nội dung tiếng Việt đó thế nào mà comment có thể được giữ hoặc bị xóa. :-)","message_tags":[{"id":"100003644019916","name":"Ơn-Đền Oán-Trả","type":"user","offset":23,"length":14}],"can_remove":false,"created_time":"2013-11-30T05:19:28+0000","like_count":1,"user_likes":false}},"paging":{"cursors":{"after":"NzY4NTAyOTM5ODMzMDUy","before":"NzY4NTAyOTM5ODMzMDUy"},"next":"https://graph.facebook.com/229244010425617_768497363166943/comments?limit=1&summary=1&after=NzY4NTAyOTM5ODMzMDUy"},"summary":{"order":"chronological","total_count":6}}}