{"id":"229244010425617_768755726474440","type":"status","from":{"id":"100000359762118","name":"Mi Tra"},"message":"Hôm nay gọi công ty chuyên thiết đặt garage đến lắp cái garage để xe máy. Bác ý bảo gần đây xe máy, máy nông nghiệp bị ăn trộm rất nhiều nên số lượng khách hàng tăng lên rất nhiều. Trước kia thủ phạm là người TQ nhiều nhưng gần đây nghe đâu toàn là người VN. Mặt mình đơ luôn ko dám thú nhận \"Tôi là người Việt Nam\"  :(((((((","created_time":"2013-11-30T00:57:12+0000","updated_time":"2013-11-30T10:13:31+0000","likes":{"data":{"100004253979918":{"id":"100004253979918","name":"Louis Hoàng Văn Thái"},"1305472811":{"id":"1305472811","name":"Tuan Nguyen"},"100001416272263":{"id":"100001416272263","name":"Mai PB"},"100001526631937":{"id":"100001526631937","name":"Tường Oanh Mineko"},"100003055356509":{"id":"100003055356509","name":"Thuan Nguyen"},"1821970083":{"id":"1821970083","name":"Nguyễn Mạnh Cường"},"100001920547218":{"id":"100001920547218","name":"Chester Nguyễn"},"1023965040":{"id":"1023965040","name":"Juli KimChi"},"100005690740678":{"id":"100005690740678","name":"Bui Thanh Tung"},"657157297":{"id":"657157297","name":"Phan Dien"},"100004362480675":{"id":"100004362480675","name":"Đi Tìm Thất Bại"},"100003828118579":{"id":"100003828118579","name":"Khanh Linh"},"701545698":{"id":"701545698","name":"Ha Phong"},"792083330":{"id":"792083330","name":"Duc Le"},"100000659425505":{"id":"100000659425505","name":"Nguyen Thanh Tung"},"1060893770":{"id":"1060893770","name":"Hyhy Zui Zẻ"},"100001359798024":{"id":"100001359798024","name":"November Gi"},"100006860141377":{"id":"100006860141377","name":"Gấu Của Hôm Nay"},"100002793054191":{"id":"100002793054191","name":"Lai Vuong"},"100004360751785":{"id":"100004360751785","name":"Hà Nguyễn"},"100001458099624":{"id":"100001458099624","name":"Kham Pha"},"1094162178":{"id":"1094162178","name":"Ngô Vũ Hoàng"},"100000133587536":{"id":"100000133587536","name":"Mei Ki"},"100001579421234":{"id":"100001579421234","name":"Lương Đức Bảo"},"100005801442456":{"id":"100005801442456","name":"An Nguyen"}},"paging":{"cursors":{"after":"MTAwMDA0MjUzOTc5OTE4","before":"MTAwMDA0MjUzOTc5OTE4"},"next":"https://graph.facebook.com/229244010425617_768755726474440/likes?limit=1&summary=1&after=MTAwMDA0MjUzOTc5OTE4"},"summary":{"total_count":28}},"comments":{"data":{"768756736474339":{"id":"768756736474339","from":{"id":"1813611352","name":"To Đùng"},"message":"...","can_remove":false,"created_time":"2013-11-30T01:00:23+0000","like_count":0,"user_likes":false},"768757476474265":{"id":"768757476474265","from":{"id":"100002874387018","name":"SơnTùng Vũ"},"message":"Người ta nói thế, mình cứ nhận mình là người Việt Nam chứ có sao đâu. Hì. Ngươif nước nào, ở đâu, thời kỳ nào cũng có người tốt, người xấu cả thôi. Ko nên phân biệt như thế. Mình luôn tự hào mình là người Việt Nam! Người ta đánh giá mình thế nào là do hành động, lời nói, việc làm của mình thôi. Ko phải do mình là người Việt Nam mà người ta đánh giá xấu mình. Hì. Cảm ơn Mi Tra vì giúp mình câu hỏi hôm trước nhé. ありがとうございました。","can_remove":false,"created_time":"2013-11-30T01:02:52+0000","like_count":11,"user_likes":false},"768758023140877":{"id":"768758023140877","from":{"id":"100000359762118","name":"Mi Tra"},"message":"Hị. Biết vậy nhưng mà bất ngờ đến đơ luôn, ko mở miệng nói được gì nữa :((((","can_remove":false,"created_time":"2013-11-30T01:04:43+0000","like_count":2,"user_likes":false},"768761706473842":{"id":"768761706473842","from":{"id":"100001720081525","name":"Diện Kun"},"message":"Theo mình nghĩ bạn nên nhận mình là người việt nam. Bởi sao, nếu không có những người tốt như bạn thì họ sẽ nghĩ việt nam toàn kẻ ăn trộm, ăn cắp.","can_remove":false,"created_time":"2013-11-30T01:15:58+0000","like_count":14,"user_likes":false},"768762566473756":{"id":"768762566473756","from":{"id":"100005801442456","name":"An Nguyen"},"message":"Diện Kun: nói 1 câu hay thật! Nghĩ không ra được câu như vậy!(-_-)","can_remove":false,"created_time":"2013-11-30T01:19:13+0000","like_count":6,"user_likes":false},"768764533140226":{"id":"768764533140226","from":{"id":"100006860141377","name":"Gấu Của Hôm Nay"},"message":"Diện Kun hay quá anh ơi. Tự hào TÔI LÀ NGƯỜI VIỆT NAM.","message_tags":[{"id":"100001720081525","name":"Diện Kun","type":"user","offset":0,"length":8}],"can_remove":false,"created_time":"2013-11-30T01:25:20+0000","like_count":4,"user_likes":false},"768767859806560":{"id":"768767859806560","from":{"id":"100000442929887","name":"Mike Yi"},"message":"chuyện nhỏ mà......giống mình ghê","can_remove":false,"created_time":"2013-11-30T01:35:25+0000","like_count":1,"user_likes":false},"768768873139792":{"id":"768768873139792","from":{"id":"1717530880","name":"Triệu Việt Cường"},"message":"Mình mà gặp tình huống đó có lẽ cũng thấy hơi ngại. Nhưng sẽ vẫn nhận là người Việt và thay mặt người Việt xin lỗi đối phương vì những việc đáng tiếc đó.","can_remove":false,"created_time":"2013-11-30T01:38:06+0000","like_count":7,"user_likes":false},"768778809805465":{"id":"768778809805465","from":{"id":"100000359762118","name":"Mi Tra"},"message":"Cảm ơn các bạn. Mình đã học thêm được cách ứng xử cho những tình huống như thế này (^з^)-☆","can_remove":false,"created_time":"2013-11-30T02:09:24+0000","like_count":2,"user_likes":false},"768780216471991":{"id":"768780216471991","from":{"id":"100002524534460","name":"Trương Thiện"},"message":"Buon nhi.","can_remove":false,"created_time":"2013-11-30T02:14:09+0000","like_count":0,"user_likes":false},"768827203133959":{"id":"768827203133959","from":{"id":"100000959416590","name":"Yuki Nguyen"},"message":"Xau ho cho ng vn wa.dug la con sau lam rau noi canh ma","can_remove":false,"created_time":"2013-11-30T04:12:47+0000","like_count":0,"user_likes":false},"768827313133948":{"id":"768827313133948","from":{"id":"100005931451877","name":"Hồ Quốc Toản"},"message":"Là em thì e nói biết đâu người trung quốc giả làm người việt :3. Chứ nếu không sao biết được thủ phạm là người Việt.","can_remove":false,"created_time":"2013-11-30T04:13:21+0000","like_count":0,"user_likes":false},"768827429800603":{"id":"768827429800603","from":{"id":"100005931451877","name":"Hồ Quốc Toản"},"message":"Và nếu nói nhìn mà biết thì nhìn c chắc cũng biết c là người Viêt mình :)","can_remove":false,"created_time":"2013-11-30T04:13:45+0000","like_count":0,"user_likes":false},"768828353133844":{"id":"768828353133844","from":{"id":"100000359762118","name":"Mi Tra"},"message":"Yuki Nguyễn: đúng là con sâu bỏ rầu nồi canh. :( \nP/s: quy định của diễn đàn là viết tiếng Việt có dấu nên bạn sửa lại cmt nha <3","can_remove":false,"created_time":"2013-11-30T04:16:13+0000","like_count":1,"user_likes":false},"768828666467146":{"id":"768828666467146","from":{"id":"100000359762118","name":"Mi Tra"},"message":"Toan Ho: thì báo chí đưa tin người Việt đầy rẫy ra mà. \nHọ nhìn mặt mình họ chỉ biết là ng nc ngoài thui :(","can_remove":false,"created_time":"2013-11-30T04:17:47+0000","like_count":0,"user_likes":false},"768853469797999":{"id":"768853469797999","from":{"id":"1283298041","name":"Búa Đức Thanh"},"message":"Công nhận bạn Diện Kun phát biểu hay . :)\nThanh có từng nghe ở đâu đó nói, đại ý rằng, không cần phải tự hào vì mình là người VN, nên tự hào vì những thứ chính mình tạo ra hơn là những thứ hoặc là giá trị mơ hồ, hoặc là do người khác làm chứ ko phải mình làm. Bên cạnh đó, không phải là tự hào, mà tự thân thay đổi để cố gắng sống tốt hon, bảo vệ và nâng tầm cho cái \" danh dự VN\" đó, thay vì tự hào không cơ sở.","can_remove":false,"created_time":"2013-11-30T05:34:42+0000","like_count":3,"user_likes":false},"768856849797661":{"id":"768856849797661","from":{"id":"100003512537236","name":"Nguyen Phu Dang"},"message":":'(.....","can_remove":false,"created_time":"2013-11-30T05:48:55+0000","like_count":0,"user_likes":false},"768857619797584":{"id":"768857619797584","from":{"id":"100001416272263","name":"Mai PB"},"message":"Tự hào không phải là điều cần lên gân một cách duy ý chí từ một phía chúng ta. Người Nhật họ có nói \"tôi tự hào là người Nhật\" mà thế giới kính nể họ đâu. Ấn tượng xấu hay tốt đều được tạo ra từ hành động của người Việt, không phải đến từ tên đất nước Việt Nam. Ngược lại là khác, từ đầu thì VN luôn tạo hình tượng tốt với người Nhật. Bây giờ các bạn VN cứ thái độ tốt, hòa nhã, học tốt, giúp đỡ người khác, ăn mặc sạch sẽ đi, khi đó sẽ nói \"tôi là người VN\" được một cách tự nhiên thôi.","can_remove":false,"created_time":"2013-11-30T05:51:59+0000","like_count":4,"user_likes":false},"768934386456574":{"id":"768934386456574","from":{"id":"100005011088753","name":"Tĩnh Trịnh"},"message":"Có thể bạn ngồi đây, đọc những dòng tâm sự này và nghĩ cần phải làm gì đó để có thể tự hào nói ra: Tôi là người Việt Nam. Nhưng ngược lại có những người phó mặc tên tuổi Việt Nam cho nó trôi, nó dạt... Vùi dập những nét đẹp vốn có của người Việt. Để rồi khi nhắc đến Vn ánh mắt của bạn bè Quốc tế có sự thay đổi đáng kể. Phải nhìn vào thực tế và thực hiện bằng hành động mọi người à!","can_remove":false,"created_time":"2013-11-30T10:13:31+0000","like_count":1,"user_likes":false}},"paging":{"cursors":{"after":"NzY4NzU2NzM2NDc0MzM5","before":"NzY4NzU2NzM2NDc0MzM5"},"next":"https://graph.facebook.com/229244010425617_768755726474440/comments?limit=1&summary=1&after=NzY4NzU2NzM2NDc0MzM5"},"summary":{"order":"chronological","total_count":19}}}