{"id":"229244010425617_768896089793737","type":"link","picture":"https://fbexternal-a.akamaihd.net/safe_image.php?d=AQBkcenc34KyGiaG&w=154&h=154&url=http%3A%2F%2Fsingo.jiyu.co.jp%2Fnominate%2F..%2Fimages%2Flogo%2Fnominate_logo2013.gif","link":"http://singo.jiyu.co.jp/nominate/nominate2013.html","from":{"id":"100001416272263","name":"Mai PB"},"message":"Sắp cuối năm, nước Nhật có nhiều hình thức tổng kết 1 năm đi qua. Các hình thức này rất phong phú chứ không chỉ là \"bình bầu của các nhà báo về các sự kiện chính trị xã hội\" hoặc \"ca sĩ của năm\". Ví dụ: \n- Ca nhạc thì có sự kiện NHK紅白歌合戦 Kouhaku-uta-gassen, tụ tập các ca sĩ mới cũ có hoạt động nổi trội trong năm, trình diễn live vào 7:30 tối ngày 31/12 hàng năm (sẽ có bài riêng về sự kiện này sau). Ngoài ra còn vài cuộc bình chọn ca nhạc nổi tiếng khác nữa tập trung cho giới trẻ, giới già các kiểu...\n- Bình chọn các sản phẩm dân dụng của năm, chia đông tây như là hình thức đấu võ sumo vậy. Tức là cùng một hạng 10 sẽ có 10 của Đông và 10 của Tây ngang ngửa nhau, dần dần lên đến hạng 1 của Đông và hạng 1 của Tây là hai sản phẩm Yokozuna (dùng title của thứ hạng cao nhất của lực sĩ sumo). Cũng chẳng phải là cho Đông Tây đấu với nhau đâu, nhưng hình thức này thú vị ở chỗ đồng hạng sẽ có 2 sản phẩm thay vì chỉ 1 mà thôi.\n- Bình chọn người mặc quần jean đẹp nhất, mặc kimono đẹp nhất, đeo kính hợp nhất, thời trang thanh lịch nhất trong các người nổi tiếng...\n- Tên trẻ em trai, gái được đặt nhiều nhất trong năm. Thường thì hay được đặt theo tên người nổi tiếng hoặc theo thời cuộc.\n...\nNhưng một sự kiện thú vị nhất theo mình, là bình chọn \"câu nói phổ biến trong năm\" 今年の流行語 Kotoshino-ryuukougo. Các câu nói này sau này đều được đưa vào từ điển từ mới cả. Năm nay các \"ứng cử viên\" là như sau, trong đó có các từ mà thế giới cũng biết:  Abenomics, hoặc ngay cả du học sinh cũng nghe nhiều như là 今でしょ imadesho.\n....\nAd cũng có 1 câu bon chen cho Việt Nam:\n\nTrông mày như đại biểu quốc hội!\n\n:-)\n\nhttp://singo.jiyu.co.jp/nominate/nominate2013.html","created_time":"2013-11-30T07:59:11+0000","updated_time":"2013-11-30T14:46:59+0000","likes":{"data":{"100001338846010":{"id":"100001338846010","name":"Sơn Nguyễn Minh"},"569263718":{"id":"569263718","name":"Phuong Thao Tran"},"1146680551":{"id":"1146680551","name":"優しい なぁ"},"100002589963683":{"id":"100002589963683","name":"Hà Văn Tuấn"},"1629517470":{"id":"1629517470","name":"Nguyen Thi Thanh Van"},"1250063068":{"id":"1250063068","name":"Tuấn Tử Tế"},"1283298041":{"id":"1283298041","name":"Búa Đức Thanh"},"100001848885057":{"id":"100001848885057","name":"Tiểu Mỡ Nhi"},"1318895018":{"id":"1318895018","name":"Van T Tran"},"657157297":{"id":"657157297","name":"Phan Dien"},"100001526631937":{"id":"100001526631937","name":"Tường Oanh Mineko"},"100001458099624":{"id":"100001458099624","name":"Kham Pha"},"100002793054191":{"id":"100002793054191","name":"Lai Vuong"},"100001754136107":{"id":"100001754136107","name":"Nguyễn Tuấn Vũ"},"100004246931935":{"id":"100004246931935","name":"Nga Tũn"},"1821970083":{"id":"1821970083","name":"Nguyễn Mạnh Cường"},"100004398330290":{"id":"100004398330290","name":"Lam Linh"},"1816269439":{"id":"1816269439","name":"Dao Ngoc"},"1023965040":{"id":"1023965040","name":"Juli KimChi"},"1845000884":{"id":"1845000884","name":"Trieu Thi Kieu Oanh"},"100003762427351":{"id":"100003762427351","name":"Hiroshi Yasu Oki"}},"paging":{"cursors":{"after":"MTAwMDAxMzM4ODQ2MDEw","before":"MTAwMDAxMzM4ODQ2MDEw"},"next":"https://graph.facebook.com/229244010425617_768896089793737/likes?limit=1&summary=1&after=MTAwMDAxMzM4ODQ2MDEw"},"summary":{"total_count":23}},"comments":{"data":{"768898236460189":{"id":"768898236460189","from":{"id":"100006860141377","name":"Gấu Của Hôm Nay"},"message":"Cái này chả liên quan đến dân thường như em","can_remove":false,"created_time":"2013-11-30T08:05:06+0000","like_count":0,"user_likes":false},"768934516456561":{"id":"768934516456561","from":{"id":"1821970083","name":"Nguyễn Mạnh Cường"},"message":"thường dân như mình cũng thấy thú vị mà :D Trông mày như đại biểu quốc hội là sao anh ??","can_remove":false,"created_time":"2013-11-30T10:13:54+0000","like_count":0,"user_likes":false},"768938526456160":{"id":"768938526456160","from":{"id":"100006368081099","name":"Man Thu"},"message":"Ad có câu chất quá,ứng cử đi ad","can_remove":false,"created_time":"2013-11-30T10:29:26+0000","like_count":1,"user_likes":false},"768947416455271":{"id":"768947416455271","from":{"id":"100001458099624","name":"Kham Pha"},"message":"thâm :)","can_remove":false,"created_time":"2013-11-30T11:02:54+0000","like_count":0,"user_likes":false},"768956149787731":{"id":"768956149787731","from":{"id":"100001526631937","name":"Tường Oanh Mineko"},"message":"chưa hiểu được câu của ad, abenomics là gì vậy ah?","can_remove":false,"created_time":"2013-11-30T11:32:46+0000","like_count":0,"user_likes":false},"768957046454308":{"id":"768957046454308","from":{"id":"1821970083","name":"Nguyễn Mạnh Cường"},"message":"theo câu thâm của Kham Pha và những gì anh Mai PB post thì em hiểu là dân đen cũng có thể làm đại biểu, à ko bọn khốn nạn thì chuẩn hơn, mày cơ mà","message_tags":[{"id":"100001458099624","name":"Kham Pha","type":"user","offset":18,"length":8},{"id":"100001416272263","name":"Mai PB","type":"user","offset":43,"length":6}],"can_remove":false,"created_time":"2013-11-30T11:34:32+0000","like_count":0,"user_likes":false},"768957763120903":{"id":"768957763120903","from":{"id":"100001526631937","name":"Tường Oanh Mineko"},"message":"e hiểu thì \" mày\" = \" đại biểu quốc hội \", tạm hiểu là vậy","can_remove":false,"created_time":"2013-11-30T11:36:55+0000","like_count":0,"user_likes":false},"768958646454148":{"id":"768958646454148","from":{"id":"100001416272263","name":"Mai PB"},"message":"He he, khó hiểu quá hả? :-)  Đó là vì sau hôm qua quốc hội đồng lòng với bản Hiến pháp mới bất chấp dân bất mãn, nên có vẻ đang có phong trào chế câu chữ về ĐBQH đó mà. Vậy nên nếu thành công thì câu nói trên cũng có thể trở thành 流行語 (ngầm) được.","can_remove":false,"created_time":"2013-11-30T11:40:19+0000","like_count":2,"user_likes":false},"768959086454104":{"id":"768959086454104","from":{"id":"100001416272263","name":"Mai PB"},"message":"Man Thu đang định đi ứng cử cho đảng Cộng Đồng Việt Nhật mà giờ hết đường rồi. :-D","message_tags":[{"id":"100006368081099","name":"Man Thu","type":"user","offset":0,"length":7}],"can_remove":false,"created_time":"2013-11-30T11:41:36+0000","like_count":1,"user_likes":false},"768981829785163":{"id":"768981829785163","from":{"id":"1283298041","name":"Búa Đức Thanh"},"message":"- Khi nào bỏ phiếu thuận?\n- 今でしょ","can_remove":false,"created_time":"2013-11-30T12:47:02+0000","like_count":4,"user_likes":false},"769038326446180":{"id":"769038326446180","from":{"id":"1023965040","name":"Juli KimChi"},"message":"Thêm câu \"nhảy múa như giá xăng\" nữa anh.","can_remove":false,"created_time":"2013-11-30T14:46:59+0000","like_count":0,"user_likes":false}},"paging":{"cursors":{"after":"NzY4ODk4MjM2NDYwMTg5","before":"NzY4ODk4MjM2NDYwMTg5"},"next":"https://graph.facebook.com/229244010425617_768896089793737/comments?limit=1&summary=1&after=NzY4ODk4MjM2NDYwMTg5"},"summary":{"order":"chronological","total_count":11}}}