{"id":"229244010425617_768960696453943","type":"photo","object_id":"1388135388100394","picture":"https://fbcdn-photos-c-a.akamaihd.net/hphotos-ak-ash3/t1.0-0/1459327_1388135388100394_91839319_s.jpg","link":"https://www.facebook.com/photo.php?fbid=1388135388100394&set=gm.768960696453943&type=1&relevant_count=1","from":{"id":"100007118382361","name":"Hoàng Anh"},"message":"[Xin phép ad thông tin này có thế giúp ích cho 1 số thành viên trong nhóm!!]\nBạn muốn học tiếng Nhật?\nBạn muốn trau dồi thêm tiếng Nhật, bạn muốn tìm hiểu thêm về đất nước mặt trời mọc ?\nVà bạn đang tìm 1 trung tâm uy tín để học?\n\nHãy đến với TRUNG TÂM TIẾNG NHẬT SOFL. Với sự nỗ lực, cố gắng, lòng yêu nghề và sự đầu tư, chúng tôi cam kết sẽ tạo điều kiện tốt nhất cho các học viên..\nCác bạn đăng kí để nhận được nhiều sự ưu đãi của trung tâm nhé!!!\nChi tiết liên hệ website:http://trungtamnhatngu.edu.vn/","created_time":"2013-11-30T11:47:05+0000","updated_time":"2013-11-30T12:48:33+0000","comments":{"data":{"768962236453789":{"id":"768962236453789","from":{"id":"100003866609108","name":"Thế Béo"},"message":"日本語です","can_remove":false,"created_time":"2013-11-30T11:52:28+0000","like_count":0,"user_likes":false},"768962263120453":{"id":"768962263120453","from":{"id":"100003866609108","name":"Thế Béo"},"message":"好きですね","can_remove":false,"created_time":"2013-11-30T11:52:39+0000","like_count":1,"user_likes":false},"768982286451784":{"id":"768982286451784","from":{"id":"100002167604860","name":"Kjm Jun Kj"},"message":"Gấm Gấu","message_tags":[{"id":"100003600538081","name":"Gấm Gấu","type":"user","offset":0,"length":7}],"can_remove":false,"created_time":"2013-11-30T12:48:33+0000","like_count":0,"user_likes":false}},"paging":{"cursors":{"after":"NzY4OTYyMjM2NDUzNzg5","before":"NzY4OTYyMjM2NDUzNzg5"},"next":"https://graph.facebook.com/229244010425617_768960696453943/comments?limit=1&summary=1&after=NzY4OTYyMjM2NDUzNzg5"},"summary":{"order":"chronological","total_count":3}},"likes":{"data":[]}}