{"id":"229244010425617_769189269764419","type":"photo","object_id":"10202033317449864","picture":"https://fbcdn-photos-h-a.akamaihd.net/hphotos-ak-ash4/t1.0-0/1451419_10202033317449864_1462338929_s.jpg","link":"https://www.facebook.com/photo.php?fbid=10202033317449864&set=gm.769189269764419&type=1&relevant_count=1","from":{"id":"1094162178","name":"Ngô Vũ Hoàng"},"message":"các bạn có xe đạp ở Nhật chú ý nhé, từ hôm nay 1/12 có sự thay đổi luật dành cho người đi xe đạp, cấm đi bên phải, phải đi về phía bên trái dưới lòng đường cùng chiều với ô tô. vi phạm có thể bị phạt 5man, gây tai nạn có thể đi cải tạo đến 3 tháng\nhttp://m.huffpost.com/jp/entry/4362926","created_time":"2013-11-30T20:40:55+0000","updated_time":"2013-12-01T08:00:34+0000","likes":{"data":{"1816269439":{"id":"1816269439","name":"Dao Ngoc"},"100005387051072":{"id":"100005387051072","name":"Nguyễn Vinh Việt"},"100001723862714":{"id":"100001723862714","name":"Bo Bien Vang"},"100002871405403":{"id":"100002871405403","name":"Thach Sanh"},"100001325163284":{"id":"100001325163284","name":"Nguyễn Thịnh"},"1821970083":{"id":"1821970083","name":"Nguyễn Mạnh Cường"},"100003964148786":{"id":"100003964148786","name":"Nịnh Văn Vũ"},"100001416272263":{"id":"100001416272263","name":"Mai PB"},"100005734902825":{"id":"100005734902825","name":"Khổng Hằng"},"100003171672878":{"id":"100003171672878","name":"Tầu Heo"},"100004360751785":{"id":"100004360751785","name":"Hà Nguyễn"},"100004303569394":{"id":"100004303569394","name":"Le Trungtin"},"100001318098340":{"id":"100001318098340","name":"Trang Anh"},"100003275316456":{"id":"100003275316456","name":"Tiểu Màn Thầu"},"100005145330760":{"id":"100005145330760","name":"Sơn Vũ"},"657157297":{"id":"657157297","name":"Phan Dien"},"100001754136107":{"id":"100001754136107","name":"Nguyễn Tuấn Vũ"},"1340056952":{"id":"1340056952","name":"Nguyễn Nhật Minh"},"100003011873382":{"id":"100003011873382","name":"Hiên Nguyễn"},"100005801442456":{"id":"100005801442456","name":"An Nguyen"},"100001697784684":{"id":"100001697784684","name":"Ganba Tan"},"100002421205294":{"id":"100002421205294","name":"Nghèo Kệ Tôi"},"1305472811":{"id":"1305472811","name":"Tuan Nguyen"},"1283298041":{"id":"1283298041","name":"Búa Đức Thanh"},"1026780646":{"id":"1026780646","name":"Việt Hưng Khổng"},"100005222737414":{"id":"100005222737414","name":"Angle Kiss"},"100001617216740":{"id":"100001617216740","name":"Peter Nguyễn"},"100001547664083":{"id":"100001547664083","name":"Đặng Việt Dũng"},"1252017053":{"id":"1252017053","name":"Minh Pham"}},"paging":{"cursors":{"after":"MTgxNjI2OTQzOQ==","before":"MTgxNjI2OTQzOQ=="},"next":"https://graph.facebook.com/229244010425617_769189269764419/likes?limit=1&summary=1&after=MTgxNjI2OTQzOQ%3D%3D"},"summary":{"total_count":30}},"comments":{"data":{"769263263090353":{"id":"769263263090353","from":{"id":"100001580479641","name":"Hà Xuân Thủy"},"message":"Ko phải ba năm mà là ba tháng bạn ah","can_remove":false,"created_time":"2013-12-01T00:12:51+0000","like_count":2,"user_likes":false},"769280089755337":{"id":"769280089755337","from":{"id":"100000264801587","name":"Nguyễn Đình Toàn"},"message":"Phải đi trên vỉa hè hả bạn, mình vẫn đi bên trái nhưg toàn phi xuống đường oto đi nép vào lề. Đi trên viả hè toàn mấy ông bà già điếc, đi đã chậm lại lù lù giữa đường .. !!!","can_remove":false,"created_time":"2013-12-01T00:49:11+0000","like_count":0,"user_likes":false},"769281103088569":{"id":"769281103088569","from":{"id":"100005646341173","name":"Quốc Phương"},"message":"ありがとうございます","can_remove":false,"created_time":"2013-12-01T00:51:36+0000","like_count":0,"user_likes":false},"769308196419193":{"id":"769308196419193","from":{"id":"100003275316456","name":"Tiểu Màn Thầu"},"message":"Đại Màn Thầu: a ơi,đọc kĩ nhé","message_tags":[{"id":"100004479192798","name":"Đại Màn Thầu","type":"user","offset":0,"length":12}],"can_remove":false,"created_time":"2013-12-01T02:08:32+0000","like_count":0,"user_likes":false},"769478939735452":{"id":"769478939735452","from":{"id":"1580589258","name":"Kani Oboeru"},"message":"minh dang thac mac, vay co duoc quay dau xe giua duong nhu oto ko?","can_remove":false,"created_time":"2013-12-01T08:00:34+0000","like_count":0,"user_likes":false}},"paging":{"cursors":{"after":"NzY5MjYzMjYzMDkwMzUz","before":"NzY5MjYzMjYzMDkwMzUz"},"next":"https://graph.facebook.com/229244010425617_769189269764419/comments?limit=1&summary=1&after=NzY5MjYzMjYzMDkwMzUz"},"summary":{"order":"chronological","total_count":5}}}