{"id":"229244010425617_769158226434190","type":"photo","object_id":"667937779894875","picture":"https://fbcdn-photos-d-a.akamaihd.net/hphotos-ak-frc3/t1.0-0/1424561_667937779894875_1199086655_s.jpg","link":"https://www.facebook.com/photo.php?fbid=667937779894875&set=gm.769158226434190&type=1&relevant_count=1","from":{"id":"100000359762118","name":"Mi Tra"},"message":"Các bạn chú ý! \nLần trước anh Mai PB cũng đã có nhắc rằng Luật dành cho người điều khiển xe đạp đã được thay đổi. \nBắt đầu từ hôm nay, ngày  1/ 12 /2013, CẤM XE ĐẠP CHẠY BÊN PHẢI, chỉ được phép chạy dưới lòng đường phía bên trái (cùng chiều với xe ô tô, xe máy). \nNếu vi phạm sẽ bị phạt tù dưới 3 tháng hoặc phạt tiền dưới 50,000yen. \nTheo nguyên tắc thì phải chạy dưới lòng đường, làn đường dành cho xe đạp hoặc trên vỉa hè có biển dành cho người đi bộ và xe đạp. Tuy nhiên, với trẻ nhỏ thì sẽ có thay đổi đôi chút về quy định.\nLuật này đã được phổ biến rộng rãi trên truyền thông, báo chí nên người vi phạm không thể chối rằng \"tôi không biết\". \nTất cả mọi người hãy chú ý tuân thủ và chia sẻ điều này cho bạn bè của mình nữa nhé! \nTham khảo link tiếng nhật tại đây: http://rocketnews24.com/2013/11/29/392215/","created_time":"2013-11-30T19:10:16+0000","updated_time":"2013-12-01T16:09:04+0000","likes":{"data":{"100005245024552":{"id":"100005245024552","name":"Bá Đạo"},"100001285247599":{"id":"100001285247599","name":"Hoa Trần"},"100000328742646":{"id":"100000328742646","name":"Trần Giáp"},"569263718":{"id":"569263718","name":"Phuong Thao Tran"},"100001723862714":{"id":"100001723862714","name":"Bo Bien Vang"},"1824015127":{"id":"1824015127","name":"Bùi Quang Tân"},"100001848885057":{"id":"100001848885057","name":"Tiểu Mỡ Nhi"},"1148962646":{"id":"1148962646","name":"Tran Thi Tuong Van"},"1733088155":{"id":"1733088155","name":"Lynn Kunz"},"100004965272241":{"id":"100004965272241","name":"Cỏ Nhỏ"},"100002262262717":{"id":"100002262262717","name":"Quả Táo Mèo"},"100002088790567":{"id":"100002088790567","name":"Phù Du"},"100001526631937":{"id":"100001526631937","name":"Tường Oanh Mineko"},"100001695345798":{"id":"100001695345798","name":"Tyn Aki"},"100004253979918":{"id":"100004253979918","name":"Louis Hoàng Văn Thái"},"100004085557922":{"id":"100004085557922","name":"Let's Try"},"100002989231451":{"id":"100002989231451","name":"Nguyen Son Ha"},"100003847784996":{"id":"100003847784996","name":"Máu Chảy Về Tim"},"100001606380276":{"id":"100001606380276","name":"Phan Đức Thái"},"100001887921127":{"id":"100001887921127","name":"Kata Apple"},"1846809835":{"id":"1846809835","name":"Dorae Phương"},"1416265619":{"id":"1416265619","name":"Starwar Bbj"},"1139171742":{"id":"1139171742","name":"Duy Thanh"},"100002958180210":{"id":"100002958180210","name":"Kusa Aki"},"100003780948776":{"id":"100003780948776","name":"Sâu Đặng"},"100001318098340":{"id":"100001318098340","name":"Trang Anh"},"100003823008938":{"id":"100003823008938","name":"Rám Nắng"},"100000070752758":{"id":"100000070752758","name":"Yen Panda"},"100001416272263":{"id":"100001416272263","name":"Mai PB"},"100001043501222":{"id":"100001043501222","name":"Bẩy Chấy"},"745565751":{"id":"745565751","name":"Tuyen Hoang Thi"},"100001754136107":{"id":"100001754136107","name":"Nguyễn Tuấn Vũ"},"100000045271667":{"id":"100000045271667","name":"Nam Thai Nguyen"},"1060893770":{"id":"1060893770","name":"Hyhy Zui Zẻ"},"100004776940538":{"id":"100004776940538","name":"Kendy Lee"},"1782985626":{"id":"1782985626","name":"Nguyễn Thế Quân"},"100006716918619":{"id":"100006716918619","name":"Ốc Tiêu"},"1821970083":{"id":"1821970083","name":"Nguyễn Mạnh Cường"},"100005211189763":{"id":"100005211189763","name":"Oliveu Cchann"},"100003049639881":{"id":"100003049639881","name":"Truong Luvuxy"},"100005703791922":{"id":"100005703791922","name":"Hoa Tiên Tử"},"100002508122689":{"id":"100002508122689","name":"Vũ Mạnh Tuấn"},"100002331012304":{"id":"100002331012304","name":"Bao Khuyen"},"1146680551":{"id":"1146680551","name":"優しい なぁ"},"100002120720024":{"id":"100002120720024","name":"Yuji Tokunaga"},"1305472811":{"id":"1305472811","name":"Tuan Nguyen"},"100001855573058":{"id":"100001855573058","name":"Vkl DG"},"100003933466469":{"id":"100003933466469","name":"Phong Aki"},"100002421205294":{"id":"100002421205294","name":"Nghèo Kệ Tôi"},"1283298041":{"id":"1283298041","name":"Búa Đức Thanh"},"100004881932416":{"id":"100004881932416","name":"Anhđưataygiữlấy Nhữngnắmtrotànembỏlại"},"100005222737414":{"id":"100005222737414","name":"Angle Kiss"},"100003828118579":{"id":"100003828118579","name":"Khanh Linh"},"100001547664083":{"id":"100001547664083","name":"Đặng Việt Dũng"},"100001458099624":{"id":"100001458099624","name":"Kham Pha"},"100005620957314":{"id":"100005620957314","name":"Nguyễn Trọng Thái"},"100005801442456":{"id":"100005801442456","name":"An Nguyen"},"100002874387018":{"id":"100002874387018","name":"SơnTùng Vũ"},"100003775274952":{"id":"100003775274952","name":"Masahiro Kano"},"100001219170314":{"id":"100001219170314","name":"天丼"}},"paging":{"cursors":{"after":"MTAwMDA1MjQ1MDI0NTUy","before":"MTAwMDA1MjQ1MDI0NTUy"},"next":"https://graph.facebook.com/229244010425617_769158226434190/likes?limit=1&summary=1&after=MTAwMDA1MjQ1MDI0NTUy"},"summary":{"total_count":61}},"comments":{"data":{"769169229766423":{"id":"769169229766423","from":{"id":"100002874387018","name":"SơnTùng Vũ"},"message":"Ko được đi trên vỉa hè sao?","can_remove":false,"created_time":"2013-11-30T19:42:33+0000","like_count":0,"user_likes":false},"769271556422857":{"id":"769271556422857","from":{"id":"100001419373261","name":"Ngọc Long"},"message":"từ trước đến nay luật này vẫn thế có thay đổi gì đâu, lúc nào cũng đi bộ và xe đạp đi bên trái!","can_remove":false,"created_time":"2013-12-01T00:31:16+0000","like_count":0,"user_likes":false},"769274616422551":{"id":"769274616422551","from":{"id":"100000359762118","name":"Mi Tra"},"message":"Ngọc Long:  Trước thì theo nguyên tắc là vậy nhưng không áp dụng khung hình phạt.","message_tags":[{"id":"100001419373261","name":"Ngọc Long","type":"user","offset":0,"length":9}],"can_remove":false,"created_time":"2013-12-01T00:36:50+0000","like_count":0,"user_likes":false},"769276053089074":{"id":"769276053089074","from":{"id":"100000442929887","name":"Mike Yi"},"message":"đi xe đạp chi cho nó mệt.....kaka.Đi bộ nó ngọ hơn đi xe.","can_remove":false,"created_time":"2013-12-01T00:39:38+0000","like_count":0,"user_likes":false},"769276473089032":{"id":"769276473089032","from":{"id":"100001419373261","name":"Ngọc Long"},"message":"thì ra là chỉ thay đổi mức giá phạt thôi! :) Long hiểu rồi!","can_remove":false,"created_time":"2013-12-01T00:40:30+0000","like_count":1,"user_likes":false},"769276696422343":{"id":"769276696422343","from":{"id":"100000359762118","name":"Mi Tra"},"message":"SơnTùng Vũ: theo nguyên tắc thì phải chạy dưới lòng đường, làn đường dành cho xe đạp hoặc trên vỉa hè có biển dành cho người đi bộ và xe đạp. Tuy nhiên, với trẻ nhỏ thì sẽ có thay đổi đôi chút về quy định.","can_remove":false,"created_time":"2013-12-01T00:40:46+0000","like_count":0,"user_likes":false},"769278223088857":{"id":"769278223088857","from":{"id":"100003184926813","name":"Linh Ta"},"message":"a kienp","can_remove":false,"created_time":"2013-12-01T00:45:05+0000","like_count":0,"user_likes":false},"769278456422167":{"id":"769278456422167","from":{"id":"100000359762118","name":"Mi Tra"},"message":"Nếu có biển báo này thì xe đạp được phép chạy trên vỉa hè.","can_remove":false,"created_time":"2013-12-01T00:45:43+0000","like_count":4,"user_likes":false},"769290949754251":{"id":"769290949754251","from":{"id":"100000045271667","name":"Nam Thai Nguyen"},"message":"Mấy bác Nhật Bản tốt bụng mang ý tưởng phân làn đến VN nhưng thất bại thảm hại vì đường ai nấy đi","can_remove":false,"created_time":"2013-12-01T01:19:25+0000","like_count":2,"user_likes":false},"769292749754071":{"id":"769292749754071","from":{"id":"100000359762118","name":"Mi Tra"},"message":"Cái này thì phải giáo dục nghiêm từ khi trẻ nhỏ mới bắt đầu học lái xe đạp, thanh niên choai choai bắt đầu lấy bằng xe máy và các anh các chú lấy bằng ô tô thì may ra còn được","can_remove":false,"created_time":"2013-12-01T01:25:13+0000","like_count":3,"user_likes":false},"769309116419101":{"id":"769309116419101","from":{"id":"100001416272263","name":"Mai PB"},"message":"Ngọc Long lúc trước đi đc cả bên phải.","message_tags":[{"id":"100001419373261","name":"Ngọc Long","type":"user","offset":0,"length":9}],"can_remove":false,"created_time":"2013-12-01T02:11:50+0000","like_count":0,"user_likes":false},"769467906403222":{"id":"769467906403222","from":{"id":"100000274458588","name":"Min Cass"},"message":"giáo dục trẻ em nhưng bố mẹ cứ thế mà xông thì cũng như ko thôi à","can_remove":false,"created_time":"2013-12-01T07:33:07+0000","like_count":1,"user_likes":false},"769505729732773":{"id":"769505729732773","from":{"id":"100000147414000","name":"Nguyễn Công Thắng"},"message":"bạn ơi thế bh k đc đi trên vỉa hè à , h đi là phải đi dưới đường và đi sát vỉa hè phía bên trái à","can_remove":false,"created_time":"2013-12-01T08:25:47+0000","like_count":0,"user_likes":false},"769719376378075":{"id":"769719376378075","from":{"id":"100005646341173","name":"Quốc Phương"},"message":"Lê Hồng Nhật","message_tags":[{"id":"100006896132669","name":"Lê Hồng Nhật","type":"user","offset":0,"length":12}],"can_remove":false,"created_time":"2013-12-01T16:09:04+0000","like_count":0,"user_likes":false}},"paging":{"cursors":{"after":"NzY5MTY5MjI5NzY2NDIz","before":"NzY5MTY5MjI5NzY2NDIz"},"next":"https://graph.facebook.com/229244010425617_769158226434190/comments?limit=1&summary=1&after=NzY5MTY5MjI5NzY2NDIz"},"summary":{"order":"chronological","total_count":14}}}