{"id":"229244010425617_769537763062903","type":"status","from":{"id":"100001440054060","name":"Pi Trần"},"message":"Mọi người ơi cho em hỏi, e đang học ở trung tâm, học sơ cấp thôi, nhưng e lại muốn tự học nhiều hơn để có thể rút gắn t.g học và đi thi lấy bằng. Nhưng htại ngữ pháp thì e nên học ở cuốn nào ạ và nếu tự học thì có vđề gì khó khăn k ạ ? E xin cám ơn","created_time":"2013-12-01T09:46:13+0000","updated_time":"2013-12-01T10:48:58+0000","likes":{"data":{"100003917090580":{"id":"100003917090580","name":"Trần Thị Thu Hương"}},"paging":{"cursors":{"after":"MTAwMDAzOTE3MDkwNTgw","before":"MTAwMDAzOTE3MDkwNTgw"}},"summary":{"total_count":1}},"comments":{"data":{"769541683062511":{"id":"769541683062511","from":{"id":"100003634822576","name":"Jessica Lam Phuong"},"message":"Mình nghe nhiều bạn nói học cuốn mina nihongo","can_remove":false,"created_time":"2013-12-01T09:54:22+0000","like_count":1,"user_likes":false},"769542266395786":{"id":"769542266395786","from":{"id":"100002907524963","name":"Tuyết Yêu Thương"},"message":"học cuốn mina no nihongo đó c. Mua thêm cuốn giải thích văn phạm nữa :)","can_remove":false,"created_time":"2013-12-01T09:55:44+0000","like_count":1,"user_likes":false},"769563869726959":{"id":"769563869726959","from":{"id":"100001440054060","name":"Pi Trần"},"message":"Jessica Lam Phuong ngữ pháp cũng học trong cuốn đó hả b. ? :)\nTuyết Yêu Thương cuốn giải thích văn phạm là cuốn nào v. chị ? chị có thể cho e biết đc k :D","message_tags":[{"id":"100003634822576","name":"Jessica Lam Phuong","type":"user","offset":0,"length":18},{"id":"100002907524963","name":"Tuyết Yêu Thương","type":"user","offset":62,"length":16}],"can_remove":false,"created_time":"2013-12-01T10:35:16+0000","like_count":0,"user_likes":false},"769567553059924":{"id":"769567553059924","from":{"id":"100002907524963","name":"Tuyết Yêu Thương"},"message":"cuốn giải thích văn phạm là cuốn màu xanh, cũng là mina no nihongo nhưng nó dịch ra bản tiếng việt :) cuốn mina no nihongo muk màu hồng toàn tiếng nhật thiì chỉ dùng để luyện tập, làm bài tập, luyện đọc và luyên nghe thôi :)","can_remove":false,"created_time":"2013-12-01T10:44:27+0000","like_count":0,"user_likes":false},"769567743059905":{"id":"769567743059905","from":{"id":"100002907524963","name":"Tuyết Yêu Thương"},"message":"mà chắc học ở trung tâm rồi thì cũng biết 2 cuốn đó chứ nhỉ :)","can_remove":false,"created_time":"2013-12-01T10:44:58+0000","like_count":0,"user_likes":false},"769567919726554":{"id":"769567919726554","from":{"id":"100002907524963","name":"Tuyết Yêu Thương"},"message":"cuốn giải thích văn phạm là cuốn màu xanh, cũng là mina no nihongo nhưng nó dịch ra bản tiếng việt :) cuốn mina no nihongo muk màu hồng toàn tiếng nhật thiì chỉ dùng để luyện tập, làm bài tập, luyện đọc và luyên nghe thôi :)","can_remove":false,"created_time":"2013-12-01T10:45:20+0000","like_count":0,"user_likes":false},"769567996393213":{"id":"769567996393213","from":{"id":"100001440054060","name":"Pi Trần"},"message":"dạ e mới học nên chưa sách ngữ pháp hình như do trường soạn đó chị, nên có lẽ chưa học đến :)","can_remove":false,"created_time":"2013-12-01T10:45:40+0000","like_count":0,"user_likes":false},"769568973059782":{"id":"769568973059782","from":{"id":"100002907524963","name":"Tuyết Yêu Thương"},"message":"quyển đó không phải do trung tâm soạn đâu :) tí tớ ol máy tính tớ gửi bìa sách cho mà xem, rồi ra hiệu sách mua","can_remove":false,"created_time":"2013-12-01T10:48:15+0000","like_count":0,"user_likes":false},"769569139726432":{"id":"769569139726432","from":{"id":"100001440054060","name":"Pi Trần"},"message":"oh v. thì cam ơn chị nhiều :)","can_remove":false,"created_time":"2013-12-01T10:48:58+0000","like_count":0,"user_likes":false}},"paging":{"cursors":{"after":"NzY5NTQxNjgzMDYyNTEx","before":"NzY5NTQxNjgzMDYyNTEx"},"next":"https://graph.facebook.com/229244010425617_769537763062903/comments?limit=1&summary=1&after=NzY5NTQxNjgzMDYyNTEx"},"summary":{"order":"chronological","total_count":9}}}