{"id":"229244010425617_769684736381539","type":"status","from":{"id":"100006728292296","name":"Kutit Tâm Lê"},"message":"mình muốn học tiếng nhật,nhưng k bit bắt đau từ đâu .ad gjup mjh","created_time":"2013-12-01T15:01:03+0000","updated_time":"2013-12-01T15:22:36+0000","comments":{"data":{"769686019714744":{"id":"769686019714744","from":{"id":"100001359798024","name":"November Gi"},"message":"Bắt đầu từ bảng chữ cái bạn ạ. ^^","can_remove":false,"created_time":"2013-12-01T15:03:38+0000","like_count":1,"user_likes":false},"769686936381319":{"id":"769686936381319","from":{"id":"745565751","name":"Tuyen Hoang Thi"},"message":"Mềnh đang định bảo thì bạn Novembe Gi nói trc r :3\r\nHọc bảng chữ cái Hiragana và Katakana trước tiên đuê","can_remove":false,"created_time":"2013-12-01T15:05:46+0000","like_count":0,"user_likes":false},"769694236380589":{"id":"769694236380589","from":{"id":"100000052122475","name":"Do Duc Tho"},"message":"Nguyễn Văn Minh","message_tags":[{"id":"100000271705877","name":"Nguyễn Văn Minh","type":"user","offset":0,"length":15}],"can_remove":false,"created_time":"2013-12-01T15:22:36+0000","like_count":0,"user_likes":false}},"paging":{"cursors":{"after":"NzY5Njg2MDE5NzE0NzQ0","before":"NzY5Njg2MDE5NzE0NzQ0"},"next":"https://graph.facebook.com/229244010425617_769684736381539/comments?limit=1&summary=1&after=NzY5Njg2MDE5NzE0NzQ0"},"summary":{"order":"chronological","total_count":3}},"likes":{"data":[]}}