{"id":"229244010425617_769676933048986","type":"status","from":{"id":"100001257093338","name":"Hanh Dang"},"message":"Xin hỏi ở đây có bạn nào nghiền phim Nhât không?\nCó thể cho mình xin vài tên phim hoặc đường link xem được không?\nXin cảm ơn rất nhiều!\nP/S\nDưới đây là những bộ phim mình mới xem, khá là hay\n\n-Một lít nước mắt\n-Nụ Hôn Định Mệnh - Itazura Na Kiss - Love In Tokyo\n-理想の恋人\n-Hana Yori Dango (F4)","created_time":"2013-12-01T14:43:54+0000","updated_time":"2013-12-02T02:09:30+0000","likes":{"data":{"100003998052285":{"id":"100003998052285","name":"Phong Nguyen"},"100007015029011":{"id":"100007015029011","name":"Hao Hai Duong"},"100004253979918":{"id":"100004253979918","name":"Louis Hoàng Văn Thái"},"100003158735323":{"id":"100003158735323","name":"Tiêu Tương Dạ Vũ"},"100004452123869":{"id":"100004452123869","name":"Pham Tiên Bach"},"825333483":{"id":"825333483","name":"Dac Nguyen"},"100003080722791":{"id":"100003080722791","name":"Hương Lê"},"100006464323686":{"id":"100006464323686","name":"Dương Phạm"}},"paging":{"cursors":{"after":"MTAwMDAzOTk4MDUyMjg1","before":"MTAwMDAzOTk4MDUyMjg1"},"next":"https://graph.facebook.com/229244010425617_769676933048986/likes?limit=1&summary=1&after=MTAwMDAzOTk4MDUyMjg1"},"summary":{"total_count":8}},"comments":{"data":{"769677689715577":{"id":"769677689715577","from":{"id":"100004802197403","name":"Công Tử Hào Hoa"},"message":"恋空","can_remove":false,"created_time":"2013-12-01T14:45:04+0000","like_count":0,"user_likes":false},"769677899715556":{"id":"769677899715556","from":{"id":"100004802197403","name":"Công Tử Hào Hoa"},"message":"xem nghiền luôn","can_remove":false,"created_time":"2013-12-01T14:45:39+0000","like_count":1,"user_likes":false},"769678533048826":{"id":"769678533048826","from":{"id":"1616974500","name":"Duong Lien"},"message":"xem bang link nao ban oi?","can_remove":false,"created_time":"2013-12-01T14:47:08+0000","like_count":0,"user_likes":false},"769678896382123":{"id":"769678896382123","from":{"id":"100001257093338","name":"Hanh Dang"},"message":"Cám ơn Công Tử Hào Hoa, bắt đầu xem thôi^^","message_tags":[{"id":"100004802197403","name":"Công Tử Hào Hoa","type":"user","offset":7,"length":15}],"can_remove":false,"created_time":"2013-12-01T14:47:57+0000","like_count":1,"user_likes":false},"769679026382110":{"id":"769679026382110","from":{"id":"100004802197403","name":"Công Tử Hào Hoa"},"message":"lên youtobe đánh tên là có ngay mà","can_remove":false,"created_time":"2013-12-01T14:48:07+0000","like_count":2,"user_likes":false},"769681553048524":{"id":"769681553048524","from":{"id":"100006728292296","name":"Kutit Tâm Lê"},"message":"naruto","can_remove":false,"created_time":"2013-12-01T14:53:26+0000","like_count":3,"user_likes":false},"769681699715176":{"id":"769681699715176","from":{"id":"100003819122391","name":"Sen Hồ"},"message":"Nobuta wo Produce","can_remove":false,"created_time":"2013-12-01T14:53:46+0000","like_count":1,"user_likes":false},"769735323043147":{"id":"769735323043147","from":{"id":"100005934548279","name":"Cậu Bé Buồn"},"message":"Naruto","can_remove":false,"created_time":"2013-12-01T16:38:36+0000","like_count":0,"user_likes":false},"769737479709598":{"id":"769737479709598","from":{"id":"825333483","name":"Dac Nguyen"},"message":"Mình xem mỗi \"7 samurais\", doraemon và phim sex của Nhật thôi.","can_remove":false,"created_time":"2013-12-01T16:43:05+0000","like_count":0,"user_likes":false},"769738499709496":{"id":"769738499709496","from":{"id":"100006431472448","name":"Thao Anh Nguyen"},"message":"Dragon zakura","can_remove":false,"created_time":"2013-12-01T16:45:39+0000","like_count":0,"user_likes":false},"769739423042737":{"id":"769739423042737","from":{"id":"100003083667025","name":"Hà Okio"},"message":"Conan, gokusen, yugi oh","can_remove":false,"created_time":"2013-12-01T16:47:33+0000","like_count":0,"user_likes":false},"769787273037952":{"id":"769787273037952","from":{"id":"100005801442456","name":"An Nguyen"},"message":"Mình có giới thiệu 1 số phim và có link tiếng nhật trong phần lưu trữ ấy! Các bạn lục lại đi nhé!","can_remove":false,"created_time":"2013-12-01T18:45:19+0000","like_count":0,"user_likes":false},"769913473025332":{"id":"769913473025332","from":{"id":"100000221648144","name":"Nguyen Hung"},"message":"Hay","can_remove":false,"created_time":"2013-12-01T22:27:11+0000","like_count":0,"user_likes":false},"769919979691348":{"id":"769919979691348","from":{"id":"1657595398","name":"Hoàng Anh"},"message":"たった一つの恋","can_remove":false,"created_time":"2013-12-01T22:43:00+0000","like_count":0,"user_likes":false},"769920073024672":{"id":"769920073024672","from":{"id":"1657595398","name":"Hoàng Anh"},"message":"Death note","can_remove":false,"created_time":"2013-12-01T22:43:21+0000","like_count":0,"user_likes":false},"769920739691272":{"id":"769920739691272","from":{"id":"1657595398","name":"Hoàng Anh"},"message":"My boss my hero","can_remove":false,"created_time":"2013-12-01T22:44:02+0000","like_count":0,"user_likes":false},"769939276356085":{"id":"769939276356085","from":{"id":"738235689","name":"Dang Thi Phuong"},"message":"search GOOD DRAMA se cho ban mot loat drama cua Nhat va nhieu nc khac nua nhe.","can_remove":false,"created_time":"2013-12-01T23:36:26+0000","like_count":0,"user_likes":false},"769948733021806":{"id":"769948733021806","from":{"id":"100000027754899","name":"Hoang Van Ba"},"message":"Tokyo hot","can_remove":false,"created_time":"2013-12-01T23:59:26+0000","like_count":0,"user_likes":false},"769991686350844":{"id":"769991686350844","from":{"id":"100003671803669","name":"Tojika Sakura"},"message":"rừng neo","can_remove":false,"created_time":"2013-12-02T01:52:58+0000","like_count":0,"user_likes":false},"769992533017426":{"id":"769992533017426","from":{"id":"1813611352","name":"To Đùng"},"message":"Hanh Dang \nhttp://www.imdb.com/title/tt0929860/","message_tags":[{"id":"100001257093338","name":"Hanh Dang","type":"user","offset":0,"length":9}],"can_remove":false,"created_time":"2013-12-02T01:55:05+0000","like_count":1,"user_likes":false},"769998813016798":{"id":"769998813016798","from":{"id":"100002746730180","name":"Thùy Minh"},"message":"Woa chuẩn :))","can_remove":false,"created_time":"2013-12-02T02:09:30+0000","like_count":0,"user_likes":false}},"paging":{"cursors":{"after":"NzY5Njc3Njg5NzE1NTc3","before":"NzY5Njc3Njg5NzE1NTc3"},"next":"https://graph.facebook.com/229244010425617_769676933048986/comments?limit=1&summary=1&after=NzY5Njc3Njg5NzE1NTc3"},"summary":{"order":"chronological","total_count":21}}}