{"id":"229244010425617_770044616345551","type":"link","picture":"https://fbexternal-a.akamaihd.net/safe_image.php?d=AQB0_EAjw8M7Rucn&w=154&h=154&url=http%3A%2F%2Fvanhoanhat.com%2Fwp-content%2Fuploads%2Fthai-hoa-va-hong-hanh-thoi-hon-cho-diem-xua-mang-2-dong-mau-viet-nhat.3.jpg","link":"http://vanhoanhat.com/thai-hoa-va-hong-hanh-thoi-hon-cho-diem-xua-mang-hai-dong-mau-viet-nhat/","from":{"id":"1783190483","name":"Trần Xuân Hiệp"},"message":"Dear các bạn,\nChắc trong group này nhiều bạn biết đến anh Nguyễn Hữu Thái Hòa chứ ạ? Một người mà mình luôn luôn khâm phục bởi tài năng, niềm đam mê cháy bỏng và khát khao cháy bỏng về \"giấc mơ Việt\" của anh :)\n\nSắp tới, anh Thái Hòa có dự định ra album nhạc Trịnh song ngữ Việt Nhật \"DIỄM XƯA – UTSUKUSHII MUKASHI”. Khi mình liên hệ thì anh ấy có chia sẻ là ngoài việc phát hành tại Việt Nam, anh ấy cũng đang tìm kiếm các cơ hội hợp tác về việc hỗ trợ đưa thông tin bằng tiếng Nhật và phát hành CD cũng như các sản phẩm khác tại Nhật. Mình đưa thông tin này lên đây, hi vọng là bạn nào có ý tưởng hoặc cơ hội hợp tác thì tốt quá ạ, vì cá nhân mình thấy đây là một việc hết sức tuyệt vời, nhưng mình lại không có khả năng :)\n\nCám ơn mọi người rất nhiều :D","created_time":"2013-12-02T04:00:48+0000","updated_time":"2013-12-02T06:16:29+0000","likes":{"data":{"100004360751785":{"id":"100004360751785","name":"Hà Nguyễn"},"825333483":{"id":"825333483","name":"Dac Nguyen"},"569263718":{"id":"569263718","name":"Phuong Thao Tran"}},"paging":{"cursors":{"after":"MTAwMDA0MzYwNzUxNzg1","before":"MTAwMDA0MzYwNzUxNzg1"},"next":"https://graph.facebook.com/229244010425617_770044616345551/likes?limit=1&summary=1&after=MTAwMDA0MzYwNzUxNzg1"},"summary":{"total_count":3}},"comments":{"data":{"770049453011734":{"id":"770049453011734","from":{"id":"1783190483","name":"Trần Xuân Hiệp"},"message":"Một việc có thể làm được ngay là viết các bản tin hoặc dịch tin tức này sang tiếng Nhật. Bạn nào hỗ trợ được thì liên hệ với mình nhé :)\nP/S: Có lẽ là không có thù lao đâu ạ. Mình đơn giản là một người hâm mộ anh Thái Hòa, tình cờ biết được thông tin này và muốn hỗ trợ anh ấy thôi :)","can_remove":false,"created_time":"2013-12-02T04:14:43+0000","like_count":1,"user_likes":false},"770052826344730":{"id":"770052826344730","from":{"id":"569263718","name":"Phuong Thao Tran"},"message":"mình cũng định cover các bài hát tiếng Việt sang tiếng Nhật, và cũng rất hứng thú với Nhạc Trịnh....!!!","can_remove":false,"created_time":"2013-12-02T04:20:48+0000","like_count":1,"user_likes":false},"770087676341245":{"id":"770087676341245","from":{"id":"569263718","name":"Phuong Thao Tran"},"message":"có điều lời nhạc của Trịnh mượt mà, lãng mạn liêu trai sâu sắc và uyên bác quá nên sẽ là 1 thách thức lớn đây !!!","can_remove":false,"created_time":"2013-12-02T05:40:38+0000","like_count":0,"user_likes":false},"770095983007081":{"id":"770095983007081","from":{"id":"1783190483","name":"Trần Xuân Hiệp"},"message":"Phuong Thao Tran: Album này đã có rồi mà :)","message_tags":[{"id":"569263718","name":"Phuong Thao Tran","type":"user","offset":0,"length":16}],"can_remove":false,"created_time":"2013-12-02T06:09:30+0000","like_count":0,"user_likes":false},"770097836340229":{"id":"770097836340229","from":{"id":"569263718","name":"Phuong Thao Tran"},"message":"đã có rồi à, tiếc hè, ;) nhưng chắc vẫn còn nhiều bài của anh Trịnh cho mình tác nghiệp, ^^","can_remove":false,"created_time":"2013-12-02T06:16:29+0000","like_count":0,"user_likes":false}},"paging":{"cursors":{"after":"NzcwMDQ5NDUzMDExNzM0","before":"NzcwMDQ5NDUzMDExNzM0"},"next":"https://graph.facebook.com/229244010425617_770044616345551/comments?limit=1&summary=1&after=NzcwMDQ5NDUzMDExNzM0"},"summary":{"order":"chronological","total_count":5}}}