{"id":"229244010425617_770141523002527","type":"status","from":{"id":"100004344811120","name":"Nguyễn Thu Hà"},"message":"Trung tâm \"HỌC TIẾNG NHẬT CÙNG HIP VIỆT NAM\" sẽ khai giảng lớp học N4 ( N3, N3, N1)\n\nBắt đầu: Từ thứ 5, ngày 5/12/2013\nThời gian: 18h00 - 19h30\nLịch học: 3, 5, 7 hàng tuần ( Hoặc 2,4,6)\nGiáo trình: Do trung tâm biên soạn.\nHọc phí: 40k/ buổi, học trong 3 tháng: 36 buổi * 40k/ buổi = 1.440.000 VNĐ\nHình thức đóng: Đóng theo từng tháng: 12 buổi/ tháng * 40,000 = 480,000 VNĐ\nĐịa điểm học: P. 1504, nhà N07B2, Dịch Vọng, Cầu Giấy, Hà Nội (gần Công viên Cầu Giấy, tại đây là điểm cuối của chuyến xe bus 51).\n\nNhanh tay đăng ký với Trung tâm nhé các bạn. Sẽ giảm 20% cho 3 bạn đăng ký đầu tiên qua link và tới đăng ký trực tiếp tại Trung tâm.\n\nĐĂNG KÝ TẠI ĐÂY: https://docs.google.com/forms/d/1ktvlS8863UvYxDUJCtnLHoVh488buTRrWVDg0exh72g/viewform\n\nHOTLINE: 0463 257 333","created_time":"2013-12-02T08:50:36+0000","updated_time":"2013-12-02T09:19:22+0000","likes":{"data":{"100007155750646":{"id":"100007155750646","name":"Ngọc Sugoi"},"1415095672":{"id":"1415095672","name":"Thom Cao Thi"}},"paging":{"cursors":{"after":"MTAwMDA3MTU1NzUwNjQ2","before":"MTAwMDA3MTU1NzUwNjQ2"},"next":"https://graph.facebook.com/229244010425617_770141523002527/likes?limit=1&summary=1&after=MTAwMDA3MTU1NzUwNjQ2"},"summary":{"total_count":2}},"comments":{"data":{"770147693001910":{"id":"770147693001910","from":{"id":"100005934548279","name":"Cậu Bé Buồn"},"message":"mặn vãi....trả biết nên cơm cháo ko","can_remove":false,"created_time":"2013-12-02T09:13:53+0000","like_count":0,"user_likes":false},"770148859668460":{"id":"770148859668460","from":{"id":"100004344811120","name":"Nguyễn Thu Hà"},"message":"Ko nên cơm cũng phải ra cháo chứ bạn Cậu Bé Buồn, hì hì","message_tags":[{"id":"100005934548279","name":"Cậu Bé Buồn","type":"user","offset":37,"length":11}],"can_remove":false,"created_time":"2013-12-02T09:18:07+0000","like_count":0,"user_likes":false},"770149299668416":{"id":"770149299668416","from":{"id":"100005934548279","name":"Cậu Bé Buồn"},"message":"そうか。日本の生活はとても疲れるよ。","can_remove":false,"created_time":"2013-12-02T09:19:22+0000","like_count":0,"user_likes":false}},"paging":{"cursors":{"after":"NzcwMTQ3NjkzMDAxOTEw","before":"NzcwMTQ3NjkzMDAxOTEw"},"next":"https://graph.facebook.com/229244010425617_770141523002527/comments?limit=1&summary=1&after=NzcwMTQ3NjkzMDAxOTEw"},"summary":{"order":"chronological","total_count":3}}}