{"id":"229244010425617_770137023002977","type":"link","picture":"https://fbexternal-a.akamaihd.net/safe_image.php?d=AQBIGQUlc9hAYvpL&w=154&h=154&url=http%3A%2F%2Ftuoitre.vn%2FIMG%2FMainHeadImage%2F101%2F583101_242_430.jpg%3Fv%3D-8588156644510624965","link":"http://tuoitre.vn/Ban-doc/583101/nguoi-vo-nhat-cua-luong-dinh-cua.html","from":{"id":"1148962646","name":"Tran Thi Tuong Van"},"message":"Một mối lương duyên thật đẹp giữa Việt Nam và Nhật Bản! :)\n\"Tháng 10-1945, khi Chiến tranh thế giới thứ hai vừa chấm dứt, cô Nakamura Nobuko 23 tuổi đã gật đầu đồng ý cưới một lưu học sinh VN ở Fukuoka, Nhật Bản. Anh lưu học sinh nghèo đến không có được một món quà cưới tặng vợ ấy sau này trở thành nhà nông học nổi tiếng: giáo sư - tiến sĩ - Anh hùng lao động Lương Định Của.\"\nhttp://tuoitre.vn/Ban-doc/583101/nguoi-vo-nhat-cua-luong-dinh-cua.html","created_time":"2013-12-02T08:35:11+0000","updated_time":"2013-12-03T02:27:34+0000","likes":{"data":{"100005865160976":{"id":"100005865160976","name":"Thân Nguyễn"},"100005801442456":{"id":"100005801442456","name":"An Nguyen"},"100001754136107":{"id":"100001754136107","name":"Nguyễn Tuấn Vũ"},"100003812661740":{"id":"100003812661740","name":"Nguyên Kim Chi"},"100000037024030":{"id":"100000037024030","name":"Hung Duc Tran"},"100004510290091":{"id":"100004510290091","name":"Long Hoàng"},"100005567464628":{"id":"100005567464628","name":"Nhuquoc Vu"},"100006565447607":{"id":"100006565447607","name":"Hương Ngọc Lan"},"100001616356630":{"id":"100001616356630","name":"Lan Anh Nguyen"},"100003334742630":{"id":"100003334742630","name":"Htl Nhjm"},"1783190483":{"id":"1783190483","name":"Trần Xuân Hiệp"},"1600646952":{"id":"1600646952","name":"Nguyen Huu Nhat"},"100003478225364":{"id":"100003478225364","name":"Nguyễn Quốc Phong"},"100003800328678":{"id":"100003800328678","name":"Takahashi Phan"},"100002526707690":{"id":"100002526707690","name":"Phan Toan"},"100001912633316":{"id":"100001912633316","name":"Du Ca"},"100001995263460":{"id":"100001995263460","name":"Chibi Yuriko"},"100003950139327":{"id":"100003950139327","name":"Kathy Banh"},"100005145330760":{"id":"100005145330760","name":"Sơn Vũ"},"100001723862714":{"id":"100001723862714","name":"Bo Bien Vang"},"100004253979918":{"id":"100004253979918","name":"Louis Hoàng Văn Thái"},"100001727857917":{"id":"100001727857917","name":"Bui Duyen"},"100003544376106":{"id":"100003544376106","name":"Diem Pham"},"1629517470":{"id":"1629517470","name":"Nguyen Thi Thanh Van"},"1340056952":{"id":"1340056952","name":"Nguyễn Nhật Minh"},"100003717414249":{"id":"100003717414249","name":"Trần Minh Đức"},"100005024348771":{"id":"100005024348771","name":"Long Hoàng"},"100004251845458":{"id":"100004251845458","name":"Hoàng Anh"},"1834022759":{"id":"1834022759","name":"Nga Hoàng Lê"},"1114300791":{"id":"1114300791","name":"Tra Mi"},"100001458099624":{"id":"100001458099624","name":"Kham Pha"},"100001416272263":{"id":"100001416272263","name":"Mai PB"},"100005307004792":{"id":"100005307004792","name":"Kiều Văn"},"1023965040":{"id":"1023965040","name":"Juli KimChi"},"100002451143782":{"id":"100002451143782","name":"New Light"},"100000250256418":{"id":"100000250256418","name":"Nguyen Viet Anh"},"100003700084315":{"id":"100003700084315","name":"Trầm Luân"},"100005934548279":{"id":"100005934548279","name":"Cậu Bé Buồn"},"100004028173069":{"id":"100004028173069","name":"Jin Ngốc"},"100002871405403":{"id":"100002871405403","name":"Thach Sanh"},"1362130138":{"id":"1362130138","name":"Trọng Hòa Benny Trinh"},"569263718":{"id":"569263718","name":"Phuong Thao Tran"},"100005211189763":{"id":"100005211189763","name":"Oliveu Cchann"},"100000108039063":{"id":"100000108039063","name":"Secondhand Lion"},"100003917090580":{"id":"100003917090580","name":"Trần Thị Thu Hương"},"1821970083":{"id":"1821970083","name":"Nguyễn Mạnh Cường"},"100003762427351":{"id":"100003762427351","name":"Hiroshi Yasu Oki"},"100001861442279":{"id":"100001861442279","name":"Nguyễn Hồng Sơn"},"100000070752758":{"id":"100000070752758","name":"Yen Panda"}},"paging":{"cursors":{"after":"MTAwMDA1ODY1MTYwOTc2","before":"MTAwMDA1ODY1MTYwOTc2"},"next":"https://graph.facebook.com/229244010425617_770137023002977/likes?limit=1&summary=1&after=MTAwMDA1ODY1MTYwOTc2"},"summary":{"total_count":49}},"comments":{"data":{"770157273000952":{"id":"770157273000952","from":{"id":"100005307004792","name":"Kiều Văn"},"message":"Hiền Vũ, Răng Rắc Rối Ri đọc bài này cảm động lắm...","message_tags":[{"id":"100005495773832","name":"Hiền Vũ","type":"user","offset":0,"length":7}],"can_remove":false,"created_time":"2013-12-02T09:50:25+0000","like_count":1,"user_likes":false},"770196612997018":{"id":"770196612997018","from":{"id":"100003105034037","name":"Pham Oanh"},"message":"Hay ạ","can_remove":false,"created_time":"2013-12-02T11:36:52+0000","like_count":1,"user_likes":false},"770281686321844":{"id":"770281686321844","from":{"id":"1783190483","name":"Trần Xuân Hiệp"},"message":"Mình xin phép được đăng bài này lên vanhoanhat bạn nhé :)","can_remove":false,"created_time":"2013-12-02T14:27:19+0000","like_count":1,"user_likes":false},"770286949654651":{"id":"770286949654651","from":{"id":"100001616356630","name":"Lan Anh Nguyen"},"message":"cho minh chia se bai viet","can_remove":false,"created_time":"2013-12-02T14:35:38+0000","like_count":1,"user_likes":false},"770290892987590":{"id":"770290892987590","from":{"id":"1148962646","name":"Tran Thi Tuong Van"},"message":"Trần Xuân Hiệp & Út Béo Mập Các bạn cứ tự nhiên, mình chỉ chia sẻ lại bài viết từ Báo Tuổi Trẻ mà thôi :)","message_tags":[{"id":"1783190483","name":"Trần Xuân Hiệp","type":"user","offset":0,"length":14},{"id":"100001616356630","name":"Út Béo Mập","type":"user","offset":17,"length":10}],"can_remove":false,"created_time":"2013-12-02T14:39:44+0000","like_count":0,"user_likes":false},"770585576291455":{"id":"770585576291455","from":{"id":"100002472470715","name":"Phan Duy Hùng"},"message":"cry","can_remove":false,"created_time":"2013-12-03T02:27:34+0000","like_count":0,"user_likes":false}},"paging":{"cursors":{"after":"NzcwMTU3MjczMDAwOTUy","before":"NzcwMTU3MjczMDAwOTUy"},"next":"https://graph.facebook.com/229244010425617_770137023002977/comments?limit=1&summary=1&after=NzcwMTU3MjczMDAwOTUy"},"summary":{"order":"chronological","total_count":6}}}