{"id":"229244010425617_770298269653519","type":"status","from":{"id":"100000267443070","name":"Kani Chan"},"message":"Chào mọi người, mình là Kani Chan. Mình đang rất muốn được luyện tập tiếng Nhật mỗi ngày nên muốn tìm ai đó để cùng trò chuyện bằng tiếng Nhật . Dù tiếng Nhật mình còn dở lắm nhưng nếu ko luyện thì ko thể khá hơn được, hic! Bạn nào có hứng thú trò chuyện bằng tiếng Nhật thì add Facebook mình nha ^^. Cảm ơn mọi người ^^.\n\n皆さん、こんばんは！\n私はKaniと申します。今日本語を勉強してるから、毎日、日本語を練習したい。日本語がまだ足りないけど、使わないとしゃべりできない。皆と話すのは一番いい方法と思う。＾＾\nもし、一緒に練習したかったら、私のFacebookを加えてくれませんか？＾＾\nどうぞ宜しくね！＾＾","created_time":"2013-12-02T14:50:42+0000","updated_time":"2013-12-03T02:09:56+0000","likes":{"data":{"100005801442456":{"id":"100005801442456","name":"An Nguyen"},"100000253695926":{"id":"100000253695926","name":"Hikaru Hikaru"},"100001416272263":{"id":"100001416272263","name":"Mai PB"},"100000284487802":{"id":"100000284487802","name":"Buu Lam Gia"},"100003328655713":{"id":"100003328655713","name":"Tiểu Như"},"100001458099624":{"id":"100001458099624","name":"Kham Pha"},"100005196873531":{"id":"100005196873531","name":"Trần Phương Thảo"},"100003950139327":{"id":"100003950139327","name":"Kathy Banh"},"100006502552041":{"id":"100006502552041","name":"Xấu Xí"},"100000037024030":{"id":"100000037024030","name":"Hung Duc Tran"},"100005672193438":{"id":"100005672193438","name":"Hoa Xương Rồng"},"100002826418598":{"id":"100002826418598","name":"Harry Minji"},"100005228317946":{"id":"100005228317946","name":"Ma Ket"},"100005024348771":{"id":"100005024348771","name":"Long Hoàng"},"100004084770426":{"id":"100004084770426","name":"Mặt Trời Mọc"}},"paging":{"cursors":{"after":"MTAwMDA1ODAxNDQyNDU2","before":"MTAwMDA1ODAxNDQyNDU2"},"next":"https://graph.facebook.com/229244010425617_770298269653519/likes?limit=1&summary=1&after=MTAwMDA1ODAxNDQyNDU2"},"summary":{"total_count":16}},"comments":{"data":{"770301706319842":{"id":"770301706319842","from":{"id":"100003090582201","name":"Đại Ca Béo"},"message":"Hay thú vị đấy nhỷ","can_remove":false,"created_time":"2013-12-02T14:56:37+0000","like_count":1,"user_likes":false},"770308289652517":{"id":"770308289652517","from":{"id":"1146680551","name":"優しい なぁ"},"message":"宜しく","can_remove":false,"created_time":"2013-12-02T15:13:37+0000","like_count":2,"user_likes":false},"770321802984499":{"id":"770321802984499","from":{"id":"100002920830563","name":"Nhỏ Nhất Nhà"},"message":"có sky ko b?","can_remove":false,"created_time":"2013-12-02T15:44:07+0000","like_count":0,"user_likes":false},"770323079651038":{"id":"770323079651038","from":{"id":"100004601013905","name":"Đức Linh"},"message":"Chao bn","can_remove":false,"created_time":"2013-12-02T15:47:10+0000","like_count":0,"user_likes":false},"770330379650308":{"id":"770330379650308","from":{"id":"100003607925265","name":"Thu Hằng"},"message":"日本語を勉強しましょう。","can_remove":false,"created_time":"2013-12-02T16:02:11+0000","like_count":1,"user_likes":false},"770331272983552":{"id":"770331272983552","from":{"id":"100006502552041","name":"Xấu Xí"},"message":"Hay day","can_remove":false,"created_time":"2013-12-02T16:04:23+0000","like_count":1,"user_likes":false},"770338669649479":{"id":"770338669649479","from":{"id":"569263718","name":"Phuong Thao Tran"},"message":"「。。。いい方法だと思う」 Kani Chan","message_tags":[{"id":"100000267443070","name":"Kani Chan","type":"user","offset":14,"length":9}],"can_remove":false,"created_time":"2013-12-02T16:17:09+0000","like_count":1,"user_likes":false},"770544209628925":{"id":"770544209628925","from":{"id":"100003328655713","name":"Tiểu Như"},"message":"宜しく","can_remove":false,"created_time":"2013-12-03T00:52:04+0000","like_count":1,"user_likes":false},"770578702958809":{"id":"770578702958809","from":{"id":"100003676414929","name":"Au Kute"},"message":"私も日本語で話したいです。。。それでいっしょに勉強しましょうね","can_remove":false,"created_time":"2013-12-03T02:09:56+0000","like_count":1,"user_likes":false}},"paging":{"cursors":{"after":"NzcwMzAxNzA2MzE5ODQy","before":"NzcwMzAxNzA2MzE5ODQy"},"next":"https://graph.facebook.com/229244010425617_770298269653519/comments?limit=1&summary=1&after=NzcwMzAxNzA2MzE5ODQy"},"summary":{"order":"chronological","total_count":9}}}