{"id":"229244010425617_770408359642510","type":"status","from":{"id":"100001848885057","name":"Tiểu Mỡ Nhi"},"message":"Các anh chị cho em hỏi về Home stay dành cho du học sinh tại Nhật được ko ạ. Có những lợi ích và những các vấn đề đáng lo????. Ai có kinh nghiệm có thể chia sẻ được ko ạ???. Và theo em biết là thường mất phí nhưng lại ko rõ bao nhiêu. Mong mọi người giúp đỡ...","created_time":"2013-12-02T19:00:26+0000","updated_time":"2013-12-03T08:12:09+0000","likes":{"data":{"100005801442456":{"id":"100005801442456","name":"An Nguyen"},"100000047107627":{"id":"100000047107627","name":"Tiểu Phương"}},"paging":{"cursors":{"after":"MTAwMDA1ODAxNDQyNDU2","before":"MTAwMDA1ODAxNDQyNDU2"},"next":"https://graph.facebook.com/229244010425617_770408359642510/likes?limit=1&summary=1&after=MTAwMDA1ODAxNDQyNDU2"},"summary":{"total_count":2}},"comments":{"data":{"770545482962131":{"id":"770545482962131","from":{"id":"100001754136107","name":"Nguyễn Tuấn Vũ"},"message":"bạn vào thử trang này xem do An Nguyen chia sẻ\nhttp://www.homestay-in-japan.com/program/index.html","message_tags":[{"id":"100005801442456","name":"An Nguyen","type":"user","offset":29,"length":9}],"can_remove":false,"created_time":"2013-12-03T00:55:59+0000","like_count":1,"user_likes":false},"770545772962102":{"id":"770545772962102","from":{"id":"100001754136107","name":"Nguyễn Tuấn Vũ"},"message":"mình thi trường giới thiệu, xong nộp đơn, ko mất tiền gì cả","can_remove":false,"created_time":"2013-12-03T00:56:57+0000","like_count":1,"user_likes":false},"770706862945993":{"id":"770706862945993","from":{"id":"100001848885057","name":"Tiểu Mỡ Nhi"},"message":"Nhưng hình như em thấy trên trang mà anh đưa thì có mất phí ạ","can_remove":false,"created_time":"2013-12-03T08:12:09+0000","like_count":0,"user_likes":false}},"paging":{"cursors":{"after":"NzcwNTQ1NDgyOTYyMTMx","before":"NzcwNTQ1NDgyOTYyMTMx"},"next":"https://graph.facebook.com/229244010425617_770408359642510/comments?limit=1&summary=1&after=NzcwNTQ1NDgyOTYyMTMx"},"summary":{"order":"chronological","total_count":3}}}