{"id":"229244010425617_770444256305587","type":"status","from":{"id":"100005801442456","name":"An Nguyen"},"message":"Sẵn có bạn hỏi về chương trình Homestay ( ở chung với người Nhật ) dành cho dhs, các bạn có thể tìm hiểu tại các trang như vậy nè:\nhttp://www.homestay-in-japan.com/family/\n\nhttp://www.afs.or.jp/hosting/\n\nNgoài ra trong các kì nghĩ dài như xuân và hè, ai có muốn du lịch HOKKAIDO thì có thể đăng ký  chương trình làm nông ở đó, bạn sẽ đc sắp xếp đi lại và ăn ở ngoài ra đi làm thì lương không khác như làm thêm gì cả...rất hay phải không nhỉ","created_time":"2013-12-02T20:36:10+0000","updated_time":"2013-12-19T03:05:22+0000","likes":{"data":{"100003553243152":{"id":"100003553243152","name":"Oanh Nguyen"},"100000014153164":{"id":"100000014153164","name":"Tan Tran"},"100000274249445":{"id":"100000274249445","name":"Tiểu Tinh"},"1026780646":{"id":"1026780646","name":"Việt Hưng Khổng"},"100000199780783":{"id":"100000199780783","name":"Nguyen Thu Hoai"},"1816269439":{"id":"1816269439","name":"Dao Ngoc"},"100005145330760":{"id":"100005145330760","name":"Sơn Vũ"},"100003296170329":{"id":"100003296170329","name":"Minh Lụa"},"100006860141377":{"id":"100006860141377","name":"Gấu Của Hôm Nay"},"100004446185815":{"id":"100004446185815","name":"Hiền Jp"},"1764773046":{"id":"1764773046","name":"Thu Thao Bui"},"100005495773832":{"id":"100005495773832","name":"Hiền Vũ"},"100003669604211":{"id":"100003669604211","name":"Mặt Trời Phương Đông"},"1846809835":{"id":"1846809835","name":"Dorae Phương"},"100005813941367":{"id":"100005813941367","name":"TY Tran"},"100002871405403":{"id":"100002871405403","name":"Thach Sanh"},"100001848885057":{"id":"100001848885057","name":"Tiểu Mỡ Nhi"},"100001526631937":{"id":"100001526631937","name":"Tường Oanh Mineko"},"100000020988042":{"id":"100000020988042","name":"Viet Huong Nguyen"},"1148962646":{"id":"1148962646","name":"Tran Thi Tuong Van"},"100004871794179":{"id":"100004871794179","name":"Lee Mi Nguyen"},"1821970083":{"id":"1821970083","name":"Nguyễn Mạnh Cường"},"1146680551":{"id":"1146680551","name":"優しい なぁ"},"100001416272263":{"id":"100001416272263","name":"Mai PB"},"100001723862714":{"id":"100001723862714","name":"Bo Bien Vang"},"1318895018":{"id":"1318895018","name":"Van T Tran"},"100004253979918":{"id":"100004253979918","name":"Louis Hoàng Văn Thái"},"100002535489295":{"id":"100002535489295","name":"Moteru Seikoo"},"1031841670":{"id":"1031841670","name":"Ngọc Trâm"},"100003328655713":{"id":"100003328655713","name":"Tiểu Như"},"100001754136107":{"id":"100001754136107","name":"Nguyễn Tuấn Vũ"},"100004536125153":{"id":"100004536125153","name":"Hoàng Đàn"},"100006479420145":{"id":"100006479420145","name":"Trịnh Thị Kim Anh"},"100003913383051":{"id":"100003913383051","name":"Tho Tran"},"100003848021692":{"id":"100003848021692","name":"Ánh Moon"},"100000221973381":{"id":"100000221973381","name":"Mạnh Ngô"},"550401589":{"id":"550401589","name":"Cuong Cao"},"738235689":{"id":"738235689","name":"Dang Thi Phuong"},"100001458099624":{"id":"100001458099624","name":"Kham Pha"},"100004076014686":{"id":"100004076014686","name":"Đăng Trần Hải"},"100001324611896":{"id":"100001324611896","name":"Meo Luoi"},"1845000884":{"id":"1845000884","name":"Trieu Thi Kieu Oanh"},"100004187348459":{"id":"100004187348459","name":"Phuong Vu"},"1305472811":{"id":"1305472811","name":"Tuan Nguyen"},"100000045271667":{"id":"100000045271667","name":"Nam Thai Nguyen"},"1283298041":{"id":"1283298041","name":"Búa Đức Thanh"},"100005196873531":{"id":"100005196873531","name":"Trần Phương Thảo"},"100004372208548":{"id":"100004372208548","name":"Neko Chan"},"100004398330290":{"id":"100004398330290","name":"Lam Linh"},"100001807609603":{"id":"100001807609603","name":"Nguyễn Khánh Huyền"}},"paging":{"cursors":{"after":"MTAwMDAzNTUzMjQzMTUy","before":"MTAwMDAzNTUzMjQzMTUy"},"next":"https://graph.facebook.com/229244010425617_770444256305587/likes?limit=1&summary=1&after=MTAwMDAzNTUzMjQzMTUy"},"summary":{"total_count":51}},"comments":{"data":{"770514202965259":{"id":"770514202965259","from":{"id":"100001458099624","name":"Kham Pha"},"message":"Tuyệt, đang định nghỉ xuân đi :D","can_remove":false,"created_time":"2013-12-02T23:36:59+0000","like_count":1,"user_likes":false},"770541396295873":{"id":"770541396295873","from":{"id":"100003328655713","name":"Tiểu Như"},"message":"tiếc quá, không có tiền sang Nhật","can_remove":false,"created_time":"2013-12-03T00:44:14+0000","like_count":0,"user_likes":false},"770546336295379":{"id":"770546336295379","from":{"id":"1031841670","name":"Ngọc Trâm"},"message":"Nhưng hình như phí cũng cao phết đấy. Homestay này có tổ chức rồi.","can_remove":false,"created_time":"2013-12-03T00:58:25+0000","like_count":0,"user_likes":false},"770564426293570":{"id":"770564426293570","from":{"id":"100006057482511","name":"Neko Trần"},"message":"Hi cả nhà, \nOtosan của chị ở Hokkaido làm đại sứ du lịch của vùng đang muốn mở 1 tour thăm quan từ TOkyo tơi Hokkaido, 3 ngày 2 đêm. \n広域観光ルート形成事業「モニターツアー」 内容 対象は、東京に住む留学生の方々です。\n道東3町村（弟子屈町、標茶町、鶴居村）をめぐる２泊３日モニター観光ツアーです。\n東京から釧路空港までの旅費は個人負担。\n貸切バス、宿泊代、体験費用はこちらで負担します。\n募集人数は２０名程度です。\n日程等、ホテル等詳細はまだ決まっていません。\nTrong tour này học sinh sẽ được đi thăm quan 3 làng quê là Teshikawa, Shibecha và Tsurui. Đây đều là 3 làng quê mang đậm đặc trưng của vùng và có nhiều địa điểm du lịch nổi tiếng.\nChị cũng đã từng đi tới Tsurui và homestay tại nhà Otosan 2 tuần từ Noel tới hết năm mới và đã có rất nhiều trải nghiệm và ấn tượng không thể nào quên được. Otosan của chị giờ đang làm đại sứ du lịch của vùng, chịu trách nhiệm quảng bá hình ảnh văn hóa của vùng.\nTour này sẽ tổ chức vào mùa đông khoảng từ tháng 1 tới tháng 3, ngày cụ thể và địa điểm khách sạn thì chưa quyết định.\nHọc sinh sẽ chỉ phải trả tiền vé máy bay từ Tokyo tới Kujiro thôi, (khoảng 4-5 man), còn lại tất cả chi phí đi lại ăn ở tham quan tại đó sẽ do chương trình bao tất.\nBọn em có hứng thú với chương trình thì giúp Otosan Masato Hattori hộ chị nếu ông ấy hỏi gì, và giới thiệu bạn bè cùng trường cùng KTX cho ông í nhé!\nThanks cả nhà!","can_remove":false,"created_time":"2013-12-03T01:36:09+0000","like_count":12,"user_likes":false},"770591146290898":{"id":"770591146290898","from":{"id":"100001416272263","name":"Mai PB"},"message":"Mọi ng đăng ký nhanh đi, tiền có thể kiếm sau chứ cơ hội không phải lúc nào cũng đến.","can_remove":false,"created_time":"2013-12-03T02:42:20+0000","like_count":3,"user_likes":false},"770649586285054":{"id":"770649586285054","from":{"id":"100004579565793","name":"Phạm Đức"},"message":"Không hiểu gì hết :))","can_remove":false,"created_time":"2013-12-03T04:54:36+0000","like_count":0,"user_likes":false},"770707359612610":{"id":"770707359612610","from":{"id":"100001848885057","name":"Tiểu Mỡ Nhi"},"message":"Em thì chưa qua Nhật nhưng thấy rất hay mong qua Nhật có cơ hội được tham gia. Ko biết chi phí của homestay đắt ko ạ.","can_remove":false,"created_time":"2013-12-03T08:13:18+0000","like_count":0,"user_likes":false},"770758216274191":{"id":"770758216274191","from":{"id":"100005801442456","name":"An Nguyen"},"message":"Không ai nhắc tui sai chữ HOKKAIDO kia à@.@","can_remove":false,"created_time":"2013-12-03T10:58:04+0000","like_count":0,"user_likes":false},"770880066262006":{"id":"770880066262006","from":{"id":"100004099326394","name":"Thanh Chan"},"message":"Anh/chị An Nguyen ơi, a/c có thể cung cấp thông tin chi tiết hơn về chương trình du lịch Hokkaido và cách thức đăng cho bọn em được không ạ? Chẳng hạn như chi phí hay cách thức tìm hiểu thông tin chi tiết ạ. Em cảm ơn a/c ạ.","can_remove":false,"created_time":"2013-12-03T14:42:16+0000","like_count":0,"user_likes":false},"770887959594550":{"id":"770887959594550","from":{"id":"100005801442456","name":"An Nguyen"},"message":"Trước do a đọc báo nên thấy, giờ hết mùa hè rồi nên không còn thấy đăng, có gì a kiếm thêm thông tin a đăng lên cho. \nMới về tới nhà giờ mệt qué@.@\nCoi đỡ cái bài này đi nè:\n\nhttp://yonjuusai.seesaa.net/s/article/164410407.html","can_remove":false,"created_time":"2013-12-03T14:56:38+0000","like_count":3,"user_likes":false},"770889079594438":{"id":"770889079594438","from":{"id":"100005801442456","name":"An Nguyen"},"message":"Cái này là bài nói về chia sẻ kinh nghiệm đi \" phượt \" dạng đó đấy(⌒▽⌒)","can_remove":false,"created_time":"2013-12-03T14:58:35+0000","like_count":0,"user_likes":false},"770894686260544":{"id":"770894686260544","from":{"id":"100004099326394","name":"Thanh Chan"},"message":"Vâng, em cảm ơn a ạ, nếu có thông tin hay link nào nói chi tiết a share e với nhé. お疲れ様でした. :)","can_remove":false,"created_time":"2013-12-03T15:12:02+0000","like_count":0,"user_likes":false},"770900926259920":{"id":"770900926259920","from":{"id":"100001848885057","name":"Tiểu Mỡ Nhi"},"message":"Em nữa. EM cũng muốn biết để có gì còn tham gia ạ","can_remove":false,"created_time":"2013-12-03T15:28:53+0000","like_count":0,"user_likes":false},"770901952926484":{"id":"770901952926484","from":{"id":"100005801442456","name":"An Nguyen"},"message":"Tinh thần thế là tốt! \" xách bao ngô và đi \" à nhầm xách ba lô và đi... Vừa đi vừa học hỏi mà có tiền! Bữa đi Fukuoka mới biết ở đó là nơi duy nhất nước nhật trồng cây ô liu, còn lại 99,% là nhập từ ý và Tây ban nha","can_remove":false,"created_time":"2013-12-03T15:31:42+0000","like_count":2,"user_likes":false},"770927842923895":{"id":"770927842923895","from":{"id":"100003105034037","name":"Pham Oanh"},"message":"A An! 2 cai link a share kia là k phai là mjnh đk để ở home stay ạ,","can_remove":false,"created_time":"2013-12-03T16:21:18+0000","like_count":0,"user_likes":false},"771147832901896":{"id":"771147832901896","from":{"id":"100004094346107","name":"Thuy Nga Nguyen"},"message":"Rất tiếc mình đang ở Việt Nam nên ko tham gia dc :(","can_remove":false,"created_time":"2013-12-04T00:43:33+0000","like_count":1,"user_likes":false},"771262462890433":{"id":"771262462890433","from":{"id":"100006860141377","name":"Gấu Của Hôm Nay"},"message":"Đăng kí đi như vậy mất bao nhiêu hả anh","can_remove":false,"created_time":"2013-12-04T05:36:04+0000","like_count":0,"user_likes":false},"780461895303823":{"id":"780461895303823","from":{"id":"100005801442456","name":"An Nguyen"},"message":"Du lịch kết hợp đi làm? Homestay ? Kham Pha","message_tags":[{"id":"100001458099624","name":"Kham Pha","type":"user","offset":35,"length":8}],"can_remove":false,"created_time":"2013-12-19T03:05:22+0000","like_count":0,"user_likes":false}},"paging":{"cursors":{"after":"NzcwNTE0MjAyOTY1MjU5","before":"NzcwNTE0MjAyOTY1MjU5"},"next":"https://graph.facebook.com/229244010425617_770444256305587/comments?limit=1&summary=1&after=NzcwNTE0MjAyOTY1MjU5"},"summary":{"order":"chronological","total_count":19}}}