{"id":"229244010425617_770665902950089","type":"status","from":{"id":"100002779080239","name":"Nguyễn Biên"},"message":"Mình mới bị toạch visa du học tháng 1. Vì đã bị toạch nên ko biết xin visa đợt sau có khó ko nhỉ. Nghe nói nhiều trường ko nhận những người đã bị toạch visa 1 lần. Điều đó ko biết có phải ko mọi ng.","created_time":"2013-12-03T05:39:57+0000","updated_time":"2013-12-04T03:05:13+0000","likes":{"data":{"100005903373573":{"id":"100005903373573","name":"HaLinh Phong Phan"},"100004833332138":{"id":"100004833332138","name":"Thuat Nguyen"},"100001497673806":{"id":"100001497673806","name":"Hura Chan"},"100003894372515":{"id":"100003894372515","name":"Hoang Maianh"}},"paging":{"cursors":{"after":"MTAwMDA1OTAzMzczNTcz","before":"MTAwMDA1OTAzMzczNTcz"},"next":"https://graph.facebook.com/229244010425617_770665902950089/likes?limit=1&summary=1&after=MTAwMDA1OTAzMzczNTcz"},"summary":{"total_count":5}},"comments":{"data":{"770667702949909":{"id":"770667702949909","from":{"id":"100003922972619","name":"Trần Thị"},"message":"Rất rất khó","can_remove":false,"created_time":"2013-12-03T05:43:51+0000","like_count":1,"user_likes":false},"770668279616518":{"id":"770668279616518","from":{"id":"100002779080239","name":"Nguyễn Biên"},"message":"Vậy là tèo rồi :((","can_remove":false,"created_time":"2013-12-03T05:46:08+0000","like_count":0,"user_likes":false},"770688929614453":{"id":"770688929614453","from":{"id":"100002793066505","name":"Vang Vu"},"message":"cuc ky kho","can_remove":false,"created_time":"2013-12-03T07:01:52+0000","like_count":0,"user_likes":false},"770689276281085":{"id":"770689276281085","from":{"id":"100005801442456","name":"An Nguyen"},"message":"\" toạch\"  2 lần mới đc sang này","can_remove":false,"created_time":"2013-12-03T07:03:34+0000","like_count":1,"user_likes":false},"770705156279497":{"id":"770705156279497","from":{"id":"100003796430338","name":"Cường Ađam Z"},"message":"Cũng bt có lý do là ok mak mink trượt chắc 4lan :))","can_remove":false,"created_time":"2013-12-03T08:07:59+0000","like_count":0,"user_likes":false},"770712449612101":{"id":"770712449612101","from":{"id":"100004262372923","name":"Trần Hữu Nam"},"message":"sao truot vay ban?","can_remove":false,"created_time":"2013-12-03T08:27:19+0000","like_count":0,"user_likes":false},"770716742945005":{"id":"770716742945005","from":{"id":"100006457419726","name":"Nam Văn Lê"},"message":"biet ly do truot k vay","can_remove":false,"created_time":"2013-12-03T08:44:11+0000","like_count":0,"user_likes":false},"770723622944317":{"id":"770723622944317","from":{"id":"100002929761522","name":"Langpam Tran"},"message":"khai cho thật vào chớ nhỉ, phải nói sao cho nó biết rằng kinh tế nhà mình đủ đưa qua đủ đưa về mà ko trốn bên đấy :v","can_remove":false,"created_time":"2013-12-03T09:11:01+0000","like_count":0,"user_likes":false},"770724812944198":{"id":"770724812944198","from":{"id":"100000603915176","name":"悪いな ぁ"},"message":"Phần lớn các công ty du học từ chối hồ sơ đã bị từ chối. Công ty nào vẫn nhận đều yêu cầu làm hồ sơ mới và xào nấu thêm khá nhiều nhưng khả năng vẫn là 50/50 :)","can_remove":false,"created_time":"2013-12-03T09:12:43+0000","like_count":0,"user_likes":false},"770728646277148":{"id":"770728646277148","from":{"id":"100002779080239","name":"Nguyễn Biên"},"message":"Họ gửi lý do về rất chung chung. Ko nói rõ là vì 1 lý do gì. Thế mới ấm ức.","can_remove":false,"created_time":"2013-12-03T09:24:38+0000","like_count":0,"user_likes":false},"770729536277059":{"id":"770729536277059","from":{"id":"100005903373573","name":"HaLinh Phong Phan"},"message":"The ly do bi truot la gi??? ban di cty nao o dau??? noi chung la cung 1phan la do mau man. minh cung bi truot vida thang 4 va da di thang 10 vua roi","can_remove":false,"created_time":"2013-12-03T09:27:40+0000","like_count":0,"user_likes":false},"770729622943717":{"id":"770729622943717","from":{"id":"100002779080239","name":"Nguyễn Biên"},"message":"Vấn đề ở đây là việc nhiều trường tiếng ko nhận hồ sơ của những người đã bị trượt visa 1 lần. Điều đó ko biết có phải ko nhỉ","can_remove":false,"created_time":"2013-12-03T09:28:00+0000","like_count":0,"user_likes":false},"770730076277005":{"id":"770730076277005","from":{"id":"100002779080239","name":"Nguyễn Biên"},"message":"Mình đi theo cty vinafor thuộc tổng cty lâm nghiệp VN.","can_remove":false,"created_time":"2013-12-03T09:29:18+0000","like_count":1,"user_likes":false},"770730356276977":{"id":"770730356276977","from":{"id":"100000603915176","name":"悪いな ぁ"},"message":"Không liên quan đến trường, trường không thể biết được ai đã từng bị trượt cả. Duyệt là do Cục xuất nhập cảnh của Nhật. Cục cho đi thì ĐSQ sẽ cấp. Tốt nhất bạn nên cầm bộ HS của bạn cho một người nào đó chuyên làm HS du học, họ có thể chỉ ra cho bạn tại sao bị từ chối.","can_remove":false,"created_time":"2013-12-03T09:30:28+0000","like_count":0,"user_likes":false},"770730489610297":{"id":"770730489610297","from":{"id":"100005903373573","name":"HaLinh Phong Phan"},"message":"neu biet dc ly do visao truot thi xu ly ho so no moi de","can_remove":false,"created_time":"2013-12-03T09:31:01+0000","like_count":0,"user_likes":false},"770730842943595":{"id":"770730842943595","from":{"id":"1813611352","name":"To Đùng"},"message":"悪いな ぁ xin visa du lịch thì dễ hơn à anh Tú ơi. em đang tính ăn dè tiết kiệm vài năm tích ít tiền cho vợ đi du lịch Nhật 1 chuyến ạ >.<","message_tags":[{"id":"100000603915176","name":"悪いな ぁ","type":"user","offset":0,"length":5}],"can_remove":false,"created_time":"2013-12-03T09:32:11+0000","like_count":1,"user_likes":false},"770730876276925":{"id":"770730876276925","from":{"id":"100000603915176","name":"悪いな ぁ"},"message":"Cũng không loại trừ Cty du học mà bạn làm HS dính phốt :) Ví dụ những sv họ từng đưa sang trốn nhiều này, đi làm quá giờ nhiều bị phát hiện, vi phạm pháp luật...","can_remove":false,"created_time":"2013-12-03T09:32:24+0000","like_count":0,"user_likes":false},"770731002943579":{"id":"770731002943579","from":{"id":"100000603915176","name":"悪いな ぁ"},"message":"Visa du lịch nghe thì có vẻ dễ nhưng đôi khi cũng vẫn bị từ chối, đừng nghĩ dễ :)","can_remove":false,"created_time":"2013-12-03T09:33:01+0000","like_count":0,"user_likes":false},"770732232943456":{"id":"770732232943456","from":{"id":"1813611352","name":"To Đùng"},"message":"lý do mà visa du lịch bị từ chối thì là gì hả anh","can_remove":false,"created_time":"2013-12-03T09:37:52+0000","like_count":0,"user_likes":false},"770732752943404":{"id":"770732752943404","from":{"id":"100000603915176","name":"悪いな ぁ"},"message":"Phần lớn là họ nghi tài chính có vấn đề, sang để trốn ở lại :)","can_remove":false,"created_time":"2013-12-03T09:40:15+0000","like_count":0,"user_likes":false},"770735836276429":{"id":"770735836276429","from":{"id":"1813611352","name":"To Đùng"},"message":"ôi zời :))","can_remove":false,"created_time":"2013-12-03T09:50:49+0000","like_count":0,"user_likes":false},"770736839609662":{"id":"770736839609662","from":{"id":"100002947904369","name":"Cường Ace"},"message":"おめでとうございます","can_remove":false,"created_time":"2013-12-03T09:56:11+0000","like_count":0,"user_likes":false},"770738222942857":{"id":"770738222942857","from":{"id":"100000603915176","name":"悪いな ぁ"},"message":"Cường Ace mấy tuổi rồi? biết gõ tiếng Nhật vậy có biết động não không? Bao giờ có người chúc mừng lúc bạn gặp chuyện kg vui thì bạn nghĩ gì?","can_remove":false,"created_time":"2013-12-03T10:01:00+0000","like_count":1,"user_likes":false},"770738812942798":{"id":"770738812942798","from":{"id":"100002947904369","name":"Cường Ace"},"message":"Thế bạn bảo sang đc tháng 1 có tốt không???","can_remove":false,"created_time":"2013-12-03T10:03:22+0000","like_count":0,"user_likes":false},"770739026276110":{"id":"770739026276110","from":{"id":"100000603915176","name":"悪いな ぁ"},"message":"Chẳng liên quan! Sang tháng 1 hay tháng mấy không quan trọng, đấy là việc lúc sang rồi. Quan trọng ở đây là vấn đề đang bị từ chối, hiểu chứ?","can_remove":false,"created_time":"2013-12-03T10:04:12+0000","like_count":0,"user_likes":false},"770739699609376":{"id":"770739699609376","from":{"id":"100002947904369","name":"Cường Ace"},"message":"Bạn đã ở nhật chưa, bị trật tháng 1 là quá tốt đấy","can_remove":false,"created_time":"2013-12-03T10:06:22+0000","like_count":0,"user_likes":false},"770740152942664":{"id":"770740152942664","from":{"id":"100000603915176","name":"悪いな ぁ"},"message":"Thế à, cảm ơn bạn. Thứ nhất, nếu sang tháng 1 là không tốt thì bạn an ủi người ta bằng lý do nó không tốt. Thứ hai, mình chưa sang Nhật bao giờ nên không biết tốt xấu gì hết. Chỉ biết điều xấu ở đây là bị từ chối visa thì sau đó sẽ khó xin tiếp, thế thôi :)","can_remove":false,"created_time":"2013-12-03T10:08:14+0000","like_count":1,"user_likes":false},"770782529605093":{"id":"770782529605093","from":{"id":"100000442929887","name":"Mike Yi"},"message":"góp thêm vài điều.... visa du lịch nhìu khi đến cửa khẩu đã bị giữ lại và ngày hôm sau trả về nước củng có.Visa thương mại củng thế.... vào nó nhìn ăn mặc thấy ghê là nó đuổi luôn ko cho vào.Nhìu người bị như vậy 2 , 3 năm sau vẫn ko vào được Japan.","can_remove":false,"created_time":"2013-12-03T11:50:13+0000","like_count":0,"user_likes":false},"771209029562443":{"id":"771209029562443","from":{"id":"100006827047311","name":"Chu Chu"},"message":"bị trượt COE thì sau này đi du lịch có ảnh hưởng ko mấy bạn?","can_remove":false,"created_time":"2013-12-04T03:05:13+0000","like_count":0,"user_likes":false}},"paging":{"cursors":{"after":"NzcwNjY3NzAyOTQ5OTA5","before":"NzcwNjY3NzAyOTQ5OTA5"},"next":"https://graph.facebook.com/229244010425617_770665902950089/comments?limit=1&summary=1&after=NzcwNjY3NzAyOTQ5OTA5"},"summary":{"order":"chronological","total_count":29}}}