{"id":"229244010425617_770779762938703","type":"photo","object_id":"716083331735919","picture":"https://fbcdn-photos-g-a.akamaihd.net/hphotos-ak-prn2/t1.0-0/1240411_716083331735919_164798459_s.jpg","link":"https://www.facebook.com/photo.php?fbid=716083331735919&set=gm.770779762938703&type=1&relevant_count=1","from":{"id":"100000027754899","name":"Hoang Van Ba"},"message":"Món thích nhất thì đắt nòi tòi phòi :((\n台湾料理屋さんで‼︎","created_time":"2013-12-03T11:43:06+0000","updated_time":"2013-12-03T14:39:53+0000","likes":{"data":{"100000064686295":{"id":"100000064686295","name":"Huy Roli"},"100001754136107":{"id":"100001754136107","name":"Nguyễn Tuấn Vũ"},"100003780948776":{"id":"100003780948776","name":"Sâu Đặng"}},"paging":{"cursors":{"after":"MTAwMDAwMDY0Njg2Mjk1","before":"MTAwMDAwMDY0Njg2Mjk1"},"next":"https://graph.facebook.com/229244010425617_770779762938703/likes?limit=1&summary=1&after=MTAwMDAwMDY0Njg2Mjk1"},"summary":{"total_count":3}},"comments":{"data":{"770810336268979":{"id":"770810336268979","from":{"id":"100000442929887","name":"Mike Yi"},"message":"nhiu đó mà đắt gì ?","can_remove":false,"created_time":"2013-12-03T12:55:46+0000","like_count":0,"user_likes":false},"770812719602074":{"id":"770812719602074","from":{"id":"100000514388236","name":"Duy Khánh"},"message":"Say chưa ku","can_remove":false,"created_time":"2013-12-03T13:01:36+0000","like_count":0,"user_likes":false},"770813739601972":{"id":"770813739601972","from":{"id":"100001416272263","name":"Mai PB"},"message":"Duy Khanh không comment kiểu đó nhé. Lịch sự đi.","can_remove":false,"created_time":"2013-12-03T13:04:31+0000","like_count":1,"user_likes":false},"770852372931442":{"id":"770852372931442","from":{"id":"100000514388236","name":"Duy Khánh"},"message":"Thằng bạn cùng phòng nó đi ăn với lớp.hỏi nó sem có bò được về không để đến đón nó về mà :))","can_remove":false,"created_time":"2013-12-03T13:55:29+0000","like_count":1,"user_likes":false},"770854166264596":{"id":"770854166264596","from":{"id":"100000027754899","name":"Hoang Van Ba"},"message":"Ồh thằng đệ :))\nKo hổ danh là Mõ Làng. Đâu cũng thấy mặt là sao Duy Khánh ??","message_tags":[{"id":"100000514388236","name":"Duy Khánh","type":"user","offset":64,"length":9}],"can_remove":false,"created_time":"2013-12-03T13:58:50+0000","like_count":0,"user_likes":false},"770857866264226":{"id":"770857866264226","from":{"id":"100000514388236","name":"Duy Khánh"},"message":"Ko mang con vịt bắc kinh kia về đây thì ....","can_remove":false,"created_time":"2013-12-03T14:02:05+0000","like_count":0,"user_likes":false},"770858226264190":{"id":"770858226264190","from":{"id":"100000027754899","name":"Hoang Van Ba"},"message":"Thì ăn hết đi chứ j ?? \nKo phải bảo","can_remove":false,"created_time":"2013-12-03T14:02:37+0000","like_count":0,"user_likes":false},"770878962928783":{"id":"770878962928783","from":{"id":"100001416272263","name":"Mai PB"},"message":"Hai bạn tám chuyện thì về trang của nhau nhé, đây là chỗ public.","can_remove":false,"created_time":"2013-12-03T14:39:53+0000","like_count":1,"user_likes":false}},"paging":{"cursors":{"after":"NzcwODEwMzM2MjY4OTc5","before":"NzcwODEwMzM2MjY4OTc5"},"next":"https://graph.facebook.com/229244010425617_770779762938703/comments?limit=1&summary=1&after=NzcwODEwMzM2MjY4OTc5"},"summary":{"order":"chronological","total_count":8}}}