{"id":"229244010425617_770829672933712","type":"status","from":{"id":"100000226369400","name":"Vạn Lý Độc Hành"},"message":"Em chào các anh chị . Đợt vừa rồi em có làm mất ví ,kèm theo đó là toàn bộ giấy tờ tuỳ thân ,cả passport nữa. Hôm nay lại nghe tin bây giờ do Việt Nam! trốn ra ngoài nhiều ,có trường hợp bán cả Hộ chiếu và thẻ gai cho những ai trốn ra ngoài để qua mặt cảnh sát mỗi khi bị hỏi @@ Nên ĐSQ không cấp hộ chiếu ,có cấp thì cũng phải đợi đến vài tháng là ít @@ Anh chị nào rành vấn đề này không ạ ? Em xin cám ơn trước ạ :D","created_time":"2013-12-03T13:37:38+0000","updated_time":"2013-12-04T15:23:50+0000","likes":{"data":{"100004253979918":{"id":"100004253979918","name":"Louis Hoàng Văn Thái"},"100005775182411":{"id":"100005775182411","name":"Tuấn Milo"},"100001458099624":{"id":"100001458099624","name":"Kham Pha"},"100002421205294":{"id":"100002421205294","name":"Nghèo Kệ Tôi"},"1146680551":{"id":"1146680551","name":"優しい なぁ"},"100005801442456":{"id":"100005801442456","name":"An Nguyen"},"792083330":{"id":"792083330","name":"Duc Le"},"100003780948776":{"id":"100003780948776","name":"Sâu Đặng"},"100001899732293":{"id":"100001899732293","name":"Tồ Hồ Đồ"},"100005145330760":{"id":"100005145330760","name":"Sơn Vũ"}},"paging":{"cursors":{"after":"MTAwMDA0MjUzOTc5OTE4","before":"MTAwMDA0MjUzOTc5OTE4"},"next":"https://graph.facebook.com/229244010425617_770829672933712/likes?limit=1&summary=1&after=MTAwMDA0MjUzOTc5OTE4"},"summary":{"total_count":10}},"comments":{"data":{"770835786266434":{"id":"770835786266434","from":{"id":"100005145330760","name":"Sơn Vũ"},"message":"Mình cũng đang bị mất ví và thẻ ngoại kiều. Ai biết chia sẻ cho mình với. \nCảm ơn nhìu!","can_remove":false,"created_time":"2013-12-03T13:44:01+0000","like_count":1,"user_likes":false},"770836156266397":{"id":"770836156266397","from":{"id":"100001899732293","name":"Tồ Hồ Đồ"},"message":"Chúc mừng bạn may mắn lần sau :)","can_remove":false,"created_time":"2013-12-03T13:44:14+0000","like_count":2,"user_likes":false},"770842339599112":{"id":"770842339599112","from":{"id":"100001030555523","name":"Hoa NT"},"message":"Chúc bạn sớm nhận lại đc giấy tờ vì tớ làm rơi nhiều lần nhưng đều đc trả lại tốt nhất là bạn báo cho mấy chú keikan đã","can_remove":false,"created_time":"2013-12-03T13:48:02+0000","like_count":3,"user_likes":false},"770845666265446":{"id":"770845666265446","from":{"id":"100000226369400","name":"Vạn Lý Độc Hành"},"message":"T rơi lâu r nhưng mãi chả có tin tức gì :( Có 1 lần cũng đc đem trả nên lần này cũng hy vọng nhưng xem ra mất thật r :))","can_remove":false,"created_time":"2013-12-03T13:49:58+0000","like_count":1,"user_likes":false},"770853296264683":{"id":"770853296264683","from":{"id":"792083330","name":"Duc Le"},"message":"Sao nguy hiem qua","can_remove":false,"created_time":"2013-12-03T13:57:11+0000","like_count":1,"user_likes":false},"770863079597038":{"id":"770863079597038","from":{"id":"100001754136107","name":"Nguyễn Tuấn Vũ"},"message":"Sơn Vũ: bạn ra báo vs cảnh sát, xong ng ta sẽ cấp cho bạn 1 dãy số mât, cầm dãy số đó bạn ra shiyakusyo ng ta sẽ làm lại cho bạn thẻ bảo hiểm, cầm lên nyukan ng ta sẽ làm lại cho bạn thẻ gai","message_tags":[{"id":"100005145330760","name":"Sơn Vũ","type":"user","offset":0,"length":6}],"can_remove":false,"created_time":"2013-12-03T14:09:00+0000","like_count":2,"user_likes":false},"770863226263690":{"id":"770863226263690","from":{"id":"100001754136107","name":"Nguyễn Tuấn Vũ"},"message":"khi bạn đi nhơ mang theo hộ chiếu","can_remove":false,"created_time":"2013-12-03T14:09:21+0000","like_count":1,"user_likes":false},"770863976263615":{"id":"770863976263615","from":{"id":"100001754136107","name":"Nguyễn Tuấn Vũ"},"message":"Vạn Lý Độc Hành: cái này bạn nên đại sứ quán trình bay vs ng ta thôi. làm lại mất tàm 2 man 1 cái hộ chiếu thì phải( cái này k nhớ lắm )","can_remove":false,"created_time":"2013-12-03T14:11:09+0000","like_count":1,"user_likes":false},"770864799596866":{"id":"770864799596866","from":{"id":"100000226369400","name":"Vạn Lý Độc Hành"},"message":"@Tuấn Vũ : cậu có nhớ làm tg mất bao lâu ko ?","can_remove":false,"created_time":"2013-12-03T14:13:16+0000","like_count":0,"user_likes":false},"770867216263291":{"id":"770867216263291","from":{"id":"100005801442456","name":"An Nguyen"},"message":"Nhắc nhở Hai nt! Cm có Văn hoá , nếu tiếp tục , ban nick !","can_remove":false,"created_time":"2013-12-03T14:19:02+0000","like_count":2,"user_likes":false},"770869529596393":{"id":"770869529596393","from":{"id":"100005145330760","name":"Sơn Vũ"},"message":"Nguyễn Tuấn Vũ\nCảm ơn b nhé!","can_remove":false,"created_time":"2013-12-03T14:22:31+0000","like_count":0,"user_likes":false},"770871962929483":{"id":"770871962929483","from":{"id":"100005415788693","name":"Hai NT"},"message":"E xin lỗi c Vạn Lý Độc Hành nha","message_tags":[{"id":"100000226369400","name":"Vạn Lý Độc Hành","type":"user","offset":12,"length":15}],"can_remove":false,"created_time":"2013-12-03T14:27:10+0000","like_count":3,"user_likes":false},"770873389596007":{"id":"770873389596007","from":{"id":"100000226369400","name":"Vạn Lý Độc Hành"},"message":"Oke em :))))","can_remove":false,"created_time":"2013-12-03T14:29:29+0000","like_count":1,"user_likes":false},"770874149595931":{"id":"770874149595931","from":{"id":"100005415788693","name":"Hai NT"},"message":"E xin lỗi a an nguyen nữa nha","can_remove":false,"created_time":"2013-12-03T14:31:05+0000","like_count":0,"user_likes":false},"770874362929243":{"id":"770874362929243","from":{"id":"100005801442456","name":"An Nguyen"},"message":"Nói nữa yêu luôn giờ =))","can_remove":false,"created_time":"2013-12-03T14:31:32+0000","like_count":0,"user_likes":false},"770874409595905":{"id":"770874409595905","from":{"id":"100005415788693","name":"Hai NT"},"message":"E hứa lần sau ko thế nữa","can_remove":false,"created_time":"2013-12-03T14:31:34+0000","like_count":0,"user_likes":false},"770874922929187":{"id":"770874922929187","from":{"id":"100001754136107","name":"Nguyễn Tuấn Vũ"},"message":"Vạn Lý Độc Hành: tầm 1-2 tuần bạn ak","message_tags":[{"id":"100000226369400","name":"Vạn Lý Độc Hành","type":"user","offset":0,"length":15}],"can_remove":false,"created_time":"2013-12-03T14:32:22+0000","like_count":1,"user_likes":false},"770900806259932":{"id":"770900806259932","from":{"id":"1146680551","name":"優しい なぁ"},"message":"Đi đâu mà để mất hết thé em","can_remove":false,"created_time":"2013-12-03T15:28:41+0000","like_count":0,"user_likes":false},"770906579592688":{"id":"770906579592688","from":{"id":"100000226369400","name":"Vạn Lý Độc Hành"},"message":"E đi học về ...lúc lên tàu nhìn vẫn còn , về đã mất r :))) quá nhanh quá nguy hiểm :'(","can_remove":false,"created_time":"2013-12-03T15:43:50+0000","like_count":0,"user_likes":false},"770907682925911":{"id":"770907682925911","from":{"id":"1146680551","name":"優しい なぁ"},"message":"Thấy e đăng bên vysa lâu rồi mà vẫn chưa làm lại được à em","can_remove":false,"created_time":"2013-12-03T15:46:13+0000","like_count":0,"user_likes":false},"770907989592547":{"id":"770907989592547","from":{"id":"100000226369400","name":"Vạn Lý Độc Hành"},"message":"Cái hộ chiếu thì chưa a ạ :))","can_remove":false,"created_time":"2013-12-03T15:46:47+0000","like_count":0,"user_likes":false},"770908462925833":{"id":"770908462925833","from":{"id":"1146680551","name":"優しい なぁ"},"message":"Đsq nó bảo thế à :(","can_remove":false,"created_time":"2013-12-03T15:47:53+0000","like_count":0,"user_likes":false},"770912386258774":{"id":"770912386258774","from":{"id":"100000226369400","name":"Vạn Lý Độc Hành"},"message":"E hỏi mấy người thấy họ nói thế , bảo chờ mãi ko lấy đc :'(","can_remove":false,"created_time":"2013-12-03T15:57:07+0000","like_count":0,"user_likes":false},"770912732925406":{"id":"770912732925406","from":{"id":"100002421205294","name":"Nghèo Kệ Tôi"},"message":"Các anh admin không vào giúp được em mà toàn vào hỏi thôi. Thế là ý gì??? :)","can_remove":false,"created_time":"2013-12-03T15:57:59+0000","like_count":0,"user_likes":false},"770945456255467":{"id":"770945456255467","from":{"id":"1146680551","name":"優しい なぁ"},"message":"Quan tâm tới mem mà :)","can_remove":false,"created_time":"2013-12-03T16:58:36+0000","like_count":0,"user_likes":false},"770992149584131":{"id":"770992149584131","from":{"id":"100002421205294","name":"Nghèo Kệ Tôi"},"message":"Vâng các bác ad hết mưc quan tâm đến các mem nữ heeeee","can_remove":false,"created_time":"2013-12-03T18:15:45+0000","like_count":1,"user_likes":false},"771027352913944":{"id":"771027352913944","from":{"id":"100001458099624","name":"Kham Pha"},"message":"Mình đã từng mất cả ví có thẻ ngoại kiều và làm lại hộ chiếu.\n-Mất thẻ ngoại kiều: lên đồn cs xin giấy mất thẻ ngoại kiều rồi cầm đến nyukan trong vòng 14 ngày sau khi mất (theo luật). Thời gian lấy đc thẻ là sau khoảng 1h.\n-Làm lại hộ chiếu: mất hỏng lệ phí 1,5 man. Nhưng bọn đsq nó sẽ nghĩ đủ cách làm tiền mình, nó chém nhiều hay ít dựa vào nghề nghiệp và độ gà của bạn. Nó vòi mình thêm 5  sen nhưng rất tiếc mình in cả thông tư ra cho nó xem dí vào măt nó nên cuối cùng chỉ mất 1,5 man. Lúc nc với bọn nó mình còn để sẵn ghi âm có gì cho chúng nó lên báo luôn.\nBạn có quyền làm lại hộ chiếu bất kì thời gian nào, nếu họ từ chối ko làm thì bạn cứ thủ cái ghi âm cho lên báo. Cái bọn đsq chỉ giỏi bắt nạt người yếu bóng vía thôi.","can_remove":false,"created_time":"2013-12-03T19:40:23+0000","like_count":11,"user_likes":false},"771028432913836":{"id":"771028432913836","from":{"id":"100001458099624","name":"Kham Pha"},"message":"Đồ bị mất nói chung 90% sẽ quay trở lại nếu bạn báo cảnh sát và có người nhặt đc. Thường người ta nhặt đc sẽ trả chứ ko ai lấy làm gì. Có một lần mình rơi ví đi làm lại hết giấy tờ rồi 2 tháng sau cảnh sát báo đến lấy thì cái ví trông tả tơi lắm rồi vì chắc dầm mưa dãi nắng ko ai nhặt, nhưng bên trong thì vẫn còn nguyên tiền và thẻ.","can_remove":false,"created_time":"2013-12-03T19:42:44+0000","like_count":2,"user_likes":false},"771305136219499":{"id":"771305136219499","from":{"id":"100000226369400","name":"Vạn Lý Độc Hành"},"message":"E cám ơn a ạ :D","can_remove":false,"created_time":"2013-12-04T08:16:27+0000","like_count":0,"user_likes":false},"771456169537729":{"id":"771456169537729","from":{"id":"550401589","name":"Cuong Cao"},"message":"Anh nghĩ ko cần căng thẳng thế đâu, e chỉ cần hỏi sứ quán xem hướng dẫn cụ thể là ok thôi ;)\n\nEm phải hỏi đúng ng có thể giải quyết cho e đã, ko oan ĐSQ ^^","can_remove":false,"created_time":"2013-12-04T15:17:59+0000","like_count":1,"user_likes":false},"771458459537500":{"id":"771458459537500","from":{"id":"100000226369400","name":"Vạn Lý Độc Hành"},"message":"Dạ vâng cám ơn các senpai đã tư vấn dùm e ạ :D","can_remove":false,"created_time":"2013-12-04T15:23:50+0000","like_count":0,"user_likes":false}},"paging":{"cursors":{"after":"NzcwODM1Nzg2MjY2NDM0","before":"NzcwODM1Nzg2MjY2NDM0"},"next":"https://graph.facebook.com/229244010425617_770829672933712/comments?limit=1&summary=1&after=NzcwODM1Nzg2MjY2NDM0"},"summary":{"order":"chronological","total_count":31}}}