{"id":"229244010425617_771161499567196","type":"link","picture":"https://fbexternal-a.akamaihd.net/safe_image.php?d=AQAfuutYSo_ThhV1&w=154&h=154&url=http%3A%2F%2Fwww.19day.info%2Fwp-content%2Fuploads%2F2013%2F11%2Fi_am_vietnamese_posters-rce448f286c0448cf96c6b9ecece1e922_a211_8byvr_512b.jpg","link":"http://www.19day.info/dung-noi-rang-minh-yeu-viet-nam-lam/","from":{"id":"1813611352","name":"To Đùng"},"message":"\"Đừng nói rằng mình yêu Việt Nam lắm\". Hãy dành chưa đến 5 phút trong vô số thời gian rảnh của các bạn để đọc bài viết này.\nhttp://www.19day.info/dung-noi-rang-minh-yeu-viet-nam-lam/","created_time":"2013-12-04T01:15:54+0000","updated_time":"2013-12-04T05:21:40+0000","likes":{"data":{"569263718":{"id":"569263718","name":"Phuong Thao Tran"},"1023965040":{"id":"1023965040","name":"Juli KimChi"},"100000133587536":{"id":"100000133587536","name":"Mei Ki"},"100001754136107":{"id":"100001754136107","name":"Nguyễn Tuấn Vũ"},"100001848885057":{"id":"100001848885057","name":"Tiểu Mỡ Nhi"},"738235689":{"id":"738235689","name":"Dang Thi Phuong"},"100001723862714":{"id":"100001723862714","name":"Bo Bien Vang"},"100004543177973":{"id":"100004543177973","name":"Định Trương"},"100000603915176":{"id":"100000603915176","name":"悪いな ぁ"},"100004881932416":{"id":"100004881932416","name":"Anhđưataygiữlấy Nhữngnắmtrotànembỏlại"},"1146680551":{"id":"1146680551","name":"優しい なぁ"},"100002508122689":{"id":"100002508122689","name":"Vũ Mạnh Tuấn"},"100005801442456":{"id":"100005801442456","name":"An Nguyen"}},"paging":{"cursors":{"after":"NTY5MjYzNzE4","before":"NTY5MjYzNzE4"},"next":"https://graph.facebook.com/229244010425617_771161499567196/likes?limit=1&summary=1&after=NTY5MjYzNzE4"},"summary":{"total_count":14}},"comments":{"data":{"771163146233698":{"id":"771163146233698","from":{"id":"100001327275562","name":"Aoki Hagane No Arpeggio"},"message":"Cũng như mình chưa hiểu gì về thế giới, và nói rằng mình yêu thế giới này à ? o.O","can_remove":false,"created_time":"2013-12-04T01:19:07+0000","like_count":0,"user_likes":false},"771169172899762":{"id":"771169172899762","from":{"id":"100001458099624","name":"Kham Pha"},"message":"Aoki Hagane No Arpeggio yêu Việt Nam không? Viết tiếng Việt có dấu nhé. Bạn có 20' trước khi comment bị xóa.","message_tags":[{"id":"100001327275562","name":"Aoki Hagane No Arpeggio","type":"user","offset":0,"length":23}],"can_remove":false,"created_time":"2013-12-04T01:33:05+0000","like_count":1,"user_likes":false},"771172702899409":{"id":"771172702899409","from":{"id":"100001327275562","name":"Aoki Hagane No Arpeggio"},"message":"Bạn thích thì cứ xoá. Lần trước mình đã nói là điện thoại mình không hỗ trợ dấu mà.","can_remove":false,"created_time":"2013-12-04T01:41:57+0000","like_count":1,"user_likes":false},"771177472898932":{"id":"771177472898932","from":{"id":"100000603915176","name":"悪いな ぁ"},"message":"Hoá ra mình ghét VN, ghét lắm í :3","can_remove":false,"created_time":"2013-12-04T01:54:08+0000","like_count":0,"user_likes":false},"771177529565593":{"id":"771177529565593","from":{"id":"100002967791944","name":"Tôi Yêu VietNam"},"message":"ý thức kém quá A kham pha đề nghị xóa ngay!","can_remove":false,"created_time":"2013-12-04T01:54:16+0000","like_count":0,"user_likes":false},"771177662898913":{"id":"771177662898913","from":{"id":"100002967791944","name":"Tôi Yêu VietNam"},"message":"cần một sự mạnh tay để chung tay bảo vệ tiếng việt có xấu.","can_remove":false,"created_time":"2013-12-04T01:54:43+0000","like_count":0,"user_likes":false},"771178122898867":{"id":"771178122898867","from":{"id":"100000603915176","name":"悪いな ぁ"},"message":"Tiếng Việt có dấu không thôi chưa đủ. Một câu bao giờ cũng nên viết hoa chữ cái đầu, có dấu khi ngắt câu. Viết đúng văn phạm, đó mới là tiếng Việt :)","can_remove":false,"created_time":"2013-12-04T01:56:10+0000","like_count":2,"user_likes":false},"771178506232162":{"id":"771178506232162","from":{"id":"100001327275562","name":"Aoki Hagane No Arpeggio"},"message":"@Tôi Yêu VietNam : Mời search google về nokia 202 trước khi phán nhé.","can_remove":false,"created_time":"2013-12-04T01:57:16+0000","like_count":0,"user_likes":false},"771180436231969":{"id":"771180436231969","from":{"id":"100001327275562","name":"Aoki Hagane No Arpeggio"},"message":"@Waruina : Nếu vậy bạn hãy thêm dấu chấm cuối câu trước khi nói tiếp, nhé.","can_remove":false,"created_time":"2013-12-04T02:01:16+0000","like_count":1,"user_likes":false},"771181532898526":{"id":"771181532898526","from":{"id":"100001458099624","name":"Kham Pha"},"message":"Mình sẽ chờ bạn dùng laptop sửa.","can_remove":false,"created_time":"2013-12-04T02:03:28+0000","like_count":1,"user_likes":false},"771181646231848":{"id":"771181646231848","from":{"id":"100000603915176","name":"悪いな ぁ"},"message":":v","can_remove":false,"created_time":"2013-12-04T02:03:40+0000","like_count":0,"user_likes":false},"771182759565070":{"id":"771182759565070","from":{"id":"100001327275562","name":"Aoki Hagane No Arpeggio"},"message":"@Kham Pha : Hạn chót của mình là 15/12.","can_remove":false,"created_time":"2013-12-04T02:06:11+0000","like_count":2,"user_likes":false},"771182766231736":{"id":"771182766231736","from":{"id":"100000603915176","name":"悪いな ぁ"},"message":"Hay lắm, mọi người cứ bắt lỗi nhau liên tục thế này rồi sẽ đến lúc group nhìn sẽ sáng sủa hơn!","can_remove":false,"created_time":"2013-12-04T02:06:11+0000","like_count":0,"user_likes":false},"771182876231725":{"id":"771182876231725","from":{"id":"100005801442456","name":"An Nguyen"},"message":"Nhiều người xài đt nắp gập không viết có dấu được!","can_remove":false,"created_time":"2013-12-04T02:06:36+0000","like_count":0,"user_likes":false},"771183742898305":{"id":"771183742898305","from":{"id":"100000603915176","name":"悪いな ぁ"},"message":"Mà thôi, kg cần sửa đâu. Sau này nên rút kinh nghiệm. Đề nghị ad xoá luôn mấy comment ngoài lề cho đỡ loãng topic kg thì cu To Đùng lại buồn.","message_tags":[{"id":"1813611352","name":"To Đùng","type":"user","offset":124,"length":7}],"can_remove":false,"created_time":"2013-12-04T02:08:22+0000","like_count":1,"user_likes":false},"771184019564944":{"id":"771184019564944","from":{"id":"100001327275562","name":"Aoki Hagane No Arpeggio"},"message":"@An Nguyen : Symbian 40 OS không hỗ trợ viết dấu.","can_remove":false,"created_time":"2013-12-04T02:09:01+0000","like_count":0,"user_likes":false},"771184092898270":{"id":"771184092898270","from":{"id":"100001458099624","name":"Kham Pha"},"message":"Aoki Hagane No Arpeggio làm gì mà lâu thế. Lúc ấy là sợ bạn tìm lại post cũng chẳng thấy đâu với lượng bài post nhiều thế này.","message_tags":[{"id":"100001327275562","name":"Aoki Hagane No Arpeggio","type":"user","offset":0,"length":23}],"can_remove":false,"created_time":"2013-12-04T02:09:15+0000","like_count":0,"user_likes":false},"771185139564832":{"id":"771185139564832","from":{"id":"100001327275562","name":"Aoki Hagane No Arpeggio"},"message":"@Kham Pha : Trước khi thi HK1 xong thì mình không được dùng máy ạ.","can_remove":false,"created_time":"2013-12-04T02:12:15+0000","like_count":0,"user_likes":false},"771186006231412":{"id":"771186006231412","from":{"id":"100000882482676","name":"Quốc Lập"},"message":"Kham Pha sao khó tính thế :)). Bác sửa cái tên bác sang \"Khám Phá\" đi kìa :D","message_tags":[{"id":"100001458099624","name":"Kham Pha","type":"user","offset":0,"length":8}],"can_remove":false,"created_time":"2013-12-04T02:14:19+0000","like_count":0,"user_likes":false},"771186362898043":{"id":"771186362898043","from":{"id":"100005801442456","name":"An Nguyen"},"message":"Thật sự luật là luật, không thể khác hơn, nhưng đôi khi có những trường hợp bất khả kháng như bạn thì có \" tí chút \" chăm trước, nhưng không muốn trở thành tiền lệ cho mọi người nên bạn hãy chú ý hơn, nhưng ít ra bạn cũng là người biết thay đổi để tiến bộ hơn, rất đáng hoan nghênh.","can_remove":false,"created_time":"2013-12-04T02:15:24+0000","like_count":2,"user_likes":false},"771203952896284":{"id":"771203952896284","from":{"id":"1813611352","name":"To Đùng"},"message":"Lúc nào gặp người nước ngoài mình cũng muốn giúp đỡ họ, muốn cho họ thấy con người Việt Nam rất thân thiện, để hi vọng họ sẽ lại quay trở lại VN du lịch. Tiếng Anh nói thì kém nên chỉ bập bẹ đc mấy câu chỉ đường, hỏi xem có cần chụp ảnh hộ ko (hay thấy 2 người loay hoay chụp từng người và chụp đôi khó khăn)\n\nThế nhưng lại có 1 lượng lớn thành phần tự bôi tro chát đất lên bộ mặt mình.\n\nHàng loạt comment \"Việt Nam điểm danh...\" hay một loạt comment chửi nhau bằng TV trên fanpage của các nhân vật nổi tiếng ở nước ngoài. Phổ cập Tiếng Việt toàn thế giới? (?)\n\nMột loạt comment cuồng loạn ở các fanpage các diễn viên JAV? Đại bộ phận than niên Việt Nam cuồng loạn sex? Cuồng loạn phim JAV? Đó là điều các thanh niên đó muốn thể hiện?","can_remove":false,"created_time":"2013-12-04T02:53:06+0000","like_count":1,"user_likes":false},"771204879562858":{"id":"771204879562858","from":{"id":"1813611352","name":"To Đùng"},"message":"Bán hàng thì chặt chém khách du lịch? Ăn sổi? Rồi đến 1 ngày ko còn 1 bóng khách du lịch thì quay ra bán cho nhau?","can_remove":false,"created_time":"2013-12-04T02:54:25+0000","like_count":0,"user_likes":false},"771207369562609":{"id":"771207369562609","from":{"id":"1813611352","name":"To Đùng"},"message":"Việt Nam lúc nào cũng tự hào có nhiều danh lam thắng cảnh. Đc công nhận trong nước và quốc tế.  Nhưng lượng khách du lịch quốc tế thì thế nào? Chả tương xứng gì. Nhà nước thì đầu tư hạn hẹp. Thiếu quan tâm sâu sắc. \n\nĐiển hình là vụ Vũ Xuân Tiến được Arsenal lấy hình ảnh. Tại sao họ có thể tận dụng và lấy về cho họ hình ảnh đẹp nhất để quảng cáo? Còn Việt Nam thì chẳng có gì ngoài lá cờ đỏ sao vàng chạy lon ton ( ai chả biết đó là cờ Việt Nam) nhưng bên trong đó thì có gì hấp dẫn? Chả biết. Chả cơ quan nào giới thiệu (hình như là bộ văn hoá và du lịch nhỉ) \nLý do trả lời là gì? \"em ấy sang Anh quá bất ngờ, chúng tôi ko liên hệ kịp\".... Haizzzz cái điều mà gần như ai cũng biết trên internet là Tiến sắp đc sang Anh, có mỗi các ông ko biết?\nĐề nghị lắp internet cho bộ văn hoá và du lịch.","can_remove":false,"created_time":"2013-12-04T03:00:40+0000","like_count":0,"user_likes":false},"771208549562491":{"id":"771208549562491","from":{"id":"100001327275562","name":"Aoki Hagane No Arpeggio"},"message":"Không muốn bàn luận về chính trị ở đây vì ngán nói phạm đến \"Ơn trên\" của các bác Đảng ta, cũng như bị các chú Côn an \"xộ khám\". :3","can_remove":false,"created_time":"2013-12-04T03:03:47+0000","like_count":0,"user_likes":false},"771210256228987":{"id":"771210256228987","from":{"id":"1813611352","name":"To Đùng"},"message":"Chả có gì là chính chị ở đây cả. Đây là dân trí Aoki Hagane No Arpeggio ạ.","message_tags":[{"id":"100001327275562","name":"Aoki Hagane No Arpeggio","type":"user","offset":48,"length":23}],"can_remove":false,"created_time":"2013-12-04T03:07:40+0000","like_count":1,"user_likes":false},"771227776227235":{"id":"771227776227235","from":{"id":"100000603915176","name":"悪いな ぁ"},"message":"Nếu không muốn có thể không comment ;)","can_remove":false,"created_time":"2013-12-04T03:54:37+0000","like_count":0,"user_likes":false},"771228936227119":{"id":"771228936227119","from":{"id":"100002967791944","name":"Tôi Yêu VietNam"},"message":"hoặc comment bằng tiếng anh-tiếng nhật đúng ngữ pháp đúng từ-","can_remove":false,"created_time":"2013-12-04T03:57:06+0000","like_count":0,"user_likes":false},"771244429558903":{"id":"771244429558903","from":{"id":"100001327275562","name":"Aoki Hagane No Arpeggio"},"message":"Ừm.","can_remove":false,"created_time":"2013-12-04T04:40:07+0000","like_count":0,"user_likes":false},"771258152890864":{"id":"771258152890864","from":{"id":"100000381394367","name":"Thành Nguyễn"},"message":"https://www.facebook.com/groups/CongdongVietNhat/permalink/771212172895462/","can_remove":false,"created_time":"2013-12-04T05:21:40+0000","like_count":0,"user_likes":false}},"paging":{"cursors":{"after":"NzcxMTYzMTQ2MjMzNjk4","before":"NzcxMTYzMTQ2MjMzNjk4"},"next":"https://graph.facebook.com/229244010425617_771161499567196/comments?limit=1&summary=1&after=NzcxMTYzMTQ2MjMzNjk4"},"summary":{"order":"chronological","total_count":29}}}