{"id":"229244010425617_771190002897679","type":"link","link":"http://yurika.saromalang.com/du-hoc-nhat-ban/sang-nhat-du-hoc-mang-gi","from":{"id":"100000359762118","name":"Mi Tra"},"message":"Kỳ nhập học tháng 1 sắp tới. Các bạn sắp đi chắc hẳn đang rất đau đầu và lăn tăn không biết nên mua gì, mang gì. Hi vọng chút kinh nghiệm trong link dưới đây sẽ giúp ích phần nào cho các bạn.\n\nCòn lời khuyên của mình cho các bạn là KHÔNG NÊN MUA QUÁ NHIỀU ĐỒ. Chỉ cần những thứ tối thiểu cho 1, 2 tháng đầu thôi. Lên danh sách, viết ra giấy rồi xem thứ nào cần thiết, thứ nào không cần. Tránh trường hợp mất công mang sang Nhật ko dùng rồi vứt đi gây lãng phí, tốn tiền của bố mẹ.\n\nHành trang cần thiết nhất cần phải mang sang Nhật là kiến thức về tiếng Nhật, kiến thức về xã hội, cuộc sống, con người Nhật. Trước khi đi hãy dành thời gian lên mạng tìm hiểu về những thứ đó để khi sang không bị bỡ ngỡ các bạn nhé!\n\nChúc các bạn có một cuộc sống thật ý nghĩa tại Nhật.\n\nhttp://yurika.saromalang.com/du-hoc-nhat-ban/sang-nhat-du-hoc-mang-gi","created_time":"2013-12-04T02:23:55+0000","updated_time":"2013-12-04T07:03:43+0000","likes":{"data":{"100004253979918":{"id":"100004253979918","name":"Louis Hoàng Văn Thái"},"1318895018":{"id":"1318895018","name":"Van T Tran"},"100004450956167":{"id":"100004450956167","name":"Thắng Satoh"},"100002526707690":{"id":"100002526707690","name":"Phan Toan"},"100004398127401":{"id":"100004398127401","name":"Đứng Dậy Vươn Vai"},"100003968760992":{"id":"100003968760992","name":"Nguyễn Kông"},"1026780646":{"id":"1026780646","name":"Việt Hưng Khổng"},"100004446185815":{"id":"100004446185815","name":"Hiền Jp"},"100002419566054":{"id":"100002419566054","name":"Khánh Toàn"},"100003007563291":{"id":"100003007563291","name":"Đào Trần"},"1283298041":{"id":"1283298041","name":"Búa Đức Thanh"},"100001526631937":{"id":"100001526631937","name":"Tường Oanh Mineko"},"100004251845458":{"id":"100004251845458","name":"Hoàng Anh"},"100004460823104":{"id":"100004460823104","name":"Trang Pham"},"100005903373573":{"id":"100005903373573","name":"HaLinh Phong Phan"},"100005024348771":{"id":"100005024348771","name":"Long Hoàng"},"100001848885057":{"id":"100001848885057","name":"Tiểu Mỡ Nhi"},"100002262360322":{"id":"100002262360322","name":"Nhật Trần"},"100006479420145":{"id":"100006479420145","name":"Trịnh Thị Kim Anh"},"1837866264":{"id":"1837866264","name":"QuynhDo Anh"},"1821970083":{"id":"1821970083","name":"Nguyễn Mạnh Cường"},"1816269439":{"id":"1816269439","name":"Dao Ngoc"},"100003250657085":{"id":"100003250657085","name":"Nhất Kiếm Vô Tình"},"1146680551":{"id":"1146680551","name":"優しい なぁ"},"100002911187986":{"id":"100002911187986","name":"Nghia Bui"},"100003205232355":{"id":"100003205232355","name":"Nguyen Viet Tien"},"100001458099624":{"id":"100001458099624","name":"Kham Pha"}},"paging":{"cursors":{"after":"MTAwMDA0MjUzOTc5OTE4","before":"MTAwMDA0MjUzOTc5OTE4"},"next":"https://graph.facebook.com/229244010425617_771190002897679/likes?limit=1&summary=1&after=MTAwMDA0MjUzOTc5OTE4"},"summary":{"total_count":28}},"comments":{"data":{"771199029563443":{"id":"771199029563443","from":{"id":"100002911187986","name":"Nghia Bui"},"message":"mình cũng sang đợt tháng 1 này, học tại Fukuoka. Rất mong được làm quen với mọi người!!!","can_remove":false,"created_time":"2013-12-04T02:37:38+0000","like_count":4,"user_likes":false},"771205066229506":{"id":"771205066229506","from":{"id":"100000359762118","name":"Mi Tra"},"message":"Welcome bạn ((✿ฺ◕ฺ∀◕ฺ｀）\nCó vấn đề gì cần giải đáp bạn cứ lên diễn đàn hỏi nhé! Chúng mình sẽ giúp (trong khả năng có thể)","can_remove":false,"created_time":"2013-12-04T02:55:22+0000","like_count":0,"user_likes":false},"771208066229206":{"id":"771208066229206","from":{"id":"100000359762118","name":"Mi Tra"},"message":"Bạn tham khảo trong danh mục của Group nhé!\n\nhttps://www.facebook.com/notes/c%E1%BB%99ng-%C4%91%E1%BB%93ng-vi%E1%BB%87t-nh%E1%BA%ADt-vietnam-japan-community-/v%C4%83n-h%C3%B3a-nh%E1%BA%ADt-b%E1%BA%A3n/704101046273242","can_remove":false,"created_time":"2013-12-04T03:02:30+0000","like_count":0,"user_likes":false},"771208126229200":{"id":"771208126229200","from":{"id":"100002911187986","name":"Nghia Bui"},"message":"Cảm ơn bạn!. Mình rất thích cách mọi người nói chuyện rất thẳng thắn và chân thành về cuộc sống bên đó. Mình cũng học tiếng Nhật khá lâu và làm quen với văn hóa Nhật cũng tương đối, song vẫn còn nhiều điều không biết quá...ở Fukuoka có hội nhóm người Việt nào không bạn? Mình muốn tham gia cùng mọi người vì sắp đến Tết rùi mà không muốn đón Tết một mình ....","can_remove":false,"created_time":"2013-12-04T03:02:44+0000","like_count":1,"user_likes":false},"771208702895809":{"id":"771208702895809","from":{"id":"100000359762118","name":"Mi Tra"},"message":"Nghia Bui: Mình không ở Fukuoka nên không rõ lắm nhưng ở đó chắc chắn là có khá nhiều người VN đó","message_tags":[{"id":"100002911187986","name":"Nghia Bui","type":"user","offset":0,"length":9}],"can_remove":false,"created_time":"2013-12-04T03:04:24+0000","like_count":1,"user_likes":false},"771236582893021":{"id":"771236582893021","from":{"id":"100000356310797","name":"Thomas Huynh"},"message":"mun di nhat qua ,thay may anh chi p ben nhat chac la thix lam nh?","can_remove":false,"created_time":"2013-12-04T04:15:06+0000","like_count":0,"user_likes":false},"771242996225713":{"id":"771242996225713","from":{"id":"100000359762118","name":"Mi Tra"},"message":"Ko thích như bạn nghĩ đâu Thomas Huynh ạ. \nMà quy định của diễn đàn là viết tiếng Việt có dấu nên bạn sửa lại cmt đi nhé!","can_remove":false,"created_time":"2013-12-04T04:35:20+0000","like_count":0,"user_likes":false},"771284402888239":{"id":"771284402888239","from":{"id":"100001754136107","name":"Nguyễn Tuấn Vũ"},"message":"fukuoka chào đón bạn :D","can_remove":false,"created_time":"2013-12-04T07:03:43+0000","like_count":0,"user_likes":false}},"paging":{"cursors":{"after":"NzcxMTk5MDI5NTYzNDQz","before":"NzcxMTk5MDI5NTYzNDQz"},"next":"https://graph.facebook.com/229244010425617_771190002897679/comments?limit=1&summary=1&after=NzcxMTk5MDI5NTYzNDQz"},"summary":{"order":"chronological","total_count":8}}}