{"id":"229244010425617_771239402892739","type":"photo","object_id":"10202689429181115","picture":"https://fbcdn-photos-a-a.akamaihd.net/hphotos-ak-prn2/t1.0-0/1467410_10202689429181115_1934951465_s.jpg","link":"https://www.facebook.com/photo.php?fbid=10202689429181115&set=gm.771239402892739&type=1&relevant_count=1","from":{"id":"1360206865","name":"Tho Tran"},"message":"HỘI THẢO DỰ BÁO SỰ BIẾN ĐỔI CỦA NỀN CÔNG NGHIỆP THẾ GIỚI\nHội thảo được kết hợp tổ chức giữa CLB Tokyo Edo Lions (Nhật Bản), Công ty Cổ phần thương mại KYODAI và CLB Giao Lưu Kinh Tế Kỹ Thuật Nhật Việt.\nTham dự hội thảo có Nguyên Đại sứ Việt Nam tại Nhật Bản: Ông NGUYỄN PHÚ BÌNH, các cựu lưu học sinh Việt Nam tại Nhật, các doanh nghiệp Nhật Bản và Việt Nam.\n-----------------***------------------\nNền công nghiệp thế giới sẽ thay đổi như thế nào trong tương lai?\n- Điện toán đám mây - Mở màn kỷ nguyên máy tính thứ 3 \n- Thị trường & Dịch vụ hóa thương mại \n- Giải mã GEN sẽ mang lại gì những gì? \n- Công nghiệp hóa “Nông nghiệp” và “Y tế” \n- Từ tiêu hao đến tuần hoàn - Tuần hoàn Carbon trong sử dụng năng lượng \n- Hướng tới Ngành dịch vụ năng lượng\n- Ô tô trong tương lai là gì? Khái niệm Motor điện? \n- Kết nối điện toán đám mây & Sự thay đổi khái niệm của hàng loạt sản phẩm \n- Ngành dịch vụ chăm sóc sức khỏe - Quốc tế hóa và tự do khám chữa bệnh \n- Ngành dịch vụ thực phẩm vi sinh - Từ nông trường nông sản đến công trường vi sinh.\n-----------------***-------------------\nNếu quan tâm đến những vấn đề trên, mời các bạn đăng ký tham dự hội thảo tại đường link sau. Hội thảo miễn phí tham dự và thời hạn đăng ký 9/12/2013: https://docs.google.com/forms/d/1SYwVkcHf8MKe67Nxo-WyLWXbtYRcnmP9cgBxuOGU6vg/","created_time":"2013-12-04T04:24:54+0000","updated_time":"2013-12-06T03:06:45+0000","likes":{"data":{"100000045271667":{"id":"100000045271667","name":"Nam Thai Nguyen"},"569263718":{"id":"569263718","name":"Phuong Thao Tran"},"100002239266238":{"id":"100002239266238","name":"Gin Phạm"},"1360206865":{"id":"1360206865","name":"Tho Tran"}},"paging":{"cursors":{"after":"MTAwMDAwMDQ1MjcxNjY3","before":"MTAwMDAwMDQ1MjcxNjY3"},"next":"https://graph.facebook.com/229244010425617_771239402892739/likes?limit=1&summary=1&after=MTAwMDAwMDQ1MjcxNjY3"},"summary":{"total_count":4}},"comments":{"data":{"771244632892216":{"id":"771244632892216","from":{"id":"1360206865","name":"Tho Tran"},"message":"Hội thảo có topic rất hay, bổ ích, mang tính thời đại và là cơ hội tốt để giao lưu văn hóa Việt Nam - Nhật Bản. Các bạn đăng ký tham dự nhé!","can_remove":false,"created_time":"2013-12-04T04:40:51+0000","like_count":0,"user_likes":false},"771476732869006":{"id":"771476732869006","from":{"id":"569263718","name":"Phuong Thao Tran"},"message":"toàn những nội dung hay !!! chỉ tiếc là tổ chức ở HN, :(","can_remove":false,"created_time":"2013-12-04T16:11:25+0000","like_count":0,"user_likes":false},"771507712865908":{"id":"771507712865908","from":{"id":"1360206865","name":"Tho Tran"},"message":"Phuong Thao Tran: Bạn ở TP Hồ Chí Minh phải không? Mong là sẽ sớm có dịp tổ chức hội thảo này tại Sài Gòn :)","message_tags":[{"id":"569263718","name":"Phuong Thao Tran","type":"user","offset":0,"length":16}],"can_remove":false,"created_time":"2013-12-04T17:06:22+0000","like_count":0,"user_likes":false},"771786582838021":{"id":"771786582838021","from":{"id":"569263718","name":"Phuong Thao Tran"},"message":"đúng rồi bạn. Mình hơi thắc mắc tí: có 2 tiếng đồng hồ mà nói hết chừng đó nội dung luôn hả Tho Tran ?","message_tags":[{"id":"1360206865","name":"Tho Tran","type":"user","offset":92,"length":8}],"can_remove":false,"created_time":"2013-12-05T02:49:33+0000","like_count":0,"user_likes":false},"771787179504628":{"id":"771787179504628","from":{"id":"1360206865","name":"Tho Tran"},"message":"Uh đây là báo cáo tổng quan nên đối với mỗi vấn đề sẽ không đi quá sâu mà chỉ dự báo tương lai thay đổi của các lĩnh vực thôi bạn ạ","can_remove":false,"created_time":"2013-12-05T02:51:26+0000","like_count":1,"user_likes":false},"772351466114866":{"id":"772351466114866","from":{"id":"1360206865","name":"Tho Tran"},"message":"Còn 3 ngày nữa là hết hạn đăng ký rồi, các bạn quan tâm đăng ký nhanh nhé!","can_remove":false,"created_time":"2013-12-06T03:06:45+0000","like_count":0,"user_likes":false}},"paging":{"cursors":{"after":"NzcxMjQ0NjMyODkyMjE2","before":"NzcxMjQ0NjMyODkyMjE2"},"next":"https://graph.facebook.com/229244010425617_771239402892739/comments?limit=1&summary=1&after=NzcxMjQ0NjMyODkyMjE2"},"summary":{"order":"chronological","total_count":6}}}