{"id":"229244010425617_771323276217685","type":"status","from":{"id":"100000381394367","name":"Thành Nguyễn"},"message":"Hôm trước đăng cái ảnh Einstein với 1 câu nói của ông ấy lên thấy có nhiều người like, mọi người có muốn mình mở thêm 1 chuyên mục học tiếng Nhật qua danh ngôn bằng hình ảnh không thì mình sẽ mở, có điều là mọi người phải tham gia dịch. \n\nCách làm là mình sẽ post 1 ảnh với 1 câu danh ngôn bằng tiếng Anh với description là lời dịch bằng tiếng Việt, phần tiếng Nhật các bạn sẽ phải tham gia dịch.\n\nKhi nào đạt được 20 comment đáp án cho mỗi ảnh thì mình sẽ post \"đáp án tiếng Nhật\" ( có thể không chính xác do mình dịch ra :D ). Còn nếu không ai tham gia dịch mà chỉ toàn  like thôi thì bỏ không mở chuyên mục, bà con cho ý kiến.","created_time":"2013-12-04T09:06:14+0000","updated_time":"2013-12-06T07:37:25+0000","likes":{"data":{"100000045271667":{"id":"100000045271667","name":"Nam Thai Nguyen"},"100000381394367":{"id":"100000381394367","name":"Thành Nguyễn"},"100003186413787":{"id":"100003186413787","name":"HiEn Thuc PK"},"100003867766082":{"id":"100003867766082","name":"Kó Kon Kẹ Kon"},"100001416272263":{"id":"100001416272263","name":"Mai PB"},"100001594722256":{"id":"100001594722256","name":"Viết An Phạm"},"100001526631937":{"id":"100001526631937","name":"Tường Oanh Mineko"},"1318895018":{"id":"1318895018","name":"Van T Tran"},"100001848885057":{"id":"100001848885057","name":"Tiểu Mỡ Nhi"},"100001754136107":{"id":"100001754136107","name":"Nguyễn Tuấn Vũ"},"1146680551":{"id":"1146680551","name":"優しい なぁ"},"1103173052":{"id":"1103173052","name":"Uyên Nguyễn"},"100005694491959":{"id":"100005694491959","name":"Phuong Truong Thi Thanh"},"100001359798024":{"id":"100001359798024","name":"November Gi"},"559823806":{"id":"559823806","name":"Tran Bach"},"100001723862714":{"id":"100001723862714","name":"Bo Bien Vang"},"100005145330760":{"id":"100005145330760","name":"Sơn Vũ"},"100003538434765":{"id":"100003538434765","name":"Bé Mít"},"100003055356509":{"id":"100003055356509","name":"Thuan Nguyen"},"1702100562":{"id":"1702100562","name":"Trương Thuỳ Linh"},"100000017931640":{"id":"100000017931640","name":"Cuộcđờinày Vềcơbảnlà Buồn"},"100002369341715":{"id":"100002369341715","name":"Xu Li"},"100001580479641":{"id":"100001580479641","name":"Hà Xuân Thủy"},"100000173039166":{"id":"100000173039166","name":"Kukku Lee"},"100003907081547":{"id":"100003907081547","name":"Van Ta"},"100005024348771":{"id":"100005024348771","name":"Long Hoàng"},"100002942069030":{"id":"100002942069030","name":"Trường Trần"},"100005801442456":{"id":"100005801442456","name":"An Nguyen"},"100001458099624":{"id":"100001458099624","name":"Kham Pha"},"100003296170329":{"id":"100003296170329","name":"Minh Lụa"},"100006103290361":{"id":"100006103290361","name":"Maruko Chan"},"550401589":{"id":"550401589","name":"Cuong Cao"},"100002871405403":{"id":"100002871405403","name":"Thach Sanh"},"100002569195083":{"id":"100002569195083","name":"Tiến Thông Thái"},"100005495773832":{"id":"100005495773832","name":"Hiền Vũ"},"1821970083":{"id":"1821970083","name":"Nguyễn Mạnh Cường"},"100003776754221":{"id":"100003776754221","name":"Thư Hoàng"},"100003039666419":{"id":"100003039666419","name":"Chỉ Yêu Mình Em"}},"paging":{"cursors":{"after":"MTAwMDAwMDQ1MjcxNjY3","before":"MTAwMDAwMDQ1MjcxNjY3"},"next":"https://graph.facebook.com/229244010425617_771323276217685/likes?limit=1&summary=1&after=MTAwMDAwMDQ1MjcxNjY3"},"summary":{"total_count":39}},"comments":{"data":{"771325429550803":{"id":"771325429550803","from":{"id":"1821970083","name":"Nguyễn Mạnh Cường"},"message":"Trước mắt là ngắn và thâm sâu anh nha :D Mỗi ngày 1 chủ đề đi ạ :D","can_remove":false,"created_time":"2013-12-04T09:09:55+0000","like_count":0,"user_likes":false},"771325749550771":{"id":"771325749550771","from":{"id":"100005495773832","name":"Hiền Vũ"},"message":"Được anh ạ.em tán thành.","can_remove":false,"created_time":"2013-12-04T09:11:17+0000","like_count":0,"user_likes":false},"771325836217429":{"id":"771325836217429","from":{"id":"100000356310797","name":"Thomas Huynh"},"message":"ok","can_remove":false,"created_time":"2013-12-04T09:11:36+0000","like_count":0,"user_likes":false},"771326292884050":{"id":"771326292884050","from":{"id":"100002871405403","name":"Thach Sanh"},"message":"賛成","can_remove":false,"created_time":"2013-12-04T09:12:51+0000","like_count":0,"user_likes":false},"771326379550708":{"id":"771326379550708","from":{"id":"1283298041","name":"Búa Đức Thanh"},"message":"em chưa hiểu luật chơi, anh nói rõ thêm được ko ạ","can_remove":false,"created_time":"2013-12-04T09:13:10+0000","like_count":0,"user_likes":false},"771326642884015":{"id":"771326642884015","from":{"id":"100000381394367","name":"Thành Nguyễn"},"message":"Mới edit lại content, Búa Đức Thanh đọc lại xem hiểu luật chưa, chưa hiểu lại comment tiếp.","can_remove":false,"created_time":"2013-12-04T09:14:19+0000","like_count":1,"user_likes":false},"771327302883949":{"id":"771327302883949","from":{"id":"100006355960514","name":"Lê Thùy Dương"},"message":"(y). đưa mấy câu có từ ngữ đơn giản trước nghe anh . :)","can_remove":false,"created_time":"2013-12-04T09:16:57+0000","like_count":0,"user_likes":false},"771327586217254":{"id":"771327586217254","from":{"id":"1283298041","name":"Búa Đức Thanh"},"message":"ờ, cũng hay đó, mà con số 20 cao quá anh, ( thiếu tính thực tế , he he ) , số người comment trung bình 1 post bình thường của diễn đàn chưa tới số đó nữa. Em thấy hay thôi, chưa chắc sẽ tham gia được, nhưng em vốn thích quote của các danh nhân, nên nếu được sẽ tham gia :) onegaishimasu Anh .","can_remove":false,"created_time":"2013-12-04T09:17:59+0000","like_count":0,"user_likes":false},"771327782883901":{"id":"771327782883901","from":{"id":"100000381394367","name":"Thành Nguyễn"},"message":"Còn một điều nữa là mỗi ảnh không đủ 20 comment thì sẽ không post ảnh mới, bạn nào muốn coi ảnh mới thì phải nhảy vào comment, ka ka.:D","can_remove":false,"created_time":"2013-12-04T09:18:58+0000","like_count":3,"user_likes":false},"771328942883785":{"id":"771328942883785","from":{"id":"100000381394367","name":"Thành Nguyễn"},"message":"Mọi người tích cực hơn đi, 20 chẳng phải con số gì nhiều, 20 người comment thì mỗi người một câu chứ có phải là 1 người comment 20 lần đâu. Đây là một cách để học tiếng Nhật mà. Mình mất công biên tập up ảnh mà mọi người không tham gia dịch được thì tinh thần cộng đồng hơi bị kém đấy. Ông đưa chân giò thì bà thò chai rượu, bây giờ ông đưa chân giò ra mà các bà không chịu đưa rượu là ông rụt chân giò lại ngay đấy.","can_remove":false,"created_time":"2013-12-04T09:23:55+0000","like_count":3,"user_likes":false},"771329412883738":{"id":"771329412883738","from":{"id":"1821970083","name":"Nguyễn Mạnh Cường"},"message":"Cứ share đi anh :)) lo quá hóa ra đau đầu. Anh cứ luôn 1 chủ đề đi ạ :D","can_remove":false,"created_time":"2013-12-04T09:25:50+0000","like_count":0,"user_likes":false},"771329709550375":{"id":"771329709550375","from":{"id":"100003296170329","name":"Minh Lụa"},"message":"Em mới học tiếng nhật thôi nên anh cho cả phần dịch thông thông thường trong trinh độ n4,n5 nưa ạ","can_remove":false,"created_time":"2013-12-04T09:27:04+0000","like_count":0,"user_likes":false},"771330209550325":{"id":"771330209550325","from":{"id":"100000381394367","name":"Thành Nguyễn"},"message":"Không được, ít nhất phải có nhiều người cam kết mới mở mục mới được, bán hàng mà không có khách, ế ẩm vài hôm là phá sản.","can_remove":false,"created_time":"2013-12-04T09:27:57+0000","like_count":3,"user_likes":false},"771330506216962":{"id":"771330506216962","from":{"id":"100002942069030","name":"Trường Trần"},"message":"Em cũg có một số câu tiếng Anh bằg hình ảnh khá là hay ! Có gì Em đóg góp cùg chủ đề với mọi người ! Còn trình độ tiếg Nhật của Em thì kém lắm ạ(khôg phải khiêm tốn mà là sự thật ạ) :) よろしくおねがいします","can_remove":false,"created_time":"2013-12-04T09:29:25+0000","like_count":2,"user_likes":false},"771330849550261":{"id":"771330849550261","from":{"id":"1821970083","name":"Nguyễn Mạnh Cường"},"message":"Anh ý bắt dịch cơ Trường Trần Còn ra đề thì nhiều quote từ nhiều nguồn lắm. Cứ kêu gọi mọi người chăm dịch là được rùi, hì","message_tags":[{"id":"100002942069030","name":"Trường Trần","type":"user","offset":18,"length":11}],"can_remove":false,"created_time":"2013-12-04T09:30:30+0000","like_count":0,"user_likes":false},"771332006216812":{"id":"771332006216812","from":{"id":"100000381394367","name":"Thành Nguyễn"},"message":"Thôi được rồi giảm xuống cho 10 câu dịch, còn lại 10 câu nêu ra kiến giải của mình về nội dung câu đó. Sẵn sàng thì mở quán.","can_remove":false,"created_time":"2013-12-04T09:35:45+0000","like_count":4,"user_likes":false},"771332292883450":{"id":"771332292883450","from":{"id":"1283298041","name":"Búa Đức Thanh"},"message":"tới luôn bác tài :D","can_remove":false,"created_time":"2013-12-04T09:37:14+0000","like_count":1,"user_likes":false},"771333812883298":{"id":"771333812883298","from":{"id":"100000381394367","name":"Thành Nguyễn"},"message":"Mới có vài khách chưa đi được, bài này phải có ít nhất 100 người like thì mới start được, vì trong 100 người quan tâm mà tìm ra được 10 người chịu dịch là cũng khó khăn rồi, có vài người quan tâm thì lấy đâu ra người dịch.","can_remove":false,"created_time":"2013-12-04T09:44:05+0000","like_count":1,"user_likes":false},"771340246215988":{"id":"771340246215988","from":{"id":"100001580479641","name":"Hà Xuân Thủy"},"message":"thực tế là có những người ấn nút いいね nhưng chưa chắc đã có quan tâm đến bài viết =))","can_remove":false,"created_time":"2013-12-04T10:05:50+0000","like_count":1,"user_likes":false},"771365376213475":{"id":"771365376213475","from":{"id":"100006145239776","name":"Thuỳ Linh"},"message":"cậu ơi.t góp ý là thêm tiếng anh nữa,mìh vừa học tiếng nhật lại biết chút t.anh...sao nhi?","can_remove":false,"created_time":"2013-12-04T11:25:28+0000","like_count":1,"user_likes":false},"771365706213442":{"id":"771365706213442","from":{"id":"100006355960514","name":"Lê Thùy Dương"},"message":"cô mình kêu anh nhật phải song hành với nhau đó. :)","can_remove":false,"created_time":"2013-12-04T11:26:21+0000","like_count":0,"user_likes":false},"771366139546732":{"id":"771366139546732","from":{"id":"100006145239776","name":"Thuỳ Linh"},"message":"vì mìh học tiếng nhật qua tiếng anh đó.:-D","can_remove":false,"created_time":"2013-12-04T11:27:47+0000","like_count":1,"user_likes":false},"771367622879917":{"id":"771367622879917","from":{"id":"100003538434765","name":"Bé Mít"},"message":"Hay đấy ạ","can_remove":false,"created_time":"2013-12-04T11:33:53+0000","like_count":0,"user_likes":false},"771368812879798":{"id":"771368812879798","from":{"id":"100003676414929","name":"Au Kute"},"message":"hay do a","can_remove":false,"created_time":"2013-12-04T11:38:04+0000","like_count":0,"user_likes":false},"771370056213007":{"id":"771370056213007","from":{"id":"100003055356509","name":"Thuan Nguyen"},"message":"e xin một chân :D","can_remove":false,"created_time":"2013-12-04T11:41:41+0000","like_count":0,"user_likes":false},"771382462878433":{"id":"771382462878433","from":{"id":"100001359798024","name":"November Gi"},"message":"Cho em 1 vé tham gia ạ ^^","can_remove":false,"created_time":"2013-12-04T12:13:55+0000","like_count":0,"user_likes":false},"771387136211299":{"id":"771387136211299","from":{"id":"100001416272263","name":"Mai PB"},"message":"Group này chưa có post nào đc 100 likes cả đâu. :-D","can_remove":false,"created_time":"2013-12-04T12:24:23+0000","like_count":1,"user_likes":false},"771469942869685":{"id":"771469942869685","from":{"id":"100000381394367","name":"Thành Nguyễn"},"message":"https://www.facebook.com/photo.php?fbid=660949387261102&set=o.229244010425617&type=3&theater","can_remove":false,"created_time":"2013-12-04T15:52:10+0000","like_count":2,"user_likes":false},"771470159536330":{"id":"771470159536330","from":{"id":"100000381394367","name":"Thành Nguyễn"},"message":"Đây là sản phẩm demo của hôm nọ.","can_remove":false,"created_time":"2013-12-04T15:52:38+0000","like_count":0,"user_likes":false},"771529212863758":{"id":"771529212863758","from":{"id":"100000381394367","name":"Thành Nguyễn"},"message":"Qua comment của mọi người liệu có thể dẫn ra một kết luận là đa phần người Việt đều lười không?Một group hơn 1 vạn người, mình chỉ yêu cầu có 10 người tham gia dịch thôi ( chứ không yêu cầu dịch chính xác ) các bạn có thể dich sai cũng chẳng sao, dịch chuẩn và sát nghĩa thì khó chứ mỗi việc nghĩ ra một câu rồi dịch thì khó khăn gì đâu mà có vẻ không mấy người sẵn sàng.","can_remove":false,"created_time":"2013-12-04T17:46:34+0000","like_count":1,"user_likes":false},"771551339528212":{"id":"771551339528212","from":{"id":"1318895018","name":"Van T Tran"},"message":"Triển khai thôi ạ :D","can_remove":false,"created_time":"2013-12-04T18:08:43+0000","like_count":0,"user_likes":false},"771551902861489":{"id":"771551902861489","from":{"id":"100000381394367","name":"Thành Nguyễn"},"message":"Đủ 100 người like mới triển được :D, ai muốn triển nhanh thì phải vận động bạn bè người thân hàng xóm, họ hàng gần xa vào like.","can_remove":false,"created_time":"2013-12-04T18:10:19+0000","like_count":0,"user_likes":false},"771560122860667":{"id":"771560122860667","from":{"id":"100003538434765","name":"Bé Mít"},"message":"Câu like ạ?","can_remove":false,"created_time":"2013-12-04T18:24:50+0000","like_count":0,"user_likes":false},"771560902860589":{"id":"771560902860589","from":{"id":"100000381394367","name":"Thành Nguyễn"},"message":"Đúng là câu like đấy, dùng mồi là 知識 để câu mà có cá cắn thì những con cá cắn câu đều là con cá thông minh. Có ai muốn làm cá thông minh thì vào cắn câu đi.","can_remove":false,"created_time":"2013-12-04T18:27:06+0000","like_count":1,"user_likes":false},"771579699525376":{"id":"771579699525376","from":{"id":"100003538434765","name":"Bé Mít"},"message":"K giám và k đủ khả năng để được gọi là thông minh,nhưg ắt hẳn nhiều người cũng cảm thấy bản thân mình còn quá nhjều yếu kém trong gjao tiếp tiếng nhật,thể hjện cũng như học hỏi sẽ tầm bổ cho ngôn ngữ tiếng nhật đang học rất nhiều,mình đang tự học tiếng để phục vụ công việc của mình.mình cũng muốn tiếp sức,nhưg pạn phải nhjn vao cmt.dung nhjn vao số lượng like,k nói đk điều j đâu","can_remove":false,"created_time":"2013-12-04T18:57:59+0000","like_count":0,"user_likes":false},"771583912858288":{"id":"771583912858288","from":{"id":"100003538434765","name":"Bé Mít"},"message":"Có thử mới có nhiều người biết đến.những việc bạn đang vẽ ra","can_remove":false,"created_time":"2013-12-04T18:59:07+0000","like_count":0,"user_likes":false},"771772192839460":{"id":"771772192839460","from":{"id":"100000381394367","name":"Thành Nguyễn"},"message":"Đã thử rồi còn gì, có sản phẩm demo ở trên đấy thôi. Trong đấy có vài chục người like mà chẳng có mấy người chịu vào dịch vào được một câu. Nếu các bạn có nhu cầu thì các bạn phải biểu hiện nó ra, mình nói câu like không phải là cần người like cái bài viết của mình, không cần người khen mình. Mình cần người khác có một \"động thái\" nào đó cho thấy họ có nhu cầu và mong muốn được đáp ứng. Còn mỗi một việc click nút Like mà cũng không thể thực hiện được thì chắc chắn là nhu cầu đó không xuất hiện rồi. Khi Admin bỏ công ra làm cái gì đó cho mọi người tức là phải tốn thời gian rồi, nếu việc đó đem lại hiệu quả cho  nhiều người thì mới cảm thấy nó tương xứng với thời gian và cái công mình bỏ ra. Bây giờ nếu chỉ một vài người hưởng ứng thì phải tính đến chi phí cơ hội và hiệu quả cho việc ấy. Giống như các bạn muốn kinh doanh thì phải điều tra thị trường xem cung cầu ra sao, mở cửa hàng ra không có khách thì tốt nhất không nên mở.","can_remove":false,"created_time":"2013-12-05T02:07:28+0000","like_count":2,"user_likes":false},"772461196103893":{"id":"772461196103893","from":{"id":"100000381394367","name":"Thành Nguyễn"},"message":"https://www.facebook.com/photo.php?fbid=662489073773800&set=gm.772458662770813&type=1&relevant_count=1&ref=nf","can_remove":false,"created_time":"2013-12-06T07:37:25+0000","like_count":0,"user_likes":false}},"paging":{"cursors":{"after":"NzcxMzI1NDI5NTUwODAz","before":"NzcxMzI1NDI5NTUwODAz"},"next":"https://graph.facebook.com/229244010425617_771323276217685/comments?limit=1&summary=1&after=NzcxMzI1NDI5NTUwODAz"},"summary":{"order":"chronological","total_count":40}}}