{"id":"229244010425617_771520919531254","type":"status","from":{"id":"100000381394367","name":"Thành Nguyễn"},"message":"Dành cho các bạn không thích đọc bài dài\n\nMình có nhận được một số comment của các bạn khi đọc bài của mình là bài viết dài. Vì dài là một khái niệm tương đối ( tức là chúng ta phải đặt nó trong một tương quan so sánh với cái khác ), nên đã nói dài là dài so với cái gì? Con đường liên thôn ở Việt Nam 1km đã có thể coi là dài, nhưng đường sắt xuyên quốc gia ở Mỹ thì vài trăm km chưa phải là dài. Cùng một độ dài tương tự cho một bài viết khi mình đăng ở các diễn đàn khác mà mình tham gia trước đây nơi đối tượng member khác ở đây ( ở đây có vẻ nhiều các bạn trẻ hơn )  thì không thấy ai kêu dài cả. Thế nên ở đây mình nên hiểu thế nào về comment dài của các bạn một cách đúng nhất? \n\nCó bạn nói rằng không gian group của facebook có hạn. Bản thân mình làm IT cũng từng làm web nhiều rồi, về mặt kỹ thuật mà nói thì độ dài của bài viết không liên quan gì đến sự giới hạn của không gian group trên facebook,  ví dụ trên tường của group có tối đa 10 bài thì dù bài dài hay ngắn nó vẫn hiện đủ 10 bài, bài nào dài thì nó có chức năng tự ẩn phần nội dung chỉ để phần  tóm tắt (summary ) của bài đó thôi, người dùng muốn đọc thì nhấn vào nút đọc tiếp. Nói thế để thấy bản thân facebook đã cung cấp các tính năng về mặt kỹ thuật để đáp ứng các bài viết với độ dài ngắn khác nhau nên lý do này thực sự không ổn. Theo mình hiểu ở đây khái niệm “dài” mà các bạn phàn nàn là dài so với “độ kiên nhẫn của các bạn” vì thông thường các bạn quan niệm facebook là chỉ viết cái gì đó ngăn ngắn thôi, và share bài là chính. Về cái này thì mình có thể hiểu được đó là nhu cầu của các bạn.  Tuy nhiên mình cũng nói rõ về quan điểm của mình như  sau.\n\nKhi mình viết một bài nào đó trước tiên là mình viết cho mình trước, đó là một cách để luyện kỹ năng viết ( có thể là viết báo, viết sách ) và cũng để làm cho suy nghĩ của mình được rõ ràng hơn vì nó được cụ thể hóa, hữu hình hóa. Viết một cuốn sách khó hơn nhiều so với viết một vài bài báo vì mức độ hệ thống hóa, và đầu tư nhiều hơn rất nhiều. Viết dài thường sẽ khó hơn so với viết ngắn. Mình thì cần viết dài để bao quát được nhiều vấn đề hơn. Tuy là viết là dưới hình thức chia sẻ nhưng phục vụ chính bản thân mình trước tiên.  \n\nNên độ dài ngắn của bài viết bao nhiêu trước tiên được mình quyết định theo lượng thông tin mà mình muốn xuất ra là bao nhiêu, ngôn ngữ là vật chở thông tin cũng như túi đựng đồ, túi lớn đựng nhiều đồ hơn túi nhỏ, bài dài hơn thì thông tin nhiều hơn bài ngắn. Nếu bạn nào đó comment rằng đoạn nào đó trong bài viết của mình “vô bổ” hay “thừa thãi không cần thiết” ( kiểu túi đựng rác nên vứt rác đi thay đồ vào ) thì mình sẽ hào hứng hơn so với việc comment là túi to quá. \n\nNhân tiện việc mình viết bài phục vụ mình đó thì những thông tin mình viết ra sẽ có ích cho một số bạn trong group, mình nói một số là vì dù group có hơn 1 vạn người, nhưng số người tình cờ đọc bài giỏi lắm đến vài chục hoặc vài trăm người . Trong số những người đọc thì mỗi người lại có một nhu cầu khác nhau. Chính vì thế sẽ không bao giờ có chuyện bài viết của mình đáp ứng nhu cầu của tất cả các bạn có quan tâm đó. Khi một mặt hàng được bán ra thị trường cũng chia làm nhiều dòng sản phẩm phục vụ thị trường với phân khúc khác nhau cho các khách hàng với nhu cầu và túi tiền khác nhau. Group hiện nay có khoảng 4 chục Admin viết bài, ngoài ra còn các bài của các member nữa, các bài đó đa phần là ngắn và vừa ( so với đánh giá của các bạn comment mình viết dài )nên mình nghĩ phân khúc “bài ngắn và vừa” đã có người khác làm rồi, việc mình làm chính là đáp ứng cho các “khách hàng” ở phân khúc “bài dài” các bạn có túi tiền “thời gian ” đầy hơn các bạn thích đồ fast food đủ kiên nhẫn mà đọc hết một bài. Vì mình chủ trương như thế nên  có bao nhiêu đồ ăn cứ dọn hết cả ra mâm cho nó đầy. Sẽ có các bạn nhìn mâm cơm nhiều đồ ngấy quá bỏ đi luôn, có bạn ngồi lại đánh chén ăn hết cùng gia chủ, tất nhiên sẽ  có một số bạn không bỏ đi cũng muốn ngồi vào mâm nhưng chỉ ăn vài món ( có lẽ đó là số đông ở group này ) chính vì thế nên các bạn comment rằng bài dài. \n\nVới các trường hợp các bạn như vậy thì mình có một khuyến nghị và  gợi ý là các bạn thích ăn món nào trong mâm thì các bạn ăn, cái nào các bạn không thích thì các bạn có thể bỏ qua đỡ phải đọc hết cho bực mình, đó cũng là một trong những kỹ năng đọc hiểu.  Thay vì yêu cầu người viết rút ngắn bài viết của họ thì hãy tự training cho mình kỹ năng lọc thông tin, bởi vì những thứ free không phải là những thứ được thiết kế theo nhu cầu chuyên biệt của một khách hàng nào cả nên sẽ không có thứ đáp ứng được nhu cầu của riêng bạn vì nó đáp ứng được riêng bạn thì sẽ không đáp ứng được người khác. Và những người viết như mình cũng sẽ khó mà làm cái việc “đẽo cày giữa đường” mỗi người comment một câu lại sửa cách đẽo cày, kết quả sẽ giống như câu chuyện “treo biển” ở cửa hàng bán cá.\n\nKhi chúng ta dùng đồ free thì chúng ta phải customize ( tùy biến ) theo nhu cầu của mình thôi.\n\nKhi đi thi gặp bài đọc hiểu dù là tiếng Nhật hay tiếng Anh các bài đó cũng dài lê thê, có phải các bạn đều đọc từ A đến Z không sót câu nào đâu mà là đọc để lấy thông tin, lấy những nội dung mà mình cần thôi. Bài viết tiếng Việt mà đọc các bạn thấy dài thì mấy bài bằng tiếng nước ngoài đọc còn dài hơn nữa, cần kiên nhẫn nhiều hơn nữa đấy. Công cụ để các bạn có thể làm việc này nằm ở mấy từ khóa scanning, skimming các bạn có thể search được trên mạng, mình mà nói về cái này thì lại thành dài mà các bạn không thích dài nên tự tìm hiểu lấy sẽ tốt hơn.","created_time":"2013-12-04T17:33:49+0000","updated_time":"2013-12-05T06:14:24+0000","likes":{"data":{"726423323":{"id":"726423323","name":"Trần Thư"},"100003179906854":{"id":"100003179906854","name":"Cherry Yen"},"100000022163023":{"id":"100000022163023","name":"Kafe Ore"},"100003933466469":{"id":"100003933466469","name":"Phong Aki"},"100003171672878":{"id":"100003171672878","name":"Tầu Heo"},"100006251103362":{"id":"100006251103362","name":"Lâm Thảo"},"100006103290361":{"id":"100006103290361","name":"Maruko Chan"},"100003696134321":{"id":"100003696134321","name":"Phạm Hạnh"},"738235689":{"id":"738235689","name":"Dang Thi Phuong"},"100001415407078":{"id":"100001415407078","name":"Kha Pham"},"100001754136107":{"id":"100001754136107","name":"Nguyễn Tuấn Vũ"},"100003848021692":{"id":"100003848021692","name":"Ánh Moon"},"100003055356509":{"id":"100003055356509","name":"Thuan Nguyen"},"100001723862714":{"id":"100001723862714","name":"Bo Bien Vang"},"100005801442456":{"id":"100005801442456","name":"An Nguyen"},"100000083951394":{"id":"100000083951394","name":"Trác Hữu"},"100001458099624":{"id":"100001458099624","name":"Kham Pha"},"100001359798024":{"id":"100001359798024","name":"November Gi"},"1821970083":{"id":"1821970083","name":"Nguyễn Mạnh Cường"},"1026780646":{"id":"1026780646","name":"Việt Hưng Khổng"},"100005495773832":{"id":"100005495773832","name":"Hiền Vũ"},"100002942069030":{"id":"100002942069030","name":"Trường Trần"},"100001526631937":{"id":"100001526631937","name":"Tường Oanh Mineko"},"1318895018":{"id":"1318895018","name":"Van T Tran"},"1146680551":{"id":"1146680551","name":"優しい なぁ"},"100000960252631":{"id":"100000960252631","name":"Takumi Tuan"},"1252017053":{"id":"1252017053","name":"Minh Pham"}},"paging":{"cursors":{"after":"NzI2NDIzMzIz","before":"NzI2NDIzMzIz"},"next":"https://graph.facebook.com/229244010425617_771520919531254/likes?limit=1&summary=1&after=NzI2NDIzMzIz"},"summary":{"total_count":29}},"comments":{"data":{"771523052864374":{"id":"771523052864374","from":{"id":"100003766970257","name":"Tư Lozen"},"message":"Coa thể nhìn.\nBài viết dài ntn.\n..ít ng đọc hết lắm","can_remove":false,"created_time":"2013-12-04T17:38:58+0000","like_count":1,"user_likes":false},"771523332864346":{"id":"771523332864346","from":{"id":"100000381394367","name":"Thành Nguyễn"},"message":"Bài vừa đăng bạn đã comment rồi chứng tỏ chưa đọc bài, mình có nói trong bài về mục đích viết bài của mình, không phải viết cho tất cả mọi người nên ít người đọc cũng là bình thường.","can_remove":false,"created_time":"2013-12-04T17:39:58+0000","like_count":4,"user_likes":false},"771524482864231":{"id":"771524482864231","from":{"id":"100000960252631","name":"Takumi Tuan"},"message":"Đã đọc hết ^_^","can_remove":false,"created_time":"2013-12-04T17:42:37+0000","like_count":2,"user_likes":false},"771538639529482":{"id":"771538639529482","from":{"id":"100003766970257","name":"Tư Lozen"},"message":"Like.đúng là mih ko dok rồi.kong nhận cập nhật nhanh","can_remove":false,"created_time":"2013-12-04T17:49:55+0000","like_count":0,"user_likes":false},"771539579529388":{"id":"771539579529388","from":{"id":"1146680551","name":"優しい なぁ"},"message":"Văn phong của bác nhuyễn đấy ^_^ biết cách khích tướng :))","can_remove":false,"created_time":"2013-12-04T17:50:09+0000","like_count":2,"user_likes":false},"771548492861830":{"id":"771548492861830","from":{"id":"100000381394367","name":"Thành Nguyễn"},"message":"Khà khà Anh Nguyễn đang khích tướng anh đấy à, văn phong của em cũng nhuyễn đấy :D","can_remove":false,"created_time":"2013-12-04T18:02:48+0000","like_count":1,"user_likes":false},"771560942860585":{"id":"771560942860585","from":{"id":"100001526631937","name":"Tường Oanh Mineko"},"message":"a Thành Nguyễn đưa mấy hình ảnh so sánh ví von tượng trưng, thực tế và thú vị ghê.Làm e cũng nhớ là câu chuyện \" treo biển\" :D","message_tags":[{"id":"100000381394367","name":"Thành Nguyễn","type":"user","offset":2,"length":12}],"can_remove":false,"created_time":"2013-12-04T18:27:17+0000","like_count":0,"user_likes":false},"771648869518459":{"id":"771648869518459","from":{"id":"1026780646","name":"Việt Hưng Khổng"},"message":"Đa số các vạn trẻ bây giờ ngại đọc thì phải ( ý kiến cá nhân, ko khải vơ đũa cả nắm nhé )\n\nP/s: thi đọc hiểu em toàn đọc hết bác ạ, thậm chí đọc lại 2, 3 lần ;)","can_remove":false,"created_time":"2013-12-04T21:25:00+0000","like_count":1,"user_likes":false},"771652882851391":{"id":"771652882851391","from":{"id":"100000027754899","name":"Hoang Van Ba"},"message":"T là 1 trong những thành phần đấy :))\nNgày xưa cô giáo dạy văn bảo \" ngắn gọn xúc tích và cô đọng \"","can_remove":false,"created_time":"2013-12-04T21:35:39+0000","like_count":1,"user_likes":false},"771656509517695":{"id":"771656509517695","from":{"id":"100000027754899","name":"Hoang Van Ba"},"message":"Có thể dành thời gian để đọc 1 Bộ tiểu thuyết dài. Chứ ko thích đọc 1 bài tự luận. Hay 1 bài báo 1 trang rồi đi đến kết luận ko rõ ràng :))","can_remove":false,"created_time":"2013-12-04T21:45:25+0000","like_count":4,"user_likes":false},"771693906180622":{"id":"771693906180622","from":{"id":"1821970083","name":"Nguyễn Mạnh Cường"},"message":"Hôm qua em vừa đọc chuyện Lỗ Chí Thâm xong :))","can_remove":false,"created_time":"2013-12-04T23:17:26+0000","like_count":0,"user_likes":false},"771729192843760":{"id":"771729192843760","from":{"id":"100000438877828","name":"Teng Chil"},"message":"đọc xong thấy k dài lắm. vì mình có thói quen đọc báo.bài báo ngắn đưa thông tin nhanh. bài báo dài còn có nhiều điều để ngẫm.","can_remove":false,"created_time":"2013-12-05T00:20:32+0000","like_count":1,"user_likes":false},"771750959508250":{"id":"771750959508250","from":{"id":"100001415407078","name":"Kha Pham"},"message":"đọc hết .","can_remove":false,"created_time":"2013-12-05T01:20:01+0000","like_count":0,"user_likes":false},"771775132839166":{"id":"771775132839166","from":{"id":"100000381394367","name":"Thành Nguyễn"},"message":"Các bạn nào không thích thì có thể không đọc, hoặc đọc phần mình muốn, phần nào không đọc bỏ qua, rèn luyện kỹ năng scanning và skimming. Các bạn có rất nhiều lựa chọn. Còn cô đọng xúc tích không liên quan đến chiều dài tuyệt tối của một bài viết bao nhiêu chữ mà nó là tỉ lệ phần trăm thông tin/số lượng chữ. ","can_remove":false,"created_time":"2013-12-05T02:15:48+0000","like_count":2,"user_likes":false},"771861522830527":{"id":"771861522830527","from":{"id":"100000381394367","name":"Thành Nguyễn"},"message":"http://chungta.com/tulieu/tu-lieu-tra-cuu/doi_song_hien_dai_internet_va_nhung_danh_doi/default.aspx","can_remove":false,"created_time":"2013-12-05T06:14:24+0000","like_count":0,"user_likes":false}},"paging":{"cursors":{"after":"NzcxNTIzMDUyODY0Mzc0","before":"NzcxNTIzMDUyODY0Mzc0"},"next":"https://graph.facebook.com/229244010425617_771520919531254/comments?limit=1&summary=1&after=NzcxNTIzMDUyODY0Mzc0"},"summary":{"order":"chronological","total_count":17}}}