{"id":"229244010425617_771922276157785","type":"photo","object_id":"183085798561467","picture":"https://fbcdn-photos-g-a.akamaihd.net/hphotos-ak-frc3/t1.0-0/1457577_183085798561467_2080140796_s.jpg","link":"https://www.facebook.com/photo.php?fbid=183085798561467&set=gm.771922276157785&type=1&relevant_count=1","from":{"id":"100005801442456","name":"An Nguyen"},"message":"Vì đã đủ lượng thành viên trả lời câu trước , giờ đưa ra câu tiếp theo ! Ai trả lời được nào? \r\nVẫn như bài cũ! Dưới 10 người đưa ra câu trả lời là ... Nghĩ chơi!","created_time":"2013-12-05T09:09:24+0000","updated_time":"2013-12-06T01:05:04+0000","likes":{"data":{"683231044":{"id":"683231044","name":"Hoàng Hải Đăng"},"100005594346198":{"id":"100005594346198","name":"Trang Susi"},"100005495773832":{"id":"100005495773832","name":"Hiền Vũ"},"100004398330290":{"id":"100004398330290","name":"Lam Linh"},"100001526631937":{"id":"100001526631937","name":"Tường Oanh Mineko"},"100001416272263":{"id":"100001416272263","name":"Mai PB"},"100000603915176":{"id":"100000603915176","name":"悪いな ぁ"},"100004094346107":{"id":"100004094346107","name":"Thuy Nga Nguyen"}},"paging":{"cursors":{"after":"NjgzMjMxMDQ0","before":"NjgzMjMxMDQ0"},"next":"https://graph.facebook.com/229244010425617_771922276157785/likes?limit=1&summary=1&after=NjgzMjMxMDQ0"},"summary":{"total_count":9}},"comments":{"data":{"771926649490681":{"id":"771926649490681","from":{"id":"100004094346107","name":"Thuy Nga Nguyen"},"message":"ui trui","can_remove":false,"created_time":"2013-12-05T09:28:00+0000","like_count":0,"user_likes":false},"771926752824004":{"id":"771926752824004","from":{"id":"100004094346107","name":"Thuy Nga Nguyen"},"message":"không biết","can_remove":false,"created_time":"2013-12-05T09:28:10+0000","like_count":0,"user_likes":false},"771930152823664":{"id":"771930152823664","from":{"id":"100000359762118","name":"Mi Tra"},"message":"Đáp án số 1","can_remove":false,"created_time":"2013-12-05T09:39:22+0000","like_count":1,"user_likes":false},"771933656156647":{"id":"771933656156647","from":{"id":"100000603915176","name":"悪いな ぁ"},"message":"Theo Mi Tra luôn :D","message_tags":[{"id":"100000359762118","name":"Mi Tra","type":"user","offset":5,"length":6}],"can_remove":false,"created_time":"2013-12-05T09:49:34+0000","like_count":1,"user_likes":false},"771935482823131":{"id":"771935482823131","from":{"id":"100006860141377","name":"Gấu Của Hôm Nay"},"message":"1 luôn","can_remove":false,"created_time":"2013-12-05T09:56:16+0000","like_count":0,"user_likes":false},"771938969489449":{"id":"771938969489449","from":{"id":"569263718","name":"Phuong Thao Tran"},"message":"toàn tự lạ hoắc, để tra từ điển thêm đã, :D","can_remove":false,"created_time":"2013-12-05T10:09:30+0000","like_count":0,"user_likes":false},"771939216156091":{"id":"771939216156091","from":{"id":"1276744041","name":"Oanh Pham"},"message":"あざ","can_remove":false,"created_time":"2013-12-05T10:10:33+0000","like_count":0,"user_likes":false},"771945626155450":{"id":"771945626155450","from":{"id":"100001416272263","name":"Mai PB"},"message":"Yakedo","can_remove":false,"created_time":"2013-12-05T10:32:12+0000","like_count":0,"user_likes":false},"771946676155345":{"id":"771946676155345","from":{"id":"569263718","name":"Phuong Thao Tran"},"message":"ものもらい　かしら","can_remove":false,"created_time":"2013-12-05T10:35:55+0000","like_count":0,"user_likes":false},"771948746155138":{"id":"771948746155138","from":{"id":"100005801442456","name":"An Nguyen"},"message":"🐷là cái chi chi!","can_remove":false,"created_time":"2013-12-05T10:44:07+0000","like_count":0,"user_likes":false},"771948942821785":{"id":"771948942821785","from":{"id":"100000603915176","name":"悪いな ぁ"},"message":"Sao lại có hình con nhợn vại :3","can_remove":false,"created_time":"2013-12-05T10:44:50+0000","like_count":0,"user_likes":false},"772110662805613":{"id":"772110662805613","from":{"id":"100000052661831","name":"Shuntoku Pham"},"message":"Câu 1 phải không nhỉ?","can_remove":false,"created_time":"2013-12-05T16:57:28+0000","like_count":0,"user_likes":false},"772111672805512":{"id":"772111672805512","from":{"id":"100005801442456","name":"An Nguyen"},"message":"🐸hok biết?!? Chưa đủ 10 người chưa trả lời!","can_remove":false,"created_time":"2013-12-05T17:00:00+0000","like_count":0,"user_likes":false},"772114376138575":{"id":"772114376138575","from":{"id":"100001526631937","name":"Tường Oanh Mineko"},"message":"yakedo kanaa","can_remove":false,"created_time":"2013-12-05T17:06:01+0000","like_count":0,"user_likes":false},"772293806120632":{"id":"772293806120632","from":{"id":"100004094346107","name":"Thuy Nga Nguyen"},"message":"đáp án B","can_remove":false,"created_time":"2013-12-06T00:38:50+0000","like_count":0,"user_likes":false},"772299386120074":{"id":"772299386120074","from":{"id":"100003173098886","name":"Pháo Hoa Chóng Tàn"},"message":"A nhé mn :))","can_remove":false,"created_time":"2013-12-06T00:50:32+0000","like_count":0,"user_likes":false},"772306076119405":{"id":"772306076119405","from":{"id":"100005801442456","name":"An Nguyen"},"message":"Đủ 10 người: => đáp án là A! Mụn, hay hột lẹo gì gì ấy","can_remove":false,"created_time":"2013-12-06T01:05:04+0000","like_count":2,"user_likes":false}},"paging":{"cursors":{"after":"NzcxOTI2NjQ5NDkwNjgx","before":"NzcxOTI2NjQ5NDkwNjgx"},"next":"https://graph.facebook.com/229244010425617_771922276157785/comments?limit=1&summary=1&after=NzcxOTI2NjQ5NDkwNjgx"},"summary":{"order":"chronological","total_count":17}}}