{"id":"229244010425617_771904612826218","type":"photo","object_id":"545892932169784","picture":"https://fbcdn-photos-h-a.akamaihd.net/hphotos-ak-prn2/t1.0-0/1483327_545892932169784_740278151_s.jpg","link":"https://www.facebook.com/photo.php?fbid=545892932169784&set=gm.771904612826218&type=1&relevant_count=1","from":{"id":"100002472470715","name":"Phan Duy Hùng"},"message":":) :D :)\nHình chụp lại màn hình Groups mình đạt 11 111 thành viên, số đẹp\nYeah yeah anh em ta ăn mừng cái nào :)","created_time":"2013-12-05T08:08:38+0000","updated_time":"2013-12-05T17:43:19+0000","likes":{"data":{"100000359762118":{"id":"100000359762118","name":"Mi Tra"},"100001754136107":{"id":"100001754136107","name":"Nguyễn Tuấn Vũ"},"100003611671216":{"id":"100003611671216","name":"Ông Nội Đây"},"657157297":{"id":"657157297","name":"Phan Dien"},"100001723862714":{"id":"100001723862714","name":"Bo Bien Vang"},"569263718":{"id":"569263718","name":"Phuong Thao Tran"},"1816269439":{"id":"1816269439","name":"Dao Ngoc"},"100003090738530":{"id":"100003090738530","name":"Ngô Thị Thanh Hường"},"100005196873531":{"id":"100005196873531","name":"Trần Phương Thảo"},"100001526631937":{"id":"100001526631937","name":"Tường Oanh Mineko"},"100003334742630":{"id":"100003334742630","name":"Htl Nhjm"},"1783190483":{"id":"1783190483","name":"Trần Xuân Hiệp"},"1693102459":{"id":"1693102459","name":"Châu Hoàng"},"100007147482815":{"id":"100007147482815","name":"Seta Tuyển Dụng"},"100001458099624":{"id":"100001458099624","name":"Kham Pha"},"100001887921127":{"id":"100001887921127","name":"Kata Apple"},"100003696134321":{"id":"100003696134321","name":"Phạm Hạnh"},"100005801442456":{"id":"100005801442456","name":"An Nguyen"},"100001415407078":{"id":"100001415407078","name":"Kha Pham"},"100006014164976":{"id":"100006014164976","name":"Bình Bông"},"1821970083":{"id":"1821970083","name":"Nguyễn Mạnh Cường"},"100000117204648":{"id":"100000117204648","name":"Tử Phong"},"100003245112488":{"id":"100003245112488","name":"Trai Bao"},"100002629655875":{"id":"100002629655875","name":"Đỗ Thế Phong"},"1146680551":{"id":"1146680551","name":"優しい なぁ"},"1830001967":{"id":"1830001967","name":"Chiến Nguyễn"},"100003492623881":{"id":"100003492623881","name":"Hoa Khanh"},"100001416272263":{"id":"100001416272263","name":"Mai PB"},"100006860141377":{"id":"100006860141377","name":"Gấu Của Hôm Nay"}},"paging":{"cursors":{"after":"MTAwMDAwMzU5NzYyMTE4","before":"MTAwMDAwMzU5NzYyMTE4"},"next":"https://graph.facebook.com/229244010425617_771904612826218/likes?limit=1&summary=1&after=MTAwMDAwMzU5NzYyMTE4"},"summary":{"total_count":30}},"comments":{"data":{"771907276159285":{"id":"771907276159285","from":{"id":"100001416272263","name":"Mai PB"},"message":"Ngồi rình hả :-)","can_remove":false,"created_time":"2013-12-05T08:17:18+0000","like_count":0,"user_likes":false},"771916262825053":{"id":"771916262825053","from":{"id":"100000166915328","name":"Tân Trần"},"message":"Nhanh vậy. Nhớ hôm kia mới 10k ng.","can_remove":false,"created_time":"2013-12-05T08:48:54+0000","like_count":0,"user_likes":false},"771917182824961":{"id":"771917182824961","from":{"id":"100005801442456","name":"An Nguyen"},"message":"@.@ hãi tốc độ!!!","can_remove":false,"created_time":"2013-12-05T08:53:28+0000","like_count":1,"user_likes":false},"771937046156308":{"id":"771937046156308","from":{"id":"100002472470715","name":"Phan Duy Hùng"},"message":"Ngồi rình đâu, vô tình thấy, thế mà f5 lại vẫn thấy thế luôn mới hay chứ, chụp 2 tấm ở kích cỡ màn hình khác nhau :)","can_remove":false,"created_time":"2013-12-05T10:02:34+0000","like_count":0,"user_likes":false},"771938252822854":{"id":"771938252822854","from":{"id":"100000603915176","name":"悪いな ぁ"},"message":"Số người tăng nhanh chóng nhưng sự đóng góp vẫn y nguyên :D","can_remove":false,"created_time":"2013-12-05T10:07:06+0000","like_count":0,"user_likes":false},"771940929489253":{"id":"771940929489253","from":{"id":"100005801442456","name":"An Nguyen"},"message":"Sự tự nguyện không thể ép buộc, người làm tự thiện chiếm bao nhiêu trong tổng số chung? Cái này cần các bước phát triển lâu dài bằng cách gợi lên sự năng động thay cho tính cách của đại Bộ phận thanh niên Việt là thụ động!","can_remove":false,"created_time":"2013-12-05T10:15:28+0000","like_count":0,"user_likes":false},"771941559489190":{"id":"771941559489190","from":{"id":"1783190483","name":"Trần Xuân Hiệp"},"message":"Nếu tổ chức được 1 buổi offline thành viên thì tốt nhỉ? :D","can_remove":false,"created_time":"2013-12-05T10:16:57+0000","like_count":0,"user_likes":false},"771948616155151":{"id":"771948616155151","from":{"id":"100002472470715","name":"Phan Duy Hùng"},"message":"Nhưng người nam kẻ bắc, người Việt người Nhật offline ở đâu được","can_remove":false,"created_time":"2013-12-05T10:43:38+0000","like_count":0,"user_likes":false},"771949366155076":{"id":"771949366155076","from":{"id":"100002472470715","name":"Phan Duy Hùng"},"message":"Anh em ta làm sao thi nhau chụp được cái hình 12345 thành viên cho vui nhỉ","can_remove":false,"created_time":"2013-12-05T10:46:41+0000","like_count":0,"user_likes":false},"772127332803946":{"id":"772127332803946","from":{"id":"1783190483","name":"Trần Xuân Hiệp"},"message":"Phan Duy Hùng: Quan trọng là anh em có thích không thôi. Các admin ở Nhật đã tụ tập rồi đấy. Nếu Group có nhiều anh em ở HN mà hứng thú, mình sẵn sàng đứng ra tổ chức gặp mặt luôn :D","message_tags":[{"id":"100002472470715","name":"Phan Duy Hùng","type":"user","offset":0,"length":13}],"can_remove":false,"created_time":"2013-12-05T17:36:07+0000","like_count":0,"user_likes":false},"772130052803674":{"id":"772130052803674","from":{"id":"100002472470715","name":"Phan Duy Hùng"},"message":"Mình thì không giám đứng ra tổ chức ở SG nhưng mà ai tổ chức thì mình tham gia :)","can_remove":false,"created_time":"2013-12-05T17:43:19+0000","like_count":0,"user_likes":false}},"paging":{"cursors":{"after":"NzcxOTA3Mjc2MTU5Mjg1","before":"NzcxOTA3Mjc2MTU5Mjg1"},"next":"https://graph.facebook.com/229244010425617_771904612826218/comments?limit=1&summary=1&after=NzcxOTA3Mjc2MTU5Mjg1"},"summary":{"order":"chronological","total_count":11}}}