{"id":"229244010425617_771907479492598","type":"video","picture":"https://fbexternal-a.akamaihd.net/safe_image.php?d=AQBO6Eie2fdIDPY4&w=130&h=130&url=http%3A%2F%2Fi1.ytimg.com%2Fvi%2FPMp3ZdF1_0g%2Fmaxresdefault.jpg","link":"http://www.youtube.com/watch?v=PMp3ZdF1_0g","source":"http://www.youtube.com/v/PMp3ZdF1_0g?version=3&autohide=1&autoplay=1","from":{"id":"569263718","name":"Phuong Thao Tran"},"message":"Thảo đã vận dụng ngữ pháp V+ たまま；Vたい＋ものだ；～ように để dịch bản nhạc trữ tình YÊU EM DÀI LÂU của Đức Huy như sau.  Mình đã cố gắng để giữ đúng giai điệu  để hát được, nhưng ngôn từ hãy còn vụng về, có mấy chỗ vẫn chưa toát hết ý, mong các bạn chỉ giáo thêm, :P\n-------------------------------------------------------------------------\nYÊU EM DÀI LÂU (Đức Huy) | 【愛したいものです。】（芳草）\nEm như cơn gió thu bay bay nhè nhẹ | 君は秋風（あきかぜ）のように\nĐưa anh đi tìm vần thơ | 詩（うた）を探す僕を吹いて。\nQua công viên lá rơi trên con đường về | 落ち葉の公園の散歩際に\nBỗng nhiên nghe lòng đan ước mơ | こんな夢を立てはじめたの\n | \nMơ ôm em trong tay đêm mưa thì thào | ささやきの雨夜（あまよ）に君を抱いたまま、\nCho bão tố về làm chiêm bao | 嵐（あらし）の夢を見ても、\nMơ yêu em thiết tha như yêu lần đầu | 情熱的な初恋のように、\nAnh muốn yêu em dài lâu | 君を愛したいもので、\n | \nAnh, muốn yêu em dài lâu | 永遠（えいえん）までに愛したい、\nAnh, muốn yêu em đậm sâu | 真情（しんじょう）で愛したい、\nAnh, đã thương em từ lâu | 前世（ぜんせ）からの恋人なのか、\nAnh, muốn yêu em dài lâu | 君を愛したいもので、\n | \nYêu em cho đến khi con tim ngừng đập | 心が止まるまでに、\nCho thiên thu là một giây | 瞬間（しゅんかん）になる千秋（ちあき）、\nYêu em cho đến khi ong thôi làm mật | 鉢（はち）が蜜（みつ）を作らないように、\nĐến khi loài chim quên lối bay | 鳥類（ちょうるい）が飛び道も忘れまでに、\n | \nKhi ôm em trong tay anh nghe ngọt ngào | 君保持（ほじ）の甘さが感じて\nNếu đời là một giấc chiêm bao | 人生（じんせい）は夢であれば\nXin yêu em thiết tha như yêu lần đầu | 情熱的（じょうねつてき）な初恋（はつこい）のように\nAnh muốn yêu em dài lâu | 君を愛したいもので\n | \nAnh muốn yêu em dài lâu | 永遠までに愛したい、\nAnh muốn yêu em đậm sâu | 真情で愛したい、\nAnh đã thương em từ lâu | 前世からの恋人なのか、\nAnh muốn yêu em dài lâu | 君を愛したいものだ。。。\n---------------------------------------------------------\nhttp://www.youtube.com/watch?v=PMp3ZdF1_0g","created_time":"2013-12-05T08:18:25+0000","updated_time":"2013-12-05T10:06:00+0000","likes":{"data":{"100003835631538":{"id":"100003835631538","name":"Tien Loc Pham"},"100000057852313":{"id":"100000057852313","name":"Tuan Nguyen"},"100005024348771":{"id":"100005024348771","name":"Long Hoàng"},"1707142975":{"id":"1707142975","name":"Bùi Thu Hà"},"1026780646":{"id":"1026780646","name":"Việt Hưng Khổng"},"100001458099624":{"id":"100001458099624","name":"Kham Pha"},"100005801442456":{"id":"100005801442456","name":"An Nguyen"},"100003763768548":{"id":"100003763768548","name":"Nguyễn Dũng"},"100005495773832":{"id":"100005495773832","name":"Hiền Vũ"}},"paging":{"cursors":{"after":"MTAwMDAzODM1NjMxNTM4","before":"MTAwMDAzODM1NjMxNTM4"},"next":"https://graph.facebook.com/229244010425617_771907479492598/likes?limit=1&summary=1&after=MTAwMDAzODM1NjMxNTM4"},"summary":{"total_count":10}},"comments":{"data":{"771917549491591":{"id":"771917549491591","from":{"id":"100005801442456","name":"An Nguyen"},"message":"Toàn nghe nhạc Nhật dịch lời Việt! Giờ thêm thể loại nhạc Việt dịch lời Nhật! Diễn đàn này lắm anh tài võ lâm thật @.@","can_remove":false,"created_time":"2013-12-05T08:55:22+0000","like_count":3,"user_likes":false},"771937946156218":{"id":"771937946156218","from":{"id":"569263718","name":"Phuong Thao Tran"},"message":"Chiếc Lá Cuối Cùng cảm  ơn chị iu, ^^, chị không được chỉ nghe không đâu, phải ném đá nữa đó nhé... :D","message_tags":[{"id":"100006469315671","name":"Chiếc Lá Cuối Cùng","type":"user","offset":0,"length":18}],"can_remove":false,"created_time":"2013-12-05T10:06:00+0000","like_count":0,"user_likes":false}},"paging":{"cursors":{"after":"NzcxOTE3NTQ5NDkxNTkx","before":"NzcxOTE3NTQ5NDkxNTkx"},"next":"https://graph.facebook.com/229244010425617_771907479492598/comments?limit=1&summary=1&after=NzcxOTE3NTQ5NDkxNTkx"},"summary":{"order":"chronological","total_count":3}}}