{"id":"229244010425617_772277876122225","type":"status","from":{"id":"100006663067003","name":"Bình Heo"},"message":"Mấy anh chị ơi có ai hiện tại đang ở Nhật không ạ? Có thể cung cấp vài tấm hình cho tụi em biết mùa đông của nước Nhật như thế nào không ạ? :3\nCám ơn mọi người trước nha :*\nArigato :*","created_time":"2013-12-05T23:51:14+0000","updated_time":"2013-12-06T11:26:49+0000","likes":{"data":{"100005887419564":{"id":"100005887419564","name":"Cười Một Mình"},"100004715524978":{"id":"100004715524978","name":"Minh Chiến"}},"paging":{"cursors":{"after":"MTAwMDA1ODg3NDE5NTY0","before":"MTAwMDA1ODg3NDE5NTY0"},"next":"https://graph.facebook.com/229244010425617_772277876122225/likes?limit=1&summary=1&after=MTAwMDA1ODg3NDE5NTY0"},"summary":{"total_count":2}},"comments":{"data":{"772279416122071":{"id":"772279416122071","from":{"id":"100001458099624","name":"Kham Pha"},"message":"Của bạn đây \nhttps://www.facebook.com/photo.php?fbid=570009216391010&set=o.229244010425617&type=3&theater","can_remove":false,"created_time":"2013-12-05T23:56:22+0000","like_count":0,"user_likes":false},"772279649455381":{"id":"772279649455381","from":{"id":"100001458099624","name":"Kham Pha"},"message":"https://www.facebook.com/photo.php?fbid=570009236391008&set=o.229244010425617&type=3&theater","can_remove":false,"created_time":"2013-12-05T23:56:58+0000","like_count":0,"user_likes":false},"772279826122030":{"id":"772279826122030","from":{"id":"100001458099624","name":"Kham Pha"},"message":"Hình mình chụp năm ngoái ở truường. \nhttps://www.facebook.com/photo.php?fbid=570009219724343&set=o.229244010425617&type=3&theater","can_remove":false,"created_time":"2013-12-05T23:57:30+0000","like_count":0,"user_likes":false},"772280022788677":{"id":"772280022788677","from":{"id":"100002577085737","name":"Cao Lam Thi"},"message":"Google !","can_remove":false,"created_time":"2013-12-05T23:57:59+0000","like_count":1,"user_likes":false},"772280806121932":{"id":"772280806121932","from":{"id":"100002612714358","name":"Close To You"},"message":"","can_remove":false,"created_time":"2013-12-06T00:00:15+0000","like_count":1,"user_likes":false},"772282202788459":{"id":"772282202788459","from":{"id":"100004715524978","name":"Minh Chiến"},"message":"Mùa đông ở nhật a toàn ntn thui","can_remove":false,"created_time":"2013-12-06T00:03:47+0000","like_count":0,"user_likes":false},"772284752788204":{"id":"772284752788204","from":{"id":"1283298041","name":"Búa Đức Thanh"},"message":"","can_remove":false,"created_time":"2013-12-06T00:09:26+0000","like_count":3,"user_likes":false},"772285396121473":{"id":"772285396121473","from":{"id":"1146680551","name":"優しい なぁ"},"message":"","can_remove":false,"created_time":"2013-12-06T00:11:09+0000","like_count":1,"user_likes":false},"772289029454443":{"id":"772289029454443","from":{"id":"100000359762118","name":"Mi Tra"},"message":"Shinjuku- Tokyo","can_remove":false,"created_time":"2013-12-06T00:22:28+0000","like_count":4,"user_likes":false},"772289846121028":{"id":"772289846121028","from":{"id":"100000359762118","name":"Mi Tra"},"message":"Bãi trượt tuyết ở Nagano","can_remove":false,"created_time":"2013-12-06T00:25:08+0000","like_count":3,"user_likes":false},"772290409454305":{"id":"772290409454305","from":{"id":"1146680551","name":"優しい なぁ"},"message":"行きたーい","can_remove":false,"created_time":"2013-12-06T00:26:53+0000","like_count":1,"user_likes":false},"772290836120929":{"id":"772290836120929","from":{"id":"100000359762118","name":"Mi Tra"},"message":"行こう(*^_^*)","can_remove":false,"created_time":"2013-12-06T00:28:36+0000","like_count":1,"user_likes":false},"772291759454170":{"id":"772291759454170","from":{"id":"100000359762118","name":"Mi Tra"},"message":"Tắm tiên (onsen) ngoài trời.","can_remove":false,"created_time":"2013-12-06T00:32:06+0000","like_count":3,"user_likes":false},"772292052787474":{"id":"772292052787474","from":{"id":"100000359762118","name":"Mi Tra"},"message":"Bãi trượt tuyết Kiroro ở Hokkaido","can_remove":false,"created_time":"2013-12-06T00:33:26+0000","like_count":3,"user_likes":false},"772294216120591":{"id":"772294216120591","from":{"id":"100000359762118","name":"Mi Tra"},"message":"Mùa đông thì chỉ có tuyết thôi","can_remove":false,"created_time":"2013-12-06T00:40:02+0000","like_count":3,"user_likes":false},"772294449453901":{"id":"772294449453901","from":{"id":"100000359762118","name":"Mi Tra"},"message":"Lâu đài trên núi","can_remove":false,"created_time":"2013-12-06T00:40:30+0000","like_count":2,"user_likes":false},"772298362786843":{"id":"772298362786843","from":{"id":"100001416272263","name":"Mai PB"},"message":"Tùy nơi chứ. Tokyo thì ít tuyết lắm.","can_remove":false,"created_time":"2013-12-06T00:47:58+0000","like_count":1,"user_likes":false},"772314129451933":{"id":"772314129451933","from":{"id":"569263718","name":"Phuong Thao Tran"},"message":"taikensitaina","can_remove":false,"created_time":"2013-12-06T01:26:51+0000","like_count":1,"user_likes":false},"772541756095837":{"id":"772541756095837","from":{"id":"1026780646","name":"Việt Hưng Khổng"},"message":"Mi Tra có vẻ thích tuyết ;)","message_tags":[{"id":"100000359762118","name":"Mi Tra","type":"user","offset":0,"length":6}],"can_remove":false,"created_time":"2013-12-06T11:16:38+0000","like_count":1,"user_likes":false},"772542159429130":{"id":"772542159429130","from":{"id":"100000359762118","name":"Mi Tra"},"message":"Cực thích trượt tuyết chứ ko thích tuyết lắm ^^","can_remove":false,"created_time":"2013-12-06T11:17:58+0000","like_count":0,"user_likes":false},"772542276095785":{"id":"772542276095785","from":{"id":"100000221648144","name":"Nguyen Hung"},"message":"Muon di nhat hay sao ma can hinh vay e","can_remove":false,"created_time":"2013-12-06T11:18:22+0000","like_count":0,"user_likes":false},"772546629428683":{"id":"772546629428683","from":{"id":"100003168133983","name":"Nguyễn Thanh Tùng"},"message":"Lên mạng thiếu gì. Ảnh còn đẹp hơn","can_remove":false,"created_time":"2013-12-06T11:26:49+0000","like_count":0,"user_likes":false}},"paging":{"cursors":{"after":"NzcyMjc5NDE2MTIyMDcx","before":"NzcyMjc5NDE2MTIyMDcx"},"next":"https://graph.facebook.com/229244010425617_772277876122225/comments?limit=1&summary=1&after=NzcyMjc5NDE2MTIyMDcx"},"summary":{"order":"chronological","total_count":22}}}