{"id":"229244010425617_772390169444329","type":"photo","object_id":"10202069187786600","picture":"https://fbcdn-photos-a-a.akamaihd.net/hphotos-ak-ash3/t1.0-0/993480_10202069187786600_68260246_s.jpg","link":"https://www.facebook.com/photo.php?fbid=10202069187786600&set=gm.772390169444329&type=1&relevant_count=1","from":{"id":"1094162178","name":"Ngô Vũ Hoàng"},"message":"từ 9/12 đến 15/12 lại có khuyến mại mới của vnailine mọi người nhé\nbook vé online tai vietnamairlines.com.vn\n\nphụ phí thuế linh tinh khoảng 1man8 đến 2 man nữa mọi người ạ","created_time":"2013-12-06T04:07:22+0000","updated_time":"2013-12-06T07:25:50+0000","likes":{"data":{"100006990034729":{"id":"100006990034729","name":"Yuki Yuki"},"804524390":{"id":"804524390","name":"Vu Nguyen"},"1787333994":{"id":"1787333994","name":"Kiên Mậu"},"100002106660617":{"id":"100002106660617","name":"Tuong Vi"},"100003775274952":{"id":"100003775274952","name":"Masahiro Kano"},"1813611352":{"id":"1813611352","name":"To Đùng"},"100004826612667":{"id":"100004826612667","name":"Đào Hạnh"},"100001444337943":{"id":"100001444337943","name":"Macjanh"},"100000603915176":{"id":"100000603915176","name":"悪いな ぁ"},"1821970083":{"id":"1821970083","name":"Nguyễn Mạnh Cường"}},"paging":{"cursors":{"after":"MTAwMDA2OTkwMDM0NzI5","before":"MTAwMDA2OTkwMDM0NzI5"},"next":"https://graph.facebook.com/229244010425617_772390169444329/likes?limit=1&summary=1&after=MTAwMDA2OTkwMDM0NzI5"},"summary":{"total_count":10}},"comments":{"data":{"772402752776404":{"id":"772402752776404","from":{"id":"1813611352","name":"To Đùng"},"message":"ơ. giá 3 man là 1 chiều nhỉ.","can_remove":false,"created_time":"2013-12-06T04:37:41+0000","like_count":0,"user_likes":false},"772403166109696":{"id":"772403166109696","from":{"id":"1094162178","name":"Ngô Vũ Hoàng"},"message":"có ghi rõ chữ 往復運賃 mà bạn","can_remove":false,"created_time":"2013-12-06T04:39:04+0000","like_count":0,"user_likes":false},"772403442776335":{"id":"772403442776335","from":{"id":"1813611352","name":"To Đùng"},"message":"ôi trời. khứ hồi mà rẻ vậy.","can_remove":false,"created_time":"2013-12-06T04:39:42+0000","like_count":0,"user_likes":false},"772403529442993":{"id":"772403529442993","from":{"id":"100004826612667","name":"Đào Hạnh"},"message":"Cám ơn bạn Ngô Vũ Hoàng nha ! Mua đc vé rẻ zùi ! Hihi","can_remove":false,"created_time":"2013-12-06T04:39:55+0000","like_count":1,"user_likes":false},"772404739442872":{"id":"772404739442872","from":{"id":"1094162178","name":"Ngô Vũ Hoàng"},"message":"tổng khoảng 4 man7","can_remove":false,"created_time":"2013-12-06T04:42:34+0000","like_count":1,"user_likes":false},"772405176109495":{"id":"772405176109495","from":{"id":"100004826612667","name":"Đào Hạnh"},"message":"最長滞在日数 là số ngày tối đa đc ở lại Việt Nam có 14 ngày thui hả bạn ? Ở thêm thì mất bao nhiêu tiền hả bạn ?","can_remove":false,"created_time":"2013-12-06T04:43:50+0000","like_count":0,"user_likes":false},"772405876109425":{"id":"772405876109425","from":{"id":"1094162178","name":"Ngô Vũ Hoàng"},"message":"quá 14 ngày thì ko phải vé khuyến mại, bạn kiểm tra trực tiếp trên trang chủ của vnair xem","can_remove":false,"created_time":"2013-12-06T04:46:00+0000","like_count":0,"user_likes":false},"772406192776060":{"id":"772406192776060","from":{"id":"1816269439","name":"Dao Ngoc"},"message":"Tít Em vé rẻ em ơi","message_tags":[{"id":"100000851407365","name":"Tít Em","type":"user","offset":0,"length":6}],"can_remove":false,"created_time":"2013-12-06T04:46:56+0000","like_count":1,"user_likes":false},"772406302776049":{"id":"772406302776049","from":{"id":"100004237355052","name":"Kim Dung"},"message":"chị ơi thời gian áp dụng là từ bao giờ đến bao giờ thế chị?","can_remove":false,"created_time":"2013-12-06T04:47:14+0000","like_count":0,"user_likes":false},"772406329442713":{"id":"772406329442713","from":{"id":"100004826612667","name":"Đào Hạnh"},"message":"Ok ! Cám ơn bạn nha(^з^)-☆","can_remove":false,"created_time":"2013-12-06T04:47:18+0000","like_count":0,"user_likes":false},"772409292775750":{"id":"772409292775750","from":{"id":"100000851407365","name":"Tít Em"},"message":"Về tối mùng 3 chị nhỉ Dao Ngoc","message_tags":[{"id":"1816269439","name":"Dao Ngoc","type":"user","offset":22,"length":8}],"can_remove":false,"created_time":"2013-12-06T04:54:01+0000","like_count":0,"user_likes":false},"772410156108997":{"id":"772410156108997","from":{"id":"100004237355052","name":"Kim Dung"},"message":"Nguyễn Minh Ha Tran.minh m tag hộ tên cái hà t cái.hình như n k like trang này nên t k tag tên được....thấy sao...nhưng t lỡ đắt vé mất rồi mất toi hơn man hực","message_tags":[{"id":"100004055040287","name":"Nguyễn Minh","type":"user","offset":0,"length":11}],"can_remove":false,"created_time":"2013-12-06T04:56:59+0000","like_count":1,"user_likes":false},"772412759442070":{"id":"772412759442070","from":{"id":"1816269439","name":"Dao Ngoc"},"message":"sớm hơn đi iem. ;)). để mồng 4 ở Hòa BÌnh ;)","can_remove":false,"created_time":"2013-12-06T05:06:13+0000","like_count":0,"user_likes":false},"772419436108069":{"id":"772419436108069","from":{"id":"100001754136107","name":"Nguyễn Tuấn Vũ"},"message":"vé khứ hồi thơi gian bao nhiêu vậy a ơi","can_remove":false,"created_time":"2013-12-06T05:32:19+0000","like_count":0,"user_likes":false},"772422926107720":{"id":"772422926107720","from":{"id":"100004840447585","name":"Nguyễn Ngọc Thái"},"message":"Cho mìh cái link vào vs. Mìh lên trag chủ của nó mà ko thấy. Hic","can_remove":false,"created_time":"2013-12-06T05:43:50+0000","like_count":0,"user_likes":false},"772456262771053":{"id":"772456262771053","from":{"id":"100004055040287","name":"Nguyễn Minh"},"message":"Kim Dung\nCmnr\nK tag đc vì nó k like","message_tags":[{"id":"100004237355052","name":"Kim Dung","type":"user","offset":0,"length":8}],"can_remove":false,"created_time":"2013-12-06T07:25:50+0000","like_count":0,"user_likes":false}},"paging":{"cursors":{"after":"NzcyNDAyNzUyNzc2NDA0","before":"NzcyNDAyNzUyNzc2NDA0"},"next":"https://graph.facebook.com/229244010425617_772390169444329/comments?limit=1&summary=1&after=NzcyNDAyNzUyNzc2NDA0"},"summary":{"order":"chronological","total_count":16}}}