{"id":"229244010425617_772401002776579","type":"status","from":{"id":"100001526631937","name":"Tường Oanh Mineko"},"message":"Chúng ta SỐNG vì cái gì nếu ko phải là để làm cho cuộc đời mỗi người ít khó khăn hơn ??? Hôm nay, mình muốn viết bài về 逆接（ぎゃくせつ）trong câu Phức_複文（ふくぶん）để những bạn học tiếng nhật có thể phân biệt mà sử dụng sao cho hợp lý nhất.Bản thân mình đôi lúc cũng nhầm lẫn :D\n\n「けど」「のに」「ても」đều dùng trong hình thức là liên kết trong câu, hay liên kết 2 mệnh đề với nhau, nghĩa tương tự nhau.\n\n1.彼は熱があっても学校を休まないだろう。\n2.昨日寒かったけど、雪は降っていなかった。\n3.せっかくケーキを作ったのに、彼は食べたくれなかった。\n\n　「けど」類: 　Ở mức độ nhẹ nhàng\n１．～ものの：\nれい：申し込むのはしたものの、受験（じゅけん）かどうか未定だ。\n２．～わりには、～にしては：\nれい：彼は3年間アメリカで暮らしていたわりには英語がうまくない。\n　「のに」類：Có hàm chứa tâm trạng người nói (bất mãn,tức giận..)\n１．～にもかかわらず：\nれい：この試験は難しかったにもかかわらず、彼は満点をとった。\n２．～くせに：\nれい：高校生のくせにたばこを吸う（す）なんて信（しん）じられない。\n３．～ながら（も）：\nれい：彼は本当のことをしっていながら私に教えてくれなかった。\n　「ても」類：Thiên về sự giả định nhiều hơn.\n１．～にしろ、にせよ：\nれい：たとえお金がないにしろ（にせよ）、食事（しょくじ）だけはちゃんと食べたほうがいいですよ。\n２．～たところで：\nれい：どんなに待ったところで、彼女は戻って来ませんよ。\n\nMình chỉ viết đơn giản như vậy, ai có thắc mắc quan tâm sâu hơn thì mình sẽ giải đáp.Chúc các bạn học tốt, có thể sử dụng tiếng Nhật thành thạo và tốt nhất có thể (dù bản thân chưa đạt được điều này ), gambatte ne !\nTường Oanh","created_time":"2013-12-06T04:34:36+0000","updated_time":"2013-12-06T13:37:00+0000","likes":{"data":{"100001260645727":{"id":"100001260645727","name":"Ngo Duy Son"},"100004923553810":{"id":"100004923553810","name":"Xuan KY Nguyen"},"100000022163023":{"id":"100000022163023","name":"Kafe Ore"},"100001723862714":{"id":"100001723862714","name":"Bo Bien Vang"},"1026780646":{"id":"1026780646","name":"Việt Hưng Khổng"},"1437470255":{"id":"1437470255","name":"珠愛"},"100003210512769":{"id":"100003210512769","name":"Trang Nguyễn"},"100001190033364":{"id":"100001190033364","name":"Tự Do"},"100005866751996":{"id":"100005866751996","name":"Nam Nguyen"},"100006738850876":{"id":"100006738850876","name":"Ho Tuan"},"100000173039166":{"id":"100000173039166","name":"Kukku Lee"},"100001594722256":{"id":"100001594722256","name":"Viết An Phạm"},"100005024348771":{"id":"100005024348771","name":"Long Hoàng"},"100001580358429":{"id":"100001580358429","name":"Hoai Nam Do"},"100001754136107":{"id":"100001754136107","name":"Nguyễn Tuấn Vũ"},"100003342122124":{"id":"100003342122124","name":"Xuan Nguyen"},"100000603915176":{"id":"100000603915176","name":"悪いな ぁ"},"100001458099624":{"id":"100001458099624","name":"Kham Pha"},"1276744041":{"id":"1276744041","name":"Oanh Pham"},"1821970083":{"id":"1821970083","name":"Nguyễn Mạnh Cường"},"100002710163892":{"id":"100002710163892","name":"Bảo Trân"},"1146680551":{"id":"1146680551","name":"優しい なぁ"},"100000926012472":{"id":"100000926012472","name":"Hoang Giang"},"100001678923905":{"id":"100001678923905","name":"Trần Thiên Nga"},"100001416272263":{"id":"100001416272263","name":"Mai PB"},"100000895978137":{"id":"100000895978137","name":"Vũ Thắng"},"100005801442456":{"id":"100005801442456","name":"An Nguyen"},"100002959594535":{"id":"100002959594535","name":"Nguyen Ngoc Anh"},"1816269439":{"id":"1816269439","name":"Dao Ngoc"},"100000381394367":{"id":"100000381394367","name":"Thành Nguyễn"},"1813611352":{"id":"1813611352","name":"To Đùng"}},"paging":{"cursors":{"after":"MTAwMDAxMjYwNjQ1NzI3","before":"MTAwMDAxMjYwNjQ1NzI3"},"next":"https://graph.facebook.com/229244010425617_772401002776579/likes?limit=1&summary=1&after=MTAwMDAxMjYwNjQ1NzI3"},"summary":{"total_count":32}},"comments":{"data":{"772405309442815":{"id":"772405309442815","from":{"id":"100000381394367","name":"Thành Nguyễn"},"message":"Những bài viết của mem thế này sẽ được tổng hợp vào notes nào của group nhỉ, đã có chưa?","can_remove":false,"created_time":"2013-12-06T04:44:12+0000","like_count":0,"user_likes":false},"772405856109427":{"id":"772405856109427","from":{"id":"100001526631937","name":"Tường Oanh Mineko"},"message":"Dạ chưa a, e chưa tìm ra mục phù hợp để bỏ vào, a giúp e việc này nhé. ^_^","can_remove":false,"created_time":"2013-12-06T04:45:56+0000","like_count":0,"user_likes":false},"772408029442543":{"id":"772408029442543","from":{"id":"100005801442456","name":"An Nguyen"},"message":"Bài viết hữu ích của thành viên! <== anh lập dùm em đi?","can_remove":false,"created_time":"2013-12-06T04:51:09+0000","like_count":0,"user_likes":false},"772411362775543":{"id":"772411362775543","from":{"id":"100001416272263","name":"Mai PB"},"message":"Sao lại chia ra bài của mem, của ad thế? Cho vào phần ngữ pháp đi.\nVới lại, mình đang muốn bạn này làm ad đây, hổng biết có chịu không?","can_remove":false,"created_time":"2013-12-06T05:01:02+0000","like_count":4,"user_likes":false},"772412102775469":{"id":"772412102775469","from":{"id":"100001526631937","name":"Tường Oanh Mineko"},"message":"Dạ, nếu là người có ích dù trong việc nhỏ nhất e giơ 2 tay luôn a :D, nhưng cũng mong mọi members đừng có sự phân biệt giữa ad và thành viên nhé :D","can_remove":false,"created_time":"2013-12-06T05:04:02+0000","like_count":3,"user_likes":false},"772412862775393":{"id":"772412862775393","from":{"id":"100005801442456","name":"An Nguyen"},"message":"Chả hiểu @.@!","can_remove":false,"created_time":"2013-12-06T05:06:33+0000","like_count":1,"user_likes":false},"772417039441642":{"id":"772417039441642","from":{"id":"100001416272263","name":"Mai PB"},"message":"Update vào đây nhé, Tường Oanh Mineko\nhttps://www.facebook.com/notes/c%E1%BB%99ng-%C4%91%E1%BB%93ng-vi%E1%BB%87t-nh%E1%BA%ADt-vietnam-japan-community-/danh-m%E1%BB%A5c-b%C3%A0i-h%E1%BB%8Dc-ti%E1%BA%BFng-nh%E1%BA%ADt-ng%E1%BB%AF-ph%C3%A1p-t%E1%BB%AB-v%E1%BB%B1ng/623539644329383","message_tags":[{"id":"100001526631937","name":"Tường Oanh Mineko","type":"user","offset":20,"length":17}],"can_remove":false,"created_time":"2013-12-06T05:22:07+0000","like_count":2,"user_likes":false},"772418239441522":{"id":"772418239441522","from":{"id":"100001526631937","name":"Tường Oanh Mineko"},"message":"An Nguyen a nên nói rõ mình ko hiểu cái gì?","message_tags":[{"id":"100005801442456","name":"An Nguyen","type":"user","offset":0,"length":9}],"can_remove":false,"created_time":"2013-12-06T05:26:58+0000","like_count":1,"user_likes":false},"772425759440770":{"id":"772425759440770","from":{"id":"1146680551","name":"優しい なぁ"},"message":"Em nên nói thêm về phần けど hôm qua a nói á.nhiều khi nó cũng chẳng có nghĩa gì ngoài cảm thán","can_remove":false,"created_time":"2013-12-06T05:51:35+0000","like_count":0,"user_likes":false},"772426286107384":{"id":"772426286107384","from":{"id":"100001526631937","name":"Tường Oanh Mineko"},"message":"vậy thì a bổ sung đi a Anh Nguyễn ;)","message_tags":[{"id":"1146680551","name":"Anh Nguyễn","type":"user","offset":23,"length":10}],"can_remove":false,"created_time":"2013-12-06T05:52:43+0000","like_count":0,"user_likes":false},"772426696107343":{"id":"772426696107343","from":{"id":"1146680551","name":"優しい なぁ"},"message":"Đang học :v","can_remove":false,"created_time":"2013-12-06T05:53:36+0000","like_count":0,"user_likes":false},"772426866107326":{"id":"772426866107326","from":{"id":"100001526631937","name":"Tường Oanh Mineko"},"message":"me 2, có time thì bổ sung vào đi, cái đó iken của a mà ^_^","can_remove":false,"created_time":"2013-12-06T05:54:22+0000","like_count":0,"user_likes":false},"772429642773715":{"id":"772429642773715","from":{"id":"569263718","name":"Phuong Thao Tran"},"message":"[「けど」「のに」「ても」đều dùng trong hình thức là liên kết trong câu, hay liên kết 2 mệnh đề với nhau, nghĩa tương tự nhau.]<--- cái gì nghĩa tương tự nhau Tường Oanh Mineko?","message_tags":[{"id":"100001526631937","name":"Tường Oanh Mineko","type":"user","offset":147,"length":17}],"can_remove":false,"created_time":"2013-12-06T05:59:53+0000","like_count":0,"user_likes":false},"772430139440332":{"id":"772430139440332","from":{"id":"100001526631937","name":"Tường Oanh Mineko"},"message":"thì 3 cái từ đó kedo,noni,temo có nghĩa tương tự nhau đó c, dù ko hẳn là giống hoàn toàn nhưng có nghĩa tiếng việt tương đương nhau","can_remove":false,"created_time":"2013-12-06T06:02:11+0000","like_count":0,"user_likes":false},"772430732773606":{"id":"772430732773606","from":{"id":"569263718","name":"Phuong Thao Tran"},"message":"vậy mà chị nghĩ là: .... liên kết 2 mệnh đề có nghĩa tương tự với nhau, hehe <-- mình có vấn đề về dokkai rồi :D","can_remove":false,"created_time":"2013-12-06T06:04:43+0000","like_count":0,"user_likes":false},"772430786106934":{"id":"772430786106934","from":{"id":"569263718","name":"Phuong Thao Tran"},"message":"gomenne","can_remove":false,"created_time":"2013-12-06T06:04:56+0000","like_count":0,"user_likes":false},"772430939440252":{"id":"772430939440252","from":{"id":"100001526631937","name":"Tường Oanh Mineko"},"message":"ieie.","can_remove":false,"created_time":"2013-12-06T06:05:25+0000","like_count":0,"user_likes":false},"772432776106735":{"id":"772432776106735","from":{"id":"569263718","name":"Phuong Thao Tran"},"message":"có điều câu [「けど」「のに」「ても」đều dùng trong hình thức là liên kết trong câu, hay liên kết 2 mệnh đề với nhau, nghĩa tương tự nhau.] chưa toát lên dụng ý của việc dùng kedo, noni, temo. Vì để nối câu thì có nhiều cụm từ/ ngữ pháp nối câu lắm","can_remove":false,"created_time":"2013-12-06T06:12:41+0000","like_count":0,"user_likes":false},"772434052773274":{"id":"772434052773274","from":{"id":"100001526631937","name":"Tường Oanh Mineko"},"message":"Ở đây, e ko nhấn mạnh vấn đề dùng 3 từ này ra sao mà e nhấn mạnh đến các cấu trúc tương tự nằm trong 3 từ( nhóm) này để dễ phân biệt mức độ và dễ hiểu hơn khi sử dụng cho từng trường hợp mà người học như e_ các bạn sống ở vn ít có môi trường baai để sử dụng dễ bị nhầm lẫn.どうもありがとう！これはよろしでしょうか？","can_remove":false,"created_time":"2013-12-06T06:16:58+0000","like_count":1,"user_likes":false},"772436306106382":{"id":"772436306106382","from":{"id":"100001416272263","name":"Mai PB"},"message":"Huế vs Đà Nẵng? :-)","can_remove":false,"created_time":"2013-12-06T06:23:53+0000","like_count":1,"user_likes":false},"772477489435597":{"id":"772477489435597","from":{"id":"569263718","name":"Phuong Thao Tran"},"message":"đọc ví dụ em đưa ra và lời bình của em ở trên chị thấy hơi mâu thuẫn. Ở chỗ là:\n1. Nếu trước khi phân biệt cái nọ với cái kia, thì nên định nghĩa nó trước, chức năng của mối cái, chức năng chung của chúng. Tóm lại là điểm giống-khác nhau. Ở đây em chưa nêu được 2 điểm đó.\n2. lấy ví dụ ngữ pháp cấp độ khó hơn (2kyuu) để làm ví dụ cho ngữ pháp cấp độ dễ (kedo, noni, temo: 3kyuu), thì sẽ càng phân khó phân biệt được đâu là đâu.\n3. 　「のに」類：Có hàm chứa tâm trạng người nói (bất mãn,tức giận..)\n１．～にもかかわらず：\nれい：この試験は難しかったにもかかわらず、彼は満点をとった。<-- câu ví dụ này có ý nghĩa khen ngợi: Mặc dù bài thi khó vậy mà anh ta vẫn đạt điểm tối đa (dịch theo noni) ; Bất chấp là bài thi đã khó nhường ấy mà anh ta vẫn đạt điểm tối đa , thiệt là giỏi  quá đi. (dịch theo nimokakawarazu ).","can_remove":false,"created_time":"2013-12-06T08:30:44+0000","like_count":0,"user_likes":false},"772478619435484":{"id":"772478619435484","from":{"id":"100001416272263","name":"Mai PB"},"message":":-) phụ nữ","can_remove":false,"created_time":"2013-12-06T08:33:36+0000","like_count":0,"user_likes":false},"772478759435470":{"id":"772478759435470","from":{"id":"100001526631937","name":"Tường Oanh Mineko"},"message":"Đó là mục đích của e lần này, để những ai có sự thắc mắc thì họ sẽ tìm hiểu tiếp và đi sâu vào vấn đề hơn, còn nếu e phơi bày sẵn hết ra đó cho ng đọc thì ngta bị thụ động ở chỗ có sắn đó chỉ đọc và tiếp nhận mà ko có sự thắc mắc hay quan tâm đến thì coi như ko hiệu quả cho lắm.Tạo điểm mấu chốt cho ngta có thắc mắc đó chị, e mong nhiều mem mới học, đang học còn thắc mắc đc như chị.","can_remove":false,"created_time":"2013-12-06T08:34:21+0000","like_count":0,"user_likes":false},"772478942768785":{"id":"772478942768785","from":{"id":"569263718","name":"Phuong Thao Tran"},"message":"a Mai PB có hàm ý gì đây...","can_remove":false,"created_time":"2013-12-06T08:34:59+0000","like_count":0,"user_likes":false},"772479056102107":{"id":"772479056102107","from":{"id":"1146680551","name":"優しい なぁ"},"message":"なんとなく:)","can_remove":false,"created_time":"2013-12-06T08:35:26+0000","like_count":0,"user_likes":false},"772479089435437":{"id":"772479089435437","from":{"id":"569263718","name":"Phuong Thao Tran"},"message":"có điều chị rất thích cách iiwake của em","can_remove":false,"created_time":"2013-12-06T08:35:42+0000","like_count":0,"user_likes":false},"772480412768638":{"id":"772480412768638","from":{"id":"100001526631937","name":"Tường Oanh Mineko"},"message":"ah, noni hay kakawarazu còn cái hàm chưa tâm trạng thì ko hẳn chỉ là tâm trạng xấu c nhé...nó bao hàm nhiều tâm trạng mà đa số là tâm trạng ko tốt chứ ko hẳn là tất cả.","can_remove":false,"created_time":"2013-12-06T08:40:21+0000","like_count":0,"user_likes":false},"772480612768618":{"id":"772480612768618","from":{"id":"569263718","name":"Phuong Thao Tran"},"message":"có lẽ là lạc đề rồi chăng","can_remove":false,"created_time":"2013-12-06T08:41:24+0000","like_count":0,"user_likes":false},"772481042768575":{"id":"772481042768575","from":{"id":"569263718","name":"Phuong Thao Tran"},"message":"chị chỉ góp ý cách trình bày sao cho logic thôi, để không bị lạc vào ma trận thôi.\n Đối với chị: khi 1 ai đó đưa ra ý kiến và bảo vệ được ý kiến của mình là được rồi, vì không có khái niệm đúng sai , ^^","can_remove":false,"created_time":"2013-12-06T08:43:26+0000","like_count":0,"user_likes":false},"772481456101867":{"id":"772481456101867","from":{"id":"100001526631937","name":"Tường Oanh Mineko"},"message":"それにしても、どうもありがとう！先輩！","can_remove":false,"created_time":"2013-12-06T08:45:38+0000","like_count":0,"user_likes":false},"772482322768447":{"id":"772482322768447","from":{"id":"100001416272263","name":"Mai PB"},"message":"君たち、賢いぞ","can_remove":false,"created_time":"2013-12-06T08:47:03+0000","like_count":1,"user_likes":false},"772490489434297":{"id":"772490489434297","from":{"id":"569263718","name":"Phuong Thao Tran"},"message":"Tường Oanh Mineko: いいえ、こちらこそ。失礼しました。\nMai PB: 超賢い！！！ちなみに、日本語の[Hậu Sinh Khả Úy]を教えていただければと思います、「後生可尉」という慣用語があるかなぁ。。。","message_tags":[{"id":"100001526631937","name":"Tường Oanh Mineko","type":"user","offset":0,"length":17}],"can_remove":false,"created_time":"2013-12-06T09:02:43+0000","like_count":0,"user_likes":false},"772506826099330":{"id":"772506826099330","from":{"id":"100001416272263","name":"Mai PB"},"message":"字を間違えている。「後生可畏」→日本語：後生畏る可し\nhttp://kotobank.jp/word/%E5%BE%8C%E7%94%9F%E7%95%8F%E3%82%8B%E5%8F%AF%E3%81%97","can_remove":false,"created_time":"2013-12-06T09:46:17+0000","like_count":1,"user_likes":false},"772531229430223":{"id":"772531229430223","from":{"id":"569263718","name":"Phuong Thao Tran"},"message":"đội ơn anh nhiều, ^^","can_remove":false,"created_time":"2013-12-06T10:46:52+0000","like_count":0,"user_likes":false},"772601482756531":{"id":"772601482756531","from":{"id":"100001416272263","name":"Mai PB"},"message":"Đừng nói thế chứ","can_remove":false,"created_time":"2013-12-06T13:37:00+0000","like_count":0,"user_likes":false}},"paging":{"cursors":{"after":"NzcyNDA1MzA5NDQyODE1","before":"NzcyNDA1MzA5NDQyODE1"},"next":"https://graph.facebook.com/229244010425617_772401002776579/comments?limit=1&summary=1&after=NzcyNDA1MzA5NDQyODE1"},"summary":{"order":"chronological","total_count":35}}}