{"id":"229244010425617_772458662770813","type":"photo","object_id":"662489073773800","picture":"https://fbcdn-photos-d-a.akamaihd.net/hphotos-ak-ash3/t1.0-0/1426188_662489073773800_748280047_s.jpg","link":"https://www.facebook.com/photo.php?fbid=662489073773800&set=gm.772458662770813&type=1&relevant_count=1","from":{"id":"100000381394367","name":"Thành Nguyễn"},"message":"Tưởng niệm Nelson Mandela, post thêm một câu danh ngôn nữa.\n\nGiáo dục là vũ khí mạnh mẽ nhất mà bạn có thể dùng để thay đổi thế giới.\n教育とは、世界を変えるために用いることができる、最も強力な武器である。","created_time":"2013-12-06T07:36:24+0000","updated_time":"2013-12-07T11:47:49+0000","likes":{"data":{"100000271705877":{"id":"100000271705877","name":"Nguyễn Văn Minh"},"100006526721577":{"id":"100006526721577","name":"Vô Danh"},"100000381394367":{"id":"100000381394367","name":"Thành Nguyễn"},"100004511499641":{"id":"100004511499641","name":"Yêu Thương Quay Về"},"1103173052":{"id":"1103173052","name":"Uyên Nguyễn"},"100004715610677":{"id":"100004715610677","name":"Lương Thập"},"1416265619":{"id":"1416265619","name":"Starwar Bbj"},"100003055356509":{"id":"100003055356509","name":"Thuan Nguyen"},"100001526631937":{"id":"100001526631937","name":"Tường Oanh Mineko"},"100000083951394":{"id":"100000083951394","name":"Trác Hữu"},"100004253979918":{"id":"100004253979918","name":"Louis Hoàng Văn Thái"},"100001481900448":{"id":"100001481900448","name":"Bao Pham"},"100003762427351":{"id":"100003762427351","name":"Hiroshi Yasu Oki"},"1026780646":{"id":"1026780646","name":"Việt Hưng Khổng"},"100005801442456":{"id":"100005801442456","name":"An Nguyen"},"100002419566054":{"id":"100002419566054","name":"Khánh Toàn"},"100001458099624":{"id":"100001458099624","name":"Kham Pha"},"100003662550919":{"id":"100003662550919","name":"Tadoka Desu"},"100001416272263":{"id":"100001416272263","name":"Mai PB"},"100000199780783":{"id":"100000199780783","name":"Nguyen Thu Hoai"},"100002942069030":{"id":"100002942069030","name":"Trường Trần"},"1830001967":{"id":"1830001967","name":"Chiến Nguyễn"},"1146680551":{"id":"1146680551","name":"優しい なぁ"},"100005934548279":{"id":"100005934548279","name":"Cậu Bé Buồn"},"1821970083":{"id":"1821970083","name":"Nguyễn Mạnh Cường"}},"paging":{"cursors":{"after":"MTAwMDAwMjcxNzA1ODc3","before":"MTAwMDAwMjcxNzA1ODc3"},"next":"https://graph.facebook.com/229244010425617_772458662770813/likes?limit=1&summary=1&after=MTAwMDAwMjcxNzA1ODc3"},"summary":{"total_count":25}},"comments":{"data":{"772463782770301":{"id":"772463782770301","from":{"id":"1146680551","name":"優しい なぁ"},"message":"Viêt thêm hiragana đi anh","can_remove":false,"created_time":"2013-12-06T07:43:33+0000","like_count":0,"user_likes":false},"772463866103626":{"id":"772463866103626","from":{"id":"100000381394367","name":"Thành Nguyễn"},"message":"Chú viết đi sao cứ bảo anh. Trách nhiệm chung cơ mà.","can_remove":false,"created_time":"2013-12-06T07:44:01+0000","like_count":0,"user_likes":false},"772467432769936":{"id":"772467432769936","from":{"id":"1146680551","name":"優しい なぁ"},"message":"\"教育とは、世界を変えるものほど強力な武器がないだろう。\" ý em thế này đc k anh","can_remove":false,"created_time":"2013-12-06T07:52:26+0000","like_count":1,"user_likes":false},"772468189436527":{"id":"772468189436527","from":{"id":"100000381394367","name":"Thành Nguyễn"},"message":"Các member ai tham gia dịch được thì tham gia đi nào, ko dịch thì chuyển sang chữ hiragana đi.","can_remove":false,"created_time":"2013-12-06T07:55:43+0000","like_count":0,"user_likes":false},"772472276102785":{"id":"772472276102785","from":{"id":"100001359798024","name":"November Gi"},"message":"Câu của anh Anh Nguyễn hơi tối nghĩa ạ ^^ (hay e tối dạ nhỉ =.=)\nE nhất trí vs câu dịch của anh Thành Nguyễn hơn.","can_remove":false,"created_time":"2013-12-06T08:11:18+0000","like_count":1,"user_likes":false},"772474242769255":{"id":"772474242769255","from":{"id":"100001359798024","name":"November Gi"},"message":"世界を変えるため、教育こそが最も強力な武器だろう。\ncòn đây là câu của em ạ :)","can_remove":false,"created_time":"2013-12-06T08:19:29+0000","like_count":3,"user_likes":false},"772475852769094":{"id":"772475852769094","from":{"id":"100000199780783","name":"Nguyen Thu Hoai"},"message":"Câu này hay ghê, quá chuẩn luôn. Đất nước mình nên lấy câu này làm slogan \"để đầu giường\". Chính sách chính phủ đào tạo ra một lực lượng giáo viên không chuẩn mực dẫn đến ươm nên những mầm non cũng ... Hy vọng vào thế hệ trẻ đầy nhiệt huyết^^.","can_remove":false,"created_time":"2013-12-06T08:25:40+0000","like_count":1,"user_likes":false},"772476422769037":{"id":"772476422769037","from":{"id":"1146680551","name":"優しい なぁ"},"message":"Dịch theo ý mình chứ hổng theo ý tiếng anh :d","can_remove":false,"created_time":"2013-12-06T08:27:46+0000","like_count":0,"user_likes":false},"772476579435688":{"id":"772476579435688","from":{"id":"100001416272263","name":"Mai PB"},"message":"Anh thích câu của November Gi","message_tags":[{"id":"100001359798024","name":"November Gi","type":"user","offset":18,"length":11}],"can_remove":false,"created_time":"2013-12-06T08:28:19+0000","like_count":1,"user_likes":false},"772477042768975":{"id":"772477042768975","from":{"id":"1146680551","name":"優しい なぁ"},"message":"E thích câu của anh :v","can_remove":false,"created_time":"2013-12-06T08:29:42+0000","like_count":1,"user_likes":false},"772478236102189":{"id":"772478236102189","from":{"id":"100001359798024","name":"November Gi"},"message":"Em cảm ơn các bác đã ủng hộ :3","can_remove":false,"created_time":"2013-12-06T08:32:21+0000","like_count":0,"user_likes":false},"772478436102169":{"id":"772478436102169","from":{"id":"100000381394367","name":"Thành Nguyễn"},"message":"Ai nghĩ được câu hay hơn ( nghĩa khác với câu của Mandela cũng được ) thì càng tốt. Cho làm danh ngôn mới luôn.\n\nベトナムの運命を変えるために、教育は一番強い武器である","can_remove":false,"created_time":"2013-12-06T08:33:01+0000","like_count":0,"user_likes":false},"772478739435472":{"id":"772478739435472","from":{"id":"1146680551","name":"優しい なぁ"},"message":"Việt nam mình có câu \" giáo dục là nên tảng của quốc gia đó anh\"","can_remove":false,"created_time":"2013-12-06T08:34:13+0000","like_count":0,"user_likes":false},"772479949435351":{"id":"772479949435351","from":{"id":"100000381394367","name":"Thành Nguyễn"},"message":"Câu Anh Nguyễn nói trích ở đâu ra vậy, nghị quyết bộ chính trị à?","message_tags":[{"id":"1146680551","name":"Anh Nguyễn","type":"user","offset":4,"length":10}],"can_remove":false,"created_time":"2013-12-06T08:38:50+0000","like_count":0,"user_likes":false},"772480692768610":{"id":"772480692768610","from":{"id":"1146680551","name":"優しい なぁ"},"message":"http://gdtd.vn/channel/2741/201309/mua-thu-mua-tuu-truong-1972295/","can_remove":false,"created_time":"2013-12-06T08:41:46+0000","like_count":1,"user_likes":false},"772481379435208":{"id":"772481379435208","from":{"id":"100000381394367","name":"Thành Nguyễn"},"message":"Thế này thì quốc gia đang có nguy cơ sập đổ vì cái nền tảng này rồi :D","can_remove":false,"created_time":"2013-12-06T08:45:13+0000","like_count":0,"user_likes":false},"772483829434963":{"id":"772483829434963","from":{"id":"1146680551","name":"優しい なぁ"},"message":":) chịu thôi.nhu đang ở trạng thái còn 5% máu ở call of duty.","can_remove":false,"created_time":"2013-12-06T08:48:43+0000","like_count":0,"user_likes":false},"772484452768234":{"id":"772484452768234","from":{"id":"100001359798024","name":"November Gi"},"message":"[ベトナムの運命を変えるために、教育は一番強い武器である]って\n\n私にとって、現在の教育対策だと、ベトナムの運命を変えることなんて、無理でしょう？","can_remove":false,"created_time":"2013-12-06T08:50:11+0000","like_count":2,"user_likes":false},"773077416042271":{"id":"773077416042271","from":{"id":"100000381394367","name":"Thành Nguyễn"},"message":"無理じゃない。できる","can_remove":false,"created_time":"2013-12-07T11:47:46+0000","like_count":1,"user_likes":false},"773077472708932":{"id":"773077472708932","from":{"id":"100000381394367","name":"Thành Nguyễn"},"message":"https://www.facebook.com/groups/CongdongVietNhat/permalink/772717599411586/","can_remove":false,"created_time":"2013-12-07T11:47:49+0000","like_count":1,"user_likes":false}},"paging":{"cursors":{"after":"NzcyNDYzNzgyNzcwMzAx","before":"NzcyNDYzNzgyNzcwMzAx"},"next":"https://graph.facebook.com/229244010425617_772458662770813/comments?limit=1&summary=1&after=NzcyNDYzNzgyNzcwMzAx"},"summary":{"order":"chronological","total_count":20}}}