{"id":"229244010425617_772599536090059","type":"photo","object_id":"653123881404729","picture":"https://fbcdn-photos-c-a.akamaihd.net/hphotos-ak-ash3/t1.0-0/1455044_653123881404729_26175317_s.jpg","link":"https://www.facebook.com/ThongTin.DuHocNhatBan/photos/a.360221000695020.97735.357875377596249/653123881404729/?type=1","from":{"id":"100003250657085","name":"Nhất Kiếm Vô Tình"},"created_time":"2013-12-06T13:33:26+0000","updated_time":"2013-12-07T14:55:46+0000","likes":{"data":{"569263718":{"id":"569263718","name":"Phuong Thao Tran"},"1725907325":{"id":"1725907325","name":"Nguyen Van Dung"},"100007101905810":{"id":"100007101905810","name":"Ann Van"},"100001468665547":{"id":"100001468665547","name":"Thuy Dung Tran"},"100003848021692":{"id":"100003848021692","name":"Ánh Moon"},"100003915567431":{"id":"100003915567431","name":"Chờ Một Ngày Nắng"},"100005903373573":{"id":"100005903373573","name":"HaLinh Phong Phan"},"100001057467030":{"id":"100001057467030","name":"Buông Tay"},"100004832913340":{"id":"100004832913340","name":"Ái Nguyễn"},"100004301108383":{"id":"100004301108383","name":"Cần Một Người Chờ"},"100002855090345":{"id":"100002855090345","name":"Xuan Huy"},"1821970083":{"id":"1821970083","name":"Nguyễn Mạnh Cường"},"100001481900448":{"id":"100001481900448","name":"Bao Pham"},"100003917090580":{"id":"100003917090580","name":"Trần Thị Thu Hương"},"100005335570449":{"id":"100005335570449","name":"Khánh Ly"},"100002419566054":{"id":"100002419566054","name":"Khánh Toàn"},"100004303569394":{"id":"100004303569394","name":"Le Trungtin"},"100005513858966":{"id":"100005513858966","name":"Hai Lan Tran"},"100000195299558":{"id":"100000195299558","name":"Giọt Sương Sớm Mai"},"100007095394280":{"id":"100007095394280","name":"Chiaki Sakai"},"100003762427351":{"id":"100003762427351","name":"Hiroshi Yasu Oki"},"100006838682202":{"id":"100006838682202","name":"Say Bia"},"100004790944770":{"id":"100004790944770","name":"Phạm Tuyến"},"100004565012647":{"id":"100004565012647","name":"Nhật Hà"},"100001887921127":{"id":"100001887921127","name":"Kata Apple"},"100007052641060":{"id":"100007052641060","name":"Leo Min"},"100006552360624":{"id":"100006552360624","name":"Quỳnh Anh Chuu"},"100005024348771":{"id":"100005024348771","name":"Long Hoàng"}},"paging":{"cursors":{"after":"NTY5MjYzNzE4","before":"NTY5MjYzNzE4"},"next":"https://graph.facebook.com/229244010425617_772599536090059/likes?limit=1&summary=1&after=NTY5MjYzNzE4"},"summary":{"total_count":30}},"comments":{"data":{"772603329423013":{"id":"772603329423013","from":{"id":"100005024348771","name":"Long Hoàng"},"message":"cái cuối hay nè","can_remove":false,"created_time":"2013-12-06T13:40:38+0000","like_count":0,"user_likes":false},"772603902756289":{"id":"772603902756289","from":{"id":"100003250657085","name":"Nhất Kiếm Vô Tình"},"message":"cái này mình không tin nắm con gái nhật mình nghĩ rất khắt ke trong việc chọn người yêu","can_remove":false,"created_time":"2013-12-06T13:41:35+0000","like_count":0,"user_likes":false},"772604932756186":{"id":"772604932756186","from":{"id":"100005024348771","name":"Long Hoàng"},"message":"vậy à, buồn ghê","can_remove":false,"created_time":"2013-12-06T13:43:34+0000","like_count":0,"user_likes":false},"772895416060471":{"id":"772895416060471","from":{"id":"100001415407078","name":"Kha Pham"},"message":"いつ日本に来るの。とても行きたい。","can_remove":false,"created_time":"2013-12-07T02:18:41+0000","like_count":1,"user_likes":false},"772922702724409":{"id":"772922702724409","from":{"id":"100000603915176","name":"悪いな ぁ"},"message":"Có quá nhiều điều chẳng có gì ngạc nhiên!","can_remove":false,"created_time":"2013-12-07T03:42:43+0000","like_count":0,"user_likes":false},"773167689366577":{"id":"773167689366577","from":{"id":"569263718","name":"Phuong Thao Tran"},"message":"Kha Pham: いつ日本に行けるの。とても行きたい","message_tags":[{"id":"100001415407078","name":"Kha Pham","type":"user","offset":0,"length":8}],"can_remove":false,"created_time":"2013-12-07T14:55:46+0000","like_count":1,"user_likes":false}},"paging":{"cursors":{"after":"NzcyNjAzMzI5NDIzMDEz","before":"NzcyNjAzMzI5NDIzMDEz"},"next":"https://graph.facebook.com/229244010425617_772599536090059/comments?limit=1&summary=1&after=NzcyNjAzMzI5NDIzMDEz"},"summary":{"order":"chronological","total_count":6}}}