{"id":"229244010425617_772560482760631","type":"status","from":{"id":"100000221648144","name":"Nguyen Hung"},"message":"Mình muốn thi bang lái oto o nhật . Trình độ tiếng nhật của minh là N4 vậy có thể thi đc ko vây? Bác mai PB co biết trang wed để học thi lấy bằng ko ? Mình thi chứ ko phải đổi bằng vo bên vn minh chưa có bằng còn vấn đề lái thì mình biết lái rồi chỉ sợ thi lý thuyêt ko dc thui","created_time":"2013-12-06T12:06:07+0000","updated_time":"2013-12-06T17:06:24+0000","likes":{"data":{"100004720440239":{"id":"100004720440239","name":"Sunshine Yu"}},"paging":{"cursors":{"after":"MTAwMDA0NzIwNDQwMjM5","before":"MTAwMDA0NzIwNDQwMjM5"}},"summary":{"total_count":1}},"comments":{"data":{"772564326093580":{"id":"772564326093580","from":{"id":"100003762427351","name":"Hiroshi Yasu Oki"},"message":"N4 thì khá khó đấy bạn ạ :(","can_remove":false,"created_time":"2013-12-06T12:18:07+0000","like_count":1,"user_likes":false},"772566312760048":{"id":"772566312760048","from":{"id":"100001416272263","name":"Mai PB"},"message":"Bạn đọc được thì sẽ học được. Học được sẽ được thi. Được thi sẽ đậu với tỉ lệ 40%. http://menkyo-web.com/mogi-mondai01.html","can_remove":false,"created_time":"2013-12-06T12:23:21+0000","like_count":3,"user_likes":false},"772566839426662":{"id":"772566839426662","from":{"id":"100000221648144","name":"Nguyen Hung"},"message":"100cau dung 40cau la dau ha bac mai pb","can_remove":false,"created_time":"2013-12-06T12:24:25+0000","like_count":0,"user_likes":false},"772568236093189":{"id":"772568236093189","from":{"id":"1026780646","name":"Việt Hưng Khổng"},"message":"Đậu 40% có nghĩa 100ng thì sẽ đậu 40 ng chứ nhỉ :D","can_remove":false,"created_time":"2013-12-06T12:28:18+0000","like_count":0,"user_likes":false},"772568952759784":{"id":"772568952759784","from":{"id":"100001570773655","name":"Hoàng A Chang"},"message":"Chịu khó mất nhiều tiền vào thì nhiều thề nào chẳng đc :))","can_remove":false,"created_time":"2013-12-06T12:30:12+0000","like_count":0,"user_likes":false},"772570392759640":{"id":"772570392759640","from":{"id":"100004492744468","name":"Khanhquynh Lengoc"},"message":"Ko dc dau.it nhat fai n2.ng nhat con ko de dau do ban oi","can_remove":false,"created_time":"2013-12-06T12:33:11+0000","like_count":0,"user_likes":false},"772571479426198":{"id":"772571479426198","from":{"id":"100000221648144","name":"Nguyen Hung"},"message":"Hic căng vậy . Ai biết tỷ lệ bao nhiêu % thì đậu ko vậy","can_remove":false,"created_time":"2013-12-06T12:36:04+0000","like_count":0,"user_likes":false},"772572076092805":{"id":"772572076092805","from":{"id":"100001416272263","name":"Mai PB"},"message":"40% là tỉ lệ người thi đậu, đúng như Việt Hưng Khổng nói đó. Tuy nhiên đó là con số mà hôm mình đi thi. Bây giờ xem lại thì hóa ra tỷ lệ đậu ngay lần đầu tiên chỉ có trung bình 5% thôi! Nghĩa là rất nhiều người phải thi lại.\nhttp://1license.com/goukakuritu/hutuumenkyo-ippatushiken-goukakuritu/","message_tags":[{"id":"1026780646","name":"Việt Hưng Khổng","type":"user","offset":37,"length":15}],"can_remove":false,"created_time":"2013-12-06T12:38:22+0000","like_count":4,"user_likes":false},"772572339426112":{"id":"772572339426112","from":{"id":"100001416272263","name":"Mai PB"},"message":"Hoàng A Chang nói chuyện của VN ở Nhật thì có phải là nằm mơ không?","message_tags":[{"id":"100001570773655","name":"Hoàng A Chang","type":"user","offset":0,"length":13}],"can_remove":false,"created_time":"2013-12-06T12:39:27+0000","like_count":1,"user_likes":false},"772575049425841":{"id":"772575049425841","from":{"id":"100000221648144","name":"Nguyen Hung"},"message":"Hic","can_remove":false,"created_time":"2013-12-06T12:44:29+0000","like_count":0,"user_likes":false},"772579362758743":{"id":"772579362758743","from":{"id":"1026780646","name":"Việt Hưng Khổng"},"message":"Hiz, đúng là suy nghĩ rất ... VN, nó thành hệ thống mất rồi! Hãy cố gắng từ từ sửa vậy- cái j cũng muốn mua bằng tiền- an toàn giao thông ảnh hưởng trực tiếp đến tính mạng con người, đâu phải tự nhiên người ta thích làm khó vậy! Mà tính mạng con người có nên nói chuyện bán mua không ?!","can_remove":false,"created_time":"2013-12-06T12:49:55+0000","like_count":2,"user_likes":false},"772579816092031":{"id":"772579816092031","from":{"id":"100000221648144","name":"Nguyen Hung"},"message":"Hic","can_remove":false,"created_time":"2013-12-06T12:51:09+0000","like_count":0,"user_likes":false},"772580182758661":{"id":"772580182758661","from":{"id":"100001416272263","name":"Mai PB"},"message":"Cảm Xúc Bất Tận : không đọc hiểu được thì không thi được, đương nhiên rồi.","message_tags":[{"id":"100006469315671","name":"Cảm Xúc Bất Tận","type":"user","offset":0,"length":15}],"can_remove":false,"created_time":"2013-12-06T12:52:28+0000","like_count":0,"user_likes":false},"772580502758629":{"id":"772580502758629","from":{"id":"100000221648144","name":"Nguyen Hung"},"message":"Hic tiếng nhật kém thì chiu đi xe đap thui . Cam on bãc mai pb nha e xoa chữ giả đi đây","can_remove":false,"created_time":"2013-12-06T12:53:11+0000","like_count":0,"user_likes":false},"772580809425265":{"id":"772580809425265","from":{"id":"100000221648144","name":"Nguyen Hung"},"message":"Xoa ko dc lun nó bao loi","can_remove":false,"created_time":"2013-12-06T12:54:17+0000","like_count":0,"user_likes":false},"772580952758584":{"id":"772580952758584","from":{"id":"100001416272263","name":"Mai PB"},"message":"Mình xóa rồi.","can_remove":false,"created_time":"2013-12-06T12:54:37+0000","like_count":0,"user_likes":false},"772581016091911":{"id":"772581016091911","from":{"id":"100000221648144","name":"Nguyen Hung"},"message":"","can_remove":false,"created_time":"2013-12-06T12:54:48+0000","like_count":0,"user_likes":false},"772581156091897":{"id":"772581156091897","from":{"id":"100000221648144","name":"Nguyen Hung"},"message":"Xoa ko dc nen chiu hic","can_remove":false,"created_time":"2013-12-06T12:55:04+0000","like_count":0,"user_likes":false},"772581206091892":{"id":"772581206091892","from":{"id":"100001809421875","name":"Tôm Tít"},"message":"E có B2 ở VN rồi,đổi sang bằng Nhật có phải thi không anh?","can_remove":false,"created_time":"2013-12-06T12:55:13+0000","like_count":0,"user_likes":false},"772581356091877":{"id":"772581356091877","from":{"id":"100001416272263","name":"Mai PB"},"message":"Bạn nên biết, nếu bạn mua được bằng, lừa được cảnh sát Nhật, rồi bạn đi gây tai nạn, thì bạn sẽ bị đi tù và đền bù đến tận đời con của bạn cũng không xong đâu.","can_remove":false,"created_time":"2013-12-06T12:55:44+0000","like_count":0,"user_likes":false},"772582536091759":{"id":"772582536091759","from":{"id":"100000221648144","name":"Nguyen Hung"},"message":"Vậy là bằng đểu o vn mang qua van lừa dc cs nhật hả bác","can_remove":false,"created_time":"2013-12-06T12:58:29+0000","like_count":0,"user_likes":false},"772585939424752":{"id":"772585939424752","from":{"id":"1026780646","name":"Việt Hưng Khổng"},"message":"Nguyen Hung có vê chưa hiểu vấn đề nhỉ, đừng bao giờ nói chuyện làm giả với người Nhật- họ cực kỳ dị ứng đấy! Mức  phạt ở Nhật thì như bác Mai PB nói đấy, đến hàng nghìn man chứ không nhẹ nhàng đâu !","can_remove":false,"created_time":"2013-12-06T13:04:37+0000","like_count":0,"user_likes":false},"772593849423961":{"id":"772593849423961","from":{"id":"100000221648144","name":"Nguyen Hung"},"message":"Thui di xe đạp cho nó lành","can_remove":false,"created_time":"2013-12-06T13:20:19+0000","like_count":0,"user_likes":false},"772596956090317":{"id":"772596956090317","from":{"id":"100000603915176","name":"悪いな ぁ"},"message":"Bạn nào có bằng của VN rồi mà muốn đổi bằng QT thì về VN đổi nhé. Phí vào khoảng 300$ đến 500$.","can_remove":false,"created_time":"2013-12-06T13:26:23+0000","like_count":0,"user_likes":false},"772597859423560":{"id":"772597859423560","from":{"id":"100000221648144","name":"Nguyen Hung"},"message":"Bằng quốc tế qua nhật nó cũng bắt thi lại thui . Chi nhung nguoi visa ngan hạn thì có thể xài tạm thời o nhật dc","can_remove":false,"created_time":"2013-12-06T13:28:30+0000","like_count":0,"user_likes":false},"772598466090166":{"id":"772598466090166","from":{"id":"100000603915176","name":"悪いな ぁ"},"message":"Về thực chất, bằng QT chỉ là 1 tờ giấy đc dịch ra tiếng Anh. Tờ giấy đó có giá trị ở vài chục nước trong đó có Nhật.","can_remove":false,"created_time":"2013-12-06T13:30:03+0000","like_count":0,"user_likes":false},"772598709423475":{"id":"772598709423475","from":{"id":"100000603915176","name":"悪いな ぁ"},"message":"Mà gọi là anh thì đừng dùng từ chan, anh có phải dân Hifi đâu >.<","can_remove":false,"created_time":"2013-12-06T13:31:00+0000","like_count":0,"user_likes":false},"772600649423281":{"id":"772600649423281","from":{"id":"100001809421875","name":"Tôm Tít"},"message":"E vẫn đang ở VN,nên đổi sang bằng QT à a.Sang Nhật xài ok chứ ạ?(e đi du học)","can_remove":false,"created_time":"2013-12-06T13:35:03+0000","like_count":0,"user_likes":false},"772602009423145":{"id":"772602009423145","from":{"id":"100000603915176","name":"悪いな ぁ"},"message":"Bọn em vào page này rồi gọi điện trực tiếp hỏi nhé! https://m.facebook.com/pages/Đổi-Bằng-lái-Quốc-Tế-chỉ-100-usd-Lái-xe-tại-196-nước/647029151995700?id=647029151995700&_rdr","can_remove":false,"created_time":"2013-12-06T13:38:31+0000","like_count":0,"user_likes":false},"772605279422818":{"id":"772605279422818","from":{"id":"100000442929887","name":"Mike Yi"},"message":"Ai muốn thi lấy bằng........thì phải vô trường học lái xe mới hy vọng đậu được.Vì khi thi thực hành nó bất ngờ kêu mình làm cái này cái kia......sẽ khó xử lý và sẽ .......đi thi tiếp lần sau.......","can_remove":false,"created_time":"2013-12-06T13:44:33+0000","like_count":1,"user_likes":false},"772637422752937":{"id":"772637422752937","from":{"id":"100001580479641","name":"Hà Xuân Thủy"},"message":"Hôm nay mình vừa đi trường học lái( 教習所) xe tìm hiểu, ở đây họ sẽ tư vấn cụ thể và có một bài test nhanh cho bạn, nếu bạn ok ở bài test này thì đc phép đăng kí học ở 教習所, đc vào học thì có nghĩa là có khả năng thi đậu, còn khả năng đến đâu thì là do năng khiếu và sự cố gắng của bạn.","can_remove":false,"created_time":"2013-12-06T14:59:48+0000","like_count":1,"user_likes":false},"772647972751882":{"id":"772647972751882","from":{"id":"1580589258","name":"Kani Oboeru"},"message":"Theo minh thi N2 chua chac doc hieu duoc de thi, ko noi gi den N4 ban ah","can_remove":false,"created_time":"2013-12-06T15:23:29+0000","like_count":0,"user_likes":false},"772651616084851":{"id":"772651616084851","from":{"id":"100000442929887","name":"Mike Yi"},"message":"Nói thêm cho a chị e hiểu rõ chút nhé . Có bằng lái rồi bắt đầu khó khăn : Mua xe đơn gian nhưng đăng ký mới phức tạp ( phải có bãi đậu xe ) mỗi năm phải kiểm định 1 lần nếu xe cũ 2 năm cho xe mới.Tiền bảo hiểm xe định kỳ.Lái xe nếu như vi phậm nhìu lần bị trừ hết 10 điểm là coi như .......đi xe đạp tiếp again.","can_remove":false,"created_time":"2013-12-06T15:29:24+0000","like_count":2,"user_likes":false},"772693349414011":{"id":"772693349414011","from":{"id":"100004720440239","name":"Sunshine Yu"},"message":"em ủng hộ đi xe đạp và tàu điện ạ :3","can_remove":false,"created_time":"2013-12-06T17:06:24+0000","like_count":0,"user_likes":false}},"paging":{"cursors":{"after":"NzcyNTY0MzI2MDkzNTgw","before":"NzcyNTY0MzI2MDkzNTgw"},"next":"https://graph.facebook.com/229244010425617_772560482760631/comments?limit=1&summary=1&after=NzcyNTY0MzI2MDkzNTgw"},"summary":{"order":"chronological","total_count":39}}}