{"id":"229244010425617_772614752755204","type":"link","link":"http://blog.livedoor.jp/rokkoumaster/archives/816108.html","from":{"id":"100005694491959","name":"Phuong Truong Thi Thanh"},"message":"自分のない物を数えると、不幸になります。\n自分がある物を数えると、心が豊かになって幸せになります。\n命があって幸せ。\n家族がいて幸せ。\n友だちがいて幸せ。\nごはんが食べられて幸せ。\nほら、これだけ幸せになった！！","created_time":"2013-12-06T14:05:20+0000","updated_time":"2013-12-07T04:39:56+0000","likes":{"data":{"100004253979918":{"id":"100004253979918","name":"Louis Hoàng Văn Thái"},"100001537031007":{"id":"100001537031007","name":"Vịt Xấu Xí"},"100005866751996":{"id":"100005866751996","name":"Nam Nguyen"},"100004251847599":{"id":"100004251847599","name":"Yuki Yuki"},"100005802612629":{"id":"100005802612629","name":"Hana Nguyen"},"100004212220580":{"id":"100004212220580","name":"Anh Chu"},"738235689":{"id":"738235689","name":"Dang Thi Phuong"},"100000603915176":{"id":"100000603915176","name":"悪いな ぁ"},"100001257093338":{"id":"100001257093338","name":"Hanh Dang"},"100000025833265":{"id":"100000025833265","name":"Nghia Duong Tuan"},"100000267443070":{"id":"100000267443070","name":"Kani Chan"},"100001526631937":{"id":"100001526631937","name":"Tường Oanh Mineko"},"1146680551":{"id":"1146680551","name":"優しい なぁ"},"100003893158172":{"id":"100003893158172","name":"Maru MO"},"100001416272263":{"id":"100001416272263","name":"Mai PB"}},"paging":{"cursors":{"after":"MTAwMDA0MjUzOTc5OTE4","before":"MTAwMDA0MjUzOTc5OTE4"},"next":"https://graph.facebook.com/229244010425617_772614752755204/likes?limit=1&summary=1&after=MTAwMDA0MjUzOTc5OTE4"},"summary":{"total_count":16}},"comments":{"data":{"772615646088448":{"id":"772615646088448","from":{"id":"100001416272263","name":"Mai PB"},"message":"Ai dịch giúp mọi người đi.","can_remove":false,"created_time":"2013-12-06T14:07:54+0000","like_count":0,"user_likes":false},"772619306088082":{"id":"772619306088082","from":{"id":"1146680551","name":"優しい なぁ"},"message":"あなたの心をより豊かにし、社会をより幸福にできるだろう","can_remove":false,"created_time":"2013-12-06T14:17:26+0000","like_count":0,"user_likes":false},"772619902754689":{"id":"772619902754689","from":{"id":"1026780646","name":"Việt Hưng Khổng"},"message":"Sẽ là  bất hạnh là khi đếm những thứ mình không có trong tay. \nSẽ là giàu có nếu đếm những thứ mình có\nSẽ là hạnh phúc\nHạnh phúc là còn được sống\nHạnh phúc là có gia đình\nHạnh phúc là có bạn bè\nHạnh phúc là còn có thể ăn cơm\nĐấy, Hạnh phúc chỉ có thế :)))","can_remove":false,"created_time":"2013-12-06T14:19:11+0000","like_count":6,"user_likes":false},"772620456087967":{"id":"772620456087967","from":{"id":"1146680551","name":"優しい なぁ"},"message":"Câu 2 k sát lắm :v","can_remove":false,"created_time":"2013-12-06T14:20:58+0000","like_count":1,"user_likes":false},"772620549421291":{"id":"772620549421291","from":{"id":"100001526631937","name":"Tường Oanh Mineko"},"message":"Khi ta đong đếm những thứ ta ko có, sẽ trở nên bất hạnh.\nKhi ta suy xét đến những gì ta đang có, tâm hồn thanh thoát,sẽ cảm thấy hạnh phúc.\nCó sự sống, đã là hạnh phúc.\nCó gia đình, là một hạnh phúc.\nCó bạn bè, là một hạnh phúc (niềm vui ).\nCó cơm để ăn, là đã hạnh phúc.\nNhìn xem, Chỉ vậy thôi là hạnh phúc lắm rồi !\nEm dịch thoáng bao hàm cảm xúc vào nên chỗ nào chưa đc mọi người góp ý cho e với. :D","can_remove":false,"created_time":"2013-12-06T14:21:19+0000","like_count":9,"user_likes":false},"772621306087882":{"id":"772621306087882","from":{"id":"1146680551","name":"優しい なぁ"},"message":"Hay đấy. Tiếp đi :v","can_remove":false,"created_time":"2013-12-06T14:23:12+0000","like_count":0,"user_likes":false},"772622279421118":{"id":"772622279421118","from":{"id":"569263718","name":"Phuong Thao Tran"},"message":"câu 1,2 của Tường Oanh ghép với 3, 4,5, 6, 7 của VHK là tuyệt cú mèo, ^^","can_remove":false,"created_time":"2013-12-06T14:25:47+0000","like_count":5,"user_likes":false},"772634206086592":{"id":"772634206086592","from":{"id":"100001257093338","name":"Hanh Dang"},"message":"Dịch từ cuối lên có vẻ hay hơn! Bon chen dịch khúc giữa thử : Hạnh phúc khi được sống. Hạnh phúc khi có gia đình. Hạnh phúc khi có bạn bè. Hạnh phúc khi có thể ăn cơm. Đó, chỉ vậy thôi đã hạnh phúc lắm rồi!","can_remove":false,"created_time":"2013-12-06T14:52:50+0000","like_count":0,"user_likes":false},"772938292722850":{"id":"772938292722850","from":{"id":"100001526631937","name":"Tường Oanh Mineko"},"message":"Phuong Truong Thi Thanh có thể bổ sung cái topic này vào chủ để có sẵn trong group nhé.https://www.facebook.com/notes/c%E1%BB%99ng-%C4%91%E1%BB%93ng-vi%E1%BB%87t-nh%E1%BA%ADt-vietnam-japan-community-/c%C3%A1c-b%C3%A0i-vi%E1%BA%BFt-li%C3%AAn-quan-%C4%91%E1%BA%BFn-th%C6%A1-v%C3%A0-v%C4%83n-h%E1%BB%8Dc-nh%E1%BA%ADt_vi%E1%BB%87t/772906589392687","message_tags":[{"id":"100005694491959","name":"Phuong Truong Thi Thanh","type":"user","offset":0,"length":23}],"can_remove":false,"created_time":"2013-12-07T04:39:56+0000","like_count":0,"user_likes":false}},"paging":{"cursors":{"after":"NzcyNjE1NjQ2MDg4NDQ4","before":"NzcyNjE1NjQ2MDg4NDQ4"},"next":"https://graph.facebook.com/229244010425617_772614752755204/comments?limit=1&summary=1&after=NzcyNjE1NjQ2MDg4NDQ4"},"summary":{"order":"chronological","total_count":10}}}