{"id":"229244010425617_772654166084596","type":"status","from":{"id":"100002508122689","name":"Vũ Mạnh Tuấn"},"message":"Trên trang Maggie Sensei có những bài viết rất hay về tiếng Nhật , nhưng bằng tiếng anh. Mình dịch thử 1 bài ra để mọi người cùng tìm hiểu nhé .\n\nCó lẽ nhiều bạn đều biết đến cụm từ \" 久しぶり \" ( đã lâu không gặp ) \n{ lịch sự hơn thì sẽ là  \"お久しぶり!\" và phụ nữ thường dùng cách này hơn }.\n\nNhưng có lẽ một số còn chưa biết đến: \"ご無沙汰しています\" { gobusata shiteimasu }\n\nCụm từ này được dùng để nói với những người mà bạn đã không gặp trong một thời gian dài. Nó cũng là một câu quen thuộc dùng khi viết thư với những người mà bạn đã không liên lạc trong một thời gian dài. \n\n* Rất trang trọng * 大変ご無沙汰しております。= Taihen gobusata shtie orimasu.\n\n* Trang trọng* ご無沙汰しています。 =Gobusata shite imasu.\n\n* Không trang trọng * ご無沙汰です！ =Gobusata desu.\n\n* Suồng sã * ご無沙汰！=Gobusata!\n\nSo với お久しぶりです。(=Ohisashiburi desu)\nthì ご無沙汰しています(=Gobusata shiteimasu) lịch sự hơn và nghe có vẻ khiêm tốn hơn.\nNó liên quan đến cảm xúc kiểu như: \" Tôi rất xin lỗi vì đã không thăm bạn/ không viết thư cho bạn trong một thời gian dài \"\n\nVì vậy khi có ai đó nói là :\n\nご無沙汰しています =Gobusata shiteimasu\n= Đã một thời gian dài không gặp. Tôi phải xin lỗi bạn vì điều này.\n\nBạn hãy đáp lại \n\n(いえいえ）こちらこそ、（ご無沙汰しています。）\n= (Ieie) Kochirakoso (Gobusata shiteimasu.)\n= Ồ không , chính là tôi mới là người phải xin lỗi vì đã không liên lạc trong suốt 1 thời gian dài \n\n_____\nMọi người cùng đóng góp thêm nhé. Chúc tiếng Nhật của mọi người ngày càng giỏi!!","created_time":"2013-12-06T15:33:18+0000","updated_time":"2014-03-27T12:06:50+0000","likes":{"data":{"100000183258577":{"id":"100000183258577","name":"Valen Tino"},"100000022163023":{"id":"100000022163023","name":"Kafe Ore"},"100000045271667":{"id":"100000045271667","name":"Nam Thai Nguyen"},"100005811458124":{"id":"100005811458124","name":"Phúc Long"},"100000328742646":{"id":"100000328742646","name":"Trần Giáp"},"100004253979918":{"id":"100004253979918","name":"Louis Hoàng Văn Thái"},"100000101723728":{"id":"100000101723728","name":"Bình Đặng"},"683231044":{"id":"683231044","name":"Hoàng Hải Đăng"},"100003650441746":{"id":"100003650441746","name":"Yo Ko So"},"1250876107":{"id":"1250876107","name":"Kim Hoan"},"100003814756892":{"id":"100003814756892","name":"Hai Nguyen"},"100001292564389":{"id":"100001292564389","name":"Tran Viet"},"100002554951306":{"id":"100002554951306","name":"Ha Thu"},"100003155380603":{"id":"100003155380603","name":"Khuong Pham"},"100005211189763":{"id":"100005211189763","name":"Oliveu Cchann"},"100001458099624":{"id":"100001458099624","name":"Kham Pha"},"100001537031007":{"id":"100001537031007","name":"Vịt Xấu Xí"},"100001043501222":{"id":"100001043501222","name":"Bẩy Chấy"},"100006145239776":{"id":"100006145239776","name":"Thuỳ Linh"},"1850147953":{"id":"1850147953","name":"Rùa Con"},"100003172353190":{"id":"100003172353190","name":"Nade Shiko"},"1828663711":{"id":"1828663711","name":"Duny Chan"},"1821970083":{"id":"1821970083","name":"Nguyễn Mạnh Cường"},"100000983811825":{"id":"100000983811825","name":"Hoa Lê"},"100003097410255":{"id":"100003097410255","name":"Keiji Maeda"},"100003907081547":{"id":"100003907081547","name":"Van Ta"},"1616974500":{"id":"1616974500","name":"Duong Lien"},"1146680551":{"id":"1146680551","name":"優しい なぁ"},"100005024348771":{"id":"100005024348771","name":"Long Hoàng"},"100001508739620":{"id":"100001508739620","name":"Lê Ngọc Hoàn"},"100000960252631":{"id":"100000960252631","name":"Takumi Tuan"},"100001695345798":{"id":"100001695345798","name":"Tyn Aki"},"100003221880243":{"id":"100003221880243","name":"Ngân Siêu Nhân"},"100000173039166":{"id":"100000173039166","name":"Kukku Lee"},"1725907325":{"id":"1725907325","name":"Nguyen Van Dung"},"100005672623737":{"id":"100005672623737","name":"Ánh Hà Nguyễn"},"100001754136107":{"id":"100001754136107","name":"Nguyễn Tuấn Vũ"},"100001257093338":{"id":"100001257093338","name":"Hanh Dang"},"100001526631937":{"id":"100001526631937","name":"Tường Oanh Mineko"},"100004251847599":{"id":"100004251847599","name":"Yuki Yuki"},"100002911187986":{"id":"100002911187986","name":"Nghia Bui"},"100003055356509":{"id":"100003055356509","name":"Thuan Nguyen"},"569263718":{"id":"569263718","name":"Phuong Thao Tran"},"100004028173069":{"id":"100004028173069","name":"Jin Ngốc"},"100006266882815":{"id":"100006266882815","name":"Phạm Lan Mai"},"100006379235603":{"id":"100006379235603","name":"Khoai Tây Rubi"},"100000922232765":{"id":"100000922232765","name":"Ca Duoi"},"1283298041":{"id":"1283298041","name":"Búa Đức Thanh"},"100001416272263":{"id":"100001416272263","name":"Mai PB"}},"paging":{"cursors":{"after":"MTAwMDAwMTgzMjU4NTc3","before":"MTAwMDAwMTgzMjU4NTc3"},"next":"https://graph.facebook.com/229244010425617_772654166084596/likes?limit=1&summary=1&after=MTAwMDAwMTgzMjU4NTc3"},"summary":{"total_count":49}},"comments":{"data":{"772667019416644":{"id":"772667019416644","from":{"id":"100001754136107","name":"Nguyễn Tuấn Vũ"},"message":"mình bổ sung: lâu ngày k gặp và ko liên lạc gì cả. Nó thường đi kèm: ご無沙汰してすみません。","can_remove":false,"created_time":"2013-12-06T16:00:11+0000","like_count":6,"user_likes":false},"772679366082076":{"id":"772679366082076","from":{"id":"100002508122689","name":"Vũ Mạnh Tuấn"},"message":"lại thêm cả すみません。vào nữa, đúng là trong 1 câu chứa cả đống sự xin lỗi ạ :)) Đúng là tiếng Nhật :D","can_remove":false,"created_time":"2013-12-06T16:28:45+0000","like_count":1,"user_likes":false},"772680199415326":{"id":"772680199415326","from":{"id":"1146680551","name":"優しい なぁ"},"message":"”久しぶりですね””しばらくですね”　Mình chỉ biết mỗi 2 câu này.Cảm ơn bạn :D","can_remove":false,"created_time":"2013-12-06T16:30:21+0000","like_count":1,"user_likes":false},"772680932748586":{"id":"772680932748586","from":{"id":"100002508122689","name":"Vũ Mạnh Tuấn"},"message":"dạ ko có gì ạ. E chia sẻ để mọi người cùng hiểu thêm , và cả em cũng thế.","can_remove":false,"created_time":"2013-12-06T16:31:52+0000","like_count":1,"user_likes":false},"772732336076779":{"id":"772732336076779","from":{"id":"100006145239776","name":"Thuỳ Linh"},"message":"dịch sang t.a là long tme to see..dài dòng qúa ạ :-P.","can_remove":false,"created_time":"2013-12-06T18:42:09+0000","like_count":0,"user_likes":false},"772795672737112":{"id":"772795672737112","from":{"id":"100000027754899","name":"Hoang Van Ba"},"message":"久しぶりやん","can_remove":false,"created_time":"2013-12-06T21:29:38+0000","like_count":1,"user_likes":false},"772880106062002":{"id":"772880106062002","from":{"id":"100002508122689","name":"Vũ Mạnh Tuấn"},"message":"Thuỳ Linh Long time no see chứ","message_tags":[{"id":"100006145239776","name":"Thuỳ Linh","type":"user","offset":0,"length":9}],"can_remove":false,"created_time":"2013-12-07T01:35:48+0000","like_count":1,"user_likes":false},"772881426061870":{"id":"772881426061870","from":{"id":"100006145239776","name":"Thuỳ Linh"},"message":"ừ,long time to see","can_remove":false,"created_time":"2013-12-07T01:39:44+0000","like_count":0,"user_likes":false},"772892709394075":{"id":"772892709394075","from":{"id":"100003650441746","name":"Yo Ko So"},"message":"hay vóa (Y)","can_remove":false,"created_time":"2013-12-07T02:09:35+0000","like_count":0,"user_likes":false},"840390262644319":{"id":"840390262644319","from":{"id":"100001526631937","name":"Tường Oanh Mineko"},"message":"mấy cái này ko thưởng xuyên dùng nên khi nghe lại từ ai đó, hay từ đĩa thì phản xạ như rùa luôn, hic. >;<","can_remove":false,"created_time":"2014-03-27T07:01:06+0000","like_count":0,"user_likes":false},"840485029301509":{"id":"840485029301509","from":{"id":"100000603915176","name":"悪いな ぁ"},"message":"Và nếu ai chưa nghe ご無沙汰 thì nên nghe thử bài 吾亦紅(われもこう) của Mr すぎもとまさと nhé! Buồn cấm khóc :v\n\nhttp://m.youtube.com/watch?v=TbCH7ZvmipY","can_remove":false,"created_time":"2014-03-27T12:06:50+0000","like_count":1,"user_likes":false}},"paging":{"cursors":{"after":"NzcyNjY3MDE5NDE2NjQ0","before":"NzcyNjY3MDE5NDE2NjQ0"},"next":"https://graph.facebook.com/229244010425617_772654166084596/comments?limit=1&summary=1&after=NzcyNjY3MDE5NDE2NjQ0"},"summary":{"order":"chronological","total_count":11}}}