{"id":"229244010425617_772690749414271","type":"link","picture":"https://fbexternal-a.akamaihd.net/safe_image.php?d=AQA1x5XHk4IVz4z9&w=154&h=154&url=https%3A%2F%2Fcdnssl.mediafire.com%2Fimages%2Ffiletype%2Fdownload%2Fzip.jpg","link":"http://www.mediafire.com/download/d7yo80lma0pklge/NihongoBenkyou_v3_x86.zip","from":{"id":"1821970083","name":"Nguyễn Mạnh Cường"},"message":"SHARE, PASTE BÀI TRƯỚC KHI LIKE NHA (nếu có thể ) (y) (y) (y) <3 <3 <3 :*\n\n[------------>Share bài bằng cách coppy and paste, nhấn chia sẻ thì share ko đủ tài liệu mọi người nhé !]  \n\n[***Soft cài đặt trên máy tính ko cho điện thoại nhé :( ***]\n\nMình có tổng hợp những phần mềm học tiếng Nhật, ai cần dùng thì tải nhé. Bonus thêm 2 file bản mềm Quốc gia khởi nghiệp Israel, và Khuyến học của FY.\n\n1. Phần mềm này ưu điểm sử dụng để kiểm tra lại từ vựng với số lượng lớn, có thể import từ file text, chi tiết các bạn export ra và save dữ liệu theo nó để import lại.(nó có sẵn từ vựng khoảng 50 bải mina+ 1 số từ vựng IT)\nhttp://www.mediafire.com/download/d7yo80lma0pklge/NihongoBenkyou_v3_x86.zip\n\n2. Phần mềm này ưu điểm là tra kanji và tra các kiểu, mình rất thích dùng, có rất nhiều ví dụ, Nhật việt, Nhật Anh. Nói chung là nên dùng (y)\nhttp://www.mediafire.com/download/ck4tgy3g916jndu/QuickMultiLangDictSetup_1_1_0102.rar\n\n3.Phần mềm này ưu điểm là luôn chạy trên nền window  ( win 32bit, chưa test với IOS) hiển thị từ vựng Kanji, giúp tiếp xúc với Kanji nhiều hơn( hình như cũng có thể import, mình chưa thử) có database mình sẽ up sau.\nhttp://www.mediafire.com/download/8l917v7w1rsbxkj/Jwords.7z [đã đầy đủ version : sư phụ <3 TrieuTDH FPT.Fsoft ]\n\n4+5:\n Link Khuyến học: (bạn nào tìm bản prc và chạy kindle app ios để đọc cũng tiện, mình up lên lâu rồi nhưng ko nhớ là trong đó có bản prc ko nữa, hì)\nhttp://www.mediafire.com/download/t627hanvdz9sakm/Khuyến%20Học.rar\n\nLink Quốc gia khởi nghiệp (Rất đáng để đọc sau Khuyến học :D)\nhttp://www.mediafire.com/view/xaqmm7zazamsbo6/Start-up%20Nation_Ban%20dich.pdf\n\nHi vọng sẽ có ích với mọi người! Mong là mọi người share nó nhiều nhiều nếu có thể :D","created_time":"2013-12-06T16:59:28+0000","updated_time":"2013-12-06T22:26:16+0000","likes":{"data":{"100003070973770":{"id":"100003070973770","name":"Thắm Là Ta"},"100001458099624":{"id":"100001458099624","name":"Kham Pha"},"100003110924160":{"id":"100003110924160","name":"Khanh Linh"},"1717530880":{"id":"1717530880","name":"Triệu Việt Cường"},"1744556343":{"id":"1744556343","name":"Thùy Dương"},"1725907325":{"id":"1725907325","name":"Nguyen Van Dung"},"100004293973335":{"id":"100004293973335","name":"Nga Ngố"},"100005024348771":{"id":"100005024348771","name":"Long Hoàng"},"100004028509063":{"id":"100004028509063","name":"Ruby Rubie"},"100001995263460":{"id":"100001995263460","name":"Chibi Yuriko"},"100004398330290":{"id":"100004398330290","name":"Lam Linh"},"100001526631937":{"id":"100001526631937","name":"Tường Oanh Mineko"}},"paging":{"cursors":{"after":"MTAwMDAzMDcwOTczNzcw","before":"MTAwMDAzMDcwOTczNzcw"},"next":"https://graph.facebook.com/229244010425617_772690749414271/likes?limit=1&summary=1&after=MTAwMDAzMDcwOTczNzcw"},"summary":{"total_count":12}},"comments":{"data":{"772712756078737":{"id":"772712756078737","from":{"id":"100002472470715","name":"Phan Duy Hùng"},"message":"Thích cái Israel, thank bạn","can_remove":false,"created_time":"2013-12-06T17:52:39+0000","like_count":1,"user_likes":false},"772714282745251":{"id":"772714282745251","from":{"id":"1821970083","name":"Nguyễn Mạnh Cường"},"message":"Phan Duy Hùng Thanks suông ko được đâu :( mình thích cậu Share hộ mình cơ, thích thật luôn ý :*","can_remove":false,"created_time":"2013-12-06T17:56:17+0000","like_count":0,"user_likes":false},"772714696078543":{"id":"772714696078543","from":{"id":"100004293973335","name":"Nga Ngố"},"message":"androi có tải dc k nhi@@","can_remove":false,"created_time":"2013-12-06T17:58:08+0000","like_count":0,"user_likes":false},"772715566078456":{"id":"772715566078456","from":{"id":"1821970083","name":"Nguyễn Mạnh Cường"},"message":"mình quên chưa ghi rõ, hì. Tiếc quá cái này dành cho máy tính thôi Nga Ngố ạ :)","message_tags":[{"id":"100004293973335","name":"Nga Ngố","type":"user","offset":67,"length":7}],"can_remove":false,"created_time":"2013-12-06T17:59:43+0000","like_count":0,"user_likes":false},"772715766078436":{"id":"772715766078436","from":{"id":"100002472470715","name":"Phan Duy Hùng"},"message":"OK Nguyễn Mạnh Cường Mình sẽ share vào Groups ebook pdf miễn phí của mình nhé","message_tags":[{"id":"1821970083","name":"Nguyễn Mạnh Cường","type":"user","offset":3,"length":17}],"can_remove":false,"created_time":"2013-12-06T18:00:19+0000","like_count":1,"user_likes":false},"772716262745053":{"id":"772716262745053","from":{"id":"1821970083","name":"Nguyễn Mạnh Cường"},"message":"Um, Ồ có cái nào public được nhiều người thì càng tốt <3","can_remove":false,"created_time":"2013-12-06T18:01:42+0000","like_count":0,"user_likes":false},"772716952744984":{"id":"772716952744984","from":{"id":"100002472470715","name":"Phan Duy Hùng"},"message":"trong groups có nhiều người muốn tải và up sách, tài liệu của bạn sẽ có ích với họ, thay mặt họ mình thank thêm lần nữa nhé, :)","can_remove":false,"created_time":"2013-12-06T18:02:54+0000","like_count":1,"user_likes":false},"772717242744955":{"id":"772717242744955","from":{"id":"1821970083","name":"Nguyễn Mạnh Cường"},"message":"Ô thế cho mình vao nữa với :x","can_remove":false,"created_time":"2013-12-06T18:03:37+0000","like_count":0,"user_likes":false},"772717289411617":{"id":"772717289411617","from":{"id":"100004293973335","name":"Nga Ngố"},"message":"e cũng chắc vậy, tải về máy tính,liệu có cài vào dt dc k","can_remove":false,"created_time":"2013-12-06T18:03:46+0000","like_count":1,"user_likes":false},"772717486078264":{"id":"772717486078264","from":{"id":"100002472470715","name":"Phan Duy Hùng"},"message":"http://www.facebook.com/groups/SachPDF","can_remove":false,"created_time":"2013-12-06T18:04:24+0000","like_count":1,"user_likes":false},"772718632744816":{"id":"772718632744816","from":{"id":"1821970083","name":"Nguyễn Mạnh Cường"},"message":"Nga Ngố uhm, không em ạ, cái này gọi là chương trình đi cho nó khác với cách gọi app, hay phần mềm ở điện thoại. Những cái chương trình trên thì chỉ cài trên máy tính thôi :( có cái file Đọc ý thì em có thể tải về máy tính, rồi thì em có thể cho nó sang điện thoại, và mở bằng phần mềm đọc được trên android, hì.","message_tags":[{"id":"100004293973335","name":"Nga Ngố","type":"user","offset":0,"length":7}],"can_remove":false,"created_time":"2013-12-06T18:07:22+0000","like_count":1,"user_likes":false},"772720472744632":{"id":"772720472744632","from":{"id":"100004293973335","name":"Nga Ngố"},"message":"cám ơn huynh tận tình giải ngố nhé.","can_remove":false,"created_time":"2013-12-06T18:11:39+0000","like_count":2,"user_likes":false},"772817449401601":{"id":"772817449401601","from":{"id":"100004398330290","name":"Lam Linh"},"message":"Cảm ơn bạn :\")","can_remove":false,"created_time":"2013-12-06T22:26:16+0000","like_count":2,"user_likes":false}},"paging":{"cursors":{"after":"NzcyNzEyNzU2MDc4NzM3","before":"NzcyNzEyNzU2MDc4NzM3"},"next":"https://graph.facebook.com/229244010425617_772690749414271/comments?limit=1&summary=1&after=NzcyNzEyNzU2MDc4NzM3"},"summary":{"order":"chronological","total_count":13}}}