{"id":"229244010425617_772872962729383","type":"photo","object_id":"609899379072841","picture":"https://fbcdn-photos-c-a.akamaihd.net/hphotos-ak-ash3/t1.0-0/1452249_609899379072841_1951116605_s.jpg","link":"https://www.facebook.com/photo.php?fbid=609899379072841&set=pcb.772872962729383&type=1&relevant_count=2","from":{"id":"100001583529210","name":"Nguyễn Kim Hà"},"message":"Chợ đồ cũ ở tokyo nào^^","created_time":"2013-12-07T01:13:17+0000","updated_time":"2013-12-10T13:43:49+0000","likes":{"data":{"1146680551":{"id":"1146680551","name":"優しい なぁ"},"100003046698393":{"id":"100003046698393","name":"Hoàng Chính"},"100004831440734":{"id":"100004831440734","name":"Tien Jp"},"100006851160906":{"id":"100006851160906","name":"Chu Thị Hồng"},"100000264801587":{"id":"100000264801587","name":"Nguyễn Đình Toàn"},"100006519495775":{"id":"100006519495775","name":"Nhỏ Milk Nguyễn"},"1060893770":{"id":"1060893770","name":"Hyhy Zui Zẻ"},"100002871405403":{"id":"100002871405403","name":"Thach Sanh"},"100004392823234":{"id":"100004392823234","name":"Anh Dũng Nguyễn"},"1026780646":{"id":"1026780646","name":"Việt Hưng Khổng"},"1821970083":{"id":"1821970083","name":"Nguyễn Mạnh Cường"},"100007304521202":{"id":"100007304521202","name":"Nguyenha Alo"},"100001526631937":{"id":"100001526631937","name":"Tường Oanh Mineko"},"100004237443280":{"id":"100004237443280","name":"Nguyen Van Dat"},"100000110601676":{"id":"100000110601676","name":"장미"},"100000211237467":{"id":"100000211237467","name":"Nguyễn Thị Hà"},"100002419566054":{"id":"100002419566054","name":"Khánh Toàn"},"100003514875535":{"id":"100003514875535","name":"Phong Nguyen"},"100003188332746":{"id":"100003188332746","name":"Con Nợn Thùy Linh"},"100004398330290":{"id":"100004398330290","name":"Lam Linh"},"100006745658212":{"id":"100006745658212","name":"Anh Tuan"},"1250876107":{"id":"1250876107","name":"Kim Hoan"},"100001458099624":{"id":"100001458099624","name":"Kham Pha"},"100006379235603":{"id":"100006379235603","name":"Khoai Tây Rubi"},"100005050537429":{"id":"100005050537429","name":"Tokyo Mankichi"},"100001754136107":{"id":"100001754136107","name":"Nguyễn Tuấn Vũ"},"100006663067003":{"id":"100006663067003","name":"Bình Heo"},"100000162434175":{"id":"100000162434175","name":"Hechi Osa"},"100004294620502":{"id":"100004294620502","name":"Miu Nguyen"},"100003946064890":{"id":"100003946064890","name":"ゲェン フン"},"100006464323686":{"id":"100006464323686","name":"Dương Phạm"},"100004457885806":{"id":"100004457885806","name":"Hoa Huong Duong"},"100001416272263":{"id":"100001416272263","name":"Mai PB"},"100003863197455":{"id":"100003863197455","name":"Sống Âm Thầm"},"100005024348771":{"id":"100005024348771","name":"Long Hoàng"},"100003189708974":{"id":"100003189708974","name":"Thúy Thẫn Thờ"},"100002425221505":{"id":"100002425221505","name":"Đặng Xuân Anh"}},"paging":{"cursors":{"after":"MTE0NjY4MDU1MQ==","before":"MTE0NjY4MDU1MQ=="},"next":"https://graph.facebook.com/229244010425617_772872962729383/likes?limit=1&summary=1&after=MTE0NjY4MDU1MQ%3D%3D"},"summary":{"total_count":37}},"comments":{"data":{"772877999395546":{"id":"772877999395546","from":{"id":"100002428163247","name":"Trần Đức Hùng"},"message":"Chỗ nào đấy bạn Hà ơi, cho địa chỉ cụ thể đi","can_remove":false,"created_time":"2013-12-07T01:29:25+0000","like_count":0,"user_likes":false},"772880426061970":{"id":"772880426061970","from":{"id":"100005216196472","name":"Anh Nhớ"},"message":"O dau vay ban","can_remove":false,"created_time":"2013-12-07T01:36:50+0000","like_count":0,"user_likes":false},"772882266061786":{"id":"772882266061786","from":{"id":"100001583529210","name":"Nguyễn Kim Hà"},"message":"Lịch của chợ nhé","can_remove":false,"created_time":"2013-12-07T01:42:50+0000","like_count":4,"user_likes":false},"772882986061714":{"id":"772882986061714","from":{"id":"100002428163247","name":"Trần Đức Hùng"},"message":"sái cả cổ:((","can_remove":false,"created_time":"2013-12-07T01:45:00+0000","like_count":0,"user_likes":false},"772883106061702":{"id":"772883106061702","from":{"id":"100001583529210","name":"Nguyễn Kim Hà"},"message":"Nó gần ga 千駄ヶ谷. Gần 国立競技場. Ở trong 明治公園","can_remove":false,"created_time":"2013-12-07T01:45:29+0000","like_count":3,"user_likes":false},"772889386061074":{"id":"772889386061074","from":{"id":"100001754136107","name":"Nguyễn Tuấn Vũ"},"message":"e thích nhất khoản mặc cả :)))","can_remove":false,"created_time":"2013-12-07T02:07:03+0000","like_count":1,"user_likes":false},"772906459392700":{"id":"772906459392700","from":{"id":"100001583529210","name":"Nguyễn Kim Hà"},"message":"Ai muốn đi thì đi ngay hôm nay đi nhé không là đến tận 28/12 đấy. Nhiều cái hay lắm^^:D","can_remove":false,"created_time":"2013-12-07T02:48:48+0000","like_count":0,"user_likes":false},"772907986059214":{"id":"772907986059214","from":{"id":"100005216196472","name":"Anh Nhớ"},"message":"Chị ơi chị có thể viết địa chỉ rõ k ạ e moi qua nên k bit","can_remove":false,"created_time":"2013-12-07T02:53:14+0000","like_count":0,"user_likes":false},"772914066058606":{"id":"772914066058606","from":{"id":"100001583529210","name":"Nguyễn Kim Hà"},"message":"Bạn có dùng iphone không?","can_remove":false,"created_time":"2013-12-07T03:12:32+0000","like_count":0,"user_likes":false},"772937126056300":{"id":"772937126056300","from":{"id":"100003984386741","name":"Phùng Mạnh Quân"},"message":"Chu romaji hoac hiragana ay:)","can_remove":false,"created_time":"2013-12-07T04:34:51+0000","like_count":0,"user_likes":false},"772937832722896":{"id":"772937832722896","from":{"id":"100001583529210","name":"Nguyễn Kim Hà"},"message":"107-0062　東京都渋谷区千駄ヶ谷一丁目( とうきょうと、しぶやく、せんだがや、１ちょうめ","can_remove":false,"created_time":"2013-12-07T04:37:54+0000","like_count":0,"user_likes":false},"772938059389540":{"id":"772938059389540","from":{"id":"100003984386741","name":"Phùng Mạnh Quân"},"message":"Tuyet voi ong mat troi:))","can_remove":false,"created_time":"2013-12-07T04:39:01+0000","like_count":0,"user_likes":false},"772938439389502":{"id":"772938439389502","from":{"id":"100001583529210","name":"Nguyễn Kim Hà"},"message":"gần ga せんだがや、 gần sân こくりつきょうぎじょう、ở trong めいじこうえん","can_remove":false,"created_time":"2013-12-07T04:40:46+0000","like_count":0,"user_likes":false},"772941846055828":{"id":"772941846055828","from":{"id":"100005620957314","name":"Nguyễn Trọng Thái"},"message":"Osaka có ko chị","can_remove":false,"created_time":"2013-12-07T04:54:22+0000","like_count":0,"user_likes":false},"772942196055793":{"id":"772942196055793","from":{"id":"100002428163247","name":"Trần Đức Hùng"},"message":"Người ta viết cho rồi k biết google dịch đi các bạn, cơ hội học chữ Hán đấy. Không biết các bạn cầm điện thoại kết nối mạng để làm gì","can_remove":false,"created_time":"2013-12-07T04:56:16+0000","like_count":1,"user_likes":false},"772943416055671":{"id":"772943416055671","from":{"id":"100006860141377","name":"Gấu Của Hôm Nay"},"message":"Ấn vào cái địa chỉ là ra luôn mà","can_remove":false,"created_time":"2013-12-07T05:00:39+0000","like_count":1,"user_likes":false},"772947792721900":{"id":"772947792721900","from":{"id":"100001583529210","name":"Nguyễn Kim Hà"},"message":"khoảng 9h sáng đến 4-5h chiều","can_remove":false,"created_time":"2013-12-07T05:17:59+0000","like_count":0,"user_likes":false},"772947986055214":{"id":"772947986055214","from":{"id":"100001583529210","name":"Nguyễn Kim Hà"},"message":"vậy bạn Ranh Giới để đến 28/12 đi cũng được mà","message_tags":[{"id":"100006737646819","name":"Ranh Giới","type":"user","offset":8,"length":9}],"can_remove":false,"created_time":"2013-12-07T05:18:45+0000","like_count":0,"user_likes":false},"772960362720643":{"id":"772960362720643","from":{"id":"550401589","name":"Cuong Cao"},"message":"Bạn có thể nói 1 chút về nó dc k, cụ thể là mình muốn mua Lens máy ảnh & đồng hồ ^^","can_remove":false,"created_time":"2013-12-07T06:03:24+0000","like_count":0,"user_likes":false},"773006212716058":{"id":"773006212716058","from":{"id":"1813611352","name":"To Đùng"},"message":"Xem có gì hay ko anh mua với :))","can_remove":false,"created_time":"2013-12-07T08:04:45+0000","like_count":0,"user_likes":false},"773006376049375":{"id":"773006376049375","from":{"id":"100005216196472","name":"Anh Nhớ"},"message":"Co nhung mat hang gi vau moi nguoi oi","can_remove":false,"created_time":"2013-12-07T08:05:30+0000","like_count":0,"user_likes":false},"773016549381691":{"id":"773016549381691","from":{"id":"100004392823234","name":"Anh Dũng Nguyễn"},"message":"Hang j cung co a ban","can_remove":false,"created_time":"2013-12-07T08:47:51+0000","like_count":0,"user_likes":false},"773016876048325":{"id":"773016876048325","from":{"id":"100001583529210","name":"Nguyễn Kim Hà"},"message":"To Đùng thích mua gì hả anh?","message_tags":[{"id":"1813611352","name":"To Đùng","type":"user","offset":0,"length":7}],"can_remove":false,"created_time":"2013-12-07T08:49:17+0000","like_count":0,"user_likes":false},"773023159381030":{"id":"773023159381030","from":{"id":"1813611352","name":"To Đùng"},"message":"Vợt cầu lông với linh kiện máy tính :)) cả lens canon nữa :D \nVợt cầu lông yonex voltrix z-force 3u5\nChip core i7, main socket 1366.\nLens Canon 28-70L 2.8 :D","can_remove":false,"created_time":"2013-12-07T09:09:49+0000","like_count":2,"user_likes":false},"773074256042587":{"id":"773074256042587","from":{"id":"100001583529210","name":"Nguyễn Kim Hà"},"message":"toàn cái em chẳng biết gì","can_remove":false,"created_time":"2013-12-07T11:39:36+0000","like_count":0,"user_likes":false},"773083932708286":{"id":"773083932708286","from":{"id":"100003250657085","name":"Nhất Kiếm Vô Tình"},"message":"cái  này nó chỉ có ở tokyo thôi ak bạn","can_remove":false,"created_time":"2013-12-07T12:04:10+0000","like_count":0,"user_likes":false},"773115699371776":{"id":"773115699371776","from":{"id":"100001416272263","name":"Mai PB"},"message":"Có ở rất nhiều nơi. http://fashioncity.jp/market/","can_remove":false,"created_time":"2013-12-07T13:11:39+0000","like_count":0,"user_likes":false},"773116642705015":{"id":"773116642705015","from":{"id":"100001416272263","name":"Mai PB"},"message":"Nhưng toàn đồ nhỏ nhặt, đi cho vui thôi.","can_remove":false,"created_time":"2013-12-07T13:13:22+0000","like_count":0,"user_likes":false},"773117836038229":{"id":"773117836038229","from":{"id":"100003250657085","name":"Nhất Kiếm Vô Tình"},"message":"anh Mai PB thế em tưởng có nhiều quần áo nắm mà nếu muốn mua quần áo hay những đồ dùng hàng ngày mà đồ cũ nhưng chất lượng cũng tạm thì mua được ở đâu anh nhỉ","can_remove":false,"created_time":"2013-12-07T13:15:28+0000","like_count":0,"user_likes":false},"773177922698887":{"id":"773177922698887","from":{"id":"569263718","name":"Phuong Thao Tran"},"message":"chợ đồ cũ ở trường đua ngựa  kawasaki có vẻ quy mô hơn, có nhiều đồ độc hơn á","can_remove":false,"created_time":"2013-12-07T15:16:11+0000","like_count":0,"user_likes":false},"774966722520007":{"id":"774966722520007","from":{"id":"100005216196472","name":"Anh Nhớ"},"message":"Phuong thao cho đó ở đâu vậy ạ","can_remove":false,"created_time":"2013-12-10T10:17:28+0000","like_count":0,"user_likes":false},"774975272519152":{"id":"774975272519152","from":{"id":"569263718","name":"Phuong Thao Tran"},"message":"川崎競馬場（かわさきけいばじょう）: hồi đó mình đi 1 lần, cũng lâu rồi, hình như bắt chuyến xe bus số 12 từ ga Shinagawa thì phải đó Anh Nhớ","can_remove":false,"created_time":"2013-12-10T10:44:14+0000","like_count":0,"user_likes":false},"774975995852413":{"id":"774975995852413","from":{"id":"569263718","name":"Phuong Thao Tran"},"message":"ở đó tần suất họp chợ cũng cao, hình như 1 tháng 2 lần đếu đặn thì phải","can_remove":false,"created_time":"2013-12-10T10:45:39+0000","like_count":0,"user_likes":false},"775028832513796":{"id":"775028832513796","from":{"id":"100005216196472","name":"Anh Nhớ"},"message":"chị k còn nho cụ thể ạ","can_remove":false,"created_time":"2013-12-10T13:00:21+0000","like_count":0,"user_likes":false},"775052125844800":{"id":"775052125844800","from":{"id":"569263718","name":"Phuong Thao Tran"},"message":"12月15日(日)：川崎競馬場 芝生広場　9:00～15:00　約100店","can_remove":false,"created_time":"2013-12-10T13:43:49+0000","like_count":0,"user_likes":false}},"paging":{"cursors":{"after":"NzcyODc3OTk5Mzk1NTQ2","before":"NzcyODc3OTk5Mzk1NTQ2"},"next":"https://graph.facebook.com/229244010425617_772872962729383/comments?limit=1&summary=1&after=NzcyODc3OTk5Mzk1NTQ2"},"summary":{"order":"chronological","total_count":37}}}