{"id":"229244010425617_773194156030597","type":"status","from":{"id":"100002508122689","name":"Vũ Mạnh Tuấn"},"message":"[Useful Phrases.02] Part 1 \nChào mọi người. Hôm nay chúng ta tiếp tục tìm hiểu một vài điều thú vị trong tiếng Nhật nhé. \n\nSắp hết năm 2013 rồi. Vì vậy mẫu câu hôm nay chúng ta cùng tìm hiểu sẽ là :\n\nよいお年をお迎え下さい。( Yoi otoshi wo omukae kudasai.)\n{Happy New Year!}\n\n•よい = tốt\n•お年 = năm (thêm を vào trước 年 để tăng tính trang trọng )\n•を = giới từ\n•お迎え下さい。 = omukae kudasai  = đón, nghênh đón , tiếp ...\n{ dạng kính ngữ của động từ  迎える (= mukaeru) }\n\nChú ý: Đôi khi cụm お迎え下さい。được bỏ qua và chỉ nói :「よいお年を 」\n\nÝ nghĩa của 「よいお年をお迎え下さい。」= Yoi otoshi wo omukae kudasai.\ncó thể hiểu là : Chúc Mừng Năm Mới, nhưng không giống như trong tiếng anh, người ta không nói câu này đầu năm mới, mà chỉ nói vào tháng 12 khi tạm biệt ai đó.\nEx. それではよいお年を(お迎え下さい。）\nEx. それじゃあよいお年を! ( ko trang trọng )\n\nTức là, khi bạn nghĩ sẽ không gặp lại ai đó từ khoảng giữa tháng 12 đến cuối năm, và đến sang năm mới gặp, thì hãy dùng câu này.\nNếu cảm thấy hơi sớm , nhưng có lẽ sẽ không gặp nhau trong tháng 12, thì có thể nói: \n「少し（hoặc ちょっと）早いですが、よいお年をお迎え下さい。」\n= Sukoshi (Chotto) hayai desu ga yoi otoshi wo omukae kudasai.\n\nCòn khi đã sang năm mới, hãy nói : (新年)明けましておめでとうございます。\n= (Shinnen) akemashite omedetou gozaimasu . Chúc mừng năm mới !\n\nTrước khi nói「よいお年を（お迎え下さい。）」người ta cũng thường nói:\n「今年もいろいろお世話になりました。」Kotoshi mo iroiro osewani narimashita.\n\n「また来年も宜しくお願い致します。」Mata rainen mo yoroshiku onegai itashimasu.\n\n{ Dịch nôm na là: năm rồi cảm ơn mày đã giúp tao rất nhiều, sang năm rất mong lại nhận được sự giúp đỡ của mày nữa } \n----\nCòn tiến hóa. Hẹn gặp lại ở Part 2 có thể vào ngày mai :D\n\nVũ Mạnh Tuấn\n-------------\nCộng đồng Việt Nhật\nLink group: https://www.facebook.com/groups/CongdongVietNhat/","created_time":"2013-12-07T15:52:25+0000","updated_time":"2013-12-08T11:52:10+0000","likes":{"data":{"100004140850631":{"id":"100004140850631","name":"Huong Trang"},"100001723862714":{"id":"100001723862714","name":"Bo Bien Vang"},"100004094346107":{"id":"100004094346107","name":"Thuy Nga Nguyen"},"100000710451335":{"id":"100000710451335","name":"Thiều Hoa"},"100001789054977":{"id":"100001789054977","name":"Ginga Idō Shi"},"100004693504211":{"id":"100004693504211","name":"Nam Le"},"100006021877041":{"id":"100006021877041","name":"Bùi Trung Hiếu"},"1717530880":{"id":"1717530880","name":"Triệu Việt Cường"},"100000271705877":{"id":"100000271705877","name":"Nguyễn Văn Minh"},"100000359762118":{"id":"100000359762118","name":"Mi Tra"},"100003848021692":{"id":"100003848021692","name":"Ánh Moon"},"100005145330760":{"id":"100005145330760","name":"Sơn Vũ"},"100003239455545":{"id":"100003239455545","name":"Yuki Daruma"},"100000280776405":{"id":"100000280776405","name":"Viet Nguyen Thanh"},"100000262070143":{"id":"100000262070143","name":"Sachiko Kam"},"100000309978634":{"id":"100000309978634","name":"Tan Vu"},"100001416272263":{"id":"100001416272263","name":"Mai PB"},"100000603915176":{"id":"100000603915176","name":"悪いな ぁ"},"1504224275":{"id":"1504224275","name":"Nhí Còi"},"100001458099624":{"id":"100001458099624","name":"Kham Pha"},"100002131699773":{"id":"100002131699773","name":"Minh Chau"},"100000199780783":{"id":"100000199780783","name":"Nguyen Thu Hoai"},"100003155380603":{"id":"100003155380603","name":"Khuong Pham"},"100002894443664":{"id":"100002894443664","name":"Nguyễn Văn Thao"},"1286770563":{"id":"1286770563","name":"Vu Hong Trang"},"100001324611896":{"id":"100001324611896","name":"Meo Luoi"},"100000468762077":{"id":"100000468762077","name":"Youki Youki"},"1146680551":{"id":"1146680551","name":"優しい なぁ"},"738235689":{"id":"738235689","name":"Dang Thi Phuong"},"100001503863491":{"id":"100001503863491","name":"Thiên Long"},"1318895018":{"id":"1318895018","name":"Van T Tran"},"1250876107":{"id":"1250876107","name":"Kim Hoan"},"100003797588841":{"id":"100003797588841","name":"Khoai Tây"},"100004779104079":{"id":"100004779104079","name":"Hạt Tiêu"},"100001292564389":{"id":"100001292564389","name":"Tran Viet"},"100004004098559":{"id":"100004004098559","name":"Hà Giang"},"100006839314008":{"id":"100006839314008","name":"Cry Dâu Tây"},"100004556712097":{"id":"100004556712097","name":"Chishi Jung"},"100004867931751":{"id":"100004867931751","name":"Ngô Sương"},"100006266882815":{"id":"100006266882815","name":"Phạm Lan Mai"},"100003796430338":{"id":"100003796430338","name":"Cường Ađam Z"},"100003055356509":{"id":"100003055356509","name":"Thuan Nguyen"},"100001526631937":{"id":"100001526631937","name":"Tường Oanh Mineko"}},"paging":{"cursors":{"after":"MTAwMDA0MTQwODUwNjMx","before":"MTAwMDA0MTQwODUwNjMx"},"next":"https://graph.facebook.com/229244010425617_773194156030597/likes?limit=1&summary=1&after=MTAwMDA0MTQwODUwNjMx"},"summary":{"total_count":44}},"comments":{"data":{"773195349363811":{"id":"773195349363811","from":{"id":"100001526631937","name":"Tường Oanh Mineko"},"message":"\"tiến hóa\" :v, từ mới lạ với e trong trường hợp này","can_remove":false,"created_time":"2013-12-07T15:56:13+0000","like_count":0,"user_likes":false},"773195826030430":{"id":"773195826030430","from":{"id":"100002508122689","name":"Vũ Mạnh Tuấn"},"message":"tiến hóa là 1 từ khá hay e cũng đi học lỏm đc từ 1 ng khác :))\ný nói là cái chủ đề này vẫn còn tiếp tục :)))","can_remove":false,"created_time":"2013-12-07T15:57:38+0000","like_count":1,"user_likes":false},"773196336030379":{"id":"773196336030379","from":{"id":"100001526631937","name":"Tường Oanh Mineko"},"message":"uhm mình hiểu nghĩa rồi cơ mà ai là e trong cuộc hội thoại giữa 2 ta? :D","can_remove":false,"created_time":"2013-12-07T15:59:10+0000","like_count":1,"user_likes":false},"773196536030359":{"id":"773196536030359","from":{"id":"100002508122689","name":"Vũ Mạnh Tuấn"},"message":"e nghĩ là e :))) watashi desu :))","can_remove":false,"created_time":"2013-12-07T15:59:41+0000","like_count":1,"user_likes":false},"773464162670263":{"id":"773464162670263","from":{"id":"100000603915176","name":"悪いな ぁ"},"message":"Haizz, lâu lắm mới nghe từ \"hai ta\", êm ái làm sao ☺️","can_remove":false,"created_time":"2013-12-08T03:43:26+0000","like_count":1,"user_likes":false},"773478036002209":{"id":"773478036002209","from":{"id":"100002508122689","name":"Vũ Mạnh Tuấn"},"message":":)))","can_remove":false,"created_time":"2013-12-08T04:22:29+0000","like_count":0,"user_likes":false},"773500442666635":{"id":"773500442666635","from":{"id":"100001458099624","name":"Kham Pha"},"message":"Vũ Mạnh Tuấn thêm phần chữ kí chưa?","message_tags":[{"id":"100002508122689","name":"Vũ Mạnh Tuấn","type":"user","offset":0,"length":12}],"can_remove":false,"created_time":"2013-12-08T05:34:53+0000","like_count":0,"user_likes":false},"773644205985592":{"id":"773644205985592","from":{"id":"100002508122689","name":"Vũ Mạnh Tuấn"},"message":"em quên mất rồi, để từ bài sau em sẽ làm thế","can_remove":false,"created_time":"2013-12-08T11:41:32+0000","like_count":0,"user_likes":false},"773646305985382":{"id":"773646305985382","from":{"id":"100001458099624","name":"Kham Pha"},"message":"Sao ko sửa luôn bài này đi.","can_remove":false,"created_time":"2013-12-08T11:46:30+0000","like_count":0,"user_likes":false},"773646479318698":{"id":"773646479318698","from":{"id":"100002508122689","name":"Vũ Mạnh Tuấn"},"message":"了解。","can_remove":false,"created_time":"2013-12-08T11:46:53+0000","like_count":0,"user_likes":false},"773649289318417":{"id":"773649289318417","from":{"id":"100005024348771","name":"Long Hoàng"},"message":"Cám ơn mọi người vì bài đăng ạ","can_remove":false,"created_time":"2013-12-08T11:52:10+0000","like_count":1,"user_likes":false}},"paging":{"cursors":{"after":"NzczMTk1MzQ5MzYzODEx","before":"NzczMTk1MzQ5MzYzODEx"},"next":"https://graph.facebook.com/229244010425617_773194156030597/comments?limit=1&summary=1&after=NzczMTk1MzQ5MzYzODEx"},"summary":{"order":"chronological","total_count":11}}}