{"id":"229244010425617_773609755989037","type":"photo","object_id":"684359298255495","picture":"https://fbcdn-photos-d-a.akamaihd.net/hphotos-ak-prn1/t1.0-0/1497618_684359298255495_986939760_s.jpg","link":"https://www.facebook.com/photo.php?fbid=684359298255495&set=gm.773609755989037&type=1&relevant_count=1","from":{"id":"100000442929887","name":"Mike Yi"},"message":"Nghèo không có tội.Tại sao đối xử với người nghèo như vậy ??? Khi nào giàu nghèo được bình đẳng như Nhật hiện nay ????","created_time":"2013-12-08T10:22:59+0000","updated_time":"2013-12-10T05:17:47+0000","likes":{"data":{"100001848885057":{"id":"100001848885057","name":"Tiểu Mỡ Nhi"},"100002871405403":{"id":"100002871405403","name":"Thach Sanh"},"100000027754899":{"id":"100000027754899","name":"Hoang Van Ba"},"100004832913340":{"id":"100004832913340","name":"Ái Nguyễn"},"100000710451335":{"id":"100000710451335","name":"Thiều Hoa"},"100005801442456":{"id":"100005801442456","name":"An Nguyen"},"100003662604894":{"id":"100003662604894","name":"Mai Hana"},"100004460525997":{"id":"100004460525997","name":"Hà Trang Nguyễn"},"1146680551":{"id":"1146680551","name":"優しい なぁ"},"100001789054977":{"id":"100001789054977","name":"Ginga Idō Shi"},"100006638585575":{"id":"100006638585575","name":"Nguyễn Quỳnh"},"100000603915176":{"id":"100000603915176","name":"悪いな ぁ"},"100001488357679":{"id":"100001488357679","name":"Nga Pham"},"100003143578550":{"id":"100003143578550","name":"Vn Tim"},"100000018443787":{"id":"100000018443787","name":"Doan Hoai Nam"},"100005677922501":{"id":"100005677922501","name":"Duy Tran"},"100006021877041":{"id":"100006021877041","name":"Bùi Trung Hiếu"},"100003874832426":{"id":"100003874832426","name":"Tú Còi"},"100006526721577":{"id":"100006526721577","name":"Vô Danh"},"1416265619":{"id":"1416265619","name":"Starwar Bbj"},"100001469238963":{"id":"100001469238963","name":"Ferocita Kana Washi"},"100003875131996":{"id":"100003875131996","name":"Ngoc Anh"},"100001260645727":{"id":"100001260645727","name":"Ngo Duy Son"},"100001416272263":{"id":"100001416272263","name":"Mai PB"},"100000193331357":{"id":"100000193331357","name":"Linh Thông Minh"},"100002855090345":{"id":"100002855090345","name":"Xuan Huy"},"1713049662":{"id":"1713049662","name":"Nguyen Khac Diep"},"100001318098340":{"id":"100001318098340","name":"Trang Anh"},"100002419566054":{"id":"100002419566054","name":"Khánh Toàn"},"100005211189763":{"id":"100005211189763","name":"Oliveu Cchann"},"100006867721682":{"id":"100006867721682","name":"Yuri Sabishii"},"100001526631937":{"id":"100001526631937","name":"Tường Oanh Mineko"},"100003876912038":{"id":"100003876912038","name":"Ngọc Hà"},"100002975299796":{"id":"100002975299796","name":"Trinh Tuan Anh"}},"paging":{"cursors":{"after":"MTAwMDAxODQ4ODg1MDU3","before":"MTAwMDAxODQ4ODg1MDU3"},"next":"https://graph.facebook.com/229244010425617_773609755989037/likes?limit=1&summary=1&after=MTAwMDAxODQ4ODg1MDU3"},"summary":{"total_count":35}},"comments":{"data":{"773610315988981":{"id":"773610315988981","from":{"id":"100002472470715","name":"Phan Duy Hùng"},"message":"Khi mà tất cả mọi người cùng vươn lên","can_remove":false,"created_time":"2013-12-08T10:24:58+0000","like_count":0,"user_likes":false},"773611052655574":{"id":"773611052655574","from":{"id":"100006468709540","name":"Trần Minh"},"message":"Khi tất cả đều giàu","can_remove":false,"created_time":"2013-12-08T10:27:07+0000","like_count":0,"user_likes":false},"773611209322225":{"id":"773611209322225","from":{"id":"100002472470715","name":"Phan Duy Hùng"},"message":"cái hình đó lấy ở đâu đó bạn","can_remove":false,"created_time":"2013-12-08T10:27:38+0000","like_count":0,"user_likes":false},"773611239322222":{"id":"773611239322222","from":{"id":"100006860141377","name":"Gấu Của Hôm Nay"},"message":"Mấy thằng súc vật","can_remove":false,"created_time":"2013-12-08T10:27:45+0000","like_count":1,"user_likes":false},"773611782655501":{"id":"773611782655501","from":{"id":"100000442929887","name":"Mike Yi"},"message":"http://www.baomoi.com/Nguoi-ban-hang-rong-ngat-Dan-bao-danh-Chu-tich-phuong-bao-khong/141/12612932.epi","can_remove":false,"created_time":"2013-12-08T10:29:22+0000","like_count":0,"user_likes":false},"773614012655278":{"id":"773614012655278","from":{"id":"1717530880","name":"Triệu Việt Cường"},"message":"Thôi thì chỉ biết đầu tư vào giáo dục chứ biết làm sao. Chứ lớp trẻ mà cứ học thói xấu của lớp già, rồi đẻ thêm tật xấu mới thì kiểu j cũng chịu. Anh, chị, em, cô, dì, chú, bác, bạn... nào mà có con, trẻ nhỏ thì nhớ trách nhiệm vĩ đại của mình nhé. Trẻ em hôm nay, thế giới ngày mai.","can_remove":false,"created_time":"2013-12-08T10:36:14+0000","like_count":5,"user_likes":false},"773614229321923":{"id":"773614229321923","from":{"id":"100002857611713","name":"Đình Sỹ Nguyễn"},"message":"Ở Việt Nam quyền con người không được tôn trọng, con người đối xử với nhau như thú vật","can_remove":false,"created_time":"2013-12-08T10:37:01+0000","like_count":1,"user_likes":false},"773615722655107":{"id":"773615722655107","from":{"id":"100003342101945","name":"Huy Thân"},"message":"Vãi cả đang giằng co thì ông Tình nằm xuống ngủ 😠😠 sao nthe mà họ cũng dám thốt ra nhỉ","can_remove":false,"created_time":"2013-12-08T10:41:33+0000","like_count":2,"user_likes":false},"773617689321577":{"id":"773617689321577","from":{"id":"100001661122094","name":"Kira Yagami"},"message":"Nói thật là chẳng có nơi nào là ko có chuyện phân biệt giàu nghèo cả","can_remove":false,"created_time":"2013-12-08T10:47:12+0000","like_count":1,"user_likes":false},"773620349321311":{"id":"773620349321311","from":{"id":"100006867721682","name":"Yuri Sabishii"},"message":"Buc xux","can_remove":false,"created_time":"2013-12-08T10:52:51+0000","like_count":0,"user_likes":false},"773622699321076":{"id":"773622699321076","from":{"id":"100000442929887","name":"Mike Yi"},"message":"Giải thích đơn giản : Tại Nhật đây cho dù bạn là người giàu hay nghèo đều được bình đẳng như nhau.Ví dụ đơn giản : Bạn bị tai nạn ngoài đường hay tại nhà chỉ cần gọi cấp cứu là sẽ có xe cứu thương đến ngay không cần biết bạn giàu hay nghèo cấp cứu cứu sống người trước rồi tính sau.Đó gọi là công bằng và bình đẳng như nhau.","can_remove":false,"created_time":"2013-12-08T11:00:04+0000","like_count":2,"user_likes":false},"773623612654318":{"id":"773623612654318","from":{"id":"100002472470715","name":"Phan Duy Hùng"},"message":"Mình chưa đi Nhật, nên các bạn kể về bên đó càng nhiều thì mình càng muốn biết kể cả xấu và tốt","can_remove":false,"created_time":"2013-12-08T11:02:51+0000","like_count":0,"user_likes":false},"773625539320792":{"id":"773625539320792","from":{"id":"100000442929887","name":"Mike Yi"},"message":"Con người tốt xấu không phải do con người tạo ra mà do xã hội tạo ra.1 xã hội công bằng văn mình thì không thể dùng tay chân để hành xử luật pháp.","can_remove":false,"created_time":"2013-12-08T11:08:08+0000","like_count":0,"user_likes":false},"773626712654008":{"id":"773626712654008","from":{"id":"1026780646","name":"Việt Hưng Khổng"},"message":"Góp ý Mike nên xoá hoặc sửa cái comment  bảo người khác thiểu năng đi- tranh luận thì tôn trongk ý kiến của nhau rồi hãy nói đến văn minh!","can_remove":false,"created_time":"2013-12-08T11:11:03+0000","like_count":1,"user_likes":false},"773630609320285":{"id":"773630609320285","from":{"id":"1717530880","name":"Triệu Việt Cường"},"message":"To bạn Mike Yi : \"Con người do xã hội tạo ra\"-trích câu của bạn. Thực sự tớ thấy không hoàn toàn như vậy đâu. Là người, điều tuyệt vời nhất con người có thể làm cho thế giới là thay đổi bản thân mình. Xã hội, tập thể là những khái niệm mơ hồ, để nói về 1 nhóm người. Con người mới là cốt lõi. Mình luôn đề cao giáo dục, vì đó là nền tảng cho cá nhân tự phát triển tư duy, đạo đức thành một người tốt, từ đó làm xã hội tốt lên. Còn với chúng ta, những người trưởng thành, hãy có thái độ tốt với bản thân và những người xung quanh, đừng đổ hết lỗi cho xã hội, vì xã hội như đã nói, thực ra chả là khái niệm cụ thể j đâu. \nP/s: hic hic, nói năng lung tung quá :3","can_remove":false,"created_time":"2013-12-08T11:17:04+0000","like_count":1,"user_likes":false},"773632332653446":{"id":"773632332653446","from":{"id":"100000442929887","name":"Mike Yi"},"message":"Cô bác a chị ý mình ở đây nói đến xã hội VN mình hiện nay nó không có công bằng chứ ko nói đến người tốt người xấu.Người VN rất giỏi nếu như được nuôi dưỡng và đào tạo.","can_remove":false,"created_time":"2013-12-08T11:20:04+0000","like_count":0,"user_likes":false},"773633199320026":{"id":"773633199320026","from":{"id":"100005934548279","name":"Cậu Bé Buồn"},"message":"giàu nghèo khó bình đẳng được trong xã hội.....nhưng họ giàu về tiến thì họ nghèo về thứ khác....mình nghèo sống đúng vs mình thì con quý hơn giàu sang....ông trời ko cho ai hết cái gì và cũng ko lấy đi của ai hết cái gì....sống đơn giản cho đời thanh thản.....","can_remove":false,"created_time":"2013-12-08T11:21:54+0000","like_count":0,"user_likes":false},"773634719319874":{"id":"773634719319874","from":{"id":"100002472470715","name":"Phan Duy Hùng"},"message":"Nó khó đấy, comment bao nhiêu, muốn enter nhưng phải xóa đi, vì vấn đề này thạt khó giải quyết ở góc độ cá nhân","can_remove":false,"created_time":"2013-12-08T11:24:58+0000","like_count":0,"user_likes":false},"773635172653162":{"id":"773635172653162","from":{"id":"100002472470715","name":"Phan Duy Hùng"},"message":"Thay đổi giáo dục là gốc rễ cho mọi thay đổi xã hội, nhưng những người làm nhiệm vụ thay đổi giáo dục phải là những người có tư tưởng cách tân chứ không phải là các chức sắc sắp lên Thiên Đình.","can_remove":false,"created_time":"2013-12-08T11:26:11+0000","like_count":1,"user_likes":false},"773635752653104":{"id":"773635752653104","from":{"id":"100002472470715","name":"Phan Duy Hùng"},"message":"Thay đổi vấn đề hiện tại đòi hỏi toàn xã hội phải nhìn thẳng vào vấn đề, nhà nước cũng như truền thông báo chí phải hợp lực giáo dục lại nhân dân, định hướng phải đúng đắn","can_remove":false,"created_time":"2013-12-08T11:27:44+0000","like_count":0,"user_likes":false},"773635942653085":{"id":"773635942653085","from":{"id":"100002472470715","name":"Phan Duy Hùng"},"message":"Như vậy phân làm 2 vấn đề thay đổi tương lai và thay đổi hiện tại.","can_remove":false,"created_time":"2013-12-08T11:28:27+0000","like_count":0,"user_likes":false},"773636609319685":{"id":"773636609319685","from":{"id":"100002472470715","name":"Phan Duy Hùng"},"message":"Người dân phải có ý chí ham học hỏi, ham vươn lên 1 tầm hiểu biết và cách ứng xử cũng như tầm của cải xã hội cao hơn, nói nôm na là tự học để thay đổi","can_remove":false,"created_time":"2013-12-08T11:30:13+0000","like_count":0,"user_likes":false},"773637335986279":{"id":"773637335986279","from":{"id":"100000442929887","name":"Mike Yi"},"message":"Ở 1 xã hội văn minh người thi hành luật pháp không bao giờ được dùng tay chân tại nơi công cộng.Vì người thi hành luật pháp đó nhận tiền lương do chính những người dân đóng góp.Không được xúc phạm đến người chủ của mình.","can_remove":false,"created_time":"2013-12-08T11:32:16+0000","like_count":2,"user_likes":false},"773640765985936":{"id":"773640765985936","from":{"id":"100002472470715","name":"Phan Duy Hùng"},"message":"Mỗi chúng ta, ở trong nước hay ngoài nước, khi VN tụt hậu so với nước ngoài, ai là người không cảm thất xót xa đau lòng, cách phản ứng có thể khác nhau, người chê bai, người khuyến khích phát triển, người bảo thủ, người mặc kệ, vân vân nhưng chung quy lại chúng ta đều mong ước đất nước chúng ta trở nên cường thịnh hơn, sáng tạo hơn, tốt đẹp hơn, để thừa hoàn cảnh, đổ thừa quá khứ, chê trách giáo dục, chê trách chế độ không phải là cách hay để thay đổi tình cảnh hiện tại. Cách hay theo cá nhân mình là mỗi người tự thay đổi bản thân và tác động đến người thân của mình thay đổi bằng vốn hiểu biết, bằng tấm gương của chính mình vì vậy chúng ta phải cố vươn lên để học tập lao đọng và cống hiến. Có phải nói thì dễ hơn làm, chắc thế rồi, chúng ta cùng cố gắng nào.","can_remove":false,"created_time":"2013-12-08T11:37:08+0000","like_count":1,"user_likes":false},"773659515984061":{"id":"773659515984061","from":{"id":"100000055943236","name":"Nguyễn Chinh"},"message":":) Thay vì nghĩ tiêu cực sao ko thử làm việc có ích đi ^_^\nDạo này bỗng nhiên mình sống rất tích cực :) Thấy vui vui kì lạ ^^","can_remove":false,"created_time":"2013-12-08T12:07:50+0000","like_count":2,"user_likes":false},"773672332649446":{"id":"773672332649446","from":{"id":"1816269439","name":"Dao Ngoc"},"message":"Rất đồng ý với Triệu Việt Cường và Phan Duy Hùng. \nĐơn giản bằng việc mỗi ngày mỗi cá nhân làm một việc tốt và rủ mọi người làm việc tốt. Năng lượng tích cực sẽ ngập tràn. Mọi người nhớ lại vị Giám đốc nhặt rác quanh hồ Gươm chứ. Ông cứ làm và dần dần mọi người làm theo. Một việc nhỏ nhưng ý nghĩa không hề nhỏ. Chỉ khác là báo chí không khoái việc tốt cho lắm nên nó không rùm beng thôi bằng việc xấu thôi. ;).","can_remove":false,"created_time":"2013-12-08T12:25:43+0000","like_count":10,"user_likes":false},"773696805980332":{"id":"773696805980332","from":{"id":"100001416272263","name":"Mai PB"},"message":"Các comment ở trên đều nói về các vấn đề khác nhau cả.\nBức hình trên không nói về giàu nghèo mà nó thể hiện hành động bạo lực với dân, không cứ là dân nghèo. Dân bây giờ không bị coi ra cái gì cả, nhưng thực ra những người thực thi \"công vụ\" kia cũng thừa hiểu rằng dân cũng chẳng coi họ ra gì cả. Giàu nghèo lại là vấn đề khác, nó còn liên quan đến trình độ nhận thức và văn hóa.\nCòn ý của ad Dao Ngoc và mấy bạn ở trên lại nói về vấn đề đạo đức con người. Nói về trách nhiêm của giáo dục VN, giáo dục của xã hội, và nỗ lực tự thân mỗi người nhằm giúp xã hội tốt hơn thì là không sai, nhưng nó cũng không ăn nhập gì vào cái post ở trên cả. :-)\nÝ của mình: bạo trị và bất công sẽ dẫn đến bạo lực xã hội, khi đó chắc ai mở công ty kinh doanh ống cống hoặc đào hầm sẽ lời to.","message_tags":[{"id":"1816269439","name":"Dao Ngoc","type":"user","offset":394,"length":8}],"can_remove":false,"created_time":"2013-12-08T13:13:40+0000","like_count":7,"user_likes":false},"773697505980262":{"id":"773697505980262","from":{"id":"699924256","name":"Lucas Nguyen"},"message":"bọn nhật nó cũng chó lắm. bình đẳng cái j. người nhật xông vào nhà ng việt nam đánh người mà csat nó chi giảng hòa bắt xin lỗi là xong. vậy là xh công bằng sao.","can_remove":false,"created_time":"2013-12-08T13:14:40+0000","like_count":0,"user_likes":false},"773701405979872":{"id":"773701405979872","from":{"id":"100001416272263","name":"Mai PB"},"message":"Lucas Nguyen không nói những lời lẽ phân biệt chủng tộc như vậy. Bạn bất mãn về sự đối xử của cảnh sát, có thể kháng nghị lại lên cảnh sát Tokyo, kiện ra tòa án đòi bồi thường dân sự... Ngay cả người Nhật cũng có nhiều lúc không đồng ý với cách sử sự của cảnh sát, ví dụ như về thái độ điều tra không đến nơi đến chốn một vụ án chồng cũ đeo bám và định sát hạt vợ cũ, vừa lên tin TV hôm qua.","message_tags":[{"id":"699924256","name":"Lucas Nguyen","type":"user","offset":0,"length":12}],"can_remove":false,"created_time":"2013-12-08T13:19:56+0000","like_count":1,"user_likes":false},"773703465979666":{"id":"773703465979666","from":{"id":"699924256","name":"Lucas Nguyen"},"message":"với vị thế là du học sinh thì có mà kiện củ khoai. ở vn thì đã kiện rồi. haiz. nói chung bọn nhật nó coi người vn ko ra j đâu.","can_remove":false,"created_time":"2013-12-08T13:23:10+0000","like_count":0,"user_likes":false},"773706885979324":{"id":"773706885979324","from":{"id":"100000218007271","name":"Luu Vinh Loc"},"message":"Bạn Mike Yi nói \"Ở 1 xã hội văn minh người thi hành luật pháp không bao giờ được dùng tay chân tại nơi công cộng.\"\n\nThế nếu tội phạm phản kháng bằng dao bằng súng, ko dùng vũ lực thì làm sao ngăn đc tội phạm. Ở đây mình ko bàn đến vụ việc báo đưa tin.\nMình chưa hiểu xã hội văn minh mà bạn nói là cái xã hội như thế nào?\n\nBạn nói \"Con người tốt xấu không phải do con người tạo ra mà do xã hội tạo ra.\"\n\nThứ nhất, con người là cái có trước, xã hội là cái có sau, sao lại nói xã hội tạo ra cái tốt xấu của con người.\nGiả xử ko có xã hội mà chỉ có mình bạn ttrong rừng, Bạn tốt thì khi sống 1 mình trong rừng bạn vẫn cho các con vật đói khát thức ăn. Bạn xấu thì bạn sẽ hành hạ các loài khác.\n\nThứ 2, xã hội có tác động dến tốt xấu ko? Chú ý là \"tác động\" chứ ko phải \"tạo ra\".\n\nVí dụ, trong hoàn cảnh nghèo khổ túng quẫn, người tốt thì vươn lên = chính sức mình, nhưng người xấu thì ăn trộm ăn cắp của ng khác để lấy cái ăn thay vì bỏ sức mình ra.\nTrong hoàn cảnh no đủ, người xấu tham lam vẫn ko bỏ thói quen ăn cắp và thay vào đó là tham ô, tham nhũng.\n=>Trong hoàn cảnh và trong xã hội nào đi nữa, thì ko hoàn toàn ảnh hưởng đến tốt và xấu.\n\nỦng hộ ý kiến bạn Dao Ngoc.\n\nThay vì Việc cứ đi đổ hết trách nhiệm cho cái xã hội thế này cái xã hội thế kia nên thành ra tôi là kẻ xấu, sao mình ko nhận trách nhiệm về bản thân mình.","can_remove":false,"created_time":"2013-12-08T13:29:23+0000","like_count":0,"user_likes":false},"773706945979318":{"id":"773706945979318","from":{"id":"100001416272263","name":"Mai PB"},"message":"SAo lại nói ngược thế?","can_remove":false,"created_time":"2013-12-08T13:29:25+0000","like_count":0,"user_likes":false},"773707029312643":{"id":"773707029312643","from":{"id":"1026780646","name":"Việt Hưng Khổng"},"message":"Lucas Nguyen có vẻ bất mãn thế nhỉ? Câu chuyện này hôm trước là cầm dao xông vào nhà nhưng chưa kịp làm gì, hôm nay thành xông vào nhà đánh người, rồi ngày mai thành gì ? Tiền hậu bất nhất ! Nhìn từ góc độ khách quan thì cái gì cũng có lý do- ko dưng người ta hành động như du côn vậy ?! Còn nếu đúng là không có lý do gì thì chỉ có thể là tâm thần- mà tâm thần thì cũng không phải chịu trách nhiệm PL. Vậy nên bạn nêu cái lý do đằng sau ra được không, hay chỉ trích cái hiện tượng rồi vơ cả cộng đồng vào để hạ thấp, xỉ nhục ?","can_remove":false,"created_time":"2013-12-08T13:29:38+0000","like_count":2,"user_likes":false},"773715802645099":{"id":"773715802645099","from":{"id":"100006568425779","name":"Giau Le"},"message":"ở đâu cũng có sự phân biệt giàu nghèo thôi","can_remove":false,"created_time":"2013-12-08T13:46:33+0000","like_count":0,"user_likes":false},"773730052643674":{"id":"773730052643674","from":{"id":"100002969177514","name":"Tien Thien"},"message":"nói thật vs các anh chị em đã mất niềm tin vào công quyền của việt nam rồi.em chỉ con tin vào phật thôi \"ác giả ác báo\"","can_remove":false,"created_time":"2013-12-08T14:18:54+0000","like_count":2,"user_likes":false},"773763615973651":{"id":"773763615973651","from":{"id":"100000045271667","name":"Nam Thai Nguyen"},"message":"Quyền lực dẫn đến đồi bại\nQuyền lực tuyệt đối dẫn đến đồi bại tuyệt đối","can_remove":false,"created_time":"2013-12-08T15:22:28+0000","like_count":1,"user_likes":false},"773783282638351":{"id":"773783282638351","from":{"id":"100000603915176","name":"悪いな ぁ"},"message":"Đọc comment hoa cả mắt, các bạn cãi nhau nhiều cuối cùng kg đi đến đc tiếng nói chung. Nên nhìn từ bản chất vấn đề thì hơn :)","can_remove":false,"created_time":"2013-12-08T15:59:23+0000","like_count":1,"user_likes":false},"773786049304741":{"id":"773786049304741","from":{"id":"1146680551","name":"優しい なぁ"},"message":"http://doisong.vnexpress.net/photo/nhip-song/ve-dep-cuoc-song-binh-di-viet-nam-20-nam-truoc-2920508.html","can_remove":false,"created_time":"2013-12-08T16:06:29+0000","like_count":0,"user_likes":false},"773786882637991":{"id":"773786882637991","from":{"id":"100000603915176","name":"悪いな ぁ"},"message":"Vứt link mà kg có bình gì sao :)","can_remove":false,"created_time":"2013-12-08T16:08:37+0000","like_count":0,"user_likes":false},"773788212637858":{"id":"773788212637858","from":{"id":"100000045271667","name":"Nam Thai Nguyen"},"message":"Anh Nguyễn yên bình quá nên xúc động ko nên lời :)","can_remove":false,"created_time":"2013-12-08T16:11:07+0000","like_count":2,"user_likes":false},"773790489304297":{"id":"773790489304297","from":{"id":"1146680551","name":"優しい なぁ"},"message":"ai cũng có ý kiến riêng,chẳng ai chịu nhìn vào sự thật.Buồn.đưa link cho mọi người xem :v","can_remove":false,"created_time":"2013-12-08T16:15:37+0000","like_count":1,"user_likes":false},"773791025970910":{"id":"773791025970910","from":{"id":"100000045271667","name":"Nam Thai Nguyen"},"message":"Sự thật là chả có gì thật sự thật cả . Luẩn quẩn như câu nói này :(","can_remove":false,"created_time":"2013-12-08T16:17:15+0000","like_count":1,"user_likes":false},"773791365970876":{"id":"773791365970876","from":{"id":"1146680551","name":"優しい なぁ"},"message":"người hiểu vấn đề là đây :v","can_remove":false,"created_time":"2013-12-08T16:18:09+0000","like_count":0,"user_likes":false},"773791412637538":{"id":"773791412637538","from":{"id":"100000603915176","name":"悪いな ぁ"},"message":"Haha, thật thật ảo ảo. Nhìn thế mà kg phải thế ;)","can_remove":false,"created_time":"2013-12-08T16:18:18+0000","like_count":0,"user_likes":false},"773792499304096":{"id":"773792499304096","from":{"id":"100001526631937","name":"Tường Oanh Mineko"},"message":":v :v...sao bình yên quá vại a Anh Nguyễn","message_tags":[{"id":"1146680551","name":"Anh Nguyễn","type":"user","offset":31,"length":10}],"can_remove":false,"created_time":"2013-12-08T16:20:36+0000","like_count":0,"user_likes":false},"773794089303937":{"id":"773794089303937","from":{"id":"1146680551","name":"優しい なぁ"},"message":"dzạ,em đâu biết gì đâu","can_remove":false,"created_time":"2013-12-08T16:24:19+0000","like_count":0,"user_likes":false},"773972259286120":{"id":"773972259286120","from":{"id":"100000442929887","name":"Mike Yi"},"message":"ở xã hội văn minh mình làm sai thì mình nhận sai rồi sửa sai chứ ko phải như VN.Bị bóp cổ trong lúc bị còng hai tay đến xỉu mà bọn quan ngu lại nói lăn ra ngủ thì thử hỏi Công bằng văn minh chỗ nào?","can_remove":false,"created_time":"2013-12-08T23:50:53+0000","like_count":0,"user_likes":false},"774002375949775":{"id":"774002375949775","from":{"id":"100000603915176","name":"悪いな ぁ"},"message":"Chỉ là bàn 1 chút thôi nhé. Mình thấy nếu bạn quá khích như vậy thì khó tranh luận lắm. Tư tưởng của bạn hơi vơ đũa cả nắm, điều đó làm cho bản thân những câu nói của bạn thiếu công bằng trong một câu chuyện nói về sự công bằng! Nên xem lại tư duy của bản thân đi. Vài lần đọc comment của bạn thì thấy bạn là người khá nóng, khá trực tính nhưng có vẻ những điều đó đang dẫn bạn đến 2 từ: mù quáng :)","can_remove":false,"created_time":"2013-12-09T01:18:25+0000","like_count":4,"user_likes":false},"774193425930670":{"id":"774193425930670","from":{"id":"100000045271667","name":"Nam Thai Nguyen"},"message":"Không đơn giản chỉ là  quan niêm giàu nghèo mà còn là sự phân biệt đối cử đối với 1 thành phần Kinh tế quan trong- kinh tế vỉa hè. Không ai khác họ những dũng sĩ đưa nền kinh tế đi lên và đầy lạm phát xuống :(\nhttp://www.facebook.com/nguyenvanphu/posts/10202081451471474","can_remove":false,"created_time":"2013-12-09T10:37:15+0000","like_count":2,"user_likes":false},"774468412569838":{"id":"774468412569838","from":{"id":"100000218007271","name":"Luu Vinh Loc"},"message":"To Nam Thai Nguyen: mình thích ý kiến của ban, nhưng ngay trong link mà bạn vừa post thì có ý kiến cho rằng cần công bằng với người thuê mặt bằng để bán hàng. Họ phải trả tiền mặt bằng -> giá bán cao ko cạnh tranh đc vs người bán vỉa hè (ko phải mất phí mặt bằng ) trong khi 2 ông cùng bán 1 loại hàng như nhau. Vậy thì còn ai thuê mặt bằng làm chi, ai ai đều đổ ra vỉa hè bán hàng... Nói đi nói lại theo mình thì không nên quá đồng tình ủng hộ tuyệt đối 1 bên  Kinh tế quan trong- kinh tế vỉa hè.","can_remove":false,"created_time":"2013-12-09T13:53:08+0000","like_count":1,"user_likes":false},"774873595862653":{"id":"774873595862653","from":{"id":"100000045271667","name":"Nam Thai Nguyen"},"message":"Luu Vinh Loc: bạn đoc tham khảo bài báo này http://cafebiz.vn/thi-truong/ganh-hang-rong-co-ich-nuoc-loi-nha-2013120917232937312ca101.chn","message_tags":[{"id":"100000218007271","name":"Luu Vinh Loc","type":"user","offset":0,"length":12}],"can_remove":false,"created_time":"2013-12-10T05:17:47+0000","like_count":1,"user_likes":false}},"paging":{"cursors":{"after":"NzczNjEwMzE1OTg4OTgx","before":"NzczNjEwMzE1OTg4OTgx"},"next":"https://graph.facebook.com/229244010425617_773609755989037/comments?limit=1&summary=1&after=NzczNjEwMzE1OTg4OTgx"},"summary":{"order":"chronological","total_count":51}}}