{"id":"229244010425617_773732112643468","type":"link","link":"http://www.thesaigontimes.vn/Home/doanhnghiep/chuyenlaman/106471/","from":{"id":"100001416272263","name":"Mai PB"},"message":"FamilyMart đang rất nỗ lực để giành thị phần cửa hàng tiện lợi ở VN. Không biết cửa hàng ở Sài Gòn khác cửa hàng ở Nhật có nhiều không, nhưng các tiện ích cuộc sống có lẽ không có.\n\nhttp://www.thesaigontimes.vn/Home/doanhnghiep/chuyenlaman/106471/","created_time":"2013-12-08T14:24:17+0000","updated_time":"2013-12-09T06:03:52+0000","likes":{"data":{"100005211189763":{"id":"100005211189763","name":"Oliveu Cchann"},"1023965040":{"id":"1023965040","name":"Juli KimChi"},"100001526631937":{"id":"100001526631937","name":"Tường Oanh Mineko"},"100006712270834":{"id":"100006712270834","name":"Rin Gen"},"100002589963683":{"id":"100002589963683","name":"Hà Văn Tuấn"},"1629517470":{"id":"1629517470","name":"Nguyen Thi Thanh Van"},"100005145330760":{"id":"100005145330760","name":"Sơn Vũ"},"100003762427351":{"id":"100003762427351","name":"Hiroshi Yasu Oki"},"100004041794244":{"id":"100004041794244","name":"Watanuki Kimihiro"}},"paging":{"cursors":{"after":"MTAwMDA1MjExMTg5NzYz","before":"MTAwMDA1MjExMTg5NzYz"},"next":"https://graph.facebook.com/229244010425617_773732112643468/likes?limit=1&summary=1&after=MTAwMDA1MjExMTg5NzYz"},"summary":{"total_count":9}},"comments":{"data":{"773733915976621":{"id":"773733915976621","from":{"id":"1283298041","name":"Búa Đức Thanh"},"message":"Ủa em nhớ là họ thất bại, nên bán lại rồi mà ta, :-?","can_remove":false,"created_time":"2013-12-08T14:29:13+0000","like_count":0,"user_likes":false},"773749435975069":{"id":"773749435975069","from":{"id":"1235866955","name":"Loan Pham"},"message":"Không phải thất bại mà tại vì họ không mua lại cổ phần của đối tác, nên đối tác bán cho công ty Thailand. Và Familymart tự mình setup lại, không liên kết với đối tác nào cả.","can_remove":false,"created_time":"2013-12-08T14:54:57+0000","like_count":2,"user_likes":false},"773751389308207":{"id":"773751389308207","from":{"id":"1235866955","name":"Loan Pham"},"message":"Hiện tại chưa có nhiều tiện ích như o Nhật, nhưng trong tương lai sẽ có, và việc này cũng sẽ có lộ trình nhất định và mất nhiều thời gian!","can_remove":false,"created_time":"2013-12-08T14:59:20+0000","like_count":1,"user_likes":false},"773757769307569":{"id":"773757769307569","from":{"id":"100001416272263","name":"Mai PB"},"message":"Để hôm này vào SG thử đến thăm một cửa hàng xem hàng hóa thế nào. Giả sử như nó tiện lợi như ở Nhật, mọi người có thể gửi đồ ra Hà Nội, rút tiền ATM, mua vé xem hòa nhạc Trịnh Công Sơn, mua vé tàu ra Huế , trả tiền cước Vinaphone 24/24 tiếng. ^^","can_remove":false,"created_time":"2013-12-08T15:11:30+0000","like_count":6,"user_likes":false},"773758215974191":{"id":"773758215974191","from":{"id":"100002472470715","name":"Phan Duy Hùng"},"message":"mình có vào 1 cửa hàng nhân sự kiện nó mới mở, ôi nó chỉ lớn hơn con mắt của con ruồi 1 xíu à","can_remove":false,"created_time":"2013-12-08T15:12:10+0000","like_count":0,"user_likes":false},"773767595973253":{"id":"773767595973253","from":{"id":"1235866955","name":"Loan Pham"},"message":"Điều quan trọng bây giờ là làm thế nào thay đổi thói quen của người tiêu dùng VN (vì họ vẫn quen sử dụng siêu thị). Còn về tiện ích thì ở cửa hàng tiện lợi khác cũng có trang bị máy nạp tiền cho điện thoại di động, thanh toan bill điện thoại, tiền điện, tiền nươc rồi đó. \nBạn Hùng: cửa hàng tiện lợi sao lớn như siêu thị được. Mô hình kinh doanh khác nhau mà.","can_remove":false,"created_time":"2013-12-08T15:28:30+0000","like_count":1,"user_likes":false},"773800139303332":{"id":"773800139303332","from":{"id":"1023965040","name":"Juli KimChi"},"message":"1/1 khai trương siêu thị eaon của tập đoàn bán lẻ nhật tại Vn đó anh PB Mai.","message_tags":[{"id":"100001416272263","name":"PB Mai","type":"user","offset":69,"length":6}],"can_remove":false,"created_time":"2013-12-08T16:38:15+0000","like_count":1,"user_likes":false},"774078902608789":{"id":"774078902608789","from":{"id":"1235866955","name":"Loan Pham"},"message":"Soft opening của Aeon VN vào ngày 1/1, và Grand opening vào ngày 11/1 đó! :)","can_remove":false,"created_time":"2013-12-09T04:46:52+0000","like_count":1,"user_likes":false},"774085329274813":{"id":"774085329274813","from":{"id":"100001416272263","name":"Mai PB"},"message":"Loan Pham rành về kinh doanh bán lẻ ở VN nhỉ.","message_tags":[{"id":"1235866955","name":"Loan Pham","type":"user","offset":0,"length":9}],"can_remove":false,"created_time":"2013-12-09T05:04:04+0000","like_count":0,"user_likes":false},"774097455940267":{"id":"774097455940267","from":{"id":"1235866955","name":"Loan Pham"},"message":"Mai PB: không có rành lắm đâu anh ơi. Chẳng qua là ngẫu nhiên biết được mấy thông tin đó thôi..hehe...","can_remove":false,"created_time":"2013-12-09T05:35:38+0000","like_count":0,"user_likes":false},"774107575939255":{"id":"774107575939255","from":{"id":"657157297","name":"Phan Dien"},"message":"Em thay o Việt Nam! Chi tap trung vao buon ban san pham hang hoa,con dich vu thi chi co buon ban the cao,thanh toan tien dien thoai chu yeu cac dich vu paylink la 9,nhieu luc vao cua hang Farmily o Việt Nam! Cu nho nhung ky uc cua Nhat,them qua....","can_remove":false,"created_time":"2013-12-09T06:03:52+0000","like_count":0,"user_likes":false}},"paging":{"cursors":{"after":"NzczNzMzOTE1OTc2NjIx","before":"NzczNzMzOTE1OTc2NjIx"},"next":"https://graph.facebook.com/229244010425617_773732112643468/comments?limit=1&summary=1&after=NzczNzMzOTE1OTc2NjIx"},"summary":{"order":"chronological","total_count":11}}}