{"id":"229244010425617_773752965974716","type":"status","from":{"id":"100003815686312","name":"Ngoc Hung"},"message":"mọi người cho mình hỏi cái ! mình đang định đi du học Nhật\n, nhưng mình chỉ học trung cấp ko học cấp 3 thi sau 2 năm học tiếng cosxin vào học một trường trung cấp hay cao đẳng nào bên đấy đc ko ?","created_time":"2013-12-08T15:02:18+0000","updated_time":"2013-12-08T22:02:32+0000","likes":{"data":{"1821970083":{"id":"1821970083","name":"Nguyễn Mạnh Cường"},"100004476278006":{"id":"100004476278006","name":"Mến Mập"},"100002683014675":{"id":"100002683014675","name":"Heolùn Mậpú"}},"paging":{"cursors":{"after":"MTgyMTk3MDA4Mw==","before":"MTgyMTk3MDA4Mw=="},"next":"https://graph.facebook.com/229244010425617_773752965974716/likes?limit=1&summary=1&after=MTgyMTk3MDA4Mw%3D%3D"},"summary":{"total_count":5}},"comments":{"data":{"773764049306941":{"id":"773764049306941","from":{"id":"100000359762118","name":"Mi Tra"},"message":"Không học cấp 3 thì sao học trung cấp được bạn? mình ko hiểu lắm.\nTheo quy định đối với học sinh du học tự túc, điều kiện tối thiểu là phải học đủ 12 năm phổ thông.","can_remove":false,"created_time":"2013-12-08T15:23:18+0000","like_count":1,"user_likes":false},"773767119306634":{"id":"773767119306634","from":{"id":"100003815686312","name":"Ngoc Hung"},"message":"minh học cấp 3 gộp với ct trung cấp luôn bạn ak !","can_remove":false,"created_time":"2013-12-08T15:27:31+0000","like_count":0,"user_likes":false},"773769652639714":{"id":"773769652639714","from":{"id":"100000359762118","name":"Mi Tra"},"message":"Vậy thì khi làm hồ sơ nộp lên cục Xuất Nhập Cảnh phải giải thích rõ vấn đề này để tránh gây sự hiểu lầm.\nCòn sau khi đã qua Nhật học hết 2 năm trường tiếng thì bạn hoàn toàn đủ tư cách xin học tiếp lên trường chuyên môn hoặc cao đẳng tại Nhật.","can_remove":false,"created_time":"2013-12-08T15:33:50+0000","like_count":1,"user_likes":false},"773776549305691":{"id":"773776549305691","from":{"id":"1146680551","name":"優しい なぁ"},"message":"Trường bạn tên gì vậy? Mình mới nghe hình thức này ở vn","can_remove":false,"created_time":"2013-12-08T15:45:25+0000","like_count":0,"user_likes":false},"773784359304910":{"id":"773784359304910","from":{"id":"100003815686312","name":"Ngoc Hung"},"message":"cái này có lâu rồi mà ! học xong c2 rồi học trung cấp luôn ý","can_remove":false,"created_time":"2013-12-08T16:02:20+0000","like_count":0,"user_likes":false},"773784832638196":{"id":"773784832638196","from":{"id":"100003815686312","name":"Ngoc Hung"},"message":"Mi Tra  bạn có chắc là đi đc ko mình đang rất phân vân","message_tags":[{"id":"100000359762118","name":"Mi Tra","type":"user","offset":0,"length":6}],"can_remove":false,"created_time":"2013-12-08T16:03:34+0000","like_count":0,"user_likes":false},"773784859304860":{"id":"773784859304860","from":{"id":"1146680551","name":"優しい なぁ"},"message":"vậy à? vậy nó phải cấp bằng cấp 3 cho bạn lun chứ.Vì thấy trong luật ghi là TC phải có bằng cấp 3 mới học được mà","can_remove":false,"created_time":"2013-12-08T16:03:37+0000","like_count":1,"user_likes":false},"773786675971345":{"id":"773786675971345","from":{"id":"100000359762118","name":"Mi Tra"},"message":"Trường hợp này thì mình cũng chưa gặp bao giờ nên không biết. Học bổ túc rồi học lên trung cấp thì cũng có bạn từng đi được","can_remove":false,"created_time":"2013-12-08T16:08:00+0000","like_count":1,"user_likes":false},"773787219304624":{"id":"773787219304624","from":{"id":"100003815686312","name":"Ngoc Hung"},"message":"vậy ak ! thế mình cảm ơn bạn nhiều","can_remove":false,"created_time":"2013-12-08T16:09:21+0000","like_count":0,"user_likes":false},"773787439304602":{"id":"773787439304602","from":{"id":"100003815686312","name":"Ngoc Hung"},"message":"bạn ở vùng nào của Nhật vậy Mi Tra?","message_tags":[{"id":"100000359762118","name":"Mi Tra","type":"user","offset":28,"length":6}],"can_remove":false,"created_time":"2013-12-08T16:09:50+0000","like_count":0,"user_likes":false},"773787605971252":{"id":"773787605971252","from":{"id":"100000359762118","name":"Mi Tra"},"message":"Mình ở gần Tokyo","can_remove":false,"created_time":"2013-12-08T16:10:15+0000","like_count":0,"user_likes":false},"773788119304534":{"id":"773788119304534","from":{"id":"100003815686312","name":"Ngoc Hung"},"message":"vùng nào ! năm sau mình sang yokohama !","can_remove":false,"created_time":"2013-12-08T16:10:53+0000","like_count":0,"user_likes":false},"773788459304500":{"id":"773788459304500","from":{"id":"100000359762118","name":"Mi Tra"},"message":"Vậy thì gần đó","can_remove":false,"created_time":"2013-12-08T16:11:17+0000","like_count":1,"user_likes":false},"773788532637826":{"id":"773788532637826","from":{"id":"1146680551","name":"優しい なぁ"},"message":"^^ chẹp chẹp","can_remove":false,"created_time":"2013-12-08T16:11:33+0000","like_count":0,"user_likes":false},"773788612637818":{"id":"773788612637818","from":{"id":"100003815686312","name":"Ngoc Hung"},"message":"bạn cũng đi du học hả ?","can_remove":false,"created_time":"2013-12-08T16:11:42+0000","like_count":0,"user_likes":false},"773788809304465":{"id":"773788809304465","from":{"id":"100000359762118","name":"Mi Tra"},"message":"Cựu DHS thôi. Giờ đã đi làm","can_remove":false,"created_time":"2013-12-08T16:12:09+0000","like_count":0,"user_likes":false},"773789382637741":{"id":"773789382637741","from":{"id":"100003815686312","name":"Ngoc Hung"},"message":"trc kia bạn học trường gì ?","can_remove":false,"created_time":"2013-12-08T16:13:08+0000","like_count":0,"user_likes":false},"773790682637611":{"id":"773790682637611","from":{"id":"100000359762118","name":"Mi Tra"},"message":"Mình học ở Tokyo Nichiei Gakuin","can_remove":false,"created_time":"2013-12-08T16:16:23+0000","like_count":1,"user_likes":false},"773793199304026":{"id":"773793199304026","from":{"id":"1146680551","name":"優しい なぁ"},"message":"Sang năm mình cũng sang,có gì giúp đỡ mình với nhé Mi Tra","message_tags":[{"id":"100000359762118","name":"Mi Tra","type":"user","offset":51,"length":6}],"can_remove":false,"created_time":"2013-12-08T16:22:01+0000","like_count":4,"user_likes":false},"773794832637196":{"id":"773794832637196","from":{"id":"100000359762118","name":"Mi Tra"},"message":"Xinh gái như Anh Nguyen thì ai cũng sẵn sàng giúp à","can_remove":false,"created_time":"2013-12-08T16:26:16+0000","like_count":2,"user_likes":false},"773795269303819":{"id":"773795269303819","from":{"id":"1146680551","name":"優しい なぁ"},"message":"","can_remove":false,"created_time":"2013-12-08T16:27:12+0000","like_count":1,"user_likes":false},"773936785956334":{"id":"773936785956334","from":{"id":"1026780646","name":"Việt Hưng Khổng"},"message":"Chị Anh Nguyễn :v","can_remove":false,"created_time":"2013-12-08T22:02:32+0000","like_count":1,"user_likes":false}},"paging":{"cursors":{"after":"NzczNzY0MDQ5MzA2OTQx","before":"NzczNzY0MDQ5MzA2OTQx"},"next":"https://graph.facebook.com/229244010425617_773752965974716/comments?limit=1&summary=1&after=NzczNzY0MDQ5MzA2OTQx"},"summary":{"order":"chronological","total_count":22}}}