{"id":"229244010425617_773756375974375","type":"status","from":{"id":"100002508122689","name":"Vũ Mạnh Tuấn"},"message":"[Useful Phrases.02] Part 2\n\nHôm qua chúng ta đã tìm hiểu về câu nói : よいお年をお迎え下さい và あけましておめでとうございます - Happy New Year. Hôm nay chúng ta sẽ tìm hiểu nốt 1 vài vấn đề nữa. \n\nTrong lịch của Nhật ngày trước, tháng 12 được gọi là 師走 = shiwasu, mà trong tiếng Việt thì sẽ gọi là Tháng Chạp đó. \n\nVì vậy , vào khoảng thời gian này trong năm, người Nhật thường nói : \n「年末(師走）はばたばたして忙しいです。」\n= Nenmatsu (shiwasu） wa batabata shite isogashii desu.\n= Cuối năm thì thật là bận rộn!\n\n•年末 = nenmatsu = cuối năm \n { tương tự ta có 週末＝shuu matsu = cuối tuần, 月末＝getsu matsu = cuối tháng }\n•ばたばた = batabata = từ tượng thanh để diễn tả sự gấp gáp hoặc bận rộn của ai đó\n•忙しい = isogashii = bận \n\nCultural Note: \nTại sao vào thời điểm 年末 lại bận. Vì chúng ta phải làm rất nhiều việc :\n大掃除 = oosouji = tổng vệ sinh nhà cửa vào dịp mùa xuân. \nĐể chuẩn bị cho お正月 = Oshougatsu ( ngày tết truyền thống của người Nhật ) thì quả thật là cần đến 1 sự dọn dẹp \" lớn \" , vì thế mới ghép chữ đại 「大」 với chữ dọn dẹp 「掃除」.\n\nĐồng thời ng Nhật sẽ viết thiệp chúc tết 年賀状 = nengajou  , và gửi vào tháng 12.\n\nThời điểm cuối năm cũng là thời điểm tiệc tùng. Tiệc cuối năm được gọi là 忘年会 = bounenkai. \nNhìn vào 3 chữ kanji , có thể hiểu ý nghĩa của bữa tiệc này : Họ sẽ quên hết, bỏ hết những điều ko tốt, ko hay, ko may mắn trong suốt cả năm vừa rồi. \n\nNgày 31 tháng 12 được gọi là  大晦日 = oomisoka = đêm giao thừa, ngày 30 tết < đối với việt nam >\n\nĐể đón một năm mới nữa lại đến {年を越す = toshi wo kosu}, người Nhật sẽ ăn món 年越し蕎麦 = toshikoshi soba , tức món mỳ Soba để đón năm mới, và phải ăn trước mùng 1 tháng 1 của năm mới nhé. Họ mong muốn có được sự trường thọ cũng như sức  khỏe lâu dài như chính sợi mì dài vậy.\n\nVào đúng 0g đêm giao thừa, khắp các chùa trên đất nước Nhật Bản đánh lên 108 hồi chuông. 108 tiếng chuông để xóa đi 108 nỗi phiền muộn trong thế gian. Theo giáo lý nhà Phật, chúng sinh trong tam giới (gồm dục giới, sắc giới và vô sắc giới) đều có chung bát khổ (sinh khổ, lão khổ, bệnh khổ, tử khổ, ngũ ấm xí thạnh khổ, oán tắng hội, ái biệt ly khổ và cầu bất đắc khổ). Từ căn bản của 8 điều khổ sẽ dẫn đến 108 nỗi phiền não được chia nhỏ theo trạng thái tâm lý và tình cảm. Trong mỗi tiếng chuông đều mang theo tâm nguyện từ bi gửi gắm đến chúng sinh giải tỏa mọi muộn phiền đau khổ.\n\nRất nhiều người cũng sẽ đi 初詣 = hatsumoude , tức là tục đi đền/ chùa đầu năm để cầu mong sự bình an, thuận lợi trong suốt cả một năm. ( tục lệ này cũng khá giống với ở Việt Nam ) \n\nTục lệ năm mới có nhiều thứ quá nhỉ . Có lẽ là sẽ còn part 3 nữa :D :D :D\n\nXem lại part 1 : https://www.facebook.com/groups/CongdongVietNhat/permalink/773194156030597/\n\nChuyên mục Useful Phrases : \nhttps://www.facebook.com/notes/c%E1%BB%99ng-%C4%91%E1%BB%93ng-vi%E1%BB%87t-nh%E1%BA%ADt-vietnam-japan-community-/useful-phrases-in-japanese/773200969363249\n\n宜しくお願いします。\nVũ Mạnh Tuấn\n-------------\nCộng đồng Việt Nhật\nLink group: https://www.facebook.com/groups/CongdongVietNhat/","created_time":"2013-12-08T15:08:58+0000","updated_time":"2013-12-09T15:42:22+0000","likes":{"data":{"100000266887521":{"id":"100000266887521","name":"Hương Lê Thu"},"100006711245076":{"id":"100006711245076","name":"Thi Ly Le"},"100003925443381":{"id":"100003925443381","name":"Minh Thọ Ngô"},"100000284487802":{"id":"100000284487802","name":"Buu Lam Gia"},"569263718":{"id":"569263718","name":"Phuong Thao Tran"},"100003702043787":{"id":"100003702043787","name":"Hằng Hanu"},"100006712270834":{"id":"100006712270834","name":"Rin Gen"},"100000271705877":{"id":"100000271705877","name":"Nguyễn Văn Minh"},"100002942069030":{"id":"100002942069030","name":"Trường Trần"},"100000328742646":{"id":"100000328742646","name":"Trần Giáp"},"100000500260636":{"id":"100000500260636","name":"Lưu Nguyễn Thảo Tiên"},"100000776461179":{"id":"100000776461179","name":"Jotaro Nguyen"},"100001754136107":{"id":"100001754136107","name":"Nguyễn Tuấn Vũ"},"100006750000025":{"id":"100006750000025","name":"Mai Hoàng Đức"},"1725907325":{"id":"1725907325","name":"Nguyen Van Dung"},"100001324611896":{"id":"100001324611896","name":"Meo Luoi"},"100001594722256":{"id":"100001594722256","name":"Viết An Phạm"},"100003933466469":{"id":"100003933466469","name":"Phong Aki"},"100000075022900":{"id":"100000075022900","name":"Lan Chi Nguyễn"},"100004392823234":{"id":"100004392823234","name":"Anh Dũng Nguyễn"},"100003155380603":{"id":"100003155380603","name":"Khuong Pham"},"100005337850702":{"id":"100005337850702","name":"Xứ Tuyết"},"100000022163023":{"id":"100000022163023","name":"Kafe Ore"},"100002355624961":{"id":"100002355624961","name":"Thành Nguyễn"},"100005211189763":{"id":"100005211189763","name":"Oliveu Cchann"},"100000710451335":{"id":"100000710451335","name":"Thiều Hoa"},"100001292564389":{"id":"100001292564389","name":"Tran Viet"},"100005690740678":{"id":"100005690740678","name":"Bui Thanh Tung"},"100004479249799":{"id":"100004479249799","name":"Phương Thảo"},"100003055356509":{"id":"100003055356509","name":"Thuan Nguyen"},"100005801442456":{"id":"100005801442456","name":"An Nguyen"},"100001789054977":{"id":"100001789054977","name":"Ginga Idō Shi"},"100001257093338":{"id":"100001257093338","name":"Hanh Dang"},"1821970083":{"id":"1821970083","name":"Nguyễn Mạnh Cường"},"1146680551":{"id":"1146680551","name":"優しい なぁ"},"100000193331357":{"id":"100000193331357","name":"Linh Thông Minh"},"1616974500":{"id":"1616974500","name":"Duong Lien"},"100004779104079":{"id":"100004779104079","name":"Hạt Tiêu"},"100000359762118":{"id":"100000359762118","name":"Mi Tra"},"100001526631937":{"id":"100001526631937","name":"Tường Oanh Mineko"},"100000008603077":{"id":"100000008603077","name":"Kjo Mạnh Khôi"},"100001614233452":{"id":"100001614233452","name":"Hienvit Duckling"},"100006379235603":{"id":"100006379235603","name":"Khoai Tây Rubi"},"100002449514019":{"id":"100002449514019","name":"Lương Hoa"},"100001508739620":{"id":"100001508739620","name":"Lê Ngọc Hoàn"},"100001416272263":{"id":"100001416272263","name":"Mai PB"},"100005024348771":{"id":"100005024348771","name":"Long Hoàng"}},"paging":{"cursors":{"after":"MTAwMDAwMjY2ODg3NTIx","before":"MTAwMDAwMjY2ODg3NTIx"},"next":"https://graph.facebook.com/229244010425617_773756375974375/likes?limit=1&summary=1&after=MTAwMDAwMjY2ODg3NTIx"},"summary":{"total_count":49}},"comments":{"data":{"773758905974122":{"id":"773758905974122","from":{"id":"100001416272263","name":"Mai PB"},"message":"Hay lắm","can_remove":false,"created_time":"2013-12-08T15:13:11+0000","like_count":1,"user_likes":false},"773759502640729":{"id":"773759502640729","from":{"id":"100002508122689","name":"Vũ Mạnh Tuấn"},"message":"anh Mai đóng góp thêm đi ạ :D","can_remove":false,"created_time":"2013-12-08T15:14:08+0000","like_count":0,"user_likes":false},"773760225973990":{"id":"773760225973990","from":{"id":"100001416272263","name":"Mai PB"},"message":"Thôi mỗi người một đề tài. :-) Anh quên hết cả Tết rồi vì toàn đi chơi. :-D","can_remove":false,"created_time":"2013-12-08T15:15:07+0000","like_count":0,"user_likes":false},"773760862640593":{"id":"773760862640593","from":{"id":"100005024348771","name":"Long Hoàng"},"message":"arigatou gozaimasu!","can_remove":false,"created_time":"2013-12-08T15:16:30+0000","like_count":0,"user_likes":false},"773761262640553":{"id":"773761262640553","from":{"id":"100002508122689","name":"Vũ Mạnh Tuấn"},"message":"どいたしまして","can_remove":false,"created_time":"2013-12-08T15:17:28+0000","like_count":0,"user_likes":false},"773762302640449":{"id":"773762302640449","from":{"id":"100001508739620","name":"Lê Ngọc Hoàn"},"message":"(y)","can_remove":false,"created_time":"2013-12-08T15:19:16+0000","like_count":0,"user_likes":false},"773776052639074":{"id":"773776052639074","from":{"id":"100000359762118","name":"Mi Tra"},"message":"Khi bài viết có nhiều part như thế này Tuấn chịu khó cho cả link cả part trước vào để cho những ai đã bỏ lỡ (như mình) có thể dễ dàng xem lại.(^_-)-☆","can_remove":false,"created_time":"2013-12-08T15:44:18+0000","like_count":2,"user_likes":false},"773776295972383":{"id":"773776295972383","from":{"id":"100002508122689","name":"Vũ Mạnh Tuấn"},"message":"vâng ạ , để em edit :D","can_remove":false,"created_time":"2013-12-08T15:44:51+0000","like_count":0,"user_likes":false},"773776632639016":{"id":"773776632639016","from":{"id":"100002958044330","name":"Duke Togo"},"message":"Anh ơi chỗ: tại sao vào thời điểm 週末 lại bận . Thì chỗ 週末 phải là 年末 chứ a nhỉ","can_remove":false,"created_time":"2013-12-08T15:45:34+0000","like_count":0,"user_likes":false},"773778292638850":{"id":"773778292638850","from":{"id":"100002508122689","name":"Vũ Mạnh Tuấn"},"message":"Nguyen Hoa: xin lỗi mình viết nhầm. để mình edit :D","can_remove":false,"created_time":"2013-12-08T15:49:09+0000","like_count":0,"user_likes":false},"773786712638008":{"id":"773786712638008","from":{"id":"100001789054977","name":"Ginga Idō Shi"},"message":"wao ! ! ! tiep nua de :3","can_remove":false,"created_time":"2013-12-08T16:08:04+0000","like_count":0,"user_likes":false},"773787409304605":{"id":"773787409304605","from":{"id":"100000359762118","name":"Mi Tra"},"message":"Mình tin Tuấn sẽ ra part mới thật nhanh nếu bạn Ginga Idō Shi viết tiếng Việt có dấu.","message_tags":[{"id":"100001789054977","name":"Ginga Idō Shi","type":"user","offset":48,"length":13}],"can_remove":false,"created_time":"2013-12-08T16:09:47+0000","like_count":4,"user_likes":false},"773788902637789":{"id":"773788902637789","from":{"id":"100002508122689","name":"Vũ Mạnh Tuấn"},"message":"anh chị em nào biết cái này là cái gì thì giải thích cho cả nhà nào :","can_remove":false,"created_time":"2013-12-08T16:12:16+0000","like_count":1,"user_likes":false},"773792699304076":{"id":"773792699304076","from":{"id":"100001789054977","name":"Ginga Idō Shi"},"message":"sin loi dt minh minh ko biet sai chuc nang co dau tren dt","can_remove":false,"created_time":"2013-12-08T16:20:52+0000","like_count":0,"user_likes":false},"773796092637070":{"id":"773796092637070","from":{"id":"100005024348771","name":"Long Hoàng"},"message":"xin lỗi nhưng hình như bạn viết sai chính tả vì toàn chuyển x->s","can_remove":false,"created_time":"2013-12-08T16:29:08+0000","like_count":0,"user_likes":false},"773798785970134":{"id":"773798785970134","from":{"id":"100001789054977","name":"Ginga Idō Shi"},"message":"lai viet sai nua rui :(","can_remove":false,"created_time":"2013-12-08T16:35:26+0000","like_count":0,"user_likes":false},"773800682636611":{"id":"773800682636611","from":{"id":"100005024348771","name":"Long Hoàng"},"message":"không sao sửa là được mà, tại có vẻ mấy anh chị trên này rất kị người viết không đúng tiếng việt, mà viết vậy đúng là khó đọc thật","can_remove":false,"created_time":"2013-12-08T16:39:20+0000","like_count":1,"user_likes":false},"773801035969909":{"id":"773801035969909","from":{"id":"100002508122689","name":"Vũ Mạnh Tuấn"},"message":"Viết Tiếng Việt là 1 cách thể hiện sự tôn trọng tiếng mẹ đẻ của chúng ta .","can_remove":false,"created_time":"2013-12-08T16:40:11+0000","like_count":4,"user_likes":false},"773801645969848":{"id":"773801645969848","from":{"id":"100001789054977","name":"Ginga Idō Shi"},"message":"kị ư này mới lạ nha","can_remove":false,"created_time":"2013-12-08T16:41:22+0000","like_count":0,"user_likes":false},"773801979303148":{"id":"773801979303148","from":{"id":"100002369341715","name":"Xu Li"},"message":"cái đó đc treo trước cửa nhà để xua đuổi tà ma, đón những điều tốt đẹp cho năm mới.","can_remove":false,"created_time":"2013-12-08T16:41:59+0000","like_count":2,"user_likes":false},"773802279303118":{"id":"773802279303118","from":{"id":"100005024348771","name":"Long Hoàng"},"message":"đúng rồi, em cũng không ưa nổi cái mớ teencode mọi người hay viết, nhìn rất nhức mắt và rất không muốn đọc.","can_remove":false,"created_time":"2013-12-08T16:42:39+0000","like_count":2,"user_likes":false},"773803992636280":{"id":"773803992636280","from":{"id":"100001789054977","name":"Ginga Idō Shi"},"message":"Shimekazari ư","can_remove":false,"created_time":"2013-12-08T16:46:27+0000","like_count":0,"user_likes":false},"773804025969610":{"id":"773804025969610","from":{"id":"100002508122689","name":"Vũ Mạnh Tuấn"},"message":"ở bên Nhật vào đêm giao thừa có bắn pháo hoa giống như ở Việt Nam ko hả chị Mi Tra","message_tags":[{"id":"100000359762118","name":"Mi Tra","type":"user","offset":76,"length":6}],"can_remove":false,"created_time":"2013-12-08T16:46:36+0000","like_count":0,"user_likes":false},"773804392636240":{"id":"773804392636240","from":{"id":"100002508122689","name":"Vũ Mạnh Tuấn"},"message":"Ginga Idō Shi: cái hình bên trên đúng là Shimekazari , bạn có biết nó được làm từ những gì ko ?","message_tags":[{"id":"100001789054977","name":"Ginga Idō Shi","type":"user","offset":0,"length":13}],"can_remove":false,"created_time":"2013-12-08T16:47:27+0000","like_count":0,"user_likes":false},"773806112636068":{"id":"773806112636068","from":{"id":"100002369341715","name":"Xu Li"},"message":"uh. nó đc bệnh bằng dây thừng có trag trí thêm mấy thứ nữa.  :)","can_remove":false,"created_time":"2013-12-08T16:49:31+0000","like_count":0,"user_likes":false},"773806992635980":{"id":"773806992635980","from":{"id":"100002508122689","name":"Vũ Mạnh Tuấn"},"message":"Shimekazari là một đồ trang trí được bện bằng dây thừng, đính kèm một ít giấy màu trắng. Ngoài ra người ta còn trang trí lên đó một miếng cam đắng, một con tôm hùm và vài cái lá dương xỉ. Miếng cam đắng tượng trưng cho việc cả gia đình sẽ được khoẻ mạnh trong năm tới, còn con tôm hùm là biểu tượng của sự trường thọ. Shimekazari được treo ở trước lối ra vào để xua đuổi hết tà ma cho năm mới.","can_remove":false,"created_time":"2013-12-08T16:51:24+0000","like_count":4,"user_likes":false},"773807109302635":{"id":"773807109302635","from":{"id":"100000359762118","name":"Mi Tra"},"message":"Thường là ko có bắn pháo hoa em ạ.","can_remove":false,"created_time":"2013-12-08T16:51:40+0000","like_count":1,"user_likes":false},"773807465969266":{"id":"773807465969266","from":{"id":"100001789054977","name":"Ginga Idō Shi"},"message":"ko có bắn chỉ bắn vào mùa hè thui","can_remove":false,"created_time":"2013-12-08T16:52:48+0000","like_count":2,"user_likes":false},"773808242635855":{"id":"773808242635855","from":{"id":"100001789054977","name":"Ginga Idō Shi"},"message":"ngoài cái bùa đó ra còn bùa nào ko hả ?","can_remove":false,"created_time":"2013-12-08T16:54:56+0000","like_count":0,"user_likes":false},"773808402635839":{"id":"773808402635839","from":{"id":"100002369341715","name":"Xu Li"},"message":"chỉ bắn vào lễ hội pháo hoa phải k bạn? ngoài ra k bắn vào dịp nào nữa à?","can_remove":false,"created_time":"2013-12-08T16:55:25+0000","like_count":0,"user_likes":false},"773809402635739":{"id":"773809402635739","from":{"id":"100001789054977","name":"Ginga Idō Shi"},"message":"hình như là vậy","can_remove":false,"created_time":"2013-12-08T16:57:36+0000","like_count":0,"user_likes":false},"773952195954793":{"id":"773952195954793","from":{"id":"100004392823234","name":"Anh Dũng Nguyễn"},"message":"Hay","can_remove":false,"created_time":"2013-12-08T22:51:30+0000","like_count":0,"user_likes":false},"774439872572692":{"id":"774439872572692","from":{"id":"100000687662713","name":"Vu Thi Man"},"message":"Hồi còn sinh viên, mình làm hẳn 1 đề tài về tết Nhật và tết Việt, tiếc là bây giờ chẳng nhớ gì, nhưng hôm qua đi học, cô giáo cũng nói về 108 tiếng chuông như bạn nói.","can_remove":false,"created_time":"2013-12-09T13:01:17+0000","like_count":1,"user_likes":false},"774530272563652":{"id":"774530272563652","from":{"id":"569263718","name":"Phuong Thao Tran"},"message":"[Có lẽ là sẽ còn part 3 nữa]<--- chờ phần này, ^^","can_remove":false,"created_time":"2013-12-09T15:42:22+0000","like_count":1,"user_likes":false}},"paging":{"cursors":{"after":"NzczNzU4OTA1OTc0MTIy","before":"NzczNzU4OTA1OTc0MTIy"},"next":"https://graph.facebook.com/229244010425617_773756375974375/comments?limit=1&summary=1&after=NzczNzU4OTA1OTc0MTIy"},"summary":{"order":"chronological","total_count":34}}}