{"id":"229244010425617_774017639281582","type":"status","from":{"id":"569263718","name":"Phuong Thao Tran"},"message":"Một câu chuyện trinh thám bất ngờ đang chờ các thám tử điều tra. Mục tiêu điều tra là  nhờ các thám tử nhà ta điền các từ thích hợp từ ①～⑮, sau đó ghép nội dung giữa các đoạn sao cho khớp với các đoạn nội dung cho sẵn từ a. tới h.  ...\n------------------------------------------------------\nsau đây là từ vựng cho sẵn:\n\n小道： con đường mòn, con đường nhỏ.\nくつろぐ： thư giản\nすがすがしい： trong lành\nとまどう： ngơ ngác, ngỡ ngàng\nめった：nhỏ nhặt\n首をかしげる：nghiêng đầu\n報酬（ほうしゅう）：thù lao\n手付金（てつけきん）：tiền tạm ứng\n手腕（しゅわん）：khả năng (người có khả năng, năng lục)\nやりそこなう：thất bại, không thành\n発覚（はっかく）：phát giác, phát hiện\nのみこめる：thấu hiểu, sáng tỏ\nあいつ：nỗi bận lòng, phiền lòng, lo âu\n多岐（たき）：phức tạp, nhiều chiêu trò\n輝く（かがやく）：tỏa sáng, sáng long lanh, lấp lánh\n身を乗り出す：chồm người lên, rướn người tới\n耳寄り（みみより）な：hữu ích, đáng nghe\n手ぬかり：lỗi nhỏ\nやりとげる：làm đến cùng\n虫も殺せそうにない：không nỡ sát hại dù chỉ là côn trùng\n口調（くちょう）： âm điệu, giọng điệu\n青ざめる（あおざめる）：tái xanh, xanh mét\n口走る（くちばしる）：lắp bắp\n哀願（あいがん）：nài nỉ, van xin\n待ち伏せる（まちふせる）：chờ sẵn, phục kích\n早合点（はやがてん）：thiếu suy nghĩ, nông cạn, đường đột, vội vàng\n用命（ようめい）：mệnh lệnh\n顔をしかめ： nhăn nhó\n苦笑い（にがわらい）：cười gượng\n呪い殺す（のろいころす）：iểm bùa, ám bùa\nからかう：chế nhạo, trêu gẹo, đùa cợt\n巧妙（こうみょう）： tinh vi, tinh xảo\n衰弱（すいじゃく）： suy nhược\n定説（ていせつ）： định thuyết, học thuyết\nながめなおす： nhìn nghi ngờ\n冷酷（れいこく）：lạnh lùng, lãnh đạm\nせっかく： bỏ công sức, cất công...\n破滅（はめつ）： lụi tàn. tiêu tan\nごもっとも： như đã đề cập\n銃（じゅう）：súng\n毒薬（どくやく）： thuốc độc\nありふれる： phổ biến\n不審（ふしん）：manh mối, nghi ngờ\n抱か（いだく）：mang, để lại\nうなずく：gật đầu\n半信半疑（はんしんはんぎ）： nữa tin nữa  ngờ\n圧倒（あっとう）： áp đảo\n素性（すじょう）： sự tình, nguồn cơn\n----------------------------------------------------\nVà cốt truyện như sau:\n\na.　〔１〕\n　　ある別荘地（べっそうち）の朝。林のなかの小道（こみち）を、エヌ氏は一人で散歩（さんぽ）していた。彼は大きな会社の経営者（けいえいしゃ）だが、週末はいつも、この地でくつろぐことにしているのだ。\nすがすがしい空気、静かなばかでの小鳥たちの声……。\n　　その時、木陰（こかげ）から若い女が　①。。。。。。。。。た。明るい服装に明るい化粧。そして、にこやかに声をかけてきた。\n「こんにちは」\n　　エヌ氏は足をとめ、とまどって聞いた。\n「どなたでしょうかな。失礼ですが、思い出せません」\n「むりもありませんんわ。はじめて　②。。。。。。。。。。するのですから。　じつは、ちょっと、お願いが……」\n「しかし、あなたはどなたなのですか」\n「それを申し上げると、驚きになるでしょうけど……」\n「いや、めったなことでは驚きませんよ」\n「殺し屋ですのよ」\n\nb．〔　　〕\nエヌ氏は腕（うで）を組み、首をかしげた。女はその内心を察（さっ）してか、\n「うまい話をもちかけ、お金だけ受け取って、そのまま。こんな点を、ご心配なのでしょうね。だけど、ご安心頂きたいわ。すんでからの成功報酬（せいこうほうしゅう）で、けっこうですの。手付け金（てつけきん）など　③。。。。。。。。。。わ」\n「しかし……」\n「期限もお予約いたしますわ。三か月以内と申し上げたいところなんですけど、余裕をとって六か月待っていただければ、確実にやりとげてさしあげます」\n「いやに自身があるのだな。しかし、こんな時にはどうするのです。成功はした、だがわたしが報酬（ほうしゅう）を　④。。。。。。。。。。困るでしょう」\n「きっと、お支払い下さいますわ。あたしの手腕（しゅわん）をご覧になれば」\n「そういうものかな。それなら、まあやってみてくれ。成功すれば、お礼は払う。成功しなくても、もともとだ。たとえ、やりそこなって発覚（はっかく）しても、わたしが巻きぞえになるような証拠（しょうこ）も残らないようだ」\n\nｃ．〔　　〕\n事態がいくらかのみこめて、エヌ氏はほっとした。\n「そうだったのか。すっかり驚いてしまった。しかし、いまのところは用はない」\n「おかくしになることは、ありませんわ。さっき、さてはあいつか、とおっしゃいました。あいつとは、Ｇ産業の社長のことでございましょう」\n「ああ、Ｇ産業にとって、わが社は最大の商売がたきだ。競争に勝つには非常手段をとりたくもなるだろう、と考えたわけだ。ということは、わが社にとってもＧ産業は最大の商売がたきだ。ここだけの話だが、正直なところわたしとしても、彼が　⑤。。。。。。。。。。くれればいい、と思わないでもない」\n　　　女は目を輝かせて（かがやかせて）、身を乗り出した。\n「そのお仕事を、やってあげましょうか」\n「それは耳寄りな話だが……」\n「お引き受けしたからには、手抜かり一つなく、完全にやりとげてご覧に入れますわ」\n\nｄ．〔　　〕\n女は簡潔に答えた。だが、見たところ虫も殺せそうにない。エヌ氏は笑いながら、\n「まさか……」\n「冗談（じょうだん）でしたら、なにもわざわざ、こんな場所でお待ちしませんわ」\n　女は、まじめな口調（くちょう）と表情（ひょうじょう）だった。それに気が付くと、エヌ氏は不意にさむけのようなものを　⑥。。。。。。。。。。。。青ざめながら口走った（くちばしった）。\n「さては、あいつのしわざだな。だが、こんな卑劣（ひれつ）な手段に訴えるとは、思わなかった。ま、まってくれ。たのむ。⑦。。。。。。。。。。。。ないでくれ」\n哀願（あいがん）をくりかえすと、女はこう言った。\n「誤解なさらないでいただきたいわ。➇。。。。。。。。。。。。に来たのではございませんのよ」\n「はて、どういうことだ。殺し屋はわたしを待ち伏せていた。しかし、殺すのが目的ではないと言う。殺し屋なら、殺すのが商売のはずだ」\n「そう早合点（はやがてん）なさっては困りますわ。注文をいただきにうかがう場合だって、ありますのよ。いまはそれですの。どうかしら、ご用命いただけないかしら」\n\ne．〔５〕\nエヌ氏は顔をしかめ、苦笑いをした。\n「冗談じゃない。そんな方法など、ありえない。第一、どうやって病気にさせるのだ」\n「呪い殺す（のろいころす）、とでもしておきましょうか」\n「ますますひどい。失礼だが、正気なのですか。病院でみてもらったら、いかがです」\n　　からかうようなエヌ氏の視線を感じないかのように、女は話を　⑨。。。。。。。。。。。\n「呪い殺すという言葉が古いのでしたら、こう言いかえてもけっこうですわ。巧妙（こうみょう）な手段で相手の周囲のストレスを　⑩。。。。。。。。。。。。、心臓（しんぞう）を衰弱（すいじゃく）させて死に至らしめる。現代の医学の定説によりますと、ストレスとは……」\n「こんどは、急に難しい話になった。要するに、彼を自然死させるというのだな。しかし、まだどうも使用しかねる。そううまくいくとは……」\n\nf．〔　　〕\nエヌ氏は女をながめなおした。だが、そんな仕事がやれそうには見えない。また冷酷（れいこく）な子分（こぶん）を配下（はいか）にそろえていそうにも見えない。彼はしばらくして考えてから、言った。\n「せっかくだが、⑪。。。。。。。。。。。。しよう。あなたを全面的に信用しようにも、それだけの根拠がないではないか。万一、やりそこなってつかまり、わたしが　⑫。。。。。。。。。。。。ということが表ざたになったら、わたしまでが破滅（はめつ）だ。そんな危険をおかしてまで、彼を殺す気はない」\n「ごもっともですわ。だけど、小説やテレビだけの知識で、殺し屋を想像なさないように。銃（じゅう）や毒薬（どくやく）を使ったり、自動車事故をよそおうといった、ありふれた発覚しやすい方法を使うのではありませんもの」\n「というと、どんな殺し方をするのだ」\n「決して不審をいだかれない死、病死（びょうし）をさせるのですから」\n\ng．〔　　〕\nエヌ氏は慎重（しんちょう）に考えながら、ついにうなずいた。\n「では、楽しみにお待ちになって下さい」\n　　女は足早に　⑬。。。。。。。。。。。。いった。それを見送りながら、エヌ氏は半信半疑（はんしんはんぎ）でつぶやいた。\n「妙な人間もいるものだな。本当にそんなことが出来るのだろうか。手付金なしだから、別に損もしなかったが」\n\nｈ．〔　８　〕\n　　だが、そんなことも忘れ、四か月ばかりたった時、エヌ氏は、ニュースに接した。問題のＧ産業の社長が、病院での手当てのかいもなく、心臓疾患（しんぞうしっかん）で死んだのだ。そして、警察が不審を持って調べはじめたという動きもなく、無事に葬儀（そうぎ）も終わった。\n　　その数日後、エヌ氏が別荘での朝の散歩をしていると、林の道でまた、いつかの女が　⑭。。。。。。。。。いた。こんどは、エヌ氏の方が先に声をかけた。\n「こんなに素晴らしい手段とは思わなかった。おかげで、わが社もＧ産業を圧倒（あっとう）できそうだ。しかし、まだ信じられないほどだ」\n「お約束した通りでしょう。では、報酬をお願いしますわ」\nもし払いたくないと　⑮。。。。。。。。。。。、こっちが対象にされるかもしれない。\n「わかっている。払うよ」\n「ありがとうございます」\n　　　女は金を受け取り、エヌ氏と別れた。そして町へ。彼女はあとをつけられないようにとだけ注意した。素性（すじょう）がわかっては困るのだ。\n----------------------------------------------------------------\nNào chúng ta vào cuộc nào....","created_time":"2013-12-09T01:59:57+0000","updated_time":"2013-12-13T15:39:14+0000","likes":{"data":{"100001723862714":{"id":"100001723862714","name":"Bo Bien Vang"},"100000460353209":{"id":"100000460353209","name":"Kim Huong Tran"},"100000284487802":{"id":"100000284487802","name":"Buu Lam Gia"},"100004859014587":{"id":"100004859014587","name":"Hoang Helu"},"100003334742630":{"id":"100003334742630","name":"Htl Nhjm"},"100005145330760":{"id":"100005145330760","name":"Sơn Vũ"},"1026780646":{"id":"1026780646","name":"Việt Hưng Khổng"},"100004510290091":{"id":"100004510290091","name":"Long Hoàng"},"100005337850702":{"id":"100005337850702","name":"Xứ Tuyết"},"100001754136107":{"id":"100001754136107","name":"Nguyễn Tuấn Vũ"},"100004094346107":{"id":"100004094346107","name":"Thuy Nga Nguyen"},"100005024348771":{"id":"100005024348771","name":"Long Hoàng"}},"paging":{"cursors":{"after":"MTAwMDAxNzIzODYyNzE0","before":"MTAwMDAxNzIzODYyNzE0"},"next":"https://graph.facebook.com/229244010425617_774017639281582/likes?limit=1&summary=1&after=MTAwMDAxNzIzODYyNzE0"},"summary":{"total_count":13}},"comments":{"data":{"774094389273907":{"id":"774094389273907","from":{"id":"100004510290091","name":"Long Hoàng"},"message":"*chóng mặt* @@","can_remove":false,"created_time":"2013-12-09T05:29:15+0000","like_count":1,"user_likes":false},"774096355940377":{"id":"774096355940377","from":{"id":"569263718","name":"Phuong Thao Tran"},"message":"làm thám tử đâu phải dễ ;)","can_remove":false,"created_time":"2013-12-09T05:32:21+0000","like_count":0,"user_likes":false},"774178275932185":{"id":"774178275932185","from":{"id":"100000359762118","name":"Mi Tra"},"message":"E quen đọc những bài dài rồi mà nhìn vào đây còn hoa hết cả mắt. Đúng là ko làm thám tử được rồi (@_@)","can_remove":false,"created_time":"2013-12-09T09:52:34+0000","like_count":3,"user_likes":false},"774417142574965":{"id":"774417142574965","from":{"id":"1026780646","name":"Việt Hưng Khổng"},"message":"Hự, trọng thương :'(","can_remove":false,"created_time":"2013-12-09T12:19:39+0000","like_count":2,"user_likes":false},"774498765900136":{"id":"774498765900136","from":{"id":"569263718","name":"Phuong Thao Tran"},"message":"chị Cảm Xúc Bất Tận hôm nay có avatar thể hiện đúng với nick name nhỉ, ^^","message_tags":[{"id":"100006469315671","name":"Cảm Xúc Bất Tận","type":"user","offset":4,"length":15}],"can_remove":false,"created_time":"2013-12-09T15:02:02+0000","like_count":0,"user_likes":false},"774514059231940":{"id":"774514059231940","from":{"id":"100000603915176","name":"悪いな ぁ"},"message":"Đọc tiếng Việt dài còn ngại 😔","can_remove":false,"created_time":"2013-12-09T15:19:43+0000","like_count":0,"user_likes":false},"774973895852623":{"id":"774973895852623","from":{"id":"569263718","name":"Phuong Thao Tran"},"message":"sau hơn 24 tiếng điều tra mà chưa có chút manh mối nào sao, :(","can_remove":false,"created_time":"2013-12-10T10:39:55+0000","like_count":0,"user_likes":false},"776849318998414":{"id":"776849318998414","from":{"id":"569263718","name":"Phuong Thao Tran"},"message":"gợi ý bằng cách dịch đoạn a. [ 1 ]\n------------------------------------------\n     Một buổi sáng, ở một biệt trang nọ, ông Enu đang đi dạo trên con đường mòn trong khu rừng, ông ta là một doanh nhân của một doanh nghiệp lớn, và có thói quen là cứ hễ cuồi tuần là đi tản bộ thư giản ở đây...\n     Trong không khí trong lành, yên tĩnh với những tiếng chim hót líu lo...\nThì đột nhiên từ sau thân cây xuất hiện một người phụ nữ, nom cô ta trang điểm cũng nhẹ nhàng, phục trang trang nhã, nở một nụ cười và cất tiếng:\n[Xin chào ngài]\n    Ông Enu dừng bước, ngạc nhiên hỏi:\n[Là vị nào đây ạ, xin lỗi, tôi không thể nhớ ra]\n[Ngài không cần băng khoăn đâu ạ. Vì đây là lần đầu tiện diện kiến ngài đấy ạ. Thật ra là tôi có chút việc muốn nhờ ngài...]\n[Nhưng mà quý cô đây là ai thế] \n[Nếu tôi nói ra, e là ngài phải kinh ngạc đấy ạ...]\n[Ồ, không đâu, một việc cỏn con như thế thì không làm tôi ngạc nhiên được đâu ...]\n[Là sát thủ đấy ạ...]","can_remove":false,"created_time":"2013-12-13T15:39:14+0000","like_count":1,"user_likes":false}},"paging":{"cursors":{"after":"Nzc0MDk0Mzg5MjczOTA3","before":"Nzc0MDk0Mzg5MjczOTA3"},"next":"https://graph.facebook.com/229244010425617_774017639281582/comments?limit=1&summary=1&after=Nzc0MDk0Mzg5MjczOTA3"},"summary":{"order":"chronological","total_count":9}}}