{"id":"229244010425617_774121505937862","type":"status","from":{"id":"100004398330290","name":"Lam Linh"},"message":"Mọi người cho em hỏi câu này được không ạ?\n\nHai cấu trúc ～だけでなく、～も… và ~ばかり phân biệt với nhau như thế nào ạ?\n\nVà nếu thay vì nói là ドラマを見たばかりいないで、勉強しなさい。mà nói là ドラマを見るだけでなく、勉強しなさい。thì có đúng về ngữ pháp và hợp lý ngữ nghĩa không ạ?","created_time":"2013-12-09T06:37:18+0000","updated_time":"2013-12-10T05:29:15+0000","likes":{"data":{"100001526631937":{"id":"100001526631937","name":"Tường Oanh Mineko"},"100004459391753":{"id":"100004459391753","name":"Đỗ Văn Thiện"}},"paging":{"cursors":{"after":"MTAwMDAxNTI2NjMxOTM3","before":"MTAwMDAxNTI2NjMxOTM3"},"next":"https://graph.facebook.com/229244010425617_774121505937862/likes?limit=1&summary=1&after=MTAwMDAxNTI2NjMxOTM3"},"summary":{"total_count":2}},"comments":{"data":{"774123829270963":{"id":"774123829270963","from":{"id":"100004459391753","name":"Đỗ Văn Thiện"},"message":"A~だけでなく、Bも〜\nCó nghĩa là không chỉ có sự việc A, mà sự việc B cũng có.\n~ばかり có nghĩa là chỉ có~","can_remove":false,"created_time":"2013-12-09T06:45:05+0000","like_count":1,"user_likes":false},"774124505937562":{"id":"774124505937562","from":{"id":"100004459391753","name":"Đỗ Văn Thiện"},"message":"Bạn đang học chyuukyuu phải k? Bạn có thể download về để tham khảo tài liệu này. (Vào appstore tải adobe reader trước nhé).\nhttp://www.mediafire.com/?kmmlgljmnz3","can_remove":false,"created_time":"2013-12-09T06:47:09+0000","like_count":1,"user_likes":false},"774125695937443":{"id":"774125695937443","from":{"id":"100004398330290","name":"Lam Linh"},"message":"Nghĩa là trong 2 câu mình lấy ví dụ trên kia, câu thứ nhất là [có thể vừa học vừa xem phim] còn câu thứ 2 nghĩa là [chỉ học mà không được xem phim] đúng không?\n\nNhưng nếu mình nói câu thứ nhất với dụng ý cho phép cả [học] cả [xem phim] thì có được không?","can_remove":false,"created_time":"2013-12-09T06:51:42+0000","like_count":0,"user_likes":false},"774125929270753":{"id":"774125929270753","from":{"id":"569263718","name":"Phuong Thao Tran"},"message":"Lam Linh: ドラマを見たばかりいないで、勉強しなさい ---> ドラマを見てばかりいないで、勉強しなさい ( syntax: Vて＋ばかりいる)","message_tags":[{"id":"100004398330290","name":"Lam Linh","type":"user","offset":0,"length":8}],"can_remove":false,"created_time":"2013-12-09T06:52:34+0000","like_count":2,"user_likes":false},"774126169270729":{"id":"774126169270729","from":{"id":"100005024348771","name":"Long Hoàng"},"message":"câu thứ 1 là mitebakari thì đúng hơn chứ nhỉ","can_remove":false,"created_time":"2013-12-09T06:53:33+0000","like_count":1,"user_likes":false},"774126335937379":{"id":"774126335937379","from":{"id":"100004398330290","name":"Lam Linh"},"message":"Trên lớp khi mình đặt câu với cấu trúc thứ nhất là 期末試験はもうすぐだよ。ドラマを見たばかりいないで、勉強しなさい。thì cô giáo nói là tối nghĩa, phải đặt theo cấu trúc thứ 2.","can_remove":false,"created_time":"2013-12-09T06:54:01+0000","like_count":0,"user_likes":false},"774126685937344":{"id":"774126685937344","from":{"id":"100005024348771","name":"Long Hoàng"},"message":"mình thấy cả 2 câu đều được mà, chỉ có nhầm ta với te thôi","can_remove":false,"created_time":"2013-12-09T06:56:00+0000","like_count":1,"user_likes":false},"774126822603997":{"id":"774126822603997","from":{"id":"569263718","name":"Phuong Thao Tran"},"message":"hic, câu 1: đừng có suốt ngày mà xem phim nữa, hãy học hành vào đi.\ncâu 2: Không những xem phim, mà cũng phải học đi nghe.<--- vừa học vừa xem phim","can_remove":false,"created_time":"2013-12-09T06:56:54+0000","like_count":1,"user_likes":false},"774128645937148":{"id":"774128645937148","from":{"id":"100004398330290","name":"Lam Linh"},"message":"Ừm, lúc mình type cũng phân vân mãi là Vて＋ばかりいる hay Vた :\">","can_remove":false,"created_time":"2013-12-09T07:04:19+0000","like_count":0,"user_likes":false},"774135165936496":{"id":"774135165936496","from":{"id":"100000603915176","name":"悪いな ぁ"},"message":"2 cấu trúc này nếu đặt vào câu rồi dịch thì sẽ làm bạn phân vân không biết dùng cái nào. Nhưng nếu bạn hiểu rõ bản chất của 2 cấu trúc thì sẽ không phân vân nữa.\n\n1. ばかり có thể gọi \"toàn là, chỉ toàn là\" -> VD: お金ばかり: Toàn là tiền.\n2. だけでなく có thể gọi là \"không chỉ\" - > お金だけでなく: Không chỉ là tiền.\n\nTừ ý nghĩa chính xác của cấu trúc mà bạn hiểu thì bạn có thể tuỳ ý đặt câu sao cho phù hợp vậy thôi. Đừng lúc nào cũng \"đóng khung, lý thuyết\" quá rồi phân vân suốt thôi.","can_remove":false,"created_time":"2013-12-09T07:21:34+0000","like_count":4,"user_likes":false},"774152589268087":{"id":"774152589268087","from":{"id":"100000603915176","name":"悪いな ぁ"},"message":"To Đùng vào dẹp cái QC hộ cái","message_tags":[{"id":"1813611352","name":"To Đùng","type":"user","offset":0,"length":7}],"can_remove":false,"created_time":"2013-12-09T08:33:32+0000","like_count":0,"user_likes":false},"774153012601378":{"id":"774153012601378","from":{"id":"1813611352","name":"To Đùng"},"message":"đâu anh. quảng cáo đâu ạ.","can_remove":false,"created_time":"2013-12-09T08:35:01+0000","like_count":1,"user_likes":false},"774154415934571":{"id":"774154415934571","from":{"id":"1146680551","name":"優しい なぁ"},"message":"Xóa rồi :v","can_remove":false,"created_time":"2013-12-09T08:36:38+0000","like_count":1,"user_likes":false},"774154789267867":{"id":"774154789267867","from":{"id":"100000603915176","name":"悪いな ぁ"},"message":"Chưa hết đâu, một loạt bài bị comment quảng cáo còn kìa kìa. Chắc phải block.","can_remove":false,"created_time":"2013-12-09T08:37:39+0000","like_count":1,"user_likes":false},"774437249239621":{"id":"774437249239621","from":{"id":"100004398330290","name":"Lam Linh"},"message":"@悪いな ぁ: Vấn đề là khi đặt câu mình không quá phân vân, nên khi cô giáo không chấp nhận ví dụ 期末試験はもうすぐだよ。ドラマを見るだけでなく、勉強もしなさい。(phía trên mình viết nhầm) và yêu cầu về suy nghĩ thêm thì mình mới phân vân. \n\nVì theo ý cô là, sắp thi rồi thì không đươc làm cả hai việc đó, chỉ được học thôi. Mình thì hỏi cô là nếu bố mẹ mình (chủ thể giả tưởng của câu nói) cho phép mình làm cả 2 việc đó thì mình có thể dùng cấu trúc này không thì cô bảo tối nghĩa, không được.\n\nVậy nên mình mới băn khoăn...","can_remove":false,"created_time":"2013-12-09T12:53:23+0000","like_count":0,"user_likes":false},"774491105900902":{"id":"774491105900902","from":{"id":"100000603915176","name":"悪いな ぁ"},"message":"Cô giáo bạn nói đúng đấy :)","can_remove":false,"created_time":"2013-12-09T14:45:29+0000","like_count":1,"user_likes":false},"774493069234039":{"id":"774493069234039","from":{"id":"100005024348771","name":"Long Hoàng"},"message":"em nghĩ chỉ cần đặt câu sau có hàm nghĩa ra lệnh mạnh hơn chút là được mà, tại cái もしなさい nghe nhẹ nhàng quá","can_remove":false,"created_time":"2013-12-09T14:49:29+0000","like_count":1,"user_likes":false},"774877095862303":{"id":"774877095862303","from":{"id":"100001444337943","name":"Macjanh"},"message":"だけでなくmang tính chất liệt kê. Không chỉ... Mà còn ... ( vì vậy theo mình 2 cấu trúc này ko có có gì giống nhau)","can_remove":false,"created_time":"2013-12-10T05:29:15+0000","like_count":2,"user_likes":false}},"paging":{"cursors":{"after":"Nzc0MTIzODI5MjcwOTYz","before":"Nzc0MTIzODI5MjcwOTYz"},"next":"https://graph.facebook.com/229244010425617_774121505937862/comments?limit=1&summary=1&after=Nzc0MTIzODI5MjcwOTYz"},"summary":{"order":"chronological","total_count":18}}}