{"id":"229244010425617_774189135931099","type":"photo","object_id":"684848141539944","picture":"https://fbcdn-photos-a-a.akamaihd.net/hphotos-ak-ash3/v/t1.0-0/1460060_684848141539944_1594077519_s.jpg?oh=9d3613e5e41b05f857f3b65aadc8b90a&oe=53CF44FA&__gda__=1405882683_3fb145bff5db7ab9cd86d22a96a99040","link":"https://www.facebook.com/photo.php?fbid=684848141539944&set=pcb.774189135931099&type=1&relevant_count=2","from":{"id":"100000442929887","name":"Mike Yi"},"message":"Ai nói cơm hộp ở Nhật ko ngon??? Ngon tuyệt đó.","created_time":"2013-12-09T10:25:32+0000","updated_time":"2013-12-10T04:27:58+0000","likes":{"data":{"100004446185815":{"id":"100004446185815","name":"Hiền Jp"},"100006867721682":{"id":"100006867721682","name":"Yuri Sabishii"},"1821970083":{"id":"1821970083","name":"Nguyễn Mạnh Cường"},"100006355960514":{"id":"100006355960514","name":"Lê Thùy Dương"},"100001848885057":{"id":"100001848885057","name":"Tiểu Mỡ Nhi"},"100004221763347":{"id":"100004221763347","name":"Huong Tran"},"100001754136107":{"id":"100001754136107","name":"Nguyễn Tuấn Vũ"},"100004366713953":{"id":"100004366713953","name":"Тгаи Фаин Тнаин"},"100002472470715":{"id":"100002472470715","name":"Phan Duy Hùng"},"100006767705219":{"id":"100006767705219","name":"Kim Liên"},"100003762427351":{"id":"100003762427351","name":"Hiroshi Yasu Oki"},"100003780948776":{"id":"100003780948776","name":"Sâu Đặng"},"711491571":{"id":"711491571","name":"Graziani Inaizarg"},"100002849008610":{"id":"100002849008610","name":"Nguyễn Phương Hùng"},"100004262372923":{"id":"100004262372923","name":"Trần Hữu Nam"},"100004390689885":{"id":"100004390689885","name":"Phúc Nguyễn"},"100000178811354":{"id":"100000178811354","name":"Anh BÊú"},"100001526631937":{"id":"100001526631937","name":"Tường Oanh Mineko"},"100001231404357":{"id":"100001231404357","name":"Quoc Anh"},"100005024348771":{"id":"100005024348771","name":"Long Hoàng"},"100001894545350":{"id":"100001894545350","name":"Lhp Bin"},"100005357624060":{"id":"100005357624060","name":"Sống Hôm Nay"}},"paging":{"cursors":{"after":"MTAwMDA0NDQ2MTg1ODE1","before":"MTAwMDA0NDQ2MTg1ODE1"},"next":"https://graph.facebook.com/229244010425617_774189135931099/likes?limit=1&summary=1&after=MTAwMDA0NDQ2MTg1ODE1"},"summary":{"total_count":22}},"comments":{"data":{"774192849264061":{"id":"774192849264061","from":{"id":"1214116060","name":"Trần Xuân Đức"},"message":"790¥ 1 suất thì đương nhiên là ngon rồi :v","can_remove":false,"created_time":"2013-12-09T10:35:27+0000","like_count":0,"user_likes":false},"774192989264047":{"id":"774192989264047","from":{"id":"100003894677140","name":"Đinh Quang Minh"},"message":"いくらですか？","can_remove":false,"created_time":"2013-12-09T10:36:06+0000","like_count":0,"user_likes":false},"774212095928803":{"id":"774212095928803","from":{"id":"100000359762118","name":"Mi Tra"},"message":"Mình cũng thường mua ở đây. Khá ngon","can_remove":false,"created_time":"2013-12-09T11:20:34+0000","like_count":0,"user_likes":false},"774216072595072":{"id":"774216072595072","from":{"id":"100002889530069","name":"Doãn Thế Anh"},"message":"vãi cơm 590 lo trả ngon","can_remove":false,"created_time":"2013-12-09T11:27:32+0000","like_count":0,"user_likes":false},"774410559242290":{"id":"774410559242290","from":{"id":"100001190033364","name":"Tự Do"},"message":"Ăn mấy loại 2-300¥ coi :))","can_remove":false,"created_time":"2013-12-09T12:06:39+0000","like_count":1,"user_likes":false},"774477435902269":{"id":"774477435902269","from":{"id":"100004510290091","name":"Long Hoàng"},"message":"sukiyaki, tebatare :D","can_remove":false,"created_time":"2013-12-09T14:12:03+0000","like_count":0,"user_likes":false},"774492979234048":{"id":"774492979234048","from":{"id":"100001754136107","name":"Nguyễn Tuấn Vũ"},"message":"ở đây có món ステーキ cũng ngon","can_remove":false,"created_time":"2013-12-09T14:49:14+0000","like_count":0,"user_likes":false},"774574852559194":{"id":"774574852559194","from":{"id":"100004672236926","name":"Văn Khẩn"},"message":"Mih di lam con hop ma chag thay ngon gi ca","can_remove":false,"created_time":"2013-12-09T17:18:25+0000","like_count":0,"user_likes":false},"774656099217736":{"id":"774656099217736","from":{"id":"100003213171499","name":"Van Nguyen"},"message":"Nói cơm hộp ngon,post thêm 領収証 chả hiểu là có tác dụng gì với cộng đồng.mà ăn một bữa bằng tiền ăn của mình hai ngày.","can_remove":false,"created_time":"2013-12-09T20:26:25+0000","like_count":1,"user_likes":false},"774749925875020":{"id":"774749925875020","from":{"id":"100000442929887","name":"Mike Yi"},"message":"Post cái H Đơn lên là để mọi người bít cái chỗ bán.Còn chuyện bạn ăn 1 ngày bao nhiu là chuyện cá nhân bạn ko ai bàn đến.","can_remove":false,"created_time":"2013-12-10T00:01:28+0000","like_count":0,"user_likes":false},"774751455874867":{"id":"774751455874867","from":{"id":"100001754136107","name":"Nguyễn Tuấn Vũ"},"message":"post thêm cái kia để mọi ng nhớ tên món ăn, hiểu những gì gi trong hoa đơn và học đc chữ hán :D","can_remove":false,"created_time":"2013-12-10T00:05:40+0000","like_count":0,"user_likes":false},"774853022531377":{"id":"774853022531377","from":{"id":"100003213171499","name":"Van Nguyen"},"message":"Hi vọng bạn đăng với mục đích học tập.dù sao cũng cảm ơn bạn vì tôi đã nhớ thêm được vài chữ Hán.","can_remove":false,"created_time":"2013-12-10T04:21:27+0000","like_count":0,"user_likes":false},"774854725864540":{"id":"774854725864540","from":{"id":"100003213171499","name":"Van Nguyen"},"message":"Nếu có lần sau tôi nghĩ bạn biết bài hát nào bằng tiếng Nhật hay,bạn post lên mọi người cùng nghe có lẽ là giúp mọi người học được nhiều hơn.","can_remove":false,"created_time":"2013-12-10T04:26:00+0000","like_count":0,"user_likes":false},"774855392531140":{"id":"774855392531140","from":{"id":"100000359762118","name":"Mi Tra"},"message":"Học có nhiều cách học mà Van Nguyen. Mình thấy cách post hóa đơn và món ăn lên như thế này cũng rất hay vì biết được cả tên món ăn, mức giá khoảng bao nhiêu.","message_tags":[{"id":"100003213171499","name":"Van Nguyen","type":"user","offset":25,"length":10}],"can_remove":false,"created_time":"2013-12-10T04:27:58+0000","like_count":0,"user_likes":false}},"paging":{"cursors":{"after":"Nzc0MTkyODQ5MjY0MDYx","before":"Nzc0MTkyODQ5MjY0MDYx"},"next":"https://graph.facebook.com/229244010425617_774189135931099/comments?limit=1&summary=1&after=Nzc0MTkyODQ5MjY0MDYx"},"summary":{"order":"chronological","total_count":14}}}