{"id":"229244010425617_774564315893581","type":"link","picture":"https://fbexternal-a.akamaihd.net/safe_image.php?d=AQDgm2-haiq8hVlZ&url=https%3A%2F%2Ffbcdn-sphotos-b-a.akamaihd.net%2Fhphotos-ak-prn2%2Ft1.0-9%2F1175456_213516642145313_1553260994_n.jpg","link":"https://www.facebook.com/notes/wow-japanese-phi%C3%AAu-c%C3%B9ng-ti%E1%BA%BFng-nh%E1%BA%ADt/th%C3%B4ng-b%C3%A1o-tuy%E1%BB%83n-sinh-ch%C6%B0%C6%A1ng-tr%C3%ACnh-h%E1%BB%8Dc-b%E1%BB%95ng-%C4%91%E1%BA%A1i-h%E1%BB%8Dc-t%E1%BA%A1i-nh%E1%BA%ADt-b%E1%BA%A3n-n%C4%83m-2014-ng%C3%A0nh-c/212737055556605","from":{"id":"1821970083","name":"Nguyễn Mạnh Cường"},"message":"Kham Pha và anh Mai PB, anh Thành Nguyễn, chị Mi Tra cho em hỏi xin học bổng học đại học bên Nhật có khó không ạ? Trường hợp của em sắp tới sau khi tốt nghiệp ĐH muốn qua bên đó và lựa chọn làm việc về IT, hoặc thi học lên cao nếu họ yêu cầu bằng cấp của họ, em ko biết bên đó họ xét tuyển người yêu cầu ra sao? Mọi người tư vấn giúp em được không ạ? :( em vừa bỏ lỡ đăng ký xét tuyển học bổng đợtđầu tiên của trường  Đại học Công nghệ thông tin Kyushu, thông tin \n\nhttps://www.facebook.com/notes/wow-japanese-phi%C3%AAu-c%C3%B9ng-ti%E1%BA%BFng-nh%E1%BA%ADt/th%C3%B4ng-b%C3%A1o-tuy%E1%BB%83n-sinh-ch%C6%B0%C6%A1ng-tr%C3%ACnh-h%E1%BB%8Dc-b%E1%BB%95ng-%C4%91%E1%BA%A1i-h%E1%BB%8Dc-t%E1%BA%A1i-nh%E1%BA%ADt-b%E1%BA%A3n-n%C4%83m-2014-ng%C3%A0nh-c/212737055556605\n\n bạn em rủ em đăng ký cùng mà cậu ý được rồi nên cũng tiếc vì bỏ lỡ quá :( tiếc lắm. Nhưng em nghĩ nếu năm sau vẫn còn thì dù có đang học tiếp ở bên Nhật em cũng sẽ đăng ký. Mọi người cho em xin ý kiến \nvới ạ, em xin cảm ơn","created_time":"2013-12-09T16:55:20+0000","updated_time":"2013-12-10T02:02:53+0000","likes":{"data":{"100004259495174":{"id":"100004259495174","name":"Nguyen Nam"},"100005024348771":{"id":"100005024348771","name":"Long Hoàng"},"100001458099624":{"id":"100001458099624","name":"Kham Pha"}},"paging":{"cursors":{"after":"MTAwMDA0MjU5NDk1MTc0","before":"MTAwMDA0MjU5NDk1MTc0"},"next":"https://graph.facebook.com/229244010425617_774564315893581/likes?limit=1&summary=1&after=MTAwMDA0MjU5NDk1MTc0"},"summary":{"total_count":5}},"comments":{"data":{"774588972557782":{"id":"774588972557782","from":{"id":"1816269439","name":"Dao Ngoc"},"message":"Mình biết cái này. Năm sau vẫn còn nhé. Nếu bạn học tốt, vẫn đăng ký được từ bên Nhật đó. ;)","can_remove":false,"created_time":"2013-12-09T17:52:21+0000","like_count":1,"user_likes":false},"774589485891064":{"id":"774589485891064","from":{"id":"1821970083","name":"Nguyễn Mạnh Cường"},"message":"Cảm ơn Dao Ngoc nhiều nhiều ;)","message_tags":[{"id":"1816269439","name":"Dao Ngoc","type":"user","offset":7,"length":8}],"can_remove":false,"created_time":"2013-12-09T17:53:38+0000","like_count":0,"user_likes":false},"774590762557603":{"id":"774590762557603","from":{"id":"1816269439","name":"Dao Ngoc"},"message":"Quạn trọng là bạn học tiếng cho thật tốt, rồi cơ hội lại tới thôi.","can_remove":false,"created_time":"2013-12-09T17:56:22+0000","like_count":2,"user_likes":false},"774592045890808":{"id":"774592045890808","from":{"id":"1821970083","name":"Nguyễn Mạnh Cường"},"message":"Qua trường hợp của mình thì mình cũng muốn chia sẻ với mọi người 1 bài học đắt giá là không nên từ bỏ bất cứ 1 cơ hội nào mà chúng ta có thể, và cố gắng bỏ hết đi những ngại ngùng chần chừ, việc đăng ký học bổng hụt bên trên làm cho mình mở mắt. Hi vọng mọi người sẽ năng động, mạnh mẽ với những cơ hội xuất hiện! YOLO :D","can_remove":false,"created_time":"2013-12-09T18:00:11+0000","like_count":3,"user_likes":false},"774755609207785":{"id":"774755609207785","from":{"id":"100001458099624","name":"Kham Pha"},"message":"vậy là tốt nghiệp đh bên này rồi sang đấy học lại đh ah?","can_remove":false,"created_time":"2013-12-10T00:14:38+0000","like_count":1,"user_likes":false},"774759609207385":{"id":"774759609207385","from":{"id":"100002508122689","name":"Vũ Mạnh Tuấn"},"message":"học bổng này của bên Wow Japanese kết hợp vs công ty Kyodai.\nThực ra trường đh này cũng ko phải trường nổi tiếng ( ko phải trường đh quốc lập Kyuushuu đâu ), với lại học bổng mà chỉ hỗ trợ tiền học, ko hỗ trợ tiền sinh hoạt phí kể cũng hơi căng ...","can_remove":false,"created_time":"2013-12-10T00:25:28+0000","like_count":1,"user_likes":false},"774762775873735":{"id":"774762775873735","from":{"id":"100001458099624","name":"Kham Pha"},"message":"tuần làm 3 ngày chắc đủ tiền sh. Nhưng mà thế thì kết quả học tập khó đảm bảo.","can_remove":false,"created_time":"2013-12-10T00:34:47+0000","like_count":0,"user_likes":false},"774798082536871":{"id":"774798082536871","from":{"id":"100000381394367","name":"Thành Nguyễn"},"message":"Hiện em đang học ngành nào, nếu đã học IT rồi sang kia lại học lại thì cũng lãng phí lắm, thường các trường mà cấp học bổng ( nhất là học bổng toàn phần ) thì họ không welcome đối với các ứng viên đã học đại học rồi mà lại sang học lại đâu vì ý nghĩa của học bổng là tạo cơ hội học tập cho người chưa có điều kiện, giờ mình học rồi thì họ sẽ ưu tiên ứng viên khác hơn\n\nNhưng nhìn học bổng này thì ở dạng bán toàn phần ( miễn học phí nhưng phải tự lo sinh hoạt ). Như vậy thì cũng căng nếu mình xác định tự chi trả mà không có sự hỗ trợ từ phía gia đình.","can_remove":false,"created_time":"2013-12-10T02:02:53+0000","like_count":3,"user_likes":false}},"paging":{"cursors":{"after":"Nzc0NTg4OTcyNTU3Nzgy","before":"Nzc0NTg4OTcyNTU3Nzgy"},"next":"https://graph.facebook.com/229244010425617_774564315893581/comments?limit=1&summary=1&after=Nzc0NTg4OTcyNTU3Nzgy"},"summary":{"order":"chronological","total_count":8}}}