{"id":"229244010425617_774787212537958","type":"photo","object_id":"184385075098206","picture":"https://fbcdn-photos-b-a.akamaihd.net/hphotos-ak-frc3/t1.0-0/1476271_184385075098206_1733921949_s.jpg","link":"https://www.facebook.com/photo.php?fbid=184385075098206&set=gm.774787212537958&type=1&relevant_count=1","from":{"id":"100005801442456","name":"An Nguyen"},"message":"Ở Tonami, tỉnh Toyama có phong cách chơi hương liệu khi đi tắm trong bồn rất là lạ =)) \r\n\r\n... Là cái gì ấy nhỉ?","created_time":"2013-12-10T01:36:36+0000","updated_time":"2013-12-10T05:53:51+0000","likes":{"data":{"100001594722256":{"id":"100001594722256","name":"Viết An Phạm"},"100005145330760":{"id":"100005145330760","name":"Sơn Vũ"},"100001526631937":{"id":"100001526631937","name":"Tường Oanh Mineko"},"100006638585575":{"id":"100006638585575","name":"Nguyễn Quỳnh"},"100002120720024":{"id":"100002120720024","name":"Yuji Tokunaga"},"1146680551":{"id":"1146680551","name":"優しい なぁ"},"100001416272263":{"id":"100001416272263","name":"Mai PB"},"100004262372923":{"id":"100004262372923","name":"Trần Hữu Nam"},"100003780948776":{"id":"100003780948776","name":"Sâu Đặng"},"100001292564389":{"id":"100001292564389","name":"Tran Viet"},"100005417492772":{"id":"100005417492772","name":"Kim Yến"},"100002327743510":{"id":"100002327743510","name":"Tuan Thanh"},"100001754136107":{"id":"100001754136107","name":"Nguyễn Tuấn Vũ"},"100002949559606":{"id":"100002949559606","name":"Thieu Ka"},"100002493236333":{"id":"100002493236333","name":"Lân Nguyễn Quốc"},"100005024348771":{"id":"100005024348771","name":"Long Hoàng"},"1816269439":{"id":"1816269439","name":"Dao Ngoc"},"100000045271667":{"id":"100000045271667","name":"Nam Thai Nguyen"},"100003255421501":{"id":"100003255421501","name":"Hieu Truong"}},"paging":{"cursors":{"after":"MTAwMDAxNTk0NzIyMjU2","before":"MTAwMDAxNTk0NzIyMjU2"},"next":"https://graph.facebook.com/229244010425617_774787212537958/likes?limit=1&summary=1&after=MTAwMDAxNTk0NzIyMjU2"},"summary":{"total_count":20}},"comments":{"data":{"774789415871071":{"id":"774789415871071","from":{"id":"100005024348771","name":"Long Hoàng"},"message":"táo ạ?","can_remove":false,"created_time":"2013-12-10T01:42:14+0000","like_count":0,"user_likes":false},"774790145870998":{"id":"774790145870998","from":{"id":"100005801442456","name":"An Nguyen"},"message":"Uh^_^","can_remove":false,"created_time":"2013-12-10T01:43:47+0000","like_count":0,"user_likes":false},"774790182537661":{"id":"774790182537661","from":{"id":"100002493236333","name":"Lân Nguyễn Quốc"},"message":"O:)","can_remove":false,"created_time":"2013-12-10T01:43:55+0000","like_count":0,"user_likes":false},"774790709204275":{"id":"774790709204275","from":{"id":"100003255421501","name":"Hieu Truong"},"message":"táo của ông lão nỗi lình bình :))","can_remove":false,"created_time":"2013-12-10T01:45:38+0000","like_count":0,"user_likes":false},"774790919204254":{"id":"774790919204254","from":{"id":"100005024348771","name":"Long Hoàng"},"message":"để nguyên cả quả ấy ạ?","can_remove":false,"created_time":"2013-12-10T01:46:05+0000","like_count":0,"user_likes":false},"774791362537543":{"id":"774791362537543","from":{"id":"100005801442456","name":"An Nguyen"},"message":"Uh, nguyên trái =))","can_remove":false,"created_time":"2013-12-10T01:46:59+0000","like_count":0,"user_likes":false},"774799485870064":{"id":"774799485870064","from":{"id":"100001754136107","name":"Nguyễn Tuấn Vũ"},"message":"vừa tắm vừa ăn hả An Nguyen :))","message_tags":[{"id":"100005801442456","name":"An Nguyen","type":"user","offset":18,"length":9}],"can_remove":false,"created_time":"2013-12-10T02:07:08+0000","like_count":1,"user_likes":false},"774800209203325":{"id":"774800209203325","from":{"id":"100005024348771","name":"Long Hoàng"},"message":"vậy có lợi thế nào vậy ạ( em nhìn thấy  chân ông ấy kìa )","can_remove":false,"created_time":"2013-12-10T02:08:43+0000","like_count":0,"user_likes":false},"774800412536638":{"id":"774800412536638","from":{"id":"100005801442456","name":"An Nguyen"},"message":"Để thơm thôi, ăn gì chứ ¥.¥","can_remove":false,"created_time":"2013-12-10T02:09:01+0000","like_count":1,"user_likes":false},"774801172536562":{"id":"774801172536562","from":{"id":"100005024348771","name":"Long Hoàng"},"message":"em tưởng thơm thì cắt hay xay ra thì hơn chứ ạ","can_remove":false,"created_time":"2013-12-10T02:10:32+0000","like_count":0,"user_likes":false},"774877655862247":{"id":"774877655862247","from":{"id":"100001526631937","name":"Tường Oanh Mineko"},"message":"thú vui hưởng thụ tao nhã quá nhỉ ! :D","can_remove":false,"created_time":"2013-12-10T05:30:50+0000","like_count":0,"user_likes":false},"774881995861813":{"id":"774881995861813","from":{"id":"100002508122689","name":"Vũ Mạnh Tuấn"},"message":"sao không thả hoa vào chả đẹp hơn :))","can_remove":false,"created_time":"2013-12-10T05:47:57+0000","like_count":0,"user_likes":false},"774883022528377":{"id":"774883022528377","from":{"id":"1283298041","name":"Búa Đức Thanh"},"message":"Táo để vậy coi chừng mấy con sâu nó ăn mất :-s","can_remove":false,"created_time":"2013-12-10T05:53:28+0000","like_count":0,"user_likes":false},"774883109195035":{"id":"774883109195035","from":{"id":"100005801442456","name":"An Nguyen"},"message":"=))","can_remove":false,"created_time":"2013-12-10T05:53:51+0000","like_count":0,"user_likes":false}},"paging":{"cursors":{"after":"Nzc0Nzg5NDE1ODcxMDcx","before":"Nzc0Nzg5NDE1ODcxMDcx"},"next":"https://graph.facebook.com/229244010425617_774787212537958/comments?limit=1&summary=1&after=Nzc0Nzg5NDE1ODcxMDcx"},"summary":{"order":"chronological","total_count":14}}}