{"id":"229244010425617_774894765860536","type":"link","picture":"https://fbexternal-a.akamaihd.net/safe_image.php?d=AQCuBy_QwwJZd9Cd&w=154&h=154&url=http%3A%2F%2Fwww.ana.co.jp%2Fpr%2F13_1012%2Fimage%2F13-128-1.gif","link":"http://www.ana.co.jp/pr/13_1012/13-128.html","from":{"id":"100001614233452","name":"Hienvit Duckling"},"message":"Các bạn ANA vừa ra thông báo sẽ chính thức khai thác đường bay từ Haneda – Tokyo (Nhật Bản) tới Hà Nội từ ngày 30/03/2014...\nKhông biết cả nhà có ai thích ANA không?? *Em chưa được đi ANA bao giờ, nên háo hức* ;)","created_time":"2013-12-10T06:24:53+0000","updated_time":"2013-12-11T06:46:23+0000","likes":{"data":{"100001526631937":{"id":"100001526631937","name":"Tường Oanh Mineko"},"100000388100257":{"id":"100000388100257","name":"Yuu Eguwota"},"100002928863986":{"id":"100002928863986","name":"Cườngg CR"},"100001444337943":{"id":"100001444337943","name":"Macjanh"},"1146680551":{"id":"1146680551","name":"優しい なぁ"},"100001695345798":{"id":"100001695345798","name":"Tyn Aki"},"100000313631896":{"id":"100000313631896","name":"Bao Bui Van"},"1805695859":{"id":"1805695859","name":"Thu Trang"},"1250063068":{"id":"1250063068","name":"Tuấn Tử Tế"},"100004446185815":{"id":"100004446185815","name":"Hiền Jp"}},"paging":{"cursors":{"after":"MTAwMDAxNTI2NjMxOTM3","before":"MTAwMDAxNTI2NjMxOTM3"},"next":"https://graph.facebook.com/229244010425617_774894765860536/likes?limit=1&summary=1&after=MTAwMDAxNTI2NjMxOTM3"},"summary":{"total_count":10}},"comments":{"data":{"774896482527031":{"id":"774896482527031","from":{"id":"1250063068","name":"Tuấn Tử Tế"},"message":"Chắc là giá cũng ko mềm đâu nhỉ. :))","can_remove":false,"created_time":"2013-12-10T06:32:52+0000","like_count":0,"user_likes":false},"774899189193427":{"id":"774899189193427","from":{"id":"100001614233452","name":"Hienvit Duckling"},"message":"Tuấn Tử Tế em cũng nghĩ thế... Nhưng Bác bên em bảo: chắc cũng không quá cao, chỉ là đắt hơn bên Narita 1 xíu thui... *hì*","message_tags":[{"id":"1250063068","name":"Tuấn Tử Tế","type":"user","offset":0,"length":10}],"can_remove":false,"created_time":"2013-12-10T06:41:15+0000","like_count":0,"user_likes":false},"774946539188692":{"id":"774946539188692","from":{"id":"100001695345798","name":"Tyn Aki"},"message":"oh yeah.","can_remove":false,"created_time":"2013-12-10T09:12:05+0000","like_count":0,"user_likes":false},"775469512469728":{"id":"775469512469728","from":{"id":"100001614233452","name":"Hienvit Duckling"},"message":"Tuấn Tử Tế 1 bác bên hàng không bảo là \"Đắt\" anh ạ :|","message_tags":[{"id":"1250063068","name":"Tuấn Tử Tế","type":"user","offset":0,"length":10}],"can_remove":false,"created_time":"2013-12-11T05:56:19+0000","like_count":0,"user_likes":false},"775485122468167":{"id":"775485122468167","from":{"id":"1250063068","name":"Tuấn Tử Tế"},"message":"Uh, anh cũng nghĩ thế. Bay nội địa mà chênh nhau mấy trăm % thì bay quốc tế có ít cũng ko hề mềm.","can_remove":false,"created_time":"2013-12-11T06:46:23+0000","like_count":0,"user_likes":false}},"paging":{"cursors":{"after":"Nzc0ODk2NDgyNTI3MDMx","before":"Nzc0ODk2NDgyNTI3MDMx"},"next":"https://graph.facebook.com/229244010425617_774894765860536/comments?limit=1&summary=1&after=Nzc0ODk2NDgyNTI3MDMx"},"summary":{"order":"chronological","total_count":5}}}