{"id":"229244010425617_774842195865793","type":"status","from":{"id":"1816269439","name":"Dao Ngoc"},"message":"Xã hội còn nhiều hình ảnh đẹp lắm!\nCá nhân mình thích nhìn những hình ảnh này hơn.\n\n\"Còn nhiều góc sáng sủa, còn nhiều tâm hồn đẹp. Ngày hôm qua 9/12/2013, các tình nguyện viên ruột của Cơm có thịt, lần này là Cơm có thịt Nhật (VYSA) đã cùng các thành viên của Cơm có thịt tổng lên các điểm trường của Trường tiểu học Pacheo để khảo sát. Tới tận nơi, nhìn tận mắt cuộc sống học tập của các bé, để chuận bị lộ trình hỗ trợ hiệu quả. Hi vọng ngày càng nhiều trẻ em được học chữ, có được nền tảng để tiếp thu kiến thức, thay đổi tầm nhìn, thay đổi cuộc sống của chính mình\".\n\nCảm ơn những tấm lòng đẹp. Những người luôn âm thầm góp sức thay đổi xã hội.","created_time":"2013-12-10T03:50:41+0000","updated_time":"2013-12-10T08:56:59+0000","likes":{"data":{"100002451143782":{"id":"100002451143782","name":"New Light"},"100001416272263":{"id":"100001416272263","name":"Mai PB"},"100002444618453":{"id":"100002444618453","name":"Tomio  Ueno"},"708658185":{"id":"708658185","name":"Nguyen Canh Toan"},"1146680551":{"id":"1146680551","name":"優しい なぁ"},"100002508122689":{"id":"100002508122689","name":"Vũ Mạnh Tuấn"},"100006111728204":{"id":"100006111728204","name":"La Ka Ta Tu"},"100003875131996":{"id":"100003875131996","name":"Ngoc Anh"},"100005801442456":{"id":"100005801442456","name":"An Nguyen"},"100001768008570":{"id":"100001768008570","name":"Vũ Hoàng Thiên Trang"},"1250063068":{"id":"1250063068","name":"Tuấn Tử Tế"},"100000045271667":{"id":"100000045271667","name":"Nam Thai Nguyen"},"100001526631937":{"id":"100001526631937","name":"Tường Oanh Mineko"},"100001614233452":{"id":"100001614233452","name":"Hienvit Duckling"},"100002636949866":{"id":"100002636949866","name":"Trung Thành"},"1837866264":{"id":"1837866264","name":"QuynhDo Anh"},"100000359762118":{"id":"100000359762118","name":"Mi Tra"},"100000381394367":{"id":"100000381394367","name":"Thành Nguyễn"}},"paging":{"cursors":{"after":"MTAwMDAyNDUxMTQzNzgy","before":"MTAwMDAyNDUxMTQzNzgy"},"next":"https://graph.facebook.com/229244010425617_774842195865793/likes?limit=1&summary=1&after=MTAwMDAyNDUxMTQzNzgy"},"summary":{"total_count":18}},"comments":{"data":{"774854655864547":{"id":"774854655864547","from":{"id":"100000359762118","name":"Mi Tra"},"message":"Trung Thành viết bằng tiếng Việt có dấu nhé! (sửa luôn cmt trên đi)","message_tags":[{"id":"100002636949866","name":"Trung Thành","type":"user","offset":0,"length":11}],"can_remove":false,"created_time":"2013-12-10T04:25:44+0000","like_count":1,"user_likes":false},"774855629197783":{"id":"774855629197783","from":{"id":"100002636949866","name":"Trung Thành"},"message":"はい　はい　笑","can_remove":false,"created_time":"2013-12-10T04:28:39+0000","like_count":0,"user_likes":false},"774856769197669":{"id":"774856769197669","from":{"id":"100000359762118","name":"Mi Tra"},"message":"忘れないでよ(^_-)-☆","can_remove":false,"created_time":"2013-12-10T04:31:50+0000","like_count":1,"user_likes":false},"774857125864300":{"id":"774857125864300","from":{"id":"100002636949866","name":"Trung Thành"},"message":"はい\nだって今パソコン使ってるもん　:D","can_remove":false,"created_time":"2013-12-10T04:32:49+0000","like_count":0,"user_likes":false},"774857772530902":{"id":"774857772530902","from":{"id":"100002636949866","name":"Trung Thành"},"message":"でもさ\n日本語でコメントをしてはかまわないね”　笑","can_remove":false,"created_time":"2013-12-10T04:34:38+0000","like_count":0,"user_likes":false},"774857975864215":{"id":"774857975864215","from":{"id":"100000359762118","name":"Mi Tra"},"message":"ベトナム語入力ソフトをダウンロードすれば、パソコンからでも大丈夫だよ！","can_remove":false,"created_time":"2013-12-10T04:35:11+0000","like_count":1,"user_likes":false},"774858089197537":{"id":"774858089197537","from":{"id":"100002636949866","name":"Trung Thành"},"message":"ヒヒ","can_remove":false,"created_time":"2013-12-10T04:35:46+0000","like_count":0,"user_likes":false},"774879092528770":{"id":"774879092528770","from":{"id":"569263718","name":"Phuong Thao Tran"},"message":"Trung Thành 子供っぽいか女っぽいだぜ。。。 ^^","message_tags":[{"id":"100002636949866","name":"Trung Thành","type":"user","offset":0,"length":11}],"can_remove":false,"created_time":"2013-12-10T05:36:42+0000","like_count":1,"user_likes":false},"774880075862005":{"id":"774880075862005","from":{"id":"100002636949866","name":"Trung Thành"},"message":"え~っ　どういうことか？","can_remove":false,"created_time":"2013-12-10T05:41:01+0000","like_count":0,"user_likes":false},"774881255861887":{"id":"774881255861887","from":{"id":"569263718","name":"Phuong Thao Tran"},"message":"[使ってる”もん”]","can_remove":false,"created_time":"2013-12-10T05:45:45+0000","like_count":0,"user_likes":false},"774881662528513":{"id":"774881662528513","from":{"id":"100002636949866","name":"Trung Thành"},"message":"~_~;","can_remove":false,"created_time":"2013-12-10T05:46:26+0000","like_count":0,"user_likes":false},"774938155856197":{"id":"774938155856197","from":{"id":"708658185","name":"Nguyen Canh Toan"},"message":"Hãy nhìn vào những điểm sáng!\nTôi ủng hộ bạn.","can_remove":false,"created_time":"2013-12-10T08:48:57+0000","like_count":3,"user_likes":false},"774941735855839":{"id":"774941735855839","from":{"id":"1617159513","name":"竹田穂亜"},"message":"(〝⌒∇⌒〝)","can_remove":false,"created_time":"2013-12-10T08:56:59+0000","like_count":0,"user_likes":false}},"paging":{"cursors":{"after":"Nzc0ODU0NjU1ODY0NTQ3","before":"Nzc0ODU0NjU1ODY0NTQ3"},"next":"https://graph.facebook.com/229244010425617_774842195865793/comments?limit=1&summary=1&after=Nzc0ODU0NjU1ODY0NTQ3"},"summary":{"order":"chronological","total_count":13}}}