{"id":"229244010425617_774982035851809","type":"video","picture":"https://fbexternal-a.akamaihd.net/safe_image.php?d=AQAkAh6gW7mgw2vf&w=130&h=130&url=http%3A%2F%2Fi1.ytimg.com%2Fvi%2Ft3c8UTseJpM%2Fhqdefault.jpg","link":"http://www.youtube.com/watch?v=t3c8UTseJpM","source":"http://www.youtube.com/v/t3c8UTseJpM?autohide=1&version=3&autoplay=1","from":{"id":"569263718","name":"Phuong Thao Tran"},"message":"Để cho việc học tiếng Nhật không bị nhàm chán, khô khan, máy móc. Mình xin thêm 1 chút gia vị vào các bài ngữ pháp đã học, ôn lái các mẫu ngữ pháp thông qua các bài hát. Hy vọng là các bạn hứng thú...  ^^\n---------------------------------------------------\nHôm nay mình gửi đến các bạn bài hát 抱きしめて http://www.youtube.com/watch?v=t3c8UTseJpM\n\n[1] 抱きしめて① ｜ だきしめて①\n[2] Tác giả và trình bày（五輪真弓: Itsuwa mayumi)\n\n[3] ささやかな㋔　幸せに ｜ ささやかなしあわせに\n[4] 酔いしれて②　いた私 ｜ よいしれていたわたし\n[5] いつかは終わる夢と ｜ いつかはおわるゆめと\n[6] 心で知りながらも③ ｜ こころでしりながらも\n[7] そうよ、わたしはあなたを死ぬほど④ ｜ そうよ、わたしはあなたをしぬほど\n[8] 愛してしまったの⑤ ｜ あいしてしまったの\n[9] \n[10] だから抱きしめて、 ｜ だからだきしめて\n[11] 何も言わずに、⑥ ｜ なにもいわずに\n[12] 別れを告げる　㋐　その前に ｜ わかれをつげるそのまえ\n[13] \n[14] 運命㋑　は残酷㋒　ね ｜ うんめい　は　ざんこくね\n[15] 愛すれば、それだけ ｜ あいすれば、それだけ\n[16] 明日はただ一人の ｜ あしたは　ただひとりの\n[17] 寂しさを知るばかり⑦ ｜ さびしさをしるばかり\n[18] あなたなしでも、わたしは生きるわ ｜ あなたなしでも、わたしはいきるわ\n[19] 心配しないでね ｜ しんぱいしないでね\n[20] \n[21] だから抱きしめて ｜ だからだきしめて\n[22] なにも言わずに ｜ なにもいわずに\n[23] 涙が涸れて㋓　止まるまで ｜ なみだ　が　かれてとまるまで\n[24] \n[25] だから抱きしめて、 ｜ だからだきしめて\n[26] 何も言わずに、 ｜ なにもいわずに\n[27] 別れを告げるその前に ｜ わかれをつげるそのまえ\n\n------------------------------------------------------------\n◆　Từ vựng trong bài:\n\"㋐　N　を告げる　（つげる）：告 từ Hán Việt là CÁO trong quảng cáo. Động từ là tsugeru, có nghĩa là: nói, thông báo, thưa kiện. \n\n- Trong bài hát, dòng [12] 別れを告げる: nói lời chia tay, 別れ(わかれ: chia tay. Nó bắt nguồn từ động từ wakareru, động từ thể masu, bỏ masu thì thành \"\"giả\"\" danh từ.)\"\n\n㋑　運命　（うんめい）：từ Hán Việt: VẬN MỆNH. Có nghĩa: vận mệnh, duyên số, cuộc đời.\n\n㋒　残酷　（ざんこく）：Hán Việt: TÀN KHỐC; tàn khốc, khắc nghiệt, nghiệt ngã...\n\n㋓　涙　が　涸れる（なみだ　が　かれる）：涸: Hán Việt: HẠC: cạn khô, hết. 涙が涸れて㋓　止まるまで: cho đến khi dòng lệ cạn khô.\n\n㋔　ささやか（な）：mong manh, mỏng manh\n--------------------------------------------------------------\n◆　Các ngữ pháp mình muốn ôn trong bài hát này từ ①～➇. \nTa sẽ đi từng ngữ pháp một：\n\n● ①抱きしめる\nĐây là động từ ghép giữa dakimasu, bỏ masu + simeru. Simeru có thể là động từ của từ Hán: ĐẾ （締める）: thắt, xiết chặt; vd: 紐を締める　（ひもをしめる）: thắt/cột/ xiết dây.\nCông thức chung:  V（ます）+ しめる: \nShimeru sẽ bổ nghĩa thêm trạng thái của động từ trước nó, V ... chặt lấy/ xiết lấy.\"\n\n●②酔いしれる\nTương tự, đây cũng là động từ ghép: 酔う(TÚY) + しれる:\n\n- Trong đó TÚY là say. Say (bởi) gì thí に đó.\nVd: 恋に酔う(koi ni you ): say tình; 酒に酔う(sake ni you): say rượu.\n- しれる có thể bắt nguồn từ chữ SI：痴: si mê, chìm đắm, ngu muội, ngu si...\n\nDo đó Sireru sẽ bổ nghĩa cho động từ trước đó; 酔いしれる: say túy lúy, say mê, điên đảo, chìm đắm, ngập trong mê muội...\"\n\n●③～ながらも\nV1 (masu) + nagaramo: mặc dù V1...\n\n●④～ほど\n　V(辞書形）＋ほど, phrase 2：tới mức V...: dùng để nhấn mạnh ý muốn nói vào vế sau.\n\n●⑤Vて＋しまう\n- Thể hiện sự nuối tiếc vì đã làm V.\n- Lỡ làm V rồi...: thể hiện sự không kìm chế được.\n\n********** Ta thử dịch từ dòng [3] đến [8] *********\n　　Em, một người đang chìm đắm trong hạnh phúc dẫu mỏng manh, và con tim vẫn biết biết rằng giấc mơ rồi cũng lụi tàn một lúc nào đó. Vậy đó, nhưng em đã lỡ yêu anh mất rồi, yêu anh hơn tất thảy bản thân mình...\n******************************************\n●⑥V否定＋ずに　=　Vないで\nĐồng nghĩa với Vないで: Không làm V\n言わないで＝言わずに\n離さないで＝離さずに\"\n●⑦V辞書形＋ばかり (だ) =【ますます～していく】\n- Miêu tả sự tiến triển có khuynh hướng ngày càng xấu đi.\n\n----------------------------------------------------------------------\n●　Và đây là bài tập cho các bạn:\n\n1. Dịch các câu còn lại: [10] ~ [27]\n2. Bài hát này đã có version tiếng Việt, đố mem nào biết version tiếng Việt của nó là bài nào?\n--------------------------------------------------------------------- \n[Chuyên mục: Học tiếng Nhật qua bài hát]\nBiên tập viên: Phuong Thao Tran: 日本語は難しいですが、面白いです。Chúc các bạn vui !!!","created_time":"2013-12-10T11:02:08+0000","updated_time":"2013-12-31T07:02:07+0000","likes":{"data":{"100006326500790":{"id":"100006326500790","name":"Yến Pucca"},"100000221147466":{"id":"100000221147466","name":"Kiệt Nguyễn"},"100002887947757":{"id":"100002887947757","name":"Nguyen Dang"},"100007015029011":{"id":"100007015029011","name":"Hao Hai Duong"},"100002762270141":{"id":"100002762270141","name":"Mien Nguyen"},"100006520210904":{"id":"100006520210904","name":"Miu Miu"},"100001416272263":{"id":"100001416272263","name":"Mai PB"},"100001458099624":{"id":"100001458099624","name":"Kham Pha"},"100001526631937":{"id":"100001526631937","name":"Tường Oanh Mineko"},"100004392823234":{"id":"100004392823234","name":"Anh Dũng Nguyễn"},"100005801442456":{"id":"100005801442456","name":"An Nguyen"},"1816269439":{"id":"1816269439","name":"Dao Ngoc"},"100000359762118":{"id":"100000359762118","name":"Mi Tra"}},"paging":{"cursors":{"after":"MTAwMDA2MzI2NTAwNzkw","before":"MTAwMDA2MzI2NTAwNzkw"},"next":"https://graph.facebook.com/229244010425617_774982035851809/likes?limit=1&summary=1&after=MTAwMDA2MzI2NTAwNzkw"},"summary":{"total_count":14}},"comments":{"data":{"774984109184935":{"id":"774984109184935","from":{"id":"100000359762118","name":"Mi Tra"},"message":"Chị Thảo chắc là hát hay nhỉ. Em sở đoản là hát nên ko mấy khi hát ^^","can_remove":false,"created_time":"2013-12-10T11:07:59+0000","like_count":1,"user_likes":false},"774985652518114":{"id":"774985652518114","from":{"id":"569263718","name":"Phuong Thao Tran"},"message":"không có đâu Mi Tra, thiếu cái gì, dỡ cái gì thì thích cái đó thôi, ^^","message_tags":[{"id":"100000359762118","name":"Mi Tra","type":"user","offset":13,"length":6}],"can_remove":false,"created_time":"2013-12-10T11:12:36+0000","like_count":0,"user_likes":false},"774986432518036":{"id":"774986432518036","from":{"id":"100000359762118","name":"Mi Tra"},"message":"^^ \nE thì dở là tránh xa, ko dám bén mảng tới ^^","can_remove":false,"created_time":"2013-12-10T11:14:58+0000","like_count":1,"user_likes":false},"775737635776249":{"id":"775737635776249","from":{"id":"100001458099624","name":"Kham Pha"},"message":"sao bài hay thế này hôm trước lại ko thấy nhỉ, cảm ơn chị :)","can_remove":false,"created_time":"2013-12-11T17:43:07+0000","like_count":1,"user_likes":false},"775915652425114":{"id":"775915652425114","from":{"id":"569263718","name":"Phuong Thao Tran"},"message":"cảm ơn em đã ủng hộ, ^^","can_remove":false,"created_time":"2013-12-12T01:30:08+0000","like_count":0,"user_likes":false},"775916622425017":{"id":"775916622425017","from":{"id":"100001416272263","name":"Mai PB"},"message":"Anh update vào doc cho e rồi đó.","can_remove":false,"created_time":"2013-12-12T01:32:49+0000","like_count":1,"user_likes":false},"775918762424803":{"id":"775918762424803","from":{"id":"569263718","name":"Phuong Thao Tran"},"message":"dạ, cảm ơn anh, anh thiệt là tử tế, (^_-)","can_remove":false,"created_time":"2013-12-12T01:39:17+0000","like_count":0,"user_likes":false},"775940205755992":{"id":"775940205755992","from":{"id":"100001416272263","name":"Mai PB"},"message":"どういたしまして","can_remove":false,"created_time":"2013-12-12T02:20:04+0000","like_count":0,"user_likes":false},"787563494593663":{"id":"787563494593663","from":{"id":"100002762270141","name":"Mien Nguyen"},"message":":)hay quá , cảm ơn chị","can_remove":false,"created_time":"2013-12-31T07:02:07+0000","like_count":0,"user_likes":false}},"paging":{"cursors":{"after":"Nzc0OTg0MTA5MTg0OTM1","before":"Nzc0OTg0MTA5MTg0OTM1"},"next":"https://graph.facebook.com/229244010425617_774982035851809/comments?limit=1&summary=1&after=Nzc0OTg0MTA5MTg0OTM1"},"summary":{"order":"chronological","total_count":9}}}