{"id":"229244010425617_774992429184103","type":"status","from":{"id":"100007015261176","name":"Anata Ni Deaete Yokatta"},"message":"các bạn trai học nhé!tha hồ mà tán gái nhe!\n\n君(きみ)は僕(ぼく)の知(し)っている中(なか)で最(もっと)も美(うつく)しい女性(じょせい)だ。Em là người đẹp nhất trong những người con gái anh từng biết.\n\nきれいな目(め)をしているね。Mắt em đẹp quá.\n\n君(きみ)に夢中(むちゅう)なんだ。Anh muốn điên lên vì em.\n\n君(きみ)に会(あ)っていなかったらよかったんだが。。。Nếu đã không gặp em thì tốt biết bao.\n\n君(きみ)は僕(ぼく)の好(この)みのタイプなんだ。Em là người anh thích.\n\n君(きみ)は僕(ぼく)を幸(しあわ)せな気持(きも)ちにさせてくれるよ。Anh tin là em sẽ làm anh hạnh phúc.\n\n君(きみ)と知(し)り合(あ)えて幸(しあわ)せだよ。Anh vô cùng hạnh phúc khi biết em.\n\nやさしいね。Em ngọt ngào quá.\n\n色(いろ)っぽいね。Em hấp dẫn quá.\n\n手(て)をつないで歩(ある)こう。Cùng nắm tay nhé.\n\n手(て)をつないでもいい？Anh cầm tay em được không?\n\n君(きみ)はきれいだ。Em đẹp lắm.\n\n君(きみ)が全(すべ)てだ。Em là tất cả của anh.\n\n僕(ぼく)は君(きみ)のものだ。Anh là của em.\n\n君(きみ)なしでは生(い)きられないんだ。Anh không thể sống thiếu em.\n\nもっと僕(ぼく)に近(ちか)づいてくれ。Lại gần anh hơn đi.\n\n僕(ぼく)は君(きみ)のことで頭(あたま)がいっぱいなんだ。Suốt ngày anh chỉ nghĩ đến em.\n\n君(きみ)のような人(ひと)は世界(せかい)に二人(ふたり)いない。Người như em thì trên thế giới này không có hai.\n\n君(きみ)のためなら何(なに)も惜(お)しくないよ。Vì em, anh không tiếc bất cứ gì.\n\nきつく抱(だ)いてくれ。Ôm chặt anh đi.\n\n君(きみ)を好(す)きにならずにいられないんだ。Thích em đến nỗi không chịu được.\n\nこんな気持(きも)ちになったのは初(はじ)めてだ。Lần đầu tiên anh mới có cảm giác như thế này.\n\nやさしくして。Nhẹ ngàng thôi.\n\nもっと愛(あい)して。Yêu anh nữa đi em.\n\n結婚(けっこん)してくれますか。Em lấy anh nhé?\n\n君(きみ)を愛(あい)しているけど結婚(けっこん)はできないんだよ。Anh yêu em nhưng không thể cưới em.\n\n僕(ぼく)には君(きみ)しかいないんだ。Anh chỉ có mỗi mình em.\n\n永遠(えいえん)に君(きみ)を愛(あい)するよ。Anh sẽ yêu em trọn đời.\n\n僕(ぼく)はいつも本心(ほんしん)を話(はな)しているよ。Lúc nào anh cũng nói thật lòng mình với em.\n\n私(わたし)が好(す)きなら私(わたし)の犬(いぬ)も可愛(かわい)がれ。Yêu anh thì phải thích luôn con chó của anh luôn đấy.","created_time":"2013-12-10T11:32:18+0000","updated_time":"2013-12-11T03:52:24+0000","likes":{"data":{"100003874832426":{"id":"100003874832426","name":"Tú Còi"},"100004094346107":{"id":"100004094346107","name":"Thuy Nga Nguyen"},"100003055356509":{"id":"100003055356509","name":"Thuan Nguyen"},"100001570974927":{"id":"100001570974927","name":"Rose Pham"},"100005337850702":{"id":"100005337850702","name":"Xứ Tuyết"},"100004123294724":{"id":"100004123294724","name":"Hà CHíp"},"1821970083":{"id":"1821970083","name":"Nguyễn Mạnh Cường"},"100000174004700":{"id":"100000174004700","name":"Nguyễn Việt Hưng"},"100001754136107":{"id":"100001754136107","name":"Nguyễn Tuấn Vũ"},"100005813941367":{"id":"100005813941367","name":"TY Tran"},"1783190483":{"id":"1783190483","name":"Trần Xuân Hiệp"},"100001526631937":{"id":"100001526631937","name":"Tường Oanh Mineko"},"100004984783476":{"id":"100004984783476","name":"Hai Nguyen"},"100000359762118":{"id":"100000359762118","name":"Mi Tra"},"100005690740678":{"id":"100005690740678","name":"Bui Thanh Tung"},"1431049967":{"id":"1431049967","name":"Nguyen Manh Cuong"},"100001738887873":{"id":"100001738887873","name":"Hoang Le"},"100005684619923":{"id":"100005684619923","name":"Le Thieu"},"100002793054191":{"id":"100002793054191","name":"Lai Vuong"},"100000435964224":{"id":"100000435964224","name":"Hiền Lê"},"100001058098161":{"id":"100001058098161","name":"DoTa Allstar"},"1026780646":{"id":"1026780646","name":"Việt Hưng Khổng"},"100005934548279":{"id":"100005934548279","name":"Cậu Bé Buồn"},"100005801442456":{"id":"100005801442456","name":"An Nguyen"},"100004041794244":{"id":"100004041794244","name":"Watanuki Kimihiro"},"100007015261176":{"id":"100007015261176","name":"Anata Ni Deaete Yokatta"}},"paging":{"cursors":{"after":"MTAwMDAzODc0ODMyNDI2","before":"MTAwMDAzODc0ODMyNDI2"},"next":"https://graph.facebook.com/229244010425617_774992429184103/likes?limit=1&summary=1&after=MTAwMDAzODc0ODMyNDI2"},"summary":{"total_count":26}},"comments":{"data":{"774993205850692":{"id":"774993205850692","from":{"id":"100001416272263","name":"Mai PB"},"message":"Bài này là copy ở đâu đó rồi, và thực ra cũng khá vô duyên, chỉ hợp với mấy anh lấc cấc thôi. Hỏi người Nhật xem, họ chạy ngay. :-) Bạn ghi link nguồn đi nhé.","can_remove":false,"created_time":"2013-12-10T11:34:53+0000","like_count":11,"user_likes":false},"774993959183950":{"id":"774993959183950","from":{"id":"100005934548279","name":"Cậu Bé Buồn"},"message":"omg","can_remove":false,"created_time":"2013-12-10T11:37:30+0000","like_count":1,"user_likes":false},"774997169183629":{"id":"774997169183629","from":{"id":"100004676732713","name":"Bét Tè Lè Nhè"},"message":"どうもありがとうございます。","can_remove":false,"created_time":"2013-12-10T11:42:00+0000","like_count":1,"user_likes":false},"775002729183073":{"id":"775002729183073","from":{"id":"100006480494916","name":"Thúy Nguyễn"},"message":"Khang BN","message_tags":[{"id":"100003508657294","name":"Khang BN","type":"user","offset":0,"length":8}],"can_remove":false,"created_time":"2013-12-10T11:58:42+0000","like_count":0,"user_likes":false},"775009292515750":{"id":"775009292515750","from":{"id":"100005690740678","name":"Bui Thanh Tung"},"message":"Lấc cấc cũng được , còn hơn không biết nói cái gì :D","can_remove":false,"created_time":"2013-12-10T12:20:07+0000","like_count":0,"user_likes":false},"775013605848652":{"id":"775013605848652","from":{"id":"100001416272263","name":"Mai PB"},"message":"Chỉ cần nhớ 3 từ: su-ki-da ;-)","can_remove":false,"created_time":"2013-12-10T12:30:17+0000","like_count":0,"user_likes":false},"775023772514302":{"id":"775023772514302","from":{"id":"100004392823234","name":"Anh Dũng Nguyễn"},"message":"Hay nhg kho nho qua.","can_remove":false,"created_time":"2013-12-10T12:51:04+0000","like_count":0,"user_likes":false},"775029095847103":{"id":"775029095847103","from":{"id":"100000442929887","name":"Mike Yi"},"message":"chỉ cần nhớ 3 từ : ホテル hoteru","can_remove":false,"created_time":"2013-12-10T13:01:12+0000","like_count":0,"user_likes":false},"775033815846631":{"id":"775033815846631","from":{"id":"100002451143782","name":"New Light"},"message":"Phúc Long","message_tags":[{"id":"100005811458124","name":"Phúc Long","type":"user","offset":0,"length":9}],"can_remove":false,"created_time":"2013-12-10T13:10:58+0000","like_count":1,"user_likes":false},"775042455845767":{"id":"775042455845767","from":{"id":"100004614840382","name":"Amy Parker"},"message":"Định Cận","message_tags":[{"id":"1263582291","name":"Định Cận","type":"user","offset":0,"length":8}],"can_remove":false,"created_time":"2013-12-10T13:32:19+0000","like_count":0,"user_likes":false},"775044355845577":{"id":"775044355845577","from":{"id":"100004676732713","name":"Bét Tè Lè Nhè"},"message":"aishiteru","can_remove":false,"created_time":"2013-12-10T13:36:22+0000","like_count":0,"user_likes":false},"775058695844143":{"id":"775058695844143","from":{"id":"100005811458124","name":"Phúc Long"},"message":"Chờ đến lúc em nó  học tiếng Nhật rồi tìm hiểu :v","can_remove":false,"created_time":"2013-12-10T14:01:02+0000","like_count":0,"user_likes":false},"775080669175279":{"id":"775080669175279","from":{"id":"100007015261176","name":"Anata Ni Deaete Yokatta"},"message":"https://www.facebook.com/pages/Gia-s%C6%B0-t%C6%B0%C6%A1ng-lai-%E5%B0%86%E6%9D%A5%E5%AE%B6%E5%BA%AD%E6%95%99%E5%B8%AB/171701843033710","can_remove":false,"created_time":"2013-12-10T14:52:05+0000","like_count":0,"user_likes":false},"775085245841488":{"id":"775085245841488","from":{"id":"100007015261176","name":"Anata Ni Deaete Yokatta"},"message":"các bạn vô tham gia học cùng Gia sư tươnglai nhé!","can_remove":false,"created_time":"2013-12-10T15:00:31+0000","like_count":0,"user_likes":false},"775085692508110":{"id":"775085692508110","from":{"id":"100007015261176","name":"Anata Ni Deaete Yokatta"},"message":"bài này mình tự soạn nhe!lấc cấc mà có người đọc thì cũng không  uổng","can_remove":false,"created_time":"2013-12-10T15:01:28+0000","like_count":0,"user_likes":false},"775403822476297":{"id":"775403822476297","from":{"id":"100003143578550","name":"Vn Tim"},"message":"これがすきです。","can_remove":false,"created_time":"2013-12-11T02:47:36+0000","like_count":0,"user_likes":false},"775428902473789":{"id":"775428902473789","from":{"id":"100001580358429","name":"Hoai Nam Do"},"message":"Dịch có vẻ không sát nghĩa lắm,đa số nhưng câu này người nhật cũng không dùng nhưng các bạn mới học mà nói được mấy câu này có thể đối phương sẽ cảm thấy thú vị.@^=^@.","can_remove":false,"created_time":"2013-12-11T03:52:24+0000","like_count":0,"user_likes":false}},"paging":{"cursors":{"after":"Nzc0OTkzMjA1ODUwNjky","before":"Nzc0OTkzMjA1ODUwNjky"},"next":"https://graph.facebook.com/229244010425617_774992429184103/comments?limit=1&summary=1&after=Nzc0OTkzMjA1ODUwNjky"},"summary":{"order":"chronological","total_count":17}}}