{"id":"229244010425617_774914042525275","type":"link","picture":"https://fbexternal-a.akamaihd.net/safe_image.php?d=AQAcEW75PKLEViHn&w=154&h=154&url=http%3A%2F%2Flh6.ggpht.com%2F-Xy24hQaIxmI%2FUqTOvD3dWmI%2FAAAAAAAAnmE%2FdEYWuChsEp4%2Fclip_image002%2525255B4%2525255D.jpg%3Fimgmax%3D800","link":"http://boxitvn.blogspot.com/2013/12/chung-minh-nhan-dan-theo-mau-moi-thiet.html#more","from":{"id":"100000381394367","name":"Thành Nguyễn"},"message":"ベトナムの政権は中国が糸を引く傀儡政権じゃないか？\n\nHọa mất nước\n\n*Việc một công ty nước ngoài cung cấp vật tư, kỹ thuật cho Việt Nam là việc làm khả dĩ, tuy nhiên Trung Quốc nắm kỹ thuật làm CMND cho người Việt Nam là việc làm vô cùng nguy hiểm. Trung Quốc có khả năng làm giả CMND cho các gián điệp người Hoa vào tận sâu trong lục địa VN một cách dễ dàng, chưa kể chúng đưa người vào các cơ quan nhà nước, các cơ sở trọng yếu một cách hoàn toàn hợp pháp với thẻ CMND làm giả như thật. Đến một ngày khi lực lượng đã đầy đủ thì việc ngoại công, nội kích để chiếm Việt Nam dễ như trở bàn tay.","created_time":"2013-12-10T07:27:46+0000","updated_time":"2013-12-11T07:28:41+0000","likes":{"data":{"100003874832426":{"id":"100003874832426","name":"Tú Còi"},"100002907638629":{"id":"100002907638629","name":"Huyền Trang"},"100004450956167":{"id":"100004450956167","name":"Thắng Satoh"},"100003165554056":{"id":"100003165554056","name":"Sâu Bét"},"100000327567743":{"id":"100000327567743","name":"Tuyetnhung Nguyen"},"100002493236333":{"id":"100002493236333","name":"Lân Nguyễn Quốc"},"100005883573413":{"id":"100005883573413","name":"Thanh Vu"},"100000042138129":{"id":"100000042138129","name":"Duong David"},"100002722604276":{"id":"100002722604276","name":"Lê xuân Hưng"},"100000313631896":{"id":"100000313631896","name":"Bao Bui Van"},"100002163371136":{"id":"100002163371136","name":"Rei Idea N"},"1824015127":{"id":"1824015127","name":"Bùi Quang Tân"},"1023965040":{"id":"1023965040","name":"Juli KimChi"},"100003512453640":{"id":"100003512453640","name":"Cá Midori"},"100001526631937":{"id":"100001526631937","name":"Tường Oanh Mineko"},"100001856370985":{"id":"100001856370985","name":"Anh Nguyen"},"100002754998000":{"id":"100002754998000","name":"Nguyen Duc"},"100005694491959":{"id":"100005694491959","name":"Phuong Truong Thi Thanh"},"100000280776405":{"id":"100000280776405","name":"Viet Nguyen Thanh"},"100001231404357":{"id":"100001231404357","name":"Quoc Anh"},"100004101462769":{"id":"100004101462769","name":"Thao Vo"},"100000301107340":{"id":"100000301107340","name":"Bảo Bảnh Bao"},"100004407691578":{"id":"100004407691578","name":"Phan Hùng"},"100004923553810":{"id":"100004923553810","name":"Xuan KY Nguyen"},"100001617411360":{"id":"100001617411360","name":"Haikogmotba Namhaibay Tammotchinh"},"100003780948776":{"id":"100003780948776","name":"Sâu Đặng"},"100002451143782":{"id":"100002451143782","name":"New Light"},"100003875131996":{"id":"100003875131996","name":"Ngoc Anh"},"100002157379029":{"id":"100002157379029","name":"Nguyen Hai Dung"},"1821970083":{"id":"1821970083","name":"Nguyễn Mạnh Cường"},"100003762427351":{"id":"100003762427351","name":"Hiroshi Yasu Oki"},"100003143534122":{"id":"100003143534122","name":"Thuong Hoai"},"100000288625882":{"id":"100000288625882","name":"Viet Hoang"},"100001416272263":{"id":"100001416272263","name":"Mai PB"},"100000866044857":{"id":"100000866044857","name":"Nguyen Hanh"},"100000027754899":{"id":"100000027754899","name":"Hoang Van Ba"},"100002871405403":{"id":"100002871405403","name":"Thach Sanh"},"1416265619":{"id":"1416265619","name":"Starwar Bbj"},"100000442929887":{"id":"100000442929887","name":"Mike Yi"},"100001318098340":{"id":"100001318098340","name":"Trang Anh"},"100000190521247":{"id":"100000190521247","name":"Sữa Nhí Nhố"},"100002425221505":{"id":"100002425221505","name":"Đặng Xuân Anh"},"1146680551":{"id":"1146680551","name":"優しい なぁ"},"100003610875421":{"id":"100003610875421","name":"Muoi Nhieu Ot"},"100001262073625":{"id":"100001262073625","name":"Noy Oka"},"100000182246115":{"id":"100000182246115","name":"Tien Nguyen"},"100004362480675":{"id":"100004362480675","name":"Đi Tìm Thất Bại"},"100000979888687":{"id":"100000979888687","name":"Tran Long"},"100005703791922":{"id":"100005703791922","name":"Hoa Tiên Tử"},"100000603915176":{"id":"100000603915176","name":"悪いな ぁ"},"100005801442456":{"id":"100005801442456","name":"An Nguyen"},"100003055356509":{"id":"100003055356509","name":"Thuan Nguyen"}},"paging":{"cursors":{"after":"MTAwMDAzODc0ODMyNDI2","before":"MTAwMDAzODc0ODMyNDI2"},"next":"https://graph.facebook.com/229244010425617_774914042525275/likes?limit=1&summary=1&after=MTAwMDAzODc0ODMyNDI2"},"summary":{"total_count":54}},"comments":{"data":{"774916005858412":{"id":"774916005858412","from":{"id":"100003055356509","name":"Thuan Nguyen"},"message":"Trụ sở bộ công an Trung Quốc còn thắng thầu cơ mà anh.","can_remove":false,"created_time":"2013-12-10T07:35:03+0000","like_count":1,"user_likes":false},"774916322525047":{"id":"774916322525047","from":{"id":"100005801442456","name":"An Nguyen"},"message":"(ｰｰ;)","can_remove":false,"created_time":"2013-12-10T07:36:35+0000","like_count":0,"user_likes":false},"774916819191664":{"id":"774916819191664","from":{"id":"100002472470715","name":"Phan Duy Hùng"},"message":"NGUY HIỂM THẾ","can_remove":false,"created_time":"2013-12-10T07:38:27+0000","like_count":0,"user_likes":false},"774917652524914":{"id":"774917652524914","from":{"id":"100004362480675","name":"Đi Tìm Thất Bại"},"message":"nhà nước việt nam càng ngày càng tỏ ra yếu kém vô dụng có cái chứng minh thư cũng phải nhờ trung quốc thế thì chịu","can_remove":false,"created_time":"2013-12-10T07:41:43+0000","like_count":0,"user_likes":false},"774919649191381":{"id":"774919649191381","from":{"id":"100000250256418","name":"Nguyen Viet Anh"},"message":"Thôi, thế này là xong thật rồi.","can_remove":false,"created_time":"2013-12-10T07:45:50+0000","like_count":1,"user_likes":false},"774920535857959":{"id":"774920535857959","from":{"id":"100002472470715","name":"Phan Duy Hùng"},"message":"Chẳng bao lâu nữa nước ta sẽ có trên 1 tỉ dân, ôi vãi","can_remove":false,"created_time":"2013-12-10T07:48:53+0000","like_count":2,"user_likes":false},"774929549190391":{"id":"774929549190391","from":{"id":"100000250256418","name":"Nguyen Viet Anh"},"message":"Tại sao đã biết Tàu nó thâm như thế rồi mà vẫn còn bày trò tiếp tay cho bọn nó để bán nước được? Tiền quan trọng đến thế hay sao?","can_remove":false,"created_time":"2013-12-10T08:18:10+0000","like_count":0,"user_likes":false},"774931452523534":{"id":"774931452523534","from":{"id":"1094162178","name":"Ngô Vũ Hoàng"},"message":"http://m.soha.vn/xa-hoi/khong-co-chuyen-cmnd-moi-do-trung-quoc-san-xuat-20131210093150167.htm","can_remove":false,"created_time":"2013-12-10T08:25:41+0000","like_count":3,"user_likes":false},"774932625856750":{"id":"774932625856750","from":{"id":"100000603915176","name":"悪いな ぁ"},"message":"Vậy còn để xem lão ấy đưa ra phôi chuẩn :)","can_remove":false,"created_time":"2013-12-10T08:30:46+0000","like_count":0,"user_likes":false},"774938132522866":{"id":"774938132522866","from":{"id":"100001193749870","name":"Ông Văn Khiết"},"message":"thông tin đã chắc chắn chưa? cứ đưa lung tung k chịu kiểm tra rõ nguồn tin. rồi đưa lên chửi bới lung tung. chửi vậy có lợi cho nhà nước à. làm được j cho đất nước thì làm đi. ngồi mà chém.","can_remove":false,"created_time":"2013-12-10T08:48:51+0000","like_count":1,"user_likes":false},"774942635855749":{"id":"774942635855749","from":{"id":"100000603915176","name":"悪いな ぁ"},"message":"Vầng, kg dám chém nữa đâu ạ. Bác cũng tắt máy ngồi làm gì đó có lợi cho đất nước đi, đừng ngó nghiêng ngứa mắt :)","can_remove":false,"created_time":"2013-12-10T08:59:51+0000","like_count":2,"user_likes":false},"774945145855498":{"id":"774945145855498","from":{"id":"100003775274952","name":"Masahiro Kano"},"message":"どうして傀儡政権なんですか？本には中国とベトナムの仲はあまり良くないって聞きますが.....","can_remove":false,"created_time":"2013-12-10T09:06:56+0000","like_count":3,"user_likes":false},"774948159188530":{"id":"774948159188530","from":{"id":"100000603915176","name":"悪いな ぁ"},"message":"正解、べとなむの政権は中国の傀儡と思っています。","can_remove":false,"created_time":"2013-12-10T09:17:12+0000","like_count":0,"user_likes":false},"774948205855192":{"id":"774948205855192","from":{"id":"100001193749870","name":"Ông Văn Khiết"},"message":"làm j mà nóng thế cháu, bác có làm j đâu","can_remove":false,"created_time":"2013-12-10T09:17:21+0000","like_count":0,"user_likes":false},"774948389188507":{"id":"774948389188507","from":{"id":"100000603915176","name":"悪いな ぁ"},"message":"Dạ, cháu có nóng đâu, tại đầu bác tự nóng thôi :)","can_remove":false,"created_time":"2013-12-10T09:18:13+0000","like_count":0,"user_likes":false},"774948502521829":{"id":"774948502521829","from":{"id":"100001193749870","name":"Ông Văn Khiết"},"message":"chắc vậy. vậy mắt cháu cũng tự ngứa thôi","can_remove":false,"created_time":"2013-12-10T09:18:40+0000","like_count":0,"user_likes":false},"774949262521753":{"id":"774949262521753","from":{"id":"100000603915176","name":"悪いな ぁ"},"message":"愚かな ^^","can_remove":false,"created_time":"2013-12-10T09:20:15+0000","like_count":0,"user_likes":false},"774950459188300":{"id":"774950459188300","from":{"id":"100001193749870","name":"Ông Văn Khiết"},"message":":v. lại chửi đổng rồi. vậy là k tốt đâu.","can_remove":false,"created_time":"2013-12-10T09:23:55+0000","like_count":0,"user_likes":false},"774950619188284":{"id":"774950619188284","from":{"id":"100000603915176","name":"悪いな ぁ"},"message":"Thì nhìn cái tên là biết không tốt rồi mà =))","can_remove":false,"created_time":"2013-12-10T09:24:35+0000","like_count":0,"user_likes":false},"774951055854907":{"id":"774951055854907","from":{"id":"100001193749870","name":"Ông Văn Khiết"},"message":"haiiiiiii. còn bé mà dạy k chịu nghe. đành chịu.","can_remove":false,"created_time":"2013-12-10T09:25:38+0000","like_count":0,"user_likes":false},"774951229188223":{"id":"774951229188223","from":{"id":"100000603915176","name":"悪いな ぁ"},"message":"(y)","can_remove":false,"created_time":"2013-12-10T09:26:22+0000","like_count":0,"user_likes":false},"774956395854373":{"id":"774956395854373","from":{"id":"100001416272263","name":"Mai PB"},"message":"Thông tin cần chính xác, đương nhiên rồi. Nhưng đáng tiếc là thông tin từ Nhà nước thường là dối trá, bưng bít, lấp liếm. Làn sao đây? Không cho chém thật mà chém trên FB cũng kêu ca? Ca ngợi thì có lợi cho Nhà Nước à? Các nước càng phát triển càng có công luận nghiêm khắc, nhờ vậy các nhà nước mới khó làm bậy. Nhà nước có công cụ là quân đội, công an, tòa án, báo chí trong tay, còn nhân dân chỉ có mỗi cái mồm và bàn phím mà thôi, cũng định đoạt nốt sao?","can_remove":false,"created_time":"2013-12-10T09:41:31+0000","like_count":12,"user_likes":false},"774958362520843":{"id":"774958362520843","from":{"id":"100001416272263","name":"Mai PB"},"message":"Quên, nhân dân còn có smartphone nữa :-)","can_remove":false,"created_time":"2013-12-10T09:48:47+0000","like_count":4,"user_likes":false},"774958755854137":{"id":"774958755854137","from":{"id":"100000603915176","name":"悪いな ぁ"},"message":"I like this comment, I have a smartphone too :v","can_remove":false,"created_time":"2013-12-10T09:49:42+0000","like_count":1,"user_likes":false},"774961452520534":{"id":"774961452520534","from":{"id":"100000603915176","name":"悪いな ぁ"},"message":"Á à, vậy là cũng có tư tưởng trỗi dậy nên mới sợ chứ gì? Cứ sợ đi, một ngày nào đó tự khắc hết sợ ;)","can_remove":false,"created_time":"2013-12-10T09:58:45+0000","like_count":0,"user_likes":false},"774963249187021":{"id":"774963249187021","from":{"id":"100000381394367","name":"Thành Nguyễn"},"message":"Masahiro Kano san :上の記事によると、ベトナム人の身分書は中国によって生産する疑問があります。だったらベトナムの国家安全保障は危険になり、ベトナム人たちが心配しています。","can_remove":false,"created_time":"2013-12-10T10:04:58+0000","like_count":5,"user_likes":false},"774964969186849":{"id":"774964969186849","from":{"id":"100002472470715","name":"Phan Duy Hùng"},"message":"Mình là người dân của một nước nhỏ bé, có những cái mà sức lực của 1 cá nhân khó lòng làm được, cái gọi là \"tự do ngôn luận\" nên hiểu là \"tự do im lặng\" đó là cách tốt để được sống bình yên. Chí thú làm ăn làm cho dân giàu nước mạnh là được rồi. Tư tưởng dân tộc cực đoan chỉ hại bản thân thôi, vì thế có lúc em sợ cả chính suy nghĩ của mình, biểu hiện ra lời nói là luôn cẩn trọng, 0 nghe, 0 thấy, 0 biết, 0 bình luận, 0 tham gia","can_remove":false,"created_time":"2013-12-10T10:11:51+0000","like_count":1,"user_likes":false},"774965175853495":{"id":"774965175853495","from":{"id":"100000027754899","name":"Hoang Van Ba"},"message":"Lên tiếng thì bị cho là phản phản động bán nước ....\nKo lên tiếng thì lại như bù nhìn","can_remove":false,"created_time":"2013-12-10T10:12:48+0000","like_count":0,"user_likes":false},"774965665853446":{"id":"774965665853446","from":{"id":"100000603915176","name":"悪いな ぁ"},"message":"Em đang bình luận, đang tham gia đấy thôi Phan Duy Hùng :)","message_tags":[{"id":"100002472470715","name":"Phan Duy Hùng","type":"user","offset":42,"length":13}],"can_remove":false,"created_time":"2013-12-10T10:14:32+0000","like_count":0,"user_likes":false},"774967122519967":{"id":"774967122519967","from":{"id":"100002472470715","name":"Phan Duy Hùng"},"message":"Thế mới bảo là 0 nghe, 0 thấy, 0 biết, 0 tham gia\nMình sống để làm gì thì hãy sống vì mục đích đó\nいな　あ、lần này em cho phép mình tham gia và quan điểm của em ôn hòa, tay em có cho vào còng cũng có thể rút ra được","can_remove":false,"created_time":"2013-12-10T10:18:37+0000","like_count":0,"user_likes":false},"774967545853258":{"id":"774967545853258","from":{"id":"100000027754899","name":"Hoang Van Ba"},"message":"Vãi chú :)) thế thì mất nước cmnr :((\nMở to mắt ra mà nhìn. Há rộng mồm ra mà chửi mà kêu gào ( nhưng phải đúng chỗ ) PR : như t đây nè :))\nRồi căng tai ra mà nghe ;))","can_remove":false,"created_time":"2013-12-10T10:19:56+0000","like_count":0,"user_likes":false},"774967912519888":{"id":"774967912519888","from":{"id":"100000027754899","name":"Hoang Van Ba"},"message":"Phải cho con cháu thấy cái cần thấy. Giấu cái cần giấu :)) nhưng cái j ý nhỉ :))","can_remove":false,"created_time":"2013-12-10T10:21:07+0000","like_count":0,"user_likes":false},"774969455853067":{"id":"774969455853067","from":{"id":"100002472470715","name":"Phan Duy Hùng"},"message":"Hoang Van Ba, Vãi cả anh, em còn chưa có vợ, giả có vợ rồi cũng chưa có con, có con rồi thì còn phải nuôi con hưởng cuộc sống gia đình sum vầy, bác chí lớn thì bác làm việc lớn, chúng em chí nhỏ em làm việc nhỏ, chừng nào bác cần lon gạo củ khoai thì chúng em đem ra giúp bác thế cũng là tốt. Nếu mai kia dân mình có tăng lên đến trên 1 tỉ người, thì ta cũng phải sống như thế thôi. 0 phải bác đau lòng mà em 0 thấy xót xa chỉ là cái tôm cái tép làm sao mà đưa bà còng","can_remove":false,"created_time":"2013-12-10T10:26:37+0000","like_count":2,"user_likes":false},"774969589186387":{"id":"774969589186387","from":{"id":"100001193749870","name":"Ông Văn Khiết"},"message":"giật cái típ \" Họa mất nước\". Mai PB không ai phản bác chuyện tranh luận, đưa ra cái xấu, cái chưa tốt. nhưng việc đó nó khác với cái việc kêu ka này nọ, đưa ra những cái thông tin chưa thực sự chính xác làm hoang mang ng khác. có chắc rằng ai sau khi đọc cái thông tin đó rồi cũng tìm hiểu xem nó chính xác hay không k? k làm được j tốt đẹp thì đừng có làm việc nó xấu thêm.","can_remove":false,"created_time":"2013-12-10T10:27:07+0000","like_count":0,"user_likes":false},"774972152519464":{"id":"774972152519464","from":{"id":"100003307356273","name":"Xã Trưởng"},"message":"A dua, Phản động.\nÓc hạt mít nhưng miệng thì như cái ao làng.","can_remove":false,"created_time":"2013-12-10T10:35:02+0000","like_count":0,"user_likes":false},"774972702519409":{"id":"774972702519409","from":{"id":"100000603915176","name":"悪いな ぁ"},"message":"Cái tiêu đề đó không có gì là khó hiểu cả, nó phù hợp với nội dung của những nghi ngờ trong bài viết. Người đưa nội dung đó lên đây là bạn Thành Nguyễn, bạn ấy chưa hề chửi bới một câu nào, có chăng đưa lên mang tính chất cảnh báo, chia sẻ thông tin. Mọi người mới đọc xong nội dung và comment theo đó cũng chẳng có vấn đề gì hết. Nếu sau này tự bên bộ CA chứng minh được là nội dung đó sai thì quá tốt. Bạn nên tự xem lại đi, đã ai chửi câu nào? Khi mọi người to ra quan tâm đến tình hình đất nước là chỉ mong không có điều gì xấu, đó cũng là cách làm tốt cho đất nước. Còn bản thân bạn thì cho rằng đó là chém gió, đó là làm mọi chuyện xấu đi không có lợi cho đất nước. Đừng cho rằng mình khôn, nếu không biết tự bảo vệ, tự đề phòng từ trước, đợi đến lúc xảy ra rồi mới bắt đầu gào lên chửi bới thì muộn rồi.\n\nMột ví dụ cụ thể, nhìn lại cái Bộ Y tế đi, khi chưa xảy ra chuyện không ai nói gì. Không ai kiểm tra, không ai đề phòng. Rồi khi chết người, hàng loạt sai phạm xảy ra. Lúc đó mới lên tiếng thì có ý nghĩa gì không? Chết một đống người rồi. Đó là lý do bạn được nhận cái chữ \"愚かな\" đấy.","can_remove":false,"created_time":"2013-12-10T10:36:02+0000","like_count":7,"user_likes":false},"774974079185938":{"id":"774974079185938","from":{"id":"100001193749870","name":"Ông Văn Khiết"},"message":"đọc lại những coment xem.","can_remove":false,"created_time":"2013-12-10T10:40:25+0000","like_count":0,"user_likes":false},"774974595852553":{"id":"774974595852553","from":{"id":"100000603915176","name":"悪いな ぁ"},"message":"Có gì hot :v","can_remove":false,"created_time":"2013-12-10T10:42:08+0000","like_count":0,"user_likes":false},"774978545852158":{"id":"774978545852158","from":{"id":"100000381394367","name":"Thành Nguyễn"},"message":"Mình xin được comment thế này.\n\nĐầu tiên bài này được đăng trên boxite việt nam, những người chủ xướng diễn đàn này là những giáo sư đầu ngành trong và ngoài nước, trước kia là giáo sư Huệ Chi và bây giờ là giáo sư Phạm Xuân Yêm. Những con người đó trong mặt giới trí thức đều được coi là những người tiêu biểu bởi uy tín khoa học ( do đóng góp khoa học của họ ) và uy tín xã hội ( bởi nhân cách sống của họ được đồng nghiệp và học trò nể trọng). Nên bài từ đó đưa ra được coi là một nguồn tin cậy.\n\nĐiều thứ 2 là diễn đàn boxite mở ra nhằm mục đích cung cấp không gian mở cho việc tự do ngôn luận và phản biện xã hội, cung cấp cái nhìn đa chiều. Một khi đã là đa chiều thì đương nhiên sẽ có sự khác biệt trong nhận thức về tính đúng sai. \n\nKhi mình đăng lên đây với 1 comment duy nhất bằng tiếng Nhật và đó là một câu hỏi, tức là một nghi vấn, mình không khẳng định điều gì là đúng. \n\nĐoạn trích dẫn được lấy từ bài báo, họa mất nước là một mục trong đó, là mục mà mình muốn nhấn mạnh nên trích lại, không phải tít của bài báo.\n\nVà mình cũng không có ý định xúi giục người khác phải suy nghĩ giống như mình. Mọi người có quyền đọc và có ý kiến của mình, bản thân mỗi người chịu trách nhiệm về quan điểm và quyền phát biểu của mình nhưng chúng ta không chịu trách nhiệm cho quan điểm và ý kiến của người khác, thế nên nếu bạn nào không đồng tình thì có quyền nói rằng bạn không tin, bạn phủ nhận tin đó, những người tin có quyền comment với nội dung ngược lại. Và mình thì cũng có quyền đăng bài, chúng ta ai làm việc của người nấy không nên chĩa mũi nhọn vào nhau. Nước sông không phạm nước giếng.","can_remove":false,"created_time":"2013-12-10T10:53:07+0000","like_count":6,"user_likes":false},"774979545852058":{"id":"774979545852058","from":{"id":"100000381394367","name":"Thành Nguyễn"},"message":"Hãy nói cái mình nghĩ, xa hơn là phân tích kỹ thuật về nội dung bài viết cho mọi người được mở mang đầu óc nhờ kiến thức của các bạn hơn là nhồi quan điểm của mình vào đầu người khác.","can_remove":false,"created_time":"2013-12-10T10:55:55+0000","like_count":0,"user_likes":false},"774985515851461":{"id":"774985515851461","from":{"id":"100000603915176","name":"悪いな ぁ"},"message":"Gọi tao mày trong này có bị gọi là xúc phạm không Kham Pha?","message_tags":[{"id":"100001458099624","name":"Kham Pha","type":"user","offset":50,"length":8}],"can_remove":false,"created_time":"2013-12-10T11:12:05+0000","like_count":0,"user_likes":false},"774990959184250":{"id":"774990959184250","from":{"id":"100001416272263","name":"Mai PB"},"message":"Đình Sỹ Nguyễn nếu có ý định đe dọa ai thì xin mời xóa hoặc sửa comment đi nhé.","message_tags":[{"id":"100002857611713","name":"Đình Sỹ Nguyễn","type":"user","offset":0,"length":14}],"can_remove":false,"created_time":"2013-12-10T11:27:30+0000","like_count":0,"user_likes":false},"774994452517234":{"id":"774994452517234","from":{"id":"100005801442456","name":"An Nguyen"},"message":"Tư tưởng người dân bây giờ quá khó thay đổi nhỉ? Khi bị nhồi mấy chục năm rồi!","can_remove":false,"created_time":"2013-12-10T11:38:13+0000","like_count":0,"user_likes":false},"775053952511284":{"id":"775053952511284","from":{"id":"569263718","name":"Phuong Thao Tran"},"message":"link đã bị xóa , :(","can_remove":false,"created_time":"2013-12-10T13:48:36+0000","like_count":0,"user_likes":false},"775055299177816":{"id":"775055299177816","from":{"id":"100001416272263","name":"Mai PB"},"message":"Link nào? Link của chủ post thì vẫn còn đó.","can_remove":false,"created_time":"2013-12-10T13:52:13+0000","like_count":0,"user_likes":false},"775056089177737":{"id":"775056089177737","from":{"id":"569263718","name":"Phuong Thao Tran"},"message":"là link share ạ","can_remove":false,"created_time":"2013-12-10T13:54:09+0000","like_count":0,"user_likes":false},"775074445842568":{"id":"775074445842568","from":{"id":"100001720081525","name":"Diện Kun"},"message":"Mình nghĩ làm gì có ai \"không thông minh\" đến mức để trung quốc nắm được cách làm CMND @@","can_remove":false,"created_time":"2013-12-10T14:37:41+0000","like_count":0,"user_likes":false},"775079512508728":{"id":"775079512508728","from":{"id":"100002911187986","name":"Nghia Bui"},"message":"Mình không hiểu tại sao một chuyện liên quan tới chính trị của Việt Nam,có thể coi là chuyện trong nhà lại cần phải viết tiêu đề bằng tiếng nhật và giải thích cho một người nhật vậy????","can_remove":false,"created_time":"2013-12-10T14:49:19+0000","like_count":3,"user_likes":false},"775101665839846":{"id":"775101665839846","from":{"id":"100002526707690","name":"Phan Toan"},"message":"mình đồng ý với bạn nghĩa bùi và mình nghĩ những bài như thế này chẳng liên quan đến cộng đồng việt - nhât để post cả.","can_remove":false,"created_time":"2013-12-10T15:33:19+0000","like_count":2,"user_likes":false},"775393929143953":{"id":"775393929143953","from":{"id":"100000381394367","name":"Thành Nguyễn"},"message":"bạn Nghia Bui và Phan Toan thân mến.\n\nTrước đây các bài post rên group đều quy định là phải có nội dung liên quan đến Nhật bản mới post, sau đó có nhiều bạn có ý kiến là đã là cộng đồng Việt Nhật thì phải có cả Nhật cả Việt, các bạn nói có những vấn đề thời sự quan trọng mọi người cùng quan tâm và muốn đưa ra bàn luận. \n\nNên theo nguyện vọng đó Admin đã thay đổi nội quy để mở rộng chủ đề có thể đăng lên, đó là những chủ đề liên quan đến đất nước ở tầm vĩ mô ( vì đã là người Việt thì hầu hết đều quan tâm đến nó ). Dù vậy để đăng những bài như vậy thì phải có một điều kiện đi kèm đó là các bạn phải có bình luận nhận xét, phân tích nội dung đăng tải trong sự so sánh với Nhật Bản, hoặc viết description cho bài đó bằng tiếng Nhật ( ít nhất là một câu ) như thế coi thể coi nội dung bài đó có câu tiếng Nhật cho tình huống cụ thể ( về kiến thức chính trị xã hội ), những câu như thế thường là câu khó từ hiếm gặp và như thế các bạn không quan tâm đến chủ đề đó vẫn có thể có được \"học tiếng Nhật\" qua tình huống. \n\nBài này là một bài như vậy. Các bạn đọc lại nội quy sẽ thấy nó không vi phạm nội quy.","can_remove":false,"created_time":"2013-12-11T02:26:07+0000","like_count":1,"user_likes":false},"775397435810269":{"id":"775397435810269","from":{"id":"100000381394367","name":"Thành Nguyễn"},"message":"Group rất đông nhu cầu mọi người lại khác nhau, có lẽ với ý kiến của các bạn như trên thì những bài tương tự thế này vẫn để đăng nhưng sẽ điều chỉnh lại liều lượng cho phù hợp ví dụ 1 tuần 1,2 bài thôi.","can_remove":false,"created_time":"2013-12-11T02:30:36+0000","like_count":1,"user_likes":false},"775399745810038":{"id":"775399745810038","from":{"id":"100000381394367","name":"Thành Nguyễn"},"message":"Mình comment 1 chút với tư cách cá nhân ( không phải Admin ) :\n\nVề nội dung của việc làm chứng minh thư là do Trung Quốc sản xuất, khả năng này không phải là ít vì thực tế như mọi người biết đồng tiền giấy polyme hiện nay của Việt Nam hiện nay in tại Úc, thương vụ này do con trai của cựu thống đốc NHNN Lê Đức Thúy làm, trước đây có cáo buộc tham nhũng trong vụ này, phía Úc đã bắt 2 quan chức của mình vì tội nhận hối lộ phía Việt Nam, báo chí Úc đưa tin điều tra doanh nghiệp in tiền Úc đưa sáu quan chức phía Việt Nam đến khu đèn đỏ để gái mại dâm mua vui cho họ. Việc này cũng đăng trên BBC nữa nhưng báo chí Việt Nam tuyệt nhiên không có một thông tin nào cả. Dân chỉ biết cái đồng tiền được in với chất lượng thấp sau vài tháng nhàu nát như tương mà vẫn cầm để tiêu. Còn bao nhiêu câu hỏi đằng sau nữa?\n\nCó câu \"quốc gia hưng vong thất phu hữu trách\" những việc như thế này lẽ nào chúng ta là người Việt Nam lại thờ ơ?","can_remove":false,"created_time":"2013-12-11T02:36:21+0000","like_count":8,"user_likes":false},"775432075806805":{"id":"775432075806805","from":{"id":"569263718","name":"Phuong Thao Tran"},"message":"how do we action??","can_remove":false,"created_time":"2013-12-11T04:00:28+0000","like_count":0,"user_likes":false},"775450762471603":{"id":"775450762471603","from":{"id":"100002472470715","name":"Phan Duy Hùng"},"message":"Thực sự tiếp xúc với nhiều luồng tư tưởng khác nhau giúp mình có cái nhìn đa chiều hơn, tốt :)","can_remove":false,"created_time":"2013-12-11T04:59:04+0000","like_count":0,"user_likes":false},"775489522467727":{"id":"775489522467727","from":{"id":"100001416272263","name":"Mai PB"},"message":"Rất nhiều tin bị giấu, ví dụ tin đang hot Ukrine","can_remove":false,"created_time":"2013-12-11T07:00:32+0000","like_count":0,"user_likes":false},"775498655800147":{"id":"775498655800147","from":{"id":"100005801442456","name":"An Nguyen"},"message":"Tin gì ấy?","can_remove":false,"created_time":"2013-12-11T07:27:28+0000","like_count":0,"user_likes":false},"775499102466769":{"id":"775499102466769","from":{"id":"100005801442456","name":"An Nguyen"},"message":"Xoá rồi, không cần gọi cụ ấy đâu!","can_remove":false,"created_time":"2013-12-11T07:28:41+0000","like_count":0,"user_likes":false}},"paging":{"cursors":{"after":"Nzc0OTE2MDA1ODU4NDEy","before":"Nzc0OTE2MDA1ODU4NDEy"},"next":"https://graph.facebook.com/229244010425617_774914042525275/comments?limit=1&summary=1&after=Nzc0OTE2MDA1ODU4NDEy"},"summary":{"order":"chronological","total_count":58}}}