{"id":"229244010425617_774934092523270","type":"status","from":{"id":"100004094346107","name":"Thuy Nga Nguyen"},"message":"Đây là một câu chuyện  cảm động về “母親”, mọi người cùng dịch nào!!!\n\n俺には母親がいない。　俺を生んですぐに死んでしまったらしい。\n生まれたときから耳が聞こえなかった俺は物心ついた時にはもうすでに簡単な手話を使っていた。\n耳が聞こえない事で俺はずいぶん苦労した。\n普通の学校には行けず、障害者用の学校で学童期を過ごしたわけだが、\n片親だったこともあってか近所の子供に馬鹿にされた。\n耳が聞こえないから何を言われたか覚えていない（ というか知らない ）。\nが、あの見下すような馬鹿にしたような顔は今も忘れられない。\nその時は自分がなぜこんな目にあうのかわからなかったが、\nやがて障害者であるということがその理由だとわかると俺は塞ぎ込み、思春期の多くを家の中で過ごした。\n自分に何の非もなく、不幸な目にあうのが悔しくて仕方がなかった。\nだから俺は親父を憎んだ。そして死んだ母親すら憎んだ。\nなぜこんな身体に生んだのか。なぜ普通の人生を俺にくれなかったのか。\n手話では到底表しきれない想いを、暴力に変えて叫んだ。\nときおり爆発する俺の気持ちを前に、父は抵抗せず、ただただ、涙を流し 「すまない」と手話で言い続けていた。\nその時の俺は何もやる気がおきず、荒んだ生活をしていたと思う。\nそんな生活の中での唯一の理解者が俺の主治医だった。\n俺が生まれた後、耳が聞こえないとわかった時から、ずっと診てくれた先生だった。\n俺にとってはもう一人の親だった。\n何度も悩み相談にのってくれた。俺が父親を傷つけてしまった時も、優しい目で何も言わず聞いてくれた。\n仕方がないとも、そういう時もあるとも、そんな事をしては駄目だとも言わず、咎める（とがめる）事も、\n\n慰める事もせず聞いてくれる先生が大好きだった。\nそんなある日、どうしようもなく傷つく事があって、泣いても泣ききれない、悔しくてどうしようもない出来事があった。\n内容は書けないが、俺はまた先生の所に行って相談した。\n長い愚痴のような相談の途中、多分 「死にたい」 という事を手話で表した時だと思う。\n\n先生は急に怒り出し、俺の頬をおもいっきり殴った。\n\n                                                                                NGUYỄN THỊ NGA","created_time":"2013-12-10T08:36:25+0000","updated_time":"2013-12-13T12:46:00+0000","likes":{"data":{"100004259495174":{"id":"100004259495174","name":"Nguyen Nam"},"100000381394367":{"id":"100000381394367","name":"Thành Nguyễn"},"569263718":{"id":"569263718","name":"Phuong Thao Tran"},"100006925061486":{"id":"100006925061486","name":"Jason Chen"},"100001526631937":{"id":"100001526631937","name":"Tường Oanh Mineko"},"100003874832426":{"id":"100003874832426","name":"Tú Còi"},"100001754136107":{"id":"100001754136107","name":"Nguyễn Tuấn Vũ"},"100005801442456":{"id":"100005801442456","name":"An Nguyen"},"100004697134434":{"id":"100004697134434","name":"Thảo Xexekubo"},"100001416272263":{"id":"100001416272263","name":"Mai PB"},"100003049639881":{"id":"100003049639881","name":"Truong Luvuxy"},"100004094346107":{"id":"100004094346107","name":"Thuy Nga Nguyen"},"100003259252978":{"id":"100003259252978","name":"Biết Đâu Bất Ngờ"},"100001458099624":{"id":"100001458099624","name":"Kham Pha"}},"paging":{"cursors":{"after":"MTAwMDA0MjU5NDk1MTc0","before":"MTAwMDA0MjU5NDk1MTc0"},"next":"https://graph.facebook.com/229244010425617_774934092523270/likes?limit=1&summary=1&after=MTAwMDA0MjU5NDk1MTc0"},"summary":{"total_count":14}},"comments":{"data":{"774941012522578":{"id":"774941012522578","from":{"id":"100001458099624","name":"Kham Pha"},"message":"悔しいことと悲しいことも多いですけど、毎日元気で生きられる僕はこの人生に感謝しています。","can_remove":false,"created_time":"2013-12-10T08:55:05+0000","like_count":2,"user_likes":false},"774941319189214":{"id":"774941319189214","from":{"id":"1146680551","name":"優しい なぁ"},"message":"Bạn nên ghi nguồn của bài trên chứ. :)","can_remove":false,"created_time":"2013-12-10T08:56:05+0000","like_count":2,"user_likes":false},"774950975854915":{"id":"774950975854915","from":{"id":"100001444337943","name":"Macjanh"},"message":"感動しますした。シェアしていただきます。","can_remove":false,"created_time":"2013-12-10T09:25:21+0000","like_count":1,"user_likes":false},"774951112521568":{"id":"774951112521568","from":{"id":"100003259252978","name":"Biết Đâu Bất Ngờ"},"message":"wakarimasen !","can_remove":false,"created_time":"2013-12-10T09:25:54+0000","like_count":0,"user_likes":false},"774955809187765":{"id":"774955809187765","from":{"id":"100004094346107","name":"Thuy Nga Nguyen"},"message":"そうですねKham Phaさん","message_tags":[{"id":"100001458099624","name":"Kham Pha","type":"user","offset":5,"length":8}],"can_remove":false,"created_time":"2013-12-10T09:39:13+0000","like_count":0,"user_likes":false},"774956092521070":{"id":"774956092521070","from":{"id":"100004094346107","name":"Thuy Nga Nguyen"},"message":"Bạn Anh Nguyễn, mình sẽ bổ sung ! Thanks bạn đã nhắc nhở! :)","message_tags":[{"id":"1146680551","name":"Anh Nguyễn","type":"user","offset":4,"length":10}],"can_remove":false,"created_time":"2013-12-10T09:40:25+0000","like_count":1,"user_likes":false},"774956265854386":{"id":"774956265854386","from":{"id":"100004094346107","name":"Thuy Nga Nguyen"},"message":"ありがとうございます。Macjam","can_remove":false,"created_time":"2013-12-10T09:41:04+0000","like_count":0,"user_likes":false},"774959042520775":{"id":"774959042520775","from":{"id":"100004094346107","name":"Thuy Nga Nguyen"},"message":"Ai dịch đoạn đầu cho mọi người tham khảo bào!!!!","can_remove":false,"created_time":"2013-12-10T09:50:28+0000","like_count":0,"user_likes":false},"774963815853631":{"id":"774963815853631","from":{"id":"1146680551","name":"優しい なぁ"},"message":"\"俺には母親...忘れられない\"\n\"Tôi là một đứa trẻ không có mẹ, Khi tôi sinh ra mẹ đã mất rồi.Tôi được sinh ra không phải là một đứa trẻ bình thường mà là một đứa trẻ bị khiếm thính.Tôi phải sự dụng hoàn toàn ngôn ngữ dành cho người khiếm thính.\nBị khiếm thính đối với tôi thật sự là một việc rất khổ sở. Tôi chẳng được đến trường như bao đứa trẻ bình thường khác, tôi phải vào 1 trường khuyết tật dành cho những đứa trẻ như tôi.Tôi cũng chẳng có anh chị em,thường xuyên bị bọn trẻ hàng xóm trêu chọc.Tôi có thể không nghe được những lời chế giễu ấy của bọn trẻ hàng xóm, nhưng tôi không bao giờ quên được khuôn mặt đầy sự chế giễu ấy của bọn chúng.\"\nKhông có khiếu viết văn lắm :d","can_remove":false,"created_time":"2013-12-10T10:07:10+0000","like_count":5,"user_likes":false},"774993439184002":{"id":"774993439184002","from":{"id":"100002942069030","name":"Trường Trần"},"message":"難しいですから、へんかんする こと が できません :(","can_remove":false,"created_time":"2013-12-10T11:35:45+0000","like_count":0,"user_likes":false},"775054602511219":{"id":"775054602511219","from":{"id":"1026780646","name":"Việt Hưng Khổng"},"message":":'(","can_remove":false,"created_time":"2013-12-10T13:50:30+0000","like_count":0,"user_likes":false},"775078689175477":{"id":"775078689175477","from":{"id":"100004697134434","name":"Thảo Xexekubo"},"message":"読んだら、すごく感動気持ち残り、ありがとう","can_remove":false,"created_time":"2013-12-10T14:47:43+0000","like_count":2,"user_likes":false},"775082755841737":{"id":"775082755841737","from":{"id":"100004697134434","name":"Thảo Xexekubo"},"message":"シェアさせてください？？？","can_remove":false,"created_time":"2013-12-10T14:57:08+0000","like_count":1,"user_likes":false},"775089039174442":{"id":"775089039174442","from":{"id":"1146680551","name":"優しい なぁ"},"message":"Vâng.xin chia sẻ cùng bạn","can_remove":false,"created_time":"2013-12-10T15:09:16+0000","like_count":1,"user_likes":false},"775089232507756":{"id":"775089232507756","from":{"id":"100001416272263","name":"Mai PB"},"message":"Thuy Nga Nguyen nếu không có ai dịch thì em chịu khó dịch nhé. ^^","message_tags":[{"id":"100004094346107","name":"Thuy Nga Nguyen","type":"user","offset":0,"length":15}],"can_remove":false,"created_time":"2013-12-10T15:09:45+0000","like_count":1,"user_likes":false},"775355429147803":{"id":"775355429147803","from":{"id":"100004094346107","name":"Thuy Nga Nguyen"},"message":"Ai dịch nữa không nào! Em văn không hay lắm nên cuối cùng không ai dịch em sẽ dịch :(","can_remove":false,"created_time":"2013-12-11T00:40:01+0000","like_count":1,"user_likes":false},"775421772474502":{"id":"775421772474502","from":{"id":"100001416272263","name":"Mai PB"},"message":"Bài này ngắn thế này, dịch tiếp đi các bạn. Dịch là cách hay để đọc hiểu và giỏi chuyển ngữ đấy.","can_remove":false,"created_time":"2013-12-11T03:36:54+0000","like_count":0,"user_likes":false},"775422105807802":{"id":"775422105807802","from":{"id":"1146680551","name":"優しい なぁ"},"message":"K ai dịch à :(","can_remove":false,"created_time":"2013-12-11T03:38:04+0000","like_count":0,"user_likes":false},"775422235807789":{"id":"775422235807789","from":{"id":"100001416272263","name":"Mai PB"},"message":"Thuy Nga Nguyen bạn update vào đây nhé. https://www.facebook.com/groups/CongdongVietNhat/doc/702992609717419/","message_tags":[{"id":"100004094346107","name":"Thuy Nga Nguyen","type":"user","offset":0,"length":15}],"can_remove":false,"created_time":"2013-12-11T03:38:39+0000","like_count":0,"user_likes":false},"775425402474139":{"id":"775425402474139","from":{"id":"100004094346107","name":"Thuy Nga Nguyen"},"message":"dạ em sẽ update, cảm ơn anh Mai PB","can_remove":false,"created_time":"2013-12-11T03:44:52+0000","like_count":1,"user_likes":false},"775425832474096":{"id":"775425832474096","from":{"id":"100004094346107","name":"Thuy Nga Nguyen"},"message":"Ai dịch nào nào sẽ có giải thưởng đó !!!!!!!","can_remove":false,"created_time":"2013-12-11T03:46:24+0000","like_count":1,"user_likes":false},"775428355807177":{"id":"775428355807177","from":{"id":"100004094346107","name":"Thuy Nga Nguyen"},"message":"nào nào nào!!!!!","can_remove":false,"created_time":"2013-12-11T03:49:53+0000","like_count":0,"user_likes":false},"775435755806437":{"id":"775435755806437","from":{"id":"1146680551","name":"優しい なぁ"},"message":"Giải thưởng j thé :)","can_remove":false,"created_time":"2013-12-11T04:09:00+0000","like_count":0,"user_likes":false},"775439669139379":{"id":"775439669139379","from":{"id":"100004094346107","name":"Thuy Nga Nguyen"},"message":"mình chưa nghĩ ra bạn Anh Nguyễn có ý tưởng ji không?","message_tags":[{"id":"1146680551","name":"Anh Nguyễn","type":"user","offset":22,"length":10}],"can_remove":false,"created_time":"2013-12-11T04:20:25+0000","like_count":0,"user_likes":false},"775441372472542":{"id":"775441372472542","from":{"id":"100007015261176","name":"Anata Ni Deaete Yokatta"},"message":"dịch được có giải thưởng gì đây?","can_remove":false,"created_time":"2013-12-11T04:26:59+0000","like_count":0,"user_likes":false},"775441665805846":{"id":"775441665805846","from":{"id":"100007015261176","name":"Anata Ni Deaete Yokatta"},"message":"có quà trước ui dịch","can_remove":false,"created_time":"2013-12-11T04:27:40+0000","like_count":0,"user_likes":false},"775441809139165":{"id":"775441809139165","from":{"id":"100001526631937","name":"Tường Oanh Mineko"},"message":"giải thưởng là hôn gió 3 cái :v :p , muốn dịch mà não hiện tại tạm ngưng hoạt động( pause).Mấy cao thủ vào dịch giúp với đi ^_^","can_remove":false,"created_time":"2013-12-11T04:28:09+0000","like_count":1,"user_likes":false},"775442055805807":{"id":"775442055805807","from":{"id":"100007015261176","name":"Anata Ni Deaete Yokatta"},"message":"éc!thế thì chịu!tưởng có siền chứ!đi dịch thuật còn có siền hơn","can_remove":false,"created_time":"2013-12-11T04:28:52+0000","like_count":0,"user_likes":false},"775442992472380":{"id":"775442992472380","from":{"id":"100007015261176","name":"Anata Ni Deaete Yokatta"},"message":"quanh đi quẩn lại toàn thấy kanji lặp lại khá nhiều không có kanji mới ha!mẫu câu N3 thui dịch đi các mem có quà gió đó","can_remove":false,"created_time":"2013-12-11T04:32:57+0000","like_count":0,"user_likes":false},"775443545805658":{"id":"775443545805658","from":{"id":"100007015261176","name":"Anata Ni Deaete Yokatta"},"message":"học hết 50 bài cũng dịch được đó!mem nào học hết ngồi dịch cho quen mắt nhé!với học lại mẫu câu nữa!khá tốt đấy","can_remove":false,"created_time":"2013-12-11T04:35:04+0000","like_count":1,"user_likes":false},"775446492472030":{"id":"775446492472030","from":{"id":"100001526631937","name":"Tường Oanh Mineko"},"message":"Close To You dịch hay vào dịch cho học hỏi xí na","message_tags":[{"id":"100002612714358","name":"Close To You","type":"user","offset":0,"length":12}],"can_remove":false,"created_time":"2013-12-11T04:43:24+0000","like_count":0,"user_likes":false},"775448099138536":{"id":"775448099138536","from":{"id":"100004094346107","name":"Thuy Nga Nguyen"},"message":"mọi người muốn quà ji nào thì đề suất đi!!!!!!!!!","can_remove":false,"created_time":"2013-12-11T04:49:59+0000","like_count":0,"user_likes":false},"775508679132478":{"id":"775508679132478","from":{"id":"100004094346107","name":"Thuy Nga Nguyen"},"message":"Chẳng thấy ai dịch cả vậy mình xin dịch vậy. Nhưng văn vẻ của mình kém quá chắc là không thể hiện rõ cảm xúc trong bài được.Có chỗ nào sai hay có ý tưởng gì mọi người hãy mạnh dạn bổ sung nhé! :)","can_remove":false,"created_time":"2013-12-11T07:52:38+0000","like_count":0,"user_likes":false},"775509229132423":{"id":"775509229132423","from":{"id":"100004094346107","name":"Thuy Nga Nguyen"},"message":"Lúc đó tôi cũng không biết tại sao lại có ánh mắt như vậy\n Rồi cũng đến lúc tôi hiểu lý do vì mình là người khuyết tật, vì thế  tôi đã trải qua tuổi dậy thì của mình chủ yếu ở trong nhà . Tôi không làm điều gì sai trái, cũng không làm gì gặp phải điều bất hạnh. Vì lý do đó  tôi đã rất hận bố tôi, thậm chí ghét ngay cả người mẹ  đã mất.\nTôi tự hỏi tại sao sinh ra thân thể tôi như vậy. tại sao không thể bình thường như bao người khác.Những suy nghĩ mà tôi không thể hiện hết qua ngôn ngữ ký hiệu thay vào đó tôi đã thể hiện bằng bạo lực.Người bố đối diện với tâm trạng phát khùng của tôi, vừa khóc vừa nói \" bố xin lỗi\".\nLúc đó cái gì tôi cũng không làm, tôi đã trải qua những ngày khốn khổ.Cuộc sống của tôi lúc đó duy nhất có một người hiểu tôi đó là bác sĩ trị liệu của tôi.\nSau khi tôi sinh ra,  lúc biết tai tôi không thể nghe thấy, từ lúc đó ông  là người chữa bệnh cho tôi. Đối với tôi, ông như là  bố mẹ của tôi.\nLần nào cũng lắng nghe những những tâm sự của  tôi, khi tôi làm tổn thương bố tôi, ông chỉ dùng ánh mắt hiền từ để an ủi tôi mà ko nói gì. Những lúc như thế ông không làm gì, cũng không nói gì, không đổ lỗi, thậm chí không an ủi mà chỉ lắng nghe tôi nói đó là điều tôi rất thích ở ông.\nCó một ngày tôi bị tổn thương đến cùng cực , khóc cũng không hết được , cảm thấy cực kỳ cay đắng. Cụ thể là chuyện gì tôi không thể viết được . Sau đó tôi đã đi đến chỗ của bác sĩ của mình để nói chuyện. Trong khi than vãn với ông giữa chừng, lúc đó tôi dùng ngôn ngữ ký hiệu & nói rằng” con muốn chết” Lúc đó ông thật sự đã rất giận & đánh thật mạnh vào má  tôi.","can_remove":false,"created_time":"2013-12-11T07:55:29+0000","like_count":2,"user_likes":false},"775510589132287":{"id":"775510589132287","from":{"id":"1146680551","name":"優しい なぁ"},"message":"Dịch hay quá em :)","can_remove":false,"created_time":"2013-12-11T08:01:41+0000","like_count":1,"user_likes":false},"775511499132196":{"id":"775511499132196","from":{"id":"100004094346107","name":"Thuy Nga Nguyen"},"message":"Ôi anh cứ nói quá tiếng việt của em dở quá hình như có vấn đề :(  đăng lên chỉ sợ mọi người chê cười!","can_remove":false,"created_time":"2013-12-11T08:05:32+0000","like_count":0,"user_likes":false},"775512099132136":{"id":"775512099132136","from":{"id":"1146680551","name":"優しい なぁ"},"message":"Hok có đâu.mong e đang thêm nhiều bài nữa","can_remove":false,"created_time":"2013-12-11T08:07:46+0000","like_count":1,"user_likes":false},"775513972465282":{"id":"775513972465282","from":{"id":"100004094346107","name":"Thuy Nga Nguyen"},"message":"Cảm ơn anh Anh Nguyễn. Em sẽ cố gắng! :)","message_tags":[{"id":"1146680551","name":"Anh Nguyễn","type":"user","offset":11,"length":10}],"can_remove":false,"created_time":"2013-12-11T08:14:59+0000","like_count":0,"user_likes":false},"775532082463471":{"id":"775532082463471","from":{"id":"100001416272263","name":"Mai PB"},"message":"Có đoạn e dịch nhầm ý kìa.","can_remove":false,"created_time":"2013-12-11T09:23:18+0000","like_count":0,"user_likes":false},"775532992463380":{"id":"775532992463380","from":{"id":"100004094346107","name":"Thuy Nga Nguyen"},"message":"đoạn nào anh Mai PB!","message_tags":[{"id":"100001416272263","name":"Mai PB","type":"user","offset":13,"length":6}],"can_remove":false,"created_time":"2013-12-11T09:25:32+0000","like_count":0,"user_likes":false},"775534015796611":{"id":"775534015796611","from":{"id":"100001416272263","name":"Mai PB"},"message":"Ít nhất 2 đoạn, tôi và bố tôi","can_remove":false,"created_time":"2013-12-11T09:27:23+0000","like_count":0,"user_likes":false},"775540215795991":{"id":"775540215795991","from":{"id":"100004094346107","name":"Thuy Nga Nguyen"},"message":"anh sửa dùm em được không ?","can_remove":false,"created_time":"2013-12-11T09:47:31+0000","like_count":0,"user_likes":false},"775540632462616":{"id":"775540632462616","from":{"id":"100004094346107","name":"Thuy Nga Nguyen"},"message":"jo em rối mắt quá, senbai onegaiiiiii!","can_remove":false,"created_time":"2013-12-11T09:49:00+0000","like_count":0,"user_likes":false},"775549959128350":{"id":"775549959128350","from":{"id":"100001416272263","name":"Mai PB"},"message":"Anh Nguyễn cũng dịch ăn bớt quá. :-)","can_remove":false,"created_time":"2013-12-11T10:22:31+0000","like_count":0,"user_likes":false},"775558975794115":{"id":"775558975794115","from":{"id":"100001416272263","name":"Mai PB"},"message":"Sai 1/3. Bạn nào dịch lại được không?","can_remove":false,"created_time":"2013-12-11T10:46:24+0000","like_count":0,"user_likes":false},"775571859126160":{"id":"775571859126160","from":{"id":"100004697134434","name":"Thảo Xexekubo"},"message":"Hwa to tinh ngoi dich mk muon roi buon ngu wa nen ngu luon","can_remove":false,"created_time":"2013-12-11T11:06:39+0000","like_count":0,"user_likes":false},"775577239125622":{"id":"775577239125622","from":{"id":"100000687662713","name":"Vu Thi Man"},"message":"Tôi không có mẹ. Hình như mẹ đã mất khi sinh tôi ra. Ngay từ khi sinh ra, tôi đã không nghe được, chỉ cảm nhận đồ vật và giao tiếp đơn giản bằng tay. Việc không nghe được quả thật là khổ sở. Tôi không được đến trường học bình thường, đương nhiên tôi phải học ở trường dành cho người khuyết tật nhưng, bọn trẻ con có mẹ ở gần nhà cứ trêu trọc tôi ( từ 片親　mình không biết nghĩa). Vì không nghe được nên tôi không biết chúng đã nói gì nhưng đến tận giờ  tôi không thể quên vẻ mặt trêu trọc đầy khiêu khích và tiện nhân ấy.","can_remove":false,"created_time":"2013-12-11T11:16:08+0000","like_count":2,"user_likes":false},"775594509123895":{"id":"775594509123895","from":{"id":"100001416272263","name":"Mai PB"},"message":"Vu Thi Man\n片親: chỉ có mẹ hoặc bố (ở bài này là bố)\ntiện nhân: không dịch thế ^^. 見下ろす: tỏ vẻ bề trên","can_remove":false,"created_time":"2013-12-11T11:59:04+0000","like_count":0,"user_likes":false},"775602759123070":{"id":"775602759123070","from":{"id":"100000687662713","name":"Vu Thi Man"},"message":"見下ろす: nghĩa là coi khinh, khinh miệt, từ trên nhìn xuống kiểu miệt thị chứ Mai PB","message_tags":[{"id":"100001416272263","name":"Mai PB","type":"user","offset":75,"length":6}],"can_remove":false,"created_time":"2013-12-11T12:25:18+0000","like_count":0,"user_likes":false},"775603762456303":{"id":"775603762456303","from":{"id":"100001416272263","name":"Mai PB"},"message":"Thuy Nga Nguyen\n-  不幸な目にあう: gặp phải điều bất hạnh (không có nghĩa \"mắt\" nào)\n- やがて: rồi cũng đến lúc (không phải \"chẳng mấy chốc\")\n- 障害者であるということがその理由だとわかる: tôi hiểu ra lý do là vì mình là người khuyết tật (không phải \"tôi trở thành người khuyết tật\") (bị khuyết tật từ khi sinh ra kia mà?)\n- 何の非もなく: không làm điều gì sai trái\n- \"ngay cả khi mẹ tôi đã mất\"-> ghét ngay cả người mẹ đã mất\n- 爆発する俺の気持ちを前に: (người bố) đối diện với tâm trạng phát khùng của tôi (không phải \"trước khi tâm trạng tôi bộc phát\")\n- 父は...涙..「すまない」...続けていた : bố tôi ...khóc..nói \"bố xin lỗi\"... (chứ không phải tôi khóc va bị bố đánh, ngược) Thấy thương ông bố bị em bắt lỗi quá ^^\n- 荒んだ生活をしていた: tôi đã trải qua những ngày khốn khổ (chứ không phải \"tôi đã tự phá hủy cuộc sống\")\n- 悩み相談にのってくれた: nghe tâm sự của tôi (không phải \"trao đổi những vấn đề phiền não cho tôi\")\n- 俺が父親を傷つけて: tôi làm tổn thương bố tôi (không phải \"tôi bị bố đánh đến bị thương\")\n- 傷つく事: bị tổn thương (không phải \"bị thương\")\n- 泣いても泣ききれない: khóc cũng không hết được (không phải \"hóc tôi cũng không khóc\")\n- 悔しくてどうしようもない: cực kỳ cay đắng (không phải \"chỉ có thể hối hận\")","message_tags":[{"id":"100004094346107","name":"Thuy Nga Nguyen","type":"user","offset":0,"length":15}],"can_remove":false,"created_time":"2013-12-11T12:27:59+0000","like_count":6,"user_likes":false},"775604849122861":{"id":"775604849122861","from":{"id":"100001416272263","name":"Mai PB"},"message":"Vu Thi Man: đúng rồi, dịch thế cũng được, nhưng vì bên cạnh đó có chữ 馬鹿にする nên nghĩa của 見下ろす không nặng đến mức đó nữa. Nhưng dù vậy thì cũng không dịch là tiện nhân, vì họ cọi tôi như là \"tiện nhân\" chứ không phải trông họ \"tiện nhân\".","can_remove":false,"created_time":"2013-12-11T12:30:36+0000","like_count":1,"user_likes":false},"775624472454232":{"id":"775624472454232","from":{"id":"100004094346107","name":"Thuy Nga Nguyen"},"message":"Anh Mai MB , shishunki là t.d thì mà nhỉ :/","can_remove":false,"created_time":"2013-12-11T13:11:39+0000","like_count":1,"user_likes":false},"775636885786324":{"id":"775636885786324","from":{"id":"100001416272263","name":"Mai PB"},"message":"Thuy Nga Nguyen đúng là 思春期 là tuổi dậy thì thật. ^^ Vì em nhầm thứ tự 1, 2 câu nên anh không thấy chứ đó. Để anh sửa lại chút xíu comment ở trên.","message_tags":[{"id":"100004094346107","name":"Thuy Nga Nguyen","type":"user","offset":0,"length":15}],"can_remove":false,"created_time":"2013-12-11T13:40:22+0000","like_count":1,"user_likes":false},"775900659093280":{"id":"775900659093280","from":{"id":"100004094346107","name":"Thuy Nga Nguyen"},"message":"Đúng thật, những chỗ kia mình dịch sai nghĩa, kiểu này phải tích cực dịch để các senpai sửa cho mới được. Thanks anh Mai PB nhé! :)","message_tags":[{"id":"100001416272263","name":"Mai PB","type":"user","offset":117,"length":6}],"can_remove":false,"created_time":"2013-12-12T00:40:25+0000","like_count":1,"user_likes":false},"775988679084478":{"id":"775988679084478","from":{"id":"100004094346107","name":"Thuy Nga Nguyen"},"message":"Em đã sửa lại nội dung dịch mọi người đọc thử xem nhé.","can_remove":false,"created_time":"2013-12-12T04:32:25+0000","like_count":1,"user_likes":false},"775988692417810":{"id":"775988692417810","from":{"id":"100004094346107","name":"Thuy Nga Nguyen"},"message":":)","can_remove":false,"created_time":"2013-12-12T04:32:28+0000","like_count":0,"user_likes":false},"776037675746245":{"id":"776037675746245","from":{"id":"100001416272263","name":"Mai PB"},"message":"Vẫn sai câu đầu tiên. :-)","can_remove":false,"created_time":"2013-12-12T07:14:55+0000","like_count":1,"user_likes":false},"776051329078213":{"id":"776051329078213","from":{"id":"100004094346107","name":"Thuy Nga Nguyen"},"message":"Ặc","can_remove":false,"created_time":"2013-12-12T08:03:39+0000","like_count":0,"user_likes":false},"776129799070366":{"id":"776129799070366","from":{"id":"100000687662713","name":"Vu Thi Man"},"message":"Mai PB ah, chỗ mình dịch ở trên có chữ あの見下ろすmà, ようlà cấu trúc NP biểu thị nghĩa so sánh như là. Vậy nên mình hiểu câu đó là vẻ mặt ngu ngốc đầy khiêu khích đó...> vậy là của bon trẻ con chứ không phải là nhân vật chứ.\nMình dịch tiếp: Lúc đó, tôi cũng không hiểu tại sao mình lại có ánh mắt như vậy. Rồi cũng đến lúc tôi hiểu ra lý do là tôi bị khuyết tật, bế tắc , tôi đã chôn cả tuổi thanh xuân của mình ở nhà. Tôi rất tức giận vì sao tôi không làm gì sai trái, nhưng vẫn gặp phải bất hạnh. Tôi đâm ra ghét bố tôi, ghét cả người mẹ đã mất của tôi. Tại sao sinh ra thân thể tôi đã như thế? Tại sao ông trời không cho tôi cơ thể giống như người bình thường? Điều đó khiến cho những ngôn ngữ không thể giao tiếp hết bằng tay, thay vào đó tôi đã dùng bạo lực.","message_tags":[{"id":"100001416272263","name":"Mai PB","type":"user","offset":0,"length":6}],"can_remove":false,"created_time":"2013-12-12T12:29:21+0000","like_count":2,"user_likes":false},"776134829069863":{"id":"776134829069863","from":{"id":"100001416272263","name":"Mai PB"},"message":"Vu Thi Man: đúng là chữ あの見下ろすような...顔 miêu tả vẻ mặt của bọn trẻ con, nhưng bạn dùng chữ \"tiện nhân\" (người bị coi thường) cho bọn trẻ con thì có phải là ngược ý không? Vì vậy, nếu vẫn giữ chủ ngữ là bọn trẻ con thì phải nói \"vẻ mặt coi thường của bọn trẻ con\", nếu muốn dùng chữ \"tiện nhân\" thì phải đổi sang bị động \"bị coi như là tiện nhân\". Ngoài ra chữ tiện nhân ở đây cũng không sát ý lắm.\nĐoạn dưới thì dịch tốt lắm.","can_remove":false,"created_time":"2013-12-12T12:39:28+0000","like_count":1,"user_likes":false},"776721352344544":{"id":"776721352344544","from":{"id":"100000687662713","name":"Vu Thi Man"},"message":"Bố không hề phản ứng trước tâm trạng cáu giân thất thường của tôi, chỉ khóc và nói rằng:\"bố xin lỗi\". \nKhi đó tôi không có hứng thú với bất kỳ cái gì, tôi cho rằng mình đã hủy hoại cuộc sống.\nVới cuộc sống như vậy, người có thể hiểu tôi nhất chính là bác sỹ chữa bệnh cho tôi. Ngay từ lúc sinh ra, khi ông ấy biết rằng tôi không thể nghe được ông đã nhận làm thầy chữa trị cho tôi. Đối với tôi, ông ấy như là cha mẹ.\nRất nhiều lần ông chia sẻ nỗi phiền muộn của tôi. Ngay cả khi tôi làm bố bị thương, ông cũng không nói gì, chỉ lắng nghe bằng cái nhìn thông cảm. Điều tôi thích nhất ở ông là khi đó ông đã không làm gì, không nói  là không được, không đổi tội, thậm trí không an ủi, chỉ lắng nghe. \nCó một ngày tôi bị tổn thương, đến khóc cũng không vơi được, tôi tức giận đến nỗi không thể làm gì. Nội dung thế nào tôi cũng không nhớ, nhưng tôi đã chạy đến chỗ bác sỹ để chia sẻ. Khi than vãn dài dòng chuyện của mình, tôi nghĩ rằng mình đã nói là \"muốn chết\". Ngay lập tức, ông đã nổi cáu, và tát thẳng vào má tôi.","can_remove":false,"created_time":"2013-12-13T12:37:19+0000","like_count":0,"user_likes":false},"776724722344207":{"id":"776724722344207","from":{"id":"100004259495174","name":"Nguyen Nam"},"message":"truyền hơi buồn","can_remove":false,"created_time":"2013-12-13T12:46:00+0000","like_count":0,"user_likes":false}},"paging":{"cursors":{"after":"Nzc0OTQxMDEyNTIyNTc4","before":"Nzc0OTQxMDEyNTIyNTc4"},"next":"https://graph.facebook.com/229244010425617_774934092523270/comments?limit=1&summary=1&after=Nzc0OTQxMDEyNTIyNTc4"},"summary":{"order":"chronological","total_count":62}}}