{"id":"229244010425617_775114705838542","type":"status","from":{"id":"1816269439","name":"Dao Ngoc"},"message":"Xin phép cả nhà cho mình chia sẻ thông tin dưới đây nhé.","created_time":"2013-12-10T15:42:52+0000","updated_time":"2013-12-11T03:22:51+0000","likes":{"data":{"569263718":{"id":"569263718","name":"Phuong Thao Tran"},"100001416272263":{"id":"100001416272263","name":"Mai PB"},"100000359762118":{"id":"100000359762118","name":"Mi Tra"},"1026780646":{"id":"1026780646","name":"Việt Hưng Khổng"},"100005801442456":{"id":"100005801442456","name":"An Nguyen"},"100002444618453":{"id":"100002444618453","name":"Tomio  Ueno"},"100004476278006":{"id":"100004476278006","name":"Mến Mập"},"100003762427351":{"id":"100003762427351","name":"Hiroshi Yasu Oki"},"100001526631937":{"id":"100001526631937","name":"Tường Oanh Mineko"},"100000045271667":{"id":"100000045271667","name":"Nam Thai Nguyen"}},"paging":{"cursors":{"after":"NTY5MjYzNzE4","before":"NTY5MjYzNzE4"},"next":"https://graph.facebook.com/229244010425617_775114705838542/likes?limit=1&summary=1&after=NTY5MjYzNzE4"},"summary":{"total_count":10}},"comments":{"data":{"775118409171505":{"id":"775118409171505","from":{"id":"100001526631937","name":"Tường Oanh Mineko"},"message":"e chưa có khả năng, những sẽ cố gắng trở thành ng có tiền, ít ra cũng share đc phần nào đến những mảnh đời bất hạnh.Hiện tại thì vẫn lực bất tòng tâm :'(","can_remove":false,"created_time":"2013-12-10T15:45:47+0000","like_count":1,"user_likes":false},"775118899171456":{"id":"775118899171456","from":{"id":"1816269439","name":"Dao Ngoc"},"message":"Không cần nghĩ to tát vậy đâu Tường Oanh. Mỗi người một chút, góp gió thành bão. Trẻ có thêm cơ hội mình có thêm niềm vui.","can_remove":false,"created_time":"2013-12-10T15:47:12+0000","like_count":1,"user_likes":false},"775119405838072":{"id":"775119405838072","from":{"id":"100001526631937","name":"Tường Oanh Mineko"},"message":"E hiện tại thì góp đc gì??? ---> suy nghĩ trên :D","can_remove":false,"created_time":"2013-12-10T15:48:24+0000","like_count":0,"user_likes":false},"775122005837812":{"id":"775122005837812","from":{"id":"1816269439","name":"Dao Ngoc"},"message":"Thứ nhất về tài chính: 1000đ cũng được, 2000 đ cũng được đều rất đáng quý. Những tình nguyện viên của chương trình không ai giàu có về tài chính đâu.\nThứ nhì về công sức:  chương trình, hiểu về chương trình, đồng cảm like, chia sẻ hoạt động chương trình. \n- Hoặc có chương trình thì tham dự góp sức...nhìu cách lém!\nAi bít thêm thì bổ sung nhá. :)))","can_remove":false,"created_time":"2013-12-10T15:53:28+0000","like_count":2,"user_likes":false},"775126449170701":{"id":"775126449170701","from":{"id":"100001526631937","name":"Tường Oanh Mineko"},"message":"Những cái có thể thì e cũng đã tham gia nhiều rồi, còn vấn đề tài chính thì....:::::::.Đã cố gắng trong khả năng có thể rồi, nhưng vẫn ấp ủ điều trên :p.Trc tiên là đối vs cuộc sống hiện tại của bản thân, gia đình, sau là những cái đó, 1 phần nhỏ cho xã hội.E chỉ nghĩ đơn giản vậy, còn ko thể đi sâu hơn về vấn đề này, cmt nhiều quá loãng topic.E stop ở đây.Chúc c ngủ ngon.","can_remove":false,"created_time":"2013-12-10T15:56:51+0000","like_count":2,"user_likes":false},"775144132502266":{"id":"775144132502266","from":{"id":"100007015261176","name":"Anata Ni Deaete Yokatta"},"message":"cho mình địa chỉ mình tới tận nơi","can_remove":false,"created_time":"2013-12-10T16:18:35+0000","like_count":0,"user_likes":false},"775416569141689":{"id":"775416569141689","from":{"id":"1816269439","name":"Dao Ngoc"},"message":"Bạn đọc trên Page có thông tin của các bé nhé Anata Ni Deaette Yokatta ^^","message_tags":[{"id":"100007015261176","name":"Anata Ni Deaette Yokatta","type":"user","offset":46,"length":24}],"can_remove":false,"created_time":"2013-12-11T03:21:58+0000","like_count":0,"user_likes":false},"775416962474983":{"id":"775416962474983","from":{"id":"100007015261176","name":"Anata Ni Deaete Yokatta"},"message":"thanks","can_remove":false,"created_time":"2013-12-11T03:22:51+0000","like_count":0,"user_likes":false}},"paging":{"cursors":{"after":"Nzc1MTE4NDA5MTcxNTA1","before":"Nzc1MTE4NDA5MTcxNTA1"},"next":"https://graph.facebook.com/229244010425617_775114705838542/comments?limit=1&summary=1&after=Nzc1MTE4NDA5MTcxNTA1"},"summary":{"order":"chronological","total_count":8}}}