{"id":"229244010425617_775447255805287","type":"status","from":{"id":"100002761205838","name":"Tieu Bao Do"},"message":"mọi người ơi giúp mình với.mình không dịch được . cám ơn các bạn !!","created_time":"2013-12-11T04:46:43+0000","updated_time":"2013-12-11T11:58:10+0000","comments":{"data":{"775447562471923":{"id":"775447562471923","from":{"id":"100000359762118","name":"Mi Tra"},"message":"Phiền bạn sửa lại bằng tiếng Việt có dấu nhé! (Nếu có thể thì quay lại cái hình nữa. Nhìn nghiêng vẹo cả cổ)","can_remove":false,"created_time":"2013-12-11T04:48:17+0000","like_count":3,"user_likes":false},"775448042471875":{"id":"775448042471875","from":{"id":"100002761205838","name":"Tieu Bao Do"},"message":"vang duoc ah","can_remove":false,"created_time":"2013-12-11T04:49:40+0000","like_count":1,"user_likes":false},"775448665805146":{"id":"775448665805146","from":{"id":"100000359762118","name":"Mi Tra"},"message":"Quy định của Group là khi đăng bài hay khi bình luận đều phải viết bằng tiếng Việt có dấu. Bạn sửa lại cả cmt của mình nữa đi. Và mong đừng tái phạm nữa (^_-)-☆","can_remove":false,"created_time":"2013-12-11T04:51:41+0000","like_count":0,"user_likes":false},"775450282471651":{"id":"775450282471651","from":{"id":"100002761205838","name":"Tieu Bao Do"},"message":"vâng được ạ!!!!","can_remove":false,"created_time":"2013-12-11T04:57:02+0000","like_count":0,"user_likes":false},"775454785804534":{"id":"775454785804534","from":{"id":"100003822434250","name":"Sói Đây Gà Đâu"},"message":"Dt ko co dau thi go tn","can_remove":false,"created_time":"2013-12-11T05:07:16+0000","like_count":0,"user_likes":false},"775455532471126":{"id":"775455532471126","from":{"id":"100000359762118","name":"Mi Tra"},"message":"Điện thoại không có dấu thì mỗi lần đăng phải mở ngoặc (xin loi, dien thoai khong co dau)","can_remove":false,"created_time":"2013-12-11T05:09:34+0000","like_count":1,"user_likes":false},"775464662470213":{"id":"775464662470213","from":{"id":"100000603915176","name":"悪いな ぁ"},"message":"To Đùng đâu rồi, mở hẳn một status chuyên giúp các bạn sử dụng điện thoại không khả năng gõ dấu đi. Không thiếu bạn máy có khả năng cài mà không biết cài :)","message_tags":[{"id":"1813611352","name":"To Đùng","type":"user","offset":0,"length":7}],"can_remove":false,"created_time":"2013-12-11T05:38:23+0000","like_count":0,"user_likes":false},"775469872469692":{"id":"775469872469692","from":{"id":"1813611352","name":"To Đùng"},"message":"em chịu thôi anh ạ. :))","can_remove":false,"created_time":"2013-12-11T05:57:19+0000","like_count":0,"user_likes":false},"775470129136333":{"id":"775470129136333","from":{"id":"1813611352","name":"To Đùng"},"message":"đã nói nếu ko gõ đc tiếng Việt thì có thể gõ tiếng Nhật mà.","can_remove":false,"created_time":"2013-12-11T05:57:55+0000","like_count":0,"user_likes":false},"775471469136199":{"id":"775471469136199","from":{"id":"100000603915176","name":"悪いな ぁ"},"message":"Khổ, người ta còn phải đang nhờ dịch cả tiếng Nhật kia kìa, gõ gì chứ :3","can_remove":false,"created_time":"2013-12-11T06:01:15+0000","like_count":0,"user_likes":false},"775472939136052":{"id":"775472939136052","from":{"id":"1813611352","name":"To Đùng"},"message":"ơ hay. anh cứ đùa. bạn ấy vẫn biết tiếng Nhật mà. chỉ là cái đoạn kia khó thôi chứ.","can_remove":false,"created_time":"2013-12-11T06:06:04+0000","like_count":0,"user_likes":false},"775538042462875":{"id":"775538042462875","from":{"id":"100000359762118","name":"Mi Tra"},"message":"Bởi vì quy định của diễn đàn là vậy. Khi nào mà bạn chưa sửa thì chắc chưa ai giúp bạn đâu. \nNếu muốn người khác giúp thì hãy tôn trọng người ta trước đi.","can_remove":false,"created_time":"2013-12-11T09:39:34+0000","like_count":0,"user_likes":false},"775544445795568":{"id":"775544445795568","from":{"id":"100002761205838","name":"Tieu Bao Do"},"message":"mình biết rồi mà. mình đã đăng lại rôi mà.nhưng....","can_remove":false,"created_time":"2013-12-11T10:03:34+0000","like_count":0,"user_likes":false},"775575992459080":{"id":"775575992459080","from":{"id":"100002508122689","name":"Vũ Mạnh Tuấn"},"message":"Bạn ý đã đăng lại rồi thì chị Mi Tra giúp bạn ý đi :D","message_tags":[{"id":"100000359762118","name":"Mi Tra","type":"user","offset":30,"length":6}],"can_remove":false,"created_time":"2013-12-11T11:13:53+0000","like_count":0,"user_likes":false},"775587105791302":{"id":"775587105791302","from":{"id":"100000359762118","name":"Mi Tra"},"message":"Bạn chờ mình đi làm về rồi mình sẽ dịch giúp. Mà bạn chỉ cần hiểu nội dung thôi hay cần câu từ chuẩn?","can_remove":false,"created_time":"2013-12-11T11:40:40+0000","like_count":0,"user_likes":false},"775590099124336":{"id":"775590099124336","from":{"id":"100000736086606","name":"Evening Stars"},"message":"Ma Tru Da: Mình dịch hộ bạn đại khái ý bản thông báo này ở bên dưới. Xin lỗi là tiếng Việt mình giờ cũng quên nhiều nên nội dung dịch có phần lủng củng, bạn thông cảm nhé. Bạn phấn đấu học tiếng cho tốt, để cuộc sống sau này bớt phải nhờ vả.\nBạn thấy đăng bài lên đây bị nguời Việt mình vặn vẹo đủ thứ mà mãi chả dịch hộ cho, có khổ không bạn.","message_tags":[{"id":"100002761205838","name":"Ma Tru Da","type":"user","offset":0,"length":9}],"can_remove":false,"created_time":"2013-12-11T11:48:19+0000","like_count":3,"user_likes":false},"775590129124333":{"id":"775590129124333","from":{"id":"100000736086606","name":"Evening Stars"},"message":"Giấy chấp hành vào công ty làm việc\n\nDịp này tôi đã nhận được thông báo tuyển dụng của quí công ty.\nTheo đó, cùng với việc chấp hành vào công ty làm việc theo ngày quí công ty chỉ định, \nthì sau khi chấp hành việc gia nhập công ty tôi sẽ không từ chối gia nhập công ty nếu không có lý do chính đáng hay không thông báo.\nNgoài ra khi có 1 trong những điều tiếp theo đây thì dù tôi có bị hủy bỏ việc tuyển dụng tôi cũng sẽ không phản đối.\n                            (Ghi chú)\n\n1.Khi tôi đã không thể tốt nghiệp được vào mùa xuân năm tới (tốt vào tháng 4 năm tới).\n2.Khi tôi được xác định là do bị bệnh,... nên làm việc bình thường trở nên rất khó khăn.\n3.Khi phát hiện có gian dối trong lý lịch cá nhân, học lịch,... ghi trong giấy tờ đã nộp vào công ty.\n4.Khi thông qua các yếu tố như: không tham gia khóa huấn luyện kéo dài đến ngày vào công ty, không nộp báo cáo, hay kết quả trong thời gian huấn luyện,... công ty đã xác định tôi thiếu khả năng chịu đựng hay năng lực trong công việc thông thường (của công ty).\n5.Ngoài ra khi chiếu theo qui định chung của công ty, có những nguyên nhân lý do khiến cho việc hủy bỏ tuyển dụng là thỏa đáng đã phát sinh.\n                                                             Hết.","can_remove":false,"created_time":"2013-12-11T11:48:26+0000","like_count":3,"user_likes":false},"775594245790588":{"id":"775594245790588","from":{"id":"100002761205838","name":"Tieu Bao Do"},"message":"vâng rất cám ơn Evening Stars .","message_tags":[{"id":"100000736086606","name":"Evening Stars","type":"user","offset":16,"length":13}],"can_remove":false,"created_time":"2013-12-11T11:58:10+0000","like_count":1,"user_likes":false}},"paging":{"cursors":{"after":"Nzc1NDQ3NTYyNDcxOTIz","before":"Nzc1NDQ3NTYyNDcxOTIz"},"next":"https://graph.facebook.com/229244010425617_775447255805287/comments?limit=1&summary=1&after=Nzc1NDQ3NTYyNDcxOTIz"},"summary":{"order":"chronological","total_count":18}},"likes":{"data":[]}}