{"id":"229244010425617_775769809106365","type":"link","picture":"https://fbexternal-a.akamaihd.net/safe_image.php?d=AQAkAiusgUvRBaf-&w=154&h=154&url=http%3A%2F%2Fvanhoanhat.com%2Fwp-content%2Fuploads%2Fjav5.jpg","link":"http://vanhoanhat.com/jav-va-nhung-bi-mat-sieu-khung-ma-ban-chua-tung-biet/","from":{"id":"1783190483","name":"Trần Xuân Hiệp"},"message":"Đọc bài này thấy rất sướng, đúng là những thông tin thú vị lần đầu tiên được biết :3\n\nBài này là sưu tầm được, thực sự thấy rất hay. Văn hóa Tình dục đã trở thành 1 phần của Văn hóa Nhật, và tìm hiểu về nó cũng cực kỳ thú vị luôn :)\n\nShare phát, và mời các bác vào review giúp mình :3\nP/S: Cá nhân mình thấy nó hay nên chia sẻ, nếu không phù hợp thì nhờ các bạn admin remove giúp ạ :D","created_time":"2013-12-11T19:13:10+0000","updated_time":"2013-12-13T05:14:56+0000","likes":{"data":{"100005307004792":{"id":"100005307004792","name":"Kiều Văn"},"100005813941367":{"id":"100005813941367","name":"TY Tran"},"100006579366555":{"id":"100006579366555","name":"Thắng Trương"},"1308881663":{"id":"1308881663","name":"Nguyễn Đình Lộc"},"100005024348771":{"id":"100005024348771","name":"Long Hoàng"},"100001469238963":{"id":"100001469238963","name":"Ferocita Kana Washi"},"100001526631937":{"id":"100001526631937","name":"Tường Oanh Mineko"},"1813611352":{"id":"1813611352","name":"To Đùng"},"100003232645048":{"id":"100003232645048","name":"Khung Long Bao Chua"},"100003739249800":{"id":"100003739249800","name":"Trung Nguyen"},"100000500260636":{"id":"100000500260636","name":"Lưu Nguyễn Thảo Tiên"},"657157297":{"id":"657157297","name":"Phan Dien"},"100007076585912":{"id":"100007076585912","name":"Tuyền Nguyễn"},"1821970083":{"id":"1821970083","name":"Nguyễn Mạnh Cường"},"100001458099624":{"id":"100001458099624","name":"Kham Pha"},"1283298041":{"id":"1283298041","name":"Búa Đức Thanh"},"100003681883928":{"id":"100003681883928","name":"Trần Thánh Thiện"},"1026780646":{"id":"1026780646","name":"Việt Hưng Khổng"}},"paging":{"cursors":{"after":"MTAwMDA1MzA3MDA0Nzky","before":"MTAwMDA1MzA3MDA0Nzky"},"next":"https://graph.facebook.com/229244010425617_775769809106365/likes?limit=1&summary=1&after=MTAwMDA1MzA3MDA0Nzky"},"summary":{"total_count":19}},"comments":{"data":{"775894099093936":{"id":"775894099093936","from":{"id":"100001458099624","name":"Kham Pha"},"message":"Làm gì mà xúc động thế :)","can_remove":false,"created_time":"2013-12-12T00:19:11+0000","like_count":1,"user_likes":false},"775941179089228":{"id":"775941179089228","from":{"id":"100005802519146","name":"Luu Dung"},"message":"(^^^)","can_remove":false,"created_time":"2013-12-12T02:22:42+0000","like_count":0,"user_likes":false},"776000532416626":{"id":"776000532416626","from":{"id":"100000758307606","name":"Lương Ngọc Thành"},"message":"tôi đã khóc khi đọc thông số này : 70 men với 10000 gơn :v","can_remove":false,"created_time":"2013-12-12T05:10:45+0000","like_count":3,"user_likes":false},"776044872412192":{"id":"776044872412192","from":{"id":"100001458099624","name":"Kham Pha"},"message":"Vì sao con khóc :))","can_remove":false,"created_time":"2013-12-12T07:40:37+0000","like_count":0,"user_likes":false},"776054722411207":{"id":"776054722411207","from":{"id":"100005024348771","name":"Long Hoàng"},"message":"bài này em đọc rồi, các bác sẽ trở thành bậc thầy nếu nằm trong con số 70 đó, cố lên nào!","can_remove":false,"created_time":"2013-12-12T08:16:28+0000","like_count":0,"user_likes":false},"776069779076368":{"id":"776069779076368","from":{"id":"1783190483","name":"Trần Xuân Hiệp"},"message":"Các bác có đủ sức không đấy? :v","can_remove":false,"created_time":"2013-12-12T09:01:38+0000","like_count":1,"user_likes":false},"776074279075918":{"id":"776074279075918","from":{"id":"100002536382596","name":"Luong van Truong"},"message":"15 triệu yên nhật :D","can_remove":false,"created_time":"2013-12-12T09:17:56+0000","like_count":0,"user_likes":false},"776500229033323":{"id":"776500229033323","from":{"id":"100005307004792","name":"Kiều Văn"},"message":"có mấy thông tin mà bọn mình chưa bt nè  Răng Rắc Rối Ri Hiền Vũ :)","message_tags":[{"id":"100005495773832","name":"Hiền Vũ","type":"user","offset":57,"length":7}],"can_remove":false,"created_time":"2013-12-13T03:50:35+0000","like_count":1,"user_likes":false},"776545315695481":{"id":"776545315695481","from":{"id":"100000381394367","name":"Thành Nguyễn"},"message":"Bài này có nhiều thông tin không được chuẩn lắm, con số 70 nam diễn viên là sai, hơn nữa việc nói một diễn viên nam đóng phim sex thì đàn ông không coi họ là gì cũng không đúng, khi mà đại đa số đàn ông ở Nhật đều xem thì không có lý gì họ lại coi thường người đóng phim cả. Còn gặp sự kỳ thị thì tất nhiên rồi, nhưng chủ yếu là từ phía các gia đình nề nếp và những người không coi họ là đối tượng kết hôn mà thôi.","can_remove":false,"created_time":"2013-12-13T05:14:56+0000","like_count":0,"user_likes":false}},"paging":{"cursors":{"after":"Nzc1ODk0MDk5MDkzOTM2","before":"Nzc1ODk0MDk5MDkzOTM2"},"next":"https://graph.facebook.com/229244010425617_775769809106365/comments?limit=1&summary=1&after=Nzc1ODk0MDk5MDkzOTM2"},"summary":{"order":"chronological","total_count":9}}}