{"id":"229244010425617_776188009064545","type":"status","from":{"id":"100002958044330","name":"Duke Togo"},"message":"こんばんは　みんなさん！！\n\ncác bạn ơi cho mình hỏi , có nên du học sang nhật học trường senmon ko hả mọi người ?　ありがとございます。","created_time":"2013-12-12T14:25:27+0000","updated_time":"2013-12-12T15:51:57+0000","likes":{"data":{"100006596624336":{"id":"100006596624336","name":"Thùy Trang Gia Lai"},"100006577394016":{"id":"100006577394016","name":"Tâm Tít"},"100003881499881":{"id":"100003881499881","name":"Pe Pon"}},"paging":{"cursors":{"after":"MTAwMDA2NTk2NjI0MzM2","before":"MTAwMDA2NTk2NjI0MzM2"},"next":"https://graph.facebook.com/229244010425617_776188009064545/likes?limit=1&summary=1&after=MTAwMDA2NTk2NjI0MzM2"},"summary":{"total_count":3}},"comments":{"data":{"776189499064396":{"id":"776189499064396","from":{"id":"100006790622208","name":"Luy Bich"},"message":"sang nhat rat tot,","can_remove":false,"created_time":"2013-12-12T14:28:53+0000","like_count":0,"user_likes":false},"776189799064366":{"id":"776189799064366","from":{"id":"100006790622208","name":"Luy Bich"},"message":"nhung gja trj dog tjen o nhat ve vjet nam thj mat gja trj lam","can_remove":false,"created_time":"2013-12-12T14:29:51+0000","like_count":0,"user_likes":false},"776189982397681":{"id":"776189982397681","from":{"id":"100005801442456","name":"An Nguyen"},"message":"Ghi có dấu nhé!","can_remove":false,"created_time":"2013-12-12T14:30:24+0000","like_count":0,"user_likes":false},"776191325730880":{"id":"776191325730880","from":{"id":"100006790622208","name":"Luy Bich"},"message":"sang nhat hoc va lam thj.rat cuc va rat kho..","can_remove":false,"created_time":"2013-12-12T14:34:46+0000","like_count":0,"user_likes":false},"776191855730827":{"id":"776191855730827","from":{"id":"100006790622208","name":"Luy Bich"},"message":"aj muon sang nhat thj hay nho mot djeu.phaj hoc cach kjen nhan de co the doj dau voj dat nuot hoa anh dao ay","can_remove":false,"created_time":"2013-12-12T14:35:53+0000","like_count":0,"user_likes":false},"776194442397235":{"id":"776194442397235","from":{"id":"100005801442456","name":"An Nguyen"},"message":"Luy Bich Ghi có dấu nhé ( lần 2 )","message_tags":[{"id":"100006790622208","name":"Luy Bich","type":"user","offset":0,"length":8}],"can_remove":false,"created_time":"2013-12-12T14:42:28+0000","like_count":2,"user_likes":false},"776223552394324":{"id":"776223552394324","from":{"id":"100002958044330","name":"Duke Togo"},"message":"Trước là mình xin cảm ơn sự góp ý của bạn.","can_remove":false,"created_time":"2013-12-12T15:45:53+0000","like_count":0,"user_likes":false},"776224182394261":{"id":"776224182394261","from":{"id":"100002958044330","name":"Duke Togo"},"message":"Mình cũng đã có sự chuẩn bị tâm lý  , mình muốn sang nhật vừa là để học vừa là rèn luyện thay đổi bản thân.","can_remove":false,"created_time":"2013-12-12T15:47:33+0000","like_count":0,"user_likes":false},"776226259060720":{"id":"776226259060720","from":{"id":"100002958044330","name":"Duke Togo"},"message":"Mình thì rất thích tiếng nhật  , nên ban đầu là học tiếng , sau là học senmon nhưng mình lại ko biết lên học sen mon gì? Nên vẫn đang băn khoăn . (Mong mọi người đừng cười mình nhé , nhưng các bạn có ý kiền thì góp ý cho mình du nó có khó nghe thế bào cũng được ). ありがとございます！","can_remove":false,"created_time":"2013-12-12T15:51:57+0000","like_count":0,"user_likes":false}},"paging":{"cursors":{"after":"Nzc2MTg5NDk5MDY0Mzk2","before":"Nzc2MTg5NDk5MDY0Mzk2"},"next":"https://graph.facebook.com/229244010425617_776188009064545/comments?limit=1&summary=1&after=Nzc2MTg5NDk5MDY0Mzk2"},"summary":{"order":"chronological","total_count":9}}}