{"id":"229244010425617_776183022398377","type":"status","from":{"id":"100006355141196","name":"Vi Đặng Tường"},"message":"các bác cho e hỏi mình có visa du học nhật bản bay từ việt nam sang có được quá cảnh ở hàn quốc không ạ.ありがとございました。^_^","created_time":"2013-12-12T14:17:45+0000","updated_time":"2013-12-13T05:03:11+0000","likes":{"data":{"100006596624336":{"id":"100006596624336","name":"Thùy Trang Gia Lai"},"100006577394016":{"id":"100006577394016","name":"Tâm Tít"},"100006355141196":{"id":"100006355141196","name":"Vi Đặng Tường"}},"paging":{"cursors":{"after":"MTAwMDA2NTk2NjI0MzM2","before":"MTAwMDA2NTk2NjI0MzM2"},"next":"https://graph.facebook.com/229244010425617_776183022398377/likes?limit=1&summary=1&after=MTAwMDA2NTk2NjI0MzM2"},"summary":{"total_count":3}},"comments":{"data":{"776184209064925":{"id":"776184209064925","from":{"id":"100006738850876","name":"Ho Tuan"},"message":"No, bay trực tiếp luôn bạn, khi về tuy loại vé bạn mua thì mới quá cảnh ở Korea","can_remove":false,"created_time":"2013-12-12T14:19:57+0000","like_count":1,"user_likes":false},"776185239064822":{"id":"776185239064822","from":{"id":"1146680551","name":"優しい なぁ"},"message":"Tuỳ vé bạn mua chứ.mà quá cảnh cũng làm j được đâu :)","can_remove":false,"created_time":"2013-12-12T14:20:58+0000","like_count":1,"user_likes":false},"776185842398095":{"id":"776185842398095","from":{"id":"100006355141196","name":"Vi Đặng Tường"},"message":"vậy mình muốn mua vé quá cảnh ở hàn quốc phải mua vé về Việt Nam ạ?","can_remove":false,"created_time":"2013-12-12T14:21:28+0000","like_count":0,"user_likes":false},"776186389064707":{"id":"776186389064707","from":{"id":"100006355141196","name":"Vi Đặng Tường"},"message":"e muốn qua hàn lấy ít đồ mà^.^","can_remove":false,"created_time":"2013-12-12T14:22:18+0000","like_count":0,"user_likes":false},"776188145731198":{"id":"776188145731198","from":{"id":"100002609621366","name":"KÚn KOn"},"message":"thế mua vé bay 2 chặng,sang hàn rồi sang Nhật","can_remove":false,"created_time":"2013-12-12T14:25:41+0000","like_count":1,"user_likes":false},"776188605731152":{"id":"776188605731152","from":{"id":"100006355141196","name":"Vi Đặng Tường"},"message":"nhưng ko bit la có cần visa hàn không nữa Bỏng Ngô ak?","can_remove":false,"created_time":"2013-12-12T14:26:46+0000","like_count":0,"user_likes":false},"776189185731094":{"id":"776189185731094","from":{"id":"100006738850876","name":"Ho Tuan"},"message":"Vậy thì bạn hỏi xem họ có loại vé bay quá cảnh Korea không ? nếu chỉ quá cảnh ở sân bay rồi luân chuyển máy bay thì không cần.","can_remove":false,"created_time":"2013-12-12T14:28:10+0000","like_count":1,"user_likes":false},"776189359064410":{"id":"776189359064410","from":{"id":"100005801442456","name":"An Nguyen"},"message":"Quá cảnh ai cho ra ngoài mà lấy! Không xin visa hàn quốc thì sao chui ra cổng! Lắm bạn tính chuồng quá rồi , nên ngta cũng tỉnh lắm chứ!","can_remove":false,"created_time":"2013-12-12T14:28:33+0000","like_count":2,"user_likes":false},"776190192397660":{"id":"776190192397660","from":{"id":"100002609621366","name":"KÚn KOn"},"message":"được nghỉ ở fòng chờ mà bạn, như thế thì bảo ngta mang đồ đến rồi giao dịch trực tiếp với nhân viên ở sân bay","can_remove":false,"created_time":"2013-12-12T14:31:08+0000","like_count":1,"user_likes":false},"776190505730962":{"id":"776190505730962","from":{"id":"100005801442456","name":"An Nguyen"},"message":"Lỡ có boom cũng cho vào được luôn à@.@!","can_remove":false,"created_time":"2013-12-12T14:32:00+0000","like_count":0,"user_likes":false},"776190599064286":{"id":"776190599064286","from":{"id":"100006738850876","name":"Ho Tuan"},"message":"Đúng, chỉ được di chuyển trong phạm vi sân bay, tới giờ thì lên máy bay, bay qua Japan","can_remove":false,"created_time":"2013-12-12T14:32:19+0000","like_count":1,"user_likes":false},"776191189064227":{"id":"776191189064227","from":{"id":"100002609621366","name":"KÚn KOn"},"message":"haha, thì tớ bảo giao dịch với nhân viên sân bay mà. Giao dịch đâu fải đơn giản là bảo họ mang vào cho mình :) họ có fải người máy đâu mà bảo là làm theo. Dĩ nhiên fải kiểm tra, mất fí hoặc j j đó ai biết đc","can_remove":false,"created_time":"2013-12-12T14:34:17+0000","like_count":0,"user_likes":false},"776191422397537":{"id":"776191422397537","from":{"id":"100006355141196","name":"Vi Đặng Tường"},"message":"e có thằng b quá cảnh về Việt Nam trốn qua hàn quốc làm 1 tháng lại về nhật bản mà..Bỏng ngo,ho tuan!","can_remove":false,"created_time":"2013-12-12T14:34:56+0000","like_count":0,"user_likes":false},"776191575730855":{"id":"776191575730855","from":{"id":"1146680551","name":"優しい なぁ"},"message":"Nếu có quốc tịch mỹ thì được ra ngoài đấy.","can_remove":false,"created_time":"2013-12-12T14:35:09+0000","like_count":1,"user_likes":false},"776192202397459":{"id":"776192202397459","from":{"id":"100006738850876","name":"Ho Tuan"},"message":"Trừ khi cậu ấy vẫn còn Visa nhật, thêm nữa là trong trường hợp lúc đó cậu ta chỉ đi du lịch trong kỳ nghỉ mà thôi. Còn việc nhờ nhân viên dao dịch là điều không thể.","can_remove":false,"created_time":"2013-12-12T14:36:50+0000","like_count":2,"user_likes":false},"776192222397457":{"id":"776192222397457","from":{"id":"1146680551","name":"優しい なぁ"},"message":"Còn nếu qtich vn k thì phải vào phòng chờ mới gặp được,thường thì quá cảnh khoảng 4,5 tiếng gì đấy.\nP/s bạn của bạn có phét k đấy.","can_remove":false,"created_time":"2013-12-12T14:36:52+0000","like_count":1,"user_likes":false},"776192225730790":{"id":"776192225730790","from":{"id":"100006355141196","name":"Vi Đặng Tường"},"message":"e đang thắc mắc là mình có visa nhật bản cũng tương đương hàn quốc rồi! Anh Nguyễn","can_remove":false,"created_time":"2013-12-12T14:36:53+0000","like_count":1,"user_likes":false},"776192579064088":{"id":"776192579064088","from":{"id":"1146680551","name":"優しい なぁ"},"message":"K có đâu em.đừng nghe mấy lời bốc phét mà mang hại vào thân.","can_remove":false,"created_time":"2013-12-12T14:37:58+0000","like_count":2,"user_likes":false},"776192622397417":{"id":"776192622397417","from":{"id":"100006355141196","name":"Vi Đặng Tường"},"message":"e thay bao Việt Nam ở nhật trốn qua hàn nhiều mà Anh nguyễn","can_remove":false,"created_time":"2013-12-12T14:38:03+0000","like_count":1,"user_likes":false},"776192645730748":{"id":"776192645730748","from":{"id":"100005801442456","name":"An Nguyen"},"message":"(￣O￣;) Zzzzz....","can_remove":false,"created_time":"2013-12-12T14:38:04+0000","like_count":1,"user_likes":false},"776192975730715":{"id":"776192975730715","from":{"id":"100005801442456","name":"An Nguyen"},"message":"Giao dịch nhân viên sân bay! 1 khái niệm mới được nghe!","can_remove":false,"created_time":"2013-12-12T14:38:59+0000","like_count":2,"user_likes":false},"776193285730684":{"id":"776193285730684","from":{"id":"1146680551","name":"優しい なぁ"},"message":"Trốn bằng đường nào,bơi biển à :)","can_remove":false,"created_time":"2013-12-12T14:39:52+0000","like_count":3,"user_likes":false},"776193485730664":{"id":"776193485730664","from":{"id":"100002609621366","name":"KÚn KOn"},"message":"sao lại ko giao dịch đc? Đầy người vẫn quá cảnh và nhận đồ ở sân bay rồi bay tiếp đấy thôi","can_remove":false,"created_time":"2013-12-12T14:40:24+0000","like_count":1,"user_likes":false},"776193525730660":{"id":"776193525730660","from":{"id":"100001695345798","name":"Tyn Aki"},"message":"ko được ra khỏi sân bay , chứ vẫn đc transit hay sao ý nhỉ?","can_remove":false,"created_time":"2013-12-12T14:40:28+0000","like_count":1,"user_likes":false},"776193585730654":{"id":"776193585730654","from":{"id":"100006355141196","name":"Vi Đặng Tường"},"message":"e cũng chưa bít nữa.bít e còn phải hỏi làm gì.híc","can_remove":false,"created_time":"2013-12-12T14:40:41+0000","like_count":0,"user_likes":false},"776197045730308":{"id":"776197045730308","from":{"id":"1146680551","name":"優しい なぁ"},"message":"Chứ e mún ra ngoài làm j?!","can_remove":false,"created_time":"2013-12-12T14:46:47+0000","like_count":1,"user_likes":false},"776197852396894":{"id":"776197852396894","from":{"id":"100006355141196","name":"Vi Đặng Tường"},"message":"Anh Nguyễn e chắc cũng phải tìm đường cứu nước a ạ.híc híc","can_remove":false,"created_time":"2013-12-12T14:47:37+0000","like_count":0,"user_likes":false},"776198249063521":{"id":"776198249063521","from":{"id":"100005801442456","name":"An Nguyen"},"message":"Quả thật không sai, nhưng đừng nên lôi chữ Nước vào e nhé!","can_remove":false,"created_time":"2013-12-12T14:48:46+0000","like_count":2,"user_likes":false},"776198482396831":{"id":"776198482396831","from":{"id":"100006355141196","name":"Vi Đặng Tường"},"message":"hì hì","can_remove":false,"created_time":"2013-12-12T14:49:19+0000","like_count":0,"user_likes":false},"776198702396809":{"id":"776198702396809","from":{"id":"100006355141196","name":"Vi Đặng Tường"},"message":"ko cứu đc nước thì cứu nhà mình vậy.hihi","can_remove":false,"created_time":"2013-12-12T14:49:49+0000","like_count":0,"user_likes":false},"776199525730060":{"id":"776199525730060","from":{"id":"1146680551","name":"優しい なぁ"},"message":"Tại có visa đi mỹ mà đc quá cảnh tối đa ở incheon có 3 ngày thôi.còn bạn e 1 tháng thì hơi ....","can_remove":false,"created_time":"2013-12-12T14:51:28+0000","like_count":1,"user_likes":false},"776201469063199":{"id":"776201469063199","from":{"id":"100006355141196","name":"Vi Đặng Tường"},"message":"Anh Nguyễn.đâu mà b em trốn ra ngoài.hết 1thang lai bay qua nhật,nó hỏi mình bảo bị lạc bên đấy! hihi","can_remove":false,"created_time":"2013-12-12T14:55:45+0000","like_count":0,"user_likes":false},"776205742396105":{"id":"776205742396105","from":{"id":"100006042900822","name":"杜文 啓"},"message":"Có mà chém :)) may mà vẫn còn visa bên Nhật chứ không nó tống cổ về nước luôn a","can_remove":false,"created_time":"2013-12-12T15:01:41+0000","like_count":1,"user_likes":false},"776206595729353":{"id":"776206595729353","from":{"id":"100006355141196","name":"Vi Đặng Tường"},"message":"vâng!mình phải có visa nhật mới dám làm vây chứ.tranh thủ kì ngỉ qua hàn kiếm cơm về mà học chứ a","can_remove":false,"created_time":"2013-12-12T15:03:54+0000","like_count":0,"user_likes":false},"776207955729217":{"id":"776207955729217","from":{"id":"100006042900822","name":"杜文 啓"},"message":"Hàn giờ nó cũng tỉnh lắm rồi, không dễ nhai đâu, khuyên chân thành 1 câu là qua chơi nếu thấy làm được thì làm, chứ đừng chốn qua nó tóm cho lại khổ ......","can_remove":false,"created_time":"2013-12-12T15:08:01+0000","like_count":1,"user_likes":false},"776210155728997":{"id":"776210155728997","from":{"id":"100006355141196","name":"Vi Đặng Tường"},"message":"e cung chi tinh lam 1 thang thoi.nhung dang thac mac ra khoi san bay kieu j?","can_remove":false,"created_time":"2013-12-12T15:12:41+0000","like_count":0,"user_likes":false},"776232372393442":{"id":"776232372393442","from":{"id":"1146680551","name":"優しい なぁ"},"message":"Tóm lại 1 câu, thắc mắc của bạn đã được giải đáp.Vì không gian của Group.Xin được xóa bài của bạn.Mong bạn thông cảm nhé Vi Đặng Tường","message_tags":[{"id":"100006355141196","name":"Vi Đặng Tường","type":"user","offset":121,"length":13}],"can_remove":false,"created_time":"2013-12-12T16:05:44+0000","like_count":0,"user_likes":false},"776232915726721":{"id":"776232915726721","from":{"id":"100006355141196","name":"Vi Đặng Tường"},"message":"e chưa hiểu gì hết cả!đừng xoá của e đi.híc^_^","can_remove":false,"created_time":"2013-12-12T16:07:25+0000","like_count":0,"user_likes":false},"776233199060026":{"id":"776233199060026","from":{"id":"100006355141196","name":"Vi Đặng Tường"},"message":"Anh Nguyễn","can_remove":false,"created_time":"2013-12-12T16:07:56+0000","like_count":0,"user_likes":false},"776233912393288":{"id":"776233912393288","from":{"id":"1146680551","name":"優しい なぁ"},"message":"Không hiểu gì nữa vậy?","can_remove":false,"created_time":"2013-12-12T16:09:57+0000","like_count":0,"user_likes":false},"776235222393157":{"id":"776235222393157","from":{"id":"100006355141196","name":"Vi Đặng Tường"},"message":"có chỗ bảo từ nhật qua hàn du lịch không cần visa.có chỗ bảo có. e cũng chăng hiểu gì cả^.^","can_remove":false,"created_time":"2013-12-12T16:11:22+0000","like_count":0,"user_likes":false},"776235665726446":{"id":"776235665726446","from":{"id":"1146680551","name":"優しい なぁ"},"message":"Hiện tại e đang ở Nhật?","can_remove":false,"created_time":"2013-12-12T16:12:37+0000","like_count":0,"user_likes":false},"776235779059768":{"id":"776235779059768","from":{"id":"100006355141196","name":"Vi Đặng Tường"},"message":"vang","can_remove":false,"created_time":"2013-12-12T16:12:51+0000","like_count":0,"user_likes":false},"776237315726281":{"id":"776237315726281","from":{"id":"1146680551","name":"優しい なぁ"},"message":"em đi du lịch tự mua vé đi hay qua công ty du lịch?","can_remove":false,"created_time":"2013-12-12T16:16:59+0000","like_count":0,"user_likes":false},"776238472392832":{"id":"776238472392832","from":{"id":"100006355141196","name":"Vi Đặng Tường"},"message":"e tự mua vé.bên đây e cũng chẳng bít cty nào.nhưng quan trọng là e muốn hỏi từ nhật sang hàn có cần thị thực không thôi!^ - ^","can_remove":false,"created_time":"2013-12-12T16:19:57+0000","like_count":0,"user_likes":false},"776238815726131":{"id":"776238815726131","from":{"id":"1146680551","name":"優しい なぁ"},"message":"Thì e đặt vé đi,người ta sẽ hướng dẫn cho e. ^_^ Trăm hay k bằng 1 lần thấy mà.","can_remove":false,"created_time":"2013-12-12T16:20:46+0000","like_count":1,"user_likes":false},"776251279058218":{"id":"776251279058218","from":{"id":"100006355141196","name":"Vi Đặng Tường"},"message":"(^_^)","can_remove":false,"created_time":"2013-12-12T16:51:49+0000","like_count":0,"user_likes":false},"776539029029443":{"id":"776539029029443","from":{"id":"528761061","name":"Huyen Trang"},"message":"Theo mình được biết khi qua Hàn quốc theo dạng du lịch thì phải đến đại sứ quán hàn quốc tại nhật để xin visa nhập cảnh có hạn là 1 tuần.còn trốn ra thì ko hiểu bạn trốn bằng cách nào?@@","can_remove":false,"created_time":"2013-12-13T05:03:11+0000","like_count":1,"user_likes":false}},"paging":{"cursors":{"after":"Nzc2MTg0MjA5MDY0OTI1","before":"Nzc2MTg0MjA5MDY0OTI1"},"next":"https://graph.facebook.com/229244010425617_776183022398377/comments?limit=1&summary=1&after=Nzc2MTg0MjA5MDY0OTI1"},"summary":{"order":"chronological","total_count":48}}}