{"id":"229244010425617_776109159072430","type":"photo","object_id":"265228050294905","picture":"https://fbcdn-photos-g-a.akamaihd.net/hphotos-ak-frc3/t1.0-0/988418_265228050294905_573930958_s.jpg","link":"https://www.facebook.com/tmvnse/photos/a.167074153443629.1073741826.166247936859584/265228050294905/?type=1","from":{"id":"100003762427351","name":"Hiroshi Yasu Oki"},"message":"Em thấy ông anh này nói đúng phần Đại Học Việt Nam. Chú trọng cái kiến thức chứ không phait thực tiễn. Lý thuyết khô khan,tính kết nối lý thuyết - thực tiễn kém.","created_time":"2013-12-12T11:27:22+0000","updated_time":"2013-12-13T04:13:59+0000","likes":{"data":{"100004019142499":{"id":"100004019142499","name":"Nguyễn Ngọc Yến Linh"},"100006711245076":{"id":"100006711245076","name":"Thi Ly Le"},"100004272425803":{"id":"100004272425803","name":"Le Ynhi"},"100006807030214":{"id":"100006807030214","name":"Thúy Phạm"},"100000381394367":{"id":"100000381394367","name":"Thành Nguyễn"},"100006596624336":{"id":"100006596624336","name":"Thùy Trang Gia Lai"},"100001099324680":{"id":"100001099324680","name":"Sóc Capuchino"},"100000381506148":{"id":"100000381506148","name":"Vinh Nguyen"},"100003913383051":{"id":"100003913383051","name":"Tho Tran"},"100000473889720":{"id":"100000473889720","name":"Ngọc Trung"},"100003578589205":{"id":"100003578589205","name":"Phuong Tam Ngo"},"1250876107":{"id":"1250876107","name":"Kim Hoan"},"100002224992538":{"id":"100002224992538","name":"Nguyễn Văn Tâm"},"100001824172942":{"id":"100001824172942","name":"Phan Van"},"100006851160906":{"id":"100006851160906","name":"Chu Thị Hồng"},"100000211237467":{"id":"100000211237467","name":"Nguyễn Thị Hà"},"100002629655875":{"id":"100002629655875","name":"Đỗ Thế Phong"},"100005235669327":{"id":"100005235669327","name":"Diep Tran"},"738235689":{"id":"738235689","name":"Dang Thi Phuong"},"100003142097064":{"id":"100003142097064","name":"Thu Hương Ngô"},"100001469238963":{"id":"100001469238963","name":"Ferocita Kana Washi"},"100003881499881":{"id":"100003881499881","name":"Pe Pon"},"100003874832426":{"id":"100003874832426","name":"Tú Còi"},"100004777891234":{"id":"100004777891234","name":"Duy Anh Nguyen"},"100004018390691":{"id":"100004018390691","name":"Pham Thi"},"100001216203214":{"id":"100001216203214","name":"Lala Rita"},"100006145239776":{"id":"100006145239776","name":"Thuỳ Linh"},"100001526631937":{"id":"100001526631937","name":"Tường Oanh Mineko"},"100001416272263":{"id":"100001416272263","name":"Mai PB"},"100003544376106":{"id":"100003544376106","name":"Diem Pham"},"100001807609603":{"id":"100001807609603","name":"Nguyễn Khánh Huyền"},"1023965040":{"id":"1023965040","name":"Juli KimChi"},"1717530880":{"id":"1717530880","name":"Triệu Việt Cường"},"100000177841596":{"id":"100000177841596","name":"Xelena Sanyo"},"100004779104079":{"id":"100004779104079","name":"Hạt Tiêu"},"100004737961217":{"id":"100004737961217","name":"Truc Linh"},"100001458099624":{"id":"100001458099624","name":"Kham Pha"}},"paging":{"cursors":{"after":"MTAwMDA0MDE5MTQyNDk5","before":"MTAwMDA0MDE5MTQyNDk5"},"next":"https://graph.facebook.com/229244010425617_776109159072430/likes?limit=1&summary=1&after=MTAwMDA0MDE5MTQyNDk5"},"summary":{"total_count":37}},"comments":{"data":{"776112175738795":{"id":"776112175738795","from":{"id":"100001458099624","name":"Kham Pha"},"message":"Không biết tác giả là ai? Ko thấy ghi nguồn nhỉ?","can_remove":false,"created_time":"2013-12-12T11:35:04+0000","like_count":0,"user_likes":false},"776112832405396":{"id":"776112832405396","from":{"id":"100000359762118","name":"Mi Tra"},"message":"Tác giả là Teach me Vietnamese. Mỗi khi anh ấy đăng bài nói về VN thì bị ném đá tả tơi. Nhưng anh ấy nói cũng có phần đúng chứ đâu đặt điều gì đâu.","can_remove":false,"created_time":"2013-12-12T11:37:17+0000","like_count":2,"user_likes":false},"776113782405301":{"id":"776113782405301","from":{"id":"100001458099624","name":"Kham Pha"},"message":"hóa ra là người nước ngoài nói về VN, tiếng Việt khủng thật, đọc qua cũng ko nhận ra đc là người nước ngoài.","can_remove":false,"created_time":"2013-12-12T11:40:30+0000","like_count":2,"user_likes":false},"776114655738547":{"id":"776114655738547","from":{"id":"100000359762118","name":"Mi Tra"},"message":"Có thể bạn ấy nhờ người dịch hay sao đó KP ạ.","can_remove":false,"created_time":"2013-12-12T11:43:10+0000","like_count":0,"user_likes":false},"776115949071751":{"id":"776115949071751","from":{"id":"100000603915176","name":"悪いな ぁ"},"message":"Mình không thích cách suy nghĩ của cậu này, flow một thời gian ghét bỏ luôn :v","can_remove":false,"created_time":"2013-12-12T11:47:22+0000","like_count":3,"user_likes":false},"776116359071710":{"id":"776116359071710","from":{"id":"100000359762118","name":"Mi Tra"},"message":"Mỗi người là một cách suy nghĩ mà bác Waruina ^^","can_remove":false,"created_time":"2013-12-12T11:48:40+0000","like_count":1,"user_likes":false},"776116812404998":{"id":"776116812404998","from":{"id":"100005801442456","name":"An Nguyen"},"message":"Không phải tự viết đâu , 100%...","can_remove":false,"created_time":"2013-12-12T11:50:33+0000","like_count":0,"user_likes":false},"776117222404957":{"id":"776117222404957","from":{"id":"1026780646","name":"Việt Hưng Khổng"},"message":"Có thật là 99% sv kinh tế  không biết GDP Việt Nam ?! :o","can_remove":false,"created_time":"2013-12-12T11:51:55+0000","like_count":0,"user_likes":false},"776120059071340":{"id":"776120059071340","from":{"id":"100001807609603","name":"Nguyễn Khánh Huyền"},"message":"anh ấy nói đúng!","can_remove":false,"created_time":"2013-12-12T12:01:40+0000","like_count":0,"user_likes":false},"776121499071196":{"id":"776121499071196","from":{"id":"1816269439","name":"Dao Ngoc"},"message":"Việt Hưng Khổng: 99% trong số 500 người tự xưng có bằng kinh tế ^^z.  Và có hẳn đó chỉ là con số hay là ko hiểu vấn đề nội tại... Cũng là vấn đề","message_tags":[{"id":"1026780646","name":"Việt Hưng Khổng","type":"user","offset":0,"length":15}],"can_remove":false,"created_time":"2013-12-12T12:07:12+0000","like_count":0,"user_likes":false},"776121689071177":{"id":"776121689071177","from":{"id":"100000603915176","name":"悪いな ぁ"},"message":"Nếu là vì cách suy nghĩ thì đi một nhẽ khác Mi Tra ợ :)","message_tags":[{"id":"100000359762118","name":"Mi Tra","type":"user","offset":44,"length":6}],"can_remove":false,"created_time":"2013-12-12T12:08:04+0000","like_count":0,"user_likes":false},"776122729071073":{"id":"776122729071073","from":{"id":"100003762427351","name":"Hiroshi Yasu Oki"},"message":"Em sinh viên Kinh tế đây ạ,GDP Việt Nam tính như thế nào giờ chắc chắn 70% sinh viên lớp em không biết,số còn lại tìm công thức trên mạng như em :(\nHọc xong để biết,không dùng để một chỗ,và rồi quên -> Giáo dục Việt Nam","can_remove":false,"created_time":"2013-12-12T12:10:33+0000","like_count":1,"user_likes":false},"776123602404319":{"id":"776123602404319","from":{"id":"1026780646","name":"Việt Hưng Khổng"},"message":"Anh này mới chỉ thấy mặt nổi của vấn đề thôi phải không Dao Ngoc :) . Không biết anh ấy đã nghe khái niệm \"sai lầm hệ thống\" ở Việt Nam chưa =.=","message_tags":[{"id":"1816269439","name":"Dao Ngoc","type":"user","offset":56,"length":8}],"can_remove":false,"created_time":"2013-12-12T12:12:40+0000","like_count":1,"user_likes":false},"776133462403333":{"id":"776133462403333","from":{"id":"100003762427351","name":"Hiroshi Yasu Oki"},"message":"Đến cả một người nước ngoài tới VN mà chỉ thấy toàn những chuyện chẳng tốt đẹp gì như vầy,vậy mà có một số bạn trẻ vẫn còn \"Việt Nam mạnh mẽ,hòa nhập Thế Giới\"...","can_remove":false,"created_time":"2013-12-12T12:37:09+0000","like_count":0,"user_likes":false},"776136985736314":{"id":"776136985736314","from":{"id":"1816269439","name":"Dao Ngoc"},"message":"http://jbpress.ismedia.jp/articles/-/39386","can_remove":false,"created_time":"2013-12-12T12:45:29+0000","like_count":2,"user_likes":false},"776137065736306":{"id":"776137065736306","from":{"id":"1816269439","name":"Dao Ngoc"},"message":"Cả nhà đọc thử nhé","can_remove":false,"created_time":"2013-12-12T12:45:41+0000","like_count":0,"user_likes":false},"776145725735440":{"id":"776145725735440","from":{"id":"100005801442456","name":"An Nguyen"},"message":"Lãnh đạo như con lợn! Bảo hộ mấy thằng cha như xinaxuxu gì gì ... Tên công ty cứ như củ xu hào ấy, sản xuất xe ra cho mấy ông xe buýt lái thôi chứ có làm nên cái trò trống gì cho nền khoa học nước nhà đâu mà bảo với chả hộ....lợn cả chuồng!","can_remove":false,"created_time":"2013-12-12T13:06:27+0000","like_count":0,"user_likes":false},"776153635734649":{"id":"776153635734649","from":{"id":"1026780646","name":"Việt Hưng Khổng"},"message":"An Nguyen ơi, đằng sau nó không phải là những cái bắt tay, những lời cảm ơn, những núi tiền cho con cái du học, rồi gửi ngân hàng - thì còn có thể là gì đây ;(. Không lẽ là lo cho dân cho nước, nực cười ;((((! Hơn 20 năm cho một cái ngành lắp ráp què quặt, ko công nghiệp phụ trợ, không thương hiệu ...thuế má, chính sách thay đổi như thời tiết, những nhà đầu tư không chạy mất dép mới là chuyện lạ! Rồi đến 2020, lấy gì để tiến lên thành một nước công nghiệp đây- chưa kể cái thiên đường - đến cuối thế kỷ cũng chưa đã tìm thấy ! Chốt: chỉ dân đen là khổ :( !","message_tags":[{"id":"100005801442456","name":"An Nguyen","type":"user","offset":0,"length":9}],"can_remove":false,"created_time":"2013-12-12T13:14:39+0000","like_count":1,"user_likes":false},"776154242401255":{"id":"776154242401255","from":{"id":"100005801442456","name":"An Nguyen"},"message":"Thì bảo lãnh đạo lợn cả chuồng còn gì@.@","can_remove":false,"created_time":"2013-12-12T13:16:28+0000","like_count":0,"user_likes":false},"776155682401111":{"id":"776155682401111","from":{"id":"100005801442456","name":"An Nguyen"},"message":"Bảo hộ nền oto nước nhà đây!","can_remove":false,"created_time":"2013-12-12T13:19:45+0000","like_count":1,"user_likes":false},"776155839067762":{"id":"776155839067762","from":{"id":"1026780646","name":"Việt Hưng Khổng"},"message":"1/5 :v","can_remove":false,"created_time":"2013-12-12T13:20:18+0000","like_count":0,"user_likes":false},"776164792400200":{"id":"776164792400200","from":{"id":"100000603915176","name":"悪いな ぁ"},"message":"Hố hố, chuyện chính trị, xã hội có vẻ đc quan tâm quá nhỉ. Mỗi lần mọi người xả một chút! Có bạn nào có thể viết một bài về thời cuộc và tương lai của VN không nhỉ :;))","can_remove":false,"created_time":"2013-12-12T13:39:03+0000","like_count":2,"user_likes":false},"776168879066458":{"id":"776168879066458","from":{"id":"100005024348771","name":"Long Hoàng"},"message":"hầy động chạm tí nó cho là phản động như chơi","can_remove":false,"created_time":"2013-12-12T13:50:38+0000","like_count":1,"user_likes":false},"776248022391877":{"id":"776248022391877","from":{"id":"1146680551","name":"優しい なぁ"},"message":"Mình cũng k thích ý bạn này viết lắm.Cho bạn này 2 bàn tay trắng, làm sv kinh tế ở VN ,thì chắc sẽ nói khác.","can_remove":false,"created_time":"2013-12-12T16:44:55+0000","like_count":2,"user_likes":false},"776249329058413":{"id":"776249329058413","from":{"id":"100005024348771","name":"Long Hoàng"},"message":"hầy không phải tự ái nhưng em là sv ngoại ngữ, đọc xong em thấy phần đầu rất nực cười, vâng anh ấy nói cứ như là bảo đứa trẻ sơ sinh không phải thiên tài vì nếu nó là thiên tài thì nó đã phải biết nói rồi, vả lại, sinh viên ngoải ngữ đầy người giỏi( nhưng không phải em)","can_remove":false,"created_time":"2013-12-12T16:48:06+0000","like_count":1,"user_likes":false},"776251315724881":{"id":"776251315724881","from":{"id":"1146680551","name":"優しい なぁ"},"message":"Người viết đâu biết SV chúng ta đâu có sự lựa chọn? Đâu biết chúng ta được học trong môi trường như thế nào? Cũng chẳng biết được nhiều bạn phải chạy cơm từng bữa để có tiền đi học? Cũng chẳng biết được SV VN chỉ là nạn nhân của 1 hệ thống?","can_remove":false,"created_time":"2013-12-12T16:51:54+0000","like_count":4,"user_likes":false},"776431212373558":{"id":"776431212373558","from":{"id":"100005801442456","name":"An Nguyen"},"message":"Phải gọi là nạn nhân của 1 chương trình sắp đặt có hệ thống từ trước , mục đích để hướng tới là sự ngu dân để trị... Nói vậy mới đúng chứ lị.","can_remove":false,"created_time":"2013-12-13T00:54:40+0000","like_count":4,"user_likes":false},"776499162366763":{"id":"776499162366763","from":{"id":"100001526631937","name":"Tường Oanh Mineko"},"message":"Thả a này từ lúc mới sinh ra cho đến bjo mà sống ở vn thì....thua xa ng vn hiện nay cũng nên :p, sống thuần việt luôn ấy nhé !","can_remove":false,"created_time":"2013-12-13T03:47:34+0000","like_count":0,"user_likes":false},"776513922365287":{"id":"776513922365287","from":{"id":"100001526631937","name":"Tường Oanh Mineko"},"message":"chẳng phải học sinh, sv vn đã bị áp đặt rặp khuôn ngay từ những ngày đầu đến trường sao? Nào là phải học cái này, phải thuộc cái kia....gì chứ! Học thì học, cuối cùng chính hs, sv đó học cái đó chả biết để làm gì, mà cũng phải học với tâm lý có ghét, ko ưa đến mấy đi nữa.Ngay cả việc chỉ học những cái mình thích, mình muốn học thôi đã ko có từ bé rồi nhé ! Ai bảo sống tại vn chi. :D","can_remove":false,"created_time":"2013-12-13T03:57:14+0000","like_count":1,"user_likes":false},"776524365697576":{"id":"776524365697576","from":{"id":"1813611352","name":"To Đùng"},"message":"Cái này thì mình thấy chuẩn này.","can_remove":false,"created_time":"2013-12-13T04:13:46+0000","like_count":0,"user_likes":false},"776524445697568":{"id":"776524445697568","from":{"id":"1813611352","name":"To Đùng"},"message":"Phải ko Anh Nguyễn :))","message_tags":[{"id":"1146680551","name":"Anh Nguyễn","type":"user","offset":8,"length":10}],"can_remove":false,"created_time":"2013-12-13T04:13:59+0000","like_count":0,"user_likes":false}},"paging":{"cursors":{"after":"Nzc2MTEyMTc1NzM4Nzk1","before":"Nzc2MTEyMTc1NzM4Nzk1"},"next":"https://graph.facebook.com/229244010425617_776109159072430/comments?limit=1&summary=1&after=Nzc2MTEyMTc1NzM4Nzk1"},"summary":{"order":"chronological","total_count":31}}}