{"id":"229244010425617_776740985675914","type":"status","from":{"id":"100003933466469","name":"Phong Aki"},"message":"Xin chia sẻ cả nhà một bài viết hay, hơi dài 1 chút. Có lẽ chúng ta ai cũng thường hay chê những thói hư tật xấu của người Việt mình, nhưng nhìn kĩ lại thì hình như \"chúng ta có làm gì đâu\" để thay đổi nó. Chúng ta vẫn bị mua hàng ăn cắp vì nó rẻ, chúng ta vẫn đưa hối lộ để công việc trơn tru, chúng ta nói hệ thống giáo dục chúng ta kém mà bản thân chúng ta có đọc hoàn thành 1 cuốn sách nào trong vòng 1 tháng nay hay không?.....","created_time":"2013-12-13T13:22:35+0000","updated_time":"2013-12-16T01:53:23+0000","likes":{"data":{"100004186353970":{"id":"100004186353970","name":"Nguyen Quang Huy"},"100000045271667":{"id":"100000045271667","name":"Nam Thai Nguyen"},"100000381394367":{"id":"100000381394367","name":"Thành Nguyễn"},"1026780646":{"id":"1026780646","name":"Việt Hưng Khổng"},"100002911187986":{"id":"100002911187986","name":"Nghia Bui"},"100001754136107":{"id":"100001754136107","name":"Nguyễn Tuấn Vũ"},"100001697437502":{"id":"100001697437502","name":"Huu Long Nguyen"},"100002290906582":{"id":"100002290906582","name":"Kanashimi No Yukue"},"100002444618453":{"id":"100002444618453","name":"Tomio  Ueno"},"100000199780783":{"id":"100000199780783","name":"Nguyen Thu Hoai"},"100000359762118":{"id":"100000359762118","name":"Mi Tra"},"100001416272263":{"id":"100001416272263","name":"Mai PB"},"100001526631937":{"id":"100001526631937","name":"Tường Oanh Mineko"},"100005801442456":{"id":"100005801442456","name":"An Nguyen"},"100003683390259":{"id":"100003683390259","name":"Huệ Hoàng"},"100005024348771":{"id":"100005024348771","name":"Long Hoàng"}},"paging":{"cursors":{"after":"MTAwMDA0MTg2MzUzOTcw","before":"MTAwMDA0MTg2MzUzOTcw"},"next":"https://graph.facebook.com/229244010425617_776740985675914/likes?limit=1&summary=1&after=MTAwMDA0MTg2MzUzOTcw"},"summary":{"total_count":16}},"comments":{"data":{"776748522341827":{"id":"776748522341827","from":{"id":"100003933466469","name":"Phong Aki"},"message":"Bạn Vuong Hoang ơi bạn vui lòng viêt tiếng Việt có dấu giúp ạ. Xin lỗi mình không hiểu được ý bạn nói gì.","message_tags":[{"id":"100004778527078","name":"Vuong Hoang","type":"user","offset":4,"length":11}],"can_remove":false,"created_time":"2013-12-13T13:41:52+0000","like_count":2,"user_likes":false},"776750659008280":{"id":"776750659008280","from":{"id":"100001526631937","name":"Tường Oanh Mineko"},"message":"Vuong Hoang viết có dấu nhé ! hãy sửa lại cho phù hợp quy định của group và tôn trọng ng đọc.","message_tags":[{"id":"100004778527078","name":"Vuong Hoang","type":"user","offset":0,"length":11}],"can_remove":false,"created_time":"2013-12-13T13:47:59+0000","like_count":1,"user_likes":false},"776778375672175":{"id":"776778375672175","from":{"id":"569263718","name":"Phuong Thao Tran"},"message":"Phong Aki thì nhẹ nhàng êm dịu như gió thu... Tường Oanh Mineko thiệt là rắn rỏi như là thép đã tôi thế đấy, :D","message_tags":[{"id":"100003933466469","name":"Phong Aki","type":"user","offset":0,"length":9},{"id":"100001526631937","name":"Tường Oanh Mineko","type":"user","offset":46,"length":17}],"can_remove":false,"created_time":"2013-12-13T14:27:52+0000","like_count":3,"user_likes":false},"776779179005428":{"id":"776779179005428","from":{"id":"100001526631937","name":"Tường Oanh Mineko"},"message":"vì anh ấy nhẹ như gió thoảng vậy mà ngta chưa chịu thì....hehe","can_remove":false,"created_time":"2013-12-13T14:30:03+0000","like_count":1,"user_likes":false},"776780679005278":{"id":"776780679005278","from":{"id":"100004778527078","name":"Vuong Hoang"},"message":"xin loi ban minh viet the nay chăc ban dễ đọc hơn. mình nói là nền giáo dục đó đã cho chúng ta môt nền tảng siêu lý thuyết đến nỗi đôi lúc thầy giáo cũng nói thẳng thầy chỉ dạy lý thuyết còn thực tế các em phải tự trải nghiệm. được vậy thẳng thật còn đỡ cái kiểu nâng đỡ học sinh nhận thành tích thi đua và rút tiền phụ huynh còn nghuy hiểm hại não hơn nhiều. trước đây mình ước vào bộ đội, công an hay giáo viên cũng được nhưng giờ mình chỉ muốn làm việc chân chính và có tiền vậy đã yêu nước hơn những kẻ đang góp phần đưa giới trẻ vào ngõ cụt của sự phát triển. khác với tư duy kiếm tiền và dùng tiền ở các nước tư bản thì người việt laị vì t","can_remove":false,"created_time":"2013-12-13T14:31:54+0000","like_count":0,"user_likes":false},"776791429004203":{"id":"776791429004203","from":{"id":"100001526631937","name":"Tường Oanh Mineko"},"message":"Bạn nói ko phải ko có lý, nhưng chỉ dành cho 1 số thành phần thôi, còn nội dung bài trên vẫn muốn hướng đến ý thức cho mỗi cá nhân vs hành động của họ.Đâu cần phải có thầy cô dạy hoàn toàn đâu, từ ý thức của chính bạn đã cao thì ngkhac chỉ có thể dạy bạn những thứ bạn còn thiếu mà thôi.","can_remove":false,"created_time":"2013-12-13T14:37:58+0000","like_count":3,"user_likes":false},"778406455509367":{"id":"778406455509367","from":{"id":"100003933466469","name":"Phong Aki"},"message":"Vâng nếu bạn đã thấy những trở ngại, bất cập thì bạn phải tìm cách thay đổi nó từ chính bản thân mỗi người trước phải không nào? Còn tư duy kiếm tiền và xài tiền ở các nước tư bản thì sao bạn nhỉ? Mình thấy họ vẫn đang làm tốt đó thôi, những người thông minh tài giỏi kiếm được nhiều tiền bằng sức lao động thì cách xài tiền, giữ tiền của họ còn hiệu quả gấp bội phần. Những cái đó không đáng cho mình học hỏi sao hỉ? Mình nghĩ hãy bỏ đi cái suy nghĩ tư bản này nọ, cái gì hay có lợi cho mình, cho dân mình thì học và tìm cách mà áp dụng để thay đổi thôi. :)","can_remove":false,"created_time":"2013-12-16T01:53:23+0000","like_count":1,"user_likes":false}},"paging":{"cursors":{"after":"Nzc2NzQ4NTIyMzQxODI3","before":"Nzc2NzQ4NTIyMzQxODI3"},"next":"https://graph.facebook.com/229244010425617_776740985675914/comments?limit=1&summary=1&after=Nzc2NzQ4NTIyMzQxODI3"},"summary":{"order":"chronological","total_count":7}}}