{"id":"229244010425617_776754679007878","type":"status","from":{"id":"100001458099624","name":"Kham Pha"},"message":"皆さん、週末が来てますよ。\nどこか楽しそうなところへいきますか？または何か面白いことをやりますか？\nぜひ、日本語を使って教えてください。 :)","created_time":"2013-12-13T13:57:39+0000","updated_time":"2013-12-14T09:24:21+0000","likes":{"data":{"100007316735911":{"id":"100007316735911","name":"Tuyen Dung Vn  Jp"},"100001723862714":{"id":"100001723862714","name":"Bo Bien Vang"},"100000175468518":{"id":"100000175468518","name":"Chj Koj"},"100002898154513":{"id":"100002898154513","name":"Gã Shrek"},"1725907325":{"id":"1725907325","name":"Nguyen Van Dung"},"100003049639881":{"id":"100003049639881","name":"Truong Luvuxy"},"100001878857892":{"id":"100001878857892","name":"Lvc Lvc"},"1580589258":{"id":"1580589258","name":"Kani Oboeru"},"100002262360322":{"id":"100002262360322","name":"Nhật Trần"},"100001526631937":{"id":"100001526631937","name":"Tường Oanh Mineko"},"100001860571838":{"id":"100001860571838","name":"Nam Le"},"100003683390259":{"id":"100003683390259","name":"Huệ Hoàng"},"100002676859353":{"id":"100002676859353","name":"Chu Quang Viên"},"100003055356509":{"id":"100003055356509","name":"Thuan Nguyen"}},"paging":{"cursors":{"after":"MTAwMDA3MzE2NzM1OTEx","before":"MTAwMDA3MzE2NzM1OTEx"},"next":"https://graph.facebook.com/229244010425617_776754679007878/likes?limit=1&summary=1&after=MTAwMDA3MzE2NzM1OTEx"},"summary":{"total_count":14}},"comments":{"data":{"776757615674251":{"id":"776757615674251","from":{"id":"100000359762118","name":"Mi Tra"},"message":"今週は週末出勤です´д` ;","can_remove":false,"created_time":"2013-12-13T14:04:01+0000","like_count":1,"user_likes":false},"776757882340891":{"id":"776757882340891","from":{"id":"100001458099624","name":"Kham Pha"},"message":"マジで","can_remove":false,"created_time":"2013-12-13T14:04:33+0000","like_count":0,"user_likes":false},"776757899007556":{"id":"776757899007556","from":{"id":"1146680551","name":"優しい なぁ"},"message":"マジで^_^","can_remove":false,"created_time":"2013-12-13T14:04:37+0000","like_count":0,"user_likes":false},"776758159007530":{"id":"776758159007530","from":{"id":"100000359762118","name":"Mi Tra"},"message":"マジです(；´Д`A","can_remove":false,"created_time":"2013-12-13T14:05:31+0000","like_count":0,"user_likes":false},"776758489007497":{"id":"776758489007497","from":{"id":"1146680551","name":"優しい なぁ"},"message":"お台場で花火やってるんで、きれいなので、見に行っていいと思う。","can_remove":false,"created_time":"2013-12-13T14:06:24+0000","like_count":4,"user_likes":false},"776759149007431":{"id":"776759149007431","from":{"id":"100001458099624","name":"Kham Pha"},"message":"Mi Tra 結構真面目もんだな.","message_tags":[{"id":"100000359762118","name":"Mi Tra","type":"user","offset":0,"length":6}],"can_remove":false,"created_time":"2013-12-13T14:08:04+0000","like_count":0,"user_likes":false},"776759985674014":{"id":"776759985674014","from":{"id":"100001458099624","name":"Kham Pha"},"message":"Anh Nguyễn 一人でいくの？","message_tags":[{"id":"1146680551","name":"Anh Nguyễn","type":"user","offset":0,"length":10}],"can_remove":false,"created_time":"2013-12-13T14:09:28+0000","like_count":0,"user_likes":false},"776760632340616":{"id":"776760632340616","from":{"id":"1146680551","name":"優しい なぁ"},"message":"ううん、彼女と^_^","can_remove":false,"created_time":"2013-12-13T14:11:24+0000","like_count":2,"user_likes":false},"776760855673927":{"id":"776760855673927","from":{"id":"100001458099624","name":"Kham Pha"},"message":"マジで、君なんて :v","can_remove":false,"created_time":"2013-12-13T14:12:18+0000","like_count":3,"user_likes":false},"776770255672987":{"id":"776770255672987","from":{"id":"1146680551","name":"優しい なぁ"},"message":"嘘でーす","can_remove":false,"created_time":"2013-12-13T14:17:08+0000","like_count":2,"user_likes":false},"776777252338954":{"id":"776777252338954","from":{"id":"100001458099624","name":"Kham Pha"},"message":"どこにも行かないわけか、寂しいなあ。","can_remove":false,"created_time":"2013-12-13T14:26:01+0000","like_count":0,"user_likes":false},"776777532338926":{"id":"776777532338926","from":{"id":"100000359762118","name":"Mi Tra"},"message":"Kham Pha: 真面目なんかじゃないけど、終わらさなくちゃいけないことがいっぱい溜まっている{(-_-)}","can_remove":false,"created_time":"2013-12-13T14:26:50+0000","like_count":0,"user_likes":false},"776779425672070":{"id":"776779425672070","from":{"id":"100003049639881","name":"Truong Luvuxy"},"message":"どこでも 日本語 を 使わないと、","can_remove":false,"created_time":"2013-12-13T14:30:37+0000","like_count":0,"user_likes":false},"776779642338715":{"id":"776779642338715","from":{"id":"100001458099624","name":"Kham Pha"},"message":"それは出勤じゃなくて、残業だ。残業なんて僕は真面目もんと言わない。 :v","can_remove":false,"created_time":"2013-12-13T14:31:16+0000","like_count":0,"user_likes":false},"776781885671824":{"id":"776781885671824","from":{"id":"1725907325","name":"Nguyen Van Dung"},"message":"来週にはテストと発表があって、行こうにも行けないんだな","can_remove":false,"created_time":"2013-12-13T14:35:35+0000","like_count":0,"user_likes":false},"776801062336573":{"id":"776801062336573","from":{"id":"100001458099624","name":"Kham Pha"},"message":"テストだって発表があるていうのははじめて聞くんだ。テストはテスト、発表は発表、一緒のものじゃないんだ。","can_remove":false,"created_time":"2013-12-13T14:40:02+0000","like_count":2,"user_likes":false},"777203952296284":{"id":"777203952296284","from":{"id":"1235866955","name":"Loan Pham"},"message":"これと言ったことはない。っていうか、めっちゃ地味に過ごしてる！","can_remove":false,"created_time":"2013-12-14T06:21:11+0000","like_count":0,"user_likes":false},"777245198958826":{"id":"777245198958826","from":{"id":"100001458099624","name":"Kham Pha"},"message":"寒い日の中皆は週末を地味に過ごしがちかもしれない。僕は狂気沙汰で盛り上がりたいな。","can_remove":false,"created_time":"2013-12-14T08:23:02+0000","like_count":0,"user_likes":false},"777262085623804":{"id":"777262085623804","from":{"id":"1725907325","name":"Nguyen Van Dung"},"message":"もちろん、テストはテスト、発表は発表なんだ。\n\nただ発表は口頭で慣れてきた一方、テストは論述などがあってなかなか慣れていないんだ。","can_remove":false,"created_time":"2013-12-14T09:13:24+0000","like_count":0,"user_likes":false},"777265892290090":{"id":"777265892290090","from":{"id":"1235866955","name":"Loan Pham"},"message":"因みに、私は日本じゃなく、ベトナムに住んでるけど。。。","can_remove":false,"created_time":"2013-12-14T09:24:21+0000","like_count":0,"user_likes":false}},"paging":{"cursors":{"after":"Nzc2NzU3NjE1Njc0MjUx","before":"Nzc2NzU3NjE1Njc0MjUx"},"next":"https://graph.facebook.com/229244010425617_776754679007878/comments?limit=1&summary=1&after=Nzc2NzU3NjE1Njc0MjUx"},"summary":{"order":"chronological","total_count":20}}}