{"id":"229244010425617_776840648999281","type":"link","picture":"https://fbexternal-a.akamaihd.net/app_full_proxy.php?app=6628568379&v=1&size=z&cksum=d39a3d706daf7839731d9dc685ec3139&src=http%3A%2F%2Fwww.poste-vn.com%2Fm%2Fimages%2Fdiarylogo.png","link":"http://www.poste-vn.com/m/studentdiary/60","from":{"id":"100001458099624","name":"Kham Pha"},"message":"Hôi bia đã lên báo Nhật. Xấu hổ quá.\nhttp://www.poste-vn.com/m/studentdiary/60","created_time":"2013-12-13T15:20:55+0000","updated_time":"2013-12-14T02:59:03+0000","likes":{"data":{"100002754998000":{"id":"100002754998000","name":"Nguyen Duc"},"100001864793577":{"id":"100001864793577","name":"Sakura Đhbkhn"},"100000292556230":{"id":"100000292556230","name":"Duy Anh Phạm"},"100003893158172":{"id":"100003893158172","name":"Maru MO"},"100001442509723":{"id":"100001442509723","name":"Nguyễn Mai Anh"},"100006103290361":{"id":"100006103290361","name":"Maruko Chan"},"100001311743715":{"id":"100001311743715","name":"Quỳnh Trang"},"100000022163023":{"id":"100000022163023","name":"Kafe Ore"},"100005478454231":{"id":"100005478454231","name":"Maruko Chan"},"100000603915176":{"id":"100000603915176","name":"悪いな ぁ"},"100000211237467":{"id":"100000211237467","name":"Nguyễn Thị Hà"},"100000118843110":{"id":"100000118843110","name":"Tiểu Lang"},"100005903373573":{"id":"100005903373573","name":"HaLinh Phong Phan"},"100006612939725":{"id":"100006612939725","name":"Hương Ngọc Lan"},"100004798083725":{"id":"100004798083725","name":"Cappu Ccino"},"100004450956167":{"id":"100004450956167","name":"Thắng Satoh"},"100005801442456":{"id":"100005801442456","name":"An Nguyen"},"100003731305416":{"id":"100003731305416","name":"Nam Nguyen"},"100004099236890":{"id":"100004099236890","name":"Trang Tép"},"100006312426050":{"id":"100006312426050","name":"Nam Hạnh"},"100001044080438":{"id":"100001044080438","name":"Huyen Vy"},"100006502552041":{"id":"100006502552041","name":"Xấu Xí"},"100006083164006":{"id":"100006083164006","name":"Truong Dollar"},"1318895018":{"id":"1318895018","name":"Van T Tran"},"100003079912929":{"id":"100003079912929","name":"Chen Miku"},"1783190483":{"id":"1783190483","name":"Trần Xuân Hiệp"},"100003049639881":{"id":"100003049639881","name":"Truong Luvuxy"},"683231044":{"id":"683231044","name":"Hoàng Hải Đăng"},"100006677492541":{"id":"100006677492541","name":"Do Duyen"},"100003275789728":{"id":"100003275789728","name":"Quoc Tran"},"100003762427351":{"id":"100003762427351","name":"Hiroshi Yasu Oki"},"100005211189763":{"id":"100005211189763","name":"Oliveu Cchann"},"100000381394367":{"id":"100000381394367","name":"Thành Nguyễn"},"100002907638629":{"id":"100002907638629","name":"Huyền Trang"},"100002676859353":{"id":"100002676859353","name":"Chu Quang Viên"},"100000293174570":{"id":"100000293174570","name":"Vịt Vụng Về"},"1146680551":{"id":"1146680551","name":"優しい なぁ"},"100002098748602":{"id":"100002098748602","name":"Thuần Việt"},"100002898154513":{"id":"100002898154513","name":"Gã Shrek"},"100005811458124":{"id":"100005811458124","name":"Phúc Long"},"100004660928189":{"id":"100004660928189","name":"Quyen Nguyen"},"100005850726778":{"id":"100005850726778","name":"Ron Nguyen"},"100001658751624":{"id":"100001658751624","name":"Kim Chan"},"1082956399":{"id":"1082956399","name":"Danny Dee Nguyen IE"},"100000045271667":{"id":"100000045271667","name":"Nam Thai Nguyen"},"100001440054060":{"id":"100001440054060","name":"Pi Trần"},"100001526631937":{"id":"100001526631937","name":"Tường Oanh Mineko"},"100001416272263":{"id":"100001416272263","name":"Mai PB"},"100003143578550":{"id":"100003143578550","name":"Vn Tim"},"100005024348771":{"id":"100005024348771","name":"Long Hoàng"},"100001501391912":{"id":"100001501391912","name":"Lai Hoang Duc"}},"paging":{"cursors":{"after":"MTAwMDAyNzU0OTk4MDAw","before":"MTAwMDAyNzU0OTk4MDAw"},"next":"https://graph.facebook.com/229244010425617_776840648999281/likes?limit=1&summary=1&after=MTAwMDAyNzU0OTk4MDAw"},"summary":{"total_count":51}},"comments":{"data":{"776841318999214":{"id":"776841318999214","from":{"id":"1416265619","name":"Starwar Bbj"},"message":"vâng, thật xấu hổ :(","can_remove":false,"created_time":"2013-12-13T15:22:08+0000","like_count":0,"user_likes":false},"776841525665860":{"id":"776841525665860","from":{"id":"1283298041","name":"Búa Đức Thanh"},"message":":(","can_remove":false,"created_time":"2013-12-13T15:22:33+0000","like_count":0,"user_likes":false},"776841658999180":{"id":"776841658999180","from":{"id":"100001823028477","name":"Kiên Phi Nguyễn"},"message":"xấu hổ đáng để khoe khoang lắm à mà post lên đây","can_remove":false,"created_time":"2013-12-13T15:22:56+0000","like_count":1,"user_likes":false},"776843698998976":{"id":"776843698998976","from":{"id":"100001458099624","name":"Kham Pha"},"message":"Ko đáng để khoe nhưng đáng để lên đây xấu hổ.","can_remove":false,"created_time":"2013-12-13T15:26:19+0000","like_count":6,"user_likes":false},"776844658998880":{"id":"776844658998880","from":{"id":"100001416272263","name":"Mai PB"},"message":"Ngàn vạn lần cảm thấy biết ơn người đã viết tấm băng rôn xin lỗi kia.","can_remove":false,"created_time":"2013-12-13T15:28:18+0000","like_count":6,"user_likes":false},"776845855665427":{"id":"776845855665427","from":{"id":"1283298041","name":"Búa Đức Thanh"},"message":"Lên đây biết xấu hổ cho biết sửa","can_remove":false,"created_time":"2013-12-13T15:30:43+0000","like_count":6,"user_likes":false},"776846302332049":{"id":"776846302332049","from":{"id":"100000603915176","name":"悪いな ぁ"},"message":"Kiên Phi Nguyễn có hiểu chữ \"khoe\" dùng khi nào kg? Động não đi!","can_remove":false,"created_time":"2013-12-13T15:31:49+0000","like_count":1,"user_likes":false},"776846932331986":{"id":"776846932331986","from":{"id":"651345012","name":"Ngoc Atho"},"message":"toàn trang của người vn, người vn dịch ra, nhật nào care vụ này :3","can_remove":false,"created_time":"2013-12-13T15:32:44+0000","like_count":0,"user_likes":false},"776847778998568":{"id":"776847778998568","from":{"id":"100003005952936","name":"Nani No"},"message":"xau ho that day ....","can_remove":false,"created_time":"2013-12-13T15:34:41+0000","like_count":0,"user_likes":false},"776847928998553":{"id":"776847928998553","from":{"id":"100001579421234","name":"Lương Đức Bảo"},"message":"báo này toàn thấy viết về Việt Nam nhỉ :))","can_remove":false,"created_time":"2013-12-13T15:35:04+0000","like_count":0,"user_likes":false},"776848028998543":{"id":"776848028998543","from":{"id":"100004123327271","name":"Nguyễn Phương"},"message":"ngay nao kung gap ng nhat  ho doc thay xau that chu.","can_remove":false,"created_time":"2013-12-13T15:35:19+0000","like_count":0,"user_likes":false},"776848252331854":{"id":"776848252331854","from":{"id":"100004123327271","name":"Nguyễn Phương"},"message":"con duoc len ca bao Nga nua?","can_remove":false,"created_time":"2013-12-13T15:36:05+0000","like_count":0,"user_likes":false},"776848822331797":{"id":"776848822331797","from":{"id":"100000191314791","name":"Bưởi"},"message":"Báo Nhật là báo của Nhật hay báo viết = tiếng Nhật ?","can_remove":false,"created_time":"2013-12-13T15:37:47+0000","like_count":0,"user_likes":false},"776849775665035":{"id":"776849775665035","from":{"id":"100001458099624","name":"Kham Pha"},"message":"Các trang đấy viết ra tiếng Nhật để  cho những người Nhật quan tâm VN đọc, tìm thông tin. Một khi đã viết bằng tiếng Nhật thì người Nhật biết. Hệ quả là cả những trang của Nhật cũng trích dẫn lại. \nhttp://www.bishoku-seikatsu.com/bishoku_02/bishoku_02_02/500461.html","can_remove":false,"created_time":"2013-12-13T15:40:06+0000","like_count":3,"user_likes":false},"776850092331670":{"id":"776850092331670","from":{"id":"100000328742646","name":"Trần Giáp"},"message":":3\nhttp://www.viet-jo.com/news/social/131210011421.html","can_remove":false,"created_time":"2013-12-13T15:40:43+0000","like_count":2,"user_likes":false},"776850582331621":{"id":"776850582331621","from":{"id":"651345012","name":"Ngoc Atho"},"message":"cái này là tự người mình vạch áo cho người xem lưng, còn trách gì ai","can_remove":false,"created_time":"2013-12-13T15:41:30+0000","like_count":0,"user_likes":false},"776851318998214":{"id":"776851318998214","from":{"id":"100001458099624","name":"Kham Pha"},"message":"Đâu có ai trách gì người viết báo? Có trách là trách người hôi bia, xã hội hôi của. Từ quan đến dân.","can_remove":false,"created_time":"2013-12-13T15:43:10+0000","like_count":3,"user_likes":false},"776852722331407":{"id":"776852722331407","from":{"id":"100005866751996","name":"Nam Nguyen"},"message":"Cảm giác như bài này là do người Việt viết!!","can_remove":false,"created_time":"2013-12-13T15:45:58+0000","like_count":0,"user_likes":false},"776853595664653":{"id":"776853595664653","from":{"id":"1146680551","name":"優しい なぁ"},"message":"Hết vụ sushi đến vụ này.:( dân ta đang bị sao chăng?!","can_remove":false,"created_time":"2013-12-13T15:48:18+0000","like_count":0,"user_likes":false},"776853828997963":{"id":"776853828997963","from":{"id":"100001458099624","name":"Kham Pha"},"message":"Có thể lắm. Nhưng kết quả thì như nhau thôi. Dù viết hay ko thì vẫn thấy xấu hổ.","can_remove":false,"created_time":"2013-12-13T15:48:35+0000","like_count":0,"user_likes":false},"776853862331293":{"id":"776853862331293","from":{"id":"100005811458124","name":"Phúc Long"},"message":"Cái này là do 1 bộ phận ng Việt hôi bia làm xấu đi hình ảnh con người, đất nước chúng ta.Có trách thì trách những người hôi bia chứ sao trách được những người đăng bài.","can_remove":false,"created_time":"2013-12-13T15:48:35+0000","like_count":1,"user_likes":false},"776854255664587":{"id":"776854255664587","from":{"id":"100001526631937","name":"Tường Oanh Mineko"},"message":"Ng nào viết ko quan trọng mà...quan trọng là ng vn mình biết xấu hổ vậy đó (ko biết có cảm thấy xấu hổ hay ko đối với ng hôi bia) rồi có biết làm gì để cho bớt xấu hổ hay dẹp cái tình ko hay đó đi đc hay ko...mới là vấn đề","can_remove":false,"created_time":"2013-12-13T15:49:40+0000","like_count":2,"user_likes":false},"776854772331202":{"id":"776854772331202","from":{"id":"100003005952936","name":"Nani No"},"message":"mat het hinh tuong nguoi viet trong mat nguoi nuoc ngoai roi ...gio lam duoc gi day","can_remove":false,"created_time":"2013-12-13T15:51:03+0000","like_count":0,"user_likes":false},"776855718997774":{"id":"776855718997774","from":{"id":"100001526631937","name":"Tường Oanh Mineko"},"message":"Còn vc \" vạch áo cho ng xem lưng\"...bộ lưng vn mình trc h có gì đẹp hay có gì xấu nhiều lắm hay sao mà sợ ko cho ngta xem vậy? mà có xem mới biết xấu đẹp chỗ nào mà còn đi \" chỉnh hình\" hay \" phẫu thuật\" nó đi chứ.","can_remove":false,"created_time":"2013-12-13T15:52:36+0000","like_count":0,"user_likes":false},"776856155664397":{"id":"776856155664397","from":{"id":"100003005952936","name":"Nani No"},"message":"kêu bac si CÁC TƯỜNG phẩu thuật ............hi","can_remove":false,"created_time":"2013-12-13T15:53:45+0000","like_count":0,"user_likes":false},"776856868997659":{"id":"776856868997659","from":{"id":"651345012","name":"Ngoc Atho"},"message":"thế đem hết tất cả những cái xấu xa của đất nước mình cho cả thế giới biết thì là hay ư ?? sao mà suy nghĩ u mê làm vậy :3","can_remove":false,"created_time":"2013-12-13T15:55:19+0000","like_count":0,"user_likes":false},"776857778997568":{"id":"776857778997568","from":{"id":"100001458099624","name":"Kham Pha"},"message":"Người tỉnh táo nhìn nhận lỗi lầm để sửa, người u mê tránh nhắc đến nó.","can_remove":false,"created_time":"2013-12-13T15:57:43+0000","like_count":6,"user_likes":false},"776858292330850":{"id":"776858292330850","from":{"id":"100001526631937","name":"Tường Oanh Mineko"},"message":"Ngoc Atho, u mê? u mê là khi ta có cái xấu mà ta ko nhận ra cái xấu của ta kia....thì khi đó đáng để vạch ra mà \" phẫu thuật\" lắm chứ??...ko nên như vậy sao? hay cứ biết mình dốt rồi giấu cái dốt đó đi? theo bạn bạn sẽ giấu hay ko?","message_tags":[{"id":"651345012","name":"Ngoc Atho","type":"user","offset":0,"length":9}],"can_remove":false,"created_time":"2013-12-13T15:59:22+0000","like_count":2,"user_likes":false},"776858408997505":{"id":"776858408997505","from":{"id":"651345012","name":"Ngoc Atho"},"message":"có ai bảo là ko tự nhận lỗi lầm, tránh nhắc đến hồi nào đâu, cái này cả xã hội đang lên án rồi, đây là nỗi nhục của cả đất nước, nhục thế còn thông báo với cả nhân loại để làm gì, để nhục thêm ru ?","can_remove":false,"created_time":"2013-12-13T15:59:39+0000","like_count":0,"user_likes":false},"776858555664157":{"id":"776858555664157","from":{"id":"1146680551","name":"優しい なぁ"},"message":"Các bác khoan cãi nhau.giải hộ em bài toán","can_remove":false,"created_time":"2013-12-13T16:00:00+0000","like_count":2,"user_likes":false},"776862325663780":{"id":"776862325663780","from":{"id":"100001458099624","name":"Kham Pha"},"message":"Càng xấu hổ thì càng đánh động đc mong muốn sửa đổi. \nNước Nhật nhờ mang nỗi nhục thua trận nên mới quyết tâm xây dựng lại đất nước như ngày nay. Giờ thì ai dám khinh thường họ.","can_remove":false,"created_time":"2013-12-13T16:07:37+0000","like_count":0,"user_likes":false},"776862552330424":{"id":"776862552330424","from":{"id":"651345012","name":"Ngoc Atho"},"message":"cái nhà bác này, nhà bác có lắm vấn đề, lục đục từ trên xuống dưới, xấu xa từ trong ra ngoài, nhà bác đóng cửa bảo nhau hay bác loa phường cho cả làng, cả phố biết ???\n\nGiờ việc đã rồi, vấn đề là mình xử lý nội bộ thế nào, tránh để người ngoài biết mới là phải, giờ các bác có muốn tất cả các nước chúng nó đưa tin, rồi người mình bên đó bị chúng nó cười vào mặt ko, có muốn hình ảnh đất nước vn bị bôi nhọ đi ko, hay là phải thế các bác mới thích nhỉ,\n\nhết thuốc :-??","can_remove":false,"created_time":"2013-12-13T16:08:08+0000","like_count":2,"user_likes":false},"776866075663405":{"id":"776866075663405","from":{"id":"100001458099624","name":"Kham Pha"},"message":"Kể cho bạn chuyện này. Ngày xưa mình đi học chỉ là hs bình thường thôi, có lần bị thầy xách tai lên trước lớp vì giải sai bài toán ai cũng giải đc.\nNhờ nỗi nhục đó sau 2 năm mình xếp hạng nhất nhì lớp về toán và lên cấp 3 đỗ chuyên toán cả của bộ và của tỉnh. Bạn có nghĩ rằng nếu mình im ỉm giải sai thì sẽ tốt hơn ko?","can_remove":false,"created_time":"2013-12-13T16:16:07+0000","like_count":3,"user_likes":false},"776866092330070":{"id":"776866092330070","from":{"id":"1146680551","name":"優しい なぁ"},"message":"Giống như câu\"đóng cửa bảo nhau,tự kiểm điem hả bạn?","can_remove":false,"created_time":"2013-12-13T16:16:10+0000","like_count":0,"user_likes":false},"776866658996680":{"id":"776866658996680","from":{"id":"651345012","name":"Ngoc Atho"},"message":"thôi chịu rồi :3","can_remove":false,"created_time":"2013-12-13T16:17:56+0000","like_count":0,"user_likes":false},"776867488996597":{"id":"776867488996597","from":{"id":"100000381394367","name":"Thành Nguyễn"},"message":"Nhờ có báo đăng tin nhiều, người ta biết xấu hổ và đã biết suy nghĩ thân trọng hơn, biết quan niệm về đúng sai, xã hội bước đầu đã có chuyển biến. Sự thật bao giờ cũng mạnh hơn sự dối trá nên dù bất kể thế nào phê phán cái xấu là điều nên làm thay vì che đậy nó. Đây chính là kết quả của sự phê phán ấy\n\nhttp://vitalk.vn/threads/quang-ninh-lat-xe-cho-nuoc-giai-khat-nguoi-dan-be-hang-giup-lai-xe.30527/#.UqyD_fRdURo","can_remove":false,"created_time":"2013-12-13T16:20:15+0000","like_count":3,"user_likes":false},"776867652329914":{"id":"776867652329914","from":{"id":"100001526631937","name":"Tường Oanh Mineko"},"message":"thôi, đừng cho ai biết hết, tôi dốt mình tôi biết---> chết cũng chẳng ai quan tâm nhá ! xong nhìn nhau hỏi: \" nhục là cái quái gì thế nhỉ? \" :v","can_remove":false,"created_time":"2013-12-13T16:20:41+0000","like_count":1,"user_likes":false},"776867745663238":{"id":"776867745663238","from":{"id":"100001526631937","name":"Tường Oanh Mineko"},"message":":( Ồ, THẾ CƠ À ! :v","can_remove":false,"created_time":"2013-12-13T16:21:05+0000","like_count":0,"user_likes":false},"776867825663230":{"id":"776867825663230","from":{"id":"100000381394367","name":"Thành Nguyễn"},"message":"Ai đó có thời gian dịch cái bài mình vừa post kia rồi gửi cho báo của Nhật đăng bài hôi bia để họ biết một khía cạnh khác của Việt nam để không nhìn phiến diện. Họ cần phải hiểu rằng có nhiều người Việt Nam làm việc sai trái nhưng cũng có nhiều người khác làm điều ngược lại.","can_remove":false,"created_time":"2013-12-13T16:21:24+0000","like_count":4,"user_likes":false},"776871348996211":{"id":"776871348996211","from":{"id":"651345012","name":"Ngoc Atho"},"message":"báo đăng tin nhiều, dư luận phản ứng mạnh, như vậy là đủ để đánh động người dân cần suy nghĩ thận trọng hơn, cân nhắc đúng sai trước khi làm bất cứ việc gì, còn hình ảnh đất nước trong mắt người bạn bè thế giới là rất quan trọng, phải khó khăn lắm mới để lại cho người ta một chút gì ấn tượng tốt đẹp, suy nghĩ các vị cứ như trẻ con ấy, đến nản :3","can_remove":false,"created_time":"2013-12-13T16:27:28+0000","like_count":1,"user_likes":false},"776873588995987":{"id":"776873588995987","from":{"id":"100000381394367","name":"Thành Nguyễn"},"message":"Muốn người ta có ấn tượng tốt về đất nước mình thì hãy thể hiện nó bằng những hành động chứng tỏ rằng người Việt Nam có những phẩm chất tốt đẹp. Trong những phẩm chất tốt đẹp của con người người thì có những phẩm chất trung thực và can đảm ( ở đây là can đảm nhìn nhận cái sai cái xấu của mình ). Không sự thật nào có thể che đậy được cả, thời đại thông tin trước sau gì người ta cũng biết, thay vì cố gắng che đậy thì nhìn nhận nó như là một khuyết điểm và sửa chữa nó, bằng những hành động cụ thể chứng minh điều ngược lại như ở Quảng Ninh kia mới là điều thiết thực. \n\nCố tình che đậy là dối trá, đến lúc lộ ra người ta càng thêm kinh cho. Chỉ lo người ta đánh giá không tốt về mình mà không lo sửa đổi mình thì cái họa bên trong vẫn còn đó, còn tâm lý che đậy lấp liếm tức là vân không có thực tâm thay đổi, ngày hôm nay không sửa được mai nó lại đẻ ra cái khác tương tự.","can_remove":false,"created_time":"2013-12-13T16:31:36+0000","like_count":5,"user_likes":false},"776873798995966":{"id":"776873798995966","from":{"id":"100001526631937","name":"Tường Oanh Mineko"},"message":":( câu hỏi của mình vẫn chưa đc bạn người lớn Ngoc Atho giải đáp cơ. Câu ở trển ấy.Đừng phán xét ng khác khi ko chắc mình đã \" người lớn\" nhé ! Hơi bị lạc đề đấy !","message_tags":[{"id":"651345012","name":"Ngoc Atho","type":"user","offset":46,"length":9}],"can_remove":false,"created_time":"2013-12-13T16:31:52+0000","like_count":0,"user_likes":false},"776874675662545":{"id":"776874675662545","from":{"id":"100005811458124","name":"Phúc Long"},"message":"Vậy hãy quyết tâm xây dựng 1 Việt Nam đẹp từ trong ra ngoài... Đẹp phần vỏ, đẹp trong mắt người nước ngoài mà thực tế trong nước còn nhiều vấn đề cần giải quyết... Như thế có cần(nên) không?","can_remove":false,"created_time":"2013-12-13T16:33:42+0000","like_count":2,"user_likes":false},"776875735662439":{"id":"776875735662439","from":{"id":"100001526631937","name":"Tường Oanh Mineko"},"message":"Này nhé ! nếu mà êm xuôi mọi cái xấu đi thì đến ng dân ( đc gọi la dân ngu cu đen) cũng ko có ch mà biết đc điểm xấu đâu nhé, ng vn ta giỏi đến vậy cơ đấy ! Vì đây là dân biết rồi, nên mọi chuyện phanh phui nhé !","can_remove":false,"created_time":"2013-12-13T16:36:12+0000","like_count":0,"user_likes":false},"776876622329017":{"id":"776876622329017","from":{"id":"651345012","name":"Ngoc Atho"},"message":"cái gì mà cố tình che đậy ---> ko thấy là báo chí rồi dư luận người ta phản ứng ầm ầm rồi à, còn những cái mà bạn nói ở trên nó chỉ thuần túy là mớ lý thuyết nằm trong sách gk giáo dục công dân cho trẻ con tiểu học thôi, còn trên mặt trận ngoại giao giữa các nước với nhau thì nó hoàn toàn khác đấy bạn ạ","can_remove":false,"created_time":"2013-12-13T16:38:17+0000","like_count":1,"user_likes":false},"776877085662304":{"id":"776877085662304","from":{"id":"100000045271667","name":"Nam Thai Nguyen"},"message":"Một toàn thể quốc dân cùng biết xấu hổ thì dân tộc sẽ thành Sư tử. Cứ phê phán thói xấu mạnh mẽ. Trung Quốc và Nhật đều có cuốn sách \" người TQ xấu xí \"\" người Nhật xấu xí\". Việt Nam ai sẽ viết đây ?","can_remove":false,"created_time":"2013-12-13T16:39:17+0000","like_count":2,"user_likes":false},"776877272328952":{"id":"776877272328952","from":{"id":"1146680551","name":"優しい なぁ"},"message":"chú viết đi :)","can_remove":false,"created_time":"2013-12-13T16:39:48+0000","like_count":0,"user_likes":false},"776877322328947":{"id":"776877322328947","from":{"id":"100000381394367","name":"Thành Nguyễn"},"message":"Bạn quan niệm thế nào là quyền của bạn, người khác có quyền quan niệm khác, khác với bạn không có nghĩa bạn là người lớn còn những người khác là trẻ con.  Cứ nhìn số comment ở đây thì có thể tin rằng trong group này có nhiều bạn lớn rồi, cũng thấy mừng.","can_remove":false,"created_time":"2013-12-13T16:39:55+0000","like_count":0,"user_likes":false},"776877475662265":{"id":"776877475662265","from":{"id":"100001526631937","name":"Tường Oanh Mineko"},"message":"đó đó, lẩn tránh câu hỏi của mình cũng là cách cố tình che đậy sự thật ( lý sự) còn gì..Ngang như cua ! :v","can_remove":false,"created_time":"2013-12-13T16:40:25+0000","like_count":0,"user_likes":false},"776880565661956":{"id":"776880565661956","from":{"id":"651345012","name":"Ngoc Atho"},"message":"mình ko hiểu lắm về câu hỏi của bạn nên ko thể đưa ra câu trả lời, còn muốn biết \"nhục\" nghĩa là gì mình có thể tư vấn bạn nên tra cứu trong từ điển Tiếng Việt của GS Hoàng Phê do NXB GD phát hành :)","can_remove":false,"created_time":"2013-12-13T16:45:40+0000","like_count":0,"user_likes":false},"776881235661889":{"id":"776881235661889","from":{"id":"100001526631937","name":"Tường Oanh Mineko"},"message":"oh, ngay cả câu hỏi của mình mà bạn chưa hiểu thì...\" người lớn\" là đây sao??? :v","can_remove":false,"created_time":"2013-12-13T16:47:20+0000","like_count":0,"user_likes":false},"776882048995141":{"id":"776882048995141","from":{"id":"100000045271667","name":"Nam Thai Nguyen"},"message":"Ngoc Atho: muốn sửa sai phải nhận sai đã. Bạn đừng lý luận theo phong cách sách vở. Trong mọi con đường, đường thẳng là ngắn nhất, dũng cảm lên nào, hãy cùng mọi người nhìn thẳng vấn đề và khắc phục nó!","can_remove":false,"created_time":"2013-12-13T16:49:08+0000","like_count":1,"user_likes":false},"776883018995044":{"id":"776883018995044","from":{"id":"651345012","name":"Ngoc Atho"},"message":"thế giới của \"trẻ con\" người lớn thường ko sao hiểu được ;)), dù sao mình thấy bạn rất dễ thương, chào bạn, mình đi ngủ :v","can_remove":false,"created_time":"2013-12-13T16:51:06+0000","like_count":0,"user_likes":false},"776885342328145":{"id":"776885342328145","from":{"id":"100000381394367","name":"Thành Nguyễn"},"message":"Hà hà, xem profile của Mr Ngoc Atho thì thấy là PhD và có thể bây giờ là PostDoc chăng, có lẽ vì thế mà cái tiêu chí \"trẻ con người lớn\" được kết luận một cách nhanh chóng như vậy. \n \nVới các bậc đại trí thức thế này thì đúng là group này toàn trẻ con thật. Cũng mong các bậc đại trí ra bên ngoài che chắn giúp cái danh dự đang rách nát của dân tộc cho bọn trẻ con đỡ xấu hổ.","can_remove":false,"created_time":"2013-12-13T16:56:45+0000","like_count":2,"user_likes":false},"776888975661115":{"id":"776888975661115","from":{"id":"100001526631937","name":"Tường Oanh Mineko"},"message":"cám ơn bạn đã khen, Cơ mà bạn phải hiểu vì ko hiểu đc nên \" ng lớn\" thường hay phải học hỏi từ \"trẻ con\" nhiều lắm ấy.Câu mình muốn bạn trả lời là ở trên của ở trên nữa cơ, ko phải \"nhục\" là gì đâu? hoho.^_^","can_remove":false,"created_time":"2013-12-13T17:06:15+0000","like_count":0,"user_likes":false},"776890528994293":{"id":"776890528994293","from":{"id":"100002911187986","name":"Nghia Bui"},"message":"mỗi lần có bài đăng về Việt Nam là y như rằng lượt comment luôn nằm trong top...các ad có cách gì để tăng lượt comment của mấy bài đăng về Tiếng Nhật cho bằng được như này ko???? (có lẽ nên cho chút gia vị chính trị xã hội vào mấy bài đó  cũng nên...)","can_remove":false,"created_time":"2013-12-13T17:10:50+0000","like_count":2,"user_likes":false},"776890588994287":{"id":"776890588994287","from":{"id":"100000603915176","name":"悪いな ぁ"},"message":"Stop!!!!!!!!!!\n\nĐề nghị các đồng chí không tiếp tục, giờ Nhật bây giờ là 2h sáng rồi. Đi ngủ mau không đá đít bi giờ. Ngày mai tiếp tục bàn luận vấn đề nên hay không nên lôi chuyện xấu ra cho bàn dân thiên hạ, thế giới biết :v","can_remove":false,"created_time":"2013-12-13T17:11:09+0000","like_count":3,"user_likes":false},"776891002327579":{"id":"776891002327579","from":{"id":"100001526631937","name":"Tường Oanh Mineko"},"message":":v oyasuminasai ^_^","can_remove":false,"created_time":"2013-12-13T17:12:37+0000","like_count":0,"user_likes":false},"776894782327201":{"id":"776894782327201","from":{"id":"100000381394367","name":"Thành Nguyễn"},"message":"@ Nghia Bui ý kiến hay. Việc này mình cũng đang áp dụng, xem cái ảnh đầu tiên trong note \"Minh triết\" đi nhé.","can_remove":false,"created_time":"2013-12-13T17:20:07+0000","like_count":2,"user_likes":false},"776897755660237":{"id":"776897755660237","from":{"id":"100000381394367","name":"Thành Nguyễn"},"message":"Vừa hay nói đến chuyện người lớn và trẻ con có câu này của Einstein https://www.facebook.com/groups/CongdongVietNhat/permalink/776849162331763/. \n\nEinstein chắc không hiểu thế giới của của người lớn và trẻ con khác nhau nên ông ấy mới nói câu này, chứ rõ ràng là ở đây có người lớn không thể giải thích nổi cho trẻ con hiểu, măc dù đám trẻ con này còn nhiêù hơn 6 tuổi.","can_remove":false,"created_time":"2013-12-13T17:24:37+0000","like_count":2,"user_likes":false},"776902855659727":{"id":"776902855659727","from":{"id":"100000017931640","name":"Cuộcđờinày Vềcơbảnlà Buồn"},"message":"Mình nghĩ là mình hiểu ý bạn Ngoc Atho. Dư luận nó luôn là 1 thứ rất bất ổn và có sức mạnh rất lớn. Nên cũng có những chuyện không nên phổ biến ra để tránh những hệ quả không đáng có. Còn việc nhận sai sửa sai thì đó là việc rõ ràng rồi mình ko có ý kiến","can_remove":false,"created_time":"2013-12-13T17:38:39+0000","like_count":0,"user_likes":false},"776904345659578":{"id":"776904345659578","from":{"id":"100000381394367","name":"Thành Nguyễn"},"message":"Nếu dư luận có sức mạnh rất lớn thì tốt nhất là hướng sức mạnh của dư luận đó đến việc làm cho con người thức tỉnh dám nhìn thẳng vào sự thật. Dùng sự phê phán của dư luận để cải tạo ý thức cá nhân, xã hội và cộng đồng, quốc gia.","can_remove":false,"created_time":"2013-12-13T17:43:10+0000","like_count":2,"user_likes":false},"776954312321248":{"id":"776954312321248","from":{"id":"100006312426050","name":"Nam Hạnh"},"message":"Đây là người việt viết nhé","can_remove":false,"created_time":"2013-12-13T19:50:51+0000","like_count":0,"user_likes":false},"776988875651125":{"id":"776988875651125","from":{"id":"100005675104683","name":"Nguyễn Hoa"},"message":"nhuc qua.","can_remove":false,"created_time":"2013-12-13T21:21:29+0000","like_count":0,"user_likes":false},"776998362316843":{"id":"776998362316843","from":{"id":"100003731305416","name":"Nam Nguyen"},"message":"Ng việt nam mất hình ảnh từ trong nc ra nươc ngoài","can_remove":false,"created_time":"2013-12-13T21:46:01+0000","like_count":0,"user_likes":false},"777129852303694":{"id":"777129852303694","from":{"id":"100000017931640","name":"Cuộcđờinày Vềcơbảnlà Buồn"},"message":"Thực sự thì nói thì dễ mà làm thì khó bạn ơi. Có sức mạnh lớn nhưng nó cũng vô cùng bất ổn, như mình đã nói rồi đấy. Chẳng ai dự đoán đc chính xác điều gì sẽ xảy ra khi đưa 1 tin tức - dù tốt hay xấu - ra dư luận cả. Còn về bài viết này thì mình cũng nghĩ giống bạn Atho. Cái sự mà thành thật, dùng sự nhục nhã để làm động lực thay đổi áp dụng trên cá nhân còn có người đc người không, còn sự việc mang tầm cỡ quốc gia, dân tộc thì không nên áp đặt tư tưởng đó lên","can_remove":false,"created_time":"2013-12-14T02:59:03+0000","like_count":1,"user_likes":false}},"paging":{"cursors":{"after":"Nzc2ODQxMzE4OTk5MjE0","before":"Nzc2ODQxMzE4OTk5MjE0"},"next":"https://graph.facebook.com/229244010425617_776840648999281/comments?limit=1&summary=1&after=Nzc2ODQxMzE4OTk5MjE0"},"summary":{"order":"chronological","total_count":66}}}