{"id":"229244010425617_776843722332307","type":"video","picture":"https://fbexternal-a.akamaihd.net/safe_image.php?d=AQB6N6T3ERJ3UYSl&w=130&h=130&url=http%3A%2F%2Fi1.ytimg.com%2Fvi%2FwxekANMqx9o%2Fhqdefault.jpg","link":"http://www.youtube.com/watch?v=wxekANMqx9o","source":"http://www.youtube.com/v/wxekANMqx9o?version=3&autohide=1&autoplay=1","from":{"id":"100001416272263","name":"Mai PB"},"message":"Chưa biết, chưa nghe bài hát này không gọi là biết Noel ở Nhật.\n\nhttp://www.youtube.com/watch?v=wxekANMqx9o","created_time":"2013-12-13T15:26:22+0000","updated_time":"2013-12-14T16:27:54+0000","likes":{"data":{"100003177587874":{"id":"100003177587874","name":"Nguyễn Kiều Trinh"},"100001444337943":{"id":"100001444337943","name":"Macjanh"},"100003731623249":{"id":"100003731623249","name":"Mai Nguyen"},"100003924638739":{"id":"100003924638739","name":"Toi La Ai"},"100001723862714":{"id":"100001723862714","name":"Bo Bien Vang"},"100000215142696":{"id":"100000215142696","name":"Tăng Anh Thư"},"100001775719325":{"id":"100001775719325","name":"Nguyễn Ngọc Trang"},"100003762427351":{"id":"100003762427351","name":"Hiroshi Yasu Oki"},"100006738850876":{"id":"100006738850876","name":"Ho Tuan"},"100002508122689":{"id":"100002508122689","name":"Vũ Mạnh Tuấn"},"100004096243144":{"id":"100004096243144","name":"Shorai Nguyễn"},"100001754136107":{"id":"100001754136107","name":"Nguyễn Tuấn Vũ"},"1114300791":{"id":"1114300791","name":"Tra Mi"},"100000022163023":{"id":"100000022163023","name":"Kafe Ore"},"100004371458308":{"id":"100004371458308","name":"Huynh Hong Nhung"},"100001887921127":{"id":"100001887921127","name":"Kata Apple"},"100003662604894":{"id":"100003662604894","name":"Mai Hana"},"569263718":{"id":"569263718","name":"Phuong Thao Tran"},"100000359762118":{"id":"100000359762118","name":"Mi Tra"},"100005694491959":{"id":"100005694491959","name":"Phuong Truong Thi Thanh"},"100000041691073":{"id":"100000041691073","name":"Phuong Nam Hoang"},"1146680551":{"id":"1146680551","name":"優しい なぁ"},"100003922972619":{"id":"100003922972619","name":"Trần Thị"},"100003049639881":{"id":"100003049639881","name":"Truong Luvuxy"},"100003055356509":{"id":"100003055356509","name":"Thuan Nguyen"},"100001526631937":{"id":"100001526631937","name":"Tường Oanh Mineko"}},"paging":{"cursors":{"after":"MTAwMDAzMTc3NTg3ODc0","before":"MTAwMDAzMTc3NTg3ODc0"},"next":"https://graph.facebook.com/229244010425617_776843722332307/likes?limit=1&summary=1&after=MTAwMDAzMTc3NTg3ODc0"},"summary":{"total_count":27}},"comments":{"data":{"776845818998764":{"id":"776845818998764","from":{"id":"100001416272263","name":"Mai PB"},"message":"何年たっても、必ず見たい\nhttp://www.youtube.com/watch?v=SjTWXNnQ0nE","can_remove":false,"created_time":"2013-12-13T15:30:36+0000","like_count":0,"user_likes":false},"776849148998431":{"id":"776849148998431","from":{"id":"100001526631937","name":"Tường Oanh Mineko"},"message":"lần đầu tiên e nghe bài ở trên","can_remove":false,"created_time":"2013-12-13T15:38:42+0000","like_count":1,"user_likes":false},"776852758998070":{"id":"776852758998070","from":{"id":"100001416272263","name":"Mai PB"},"message":"Comment thế thôi à? :-)","can_remove":false,"created_time":"2013-12-13T15:46:01+0000","like_count":0,"user_likes":false},"776853408998005":{"id":"776853408998005","from":{"id":"100001526631937","name":"Tường Oanh Mineko"},"message":"thì e chưa biết bài này---> chưa biết noel ở Nhật mà. :D","can_remove":false,"created_time":"2013-12-13T15:47:43+0000","like_count":1,"user_likes":false},"776869712329708":{"id":"776869712329708","from":{"id":"100000359762118","name":"Mi Tra"},"message":"この歌が大好き　(^^♪","can_remove":false,"created_time":"2013-12-13T16:24:43+0000","like_count":1,"user_likes":false},"776877398995606":{"id":"776877398995606","from":{"id":"569263718","name":"Phuong Thao Tran"},"message":"sao quảng cáo cho JR mà có bài hát hay vậy nhỉ, ^^","can_remove":false,"created_time":"2013-12-13T16:40:08+0000","like_count":1,"user_likes":false},"776879618995384":{"id":"776879618995384","from":{"id":"569263718","name":"Phuong Thao Tran"},"message":"言えないほど感じた。。。","can_remove":false,"created_time":"2013-12-13T16:44:09+0000","like_count":1,"user_likes":false},"777012188982127":{"id":"777012188982127","from":{"id":"100005801442456","name":"An Nguyen"},"message":"JR là sao chị?@.@","can_remove":false,"created_time":"2013-12-13T22:28:56+0000","like_count":0,"user_likes":false},"777080972308582":{"id":"777080972308582","from":{"id":"100001416272263","name":"Mai PB"},"message":"Bài hát hay và có ý nghĩa được JR dùng cho quảng cáo, chứ không phải bài hát quảng cáo của JR hay, Phuong Thao Tran","message_tags":[{"id":"569263718","name":"Phuong Thao Tran","type":"user","offset":99,"length":16}],"can_remove":false,"created_time":"2013-12-14T00:55:31+0000","like_count":1,"user_likes":false},"777240912292588":{"id":"777240912292588","from":{"id":"100001775719325","name":"Nguyễn Ngọc Trang"},"message":"Lần đầu nghe bài này, bài này hay thật, ý nghĩa nữa, cảm ơn anh đã giới thiệu bài này cho mọi người biết.","can_remove":false,"created_time":"2013-12-14T08:11:28+0000","like_count":1,"user_likes":false},"777455952271084":{"id":"777455952271084","from":{"id":"569263718","name":"Phuong Thao Tran"},"message":"dạ em biết mà anh, chỉ là khen JR sao khéo chọn bài thôi ạ, cảm ơn anh vì bài hát hay, giọng hát trẻ trung, ^^\nAn Nguyen: em nghe link thứ 2 thì hiểu thôi, JR viết tắt của Japan Railway đó","can_remove":false,"created_time":"2013-12-14T16:09:58+0000","like_count":0,"user_likes":false},"777463242270355":{"id":"777463242270355","from":{"id":"100005801442456","name":"An Nguyen"},"message":"(ｰｰ;)","can_remove":false,"created_time":"2013-12-14T16:26:59+0000","like_count":0,"user_likes":false},"777463555603657":{"id":"777463555603657","from":{"id":"100005801442456","name":"An Nguyen"},"message":"Hình như e ... Đang ở Nhật mà @.@","can_remove":false,"created_time":"2013-12-14T16:27:54+0000","like_count":1,"user_likes":false}},"paging":{"cursors":{"after":"Nzc2ODQ1ODE4OTk4NzY0","before":"Nzc2ODQ1ODE4OTk4NzY0"},"next":"https://graph.facebook.com/229244010425617_776843722332307/comments?limit=1&summary=1&after=Nzc2ODQ1ODE4OTk4NzY0"},"summary":{"order":"chronological","total_count":13}}}