{"id":"229244010425617_777241618959184","type":"photo","object_id":"674233392598647","picture":"https://fbcdn-photos-d-a.akamaihd.net/hphotos-ak-ash3/t1.0-0/1459191_674233392598647_650474212_s.jpg","link":"https://www.facebook.com/photo.php?fbid=674233392598647&set=gm.777241618959184&type=1&relevant_count=1","from":{"id":"100000359762118","name":"Mi Tra"},"message":"これってなんでしょう？\nヒント: 文房具屋に置かれている物\nCái này là cái gì nhỉ! \nGợi ý: nó được bán ở cửa hàng văn phòng phẩm.","created_time":"2013-12-14T08:15:03+0000","updated_time":"2013-12-14T15:38:06+0000","likes":{"data":{"100001723862714":{"id":"100001723862714","name":"Bo Bien Vang"},"1146680551":{"id":"1146680551","name":"優しい なぁ"},"100001526631937":{"id":"100001526631937","name":"Tường Oanh Mineko"},"100003780948776":{"id":"100003780948776","name":"Sâu Đặng"},"100005866751996":{"id":"100005866751996","name":"Nam Nguyen"},"100005024348771":{"id":"100005024348771","name":"Long Hoàng"}},"paging":{"cursors":{"after":"MTAwMDAxNzIzODYyNzE0","before":"MTAwMDAxNzIzODYyNzE0"},"next":"https://graph.facebook.com/229244010425617_777241618959184/likes?limit=1&summary=1&after=MTAwMDAxNzIzODYyNzE0"},"summary":{"total_count":6}},"comments":{"data":{"777245518958794":{"id":"777245518958794","from":{"id":"1026780646","name":"Việt Hưng Khổng"},"message":"Cái đục lỗ rồi kẹp vài tờ giấy lại với nhau à- ko biết tên ^^","can_remove":false,"created_time":"2013-12-14T08:23:51+0000","like_count":0,"user_likes":false},"777245732292106":{"id":"777245732292106","from":{"id":"100001458099624","name":"Kham Pha"},"message":"cái gỡ ghim chăng?","can_remove":false,"created_time":"2013-12-14T08:24:37+0000","like_count":0,"user_likes":false},"777245768958769":{"id":"777245768958769","from":{"id":"100000359762118","name":"Mi Tra"},"message":"Việt Hưng Khổng: Sai rồi\n残念‼︎","message_tags":[{"id":"1026780646","name":"Việt Hưng Khổng","type":"user","offset":0,"length":15}],"can_remove":false,"created_time":"2013-12-14T08:24:52+0000","like_count":0,"user_likes":false},"777246008958745":{"id":"777246008958745","from":{"id":"100000359762118","name":"Mi Tra"},"message":"KP sao lại nghĩ là cái gỡ ghim?","can_remove":false,"created_time":"2013-12-14T08:26:11+0000","like_count":0,"user_likes":false},"777246472292032":{"id":"777246472292032","from":{"id":"100001458099624","name":"Kham Pha"},"message":"dùng cái đầu nhọn chọc vào khe giấy và ghim, sau đó bóp để kẹp cái gọng xuống và bẻ :D","can_remove":false,"created_time":"2013-12-14T08:26:56+0000","like_count":4,"user_likes":false},"777247478958598":{"id":"777247478958598","from":{"id":"100000359762118","name":"Mi Tra"},"message":"Hị. Bị đoán dễ dàng thế này có chán ko chứ....","can_remove":false,"created_time":"2013-12-14T08:28:25+0000","like_count":2,"user_likes":false},"777247572291922":{"id":"777247572291922","from":{"id":"100001458099624","name":"Kham Pha"},"message":"hô hô, thật ah, em đoán bừa ra đấy :))","can_remove":false,"created_time":"2013-12-14T08:28:52+0000","like_count":3,"user_likes":false},"777248472291832":{"id":"777248472291832","from":{"id":"100000359762118","name":"Mi Tra"},"message":"Thông minh :))","can_remove":false,"created_time":"2013-12-14T08:30:51+0000","like_count":0,"user_likes":false},"777248778958468":{"id":"777248778958468","from":{"id":"100001458099624","name":"Kham Pha"},"message":"鼻が高くなっちゃた。 :))","can_remove":false,"created_time":"2013-12-14T08:32:16+0000","like_count":3,"user_likes":false},"777248892291790":{"id":"777248892291790","from":{"id":"100000359762118","name":"Mi Tra"},"message":"爆発しそう？","can_remove":false,"created_time":"2013-12-14T08:32:55+0000","like_count":0,"user_likes":false},"777249502291729":{"id":"777249502291729","from":{"id":"100001458099624","name":"Kham Pha"},"message":"そんなことない。高くなるだけだ。","can_remove":false,"created_time":"2013-12-14T08:36:23+0000","like_count":0,"user_likes":false},"777249775625035":{"id":"777249775625035","from":{"id":"100000359762118","name":"Mi Tra"},"message":"あなたの想像力に頭が下がるよ^o^","can_remove":false,"created_time":"2013-12-14T08:37:54+0000","like_count":1,"user_likes":false},"777252945624718":{"id":"777252945624718","from":{"id":"100001458099624","name":"Kham Pha"},"message":"Mi Traさん、さすが口がうまいな。それは能力の一類だと思ってる。最も強いのだろう。欲しいんだ。","message_tags":[{"id":"100000359762118","name":"Mi Tra","type":"user","offset":0,"length":6}],"can_remove":false,"created_time":"2013-12-14T08:43:12+0000","like_count":1,"user_likes":false},"777256325624380":{"id":"777256325624380","from":{"id":"100000359762118","name":"Mi Tra"},"message":"あなたを見習って、頑張らなくちゃ(*^_^*)","can_remove":false,"created_time":"2013-12-14T08:51:29+0000","like_count":0,"user_likes":false},"777259425624070":{"id":"777259425624070","from":{"id":"100005024348771","name":"Long Hoàng"},"message":"hai anh chị cứ ngồi khen nhau hoài vậy","can_remove":false,"created_time":"2013-12-14T09:02:47+0000","like_count":1,"user_likes":false},"777259582290721":{"id":"777259582290721","from":{"id":"100000359762118","name":"Mi Tra"},"message":"Haha. Khen cho cậu ý nổ mũi luôn ^^","can_remove":false,"created_time":"2013-12-14T09:03:33+0000","like_count":1,"user_likes":false},"777260458957300":{"id":"777260458957300","from":{"id":"100005024348771","name":"Long Hoàng"},"message":"ha, chị Mi Tra coi vậy mà ghê nhỉ, có ý đồ xấu","can_remove":false,"created_time":"2013-12-14T09:07:56+0000","like_count":0,"user_likes":false},"777263462290333":{"id":"777263462290333","from":{"id":"100000359762118","name":"Mi Tra"},"message":"C có nhận mình tốt bao giờ đâu ^^","can_remove":false,"created_time":"2013-12-14T09:16:20+0000","like_count":0,"user_likes":false},"777268328956513":{"id":"777268328956513","from":{"id":"100005024348771","name":"Long Hoàng"},"message":"hầy, nhưng giờ em mới biết cái trên là đồ gỡ ghim đấy, chưa nhìn thấy bao giờ, vậy tên tiếng nhật của nó là gì vậy ạ","can_remove":false,"created_time":"2013-12-14T09:31:42+0000","like_count":0,"user_likes":false},"777272842289395":{"id":"777272842289395","from":{"id":"100000359762118","name":"Mi Tra"},"message":"Tên nó là ホッチキス針とり (はり )\nGọi tắt là 針とり","can_remove":false,"created_time":"2013-12-14T09:47:59+0000","like_count":1,"user_likes":false},"777277202288959":{"id":"777277202288959","from":{"id":"100005024348771","name":"Long Hoàng"},"message":"lấy kim nhỉ, họ cũng ghép từ","can_remove":false,"created_time":"2013-12-14T10:01:19+0000","like_count":0,"user_likes":false},"777277358955610":{"id":"777277358955610","from":{"id":"100000359762118","name":"Mi Tra"},"message":"Uh. Cũng ghép giống kiểu vn thôi ^^","can_remove":false,"created_time":"2013-12-14T10:01:58+0000","like_count":0,"user_likes":false},"777279338955412":{"id":"777279338955412","from":{"id":"100005024348771","name":"Long Hoàng"},"message":"hi cám ơn chị ~_~","can_remove":false,"created_time":"2013-12-14T10:08:50+0000","like_count":0,"user_likes":false},"777286492288030":{"id":"777286492288030","from":{"id":"100000328306722","name":"Tran Ngoc Anh"},"message":"cái này mình mang đi đố cả lab cũng không ai biết, haha","can_remove":false,"created_time":"2013-12-14T10:29:17+0000","like_count":1,"user_likes":false},"777286672288012":{"id":"777286672288012","from":{"id":"100000359762118","name":"Mi Tra"},"message":"^^ \nĐồ độc chăng?","can_remove":false,"created_time":"2013-12-14T10:29:54+0000","like_count":0,"user_likes":false},"777293145620698":{"id":"777293145620698","from":{"id":"100005024348771","name":"Long Hoàng"},"message":"chắc ít người dùng, em thì toàn dùng tay gỡ thôi","can_remove":false,"created_time":"2013-12-14T10:43:31+0000","like_count":0,"user_likes":false},"777302032286476":{"id":"777302032286476","from":{"id":"100001458099624","name":"Kham Pha"},"message":"đến cả lúc đoán ra đc đáp án em vẫn ko tin nó là cái gỡ ghim bởi vì ko ngờ có dụng cụ thế này tồn tại. Làm gì có ai ngốc đến mức đi mua cái thứ vớ vẩn này chị Mi Tra nhỉ :))","message_tags":[{"id":"100000359762118","name":"Mi Tra","type":"user","offset":159,"length":6}],"can_remove":false,"created_time":"2013-12-14T11:07:59+0000","like_count":0,"user_likes":false},"777311225618890":{"id":"777311225618890","from":{"id":"100005024348771","name":"Long Hoàng"},"message":"100% là anh Kham Pha đoán bừa","message_tags":[{"id":"100001458099624","name":"Kham Pha","type":"user","offset":12,"length":8}],"can_remove":false,"created_time":"2013-12-14T11:09:06+0000","like_count":0,"user_likes":false},"777315945618418":{"id":"777315945618418","from":{"id":"100001458099624","name":"Kham Pha"},"message":"thì rõ là đoán bừa mà :D","can_remove":false,"created_time":"2013-12-14T11:09:44+0000","like_count":0,"user_likes":false},"777321522284527":{"id":"777321522284527","from":{"id":"100000359762118","name":"Mi Tra"},"message":"Có nhiều chứ em. Và nó khá tiện dụng cho những người hay động tới giấy tờ như chị. \nMới đầu c cũng dùng tay gỡ nhưng mấy chục bộ hồ sơ, mỗi bộ mấy chục cái giấy tờ. Gỡ xg toét cả đầu ngón tay. \nKhi gặp được cái này mắt chị sáng như sao ^^","can_remove":false,"created_time":"2013-12-14T11:10:31+0000","like_count":2,"user_likes":false},"777328888950457":{"id":"777328888950457","from":{"id":"100005024348771","name":"Long Hoàng"},"message":"chỉ người dùng nhiều thôi, chứ như bọn em mua làm gì cho chật nhà","can_remove":false,"created_time":"2013-12-14T11:11:37+0000","like_count":0,"user_likes":false},"777333415616671":{"id":"777333415616671","from":{"id":"100000359762118","name":"Mi Tra"},"message":"Uh ^^\nTìm trên google vs từ khoá ホッチキス針取り, ra rất nhiều kết quả luôn","can_remove":false,"created_time":"2013-12-14T11:15:29+0000","like_count":2,"user_likes":false},"777333762283303":{"id":"777333762283303","from":{"id":"100005024348771","name":"Long Hoàng"},"message":"thế nữa, đúng là đồ chuyên dụng, lắm loại quá","can_remove":false,"created_time":"2013-12-14T11:16:55+0000","like_count":0,"user_likes":false},"777405178942828":{"id":"777405178942828","from":{"id":"1283298041","name":"Búa Đức Thanh"},"message":"Mới nhìn em đã đoán ra, he he, cơ mà , ở VN, thông thường, ở trong cái bấm ghim, phía đít, đã thiết kế sẵn mũi nhọn để làm công việc của cái trên kia . :) \n2 trong 1\nKhông tin gọi về VN hỏi mà coi :p","can_remove":false,"created_time":"2013-12-14T14:27:34+0000","like_count":0,"user_likes":false},"777434088939937":{"id":"777434088939937","from":{"id":"100000045271667","name":"Nam Thai Nguyen"},"message":"Mượn hình này nhá Bza kt Mi Tra","can_remove":false,"created_time":"2013-12-14T15:30:54+0000","like_count":0,"user_likes":false},"777434322273247":{"id":"777434322273247","from":{"id":"100005024348771","name":"Long Hoàng"},"message":"Bza kt kìa","can_remove":false,"created_time":"2013-12-14T15:31:36+0000","like_count":1,"user_likes":false},"777434665606546":{"id":"777434665606546","from":{"id":"100000045271667","name":"Nam Thai Nguyen"},"message":"Chẳng thiêng gì cả, gọi mãi không được =(((","can_remove":false,"created_time":"2013-12-14T15:32:40+0000","like_count":1,"user_likes":false},"777434865606526":{"id":"777434865606526","from":{"id":"100001458099624","name":"Kham Pha"},"message":"Nam Thai Nguyen tại anh nặng vía quá.","message_tags":[{"id":"100000045271667","name":"Nam Thai Nguyen","type":"user","offset":0,"length":15}],"can_remove":false,"created_time":"2013-12-14T15:33:23+0000","like_count":1,"user_likes":false},"777434892273190":{"id":"777434892273190","from":{"id":"100000359762118","name":"Mi Tra"},"message":"Đây. Bza kt mới tỉnh","can_remove":false,"created_time":"2013-12-14T15:33:29+0000","like_count":2,"user_likes":false},"777434942273185":{"id":"777434942273185","from":{"id":"100005024348771","name":"Long Hoàng"},"message":"anh phải gọi chị Mi Tra ơi hiển linh đi thì mới được","message_tags":[{"id":"100000359762118","name":"Mi Tra","type":"user","offset":17,"length":6}],"can_remove":false,"created_time":"2013-12-14T15:33:38+0000","like_count":0,"user_likes":false},"777434948939851":{"id":"777434948939851","from":{"id":"100000359762118","name":"Mi Tra"},"message":"Đang ngủ ngon hixxx","can_remove":false,"created_time":"2013-12-14T15:33:38+0000","like_count":1,"user_likes":false},"777435565606456":{"id":"777435565606456","from":{"id":"100005024348771","name":"Long Hoàng"},"message":"hầy lên thật rồi","can_remove":false,"created_time":"2013-12-14T15:34:20+0000","like_count":1,"user_likes":false},"777437088939637":{"id":"777437088939637","from":{"id":"100000045271667","name":"Nam Thai Nguyen"},"message":"Hiển linh thật, ngủ vẫn cmt fb được :|","can_remove":false,"created_time":"2013-12-14T15:35:16+0000","like_count":2,"user_likes":false},"777437888939557":{"id":"777437888939557","from":{"id":"100000359762118","name":"Mi Tra"},"message":"Búa Đức Thanh: cái đó thì dập ghim của Nhật cũng có nhưng sẽ phải nạy từng đầu ghim. Cái này ko phải thủ công như vậy, một phát là ok luôn. Cực nhanh","can_remove":false,"created_time":"2013-12-14T15:35:59+0000","like_count":0,"user_likes":false},"777438098939536":{"id":"777438098939536","from":{"id":"100000359762118","name":"Mi Tra"},"message":"Oza kt thấy em siêu ko ^^","can_remove":false,"created_time":"2013-12-14T15:36:29+0000","like_count":1,"user_likes":false},"777438525606160":{"id":"777438525606160","from":{"id":"100000359762118","name":"Mi Tra"},"message":"Oza kt cứ lấy dùng thoải mái nhé!  \nNgủ tiếp đấy ^^","can_remove":false,"created_time":"2013-12-14T15:38:06+0000","like_count":1,"user_likes":false}},"paging":{"cursors":{"after":"Nzc3MjQ1NTE4OTU4Nzk0","before":"Nzc3MjQ1NTE4OTU4Nzk0"},"next":"https://graph.facebook.com/229244010425617_777241618959184/comments?limit=1&summary=1&after=Nzc3MjQ1NTE4OTU4Nzk0"},"summary":{"order":"chronological","total_count":46}}}