{"id":"229244010425617_777340075616005","type":"status","from":{"id":"100001416272263","name":"Mai PB"},"message":"Anh chàng người Nhật gốc Việt này đang than là không tìm nổi phiên dịch tiếng Nhật cho công ty, ngay cả người trình độ N4 cũng hiếm. Có thật là hiếm người biết tiếng Nhật chịu làm phiên dịch như vậy không, mọi người? Anh ấy bảo là tốt nghiệp đại học đã 250 USD, cộng thêm nhiều nhất 400 USD cho trình độ tiếng Nhật. Rồi này nọ nữa. Thế là rẻ chăng? Tất nhiên không nói đến những người có chuyên môn cao, ví dụ như IT, có thể tìm được việc ít nhất 1000 USD. Có lẽ mức lương ở VN đã cao hơn tưởng tượng của người Nhật chăng?","created_time":"2013-12-14T11:37:19+0000","updated_time":"2013-12-15T03:28:19+0000","likes":{"data":{"100001616374728":{"id":"100001616374728","name":"Haruka Kanno"},"100006738850876":{"id":"100006738850876","name":"Ho Tuan"},"100000027754899":{"id":"100000027754899","name":"Hoang Van Ba"},"1146680551":{"id":"1146680551","name":"優しい なぁ"},"683231044":{"id":"683231044","name":"Hoàng Hải Đăng"},"100007178942361":{"id":"100007178942361","name":"Cỏ Dại"},"100001526631937":{"id":"100001526631937","name":"Tường Oanh Mineko"},"100001066021488":{"id":"100001066021488","name":"Nguyen Hoai"},"100003780948776":{"id":"100003780948776","name":"Sâu Đặng"},"738235689":{"id":"738235689","name":"Dang Thi Phuong"},"100003275789728":{"id":"100003275789728","name":"Quoc Tran"},"100007062962816":{"id":"100007062962816","name":"Võ Thị Quế"}},"paging":{"cursors":{"after":"MTAwMDAxNjE2Mzc0NzI4","before":"MTAwMDAxNjE2Mzc0NzI4"},"next":"https://graph.facebook.com/229244010425617_777340075616005/likes?limit=1&summary=1&after=MTAwMDAxNjE2Mzc0NzI4"},"summary":{"total_count":12}},"comments":{"data":{"777343375615675":{"id":"777343375615675","from":{"id":"1026780646","name":"Việt Hưng Khổng"},"message":"Ko có lẽ :o ! Chắc anh bạn này chưa tìm đúng chỗ rồi","can_remove":false,"created_time":"2013-12-14T11:47:18+0000","like_count":1,"user_likes":false},"777345162282163":{"id":"777345162282163","from":{"id":"1816269439","name":"Dao Ngoc"},"message":"He he. Lại nhìn 1 cái cây thành cả cánh rừng đây!","can_remove":false,"created_time":"2013-12-14T11:54:13+0000","like_count":2,"user_likes":false},"777345478948798":{"id":"777345478948798","from":{"id":"100002966928087","name":"Nguyen van Dat"},"message":"hiếm cái gì,nhiều như lông lươn","can_remove":false,"created_time":"2013-12-14T11:55:01+0000","like_count":3,"user_likes":false},"777388388944507":{"id":"777388388944507","from":{"id":"100001416272263","name":"Mai PB"},"message":"Nhiều như lông lươn tức là không có? Nguyen van Dat?","message_tags":[{"id":"100002966928087","name":"Nguyen van Dat","type":"user","offset":37,"length":14}],"can_remove":false,"created_time":"2013-12-14T13:48:28+0000","like_count":0,"user_likes":false},"777388945611118":{"id":"777388945611118","from":{"id":"100002966928087","name":"Nguyen van Dat"},"message":"toi noi that ma","can_remove":false,"created_time":"2013-12-14T13:50:27+0000","like_count":0,"user_likes":false},"777389128944433":{"id":"777389128944433","from":{"id":"100002966928087","name":"Nguyen van Dat"},"message":"quan trong bay gio la n2 va n1 thoi chu n3 nhieu lam bạn à","can_remove":false,"created_time":"2013-12-14T13:50:52+0000","like_count":1,"user_likes":false},"777391775610835":{"id":"777391775610835","from":{"id":"100001416272263","name":"Mai PB"},"message":"Vậy về mức lương ở trên thì thế nào, có đủ hấp dẫn những người N3 trở lên không?","can_remove":false,"created_time":"2013-12-14T13:58:50+0000","like_count":0,"user_likes":false},"777414028941943":{"id":"777414028941943","from":{"id":"100003538933297","name":"Phong Linh"},"message":"thấy nhiều ng có N3 mà sao lại than là tìm ko ra nhỉ @@","can_remove":false,"created_time":"2013-12-14T14:46:59+0000","like_count":0,"user_likes":false},"777432468940099":{"id":"777432468940099","from":{"id":"100001640832299","name":"Hoàng Đạt"},"message":"Theo e ngĩ cũng ko hấp dẫn lắm.tại N3 có thế đi dạy hết lương cũng tầm đó mà lại nhàn hơn lại có thể làm gần hơn nữa.","can_remove":false,"created_time":"2013-12-14T15:26:05+0000","like_count":1,"user_likes":false},"777445025605510":{"id":"777445025605510","from":{"id":"100004192680059","name":"Pu Ngok"},"message":"Em ko bik tieng nhat..","can_remove":false,"created_time":"2013-12-14T15:53:16+0000","like_count":0,"user_likes":false},"777460798937266":{"id":"777460798937266","from":{"id":"569263718","name":"Phuong Thao Tran"},"message":"N3 ở VN thì mức lương 250 + 400 usd phụ cấp thì được xem là hấp dẫn rồi, tuy nhiên, không ai tuyển N3 làm phiên dịch cả anh ạ","can_remove":false,"created_time":"2013-12-14T16:20:49+0000","like_count":2,"user_likes":false},"777461072270572":{"id":"777461072270572","from":{"id":"100003538933297","name":"Phong Linh"},"message":"thấy pd toàn N2 trở lên, ngưỡng mộ thật :)","can_remove":false,"created_time":"2013-12-14T16:21:39+0000","like_count":1,"user_likes":false},"777461505603862":{"id":"777461505603862","from":{"id":"569263718","name":"Phuong Thao Tran"},"message":"hoặc có thể cái suy nghĩ về N3 của anh chàng người Nhật là communication tốt rồi, nhưng thực tế ở VN thì không được như thế đâu, có N3 vào phỏng vấn vài câu là out liền, N2 còn ko được như anh ấy mong đợi nữa là ...","can_remove":false,"created_time":"2013-12-14T16:22:47+0000","like_count":0,"user_likes":false},"777461682270511":{"id":"777461682270511","from":{"id":"100003106327650","name":"Nguyễn Nam Phóng"},"message":"Thời gian bao lâu để đạt mốc N4 vậy mọi người ?","can_remove":false,"created_time":"2013-12-14T16:23:25+0000","like_count":0,"user_likes":false},"777463538936992":{"id":"777463538936992","from":{"id":"569263718","name":"Phuong Thao Tran"},"message":"thời gian để có thể đạt N4 thì khoảng 250 tiếng, học nghiêm túc, còn thời gian bao lâu để đạt được thì tùy thuộc vào mục tiêu của em đó Nguyễn Nam Phóng","message_tags":[{"id":"100003106327650","name":"Nguyễn Nam Phóng","type":"user","offset":136,"length":16}],"can_remove":false,"created_time":"2013-12-14T16:27:50+0000","like_count":1,"user_likes":false},"777464172270262":{"id":"777464172270262","from":{"id":"100003106327650","name":"Nguyễn Nam Phóng"},"message":"nghe 250h thì nhỏ, nhưng để triển khai đc, phân bổ đc thì thật lâu :D","can_remove":false,"created_time":"2013-12-14T16:29:40+0000","like_count":0,"user_likes":false},"777466825603330":{"id":"777466825603330","from":{"id":"569263718","name":"Phuong Thao Tran"},"message":"ở VN người ta có các lớp học ngày 8 tiếng từ 6 - 9 tháng xong N2, 9 - 12 tháng xong N1 đó em, cố lên :D","can_remove":false,"created_time":"2013-12-14T16:34:13+0000","like_count":2,"user_likes":false},"777467805603232":{"id":"777467805603232","from":{"id":"100003106327650","name":"Nguyễn Nam Phóng"},"message":":D vậy chắc phải 3 năm tự học mới lên đc cỡ đó rồi chị ơi :","can_remove":false,"created_time":"2013-12-14T16:36:20+0000","like_count":0,"user_likes":false},"777469328936413":{"id":"777469328936413","from":{"id":"569263718","name":"Phuong Thao Tran"},"message":"cở nào em?","can_remove":false,"created_time":"2013-12-14T16:39:51+0000","like_count":0,"user_likes":false},"777470202269659":{"id":"777470202269659","from":{"id":"100003106327650","name":"Nguyễn Nam Phóng"},"message":"n2 ấy chị","can_remove":false,"created_time":"2013-12-14T16:40:45+0000","like_count":0,"user_likes":false},"777472972269382":{"id":"777472972269382","from":{"id":"569263718","name":"Phuong Thao Tran"},"message":"vậy cũng tốt rồi, vì có nhiều bạn học đại học ngoại ngữ ra vẫn ko đủ tự tin lấy n2 đâu, tất nhiên là họ còn học nhiều thứ khác ngoài  tiếng Nhật, ^^, tuy nhiên học ở trung tâm ngày 1,5 tiếng/ tuần 5 buổi, trong 2 năm là lấy N2 đó","can_remove":false,"created_time":"2013-12-14T16:45:42+0000","like_count":1,"user_likes":false},"777866432230036":{"id":"777866432230036","from":{"id":"100002059771738","name":"Yen Hai"},"message":"thực ra khi tuyển dụng thì không căn cứ vào N3 hay N2, vì có người N2 nhưng giao tiếp vẫn không được và không thể dịch được cái đơn giản. Khi tuyển dụng mình đã cho out các bạn có bằng N2 trong hồ sơ và tuyển các bạn không có N2 nhưng khả năng rất tốt.","can_remove":false,"created_time":"2013-12-15T03:28:19+0000","like_count":1,"user_likes":false}},"paging":{"cursors":{"after":"Nzc3MzQzMzc1NjE1Njc1","before":"Nzc3MzQzMzc1NjE1Njc1"},"next":"https://graph.facebook.com/229244010425617_777340075616005/comments?limit=1&summary=1&after=Nzc3MzQzMzc1NjE1Njc1"},"summary":{"order":"chronological","total_count":22}}}