{"id":"229244010425617_777389465611066","type":"photo","object_id":"1487895938103013","picture":"https://fbcdn-photos-b-a.akamaihd.net/hphotos-ak-frc3/t1.0-0/1475826_1487895938103013_1378962185_s.jpg","link":"https://www.facebook.com/women.power7/photos/a.1467164300176177.1073741828.1467127360179871/1487895938103013/?type=1","from":{"id":"1146680551","name":"優しい なぁ"},"message":"例えば。。。。皆はどうだと思ってるんですか?","created_time":"2013-12-14T13:52:13+0000","updated_time":"2013-12-14T16:02:52+0000","likes":{"data":{"100000022163023":{"id":"100000022163023","name":"Kafe Ore"},"620134445":{"id":"620134445","name":"Anh Do"},"100000468762077":{"id":"100000468762077","name":"Youki Youki"},"100004253979918":{"id":"100004253979918","name":"Louis Hoàng Văn Thái"},"100001526631937":{"id":"100001526631937","name":"Tường Oanh Mineko"},"569263718":{"id":"569263718","name":"Phuong Thao Tran"},"100000359762118":{"id":"100000359762118","name":"Mi Tra"},"100005495773832":{"id":"100005495773832","name":"Hiền Vũ"},"100001824172942":{"id":"100001824172942","name":"Phan Van"},"100001754136107":{"id":"100001754136107","name":"Nguyễn Tuấn Vũ"},"100006251103362":{"id":"100006251103362","name":"Lâm Thảo"},"100001614233452":{"id":"100001614233452","name":"Hienvit Duckling"},"100002969177514":{"id":"100002969177514","name":"Tien Thien"},"1816269439":{"id":"1816269439","name":"Dao Ngoc"},"1787333994":{"id":"1787333994","name":"Kiên Mậu"},"100001257093338":{"id":"100001257093338","name":"Hanh Dang"}},"paging":{"cursors":{"after":"MTAwMDAwMDIyMTYzMDIz","before":"MTAwMDAwMDIyMTYzMDIz"},"next":"https://graph.facebook.com/229244010425617_777389465611066/likes?limit=1&summary=1&after=MTAwMDAwMDIyMTYzMDIz"},"summary":{"total_count":16}},"comments":{"data":{"777397678943578":{"id":"777397678943578","from":{"id":"100001257093338","name":"Hanh Dang"},"message":"時間が短くても長くても一緒に居られる時間を大切にするのが良いと思います。","can_remove":false,"created_time":"2013-12-14T14:10:32+0000","like_count":4,"user_likes":false},"777398528943493":{"id":"777398528943493","from":{"id":"100005307004792","name":"Kiều Văn"},"message":"Hiền Vũ, Răng Rắc Rối Ri :(","message_tags":[{"id":"100005495773832","name":"Hiền Vũ","type":"user","offset":0,"length":7}],"can_remove":false,"created_time":"2013-12-14T14:13:02+0000","like_count":1,"user_likes":false},"777453428938003":{"id":"777453428938003","from":{"id":"100000359762118","name":"Mi Tra"},"message":"シェア、ありがとう（＾ω＾）\n改めて時間の過ごし方について、考え直した(*^_^*)","can_remove":false,"created_time":"2013-12-14T16:02:52+0000","like_count":1,"user_likes":false}},"paging":{"cursors":{"after":"Nzc3Mzk3Njc4OTQzNTc4","before":"Nzc3Mzk3Njc4OTQzNTc4"},"next":"https://graph.facebook.com/229244010425617_777389465611066/comments?limit=1&summary=1&after=Nzc3Mzk3Njc4OTQzNTc4"},"summary":{"order":"chronological","total_count":3}}}