{"id":"229244010425617_777439132272766","type":"status","from":{"id":"100001640832299","name":"Hoàng Đạt"},"message":"Xin hỏi có bác nào đi tháng 4 bị cục XNC gọi chưa?","created_time":"2013-12-14T15:39:33+0000","updated_time":"2013-12-15T06:09:32+0000","comments":{"data":{"777441195605893":{"id":"777441195605893","from":{"id":"100000359762118","name":"Mi Tra"},"message":"Chưa. Khoảng 18,19 mới chính thức nộp hồ sơ lên Cục XNC nên có gọi thì cũng từ giữa tháng 1 tới đầu tháng 2.","can_remove":false,"created_time":"2013-12-14T15:44:31+0000","like_count":0,"user_likes":false},"777442908939055":{"id":"777442908939055","from":{"id":"100006642881763","name":"Vâng Tôi Bướng"},"message":"cho con dai dai nhe","can_remove":false,"created_time":"2013-12-14T15:48:10+0000","like_count":0,"user_likes":false},"777443505605662":{"id":"777443505605662","from":{"id":"100000359762118","name":"Mi Tra"},"message":"Làm phiền Lam Nguyen hãy cmt bằng tiếng Việt có dấu nhé!","can_remove":false,"created_time":"2013-12-14T15:49:45+0000","like_count":0,"user_likes":false},"777444958938850":{"id":"777444958938850","from":{"id":"100006502552041","name":"Xấu Xí"},"message":"Cmt của bạn Lam Nguyen có thể dịch ra rất nhiều câu khác nhau. ^^","message_tags":[{"id":"100006642881763","name":"Lam Nguyen","type":"user","offset":12,"length":10}],"can_remove":false,"created_time":"2013-12-14T15:53:05+0000","like_count":1,"user_likes":false},"777448732271806":{"id":"777448732271806","from":{"id":"100006642881763","name":"Vâng Tôi Bướng"},"message":"hi","can_remove":false,"created_time":"2013-12-14T15:57:05+0000","like_count":0,"user_likes":false},"777451585604854":{"id":"777451585604854","from":{"id":"100006642881763","name":"Vâng Tôi Bướng"},"message":"xl.dt of m k viet dc dau.hi","can_remove":false,"created_time":"2013-12-14T15:58:01+0000","like_count":0,"user_likes":false},"777454015604611":{"id":"777454015604611","from":{"id":"100000359762118","name":"Mi Tra"},"message":"Đã không viết có dấu được mà lại viết tắt nhiều thì ngang đánh đố mình rồi :)","can_remove":false,"created_time":"2013-12-14T16:04:31+0000","like_count":1,"user_likes":false},"777454742271205":{"id":"777454742271205","from":{"id":"100003700084315","name":"Trầm Luân"},"message":"hồi hộp quá đi -_-","can_remove":false,"created_time":"2013-12-14T16:06:36+0000","like_count":0,"user_likes":false},"777456175604395":{"id":"777456175604395","from":{"id":"100006502552041","name":"Xấu Xí"},"message":"Ý của bạn ý là xin lỗi điện thoại của mình không viết được có dấu. ^^","can_remove":false,"created_time":"2013-12-14T16:10:32+0000","like_count":0,"user_likes":false},"777456722271007":{"id":"777456722271007","from":{"id":"100000359762118","name":"Mi Tra"},"message":"Khổ. Mình già thật rồi. Không hiểu được ngôn ngữ teen :((","can_remove":false,"created_time":"2013-12-14T16:11:38+0000","like_count":0,"user_likes":false},"777457665604246":{"id":"777457665604246","from":{"id":"100006502552041","name":"Xấu Xí"},"message":"Chắc do lười , không viết có dấu. ^^","can_remove":false,"created_time":"2013-12-14T16:13:39+0000","like_count":0,"user_likes":false},"777460438937302":{"id":"777460438937302","from":{"id":"100001640832299","name":"Hoàng Đạt"},"message":"Thế ạ.lo quá hi vọng là sẽ ko bị sờ tới :)","can_remove":false,"created_time":"2013-12-14T16:19:58+0000","like_count":0,"user_likes":false},"777723302244349":{"id":"777723302244349","from":{"id":"100002134083104","name":"Bùi Quang Hoàng"},"message":"Lo j . Ko sang dc nhật là may. Sang rồi hối hận vô cùng😞","can_remove":false,"created_time":"2013-12-14T23:13:54+0000","like_count":0,"user_likes":false},"777833582233321":{"id":"777833582233321","from":{"id":"100003275789728","name":"Quoc Tran"},"message":"Nó chỉ chọn ra 1 số hồ sơ để gọi thôi đúng không mọi người.","can_remove":false,"created_time":"2013-12-15T01:43:01+0000","like_count":0,"user_likes":false},"777836582233021":{"id":"777836582233021","from":{"id":"100000359762118","name":"Mi Tra"},"message":"Những hồ sơ nào họ cảm thấy có vấn đề. \nMà mình nghĩ bạn Quoc Tran ko nên dùng từ \"nó\" ở đây. Từ đó hơi thiếu tôn trọng người ta.","can_remove":false,"created_time":"2013-12-15T01:53:08+0000","like_count":0,"user_likes":false},"777838088899537":{"id":"777838088899537","from":{"id":"100003275789728","name":"Quoc Tran"},"message":"Ờ, mình sẽ rút kinh nghiệm cho lần sau, cảm ơn bạn nhé.","can_remove":false,"created_time":"2013-12-15T01:57:04+0000","like_count":1,"user_likes":false},"777838285566184":{"id":"777838285566184","from":{"id":"100000359762118","name":"Mi Tra"},"message":"^^ \nKhông có gì","can_remove":false,"created_time":"2013-12-15T01:57:42+0000","like_count":1,"user_likes":false},"777957215554291":{"id":"777957215554291","from":{"id":"100001640832299","name":"Hoàng Đạt"},"message":"Có vấn đề ở đây là sao hả chị Mi Tra.?","can_remove":false,"created_time":"2013-12-15T06:04:53+0000","like_count":0,"user_likes":false},"777958372220842":{"id":"777958372220842","from":{"id":"100001640832299","name":"Hoàng Đạt"},"message":"E nộp ở chiba ko biết họ có khó khăn lắm ko?","can_remove":false,"created_time":"2013-12-15T06:09:32+0000","like_count":0,"user_likes":false}},"paging":{"cursors":{"after":"Nzc3NDQxMTk1NjA1ODkz","before":"Nzc3NDQxMTk1NjA1ODkz"},"next":"https://graph.facebook.com/229244010425617_777439132272766/comments?limit=1&summary=1&after=Nzc3NDQxMTk1NjA1ODkz"},"summary":{"order":"chronological","total_count":19}},"likes":{"data":[]}}