{"id":"229244010425617_777979905552022","type":"link","link":"https://jp.surveymonkey.com/s/6LRMRJW","from":{"id":"100000199780783","name":"Nguyen Thu Hoai"},"message":"Ad ơi cho em/ mình xin phép để đăng thông tin sau nhé! Nếu mà add thấy không hợp lý để đăng ở đây thì nói ngay em/mình sẽ tháo xuống để đảm bảo quy tắc của nhóm nhé ^^. \n\n...Thế hệ chúng ta được may mắn sinh ra trong hòa bình không chịu ảnh huởng hay những hậu quả đau thương do chiến tranh gây ra. May mắn hơn nữa là được đi học ở những phương trời phát triển, nơi mà chúng ta nhận được nhiều sự đãi ngộ trong cuộc sống. Có lẽ ngay đến mình khi nhắc tới chiến tranh hay các nạn nhân phải chịu di chứng từ chất Dioxin , phải dùng hai từ là \"thờ ơ\". Mình ko biết chính xác số nạn nhân đã lên con số bao nhiêu, chế độ đãi ngộ của chính phủ đối với họ hiện nay như thế nào, cuộc sống hằng ngày của họ ra sao... Mình chỉ biết là ảnh hưởng rất nghiêm trọng và họ đang rất khổ...chỉ vậy thôi. Mình tự nghĩ nếu vậy thì nếu khi các bạn Nhật hay những người bạn quốc tế họ quan tâm muốn hỗ trợ mà hỏi mình trong lúc đó thì mình biết trả lời ra sao, nếu ú ớ thì làm sao có thể khiến họ động lòng mà giang tay giúp đỡ những số phận đáng thương kia. Họ đã hứng chịu mọi đau thương từ chiến tranh để dành lại cái may mắn cho những số phận hạnh phúc khác. \n\nVậy thì ngay trong lúc này mình ko thể có một số tiền lớn để giúp đỡ họ, thay vì vậy mình sẽ tìm hiểu cụ thể hơn về ảnh hưởng, hậu quả , và cuộc sống hiện tại của họ. Sẽ có lúc nào đó mình giúp họ tiếp xúc được với những cá nhân hay tổ chức từ thiện, người thực sự quan tâm đến họ. Ít ra mình cùng chia sẻ nỗi đau với họ thông qua những thông tin là mình thu thập được. Việt Nam đã thua vụ kiện chất độc da cam trước Tòa án Mỹ , nhưng Mỹ không thể chối bỏ được hậu quả họ đã gây ra.\nNgay từ bây giờ, dù xuất phát điểm chỉ là 1 vài người nhưng ai cũng mong rằng tất cả người dân Việt nam, và tất cả người dân trên thế giới ai cũng biết đến những mảnh đời bất hạnh cần được cứu giúp và cần được đồng cảm trong cuộc sống.\n\nMuốn vậy thì cần nhất vẫn là một số kiến thức và hiểu biết cơ bản cần phải có. \nThông qua bảng câu hỏi ở link dưới đây :\nhttps://jp.surveymonkey.com/s/6LRMRJW\n,,,bạn có thể biết thêm nhiều kiến thức căn bản cần có về Dioxin, hậu quả của nó đến người dân Việt Nam. Hãy dành 1 chút thời gian search google để trả lời câu hỏi bạn nhé. Rất cảm ơn sự quan tâm của các bạn. \nSự giúp đỡ của các bạn sẽ giúp anh Quý hoàn thành tốt bài nghiên cứu của anh ấy, và cũng gián tiếp giúp đỡ các nận nhân Dioxin nếu bài nghiên cứu được đến với các giáo sư Nhật Bản.\nAnh Phạm Nguyên Quý, Hiện đang làm Bác sỹ tại bệnh viện Kyoto,japan... anh qua Nhật 10 năm nhưng luôn hướng về những mảnh đời bất hạnh tại quê nhà. Mặc dù bận rộn với công việc nhưng anh ấy vẫn dành thời gian để làm add của một trang \"Y học cộng đồng\" Các bạn có thể tham khảo ở đây : http://yhoccongdong.com/#&panel1-1\n...trang web hội tụ các  Bác sỹ giỏi có kiến thức chuyên môn cao đang đi du học ở các quốc gia khác nhau, các bác sỹ DH y Dược, bệnh viện nhi, BV chợ rẫy.... để dịch những bài dịch về chăm sóc sức khỏe từ những trang quốc tế uy tín nhất, mong muốn mọi người có một trang tin cậy để tham khảo khi chưa kịp đến bệnh viện,,, tất cả chỉ là tình nguyện không nhận một đồng lương nào cả.\nAnh ấy còn là thành viên chủ chốt của nhóm thiện nguyện BETOAJI : https://www.facebook.com/betoaji?ref=ts&fref=ts\n (nhóm với tiêu chí hoạt động giúp đỡ các trẻ em nghèo miền núi Việt Nam, giúp các em có nhiều cơ hội cắp sách tới trường học lấy cái chữ).\nRất cảm ơn những tấm lòng như anh ấy^^. Và mong rằng có thêm thật nhiều những tấm lòng như thế, những đứa con đã thành đạt luôn hướng về quê hương <3","created_time":"2013-12-15T07:35:09+0000","updated_time":"2013-12-15T16:09:37+0000","likes":{"data":{"100003933466469":{"id":"100003933466469","name":"Phong Aki"},"100000022163023":{"id":"100000022163023","name":"Kafe Ore"},"100001416272263":{"id":"100001416272263","name":"Mai PB"},"100001324611896":{"id":"100001324611896","name":"Meo Luoi"},"100000500260636":{"id":"100000500260636","name":"Lưu Nguyễn Thảo Tiên"},"100000359762118":{"id":"100000359762118","name":"Mi Tra"},"100005801442456":{"id":"100005801442456","name":"An Nguyen"},"1103173052":{"id":"1103173052","name":"Uyên Nguyễn"},"1816269439":{"id":"1816269439","name":"Dao Ngoc"},"100001697437502":{"id":"100001697437502","name":"Huu Long Nguyen"},"551090087":{"id":"551090087","name":"Tran Vu Dung"}},"paging":{"cursors":{"after":"MTAwMDAzOTMzNDY2NDY5","before":"MTAwMDAzOTMzNDY2NDY5"},"next":"https://graph.facebook.com/229244010425617_777979905552022/likes?limit=1&summary=1&after=MTAwMDAzOTMzNDY2NDY5"},"summary":{"total_count":11}},"comments":{"data":{"777981788885167":{"id":"777981788885167","from":{"id":"551090087","name":"Tran Vu Dung"},"message":"toàn câu khó :))","can_remove":false,"created_time":"2013-12-15T07:44:06+0000","like_count":1,"user_likes":false},"777984558884890":{"id":"777984558884890","from":{"id":"100005801442456","name":"An Nguyen"},"message":"Bà con bỏ bớt vài phút ra mà giúp đỡ anh ấy làm việc tốt  cho quê hương nào!","can_remove":false,"created_time":"2013-12-15T07:55:52+0000","like_count":1,"user_likes":false},"777986182218061":{"id":"777986182218061","from":{"id":"100000199780783","name":"Nguyen Thu Hoai"},"message":"em đọc câu nào câu nấy mặt cứ ngơ ngác anh ạ.hix. tệ thật. ;(","can_remove":false,"created_time":"2013-12-15T08:03:06+0000","like_count":2,"user_likes":false},"777988105551202":{"id":"777988105551202","from":{"id":"1816269439","name":"Dao Ngoc"},"message":"Done","can_remove":false,"created_time":"2013-12-15T08:12:24+0000","like_count":1,"user_likes":false},"777990172217662":{"id":"777990172217662","from":{"id":"100005801442456","name":"An Nguyen"},"message":"Câu 7 : có khả năng là ... Đi trễ giờ =))","can_remove":false,"created_time":"2013-12-15T08:17:13+0000","like_count":0,"user_likes":false},"777991322217547":{"id":"777991322217547","from":{"id":"1026780646","name":"Việt Hưng Khổng"},"message":"Done","can_remove":false,"created_time":"2013-12-15T08:19:21+0000","like_count":1,"user_likes":false},"778043115545701":{"id":"778043115545701","from":{"id":"100001526631937","name":"Tường Oanh Mineko"},"message":"cái này đã làm 1 lần rồi, e nhớ lần trc có ai đó đăng cái này của bác sĩ nào đó đang nghiên cứu..","can_remove":false,"created_time":"2013-12-15T11:17:22+0000","like_count":2,"user_likes":false},"778043338879012":{"id":"778043338879012","from":{"id":"1026780646","name":"Việt Hưng Khổng"},"message":"Dao Ngoc chứ ai ;)","message_tags":[{"id":"1816269439","name":"Dao Ngoc","type":"user","offset":0,"length":8}],"can_remove":false,"created_time":"2013-12-15T11:18:02+0000","like_count":1,"user_likes":false},"778072972209382":{"id":"778072972209382","from":{"id":"100000359762118","name":"Mi Tra"},"message":"Việt Hưng Khổng nhớ nhầm rồi. Do mình đăng đó^^","message_tags":[{"id":"1026780646","name":"Việt Hưng Khổng","type":"user","offset":0,"length":15}],"can_remove":false,"created_time":"2013-12-15T12:37:31+0000","like_count":0,"user_likes":false},"778076348875711":{"id":"778076348875711","from":{"id":"100001416272263","name":"Mai PB"},"message":"Bon mình là ad chứ không phải là add. ;-)","can_remove":false,"created_time":"2013-12-15T12:43:13+0000","like_count":2,"user_likes":false},"778076905542322":{"id":"778076905542322","from":{"id":"100001526631937","name":"Tường Oanh Mineko"},"message":"may ra chưa đến nỗi bị gọi là \" ếch\" a nạ. :v","can_remove":false,"created_time":"2013-12-15T12:44:40+0000","like_count":0,"user_likes":false},"778164308866915":{"id":"778164308866915","from":{"id":"100000199780783","name":"Nguyen Thu Hoai"},"message":"Đúng là cuả anh Bác Sỹ Phạm Nguyên Quý đó^^","can_remove":false,"created_time":"2013-12-15T16:09:37+0000","like_count":0,"user_likes":false}},"paging":{"cursors":{"after":"Nzc3OTgxNzg4ODg1MTY3","before":"Nzc3OTgxNzg4ODg1MTY3"},"next":"https://graph.facebook.com/229244010425617_777979905552022/comments?limit=1&summary=1&after=Nzc3OTgxNzg4ODg1MTY3"},"summary":{"order":"chronological","total_count":12}}}