{"id":"229244010425617_778054882211191","type":"status","from":{"id":"100001695345798","name":"Tyn Aki"},"message":"[Văn hóa Nhật Bản]\nBẠN ĐÃ BIẾT CÁCH ĐI CHÙA\\ĐỀN Ở NHẬT BẢN ĐÚNG CÁCH?\n\nGiống như người Việt Nam, đền chùa chiếm vị trí quan trọng trong thế giới tâm linh của đại đa số người Nhật. Khi đang ở Nhật, hãy cùng thử \"nhập gia tùy tục\" xem cách khấn vái đúng cách là thế nào nhé.\n\nA. Với đền (神社、神宮）\nKhi vào đền, trước cổng thần đạo (鳥居ーとりい）ta cúi đầu 1 lần.\n\n1. 手水舎　（てみずや）Chỗ rửa tay:\nCác chùa đền Nhật Bản trước khi vào chính điện, đều có chỗ rửa tay. Hầu như ở chỗ này đều gắn cách hướng dẫn rửa tay. Các bước được thực hiện như sau.\nB1* Lấy tay phải cầm gáo, múc nước, rửa tay trái.\nB2* Đổi bên, lấy tay trái cầm gáo, đổ nước rửa tay phải.\nB3* Cầm gáo tay phải, đổ 1 chút nước vào lòng bàn tay trái, đưa lên miệng, ngậm 1 lúc rồi bỏ nước ra.\n\n2. Cách khấn: \nB1* Thả tiền vào hộp đựng tiền (mình thường đi đồng 5 yên)\nB2* Cúi người 2 lần.\nB3* Vỗ tay hai cái, và nghĩ đều mình cầu nguyện.\nB4: Cúi tạ 1 lần.\n\nB. Ở chùa お寺\n\n1. Bước rửa tay cũng tương tự như ở đền.\n\n2. Thắp hương. Khác với người Việt Nam, người Nhật đứng ở bát hương, hất chút hơi hương vào người.\n\n3. Cách khấn:\nB1* Thả tiền vào hộp đựng tiền \nB2* Rung chuông.\nB3* Chắp tay thành tâm cầu nguyện\nB4: Cúi tạ 1 lần.\n\nĐã mấy bạn làm đúng được các bước trên? Các bạn có thích đi đền chùa Nhật Bản không? Khi đi có bạn nào thử bốc thẻ おみくじ không? Dù không phải người Nhật nhưng cũng thử một lần nhé. ^^\n\nChúc cả nhà buổi tối ấm áp. :)\nP.s Xin cảm ơn chị Vu Thi Man đã góp ý sửa chữa nội dung. ^^","created_time":"2013-12-15T11:53:40+0000","updated_time":"2013-12-16T09:29:40+0000","likes":{"data":{"100000328742646":{"id":"100000328742646","name":"Trần Giáp"},"100003019923910":{"id":"100003019923910","name":"Luân Pig"},"100005801442456":{"id":"100005801442456","name":"An Nguyen"},"100004096243144":{"id":"100004096243144","name":"Shorai Nguyễn"},"1148962646":{"id":"1148962646","name":"Tran Thi Tuong Van"},"100002455842053":{"id":"100002455842053","name":"Toto Nguyen"},"1845000884":{"id":"1845000884","name":"Trieu Thi Kieu Oanh"},"569263718":{"id":"569263718","name":"Phuong Thao Tran"},"100000199780783":{"id":"100000199780783","name":"Nguyen Thu Hoai"},"100007295586982":{"id":"100007295586982","name":"Đà Lạt Đặc Sản"},"100000500260636":{"id":"100000500260636","name":"Lưu Nguyễn Thảo Tiên"},"100006677492541":{"id":"100006677492541","name":"Do Duyen"},"100003239455545":{"id":"100003239455545","name":"Yuki Daruma"},"100003250657085":{"id":"100003250657085","name":"Nhất Kiếm Vô Tình"},"1830001967":{"id":"1830001967","name":"Chiến Nguyễn"},"100004446185815":{"id":"100004446185815","name":"Hiền Jp"},"100003867949049":{"id":"100003867949049","name":"Ứừ Cứtừtừ"},"100005697938810":{"id":"100005697938810","name":"高橋"},"100001754136107":{"id":"100001754136107","name":"Nguyễn Tuấn Vũ"},"1103173052":{"id":"1103173052","name":"Uyên Nguyễn"},"745565751":{"id":"745565751","name":"Tuyen Hoang Thi"},"100003244177763":{"id":"100003244177763","name":"Mèo Mun"},"100000190521247":{"id":"100000190521247","name":"Sữa Nhí Nhố"},"100003155380603":{"id":"100003155380603","name":"Khuong Pham"},"100001393959821":{"id":"100001393959821","name":"Le Ngoc Linh Nhi"},"1146680551":{"id":"1146680551","name":"優しい なぁ"},"100003597762614":{"id":"100003597762614","name":"Shizuka Solembum"},"100001416272263":{"id":"100001416272263","name":"Mai PB"},"100003024145423":{"id":"100003024145423","name":"Lan Tran"},"100000045271667":{"id":"100000045271667","name":"Nam Thai Nguyen"},"100006954194052":{"id":"100006954194052","name":"PhuongHoa Nguyen"},"100003092013826":{"id":"100003092013826","name":"Voi Beo"},"1305472811":{"id":"1305472811","name":"Tuan Nguyen"},"100000996305320":{"id":"100000996305320","name":"Luon Nguyen Thi Thu"},"100003762427351":{"id":"100003762427351","name":"Hiroshi Yasu Oki"},"100005546471688":{"id":"100005546471688","name":"Trà My"},"100003783699639":{"id":"100003783699639","name":"Tô Ngọc Ánh"},"100003037728081":{"id":"100003037728081","name":"Nho Nguyen"},"100000293174570":{"id":"100000293174570","name":"Vịt Vụng Về"},"100001170243317":{"id":"100001170243317","name":"Preetty Zy"},"100004101363917":{"id":"100004101363917","name":"Lan Anh Mẫn"},"100001526631937":{"id":"100001526631937","name":"Tường Oanh Mineko"},"100003893158172":{"id":"100003893158172","name":"Maru MO"},"1250876107":{"id":"1250876107","name":"Kim Hoan"},"100002551322103":{"id":"100002551322103","name":"Bao Tran"},"1814478345":{"id":"1814478345","name":"Nguyễn Quốc Bửu Trân"},"100003780948776":{"id":"100003780948776","name":"Sâu Đặng"},"620134445":{"id":"620134445","name":"Anh Do"},"100004514621076":{"id":"100004514621076","name":"Hason Angle"},"100004123327271":{"id":"100004123327271","name":"Nguyễn Phương"},"100006618186713":{"id":"100006618186713","name":"Dương Tống"},"100003731623249":{"id":"100003731623249","name":"Mai Nguyen"},"100006427355064":{"id":"100006427355064","name":"Hùng Nguyễn"},"100000173039166":{"id":"100000173039166","name":"Kukku Lee"},"100002959594535":{"id":"100002959594535","name":"Nguyen Ngoc Anh"},"100000381394367":{"id":"100000381394367","name":"Thành Nguyễn"},"100002508122689":{"id":"100002508122689","name":"Vũ Mạnh Tuấn"},"100001508739620":{"id":"100001508739620","name":"Lê Ngọc Hoàn"},"100001114549932":{"id":"100001114549932","name":"Bui Thanh Hung"},"100000250256418":{"id":"100000250256418","name":"Nguyen Viet Anh"},"100003888543212":{"id":"100003888543212","name":"Ta Hiep"},"100001458099624":{"id":"100001458099624","name":"Kham Pha"},"1060893770":{"id":"1060893770","name":"Hyhy Zui Zẻ"}},"paging":{"cursors":{"after":"MTAwMDAwMzI4NzQyNjQ2","before":"MTAwMDAwMzI4NzQyNjQ2"},"next":"https://graph.facebook.com/229244010425617_778054882211191/likes?limit=1&summary=1&after=MTAwMDAwMzI4NzQyNjQ2"},"summary":{"total_count":64}},"comments":{"data":{"778055815544431":{"id":"778055815544431","from":{"id":"1060893770","name":"Hyhy Zui Zẻ"},"message":"thanks bạn","can_remove":false,"created_time":"2013-12-15T11:56:21+0000","like_count":0,"user_likes":false},"778056625544350":{"id":"778056625544350","from":{"id":"100001580479641","name":"Hà Xuân Thủy"},"message":"Đi nhiều lần nhưng chả cúng vái cầu xin gì cả, chỉ đơn giản là thích yên tĩnh và ngắm cảnh^^.","can_remove":false,"created_time":"2013-12-15T11:59:05+0000","like_count":0,"user_likes":false},"778057662210913":{"id":"778057662210913","from":{"id":"100001458099624","name":"Kham Pha"},"message":"Bổ sung thêm một chút về lý do các bạn bỏ tiền vào hòm trước khi khấn. Đó là vì trong tiếng Nhật tiền 円（えん）cùng cách đọc với chữ　縁（えん） vốn có nghĩa là DUYÊN. Mà Phật giáo vốn rất coi trọng chữ DUYÊN nên cầu DUYÊN thì phải bỏ えん vào là đúng rồi :)","can_remove":false,"created_time":"2013-12-15T12:02:39+0000","like_count":4,"user_likes":false},"778057778877568":{"id":"778057778877568","from":{"id":"100001508739620","name":"Lê Ngọc Hoàn"},"message":"Đã từng được 2 lần uống nước rửa tay ở chùa khi ngậm vào rồi ko muốn bỏ nước ra :D","can_remove":false,"created_time":"2013-12-15T12:03:03+0000","like_count":0,"user_likes":false},"778058205544192":{"id":"778058205544192","from":{"id":"100001695345798","name":"Tyn Aki"},"message":"@A Đức: thế càng bỏ nhiều Yên thì càng nhiều duyên ạ ;))","can_remove":false,"created_time":"2013-12-15T12:04:26+0000","like_count":0,"user_likes":false},"778058308877515":{"id":"778058308877515","from":{"id":"100001695345798","name":"Tyn Aki"},"message":"@a Hoàn: thế càng sạch anh ạ ;))","can_remove":false,"created_time":"2013-12-15T12:04:40+0000","like_count":0,"user_likes":false},"778058552210824":{"id":"778058552210824","from":{"id":"100001695345798","name":"Tyn Aki"},"message":"@ Thuỷ: Mỗi lần đi đền chùa là một lần khám phá, đẹp và yên tĩnh :)","can_remove":false,"created_time":"2013-12-15T12:05:22+0000","like_count":0,"user_likes":false},"778058855544127":{"id":"778058855544127","from":{"id":"100001508739620","name":"Lê Ngọc Hoàn"},"message":"A thấy có mấy chùa nó ghi rõ ràng là ko được uống nước ý mà :))\nUống rồi ko biết có sao ko đây, đang đợi kết quả =))","can_remove":false,"created_time":"2013-12-15T12:05:52+0000","like_count":0,"user_likes":false},"778059182210761":{"id":"778059182210761","from":{"id":"100001458099624","name":"Kham Pha"},"message":"nghe nói uống nước ở mấy chỗ thiêng ấy dễ thụ thai lắm đấy :))","can_remove":false,"created_time":"2013-12-15T12:06:40+0000","like_count":10,"user_likes":false},"778063965543616":{"id":"778063965543616","from":{"id":"100002508122689","name":"Vũ Mạnh Tuấn"},"message":":))","can_remove":false,"created_time":"2013-12-15T12:20:04+0000","like_count":0,"user_likes":false},"778074475542565":{"id":"778074475542565","from":{"id":"100000250256418","name":"Nguyen Viet Anh"},"message":"Ak, sao hôm trước mình đi có uống ngụm nào đâu mà về đau bụng mấy ngày. :))","can_remove":false,"created_time":"2013-12-15T12:40:10+0000","like_count":0,"user_likes":false},"778077068875639":{"id":"778077068875639","from":{"id":"100001580479641","name":"Hà Xuân Thủy"},"message":"Đau bụng mấy ngày là đến tháng chứ liên quan gì đến nước nôi.","can_remove":false,"created_time":"2013-12-15T12:45:05+0000","like_count":1,"user_likes":false},"778078298875516":{"id":"778078298875516","from":{"id":"100003179905990","name":"Trâm Yoko"},"message":"k hiểu vì sao ở Nhật luôn là vỗ tay 2 cái nhỉ. trong đấu Sumou hay lễ thần linh đều vậy nhỉ.....","can_remove":false,"created_time":"2013-12-15T12:47:10+0000","like_count":0,"user_likes":false},"778078458875500":{"id":"778078458875500","from":{"id":"100001458099624","name":"Kham Pha"},"message":"Nguyen Viet Anh nhiều khi nó là vấn đề anh em chiến hữu ăn ở với nhau thế nào chứ ko liên quan nước nôi đâu.","message_tags":[{"id":"100000250256418","name":"Nguyen Viet Anh","type":"user","offset":0,"length":15}],"can_remove":false,"created_time":"2013-12-15T12:47:38+0000","like_count":0,"user_likes":false},"778096188873727":{"id":"778096188873727","from":{"id":"100000687662713","name":"Vu Thi Man"},"message":"Khấn như cách bạn bảo chỉ áp dụng đối với đền thôi, còn chùa thì không phải làm vậy.\nMách thêm các bạn Khi đi đền hay chùa ở Nhật thì chỉ được đi hai phía ngoài cùng (bên phải hoặc bên trái), tránh đi ở chính giữa vì người Nhật quan niệm, chính môn là đường dành cho thần linh.","can_remove":false,"created_time":"2013-12-15T13:26:02+0000","like_count":2,"user_likes":false},"778124132204266":{"id":"778124132204266","from":{"id":"100001695345798","name":"Tyn Aki"},"message":"em cảm ơn chị ạ. em vừa check lại đúng là chỉ áp dụng vs jinja, thần đạo, còn với chùa:\nSau khi rửa tay, ta dâng hương, lắc chuông rồi thành tâm khấn nguyện, và 1 cúi lễ tạ. ^^","can_remove":false,"created_time":"2013-12-15T14:36:57+0000","like_count":1,"user_likes":false},"778617002154979":{"id":"778617002154979","from":{"id":"100000687662713","name":"Vu Thi Man"},"message":"Cuối năm mà lại nói đến chữ DUYÊN, mách nhỏ Kham Pha và những ai chưa có ý trung nhân, xin mời về Kyoto, đi chùa Thanh thủy (Kiyo mizu) có cả 2 cái mà bạn nói ở trên luôn. Ngoài kiến trúc chùa được làm toàn từ gỗ (7 tầng) gần giống chùa Keo - Thái Bình, thì còn có đền cầu duyên và suối nước thiêng. Tha hồ mà thưởng thức và cầu nguyện nhé.","message_tags":[{"id":"100001458099624","name":"Kham Pha","type":"user","offset":44,"length":8}],"can_remove":false,"created_time":"2013-12-16T09:15:26+0000","like_count":0,"user_likes":false},"778629948820351":{"id":"778629948820351","from":{"id":"100001458099624","name":"Kham Pha"},"message":"ơ sao lại tiết lộ thông tin cá nhân của mình thế :(","can_remove":false,"created_time":"2013-12-16T09:29:40+0000","like_count":0,"user_likes":false}},"paging":{"cursors":{"after":"Nzc4MDU1ODE1NTQ0NDMx","before":"Nzc4MDU1ODE1NTQ0NDMx"},"next":"https://graph.facebook.com/229244010425617_778054882211191/comments?limit=1&summary=1&after=Nzc4MDU1ODE1NTQ0NDMx"},"summary":{"order":"chronological","total_count":18}}}