{"id":"229244010425617_778783938804952","type":"video","picture":"https://fbexternal-a.akamaihd.net/safe_image.php?d=AQD2A3vyK5ebrCNJ&w=130&h=130&url=http%3A%2F%2Fi1.ytimg.com%2Fvi%2FReMEXDxaTZU%2Fhqdefault.jpg","link":"http://www.youtube.com/watch?v=ReMEXDxaTZU","source":"http://www.youtube.com/v/ReMEXDxaTZU?autohide=1&version=3&autoplay=1","from":{"id":"100000045271667","name":"Nam Thai Nguyen"},"message":"Phim tài liệu về \"Phong cách quản lý Nhật Bản\" - một bộ phim rất giá trị của quỹ JICA -Nhật Bản, dành cho tất cả ai quan tâm về nghệ thuạt quản lý Nhật Bản  \n\"Giải quyết mâu thuẫn thì tốt hơn thỏa hiêp mâu thuẫn\"\nNgười Nhật họ học cả Việt Nam trong lịch sử\nhttp://www.youtube.com/watch?v=ReMEXDxaTZU","created_time":"2013-12-16T14:01:04+0000","updated_time":"2013-12-16T16:15:02+0000","likes":{"data":{"1060893770":{"id":"1060893770","name":"Hyhy Zui Zẻ"},"100005145330760":{"id":"100005145330760","name":"Sơn Vũ"},"100000167920988":{"id":"100000167920988","name":"Lê Cường"},"100000270878661":{"id":"100000270878661","name":"Quỳnh Trang Venus"},"100004889430124":{"id":"100004889430124","name":"Quiet Man"},"100003113283930":{"id":"100003113283930","name":"Nhung Nhinh"},"1787333994":{"id":"1787333994","name":"Kiên Mậu"},"100001444337943":{"id":"100001444337943","name":"Macjanh"},"569263718":{"id":"569263718","name":"Phuong Thao Tran"},"100003762427351":{"id":"100003762427351","name":"Hiroshi Yasu Oki"},"100000288625882":{"id":"100000288625882","name":"Viet Hoang"},"100000250256418":{"id":"100000250256418","name":"Nguyen Viet Anh"},"1146680551":{"id":"1146680551","name":"優しい なぁ"},"100001526631937":{"id":"100001526631937","name":"Tường Oanh Mineko"},"100003575851710":{"id":"100003575851710","name":"Dung Nguyen"},"100001614233452":{"id":"100001614233452","name":"Hienvit Duckling"},"100002754998000":{"id":"100002754998000","name":"Nguyen Duc"},"100001757749425":{"id":"100001757749425","name":"Quân Nhí Nhố"},"1283298041":{"id":"1283298041","name":"Búa Đức Thanh"},"1318895018":{"id":"1318895018","name":"Van T Tran"}},"paging":{"cursors":{"after":"MTA2MDg5Mzc3MA==","before":"MTA2MDg5Mzc3MA=="},"next":"https://graph.facebook.com/229244010425617_778783938804952/likes?limit=1&summary=1&after=MTA2MDg5Mzc3MA%3D%3D"},"summary":{"total_count":21}},"comments":{"data":{"778789135471099":{"id":"778789135471099","from":{"id":"100001458099624","name":"Kham Pha"},"message":"quá hay, đúng cái đang tìm :D","can_remove":false,"created_time":"2013-12-16T14:13:29+0000","like_count":1,"user_likes":false},"778789475471065":{"id":"778789475471065","from":{"id":"100000045271667","name":"Nam Thai Nguyen"},"message":"nghe ông GS nói chuyện học hỏi trận ĐBP hay quá Kham Pha ơiiii","message_tags":[{"id":"100001458099624","name":"Kham Pha","type":"user","offset":48,"length":8}],"can_remove":false,"created_time":"2013-12-16T14:14:26+0000","like_count":0,"user_likes":false},"778792758804070":{"id":"778792758804070","from":{"id":"100001458099624","name":"Kham Pha"},"message":"Cách quản lý của họ ngược lại hẳn của ta. Nhìn nhận ý tưởng từ cấp cơ sở lên chứ ko quan liêu như lãnh đạo mình, toàn ngồi một chỗ phán.","can_remove":false,"created_time":"2013-12-16T14:22:05+0000","like_count":0,"user_likes":false},"778793285470684":{"id":"778793285470684","from":{"id":"100000045271667","name":"Nam Thai Nguyen"},"message":"cái đó là một bộ phận lớn nhưng không phải tất cả, và quản lý theo nghệ thuật Nhật cũng có nhược điểm","can_remove":false,"created_time":"2013-12-16T14:23:28+0000","like_count":0,"user_likes":false},"778795592137120":{"id":"778795592137120","from":{"id":"100001458099624","name":"Kham Pha"},"message":"nhược điểm thì có, thậm chí là rất lớn tuy ko đc đề cập trong video này nhưng dẫu sao cách làm của họ vẫn quá tốt so với VN bây giờ.","can_remove":false,"created_time":"2013-12-16T14:29:42+0000","like_count":2,"user_likes":false},"778828395467173":{"id":"778828395467173","from":{"id":"569263718","name":"Phuong Thao Tran"},"message":"mình ấn tượng phát ngôn của PGS Phùng Xuân Nhạ ở phút 18:40 ~ 19:40 , [tinh thần Nhật Bản nó `hơi` đặc biệt] <--- không hiểu người phát ngôn suy nghĩ gì khi nói câu này....","can_remove":false,"created_time":"2013-12-16T15:42:05+0000","like_count":2,"user_likes":false},"778836448799701":{"id":"778836448799701","from":{"id":"100005516772092","name":"Para Bol"},"message":"Tinh thần \"Nhật Bản\" rất rất... rất là đặc biệt nha bạn, có tích cực và lẫn tiêu cực... nhưng mục đích của nó cuối cùng là mang lợi ích cho bản thân lẫn xã hội. Tinh thần Nhật Bản rất khắc nghiệt... Ng Nhật họ đã đánh đổi rất nhiều để xã hội của họ được như hôm nay đó bạn... :)","can_remove":false,"created_time":"2013-12-16T16:04:42+0000","like_count":0,"user_likes":false},"778841565465856":{"id":"778841565465856","from":{"id":"100001526631937","name":"Tường Oanh Mineko"},"message":"1.cái chính là mỗi cá nhân làm việc cảm thấy hạnh phúc với chính công việc mình làm ---> nhân rộng ra đất nước này hp với các công việc, ngành nghề đó.\n2.luôn học hỏi cái hay của những ng đi trước ( đã đc chứng minh và có hiệu quả) dù là chi tiết nhỏ nhất ----> áp dụng vào cơ cấu lanh đạo, làm việc của cơ quan nhà nước luôn.\n3.Luôn luôn lắng nghe, luôn luôn thấu hiểu ( sếp cũng cần nghe ý kiến của từng cá nhân, tôn trọng ý thức lẫn nhau).\n4.Luôn chia sẻ cái hay, cái tốt---> cùng nhau phát triển, coi trọng ý thức làm vc tập thể hơn là cá nhân.","can_remove":false,"created_time":"2013-12-16T16:15:02+0000","like_count":1,"user_likes":false}},"paging":{"cursors":{"after":"Nzc4Nzg5MTM1NDcxMDk5","before":"Nzc4Nzg5MTM1NDcxMDk5"},"next":"https://graph.facebook.com/229244010425617_778783938804952/comments?limit=1&summary=1&after=Nzc4Nzg5MTM1NDcxMDk5"},"summary":{"order":"chronological","total_count":8}}}