{"id":"229244010425617_779326258750720","type":"video","picture":"https://fbexternal-a.akamaihd.net/safe_image.php?d=AQBnxtbQhEvnnDe2&w=130&h=130&url=http%3A%2F%2Fi1.ytimg.com%2Fvi%2FE6PoQn3QmVY%2Fmaxresdefault.jpg","link":"http://www.youtube.com/watch?v=E6PoQn3QmVY","source":"http://www.youtube.com/v/E6PoQn3QmVY?autohide=1&version=3&autoplay=1","from":{"id":"569263718","name":"Phuong Thao Tran"},"message":"Ca từ trong bài hát như một thước phim quay chậm...\nHãy cảm nhận và dịch bài hát này theo đúng tâm trạng của mình, hỡi những bạn đã ,sắp hoặc đang về quê nhà... !!! \n-------------------------------------------------\nホームにて \n（中島みゆき）\n\nふるさとへ向かう最終に\n乗れる人は急ぎなさいと\nやさしい　やさしい声の駅長が\n街なかに叫ぶ\n振り向けば空色の汽車は\nいまドアが閉まりかけて\n灯りともる窓の中では帰りびとが笑う\n走り出せば間に合うだろう\nかざり荷物をふり捨てて\n街に街に挨拶を\n振り向けばドアは閉まる\n\n振り向けば空色の汽車は\nいまドアが閉まりかけて\n灯りともる窓の中では帰りびとが笑う\nふるさとは走り続けたホームの果て\n叩き続けた窓ガラスの果て\nそして手のひらに残るのは\n白い煙と乗車券\n涙の数ため息の数　溜まってゆく空色のキップ\nネオンライトでは燃やせない\nふるさと行きの乗車券\n\nたそがれには彷徨う街に\n心は今夜もホームにたたずんでいる\nネオンライトでは燃やせない\nふるさと行きの乗車券\nネオンライトでは燃やせない\nふるさと行きの乗車券\nhttp://www.youtube.com/watch?v=E6PoQn3QmVY","created_time":"2013-12-17T06:00:58+0000","updated_time":"2013-12-18T10:38:04+0000","likes":{"data":{"100004094346107":{"id":"100004094346107","name":"Thuy Nga Nguyen"},"100005478454231":{"id":"100005478454231","name":"Maruko Chan"},"100003973378919":{"id":"100003973378919","name":"Thảo Nguyên"},"100003702043787":{"id":"100003702043787","name":"Hằng Hanu"},"100003327182344":{"id":"100003327182344","name":"Hồng Cẩm"},"100004253979918":{"id":"100004253979918","name":"Louis Hoàng Văn Thái"},"100006704471439":{"id":"100006704471439","name":"Thiên Sứ Khóc Nhè"},"100000468762077":{"id":"100000468762077","name":"Youki Youki"},"1146680551":{"id":"1146680551","name":"優しい なぁ"},"100001416272263":{"id":"100001416272263","name":"Mai PB"},"1026780646":{"id":"1026780646","name":"Việt Hưng Khổng"},"100000176631338":{"id":"100000176631338","name":"Hà Phương"},"100003683390259":{"id":"100003683390259","name":"Huệ Hoàng"},"100001526631937":{"id":"100001526631937","name":"Tường Oanh Mineko"},"100005801442456":{"id":"100005801442456","name":"An Nguyen"}},"paging":{"cursors":{"after":"MTAwMDA0MDk0MzQ2MTA3","before":"MTAwMDA0MDk0MzQ2MTA3"},"next":"https://graph.facebook.com/229244010425617_779326258750720/likes?limit=1&summary=1&after=MTAwMDA0MDk0MzQ2MTA3"},"summary":{"total_count":17}},"comments":{"data":{"779482798735066":{"id":"779482798735066","from":{"id":"1026780646","name":"Việt Hưng Khổng"},"message":"Sắp :)))","can_remove":false,"created_time":"2013-12-17T13:10:50+0000","like_count":1,"user_likes":false},"779493445400668":{"id":"779493445400668","from":{"id":"100001416272263","name":"Mai PB"},"message":"Sao mà tìm ra được bài này vậy, Phuong Thao Tran? 渋いね","message_tags":[{"id":"569263718","name":"Phuong Thao Tran","type":"user","offset":32,"length":16}],"can_remove":false,"created_time":"2013-12-17T13:35:22+0000","like_count":1,"user_likes":false},"779525695397443":{"id":"779525695397443","from":{"id":"569263718","name":"Phuong Thao Tran"},"message":"dạ, bí mật không mách cho anh được, ^^","can_remove":false,"created_time":"2013-12-17T14:43:38+0000","like_count":0,"user_likes":false},"780006055349407":{"id":"780006055349407","from":{"id":"100001526631937","name":"Tường Oanh Mineko"},"message":"Hay lắm c, e share nhé ^_^","can_remove":false,"created_time":"2013-12-18T06:39:29+0000","like_count":1,"user_likes":false},"780077708675575":{"id":"780077708675575","from":{"id":"569263718","name":"Phuong Thao Tran"},"message":"遠慮しないでね Tường Oanh Mineko","message_tags":[{"id":"100001526631937","name":"Tường Oanh Mineko","type":"user","offset":8,"length":17}],"can_remove":false,"created_time":"2013-12-18T10:38:04+0000","like_count":0,"user_likes":false}},"paging":{"cursors":{"after":"Nzc5NDgyNzk4NzM1MDY2","before":"Nzc5NDgyNzk4NzM1MDY2"},"next":"https://graph.facebook.com/229244010425617_779326258750720/comments?limit=1&summary=1&after=Nzc5NDgyNzk4NzM1MDY2"},"summary":{"order":"chronological","total_count":6}}}