{"id":"229244010425617_779419208741425","type":"link","picture":"https://fbexternal-a.akamaihd.net/app_full_proxy.php?app=6628568379&v=1&size=z&cksum=db78c9ef62b436f9664da7604193a330&src=http%3A%2F%2Fi1.ytimg.com%2Fvi%2FIK7ulOaVavM%2Fhqdefault.jpg","link":"http://www.youtube.com/watch?v=IK7ulOaVavM","from":{"id":"100001458099624","name":"Kham Pha"},"message":"Một bài hát rất hay, nhẹ nhàng và ý nghĩa mang tên \"Cám ơn\" :)\nCác bạn có thích chuyên mục \"Học tiếng Nhật qua bài hát\" của group ko? Và đã biết cách tra cứu các bài trước chưa?\n\nhttp://www.youtube.com/watch?v=IK7ulOaVavM","created_time":"2013-12-17T10:46:23+0000","updated_time":"2013-12-18T00:10:56+0000","likes":{"data":{"100004251845458":{"id":"100004251845458","name":"Hoàng Anh"},"1828906841":{"id":"1828906841","name":"Trọng Nghĩa Bùi"},"100004052599880":{"id":"100004052599880","name":"Nguyen-chan Hsj"},"100005318351948":{"id":"100005318351948","name":"Quyen Ngo"},"100000776461179":{"id":"100000776461179","name":"Jotaro Nguyen"},"1821970083":{"id":"1821970083","name":"Nguyễn Mạnh Cường"},"100004123327271":{"id":"100004123327271","name":"Nguyễn Phương"},"100004094346107":{"id":"100004094346107","name":"Thuy Nga Nguyen"},"100002184891276":{"id":"100002184891276","name":"Buu Giangvan"},"100002419566054":{"id":"100002419566054","name":"Khánh Toàn"},"100006464323686":{"id":"100006464323686","name":"Dương Phạm"},"1148962646":{"id":"1148962646","name":"Tran Thi Tuong Van"},"569263718":{"id":"569263718","name":"Phuong Thao Tran"},"100002508122689":{"id":"100002508122689","name":"Vũ Mạnh Tuấn"},"100004120503495":{"id":"100004120503495","name":"My Thanh"},"521525966":{"id":"521525966","name":"Hoa Tím Tất"},"100004140850631":{"id":"100004140850631","name":"Huong Trang"},"100002976271181":{"id":"100002976271181","name":"Kumira Ariko"},"100001416272263":{"id":"100001416272263","name":"Mai PB"},"1146680551":{"id":"1146680551","name":"優しい なぁ"},"100002449514019":{"id":"100002449514019","name":"Lương Hoa"},"100005801442456":{"id":"100005801442456","name":"An Nguyen"},"1318895018":{"id":"1318895018","name":"Van T Tran"},"100004073643933":{"id":"100004073643933","name":"Ích Kỷ"},"100005887419564":{"id":"100005887419564","name":"Cười Một Mình"},"100001718883015":{"id":"100001718883015","name":"Sayonara Daisukina Hito"},"100001526631937":{"id":"100001526631937","name":"Tường Oanh Mineko"},"100000359762118":{"id":"100000359762118","name":"Mi Tra"},"100004224663188":{"id":"100004224663188","name":"Linh Tamako"},"100004096243144":{"id":"100004096243144","name":"Shorai Nguyễn"},"100005934548279":{"id":"100005934548279","name":"Cậu Bé Buồn"},"1816269439":{"id":"1816269439","name":"Dao Ngoc"},"100002676859353":{"id":"100002676859353","name":"Chu Quang Viên"},"100004398330290":{"id":"100004398330290","name":"Lam Linh"},"100002876323062":{"id":"100002876323062","name":"Linh Nguyen"},"100005024348771":{"id":"100005024348771","name":"Long Hoàng"}},"paging":{"cursors":{"after":"MTAwMDA0MjUxODQ1NDU4","before":"MTAwMDA0MjUxODQ1NDU4"},"next":"https://graph.facebook.com/229244010425617_779419208741425/likes?limit=1&summary=1&after=MTAwMDA0MjUxODQ1NDU4"},"summary":{"total_count":39}},"comments":{"data":{"779506635399349":{"id":"779506635399349","from":{"id":"100002959594535","name":"Nguyen Ngoc Anh"},"message":"Bài có trong 1 bộ phim truyền hình chiếu vào 8h sáng vài năm trc đây!","can_remove":false,"created_time":"2013-12-17T14:03:22+0000","like_count":0,"user_likes":false},"779522045397808":{"id":"779522045397808","from":{"id":"100001458099624","name":"Kham Pha"},"message":"Thím Bảy mỗi bài hát mang một tình cảm khác nhau mà, sao lại so sánh vậy?","message_tags":[{"id":"100000787934403","name":"Thím Bảy","type":"user","offset":0,"length":8}],"can_remove":false,"created_time":"2013-12-17T14:37:50+0000","like_count":1,"user_likes":false},"779525955397417":{"id":"779525955397417","from":{"id":"521525966","name":"Hoa Tím Tất"},"message":"Em thích giọng của em này cực <3","can_remove":false,"created_time":"2013-12-17T14:44:23+0000","like_count":0,"user_likes":false},"779526752064004":{"id":"779526752064004","from":{"id":"100001458099624","name":"Kham Pha"},"message":"fan ikomono gakari đây, ko hẳn là xinh nhưng dễ thương và hát hay khủng khiếp :)","can_remove":false,"created_time":"2013-12-17T14:46:22+0000","like_count":1,"user_likes":false},"779527152063964":{"id":"779527152063964","from":{"id":"521525966","name":"Hoa Tím Tất"},"message":"So với em là xưn roài :v\nGiọng em ý khỏe khủng khiếp","can_remove":false,"created_time":"2013-12-17T14:47:15+0000","like_count":0,"user_likes":false},"779531692063510":{"id":"779531692063510","from":{"id":"100001458099624","name":"Kham Pha"},"message":"chuân rồi, bài sakura có đoạn bỏ mic ra hát chay mới ghê :D","can_remove":false,"created_time":"2013-12-17T14:48:39+0000","like_count":1,"user_likes":false},"779533098730036":{"id":"779533098730036","from":{"id":"521525966","name":"Hoa Tím Tất"},"message":"Mấy bài liền cơ anh. Em nghe chả nhớ tên bài hát đâu nhưng giọng bạn này nghe fát nhận ra luôn\n\nSakura là nhạc chuông điện thoại của em 3 năm nay :D","can_remove":false,"created_time":"2013-12-17T14:50:01+0000","like_count":1,"user_likes":false},"779542065395806":{"id":"779542065395806","from":{"id":"569263718","name":"Phuong Thao Tran"},"message":"chị có 1 bài cũng rất xúc động, nhưng mà dấu đã, :D","can_remove":false,"created_time":"2013-12-17T15:08:00+0000","like_count":1,"user_likes":false},"779858555364157":{"id":"779858555364157","from":{"id":"100005801442456","name":"An Nguyen"},"message":"Thích bài của Thím quá Thím ơi :v","can_remove":false,"created_time":"2013-12-18T00:10:56+0000","like_count":0,"user_likes":false}},"paging":{"cursors":{"after":"Nzc5NTA2NjM1Mzk5MzQ5","before":"Nzc5NTA2NjM1Mzk5MzQ5"},"next":"https://graph.facebook.com/229244010425617_779419208741425/comments?limit=1&summary=1&after=Nzc5NTA2NjM1Mzk5MzQ5"},"summary":{"order":"chronological","total_count":10}}}