{"id":"229244010425617_779582722058407","type":"status","from":{"id":"100001458099624","name":"Kham Pha"},"message":"Doanh nghiệp Nhật muốn một nhân viên như thế nào? \n\nTrong hầu hết các câu hỏi của các bạn trong group thường các bạn hỏi về cách gọi điện, cách viết CV để dễ xin việc. Điều đó thực sự rất tốt nhưng liệu đã đủ chưa?\nCó bạn nói rằng đã làm tất cả như hướng dẫn nhưng vẫn không tìm được việc. Vâỵ hãy thử một lần đứng từ phía nhà tuyển dụng mà đặt câu hỏi: “Các doanh nghiệp Nhật họ cần tuyển một nhân viên như thế nào?” \n\nHôm nọ mình có gặp một bác từng làm ở cty giới thiệu việc làm và cũng từng giữ chức liên quan đến tuyển dụng ở một cty khác. Bác ấy từng hỏi nhiều cty Nhật xem họ muốn tuyển một nhân viên như thế nào. Dưới đây mình liệt kê những điều mình ghi chép nhanh lại những điều bác ấy nói. Các bạn hãy cố gắng dịch sang tiếng Việt xem, mình đã viết cách đọc từ khó vào bên cạnh rồi. Bạn hiểu câu nào thì viết ra chia sẻ cho những người khác cùng biết, mỗi người một tay nào :)\nよろしくお願いします。 \n\n（１）大学時代に打ち込んだものがあって、そこから何を学んだか語（かた）れる学生\n（２）自己主張（じこしゅちょう）ができる学生\n（３）自分のやりたいことが明確（めいかく）で、なぜ当社なのかをはっきり言える人\n（４）自分の夢を持っている学生\n（５）当社（とうしゃ）への思い入れの強さ、入社したいという情熱（じょうねつ）を持っている人\n（６）何にもチャレンジする気がある人\n（７）発想（はっそう）自由人\n。。。\n\nVà một số phẩm chất cần có.\n\n誠実（せいじつ）\n勤勉（きんべん）\n正直（しょうじき）\n柔和（にゅうわ）\n協調（きょうちょう）\n。。。\n\nNói chung mình nghĩ không chỉ có doanh nghiệp Nhật mà bất kì doanh nghiệp nào trừ doanh nghiệp nhà nước VN ra thì đều muốn có các nhân viên có không ít thì nhiều phẩm chất như vậy. Hãy tự hỏi bản thân xem liệu các ông chủ doanh nghiệp có cần bạn không. \n\nKham Pha\nCộng đồng Việt Nhật \nhttps://www.facebook.com/groups/CongdongVietNhat/","created_time":"2013-12-17T15:28:29+0000","updated_time":"2013-12-18T10:49:44+0000","likes":{"data":{"100004096243144":{"id":"100004096243144","name":"Shorai Nguyễn"},"100003907081547":{"id":"100003907081547","name":"Van Ta"},"100006395432442":{"id":"100006395432442","name":"Hổ Thủ Taiga"},"1026780646":{"id":"1026780646","name":"Việt Hưng Khổng"},"100003762427351":{"id":"100003762427351","name":"Hiroshi Yasu Oki"},"100000328742646":{"id":"100000328742646","name":"Trần Giáp"},"100002871405403":{"id":"100002871405403","name":"Thach Sanh"},"100003973378919":{"id":"100003973378919","name":"Thảo Nguyên"},"100003144794147":{"id":"100003144794147","name":"かわいい ぶた"},"100006266882815":{"id":"100006266882815","name":"Phạm Lan Mai"},"100000500260636":{"id":"100000500260636","name":"Lưu Nguyễn Thảo Tiên"},"100003669604211":{"id":"100003669604211","name":"Mặt Trời Phương Đông"},"100006738850876":{"id":"100006738850876","name":"Ho Tuan"},"100001754136107":{"id":"100001754136107","name":"Nguyễn Tuấn Vũ"},"100001836718429":{"id":"100001836718429","name":"Hà Vũ"},"100000999548993":{"id":"100000999548993","name":"Mi Sờ Tơ Béo"},"100005057138072":{"id":"100005057138072","name":"Lưu Tuấn Phát"},"100005801442456":{"id":"100005801442456","name":"An Nguyen"},"100004450956167":{"id":"100004450956167","name":"Thắng Satoh"},"100002975299796":{"id":"100002975299796","name":"Trinh Tuan Anh"},"100001062202744":{"id":"100001062202744","name":"Hoang Garu"},"100001579772516":{"id":"100001579772516","name":"Xuân Vũ Huy"},"100006496883532":{"id":"100006496883532","name":"Mặc Thế Nhân"},"100002842790261":{"id":"100002842790261","name":"Nhài Vũ"},"1816269439":{"id":"1816269439","name":"Dao Ngoc"},"100000250256418":{"id":"100000250256418","name":"Nguyen Viet Anh"},"1103173052":{"id":"1103173052","name":"Uyên Nguyễn"},"1146680551":{"id":"1146680551","name":"優しい なぁ"},"100002137253818":{"id":"100002137253818","name":"Anh Khoa"},"569263718":{"id":"569263718","name":"Phuong Thao Tran"},"100003055356509":{"id":"100003055356509","name":"Thuan Nguyen"},"1416265619":{"id":"1416265619","name":"Starwar Bbj"},"100000037024030":{"id":"100000037024030","name":"Hung Duc Tran"},"100003049639881":{"id":"100003049639881","name":"Truong Luvuxy"},"100001526631937":{"id":"100001526631937","name":"Tường Oanh Mineko"},"100006379235603":{"id":"100006379235603","name":"Khoai Tây Rubi"},"100004112258038":{"id":"100004112258038","name":"Chung Tran"},"100006355960514":{"id":"100006355960514","name":"Lê Thùy Dương"}},"paging":{"cursors":{"after":"MTAwMDA0MDk2MjQzMTQ0","before":"MTAwMDA0MDk2MjQzMTQ0"},"next":"https://graph.facebook.com/229244010425617_779582722058407/likes?limit=1&summary=1&after=MTAwMDA0MDk2MjQzMTQ0"},"summary":{"total_count":40}},"comments":{"data":{"779609255389087":{"id":"779609255389087","from":{"id":"569263718","name":"Phuong Thao Tran"},"message":"dịch sang tiếng Việt chứ Kham Pha, ^^","message_tags":[{"id":"100001458099624","name":"Kham Pha","type":"user","offset":25,"length":8}],"can_remove":false,"created_time":"2013-12-17T15:36:08+0000","like_count":0,"user_likes":false},"779610548722291":{"id":"779610548722291","from":{"id":"100001458099624","name":"Kham Pha"},"message":"ah em nhầm :D","can_remove":false,"created_time":"2013-12-17T15:39:08+0000","like_count":0,"user_likes":false},"779610695388943":{"id":"779610695388943","from":{"id":"569263718","name":"Phuong Thao Tran"},"message":"có lẽ mục 4, 5, 6 thì cần mổ xẻ nhiều thì mới hiệu quả em ạ","can_remove":false,"created_time":"2013-12-17T15:39:31+0000","like_count":3,"user_likes":false},"779611625388850":{"id":"779611625388850","from":{"id":"100003803991548","name":"Đặng Văn Công"},"message":"Má ơj a ý ko djch sang tjếng vịt từ khó e đâu đọc đk.","can_remove":false,"created_time":"2013-12-17T15:41:40+0000","like_count":0,"user_likes":false},"779625792054100":{"id":"779625792054100","from":{"id":"100001458099624","name":"Kham Pha"},"message":"Phuong Thao Tran vậy chị tiên phong mổ xẻ cho mọi người hiểu đi. Có gì em sẽ bổ sung :)","message_tags":[{"id":"569263718","name":"Phuong Thao Tran","type":"user","offset":0,"length":16}],"can_remove":false,"created_time":"2013-12-17T16:08:16+0000","like_count":0,"user_likes":false},"779628878720458":{"id":"779628878720458","from":{"id":"100005024348771","name":"Long Hoàng"},"message":"ý 1 em không hiểu lắm","can_remove":false,"created_time":"2013-12-17T16:16:43+0000","like_count":0,"user_likes":false},"779630265386986":{"id":"779630265386986","from":{"id":"100001458099624","name":"Kham Pha"},"message":"1. Thời học sinh say mê cái gì đó và có thể kể lại mình đã học đc gì từ nó.","can_remove":false,"created_time":"2013-12-17T16:20:47+0000","like_count":1,"user_likes":false},"779632255386787":{"id":"779632255386787","from":{"id":"100003027515100","name":"Hana Yuki"},"message":"1.học sinh mà ta có cảm giác đã dốc hết sức mình khi vào thời đại học và kể đã học những gì từ nơi trường đại học đó.","can_remove":false,"created_time":"2013-12-17T16:26:03+0000","like_count":1,"user_likes":false},"779633028720043":{"id":"779633028720043","from":{"id":"100000221150592","name":"Nanami Moe"},"message":"（１）大学時代に打ち込んだものがあって、そこから何を学んだか語（かた）れる学生 -> lúc đi học cần làm những điểu cần thiết , học sinh cần phải biết những điều cần học \n（２）自己主張（じこしゅちょう）ができる学生 -> học sinh có thể tự học\n（３）自分のやりたいことが明確（めいかく）で、なぜ当社なのかをはっきり言える人 -> biết rõ những điều mà mình muốn làm ,có thể giải thích tại sao mình làm việc đó\n（４）自分の夢を持っている学生 -> lúc còn là học sinh cần nắm lấy ước mơ của bản thân \n（５）当社（とうしゃ）への思い入れの強さ、入社したいという情熱（じょうねつ）を持っている人 -> cần có ý chí mạnh mẽ trong công việc , nhiệt tình trước khi muốn tham gia cv\n（６）何にもチャレンジする気がある人-> người phải biết nắm bắt cơ hội\n（７）発想（はっそう）自由人 -> tự do sáng tạo \n。。。\n\nVà một số phẩm chất cần có.\n\n誠実（せいじつ） - thành thật\n勤勉（きんべん）- cần cù\n正直（しょうじき）- chính trực\n柔和（にゅうわ）- nhu hoà\n協調（きょうちょう）- hợp tác","can_remove":false,"created_time":"2013-12-17T16:28:13+0000","like_count":6,"user_likes":false},"779636882052991":{"id":"779636882052991","from":{"id":"100005024348771","name":"Long Hoàng"},"message":"2. Quyết đoán và có khả năng tự chủ\n3. Xác định việc bản thân muốn làm và có thể nói rõ vì sao muốn vào cti chúng tôi\n4. Là người có mang trong mình ước mơ\n5. Rất nhiệt tình muốn vào cty chúng tôi\n6. Chấp nhận bất cứ thử thách nào\n7. Người tự do sáng tạo\n Một số phẩm chất cần có: thành thật, trung thực, siêng năng, nhu hòa, hợp tác","can_remove":false,"created_time":"2013-12-17T16:33:44+0000","like_count":2,"user_likes":false},"779639592052720":{"id":"779639592052720","from":{"id":"100003579192498","name":"Tham Ha"},"message":"2.sv có chủ nghĩa cá nhân","can_remove":false,"created_time":"2013-12-17T16:37:54+0000","like_count":1,"user_likes":false},"779642395385773":{"id":"779642395385773","from":{"id":"100005024348771","name":"Long Hoàng"},"message":"a, kyouchou là hợp tác ạ","can_remove":false,"created_time":"2013-12-17T16:44:32+0000","like_count":1,"user_likes":false},"779823722034307":{"id":"779823722034307","from":{"id":"100001458099624","name":"Kham Pha"},"message":"Chưa ai dịch đúng hết và toát lên ý của người nói. \nP/s 2. ko phải là chủ nghĩa cá nhân đâu nhé. Sai hoàn toàn đấy.","can_remove":false,"created_time":"2013-12-17T22:59:19+0000","like_count":2,"user_likes":false},"779855442031135":{"id":"779855442031135","from":{"id":"100001594722256","name":"Viết An Phạm"},"message":"2: người có thể khẳng định năng lực của bản thân","can_remove":false,"created_time":"2013-12-18T00:03:50+0000","like_count":0,"user_likes":false},"779858872030792":{"id":"779858872030792","from":{"id":"100001594722256","name":"Viết An Phạm"},"message":"3: người hiểu rõ điều mình muốn làm và có thể nói rõ tại sao lại chọn công ty này để thực hiện nó. :)","can_remove":false,"created_time":"2013-12-18T00:12:01+0000","like_count":0,"user_likes":false},"779872152029464":{"id":"779872152029464","from":{"id":"100001458099624","name":"Kham Pha"},"message":"Có lẽ số 3 @Viet An Pham dịch gần nhất.","can_remove":false,"created_time":"2013-12-18T00:48:00+0000","like_count":2,"user_likes":false},"779873422029337":{"id":"779873422029337","from":{"id":"100001458099624","name":"Kham Pha"},"message":"Số 3, 4, 6 Long Hoàng dịch vậy là ổn rồi. Nhưng có thể giải thích tại sao họ lại trọng dụng những người như vậy ko?","message_tags":[{"id":"100005024348771","name":"Long Hoàng","type":"user","offset":11,"length":10}],"can_remove":false,"created_time":"2013-12-18T00:50:15+0000","like_count":0,"user_likes":false},"779920985357914":{"id":"779920985357914","from":{"id":"100005024348771","name":"Long Hoàng"},"message":"2 có phải là có lập trường rõ ràng và quyết đoán không ạ","can_remove":false,"created_time":"2013-12-18T02:34:23+0000","like_count":0,"user_likes":false},"779937382022941":{"id":"779937382022941","from":{"id":"569263718","name":"Phuong Thao Tran"},"message":"Kham Pha: mấy mục đó để em mở topic khác, chứ bàn luận ở đây e là bị loãng á, ^^","can_remove":false,"created_time":"2013-12-18T03:28:53+0000","like_count":0,"user_likes":false},"779941598689186":{"id":"779941598689186","from":{"id":"100000052661831","name":"Shuntoku Pham"},"message":"(1) Sinh viên có thể nêu lên được những công việc mình đã dốc sức làm thời đại học, và đã học được gì từ những việc ấy.\n(2) Sinh viên có khả năng trình bày ý kiến, suy nghĩ của bản thân.\n(3) Người nói rõ được việc mình muốn làm và lý do chọn công ty chúng tôi.\n(4) Sinh viên có ước mơ.\n(5) Người có nhiệt huyết, muốn vào làm và cống hiến cho công ty chúng tôi.\n(6) Người sẵn sàng đương đầu với mọi thủ thách.\n(7) Người độc lập về tư tưởng.","can_remove":false,"created_time":"2013-12-18T03:40:31+0000","like_count":1,"user_likes":false},"779981528685193":{"id":"779981528685193","from":{"id":"100005024348771","name":"Long Hoàng"},"message":"đọc lập về tư tưởng là thế nào ạ, có giống như có lập trường riêng không ạ","can_remove":false,"created_time":"2013-12-18T05:01:28+0000","like_count":1,"user_likes":false},"780012355348777":{"id":"780012355348777","from":{"id":"100001458099624","name":"Kham Pha"},"message":"Shuntoku Pham dịch khá sát nghĩa rồi đấy, duy chỉ có câu 7 là chưa ổn.","message_tags":[{"id":"100000052661831","name":"Shuntoku Pham","type":"user","offset":0,"length":13}],"can_remove":false,"created_time":"2013-12-18T07:00:16+0000","like_count":0,"user_likes":false},"780020635347949":{"id":"780020635347949","from":{"id":"100000052661831","name":"Shuntoku Pham"},"message":"Bản thân mình cũng đang suy nghĩ về câu 7. Ở đây hiểu là \"người có đầu óc, suy nghĩ cởi mở\" thì đúng không Kham Pha?","can_remove":false,"created_time":"2013-12-18T07:30:39+0000","like_count":0,"user_likes":false},"780022352014444":{"id":"780022352014444","from":{"id":"100001526631937","name":"Tường Oanh Mineko"},"message":"câu 7 dịch như thế này: người từ do sáng tạo ( có nhiều sáng kiến ) được ko a Kham Pha ?","message_tags":[{"id":"100001458099624","name":"Kham Pha","type":"user","offset":78,"length":8}],"can_remove":false,"created_time":"2013-12-18T07:38:08+0000","like_count":0,"user_likes":false},"780025968680749":{"id":"780025968680749","from":{"id":"100001416272263","name":"Mai PB"},"message":"Nghe thì hay lắm nhưng không nhiều sinh viên Nhật mới ra trường có được những phẩm chất đó. Ai đạt được thì sẽ được đánh giá cao hơn những người khác, và tiến xa trong công việc.","can_remove":false,"created_time":"2013-12-18T07:50:00+0000","like_count":2,"user_likes":false},"780082465341766":{"id":"780082465341766","from":{"id":"569263718","name":"Phuong Thao Tran"},"message":"nếu các bạn viết 1 cái thư xin việc mà bao gồm được 7 mục ở trên thì chắc chắn được gọi phỏng vẩn, dám bảo đảm như vậy luôn, ^^","can_remove":false,"created_time":"2013-12-18T10:49:44+0000","like_count":0,"user_likes":false}},"paging":{"cursors":{"after":"Nzc5NjA5MjU1Mzg5MDg3","before":"Nzc5NjA5MjU1Mzg5MDg3"},"next":"https://graph.facebook.com/229244010425617_779582722058407/comments?limit=1&summary=1&after=Nzc5NjA5MjU1Mzg5MDg3"},"summary":{"order":"chronological","total_count":26}}}