{"id":"229244010425617_780015862015093","type":"photo","object_id":"781259711900196","picture":"https://fbcdn-photos-h-a.akamaihd.net/hphotos-ak-prn2/t1.0-0/1468684_781259711900196_1113781670_s.jpg","link":"https://www.facebook.com/photo.php?fbid=781259711900196&set=gm.780015862015093&type=1&relevant_count=1","from":{"id":"100000485222342","name":"Quach Anh Thuy"},"message":"Tính tự lập của các bạn trẻ người Nhật\n\nNgười Nhật luôn dạy cho con họ tính tự lập ngay từ khi còn rất sớm, cái lứa tuổi mà chúng ta còn ngây thơ, mải chơi. Chính vì vậy mà người Nhật tự lập hơn chúng ta rất nhiều, họ không bao giờ ỉ lại và luôn có trách nhiệm với những gì mình đã làm.\n\nNgay từ cấp 1, học sinh Nhật Bản đã phải hoàn toàn tự lập trong việc đến trường. Các bạn ấy phải tự đón tàu điện hoặc phải tự đi bộ đến trường chứ không được đưa rước như các bạnViệt.\n\nThông thường học sinh nam và nữ sẽ được học chung lớp ở các môn văn hóa. Tuy nhiên, nếu tiết học tiếp theo là thể dục thì nam sinh và nữ sinh không được học chung lớp đâu. Sẽ có hai lớp học cùng lúc ở gần nhau do hai giáo viên phụ trách. Nam và nữ sẽ được học những chương trình khác nhau, đảm bảo cho việc phát triển thể lực của riêng mỗi phái chúng mình đấy.\n\nChương trình học ở Nhật thường là bán trú, tức là học cả buổi chiều. Vì thế, buổi trưa học sinh phải ở lại và ăn trưa tại trường. Mọi người thường mang theo một hộp cơm gọi là “bento”. Hộp cơm này được các bạn ấy chuẩn bị sẵn ở nhà với những món ăn mình thích. Vì thế, các bạn thỏa sức thể hiện sự khéo léo của mình qua việc trang trí những hộp cơm sao cho thật bắt mắt. Sau bữa trưa, mọi người phải quay lại lớp để chuẩn bị cho các tiết học buổi chiều bắt đầu ngay sau đó, chứ không có thời gian nghỉ trưa.\n\nKhi lớp học kết thúc vào buổi chiều, học sinh phải trực nhật lớp học của mình ngay. Do đó, chúng ta sẽ khó mà bắt gặp hình ảnh những cô chú lao công dọn dẹp phòng học như ở Việt Nam và nhà trường cũng tiết kiệm được một khoảng chi phí không nhỏ. Thêm vào đó, các bạn ấy cũng được rèn luyện thêm tinh thần tự giác, tích cực trong học tập và lao động.\n\nTrước khi ra về, một bạn học sinh của lớp sẽ phải làm nhiệm vụ ghi chép lại về các hoạt động trong ngày hôm đó của cả lớp và cuốn sổ sẽ được nộp lại về văn phòng như một bản báo cáo.\n\nMột điểm đặc biệt nữa là việc sử dụng đòn roi vẫn còn được một số trường trung học áp dụng một cách công khai, cả với nam sinh và nữ sinh.\n\nSự rèn luyện, tính kỷ luật cao luôn được người Nhật sử dụng để rèn luyện con em họ. Có nhiều cái chúng ta cũng nên học tập người Nhật để tự tin, vững vàng bước vào đời các bạn nhé !\n\nNguồn : vietnhat.tv\n\nXem thêm chi tiết tại : https://www.facebook.com/Saigonjsg","created_time":"2013-12-18T07:14:34+0000","updated_time":"2013-12-18T11:11:19+0000","likes":{"data":{"804524390":{"id":"804524390","name":"Vu Nguyen"},"100004096243144":{"id":"100004096243144","name":"Shorai Nguyễn"},"100005196873531":{"id":"100005196873531","name":"Trần Phương Thảo"},"100003330616196":{"id":"100003330616196","name":"Tiểu Nha Đầu"},"1103173052":{"id":"1103173052","name":"Uyên Nguyễn"},"100000045271667":{"id":"100000045271667","name":"Nam Thai Nguyen"},"100006851160906":{"id":"100006851160906","name":"Chu Thị Hồng"},"100006738850876":{"id":"100006738850876","name":"Ho Tuan"},"100005813941367":{"id":"100005813941367","name":"TY Tran"},"100000012034953":{"id":"100000012034953","name":"Vân Anh"},"100004457885806":{"id":"100004457885806","name":"Hoa Huong Duong"},"100003762427351":{"id":"100003762427351","name":"Hiroshi Yasu Oki"},"100005859968752":{"id":"100005859968752","name":"Lan Tran"},"1114300791":{"id":"1114300791","name":"Tra Mi"},"569263718":{"id":"569263718","name":"Phuong Thao Tran"},"100006577394016":{"id":"100006577394016","name":"Tâm Tít"},"100005801442456":{"id":"100005801442456","name":"An Nguyen"},"100004342064322":{"id":"100004342064322","name":"Út Tâm"},"100005024348771":{"id":"100005024348771","name":"Long Hoàng"},"100003144794147":{"id":"100003144794147","name":"かわいい ぶた"},"100001488357679":{"id":"100001488357679","name":"Nga Pham"},"100003875131996":{"id":"100003875131996","name":"Ngoc Anh"},"100003974655635":{"id":"100003974655635","name":"Xoan Tra"},"100000500260636":{"id":"100000500260636","name":"Lưu Nguyễn Thảo Tiên"},"100005295251743":{"id":"100005295251743","name":"Cô Ngôk"},"100001526631937":{"id":"100001526631937","name":"Tường Oanh Mineko"},"100006704471439":{"id":"100006704471439","name":"Thiên Sứ Khóc Nhè"},"100000070752758":{"id":"100000070752758","name":"Yen Panda"},"100001416272263":{"id":"100001416272263","name":"Mai PB"},"100007276659960":{"id":"100007276659960","name":"Thuận Phạm Đức"},"100001458099624":{"id":"100001458099624","name":"Kham Pha"},"100001114549932":{"id":"100001114549932","name":"Bui Thanh Hung"},"745565751":{"id":"745565751","name":"Tuyen Hoang Thi"},"100000381394367":{"id":"100000381394367","name":"Thành Nguyễn"}},"paging":{"cursors":{"after":"ODA0NTI0Mzkw","before":"ODA0NTI0Mzkw"},"next":"https://graph.facebook.com/229244010425617_780015862015093/likes?limit=1&summary=1&after=ODA0NTI0Mzkw"},"summary":{"total_count":36}},"comments":{"data":{"780019988681347":{"id":"780019988681347","from":{"id":"100001416272263","name":"Mai PB"},"message":"Về việc chia lớp khi tập thể dục, và sử dụng đòn roi, có lẽ tùy trường chăng? Bản thân mình chưa thấy thế bao giờ.","can_remove":false,"created_time":"2013-12-18T07:28:12+0000","like_count":1,"user_likes":false},"780027488680597":{"id":"780027488680597","from":{"id":"100000485222342","name":"Quach Anh Thuy"},"message":"Đúng là người Nhật rất hiếm khi đánh đòn trẻ. Chắc chỉ trừ trường hợp đặc biệt thôi.","can_remove":false,"created_time":"2013-12-18T07:55:45+0000","like_count":0,"user_likes":false},"780040992012580":{"id":"780040992012580","from":{"id":"100003875131996","name":"Ngoc Anh"},"message":"văn minh thật, không như Việt Nam","can_remove":false,"created_time":"2013-12-18T08:41:10+0000","like_count":0,"user_likes":false},"780072052009474":{"id":"780072052009474","from":{"id":"100005436431918","name":"Camel Nguyen"},"message":"Có một điều rât lạ .các bạn sang đây rất hay so sanh và chê đất nước của mình .k biết sao nữa","can_remove":false,"created_time":"2013-12-18T10:17:05+0000","like_count":1,"user_likes":false},"780078988675447":{"id":"780078988675447","from":{"id":"569263718","name":"Phuong Thao Tran"},"message":"[Ngay từ cấp 1, học sinh Nhật Bản đã phải hoàn toàn tự lập trong việc đến trường. Các bạn ấy phải tự đón tàu điện hoặc phải tự đi bộ đến trường chứ không được đưa rước như các bạnViệt.]<--- câu này có lẽ không nên so sánh với VN, câu này nên mang tính truyền thông tin là đủ !","can_remove":false,"created_time":"2013-12-18T10:40:46+0000","like_count":0,"user_likes":false},"780084095341603":{"id":"780084095341603","from":{"id":"100000485222342","name":"Quach Anh Thuy"},"message":"Xin đính chính là mình không hề có ý so sánh gì cả. Chỉ muốn chia sẻ 1 thông tin khá thú vị với các bạn thôi.","can_remove":false,"created_time":"2013-12-18T10:56:16+0000","like_count":1,"user_likes":false},"780088222007857":{"id":"780088222007857","from":{"id":"569263718","name":"Phuong Thao Tran"},"message":"không phải nói bạn đâu Quach Anh Thuy, mình biết bạn có cung cấp nguồn mà. Mình chỉ comment thôi, ^^","message_tags":[{"id":"100000485222342","name":"Quach Anh Thuy","type":"user","offset":23,"length":14}],"can_remove":false,"created_time":"2013-12-18T11:11:19+0000","like_count":1,"user_likes":false}},"paging":{"cursors":{"after":"NzgwMDE5OTg4NjgxMzQ3","before":"NzgwMDE5OTg4NjgxMzQ3"},"next":"https://graph.facebook.com/229244010425617_780015862015093/comments?limit=1&summary=1&after=NzgwMDE5OTg4NjgxMzQ3"},"summary":{"order":"chronological","total_count":7}}}