{"id":"229244010425617_780034325346580","type":"photo","object_id":"751071158239741","picture":"https://fbcdn-photos-c-a.akamaihd.net/hphotos-ak-frc3/t1.0-0/1468747_751071158239741_222627163_s.jpg","link":"https://www.facebook.com/photo.php?fbid=751071158239741&set=a.256885477658314.80107.218279288185600&type=1","from":{"id":"100001416272263","name":"Mai PB"},"message":"Một trong những chuẩn mực về cái đẹp của Nhật là sự đối xứng, tinh tế, khác với sự hùng vĩ trong quan niệm về cái đẹp của Trung Quốc và nhiều nền văn hóa khác.","created_time":"2013-12-18T08:15:30+0000","updated_time":"2013-12-18T16:08:12+0000","likes":{"data":{"100004716640495":{"id":"100004716640495","name":"Thúy An Dương"},"100003330616196":{"id":"100003330616196","name":"Tiểu Nha Đầu"},"1103173052":{"id":"1103173052","name":"Uyên Nguyễn"},"100006663067003":{"id":"100006663067003","name":"Bình Heo"},"100006244269241":{"id":"100006244269241","name":"ハン チュン"},"100006738850876":{"id":"100006738850876","name":"Ho Tuan"},"100001723862714":{"id":"100001723862714","name":"Bo Bien Vang"},"100004096243144":{"id":"100004096243144","name":"Shorai Nguyễn"},"100004446185815":{"id":"100004446185815","name":"Hiền Jp"},"100004253979918":{"id":"100004253979918","name":"Louis Hoàng Văn Thái"},"100002472470715":{"id":"100002472470715","name":"Phan Duy Hùng"},"100000045271667":{"id":"100000045271667","name":"Nam Thai Nguyen"},"100004371458308":{"id":"100004371458308","name":"Huynh Hong Nhung"},"100002589963683":{"id":"100002589963683","name":"Hà Văn Tuấn"},"100006366487838":{"id":"100006366487838","name":"Để Gió Cuốn Đi"},"100007015029011":{"id":"100007015029011","name":"Hao Hai Duong"},"100002989231451":{"id":"100002989231451","name":"Nguyen Son Ha"},"100000024629190":{"id":"100000024629190","name":"Thanh Ngọc"},"100004831440734":{"id":"100004831440734","name":"Tien Jp"},"100001526631937":{"id":"100001526631937","name":"Tường Oanh Mineko"},"100003762427351":{"id":"100003762427351","name":"Hiroshi Yasu Oki"}},"paging":{"cursors":{"after":"MTAwMDA0NzE2NjQwNDk1","before":"MTAwMDA0NzE2NjQwNDk1"},"next":"https://graph.facebook.com/229244010425617_780034325346580/likes?limit=1&summary=1&after=MTAwMDA0NzE2NjQwNDk1"},"summary":{"total_count":23}},"comments":{"data":{"780035102013169":{"id":"780035102013169","from":{"id":"100001526631937","name":"Tường Oanh Mineko"},"message":"đối xứng= cân bằng, tình tế = sác nét ?? e thích cái tinh tế ấy","can_remove":false,"created_time":"2013-12-18T08:19:24+0000","like_count":1,"user_likes":false},"780083978674948":{"id":"780083978674948","from":{"id":"569263718","name":"Phuong Thao Tran"},"message":"đối xứng = cân bằng, nhưng tinh tế ‡ sắc  nét đó Tường Oanh Mineko","message_tags":[{"id":"100001526631937","name":"Tường Oanh Mineko","type":"user","offset":49,"length":17}],"can_remove":false,"created_time":"2013-12-18T10:55:52+0000","like_count":0,"user_likes":false},"780148622001817":{"id":"780148622001817","from":{"id":"100001526631937","name":"Tường Oanh Mineko"},"message":"vậy khác như thế nào c? Phuong Thao Tran ơi","message_tags":[{"id":"569263718","name":"Phuong Thao Tran","type":"user","offset":24,"length":16}],"can_remove":false,"created_time":"2013-12-18T13:40:43+0000","like_count":0,"user_likes":false},"780168035333209":{"id":"780168035333209","from":{"id":"569263718","name":"Phuong Thao Tran"},"message":"trước hết [tinh tế] là cái ta cảm nhận được không phải bằng ngũ giác; còn [ sắc nét ] là cái mà ta có thể cảm nhận được bằng ngũ quan, chị phân biệt như thế đó Tường Oanh Mineko","message_tags":[{"id":"100001526631937","name":"Tường Oanh Mineko","type":"user","offset":160,"length":17}],"can_remove":false,"created_time":"2013-12-18T14:23:50+0000","like_count":0,"user_likes":false},"780170015333011":{"id":"780170015333011","from":{"id":"100001526631937","name":"Tường Oanh Mineko"},"message":"e thì nghĩ ....vd như : suy nghĩ của c @:Phuong Thao Tran \" sắc nét\" quá nhỉ?...cũng ok chứ c?","can_remove":false,"created_time":"2013-12-18T14:30:13+0000","like_count":0,"user_likes":false},"780170125333000":{"id":"780170125333000","from":{"id":"100001526631937","name":"Tường Oanh Mineko"},"message":"e thì nghĩ ....vd như : suy nghĩ của c @:Phuong Thao Tran \" sắc nét\" quá nhỉ?...cũng ok chứ c?","can_remove":false,"created_time":"2013-12-18T14:30:38+0000","like_count":0,"user_likes":false},"780170495332963":{"id":"780170495332963","from":{"id":"569263718","name":"Phuong Thao Tran"},"message":"nếu như em muốn bổ sung vào bách khoa toàn thư 1 khái niệm mới thì đc, :D","can_remove":false,"created_time":"2013-12-18T14:31:54+0000","like_count":0,"user_likes":false},"780172975332715":{"id":"780172975332715","from":{"id":"100001526631937","name":"Tường Oanh Mineko"},"message":"hehe","can_remove":false,"created_time":"2013-12-18T14:40:21+0000","like_count":0,"user_likes":false},"780205338662812":{"id":"780205338662812","from":{"id":"1146680551","name":"優しい なぁ"},"message":"Đây chỉ là quảng cáo thôi mà 2 người đẹp,nâng lên tầm cao quá :))","can_remove":false,"created_time":"2013-12-18T16:08:12+0000","like_count":0,"user_likes":false}},"paging":{"cursors":{"after":"NzgwMDM1MTAyMDEzMTY5","before":"NzgwMDM1MTAyMDEzMTY5"},"next":"https://graph.facebook.com/229244010425617_780034325346580/comments?limit=1&summary=1&after=NzgwMDM1MTAyMDEzMTY5"},"summary":{"order":"chronological","total_count":9}}}