{"id":"229244010425617_780077858675560","type":"photo","object_id":"662436180474946","picture":"https://fbcdn-photos-c-a.akamaihd.net/hphotos-ak-prn2/t1.0-0/960217_662436180474946_715576457_s.jpg","link":"https://www.facebook.com/photo.php?fbid=662436180474946&set=gm.780077858675560&type=1&relevant_count=1","from":{"id":"100001257093338","name":"Hanh Dang"},"message":"Mọi người ở đây ai bay nhiều, cho mình hỏi một chút về hành lý nhé!\nCụ thể là đi hãng hàng không Korean Airline\nChỗ hành lý xách tay và hành lý lý gửi họ ghi cái gì vậy?\nCảm ơn mọi người trước!","created_time":"2013-12-18T10:38:42+0000","updated_time":"2013-12-19T02:10:06+0000","comments":{"data":{"780085735341439":{"id":"780085735341439","from":{"id":"1082956399","name":"Danny Dee Nguyen IE"},"message":"Theo mình hiểu thì hành lý xách tay là miễn phí kiện đầu tiên với trọng lượng là 12kg và kích thước dưới 115cm. Hành lý ký gửi thì miễn phí kiện đầu tiên dưới 23kg, kích thước là 158cm. Nếu ký gửi thêm kiện hành lý thứ 2 (cũng từ 23kg trở xuống, 158cm) thì phải đóng 10,000 yên ^^. \nNếu có sai sót nhờ mọi người bổ sung giúp ạ :)","can_remove":false,"created_time":"2013-12-18T11:03:04+0000","like_count":1,"user_likes":false},"780086002008079":{"id":"780086002008079","from":{"id":"1657595398","name":"Hoàng Anh"},"message":"Ve vn an tet ha ss","can_remove":false,"created_time":"2013-12-18T11:03:54+0000","like_count":0,"user_likes":false},"780087202007959":{"id":"780087202007959","from":{"id":"100001257093338","name":"Hanh Dang"},"message":"À có nghĩa là hành lý xách tay tối đa được 12kg và hành ký ký gửi tối đa là 23kg, ngoài ra thì sẽ bị tính phí nhỉ!","can_remove":false,"created_time":"2013-12-18T11:08:11+0000","like_count":0,"user_likes":false},"780087755341237":{"id":"780087755341237","from":{"id":"1082956399","name":"Danny Dee Nguyen IE"},"message":"đúng rồi Hanh Dang, chú ý kích thước của hành lý nữa nhé ^^","message_tags":[{"id":"100001257093338","name":"Hanh Dang","type":"user","offset":9,"length":9}],"can_remove":false,"created_time":"2013-12-18T11:09:43+0000","like_count":1,"user_likes":false},"780088075341205":{"id":"780088075341205","from":{"id":"100001257093338","name":"Hanh Dang"},"message":"OK Danny Dee Nguyen, Cám ơn bạn nhiều! @HA: ss về trốn rét hjhjhj","message_tags":[{"id":"1082956399","name":"Danny Dee Nguyen","type":"user","offset":3,"length":16}],"can_remove":false,"created_time":"2013-12-18T11:10:48+0000","like_count":1,"user_likes":false},"780088372007842":{"id":"780088372007842","from":{"id":"1082956399","name":"Danny Dee Nguyen IE"},"message":"không có gì ^^","can_remove":false,"created_time":"2013-12-18T11:11:55+0000","like_count":0,"user_likes":false},"780090515340961":{"id":"780090515340961","from":{"id":"1657595398","name":"Hoàng Anh"},"message":"Hành lý đầu tiên <  50pounds tuc khoang 23kg va 62inch ( kich co dien tich) / 158cm thi fee , tu hanh ly thu 2 thi cu moi kien khoang < 50lbs(23kg) va 62linear thi 1man \nHly xach tay thi <12kg va 45inch thi fee do ty","can_remove":false,"created_time":"2013-12-18T11:20:16+0000","like_count":0,"user_likes":false},"780092512007428":{"id":"780092512007428","from":{"id":"100001257093338","name":"Hanh Dang"},"message":"Cám ơn Hoàng Anh em^^","can_remove":false,"created_time":"2013-12-18T11:25:24+0000","like_count":0,"user_likes":false},"780444358638910":{"id":"780444358638910","from":{"id":"100002421205294","name":"Nghèo Kệ Tôi"},"message":"Sáng nay thằng bạn mình bay quá cảnh korea sang Nhật bị bỏ hành lý. Cụ thể xách tay chỉ được 10kg, và kí gửi chỉ được 30kg. Các bạn có bay quá cảnh từ Việt Nam! Sang thì lưu ý nhé","can_remove":false,"created_time":"2013-12-19T02:10:06+0000","like_count":0,"user_likes":false}},"paging":{"cursors":{"after":"NzgwMDg1NzM1MzQxNDM5","before":"NzgwMDg1NzM1MzQxNDM5"},"next":"https://graph.facebook.com/229244010425617_780077858675560/comments?limit=1&summary=1&after=NzgwMDg1NzM1MzQxNDM5"},"summary":{"order":"chronological","total_count":9}},"likes":{"data":[]}}