{"id":"229244010425617_780471431969536","type":"status","from":{"id":"100005775182411","name":"Tuấn Milo"},"message":"Mọi ng cho e hỏi từ trung thực và cẩn thận nói bằng tiêng nhật thì ntn ạ..tôi là người cẩn thận trong mọi công việc thì nói ntn ạ..xin cám ơn","created_time":"2013-12-19T03:30:38+0000","updated_time":"2013-12-21T03:43:03+0000","likes":{"data":{"100003207505208":{"id":"100003207505208","name":"Tuyển Osaka Minami"},"100005775182411":{"id":"100005775182411","name":"Tuấn Milo"},"100007015029011":{"id":"100007015029011","name":"Hao Hai Duong"},"100000959416590":{"id":"100000959416590","name":"Yuki Nguyen"},"100004095052965":{"id":"100004095052965","name":"Mai Nguyễn"}},"paging":{"cursors":{"after":"MTAwMDAzMjA3NTA1MjA4","before":"MTAwMDAzMjA3NTA1MjA4"},"next":"https://graph.facebook.com/229244010425617_780471431969536/likes?limit=1&summary=1&after=MTAwMDAzMjA3NTA1MjA4"},"summary":{"total_count":6}},"comments":{"data":{"780475965302416":{"id":"780475965302416","from":{"id":"100001458099624","name":"Kham Pha"},"message":"誠実（せいじつ）\n慎重（しんちょう）","can_remove":false,"created_time":"2013-12-19T03:44:16+0000","like_count":1,"user_likes":false},"780476225302390":{"id":"780476225302390","from":{"id":"100001458099624","name":"Kham Pha"},"message":"私は慎重に仕事をする人です。","can_remove":false,"created_time":"2013-12-19T03:45:22+0000","like_count":3,"user_likes":false},"780484995301513":{"id":"780484995301513","from":{"id":"100001526631937","name":"Tường Oanh Mineko"},"message":"câu ở trên cua a Kham Pha là câu e có nói đó a Hoai Nam Do","message_tags":[{"id":"100001458099624","name":"Kham Pha","type":"user","offset":17,"length":8},{"id":"100001580358429","name":"Hoai Nam Do","type":"user","offset":47,"length":11}],"can_remove":false,"created_time":"2013-12-19T04:14:08+0000","like_count":1,"user_likes":false},"780511068632239":{"id":"780511068632239","from":{"id":"569263718","name":"Phuong Thao Tran"},"message":"câu của Kham Pha mới có nghĩa là: tôi là người  làm việc thận trọng thôi, ^^","message_tags":[{"id":"100001458099624","name":"Kham Pha","type":"user","offset":8,"length":8}],"can_remove":false,"created_time":"2013-12-19T05:39:38+0000","like_count":1,"user_likes":false},"780526091964070":{"id":"780526091964070","from":{"id":"100005775182411","name":"Tuấn Milo"},"message":"Rất cám on mọi ng","can_remove":false,"created_time":"2013-12-19T06:38:48+0000","like_count":0,"user_likes":false},"781184291898250":{"id":"781184291898250","from":{"id":"100004614542931","name":"Dung Le"},"message":"Moi ng co the viet hỉagana dk ko?","can_remove":false,"created_time":"2013-12-20T11:32:38+0000","like_count":0,"user_likes":false},"781205695229443":{"id":"781205695229443","from":{"id":"100001458099624","name":"Kham Pha"},"message":"Bạn viết tiếng Việt có dấu đc ko?","can_remove":false,"created_time":"2013-12-20T12:41:21+0000","like_count":1,"user_likes":false},"781556361861043":{"id":"781556361861043","from":{"id":"100004614542931","name":"Dung Le"},"message":"Mọi người có thể viết chữ hjragana được ko? Mình cảm ơn !","can_remove":false,"created_time":"2013-12-21T03:43:03+0000","like_count":0,"user_likes":false}},"paging":{"cursors":{"after":"NzgwNDc1OTY1MzAyNDE2","before":"NzgwNDc1OTY1MzAyNDE2"},"next":"https://graph.facebook.com/229244010425617_780471431969536/comments?limit=1&summary=1&after=NzgwNDc1OTY1MzAyNDE2"},"summary":{"order":"chronological","total_count":8}}}