{"id":"229244010425617_780456855304327","type":"status","from":{"id":"100004469770250","name":"Nu Lee"},"message":"Anh chị nào có cách học 2 bảng chữ cái kana hiệu quả ko chỉ em với ạ. Em học theo kiểu cổ điển là luyện viết nhiều và nhìn mặt chữ nhiều mà ko nhận biết đc nhanh, đc mấy ngày là quên mất chữ này chữ kia. Anh chị nào có cách nào hay chỉ em với, em cảm ơn ạ !","created_time":"2013-12-19T02:48:34+0000","updated_time":"2013-12-19T11:41:25+0000","likes":{"data":{"100002916376886":{"id":"100002916376886","name":"Thủy Bee"},"100003913864198":{"id":"100003913864198","name":"Linh Lê"},"100003171672878":{"id":"100003171672878","name":"Tầu Heo"},"100001099324680":{"id":"100001099324680","name":"Sóc Capuchino"}},"paging":{"cursors":{"after":"MTAwMDAyOTE2Mzc2ODg2","before":"MTAwMDAyOTE2Mzc2ODg2"},"next":"https://graph.facebook.com/229244010425617_780456855304327/likes?limit=1&summary=1&after=MTAwMDAyOTE2Mzc2ODg2"},"summary":{"total_count":4}},"comments":{"data":{"780458101970869":{"id":"780458101970869","from":{"id":"100001458099624","name":"Kham Pha"},"message":"sao lại có tới 2 bảng kana?","can_remove":false,"created_time":"2013-12-19T02:51:42+0000","like_count":0,"user_likes":false},"780459258637420":{"id":"780459258637420","from":{"id":"100004469770250","name":"Nu Lee"},"message":"hiragana và katakana đó ạ","can_remove":false,"created_time":"2013-12-19T02:55:28+0000","like_count":0,"user_likes":false},"780459911970688":{"id":"780459911970688","from":{"id":"100001458099624","name":"Kham Pha"},"message":"Vậy thì chịu khó viết ra các câu đơn giản có sử dụng các từ ấy. Học có văn cảnh sẽ dễ nhớ hơn học chay.","can_remove":false,"created_time":"2013-12-19T02:57:24+0000","like_count":0,"user_likes":false},"780461571970522":{"id":"780461571970522","from":{"id":"100006562361425","name":"Đặng Đình Hiệp"},"message":"Kinh nghiệm của mình là học thuộc từng hàng 1. Viết đi viết lại nhiều vào. Cứ được 3 hàng thì viết lại liền 1 lúc 3 hàng. Muốn nhanh nhớ mặt chữ thì nhờ bạn bè đọc búa xúa lung tung các chữ không theo thứ tự để mình viết. Chịu khó bỏ quyển Minnano ra đọc bạn à. Không cần hiểu câu đó là gì. Cứ đọc cho nhanh thuộc mặt chữ là 0k.","can_remove":false,"created_time":"2013-12-19T03:04:19+0000","like_count":0,"user_likes":false},"780461968637149":{"id":"780461968637149","from":{"id":"100004776940538","name":"Kendy Lee"},"message":"Viết mỗi chữ ra 1 tờ giấy riêng, trộn đều rút từng chữ ra rồi đoán chữ, 1 mặt viết hira, 1 mặt taka","can_remove":false,"created_time":"2013-12-19T03:05:30+0000","like_count":0,"user_likes":false},"780462315303781":{"id":"780462315303781","from":{"id":"100004776940538","name":"Kendy Lee"},"message":"Trong bảng chữ cái phân loại ra các chữ có nét giống nhau, ko nhớ chữ nào dán vào đầu giường ấy ngủ dậy liếc vào cho dễ nhớ","can_remove":false,"created_time":"2013-12-19T03:06:38+0000","like_count":0,"user_likes":false},"780464581970221":{"id":"780464581970221","from":{"id":"100003291701878","name":"Bui Anhdat"},"message":"Tớ thì chỉ tưởng tượng chữ đó nó giống cái gì đó thôi tớ ví dụ nhé chữ KÊ nó có 1 thanh kiếm hơi coong của người Hung Nô và bên cạnh nó là vỏ bộc thanh kiếm chữ hê là 1 bên lông mày chữ kư là dấu A bé thua B chữ Sê mềm và chữ Sa cứng gần giống nhau chỉ việc đổi bên  chữ Chi là là số 5 chữ Rô cứng là hình vuông chữ Đe và To hình như giống 2 anh em chữ Hi là chữ Vê or mấy thằng chiến hữu mình hay trêu nhau là cái vú con gái ( xin lỗi tớ hơi thật thà ) chữ Shj là cái lưỡi câu tránh nhầm vs chữ Lê cứng nhé còn nhiều lắm tớ chỉ tưởng tượng thế thôi mà trong vòng 1 ngày tớ thuộc hết cả 2 bảng tớ thjck kanji hơn và kanji tưởng tượng còn phong phú hơn thứ 2 là bạn có gắng học theo hàng ngang sau đó hk theo hàng dọc và sau đó kết hợp bạn mới đó nhau thì sẽ lên live nhanh lắm    hjhjhehe chúc bạn học tốt","can_remove":false,"created_time":"2013-12-19T03:12:45+0000","like_count":0,"user_likes":false},"780464791970200":{"id":"780464791970200","from":{"id":"100003852803358","name":"Ngọc Điệp"},"message":"trang hentai mình hay vào viết tên truyện bằng chữ hira và kana, thế là mình cứ thế tập đọc thôi, cực hiệu quả :3","can_remove":false,"created_time":"2013-12-19T03:13:37+0000","like_count":3,"user_likes":false},"780467205303292":{"id":"780467205303292","from":{"id":"100001327275562","name":"Aoki Hagane No Arpeggio"},"message":"sao nhin cach may ban nghe dai vay nhi ? minh thi chi ngam vo dau, tu ve ra thoi. tam 3 ngay thi thuoc hoan toan roi...","can_remove":false,"created_time":"2013-12-19T03:18:19+0000","like_count":0,"user_likes":false},"780471105302902":{"id":"780471105302902","from":{"id":"100005637372547","name":"Bích Thảo"},"message":"viết riêng từng chữ ra bìa cứng thật to. đánh máy tính in ra càng tốt. sau đó cắt ra xóc đều như xóc bài ý :D . lấy ra chữ bất kỳ và cố nhớ nó là chữ gì. mỗi lần 5 chữ, thuộc 5 chữ đó thì lại lấy tiếp 5 chữ khác, cứ thế, 1 ngày là thuộc thôi.","can_remove":false,"created_time":"2013-12-19T03:29:28+0000","like_count":0,"user_likes":false},"780471815302831":{"id":"780471815302831","from":{"id":"100005801442456","name":"An Nguyen"},"message":"Nên cho vào câu hỏi thưong gặp nhỉ Kham Pha","message_tags":[{"id":"100001458099624","name":"Kham Pha","type":"user","offset":35,"length":8}],"can_remove":false,"created_time":"2013-12-19T03:31:41+0000","like_count":0,"user_likes":false},"780495211967158":{"id":"780495211967158","from":{"id":"100006437927747","name":"Tian Vova"},"message":"B đừng đơn thuần là viết đi viết lại. Mà hãy tập đọc các câu đơn giản. Rồi tập ghi lại câu đó bằng hiragana or katakana. Vậy mới nhớ đc lâu. Chứ viết từng hàng từng cột xong rồi lại quên. Vs các chữ cái tiếng nhật thường có các hình dạng của 1 vật thể hay la hành động nào đó. Hãy liên tưởng đến nó.","can_remove":false,"created_time":"2013-12-19T04:40:32+0000","like_count":2,"user_likes":false},"780600058623340":{"id":"780600058623340","from":{"id":"1026780646","name":"Việt Hưng Khổng"},"message":"Giống như cách của 子供ー học các chữ tưởng tượng ra hình ảnh, càng thú vị càng dễ nhớ, đảm  bảo bạn có thể nhớ trong 1 ngày ;) \n Nhớ rồi để ko quên thì viết ra, to nhỏ j cũng đc miễn là bạn có thể thấy rõ bất cứ lúc nào bạn muốn !\nChúc thành công ^^","can_remove":false,"created_time":"2013-12-19T11:13:01+0000","like_count":0,"user_likes":false},"780606065289406":{"id":"780606065289406","from":{"id":"100001416272263","name":"Mai PB"},"message":"Mình có cách này. Bạn nhìn bảng chữ cái này chắc sẽ tự nhủ, mình không thể cho phép bản thân viết như thế này được, và từ đó sẽ cố gắng viết, càng viết sẽ càng nhớ. Đảm bảo sau 1 tuần sẽ nhớ hết.\nhttp://www.deviantart.com/art/Hiragana-Chart-with-some-help-from-the-King-324342388","can_remove":false,"created_time":"2013-12-19T11:33:18+0000","like_count":5,"user_likes":false},"780610721955607":{"id":"780610721955607","from":{"id":"100000603915176","name":"悪いな ぁ"},"message":":v","can_remove":false,"created_time":"2013-12-19T11:41:25+0000","like_count":0,"user_likes":false}},"paging":{"cursors":{"after":"NzgwNDU4MTAxOTcwODY5","before":"NzgwNDU4MTAxOTcwODY5"},"next":"https://graph.facebook.com/229244010425617_780456855304327/comments?limit=1&summary=1&after=NzgwNDU4MTAxOTcwODY5"},"summary":{"order":"chronological","total_count":15}}}