{"id":"229244010425617_780443615305651","type":"status","from":{"id":"100000281998354","name":"Duy Sang"},"message":"Mình là sinh viên sắp ra trường, là ks cơ khí chế tạo. Mình muốn qua nhật làm việc nhưng không biết ớ đâu đăng ký đi hoặc công ty trung tâm nào, có ai chỉ giúp mình với .Mình ở khu vực tp Hồ Chí Minh.","created_time":"2013-12-19T02:07:34+0000","updated_time":"2013-12-23T23:22:28+0000","likes":{"data":{"100000601356942":{"id":"100000601356942","name":"Đinh Hiền"}},"paging":{"cursors":{"after":"MTAwMDAwNjAxMzU2OTQy","before":"MTAwMDAwNjAxMzU2OTQy"}},"summary":{"total_count":1}},"comments":{"data":{"780596758623670":{"id":"780596758623670","from":{"id":"100005955249594","name":"Nguyen Thong"},"message":"o tp hcm co cong ty tu van du hoc nhat echigo do a","can_remove":false,"created_time":"2013-12-19T11:02:50+0000","like_count":1,"user_likes":false},"780596891956990":{"id":"780596891956990","from":{"id":"100005955249594","name":"Nguyen Thong"},"message":"trung tam nay lam viec uy tin lam ko nhu nhung trg tam khac dau","can_remove":false,"created_time":"2013-12-19T11:03:26+0000","like_count":0,"user_likes":false},"780602178623128":{"id":"780602178623128","from":{"id":"569263718","name":"Phuong Thao Tran"},"message":"Gia Huy, viết có dấu giúp nhé, tuổi già mắt kém, đọc mãi không ra !!!","message_tags":[{"id":"100005955249594","name":"Gia Huy","type":"user","offset":0,"length":7}],"can_remove":false,"created_time":"2013-12-19T11:20:39+0000","like_count":1,"user_likes":false},"783138011702878":{"id":"783138011702878","from":{"id":"100000281998354","name":"Duy Sang"},"message":"cảm ơn gia huy nha","can_remove":false,"created_time":"2013-12-23T23:22:28+0000","like_count":0,"user_likes":false}},"paging":{"cursors":{"after":"NzgwNTk2NzU4NjIzNjcw","before":"NzgwNTk2NzU4NjIzNjcw"},"next":"https://graph.facebook.com/229244010425617_780443615305651/comments?limit=1&summary=1&after=NzgwNTk2NzU4NjIzNjcw"},"summary":{"order":"chronological","total_count":4}}}