{"id":"229244010425617_780720945277918","type":"link","picture":"https://fbexternal-a.akamaihd.net/safe_image.php?d=AQAY9J2T_3EeEFp3&w=154&h=154&url=https%3A%2F%2Fwww.marisome.jp%2Ffbapp%2Fimg%2Fpsykanji%2Ftitle.gif","link":"https://www.marisome.jp/fbapp/psykanji/","from":{"id":"100002508122689","name":"Vũ Mạnh Tuấn"},"message":"あなたの2013年を表す一文字は?\n\nMột ứng dụng ( chắc là random ) sẽ cho bạn biết chữ kanji trong năm nay của bạn là gì ? Cái chữ kanji mà thể hiện con người bạn. \n\nAi rỗi thì chơi thử cho vui và nhớ quay lại comment kết quả nhé :D Xem có chuẩn hay là không. Của mình là chữ 愛, chả chuẩn gì cả :))\n\nPs: ứng dụng yêu cầu truy xuất vào thông tin trên fb. Hãy cân nhắc trước khi tham gia.\n\nhttps://www.marisome.jp/fbapp/psykanji/","created_time":"2013-12-19T15:34:36+0000","updated_time":"2013-12-22T12:20:36+0000","likes":{"data":{"100001723862714":{"id":"100001723862714","name":"Bo Bien Vang"},"100003913383051":{"id":"100003913383051","name":"Tho Tran"},"1821970083":{"id":"1821970083","name":"Nguyễn Mạnh Cường"},"100007316735911":{"id":"100007316735911","name":"Tuyen Dung Vn  Jp"},"100001754136107":{"id":"100001754136107","name":"Nguyễn Tuấn Vũ"},"100001526631937":{"id":"100001526631937","name":"Tường Oanh Mineko"},"100005801442456":{"id":"100005801442456","name":"An Nguyen"},"100004715610677":{"id":"100004715610677","name":"Lương Thập"},"100000328742646":{"id":"100000328742646","name":"Trần Giáp"},"100005585730804":{"id":"100005585730804","name":"Hung Tran"},"100003055356509":{"id":"100003055356509","name":"Thuan Nguyen"},"718011337":{"id":"718011337","name":"Quynh Quyt"},"100006379235603":{"id":"100006379235603","name":"Khoai Tây Rubi"}},"paging":{"cursors":{"after":"MTAwMDAxNzIzODYyNzE0","before":"MTAwMDAxNzIzODYyNzE0"},"next":"https://graph.facebook.com/229244010425617_780720945277918/likes?limit=1&summary=1&after=MTAwMDAxNzIzODYyNzE0"},"summary":{"total_count":13}},"comments":{"data":{"780878215262191":{"id":"780878215262191","from":{"id":"100001889247986","name":"Trần Hoài"},"message":"Chữ 今","can_remove":false,"created_time":"2013-12-19T21:47:24+0000","like_count":1,"user_likes":false},"781078115242201":{"id":"781078115242201","from":{"id":"100001526631937","name":"Tường Oanh Mineko"},"message":"sao chữ kanji của mình cũng giống của Vũ Mạnh Tuấn hè?...ko biết đúng ko nữa","message_tags":[{"id":"100002508122689","name":"Vũ Mạnh Tuấn","type":"user","offset":38,"length":12}],"can_remove":false,"created_time":"2013-12-20T05:35:05+0000","like_count":0,"user_likes":false},"781089085241104":{"id":"781089085241104","from":{"id":"100002508122689","name":"Vũ Mạnh Tuấn"},"message":"Chị thấy có đúg k :)) năm nay có tình yêu k :))","can_remove":false,"created_time":"2013-12-20T05:57:18+0000","like_count":0,"user_likes":false},"781090345240978":{"id":"781090345240978","from":{"id":"100001526631937","name":"Tường Oanh Mineko"},"message":"haha, yêu thì chưa có nhưng đã có tình....thương :v","can_remove":false,"created_time":"2013-12-20T06:02:24+0000","like_count":1,"user_likes":false},"781090441907635":{"id":"781090441907635","from":{"id":"100002508122689","name":"Vũ Mạnh Tuấn"},"message":":v","can_remove":false,"created_time":"2013-12-20T06:02:58+0000","like_count":0,"user_likes":false},"781094211907258":{"id":"781094211907258","from":{"id":"100005801442456","name":"An Nguyen"},"message":"Nhấp và nó k hiện ra lun, hay không có từ nào tả nổi :v","can_remove":false,"created_time":"2013-12-20T06:22:25+0000","like_count":0,"user_likes":false},"781094418573904":{"id":"781094418573904","from":{"id":"100001526631937","name":"Tường Oanh Mineko"},"message":"nói cái gì mà e....ko thể hiểu vậy a An Nguyen hè?","message_tags":[{"id":"100005801442456","name":"An Nguyen","type":"user","offset":37,"length":9}],"can_remove":false,"created_time":"2013-12-20T06:23:20+0000","like_count":0,"user_likes":false},"781094768573869":{"id":"781094768573869","from":{"id":"100002508122689","name":"Vũ Mạnh Tuấn"},"message":"chắc từ của a An ko tốt đẹp gì :v","can_remove":false,"created_time":"2013-12-20T06:24:54+0000","like_count":2,"user_likes":false},"781094835240529":{"id":"781094835240529","from":{"id":"100005801442456","name":"An Nguyen"},"message":"A nhấp vào ưngs dụng mà nó đơ luôn :v không hiện ra chữ gì!?! Chắc năm qua khốn nạn quá không có từ nào tả nổi (￣Д￣)ﾉ","can_remove":false,"created_time":"2013-12-20T06:25:11+0000","like_count":0,"user_likes":false},"781095168573829":{"id":"781095168573829","from":{"id":"100001526631937","name":"Tường Oanh Mineko"},"message":":v ối má tía ơi....ng gì hay là vật gì mà đến mức máy nó ko thể định dạng cho đc 1 chữ luôn vậy.Có vấn đề rồi :v","can_remove":false,"created_time":"2013-12-20T06:26:29+0000","like_count":0,"user_likes":false},"781095281907151":{"id":"781095281907151","from":{"id":"100002508122689","name":"Vũ Mạnh Tuấn"},"message":"hay nó k áp dụng cho điện thoại :3","can_remove":false,"created_time":"2013-12-20T06:27:01+0000","like_count":0,"user_likes":false},"781180148565331":{"id":"781180148565331","from":{"id":"100002508122689","name":"Vũ Mạnh Tuấn"},"message":"em cũng ko biết. Do trùng hợp chăng. :D Thế năm nay chị có tình yêu ko :))","can_remove":false,"created_time":"2013-12-20T11:19:14+0000","like_count":0,"user_likes":false},"781214198561926":{"id":"781214198561926","from":{"id":"100001526631937","name":"Tường Oanh Mineko"},"message":"mình nghĩ cái này ko chính xác, ai cũng cho chữ đó hết","can_remove":false,"created_time":"2013-12-20T13:03:37+0000","like_count":0,"user_likes":false},"781214365228576":{"id":"781214365228576","from":{"id":"100002508122689","name":"Vũ Mạnh Tuấn"},"message":"ko phải ạ . bạn em cũng làm nhiều mà, mỗi người 1 chữ :D","can_remove":false,"created_time":"2013-12-20T13:04:07+0000","like_count":0,"user_likes":false},"781231868560159":{"id":"781231868560159","from":{"id":"100002508122689","name":"Vũ Mạnh Tuấn"},"message":"năm 2013 ấy ạ chị ơi. chưa sang năm mới mà c :D","can_remove":false,"created_time":"2013-12-20T13:52:07+0000","like_count":1,"user_likes":false},"781369018546444":{"id":"781369018546444","from":{"id":"1821970083","name":"Nguyễn Mạnh Cường"},"message":"chữ Tín 信 :P","can_remove":false,"created_time":"2013-12-20T19:15:48+0000","like_count":0,"user_likes":false},"782200831796596":{"id":"782200831796596","from":{"id":"1103173052","name":"Uyên Nguyễn"},"message":"của chị chữ 情 \nsao lại là 情 nhỉ .?","can_remove":false,"created_time":"2013-12-22T08:51:27+0000","like_count":0,"user_likes":false},"782252221791457":{"id":"782252221791457","from":{"id":"100001416272263","name":"Mai PB"},"message":"Chữ của anh rất linh tinh, chẳng đúng chút nào. :-)","can_remove":false,"created_time":"2013-12-22T11:17:43+0000","like_count":0,"user_likes":false},"782269791789700":{"id":"782269791789700","from":{"id":"100002508122689","name":"Vũ Mạnh Tuấn"},"message":"Vậy ạ. Của e cũng thế","can_remove":false,"created_time":"2013-12-22T11:53:54+0000","like_count":0,"user_likes":false},"782278601788819":{"id":"782278601788819","from":{"id":"100003913383051","name":"Tho Tran"},"message":"今 ??? Như thế này là thế nào ạ???","can_remove":false,"created_time":"2013-12-22T12:10:05+0000","like_count":0,"user_likes":false},"782280771788602":{"id":"782280771788602","from":{"id":"100002508122689","name":"Vũ Mạnh Tuấn"},"message":"Chữ kim, nghĩa là hiện tại :D","can_remove":false,"created_time":"2013-12-22T12:15:18+0000","like_count":0,"user_likes":false},"782281165121896":{"id":"782281165121896","from":{"id":"100003913383051","name":"Tho Tran"},"message":"Hình như hok liên quan gì add nhỉ??? Em chẳng hiểu lắm ạ !!!","can_remove":false,"created_time":"2013-12-22T12:16:48+0000","like_count":0,"user_likes":false},"782282618455084":{"id":"782282618455084","from":{"id":"100002508122689","name":"Vũ Mạnh Tuấn"},"message":"Ừ, ứng dụng vui thôi mà :D","can_remove":false,"created_time":"2013-12-22T12:20:36+0000","like_count":1,"user_likes":false}},"paging":{"cursors":{"after":"NzgwODc4MjE1MjYyMTkx","before":"NzgwODc4MjE1MjYyMTkx"},"next":"https://graph.facebook.com/229244010425617_780720945277918/comments?limit=1&summary=1&after=NzgwODc4MjE1MjYyMTkx"},"summary":{"order":"chronological","total_count":25}}}