{"id":"229244010425617_780724501944229","type":"status","from":{"id":"100004418255758","name":"Phạm Phước Thiên"},"message":"cầm điện thoại nào sang Nhật thì tốt hả mọi người","created_time":"2013-12-19T15:43:55+0000","updated_time":"2013-12-20T13:18:05+0000","comments":{"data":{"780725738610772":{"id":"780725738610772","from":{"id":"569263718","name":"Phuong Thao Tran"},"message":"Kham Pha","message_tags":[{"id":"100001458099624","name":"Kham Pha","type":"user","offset":0,"length":8}],"can_remove":false,"created_time":"2013-12-19T15:47:13+0000","like_count":0,"user_likes":false},"780727265277286":{"id":"780727265277286","from":{"id":"100006510379380","name":"Chal Shi"},"message":"Sang ay mua tra gop cung dc ma lai dc tang sim. :v","can_remove":false,"created_time":"2013-12-19T15:50:50+0000","like_count":0,"user_likes":false},"780727558610590":{"id":"780727558610590","from":{"id":"100004418255758","name":"Phạm Phước Thiên"},"message":":v","can_remove":false,"created_time":"2013-12-19T15:51:26+0000","like_count":2,"user_likes":false},"780735225276490":{"id":"780735225276490","from":{"id":"100004469770250","name":"Nu Lee"},"message":"ko điện thoại nào mang từ việt nam dùng đc bên nhật , trừ iphone :D","can_remove":false,"created_time":"2013-12-19T16:10:29+0000","like_count":0,"user_likes":false},"780735881943091":{"id":"780735881943091","from":{"id":"100004418255758","name":"Phạm Phước Thiên"},"message":"sak,thật ấy hả bạn,thầy người Nhật của mình nói trừ iphone ra sam sung và nokia dùng được =))))","can_remove":false,"created_time":"2013-12-19T16:11:26+0000","like_count":0,"user_likes":false},"780749828608363":{"id":"780749828608363","from":{"id":"100000971073873","name":"Nam Trinh"},"message":"Máy nào hỗ trợ băng tần các nhà mạng bên này thì dùng được hết, cái này tự lên trang gsmarena check là biết liền.Còn về vấn đề sử dụng 3g,4g thì tự config thủ công cũng đc. Nếu có smartphone rồi thì đem qua,k nên mua ở nhà rồi mang sang đây","can_remove":false,"created_time":"2013-12-19T16:46:35+0000","like_count":1,"user_likes":false},"780750725274940":{"id":"780750725274940","from":{"id":"100004024455277","name":"Hải Long"},"message":"Mang dien thoai nao loa to  sag lam chuong bao thuc ay. :))","can_remove":false,"created_time":"2013-12-19T16:49:28+0000","like_count":0,"user_likes":false},"780751175274895":{"id":"780751175274895","from":{"id":"100004418255758","name":"Phạm Phước Thiên"},"message":":v  bạn vẫn ở VN phải ko,mềnh muốn hỏi ý kiến của người đang ở bên Nhật cơ :v","can_remove":false,"created_time":"2013-12-19T16:50:49+0000","like_count":0,"user_likes":false},"780758858607460":{"id":"780758858607460","from":{"id":"100004469770250","name":"Nu Lee"},"message":"ơ thật đấy, samsung của mình ko dùng đc, người yêu mình bê nguyên cái iphone sang vẫn dùng đc đấy thôi, cột sóng bên nhật khác cột sóng mạng ở vn mà, trừ iphone có cột sóng chung thì phải, nhưng phải dùng mạng soft bank or lte , cái đấy bạn hỏi người khác nữa đi là sẽ rõ","can_remove":false,"created_time":"2013-12-19T17:12:24+0000","like_count":0,"user_likes":false},"780760055274007":{"id":"780760055274007","from":{"id":"1250063068","name":"Tuấn Tử Tế"},"message":"Tốt nhất là ko cầm, sang bên này đăng ký là họ cho máy luôn mà. Cầm sang làm j. Nếu sang 1 thời gian ngắn thì tốt nhất là roaming từ VN sang. Ko đắt hơn là thuê SIM bên này đâu.\nGood luck!","can_remove":false,"created_time":"2013-12-19T17:15:10+0000","like_count":0,"user_likes":false},"780760915273921":{"id":"780760915273921","from":{"id":"100004469770250","name":"Nu Lee"},"message":"may mình dùng samsung cùi, chứ như mấy bạn galaxy hay là lumia tội lắm, nghe nói sang để làm đồng hồ báo thức á @@","can_remove":false,"created_time":"2013-12-19T17:17:10+0000","like_count":0,"user_likes":false},"780909171925762":{"id":"780909171925762","from":{"id":"100006014164976","name":"Bình Bông"},"message":"Tốt nhất là để ở nhà. Như mình cầm qua, đăng kí mình sim không thui mà tháng cũng mất đống tiền ý. Chẳng khác người đăng kí cả máy lẫn sim là mấy. Chán toàn tập","can_remove":false,"created_time":"2013-12-19T22:42:21+0000","like_count":1,"user_likes":false},"780922391924440":{"id":"780922391924440","from":{"id":"100005436431918","name":"Camel Nguyen"},"message":"1208","can_remove":false,"created_time":"2013-12-19T23:14:28+0000","like_count":0,"user_likes":false},"781003751916304":{"id":"781003751916304","from":{"id":"100003759697108","name":"Lê Văn Thành"},"message":"k cần mang sang đây mua cũ là có . hoặc bạn đi đăng kí sẽ có máy . mang vnam sang làm j cho mất thời gian","can_remove":false,"created_time":"2013-12-20T02:19:03+0000","like_count":0,"user_likes":false},"781011875248825":{"id":"781011875248825","from":{"id":"521525966","name":"Hoa Tím Tất"},"message":"Ẹc, bạn Heo Béo toàn \" nghe nói\" mà fán như đúng roài ý nhỉ. Mình mang galaxy sang lắp sim softbank dùng vèo vèo nhé, làm j có chuyện sang làm đồng hồ báo thức. Nếu ở nhà có smartphone rồi thì cầm sang cũng đc chứ sao đâu. Sang đăng ký sim rẻ nhất xong lắp vào thì chả khác j đăng ký bên này mà ko dùng mạng 3G. Đỡ đc 1 khoản ko nhỏ mà vẫn dùng smartphone.","message_tags":[{"id":"100004469770250","name":"Heo Béo","type":"user","offset":8,"length":7}],"can_remove":false,"created_time":"2013-12-20T02:39:56+0000","like_count":1,"user_likes":false},"781014355248577":{"id":"781014355248577","from":{"id":"100003759697108","name":"Lê Văn Thành"},"message":"ai bảo bạn vậy mang đc nhưng bạn đăng kí sẽ đắt","can_remove":false,"created_time":"2013-12-20T02:45:15+0000","like_count":0,"user_likes":false},"781014568581889":{"id":"781014568581889","from":{"id":"521525966","name":"Hoa Tím Tất"},"message":"Đăng ký cái j mới đc?\nMình vác galaxy S2 sang, đăng ký số mới gói rẻ nhất, mang về cả sim lẫn máy cũng smartphone của softbank nhưng mình ko thích dùng máy đấy, lôi sim lắp sang máy mình dùng, mỗi tháng mất hơn 1sen","can_remove":false,"created_time":"2013-12-20T02:45:52+0000","like_count":0,"user_likes":false},"781014681915211":{"id":"781014681915211","from":{"id":"100003759697108","name":"Lê Văn Thành"},"message":"vậy sao bạn k thử đi đăng kí máy moiix thag 4 sen mạng au trong khi bạn dki sim k thag dau 8 sen soofbank và tháng thứ 2 6 sên bạn nghĩ cái nào đắt","can_remove":false,"created_time":"2013-12-20T02:46:14+0000","like_count":0,"user_likes":false},"781014755248537":{"id":"781014755248537","from":{"id":"100003759697108","name":"Lê Văn Thành"},"message":"đăng kí máy và dùng sim của mạng","can_remove":false,"created_time":"2013-12-20T02:46:29+0000","like_count":0,"user_likes":false},"781017228581623":{"id":"781017228581623","from":{"id":"521525966","name":"Hoa Tím Tất"},"message":"Bạn ko đọc kỹ cmt của mình đã vội phán. Mình đã nói là đăng ký sim nào rẻ nhất, dùng cho mấy cái máy gập nồi đồng cối đá ý, hơn 1sen/tháng. Mình hồi đó đăng ký trúng dịp khuyến mại của softbank nên đc máy smartphone nhưng mình dùng ko quen nên để máy đó làm máy dự fòng, còn lôi sim ra lắp vào máy S2 chạy vèo vèo. Mình ko có nhu cầu dùng 3G vì có wifi nên ko đăng ký. Ko fải mỗi sim của mình mà mình đã thử lôi sim của mấy ng khác lắp sang vẫn dùng tẹt, chả vấn đề j cả. Theo bạn thì 1 sen/tháng đắt hơn hay 3-4 sen/tháng đắt hơn?","can_remove":false,"created_time":"2013-12-20T02:53:10+0000","like_count":0,"user_likes":false},"781018905248122":{"id":"781018905248122","from":{"id":"521525966","name":"Hoa Tím Tất"},"message":"Đây là mình đang nói cho trường hợp ĐÃ có smartphone ở nhà nhé ( như mình là dùng S2 ở nhà trước đó cả năm trời, bao nhiêu thứ trong đó nên mình ko muốn đổi sang máy khác lại fải mất công backup với restore). Còn ko khuyến khích mua máy ở nhà sang bên này dùng. Nghe các bạn fán \" nghe nói sang đây chỉ làm máy báo thức \" với lại \" cột sóng bên Nhật khác cột sóng VN, chỉ có Iphone có cột sóng chung\" mà 1 đứa con gái mù tịt kỹ thuật như mình còn choáng thì những ng biết rồi họ cười cho","can_remove":false,"created_time":"2013-12-20T02:58:49+0000","like_count":0,"user_likes":false},"781021548581191":{"id":"781021548581191","from":{"id":"100004469770250","name":"Nu Lee"},"message":"xl vì mình ko có sờ mát phôn nên ko biết :)) chứ máy cùi đưa sang xem bỏ vào đc ko mà bạn nói :)) , đúng là mình nghe mấy đứa học cùng lớp nói, vì có sờ mát phôn như bạn đâu mà biết :))","can_remove":false,"created_time":"2013-12-20T03:04:47+0000","like_count":0,"user_likes":false},"781022818581064":{"id":"781022818581064","from":{"id":"521525966","name":"Hoa Tím Tất"},"message":"Máy cùi thì lấy đâu ra băng tần CDMA hả bạn? Bạn mang máy cùi đấy sang roaming còn ko đc chứ đừng nói j đến dùng sim của Nhật. Mình tự tay thử cả smartphone lẫn máy cùi, cả lắp sim lẫn roaming rồi nên mình mới dám khẳng định. Bạn \" nghe nói\" mà cmt chắc nịch thế.\n\nP/s: Cmt trên tính chất xây dựng tý đi, đừng mỉa mai xỉa xói nhau thế. Mình ko thích chứ ko fải ko xỉa lại đc bạn đâu","can_remove":false,"created_time":"2013-12-20T03:08:38+0000","like_count":0,"user_likes":false},"781024441914235":{"id":"781024441914235","from":{"id":"100003759697108","name":"Lê Văn Thành"},"message":"thôi mỗi ng 1 cách còn mình sang đây mới mua mới dùng . vậy thôi","can_remove":false,"created_time":"2013-12-20T03:13:50+0000","like_count":0,"user_likes":false},"781024788580867":{"id":"781024788580867","from":{"id":"100004469770250","name":"Nu Lee"},"message":":))bạn dùng máy cùi mua bên nhật à ??? mình dùng máy cùi việt nam đưa sang và làm báo thức nhé, mình sang dùng ko đc thì mới khẳng định, mà chính thầy mình cũng nói cột sóng khác nhau đấy. còn cmt \"nghe nói\" thì mình cũng nói thêm từ nghe nói là chứ có khẳng định đâu . bạn có lối suy nghĩ lôgic thật đấy :))","can_remove":false,"created_time":"2013-12-20T03:14:40+0000","like_count":0,"user_likes":false},"781025495247463":{"id":"781025495247463","from":{"id":"521525966","name":"Hoa Tím Tất"},"message":"Thế mình mới nói là đã có rồi thì mang sang, còn ko thì sang đây đăng ký mới mà bạn Lê Văn Thành","can_remove":false,"created_time":"2013-12-20T03:16:25+0000","like_count":0,"user_likes":false},"781026185247394":{"id":"781026185247394","from":{"id":"521525966","name":"Hoa Tím Tất"},"message":"Bạn Heo Béo, nếu bạn thực sự có ý muốn tìm hiểu để biết thêm, phiền bạn đọc lại những cmt trước của mình và những ng khác, kể cả stt gốc. Còn nếu bạn ko có ý định đó mà chỉ cmt để khẳng định bạn đúng mình sai, ok mình nhận mình sai. \nMình ko muốn đôi co với ng đọc hiểu có vấn đề lại hiếu thắng như bạn. Thế nhé.","message_tags":[{"id":"100004469770250","name":"Heo Béo","type":"user","offset":4,"length":7}],"can_remove":false,"created_time":"2013-12-20T03:18:11+0000","like_count":0,"user_likes":false},"781031408580205":{"id":"781031408580205","from":{"id":"100003759697108","name":"Lê Văn Thành"},"message":"uk","can_remove":false,"created_time":"2013-12-20T03:31:36+0000","like_count":0,"user_likes":false},"781031498580196":{"id":"781031498580196","from":{"id":"100003759697108","name":"Lê Văn Thành"},"message":"vậy bjo hãy để bạn ý quyết định đi vậy","can_remove":false,"created_time":"2013-12-20T03:31:54+0000","like_count":0,"user_likes":false},"781031571913522":{"id":"781031571913522","from":{"id":"100003759697108","name":"Lê Văn Thành"},"message":"mình và bạn k lại cãi nhau mất !!!!","can_remove":false,"created_time":"2013-12-20T03:32:06+0000","like_count":0,"user_likes":false},"781091425240870":{"id":"781091425240870","from":{"id":"100004418255758","name":"Phạm Phước Thiên"},"message":"Heo Béo chính thầy người Nhật của mình nói iphone ko dung được chỉ có dòng samsung với nokia dùng được mà =)))))))) iphone ko dùng được thì chắc chắn đấy vì thầy là người Nhật chả nhẽ nói lại sai =)))) mình hỏi để biết cầm samsung hay nokia hay sang đó đăng ký điện thoại thì tốt hơn thôi mà","message_tags":[{"id":"100004469770250","name":"Heo Béo","type":"user","offset":0,"length":7}],"can_remove":false,"created_time":"2013-12-20T06:07:41+0000","like_count":0,"user_likes":false},"781091478574198":{"id":"781091478574198","from":{"id":"100004418255758","name":"Phạm Phước Thiên"},"message":"Hoa Tím Tất cảm ơn bạn đã chia sẻ","message_tags":[{"id":"521525966","name":"Hoa Tím Tất","type":"user","offset":0,"length":11}],"can_remove":false,"created_time":"2013-12-20T06:08:09+0000","like_count":0,"user_likes":false},"781103278573018":{"id":"781103278573018","from":{"id":"100002777664855","name":"Kỳ Anh"},"message":"eo ui,co+may ong anh min ben do deu xai Iphone maz,co j auz.Va laj ben do co zu mua Sjm dt cam ket xai trog 2 nam dc  xai Iphone free nez..","can_remove":false,"created_time":"2013-12-20T07:00:07+0000","like_count":0,"user_likes":false},"781112898572056":{"id":"781112898572056","from":{"id":"100003759697108","name":"Lê Văn Thành"},"message":"ai bảo iphon k sài được. nói mà k tìm hiểu nokia bt sang đây mơ đi mà sdung nhé . bên này chuộng nhất iphon mà kêu k dùng đc . mà tốt nhất sang đây mà mua cầm làm cái j. bên này đăng kí sim nó cho máy rẻ ối ra .","can_remove":false,"created_time":"2013-12-20T07:39:28+0000","like_count":0,"user_likes":false},"781117935238219":{"id":"781117935238219","from":{"id":"100003785331000","name":"Phát"},"message":"theo mình thì máy có băng tần 3g đều chạy tít mù bên đó bạn à :).... đã có ng mang thử blackberry bold 9000 và 1 số galaxy sang chạy tít mù rồi, chỉ mang sang đó mua sim nhà mạng và chạy thôi.còn tùy từng máy có thể chạy lte(4g) nhé","can_remove":false,"created_time":"2013-12-20T07:59:44+0000","like_count":1,"user_likes":false},"781119775238035":{"id":"781119775238035","from":{"id":"100003785331000","name":"Phát"},"message":"mày cùi như bạn @heo beo mang sang mình hỏi khí ko phải là máy ko có 3g chăng :)). bên nhật người ta đã ko hỗ trợ tần GSM lâu rồi bạn à, thì máy gsm(2g) thì chạy làm thao?","can_remove":false,"created_time":"2013-12-20T08:05:47+0000","like_count":0,"user_likes":false},"781146938568652":{"id":"781146938568652","from":{"id":"100004418255758","name":"Phạm Phước Thiên"},"message":"Lê Văn Thành :v j mà bức xúc ghê thế :v thầy tui nói vậy nhé :v ổng là người Nhật ko lẽ ổng chém gió :v ông biết cái beef j mà kêu tôi ko chịu tìm hiểu =)))","can_remove":false,"created_time":"2013-12-20T09:44:07+0000","like_count":0,"user_likes":false},"781147298568616":{"id":"781147298568616","from":{"id":"100004418255758","name":"Phạm Phước Thiên"},"message":"tôi biết bên đó iphone là được chuộng nhất :v nhưng t cũng biết iphone bên đó cầm về bên này phải cắt ghép sim các kiểu con đà điểu mới dùng được nhé thánh :v","can_remove":false,"created_time":"2013-12-20T09:45:23+0000","like_count":0,"user_likes":false},"781148431901836":{"id":"781148431901836","from":{"id":"100004024455277","name":"Hải Long"},"message":"Mình tưởng iphone bản quốc tế thì xài đc tất chứ =.=","can_remove":false,"created_time":"2013-12-20T09:49:54+0000","like_count":0,"user_likes":false},"781148465235166":{"id":"781148465235166","from":{"id":"100003785331000","name":"Phát"},"message":"gì mà các kiểu con đã điểu hả bạn? máy mua theo nhà mạng thì nó khóa phải dùng sim ghép là phải. bạn xài sau 2 năm nó hêt hạn hợp đồng mang về vn xài tẹt... thầy giá cũng nói đúng nhưng mà chưa rõ thôi. tần số sóng 3g thì nó như vn,còn bên đó ko xài mạng 2g như ở vn","can_remove":false,"created_time":"2013-12-20T09:50:03+0000","like_count":1,"user_likes":false},"781148945235118":{"id":"781148945235118","from":{"id":"100004418255758","name":"Phạm Phước Thiên"},"message":"Tấn Phát Tinh Tế ok thanks bạn,vậy sang đó đăng ký dùng mạng được mua trả góp điện thoại phải ko bạn","message_tags":[{"id":"100003785331000","name":"Tấn Phát Tinh Tế","type":"user","offset":0,"length":16}],"can_remove":false,"created_time":"2013-12-20T09:52:05+0000","like_count":0,"user_likes":false},"781148955235117":{"id":"781148955235117","from":{"id":"100003759697108","name":"Lê Văn Thành"},"message":"đéo mẹ tao ở nhật tao còn k rõ sao . k biết thì im đi lải nhải nhiều mệt.","can_remove":false,"created_time":"2013-12-20T09:52:10+0000","like_count":0,"user_likes":false},"781149158568430":{"id":"781149158568430","from":{"id":"100004418255758","name":"Phạm Phước Thiên"},"message":"Lê Văn Thành =))) mày im mẹ mày đi ấy topic tao lập ra hỏi ko giúp được thì phắn đê =))) để tao hỏi người có thiện chí giúp","can_remove":false,"created_time":"2013-12-20T09:53:15+0000","like_count":0,"user_likes":false},"781149905235022":{"id":"781149905235022","from":{"id":"100003785331000","name":"Phát"},"message":"ừm bên đó đc mua trả góp mà bạn. tùy từng nhà mạng và từng hãng có thể đăng ký sim và tặng máy, nhưng cái nào cũng có cái giá của nó... nếu sang muốn xài đt luôn thì cứ mang sang,sẽ tiết kiềm 1 số tiền, ra chỉ đăng ký sim của nhà mạng và xài thôi. còn lấy muốn rẻ nữa thì lh với mình,bán lại tất cả các dòng đt bên đó,bạn chỉ việc lắp sim lại dùng thôi. cam kết rẻ hơn ngoài quán...","can_remove":false,"created_time":"2013-12-20T09:56:21+0000","like_count":1,"user_likes":false},"781150255234987":{"id":"781150255234987","from":{"id":"100004418255758","name":"Phạm Phước Thiên"},"message":"ừ,cảm ơn nhiều nhé :)","can_remove":false,"created_time":"2013-12-20T09:57:56+0000","like_count":0,"user_likes":false},"781150575234955":{"id":"781150575234955","from":{"id":"100003785331000","name":"Phát"},"message":"ko có gì. bạn sang tỉnh nào bên đó","can_remove":false,"created_time":"2013-12-20T09:58:53+0000","like_count":0,"user_likes":false},"781150765234936":{"id":"781150765234936","from":{"id":"100004418255758","name":"Phạm Phước Thiên"},"message":"tháng 4 bạn ơi,làm xong hồ sơ rồi đang đợi xem có đi được tháng 4 không thôi","can_remove":false,"created_time":"2013-12-20T09:59:32+0000","like_count":0,"user_likes":false},"781151611901518":{"id":"781151611901518","from":{"id":"100004418255758","name":"Phạm Phước Thiên"},"message":"mình hỏi vì đang định mua 1 cái smart phone ở bên này nhưng sợ cầm sang bên đó ko dùng được phí tiền ấy mà :)","can_remove":false,"created_time":"2013-12-20T10:01:40+0000","like_count":0,"user_likes":false},"781152215234791":{"id":"781152215234791","from":{"id":"100003785331000","name":"Phát"},"message":":) mua cái hơn triệu thôi. xài 1 thời gian là đổi sang đt khác. mua xài tạm đợt đầu mới sang thôi bạn à.cứ bên đó cũng rẻ nà. tùy gặp ng bán 4s có 2man gì đó. mua lại xài cũng oke","can_remove":false,"created_time":"2013-12-20T10:03:23+0000","like_count":1,"user_likes":false},"781154285234584":{"id":"781154285234584","from":{"id":"100004418255758","name":"Phạm Phước Thiên"},"message":":)","can_remove":false,"created_time":"2013-12-20T10:04:34+0000","like_count":0,"user_likes":false},"781219268561419":{"id":"781219268561419","from":{"id":"100003158558639","name":"Lời Nói Gió Bay"},"message":"samsung có mục chọn băng tần riêng mà","can_remove":false,"created_time":"2013-12-20T13:18:05+0000","like_count":0,"user_likes":false}},"paging":{"cursors":{"after":"NzgwNzI1NzM4NjEwNzcy","before":"NzgwNzI1NzM4NjEwNzcy"},"next":"https://graph.facebook.com/229244010425617_780724501944229/comments?limit=1&summary=1&after=NzgwNzI1NzM4NjEwNzcy"},"summary":{"order":"chronological","total_count":51}},"likes":{"data":[]}}