{"id":"229244010425617_781037395246273","type":"photo","object_id":"515504871881657","picture":"https://fbcdn-photos-h-a.akamaihd.net/hphotos-ak-ash4/t1.0-0/1530317_515504871881657_2122258308_s.jpg","link":"https://www.facebook.com/photo.php?fbid=515504871881657&set=a.321980104567469.72214.246214618810685&type=1","from":{"id":"100000381394367","name":"Thành Nguyễn"},"message":"Người nước ngoài có thể làm giàu trên đất nước ta bằng nông nghiệp trong khi chúng ta lại thua họ ngay chính trên quê hương mình hay sao?\n\n\"Người Việt sử dụng quá nhiều thuốc và rất bảo thủ. Khi ông bắt đầu trồng rau ở Việt Nam đã có người Trung Quốc và Hàn Quốc đến học hỏi, nhưng không có người Việt Nam nào. Người Hàn Quốc học được kỹ thuật là bắt chước ngay, nhưng Việt Nam thường tự mày mò. Thậm chí, ông đã từng chỉ cho người Việt Nam về cách xử lý đất và kỹ thuật trồng dâu. Nhưng người nông dân này đã nói: “Tôi đã trồng dâu được 10 năm rồi, và đến nay, công việc vẫn rất tốt”...\"","created_time":"2013-12-20T03:48:56+0000","updated_time":"2013-12-21T03:28:12+0000","likes":{"data":{"100004186353970":{"id":"100004186353970","name":"Nguyen Quang Huy"},"100003207505208":{"id":"100003207505208","name":"Tuyển Osaka Minami"},"100003553747902":{"id":"100003553747902","name":"Gạch Đá"},"100002750754832":{"id":"100002750754832","name":"Tabi Otome"},"100006613388453":{"id":"100006613388453","name":"Gió Đông Ấm Áp"},"100003368927526":{"id":"100003368927526","name":"Hải Đặng"},"1725907325":{"id":"1725907325","name":"Nguyen Van Dung"},"100005007966961":{"id":"100005007966961","name":"Trang Quỳnh Đoàn"},"100001802076152":{"id":"100001802076152","name":"Hoang Thanh Dong"},"587084690":{"id":"587084690","name":"Bitter Candy"},"1850147953":{"id":"1850147953","name":"Rùa Con"},"100004715610677":{"id":"100004715610677","name":"Lương Thập"},"1821970083":{"id":"1821970083","name":"Nguyễn Mạnh Cường"},"100005811458124":{"id":"100005811458124","name":"Phúc Long"},"100004888177243":{"id":"100004888177243","name":"Cloudy Pink"},"1146680551":{"id":"1146680551","name":"優しい なぁ"},"100001051044941":{"id":"100001051044941","name":"Khanh Trung"},"1494715450":{"id":"1494715450","name":"Son Xuan Vu"},"100007316735911":{"id":"100007316735911","name":"Tuyen Dung Vn  Jp"},"100001754136107":{"id":"100001754136107","name":"Nguyễn Tuấn Vũ"},"100000363320234":{"id":"100000363320234","name":"Nguyen Cuong"},"100000971222044":{"id":"100000971222044","name":"Nhoc' Satoshi"},"100002526707690":{"id":"100002526707690","name":"Phan Toan"},"1103173052":{"id":"1103173052","name":"Uyên Nguyễn"},"100001488357679":{"id":"100001488357679","name":"Nga Pham"},"100006738850876":{"id":"100006738850876","name":"Ho Tuan"},"100004418255758":{"id":"100004418255758","name":"Phạm Phước Thiên"},"1661261982":{"id":"1661261982","name":"Mầu Hà Quang"},"100005145330760":{"id":"100005145330760","name":"Sơn Vũ"},"100003049639881":{"id":"100003049639881","name":"Truong Luvuxy"},"100000375337797":{"id":"100000375337797","name":"Lana Pham"},"100003733592186":{"id":"100003733592186","name":"Tuyền Lucy"},"100000041691073":{"id":"100000041691073","name":"Phuong Nam Hoang"},"100001416272263":{"id":"100001416272263","name":"Mai PB"},"1416265619":{"id":"1416265619","name":"Starwar Bbj"},"100003933466469":{"id":"100003933466469","name":"Phong Aki"},"100004443673022":{"id":"100004443673022","name":"Anhhung Phamtuan"},"100002941809570":{"id":"100002941809570","name":"Hằng Nguyễn"},"100000183867315":{"id":"100000183867315","name":"Hung Chelsea"},"100001114549932":{"id":"100001114549932","name":"Bui Thanh Hung"},"569263718":{"id":"569263718","name":"Phuong Thao Tran"},"100000250256418":{"id":"100000250256418","name":"Nguyen Viet Anh"},"100002907686454":{"id":"100002907686454","name":"Linh Nguyen"},"100001690659856":{"id":"100001690659856","name":"Nguyễn Trường Giang"},"100006588757134":{"id":"100006588757134","name":"Tran Van"},"100000245792299":{"id":"100000245792299","name":"Hjnee Le"},"100005801442456":{"id":"100005801442456","name":"An Nguyen"},"100006486994144":{"id":"100006486994144","name":"Hằng Khang Thu"},"100003762427351":{"id":"100003762427351","name":"Hiroshi Yasu Oki"},"100001526631937":{"id":"100001526631937","name":"Tường Oanh Mineko"},"100005009580054":{"id":"100005009580054","name":"Anna Nguyen"},"1787333994":{"id":"1787333994","name":"Kiên Mậu"},"100000288625882":{"id":"100000288625882","name":"Viet Hoang"},"1060893770":{"id":"1060893770","name":"Hyhy Zui Zẻ"},"100004877281136":{"id":"100004877281136","name":"Yuki Ori"}},"paging":{"cursors":{"after":"MTAwMDA0MTg2MzUzOTcw","before":"MTAwMDA0MTg2MzUzOTcw"},"next":"https://graph.facebook.com/229244010425617_781037395246273/likes?limit=1&summary=1&after=MTAwMDA0MTg2MzUzOTcw"},"summary":{"total_count":55}},"comments":{"data":{"781043281912351":{"id":"781043281912351","from":{"id":"1146680551","name":"優しい なぁ"},"message":"Hầu hết các công ty rau - củ quả trên ĐÀ LẠT hầu hết h là cty Nhật với isarel","can_remove":false,"created_time":"2013-12-20T03:55:36+0000","like_count":0,"user_likes":false},"781043838578962":{"id":"781043838578962","from":{"id":"100000381394367","name":"Thành Nguyễn"},"message":"Sao em biết? Share nguồn luôn cho mọi người biết","can_remove":false,"created_time":"2013-12-20T03:57:21+0000","like_count":0,"user_likes":false},"781047161911963":{"id":"781047161911963","from":{"id":"1146680551","name":"優しい なぁ"},"message":"Cậu em có 1 trang trại trông hoa hướng dương trên đó,bạn em làm ngành đó trên đà lạt cũng nhiều.","can_remove":false,"created_time":"2013-12-20T04:03:16+0000","like_count":0,"user_likes":false},"781054921911187":{"id":"781054921911187","from":{"id":"100000381394367","name":"Thành Nguyễn"},"message":"Nếu vậy thì em nghiên cứu cách nào để xuất khẩu được hoa hướng dương của cậu em sang Nhật hoặc xuất khẩu dâu tây Đà Lạt sang Nhật như bác kia đi thôi :D","can_remove":false,"created_time":"2013-12-20T04:20:23+0000","like_count":1,"user_likes":false},"781055141911165":{"id":"781055141911165","from":{"id":"1146680551","name":"優しい なぁ"},"message":"Hạt giống hoa hướng dương phải nhập từ cty Nhật :((","can_remove":false,"created_time":"2013-12-20T04:21:22+0000","like_count":0,"user_likes":false},"781055208577825":{"id":"781055208577825","from":{"id":"100000381394367","name":"Thành Nguyễn"},"message":"Bác Nhật kia còn không đủ nguồn cung cho khách, nếu không thể tự tìm đầu mối bên Nhật thì đến gặp bác kia ở Đà lạt hợp tác làm nhà cung cấp cho bác ấy.--> Cái này gọi là xuất khẩu nội biên.","can_remove":false,"created_time":"2013-12-20T04:21:45+0000","like_count":1,"user_likes":false},"781055675244445":{"id":"781055675244445","from":{"id":"1146680551","name":"優しい なぁ"},"message":"Nhiều vấn đề liên quan lắm.k đơn giản ,nhưng bác vừa cho e 1 ý tưởng đấy.thanks bác","can_remove":false,"created_time":"2013-12-20T04:23:17+0000","like_count":2,"user_likes":false},"781056455244367":{"id":"781056455244367","from":{"id":"100000381394367","name":"Thành Nguyễn"},"message":"Hồi tháng 10 anh mới đi Đà Lạt, không biết trang trại cậu em ở chỗ nào, lần sau đến đấy vào tham quan, mua dâu tây có khi được giảm giá :v","can_remove":false,"created_time":"2013-12-20T04:25:56+0000","like_count":0,"user_likes":false},"781059878577358":{"id":"781059878577358","from":{"id":"1146680551","name":"優しい なぁ"},"message":"Lạc đề :v","can_remove":false,"created_time":"2013-12-20T04:37:31+0000","like_count":1,"user_likes":false},"781060788577267":{"id":"781060788577267","from":{"id":"100000381394367","name":"Thành Nguyễn"},"message":"Đọc xong bài này đang muốn mở trang trại trồng rau mà.","can_remove":false,"created_time":"2013-12-20T04:40:53+0000","like_count":0,"user_likes":false},"781082291908450":{"id":"781082291908450","from":{"id":"1804434883","name":"Duyen Le"},"message":"Đúng là Người Việt Nam \"rất bảo thủ\", cái này cần phải thay đổi","can_remove":false,"created_time":"2013-12-20T05:44:27+0000","like_count":1,"user_likes":false},"781085205241492":{"id":"781085205241492","from":{"id":"569263718","name":"Phuong Thao Tran"},"message":"nói hơi nặng lời 1 tí là \"dấu dốt\"","can_remove":false,"created_time":"2013-12-20T05:47:41+0000","like_count":0,"user_likes":false},"781091348574211":{"id":"781091348574211","from":{"id":"100000381394367","name":"Thành Nguyễn"},"message":"\"dấu dốt\" or \"giấu dốt\"? :D","can_remove":false,"created_time":"2013-12-20T06:07:17+0000","like_count":1,"user_likes":false},"781096795240333":{"id":"781096795240333","from":{"id":"569263718","name":"Phuong Thao Tran"},"message":"đang không giấu dốt đấy Thành Nguyễn :D","message_tags":[{"id":"100000381394367","name":"Thành Nguyễn","type":"user","offset":24,"length":12}],"can_remove":false,"created_time":"2013-12-20T06:33:27+0000","like_count":2,"user_likes":false},"781102948573051":{"id":"781102948573051","from":{"id":"100001416272263","name":"Mai PB"},"message":"Kỹ thuật nông nghiệp của Nhật hàng đầu thế giới. Ví dụ quýt Nhật không có hạt, rất ngọt. VN nhiều nông dân nhưng bản thân họ ít học, lại cũng nhiều tính xấu: bảo thủ, hay nghe phỉnh, lạc hậu, ít chịu học. Rồi họ cũng hay bị cả Nhà nước lẫn thương lái VN, TQ lừa. Họ giống như nhiều du học sinh sang Nhật mấy năm nay vậy.","can_remove":false,"created_time":"2013-12-20T06:58:12+0000","like_count":3,"user_likes":false},"781105275239485":{"id":"781105275239485","from":{"id":"100001526631937","name":"Tường Oanh Mineko"},"message":"e thích từ \" hay nghe phỉnh\"---> chuẩn quá","can_remove":false,"created_time":"2013-12-20T07:10:05+0000","like_count":0,"user_likes":false},"781105895239423":{"id":"781105895239423","from":{"id":"569263718","name":"Phuong Thao Tran"},"message":"vụ này giống vụ Tương Bần trong bài viết của giáo sư Nguyến Lân Dũng: http://vtc.vn/tapchi/447-444891/chuyen-de/gs-nguyen-lan-dung-toi-noi-ma-khong-ai-nghe.htm","can_remove":false,"created_time":"2013-12-20T07:12:53+0000","like_count":2,"user_likes":false},"781111821905497":{"id":"781111821905497","from":{"id":"100000381394367","name":"Thành Nguyễn"},"message":"Cái vụ quýt không hạt là thế nào ấy nhỉ, từ trước đến giờ em vẫn thấy quýt không hạt, nho không hạt và nghi ngờ là thực phẩm biến đổi gen, vì trong tự nhiên làm gì có mấy món đó. Có phương pháp sinh học an toàn tạo ra mấy giống này không.","can_remove":false,"created_time":"2013-12-20T07:34:52+0000","like_count":0,"user_likes":false},"781127271903952":{"id":"781127271903952","from":{"id":"100003852803358","name":"Ngọc Điệp"},"message":"em nghĩ không phải biến đổi gien đâu anh, cái này là do sự chọn lọc nhân tạo của con người đó. Người ta chọn những cây quýt, cây nho hạt bé và ít hạt đem đi nhân giống( tất nhiên nhân giống bằng cách chiết cành chứ không ai dùng hạt cả) sau nhiều thế hệ thì sẽ được quýt và nho không hạt.\nHầu hết các loại cây củ quả con người \"thuần hóa\" từ trong tự nhiên đều bằng biện pháp này, ví dụ như cây lúa, hay cây cải vậy đó","can_remove":false,"created_time":"2013-12-20T08:27:38+0000","like_count":2,"user_likes":false},"781136178569728":{"id":"781136178569728","from":{"id":"100001416272263","name":"Mai PB"},"message":"Ngọc Điệp nói đúng đó. Người Nhật có vẻ không dùng thực phẩm biến đổi gien. Mà kỹ thuật biến đổi gien mới có, còn quýt nho không hạt có lẽ có từ hồi ông Lương Định Của.","message_tags":[{"id":"100003852803358","name":"Ngọc Điệp","type":"user","offset":0,"length":9}],"can_remove":false,"created_time":"2013-12-20T09:06:41+0000","like_count":0,"user_likes":false},"781138108569535":{"id":"781138108569535","from":{"id":"569263718","name":"Phuong Thao Tran"},"message":"ông Lương Định Của anh Mai PB ơi","message_tags":[{"id":"100001416272263","name":"Mai PB","type":"user","offset":23,"length":6}],"can_remove":false,"created_time":"2013-12-20T09:12:37+0000","like_count":1,"user_likes":false},"781138701902809":{"id":"781138701902809","from":{"id":"100001416272263","name":"Mai PB"},"message":":-) nghĩ thế nào mà lại cho ông ấy họ Nông nhỉ, đúng là hâm thật.","can_remove":false,"created_time":"2013-12-20T09:14:05+0000","like_count":0,"user_likes":false},"781139648569381":{"id":"781139648569381","from":{"id":"569263718","name":"Phuong Thao Tran"},"message":"hôm nay em đã gọi họ tên anh đến 2 lần rồi đó, mời anh cốc cafe đen cho tỉnh táo, ^^","can_remove":false,"created_time":"2013-12-20T09:17:04+0000","like_count":0,"user_likes":false},"781140731902606":{"id":"781140731902606","from":{"id":"100001416272263","name":"Mai PB"},"message":"Nói đến nông dân VN, lại nhớ các vụ bị TQ phỉnh thu mua hàng loạt nông phẩm hoặc các sản phẩm từ tự nhiên đến phế thải, rồi sau đó chạy làng, quỵt tiền, bao nhiêu vụ mà vẫn không trắng mắt ra. Không hiểu nổi họ có đáng thương nữa không, nhưng không thể chấp nhận được một chính quyền không biết bảo vệ dân. Có cảm tưởng người Việt làm cho chính phủ ngu ngơ thế nào đó.","can_remove":false,"created_time":"2013-12-20T09:22:17+0000","like_count":1,"user_likes":false},"781166611900018":{"id":"781166611900018","from":{"id":"1235866955","name":"Loan Pham"},"message":"Ngoài ra, có 1 yếu tố không kém phần quan trong là nông dân việt nam mình suy nghĩ ngắn hạn  lắm, chỉ biết cái lợi trước mắt, mà không nghĩ đến hậu quả sau này. Bạn nào đã từng đi tham quan các nhà vườn trồng hoa màu và trao đổi với họ sẽ thấy rất rõ điều  này.","can_remove":false,"created_time":"2013-12-20T10:31:37+0000","like_count":2,"user_likes":false},"781214765228536":{"id":"781214765228536","from":{"id":"100002911187986","name":"Nghia Bui"},"message":"và bây giờ nền nông nghiệp Việt Nam đang cần những bạn đã đi du học nước ngoài, đã học hỏi được kỹ thuật tiên tiến và cách suy nghĩ dài hạn của nước bạn, các bạn hãy quay về và giúp các bác nông dân \"ít học,lạc hậu\" ấy, để họ cũng có thể làm ra những sản phẩm đó, cũng có thể trở nên giàu có. Làm được điều này thì thực sự khâm phục các bạn vô cùng. Bạn nào học về nông nghiệp, hãy cố gắng nhé!","can_remove":false,"created_time":"2013-12-20T13:05:08+0000","like_count":1,"user_likes":false},"781309155219097":{"id":"781309155219097","from":{"id":"100001416272263","name":"Mai PB"},"message":"Trong bài có nói bác ng Nhật muốn giúp mà họ không nghe :-)","can_remove":false,"created_time":"2013-12-20T16:48:41+0000","like_count":1,"user_likes":false},"781313808551965":{"id":"781313808551965","from":{"id":"100002911187986","name":"Nghia Bui"},"message":"đấy...quan trọng là làm thế nào để họ nghe ấy. Cái này phải đánh trúng tâm lý của mấy bác nông dân ấy mới hiệu quả được nhỉ! các bác nông dân ấy không được học hành nhiều, nhiều kỹ thuật này nọ sẽ không biết. Nhưng theo mình nếu như họ thấy được điều đó gắn liền với lợi ích thiết thực của họ thì họ sẽ chịu nghe theo thui.","can_remove":false,"created_time":"2013-12-20T16:56:30+0000","like_count":1,"user_likes":false},"781551198528226":{"id":"781551198528226","from":{"id":"569263718","name":"Phuong Thao Tran"},"message":"như anh Mai PB có nói, nông dân mình thích nghe phỉnh, vậy nên chắc là cố gắng \"Phỉnh\" nhỉ Nghia Bui, ^^","message_tags":[{"id":"100001416272263","name":"Mai PB","type":"user","offset":8,"length":6},{"id":"100002911187986","name":"Nghia Bui","type":"user","offset":91,"length":9}],"can_remove":false,"created_time":"2013-12-21T03:28:12+0000","like_count":0,"user_likes":false}},"paging":{"cursors":{"after":"NzgxMDQzMjgxOTEyMzUx","before":"NzgxMDQzMjgxOTEyMzUx"},"next":"https://graph.facebook.com/229244010425617_781037395246273/comments?limit=1&summary=1&after=NzgxMDQzMjgxOTEyMzUx"},"summary":{"order":"chronological","total_count":29}}}