{"id":"229244010425617_781196321897047","type":"status","from":{"id":"100001334872962","name":"クオン グエン"},"message":"メリー クリスマス( meri-kurisumasu) : chúc mừng giáng sinh\n\nよい クリスマスを( yoi kurisumasu o): chúc giáng sinh an lành\n\nたのしい クリマスをすごして下さい ( tanoshii kurimasu o sugoishitekurasai) : Chúc giáng sinh vui vẻ\n\nよい おとしを( yoi otoshi o): chúc một năm mới tốt lành\n\nよいおとしをおむかえください(Yoi otoshi o omukae kudasai ):\nHãy đón năm mới vui vẻ nhé\n\nらいねも いろいろ いいことがありますように\n( rainen mo iroiro iigoto ga arimasuyouni): Chúc bạn năm tới có nhiều điều tốt đẹp\n\nらいねも よいいちねんになりますように \n(rainen mo yoi ichinen ni narimasuyouni): Chúc bạn một năm mới an lành.","created_time":"2013-12-20T12:13:13+0000","updated_time":"2013-12-21T03:45:35+0000","likes":{"data":{"100003207505208":{"id":"100003207505208","name":"Tuyển Osaka Minami"},"100003910433964":{"id":"100003910433964","name":"Le Gend"},"100006131672813":{"id":"100006131672813","name":"Má Lúm Đồng Tiền"},"100004409010627":{"id":"100004409010627","name":"Diep Quynh Anh"},"100001334872962":{"id":"100001334872962","name":"クオン グエン"},"100005934548279":{"id":"100005934548279","name":"Cậu Bé Buồn"},"100007015029011":{"id":"100007015029011","name":"Hao Hai Duong"},"100007076585912":{"id":"100007076585912","name":"Tuyền Nguyễn"},"100006574175421":{"id":"100006574175421","name":"YU RI"},"100000381394367":{"id":"100000381394367","name":"Thành Nguyễn"},"100004543177973":{"id":"100004543177973","name":"Định Trương"},"100004251847599":{"id":"100004251847599","name":"Yuki Yuki"},"1146680551":{"id":"1146680551","name":"優しい なぁ"},"100003049639881":{"id":"100003049639881","name":"Truong Luvuxy"},"100004025807179":{"id":"100004025807179","name":"Khoảng Lặng"},"100005337850702":{"id":"100005337850702","name":"Xứ Tuyết"},"569263718":{"id":"569263718","name":"Phuong Thao Tran"},"100003244177763":{"id":"100003244177763","name":"Mèo Mun"},"100001526631937":{"id":"100001526631937","name":"Tường Oanh Mineko"},"100000508720532":{"id":"100000508720532","name":"Ha Lanphi"},"100004024455277":{"id":"100004024455277","name":"Hải Long"},"100002508122689":{"id":"100002508122689","name":"Vũ Mạnh Tuấn"},"1114300791":{"id":"1114300791","name":"Tra Mi"},"100007145402513":{"id":"100007145402513","name":"Cherry Pham"}},"paging":{"cursors":{"after":"MTAwMDAzMjA3NTA1MjA4","before":"MTAwMDAzMjA3NTA1MjA4"},"next":"https://graph.facebook.com/229244010425617_781196321897047/likes?limit=1&summary=1&after=MTAwMDAzMjA3NTA1MjA4"},"summary":{"total_count":25}},"comments":{"data":{"781216165228396":{"id":"781216165228396","from":{"id":"100003244177763","name":"Mèo Mun"},"message":"Arigato.","can_remove":false,"created_time":"2013-12-20T13:09:04+0000","like_count":0,"user_likes":false},"781222201894459":{"id":"781222201894459","from":{"id":"100007283947929","name":"ʚïɞHương ʚïɞ"},"message":"どうも　ありがと　ございます","can_remove":false,"created_time":"2013-12-20T13:25:28+0000","like_count":0,"user_likes":false},"781346838548662":{"id":"781346838548662","from":{"id":"100006087877560","name":"Bố Bé Pon"},"message":"あまけしおめでとうございます","can_remove":false,"created_time":"2013-12-20T18:28:26+0000","like_count":0,"user_likes":false},"781555295194483":{"id":"781555295194483","from":{"id":"569263718","name":"Phuong Thao Tran"},"message":"Bé ßé Çòi:　どうも　ありがとう　ございます\nBố Bé Pon: あけまして　。。。","message_tags":[{"id":"100007283947929","name":"ßé Çòi","type":"user","offset":3,"length":6},{"id":"100006087877560","name":"Bố Bé Pon","type":"user","offset":27,"length":9}],"can_remove":false,"created_time":"2013-12-21T03:39:23+0000","like_count":0,"user_likes":false},"781557065194306":{"id":"781557065194306","from":{"id":"100006087877560","name":"Bố Bé Pon"},"message":"はい。ありがとう","can_remove":false,"created_time":"2013-12-21T03:45:35+0000","like_count":0,"user_likes":false}},"paging":{"cursors":{"after":"NzgxMjE2MTY1MjI4Mzk2","before":"NzgxMjE2MTY1MjI4Mzk2"},"next":"https://graph.facebook.com/229244010425617_781196321897047/comments?limit=1&summary=1&after=NzgxMjE2MTY1MjI4Mzk2"},"summary":{"order":"chronological","total_count":5}}}