{"id":"229244010425617_781254018557944","type":"status","from":{"id":"100001754136107","name":"Nguyễn Tuấn Vũ"},"message":"Có anh chị nào biết trang đặt xe buyt, vé máy bay nội địa ( Nhật Bản) rẻ ko?","created_time":"2013-12-20T14:45:56+0000","updated_time":"2013-12-21T13:12:02+0000","likes":{"data":{"100000601356942":{"id":"100000601356942","name":"Đinh Hiền"}},"paging":{"cursors":{"after":"MTAwMDAwNjAxMzU2OTQy","before":"MTAwMDAwNjAxMzU2OTQy"}},"summary":{"total_count":1}},"comments":{"data":{"781257355224277":{"id":"781257355224277","from":{"id":"1026780646","name":"Việt Hưng Khổng"},"message":"http://sp.skygate.co.jp/ bạn xem thử :)","can_remove":false,"created_time":"2013-12-20T14:54:35+0000","like_count":1,"user_likes":false},"781267508556595":{"id":"781267508556595","from":{"id":"559823806","name":"Tran Bach"},"message":"Vé máy bay thì đi/đến Osaka có hãng Peach(www.flypeach.com), ngoài ra còn có hãng giá rẻ: airasia(www.airasia.com) hoặc skymark(www.skymark.co.jp). Tuỳ thời gian, địa điểm xuất phát, đích đến bạn tra cho phù hợp","can_remove":false,"created_time":"2013-12-20T15:11:48+0000","like_count":0,"user_likes":false},"781268328556513":{"id":"781268328556513","from":{"id":"100002329538994","name":"Xuka Sakura"},"message":"đi jestar cho vui , êm như xe bò mình:v","can_remove":false,"created_time":"2013-12-20T15:13:39+0000","like_count":0,"user_likes":false},"781268638556482":{"id":"781268638556482","from":{"id":"100001754136107","name":"Nguyễn Tuấn Vũ"},"message":"E cảm ơn, e muốn đi 高知県.","can_remove":false,"created_time":"2013-12-20T15:14:29+0000","like_count":0,"user_likes":false},"781269061889773":{"id":"781269061889773","from":{"id":"100001754136107","name":"Nguyễn Tuấn Vũ"},"message":"Vùng 西中国 có ít hãng và ít chuyến :(","can_remove":false,"created_time":"2013-12-20T15:15:52+0000","like_count":0,"user_likes":false},"781304355219577":{"id":"781304355219577","from":{"id":"100001475606142","name":"Thanh Hoa Dang"},"message":"高知o(^_^)o??? hồi xưa cũng định tới đó xem yosakoi. quê hương của yosakoi đấy :)","can_remove":false,"created_time":"2013-12-20T16:41:05+0000","like_count":0,"user_likes":false},"781482978535048":{"id":"781482978535048","from":{"id":"100001695345798","name":"Tyn Aki"},"message":"tốt nhất lên tìm rồi so sánh giá.","can_remove":false,"created_time":"2013-12-21T00:33:32+0000","like_count":1,"user_likes":false},"781489851867694":{"id":"781489851867694","from":{"id":"100001697437502","name":"Huu Long Nguyen"},"message":"http://www.expedia.co.jp/\nMình mới đặt thấy trang này rẻ nhất nè.","can_remove":false,"created_time":"2013-12-21T00:55:42+0000","like_count":0,"user_likes":false},"781748831841796":{"id":"781748831841796","from":{"id":"100002421205294","name":"Nghèo Kệ Tôi"},"message":"đao phủ vào giải quyết hộ cái To Đùng","message_tags":[{"id":"1813611352","name":"To Đùng","type":"user","offset":36,"length":7}],"can_remove":false,"created_time":"2013-12-21T13:12:02+0000","like_count":0,"user_likes":false}},"paging":{"cursors":{"after":"NzgxMjU3MzU1MjI0Mjc3","before":"NzgxMjU3MzU1MjI0Mjc3"},"next":"https://graph.facebook.com/229244010425617_781254018557944/comments?limit=1&summary=1&after=NzgxMjU3MzU1MjI0Mjc3"},"summary":{"order":"chronological","total_count":9}}}