{"id":"229244010425617_781269688556377","type":"status","from":{"id":"100000370857602","name":"Binz Trịnh"},"message":"Em mới tốt nghiệp ĐH ở VN xong, nếu em sang Nhật vừa học vừa làm có đủ trang trải sinh hoạt + học phí không ạ? Gia đình em chỉ lo đc cho em chi phí đi ban đầu thôi ạ.\nSau khi học xong ở trường Nhật ngữ, cơ hội việc làm của em thế nào? Tấm bằng đại học 4 năm ở Việt Nam giúp em đc gì không, em học tài chính doanh nghiệp? Hay em nên học thêm nữa ạ?\nNhờ mọi người giúp em. Em cảm ơn.","created_time":"2013-12-20T15:17:47+0000","updated_time":"2013-12-21T06:43:24+0000","likes":{"data":{"100004132321926":{"id":"100004132321926","name":"Dac Bay"},"100005387051072":{"id":"100005387051072","name":"Nguyễn Vinh Việt"},"100004409010627":{"id":"100004409010627","name":"Diep Quynh Anh"},"100006305558297":{"id":"100006305558297","name":"Nguyen Anh"},"100006745658212":{"id":"100006745658212","name":"Anh Tuan"},"100003913864198":{"id":"100003913864198","name":"Linh Lê"},"100001732119820":{"id":"100001732119820","name":"Sapphire Rain"},"100000508720532":{"id":"100000508720532","name":"Ha Lanphi"},"100007316735911":{"id":"100007316735911","name":"Tuyen Dung Vn  Jp"},"1685388801":{"id":"1685388801","name":"Oanh Chan"},"100003275789728":{"id":"100003275789728","name":"Quoc Tran"},"100001526631937":{"id":"100001526631937","name":"Tường Oanh Mineko"},"100002147884296":{"id":"100002147884296","name":"Ngoc Tran"},"100003913383051":{"id":"100003913383051","name":"Tho Tran"}},"paging":{"cursors":{"after":"MTAwMDA0MTMyMzIxOTI2","before":"MTAwMDA0MTMyMzIxOTI2"},"next":"https://graph.facebook.com/229244010425617_781269688556377/likes?limit=1&summary=1&after=MTAwMDA0MTMyMzIxOTI2"},"summary":{"total_count":14}},"comments":{"data":{"781272128556133":{"id":"781272128556133","from":{"id":"100005628218088","name":"Duc Vila"},"message":"Dh cung chang lam gi dau","can_remove":false,"created_time":"2013-12-20T15:24:31+0000","like_count":0,"user_likes":false},"781272571889422":{"id":"781272571889422","from":{"id":"100003913383051","name":"Tho Tran"},"message":"Qua đây mất 2-3 tháng sẽ hok có việc làm thêm, sau kiếm được việc thì cũng tạm ổn cho cuộc sống bên này thôi bạn nhé!!! Không có sự dư thừa đâu. Còn bằng cấp có giúp đk gì hok thì mình cũng hok rõ,","can_remove":false,"created_time":"2013-12-20T15:25:40+0000","like_count":0,"user_likes":false},"781275518555794":{"id":"781275518555794","from":{"id":"100004798083725","name":"Cappu Ccino"},"message":"Nếu tốt nghiệp nhật ngữ xong rồi vào senmon tiếng nhật học chuyên sâu để có thể phiên-thông dịch thì e nghĩ có the làm cv liên quan đến ngành mình đã học ở vn","can_remove":false,"created_time":"2013-12-20T15:34:06+0000","like_count":0,"user_likes":false},"781275905222422":{"id":"781275905222422","from":{"id":"100003785331000","name":"Phát"},"message":"thế thì tốt quá rồi. bạn vững tiếng sang đó tìm việt vừa học vừa làm đủ trang trải c.s bên đó,có thể có chút dư giả nếu bạn chịu khó.còn sang đó đều phải học lại tiếng ở trường nhật ngữ bên đó,ít nhất là 1 năm,nhiều là 2 năm,sau đó bạn có = đại học rồi thì bạn đăng ký học cao học trong 3 năm,ko thì bạn đi học nghề thì 2 năm","can_remove":false,"created_time":"2013-12-20T15:34:51+0000","like_count":0,"user_likes":false},"781276978555648":{"id":"781276978555648","from":{"id":"100000370857602","name":"Binz Trịnh"},"message":"có cơ hội làm việc = bằng ĐH Việt Nam ko ạ","can_remove":false,"created_time":"2013-12-20T15:37:41+0000","like_count":0,"user_likes":false},"781278135222199":{"id":"781278135222199","from":{"id":"100003785331000","name":"Phát"},"message":"ko.bằng mình sang đó học đâu có biết tiếng việt đâu ạ:). xin giấy ở trường mình học để coi như là học sinh làm bán thời gian thôi,","can_remove":false,"created_time":"2013-12-20T15:40:47+0000","like_count":0,"user_likes":false},"781278681888811":{"id":"781278681888811","from":{"id":"100000370857602","name":"Binz Trịnh"},"message":"thế giờ vất đi ak bạn :(","can_remove":false,"created_time":"2013-12-20T15:42:25+0000","like_count":0,"user_likes":false},"781279091888770":{"id":"781279091888770","from":{"id":"100000370857602","name":"Binz Trịnh"},"message":"chắc để làm lót chuột quá","can_remove":false,"created_time":"2013-12-20T15:43:15+0000","like_count":0,"user_likes":false},"781279718555374":{"id":"781279718555374","from":{"id":"100003785331000","name":"Phát"},"message":"giữ sang sau này để học lên cao học bạn à :), còn tùy bạn đi theo đường nào, bạn đi theo học bổng thì rất cần, còn đi theo tự túc thì cầm để chứng minh là trong thời gian  tốt nghiệp cấp 3 bạn đã học đh thôi","can_remove":false,"created_time":"2013-12-20T15:45:08+0000","like_count":0,"user_likes":false},"781281051888574":{"id":"781281051888574","from":{"id":"100000370857602","name":"Binz Trịnh"},"message":"ý t là sau khi học 2 năm tiếng xong bth các bạn phải học ĐH hoặc nghề sau đó mới đc cấp visa đi \"cày tiền hợp pháp\"  đúng ko? , còn t có bằng rồi thì cần học nữa k?","can_remove":false,"created_time":"2013-12-20T15:49:40+0000","like_count":0,"user_likes":false},"781291098554236":{"id":"781291098554236","from":{"id":"100001744546054","name":"Quân Dương"},"message":"Bạn này học TCDN chắc ở Kinh tế Quốc dân hoặc HV Tài chính ra hả ? Tôi tốt nghiệp Ktqd đây và đang học tiếng ở Tokyo. Tôi khuyên bạn hãy lấy bằng N 2 trước khi sang Nhật. Bạn sang dây theo con đường du học thì sẽ rất  chật vật. Tôi là ví dụ , tiền lo học phí ăn uống chả xong nói gì đến thời gian học tiếng Nhật mí cao học . Đi làm đêm về mêth có mấy tiếng Tranh thủ ngủ để chiều còn lên lớp. Bài vở chất đống. Nhiều Ng nghĩ sang vài năm là nói đc tiếng Nhật . Xin thưa tiếng Nhật ko thể học bồi như. Tiềng Trung đâu nhé, ko học thì 10 năm cũng chỉ bập bẹ đc thôi. Mà bên đây ko tiền cũng chả sống đc. Hàng ngày nỗi lo cơm ai gạo tiền nó cứ đeo bám, lại chưa kể rát nhiều rắc rối nếu bạn ko nắm rõ : tiền điện thoại điện nước gas , tiền nhà, học phí , bảo hiểm nhăng nhắc. Chưa kể con Ng Nhật sống khép kín và khuôn phép, bạn là con Ng sống thoải mái thì bạn sẽ ko thích Nc Nhâtn đâu. Đấy là t nghĩ thế. Còn t thì ko còn đường về rùi : mấy trăm triệu chưa trả đc bố mẹ lại còn hàng xóm bạn bè sẽ nghĩ sao khi bỏ cuộc. Đâm lao thì phải theo lao thôi.","can_remove":false,"created_time":"2013-12-20T16:13:10+0000","like_count":22,"user_likes":false},"781291728554173":{"id":"781291728554173","from":{"id":"100000370857602","name":"Binz Trịnh"},"message":"tks bạn Quân Dương đã chia sẻ :) ukm t học TC bạn à","can_remove":false,"created_time":"2013-12-20T16:15:19+0000","like_count":0,"user_likes":false},"781291858554160":{"id":"781291858554160","from":{"id":"100006520210904","name":"Miu Miu"},"message":"Bạn có bằng đại học rồi sao ko đi theo chương trình kĩ sư?","can_remove":false,"created_time":"2013-12-20T16:15:37+0000","like_count":0,"user_likes":false},"781292928554053":{"id":"781292928554053","from":{"id":"100006520210904","name":"Miu Miu"},"message":"(Mình xin lỗi chưa cm xong đã lỡ tay gửi). Mình khuyên bạn ko nên đi du học( vì bạn nói kinh tế nhà bạn cũng ko dư) bạn tìm hiểu xem sẽ có rất nhiều c. Trình kĩ sư đó bạn. Đó là họ lấy các bạn đã có bằng đại học( nhưng theo chuyên ngành nhé) bạn sang đó sẽ ở lại lâu dài","can_remove":false,"created_time":"2013-12-20T16:18:40+0000","like_count":0,"user_likes":false},"781293005220712":{"id":"781293005220712","from":{"id":"100001744546054","name":"Quân Dương"},"message":"Các bạn tốt nghiệp bên khối kinh tế thì chỉ đi theo diện visa nhân Văn xã hội đc thôi, còn bên khối kỹ thuật như Bách khoa thì khỏi nói rồi : Nc Nhật h chuộng kỹ sư kinh khủng, tất nhiên phải làm đc việc","can_remove":false,"created_time":"2013-12-20T16:18:52+0000","like_count":0,"user_likes":false},"781293411887338":{"id":"781293411887338","from":{"id":"100000370857602","name":"Binz Trịnh"},"message":"t học kinh tế bạn Miu ơi","can_remove":false,"created_time":"2013-12-20T16:19:48+0000","like_count":0,"user_likes":false},"781293805220632":{"id":"781293805220632","from":{"id":"100000370857602","name":"Binz Trịnh"},"message":"Bạn Quân sang lâu chưa?","can_remove":false,"created_time":"2013-12-20T16:20:32+0000","like_count":0,"user_likes":false},"781294815220531":{"id":"781294815220531","from":{"id":"100006520210904","name":"Miu Miu"},"message":"Vậy mình sẽ hỏi giúp bạn. Còn nếu bạn tha thiết đi du học thì bạn hãy học tiếng thật tốt rồi mình sẽ hỏi giúp diện học bổng( gọi là học bổng nhưng ko phải 100% nhé) nhưng cũng đỡ dc rất nhiều đó","can_remove":false,"created_time":"2013-12-20T16:22:19+0000","like_count":1,"user_likes":false},"781295608553785":{"id":"781295608553785","from":{"id":"100000370857602","name":"Binz Trịnh"},"message":"Miu Xinh: tks cậu nhé, t ko muốn phí công sức 4 năm đại học :D cầm bằng về mà lót chuột thì hay lắm","message_tags":[{"id":"100006520210904","name":"Miu Xinh","type":"user","offset":0,"length":8}],"can_remove":false,"created_time":"2013-12-20T16:23:50+0000","like_count":0,"user_likes":false},"781296351887044":{"id":"781296351887044","from":{"id":"100001744546054","name":"Quân Dương"},"message":"8 tháng. Nếu ban thích Văn hoá Nhật thì hãy học giỏi ở Vn Di, quá đây mà tiếng kém thì khổ lắm. Kiến đc 30 triệu / tháng nhưng chắc 28 triệu ra đi để chi phí cho sinh hoạt. Những con Ng Vn sang đây theo diện du học sinh thực chất là \" hầu Hạ Ng Nhật \" b ạ , thế mà vẫn ko xong ấy","can_remove":false,"created_time":"2013-12-20T16:25:42+0000","like_count":0,"user_likes":false},"781296471887032":{"id":"781296471887032","from":{"id":"100005904761637","name":"Ken"},"message":"Mình đang học ngành ngôn ngữ Anh vs học thêm cả tiếng nhật nữa. Cũng muốn đi Nhật nhưng mà chắc có trường như ngành mình để thi học bổng học lên cao. Nghĩ sao ngu ngày trc thi ngoại giao quá :((","can_remove":false,"created_time":"2013-12-20T16:26:04+0000","like_count":0,"user_likes":false},"781296965220316":{"id":"781296965220316","from":{"id":"100006520210904","name":"Miu Miu"},"message":"Nếu thực sự bạn có quyết tâm thì mình sẽ giúp. Vì khi sang đó rồi bạn ko chỉ kiếm kinh tế mà bạn còn học dc rất nhiều cách sống của người nhật đó.nhưng cũng sẽ khó khăn chưs ko dễ đâu bạn ah. Nếu đi dc thì bạn nên đi","can_remove":false,"created_time":"2013-12-20T16:27:19+0000","like_count":2,"user_likes":false},"781297015220311":{"id":"781297015220311","from":{"id":"100000370857602","name":"Binz Trịnh"},"message":"bạn cũng đi theo du học à Quân Dương? hi, thế bằng ĐH giúp ích gì cho bạn ko?","can_remove":false,"created_time":"2013-12-20T16:27:28+0000","like_count":0,"user_likes":false},"781297335220279":{"id":"781297335220279","from":{"id":"100000370857602","name":"Binz Trịnh"},"message":"Miu Xinh: đã bắt đầu học tiếng, sẽ cố gắng :D","message_tags":[{"id":"100006520210904","name":"Miu Xinh","type":"user","offset":0,"length":8}],"can_remove":false,"created_time":"2013-12-20T16:28:14+0000","like_count":1,"user_likes":false},"781298668553479":{"id":"781298668553479","from":{"id":"100006520210904","name":"Miu Miu"},"message":"Bạn ơi học bổng có nhiều dạng học bổng. Mình đang nói đến học bổng mà 1 tổ chức của nhật kí với trường. Họ cho các bạn tiền nhà ở, làm việc cho tập đoàn đó. Và hỗ trợ tiền ăn. Nhưng hàng tháng bạn phải trích ra 1 phần để đóng học phí.các bạn đọc kĩ nhé. Lợi đầu tiên các bạn dc miễn nhà ở chứ ko phải đóng tiền kí túc. Thứ 2 các bạn có việc làm ổn định. Thứ 3 là ko phải li tiền 1 cục 1 năm nhà ở và 6 tháng tiền học. Sau 2 năm bạn sẽ dc chuyển đổi visa và lv tại tập đoàn đó. Nhưng bạn phải có học lực tốt và tiếng ok","can_remove":false,"created_time":"2013-12-20T16:31:57+0000","like_count":1,"user_likes":false},"781298791886800":{"id":"781298791886800","from":{"id":"100002573173133","name":"Hoàng Văn Tuấn"},"message":"Mình học kĩ sư BK,nếu mình học xong và có bằng kĩ sư thì sang Nhật theo diện nào là tốt nhất?Ai biết chỉ dùm mình với.","can_remove":false,"created_time":"2013-12-20T16:32:25+0000","like_count":1,"user_likes":false},"781298908553455":{"id":"781298908553455","from":{"id":"100001744546054","name":"Quân Dương"},"message":"Bỏ xó thôi b ạ. Trong đơn xin viec lãm thêm, t ko ghi vì chả lần nào giúp t đc tuyển. Dân số Nhật 60 Phan trăm tốt nghiệp Đh, nên họ ko đánh giá cao bạn đâu. Xin việc ơr đây chủ yếu may mắn và tiếng của bạn thui","can_remove":false,"created_time":"2013-12-20T16:32:44+0000","like_count":0,"user_likes":false},"781299735220039":{"id":"781299735220039","from":{"id":"100000370857602","name":"Binz Trịnh"},"message":"Miu Xinh tks bạn nhiều lắm lắm\nQuân Dương: vậy là lót chuột rồi :3","message_tags":[{"id":"100006520210904","name":"Miu Xinh","type":"user","offset":0,"length":8}],"can_remove":false,"created_time":"2013-12-20T16:34:14+0000","like_count":0,"user_likes":false},"781299818553364":{"id":"781299818553364","from":{"id":"100006520210904","name":"Miu Miu"},"message":"Và sẽ rất nhiều chương trình khác bạn nhé. Nhưng tiếng vạn phải tốt","can_remove":false,"created_time":"2013-12-20T16:34:27+0000","like_count":0,"user_likes":false},"781299938553352":{"id":"781299938553352","from":{"id":"100001744546054","name":"Quân Dương"},"message":"Tôi chỉ biết vài Ng qua đây theo diện kỹ sư từ những lớp TÀi Năng của B K thôi","can_remove":false,"created_time":"2013-12-20T16:34:47+0000","like_count":0,"user_likes":false},"781301108553235":{"id":"781301108553235","from":{"id":"100000370857602","name":"Binz Trịnh"},"message":"diện ấy chắc là học bổng đó bạn, chỉ việc học và kiếm tiền gửi về, ko lo chi phí :D","can_remove":false,"created_time":"2013-12-20T16:35:52+0000","like_count":0,"user_likes":false},"781301925219820":{"id":"781301925219820","from":{"id":"100002573173133","name":"Hoàng Văn Tuấn"},"message":"Mình cũng biết vài a cùng trg c3 học chương trình Tiên Tiến học 1 năm xong đc qua Nhật.","can_remove":false,"created_time":"2013-12-20T16:37:12+0000","like_count":0,"user_likes":false},"781301951886484":{"id":"781301951886484","from":{"id":"100001744546054","name":"Quân Dương"},"message":"Học bổng ở đây phải nói đến 2 từ xuất chúng, còn nếu \" nhàng nhàng \" thì từng bước sẽ qua thôi","can_remove":false,"created_time":"2013-12-20T16:37:18+0000","like_count":0,"user_likes":false},"781304348552911":{"id":"781304348552911","from":{"id":"100002573173133","name":"Hoàng Văn Tuấn"},"message":"Xuất chúng thì k dám nhận nhưng cũng k đến lỗi ngu quá.","can_remove":false,"created_time":"2013-12-20T16:41:02+0000","like_count":1,"user_likes":false},"781319051884774":{"id":"781319051884774","from":{"id":"100000455388210","name":"Đức Trung Nguyễn"},"message":"\"đến nỗi \" tiếng việt còn sai kìa :p. sửa vậy thôi ko có ý ji đâu :D","can_remove":false,"created_time":"2013-12-20T17:07:57+0000","like_count":0,"user_likes":false},"781319731884706":{"id":"781319731884706","from":{"id":"100002147884296","name":"Ngoc Tran"},"message":"Minh muon di dang tu nghiep sinh thi nhu the nao ha cac ban. Help me?","can_remove":false,"created_time":"2013-12-20T17:10:29+0000","like_count":0,"user_likes":false},"781321115217901":{"id":"781321115217901","from":{"id":"100002573173133","name":"Hoàng Văn Tuấn"},"message":"Xin lỗi mình bị nói ngọng thành ra viết cũng vậy,đang tập sửa mà chưa dứt hẳn đc.","can_remove":false,"created_time":"2013-12-20T17:14:35+0000","like_count":0,"user_likes":false},"781322131884466":{"id":"781322131884466","from":{"id":"100000455388210","name":"Đức Trung Nguyễn"},"message":"nói ngọng thì sửa đi ko nhầm な、に、ぬ、ね、の với ら、り、る、れ、ろ　đới ( ng nhật nhầm :p )","can_remove":false,"created_time":"2013-12-20T17:16:55+0000","like_count":1,"user_likes":false},"781322205217792":{"id":"781322205217792","from":{"id":"100003878977188","name":"Minh Canh"},"message":"Mất 4 năm học đương nhiên là có ích rồi nhưng time đầu thì cũng trả có ích..quan trọngu nhất là khả năng tiếng,kĩ năng giao tiếp và may mắn...nhiều yếu tố nhưng như mình nói quan trọng nhất khi du học là trang bị ngoại ngữ của đất nước đó...","can_remove":false,"created_time":"2013-12-20T17:17:14+0000","like_count":0,"user_likes":false},"781322651884414":{"id":"781322651884414","from":{"id":"100002573173133","name":"Hoàng Văn Tuấn"},"message":"Cảm ơn Đức Trung Nguyễn nhé :-)","can_remove":false,"created_time":"2013-12-20T17:18:26+0000","like_count":0,"user_likes":false},"781322731884406":{"id":"781322731884406","from":{"id":"100005029951357","name":"Nhỏ Ngốc"},"message":"Ngoc hân.mjh thay tren may trag ve nhat.co tuyen tu ngjep sjh nhjeu.pan co the tjm hjeu","can_remove":false,"created_time":"2013-12-20T17:18:41+0000","like_count":1,"user_likes":false},"781324591884220":{"id":"781324591884220","from":{"id":"100006843131604","name":"Hoàng Thuận"},"message":"Tấm bằng ấy sang đây cho trẻ con choi","can_remove":false,"created_time":"2013-12-20T17:24:08+0000","like_count":0,"user_likes":false},"781324988550847":{"id":"781324988550847","from":{"id":"100000455388210","name":"Đức Trung Nguyễn"},"message":"xùy... có bằng ĐH ở vn rồi sang đấy học tiếng xong chuyển sang visa đi làm luôn đc nếu có cty nhận","can_remove":false,"created_time":"2013-12-20T17:25:25+0000","like_count":3,"user_likes":false},"781325785217434":{"id":"781325785217434","from":{"id":"100002573173133","name":"Hoàng Văn Tuấn"},"message":"Hoàng Thuận:mình hỏi rất có nhã ý nên bạn k nên trả lời kiểu đó đâu,cách trả lời đó khiến người khác đánh giá bạn mặc dù có thể bạn k có ý đó.","can_remove":false,"created_time":"2013-12-20T17:28:17+0000","like_count":1,"user_likes":false},"781327178550628":{"id":"781327178550628","from":{"id":"100006843131604","name":"Hoàng Thuận"},"message":"Tôi cung noi cho ban biet . Voi tam bang ay thi o vn ban co the xin dc viec ko ma doi sang day xin. Con ve chuyen doi vi da sau khi hoc tieng xong thi cung dung co hi vong. Ban phai bat dau lai tu dau ok","can_remove":false,"created_time":"2013-12-20T17:32:50+0000","like_count":1,"user_likes":false},"781328991883780":{"id":"781328991883780","from":{"id":"100002573173133","name":"Hoàng Văn Tuấn"},"message":"Vâng cảm ơn bạn,bằng của mình xin đc ở VN hay k thì mình biết không cần bạn phải nhắc đâu.","can_remove":false,"created_time":"2013-12-20T17:39:21+0000","like_count":1,"user_likes":false},"781332915216721":{"id":"781332915216721","from":{"id":"1821970083","name":"Nguyễn Mạnh Cường"},"message":"ý viết có dấu đi Thuận ơi","can_remove":false,"created_time":"2013-12-20T17:51:39+0000","like_count":3,"user_likes":false},"781352995214713":{"id":"781352995214713","from":{"id":"1760361316","name":"Meo WiWi"},"message":"Ở Nhật khi xin việc, tấm bằng có thể coi là thẻ giữ xe ấy. Dù là VN hay nước khác qua mà ko có bằng thi coi như rớt ngay vòng gửi xe rồi. Cái chính là chuyên môn & khả năng tiếng thôi.","can_remove":false,"created_time":"2013-12-20T18:42:01+0000","like_count":1,"user_likes":false},"781366515213361":{"id":"781366515213361","from":{"id":"100001580358429","name":"Hoai Nam Do"},"message":"Cái bạn này muốn hỏi là nếu có bằng đại học ở Việt Nam thì sau khi sang nhật học 2 năm trường tiếng xong có thể xin được việc không.Xin việc ở đây là 正社員(nhân viên công ty) chứ không phải アルバイト(làm thêm bán thời gian).Bạn nào không biết đừng nói bừa.Cái bằng đó của bạn hoàn toàn có ích nếu bạn học xong trường tiếng bạn có thể dùng bằng đó để vào công ty lam là chuyện bình thường.Có điều là sau khi học xong trường tiếng nhật trình độ tiếng của bạn thế nào thôi.Tiếng tốt thì không có gì phải lo hết nhé!","can_remove":false,"created_time":"2013-12-20T19:08:32+0000","like_count":5,"user_likes":false},"781387871877892":{"id":"781387871877892","from":{"id":"100006437927747","name":"Tian Vova"},"message":"Cái bằng đại học đó có lợi khi làm hồ sơ. Sẽ dễ dàng hơn các bạn mới học xong cấp 3. Con khi qdinh đi Nhật du học thì tạm thoi cứ quên bằng đó đi. Mà hãy bắt đầu lại từ đâu. B hay coi như bắt đầu học 1 ngành mới là tiếng Nhật. Nó sẽ qdinh bạn có việc hay ko.","can_remove":false,"created_time":"2013-12-20T20:08:31+0000","like_count":2,"user_likes":false},"781404591876220":{"id":"781404591876220","from":{"id":"100005085904077","name":"Kánh Hoa Vô Ưu"},"message":"nêú kảm thâý ja đình khó khăn qá thỳ p kứ hok tjếg o vnam r xjn vjek o vnam.p co = đh mà.","can_remove":false,"created_time":"2013-12-20T20:50:51+0000","like_count":0,"user_likes":false},"781466925203320":{"id":"781466925203320","from":{"id":"100002385063051","name":"Bàn Tay Vô Hình"},"message":"Nếu xác định học tiếp ở nhà thì học cho tốt mà làm việc ở nhà đi, sang làm gì. Còn đã xác định sang đây rùi thì mình nghĩ là ko cần học nữa. Bằng đh thì nó chỉ thuận lợi khi làm hồ sơ thôi. Còn về vấn đề việc làm thì thế này nhé: nếu bạn muốn có việc làm ngay khi sang nhật thì bạn hãy cố gắng học tiếng ở nhà cho tốt, tối thiểu là hết 25 bài minna nô, nếu có thể học luôn 50 bài. Nếu sang mà nhà trường giới thiệu việc cho thì quá tốt với lại nếu tiếng giỏi thì nếu nhờ thì trường sẽ sẵn lòng giúp tìm việc cho mình. Việc làm thì có nhiều căn bản là bạn có đủ sức làm ko, và nếu tiếng mình mà tốt thì khi làm việc mình có thể nc với người trong cty như thế thì sẽ càng thêm thân mật. Và điều quan trọng nữa là nếu đi làm thì time dành cho việc học bị hạn chế cho nên nếu như tiếng bạn tốt thì đi làm ok mà ko cần phải học nhiều vì sang đây cũng học lại sách minna no như ở Việt Nam!","can_remove":false,"created_time":"2013-12-20T23:41:16+0000","like_count":1,"user_likes":false},"781505488532797":{"id":"781505488532797","from":{"id":"100002349048791","name":"Zai BK"},"message":"Anh Quân Dương cho em hỏi là những anh/chị học Kĩ sư Tài năng từ Bách Khoa sang đó thì theo những học bổng nào ạ??và cơ hội thế nào ạ?","can_remove":false,"created_time":"2013-12-21T01:34:41+0000","like_count":0,"user_likes":false},"781505908532755":{"id":"781505908532755","from":{"id":"100001836415540","name":"Xuất Khẩu Lao Động"},"message":"Theo mình thì bạn k nên đi du học nhật.bạn nên xin đi học thạc sỹ úc thì sẽ có nhiều cơ hội thay đổi cs hơn.nếu tiếng anh bạn tốt hẫy alo 0962651313 mình sẽ xin học bổng cho bạn.visa 4 năm k phải lo gia hạn.nếu bạn k học thạc sỹ vẫn có thể kiếm tiền trong 4 năm.thân ái","can_remove":false,"created_time":"2013-12-21T01:36:07+0000","like_count":1,"user_likes":false},"781550911861588":{"id":"781550911861588","from":{"id":"100000356310797","name":"Thomas Huynh"},"message":"vay di du hoc uc chi phi het nhiu vay","can_remove":false,"created_time":"2013-12-21T03:27:29+0000","like_count":0,"user_likes":false},"781571051859574":{"id":"781571051859574","from":{"id":"100001836415540","name":"Xuất Khẩu Lao Động"},"message":"khoang 20 nghin do uc ban a","can_remove":false,"created_time":"2013-12-21T04:23:16+0000","like_count":0,"user_likes":false},"781578168525529":{"id":"781578168525529","from":{"id":"100001608465842","name":"Phung Dung"},"message":"theo a em nên","can_remove":false,"created_time":"2013-12-21T04:46:35+0000","like_count":0,"user_likes":false},"781578655192147":{"id":"781578655192147","from":{"id":"100001608465842","name":"Phung Dung"},"message":"theo a e nên ở vn thì tốt hơn,nếu có định hướng nghề nghiệp tốt thì nên ở vn fát triển, sang bên Nhật rồi lại muốn về vn đấy.","can_remove":false,"created_time":"2013-12-21T04:48:56+0000","like_count":3,"user_likes":false},"781615458521800":{"id":"781615458521800","from":{"id":"100000370857602","name":"Binz Trịnh"},"message":"Cảm ơn mọi người đã tư vấn nhé.","can_remove":false,"created_time":"2013-12-21T06:43:24+0000","like_count":0,"user_likes":false}},"paging":{"cursors":{"after":"NzgxMjcyMTI4NTU2MTMz","before":"NzgxMjcyMTI4NTU2MTMz"},"next":"https://graph.facebook.com/229244010425617_781269688556377/comments?limit=1&summary=1&after=NzgxMjcyMTI4NTU2MTMz"},"summary":{"order":"chronological","total_count":59}}}