{"id":"229244010425617_781236128559733","type":"status","from":{"id":"1026780646","name":"Việt Hưng Khổng"},"message":"Có ai thích chủ đề kinh tế không nhỉ, mỗi ngày mình sẽ post 16 từ ( sáng-trưa-chiều-tối mỗi buổi 4 từ) mọi người cho nghĩa ( ví dụ nữa thì tốt ^^). Đều đặn mỗi ngày 1 tháng cũng đc gần 500 từ rồi ;)\n\nCon kiến ^^\n12/21\n~仕様書 しようしょ\n~志願者 しがんしゃ\n~定期購読 ていきこうどく\n~交差点 こうさてん\n~合併 がっぺい\n~議題 ぎだい\n~監督者 かんとくしゃ\n~輸送 ゆそう\n~器具 きぐ\n~露天商人 ろてんしょうにん\n~不便 ふべん\n~供給業者\n~支持者 しじしゃ\n~目印 めじるし\n~会計検査 かいけいけんしゃ\n~士気 しき\n〜〜〜〜〜\n12/20: \n保険料 ほけんりょう: phí bảo hiểm (premium)\n飲み物 のみもの đồ uống( drink- beverage)\n旅行計画 りょこうけいかくlịch trình du lịch (itinerary)\n積み荷 つみに hàng gửi (shipment)\nパンフレット sách mỏng ( ghi nội dung quảng cáo, tiếp thị- cái này ko biết tV là gì- dốt tV quá) (brochure)\n在庫品 ざいこひん hàng trong kho (inventory)\n歩行者 ほこうしゃ người đi bộ( pedestrian)\n請求書 せいきゅうしょ giấy đòi nợ (invoice)\n子会社 こがいしゃ công ty con( subsidiary)\n払い戻し はらいもどし hoàn tiền ( refund)\n配当 はいとう lợi tức cổ phần (dividend)\n倉庫 そうこ kho (warehouse)\n商品 しょうひん hàng hoá( merchandise)\n入札 ゆうさつ đấu thầu (bid)\n保証 ほしょう bảo hành (warranty)\n迂回路 うかいろ đường vòng(detour)","created_time":"2013-12-20T14:03:48+0000","updated_time":"2013-12-20T18:38:37+0000","likes":{"data":{"100007316735911":{"id":"100007316735911","name":"Tuyen Dung Vn  Jp"},"100004085927294":{"id":"100004085927294","name":"Amsterdam Sa"},"1850147953":{"id":"1850147953","name":"Rùa Con"},"1821970083":{"id":"1821970083","name":"Nguyễn Mạnh Cường"},"100005196873531":{"id":"100005196873531","name":"Trần Phương Thảo"},"100000996305320":{"id":"100000996305320","name":"Luon Nguyen Thi Thu"},"100002369341715":{"id":"100002369341715","name":"Xu Li"},"100001775719325":{"id":"100001775719325","name":"Nguyễn Ngọc Trang"},"100004800542357":{"id":"100004800542357","name":"Nguyen Luyen"},"100001393959821":{"id":"100001393959821","name":"Le Ngoc Linh Nhi"},"100001754136107":{"id":"100001754136107","name":"Nguyễn Tuấn Vũ"},"1453400118":{"id":"1453400118","name":"Ngan Nguyen"},"100000824892836":{"id":"100000824892836","name":"Phan Ha"},"100001003687542":{"id":"100001003687542","name":"PhạmNgân Same"},"100001526631937":{"id":"100001526631937","name":"Tường Oanh Mineko"},"100002907638629":{"id":"100002907638629","name":"Huyền Trang"},"100001458099624":{"id":"100001458099624","name":"Kham Pha"},"100002911187986":{"id":"100002911187986","name":"Nghia Bui"},"100003027515100":{"id":"100003027515100","name":"Hana Yuki"},"100001731829244":{"id":"100001731829244","name":"Shiroi Bara"},"100000381394367":{"id":"100000381394367","name":"Thành Nguyễn"},"100007264442476":{"id":"100007264442476","name":"Giáp Phạm"},"100000359762118":{"id":"100000359762118","name":"Mi Tra"},"100000708958288":{"id":"100000708958288","name":"Mizu Le"}},"paging":{"cursors":{"after":"MTAwMDA3MzE2NzM1OTEx","before":"MTAwMDA3MzE2NzM1OTEx"},"next":"https://graph.facebook.com/229244010425617_781236128559733/likes?limit=1&summary=1&after=MTAwMDA3MzE2NzM1OTEx"},"summary":{"total_count":25}},"comments":{"data":{"781240755225937":{"id":"781240755225937","from":{"id":"100000381394367","name":"Thành Nguyễn"},"message":"Chủ đề kinh tế đương nhiên là một chủ đề hay rồi, nhưng không nên chỉ post từ không, thời đại thông tin nên mọi người sẽ không thiếu dữ liệu, cái mọi người thiếu là cách dữ liệu đó được thể hiện theo cách trực quan và sinh động. \n\nBạn nên suy nghĩ phương pháp nào đó để đưa các từ bạn muốn mọi người học dễ nhớ và thân thiện, như kiểu chụp hình từ đó trên báo hay một biển hiệu nào đó, đại loại như vậy. Mình gợi ý thế bạn chủ động triển khai. Nếu chưa tìm được phương pháp thì có thể bảo mọi người cho ý kiến cùng bàn bạc rồi cùng tìm ra cách phù hợp nhất.","can_remove":false,"created_time":"2013-12-20T14:14:16+0000","like_count":4,"user_likes":false},"781245828558763":{"id":"781245828558763","from":{"id":"100002911187986","name":"Nghia Bui"},"message":"hay là mỗi ngày trích dẫn một đoạn báo mạng về tình hình kinh tế hiện tại của Nhật cũng đk đấy bạn ơi. Mình cũng đang học về kinh tế nên cũng ham hố...","can_remove":false,"created_time":"2013-12-20T14:27:44+0000","like_count":2,"user_likes":false},"781246198558726":{"id":"781246198558726","from":{"id":"100002911187986","name":"Nghia Bui"},"message":"sau đó cùng dịch và phân tích từ chuyên ngành trong đoạn đó...vậy có ổn ko nhỉ?","can_remove":false,"created_time":"2013-12-20T14:28:27+0000","like_count":2,"user_likes":false},"781247508558595":{"id":"781247508558595","from":{"id":"1026780646","name":"Việt Hưng Khổng"},"message":"Suy nghĩ của mình: từ vựng là gốc, ngữ pháp trời biển gì mà ko hiểu từ thì cũng vẫn là ko hiểu, thế nên trước hết học từ thật nhanh và thật nhiều đã; nhưng nếu mọi người có ý tưởng nào hay thì cùng tiến hành thôi ^^","can_remove":false,"created_time":"2013-12-20T14:31:03+0000","like_count":3,"user_likes":false},"781249301891749":{"id":"781249301891749","from":{"id":"100002911187986","name":"Nghia Bui"},"message":"học từ mà đặt trong văn cảnh cụ thể thì t nghĩ là sẽ nhớ lâu hơn và học được cả cách dùng nữa. có thể tìm một đoạn nói về tình hình kinh tế nào đó đang hot ở Nhật, sau đó tìm ra các từ vựng quan trọng, giải thích nghĩa ra. Mọi người sẽ cũng dịch ở phần bình luận. Như vậy có được ko bạn? mình cũng tìm hiểu qua mấy trang của Nhật, nhưng tin tức thì nhiều, mà ở VN nên không rõ là ở Nhật đang nổi cộn chuyện gì mà theo dõi cho kịp nữa...","can_remove":false,"created_time":"2013-12-20T14:35:30+0000","like_count":1,"user_likes":false},"781261281890551":{"id":"781261281890551","from":{"id":"100001526631937","name":"Tường Oanh Mineko"},"message":"e có ý này nhé: a thử cho các từ đó vào 1 câu xem sao...1 câu có thể nhớ đc mấy từ vựng luôn, như vậy mỗi khi đọc câu vd lên thì nhớ đc nhiều.a thấy sao? Việt Hưng Khổng","message_tags":[{"id":"1026780646","name":"Việt Hưng Khổng","type":"user","offset":154,"length":15}],"can_remove":false,"created_time":"2013-12-20T15:02:53+0000","like_count":2,"user_likes":false},"781351845214828":{"id":"781351845214828","from":{"id":"100004085927294","name":"Amsterdam Sa"},"message":"hoc xong sang nhat ha thảo","can_remove":false,"created_time":"2013-12-20T18:38:37+0000","like_count":0,"user_likes":false}},"paging":{"cursors":{"after":"NzgxMjQwNzU1MjI1OTM3","before":"NzgxMjQwNzU1MjI1OTM3"},"next":"https://graph.facebook.com/229244010425617_781236128559733/comments?limit=1&summary=1&after=NzgxMjQwNzU1MjI1OTM3"},"summary":{"order":"chronological","total_count":7}}}