{"id":"229244010425617_781282381888441","type":"status","from":{"id":"100001458099624","name":"Kham Pha"},"message":"Học tiếng Nhật qua các từ trái nghĩa. Phần 1:\n\nTheo kinh nghiệm của mình thì học từ vựng không gì hiệu quả bằng việc học các cặp từ trái nghĩa (nếu có). Theo một nghiên cứu của các nhà khoa học về trí tuệ con người thì khi ghi nhớ những hình ảnh, từ ngữ, ... trái ngược sẽ mang lại hiệu quả ghi nhớ dài lâu hơn rất nhiều so với ghi nhớ những từ nghĩa na ná nhau. \nKhông tin các bạn thử nhớ nghĩa và phân biệt 2 từ さみしい và さびしい vốn đều có nghĩa là \"buồn, cô đơn\" so với từ 悲しい (buồn) và 嬉しい (vui) xem. \nRất khuyến khích các bạn học theo cách này nên mình liệt kê dưới đây một số từ và các bạn hãy tìm từ trái nghĩa với nó. \n\n１。自動（じどう）\n\n２。陽気（ようき）\n\n３。積極的（せっきょくてき）\n\n４。真面目（まじめ）\n\n５。慎重（しんちょう）\n\n６。暖（あたた）かい\n\nKham Pha \nCộng đồng Việt Nhật \nhttps://www.facebook.com/groups/CongdongVietNhat/","created_time":"2013-12-20T15:52:29+0000","updated_time":"2013-12-22T22:02:49+0000","likes":{"data":{"100005690740678":{"id":"100005690740678","name":"Bui Thanh Tung"},"1026780646":{"id":"1026780646","name":"Việt Hưng Khổng"},"100002449514019":{"id":"100002449514019","name":"Lương Hoa"},"100001723862714":{"id":"100001723862714","name":"Bo Bien Vang"},"100000280776405":{"id":"100000280776405","name":"Viet Nguyen Thanh"},"100002369341715":{"id":"100002369341715","name":"Xu Li"},"569263718":{"id":"569263718","name":"Phuong Thao Tran"},"100001995263460":{"id":"100001995263460","name":"Chibi Yuriko"},"100000603915176":{"id":"100000603915176","name":"悪いな ぁ"},"100006433136978":{"id":"100006433136978","name":"Kiều Anh"},"100003155380603":{"id":"100003155380603","name":"Khuong Pham"},"711491571":{"id":"711491571","name":"Graziani Inaizarg"},"100002472470715":{"id":"100002472470715","name":"Phan Duy Hùng"},"100003913383051":{"id":"100003913383051","name":"Tho Tran"},"100001260645727":{"id":"100001260645727","name":"Ngo Duy Son"},"100005675104683":{"id":"100005675104683","name":"Nguyễn Hoa"},"100002792994108":{"id":"100002792994108","name":"Thuat Le Minh"},"100003814756892":{"id":"100003814756892","name":"Hai Nguyen"},"100005694491959":{"id":"100005694491959","name":"Phuong Truong Thi Thanh"},"100007283947929":{"id":"100007283947929","name":"ʚïɞHương ʚïɞ"},"100005024348771":{"id":"100005024348771","name":"Long Hoàng"},"100004112258038":{"id":"100004112258038","name":"Chung Tran"},"100002237442275":{"id":"100002237442275","name":"Nguyễn Quý Đạt"},"100001526631937":{"id":"100001526631937","name":"Tường Oanh Mineko"}},"paging":{"cursors":{"after":"MTAwMDA1NjkwNzQwNjc4","before":"MTAwMDA1NjkwNzQwNjc4"},"next":"https://graph.facebook.com/229244010425617_781282381888441/likes?limit=1&summary=1&after=MTAwMDA1NjkwNzQwNjc4"},"summary":{"total_count":25}},"comments":{"data":{"781463135203699":{"id":"781463135203699","from":{"id":"100001458099624","name":"Kham Pha"},"message":"Trời, ko ai tìm đc từ trái nghĩa của các từ này ah. Khó vậy sao? Đoán bừa đi xem nào.","can_remove":false,"created_time":"2013-12-20T23:28:08+0000","like_count":0,"user_likes":false},"781531435196869":{"id":"781531435196869","from":{"id":"100001754136107","name":"Nguyễn Tuấn Vũ"},"message":"3. 消極的。","can_remove":false,"created_time":"2013-12-21T02:38:44+0000","like_count":2,"user_likes":false},"781543205195692":{"id":"781543205195692","from":{"id":"100006473220479","name":"万事屋 ズン"},"message":"１．手工。手作業２．陰気。（気分＝窮屈）３．消極的４．不精。横着５．軽率、うっかり６．冷（つめたい）寒　（さむい）","can_remove":false,"created_time":"2013-12-21T03:04:20+0000","like_count":0,"user_likes":false},"781543211862358":{"id":"781543211862358","from":{"id":"100004094346107","name":"Thuy Nga Nguyen"},"message":"1.非自動。","can_remove":false,"created_time":"2013-12-21T03:04:21+0000","like_count":0,"user_likes":false},"781545288528817":{"id":"781545288528817","from":{"id":"100004094346107","name":"Thuy Nga Nguyen"},"message":"2。重たい。４．悪戯　5.無慎重 ６．寒い","can_remove":false,"created_time":"2013-12-21T03:10:38+0000","like_count":0,"user_likes":false},"781548748528471":{"id":"781548748528471","from":{"id":"100000052661831","name":"Shuntoku Pham"},"message":"Đoán bừa theo lời Kham Pha.  1. 自動(じどう)　ー　手動(しゅどう) 2.  陽気(ようき)　ー　陰気(いんき) 3.　積極的(せっきょくてき)　ー　消極的(しょうきょくてき) 4.　真面目(まじめ)　ー　不真面目(ふまじめ) 5.　慎重(しんちょう)　ー　軽率(けいそつ) 6.　暖(あたた)かい　ー　冷(つめ)たい","can_remove":false,"created_time":"2013-12-21T03:20:47+0000","like_count":4,"user_likes":false},"781550388528307":{"id":"781550388528307","from":{"id":"1725907325","name":"Nguyen Van Dung"},"message":"1.受動 かな","can_remove":false,"created_time":"2013-12-21T03:25:50+0000","like_count":0,"user_likes":false},"781572038526142":{"id":"781572038526142","from":{"id":"100001458099624","name":"Kham Pha"},"message":"đã có một bạn trả lời chính xác toàn bộ :)","can_remove":false,"created_time":"2013-12-21T04:25:47+0000","like_count":0,"user_likes":false},"781572791859400":{"id":"781572791859400","from":{"id":"1804434883","name":"Duyen Le"},"message":"Ai dịch hộ mình câu này với \"お客様に信頼される最高品質の実現”","can_remove":false,"created_time":"2013-12-21T04:29:05+0000","like_count":0,"user_likes":false},"781573058526040":{"id":"781573058526040","from":{"id":"100004094346107","name":"Thuy Nga Nguyen"},"message":"だれ？","can_remove":false,"created_time":"2013-12-21T04:30:01+0000","like_count":0,"user_likes":false},"781573901859289":{"id":"781573901859289","from":{"id":"100001458099624","name":"Kham Pha"},"message":"それだけ開示するんだ。","can_remove":false,"created_time":"2013-12-21T04:32:27+0000","like_count":0,"user_likes":false},"782549061761773":{"id":"782549061761773","from":{"id":"100001458099624","name":"Kham Pha"},"message":"Shuntoku Pham là người có đáp án đúng :)","message_tags":[{"id":"100000052661831","name":"Shuntoku Pham","type":"user","offset":0,"length":13}],"can_remove":false,"created_time":"2013-12-22T21:40:04+0000","like_count":0,"user_likes":false},"782557045094308":{"id":"782557045094308","from":{"id":"100001458099624","name":"Kham Pha"},"message":"tìm từ trái nghĩa ko chỉ cần kiến thức tiếng Nhật đâu, ko suy nghĩ cẩn thận là hiểu sai nghĩa đó :)","can_remove":false,"created_time":"2013-12-22T22:02:49+0000","like_count":1,"user_likes":false}},"paging":{"cursors":{"after":"NzgxNDYzMTM1MjAzNjk5","before":"NzgxNDYzMTM1MjAzNjk5"},"next":"https://graph.facebook.com/229244010425617_781282381888441/comments?limit=1&summary=1&after=NzgxNDYzMTM1MjAzNjk5"},"summary":{"order":"chronological","total_count":15}}}