{"id":"229244010425617_781970161819663","type":"link","picture":"https://fbexternal-a.akamaihd.net/safe_image.php?d=AQA5LoVHmd3_1m2T&w=154&h=154&url=http%3A%2F%2Fvtv4.vn%2Fimages%2Fnews%2F20131217%2Flethuhuyen%2Fnews_20131217114202.jpg","link":"http://vtv4.vn/videodetail/5416","from":{"id":"100000359762118","name":"Mi Tra"},"message":"Giới thiệu với các bạn chương trình Japan Link - Tạp chí tiếng Nhật của VTV4, phát sóng vào 20h chủ nhật hàng tuần và phát sóng lại vào 7h30 thứ 3 hàng tuần. Là chương trình tin tức bằng tiếng Nhật và có phụ đề tiếng Việt. Dẫn chương trình là các anh chị \"nói tiếng Nhật như người Nhật\".\nTìm hiểu Việt nam qua tiếng Nhật cũng là điều rất thú vị đó chứ (*^▽^*)\n\nhttp://vtv4.vn/videodetail/5416","created_time":"2013-12-21T21:23:29+0000","updated_time":"2013-12-23T00:12:40+0000","likes":{"data":{"100000271705877":{"id":"100000271705877","name":"Nguyễn Văn Minh"},"100005045432063":{"id":"100005045432063","name":"Thu Nguyễn"},"100006329763157":{"id":"100006329763157","name":"Một Mình Không Sao"},"100000199780783":{"id":"100000199780783","name":"Nguyen Thu Hoai"},"100000045271667":{"id":"100000045271667","name":"Nam Thai Nguyen"},"100001170243317":{"id":"100001170243317","name":"Preetty Zy"},"1783190483":{"id":"1783190483","name":"Trần Xuân Hiệp"},"100000193104491":{"id":"100000193104491","name":"Hac Nguyet"},"1250876107":{"id":"1250876107","name":"Kim Hoan"},"100001754136107":{"id":"100001754136107","name":"Nguyễn Tuấn Vũ"},"100002939968163":{"id":"100002939968163","name":"Ngo Van Duong"},"100001789054977":{"id":"100001789054977","name":"Ginga Idō Shi"},"100002185080351":{"id":"100002185080351","name":"Nguyễn Xuân Bách"},"1146680551":{"id":"1146680551","name":"優しい なぁ"},"100003124640776":{"id":"100003124640776","name":"Cú Mèo Bụng Bự"},"100001723862714":{"id":"100001723862714","name":"Bo Bien Vang"},"100006579366555":{"id":"100006579366555","name":"Thắng Trương"},"100002594112476":{"id":"100002594112476","name":"Thiên Di"},"100002823739664":{"id":"100002823739664","name":"Mikarin Yamada"},"100006773683757":{"id":"100006773683757","name":"毎日 一つ漢字"},"100001495688011":{"id":"100001495688011","name":"Chung Kếu"},"100001416272263":{"id":"100001416272263","name":"Mai PB"},"100002270269220":{"id":"100002270269220","name":"Nguyen Tien Hai"},"100004096243144":{"id":"100004096243144","name":"Shorai Nguyễn"},"100000328742646":{"id":"100000328742646","name":"Trần Giáp"},"100000298989958":{"id":"100000298989958","name":"Anh Đô"},"100002907638629":{"id":"100002907638629","name":"Huyền Trang"},"100002871405403":{"id":"100002871405403","name":"Thach Sanh"},"100001732119820":{"id":"100001732119820","name":"Sapphire Rain"},"1821970083":{"id":"1821970083","name":"Nguyễn Mạnh Cường"},"100006034601024":{"id":"100006034601024","name":"Phuong Chibi"},"100001807609603":{"id":"100001807609603","name":"Nguyễn Khánh Huyền"},"100003686602180":{"id":"100003686602180","name":"Linh Pham"},"100004871794179":{"id":"100004871794179","name":"Lee Mi Nguyen"},"100006531155818":{"id":"100006531155818","name":"Miu Nguyen"},"100006256024092":{"id":"100006256024092","name":"Sơn Phạm"},"100003163690158":{"id":"100003163690158","name":"清嶺"},"100002879943075":{"id":"100002879943075","name":"Lan Phuong"},"1168996060":{"id":"1168996060","name":"Chanh Leo"},"100000062835678":{"id":"100000062835678","name":"Chau Tuyet Bao Ngan"},"100004194542918":{"id":"100004194542918","name":"Đào Hana"},"100005529430352":{"id":"100005529430352","name":"Xu Huyền"},"100003828118579":{"id":"100003828118579","name":"Khanh Linh"},"100000289523222":{"id":"100000289523222","name":"Lệ Giang Ngang Bướng"},"100003893158172":{"id":"100003893158172","name":"Maru MO"},"100000638295545":{"id":"100000638295545","name":"Thu Huyen"},"100003262381147":{"id":"100003262381147","name":"Venusstar Dang"},"100003669604211":{"id":"100003669604211","name":"Mặt Trời Phương Đông"},"100003243216811":{"id":"100003243216811","name":"Anh Dao"},"1318895018":{"id":"1318895018","name":"Van T Tran"},"100000215142696":{"id":"100000215142696","name":"Tăng Anh Thư"},"100002911187986":{"id":"100002911187986","name":"Nghia Bui"},"100002256469546":{"id":"100002256469546","name":"Kun Ngo"},"100004505651073":{"id":"100004505651073","name":"Lão Hạc"},"100003165554056":{"id":"100003165554056","name":"Sâu Bét"},"100001526631937":{"id":"100001526631937","name":"Tường Oanh Mineko"},"100000355576941":{"id":"100000355576941","name":"Hai Do Minh"},"100001806948801":{"id":"100001806948801","name":"Trang Panny"},"100004566972183":{"id":"100004566972183","name":"Tsuyoshi Ta"},"100006745658212":{"id":"100006745658212","name":"Anh Tuan"},"100003888543212":{"id":"100003888543212","name":"Ta Hiep"},"100000226646981":{"id":"100000226646981","name":"My Nguyen"},"100004608482123":{"id":"100004608482123","name":"Bé Bi"},"100000037024030":{"id":"100000037024030","name":"Hung Duc Tran"},"100006430602240":{"id":"100006430602240","name":"Anh Huyền"},"100001731744647":{"id":"100001731744647","name":"Niềm Vui"},"100004889430124":{"id":"100004889430124","name":"Quiet Man"},"100000077028524":{"id":"100000077028524","name":"Ngoc Lan"},"100000074585438":{"id":"100000074585438","name":"Dzung Nguyen Van"},"100005478454231":{"id":"100005478454231","name":"Maruko Chan"},"1103173052":{"id":"1103173052","name":"Uyên Nguyễn"},"100003924638739":{"id":"100003924638739","name":"Toi La Ai"},"569263718":{"id":"569263718","name":"Phuong Thao Tran"},"100003453776798":{"id":"100003453776798","name":"Hằng Pimi"},"100005620957314":{"id":"100005620957314","name":"Nguyễn Trọng Thái"},"1787333994":{"id":"1787333994","name":"Kiên Mậu"},"620066722":{"id":"620066722","name":"Dong Khac Thai"},"100003275789728":{"id":"100003275789728","name":"Quoc Tran"},"100002508122689":{"id":"100002508122689","name":"Vũ Mạnh Tuấn"},"100004800542357":{"id":"100004800542357","name":"Nguyen Luyen"},"100000776461179":{"id":"100000776461179","name":"Jotaro Nguyen"},"100000221147466":{"id":"100000221147466","name":"Kiệt Nguyễn"},"100000168961543":{"id":"100000168961543","name":"Le Kien"},"100000398514180":{"id":"100000398514180","name":"Linh Thu"},"100005903373573":{"id":"100005903373573","name":"HaLinh Phong Phan"},"100001400093122":{"id":"100001400093122","name":"Tu Doan"},"100002099992571":{"id":"100002099992571","name":"Sim Vu"},"100004140850631":{"id":"100004140850631","name":"Huong Trang"},"100001059086820":{"id":"100001059086820","name":"Nguyễn Thành Long"},"100005801442456":{"id":"100005801442456","name":"An Nguyen"},"100000187856584":{"id":"100000187856584","name":"Linh Hachi"},"100000253695926":{"id":"100000253695926","name":"Hikaru Hikaru"},"100001469238963":{"id":"100001469238963","name":"Ferocita Kana Washi"},"100004187348459":{"id":"100004187348459","name":"Phuong Vu"},"1794704776":{"id":"1794704776","name":"Bang Le"},"100005024348771":{"id":"100005024348771","name":"Long Hoàng"},"100001458099624":{"id":"100001458099624","name":"Kham Pha"},"100000492998065":{"id":"100000492998065","name":"か とり"},"100001887921127":{"id":"100001887921127","name":"Kata Apple"},"1026780646":{"id":"1026780646","name":"Việt Hưng Khổng"},"100003205232355":{"id":"100003205232355","name":"Nguyen Viet Tien"},"1303327291":{"id":"1303327291","name":"Nguyễn Thanh Tùng"}},"paging":{"cursors":{"after":"MTAwMDAwMjcxNzA1ODc3","before":"MTAwMDAwMjcxNzA1ODc3"},"next":"https://graph.facebook.com/229244010425617_781970161819663/likes?limit=1&summary=1&after=MTAwMDAwMjcxNzA1ODc3"},"summary":{"total_count":104}},"comments":{"data":{"782069245143088":{"id":"782069245143088","from":{"id":"100002508122689","name":"Vũ Mạnh Tuấn"},"message":"em sẽ chia sẻ cái này với các cô giáo của em. Cảm ơn chị ạ :D","can_remove":false,"created_time":"2013-12-22T01:58:19+0000","like_count":1,"user_likes":false},"782070501809629":{"id":"782070501809629","from":{"id":"100003275789728","name":"Quoc Tran"},"message":"Chương trình này bổ ích đây ! Thanks !","can_remove":false,"created_time":"2013-12-22T02:01:09+0000","like_count":1,"user_likes":false},"782141255135887":{"id":"782141255135887","from":{"id":"100003262381147","name":"Venusstar Dang"},"message":"thanks","can_remove":false,"created_time":"2013-12-22T05:01:13+0000","like_count":1,"user_likes":false},"782276431789036":{"id":"782276431789036","from":{"id":"100006773683757","name":"毎日 一つ漢字"},"message":"どうもありがとうございます。役に立ちます","can_remove":false,"created_time":"2013-12-22T12:03:37+0000","like_count":1,"user_likes":false},"782424248440921":{"id":"782424248440921","from":{"id":"100002185080351","name":"Nguyễn Xuân Bách"},"message":"Có anh Shota kìa Vũ Mạnh Tuấn :)\nHóa ra nhóm này có diễn ở Oshougatsu 2013.","message_tags":[{"id":"100002508122689","name":"Vũ Mạnh Tuấn","type":"user","offset":17,"length":12}],"can_remove":false,"created_time":"2013-12-22T16:46:19+0000","like_count":0,"user_likes":false},"782425265107486":{"id":"782425265107486","from":{"id":"100002508122689","name":"Vũ Mạnh Tuấn"},"message":"ở phút thứ bn :3","can_remove":false,"created_time":"2013-12-22T16:47:56+0000","like_count":0,"user_likes":false},"782425871774092":{"id":"782425871774092","from":{"id":"100002185080351","name":"Nguyễn Xuân Bách"},"message":"Đoạn giữa nói về ban nhạc ý, ko ấn tua đc :(","can_remove":false,"created_time":"2013-12-22T16:49:42+0000","like_count":0,"user_likes":false},"782426225107390":{"id":"782426225107390","from":{"id":"100002508122689","name":"Vũ Mạnh Tuấn"},"message":"ừ. để t xem","can_remove":false,"created_time":"2013-12-22T16:50:30+0000","like_count":0,"user_likes":false},"782432561773423":{"id":"782432561773423","from":{"id":"100002508122689","name":"Vũ Mạnh Tuấn"},"message":"Nguyễn Xuân Bách: ở gần giữa có giới thiệu về cửa hàng sushi giá rẻ của 1 anh ng Nhật đó. mới anh ấy tham gia gian hàng đê","message_tags":[{"id":"100002185080351","name":"Nguyễn Xuân Bách","type":"user","offset":0,"length":16}],"can_remove":false,"created_time":"2013-12-22T17:04:04+0000","like_count":0,"user_likes":false},"782432835106729":{"id":"782432835106729","from":{"id":"100002185080351","name":"Nguyễn Xuân Bách"},"message":"Ý tưởng giống nhau quá :3\nHôm nào đi ăn sushi và triển luôn ko Tuấn))","message_tags":[{"id":"100002508122689","name":"Tuấn","type":"user","offset":63,"length":4}],"can_remove":false,"created_time":"2013-12-22T17:04:34+0000","like_count":0,"user_likes":false},"782433588439987":{"id":"782433588439987","from":{"id":"100002508122689","name":"Vũ Mạnh Tuấn"},"message":":)) đc đấy. rủ bọn nó đê :))","can_remove":false,"created_time":"2013-12-22T17:06:14+0000","like_count":0,"user_likes":false},"782602008423145":{"id":"782602008423145","from":{"id":"100000359762118","name":"Mi Tra"},"message":"Chị MC Hoàng Thảo là trưởng nhóm của Ấm - vì người vô gia cư. Tối thứ 7 hàng tuần nhóm Ấm có đi phát đồ ăn, áo ấm cho người vô gia cư  và có nhiều chương trình dành cho các em nhỏ kém may mắn. Bạn nào ở Hn có thời gian tham gia ủng hộ nhé!\nLink của nhóm Ấm đây:\nhttps://m.facebook.com/amtuthien","can_remove":false,"created_time":"2013-12-23T00:12:40+0000","like_count":3,"user_likes":false}},"paging":{"cursors":{"after":"NzgyMDY5MjQ1MTQzMDg4","before":"NzgyMDY5MjQ1MTQzMDg4"},"next":"https://graph.facebook.com/229244010425617_781970161819663/comments?limit=1&summary=1&after=NzgyMDY5MjQ1MTQzMDg4"},"summary":{"order":"chronological","total_count":12}}}