{"id":"229244010425617_782033798479966","type":"status","from":{"id":"100001076277390","name":"Chu Chiến"},"message":"Mọi người có kinh nghiệm cho em hỏi chút . Khi trở về việt nam qua hải quan e mang theo 7 máy điện thoại bao gồm 2 cái xách tay , 3 cái chỉ xác không hộp và 2 hai máy có hộp trog kí gửi . Khi bị tóm thì nộp phạt và mọi thứ khác nên xử lí ra sao đeer tiết kiệm chi phí nhất . E xin cảm ơn","created_time":"2013-12-22T00:45:30+0000","updated_time":"2013-12-22T14:08:15+0000","likes":{"data":{"100000309153854":{"id":"100000309153854","name":"Pham Thuong"},"100005516772092":{"id":"100005516772092","name":"Para Bol"}},"paging":{"cursors":{"after":"MTAwMDAwMzA5MTUzODU0","before":"MTAwMDAwMzA5MTUzODU0"},"next":"https://graph.facebook.com/229244010425617_782033798479966/likes?limit=1&summary=1&after=MTAwMDAwMzA5MTUzODU0"},"summary":{"total_count":3}},"comments":{"data":{"782187001797979":{"id":"782187001797979","from":{"id":"100005516772092","name":"Para Bol"},"message":"lấy giấy bạc gói lại từng cái, nhét vô khăn tắm... lúc soi nó chỉ có hình ảnh 2D thôi... xui lắm mà dính thì 1 lá (nếu căng) là xong... bữa mình dính nguyên 1 valy 40 kg mỹ phẩm mà có 2tr... tốt nhất đừng để nó biết mang tiền Nhật trong bóp nhiều... để khoảng 2 tờ 5sen thôi... tụi nó cũng muốn nhanh gọn nên ko có ép lắm đâu... tại còn nhiều ng nữa mà... :) \np/s: à quên, để mỗi góc valy 1 cái, đừng túm lại 1 chỗ, cái để đứng, cái để nằm lẫn lộn... đừng sắp ngay ngắn quá... :3 chúc may mắn !","can_remove":false,"created_time":"2013-12-22T07:57:33+0000","like_count":4,"user_likes":false},"782242661792413":{"id":"782242661792413","from":{"id":"100000045271667","name":"Nam Thai Nguyen"},"message":"Cườngg CR","message_tags":[{"id":"100002928863986","name":"Cườngg CR","type":"user","offset":0,"length":9}],"can_remove":false,"created_time":"2013-12-22T10:53:38+0000","like_count":0,"user_likes":false},"782339921782687":{"id":"782339921782687","from":{"id":"100002421205294","name":"Nghèo Kệ Tôi"},"message":"Bạn được mang 5 cái theo đúng luật. Gồm 3 cái cũ và 2 cái mới trong hành lý kí gửi","can_remove":false,"created_time":"2013-12-22T14:08:15+0000","like_count":0,"user_likes":false}},"paging":{"cursors":{"after":"NzgyMTg3MDAxNzk3OTc5","before":"NzgyMTg3MDAxNzk3OTc5"},"next":"https://graph.facebook.com/229244010425617_782033798479966/comments?limit=1&summary=1&after=NzgyMTg3MDAxNzk3OTc5"},"summary":{"order":"chronological","total_count":4}}}