{"id":"229244010425617_782554941761185","type":"status","from":{"id":"100001458099624","name":"Kham Pha"},"message":"Học tiếng Nhật qua các từ trái nghĩa. Phần 2:\n\nTheo như tiêu đề, các bạn hãy tìm các từ trái nghĩa của những từ này xem. Hiệu quả ghi nhớ sẽ rất cao đó :)\n\n１。気が強い: ý chí mạnh mẽ (những người có khả năng đứng lên và nói \"hãy làm theo tôi\")\n\n２。短気（たんき）: dễ nóng giận (đoản khí)\n\n３。正直（しょうじき）: chính trực \n\n４。几帳面（きちょうめん）:có trật tự, ngăn nắp  \n\n５。お喋り（おしゃべり）: lắm mồm, đồ chim lợn, đồ chém gió\n\n６。責任感（せきにんかん）が強い: có trách nhiệm \n\nLink các bài trước.\nhttps://www.facebook.com/notes/783763174973695\n\nKham Pha\nCộng đồng Việt Nhật\nhttps://www.facebook.com/groups/CongdongVietNhat/","created_time":"2013-12-22T21:56:06+0000","updated_time":"2013-12-25T01:58:07+0000","likes":{"data":{"100000707762750":{"id":"100000707762750","name":"Tran Tho"},"100000221147466":{"id":"100000221147466","name":"Kiệt Nguyễn"},"100004262372923":{"id":"100004262372923","name":"Trần Hữu Nam"},"100002290906582":{"id":"100002290906582","name":"Kanashimi No Yukue"},"100002871405403":{"id":"100002871405403","name":"Thach Sanh"},"100005903373573":{"id":"100005903373573","name":"HaLinh Phong Phan"},"612555030":{"id":"612555030","name":"Nguyen Thuy Linh"},"100001526631937":{"id":"100001526631937","name":"Tường Oanh Mineko"},"100005087436518":{"id":"100005087436518","name":"Vũ Trịnh"},"100001723862714":{"id":"100001723862714","name":"Bo Bien Vang"},"100000162434175":{"id":"100000162434175","name":"Hechi Osa"},"1305472811":{"id":"1305472811","name":"Tuan Nguyen"},"100000006500209":{"id":"100000006500209","name":"Hai Nhy"},"100001059086820":{"id":"100001059086820","name":"Nguyễn Thành Long"},"100000359762118":{"id":"100000359762118","name":"Mi Tra"},"569263718":{"id":"569263718","name":"Phuong Thao Tran"},"100004798083725":{"id":"100004798083725","name":"Cappu Ccino"},"100003913383051":{"id":"100003913383051","name":"Tho Tran"},"100005934548279":{"id":"100005934548279","name":"Cậu Bé Buồn"},"100003171672878":{"id":"100003171672878","name":"Tầu Heo"},"100000508720532":{"id":"100000508720532","name":"Ha Lanphi"},"100005073001419":{"id":"100005073001419","name":"An Chelsea"},"100001789054977":{"id":"100001789054977","name":"Ginga Idō Shi"},"100005801442456":{"id":"100005801442456","name":"An Nguyen"},"100003686602180":{"id":"100003686602180","name":"Linh Pham"},"100000280776405":{"id":"100000280776405","name":"Viet Nguyen Thanh"},"100001775719325":{"id":"100001775719325","name":"Nguyễn Ngọc Trang"},"100001100027589":{"id":"100001100027589","name":"Tuấn Anh Lê"},"1308881663":{"id":"1308881663","name":"Nguyễn Đình Lộc"}},"paging":{"cursors":{"after":"MTAwMDAwNzA3NzYyNzUw","before":"MTAwMDAwNzA3NzYyNzUw"},"next":"https://graph.facebook.com/229244010425617_782554941761185/likes?limit=1&summary=1&after=MTAwMDAwNzA3NzYyNzUw"},"summary":{"total_count":32}},"comments":{"data":{"782631101753569":{"id":"782631101753569","from":{"id":"100001458099624","name":"Kham Pha"},"message":"mời mọi người vào tìm đáp án Chiếc Lá Cuối Cùng Shuntoku Pham Thuy Nga Nguyen","message_tags":[{"id":"100006469315671","name":"Chiếc Lá Cuối Cùng","type":"user","offset":29,"length":18},{"id":"100000052661831","name":"Shuntoku Pham","type":"user","offset":48,"length":13},{"id":"100004094346107","name":"Thuy Nga Nguyen","type":"user","offset":62,"length":15}],"can_remove":false,"created_time":"2013-12-23T01:34:04+0000","like_count":1,"user_likes":false},"782638665086146":{"id":"782638665086146","from":{"id":"100004094346107","name":"Thuy Nga Nguyen"},"message":"1.気が弱い3.不直4. 混乱5.無口6.無責任","can_remove":false,"created_time":"2013-12-23T01:54:25+0000","like_count":0,"user_likes":false},"782664521750227":{"id":"782664521750227","from":{"id":"100001458099624","name":"Kham Pha"},"message":"5 hơi khác đáp án nhưng chấp nhận được. Còn 3,4 thì phải xem lại :)","can_remove":false,"created_time":"2013-12-23T02:55:29+0000","like_count":0,"user_likes":false},"782685861748093":{"id":"782685861748093","from":{"id":"100000052661831","name":"Shuntoku Pham"},"message":"Nộp bài 1.　気が弱い 2.　暢気(のんき) 3.　不正直(ふしょうじき) 4.　ずぼら 5.　寡黙(かもく) 6.　責任感がない","can_remove":false,"created_time":"2013-12-23T04:03:57+0000","like_count":0,"user_likes":false},"782740721742607":{"id":"782740721742607","from":{"id":"100000381394367","name":"Thành Nguyễn"},"message":"5.口堅い","can_remove":false,"created_time":"2013-12-23T06:34:39+0000","like_count":0,"user_likes":false},"783272471689432":{"id":"783272471689432","from":{"id":"779812883","name":"Nguyen NgocAnh"},"message":"1. 気が弱い、2．のんき、3．うそつき、４．だらしない、５．大人しい、５．無責任","can_remove":false,"created_time":"2013-12-24T05:46:20+0000","like_count":1,"user_likes":false},"783754864974526":{"id":"783754864974526","from":{"id":"779812883","name":"Nguyen NgocAnh"},"message":"Vậy đáp án cuối cùng là gì hả bạn?","can_remove":false,"created_time":"2013-12-25T01:50:17+0000","like_count":0,"user_likes":false},"783757171640962":{"id":"783757171640962","from":{"id":"100001458099624","name":"Kham Pha"},"message":"là như của bạn đó :)","can_remove":false,"created_time":"2013-12-25T01:58:07+0000","like_count":0,"user_likes":false}},"paging":{"cursors":{"after":"NzgyNjMxMTAxNzUzNTY5","before":"NzgyNjMxMTAxNzUzNTY5"},"next":"https://graph.facebook.com/229244010425617_782554941761185/comments?limit=1&summary=1&after=NzgyNjMxMTAxNzUzNTY5"},"summary":{"order":"chronological","total_count":9}}}