{"id":"229244010425617_782663985083614","type":"photo","object_id":"600837953298166","picture":"https://fbcdn-photos-a-a.akamaihd.net/hphotos-ak-ash3/t1.0-0/1501690_600837953298166_417147461_s.jpg","link":"https://www.facebook.com/betoaji/photos/a.452236554824974.95612.452203378161625/600837953298166/?type=1","from":{"id":"100000359762118","name":"Mi Tra"},"message":"Bạn nào ở HN muốn học nấu món Nhật thì nhanh tay đăng ký nhé (^○^)","created_time":"2013-12-23T02:53:56+0000","updated_time":"2013-12-23T03:45:26+0000","likes":{"data":{"100001526631937":{"id":"100001526631937","name":"Tường Oanh Mineko"},"100006256024092":{"id":"100006256024092","name":"Sơn Phạm"},"100002939968163":{"id":"100002939968163","name":"Ngo Van Duong"},"100002329499061":{"id":"100002329499061","name":"Lovestorm Cutin"},"100004096243144":{"id":"100004096243144","name":"Shorai Nguyễn"},"100001416272263":{"id":"100001416272263","name":"Mai PB"},"100002508122689":{"id":"100002508122689","name":"Vũ Mạnh Tuấn"},"100006314431619":{"id":"100006314431619","name":"Hà Hiền Hòa"},"569263718":{"id":"569263718","name":"Phuong Thao Tran"},"1082956399":{"id":"1082956399","name":"Danny Dee Nguyen IE"},"100000062237077":{"id":"100000062237077","name":"Khánh Khờ Khạo"},"100000381394367":{"id":"100000381394367","name":"Thành Nguyễn"},"100001887921127":{"id":"100001887921127","name":"Kata Apple"},"1250063068":{"id":"1250063068","name":"Tuấn Tử Tế"},"100003933466469":{"id":"100003933466469","name":"Phong Aki"}},"paging":{"cursors":{"after":"MTAwMDAxNTI2NjMxOTM3","before":"MTAwMDAxNTI2NjMxOTM3"},"next":"https://graph.facebook.com/229244010425617_782663985083614/likes?limit=1&summary=1&after=MTAwMDAxNTI2NjMxOTM3"},"summary":{"total_count":16}},"comments":{"data":{"782665671750112":{"id":"782665671750112","from":{"id":"100000062237077","name":"Khánh Khờ Khạo"},"message":"muốn có ở hcm nữa cơ = 3=","can_remove":false,"created_time":"2013-12-23T02:58:33+0000","like_count":2,"user_likes":false},"782666308416715":{"id":"782666308416715","from":{"id":"100000359762118","name":"Mi Tra"},"message":"Anh Phong Aki ơi! Có request ở HCM kìa (^^)","message_tags":[{"id":"100003933466469","name":"Phong Aki","type":"user","offset":4,"length":9}],"can_remove":false,"created_time":"2013-12-23T03:01:17+0000","like_count":1,"user_likes":false},"782666761750003":{"id":"782666761750003","from":{"id":"100003933466469","name":"Phong Aki"},"message":"Hihi. Cám ơn cả nhà. Sẽ cố gắng triển khai sau khi ra quân ở Hà Nội. :)","can_remove":false,"created_time":"2013-12-23T03:03:23+0000","like_count":3,"user_likes":false},"782667505083262":{"id":"782667505083262","from":{"id":"100001793077006","name":"Hồng Hải Hà"},"message":"chỉ tổ chức một ngày này học thôi à ?","can_remove":false,"created_time":"2013-12-23T03:05:35+0000","like_count":0,"user_likes":false},"782668855083127":{"id":"782668855083127","from":{"id":"100003933466469","name":"Phong Aki"},"message":"Xin lỗi bạn Hồng Hải Hà mình không hiểu rõ ý bạn lắm; nếu trả lời không đúng mong bạn bỏ qua. Mỗi lần mình sẽ chỉ giới thiệu 2 món thôi bạn và sẽ tổ chức định kỳ hàng tháng. Cách này Betoaji cũng đang làm ở 8 tỉnh thành phố Nhật Bản khi giới thiệu món ăn Việt Nam.","message_tags":[{"id":"100001793077006","name":"Hồng Hải Hà","type":"user","offset":12,"length":11}],"can_remove":false,"created_time":"2013-12-23T03:08:36+0000","like_count":1,"user_likes":false},"782669478416398":{"id":"782669478416398","from":{"id":"100004094346107","name":"Thuy Nga Nguyen"},"message":"uh bạn cố gắng tổ chức ở hcm nhé :)","can_remove":false,"created_time":"2013-12-23T03:09:41+0000","like_count":1,"user_likes":false},"782680968415249":{"id":"782680968415249","from":{"id":"620066722","name":"Dong Khac Thai"},"message":"Ủng hộ làm ở tp HCM a Phong Aki","message_tags":[{"id":"100003933466469","name":"Phong Aki","type":"user","offset":22,"length":9}],"can_remove":false,"created_time":"2013-12-23T03:45:26+0000","like_count":1,"user_likes":false}},"paging":{"cursors":{"after":"NzgyNjY1NjcxNzUwMTEy","before":"NzgyNjY1NjcxNzUwMTEy"},"next":"https://graph.facebook.com/229244010425617_782663985083614/comments?limit=1&summary=1&after=NzgyNjY1NjcxNzUwMTEy"},"summary":{"order":"chronological","total_count":7}}}