{"id":"229244010425617_782647405085272","type":"status","from":{"id":"100000359762118","name":"Mi Tra"},"message":"Group mình có bạn muốn cùng mình ôn thi N1 không? Mấy năm rồi ko thi, định chăm chỉ học hành để thi lại mà học một mình nản quá! \nMình sẽ cùng học bằng cách hàng ngày mình đăng 1 hoặc 2 câu hỏi. Mọi người cùng chọn đáp án và  giải thích ngữ pháp. \nHoặc mọi người có cách học nào hiệu quả hơn thì đưa ra nhé! \nMong sự ủng hộ của các bạn.","created_time":"2013-12-23T02:21:45+0000","updated_time":"2013-12-23T14:54:35+0000","likes":{"data":{"100005801442456":{"id":"100005801442456","name":"An Nguyen"},"100001526631937":{"id":"100001526631937","name":"Tường Oanh Mineko"},"100001416272263":{"id":"100001416272263","name":"Mai PB"},"100002176216355":{"id":"100002176216355","name":"Bi Bo"},"657157297":{"id":"657157297","name":"Phan Dien"},"1821970083":{"id":"1821970083","name":"Nguyễn Mạnh Cường"},"100003250657085":{"id":"100003250657085","name":"Nhất Kiếm Vô Tình"},"100004112258038":{"id":"100004112258038","name":"Chung Tran"},"1026780646":{"id":"1026780646","name":"Việt Hưng Khổng"},"100001079726837":{"id":"100001079726837","name":"Hatenai Yume"},"100000271705877":{"id":"100000271705877","name":"Nguyễn Văn Minh"},"100006738850876":{"id":"100006738850876","name":"Ho Tuan"},"100004346623532":{"id":"100004346623532","name":"Chiisai Namida"},"100003913383051":{"id":"100003913383051","name":"Tho Tran"},"1146680551":{"id":"1146680551","name":"優しい なぁ"},"100001553557343":{"id":"100001553557343","name":"Lin Huỳnh"},"100005703791922":{"id":"100005703791922","name":"Hoa Tiên Tử"},"100005866751996":{"id":"100005866751996","name":"Nam Nguyen"},"100003742517006":{"id":"100003742517006","name":"Huế Himawari"},"569263718":{"id":"569263718","name":"Phuong Thao Tran"},"100004096243144":{"id":"100004096243144","name":"Shorai Nguyễn"},"1535104031":{"id":"1535104031","name":"Hoang Nguyen"},"1276744041":{"id":"1276744041","name":"Oanh Pham"},"100003733287041":{"id":"100003733287041","name":"Phi Hoàng"},"100004630594954":{"id":"100004630594954","name":"Hóa Hero"},"100001754136107":{"id":"100001754136107","name":"Nguyễn Tuấn Vũ"},"100003165554056":{"id":"100003165554056","name":"Sâu Bét"},"100005211189763":{"id":"100005211189763","name":"Oliveu Cchann"},"100003761520870":{"id":"100003761520870","name":"Strange Moon"},"100004187348459":{"id":"100004187348459","name":"Phuong Vu"},"100001746792236":{"id":"100001746792236","name":"Izaki Nguyen"},"100000175468518":{"id":"100000175468518","name":"Chj Koj"},"100001880901011":{"id":"100001880901011","name":"Số Không"},"100001458099624":{"id":"100001458099624","name":"Kham Pha"},"100001331873471":{"id":"100001331873471","name":"Toan Khanh"},"1250063068":{"id":"1250063068","name":"Tuấn Tử Tế"},"100006709392146":{"id":"100006709392146","name":"Chu Bá Đại"},"1775693736":{"id":"1775693736","name":"Pig Let"},"100000062237077":{"id":"100000062237077","name":"Khánh Khờ Khạo"},"1787717432":{"id":"1787717432","name":"Nhi Nguyen"},"100003667085290":{"id":"100003667085290","name":"Xanh Xanh"},"100003986351970":{"id":"100003986351970","name":"Kiep Phong Tran"},"100002911187986":{"id":"100002911187986","name":"Nghia Bui"},"100003515531602":{"id":"100003515531602","name":"Oanh Vô Tình"},"100000106448969":{"id":"100000106448969","name":"Dương Nguyễn"},"1214366824":{"id":"1214366824","name":"Nguyễn Minh Hà Bách"},"100001324611896":{"id":"100001324611896","name":"Meo Luoi"},"100004446185815":{"id":"100004446185815","name":"Hiền Jp"},"100003059002710":{"id":"100003059002710","name":"Hạnh Nhân"},"100000289523222":{"id":"100000289523222","name":"Lệ Giang Ngang Bướng"},"100000027754899":{"id":"100000027754899","name":"Hoang Van Ba"},"100001887921127":{"id":"100001887921127","name":"Kata Apple"}},"paging":{"cursors":{"after":"MTAwMDA1ODAxNDQyNDU2","before":"MTAwMDA1ODAxNDQyNDU2"},"next":"https://graph.facebook.com/229244010425617_782647405085272/likes?limit=1&summary=1&after=MTAwMDA1ODAxNDQyNDU2"},"summary":{"total_count":54}},"comments":{"data":{"782649731751706":{"id":"782649731751706","from":{"id":"100003059002710","name":"Hạnh Nhân"},"message":"Nhưng như vậy mới chỉ giải quyết khâu ngữ pháp ,còn rất nhiều vấn đề nữa cũng khó như kanj từ vựng đọc hiểu","can_remove":false,"created_time":"2013-12-23T02:25:43+0000","like_count":0,"user_likes":false},"782650121751667":{"id":"782650121751667","from":{"id":"100000359762118","name":"Mi Tra"},"message":"Có đăng cả từ vựng, đọc hiểu. Còn nghe thì phải tự luyện thôi","can_remove":false,"created_time":"2013-12-23T02:26:42+0000","like_count":1,"user_likes":false},"782652541751425":{"id":"782652541751425","from":{"id":"1214366824","name":"Nguyễn Minh Hà Bách"},"message":"私もN1合格したいです。よろしくおねがいします。","can_remove":false,"created_time":"2013-12-23T02:32:49+0000","like_count":2,"user_likes":false},"782652628418083":{"id":"782652628418083","from":{"id":"100005216196472","name":"Anh Nhớ"},"message":"Cho mình hỏi trên N1 là N0 phải không vậy ???","can_remove":false,"created_time":"2013-12-23T02:33:02+0000","like_count":0,"user_likes":false},"782657931750886":{"id":"782657931750886","from":{"id":"1787333994","name":"Kiên Mậu"},"message":"phải bạn ạ, có cả N-1 nữa","can_remove":false,"created_time":"2013-12-23T02:45:22+0000","like_count":1,"user_likes":false},"782658398417506":{"id":"782658398417506","from":{"id":"100002911187986","name":"Nghia Bui"},"message":"Có em chị ơi","can_remove":false,"created_time":"2013-12-23T02:46:17+0000","like_count":1,"user_likes":false},"782658758417470":{"id":"782658758417470","from":{"id":"100000359762118","name":"Mi Tra"},"message":"Anh Nhớ:  Trong kỳ thi năng lực tiếng Nhật thì N1 là cao nhất. \nN0 thì ko cần phải thi vì đó là native level hoặc là ko có gì ( ko bít tiếng nhật ý ^^)","can_remove":false,"created_time":"2013-12-23T02:47:13+0000","like_count":0,"user_likes":false},"782662685083744":{"id":"782662685083744","from":{"id":"100000359762118","name":"Mi Tra"},"message":"Mọi người cho ý kiến \nVới ngữ pháp và từ vựng thì thì 1 câu hay 2 câu là hợp lý? \nVí dụ như ngữ pháp, 1 câu có 4 đáp án, mỗi đáp án là 1 mẫu câu. \nTrong 1 ngày mình làm 1 câu thôi nhưng phải nắm chắc 4 mẫu câu đó.","can_remove":false,"created_time":"2013-12-23T02:50:36+0000","like_count":1,"user_likes":false},"782662871750392":{"id":"782662871750392","from":{"id":"100000062237077","name":"Khánh Khờ Khạo"},"message":"Có em chị ơi","can_remove":false,"created_time":"2013-12-23T02:51:15+0000","like_count":1,"user_likes":false},"782664698416876":{"id":"782664698416876","from":{"id":"100002911187986","name":"Nghia Bui"},"message":"Nếu mà lồng được cả ngư pháp cả từ vựng vào trong 1 bài đọc hiểu, sau đó phân tích thì có ổn ko chị...","can_remove":false,"created_time":"2013-12-23T02:56:09+0000","like_count":0,"user_likes":false},"782664765083536":{"id":"782664765083536","from":{"id":"100001458099624","name":"Kham Pha"},"message":"em cũng muốn ôn :)","can_remove":false,"created_time":"2013-12-23T02:56:19+0000","like_count":1,"user_likes":false},"782665161750163":{"id":"782665161750163","from":{"id":"100000359762118","name":"Mi Tra"},"message":"Nhưng vậy thì rộng quá! \nCứ chia ra như trong bài thi thì hay hơn Nghia Bui ạ","message_tags":[{"id":"100002911187986","name":"Nghia Bui","type":"user","offset":66,"length":9}],"can_remove":false,"created_time":"2013-12-23T02:57:09+0000","like_count":1,"user_likes":false},"782665568416789":{"id":"782665568416789","from":{"id":"100001458099624","name":"Kham Pha"},"message":"em thấy tập trung vào một phần thôi, đừng ham nhiều, ko hiệu quả đâu.","can_remove":false,"created_time":"2013-12-23T02:58:16+0000","like_count":0,"user_likes":false},"782665655083447":{"id":"782665655083447","from":{"id":"100001331873471","name":"Toan Khanh"},"message":"Nếu có thể bạn dùng giáo trình Somatome N1 đi. Mỗi ngày theo như giáo trình 1 ngày trung bình 4 mẫu ngữ pháp. Và các từ vựng Goi nữa. Thế dễ học hơn vì mình nghĩ Somatome thì ai cũng có và dễ ôn.","can_remove":false,"created_time":"2013-12-23T02:58:30+0000","like_count":1,"user_likes":false},"782666488416697":{"id":"782666488416697","from":{"id":"100000359762118","name":"Mi Tra"},"message":"Mình ko có giáo trình đó. Phải ra hiệu sách kiếm mới được ^^","can_remove":false,"created_time":"2013-12-23T03:02:14+0000","like_count":1,"user_likes":false},"782674601749219":{"id":"782674601749219","from":{"id":"100000308217777","name":"Nguyễn Sơn Tùng"},"message":"đang ôn n2","can_remove":false,"created_time":"2013-12-23T03:23:22+0000","like_count":2,"user_likes":false},"782675078415838":{"id":"782675078415838","from":{"id":"100003733287041","name":"Phi Hoàng"},"message":"Em nè . Cho em thi với :v","can_remove":false,"created_time":"2013-12-23T03:24:47+0000","like_count":1,"user_likes":false},"782677128415633":{"id":"782677128415633","from":{"id":"100001580479641","name":"Hà Xuân Thủy"},"message":"Chưa biết có đậu n2 chưa nhưng cũng xin đc phép tham gia:d","can_remove":false,"created_time":"2013-12-23T03:32:22+0000","like_count":1,"user_likes":false},"782681421748537":{"id":"782681421748537","from":{"id":"100001416272263","name":"Mai PB"},"message":"Trên N1 chưa phải native level đâu Mi Tra, còn lâu lắm. :-(","can_remove":false,"created_time":"2013-12-23T03:47:14+0000","like_count":0,"user_likes":false},"782681821748497":{"id":"782681821748497","from":{"id":"100000359762118","name":"Mi Tra"},"message":"Ý anh là N ko có số bên cạnh mới đúng là N = Native phải ko ạ ^^","can_remove":false,"created_time":"2013-12-23T03:48:46+0000","like_count":1,"user_likes":false},"782682975081715":{"id":"782682975081715","from":{"id":"1787333994","name":"Kiên Mậu"},"message":"nếu tập trung thì học độ 2 năm từ không biết gì có thể đỗ N1, nhưng sau đó thì có nguy cơ thêm nhiều năm nữa, ngay cả đang ở Nhật, vẫn chưa nhìn thấy bóng dáng native ở chỗ nào :))","can_remove":false,"created_time":"2013-12-23T03:52:52+0000","like_count":2,"user_likes":false},"782695901747089":{"id":"782695901747089","from":{"id":"1580589258","name":"Kani Oboeru"},"message":"Có bạn nào cùng ôn n2 tháng 7 ko ta?","can_remove":false,"created_time":"2013-12-23T04:35:14+0000","like_count":2,"user_likes":false},"782766411740038":{"id":"782766411740038","from":{"id":"100005045432063","name":"Thu Nguyễn"},"message":"vãi","can_remove":false,"created_time":"2013-12-23T07:23:54+0000","like_count":0,"user_likes":false},"782768251739854":{"id":"782768251739854","from":{"id":"100001416272263","name":"Mai PB"},"message":"Là sao bạn Thu Nguyễn? Tránh nói những từ vô nghĩa khó hiểu nhé, nơi public mà.","can_remove":false,"created_time":"2013-12-23T07:30:43+0000","like_count":2,"user_likes":false},"782776451739034":{"id":"782776451739034","from":{"id":"100004094346107","name":"Thuy Nga Nguyen"},"message":"mình cũng đang ôn n2 tháng 7 thi nè!","can_remove":false,"created_time":"2013-12-23T07:35:57+0000","like_count":0,"user_likes":false},"782786018404744":{"id":"782786018404744","from":{"id":"1146680551","name":"優しい なぁ"},"message":"Vote cho ngữ pháp vs từ vựng.quan trọng là cách sử dụng.chỉ có nhưng anh /chị ở lâu rồi mới biết rõ nhất.hehe Mi tra nhỉ","can_remove":false,"created_time":"2013-12-23T07:41:41+0000","like_count":1,"user_likes":false},"782795841737095":{"id":"782795841737095","from":{"id":"100004800542357","name":"Nguyen Luyen"},"message":"Có bạn nào ôn thi n2 cho mình ôn với.tk","can_remove":false,"created_time":"2013-12-23T08:23:58+0000","like_count":1,"user_likes":false},"782812578402088":{"id":"782812578402088","from":{"id":"100001079726837","name":"Hatenai Yume"},"message":"e đề nghị mình lập group riêng đi ạh nếu để chung vô đây thì khó nhìn lắm!...hùi đó e cũng có lập 1 group các bạn thân nhưng có 1 mình e post kà giống tự kỷ lắm! :v ai có quyết tâm lấy N1 giống e thì vào group đi ạ!...chị Mi Tra lập group nha chị! :) xong e với chị mộ binh! :v","can_remove":false,"created_time":"2013-12-23T09:30:38+0000","like_count":2,"user_likes":false},"782901041726575":{"id":"782901041726575","from":{"id":"100000359762118","name":"Mi Tra"},"message":"Hatenai Yume: công nhận là để chung ở đây sẽ khó nhìn nhưng mà lập group mới thì sẽ ít bạn xem được. Hàng ngày chịu khoa update thôi ^^","can_remove":false,"created_time":"2013-12-23T13:47:21+0000","like_count":2,"user_likes":false},"782929015057111":{"id":"782929015057111","from":{"id":"657157297","name":"Phan Dien"},"message":"Thich qua....","can_remove":false,"created_time":"2013-12-23T14:54:35+0000","like_count":0,"user_likes":false}},"paging":{"cursors":{"after":"NzgyNjQ5NzMxNzUxNzA2","before":"NzgyNjQ5NzMxNzUxNzA2"},"next":"https://graph.facebook.com/229244010425617_782647405085272/comments?limit=1&summary=1&after=NzgyNjQ5NzMxNzUxNzA2"},"summary":{"order":"chronological","total_count":30}}}