{"id":"229244010425617_782693388414007","type":"status","from":{"id":"100001560048396","name":"Dưa Hấu Lạnh"},"message":"Xin chào nhé !! \nTự giới thiệu tôi tên là Nhân :) \nHiện đang ở Hà Nội, rất thích học tiếng Nhật nên tham gia vào group này hi vọng học hỏi được 1 chút tiếng Nhật từ các bạn sinh viên đang du học bên Nhật và cả những ai thích học tiếng Nhật giống mình mà vẫn đang sống ở Việt Nam :).\nChúc 1 ngày tốt lành :)","created_time":"2013-12-23T04:26:58+0000","updated_time":"2013-12-23T22:31:21+0000","likes":{"data":{"100004409010627":{"id":"100004409010627","name":"Diep Quynh Anh"},"100002147884296":{"id":"100002147884296","name":"Ngoc Tran"},"100001357646859":{"id":"100001357646859","name":"Rối Ơi Giúp Tôi"},"100001526631937":{"id":"100001526631937","name":"Tường Oanh Mineko"},"100004873890914":{"id":"100004873890914","name":"Hiền Trần"},"100002421205294":{"id":"100002421205294","name":"Nghèo Kệ Tôi"},"100003899510131":{"id":"100003899510131","name":"Hoa Oải Hương"},"100006043302772":{"id":"100006043302772","name":"Nhung Trương"},"100001806981402":{"id":"100001806981402","name":"Cookie Panda"},"100006715147567":{"id":"100006715147567","name":"Hoa Ngo"},"100004981118470":{"id":"100004981118470","name":"Anh Pham"},"100001836718429":{"id":"100001836718429","name":"Hà Vũ"},"100005932657713":{"id":"100005932657713","name":"Nêkô Chan"},"100004450419218":{"id":"100004450419218","name":"Sole Heart"},"569263718":{"id":"569263718","name":"Phuong Thao Tran"},"100004457885806":{"id":"100004457885806","name":"Hoa Huong Duong"},"100001416272263":{"id":"100001416272263","name":"Mai PB"},"100002990183494":{"id":"100002990183494","name":"Lee Mi Su"},"100006690902901":{"id":"100006690902901","name":"Nhóc Maruko"},"100004039857628":{"id":"100004039857628","name":"Yen Chu"},"100002329499061":{"id":"100002329499061","name":"Lovestorm Cutin"},"100000309153854":{"id":"100000309153854","name":"Pham Thuong"},"100002408046134":{"id":"100002408046134","name":"Nguyễn Hoàng Giang"},"1813611352":{"id":"1813611352","name":"To Đùng"},"100004086121214":{"id":"100004086121214","name":"Hằng Mít"},"100003713338315":{"id":"100003713338315","name":"Giau Lee"},"100002176216355":{"id":"100002176216355","name":"Bi Bo"},"100001971653484":{"id":"100001971653484","name":"Sakura Sakura"},"100005801442456":{"id":"100005801442456","name":"An Nguyen"},"100002099992571":{"id":"100002099992571","name":"Sim Vu"},"100002804485809":{"id":"100002804485809","name":"Vy Nguyễn"},"683231044":{"id":"683231044","name":"Hoàng Hải Đăng"},"100003165554056":{"id":"100003165554056","name":"Sâu Bét"},"100003686602180":{"id":"100003686602180","name":"Linh Pham"},"100003244177763":{"id":"100003244177763","name":"Mèo Mun"},"100007236487366":{"id":"100007236487366","name":"Thanh Tam"},"100000162434175":{"id":"100000162434175","name":"Hechi Osa"},"100000603915176":{"id":"100000603915176","name":"悪いな ぁ"},"100004299729946":{"id":"100004299729946","name":"Lucia Norwood"},"100004371458308":{"id":"100004371458308","name":"Huynh Hong Nhung"},"100005440689746":{"id":"100005440689746","name":"Trang Mapy"},"100003875131996":{"id":"100003875131996","name":"Ngoc Anh"},"100004492933662":{"id":"100004492933662","name":"Sorakira Bui"},"1082956399":{"id":"1082956399","name":"Danny Dee Nguyen IE"},"100003187347123":{"id":"100003187347123","name":"Phi Duong"},"100000019126977":{"id":"100000019126977","name":"Nguyen Thi Ngoc Anh"},"100007015445810":{"id":"100007015445810","name":"Hong Thanh Nguyen"},"100004057444453":{"id":"100004057444453","name":"Vân Este"},"100005866751996":{"id":"100005866751996","name":"Nam Nguyen"},"100004122031885":{"id":"100004122031885","name":"Bông Cải"}},"paging":{"cursors":{"after":"MTAwMDA0NDA5MDEwNjI3","before":"MTAwMDA0NDA5MDEwNjI3"},"next":"https://graph.facebook.com/229244010425617_782693388414007/likes?limit=1&summary=1&after=MTAwMDA0NDA5MDEwNjI3"},"summary":{"total_count":50}},"comments":{"data":{"782694511747228":{"id":"782694511747228","from":{"id":"100001560048396","name":"Dưa Hấu Lạnh"},"message":"mình muốn học tiếng Nhật nhưng vì k có thời gian cho việc học nên chỉ mầy mò tự học qua Internet, sách vở thôi, nên đã mần được 1 thời gian mà chỉ giởi thiệu được bản thân thôi :D.","can_remove":false,"created_time":"2013-12-23T04:30:40+0000","like_count":1,"user_likes":false},"782694761747203":{"id":"782694761747203","from":{"id":"100002451143782","name":"New Light"},"message":"Bạn thử giới thiệu đi ;) Douzo","can_remove":false,"created_time":"2013-12-23T04:31:30+0000","like_count":1,"user_likes":false},"782695451747134":{"id":"782695451747134","from":{"id":"100000019126977","name":"Nguyen Thi Ngoc Anh"},"message":"Chuan do ban duahau lanh ah. Minh cug oha noi va metat ca nhug j lien quan den nhat.","can_remove":false,"created_time":"2013-12-23T04:33:42+0000","like_count":1,"user_likes":false},"782696221747057":{"id":"782696221747057","from":{"id":"100001560048396","name":"Dưa Hấu Lạnh"},"message":"máy này của mình kô có cái font tiếng nhật nên k viết được tiếng Nhật ò,Ó","can_remove":false,"created_time":"2013-12-23T04:35:56+0000","like_count":0,"user_likes":false},"782696431747036":{"id":"782696431747036","from":{"id":"100002451143782","name":"New Light"},"message":"Bạn có thể viết theo Romaji cũng được :)","can_remove":false,"created_time":"2013-12-23T04:36:24+0000","like_count":0,"user_likes":false},"782696465080366":{"id":"782696465080366","from":{"id":"100001560048396","name":"Dưa Hấu Lạnh"},"message":"Nguyen Thi Ngoc Anh ukm e :) tiếng Nhật hay mà :v với cả văn hóa làm việc của người Nhật cũng hay :D","message_tags":[{"id":"100000019126977","name":"Nguyen Thi Ngoc Anh","type":"user","offset":0,"length":19}],"can_remove":false,"created_time":"2013-12-23T04:36:32+0000","like_count":1,"user_likes":false},"782696585080354":{"id":"782696585080354","from":{"id":"100002451143782","name":"New Light"},"message":"Watashi ha Minh desu. Bach Khoa daigaku no gakusei desu....","can_remove":false,"created_time":"2013-12-23T04:37:05+0000","like_count":0,"user_likes":false},"782696828413663":{"id":"782696828413663","from":{"id":"100001560048396","name":"Dưa Hấu Lạnh"},"message":"New Light watashi wa chứ đâu phải là ha ò,Ó","message_tags":[{"id":"100002451143782","name":"New Light","type":"user","offset":0,"length":9}],"can_remove":false,"created_time":"2013-12-23T04:37:47+0000","like_count":0,"user_likes":false},"782697071746972":{"id":"782697071746972","from":{"id":"100000019126977","name":"Nguyen Thi Ngoc Anh"},"message":"New light: sugoiiiii ne","can_remove":false,"created_time":"2013-12-23T04:38:24+0000","like_count":0,"user_likes":false},"782697088413637":{"id":"782697088413637","from":{"id":"100001560048396","name":"Dưa Hấu Lạnh"},"message":"chữ wa nhìn giống chứ ha nhưng nó là trợ từ được đọc là \" wa \" và viết là \" ha \" :)","can_remove":false,"created_time":"2013-12-23T04:38:25+0000","like_count":1,"user_likes":false},"782697365080276":{"id":"782697365080276","from":{"id":"100000019126977","name":"Nguyen Thi Ngoc Anh"},"message":"Watasi mo","can_remove":false,"created_time":"2013-12-23T04:39:03+0000","like_count":0,"user_likes":false},"782698535080159":{"id":"782698535080159","from":{"id":"100000019126977","name":"Nguyen Thi Ngoc Anh"},"message":"Hajimemasite watasi ha anh desu. Nihongo ga daisukidesu. Hontouni benkyosi tai desu. Jorosiku onegaisimasu ne","can_remove":false,"created_time":"2013-12-23T04:40:40+0000","like_count":1,"user_likes":false},"782698808413465":{"id":"782698808413465","from":{"id":"100002451143782","name":"New Light"},"message":"Dưa Hấu Lạnh wa: わ, ha: は, cách viết khác nhau mà.... *Mạnh dạn* trong trường hợp này ha là \"trợ từ???\" nên đọc là wa.... (Mong được góp ý)","message_tags":[{"id":"100001560048396","name":"Dưa Hấu Lạnh","type":"user","offset":0,"length":12}],"can_remove":false,"created_time":"2013-12-23T04:41:33+0000","like_count":0,"user_likes":false},"782699708413375":{"id":"782699708413375","from":{"id":"100001560048396","name":"Dưa Hấu Lạnh"},"message":"ukm :) romaji trong mấy cuốn mình học thì nó toàn ghi là watashi wa chứ k có ghi là \" ha \" :). @@~..","can_remove":false,"created_time":"2013-12-23T04:44:47+0000","like_count":1,"user_likes":false},"782699848413361":{"id":"782699848413361","from":{"id":"100002451143782","name":"New Light"},"message":"Vậy hả, ok để mình tìm hiểu lại ^^","can_remove":false,"created_time":"2013-12-23T04:45:23+0000","like_count":1,"user_likes":false},"782700098413336":{"id":"782700098413336","from":{"id":"100001560048396","name":"Dưa Hấu Lạnh"},"message":"^^! :) um.... :D .. . có bạn nào có bí quyết học tiếng Nhật hiệu quả k???","can_remove":false,"created_time":"2013-12-23T04:46:28+0000","like_count":0,"user_likes":false},"782700655079947":{"id":"782700655079947","from":{"id":"100000455388210","name":"Đức Trung Nguyễn"},"message":"đọc là wa viết phải là ha","can_remove":false,"created_time":"2013-12-23T04:48:29+0000","like_count":1,"user_likes":false},"782700861746593":{"id":"782700861746593","from":{"id":"100002451143782","name":"New Light"},"message":"Mình đọc là wa chứ :v","can_remove":false,"created_time":"2013-12-23T04:49:28+0000","like_count":0,"user_likes":false},"782701008413245":{"id":"782701008413245","from":{"id":"100001560048396","name":"Dưa Hấu Lạnh"},"message":"ukm đọc là wa, viết là ha mà :v... còn khi viết trên facebook này thì để hiểu được thì nên viết là wa :v......","can_remove":false,"created_time":"2013-12-23T04:50:07+0000","like_count":0,"user_likes":false},"782701055079907":{"id":"782701055079907","from":{"id":"100001560048396","name":"Dưa Hấu Lạnh"},"message":"( khi dùng Romaji )","can_remove":false,"created_time":"2013-12-23T04:50:16+0000","like_count":0,"user_likes":false},"782702798413066":{"id":"782702798413066","from":{"id":"100000162434175","name":"Hechi Osa"},"message":"はじめまして。Hoaです。Hanoiからきました。１８さいです。どうぞよろしくおねがいします","can_remove":false,"created_time":"2013-12-23T04:56:53+0000","like_count":2,"user_likes":false},"782708241745855":{"id":"782708241745855","from":{"id":"100004428094993","name":"Hà Nguyễn"},"message":"Hajimemashite watashi wa nihongo ga daisuki desu. Yoroshikuonegaishimasu","can_remove":false,"created_time":"2013-12-23T05:03:15+0000","like_count":3,"user_likes":false},"782709658412380":{"id":"782709658412380","from":{"id":"100004428094993","name":"Hà Nguyễn"},"message":"Minh san","can_remove":false,"created_time":"2013-12-23T05:06:51+0000","like_count":0,"user_likes":false},"782709801745699":{"id":"782709801745699","from":{"id":"100002451143782","name":"New Light"},"message":"Hai, nan desu ka?","can_remove":false,"created_time":"2013-12-23T05:07:12+0000","like_count":0,"user_likes":false},"782710121745667":{"id":"782710121745667","from":{"id":"100004428094993","name":"Hà Nguyễn"},"message":"Konichiwa","can_remove":false,"created_time":"2013-12-23T05:07:26+0000","like_count":0,"user_likes":false},"782710125079000":{"id":"782710125079000","from":{"id":"100006043302772","name":"Nhung Trương"},"message":"bt は đọc theo romaji là \"ha\", nhưng trong câu nếu là trợ từ thì sẽ đọc là \"wa\" , nhé","can_remove":false,"created_time":"2013-12-23T05:07:26+0000","like_count":2,"user_likes":false},"782710288412317":{"id":"782710288412317","from":{"id":"100002451143782","name":"New Light"},"message":"Nguyen Ha :) hai, konnichiwa.","message_tags":[{"id":"100004428094993","name":"Nguyen Ha","type":"user","offset":0,"length":9}],"can_remove":false,"created_time":"2013-12-23T05:08:05+0000","like_count":0,"user_likes":false},"782710668412279":{"id":"782710668412279","from":{"id":"100000051870686","name":"Tứ Nguyễn"},"message":":) học tui được rùi","can_remove":false,"created_time":"2013-12-23T05:09:45+0000","like_count":0,"user_likes":false},"782711371745542":{"id":"782711371745542","from":{"id":"100000162434175","name":"Hechi Osa"},"message":"みなさんも日本が好きですね。... em viết vầy đúng k ạ? '.'","can_remove":false,"created_time":"2013-12-23T05:12:02+0000","like_count":1,"user_likes":false},"782711618412184":{"id":"782711618412184","from":{"id":"100006043302772","name":"Nhung Trương"},"message":"ok ですね","can_remove":false,"created_time":"2013-12-23T05:13:09+0000","like_count":0,"user_likes":false},"782713171745362":{"id":"782713171745362","from":{"id":"100004428094993","name":"Hà Nguyễn"},"message":"Un nhưng chư minnasan đi kanji do","can_remove":false,"created_time":"2013-12-23T05:14:22+0000","like_count":1,"user_likes":false},"782713231745356":{"id":"782713231745356","from":{"id":"100000162434175","name":"Hechi Osa"},"message":"là  いいですね。chứ ạ :)) okですね。→ おもしろいです ：３","can_remove":false,"created_time":"2013-12-23T05:14:33+0000","like_count":1,"user_likes":false},"782713981745281":{"id":"782713981745281","from":{"id":"100000455388210","name":"Đức Trung Nguyễn"},"message":"おもしろじゃなく。。。おかしいなんだ＾＾","can_remove":false,"created_time":"2013-12-23T05:16:40+0000","like_count":0,"user_likes":false},"782733145076698":{"id":"782733145076698","from":{"id":"100001334872962","name":"クオン グエン"},"message":"konnichiwa  cuongdesu\nhanam karakimmashita\nkotoshi.22 sai desu\nwatashino karokuwa 4nindesu\ndozo rodoshikuonegaishimasu","can_remove":false,"created_time":"2013-12-23T06:06:31+0000","like_count":0,"user_likes":false},"782735348409811":{"id":"782735348409811","from":{"id":"100000162434175","name":"Hechi Osa"},"message":"ý ý a ới kazoku ạ :D","can_remove":false,"created_time":"2013-12-23T06:14:10+0000","like_count":0,"user_likes":false},"782740518409294":{"id":"782740518409294","from":{"id":"100001334872962","name":"クオン グエン"},"message":"hy","can_remove":false,"created_time":"2013-12-23T06:34:00+0000","like_count":0,"user_likes":false},"782754898407856":{"id":"782754898407856","from":{"id":"100004039857628","name":"Yen Chu"},"message":"頑張ってね！","can_remove":false,"created_time":"2013-12-23T07:05:52+0000","like_count":0,"user_likes":false},"782766365073376":{"id":"782766365073376","from":{"id":"100000024629190","name":"Thanh Ngọc"},"message":"kazoku k phải karoku, yoroshiku chứ k phải là rodoshiku bạn nhé :)","can_remove":false,"created_time":"2013-12-23T07:23:33+0000","like_count":1,"user_likes":false},"782766591740020":{"id":"782766591740020","from":{"id":"100002451143782","name":"New Light"},"message":"Douzo nữa ^^","can_remove":false,"created_time":"2013-12-23T07:24:38+0000","like_count":0,"user_likes":false},"782787501737929":{"id":"782787501737929","from":{"id":"100000019126977","name":"Nguyen Thi Ngoc Anh"},"message":"Tanoshikattane minasan","can_remove":false,"created_time":"2013-12-23T07:48:24+0000","like_count":1,"user_likes":false},"782829278400418":{"id":"782829278400418","from":{"id":"100006043302772","name":"Nhung Trương"},"message":"Hechi Osa, cô giáo của mình hay nói v đó :)","message_tags":[{"id":"100000162434175","name":"Hechi Osa","type":"user","offset":0,"length":9}],"can_remove":false,"created_time":"2013-12-23T10:35:51+0000","like_count":1,"user_likes":false},"782856671731012":{"id":"782856671731012","from":{"id":"100006711245076","name":"Thi Ly Le"},"message":"リーロックさん。\nMinh tuong la おもしろくない\nChu nhi?","can_remove":false,"created_time":"2013-12-23T11:58:33+0000","like_count":0,"user_likes":false},"782920365057976":{"id":"782920365057976","from":{"id":"100005263719971","name":"Hung Le"},"message":"kunai là phủ định , còn katta là quá khứ của tính từ đuôi \"i\"","can_remove":false,"created_time":"2013-12-23T14:33:46+0000","like_count":0,"user_likes":false},"782923761724303":{"id":"782923761724303","from":{"id":"100007066988314","name":"Viet Tran"},"message":"sodesuka","can_remove":false,"created_time":"2013-12-23T14:43:12+0000","like_count":0,"user_likes":false},"782923968390949":{"id":"782923968390949","from":{"id":"100005263719971","name":"Hung Le"},"message":"hai","can_remove":false,"created_time":"2013-12-23T14:43:50+0000","like_count":0,"user_likes":false},"783004775049535":{"id":"783004775049535","from":{"id":"100006711245076","name":"Thi Ly Le"},"message":"Hung Le   y ban noi la おもしろかった  chu gi.\nThe ban thu phan tich ho toi おもしろじゃなく 。。。no la hien tuong ngu phap nao ？\nToi khong hieu.\nXin nho ban chi giup.","message_tags":[{"id":"100005263719971","name":"Hung Le","type":"user","offset":0,"length":7}],"can_remove":false,"created_time":"2013-12-23T17:23:43+0000","like_count":0,"user_likes":false},"783009225049090":{"id":"783009225049090","from":{"id":"100005263719971","name":"Hung Le"},"message":"Mình mới học đến bài 16 , cú pháp này mình chưa đc học :)","can_remove":false,"created_time":"2013-12-23T17:37:22+0000","like_count":0,"user_likes":false},"783117041704975":{"id":"783117041704975","from":{"id":"100000024629190","name":"Thanh Ngọc"},"message":"ngta ít dùg じゃなく cho tính từ đuôi i mà dùg nhìêu cho đuôi na và danh từ. cũg như vế sau là おかしい。なんだ cũg dùg cho t.từ đuôi na và dtừ.  như câu bên trên có thể víêt là おもしろくなくておかしいんだ。","can_remove":false,"created_time":"2013-12-23T22:31:21+0000","like_count":3,"user_likes":false}},"paging":{"cursors":{"after":"NzgyNjk0NTExNzQ3MjI4","before":"NzgyNjk0NTExNzQ3MjI4"},"next":"https://graph.facebook.com/229244010425617_782693388414007/comments?limit=1&summary=1&after=NzgyNjk0NTExNzQ3MjI4"},"summary":{"order":"chronological","total_count":48}}}