{"id":"229244010425617_782859605064052","type":"status","from":{"id":"100003918997915","name":"Nguyễn Văn Còn"},"message":"Chào các anh chị và các ad trong nhóm ,có lần mình xem trong các bài viết có địa chỉ mua đồ Việt Nam, nay xem lại thì ko thấy nữa có anh chị nào biết xin cho mình link được ko? Mà hình như lần trước của bạn My Tra đăng lên thì phải? Xin bạn gử lại cho mình link được ko? Cảm ơn các ad nhiều!","created_time":"2013-12-23T12:07:53+0000","updated_time":"2013-12-23T15:56:18+0000","likes":{"data":{"100000359762118":{"id":"100000359762118","name":"Mi Tra"},"100004446185815":{"id":"100004446185815","name":"Hiền Jp"}},"paging":{"cursors":{"after":"MTAwMDAwMzU5NzYyMTE4","before":"MTAwMDAwMzU5NzYyMTE4"},"next":"https://graph.facebook.com/229244010425617_782859605064052/likes?limit=1&summary=1&after=MTAwMDAwMzU5NzYyMTE4"},"summary":{"total_count":2}},"comments":{"data":{"782940135055999":{"id":"782940135055999","from":{"id":"569263718","name":"Phuong Thao Tran"},"message":"Chiếc Lá Cuối Cùng có người tìm ạ","message_tags":[{"id":"100006469315671","name":"Chiếc Lá Cuối Cùng","type":"user","offset":0,"length":18}],"can_remove":false,"created_time":"2013-12-23T15:22:39+0000","like_count":1,"user_likes":false},"782943261722353":{"id":"782943261722353","from":{"id":"100001526631937","name":"Tường Oanh Mineko"},"message":"c Mi Tra có ng cần tìmkìa :D","message_tags":[{"id":"100000359762118","name":"Mi Tra","type":"user","offset":2,"length":6}],"can_remove":false,"created_time":"2013-12-23T15:28:36+0000","like_count":2,"user_likes":false},"782944075055605":{"id":"782944075055605","from":{"id":"100000359762118","name":"Mi Tra"},"message":"Bạn xem ở trang dưới nhé\nhttp://www.chovietnamjp.com","can_remove":false,"created_time":"2013-12-23T15:30:20+0000","like_count":1,"user_likes":false},"782956768387669":{"id":"782956768387669","from":{"id":"100003918997915","name":"Nguyễn Văn Còn"},"message":"Cảm ơn các ad nhiều nha!","can_remove":false,"created_time":"2013-12-23T15:56:18+0000","like_count":1,"user_likes":false}},"paging":{"cursors":{"after":"NzgyOTQwMTM1MDU1OTk5","before":"NzgyOTQwMTM1MDU1OTk5"},"next":"https://graph.facebook.com/229244010425617_782859605064052/comments?limit=1&summary=1&after=NzgyOTQwMTM1MDU1OTk5"},"summary":{"order":"chronological","total_count":4}}}