{"id":"229244010425617_783267941689885","type":"photo","object_id":"778050515544934","picture":"https://fbcdn-photos-a-a.akamaihd.net/hphotos-ak-prn2/t1.0-0/1461847_778050515544934_1617054385_s.jpg","link":"https://www.facebook.com/photo.php?fbid=778050515544934&set=gm.783267941689885&type=1&relevant_count=1","from":{"id":"100000199780783","name":"Nguyen Thu Hoai"},"message":"Em/ chị chào cả nhà.\nXin phép add đăng tải thông tin chiêu mộ những tấm lòng yêu trẻ nhỏ và thích làm công việc từ thiện vào đội ngũ dịch thuật nhỏ giúp đỡ Betoaji ạ.\nMình là thành viên nhóm thiện nguyện Betoaji , một tổ chức hoạt động với mụ đích giúp các em nhỏ nghèo vùng cao có đièu kiện tới trường học tập để thoát khỏi cảnh nghèo sau này.\nVừa qua thông qua nhóm một tổ chức NPO lớn của Nhật đã đồng ý hỗ trợ cho các em 1 năm học bổng với mức hỗ trợ đều đặn hàng tháng.\nĐể đáp lại tấm lòng của ba mẹ Nhật các em nhỏ miền núi đã viết thư cảm ơn. Nội dung bức thư cần được dịch ra tiếng Nhật nên mình mong sự giúp đỡ của các bạn. Nội dung thư không có gì khoa, những câu chào, câu hỏi rất ngây thơ^^. Mình tính tự mình dịch cho lẹ nhưng mình nghĩ có nhiều người dịch thì sẽ gửi gắm được nhiều sắc thái tình cảm hơn, và có nhiều người giúp đỡ thì vui hơn^^.\nHiện nay có 38 lá thư. Nhà mình có ai giúp được thì comment bên dưới giùm em/chị nhé! \nXin hãy để lại địa chỉ mail, số lá thư có thể dịch \nHạn chót là đến hết ngày mai 25/12.\nThời gian hơi gấp rút xin lỗi mọi người.\nDưới đây là 1 bức thư của các em, đây là bức thư dài Nhất đó ạ;)))","created_time":"2013-12-24T05:30:30+0000","updated_time":"2013-12-26T13:43:39+0000","likes":{"data":{"100004463889537":{"id":"100004463889537","name":"Zibi Tuan Anh"},"100001458099624":{"id":"100001458099624","name":"Kham Pha"},"1228548321":{"id":"1228548321","name":"Tran Hong Phuong"},"100002349785809":{"id":"100002349785809","name":"Maiko Migita"},"100003913383051":{"id":"100003913383051","name":"Tho Tran"},"100007316735911":{"id":"100007316735911","name":"Tuyen Dung Vn  Jp"},"100007060242882":{"id":"100007060242882","name":"Anh Nguyễn"},"1821970083":{"id":"1821970083","name":"Nguyễn Mạnh Cường"},"100007110967265":{"id":"100007110967265","name":"Anh Kun"},"100001079726837":{"id":"100001079726837","name":"Hatenai Yume"},"100002444618453":{"id":"100002444618453","name":"Tomio  Ueno"},"100004262372923":{"id":"100004262372923","name":"Trần Hữu Nam"},"100001878664195":{"id":"100001878664195","name":"Củ Cải Thần Bí"},"100003055422184":{"id":"100003055422184","name":"Kaze Le"},"100006632436355":{"id":"100006632436355","name":"Vang Toi Ngheo"},"100001325163284":{"id":"100001325163284","name":"Nguyễn Thịnh"},"100003310618708":{"id":"100003310618708","name":"BiNô Triết Gia"},"100001243411261":{"id":"100001243411261","name":"Ngưu Tỷ Tỷ"},"620066722":{"id":"620066722","name":"Dong Khac Thai"},"100006954194052":{"id":"100006954194052","name":"PhuongHoa Nguyen"},"100002871405403":{"id":"100002871405403","name":"Thach Sanh"},"100001754136107":{"id":"100001754136107","name":"Nguyễn Tuấn Vũ"},"100000381394367":{"id":"100000381394367","name":"Thành Nguyễn"},"100001416272263":{"id":"100001416272263","name":"Mai PB"},"100005801442456":{"id":"100005801442456","name":"An Nguyen"},"1026780646":{"id":"1026780646","name":"Việt Hưng Khổng"},"100001526631937":{"id":"100001526631937","name":"Tường Oanh Mineko"},"1082956399":{"id":"1082956399","name":"Danny Dee Nguyen IE"},"551090087":{"id":"551090087","name":"Tran Vu Dung"},"1108328257":{"id":"1108328257","name":"Kenji Le"},"100001594722256":{"id":"100001594722256","name":"Viết An Phạm"},"100003762427351":{"id":"100003762427351","name":"Hiroshi Yasu Oki"},"1452845400":{"id":"1452845400","name":"Thu Phuong"},"100000603915176":{"id":"100000603915176","name":"悪いな ぁ"},"100002508122689":{"id":"100002508122689","name":"Vũ Mạnh Tuấn"},"100000971222044":{"id":"100000971222044","name":"Nhoc' Satoshi"},"100002945821810":{"id":"100002945821810","name":"Mít Ướt"},"100005934548279":{"id":"100005934548279","name":"Cậu Bé Buồn"},"100004386429584":{"id":"100004386429584","name":"Saunon Lonton"},"100000083951394":{"id":"100000083951394","name":"Trác Hữu"},"569263718":{"id":"569263718","name":"Phuong Thao Tran"},"100001887921127":{"id":"100001887921127","name":"Kata Apple"},"100003933466469":{"id":"100003933466469","name":"Phong Aki"},"100003961940616":{"id":"100003961940616","name":"Quang Vu"},"1250063068":{"id":"1250063068","name":"Tuấn Tử Tế"},"100002999475011":{"id":"100002999475011","name":"Akira Lephat"},"100005866751996":{"id":"100005866751996","name":"Nam Nguyen"},"100000359762118":{"id":"100000359762118","name":"Mi Tra"}},"paging":{"cursors":{"after":"MTAwMDA0NDYzODg5NTM3","before":"MTAwMDA0NDYzODg5NTM3"},"next":"https://graph.facebook.com/229244010425617_783267941689885/likes?limit=1&summary=1&after=MTAwMDA0NDYzODg5NTM3"},"summary":{"total_count":49}},"comments":{"data":{"783268195023193":{"id":"783268195023193","from":{"id":"100000199780783","name":"Nguyen Thu Hoai"},"message":"Dong Khac Thai ơi ^^","message_tags":[{"id":"620066722","name":"Dong Khac Thai","type":"user","offset":0,"length":14}],"can_remove":false,"created_time":"2013-12-24T05:31:22+0000","like_count":0,"user_likes":false},"783268508356495":{"id":"783268508356495","from":{"id":"100005866751996","name":"Nam Nguyen"},"message":"Hạn gấp quá ko e cũng đóng góp chút :-(","can_remove":false,"created_time":"2013-12-24T05:32:17+0000","like_count":1,"user_likes":false},"783268755023137":{"id":"783268755023137","from":{"id":"100000199780783","name":"Nguyen Thu Hoai"},"message":"Thư ngắn mà em ;(. Chỉ cần dành ra 30p là được 4 lá rồi ý*^","can_remove":false,"created_time":"2013-12-24T05:33:15+0000","like_count":0,"user_likes":false},"783269268356419":{"id":"783269268356419","from":{"id":"100000199780783","name":"Nguyen Thu Hoai"},"message":"Nam Nguyen đăng ký di em. Có 2 tối lận muh. Hihi","message_tags":[{"id":"100005866751996","name":"Nam Nguyen","type":"user","offset":0,"length":10}],"can_remove":false,"created_time":"2013-12-24T05:34:51+0000","like_count":1,"user_likes":false},"783269328356413":{"id":"783269328356413","from":{"id":"1122379216","name":"Hà Ngô"},"message":"E nhận lá này nhé, e mới học tiếng nhật ko lâu nên như này thì được ạ :)","can_remove":false,"created_time":"2013-12-24T05:35:05+0000","like_count":1,"user_likes":false},"783269851689694":{"id":"783269851689694","from":{"id":"100000199780783","name":"Nguyen Thu Hoai"},"message":"Em Hà Ngô ơi cảm ơn em nhìu ngen. E cho chị xin địa chỉ mail đi chị sẽ gửi em bản rõ hơn, và tiện liên lạc hơn. Có vài bản dễ hơn, ngắn hơn, em có thể nhận ko*^^!?","can_remove":false,"created_time":"2013-12-24T05:36:54+0000","like_count":0,"user_likes":false},"783271665022846":{"id":"783271665022846","from":{"id":"100003174378268","name":"Ngo Thu Thao"},"message":"Minh cung muon gjup suc.neu co gj saj sot thj mog ban gjup do them.ngothithuthao93@gmail.com","can_remove":false,"created_time":"2013-12-24T05:43:25+0000","like_count":1,"user_likes":false},"783271781689501":{"id":"783271781689501","from":{"id":"1250063068","name":"Tuấn Tử Tế"},"message":"địa chỉ mail mình: thanhtuan.nda@gmail.com\nBan sáng mình bận, nhưng đêm mình thức dịch đc. Cũng ko dám nhận nhiều vì còn công việc khác. Nhưng giúp đc gì Nguyen Thu Hoai cứ gửi mail nhé.","message_tags":[{"id":"100000199780783","name":"Nguyen Thu Hoai","type":"user","offset":154,"length":15}],"can_remove":false,"created_time":"2013-12-24T05:43:55+0000","like_count":1,"user_likes":false},"783272785022734":{"id":"783272785022734","from":{"id":"1122379216","name":"Hà Ngô"},"message":"Oki chị ạ. E gửi mail qua inbox rùi chị nhé :), tối mai  là gửi chị ạ, vài lá cũng oki ạ :)","can_remove":false,"created_time":"2013-12-24T05:48:11+0000","like_count":1,"user_likes":false},"783275428355803":{"id":"783275428355803","from":{"id":"100000199780783","name":"Nguyen Thu Hoai"},"message":"cảm ơn hai bạn Thảo và Tuấn nhé, mình sẽ chia ra gửi ^^. Các bạn có thể cho mình biết có thể dành đc bao nhiêu thời gian cho việc dịch thư này để mình canh gửi số luợng lá thư hợp lý:)","can_remove":false,"created_time":"2013-12-24T05:56:09+0000","like_count":0,"user_likes":false},"783280948355251":{"id":"783280948355251","from":{"id":"569263718","name":"Phuong Thao Tran"},"message":"Ngo Thu Thao giúp group viết tiếng Việt thuần và có dấu luôn nhé em!!","can_remove":false,"created_time":"2013-12-24T06:09:28+0000","like_count":2,"user_likes":false},"783287435021269":{"id":"783287435021269","from":{"id":"100002676363987","name":"Myluong Vn"},"message":"cho c share dich voi. email cua chi la Luongmy78@yahoo.co.jp","can_remove":false,"created_time":"2013-12-24T06:22:14+0000","like_count":1,"user_likes":false},"783288205021192":{"id":"783288205021192","from":{"id":"100000465692247","name":"Hồng Fương"},"message":"cho em share dịch với ạ, mail của em là:fuonghong2303@gmail.com","can_remove":false,"created_time":"2013-12-24T06:24:35+0000","like_count":0,"user_likes":false},"783289715021041":{"id":"783289715021041","from":{"id":"100000603915176","name":"悪いな ぁ"},"message":"Các bạn mỗi người dịch một bản, hạn chót là 6h chiều nay đưa lên đây để cùng thống nhất 1 bản chính thức. Vì có vài bạn có vẻ mới học cũng muốn dịch nên có thể có sai sót. Mà các bạn nhờ dịch thì kg thể kiểm soát đc điều đó :)","can_remove":false,"created_time":"2013-12-24T06:31:35+0000","like_count":1,"user_likes":false},"783304631686216":{"id":"783304631686216","from":{"id":"100003891367470","name":"Ñhø'ç Hoàng"},"message":"Hoangiij@gmail.com xin góp gạo thổi cơm chung","can_remove":false,"created_time":"2013-12-24T07:28:45+0000","like_count":1,"user_likes":false},"783305645019448":{"id":"783305645019448","from":{"id":"100004094346107","name":"Thuy Nga Nguyen"},"message":"thuynga908587@gmail.com","can_remove":false,"created_time":"2013-12-24T07:33:29+0000","like_count":1,"user_likes":false},"783319288351417":{"id":"783319288351417","from":{"id":"100003174378268","name":"Ngo Thu Thao"},"message":"Buổi tối e mới có thời gian nên e chỉ xin nhận 2 bức thôi ạ. :)","can_remove":false,"created_time":"2013-12-24T08:28:11+0000","like_count":1,"user_likes":false},"783344991682180":{"id":"783344991682180","from":{"id":"1026780646","name":"Việt Hưng Khổng"},"message":"Khongviethung1986@yahoo.com 2 bức nhé ;)","can_remove":false,"created_time":"2013-12-24T09:53:19+0000","like_count":1,"user_likes":false},"783361645013848":{"id":"783361645013848","from":{"id":"100001416272263","name":"Mai PB"},"message":"Em inbox cho anh, anh sẽ gửi lại bản dịch.","can_remove":false,"created_time":"2013-12-24T10:41:45+0000","like_count":1,"user_likes":false},"783383825011630":{"id":"783383825011630","from":{"id":"100000199780783","name":"Nguyen Thu Hoai"},"message":"Em / chị cảm ơn cả nhà đã giúp đỡ nhiệt tình như vậy ạ. ^^. Em có trục trặc chút giờ đã phân thư xong bây giờ gửi vào mail cho mọi người ạ.","can_remove":false,"created_time":"2013-12-24T11:44:42+0000","like_count":1,"user_likes":false},"783399705010042":{"id":"783399705010042","from":{"id":"100001243411261","name":"Ngưu Tỷ Tỷ"},"message":"ý nghĩa quá, nhưng mà sức em chưa tới, đành để dịp khác vậy :)","can_remove":false,"created_time":"2013-12-24T12:17:28+0000","like_count":1,"user_likes":false},"783424645007548":{"id":"783424645007548","from":{"id":"100000199780783","name":"Nguyen Thu Hoai"},"message":"Em/ chị đã gửi vào mail của mọi người, mọi người check và bắt tay vào dịch giùm em nhé. Có 1 số người em chưa gửi vì còn 10 lá em chưa nhận được ạ. Em sẽ nhờ các anh chị đó nằm trong nhóm chỉnh sửa lỗi giùm em ạ^^. Một lần nữa cảm ơn cả nhà mình nhiều <3","can_remove":false,"created_time":"2013-12-24T12:56:58+0000","like_count":1,"user_likes":false},"783455291671150":{"id":"783455291671150","from":{"id":"569263718","name":"Phuong Thao Tran"},"message":"dịch bài này nữa Nguyen Thu Hoai nè:\n\nhttp://dantri.com.vn/nhip-song-tre/nghen-ngao-la-thu-tay-be-nho-gui-ong-gia-noel-819469.htm","message_tags":[{"id":"100000199780783","name":"Nguyen Thu Hoai","type":"user","offset":17,"length":15}],"can_remove":false,"created_time":"2013-12-24T14:00:06+0000","like_count":1,"user_likes":false},"783478051668874":{"id":"783478051668874","from":{"id":"1574575448","name":"An Na An"},"message":"vu.van.anh213@gmail.com","can_remove":false,"created_time":"2013-12-24T14:53:24+0000","like_count":1,"user_likes":false},"783542444995768":{"id":"783542444995768","from":{"id":"100003174378268","name":"Ngo Thu Thao"},"message":"Dich có dùng kính ngữ k ạ.","can_remove":false,"created_time":"2013-12-24T16:56:45+0000","like_count":0,"user_likes":false},"784457084904304":{"id":"784457084904304","from":{"id":"100004037576947","name":"Mã Nhi"},"message":"nga.bquynh@gmail.com , anh/chị gửi vào mail cho em với ạ, em sẽ cố gắng hết sức có thể để dịch tốt","can_remove":false,"created_time":"2013-12-26T03:09:06+0000","like_count":1,"user_likes":false},"784457804904232":{"id":"784457804904232","from":{"id":"100007060242882","name":"Anh Nguyễn"},"message":":v","can_remove":false,"created_time":"2013-12-26T03:11:17+0000","like_count":0,"user_likes":false},"784460358237310":{"id":"784460358237310","from":{"id":"569263718","name":"Phuong Thao Tran"},"message":"[Xin hãy để lại địa chỉ mail, số lá thư có thể dịch \nHạn chót là đến hết ngày mai 25/12.]<--- nè Mã Nhi","can_remove":false,"created_time":"2013-12-26T03:17:32+0000","like_count":2,"user_likes":false},"784669731549706":{"id":"784669731549706","from":{"id":"100000199780783","name":"Nguyen Thu Hoai"},"message":"Cảm ơn Mã Nhi nhiều nhé! Lúc nào có chị sẽ nhờ em ngen^^","can_remove":false,"created_time":"2013-12-26T13:35:24+0000","like_count":0,"user_likes":false},"784671068216239":{"id":"784671068216239","from":{"id":"100000199780783","name":"Nguyen Thu Hoai"},"message":"Em/ chị gửi lời cảm ơn từ nhóm đến mọi người đã giúp nhóm trong đợt dịch thư vừa qua. Những \"ông , bà già Noel đã làm việc thật ý nghĩa cho các em nhỏ, thông qua những lá thư này Ba Mẹ Nhật sẽ gần với các Bé hơn, tình cảm thắt chặt hơn, tạo nên mối quan hệ tốt để duy trì nguồn học bổng lâu dài cho các bé^^","can_remove":false,"created_time":"2013-12-26T13:38:27+0000","like_count":4,"user_likes":false},"784673214882691":{"id":"784673214882691","from":{"id":"100000199780783","name":"Nguyen Thu Hoai"},"message":"Từ này về sau nếu có điều kiện vẫn luôn mong sự giúp đỡ từ các anh chị và các bạn;))))","can_remove":false,"created_time":"2013-12-26T13:43:39+0000","like_count":5,"user_likes":false}},"paging":{"cursors":{"after":"NzgzMjY4MTk1MDIzMTkz","before":"NzgzMjY4MTk1MDIzMTkz"},"next":"https://graph.facebook.com/229244010425617_783267941689885/comments?limit=1&summary=1&after=NzgzMjY4MTk1MDIzMTkz"},"summary":{"order":"chronological","total_count":31}}}