{"id":"229244010425617_783306651686014","type":"photo","object_id":"10151898004463719","picture":"https://fbcdn-photos-d-a.akamaihd.net/hphotos-ak-frc3/t1.0-0/1499661_10151898004463719_615993362_s.jpg","link":"https://www.facebook.com/photo.php?fbid=10151898004463719&set=gm.783306651686014&type=1&relevant_count=1","from":{"id":"569263718","name":"Phuong Thao Tran"},"message":"Merry X'mas,　グループのプレゼントです。\nお楽しみにしてください。。。\n\nClick vào link dưới để nhận quà Giáng Sinh nhé, :D\n----------------------------------------------------------------------\nhttp://host-d.oddcast.com/php/application_UI/doorId=1177/clientId=299/?mId=55975228","created_time":"2013-12-24T07:37:32+0000","updated_time":"2013-12-25T02:19:56+0000","likes":{"data":{"100001458099624":{"id":"100001458099624","name":"Kham Pha"},"100000309153854":{"id":"100000309153854","name":"Pham Thuong"},"100000381394367":{"id":"100000381394367","name":"Thành Nguyễn"},"100000359762118":{"id":"100000359762118","name":"Mi Tra"},"100006632436355":{"id":"100006632436355","name":"Vang Toi Ngheo"},"100004262372923":{"id":"100004262372923","name":"Trần Hữu Nam"},"100001416272263":{"id":"100001416272263","name":"Mai PB"},"100003310618708":{"id":"100003310618708","name":"BiNô Triết Gia"},"100001526631937":{"id":"100001526631937","name":"Tường Oanh Mineko"},"100003913383051":{"id":"100003913383051","name":"Tho Tran"},"100004296072026":{"id":"100004296072026","name":"Ot ChuOng"},"100001754136107":{"id":"100001754136107","name":"Nguyễn Tuấn Vũ"},"100005024348771":{"id":"100005024348771","name":"Long Hoàng"}},"paging":{"cursors":{"after":"MTAwMDAxNDU4MDk5NjI0","before":"MTAwMDAxNDU4MDk5NjI0"},"next":"https://graph.facebook.com/229244010425617_783306651686014/likes?limit=1&summary=1&after=MTAwMDAxNDU4MDk5NjI0"},"summary":{"total_count":14}},"comments":{"data":{"783312051685474":{"id":"783312051685474","from":{"id":"569263718","name":"Phuong Thao Tran"},"message":"Thay mặt mem, gửi ad Chiếc Lá Cuối Cùng Mai PB  Giang Manh  Mi Tra Tương Oanh, ad nhận quà nhé !","message_tags":[{"id":"100006469315671","name":"Chiếc Lá Cuối Cùng","type":"user","offset":21,"length":18},{"id":"100001416272263","name":"Mai PB","type":"user","offset":40,"length":6},{"id":"100001128589118","name":"Giang Manh","type":"user","offset":48,"length":10}],"can_remove":false,"created_time":"2013-12-24T07:59:42+0000","like_count":0,"user_likes":false},"783333745016638":{"id":"783333745016638","from":{"id":"100001526631937","name":"Tường Oanh Mineko"},"message":"haha, hài quá c ơi, nhận ko ra luôn :v","can_remove":false,"created_time":"2013-12-24T09:19:21+0000","like_count":1,"user_likes":false},"783753121641367":{"id":"783753121641367","from":{"id":"100000359762118","name":"Mi Tra"},"message":"Clip nhộn quá ^^ \nnhìn anh Mai PB nhảy rất Pro :)))","can_remove":false,"created_time":"2013-12-25T01:43:49+0000","like_count":1,"user_likes":false},"783761674973845":{"id":"783761674973845","from":{"id":"100000309153854","name":"Pham Thuong"},"message":"haha.","can_remove":false,"created_time":"2013-12-25T02:10:51+0000","like_count":0,"user_likes":false},"783764644973548":{"id":"783764644973548","from":{"id":"1813611352","name":"To Đùng"},"message":"anh Mai PB Bo đì chuẩn quá :D","message_tags":[{"id":"100001416272263","name":"Mai PB","type":"user","offset":4,"length":6}],"can_remove":false,"created_time":"2013-12-25T02:19:56+0000","like_count":0,"user_likes":false}},"paging":{"cursors":{"after":"NzgzMzEyMDUxNjg1NDc0","before":"NzgzMzEyMDUxNjg1NDc0"},"next":"https://graph.facebook.com/229244010425617_783306651686014/comments?limit=1&summary=1&after=NzgzMzEyMDUxNjg1NDc0"},"summary":{"order":"chronological","total_count":6}}}