{"id":"229244010425617_783868024963210","type":"status","from":{"id":"100000603915176","name":"悪いな ぁ"},"message":"Các đồng chí vào phân biệt hộ vụ này cái nào, đi thi có trong đề đấy :)\n\n1. あいだ      và     あいだに\n2. あいだに   và     うちに\n3. まで          và     までに...","created_time":"2013-12-25T06:47:22+0000","updated_time":"2013-12-27T17:40:52+0000","likes":{"data":{"100004871794179":{"id":"100004871794179","name":"Lee Mi Nguyen"},"569263718":{"id":"569263718","name":"Phuong Thao Tran"},"100001526631937":{"id":"100001526631937","name":"Tường Oanh Mineko"}},"paging":{"cursors":{"after":"MTAwMDA0ODcxNzk0MTc5","before":"MTAwMDA0ODcxNzk0MTc5"},"next":"https://graph.facebook.com/229244010425617_783868024963210/likes?limit=1&summary=1&after=MTAwMDA0ODcxNzk0MTc5"},"summary":{"total_count":4}},"comments":{"data":{"783968668286479":{"id":"783968668286479","from":{"id":"569263718","name":"Phuong Thao Tran"},"message":"hóng hớt thôi, ^^","can_remove":false,"created_time":"2013-12-25T11:25:41+0000","like_count":0,"user_likes":false},"783980498285296":{"id":"783980498285296","from":{"id":"100000027754899","name":"Hoang Van Ba"},"message":"Thi n2 thì sẽ có. Nhưng n1 thì ko :))","can_remove":false,"created_time":"2013-12-25T11:50:40+0000","like_count":0,"user_likes":false},"785297894820223":{"id":"785297894820223","from":{"id":"569263718","name":"Phuong Thao Tran"},"message":"group toàn thi n1 hết warui nà ơi, kiến thức n2, n3 với không tới, :D","can_remove":false,"created_time":"2013-12-27T15:34:08+0000","like_count":1,"user_likes":false},"785306794819333":{"id":"785306794819333","from":{"id":"100000603915176","name":"悪いな ぁ"},"message":"Ồ, group này kinh vậy, toàn level cao nhất à? Thôi, cạch, từ giờ hem dám post nữa đâu ợ :((","can_remove":false,"created_time":"2013-12-27T15:52:30+0000","like_count":0,"user_likes":false},"785307701485909":{"id":"785307701485909","from":{"id":"100002258471314","name":"Bùi Văn Ánh"},"message":"thảo nào hỏi mấy cái cho người mới bắt đầu chẳng mấy ai muốn trả lời =((","can_remove":false,"created_time":"2013-12-27T15:54:26+0000","like_count":0,"user_likes":false},"785308084819204":{"id":"785308084819204","from":{"id":"569263718","name":"Phuong Thao Tran"},"message":"n1 là nhỏ hơn n2 với n3 mà bạn warui nà","can_remove":false,"created_time":"2013-12-27T15:54:53+0000","like_count":0,"user_likes":false},"785309304819082":{"id":"785309304819082","from":{"id":"100001526631937","name":"Tường Oanh Mineko"},"message":"cái này hay muh, mà e với ko tới nên đợi a trả lời ak Cú mèo","can_remove":false,"created_time":"2013-12-27T15:57:42+0000","like_count":0,"user_likes":false},"785309518152394":{"id":"785309518152394","from":{"id":"569263718","name":"Phuong Thao Tran"},"message":"thế bài post hay vậy mà mấy người mới bắt đầu có ai quan tâm đâu nà","can_remove":false,"created_time":"2013-12-27T15:58:11+0000","like_count":0,"user_likes":false},"785309611485718":{"id":"785309611485718","from":{"id":"569263718","name":"Phuong Thao Tran"},"message":"cứ tưởng n1 hết chứ","can_remove":false,"created_time":"2013-12-27T15:58:21+0000","like_count":0,"user_likes":false},"785310914818921":{"id":"785310914818921","from":{"id":"1146680551","name":"優しい なぁ"},"message":"Hiểu được trợ từ に thì phân biệt đc thoai :v","can_remove":false,"created_time":"2013-12-27T16:01:08+0000","like_count":0,"user_likes":false},"785312128152133":{"id":"785312128152133","from":{"id":"569263718","name":"Phuong Thao Tran"},"message":"lót dép ngồi chờ Anh Nguyễn phân tích","message_tags":[{"id":"1146680551","name":"Anh Nguyễn","type":"user","offset":17,"length":10}],"can_remove":false,"created_time":"2013-12-27T16:04:27+0000","like_count":2,"user_likes":false},"785312838152062":{"id":"785312838152062","from":{"id":"1146680551","name":"優しい なぁ"},"message":"Thời buổi vật giá lên cao ,dép đâu mà lót ngồi thế","can_remove":false,"created_time":"2013-12-27T16:05:49+0000","like_count":0,"user_likes":false},"785313428152003":{"id":"785313428152003","from":{"id":"569263718","name":"Phuong Thao Tran"},"message":"đừng đánh trống lãng, phân tích dùm đi Anh Nguyễn, việc kiếm được dép là 1 phạm trù khác, sẽ post ở chủ đề khác","message_tags":[{"id":"1146680551","name":"Anh Nguyễn","type":"user","offset":39,"length":10}],"can_remove":false,"created_time":"2013-12-27T16:06:58+0000","like_count":0,"user_likes":false},"785316911484988":{"id":"785316911484988","from":{"id":"100000603915176","name":"悪いな ぁ"},"message":"Hehe, chắc là lâu ngày không học tiếng Nhật không biết. Ngày xưa chỉ biết mỗi 一級、二級、三級、四級. Và 一級 là cao nhất. Chưa bao giờ nghe đến N1, N2... nên tưởng N1 là 一級 :v","can_remove":false,"created_time":"2013-12-27T16:15:24+0000","like_count":2,"user_likes":false},"785320981484581":{"id":"785320981484581","from":{"id":"1146680551","name":"優しい なぁ"},"message":"Vậy để mình bình loạn vại","can_remove":false,"created_time":"2013-12-27T16:24:56+0000","like_count":1,"user_likes":false},"785321524817860":{"id":"785321524817860","from":{"id":"569263718","name":"Phuong Thao Tran"},"message":"何時までに bình loạn desu ka?","can_remove":false,"created_time":"2013-12-27T16:26:20+0000","like_count":2,"user_likes":false},"785325364817476":{"id":"785325364817476","from":{"id":"1146680551","name":"優しい なぁ"},"message":"Mình phân tích câu 2 nhé : \nうちに và 間に thì cả 2 đeu chung nghĩa là trong khoảng / trong lúc... Nhưng 間に thì thể hiẹn hành động / trạng thái trong thời gian dài hơn うちに.うちに nó mang sắc thái cấp bách hơn,phải làm liền ngay.còn 間にthì nó không thể hiện như vậy.\nThêm nữa các tình trạng hay trạng thái mang sắc thái tự nhiên (do ông trời ) thì 間にcũng k dùng.\nĐấy N5 như em còn hiểu ,chắc mấy bác n1 thấy dễ quá k thèm cmt :((","can_remove":false,"created_time":"2013-12-27T16:31:33+0000","like_count":0,"user_likes":false},"785327304817282":{"id":"785327304817282","from":{"id":"1146680551","name":"優しい なぁ"},"message":"彼女と別れないうちにプレゼントを引き取らないべきだ。\nEm xài uchini này trong trường hợp này có đúng k mấy bác :v","can_remove":false,"created_time":"2013-12-27T16:36:40+0000","like_count":0,"user_likes":false},"785327634817249":{"id":"785327634817249","from":{"id":"569263718","name":"Phuong Thao Tran"},"message":"yêu anh, anh không đòi quà à","can_remove":false,"created_time":"2013-12-27T16:37:41+0000","like_count":0,"user_likes":false},"785330531483626":{"id":"785330531483626","from":{"id":"1146680551","name":"優しい なぁ"},"message":"Ặc lạc đề ...","can_remove":false,"created_time":"2013-12-27T16:43:42+0000","like_count":0,"user_likes":false},"785331544816858":{"id":"785331544816858","from":{"id":"569263718","name":"Phuong Thao Tran"},"message":"・きみを待っている間、本を読んでいた。\n・きみが留守の　あいだに／うちに　掃除を済ませておいた。","can_remove":false,"created_time":"2013-12-27T16:45:19+0000","like_count":0,"user_likes":false},"785335664816446":{"id":"785335664816446","from":{"id":"1146680551","name":"優しい なぁ"},"message":"Gì vậy :))","can_remove":false,"created_time":"2013-12-27T16:54:11+0000","like_count":0,"user_likes":false},"785337021482977":{"id":"785337021482977","from":{"id":"569263718","name":"Phuong Thao Tran"},"message":"đưa ví dụ cho em phân tích tiếp mà, gọi là trợ bình loạn","can_remove":false,"created_time":"2013-12-27T16:57:32+0000","like_count":0,"user_likes":false},"785337921482887":{"id":"785337921482887","from":{"id":"1146680551","name":"優しい なぁ"},"message":"君のことを思ってるうちに/間に、おすしを食べた\nVí dụ của chị nghe nó nghiêm túc quoá ^_^","can_remove":false,"created_time":"2013-12-27T17:00:26+0000","like_count":0,"user_likes":false},"785338758149470":{"id":"785338758149470","from":{"id":"569263718","name":"Phuong Thao Tran"},"message":"ví dụ của chị là lãng mạn và ngoan ngoãn","can_remove":false,"created_time":"2013-12-27T17:02:32+0000","like_count":0,"user_likes":false},"785338924816120":{"id":"785338924816120","from":{"id":"569263718","name":"Phuong Thao Tran"},"message":"ví dụ của em là kuisinpou, :D","can_remove":false,"created_time":"2013-12-27T17:03:02+0000","like_count":0,"user_likes":false},"785340178149328":{"id":"785340178149328","from":{"id":"569263718","name":"Phuong Thao Tran"},"message":"ví dụ của em vế trước và vế sau bà con xa tít, đã vậy còn như kiểu ăn chùng ăn vụng...","can_remove":false,"created_time":"2013-12-27T17:06:08+0000","like_count":0,"user_likes":false},"785342198149126":{"id":"785342198149126","from":{"id":"1146680551","name":"優しい なぁ"},"message":"Hehe","can_remove":false,"created_time":"2013-12-27T17:10:07+0000","like_count":0,"user_likes":false},"785355908147755":{"id":"785355908147755","from":{"id":"100000603915176","name":"悪いな ぁ"},"message":"Haizz, đây là chỗ cho cô chú ấy ấy à. Đi ngủ mau :3","can_remove":false,"created_time":"2013-12-27T17:40:52+0000","like_count":0,"user_likes":false}},"paging":{"cursors":{"after":"NzgzOTY4NjY4Mjg2NDc5","before":"NzgzOTY4NjY4Mjg2NDc5"},"next":"https://graph.facebook.com/229244010425617_783868024963210/comments?limit=1&summary=1&after=NzgzOTY4NjY4Mjg2NDc5"},"summary":{"order":"chronological","total_count":30}}}