{"id":"229244010425617_784003214949691","type":"photo","object_id":"189428214593892","picture":"https://fbcdn-photos-c-a.akamaihd.net/hphotos-ak-frc3/t1.0-0/1505350_189428214593892_1024685622_s.jpg","link":"https://www.facebook.com/photo.php?fbid=189428214593892&set=gm.784003214949691&type=1&relevant_count=1","from":{"id":"100005801442456","name":"An Nguyen"},"message":"VAI TRÒ NGƯỜI PHỤ NỮ TRONG XÃ HỘI NHẬT\n\nHôm này cùng nói đến câu chuyện người phụ nữ Nhật trong các vị trí ở những lĩnh vực khác nhau trong xã hội ở Nhật nhé.\n\nNhật là nước có thể nói bắt rễ với nền văn minh phương tây từ rất sớm, và có sự ảnh hưởng  rất đậm nét, nhưng vai trò của người phụ nữ Nhật không được đánh giá cao như các nước phương tây thậm chí hiện tại họ còn thua … nhiều nước Châu phi ở những lĩnh vực  mà hình ảnh người phụ nữ còn rất mờ nhạt.\n\nTrong bản điều tra mới nhất của WEF, đây là tổ chức kinh tế toàn cầu có tên trong tiếng Nhật là 世界経済フォーラム　phát biểu trong tháng 10 vừa qua thì tại Nhật Bản,  sự cách biệt giữa nam và nữ trong xã hội Nhật có 1 khoảng cách rất lớn. Và trong 136 nước thì Nhật đứng ở vị trí 106! \n\nTheo bản đánh giá này thì các nước đứng đầu sẽ là Ai-len vị trí thứ 1, Phần lan ở vị trí số 2, Mỹ ở vị trí 21, Trung quốc 69, còn Nhật Bản ở vị trí 105, tệ hơn nữa phải nói đến là Hàn quốc với 111 ( nghĩ mộng lấy chồng Hàn đi hé hé ). Các vị trí này sẽ đánh giá trên nhiều mặt khác nhau như tham gia trong bộ máy chính phủ, các hoạt động quản lý câp cao ở các cty v.vv\n\nVà Nhật có các điểm đánh giá như sau :\n\n*Vai trò trong các hoạt động kinh tế: được 58 điểm , ở vị trí 104.\n       *Vai trò trong hoạt động giáo dục : được 98 điểm xếp, vị trí 91.\n       *Vai trò trong sức khoẻ và sinh tồn (?): được 98 điểm , vị trí 34.\n       *Vai trò trong các hoạt động chính trị xã hội:được 6 điểm, xếp vị trí 118. \n\nNói đến vai trò người phụ nữ trong lĩnh vực kinh tế, vai trò người phụ nữ Nhật ở các vị trí lãnh đạo chiếm vị trí rất thấp chỉ 9%. Còn trong lĩnh vực nghị viện chính phủ thì chả khá hơn với con số 8%! Tại sao 1 đất nước tiên tiến như Nhật lại thấp như vậy thì có thể cho rằng đó là do nguyên nhân về vai trò của người phụ nữ trong xã hội Nhật vẫn còn tồn tại ở việc “ Đàn ông thì ra ngoài kiếm tiền, đàn bà ở nhà nuôi con, chăm sóc nhà cửa” còn rất là sâu sắc. Ở nhật thì khi người phụ nữ có con thì việc họ phải bỏ công việc mình đang làm chiếm tới 60%, còn trong chính phủ thì hơn 20 năm trước, chính phủ đã đề ra mục tiêu để sự góp mặt đóng góp của người phụ nữ phải ở mức 30% rồi nhưng có vẻ kế hoạch vẫn chả khá hơn mấy. Nếu so với các nước châu phi như UGANDA thì Nhật bản chắc còn thua dài dài khi ở đó tỷ lệ người phụ nữ tham gia chính trị chiếm ngang ngữa như cánh mày râu!","created_time":"2013-12-25T12:25:37+0000","updated_time":"2013-12-26T07:41:17+0000","likes":{"data":{"100000508720532":{"id":"100000508720532","name":"Ha Lanphi"},"100004253979918":{"id":"100004253979918","name":"Louis Hoàng Văn Thái"},"100003762427351":{"id":"100003762427351","name":"Hiroshi Yasu Oki"},"100000381394367":{"id":"100000381394367","name":"Thành Nguyễn"},"100001744546054":{"id":"100001744546054","name":"Quân Dương"},"100001995263460":{"id":"100001995263460","name":"Chibi Yuriko"},"100007316735911":{"id":"100007316735911","name":"Tuyen Dung Vn  Jp"},"100005213414017":{"id":"100005213414017","name":"Minh Nhat"},"100004251847599":{"id":"100004251847599","name":"Yuki Yuki"},"100000172293938":{"id":"100000172293938","name":"Minh Tuấn"},"100003913383051":{"id":"100003913383051","name":"Tho Tran"},"100004543351101":{"id":"100004543351101","name":"Trí Nguyên Đỗ"},"100003957878204":{"id":"100003957878204","name":"Ma Kết"},"569263718":{"id":"569263718","name":"Phuong Thao Tran"},"100002932607957":{"id":"100002932607957","name":"Phạm Thơm"},"100006417041423":{"id":"100006417041423","name":"Figold"},"100002264464303":{"id":"100002264464303","name":"A Ki Ra"},"100000844467820":{"id":"100000844467820","name":"Trịnh Minh Hùng"},"100001754136107":{"id":"100001754136107","name":"Nguyễn Tuấn Vũ"},"1023965040":{"id":"1023965040","name":"Juli KimChi"},"100002907638629":{"id":"100002907638629","name":"Huyền Trang"},"100003622968099":{"id":"100003622968099","name":"Đỗ Hiền"},"100003157796395":{"id":"100003157796395","name":"Hao Hao"},"100000052661831":{"id":"100000052661831","name":"Shuntoku Pham"},"1744556343":{"id":"1744556343","name":"Thùy Dương"},"100001526631937":{"id":"100001526631937","name":"Tường Oanh Mineko"},"100005145330760":{"id":"100005145330760","name":"Sơn Vũ"},"100005211189763":{"id":"100005211189763","name":"Oliveu Cchann"},"1717530880":{"id":"1717530880","name":"Triệu Việt Cường"},"100005495773832":{"id":"100005495773832","name":"Hiền Vũ"}},"paging":{"cursors":{"after":"MTAwMDAwNTA4NzIwNTMy","before":"MTAwMDAwNTA4NzIwNTMy"},"next":"https://graph.facebook.com/229244010425617_784003214949691/likes?limit=1&summary=1&after=MTAwMDAwNTA4NzIwNTMy"},"summary":{"total_count":30}},"comments":{"data":{"784034341613245":{"id":"784034341613245","from":{"id":"100001526631937","name":"Tường Oanh Mineko"},"message":"a An Nguyen ơi, cánh \" mài râu\" là phải mài như dao kéo ak hở? :D","message_tags":[{"id":"100005801442456","name":"An Nguyen","type":"user","offset":2,"length":9}],"can_remove":false,"created_time":"2013-12-25T12:44:39+0000","like_count":0,"user_likes":false},"784036368279709":{"id":"784036368279709","from":{"id":"100005801442456","name":"An Nguyen"},"message":"Học tiếng Việt lại đi em :v","can_remove":false,"created_time":"2013-12-25T12:47:51+0000","like_count":0,"user_likes":false},"784037288279617":{"id":"784037288279617","from":{"id":"100001526631937","name":"Tường Oanh Mineko"},"message":"ơ, :( trong từ điển tiếng việt có chữ \" cánh mài râu\" sao? a có nhầm lẫn ko ấy? a mới xem lại ak, hứ :/","can_remove":false,"created_time":"2013-12-25T12:49:35+0000","like_count":0,"user_likes":false},"784038214946191":{"id":"784038214946191","from":{"id":"100005801442456","name":"An Nguyen"},"message":":v mày râu","can_remove":false,"created_time":"2013-12-25T12:51:06+0000","like_count":0,"user_likes":false},"784038588279487":{"id":"784038588279487","from":{"id":"100001526631937","name":"Tường Oanh Mineko"},"message":"chu choa, đã nhầm lẫn còn mạnh miệng nói ngta học lại nữa chứ, hứ, đanh đá gớm :p","can_remove":false,"created_time":"2013-12-25T12:51:57+0000","like_count":0,"user_likes":false},"784043088279037":{"id":"784043088279037","from":{"id":"100001526631937","name":"Tường Oanh Mineko"},"message":"Của e có 3 cmt, c ko hiểu cmt thứ mấy?, đó là hội thoại giữa e và ảnh muh, sao e nói e giống tự kỉ nói nhảm đc chị hè? :D","can_remove":false,"created_time":"2013-12-25T13:01:48+0000","like_count":0,"user_likes":false},"784045431612136":{"id":"784045431612136","from":{"id":"100001526631937","name":"Tường Oanh Mineko"},"message":":(, ảnh nhầm chứ sao e nhầm đc, chị đọc hết bài của a An Nguyen chưa vậy? c hỏi là e nghi ngờ ah..hehe :p","message_tags":[{"id":"100005801442456","name":"An Nguyen","type":"user","offset":54,"length":9}],"can_remove":false,"created_time":"2013-12-25T13:05:37+0000","like_count":0,"user_likes":false},"784046651612014":{"id":"784046651612014","from":{"id":"100001526631937","name":"Tường Oanh Mineko"},"message":"ảnh đã sửa lại chữ \" cánh mài râu\" thành \" cánh mày râu\" rồi đó c ơi Chiếc Lá Cuối Cùng","message_tags":[{"id":"100006469315671","name":"Chiếc Lá Cuối Cùng","type":"user","offset":69,"length":18}],"can_remove":false,"created_time":"2013-12-25T13:07:23+0000","like_count":0,"user_likes":false},"784049024945110":{"id":"784049024945110","from":{"id":"100001526631937","name":"Tường Oanh Mineko"},"message":"hehe, dạ, cũng khó phân biết nếu chỉ đọc cmt mà chưa đọc kỹ bài gốc của ảnh c ha.:D","can_remove":false,"created_time":"2013-12-25T13:10:07+0000","like_count":1,"user_likes":false},"784521781564501":{"id":"784521781564501","from":{"id":"100001416272263","name":"Mai PB"},"message":"Nếu người Việt không có người gúp việc, không có ông bà giúp đỡ, gia đình sống độc lập không làm phiền ai, không là gánh nặng với xã hội, người chồng phải làm việc đến tối hoặc khuya... thì liệu tỉ lệ tham gia xã hội có thấp như Nhật không? Xh ng ta là vậy.","can_remove":false,"created_time":"2013-12-26T06:08:01+0000","like_count":1,"user_likes":false},"784546488228697":{"id":"784546488228697","from":{"id":"100000381394367","name":"Thành Nguyễn"},"message":"Lần nào mình đi trên tàu điện mà gặp nhà nào có 2 vợ chồng đi với nhau cũng đều thấy vợ đứng chồng ngồi.","can_remove":false,"created_time":"2013-12-26T07:41:17+0000","like_count":1,"user_likes":false}},"paging":{"cursors":{"after":"Nzg0MDM0MzQxNjEzMjQ1","before":"Nzg0MDM0MzQxNjEzMjQ1"},"next":"https://graph.facebook.com/229244010425617_784003214949691/comments?limit=1&summary=1&after=Nzg0MDM0MzQxNjEzMjQ1"},"summary":{"order":"chronological","total_count":15}}}