{"id":"229244010425617_784537361562943","type":"photo","object_id":"671589866197054","picture":"https://fbcdn-photos-e-a.akamaihd.net/hphotos-ak-frc3/t1.0-0/1506977_671589866197054_1200180326_s.jpg","link":"https://www.facebook.com/photo.php?fbid=671589866197054&set=gm.784537361562943&type=1&relevant_count=1","from":{"id":"100000381394367","name":"Thành Nguyễn"},"message":"Sự trưởng thành không phải là khi bạn bắt đầu nói những điều to tát, mà nó là khi bạn bắt đầu hiểu được những điều nhỏ nhặt.\n\n人間の成熟期とは、大きな事を話し始める時ではない。様々な小さいことを理解し始める時の事である。\n\n(にんげん)の(せいじゅくき)とは、(お)きな(こと)を(はな)し(はじ)める(とき)ではない、さまざまな(ち)さい(こと)を(りかい)しはじめる(とき)の(こと)である\n\nNingen no seijukuki to wa, ookina koto o hanashi hajimeru tokide wanai. Samazamana chisai koto o rikai shi hajimeru toki no kotodearu.\n\nChữ Hán\n\n人間: Nhân gian\n\n成熟期: Thành thục kỳ\n\n大:Đại\n\n事: Sự\n\n話: Thoại\n\n始: Thủy\n\n時: Thời\n\n様: Dạng \n\n理解: Lý giải\n\nĐã có khi nào bạn nghĩ rằng việc nào đó là việc nhỏ chưa? Chưa hẳn nó là điều nhỏ đâu, có khả năng là bạn chưa nhìn ra được điều lớn lao trong những điều nhỏ, và khi đó bạn chưa trưởng thành thực sự đâu.:D","created_time":"2013-12-26T07:04:30+0000","updated_time":"2013-12-27T03:26:54+0000","likes":{"data":{"100001872458112":{"id":"100001872458112","name":"Alita Nguyen"},"100003828118579":{"id":"100003828118579","name":"Khanh Linh"},"100002892549628":{"id":"100002892549628","name":"Hải Hà"},"100000045271667":{"id":"100000045271667","name":"Nam Thai Nguyen"},"100002059771738":{"id":"100002059771738","name":"Yen Hai"},"100001594722256":{"id":"100001594722256","name":"Viết An Phạm"},"100001260645727":{"id":"100001260645727","name":"Ngo Duy Son"},"1146680551":{"id":"1146680551","name":"優しい なぁ"},"100001526631937":{"id":"100001526631937","name":"Tường Oanh Mineko"},"1060893770":{"id":"1060893770","name":"Hyhy Zui Zẻ"},"100001754136107":{"id":"100001754136107","name":"Nguyễn Tuấn Vũ"},"1031089243":{"id":"1031089243","name":"Tiet Khai"},"100003762427351":{"id":"100003762427351","name":"Hiroshi Yasu Oki"},"100004452123869":{"id":"100004452123869","name":"Pham Tiên Bach"},"100000052661831":{"id":"100000052661831","name":"Shuntoku Pham"},"100000508720532":{"id":"100000508720532","name":"Ha Lanphi"},"100004986644163":{"id":"100004986644163","name":"Rhodes Lindos"},"100003165554056":{"id":"100003165554056","name":"Sâu Bét"},"738235689":{"id":"738235689","name":"Dang Thi Phuong"},"100003702043787":{"id":"100003702043787","name":"Hằng Hanu"},"100001257093338":{"id":"100001257093338","name":"Hanh Dang"},"100007316735911":{"id":"100007316735911","name":"Tuyen Dung Vn  Jp"},"100003055356509":{"id":"100003055356509","name":"Thuan Nguyen"},"100003797588841":{"id":"100003797588841","name":"Khoai Tây"},"1437470255":{"id":"1437470255","name":"珠愛"},"1283298041":{"id":"1283298041","name":"Búa Đức Thanh"},"100001079726837":{"id":"100001079726837","name":"Hatenai Yume"},"100000303662777":{"id":"100000303662777","name":"Trang Táo Mèo"},"100005859968752":{"id":"100005859968752","name":"Lan Tran"},"569263718":{"id":"569263718","name":"Phuong Thao Tran"},"100003913674562":{"id":"100003913674562","name":"Đỗ Ngọc"},"100000468762077":{"id":"100000468762077","name":"Youki Youki"},"100004100086756":{"id":"100004100086756","name":"Thủy Hử"},"100005024348771":{"id":"100005024348771","name":"Long Hoàng"},"100000309978634":{"id":"100000309978634","name":"Tan Vu"}},"paging":{"cursors":{"after":"MTAwMDAxODcyNDU4MTEy","before":"MTAwMDAxODcyNDU4MTEy"},"next":"https://graph.facebook.com/229244010425617_784537361562943/likes?limit=1&summary=1&after=MTAwMDAxODcyNDU4MTEy"},"summary":{"total_count":35}},"comments":{"data":{"784690524880960":{"id":"784690524880960","from":{"id":"100001526631937","name":"Tường Oanh Mineko"},"message":"sự trưởng thành phát triển lớn dần lên từ những điểu nhỏ nhoi đơn giản.:)","can_remove":false,"created_time":"2013-12-26T14:17:55+0000","like_count":0,"user_likes":false},"784743284875684":{"id":"784743284875684","from":{"id":"1146680551","name":"優しい なぁ"},"message":"em hiểu sai về câu này rồi đấy :)","can_remove":false,"created_time":"2013-12-26T15:57:46+0000","like_count":0,"user_likes":false},"784746051542074":{"id":"784746051542074","from":{"id":"100000381394367","name":"Thành Nguyễn"},"message":"Có thể là Oanh phát triển thêm ý từ câu đó chứ không phải diễn giải ý câu đó.","can_remove":false,"created_time":"2013-12-26T16:03:50+0000","like_count":0,"user_likes":false},"784787424871270":{"id":"784787424871270","from":{"id":"100001526631937","name":"Tường Oanh Mineko"},"message":":( e nói theo suy nghĩ của e chứ ko phải e dịch câu trên đâu a Anh Nguyễn ơi\nDạ đúng rồi đó a Thành Nguyễn","message_tags":[{"id":"1146680551","name":"Anh Nguyễn","type":"user","offset":63,"length":10},{"id":"100000381394367","name":"Thành Nguyễn","type":"user","offset":94,"length":12}],"can_remove":false,"created_time":"2013-12-26T17:22:19+0000","like_count":0,"user_likes":false},"784788031537876":{"id":"784788031537876","from":{"id":"100001260645727","name":"Ngo Duy Son"},"message":"Thành Nguyễn: Anh kiếm mấy câu này ở đâu thế anh?","message_tags":[{"id":"100000381394367","name":"Thành Nguyễn","type":"user","offset":0,"length":12}],"can_remove":false,"created_time":"2013-12-26T17:23:13+0000","like_count":0,"user_likes":false},"785002144849798":{"id":"785002144849798","from":{"id":"100000381394367","name":"Thành Nguyễn"},"message":"Ngo Duy Son Anh có một thói quen từ nhỏ là thích cóp nhặt lung tung, khoảng từ hồi học cấp 2 thì luôn có một quyển sổ, lúc nào đọc được ở đâu đó có cái gì hay hoặc có 1 cái idea nào đó mình nghĩ ra, phát hiện được điều gì đó thì đều ghi lại. Thói quen đó cũng theo  mình đến bây giờ. Giờ ko dùng sổ giấy nữa nhưng thông tin số hóa thì cũng không khác gì.\n\nĐể sinh tồn trong thế giới này cần phải có nhiều loại vũ khí, và những câu như thế này là một loại vũ khí trong kho vũ khí mềm mà anh tích cóp trong quá trình chạy đua vũ trang. Bây giờ lúc nào muốn bắn là rút súng ra ngay, muốn ném lựu đạn là cũng quăng ra luôn.","can_remove":false,"created_time":"2013-12-27T02:00:55+0000","like_count":4,"user_likes":false},"785027858180560":{"id":"785027858180560","from":{"id":"100001260645727","name":"Ngo Duy Son"},"message":"Phuc dai ca luon!","can_remove":false,"created_time":"2013-12-27T03:03:09+0000","like_count":0,"user_likes":false},"785038451512834":{"id":"785038451512834","from":{"id":"569263718","name":"Phuong Thao Tran"},"message":"thể hiện sự cảm phục bằng tiếng Việt có dấu giúp nhé bạn Ngo Duy Son","can_remove":false,"created_time":"2013-12-27T03:26:54+0000","like_count":1,"user_likes":false}},"paging":{"cursors":{"after":"Nzg0NjkwNTI0ODgwOTYw","before":"Nzg0NjkwNTI0ODgwOTYw"},"next":"https://graph.facebook.com/229244010425617_784537361562943/comments?limit=1&summary=1&after=Nzg0NjkwNTI0ODgwOTYw"},"summary":{"order":"chronological","total_count":8}}}