{"id":"229244010425617_784563734893639","type":"photo","object_id":"220214484824906","picture":"https://fbcdn-photos-f-a.akamaihd.net/hphotos-ak-prn2/t1.0-0/1546329_220214484824906_283801221_s.jpg","link":"https://www.facebook.com/photo.php?fbid=220214484824906&set=gm.784563734893639&type=1&relevant_count=1","from":{"id":"100005090677811","name":"Trí Chơn"},"message":"Vài từ vựng về toán học","created_time":"2013-12-26T08:33:58+0000","updated_time":"2013-12-26T16:45:59+0000","likes":{"data":{"100000707762750":{"id":"100000707762750","name":"Tran Tho"},"569263718":{"id":"569263718","name":"Phuong Thao Tran"},"100005813941367":{"id":"100005813941367","name":"TY Tran"},"100000284487802":{"id":"100000284487802","name":"Buu Lam Gia"},"100003762427351":{"id":"100003762427351","name":"Hiroshi Yasu Oki"},"1491681088":{"id":"1491681088","name":"Thuy Duong Pham"},"100002349785809":{"id":"100002349785809","name":"Maiko Migita"},"100002059771738":{"id":"100002059771738","name":"Yen Hai"},"100003538933297":{"id":"100003538933297","name":"Phong Linh"},"100004374030406":{"id":"100004374030406","name":"Chính Nôbita"},"100007316735911":{"id":"100007316735911","name":"Tuyen Dung Vn  Jp"},"100000455388210":{"id":"100000455388210","name":"Đức Trung Nguyễn"}},"paging":{"cursors":{"after":"MTAwMDAwNzA3NzYyNzUw","before":"MTAwMDAwNzA3NzYyNzUw"},"next":"https://graph.facebook.com/229244010425617_784563734893639/likes?limit=1&summary=1&after=MTAwMDAwNzA3NzYyNzUw"},"summary":{"total_count":12}},"comments":{"data":{"784591301557549":{"id":"784591301557549","from":{"id":"569263718","name":"Phuong Thao Tran"},"message":"14. 球体：きゅうたい　chứ nhỉ","can_remove":false,"created_time":"2013-12-26T10:00:04+0000","like_count":0,"user_likes":false},"784762924873720":{"id":"784762924873720","from":{"id":"100001292564389","name":"Tran Viet"},"message":"cho mình hỏi\nnày là hình hay phim vậy  ?\nmình không xem được  ??","can_remove":false,"created_time":"2013-12-26T16:38:52+0000","like_count":0,"user_likes":false},"784767034873309":{"id":"784767034873309","from":{"id":"569263718","name":"Phuong Thao Tran"},"message":"image đó Tran Viet","message_tags":[{"id":"100001292564389","name":"Tran Viet","type":"user","offset":9,"length":9}],"can_remove":false,"created_time":"2013-12-26T16:45:59+0000","like_count":0,"user_likes":false}},"paging":{"cursors":{"after":"Nzg0NTkxMzAxNTU3NTQ5","before":"Nzg0NTkxMzAxNTU3NTQ5"},"next":"https://graph.facebook.com/229244010425617_784563734893639/comments?limit=1&summary=1&after=Nzg0NTkxMzAxNTU3NTQ5"},"summary":{"order":"chronological","total_count":3}}}