{"id":"229244010425617_784548744895138","type":"status","from":{"id":"100007405563856","name":"Mirea Nguyen"},"message":"các bạn ơi,cá bạn đi vào kì tháng 4 có bạn nào đã bị cục gọi về chưa?có bị check kĩ năng tiếng nhật ko?cảm ơn các bạn","created_time":"2013-12-26T07:49:03+0000","updated_time":"2013-12-27T03:21:50+0000","likes":{"data":{"100003207505208":{"id":"100003207505208","name":"Tuyển Osaka Minami"},"1023965040":{"id":"1023965040","name":"Juli KimChi"},"100002793066505":{"id":"100002793066505","name":"Vang Vu"},"100001640832299":{"id":"100001640832299","name":"Hoàng Đạt"}},"paging":{"cursors":{"after":"MTAwMDAzMjA3NTA1MjA4","before":"MTAwMDAzMjA3NTA1MjA4"},"next":"https://graph.facebook.com/229244010425617_784548744895138/likes?limit=1&summary=1&after=MTAwMDAzMjA3NTA1MjA4"},"summary":{"total_count":4}},"comments":{"data":{"784551901561489":{"id":"784551901561489","from":{"id":"100003913383051","name":"Tho Tran"},"message":"Bạn đi theo trung tâm hay gửi hồ sơ trực tiếp ạ??? Nếu đi qua trung tâm thì bạn hok bị check về năng lực tiếng, còn nộp hồ sơ trực tiếp thì khi phỏng vấn trường sẽ check năng lực tiếng luôn bạn ạ!!!\nP/s: cũng hok phải lo lắng quá về việc gọi điện check từ cục đâu ạ!!! Vì ít người bị cục gọi điện để check nên bạn đừng lo lắng quá !!! Chúc bạn may mắn","can_remove":false,"created_time":"2013-12-26T07:55:53+0000","like_count":0,"user_likes":false},"784552791561400":{"id":"784552791561400","from":{"id":"100004017712500","name":"Linh Pham"},"message":"Mình cũng đang trong tinh trag lo và hồi hộp =))","can_remove":false,"created_time":"2013-12-26T07:59:35+0000","like_count":0,"user_likes":false},"784554444894568":{"id":"784554444894568","from":{"id":"100007405563856","name":"Mirea Nguyen"},"message":"Mình nộp qua trung tâm b ạ,bữa h mất ăn mất ngủ hihi,vì trung tâm nói đợt này khó hơn đợt trc,nên khi cục gọi về pvan phụ huynh lẫn cả học sinh,có phỏng vấn kỹ năng tiếng nhật nữa","can_remove":false,"created_time":"2013-12-26T08:05:49+0000","like_count":1,"user_likes":false},"784554978227848":{"id":"784554978227848","from":{"id":"100003913383051","name":"Tho Tran"},"message":"Đừng lo lắng quá, nếu hồ sơ không có vấn đề gì thì cục không gọi điện đâu bạn ạ!!! Còn năng lực tiếng sẽ không check nhé!!! Nhưng cố gắng học tiếng cho tốt bạn nhé!!! Chúc bạn thành công :)","can_remove":false,"created_time":"2013-12-26T08:07:52+0000","like_count":0,"user_likes":false},"784555504894462":{"id":"784555504894462","from":{"id":"100007405563856","name":"Mirea Nguyen"},"message":"thanks b,mình đi okinawa,nên hơi lo lắng,mình đổi qua tỉnh khác nhưng nộp lên trường rồi nên trung tâm ko đổi ddc.","can_remove":false,"created_time":"2013-12-26T08:10:14+0000","like_count":0,"user_likes":false},"784555661561113":{"id":"784555661561113","from":{"id":"100003207505208","name":"Tuyển Osaka Minami"},"message":"Neu ban da tung di lm thi hay chu y chuan bi nhug cau tra loi ve phan do. Cuc goi se hoi ban ve phan do ban ah","can_remove":false,"created_time":"2013-12-26T08:11:05+0000","like_count":1,"user_likes":false},"784560188227327":{"id":"784560188227327","from":{"id":"100001640832299","name":"Hoàng Đạt"},"message":"cùng chung cảnh ngộ mình nộp Chiba hok biêt có khó khăn hok? mình đã từng đi làm rồi. bạn Tuyển Osaka Minami có thông tin j chia sẻ mình vs","message_tags":[{"id":"100003207505208","name":"Tuyển Osaka Minami","type":"user","offset":90,"length":18}],"can_remove":false,"created_time":"2013-12-26T08:20:15+0000","like_count":0,"user_likes":false},"784560508227295":{"id":"784560508227295","from":{"id":"100001640832299","name":"Hoàng Đạt"},"message":"mình hok lo check khả năng tiếng Nhật mà lo họ gọi về ng bảo lãnh và cty của ng bảo lãnh thôi. vì giấy đó đi xin nên sợ có biến :D","can_remove":false,"created_time":"2013-12-26T08:21:52+0000","like_count":0,"user_likes":false},"784561068227239":{"id":"784561068227239","from":{"id":"100003207505208","name":"Tuyển Osaka Minami"},"message":"T co  may ng ban dj lm rui. Cuc goi phong van mot so cau hoi nhu la: ban lm cong ty nao? Chuc vu ban la j? Dia chi cong ty ?  Van phog o tag may? Giam doc ten j? Van phog o tag may ? Van phog co may nguoi?","can_remove":false,"created_time":"2013-12-26T08:23:05+0000","like_count":0,"user_likes":false},"784561251560554":{"id":"784561251560554","from":{"id":"100003207505208","name":"Tuyển Osaka Minami"},"message":"Mot so cau hoi ma ban min bi cuc hoi do ban ak","can_remove":false,"created_time":"2013-12-26T08:23:28+0000","like_count":0,"user_likes":false},"784561588227187":{"id":"784561588227187","from":{"id":"100004556491180","name":"Vũ Ngọc Vượng"},"message":"Vjek j faj xoan. Cu an n0.ngu ky dj.tu luk mjh nap ho so den khj dj chag aj goj dt cho mjh ne","can_remove":false,"created_time":"2013-12-26T08:24:29+0000","like_count":0,"user_likes":false},"784561988227147":{"id":"784561988227147","from":{"id":"100001640832299","name":"Hoàng Đạt"},"message":"thế à cũng hok khó khăn lắm chắc chỉ xác nhận thôi.cảm ơn bạn nhé\nVũ Ngọc Vượng mình cũng mong hok bị gọi như bạn thôi. bjo mà trượt  thi nhỡ nhiều việc nên cũng hơi lo","message_tags":[{"id":"100004556491180","name":"Vũ Ngọc Vượng","type":"user","offset":66,"length":13}],"can_remove":false,"created_time":"2013-12-26T08:26:17+0000","like_count":0,"user_likes":false},"784563144893698":{"id":"784563144893698","from":{"id":"100004556491180","name":"Vũ Ngọc Vượng"},"message":"Ukm. Mjh mug 5 nay pay .chj lo sag do thuj.","can_remove":false,"created_time":"2013-12-26T08:30:50+0000","like_count":0,"user_likes":false},"784563588226987":{"id":"784563588226987","from":{"id":"100001640832299","name":"Hoàng Đạt"},"message":"đỗ rồi cũng lo mà chưa đỗ cũng lo :D \nông đi tháng 1 hả? đi trường nào? ở đâu?","can_remove":false,"created_time":"2013-12-26T08:33:15+0000","like_count":0,"user_likes":false},"784564014893611":{"id":"784564014893611","from":{"id":"100002793066505","name":"Vang Vu"},"message":"chua aj check ak","can_remove":false,"created_time":"2013-12-26T08:34:56+0000","like_count":0,"user_likes":false},"784564381560241":{"id":"784564381560241","from":{"id":"100001640832299","name":"Hoàng Đạt"},"message":"chưa chắc phải sang tháng 1 mới bắt đầu khai đao :V","can_remove":false,"created_time":"2013-12-26T08:36:12+0000","like_count":0,"user_likes":false},"784569611559718":{"id":"784569611559718","from":{"id":"100004017712500","name":"Linh Pham"},"message":"cứ chuẩn bị tinh thần thì hơn . mà bạn du học hay xk ?","can_remove":false,"created_time":"2013-12-26T08:55:29+0000","like_count":1,"user_likes":false},"784577728225573":{"id":"784577728225573","from":{"id":"100006457419726","name":"Nam Văn Lê"},"message":"hic.m tự làm hồ sơ đi nên mới ko check này.khi nộp hồ sơ thì truờng đã check tiếng của m rồi.bây giờ lo về phía nng bảo lãnh thôi.hình nhu là sag giữa thág 1 bắt đầu bị cục check ấy","can_remove":false,"created_time":"2013-12-26T09:19:34+0000","like_count":0,"user_likes":false},"784590624890950":{"id":"784590624890950","from":{"id":"100001640832299","name":"Hoàng Đạt"},"message":"đúng đó lo phía ng bảo lãnh thôi.","can_remove":false,"created_time":"2013-12-26T09:58:21+0000","like_count":0,"user_likes":false},"784604264889586":{"id":"784604264889586","from":{"id":"100004556491180","name":"Vũ Ngọc Vượng"},"message":"Ukm. Truog nhat ngu isi.gifu","can_remove":false,"created_time":"2013-12-26T10:40:04+0000","like_count":0,"user_likes":false},"784616218221724":{"id":"784616218221724","from":{"id":"100007405563856","name":"Mirea Nguyen"},"message":"có ai đi okinawa ko?","can_remove":false,"created_time":"2013-12-26T11:08:24+0000","like_count":0,"user_likes":false},"784704488212897":{"id":"784704488212897","from":{"id":"100003700084315","name":"Trầm Luân"},"message":"mình cũng đang lo quá, hình như bị cục gọi về là chắc trượt  80% rồi phải không nhỉ?","can_remove":false,"created_time":"2013-12-26T14:48:23+0000","like_count":0,"user_likes":false},"784706481546031":{"id":"784706481546031","from":{"id":"100000359762118","name":"Mi Tra"},"message":"Hồ sơ mới nộp lên mà Nhật chuẩn bị vào nghỉ tết nên ko lo bị gọi. \nCuối tháng 1 đầu tháng 2 mới gọi. \nP/s: Nhắc nhở bạn Tuyển Osaka Minami và bạn Nhuy Nguyen viết bằng tiếng Việt có dấu đúng theo nội quy của group nhé!","can_remove":false,"created_time":"2013-12-26T14:52:32+0000","like_count":0,"user_likes":false},"784706738212672":{"id":"784706738212672","from":{"id":"100001640832299","name":"Hoàng Đạt"},"message":"Ko đến nỗi ý chắc 50 50 hj","can_remove":false,"created_time":"2013-12-26T14:52:57+0000","like_count":0,"user_likes":false},"784709731545706":{"id":"784709731545706","from":{"id":"100001640832299","name":"Hoàng Đạt"},"message":"Ko biết tỷ lệ gọi có cao ko? Nghe nói năm nay làm chặt hơn","can_remove":false,"created_time":"2013-12-26T14:58:45+0000","like_count":0,"user_likes":false},"784710104879002":{"id":"784710104879002","from":{"id":"100001848885057","name":"Tiểu Mỡ Nhi"},"message":"Cho em hỏi là em hiện đang học Đại học và cũng đã nộp hồ sơ đi tháng 4. Liệu cục có hỏi nhiều ko ạ","can_remove":false,"created_time":"2013-12-26T14:59:33+0000","like_count":0,"user_likes":false},"784712021545477":{"id":"784712021545477","from":{"id":"100000359762118","name":"Mi Tra"},"message":"Tuỳ hồ sơ. Cái này ko biết trước được.","can_remove":false,"created_time":"2013-12-26T15:03:49+0000","like_count":0,"user_likes":false},"784719618211384":{"id":"784719618211384","from":{"id":"100007405563856","name":"Mirea Nguyen"},"message":"sao lại nhắc nhở mình nhỉ,mình ghi tiếng việt có dấu đầy đủ?","can_remove":false,"created_time":"2013-12-26T15:17:59+0000","like_count":0,"user_likes":false},"785025018180844":{"id":"785025018180844","from":{"id":"100001640832299","name":"Hoàng Đạt"},"message":"Cái chữ \" tùy \" chị nói nghe đã lo rồi :)","can_remove":false,"created_time":"2013-12-27T02:55:31+0000","like_count":1,"user_likes":false},"785026968180649":{"id":"785026968180649","from":{"id":"100000359762118","name":"Mi Tra"},"message":"Ôi! Xin lỗi Nhuy Nguyen. Nhìn nhầm cmt của bạn Vũ Ngọc Vượng.\nĐính chính lại là nhắc nhở bạn Vũ Ngọc Vượng nhé!","can_remove":false,"created_time":"2013-12-27T03:00:25+0000","like_count":0,"user_likes":false},"785035488179797":{"id":"785035488179797","from":{"id":"100004556491180","name":"Vũ Ngọc Vượng"},"message":"Mìh ko pít là fảj viết có dấu .xl m.n.","can_remove":false,"created_time":"2013-12-27T03:21:50+0000","like_count":0,"user_likes":false}},"paging":{"cursors":{"after":"Nzg0NTUxOTAxNTYxNDg5","before":"Nzg0NTUxOTAxNTYxNDg5"},"next":"https://graph.facebook.com/229244010425617_784548744895138/comments?limit=1&summary=1&after=Nzg0NTUxOTAxNTYxNDg5"},"summary":{"order":"chronological","total_count":31}}}