{"id":"229244010425617_784604464889566","type":"video","picture":"https://fbexternal-a.akamaihd.net/safe_image.php?d=AQDu20yT-cd0yGfr&w=130&h=130&url=http%3A%2F%2Fi1.ytimg.com%2Fvi%2FZ2VoEN1iooE%2Fhqdefault.jpg","link":"http://www.youtube.com/watch?v=Z2VoEN1iooE","source":"http://www.youtube.com/v/Z2VoEN1iooE?version=3&autohide=1&autoplay=1","from":{"id":"569263718","name":"Phuong Thao Tran"},"message":"【どうしてだろう人は人を傷付け大切なものをなくしてく】って\n-----------------------------------------\nMột bản nhạc mà cho dù nghe bao nhiêu lần mình vẫn không cầm được nước mắt!!!\nVới âm thanh guitar thùng mộc mạc nhưng đầy ma lực, giọng ca trong sáng..., xin gửi cả nhà ca khúc　【トイレの神様】\n\n何度何度聞いても、涙が不覚に浮かばざるを得ないほど、心を感動させていた曲を紹介いたします。。。それではお聞きください。。。\n-----------------------------------------\nトイレの神様\n（植村花菜：うえむらかな）\n\n小３の頃からなぜだか\nおばあちゃんと暮らしてた\n実家の隣だったけど\nおばあちゃんと暮らしてた\n\n毎日お手伝いをして\n五目並べもした\nでもトイレ掃除だけ苦手な私に\nおばあちゃんがこう言った\n\nトイレにはそれはそれはキレイな\n女神様がいるんやで\nだから毎日キレイにしたら女神様みたいに\nべっぴんさんになれるんやで\n\nその日から私はトイレを\nピカピカにし始めた\nべっぴんさんに絶対なりたくて\n毎日磨いてた\n\n買い物に出かけた時には\n二人で鴨なんばか食べた\n新喜劇録画（しんきげきろくが）し損（そこ）ねたおばあちゃんを\n泣いて責めたもした\n\nトイレにはそれはそれはキレイな\n女神様（めがみさま）がいるんやで\nだから毎日キレイにしたら女神様みたいに\nべっぴんさんになれるんやで\n\n少し大人になった私は\nおばあちゃんとぶつかった\n家族ともうまくやれなくて\n居場所がなくなった\n\n休みの日も家に帰らず\n彼氏と遊んだりした\n五目並べも鴨なんばも\n二人の間から消えてった\n\nどうしてだろう人は人を傷付け\n大切なものをなくしてく\nいつも味方をしてくれてたおばあちゃん残して\nひとりきり家離れた\n\n上京して２年が過ぎて\nおばあちゃんが入院した\n痩せて細くなってしまった\nおばあちゃんに会いに行った\n\n「おばあちゃん、ただいまー！」ってわざと\n昔みたいに言ってみたけど\nちょっと話しただけだったのに\n「もう帰りー。」って病室を出された\n\n次の日の朝おばあちゃんは\n静かに眠りについた\nまるでまるで私が来るのを\n待っていてくれたように\nちゃんと育ててくれたのに\n恩返しもしてないのに\nいい孫じゃなかったのに\nこんな私を待っててくれたんやね\n\nトイレにはそれはそれはキレイな\n女神様（めがみさま）がいるんやで\nおばあちゃんがくれた言葉は今日の私を\nべっぴんさんにしてくれてるかな\n\nトイレにはそれはそれはキレイな\n女神様がいるんやで\nだから毎日キレイにしたら女神様みたいに\nべっぴんさんになれるんやで\n\n気立て（きだて）の良いお嫁さんになるのが\n夢だった私は\n今日もせっせとトイレを\nピカピカにする\n\nおばあちゃん\nおばあちゃん\nありがとう\nおばあちゃん\nホンマに\nありがとう。。。！\n\n----------------------------------------\nhttp://www.youtube.com/watch?v=Z2VoEN1iooE","created_time":"2013-12-26T10:40:28+0000","updated_time":"2013-12-26T16:15:15+0000","likes":{"data":{"584018147":{"id":"584018147","name":"Bui Cat Dung"},"100003207505208":{"id":"100003207505208","name":"Tuyển Osaka Minami"},"100004253979918":{"id":"100004253979918","name":"Louis Hoàng Văn Thái"},"100005883573413":{"id":"100005883573413","name":"Thanh Vu"},"100000475488823":{"id":"100000475488823","name":"Mun Meo"},"100001754136107":{"id":"100001754136107","name":"Nguyễn Tuấn Vũ"},"1146680551":{"id":"1146680551","name":"優しい なぁ"},"100001526631937":{"id":"100001526631937","name":"Tường Oanh Mineko"},"100006329763157":{"id":"100006329763157","name":"Một Mình Không Sao"},"100004251847599":{"id":"100004251847599","name":"Yuki Yuki"},"100006787330657":{"id":"100006787330657","name":"Thi Thuy Nguyen"},"100002349785809":{"id":"100002349785809","name":"Maiko Migita"},"100001553557343":{"id":"100001553557343","name":"Lin Huỳnh"},"100000019126977":{"id":"100000019126977","name":"Nguyen Thi Ngoc Anh"},"100004593582053":{"id":"100004593582053","name":"Ruby Nguyen"},"100001338846010":{"id":"100001338846010","name":"Sơn Nguyễn Minh"},"100002977923434":{"id":"100002977923434","name":"長流"},"100004398330290":{"id":"100004398330290","name":"Lam Linh"},"100004642933206":{"id":"100004642933206","name":"Aloha Aloha"},"1713049662":{"id":"1713049662","name":"Nguyen Khac Diep"},"100005801442456":{"id":"100005801442456","name":"An Nguyen"},"1453400118":{"id":"1453400118","name":"Ngan Nguyen"},"1416265619":{"id":"1416265619","name":"Starwar Bbj"},"100003244177763":{"id":"100003244177763","name":"Mèo Mun"},"100000455388210":{"id":"100000455388210","name":"Đức Trung Nguyễn"},"1794704776":{"id":"1794704776","name":"Bang Le"},"100002941809570":{"id":"100002941809570","name":"Hằng Nguyễn"}},"paging":{"cursors":{"after":"NTg0MDE4MTQ3","before":"NTg0MDE4MTQ3"},"next":"https://graph.facebook.com/229244010425617_784604464889566/likes?limit=1&summary=1&after=NTg0MDE4MTQ3"},"summary":{"total_count":27}},"comments":{"data":{"784608034889209":{"id":"784608034889209","from":{"id":"569263718","name":"Phuong Thao Tran"},"message":"Mọi người bị lay động tâm hồn bởi đoạn nào nhỉ....","can_remove":false,"created_time":"2013-12-26T10:47:14+0000","like_count":0,"user_likes":false},"784739088209437":{"id":"784739088209437","from":{"id":"100001754136107","name":"Nguyễn Tuấn Vũ"},"message":"まるで、まるで…\nlời bài hát và âm điệu nhẹ nhàng, đi vào lòng ng lúc nào k hay, nghe xong chợt nhận ra đã hết ạ.","can_remove":false,"created_time":"2013-12-26T15:48:47+0000","like_count":1,"user_likes":false},"784741018209244":{"id":"784741018209244","from":{"id":"1146680551","name":"優しい なぁ"},"message":"Hổng dịch ra tiếng việt hổng hiểu gì hết Phuong Thao Tran","message_tags":[{"id":"569263718","name":"Phuong Thao Tran","type":"user","offset":41,"length":16}],"can_remove":false,"created_time":"2013-12-26T15:53:08+0000","like_count":0,"user_likes":false},"784741341542545":{"id":"784741341542545","from":{"id":"100001526631937","name":"Tường Oanh Mineko"},"message":":'(, e bị lay động từ đoạn \" vài năm sau tôi lớn lên\"...ak chị, thanks c nhiều đã cho e nghe bài hát này.","can_remove":false,"created_time":"2013-12-26T15:53:54+0000","like_count":0,"user_likes":false},"784741638209182":{"id":"784741638209182","from":{"id":"569263718","name":"Phuong Thao Tran"},"message":"Anh Nguyễn dịch được đoạn nào, dịch thử đi","message_tags":[{"id":"1146680551","name":"Anh Nguyễn","type":"user","offset":0,"length":10}],"can_remove":false,"created_time":"2013-12-26T15:54:53+0000","like_count":0,"user_likes":false},"784742181542461":{"id":"784742181542461","from":{"id":"1146680551","name":"優しい なぁ"},"message":"em có biết j đâu,chị là chủ topic phải có trách nhiệm chứ :v","can_remove":false,"created_time":"2013-12-26T15:56:07+0000","like_count":0,"user_likes":false},"784742981542381":{"id":"784742981542381","from":{"id":"569263718","name":"Phuong Thao Tran"},"message":"em nhờ Tường Oanh Mineko đó, ^^","message_tags":[{"id":"100001526631937","name":"Tường Oanh Mineko","type":"user","offset":7,"length":17}],"can_remove":false,"created_time":"2013-12-26T15:57:08+0000","like_count":0,"user_likes":false},"784745931542086":{"id":"784745931542086","from":{"id":"569263718","name":"Phuong Thao Tran"},"message":"mà em thiệt là nguy hiểm đó Anh Nguyễn, chị có nghe mẹ chị dặn là nam nữ mà đụng tay nhau là có em bé, tội nghiệp cho cô nào lỡ đụng tay em cái là em bắt cô đó có trách nhiệm với em...","message_tags":[{"id":"1146680551","name":"Anh Nguyễn","type":"user","offset":28,"length":10}],"can_remove":false,"created_time":"2013-12-26T16:03:31+0000","like_count":0,"user_likes":false},"784746528208693":{"id":"784746528208693","from":{"id":"1146680551","name":"優しい なぁ"},"message":"gì vậy :v e là nữ mà :))","can_remove":false,"created_time":"2013-12-26T16:05:07+0000","like_count":0,"user_likes":false},"784747051541974":{"id":"784747051541974","from":{"id":"569263718","name":"Phuong Thao Tran"},"message":"nếu vậy chị ko chịu trách nhiệm với em :D","can_remove":false,"created_time":"2013-12-26T16:06:31+0000","like_count":0,"user_likes":false},"784747371541942":{"id":"784747371541942","from":{"id":"1146680551","name":"優しい なぁ"},"message":"mà mẹ chị zui za.Đụng tay gì mà có em bé hay vại :v","can_remove":false,"created_time":"2013-12-26T16:07:18+0000","like_count":0,"user_likes":false},"784750561541623":{"id":"784750561541623","from":{"id":"100001526631937","name":"Tường Oanh Mineko"},"message":"2 anh chị này nói cái gì vậy? :(","can_remove":false,"created_time":"2013-12-26T16:15:15+0000","like_count":0,"user_likes":false}},"paging":{"cursors":{"after":"Nzg0NjA4MDM0ODg5MjA5","before":"Nzg0NjA4MDM0ODg5MjA5"},"next":"https://graph.facebook.com/229244010425617_784604464889566/comments?limit=1&summary=1&after=Nzg0NjA4MDM0ODg5MjA5"},"summary":{"order":"chronological","total_count":12}}}