{"id":"229244010425617_785084074841605","type":"status","from":{"id":"100001243411261","name":"Ngưu Tỷ Tỷ"},"message":"Mọi người ơi !Hồ sơ việc làm của em bị khuyết 1 chỗ đó là Người bảo lãnh. Em nghe senpai của trường bảo là trường không bảo lãnh cho mình, vậy giờ phải làm thế nào đây ạ?","created_time":"2013-12-27T05:30:15+0000","updated_time":"2013-12-27T06:10:50+0000","comments":{"data":{"785085631508116":{"id":"785085631508116","from":{"id":"100001583529210","name":"Nguyễn Kim Hà"},"message":"người bảo lãnh để đi làm thêm hay là đi làm công ty hả bạn. Mình chưa hiểu ý bạn hỏi về vấn đề nào?","can_remove":false,"created_time":"2013-12-27T05:35:34+0000","like_count":0,"user_likes":false},"785085811508098":{"id":"785085811508098","from":{"id":"100001243411261","name":"Ngưu Tỷ Tỷ"},"message":"em đi làm thêm thôi chị ạ, chỉ là làm thêm mà rắc rối quá chị ạ. Giờ em không biết phải tìm đâu ra người bảo lãnh hết ạ.","can_remove":false,"created_time":"2013-12-27T05:36:23+0000","like_count":0,"user_likes":false},"785086158174730":{"id":"785086158174730","from":{"id":"100001583529210","name":"Nguyễn Kim Hà"},"message":"bạn viết trong tờ sơ yếu lý lịch ấy chứ gì?","can_remove":false,"created_time":"2013-12-27T05:37:11+0000","like_count":0,"user_likes":false},"785086558174690":{"id":"785086558174690","from":{"id":"1146680551","name":"優しい なぁ"},"message":"Làm j mà phải bão lãnh ghê thế :)","can_remove":false,"created_time":"2013-12-27T05:38:39+0000","like_count":1,"user_likes":false},"785086791508000":{"id":"785086791508000","from":{"id":"100001243411261","name":"Ngưu Tỷ Tỷ"},"message":"tờ sơ yếu lý lịch trong townwork thì ok rồi , nhưng mà khi nhận em họ đưa em cả xấp giấy nữa kêu về điền, nào là tàu xe, thẻ ngân hàng, gia đình, giấy cam kết....@@","can_remove":false,"created_time":"2013-12-27T05:39:32+0000","like_count":0,"user_likes":false},"785087148174631":{"id":"785087148174631","from":{"id":"100001243411261","name":"Ngưu Tỷ Tỷ"},"message":"Anh Nguyễn chỉ là 掃除　thôi anh ạ! khổ!!","message_tags":[{"id":"1146680551","name":"Anh Nguyễn","type":"user","offset":0,"length":10}],"can_remove":false,"created_time":"2013-12-27T05:40:16+0000","like_count":0,"user_likes":false},"785087204841292":{"id":"785087204841292","from":{"id":"1146680551","name":"優しい なぁ"},"message":"Khỏi ghi.chứ k quen ai bão lãnh cho.thầy cô thì càng không","can_remove":false,"created_time":"2013-12-27T05:40:25+0000","like_count":0,"user_likes":false},"785087368174609":{"id":"785087368174609","from":{"id":"100001583529210","name":"Nguyễn Kim Hà"},"message":"mình là du học sinh nước ngoài không nhất thiết phải diền máy cái đấy dâu","can_remove":false,"created_time":"2013-12-27T05:40:53+0000","like_count":2,"user_likes":false},"785087844841228":{"id":"785087844841228","from":{"id":"100001243411261","name":"Ngưu Tỷ Tỷ"},"message":"em nộp rồi, họ bảo nếu không có là không thể làm được. Nên em hẹn họ khi đi học sẽ có...giờ em đi làm rồi nhưng mà hồ sơ chưa đầy đủ :((","can_remove":false,"created_time":"2013-12-27T05:41:58+0000","like_count":0,"user_likes":false},"785088518174494":{"id":"785088518174494","from":{"id":"100001583529210","name":"Nguyễn Kim Hà"},"message":"vậy em đến nói với trường cho em xin cái zaigaku在学 vì ở chỗ làm nó đòi có cái đấy nếu không được em sẽ không đi làm được thì nhà trường sẽ cho","can_remove":false,"created_time":"2013-12-27T05:44:53+0000","like_count":1,"user_likes":false},"785088914841121":{"id":"785088914841121","from":{"id":"100001243411261","name":"Ngưu Tỷ Tỷ"},"message":"vâng, cảm ơn chị","can_remove":false,"created_time":"2013-12-27T05:45:47+0000","like_count":0,"user_likes":false},"785089488174397":{"id":"785089488174397","from":{"id":"1146680551","name":"優しい なぁ"},"message":"zaikaku la giấy gì vậy","can_remove":false,"created_time":"2013-12-27T05:47:33+0000","like_count":0,"user_likes":false},"785089871507692":{"id":"785089871507692","from":{"id":"100001583529210","name":"Nguyễn Kim Hà"},"message":"在学","can_remove":false,"created_time":"2013-12-27T05:48:54+0000","like_count":1,"user_likes":false},"785089918174354":{"id":"785089918174354","from":{"id":"100001583529210","name":"Nguyễn Kim Hà"},"message":"chữ này e ah","can_remove":false,"created_time":"2013-12-27T05:49:06+0000","like_count":1,"user_likes":false},"785090001507679":{"id":"785090001507679","from":{"id":"100001243411261","name":"Ngưu Tỷ Tỷ"},"message":"xin lỗi, em đọc nhầm :)","can_remove":false,"created_time":"2013-12-27T05:49:25+0000","like_count":0,"user_likes":false},"785090308174315":{"id":"785090308174315","from":{"id":"1146680551","name":"優しい なぁ"},"message":"ざいがく chứ :)","can_remove":false,"created_time":"2013-12-27T05:50:10+0000","like_count":0,"user_likes":false},"785090554840957":{"id":"785090554840957","from":{"id":"100001583529210","name":"Nguyễn Kim Hà"},"message":"chị viết nhầm zaigaku thành zaikaku","can_remove":false,"created_time":"2013-12-27T05:50:29+0000","like_count":1,"user_likes":false},"785090774840935":{"id":"785090774840935","from":{"id":"100001243411261","name":"Ngưu Tỷ Tỷ"},"message":"hóa ra em không đọc nhầm, định đi khám lại mắt :)","can_remove":false,"created_time":"2013-12-27T05:51:02+0000","like_count":0,"user_likes":false},"785090911507588":{"id":"785090911507588","from":{"id":"100001583529210","name":"Nguyễn Kim Hà"},"message":"sorry","can_remove":false,"created_time":"2013-12-27T05:51:18+0000","like_count":1,"user_likes":false},"785091188174227":{"id":"785091188174227","from":{"id":"1146680551","name":"優しい なぁ"},"message":"Nói thêm: Mấy trường khác thì k biết,riêng trường của Nguu tỷ tỷ thì giấy này phải làm hồ sơ vào ĐH hay senmon thì mới có,chứ k phải tự tiện xin đươc.Có thể trao đổi với thầy/cô giáo chủ nhiệm của em đi","can_remove":false,"created_time":"2013-12-27T05:51:44+0000","like_count":0,"user_likes":false},"785091724840840":{"id":"785091724840840","from":{"id":"100001583529210","name":"Nguyễn Kim Hà"},"message":"ủa sao vậy? quyền lợi học sinh mà>.<","can_remove":false,"created_time":"2013-12-27T05:52:52+0000","like_count":1,"user_likes":false},"785092004840812":{"id":"785092004840812","from":{"id":"100001243411261","name":"Ngưu Tỷ Tỷ"},"message":"anh Anh Nguyễn với em cùng trường chị ạ :))","message_tags":[{"id":"1146680551","name":"Anh Nguyễn","type":"user","offset":4,"length":10}],"can_remove":false,"created_time":"2013-12-27T05:53:39+0000","like_count":0,"user_likes":false},"785092381507441":{"id":"785092381507441","from":{"id":"100001243411261","name":"Ngưu Tỷ Tỷ"},"message":"Ngán nhất là phải nói chuyện làm thêm với cô, khổ! hỏi gì mà tùm lum tà la tá lả!1","can_remove":false,"created_time":"2013-12-27T05:54:37+0000","like_count":0,"user_likes":false},"785097084840304":{"id":"785097084840304","from":{"id":"100004092835069","name":"Hung Nguyen"},"message":"Mình cũng phải cần ng bảo lãnh,  chỉ cần tren 20 tuổi là đc, bạn cùng lớp nhưng là ng nhật cũng đc mà","can_remove":false,"created_time":"2013-12-27T06:04:15+0000","like_count":0,"user_likes":false},"785098658173480":{"id":"785098658173480","from":{"id":"100001243411261","name":"Ngưu Tỷ Tỷ"},"message":"bạn cùng lớp thì chắc chắn không thể là người nhật rồi, còn người nhật quen ở ngoài thì chỉ biết mấy người ở chỗ làm của mình thôi.","can_remove":false,"created_time":"2013-12-27T06:08:12+0000","like_count":0,"user_likes":false},"785099321506747":{"id":"785099321506747","from":{"id":"100004092835069","name":"Hung Nguyen"},"message":"Ak nếu ng ta dễ tính thì cũng có thể nhờ đc mà, sao bạn k hỏi thử...","can_remove":false,"created_time":"2013-12-27T06:10:50+0000","like_count":1,"user_likes":false}},"paging":{"cursors":{"after":"Nzg1MDg1NjMxNTA4MTE2","before":"Nzg1MDg1NjMxNTA4MTE2"},"next":"https://graph.facebook.com/229244010425617_785084074841605/comments?limit=1&summary=1&after=Nzg1MDg1NjMxNTA4MTE2"},"summary":{"order":"chronological","total_count":26}},"likes":{"data":[]}}