{"id":"229244010425617_785157864834226","type":"photo","object_id":"672120949477279","picture":"https://fbcdn-photos-g-a.akamaihd.net/hphotos-ak-frc3/t1.0-0/1499498_672120949477279_435909682_s.jpg","link":"https://www.facebook.com/photo.php?fbid=672120949477279&set=gm.785157864834226&type=1&relevant_count=1","from":{"id":"100000381394367","name":"Thành Nguyễn"},"message":"Hãy làm chủ vận mệnh của mình nếu không người khác sẽ làm chủ nó thay bạn.\n\n自分の運命は自分でコントロールすべきだ。さもないと、誰かにコントロールされてしまう\n\n(じぶん)の(うんめい)は(じぶん)でコントロールすべきだ。さもないと。(だれ)かにコントロールされてしまう\n\nJibun no unmei wa jibun de kontorooru subekida. Samonai to, dareka ni kontorooru sarete shimau.\n\nChữ Hán\n\n自分: Tự phân\n\n運命: Vận mệnh\n \n誰: Thùy","created_time":"2013-12-27T09:33:13+0000","updated_time":"2013-12-27T16:44:27+0000","likes":{"data":{"100005643963481":{"id":"100005643963481","name":"Hoa Vô Lệ"},"100007015029011":{"id":"100007015029011","name":"Hao Hai Duong"},"100006131672813":{"id":"100006131672813","name":"Má Lúm Đồng Tiền"},"1103173052":{"id":"1103173052","name":"Uyên Nguyễn"},"100000045271667":{"id":"100000045271667","name":"Nam Thai Nguyen"},"100003055356509":{"id":"100003055356509","name":"Thuan Nguyen"},"100002176216355":{"id":"100002176216355","name":"Bi Bo"},"100002990420907":{"id":"100002990420907","name":"Trịnh Hồng"},"100001912633316":{"id":"100001912633316","name":"Du Ca"},"100005307004792":{"id":"100005307004792","name":"Kiều Văn"},"100000508720532":{"id":"100000508720532","name":"Ha Lanphi"},"1416265619":{"id":"1416265619","name":"Starwar Bbj"},"100006473220479":{"id":"100006473220479","name":"万事屋 ズン"},"100006014164976":{"id":"100006014164976","name":"Bình Bông"},"569263718":{"id":"569263718","name":"Phuong Thao Tran"},"100001526631937":{"id":"100001526631937","name":"Tường Oanh Mineko"},"100007316735911":{"id":"100007316735911","name":"Tuyen Dung Vn  Jp"},"100004485275759":{"id":"100004485275759","name":"Nguyễn Hiệu"},"100004251847599":{"id":"100004251847599","name":"Yuki Yuki"},"100002871405403":{"id":"100002871405403","name":"Thach Sanh"},"100001541536632":{"id":"100001541536632","name":"Viet Do"},"100004016574848":{"id":"100004016574848","name":"Tùng Thật Thà"},"765474686":{"id":"765474686","name":"Vị Khách Tình Yêu"},"100001095264665":{"id":"100001095264665","name":"Bang Vu"},"100005024348771":{"id":"100005024348771","name":"Long Hoàng"},"100006520210904":{"id":"100006520210904","name":"Miu Miu"},"100006502552041":{"id":"100006502552041","name":"Xấu Xí"},"100000398514180":{"id":"100000398514180","name":"Linh Thu"},"100004360751785":{"id":"100004360751785","name":"Hà Nguyễn"},"1813611352":{"id":"1813611352","name":"To Đùng"}},"paging":{"cursors":{"after":"MTAwMDA1NjQzOTYzNDgx","before":"MTAwMDA1NjQzOTYzNDgx"},"next":"https://graph.facebook.com/229244010425617_785157864834226/likes?limit=1&summary=1&after=MTAwMDA1NjQzOTYzNDgx"},"summary":{"total_count":31}},"comments":{"data":{"785160081500671":{"id":"785160081500671","from":{"id":"100005024348771","name":"Long Hoàng"},"message":"có phải chữ tashika viết sai không ạ","can_remove":false,"created_time":"2013-12-27T09:39:46+0000","like_count":0,"user_likes":false},"785160538167292":{"id":"785160538167292","from":{"id":"100000381394367","name":"Thành Nguyễn"},"message":"sai thật","can_remove":false,"created_time":"2013-12-27T09:40:57+0000","like_count":0,"user_likes":false},"785160548167291":{"id":"785160548167291","from":{"id":"100000381394367","name":"Thành Nguyễn"},"message":":D","can_remove":false,"created_time":"2013-12-27T09:40:59+0000","like_count":0,"user_likes":false},"785160841500595":{"id":"785160841500595","from":{"id":"100006865964549","name":"Vâng Em Đểu"},"message":"Chứ đấy là dare mà. 確か là chữ này mà","can_remove":false,"created_time":"2013-12-27T09:41:36+0000","like_count":0,"user_likes":false},"785161204833892":{"id":"785161204833892","from":{"id":"100005024348771","name":"Long Hoàng"},"message":"em cứ ngờ ngợ, nhìn lên nhìn xuống, sợ nhìn nhầm","can_remove":false,"created_time":"2013-12-27T09:43:00+0000","like_count":0,"user_likes":false},"785161891500490":{"id":"785161891500490","from":{"id":"100000381394367","name":"Thành Nguyễn"},"message":"Hà hà, có vẻ cũng có nhiều người quan tâm đấy chứ, viết đúng thì ko thấy ai comment gì, sai phát chỉ vài giây đã có người comment rồi","can_remove":false,"created_time":"2013-12-27T09:45:12+0000","like_count":2,"user_likes":false},"785162304833782":{"id":"785162304833782","from":{"id":"1146680551","name":"優しい なぁ"},"message":"vậy từ nay anh nên viết sai để có cmt vại.Giống như ném đá z á ^_^","can_remove":false,"created_time":"2013-12-27T09:46:42+0000","like_count":2,"user_likes":false},"785164404833572":{"id":"785164404833572","from":{"id":"100005024348771","name":"Long Hoàng"},"message":"chỉ ra lỗi sai của người khác là việc hoàn toàn đúng đắn ạ^^Anh cứ viết sai thì có đến vài chục cái cmt ấy chứ","can_remove":false,"created_time":"2013-12-27T09:53:37+0000","like_count":0,"user_likes":false},"785181031498576":{"id":"785181031498576","from":{"id":"100001526631937","name":"Tường Oanh Mineko"},"message":"a nhớ gim hết lại mấy bài này nhe, e còn ghi ghi chép chép lại nữa ak ^_^","can_remove":false,"created_time":"2013-12-27T10:50:56+0000","like_count":0,"user_likes":false},"785181211498558":{"id":"785181211498558","from":{"id":"569263718","name":"Phuong Thao Tran"},"message":"ai lại câu like vậy Thành Nguyễn nhỉ, :D","message_tags":[{"id":"100000381394367","name":"Thành Nguyễn","type":"user","offset":20,"length":12}],"can_remove":false,"created_time":"2013-12-27T10:51:56+0000","like_count":0,"user_likes":false},"785331111483568":{"id":"785331111483568","from":{"id":"100000381394367","name":"Thành Nguyễn"},"message":"Tường Oanh Mineko Tất cả các bài này đều được note lại trong bài Minh Triết và fanpage backup rồi còn gì.","can_remove":false,"created_time":"2013-12-27T16:44:27+0000","like_count":1,"user_likes":false}},"paging":{"cursors":{"after":"Nzg1MTYwMDgxNTAwNjcx","before":"Nzg1MTYwMDgxNTAwNjcx"},"next":"https://graph.facebook.com/229244010425617_785157864834226/comments?limit=1&summary=1&after=Nzg1MTYwMDgxNTAwNjcx"},"summary":{"order":"chronological","total_count":11}}}