{"id":"229244010425617_785759518107394","type":"status","from":{"id":"100003255524049","name":"Vương Xuân Mạnh"},"message":"Có Câu hỏi hơi ngu hỏi các bác !! tại sao phim sex ở nhật lại được sản xuất nhiều nhất thế giới và bup bê tình dục giá 100k $ lại được sản suất nhiều nhất thế giới( cái này khâm phục trình độ người nhật làm bupbe như người thật ) và sản lượng bán ra ở nhật là cũng cao nhất","created_time":"2013-12-28T11:02:09+0000","updated_time":"2013-12-28T18:18:03+0000","likes":{"data":{"100003005285863":{"id":"100003005285863","name":"Ban Dien Thoai Nhat"},"100004029015778":{"id":"100004029015778","name":"Hiếu Hư Hỏng"}},"paging":{"cursors":{"after":"MTAwMDAzMDA1Mjg1ODYz","before":"MTAwMDAzMDA1Mjg1ODYz"},"next":"https://graph.facebook.com/229244010425617_785759518107394/likes?limit=1&summary=1&after=MTAwMDAzMDA1Mjg1ODYz"},"summary":{"total_count":2}},"comments":{"data":{"785773851439294":{"id":"785773851439294","from":{"id":"100004469770250","name":"Nu Lee"},"message":"làm ơn comment có văn hoá tí ạ. ko biết thì nói là ko biết :)","can_remove":false,"created_time":"2013-12-28T11:36:06+0000","like_count":2,"user_likes":false},"785779111438768":{"id":"785779111438768","from":{"id":"100000603915176","name":"悪いな ぁ"},"message":"Đơn giản, vì tỷ lệ FA đông nhất thế giới, vì tỷ lệ người tự kỷ cũng thuộc hàng đông nhất thế giới :))","can_remove":false,"created_time":"2013-12-28T11:52:03+0000","like_count":2,"user_likes":false},"785779608105385":{"id":"785779608105385","from":{"id":"100001458099624","name":"Kham Pha"},"message":"Vũ Ngọc Vượng đã xóa comment vì ăn nói linh tinh.","message_tags":[{"id":"100004556491180","name":"Vũ Ngọc Vượng","type":"user","offset":0,"length":13}],"can_remove":false,"created_time":"2013-12-28T11:53:43+0000","like_count":2,"user_likes":false},"785791464770866":{"id":"785791464770866","from":{"id":"1550521697","name":"Trình Nguyễn"},"message":"đây là câu hỏi mà mọi câu trả lời đều là ý kiến chủ quan. Gọi là tham khảo thôi chứ ko pải chính xác. Theo mình nghĩ thì cái này là do luật pháp và văn hóa. Nhật Bản cho phép đóng phim sex đồng thời tinh thần của Nhật là cái gì họ cũng nâng lên tầm nghệ thuật được nên phim của họ chất lượng cao. Tiếp đó là cuộc sống áp lực của ng Nhật. Cần phải xả stress thì dùng sex toy cũng là một biện pháp tốt. Và cả sex toy họ làm cũng rất tinh tế. Các đồ này không những thế còn được xuất khẩu và tiêu thụ mạnh nên công nghiệp này đc đầu tư mạnh hơn. Đỉnh cao là mấy con búp bê. Về cái bạn nói là số lượng búp bê 100k đc tiêu thụ nhiều nhất k biết bạn lấy ở đâu. Nhưng tiền nào của đấy. :))","can_remove":false,"created_time":"2013-12-28T12:31:02+0000","like_count":1,"user_likes":false},"785801954769817":{"id":"785801954769817","from":{"id":"100001458099624","name":"Kham Pha"},"message":"Theo mình thấy thì đàn ông Nhật nhiều người ko thích có một mối quan hệ chính thức, đủ nghiêm túc để đi đến hôn nhân. Những người này thường hay kêu phụ nữ rất phiền phức, yêu một thời gian thì vui chứ yêu lâu thì mệt mỏi. Hôm nọ một ông giám đốc tầm 24 tuổi lúc nói chuyện linh tinh có kể vậy. Mà kể cả những lần đi uống mà hỏi chuyện yêu đương mấy đứa con trai cũng hay hỏi kiểu \"yêu chơi hay yêu gì\"? \nChính vì ko có mối quan hệ lâu dài nên sẽ có những khoảng thời gian họ cần thỏa mãn một vài nhu cầu sinh lý mà tránh đc phiền phức của các mối quan hệ bằng búp bê hay phim ảnh.","can_remove":false,"created_time":"2013-12-28T12:59:28+0000","like_count":1,"user_likes":false},"785812474768765":{"id":"785812474768765","from":{"id":"100000250256418","name":"Nguyen Viet Anh"},"message":"http://youtu.be/Yil_cn_1gMo\nNếu bạn xem đoạn phim tài liệu này của BBC, mình nghĩ là bạn sẽ hiểu vì sao công nghiệp TD của Nhật Bản lại phát triển thế.","can_remove":false,"created_time":"2013-12-28T13:24:05+0000","like_count":0,"user_likes":false},"785843901432289":{"id":"785843901432289","from":{"id":"1146680551","name":"優しい なぁ"},"message":"Ai kêu đóng phim sex ở nhật là hợp pháp vây?","can_remove":false,"created_time":"2013-12-28T14:38:12+0000","like_count":0,"user_likes":false},"785853661431313":{"id":"785853661431313","from":{"id":"100000359762118","name":"Mi Tra"},"message":"Hợp pháp mà アン グエン ^^","message_tags":[{"id":"1146680551","name":"アン グエン","type":"user","offset":12,"length":6}],"can_remove":false,"created_time":"2013-12-28T15:02:48+0000","like_count":1,"user_likes":false},"785857201430959":{"id":"785857201430959","from":{"id":"1146680551","name":"優しい なぁ"},"message":"Vậy à.biết ở đâu tuyển k :v","can_remove":false,"created_time":"2013-12-28T15:13:21+0000","like_count":0,"user_likes":false},"785857858097560":{"id":"785857858097560","from":{"id":"100000359762118","name":"Mi Tra"},"message":"Anh thì người ta loại ngay từ vòng gửi xe. Ko cần đi dự tuyển đâu","can_remove":false,"created_time":"2013-12-28T15:14:09+0000","like_count":0,"user_likes":false},"785858268097519":{"id":"785858268097519","from":{"id":"1146680551","name":"優しい なぁ"},"message":"A đâu nói a thi tuyển đâu. :v","can_remove":false,"created_time":"2013-12-28T15:15:18+0000","like_count":0,"user_likes":false},"785858588097487":{"id":"785858588097487","from":{"id":"100000603915176","name":"悪いな ぁ"},"message":"Có muốn đóng kg anh giúp :v","can_remove":false,"created_time":"2013-12-28T15:16:18+0000","like_count":0,"user_likes":false},"785860508097295":{"id":"785860508097295","from":{"id":"100001243411261","name":"Ngưu Tỷ Tỷ"},"message":"Kham Pha em đang tìm chồng Nhật, bác đừng làm nhục chí chứ :3","message_tags":[{"id":"100001458099624","name":"Kham Pha","type":"user","offset":0,"length":8}],"can_remove":false,"created_time":"2013-12-28T15:20:18+0000","like_count":0,"user_likes":false},"785862331430446":{"id":"785862331430446","from":{"id":"100001458099624","name":"Kham Pha"},"message":"bạn lấy một người cụ thể chứ có lấy toàn bộ đàn ông Nhật đâu mà lo. Ở đâu cũng có người này người nọ, bạn cứ chọn người tốt thì ko phải sợ :)","can_remove":false,"created_time":"2013-12-28T15:24:40+0000","like_count":2,"user_likes":false},"785863558096990":{"id":"785863558096990","from":{"id":"100001243411261","name":"Ngưu Tỷ Tỷ"},"message":"vâng, vậy em tìm tiếp đây, cảm ơn bác! :)","can_remove":false,"created_time":"2013-12-28T15:28:06+0000","like_count":0,"user_likes":false},"785864041430275":{"id":"785864041430275","from":{"id":"1146680551","name":"優しい なぁ"},"message":"Lên aki đó.mấy quán cafe otaku nhiều lắm.tha hồ chọn","can_remove":false,"created_time":"2013-12-28T15:29:27+0000","like_count":0,"user_likes":false},"785866028096743":{"id":"785866028096743","from":{"id":"100001243411261","name":"Ngưu Tỷ Tỷ"},"message":"không biết ai vào thế \"bị chọn\" đây ? :v","can_remove":false,"created_time":"2013-12-28T15:34:11+0000","like_count":0,"user_likes":false},"785934988089847":{"id":"785934988089847","from":{"id":"100001816520260","name":"Trần Mỹ Huệ"},"message":"Tham khảo ở đây này bạn ơi. Nhiều nguồn tin hay lắm: http://vanhoanhat.com/van-hoa-2/tinh-duc/","can_remove":false,"created_time":"2013-12-28T18:18:03+0000","like_count":0,"user_likes":false}},"paging":{"cursors":{"after":"Nzg1NzczODUxNDM5Mjk0","before":"Nzg1NzczODUxNDM5Mjk0"},"next":"https://graph.facebook.com/229244010425617_785759518107394/comments?limit=1&summary=1&after=Nzg1NzczODUxNDM5Mjk0"},"summary":{"order":"chronological","total_count":18}}}