{"id":"229244010425617_785801701436509","type":"status","from":{"id":"100000045271667","name":"Nam Thai Nguyen"},"message":"Đoạn trích dẫn ngắn dưới đây giải đáp phần nào câu hỏi buổi hôm qua: người Nhật đầu tiên đến Việt Nam và người Việt đầu tiên đặt chân lên xứ Phù Tang\n\n\"Việt Nam và Nhật Bản là “cùng trong một họ da vàng” (Á tế Á ca), đồng văn đồng chủng, có quan hệ bang giao lâu đời, tuy có lúc không vui nhưng gần đây thì rất tốt đẹp. Người Nhật đầu tiên có mặt ở Việt Nam là Abe Nakamorô ( tên Trung Quốc là Zhao Xeng: Triệu Hành) làm quan với nhà Đường, đời Huyền Tông, năm 776, được cử sang An Nam đô hộ phủ làm quan Tả tán kỵ thường thị (1).\nĐến đầu thế kỷ XV, có một ít người Nhật đến buôn bán ở Việt Nam. Thời kỳ Toyotomi Hidaxosi (1536 – 1598) cầm quyền, một thương nhân Nhật Bản tên là Bạch Tần Hiển đưa 5 thuyền lớn đến buôn bán ở Cửa Việt thuộc Thuận Hóa, gặp nạn, được chúa Nguyễn Hoàng cứu hộ tận tình, lại có thư gửi Mạc Phủ Đức Xuyên, do đó cũng có thư phúc đáp của Mạc Phủ Đức Xuyên, đều thể hiện quan hệ bang giao rất hữu hảo. Đến thế kỷ 16, 17, Nhật Bản là nước buôn bán lớn nhất ở Việt Nam. Không chỉ đến buôn bán mà còn lập phố để sinh sống, cả ở Đàng Trong và Đàng Ngoài. Hội An của Đàng Trong, Phố Hiến của Đàng Ngoài là hai địa điểm có người Nhật sinh sống, làm ăn và để lại nhiều dấu ấn nhất cho tới ngày nay.\n\nVề phía Việt Nam, người đầu tiên có mặt ở Nhật Bản, có thể là công chúa Ngọc Khoa (?) do chúa cha Nguyễn Phúc Nguyên gả cho một người Nhật là Ararak Shotarô ( Hoàng Mộc Thái Tôn Lang, được mang họ nhà chúa), năm 1620. Công chúa theo chồng về Nhật. Mất năm 1645. Còn mộ ở Nagasaki. Con cháu vẫn giữ được tấm gương soi của công chúa đem từ Việt Nam về quê chồng. Năm 1695, có 9 người ở Hội An đi thuyền vào Gia Định làm phu dịch, bị bão, trôi dạt sang Nhật Bản, được người Nhật cứu hộ, chăm sóc chu đáo, sau đó gửi qua tàu Trung Quốc trả về Việt Nam. Chúa Nguyễn Phúc Chu đã có thư cảm ơn tới Trương Kỳ Trấn thủ vương của Nhật Bản, lời lẽ rất chân thành, thắm thiết và kèm theo tặng phẩm là hai bức tranh mà tới nay dòng họ Chava ở Nagoya còn giữ được : - Một bức của họa sĩ đời Minh vẽ Phật Bà Quan Âm ngồi trên tảng đa, bốn bề sóng vỗ. Theo truyền ngôn, trên đường về lại Nhật gặp bão, song nhờ có bức tranh nên gió yên biển lăng, người chủ được an toàn – Một bức tranh có tên là Giao Chỉ quốc mậu dịch hải đố mô tả con đường hàng hải từ Nhật Bản đến Việt Nam và nhiều phong cảnh của Việt Nam, nhất là khu phố Nhật ở Quảng Nam – Đà Nẵng (2)\nĐặc biệt, phong trào Đông du của Việt Nam trên đất Nhật Bản từ năm 1905 đến năm 1908 là hiện tượng để lại âm vang tốt đẹp nhất trong lòng nhân dân hai nước Việt Nam và Nhật Bản.\nNguồn:http://vanhoanghean.com.vn/goc-nhin-van-hoa3/nh%E1%BB%AFng-g%C3%B3c-nh%C3%ACn-v%C4%83n-h%C3%B3a/van-chuong-viet-nam-mot-lan-no-hoa-tren-dat-phu-tang","created_time":"2013-12-28T12:58:36+0000","updated_time":"2013-12-30T13:17:57+0000","likes":{"data":{"569263718":{"id":"569263718","name":"Phuong Thao Tran"},"100005801442456":{"id":"100005801442456","name":"An Nguyen"},"100002871405403":{"id":"100002871405403","name":"Thach Sanh"},"100003055356509":{"id":"100003055356509","name":"Thuan Nguyen"},"100000381394367":{"id":"100000381394367","name":"Thành Nguyễn"},"100003005285863":{"id":"100003005285863","name":"Ban Dien Thoai Nhat"},"100003678282771":{"id":"100003678282771","name":"Thuan Tran"},"1821970083":{"id":"1821970083","name":"Nguyễn Mạnh Cường"},"100003155401934":{"id":"100003155401934","name":"Ha Mi Kim"},"1814478345":{"id":"1814478345","name":"Nguyễn Quốc Bửu Trân"},"1146680551":{"id":"1146680551","name":"優しい なぁ"},"100006851160906":{"id":"100006851160906","name":"Chu Thị Hồng"},"100005145330760":{"id":"100005145330760","name":"Sơn Vũ"},"100001076277390":{"id":"100001076277390","name":"Chu Chiến"},"100001526631937":{"id":"100001526631937","name":"Tường Oanh Mineko"},"100003933466469":{"id":"100003933466469","name":"Phong Aki"},"100000250256418":{"id":"100000250256418","name":"Nguyen Viet Anh"},"100001458099624":{"id":"100001458099624","name":"Kham Pha"},"100000359762118":{"id":"100000359762118","name":"Mi Tra"},"100000508720532":{"id":"100000508720532","name":"Ha Lanphi"}},"paging":{"cursors":{"after":"NTY5MjYzNzE4","before":"NTY5MjYzNzE4"},"next":"https://graph.facebook.com/229244010425617_785801701436509/likes?limit=1&summary=1&after=NTY5MjYzNzE4"},"summary":{"total_count":20}},"comments":{"data":{"785802328103113":{"id":"785802328103113","from":{"id":"100000045271667","name":"Nam Thai Nguyen"},"message":"Mi Tra anh nộp bài, em chấm điểm nhé :v","message_tags":[{"id":"100000359762118","name":"Mi Tra","type":"user","offset":0,"length":6}],"can_remove":false,"created_time":"2013-12-28T13:00:30+0000","like_count":1,"user_likes":false},"785802448103101":{"id":"785802448103101","from":{"id":"100004747783825","name":"Ngài Thợ Xây"},"message":"nhìn cái tên trang đã thấy k đáng tin rồi","can_remove":false,"created_time":"2013-12-28T13:00:48+0000","like_count":0,"user_likes":false},"785802901436389":{"id":"785802901436389","from":{"id":"100000359762118","name":"Mi Tra"},"message":"Nội dung khớp. Bản tiếng Nhật tóm lược hơn một chút. \nThank Oza kt đã cung cấp thông tin bổ ích ( vẫn hơi cay cú vì hôm trước bị chê ko biết gì về lịch sử)","can_remove":false,"created_time":"2013-12-28T13:02:03+0000","like_count":1,"user_likes":false},"785802934769719":{"id":"785802934769719","from":{"id":"100000045271667","name":"Nam Thai Nguyen"},"message":"Họ dẫn nguồn cụ thể, không nên nóng vội kết luận như vậy","can_remove":false,"created_time":"2013-12-28T13:02:05+0000","like_count":0,"user_likes":false},"785803351436344":{"id":"785803351436344","from":{"id":"100000045271667","name":"Nam Thai Nguyen"},"message":"Hóa ra Mi tra thù dai hơn anh :3","can_remove":false,"created_time":"2013-12-28T13:03:11+0000","like_count":0,"user_likes":false},"785804264769586":{"id":"785804264769586","from":{"id":"100000359762118","name":"Mi Tra"},"message":"Hehee. Hình như tính giống nhau ^^","can_remove":false,"created_time":"2013-12-28T13:05:17+0000","like_count":0,"user_likes":false},"785804774769535":{"id":"785804774769535","from":{"id":"100000045271667","name":"Nam Thai Nguyen"},"message":"Tóm lại link hôm qua và hôm nay có cùng thông tin lịch sử không vậy Mi Tra ơi :D","can_remove":false,"created_time":"2013-12-28T13:06:00+0000","like_count":0,"user_likes":false},"785804928102853":{"id":"785804928102853","from":{"id":"100000359762118","name":"Mi Tra"},"message":"Cùng anh ạ. Đảm bảo ^^","can_remove":false,"created_time":"2013-12-28T13:06:26+0000","like_count":1,"user_likes":false},"785812884768724":{"id":"785812884768724","from":{"id":"100001526631937","name":"Tường Oanh Mineko"},"message":"anh gim lại vào mục nào đó cụ thể nhé :)","can_remove":false,"created_time":"2013-12-28T13:24:55+0000","like_count":0,"user_likes":false},"786762768007069":{"id":"786762768007069","from":{"id":"1783190483","name":"Trần Xuân Hiệp"},"message":"Cỏ Dại","message_tags":[{"id":"100002734016240","name":"Cỏ Dại","type":"user","offset":0,"length":6}],"can_remove":false,"created_time":"2013-12-30T04:50:21+0000","like_count":0,"user_likes":false},"787019931314686":{"id":"787019931314686","from":{"id":"569263718","name":"Phuong Thao Tran"},"message":"Mi Tra + Nam Thai Nguyen = cặp đôi hoàn cảnh, :D","message_tags":[{"id":"100000045271667","name":"Nam Thai Nguyen","type":"user","offset":9,"length":15}],"can_remove":false,"created_time":"2013-12-30T13:17:57+0000","like_count":1,"user_likes":false}},"paging":{"cursors":{"after":"Nzg1ODAyMzI4MTAzMTEz","before":"Nzg1ODAyMzI4MTAzMTEz"},"next":"https://graph.facebook.com/229244010425617_785801701436509/comments?limit=1&summary=1&after=Nzg1ODAyMzI4MTAzMTEz"},"summary":{"order":"chronological","total_count":11}}}