{"id":"229244010425617_785801648103181","type":"status","from":{"id":"100001419373261","name":"Ngọc Long"},"message":"Luyện tập đọc hiểu. Đọc đoạn văn dưới đây và chọn đáp án đúng :) Ngữ cảnh trong một quán tại nhà hàng ở Shinjuku. Hai chị em  đi ăn bánh  チーズケーキ。\n\n妹(em gái)：美味しいね、このチーズケーキ\n姉(chị gái)：うん！あ...ーチーズケーキといえば割引券があったのに、忘れてた。。。ほら\n妹：なんだー、もう食べちゃったよ。\n姉：会計の時出せばいいんじゃないの？でも注文の時に出すんだって。\n妹：半額になるはずだったんでしょ。二人だから２４０円安くなるのに\n姉：一人分だけだって。でも、それでももったいないよね。店員さんに聞いてみようか。\n妹：ちょっと見せて。。。。あれ？なんだこれ期限過ぎてるじゃない。\n\n正しいものを選んでください\n１． 割引券は会計の時出せばいいです。\n２． この店でチーズケーキは２４０円安くなる\n３． 割引券を使わない。\n４． 割引券は一人分だけ使える。","created_time":"2013-12-28T12:58:24+0000","updated_time":"2013-12-29T00:30:37+0000","likes":{"data":{"100003005285863":{"id":"100003005285863","name":"Ban Dien Thoai Nhat"},"100000500260636":{"id":"100000500260636","name":"Lưu Nguyễn Thảo Tiên"},"100000089472724":{"id":"100000089472724","name":"Duy Nguyen"},"569263718":{"id":"569263718","name":"Phuong Thao Tran"},"100000390253105":{"id":"100000390253105","name":"Dao Quang"},"1504224275":{"id":"1504224275","name":"Nhí Còi"},"100003158735323":{"id":"100003158735323","name":"Tiêu Tương Dạ Vũ"},"100003202920361":{"id":"100003202920361","name":"Vua Hải Tặc"},"100001458099624":{"id":"100001458099624","name":"Kham Pha"},"100006014164976":{"id":"100006014164976","name":"Bình Bông"},"100005775182411":{"id":"100005775182411","name":"Tuấn Milo"},"711491571":{"id":"711491571","name":"Graziani Inaizarg"},"100004764092374":{"id":"100004764092374","name":"Đờ Ích Hát"},"100001324611896":{"id":"100001324611896","name":"Meo Luoi"},"100001754136107":{"id":"100001754136107","name":"Nguyễn Tuấn Vũ"},"100001059086820":{"id":"100001059086820","name":"Nguyễn Thành Long"},"100001526631937":{"id":"100001526631937","name":"Tường Oanh Mineko"},"100000359762118":{"id":"100000359762118","name":"Mi Tra"},"100004346623532":{"id":"100004346623532","name":"Chiisai Namida"}},"paging":{"cursors":{"after":"MTAwMDAzMDA1Mjg1ODYz","before":"MTAwMDAzMDA1Mjg1ODYz"},"next":"https://graph.facebook.com/229244010425617_785801648103181/likes?limit=1&summary=1&after=MTAwMDAzMDA1Mjg1ODYz"},"summary":{"total_count":19}},"comments":{"data":{"785803911436288":{"id":"785803911436288","from":{"id":"100000359762118","name":"Mi Tra"},"message":"答えが分かった(⌒▽⌒)","can_remove":false,"created_time":"2013-12-28T13:04:19+0000","like_count":1,"user_likes":false},"785804674769545":{"id":"785804674769545","from":{"id":"100004346623532","name":"Chiisai Namida"},"message":"Đáp án 3","can_remove":false,"created_time":"2013-12-28T13:05:49+0000","like_count":0,"user_likes":false},"785804848102861":{"id":"785804848102861","from":{"id":"100004346623532","name":"Chiisai Namida"},"message":"Đáp án 3","can_remove":false,"created_time":"2013-12-28T13:06:13+0000","like_count":0,"user_likes":false},"785805591436120":{"id":"785805591436120","from":{"id":"100001419373261","name":"Ngọc Long"},"message":"Mi Tra さんの日本語はどうですか、僕良く分かりますので他の成員お願いいたしますね！","can_remove":false,"created_time":"2013-12-28T13:08:20+0000","like_count":0,"user_likes":false},"785807334769279":{"id":"785807334769279","from":{"id":"100000359762118","name":"Mi Tra"},"message":"日本語は大丈夫ですよ^_^\n普通にわかりますよ(*^◯^*)","can_remove":false,"created_time":"2013-12-28T13:13:16+0000","like_count":0,"user_likes":false},"785810028102343":{"id":"785810028102343","from":{"id":"100001059086820","name":"Nguyễn Thành Long"},"message":"1 số chữ hán ở đoạn đầu và cuối ko hiểu, em chưa đc học :(( mà cái ちゃった là 1 dạng của thể た hả anh :D","can_remove":false,"created_time":"2013-12-28T13:16:43+0000","like_count":0,"user_likes":false},"785810358102310":{"id":"785810358102310","from":{"id":"100001419373261","name":"Ngọc Long"},"message":"Mi Tra さん、どの位日本に住んでいますか?日本語は何級？","can_remove":false,"created_time":"2013-12-28T13:17:38+0000","like_count":0,"user_likes":false},"785811491435530":{"id":"785811491435530","from":{"id":"100001526631937","name":"Tường Oanh Mineko"},"message":"đáp án 3","can_remove":false,"created_time":"2013-12-28T13:21:13+0000","like_count":0,"user_likes":false},"785811991435480":{"id":"785811991435480","from":{"id":"100001754136107","name":"Nguyễn Tuấn Vũ"},"message":"bạn ghi rõ nguồn nhé.","can_remove":false,"created_time":"2013-12-28T13:22:40+0000","like_count":0,"user_likes":false},"785812564768756":{"id":"785812564768756","from":{"id":"100001419373261","name":"Ngọc Long"},"message":"Nguyễn Tuấn Vũ nếu nguồn tự nghĩ ra thì ở dưới đề là \"Nguồn: tự nghĩ \" à?","can_remove":false,"created_time":"2013-12-28T13:24:19+0000","like_count":0,"user_likes":false},"785813294768683":{"id":"785813294768683","from":{"id":"100001419373261","name":"Ngọc Long"},"message":"Nguyễn Thành Long  em đọc bài này nhé! có ví dụ giải thíc rất cụ thể http://zen-jsc.com.vn/Default.aspx?lg=vi&id=135","message_tags":[{"id":"100001059086820","name":"Nguyễn Thành Long","type":"user","offset":0,"length":17}],"can_remove":false,"created_time":"2013-12-28T13:26:20+0000","like_count":2,"user_likes":false},"785815608101785":{"id":"785815608101785","from":{"id":"100001526631937","name":"Tường Oanh Mineko"},"message":"a Ngọc Long a ghi tên mình cuối bài đi, vậy m.n sẽ hiểu là a tự nghĩ ra.","message_tags":[{"id":"100001419373261","name":"Ngọc Long","type":"user","offset":2,"length":9}],"can_remove":false,"created_time":"2013-12-28T13:30:00+0000","like_count":1,"user_likes":false},"785815808101765":{"id":"785815808101765","from":{"id":"100001059086820","name":"Nguyễn Thành Long"},"message":"Cảm ơn anh :)","can_remove":false,"created_time":"2013-12-28T13:30:36+0000","like_count":1,"user_likes":false},"785820988101247":{"id":"785820988101247","from":{"id":"100001754136107","name":"Nguyễn Tuấn Vũ"},"message":"","can_remove":false,"created_time":"2013-12-28T13:42:54+0000","like_count":2,"user_likes":false},"785821074767905":{"id":"785821074767905","from":{"id":"100001754136107","name":"Nguyễn Tuấn Vũ"},"message":"nguồn đây bạn ạ","can_remove":false,"created_time":"2013-12-28T13:43:07+0000","like_count":1,"user_likes":false},"785822571434422":{"id":"785822571434422","from":{"id":"100001419373261","name":"Ngọc Long"},"message":"全部同じじゃない良く読んで貰う？","can_remove":false,"created_time":"2013-12-28T13:46:42+0000","like_count":0,"user_likes":false},"785824018100944":{"id":"785824018100944","from":{"id":"100001526631937","name":"Tường Oanh Mineko"},"message":"uhm, có khác là thay đổi 1 đáp án.Nhưng dù sao cũng đã dùng hết bài từ đó rồi còn gì.Vậy cũng đc coi là nguồn từ sách nhé.Nếu       bạn đổi hẳn nội dung bài, hay đổi hết tất cả đáp án thì mới là của bạn chứ nhỉ?","can_remove":false,"created_time":"2013-12-28T13:50:30+0000","like_count":0,"user_likes":false},"785826638100682":{"id":"785826638100682","from":{"id":"100001419373261","name":"Ngọc Long"},"message":"mình đã học qua và chia sẻ lại. chỉ tập trung nội dung chính. mình thì nghĩ  trên đây mọi người đều quan tâm nhất là học tập và chia sẻ. có những cái đã đọc ở đâu đó và chia sẻ lại ko rõ nguồn thì sao à bạn. Nhựng nếu đó là nội quy của diễn đàn thì 僕は意見がない。","can_remove":false,"created_time":"2013-12-28T13:57:14+0000","like_count":5,"user_likes":false},"785830594766953":{"id":"785830594766953","from":{"id":"100001754136107","name":"Nguyễn Tuấn Vũ"},"message":"Ngọc Long: nội quy thì chưa có, e đồng ý với quan điểm của a.\ný kiến riêng của e về bài này: nếu mà giống qua thì ghi rõ nội dung thôi, ko may bài này nó nổi bật ( e nghĩ xa xôi quá) mang lại giá trị. lúc đó ng làm ra bài này lại kiện a vì bản quyền thì nó lại rắc rối cho a thôi. E xin hết.\n Trở lại bài đọc: e chọn phương án 3","message_tags":[{"id":"100001419373261","name":"Ngọc Long","type":"user","offset":0,"length":9}],"can_remove":false,"created_time":"2013-12-28T14:06:28+0000","like_count":2,"user_likes":false},"785834124766600":{"id":"785834124766600","from":{"id":"100001059086820","name":"Nguyễn Thành Long"},"message":"Trời!@@\nMỗi thế mà cũng cãi nhau @@\nMục đích chính ở đây là j ko biết @@\nThay vì đốp chát vào mặt người ta yêu cầu người ta ghi rõ nguồn, thì hỏi người ta 1 câu là: bạn(anh) lấy nó ở đâu vậy\" có phải đẹp lòng nhau ko @@\nNgười ta có lòng tốt mà ko hưởng ứng, lại đi soi nhưng cái đâu đâu @@","can_remove":false,"created_time":"2013-12-28T14:14:44+0000","like_count":5,"user_likes":false},"785835868099759":{"id":"785835868099759","from":{"id":"100001458099624","name":"Kham Pha"},"message":"cảm ơn bạn đã chia sẻ, câu chuyện rất thú vị :)","can_remove":false,"created_time":"2013-12-28T14:18:44+0000","like_count":0,"user_likes":false},"785837418099604":{"id":"785837418099604","from":{"id":"100001526631937","name":"Tường Oanh Mineko"},"message":"mình đã gim lại bài của bạn rồi nhé Ngọc Long, có bài post tiếp theo tương tự dạng này thì bạn vui lòng gim lại vào mục mình đã gim luôn để mọi ng ko mất công tìm kiếm lại nhé.Thanks bạn","message_tags":[{"id":"100001419373261","name":"Ngọc Long","type":"user","offset":36,"length":9}],"can_remove":false,"created_time":"2013-12-28T14:22:20+0000","like_count":1,"user_likes":false},"785853548097991":{"id":"785853548097991","from":{"id":"100001754136107","name":"Nguyễn Tuấn Vũ"},"message":"e sẽ rút kinh nghiệm.","can_remove":false,"created_time":"2013-12-28T15:02:31+0000","like_count":1,"user_likes":false},"786074318075914":{"id":"786074318075914","from":{"id":"100003779213087","name":"Dương Lợi"},"message":"Coppy thì nên để lại nguồn :) ~","can_remove":false,"created_time":"2013-12-29T00:30:37+0000","like_count":0,"user_likes":false}},"paging":{"cursors":{"after":"Nzg1ODAzOTExNDM2Mjg4","before":"Nzg1ODAzOTExNDM2Mjg4"},"next":"https://graph.facebook.com/229244010425617_785801648103181/comments?limit=1&summary=1&after=Nzg1ODAzOTExNDM2Mjg4"},"summary":{"order":"chronological","total_count":24}}}