{"id":"229244010425617_786128251403854","type":"link","picture":"https://fbexternal-a.akamaihd.net/safe_image.php?d=AQD48eKtaY3trS6s&w=154&h=154&url=http%3A%2F%2Fhanghieunhatban.vn%2Fwp-content%2Fthemes%2FWPStore%2Fthumb.php%3Fsrc%3Dhttp%253A%252F%252Fhanghieunhatban.vn%252Fwp-content%252Fuploads%252F2013%252F12%252Fimage2.jpg%26w%3D500%26zc%3D1%26q%3D80%26bid%3D1","link":"http://hanghieunhatban.vn/tin-nong-24h/","from":{"id":"100002898154513","name":"Gã Shrek"},"message":"http://hanghieunhatban.vn/tin-nong-24h/\nCó ai đang ở Nhật mà có ý định chuyển đồ về Việt nam thì chú ý nha.","created_time":"2013-12-29T02:55:54+0000","updated_time":"2013-12-29T05:54:48+0000","likes":{"data":{"100003005285863":{"id":"100003005285863","name":"Ban Dien Thoai Nhat"},"100003574946076":{"id":"100003574946076","name":"Minhh Hảii"},"100001526631937":{"id":"100001526631937","name":"Tường Oanh Mineko"},"100005775182411":{"id":"100005775182411","name":"Tuấn Milo"},"100004475323164":{"id":"100004475323164","name":"Xuân Cao"},"100004084747950":{"id":"100004084747950","name":"Chưởng Chịu Chơi"},"100004752876192":{"id":"100004752876192","name":"Chim Sẻ Đi Mưa"},"100001574215598":{"id":"100001574215598","name":"Thanh Chí"},"100001245078846":{"id":"100001245078846","name":"Thế Cơ Mà"}},"paging":{"cursors":{"after":"MTAwMDAzMDA1Mjg1ODYz","before":"MTAwMDAzMDA1Mjg1ODYz"},"next":"https://graph.facebook.com/229244010425617_786128251403854/likes?limit=1&summary=1&after=MTAwMDAzMDA1Mjg1ODYz"},"summary":{"total_count":9}},"comments":{"data":{"786138358069510":{"id":"786138358069510","from":{"id":"100006368880782","name":"Phan Huu Anh"},"message":"can ba cua xa hoi ,treo co cho kien no bu","can_remove":false,"created_time":"2013-12-29T03:28:55+0000","like_count":0,"user_likes":false},"786138748069471":{"id":"786138748069471","from":{"id":"100006368880782","name":"Phan Huu Anh"},"message":"nhin mat con con me nay muon dam mot phat cho gay het rang ,dien ca nguoi","can_remove":false,"created_time":"2013-12-29T03:30:17+0000","like_count":0,"user_likes":false},"786191144730898":{"id":"786191144730898","from":{"id":"100001695345798","name":"Tyn Aki"},"message":"bạn Phan Huu Anh chú ý comment tiếng Việt có dấu bạn nhé.","message_tags":[{"id":"100006368880782","name":"Phan Huu Anh","type":"user","offset":4,"length":12}],"can_remove":false,"created_time":"2013-12-29T05:54:48+0000","like_count":1,"user_likes":false}},"paging":{"cursors":{"after":"Nzg2MTM4MzU4MDY5NTEw","before":"Nzg2MTM4MzU4MDY5NTEw"},"next":"https://graph.facebook.com/229244010425617_786128251403854/comments?limit=1&summary=1&after=Nzg2MTM4MzU4MDY5NTEw"},"summary":{"order":"chronological","total_count":4}}}