{"id":"229244010425617_786362941380385","type":"status","from":{"id":"100003250657085","name":"Nhất Kiếm Vô Tình"},"message":"mọi người ơi! em đang phân vân giữa 3 tỉnh kyoto; aichi và nagano. Có ai cho em lời khuyên nào không? Mục đích của em học là chủ yếu đi làm kiếm tiền cho sinh hoạt hàng ngày và học phí là cách chính mong mọi người tư vấn giúp","created_time":"2013-12-29T14:34:04+0000","updated_time":"2013-12-30T14:26:15+0000","likes":{"data":{"100004641579644":{"id":"100004641579644","name":"Qin Qin K"},"100005948974390":{"id":"100005948974390","name":"Phuong Thao"},"100001531816305":{"id":"100001531816305","name":"Mẫn Nghi"},"100003005285863":{"id":"100003005285863","name":"Ban Dien Thoai Nhat"},"100007058828518":{"id":"100007058828518","name":"Nhàn Hảii"},"100003847583376":{"id":"100003847583376","name":"さよなら 大好き な人"}},"paging":{"cursors":{"after":"MTAwMDA0NjQxNTc5NjQ0","before":"MTAwMDA0NjQxNTc5NjQ0"},"next":"https://graph.facebook.com/229244010425617_786362941380385/likes?limit=1&summary=1&after=MTAwMDA0NjQxNTc5NjQ0"},"summary":{"total_count":6}},"comments":{"data":{"786365278046818":{"id":"786365278046818","from":{"id":"1146680551","name":"優しい なぁ"},"message":"Nhớ bài này e post rồi mà","can_remove":false,"created_time":"2013-12-29T14:38:05+0000","like_count":0,"user_likes":false},"786370101379669":{"id":"786370101379669","from":{"id":"100002609621366","name":"KÚn KOn"},"message":"osaka và nagoia là nhiều việc nhất hiện nay, đó là theo mình được người khác nói lại","can_remove":false,"created_time":"2013-12-29T14:46:16+0000","like_count":1,"user_likes":false},"786371378046208":{"id":"786371378046208","from":{"id":"100003250657085","name":"Nhất Kiếm Vô Tình"},"message":"Anh Nguyễn em không để ý, trước em có đăng như phạm lỗi nên xoá rồi ak","message_tags":[{"id":"1146680551","name":"Anh Nguyễn","type":"user","offset":0,"length":10}],"can_remove":false,"created_time":"2013-12-29T14:48:23+0000","like_count":0,"user_likes":false},"786371564712856":{"id":"786371564712856","from":{"id":"100003250657085","name":"Nhất Kiếm Vô Tình"},"message":"Hải Hà sao vui bạn hjhj","message_tags":[{"id":"100004051866463","name":"Hải Hà","type":"user","offset":0,"length":6}],"can_remove":false,"created_time":"2013-12-29T14:48:35+0000","like_count":1,"user_likes":false},"786372724712740":{"id":"786372724712740","from":{"id":"100003250657085","name":"Nhất Kiếm Vô Tình"},"message":"hây hẹn gặp bạn ở Nhật nhé hjhj chỗ đó ít người nắm ak bạn","can_remove":false,"created_time":"2013-12-29T14:50:33+0000","like_count":0,"user_likes":false},"786373121379367":{"id":"786373121379367","from":{"id":"100003852720262","name":"Trang Vu"},"message":"Hải Hà b cũng đi chiba ah,tháng mấy đi thế, cùng hải phòng vs t nũa","message_tags":[{"id":"100004051866463","name":"Hải Hà","type":"user","offset":0,"length":6}],"can_remove":false,"created_time":"2013-12-29T14:51:26+0000","like_count":0,"user_likes":false},"786374641379215":{"id":"786374641379215","from":{"id":"100003250657085","name":"Nhất Kiếm Vô Tình"},"message":"chỗ đó gần biển tớ sợ sóng thần nắm ak hjhj bạn con gái miền biển nên ko sợ chứ tớ dân đồng bằng ra đó say sóng chết ak hehe","can_remove":false,"created_time":"2013-12-29T14:53:00+0000","like_count":0,"user_likes":false},"786374678045878":{"id":"786374678045878","from":{"id":"100003852720262","name":"Trang Vu"},"message":"t cung thế. b đến học trường nào","can_remove":false,"created_time":"2013-12-29T14:53:03+0000","like_count":0,"user_likes":false},"786377208045625":{"id":"786377208045625","from":{"id":"100003852720262","name":"Trang Vu"},"message":"meishi t học truòng đấy. ko biết giống b ko","can_remove":false,"created_time":"2013-12-29T14:57:30+0000","like_count":0,"user_likes":false},"786381561378523":{"id":"786381561378523","from":{"id":"100003852720262","name":"Trang Vu"},"message":"oh.vậy ah. tưởng có ng cùng truòng, t cũng đi 1mình","can_remove":false,"created_time":"2013-12-29T15:04:25+0000","like_count":1,"user_likes":false},"786381724711840":{"id":"786381724711840","from":{"id":"100003250657085","name":"Nhất Kiếm Vô Tình"},"message":"thế là 2 người có bạn rồi, hjc tớ chẳng có ai huhu","can_remove":false,"created_time":"2013-12-29T15:04:33+0000","like_count":1,"user_likes":false},"786391501377529":{"id":"786391501377529","from":{"id":"1813611352","name":"To Đùng"},"message":"Hải Hà sử dụng tiếng Việt có dấu nhé em.","can_remove":false,"created_time":"2013-12-29T15:20:04+0000","like_count":0,"user_likes":false},"786391994710813":{"id":"786391994710813","from":{"id":"100003852720262","name":"Trang Vu"},"message":"t đi trung tâm hikari ở bắc ninh","can_remove":false,"created_time":"2013-12-29T15:21:06+0000","like_count":0,"user_likes":false},"786395698043776":{"id":"786395698043776","from":{"id":"100004051866463","name":"Đàm Hải"},"message":"Vâng ạ. To To Đùng","message_tags":[{"id":"1813611352","name":"To Đùng","type":"user","offset":11,"length":7}],"can_remove":false,"created_time":"2013-12-29T15:25:02+0000","like_count":0,"user_likes":false},"786396148043731":{"id":"786396148043731","from":{"id":"100004051866463","name":"Đàm Hải"},"message":"Ôi.sao lại mò mãi lên đấy thế","can_remove":false,"created_time":"2013-12-29T15:25:43+0000","like_count":1,"user_likes":false},"786528574697155":{"id":"786528574697155","from":{"id":"100000209176558","name":"Samui Kaze"},"message":":v học là chủ yếu nhưng làm việc chủ yếu hơn :v cách hỏi của bạn thật logic .. Tóm đi tóm lại vẫn phải cần việc mà :3","can_remove":false,"created_time":"2013-12-29T19:48:32+0000","like_count":1,"user_likes":false},"786535374696475":{"id":"786535374696475","from":{"id":"100005801442456","name":"An Nguyen"},"message":"E đăng e tự xoá chứ ai xoá của em! Đừng có đổi lỗi như vậy nhé !","can_remove":false,"created_time":"2013-12-29T20:05:40+0000","like_count":1,"user_likes":false},"786653208018025":{"id":"786653208018025","from":{"id":"100005744975477","name":"Tuyết Mùa Hè"},"message":"E đi nagano kì t4.2014 nk a. Hôm e hỏi trường e đi tr ns là nagano cs dễ chịu hơn, vật giá ở đây rẻ hơn tokyo và nhiều nơi khác rất nhiều. Dhs phần đa tập chung vào tokyo nên cs bon chen hơn chút, vl nhiều n cần năng lực tiếng. E đi isi nagano","can_remove":false,"created_time":"2013-12-30T00:22:26+0000","like_count":1,"user_likes":false},"786925174657495":{"id":"786925174657495","from":{"id":"100002411696481","name":"Umisen Yamasen"},"message":"Lên nagano","can_remove":false,"created_time":"2013-12-30T09:43:33+0000","like_count":0,"user_likes":false},"786933461323333":{"id":"786933461323333","from":{"id":"100005744975477","name":"Tuyết Mùa Hè"},"message":"có ac nào đang học gần tr nlc ko ạ","can_remove":false,"created_time":"2013-12-30T10:09:00+0000","like_count":0,"user_likes":false},"786933684656644":{"id":"786933684656644","from":{"id":"100000209176558","name":"Samui Kaze"},"message":"nlc là trường gì vậy bạn @@","can_remove":false,"created_time":"2013-12-30T10:09:43+0000","like_count":0,"user_likes":false},"786935664656446":{"id":"786935664656446","from":{"id":"100005744975477","name":"Tuyết Mùa Hè"},"message":"isi nagano đó b","can_remove":false,"created_time":"2013-12-30T10:17:21+0000","like_count":0,"user_likes":false},"786941221322557":{"id":"786941221322557","from":{"id":"100000209176558","name":"Samui Kaze"},"message":"chịu .. mình ở tokyo ,, ko biết rõ chỗ đó","can_remove":false,"created_time":"2013-12-30T10:32:52+0000","like_count":0,"user_likes":false},"786961654653847":{"id":"786961654653847","from":{"id":"100005744975477","name":"Tuyết Mùa Hè"},"message":"Cj Phuong Thao ơi có e nk ^^","can_remove":false,"created_time":"2013-12-30T11:40:35+0000","like_count":0,"user_likes":false},"786962154653797":{"id":"786962154653797","from":{"id":"100003250657085","name":"Nhất Kiếm Vô Tình"},"message":"mọi người chú ý trong group không được cmt về các vấn đề ngoài chủ đề việt nhật, trong đó có làm quen kết bạn. chú ý nhé mọi người","can_remove":false,"created_time":"2013-12-30T11:42:05+0000","like_count":0,"user_likes":false},"786962341320445":{"id":"786962341320445","from":{"id":"100000209176558","name":"Samui Kaze"},"message":":v bạn này cứng nhắc thế nhỉ :v","can_remove":false,"created_time":"2013-12-30T11:42:58+0000","like_count":0,"user_likes":false},"787052217978124":{"id":"787052217978124","from":{"id":"100003250657085","name":"Nhất Kiếm Vô Tình"},"message":"đó là quy định của gorup mình là admin nên mình có trách nhiệm nhắc nhở các bạn, mọi người vui lòng hợp tác","can_remove":false,"created_time":"2013-12-30T14:26:15+0000","like_count":0,"user_likes":false}},"paging":{"cursors":{"after":"Nzg2MzY1Mjc4MDQ2ODE4","before":"Nzg2MzY1Mjc4MDQ2ODE4"},"next":"https://graph.facebook.com/229244010425617_786362941380385/comments?limit=1&summary=1&after=Nzg2MzY1Mjc4MDQ2ODE4"},"summary":{"order":"chronological","total_count":27}}}