{"id":"229244010425617_787048394645173","type":"status","from":{"id":"100003397876835","name":"Nabito Lazy"},"message":"Nhờ các anh chị dịch giùm em câu sau sang tiếng Nhật.\n Vì [まとめ依頼中], nên ko thể làm các thủ tục tiếp theo. Xin hãy giải quyết giùm.","created_time":"2013-12-30T14:17:44+0000","updated_time":"2013-12-30T15:28:59+0000","likes":{"data":{"100004253979918":{"id":"100004253979918","name":"Louis Hoàng Văn Thái"}},"paging":{"cursors":{"after":"MTAwMDA0MjUzOTc5OTE4","before":"MTAwMDA0MjUzOTc5OTE4"}},"summary":{"total_count":1}},"comments":{"data":{"787048574645155":{"id":"787048574645155","from":{"id":"100003397876835","name":"Nabito Lazy"},"message":"Chị Phuong Thao Tran giúp e với ạ","message_tags":[{"id":"569263718","name":"Phuong Thao Tran","type":"user","offset":5,"length":16}],"can_remove":false,"created_time":"2013-12-30T14:18:12+0000","like_count":0,"user_likes":false},"787049601311719":{"id":"787049601311719","from":{"id":"569263718","name":"Phuong Thao Tran"},"message":"tóm lại status là đang đặt hàng/yêu cầu","can_remove":false,"created_time":"2013-12-30T14:20:48+0000","like_count":1,"user_likes":false},"787050164644996":{"id":"787050164644996","from":{"id":"569263718","name":"Phuong Thao Tran"},"message":"đã đả thông ý dịch của bạn chưa","can_remove":false,"created_time":"2013-12-30T14:21:54+0000","like_count":0,"user_likes":false},"787050664644946":{"id":"787050664644946","from":{"id":"100003397876835","name":"Nabito Lazy"},"message":"Dạ vậy là e hiểu rồi. chắc ng ta chưa xác nhận cho em nên chưa làm đc thủ tục tiếp theo. Em chờ vậy,.. cảm ơn chị ạ","can_remove":false,"created_time":"2013-12-30T14:22:56+0000","like_count":1,"user_likes":false},"787051331311546":{"id":"787051331311546","from":{"id":"100003866609108","name":"Thế Béo"},"message":"すごいですね！","can_remove":false,"created_time":"2013-12-30T14:24:28+0000","like_count":0,"user_likes":false},"787051754644837":{"id":"787051754644837","from":{"id":"100001416272263","name":"Mai PB"},"message":"まとめ là \"tóm lại\", \"chung một bó\", \"tập hợp một thể\". Vì vậy まとめ依頼中 thì là đang tập hợp lại vài người, vài trường hợp để 依頼 (yêu cầu đến nơi nào khác) một thể.","can_remove":false,"created_time":"2013-12-30T14:25:18+0000","like_count":3,"user_likes":false},"787059204644092":{"id":"787059204644092","from":{"id":"100003397876835","name":"Nabito Lazy"},"message":"Chắc ng ta còn chờ e đặt hàng để gửi luôn 1đợt. NHưng e ko muốn đặt thêm nữa thì ntin thế nào ạ.. Ý e là tôi ko đặt thêm nữa, xin hãy xác nhận để tôi có thể làm thủ tục tiếp theo ..","can_remove":false,"created_time":"2013-12-30T14:38:03+0000","like_count":0,"user_likes":false},"787117921304887":{"id":"787117921304887","from":{"id":"569263718","name":"Phuong Thao Tran"},"message":"em thử viết xem sao, rồi mọi người review cho","can_remove":false,"created_time":"2013-12-30T15:28:59+0000","like_count":0,"user_likes":false}},"paging":{"cursors":{"after":"Nzg3MDQ4NTc0NjQ1MTU1","before":"Nzg3MDQ4NTc0NjQ1MTU1"},"next":"https://graph.facebook.com/229244010425617_787048394645173/comments?limit=1&summary=1&after=Nzg3MDQ4NTc0NjQ1MTU1"},"summary":{"order":"chronological","total_count":8}}}