{"id":"229244010425617_787034504646562","type":"status","from":{"id":"100003512537236","name":"Nguyen Phu Dang"},"message":"các anh chị giúp em dịch 1 câu sang tiếng nhật với : hôm nay -3 độ C","created_time":"2013-12-30T13:51:27+0000","updated_time":"2013-12-31T05:55:33+0000","likes":{"data":{"100000221648144":{"id":"100000221648144","name":"Nguyen Hung"},"100003356412304":{"id":"100003356412304","name":"Sơn SungSướng"}},"paging":{"cursors":{"after":"MTAwMDAwMjIxNjQ4MTQ0","before":"MTAwMDAwMjIxNjQ4MTQ0"},"next":"https://graph.facebook.com/229244010425617_787034504646562/likes?limit=1&summary=1&after=MTAwMDAwMjIxNjQ4MTQ0"},"summary":{"total_count":2}},"comments":{"data":{"787038274646185":{"id":"787038274646185","from":{"id":"100002309485928","name":"Nguyễn Hường"},"message":"Kyou 3độ desu","can_remove":false,"created_time":"2013-12-30T13:57:36+0000","like_count":1,"user_likes":false},"787038461312833":{"id":"787038461312833","from":{"id":"100003512537236","name":"Nguyen Phu Dang"},"message":"âm 3 độ cer","can_remove":false,"created_time":"2013-12-30T13:58:08+0000","like_count":0,"user_likes":false},"787038831312796":{"id":"787038831312796","from":{"id":"569263718","name":"Phuong Thao Tran"},"message":"em dịch thử xem Nguyen Phu Dang","message_tags":[{"id":"100003512537236","name":"Nguyen Phu Dang","type":"user","offset":16,"length":15}],"can_remove":false,"created_time":"2013-12-30T13:59:11+0000","like_count":0,"user_likes":false},"787040661312613":{"id":"787040661312613","from":{"id":"100002309485928","name":"Nguyễn Hường"},"message":"Gi hẳn trừ ra","can_remove":false,"created_time":"2013-12-30T14:02:39+0000","like_count":0,"user_likes":false},"787040701312609":{"id":"787040701312609","from":{"id":"100002309485928","name":"Nguyễn Hường"},"message":"Đọc á","can_remove":false,"created_time":"2013-12-30T14:02:43+0000","like_count":0,"user_likes":false},"787043477978998":{"id":"787043477978998","from":{"id":"569263718","name":"Phuong Thao Tran"},"message":"chưa thấy [ - ] nằm ở đâu","can_remove":false,"created_time":"2013-12-30T14:07:53+0000","like_count":0,"user_likes":false},"787052041311475":{"id":"787052041311475","from":{"id":"100000603915176","name":"悪いな ぁ"},"message":"マイナス hoặc 負","can_remove":false,"created_time":"2013-12-30T14:25:56+0000","like_count":3,"user_likes":false},"787056834644329":{"id":"787056834644329","from":{"id":"100006959252799","name":"Tony Toàn"},"message":"Kyou wa mainasu 3do đệt .","can_remove":false,"created_time":"2013-12-30T14:34:21+0000","like_count":1,"user_likes":false},"787058121310867":{"id":"787058121310867","from":{"id":"100004027934477","name":"Tran Gia Trang"},"message":"そう。今日はマイナス３どです","can_remove":false,"created_time":"2013-12-30T14:36:07+0000","like_count":1,"user_likes":false},"787543544595658":{"id":"787543544595658","from":{"id":"100003512537236","name":"Nguyen Phu Dang"},"message":"hehe...arigatou","can_remove":false,"created_time":"2013-12-31T05:55:33+0000","like_count":0,"user_likes":false}},"paging":{"cursors":{"after":"Nzg3MDM4Mjc0NjQ2MTg1","before":"Nzg3MDM4Mjc0NjQ2MTg1"},"next":"https://graph.facebook.com/229244010425617_787034504646562/comments?limit=1&summary=1&after=Nzg3MDM4Mjc0NjQ2MTg1"},"summary":{"order":"chronological","total_count":10}}}