{"id":"229244010425617_787032527980093","type":"photo","object_id":"625769710813566","picture":"https://fbcdn-photos-h-a.akamaihd.net/hphotos-ak-prn1/t1.0-0/1535724_625769710813566_696153926_s.jpg","link":"https://www.facebook.com/photo.php?fbid=625769710813566&set=gm.787032527980093&type=1&relevant_count=1","from":{"id":"100001416272263","name":"Mai PB"},"message":"Sắp sửa năm mới 2014, mọi người ở Nhật ra cửa hàng 100 yên mua các đồ trang trí nhà cửa cho có kgoong khí nhé. Tùy đồ mà có thể đến 300 yên đấy.","created_time":"2013-12-30T13:46:23+0000","updated_time":"2013-12-31T04:44:17+0000","likes":{"data":{"100001257093338":{"id":"100001257093338","name":"Hanh Dang"},"100006244269241":{"id":"100006244269241","name":"ハン チュン"},"100000328742646":{"id":"100000328742646","name":"Trần Giáp"},"100002419566054":{"id":"100002419566054","name":"Khánh Toàn"},"100001723862714":{"id":"100001723862714","name":"Bo Bien Vang"},"100006663067003":{"id":"100006663067003","name":"Bình Heo"},"100003106327650":{"id":"100003106327650","name":"Nguyễn Nam Phóng"},"100000979888687":{"id":"100000979888687","name":"Tran Long"},"1706454278":{"id":"1706454278","name":"Ty Tymah"},"100004400201320":{"id":"100004400201320","name":"Ngọc Thuận"},"100004096243144":{"id":"100004096243144","name":"Shorai Nguyễn"},"100004246931935":{"id":"100004246931935","name":"Nga Tũn"},"100001526631937":{"id":"100001526631937","name":"Tường Oanh Mineko"},"100002508122689":{"id":"100002508122689","name":"Vũ Mạnh Tuấn"},"100007260661548":{"id":"100007260661548","name":"Nguyễn Ngọc Ánh"},"100003875131996":{"id":"100003875131996","name":"Ngoc Anh"},"100006851160906":{"id":"100006851160906","name":"Chu Thị Hồng"},"100001806981402":{"id":"100001806981402","name":"Cookie Panda"},"100007200612709":{"id":"100007200612709","name":"Hoang Nguyen Le"},"1580589258":{"id":"1580589258","name":"Kani Oboeru"},"100004641579644":{"id":"100004641579644","name":"Qin Qin K"},"100003913383051":{"id":"100003913383051","name":"Tho Tran"},"100004052714064":{"id":"100004052714064","name":"Cún Ngố"},"100001754136107":{"id":"100001754136107","name":"Nguyễn Tuấn Vũ"},"100003655265575":{"id":"100003655265575","name":"Hường Hà"},"100000176631338":{"id":"100000176631338","name":"Hà Phương"},"100003762427351":{"id":"100003762427351","name":"Hiroshi Yasu Oki"},"100003397876835":{"id":"100003397876835","name":"Nabito Lazy"}},"paging":{"cursors":{"after":"MTAwMDAxMjU3MDkzMzM4","before":"MTAwMDAxMjU3MDkzMzM4"},"next":"https://graph.facebook.com/229244010425617_787032527980093/likes?limit=1&summary=1&after=MTAwMDAxMjU3MDkzMzM4"},"summary":{"total_count":28}},"comments":{"data":{"787035017979844":{"id":"787035017979844","from":{"id":"569263718","name":"Phuong Thao Tran"},"message":"made in china cũng mua hả anh?","can_remove":false,"created_time":"2013-12-30T13:51:39+0000","like_count":0,"user_likes":false},"787041411312538":{"id":"787041411312538","from":{"id":"100001416272263","name":"Mai PB"},"message":"Phuong Thao Tran: \"made for Japan\", \"produced/designed by Japan for Japan market only\" mà em. Nó không phải là Made In China chung chung. Khi ở Nhật thì không cần phải để ý đến chuyện đó.","message_tags":[{"id":"569263718","name":"Phuong Thao Tran","type":"user","offset":0,"length":16}],"can_remove":false,"created_time":"2013-12-30T14:04:04+0000","like_count":1,"user_likes":false},"787049117978434":{"id":"787049117978434","from":{"id":"1657595398","name":"Hoàng Anh"},"message":"Ngày 29 và 31 /12 không đc  trang trí nhé. Ng ta kỵ hai ngày này.","can_remove":false,"created_time":"2013-12-30T14:19:40+0000","like_count":0,"user_likes":false},"787368034613209":{"id":"787368034613209","from":{"id":"100000687662713","name":"Vu Thi Man"},"message":"Ở chỗ này, mọi người chỉ đi săn hàng giảm giá thôi, không thấy ai trang trí nhà cửa cả bạn Mai PB ah.","message_tags":[{"id":"100001416272263","name":"Mai PB","type":"user","offset":91,"length":6}],"can_remove":false,"created_time":"2013-12-31T00:55:26+0000","like_count":1,"user_likes":false},"787471611269518":{"id":"787471611269518","from":{"id":"100001416272263","name":"Mai PB"},"message":"2 việc có cản trở nhau đâu, mà chỉ với vài trăm Yên đã có một không khí Tết rồi, tại sao không, Vu Thi Man? :-)","can_remove":false,"created_time":"2013-12-31T02:59:43+0000","like_count":1,"user_likes":false},"787492364600776":{"id":"787492364600776","from":{"id":"100000687662713","name":"Vu Thi Man"},"message":"Không, nhà mình thì để lấy chút không khí mình tự làm thôi, mua 100 Yên giấy màu về, tha hồ mà gấp, cắt, trang hoàng theo kiểu Sinh viên.","can_remove":false,"created_time":"2013-12-31T03:46:49+0000","like_count":1,"user_likes":false},"787515237931822":{"id":"787515237931822","from":{"id":"100003913383051","name":"Tho Tran"},"message":"Chị Hoàng Anh ơi sao lại kiêng 2 ngày này thế ạ???","can_remove":false,"created_time":"2013-12-31T04:44:17+0000","like_count":0,"user_likes":false}},"paging":{"cursors":{"after":"Nzg3MDM1MDE3OTc5ODQ0","before":"Nzg3MDM1MDE3OTc5ODQ0"},"next":"https://graph.facebook.com/229244010425617_787032527980093/comments?limit=1&summary=1&after=Nzg3MDM1MDE3OTc5ODQ0"},"summary":{"order":"chronological","total_count":7}}}