{"id":"229244010425617_787171297966216","type":"photo","object_id":"10152080417426590","picture":"https://fbcdn-photos-h-a.akamaihd.net/hphotos-ak-prn2/v/t34.0-11/961009_10152070627806590_1748379630_s.jpg?oh=a5b0664b4e19da291a2c7158dd846d4a&oe=534FFFE6&__gda__=1397769955_7a043c4883744bb5a5889e8771e510d3","link":"https://www.facebook.com/photo.php?fbid=10152080417426590&set=gm.787171297966216&type=1&relevant_count=1","from":{"id":"550401589","name":"Cuong Cao"},"message":"Hi all!\n\nĐây là hoá đơn ktx của bọn mình, nhưng có 3 dòng đầu mà mỗi khoản là 1 man - họ viết bằng Kanji mình ko đọc đc.\n\nMà chữ viết tay này, mình ko chắc chắn để tra bằng từ điển. Bạn nào biết thì xem giúp mình nhé.\n\nCảm ơn ạ ^^","created_time":"2013-12-30T17:26:35+0000","updated_time":"2013-12-31T03:50:45+0000","likes":{"data":{"100003604627774":{"id":"100003604627774","name":"Huyền Trang"},"757996837":{"id":"757996837","name":"Tuan Anh"},"100000462725304":{"id":"100000462725304","name":"Anh Tu"},"100003207505208":{"id":"100003207505208","name":"Tuyển Osaka Minami"}},"paging":{"cursors":{"after":"MTAwMDAzNjA0NjI3Nzc0","before":"MTAwMDAzNjA0NjI3Nzc0"},"next":"https://graph.facebook.com/229244010425617_787171297966216/likes?limit=1&summary=1&after=MTAwMDAzNjA0NjI3Nzc0"},"summary":{"total_count":4}},"comments":{"data":{"787171544632858":{"id":"787171544632858","from":{"id":"100002508122689","name":"Vũ Mạnh Tuấn"},"message":"bạn xoay lại ảnh đi. mọi người sẽ đọc dễ hơn.","can_remove":false,"created_time":"2013-12-30T17:27:22+0000","like_count":1,"user_likes":false},"787172244632788":{"id":"787172244632788","from":{"id":"100005057138072","name":"Lưu Tuấn Phát"},"message":"tiền vào kí túc, tiền phòng cháy chữa cháy, tiền bảo hiểm","can_remove":false,"created_time":"2013-12-30T17:28:51+0000","like_count":2,"user_likes":false},"787173024632710":{"id":"787173024632710","from":{"id":"550401589","name":"Cuong Cao"},"message":"Trc lúc up lên mình đã crop & xoay, nhưng hình như nó chỉ hiện bản giao diện nhìn trong Photo, còn up lên thì lại dẫn file gốc.\n\nThank Lưu Tuấn Phát nhé. He he","message_tags":[{"id":"100005057138072","name":"Lưu Tuấn Phát","type":"user","offset":135,"length":13}],"can_remove":false,"created_time":"2013-12-30T17:30:30+0000","like_count":1,"user_likes":false},"787173481299331":{"id":"787173481299331","from":{"id":"100005057138072","name":"Lưu Tuấn Phát"},"message":"nâu bờ lốp lầm ;))","can_remove":false,"created_time":"2013-12-30T17:31:49+0000","like_count":1,"user_likes":false},"787175047965841":{"id":"787175047965841","from":{"id":"100000065862996","name":"Ne Ne Bí Đỏ"},"message":"cho e hỏi, số tiền này phải trả 1 lượt cho lần đầu nhập học sao , trường nào cũng như vậy sao","can_remove":false,"created_time":"2013-12-30T17:35:44+0000","like_count":0,"user_likes":false},"787177367965609":{"id":"787177367965609","from":{"id":"100000999379893","name":"Tsuyoshi Nguyen"},"message":"Tiền nhập KTX, bảo hiểm hoả hoạn, và tiền bảo lãnh.","can_remove":false,"created_time":"2013-12-30T17:38:20+0000","like_count":2,"user_likes":false},"787185131298166":{"id":"787185131298166","from":{"id":"550401589","name":"Cuong Cao"},"message":"Tiền nhập KTX thì mình hiểu, còn khoản bảo hiểm học sinh mình đã đóng từ VN. Vậy bảo hiểm hoả hoạn là mình bắt buộc phải đóng hả các bạn, lại còn tiền bảo lãnh nữa - phí vào ktx k bao gồm phí bảo lãnh sao :(","can_remove":false,"created_time":"2013-12-30T17:51:22+0000","like_count":0,"user_likes":false},"787188777964468":{"id":"787188777964468","from":{"id":"100004695098002","name":"Bố Chán Đời"},"message":"Dòng đầu la' phí vào pòng ! 2 là hoả hoạn, thảm hoạ cháy nổ ! 3 tiền bảo hiểm !","can_remove":false,"created_time":"2013-12-30T17:57:54+0000","like_count":0,"user_likes":false},"787243301292349":{"id":"787243301292349","from":{"id":"100005801442456","name":"An Nguyen"},"message":"Chưa giờ thấy tờ hoá đơn nào cùi bắp sau 2 năm ở Nhật @.@","can_remove":false,"created_time":"2013-12-30T20:15:02+0000","like_count":0,"user_likes":false},"787279801288699":{"id":"787279801288699","from":{"id":"100003094158721","name":"Hikari Truong"},"message":"Tiền vào kí túc... Tiền phòng cháy chữa cháy với tiền bảo la lãnh ( đứng tên thuê, hay gì đó... Guônhs tiền giới thiệu ấy)","can_remove":false,"created_time":"2013-12-30T21:36:35+0000","like_count":0,"user_likes":false},"787330987950247":{"id":"787330987950247","from":{"id":"100003291701878","name":"Bui Anhdat"},"message":"Bên em hình như khoản này nó thu đến tận 6 man rưỡi lận  hjc hjc","can_remove":false,"created_time":"2013-12-30T23:05:00+0000","like_count":0,"user_likes":false},"787341327949213":{"id":"787341327949213","from":{"id":"650770013","name":"Nguyen Hoang Anh"},"message":"Bảo hiểm hoả hoạn là bắt buộc khi thuê nhà, phí vào ở giống như tiền cám ơn chủ nhà(thực ra là tiền ngta sửa sang thay đồ đạc bên trong) tiền bảo lãnh là tiền đặt cọc đề phòng trốn trả tiền hoặc gây hư hỏng v.v.. Tiền bảo lãnh sau này rời đi thì đc nhận lại.","can_remove":false,"created_time":"2013-12-30T23:34:25+0000","like_count":2,"user_likes":false},"787494344600578":{"id":"787494344600578","from":{"id":"100004296072026","name":"Ot ChuOng"},"message":"Cho mjh hoj. 1man ben Nhat bag bn tjen Vjet mjh vay?","can_remove":false,"created_time":"2013-12-31T03:50:45+0000","like_count":0,"user_likes":false}},"paging":{"cursors":{"after":"Nzg3MTcxNTQ0NjMyODU4","before":"Nzg3MTcxNTQ0NjMyODU4"},"next":"https://graph.facebook.com/229244010425617_787171297966216/comments?limit=1&summary=1&after=Nzg3MTcxNTQ0NjMyODU4"},"summary":{"order":"chronological","total_count":13}}}