{"id":"229244010425617_787527074597305","type":"photo","object_id":"222001641312857","picture":"https://fbcdn-photos-c-a.akamaihd.net/hphotos-ak-prn2/t1.0-0/1507975_222001641312857_1868870780_s.jpg","link":"https://www.facebook.com/photo.php?fbid=222001641312857&set=gm.787527074597305&type=1&relevant_count=1","from":{"id":"100005090677811","name":"Trí Chơn"},"message":"Đồ đạc trong nhà nhé","created_time":"2013-12-31T05:09:17+0000","updated_time":"2013-12-31T12:13:24+0000","likes":{"data":{"100000707762750":{"id":"100000707762750","name":"Tran Tho"},"100004079425105":{"id":"100004079425105","name":"Nhớ Đó Nha"},"100002892549628":{"id":"100002892549628","name":"Hải Hà"},"100001732119820":{"id":"100001732119820","name":"Sapphire Rain"},"100004871794179":{"id":"100004871794179","name":"Lee Mi Nguyen"},"100004221763347":{"id":"100004221763347","name":"Huong Tran"},"100004085889229":{"id":"100004085889229","name":"Tho Be"},"1786699354":{"id":"1786699354","name":"Gà Quay"},"100001806981402":{"id":"100001806981402","name":"Cookie Panda"},"100006738850876":{"id":"100006738850876","name":"Ho Tuan"},"100007182187601":{"id":"100007182187601","name":"Ohaidau Noinho"},"100002586987315":{"id":"100002586987315","name":"Trần Văn Huấn"},"100000198256705":{"id":"100000198256705","name":"Chunnie San"},"100003780948776":{"id":"100003780948776","name":"Sâu Đặng"},"100001732071709":{"id":"100001732071709","name":"ʚɞNam Appleʚɞ"},"100005934548279":{"id":"100005934548279","name":"Cậu Bé Buồn"},"100004253979918":{"id":"100004253979918","name":"Louis Hoàng Văn Thái"},"100002895650964":{"id":"100002895650964","name":"Lẩu Tít Lì"},"100003155380603":{"id":"100003155380603","name":"Khuong Pham"},"100003888543212":{"id":"100003888543212","name":"Ta Hiep"},"100002040615574":{"id":"100002040615574","name":"Leo Kun"},"100002409268424":{"id":"100002409268424","name":"Lê Nguyệt Minh"},"100007156117934":{"id":"100007156117934","name":"Kem Kixu"},"100006542862765":{"id":"100006542862765","name":"Tình Phai"},"100004249722210":{"id":"100004249722210","name":"Lật Đật"},"100003259252978":{"id":"100003259252978","name":"Biết Đâu Bất Ngờ"},"100004971633272":{"id":"100004971633272","name":"Xuân Trung"},"100002681965331":{"id":"100002681965331","name":"Chuột Ngốc"},"100001526631937":{"id":"100001526631937","name":"Tường Oanh Mineko"},"100000979888687":{"id":"100000979888687","name":"Tran Long"},"100007051600515":{"id":"100007051600515","name":"Giang Nguyễn"},"100005337850702":{"id":"100005337850702","name":"Xứ Tuyết"},"100005090677811":{"id":"100005090677811","name":"Trí Chơn"},"100003947703119":{"id":"100003947703119","name":"Thinh Ha"}},"paging":{"cursors":{"after":"MTAwMDAwNzA3NzYyNzUw","before":"MTAwMDAwNzA3NzYyNzUw"},"next":"https://graph.facebook.com/229244010425617_787527074597305/likes?limit=1&summary=1&after=MTAwMDAwNzA3NzYyNzUw"},"summary":{"total_count":34}},"comments":{"data":{"787534081263271":{"id":"787534081263271","from":{"id":"100003947703119","name":"Thinh Ha"},"message":"Vòm Hà","message_tags":[{"id":"100003902182581","name":"Vòm Hà","type":"user","offset":0,"length":6}],"can_remove":false,"created_time":"2013-12-31T05:27:35+0000","like_count":0,"user_likes":false},"787539811262698":{"id":"787539811262698","from":{"id":"569263718","name":"Phuong Thao Tran"},"message":"15. kabegami: giấy dán tường phải ko nhỉ\n31: よふくダンス　→　ようふくダンス","can_remove":false,"created_time":"2013-12-31T05:43:34+0000","like_count":2,"user_likes":false},"787683217915024":{"id":"787683217915024","from":{"id":"1259486859","name":"Le Son Tung"},"message":"Dương Phục Đan Sự =))","can_remove":false,"created_time":"2013-12-31T12:13:24+0000","like_count":0,"user_likes":false}},"paging":{"cursors":{"after":"Nzg3NTM0MDgxMjYzMjcx","before":"Nzg3NTM0MDgxMjYzMjcx"},"next":"https://graph.facebook.com/229244010425617_787527074597305/comments?limit=1&summary=1&after=Nzg3NTM0MDgxMjYzMjcx"},"summary":{"order":"chronological","total_count":3}}}