{"id":"229244010425617_787868704563142","type":"video","picture":"https://fbexternal-a.akamaihd.net/safe_image.php?d=AQAJP8LDjPqRKO0a&w=130&h=130&url=http%3A%2F%2Fi1.ytimg.com%2Fvi%2F8Xjrr6i_8mE%2Fmaxresdefault.jpg","link":"http://www.youtube.com/watch?v=8Xjrr6i_8mE","source":"http://www.youtube.com/v/8Xjrr6i_8mE?version=3&autohide=1&autoplay=1","from":{"id":"569263718","name":"Phuong Thao Tran"},"message":"Chúc mừng năm mới với mở màn là bản hòa âm phối khí trống Taiko với nghệ sỹ Kitaro.\nChúc mọi người một năm mới với tâm thế sẵn sàng phấn khích và tráng khí ngút trời!!\n----------------------------------------------\n\nhttp://www.youtube.com/watch?v=8Xjrr6i_8mE","created_time":"2013-12-31T16:24:03+0000","updated_time":"2014-01-02T05:54:50+0000","likes":{"data":{"1146680551":{"id":"1146680551","name":"優しい なぁ"},"1787333994":{"id":"1787333994","name":"Kiên Mậu"},"100002099992571":{"id":"100002099992571","name":"Sim Vu"},"100001416272263":{"id":"100001416272263","name":"Mai PB"},"100001526631937":{"id":"100001526631937","name":"Tường Oanh Mineko"},"100001754136107":{"id":"100001754136107","name":"Nguyễn Tuấn Vũ"}},"paging":{"cursors":{"after":"MTE0NjY4MDU1MQ==","before":"MTE0NjY4MDU1MQ=="},"next":"https://graph.facebook.com/229244010425617_787868704563142/likes?limit=1&summary=1&after=MTE0NjY4MDU1MQ%3D%3D"},"summary":{"total_count":7}},"comments":{"data":{"788418881174791":{"id":"788418881174791","from":{"id":"100001526631937","name":"Tường Oanh Mineko"},"message":"thích từ \" tráng khí ngút trời\" của c nè :D","can_remove":false,"created_time":"2014-01-01T08:48:07+0000","like_count":1,"user_likes":false},"788532561163423":{"id":"788532561163423","from":{"id":"100001416272263","name":"Mai PB"},"message":"Thích mấy comment của các em miền Trung miền Nam ghê, hỏi ngã là cứ đổi chỗ cho nhau suốt. :-)","can_remove":false,"created_time":"2014-01-01T12:59:05+0000","like_count":1,"user_likes":false},"788534457829900":{"id":"788534457829900","from":{"id":"100001526631937","name":"Tường Oanh Mineko"},"message":":D a Mai PB nhắc khéo c kìa Phuong Thao Tran---> \" sẵn sàng\" nhóe :p","message_tags":[{"id":"569263718","name":"Phuong Thao Tran","type":"user","offset":28,"length":16}],"can_remove":false,"created_time":"2014-01-01T13:02:28+0000","like_count":1,"user_likes":false},"788536814496331":{"id":"788536814496331","from":{"id":"100001416272263","name":"Mai PB"},"message":"Không thiệt đó, mấy cái hỏi ngã đó dễ thương đó chứ.","can_remove":false,"created_time":"2014-01-01T13:06:59+0000","like_count":1,"user_likes":false},"788574851159194":{"id":"788574851159194","from":{"id":"569263718","name":"Phuong Thao Tran"},"message":"anh định cổ xúy hả, :D","can_remove":false,"created_time":"2014-01-01T14:30:43+0000","like_count":0,"user_likes":false},"788575441159135":{"id":"788575441159135","from":{"id":"569263718","name":"Phuong Thao Tran"},"message":"cảm ơn em gái Tường Oanh Mineko, ^^","message_tags":[{"id":"100001526631937","name":"Tường Oanh Mineko","type":"user","offset":14,"length":17}],"can_remove":false,"created_time":"2014-01-01T14:31:41+0000","like_count":1,"user_likes":false},"788962247787121":{"id":"788962247787121","from":{"id":"100000603915176","name":"悪いな ぁ"},"message":"Lứng thứng lứng thứng, dấm vào cái lố, ngá :v","can_remove":false,"created_time":"2014-01-02T03:21:39+0000","like_count":0,"user_likes":false},"789070714442941":{"id":"789070714442941","from":{"id":"569263718","name":"Phuong Thao Tran"},"message":"ham nhìn hot boi nào hả warui nà, :D","can_remove":false,"created_time":"2014-01-02T05:54:50+0000","like_count":0,"user_likes":false}},"paging":{"cursors":{"after":"Nzg4NDE4ODgxMTc0Nzkx","before":"Nzg4NDE4ODgxMTc0Nzkx"},"next":"https://graph.facebook.com/229244010425617_787868704563142/comments?limit=1&summary=1&after=Nzg4NDE4ODgxMTc0Nzkx"},"summary":{"order":"chronological","total_count":8}}}