{"id":"229244010425617_787826191234060","type":"status","from":{"id":"100001416272263","name":"Mai PB"},"message":"Đã sang năm mới theo giờ Nhật. Chúc mừng năm mới 2014.\n皆様、明けましておめでとうございます。","created_time":"2013-12-31T15:03:27+0000","updated_time":"2014-01-01T08:35:53+0000","likes":{"data":{"100007278035600":{"id":"100007278035600","name":"Lala Lee Bien"},"100001537031007":{"id":"100001537031007","name":"Vịt Xấu Xí"},"100000199780783":{"id":"100000199780783","name":"Nguyen Thu Hoai"},"100000019126977":{"id":"100000019126977","name":"Nguyen Thi Ngoc Anh"},"100006851160906":{"id":"100006851160906","name":"Chu Thị Hồng"},"100006009612602":{"id":"100006009612602","name":"Naru Katori"},"100001535362081":{"id":"100001535362081","name":"Mukan Kokoro"},"1824015127":{"id":"1824015127","name":"Bùi Quang Tân"},"100003216142531":{"id":"100003216142531","name":"Dudu Tròn"},"100000128615903":{"id":"100000128615903","name":"Nguyen Trung Thanh"},"100003762427351":{"id":"100003762427351","name":"Hiroshi Yasu Oki"},"100004028173069":{"id":"100004028173069","name":"Jin Ngốc"},"100003618430824":{"id":"100003618430824","name":"Chizuko Takita"},"100004101462769":{"id":"100004101462769","name":"Thao Vo"},"1603137055":{"id":"1603137055","name":"Nguyen Song Lan Anh"},"1305472811":{"id":"1305472811","name":"Tuan Nguyen"},"100001357646859":{"id":"100001357646859","name":"Rối Ơi Giúp Tôi"},"100000299798248":{"id":"100000299798248","name":"Vẹt Đêm"},"100004371458308":{"id":"100004371458308","name":"Huynh Hong Nhung"},"100000381394367":{"id":"100000381394367","name":"Thành Nguyễn"},"100005802612629":{"id":"100005802612629","name":"Hana Nguyen"},"100001594722256":{"id":"100001594722256","name":"Viết An Phạm"},"100000176631338":{"id":"100000176631338","name":"Hà Phương"},"100006520210904":{"id":"100006520210904","name":"Miu Miu"},"100004517381667":{"id":"100004517381667","name":"Luong Ly"},"100003878977188":{"id":"100003878977188","name":"Minh Canh"},"100003165554056":{"id":"100003165554056","name":"Sâu Bét"},"100007015029011":{"id":"100007015029011","name":"Hao Hai Duong"},"100001149552981":{"id":"100001149552981","name":"Hà Ngọc Hiếu"},"100004672236926":{"id":"100004672236926","name":"Văn Khẩn"},"1574575448":{"id":"1574575448","name":"An Na An"},"100002969887128":{"id":"100002969887128","name":"Trường Nguyễn"},"100003048919606":{"id":"100003048919606","name":"Khuong Vu"},"100005934548279":{"id":"100005934548279","name":"Cậu Bé Buồn"},"100004492933662":{"id":"100004492933662","name":"Sorakira Bui"},"100000603915176":{"id":"100000603915176","name":"悪いな ぁ"},"100001731744647":{"id":"100001731744647","name":"Niềm Vui"},"100002470650247":{"id":"100002470650247","name":"LinhLinh Chan"},"100004889430124":{"id":"100004889430124","name":"Quiet Man"},"100000292556230":{"id":"100000292556230","name":"Duy Anh Phạm"},"100003651523596":{"id":"100003651523596","name":"Ghibli Gin"},"100000979888687":{"id":"100000979888687","name":"Tran Long"},"100007064226996":{"id":"100007064226996","name":"Hoa Xuân"},"100004096243144":{"id":"100004096243144","name":"Shorai Nguyễn"},"100006111728204":{"id":"100006111728204","name":"La Ka Ta Tu"},"100004479997015":{"id":"100004479997015","name":"Nguyễn Quốc Nam"},"100003244177763":{"id":"100003244177763","name":"Mèo Mun"},"1828906841":{"id":"1828906841","name":"Trọng Nghĩa Bùi"},"100003873803655":{"id":"100003873803655","name":"Gà Khùng"},"569263718":{"id":"569263718","name":"Phuong Thao Tran"},"1452845400":{"id":"1452845400","name":"Thu Phuong"},"100007283947929":{"id":"100007283947929","name":"ʚïɞHương ʚïɞ"},"100001095264665":{"id":"100001095264665","name":"Bang Vu"},"100002734016240":{"id":"100002734016240","name":"Cỏ Dại"},"100003143578550":{"id":"100003143578550","name":"Vn Tim"},"100002773890521":{"id":"100002773890521","name":"Lệnh Yến"},"100005100880242":{"id":"100005100880242","name":"Ken DN"},"100000996305320":{"id":"100000996305320","name":"Luon Nguyen Thi Thu"},"100000280979106":{"id":"100000280979106","name":"Vũ Nhi Phan"},"100005098000109":{"id":"100005098000109","name":"Quynh Truong"},"100000435036779":{"id":"100000435036779","name":"Hiep Dao Xuan"},"711491571":{"id":"711491571","name":"Graziani Inaizarg"},"100001856370985":{"id":"100001856370985","name":"Anh Nguyen"},"100006663067003":{"id":"100006663067003","name":"Bình Heo"},"100004277822196":{"id":"100004277822196","name":"HuyenTrang Ngo Thi"},"1416265619":{"id":"1416265619","name":"Starwar Bbj"},"100005334430359":{"id":"100005334430359","name":"Mưa Lạnh"},"100000973295703":{"id":"100000973295703","name":"El Pipita Gà"},"100004069891926":{"id":"100004069891926","name":"Hạnh Phúc Ảo"},"100000041691073":{"id":"100000041691073","name":"Phuong Nam Hoang"},"100003676167268":{"id":"100003676167268","name":"Út Buta"},"100000141961504":{"id":"100000141961504","name":"LongRiver Nguyen"},"100001770616282":{"id":"100001770616282","name":"Bùi Thu Hiền"},"100003013864105":{"id":"100003013864105","name":"Thu Trang"},"100005694491959":{"id":"100005694491959","name":"Phuong Truong Thi Thanh"},"100004359103040":{"id":"100004359103040","name":"Lưu Quang Đông"},"100004123327271":{"id":"100004123327271","name":"Nguyễn Phương"},"100006390729789":{"id":"100006390729789","name":"Piyo Piyo"},"100004140850631":{"id":"100004140850631","name":"Huong Trang"},"100000271705877":{"id":"100000271705877","name":"Nguyễn Văn Minh"},"100006330218183":{"id":"100006330218183","name":"Trần Xuân Hanh"},"100001662710959":{"id":"100001662710959","name":"Xin Đừng Hôn Em"},"100002987474535":{"id":"100002987474535","name":"Candy Nguyen"},"100002022687535":{"id":"100002022687535","name":"Ryoichi Inoue"},"100002762270141":{"id":"100002762270141","name":"Mien Nguyen"},"100003027515100":{"id":"100003027515100","name":"Hana Yuki"},"100000064686295":{"id":"100000064686295","name":"Huy Roli"},"100000141968619":{"id":"100000141968619","name":"Chacha Bubu"},"100003173024408":{"id":"100003173024408","name":"Ngoc My"},"100002629655875":{"id":"100002629655875","name":"Đỗ Thế Phong"},"100004543177973":{"id":"100004543177973","name":"Định Trương"},"100002099992571":{"id":"100002099992571","name":"Sim Vu"},"100004993025353":{"id":"100004993025353","name":"Ruby Tuyển"},"100004986644163":{"id":"100004986644163","name":"Rhodes Lindos"},"100005024348771":{"id":"100005024348771","name":"Long Hoàng"},"100007272394237":{"id":"100007272394237","name":"Ivy Nguyen"},"100004319231704":{"id":"100004319231704","name":"Tam Do"},"100004353903973":{"id":"100004353903973","name":"Xuyen Pham"},"100000925189769":{"id":"100000925189769","name":"Fanzhen Zhensanj"},"100002032602206":{"id":"100002032602206","name":"Hoang Cong Thang"},"1775693736":{"id":"1775693736","name":"Pig Let"},"100003092238767":{"id":"100003092238767","name":"Ngo An"},"100007200612709":{"id":"100007200612709","name":"Hoang Nguyen Le"},"100004253979918":{"id":"100004253979918","name":"Louis Hoàng Văn Thái"},"100003925443381":{"id":"100003925443381","name":"Minh Thọ Ngô"},"100002221246070":{"id":"100002221246070","name":"Rọm Lụt"},"100007236487366":{"id":"100007236487366","name":"Thanh Tam"},"100004935031711":{"id":"100004935031711","name":"Thanh Chuxu"},"100000006500209":{"id":"100000006500209","name":"Hai Nhy"},"100005343103418":{"id":"100005343103418","name":"Linh Long Lanh"},"100004296072026":{"id":"100004296072026","name":"Ot ChuOng"},"100000843003978":{"id":"100000843003978","name":"Ngo Quang"},"100000069608729":{"id":"100000069608729","name":"Lao Shi Nguyen"},"100004090172888":{"id":"100004090172888","name":"Nguyễn Ngọc"},"100003874832426":{"id":"100003874832426","name":"Tú Còi"},"100000038385946":{"id":"100000038385946","name":"Nguyen Duy"},"1834022759":{"id":"1834022759","name":"Nga Hoàng Lê"},"100003842981495":{"id":"100003842981495","name":"Hong Van Nguyen"},"100000089472724":{"id":"100000089472724","name":"Duy Nguyen"},"100005505456565":{"id":"100005505456565","name":"Nguyễn Đức Luân"},"100006387572378":{"id":"100006387572378","name":"Trang Kelly"},"100000993680274":{"id":"100000993680274","name":"Thinh Nguyen Van"},"1042936079":{"id":"1042936079","name":"Bui Dung"},"100001754136107":{"id":"100001754136107","name":"Nguyễn Tuấn Vũ"},"100001659230540":{"id":"100001659230540","name":"Lemon Tea"},"100006131672813":{"id":"100006131672813","name":"Má Lúm Đồng Tiền"},"100003971304832":{"id":"100003971304832","name":"Nguyễn Xuân"},"100002508122689":{"id":"100002508122689","name":"Vũ Mạnh Tuấn"},"100004589250661":{"id":"100004589250661","name":"Pé Kẹo Mút"},"100006817270668":{"id":"100006817270668","name":"Otcay Cay"},"100000045271667":{"id":"100000045271667","name":"Nam Thai Nguyen"},"100000052661831":{"id":"100000052661831","name":"Shuntoku Pham"},"100001428477907":{"id":"100001428477907","name":"Đặng Ngọc Huy"},"100001526631937":{"id":"100001526631937","name":"Tường Oanh Mineko"},"1617159513":{"id":"1617159513","name":"竹田穂亜"},"100000468762077":{"id":"100000468762077","name":"Youki Youki"},"100002527131594":{"id":"100002527131594","name":"Nhat Pham"},"100006514024527":{"id":"100006514024527","name":"Sakura"},"100002157379029":{"id":"100002157379029","name":"Nguyen Hai Dung"},"100005074082521":{"id":"100005074082521","name":"Tratuna Nguyen"},"100000309978634":{"id":"100000309978634","name":"Tan Vu"},"1146680551":{"id":"1146680551","name":"優しい なぁ"},"100004003180119":{"id":"100004003180119","name":"Jerry Koy"},"100003927345049":{"id":"100003927345049","name":"Bùi Liên"},"1148962646":{"id":"1148962646","name":"Tran Thi Tuong Van"},"100005801442456":{"id":"100005801442456","name":"An Nguyen"},"100006632436355":{"id":"100006632436355","name":"Vang Toi Ngheo"},"100000328742646":{"id":"100000328742646","name":"Trần Giáp"},"100001806981402":{"id":"100001806981402","name":"Cookie Panda"}},"paging":{"cursors":{"after":"MTAwMDA3Mjc4MDM1NjAw","before":"MTAwMDA3Mjc4MDM1NjAw"},"next":"https://graph.facebook.com/229244010425617_787826191234060/likes?limit=1&summary=1&after=MTAwMDA3Mjc4MDM1NjAw"},"summary":{"total_count":153}},"comments":{"data":{"787827131233966":{"id":"787827131233966","from":{"id":"100002958044330","name":"Duke Togo"},"message":"明けましておめでとうございます。","can_remove":false,"created_time":"2013-12-31T15:05:44+0000","like_count":1,"user_likes":false},"787828201233859":{"id":"787828201233859","from":{"id":"1617159513","name":"竹田穂亜"},"message":"明けましておめでとうございます.\n今年も宜しくお願い致します。","can_remove":false,"created_time":"2013-12-31T15:08:08+0000","like_count":1,"user_likes":false},"787828297900516":{"id":"787828297900516","from":{"id":"100002571011626","name":"Hà Sáng"},"message":"明けましておめでとう","can_remove":false,"created_time":"2013-12-31T15:08:12+0000","like_count":1,"user_likes":false},"787829894567023":{"id":"787829894567023","from":{"id":"100002571011626","name":"Hà Sáng"},"message":"Còn 1 tháng nữa là tết Việt Nam chúng ta rồi đếm từng ngày thôi mọi người ơi.","can_remove":false,"created_time":"2013-12-31T15:11:57+0000","like_count":0,"user_likes":false},"787830637900282":{"id":"787830637900282","from":{"id":"100006326500790","name":"Yến Pucca"},"message":"Akemashite omedetou gozaimasu!","can_remove":false,"created_time":"2013-12-31T15:13:09+0000","like_count":1,"user_likes":false},"787831457900200":{"id":"787831457900200","from":{"id":"1148962646","name":"Tran Thi Tuong Van"},"message":"お兄さん、明けましておめでとうございます。","can_remove":false,"created_time":"2013-12-31T15:15:01+0000","like_count":1,"user_likes":false},"787833677899978":{"id":"787833677899978","from":{"id":"100003925443381","name":"Minh Thọ Ngô"},"message":"明けましておめでとうございます","can_remove":false,"created_time":"2013-12-31T15:20:41+0000","like_count":1,"user_likes":false},"787836984566314":{"id":"787836984566314","from":{"id":"100001416272263","name":"Mai PB"},"message":"Mochi Sweets đang ở HN nên cũng chẳng biết \"bên đó\" thế nào. :-)","message_tags":[{"id":"100006767705219","name":"Mochi Sweets","type":"user","offset":0,"length":12}],"can_remove":false,"created_time":"2013-12-31T15:26:28+0000","like_count":1,"user_likes":false},"787838991232780":{"id":"787838991232780","from":{"id":"100001416272263","name":"Mai PB"},"message":"Không kịp đâu :-)","can_remove":false,"created_time":"2013-12-31T15:30:36+0000","like_count":0,"user_likes":false},"787855061231173":{"id":"787855061231173","from":{"id":"100006674468766","name":"Phuong Thai"},"message":"明けましておめでとう。今年もよろしくお願いします。","can_remove":false,"created_time":"2013-12-31T16:02:12+0000","like_count":0,"user_likes":false},"787862267897119":{"id":"787862267897119","from":{"id":"100003896590033","name":"Đô Rê Mon"},"message":"ake mashite omedetou dozaimasu","can_remove":false,"created_time":"2013-12-31T16:14:38+0000","like_count":0,"user_likes":false},"787862461230433":{"id":"787862461230433","from":{"id":"100000328742646","name":"Trần Giáp"},"message":"新年おめでとうございます｡","can_remove":false,"created_time":"2013-12-31T16:14:54+0000","like_count":0,"user_likes":false},"787866361230043":{"id":"787866361230043","from":{"id":"100000720686402","name":"Ngọc Sơn Trần"},"message":"a Trần Giáp ơi 新年　là năm mới và đọc là gì vậy anh?. Chả lẽ lại là atarashii nên ạ?","message_tags":[{"id":"100000328742646","name":"Trần Giáp","type":"user","offset":2,"length":9}],"can_remove":false,"created_time":"2013-12-31T16:20:54+0000","like_count":0,"user_likes":false},"787867761229903":{"id":"787867761229903","from":{"id":"100000328742646","name":"Trần Giáp"},"message":"shinnen thôi e, shin trong shinbun, nen trong rainen, kyonen ấy :)","can_remove":false,"created_time":"2013-12-31T16:22:44+0000","like_count":0,"user_likes":false},"787869641229715":{"id":"787869641229715","from":{"id":"100000720686402","name":"Ngọc Sơn Trần"},"message":"à e hiểu rồi ạ. cám ơn anh. tại vì e thấy atarashii là mới và nen là năm nên e tưởng năm mới không nghĩ gì đến âm kunyomi @@","can_remove":false,"created_time":"2013-12-31T16:25:08+0000","like_count":0,"user_likes":false},"787883641228315":{"id":"787883641228315","from":{"id":"100004096243144","name":"Shorai Nguyễn"},"message":"新年明けましておめでとうございます","can_remove":false,"created_time":"2013-12-31T16:46:35+0000","like_count":0,"user_likes":false},"787901861226493":{"id":"787901861226493","from":{"id":"100000603915176","name":"悪いな ぁ"},"message":"Chúc mừng năm mới mọi người :)","can_remove":false,"created_time":"2013-12-31T17:17:25+0000","like_count":0,"user_likes":false},"788301464519866":{"id":"788301464519866","from":{"id":"100003947703119","name":"Thinh Ha"},"message":"新年あけまして、おぬでとうごさいます","can_remove":false,"created_time":"2014-01-01T04:36:41+0000","like_count":0,"user_likes":false},"788414491175230":{"id":"788414491175230","from":{"id":"100001526631937","name":"Tường Oanh Mineko"},"message":"chúc mọi ng năm mới dồi dào sức khỏe và hạnh phúc","can_remove":false,"created_time":"2014-01-01T08:35:53+0000","like_count":1,"user_likes":false}},"paging":{"cursors":{"after":"Nzg3ODI3MTMxMjMzOTY2","before":"Nzg3ODI3MTMxMjMzOTY2"},"next":"https://graph.facebook.com/229244010425617_787826191234060/comments?limit=1&summary=1&after=Nzg3ODI3MTMxMjMzOTY2"},"summary":{"order":"chronological","total_count":22}}}