{"id":"229244010425617_787948551221824","type":"photo","object_id":"630205327038065","picture":"https://fbcdn-photos-a-a.akamaihd.net/hphotos-ak-frc3/t1.0-0/1499498_630205327038065_1718076073_s.jpg","link":"https://www.facebook.com/photo.php?fbid=630205327038065&set=gm.787948551221824&type=1&relevant_count=1","from":{"id":"100001458099624","name":"Kham Pha"},"message":"明けましておめでとうございます。\n一年間大変お世話になっており、ありがとうございました。今後もよろしくお願いします。\nTokyo countdown 2014.","created_time":"2013-12-31T18:34:51+0000","updated_time":"2014-01-01T01:29:46+0000","likes":{"data":{"100004079425105":{"id":"100004079425105","name":"Nhớ Đó Nha"},"100007278035600":{"id":"100007278035600","name":"Lala Lee Bien"},"100000019126977":{"id":"100000019126977","name":"Nguyen Thi Ngoc Anh"},"1824015127":{"id":"1824015127","name":"Bùi Quang Tân"},"100001481900448":{"id":"100001481900448","name":"Bao Pham"},"100007300444479":{"id":"100007300444479","name":"Báo Hoa Xinh Đẹp"},"849149395":{"id":"849149395","name":"Đặng Ngọc Trân"},"100001062202744":{"id":"100001062202744","name":"Hoang Garu"},"100001526631937":{"id":"100001526631937","name":"Tường Oanh Mineko"},"100003081570601":{"id":"100003081570601","name":"Khanh Minh"},"100004326585247":{"id":"100004326585247","name":"Phan Hồng Nhung"},"100003671803669":{"id":"100003671803669","name":"Tojika Sakura"},"100002892549628":{"id":"100002892549628","name":"Hải Hà"},"1764773046":{"id":"1764773046","name":"Thu Thao Bui"},"100002676859353":{"id":"100002676859353","name":"Chu Quang Viên"},"100004871794179":{"id":"100004871794179","name":"Lee Mi Nguyen"},"100004171383608":{"id":"100004171383608","name":"Thuy Heo"},"100000046204577":{"id":"100000046204577","name":"Sư Tử Hung Dữ"},"1550521697":{"id":"1550521697","name":"Trình Nguyễn"},"100003913383051":{"id":"100003913383051","name":"Tho Tran"},"100002419566054":{"id":"100002419566054","name":"Khánh Toàn"},"569263718":{"id":"569263718","name":"Phuong Thao Tran"},"100005780281687":{"id":"100005780281687","name":"Shinichi Shinichi"},"703293556":{"id":"703293556","name":"Cuong Nguyen"},"100003731623249":{"id":"100003731623249","name":"Mai Nguyen"},"100002290906582":{"id":"100002290906582","name":"Kanashimi No Yukue"},"100000199780783":{"id":"100000199780783","name":"Nguyen Thu Hoai"},"100003244177763":{"id":"100003244177763","name":"Mèo Mun"},"100005074082521":{"id":"100005074082521","name":"Tratuna Nguyen"},"100002157379029":{"id":"100002157379029","name":"Nguyen Hai Dung"},"100000126026005":{"id":"100000126026005","name":"Minh Hoang"},"100002099992571":{"id":"100002099992571","name":"Sim Vu"},"100007398483410":{"id":"100007398483410","name":"Byo Dông Á"},"100002871405403":{"id":"100002871405403","name":"Thach Sanh"},"100006663067003":{"id":"100006663067003","name":"Bình Heo"},"100000979888687":{"id":"100000979888687","name":"Tran Long"},"100001416272263":{"id":"100001416272263","name":"Mai PB"},"100000176631338":{"id":"100000176631338","name":"Hà Phương"},"100000691510113":{"id":"100000691510113","name":"Phu Tran"},"100003397876835":{"id":"100003397876835","name":"Nabito Lazy"},"100003875131996":{"id":"100003875131996","name":"Ngoc Anh"},"100004374030406":{"id":"100004374030406","name":"Chính Nôbita"},"100000776461179":{"id":"100000776461179","name":"Jotaro Nguyen"},"100003828118579":{"id":"100003828118579","name":"Khanh Linh"},"100003105034037":{"id":"100003105034037","name":"Pham Oanh"},"100004140850631":{"id":"100004140850631","name":"Huong Trang"},"100004627514398":{"id":"100004627514398","name":"Tự Hoàn Thiện"},"100003165554056":{"id":"100003165554056","name":"Sâu Bét"},"100000045271667":{"id":"100000045271667","name":"Nam Thai Nguyen"},"100000250256418":{"id":"100000250256418","name":"Nguyen Viet Anh"},"100005024348771":{"id":"100005024348771","name":"Long Hoàng"},"100001872458112":{"id":"100001872458112","name":"Alita Nguyen"},"100005011088753":{"id":"100005011088753","name":"Tĩnh Trịnh"},"100000468762077":{"id":"100000468762077","name":"Youki Youki"},"1630431934":{"id":"1630431934","name":"Quanghung Pham"},"100006111728204":{"id":"100006111728204","name":"La Ka Ta Tu"},"100005934548279":{"id":"100005934548279","name":"Cậu Bé Buồn"},"1146680551":{"id":"1146680551","name":"優しい なぁ"},"1512382361":{"id":"1512382361","name":"Thu Hải"},"100003049639881":{"id":"100003049639881","name":"Truong Luvuxy"},"100000052661831":{"id":"100000052661831","name":"Shuntoku Pham"},"100000115580730":{"id":"100000115580730","name":"Duy Tùng"},"100003327351931":{"id":"100003327351931","name":"Bánh Mì Sữa"},"100001440054060":{"id":"100001440054060","name":"Pi Trần"},"100003922416229":{"id":"100003922416229","name":"Hòa Nguyễn Văn"},"100000659425505":{"id":"100000659425505","name":"Nguyen Thanh Tung"},"100002527131594":{"id":"100002527131594","name":"Nhat Pham"},"100000065862996":{"id":"100000065862996","name":"Ne Ne Bí Đỏ"}},"paging":{"cursors":{"after":"MTAwMDA0MDc5NDI1MTA1","before":"MTAwMDA0MDc5NDI1MTA1"},"next":"https://graph.facebook.com/229244010425617_787948551221824/likes?limit=1&summary=1&after=MTAwMDA0MDc5NDI1MTA1"},"summary":{"total_count":71}},"comments":{"data":{"788012711215408":{"id":"788012711215408","from":{"id":"100005395537539","name":"Vũ Nguyên Khánh"},"message":"Haizzzzz","can_remove":false,"created_time":"2013-12-31T20:27:11+0000","like_count":0,"user_likes":false},"788071964542816":{"id":"788071964542816","from":{"id":"100001784385644","name":"Nga Nguyen"},"message":"Minh Tuấn","message_tags":[{"id":"100004560607147","name":"Minh Tuấn","type":"user","offset":0,"length":9}],"can_remove":false,"created_time":"2013-12-31T21:32:23+0000","like_count":0,"user_likes":false},"788153437868002":{"id":"788153437868002","from":{"id":"1235866955","name":"Loan Pham"},"message":"明けまして mới đúng!","can_remove":false,"created_time":"2013-12-31T23:17:18+0000","like_count":0,"user_likes":false},"788155317867814":{"id":"788155317867814","from":{"id":"100001458099624","name":"Kham Pha"},"message":"Bạn thật tinh mắt :)","can_remove":false,"created_time":"2013-12-31T23:22:25+0000","like_count":0,"user_likes":false},"788202137863132":{"id":"788202137863132","from":{"id":"100003397876835","name":"Nabito Lazy"},"message":"A Kham Pha nếu bây giờ mà chúc ng ta thì có fải ohayogozaimasu trc ko hay cứ akemashite luôn ạ.. e muốn gửi tnhắn cho ng Nhật ..","message_tags":[{"id":"100001458099624","name":"Kham Pha","type":"user","offset":2,"length":8}],"can_remove":false,"created_time":"2014-01-01T01:05:45+0000","like_count":0,"user_likes":false},"788211224528890":{"id":"788211224528890","from":{"id":"100001416272263","name":"Mai PB"},"message":"Không cần ohayou cũng đc.","can_remove":false,"created_time":"2014-01-01T01:29:46+0000","like_count":0,"user_likes":false}},"paging":{"cursors":{"after":"Nzg4MDEyNzExMjE1NDA4","before":"Nzg4MDEyNzExMjE1NDA4"},"next":"https://graph.facebook.com/229244010425617_787948551221824/comments?limit=1&summary=1&after=Nzg4MDEyNzExMjE1NDA4"},"summary":{"order":"chronological","total_count":6}}}