{"id":"229244010425617_788952647788081","type":"status","from":{"id":"1787333994","name":"Kiên Mậu"},"message":"Không biết có bạn nào cũng từng quan sát thấy mấy chuyện như này giống mình không nhỉ? Và bạn có cảm nghĩ gì khi liên tưởng tới xã hội ở quê nhà?\n\n1/ Ở Nhật dù ít nhưng vẫn còn một số người vô gia cư, đa phần già cả, ăn bờ ngủ bụi, ko hề tắm rửa nên nói thật trông bẩn thỉu nhếch nhác. Thế nhưng họ có 2 đặc điểm: không hề (hoặc rất hiếm khi) ăn xin người qua đường, và vẫn tuân thủ mọi luật lệ cơ bản như dừng đèn đỏ, vứt rác vào đúng nơi quy định,...\n\n2/ Có chú có vẻ phớt đời, đầu gấu, xăm trổ, tuy hành xử lấc cấc nhưng trên tàu khi thấy có cụ già vẫn đứng lên nhường ghế. Chú khác cũng dáng vẻ bất cần đời, vào Mc khi ăn xong đổ rác thì đút tọt luôn cả cái khay vào thùng rác, nhưng vẫn không bỏ đi mà loay hoay cúi moi bằng được cái khay lên trả đúng chỗ.","created_time":"2014-01-02T03:05:58+0000","updated_time":"2014-01-02T18:03:49+0000","likes":{"data":{"100003143704155":{"id":"100003143704155","name":"Cu Booc"},"100004095967794":{"id":"100004095967794","name":"Key Panda"},"100003131286654":{"id":"100003131286654","name":"U Mi Nhon"},"1821970083":{"id":"1821970083","name":"Nguyễn Mạnh Cường"},"100001723862714":{"id":"100001723862714","name":"Bo Bien Vang"},"100001413471721":{"id":"100001413471721","name":"Luo Yi Xin"},"100000271705877":{"id":"100000271705877","name":"Nguyễn Văn Minh"},"100003082594757":{"id":"100003082594757","name":"Du Học Nhật Bản"},"100001526631937":{"id":"100001526631937","name":"Tường Oanh Mineko"},"100003027753445":{"id":"100003027753445","name":"Xuân Trường"},"100000045271667":{"id":"100000045271667","name":"Nam Thai Nguyen"},"100001958220978":{"id":"100001958220978","name":"Trung Hiếu Bắp"},"100001243411261":{"id":"100001243411261","name":"Ngưu Tỷ Tỷ"},"100001754136107":{"id":"100001754136107","name":"Nguyễn Tuấn Vũ"},"569263718":{"id":"569263718","name":"Phuong Thao Tran"},"100003803384040":{"id":"100003803384040","name":"Ngọc Phan"},"100003187347123":{"id":"100003187347123","name":"Phi Duong"},"100004028173069":{"id":"100004028173069","name":"Jin Ngốc"},"100005291829327":{"id":"100005291829327","name":"Vinh Quang"},"100004253979918":{"id":"100004253979918","name":"Louis Hoàng Văn Thái"},"100003328655713":{"id":"100003328655713","name":"Tiểu Như"},"100002073199495":{"id":"100002073199495","name":"Phạm Thanh Hoa"},"100005675104683":{"id":"100005675104683","name":"Nguyễn Hoa"},"100001338846010":{"id":"100001338846010","name":"Sơn Nguyễn Minh"},"100001597573934":{"id":"100001597573934","name":"Ly Chu"},"100003933466469":{"id":"100003933466469","name":"Phong Aki"},"738235689":{"id":"738235689","name":"Dang Thi Phuong"},"100004511499641":{"id":"100004511499641","name":"Yêu Thương Quay Về"},"100000340850218":{"id":"100000340850218","name":"Tran Thu Trang"},"100005775182411":{"id":"100005775182411","name":"Tuấn Milo"},"1416265619":{"id":"1416265619","name":"Starwar Bbj"},"100002047631241":{"id":"100002047631241","name":"Dontask Nguyễn"},"100004194190922":{"id":"100004194190922","name":"Meo Luoi"},"100006305558297":{"id":"100006305558297","name":"Nguyen Anh"},"100001509401347":{"id":"100001509401347","name":"ThuyDung DoThi"},"100005474975544":{"id":"100005474975544","name":"Bồ Công Anh"},"100002892549628":{"id":"100002892549628","name":"Hải Hà"},"711491571":{"id":"711491571","name":"Graziani Inaizarg"},"100003121338996":{"id":"100003121338996","name":"Dau Phuong Anh"},"100005024348771":{"id":"100005024348771","name":"Long Hoàng"},"100005980532801":{"id":"100005980532801","name":"Tình Yêu Gió"},"100003893158172":{"id":"100003893158172","name":"Maru MO"},"100003179117057":{"id":"100003179117057","name":"Maii Phươngg"},"100002694966360":{"id":"100002694966360","name":"Gọi Giấc Mơ Về"},"100005801442456":{"id":"100005801442456","name":"An Nguyen"},"1828906841":{"id":"1828906841","name":"Trọng Nghĩa Bùi"},"100004171383608":{"id":"100004171383608","name":"Thuy Heo"},"100000381394367":{"id":"100000381394367","name":"Thành Nguyễn"},"100001283015293":{"id":"100001283015293","name":"Yamai Taro"},"100002959594535":{"id":"100002959594535","name":"Nguyen Ngoc Anh"},"655982125":{"id":"655982125","name":"Le Thi Nga My"},"100001355029546":{"id":"100001355029546","name":"Nguyen Hung Cuong"},"100004492744468":{"id":"100004492744468","name":"Khanhquynh Lengoc"},"100000019126977":{"id":"100000019126977","name":"Nguyen Thi Ngoc Anh"},"100003498691249":{"id":"100003498691249","name":"Dung Nguyen Thuy"},"1318895018":{"id":"1318895018","name":"Van T Tran"},"100004079425105":{"id":"100004079425105","name":"Nhớ Đó Nha"},"100006685212395":{"id":"100006685212395","name":"Hương Lê"},"100001978792593":{"id":"100001978792593","name":"Sakai Ly"},"100002371397093":{"id":"100002371397093","name":"Le Duc Dat"},"100000359762118":{"id":"100000359762118","name":"Mi Tra"},"100004398330290":{"id":"100004398330290","name":"Lam Linh"},"100000440204123":{"id":"100000440204123","name":"Ojiopii Dung"},"100001416272263":{"id":"100001416272263","name":"Mai PB"},"100004186327955":{"id":"100004186327955","name":"Huyvinh Bui"},"100005866751996":{"id":"100005866751996","name":"Nam Nguyen"},"100001458099624":{"id":"100001458099624","name":"Kham Pha"},"1725907325":{"id":"1725907325","name":"Nguyen Van Dung"},"100003083667025":{"id":"100003083667025","name":"Hà Okio"}},"paging":{"cursors":{"after":"MTAwMDAzMTQzNzA0MTU1","before":"MTAwMDAzMTQzNzA0MTU1"},"next":"https://graph.facebook.com/229244010425617_788952647788081/likes?limit=1&summary=1&after=MTAwMDAzMTQzNzA0MTU1"},"summary":{"total_count":72}},"comments":{"data":{"788957251120954":{"id":"788957251120954","from":{"id":"100001416272263","name":"Mai PB"},"message":"Quan sát đúng lắm. Lối sống dù thế nào cũng không phạm luật và quy định chung. Không làm ảnh hưởng đến xh và người khác là nguyên tắc sống cao nhất.","can_remove":false,"created_time":"2014-01-02T03:13:15+0000","like_count":15,"user_likes":false},"788976947785651":{"id":"788976947785651","from":{"id":"100000381394367","name":"Thành Nguyễn"},"message":"Đến mấy cơ quan hành chính công cộng có nhiều người đầu tóc xanh đỏ như siêu xay da nhưng nói chuyện thì khá nhỏ nhẹ và lịch sự. Hướng dẫn người dân rất đầy đủ chi tiết khi làm các thủ tục.","can_remove":false,"created_time":"2014-01-02T03:52:49+0000","like_count":4,"user_likes":false},"789011394448873":{"id":"789011394448873","from":{"id":"100006794408069","name":"Huy Do Van"},"message":"Do la van hoa cua nguoi nhat roi. No da an sau vao mau thit. Du co lai cac nen van hoa khac thi ho van giu nguyen ban sac ay. Toi yeu nguoi nhay","can_remove":false,"created_time":"2014-01-02T04:42:49+0000","like_count":2,"user_likes":false},"789012301115449":{"id":"789012301115449","from":{"id":"100006520210904","name":"Miu Miu"},"message":"Vì sao mà người Việt Nam mình nên học hỏi là như vậy?","can_remove":false,"created_time":"2014-01-02T04:46:36+0000","like_count":0,"user_likes":false},"789014321115247":{"id":"789014321115247","from":{"id":"100000399879223","name":"Hoan Le"},"message":"Để tránh việc nhường ghế cho người già bọn Nhật ngồi trên tàu toàn giả vờ ngủ!","can_remove":false,"created_time":"2014-01-02T04:51:49+0000","like_count":3,"user_likes":false},"789014854448527":{"id":"789014854448527","from":{"id":"1787333994","name":"Kiên Mậu"},"message":"Quan trọng là, những điều đó bắt nguồn từ đâu nhỉ? Chắc không phải là di truyền từ trong máu rồi. Mình thấy có 2 lý do có thể ảnh hưởng: \n\n(1) Giáo dục bậc mẫu giáo và tiểu học kỹ càng, triết lý uốn bonsai được đem vào cả trong giáo dục, \n\n(2) Cả xã hội đều hành xử theo kỷ cương nên những người làm khác đi tự thấy mình bị lạc lõng, nên coi những hành động trên là đương nhiên","can_remove":false,"created_time":"2014-01-02T04:52:44+0000","like_count":3,"user_likes":false},"789014874448525":{"id":"789014874448525","from":{"id":"100006520210904","name":"Miu Miu"},"message":"có lẽ chỉ là con số ít thôi bạn Hoan Le ah","can_remove":false,"created_time":"2014-01-02T04:52:55+0000","like_count":0,"user_likes":false},"789028721113807":{"id":"789028721113807","from":{"id":"100000068660150","name":"Hito Kami"},"message":"Những trường hợp này không đại chúng , nhưng nếu xét về tiêu chuẩn con người thì đây là những việc bình thường , bời đa phần người việt được giáo dục giống nhau , khi nhân cách đã hoàn thành thì tính thiện sẽ theo đến hết đời ,  nếu bố mẹ mà thuộc loại hay nói xấu người khác và khoe khoang thì con cái cũng sẽ như thế , nhưng ngoài ra bố mẹ cũng giúp người thì con cái cũng sẽ thế , các bạn thử hồi tưởng lại cha mẹ mình và bản thân được thừa hưởng nền giáo dục thế nào , rồi nhìn xung quanh sẽ hiểu mình sống trong môi trường nào","can_remove":false,"created_time":"2014-01-02T05:01:37+0000","like_count":2,"user_likes":false},"789178857765460":{"id":"789178857765460","from":{"id":"100004028173069","name":"Jin Ngốc"},"message":"Tuy chỉ là số ít, ko phải tất cả, nhưng so vs nước khác cũng đã là đáng phải học hỏi rồi","can_remove":false,"created_time":"2014-01-02T11:42:13+0000","like_count":0,"user_likes":false},"789291311087548":{"id":"789291311087548","from":{"id":"100001243411261","name":"Ngưu Tỷ Tỷ"},"message":"Hôm bữa ngồi ở trước cửa nhà ga lúc 2h sáng, được 1 bác, có lẽ là vô gia cư đến mời hút thuốc và hỏi đã ăn gì chưa.","can_remove":false,"created_time":"2014-01-02T15:00:52+0000","like_count":3,"user_likes":false},"789343174415695":{"id":"789343174415695","from":{"id":"100002509058006","name":"Jesse Ngo"},"message":"Vấn đề 1 thì ở Nhật. Người vô gia cư vẫn dc hưởng lương khoảng 4 hay 5 man của nhà nước mà. \nCòn về vấn đề thứ 2 bạn cứ gặp yakuza thì biết ngay bọn nó lịch sự thế nào! ;)","can_remove":false,"created_time":"2014-01-02T16:25:35+0000","like_count":0,"user_likes":false},"789405577742788":{"id":"789405577742788","from":{"id":"100001526631937","name":"Tường Oanh Mineko"},"message":"cám ơn sự chia sẻ \" tầm quan sát\" của Kiên Mậu đến mọi ng, tiếp tục phát huy và nhiều chia sẻ hơn nữa nhé !","message_tags":[{"id":"1787333994","name":"Kiên Mậu","type":"user","offset":38,"length":8}],"can_remove":false,"created_time":"2014-01-02T18:03:49+0000","like_count":0,"user_likes":false}},"paging":{"cursors":{"after":"Nzg4OTU3MjUxMTIwOTU0","before":"Nzg4OTU3MjUxMTIwOTU0"},"next":"https://graph.facebook.com/229244010425617_788952647788081/comments?limit=1&summary=1&after=Nzg4OTU3MjUxMTIwOTU0"},"summary":{"order":"chronological","total_count":13}}}