{"id":"229244010425617_789072991109380","type":"status","from":{"id":"569263718","name":"Phuong Thao Tran"},"message":"Tổ tiên người Nhật\n-----------------------\n\nCó một nhà nghiên cứu nhân chủng học người Nhật đi tìm nguồn gốc tổ tiên của dân tộc mình.\n\nÔng ta đã đi khắp thế giới để tìm kiếm nhưng vô vọng. Cuối cùng, ông trở về châu Á và đặt chân đến Việt Nam. Đến ga Huế, tình cờ ông nghe được 2 người dân địa phương trò chuyện với nhau:\n\n- Mi đi ga ni?\n\n- Ừ, tau đi ga ni. Mi đi ga mô?\n\n- Ga tê. Tau đi ga tê.\n\n- Ga tê ga chi?\n\n- Ga Lăng Cô tề.\n\n- Răng đông như ri?\n\n- Ri mà đông chi!\n\n- Mi ra ga mô?\n\n- Ra ga Nam Ô.\n\n- Khi mô mi đi?\n\n- Chừ chứ khi mô.\n\n- Mi lo đi đi.\n\n- Ừ, tau đi nghe mi!\n\nNhận ra cách phát âm ngôn ngữ của người dân địa phương ở đây không khác gì tiếng Nhật ngày nay, nhà nghiên cứu người Nhật đã mừng rỡ reo lên:\n\n- A! Đây chính là tổ tiên của người Nhật!\n\n(Nguồn: vnexpress.net)","created_time":"2014-01-02T06:02:07+0000","updated_time":"2014-01-03T07:23:44+0000","likes":{"data":{"100000046816693":{"id":"100000046816693","name":"Niyu Chan"},"100001723862714":{"id":"100001723862714","name":"Bo Bien Vang"},"100002871405403":{"id":"100002871405403","name":"Thach Sanh"},"100005024348771":{"id":"100005024348771","name":"Long Hoàng"},"100000271705877":{"id":"100000271705877","name":"Nguyễn Văn Minh"},"100004206123608":{"id":"100004206123608","name":"Bước Một Mình"},"100004520859672":{"id":"100004520859672","name":"Hoa BôngBông"},"100004463821958":{"id":"100004463821958","name":"Táo Ngố"},"100001526631937":{"id":"100001526631937","name":"Tường Oanh Mineko"},"100006677492541":{"id":"100006677492541","name":"Do Duyen"},"100004721433369":{"id":"100004721433369","name":"Nguyen Thanh Xuan"},"100000983811825":{"id":"100000983811825","name":"Hoa Lê"},"100003635073121":{"id":"100003635073121","name":"Yoi Yebi"},"100002989231451":{"id":"100002989231451","name":"Nguyen Son Ha"},"100001754136107":{"id":"100001754136107","name":"Nguyễn Tuấn Vũ"},"100004511499641":{"id":"100004511499641","name":"Yêu Thương Quay Về"},"100002093975536":{"id":"100002093975536","name":"Thùy Trang Nguyễn"},"100007375263591":{"id":"100007375263591","name":"Akira Akira"},"100004079425105":{"id":"100004079425105","name":"Nhớ Đó Nha"},"100006034601024":{"id":"100006034601024","name":"Phuong Chibi"},"100004877281136":{"id":"100004877281136","name":"Yuki Ori"},"100004122970394":{"id":"100004122970394","name":"Tao Đéo Cần"},"1146680551":{"id":"1146680551","name":"優しい なぁ"},"100003255524049":{"id":"100003255524049","name":"Vương Xuân Mạnh"},"1452845400":{"id":"1452845400","name":"Thu Phuong"},"100000045271667":{"id":"100000045271667","name":"Nam Thai Nguyen"},"100006030062964":{"id":"100006030062964","name":"Tùng Lâm"},"100004028173069":{"id":"100004028173069","name":"Jin Ngốc"},"100006892482884":{"id":"100006892482884","name":"Tomato Sang Le"},"100002508122689":{"id":"100002508122689","name":"Vũ Mạnh Tuấn"},"100004253979918":{"id":"100004253979918","name":"Louis Hoàng Văn Thái"},"100006882392587":{"id":"100006882392587","name":"Vũ Vũ"},"100000508720532":{"id":"100000508720532","name":"Ha Lanphi"},"100000999548993":{"id":"100000999548993","name":"Mi Sờ Tơ Béo"},"100006986520775":{"id":"100006986520775","name":"Triệu Giai Nghi"},"100003177587874":{"id":"100003177587874","name":"Nguyễn Kiều Trinh"},"100005675104683":{"id":"100005675104683","name":"Nguyễn Hoa"},"100003049639881":{"id":"100003049639881","name":"Truong Luvuxy"},"100006326500790":{"id":"100006326500790","name":"Yến Pucca"},"100002047631241":{"id":"100002047631241","name":"Dontask Nguyễn"},"100003050235025":{"id":"100003050235025","name":"Luu Tien Dung"},"100001416272263":{"id":"100001416272263","name":"Mai PB"},"100002969177514":{"id":"100002969177514","name":"Tien Thien"},"100005387051072":{"id":"100005387051072","name":"Nguyễn Vinh Việt"},"100001958220978":{"id":"100001958220978","name":"Trung Hiếu Bắp"},"100003016169062":{"id":"100003016169062","name":"Love Rain"},"100001995263460":{"id":"100001995263460","name":"Chibi Yuriko"},"100003731305416":{"id":"100003731305416","name":"Nam Nguyen"},"100002451143782":{"id":"100002451143782","name":"New Light"},"100000019126977":{"id":"100000019126977","name":"Nguyen Thi Ngoc Anh"},"100000381394367":{"id":"100000381394367","name":"Thành Nguyễn"},"100002762270141":{"id":"100002762270141","name":"Mien Nguyen"},"100003397876835":{"id":"100003397876835","name":"Nabito Lazy"},"1770051205":{"id":"1770051205","name":"Do Thi Huong"},"100004776940538":{"id":"100004776940538","name":"Kendy Lee"},"1416265619":{"id":"1416265619","name":"Starwar Bbj"},"100001393959821":{"id":"100001393959821","name":"Le Ngoc Linh Nhi"}},"paging":{"cursors":{"after":"MTAwMDAwMDQ2ODE2Njkz","before":"MTAwMDAwMDQ2ODE2Njkz"},"next":"https://graph.facebook.com/229244010425617_789072991109380/likes?limit=1&summary=1&after=MTAwMDAwMDQ2ODE2Njkz"},"summary":{"total_count":58}},"comments":{"data":{"789082964441716":{"id":"789082964441716","from":{"id":"569263718","name":"Phuong Thao Tran"},"message":"Đố ai dịch được cuộc đàm thoại của 2 người Nhật gốc Huế đó... :D","can_remove":false,"created_time":"2014-01-02T06:27:34+0000","like_count":1,"user_likes":false},"789124677770878":{"id":"789124677770878","from":{"id":"100001958220978","name":"Trung Hiếu Bắp"},"message":":) miền Trung thì \"chi, mô, răng, rứa\"","can_remove":false,"created_time":"2014-01-02T08:44:05+0000","like_count":1,"user_likes":false},"789127584437254":{"id":"789127584437254","from":{"id":"100005062327204","name":"Thái Hoà Đặng Hữu"},"message":":v","can_remove":false,"created_time":"2014-01-02T08:51:57+0000","like_count":0,"user_likes":false},"789132537770092":{"id":"789132537770092","from":{"id":"100003050235025","name":"Luu Tien Dung"},"message":"- mày đi ga nào \n- tao đi ga này .mày đi ga nào ?","can_remove":false,"created_time":"2014-01-02T09:08:46+0000","like_count":0,"user_likes":false},"789132724436740":{"id":"789132724436740","from":{"id":"100001416272263","name":"Mai PB"},"message":"Hiểu chứ, nhưng em Phuong Thao Tran có nói kiểu đó bao giờ khg? :-)","message_tags":[{"id":"569263718","name":"Phuong Thao Tran","type":"user","offset":19,"length":16}],"can_remove":false,"created_time":"2014-01-02T09:09:23+0000","like_count":0,"user_likes":false},"789132754436737":{"id":"789132754436737","from":{"id":"100003050235025","name":"Luu Tien Dung"},"message":"- ga kia .tao đi ga kia\n- ga kia ga nào ?","can_remove":false,"created_time":"2014-01-02T09:09:31+0000","like_count":0,"user_likes":false},"789133211103358":{"id":"789133211103358","from":{"id":"100003050235025","name":"Luu Tien Dung"},"message":"- ga lăng cô đấy \n- sao đông như này","can_remove":false,"created_time":"2014-01-02T09:10:42+0000","like_count":0,"user_likes":false},"789133427770003":{"id":"789133427770003","from":{"id":"100003050235025","name":"Luu Tien Dung"},"message":"- này mà đông hả \n- mày đi ga nào","can_remove":false,"created_time":"2014-01-02T09:11:26+0000","like_count":0,"user_likes":false},"789133594436653":{"id":"789133594436653","from":{"id":"100003050235025","name":"Luu Tien Dung"},"message":"- ra ga nam ô\n- khi nào mày đi","can_remove":false,"created_time":"2014-01-02T09:12:04+0000","like_count":0,"user_likes":false},"789134061103273":{"id":"789134061103273","from":{"id":"100003050235025","name":"Luu Tien Dung"},"message":"- giờ chứ khi nào \n- mày lo đi đi\n - ừ tao nghe mày\n...hết...","can_remove":false,"created_time":"2014-01-02T09:13:02+0000","like_count":0,"user_likes":false},"789148474435165":{"id":"789148474435165","from":{"id":"569263718","name":"Phuong Thao Tran"},"message":"Gạch Và Đá ném hơi trật đoạn cuối, ^^\na Mai PB: em là người Nhật gốc Huế mà anh, (^_^)","message_tags":[{"id":"100003050235025","name":"Gạch Và Đá","type":"user","offset":0,"length":10},{"id":"100001416272263","name":"Mai PB","type":"user","offset":40,"length":6}],"can_remove":false,"created_time":"2014-01-02T10:10:44+0000","like_count":1,"user_likes":false},"789152164434796":{"id":"789152164434796","from":{"id":"100003050235025","name":"Luu Tien Dung"},"message":"ô thế đoạn cuối là gì . Gạch ở HP dịch đc thế thôi :D","can_remove":false,"created_time":"2014-01-02T10:23:21+0000","like_count":0,"user_likes":false},"789154617767884":{"id":"789154617767884","from":{"id":"100004638210555","name":"Kem Cucky"},"message":"cha hjeu 2 ng kia ns j ca","can_remove":false,"created_time":"2014-01-02T10:26:54+0000","like_count":0,"user_likes":false},"789162924433720":{"id":"789162924433720","from":{"id":"100006043302772","name":"Nhung Trương"},"message":"cuối là -ừ, tao đi đã nhé. cũng dễ hiểu mà a c ha","can_remove":false,"created_time":"2014-01-02T10:58:23+0000","like_count":1,"user_likes":false},"789168077766538":{"id":"789168077766538","from":{"id":"569263718","name":"Phuong Thao Tran"},"message":"Kem Cucky; mình không hiểu bạn viết gì, bạn đọc lại nội quy group và chỉnh comment tiếng Việt có dấu giúp nhé.","message_tags":[{"id":"100004638210555","name":"Kem Cucky","type":"user","offset":0,"length":9}],"can_remove":false,"created_time":"2014-01-02T11:11:16+0000","like_count":0,"user_likes":false},"789168707766475":{"id":"789168707766475","from":{"id":"569263718","name":"Phuong Thao Tran"},"message":"đoạn cuối dịch theo ngôn ngữ HP của Gạch Và Đá là: tao đi nghe mày, ^^","message_tags":[{"id":"100003050235025","name":"Gạch Và Đá","type":"user","offset":36,"length":10}],"can_remove":false,"created_time":"2014-01-02T11:12:45+0000","like_count":0,"user_likes":false},"789169234433089":{"id":"789169234433089","from":{"id":"100004016574848","name":"Tùng Thật Thà"},"message":"Vớ vẩn tin này mà ng nhật biết thì nó ghét vn rồi bjo còn ghét hơn","can_remove":false,"created_time":"2014-01-02T11:13:38+0000","like_count":0,"user_likes":false},"789185047764841":{"id":"789185047764841","from":{"id":"100000045271667","name":"Nam Thai Nguyen"},"message":"Đây là Nghệ An- quê Bác \n\nÊ\nMi đi ga chi\nTau đi ga ni\nGa ni ga chi\nGa chi như ri\nGa như ri răng mà đi\nMi đi luôn đi\nTau đi nghe mi\nP/s : Rất Nghệ An:>","can_remove":false,"created_time":"2014-01-02T11:51:21+0000","like_count":1,"user_likes":false},"789195587763787":{"id":"789195587763787","from":{"id":"100006777301290","name":"Chi Phan"},"message":"Nghệ An đây nữa:\nMi đi mô đó\nTau đi ra ga\nRa ga mần chi\nRa ga ăn gà\nĂn gà ai chi\nGà mi mi chi\nGà tau tau chi","can_remove":false,"created_time":"2014-01-02T12:14:41+0000","like_count":1,"user_likes":false},"789369347746411":{"id":"789369347746411","from":{"id":"100001526631937","name":"Tường Oanh Mineko"},"message":":v, c dễ thương lắm trò..like phát :D","can_remove":false,"created_time":"2014-01-02T16:55:47+0000","like_count":0,"user_likes":false},"789696111047068":{"id":"789696111047068","from":{"id":"100005024348771","name":"Long Hoàng"},"message":"Ợ, em đã được trải nghiệm giọng húê rồi, mấy đứa lớp em nó còn quyết lấy bằng H1 nữa :). Em thì chịu, nó( con bạn người Húê) nói tiếng nhật còn dễ nghe hơn :S","can_remove":false,"created_time":"2014-01-03T05:54:02+0000","like_count":1,"user_likes":false},"789705001046179":{"id":"789705001046179","from":{"id":"569263718","name":"Phuong Thao Tran"},"message":"chị cũng có lúc được khen tiếng Nhật giỏi như bạn của em đó Long Hoàng, :v","message_tags":[{"id":"100005024348771","name":"Long Hoàng","type":"user","offset":60,"length":10}],"can_remove":false,"created_time":"2014-01-03T06:16:31+0000","like_count":1,"user_likes":false},"789707971045882":{"id":"789707971045882","from":{"id":"100003762427351","name":"Hiroshi Yasu Oki"},"message":"Thực ra,mình không thích những câu chuyện vui như thế này.\n1 mặt thì nó giúp giải trí,nhưng mặt khác,nó lại tạo một tâm lý rất phản cảm là \"đấy,mày thấy chưa,VN mình giỏi\",và rồi nó tạo nên một gợn sóng nhỏ trong cả một cơn bảo tràn lên những giá trị văn hóa truyền thống!","can_remove":false,"created_time":"2014-01-03T06:23:38+0000","like_count":0,"user_likes":false},"789723604377652":{"id":"789723604377652","from":{"id":"100003849007767","name":"Nguyen Phuc Anh"},"message":"Cướp, giết, hiếp và giờ là thủ dâm tinh thàn :v báo chí ngày càng thú vị :v","can_remove":false,"created_time":"2014-01-03T07:23:44+0000","like_count":0,"user_likes":false}},"paging":{"cursors":{"after":"Nzg5MDgyOTY0NDQxNzE2","before":"Nzg5MDgyOTY0NDQxNzE2"},"next":"https://graph.facebook.com/229244010425617_789072991109380/comments?limit=1&summary=1&after=Nzg5MDgyOTY0NDQxNzE2"},"summary":{"order":"chronological","total_count":24}}}