{"id":"229244010425617_789251757758170","type":"status","from":{"id":"100000603915176","name":"悪いな ぁ"},"message":"Group mấy hôm nay kg ai quản lý à? Đông người mà thấy từ hôm qua đến giờ toàn thấy post làm quen, phim sex, quảng cáo ba lăng nhăng là sao?","created_time":"2014-01-02T13:48:38+0000","updated_time":"2014-01-02T16:03:07+0000","likes":{"data":{"655982125":{"id":"655982125","name":"Le Thi Nga My"},"100001723862714":{"id":"100001723862714","name":"Bo Bien Vang"},"100003083667025":{"id":"100003083667025","name":"Hà Okio"},"100007015029011":{"id":"100007015029011","name":"Hao Hai Duong"},"1031089243":{"id":"1031089243","name":"Tiet Khai"}},"paging":{"cursors":{"after":"NjU1OTgyMTI1","before":"NjU1OTgyMTI1"},"next":"https://graph.facebook.com/229244010425617_789251757758170/likes?limit=1&summary=1&after=NjU1OTgyMTI1"},"summary":{"total_count":5}},"comments":{"data":{"789261037757242":{"id":"789261037757242","from":{"id":"1813611352","name":"To Đùng"},"message":"ơ hay. sao ko tag đao phủ vào hả anh.","can_remove":false,"created_time":"2014-01-02T14:04:39+0000","like_count":0,"user_likes":false},"789262344423778":{"id":"789262344423778","from":{"id":"100000603915176","name":"悪いな ぁ"},"message":"Nhiều quá, tag mỏi tay","can_remove":false,"created_time":"2014-01-02T14:07:04+0000","like_count":0,"user_likes":false},"789263434423669":{"id":"789263434423669","from":{"id":"1813611352","name":"To Đùng"},"message":"anh tag vào phát là sẽ được dọn 1 thể mà anh :v","can_remove":false,"created_time":"2014-01-02T14:08:44+0000","like_count":2,"user_likes":false},"789263997756946":{"id":"789263997756946","from":{"id":"100000603915176","name":"悪いな ぁ"},"message":":))","can_remove":false,"created_time":"2014-01-02T14:10:01+0000","like_count":0,"user_likes":false},"789269741089705":{"id":"789269741089705","from":{"id":"1146680551","name":"優しい なぁ"},"message":"Chỗ nào đâu :)","can_remove":false,"created_time":"2014-01-02T14:17:04+0000","like_count":0,"user_likes":false},"789276911088988":{"id":"789276911088988","from":{"id":"100000603915176","name":"悪いな ぁ"},"message":"Bị xoá òi. To Đùng đổi tên thành Đao phủ đi cho anh dễ tag :)","message_tags":[{"id":"1813611352","name":"To Đùng","type":"user","offset":11,"length":7}],"can_remove":false,"created_time":"2014-01-02T14:28:10+0000","like_count":0,"user_likes":false},"789277727755573":{"id":"789277727755573","from":{"id":"1813611352","name":"To Đùng"},"message":"anh gõ @trunly cái là ra mà :D","can_remove":false,"created_time":"2014-01-02T14:29:01+0000","like_count":0,"user_likes":false},"789277964422216":{"id":"789277964422216","from":{"id":"100000603915176","name":"悪いな ぁ"},"message":"Khó nhớ thế :(","can_remove":false,"created_time":"2014-01-02T14:29:38+0000","like_count":0,"user_likes":false},"789312711085408":{"id":"789312711085408","from":{"id":"100000381394367","name":"Thành Nguyễn"},"message":"Xóa cả đống rồi đó bác, có lẽ là những tin đó nhiều không đếm xuể","can_remove":false,"created_time":"2014-01-02T15:42:59+0000","like_count":1,"user_likes":false},"789313784418634":{"id":"789313784418634","from":{"id":"100000603915176","name":"悪いな ぁ"},"message":"Hihi, làm admin khổ thật. Thông cảm nhá, tớ cứ gào thét cho vui :D","can_remove":false,"created_time":"2014-01-02T15:43:48+0000","like_count":0,"user_likes":false},"789319694418043":{"id":"789319694418043","from":{"id":"100000064686295","name":"Huy Roli"},"message":"Ko hiểu nó post mấy cái qc phim secx vào để mục đích gì nhỉ","can_remove":false,"created_time":"2014-01-02T15:52:36+0000","like_count":0,"user_likes":false},"789321041084575":{"id":"789321041084575","from":{"id":"1813611352","name":"To Đùng"},"message":"PTC. Paid To Click. Lấy view để kiếm tiền bạn ạ.","can_remove":false,"created_time":"2014-01-02T15:53:26+0000","like_count":0,"user_likes":false},"789330071083672":{"id":"789330071083672","from":{"id":"100000064686295","name":"Huy Roli"},"message":"Mình có làm đc ko","can_remove":false,"created_time":"2014-01-02T16:03:07+0000","like_count":0,"user_likes":false}},"paging":{"cursors":{"after":"Nzg5MjYxMDM3NzU3MjQy","before":"Nzg5MjYxMDM3NzU3MjQy"},"next":"https://graph.facebook.com/229244010425617_789251757758170/comments?limit=1&summary=1&after=Nzg5MjYxMDM3NzU3MjQy"},"summary":{"order":"chronological","total_count":13}}}