{"id":"229244010425617_789219091094770","type":"status","from":{"id":"100002969177514","name":"Tien Thien"},"message":"em chào các anh chị, ra tết em định vừa đi làm thêm vừa ôn thi n2,anh chị biết trung tâm nào ở hà nội ôn thi tốt và thời gian tuyển sinh không giới thiệu cho em với ạ,em xin cảm ơn anh chị <3","created_time":"2014-01-02T12:52:37+0000","updated_time":"2014-01-03T13:35:34+0000","likes":{"data":{"100005458960315":{"id":"100005458960315","name":"Huệ Nguyễn"},"100007279633144":{"id":"100007279633144","name":"Camauquangcao Bqt"}},"paging":{"cursors":{"after":"MTAwMDA1NDU4OTYwMzE1","before":"MTAwMDA1NDU4OTYwMzE1"},"next":"https://graph.facebook.com/229244010425617_789219091094770/likes?limit=1&summary=1&after=MTAwMDA1NDU4OTYwMzE1"},"summary":{"total_count":2}},"comments":{"data":{"789596377723708":{"id":"789596377723708","from":{"id":"100007075842302","name":"Đào Tạo Tiếng Nhật"},"message":"Cái này mình cũng không rõ lắm nhưng thấy bạn bè của mình hay ôn ở Nam Triều hay Eikou thấy có vẻ tốt. Bạn lên mạng tìm hiểu thông tin xem.","can_remove":false,"created_time":"2014-01-03T01:16:41+0000","like_count":0,"user_likes":false},"789689887714357":{"id":"789689887714357","from":{"id":"100000064686295","name":"Huy Roli"},"message":"bạn có N mấy rồi, chúng mình cùng tìm lớp ôn","can_remove":false,"created_time":"2014-01-03T05:37:37+0000","like_count":1,"user_likes":false},"789846771032002":{"id":"789846771032002","from":{"id":"100002388453066","name":"Chich Choe"},"message":"Tớ nghĩ bạn nên ôn ở Eikou hoặc ĐH Ngoại Thương tốt hơn ôn ở Nam Triều. Eikou tớ chưa học ở đấy nhưng nghe nói dc. Còn Nam  Triều tớ đã từng ôn N ở đấy, nếu bạn định ôn 3 hay 4 tháng gì đấy thì đừng ôn ở NT, bạn sẽ ko kịp chương trình học để thi đâu.","can_remove":false,"created_time":"2014-01-03T13:01:36+0000","like_count":1,"user_likes":false},"789848104365202":{"id":"789848104365202","from":{"id":"100002388453066","name":"Chich Choe"},"message":"Ở ĐH ngoại thương thì ok. Vì chương trình đào tạo của họ dc chuẩn bị kỹ và chuyên môn hơn. Trước khi sắp xếp vào lớp ôn, bạn sẽ tham gia lớp thi thử năng lực TN . Dựa vào kq thi thử đấy người ta sẽ sắp xếp những người cùng kiến thức như nhau vào 1 lớp dễ dạy hơn cậu a. Bạn tớ cũng đang ôn ở đấy, mọi người khen lắm.","can_remove":false,"created_time":"2014-01-03T13:05:05+0000","like_count":1,"user_likes":false},"789849457698400":{"id":"789849457698400","from":{"id":"100000064686295","name":"Huy Roli"},"message":"Đăng kí đh nt thế nào hả bạn Chich Choe","message_tags":[{"id":"100002388453066","name":"Chich Choe","type":"user","offset":29,"length":10}],"can_remove":false,"created_time":"2014-01-03T13:08:20+0000","like_count":1,"user_likes":false},"789852357698110":{"id":"789852357698110","from":{"id":"100002969177514","name":"Tien Thien"},"message":"minh n3 bạn Huy Roli học đến đâu rồi","can_remove":false,"created_time":"2014-01-03T13:13:42+0000","like_count":0,"user_likes":false},"789856391031040":{"id":"789856391031040","from":{"id":"100002388453066","name":"Chich Choe"},"message":"Tớ chưa ôn kyuu ở đấy, chỉ nghe bạn bè mách lại. Tháng 4 này ở DHNT bắt đầu mở lớp ôn kyuu rùi đấy. Năm nay tụi tớ cũng dự định ôn ở đây. Hai bạn đang sinh sống ở Hà Nội phải k ạ? thứ 7 Hai bạn đến tòa nhà VJCC trong trường học Ngoại Thương xem lịch học và hỏi thông tin ở đấy cho chính xác.","can_remove":false,"created_time":"2014-01-03T13:23:42+0000","like_count":1,"user_likes":false},"789856741031005":{"id":"789856741031005","from":{"id":"100002969177514","name":"Tien Thien"},"message":"cảm ơn bạn =_=","can_remove":false,"created_time":"2014-01-03T13:24:55+0000","like_count":0,"user_likes":false},"789860937697252":{"id":"789860937697252","from":{"id":"100000064686295","name":"Huy Roli"},"message":"Mình chưa học đến n3, nhảy cóc đc ko","can_remove":false,"created_time":"2014-01-03T13:35:34+0000","like_count":0,"user_likes":false}},"paging":{"cursors":{"after":"Nzg5NTk2Mzc3NzIzNzA4","before":"Nzg5NTk2Mzc3NzIzNzA4"},"next":"https://graph.facebook.com/229244010425617_789219091094770/comments?limit=1&summary=1&after=Nzg5NTk2Mzc3NzIzNzA4"},"summary":{"order":"chronological","total_count":9}}}