{"id":"229244010425617_789719531044726","type":"video","picture":"https://fbexternal-a.akamaihd.net/safe_image.php?d=AQC1yXSYUXi0f60Q&w=130&h=130&url=http%3A%2F%2Fi1.ytimg.com%2Fvi%2FnIX1_xBf95w%2Fhqdefault.jpg","link":"http://www.youtube.com/watch?v=nIX1_xBf95w","source":"http://www.youtube.com/v/nIX1_xBf95w?autohide=1&version=3&autoplay=1","from":{"id":"100002451143782","name":"New Light"},"message":"Hôm trước có 1 thành viên trong nhóm share phim này, rất hay, nhưng mới chỉ có phụ đề tiếng Việt đến tập 4 :(\nEm thì mới học sơ sơ được 1 kì tiếng Nhật nên mấy tập sau xem chỉ hiểu được vài chỗ và đoán :'( nên rất mong các senpai giúp đỡ ạ!","created_time":"2014-01-03T07:05:31+0000","updated_time":"2014-01-03T12:39:26+0000","likes":{"data":{"100004871794179":{"id":"100004871794179","name":"Lee Mi Nguyen"},"100001848392312":{"id":"100001848392312","name":"Thanh Híp"},"100001770616282":{"id":"100001770616282","name":"Bùi Thu Hiền"},"100003762427351":{"id":"100003762427351","name":"Hiroshi Yasu Oki"},"100004243650784":{"id":"100004243650784","name":"Hong Sang"},"100000309153854":{"id":"100000309153854","name":"Pham Thuong"},"100005024348771":{"id":"100005024348771","name":"Long Hoàng"}},"paging":{"cursors":{"after":"MTAwMDA0ODcxNzk0MTc5","before":"MTAwMDA0ODcxNzk0MTc5"},"next":"https://graph.facebook.com/229244010425617_789719531044726/likes?limit=1&summary=1&after=MTAwMDA0ODcxNzk0MTc5"},"summary":{"total_count":7}},"comments":{"data":{"789730124377000":{"id":"789730124377000","from":{"id":"100005811458124","name":"Phúc Long"},"message":"Thử lên mấy trang chuyên chia sẻ sub tìm xem.","can_remove":false,"created_time":"2014-01-03T07:48:55+0000","like_count":0,"user_likes":false},"789730194376993":{"id":"789730194376993","from":{"id":"100002451143782","name":"New Light"},"message":"Không có đâu","can_remove":false,"created_time":"2014-01-03T07:49:12+0000","like_count":0,"user_likes":false},"789753721041307":{"id":"789753721041307","from":{"id":"100004843900540","name":"Đặng Quang Minh"},"message":"K có sub từ tập 5 trở đi đâu","can_remove":false,"created_time":"2014-01-03T09:05:02+0000","like_count":0,"user_likes":false},"789770361039643":{"id":"789770361039643","from":{"id":"100006592840757","name":"Le Dinh Hoang Son"},"message":"xem loại phim gj hay thế.ko cần sub cũng hiểu được.","can_remove":false,"created_time":"2014-01-03T09:59:01+0000","like_count":0,"user_likes":false},"789770451039634":{"id":"789770451039634","from":{"id":"100000425556503","name":"Tan Truong"},"message":"Đặng Quang Minh: tao cũng coi tới tập 4,đợi lấy N1 coi tiếp =))","message_tags":[{"id":"100004843900540","name":"Đặng Quang Minh","type":"user","offset":0,"length":15}],"can_remove":false,"created_time":"2014-01-03T09:59:45+0000","like_count":0,"user_likes":false},"789781267705219":{"id":"789781267705219","from":{"id":"100000073301433","name":"Alaxabo Bobabolo"},"message":"Thử lên kites.vn yêu cầu làm sub xem . . .","can_remove":false,"created_time":"2014-01-03T10:33:25+0000","like_count":0,"user_likes":false},"789793047704041":{"id":"789793047704041","from":{"id":"100007283947929","name":"ʚïɞHương ʚïɞ"},"message":"mình đợi học tới N1 xem cho hoàn chỉnh  :P","can_remove":false,"created_time":"2014-01-03T10:58:28+0000","like_count":0,"user_likes":false},"789839014366111":{"id":"789839014366111","from":{"id":"100004406982981","name":"Lee Ryan"},"message":"phim này hình như có phần 2.có bạn nào biết xem ở đâu chi mình với","can_remove":false,"created_time":"2014-01-03T12:39:26+0000","like_count":0,"user_likes":false}},"paging":{"cursors":{"after":"Nzg5NzMwMTI0Mzc3MDAw","before":"Nzg5NzMwMTI0Mzc3MDAw"},"next":"https://graph.facebook.com/229244010425617_789719531044726/comments?limit=1&summary=1&after=Nzg5NzMwMTI0Mzc3MDAw"},"summary":{"order":"chronological","total_count":8}}}