{"id":"229244010425617_789969344353078","type":"status","from":{"id":"1146680551","name":"優しい なぁ"},"message":"Cùng học từ vựng bài 3: \"見合わせる”\n\nĐang ngồi trên tàu về nhà ,sực nhớ đến chuyện dừng tàu sáng nay vì vụ cháy ở ga yurakuchou,và mình nghĩ ngay đến từ này.Từ này mọi ngươi hay thấy trên bảng thông báo dừng tàu hoặc là trên loa phát thanh .nguyên cụm của nó là “OO  電車の運転見合わせた/ました。(OOでんしゃのうんてんみあわせた)\"\n\nVậy nó có nghĩa gì và cách sử dụng như thế nào.và nó thương kết hợp với những từ gì?\n\n+ ý nghĩa: tạm hoãn / tạm dừng sau khi xem xét tình hình dù việc đó là việc bắt buộc phải làm.\n\nVí dụ:\ný mình:彼(かれ)は前の彼女と別れたら、プレゼントを取り戻したそうだから、とりあえず、関係を見合わせる.\n\ný cô giáo Mi Trà 彼は、元カノと別れた時に、あげたプレゼントを取り戻したそうてす。ですから、私は、彼との関係を見直している.\n\nÝ chị Phuong Thao Tran: 彼(かれ)は前の彼女と別れたら、プレゼントを取り戻して、とりあえず、男女関係を見合わせるたそうだ。\n\n(Ý tiếng Việt là: Anh ta đó hả,nghe đâu chia tay bạn gái xong thì đòi lại quà, Vậy nên tạm thời dừng mối quan hệ này thôi.)\n\nVì ví dụ của mềnh là chém gió nên hơi rối loạn xíu.Mong mọi người đóng góp thêm.\n\nVậy nó thường kết hợp với từ gì mà thường hay găp: \n1/運転（うんてん)を見合わせる:vì lý do gì đó tạm dừng việc chạy tàu\n2/旅行(りょこう)を見合わせる: do lý do (thời tiết ,gấu đột nhiên đổ bệnh...) nên hoãn chuyến du lịch.\n3/出席(しゅっせき)を見合わせる:cái này theo mình hiểu là đặt chỗ trước nhưng vì lý do gì đấy xin hoãn vào thời gian khác :)\n4/運行(うんこう)を見合わせる:tạm dừng chuyển động\n\nĐai loại nó mang nghĩa và kết hợp như thế.vậy nó còn nghĩa khác gì không? Xin mọi người chỉ giáo tiếp.\n\nAnh nguyễn \nCộng đồng Việt - Nhật","created_time":"2014-01-03T15:10:44+0000","updated_time":"2014-01-04T06:55:17+0000","likes":{"data":{"100001243411261":{"id":"100001243411261","name":"Ngưu Tỷ Tỷ"},"100006704471439":{"id":"100006704471439","name":"Thiên Sứ Khóc Nhè"},"100006014164976":{"id":"100006014164976","name":"Bình Bông"},"100005813941367":{"id":"100005813941367","name":"TY Tran"},"100000508720532":{"id":"100000508720532","name":"Ha Lanphi"},"100004133863020":{"id":"100004133863020","name":"Ngô Thu Huyền"},"100005495773832":{"id":"100005495773832","name":"Hiền Vũ"},"1103173052":{"id":"1103173052","name":"Uyên Nguyễn"},"100003189893289":{"id":"100003189893289","name":"Huong Vo"},"100001338846010":{"id":"100001338846010","name":"Sơn Nguyễn Minh"},"566723239":{"id":"566723239","name":"Huyen Nguyen"},"100005677081544":{"id":"100005677081544","name":"Su Su"},"100000199780783":{"id":"100000199780783","name":"Nguyen Thu Hoai"},"100001292564389":{"id":"100001292564389","name":"Tran Viet"},"100001458099624":{"id":"100001458099624","name":"Kham Pha"},"100000262070143":{"id":"100000262070143","name":"Sachiko Kam"},"1250063068":{"id":"1250063068","name":"Tuấn Tử Tế"},"100000037024030":{"id":"100000037024030","name":"Hung Duc Tran"},"100005775182411":{"id":"100005775182411","name":"Tuấn Milo"},"100000603915176":{"id":"100000603915176","name":"悪いな ぁ"},"100004253979918":{"id":"100004253979918","name":"Louis Hoàng Văn Thái"},"1821970083":{"id":"1821970083","name":"Nguyễn Mạnh Cường"},"100002388453066":{"id":"100002388453066","name":"Chich Choe"},"100000381394367":{"id":"100000381394367","name":"Thành Nguyễn"},"100002754998000":{"id":"100002754998000","name":"Nguyen Duc"},"100000089472724":{"id":"100000089472724","name":"Duy Nguyen"},"100001754136107":{"id":"100001754136107","name":"Nguyễn Tuấn Vũ"},"100001526631937":{"id":"100001526631937","name":"Tường Oanh Mineko"},"100001071750107":{"id":"100001071750107","name":"Christine Đường"},"569263718":{"id":"569263718","name":"Phuong Thao Tran"},"100005305144895":{"id":"100005305144895","name":"Bao Yen Nguyen"}},"paging":{"cursors":{"after":"MTAwMDAxMjQzNDExMjYx","before":"MTAwMDAxMjQzNDExMjYx"},"next":"https://graph.facebook.com/229244010425617_789969344353078/likes?limit=1&summary=1&after=MTAwMDAxMjQzNDExMjYx"},"summary":{"total_count":32}},"comments":{"data":{"789977677685578":{"id":"789977677685578","from":{"id":"569263718","name":"Phuong Thao Tran"},"message":"ta + souda là nghe nói (tường thuật gián tiếp) nhé Anh Nguyễn","message_tags":[{"id":"1146680551","name":"Anh Nguyễn","type":"user","offset":51,"length":10}],"can_remove":false,"created_time":"2014-01-03T15:15:29+0000","like_count":1,"user_likes":false},"789979397685406":{"id":"789979397685406","from":{"id":"1146680551","name":"優しい なぁ"},"message":"Đã sửa.Thanks chị yêu ^_^","can_remove":false,"created_time":"2014-01-03T15:18:42+0000","like_count":0,"user_likes":false},"789987004351312":{"id":"789987004351312","from":{"id":"100000359762118","name":"Mi Tra"},"message":"Ko hiểu câu ví dụ của anh lắm","can_remove":false,"created_time":"2014-01-03T15:35:52+0000","like_count":0,"user_likes":false},"789987211017958":{"id":"789987211017958","from":{"id":"569263718","name":"Phuong Thao Tran"},"message":"deshou....","can_remove":false,"created_time":"2014-01-03T15:36:22+0000","like_count":0,"user_likes":false},"789987237684622":{"id":"789987237684622","from":{"id":"1146680551","name":"優しい なぁ"},"message":"Thì đó,nghĩ sao viết vậy.Đang nghĩ để sửa lại :(","can_remove":false,"created_time":"2014-01-03T15:36:25+0000","like_count":0,"user_likes":false},"789990044351008":{"id":"789990044351008","from":{"id":"655982125","name":"Le Thi Nga My"},"message":"Câu ví dụ phải dịch là: nghe nói sau khi chia tay bạn gái trước đây anh ta đòi lại quà tặng, vì thế tôi tạm thời dừng mối quan hệ với anh ta.","can_remove":false,"created_time":"2014-01-03T15:41:39+0000","like_count":0,"user_likes":false},"789990707684275":{"id":"789990707684275","from":{"id":"100000359762118","name":"Mi Tra"},"message":"「関係を見合わせる」っていうのは、元々、関係を持ってなくて、これから、関係を取り込むかどうか考える時に使う。\n元々、関係を持っていて、続くかどうかって考える時は、「関係を見直す」を使う。","can_remove":false,"created_time":"2014-01-03T15:42:32+0000","like_count":4,"user_likes":false},"789992554350757":{"id":"789992554350757","from":{"id":"1146680551","name":"優しい なぁ"},"message":"@Le Thi Nga My:xem lại câu mình sửa đi.Mình sửa tiếng việt chưa kịp sửa tiếng Nhật","can_remove":false,"created_time":"2014-01-03T15:46:10+0000","like_count":0,"user_likes":false},"789992757684070":{"id":"789992757684070","from":{"id":"1146680551","name":"優しい なぁ"},"message":"Mi Tra vậy trường hợp a vừa sửa lại.Không xài 見合わせる được hả em.","can_remove":false,"created_time":"2014-01-03T15:46:51+0000","like_count":0,"user_likes":false},"789992987684047":{"id":"789992987684047","from":{"id":"100000359762118","name":"Mi Tra"},"message":"Vâng","can_remove":false,"created_time":"2014-01-03T15:47:26+0000","like_count":0,"user_likes":false},"789995117683834":{"id":"789995117683834","from":{"id":"1146680551","name":"優しい なぁ"},"message":"nhưng a muốn thể hiện nghĩa là: Tạm dừng để xem xét.chứ k phải xem xét k như　見直す","can_remove":false,"created_time":"2014-01-03T15:51:08+0000","like_count":0,"user_likes":false},"789996181017061":{"id":"789996181017061","from":{"id":"569263718","name":"Phuong Thao Tran"},"message":"Mi Tra xem lại ví dụ xem","can_remove":false,"created_time":"2014-01-03T15:53:49+0000","like_count":0,"user_likes":false},"789996211017058":{"id":"789996211017058","from":{"id":"100000359762118","name":"Mi Tra"},"message":"見直す nó có nghĩa như anh nói đó","can_remove":false,"created_time":"2014-01-03T15:53:52+0000","like_count":1,"user_likes":false},"789996244350388":{"id":"789996244350388","from":{"id":"100005107114575","name":"Cường Ngoại Kiều"},"message":"Thế còn từ: 中断する( ちゅうだんする)。cũng có nghĩa là tạm dừng một cái gì đó.\nVD: 試合は雨で中断された。、  \n中断するcó thay được 見合わせる ko ạ....","can_remove":false,"created_time":"2014-01-03T15:53:55+0000","like_count":1,"user_likes":false},"789996364350376":{"id":"789996364350376","from":{"id":"569263718","name":"Phuong Thao Tran"},"message":"là mối quan hệ mới đó chứ","can_remove":false,"created_time":"2014-01-03T15:54:10+0000","like_count":0,"user_likes":false},"789997164350296":{"id":"789997164350296","from":{"id":"100000359762118","name":"Mi Tra"},"message":"Ko hiểu chủ vị trong câu ví dụ của anh Anh","can_remove":false,"created_time":"2014-01-03T15:55:50+0000","like_count":1,"user_likes":false},"789997217683624":{"id":"789997217683624","from":{"id":"1146680551","name":"優しい なぁ"},"message":"nghĩa là ý anh thế này:đang hẹn hò với a chàng đó, thì nghe nhỏ bạn kể rằng,lúc trước a ta chia tay người yêu thì đòi lại quà.Vậy nên tạm thời phải dừng mối quan hệ này lại.","can_remove":false,"created_time":"2014-01-03T15:55:58+0000","like_count":0,"user_likes":false},"789997481016931":{"id":"789997481016931","from":{"id":"569263718","name":"Phuong Thao Tran"},"message":"[mối quan hệ này] à","can_remove":false,"created_time":"2014-01-03T15:56:35+0000","like_count":0,"user_likes":false},"789997497683596":{"id":"789997497683596","from":{"id":"100000359762118","name":"Mi Tra"},"message":"Ai đang xem xét lại mối quan hệ?","can_remove":false,"created_time":"2014-01-03T15:56:37+0000","like_count":1,"user_likes":false},"789997597683586":{"id":"789997597683586","from":{"id":"569263718","name":"Phuong Thao Tran"},"message":"ở trên là mối quan hệ mới nhé","can_remove":false,"created_time":"2014-01-03T15:56:54+0000","like_count":0,"user_likes":false},"789998231016856":{"id":"789998231016856","from":{"id":"100000359762118","name":"Mi Tra"},"message":"Vậy câu ví dụ của anh e hiểu là: anh ta chia tay rồi đòi quà và đang xem xét lại mối quan hệ. \nTiếng Việt Okashii","can_remove":false,"created_time":"2014-01-03T15:58:15+0000","like_count":0,"user_likes":false},"789998247683521":{"id":"789998247683521","from":{"id":"1146680551","name":"優しい なぁ"},"message":"ý em là z đó: Mời 2 người đẹp sửa giúp.Viết câu mập mờ,hok ai hiểu huhu","can_remove":false,"created_time":"2014-01-03T15:58:16+0000","like_count":0,"user_likes":false},"789998737683472":{"id":"789998737683472","from":{"id":"569263718","name":"Phuong Thao Tran"},"message":"vì tiếng Việt chưa chuẩn nên đã sửa cả ý của tiếng Việt và tieng NHật :D","can_remove":false,"created_time":"2014-01-03T15:59:17+0000","like_count":0,"user_likes":false},"789999797683366":{"id":"789999797683366","from":{"id":"569263718","name":"Phuong Thao Tran"},"message":"mà cái ví dụ này chị thấy em dùng lần này là lần 2 nhé","can_remove":false,"created_time":"2014-01-03T16:00:34+0000","like_count":0,"user_likes":false},"790001481016531":{"id":"790001481016531","from":{"id":"1146680551","name":"優しい なぁ"},"message":"2 người đẹp xem lại nguyên bản ví dụ,trước khhi nghe lời xúi dại của người đẹp Phuong Thao Tran","message_tags":[{"id":"569263718","name":"Phuong Thao Tran","type":"user","offset":79,"length":16}],"can_remove":false,"created_time":"2014-01-03T16:01:45+0000","like_count":0,"user_likes":false},"790002517683094":{"id":"790002517683094","from":{"id":"100000359762118","name":"Mi Tra"},"message":"彼は、元カノと別れた時に、あげたプレゼントを取り戻したそうてす。ですから、私は、彼との関係を見直している。\nDùng 見直す ở đây chưa phải thích hợp nhất nhưng tạm thời chưa nghĩ ra từ nên dùng tạm.","can_remove":false,"created_time":"2014-01-03T16:03:43+0000","like_count":3,"user_likes":false},"790003187683027":{"id":"790003187683027","from":{"id":"569263718","name":"Phuong Thao Tran"},"message":"thay watasi thành kare","can_remove":false,"created_time":"2014-01-03T16:05:01+0000","like_count":1,"user_likes":false},"790003297683016":{"id":"790003297683016","from":{"id":"1146680551","name":"優しい なぁ"},"message":"đùng ý a nè \nPhuong Thao Tran.Lúc trước là \",yêu anh a không đòi quà lại đâu \"cơ mà","can_remove":false,"created_time":"2014-01-03T16:05:11+0000","like_count":0,"user_likes":false},"790005037682842":{"id":"790005037682842","from":{"id":"569263718","name":"Phuong Thao Tran"},"message":"vẫn còn okasii","can_remove":false,"created_time":"2014-01-03T16:07:15+0000","like_count":0,"user_likes":false},"790013264348686":{"id":"790013264348686","from":{"id":"100000359762118","name":"Mi Tra"},"message":"Cường Ngoại Kiều: \n中断 là dừng giữa chừng. Đang làm gì bỏ giữa chừng. Bị gián đoạn giữa chừng. Có thể thực hiện tiếp hoặc ko.\n\n見合わせる là xem xét nhiều yếu tố khác nhau xem có thích hợp để thực hiện tiếp hay ko. \n\nCách dùng khác nhau nên ko thay cho nhau được.","can_remove":false,"created_time":"2014-01-03T16:20:56+0000","like_count":7,"user_likes":false},"790035774346435":{"id":"790035774346435","from":{"id":"100000381394367","name":"Thành Nguyễn"},"message":"Mọi người cứ tư duy thế này cho nó nhanh và dễ hiểu, từ 見 là nhìn còn 合わせ mang nghĩa kết hợp nối 2 cái với nhau, cái động từ phúc hợp ghép từ 2 từ gốc bao giờ cũng mang nghĩa của 2 từ gốc mà ra, nối với nhìn mà ghép vào nhau tức là nối 2 cái nhìn lại với nhau, và 2 cái nhìn đó phải là 2 cái nhìn khác nhau xảy ra trước và sau khi một sự kiện nào đó xuất hiện.\n\nTừi 合わせ được hiểu là ghép vào để mà so sánh 2 cái nhìn đó, và vì có sự so sánh nên thường sẽ có quyết định đi kèm, từ này có 3 nghĩa là 互いに見る,延ばす, và 中止する chứ không phải chỉ một nghĩa. Còn các từ có thể dùng với nó là các từ có sự khác biệt về trạng thái trước và sau 1 event liên quan đến nó thì đều có thể dùng làm tân ngữ cho động từ này.","can_remove":false,"created_time":"2014-01-03T16:57:31+0000","like_count":5,"user_likes":false},"790036551013024":{"id":"790036551013024","from":{"id":"569263718","name":"Phuong Thao Tran"},"message":"thích cách phân tích và học từ ghép này của em đó Thành Nguyễn","message_tags":[{"id":"100000381394367","name":"Thành Nguyễn","type":"user","offset":50,"length":12}],"can_remove":false,"created_time":"2014-01-03T16:59:33+0000","like_count":0,"user_likes":false},"790037741012905":{"id":"790037741012905","from":{"id":"100000381394367","name":"Thành Nguyễn"},"message":"Học ngôn ngữ quan trọng nhất là cách tư duy thôi, thực ra học bất cứ cái gì dù ngữ pháp hay từ vựng, kanji cũng đều có phương pháp cả có điều là không có phương pháp giống nhau cho tất cả mọi người, học mà chỉ dựa vào cố gắng không thôi thì sẽ không có hiệu quả mấy, cần tự sáng tạo ra phương pháp mà học.\n\nNhảy vào comment cũng là một phương pháp học, thế nên hãy tích cực mà comment.","can_remove":false,"created_time":"2014-01-03T17:02:58+0000","like_count":3,"user_likes":false},"790039964346016":{"id":"790039964346016","from":{"id":"569263718","name":"Phuong Thao Tran"},"message":"chuẩn đó Thành Nguyễn","message_tags":[{"id":"100000381394367","name":"Thành Nguyễn","type":"user","offset":9,"length":12}],"can_remove":false,"created_time":"2014-01-03T17:07:59+0000","like_count":0,"user_likes":false},"790040267679319":{"id":"790040267679319","from":{"id":"1146680551","name":"優しい なぁ"},"message":"e chỉ học được tới 1 nghĩa này của nó.Phương pháp của em là ra đường thấy gì ngứa mắt (kanji) là tra ngay rồi ghi vào cuốn sổ. Giờ học thích nhất là học về phần từ vựng như thế này.","can_remove":false,"created_time":"2014-01-03T17:08:54+0000","like_count":1,"user_likes":false},"790396880976991":{"id":"790396880976991","from":{"id":"100001526631937","name":"Tường Oanh Mineko"},"message":"mà a sửa lại cái câu của chị phuong thao ở trên bị dư ra 1 chữ kìa  Anh Nguyễn","message_tags":[{"id":"1146680551","name":"Anh Nguyễn","type":"user","offset":68,"length":10}],"can_remove":false,"created_time":"2014-01-04T05:46:10+0000","like_count":0,"user_likes":false},"790410420975637":{"id":"790410420975637","from":{"id":"1146680551","name":"優しい なぁ"},"message":"Chữ j vại","can_remove":false,"created_time":"2014-01-04T06:39:39+0000","like_count":0,"user_likes":false},"790410720975607":{"id":"790410720975607","from":{"id":"100001526631937","name":"Tường Oanh Mineko"},"message":"a đọc lại và xem mà sửa..trước chữ sou đó a","can_remove":false,"created_time":"2014-01-04T06:41:20+0000","like_count":0,"user_likes":false},"790410994308913":{"id":"790410994308913","from":{"id":"1146680551","name":"優しい なぁ"},"message":"Cái đó là thiếu chứ hok phải dư :))","can_remove":false,"created_time":"2014-01-04T06:42:49+0000","like_count":0,"user_likes":false},"790413204308692":{"id":"790413204308692","from":{"id":"100001526631937","name":"Tường Oanh Mineko"},"message":":( câu đó sao 見合わせるたそうだ là sao?? e ko hiểu đc.Thiếu cái gì hay dư cái gì a sửa đi cho e và mọi ng hiểu với.","can_remove":false,"created_time":"2014-01-04T06:50:44+0000","like_count":0,"user_likes":false},"790414840975195":{"id":"790414840975195","from":{"id":"1146680551","name":"優しい なぁ"},"message":"Thiếu 1 kí tự \"/\" ở giữa る&た hehe","can_remove":false,"created_time":"2014-01-04T06:55:17+0000","like_count":0,"user_likes":false}},"paging":{"cursors":{"after":"Nzg5OTc3Njc3Njg1NTc4","before":"Nzg5OTc3Njc3Njg1NTc4"},"next":"https://graph.facebook.com/229244010425617_789969344353078/comments?limit=1&summary=1&after=Nzg5OTc3Njc3Njg1NTc4"},"summary":{"order":"chronological","total_count":41}}}