{"id":"229244010425617_789946101022069","type":"status","from":{"id":"100002421205294","name":"Nghèo Kệ Tôi"},"message":"Những ngày đầu năm mới là mùa giảm giá của các thương xá lớn ở Nhật Bản. Các bạn đến các thương xá đó, họ có những combo nhiều sản phẩm, tổng giá trị đến vài man yên, nhưng giảm xuống rất nhiều thậm chí chỉ còn cài ngàn yên thôi. Các bạn du học sinh hãy nhanh tay mua cho mình những gói combo đó nhé","created_time":"2014-01-03T15:03:41+0000","updated_time":"2014-01-03T16:02:26+0000","likes":{"data":{"100002546976889":{"id":"100002546976889","name":"Phuong Min"},"100003706937290":{"id":"100003706937290","name":"Hai Tran"},"100000603915176":{"id":"100000603915176","name":"悪いな ぁ"},"100004253979918":{"id":"100004253979918","name":"Louis Hoàng Văn Thái"},"100004079425105":{"id":"100004079425105","name":"Nhớ Đó Nha"},"100001754136107":{"id":"100001754136107","name":"Nguyễn Tuấn Vũ"},"1845000884":{"id":"1845000884","name":"Trieu Thi Kieu Oanh"},"1821970083":{"id":"1821970083","name":"Nguyễn Mạnh Cường"},"100005073001419":{"id":"100005073001419","name":"An Chelsea"}},"paging":{"cursors":{"after":"MTAwMDAyNTQ2OTc2ODg5","before":"MTAwMDAyNTQ2OTc2ODg5"},"next":"https://graph.facebook.com/229244010425617_789946101022069/likes?limit=1&summary=1&after=MTAwMDAyNTQ2OTc2ODg5"},"summary":{"total_count":9}},"comments":{"data":{"789949911021688":{"id":"789949911021688","from":{"id":"100000359762118","name":"Mi Tra"},"message":"Hình ảnh dẫn chứng em ơi!!!","can_remove":false,"created_time":"2014-01-03T15:04:46+0000","like_count":0,"user_likes":false},"789952241021455":{"id":"789952241021455","from":{"id":"100002421205294","name":"Nghèo Kệ Tôi"},"message":"mai chị nhé, nay em đi mà quên không mang điện thoại nên chả có gì chụp được cả hiccc","can_remove":false,"created_time":"2014-01-03T15:05:22+0000","like_count":0,"user_likes":false},"789954007687945":{"id":"789954007687945","from":{"id":"100000359762118","name":"Mi Tra"},"message":"Ngồi hóng ^^","can_remove":false,"created_time":"2014-01-03T15:05:52+0000","like_count":1,"user_likes":false},"789958351020844":{"id":"789958351020844","from":{"id":"100002421205294","name":"Nghèo Kệ Tôi"},"message":"nay có bộ vec nam với áo somi, calavat tổng 3man4 yên mà giảm còn 1 man. mỗi tội chưa lĩnh lương không hốt được hicccc","can_remove":false,"created_time":"2014-01-03T15:07:13+0000","like_count":0,"user_likes":false},"789964421020237":{"id":"789964421020237","from":{"id":"100001749440390","name":"Tuan Nguyen"},"message":"Chi cach kiem an cho cac du hoc sinh ngheo di nao kaka","can_remove":false,"created_time":"2014-01-03T15:09:08+0000","like_count":0,"user_likes":false},"789969141019765":{"id":"789969141019765","from":{"id":"100000359762118","name":"Mi Tra"},"message":"Cách thứ nhất là bạn hãy viết bằng tiếng Việt có dấu theo đúng quy định của group. Làm được mình sẽ chỉ cách thứ 2","can_remove":false,"created_time":"2014-01-03T15:10:40+0000","like_count":1,"user_likes":false},"789975947685751":{"id":"789975947685751","from":{"id":"100001749440390","name":"Tuan Nguyen"},"message":"The thoi ko can chi nua, chi cach thu 2 chac cung ko lien quan den chu de kaka","can_remove":false,"created_time":"2014-01-03T15:12:59+0000","like_count":0,"user_likes":false},"789976827685663":{"id":"789976827685663","from":{"id":"1821970083","name":"Nguyễn Mạnh Cường"},"message":"Tuan Nguyen : cậu thật đáng yêu :x cậu có cách thứ 2 thì chỉ cho mình với nhé <3","message_tags":[{"id":"100001749440390","name":"Tuan Nguyen","type":"user","offset":0,"length":11}],"can_remove":false,"created_time":"2014-01-03T15:14:08+0000","like_count":0,"user_likes":false},"789977091018970":{"id":"789977091018970","from":{"id":"1821970083","name":"Nguyễn Mạnh Cường"},"message":"Tuan Nguyen: Đừng kibo giữ cho riêng mình nha :x","message_tags":[{"id":"100001749440390","name":"Tuan Nguyen","type":"user","offset":0,"length":11}],"can_remove":false,"created_time":"2014-01-03T15:14:30+0000","like_count":1,"user_likes":false},"789977247685621":{"id":"789977247685621","from":{"id":"100000359762118","name":"Mi Tra"},"message":"Tuan Nguyen: Nhắc bạn, đây là quy định của group. Bạn có muốn được chỉ cách 2 hay ko thì ko quan trọng. Bạn vẫn phải viết tiếng Việt có dấu theo đúng quy định. Nhắc nhở 3 lần không sửa thì mời bạn ra khỏi sân chơi.","can_remove":false,"created_time":"2014-01-03T15:14:39+0000","like_count":0,"user_likes":false},"789978654352147":{"id":"789978654352147","from":{"id":"100001749440390","name":"Tuan Nguyen"},"message":"Minh cũng đang đi hỏi chủ thơt kìa. Nhưng mà chủ thớt bắt viết tiếng việt có dấu. Ko thì ko bảo. Nghèo vẫn hoàn nghèo thôi.","can_remove":false,"created_time":"2014-01-03T15:16:40+0000","like_count":0,"user_likes":false},"789979107685435":{"id":"789979107685435","from":{"id":"1821970083","name":"Nguyễn Mạnh Cường"},"message":":( Tuan Nguyen: mình cũng giống như bạn, chị Mi Tra chỉ giúp chúng em coi, ko đc xạo nha <3 nghèo vẫn hoàn nghèo, hay là em vẫn chưa chăm chỉ bằng mọi người nhỉ :(","message_tags":[{"id":"100001749440390","name":"Tuan Nguyen","type":"user","offset":3,"length":11},{"id":"100000359762118","name":"Mi Tra","type":"user","offset":45,"length":6}],"can_remove":false,"created_time":"2014-01-03T15:17:55+0000","like_count":1,"user_likes":false},"789980764351936":{"id":"789980764351936","from":{"id":"100002421205294","name":"Nghèo Kệ Tôi"},"message":"nghèo thì lâu chứ giàu mấy tý hả bạn Tuan Nguyen","message_tags":[{"id":"100001749440390","name":"Tuan Nguyen","type":"user","offset":37,"length":11}],"can_remove":false,"created_time":"2014-01-03T15:21:30+0000","like_count":1,"user_likes":false},"789981241018555":{"id":"789981241018555","from":{"id":"100000359762118","name":"Mi Tra"},"message":"Nghèo có nhiều nguyên nhân, có nhiều yếu tố tác động và cũng do quan niệm về giàu nghèo của từng người. Thấy mình nghèo thì mình sẽ là người nghèo. Nghĩ mình là người giàu thì mình sẽ là người giàu. Vậy thôi!","can_remove":false,"created_time":"2014-01-03T15:22:45+0000","like_count":1,"user_likes":false},"789981437685202":{"id":"789981437685202","from":{"id":"100001749440390","name":"Tuan Nguyen"},"message":"Có 2 tí rồi, mà 2 tí là số nhiều rồi mà đã thấy khá khâm hơn tí nào đâu bạn","can_remove":false,"created_time":"2014-01-03T15:23:23+0000","like_count":1,"user_likes":false},"789982251018454":{"id":"789982251018454","from":{"id":"1821970083","name":"Nguyễn Mạnh Cường"},"message":"Tuan Nguyen: mình nghĩ là cậu tham quá thôi, khá khẩm hơn nhiều ý chứ, tớ còn có tí nào đâu :( nhưng mà giàu chỉ có cách như mọi người vẫn làm thôi, từ cổ điển tới hiện đại đó là chăm chỉ :D cậu cứ nhìn xem ai giàu mà ko chăm chỉ ko? Giàu theo ý nghĩ của thanh niên nghiêm túc nhé :3 chúng ta là TNNT mà :\">","message_tags":[{"id":"100001749440390","name":"Tuan Nguyen","type":"user","offset":0,"length":11}],"can_remove":false,"created_time":"2014-01-03T15:25:24+0000","like_count":0,"user_likes":false},"789982394351773":{"id":"789982394351773","from":{"id":"100000359762118","name":"Mi Tra"},"message":"Bạn Tuan Nguyen đang nghèo về tiền bạc hay nghèo về tình  cảm hay nghèo về kiến thức? \nPhải biết nghèo về cái gì đã","can_remove":false,"created_time":"2014-01-03T15:25:44+0000","like_count":1,"user_likes":false},"789982951018384":{"id":"789982951018384","from":{"id":"100001749440390","name":"Tuan Nguyen"},"message":"Hình như trong 3 cái ấy m đều bị nghèo cả","can_remove":false,"created_time":"2014-01-03T15:26:49+0000","like_count":0,"user_likes":false},"789983024351710":{"id":"789983024351710","from":{"id":"1821970083","name":"Nguyễn Mạnh Cường"},"message":"hỏi làm gì nữa ạ, nghĩ là nghèo thì là nghèo rồi, sao cần hỏi ạ :D đấy trả lời luôn kìa :))","can_remove":false,"created_time":"2014-01-03T15:27:04+0000","like_count":0,"user_likes":false},"789983354351677":{"id":"789983354351677","from":{"id":"100001749440390","name":"Tuan Nguyen"},"message":"@cường: từ sáng đến trưa tiwf trưa đến tôi đi cày mà vẫn nghèo","can_remove":false,"created_time":"2014-01-03T15:27:39+0000","like_count":1,"user_likes":false},"789984157684930":{"id":"789984157684930","from":{"id":"100000359762118","name":"Mi Tra"},"message":"Vậy để ko nghèo về tiền bạc và tình cảm, chỉ còn cách duy nhất bạn phải trở nên \"giàu\" về kiến thức. \nCó kiến thức thì mới kiếm tiền được nhiều => ko nghèo về tiền bạc nữa\nCó kiến thức mới tán gái được => ko nghèo về tình cảm nữa\n\n=>> để ko nghèo về kiến thức chỉ có cách duy nhất là học. \nChấm hết","can_remove":false,"created_time":"2014-01-03T15:29:48+0000","like_count":0,"user_likes":false},"789984214351591":{"id":"789984214351591","from":{"id":"1821970083","name":"Nguyễn Mạnh Cường"},"message":"như vậy cậu đang chắc chắn là cậu rất chăm chỉ mà vẫn nghèo? và ko hiểu lí do tại sao? gay nhỉ? rõ hơn đc ko? fai có sự chi tiêu thế nào chứ, làm quần quật mà ko đủ à :( thế thì chết","can_remove":false,"created_time":"2014-01-03T15:29:55+0000","like_count":0,"user_likes":false},"789984507684895":{"id":"789984507684895","from":{"id":"100002421205294","name":"Nghèo Kệ Tôi"},"message":"biết đến bao giờ được gọi là giàu đây hả bạn? cỡ như thế nào thì không được gọi là nghèo nữa?","can_remove":false,"created_time":"2014-01-03T15:30:35+0000","like_count":1,"user_likes":false},"789985667684779":{"id":"789985667684779","from":{"id":"100001749440390","name":"Tuan Nguyen"},"message":"Ak m chỉ cần đủ ăn học ở nhật này là đc rồi. Ước muốn nhỏ nhoi 20man mỗi tháng :)))","can_remove":false,"created_time":"2014-01-03T15:33:05+0000","like_count":1,"user_likes":false},"789986361018043":{"id":"789986361018043","from":{"id":"100000359762118","name":"Mi Tra"},"message":"Tốt! Có mục tiêu như vậy thì \"chiến đấu\" thôi.","can_remove":false,"created_time":"2014-01-03T15:34:52+0000","like_count":1,"user_likes":false},"789987157684630":{"id":"789987157684630","from":{"id":"1821970083","name":"Nguyễn Mạnh Cường"},"message":"Nghèo Kệ Tôi: (y) Thanh niên chuẩn :D\nTuan Nguyen: um, vậy như thế tớ đang hiểu là cậu làm với lương thấp quá ko lo nổi cái cậu cần, giàu như cậu muốn cũng chỉ đủ tiền ăn học bên Nhật. So sánh kinh nghiệm như chị Mi Tra đó là phải học thôi cậu, mới có thể kiếm việc lương cao đc, bổ sung thêm là học nỗ lực và nỗ lực cậu ạ :( Chúc cậu cứng rắn và chờ tin vui :D nói nữa thì cũng ko giúp đc cậu, cách cậu muốn chị Mi Tra cũng đã chỉ. Cố gắng nhé!","message_tags":[{"id":"100001749440390","name":"Tuan Nguyen","type":"user","offset":38,"length":11},{"id":"100000359762118","name":"Mi Tra","type":"user","offset":213,"length":6}],"can_remove":false,"created_time":"2014-01-03T15:36:13+0000","like_count":0,"user_likes":false},"790001931016486":{"id":"790001931016486","from":{"id":"100001749440390","name":"Tuan Nguyen"},"message":"Có ng nói thế này thì làm j mà 同じ chư","can_remove":false,"created_time":"2014-01-03T16:02:26+0000","like_count":0,"user_likes":false}},"paging":{"cursors":{"after":"Nzg5OTQ5OTExMDIxNjg4","before":"Nzg5OTQ5OTExMDIxNjg4"},"next":"https://graph.facebook.com/229244010425617_789946101022069/comments?limit=1&summary=1&after=Nzg5OTQ5OTExMDIxNjg4"},"summary":{"order":"chronological","total_count":27}}}