{"id":"229244010425617_790401617643184","type":"video","picture":"https://fbexternal-a.akamaihd.net/safe_image.php?d=AQBsY1S55CBBDVSZ&w=130&h=130&url=http%3A%2F%2Fi1.ytimg.com%2Fvi%2FkcXfaadJf9k%2Fmaxresdefault.jpg","link":"http://www.youtube.com/watch?v=kcXfaadJf9k","source":"http://www.youtube.com/v/kcXfaadJf9k?version=3&autohide=1&autoplay=1","from":{"id":"1250063068","name":"Tuấn Tử Tế"},"message":"【Văn hóa Nhật】 Vào Hoàng Cung gặp Nhật Hoàng ngày tết.\n平成25年 新年一般参賀 天皇陛下のお言葉\nHàng năm vào ngày tết, hoàng cung mở cửa cho mọi người vào thăm, và nghe lời chúc tết trực tiếp từ Nhật Hoàng.\nNhững hình ảnh trên thể hiện niềm tin của nhân dân Nhật vào người lãnh đạo của mình.\nThật là khâm phục tầng lớp lãnh đạo đã mang đến cho nhân dân 1 biểu tượng niềm tin tuyệt đối.\nhttp://www.youtube.com/watch?v=kcXfaadJf9k","created_time":"2014-01-04T06:05:43+0000","updated_time":"2014-01-04T18:02:52+0000","likes":{"data":{"100005344950651":{"id":"100005344950651","name":"ThanhTu Phamthi"},"100000068660150":{"id":"100000068660150","name":"Hito Kami"},"100000603915176":{"id":"100000603915176","name":"悪いな ぁ"},"100000359762118":{"id":"100000359762118","name":"Mi Tra"},"100004249722210":{"id":"100004249722210","name":"Lật Đật"},"100004253979918":{"id":"100004253979918","name":"Louis Hoàng Văn Thái"},"100000199747524":{"id":"100000199747524","name":"Gà Già"},"100001458099624":{"id":"100001458099624","name":"Kham Pha"},"100001526631937":{"id":"100001526631937","name":"Tường Oanh Mineko"},"100001597573934":{"id":"100001597573934","name":"Ly Chu"},"100005801442456":{"id":"100005801442456","name":"An Nguyen"}},"paging":{"cursors":{"after":"MTAwMDA1MzQ0OTUwNjUx","before":"MTAwMDA1MzQ0OTUwNjUx"},"next":"https://graph.facebook.com/229244010425617_790401617643184/likes?limit=1&summary=1&after=MTAwMDA1MzQ0OTUwNjUx"},"summary":{"total_count":11}},"comments":{"data":{"790407617642584":{"id":"790407617642584","from":{"id":"1250063068","name":"Tuấn Tử Tế"},"message":"Ai muốn thử sức với kính ngữ, dịch hộ bài diễn văn của Nhật Hoàng cho mọi người với!","can_remove":false,"created_time":"2014-01-04T06:29:03+0000","like_count":0,"user_likes":false},"790556870960992":{"id":"790556870960992","from":{"id":"1550521697","name":"Trình Nguyễn"},"message":"ngày xưa mỹ ko dám tử hình nhật hoàng vì điều này","can_remove":false,"created_time":"2014-01-04T13:32:38+0000","like_count":0,"user_likes":false},"790577567625589":{"id":"790577567625589","from":{"id":"100001416272263","name":"Mai PB"},"message":"Nhật Hoàng không phải là người lãnh đạo Tuấn Tế à. Đó là biểu tượng tinh thần của nước Nhật, gần như là vị thần đối với người Nhật rồi. Cả Hoàng gia Nhật là những người Nhật không có họ, chỉ có tên!","message_tags":[{"id":"1250063068","name":"Tuấn Tế","type":"user","offset":40,"length":7}],"can_remove":false,"created_time":"2014-01-04T14:21:43+0000","like_count":3,"user_likes":false},"790712997612046":{"id":"790712997612046","from":{"id":"100000068660150","name":"Hito Kami"},"message":"Cứ mỗi lầm đọc tin về Nhật Hoàng lại thấy ngượng , định đổi tên facebook mà hết lần đổi , mấy tên khác đặt từ thời trẻ trâu chả muốn lôi ra , ôi ...","can_remove":false,"created_time":"2014-01-04T18:02:52+0000","like_count":0,"user_likes":false}},"paging":{"cursors":{"after":"NzkwNDA3NjE3NjQyNTg0","before":"NzkwNDA3NjE3NjQyNTg0"},"next":"https://graph.facebook.com/229244010425617_790401617643184/comments?limit=1&summary=1&after=NzkwNDA3NjE3NjQyNTg0"},"summary":{"order":"chronological","total_count":4}}}