{"id":"229244010425617_790619147621431","type":"status","from":{"id":"100004709401265","name":"Trung Anh"},"message":"có ace nào ở hn sang nhật rùi thì giúp e xem có cty or ttam nào tốt.thủ tục bay nhanh gọn chỉ cho e với.tks mn","created_time":"2014-01-04T15:24:38+0000","updated_time":"2014-01-05T00:38:41+0000","likes":{"data":{"100005344950651":{"id":"100005344950651","name":"ThanhTu Phamthi"},"100000471304298":{"id":"100000471304298","name":"Nguyen Xuan Cong"},"100004492744468":{"id":"100004492744468","name":"Khanhquynh Lengoc"}},"paging":{"cursors":{"after":"MTAwMDA1MzQ0OTUwNjUx","before":"MTAwMDA1MzQ0OTUwNjUx"},"next":"https://graph.facebook.com/229244010425617_790619147621431/likes?limit=1&summary=1&after=MTAwMDA1MzQ0OTUwNjUx"},"summary":{"total_count":3}},"comments":{"data":{"790637930952886":{"id":"790637930952886","from":{"id":"100001526631937","name":"Tường Oanh Mineko"},"message":"viết cho ra dáng tiếng việt thử xem nào bạn Vũ Ngọc Vượng,dễ ẹt ấy mà.","message_tags":[{"id":"100004556491180","name":"Vũ Ngọc Vượng","type":"user","offset":44,"length":13}],"can_remove":false,"created_time":"2014-01-04T15:59:04+0000","like_count":0,"user_likes":false},"790638420952837":{"id":"790638420952837","from":{"id":"100001526631937","name":"Tường Oanh Mineko"},"message":"sau 10' ko sửa lại thành tiếng việt mình sẽ xóa các cmt ko phù hợp quy định của grp nhé.","can_remove":false,"created_time":"2014-01-04T16:00:07+0000","like_count":0,"user_likes":false},"790640134285999":{"id":"790640134285999","from":{"id":"100004556491180","name":"Vũ Ngọc Vượng"},"message":"Nhưng máy mjh cứ za. Thê. Chứ","can_remove":false,"created_time":"2014-01-04T16:03:10+0000","like_count":0,"user_likes":false},"790642787619067":{"id":"790642787619067","from":{"id":"100004556491180","name":"Vũ Ngọc Vượng"},"message":"Bây giơ. Nhiêu tt lăm a","can_remove":false,"created_time":"2014-01-04T16:05:46+0000","like_count":0,"user_likes":false},"790644607618885":{"id":"790644607618885","from":{"id":"100004709401265","name":"Trung Anh"},"message":"e pjt la nhju","can_remove":false,"created_time":"2014-01-04T16:07:55+0000","like_count":0,"user_likes":false},"790644984285514":{"id":"790644984285514","from":{"id":"100004709401265","name":"Trung Anh"},"message":"nhg van muon nge ý kien","can_remove":false,"created_time":"2014-01-04T16:08:21+0000","like_count":0,"user_likes":false},"790645320952147":{"id":"790645320952147","from":{"id":"100001526631937","name":"Tường Oanh Mineko"},"message":"này, Bạn sẽ ko có đc ý kiến từ ai khi ko chịu tiếp thu ý kiến của mình ở trên nhé Trung Anh, xóa cmt của bạn đấy !","message_tags":[{"id":"100004709401265","name":"Trung Anh","type":"user","offset":82,"length":9}],"can_remove":false,"created_time":"2014-01-04T16:09:17+0000","like_count":0,"user_likes":false},"790646604285352":{"id":"790646604285352","from":{"id":"100004709401265","name":"Trung Anh"},"message":"oh.được rồi e sửa","can_remove":false,"created_time":"2014-01-04T16:11:58+0000","like_count":0,"user_likes":false},"790647114285301":{"id":"790647114285301","from":{"id":"100004556491180","name":"Vũ Ngọc Vượng"},"message":"Đông du.dj an toàn nhất.","can_remove":false,"created_time":"2014-01-04T16:12:38+0000","like_count":0,"user_likes":false},"790647874285225":{"id":"790647874285225","from":{"id":"100004709401265","name":"Trung Anh"},"message":"a nói rõ được k?","can_remove":false,"created_time":"2014-01-04T16:14:29+0000","like_count":0,"user_likes":false},"790766697606676":{"id":"790766697606676","from":{"id":"100000359762118","name":"Mi Tra"},"message":"1. Trình độ tiếng Nhật của bạn đang ở level mấy? \n2. Bạn sang Nhật với mục đích gì? \n3. Bạn hiểu thế nào về cuộc sống khi sang Nhật học? \nBạn trả lời cho mình 3 câu hỏi trên, mình sẽ tư vấn nơi phù hợp cho bạn.","can_remove":false,"created_time":"2014-01-04T19:57:45+0000","like_count":0,"user_likes":false},"790914284258584":{"id":"790914284258584","from":{"id":"100004709401265","name":"Trung Anh"},"message":"e chưa biết tiếng.e muốn đi ldxk.k ro j ve cs bên đó","can_remove":false,"created_time":"2014-01-05T00:29:05+0000","like_count":0,"user_likes":false},"790919050924774":{"id":"790919050924774","from":{"id":"100001243411261","name":"Ngưu Tỷ Tỷ"},"message":"dạo này không thể dịch nỗi \"Tiếng Việt\" nữa rồi.","can_remove":false,"created_time":"2014-01-05T00:38:41+0000","like_count":1,"user_likes":false}},"paging":{"cursors":{"after":"NzkwNjM3OTMwOTUyODg2","before":"NzkwNjM3OTMwOTUyODg2"},"next":"https://graph.facebook.com/229244010425617_790619147621431/comments?limit=1&summary=1&after=NzkwNjM3OTMwOTUyODg2"},"summary":{"order":"chronological","total_count":13}}}