{"id":"229244010425617_790611837622162","type":"photo","object_id":"803033379713262","picture":"https://fbcdn-photos-d-a.akamaihd.net/hphotos-ak-ash4/t1.0-0/1513242_803033379713262_577567643_s.jpg","link":"https://www.facebook.com/photo.php?fbid=803033379713262&set=pcb.790611837622162&type=1&relevant_count=4","from":{"id":"100000198219367","name":"Chang Jiang"},"message":"Các cách dùng trợ từ dành cho các bạn học tiếng Nhật sơ cấp :D\n\nLười gõ lại nên scan nguyên lên :3 \n\nVào chế độ full screen của Facebook (Ở phần option góc phải ảnh) rồi Save về sẽ có ảnh gốc cỡ lớn nhé :D\n\nKham Pha nhìn quen ko =)))))))","created_time":"2014-01-04T15:18:37+0000","updated_time":"2014-01-05T01:43:25+0000","likes":{"data":{"100007276659960":{"id":"100007276659960","name":"Thuận Phạm Đức"},"100003574946076":{"id":"100003574946076","name":"Minhh Hảii"},"100005344950651":{"id":"100005344950651","name":"ThanhTu Phamthi"},"100003110863600":{"id":"100003110863600","name":"Thu Hương"},"100004253979918":{"id":"100004253979918","name":"Louis Hoàng Văn Thái"},"100005440689746":{"id":"100005440689746","name":"Trang Mapy"},"100003004058011":{"id":"100003004058011","name":"Lệ Nguyễn"},"100000381394367":{"id":"100000381394367","name":"Thành Nguyễn"},"100003819122391":{"id":"100003819122391","name":"Sen Hồ"},"100006222000800":{"id":"100006222000800","name":"Hoàng Tử Nhỏ"},"100006021877041":{"id":"100006021877041","name":"Bùi Trung Hiếu"},"100001257093338":{"id":"100001257093338","name":"Hanh Dang"},"100001546217296":{"id":"100001546217296","name":"Steve Giáp"},"100001732119820":{"id":"100001732119820","name":"Sapphire Rain"},"100001292564389":{"id":"100001292564389","name":"Tran Viet"},"1305472811":{"id":"1305472811","name":"Tuan Nguyen"},"100001458099624":{"id":"100001458099624","name":"Kham Pha"},"100003351510780":{"id":"100003351510780","name":"Trang Hoàng"},"100000162434175":{"id":"100000162434175","name":"Hechi Osa"},"100002135182523":{"id":"100002135182523","name":"Huỵch Toẹt"},"100004336020708":{"id":"100004336020708","name":"Hai Hai A"},"100000047290427":{"id":"100000047290427","name":"Ira Phan"},"100004735720833":{"id":"100004735720833","name":"Hùng Trương Đức"},"100003080722791":{"id":"100003080722791","name":"Hương Lê"},"1342069638":{"id":"1342069638","name":"Commodus Brupilus"},"100007283947929":{"id":"100007283947929","name":"ʚïɞHương ʚïɞ"},"100002615287582":{"id":"100002615287582","name":"Nguyen Phu Duy Thanh"},"100004221763347":{"id":"100004221763347","name":"Huong Tran"},"100004871794179":{"id":"100004871794179","name":"Lee Mi Nguyen"},"100001062202744":{"id":"100001062202744","name":"Hoang Garu"},"100005801442456":{"id":"100005801442456","name":"An Nguyen"},"100001508739620":{"id":"100001508739620","name":"Lê Ngọc Hoàn"},"569263718":{"id":"569263718","name":"Phuong Thao Tran"},"100000178811354":{"id":"100000178811354","name":"Anh BÊú"},"100005991164555":{"id":"100005991164555","name":"Cheda Miu"},"100001659230540":{"id":"100001659230540","name":"Lemon Tea"},"100003762427351":{"id":"100003762427351","name":"Hiroshi Yasu Oki"},"100002676859353":{"id":"100002676859353","name":"Chu Quang Viên"},"100001526631937":{"id":"100001526631937","name":"Tường Oanh Mineko"},"1146680551":{"id":"1146680551","name":"優しい なぁ"},"100003224247439":{"id":"100003224247439","name":"Hoàng Ngọc Quý"}},"paging":{"cursors":{"after":"MTAwMDA3Mjc2NjU5OTYw","before":"MTAwMDA3Mjc2NjU5OTYw"},"next":"https://graph.facebook.com/229244010425617_790611837622162/likes?limit=1&summary=1&after=MTAwMDA3Mjc2NjU5OTYw"},"summary":{"total_count":42}},"comments":{"data":{"790612304288782":{"id":"790612304288782","from":{"id":"100000198219367","name":"Chang Jiang"},"message":"Cheda Miu trợ từ đây nhé em :D","message_tags":[{"id":"100005991164555","name":"Cheda Miu","type":"user","offset":0,"length":9}],"can_remove":false,"created_time":"2014-01-04T15:19:09+0000","like_count":1,"user_likes":false},"790621944287818":{"id":"790621944287818","from":{"id":"100002676859353","name":"Chu Quang Viên"},"message":"Cô Quỳnh Anh soạn cho mấy lớp đây mà","can_remove":false,"created_time":"2014-01-04T15:29:03+0000","like_count":0,"user_likes":false},"790634047619941":{"id":"790634047619941","from":{"id":"100000886025497","name":"Duong Bach"},"message":"Quyển nào đây nhỉ ?","can_remove":false,"created_time":"2014-01-04T15:51:01+0000","like_count":0,"user_likes":false},"790636014286411":{"id":"790636014286411","from":{"id":"100002451143782","name":"New Light"},"message":"Chang Jiang Hàng ngon thế này mà sếp ỉm mãi -_-","message_tags":[{"id":"100000198219367","name":"Chang Jiang","type":"user","offset":0,"length":11}],"can_remove":false,"created_time":"2014-01-04T15:54:57+0000","like_count":0,"user_likes":false},"790636214286391":{"id":"790636214286391","from":{"id":"100000198219367","name":"Chang Jiang"},"message":"hôm nay dọn bàn học mới thấy =))","can_remove":false,"created_time":"2014-01-04T15:55:25+0000","like_count":0,"user_likes":false},"790637117619634":{"id":"790637117619634","from":{"id":"100002451143782","name":"New Light"},"message":"Up luôn lên Sharing Gr đi anh, để lâu lại mất :))))","can_remove":false,"created_time":"2014-01-04T15:57:11+0000","like_count":0,"user_likes":false},"790639260952753":{"id":"790639260952753","from":{"id":"100000198219367","name":"Chang Jiang"},"message":"Ờ được rồi :v","can_remove":false,"created_time":"2014-01-04T16:01:37+0000","like_count":0,"user_likes":false},"790647740951905":{"id":"790647740951905","from":{"id":"100005216196472","name":"Anh Nhớ"},"message":":)","can_remove":false,"created_time":"2014-01-04T16:14:10+0000","like_count":0,"user_likes":false},"790650090951670":{"id":"790650090951670","from":{"id":"100001062202744","name":"Hoang Garu"},"message":"đùa chứ nhiều trợ từ mình bây giờ vẫn dùng lung tung cả lên","can_remove":false,"created_time":"2014-01-04T16:19:52+0000","like_count":0,"user_likes":false},"790651237618222":{"id":"790651237618222","from":{"id":"100004871794179","name":"Lee Mi Nguyen"},"message":"ありがとう。","can_remove":false,"created_time":"2014-01-04T16:21:52+0000","like_count":0,"user_likes":false},"790651944284818":{"id":"790651944284818","from":{"id":"100001526631937","name":"Tường Oanh Mineko"},"message":"Chang Jiang ơi, bạn gim vào mục phù hợp luôn để tránh vc trôi bài nhé.","message_tags":[{"id":"100000198219367","name":"Chang Jiang","type":"user","offset":0,"length":11}],"can_remove":false,"created_time":"2014-01-04T16:23:29+0000","like_count":0,"user_likes":false},"790658300950849":{"id":"790658300950849","from":{"id":"100002615287582","name":"Nguyen Phu Duy Thanh"},"message":"may quá có cái này ôn lại , arigatou","can_remove":false,"created_time":"2014-01-04T16:32:10+0000","like_count":0,"user_likes":false},"790658970950782":{"id":"790658970950782","from":{"id":"100007283947929","name":"ʚïɞHương ʚïɞ"},"message":"otemo arigatou","can_remove":false,"created_time":"2014-01-04T16:33:36+0000","like_count":0,"user_likes":false},"790701620946517":{"id":"790701620946517","from":{"id":"100004336020708","name":"Hai Hai A"},"message":"arigato","can_remove":false,"created_time":"2014-01-04T17:38:25+0000","like_count":0,"user_likes":false},"790881720928507":{"id":"790881720928507","from":{"id":"100001458099624","name":"Kham Pha"},"message":"Cô Quỳnh Anh :))","can_remove":false,"created_time":"2014-01-04T22:58:39+0000","like_count":0,"user_likes":false},"790952454254767":{"id":"790952454254767","from":{"id":"100001637210278","name":"Thuy Luong"},"message":"Heo Map,Handury Fox","message_tags":[{"id":"100004548583887","name":"Heo Map","type":"user","offset":0,"length":7},{"id":"100004056485150","name":"Handury Fox","type":"user","offset":8,"length":11}],"can_remove":false,"created_time":"2014-01-05T01:43:25+0000","like_count":1,"user_likes":false}},"paging":{"cursors":{"after":"NzkwNjEyMzA0Mjg4Nzgy","before":"NzkwNjEyMzA0Mjg4Nzgy"},"next":"https://graph.facebook.com/229244010425617_790611837622162/comments?limit=1&summary=1&after=NzkwNjEyMzA0Mjg4Nzgy"},"summary":{"order":"chronological","total_count":16}}}