{"id":"229244010425617_791156590901020","type":"status","from":{"id":"100005768796195","name":"Chín Ô Vuông"},"message":"có ai ghét những đứa cứ nhắc đến Nhật Bản là chỉ nói đến JAV như mình khộng ?","created_time":"2014-01-05T10:16:36+0000","updated_time":"2014-01-05T13:51:28+0000","likes":{"data":{"100000077245301":{"id":"100000077245301","name":"Eddie Smile"},"100000070752758":{"id":"100000070752758","name":"Yen Panda"},"100001583251458":{"id":"100001583251458","name":"Riki Chan"},"100002676859353":{"id":"100002676859353","name":"Chu Quang Viên"},"100001526631937":{"id":"100001526631937","name":"Tường Oanh Mineko"},"100003257952754":{"id":"100003257952754","name":"Camarón Tobikko"},"100003932581391":{"id":"100003932581391","name":"Son Goku"},"100005344950651":{"id":"100005344950651","name":"ThanhTu Phamthi"},"100001416272263":{"id":"100001416272263","name":"Mai PB"},"100000024629190":{"id":"100000024629190","name":"Thanh Ngọc"},"100002985009288":{"id":"100002985009288","name":"Thúy Nga Nguyễn"},"100002262262717":{"id":"100002262262717","name":"Quả Táo Mèo"},"100001458099624":{"id":"100001458099624","name":"Kham Pha"},"100005024348771":{"id":"100005024348771","name":"Long Hoàng"},"100004932944108":{"id":"100004932944108","name":"Kei"},"100005440689746":{"id":"100005440689746","name":"Trang Mapy"},"100002020543785":{"id":"100002020543785","name":"Bo Nguyễn"},"100000312085659":{"id":"100000312085659","name":"Lê Bảo Khang"},"100004390689885":{"id":"100004390689885","name":"Phúc Nguyễn"}},"paging":{"cursors":{"after":"MTAwMDAwMDc3MjQ1MzAx","before":"MTAwMDAwMDc3MjQ1MzAx"},"next":"https://graph.facebook.com/229244010425617_791156590901020/likes?limit=1&summary=1&after=MTAwMDAwMDc3MjQ1MzAx"},"summary":{"total_count":19}},"comments":{"data":{"791156760901003":{"id":"791156760901003","from":{"id":"100003700084315","name":"Trầm Luân"},"message":"có, rất ghét là khác","can_remove":false,"created_time":"2014-01-05T10:17:16+0000","like_count":0,"user_likes":false},"791157024234310":{"id":"791157024234310","from":{"id":"100002966928087","name":"Nguyen van Dat"},"message":"jav là cái gì đấy","can_remove":false,"created_time":"2014-01-05T10:18:10+0000","like_count":0,"user_likes":false},"791157104234302":{"id":"791157104234302","from":{"id":"100005768796195","name":"Chín Ô Vuông"},"message":"Nguyen van Dat Japan adjust video (18+)","message_tags":[{"id":"100002966928087","name":"Nguyen van Dat","type":"user","offset":0,"length":14}],"can_remove":false,"created_time":"2014-01-05T10:18:41+0000","like_count":0,"user_likes":false},"791157267567619":{"id":"791157267567619","from":{"id":"100002966928087","name":"Nguyen van Dat"},"message":"vãi ông này,làm phát nào chưa","can_remove":false,"created_time":"2014-01-05T10:19:26+0000","like_count":0,"user_likes":false},"791157504234262":{"id":"791157504234262","from":{"id":"100000054665103","name":"John Nguyễn"},"message":"JAV là Japan anti virus ah mọi người ?","can_remove":false,"created_time":"2014-01-05T10:20:33+0000","like_count":0,"user_likes":false},"791157697567576":{"id":"791157697567576","from":{"id":"100005768796195","name":"Chín Ô Vuông"},"message":"đây nè: https://www.facebook.com/photo.php?fbid=460113324111002&set=a.382931211829214.1073741828.382405868548415&type=1&relevant_count=1","can_remove":false,"created_time":"2014-01-05T10:21:32+0000","like_count":0,"user_likes":false},"791168170899862":{"id":"791168170899862","from":{"id":"100003810988993","name":"Thanh Liem Khong"},"message":"ko.minh thay binh thuong ma","can_remove":false,"created_time":"2014-01-05T10:47:26+0000","like_count":1,"user_likes":false},"791169487566397":{"id":"791169487566397","from":{"id":"100004932944108","name":"Kei"},"message":"chỉ có người chưa trưởng thành và trẻ dậy thì mới vậy thôi :v","can_remove":false,"created_time":"2014-01-05T10:51:52+0000","like_count":0,"user_likes":false},"791188964231116":{"id":"791188964231116","from":{"id":"100000068660150","name":"Hito Kami"},"message":"mình không ghét , vì thực ra họ cũng chả sai gì ;))","can_remove":false,"created_time":"2014-01-05T11:42:19+0000","like_count":0,"user_likes":false},"791250110891668":{"id":"791250110891668","from":{"id":"1146680551","name":"優しい なぁ"},"message":"Thế mà mình cứ tưởng Japanese Access Vehicle chứ ^_^","can_remove":false,"created_time":"2014-01-05T13:51:28+0000","like_count":1,"user_likes":false}},"paging":{"cursors":{"after":"NzkxMTU2NzYwOTAxMDAz","before":"NzkxMTU2NzYwOTAxMDAz"},"next":"https://graph.facebook.com/229244010425617_791156590901020/comments?limit=1&summary=1&after=NzkxMTU2NzYwOTAxMDAz"},"summary":{"order":"chronological","total_count":10}}}