{"id":"229244010425617_791251757558170","type":"status","from":{"id":"100001128589118","name":"Giang Manh"},"message":"Giới thiệu cùng mọi người đoạn phim hay về cuộc sống ở Nhật (có rất nhiều câu để đời). http://www.youtube.com/watch?v=prNYOW0_kms","created_time":"2014-01-05T13:55:43+0000","updated_time":"2014-01-05T14:02:45+0000","likes":{"data":{"100000381394367":{"id":"100000381394367","name":"Thành Nguyễn"},"100002380957434":{"id":"100002380957434","name":"Star Mai"},"100004490496995":{"id":"100004490496995","name":"Rai Chamu"},"100005801442456":{"id":"100005801442456","name":"An Nguyen"},"100001526631937":{"id":"100001526631937","name":"Tường Oanh Mineko"},"1146680551":{"id":"1146680551","name":"優しい なぁ"},"1782985626":{"id":"1782985626","name":"Nguyễn Thế Quân"}},"paging":{"cursors":{"after":"MTAwMDAwMzgxMzk0MzY3","before":"MTAwMDAwMzgxMzk0MzY3"},"next":"https://graph.facebook.com/229244010425617_791251757558170/likes?limit=1&summary=1&after=MTAwMDAwMzgxMzk0MzY3"},"summary":{"total_count":7}},"comments":{"data":{"791252657558080":{"id":"791252657558080","from":{"id":"1146680551","name":"優しい なぁ"},"message":"Chưa xem đc.nhưng cũng like :))","can_remove":false,"created_time":"2014-01-05T13:57:53+0000","like_count":1,"user_likes":false},"791253777557968":{"id":"791253777557968","from":{"id":"100000045271667","name":"Nam Thai Nguyen"},"message":"Có JAV thì sao Anh Nguyễn @@","message_tags":[{"id":"1146680551","name":"Anh Nguyễn","type":"user","offset":15,"length":10}],"can_remove":false,"created_time":"2014-01-05T14:00:59+0000","like_count":0,"user_likes":false},"791254547557891":{"id":"791254547557891","from":{"id":"1146680551","name":"優しい なぁ"},"message":"Càng thích chứ sao :))","can_remove":false,"created_time":"2014-01-05T14:02:45+0000","like_count":1,"user_likes":false}},"paging":{"cursors":{"after":"NzkxMjUyNjU3NTU4MDgw","before":"NzkxMjUyNjU3NTU4MDgw"},"next":"https://graph.facebook.com/229244010425617_791251757558170/comments?limit=1&summary=1&after=NzkxMjUyNjU3NTU4MDgw"},"summary":{"order":"chronological","total_count":3}}}