{"id":"229244010425617_791333680883311","type":"status","from":{"id":"100004676318674","name":"Nguyễn Huy Hoàng"},"message":"Xin chào mọi người , mình là mem mới vào Gr.\nCác senpai đi trước có ai đang học ở Yu Language Academy không?\nVà từ Yu đến các trường ngữ khác như AOYAMA , ATI khoảng bao xa :)","created_time":"2014-01-05T16:52:57+0000","updated_time":"2014-01-06T11:10:25+0000","likes":{"data":{"100000045271667":{"id":"100000045271667","name":"Nam Thai Nguyen"},"569263718":{"id":"569263718","name":"Phuong Thao Tran"}},"paging":{"cursors":{"after":"MTAwMDAwMDQ1MjcxNjY3","before":"MTAwMDAwMDQ1MjcxNjY3"},"next":"https://graph.facebook.com/229244010425617_791333680883311/likes?limit=1&summary=1&after=MTAwMDAwMDQ1MjcxNjY3"},"summary":{"total_count":2}},"comments":{"data":{"791858137497532":{"id":"791858137497532","from":{"id":"100000045271667","name":"Nam Thai Nguyen"},"message":"Cườngg CR","message_tags":[{"id":"100002928863986","name":"Cườngg CR","type":"user","offset":0,"length":9}],"can_remove":false,"created_time":"2014-01-06T10:55:27+0000","like_count":0,"user_likes":false},"791862270830452":{"id":"791862270830452","from":{"id":"100000045271667","name":"Nam Thai Nguyen"},"message":"Trường Yu Language Academy\nAddress Palace Bldg., 2-16-25 Ookubo, Shinjuku-ku, Tokyo 169-0072 Nearest Station Shin-Okubo Station, Takadanobaba Station","can_remove":false,"created_time":"2014-01-06T11:07:52+0000","like_count":0,"user_likes":false},"791862324163780":{"id":"791862324163780","from":{"id":"100000045271667","name":"Nam Thai Nguyen"},"message":"ATI TOKYO JAPANESE LANGUAGE SCHOOL § Địa chỉ: Tòa nhà CT. 1〜4F, 1-27-12Tabatashin-machi, Kita-ku, Tokyo 114-0012","can_remove":false,"created_time":"2014-01-06T11:08:05+0000","like_count":0,"user_likes":false},"791862784163734":{"id":"791862784163734","from":{"id":"100000045271667","name":"Nam Thai Nguyen"},"message":"Vào đây xem nhé \nhttp://www.aikgroup.co.jp/j-school/english/","can_remove":false,"created_time":"2014-01-06T11:10:25+0000","like_count":1,"user_likes":false}},"paging":{"cursors":{"after":"NzkxODU4MTM3NDk3NTMy","before":"NzkxODU4MTM3NDk3NTMy"},"next":"https://graph.facebook.com/229244010425617_791333680883311/comments?limit=1&summary=1&after=NzkxODU4MTM3NDk3NTMy"},"summary":{"order":"chronological","total_count":4}}}