{"id":"229244010425617_791621787521167","type":"status","from":{"id":"100002428163247","name":"Trần Đức Hùng"},"message":"Chào các bạn! Xin phép các admin cho mình đăng bài này nhé:\n\nHiện tại ở Nhật có bạn nào có tay nghề shop ảnh nhỉ? Hiện tại tớ đang có 1 số ý tưởng nho nhỏ liên quan đến ảnh ọt và chút nghệ thuật. \nBạn nào quan tâm thì inbox nhé, hoặc liên lạc qua : 09045431987 (mạng au nhé)\n\nP/s: Câu hỏi mang tính nghiêm túc nên mong mọi người không ném đá ở đây nhé.","created_time":"2014-01-06T00:39:09+0000","updated_time":"2014-01-06T04:01:45+0000","likes":{"data":{"100000054665103":{"id":"100000054665103","name":"John Nguyễn"},"100001059086820":{"id":"100001059086820","name":"Nguyễn Thành Long"}},"paging":{"cursors":{"after":"MTAwMDAwMDU0NjY1MTAz","before":"MTAwMDAwMDU0NjY1MTAz"},"next":"https://graph.facebook.com/229244010425617_791621787521167/likes?limit=1&summary=1&after=MTAwMDAwMDU0NjY1MTAz"},"summary":{"total_count":2}},"comments":{"data":{"791632647520081":{"id":"791632647520081","from":{"id":"100001059086820","name":"Nguyễn Thành Long"},"message":"Bỏ lâu, giờ đã quên sạch :((","can_remove":false,"created_time":"2014-01-06T01:06:24+0000","like_count":0,"user_likes":false},"791668090849870":{"id":"791668090849870","from":{"id":"100002428163247","name":"Trần Đức Hùng"},"message":"Học lại đi bạn:)","can_remove":false,"created_time":"2014-01-06T02:25:59+0000","like_count":0,"user_likes":false},"791706307512715":{"id":"791706307512715","from":{"id":"100001243411261","name":"Ngưu Tỷ Tỷ"},"message":"Kami Fuurin :)","message_tags":[{"id":"1250902671","name":"Kami Fuurin","type":"user","offset":0,"length":11}],"can_remove":false,"created_time":"2014-01-06T04:01:45+0000","like_count":0,"user_likes":false}},"paging":{"cursors":{"after":"NzkxNjMyNjQ3NTIwMDgx","before":"NzkxNjMyNjQ3NTIwMDgx"},"next":"https://graph.facebook.com/229244010425617_791621787521167/comments?limit=1&summary=1&after=NzkxNjMyNjQ3NTIwMDgx"},"summary":{"order":"chronological","total_count":3}}}