{"id":"229244010425617_791691967514149","type":"link","picture":"https://fbexternal-a.akamaihd.net/safe_image.php?d=AQAn9WnblvLsW3Jp&w=154&h=154&url=http%3A%2F%2Fk14.vcmedia.vn%2FBTbXlm8EkGSICUZ2NYiccccccccccc%2FImage%2F2014%2F01%2FIMG_3371ava-b9a9a.jpg","link":"http://kenh14.vn/doi-song/sai-gon-ngo-ngang-ngam-cong-vien-sang-ruc-trong-dem-voi-nua-trieu-bong-den-led-2014010410105877.chn","from":{"id":"100000381394367","name":"Thành Nguyễn"},"message":"Phong cách trang trí đèn Nhật bản đã sang Việt Nam. Ai ở SG tha hồ đi chơi. \nhttp://kenh14.vn/doi-song/sai-gon-ngo-ngang-ngam-cong-vien-sang-ruc-trong-dem-voi-nua-trieu-bong-den-led-2014010410105877.chn","created_time":"2014-01-06T03:32:18+0000","updated_time":"2014-01-06T05:53:35+0000","likes":{"data":{"100004512392461":{"id":"100004512392461","name":"Nguyen Huong"},"1103173052":{"id":"1103173052","name":"Uyên Nguyễn"},"100001416272263":{"id":"100001416272263","name":"Mai PB"},"100001071750107":{"id":"100001071750107","name":"Christine Đường"},"100000128242314":{"id":"100000128242314","name":"Nagayama Sei"},"100004084175316":{"id":"100004084175316","name":"Xuyen Pham"},"100003631860637":{"id":"100003631860637","name":"Meaningof Thelife"},"100001754136107":{"id":"100001754136107","name":"Nguyễn Tuấn Vũ"},"100001526631937":{"id":"100001526631937","name":"Tường Oanh Mineko"},"100002508122689":{"id":"100002508122689","name":"Vũ Mạnh Tuấn"},"100000068660150":{"id":"100000068660150","name":"Hito Kami"},"569263718":{"id":"569263718","name":"Phuong Thao Tran"},"100000359762118":{"id":"100000359762118","name":"Mi Tra"},"1026780646":{"id":"1026780646","name":"Việt Hưng Khổng"},"100006330218183":{"id":"100006330218183","name":"Trần Xuân Hanh"},"100002327743510":{"id":"100002327743510","name":"Tuan Thanh"},"1283298041":{"id":"1283298041","name":"Búa Đức Thanh"},"100002549133838":{"id":"100002549133838","name":"Người Dùng Phây Búc"},"100000045271667":{"id":"100000045271667","name":"Nam Thai Nguyen"},"100004715610677":{"id":"100004715610677","name":"Lương Thập"},"100003055356509":{"id":"100003055356509","name":"Thuan Nguyen"}},"paging":{"cursors":{"after":"MTAwMDA0NTEyMzkyNDYx","before":"MTAwMDA0NTEyMzkyNDYx"},"next":"https://graph.facebook.com/229244010425617_791691967514149/likes?limit=1&summary=1&after=MTAwMDA0NTEyMzkyNDYx"},"summary":{"total_count":21}},"comments":{"data":{"791707850845894":{"id":"791707850845894","from":{"id":"100000603915176","name":"悪いな ぁ"},"message":"Đi thôi, mai mua vé đi xem thử cho biết :)","can_remove":false,"created_time":"2014-01-06T04:04:58+0000","like_count":0,"user_likes":false},"791711500845529":{"id":"791711500845529","from":{"id":"100002549133838","name":"Người Dùng Phây Búc"},"message":"mới đi tối wa\nmà hình như chỉ vậy thôi k có giao lưu văn hóa hát hò, nấu ăn, ... gì cả cũng chán.","can_remove":false,"created_time":"2014-01-06T04:13:47+0000","like_count":0,"user_likes":false},"791711954178817":{"id":"791711954178817","from":{"id":"100000603915176","name":"悪いな ぁ"},"message":"Đi xem bài trí là chính chứ, mấy cái kia phụ thôi mà :)","can_remove":false,"created_time":"2014-01-06T04:14:50+0000","like_count":0,"user_likes":false},"791712074178805":{"id":"791712074178805","from":{"id":"100005801442456","name":"An Nguyen"},"message":"A trai e làm ấy ❤️","can_remove":false,"created_time":"2014-01-06T04:15:17+0000","like_count":3,"user_likes":false},"791712367512109":{"id":"791712367512109","from":{"id":"100002549133838","name":"Người Dùng Phây Búc"},"message":"sao k tổ chức 1 vài buổi biểu diễn gì đó","can_remove":false,"created_time":"2014-01-06T04:16:02+0000","like_count":0,"user_likes":false},"791725004177512":{"id":"791725004177512","from":{"id":"100000381394367","name":"Thành Nguyễn"},"message":"Hình như hai cái này ở cạnh nhau vì bài trên nói do aeon mall tổ chức http://diadiemanuong.com/home/f11/review-aeon-mall-thien-duong-mon-nhat-gia-re-lan-cao-cap-53879/","can_remove":false,"created_time":"2014-01-06T04:39:39+0000","like_count":0,"user_likes":false},"791727044177308":{"id":"791727044177308","from":{"id":"100005801442456","name":"An Nguyen"},"message":"Thuê Cty Nhật đặt trụ sở ở Việt Nam thực hiện","can_remove":false,"created_time":"2014-01-06T04:46:10+0000","like_count":1,"user_likes":false},"791730490843630":{"id":"791730490843630","from":{"id":"100000045271667","name":"Nam Thai Nguyen"},"message":"Ân tượng quá má ơi, bzo hạ cánh xuống HÀ Nội nhể anh Thành Nguyễn \nhttp://www.youtube.com/watch?v=R27KTjQGGxs","message_tags":[{"id":"100000381394367","name":"Thành Nguyễn","type":"user","offset":53,"length":12}],"can_remove":false,"created_time":"2014-01-06T04:57:45+0000","like_count":1,"user_likes":false},"791747210841958":{"id":"791747210841958","from":{"id":"569263718","name":"Phuong Thao Tran"},"message":"tối mai đi chiêm ngưỡng, ^^","can_remove":false,"created_time":"2014-01-06T05:49:02+0000","like_count":0,"user_likes":false},"791748887508457":{"id":"791748887508457","from":{"id":"100000068660150","name":"Hito Kami"},"message":"Sài gòn tiến bộ quá","can_remove":false,"created_time":"2014-01-06T05:53:35+0000","like_count":0,"user_likes":false}},"paging":{"cursors":{"after":"NzkxNzA3ODUwODQ1ODk0","before":"NzkxNzA3ODUwODQ1ODk0"},"next":"https://graph.facebook.com/229244010425617_791691967514149/comments?limit=1&summary=1&after=NzkxNzA3ODUwODQ1ODk0"},"summary":{"order":"chronological","total_count":10}}}