{"id":"229244010425617_791907097492636","type":"status","from":{"id":"100001079726837","name":"Hatenai Yume"},"message":"Anh chị ơi hiện tại em có 1 số lượng lớn sách (khoảng 100 cuốn hoặc hơn, ước tính 18 man) cần chuyển về Việt Nam. Em thấy có một số thông tin gửi về bằng đường tàu 船便 ko bị đánh thuế nhưng có người bảo dưới 20 triệu, 300 USD mới được(nói chung là ttin ko rõ ràng).....Còn nếu 宅配便 thì nghe nói charge 3 sen/10 man. Bạn e định gửi nhìu đợt vì em đọc trên mạng cũng có cách là gửi nhìu lần nhưng đợi đến hết rùi nhận 1 lượt vì miễn thuế thì chỉ miễn 1 lần. Ngoài ra, em lại thấy có câu nì \"There is no rule to pay customs duties when we pay customs duties in Viet nam.\" vậy hổng lẽ nó charge thuế theo cảm tính hử bởi vậy mới có nhiều thông tin như thế!....Ban đầu e định nhờ người mang về nhưng sách nhìu đột xuất nên bây h e không bít làm sao ạ!?...đó h chưa gửi bao h! :3\nTình hình là vậy, em mún a chị chỉ em cách tối ưu nhất để tối thiểu hóa chi phí ạh!...nếu đc thì cho em biết lun nếu gửi 船便、宅配便、空港便 thì phí thế nào, thuế ra sao lun ạh vì thông tin tùm lum quá!....\nP/S: Đây là 1 lượng sách chủ íu về kinh tế-tài chính ngoài ra còn có moral, art, cuisine, education bằng tiếng Nhật do em rất may mắn đc 1 bạn người Nhật tặng nên nếu chuyển đc về VN thì ko chỉ có ích cho riêng em đâu ạ vì nhiêu đó e cũng ko thể đọc nổi; nếu bạn nào ở TPHCM mình sẵn sàng cho mượn! :)","created_time":"2014-01-06T13:09:31+0000","updated_time":"2014-01-07T07:21:46+0000","likes":{"data":{"100000063259004":{"id":"100000063259004","name":"Shiro Neko"},"100000189498000":{"id":"100000189498000","name":"Fish Siunhun"},"100001549231979":{"id":"100001549231979","name":"Kim Chi Đỗ"},"100004253979918":{"id":"100004253979918","name":"Louis Hoàng Văn Thái"}},"paging":{"cursors":{"after":"MTAwMDAwMDYzMjU5MDA0","before":"MTAwMDAwMDYzMjU5MDA0"},"next":"https://graph.facebook.com/229244010425617_791907097492636/likes?limit=1&summary=1&after=MTAwMDAwMDYzMjU5MDA0"},"summary":{"total_count":4}},"comments":{"data":{"791910700825609":{"id":"791910700825609","from":{"id":"1250063068","name":"Tuấn Tử Tế"},"message":"Mình ko dành khoản thuế má lắm. Nhưng mà đợt tới nghỉ xuân này có nhiều người về. Bạn nhờ các bạn ấy mỗi người mang 1 ít. Theo mình biết là có thể đăng ký quá cân với giá 4$/1KG. \nKhông thì bạn chia làm 2 gửi tàu thủy về. Nhưng mỗi lần gửi nhờ 1 người khác nhau đứng tên. Thế là đc miễn thuế cả 2 rồi.","can_remove":false,"created_time":"2014-01-06T13:21:25+0000","like_count":1,"user_likes":false},"791914387491907":{"id":"791914387491907","from":{"id":"1146680551","name":"優しい なぁ"},"message":"Hàng nhập khẩu qua chuyển phát bưu điện thì qui định của việt nam : dưới 1 tr được miễn thuế, trên 1 triệu phải tính thuế là 4% trên giá trị hàng hoá tại cảng nhập khẩu.nghĩa là tại việt nam.vì chính điều này khi các mặt hàng nhập khẩu về vn đều bị các bác hải quan nhỏng nhẽo","can_remove":false,"created_time":"2014-01-06T13:31:04+0000","like_count":2,"user_likes":false},"791916807491665":{"id":"791916807491665","from":{"id":"100000991663833","name":"Mạnh Tạ"},"message":"Hàng nhập khẩu về vn thuế má ko có 1 luật nào quy định đúng cả . Dựa vào \"tình cảm\" là chủ yếu :)","can_remove":false,"created_time":"2014-01-06T13:36:35+0000","like_count":2,"user_likes":false},"792356390781040":{"id":"792356390781040","from":{"id":"100001079726837","name":"Hatenai Yume"},"message":"Tuấn Tử Tế: dạ e ko bít có ai về ăn tết ko nhưng nếu nghỉ đợt 1/1 vừa rùi thì có mấy ng sắp bay lại nhật rùi ợ!...với lại sách ít thì nhờ cũng tiện nhưng h nhìu quá cũng khó lắm ạ! :3 :(( :'(\n@Anh Nguyễn: nếu mình gửi bưu điện cũng phải gặp hải quan nữa hả a...ko phải chỉ cần ra bưu điện nhận là đc rùi ạh, nếu gửi bưu điện mà ít phiền chắc e cũng nhận = đường đó dù sao thuế có khi cũng cỡ mấy ông quan nhõng nhẽo! :3\nMạnh Tạ: huhuhu!...thế e bít làm thế lào ạh!? :'(","message_tags":[{"id":"1250063068","name":"Tuấn Tử Tế","type":"user","offset":0,"length":10},{"id":"100000991663833","name":"Mạnh Tạ","type":"user","offset":420,"length":7}],"can_remove":false,"created_time":"2014-01-07T05:08:31+0000","like_count":0,"user_likes":false},"792357874114225":{"id":"792357874114225","from":{"id":"1146680551","name":"優しい なぁ"},"message":"Gởi qua đường nào cũng gọi là nhập khẩu hết.thế mới có cụm từ \"xách tay\" để trốn thuế nhập khẩu đó bạn. Tại nó tính giá trị tại cảng nhập khẩu,nhiều mặt hàng k có ở vn ,hoăc nó tra \"nhầm \" danh mục thì nhiều người k nắm luật sẽ bị nhõng nhẽo thôi.","can_remove":false,"created_time":"2014-01-07T05:12:53+0000","like_count":0,"user_likes":false},"792367634113249":{"id":"792367634113249","from":{"id":"100000063259004","name":"Shiro Neko"},"message":"E ko rành lắm, nhưng nghe nói gởi đường tàu rẻ hơn. Hồi trước bạn e đi nó gởi hành lý bằng tàu.\nP/s: sách về nhớ cho e vài cuốn education, moral vs art nhaaaaa :)","can_remove":false,"created_time":"2014-01-07T05:37:16+0000","like_count":0,"user_likes":false},"792396457443700":{"id":"792396457443700","from":{"id":"1813611352","name":"To Đùng"},"message":"quả \"tra nhầm\" này anh Anh Nguyễn thấm thía thế :))","message_tags":[{"id":"1146680551","name":"Anh Nguyễn","type":"user","offset":23,"length":10}],"can_remove":false,"created_time":"2014-01-07T07:21:46+0000","like_count":1,"user_likes":false}},"paging":{"cursors":{"after":"NzkxOTEwNzAwODI1NjA5","before":"NzkxOTEwNzAwODI1NjA5"},"next":"https://graph.facebook.com/229244010425617_791907097492636/comments?limit=1&summary=1&after=NzkxOTEwNzAwODI1NjA5"},"summary":{"order":"chronological","total_count":7}}}