{"id":"229244010425617_791991860817493","type":"link","link":"http://banhchungnhanai.com/","from":{"id":"569263718","name":"Phuong Thao Tran"},"message":"Hưởng ứng chương trình BÁNH CHƯNG NHÂN ÁI\nhttp://banhchungnhanai.com/\n\nMình/Thảo xin gửi mọi người bài nhạc nền ĐỨA BÉ (lời Nhật đã dịch nhưng chưa có ca sĩ trình bày, ^^)\n\n----------------------------------------------------------\nĐỨA BÉ\nTác giả: Minh Khang\n\nTrong đêm một bàn chân bước \nBé xíu lang thang trên đường \nÁnh mắt buồn, mệt nhoài của em \nEm rất buồn vì em không biết đi, đi về đâu... \n\nCuộc sống mưu sinh chỉ làm em qua cơn đói từng ngày \nVì em không cha, vì em đã mất mẹ \nThương đau vẫn là đau thương... \n\nEm mơ một vì sao sáng \nDẫn lối em trên đường đời \nDẫu biết rằng chỉ là giấc mơ \nĐã lâu rồi em đã không, không có tình thương... \n\nNhìn thấy ai ai cũng đều vui bên mẹ cha \nGiọt lệ em tuôn rơi, hòa tan với nỗi buồn \nBước đi trong chiều mưa... \n\nHãy lau khô cuộc đời em \nBằng tình thương, lòng nhân ái của con người ! \nVà hãy lau khô giọt nước mắt trong lòng em \nBằng tất cả trái tim con người Việt Nam !\n\n孤児 | \n訳者：Phuong Thao Tran | \n | \n裸足のさすらい孤児が | はだしのさすらいこじが\n夜間を歩いてた | やかんをあるいてた\nどこかへ行くのか | どこかへいくのか\n絶望の視線で虚無を見てた | ぜつぼうのしせんで　きょむ　をみてた\n \n日々の飢餓を生活してる孤児の人生 | ひびのきが　を　せいかつ　してるこじのじんせい\n両親なき、親戚も無きで | りょうしんなき、しんせきもなきで\n悲傷また悲傷 | ひしょう　また　ひしょう\n | \n明るい星が | あかるいほし　が\n前に進み続かせてほしい | まえにすすみつづかせてほしい\n夢を知りながらも | ゆめをしりながらも\n久しぶりに他人の愛情受けない | ひさしぶりにたにんのあいじょう　うけない\n \n家族と幸せな他人を見て | かぞくとしあわせなたにんをみて\n悲しみと一緒涙が落ちて | かなしみといっしょなみだ　が　おちて\n夕方の雨に歩いてた | ゆうがたのあめにあるいてた\n | \nあの子の人生を | あのこのじんせいを\n人間の仁愛と愛情で | にんげんのじんあいとあいじょうで\n心の涙を拭いて | こころのなみだをふいて\nベトナム人の心で包もう | ベトナムじんのこころでつつもう\n\nhttp://www.youtube.com/watch?v=0hHiFgzW49c","created_time":"2014-01-06T16:01:14+0000","updated_time":"2014-01-08T08:52:24+0000","likes":{"data":{"100003055356509":{"id":"100003055356509","name":"Thuan Nguyen"},"100007833643179":{"id":"100007833643179","name":"Yêu Đời"},"100001754136107":{"id":"100001754136107","name":"Nguyễn Tuấn Vũ"},"100000603915176":{"id":"100000603915176","name":"悪いな ぁ"},"100004336020708":{"id":"100004336020708","name":"Hai Hai A"},"100000381394367":{"id":"100000381394367","name":"Thành Nguyễn"},"100000022163023":{"id":"100000022163023","name":"Kafe Ore"},"100001526631937":{"id":"100001526631937","name":"Tường Oanh Mineko"},"100003049639881":{"id":"100003049639881","name":"Truong Luvuxy"},"1813611352":{"id":"1813611352","name":"To Đùng"},"100004192770347":{"id":"100004192770347","name":"Gạch Và Đá"},"587358756":{"id":"587358756","name":"Bui Vu Hoang Long"},"100000221260528":{"id":"100000221260528","name":"Đào Xuân Kiên"},"1103173052":{"id":"1103173052","name":"Uyên Nguyễn"},"100004614542931":{"id":"100004614542931","name":"Dung Le"},"100005801442456":{"id":"100005801442456","name":"An Nguyen"},"100001324611896":{"id":"100001324611896","name":"Meo Luoi"},"100000045271667":{"id":"100000045271667","name":"Nam Thai Nguyen"},"1146680551":{"id":"1146680551","name":"優しい なぁ"},"100000199780783":{"id":"100000199780783","name":"Nguyen Thu Hoai"},"100003913383051":{"id":"100003913383051","name":"Tho Tran"},"100002977923434":{"id":"100002977923434","name":"長流"}},"paging":{"cursors":{"after":"MTAwMDAzMDU1MzU2NTA5","before":"MTAwMDAzMDU1MzU2NTA5"},"next":"https://graph.facebook.com/229244010425617_791991860817493/likes?limit=1&summary=1&after=MTAwMDAzMDU1MzU2NTA5"},"summary":{"total_count":23}},"comments":{"data":{"791996967483649":{"id":"791996967483649","from":{"id":"100003913383051","name":"Tho Tran"},"message":"\" hãy lau khô cuộc đời em, bằng tình thương và lòng nhân ái của con người\" em thích nhất câu này chị ạ !!! :)","can_remove":false,"created_time":"2014-01-06T16:10:44+0000","like_count":1,"user_likes":false},"791997234150289":{"id":"791997234150289","from":{"id":"569263718","name":"Phuong Thao Tran"},"message":"đó là nhân của Bánh chưng lần này đó em, :)","can_remove":false,"created_time":"2014-01-06T16:11:32+0000","like_count":0,"user_likes":false},"791997584150254":{"id":"791997584150254","from":{"id":"100003913383051","name":"Tho Tran"},"message":"Hì vâng ạ !!! Cảm ơn chị nhé!!! :)","can_remove":false,"created_time":"2014-01-06T16:12:26+0000","like_count":0,"user_likes":false},"791998270816852":{"id":"791998270816852","from":{"id":"1146680551","name":"優しい なぁ"},"message":"Hay quá chị ơi\nLưu vào đi chị","can_remove":false,"created_time":"2014-01-06T16:14:01+0000","like_count":0,"user_likes":false},"791998494150163":{"id":"791998494150163","from":{"id":"569263718","name":"Phuong Thao Tran"},"message":"thiếu ca sĩ trình bày lời Nhật nữa thôi, hihi","can_remove":false,"created_time":"2014-01-06T16:14:40+0000","like_count":0,"user_likes":false},"791999587483387":{"id":"791999587483387","from":{"id":"1146680551","name":"優しい なぁ"},"message":"Tối h k online là làm cái này đây :)","can_remove":false,"created_time":"2014-01-06T16:16:23+0000","like_count":2,"user_likes":false},"792002817483064":{"id":"792002817483064","from":{"id":"569263718","name":"Phuong Thao Tran"},"message":"cái này lưu vào đâu em?","can_remove":false,"created_time":"2014-01-06T16:21:35+0000","like_count":1,"user_likes":false},"792003137483032":{"id":"792003137483032","from":{"id":"100003913383051","name":"Tho Tran"},"message":"Chị đưa vào thư mục Hot của tháng chị ạ :), à của năm ạ :)","can_remove":false,"created_time":"2014-01-06T16:22:43+0000","like_count":1,"user_likes":false},"792003324149680":{"id":"792003324149680","from":{"id":"1146680551","name":"優しい なぁ"},"message":"Hình như chưa có phân đó,chị thêm bài hát Nhật - Việt rồi àdd link zô.","can_remove":false,"created_time":"2014-01-06T16:23:05+0000","like_count":0,"user_likes":false},"792263587456987":{"id":"792263587456987","from":{"id":"100006520210904","name":"Miu Miu"},"message":"Để e thử làm ca sĩ lời Nhật chị Phuong Thao Tran nhé! ( Vì lời việt e vừa mới hát cho các bạn nghe )","can_remove":false,"created_time":"2014-01-07T01:00:41+0000","like_count":2,"user_likes":false},"792267467456599":{"id":"792267467456599","from":{"id":"100006520210904","name":"Miu Miu"},"message":"Hic. khó lắm ah. cố thử nhưng chắc ko dc ah.","can_remove":false,"created_time":"2014-01-07T01:12:15+0000","like_count":0,"user_likes":false},"792271910789488":{"id":"792271910789488","from":{"id":"569263718","name":"Phuong Thao Tran"},"message":"vậy là có 2 ca sỹ rồi, thiếu 58 ca sỹ nữa, ^^","can_remove":false,"created_time":"2014-01-07T01:26:00+0000","like_count":0,"user_likes":false},"792276270789052":{"id":"792276270789052","from":{"id":"100006520210904","name":"Miu Miu"},"message":"Hihi. Cảm ơn chị Phuong Thao Tran","can_remove":false,"created_time":"2014-01-07T01:27:18+0000","like_count":0,"user_likes":false},"792278777455468":{"id":"792278777455468","from":{"id":"100003913383051","name":"Tho Tran"},"message":"Cho em múa phụ đạo chị ơi :)","can_remove":false,"created_time":"2014-01-07T01:33:34+0000","like_count":1,"user_likes":false},"792292114120801":{"id":"792292114120801","from":{"id":"100004192770347","name":"Gạch Và Đá"},"message":"cho e hát vs chị ơi :)","can_remove":false,"created_time":"2014-01-07T02:02:18+0000","like_count":1,"user_likes":false},"792323734117639":{"id":"792323734117639","from":{"id":"1146680551","name":"優しい なぁ"},"message":"Lam video clip được ấy nhỉ","can_remove":false,"created_time":"2014-01-07T03:30:02+0000","like_count":3,"user_likes":false},"792325364117476":{"id":"792325364117476","from":{"id":"100003913383051","name":"Tho Tran"},"message":"Làm đi anh vì chưa có phiên bản tiếng nhật ạ !!!","can_remove":false,"created_time":"2014-01-07T03:35:40+0000","like_count":0,"user_likes":false},"792325800784099":{"id":"792325800784099","from":{"id":"1146680551","name":"優しい なぁ"},"message":"ai tham gia giơ tay :))","can_remove":false,"created_time":"2014-01-07T03:37:47+0000","like_count":3,"user_likes":false},"792325980784081":{"id":"792325980784081","from":{"id":"100006520210904","name":"Miu Miu"},"message":"Em tham gia với ah","can_remove":false,"created_time":"2014-01-07T03:38:17+0000","like_count":0,"user_likes":false},"792326217450724":{"id":"792326217450724","from":{"id":"569263718","name":"Phuong Thao Tran"},"message":"làm sao thiểu chủ post đc, ^^","can_remove":false,"created_time":"2014-01-07T03:38:49+0000","like_count":1,"user_likes":false},"792326264117386":{"id":"792326264117386","from":{"id":"1146680551","name":"優しい なぁ"},"message":"Không cần thiết phải ở Nhật.Có thể làm clip từ 2 đầu Việt - Nhật","can_remove":false,"created_time":"2014-01-07T03:39:00+0000","like_count":0,"user_likes":false},"792327404117272":{"id":"792327404117272","from":{"id":"100003913383051","name":"Tho Tran"},"message":"Em xin một slot","can_remove":false,"created_time":"2014-01-07T03:41:47+0000","like_count":0,"user_likes":false},"792327567450589":{"id":"792327567450589","from":{"id":"1146680551","name":"優しい なぁ"},"message":"Phuong Thao Tran chị theo dõi lên danh sách đi ^_^ e đạo diễn :))","message_tags":[{"id":"569263718","name":"Phuong Thao Tran","type":"user","offset":0,"length":16}],"can_remove":false,"created_time":"2014-01-07T03:42:29+0000","like_count":0,"user_likes":false},"792327627450583":{"id":"792327627450583","from":{"id":"569263718","name":"Phuong Thao Tran"},"message":"okie em","can_remove":false,"created_time":"2014-01-07T03:42:48+0000","like_count":0,"user_likes":false},"792327934117219":{"id":"792327934117219","from":{"id":"100003913383051","name":"Tho Tran"},"message":"Nhớ cho em xin xuất chị nhé!!! Em hát không hay nhưng em hét rất to ạ!!! :) mà chị ơi nếu cho hát thì hát cả Việt Nhật chị nhé!!! Em nhận chân tiếng Việt ạ :)","can_remove":false,"created_time":"2014-01-07T03:43:39+0000","like_count":2,"user_likes":false},"792329840783695":{"id":"792329840783695","from":{"id":"100003049639881","name":"Truong Luvuxy"},"message":"Em xin xuất ợ","can_remove":false,"created_time":"2014-01-07T03:50:00+0000","like_count":2,"user_likes":false},"792348774115135":{"id":"792348774115135","from":{"id":"569263718","name":"Phuong Thao Tran"},"message":"điểm danh được 6 ca sỹ rồi, :)","can_remove":false,"created_time":"2014-01-07T04:47:09+0000","like_count":2,"user_likes":false},"793007160715963":{"id":"793007160715963","from":{"id":"100000603915176","name":"悪いな ぁ"},"message":"Anh Nguyễn hôm nọ nó khoe hát karaoke hay lắm, đi hát toàn được các chị em đòi hát cùng. Chắc là bài này phải dành cho Anh Nguyễn thui :v","message_tags":[{"id":"1146680551","name":"Anh Nguyễn","type":"user","offset":0,"length":10}],"can_remove":false,"created_time":"2014-01-08T08:52:24+0000","like_count":1,"user_likes":false}},"paging":{"cursors":{"after":"NzkxOTk2OTY3NDgzNjQ5","before":"NzkxOTk2OTY3NDgzNjQ5"},"next":"https://graph.facebook.com/229244010425617_791991860817493/comments?limit=1&summary=1&after=NzkxOTk2OTY3NDgzNjQ5"},"summary":{"order":"chronological","total_count":29}}}