{"id":"229244010425617_792537350762944","type":"photo","object_id":"241061326063564","picture":"https://fbcdn-photos-h-a.akamaihd.net/hphotos-ak-prn1/t1.0-0/r90/1555545_241061326063564_2068351061_s.jpg","link":"https://www.facebook.com/photo.php?fbid=241061326063564&set=gm.792537350762944&type=1&relevant_count=1","from":{"id":"100004790944770","name":"Phạm Tuyến"},"message":"Các huynh cho em bjết nghjã hán vjệt của từ này đk hk ạ.\nCả âm おん và くんnữa ạ.","created_time":"2014-01-07T14:13:26+0000","updated_time":"2014-01-08T23:41:30+0000","likes":{"data":{"100002586987315":{"id":"100002586987315","name":"Trần Văn Huấn"},"100004048693053":{"id":"100004048693053","name":"Minh Thu Yagi"},"100006816272836":{"id":"100006816272836","name":"Smartphone Nhật Bản"},"100004251847599":{"id":"100004251847599","name":"Yuki Yuki"},"100005770027426":{"id":"100005770027426","name":"Nặc Danh"},"100000037024030":{"id":"100000037024030","name":"Hung Duc Tran"},"100004790944770":{"id":"100004790944770","name":"Phạm Tuyến"}},"paging":{"cursors":{"after":"MTAwMDAyNTg2OTg3MzE1","before":"MTAwMDAyNTg2OTg3MzE1"},"next":"https://graph.facebook.com/229244010425617_792537350762944/likes?limit=1&summary=1&after=MTAwMDAyNTg2OTg3MzE1"},"summary":{"total_count":7}},"comments":{"data":{"792538540762825":{"id":"792538540762825","from":{"id":"100004790944770","name":"Phạm Tuyến"},"message":"?","can_remove":false,"created_time":"2014-01-07T14:16:01+0000","like_count":0,"user_likes":false},"792538610762818":{"id":"792538610762818","from":{"id":"100004790944770","name":"Phạm Tuyến"},"message":"sao ạ?","can_remove":false,"created_time":"2014-01-07T14:16:08+0000","like_count":0,"user_likes":false},"792538617429484":{"id":"792538617429484","from":{"id":"100003538933297","name":"Phong Linh"},"message":"chài ai, kanji nào đây @@","can_remove":false,"created_time":"2014-01-07T14:16:09+0000","like_count":0,"user_likes":false},"792539027429443":{"id":"792539027429443","from":{"id":"100004790944770","name":"Phạm Tuyến"},"message":"Mai Hoang vs Trần Bảo Ngân 2 cô có biết không ạ?","message_tags":[{"id":"100002060967373","name":"Mai Hoang","type":"user","offset":0,"length":9},{"id":"100000876802397","name":"Trần Bảo Ngân","type":"user","offset":13,"length":13}],"can_remove":false,"created_time":"2014-01-07T14:17:08+0000","like_count":0,"user_likes":false},"792539484096064":{"id":"792539484096064","from":{"id":"100004790944770","name":"Phạm Tuyến"},"message":"hk biết nên ms hỏi @Phong Linh ạ","can_remove":false,"created_time":"2014-01-07T14:18:06+0000","like_count":0,"user_likes":false},"792539977429348":{"id":"792539977429348","from":{"id":"100005057138072","name":"Lưu Tuấn Phát"},"message":"ひらめく/せん","can_remove":false,"created_time":"2014-01-07T14:18:47+0000","like_count":2,"user_likes":false},"792540450762634":{"id":"792540450762634","from":{"id":"100000235206649","name":"Tiptop Nguyễn"},"message":"Chữ này chữ VÃI nhé","can_remove":false,"created_time":"2014-01-07T14:19:56+0000","like_count":1,"user_likes":false},"792541084095904":{"id":"792541084095904","from":{"id":"100003866609108","name":"Thế Béo"},"message":"Ánh sag loé sáng","can_remove":false,"created_time":"2014-01-07T14:21:21+0000","like_count":0,"user_likes":false},"792541344095878":{"id":"792541344095878","from":{"id":"100004095534608","name":"Nguyễn Văn Bình"},"message":"vãi lúa","can_remove":false,"created_time":"2014-01-07T14:21:59+0000","like_count":0,"user_likes":false},"792541997429146":{"id":"792541997429146","from":{"id":"100004790944770","name":"Phạm Tuyến"},"message":"đúng đấy m.n ạ... hk sai tí nào đâu....","can_remove":false,"created_time":"2014-01-07T14:23:12+0000","like_count":0,"user_likes":false},"792542874095725":{"id":"792542874095725","from":{"id":"100004790944770","name":"Phạm Tuyến"},"message":"hán việt là gì ạ Lưu Tuấn Phát???? :)))","message_tags":[{"id":"100005057138072","name":"Lưu Tuấn Phát","type":"user","offset":17,"length":13}],"can_remove":false,"created_time":"2014-01-07T14:25:07+0000","like_count":0,"user_likes":false},"792543187429027":{"id":"792543187429027","from":{"id":"100005770027426","name":"Nặc Danh"},"message":"chữ thiểm","can_remove":false,"created_time":"2014-01-07T14:25:40+0000","like_count":4,"user_likes":false},"792543467428999":{"id":"792543467428999","from":{"id":"100005057138072","name":"Lưu Tuấn Phát"},"message":"chữ Khoáng bạn nhé","can_remove":false,"created_time":"2014-01-07T14:26:22+0000","like_count":0,"user_likes":false},"792543540762325":{"id":"792543540762325","from":{"id":"100001717670462","name":"Hột Zịt Muối"},"message":"Nó có nghĩa lóe sáng hay vung, khua(gươm...). Cách đọc giống bạn ở trên ghi đó bạn","can_remove":false,"created_time":"2014-01-07T14:26:35+0000","like_count":0,"user_likes":false},"792543634095649":{"id":"792543634095649","from":{"id":"1026780646","name":"Việt Hưng Khổng"},"message":"Thiểm: 閃く ひらめく ánh sáng lập loè :v\nhttp://vi.m.wiktionary.org/wiki/thiểm","can_remove":false,"created_time":"2014-01-07T14:26:48+0000","like_count":3,"user_likes":false},"792544214095591":{"id":"792544214095591","from":{"id":"100004790944770","name":"Phạm Tuyến"},"message":"vâng ạ cảm ơn m.n　亜りがとう","can_remove":false,"created_time":"2014-01-07T14:28:21+0000","like_count":0,"user_likes":false},"792544380762241":{"id":"792544380762241","from":{"id":"100001717670462","name":"Hột Zịt Muối"},"message":"Mình chỉ ra được nghĩa từ thôi, mấy bạn tra ra âm hán thế nào hay quá chỉ mình với","can_remove":false,"created_time":"2014-01-07T14:28:52+0000","like_count":0,"user_likes":false},"792544537428892":{"id":"792544537428892","from":{"id":"100005057138072","name":"Lưu Tuấn Phát"},"message":"sr mình nhầm","can_remove":false,"created_time":"2014-01-07T14:29:15+0000","like_count":0,"user_likes":false},"792545300762149":{"id":"792545300762149","from":{"id":"100004790944770","name":"Phạm Tuyến"},"message":"nhầm gì ạ Lưu Tuấn Phát?","message_tags":[{"id":"100005057138072","name":"Lưu Tuấn Phát","type":"user","offset":10,"length":13}],"can_remove":false,"created_time":"2014-01-07T14:30:51+0000","like_count":0,"user_likes":false},"792545450762134":{"id":"792545450762134","from":{"id":"100005057138072","name":"Lưu Tuấn Phát"},"message":"hán việt","can_remove":false,"created_time":"2014-01-07T14:31:09+0000","like_count":0,"user_likes":false},"792545660762113":{"id":"792545660762113","from":{"id":"100000603915176","name":"悪いな ぁ"},"message":"Bạn Tuyến cảm ơn ai vậy? Chữ bạn VHK viết khác chữ của bạn mà! Các bạn mà biết thì hãy nói và ghi rõ âm On hoặc Kun nhé, để còn kiểm chứng.","can_remove":false,"created_time":"2014-01-07T14:31:41+0000","like_count":1,"user_likes":false},"792545930762086":{"id":"792545930762086","from":{"id":"100004790944770","name":"Phạm Tuyến"},"message":"?","can_remove":false,"created_time":"2014-01-07T14:32:29+0000","like_count":0,"user_likes":false},"792548170761862":{"id":"792548170761862","from":{"id":"100005307004792","name":"Kiều Văn"},"message":"bạn ui xem thử bộ chính giữa là bộ  Nhân 人hay bộ Nhập 入","can_remove":false,"created_time":"2014-01-07T14:36:44+0000","like_count":1,"user_likes":false},"792548400761839":{"id":"792548400761839","from":{"id":"100005253157915","name":"Vũ Đạt Phong"},"message":"chữ Môn vs chữ Nhân ah?","can_remove":false,"created_time":"2014-01-07T14:37:17+0000","like_count":1,"user_likes":false},"792548417428504":{"id":"792548417428504","from":{"id":"100004790944770","name":"Phạm Tuyến"},"message":"nhân bạn ạ??","can_remove":false,"created_time":"2014-01-07T14:37:20+0000","like_count":2,"user_likes":false},"792548814095131":{"id":"792548814095131","from":{"id":"100000603915176","name":"悪いな ぁ"},"message":"Thế thì có vẻ của VHK đúng rồi. Để check lại.","can_remove":false,"created_time":"2014-01-07T14:38:20+0000","like_count":0,"user_likes":false},"792549280761751":{"id":"792549280761751","from":{"id":"100000603915176","name":"悪いな ぁ"},"message":"Nhập viết ngược lại cơ Kiều Văn.","can_remove":false,"created_time":"2014-01-07T14:39:01+0000","like_count":2,"user_likes":false},"792549477428398":{"id":"792549477428398","from":{"id":"100005307004792","name":"Kiều Văn"},"message":"dạ hi em nhầm","can_remove":false,"created_time":"2014-01-07T14:39:28+0000","like_count":1,"user_likes":false},"792553587427987":{"id":"792553587427987","from":{"id":"100002355624961","name":"Thành Nguyễn"},"message":"Âm Hán Việt là chữ THIỂM có nghĩa là lóe sáng, chớp, lóe qua. Một số từ liên quan là 紫電一閃 (じてんいっせん), 霹靂閃電 (へきれきせんでん), 光芒一閃 (こうぼういっせん).","can_remove":false,"created_time":"2014-01-07T14:48:56+0000","like_count":0,"user_likes":false},"792553967427949":{"id":"792553967427949","from":{"id":"100007166645331","name":"Nguyễn Sỹ Tuân"},"message":"Chữ THIỂM bạn nhé!","can_remove":false,"created_time":"2014-01-07T14:49:45+0000","like_count":8,"user_likes":false},"792554034094609":{"id":"792554034094609","from":{"id":"100007166645331","name":"Nguyễn Sỹ Tuân"},"message":"","can_remove":false,"created_time":"2014-01-07T14:49:55+0000","like_count":2,"user_likes":false},"792556294094383":{"id":"792556294094383","from":{"id":"100001190620302","name":"Greenearth Love"},"message":"Nguyễn Sỹ Tuân Phần mềm gì đấy bán","message_tags":[{"id":"100007166645331","name":"Nguyễn Sỹ Tuân","type":"user","offset":0,"length":14}],"can_remove":false,"created_time":"2014-01-07T14:55:26+0000","like_count":1,"user_likes":false},"792557830760896":{"id":"792557830760896","from":{"id":"100004790944770","name":"Phạm Tuyến"},"message":"nhân ở trong bộ môn ạ????","can_remove":false,"created_time":"2014-01-07T14:59:10+0000","like_count":0,"user_likes":false},"792802054069807":{"id":"792802054069807","from":{"id":"100007166645331","name":"Nguyễn Sỹ Tuân"},"message":"Greenearth Love: mình dùng google tra mà b ! Hic","can_remove":false,"created_time":"2014-01-07T22:27:49+0000","like_count":0,"user_likes":false},"792861540730525":{"id":"792861540730525","from":{"id":"100005744975477","name":"Tuyết Mùa Hè"},"message":"Từ này ko cần thiết. N1 cũng ko sử dụng đến đâu","can_remove":false,"created_time":"2014-01-08T01:01:52+0000","like_count":0,"user_likes":false},"792870924062920":{"id":"792870924062920","from":{"id":"100004693504211","name":"Nam Le"},"message":"","can_remove":false,"created_time":"2014-01-08T01:34:53+0000","like_count":1,"user_likes":false},"793210960695583":{"id":"793210960695583","from":{"id":"100004826612667","name":"Đào Hạnh"},"message":"Đưa cho người Nhật xem còn bị hỏi lại là chữ gì (u_u) thì mình nghĩ k nhất thiết phải học từ đó ! Để chỗ trống trong đầu mà học từ khác thì tốt hơn^_−☆","can_remove":false,"created_time":"2014-01-08T17:52:03+0000","like_count":0,"user_likes":false},"793338244016188":{"id":"793338244016188","from":{"id":"100005744975477","name":"Tuyết Mùa Hè"},"message":"T nghĩ đó là chữ đợi :v","can_remove":false,"created_time":"2014-01-08T23:41:30+0000","like_count":0,"user_likes":false}},"paging":{"cursors":{"after":"NzkyNTM4NTQwNzYyODI1","before":"NzkyNTM4NTQwNzYyODI1"},"next":"https://graph.facebook.com/229244010425617_792537350762944/comments?limit=1&summary=1&after=NzkyNTM4NTQwNzYyODI1"},"summary":{"order":"chronological","total_count":42}}}