{"id":"229244010425617_792538994096113","type":"video","picture":"https://fbexternal-a.akamaihd.net/safe_image.php?d=AQCG3JtBDaIgitpQ&w=130&h=130&url=http%3A%2F%2Fi1.ytimg.com%2Fvi%2FpNKAIKscyG8%2Fmaxresdefault.jpg","link":"http://www.youtube.com/watch?v=pNKAIKscyG8","source":"http://www.youtube.com/v/pNKAIKscyG8?autohide=1&version=3&autoplay=1","from":{"id":"100001458099624","name":"Kham Pha"},"message":"[Học tiếng Nhật qua bài hát] 卒業写真-Bức ảnh tốt nghiệp\n\nBiết giới thiệu với các bạn thế nào về bài hát này nhỉ. Đây là một bài hát cực hay và rất nổi tiếng ở Nhật, tuy nhiên với đa số các bạn trẻ hiện nay thì không hề biết đến. Để dẫn chứng cho sự thông dụng của bài hát này mình xin được trích dẫn một câu nói dưới đây của một anh người Nhật đã comment dưới link bài hát này của mình trên facebook:\n「この歌は1975年にユーミン、松任谷由実（まつとうや ゆみ）という人が作った曲で、日本ではたぶんみんな知っていると思う。私も子供のころ、レコードでよく聴いていた歌なので、なつかしいです。」\n\n“Bài hát này được Matsutouya Yumi sáng tác năm 1975, ở Nhật thì có lẽ ai cũng biết bài này. Thời tôi còn bé cũng thường nghe qua đĩa hát, giờ nghe lại thấy nhớ hồi ấy quá.”\n\nhttp://www.youtube.com/watch?v=pNKAIKscyG8\n\nNào chúng ta cùng bắt đầu.\n\n（１）悲しいことがあると開く皮の表紙\n“Mỗi khi có chuyện buồn anh/em lại giở cuốn sách bọc bìa da”\n\n悲（かな）しい：buồn\n開（ひら）く：mở ra. Có một từ khác cũng nghĩa “mở ra” là 開ける theo các bạn chúng khác nhau thế nào?\n皮（かわ）：da\n表紙（ひょうし）：bìa\n\n（２）卒業写真のあの人はやさしい目をしてる\n“Trong bức ảnh tốt nghiệp, đôi mắt người ấy thật dịu dàng”\n\n（卒業）そつぎょう：tốt nghiệp\nやさしい: dịu dàng\n\n（３）町でみかけたとき　何も言えなかった\n“Trên phố khi ánh mắt hai ta chạm nhau anh/em đã chẳng nói lên lời ”\n\n町（まち）：phố\n見かける：2 mắt chạm nhau\n\n（４）卒業写真の面影がそのままだったから\n“Hình bóng anh/em trong bức ảnh tốt nghiệp vẫn mãi như vậy”\n\n面影（おもかげ）：hình bóng. Sử dụng cực nhiều trong các bài hát Nhật. Các bạn xem lại các bài trước trên đầu group sẽ thấy ngay.\nそのまま：vẫn như vậy.\n\n（５）人ごみに流されて　変わってゆく私を（６）あなたはときどき　遠くでしかって\n“Mai này nếu anh/em có bị dòng người cuốn trôi làm cho thay đổi, thỉnh thoảng em/anh hãy từ nơi xa mắng anh/em nhé”\n\n人混み：dòng người, đám đông.\n流（なが）す：cuốn trôi. Ví dụ khi vào toa lét bạn xả nước, đó gọi là 水を流す. ながされる thể bị động của nó.\nかわってゆく＝かわっていく: thể hiện một QUÁ TRÌNH biến đổi chứ ko đơn thuần là một TRẠNG THÁI biến đổi. Các bạn có thể xem bài “Sakura” ở note trên đầu group, mình đã giải thích rất kĩ.\n時々（ときどき）：đôi khi\n遠（とお）くで：ở nơi xa.\n\n（７）話しかけるようにゆれる柳の下を（８）通った道さえ今はもう電車から見るだけ\n\nĐây là một câu hát rất dài, và rất khó dịch. Nhưng hình ảnh của nó thì đẹp vô cùng. Chúng ta hãy phân tích từng phần của nó để hiểu rõ hơn. \n\nはなしかける：nói dang dở\n揺（ゆれ）れる：rung động\n柳（やなぎ）： liễu\n通（かよ）う：đi qua lại\nさえ：ngay cả. Đằng trước nó là một danh từ.　\nだけ：chỉ. Trước nó có thể là danh từ hoặc động từ nguyên thể. Trong bài này 見るだけ là chỉ nhìn.\n\n話しかけるようにゆれる柳の下: bên dưới hàng liễu rung rinh như đang nói chuyện\n話しかけるようにゆれる柳の下を通った道: con đường bên dưới hàng liễu ( rung rinh như đang nói chuyện) chúng ta thường đi qua. \n話しかけるようにゆれる柳の下を通った道さえ: ngay cả con đường bên dưới hàng liễu ( rung rinh như đang nói chuyện) chúng ta thường đi qua. \n\n今はもう電車から見るだけ: giờ chỉ có thể nhìn từ trên tàu điện. \n\nDịch ra chưa trọn vẹn lắm nhưng tổng hợp lại chúng ta có.\n“Hàng liễu rung rinh như đang nói chuyện, con đường bên dưới giờ cũng chỉ có thể nhìn từ trên tàu điện”\n\nNếu các bạn nghĩ ra cách dịch đẹp hơn cho câu này thì hãy bảo mọi người :)\n\n（９）あの頃の生き方を　あなたは忘れないで\n“Cách sống của ngày ấy, anh đừng bao giờ quên nhé”\n\n頃（ごろ）：thời buổi, khoảng thời gian. Ví dụ: 子供頃（hồi bé）、若い頃（thời trẻ）\n生き方（いきかた）：cách sống\n\n（１０）あなたは　私の青春　そのもの\n“Anh chính là tuổi thanh xuân của em.”\n\n青春（せいしゅん）：thanh xuân. Chú ý là chỉ có 青春時代 (thời trẻ, thời thanh xuân) chứ ko có 青春頃 đâu nhé.\nそのもの：chính cái ấy (nhấn mạnh)\n\n（１１）人ごみに流されて　変わってゆく私を\n（１２）あなたはときどき　遠くでしかって\n（１３）あなたは　私の青春　そのもの\n\nLời bài hát này đến đây là hết rồi. Để xem thêm các bài thuộc cùng chuyên mục \"Học tiếng Nhật qua bài hát\" các bạn có thể vào link dưới đây :)\n\nhttps://www.facebook.com/notes/704103182939695\n\n--Kham Pha\nCộng đồng Việt Nhật.\nhttps://www.facebook.com/groups/CongdongVietNhat/","created_time":"2014-01-07T14:17:00+0000","updated_time":"2014-01-07T18:08:16+0000","likes":{"data":{"100001062202744":{"id":"100001062202744","name":"Hoang Garu"},"100000226646981":{"id":"100000226646981","name":"My Nguyen"},"100000147414000":{"id":"100000147414000","name":"Nguyễn Công Thắng"},"100003105034037":{"id":"100003105034037","name":"Pham Oanh"},"100001051044941":{"id":"100001051044941","name":"Khanh Trung"},"100003686602180":{"id":"100003686602180","name":"Linh Pham"},"100005620957314":{"id":"100005620957314","name":"Nguyễn Trọng Thái"},"1103173052":{"id":"1103173052","name":"Uyên Nguyễn"},"100004502289449":{"id":"100004502289449","name":"Thủy Nguyên"},"100001546217296":{"id":"100001546217296","name":"Steve Giáp"},"100002508122689":{"id":"100002508122689","name":"Vũ Mạnh Tuấn"},"100001864793577":{"id":"100001864793577","name":"Sakura Đhbkhn"},"100002762270141":{"id":"100002762270141","name":"Mien Nguyen"},"1811686621":{"id":"1811686621","name":"Umi Ryuuzaki"},"100001754136107":{"id":"100001754136107","name":"Nguyễn Tuấn Vũ"},"100000089472724":{"id":"100000089472724","name":"Duy Nguyen"},"1146680551":{"id":"1146680551","name":"優しい なぁ"},"100000340130908":{"id":"100000340130908","name":"B.n. Tùng"},"100000062835678":{"id":"100000062835678","name":"Chau Tuyet Bao Ngan"},"100004479249799":{"id":"100004479249799","name":"Phương Thảo"},"100003961308936":{"id":"100003961308936","name":"Isabella Nhi Phan"},"1828906841":{"id":"1828906841","name":"Trọng Nghĩa Bùi"},"100002290906582":{"id":"100002290906582","name":"Kanashimi No Yukue"},"100002630333938":{"id":"100002630333938","name":"Huong Le"},"1821970083":{"id":"1821970083","name":"Nguyễn Mạnh Cường"},"100002288193040":{"id":"100002288193040","name":"Dung Thuy"},"100003155380603":{"id":"100003155380603","name":"Khuong Pham"},"100001571041179":{"id":"100001571041179","name":"Khôi Nguyễn Văn"},"100002898154513":{"id":"100002898154513","name":"Gã Shrek"},"100005024348771":{"id":"100005024348771","name":"Long Hoàng"},"1725907325":{"id":"1725907325","name":"Nguyen Van Dung"},"100001526631937":{"id":"100001526631937","name":"Tường Oanh Mineko"},"100002355624961":{"id":"100002355624961","name":"Thành Nguyễn"},"100001442509723":{"id":"100001442509723","name":"Nguyễn Mai Anh"},"100000250256418":{"id":"100000250256418","name":"Nguyen Viet Anh"}},"paging":{"cursors":{"after":"MTAwMDAxMDYyMjAyNzQ0","before":"MTAwMDAxMDYyMjAyNzQ0"},"next":"https://graph.facebook.com/229244010425617_792538994096113/likes?limit=1&summary=1&after=MTAwMDAxMDYyMjAyNzQ0"},"summary":{"total_count":37}},"comments":{"data":{"792549934095019":{"id":"792549934095019","from":{"id":"1146680551","name":"優しい なぁ"},"message":"Sao vắng như chùa thế này.Cái này hay mừ. Chú Mạnh Mómmém","message_tags":[{"id":"100002971492867","name":"Mạnh Mómmém","type":"user","offset":46,"length":11}],"can_remove":false,"created_time":"2014-01-07T14:40:24+0000","like_count":0,"user_likes":false},"792553490761330":{"id":"792553490761330","from":{"id":"100001458099624","name":"Kham Pha"},"message":"chú Mạnh Mómmém làm anh tự kỷ quá :(","message_tags":[{"id":"100002971492867","name":"Mạnh Mómmém","type":"user","offset":4,"length":11}],"can_remove":false,"created_time":"2014-01-07T14:48:39+0000","like_count":0,"user_likes":false},"792580204091992":{"id":"792580204091992","from":{"id":"100003961308936","name":"Isabella Nhi Phan"},"message":"hay quá, mình thích cách học tiếng Nhật theo kiểu này, vừa được nghe nhạc, lại vừa học được kha khá từ vựng nữa :3 like like like <3","can_remove":false,"created_time":"2014-01-07T15:38:52+0000","like_count":2,"user_likes":false},"792586780758001":{"id":"792586780758001","from":{"id":"1146680551","name":"優しい なぁ"},"message":"nhờ a mở hàng :))","can_remove":false,"created_time":"2014-01-07T15:55:02+0000","like_count":0,"user_likes":false},"792598887423457":{"id":"792598887423457","from":{"id":"100002762270141","name":"Mien Nguyen"},"message":"Bài kia phân tích ngữ pháp nhiều hơn :-) lại đánh vào những người đang yêu nữa (^_^;) hị hị .","can_remove":false,"created_time":"2014-01-07T16:24:49+0000","like_count":0,"user_likes":false},"792613460755333":{"id":"792613460755333","from":{"id":"100001458099624","name":"Kham Pha"},"message":"có lẽ nhiều người thích giai điệu và câu chữ bài kia hơn vì nó thể hiện rất rõ tình cảm trong đó. Riêng mình thấy rất thích bài này, và cảm giác nó chứa đựng những tình cảm rất Nhật :)","can_remove":false,"created_time":"2014-01-07T16:55:35+0000","like_count":1,"user_likes":false},"792647710751908":{"id":"792647710751908","from":{"id":"738235689","name":"Dang Thi Phuong"},"message":"懐かしい歌です。12年前私は卒業式で学校の全員で歌った事が有りました。涙が流れた歌でした。","can_remove":false,"created_time":"2014-01-07T18:08:16+0000","like_count":2,"user_likes":false}},"paging":{"cursors":{"after":"NzkyNTQ5OTM0MDk1MDE5","before":"NzkyNTQ5OTM0MDk1MDE5"},"next":"https://graph.facebook.com/229244010425617_792538994096113/comments?limit=1&summary=1&after=NzkyNTQ5OTM0MDk1MDE5"},"summary":{"order":"chronological","total_count":8}}}