{"id":"229244010425617_792511107432235","type":"status","from":{"id":"100000359762118","name":"Mi Tra"},"message":"Tin Hot. \nCông Vinh đã rời Sapporo???? \n\nMình đang bận, bạn nào có thể giúp mình dịch tóm lược nội dung qua tiếng Việt được không??\n\n【札幌】ビン退団　獲得合意も急転ベトナム復帰\n\nスポーツ報知 1月7日 7時3分\n　Ｊ２コンサドーレ札幌は６日、獲得を目指していたベトナム代表ＦＷレ・コン・ビン（２８）との交渉打ち切りを決めた。ビンは期限付き移籍元の母国ソンラム・ゲアンに復帰する。\n\n　突然の心変わりが、急転退団の要因だった。昨年１２月２８日に三上大勝ＧＭ（４２）がビンに最後の意思確認をし、札幌での２年目のプレーに合意。ゲアン側に支払う完全移籍金も用意し、年明けに正式発表する予定だった。しかし４日、ビンが現地の公の場で「ゲアンでプレーする」と宣言したことが発覚。代理人らに確認したところ、ビンが自身の意思で発言したことが分かったため、これ以上の話し合いの余地はないと判断した。\n\n　ビンとは連絡が取れていないため、三上ＧＭも「だまされた気分も、正直、本意は分からない」とし「最後の最後で金でゲアンを捨てたと国内で思われたくなかったのでは」と続けた。英雄と呼ばれる国民的スターのビンが、世論に屈し札幌を裏切った格好となった。\n\n　予期せぬ退団だが、三上ＧＭは「４位以内の目標に向け、中盤より前線の層は厚くした。ビンも定位置は難しいかもと思っていたくらいなので、チーム力が大きくダウンしたとはとらえていない」と言い切った。獲得に動いていた元日本代表ＭＦ小野伸二（３４）＝ウエスタン・シドニー・ワンダラーズ＝についても、遅くとも７月には加入することがこの日、決まった。Ｊ１昇格へ、ビン退団は痛手にはならない。\n\nNguồn: Yahoo Japan New","created_time":"2014-01-07T13:18:32+0000","updated_time":"2014-01-07T18:09:09+0000","likes":{"data":{"100006561824833":{"id":"100006561824833","name":"Hà Thuý"},"100003742517006":{"id":"100003742517006","name":"Huế Himawari"},"100004697134434":{"id":"100004697134434","name":"Thảo Xexekubo"},"100004253979918":{"id":"100004253979918","name":"Louis Hoàng Văn Thái"},"100000309153854":{"id":"100000309153854","name":"Pham Thuong"},"100003106327650":{"id":"100003106327650","name":"Nguyễn Nam Phóng"},"100002409268424":{"id":"100002409268424","name":"Lê Nguyệt Minh"}},"paging":{"cursors":{"after":"MTAwMDA2NTYxODI0ODMz","before":"MTAwMDA2NTYxODI0ODMz"},"next":"https://graph.facebook.com/229244010425617_792511107432235/likes?limit=1&summary=1&after=MTAwMDA2NTYxODI0ODMz"},"summary":{"total_count":8}},"comments":{"data":{"792511614098851":{"id":"792511614098851","from":{"id":"100000054665103","name":"John Nguyễn"},"message":"mình đọc ko hiểu , bạn dịch sơ lược giúp mình dc ko","can_remove":false,"created_time":"2014-01-07T13:20:12+0000","like_count":1,"user_likes":false},"792514544098558":{"id":"792514544098558","from":{"id":"100004776940538","name":"Kendy Lee"},"message":"Tạm dịch:\nSau khi chém gió về mức lương khủng và căn hộ, xe (đạp) riêng, anh Vinh quay về Vn để đóng góp công sức cho đội tuyển nước nhà và 1 phần vì sợ cô bồ Thuỷ Tiên theo thằng khác.","can_remove":false,"created_time":"2014-01-07T13:26:46+0000","like_count":2,"user_likes":false},"792530944096918":{"id":"792530944096918","from":{"id":"100000133587536","name":"Mei Ki"},"message":"dự đình là chơi o sapporo 2 nam , nhưng lại tự ý bỏ về vn chơi cho slna, GM đã cố gắng liên lạc với công vinh nhưng không đươc, công vinh ngôi sao trong lòng công chúng hay được gọi là anh hùng đã phản bội sappro ,vì anh nghi với năng lực của đội bóng bây giờ muc tiêu vươn lên vị trí top 4 la rất khó","can_remove":false,"created_time":"2014-01-07T13:59:33+0000","like_count":1,"user_likes":false},"792536354096377":{"id":"792536354096377","from":{"id":"100001416272263","name":"Mai PB"},"message":"\"Sapporo cảm thấy như bị lừa\".","can_remove":false,"created_time":"2014-01-07T14:10:32+0000","like_count":0,"user_likes":false},"792536947429651":{"id":"792536947429651","from":{"id":"100000603915176","name":"悪いな ぁ"},"message":"コン・ビンは誰か。。。","can_remove":false,"created_time":"2014-01-07T14:12:27+0000","like_count":2,"user_likes":false},"792554260761253":{"id":"792554260761253","from":{"id":"1146680551","name":"優しい なぁ"},"message":"Công Vinh là ai vậy ?","can_remove":false,"created_time":"2014-01-07T14:50:30+0000","like_count":0,"user_likes":false},"792554614094551":{"id":"792554614094551","from":{"id":"100000603915176","name":"悪いな ぁ"},"message":"Có vẻ là hot boy của Mi Tra :v","message_tags":[{"id":"100000359762118","name":"Mi Tra","type":"user","offset":21,"length":6}],"can_remove":false,"created_time":"2014-01-07T14:51:41+0000","like_count":0,"user_likes":false},"792555790761100":{"id":"792555790761100","from":{"id":"1146680551","name":"優しい なぁ"},"message":"vậy á.Giờ mới biết.Thật sự là trên đời ghét nhất 2 từ.\"...\" lú với Công Vinh","can_remove":false,"created_time":"2014-01-07T14:54:11+0000","like_count":0,"user_likes":false},"792556030761076":{"id":"792556030761076","from":{"id":"100000603915176","name":"悪いな ぁ"},"message":"... là cái gì, có giỏi ghi rõ ra xem nào!","can_remove":false,"created_time":"2014-01-07T14:54:52+0000","like_count":0,"user_likes":false},"792556254094387":{"id":"792556254094387","from":{"id":"1146680551","name":"優しい なぁ"},"message":"Bác bị lú giống ... nên k hiểu à :v","can_remove":false,"created_time":"2014-01-07T14:55:19+0000","like_count":0,"user_likes":false},"792556470761032":{"id":"792556470761032","from":{"id":"100000603915176","name":"悪いな ぁ"},"message":"Anh ghét dấu ...=))","can_remove":false,"created_time":"2014-01-07T14:55:51+0000","like_count":0,"user_likes":false},"792644557418890":{"id":"792644557418890","from":{"id":"100000359762118","name":"Mi Tra"},"message":"CV ko phải thần tượng gì của em hết trơn ý. \nChẳng qua trong event sắp tổ chức, một số bạn có ý kiến mời Công Vinh đêr thu hút sự quan tâm. Chưa kịp bàn, tối đi làm về đã đọc được tin này.","can_remove":false,"created_time":"2014-01-07T17:59:26+0000","like_count":0,"user_likes":false},"792644837418862":{"id":"792644837418862","from":{"id":"100000359762118","name":"Mi Tra"},"message":"Mà \"...\" Của anh Anh Nguyễn là gì thế? \nÚp úp mở mở, giời đoán.","can_remove":false,"created_time":"2014-01-07T18:00:16+0000","like_count":0,"user_likes":false},"792645817418764":{"id":"792645817418764","from":{"id":"1146680551","name":"優しい なぁ"},"message":"Hehe chuyện đàn ông chúng mình.e sao k ngủ đi.giờ còn Công vinh j nữa.k mời a.a đá hay hơn CV nè,handsome hơn nữa chứ :))","can_remove":false,"created_time":"2014-01-07T18:03:03+0000","like_count":0,"user_likes":false},"792646300752049":{"id":"792646300752049","from":{"id":"100000359762118","name":"Mi Tra"},"message":"Ẹ. Nghe tới đây chắc đi ngủ luôn","can_remove":false,"created_time":"2014-01-07T18:04:31+0000","like_count":0,"user_likes":false},"792646604085352":{"id":"792646604085352","from":{"id":"100000603915176","name":"悪いな ぁ"},"message":"À ơi!!!","can_remove":false,"created_time":"2014-01-07T18:05:21+0000","like_count":0,"user_likes":false},"792646797418666":{"id":"792646797418666","from":{"id":"100000359762118","name":"Mi Tra"},"message":"Tưởng mình em cú đêm, ai dè cả đàn cú ^^","can_remove":false,"created_time":"2014-01-07T18:06:08+0000","like_count":0,"user_likes":false},"792647210751958":{"id":"792647210751958","from":{"id":"100000603915176","name":"悪いな ぁ"},"message":"Đến giờ kiếm mồi em ạ :D","can_remove":false,"created_time":"2014-01-07T18:07:06+0000","like_count":0,"user_likes":false},"792647570751922":{"id":"792647570751922","from":{"id":"1146680551","name":"優しい なぁ"},"message":"FA h đông và hung hãn quá","can_remove":false,"created_time":"2014-01-07T18:07:54+0000","like_count":0,"user_likes":false},"792647594085253":{"id":"792647594085253","from":{"id":"100000359762118","name":"Mi Tra"},"message":"Em cũng đang tích cực ... diệt mồi ^^","can_remove":false,"created_time":"2014-01-07T18:07:59+0000","like_count":1,"user_likes":false},"792648067418539":{"id":"792648067418539","from":{"id":"100000603915176","name":"悪いな ぁ"},"message":"Hung hãn nhất vẫn là chú, đâu có FM nơi đó có chú =))","can_remove":false,"created_time":"2014-01-07T18:09:09+0000","like_count":1,"user_likes":false}},"paging":{"cursors":{"after":"NzkyNTExNjE0MDk4ODUx","before":"NzkyNTExNjE0MDk4ODUx"},"next":"https://graph.facebook.com/229244010425617_792511107432235/comments?limit=1&summary=1&after=NzkyNTExNjE0MDk4ODUx"},"summary":{"order":"chronological","total_count":21}}}