{"id":"229244010425617_792541064095906","type":"status","from":{"id":"100004095534608","name":"Nguyễn Văn Bình"},"message":"tình hình kinh tế bên Nhật thế nào vậy các bác!","created_time":"2014-01-07T14:21:18+0000","updated_time":"2014-01-10T03:47:58+0000","likes":{"data":{"100000077245301":{"id":"100000077245301","name":"Eddie Smile"},"100000270917152":{"id":"100000270917152","name":"Hoàng Anh Tuân"},"100002829897061":{"id":"100002829897061","name":"Xiêu Nhân"},"100001971653484":{"id":"100001971653484","name":"Sakura Sakura"},"100002549133838":{"id":"100002549133838","name":"Người Dùng Phây Búc"}},"paging":{"cursors":{"after":"MTAwMDAwMDc3MjQ1MzAx","before":"MTAwMDAwMDc3MjQ1MzAx"},"next":"https://graph.facebook.com/229244010425617_792541064095906/likes?limit=1&summary=1&after=MTAwMDAwMDc3MjQ1MzAx"},"summary":{"total_count":5}},"comments":{"data":{"792542230762456":{"id":"792542230762456","from":{"id":"100002966928087","name":"Nguyen van Dat"},"message":"1 năm kinh tế buồn,","can_remove":false,"created_time":"2014-01-07T14:23:42+0000","like_count":0,"user_likes":false},"792543204095692":{"id":"792543204095692","from":{"id":"100000028932078","name":"Ngọc Mính"},"message":"giá cả leo thang,đời sống khốn khổ lắm :3","can_remove":false,"created_time":"2014-01-07T14:25:42+0000","like_count":1,"user_likes":false},"792543527428993":{"id":"792543527428993","from":{"id":"100004095534608","name":"Nguyễn Văn Bình"},"message":"chết thật thế mak tháng 5 e bay sang rùi","can_remove":false,"created_time":"2014-01-07T14:26:34+0000","like_count":0,"user_likes":false},"792543807428965":{"id":"792543807428965","from":{"id":"100002966928087","name":"Nguyen van Dat"},"message":"có mỗi cái tiền yên quan trọng nhất thì cang ngàng càng thấp","can_remove":false,"created_time":"2014-01-07T14:27:15+0000","like_count":3,"user_likes":false},"792544044095608":{"id":"792544044095608","from":{"id":"100004095534608","name":"Nguyễn Văn Bình"},"message":"e đăng nó là cái đồng tiền Man xuống thấp và k được làm thêm đây","can_remove":false,"created_time":"2014-01-07T14:28:04+0000","like_count":0,"user_likes":false},"792544327428913":{"id":"792544327428913","from":{"id":"100002966928087","name":"Nguyen van Dat"},"message":"có sen hai rồi à,ko dc làm thêm thì đói rách mồng tơi ra","can_remove":false,"created_time":"2014-01-07T14:28:45+0000","like_count":0,"user_likes":false},"792544520762227":{"id":"792544520762227","from":{"id":"100004095534608","name":"Nguyễn Văn Bình"},"message":"the moi kho","can_remove":false,"created_time":"2014-01-07T14:29:13+0000","like_count":0,"user_likes":false},"792544660762213":{"id":"792544660762213","from":{"id":"100002966928087","name":"Nguyen van Dat"},"message":"ngành gì","can_remove":false,"created_time":"2014-01-07T14:29:29+0000","like_count":0,"user_likes":false},"792544704095542":{"id":"792544704095542","from":{"id":"100002966928087","name":"Nguyen van Dat"},"message":"đi hết nhiều tiền ko","can_remove":false,"created_time":"2014-01-07T14:29:40+0000","like_count":0,"user_likes":false},"792544960762183":{"id":"792544960762183","from":{"id":"100004095534608","name":"Nguyễn Văn Bình"},"message":"đúc","can_remove":false,"created_time":"2014-01-07T14:30:16+0000","like_count":0,"user_likes":false},"792544980762181":{"id":"792544980762181","from":{"id":"100004095534608","name":"Nguyễn Văn Bình"},"message":"ah ak","can_remove":false,"created_time":"2014-01-07T14:30:18+0000","like_count":0,"user_likes":false},"792545104095502":{"id":"792545104095502","from":{"id":"100004095534608","name":"Nguyễn Văn Bình"},"message":"bac sang lau chua?","can_remove":false,"created_time":"2014-01-07T14:30:25+0000","like_count":0,"user_likes":false},"792545124095500":{"id":"792545124095500","from":{"id":"100002966928087","name":"Nguyen van Dat"},"message":"đúc nhựa à","can_remove":false,"created_time":"2014-01-07T14:30:29+0000","like_count":0,"user_likes":false},"792545260762153":{"id":"792545260762153","from":{"id":"100004095534608","name":"Nguyễn Văn Bình"},"message":"đồng bác ak","can_remove":false,"created_time":"2014-01-07T14:30:48+0000","like_count":0,"user_likes":false},"792545264095486":{"id":"792545264095486","from":{"id":"100002966928087","name":"Nguyen van Dat"},"message":"mệt vãi ra,tôi cũng làm đúc này","can_remove":false,"created_time":"2014-01-07T14:30:48+0000","like_count":0,"user_likes":false},"792545417428804":{"id":"792545417428804","from":{"id":"100004095534608","name":"Nguyễn Văn Bình"},"message":"có nhu cầu đúc cả người hihiu","can_remove":false,"created_time":"2014-01-07T14:31:04+0000","like_count":0,"user_likes":false},"792545477428798":{"id":"792545477428798","from":{"id":"100004095534608","name":"Nguyễn Văn Bình"},"message":"ặc!","can_remove":false,"created_time":"2014-01-07T14:31:11+0000","like_count":0,"user_likes":false},"792545487428797":{"id":"792545487428797","from":{"id":"100002966928087","name":"Nguyen van Dat"},"message":"thế còn mệt hơn,có sen hai rồi à","can_remove":false,"created_time":"2014-01-07T14:31:12+0000","like_count":0,"user_likes":false},"792545597428786":{"id":"792545597428786","from":{"id":"100004095534608","name":"Nguyễn Văn Bình"},"message":"vay ak! e ở bắc ninh bắc ở đâu","can_remove":false,"created_time":"2014-01-07T14:31:25+0000","like_count":0,"user_likes":false},"792545697428776":{"id":"792545697428776","from":{"id":"100002966928087","name":"Nguyen van Dat"},"message":"đi hết nhiều tiền ko","can_remove":false,"created_time":"2014-01-07T14:31:46+0000","like_count":0,"user_likes":false},"792545787428767":{"id":"792545787428767","from":{"id":"100004095534608","name":"Nguyễn Văn Bình"},"message":"e di het 200tr","can_remove":false,"created_time":"2014-01-07T14:32:04+0000","like_count":0,"user_likes":false},"792545914095421":{"id":"792545914095421","from":{"id":"100002966928087","name":"Nguyen van Dat"},"message":"công ty nao,đặt coc nhiều ko","can_remove":false,"created_time":"2014-01-07T14:32:27+0000","like_count":0,"user_likes":false},"792545937428752":{"id":"792545937428752","from":{"id":"100004095534608","name":"Nguyễn Văn Bình"},"message":"chưa kể tiền ăn uống chi tiêu 6thang hoc","can_remove":false,"created_time":"2014-01-07T14:32:30+0000","like_count":0,"user_likes":false},"792546010762078":{"id":"792546010762078","from":{"id":"100002966928087","name":"Nguyen van Dat"},"message":"tms hả","can_remove":false,"created_time":"2014-01-07T14:32:40+0000","like_count":0,"user_likes":false},"792550337428312":{"id":"792550337428312","from":{"id":"100000235206649","name":"Tiptop Nguyễn"},"message":"Người Nhật đang cho thanh niên bên đó đi đăng kí xuất khẩu lao động ở Việt Nam nhé bạn","can_remove":false,"created_time":"2014-01-07T14:41:19+0000","like_count":0,"user_likes":false},"792563284093684":{"id":"792563284093684","from":{"id":"100001824172942","name":"Phan Van"},"message":"Tiptop Nguyễn linh tinh","message_tags":[{"id":"100000235206649","name":"Tiptop Nguyễn","type":"user","offset":0,"length":13}],"can_remove":false,"created_time":"2014-01-07T15:11:44+0000","like_count":1,"user_likes":false},"792566684093344":{"id":"792566684093344","from":{"id":"100004095534608","name":"Nguyễn Văn Bình"},"message":"kieu nay chet het.","can_remove":false,"created_time":"2014-01-07T15:16:18+0000","like_count":0,"user_likes":false},"792567230759956":{"id":"792567230759956","from":{"id":"100000235206649","name":"Tiptop Nguyễn"},"message":":p","can_remove":false,"created_time":"2014-01-07T15:17:40+0000","like_count":0,"user_likes":false},"792596807423665":{"id":"792596807423665","from":{"id":"100004318983882","name":"お酒"},"message":"Ở nhà ăn tết va gđ là vui rồi","can_remove":false,"created_time":"2014-01-07T16:19:36+0000","like_count":0,"user_likes":false},"792885060728173":{"id":"792885060728173","from":{"id":"100004095534608","name":"Nguyễn Văn Bình"},"message":"còn có năm nay thui. các bác ạ!","can_remove":false,"created_time":"2014-01-08T02:13:52+0000","like_count":0,"user_likes":false},"792917540724925":{"id":"792917540724925","from":{"id":"100001824172942","name":"Phan Van"},"message":"Cậu Pé Kẹo Mút còn năm nay sao cơ bạn","message_tags":[{"id":"100004095534608","name":"Cậu Pé Kẹo Mút","type":"user","offset":0,"length":14}],"can_remove":false,"created_time":"2014-01-08T03:50:18+0000","like_count":1,"user_likes":false},"792921454057867":{"id":"792921454057867","from":{"id":"100004095534608","name":"Nguyễn Văn Bình"},"message":"ukm! thang 5 to bay sag nhat rui. an tet nam nay o nha thui. con 3nam sau co kha nang 5nam k dc a tet que rui.","can_remove":false,"created_time":"2014-01-08T03:56:32+0000","like_count":1,"user_likes":false},"792976820718997":{"id":"792976820718997","from":{"id":"100001458099624","name":"Kham Pha"},"message":"Cậu Pé Kẹo Mút sao ko viết tiếng Việt có dấu? Nếu ko sửa các comment viết ko dấu thì post của bạn sẽ bị xóa và bạn cũng sẽ đc đưa vào danh sách đen của group đó.","message_tags":[{"id":"100004095534608","name":"Cậu Pé Kẹo Mút","type":"user","offset":0,"length":14}],"can_remove":false,"created_time":"2014-01-08T06:54:59+0000","like_count":0,"user_likes":false},"793030497380296":{"id":"793030497380296","from":{"id":"100004095534608","name":"Nguyễn Văn Bình"},"message":"vậy ak!","can_remove":false,"created_time":"2014-01-08T10:19:38+0000","like_count":0,"user_likes":false},"793036874046325":{"id":"793036874046325","from":{"id":"100007055280592","name":"Phạm Hồng Đỉnh"},"message":"Mặn","can_remove":false,"created_time":"2014-01-08T10:46:56+0000","like_count":0,"user_likes":false},"793706727312673":{"id":"793706727312673","from":{"id":"100000077245301","name":"Eddie Smile"},"message":"Một việc đủ chi tiêu. Ko làm thì chết đói ko dư xu nào :)))","can_remove":false,"created_time":"2014-01-09T17:43:51+0000","like_count":1,"user_likes":false},"793907220625957":{"id":"793907220625957","from":{"id":"100001416272263","name":"Mai PB"},"message":"Kinh tế buồn? Giá cả leo thang? Có nhầm Nhật với Việt không đó? Giá cả ở Nhật mấy chục năm nay vẫn vậy nhé. Còn kinh tế thì tốt hơn nhiều các nước phát triển ở châu Âu, chỉ kém Mỹ chút. Toyota lợi nhuận kỷ lục. Đi làm baito bị mất việc đừng nói kinh tế buồn. :-)","can_remove":false,"created_time":"2014-01-10T02:51:26+0000","like_count":6,"user_likes":false},"793924330624246":{"id":"793924330624246","from":{"id":"100000022163023","name":"Kafe Ore"},"message":"Hình như kinh tế tốt lắm, các bạn cứ đi du học sang Nhật mà nuôi mộng làm giàu ... hehe","can_remove":false,"created_time":"2014-01-10T03:47:58+0000","like_count":1,"user_likes":false}},"paging":{"cursors":{"after":"NzkyNTQyMjMwNzYyNDU2","before":"NzkyNTQyMjMwNzYyNDU2"},"next":"https://graph.facebook.com/229244010425617_792541064095906/comments?limit=1&summary=1&after=NzkyNTQyMjMwNzYyNDU2"},"summary":{"order":"chronological","total_count":38}}}