{"id":"229244010425617_792885144061498","type":"photo","object_id":"677579162264791","picture":"https://fbcdn-photos-b-a.akamaihd.net/hphotos-ak-ash3/t1.0-0/1525158_677579162264791_959804123_s.jpg","link":"https://www.facebook.com/photo.php?fbid=677579162264791&set=gm.792885144061498&type=1&relevant_count=1","from":{"id":"100000381394367","name":"Thành Nguyễn"},"message":"Cuộc sống vốn dĩ không hề công bằng, hãy quen với điều đó\n\n人生は公平ではない。そのことに慣れよう\n\n(じんせい)は(こうへい)はない。そのことに(な)れよう\n\nJinsei wa kōheide wanai. Sono kotoni nareyou\n\nChữ Hán\n \n人生: Nhân sinh\n\n公平: Công bằng\n\n慣: Quán","created_time":"2014-01-08T02:13:59+0000","updated_time":"2014-01-09T20:48:39+0000","likes":{"data":{"100003055356509":{"id":"100003055356509","name":"Thuan Nguyen"},"100003213171499":{"id":"100003213171499","name":"Van Nguyen"},"100001744546054":{"id":"100001744546054","name":"Quân Dương"},"100003671792441":{"id":"100003671792441","name":"Yuri Qhd"},"100005024348771":{"id":"100005024348771","name":"Long Hoàng"},"1318895018":{"id":"1318895018","name":"Van T Tran"},"100001802076152":{"id":"100001802076152","name":"Hoang Thanh Dong"},"100001770616282":{"id":"100001770616282","name":"Bùi Thu Hiền"},"569263718":{"id":"569263718","name":"Phuong Thao Tran"},"100007316735911":{"id":"100007316735911","name":"Tuyen Dung Vn  Jp"},"100000691510113":{"id":"100000691510113","name":"Phu Tran"},"100000271705877":{"id":"100000271705877","name":"Nguyễn Văn Minh"},"1146680551":{"id":"1146680551","name":"優しい なぁ"},"100001526631937":{"id":"100001526631937","name":"Tường Oanh Mineko"},"1821970083":{"id":"1821970083","name":"Nguyễn Mạnh Cường"},"100000147169541":{"id":"100000147169541","name":"Toan Nguyen Van"},"100002990420907":{"id":"100002990420907","name":"Trịnh Hồng"},"100000022163023":{"id":"100000022163023","name":"Kafe Ore"},"100007015029011":{"id":"100007015029011","name":"Hao Hai Duong"},"100001338846010":{"id":"100001338846010","name":"Sơn Nguyễn Minh"},"100005145330760":{"id":"100005145330760","name":"Sơn Vũ"},"738235689":{"id":"738235689","name":"Dang Thi Phuong"},"100006014164976":{"id":"100006014164976","name":"Bình Bông"},"100002290906582":{"id":"100002290906582","name":"Kanashimi No Yukue"},"100000045271667":{"id":"100000045271667","name":"Nam Thai Nguyen"},"100001754136107":{"id":"100001754136107","name":"Nguyễn Tuấn Vũ"},"100003105034037":{"id":"100003105034037","name":"Pham Oanh"},"1666517039":{"id":"1666517039","name":"Phan Hieu Nhan"},"100005801442456":{"id":"100005801442456","name":"An Nguyen"},"100003607925265":{"id":"100003607925265","name":"Thu Hằng"}},"paging":{"cursors":{"after":"MTAwMDAzMDU1MzU2NTA5","before":"MTAwMDAzMDU1MzU2NTA5"},"next":"https://graph.facebook.com/229244010425617_792885144061498/likes?limit=1&summary=1&after=MTAwMDAzMDU1MzU2NTA5"},"summary":{"total_count":31}},"comments":{"data":{"792902994059713":{"id":"792902994059713","from":{"id":"100000045271667","name":"Nam Thai Nguyen"},"message":"Bác Bill nay nhiều câu hay và rất thực tế, em xin phép góp thêm :D\n\"11 ĐIỀU BẠN KHÔNG BAO GIỜ ĐƯỢC HỌC Ở TRƯỜNG\" do Bill Gates soạn thảo:\n\n1) Cuộc sống vốn không công bằng, tự mà tìm cách thích ứng đi!\n\n2) Thế giới này không quan tâm đến cái tự ái trong bạn, mà sẽ yêu cầu bạn đạt được cái gì đó TRƯỚC KHI bạn tự cảm thấy hài lòng về bản thân mình.\n\n3) Bạn sẽ KHÔNG kiếm được mức lương 60.000 đô/năm ngay sau khi tốt nghiệp THPT. Bạn sẽ không trở thành phó chủ tịch một sớm một chiều, với điện thoại và xe riêng cho tới sau khi bạn đã tự kiếm được 2 món đó trước.\n\n4) Nếu cho rằng thầy giáo của bạn nghiêm khắc, hãy đợi đến khi đi làm bạn sẽ biết. Thầy giáo cũng sẽ đến lúc hết nhiệm kì, nhưng ông chủ thì không đâu.\n\n5) Ăn đồ rẻ tiền không có nghĩa là giá trị của bạn bị giảm đi. Ông bà ta ngày xưa có cái nhìn khác về mấy thứ rẻ tiền. Trong lúc khó khăn, họ gọi mấy thứ đó là \"cơ hội\".\n\n6) Nếu bạn lâm vào cảnh khó khăn, đó chả phải là lỗi của cha mẹ. Đừng có than thở mà hãy rút ra bài học từ đó.\n\n7) Trước khi sinh ra bạn, cha mẹ bạn không có \"cổ lỗ sĩ\" như bây giờ đâu. Họ trở nên như thế là vì bao năm nay họ phải kiếm tiền nuôi bạn, giặt quần áo cho bạn và nghe bạn thao thao bất tuyệt về \"độ ngầu\" của bạn mà bạn hay ảo tưởng. Vậy thì trước khi bạn \"đi cứu thế giới\" khỏi thế hệ những ông bà già \"ăn bám\" đó, đi về mà dọn phòng trước đi cái đã!\n\n8) Nhà trường có thể đối xử khác nhau với người giỏi kẻ kém nhưng cuộc sống thì không đâu. Trường học có thể xoá điểm kém, cho bạn VÔ SỐ cơ hội trả lời đi trả lời lại để tìm lời giải chính xác. Điều này CHẢ GIỐNG MỘT CHÚT NÀO so với ngoài cuộc sống.\n\n9) Cuộc sống không phân chia học kỳ. Bạn sẽ không có những kỳ nghỉ hè, và sẽ có rất ít những ông chủ, những đồng nghiệp nào giúp bạn phát hiện ra phần ẩn giấu bên trong mình. Bạn phải tự làm điều đó.\n\n10) Truyền hình KHÔNG PHẢI là đời thực. Ngoài đời thực, người ta phải đứng dậy, ngưng tán dóc, ra khỏi quán cà phê và đi làm.\n\n11) Bạn hãy cư xử tế nhị với những kẻ lập dị \"đầu to mắt cận\". Nhiều khả năng có ngày bạn sẽ phải làm việc với họ.\n\nPage 1 phút suy ngẫm","can_remove":false,"created_time":"2014-01-08T03:06:51+0000","like_count":8,"user_likes":false},"792906130726066":{"id":"792906130726066","from":{"id":"100000381394367","name":"Thành Nguyễn"},"message":"Ủng hộ Nam Thai Nguyen bonus thêm 11 cái điều kia bằng tiếng Anh. Các mem nào vào bổ sung tiếng Nhật nữa thì perfect\n\nRule 1: Life is not fair -- get used to it!\n\nRule 2: The world won't care about your self-esteem. The world will expect you to accomplish something BEFORE you feel good about yourself.\n\nRule 3: You will NOT make $60,000 a year right out of high school. You won't be a vice-president with a car phone until you earn both.\n\nRule 4: If you think your teacher is tough, wait till you get a boss.\n\nRule 5: Flipping burgers is not beneath your dignity. Your Grandparents had a different word for burger flipping -- they called it opportunity.\n\nRule 6: If you mess up, it's not your parents' fault, so don't whine about your mistakes, learn from them.\n\nRule 7: Before you were born, your parents weren't as boring as they are now. They got that way from paying your bills, cleaning your clothes and listening to you talk about how cool you thought you are. So before you save the rain forest from the parasites of your parent's generation, try delousing the closet in your own room.\n\nRule 8: Your school may have done away with winners and losers, but life HAS NOT. In some schools they have abolished failing grades and they'll give you as MANY TIMES as you want to get the right answer. This doesn't bear the slightest resemblance to ANYTHING in real life.\n\nRule 9: Life is not divided into semesters. You don't get summers off and very few employers are interested in helping you FIND YOURSELF. Do that on your own time.\n\nRule 10: Television is NOT real life. In real life people actually have to leave the coffee shop and go to jobs.\n\nRule 11: Be nice to nerds. Chances are you'll end up working for one.","message_tags":[{"id":"100000045271667","name":"Nam Thai Nguyen","type":"user","offset":7,"length":15}],"can_remove":false,"created_time":"2014-01-08T03:18:28+0000","like_count":4,"user_likes":false},"792906400726039":{"id":"792906400726039","from":{"id":"100000381394367","name":"Thành Nguyễn"},"message":"Mem thì lười lắm, có khi chị Phuong Thao Tran tiên phong làm vài câu nhỉ.","message_tags":[{"id":"569263718","name":"Phuong Thao Tran","type":"user","offset":29,"length":16}],"can_remove":false,"created_time":"2014-01-08T03:19:08+0000","like_count":0,"user_likes":false},"793585673991445":{"id":"793585673991445","from":{"id":"1146680551","name":"優しい なぁ"},"message":"人類が皆、公平ではないものだ、と思えば、不公平だ","can_remove":false,"created_time":"2014-01-09T13:01:09+0000","like_count":2,"user_likes":false},"793593770657302":{"id":"793593770657302","from":{"id":"1725907325","name":"Nguyen Van Dung"},"message":"だが、皆公平になれるよう、我々が努力さぜるを得ない。\n公平があるといえる国はいくつかあります。\nどこでしょう？(*^_^*)","can_remove":false,"created_time":"2014-01-09T13:22:41+0000","like_count":2,"user_likes":false},"793706957312650":{"id":"793706957312650","from":{"id":"1725907325","name":"Nguyen Van Dung"},"message":"例をあげよう。\nまず、デンマークという国ですね。\n\nジョン教授によって「デンマークの歴史の中にデンマーク人が培ってきたのは、自由と平等の精神である」という。だから、「農業では収穫したものを平等に分配するのは原則だったのである」。\n\n他には、スウェーデン、オランダ、などの国も公平というものを非常に尊重されている。消費税は２５％、所得税は５０％以上となっているのだが、それぞれの国の人々は税金を取られるという意識を全く持っていないようである。逆に、国に預かってくれるだけと思っているそうだ。\n\nこれは、まさに社会主義といえるであろうか。(笑）\n\nデンマーク\nhttp://www.youtube.com/watch?v=2X6Os8-Yt-s\n\nhttp://www.youtube.com/watch?v=lQQYfqZtBhc&list=PL1D84D9F898780D6D\n\nスウエーデン\nhttp://www.youtube.com/watch?v=YY0v2zpqFvU","can_remove":false,"created_time":"2014-01-09T17:44:22+0000","like_count":1,"user_likes":false},"793708133979199":{"id":"793708133979199","from":{"id":"1146680551","name":"優しい なぁ"},"message":"でも、出生率が低いらしいですよ。笑","can_remove":false,"created_time":"2014-01-09T17:47:55+0000","like_count":0,"user_likes":false},"793713057312040":{"id":"793713057312040","from":{"id":"1725907325","name":"Nguyen Van Dung"},"message":"各国の出産率については、グラフで比較しようか\n\nスウェーデン　1.9　\nベトナム　1.8\nオランダ　1.76\nデンマーク　1.75\n日本　1.39\n\n２０１１年度\n\n上記の数字を見れば、何をいえるのだろう？","can_remove":false,"created_time":"2014-01-09T18:02:35+0000","like_count":0,"user_likes":false},"793771377306208":{"id":"793771377306208","from":{"id":"100005801442456","name":"An Nguyen"},"message":"①人生は公平ではない。それに慣れよ。\n\n②世界は君の自尊心を気にかけてはくれない。君の気分に関係なく世界は君が仕事を終わらせることを期待している。\n\n③高校を出てすぐ6万ドルの年収を稼ぎはしない。携帯電話(当時は高かった)を持った副社長にもならない。自分で両方を稼ぎ出すまでは。\n\n④先生が厳しすぎると思うなら、上司を持ってみろ。\n\n⑤ハンバーガーを引っくり返すということは沽券こけんにかかわることではない。君たちの祖父母はハンバーガーを引っくり返すことを別の表現を使った。それはチャンスと呼ばれた。\n\n⑥君が失敗したらそれは両親のせいではない。文句を言わずに学べ。\n\n⑦君らが生まれる前は、君らの両親は今のように退屈な人たちではなかった。そんな風になったのは、君らのために支払いをし、服を洗い、君らがどんなにいけてるか、という自慢を聞いているうちにそうなったのだ。親の時代から生存する寄生虫から森を守る前に、自分の洋服ダンスのダニ駆除から始めよう。\n\n⑧学校は勝者・敗者を決めなくなったかもしれないが、人生は違う。学校によっては君が落ちこぼれないようにしてくれたり、正しい答えが導き出せるまで、何度でも機会をくれる。実際の人生とは全く似ても似つかない。\n\n⑨人生は学期ごとに分けられていない。夏休みは無いし、ほとんどの雇用主は君が自分を見出すことに興味を持たない。それは自分の時間にやれ。\n\n①⓪テレビは本当の人生ではない。 現実では、人は喫茶店にいつまでもいられるわけはなく、仕事に行かなくてはいけないのだ。\n\n①①オタクには親切にしよう。彼らの下で働く可能性が高い。","can_remove":false,"created_time":"2014-01-09T20:40:01+0000","like_count":0,"user_likes":false},"793771647306181":{"id":"793771647306181","from":{"id":"100005801442456","name":"An Nguyen"},"message":"http://labaq.com/archives/51032297.html","can_remove":false,"created_time":"2014-01-09T20:40:22+0000","like_count":0,"user_likes":false},"793772980639381":{"id":"793772980639381","from":{"id":"100006493055181","name":"Tuyên Nguyễn"},"message":"Lần chia tay cấp  3 thầy giáo đọc mấy điều này.","can_remove":false,"created_time":"2014-01-09T20:44:13+0000","like_count":1,"user_likes":false},"793774560639223":{"id":"793774560639223","from":{"id":"100005801442456","name":"An Nguyen"},"message":"Người đọc nhiều  biết nhiều và nói nhiều không hẳn là người giỏi, người biết dụng đúng lúc và hợp lý càng nhiều mới là người giỏi. Nhớ lời thầy nhé ","can_remove":false,"created_time":"2014-01-09T20:48:39+0000","like_count":2,"user_likes":false}},"paging":{"cursors":{"after":"NzkyOTAyOTk0MDU5NzEz","before":"NzkyOTAyOTk0MDU5NzEz"},"next":"https://graph.facebook.com/229244010425617_792885144061498/comments?limit=1&summary=1&after=NzkyOTAyOTk0MDU5NzEz"},"summary":{"order":"chronological","total_count":12}}}