{"id":"229244010425617_792872974062715","type":"status","from":{"id":"100001416272263","name":"Mai PB"},"message":"Người Việt rất hâm mộ Nhật Bản vì sự chỉn chu, ngăn nắp, trọng kỷ luật trật tự, có trách nhiệm, đặt các giá trị đạo đức với xã hội cao, chăm chỉ. Nhưng người Việt có sự hòa đồng tập thê một cách tự nhiên và dễ dàng, uyển chuyển linh hoạt, nhanh nhẹn, học hỏi nhanh, khéo léo, sáng dạ. Tuy cả hai đều có những nhược điểm dễ thấy, nhưng nếu bổ trợ được cho nhau thì rất tốt. Với tư cách là những người Việt học và làm việc liên quan đến Nhật, hoặc thích và tiếp xúc với văn hóa Nhật, thực ra các bạn là những người may mắn hơn cả người Nhật và người Việt khác. Khi cần ta có thể sống tron môi trường Nhật hoặc Việt một cách dễ dàng, nhờ FB, YouTube.... Mọi người hãy enjoy life nhé.","created_time":"2014-01-08T01:41:07+0000","updated_time":"2014-01-08T22:50:57+0000","likes":{"data":{"100004253979918":{"id":"100004253979918","name":"Louis Hoàng Văn Thái"},"100000223384828":{"id":"100000223384828","name":"Thanh Judy"},"100001594722256":{"id":"100001594722256","name":"Viết An Phạm"},"100006423785680":{"id":"100006423785680","name":"Lê Thanh Tâm"},"100004514621076":{"id":"100004514621076","name":"Hason Angle"},"100006851160906":{"id":"100006851160906","name":"Chu Thị Hồng"},"100001723862714":{"id":"100001723862714","name":"Bo Bien Vang"},"100000298989958":{"id":"100000298989958","name":"Anh Đô"},"100000203084478":{"id":"100000203084478","name":"Anh Tuan Nguyen"},"100000064390986":{"id":"100000064390986","name":"Pí Pa Pí Pò"},"100004417154579":{"id":"100004417154579","name":"Nhung Ốc"},"100004923553810":{"id":"100004923553810","name":"Xuan KY Nguyen"},"100001257093338":{"id":"100001257093338","name":"Hanh Dang"},"100005532512280":{"id":"100005532512280","name":"Phúc Luyên Trang"},"100000325572172":{"id":"100000325572172","name":"Kaze Hikaru"},"100003397876835":{"id":"100003397876835","name":"Nabito Lazy"},"1023965040":{"id":"1023965040","name":"Juli KimChi"},"100003574946076":{"id":"100003574946076","name":"Minhh Hảii"},"1148962646":{"id":"1148962646","name":"Tran Thi Tuong Van"},"100004672236926":{"id":"100004672236926","name":"Văn Khẩn"},"100004296072026":{"id":"100004296072026","name":"Ot ChuOng"},"100004072602360":{"id":"100004072602360","name":"Hung Nguyen"},"100004562703595":{"id":"100004562703595","name":"Du Du"},"100003762427351":{"id":"100003762427351","name":"Hiroshi Yasu Oki"},"100002801290859":{"id":"100002801290859","name":"Arsène Lupin"},"100005882954389":{"id":"100005882954389","name":"Thu Hằng Nguyễn"},"100002976213828":{"id":"100002976213828","name":"Nana"},"100000008603077":{"id":"100000008603077","name":"Kjo Mạnh Khôi"},"1821970083":{"id":"1821970083","name":"Nguyễn Mạnh Cường"},"100002137253818":{"id":"100002137253818","name":"Anh Khoa"},"100000019126977":{"id":"100000019126977","name":"Nguyen Thi Ngoc Anh"},"100004509002121":{"id":"100004509002121","name":"Milky Meda"},"100000064686295":{"id":"100000064686295","name":"Huy Roli"},"100002449568268":{"id":"100002449568268","name":"Thơm Vương"},"100007272394237":{"id":"100007272394237","name":"Ivy Nguyen"},"100001526631937":{"id":"100001526631937","name":"Tường Oanh Mineko"},"100002675248579":{"id":"100002675248579","name":"Ecchi Deviluke"},"100005440689746":{"id":"100005440689746","name":"Trang Mapy"},"100001894545350":{"id":"100001894545350","name":"Lhp Bin"},"100003657864848":{"id":"100003657864848","name":"Thu Ha"},"100004634762515":{"id":"100004634762515","name":"Lien Bien"},"1146680551":{"id":"1146680551","name":"優しい なぁ"},"100004092980983":{"id":"100004092980983","name":"Tomoda Bùi"},"100001231404357":{"id":"100001231404357","name":"Quoc Anh"},"100005495773832":{"id":"100005495773832","name":"Hiền Vũ"},"100001464403812":{"id":"100001464403812","name":"Son Nguyen Ngoc"},"100003961308936":{"id":"100003961308936","name":"Isabella Nhi Phan"},"100002263347987":{"id":"100002263347987","name":"Thắng Phạm"},"1283298041":{"id":"1283298041","name":"Búa Đức Thanh"},"100002959594535":{"id":"100002959594535","name":"Nguyen Ngoc Anh"},"100001290862628":{"id":"100001290862628","name":"Nga Pham Thi Thuy"},"100001610463272":{"id":"100001610463272","name":"Thuy Vu"},"100001873413170":{"id":"100001873413170","name":"Muc Ducky"},"1574575448":{"id":"1574575448","name":"An Na An"},"100004010270189":{"id":"100004010270189","name":"Suna Phạm"},"100000309153854":{"id":"100000309153854","name":"Pham Thuong"},"100000052661831":{"id":"100000052661831","name":"Shuntoku Pham"},"100005866751996":{"id":"100005866751996","name":"Nam Nguyen"},"100003284230085":{"id":"100003284230085","name":"Moon Tieuman"},"100007113974176":{"id":"100007113974176","name":"Thanh Hau Nguyen"},"100002093975536":{"id":"100002093975536","name":"Thùy Trang Nguyễn"},"100005801442456":{"id":"100005801442456","name":"An Nguyen"},"100003022705487":{"id":"100003022705487","name":"LaLa Thu Huyền"},"1809939388":{"id":"1809939388","name":"Nguyễn Thạc Huy"},"100001359798024":{"id":"100001359798024","name":"November Gi"},"100001614233452":{"id":"100001614233452","name":"Hienvit Duckling"},"100004367679988":{"id":"100004367679988","name":"Kumi Nguyen"},"100004155757260":{"id":"100004155757260","name":"Tran Trang"},"100001744546054":{"id":"100001744546054","name":"Quân Dương"},"100005775182411":{"id":"100005775182411","name":"Tuấn Milo"},"738235689":{"id":"738235689","name":"Dang Thi Phuong"},"100005211189763":{"id":"100005211189763","name":"Oliveu Cchann"},"100004409010627":{"id":"100004409010627","name":"Diep Quynh Anh"},"100004140850631":{"id":"100004140850631","name":"Huong Trang"},"100002551322103":{"id":"100002551322103","name":"Bao Tran"},"100004336020708":{"id":"100004336020708","name":"Hai Hai A"},"100003686123087":{"id":"100003686123087","name":"Trương Thị Quý Trâm"},"100001754136107":{"id":"100001754136107","name":"Nguyễn Tuấn Vũ"},"100004123294724":{"id":"100004123294724","name":"Hà CHíp"},"100000083951394":{"id":"100000083951394","name":"Trác Hữu"},"100002589963683":{"id":"100002589963683","name":"Hà Văn Tuấn"}},"paging":{"cursors":{"after":"MTAwMDA0MjUzOTc5OTE4","before":"MTAwMDA0MjUzOTc5OTE4"},"next":"https://graph.facebook.com/229244010425617_792872974062715/likes?limit=1&summary=1&after=MTAwMDA0MjUzOTc5OTE4"},"summary":{"total_count":83}},"comments":{"data":{"792873654062647":{"id":"792873654062647","from":{"id":"100002589963683","name":"Hà Văn Tuấn"},"message":"Vâng đúng rồi, e thấy người nhật họ kỷ luật tới mức mà đến làm quen với nhau thôi cũng ko dám :)))))","can_remove":false,"created_time":"2014-01-08T01:43:31+0000","like_count":4,"user_likes":false},"792874244062588":{"id":"792874244062588","from":{"id":"100001458099624","name":"Kham Pha"},"message":"Điều tuyệt vời nhất là các bạn mang ưu điểm của người Việt và sống trên đất nước Nhật. Tốt hơn nhiều so với học theo họ một cách gò bò.","can_remove":false,"created_time":"2014-01-08T01:45:45+0000","like_count":6,"user_likes":false},"792876810728998":{"id":"792876810728998","from":{"id":"1250063068","name":"Tuấn Tử Tế"},"message":"Nhưng vẫn có rất nhiều người ko biết nhận ra điều anh Mai PB nói. Có cơ hội sang môi trường mới mà ko chịu hòa nhập phát huy điểm mạnh để vươn lên. Ngược lại, cố chấp với những suy nghĩ tiểu nông, khôn vặt, chỉ chú trọng vào những giá trị hời hợt trước mắt, lợi dụng lòng tốt dân bản xứ. Cũng như câu: \"Dỡ chuồng xí nhà hàng xóm về xây nhà mình\"","can_remove":false,"created_time":"2014-01-08T01:54:49+0000","like_count":7,"user_likes":false},"792880160728663":{"id":"792880160728663","from":{"id":"100004336020708","name":"Hai Hai A"},"message":"nếu kết hợp được thì đó là điều tuyệt vời,","can_remove":false,"created_time":"2014-01-08T02:04:22+0000","like_count":1,"user_likes":false},"792881950728484":{"id":"792881950728484","from":{"id":"100001458099624","name":"Kham Pha"},"message":"Tầm suy nghĩ của người Việt còn nhiều hạn chế lắm, chỉ thấy cái lợi trước mắt, mà ko thấy cái lợi lâu dài. Cái lợi lâu dài mới là cái bền vững và sinh nhiều lợi nhuận gấp hàng chục, trăm, nghìn lần cái lợi trước mắt.","can_remove":false,"created_time":"2014-01-08T02:08:33+0000","like_count":5,"user_likes":false},"792883350728344":{"id":"792883350728344","from":{"id":"100000381394367","name":"Thành Nguyễn"},"message":"Người Việt thật ra nể phục người Nhật về mấy đức tính đó hơn là ngưỡng mộ, vì thường người ta ngưỡng mộ ai đó cái gì người ta sẽ bắt chước làm theo, như các em teen ngưỡng mộ các sao Hàn thì sẽ đua nhau trang điểm và ăn mặc kiểu Hàn etc.. còn người Việt nếu ngưỡng mộ người Nhật thì sẽ bắt chước Nhật ( ít nhất là về tin thần ) nhưng điều đó chưa xảy ra...một cách phổ biến.","can_remove":false,"created_time":"2014-01-08T02:10:21+0000","like_count":6,"user_likes":false},"792893637393982":{"id":"792893637393982","from":{"id":"100001416272263","name":"Mai PB"},"message":"Kiểu teen đó có lẽ gọi là ái mộ thì đúng hơn, Thành Nguyễn à. :-)\nNể phục < Khâm phục < Hâm mộ < Ngưỡng mộ < ái mộ","message_tags":[{"id":"100000381394367","name":"Thành Nguyễn","type":"user","offset":46,"length":12}],"can_remove":false,"created_time":"2014-01-08T02:36:45+0000","like_count":2,"user_likes":false},"792895684060444":{"id":"792895684060444","from":{"id":"100000381394367","name":"Thành Nguyễn"},"message":"Thế ví dụ toàn dân Trung Quốc học tập làm theo anh hùng Lôi Phong , làm theo lời dạy của Mao Chủ Tịch thì cũng không thể gọi là ái mộ,hâm mộ Lôi Phong hay ái mộ, hâm mộ Mao Chủ Tịch được rồi, cái đó chỉ có thể gọi là ngưỡng mộ thôi, dù là sự ngưỡng mộ được tiêm từ ngoài vào.","can_remove":false,"created_time":"2014-01-08T02:43:04+0000","like_count":0,"user_likes":false},"792901257393220":{"id":"792901257393220","from":{"id":"100001416272263","name":"Mai PB"},"message":"Nhiều mức độ mà. Ví dụ các mem nể phục ad Thành Nguyễn học rộng hiểu sâu, nhưng cũng có thể có mem ngưỡng mộ đến tận nhà thì sao? :-)","message_tags":[{"id":"100000381394367","name":"Thành Nguyễn","type":"user","offset":42,"length":12}],"can_remove":false,"created_time":"2014-01-08T03:01:53+0000","like_count":1,"user_likes":false},"792905247392821":{"id":"792905247392821","from":{"id":"100000068660150","name":"Hito Kami"},"message":"Mình thấy bản chất người việt không thua gì người nhật , những điều so sánh trên chỉ đúng với thành phần trung gian trong xã hội việt nam , những người được học trên ghế nhà trường nhưng chưa tạo ra giá trị thực sự nhưng giỏi lý thuyết , vì thế họ hay bị lạc lối, còn với thành phần công nông dân , và những người có nghiên cứu về học thức thì con người họ không thua gì người nhật đâu ...","can_remove":false,"created_time":"2014-01-08T03:14:21+0000","like_count":1,"user_likes":false},"792908050725874":{"id":"792908050725874","from":{"id":"100000399879223","name":"Hoan Le"},"message":"Nhiều người học được cái xấu cả của 2 dân tộc ;v","can_remove":false,"created_time":"2014-01-08T03:23:58+0000","like_count":0,"user_likes":false},"792951520721527":{"id":"792951520721527","from":{"id":"1146680551","name":"優しい なぁ"},"message":"Em thì thích đức tính khiêm tốn và đạo đức của họ.\n\"Ba năm đi Pháp bằng một giáp đi Nga.\nNăm năm ở Tây bằng một giây ở Nhật.\"\nCâu nói này em tâm đắc mãi.có thể bạn đến Nhật vì nhiều mục đích khác nhau.nhưng hãy học nhưng cái hay của họ để phát triển nhận thức của mình.","can_remove":false,"created_time":"2014-01-08T05:36:11+0000","like_count":13,"user_likes":false},"792957304054282":{"id":"792957304054282","from":{"id":"100002675248579","name":"Ecchi Deviluke"},"message":"Chia sẻ rất hay mà người trẻ như em không nhận ra được,cảm ơn anh rất nhiều (Y)","can_remove":false,"created_time":"2014-01-08T05:51:12+0000","like_count":0,"user_likes":false},"793000797383266":{"id":"793000797383266","from":{"id":"569263718","name":"Phuong Thao Tran"},"message":"ước gì mình có thêm vài giây, ^^","can_remove":false,"created_time":"2014-01-08T08:28:11+0000","like_count":1,"user_likes":false},"793321780684501":{"id":"793321780684501","from":{"id":"100004186353970","name":"Nguyen Quang Huy"},"message":"Bài viết này mang tính chất nói về số đông người việt và người nhật chưa thành công ở các lĩnh vực trong cuộc sống. Còn những người thành đạt trong cuộc sống họ có đủ cả 2 yếu tố đó","can_remove":false,"created_time":"2014-01-08T22:50:57+0000","like_count":0,"user_likes":false}},"paging":{"cursors":{"after":"NzkyODczNjU0MDYyNjQ3","before":"NzkyODczNjU0MDYyNjQ3"},"next":"https://graph.facebook.com/229244010425617_792872974062715/comments?limit=1&summary=1&after=NzkyODczNjU0MDYyNjQ3"},"summary":{"order":"chronological","total_count":15}}}