{"id":"229244010425617_792956487387697","type":"status","from":{"id":"100002904984187","name":"Thuy Nguyen"},"message":"có ai có giáo trình dạy tiếng Việt cho người Nhật không ạ? ai có thì share cho tớ với :) cảm ơn mn.","created_time":"2014-01-08T05:49:02+0000","updated_time":"2014-01-09T00:08:01+0000","likes":{"data":{"100000019126977":{"id":"100000019126977","name":"Nguyen Thi Ngoc Anh"},"100002315426903":{"id":"100002315426903","name":"YU Jin Xiang"}},"paging":{"cursors":{"after":"MTAwMDAwMDE5MTI2OTc3","before":"MTAwMDAwMDE5MTI2OTc3"},"next":"https://graph.facebook.com/229244010425617_792956487387697/likes?limit=1&summary=1&after=MTAwMDAwMDE5MTI2OTc3"},"summary":{"total_count":2}},"comments":{"data":{"793068300709849":{"id":"793068300709849","from":{"id":"100000221648144","name":"Nguyen Hung"},"message":"minh co giao trinh tieng nhat cho nguoi viet","can_remove":false,"created_time":"2014-01-08T12:23:12+0000","like_count":0,"user_likes":false},"793069567376389":{"id":"793069567376389","from":{"id":"100000045271667","name":"Nam Thai Nguyen"},"message":"Mi Tra cô giáo này","message_tags":[{"id":"100000359762118","name":"Mi Tra","type":"user","offset":0,"length":6}],"can_remove":false,"created_time":"2014-01-08T12:26:24+0000","like_count":1,"user_likes":false},"793075160709163":{"id":"793075160709163","from":{"id":"100000359762118","name":"Mi Tra"},"message":"Phiền Nguyen Hung viết tiếng Việt có dấu theo đúng quy định của Group nhé!","can_remove":false,"created_time":"2014-01-08T12:43:26+0000","like_count":0,"user_likes":false},"793077200708959":{"id":"793077200708959","from":{"id":"100000359762118","name":"Mi Tra"},"message":"Thuy Nguyen: Giáo trình thì mình tham khảo các quyển sách dạy tiếng Việt được bán ở các hiệu sách ở Nhật.","can_remove":false,"created_time":"2014-01-08T12:46:28+0000","like_count":2,"user_likes":false},"793082367375109":{"id":"793082367375109","from":{"id":"100000045271667","name":"Nam Thai Nguyen"},"message":"Một phong cách đáp án rất Cô giáo :|","can_remove":false,"created_time":"2014-01-08T13:00:10+0000","like_count":2,"user_likes":false},"793082970708382":{"id":"793082970708382","from":{"id":"100000603915176","name":"悪いな ぁ"},"message":"Cu kia, chú trêu gì cô giáo thế? muốn bị phạt kg?","can_remove":false,"created_time":"2014-01-08T13:01:29+0000","like_count":2,"user_likes":false},"793085647374781":{"id":"793085647374781","from":{"id":"100000045271667","name":"Nam Thai Nguyen"},"message":"Dạ em biết, thưa a cú mèo :3","can_remove":false,"created_time":"2014-01-08T13:07:31+0000","like_count":0,"user_likes":false},"793086027374743":{"id":"793086027374743","from":{"id":"100000603915176","name":"悪いな ぁ"},"message":"Ờ ngoan, đi ngủ đi, nhớ mắc màn nhé :v","can_remove":false,"created_time":"2014-01-08T13:08:27+0000","like_count":1,"user_likes":false},"793179007365445":{"id":"793179007365445","from":{"id":"100002904984187","name":"Thuy Nguyen"},"message":"chắc phải ra hiệu sách cóp nhặt vậy :)","can_remove":false,"created_time":"2014-01-08T16:30:16+0000","like_count":0,"user_likes":false},"793195847363761":{"id":"793195847363761","from":{"id":"100005440689746","name":"Trang Mapy"},"message":"Bạn mình là người Nhật đang học tiếng Việt. Khi nào gặp mình sẽ hỏi giúp bạn. ^^","can_remove":false,"created_time":"2014-01-08T17:10:09+0000","like_count":0,"user_likes":false},"793346017348744":{"id":"793346017348744","from":{"id":"100003913383051","name":"Tho Tran"},"message":"chi tìm cuốn: ベトナム語　レッスン　初級１、初級２ nhưng hình như chỉ có ở nhật thôi ạ! Khong biết Việt Nam! Có không ạ !!!","can_remove":false,"created_time":"2014-01-09T00:08:01+0000","like_count":0,"user_likes":false}},"paging":{"cursors":{"after":"NzkzMDY4MzAwNzA5ODQ5","before":"NzkzMDY4MzAwNzA5ODQ5"},"next":"https://graph.facebook.com/229244010425617_792956487387697/comments?limit=1&summary=1&after=NzkzMDY4MzAwNzA5ODQ5"},"summary":{"order":"chronological","total_count":11}}}