{"id":"229244010425617_792998870716792","type":"photo","object_id":"677702275585813","picture":"https://fbcdn-photos-h-a.akamaihd.net/hphotos-ak-prn2/t1.0-0/1546410_677702275585813_1660372748_s.jpg","link":"https://www.facebook.com/photo.php?fbid=677702275585813&set=gm.792998870716792&type=1&relevant_count=1","from":{"id":"100000381394367","name":"Thành Nguyễn"},"message":"Chúng ta không thể giải quyết được vấn đề với cùng một cấp độ suy nghĩ giống như khi chúng ta tạo ra chúng.\n\n問題を起した時と同じような考え方では、どんな問題は解決できない\n\n(もんだい)を(おこ)した(とき)と(おな)じような(かんが)え(かた)では、どんな(もんだい)は(かいけつ)できない\n\nMondai o okoshita toki to onajiyouna kangaekatade wa, donna mondai wa kaiketsu dekinai\n\nChữ Hán\n\n問題: Vấn đề\n\n時: Thời\n\n同: Đồng\n\n考: Khảo\n\n方: Phương\n\n解決: Giải quyết.","created_time":"2014-01-08T08:19:31+0000","updated_time":"2014-01-09T05:30:54+0000","likes":{"data":{"100001526631937":{"id":"100001526631937","name":"Tường Oanh Mineko"},"100003310618708":{"id":"100003310618708","name":"BiNô Triết Gia"},"1821970083":{"id":"1821970083","name":"Nguyễn Mạnh Cường"},"100000045271667":{"id":"100000045271667","name":"Nam Thai Nguyen"},"100001755605266":{"id":"100001755605266","name":"Totto Chan"},"100001754136107":{"id":"100001754136107","name":"Nguyễn Tuấn Vũ"},"100007391977604":{"id":"100007391977604","name":"Uyên Phương"},"100000089472724":{"id":"100000089472724","name":"Duy Nguyen"},"569263718":{"id":"569263718","name":"Phuong Thao Tran"},"100007316735911":{"id":"100007316735911","name":"Tuyen Dung Vn  Jp"},"100000363320234":{"id":"100000363320234","name":"Nguyen Cuong"},"100003607925265":{"id":"100003607925265","name":"Thu Hằng"},"100005024348771":{"id":"100005024348771","name":"Long Hoàng"},"100003327351931":{"id":"100003327351931","name":"Bánh Mì Sữa"},"100005934548279":{"id":"100005934548279","name":"Cậu Bé Buồn"},"1283298041":{"id":"1283298041","name":"Búa Đức Thanh"},"1146680551":{"id":"1146680551","name":"優しい なぁ"},"100002898154513":{"id":"100002898154513","name":"Gã Shrek"},"100000250256418":{"id":"100000250256418","name":"Nguyen Viet Anh"}},"paging":{"cursors":{"after":"MTAwMDAxNTI2NjMxOTM3","before":"MTAwMDAxNTI2NjMxOTM3"},"next":"https://graph.facebook.com/229244010425617_792998870716792/likes?limit=1&summary=1&after=MTAwMDAxNTI2NjMxOTM3"},"summary":{"total_count":19}},"comments":{"data":{"792999634050049":{"id":"792999634050049","from":{"id":"1146680551","name":"優しい なぁ"},"message":"Sao k có lời bình của bác vậy bác","can_remove":false,"created_time":"2014-01-08T08:23:33+0000","like_count":0,"user_likes":false},"792999924050020":{"id":"792999924050020","from":{"id":"100000381394367","name":"Thành Nguyễn"},"message":"Vào group Admin mà đọc cái bài gần đây nhất của anh sẽ biết vì sao có câu này :D","can_remove":false,"created_time":"2014-01-08T08:24:03+0000","like_count":1,"user_likes":false},"793000787383267":{"id":"793000787383267","from":{"id":"1146680551","name":"優しい なぁ"},"message":"了解でーす","can_remove":false,"created_time":"2014-01-08T08:28:08+0000","like_count":0,"user_likes":false},"793002054049807":{"id":"793002054049807","from":{"id":"100000381394367","name":"Thành Nguyễn"},"message":"Anh Nguyễn chú đã hiểu rồi thì đề nghị chú bình vài câu để các member có thêm kiến giải rõ hơn về câu này.:D. Đưa ra ví dụ mà chú tự nghĩ ra càng tốt.","message_tags":[{"id":"1146680551","name":"Anh Nguyễn","type":"user","offset":0,"length":10}],"can_remove":false,"created_time":"2014-01-08T08:33:21+0000","like_count":1,"user_likes":false},"793005054049507":{"id":"793005054049507","from":{"id":"1146680551","name":"優しい なぁ"},"message":"“Vấn đề” là khoảng cách giữa cái mình thực sự muốn giải quyết và cái hiện tại vẫn chưa làm được.\n“本当に解決したい事と現在のできない事とはこの差が問題だ\nMong bác cho ý kiến","can_remove":false,"created_time":"2014-01-08T08:44:55+0000","like_count":0,"user_likes":false},"793098090706870":{"id":"793098090706870","from":{"id":"100000359762118","name":"Mi Tra"},"message":"Câu tiếng Nhật của アン グエン hiểu được chết liền.","message_tags":[{"id":"1146680551","name":"アン グエン","type":"user","offset":19,"length":6}],"can_remove":false,"created_time":"2014-01-08T13:36:50+0000","like_count":1,"user_likes":false},"793098867373459":{"id":"793098867373459","from":{"id":"1146680551","name":"優しい なぁ"},"message":":)) sửa a đi em.l","can_remove":false,"created_time":"2014-01-08T13:38:40+0000","like_count":0,"user_likes":false},"793102507373095":{"id":"793102507373095","from":{"id":"100000359762118","name":"Mi Tra"},"message":"Xin phép sửa câu của bác Thành trước\n=>  問題を起した時と同じような考え方では、何の問題も解決できない","can_remove":false,"created_time":"2014-01-08T13:46:32+0000","like_count":2,"user_likes":false},"793149237368422":{"id":"793149237368422","from":{"id":"100000083951394","name":"Trác Hữu"},"message":"Dịch sang tiếng Việt thế này ổn không bạn: Chúng ta không thể giải quyết các vấn đề bằng cách sử dụng lối suy nghĩ tương tự như khi chúng ta tạo ra chúng.\nMình thấy dùng từ \"cấp độ suy nghĩ\" có vẻ chưa rõ ràng lắm.","can_remove":false,"created_time":"2014-01-08T15:09:30+0000","like_count":0,"user_likes":false},"793162937367052":{"id":"793162937367052","from":{"id":"100000083951394","name":"Trác Hữu"},"message":"Mình thử lấy ví dụ thế này các bạn xem hợp lý không nhé.\nHai người yêu nhau, vì suy nghĩ ích kỷ nên nhân một việc bị hiểu lầm mà sinh ra nặng lời với nhau, dẫn đến mâu thuẫn. Muốn giải quyết mâu thuẫn này, hai người đó không thể dùng lối suy nghĩ cũ. Phải biết nghĩ cho nhau, vị tha, bao dung thì mới giải quyết được mâu thuẫn.\n\nMột ví dụ khác : \nTôi lấy ngẫu nhiên 1 số, số  123 chẳng hạn, sau đó lấy bình phương được kết quả là 15129. Bây giờ bạn phải đi tìm số nào mà bình phương của nó là 15129. Để làm việc này, bạn đi tìm căn bậc hai của 15129, chứ không thể cứ đi thử bình phương lần lượt từng số từ bé đến lớn để đối chiếu được.","can_remove":false,"created_time":"2014-01-08T15:44:49+0000","like_count":1,"user_likes":false},"793259364024076":{"id":"793259364024076","from":{"id":"1821970083","name":"Nguyễn Mạnh Cường"},"message":"Em hiểu là muốn sửa chữa sai lầm thì tránh vết xe đổ lần trước ra.","can_remove":false,"created_time":"2014-01-08T20:02:18+0000","like_count":0,"user_likes":false},"793293407354005":{"id":"793293407354005","from":{"id":"100003310618708","name":"BiNô Triết Gia"},"message":"với ngành mình : khi thiết kế ra một boar mạch, khi chúng bị hỏng hoạt động không tốt, mình đi ngược lại với các bước thiết kế để tìm vấn đề, so sánh nó và giải quyết\nkhi thiết kế, đi từ 123... , khi gặp vấn đề ( thường thường) lại ...321","can_remove":false,"created_time":"2014-01-08T21:30:55+0000","like_count":1,"user_likes":false},"793385474011465":{"id":"793385474011465","from":{"id":"100000381394367","name":"Thành Nguyễn"},"message":"Có vẻ Bùi Hiên  là người hiểu Einstein nhất ỏ đây :D","message_tags":[{"id":"100003310618708","name":"Bùi Hiên","type":"user","offset":6,"length":8}],"can_remove":false,"created_time":"2014-01-09T02:10:53+0000","like_count":0,"user_likes":false},"793385824011430":{"id":"793385824011430","from":{"id":"100000381394367","name":"Thành Nguyễn"},"message":"@ Mi Tra : Anh chưa hiểu cách sửa của em, nếu sửa như thế thì nghĩa của nó khác đi, ý em là gì, làm rõ hơn được không?","can_remove":false,"created_time":"2014-01-09T02:12:08+0000","like_count":0,"user_likes":false},"793386854011327":{"id":"793386854011327","from":{"id":"100000381394367","name":"Thành Nguyễn"},"message":"Trác Hữu Các câu này sẽ được dịch theo phong cách hướng nội dung ( content-oriented ) 内容指向 chứ không phải theo phong cách hướng ngôn ngữ language-oriented 言語指向 tức là sự diễn đạt lại ý tưởng của tác giả trong từng ngôn ngữ phù hợp với đặc điểm văn hóa của ngôn ngữ ( tiếng Việt, tiếng Nhật ) chứ không phải là các cấu trúc câu tương đương nhau trong cả ba ngôn ngữ. Vì thế vẫn có sân chơi cho các bạn có thể dịch theo nhiều cách khác nhau miễn truyền tải đúng ý tưởng của câu nói.\n\nCâu của bạn có dịch sát về mặt ý ngôn ngữ đấy vì cái từ kind of thinking là kiểu, loại suy nghĩ, tuy nhiên câu này được đặt trong 1 context lớn hơn, và để thể hiện được đúng tư duy của Einstein thì phải dịch là \"cấp độ suy nghĩ\" . Câu của Einstein còn được biết đến với 1 version khác\n\nWe can not solve our problems with the same level of thinking that created them","message_tags":[{"id":"100000083951394","name":"Trác Hữu","type":"user","offset":0,"length":8}],"can_remove":false,"created_time":"2014-01-09T02:15:20+0000","like_count":1,"user_likes":false},"793387697344576":{"id":"793387697344576","from":{"id":"100000381394367","name":"Thành Nguyễn"},"message":"http://photos-f.ak.fbcdn.net/hphotos-ak-frc3/486573_10151795033187519_2082830323_n.jpg","can_remove":false,"created_time":"2014-01-09T02:18:29+0000","like_count":0,"user_likes":false},"793392027344143":{"id":"793392027344143","from":{"id":"100000359762118","name":"Mi Tra"},"message":"Em chỉ bám vào câu của anh sửa về cách dùng từ một chút thôi. Cụ thể là từ どんな","can_remove":false,"created_time":"2014-01-09T02:32:25+0000","like_count":0,"user_likes":false},"793392897344056":{"id":"793392897344056","from":{"id":"100000381394367","name":"Thành Nguyễn"},"message":"Ý câu em dịch là thế nào, từ どんな thì sai ở chỗ nào?","can_remove":false,"created_time":"2014-01-09T02:35:52+0000","like_count":0,"user_likes":false},"793414040675275":{"id":"793414040675275","from":{"id":"100000359762118","name":"Mi Tra"},"message":"Từ どんな được dùng thế này\n1. はっきりしないそのものの状態・性質・程度などを想像しようとするさま。\n「どんな人が来るのだろう」\n「どんなものをお探しですか」\n\n2 . 物事の状態・性質・程度などに左右されないさま。\n「どんな物でも買い取る」\n「どんなに悲しくとも泣かない」\n\nVì vậy trong câu này mà dùng どんな sẽ không đúng về mặt ngữ pháp. Theo ý kiến của em nên thay là 何の問題も解決できない","can_remove":false,"created_time":"2014-01-09T03:24:02+0000","like_count":1,"user_likes":false},"793415540675125":{"id":"793415540675125","from":{"id":"100000381394367","name":"Thành Nguyễn"},"message":"Anh chưa thấy cái định nghĩa kia thì nó chỉ ra dùng どんな không đúng về mặt ngữ pháp chỗ nào nhỉ, em phân tích giúp anh cụ thể hơn được không và giải thích cụ thể về ý nghĩa của 何の問題 vì anh đã hỏi 1 bạn người Nhật về どんな問題 bạn ấy bảo どんな問題 là đúng.","can_remove":false,"created_time":"2014-01-09T03:27:18+0000","like_count":0,"user_likes":false},"793435504006462":{"id":"793435504006462","from":{"id":"100000083951394","name":"Trác Hữu"},"message":"@Thành Nguyễn: Vì sao hiểu theo ngữ cảnh và để thể hiện đúng tư duy của Einstein thì phải dùng từ \"cấp độ suy nghĩ\" cho version đầu tiên? Bạn có thể nói rõ hơn không?  \nNếu là version hai thì dịch như thế là hợp lý, mình không thắc mắc.","can_remove":false,"created_time":"2014-01-09T04:13:21+0000","like_count":0,"user_likes":false},"793438974006115":{"id":"793438974006115","from":{"id":"100000381394367","name":"Thành Nguyễn"},"message":"Ngữ cảnh lớn hơn là cách tư duy của Einstein và là phương pháp luận ( methodology )  nghiên cứu trong khoa học. Trong lịch sử loài người có mấy dạng nhận thức là thần quyền, siêu hình và phương pháp duy lý khoa học.\n\nKhi quan sát các hiện tượng trong tự nhiên và xã hội sẽ có các cách lý giải dựa trên các cách tư duy như trên\n\nThời cổ đại người ta giải thích các hiện tượng là do thần thánh làm ra như mưa bão là do các vị thần mưa thần bão làm, chiến tranh do thần chiến tranh điều khiển, đó là nhận thức do ý thức thần quyền chi phối\n\nSau đó là đến phương pháp siêu hình ( metaphisique ) là giải thích các hiện tượng dựa trên các lực lượng siêu hình là tiền đề ( tức là không giải thích về tiền đề ) như kiểu 4 nguyên tố tạo nên vũ trụ đất , lửa, nước etc..hoặc ngũ hành kim mộc thủy hỏa thổ.\n\nCòn phương pháp suy lý là phương pháp thứ 3, xem sự vật không có bản chất tận cùng, chúng ta chỉ có thể dùng hiểu sự vật ở một cấp độ nào đó, dùng hiện tượng này để giải thích một hiện tượng khác, khi chúng ta hiểu tức là đưa nhận thức chúng ta về một cấp độ sâu hơn, ví dụ ban đầu hiểu biết rằng các chất cấu tạo từ phân tử, khi xuống cấp độ sâu hơn thì sẽ biết phân tử hình thành từ nguyên tử, tiếp một cấp nữa thì biết rằng nguyên tử cấu tạo từ hạt nhân và electron. Nhưng dưới nữa thì lại có các hạt quarzt và photon, neutrio, etc.. Cứ như thế nhận thức con người càng ngày càng đi sâu, khi giải quyết được một vấn đề là ta đã xây dựng được các khái niệm và phương pháp nhận thức ở một cấp độ sâu hơn cấp độ hiện tại rồi.\n\nĐó là lý do tại sao mình dịch là \"cấp độ suy nghĩ\". Muốn hiểu và giải quyết được vấn đề bạn phải tư duy ở level sâu hơn cách tư duy mà bạn đang dùng trong hiện tại.","can_remove":false,"created_time":"2014-01-09T04:25:41+0000","like_count":1,"user_likes":false},"793453600671319":{"id":"793453600671319","from":{"id":"100000083951394","name":"Trác Hữu"},"message":"Cám ơn bạn đã giải thích. Giờ thì mình đã hiểu cách dịch của bạn. Có thể thay từ \"cấp độ suy nghĩ\" bằng \"phương pháp tư duy\", hay \"phương pháp nhận thức\" không bạn. Vì mình thấy từ \"cấp độ suy nghĩ\" rất ít đc dùng trong Tiếng Việt.","can_remove":false,"created_time":"2014-01-09T05:21:27+0000","like_count":0,"user_likes":false},"793456474004365":{"id":"793456474004365","from":{"id":"100000381394367","name":"Thành Nguyễn"},"message":"Bạn có thể thay nó bằng bất cứ cái gì mà bạn cảm thấy hữu ích nhất cho bạn, câu này post ra không phải để mọi người chiêm ngưỡng mà để ứng dụng nó, và mỗi người có cách ứng dụng đã nhau, như mình đã nói trong lý do về cách dịch content oriented ở trên tức là luôn có đáp án mở cho mọi người.\n\nỞ Ta câu trả lời khác đáp án không được điểm tối đa, ở ta câu trả lời khác đáp án vẫn được điểm tối đa, và có thể có nhiều đáp án khác nhau đều được điểm tối đa.","can_remove":false,"created_time":"2014-01-09T05:29:54+0000","like_count":1,"user_likes":false},"793456700671009":{"id":"793456700671009","from":{"id":"100000083951394","name":"Trác Hữu"},"message":"Mình hiểu, mình chỉ đang nói về cách dùng tiếng Việt thôi.","can_remove":false,"created_time":"2014-01-09T05:30:54+0000","like_count":0,"user_likes":false}},"paging":{"cursors":{"after":"NzkyOTk5NjM0MDUwMDQ5","before":"NzkyOTk5NjM0MDUwMDQ5"},"next":"https://graph.facebook.com/229244010425617_792998870716792/comments?limit=1&summary=1&after=NzkyOTk5NjM0MDUwMDQ5"},"summary":{"order":"chronological","total_count":25}}}