{"id":"229244010425617_793131814036831","type":"photo","object_id":"10201187805754350","picture":"https://fbcdn-photos-b-a.akamaihd.net/hphotos-ak-prn1/t1.0-0/1554607_10201187805754350_975032500_s.jpg","link":"https://www.facebook.com/photo.php?fbid=10201187805754350&set=gm.793131814036831&type=1&relevant_count=1","from":{"id":"1146680551","name":"優しい なぁ"},"message":"Hôm nay đọc bài 5000 cảnh sát Nhật truy bắt tên hiếp dâm trên vnexpress.đang đứng đợi tàu nên nghĩ đến bảng thông báo này .\nỞ những chuyến tàu đông ơ Tokyo như Saikyo thì thường gắn camera.Mục đích là ngăn ngừa cái này.Vậy bạn hiểu gì về nó ,và biết hình phạt của nó chưa? Hãy nhìn vào hình phạt và biết \"kiềm chế\" nhé mấy bạn :) Đưng vì 1s sung sướng mà  phiền phức.\n痴漢(チカン): từ để chỉ hành vi/hành động sàm sỡ,quấy rối tình dục nơi công cộng.search trên wiki không khi rõ là đối tượng (相手) nào? Vì vậy hãy chú ý cả nam lẫn nữ nhé :v\nVậy hình phạt khi mắc tội này như thế nào? \nThấy ghi trong điều 176 là tuỳ theo mức độ: phạt tù:6 tháng đến 7 năm.Nếu ở tokyo thì nếu hình phạt dưới 6 tháng thì phải nộp thêm là 50 man.(đắt vl)\nHãy chú ý nhé mấy bạn ^_^.\"Đừng chết vì thiếu hiểu biết \" (câu nói này trong poster ngăn ngừa sida thi phải nhỉ.)\n\nAnh Nguyễn\nCộng Đồng Việt Nhât\nNguồn:Tự mò","created_time":"2014-01-08T14:42:11+0000","updated_time":"2014-01-08T16:49:37+0000","likes":{"data":{"100000309415626":{"id":"100000309415626","name":"Kona Yuki"},"100004287313315":{"id":"100004287313315","name":"Ngô Song Toàn"},"100000380203342":{"id":"100000380203342","name":"Tuan Bui"},"100000022163023":{"id":"100000022163023","name":"Kafe Ore"},"100001337073791":{"id":"100001337073791","name":"Gm NeverWinter"},"100005940993762":{"id":"100005940993762","name":"Hiroko  Horiuchi"},"100006618643003":{"id":"100006618643003","name":"Quỳnh Như"},"1837866264":{"id":"1837866264","name":"QuynhDo Anh"},"100002137253818":{"id":"100002137253818","name":"Anh Khoa"},"100002762993041":{"id":"100002762993041","name":"Minh Phu"},"100004360629203":{"id":"100004360629203","name":"Nguyễn Ngọc"},"100004201059940":{"id":"100004201059940","name":"Maiyeuminhem Dinh"},"100002871405403":{"id":"100002871405403","name":"Thach Sanh"},"1452845400":{"id":"1452845400","name":"Thu Phuong"},"100001076277390":{"id":"100001076277390","name":"Chu Chiến"},"100000381394367":{"id":"100000381394367","name":"Thành Nguyễn"},"738235689":{"id":"738235689","name":"Dang Thi Phuong"},"100002034804853":{"id":"100002034804853","name":"Hải Mẫn"},"100004037198361":{"id":"100004037198361","name":"Cao Thanh Quyển"},"100002985247003":{"id":"100002985247003","name":"Kt Nhậu"},"100002950942558":{"id":"100002950942558","name":"Le Hien"},"100001469238963":{"id":"100001469238963","name":"Ferocita Kana Washi"},"1550521697":{"id":"1550521697","name":"Trình Nguyễn"},"100000054665103":{"id":"100000054665103","name":"John Nguyễn"},"100000341720061":{"id":"100000341720061","name":"Hai Trieu Tokyo"},"100005516772092":{"id":"100005516772092","name":"Para Bol"},"100004253979918":{"id":"100004253979918","name":"Louis Hoàng Văn Thái"},"100001520307352":{"id":"100001520307352","name":"Nguyen Sang"},"100003184969737":{"id":"100003184969737","name":"Dẫm Bẹp Chai Lavie"},"100002290906582":{"id":"100002290906582","name":"Kanashimi No Yukue"},"100005495773832":{"id":"100005495773832","name":"Hiền Vũ"},"100001717548574":{"id":"100001717548574","name":"Phuong Anh Nguyen"},"100004615412128":{"id":"100004615412128","name":"Tran D Ha"},"100003090738530":{"id":"100003090738530","name":"Ngô Thị Thanh Hường"},"100002451143782":{"id":"100002451143782","name":"New Light"},"100002615664668":{"id":"100002615664668","name":"PuPu Phương Elf"},"100003216142531":{"id":"100003216142531","name":"Dudu Tròn"},"100002508122689":{"id":"100002508122689","name":"Vũ Mạnh Tuấn"},"1846809835":{"id":"1846809835","name":"Dorae Phương"},"100006423785680":{"id":"100006423785680","name":"Lê Thanh Tâm"},"100002388453066":{"id":"100002388453066","name":"Chich Choe"},"1725907325":{"id":"1725907325","name":"Nguyen Van Dung"},"100002976213828":{"id":"100002976213828","name":"Nana"},"100000471304298":{"id":"100000471304298","name":"Nguyen Xuan Cong"},"100000280224884":{"id":"100000280224884","name":"Ngoc Bup Be"},"100001565464912":{"id":"100001565464912","name":"Hiệp Còi"},"1782985626":{"id":"1782985626","name":"Nguyễn Thế Quân"},"100006152649850":{"id":"100006152649850","name":"Lyly Le"},"100007272394237":{"id":"100007272394237","name":"Ivy Nguyen"},"100001789054977":{"id":"100001789054977","name":"Ginga Idō Shi"},"100004398962243":{"id":"100004398962243","name":"Phan Tom"},"100001744546054":{"id":"100001744546054","name":"Quân Dương"},"100004493622640":{"id":"100004493622640","name":"Ban Chita"},"100000973295703":{"id":"100000973295703","name":"El Pipita Gà"},"100003049639881":{"id":"100003049639881","name":"Truong Luvuxy"},"100003037728081":{"id":"100003037728081","name":"Nho Nguyen"},"100000008603077":{"id":"100000008603077","name":"Kjo Mạnh Khôi"},"100001899326484":{"id":"100001899326484","name":"Nguyễn Thế Anh"},"100005024348771":{"id":"100005024348771","name":"Long Hoàng"},"100000045271667":{"id":"100000045271667","name":"Nam Thai Nguyen"},"100003689503138":{"id":"100003689503138","name":"Mazi Queen"},"100001754136107":{"id":"100001754136107","name":"Nguyễn Tuấn Vũ"},"100000776461179":{"id":"100000776461179","name":"Jotaro Nguyen"},"100000019126977":{"id":"100000019126977","name":"Nguyen Thi Ngoc Anh"},"620066722":{"id":"620066722","name":"Dong Khac Thai"},"100001718883015":{"id":"100001718883015","name":"Sayonara Daisukina Hito"},"100002977923434":{"id":"100002977923434","name":"長流"},"100000083951394":{"id":"100000083951394","name":"Trác Hữu"},"1283298041":{"id":"1283298041","name":"Búa Đức Thanh"},"100001359798024":{"id":"100001359798024","name":"November Gi"},"569263718":{"id":"569263718","name":"Phuong Thao Tran"}},"paging":{"cursors":{"after":"MTAwMDAwMzA5NDE1NjI2","before":"MTAwMDAwMzA5NDE1NjI2"},"next":"https://graph.facebook.com/229244010425617_793131814036831/likes?limit=1&summary=1&after=MTAwMDAwMzA5NDE1NjI2"},"summary":{"total_count":73}},"comments":{"data":{"793138274036185":{"id":"793138274036185","from":{"id":"1094162178","name":"Ngô Vũ Hoàng"},"message":"tàu đông nó cố ý chạm \"đồ đạc\" của nó vào tay mình rồi báo với nhân viên nhà ga thì mình cũng bị bắt và bị bồi thường đó nên đi tàu tốt nhất để cả 2 tay lên vị trí cao","can_remove":false,"created_time":"2014-01-08T14:55:32+0000","like_count":10,"user_likes":false},"793138544036158":{"id":"793138544036158","from":{"id":"1146680551","name":"優しい なぁ"},"message":"Đúng đó bạn/em ^_^","can_remove":false,"created_time":"2014-01-08T14:56:21+0000","like_count":0,"user_likes":false},"793138730702806":{"id":"793138730702806","from":{"id":"100000045271667","name":"Nam Thai Nguyen"},"message":"Nhưng cũng đừng chết vì hiểu biết quá ^^","can_remove":false,"created_time":"2014-01-08T14:56:50+0000","like_count":1,"user_likes":false},"793160404033972":{"id":"793160404033972","from":{"id":"1146680551","name":"優しい なぁ"},"message":"ai bảo vậy :v","can_remove":false,"created_time":"2014-01-08T15:38:01+0000","like_count":0,"user_likes":false},"793163217367024":{"id":"793163217367024","from":{"id":"100000045271667","name":"Nam Thai Nguyen"},"message":"Đây bảo thế, đúng sở trường Anh Nguyễn: haivl \nhttp://www.haivl.com/photo/125822","can_remove":false,"created_time":"2014-01-08T15:45:33+0000","like_count":1,"user_likes":false},"793163730700306":{"id":"793163730700306","from":{"id":"100001655480602","name":"Chiaky Hoang"},"message":"haha cai nay hay nha","can_remove":false,"created_time":"2014-01-08T15:47:07+0000","like_count":0,"user_likes":false},"793164010700278":{"id":"793164010700278","from":{"id":"1146680551","name":"優しい なぁ"},"message":"comment có dấu đi bạn,có gì mà hay mà cười vậy :v","can_remove":false,"created_time":"2014-01-08T15:48:04+0000","like_count":1,"user_likes":false},"793164617366884":{"id":"793164617366884","from":{"id":"100001655480602","name":"Chiaky Hoang"},"message":"thì thấy hay giả sử những người có ý đồ xấu thì sao nhỉ","can_remove":false,"created_time":"2014-01-08T15:49:40+0000","like_count":0,"user_likes":false},"793165010700178":{"id":"793165010700178","from":{"id":"1146680551","name":"優しい なぁ"},"message":"Ý đồ xấu là sao? Chưa có hình phạt cho \"kiến dâm\" bạn ạ","can_remove":false,"created_time":"2014-01-08T15:50:53+0000","like_count":0,"user_likes":false},"793167787366567":{"id":"793167787366567","from":{"id":"100000603915176","name":"悪いな ぁ"},"message":"Anh thấy mấy con kiến nó hiền mà, với lại thực ra chưa ai tìm hiểu về vụ kiến có dâm hay kg nên chưa có hình phạt :v","can_remove":false,"created_time":"2014-01-08T15:59:50+0000","like_count":0,"user_likes":false},"793167820699897":{"id":"793167820699897","from":{"id":"100000024629190","name":"Thanh Ngọc"},"message":"cgai là チジョ （￣▽￣）","can_remove":false,"created_time":"2014-01-08T15:59:57+0000","like_count":1,"user_likes":false},"793168397366506":{"id":"793168397366506","from":{"id":"1146680551","name":"優しい なぁ"},"message":"Thanh Ngọc　よく知ってるんだ","message_tags":[{"id":"100000024629190","name":"Thanh Ngọc","type":"user","offset":0,"length":10}],"can_remove":false,"created_time":"2014-01-08T16:02:01+0000","like_count":1,"user_likes":false},"793168524033160":{"id":"793168524033160","from":{"id":"100000024629190","name":"Thanh Ngọc"},"message":"もちろん へへ","can_remove":false,"created_time":"2014-01-08T16:02:34+0000","like_count":0,"user_likes":false},"793169290699750":{"id":"793169290699750","from":{"id":"1146680551","name":"優しい なぁ"},"message":"悪いな ぁ sao biết hay thế :v \"Owl dâm\" hình như có thì phải :vl","message_tags":[{"id":"100000603915176","name":"悪いな ぁ","type":"user","offset":0,"length":5}],"can_remove":false,"created_time":"2014-01-08T16:03:52+0000","like_count":0,"user_likes":false},"793169584033054":{"id":"793169584033054","from":{"id":"100000603915176","name":"悪いな ぁ"},"message":"Cũng râm bt thoai :D","can_remove":false,"created_time":"2014-01-08T16:04:44+0000","like_count":1,"user_likes":false},"793169964033016":{"id":"793169964033016","from":{"id":"100000024629190","name":"Thanh Ngọc"},"message":"ck e dạy là thằg nào mà sờ trực tíêp 5man. k đồg ý thỳ ra csát nhá (╯▽╰)","can_remove":false,"created_time":"2014-01-08T16:06:00+0000","like_count":0,"user_likes":false},"793170047366341":{"id":"793170047366341","from":{"id":"100001526631937","name":"Tường Oanh Mineko"},"message":":(, 2 a kia bựa quá","can_remove":false,"created_time":"2014-01-08T16:06:13+0000","like_count":0,"user_likes":false},"793170234032989":{"id":"793170234032989","from":{"id":"100000603915176","name":"悪いな ぁ"},"message":"Vậy kiếm bộn nhề, arubaito mà làm giề :v","can_remove":false,"created_time":"2014-01-08T16:06:57+0000","like_count":0,"user_likes":false},"793170330699646":{"id":"793170330699646","from":{"id":"100000603915176","name":"悪いな ぁ"},"message":"Ô hay, Oanh nói gì lạ vại :'(","can_remove":false,"created_time":"2014-01-08T16:07:19+0000","like_count":0,"user_likes":false},"793170747366271":{"id":"793170747366271","from":{"id":"1146680551","name":"優しい なぁ"},"message":"Thanh Ngọccó 5 man thui á.vậy cho a tốn 5 man :)) =))","message_tags":[{"id":"100000024629190","name":"Thanh Ngọc","type":"user","offset":0,"length":10}],"can_remove":false,"created_time":"2014-01-08T16:08:22+0000","like_count":1,"user_likes":false},"793170984032914":{"id":"793170984032914","from":{"id":"100000603915176","name":"悪いな ぁ"},"message":"Vậy thì chú xd tốn thêm 5 man nữa đê :3","can_remove":false,"created_time":"2014-01-08T16:09:06+0000","like_count":0,"user_likes":false},"793171337366212":{"id":"793171337366212","from":{"id":"100000024629190","name":"Thanh Ngọc"},"message":"có nghĩa nếu ngta xin k kiện thỳ penalty 5man. ra csát thỳ lúc đấy k dưới 30 đâu nhá  :))","can_remove":false,"created_time":"2014-01-08T16:09:43+0000","like_count":0,"user_likes":false},"793171550699524":{"id":"793171550699524","from":{"id":"1146680551","name":"優しい なぁ"},"message":"vãi cải penalty,ck zui tính ghê. Xin đá phạt hàng rào được hem :)","can_remove":false,"created_time":"2014-01-08T16:10:26+0000","like_count":0,"user_likes":false},"793172014032811":{"id":"793172014032811","from":{"id":"100000603915176","name":"悪いな ぁ"},"message":"Hàng rào thì ngắn mà đòi đá phạt thì khác nào penalty :D","can_remove":false,"created_time":"2014-01-08T16:11:26+0000","like_count":0,"user_likes":false},"793173330699346":{"id":"793173330699346","from":{"id":"1146680551","name":"優しい なぁ"},"message":"Thanh Ngọclà bạn học đó pa,chọc tí cho vui.E ý lấy chồng rồi.Mấy vụ này k có đủ ne vờ ạ","message_tags":[{"id":"100000024629190","name":"Thanh Ngọc","type":"user","offset":0,"length":10}],"can_remove":false,"created_time":"2014-01-08T16:14:45+0000","like_count":0,"user_likes":false},"793173480699331":{"id":"793173480699331","from":{"id":"100001243411261","name":"Ngưu Tỷ Tỷ"},"message":"post bài để tự hứa với lòng mình hả anh Anh Nguyễn, thôi cố gắng kiềm chế nhé anh :v","message_tags":[{"id":"1146680551","name":"Anh Nguyễn","type":"user","offset":40,"length":10}],"can_remove":false,"created_time":"2014-01-08T16:15:22+0000","like_count":2,"user_likes":false},"793173994032613":{"id":"793173994032613","from":{"id":"1146680551","name":"優しい なぁ"},"message":"cái này biết lâu òi, ngu j mất số tiền ấy","can_remove":false,"created_time":"2014-01-08T16:17:06+0000","like_count":0,"user_likes":false},"793174007365945":{"id":"793174007365945","from":{"id":"100000603915176","name":"悪いな ぁ"},"message":"Ngưu Tỷ Tỷ nói linh tinh gì thế, đây là chỗ đông người mà em cứ nói toáng lên là sao?","message_tags":[{"id":"100001243411261","name":"Ngưu Tỷ Tỷ","type":"user","offset":0,"length":10}],"can_remove":false,"created_time":"2014-01-08T16:17:09+0000","like_count":1,"user_likes":false},"793175090699170":{"id":"793175090699170","from":{"id":"100000045271667","name":"Nam Thai Nguyen"},"message":"Anh em nó hiểu nhau, kệ đi bác Cú mèo","can_remove":false,"created_time":"2014-01-08T16:20:08+0000","like_count":0,"user_likes":false},"793175937365752":{"id":"793175937365752","from":{"id":"1146680551","name":"優しい なぁ"},"message":"\"Đập Muỗi\" ku nào like cmt của Ngưu Tỷ Tỷ","message_tags":[{"id":"100001243411261","name":"Ngưu Tỷ Tỷ","type":"user","offset":31,"length":10}],"can_remove":false,"created_time":"2014-01-08T16:21:34+0000","like_count":0,"user_likes":false},"793176774032335":{"id":"793176774032335","from":{"id":"100000603915176","name":"悪いな ぁ"},"message":"Ồ, anh em nó hiểu nhau là sao hả em? có người là nạn nhân của Anh Nguyễn à?","can_remove":false,"created_time":"2014-01-08T16:24:33+0000","like_count":0,"user_likes":false},"793177264032286":{"id":"793177264032286","from":{"id":"100001243411261","name":"Ngưu Tỷ Tỷ"},"message":"Nam Thai Nguyen  bác Nam thôi đã thôi rồi, vĩnh biệt ... :((","message_tags":[{"id":"100000045271667","name":"Nam Thai Nguyen","type":"user","offset":0,"length":15}],"can_remove":false,"created_time":"2014-01-08T16:25:59+0000","like_count":0,"user_likes":false},"793177280698951":{"id":"793177280698951","from":{"id":"100000045271667","name":"Nam Thai Nguyen"},"message":"Đâp đá à Anh Nguyễn. Đây like đấy, nàm thao :3","can_remove":false,"created_time":"2014-01-08T16:26:03+0000","like_count":1,"user_likes":false},"793177500698929":{"id":"793177500698929","from":{"id":"100000603915176","name":"悪いな ぁ"},"message":"Vô kỷ luật","can_remove":false,"created_time":"2014-01-08T16:26:49+0000","like_count":0,"user_likes":false},"793178027365543":{"id":"793178027365543","from":{"id":"1146680551","name":"優しい なぁ"},"message":"Ố ồ,mấy bác đêm khuya rủ nhao đập đá à","can_remove":false,"created_time":"2014-01-08T16:28:17+0000","like_count":0,"user_likes":false},"793178524032160":{"id":"793178524032160","from":{"id":"100000045271667","name":"Nam Thai Nguyen"},"message":"Đập muỗi thằng Nam đi :))))))","can_remove":false,"created_time":"2014-01-08T16:29:38+0000","like_count":0,"user_likes":false},"793179230698756":{"id":"793179230698756","from":{"id":"1146680551","name":"優しい なぁ"},"message":"悪いな ぁ　có thể chia sẻ kinh nghiệm của bác mà k bị phạt,k bị bắt k ? Bác thường hoạt động tuyến nào vại","message_tags":[{"id":"100000603915176","name":"悪いな ぁ","type":"user","offset":0,"length":5}],"can_remove":false,"created_time":"2014-01-08T16:31:06+0000","like_count":0,"user_likes":false},"793179574032055":{"id":"793179574032055","from":{"id":"100000603915176","name":"悪いな ぁ"},"message":"Tuyến tiền liệt ;)","can_remove":false,"created_time":"2014-01-08T16:32:08+0000","like_count":2,"user_likes":false},"793179904032022":{"id":"793179904032022","from":{"id":"100000045271667","name":"Nam Thai Nguyen"},"message":"Ung thư cmnr :3","can_remove":false,"created_time":"2014-01-08T16:32:51+0000","like_count":1,"user_likes":false},"793180124032000":{"id":"793180124032000","from":{"id":"1146680551","name":"優しい なぁ"},"message":"lance armstrong ^_^","can_remove":false,"created_time":"2014-01-08T16:33:23+0000","like_count":2,"user_likes":false},"793180594031953":{"id":"793180594031953","from":{"id":"100000603915176","name":"悪いな ぁ"},"message":"^.^","can_remove":false,"created_time":"2014-01-08T16:34:03+0000","like_count":0,"user_likes":false},"793185094031503":{"id":"793185094031503","from":{"id":"100001243411261","name":"Ngưu Tỷ Tỷ"},"message":"悪いな ぁ　em phải đăng nhập để like cho bác :))","message_tags":[{"id":"100000603915176","name":"悪いな ぁ","type":"user","offset":0,"length":5}],"can_remove":false,"created_time":"2014-01-08T16:45:35+0000","like_count":1,"user_likes":false},"793185714031441":{"id":"793185714031441","from":{"id":"100000603915176","name":"悪いな ぁ"},"message":":D","can_remove":false,"created_time":"2014-01-08T16:46:54+0000","like_count":0,"user_likes":false},"793186840697995":{"id":"793186840697995","from":{"id":"1146680551","name":"優しい なぁ"},"message":"Ớ,like chi vại. Lance Armstrong vs2 mà","can_remove":false,"created_time":"2014-01-08T16:49:37+0000","like_count":0,"user_likes":false}},"paging":{"cursors":{"after":"NzkzMTM4Mjc0MDM2MTg1","before":"NzkzMTM4Mjc0MDM2MTg1"},"next":"https://graph.facebook.com/229244010425617_793131814036831/comments?limit=1&summary=1&after=NzkzMTM4Mjc0MDM2MTg1"},"summary":{"order":"chronological","total_count":44}}}