{"id":"229244010425617_793367060679973","type":"status","from":{"id":"100001580358429","name":"Hoai Nam Do"},"message":"誰か助けていただけませんか？Mình muốn về nước chơi dịp tết nhưng lai bị trùng vào đợt thi,bây giờ trường nó lam khó nếu không thi thì không tốt nghiệp được.Giờ phai đưa ra 1 lí do thật đặc biệt phải về nước thì khi quay lại mới được thi lại.Có người chỉ lí do bố ốm phải nằm viện rồi về Việt nam xin giấy của bệnh viện.Bạn nào gặp trường hợp này rồi có lí do nào hay hơn không chỉ mình với.","created_time":"2014-01-09T01:15:13+0000","updated_time":"2014-01-09T07:20:33+0000","likes":{"data":{"100001172185357":{"id":"100001172185357","name":"Cà Rốt Chim Bé"},"100002672920246":{"id":"100002672920246","name":"Kevin Đoàn"},"100004079425105":{"id":"100004079425105","name":"Nhớ Đó Nha"},"100001646211560":{"id":"100001646211560","name":"Shin Chan"},"100003543943027":{"id":"100003543943027","name":"Tiểu Nhok"}},"paging":{"cursors":{"after":"MTAwMDAxMTcyMTg1MzU3","before":"MTAwMDAxMTcyMTg1MzU3"},"next":"https://graph.facebook.com/229244010425617_793367060679973/likes?limit=1&summary=1&after=MTAwMDAxMTcyMTg1MzU3"},"summary":{"total_count":5}},"comments":{"data":{"793377920678887":{"id":"793377920678887","from":{"id":"100002411696481","name":"Umisen Yamasen"},"message":"Hi2 bảo ông bà mất","can_remove":false,"created_time":"2014-01-09T01:50:18+0000","like_count":0,"user_likes":false},"793378234012189":{"id":"793378234012189","from":{"id":"100001458099624","name":"Kham Pha"},"message":"Đọc xong cái này mình vẫn tự hỏi tại sao bạn lại nảy sinh ý định về nhà trong hoàn cảnh này.\nTrường nó làm đúng nguyên tắc thôi, chỉ có bạn mới đang tự làm khó mình. Hãy suy nghĩ cho kĩ, nếu có vấn đề gì thì nhiều khả năng là bạn sẽ tay trắng đó.\nこれは誰も助けられない問題です。自分の将来に関係しますから、慎重に考えてください。","can_remove":false,"created_time":"2014-01-09T01:51:14+0000","like_count":12,"user_likes":false},"793378900678789":{"id":"793378900678789","from":{"id":"1657595398","name":"Hoàng Anh"},"message":"Bạn nên nghĩ kỹ cái j quan trọng hơn >_<","can_remove":false,"created_time":"2014-01-09T01:53:41+0000","like_count":0,"user_likes":false},"793380030678676":{"id":"793380030678676","from":{"id":"100001868009242","name":"Solo Kirashu"},"message":"VN còn nhiều cái tết mà :3 đâu phải tận thế đâu mà sợ ko ăn tết đc? :3","can_remove":false,"created_time":"2014-01-09T01:56:56+0000","like_count":0,"user_likes":false},"793383407345005":{"id":"793383407345005","from":{"id":"100001580358429","name":"Hoai Nam Do"},"message":"Cảm ơn ý kiến bạn mình sodan được rồi.","can_remove":false,"created_time":"2014-01-09T02:05:29+0000","like_count":0,"user_likes":false},"793383554011657":{"id":"793383554011657","from":{"id":"100004463230071","name":"Ngọc Aries"},"message":"the ban mun ve nuoc an cai tet ne hay mun o lai truong day mai mai,1 la 1 nam k dc an tet o nha 2 la o ben day mai hjhj","can_remove":false,"created_time":"2014-01-09T02:06:03+0000","like_count":0,"user_likes":false},"793412857342060":{"id":"793412857342060","from":{"id":"100005934548279","name":"Cậu Bé Buồn"},"message":"thôi về đợt hè cũng đc có sao đâu","can_remove":false,"created_time":"2014-01-09T03:20:55+0000","like_count":0,"user_likes":false},"793416744008338":{"id":"793416744008338","from":{"id":"100001580358429","name":"Hoai Nam Do"},"message":"Hình như có một số bạn không có hiểu vấn đề,người ta không thể dự thi thì có thể thi lại vào ngày khác.Mọi vấn đề đều có thể sodan với giáo viên có trách nhiệm ở trường.Cái minh cần là lí do hợp lý để về,còn như bạn *Khám phá* tất cả góp ý của bạn đều rất chung chung và lí thuyết chẳng Liên quan gì tới câu hỏi của mình.Không hiểu bạn đến từ hành tinh nào mà cũng có rất nhiều người like theo。たてまえ","can_remove":false,"created_time":"2014-01-09T03:31:48+0000","like_count":1,"user_likes":false},"793427780673901":{"id":"793427780673901","from":{"id":"100000028932078","name":"Ngọc Mính"},"message":"Nói thật là ko hiểu sao bạn có thể có về ăn tết và chấp nhận thi lại.bạn phải biết thi lại sẽ là 1 cái j đó ko tốt.bất khả kháng lắm mới phải thi lại.dù sao thì 1năm cũng chỉ có 1 ngày tết.sum họp với gia đình là nhất.nên chúc bạn trong mấy ngày tết có thể quên đi việc học hành và có cái tết vui vẻ @@\nPs:học hành là đặc biệt","can_remove":false,"created_time":"2014-01-09T03:44:34+0000","like_count":1,"user_likes":false},"793429204007092":{"id":"793429204007092","from":{"id":"100001580358429","name":"Hoai Nam Do"},"message":"Khổ nỗi mình sang tới 4 năm mà chưa có về lần nào,lần này học hành xong hết rồi sắp ra trường nên phải về không thì khi ra trường đi làm rồi lại phải mấy năm nữa mới được về.Mà mình đã sodan với hiệu phó ổn thỏa rồi, lỗi là ở giáo viên chủ nhiệm không có quết định được gì hết nên cứ lam khó này nọ.Cảm ơn ý kiến của mọi người.Vấn đề có thể kết thúc ở đây được rồi.","can_remove":false,"created_time":"2014-01-09T03:49:53+0000","like_count":1,"user_likes":false},"793430927340253":{"id":"793430927340253","from":{"id":"100000359762118","name":"Mi Tra"},"message":"Mình ngĩ đó không phải là làm khó. Bạn về sẽ có những ảnh hưởng như thế này, thế kia như bạn đã nêu nên giáo viên họ lo lắng cho bạn thôi. Đừng thấy người ta ngăn cản một chút là quy người ta làm khó dễ. 先生の立場に立って考えたことがありますか？","can_remove":false,"created_time":"2014-01-09T03:56:46+0000","like_count":2,"user_likes":false},"793450507338295":{"id":"793450507338295","from":{"id":"100001458099624","name":"Kham Pha"},"message":"Nói thế này có thể bạn ko thích nhưng khi về VN đi chơi bạn bè, uống rượu bia có vấn đề gì đó, hoặc chỉ là do thay đổi khí hậu môi trường do đã lâu bạn ko về khiến bạn ốm ko sang kịp để thi lại và tốt nghiệp đúng thời hạn thì sao. Lúc đó thì hối hận chẳng kịp. Dù sao bạn là người trưởng thành rồi, chắc tự chịu trách nhiệm đc với bản thân nên thôi xin phép chỉ dừng ý kiến ở đây.\np/s mọi người góp ý chân thành thì đừng chỉ trích người ta.","can_remove":false,"created_time":"2014-01-09T05:10:25+0000","like_count":2,"user_likes":false},"793478560668823":{"id":"793478560668823","from":{"id":"100001526631937","name":"Tường Oanh Mineko"},"message":"cảm ơn mọi ng vì đã góp ý đi chớ a Hoai Nam Do","message_tags":[{"id":"100001580358429","name":"Hoai Nam Do","type":"user","offset":35,"length":11}],"can_remove":false,"created_time":"2014-01-09T06:42:15+0000","like_count":0,"user_likes":false},"793488324001180":{"id":"793488324001180","from":{"id":"100001580358429","name":"Hoai Nam Do"},"message":"ありがとうございました。","can_remove":false,"created_time":"2014-01-09T07:20:33+0000","like_count":0,"user_likes":false}},"paging":{"cursors":{"after":"NzkzMzc3OTIwNjc4ODg3","before":"NzkzMzc3OTIwNjc4ODg3"},"next":"https://graph.facebook.com/229244010425617_793367060679973/comments?limit=1&summary=1&after=NzkzMzc3OTIwNjc4ODg3"},"summary":{"order":"chronological","total_count":16}}}