{"id":"229244010425617_793580677325278","type":"status","from":{"id":"100003913383051","name":"Tho Tran"},"message":"Xin phép các ad cho em phản hồi xíu ạ! \nChả là thế này: mấy hôm nay em thấy trang cộng đồng Việt Nhật có nhiều thông tin bị loãng quá ạ!!! Rao vặt cũng nhiều,  tin nhảm nhí cũng nhiều đây là suy nghĩ cá nhân của em khi thấy những bài đăng đó . Để đảm bảo tính khách quan  em nghĩ cần phải có biện pháp ngăn chặn các tin rao vặt, tin nhảm nhí nhằm tránh tình trạng gây loãng thông tin của nhóm ạ!!!\nTrên đây là một số ý kiến của riêng em mong các ad ...suy xét và cân nhắc ạ!!! Nếu những điều trên có gì không phải mong các ad bỏ qua và các men đừng bức xúc mà ném đá, kẻo khổ thân em ạ!!!\nCảm ơn!!!!!","created_time":"2014-01-09T12:48:12+0000","updated_time":"2014-01-09T17:03:55+0000","likes":{"data":{"100006671072252":{"id":"100006671072252","name":"Cònlạigì Saucơnmưa"},"1223217351":{"id":"1223217351","name":"Lê Minh Quân"},"100001695345798":{"id":"100001695345798","name":"Tyn Aki"},"100000068660150":{"id":"100000068660150","name":"Hito Kami"},"100001848885057":{"id":"100001848885057","name":"Tiểu Mỡ Nhi"},"100002388453066":{"id":"100002388453066","name":"Chich Choe"},"100003256328592":{"id":"100003256328592","name":"Cityhunter Hiep"},"100005801442456":{"id":"100005801442456","name":"An Nguyen"}},"paging":{"cursors":{"after":"MTAwMDA2NjcxMDcyMjUy","before":"MTAwMDA2NjcxMDcyMjUy"},"next":"https://graph.facebook.com/229244010425617_793580677325278/likes?limit=1&summary=1&after=MTAwMDA2NjcxMDcyMjUy"},"summary":{"total_count":8}},"comments":{"data":{"793583847324961":{"id":"793583847324961","from":{"id":"100001458099624","name":"Kham Pha"},"message":"bạn hãy chỉ đích danh tin nhảm nhí trong group mà bạn thấy, copy link vào dưới đây, các admin sẽ cân nhắc :)","can_remove":false,"created_time":"2014-01-09T12:55:44+0000","like_count":0,"user_likes":false},"793584880658191":{"id":"793584880658191","from":{"id":"100002421205294","name":"Nghèo Kệ Tôi"},"message":"Không có gì bạn ah! Bạn góp ý để nhóm admin làm việc hiệu quả hơn\nCác tin rác đó chỉ là tạm thời những lúc đó các admin không có mặt nên chưa ngăn chặn được. Nhưng ít phút sau các bài đó sẽ mất thôi bạn ah","can_remove":false,"created_time":"2014-01-09T12:58:57+0000","like_count":0,"user_likes":false},"793585070658172":{"id":"793585070658172","from":{"id":"100003913383051","name":"Tho Tran"},"message":"https://www.facebook.com/groups/CongdongVietNhat/permalink/793075490709130/","can_remove":false,"created_time":"2014-01-09T12:59:27+0000","like_count":0,"user_likes":false},"793585207324825":{"id":"793585207324825","from":{"id":"100003913383051","name":"Tho Tran"},"message":"https://www.facebook.com/groups/CongdongVietNhat/permalink/793556467327699/","can_remove":false,"created_time":"2014-01-09T12:59:47+0000","like_count":0,"user_likes":false},"793585290658150":{"id":"793585290658150","from":{"id":"100004790944770","name":"Phạm Tuyến"},"message":"(Y)","can_remove":false,"created_time":"2014-01-09T12:59:56+0000","like_count":0,"user_likes":false},"793586020658077":{"id":"793586020658077","from":{"id":"100003913383051","name":"Tho Tran"},"message":"Vì em sưr dụng điện thoại nên không sao chép đk hết link ạ!!!đaay  cái nhìn của cá nhân em, nên em có ý kiếm mong được xem xét ad ạ!!!","can_remove":false,"created_time":"2014-01-09T13:02:09+0000","like_count":0,"user_likes":false},"793586223991390":{"id":"793586223991390","from":{"id":"100001458099624","name":"Kham Pha"},"message":"Tho Tran cảm ơn bạn đã góp ý nhưng mình thấy các bài đó đâu có vấn đề gì. Tạo một môi trường công khai minh bạch để mọi người đưa ra quan điểm, chống lừa đảo với các du học sinh Nhật cũng là một trong các mục tiêu của group\nNếu vẫn còn thì xin bạn cứ tiếp tục, các admin sẽ vào đối chất :)","message_tags":[{"id":"100003913383051","name":"Tho Tran","type":"user","offset":0,"length":8}],"can_remove":false,"created_time":"2014-01-09T13:02:47+0000","like_count":1,"user_likes":false},"793587167324629":{"id":"793587167324629","from":{"id":"1146680551","name":"優しい なぁ"},"message":"Rất cần các ý kiến phản hồi của các mem.Cảm ơn em đã đóng góp.Qua thấy cũng thấy độ quan tâm của các bạn ấy chứ nhỉ.\" Mấy hôm nay\" chứng tỏ ngày nào cũng vào.^_^","can_remove":false,"created_time":"2014-01-09T13:04:56+0000","like_count":3,"user_likes":false},"793587630657916":{"id":"793587630657916","from":{"id":"100004790944770","name":"Phạm Tuyến"},"message":"Tho Tran nói đúng đấy Kham Pha ạ đây là hội Cộng Đồng Việt Nhật chứ hk phải cái * Chợ*","can_remove":false,"created_time":"2014-01-09T13:05:15+0000","like_count":0,"user_likes":false},"793588027324543":{"id":"793588027324543","from":{"id":"100003913383051","name":"Tho Tran"},"message":"Huhu em thấy những tin này xuất hiện ở nhiều trang nhưng nhận được những comment toàn người này nói xấu người kia thôi ạ!!! Vì thế theo cái nhìn của em thì ...","can_remove":false,"created_time":"2014-01-09T13:05:43+0000","like_count":0,"user_likes":false},"793590817324264":{"id":"793590817324264","from":{"id":"100000603915176","name":"悪いな ぁ"},"message":"Tho Tran nói đúng nhưng cái ví dụ kg đúng. Đây là bài cảnh báo của member với mọi người, tốt mà. Nếu họ kg có chứng cớ thì sẽ bị xoá ngay vì đó là nói xấu người khác, còn nếu có chứng cớ thì đáng để mọi người biết lắm chứ.","can_remove":false,"created_time":"2014-01-09T13:13:41+0000","like_count":5,"user_likes":false},"793595443990468":{"id":"793595443990468","from":{"id":"100003913383051","name":"Tho Tran"},"message":"Cảm ơn các ad đã lưu tâm ạ!!! Có lẽ nói lí do đung điện thoại không lưu được link thì cũng không chính đáng nhưng suy nghĩ của em thì lại thấy... Húc không biết phải diễn đạt lại như thế nào với cái suy nghĩ như thế này ạ!!! :(","can_remove":false,"created_time":"2014-01-09T13:27:53+0000","like_count":2,"user_likes":false},"793598683990144":{"id":"793598683990144","from":{"id":"100000603915176","name":"悪いな ぁ"},"message":"Em kg cần diễn đạt gì nữa, mọi cái trên status em nói chuẩn rồi mà. Có điều cái ví dụ thì chưa chuẩn thôi :p","can_remove":false,"created_time":"2014-01-09T13:29:27+0000","like_count":0,"user_likes":false},"793603823989630":{"id":"793603823989630","from":{"id":"100001887921127","name":"Kata Apple"},"message":"Bạn cũng đừng quá suy nghĩ, theo mình đây là trang Cộng đồng nên các bạn ấy có post  tin quảng cáo hay j đó cũng giúp cho trang có nhiều thông tin hữu ích để tham khảo thôi mà. Bạn có thể ẩn tin báo đến cũng dc^•^","can_remove":false,"created_time":"2014-01-09T13:38:49+0000","like_count":0,"user_likes":false},"793609230655756":{"id":"793609230655756","from":{"id":"100003913383051","name":"Tho Tran"},"message":"Kata Apple: cảm ơn về sự góp ý ạ! Em đọc nội quy của group em nhớ không nhầm thì  trang không được dùng để  đăng tin quảng cáo ạ!!! Trang hoạt động với tính chất học tập, giao lưu, tìm hiểu và kết nối cuộc sống của cộng đồng người Việt tại Nhật và ngược lại ạ!!!","can_remove":false,"created_time":"2014-01-09T13:55:14+0000","like_count":4,"user_likes":false},"793636953986317":{"id":"793636953986317","from":{"id":"100001416272263","name":"Mai PB"},"message":"Đúng là thông tin kiểu trên không kiểm chứng được. \"Giết nhầm hơn bỏ sót\", hay \"rộng đường dư luận\"? Thực ra những thông tin trên cũng được post ở những page/group mà trong thành viên có nhiều gà và sói :-), nên cá nhân mình nghĩ xóa ở đây cũng không sao cả. Còn quảng cáo thì tất nhiên bị xóa rồi, nhưng dạo này các ad đang mải bánh chưng bị cảm lạnh, các mem thông cảm. :-)","can_remove":false,"created_time":"2014-01-09T15:00:42+0000","like_count":2,"user_likes":false},"793640300652649":{"id":"793640300652649","from":{"id":"100003913383051","name":"Tho Tran"},"message":"Dạ chỉ là ý kiến của riêng em thôi ạ!!! Nhưng dù sao cũng cảm ơn các ad nhiều ạ !!!","can_remove":false,"created_time":"2014-01-09T15:08:44+0000","like_count":0,"user_likes":false},"793646050652074":{"id":"793646050652074","from":{"id":"100006520210904","name":"Miu Miu"},"message":"Mọi người nên có ý thức cộng đồng và khi cm thì nên suy nghĩ về lời viết của mình chứ đừng nên cho những cm ko có tính văn minh ah","can_remove":false,"created_time":"2014-01-09T15:22:35+0000","like_count":2,"user_likes":false},"793646893985323":{"id":"793646893985323","from":{"id":"100003913383051","name":"Tho Tran"},"message":"Chị/bạn: có thể nói rõ hơn không ạ???","can_remove":false,"created_time":"2014-01-09T15:25:05+0000","like_count":0,"user_likes":false},"793663280650351":{"id":"793663280650351","from":{"id":"100006520210904","name":"Miu Miu"},"message":"Bạn Tho Tran chắc có gì đó hiểu sai phải ko nhỉ? Đây là mình nói chung và góp ý thêm vào stt của vạn","can_remove":false,"created_time":"2014-01-09T15:59:38+0000","like_count":2,"user_likes":false},"793664233983589":{"id":"793664233983589","from":{"id":"100003913383051","name":"Tho Tran"},"message":"Dạ cảm ơn chị/bạn!","can_remove":false,"created_time":"2014-01-09T16:01:12+0000","like_count":0,"user_likes":false},"793667780649901":{"id":"793667780649901","from":{"id":"100000603915176","name":"悪いな ぁ"},"message":"Đề nghị Kham Pha cơ cấu cho bạn Tho Tran vào vị trí admin!","message_tags":[{"id":"100001458099624","name":"Kham Pha","type":"user","offset":8,"length":8}],"can_remove":false,"created_time":"2014-01-09T16:07:41+0000","like_count":0,"user_likes":false},"793668547316491":{"id":"793668547316491","from":{"id":"1146680551","name":"優しい なぁ"},"message":"Ờ bác bị sao vạiTho Tran là đảng viên trẻ,nằm trong qui hoạch rồi :))","message_tags":[{"id":"100003913383051","name":"Tho Tran","type":"user","offset":16,"length":8}],"can_remove":false,"created_time":"2014-01-09T16:09:31+0000","like_count":1,"user_likes":false},"793669377316408":{"id":"793669377316408","from":{"id":"100003913383051","name":"Tho Tran"},"message":"Dạ cảm ơn các ad! Em xin phép vì có lẽ năng lực chưa  đủ để tham gia gánh vác ạ!!!","can_remove":false,"created_time":"2014-01-09T16:11:54+0000","like_count":0,"user_likes":false},"793669897316356":{"id":"793669897316356","from":{"id":"100000603915176","name":"悪いな ぁ"},"message":"Chị kg phải là ad đâu, chị chỉ đề nghị cơ cấu thui. Riêng việc em dẹp mấy cái QC linh tinh là đủ năng lực rùi, sau đó sẽ tự có năng lực khác :)","can_remove":false,"created_time":"2014-01-09T16:13:37+0000","like_count":2,"user_likes":false},"793670453982967":{"id":"793670453982967","from":{"id":"100003913383051","name":"Tho Tran"},"message":"Dạ cảm ơn chị đã khích lệ ạ!!!","can_remove":false,"created_time":"2014-01-09T16:15:02+0000","like_count":0,"user_likes":false},"793670503982962":{"id":"793670503982962","from":{"id":"569263718","name":"Phuong Thao Tran"},"message":"Tho Tran chị thích em rồi đấy, ^^","can_remove":false,"created_time":"2014-01-09T16:15:08+0000","like_count":2,"user_likes":false},"793670833982929":{"id":"793670833982929","from":{"id":"100000603915176","name":"悪いな ぁ"},"message":"Đấy, Mr Kham Pha đâu rùi, có bỏ phiếu rùi. Phong hàm rồi cho nhậm chức mới đi :D","message_tags":[{"id":"100001458099624","name":"Kham Pha","type":"user","offset":8,"length":8}],"can_remove":false,"created_time":"2014-01-09T16:16:08+0000","like_count":0,"user_likes":false},"793673053982707":{"id":"793673053982707","from":{"id":"569263718","name":"Phuong Thao Tran"},"message":"Anh Nguyễn chị thấy ai em cũng cho quy hoạch cả vậy, đừng để dự án treo chứ","message_tags":[{"id":"1146680551","name":"Anh Nguyễn","type":"user","offset":0,"length":10}],"can_remove":false,"created_time":"2014-01-09T16:21:51+0000","like_count":1,"user_likes":false},"793673870649292":{"id":"793673870649292","from":{"id":"1146680551","name":"優しい なぁ"},"message":"Nhật mà,dự án k treo đâu.1 năm 2 năm,5 năm.tùy thời gian sẽ làm.Chứ k treo như VN đâu đừng lo :)","can_remove":false,"created_time":"2014-01-09T16:23:49+0000","like_count":1,"user_likes":false},"793674253982587":{"id":"793674253982587","from":{"id":"100003913383051","name":"Tho Tran"},"message":"Chị Thảo: em thích chị từ trước rồi ạ!!!","can_remove":false,"created_time":"2014-01-09T16:25:00+0000","like_count":1,"user_likes":false},"793674487315897":{"id":"793674487315897","from":{"id":"100003913383051","name":"Tho Tran"},"message":"Anh Nguyễn: cảm ơn anh!!! Đừng treo dự án như thế ạ!!!","can_remove":false,"created_time":"2014-01-09T16:25:39+0000","like_count":0,"user_likes":false},"793677097315636":{"id":"793677097315636","from":{"id":"100000045271667","name":"Nam Thai Nguyen"},"message":"Anh Nguyễn cẩn thận cho hưởng án treo đấy ^^","can_remove":false,"created_time":"2014-01-09T16:32:51+0000","like_count":0,"user_likes":false},"793677783982234":{"id":"793677783982234","from":{"id":"569263718","name":"Phuong Thao Tran"},"message":"thế còn cái vụ clip gì đó có nằm trong dự án treo ko Anh Nguyễn ơi","message_tags":[{"id":"1146680551","name":"Anh Nguyễn","type":"user","offset":53,"length":10}],"can_remove":false,"created_time":"2014-01-09T16:34:50+0000","like_count":0,"user_likes":false},"793678223982190":{"id":"793678223982190","from":{"id":"1146680551","name":"優しい なぁ"},"message":"Không treo đâu.Chị kêu gọi thêm thành viên đi.","can_remove":false,"created_time":"2014-01-09T16:36:22+0000","like_count":0,"user_likes":false},"793678800648799":{"id":"793678800648799","from":{"id":"569263718","name":"Phuong Thao Tran"},"message":"hên quá Tho Tran ơi, em ko bị treo trong dự án clip, ^^","can_remove":false,"created_time":"2014-01-09T16:37:52+0000","like_count":2,"user_likes":false},"793679013982111":{"id":"793679013982111","from":{"id":"569263718","name":"Phuong Thao Tran"},"message":"nếu em nghiêm túc thì để bàn cụ thể đã, chưa gì mà kêu gọi gì đc","can_remove":false,"created_time":"2014-01-09T16:38:37+0000","like_count":1,"user_likes":false},"793679137315432":{"id":"793679137315432","from":{"id":"100003913383051","name":"Tho Tran"},"message":"He he nhưng em nói trước rồi nhé!! Em chỉ có thể hét to và hét bằng tiếng việt thôi chị nhé :))","can_remove":false,"created_time":"2014-01-09T16:39:02+0000","like_count":0,"user_likes":false},"793679550648724":{"id":"793679550648724","from":{"id":"1146680551","name":"優しい なぁ"},"message":"Để tí viết rồi gởi chị xme thử nhé Phuong Thao Tran","message_tags":[{"id":"569263718","name":"Phuong Thao Tran","type":"user","offset":35,"length":16}],"can_remove":false,"created_time":"2014-01-09T16:40:14+0000","like_count":1,"user_likes":false},"793680743981938":{"id":"793680743981938","from":{"id":"569263718","name":"Phuong Thao Tran"},"message":"tiếng Nhật mà hét càng to càng tốt em ạ, vì ko ai nghe ra :D","can_remove":false,"created_time":"2014-01-09T16:42:47+0000","like_count":0,"user_likes":false},"793681003981912":{"id":"793681003981912","from":{"id":"100003913383051","name":"Tho Tran"},"message":":( tiềng nhật em mới học xong bảng chữ cái chị ạ :(","can_remove":false,"created_time":"2014-01-09T16:43:35+0000","like_count":0,"user_likes":false},"793681260648553":{"id":"793681260648553","from":{"id":"100000603915176","name":"悪いな ぁ"},"message":"Mọi người đang nói cái clip gì đấy?","can_remove":false,"created_time":"2014-01-09T16:44:09+0000","like_count":0,"user_likes":false},"793681493981863":{"id":"793681493981863","from":{"id":"569263718","name":"Phuong Thao Tran"},"message":"hồi xưa chị mới học romaji là đã tập hát bài ue wo muite arukou rồi đấy, ko sao đâu em","can_remove":false,"created_time":"2014-01-09T16:44:37+0000","like_count":1,"user_likes":false},"793681617315184":{"id":"793681617315184","from":{"id":"100006520210904","name":"Miu Miu"},"message":"Clip về bài hát đứa bé bằng tiếng nhật ah","can_remove":false,"created_time":"2014-01-09T16:44:59+0000","like_count":2,"user_likes":false},"793681807315165":{"id":"793681807315165","from":{"id":"100000603915176","name":"悪いな ぁ"},"message":"À à, biết rồi. Vụ này có phải Anh Nguyễn là ca sĩ chính không?","message_tags":[{"id":"1146680551","name":"Anh Nguyễn","type":"user","offset":30,"length":10}],"can_remove":false,"created_time":"2014-01-09T16:45:25+0000","like_count":1,"user_likes":false},"793682167315129":{"id":"793682167315129","from":{"id":"569263718","name":"Phuong Thao Tran"},"message":"đúng rồi chị warui nà","can_remove":false,"created_time":"2014-01-09T16:46:26+0000","like_count":0,"user_likes":false},"793682870648392":{"id":"793682870648392","from":{"id":"100000603915176","name":"悪いな ぁ"},"message":"Thế có phải lột đồ giống kiểu Không đòi quà không? Trời lạnh lắm mà Anh Nguyễn hay ngượng :D","message_tags":[{"id":"1146680551","name":"Anh Nguyễn","type":"user","offset":68,"length":10}],"can_remove":false,"created_time":"2014-01-09T16:48:01+0000","like_count":0,"user_likes":false},"793682920648387":{"id":"793682920648387","from":{"id":"1146680551","name":"優しい なぁ"},"message":"Không phải đâu","can_remove":false,"created_time":"2014-01-09T16:48:08+0000","like_count":0,"user_likes":false},"793684020648277":{"id":"793684020648277","from":{"id":"569263718","name":"Phuong Thao Tran"},"message":"sao chị ấy lại hiểu Anh Nguyễn thế nhẩy, :D","message_tags":[{"id":"1146680551","name":"Anh Nguyễn","type":"user","offset":20,"length":10}],"can_remove":false,"created_time":"2014-01-09T16:50:50+0000","like_count":0,"user_likes":false},"793684437314902":{"id":"793684437314902","from":{"id":"1146680551","name":"優しい なぁ"},"message":"悪いな ぁ tham gia chứ bác","message_tags":[{"id":"100000603915176","name":"悪いな ぁ","type":"user","offset":0,"length":5}],"can_remove":false,"created_time":"2014-01-09T16:51:43+0000","like_count":0,"user_likes":false},"793684603981552":{"id":"793684603981552","from":{"id":"100000603915176","name":"悪いな ぁ"},"message":"Chị ở xa quá em thông cảm :(","can_remove":false,"created_time":"2014-01-09T16:52:05+0000","like_count":0,"user_likes":false},"793689920647687":{"id":"793689920647687","from":{"id":"1146680551","name":"優しい なぁ"},"message":"Đâu làm cả viêt - nhât mà","can_remove":false,"created_time":"2014-01-09T17:03:55+0000","like_count":0,"user_likes":false}},"paging":{"cursors":{"after":"NzkzNTgzODQ3MzI0OTYx","before":"NzkzNTgzODQ3MzI0OTYx"},"next":"https://graph.facebook.com/229244010425617_793580677325278/comments?limit=1&summary=1&after=NzkzNTgzODQ3MzI0OTYx"},"summary":{"order":"chronological","total_count":52}}}