{"id":"229244010425617_793528120663867","type":"status","from":{"id":"100000075022900","name":"Lan Chi Nguyễn"},"message":"Khi đến Nhật, ai cũng có những suy nghĩ, cách nhìn nhận mới mẻ và khác lạ về nước Nhật của riêng mình. Nước Nhật đã từng rất nổi tiếng trên thế giới về sự chỉn chu, ngăn nắp hay cách nói khác đó là sự làm việc khoa học mình đã từng được nghe qua khi còn ở Việt Nam, nhưng quả thật khi đến Nhật mới hiểu rõ, và cảm nhận rõ được điều đó.\nCó lẽ mỗi người khác nhau sẽ có những cách suy nghĩ hay cái nhìn khác nhau về sự chỉn chu, toàn vẹn đó. Nhưng theo cách suy nghĩ của mình, đó không chỉ là cách sắp xếp gọn gàng, ngăn nắp các đồ vật, mà còn là sự tư duy đầu óc làm việc tổ chức một cách hợp lý, có khoa học.\nNói đến sự sắp xếp, xử lý các đồ vật, mình đã rất chú ý đến mức ngạc nhiên khó thốt thành lời khi xem cách phơi quần áo của một bà mẹ Nhật. Có lẽ nhắc đến phơi quần áo, mọi người đều cho rằng đó là một công việc hết sức bình thường trong cuộc sống hàng ngày, thế nhưng khi “đứng hình” nhìn bà mẹ ấy phơi quần áo, tôi đã tưởng như bà ấy đang làm một công trình khoa học cần sự chỉn chu và tỉ mỉ đến từng chi tiết vậy. Trước khi phơi quần áo, đủ loại móc treo được chuẩn bị, phơi áo khoác móc treo riêng, phơi áo có mũ móc treo khác, áo len cũng lại một loại móc treo chuyên dụng. Tiếp đến là dàn cặp phơi quần áo, dàn cặp áo quần nhỏ riêng, cặp tất riêng, cặp khăn riêng... Đến công đoạn phơi, có thể thấy dường như bà mẹ ấy dồn hết tâm huyết tình cảm tỉ mỉ đến từng chi tiết với cái áo, cái quần. Mỗi cái phơi lên bà đều dùng tay vuốt phẳng phiu, quần áo nào dày bà dùng 2 tay đập “ bộp... bộp” cho ráo nước, cũng để quần áo được phẳng. Bà nói vì quần áo sẽ giữ nguyên hình dáng phẳng phiu hay nhăn nheo khi phơi, nên phải chú ý để khi khô quần áo trở nên đẹp đẽ.\n\nThật ra điều mình suy nghĩ là cảm nhận như những chuyện tưởng chừng rất nhỏ, rất đỗi bình thường trong cuộc sống hàng ngày, cũng được người Nhật để ý, chỉn chu cẩn thận một cách tỉ mỉ. Thế rồi mình nghĩ, phải chăng khi chú ý từ những điều nhỏ nhất như vậy khiến cách suy nghĩ cũng thay đổi theo.\nNgười Nhật thì nổi tiếng trong không chỉ việc sắp xếp đồ đạc, vật dụng một cách khoa học, mà nổi tiếng trong cả việc xếp “người”. Từ việc xếp hàng dài chờ ăn, xếp hàng chờ lên tàu đến việc xếp xe “ô tô” khi tắc đường.\n\nVề cách sắp xếp đầu óc, hợp lý hóa của người Nhật cũng khiến mình rất khâm phục, trước từng giai đoạn mốc thời gian quan trọng đều lên những kế hoạch rõ ràng, chỉn chu. Trước từng sản phẩm đưa ra đều nghĩ đến sự tiện lợi sử dụng cho người tiêu dùng, từ những sản phẩm nhỏ nhất, như đũa ăn liền thì bên trong sẽ kèm thêm tăm, tolet sưởi ấm, hay giá treo ô tiện lợi để vừa đi xe đạp vừa có ô che trên đầu mà vẫn lái xe được bằng 2 tay...\n\nTất nhiên mỗi vấn đề đều có 2 mặt, đôi khi sự chỉn chu, tỉ mỉ, khoa học ấy cũng khiến mình cảm thấy khó chịu, phiền phức hay rắc rối, nhưng xét cho cùng thì đây là một đức tính rất đáng để học tập của người Nhật.\nMình đã rất thắc mắc rằng vậy tại sao người Nhật lại có đức tính đó, tại sao người Nhật lại có thể chỉn chu, cầu toàn đến vậy. Tất cả xuất phát từ đâu? \nPhải chăng là từ xưa đất nước Nhật là một đất nước nghèo tài nguyên thiên nhiên. Tất cả những gì họ có là sức người là bộ não suy nghĩ của từng cá nhân con người. Vì thế những gì nhỏ nhất đều do con người làm nên, cũng cần cố gắng tỉ mỉ suy nghĩ để phát triển nên một nước Nhật như ngày hôm nay.\nMình có hỏi một người Nhật với sự thắc mắc như vậy, bà nói “ Xác định ngay từ đầu rõ ràng công việc nào làm, công việc nào không cần thiết làm, nếu đã làm thì sẽ làm đến cùng, làm một cách chỉn chu, dù khó thế nào cũng không bỏ cuộc và làm đến cùng.”\nĐó cũng chính là bài học quý giá mà mình đã học được sau 1 năm đến Nhật, nhưng để duy trì nó là một bài học còn khó hơn nữa.","created_time":"2014-01-09T09:59:43+0000","updated_time":"2014-01-10T05:44:11+0000","likes":{"data":{"1276744041":{"id":"1276744041","name":"Oanh Pham"},"100003204501178":{"id":"100003204501178","name":"Hanh Nguyen Yokohama"},"1574575448":{"id":"1574575448","name":"An Na An"},"100004028042818":{"id":"100004028042818","name":"Diệp Nguyễn"},"100005738675827":{"id":"100005738675827","name":"Nguyen Nhat"},"655982125":{"id":"655982125","name":"Le Thi Nga My"},"100001754136107":{"id":"100001754136107","name":"Nguyễn Tuấn Vũ"},"100002722010633":{"id":"100002722010633","name":"Chíp Híp"},"100004392823234":{"id":"100004392823234","name":"Anh Dũng Nguyễn"},"100002093975536":{"id":"100002093975536","name":"Thùy Trang Nguyễn"},"100005866751996":{"id":"100005866751996","name":"Nam Nguyen"},"100004889430124":{"id":"100004889430124","name":"Quiet Man"},"100006520210904":{"id":"100006520210904","name":"Miu Miu"},"100007108993435":{"id":"100007108993435","name":"Thủy Ngô"},"587084690":{"id":"587084690","name":"Bitter Candy"},"100001848885057":{"id":"100001848885057","name":"Tiểu Mỡ Nhi"},"100005801442456":{"id":"100005801442456","name":"An Nguyen"},"1725907325":{"id":"1725907325","name":"Nguyen Van Dung"},"100002866498653":{"id":"100002866498653","name":"Lê Thanh Hằng"},"100007414505951":{"id":"100007414505951","name":"Xanhxanh Xanh"},"100000973295703":{"id":"100000973295703","name":"El Pipita Gà"},"100000022163023":{"id":"100000022163023","name":"Kafe Ore"},"100000298989958":{"id":"100000298989958","name":"Anh Đô"},"100002915221704":{"id":"100002915221704","name":"Nỗi Buồn Của Nắng"},"100001092642852":{"id":"100001092642852","name":"Tyty ITradi"},"100001416272263":{"id":"100001416272263","name":"Mai PB"},"1283298041":{"id":"1283298041","name":"Búa Đức Thanh"},"1108328257":{"id":"1108328257","name":"Kenji Le"},"1318895018":{"id":"1318895018","name":"Van T Tran"},"100000188988614":{"id":"100000188988614","name":"Mai Min"},"100001526631937":{"id":"100001526631937","name":"Tường Oanh Mineko"},"100000500260636":{"id":"100000500260636","name":"Lưu Nguyễn Thảo Tiên"},"1550521697":{"id":"1550521697","name":"Trình Nguyễn"},"100001283015293":{"id":"100001283015293","name":"Yamai Taro"},"1744556343":{"id":"1744556343","name":"Thùy Dương"},"100002421205294":{"id":"100002421205294","name":"Nghèo Kệ Tôi"},"100000058089551":{"id":"100000058089551","name":"Hoang Thanh Huyen"},"100002380957434":{"id":"100002380957434","name":"Star Mai"},"1250063068":{"id":"1250063068","name":"Tuấn Tử Tế"},"100000031785403":{"id":"100000031785403","name":"Hoàng Thanh Mai"},"100003632988405":{"id":"100003632988405","name":"Skr Trang"},"100004051598036":{"id":"100004051598036","name":"Chris Hoang"},"1043163598":{"id":"1043163598","name":"Nguyễn Đỗ Nguyệt Ánh"},"100002847680500":{"id":"100002847680500","name":"Jenny Bom"},"100003327351931":{"id":"100003327351931","name":"Bánh Mì Sữa"},"100003607925265":{"id":"100003607925265","name":"Thu Hằng"},"100002980297512":{"id":"100002980297512","name":"Phong Pham"},"1416265619":{"id":"1416265619","name":"Starwar Bbj"},"100003134302940":{"id":"100003134302940","name":"Diệu Thiện"},"569263718":{"id":"569263718","name":"Phuong Thao Tran"},"100001725929217":{"id":"100001725929217","name":"Lat Dat Mac Mua"},"1843103451":{"id":"1843103451","name":"Việt Vui Vẻ"},"100006671800165":{"id":"100006671800165","name":"Xa Mà Gần"},"100004119541573":{"id":"100004119541573","name":"Thùy Dung"},"100000603915176":{"id":"100000603915176","name":"悪いな ぁ"},"100004090172888":{"id":"100004090172888","name":"Nguyễn Ngọc"},"100001458099624":{"id":"100001458099624","name":"Kham Pha"},"100005516140411":{"id":"100005516140411","name":"Xì Trum"},"100004037576947":{"id":"100004037576947","name":"Mã Nhi"},"100003016169062":{"id":"100003016169062","name":"Love Rain"},"1146680551":{"id":"1146680551","name":"優しい なぁ"},"100002921053009":{"id":"100002921053009","name":"Mèo Con"}},"paging":{"cursors":{"after":"MTI3Njc0NDA0MQ==","before":"MTI3Njc0NDA0MQ=="},"next":"https://graph.facebook.com/229244010425617_793528120663867/likes?limit=1&summary=1&after=MTI3Njc0NDA0MQ%3D%3D"},"summary":{"total_count":64}},"comments":{"data":{"793528260663853":{"id":"793528260663853","from":{"id":"100002921053009","name":"Mèo Con"},"message":"like ngay cho chi :3","can_remove":false,"created_time":"2014-01-09T10:00:30+0000","like_count":1,"user_likes":false},"793528670663812":{"id":"793528670663812","from":{"id":"100000075022900","name":"Lan Chi Nguyễn"},"message":"tớ cảm ơn cậu, nhưng tớ đang muốn mọi người góp ý hay bổ sung cho tớ những phần tớ chưa hiểu rõ vấn đề nữa. よろしくお願いいたします。","can_remove":false,"created_time":"2014-01-09T10:02:35+0000","like_count":0,"user_likes":false},"793529773997035":{"id":"793529773997035","from":{"id":"1146680551","name":"優しい なぁ"},"message":"Thế bạn đã có thay đổi gì với bản thân chưa?","can_remove":false,"created_time":"2014-01-09T10:07:30+0000","like_count":0,"user_likes":false},"793530857330260":{"id":"793530857330260","from":{"id":"100001458099624","name":"Kham Pha"},"message":"quan sát tinh tế :)\nmình học đc một điều: ko nên nói nặng lời với người khác dù họ có mắc lỗi gì :)","can_remove":false,"created_time":"2014-01-09T10:10:57+0000","like_count":3,"user_likes":false},"793532533996759":{"id":"793532533996759","from":{"id":"100000075022900","name":"Lan Chi Nguyễn"},"message":"Từ khi hiểu được vấn đề thì em đang dần thay đổi những cái từ nhỏ nhất trong cs anh ạ. \n\"Gieo suy nghĩ, gặt hành động, gieo hành động, gặt thói quen, gieo thói quen, gặt tính cách.\" mà ^^","can_remove":false,"created_time":"2014-01-09T10:15:45+0000","like_count":3,"user_likes":false},"793532963996716":{"id":"793532963996716","from":{"id":"100000075022900","name":"Lan Chi Nguyễn"},"message":"Kham Pha : Bạn này nói đúng quá, thấy từ hồi mình ở nhật thấy mình hiền ra bao nhiêu :))","message_tags":[{"id":"100001458099624","name":"Kham Pha","type":"user","offset":0,"length":8}],"can_remove":false,"created_time":"2014-01-09T10:17:37+0000","like_count":1,"user_likes":false},"793533480663331":{"id":"793533480663331","from":{"id":"1146680551","name":"優しい なぁ"},"message":"文系の学生じゃないんですか＾＿＾","can_remove":false,"created_time":"2014-01-09T10:19:47+0000","like_count":1,"user_likes":false},"793533830663296":{"id":"793533830663296","from":{"id":"100000075022900","name":"Lan Chi Nguyễn"},"message":"Ah không em học Kinh tế anh ạ :))","can_remove":false,"created_time":"2014-01-09T10:21:08+0000","like_count":0,"user_likes":false},"793534560663223":{"id":"793534560663223","from":{"id":"100005744975477","name":"Tuyết Mùa Hè"},"message":"Trời. Mở đầu viết 'nước nhật đã từng....' nên giật mình tưởng sau đó sẽ là n điều khó chất nhận.","can_remove":false,"created_time":"2014-01-09T10:23:00+0000","like_count":0,"user_likes":false},"793538333996179":{"id":"793538333996179","from":{"id":"1146680551","name":"優しい なぁ"},"message":"Nếu bạn nào cũng như e thì tốt biết dường nào nhỉ :) Sẽ có 1 cuộc cách mạng thay đổi nhận thức trong thời gian gần. :)","can_remove":false,"created_time":"2014-01-09T10:36:25+0000","like_count":0,"user_likes":false},"793539307329415":{"id":"793539307329415","from":{"id":"100001458099624","name":"Kham Pha"},"message":"Chúng ta đang tạo ra môi trường để có cách mạng :)","can_remove":false,"created_time":"2014-01-09T10:40:22+0000","like_count":1,"user_likes":false},"793543057329040":{"id":"793543057329040","from":{"id":"100002612714358","name":"Close To You"},"message":"anh thì thấy gái nhật xài mùi cực kỳ tinh tế đi ngang em nào cũng thơm dẹ dàng thoang thoảng chỉ muốn manh động ngay và luôn huhuhu!!!","can_remove":false,"created_time":"2014-01-09T10:55:49+0000","like_count":1,"user_likes":false},"793543357329010":{"id":"793543357329010","from":{"id":"1146680551","name":"優しい なぁ"},"message":"Close To You cũng đã thay đổi rồi ấy nhỉ.Comment tiếng việt :) dù vẫn sai chính tả. Chúc mừng ^_^","message_tags":[{"id":"100002612714358","name":"Close To You","type":"user","offset":0,"length":12}],"can_remove":false,"created_time":"2014-01-09T10:57:19+0000","like_count":0,"user_likes":false},"793543730662306":{"id":"793543730662306","from":{"id":"100002612714358","name":"Close To You"},"message":"nước nhật trong lòng bàn tay anh có cái khỉ gió gì mà anh hem bít thay cbn đổi gì nữa mà đổi với lại thay!!!","can_remove":false,"created_time":"2014-01-09T10:58:53+0000","like_count":0,"user_likes":false},"793544470662232":{"id":"793544470662232","from":{"id":"1146680551","name":"優しい なぁ"},"message":"Vậy viết một vài điều chia sẻ với đàn em đi","can_remove":false,"created_time":"2014-01-09T11:01:13+0000","like_count":1,"user_likes":false},"793544807328865":{"id":"793544807328865","from":{"id":"100000045271667","name":"Nam Thai Nguyen"},"message":"Có hình ảnh hay video ko bạn ơi","can_remove":false,"created_time":"2014-01-09T11:02:44+0000","like_count":0,"user_likes":false},"793545307328815":{"id":"793545307328815","from":{"id":"100002612714358","name":"Close To You"},"message":"okie zậy trước hết thành thật khai báo đã nếm gái nhật chưa ròy mới tính tới chuyện sẻ chia!!!","can_remove":false,"created_time":"2014-01-09T11:04:31+0000","like_count":0,"user_likes":false},"793545477328798":{"id":"793545477328798","from":{"id":"1146680551","name":"優しい なぁ"},"message":"Nói ở đây k hay.inbox đê ^_^","can_remove":false,"created_time":"2014-01-09T11:05:22+0000","like_count":1,"user_likes":false},"793545653995447":{"id":"793545653995447","from":{"id":"100002612714358","name":"Close To You"},"message":"đời anh chưa bao giờ có ý định đi đêm bất cứ zấn đề gì cũng có thể nói được!!!","can_remove":false,"created_time":"2014-01-09T11:06:10+0000","like_count":0,"user_likes":false},"793546257328720":{"id":"793546257328720","from":{"id":"100000075022900","name":"Lan Chi Nguyễn"},"message":"Anh ơi đây là bài viết chia sẻ suy nghĩ của em về 1 vấn đề khác anh nên mong anh tôn trọng có thể chia sẻ ở chỗ khác đc ko ạ? Em cám ơn.","can_remove":false,"created_time":"2014-01-09T11:08:35+0000","like_count":1,"user_likes":false},"793547490661930":{"id":"793547490661930","from":{"id":"1744556343","name":"Thùy Dương"},"message":"Cỏ Dại Chị ơi nè :3 Nguyễn Lan Chi Ơi cho mình xin để đưa lên website nhé :3 cơ mà về k gọi nhauuu :< buồn đấy tủi thân đấy :<","message_tags":[{"id":"100002734016240","name":"Cỏ Dại","type":"user","offset":0,"length":6},{"id":"100000075022900","name":"Nguyễn Lan Chi","type":"user","offset":20,"length":14}],"can_remove":false,"created_time":"2014-01-09T11:12:46+0000","like_count":1,"user_likes":false},"793548537328492":{"id":"793548537328492","from":{"id":"100001283015293","name":"Yamai Taro"},"message":"Điều thú vị này mình đã dc nếm trải :v","can_remove":false,"created_time":"2014-01-09T11:16:26+0000","like_count":0,"user_likes":false},"793548597328486":{"id":"793548597328486","from":{"id":"100002612714358","name":"Close To You"},"message":"tới comment này thì chi cưng đã thấy đầu óc dân zịt bị ràng buộc ước lệ wá chừng ròy ha sao cái móc wần áo nhỏ chút chíu có thể thay đổi nhận thức của cưng mà chuyện đại sự như wất gái nhật lại fải lén lút đi chỗ khác nhỉ??? trong khi wất gái nó đã zô tận hậu viện sau chùa thay đổi toàn bộ truyền thống phật giáo nhật bản chứ ko đơn giản như cái kẹp wần áo đó chi cưng ơi là cưng!!!","can_remove":false,"created_time":"2014-01-09T11:16:47+0000","like_count":0,"user_likes":false},"793551097328236":{"id":"793551097328236","from":{"id":"100000075022900","name":"Lan Chi Nguyễn"},"message":"Dương ơi ok cứ share nhé ^^\nMình về đc ít ngày có đến trường nhưng các bạn nghỉ thi hết rồi ý, huhu nhưng lần sau mình về sẽ bù đắp nhớ ^^","can_remove":false,"created_time":"2014-01-09T11:22:28+0000","like_count":0,"user_likes":false},"793552037328142":{"id":"793552037328142","from":{"id":"100000045271667","name":"Nam Thai Nguyen"},"message":"Anh Nguyễn nhớ mắc màn và \"đập muỗi\" nhá :3","message_tags":[{"id":"1146680551","name":"Anh Nguyễn","type":"user","offset":0,"length":10}],"can_remove":false,"created_time":"2014-01-09T11:26:20+0000","like_count":0,"user_likes":false},"793558887327457":{"id":"793558887327457","from":{"id":"1146680551","name":"優しい なぁ"},"message":"Gì vậy ! Mình đang rất là nghiêm túc vl đấy nhé.\nClose To You vậy bạn mở topic nó về vấn đề mà bạn đã \"nếm\" trải để có những cái nhìn khác nhau về Nhật cho nội dung nó phong phú thêm.\nMỗi người có mỗi trải nghiệm khác nhau.Bạn Nguyen Nguyễn Lan Chi có cái nhìn có thể là nhỏ nhưng nó k hề nhỏ đâu.","message_tags":[{"id":"100002612714358","name":"Close To You","type":"user","offset":49,"length":12},{"id":"100000075022900","name":"Nguyễn Lan Chi","type":"user","offset":234,"length":14}],"can_remove":false,"created_time":"2014-01-09T11:50:15+0000","like_count":1,"user_likes":false},"793559027327443":{"id":"793559027327443","from":{"id":"1744556343","name":"Thùy Dương"},"message":"Mình k lên trường nhưng có thể tụ tập ở chỗ khác mà :< mình buồn thật đới :((( Nguyễn Lan Chi","message_tags":[{"id":"100000075022900","name":"Nguyễn Lan Chi","type":"user","offset":79,"length":14}],"can_remove":false,"created_time":"2014-01-09T11:50:50+0000","like_count":1,"user_likes":false},"793585997324746":{"id":"793585997324746","from":{"id":"100002612714358","name":"Close To You"},"message":"vại theo lời xúi dại của cưng anh zít 1 topic zìa kinh nghịm chia sẻ rau sạch cưng thấy được hem!!!???","can_remove":false,"created_time":"2014-01-09T13:02:06+0000","like_count":0,"user_likes":false},"793642203985792":{"id":"793642203985792","from":{"id":"100006520210904","name":"Miu Miu"},"message":"Em cũng học được rất nhiều từ người Nhật. Ngày trước e có làm tại 1 cty, 1 bạn làm việc trong dây chuyền sản xuất đến muộn vài phút và người quản lú đã nói với bạn ấy rằng\" biết đến muộn như vậy thì thiệt hại bn tiền của và công sức của người khác không? Nếu 1 phút bạn làm ra 1 sản phẩm với lợi nhuận là bây nhiêu nhưng khi bạn đến muộn thì sẽ mất lợi nhuận số sản phẩm bạn làm ra và còn phải trả tiền lương cho những người cùng dây chuyền với bạn là ....\" Vậy mới phải học hỏi rất nhiều điều ah","can_remove":false,"created_time":"2014-01-09T15:14:08+0000","like_count":1,"user_likes":false},"793853793964633":{"id":"793853793964633","from":{"id":"100005866751996","name":"Nam Nguyen"},"message":"Bạn nhận xét đúng quá ^^!!","can_remove":false,"created_time":"2014-01-10T00:16:56+0000","like_count":0,"user_likes":false},"793855670631112":{"id":"793855670631112","from":{"id":"1139171742","name":"Duy Thanh"},"message":"Tất nhiên là Nhật tốt và mình phải học hỏi nhiều rồi. Nhưng cứ thử ở đây 5 năm trở lên xem bạn có còn tôn sùng nó đến mức vậy ko?! ^^","can_remove":false,"created_time":"2014-01-10T00:22:21+0000","like_count":3,"user_likes":false},"793891260627553":{"id":"793891260627553","from":{"id":"100005744975477","name":"Tuyết Mùa Hè"},"message":"Đừng hi vng thay đổi suy nghĩ, hđộng of cả 1 xã hội khi mà bản thân m ko chịu thay đỗi","can_remove":false,"created_time":"2014-01-10T02:11:46+0000","like_count":0,"user_likes":false},"793959697287376":{"id":"793959697287376","from":{"id":"100005738675827","name":"Nguyen Nhat"},"message":"Cái này đến vài ngày đã nhìn thấy rồi!","can_remove":false,"created_time":"2014-01-10T05:44:11+0000","like_count":0,"user_likes":false}},"paging":{"cursors":{"after":"NzkzNTI4MjYwNjYzODUz","before":"NzkzNTI4MjYwNjYzODUz"},"next":"https://graph.facebook.com/229244010425617_793528120663867/comments?limit=1&summary=1&after=NzkzNTI4MjYwNjYzODUz"},"summary":{"order":"chronological","total_count":35}}}