{"id":"229244010425617_793667673983245","type":"link","link":"http://banhchungnhanai.com/","from":{"id":"100000359762118","name":"Mi Tra"},"message":"Chương trình \"Bánh Chưng Nhân Ái- Vì các em nhỏ có hoàn cảnh khó khăn\" của Group Cộng đồng Việt Nhật đã bắt đầu nhận order cho tết nguyên đán. \n\n Bánh vuông cỡ 15cm×15cm. \n Giá bánh: 900yen/ 1 chiếc (chưa tính phí vận chuyển)\n Giao bánh sau 26/1\n Hình thức: chuyển qua bưu điện (Phí vận chuyển tự chịu). Ship trên toàn nước Nhật\n\n Các bạn có thể đặt bánh như sau:\n\n 1. Đặt trực tiếp tại trang: http://banhchungnhanai.com/\n\n 2. Đặt qua tin nhắn với thông tin như sau:\nSố lượng: \nHọ và tên: \nĐịa chỉ: \nTài khoản FB: \nE-mail: \nTên tài khoản muốn chuyển tiền: \n\n Rất mong nhận được sự ủng hộ của cả nhà (;^ω^)","created_time":"2014-01-09T16:07:34+0000","updated_time":"2014-01-10T09:51:33+0000","likes":{"data":{"100006561824833":{"id":"100006561824833","name":"Hà Thuý"},"1026780646":{"id":"1026780646","name":"Việt Hưng Khổng"},"100000313640201":{"id":"100000313640201","name":"Dinhluyen Truong"},"100003165554056":{"id":"100003165554056","name":"Sâu Bét"},"100002871405403":{"id":"100002871405403","name":"Thach Sanh"},"100000271705877":{"id":"100000271705877","name":"Nguyễn Văn Minh"},"100001594722256":{"id":"100001594722256","name":"Viết An Phạm"},"100000460353209":{"id":"100000460353209","name":"Kim Huong Tran"},"100001614233452":{"id":"100001614233452","name":"Hienvit Duckling"},"100004826612667":{"id":"100004826612667","name":"Đào Hạnh"},"100002966928087":{"id":"100002966928087","name":"Nguyen van Dat"},"100006113144074":{"id":"100006113144074","name":"Hà Phương"},"100000603915176":{"id":"100000603915176","name":"悪いな ぁ"},"100001889247986":{"id":"100001889247986","name":"Trần Hoài"},"100001958220978":{"id":"100001958220978","name":"Trung Hiếu Bắp"},"100001416272263":{"id":"100001416272263","name":"Mai PB"},"100001359798024":{"id":"100001359798024","name":"November Gi"},"100001754136107":{"id":"100001754136107","name":"Nguyễn Tuấn Vũ"},"1816269439":{"id":"1816269439","name":"Dao Ngoc"},"1031841670":{"id":"1031841670","name":"Ngọc Trâm"},"1782985626":{"id":"1782985626","name":"Nguyễn Thế Quân"},"100002874387018":{"id":"100002874387018","name":"SơnTùng Vũ"},"1538056791":{"id":"1538056791","name":"Dieu Phuong"},"1250063068":{"id":"1250063068","name":"Tuấn Tử Tế"},"100006122734510":{"id":"100006122734510","name":"Nguyen Xuan Hanh"},"100001458099624":{"id":"100001458099624","name":"Kham Pha"},"100004889430124":{"id":"100004889430124","name":"Quiet Man"},"100000381394367":{"id":"100000381394367","name":"Thành Nguyễn"},"100001526631937":{"id":"100001526631937","name":"Tường Oanh Mineko"},"100003795544896":{"id":"100003795544896","name":"Nhi Oishi"},"100000226646981":{"id":"100000226646981","name":"My Nguyen"},"100003913383051":{"id":"100003913383051","name":"Tho Tran"},"100005801442456":{"id":"100005801442456","name":"An Nguyen"},"100000989378103":{"id":"100000989378103","name":"Bùi Thúy Ngân"},"100001848885057":{"id":"100001848885057","name":"Tiểu Mỡ Nhi"},"569263718":{"id":"569263718","name":"Phuong Thao Tran"},"1146680551":{"id":"1146680551","name":"優しい なぁ"},"100002508122689":{"id":"100002508122689","name":"Vũ Mạnh Tuấn"}},"paging":{"cursors":{"after":"MTAwMDA2NTYxODI0ODMz","before":"MTAwMDA2NTYxODI0ODMz"},"next":"https://graph.facebook.com/229244010425617_793667673983245/likes?limit=1&summary=1&after=MTAwMDA2NTYxODI0ODMz"},"summary":{"total_count":40}},"comments":{"data":{"793669360649743":{"id":"793669360649743","from":{"id":"100000989378103","name":"Bùi Thúy Ngân"},"message":"các a chị cho e hỏi e muốn đặt bánh nhưng muốn đi lấy bánh trực tiếp đc ko ạ :D","can_remove":false,"created_time":"2014-01-09T16:11:53+0000","like_count":0,"user_likes":false},"793671003982912":{"id":"793671003982912","from":{"id":"100005801442456","name":"An Nguyen"},"message":"Đc nếu bạn xếp lịch thế nào trùng với lúc bọn mình giao đc ;)","can_remove":false,"created_time":"2014-01-09T16:16:27+0000","like_count":1,"user_likes":false},"793679347315411":{"id":"793679347315411","from":{"id":"100006493055181","name":"Tuyên Nguyễn"},"message":"E đã đặt. Liệu có nhận dc đúng ngày không ạ!","can_remove":false,"created_time":"2014-01-09T16:39:35+0000","like_count":1,"user_likes":false},"793680637315282":{"id":"793680637315282","from":{"id":"100000359762118","name":"Mi Tra"},"message":"Cảm ơn bạn Tuyên Nguyễn. Mình đã nhận được order của bạn. Chúng mình sẽ cố gắng chuyển bánh đúng ngày bạn đặt.","can_remove":false,"created_time":"2014-01-09T16:42:28+0000","like_count":1,"user_likes":false},"793680757315270":{"id":"793680757315270","from":{"id":"100006493055181","name":"Tuyên Nguyễn"},"message":"Vâng ạ","can_remove":false,"created_time":"2014-01-09T16:42:48+0000","like_count":0,"user_likes":false},"793703233979689":{"id":"793703233979689","from":{"id":"100002874387018","name":"SơnTùng Vũ"},"message":"Mình đặt 5 cái thì chuyển tiền kiểu gì? Đâu có số tài khoản người nhận đâu?","can_remove":false,"created_time":"2014-01-09T17:34:57+0000","like_count":1,"user_likes":false},"793851213964891":{"id":"793851213964891","from":{"id":"100001583529210","name":"Nguyễn Kim Hà"},"message":"Sơn Tùng Vũ bạn dùng tài khoản nào?","can_remove":false,"created_time":"2014-01-10T00:08:27+0000","like_count":0,"user_likes":false},"793859093964103":{"id":"793859093964103","from":{"id":"100000359762118","name":"Mi Tra"},"message":"Sơn Tùng Vũ: trong số những ngân hàng trong form, bạn chọn 1 ngân hàng bạn có rồi chúng mình sẽ gửi mail thông tin số tài khoản để bạn chuyển tiền (chuyển khoản cùng ngân hàng sẽ không mất phí giao dịch).","can_remove":false,"created_time":"2014-01-10T00:34:42+0000","like_count":0,"user_likes":false},"793928040623875":{"id":"793928040623875","from":{"id":"100001958220978","name":"Trung Hiếu Bắp"},"message":"mình đơn hàng số 38 :)","can_remove":false,"created_time":"2014-01-10T04:01:41+0000","like_count":4,"user_likes":false},"793928873957125":{"id":"793928873957125","from":{"id":"100000359762118","name":"Mi Tra"},"message":"Đã có đơn hàng số 38. Cảm ơn bạn(*'ω'*)","can_remove":false,"created_time":"2014-01-10T04:05:08+0000","like_count":1,"user_likes":false},"793952577288088":{"id":"793952577288088","from":{"id":"100000603915176","name":"悪いな ぁ"},"message":"Ở VN muốn mua thì nàm thao ^.^","can_remove":false,"created_time":"2014-01-10T05:19:59+0000","like_count":1,"user_likes":false},"793956547287691":{"id":"793956547287691","from":{"id":"100002966928087","name":"Nguyen van Dat"},"message":"mua 1 cai được không bạn","can_remove":false,"created_time":"2014-01-10T05:36:21+0000","like_count":1,"user_likes":false},"793957013954311":{"id":"793957013954311","from":{"id":"100002966928087","name":"Nguyen van Dat"},"message":"uh có gì tối ming nhắn tin nhé,giờ đi làm cái đã","can_remove":false,"created_time":"2014-01-10T05:37:44+0000","like_count":1,"user_likes":false},"793958937287452":{"id":"793958937287452","from":{"id":"100000359762118","name":"Mi Tra"},"message":"Sẽ ship về tận VN cho Waruina ^o^","can_remove":false,"created_time":"2014-01-10T05:42:26+0000","like_count":1,"user_likes":false},"793959897287356":{"id":"793959897287356","from":{"id":"100001583529210","name":"Nguyễn Kim Hà"},"message":"Ở Việt Nam muốn mua thì chỉ chuyển tiền sang thôi. Bánh sẽ được các admin sử dụng cho việc khác ạ 悪いな ぁ","can_remove":false,"created_time":"2014-01-10T05:44:49+0000","like_count":2,"user_likes":false},"793960373953975":{"id":"793960373953975","from":{"id":"100001583529210","name":"Nguyễn Kim Hà"},"message":"^_^Chết em với chị Mi chém lệch^^","can_remove":false,"created_time":"2014-01-10T05:46:14+0000","like_count":1,"user_likes":false},"793997967283549":{"id":"793997967283549","from":{"id":"100000603915176","name":"悪いな ぁ"},"message":"Hôm nọ Anh Nguyễn noá bẩu tiền lãi sẽ chuyển về VN làm từ thiện, bây giờ chuyển sang rồi chuyển lại thì có phải mất công không nhỉ :)","message_tags":[{"id":"1146680551","name":"Anh Nguyễn","type":"user","offset":7,"length":10}],"can_remove":false,"created_time":"2014-01-10T07:25:42+0000","like_count":0,"user_likes":false},"794034570613222":{"id":"794034570613222","from":{"id":"100003165554056","name":"Sâu Bét"},"message":"B ơi, có nhiều ng ở Tokyo thì sao b k cho 1 cái địa chỉ và những b khác có thể đến lấy bánh, chứ k cần phải qua bưu điện làm gì cho tốn thời gian b mang ra bưu điện gửi và ng nhận mất thêm tiền vận chuyển.\nT chỉ xin đóng góp như thế, có gì sai xin các b đừng ném t nha 😶","can_remove":false,"created_time":"2014-01-10T09:44:30+0000","like_count":0,"user_likes":false},"794036077279738":{"id":"794036077279738","from":{"id":"100001458099624","name":"Kham Pha"},"message":"bạn cứ đăng ký vào trang web để bọn mình dễ quản lý số lượng. Việc gửi thế nào bọn mình sẽ liên lạc với các bạn sau.","can_remove":false,"created_time":"2014-01-10T09:51:33+0000","like_count":1,"user_likes":false}},"paging":{"cursors":{"after":"NzkzNjY5MzYwNjQ5NzQz","before":"NzkzNjY5MzYwNjQ5NzQz"},"next":"https://graph.facebook.com/229244010425617_793667673983245/comments?limit=1&summary=1&after=NzkzNjY5MzYwNjQ5NzQz"},"summary":{"order":"chronological","total_count":21}}}