{"id":"229244010425617_793979740618705","type":"status","from":{"id":"569263718","name":"Phuong Thao Tran"},"message":"Mọi người cho mình hỏi ý tiếng Việt của câu tiếng Nhật sau là gì ạ.　お願いします！\n【人生は心一つの置きどころ】","created_time":"2014-01-10T06:42:52+0000","updated_time":"2014-01-10T08:49:59+0000","likes":{"data":{"100003913864198":{"id":"100003913864198","name":"Linh Lê"},"100002348937847":{"id":"100002348937847","name":"Xanh Le Te"},"100004450419218":{"id":"100004450419218","name":"Sole Heart"},"100001775719325":{"id":"100001775719325","name":"Nguyễn Ngọc Trang"},"100001059086820":{"id":"100001059086820","name":"Nguyễn Thành Long"},"100000022163023":{"id":"100000022163023","name":"Kafe Ore"},"1146680551":{"id":"1146680551","name":"優しい なぁ"},"100001526631937":{"id":"100001526631937","name":"Tường Oanh Mineko"},"100000603915176":{"id":"100000603915176","name":"悪いな ぁ"},"100002937804655":{"id":"100002937804655","name":"Dương Nguyễn"}},"paging":{"cursors":{"after":"MTAwMDAzOTEzODY0MTk4","before":"MTAwMDAzOTEzODY0MTk4"},"next":"https://graph.facebook.com/229244010425617_793979740618705/likes?limit=1&summary=1&after=MTAwMDAzOTEzODY0MTk4"},"summary":{"total_count":10}},"comments":{"data":{"793982033951809":{"id":"793982033951809","from":{"id":"100005801442456","name":"An Nguyen"},"message":"Google có mà 😁","can_remove":false,"created_time":"2014-01-10T06:49:21+0000","like_count":0,"user_likes":false},"793983343951678":{"id":"793983343951678","from":{"id":"569263718","name":"Phuong Thao Tran"},"message":"dạ theo chú Google thì đây ạ: Cuộc sống là xa mỗi một trong những trái tim","can_remove":false,"created_time":"2014-01-10T06:53:12+0000","like_count":0,"user_likes":false},"793984937284852":{"id":"793984937284852","from":{"id":"100005801442456","name":"An Nguyen"},"message":"😒...","can_remove":false,"created_time":"2014-01-10T06:53:51+0000","like_count":0,"user_likes":false},"793985337284812":{"id":"793985337284812","from":{"id":"100005801442456","name":"An Nguyen"},"message":"［名言］\n人生は、心ひとつの置きどころ。\n\n［出典］\n中村天風［なかむら・てんぷう］\n（明治～昭和の思想家、日本初のヨーガ行者、1876～1968）\n\n \n［意味］\n人がどのような人生を歩むかは、その人が自分の心を積極的な方に置くか、消極的な方に置くかで決まってくる。","can_remove":false,"created_time":"2014-01-10T06:53:56+0000","like_count":2,"user_likes":false},"793987920617887":{"id":"793987920617887","from":{"id":"100002093975536","name":"Thùy Trang Nguyễn"},"message":"đọc tiếng Nhật thì hiểu ý rồi ạ, nhưng chẳng biết dịch thế nào cho hay. :)","can_remove":false,"created_time":"2014-01-10T06:55:24+0000","like_count":0,"user_likes":false},"793989227284423":{"id":"793989227284423","from":{"id":"569263718","name":"Phuong Thao Tran"},"message":"thế nên mới nhờ mọi người nè, chuyển ngữ giúp đi bạn An Nguyen","message_tags":[{"id":"100005801442456","name":"An Nguyen","type":"user","offset":53,"length":9}],"can_remove":false,"created_time":"2014-01-10T06:57:35+0000","like_count":1,"user_likes":false},"793990147284331":{"id":"793990147284331","from":{"id":"100005801442456","name":"An Nguyen"},"message":"😒...","can_remove":false,"created_time":"2014-01-10T07:02:01+0000","like_count":0,"user_likes":false},"793991573950855":{"id":"793991573950855","from":{"id":"100000603915176","name":"悪いな ぁ"},"message":"Bọn em hiểu như thế nào :)","can_remove":false,"created_time":"2014-01-10T07:06:26+0000","like_count":0,"user_likes":false},"793991763950836":{"id":"793991763950836","from":{"id":"1146680551","name":"優しい なぁ"},"message":"Tính hỏi giống chị :)","can_remove":false,"created_time":"2014-01-10T07:07:12+0000","like_count":1,"user_likes":false},"793992200617459":{"id":"793992200617459","from":{"id":"1146680551","name":"優しい なぁ"},"message":"“今日という日は、残りの人生の最初の一日。\"","can_remove":false,"created_time":"2014-01-10T07:09:19+0000","like_count":0,"user_likes":false},"793992207284125":{"id":"793992207284125","from":{"id":"100005801442456","name":"An Nguyen"},"message":"Câu này có lẽ giống 1 câu nổi tiếng \" thái độ sống quyết định bạn là ai, kẻ tầm thường hay người vĩ đại \" . Còn bảo kiếm câu nào tiếng Việt thì chịu :v","can_remove":false,"created_time":"2014-01-10T07:09:20+0000","like_count":0,"user_likes":false},"793992290617450":{"id":"793992290617450","from":{"id":"100002093975536","name":"Thùy Trang Nguyễn"},"message":"em hiểu là \" suy nghĩ của mình sẽ quyết định hướng đi của cuộc đời. Nếu mình cảm nhận mọi việc theo mặt tích cực, sẵn sàng đón nhận thử thách và vươn lên thì sẽ luôn cảm thấy cuộc sống vui tươi, gặp nhiều may mắn. Ngược lại, nếu chỉ nhìn mọi việc với ánh mắt tiêu cực, thì sắc màu cuộc sống sẽ mất đi\". >.< hix, nỏ biết đúng ko nữa.","can_remove":false,"created_time":"2014-01-10T07:09:50+0000","like_count":0,"user_likes":false},"793992420617437":{"id":"793992420617437","from":{"id":"100002093975536","name":"Thùy Trang Nguyễn"},"message":"“今日という日は、残りの人生の最初の一日。\"=> câu này thì e nghĩ kiểu như câu nói : hãy sống như thể bạn chỉ còn một ngày để sống. Chắc ko đúng lắm, cơ mà muốn bon chen học hỏi tí ạ.","can_remove":false,"created_time":"2014-01-10T07:10:53+0000","like_count":1,"user_likes":false},"793992530617426":{"id":"793992530617426","from":{"id":"100000603915176","name":"悪いな ぁ"},"message":"Các em ấy có nhờ kiếm một câu tương đồng trong tiếng Việt đâu. Hình như là nhờ dịch ra tiếng Việt sao cho ngắn gọn và hay nhất.\n\nÀ, nói mới nhớ ra, hôm qua An Nguyen bảo đi làm về rồi dịch câu trả lời của câu hỏi hôm qua mà lờ đi nhé >.<","can_remove":false,"created_time":"2014-01-10T07:11:27+0000","like_count":2,"user_likes":false},"793992587284087":{"id":"793992587284087","from":{"id":"1146680551","name":"優しい なぁ"},"message":"Nhớ dai vl","can_remove":false,"created_time":"2014-01-10T07:11:50+0000","like_count":1,"user_likes":false},"793992653950747":{"id":"793992653950747","from":{"id":"100000603915176","name":"悪いな ぁ"},"message":"Trẻ con mừ, đòi quà thì đòi bằng được :v","can_remove":false,"created_time":"2014-01-10T07:12:12+0000","like_count":0,"user_likes":false},"793992760617403":{"id":"793992760617403","from":{"id":"100005801442456","name":"An Nguyen"},"message":":( thím nhớ dai như đ... Ấy :(","can_remove":false,"created_time":"2014-01-10T07:12:39+0000","like_count":1,"user_likes":false},"793992777284068":{"id":"793992777284068","from":{"id":"1146680551","name":"優しい なぁ"},"message":"\"人生は学校である。 そこでは幸福より不幸の方が良い教師である。\"","can_remove":false,"created_time":"2014-01-10T07:12:47+0000","like_count":1,"user_likes":false},"793992877284058":{"id":"793992877284058","from":{"id":"100000603915176","name":"悪いな ぁ"},"message":"Hãy sống bằng cả lý trí...","can_remove":false,"created_time":"2014-01-10T07:13:20+0000","like_count":1,"user_likes":false},"793994000617279":{"id":"793994000617279","from":{"id":"100000309978634","name":"Tan Vu"},"message":"人生は、心、一つの置所」とは、人間は、自分の心の中にあることにしか、出会わない、という意味である\nĐại loại là sướng hay khổ là do mình cả, nếu nghĩ mình là người may mắn thì sẽ (có xu hướng) gặp những điều may mắn, còn với người hay than thở mình bất hạnh, thì thường gặp những điều xui xẻo.","can_remove":false,"created_time":"2014-01-10T07:15:34+0000","like_count":5,"user_likes":false},"793994890617190":{"id":"793994890617190","from":{"id":"100000603915176","name":"悪いな ぁ"},"message":"Kệ iem, hem phải việc của chị :D","can_remove":false,"created_time":"2014-01-10T07:17:23+0000","like_count":0,"user_likes":false},"793995367283809":{"id":"793995367283809","from":{"id":"100002093975536","name":"Thùy Trang Nguyễn"},"message":"Tan Vu chuẩn quá. Em mới dò gg và nó bảo là \"Sướng khổ tại tâm\" - một câu triết lý của nhà Phật. Mà y chóc nghĩa luôn :)","message_tags":[{"id":"100000309978634","name":"Tan Vu","type":"user","offset":0,"length":6}],"can_remove":false,"created_time":"2014-01-10T07:18:14+0000","like_count":4,"user_likes":false},"793996380617041":{"id":"793996380617041","from":{"id":"100000603915176","name":"悪いな ぁ"},"message":"Những câu như thế này nên dịch một cách ngắn gọn, xúc tích. Khi dịch dài quá nó trở nên miên man, không gần gũi nữa. Tính chất của những câu thành ngữ là ngắn, đủ nghĩa...","can_remove":false,"created_time":"2014-01-10T07:20:12+0000","like_count":1,"user_likes":false},"793996433950369":{"id":"793996433950369","from":{"id":"1146680551","name":"優しい なぁ"},"message":"Nếu vại đã k có truyện \"cô bé bán diêm\" :v","can_remove":false,"created_time":"2014-01-10T07:20:21+0000","like_count":1,"user_likes":false},"793996483950364":{"id":"793996483950364","from":{"id":"100000603915176","name":"悪いな ぁ"},"message":"Chị lòi rồi, em hỏi bên shipping đi, haizz","can_remove":false,"created_time":"2014-01-10T07:20:30+0000","like_count":0,"user_likes":false},"793996980616981":{"id":"793996980616981","from":{"id":"100000603915176","name":"悪いな ぁ"},"message":"Anh Nguyễn ơi, em có ở gần Kanagawa không? cho anh nhờ một chút!","message_tags":[{"id":"1146680551","name":"Anh Nguyễn","type":"user","offset":0,"length":10}],"can_remove":false,"created_time":"2014-01-10T07:21:35+0000","like_count":0,"user_likes":false},"793997273950285":{"id":"793997273950285","from":{"id":"1146680551","name":"優しい なぁ"},"message":"J vại loãng chủ đề quá","can_remove":false,"created_time":"2014-01-10T07:22:58+0000","like_count":1,"user_likes":false},"793997550616924":{"id":"793997550616924","from":{"id":"100000603915176","name":"悪いな ぁ"},"message":"Thôi vậy, định cho chú tiền mà chê thì thôi.","can_remove":false,"created_time":"2014-01-10T07:23:49+0000","like_count":0,"user_likes":false},"793998147283531":{"id":"793998147283531","from":{"id":"1146680551","name":"優しい なぁ"},"message":"Rủ làm cty du học ở chợ nào đấy hử.ứ xèm.e có thị trường béo bở ở chợ nổi càn thơ òi","can_remove":false,"created_time":"2014-01-10T07:26:38+0000","like_count":0,"user_likes":false},"793998380616841":{"id":"793998380616841","from":{"id":"100000603915176","name":"悪いな ぁ"},"message":"Tính thuê sát thủ thoai, khu vực Kanagawa có mục tiêu ^^","can_remove":false,"created_time":"2014-01-10T07:27:27+0000","like_count":0,"user_likes":false},"793998473950165":{"id":"793998473950165","from":{"id":"100004459391753","name":"Đỗ Văn Thiện"},"message":"Có lẽ là \"Nhân sinh tại Tâm\" chăng?","can_remove":false,"created_time":"2014-01-10T07:27:45+0000","like_count":9,"user_likes":false},"794004597282886":{"id":"794004597282886","from":{"id":"569263718","name":"Phuong Thao Tran"},"message":"làm người không biết gì (Tâm trong sáng) thiệt là thích. Chủ post cảm ơn anh/chị đã bình loạn. Hỏi có 1 câu mà học được bao nhiêu điều, ^^","can_remove":false,"created_time":"2014-01-10T07:56:14+0000","like_count":3,"user_likes":false},"794006860615993":{"id":"794006860615993","from":{"id":"569263718","name":"Phuong Thao Tran"},"message":"comment chị à, ^^","can_remove":false,"created_time":"2014-01-10T08:07:13+0000","like_count":0,"user_likes":false},"794008917282454":{"id":"794008917282454","from":{"id":"569263718","name":"Phuong Thao Tran"},"message":"à, nói ra thì hơi dài chị à. Cái này là em rút ra bài học cho bản thân. \n1. nếu mình không biết, hoặc không biết rõ, thì nên hỏi: không nên dấu dốt.\n2. Đừng làm Mr Biết Tuốt (rất khổ) \n3. Vẫn có nhiều người sẵn sàng giúp đỡ mình\n4. Những cái mình biết hoặc suy nghĩ trong đầu chưa chắc đã tốt-đúng: --> nên đem ra bàn thảo\n5. Học được nhiều điều khi bình luận....","can_remove":false,"created_time":"2014-01-10T08:16:19+0000","like_count":4,"user_likes":false},"794021367281209":{"id":"794021367281209","from":{"id":"100004450419218","name":"Sole Heart"},"message":"câu này có nghĩa là hãy nhìn cuộc sống bằng một thái độ tích cực","can_remove":false,"created_time":"2014-01-10T08:49:59+0000","like_count":0,"user_likes":false}},"paging":{"cursors":{"after":"NzkzOTgyMDMzOTUxODA5","before":"NzkzOTgyMDMzOTUxODA5"},"next":"https://graph.facebook.com/229244010425617_793979740618705/comments?limit=1&summary=1&after=NzkzOTgyMDMzOTUxODA5"},"summary":{"order":"chronological","total_count":41}}}