{"id":"229244010425617_793921643957848","type":"photo","object_id":"199988873537826","picture":"https://fbcdn-photos-a-a.akamaihd.net/hphotos-ak-prn1/t1.0-0/1551698_199988873537826_84778708_s.jpg","link":"https://www.facebook.com/photo.php?fbid=199988873537826&set=gm.793921643957848&type=1&relevant_count=1","from":{"id":"100005801442456","name":"An Nguyen"},"message":"Để chuẩn bị cho kỳ thi địa học, thì bây giờ là khoảng thời gian quan trọng nhất để chạy đua rồi ấy :) \n\nHôm nay \" vui vui \" tặng các bác cái map lever các trường đại học tại Tokyo, cao nhất khó nhất, ai thích vào đại học để... ngủ thì nhìn cái phần lẹt đẹt của bảng xếp hạng ấy nhé","created_time":"2014-01-10T03:39:09+0000","updated_time":"2014-01-11T15:23:27+0000","likes":{"data":{"100003913383051":{"id":"100003913383051","name":"Tho Tran"},"100005211189763":{"id":"100005211189763","name":"Oliveu Cchann"},"100003893158172":{"id":"100003893158172","name":"Maru MO"},"1821970083":{"id":"1821970083","name":"Nguyễn Mạnh Cường"},"100002941809570":{"id":"100002941809570","name":"Hằng Nguyễn"},"100000052661831":{"id":"100000052661831","name":"Shuntoku Pham"},"100007375263591":{"id":"100007375263591","name":"Akira Akira"},"100003165554056":{"id":"100003165554056","name":"Sâu Bét"},"100000500260636":{"id":"100000500260636","name":"Lưu Nguyễn Thảo Tiên"},"711491571":{"id":"711491571","name":"Graziani Inaizarg"},"1318895018":{"id":"1318895018","name":"Van T Tran"},"100001416272263":{"id":"100001416272263","name":"Mai PB"},"100004259829083":{"id":"100004259829083","name":"Nỏ Bít Nak"},"100003828118579":{"id":"100003828118579","name":"Khanh Linh"},"1374354017":{"id":"1374354017","name":"Hoa Te"},"1026780646":{"id":"1026780646","name":"Việt Hưng Khổng"},"100002283885358":{"id":"100002283885358","name":"Tien Chuot"},"100002472574542":{"id":"100002472574542","name":"Thanh Ngọc"},"100001848885057":{"id":"100001848885057","name":"Tiểu Mỡ Nhi"},"100003551939115":{"id":"100003551939115","name":"Đạt Nguyễn Phước"},"100001526631937":{"id":"100001526631937","name":"Tường Oanh Mineko"},"100002444618453":{"id":"100002444618453","name":"Tomio  Ueno"},"100000982700971":{"id":"100000982700971","name":"Saka Nguyenthao"},"100001754136107":{"id":"100001754136107","name":"Nguyễn Tuấn Vũ"},"100002675248579":{"id":"100002675248579","name":"Ecchi Deviluke"},"100003041460661":{"id":"100003041460661","name":"Dương Mir"},"100005171024630":{"id":"100005171024630","name":"Thinh BG"},"100000166915328":{"id":"100000166915328","name":"Tân Trần"},"100006627121749":{"id":"100006627121749","name":"Cỏ Kim"},"100000399879223":{"id":"100000399879223","name":"Hoan Le"},"100003049639881":{"id":"100003049639881","name":"Truong Luvuxy"},"738235689":{"id":"738235689","name":"Dang Thi Phuong"},"569263718":{"id":"569263718","name":"Phuong Thao Tran"},"1654094913":{"id":"1654094913","name":"Chu Pi"},"1223217351":{"id":"1223217351","name":"Lê Minh Quân"},"100004055040287":{"id":"100004055040287","name":"Nguyễn Minh"},"100001580358429":{"id":"100001580358429","name":"Hoai Nam Do"},"100003878977188":{"id":"100003878977188","name":"Minh Canh"}},"paging":{"cursors":{"after":"MTAwMDAzOTEzMzgzMDUx","before":"MTAwMDAzOTEzMzgzMDUx"},"next":"https://graph.facebook.com/229244010425617_793921643957848/likes?limit=1&summary=1&after=MTAwMDAzOTEzMzgzMDUx"},"summary":{"total_count":39}},"comments":{"data":{"793923900624289":{"id":"793923900624289","from":{"id":"100001458099624","name":"Kham Pha"},"message":"早稲田 có chỉ số tự do gần cao nhất nghĩa là sao?","can_remove":false,"created_time":"2014-01-10T03:46:05+0000","like_count":1,"user_likes":false},"793923937290952":{"id":"793923937290952","from":{"id":"100003878977188","name":"Minh Canh"},"message":"Đã nhìn thấy trường mình nằm trong phần lẹt đẹt...😀","can_remove":false,"created_time":"2014-01-10T03:46:17+0000","like_count":0,"user_likes":false},"793924163957596":{"id":"793924163957596","from":{"id":"100001458099624","name":"Kham Pha"},"message":"An Nguyen thi trường nào vậy?","message_tags":[{"id":"100005801442456","name":"An Nguyen","type":"user","offset":0,"length":9}],"can_remove":false,"created_time":"2014-01-10T03:47:16+0000","like_count":0,"user_likes":false},"793924183957594":{"id":"793924183957594","from":{"id":"100005801442456","name":"An Nguyen"},"message":"Thi vào khó, đầu ra dễ, lúc ra khỏi cần thi gì , đến ngày tốt nghiệp xách đít đi. Hết","can_remove":false,"created_time":"2014-01-10T03:47:18+0000","like_count":0,"user_likes":false},"793924350624244":{"id":"793924350624244","from":{"id":"100005801442456","name":"An Nguyen"},"message":"😣 hẻm biết","can_remove":false,"created_time":"2014-01-10T03:48:02+0000","like_count":0,"user_likes":false},"793925937290752":{"id":"793925937290752","from":{"id":"100000045271667","name":"Nam Thai Nguyen"},"message":"Cườngg CR","message_tags":[{"id":"100002928863986","name":"Cườngg CR","type":"user","offset":0,"length":9}],"can_remove":false,"created_time":"2014-01-10T03:53:47+0000","like_count":0,"user_likes":false},"793928083957204":{"id":"793928083957204","from":{"id":"100003103773473","name":"Rod Nick"},"message":"Có trường mình :)","can_remove":false,"created_time":"2014-01-10T04:01:55+0000","like_count":0,"user_likes":false},"793928820623797":{"id":"793928820623797","from":{"id":"100003878977188","name":"Minh Canh"},"message":"東京経済大学","can_remove":false,"created_time":"2014-01-10T04:04:58+0000","like_count":0,"user_likes":false},"793929877290358":{"id":"793929877290358","from":{"id":"100001458099624","name":"Kham Pha"},"message":"Trường xếp hạng cao thì có chút tự hào nhưng suy cho cùng đó đâu phải danh tiếng danh tiếng do bạn tạo ra, là của những người đi trước để lại đó chứ. Các bạn ở trường có rank ko cao thì hãy nghĩ rằng chính mình sau này sẽ tạo ra danh tiếng cho trường :)","can_remove":false,"created_time":"2014-01-10T04:08:57+0000","like_count":4,"user_likes":false},"793930133956999":{"id":"793930133956999","from":{"id":"100005801442456","name":"An Nguyen"},"message":"Waseda thuộc loại top đầu trường tư nên học phí cũng top nốt. Bảo khi ra trường dễ chứ có bảo thi không có vụ nợ môn đâu . Vào waseda mà không có điểm tiếng anh chắc nằm ở vòng giữ xe :v","can_remove":false,"created_time":"2014-01-10T04:09:54+0000","like_count":1,"user_likes":false},"793931943956818":{"id":"793931943956818","from":{"id":"100001458099624","name":"Kham Pha"},"message":"An Nguyen waseda thôi :))","message_tags":[{"id":"100005801442456","name":"An Nguyen","type":"user","offset":0,"length":9}],"can_remove":false,"created_time":"2014-01-10T04:15:33+0000","like_count":0,"user_likes":false},"793932417290104":{"id":"793932417290104","from":{"id":"100005801442456","name":"An Nguyen"},"message":"Thôi! A có học gì đâu :v với lại chả ham thành 1 サラリーマン đâu, thích cái khác cơ 😍","can_remove":false,"created_time":"2014-01-10T04:17:03+0000","like_count":1,"user_likes":false},"793933013956711":{"id":"793933013956711","from":{"id":"100001458099624","name":"Kham Pha"},"message":"học trường gì đâu có liên quan đến sau này sẽ làm ラリーマン hay ko đâu? \nTheo em tháy, một lợi thế của vào các trường danh tiếng là cơ hội quan hệ với giới đầu tư sẽ rất nhiều. Và đặc biệt là có rất nhiều tiểu thư xinh đẹp :))","can_remove":false,"created_time":"2014-01-10T04:20:24+0000","like_count":1,"user_likes":false},"793937860622893":{"id":"793937860622893","from":{"id":"1787333994","name":"Kiên Mậu"},"message":"anh confirm với An Nguyen là Waseda nhiều tiểu thư xinh xắn nhé, cả diễn viên, idol các kiểu. Không biết em thi bậc nào? Waseda học phí chỉ cao với 学部 thôi còn 修士 trở lên thì rẻ ko khác mấy trường công đâu, mà nhờ cái tiếng lại dễ xin học bổng","message_tags":[{"id":"100005801442456","name":"An Nguyen","type":"user","offset":16,"length":9}],"can_remove":false,"created_time":"2014-01-10T04:35:51+0000","like_count":1,"user_likes":false},"793959877287358":{"id":"793959877287358","from":{"id":"100002675248579","name":"Ecchi Deviluke"},"message":"Nghe mọi người nói thích quá :D Cho e hỏi là gái Nhật bên đó có xinh như trên film ko ạ ?","can_remove":false,"created_time":"2014-01-10T05:44:46+0000","like_count":0,"user_likes":false},"794001520616527":{"id":"794001520616527","from":{"id":"100001848885057","name":"Tiểu Mỡ Nhi"},"message":"Minh Lụa giúp em đi","message_tags":[{"id":"100003296170329","name":"Minh Lụa","type":"user","offset":0,"length":8}],"can_remove":false,"created_time":"2014-01-10T07:39:23+0000","like_count":0,"user_likes":false},"794001870616492":{"id":"794001870616492","from":{"id":"100003296170329","name":"Minh Lụa"},"message":"Tiểu Mỡ Nhi mô phật nhìn chữ hán hoa hết cả mắt. chờ chị học chữ hán tử tế thì sẽ giúp cô.","message_tags":[{"id":"100001848885057","name":"Tiểu Mỡ Nhi","type":"user","offset":0,"length":11}],"can_remove":false,"created_time":"2014-01-10T07:41:38+0000","like_count":0,"user_likes":false},"794001953949817":{"id":"794001953949817","from":{"id":"100001848885057","name":"Tiểu Mỡ Nhi"},"message":"Nói thế thì chán luôn. Em cũng ngoan ngoãn đi học Kanji đây","can_remove":false,"created_time":"2014-01-10T07:42:12+0000","like_count":0,"user_likes":false},"794002727283073":{"id":"794002727283073","from":{"id":"100003296170329","name":"Minh Lụa"},"message":"con gái bên nhật béo mũm mĩn, da trắng nõn nà bạn à. Ở cái vùng tớ sống ở đó 1 thời gian thì con gái bình thường thôi. Nhưng mà con trai làm trong quán ăn thì rất đep trai (hihi chả hiểu sao lại thê chư... )","can_remove":false,"created_time":"2014-01-10T07:46:26+0000","like_count":0,"user_likes":false},"794008987282447":{"id":"794008987282447","from":{"id":"100003762478244","name":"Nếu Là Anh"},"message":"e cũng có dự định đi Nhật cho e hỏi thi đại học bên đó ntn vậy ạ","can_remove":false,"created_time":"2014-01-10T08:16:35+0000","like_count":0,"user_likes":false},"794052830611396":{"id":"794052830611396","from":{"id":"100003828118579","name":"Khanh Linh"},"message":"Trường mình cũng ở top lẹt đẹt.:))","can_remove":false,"created_time":"2014-01-10T10:55:02+0000","like_count":0,"user_likes":false},"794055760611103":{"id":"794055760611103","from":{"id":"100001416272263","name":"Mai PB"},"message":"Các trường ở trên là osusume-daigaku, tức là các trường hơn mức bình thường rồi. Các trường ở dưới không được map là ippan-daigaku, tức là mức phổ cập, trung bình. Được dạy thế nào là quan trọng, nhưng cũng phải cố gắng thì mới tận dụng được lợi thế đó.","can_remove":false,"created_time":"2014-01-10T11:05:15+0000","like_count":0,"user_likes":false},"794056370611042":{"id":"794056370611042","from":{"id":"100001416272263","name":"Mai PB"},"message":"Còn nhiều trường hạng top không có tên ở đây vì đây chỉ là danh sách trường vùng quanh Tokyo thôi.","can_remove":false,"created_time":"2014-01-10T11:07:11+0000","like_count":0,"user_likes":false},"794060857277260":{"id":"794060857277260","from":{"id":"100005801442456","name":"An Nguyen"},"message":"Sao bác cm mà không \" like \" cho em 😢 dạo này e ít đc like quá à huhu","can_remove":false,"created_time":"2014-01-10T11:14:58+0000","like_count":1,"user_likes":false},"794062323943780":{"id":"794062323943780","from":{"id":"569263718","name":"Phuong Thao Tran"},"message":"đê mình like cho bạn 2 cái nhé An Nguyen, :D","message_tags":[{"id":"100005801442456","name":"An Nguyen","type":"user","offset":31,"length":9}],"can_remove":false,"created_time":"2014-01-10T11:19:30+0000","like_count":0,"user_likes":false},"794062670610412":{"id":"794062670610412","from":{"id":"100002675248579","name":"Ecchi Deviluke"},"message":"Like 2 cái là ko like thì phải :v","can_remove":false,"created_time":"2014-01-10T11:20:44+0000","like_count":1,"user_likes":false},"794072580609421":{"id":"794072580609421","from":{"id":"100001416272263","name":"Mai PB"},"message":"Lỗi FB, An Nguyen","message_tags":[{"id":"100005801442456","name":"An Nguyen","type":"user","offset":8,"length":9}],"can_remove":false,"created_time":"2014-01-10T11:46:51+0000","like_count":0,"user_likes":false},"794082533941759":{"id":"794082533941759","from":{"id":"100005801442456","name":"An Nguyen"},"message":"Vậy đúng do lỗi facebook rồi, hèn gì mình ít like thế, trong khi mấy bạn kia được nhiều like . Có chút buồn \" nhẹ \" :v","can_remove":false,"created_time":"2014-01-10T12:07:43+0000","like_count":0,"user_likes":false},"794791563870856":{"id":"794791563870856","from":{"id":"100003913383051","name":"Tho Tran"},"message":"Cho em hỏi trường 日本女子大学 là trường thế nào đấy ạ??? Trường này  đào tạo chuyên sâu về lĩnh vực gì đấy ạ! Em tìm hiểu nhưng nhiều chữ hán quá em không đọc được ạ :(","can_remove":false,"created_time":"2014-01-11T15:23:27+0000","like_count":2,"user_likes":false}},"paging":{"cursors":{"after":"NzkzOTIzOTAwNjI0Mjg5","before":"NzkzOTIzOTAwNjI0Mjg5"},"next":"https://graph.facebook.com/229244010425617_793921643957848/comments?limit=1&summary=1&after=NzkzOTIzOTAwNjI0Mjg5"},"summary":{"order":"chronological","total_count":29}}}