{"id":"229244010425617_794177360598943","type":"status","from":{"id":"100000603915176","name":"悪いな ぁ"},"message":"Có ai biết câu \"一人前\" không nhỉ? Giải thích ngắn gọn ra tiếng Việt dùm với :D","created_time":"2014-01-10T15:41:51+0000","updated_time":"2014-01-11T03:15:58+0000","likes":{"data":{"100006711245076":{"id":"100006711245076","name":"Thi Ly Le"},"100007015029011":{"id":"100007015029011","name":"Hao Hai Duong"},"100001231404357":{"id":"100001231404357","name":"Quoc Anh"},"100002348937847":{"id":"100002348937847","name":"Xanh Le Te"},"100000024629190":{"id":"100000024629190","name":"Thanh Ngọc"},"100001526631937":{"id":"100001526631937","name":"Tường Oanh Mineko"},"569263718":{"id":"569263718","name":"Phuong Thao Tran"},"100005903373573":{"id":"100005903373573","name":"HaLinh Phong Phan"},"100000359762118":{"id":"100000359762118","name":"Mi Tra"},"1146680551":{"id":"1146680551","name":"優しい なぁ"},"100000450623476":{"id":"100000450623476","name":"Chien Bui Xuan"}},"paging":{"cursors":{"after":"MTAwMDA2NzExMjQ1MDc2","before":"MTAwMDA2NzExMjQ1MDc2"},"next":"https://graph.facebook.com/229244010425617_794177360598943/likes?limit=1&summary=1&after=MTAwMDA2NzExMjQ1MDc2"},"summary":{"total_count":12}},"comments":{"data":{"794178620598817":{"id":"794178620598817","from":{"id":"100000359762118","name":"Mi Tra"},"message":"đi mua cơm hay gọi món hay gặp từ này.","can_remove":false,"created_time":"2014-01-10T15:45:42+0000","like_count":2,"user_likes":false},"794178947265451":{"id":"794178947265451","from":{"id":"100000603915176","name":"悪いな ぁ"},"message":"It's have two meanings ;)","can_remove":false,"created_time":"2014-01-10T15:46:35+0000","like_count":3,"user_likes":false},"794179020598777":{"id":"794179020598777","from":{"id":"100005903373573","name":"HaLinh Phong Phan"},"message":"hình như là người đi trước ah Chị mèo.Em còn non yếu lắm xin chỉ giáo","can_remove":false,"created_time":"2014-01-10T15:46:45+0000","like_count":0,"user_likes":false},"794179043932108":{"id":"794179043932108","from":{"id":"100000045271667","name":"Nam Thai Nguyen"},"message":"Nghĩa là \" làm bát \" à Mi Tra ^^","can_remove":false,"created_time":"2014-01-10T15:46:48+0000","like_count":1,"user_likes":false},"794179150598764":{"id":"794179150598764","from":{"id":"1146680551","name":"優しい なぁ"},"message":"Đúng vại Mi tra nhỉ.","can_remove":false,"created_time":"2014-01-10T15:47:05+0000","like_count":0,"user_likes":false},"794179227265423":{"id":"794179227265423","from":{"id":"100005903373573","name":"HaLinh Phong Phan"},"message":"trời còn chơi cả Anh ngữ nữa thì si hiểu.?","can_remove":false,"created_time":"2014-01-10T15:47:21+0000","like_count":0,"user_likes":false},"794179260598753":{"id":"794179260598753","from":{"id":"100000359762118","name":"Mi Tra"},"message":"Còn 1 nghĩa là ám chỉ người đã trưởng thành, tự lập được","can_remove":false,"created_time":"2014-01-10T15:47:28+0000","like_count":3,"user_likes":false},"794179567265389":{"id":"794179567265389","from":{"id":"100000603915176","name":"悪いな ぁ"},"message":"Haizz, gặp cô ráo mịe noá rùi. À mà bảo rịch ngắn gọn mừ =))","can_remove":false,"created_time":"2014-01-10T15:48:21+0000","like_count":1,"user_likes":false},"794179577265388":{"id":"794179577265388","from":{"id":"100000359762118","name":"Mi Tra"},"message":"Nó dịch sang tiếng Việt hay ho hơn oza kt Nam Thai Nguyen ạ","can_remove":false,"created_time":"2014-01-10T15:48:22+0000","like_count":1,"user_likes":false},"794179857265360":{"id":"794179857265360","from":{"id":"100000359762118","name":"Mi Tra"},"message":"Dịch ngắn gọn nhường các bạn khác. Mềnh thường bị nói là dài dòng, lắm mồm :))","can_remove":false,"created_time":"2014-01-10T15:49:09+0000","like_count":3,"user_likes":false},"794179920598687":{"id":"794179920598687","from":{"id":"100000045271667","name":"Nam Thai Nguyen"},"message":"Vậy là \" làm tô \" ^^","can_remove":false,"created_time":"2014-01-10T15:49:14+0000","like_count":0,"user_likes":false},"794180297265316":{"id":"794180297265316","from":{"id":"1146680551","name":"優しい なぁ"},"message":"\"Làm phát\" nghe đôn ở TN hay nói vại","can_remove":false,"created_time":"2014-01-10T15:50:14+0000","like_count":0,"user_likes":false},"794180380598641":{"id":"794180380598641","from":{"id":"100000603915176","name":"悪いな ぁ"},"message":"Nam Thai Nguyen có vẻ hiểu nghĩa mà dịch hem chuẩn òi. Có Nữ Thái Nguyên ở trong group hem nhỉ?","message_tags":[{"id":"100000045271667","name":"Nam Thai Nguyen","type":"user","offset":0,"length":15}],"can_remove":false,"created_time":"2014-01-10T15:50:28+0000","like_count":1,"user_likes":false},"794180797265266":{"id":"794180797265266","from":{"id":"1146680551","name":"優しい なぁ"},"message":"Có Thanh Ngọc đó bác :v","can_remove":false,"created_time":"2014-01-10T15:51:22+0000","like_count":1,"user_likes":false},"794180887265257":{"id":"794180887265257","from":{"id":"100000045271667","name":"Nam Thai Nguyen"},"message":"Các thím muốn đứng chân bảo vệ Samsung TN không mà lại phân biệt vùng miền thế >_<","can_remove":false,"created_time":"2014-01-10T15:51:37+0000","like_count":0,"user_likes":false},"794182380598441":{"id":"794182380598441","from":{"id":"1146680551","name":"優しい なぁ"},"message":"Hehe :)) từ này đọc sao vậy bác :))","can_remove":false,"created_time":"2014-01-10T15:55:50+0000","like_count":0,"user_likes":false},"794182740598405":{"id":"794182740598405","from":{"id":"100000603915176","name":"悪いな ぁ"},"message":"Từ nào?","can_remove":false,"created_time":"2014-01-10T15:56:59+0000","like_count":0,"user_likes":false},"794184160598263":{"id":"794184160598263","from":{"id":"1146680551","name":"優しい なぁ"},"message":"Topic của bác đó. :v","can_remove":false,"created_time":"2014-01-10T15:58:09+0000","like_count":0,"user_likes":false},"794184533931559":{"id":"794184533931559","from":{"id":"100000359762118","name":"Mi Tra"},"message":"いちにんまえ","can_remove":false,"created_time":"2014-01-10T15:58:33+0000","like_count":1,"user_likes":false},"794184583931554":{"id":"794184583931554","from":{"id":"100000603915176","name":"悪いな ぁ"},"message":"Viết sao đọc vậy: ひとりまえ","can_remove":false,"created_time":"2014-01-10T15:58:39+0000","like_count":0,"user_likes":false},"794184870598192":{"id":"794184870598192","from":{"id":"1146680551","name":"優しい なぁ"},"message":":))","can_remove":false,"created_time":"2014-01-10T15:59:16+0000","like_count":0,"user_likes":false},"794185023931510":{"id":"794185023931510","from":{"id":"100000603915176","name":"悪いな ぁ"},"message":"Cười giề hử","can_remove":false,"created_time":"2014-01-10T15:59:39+0000","like_count":0,"user_likes":false},"794185040598175":{"id":"794185040598175","from":{"id":"100000359762118","name":"Mi Tra"},"message":"一人前　\n１ 一人に割り当てる量。ひとりぶん。ひとりまえ。「―の料理」\n\n２ 成人であること。また、成人の資格・能力があること。ひとりまえ。「―のことを言う」「―に扱う」\n\n３ 技芸・学問などが一応の水準に達していること。「―の医者」","can_remove":false,"created_time":"2014-01-10T15:59:42+0000","like_count":5,"user_likes":false},"794185643931448":{"id":"794185643931448","from":{"id":"100000603915176","name":"悪いな ぁ"},"message":"Mi Tra có tự điển gì lợi hại vại?","can_remove":false,"created_time":"2014-01-10T16:01:10+0000","like_count":0,"user_likes":false},"794186163931396":{"id":"794186163931396","from":{"id":"1146680551","name":"優しい なぁ"},"message":"Google :)","can_remove":false,"created_time":"2014-01-10T16:02:22+0000","like_count":1,"user_likes":false},"794186263931386":{"id":"794186263931386","from":{"id":"100000603915176","name":"悪いな ぁ"},"message":"Cái nì kg phải gu gồ đâu","can_remove":false,"created_time":"2014-01-10T16:02:38+0000","like_count":0,"user_likes":false},"794186753931337":{"id":"794186753931337","from":{"id":"100000603915176","name":"悪いな ぁ"},"message":"À, mà Mi Tra đọc sai, bắt lỗi đc 1 phát, hí hí :v","can_remove":false,"created_time":"2014-01-10T16:03:19+0000","like_count":0,"user_likes":false},"794186853931327":{"id":"794186853931327","from":{"id":"100000359762118","name":"Mi Tra"},"message":"đâu?","can_remove":false,"created_time":"2014-01-10T16:03:39+0000","like_count":0,"user_likes":false},"794186983931314":{"id":"794186983931314","from":{"id":"1146680551","name":"優しい なぁ"},"message":"Gu gồ chà pen .bác để vn sao ra đc","can_remove":false,"created_time":"2014-01-10T16:04:02+0000","like_count":0,"user_likes":false},"794187140597965":{"id":"794187140597965","from":{"id":"100000603915176","name":"悪いな ぁ"},"message":"ひとり chứ kg phải いちにん","can_remove":false,"created_time":"2014-01-10T16:04:21+0000","like_count":0,"user_likes":false},"794187537264592":{"id":"794187537264592","from":{"id":"100000359762118","name":"Mi Tra"},"message":"ko sai đâu nhé!\nhttp://dictionary.goo.ne.jp/leaf/jn2/12634/m0u/","can_remove":false,"created_time":"2014-01-10T16:05:08+0000","like_count":1,"user_likes":false},"794187840597895":{"id":"794187840597895","from":{"id":"1146680551","name":"優しい なぁ"},"message":"Ichininmae :)","can_remove":false,"created_time":"2014-01-10T16:05:48+0000","like_count":0,"user_likes":false},"794187957264550":{"id":"794187957264550","from":{"id":"100000359762118","name":"Mi Tra"},"message":"Mà Cú Mèo cố tình nhử để mình khai từ điển ra chứ gì? trò này mình biết :)))","can_remove":false,"created_time":"2014-01-10T16:06:12+0000","like_count":1,"user_likes":false},"794188017264544":{"id":"794188017264544","from":{"id":"100000603915176","name":"悪いな ぁ"},"message":"Thế cái nì của Mi Tra nó ghi là gì?\n\n一人前　\n１ 一人に割り当てる量。ひとりぶん。ひとりまえ。「―の料理」\n\n２ 成人であること。また、成人の資格・能力があること。ひとりまえ。「―のことを言う」「―に扱う」\n\n３ 技芸・学問などが一応の水準に達していること。「―の医者","can_remove":false,"created_time":"2014-01-10T16:06:21+0000","like_count":0,"user_likes":false},"794188267264519":{"id":"794188267264519","from":{"id":"100000045271667","name":"Nam Thai Nguyen"},"message":"Cú Mèo là Tú gái nhá, giờ mới hay :)","can_remove":false,"created_time":"2014-01-10T16:07:02+0000","like_count":0,"user_likes":false},"794188500597829":{"id":"794188500597829","from":{"id":"100000359762118","name":"Mi Tra"},"message":"Nó đồng nghĩa với ひとりまえ　*))","can_remove":false,"created_time":"2014-01-10T16:07:17+0000","like_count":1,"user_likes":false},"794188823931130":{"id":"794188823931130","from":{"id":"100000603915176","name":"悪いな ぁ"},"message":"Con nhợn kia, nướt. Cú vật :3","can_remove":false,"created_time":"2014-01-10T16:07:51+0000","like_count":0,"user_likes":false},"794189260597753":{"id":"794189260597753","from":{"id":"100000045271667","name":"Nam Thai Nguyen"},"message":"Anh Nguyễn ơi, cú mèo động vật có vú không? Trả lơi xong tự nướt :v","can_remove":false,"created_time":"2014-01-10T16:09:11+0000","like_count":1,"user_likes":false},"794190517264294":{"id":"794190517264294","from":{"id":"1146680551","name":"優しい なぁ"},"message":"Cuối cúng là cái nào đung vại","can_remove":false,"created_time":"2014-01-10T16:12:12+0000","like_count":0,"user_likes":false},"794190590597620":{"id":"794190590597620","from":{"id":"100000027754899","name":"Hoang Van Ba"},"message":"Nghèo đói. Phải cắt mạng đi để dùng trộm wifi chùa :((","can_remove":false,"created_time":"2014-01-10T16:12:30+0000","like_count":1,"user_likes":false},"794190663930946":{"id":"794190663930946","from":{"id":"100000603915176","name":"悪いな ぁ"},"message":"Cả 2 cùng đúng cưng nhé","can_remove":false,"created_time":"2014-01-10T16:12:43+0000","like_count":1,"user_likes":false},"794190957264250":{"id":"794190957264250","from":{"id":"100000027754899","name":"Hoang Van Ba"},"message":"","can_remove":false,"created_time":"2014-01-10T16:13:24+0000","like_count":0,"user_likes":false},"794191177264228":{"id":"794191177264228","from":{"id":"100000359762118","name":"Mi Tra"},"message":"nhưng thường nghe là いちにんまえ","can_remove":false,"created_time":"2014-01-10T16:13:53+0000","like_count":1,"user_likes":false},"794191463930866":{"id":"794191463930866","from":{"id":"100000603915176","name":"悪いな ぁ"},"message":"Chị lại nghe thấy cả hai, いちにんまえ thì hay nghe hơn!","can_remove":false,"created_time":"2014-01-10T16:14:29+0000","like_count":0,"user_likes":false},"794192173930795":{"id":"794192173930795","from":{"id":"100000027754899","name":"Hoang Van Ba"},"message":"Xin lỗi vì lắm chuyện. Nhưng đọc là ひとりまえlà sai nhé","can_remove":false,"created_time":"2014-01-10T16:15:50+0000","like_count":0,"user_likes":false},"794192520597427":{"id":"794192520597427","from":{"id":"100000603915176","name":"悪いな ぁ"},"message":"Này thì sai này!","can_remove":false,"created_time":"2014-01-10T16:16:37+0000","like_count":0,"user_likes":false},"794194477263898":{"id":"794194477263898","from":{"id":"1146680551","name":"優しい なぁ"},"message":"Nhiều khi từ điển cũng bị nỗi :v","can_remove":false,"created_time":"2014-01-10T16:20:46+0000","like_count":2,"user_likes":false},"794194570597222":{"id":"794194570597222","from":{"id":"100000027754899","name":"Hoang Van Ba"},"message":"Đôi co đc hay ko. Đúng hay sai thì ko quan trọng :)))\nVì mình ko phải là ng nhật. Mà nếu hỏi ng nhật thì có thể có 2 kết quả\nNhưng mình mới hỏi có 3 ng thôi :))","can_remove":false,"created_time":"2014-01-10T16:20:56+0000","like_count":0,"user_likes":false},"794195740597105":{"id":"794195740597105","from":{"id":"100000603915176","name":"悪いな ぁ"},"message":"Đây đâu phải đôi co :p","can_remove":false,"created_time":"2014-01-10T16:22:33+0000","like_count":0,"user_likes":false},"794196143930398":{"id":"794196143930398","from":{"id":"100000027754899","name":"Hoang Van Ba"},"message":":)) thì phân bua :)) chắc là đúng nhỉ :))","can_remove":false,"created_time":"2014-01-10T16:23:10+0000","like_count":0,"user_likes":false},"794196673930345":{"id":"794196673930345","from":{"id":"100000603915176","name":"悪いな ぁ"},"message":"Theo mình nhớ ngày xưa thì cô giáo đã dạy vậy. Với lại đây là ngôn ngữ mà mọi người học, nếu nó đúng mà bảo nó sai thì ảnh hưởng đến người không biết. Chỉ có ý nghĩa vậy thôi chứ kg có gì cả mà :))","can_remove":false,"created_time":"2014-01-10T16:24:24+0000","like_count":0,"user_likes":false},"794197823930230":{"id":"794197823930230","from":{"id":"100000027754899","name":"Hoang Van Ba"},"message":"Mà- :))\nThực ra đây cũng là lần đầu tiên nhìn thấy chữ đấy :))\nKo biết ng ta dùng nó ntn. Có phổ biến ko ??   Chứ có khi ngày mai mình lại quên mất luôn :((","can_remove":false,"created_time":"2014-01-10T16:27:10+0000","like_count":0,"user_likes":false},"794202213929791":{"id":"794202213929791","from":{"id":"1816269439","name":"Dao Ngoc"},"message":"Phổ biến!","can_remove":false,"created_time":"2014-01-10T16:34:30+0000","like_count":3,"user_likes":false},"794233400593339":{"id":"794233400593339","from":{"id":"100002257397293","name":"Quyen Hoang"},"message":"có lẽ là 1 người sử dụng j đó.","can_remove":false,"created_time":"2014-01-10T17:48:32+0000","like_count":0,"user_likes":false},"794233477259998":{"id":"794233477259998","from":{"id":"100002257397293","name":"Quyen Hoang"},"message":"doc l hitori mae la dung ma.ai bảo sai vậy","can_remove":false,"created_time":"2014-01-10T17:48:53+0000","like_count":0,"user_likes":false},"794243427259003":{"id":"794243427259003","from":{"id":"100000024629190","name":"Thanh Ngọc"},"message":"c/s hàng ngày k thấy có ai dùg hitori mae hết, ngta chỉ đọc là ichinin mae thôi. nghĩa là 1 phần người nên dùng nghĩa của nó tác dụng rất rộng. khi ở quán ăn thỳ dùng cho 1phần ăn của 1ng là nghĩa đen. còn nghĩa bóng của nó là 1ng có đủ kinh nghiệm, k cần ngta gíup, nên ngược lại có câu 半人前 hannin mae ý nghĩa là ngừơi chưa đủ kinh nghiệm, có thể có câu này nên ngta k đọc là hitori mae :v","can_remove":false,"created_time":"2014-01-10T18:10:06+0000","like_count":8,"user_likes":false},"794312833918729":{"id":"794312833918729","from":{"id":"738235689","name":"Dang Thi Phuong"},"message":"Bạn Thanh Ngọc giải thích rất chính xác.  Ở Nhật khi vào công ty làm thì ít nhất phải sau ba năm mới có thể đc công nhận là ichinin mae.","can_remove":false,"created_time":"2014-01-10T21:01:57+0000","like_count":2,"user_likes":false},"794381863911826":{"id":"794381863911826","from":{"id":"100002516940265","name":"Việt Trần Huy"},"message":"ichinin mae nghĩa 1: phần ăn suất ăn\nichinin mae nghĩa 2: nhân viên thực thụ, có kinh nghiệm( nói chung là lời khen)","can_remove":false,"created_time":"2014-01-10T23:20:51+0000","like_count":0,"user_likes":false},"794385830578096":{"id":"794385830578096","from":{"id":"100002257397293","name":"Quyen Hoang"},"message":"vậy ah.tks nhe.","can_remove":false,"created_time":"2014-01-10T23:34:38+0000","like_count":0,"user_likes":false},"794398273910185":{"id":"794398273910185","from":{"id":"100001717012614","name":"Trần Phước Hùng"},"message":"","can_remove":false,"created_time":"2014-01-11T00:12:51+0000","like_count":1,"user_likes":false},"794417997241546":{"id":"794417997241546","from":{"id":"100002949055983","name":"Joke Nguyễn"},"message":"@Hoang Van Ba . Anh ơi a dùng từ điển Nhật Nhật gì đấy???","can_remove":false,"created_time":"2014-01-11T00:27:45+0000","like_count":0,"user_likes":false},"794450170571662":{"id":"794450170571662","from":{"id":"100003105034037","name":"Pham Oanh"},"message":"Anh Nguyễn:bị lỗi a ạ! Not \" nỗi\"","can_remove":false,"created_time":"2014-01-11T01:09:07+0000","like_count":0,"user_likes":false},"794488767234469":{"id":"794488767234469","from":{"id":"1146680551","name":"優しい なぁ"},"message":"Haha thánh soi :)) a dân miền nam mà k có ngọng nâu :) dù sao cũng cảm ơn em nhé Pham Pham Oanh","message_tags":[{"id":"100003105034037","name":"Pham Oanh","type":"user","offset":86,"length":9}],"can_remove":false,"created_time":"2014-01-11T02:59:26+0000","like_count":0,"user_likes":false},"794494433900569":{"id":"794494433900569","from":{"id":"100003105034037","name":"Pham Oanh"},"message":"K có chi ạ! Anh nguyênz","can_remove":false,"created_time":"2014-01-11T03:15:58+0000","like_count":0,"user_likes":false}},"paging":{"cursors":{"after":"Nzk0MTc4NjIwNTk4ODE3","before":"Nzk0MTc4NjIwNTk4ODE3"},"next":"https://graph.facebook.com/229244010425617_794177360598943/comments?limit=1&summary=1&after=Nzk0MTc4NjIwNTk4ODE3"},"summary":{"order":"chronological","total_count":64}}}