{"id":"229244010425617_794465723903440","type":"photo","object_id":"198023923731066","picture":"https://fbcdn-photos-g-a.akamaihd.net/hphotos-ak-prn1/t1.0-0/1512745_198023923731066_2092438587_s.jpg","link":"https://www.facebook.com/photo.php?fbid=198023923731066&set=gm.794465723903440&type=1&relevant_count=1","from":{"id":"100005703791922","name":"Hoa Tiên Tử"},"message":"Sang được hơn hai tuần rồi mà vẫn chưa đăng kí điện thoại được. Bốn ngày trước ghé vào Softbank thì họ bảo 16/1 hãy nên đăng ký vì khi đó có khuyến mại giảm ¥980/tháng trong 3 năm, và hẹn mình 16 quay lại.\nHôm qua đi học về vào 1 Softbank khác cũng nhận được thông tin tương tự. Họ còn nói thêm về chu kỳ thanh toán cước của Softbank là từ 21 tháng này đến 20 tháng sau, khuyên mình nếu đã chờ đến 16 thì nên chờ thêm 5 ngày nữa đến 21 hãy ra đăng ký để bắt đầu chu kỳ tính cước mới, như thế sẽ ko bị thiệt. Thiệt ở đây tức là nếu 16/1 đăng ký (không cần trả tiền gì ngay) thì 20/1 là ngày thanh toán cước sẽ phải trả 5775+3155=8930¥. Và từ các tháng sau sẽ là 5775/tháng, thanh toán vào 20 hàng tháng. Như thế nếu lùi 5 ngày đến 21/1 mới ra đăng ký thì 20/2 mới phải trả ¥8930, và 20/3 trở đi sẽ trả ¥5775.\nĐây là thông tin mình có được khi ra nói chuyện với nhân viên Softbank nên share lên với mọi người.\nMong nhận được chia sẻ!","created_time":"2014-01-11T01:53:56+0000","updated_time":"2014-01-11T23:48:38+0000","likes":{"data":{"100001526631937":{"id":"100001526631937","name":"Tường Oanh Mineko"},"100007396898008":{"id":"100007396898008","name":"My Hanh"},"100000042138129":{"id":"100000042138129","name":"Duong David"},"100006627121749":{"id":"100006627121749","name":"Cỏ Kim"},"569263718":{"id":"569263718","name":"Phuong Thao Tran"},"100004133863020":{"id":"100004133863020","name":"Ngô Thu Huyền"},"100001318098340":{"id":"100001318098340","name":"Trang Anh"},"100005801442456":{"id":"100005801442456","name":"An Nguyen"},"100004445826984":{"id":"100004445826984","name":"Ong Noi Viet"},"100003624360009":{"id":"100003624360009","name":"Thằng Bờm"},"100004453322771":{"id":"100004453322771","name":"Đặng Ngọc Đính"},"100002034804853":{"id":"100002034804853","name":"Hải Mẫn"},"100000019126977":{"id":"100000019126977","name":"Nguyen Thi Ngoc Anh"},"100001917790709":{"id":"100001917790709","name":"Tran Thang"},"100006716918619":{"id":"100006716918619","name":"Ốc Tiêu"},"100001416272263":{"id":"100001416272263","name":"Mai PB"}},"paging":{"cursors":{"after":"MTAwMDAxNTI2NjMxOTM3","before":"MTAwMDAxNTI2NjMxOTM3"},"next":"https://graph.facebook.com/229244010425617_794465723903440/likes?limit=1&summary=1&after=MTAwMDAxNTI2NjMxOTM3"},"summary":{"total_count":17}},"comments":{"data":{"794498060566873":{"id":"794498060566873","from":{"id":"100003769605438","name":"Nhạt Nhòa"},"message":"DVoiws điều kiên là đt gì","can_remove":false,"created_time":"2014-01-11T03:24:41+0000","like_count":0,"user_likes":false},"794503647232981":{"id":"794503647232981","from":{"id":"100001346423829","name":"Long Nguyen Duy"},"message":"Anh chị ơi cho em hỏi là, em sắp qua nhật,nhưng về thông tin sim mạng thì em mù tịt,có nên mua điện thoại ở nhà mang sang hay mua bên kia cũng đc( xét về yếu tố kinh tế,vd như ip5)?, và sim bên đó giá cả trung bình một tháng ntn với người có đt rồi và với người sẽ mua đt bên đó(tất nhiên là mua mới của nhà mạng và có ràng buộc gì gì đó với nhà mạng...)?, và em hỏi thêm nữa là sang đó mình kiếm đt cũ và mua mỗi sim để dùng thôi thì phương thức đăng ký và  thanh toán ntn? khoảng bao nhiêu một tháng ạ? Em xin chân thành cảm ơn ạ ^^","can_remove":false,"created_time":"2014-01-11T03:40:36+0000","like_count":0,"user_likes":false},"794513670565312":{"id":"794513670565312","from":{"id":"100005703791922","name":"Hoa Tiên Tử"},"message":"Nhạt Nhoà: đây là mình hỏi cho 5s vì 5 thì hiện tại hết máy, muốn đăng ký phải đặt trước","can_remove":false,"created_time":"2014-01-11T04:07:50+0000","like_count":0,"user_likes":false},"794516387231707":{"id":"794516387231707","from":{"id":"100005703791922","name":"Hoa Tiên Tử"},"message":"Ong Noi Viet: theo như họ có viết trên tờ giấy mình chụp thì mang theo thẻ Bảo hiểm, thẻ học sinh, thẻ Bưu điện, không thấy nhắc thẻ Ngoại kiều nhưng mọi người cứ mang đi cho chắc. ¥1000 là 200k","message_tags":[{"id":"100004445826984","name":"Ong Noi Viet","type":"user","offset":0,"length":12}],"can_remove":false,"created_time":"2014-01-11T04:10:41+0000","like_count":1,"user_likes":false},"794538457229500":{"id":"794538457229500","from":{"id":"100001802076152","name":"Hoang Thanh Dong"},"message":"Kinh tế nhất là dùng đt cũ và đăng ký hợp đồng sim với nhà mạng. Thuê bao 980¥+300¥ SMS/ tháng, Bạn sẽ đc nhắn tin sms xả láng và gọi nội mạng từ 1h sáng tới 21h miễn phí.","can_remove":false,"created_time":"2014-01-11T04:57:42+0000","like_count":2,"user_likes":false},"794539953896017":{"id":"794539953896017","from":{"id":"100001346423829","name":"Long Nguyen Duy"},"message":"Hoang Thanh Dong em cảm ơn ạ","can_remove":false,"created_time":"2014-01-11T05:02:52+0000","like_count":0,"user_likes":false},"794546487228697":{"id":"794546487228697","from":{"id":"100001754136107","name":"Nguyễn Tuấn Vũ"},"message":"Mình khuyên bạn nên dùng thêm gói cước 500 yên 1 tháng, gọi trong mạng 24/24h.","can_remove":false,"created_time":"2014-01-11T05:27:44+0000","like_count":0,"user_likes":false},"794569710559708":{"id":"794569710559708","from":{"id":"100000359762118","name":"Mi Tra"},"message":"Phiền 2 bạn Lặng Yêu, Ong Noi Viet viết tiếng Việt có dấu theo đúng quy định của Group. Cmt vi phạm đã bị xoá.","can_remove":false,"created_time":"2014-01-11T06:39:00+0000","like_count":0,"user_likes":false},"794573027226043":{"id":"794573027226043","from":{"id":"1146680551","name":"優しい なぁ"},"message":"Nó làm đúng rồi còn gì.","can_remove":false,"created_time":"2014-01-11T06:48:32+0000","like_count":1,"user_likes":false},"794579287225417":{"id":"794579287225417","from":{"id":"100003995173099","name":"Ngoc Kim Cuong"},"message":"Moi sang ma giỏi tiếng thế em? Nc tường tận được với nhân viên softbank thế ah? Bái phục","can_remove":false,"created_time":"2014-01-11T07:09:10+0000","like_count":0,"user_likes":false},"794587550557924":{"id":"794587550557924","from":{"id":"100005703791922","name":"Hoa Tiên Tử"},"message":"Trước khi chuẩn bị làm gì cố gắng tra từ mới và viết ra giấy, không nói được thì giơ cho họ đọc, rồi kết hợp body language và quan trọng là Cứ xông vào, hihi...","can_remove":false,"created_time":"2014-01-11T07:38:35+0000","like_count":4,"user_likes":false},"795004337182912":{"id":"795004337182912","from":{"id":"100004445826984","name":"Ong Noi Viet"},"message":"Mình xin lỗi nha. Thế cko mình hỏi bạn làm sim đó thì mình cần phải mang theo những cái gj dj theo. Arigato.","can_remove":false,"created_time":"2014-01-11T23:48:38+0000","like_count":0,"user_likes":false}},"paging":{"cursors":{"after":"Nzk0NDk4MDYwNTY2ODcz","before":"Nzk0NDk4MDYwNTY2ODcz"},"next":"https://graph.facebook.com/229244010425617_794465723903440/comments?limit=1&summary=1&after=Nzk0NDk4MDYwNTY2ODcz"},"summary":{"order":"chronological","total_count":12}}}