{"id":"229244010425617_794593633890649","type":"photo","object_id":"678933085462732","picture":"https://fbcdn-photos-d-a.akamaihd.net/hphotos-ak-prn1/t1.0-0/1525660_678933085462732_690343622_s.jpg","link":"https://www.facebook.com/photo.php?fbid=678933085462732&set=gm.794593633890649&type=1&relevant_count=1","from":{"id":"100000381394367","name":"Thành Nguyễn"},"message":"Giáo dục là quá trình khám phá dần ra sự dốt nát của chính chúng ta\n\n教育とは自分の無知を徐々に発見していくことである\n\nきょういくはじぶんのむちをじょじょにはっけんしていくことである\n\nKyouiku towa jibun no muchi o jojoni hakken shite iku kotodearu\n\n教育: Giáo dục\n\n自分:Tự phân\n\n無知: Vô tri\n\n徐: Từ\n\n発見: Phát kiến","created_time":"2014-01-11T08:03:12+0000","updated_time":"2014-01-11T23:27:00+0000","likes":{"data":{"100007396898008":{"id":"100007396898008","name":"My Hanh"},"100003336455298":{"id":"100003336455298","name":"Diep Ngoc"},"100004715610677":{"id":"100004715610677","name":"Lương Thập"},"100004101363917":{"id":"100004101363917","name":"Lan Anh Mẫn"},"100000089472724":{"id":"100000089472724","name":"Duy Nguyen"},"1146680551":{"id":"1146680551","name":"優しい なぁ"},"100001526631937":{"id":"100001526631937","name":"Tường Oanh Mineko"},"100007316735911":{"id":"100007316735911","name":"Tuyen Dung Vn  Jp"},"100001713492709":{"id":"100001713492709","name":"Joy Anna"},"100006014164976":{"id":"100006014164976","name":"Bình Bông"},"100001114549932":{"id":"100001114549932","name":"Bui Thanh Hung"},"100005024348771":{"id":"100005024348771","name":"Long Hoàng"},"100001754136107":{"id":"100001754136107","name":"Nguyễn Tuấn Vũ"},"655982125":{"id":"655982125","name":"Le Thi Nga My"},"569263718":{"id":"569263718","name":"Phuong Thao Tran"},"100005934548279":{"id":"100005934548279","name":"Cậu Bé Buồn"},"100002348937847":{"id":"100002348937847","name":"Xanh Le Te"},"1026780646":{"id":"1026780646","name":"Việt Hưng Khổng"},"738235689":{"id":"738235689","name":"Dang Thi Phuong"},"100005801442456":{"id":"100005801442456","name":"An Nguyen"},"100002937804655":{"id":"100002937804655","name":"Dương Nguyễn"},"100000045271667":{"id":"100000045271667","name":"Nam Thai Nguyen"},"100001359798024":{"id":"100001359798024","name":"November Gi"},"100002919591130":{"id":"100002919591130","name":"Duy Khoa"},"100001231404357":{"id":"100001231404357","name":"Quoc Anh"},"1816269439":{"id":"1816269439","name":"Dao Ngoc"},"100005092020080":{"id":"100005092020080","name":"Pin Zin"}},"paging":{"cursors":{"after":"MTAwMDA3Mzk2ODk4MDA4","before":"MTAwMDA3Mzk2ODk4MDA4"},"next":"https://graph.facebook.com/229244010425617_794593633890649/likes?limit=1&summary=1&after=MTAwMDA3Mzk2ODk4MDA4"},"summary":{"total_count":28}},"comments":{"data":{"794621300554549":{"id":"794621300554549","from":{"id":"100001458099624","name":"Kham Pha"},"message":"Huy Do Van bạn viết có dấu đi, nếu ko comment sẽ bị xóa đó","message_tags":[{"id":"100006794408069","name":"Huy Do Van","type":"user","offset":0,"length":10}],"can_remove":false,"created_time":"2014-01-11T09:27:52+0000","like_count":0,"user_likes":false},"794680463881966":{"id":"794680463881966","from":{"id":"100005024348771","name":"Long Hoàng"},"message":"むち chứ ạ < cái chỗ dịch sang hiragana ấy ạ> :)","can_remove":false,"created_time":"2014-01-11T12:14:38+0000","like_count":2,"user_likes":false},"794856610531018":{"id":"794856610531018","from":{"id":"100000089472724","name":"Duy Nguyen"},"message":"nói đúng hơn là càng học càng thấy ngu.....;))","can_remove":false,"created_time":"2014-01-11T17:24:50+0000","like_count":0,"user_likes":false},"794858830530796":{"id":"794858830530796","from":{"id":"100000381394367","name":"Thành Nguyễn"},"message":"Biết mình ngu là điều tốt đấy bởi vì \"NGƯỜI TA KHÔNG SAI LẦM VÌ DỐT MÀ SAI LẦM VÌ TƯỞNG LÀ MÌNH GIỎI\" :D","can_remove":false,"created_time":"2014-01-11T17:29:52+0000","like_count":3,"user_likes":false},"794996097183736":{"id":"794996097183736","from":{"id":"1725907325","name":"Nguyen Van Dung"},"message":"Câu nói trên chắc cũng bắt nguồn từ tư tưởng triết gia hy lạp ソクラテス\n\nXô-crat - Con “ruồi trâu” của nhà nước　(Tên do Plato đặt) \n\n無知の知 : Ngộ ra sự ngu dốt (của bản thân)\n\nĐiểm xuất phát của triết học Xô-crat ưu việt ở chỗ “so với những người đã không biết thế nào là điều hay lẽ phải lại cứ cho rằng mình khôn ngoan, con người ta sẽ biết được sự ngu dốt của bản thân (thông qua việc học tập)” và “Chính nhờ tự giác được về sự ngu dốt của mình, con người mới sinh ra được những thái độ nỗ lực cho việc tìm kiếm chân lý cũng như cố gắng để có được những cách cư xử mới.”\n\nTrong tiếng Hy Lạp “yêu trí tuệ” được viết rằng Philoshophy, và nó có nghĩa là “triết học”.\n\n無知の知 \n「何が善であるかを知らないのに、自分が賢いと思っている人に比べて、自分は無知であることを知っている点でまさっているというソクラテスの哲学の出発点。このような無知を自覚しているからこそ、真の知を求め、新しい行為をとるように努力する態度が生まれると考えたのである。」\n「知を愛すること」はギリシャ語では「フィロソフィァー」であり、「哲学」を意味する。\n\n参考：「新版現代社会」平成18年3月20日　実教出版株式会社　(62頁)\n\nhttp://vi.wikipedia.org/wiki/Sokrates","can_remove":false,"created_time":"2014-01-11T23:27:00+0000","like_count":1,"user_likes":false}},"paging":{"cursors":{"after":"Nzk0NjIxMzAwNTU0NTQ5","before":"Nzk0NjIxMzAwNTU0NTQ5"},"next":"https://graph.facebook.com/229244010425617_794593633890649/comments?limit=1&summary=1&after=Nzk0NjIxMzAwNTU0NTQ5"},"summary":{"order":"chronological","total_count":5}}}