{"id":"229244010425617_794821313867881","type":"photo","object_id":"272916736194761","picture":"https://fbcdn-photos-c-a.akamaihd.net/hphotos-ak-frc3/t1.0-0/1601049_272916736194761_1271663092_s.jpg","link":"https://www.facebook.com/photo.php?fbid=272916736194761&set=gm.794821313867881&type=1&relevant_count=1","from":{"id":"100004293099958","name":"Đông Phương"},"message":"Nhờ mọi người xem giúp mình vấn đề này mới nhé:\nVừa rồi mình có làm hồ sơ du học Nhật Bản nhưng do gia đình xảy ra chuyện nên đã rút hồ sơ về. Khi đề nghị bên c.ty tư vấn du học hủy hợp đồng rút lại hồ sơ và chấp nhận mất tiền đặt cọc thì phía C.ty tư vấn du học có yêu cầu đóng thêm số tiền 21.000 man (5.230.000đ) với lý do HS đã nộp sang trường nên phải đóng khoản phí xét duyệt HS cho trường thì trường mới gửi trả hồ sơ. Mình gửi kèm Invoice thu lệ phí của trường mà phía họ có đưa lại cho mình. Mong được sự giúp đỡ của mọi người. Nếu thực sự là lừa đảo mình sẽ đăng tên C.ty đó lên cho mọi người biết để tránh.","created_time":"2014-01-11T16:20:17+0000","updated_time":"2014-01-13T03:13:20+0000","likes":{"data":{"100000221648144":{"id":"100000221648144","name":"Nguyen Hung"},"100004779104079":{"id":"100004779104079","name":"Hạt Tiêu"},"100007396898008":{"id":"100007396898008","name":"My Hanh"},"100000022163023":{"id":"100000022163023","name":"Kafe Ore"},"100004763737953":{"id":"100004763737953","name":"Fuong Ank Nguyen"}},"paging":{"cursors":{"after":"MTAwMDAwMjIxNjQ4MTQ0","before":"MTAwMDAwMjIxNjQ4MTQ0"},"next":"https://graph.facebook.com/229244010425617_794821313867881/likes?limit=1&summary=1&after=MTAwMDAwMjIxNjQ4MTQ0"},"summary":{"total_count":5}},"comments":{"data":{"794827313867281":{"id":"794827313867281","from":{"id":"1211853514","name":"Mai Le"},"message":"Nếu có bản t Anh thế này em đoán trường có email liên lạc phải k anh, anh email hỏi trường thử xem thế nào?","can_remove":false,"created_time":"2014-01-11T16:32:38+0000","like_count":2,"user_likes":false},"794829927200353":{"id":"794829927200353","from":{"id":"1211853514","name":"Mai Le"},"message":"1 cách chuyển tiền kia thì đúng là chuyển sang acc trường rồi\n2 invoice này ghi là exam fee em thấy hơi kỳ, vì xét hồ sơ thì phải là admission fee\n3 phần ghi tên anh là viết = tay nên em có chút nghi ngờ. Hồi em nộp tiền cho trường em thì hầu như giấy tờ in hết, đúng 1 tờ copy gì đó họ có viết tay... \n4 phí xét hồ sơ tận 2 man quá cao cho 1 trường k danh tiếng thế này.( cái này em thực sự k chắc nên mong đc đọc thêm comm đóng góp của các ac và các bạn em khác)","can_remove":false,"created_time":"2014-01-11T16:38:15+0000","like_count":3,"user_likes":false},"794830480533631":{"id":"794830480533631","from":{"id":"100004025575501","name":"MinhThe Lee"},"message":"Chỗ nào cũng thế cả em ạ anh có thằng bạn cũng rut hs họ cung bắt bồi thưong từng dấy ,cái này khi mình lam vơi công ty nó có cai khoan nay rôì thì phải,,!","can_remove":false,"created_time":"2014-01-11T16:39:24+0000","like_count":2,"user_likes":false},"794833253866687":{"id":"794833253866687","from":{"id":"1211853514","name":"Mai Le"},"message":"Lúc đầu đọc 21000 man em giật cả mình :p. Nếu đúng như anh MinhThe comment trên kia thì em cũng k còn ý kiến gì ạ... Chả may anh sang đây, tốn thêm 1 số phí khác nữa mất công phải về thì có lẽ sẽ tốn kém hơn nữa, nghĩ theo hướng tích cực để cảm thấy thoải mái hơn vậy anh ạ","can_remove":false,"created_time":"2014-01-11T16:44:51+0000","like_count":2,"user_likes":false},"794846540532025":{"id":"794846540532025","from":{"id":"100004025575501","name":"MinhThe Lee"},"message":"Nhưng chăc la ko pkaj la 21 man dâu e a chỉ khoang 10 man la cùng thôi thây không chắc chắn thì thôi mình rut cho dơ tôn tg va vat chat,","can_remove":false,"created_time":"2014-01-11T17:09:23+0000","like_count":1,"user_likes":false},"794852187198127":{"id":"794852187198127","from":{"id":"100003094158721","name":"Hikari Truong"},"message":"Đúng bạn ơi... Phí xét tuyển hồ sơ du học tại trường nhật ngữ hay đại học tại nhật thường tầm 2 man đến 3,5 man.... Tuỳ theo trường... Bạn nộp hồ sơ cho trường, trường chấp nhận thì bạn phải mất số tiền này....\nNhưng mình có một thắc mắc... Nếu là trường gửi thì phải có con dấu... Tại mình thấy người nhật ít sử dụng chữ kí lắm... Nhất là trường học hay công ty.... Bởi vì họ đều đăng kí dấu có thể thay chữ kí.... Còn trường hợp này mình ko chắc... Chỉ nghi thui.... Hì....","can_remove":false,"created_time":"2014-01-11T17:19:02+0000","like_count":1,"user_likes":false},"794853303864682":{"id":"794853303864682","from":{"id":"1146680551","name":"優しい なぁ"},"message":"Nếu invoice thì cũng có dấu đỏ của trường dù đây bản scan .lạ 1 điều là k có dấu :)","can_remove":false,"created_time":"2014-01-11T17:21:29+0000","like_count":1,"user_likes":false},"794858780530801":{"id":"794858780530801","from":{"id":"100003094158721","name":"Hikari Truong"},"message":"Mình vào trang web trường xem rồi bạn... Số tài khoản ngân hàng đúng là của  trường đó... Bạn nên liên lạc với trường xem sao....???\nhttp://www.guidenet.jp/shop/454p/\nĐây là website của trường... Bạn tham khảo thử coi","can_remove":false,"created_time":"2014-01-11T17:29:45+0000","like_count":1,"user_likes":false},"794865577196788":{"id":"794865577196788","from":{"id":"100001824172942","name":"Phan Van"},"message":"Gakku en à??","can_remove":false,"created_time":"2014-01-11T17:45:44+0000","like_count":1,"user_likes":false},"794897843860228":{"id":"794897843860228","from":{"id":"100000359762118","name":"Mi Tra"},"message":"Theo nguyên tắc là sẽ phải nộp phí xét tuyển hồ sơ, trường sẽ thu khi bạn đỗ và nộp cùng với tiền học phí + các khoản khác.\nĐối với những hóa đơn thu tiền thì thường sẽ có con dấu của trường hoặc cả chữ ký và con dấu.\nMình không ở trường đó nên không biết như thế nào nên tốt nhất bạn gọi điện trực tiếp tới và hỏi trường để nhận thông tin chính xác.","can_remove":false,"created_time":"2014-01-11T18:54:26+0000","like_count":2,"user_likes":false},"794953320521347":{"id":"794953320521347","from":{"id":"1108328257","name":"Kenji Le"},"message":"Bạn trà mi nói đúng đó em à... \nTheo mình được biết thì Invoice sẽ kh có giá trị nếu không có con dấu của trường hay bất cứ 1 công ty nhật nào.\nTốt nhất là em nên Mail or điên thoại hỏi trường thì sẽ rõ ngay.","can_remove":false,"created_time":"2014-01-11T21:18:37+0000","like_count":1,"user_likes":false},"795015300515149":{"id":"795015300515149","from":{"id":"100002411696481","name":"Umisen Yamasen"},"message":"Làm gì có cái này mình làm du học 3 năm nay nhiều người cũng rút hồ sơ ngang chừng nhưng mà chả bjo bị phạt tiền lệ phia xét tuyển vs phí nhập học cả cùng lắm là ăn tiền cọc thôi","can_remove":false,"created_time":"2014-01-12T00:12:47+0000","like_count":1,"user_likes":false},"795024510514228":{"id":"795024510514228","from":{"id":"1554123932","name":"Ruc Tran Quang"},"message":"Đúng đó em ơi! phí xét tuyển em mất tần ấy tiền là đúng mà! ngay cả trên giấy yêu cầu nộp tiền cho trường họ cũng ghi rõ: Trường hợp do lí do nào đó mà bạn không được cấp visa hì phí xét hồ sơ sẽ không được trả lại! công ty này họ làm thế là đúng đấy!anh cũng đang tìm hiểu, anh định mở công ty làm trung tâm môi giới nhưng mà anh rõ ràng lắm! không \"ăn cướp\" tiền cua người khác đâu.","can_remove":false,"created_time":"2014-01-12T00:34:54+0000","like_count":1,"user_likes":false},"795025580514121":{"id":"795025580514121","from":{"id":"100002411696481","name":"Umisen Yamasen"},"message":"A ơi đấy là trong trường hợp nộp tiền rồi nếu k đi nữa mới bị trừ tiền đó và trẢ lại học phí còn k thì k bị phạt thế đâu ạ","can_remove":false,"created_time":"2014-01-12T00:38:26+0000","like_count":1,"user_likes":false},"795026457180700":{"id":"795026457180700","from":{"id":"1554123932","name":"Ruc Tran Quang"},"message":"đúng rồi anh mới tính là bạn này không nói rõ! còn cái Trung tâm này cũng quái thai thế nhỉ? thực tình nếu có mở trung tâm tư vấn hay gì gì đi nữa thì mình cũng phải làm việc = cái Tâm , lấy công = công sức bỏ ra, mà làm đa phần là người liên quan đến làng xóm, quan hệ cá nhân người nọ người kia.....vậy mà lại tính chuyện phạt phiếc thế này! khác nào trung tâm gia sư những năm 1998 khi anh mới lên Hà nội học năm đâu? 20-30 ngàn tiền đóng để trung tâm giới thiệu mà rồi cứ lặn tăm...","can_remove":false,"created_time":"2014-01-12T00:41:02+0000","like_count":0,"user_likes":false},"795027390513940":{"id":"795027390513940","from":{"id":"100002411696481","name":"Umisen Yamasen"},"message":"Vâng anh ạ e cũng làm du học mà nhưng hẻm bị ai nói chặt chém hay gì quá đáng cả học sinh sang vẫn c e trêu nhau ầm ầm may toá","can_remove":false,"created_time":"2014-01-12T00:44:04+0000","like_count":0,"user_likes":false},"795060310510648":{"id":"795060310510648","from":{"id":"100000211237467","name":"Nguyễn Thị Hà"},"message":"Em đặt cọc hết bao nhiêu tiền rồi? Thuờng thì tiền đặt cọc đã bao gồm tiền làm hồ sơ và phí xét duyệt hồ sơ rồi. Chi phí khoảng 10 triệu. Nếu em cọc 10 triệu rồi thì ko phải đóng gì nữa đâu.","can_remove":false,"created_time":"2014-01-12T02:09:18+0000","like_count":1,"user_likes":false},"795060733843939":{"id":"795060733843939","from":{"id":"100000022163023","name":"Kafe Ore"},"message":"Lừa đảo hay không, bạn hãy xem lại thật kỹ hợp đồng bạn đã ký với bên công ty khi quyết định đồng ý đi du học. Nếu việc đóng tiếp tiền này không có trong điều khoản hợp đồng thì bạn không việc gì phải đóng và có quyền khiếu kiện công ty này. \nNhưng nếu hợp đồng có ghi như vậy và trong lúc mộng tưởng tương lai du học Nhật bản kiếm bộn tiền như công ty giới thiệu, bạn cùng gia đình đã đặt bút ký - thì đóng tiền đi và đừng kêu ca lừa đảo gì cả.\n Mình thấy hợp đồng du học của các công ty hầu hết rất chặt chẽ về các điều khoản bồi thường khi phá vỡ hợp đồng ( tất nhiên họ nắm đằng chuôi, còn bạn trong lúc đang phê sẽ nắm vào lưỡi dao mà chẳng biết sẽ đứt tay lúc nào ).\n Chúc bạn mọi sự tốt lành !","can_remove":false,"created_time":"2014-01-12T02:10:46+0000","like_count":3,"user_likes":false},"795190553830957":{"id":"795190553830957","from":{"id":"1094162178","name":"Ngô Vũ Hoàng"},"message":"giấy này là giấy báo đóng lệ phí xét duyệt hồ sơ của trường chứ ko phải giấy chứng nhận trường đã thu tiền của bạn đâu","can_remove":false,"created_time":"2014-01-12T07:17:10+0000","like_count":2,"user_likes":false},"795240007159345":{"id":"795240007159345","from":{"id":"100002213007790","name":"ブイ チャエン"},"message":"Mới đầu đọc 21.000 man giật cả mình:))\nĐây là lệ phí xét tuyển 2,1man=4,2 triệu VND, chứ làm ji tới 5,2 triệu?\nKhi bạn đơn phương chấm dứt hợp đồng vs bất cứ lý do ji thì số tiền bạn đặt cọc sẽ không được hoàn trả cho bạn.\nBạn hãy coi lại toàn bộ nội dung của hợp đồng mà bạn đã ký và liên hệ trực tiếp vs trường là sẽ rõ ngay thôi mà.","can_remove":false,"created_time":"2014-01-12T10:06:57+0000","like_count":1,"user_likes":false},"795500507133295":{"id":"795500507133295","from":{"id":"100004293099958","name":"Đông Phương"},"message":"Cảm ơn mọi người đã giúp đỡ. Xin lỗi vì mình đi làm nên ko rep được. Mình nói lại vấn đề của mình như này: Số tiền mình đặt cọc là 10tr, mình chấp nhận mất số tiền đó để hủy hợp đồng vì trong hợp đồng có điều khoản là nếu mình đơn phương hủy hđ sẽ mất số tiền đặt cọc nhưng c.ty nêu lý do là đã gửi hồ sơ sang trường và trường đã xét duyệt nên phải mất số tiền trên thì phía trường mới gửi trả HS lại cho. Vì là chỗ quen biết nên mình cũng tin tưởng nộp thêm số tiền ngoài đó để lấy hồ sơ. Hiện tại HĐ của mình đã thanh lý, có kiện cũng khó nên mình ko có muốn lằng nhằng cho nhẹ đầu chỉ muốn hỏi m ng xem thực hư thế nào và muốn để m ng biết mà tránh những c.ty làm ăn vớ vẩn đó ra thôi.","can_remove":false,"created_time":"2014-01-12T18:52:59+0000","like_count":0,"user_likes":false},"795501277133218":{"id":"795501277133218","from":{"id":"1146680551","name":"優しい なぁ"},"message":"À nói thêm điều này nhé.tất cả hồ sơ gởi qua nhật đều là bản dịch qua tiếng nhật kèm theo bản công chứng bằng tiếng việt.k có chuyện bằng gốc đâu bạn","can_remove":false,"created_time":"2014-01-12T18:54:52+0000","like_count":0,"user_likes":false},"795502333799779":{"id":"795502333799779","from":{"id":"100004293099958","name":"Đông Phương"},"message":"vậy hả bạn, vậy là mình bị lừa để lấy số tiền trên rồi","can_remove":false,"created_time":"2014-01-12T18:57:42+0000","like_count":0,"user_likes":false},"795503910466288":{"id":"795503910466288","from":{"id":"1146680551","name":"優しい なぁ"},"message":"Càng quen nó càng ăn dầy mà","can_remove":false,"created_time":"2014-01-12T18:59:21+0000","like_count":0,"user_likes":false},"795504250466254":{"id":"795504250466254","from":{"id":"100004293099958","name":"Đông Phương"},"message":":) vì là chỗ bạn nên mới tin tưởng mà ko suy nghĩ gì.","can_remove":false,"created_time":"2014-01-12T19:00:22+0000","like_count":0,"user_likes":false},"795505450466134":{"id":"795505450466134","from":{"id":"1146680551","name":"優しい なぁ"},"message":"Bạn lên doạ là tôi điện sang nhật nhờ bạn hỏi hộ rồi.trường k giữ hs gốc","can_remove":false,"created_time":"2014-01-12T19:03:21+0000","like_count":0,"user_likes":false},"795505550466124":{"id":"795505550466124","from":{"id":"1146680551","name":"優しい なぁ"},"message":"Xem nó trả lời thế nào","can_remove":false,"created_time":"2014-01-12T19:03:34+0000","like_count":0,"user_likes":false},"795506010466078":{"id":"795506010466078","from":{"id":"100004293099958","name":"Đông Phương"},"message":":), nó đưa cho mình Invoice, mình cũng nghi nghi hỏi lại nó, nó còn bảo nếu nghi ngờ cứ đem lên ĐSQ hỏi","can_remove":false,"created_time":"2014-01-12T19:04:27+0000","like_count":0,"user_likes":false},"795506843799328":{"id":"795506843799328","from":{"id":"1146680551","name":"優しい なぁ"},"message":"Invoice  liên quan j đến ĐSQ :))","can_remove":false,"created_time":"2014-01-12T19:06:53+0000","like_count":0,"user_likes":false},"795507477132598":{"id":"795507477132598","from":{"id":"100004293099958","name":"Đông Phương"},"message":"Trời, thì mình cũng có hiểu hết mọi vấn đề về du học đâu, tin tưởng chỗ bè (ko phải bạn) lại cùng quê nên làm nó mới khổ thế bạn :(","can_remove":false,"created_time":"2014-01-12T19:08:16+0000","like_count":0,"user_likes":false},"795508090465870":{"id":"795508090465870","from":{"id":"1146680551","name":"優しい なぁ"},"message":"Cty đó ở đâu,tên j? Mình có cách bạn doạ lại nó xanh mặt","can_remove":false,"created_time":"2014-01-12T19:10:01+0000","like_count":0,"user_likes":false},"795508917132454":{"id":"795508917132454","from":{"id":"100004293099958","name":"Đông Phương"},"message":"https://www.facebook.com/GEAEDUCATION?ref=stream đây bạn, đầy đủ thông tin nhé :)","can_remove":false,"created_time":"2014-01-12T19:12:12+0000","like_count":0,"user_likes":false},"795510437132302":{"id":"795510437132302","from":{"id":"1146680551","name":"優しい なぁ"},"message":"Để mai mình post bài chung vậy.ngủ tí đã","can_remove":false,"created_time":"2014-01-12T19:14:29+0000","like_count":0,"user_likes":false},"795511077132238":{"id":"795511077132238","from":{"id":"100004293099958","name":"Đông Phương"},"message":"Kafe Ore cảm ơn bạn đã góp ý cho mình. Mình đi du học Nhật với mục đích học là chính và tất nhiên là cũng muốn có khả năng tự túc được cho việc học và cuộc sống của mình để đỡ gánh nặng cho gia đình.","can_remove":false,"created_time":"2014-01-12T19:15:03+0000","like_count":0,"user_likes":false},"795511620465517":{"id":"795511620465517","from":{"id":"100004293099958","name":"Đông Phương"},"message":"ok, nếu bạn cần giấy biên nhận + HĐ bản scan thì mình sẽ gửi luôn cho bạn nhé :)","can_remove":false,"created_time":"2014-01-12T19:16:04+0000","like_count":0,"user_likes":false},"795513413798671":{"id":"795513413798671","from":{"id":"100002213007790","name":"ブイ チャエン"},"message":"Về hồ sơ gốc ko biết trường mọi người thế nào? Còn trường mình có thu hồ sơ gốc. Khi bọn mình qua nhập học thì nhà trường trả lại. Giờ m vẫn nhờ trường giữ giúp:))","can_remove":false,"created_time":"2014-01-12T19:21:09+0000","like_count":0,"user_likes":false},"795514393798573":{"id":"795514393798573","from":{"id":"100000359762118","name":"Mi Tra"},"message":"Anh アン グエン ơi! Bản phô tô công chứng cũng được nhưng thường là nộp bằng gốc lên. Việc trường giữ hồ sơ gốc là hoàn toàn có thể.","message_tags":[{"id":"1146680551","name":"アン グエン","type":"user","offset":4,"length":6}],"can_remove":false,"created_time":"2014-01-12T19:23:55+0000","like_count":1,"user_likes":false},"795724380444241":{"id":"795724380444241","from":{"id":"1146680551","name":"優しい なぁ"},"message":"Mới lướt qua 1 số trường thì thấy có trường cần 本源 có trường không thấy ghi.vì sao vậy mọi người?","can_remove":false,"created_time":"2014-01-13T03:13:20+0000","like_count":0,"user_likes":false}},"paging":{"cursors":{"after":"Nzk0ODI3MzEzODY3Mjgx","before":"Nzk0ODI3MzEzODY3Mjgx"},"next":"https://graph.facebook.com/229244010425617_794821313867881/comments?limit=1&summary=1&after=Nzk0ODI3MzEzODY3Mjgx"},"summary":{"order":"chronological","total_count":38}}}