{"id":"229244010425617_795323453817667","type":"status","from":{"id":"100001416272263","name":"Mai PB"},"message":"Các member chú ý, có vẻ như đang có một loại virus Facebook đang tự động post nội dung \"Find who will be your Valentine in 2014\" từ hàng loạt account bị nhiễm virus này. Chắc chắn nó đã/sẽ tự động post không chỉ vào group này mà còn vào nhiều group/page khác. Mọi người check trong danh sách Facebook app của mình, xem app nào khả nghi thì remove ngay nhé.","created_time":"2014-01-12T13:04:33+0000","updated_time":"2014-01-12T13:43:36+0000","likes":{"data":{"100000100342573":{"id":"100000100342573","name":"Trang Tung Tăng"},"100001720081525":{"id":"100001720081525","name":"Diện Kun"},"100000603915176":{"id":"100000603915176","name":"悪いな ぁ"},"100005903373573":{"id":"100005903373573","name":"HaLinh Phong Phan"},"100001754136107":{"id":"100001754136107","name":"Nguyễn Tuấn Vũ"},"569263718":{"id":"569263718","name":"Phuong Thao Tran"},"100000500260636":{"id":"100000500260636","name":"Lưu Nguyễn Thảo Tiên"},"100003655265575":{"id":"100003655265575","name":"Hường Hà"},"1590581003":{"id":"1590581003","name":"Yuu Akita"},"1813611352":{"id":"1813611352","name":"To Đùng"},"100002327743510":{"id":"100002327743510","name":"Tuan Thanh"},"100001526631937":{"id":"100001526631937","name":"Tường Oanh Mineko"},"100003250657085":{"id":"100003250657085","name":"Nhất Kiếm Vô Tình"},"100003762427351":{"id":"100003762427351","name":"Hiroshi Yasu Oki"},"100001652873176":{"id":"100001652873176","name":"Lan Huong"},"100003957878204":{"id":"100003957878204","name":"Ma Kết"},"1783190483":{"id":"1783190483","name":"Trần Xuân Hiệp"},"100000045271667":{"id":"100000045271667","name":"Nam Thai Nguyen"},"100003913383051":{"id":"100003913383051","name":"Tho Tran"},"100003094158721":{"id":"100003094158721","name":"Hikari Truong"}},"paging":{"cursors":{"after":"MTAwMDAwMTAwMzQyNTcz","before":"MTAwMDAwMTAwMzQyNTcz"},"next":"https://graph.facebook.com/229244010425617_795323453817667/likes?limit=1&summary=1&after=MTAwMDAwMTAwMzQyNTcz"},"summary":{"total_count":21}},"comments":{"data":{"795325050484174":{"id":"795325050484174","from":{"id":"1783190483","name":"Trần Xuân Hiệp"},"message":"Không biết nên ghét hay nên phục thằng tạo ra app này nữa. Nó lan truyền quá khủng khiếp. Các admin trong group mình xử lý nhanh, chứ các group khác nó lan đầy rồi :3","can_remove":false,"created_time":"2014-01-12T13:08:29+0000","like_count":0,"user_likes":false},"795340153815997":{"id":"795340153815997","from":{"id":"100004528380474","name":"Bunny Chan"},"message":"mình cũng không nghĩ nó nguy hiển thế","can_remove":false,"created_time":"2014-01-12T13:37:29+0000","like_count":0,"user_likes":false},"795340480482631":{"id":"795340480482631","from":{"id":"100001416272263","name":"Mai PB"},"message":"Chính account của bạn đã bị nhiễm đó Bunny Chan. Suýt nữa mình đã ban account của bạn.","message_tags":[{"id":"100004528380474","name":"Bunny Chan","type":"user","offset":37,"length":10}],"can_remove":false,"created_time":"2014-01-12T13:38:18+0000","like_count":0,"user_likes":false},"795343147149031":{"id":"795343147149031","from":{"id":"100004528380474","name":"Bunny Chan"},"message":"vâng ạ, giờ thì chỉ biêts xóa hết bái đanrg đấy trong  các  thôi à,hihi","can_remove":false,"created_time":"2014-01-12T13:43:36+0000","like_count":0,"user_likes":false}},"paging":{"cursors":{"after":"Nzk1MzI1MDUwNDg0MTc0","before":"Nzk1MzI1MDUwNDg0MTc0"},"next":"https://graph.facebook.com/229244010425617_795323453817667/comments?limit=1&summary=1&after=Nzk1MzI1MDUwNDg0MTc0"},"summary":{"order":"chronological","total_count":4}}}