{"id":"229244010425617_795422653807747","type":"status","from":{"id":"1146680551","name":"優しい なぁ"},"message":"Gần đây trong group có khá nhiều bạn cùng chung một câu hỏi: \" Có ai đi từ Trung Tâm/Cty du học gì đó k? \" Có ai ở vùng đó không? Mình hỏi xíu chuyện?!\"\n\nThì những câu hỏi như vậy thì chắc rằng các bạn đang gặp những thắc mắc khi đang làm hồ sơ đê đi du học đúng không nào?\n\n Mình muốn mọi người nêu ra những cái gì cho đáng, đừng đưa ra những gì mà mọi người đã từng hỏi. Làm như vậy vừa loạn group, loãng chủ đề mà bản thân những người trả lời cũng chán vì thi thoảng lại có 1 bài như vậy đưa lên.\n\nĐể có người trả lời thì các câu hỏi của bạn cần mục đích,cũng như rõ ràng hơn về nội dung.\n\nVậy nên mình xin chia sẻ 1 chút về các câu hỏi trên nhé.\n\n1/ \"Có ai đi từ Trung Tâm/Công ty Du Học đó ko?\" Thì hầu hết mục đích là để hỏi xem về chuyện tiền bạc,tiền làm hồ sơ...v.v các loại tiền .Hoặc Trường đó có tốt k.vv...\n\nCách giải quyết: Bạn lên thẳng Trung Tâm/ công ty Du học xin danh sách các bạn đã qua Nhật từ công ty đó trong thời gian gần nhất.\n\nVì nếu công ty uy tín: Họ sẽ nắm rõ được là học sinh minh đi vào trường tiếng nào bên nhật,khu vực nào bên nhật. Không có kiểu đem con bỏ chợ.Vì thế khi bạn xin bản danh sách đó bạn có thể tự chủ động thu thập thông tin một cách dễ dàng và chính xác.\n\nCòn TT/Cty viện cớ này cớ kia mà không cho bạn danh sách đó thì Xin cam đoan đó TT/Cty đó vớ vẩn.\n\nMột cách dễ dàng và tiện lợi để thu thập thông tin thay vì lên mạng như mò kim đáy bể đúng không nào ^_^\n\n2/ Về câu hỏi \" Có ai ở vùng đó ,khu đó cho làm quen/hỏi thăm chút\"\n\nThì nếu làm được bước 1, bạn sẽ biết chính xác bạn đi vùng nào,trương tiếng nào và có các sempai nào.Vậy thì tha hồ mà hỏi.\nÀ đến đây sẽ có thêm là :\"Em muốn đi vùng nào, Cty/TT sẽ cho em đi vùng đó\" \n\nCâu hỏi này cứ như thách đố người ta vậy, vì mấy ai hình dung được đâu?! cuộc sống hiện thực với trên phim ảnh nó khác xa .\n\nVậy khi ấy thì phải làm sao? Khi ấy lại quay lại bước 1. Xem trong danh sách ấy bạn nào đi vùng nào phù hợp với mình thì hỏi ngay người ấy cho nó gọn.còn chuyện phù hợp hay k phù hợp hãy đừng hình dung đâu cho xa xôi.Hãy hình dung Hà Nội/Sài gòn với các tỉnh lân cận .\n\nMình nói đến đây chỉ mong các bạn hãy chủ động trong việc nắm bắt thông tin.\n\nAnh Nguyễn\nCộng Đồng Việt Nhật","created_time":"2014-01-12T16:11:53+0000","updated_time":"2014-01-12T17:33:00+0000","likes":{"data":{"100004056940241":{"id":"100004056940241","name":"Que Phuong"},"100002408320273":{"id":"100002408320273","name":"Dương Công Hậu"},"100003158558639":{"id":"100003158558639","name":"Lời Nói Gió Bay"},"100006520210904":{"id":"100006520210904","name":"Miu Miu"},"100004253979918":{"id":"100004253979918","name":"Louis Hoàng Văn Thái"},"100000381394367":{"id":"100000381394367","name":"Thành Nguyễn"},"100000508720532":{"id":"100000508720532","name":"Ha Lanphi"},"100000500260636":{"id":"100000500260636","name":"Lưu Nguyễn Thảo Tiên"},"100003913383051":{"id":"100003913383051","name":"Tho Tran"},"100003822434250":{"id":"100003822434250","name":"Sói Đây Gà Đâu"},"1813611352":{"id":"1813611352","name":"To Đùng"},"100002594112476":{"id":"100002594112476","name":"Thiên Di"},"1103173052":{"id":"1103173052","name":"Uyên Nguyễn"},"100001458099624":{"id":"100001458099624","name":"Kham Pha"},"100001057467030":{"id":"100001057467030","name":"Buông Tay"},"100001338846010":{"id":"100001338846010","name":"Sơn Nguyễn Minh"},"100000603915176":{"id":"100000603915176","name":"悪いな ぁ"},"100007272394237":{"id":"100007272394237","name":"Ivy Nguyen"},"100007092404592":{"id":"100007092404592","name":"Ran Chan"},"100006473304502":{"id":"100006473304502","name":"Nguyễn Thắng"},"1148962646":{"id":"1148962646","name":"Tran Thi Tuong Van"},"100001526631937":{"id":"100001526631937","name":"Tường Oanh Mineko"},"569263718":{"id":"569263718","name":"Phuong Thao Tran"},"100001416272263":{"id":"100001416272263","name":"Mai PB"},"100003878977188":{"id":"100003878977188","name":"Minh Canh"},"100005024348771":{"id":"100005024348771","name":"Long Hoàng"},"100001754136107":{"id":"100001754136107","name":"Nguyễn Tuấn Vũ"},"1783190483":{"id":"1783190483","name":"Trần Xuân Hiệp"},"100000045271667":{"id":"100000045271667","name":"Nam Thai Nguyen"}},"paging":{"cursors":{"after":"MTAwMDA0MDU2OTQwMjQx","before":"MTAwMDA0MDU2OTQwMjQx"},"next":"https://graph.facebook.com/229244010425617_795422653807747/likes?limit=1&summary=1&after=MTAwMDA0MDU2OTQwMjQx"},"summary":{"total_count":30}},"comments":{"data":{"795424103807602":{"id":"795424103807602","from":{"id":"100000045271667","name":"Nam Thai Nguyen"},"message":"Nhật không viết hoa là sai chính tả thôi. Ban biên tập thông báo","can_remove":false,"created_time":"2014-01-12T16:15:02+0000","like_count":4,"user_likes":false},"795428097140536":{"id":"795428097140536","from":{"id":"569263718","name":"Phuong Thao Tran"},"message":"Anh Nguyễn giãn cách ra tí cho dễ đọc đi, nhìn toàn chữ, rối cả mắt...","message_tags":[{"id":"1146680551","name":"Anh Nguyễn","type":"user","offset":0,"length":10}],"can_remove":false,"created_time":"2014-01-12T16:21:50+0000","like_count":1,"user_likes":false},"795429267140419":{"id":"795429267140419","from":{"id":"1146680551","name":"優しい なぁ"},"message":"Vâng chờ e nạp năng lượng tí đã :v","can_remove":false,"created_time":"2014-01-12T16:24:34+0000","like_count":0,"user_likes":false},"795429360473743":{"id":"795429360473743","from":{"id":"569263718","name":"Phuong Thao Tran"},"message":"cách các bạn đặt câu hỏi cũng thể hiện các bạn thiếu chủ động, thích ỷ lại. Âu cũng là được nuông chiều quá chăng!!","can_remove":false,"created_time":"2014-01-12T16:24:51+0000","like_count":8,"user_likes":false},"795439027139443":{"id":"795439027139443","from":{"id":"100004672236926","name":"Văn Khẩn"},"message":"Các bạn nói vậy lại hơi quá rồi!!! Thử hỏi mấy bạn ai không cần tiền??? Ai không muốn được ai đó giúp đỡ khi đi ra nơi đất khách quê người??? Và cho mình hỏi nữa là thế cái group lập ra để làm gì chứ??? Mình hơi buồn khi thấy mấy anh mấy chị đi trước mà lại nói vậy!!!!","can_remove":false,"created_time":"2014-01-12T16:43:18+0000","like_count":0,"user_likes":false},"795439450472734":{"id":"795439450472734","from":{"id":"1146680551","name":"優しい なぁ"},"message":"Được chưa Phuong Thao Tran?","message_tags":[{"id":"569263718","name":"Phuong Thao Tran","type":"user","offset":10,"length":16}],"can_remove":false,"created_time":"2014-01-12T16:43:47+0000","like_count":1,"user_likes":false},"795439937139352":{"id":"795439937139352","from":{"id":"1146680551","name":"優しい なぁ"},"message":"Văn Khẩn quá gì vậy bạn? Giúp đỡ theo bạn hiểu nó như thế nào?","can_remove":false,"created_time":"2014-01-12T16:44:27+0000","like_count":0,"user_likes":false},"795442630472416":{"id":"795442630472416","from":{"id":"1416265619","name":"Starwar Bbj"},"message":"Mình chỉ thấy thất vọng khi trên mạng đầy rẫy thông tin và vô vàn lời khuyên nhưng nhiều bạn vẫn đưa ra những câu hỏi chung chung vốn đã đc trả lời rất nhiều lần. Ad trả lời thế là để các bạn tự động não, để các bạn quen với việc tự lập từ trong suy nghĩ. Ra nước ngoài mà không tự lập đc thì các bạn sống sao?","can_remove":false,"created_time":"2014-01-12T16:50:27+0000","like_count":5,"user_likes":false},"795443567138989":{"id":"795443567138989","from":{"id":"569263718","name":"Phuong Thao Tran"},"message":"tặng bạn Văn Khẩn: http://www.youtube.com/watch?v=w3TtWA3ql7M","can_remove":false,"created_time":"2014-01-12T16:52:19+0000","like_count":1,"user_likes":false},"795443847138961":{"id":"795443847138961","from":{"id":"100004672236926","name":"Văn Khẩn"},"message":"Mình chả hiểu được cái giúp đỡ ở nhật này là như thế nào cả bạn ạ???? Vì mọi người ở nhật mình thấy giúp nhau bằng tiền thì gọi là mua bán đi cho dễ hiểu!!! Còn với mình mình vào group cũng chẳng có gì ngoài việc học hỏi những người đi trươc về tiếng nhật và cách sống ở nhật thôi!!! Còn nưa, anh đăng bài đó lên liệu những người đi sau có còn dám hỏi gì nữa không???? Nếu em bây giờ mà chưa qua nhật em vào em cũng chỉ biết hỏi vậy thôi nên xin lỗi anh nha! Em la người không đồng tình với bài viết!!! Em la người luôn nói thật!!!","can_remove":false,"created_time":"2014-01-12T16:53:04+0000","like_count":0,"user_likes":false},"795444413805571":{"id":"795444413805571","from":{"id":"569263718","name":"Phuong Thao Tran"},"message":"thế Văn Khẩn đã qua Nhật chưa?","can_remove":false,"created_time":"2014-01-12T16:54:15+0000","like_count":0,"user_likes":false},"795444940472185":{"id":"795444940472185","from":{"id":"100004672236926","name":"Văn Khẩn"},"message":"Cảm ơn bạn! Phuong Thao Tran! Mình gặp bạn sớm hơn chắc mình đã rất cảm ơn nhưng giờ thì mình đủ rồi bạn a!","can_remove":false,"created_time":"2014-01-12T16:55:32+0000","like_count":0,"user_likes":false},"795445713805441":{"id":"795445713805441","from":{"id":"1146680551","name":"優しい なぁ"},"message":"Nói thế này nhé! Cảm ơn bạn đã quan tâm tới group.Nếu có thời gian mong bạn vào group đọc bài nhiều hơn.Hẹn bạn 1 năm sau nữa nhé.Cảm ơn bạn đã cho ý kiến.Hết","can_remove":false,"created_time":"2014-01-12T16:57:27+0000","like_count":0,"user_likes":false},"795446093805403":{"id":"795446093805403","from":{"id":"100004672236926","name":"Văn Khẩn"},"message":"Mình đang ở nhật! Và cho mình hỏi là: khi mới qua đây các bạn có tự tin nói như các bạn đang viết ở trên không??? Nếu có thì mình sẽ xoá bình luận của mình ngay!!","can_remove":false,"created_time":"2014-01-12T16:58:14+0000","like_count":0,"user_likes":false},"795447450471934":{"id":"795447450471934","from":{"id":"569263718","name":"Phuong Thao Tran"},"message":"bạn Văn Khẩn, bài viết này đang chỉ cho các bạn mới cách nắm bắt thông tin, giải quyết vấn đề, không chỉ là những thông tin trong ví dụ trên thôi. Bạn có nghĩ như thế không?","can_remove":false,"created_time":"2014-01-12T17:01:22+0000","like_count":2,"user_likes":false},"795450563804956":{"id":"795450563804956","from":{"id":"100004672236926","name":"Văn Khẩn"},"message":"Mình từng nghe câu là: không nên tìm trong sách mà nên tìm người viết sách. Còn ai khi đang ngớ ngẩn để chọn con đường đi du học nước ngoài ma nghĩ được như anh bây giờ chắc em nghĩ ở Việt Nam bây giờ đang rất cần người đó! Ở nhà chắc cũng có nhiêu cơ hội đó!!!","can_remove":false,"created_time":"2014-01-12T17:08:17+0000","like_count":0,"user_likes":false},"795454247137921":{"id":"795454247137921","from":{"id":"569263718","name":"Phuong Thao Tran"},"message":"lập luận của Văn Khẩn phản lại bạn rồi đó bạn.","can_remove":false,"created_time":"2014-01-12T17:16:06+0000","like_count":2,"user_likes":false},"795455400471139":{"id":"795455400471139","from":{"id":"1146680551","name":"優しい なぁ"},"message":"Văn Khẩn Bạn đã đọc kĩ bài viết chưa vậy?","can_remove":false,"created_time":"2014-01-12T17:18:01+0000","like_count":0,"user_likes":false},"795463333803679":{"id":"795463333803679","from":{"id":"100000603915176","name":"悪いな ぁ"},"message":"Văn Khẩn có lẽ cũng đọc bài của Anh Nguyễn hết rồi nhưng mà chưa hiểu ý thôi. Đúng là lập group tạo thành 1 cộng đồng là để giúp đỡ nhau, không ai cấm hỏi, mà chính xác là ủng hộ hỏi. Có những câu hỏi và nhiều người trả lời tạo nên một thứ kinh nghiệm truyền lại cho rất nhiều người, rất tốt chứ Văn Khẩn.\n\nCó điều ý Anh Nguyễn muốn mọi người nêu ra những cái gì cho đáng, đừng đưa ra những gì mà mọi người đã từng hỏi. Làm như vậy vừa loạn group, loãng chủ đề mà bản thân những người trả lời cũng chán vì thi thoảng lại có 1 bài như vậy đưa lên.","message_tags":[{"id":"1146680551","name":"Anh Nguyễn","type":"user","offset":32,"length":10}],"can_remove":false,"created_time":"2014-01-12T17:33:00+0000","like_count":6,"user_likes":false}},"paging":{"cursors":{"after":"Nzk1NDI0MTAzODA3NjAy","before":"Nzk1NDI0MTAzODA3NjAy"},"next":"https://graph.facebook.com/229244010425617_795422653807747/comments?limit=1&summary=1&after=Nzk1NDI0MTAzODA3NjAy"},"summary":{"order":"chronological","total_count":19}}}