{"id":"229244010425617_814933675189978","type":"photo","object_id":"1460807060814628","picture":"https://fbcdn-photos-b-a.akamaihd.net/hphotos-ak-ash3/t1.0-0/12706_1460807060814628_217076233_s.jpg","link":"https://www.facebook.com/photo.php?fbid=1460807060814628&set=pcb.814933675189978&type=1&relevant_count=2","from":{"id":"100006560446378","name":"Ngoc Thu"},"message":"LÒNG TỰ HÀO DÂN TỘC\n\nCảm ơn các bạn admin đã cho phép mình đăng bài trong group về vấn đề này. Thực sự về chính trị, mình không biết gì nhiều cả. Những gì mình biết chỉ là những cái đập vào mắt, những thứ xem trên mạng, báo đài... kể cả chính thống lẫn không chính thống. \n\nNước Nhật, họ đã từng sai lầm, từng là phát xít trong Đại chiến thế giới thứ II. Nhưng cho dù thế nào, họ vẫn luôn tưởng nhớ đến những người ngã xuống, những người đã hi sinh vì đất nước cho dù đúng hay sai. Các đời Thủ tướng Nhật, họ vẫn đi thăm đền thờ Yasukuni, vẫn bất chấp mối quan hệ ngoại giao có thể xấu đi. Tại sao họ làm vậy? Tại sao họ không sợ tổn hại mối quan hệ với các nước khác? Người ta thường nói, muốn người khác tôn trọng mình, hay tự tôn trọng mình trước. Có lẽ đó cũng chính là cách mà người Nhật đang sống.\n\nNhìn lại chúng ta, chúng ta luôn tự hào nghìn năm văn hiến, luôn tự hào đánh thắng giặc đế quốc Mỹ. Nhưng chưa bao giờ, hay nói chính xác là càng ngày càng bớt nói, bớt động đến vấn đề đánh giặc Trung Quốc. Khi quá khứ đã qua đi, chúng ta không nên nhắc lại nữa, không hận thù nữa. Nhưng kỷ niệm, tôn vinh những quá khứ hào hùng, những liệt sỹ anh hùng dân tộc là đáng lắm chứ. \n\nCuộc chiến tranh biên giới năm 1979, chưa cần biết nguyên nhân sâu xa là gì? Nhưng chính xác là Trung Quốc đã đánh Việt Nam, trong lịch sử, đây không phải là lần đầu. Ấy vậy mà sách lịch sử cùng lắm là chỉ nói đến thời kỳ Nguyễn Huệ đánh quân Thanh, hay lác đác như thời Bà Trưng, Bà Triệu... Lịch sử cận đại như cuộc chiến năm 1979 đã gần như bị lờ đi. Tại sao vậy? Chúng ta đã tổn thất như thế nào? Bao nhiêu người dân vô tội bị sát hại dã man, bao nhiêu chiến sĩ đã ngã xuống. Họ đáng được tôn vinh, được tưởng niệm lắm chứ? Vậy tượng đài năm xưa bây giờ ra sao, báo chí trong nước nói gì hay chỉ là sự im lặng. \n\nSắp đến ngày 17/2, ngày kỷ niệm chiến tranh biên giới giữa Việt Nam và Trung Quốc năm 1979. Hình ảnh dưới đây của Báo Nhân Dân là tin về chiến thắng quân Trung Quốc xâm lược.\n\nCó một điều nực cười là đến giờ này, không một báo nào đăng tin. Không một kỷ niệm, không một lời nói. Giới truyền thông im re. Có tin nói rằng chiều 30/12/2013, báo Thanh Niên điện tử đã xuất hiện bản tin về việc “Sẽ kỷ niệm sự kiện 40 năm Hoàng Sa và chiến tranh bảo vệ biên giới phía Bắc”.\n\nBản tin này sau đó đã bị gỡ bỏ sau đó chỉ vài giờ đồng hồ. Tuy nhiên nội dung của nó đã được nhiều website đăng tải lại. \n\nCó đáng buồn chăng? Cả bia tưởng niệm nữa, nó ở Việt Nam chứ chắc chẳng phải ở Trung Quốc, ai đã đập nó vậy?\n\nMình xin phép lấy lại hình ảnh tờ Báo Nhân dân của một bạn trong group đưa lên vì hình của mình không được rõ ràng. Cảm ơn bạn!\n\nCảm ơn bạn Kham Pha, Mai PB, Thanh Nguyen đã nhắc nhở, lần sau mình sẽ chú ý kỹ trước khi viết bài. Và rất mong các bạn admin đã vì trẻ em mà làm bánh từ thiện thì hãy vì những anh hùng đã ngã xuống. Bằng cách này hay cách khác, ví dụ treo banner kỷ niệm :) Chỉ là cách nghĩ của cá nhân mình, mong các bạn ủng hộ!","created_time":"2014-02-12T10:06:55+0000","updated_time":"2014-04-12T15:47:27+0000","likes":{"data":{"100001189795272":{"id":"100001189795272","name":"Xuân Dũng Vũ"},"100003762427351":{"id":"100003762427351","name":"Hiroshi Yasu Oki"},"100005882954389":{"id":"100005882954389","name":"Thu Hằng Nguyễn"},"100006879393527":{"id":"100006879393527","name":"Nam Đinh"},"100006288731124":{"id":"100006288731124","name":"Yutaka Harada"},"100001697437502":{"id":"100001697437502","name":"Huu Long Nguyen"},"1629517470":{"id":"1629517470","name":"Nguyen Thi Thanh Van"},"1816269439":{"id":"1816269439","name":"Dao Ngoc"},"100003607925265":{"id":"100003607925265","name":"Thu Hằng"},"100003933466469":{"id":"100003933466469","name":"Phong Aki"},"100003074159139":{"id":"100003074159139","name":"Vô Vọng"},"1223217351":{"id":"1223217351","name":"Lê Minh Quân"},"569263718":{"id":"569263718","name":"Phuong Thao Tran"},"100007368129232":{"id":"100007368129232","name":"Không Quan Tâm"},"100005011088753":{"id":"100005011088753","name":"Tĩnh Trịnh"},"1146680551":{"id":"1146680551","name":"優しい なぁ"},"100001400093122":{"id":"100001400093122","name":"Tu Doan"},"100005801442456":{"id":"100005801442456","name":"An Nguyen"},"100003534256343":{"id":"100003534256343","name":"Giang Mai Trang"},"100000660375795":{"id":"100000660375795","name":"Wanbi Tuấn Hưng"},"100002230230544":{"id":"100002230230544","name":"Nakamura Minako"},"100006764078908":{"id":"100006764078908","name":"Cường Đoàn"},"100000603915176":{"id":"100000603915176","name":"悪いな ぁ"},"100005186557734":{"id":"100005186557734","name":"Tran Tien Dung"},"100001458099624":{"id":"100001458099624","name":"Kham Pha"},"100001416272263":{"id":"100001416272263","name":"Mai PB"}},"paging":{"cursors":{"after":"MTAwMDAxMTg5Nzk1Mjcy","before":"MTAwMDAxMTg5Nzk1Mjcy"},"next":"https://graph.facebook.com/229244010425617_814933675189978/likes?limit=1&summary=1&after=MTAwMDAxMTg5Nzk1Mjcy"},"summary":{"total_count":26}},"comments":{"data":{"814934178523261":{"id":"814934178523261","from":{"id":"100001416272263","name":"Mai PB"},"message":"Bài hay lắm. Giá mà bạn edit post cũ bằng bài này thì đỡ phí comment cũ.","can_remove":false,"created_time":"2014-02-12T10:09:16+0000","like_count":1,"user_likes":false},"814934845189861":{"id":"814934845189861","from":{"id":"100006560446378","name":"Ngoc Thu"},"message":"Cảm ơn bạn nhiều!","can_remove":false,"created_time":"2014-02-12T10:12:10+0000","like_count":0,"user_likes":false},"814938991856113":{"id":"814938991856113","from":{"id":"100000603915176","name":"悪いな ぁ"},"message":"Bia đập khéo ghê :3","can_remove":false,"created_time":"2014-02-12T10:20:37+0000","like_count":1,"user_likes":false},"814945188522160":{"id":"814945188522160","from":{"id":"100005801442456","name":"An Nguyen"},"message":"Mượn hình nhé :)","can_remove":false,"created_time":"2014-02-12T10:34:26+0000","like_count":0,"user_likes":false},"814946505188695":{"id":"814946505188695","from":{"id":"569263718","name":"Phuong Thao Tran"},"message":"bạn ơi, bài này nếu có nguồn thì trích giùm bạn nhé!","can_remove":false,"created_time":"2014-02-12T10:37:25+0000","like_count":1,"user_likes":false},"814948648521814":{"id":"814948648521814","from":{"id":"1146680551","name":"優しい なぁ"},"message":"Dự là sẽ có khá nhiều bạn 9x à ồ vì thông tin này :)","can_remove":false,"created_time":"2014-02-12T10:44:06+0000","like_count":0,"user_likes":false},"814953461854666":{"id":"814953461854666","from":{"id":"100006560446378","name":"Ngoc Thu"},"message":"Dạ, nó ở cầu Khánh Khê (Lạng Sơn). Còn 1 tấm bia nguyên vẹn này nữa, nó ở thôn Tổng Chúp (xã Hưng Đạo, huyện Hòa An, Cao Bằng). \n\nBạn Phuong Thao Tran ơi, mình tự viết bài này thì làm sao biết lấy nguồn ở đâu? Còn những tấm ảnh thì không thể rõ chủ nhân là của ai, nhưng bạn có thể tìm thấy rất nhiều trên mạng.","can_remove":false,"created_time":"2014-02-12T10:56:47+0000","like_count":4,"user_likes":false},"814955005187845":{"id":"814955005187845","from":{"id":"569263718","name":"Phuong Thao Tran"},"message":"xin lỗi bạn nhé, do năm ngoái hay năm kia gì đó mình có đọc được nội dung về vấn đề này, vậy là có những tư tưởng lớn gặp nhau rồi, gomen ne, m( _ _)m","can_remove":false,"created_time":"2014-02-12T11:01:01+0000","like_count":1,"user_likes":false},"814956665187679":{"id":"814956665187679","from":{"id":"100000603915176","name":"悪いな ぁ"},"message":"Mấy bài viết về vấn đề này thì nhiều mà!","can_remove":false,"created_time":"2014-02-12T11:06:19+0000","like_count":0,"user_likes":false},"814964891853523":{"id":"814964891853523","from":{"id":"100006560446378","name":"Ngoc Thu"},"message":":p","can_remove":false,"created_time":"2014-02-12T11:29:56+0000","like_count":0,"user_likes":false},"814967378519941":{"id":"814967378519941","from":{"id":"1146680551","name":"優しい なぁ"},"message":"Ngoc Thu Do bạn làm nhà báo hay sao mà viết hay vại :)","message_tags":[{"id":"100006560446378","name":"Ngoc Thu Do","type":"user","offset":0,"length":11}],"can_remove":false,"created_time":"2014-02-12T11:37:04+0000","like_count":1,"user_likes":false},"814968301853182":{"id":"814968301853182","from":{"id":"100000603915176","name":"悪いな ぁ"},"message":"Đọc nhiều thì sẽ biết, đọc rồi nghĩ sẽ thành hiểu biết, tổng kết lại rồi viết ra khi đó bạn sẽ có được ý thức rõ ràng. Nhận sự phản hồi từ người đọc, tranh luận, bạn sẽ có thêm kinh nghiệm. Từ đó hiểu biết sẽ sâu sắc hơn... Từ đó bạn sẽ có tư tưởng riêng cho bản thân mình về một vấn đề. Rất mong được đọc những bài như thế này từ bạn và cả các bạn khác nữa.","can_remove":false,"created_time":"2014-02-12T11:39:51+0000","like_count":2,"user_likes":false},"814978655185480":{"id":"814978655185480","from":{"id":"1146680551","name":"優しい なぁ"},"message":"http://www.youtube.com/watch?v=FnROkSb1rFs","can_remove":false,"created_time":"2014-02-12T12:07:58+0000","like_count":0,"user_likes":false},"814982445185101":{"id":"814982445185101","from":{"id":"100001416272263","name":"Mai PB"},"message":"Mọi người tra thông tin về cuộc chiến ngắn ngủi này sẽ rùng mình về mức độ dã man mất nhân tính của lính Trung Quốc khi tàn sát dân thường VN, đa phần là trẻ con phụ nữ. Và giết hại thương binh hàng binh. Dù là chiến tranh, không một luật lệ nào của thế giới hiện đại cho phép những điều man rợ đó xả ra. Hãy xem thế giới lên án thảm sát Mỹ Lai của quân Mỹ ra sao, tòa án quân sự Mỹ xử vụ này thế nào, để thấy tại sao tội ác của Trung Quốc bị bỏ qua như thế nào. Không bao giờ được quên những sinh mạng vô tội đó, trước khi nói đến các liệt sĩ trong bài viết của bạn Ngoc Thu Do.","can_remove":false,"created_time":"2014-02-12T12:18:11+0000","like_count":4,"user_likes":false},"815014508515228":{"id":"815014508515228","from":{"id":"1146680551","name":"優しい なぁ"},"message":"http://laodong.com.vn/chinh-tri/ve-cuoc-chien-tranh-bien-gioi-viettrung-thang-21979-can-duoc-xem-nhu-chien-thang-chong-ngoai-xam-179402.bld","can_remove":false,"created_time":"2014-02-12T13:34:47+0000","like_count":0,"user_likes":false},"850266074990071":{"id":"850266074990071","from":{"id":"100001416272263","name":"Mai PB"},"message":"Hôm nọ ai kêu bài này bị xóa rồi, thì nó vẫn còn đây nhé","can_remove":false,"created_time":"2014-04-12T15:45:56+0000","like_count":0,"user_likes":false},"850266748323337":{"id":"850266748323337","from":{"id":"100000603915176","name":"悪いな ぁ"},"message":"Có ai kêu bài này bị xoá đâu ạ, bài khác?","can_remove":false,"created_time":"2014-04-12T15:47:27+0000","like_count":0,"user_likes":false}},"paging":{"cursors":{"after":"ODE0OTM0MTc4NTIzMjYx","before":"ODE0OTM0MTc4NTIzMjYx"},"next":"https://graph.facebook.com/229244010425617_814933675189978/comments?limit=1&summary=1&after=ODE0OTM0MTc4NTIzMjYx"},"summary":{"order":"chronological","total_count":17}}}