{"id":"229244010425617_826628744020471","type":"status","from":{"id":"100001128589118","name":"Giang Manh"},"message":"*Mới*  Nếu bạn muốn biết về chủ đề nào đó trong cộng đồng Việt Nhật nhưng ngại hỏi, nếu bạn muốn đọc riêng các bài viết của một thành viên, \nnếu bạn muốn tìm lại một thông tin nào đó… \nTất cả có thể tìm với nhiều chức năng chọn lọc ở: http://f.vysajp.org/search.php\nNgoài ra để đọc lại các bài viết hay tìm hiểu về Nhật Bản, thông tin sẽ có tại: http://f.vysajp.org","created_time":"2014-03-04T01:27:33+0000","updated_time":"2014-04-05T05:16:41+0000","likes":{"data":{"100002205448646":{"id":"100002205448646","name":"Dung Tri"},"100001997876607":{"id":"100001997876607","name":"Phằn Xong Lứa"},"100000045271667":{"id":"100000045271667","name":"Nam Thai Nguyen"},"100001526631937":{"id":"100001526631937","name":"Tường Oanh Mineko"},"1809939388":{"id":"1809939388","name":"Nguyễn Thạc Huy"},"100002508122689":{"id":"100002508122689","name":"Vũ Mạnh Tuấn"},"100000903819210":{"id":"100000903819210","name":"Huong Quach"},"1273712520":{"id":"1273712520","name":"Le Minh Ngoc"},"1146680551":{"id":"1146680551","name":"優しい なぁ"},"1000015524":{"id":"1000015524","name":"Hong Vo"},"1837866264":{"id":"1837866264","name":"QuynhDo Anh"},"100002144324087":{"id":"100002144324087","name":"Yuki Hana"},"1550521697":{"id":"1550521697","name":"Trình Nguyễn"},"706746330":{"id":"706746330","name":"Nguyen Binh Khiem"},"100002137253818":{"id":"100002137253818","name":"Anh Khoa"},"1554283228":{"id":"1554283228","name":"Hang Lm"},"100007857724917":{"id":"100007857724917","name":"Harry Pham"},"100003898875729":{"id":"100003898875729","name":"Hai Nguyen"},"100000747635624":{"id":"100000747635624","name":"Nguyễn Xuân Đại"},"569263718":{"id":"569263718","name":"Phuong Thao Tran"},"100001416272263":{"id":"100001416272263","name":"Mai PB"},"100005801442456":{"id":"100005801442456","name":"An Nguyen"},"100006258697314":{"id":"100006258697314","name":"Thanh Thanh"}},"paging":{"cursors":{"after":"MTAwMDAyMjA1NDQ4NjQ2","before":"MTAwMDAyMjA1NDQ4NjQ2"},"next":"https://graph.facebook.com/229244010425617_826628744020471/likes?limit=1&summary=1&after=MTAwMDAyMjA1NDQ4NjQ2"},"summary":{"total_count":23}},"comments":{"data":{"826631717353507":{"id":"826631717353507","from":{"id":"100001416272263","name":"Mai PB"},"message":"Quên chưa giới thiệu với các member của Cộng Đồng Việt Nhật (CĐVN). CĐVN đã quyết định cung cấp thông tin của Facebook group này như là một trong các nguồn thông tin dùng cho trang web tìm kiếm trên, do hội VYSA xây dựng.\nTất cả vì sự tiện lợi của cộng đồng người Việt có quan tâm đến Nhật Bản.","can_remove":false,"created_time":"2014-03-04T01:37:24+0000","like_count":5,"user_likes":false},"826633470686665":{"id":"826633470686665","from":{"id":"100001416272263","name":"Mai PB"},"message":"Mình đề nghị trang tìm kiếm trên thông báo mấy dòng trên đó là đã được sự cộng tác đồng ý cung cấp thông tin của các nguồn thông tin dưới đây... để khỏi có sự nhầm lẫn là tự ý lấy thông tin, và cũng để ghi nhận sự hợp tác này.","can_remove":false,"created_time":"2014-03-04T01:41:33+0000","like_count":2,"user_likes":false},"826636564019689":{"id":"826636564019689","from":{"id":"100001458099624","name":"Kham Pha"},"message":"Theo thống nhất từ hôm nọ có thông báo qua chị Dao Ngoc là bên CĐVN đồng ý cung cấp dữ liệu cho bên VYSA vì lợi ích lớn nhất của cộng đồng người Việt tại Nhật nhưng với điều kiện là mỗi bài viết cần thêm trích dẫn nguồn. Hôm nọ có lẽ do chưa thống nhất cách ghi nguồn thì bây giờ chúng ta quyết định trình bày như sau:\n\nDữ liệu cung cấp bởi Cộng đồng Việt Nhật \nlink group...\n\nHi vọng bên VYSA sẽ sửa lại trong thời gian sớm nhất :)","message_tags":[{"id":"1816269439","name":"Dao Ngoc","type":"user","offset":47,"length":8}],"can_remove":false,"created_time":"2014-03-04T01:49:53+0000","like_count":2,"user_likes":false},"826637094019636":{"id":"826637094019636","from":{"id":"100001416272263","name":"Mai PB"},"message":"Kham Pha không chỉ cộng đồng người Việt tại Nhật nhé. :-)","message_tags":[{"id":"100001458099624","name":"Kham Pha","type":"user","offset":0,"length":8}],"can_remove":false,"created_time":"2014-03-04T01:51:22+0000","like_count":2,"user_likes":false},"826638747352804":{"id":"826638747352804","from":{"id":"100001128589118","name":"Giang Manh"},"message":"Kham Pha Sai sót vì mới chỉ để link trên trang chủ. Vysa sẽ sớm khắc phục. Rất xin lỗi vì vấn đề này.","message_tags":[{"id":"100001458099624","name":"Kham Pha","type":"user","offset":0,"length":8}],"can_remove":false,"created_time":"2014-03-04T01:56:27+0000","like_count":1,"user_likes":false},"826713127345366":{"id":"826713127345366","from":{"id":"100001128589118","name":"Giang Manh"},"message":"Em đã cập nhật, ko biết thế này ổn không ạ? Mai PB  Kham Pha","message_tags":[{"id":"100001416272263","name":"Mai PB","type":"user","offset":44,"length":6},{"id":"100001458099624","name":"Kham Pha","type":"user","offset":52,"length":8}],"can_remove":false,"created_time":"2014-03-04T05:00:40+0000","like_count":2,"user_likes":false},"826713957345283":{"id":"826713957345283","from":{"id":"100001458099624","name":"Kham Pha"},"message":"thế này cũng tốt nhưng ý em là mỗi một thread thì bài đầu tiên của nó cần được ghi thêm dòng trích dẫn như trên ở dòng dưới cùng của bài đó.","can_remove":false,"created_time":"2014-03-04T05:03:20+0000","like_count":0,"user_likes":false},"826715577345121":{"id":"826715577345121","from":{"id":"100001128589118","name":"Giang Manh"},"message":"Cái này thì khó..","can_remove":false,"created_time":"2014-03-04T05:08:14+0000","like_count":0,"user_likes":false},"826731850676827":{"id":"826731850676827","from":{"id":"100001458099624","name":"Kham Pha"},"message":"em nghĩ là duyệt các post rồi thêm phần text đó vào cuối của mỗi post thì đâu có gì khó?","can_remove":false,"created_time":"2014-03-04T06:00:22+0000","like_count":0,"user_likes":false},"833469323336413":{"id":"833469323336413","from":{"id":"100001416272263","name":"Mai PB"},"message":"Giang Manh hình như kết nối từ trang đó với group này đang bị ngắt?","message_tags":[{"id":"100001128589118","name":"Giang Manh","type":"user","offset":0,"length":10}],"can_remove":false,"created_time":"2014-03-15T06:03:39+0000","like_count":0,"user_likes":false},"833484516668227":{"id":"833484516668227","from":{"id":"100006560446378","name":"Ngoc Thu"},"message":"Có vẻ sự hợp tác này admin thông qua cho Vysa thôi, còn việc các bạn đã từng viết bài trong group các admin đã hỏi ý kiến chưa? Biết đâu họ không muốn điều đó, họ chỉ muốn chia sẻ tại đây thì sao?","can_remove":false,"created_time":"2014-03-15T07:07:31+0000","like_count":2,"user_likes":false},"833491506667528":{"id":"833491506667528","from":{"id":"100001416272263","name":"Mai PB"},"message":":-) chỉ là search thôi mà Ngoc Thu, bài không bị chuyển đi đâu cả, và cũng được ghi rõ là của Cộng Đồng Việt Nhật. Nếu nói là thông tin của ai, thì rõ nhất là của Facebook, vì ai cũng có thể xem nếu có id của Facebook. Ở đây chúng ta chỉ nói đến sự cho phép một cách lịch sự thôi, chứ nếu có trang web nào tự tiện lấy thông tin thì chúng ta cũng không ngăn cấm được.","message_tags":[{"id":"100006560446378","name":"Ngoc Thu","type":"user","offset":26,"length":8}],"can_remove":false,"created_time":"2014-03-15T07:31:23+0000","like_count":1,"user_likes":false},"833495676667111":{"id":"833495676667111","from":{"id":"100006560446378","name":"Ngoc Thu"},"message":"Dạ, ý em là thế này. Có người vào group và thích môi trường ở đây, thích mọi người ở đây nên họ muốn chia sẻ đóng góp một cách miễn phí cho group. Nhưng khi bài viết được lan rộng ra ngoài group, qua một công cụ search của một trang nào đó liệu nó có còn là thứ được cho free hay nó trở thành đồ để người khác kinh doanh. Ví dụ vysa có quảng cáo trên website, ví dụ vysa có xuất bản thành tài liệu để bán. Em chỉ nói là ví dụ thôi. Lúc đó vô tình những người viết bài sẽ trở thành công cụ. Và cuối cùng quan trọng nhất là sự tôn trọng của admin với từng người viết bài ở đây. Em mong là admin sẽ hỏi ý kiến tất cả, đến từng người đã và sẽ viết ở đây :)","can_remove":false,"created_time":"2014-03-15T07:43:51+0000","like_count":7,"user_likes":false},"833506306666048":{"id":"833506306666048","from":{"id":"100001416272263","name":"Mai PB"},"message":"Đây em, Ngoc Thu.\nhttps://www.facebook.com/groups/CongdongVietNhat/permalink/833506066666072/?stream_ref=2","message_tags":[{"id":"100006560446378","name":"Ngoc Thu","type":"user","offset":8,"length":8}],"can_remove":false,"created_time":"2014-03-15T08:30:19+0000","like_count":1,"user_likes":false},"833523826664296":{"id":"833523826664296","from":{"id":"100001128589118","name":"Giang Manh"},"message":"Gửi bác Mai PB Hiện tại em đặt trang tìm kiếm chỉ cập nhật 1 ngày 2 lần ạ, nên luôn có độ trễ nhất định so với thông tin trên group. Ngoc Thu  trang tìm kiếm nằm trong diễn đàn với mục tiêu là cung cấp thông tin về Nhật Bản. Tất nhiên VYSA có quảng cáo nhưng nằm trên trang chủ. Diễn đàn không có quảng cáo. Trong trường hợp như bạn phân tích, nếu có lợi nhuận từ nội dung trên group thì chắc chắn VYSA sẽ có chia sẻ lợi nhuận với các bên có nguồn nội dung.","message_tags":[{"id":"100001416272263","name":"Mai PB","type":"user","offset":8,"length":6},{"id":"100006560446378","name":"Ngoc Thu","type":"user","offset":133,"length":8}],"can_remove":false,"created_time":"2014-03-15T09:41:19+0000","like_count":1,"user_likes":false},"833525543330791":{"id":"833525543330791","from":{"id":"100001416272263","name":"Mai PB"},"message":"Giang Manh anh thấy thông báo kết nối bị ngắt chỉ với mỗi group này nên không hiểu thế nào. OK. :-)","message_tags":[{"id":"100001128589118","name":"Giang Manh","type":"user","offset":0,"length":10}],"can_remove":false,"created_time":"2014-03-15T09:46:51+0000","like_count":0,"user_likes":false},"834135643269781":{"id":"834135643269781","from":{"id":"100001416272263","name":"Mai PB"},"message":"Giang Manh giá mà từ kết quả search có thể link trực tiếp vào bài trên FB thì hay.","message_tags":[{"id":"100001128589118","name":"Giang Manh","type":"user","offset":0,"length":10}],"can_remove":false,"created_time":"2014-03-16T12:55:39+0000","like_count":2,"user_likes":false},"841607135855965":{"id":"841607135855965","from":{"id":"100001997876607","name":"Phằn Xong Lứa"},"message":"cám ơn các huynh nhé. thực sự là thành viên cũng đã lâu nhưng hnay mới biết cái mục này. rất hữu ích cho những người chuẩn bị sang học như em .","can_remove":false,"created_time":"2014-03-29T12:25:56+0000","like_count":0,"user_likes":false},"845722435444435":{"id":"845722435444435","from":{"id":"100004299274310","name":"Jenny Sakura"},"message":"Sao e muốn tìm 1 bài viết nào đó mà ko tìm đc ạ","can_remove":false,"created_time":"2014-04-05T04:06:27+0000","like_count":0,"user_likes":false},"845737488776263":{"id":"845737488776263","from":{"id":"569263718","name":"Phuong Thao Tran"},"message":"Jenny Sakura  group không có bài nào có tựa là \"bài viết nào đó\" cả, nên bạn tìn không ra là phải rồi, bạn cho cái tựa khác rồi tìm thử xem, chúc bạn may mắn!","message_tags":[{"id":"100004299274310","name":"Jenny Sakura","type":"user","offset":0,"length":12}],"can_remove":false,"created_time":"2014-04-05T04:51:27+0000","like_count":0,"user_likes":false},"845740172109328":{"id":"845740172109328","from":{"id":"100005801442456","name":"An Nguyen"},"message":"Em ấy đang tìm mấy bài về lawson. E đang bận chị chỉ dùm e nhé","can_remove":false,"created_time":"2014-04-05T05:02:41+0000","like_count":1,"user_likes":false},"845741538775858":{"id":"845741538775858","from":{"id":"100004299274310","name":"Jenny Sakura"},"message":"E tìm mục arubaito rùi, gõ tìm コンビニ nhưng ko đc chị Phuong Thao Tran à","can_remove":false,"created_time":"2014-04-05T05:06:46+0000","like_count":0,"user_likes":false},"845743762108969":{"id":"845743762108969","from":{"id":"100001128589118","name":"Giang Manh"},"message":"Chọn mục CĐVN bạn nhé","can_remove":false,"created_time":"2014-04-05T05:16:41+0000","like_count":1,"user_likes":false}},"paging":{"cursors":{"after":"ODI2NjMxNzE3MzUzNTA3","before":"ODI2NjMxNzE3MzUzNTA3"},"next":"https://graph.facebook.com/229244010425617_826628744020471/comments?limit=1&summary=1&after=ODI2NjMxNzE3MzUzNTA3"},"summary":{"order":"chronological","total_count":23}}}