{"id":"229244010425617_826931130656899","type":"status","from":{"id":"100007468213697","name":"Minh Cảnh"},"message":"Ngày trước mới học tiếng nhật thầy giáo cứ đọc đến ですねえええ。。。\nHay sô đà nê.....hay cứ nhắc đến nê.. Hay yo'...\nBọn bạn ở dưới nó cứ bảo nghe như thằng bờ đờ ý...\nBây h sống tại nhật ngày ngày sử dụng nó trong cuộc sống .nghĩ lại cái thời nhất quỷ nhì ma......thứ 3....lại buồn cười....\nHọc tiếng nhật,tiếng anh hay bất cứ 1 loại ngôn ngữ nào khác....\nTuy năng lực và năng khiếu của mỗi ng là khác nhau nhưng cái quan trọng nhất là khả năng bắt trước ng dạy...\nCũng giống như khi còn nhỏ chưa nhận thức được người lớn nói j ta cứ bập bõm làm theo...\nVì chưa nhận thức đc nên cũng chẳng biết đúng sai hay ngại ngùng..\nCứ như vậy ngôn ngữ nó ngấm vào người theo năm tháng đến khi đi học là giai đoạn hoàn thiện...\nBây h lớn lên học ngoại ngữ tất cả đều nhận thức đc rồi nên biết xấu hổ, biết ngại nên khả năng bắt trước nó không bao h được tự nhiên khi còn nhỏ.\nCộng thêm nhiều chuyện phải nghĩ nên khả năng tập trung bị ảnh hưởng..\nVì vậy mình nghĩ ai tiếng giỏi thì khả năng bắt trước của ng ta chắc chắn sẽ rất tốt...\n1 lần nữa nhắc lại là năng lực và năng khiếu nữa...\nĐừng có thánh nào nói là từ lúc học ngoại ngữ đến khi nhìn thấy stt này mà bảo khi học chưa từng ngại về phát âm hay....\n😁😁😁😁😁😁😁\nVì vậy bạn nào muốn học tốt chưa nói đâu xa nhưng cái cơ bản ban đầu là bắt trước từ khi mới làm quen vs chữ cái,phát âm to, nhiều, k sợ sai, sai thì sửa...","created_time":"2014-03-04T14:52:11+0000","updated_time":"2014-04-06T06:05:15+0000","likes":{"data":{"100000328742646":{"id":"100000328742646","name":"Trần Giáp"},"569263718":{"id":"569263718","name":"Phuong Thao Tran"},"1816269439":{"id":"1816269439","name":"Dao Ngoc"},"100003913383051":{"id":"100003913383051","name":"Tho Tran"},"1146680551":{"id":"1146680551","name":"優しい なぁ"},"100002963737004":{"id":"100002963737004","name":"Hà Phùng"},"100002297226886":{"id":"100002297226886","name":"Nguyễn Bá Ngọc"},"100002258140388":{"id":"100002258140388","name":"Kim Sữa"},"100003242552199":{"id":"100003242552199","name":"Kim Anh Dang"},"100001526631937":{"id":"100001526631937","name":"Tường Oanh Mineko"},"100000141961504":{"id":"100000141961504","name":"LongRiver Nguyen"},"100003961115216":{"id":"100003961115216","name":"Chang Pham"},"100000208982983":{"id":"100000208982983","name":"Ajima Trinh"},"100002949055983":{"id":"100002949055983","name":"Joke Nguyễn"},"100007930417031":{"id":"100007930417031","name":"Trang Yamato"},"100006276542197":{"id":"100006276542197","name":"Phuong Anh Nguyen"},"100002244778147":{"id":"100002244778147","name":"Hải Kin"},"100002785299116":{"id":"100002785299116","name":"Gia Cat Luong"},"100004390920343":{"id":"100004390920343","name":"Quá Khứ"},"100003275444057":{"id":"100003275444057","name":"Rubik Opal"},"100004753690388":{"id":"100004753690388","name":"Anh Tuấn"},"100000215142696":{"id":"100000215142696","name":"Tăng Anh Thư"},"100003837141956":{"id":"100003837141956","name":"Mai Hoàng"},"100005373691566":{"id":"100005373691566","name":"Hiền Hy"},"100003073528870":{"id":"100003073528870","name":"Ha Dinh Nhu"},"100007464128711":{"id":"100007464128711","name":"Pùn Nhock"},"100007272372919":{"id":"100007272372919","name":"Sora Yume"},"100003721358570":{"id":"100003721358570","name":"Ninh Thị Hường"},"100004757316201":{"id":"100004757316201","name":"Hoài My Nguyễn"},"100003247875014":{"id":"100003247875014","name":"Thu Oanh"},"100003232430758":{"id":"100003232430758","name":"Trang Nguyen"},"100000118926104":{"id":"100000118926104","name":"Keo Ngot"},"100003735092519":{"id":"100003735092519","name":"Thân Nguyễn"},"100000329191240":{"id":"100000329191240","name":"Mai Tran"},"100003642824422":{"id":"100003642824422","name":"Ngô Ba"},"100005734772637":{"id":"100005734772637","name":"Daj Anh Hang"},"100002516940265":{"id":"100002516940265","name":"Việt Trần Huy"},"100003653166642":{"id":"100003653166642","name":"Tu Bui"},"100006555631860":{"id":"100006555631860","name":"Lulee Nguyễn"},"100006340654739":{"id":"100006340654739","name":"Gai Ho Duong"},"100000845478484":{"id":"100000845478484","name":"Hien Nguyen"},"100000005117986":{"id":"100000005117986","name":"Tăng Tiên Sinh"},"100007598744204":{"id":"100007598744204","name":"San Tô"},"100005817133785":{"id":"100005817133785","name":"Hồng Bamboo"},"100005436934892":{"id":"100005436934892","name":"Quang Quynh"},"100004067505871":{"id":"100004067505871","name":"Nguyen Hai Yen"},"100005887419564":{"id":"100005887419564","name":"Cười Một Mình"},"100001696484531":{"id":"100001696484531","name":"Con Loc Tinh Yeu"},"100004384631785":{"id":"100004384631785","name":"沈香"},"100006550144786":{"id":"100006550144786","name":"Sad Therosehouse"},"100002911645950":{"id":"100002911645950","name":"Củ Cải"},"100003742284688":{"id":"100003742284688","name":"Lữ Thanh"},"100006266162124":{"id":"100006266162124","name":"Hạnh Nguyễn"},"100004075308762":{"id":"100004075308762","name":"Lie Lie"},"100003689452238":{"id":"100003689452238","name":"Go Charli"},"100005495773832":{"id":"100005495773832","name":"Hiền Vũ"},"100003221880243":{"id":"100003221880243","name":"Ngân Siêu Nhân"},"100003735063256":{"id":"100003735063256","name":"Nguyễn Quý An"},"100000336737948":{"id":"100000336737948","name":"Ha Le"},"100000045271667":{"id":"100000045271667","name":"Nam Thai Nguyen"},"100000603915176":{"id":"100000603915176","name":"悪いな ぁ"},"100000267342665":{"id":"100000267342665","name":"An Dung"},"100007779284399":{"id":"100007779284399","name":"Anh Anh"},"100006293323106":{"id":"100006293323106","name":"Hải Nguyễn"},"100004327473342":{"id":"100004327473342","name":"Đất Khách Quê Người"},"100001232849121":{"id":"100001232849121","name":"Thịnh Nguyễn"},"100007414505951":{"id":"100007414505951","name":"Xanhxanh Xanh"},"100005486796172":{"id":"100005486796172","name":"Mômiji Ki"},"100004367679988":{"id":"100004367679988","name":"Kumi Nguyen"},"100006355350079":{"id":"100006355350079","name":"Ngọc Anh San"},"100003851371931":{"id":"100003851371931","name":"Nhung Kòy"},"100001122451473":{"id":"100001122451473","name":"Lavender Cullen"},"100002885753460":{"id":"100002885753460","name":"Giap Dinh Che"},"100000414537421":{"id":"100000414537421","name":"Hnamik Trần"},"100004360751785":{"id":"100004360751785","name":"Hà Nguyễn"},"100000500260636":{"id":"100000500260636","name":"Lưu Nguyễn Thảo Tiên"},"100003671803669":{"id":"100003671803669","name":"Tojika Sakura"},"100003393727733":{"id":"100003393727733","name":"Phạm Thủy"},"100003037728081":{"id":"100003037728081","name":"Nho Nguyen"},"100000343608796":{"id":"100000343608796","name":"Nêm K'nor"},"100005137476710":{"id":"100005137476710","name":"Minh Hải"},"100003724501627":{"id":"100003724501627","name":"Nguyen Ha Phuong"},"100004375364623":{"id":"100004375364623","name":"Quang Lê"},"100005307004792":{"id":"100005307004792","name":"Kiều Văn"},"100007396898008":{"id":"100007396898008","name":"My Hanh"},"100004076947285":{"id":"100004076947285","name":"Duyen Huong"},"100002446750324":{"id":"100002446750324","name":"Hiền Tran"},"100003836602345":{"id":"100003836602345","name":"Ánh Sao Băng"},"100006532603387":{"id":"100006532603387","name":"Yuuki Aiko"},"100000176631338":{"id":"100000176631338","name":"Hà Phương"},"100000128537417":{"id":"100000128537417","name":"Kim Chinh Lê"},"100002618328161":{"id":"100002618328161","name":"Lê Đức Thịnh"},"792083330":{"id":"792083330","name":"Duc Le"},"100001260645727":{"id":"100001260645727","name":"Ngo Duy Son"},"100005934548279":{"id":"100005934548279","name":"Cậu Bé Buồn"},"1823443424":{"id":"1823443424","name":"Buff Xinh"},"1394148660":{"id":"1394148660","name":"Cừu Non"},"100004140850631":{"id":"100004140850631","name":"Huong Trang"},"100007848283507":{"id":"100007848283507","name":"Oishi Oishi"},"100003103961241":{"id":"100003103961241","name":"Nhung Nguyen"},"100001508739620":{"id":"100001508739620","name":"Lê Ngọc Hoàn"},"100004072695214":{"id":"100004072695214","name":"Phương Angel"},"100003115841931":{"id":"100003115841931","name":"Bánh Đa Cá Rô"},"100001838657987":{"id":"100001838657987","name":"Vũ Quốc Hưng"},"100007067256170":{"id":"100007067256170","name":"Phan Te"},"100007578121481":{"id":"100007578121481","name":"Nguyễn Hà Anh"},"100003697539923":{"id":"100003697539923","name":"Minh Thắng"},"100001597573934":{"id":"100001597573934","name":"Ly Chu"},"100002968745965":{"id":"100002968745965","name":"Sky Blue"},"100001416272263":{"id":"100001416272263","name":"Mai PB"},"100002820904645":{"id":"100002820904645","name":"Phi Trường"},"100001744184866":{"id":"100001744184866","name":"Cường Nguyễn"},"100007468213697":{"id":"100007468213697","name":"Minh Cảnh"},"100002451143782":{"id":"100002451143782","name":"New Light"},"100003824535898":{"id":"100003824535898","name":"Trần Đạt"},"100003546798602":{"id":"100003546798602","name":"Hà Sơn Giang"},"100000695454369":{"id":"100000695454369","name":"Thanh Nga Do"},"100003780948776":{"id":"100003780948776","name":"Sâu Đặng"},"100000245098200":{"id":"100000245098200","name":"Nguyễn Trường Giang"},"100004409731083":{"id":"100004409731083","name":"Đô Trong Nghia"},"100002147884296":{"id":"100002147884296","name":"Ngoc Tran"},"100000109169227":{"id":"100000109169227","name":"Lê Hữu Ngọc"},"100003826208270":{"id":"100003826208270","name":"Công Ken"},"745565751":{"id":"745565751","name":"Tuyen Hoang Thi"},"100003971304832":{"id":"100003971304832","name":"Nguyễn Xuân"},"100003031756149":{"id":"100003031756149","name":"Đại Mìn"},"100005801442456":{"id":"100005801442456","name":"An Nguyen"}},"paging":{"cursors":{"after":"MTAwMDAwMzI4NzQyNjQ2","before":"MTAwMDAwMzI4NzQyNjQ2"},"next":"https://graph.facebook.com/229244010425617_826931130656899/likes?limit=1&summary=1&after=MTAwMDAwMzI4NzQyNjQ2"},"summary":{"total_count":129}},"comments":{"data":{"826934833989862":{"id":"826934833989862","from":{"id":"100002147884296","name":"Ngoc Tran"},"message":"Y kiên hay","can_remove":false,"created_time":"2014-03-04T14:58:42+0000","like_count":0,"user_likes":false},"826950450654967":{"id":"826950450654967","from":{"id":"100000392035783","name":"Nguyễn Minh Tân"},"message":"(y) nhiều khi xem phim trong phim có mấy câu ngắn..diễn viên phát âm rất hay , xem xong cứ bắt chước học theo, cố nói cho đúng giọng ..:))","can_remove":false,"created_time":"2014-03-04T15:25:39+0000","like_count":0,"user_likes":false},"826999643983381":{"id":"826999643983381","from":{"id":"100003241111991","name":"Đời Quá Đen"},"message":"nhưg mỗi lần e nói thi ko thể phát âm ra được ma rõ ràng là trong đầu e nhắc đi nhắc lại ko sai ty nào . nhưg ko phát âm được. vs trình độ nge của e thy thôi chán lm","can_remove":false,"created_time":"2014-03-04T15:51:08+0000","like_count":1,"user_likes":false},"826999907316688":{"id":"826999907316688","from":{"id":"642758003","name":"Dương Hạnh Nga"},"message":"ừa, chưa bao giờ ngại thiệt mà, 1 mình cũng tự lẩm bẩm, tập từng âm cho chuẩn, coi phim thì cũng để ý ngữ điệu, vẫn thấy bình thường mà :)","can_remove":false,"created_time":"2014-03-04T15:51:40+0000","like_count":0,"user_likes":false},"827003643982981":{"id":"827003643982981","from":{"id":"100000392035783","name":"Nguyễn Minh Tân"},"message":"nghe ngữ điệu tiếng nhật , lên xuống trong lời nói ..thật sự là hay.. đến bao giờ ms có thể nói 1 hồi và biến âm theo cách của mình đây :(","can_remove":false,"created_time":"2014-03-04T15:56:28+0000","like_count":0,"user_likes":false},"827006483982697":{"id":"827006483982697","from":{"id":"569263718","name":"Phuong Thao Tran"},"message":"và không chỉ ngoại ngữ, tiếng Việt mình cũng nên bắt CHƯỚC nữa nhé, ^^","can_remove":false,"created_time":"2014-03-04T16:01:48+0000","like_count":4,"user_likes":false},"827010090649003":{"id":"827010090649003","from":{"id":"100007468213697","name":"Minh Cảnh"},"message":"E là ng rất chịu khó bắt CHƯỚC chị Phuong Thao Tran...e nhớ ạ.😁","can_remove":false,"created_time":"2014-03-04T16:08:06+0000","like_count":1,"user_likes":false},"827015040648508":{"id":"827015040648508","from":{"id":"100005024348771","name":"Long Hoàng"},"message":"bắt trước-> bắt chước mới đúng mà","can_remove":false,"created_time":"2014-03-04T16:16:10+0000","like_count":1,"user_likes":false},"827020383981307":{"id":"827020383981307","from":{"id":"569263718","name":"Phuong Thao Tran"},"message":"鉄面皮で外国語を勉強しろ！","can_remove":false,"created_time":"2014-03-04T16:24:10+0000","like_count":0,"user_likes":false},"827025823980763":{"id":"827025823980763","from":{"id":"100007468213697","name":"Minh Cảnh"},"message":"Phuong Thao Tran😊かしこまりました。最後までも諦めずに頑張ろう","can_remove":false,"created_time":"2014-03-04T16:28:18+0000","like_count":1,"user_likes":false},"827039837312695":{"id":"827039837312695","from":{"id":"100003742284688","name":"Lữ Thanh"},"message":"Ôm cái gương tự kỷ riết ko bik chừng nào vào bv nữa :)))","can_remove":false,"created_time":"2014-03-04T16:51:19+0000","like_count":2,"user_likes":false},"827042137312465":{"id":"827042137312465","from":{"id":"569263718","name":"Phuong Thao Tran"},"message":"chị cũng đang tự kỷ với mấy con chữ đấy... học mọi lúc mọi nơi, học mà như chơi, khơi khơi mà hiệu quả, ^^","can_remove":false,"created_time":"2014-03-04T16:55:45+0000","like_count":1,"user_likes":false},"827258707290808":{"id":"827258707290808","from":{"id":"100004753690388","name":"Anh Tuấn"},"message":"Like .","can_remove":false,"created_time":"2014-03-05T02:13:20+0000","like_count":0,"user_likes":false},"846269552056390":{"id":"846269552056390","from":{"id":"100002258140388","name":"Kim Sữa"},"message":"Tiểu Tặc  Nguyễn Bá Ngọc Kai Rooney Sakura Sakura","message_tags":[{"id":"100003127815351","name":"Tiểu Tặc","type":"user","offset":0,"length":8},{"id":"100002297226886","name":"Nguyễn Bá Ngọc","type":"user","offset":10,"length":14},{"id":"100002951447959","name":"Kai Rooney","type":"user","offset":25,"length":10},{"id":"100003898983196","name":"Sakura Sakura","type":"user","offset":36,"length":13}],"can_remove":false,"created_time":"2014-04-06T05:04:10+0000","like_count":1,"user_likes":false},"846270325389646":{"id":"846270325389646","from":{"id":"100002297226886","name":"Nguyễn Bá Ngọc"},"message":"trong lúc mình đọc mà ngta cười thì sao mà đọc được chứ?","can_remove":false,"created_time":"2014-04-06T05:07:19+0000","like_count":0,"user_likes":false},"846287798721232":{"id":"846287798721232","from":{"id":"100001526631937","name":"Tường Oanh Mineko"},"message":"\"BẮT TRƯỚC\" ----> bắt chước nhé, Minh Cảnh","message_tags":[{"id":"100007468213697","name":"Minh Cảnh","type":"user","offset":33,"length":9}],"can_remove":false,"created_time":"2014-04-06T06:05:15+0000","like_count":0,"user_likes":false}},"paging":{"cursors":{"after":"ODI2OTM0ODMzOTg5ODYy","before":"ODI2OTM0ODMzOTg5ODYy"},"next":"https://graph.facebook.com/229244010425617_826931130656899/comments?limit=1&summary=1&after=ODI2OTM0ODMzOTg5ODYy"},"summary":{"order":"chronological","total_count":16}}}