{"id":"229244010425617_828121253871220","type":"status","from":{"id":"100001416272263","name":"Mai PB"},"message":"Tên, con dấu, chữ ký.\n\nCó lẽ ít có nước nào có văn hóa dùng con dấu cá nhân nhiều như nước Nhật. Ngay cả nước Trung Quốc bên cạnh tuy cũng dùng chữ Hán nhưng cá nhân cũng thường dùng chứ ký. Người Nhật cũng gọi chữ ký là サイン lấy từ chữ signature của tiếng Anh, nhưng \"chữ ký\" của họ là viết nắn nót từng nét vào, chứ không phải ký ngoằn ngoèo hoa bướm như signature. Vì vậy, khi được người Nhật bảo サインしてください thì đừng có viết tên đến mức không đọc được, sẽ bị cáu hoặc bị coi là chữ xấu đó. :-)  Ngày xưa thì xã hội Nhật ít chấp nhận ký tên, chỉ chấp nhận con dấu. Nhưng ngày nay nhiều thủ tục đơn giản đã chấp nhận chữ ký, nhất là áp dụng đối với người nước ngoài. Tuy nhiên thủ tục hành chính chính thức vẫn cần con dấu, vì vậy mà mọi người nước ngoài đến Nhật đều được dặn đi làm con dấu.\n\nCon dấu tiếng Nhật là 印鑑（いんかん） hoặc はんこ（ハンコ）. Thường thì người Nhật sẽ làm 2 con dấu, 1 là con dấu thường, 2 là con dấu chính thức (実印). Ai cầu kỳ thì còn làm 1 loại con dấu khác là con dấu ngân hàng (銀行員). Con dấu chính thức thì không thể dùng loại làm sẵn, mà phải là đặt khắc riêng cho mỗi người. Còn con dấu thường thì người ta đi mua đồ làm sẵn, thế nên 2 người Suzuki có thể có con dấu giống nhau, nhưng họ cũng không quan tâm. Có lẽ vì không ai giả mạo gì những việc lặt vặt này?\n\nNgười Việt Nam khi sang Nhật làm con dấu, hình như có nhiều người tự tra ra chữ Hán gốc của tên mình rồi khắc? Hoặc có người viết chữ katakana? Mình thì dùng luôn chữ La Tinh, ai nhìn thấy cũng trầm trồ \"kakkoii\" (cool) ^^ Thực ra chỉ đơn giản là không thích bị coi là người TQ, và katakana thì dài. Tùy ý mọi người thôi. Nhưng vì là con dấu của người nước ngoài nên không có con dấu làm sẵn như người Nhật rồi, vì vậy mà ai cũng phải đi đặt làm 1 cái. Nên làm cái rẻ thôi, chừng 1500 Yên trở xuống.\n\nTiếp theo là tên dùng ở Nhật. Chắc mọi người đều đau đầu khi phiên âm tên của mình, nhiều tên đọc chẳng giống tiếng Việt chút nào đúng không? Và dài nữa, người Nhật cũng không thể nào mà luận ra được nếu chỉ nghe đọc, nhất là qua điện thoại. Tên không giống tiếng Việt thì đành chịu, đó là hạn chế của ngôn ngữ. Nhưng tên dài thì có cách như sau: rút ngắn lại. Ví dụ, chỉ để lại họ và tên cuối, bỏ tên đệm đị. Lưu ý là làm các thủ tục hành chính chính thức liên quan đến giấy tờ thì không rút ngắn tên được. Nhưng xin đi làm baito, gửi hàng bưu điện này nọ, ai bắt mình phải viết đầy đủ họ tên dài ra đâu đúng không?\n\nMột điều nữa là phải thống nhất cách viết tên của mình ở mọi nơi mọi lúc mọi chỗ để tránh nhầm lẫn, không phải chỗ thì phiên âm thế này, chỗ thì thứ tự thế khác. Chỗ nào ghi sai của mình, đề nghị họ sửa lại. Nên dùng chữ La Tinh kèm theo katakana. Ví dụ hợp đồng điện thoại thì viết tên La Tinh của mình, phần phiên âm ở trên (ふりがな hoặc フリガナ) mới viết phiên âm tên bằng ひらがな hoặc カナナカ.\n\nCó mấy chuyện thú vị thế này.\n- Người Nhật đi đâu mà quên con dấu (thường), họ sẽ chạy ra hiệu văn phòng phẩm hoặc cửa hàng 100 Yên tìm mua con dấu tên mình. Gì cũng được, miễn là trùng họ. :-)\n- Ở công ty có đôi khi người ta tạo hình con dấu tên mình bằng Word rồi cắt dán vào document, in màu ra y như đóng dấu cho tiện. :-)\n- Có 1 công ty làm con dấu nổi tiếng tên là Shachihata シヤチハタ, nhưng con dấu làm bằng cao su, nên ngày xưa thì mực bị nhòe, và dấu ấn thay đổi hình dạng tùy theo lực ấn. Vì vậy nhiều nơi ghi chú là \"cấm con dấu Shachihata\". Chắc người Việt thì không cần phải để ý. Dù vậy thì con dấu Shachihata ngày nay chất lượng rất tốt, và sản phẩm rất tiện dụng, nên cũng không còn nhiều nơi cấm nữa.","created_time":"2014-03-06T13:58:20+0000","updated_time":"2014-03-27T07:19:24+0000","likes":{"data":{"100007779284399":{"id":"100007779284399","name":"Anh Anh"},"100002966928087":{"id":"100002966928087","name":"Nguyen van Dat"},"100005903373573":{"id":"100005903373573","name":"HaLinh Phong Phan"},"100000040762045":{"id":"100000040762045","name":"Bình Minh"},"100006502086138":{"id":"100006502086138","name":"Tuấn Nguyễn"},"100005614440533":{"id":"100005614440533","name":"Pu TongTeo"},"100001754136107":{"id":"100001754136107","name":"Nguyễn Tuấn Vũ"},"100002871405403":{"id":"100002871405403","name":"Thach Sanh"},"100000603915176":{"id":"100000603915176","name":"悪いな ぁ"},"100001610463272":{"id":"100001610463272","name":"Thuy Vu"},"100003242552199":{"id":"100003242552199","name":"Kim Anh Dang"},"100005079332495":{"id":"100005079332495","name":"Vi Sao"},"100003005597243":{"id":"100003005597243","name":"Zany Royal"},"100003933466469":{"id":"100003933466469","name":"Phong Aki"},"100004096243144":{"id":"100004096243144","name":"Shorai Nguyễn"},"100007272372919":{"id":"100007272372919","name":"Sora Yume"},"100002244778147":{"id":"100002244778147","name":"Hải Kin"},"100000088874261":{"id":"100000088874261","name":"Trần Đức Quang"},"100000500260636":{"id":"100000500260636","name":"Lưu Nguyễn Thảo Tiên"},"100003977703228":{"id":"100003977703228","name":"Ki Yu"},"1725907325":{"id":"1725907325","name":"Nguyen Van Dung"},"100004397382716":{"id":"100004397382716","name":"Thuan Nguyen"},"100002163371136":{"id":"100002163371136","name":"Rei Idea N"},"100004367679988":{"id":"100004367679988","name":"Kumi Nguyen"},"100005495773832":{"id":"100005495773832","name":"Hiền Vũ"},"100003950139327":{"id":"100003950139327","name":"Kathy Banh"},"100003875131996":{"id":"100003875131996","name":"Ngoc Anh"},"100000280178894":{"id":"100000280178894","name":"Đại Trượng Phu"},"1828906841":{"id":"1828906841","name":"Trọng Nghĩa Bùi"},"100000934663943":{"id":"100000934663943","name":"Phan Hằng"},"100003881446336":{"id":"100003881446336","name":"Trần Dung"},"100001688644423":{"id":"100001688644423","name":"Hong Do"},"100001526631937":{"id":"100001526631937","name":"Tường Oanh Mineko"},"100000347491202":{"id":"100000347491202","name":"Linh Hà Ngọc"},"1283298041":{"id":"1283298041","name":"Búa Đức Thanh"},"100004095052965":{"id":"100004095052965","name":"Mai Nguyễn"},"100000200152931":{"id":"100000200152931","name":"Anne Do"},"100003334742630":{"id":"100003334742630","name":"Htl Nhjm"},"100002582407708":{"id":"100002582407708","name":"Hữu Giảng"},"100007903567494":{"id":"100007903567494","name":"ベトナムの ビュイ"},"100000215142696":{"id":"100000215142696","name":"Tăng Anh Thư"},"100000014153164":{"id":"100000014153164","name":"Tan Tran"},"100001755605266":{"id":"100001755605266","name":"Totto Chan"},"100002131699773":{"id":"100002131699773","name":"Minh Chau"},"100000045271667":{"id":"100000045271667","name":"Nam Thai Nguyen"},"100001898143171":{"id":"100001898143171","name":"Htg Sau Theo"},"100007468213697":{"id":"100007468213697","name":"Minh Cảnh"},"1341670471":{"id":"1341670471","name":"An Nguyen"},"100003313957422":{"id":"100003313957422","name":"Tùng Sunrise"},"100002137253818":{"id":"100002137253818","name":"Anh Khoa"},"100003780948776":{"id":"100003780948776","name":"Sâu Đặng"},"100001917790709":{"id":"100001917790709","name":"Tran Thang"},"1146680551":{"id":"1146680551","name":"優しい なぁ"},"1816269439":{"id":"1816269439","name":"Dao Ngoc"},"100000141138651":{"id":"100000141138651","name":"Cẩm Vân"},"100002901724136":{"id":"100002901724136","name":"Nguyễn Mạnh"},"100005307004792":{"id":"100005307004792","name":"Kiều Văn"},"100004092835069":{"id":"100004092835069","name":"Hung Nguyen"},"100000250256418":{"id":"100000250256418","name":"Nguyen Viet Anh"},"100002564084989":{"id":"100002564084989","name":"Lê Việt Phương"},"100000203084478":{"id":"100000203084478","name":"Anh Tuan Nguyen"},"100003055356509":{"id":"100003055356509","name":"Thuan Nguyen"},"100000068660150":{"id":"100000068660150","name":"Hito Kami"},"569263718":{"id":"569263718","name":"Phuong Thao Tran"},"100006251103362":{"id":"100006251103362","name":"Lâm Thảo"},"100003913383051":{"id":"100003913383051","name":"Tho Tran"}},"paging":{"cursors":{"after":"MTAwMDA3Nzc5Mjg0Mzk5","before":"MTAwMDA3Nzc5Mjg0Mzk5"},"next":"https://graph.facebook.com/229244010425617_828121253871220/likes?limit=1&summary=1&after=MTAwMDA3Nzc5Mjg0Mzk5"},"summary":{"total_count":68}},"comments":{"data":{"828127647203914":{"id":"828127647203914","from":{"id":"100001565955910","name":"Huyền Trần"},"message":"Tùng Lee","message_tags":[{"id":"100006178569126","name":"Tùng Lee","type":"user","offset":0,"length":8}],"can_remove":false,"created_time":"2014-03-06T14:13:40+0000","like_count":2,"user_likes":false},"828129613870384":{"id":"828129613870384","from":{"id":"1580589258","name":"Kani Oboeru"},"message":"Hình như bác ko nhắc đến マシン印鑑","can_remove":false,"created_time":"2014-03-06T14:17:39+0000","like_count":1,"user_likes":false},"828132283870117":{"id":"828132283870117","from":{"id":"100001416272263","name":"Mai PB"},"message":"Là cái gì vậy?","can_remove":false,"created_time":"2014-03-06T14:24:20+0000","like_count":0,"user_likes":false},"828136130536399":{"id":"828136130536399","from":{"id":"100003780948776","name":"Sâu Đặng"},"message":"Thảo nào e ký ngoằn ngoèo sensei cứ nhăn nhó chê.... Giờ e đã biết lí do...","can_remove":false,"created_time":"2014-03-06T14:33:23+0000","like_count":0,"user_likes":false},"828139537202725":{"id":"828139537202725","from":{"id":"1580589258","name":"Kani Oboeru"},"message":"Loại gõ liên tiếp đc tiện dụng còn 木印鑑 thường ít dùng","can_remove":false,"created_time":"2014-03-06T14:41:24+0000","like_count":0,"user_likes":false},"828140570535955":{"id":"828140570535955","from":{"id":"100001416272263","name":"Mai PB"},"message":"Nhưng thế thì không phải con dấu cá nhân rồi.","can_remove":false,"created_time":"2014-03-06T14:44:32+0000","like_count":0,"user_likes":false},"828141910535821":{"id":"828141910535821","from":{"id":"100003245389022","name":"Thế Thuyết"},"message":"anh ơi . Mình làm con dấu bằng chữ latinh tại Việt Nam  rồi mang sang Nhật liệu có dùng đk k ạ .","can_remove":false,"created_time":"2014-03-06T14:48:05+0000","like_count":1,"user_likes":false},"828142220535790":{"id":"828142220535790","from":{"id":"100003780948776","name":"Sâu Đặng"},"message":"K đâu","can_remove":false,"created_time":"2014-03-06T14:48:47+0000","like_count":0,"user_likes":false},"828170300532982":{"id":"828170300532982","from":{"id":"100004112258038","name":"Chung Tran"},"message":"\"Còn con dấu thường thì người ta đi mua đồ làm sẵn, thế nên 2 người Suzuki có thể có con dấu giống nhau, nhưng họ cũng không quan tâm. Có lẽ vì không ai giả mạo gì những việc lặt vặt này?\" --> Điểm này, trước đây có hỏi mấy bác làm kinh doanh ở công ty, nếu mà dùng dấu sẵn như thế , dấu giống nhau , bị giả mạo thì sao ? \n\nĐược nhận lại câu trả lời như thế này:\n  - Thông thường người ta chia ra làm nhiều loại con dấu như bác Mai PB nói ở trên. Con dấu chính thức sẽ phải ra 区役所  đăng ký, và được chứng thực. Con dấu này thường sẽ phải giữ gìn rất cẩn thận cho những việc quan trọng. \n  - Con dấu thông thường chỉ mang tính xác nhận là chủ yếu, ko có tư cách pháp nhân. Thường sẽ có các giấy tờ khác đi kèm để xác định người đóng dấu. \n\nCó 1 điểm nữa không hiểu lắm về thủ tục ngân hàng. Đó là việc ngân hàng thường yêu cầu khách dùng mực của chính ngân hàng đó chứ không dùng mực của khách --> rõ ràng nếu nói là để giám định khi có tranh chấp, nhưng khách có thể dùng dấu thường để mở tài khoản mới --> mâu thuẫn ?","message_tags":[{"id":"100001416272263","name":"Mai PB","type":"user","offset":428,"length":6}],"can_remove":false,"created_time":"2014-03-06T15:53:38+0000","like_count":0,"user_likes":false},"840394262643919":{"id":"840394262643919","from":{"id":"1146680551","name":"優しい なぁ"},"message":"Mấy bạn sắp sang nên đọc.","can_remove":false,"created_time":"2014-03-27T07:06:27+0000","like_count":0,"user_likes":false},"840397592643586":{"id":"840397592643586","from":{"id":"100005903373573","name":"HaLinh Phong Phan"},"message":"Ai sắp sang vùng shinjiuku thì gần ga okubo có cửa hàng làm gon dấu rẻ đó.Có 500 yên thui.","can_remove":false,"created_time":"2014-03-27T07:19:24+0000","like_count":0,"user_likes":false}},"paging":{"cursors":{"after":"ODI4MTI3NjQ3MjAzOTE0","before":"ODI4MTI3NjQ3MjAzOTE0"},"next":"https://graph.facebook.com/229244010425617_828121253871220/comments?limit=1&summary=1&after=ODI4MTI3NjQ3MjAzOTE0"},"summary":{"order":"chronological","total_count":11}}}