{"id":"229244010425617_831985003484845","type":"link","picture":"https://fbexternal-a.akamaihd.net/safe_image.php?d=AQDrTFMGnZ-qbyBn&w=154&h=154&url=http%3A%2F%2Fm.f32.img.vnecdn.net%2F2013%2F12%2F14%2Fnam-va-nu-1-5047-1386984650_362x272.jpg","link":"http://m.vnexpress.net/congdong/u23-viet-nam-that-bai-vi-bi-muoi-can/2920393/p0","from":{"id":"1146680551","name":"優しい なぁ"},"message":"【会話】理由 (Lý do)！！！\n\n男:おはよう！今日はいい天気(tenki)だね。\nHế nhô. Hôm nay trời đẹp ghê hén.\n\n女:おはようぅ！うん。いい天気~\nUhm. Trời đẹp.\n\n男:疲れているみたいだけど、大丈夫❓\nTrông bà có vẻ mệt mỏi zậy! Ổn chứ hả?\n\n女:うん。昨夜(sakuya)眠れなかったせいかなぁ~\nỜ. Có lẽ do tối hôm qua tui mất ngủ >_<\n\n男:マジで。なんで眠れなかったの❓\nThật hử. Sao mất ngủ hử?\n\nあゝ分かったよ。彼氏(kareshi)がいたかなぁ~\nÀ, tui hiểu roài. Chắc do ngươi iu bà ở đó chứ gì hehe ^_^\n\n女:うん。彼氏がいたけど、そうじゃないわよ！！！\nỜ. Ảnh ở lại chơi. Nhưng mừ không phải zị :((\n\n実は蚊(ka)に食(ku)われたせいで、眠れなかった~\nThật ra do \" con muỗi \" nó cắn tui nên tui mất ngủ ....huhu.\n\n男:マジで⁉︎嘘~\nHả!? Đùa bố à >_<\n\n.........................\nHãy hiểu theo cách của bạn ^_^ hế hế\n\nhttp://m.vnexpress.net/congdong/u23-viet-nam-that-bai-vi-bi-muoi-can/2920393/p0","created_time":"2014-03-12T20:11:27+0000","updated_time":"2014-04-03T16:22:31+0000","likes":{"data":{"100001432462223":{"id":"100001432462223","name":"Truong Nguyen"},"100003672478312":{"id":"100003672478312","name":"Thai Duong"},"100000154325668":{"id":"100000154325668","name":"Lam Buong Binh"},"100000264801587":{"id":"100000264801587","name":"Nguyễn Đình Toàn"},"100003907858257":{"id":"100003907858257","name":"Ngân Nhím"},"100004712551712":{"id":"100004712551712","name":"Pe Hoai"},"100001695345798":{"id":"100001695345798","name":"Tyn Aki"},"100005345583988":{"id":"100005345583988","name":"Ước Mơ Tokyo"},"100002360771722":{"id":"100002360771722","name":"Missing Piece"},"100001526631937":{"id":"100001526631937","name":"Tường Oanh Mineko"},"100001807609603":{"id":"100001807609603","name":"Nguyễn Khánh Huyền"},"100001416272263":{"id":"100001416272263","name":"Mai PB"},"100004288178550":{"id":"100004288178550","name":"Có Một Người"},"100001458593763":{"id":"100001458593763","name":"Tú Bờm"},"100003808729835":{"id":"100003808729835","name":"Vân Nguyễn"},"100000022163023":{"id":"100000022163023","name":"Kafe Ore"},"100000157345230":{"id":"100000157345230","name":"Thích Là Được"},"100001393959821":{"id":"100001393959821","name":"Le Ngoc Linh Nhi"},"100000936327952":{"id":"100000936327952","name":"Nini Viên"},"100005024348771":{"id":"100005024348771","name":"Long Hoàng"},"1416265619":{"id":"1416265619","name":"Starwar Bbj"},"100003607925265":{"id":"100003607925265","name":"Thu Hằng"},"100005940993762":{"id":"100005940993762","name":"Hiroko  Horiuchi"},"100003160479777":{"id":"100003160479777","name":"Tran Nu Hoang Yen"},"100005107114575":{"id":"100005107114575","name":"Cường Ngoại Kiều"},"100003155380603":{"id":"100003155380603","name":"Khuong Pham"},"100001995633843":{"id":"100001995633843","name":"Yasunobu Toda"},"100003642346565":{"id":"100003642346565","name":"Khổng Minh Nhật"},"100001231756625":{"id":"100001231756625","name":"Nga Ostrich"},"100003923183149":{"id":"100003923183149","name":"Khúc Ca Buồn"},"100004446793664":{"id":"100004446793664","name":"Minh Tư Nguyễn"},"100000040762045":{"id":"100000040762045","name":"Bình Minh"},"100000500260636":{"id":"100000500260636","name":"Lưu Nguyễn Thảo Tiên"},"100004405054916":{"id":"100004405054916","name":"Trần Anh Dũng"}},"paging":{"cursors":{"after":"MTAwMDAxNDMyNDYyMjIz","before":"MTAwMDAxNDMyNDYyMjIz"},"next":"https://graph.facebook.com/229244010425617_831985003484845/likes?limit=1&summary=1&after=MTAwMDAxNDMyNDYyMjIz"},"summary":{"total_count":35}},"comments":{"data":{"832063483476997":{"id":"832063483476997","from":{"id":"100000027754899","name":"Hoang Van Ba"},"message":"かに刺される、\nDùng động từ này thì hay hơn :))","can_remove":false,"created_time":"2014-03-12T23:46:15+0000","like_count":5,"user_likes":false},"832073130142699":{"id":"832073130142699","from":{"id":"1146680551","name":"優しい なぁ"},"message":"Tính xài mà....^_^","can_remove":false,"created_time":"2014-03-13T00:13:23+0000","like_count":1,"user_likes":false},"832078090142203":{"id":"832078090142203","from":{"id":"100005107114575","name":"Cường Ngoại Kiều"},"message":"笑笑","can_remove":false,"created_time":"2014-03-13T00:28:23+0000","like_count":0,"user_likes":false},"832207010129311":{"id":"832207010129311","from":{"id":"100000027754899","name":"Hoang Van Ba"},"message":"寝、眠 どれ？","can_remove":false,"created_time":"2014-03-13T02:07:18+0000","like_count":0,"user_likes":false},"832207870129225":{"id":"832207870129225","from":{"id":"100000027754899","name":"Hoang Van Ba"},"message":"マジ、嘘 thật áh. Điêu ( đùa àh ) :))","can_remove":false,"created_time":"2014-03-13T02:09:10+0000","like_count":1,"user_likes":false},"832214380128574":{"id":"832214380128574","from":{"id":"1146680551","name":"優しい なぁ"},"message":"辞書使ってて^_^","can_remove":false,"created_time":"2014-03-13T02:24:00+0000","like_count":0,"user_likes":false},"832219543461391":{"id":"832219543461391","from":{"id":"100000027754899","name":"Hoang Van Ba"},"message":"昨夜sakuyaって言わへんだと思うわ。ゆうべ を言うんです。\n☆〜（ゝ。∂）","can_remove":false,"created_time":"2014-03-13T02:33:21+0000","like_count":1,"user_likes":false},"832222376794441":{"id":"832222376794441","from":{"id":"100000022163023","name":"Kafe Ore"},"message":"Tội của con muỗi này rất là to luôn","can_remove":false,"created_time":"2014-03-13T02:35:13+0000","like_count":0,"user_likes":false},"832223433461002":{"id":"832223433461002","from":{"id":"100000027754899","name":"Hoang Van Ba"},"message":"Làm thịt nó đi :)","can_remove":false,"created_time":"2014-03-13T02:37:29+0000","like_count":0,"user_likes":false},"832226403460705":{"id":"832226403460705","from":{"id":"100000027754899","name":"Hoang Van Ba"},"message":"Bắt sống cho uống bia căng bụng ra. Ngâm dấm 3 ngày. Hầm 4 đêm phơi nắng 39 độ trong 77 49 ngày nghiền ra lấy bột ăn cùng cơm :)","can_remove":false,"created_time":"2014-03-13T02:43:57+0000","like_count":0,"user_likes":false},"832227870127225":{"id":"832227870127225","from":{"id":"569263718","name":"Phuong Thao Tran"},"message":"眠れなかったのせいかなぁ~???","can_remove":false,"created_time":"2014-03-13T02:48:29+0000","like_count":0,"user_likes":false},"832241546792524":{"id":"832241546792524","from":{"id":"1146680551","name":"優しい なぁ"},"message":"Sao vậy bạn ơi?","can_remove":false,"created_time":"2014-03-13T03:25:37+0000","like_count":0,"user_likes":false},"832295953453750":{"id":"832295953453750","from":{"id":"1146680551","name":"優しい なぁ"},"message":"Hoang Van Ba Thay mặt hội những người yêu động vật, mình là mình lên án hành động đó của bạn. Bạn không nên đối xử với con muỗi như thế, vừa gây tốn kém, vừa mang lại hình ảnh không tốn. Vì chỉ cần nhẹ nhàng lấy cái vợt muỗi là bạn có thể cho con muỗi một cái chết thật dịu êm. :v","message_tags":[{"id":"100000027754899","name":"Hoang Van Ba","type":"user","offset":0,"length":12}],"can_remove":false,"created_time":"2014-03-13T06:24:40+0000","like_count":0,"user_likes":false},"832297570120255":{"id":"832297570120255","from":{"id":"100000027754899","name":"Hoang Van Ba"},"message":"Tiết kiệm là quốc sách :))","can_remove":false,"created_time":"2014-03-13T06:30:18+0000","like_count":0,"user_likes":false},"832753920074620":{"id":"832753920074620","from":{"id":"1146680551","name":"優しい なぁ"},"message":":v","can_remove":false,"created_time":"2014-03-13T21:56:50+0000","like_count":0,"user_likes":false},"844729002210445":{"id":"844729002210445","from":{"id":"100003672478312","name":"Thai Duong"},"message":"Hoang Van 3 đúng là 面白い","can_remove":false,"created_time":"2014-04-03T16:22:31+0000","like_count":0,"user_likes":false}},"paging":{"cursors":{"after":"ODMyMDYzNDgzNDc2OTk3","before":"ODMyMDYzNDgzNDc2OTk3"},"next":"https://graph.facebook.com/229244010425617_831985003484845/comments?limit=1&summary=1&after=ODMyMDYzNDgzNDc2OTk3"},"summary":{"order":"chronological","total_count":16}}}