{"id":"229244010425617_832926386724040","type":"status","from":{"id":"100001546837960","name":"Chung Goldstar"},"message":"Nhờ ad cho iemm post nhờ tí. Đầu tháng 4 mình sẽ có mặt tại Tokyo ăn chơi nhảy múa một tháng. Địa chỉ tá túc gần ga IKE. Thời gian là tỉ phú. Anh em nào có nhu cầu ăn chơi vô lập bang hội nhá. Trong lúc rảnh sẽ xin làm tình nguyện miễn phí cho các em mới sang đợt tháng tư về các thủ tục giấy tờ, tư vấn mội thứ trong sự hiểu biết. Bạn nào có cần giúp đỡ xin cứ cmt ở đây nhá.","created_time":"2014-03-14T06:10:56+0000","updated_time":"2014-04-01T12:51:19+0000","likes":{"data":{"100005887419564":{"id":"100005887419564","name":"Cười Một Mình"},"100000500260636":{"id":"100000500260636","name":"Lưu Nguyễn Thảo Tiên"},"1816269439":{"id":"1816269439","name":"Dao Ngoc"},"100004046108560":{"id":"100004046108560","name":"MiSo Cochunho"},"100001432462223":{"id":"100001432462223","name":"Truong Nguyen"},"100004779104079":{"id":"100004779104079","name":"Hạt Tiêu"},"100000399315424":{"id":"100000399315424","name":"Rô Rô"},"100001458099624":{"id":"100001458099624","name":"Kham Pha"},"100004985590880":{"id":"100004985590880","name":"Vi Vi"},"100007963716784":{"id":"100007963716784","name":"Ninh Thị Hường"},"100003090738530":{"id":"100003090738530","name":"Ngô Thị Thanh Hường"},"100005024348771":{"id":"100005024348771","name":"Long Hoàng"},"100006109121110":{"id":"100006109121110","name":"Nguyễn La Na"},"100000174570922":{"id":"100000174570922","name":"Le Vu Hoang"},"100007068013838":{"id":"100007068013838","name":"Anh NG"},"100000019126977":{"id":"100000019126977","name":"Nguyen Thi Ngoc Anh"},"100005318294463":{"id":"100005318294463","name":"Cừu Ca Ca"},"100006614261300":{"id":"100006614261300","name":"Tao Cao Cường Đây"},"100004603263470":{"id":"100004603263470","name":"Sam Bella"},"100004424922774":{"id":"100004424922774","name":"Việt Nguyễn"},"100004536125153":{"id":"100004536125153","name":"Hoàng Đàn"}},"paging":{"cursors":{"after":"MTAwMDA1ODg3NDE5NTY0","before":"MTAwMDA1ODg3NDE5NTY0"},"next":"https://graph.facebook.com/229244010425617_832926386724040/likes?limit=1&summary=1&after=MTAwMDA1ODg3NDE5NTY0"},"summary":{"total_count":21}},"comments":{"data":{"832926570057355":{"id":"832926570057355","from":{"id":"100000186616129","name":"Tuyên Xây Dựng"},"message":"ăn chơi uống nc lạ, hít kki để sống à b :D\nnghe nói bên đấy kk vs nc cũng đắt lắm ,phải nhập khẩu về","can_remove":false,"created_time":"2014-03-14T06:12:16+0000","like_count":0,"user_likes":false},"832926780057334":{"id":"832926780057334","from":{"id":"100001546837960","name":"Chung Goldstar"},"message":"Cầy nhiều cũng phải có lúc xả chứ TXD. Làm để chết à.hiii","can_remove":false,"created_time":"2014-03-14T06:13:16+0000","like_count":0,"user_likes":false},"832928606723818":{"id":"832928606723818","from":{"id":"100001675994847","name":"Khánh Phượng"},"message":"hướng dẫn free, k đòi hỏi nha :3","can_remove":false,"created_time":"2014-03-14T06:19:17+0000","like_count":0,"user_likes":false},"832928803390465":{"id":"832928803390465","from":{"id":"100007274109466","name":"Binh Minh"},"message":"bác có quen ai chuyên làm thủ tục bảo lãnh người qua đó sinh sống không?","can_remove":false,"created_time":"2014-03-14T06:19:54+0000","like_count":0,"user_likes":false},"832929413390404":{"id":"832929413390404","from":{"id":"100001546837960","name":"Chung Goldstar"},"message":"KP quân tử nhất ngôn. Alo hoặc tới chỗ tớ thì vô xờ tư, nhưng muốn đi cùng thì xin trả tiền vé tàu, nếu tốt bụng xin bát soba cầm hơi làm từ thiện. Nếu khuất tất anh em cứ quăng gạch thoải văn mái.","can_remove":false,"created_time":"2014-03-14T06:22:12+0000","like_count":2,"user_likes":false},"832929486723730":{"id":"832929486723730","from":{"id":"100001675994847","name":"Khánh Phượng"},"message":":)))))))))))))))","can_remove":false,"created_time":"2014-03-14T06:22:41+0000","like_count":0,"user_likes":false},"832933180056694":{"id":"832933180056694","from":{"id":"100006827047311","name":"Chu Chu"},"message":"anh có thể dắt e đi đăng ký đt ko?","can_remove":false,"created_time":"2014-03-14T06:36:15+0000","like_count":0,"user_likes":false},"832933453390000":{"id":"832933453390000","from":{"id":"100001546837960","name":"Chung Goldstar"},"message":"Cái đó đơn giản mà, rủ thêm bạn bè rồi hẹn ngày, anh dẫn đi một phát cho gọn.","can_remove":false,"created_time":"2014-03-14T06:37:33+0000","like_count":2,"user_likes":false},"832934953389850":{"id":"832934953389850","from":{"id":"100006827047311","name":"Chu Chu"},"message":"hì, cảm ơn anh trước","can_remove":false,"created_time":"2014-03-14T06:45:55+0000","like_count":0,"user_likes":false},"832941290055883":{"id":"832941290055883","from":{"id":"100004579565793","name":"Phạm Đức"},"message":"Lều báo : Dhs vn tại nhật lập   Nhóm tụ tập ăn chơi :v","can_remove":false,"created_time":"2014-03-14T07:13:11+0000","like_count":1,"user_likes":false},"832941520055860":{"id":"832941520055860","from":{"id":"100004764092374","name":"Đờ Ích Hát"},"message":"(y) tinh thần của a","can_remove":false,"created_time":"2014-03-14T07:14:16+0000","like_count":0,"user_likes":false},"832941980055814":{"id":"832941980055814","from":{"id":"100001546837960","name":"Chung Goldstar"},"message":"Bạn gì muốn bảo lãnh thế nào. ? Cụ thể tí.","can_remove":false,"created_time":"2014-03-14T07:16:27+0000","like_count":0,"user_likes":false},"832942133389132":{"id":"832942133389132","from":{"id":"100007274109466","name":"Binh Minh"},"message":"tôi có đứa em gái muốn sang nhật sinh sống, muốn biết ai có thể kết hôn giả đẻ sang đó sinh sống và làm việc","can_remove":false,"created_time":"2014-03-14T07:17:15+0000","like_count":0,"user_likes":false},"832942223389123":{"id":"832942223389123","from":{"id":"100007274109466","name":"Binh Minh"},"message":"nó định đi du học nhưng đã thôi học quá 5 năm rồi nên không đủ đk đi du học","can_remove":false,"created_time":"2014-03-14T07:17:48+0000","like_count":0,"user_likes":false},"832943026722376":{"id":"832943026722376","from":{"id":"100001546837960","name":"Chung Goldstar"},"message":"Úi giời giả thì mình chịu. Bạn í bao nhieu tuôi. Học gì rồi ? sao kg lấy thật mà fai giả.","can_remove":false,"created_time":"2014-03-14T07:21:05+0000","like_count":0,"user_likes":false},"832943293389016":{"id":"832943293389016","from":{"id":"100007274109466","name":"Binh Minh"},"message":"thế ông bạn có biêt phương thức bảo lãnh nào khác không?","can_remove":false,"created_time":"2014-03-14T07:22:41+0000","like_count":0,"user_likes":false},"832944220055590":{"id":"832944220055590","from":{"id":"100001546837960","name":"Chung Goldstar"},"message":"Bạn fai cu the ng do dang o tinh trang the nao ? Tuoi. học gì ra. ?","can_remove":false,"created_time":"2014-03-14T07:26:06+0000","like_count":0,"user_likes":false},"832944390055573":{"id":"832944390055573","from":{"id":"100007274109466","name":"Binh Minh"},"message":"đã ly hôn, 25 tuổi, học hết cấp 3 thôi","can_remove":false,"created_time":"2014-03-14T07:26:50+0000","like_count":0,"user_likes":false},"832944453388900":{"id":"832944453388900","from":{"id":"100007274109466","name":"Binh Minh"},"message":"cũng biết nói chút tiếng nhật, nói tạm được tiếng anh và tiếng trung","can_remove":false,"created_time":"2014-03-14T07:27:15+0000","like_count":0,"user_likes":false},"832944876722191":{"id":"832944876722191","from":{"id":"100007274109466","name":"Binh Minh"},"message":"nó muốn sống luôn lại bên đó, không thích về vn ở nữa","can_remove":false,"created_time":"2014-03-14T07:29:14+0000","like_count":0,"user_likes":false},"832945913388754":{"id":"832945913388754","from":{"id":"100001546837960","name":"Chung Goldstar"},"message":"Nếu đi học vùng động đất may ra","can_remove":false,"created_time":"2014-03-14T07:33:38+0000","like_count":0,"user_likes":false},"832958776720801":{"id":"832958776720801","from":{"id":"100004382503019","name":"Cường SiêuĐẳng"},"message":"Cho tao theo vs","can_remove":false,"created_time":"2014-03-14T08:10:01+0000","like_count":0,"user_likes":false},"833011853382160":{"id":"833011853382160","from":{"id":"100004192544616","name":"Cuộc Đời Lớn"},"message":"Chung Goldstar chỉ tiếc là cháu k đi tokyo","message_tags":[{"id":"100001546837960","name":"Chung Goldstar","type":"user","offset":0,"length":14}],"can_remove":false,"created_time":"2014-03-14T11:21:55+0000","like_count":0,"user_likes":false},"843423012341044":{"id":"843423012341044","from":{"id":"100000447637971","name":"Niệm Huỳnh"},"message":"A ơi!  Cho em hỏi về vấn đề này ạ ngoài việc làm nhà trường giới thiệu  Mình có thể làm thêm bên ngoài nếu còn thời gian rảnh. Làm hồ sơ trọn gói để đi du học nhật sau khi hoàn tất hết các thủ tục và có visa mình mới đưa đủ số tiền cho công ty tư vấn có phải như vậy không ạ?  Em cảm ơn a nhiều ạ","can_remove":false,"created_time":"2014-04-01T09:58:43+0000","like_count":0,"user_likes":false},"843424889007523":{"id":"843424889007523","from":{"id":"100001546837960","name":"Chung Goldstar"},"message":"Câu hỏi của NH chuẩn hết đấy. Vấn đề phí bao nhiêu cho công ty nên thoả thuận rõ ràng.","can_remove":false,"created_time":"2014-04-01T10:01:58+0000","like_count":0,"user_likes":false},"843427935673885":{"id":"843427935673885","from":{"id":"100000447637971","name":"Niệm Huỳnh"},"message":"Dạ bên  là 1000usd.  Đồng ý làm hồ sơ thì đưa trước 500usd sau khi hoàn tất hết các thủ tục thì đưa 500usd còn lại.  Cty tư vấn e đi là công ty cổ phần itm em không biết có uy tín hay không vì đây là lần đầu em tự làm mọi thứ nên em còn bỡ ngỡ.  Em đọc báo mạng thấy lừa đảo nhiều,  e ko biết đâu thật đâu giả.  A cũng là ng đi trước nên e nhờ a tư vấn giúp e,  e cảm ơn a nhiều ạ.","can_remove":false,"created_time":"2014-04-01T10:08:56+0000","like_count":0,"user_likes":false},"843439635672715":{"id":"843439635672715","from":{"id":"100001546837960","name":"Chung Goldstar"},"message":"Với giá vậy ok. nhưng cụ thể nộp các khoản gì nữa.? Học phí bao nhiêu? tiền nhà.? ... vé máy bay ai chịu.? Nói chung công ty đó anh kg rõ. Năm ngoái có công ty trong danh sách công ty khả nghi ngoài tiền phí còn ăn chặn 20 triệu học bổng của học sinh Trường Isb nên năm nay trường kg hợp tác.","can_remove":false,"created_time":"2014-04-01T10:37:48+0000","like_count":0,"user_likes":false},"843441692339176":{"id":"843441692339176","from":{"id":"100000447637971","name":"Niệm Huỳnh"},"message":"Tiền: 1năm học phí,  6tháng Ktx,  tiền tiêm chủng vắc xin,  sách vở,... Vé máy bay bên đó lo hết cho mình luôn.  A đang nói về cty itm phải không ạ????","can_remove":false,"created_time":"2014-04-01T10:42:03+0000","like_count":0,"user_likes":false},"843453109004701":{"id":"843453109004701","from":{"id":"100001546837960","name":"Chung Goldstar"},"message":"Kg phải công ty đó. Em đi trường nào? Tổng tiền công ty nói là bao nhiêu?","can_remove":false,"created_time":"2014-04-01T11:19:21+0000","like_count":0,"user_likes":false},"843454159004596":{"id":"843454159004596","from":{"id":"100000447637971","name":"Niệm Huỳnh"},"message":"Bên công ty giới thiệu trường liên kết bên nhật Công nghệ ô to và thêm một trường nữa e ko nhớ rõ tên.  Tổng chi phí trọn gói là 200 -  220tr ạ. Nhưng e tự chọn trường và nhờ họ làm hồ sơ cho.","can_remove":false,"created_time":"2014-04-01T11:22:48+0000","like_count":0,"user_likes":false},"843489855667693":{"id":"843489855667693","from":{"id":"100001546837960","name":"Chung Goldstar"},"message":"Em có thể  pm cho anh về chi phí từng thứ.","can_remove":false,"created_time":"2014-04-01T12:47:37+0000","like_count":0,"user_likes":false},"843491552334190":{"id":"843491552334190","from":{"id":"100000447637971","name":"Niệm Huỳnh"},"message":"Riêng trường em chọn thì ngta chưa thông báo chi phí cụ thể","can_remove":false,"created_time":"2014-04-01T12:51:19+0000","like_count":0,"user_likes":false}},"paging":{"cursors":{"after":"ODMyOTI2NTcwMDU3MzU1","before":"ODMyOTI2NTcwMDU3MzU1"},"next":"https://graph.facebook.com/229244010425617_832926386724040/comments?limit=1&summary=1&after=ODMyOTI2NTcwMDU3MzU1"},"summary":{"order":"chronological","total_count":32}}}