{"id":"229244010425617_835718083111537","type":"photo","object_id":"219991774874918","picture":"https://fbcdn-photos-f-a.akamaihd.net/hphotos-ak-frc1/t1.0-0/1959445_219991774874918_746363768_s.jpg","link":"https://www.facebook.com/photo.php?fbid=219991774874918&set=gm.835718083111537&type=1&relevant_count=1","from":{"id":"100005922909956","name":"Takai  Masahiro"},"message":"I am the Japanese university student living in Tokyo.\nI want to be friend with foreign students.\nI am waiting for your message.\n\n東京に住んでいる大学生です。留学生の人たちと仲良くなりたい。\nメールおねがいします。\n\nぼくは大学で都市工学を勉強していて、日本や友好関係にある国に\n住みよい街づくりをしたいと思っています。","created_time":"2014-03-19T03:43:30+0000","updated_time":"2014-03-25T09:47:27+0000","likes":{"data":{"100006506178559":{"id":"100006506178559","name":"Rie  Shindo"},"100003666736429":{"id":"100003666736429","name":"Saobang Nguyen"},"1778354324":{"id":"1778354324","name":"Sơn Ken"},"100007930417031":{"id":"100007930417031","name":"Trang Yamato"},"100000045271667":{"id":"100000045271667","name":"Nam Thai Nguyen"},"100007779284399":{"id":"100007779284399","name":"Anh Anh"},"100000110765909":{"id":"100000110765909","name":"Thảo Nguyễn"},"100000074927099":{"id":"100000074927099","name":"Tự Do Quá Độ"},"1026780646":{"id":"1026780646","name":"Việt Hưng Khổng"},"100000280178894":{"id":"100000280178894","name":"Đại Trượng Phu"},"100000278474335":{"id":"100000278474335","name":"Aki Trinh"},"650770013":{"id":"650770013","name":"Nguyen Hoang Anh"},"1148962646":{"id":"1148962646","name":"Tran Thi Tuong Van"},"100001722286066":{"id":"100001722286066","name":"Eo Pi"},"100001458099624":{"id":"100001458099624","name":"Kham Pha"},"100000381394367":{"id":"100000381394367","name":"Thành Nguyễn"},"100002124532666":{"id":"100002124532666","name":"Nguyễn Thành Du"},"100001851653021":{"id":"100001851653021","name":"Yenngoc Tran"},"1725907325":{"id":"1725907325","name":"Nguyen Van Dung"},"1816269439":{"id":"1816269439","name":"Dao Ngoc"},"100003055356509":{"id":"100003055356509","name":"Thuan Nguyen"},"100006678252432":{"id":"100006678252432","name":"Đồng Linh"},"738235689":{"id":"738235689","name":"Dang Thi Phuong"},"100004528082100":{"id":"100004528082100","name":"フン グェン"},"100003977703228":{"id":"100003977703228","name":"Ki Yu"},"100003613039730":{"id":"100003613039730","name":"Phạm Tú"},"100001007000967":{"id":"100001007000967","name":"Bibi Nguyễn"},"100000106606544":{"id":"100000106606544","name":"Thu Hiền"},"100000175468518":{"id":"100000175468518","name":"Chj Koj"},"100005882954389":{"id":"100005882954389","name":"Thu Hằng Nguyễn"},"100002837291024":{"id":"100002837291024","name":"Hoài Thu"},"100003762427351":{"id":"100003762427351","name":"Hiroshi Yasu Oki"},"100003567795945":{"id":"100003567795945","name":"Thu Thảo Đỗ"},"100006113144074":{"id":"100006113144074","name":"Hà Phương"},"100006259453558":{"id":"100006259453558","name":"Lê Bình"},"100005107114575":{"id":"100005107114575","name":"Cường Ngoại Kiều"},"100002349914667":{"id":"100002349914667","name":"Joey Park"},"100002675248579":{"id":"100002675248579","name":"Ecchi Deviluke"},"100001557981751":{"id":"100001557981751","name":"Hồ Ngọc Khanh"},"100001571041179":{"id":"100001571041179","name":"Khôi Nguyễn Văn"},"100007719188081":{"id":"100007719188081","name":"Ping GO"},"100006659978893":{"id":"100006659978893","name":"Ngọc Ngà Nguyễn"},"100004307084578":{"id":"100004307084578","name":"Megurin  Kanzaki"},"100003902331763":{"id":"100003902331763","name":"Ngốk Nghếck"},"100003172353190":{"id":"100003172353190","name":"Nade Shiko"},"100006745387390":{"id":"100006745387390","name":"Thu Hien Pham"},"100000309978634":{"id":"100000309978634","name":"Tan Vu"},"100001359798024":{"id":"100001359798024","name":"November Gi"},"100000064686295":{"id":"100000064686295","name":"Huy Roli"},"100001502693321":{"id":"100001502693321","name":"Veronica Dz"},"100005033760804":{"id":"100005033760804","name":"Vy Luna"},"100001786404410":{"id":"100001786404410","name":"Huệ Nguyễn"},"100003669292626":{"id":"100003669292626","name":"Nhok Xinh"},"100000489372404":{"id":"100000489372404","name":"Phúc Bồ"},"100001260645727":{"id":"100001260645727","name":"Ngo Duy Son"},"100003069246142":{"id":"100003069246142","name":"Hồng Trịnh"},"100002762270141":{"id":"100002762270141","name":"Mien Nguyen"},"100000089472724":{"id":"100000089472724","name":"Duy Nguyen"},"100001432462223":{"id":"100001432462223","name":"Truong Nguyen"},"100000745694668":{"id":"100000745694668","name":"Lee Chan"},"1137709136":{"id":"1137709136","name":"Tuan Truong"},"100000115580730":{"id":"100000115580730","name":"Duy Tùng"},"1557064760":{"id":"1557064760","name":"Lợi Hứa"},"100004288178550":{"id":"100004288178550","name":"Có Một Người"},"100000641227862":{"id":"100000641227862","name":"Anh Lê"},"100001508739620":{"id":"100001508739620","name":"Lê Ngọc Hoàn"},"100001416272263":{"id":"100001416272263","name":"Mai PB"},"100003168663740":{"id":"100003168663740","name":"Ớt Ngọt"},"100004367679988":{"id":"100004367679988","name":"Kumi Nguyen"},"100002359081640":{"id":"100002359081640","name":"Kul Ngố"},"100000309415626":{"id":"100000309415626","name":"Kona Yuki"},"100000264801587":{"id":"100000264801587","name":"Nguyễn Đình Toàn"},"100006848703849":{"id":"100006848703849","name":"Mai Phương"},"569263718":{"id":"569263718","name":"Phuong Thao Tran"},"1250063068":{"id":"1250063068","name":"Tuấn Tử Tế"},"100001057467030":{"id":"100001057467030","name":"Buông Tay"},"100000468762077":{"id":"100000468762077","name":"Youki Youki"},"100000845049860":{"id":"100000845049860","name":"Nun Chan"},"100003238432848":{"id":"100003238432848","name":"Nguyễn Linh Tâm"},"100001968399603":{"id":"100001968399603","name":"Ha Minh Kieu"},"100000456391246":{"id":"100000456391246","name":"ʚïɞ Hiền ʚïɞ"},"100003058280462":{"id":"100003058280462","name":"Đặng Văn Thành"}},"paging":{"cursors":{"after":"MTAwMDA2NTA2MTc4NTU5","before":"MTAwMDA2NTA2MTc4NTU5"},"next":"https://graph.facebook.com/229244010425617_835718083111537/likes?limit=1&summary=1&after=MTAwMDA2NTA2MTc4NTU5"},"summary":{"total_count":87}},"comments":{"data":{"835721779777834":{"id":"835721779777834","from":{"id":"100000198219367","name":"Chang Jiang"},"message":"東京大学　:-O\nすごいですね　(y)","can_remove":false,"created_time":"2014-03-19T03:55:20+0000","like_count":1,"user_likes":false},"835722566444422":{"id":"835722566444422","from":{"id":"1250063068","name":"Tuấn Tử Tế"},"message":"よろしく！","can_remove":false,"created_time":"2014-03-19T03:58:22+0000","like_count":1,"user_likes":false},"835722766444402":{"id":"835722766444402","from":{"id":"100000309415626","name":"Kona Yuki"},"message":"シン チャオ","can_remove":false,"created_time":"2014-03-19T03:59:04+0000","like_count":1,"user_likes":false},"835723629777649":{"id":"835723629777649","from":{"id":"100004917425745","name":"Nhân Tâm"},"message":"Glad to c u :)","can_remove":false,"created_time":"2014-03-19T04:02:14+0000","like_count":1,"user_likes":false},"835725386444140":{"id":"835725386444140","from":{"id":"100001416272263","name":"Mai PB"},"message":"Chang Jiang khg phải trường đó, mà là trường ở đó","message_tags":[{"id":"100000198219367","name":"Chang Jiang","type":"user","offset":0,"length":11}],"can_remove":false,"created_time":"2014-03-19T04:08:07+0000","like_count":4,"user_likes":false},"835725746444104":{"id":"835725746444104","from":{"id":"100000309153854","name":"Pham Thuong"},"message":"Tôi là sv đang sống ở tokyo mà.","can_remove":false,"created_time":"2014-03-19T04:09:46+0000","like_count":1,"user_likes":false},"835725759777436":{"id":"835725759777436","from":{"id":"100000198219367","name":"Chang Jiang"},"message":"ở profile bạn đó ghi là Todai mà :3","can_remove":false,"created_time":"2014-03-19T04:09:50+0000","like_count":2,"user_likes":false},"835725816444097":{"id":"835725816444097","from":{"id":"100000198219367","name":"Chang Jiang"},"message":"Các bạn ko xem profile của bạn đó à :))\n\nTodai mà :D","can_remove":false,"created_time":"2014-03-19T04:10:15+0000","like_count":1,"user_likes":false},"835725839777428":{"id":"835725839777428","from":{"id":"100000309415626","name":"Kona Yuki"},"message":"Trong profile bên trang cá nhân của bạn í í :D Chắc mọi người chưa xem :D","can_remove":false,"created_time":"2014-03-19T04:10:23+0000","like_count":0,"user_likes":false},"835726179777394":{"id":"835726179777394","from":{"id":"100001416272263","name":"Mai PB"},"message":":-)","can_remove":false,"created_time":"2014-03-19T04:11:59+0000","like_count":2,"user_likes":false},"835728479777164":{"id":"835728479777164","from":{"id":"100005922909956","name":"Takai  Masahiro"},"message":"sorry,i cant speak Vietnamese language.","can_remove":false,"created_time":"2014-03-19T04:19:09+0000","like_count":1,"user_likes":false},"835728843110461":{"id":"835728843110461","from":{"id":"100005922909956","name":"Takai  Masahiro"},"message":"if you can , please short Vietnamese sentence with Japanese or English.","can_remove":false,"created_time":"2014-03-19T04:20:31+0000","like_count":1,"user_likes":false},"835729606443718":{"id":"835729606443718","from":{"id":"100001594722256","name":"Viết An Phạm"},"message":"Hey you! Nice to meet you. \nこれからよろしくお願いしますね。","can_remove":false,"created_time":"2014-03-19T04:23:15+0000","like_count":1,"user_likes":false},"835729763110369":{"id":"835729763110369","from":{"id":"100001416272263","name":"Mai PB"},"message":"Takai Masahiroさん、上のベトナム語のコメントは関係ない内容なので、気にしないでください。東京にある大学と東京大学の混乱でした。^^","message_tags":[{"id":"100005922909956","name":"Takai Masahiro","type":"user","offset":0,"length":14}],"can_remove":false,"created_time":"2014-03-19T04:23:46+0000","like_count":0,"user_likes":false},"835729953110350":{"id":"835729953110350","from":{"id":"100004917425745","name":"Nhân Tâm"},"message":"Where r u from ?? :)","can_remove":false,"created_time":"2014-03-19T04:24:33+0000","like_count":0,"user_likes":false},"835731083110237":{"id":"835731083110237","from":{"id":"100005922909956","name":"Takai  Masahiro"},"message":"I live in tokyo. Setagaya pref.","can_remove":false,"created_time":"2014-03-19T04:28:07+0000","like_count":0,"user_likes":false},"835731399776872":{"id":"835731399776872","from":{"id":"100004917425745","name":"Nhân Tâm"},"message":"ya, u r japanese? or another?","can_remove":false,"created_time":"2014-03-19T04:29:12+0000","like_count":0,"user_likes":false},"835731486443530":{"id":"835731486443530","from":{"id":"100005922909956","name":"Takai  Masahiro"},"message":"Maiさん、日本語 上手いですね。ぼくもベトナム語を学びたい。ベトナム語を教えてくれますか？","can_remove":false,"created_time":"2014-03-19T04:29:29+0000","like_count":4,"user_likes":false},"835731669776845":{"id":"835731669776845","from":{"id":"100000198219367","name":"Chang Jiang"},"message":"Takai Masahiro　東大の学生に感心します。　:p","message_tags":[{"id":"100005922909956","name":"Takai Masahiro","type":"user","offset":0,"length":14}],"can_remove":false,"created_time":"2014-03-19T04:29:58+0000","like_count":0,"user_likes":false},"835732983110047":{"id":"835732983110047","from":{"id":"100001189795272","name":"Xuân Dũng Vũ"},"message":"Takai Masahiro san. Welcome to our group! I hope that u will feel comfortable after joining with us. :)","message_tags":[{"id":"100005922909956","name":"Takai Masahiro","type":"user","offset":0,"length":14}],"can_remove":false,"created_time":"2014-03-19T04:35:12+0000","like_count":0,"user_likes":false},"835733006443378":{"id":"835733006443378","from":{"id":"100005922909956","name":"Takai  Masahiro"},"message":"thank you nagami , but there are more excellent universities in the world, I want to go to Vietnamese University.","can_remove":false,"created_time":"2014-03-19T04:35:18+0000","like_count":4,"user_likes":false},"835735809776431":{"id":"835735809776431","from":{"id":"100001189795272","name":"Xuân Dũng Vũ"},"message":"The more Japanese people come here, the more we know clearly each other( i mean the culture and lifestyle) :)","can_remove":false,"created_time":"2014-03-19T04:44:13+0000","like_count":0,"user_likes":false},"835736459776366":{"id":"835736459776366","from":{"id":"1146680551","name":"優しい なぁ"},"message":"ベトナム語が超難しいよ。（＾Ｏ＾）","can_remove":false,"created_time":"2014-03-19T04:46:36+0000","like_count":2,"user_likes":false},"835736806442998":{"id":"835736806442998","from":{"id":"100000198219367","name":"Chang Jiang"},"message":"実際に、東大はアジアで一番の大学ですよ　:D","can_remove":false,"created_time":"2014-03-19T04:47:54+0000","like_count":1,"user_likes":false},"835737733109572":{"id":"835737733109572","from":{"id":"100001316149610","name":"Ô Mai Chua"},"message":"nihongo o benkyo shimasu. demo korewa muzukashi gengodesu. tasukete  kuremasuka? gambarimasu!!!","can_remove":false,"created_time":"2014-03-19T04:51:05+0000","like_count":1,"user_likes":false},"835740486442630":{"id":"835740486442630","from":{"id":"100001359798024","name":"November Gi"},"message":"優しいなぁ:   ベトナム語の勉強は超難しいと言われているけれども、東大の人間には無理なことではないでしょう。^_^\n\nさて、宜しく！Takai  Masahiroさん。","message_tags":[{"id":"100005922909956","name":"Takai  Masahiro","type":"user","offset":67,"length":15}],"can_remove":false,"created_time":"2014-03-19T05:02:03+0000","like_count":6,"user_likes":false},"835742573109088":{"id":"835742573109088","from":{"id":"100003077002305","name":"Pha Le"},"message":"日本語の方 難しいと思います。 ^^","can_remove":false,"created_time":"2014-03-19T05:10:34+0000","like_count":0,"user_likes":false},"835756593107686":{"id":"835756593107686","from":{"id":"100000198219367","name":"Chang Jiang"},"message":"私たちはベトナム人からですね　Pha Le ;))","message_tags":[{"id":"100003077002305","name":"Pha Le","type":"user","offset":15,"length":6}],"can_remove":false,"created_time":"2014-03-19T05:42:10+0000","like_count":1,"user_likes":false},"835756756441003":{"id":"835756756441003","from":{"id":"570109573","name":"Mai Le Minh Tuyen"},"message":"Hi Takai, have you ever been to Vietnam b4?? Nice to meet you by the way ;)","can_remove":false,"created_time":"2014-03-19T05:42:43+0000","like_count":0,"user_likes":false},"835784683104877":{"id":"835784683104877","from":{"id":"100004528082100","name":"フン グェン"},"message":"かんじがわかりません。","can_remove":false,"created_time":"2014-03-19T07:10:17+0000","like_count":1,"user_likes":false},"835803479769664":{"id":"835803479769664","from":{"id":"100000500260636","name":"Lưu Nguyễn Thảo Tiên"},"message":"なぜベトナムが好きですか。","can_remove":false,"created_time":"2014-03-19T08:27:25+0000","like_count":2,"user_likes":false},"835806119769400":{"id":"835806119769400","from":{"id":"100002667117211","name":"Nguyễn Cường"},"message":"実はベトナムの女性がきれいだよ?","can_remove":false,"created_time":"2014-03-19T08:36:05+0000","like_count":3,"user_likes":false},"835809773102368":{"id":"835809773102368","from":{"id":"1146680551","name":"優しい なぁ"},"message":"別に（＾Ｏ＾）","can_remove":false,"created_time":"2014-03-19T08:50:18+0000","like_count":1,"user_likes":false},"835811873102158":{"id":"835811873102158","from":{"id":"100000381394367","name":"Thành Nguyễn"},"message":"My message for you is \"You are always welcome here from now on\" :D","can_remove":false,"created_time":"2014-03-19T08:57:41+0000","like_count":3,"user_likes":false},"835829719767040":{"id":"835829719767040","from":{"id":"100002333971123","name":"Tran Cong"},"message":"初めまして。^ ^ 僕はチャンと申します。日本語が好きです。けれどもまだ上手く話せないですが。","can_remove":false,"created_time":"2014-03-19T09:55:23+0000","like_count":2,"user_likes":false},"836108449739167":{"id":"836108449739167","from":{"id":"100001838439311","name":"Nhung Lopj"},"message":"welcome u !!","can_remove":false,"created_time":"2014-03-19T19:57:23+0000","like_count":2,"user_likes":false},"836265146390164":{"id":"836265146390164","from":{"id":"100000181274274","name":"Hằng Lưu"},"message":"私はハンです。ハイフォンに住んでいます。よろしくお願いします。日本の文化が好きですよ。あなたは日本の文化を教えてくださいね。","can_remove":false,"created_time":"2014-03-20T02:08:21+0000","like_count":4,"user_likes":false},"839170902766255":{"id":"839170902766255","from":{"id":"100005922909956","name":"Takai  Masahiro"},"message":"hello! many messages make me happy,thank you.","can_remove":false,"created_time":"2014-03-25T02:19:36+0000","like_count":1,"user_likes":false},"839200456096633":{"id":"839200456096633","from":{"id":"100004307084578","name":"Megurin  Kanzaki"},"message":"日本脱出しようよ！let us go abroad.","can_remove":false,"created_time":"2014-03-25T03:18:40+0000","like_count":1,"user_likes":false},"839328726083806":{"id":"839328726083806","from":{"id":"100004528082100","name":"フン グェン"},"message":"We always receive you","can_remove":false,"created_time":"2014-03-25T09:47:27+0000","like_count":1,"user_likes":false}},"paging":{"cursors":{"after":"ODM1NzIxNzc5Nzc3ODM0","before":"ODM1NzIxNzc5Nzc3ODM0"},"next":"https://graph.facebook.com/229244010425617_835718083111537/comments?limit=1&summary=1&after=ODM1NzIxNzc5Nzc3ODM0"},"summary":{"order":"chronological","total_count":40}}}