{"id":"229244010425617_836920019658010","type":"status","from":{"id":"100004514616148","name":"Thế Anh"},"message":"Chào mọi người , em là thành viên mới. Tháng 10 này em dự định sẽ đi du học Nhật Bản nên em rất  mong được làm quen với mọi người. Có gì anh chị chỉ bảo giúp em .","created_time":"2014-03-21T08:31:42+0000","updated_time":"2014-03-27T05:11:45+0000","likes":{"data":{"100004095877200":{"id":"100004095877200","name":"Một Lần Để Yêu"},"100004445826984":{"id":"100004445826984","name":"Ong Noi Viet"},"100007880444320":{"id":"100007880444320","name":"自由"},"100003031158210":{"id":"100003031158210","name":"Mạnh Linh"},"100005250242073":{"id":"100005250242073","name":"藤 の花"},"100005891501510":{"id":"100005891501510","name":"Nhóc À Kim"},"100007238765021":{"id":"100007238765021","name":"Vy Nhí Nhảnh"},"100006734168968":{"id":"100006734168968","name":"Tiểu Nhân Mã"},"100006450671569":{"id":"100006450671569","name":"Sayonara Sukina Hito"},"100004271412499":{"id":"100004271412499","name":"Vũ Nghĩa"},"100003301481599":{"id":"100003301481599","name":"Thành Công Nguyễn"},"100003747827381":{"id":"100003747827381","name":"Dấu Chấm Hết"},"100005451973281":{"id":"100005451973281","name":"Chong Chóng Gỗ"}},"paging":{"cursors":{"after":"MTAwMDA0MDk1ODc3MjAw","before":"MTAwMDA0MDk1ODc3MjAw"},"next":"https://graph.facebook.com/229244010425617_836920019658010/likes?limit=1&summary=1&after=MTAwMDA0MDk1ODc3MjAw"},"summary":{"total_count":13}},"comments":{"data":{"836925752990770":{"id":"836925752990770","from":{"id":"100004514616148","name":"Thế Anh"},"message":"Em thích con ng và đất nước Nhật Bản. \nVề bản thân em chỉ có nền tảng thể lực, tính kiên trì , cần cù. Còn về tiếng thì em đang cố gắng học. :3","can_remove":false,"created_time":"2014-03-21T08:53:41+0000","like_count":3,"user_likes":false},"836926912990654":{"id":"836926912990654","from":{"id":"100005634488818","name":"Mỹ Thuận"},"message":"co len ban","can_remove":false,"created_time":"2014-03-21T08:59:38+0000","like_count":1,"user_likes":false},"836928022990543":{"id":"836928022990543","from":{"id":"100004271412499","name":"Vũ Nghĩa"},"message":"mình cũng có ước mơ sang nhật bản,mà dạo này thấy toàn video zs tin tức liên quan đến người việt ăn trộm đồ,thấy buồn quá,k biết cứ tình trạng này tiếp diễn thì k bjk tới khj mình qua nhật thì người ta có coi mình ra cài j không nữa,1 nỗi buồn :(","can_remove":false,"created_time":"2014-03-21T09:03:48+0000","like_count":0,"user_likes":false},"836928789657133":{"id":"836928789657133","from":{"id":"100004514616148","name":"Thế Anh"},"message":"Mình cũng lo. Nhưng mà mình nghĩ người Nhật sẽ không cho rằng tất cả người Việt đều giống lũ ăn cắp, đá đồ kia. Mình cứ chứng tỏ mình thôi","can_remove":false,"created_time":"2014-03-21T09:06:47+0000","like_count":0,"user_likes":false},"836940752989270":{"id":"836940752989270","from":{"id":"100002667117211","name":"Nguyễn Cường"},"message":"Mấy cậu hỏi cậu ấy như mấy a tư vấn du học ấy nhỉ!!\nAnh sẽ biến ước mơ thành hiện thực!!","can_remove":false,"created_time":"2014-03-21T09:37:01+0000","like_count":0,"user_likes":false},"836943066322372":{"id":"836943066322372","from":{"id":"100004271412499","name":"Vũ Nghĩa"},"message":"bây h nạn ăn cắp vặt của VN đag lan rộng,kiur này sang nhật mình sẽ bị khinh mất thôi.hic","can_remove":false,"created_time":"2014-03-21T09:38:28+0000","like_count":0,"user_likes":false},"836988509651161":{"id":"836988509651161","from":{"id":"100001546837960","name":"Chung Goldstar"},"message":"Chào mừng em tham gia cộng đồng Việt Nhật. Em cần tìm hiểu và băn khoăn bất cứ vấn đề gì về du học mọi người sẽ tư vấn cho em.","can_remove":false,"created_time":"2014-03-21T11:36:01+0000","like_count":1,"user_likes":false},"837118139638198":{"id":"837118139638198","from":{"id":"100004454232040","name":"Ngựa BAy"},"message":"Tiếng nhật khó à học trước quên sau chán quá mấy bác à","can_remove":false,"created_time":"2014-03-21T16:02:29+0000","like_count":0,"user_likes":false},"837164949633517":{"id":"837164949633517","from":{"id":"100002940938517","name":"Nhung Heo"},"message":"Pạn đi du học hay đi lm vậy Thế Anh","can_remove":false,"created_time":"2014-03-21T18:07:47+0000","like_count":0,"user_likes":false},"837278019622210":{"id":"837278019622210","from":{"id":"100004514616148","name":"Thế Anh"},"message":"Nhung Heo mình đi học\nChung Goldstar tks anh","message_tags":[{"id":"100002940938517","name":"Nhung Heo","type":"user","offset":0,"length":9},{"id":"100001546837960","name":"Chung Goldstar","type":"user","offset":22,"length":14}],"can_remove":false,"created_time":"2014-03-21T23:19:40+0000","like_count":0,"user_likes":false},"840169539333058":{"id":"840169539333058","from":{"id":"100002940938517","name":"Nhung Heo"},"message":"Học trường j ,vùng nào thế Thế Anh","can_remove":false,"created_time":"2014-03-26T20:51:11+0000","like_count":0,"user_likes":false},"840184202664925":{"id":"840184202664925","from":{"id":"100004514616148","name":"Thế Anh"},"message":"Mình cũng chưa biết nên xin học ở đâu","can_remove":false,"created_time":"2014-03-26T21:33:02+0000","like_count":0,"user_likes":false},"840351475981531":{"id":"840351475981531","from":{"id":"100002940938517","name":"Nhung Heo"},"message":"Thế vẫn chưa nộp hồ sơ đi học vào 1 cty nào ak p","can_remove":false,"created_time":"2014-03-27T05:11:45+0000","like_count":0,"user_likes":false}},"paging":{"cursors":{"after":"ODM2OTI1NzUyOTkwNzcw","before":"ODM2OTI1NzUyOTkwNzcw"},"next":"https://graph.facebook.com/229244010425617_836920019658010/comments?limit=1&summary=1&after=ODM2OTI1NzUyOTkwNzcw"},"summary":{"order":"chronological","total_count":13}}}