{"id":"229244010425617_836957246320954","type":"status","from":{"id":"100002504921256","name":"Luke Nguyen"},"message":"Hi all,\n\nHiện tại mình muốn tìm danh sách những công ty của Nhật Bản đầu tư vào Vietnam. Xin hỏi trong group này ai có thông tin chính xác thì cho mình với.\n\nThanks.\nLuke","created_time":"2014-03-21T10:06:55+0000","updated_time":"2014-03-23T16:01:11+0000","likes":{"data":{"100002195604282":{"id":"100002195604282","name":"Mai Phương"},"100005912342526":{"id":"100005912342526","name":"Kenbi Ánh Tuyết"},"1202347915":{"id":"1202347915","name":"Map Hhc"},"100002853438802":{"id":"100002853438802","name":"Thanh Thu"},"100003634822576":{"id":"100003634822576","name":"Jessica Lam Phuong"}},"paging":{"cursors":{"after":"MTAwMDAyMTk1NjA0Mjgy","before":"MTAwMDAyMTk1NjA0Mjgy"},"next":"https://graph.facebook.com/229244010425617_836957246320954/likes?limit=1&summary=1&after=MTAwMDAyMTk1NjA0Mjgy"},"summary":{"total_count":5}},"comments":{"data":{"836980072985338":{"id":"836980072985338","from":{"id":"620066722","name":"Dong Khac Thai"},"message":"Theo JETRO thì 4/2013 hiện có 1,077 công ty Nhật tại VN https://www.jetro.go.jp/world/asia/vn/basic_01/  \n\n Trong đó \n\n・ Miền Bắc: 449 cty, có danh sách http://jbav.vn/index.php/jbav-overview/list-of-members\n\n・Miền Trung: 57 cty (mình kiếm o thấy danh sách)\n\n ・Miền Nam: 571 cty, chỉ có danh sách tháng 1/2012 http://www.jbah.info.vn/data/download/jbah_2011/p.49-75.pdf trang 64","can_remove":false,"created_time":"2014-03-21T11:06:32+0000","like_count":7,"user_likes":false},"836986549651357":{"id":"836986549651357","from":{"id":"100002504921256","name":"Luke Nguyen"},"message":"Quá đã !!! Thanks bác","can_remove":false,"created_time":"2014-03-21T11:28:04+0000","like_count":1,"user_likes":false},"837151066301572":{"id":"837151066301572","from":{"id":"100000382278651","name":"Thanh Huyen"},"message":"Taiyo Consultants Co., Big Win Co. Ltd., Javitechs Co.,\n\nTập đoàn Ajinomoto - Nhật Bản\n\nCty huu han NIPPON KOEI - Nhật Bản\n\nSummavina Investments Pte.Ltd. - Nhật Bản\n\nKitoku Co. Ltd., Nhật Bản\n\nCty Kimono Daigaku - Nhật bản\n\nCty Apex international Inc - Nhật Bản\n\nHeisei Construction Co.Ltd.,Hasebe Corp. Nhật Bản\n\nJapan Vietnam Petroleum Co.Ltd(Japan),Conoco(Anh)\n\nPacific Consultants International (PCI), Nhật\n\nSumitomo-Nhật,Sumitomo-Singapore,Tego-Malaysia\n\nCofectionery Kotobuki và Kotobuki Holding-Nhật\n\nMeiwa Industries Co.Ltd. Japan\n\nKotobuki Foods Co.Ltd,Sugitani Co.,Ltd, Nhật Bản\n\nYukio Kitamura-Nhật\n\nCty Nissho-Iwai, Japan\n\nCty Kyoto Terada Ltd.Japan\n\nTohkemy Corporation - Japan\n\nTaisei Corporation-Japan\n\nSeung Chung q/tịch Hàn quốc, Nhật\n\nKotobuki Holding Co.,Ltd., Nhật bản\n\nHattori Tsuneco, Nhật\n\nCty AC Real Estate Cor., Nhật bản\n\nCty Ace-Cook,Cty Marubenni-Nhật Bản\n\nCty Kotobuki Holding Ltd. Nhật bản\n\nImprove Co., Ltd. - Nhật Bản\n\nCác cty Kyoei, Mitsui và Itochu, Nhật bản\n\nCty Precious Viêtnam -Nhật\n\nMitsubishi Motors Corp,Mitsubishi Corp, Proton\n\nMetran Medical Instrument (Nhật)\n\nCty Sanei Take Care Co.Ltd., Nhật\n\nCty TNHH Yamachi Sangyo, Nhật\n\nToyota Tsusho Corporation, Nhật bản\n\nNeedlesharp Co.,Ltd.Nhật\n\nTacmic SP (NB), Sumitomo (Sing) và Sumitomo (NB)\n\nBest Products Corporation Ltd., Nhật bản\n\nHisamitsu Pharmaceutical Co.,Inc, Nhật bản\n\nEverton Corporation và ựng Morio Kato, Nhật bản\n\nLogitem International Corp., Nhật","can_remove":false,"created_time":"2014-03-21T17:32:25+0000","like_count":0,"user_likes":false},"837402192943126":{"id":"837402192943126","from":{"id":"100002504921256","name":"Luke Nguyen"},"message":"Nguồn này lấy ở đâu vậy bạn Thanh Huyen? Xin cái link với. Thanks","message_tags":[{"id":"100000382278651","name":"Thanh Huyen","type":"user","offset":28,"length":11}],"can_remove":false,"created_time":"2014-03-22T04:38:34+0000","like_count":0,"user_likes":false},"837409279609084":{"id":"837409279609084","from":{"id":"100000382278651","name":"Thanh Huyen"},"message":"http://nhatban.net.vn/cam-nang/503-danh-sach-cac-cong-ty-cua-nhat-tai-viet-nam.html","can_remove":false,"created_time":"2014-03-22T04:57:15+0000","like_count":1,"user_likes":false},"837409332942412":{"id":"837409332942412","from":{"id":"100000382278651","name":"Thanh Huyen"},"message":"Kink ne ban","can_remove":false,"created_time":"2014-03-22T04:57:44+0000","like_count":0,"user_likes":false},"837410162942329":{"id":"837410162942329","from":{"id":"100000382278651","name":"Thanh Huyen"},"message":"Link","can_remove":false,"created_time":"2014-03-22T05:01:09+0000","like_count":0,"user_likes":false},"837413739608638":{"id":"837413739608638","from":{"id":"100002504921256","name":"Luke Nguyen"},"message":"Mình cám ơn Thanh Huyen","message_tags":[{"id":"100000382278651","name":"Thanh Huyen","type":"user","offset":12,"length":11}],"can_remove":false,"created_time":"2014-03-22T05:15:57+0000","like_count":0,"user_likes":false},"837477829602229":{"id":"837477829602229","from":{"id":"100007224491761","name":"Nguyễn Thành Nam"},"message":"JAV","can_remove":false,"created_time":"2014-03-22T09:13:03+0000","like_count":0,"user_likes":false},"837595796257099":{"id":"837595796257099","from":{"id":"100002504921256","name":"Luke Nguyen"},"message":"Chào các bạn,\n\nMình đang muốn tìm danh sách các công ty thành viên của các hiệp hội (Association) ở Nhật Bản. Cụ thể là các hiệp hội trong các lĩnh vực sau:\n\n- Automotive (Cơ giới Ô tô)\n- Consumer Products (Sản phẩm tiêu dùng)\n- Food & Beverage (Thực phẩm và đồ uống)\n- High Tech (Công nghệ cao)\n- Industrial Products (Sản phẩm công nghiệp)\n- Life Science (Khoa học đời sống)\n\nBạn nào có thông tin gì giúp mình với.\nThanks all.","can_remove":false,"created_time":"2014-03-22T14:35:18+0000","like_count":0,"user_likes":false},"837596496257029":{"id":"837596496257029","from":{"id":"620066722","name":"Dong Khac Thai"},"message":"Mình mới thấy ô tô http://www.jama-english.jp/about/member.html","can_remove":false,"created_time":"2014-03-22T14:36:59+0000","like_count":0,"user_likes":false},"837612012922144":{"id":"837612012922144","from":{"id":"1250063068","name":"Tuấn Tử Tế"},"message":"Ở nhật họ có bán sách đấy. cả quyển dầy mấy trăm trang luôn. Toàn tên công ty!","can_remove":false,"created_time":"2014-03-22T15:10:08+0000","like_count":1,"user_likes":false},"838276696189009":{"id":"838276696189009","from":{"id":"706746330","name":"Nguyen Binh Khiem"},"message":"Không cần mua. Có thể lên thư viện của JETRO mà đọc, nếu cần thì dùng dịch vụ photo ở đấy để cóp lại các trang quan trọng.","can_remove":false,"created_time":"2014-03-23T16:01:11+0000","like_count":0,"user_likes":false}},"paging":{"cursors":{"after":"ODM2OTgwMDcyOTg1MzM4","before":"ODM2OTgwMDcyOTg1MzM4"},"next":"https://graph.facebook.com/229244010425617_836957246320954/comments?limit=1&summary=1&after=ODM2OTgwMDcyOTg1MzM4"},"summary":{"order":"chronological","total_count":13}}}