{"id":"229244010425617_837056059644406","type":"status","from":{"id":"100002966928087","name":"Nguyen van Dat"},"message":"hôm nay mới gặp trường hợp này\n1 ông người lào lấy hoa quả ăn trước nhà người nhật,người nhật họ thấy nhưng không nói gì,nhưng sáng  mai họ mang dao ra chặt cái cây cam đó luôn.mình cũng khá sốc có ai gặp trường hợp này chưa.\"v","created_time":"2014-03-21T14:27:53+0000","updated_time":"2014-03-22T14:56:54+0000","likes":{"data":{"100002793054191":{"id":"100002793054191","name":"Lai Vuong"},"100005250991724":{"id":"100005250991724","name":"Ngô Thị Ái"},"100000045271667":{"id":"100000045271667","name":"Nam Thai Nguyen"},"100000096796270":{"id":"100000096796270","name":"Phank Phank"},"100001260645727":{"id":"100001260645727","name":"Ngo Duy Son"},"100002446120607":{"id":"100002446120607","name":"Hoanhuy Luu"},"569263718":{"id":"569263718","name":"Phuong Thao Tran"},"100000844467820":{"id":"100000844467820","name":"Trịnh Minh Hùng"},"100004982014580":{"id":"100004982014580","name":"Kun Kun"},"100003819126368":{"id":"100003819126368","name":"Heo Con"},"100005529851429":{"id":"100005529851429","name":"Nguyen Khuyen"},"100003977703228":{"id":"100003977703228","name":"Ki Yu"},"100004450956167":{"id":"100004450956167","name":"Thắng Satoh"},"100005353232605":{"id":"100005353232605","name":"Eva Nguyen"},"100003082343329":{"id":"100003082343329","name":"Ta Ke"},"100004130040080":{"id":"100004130040080","name":"Trường"},"100007390502512":{"id":"100007390502512","name":"Hoa Ban Mai"},"100003092013826":{"id":"100003092013826","name":"Voi Beo"},"100001465163267":{"id":"100001465163267","name":"Bùi Việt"},"100003032663784":{"id":"100003032663784","name":"Vượt Qua Thử Thách"},"100003099454910":{"id":"100003099454910","name":"Bac Ngo Duc"},"100006926410886":{"id":"100006926410886","name":"Nguyet Nguyen"},"100005170087732":{"id":"100005170087732","name":"Hien Tran"},"100004908941067":{"id":"100004908941067","name":"Cử Cơ"},"100004076436659":{"id":"100004076436659","name":"Lương Việt Bắc"},"100007778644644":{"id":"100007778644644","name":"Anh Hoàng"},"100007903567494":{"id":"100007903567494","name":"ベトナムの ビュイ"},"100000489372404":{"id":"100000489372404","name":"Phúc Bồ"},"100003376508093":{"id":"100003376508093","name":"Đỗ Thùy Trang"},"100002974494529":{"id":"100002974494529","name":"Bao Ngoc Ho"},"100007066988314":{"id":"100007066988314","name":"Viet Tran"},"100002985743170":{"id":"100002985743170","name":"Hoai Pham Thi"},"100003188540285":{"id":"100003188540285","name":"Đầu Gấu Xấu Trai"},"100004490496995":{"id":"100004490496995","name":"Rai Chamu"},"100006615153473":{"id":"100006615153473","name":"Ngọc Chíp"},"100001204257174":{"id":"100001204257174","name":"Nguyễn Hiền Giang"},"100004532889442":{"id":"100004532889442","name":"Lananh Trần"},"100001880901011":{"id":"100001880901011","name":"Số Không"},"100007293188338":{"id":"100007293188338","name":"Dương Lê"},"100002615664668":{"id":"100002615664668","name":"PuPu Phương Elf"},"100000271705877":{"id":"100000271705877","name":"Nguyễn Văn Minh"},"100004445826984":{"id":"100004445826984","name":"Ong Noi Viet"},"100001432462223":{"id":"100001432462223","name":"Truong Nguyen"},"1316836618":{"id":"1316836618","name":"Diep Quynh Nhu"},"100003623410782":{"id":"100003623410782","name":"Conan Shinichi"},"100002375344981":{"id":"100002375344981","name":"Trung Tran"},"100003228724188":{"id":"100003228724188","name":"記念"},"100000802726177":{"id":"100000802726177","name":"Pemeo Locnhoc"},"100003820571177":{"id":"100003820571177","name":"Tạ Luận"},"100004378412241":{"id":"100004378412241","name":"Phong Ngok"},"100001747695817":{"id":"100001747695817","name":"Khanh Trang"},"100000154325668":{"id":"100000154325668","name":"Lam Buong Binh"},"100000177841596":{"id":"100000177841596","name":"Xelena Sanyo"},"100001532064907":{"id":"100001532064907","name":"Linh Giang"},"100004877281136":{"id":"100004877281136","name":"Yuki Ori"},"100003069246142":{"id":"100003069246142","name":"Hồng Trịnh"},"100005121093576":{"id":"100005121093576","name":"Hao Hao"},"100003980539139":{"id":"100003980539139","name":"Luuly Tran"},"100000209556833":{"id":"100000209556833","name":"Ngô Hùng"},"100003251535569":{"id":"100003251535569","name":"Long Di"},"100005308895955":{"id":"100005308895955","name":"Jimmy Hip Nguyen"},"100005211189763":{"id":"100005211189763","name":"Oliveu Cchann"},"100003147198530":{"id":"100003147198530","name":"Minh Thuận"},"100001149552981":{"id":"100001149552981","name":"Hà Ngọc Hiếu"},"100003066508559":{"id":"100003066508559","name":"Chung ZunZin"},"1821970083":{"id":"1821970083","name":"Nguyễn Mạnh Cường"},"100007930417031":{"id":"100007930417031","name":"Trang Yamato"},"100003322232741":{"id":"100003322232741","name":"Huấn Nguyễn"},"100004973283998":{"id":"100004973283998","name":"Hoai Dang"},"100003738128453":{"id":"100003738128453","name":"Hoa Oải Hương"},"100002327089512":{"id":"100002327089512","name":"Lộc Nguyễn"},"100000110765909":{"id":"100000110765909","name":"Thảo Nguyễn"},"100001311893008":{"id":"100001311893008","name":"Nguyen Minh"},"100004084175316":{"id":"100004084175316","name":"Xuyen Pham"},"100001854529119":{"id":"100001854529119","name":"Trọng Phillips"},"100000710451335":{"id":"100000710451335","name":"Thiều Hoa"},"100005888881007":{"id":"100005888881007","name":"Phiếu Kòi"},"1198513604":{"id":"1198513604","name":"Chiên Phạm"},"100004738442662":{"id":"100004738442662","name":"Nguyen Haiyen"},"100002907830115":{"id":"100002907830115","name":"NgàyXưa Mình NgoanLắm"},"1416265619":{"id":"1416265619","name":"Starwar Bbj"},"100004145553656":{"id":"100004145553656","name":"Thu Dung"},"100001458099624":{"id":"100001458099624","name":"Kham Pha"},"100004249722210":{"id":"100004249722210","name":"Lật Đật"},"100003560030685":{"id":"100003560030685","name":"Ngo Thanh"},"100004650873179":{"id":"100004650873179","name":"Hàn Tâm"},"100002823739664":{"id":"100002823739664","name":"Mikarin Yamada"},"100001786404410":{"id":"100001786404410","name":"Huệ Nguyễn"},"100005368686173":{"id":"100005368686173","name":"Hùng Nguyễn"},"100003732529410":{"id":"100003732529410","name":"Huong Dang"},"100004075308762":{"id":"100004075308762","name":"Lie Lie"},"100004479253002":{"id":"100004479253002","name":"Nguyen Huong"},"100003929334541":{"id":"100003929334541","name":"Nguyễn Trung"},"100000265363169":{"id":"100000265363169","name":"Mít Sờ Kul"},"100000427247946":{"id":"100000427247946","name":"Phuong Lan"},"100006111728204":{"id":"100006111728204","name":"La Ka Ta Tu"},"100006734168968":{"id":"100006734168968","name":"Tiểu Nhân Mã"},"100000083087770":{"id":"100000083087770","name":"Van Dien Kieu"},"100003474980811":{"id":"100003474980811","name":"Bitter Coffee"},"100004754173890":{"id":"100004754173890","name":"像 ベトナム"},"100006496937937":{"id":"100006496937937","name":"Nhung Nguyen"},"100003105034037":{"id":"100003105034037","name":"Pham Oanh"},"100002549676460":{"id":"100002549676460","name":"Vudinh Phu"},"100001057467030":{"id":"100001057467030","name":"Buông Tay"},"100002386301123":{"id":"100002386301123","name":"Chuồnchuồn Tronggió"},"100004332271111":{"id":"100004332271111","name":"Rainbow Smile"},"100004371458308":{"id":"100004371458308","name":"Huynh Hong Nhung"},"100005110320614":{"id":"100005110320614","name":"Hà Linh"},"100004234301106":{"id":"100004234301106","name":"Hà Kawaii"},"100004221217565":{"id":"100004221217565","name":"Kun Bear"},"100001636105083":{"id":"100001636105083","name":"Zdungx Dũng"},"100004128252349":{"id":"100004128252349","name":"Vô Ưu"},"100002965859167":{"id":"100002965859167","name":"Nguyễn Thanh Hải"},"100002099663057":{"id":"100002099663057","name":"Diep Nguyen"},"100004134600593":{"id":"100004134600593","name":"Kien Pham"},"100006865964549":{"id":"100006865964549","name":"Vâng Em Đểu"},"100004101038669":{"id":"100004101038669","name":"Oanh Inoshishi"},"100004079425105":{"id":"100004079425105","name":"Nhớ Đó Nha"},"100003966455899":{"id":"100003966455899","name":"Sóc Nhí"},"100005073001419":{"id":"100005073001419","name":"An Chelsea"},"100003800328678":{"id":"100003800328678","name":"Takahashi Phan"},"100004516123903":{"id":"100004516123903","name":"Tien Nguyen"},"100005627101557":{"id":"100005627101557","name":"Tuyen Bui"},"100005436431918":{"id":"100005436431918","name":"Camel Nguyen"},"100005855053978":{"id":"100005855053978","name":"Tiền Là Quyền"},"100005680182869":{"id":"100005680182869","name":"Tieu Thu Ho Dang"},"100004374030406":{"id":"100004374030406","name":"Chính Nôbita"},"100001718995560":{"id":"100001718995560","name":"Hung Tran Tri"},"100006830793670":{"id":"100006830793670","name":"Hỏi Làm Chi"},"100002569195083":{"id":"100002569195083","name":"Tiến Thông Thái"},"100000408501606":{"id":"100000408501606","name":"Quang Kevin"},"100003825210456":{"id":"100003825210456","name":"Minh Hoang"},"100003959707058":{"id":"100003959707058","name":"Hồng Nhung"},"100004559737209":{"id":"100004559737209","name":"Long Thieu Gia"},"100003272293668":{"id":"100003272293668","name":"Star Light"},"100004465472164":{"id":"100004465472164","name":"Víp Nhất Xóm"},"100005903373573":{"id":"100005903373573","name":"HaLinh Phong Phan"},"100002966928087":{"id":"100002966928087","name":"Nguyen van Dat"},"100001824172942":{"id":"100001824172942","name":"Phan Van"},"100004039227368":{"id":"100004039227368","name":"Phạm Quốc Tuấn"},"100002531562253":{"id":"100002531562253","name":"Tuyet Nguyen"},"100004713300437":{"id":"100004713300437","name":"Hung Le"}},"paging":{"cursors":{"after":"MTAwMDAyNzkzMDU0MTkx","before":"MTAwMDAyNzkzMDU0MTkx"},"next":"https://graph.facebook.com/229244010425617_837056059644406/likes?limit=1&summary=1&after=MTAwMDAyNzkzMDU0MTkx"},"summary":{"total_count":145}},"comments":{"data":{"837057762977569":{"id":"837057762977569","from":{"id":"100002966928087","name":"Nguyen van Dat"},"message":"vậy à,hi","can_remove":false,"created_time":"2014-03-21T14:30:58+0000","like_count":0,"user_likes":false},"837057792977566":{"id":"837057792977566","from":{"id":"100002531562253","name":"Tuyet Nguyen"},"message":"Chuyen bt ma ban...minh gap may lan roi.","can_remove":false,"created_time":"2014-03-21T14:31:02+0000","like_count":1,"user_likes":false},"837058186310860":{"id":"837058186310860","from":{"id":"100004390542022","name":"Hiếu Saker"},"message":"Cây hồng trc nhà toi là 1 ví dụ như vậy","can_remove":false,"created_time":"2014-03-21T14:31:59+0000","like_count":2,"user_likes":false},"837058536310825":{"id":"837058536310825","from":{"id":"100002966928087","name":"Nguyen van Dat"},"message":"vãi ông Hiếu Saker lại trộm à","message_tags":[{"id":"100004390542022","name":"Hiếu Saker","type":"user","offset":8,"length":10}],"can_remove":false,"created_time":"2014-03-21T14:32:39+0000","like_count":0,"user_likes":false},"837060196310659":{"id":"837060196310659","from":{"id":"100001744546054","name":"Quân Dương"},"message":"vì họ sợ ng kia bị bệnh rồi liên luỵ đến họ nên họ ko muốn bị liên luỵ đó . Ng Nhật sợ bị bênh vì hoa quả đó chưa qua kiểm duyệt nên ng ta ko bao h ăn cho dù nhìn có ngon đến đâu","can_remove":false,"created_time":"2014-03-21T14:33:27+0000","like_count":2,"user_likes":false},"837060229643989":{"id":"837060229643989","from":{"id":"100005903373573","name":"HaLinh Phong Phan"},"message":"Cũng nghe kể nhiều rùi.nhưng sao ngta lại thế nhỉ","can_remove":false,"created_time":"2014-03-21T14:33:27+0000","like_count":0,"user_likes":false},"837061366310542":{"id":"837061366310542","from":{"id":"100004390542022","name":"Hiếu Saker"},"message":"K n khác lấy hsau còn độc gốc","can_remove":false,"created_time":"2014-03-21T14:33:44+0000","like_count":1,"user_likes":false},"837061422977203":{"id":"837061422977203","from":{"id":"100006337933726","name":"Lê Nam"},"message":"nhật bổn khác biệt quá nhỉ","can_remove":false,"created_time":"2014-03-21T14:33:55+0000","like_count":0,"user_likes":false},"837061439643868":{"id":"837061439643868","from":{"id":"100000455388210","name":"Đức Trung Nguyễn"},"message":"Gặp nhiều rồi :))","can_remove":false,"created_time":"2014-03-21T14:33:59+0000","like_count":0,"user_likes":false},"837061769643835":{"id":"837061769643835","from":{"id":"100001416272263","name":"Mai PB"},"message":"Tiếng Việt yêu cầu tên riêng phải viết hoa.","can_remove":false,"created_time":"2014-03-21T14:34:48+0000","like_count":5,"user_likes":false},"837062059643806":{"id":"837062059643806","from":{"id":"100002966928087","name":"Nguyen van Dat"},"message":":v","can_remove":false,"created_time":"2014-03-21T14:35:21+0000","like_count":0,"user_likes":false},"837062156310463":{"id":"837062156310463","from":{"id":"1341670471","name":"An Nguyen"},"message":"Nghe kể có ng lấy dưa hấu ăn, qua hôm sau ng nhật đốt bỏ vườn dưa hấu. ( nghe kể nhưng k tin lắm, hnay thấy nhiều bạn nói việc bình thưởng nên có lẽ thiệt ) :)","can_remove":false,"created_time":"2014-03-21T14:35:34+0000","like_count":3,"user_likes":false},"837063416310337":{"id":"837063416310337","from":{"id":"100004390542022","name":"Hiếu Saker"},"message":"Kaka như này ma ở vnam thì....","can_remove":false,"created_time":"2014-03-21T14:37:54+0000","like_count":0,"user_likes":false},"837063422977003":{"id":"837063422977003","from":{"id":"100001646814780","name":"Nhật Dương"},"message":"kinh dị vậy.","can_remove":false,"created_time":"2014-03-21T14:38:00+0000","like_count":0,"user_likes":false},"837063616310317":{"id":"837063616310317","from":{"id":"100007224491761","name":"Nguyễn Thành Nam"},"message":"ai cho lí do đi? tò mò quá","can_remove":false,"created_time":"2014-03-21T14:38:34+0000","like_count":0,"user_likes":false},"837063772976968":{"id":"837063772976968","from":{"id":"100001744546054","name":"Quân Dương"},"message":"Lý do là sợ bị liên luỵ","can_remove":false,"created_time":"2014-03-21T14:39:13+0000","like_count":0,"user_likes":false},"837064242976921":{"id":"837064242976921","from":{"id":"100002966928087","name":"Nguyen van Dat"},"message":"theo mình biết thì người nhật họ nghĩ,nếu hôm nay lấy trộm quả cam,thì lần sau sẽ vào lấy tiêp,và sẽ trộm cái khác,nên diệt tận gốc bạn à","can_remove":false,"created_time":"2014-03-21T14:40:22+0000","like_count":10,"user_likes":false},"837064839643528":{"id":"837064839643528","from":{"id":"100002966928087","name":"Nguyen van Dat"},"message":"đã chỉnh sữa :v","can_remove":false,"created_time":"2014-03-21T14:41:49+0000","like_count":1,"user_likes":false},"837065426310136":{"id":"837065426310136","from":{"id":"1146680551","name":"優しい なぁ"},"message":"Vụ này vui thế mới nghe. Kể đầu đuôi xem nào :3","can_remove":false,"created_time":"2014-03-21T14:42:45+0000","like_count":0,"user_likes":false},"837065749643437":{"id":"837065749643437","from":{"id":"100003703581760","name":"Tra Sưa"},"message":"Minh kung nghe nhieu r. Thay bao la du qua ngon toi dau ma rung xuong dat kung k ai nhat. Ng nhat ho khinh cho","can_remove":false,"created_time":"2014-03-21T14:43:20+0000","like_count":0,"user_likes":false},"837066666310012":{"id":"837066666310012","from":{"id":"100002966928087","name":"Nguyen van Dat"},"message":"thì công ty mình có nhiều người nước ngoài,trên đường đi làm về,ông người lào hái quả cam trước nhà người nhật,người nhật nhìn thấy nhưng ko nói gì,sáng mai đi qua thấy cây cam chặt mất,và để nguyên cả cây ở đó","can_remove":false,"created_time":"2014-03-21T14:45:06+0000","like_count":2,"user_likes":false},"837067492976596":{"id":"837067492976596","from":{"id":"1146680551","name":"優しい なぁ"},"message":"Chứ không phải bác à :v hay mượn bác Lào kia :))","can_remove":false,"created_time":"2014-03-21T14:46:54+0000","like_count":5,"user_likes":false},"837068066309872":{"id":"837068066309872","from":{"id":"100006896502374","name":"Kantan Yo"},"message":"bt ma ... \nng ngat trong cay chi de lam canh .. ko an qua .. \nchi an hoa qua mua ngoai sieu thi ..","can_remove":false,"created_time":"2014-03-21T14:48:37+0000","like_count":2,"user_likes":false},"837068072976538":{"id":"837068072976538","from":{"id":"100002966928087","name":"Nguyen van Dat"},"message":":v","can_remove":false,"created_time":"2014-03-21T14:48:40+0000","like_count":0,"user_likes":false},"837068146309864":{"id":"837068146309864","from":{"id":"100002966928087","name":"Nguyen van Dat"},"message":"nói nhỏ thôi bạn cú","can_remove":false,"created_time":"2014-03-21T14:48:59+0000","like_count":1,"user_likes":false},"837068619643150":{"id":"837068619643150","from":{"id":"100004406108994","name":"Thu Hà"},"message":"Vì ng nhật k thích ai ăn cái gì nhà họ trồg....gặp nhà dễ tính xin họ còn cho vài quả, có nhà thà để thối gốc vứt đi chứ k cho....họ kũg k ăn nhữg kái trồg đc...đa phần để cho đẹp....trg hợp này chặt cây là đúg...may họ còn k chặt trc mặt","can_remove":false,"created_time":"2014-03-21T14:50:32+0000","like_count":1,"user_likes":false},"837068849643127":{"id":"837068849643127","from":{"id":"100006896502374","name":"Kantan Yo"},"message":"hoa qua do ko dc cham soc va kiem duyet chat luong len ho ko an ..","can_remove":false,"created_time":"2014-03-21T14:51:07+0000","like_count":0,"user_likes":false},"837069066309772":{"id":"837069066309772","from":{"id":"1146680551","name":"優しい なぁ"},"message":"Comment có dấu chung với mọi người cho zui đi bạn. Ai cũng cmt có dấu mà :3","can_remove":false,"created_time":"2014-03-21T14:51:43+0000","like_count":0,"user_likes":false},"837069379643074":{"id":"837069379643074","from":{"id":"100004406108994","name":"Thu Hà"},"message":"Sơ mình bị nhiễm bệnh","can_remove":false,"created_time":"2014-03-21T14:52:17+0000","like_count":0,"user_likes":false},"837069936309685":{"id":"837069936309685","from":{"id":"100004321117254","name":"Neko Kawaii"},"message":"họ cảnh cáo đấy: nếu mày mà còn tiếp tục chôm thì số phận sẽ như cây cam này :))","can_remove":false,"created_time":"2014-03-21T14:53:59+0000","like_count":11,"user_likes":false},"837070902976255":{"id":"837070902976255","from":{"id":"100006896502374","name":"Kantan Yo"},"message":"mà là cách sống của họ .. \nnhập jia tuỳ tục .. mình sống trên đất nc của họ thì cũng lên tôn trọng điều đó .. \nlần đầu thì thấy lạ , sống lâu rồi thấy cũng bt ..","can_remove":false,"created_time":"2014-03-21T14:56:29+0000","like_count":2,"user_likes":false},"837072319642780":{"id":"837072319642780","from":{"id":"1341670471","name":"An Nguyen"},"message":"Họ k muốn thành quả của mình mà để cho một kẻ khác \" lười biếng \" ở đâu ra để hưởng, lấy 1 lần, rồi sẽ có lần hai... Và ng này lấy đc thì đâu đó sẽ có thêm ng thứ 2 ...","can_remove":false,"created_time":"2014-03-21T14:59:35+0000","like_count":2,"user_likes":false},"837074789642533":{"id":"837074789642533","from":{"id":"100004371458308","name":"Huynh Hong Nhung"},"message":"Chạm Gió Van hoa nhật ne","message_tags":[{"id":"100003977863323","name":"Chạm Gió","type":"user","offset":0,"length":8}],"can_remove":false,"created_time":"2014-03-21T15:03:25+0000","like_count":0,"user_likes":false},"837076392975706":{"id":"837076392975706","from":{"id":"1146680551","name":"優しい なぁ"},"message":"Cái này sao gọi là văn hoá Nhật đc em :v","can_remove":false,"created_time":"2014-03-21T15:04:38+0000","like_count":2,"user_likes":false},"837082392975106":{"id":"837082392975106","from":{"id":"100001416272263","name":"Mai PB"},"message":"Hiếm nước nào có được ý thức \"đồ không phải của mình thì không sờ vào\" như người Nhật. Đi châu Âu cũng trộm cắp khắp nơi.","can_remove":false,"created_time":"2014-03-21T15:15:50+0000","like_count":3,"user_likes":false},"837084582974887":{"id":"837084582974887","from":{"id":"100000309153854","name":"Pham Thuong"},"message":"chỉ đc dạy bảo là k nên cầm, chạm, lấy đồ k fai của mình.Mặc dù nhìn thấy hoa quả ngta trồng k hái, để rụng vứt đi cũng tiếc thay. Nhưng \nở bên này hoa quả trong siêu thị cug k đến nỗi đắt. nên toàn mua ăn. Chưa gặp trg hợp như này bao giờ.","can_remove":false,"created_time":"2014-03-21T15:20:48+0000","like_count":1,"user_likes":false},"837085736308105":{"id":"837085736308105","from":{"id":"100004336204724","name":"Pé Ti"},"message":"người Nhật khó hỉu thật :)...","can_remove":false,"created_time":"2014-03-21T15:23:40+0000","like_count":0,"user_likes":false},"837086349641377":{"id":"837086349641377","from":{"id":"100004336204724","name":"Pé Ti"},"message":"Út Sương","can_remove":false,"created_time":"2014-03-21T15:25:09+0000","like_count":0,"user_likes":false},"837089879641024":{"id":"837089879641024","from":{"id":"100006734168968","name":"Tiểu Nhân Mã"},"message":"Ôi trời ơi. Hơi bị sốc @@","can_remove":false,"created_time":"2014-03-21T15:29:39+0000","like_count":1,"user_likes":false},"837092389640773":{"id":"837092389640773","from":{"id":"1709886473","name":"Vo Anh Khoa"},"message":"Là do người nhật sợ mình ăn vào có bị ngộ độc hay làm sao lại liên luỵ đến họ.nên họ chặt bỏ!theo mình đoán là vậy!","can_remove":false,"created_time":"2014-03-21T15:33:41+0000","like_count":4,"user_likes":false},"837094542973891":{"id":"837094542973891","from":{"id":"100003732529410","name":"Huong Dang"},"message":"Mình cũng gặp trường hợp này rồi...mai mình thủ hỏi ng đã nhé","can_remove":false,"created_time":"2014-03-21T15:38:49+0000","like_count":2,"user_likes":false},"837136412969704":{"id":"837136412969704","from":{"id":"100004509663620","name":"Minh Trường"},"message":"Ban k bao gio co the hieu duoc nguoi Nhat dang nghi gi. Hom truoc co the ho dang cuoi voi ban, nhung den hom sau ban co the bi cho nghi viec hoac chuan bi ve nuoc. Nguoi Nhat chi co 2 chu \" lanh lung \" ma thoi.","can_remove":false,"created_time":"2014-03-21T16:50:39+0000","like_count":3,"user_likes":false},"837139159636096":{"id":"837139159636096","from":{"id":"100004382503019","name":"Cường SiêuĐẳng"},"message":"Roii","can_remove":false,"created_time":"2014-03-21T16:58:35+0000","like_count":0,"user_likes":false},"837159162967429":{"id":"837159162967429","from":{"id":"100002404865408","name":"Chien Daovan"},"message":"Chơi nhể, ông người lào sáng hôm sau mang hẳn 1 cây nhiều quả hơn tới trồng trả cho máu :))))","can_remove":false,"created_time":"2014-03-21T17:53:48+0000","like_count":1,"user_likes":false},"837246199625392":{"id":"837246199625392","from":{"id":"100003980539139","name":"Luuly Tran"},"message":"Vụ này e có nghe cô giáo đã từng sống ở nhật kể!!!cũng thấy ngộ nhưng mà cũng hay!!!haha","can_remove":false,"created_time":"2014-03-21T22:03:34+0000","like_count":0,"user_likes":false},"837248622958483":{"id":"837248622958483","from":{"id":"100005121093576","name":"Hao Hao"},"message":"Chuan men","can_remove":false,"created_time":"2014-03-21T22:09:37+0000","like_count":0,"user_likes":false},"837249872958358":{"id":"837249872958358","from":{"id":"100003069246142","name":"Hồng Trịnh"},"message":"Mjnh nghe ke 1 lan. Co du hoc sjnh lay dua hau of nha 1ng nhat. Lay may lan, ho bjet nhug ko noj gj. Hsau nua ho mag den tan cua cho","can_remove":false,"created_time":"2014-03-21T22:13:44+0000","like_count":3,"user_likes":false},"837251529624859":{"id":"837251529624859","from":{"id":"100000154325668","name":"Lam Buong Binh"},"message":"Mình đã nghe kể một vụ rau cải giống vậy!","can_remove":false,"created_time":"2014-03-21T22:19:34+0000","like_count":0,"user_likes":false},"837358399614172":{"id":"837358399614172","from":{"id":"100004908941067","name":"Cử Cơ"},"message":"Phê","can_remove":false,"created_time":"2014-03-22T02:32:49+0000","like_count":0,"user_likes":false},"837379992945346":{"id":"837379992945346","from":{"id":"100003092013826","name":"Voi Beo"},"message":"Gặp nhiều rồi chứ bạn","can_remove":false,"created_time":"2014-03-22T03:35:21+0000","like_count":0,"user_likes":false},"837380869611925":{"id":"837380869611925","from":{"id":"100007390502512","name":"Hoa Ban Mai"},"message":"Khùng. K cần chỉnh, quan niệm sống của người nhật, uhm...tốt đấy. Nhưng họ làm hơi quá lên...có nhất thiết phải như thế k? 1 nước đứng nhất, nhì, ba trên thế giới...mà lại có cách xử lý tình huống như thế? Người dân nhật, đúng là nhật. Sống Khác người quá...lên rừng sống, tốt hơn là...sống ở đảo. Quan niệm, suy nghĩ cũng k giống ai...đúng là nhật.","can_remove":false,"created_time":"2014-03-22T03:38:35+0000","like_count":0,"user_likes":false},"837386439611368":{"id":"837386439611368","from":{"id":"100002961102127","name":"Cao Văn Long"},"message":"Nhật là quốc đảo mà Hoa Ban Mai :v","can_remove":false,"created_time":"2014-03-22T03:57:53+0000","like_count":0,"user_likes":false},"837387299611282":{"id":"837387299611282","from":{"id":"100007390502512","name":"Hoa Ban Mai"},"message":"Tốt hơn là...sống ở đảo. B k thấy mình ghj hay sao? Aj mà k biết, nhật là 1 đảo. Sống ở đảo, cô lập quá. Nên ng dân nhật cũng trở nên quái dị k kém. Cao văn long àk","can_remove":false,"created_time":"2014-03-22T04:00:55+0000","like_count":0,"user_likes":false},"837429819607030":{"id":"837429819607030","from":{"id":"100004450956167","name":"Thắng Satoh"},"message":"M cũng gặp vài vụ như thế này rồi. Cách giảm stress thôi ma ^^","can_remove":false,"created_time":"2014-03-22T06:29:23+0000","like_count":0,"user_likes":false},"837429942940351":{"id":"837429942940351","from":{"id":"100003977703228","name":"Ki Yu"},"message":"Ko phải họ kibo đâu. Mà là hoa quả đó ko qua kiểm định, ko biết có an toàn hay ko, họ sợ ai đó ăn rồi tình trạng sức khoẻ có vde vì hoa quả đó chưa dc qua khử trùng khử độc. Cũng là họ muốn tốt thôi!!!","can_remove":false,"created_time":"2014-03-22T06:29:43+0000","like_count":0,"user_likes":false},"837441176272561":{"id":"837441176272561","from":{"id":"100003567013649","name":"Thanh Hoa Nguyen"},"message":"ukm. chỉ tiếc là trồng bao lâu mới đc cây ra trái, chặt đi fí qá.","can_remove":false,"created_time":"2014-03-22T07:05:18+0000","like_count":0,"user_likes":false},"837444599605552":{"id":"837444599605552","from":{"id":"100000022163023","name":"Kafe Ore"},"message":"Xin lỗi chủ post, nhưng mình chỉ thấy lạ là mấy câu tiếng việt lủng củng của bạn thu hút đến hơn 100 Like. Có Admin nhắc bạn viết hoa tên riêng, bạn cũng chỉ cười. \n\" 1 ông người lào lấy hoa quả ăn trước nhà người nhật \" -- >  Câu này không có nghĩa là người Lào kia lấy trộm cam trên cây cam trước nhà người Nhật. \n\" sáng mai \" là thì tương lai bạn ạ. Người Nhật đó chặt cây cam chưa ?\nCá nhân mình hy vọng bạn chỉnh sửa lại bài viết cho xứng đáng với sự quan tâm của mọi người.","can_remove":false,"created_time":"2014-03-22T07:17:35+0000","like_count":3,"user_likes":false},"837562736260405":{"id":"837562736260405","from":{"id":"1146680551","name":"優しい なぁ"},"message":"Từ khi gia nhập nhóm bạn Nguyen van dat đã không còn sai chính tả nữa. Đó là điều nên mừng cho bạn ấy. ^_^ \nCùng đừng xét nét bạn ấy quá nha mọi người. :3\nNguyen van dat cố lên nhé.","can_remove":false,"created_time":"2014-03-22T13:25:14+0000","like_count":3,"user_likes":false},"837566516260027":{"id":"837566516260027","from":{"id":"100002966928087","name":"Nguyen van Dat"},"message":"uh mọi người thông cảm,về ngữ pháp văn mình cũng hơi kém,những bài viết của mình thì mình nghĩ gì là viết toẹt ra  vậy,nên ít kiểm tra lại hihi.hi vọng lần sau sẽ kiểm tra lại","can_remove":false,"created_time":"2014-03-22T13:33:50+0000","like_count":2,"user_likes":false},"837567606259918":{"id":"837567606259918","from":{"id":"1146680551","name":"優しい なぁ"},"message":"Nên đọc lại rồi pót bài nha ^_^","can_remove":false,"created_time":"2014-03-22T13:36:18+0000","like_count":2,"user_likes":false},"837577369592275":{"id":"837577369592275","from":{"id":"1341670471","name":"An Nguyen"},"message":"Mà cho mình hỏi đó là ông người Lào hay người nào ( có thể bạn k biết đc ng ngước nào?) vì mình thấy ng Bắc hay lon L với N . ;(","can_remove":false,"created_time":"2014-03-22T13:57:57+0000","like_count":0,"user_likes":false},"837578682925477":{"id":"837578682925477","from":{"id":"100002966928087","name":"Nguyen van Dat"},"message":"Lào bác ơi","can_remove":false,"created_time":"2014-03-22T13:58:53+0000","like_count":1,"user_likes":false},"837605262922819":{"id":"837605262922819","from":{"id":"100003934051737","name":"Thanh Sói"},"message":"ở đâu cũng có người ngọng mà bác.chưa gặp nhìu thôy.đọc là biết nói người nước Lào mà.:)","can_remove":false,"created_time":"2014-03-22T14:56:54+0000","like_count":0,"user_likes":false}},"paging":{"cursors":{"after":"ODM3MDU3NzYyOTc3NTY5","before":"ODM3MDU3NzYyOTc3NTY5"},"next":"https://graph.facebook.com/229244010425617_837056059644406/comments?limit=1&summary=1&after=ODM3MDU3NzYyOTc3NTY5"},"summary":{"order":"chronological","total_count":64}}}