{"id":"229244010425617_837020329647979","type":"status","from":{"id":"100005066101260","name":"Long Van"},"message":"Ai cho em hoi chuyển tiền từ nhật về việt nam qua ngân hàng.thì mất phí gửi nhiều không.gửi bao nhiêu cũng một giá ag.hay có nấc thang tiền gửi.","created_time":"2014-03-21T13:02:33+0000","updated_time":"2014-03-24T04:17:55+0000","likes":{"data":{"100002818979085":{"id":"100002818979085","name":"Đông Phạm"},"100004083892724":{"id":"100004083892724","name":"Linh Linh"},"100006208266390":{"id":"100006208266390","name":"Memory Hd"},"100000471304298":{"id":"100000471304298","name":"Nguyen Xuan Cong"},"100001602431446":{"id":"100001602431446","name":"Lộc Vũ Xuân"},"100002259288082":{"id":"100002259288082","name":"Hoàng Đào"}},"paging":{"cursors":{"after":"MTAwMDAyODE4OTc5MDg1","before":"MTAwMDAyODE4OTc5MDg1"},"next":"https://graph.facebook.com/229244010425617_837020329647979/likes?limit=1&summary=1&after=MTAwMDAyODE4OTc5MDg1"},"summary":{"total_count":6}},"comments":{"data":{"837021902981155":{"id":"837021902981155","from":{"id":"100003766970257","name":"Tư Lozen"},"message":"Bạn ko.nên gửi qua ngân hàng ban nạ","can_remove":false,"created_time":"2014-03-21T13:06:55+0000","like_count":0,"user_likes":false},"837022416314437":{"id":"837022416314437","from":{"id":"100005066101260","name":"Long Van"},"message":"Mình hỏi để biết mà.thanks","can_remove":false,"created_time":"2014-03-21T13:08:01+0000","like_count":0,"user_likes":false},"837023719647640":{"id":"837023719647640","from":{"id":"100006388207654","name":"Hoàng Công Tuyến"},"message":"Thế gửi theo phương thức nào vậy?","can_remove":false,"created_time":"2014-03-21T13:11:44+0000","like_count":0,"user_likes":false},"837024429647569":{"id":"837024429647569","from":{"id":"100004083892724","name":"Linh Linh"},"message":"gui ntn","can_remove":false,"created_time":"2014-03-21T13:13:15+0000","like_count":0,"user_likes":false},"837025902980755":{"id":"837025902980755","from":{"id":"100005066101260","name":"Long Van"},"message":"Ra ngân hàng thì đổi ra đô.ui chuyển vào tk ở ngân hàng việt nam.","can_remove":false,"created_time":"2014-03-21T13:17:35+0000","like_count":1,"user_likes":false},"837028549647157":{"id":"837028549647157","from":{"id":"100002853438802","name":"Thanh Thu"},"message":"mình vẫn thường nghe anh chị ở bên đó chỉ cho cách chuyển tiền tay 3, ko biết có an toàn ko nhỉ","can_remove":false,"created_time":"2014-03-21T13:20:54+0000","like_count":0,"user_likes":false},"837029539647058":{"id":"837029539647058","from":{"id":"100005066101260","name":"Long Van"},"message":"Chuyển tay3 cũng được.rẻ hơn.nhanh hơn.cái đó mình cũng biết.","can_remove":false,"created_time":"2014-03-21T13:23:05+0000","like_count":0,"user_likes":false},"837030172980328":{"id":"837030172980328","from":{"id":"100005165554244","name":"Tâp Con Ông Khoa"},"message":"có a e chuyển vậy mà bên việt nhận đc r mk mới p đưa ạ","can_remove":false,"created_time":"2014-03-21T13:23:55+0000","like_count":0,"user_likes":false},"837031929646819":{"id":"837031929646819","from":{"id":"100002853438802","name":"Thanh Thu"},"message":"chuyển tay 3 như vậy ở nhà sẽ nhận tiền yên hay tiền VNĐ bạn ơi","can_remove":false,"created_time":"2014-03-21T13:25:21+0000","like_count":0,"user_likes":false},"837032076313471":{"id":"837032076313471","from":{"id":"100003826577214","name":"Lua Pham"},"message":"Mình đang gửi ở đây, ko biết gì bạn cứ gọi thẳng đến ngân hàng, người Việt bắt máy. 10 man đổ lại là 1sen. Rất rẻ, an toàn, 30p là người nhà ở Viết Nam nhận được. tỷ giá yên cũng rất cao \nhttps://www.sendmoney.co.jp/","can_remove":false,"created_time":"2014-03-21T13:25:51+0000","like_count":1,"user_likes":false},"837032512980094":{"id":"837032512980094","from":{"id":"100005066101260","name":"Long Van"},"message":"Nhận tiền việt.nhưng t muốn thử gửi qua ngân hàng.","can_remove":false,"created_time":"2014-03-21T13:26:42+0000","like_count":0,"user_likes":false},"837032696313409":{"id":"837032696313409","from":{"id":"100002853438802","name":"Thanh Thu"},"message":"ừa, cảm ơn bạn nhiều nhé :)","can_remove":false,"created_time":"2014-03-21T13:27:21+0000","like_count":0,"user_likes":false},"837032826313396":{"id":"837032826313396","from":{"id":"100003826577214","name":"Lua Pham"},"message":"trang đó tiếng anh, bạn có thể chuyển qua tiếng Việt. Hoặc vào đây nhé","can_remove":false,"created_time":"2014-03-21T13:27:44+0000","like_count":0,"user_likes":false},"837032836313395":{"id":"837032836313395","from":{"id":"100003826577214","name":"Lua Pham"},"message":"https://www.sendmoney.co.jp/index.php","can_remove":false,"created_time":"2014-03-21T13:27:46+0000","like_count":0,"user_likes":false},"837033052980040":{"id":"837033052980040","from":{"id":"100005066101260","name":"Long Van"},"message":"Cảm ơn lua pham.","can_remove":false,"created_time":"2014-03-21T13:28:26+0000","like_count":0,"user_likes":false},"837033066313372":{"id":"837033066313372","from":{"id":"100002385063051","name":"Bàn Tay Vô Hình"},"message":"Dưới 10 man 1.5 sen. Trên 10 man 2 sen","can_remove":false,"created_time":"2014-03-21T13:28:27+0000","like_count":0,"user_likes":false},"837033709646641":{"id":"837033709646641","from":{"id":"100005066101260","name":"Long Van"},"message":"Lua pham.gui nhu the la nguoi nha nhan tien truoc ag.","can_remove":false,"created_time":"2014-03-21T13:30:28+0000","like_count":0,"user_likes":false},"837033772979968":{"id":"837033772979968","from":{"id":"100007249361607","name":"Cơn Gió Vô Tình"},"message":"2sen5 hi tu 10 man den 100 man hi","can_remove":false,"created_time":"2014-03-21T13:30:45+0000","like_count":1,"user_likes":false},"837033866313292":{"id":"837033866313292","from":{"id":"100003826577214","name":"Lua Pham"},"message":"từ 3 man-10 man chỉ 1 sen thôi, còn từ 10man đến 20 man là 1 sen 500 yên. Đừng nên gửi tay 3, vì ở Nhật đó là hình thức phạm pháp. Và ko ai bảo vệ  quyền lợi cho bạn khi có trục trặc","can_remove":false,"created_time":"2014-03-21T13:31:08+0000","like_count":0,"user_likes":false},"837034072979938":{"id":"837034072979938","from":{"id":"100005066101260","name":"Long Van"},"message":"Thế còn 10do tiền j nữa mà.đọc. trong tờ đk có.","can_remove":false,"created_time":"2014-03-21T13:31:50+0000","like_count":0,"user_likes":false},"837034696313209":{"id":"837034696313209","from":{"id":"100005066101260","name":"Long Van"},"message":"Lua pham gửi thế còn rẻ hơn gửi tay3.nhưng lần đầu gửi như thế hơi sợ.","can_remove":false,"created_time":"2014-03-21T13:33:47+0000","like_count":0,"user_likes":false},"837035009646511":{"id":"837035009646511","from":{"id":"100003826577214","name":"Lua Pham"},"message":"Đó là ngân hàng hợp pháp mà, bạn cứ làm tài khoản, chụp giấy tờ họ cần, upload lên cho họ.  Khi nào muốn chuyển bạn cứ gửi cho họ tiền. Chỉ 30p là người nhà nhận được thôi.","can_remove":false,"created_time":"2014-03-21T13:34:21+0000","like_count":0,"user_likes":false},"837037509646261":{"id":"837037509646261","from":{"id":"100003826577214","name":"Lua Pham"},"message":"Ngân hàng mà còn sợ à, gửi tay ba chỉ vì nhà nhận tiền trước nên thấy an toàn hơn sao, nhưng đó là hình thức phạm pháp, lỡ như bạn là thực tập sinh, để nghiệp đoàn biết là ko dc đâu.Nếu như người gửi giữa chừng họ bị bắt, họ lôi bạn vào và nói gửi cho bạn, thì ko phải rắc rối cho mình  sao. gửi ngân hàng bạn có thể lấy giấy xác nhận, để làm giấy giảm thuế. Trên đó người việt bắt máy, nên ko hiểu gì cứ gọi đến hỏi. Đó là ngân hàng có mức phí rẻ nhất, và tỷ lệ yên cao khi gửi về Việt Nam rồi. Rất nhiều người bên đây họ gửi trên đó.","can_remove":false,"created_time":"2014-03-21T13:40:32+0000","like_count":0,"user_likes":false},"837038629646149":{"id":"837038629646149","from":{"id":"100007249361607","name":"Cơn Gió Vô Tình"},"message":"Lam the sbi ma gui","can_remove":false,"created_time":"2014-03-21T13:43:29+0000","like_count":0,"user_likes":false},"837038786312800":{"id":"837038786312800","from":{"id":"100007249361607","name":"Cơn Gió Vô Tình"},"message":"Bao ban phuong nay lam the cho ne Chuyen Tien Nhat Viet","message_tags":[{"id":"100004931644643","name":"Chuyen Tien Nhat Viet","type":"user","offset":34,"length":21}],"can_remove":false,"created_time":"2014-03-21T13:44:06+0000","like_count":0,"user_likes":false},"837040226312656":{"id":"837040226312656","from":{"id":"100005066101260","name":"Long Van"},"message":"Moneygram giống lừa phạm","can_remove":false,"created_time":"2014-03-21T13:47:31+0000","like_count":0,"user_likes":false},"837040512979294":{"id":"837040512979294","from":{"id":"100007249361607","name":"Cơn Gió Vô Tình"},"message":"Uhm gui dc ma . Ko sao dau. Tao gui roi","can_remove":false,"created_time":"2014-03-21T13:48:11+0000","like_count":0,"user_likes":false},"837040529645959":{"id":"837040529645959","from":{"id":"100003766970257","name":"Tư Lozen"},"message":"Bạn.muốn chuyển an toàn.chắc chắn thì ib cho.mình nạ","can_remove":false,"created_time":"2014-03-21T13:48:14+0000","like_count":0,"user_likes":false},"837041789645833":{"id":"837041789645833","from":{"id":"100002235953037","name":"Cỏ Không Lá"},"message":"làm cái thẻ  SBI mà gửi cho an toàn. tay 3 nguy hiểm.","can_remove":false,"created_time":"2014-03-21T13:51:05+0000","like_count":0,"user_likes":false},"837042589645753":{"id":"837042589645753","from":{"id":"100004083892724","name":"Linh Linh"},"message":"gửi tay 3 la gui ntn v a","can_remove":false,"created_time":"2014-03-21T13:52:44+0000","like_count":1,"user_likes":false},"837043639645648":{"id":"837043639645648","from":{"id":"100003766970257","name":"Tư Lozen"},"message":"@Linh Linh e vs a giao dịch .a sẽ chuyển cho e số.tiền việt bằng vs số tiền của e mún chuyển.chuyển xong.a gọi về cho.ng.nhà e..oke ...1phát.e lại đưa cho a...","can_remove":false,"created_time":"2014-03-21T13:55:47+0000","like_count":1,"user_likes":false},"837044082978937":{"id":"837044082978937","from":{"id":"100004083892724","name":"Linh Linh"},"message":"ntn ko sợ pi lừa a","can_remove":false,"created_time":"2014-03-21T13:56:59+0000","like_count":1,"user_likes":false},"837044556312223":{"id":"837044556312223","from":{"id":"100002235953037","name":"Cỏ Không Lá"},"message":"tay 3 là ngân hàng ngầm. người ta đưa tiền đến nhà or gửi vào ngân hàng cho mình rồi bên này mình gửi tiền cho nó. giờ nhiều đứa nó bắt gửi tiền cho nó bên này trc. nói chung là k ổn, chuyển tiền qua tk ngân hàng mất thêm ít phí mà an toàn. hình thức này là phạm pháp và nếu là tu nghiệp sinh bạn có thể bị trục xuất nếu bị phát hiện.","can_remove":false,"created_time":"2014-03-21T13:58:12+0000","like_count":1,"user_likes":false},"837045762978769":{"id":"837045762978769","from":{"id":"100004083892724","name":"Linh Linh"},"message":"thank @Cỏ Cỏ Không Lá nha","message_tags":[{"id":"100002235953037","name":"Cỏ Không Lá","type":"user","offset":11,"length":11}],"can_remove":false,"created_time":"2014-03-21T14:01:09+0000","like_count":0,"user_likes":false},"837045996312079":{"id":"837045996312079","from":{"id":"100004083892724","name":"Linh Linh"},"message":"Tư Lozen cach cua p ko ổn","can_remove":false,"created_time":"2014-03-21T14:01:41+0000","like_count":0,"user_likes":false},"837046082978737":{"id":"837046082978737","from":{"id":"100003766970257","name":"Tư Lozen"},"message":"Linh Linh Linh e vs a giao dịch trực tiếp....kon lừa kiểu răng dk e...","message_tags":[{"id":"100004083892724","name":"Linh Linh","type":"user","offset":5,"length":9}],"can_remove":false,"created_time":"2014-03-21T14:01:53+0000","like_count":0,"user_likes":false},"837046632978682":{"id":"837046632978682","from":{"id":"100004083892724","name":"Linh Linh"},"message":"Tư Lozen kiểu răng là kiểu j.....ko hiu...","can_remove":false,"created_time":"2014-03-21T14:03:43+0000","like_count":1,"user_likes":false},"837137306302948":{"id":"837137306302948","from":{"id":"100000110765909","name":"Thảo Nguyễn"},"message":"Sendmoney.co.jp\nMinh hay gui tien bang cong ty bay, phí thấp nhưng an tìan. 1-2 ngaybla o vn nhan dc tien ah. Ban vo web lay sdt roi goi nhe. Ho huong dan rõ rang lam","can_remove":false,"created_time":"2014-03-21T16:53:38+0000","like_count":0,"user_likes":false},"837452109604801":{"id":"837452109604801","from":{"id":"100003766970257","name":"Tư Lozen"},"message":"Linh linh cách của mình.ntn là an toàn nhất cho khác bạn nạ","can_remove":false,"created_time":"2014-03-22T07:49:57+0000","like_count":0,"user_likes":false},"838582919491720":{"id":"838582919491720","from":{"id":"100004931644643","name":"Chuyen Tien Nhat Viet"},"message":"bạn có thể tham khảo cách gửi tiền của SBI remit bên cty mình đang làm đại lý, \nPhí gửi tiền: 3-25 man: 2000 yên\n25-100 man: 2500 yên\nNhận tiền tại quầy có liên kết money gram thì sau 30 phút gửi tiền, nhận tiền đô\nNhận tiền trong tài khoản ngân hàng, nhận tiền việt, tỷ giá luôn cao hơn hoặc bằng của vietcombank, \nChi tiết bạn có thể ib cho mình nhé","can_remove":false,"created_time":"2014-03-24T04:17:55+0000","like_count":0,"user_likes":false}},"paging":{"cursors":{"after":"ODM3MDIxOTAyOTgxMTU1","before":"ODM3MDIxOTAyOTgxMTU1"},"next":"https://graph.facebook.com/229244010425617_837020329647979/comments?limit=1&summary=1&after=ODM3MDIxOTAyOTgxMTU1"},"summary":{"order":"chronological","total_count":40}}}