{"id":"229244010425617_837291209620891","type":"photo","object_id":"10201564699336454","picture":"https://fbcdn-photos-h-a.akamaihd.net/hphotos-ak-frc3/t1.0-0/10012442_10201564699336454_114187408_s.jpg","link":"https://www.facebook.com/photo.php?fbid=10201564699336454&set=gm.837291209620891&type=1&relevant_count=1","from":{"id":"1146680551","name":"優しい なぁ"},"message":"Thấy mấy bạn  có hỏi câu này:\n\" where are you from ? \" hay tiếng Việt là bạn đến từ đâu vậy?\nThì câu này tiếng Nhật hay sử dụng là:\n- どこから来ましたか？ \n-どこから来たのですか？\nNhưng nó có chút khác về ý nghĩa đấy.\nSau khi lò mò tìm hiểu thì mình phát hiện ra một điều khá thú vị mọi ngươi xem tham khảo nhé:\n\n1/\nどこから来ましたか？\n=> bạn xuất phát từ đâu ( điểm xuất phát của bạn là ở đâu) ? \n2/\nどこから来たのですか？\n=> bạn đến từ đâu? Quê quán bạn ở đâu?\n\nVậy nên hãy Thử áp dụng hỏi người Nhật xem sao nhé! Sẽ có câu trả lời khác nhau đới ^_^\n\nSẵn đây đố mấy mems:\nTại sao trong tiếng Anh: \nWhere are you from? Hay where do you come from?\nThì là thời của động từ là ở hiện tại mà thì của động từ trong tiếng Nhật là ở qua khứ vại? \n\nTại nếu dịch từ tiếng Nhật qua tiếng Anh thì phải là:\nWhere were you from? Vs where did you come from? Mới đúng chứ nhỉ ? \n^_^","created_time":"2014-03-21T23:50:36+0000","updated_time":"2014-03-23T04:00:09+0000","likes":{"data":{"100007480111830":{"id":"100007480111830","name":"Huệ Huệ"},"100000110765909":{"id":"100000110765909","name":"Thảo Nguyễn"},"100003907081547":{"id":"100003907081547","name":"Van Ta"},"100007235437741":{"id":"100007235437741","name":"Trang Virgo"},"100007440936577":{"id":"100007440936577","name":"Huong Vu"},"100002470650247":{"id":"100002470650247","name":"LinhLinh Chan"},"100003275921481":{"id":"100003275921481","name":"Vũ Thanh Tùng"},"100005308895955":{"id":"100005308895955","name":"Jimmy Hip Nguyen"},"100000398514180":{"id":"100000398514180","name":"Linh Thu"},"100006675074577":{"id":"100006675074577","name":"Tomato Lạnh"},"1082956399":{"id":"1082956399","name":"Danny Dee Nguyen IE"},"100004203482353":{"id":"100004203482353","name":"Trang Nhat"},"100003980539139":{"id":"100003980539139","name":"Luuly Tran"},"100001338846010":{"id":"100001338846010","name":"Sơn Nguyễn Minh"},"100005547992963":{"id":"100005547992963","name":"僕は りゅう"},"100005770027426":{"id":"100005770027426","name":"Nặc Danh"},"100001793782938":{"id":"100001793782938","name":"Hồng Hà Khuất"},"100004180685911":{"id":"100004180685911","name":"Tim Cương"},"100004087203108":{"id":"100004087203108","name":"Telùn Tèluntun"},"100000022163023":{"id":"100000022163023","name":"Kafe Ore"},"569263718":{"id":"569263718","name":"Phuong Thao Tran"},"100004438595223":{"id":"100004438595223","name":"Nhok Siêu Quậy"},"1743478566":{"id":"1743478566","name":"Hô Hồ Lô"},"100002472958176":{"id":"100002472958176","name":"Ai Không Ai"},"100000521728945":{"id":"100000521728945","name":"Xuanhuong Nguyen"},"100006271507308":{"id":"100006271507308","name":"Bùi Quỳnh Anh XS"},"100001518348768":{"id":"100001518348768","name":"Nguyễn Trọng Tước"},"100004186327955":{"id":"100004186327955","name":"Huyvinh Bui"},"100005211189763":{"id":"100005211189763","name":"Oliveu Cchann"},"100000154462273":{"id":"100000154462273","name":"Thu Nguyen"},"100005722831207":{"id":"100005722831207","name":"Vũ Thạch Tân"},"100004945864137":{"id":"100004945864137","name":"Luu Huong"},"100002886424009":{"id":"100002886424009","name":"Cơn Gió"},"100002007672272":{"id":"100002007672272","name":"Mậu Phạm"},"100000765935405":{"id":"100000765935405","name":"Cỏ"},"100003265380616":{"id":"100003265380616","name":"Hoàn Vương"},"100002334361243":{"id":"100002334361243","name":"Ông Cu Non"},"100001015220425":{"id":"100001015220425","name":"Jim Majorelle"},"100007272372919":{"id":"100007272372919","name":"Sora Yume"},"100000796738619":{"id":"100000796738619","name":"Kim Anh"},"100003913383051":{"id":"100003913383051","name":"Tho Tran"},"100004452123869":{"id":"100004452123869","name":"Pham Tiên Bach"},"100005638626325":{"id":"100005638626325","name":"Vân Khánh"},"100004756261720":{"id":"100004756261720","name":"Hoai Thuong"},"100004601049837":{"id":"100004601049837","name":"Hồng Lê"},"100000014153164":{"id":"100000014153164","name":"Tan Tran"},"100001995633843":{"id":"100001995633843","name":"Yasunobu Toda"},"1416265619":{"id":"1416265619","name":"Starwar Bbj"},"100000040762045":{"id":"100000040762045","name":"Bình Minh"},"100004101038669":{"id":"100004101038669","name":"Oanh Inoshishi"},"100007090141294":{"id":"100007090141294","name":"Hoan Tokyo"},"100000565533270":{"id":"100000565533270","name":"Minz Jolie"},"100006846840777":{"id":"100006846840777","name":"Đi Tìm Tương Lai"},"1843103451":{"id":"1843103451","name":"Việt Vui Vẻ"},"100007880444320":{"id":"100007880444320","name":"自由"},"100004445826984":{"id":"100004445826984","name":"Ong Noi Viet"},"100001663361380":{"id":"100001663361380","name":"사랑해요"},"100002615664668":{"id":"100002615664668","name":"PuPu Phương Elf"},"100002371397093":{"id":"100002371397093","name":"Le Duc Dat"},"100005775182411":{"id":"100005775182411","name":"Tuấn Milo"},"100003324969497":{"id":"100003324969497","name":"Nam Phạm"}},"paging":{"cursors":{"after":"MTAwMDA3NDgwMTExODMw","before":"MTAwMDA3NDgwMTExODMw"},"next":"https://graph.facebook.com/229244010425617_837291209620891/likes?limit=1&summary=1&after=MTAwMDA3NDgwMTExODMw"},"summary":{"total_count":63}},"comments":{"data":{"837294049620607":{"id":"837294049620607","from":{"id":"100002371397093","name":"Le Duc Dat"},"message":"Từ の ở đÂy là một danh từ đã bị ẩn đi mà mn ngầm hiểu là một địa điểm nào đó","can_remove":false,"created_time":"2014-03-21T23:58:33+0000","like_count":1,"user_likes":false},"837294059620606":{"id":"837294059620606","from":{"id":"100001663361380","name":"사랑해요"},"message":"Trong câu * where are you from?* tại sao lại để ở hiện tại, tại vì...\n.\n.\n.\nTrong câu đó không có động từ, nếu có chắc chắn sẽ chia về quá khứ...\n.\n.\n. \nTỉ dụ * where did you come?*\n\nĐại khái lơ lớ thế","can_remove":false,"created_time":"2014-03-21T23:58:35+0000","like_count":1,"user_likes":false},"837294742953871":{"id":"837294742953871","from":{"id":"100001663361380","name":"사랑해요"},"message":"Vãi đạn chưa kịp momment đã edited rồi","can_remove":false,"created_time":"2014-03-22T00:01:10+0000","like_count":0,"user_likes":false},"837294822953863":{"id":"837294822953863","from":{"id":"100002371397093","name":"Le Duc Dat"},"message":"Hình như là không dùng với were. Câu đúng là where are you from nhỉ","can_remove":false,"created_time":"2014-03-22T00:01:33+0000","like_count":0,"user_likes":false},"837303566286322":{"id":"837303566286322","from":{"id":"100007468213697","name":"Minh Cảnh"},"message":"Chờ thánh cm","can_remove":false,"created_time":"2014-03-22T00:26:02+0000","like_count":0,"user_likes":false},"837306316286047":{"id":"837306316286047","from":{"id":"100000500260636","name":"Lưu Nguyễn Thảo Tiên"},"message":"Where do you from?? Có oánh sai k sếp? \nVì 来るlà động từ còn To Be là động từ đặc biệt để chỉ trạng thái tính chất ... Nên nếu dùng To Be thì \"trạng thái\" mình là ng Vn sẽ k đổi (?)\nComment bậy bạ. Xin hết","can_remove":false,"created_time":"2014-03-22T00:29:52+0000","like_count":1,"user_likes":false},"837308389619173":{"id":"837308389619173","from":{"id":"100003486806893","name":"Pig Cake"},"message":"theo mình thì: where are you from? vì đây là sự thật hiển nhiên nên dùng thì hiện tại đơn. còn nếu như câu hỏi có mốc thời gian cố định trong quá khứ thì mới dùng thì quá khứ :P","can_remove":false,"created_time":"2014-03-22T00:35:25+0000","like_count":1,"user_likes":false},"837310936285585":{"id":"837310936285585","from":{"id":"100003796430338","name":"Cường Ađam Z"},"message":"Sao ko phải là where are you lòi rom nhỉ :))","can_remove":false,"created_time":"2014-03-22T00:40:36+0000","like_count":1,"user_likes":false},"837314106285268":{"id":"837314106285268","from":{"id":"100000500260636","name":"Lưu Nguyễn Thảo Tiên"},"message":"Sự thật thì sự thật nhưng nếu hôm qua tôi gặp cô gái, cô gái ấy rất đẹp thì vẫn dùng là She was beautiful chứ k phải \"is\"","can_remove":false,"created_time":"2014-03-22T00:46:20+0000","like_count":0,"user_likes":false},"837320579617954":{"id":"837320579617954","from":{"id":"100004101038669","name":"Oanh Inoshishi"},"message":"どこから来たのですか？","can_remove":false,"created_time":"2014-03-22T01:00:27+0000","like_count":0,"user_likes":false},"837334962949849":{"id":"837334962949849","from":{"id":"100002334361243","name":"Ông Cu Non"},"message":"Từ nô chỉ để nhấn mạnh cái câu bạn muốn hỏi thôi . Nên trước khi dùng nô hoặc ưn thì hãy suy nghĩ","can_remove":false,"created_time":"2014-03-22T01:46:34+0000","like_count":1,"user_likes":false},"837335169616495":{"id":"837335169616495","from":{"id":"100002334361243","name":"Ông Cu Non"},"message":"Tránh gây cảm giác khó chịu cho ng bị hỏi","can_remove":false,"created_time":"2014-03-22T01:47:24+0000","like_count":1,"user_likes":false},"837365632946782":{"id":"837365632946782","from":{"id":"100003202290206","name":"Yoshikuni Takashi"},"message":"She was beautiful thì dường như nói đến cô ấy ngày xưa đẹp ..chả ai hôm qua đẹp nay lại xấu ..dùng she is beautiful chứ ..? Kitano nhấn mạnh vào kita và  mong muốn hỏi ..","can_remove":false,"created_time":"2014-03-22T02:52:27+0000","like_count":2,"user_likes":false},"837370689612943":{"id":"837370689612943","from":{"id":"100000265363169","name":"Mít Sờ Kul"},"message":"Vấn đề là ngta nó rằng cái lúc gặp cô ấy vào ngày hôm qua thì cô ấy đẹp nên dùng was. Chứ bt chưa chắc nó đã đẹp ;)))\nCòn chỉ đơn thuần nói là cô ấy đẹp thì dùng is\nCòn where r u from là hỏi về quê quán. Chả nhẽ hôm qua quê bạn ở HN hnay chuyển về HCM à?\nVì thế nên t nghĩ là quê quán là sự thật hiển nhiên k thay đổi nên dùng ở HTD","can_remove":false,"created_time":"2014-03-22T03:09:16+0000","like_count":5,"user_likes":false},"837426359607376":{"id":"837426359607376","from":{"id":"1146680551","name":"優しい なぁ"},"message":"Mọi người bàn cái gì mà xa xôi thế :)","can_remove":false,"created_time":"2014-03-22T06:13:54+0000","like_count":0,"user_likes":false},"837436606273018":{"id":"837436606273018","from":{"id":"100000508720532","name":"Ha Lanphi"},"message":"Câu trên của em dịch sang tiếng Anh là Where do you come from? Còn Where are you from? Tương đương với câu あなたの出身はどこですか？","can_remove":false,"created_time":"2014-03-22T06:50:03+0000","like_count":0,"user_likes":false},"837437876272891":{"id":"837437876272891","from":{"id":"100000265363169","name":"Mít Sờ Kul"},"message":"Thế k phải đag hỏi về quê quán hay sao ;))","can_remove":false,"created_time":"2014-03-22T06:54:44+0000","like_count":0,"user_likes":false},"837441129605899":{"id":"837441129605899","from":{"id":"100000508720532","name":"Ha Lanphi"},"message":"Đặt vào trong hoàn cảnh, khi bạn đến Nhật, ng Nhật hỏi bạn とちら/どっちから来たの？(mang hàm ý ko biết bạn là người nước nào), nhưng khi muốn biết bạn sinh ra ở đâu trên đất Việt Nam (với hàm ý đã biết bạn là người Việt Nam) thì dùng 出身？","can_remove":false,"created_time":"2014-03-22T07:05:09+0000","like_count":2,"user_likes":false},"837442349605777":{"id":"837442349605777","from":{"id":"100003486806893","name":"Pig Cake"},"message":"bạn Lưu Nguyễn Thảo Tiên ơi. sự thật hiển nhiên là không thể thay đổi, ngày qua tháng lại thì trái đất vẫn quay quanh mặt trời, dù thế nào bạn cũng chỉ sinh ra ở nơi đó thôi, không thể nay sinh ra ở Việt Nam, mấy ngày sau bạn lại sinh ra ở Nhật. còn vẻ đẹp của cô gái thì bạn thấy đẹp, ng khác không thấy đẹp, rồi theo thời gian cô ấy cũng xấu đi thui.","can_remove":false,"created_time":"2014-03-22T07:10:06+0000","like_count":0,"user_likes":false},"837442396272439":{"id":"837442396272439","from":{"id":"100000265363169","name":"Mít Sờ Kul"},"message":"Thế nếu bạn sang Anh mà ngta hỏi bạn where r u from? Thì b trả lời sao ;))","can_remove":false,"created_time":"2014-03-22T07:10:18+0000","like_count":0,"user_likes":false},"837443082939037":{"id":"837443082939037","from":{"id":"100000508720532","name":"Ha Lanphi"},"message":"もちろん  I'm from Việt Nam!","can_remove":false,"created_time":"2014-03-22T07:12:57+0000","like_count":0,"user_likes":false},"837443642938981":{"id":"837443642938981","from":{"id":"100000508720532","name":"Ha Lanphi"},"message":"But, tiếng Nhật hơi khác đấy bạn ạ. Phải đặt trong bối cảnh để hiểu.","can_remove":false,"created_time":"2014-03-22T07:14:33+0000","like_count":1,"user_likes":false},"837444526272226":{"id":"837444526272226","from":{"id":"100000265363169","name":"Mít Sờ Kul"},"message":":)))\nTheo mình thì tiếng nào cũng phải đặt vào từng hoàn cảnh để hiểu. K riêng j tiếng Anh hay Nhật\nỞ đây mn chỉ đag hỏi là ts tiếng Anh lại dùng HTĐ nên mới giải thik là nó là sự thật hiển nhiên.\nCòn hỏi do hay are k bàn tới.\nCó lẽ b chưa để ý lắm tới câu hỏi đề ra ở topic :)","can_remove":false,"created_time":"2014-03-22T07:17:25+0000","like_count":0,"user_likes":false},"837445802938765":{"id":"837445802938765","from":{"id":"100000508720532","name":"Ha Lanphi"},"message":"Thực ra mình chỉ đọc cua người ad, mình ko định trả lời câu của bạn, mà minh thấy ad chuyển sang TA sai. Mình ko phải dân Chuyên Anh, chỉ dùng theo thói quen. So ri ne !","can_remove":false,"created_time":"2014-03-22T07:23:37+0000","like_count":0,"user_likes":false},"837446539605358":{"id":"837446539605358","from":{"id":"100000265363169","name":"Mít Sờ Kul"},"message":"Hí hí..mềnh cũng chả biết tiếng Anh\nĐoán vậy thôi :v","can_remove":false,"created_time":"2014-03-22T07:26:17+0000","like_count":0,"user_likes":false},"837450369604975":{"id":"837450369604975","from":{"id":"100001663361380","name":"사랑해요"},"message":"Phải đặt vào từng hoàn cảnh, tình huống để hỏi và trả lời.","can_remove":false,"created_time":"2014-03-22T07:43:19+0000","like_count":0,"user_likes":false},"837451039604908":{"id":"837451039604908","from":{"id":"100001663361380","name":"사랑해요"},"message":"Mấy mẫu câu Chào hỏi lần đầu gặp...\n\nHello\n\nHj\n\nWhat is your name?\n\nWhere r y from?","can_remove":false,"created_time":"2014-03-22T07:45:45+0000","like_count":0,"user_likes":false},"837452009604811":{"id":"837452009604811","from":{"id":"100001663361380","name":"사랑해요"},"message":"Chính là sự thật hiển nhiên chia về hiện tại","can_remove":false,"created_time":"2014-03-22T07:49:33+0000","like_count":0,"user_likes":false},"837452516271427":{"id":"837452516271427","from":{"id":"100007530217391","name":"Speaker  Native"},"message":"＠アン グエン    \n\n「どこから来ましたか。」で出身聞いても問題ないですよ。\n\nwhere are you from\nあなたはどこからの人？      \n\n↑現在形なのは当然。","can_remove":false,"created_time":"2014-03-22T07:51:29+0000","like_count":4,"user_likes":false},"837453239604688":{"id":"837453239604688","from":{"id":"1146680551","name":"優しい なぁ"},"message":"Mấy bạn ở trên chưa hiểu vấn đề rồi :(","can_remove":false,"created_time":"2014-03-22T07:54:14+0000","like_count":0,"user_likes":false},"837453596271319":{"id":"837453596271319","from":{"id":"100000500260636","name":"Lưu Nguyễn Thảo Tiên"},"message":"Haiz ng ta hỏi t.nhật mà è cái câu của em ra cơ. Thì có ai nói là phải dùng thì hiện tại bới vẻ đep của cô gái đâu!","can_remove":false,"created_time":"2014-03-22T07:55:50+0000","like_count":0,"user_likes":false},"837454056271273":{"id":"837454056271273","from":{"id":"1146680551","name":"優しい なぁ"},"message":"Mình đang bận tay quá . Tối về mình gith lại nhé.","can_remove":false,"created_time":"2014-03-22T07:57:56+0000","like_count":0,"user_likes":false},"837455959604416":{"id":"837455959604416","from":{"id":"100000508720532","name":"Ha Lanphi"},"message":"Xin lỗi đọc lại thấy ad dịch sang TA đúng, mà ad chỉ thắc mắc sự khác nhau giữa thời của 2 ngôn ngữ.","can_remove":false,"created_time":"2014-03-22T08:03:01+0000","like_count":0,"user_likes":false},"837456682937677":{"id":"837456682937677","from":{"id":"100001663361380","name":"사랑해요"},"message":"Để hiểu dc vấn đề Ad đưa ra thì các thánh thử dịch 3 câu này sang tiếng Anh và tiếng Nhật thì sẽ hiểu ý của Ad muốn nói.\n\n*Bạn đến từ đâu?*\n\n*Bạn đã đến từ đâu?*","can_remove":false,"created_time":"2014-03-22T08:04:01+0000","like_count":0,"user_likes":false},"837457006270978":{"id":"837457006270978","from":{"id":"100001663361380","name":"사랑해요"},"message":"*Bạn đã từng ở đâu?*","can_remove":false,"created_time":"2014-03-22T08:04:40+0000","like_count":0,"user_likes":false},"837471512936194":{"id":"837471512936194","from":{"id":"100000500260636","name":"Lưu Nguyễn Thảo Tiên"},"message":"Đề tài của chú Na thú vị mợi.\nĐọc hết comment rùi, giờ mình kết luận tạm thế này nhé!\nWhere are you from? Bạn từ đâu đến, mang nghĩa quê quán nhiều hơn \nWhere were you from? Bạn (đã) từ đâu đến?/ Bạn đã ở đâu? \nVí dụ mình là ng Vn nhưng ở Mỹ rồi qua Sing vậy thì mình nói là I am from Vietnam (I am Vietnamese); I was from the US (I moved here from the US) \nCòn chuyện cảnh đep hay cô gái đep thì nhìn phát rồi đi. Trong quá khứ, dùng thì quá khứ. Còn nếu cổ vẫn đẹp từ đó giờ thì She was beautiful and is still now. \nVấn đề của chủ post thì có anh Speaker Native giải thích rồi. Còn tuỳ ngôn ngữ để dùng cho hợp lý nữa!\nXin hết ợ!","can_remove":false,"created_time":"2014-03-22T08:45:27+0000","like_count":1,"user_likes":false},"837478922935453":{"id":"837478922935453","from":{"id":"100000508720532","name":"Ha Lanphi"},"message":"Mình nghĩ là bạn ấy thắc mắc sao ko dùng Where did you come from? I came from Việt Nam!  Mà dùng: where do you come from? I come from Việt Nam! Về cơ bản where did dùng ám chỉ cho điểm đến của 1 hành trình. Where do chỉ nơi sinh ra... 2 cái trùng nhau là địa điểm đều có thể là thành phố và quốc gia. Mình nghĩ điều này ai cũng hiểu, nhưng so với TN- tại sao thi thật khó.","can_remove":false,"created_time":"2014-03-22T09:17:21+0000","like_count":0,"user_likes":false},"837499256266753":{"id":"837499256266753","from":{"id":"100004760974173","name":"Anh Tuấn"},"message":"Troài oai tuỳ ngữ cảnh thôi. Cái nào chả đúng. Phức tạp hoá quá. Tiếng Việt mình còn phải hiểu nôm na huống gì. Phân biệt mệt đầu.","can_remove":false,"created_time":"2014-03-22T10:14:40+0000","like_count":0,"user_likes":false},"837523679597644":{"id":"837523679597644","from":{"id":"100007530217391","name":"Speaker  Native"},"message":"最後に\n\nそもそも出身を聞く時は上の言い方しない。\n\n「ご出身はどちらですか。」 が正しい。\n日本人同士はいつもこの言い方ですね。\n\nでも外国人に\n「ご出身はどちらですか。」\nと聞いても分からない。\n\nだから、「どこから来たのですか。」「どこから来ましたか。」 と聞きます。\n\n実際、僕は「どこから来たのですか。」と聞かれた事が一度もない。\n\n「ご出身はどちらですか。」と聞かれた事なら、何度でもあります。","can_remove":false,"created_time":"2014-03-22T11:39:57+0000","like_count":8,"user_likes":false},"837525576264121":{"id":"837525576264121","from":{"id":"100002334361243","name":"Ông Cu Non"},"message":"日本語凄く人なら、こんな所にはいらない","can_remove":false,"created_time":"2014-03-22T11:45:43+0000","like_count":0,"user_likes":false},"837536739596338":{"id":"837536739596338","from":{"id":"100002611874779","name":"Trung Nguyễn"},"message":"trên đầu cmt của thím ấy @@","can_remove":false,"created_time":"2014-03-22T12:22:09+0000","like_count":1,"user_likes":false},"837561986260480":{"id":"837561986260480","from":{"id":"1146680551","name":"優しい なぁ"},"message":"@Speaker Native: 勉強になりました。正しい日本語（＾Ｏ＾）","can_remove":false,"created_time":"2014-03-22T13:23:01+0000","like_count":1,"user_likes":false},"837564042926941":{"id":"837564042926941","from":{"id":"1146680551","name":"優しい なぁ"},"message":"Trung Nguyễn chú sao cứ soi a vại :3","message_tags":[{"id":"100002611874779","name":"Trung Nguyễn","type":"user","offset":0,"length":12}],"can_remove":false,"created_time":"2014-03-22T13:28:09+0000","like_count":0,"user_likes":false},"837566392926706":{"id":"837566392926706","from":{"id":"100002611874779","name":"Trung Nguyễn"},"message":"đâu, có bạn ở trên nói thì tớ nói lại chứ soi j thím","can_remove":false,"created_time":"2014-03-22T13:33:36+0000","like_count":0,"user_likes":false},"837967282886617":{"id":"837967282886617","from":{"id":"100006896502374","name":"Kantan Yo"},"message":"tui ko dc hoc len ko bit tieng nhat thi noi sao moi dung ... hehe","can_remove":false,"created_time":"2014-03-23T04:00:09+0000","like_count":0,"user_likes":false}},"paging":{"cursors":{"after":"ODM3Mjk0MDQ5NjIwNjA3","before":"ODM3Mjk0MDQ5NjIwNjA3"},"next":"https://graph.facebook.com/229244010425617_837291209620891/comments?limit=1&summary=1&after=ODM3Mjk0MDQ5NjIwNjA3"},"summary":{"order":"chronological","total_count":45}}}