{"id":"229244010425617_837368952946450","type":"status","from":{"id":"100003892404629","name":"Đại Bàng Lột Xác"},"message":"chào cả nhà! có ai biết công ty nào đi tu nghiệp sinh uy tín ở Hà Nội giới thiệu cho mình với.","created_time":"2014-03-22T03:02:33+0000","updated_time":"2014-03-24T06:42:52+0000","likes":{"data":{"100001216346807":{"id":"100001216346807","name":"Anh Nguyễn"},"100004699261842":{"id":"100004699261842","name":"Dê Con Ngang Bướng"},"100004630089111":{"id":"100004630089111","name":"Tuấn Vũ"},"100005722831207":{"id":"100005722831207","name":"Vũ Thạch Tân"},"100003517789718":{"id":"100003517789718","name":"Heo Péo"},"100002998506311":{"id":"100002998506311","name":"Kim Tun"}},"paging":{"cursors":{"after":"MTAwMDAxMjE2MzQ2ODA3","before":"MTAwMDAxMjE2MzQ2ODA3"},"next":"https://graph.facebook.com/229244010425617_837368952946450/likes?limit=1&summary=1&after=MTAwMDAxMjE2MzQ2ODA3"},"summary":{"total_count":6}},"comments":{"data":{"837370276279651":{"id":"837370276279651","from":{"id":"100006498893441","name":"Buta Chan"},"message":"cong ty FLC or 3Q","can_remove":false,"created_time":"2014-03-22T03:07:03+0000","like_count":2,"user_likes":false},"837371056279573":{"id":"837371056279573","from":{"id":"100003892404629","name":"Đại Bàng Lột Xác"},"message":"Quỳnh Nguyễn. cam on ban nhe. the ban cung dang o Nhat a?","message_tags":[{"id":"100006498893441","name":"Quỳnh Nguyễn","type":"user","offset":0,"length":12}],"can_remove":false,"created_time":"2014-03-22T03:10:04+0000","like_count":0,"user_likes":false},"837371116279567":{"id":"837371116279567","from":{"id":"100006498893441","name":"Buta Chan"},"message":"k chuan bj dj nhat thoi","can_remove":false,"created_time":"2014-03-22T03:10:34+0000","like_count":0,"user_likes":false},"837371309612881":{"id":"837371309612881","from":{"id":"100002613394770","name":"Trần Huy Tấn"},"message":"cho hỏi đi tu nghiệp sinh mà bị cận thì có sao ko ?","can_remove":false,"created_time":"2014-03-22T03:11:41+0000","like_count":0,"user_likes":false},"837371522946193":{"id":"837371522946193","from":{"id":"100003892404629","name":"Đại Bàng Lột Xác"},"message":"cậu đi Du học hay đi TNS vậy Quỳnh Nguyễn?","message_tags":[{"id":"100006498893441","name":"Quỳnh Nguyễn","type":"user","offset":29,"length":12}],"can_remove":false,"created_time":"2014-03-22T03:12:51+0000","like_count":0,"user_likes":false},"837371582946187":{"id":"837371582946187","from":{"id":"100006498893441","name":"Buta Chan"},"message":"tuy theo tung don hang thoi b ak co don hang yeu cau mat phai chan co don hang thj k Trân Trần Huy Tấn ak","message_tags":[{"id":"100002613394770","name":"Trần Huy Tấn","type":"user","offset":90,"length":12}],"can_remove":false,"created_time":"2014-03-22T03:13:01+0000","like_count":0,"user_likes":false},"837371649612847":{"id":"837371649612847","from":{"id":"100006498893441","name":"Buta Chan"},"message":"dj tu nghiep sjnh p ak","can_remove":false,"created_time":"2014-03-22T03:13:26+0000","like_count":1,"user_likes":false},"837371769612835":{"id":"837371769612835","from":{"id":"100003892404629","name":"Đại Bàng Lột Xác"},"message":"bạn đi theo công ty nào?","can_remove":false,"created_time":"2014-03-22T03:13:47+0000","like_count":0,"user_likes":false},"837372342946111":{"id":"837372342946111","from":{"id":"100006498893441","name":"Buta Chan"},"message":"flc nhug p dj du hoc hay tu nghjep ha Đại Đại Bàng Lột Xác","message_tags":[{"id":"100003892404629","name":"Đại Bàng Lột Xác","type":"user","offset":42,"length":16}],"can_remove":false,"created_time":"2014-03-22T03:15:57+0000","like_count":0,"user_likes":false},"837372439612768":{"id":"837372439612768","from":{"id":"100003892404629","name":"Đại Bàng Lột Xác"},"message":"mình hỏi đi TNS thôi. đi du học không dủ tiền","can_remove":false,"created_time":"2014-03-22T03:16:30+0000","like_count":0,"user_likes":false},"837372829612729":{"id":"837372829612729","from":{"id":"100006498893441","name":"Buta Chan"},"message":"dj tu nghiep sjnh thj p nen dj theo cty flc con dj du hoc thj dj theo 3Q","can_remove":false,"created_time":"2014-03-22T03:17:16+0000","like_count":0,"user_likes":false},"837372902946055":{"id":"837372902946055","from":{"id":"100002613394770","name":"Trần Huy Tấn"},"message":"ko bik đơn hàng may mặc thì có yêu cầu về mắt ko nhỉ ?","can_remove":false,"created_time":"2014-03-22T03:17:39+0000","like_count":1,"user_likes":false},"837373062946039":{"id":"837373062946039","from":{"id":"100006498893441","name":"Buta Chan"},"message":"hjnh nhu co thj faj","can_remove":false,"created_time":"2014-03-22T03:18:21+0000","like_count":0,"user_likes":false},"837373429612669":{"id":"837373429612669","from":{"id":"100002613394770","name":"Trần Huy Tấn"},"message":"thế mà mấy ông công ty cứ kêu ko sao . khả năngrút tiền :((","can_remove":false,"created_time":"2014-03-22T03:19:37+0000","like_count":0,"user_likes":false},"837373682945977":{"id":"837373682945977","from":{"id":"100006498893441","name":"Buta Chan"},"message":"b dag hoc cty nao","can_remove":false,"created_time":"2014-03-22T03:20:22+0000","like_count":0,"user_likes":false},"837374136279265":{"id":"837374136279265","from":{"id":"100002613394770","name":"Trần Huy Tấn"},"message":"ở nam định ý mà","can_remove":false,"created_time":"2014-03-22T03:22:06+0000","like_count":0,"user_likes":false},"837374379612574":{"id":"837374379612574","from":{"id":"100003262893506","name":"Khỉ Đột"},"message":"Chỉ có các đơn hag nôg nghiep la ko yc mắt thôi","can_remove":false,"created_time":"2014-03-22T03:22:52+0000","like_count":1,"user_likes":false},"837374412945904":{"id":"837374412945904","from":{"id":"100006498893441","name":"Buta Chan"},"message":"hế quê nam đjnh ha","can_remove":false,"created_time":"2014-03-22T03:23:02+0000","like_count":0,"user_likes":false},"837374616279217":{"id":"837374616279217","from":{"id":"100002613394770","name":"Trần Huy Tấn"},"message":"uk.","can_remove":false,"created_time":"2014-03-22T03:23:36+0000","like_count":0,"user_likes":false},"837374659612546":{"id":"837374659612546","from":{"id":"100004394924539","name":"Jinvôlối Nguyễn"},"message":"Tms","can_remove":false,"created_time":"2014-03-22T03:23:42+0000","like_count":0,"user_likes":false},"837374779612534":{"id":"837374779612534","from":{"id":"100006498893441","name":"Buta Chan"},"message":"cung we r","can_remove":false,"created_time":"2014-03-22T03:23:56+0000","like_count":0,"user_likes":false},"837375056279173":{"id":"837375056279173","from":{"id":"100003262893506","name":"Khỉ Đột"},"message":"Tot nhat nen ra cac cty o hn cho dam?bao. O tỉh lẻ chỉ là chi nháh. ko đảm bảo đâu b","can_remove":false,"created_time":"2014-03-22T03:24:46+0000","like_count":1,"user_likes":false},"837377692945576":{"id":"837377692945576","from":{"id":"100003262893506","name":"Khỉ Đột"},"message":"Bây giờ nhiều cty ko uy tín hay bị hủy đơn hàng lắm. Hoặc là khi gần bay tăng thêm phí bắt tns phải đóg","can_remove":false,"created_time":"2014-03-22T03:27:52+0000","like_count":1,"user_likes":false},"837394152943930":{"id":"837394152943930","from":{"id":"100005404574074","name":"Jonny Son"},"message":"Bây giờ có thêm chiêu lưa nữa là đi phí rất rẻ nhưng đơn hàng chỉ có 1 năm, hoặc đc đưa vào cty làm nhưng cty đó sẽ bùng lương của các bạn.hãy tim hiểu thông tin thạt kỹ trc khi qđ.chúc các bạn may mắn.","can_remove":false,"created_time":"2014-03-22T04:21:32+0000","like_count":1,"user_likes":false},"837395159610496":{"id":"837395159610496","from":{"id":"100005263719971","name":"Hung Le"},"message":"sợ bị lừa lắm , thế các bạn cho hỏi mình cao có 1m6 thì đi XKLD có khó khăn lắm ko ?","can_remove":false,"created_time":"2014-03-22T04:25:13+0000","like_count":0,"user_likes":false},"837395789610433":{"id":"837395789610433","from":{"id":"100003058280462","name":"Đặng Văn Thành"},"message":"ở ĐA có cty Uy tín lắm bạn à","can_remove":false,"created_time":"2014-03-22T04:27:16+0000","like_count":0,"user_likes":false},"837412992942046":{"id":"837412992942046","from":{"id":"100006535504704","name":"DungDinh Dung Dinh"},"message":"Bạn ơi,nhắn tin sdt của bạn vào fb đc không.từ hôm qua fb chậm lắm,mình gửi mãi không đc tin nhắn","can_remove":false,"created_time":"2014-03-22T05:11:42+0000","like_count":0,"user_likes":false},"837414662941879":{"id":"837414662941879","from":{"id":"100005878210778","name":"Oanh Babi"},"message":"Cty simco  song da","can_remove":false,"created_time":"2014-03-22T05:20:06+0000","like_count":2,"user_likes":false},"837417039608308":{"id":"837417039608308","from":{"id":"100003171068765","name":"Michael Owen"},"message":"weiland","can_remove":false,"created_time":"2014-03-22T05:28:50+0000","like_count":0,"user_likes":false},"837420886274590":{"id":"837420886274590","from":{"id":"100001682922409","name":"Quynh Nga Nguyen"},"message":"công ty cổ phần xuất nhập khẩu BIỂN ĐÔNG j đó ấy, công ty nhà nước trực thuộc bộ thủy sản mà ngta tuyển sinh trước r mới cho học, người nào học thì chắc chắn sẽ đc đi, bạn google tên cty thử xem, m ko nhớ rõ lắm","can_remove":false,"created_time":"2014-03-22T05:46:11+0000","like_count":1,"user_likes":false},"837426316274047":{"id":"837426316274047","from":{"id":"100001682922409","name":"Quynh Nga Nguyen"},"message":"TMS phải nộp tiền để vào học nhưng chưa chắc đã được đi","can_remove":false,"created_time":"2014-03-22T06:13:43+0000","like_count":0,"user_likes":false},"837427112940634":{"id":"837427112940634","from":{"id":"100001682922409","name":"Quynh Nga Nguyen"},"message":"điểm khác là TMS là học -> phỏng vấn -> có thể đi\nBiển đông : Phỏng vấn -> học -> chắc chắn đi\nkhác nhau nhiều đấy","can_remove":false,"created_time":"2014-03-22T06:17:02+0000","like_count":0,"user_likes":false},"837427446273934":{"id":"837427446273934","from":{"id":"100005263719971","name":"Hung Le"},"message":"thế bây jo mình học tiếng rồi thi có phải mất phí học tiếng nữa ko hả các bạn","can_remove":false,"created_time":"2014-03-22T06:18:32+0000","like_count":0,"user_likes":false},"837427742940571":{"id":"837427742940571","from":{"id":"100001682922409","name":"Quynh Nga Nguyen"},"message":":)) t pv xin việc ở cả 2 r nên mới biết chứ sao","can_remove":false,"created_time":"2014-03-22T06:19:54+0000","like_count":0,"user_likes":false},"837428069607205":{"id":"837428069607205","from":{"id":"100005263719971","name":"Hung Le"},"message":"thế các bạn cho mình hỏi chút , mình cao có 1m6 liêu đi TNS có khó khăn ko nhỉ","can_remove":false,"created_time":"2014-03-22T06:21:33+0000","like_count":0,"user_likes":false},"837428669607145":{"id":"837428669607145","from":{"id":"100005263719971","name":"Hung Le"},"message":"uh, thế chán nhỉ ,mình chắc ko đủ chiều cao rồi:(","can_remove":false,"created_time":"2014-03-22T06:24:52+0000","like_count":0,"user_likes":false},"837431879606824":{"id":"837431879606824","from":{"id":"100004908941067","name":"Cử Cơ"},"message":"HTC  lô 33.34 BT2 mĩ đình 1.từ liêm HN","can_remove":false,"created_time":"2014-03-22T06:34:38+0000","like_count":0,"user_likes":false},"837433182940027":{"id":"837433182940027","from":{"id":"100005404574074","name":"Jonny Son"},"message":"Cách tốt nhất để k bị lưa là có bạn bè đang làm ở cty bên nhật hỏi xem cty đó làm ăn đc hay k?rồi hiện tại có tuyêt tns hay k?nếu có thì lúc đó mới lên tim trung tâm tư vấn thuê liên hệ và làm hồ sơ.chứ bây giờ k những ở vn mà cả bên nhật nó cũng lừa.nó thành lập cty tuyển cn ồ ạt làm khoảng vài tháng thì tuyên bố phá sản xong bùng tiền của cn.điều này đax xảy ra rồi.lên các bạn hãy cẩn thận nhé.","can_remove":false,"created_time":"2014-03-22T06:40:00+0000","like_count":3,"user_likes":false},"837496666267012":{"id":"837496666267012","from":{"id":"100002965859167","name":"Nguyễn Thanh Hải"},"message":"Tohoku Sông Đà-Thái thịnh-đống đa -hà nội","can_remove":false,"created_time":"2014-03-22T10:04:55+0000","like_count":0,"user_likes":false},"837917999558212":{"id":"837917999558212","from":{"id":"100004534748943","name":"Oanh Kẹo"},"message":"Bạn có thể liên hệ trực tiếp với mình,mình bên cty vinacomax nha bạn","can_remove":false,"created_time":"2014-03-23T02:18:09+0000","like_count":0,"user_likes":false},"837945292888816":{"id":"837945292888816","from":{"id":"100005263719971","name":"Hung Le"},"message":"chào Oanh Kẹo  mình cũng đang quan tâm đến việc đi tu nghiệp tại nhật , bạn cho mình hỏi chút ,nếu mình đã học tiếng rồi đủ để có thể thi n5 ,và mình có bằng đại học thì bên bạn có ưu tiên ,hay có bắt học tiếng nữa ko","message_tags":[{"id":"100004534748943","name":"Oanh Kẹo","type":"user","offset":5,"length":8}],"can_remove":false,"created_time":"2014-03-23T03:21:28+0000","like_count":0,"user_likes":false},"837946596222019":{"id":"837946596222019","from":{"id":"100004534748943","name":"Oanh Kẹo"},"message":"Thế thì bạn k phải học tiếng nữa nhé.bạn sẽ đc ưu tiên hơn ng khác về mọi mặt nha bạn.","can_remove":false,"created_time":"2014-03-23T03:24:02+0000","like_count":0,"user_likes":false},"837946709555341":{"id":"837946709555341","from":{"id":"100004534748943","name":"Oanh Kẹo"},"message":"Nếu bạn có bằng đại học, lại biết tiếng r.đó là 1 thuận.lợi tốt cho bạn.","can_remove":false,"created_time":"2014-03-23T03:24:30+0000","like_count":0,"user_likes":false},"837947599555252":{"id":"837947599555252","from":{"id":"100003058280462","name":"Đặng Văn Thành"},"message":"Oanh Kẹo bạn ơi cho mình ? thế nếu có những cái đó roài thì lương có cao hơn k? hay vẫn như m.n khác","message_tags":[{"id":"100004534748943","name":"Oanh Kẹo","type":"user","offset":0,"length":8}],"can_remove":false,"created_time":"2014-03-23T03:25:42+0000","like_count":0,"user_likes":false},"837948782888467":{"id":"837948782888467","from":{"id":"100004534748943","name":"Oanh Kẹo"},"message":"Phụ thuộc vào từng đơn hàng nha bạn.cty sẽ hỗ trợ cho bạn khi bạn tuyển trực tiếp với ng nhật.để họ sắp xếp công việc thuận lợi cho bạn","can_remove":false,"created_time":"2014-03-23T03:28:00+0000","like_count":0,"user_likes":false},"837951159554896":{"id":"837951159554896","from":{"id":"100005263719971","name":"Hung Le"},"message":"bạn cũng cho mình hỏi 1 chút là tuy có bằng đại học nhưng mình ko giỏi về chuyên môn j và 1 vấn đề nữa là mình chỉ cao có 1m60 thì có khó khăn j ko?","can_remove":false,"created_time":"2014-03-23T03:32:40+0000","like_count":0,"user_likes":false},"837952926221386":{"id":"837952926221386","from":{"id":"100004534748943","name":"Oanh Kẹo"},"message":"K vấn đề gì nha bạn, đạt đủ tiêu chuẩn theo đơn hàng là đc.","can_remove":false,"created_time":"2014-03-23T03:36:24+0000","like_count":0,"user_likes":false},"837970246219654":{"id":"837970246219654","from":{"id":"100005263719971","name":"Hung Le"},"message":"thế bên bạn chi phí đi bây jo là bao nhiêu , phải đóng những khoản j trước khi đi và số tiền là bao nhiêu vậy bạn?","can_remove":false,"created_time":"2014-03-23T04:09:17+0000","like_count":0,"user_likes":false},"837971179552894":{"id":"837971179552894","from":{"id":"100004534748943","name":"Oanh Kẹo"},"message":"Bạn chỉ đóng 15tr trước thôi nha.để bên mình chốt hồ sơ, còn khi nào bạn thi tuyển, đỗ vida, mới phải đóng các khoản còn lại nha, chi phí theo từng đơn hàng, từ 5000 đến 7000 đô nha bạn","can_remove":false,"created_time":"2014-03-23T04:11:41+0000","like_count":0,"user_likes":false},"837972589552753":{"id":"837972589552753","from":{"id":"100005263719971","name":"Hung Le"},"message":"ý bạn nói là đóng 15tr trc khi nào được tuyển dụng thì mới phải đóng các khoản phí khác hả","can_remove":false,"created_time":"2014-03-23T04:15:30+0000","like_count":0,"user_likes":false},"837976709552341":{"id":"837976709552341","from":{"id":"100004534748943","name":"Oanh Kẹo"},"message":"Đúng r bạn.khi bạn nộp hồ sơ thì đóng nha bạn","can_remove":false,"created_time":"2014-03-23T04:26:00+0000","like_count":0,"user_likes":false},"837984129551599":{"id":"837984129551599","from":{"id":"100003058280462","name":"Đặng Văn Thành"},"message":"Oanh Kẹo oi","message_tags":[{"id":"100004534748943","name":"Oanh Kẹo","type":"user","offset":0,"length":8}],"can_remove":false,"created_time":"2014-03-23T04:48:28+0000","like_count":0,"user_likes":false},"837984212884924":{"id":"837984212884924","from":{"id":"100004534748943","name":"Oanh Kẹo"},"message":"Sao thế bạn","can_remove":false,"created_time":"2014-03-23T04:49:07+0000","like_count":0,"user_likes":false},"837984309551581":{"id":"837984309551581","from":{"id":"100003058280462","name":"Đặng Văn Thành"},"message":"sao chi phí của cty bạn cao thế của tr mình tầm 4500$-5500% mà t thấy mấy chỗ khác cũng tầm sàn sàn thế. mà chi phí đặt cóc  t thấy các cty khác toàn 10tr mà","can_remove":false,"created_time":"2014-03-23T04:49:36+0000","like_count":2,"user_likes":false},"837984742884871":{"id":"837984742884871","from":{"id":"100004534748943","name":"Oanh Kẹo"},"message":"Bạn cứ tham khảo thêm đi ạ :') cái này do phía cty.mình chỉ làm theo chỉ định thôi.","can_remove":false,"created_time":"2014-03-23T04:51:16+0000","like_count":0,"user_likes":false},"837984866218192":{"id":"837984866218192","from":{"id":"100003058280462","name":"Đặng Văn Thành"},"message":"thế à.","can_remove":false,"created_time":"2014-03-23T04:51:51+0000","like_count":0,"user_likes":false},"837985032884842":{"id":"837985032884842","from":{"id":"100003058280462","name":"Đặng Văn Thành"},"message":"ừ để mình xem thêm.","can_remove":false,"created_time":"2014-03-23T04:51:59+0000","like_count":0,"user_likes":false},"838030506213628":{"id":"838030506213628","from":{"id":"100005404574074","name":"Jonny Son"},"message":"Oanh kẹo cho mình hỏi hiện cty bạn nhận đơn hàng ở những khu vực nào và về ngành nghề gì vậy?","can_remove":false,"created_time":"2014-03-23T07:00:21+0000","like_count":0,"user_likes":false},"838031266213552":{"id":"838031266213552","from":{"id":"100004534748943","name":"Oanh Kẹo"},"message":"Tất cả các đơn hàng của nhật bản và singapore nha bạn","can_remove":false,"created_time":"2014-03-23T07:02:45+0000","like_count":0,"user_likes":false},"838031539546858":{"id":"838031539546858","from":{"id":"100004534748943","name":"Oanh Kẹo"},"message":"Muốn biết chi tiết bạn có thể ib.mình sẽ gửi chi tiết đơn hàng cho bạn nha","can_remove":false,"created_time":"2014-03-23T07:03:57+0000","like_count":0,"user_likes":false},"838037266212952":{"id":"838037266212952","from":{"id":"100005404574074","name":"Jonny Son"},"message":"Vậy là cty bạn nhận đơn hàng cho tất cả các khu vực trên đất nước nhật và tât cả các ngành nghề luôn hả bạn","can_remove":false,"created_time":"2014-03-23T07:20:31+0000","like_count":0,"user_likes":false},"838037712879574":{"id":"838037712879574","from":{"id":"100004534748943","name":"Oanh Kẹo"},"message":"Đúng r bạn nha","can_remove":false,"created_time":"2014-03-23T07:21:28+0000","like_count":0,"user_likes":false},"838037989546213":{"id":"838037989546213","from":{"id":"100005404574074","name":"Jonny Son"},"message":"Ngoài tu nghiệp sinh thì cty bạn có nhận đơn hàng kỹ thuật viên k?","can_remove":false,"created_time":"2014-03-23T07:22:27+0000","like_count":1,"user_likes":false},"838039512879394":{"id":"838039512879394","from":{"id":"100004534748943","name":"Oanh Kẹo"},"message":"Có bạn ạ.nhưng phải biết tiếng anh và tiếng nhật tốt nha","can_remove":false,"created_time":"2014-03-23T07:27:29+0000","like_count":0,"user_likes":false},"838040839545928":{"id":"838040839545928","from":{"id":"100003058280462","name":"Đặng Văn Thành"},"message":"tiếng Nhật Tầm N3 hay N4 là đc đi KTV thế bạn. còn tiếng Anh phải ntn thế bạn","can_remove":false,"created_time":"2014-03-23T07:30:55+0000","like_count":0,"user_likes":false},"838042549545757":{"id":"838042549545757","from":{"id":"100004534748943","name":"Oanh Kẹo"},"message":"Giao tiếp tốt là đc nha bạn,còn tiếng anh,bên cty k hỗ trợ đc nha bạn.","can_remove":false,"created_time":"2014-03-23T07:35:52+0000","like_count":0,"user_likes":false},"838500272833318":{"id":"838500272833318","from":{"id":"100004625980804","name":"Văn Đài"},"message":"neu chu muon di thj wa cho cty cua a o my djnh. voj chj phj dj re nhat. khu dao tao tjeng nhat hjen daj. a co the sap xep don hang dj theo nguyen vong cua chu. co j thj wa cty cua a tham wan.","can_remove":false,"created_time":"2014-03-24T00:16:05+0000","like_count":0,"user_likes":false},"838501686166510":{"id":"838501686166510","from":{"id":"100004625980804","name":"Văn Đài"},"message":"chu co the dj theo cty cua a o my djnh. voj chj phj re nhat. da dang nganh nghe. khu dao tao tjeng nhat hjen daj. a co the sap xep cho chu dj theo don hang tot nhat. hnao wa cty a tham wan nhe.","can_remove":false,"created_time":"2014-03-24T00:20:41+0000","like_count":0,"user_likes":false},"838564149493597":{"id":"838564149493597","from":{"id":"100005263719971","name":"Hung Le"},"message":"the ben bac , chi phi di ntn vay, phai dat coc trc bao nhieu , khi da trung tuyen roi thi nop bao nhieu nua","can_remove":false,"created_time":"2014-03-24T03:11:17+0000","like_count":0,"user_likes":false},"838564992826846":{"id":"838564992826846","from":{"id":"100004625980804","name":"Văn Đài"},"message":"Chi phí đi là 5,500 USD, đặt cọc trước 5 triệu để tham gia thi tuyển. Khi trúng tuyển mới nộp 2,500 USD. Có gì bạn liên hệ 0973 713 113 Mr Đài.","can_remove":false,"created_time":"2014-03-24T03:13:58+0000","like_count":0,"user_likes":false},"838565292826816":{"id":"838565292826816","from":{"id":"100003058280462","name":"Đặng Văn Thành"},"message":"sao cty bạn đặt cọc ít thế nhể :D","can_remove":false,"created_time":"2014-03-24T03:14:29+0000","like_count":1,"user_likes":false},"838565509493461":{"id":"838565509493461","from":{"id":"100005263719971","name":"Hung Le"},"message":"cong ty bac la cong ty j","can_remove":false,"created_time":"2014-03-24T03:15:13+0000","like_count":0,"user_likes":false},"838565656160113":{"id":"838565656160113","from":{"id":"100004625980804","name":"Văn Đài"},"message":"Đặt cọc 5 triệu để đảm bảo tham gia đơn hàng thui. Còn đặt cọc chống trốn sẽ là 3000 USD. công ty HTC bạn ạ","can_remove":false,"created_time":"2014-03-24T03:15:56+0000","like_count":0,"user_likes":false},"838565946160084":{"id":"838565946160084","from":{"id":"100005263719971","name":"Hung Le"},"message":"the 3000 nay la khi nao ve dc nhan lai ha","can_remove":false,"created_time":"2014-03-24T03:17:13+0000","like_count":0,"user_likes":false},"838566016160077":{"id":"838566016160077","from":{"id":"100004625980804","name":"Văn Đài"},"message":"Chính xác bạn ạ. Sẽ nhận lại cả gốc và lãi.","can_remove":false,"created_time":"2014-03-24T03:17:36+0000","like_count":0,"user_likes":false},"838578586158820":{"id":"838578586158820","from":{"id":"100008020476146","name":"Gió Đông"},"message":"Văn Đài bên anh có đi dạng ktv cơ khí ko ạ? yêu cầu là gì ak?","message_tags":[{"id":"100004625980804","name":"Văn Đài","type":"user","offset":0,"length":7}],"can_remove":false,"created_time":"2014-03-24T04:01:27+0000","like_count":0,"user_likes":false},"838584246158254":{"id":"838584246158254","from":{"id":"100005263719971","name":"Hung Le"},"message":"quen ko hoi rõ , thế trong 5500$ là đã có 3000$ chống trốn chưa hả bác ?","can_remove":false,"created_time":"2014-03-24T04:21:12+0000","like_count":0,"user_likes":false},"838610092822336":{"id":"838610092822336","from":{"id":"100004625980804","name":"Văn Đài"},"message":"Ben mjnh co don hang dj ky thuat vjen ban ah. Yeu cau tn tu cao dang tro len, cac truog ky thuat.","can_remove":false,"created_time":"2014-03-24T05:46:26+0000","like_count":1,"user_likes":false},"838610496155629":{"id":"838610496155629","from":{"id":"100004625980804","name":"Văn Đài"},"message":"5,500 chua bao gom chong tron 3000 ban nhe.","can_remove":false,"created_time":"2014-03-24T05:47:45+0000","like_count":0,"user_likes":false},"838617379488274":{"id":"838617379488274","from":{"id":"100003058280462","name":"Đặng Văn Thành"},"message":"Văn đài ơi. thế trình độ Tiếng Nhật phải ntn hả bạn","can_remove":false,"created_time":"2014-03-24T06:05:10+0000","like_count":0,"user_likes":false},"838619356154743":{"id":"838619356154743","from":{"id":"100004625980804","name":"Văn Đài"},"message":"Trjnh do tjeng nhat paj tu n3 tro len","can_remove":false,"created_time":"2014-03-24T06:10:02+0000","like_count":0,"user_likes":false},"838630556153623":{"id":"838630556153623","from":{"id":"100003058280462","name":"Đặng Văn Thành"},"message":"thế à khó nhể híc.","can_remove":false,"created_time":"2014-03-24T06:38:03+0000","like_count":0,"user_likes":false},"838632306153448":{"id":"838632306153448","from":{"id":"100004625980804","name":"Văn Đài"},"message":"Uh. K dj dc ktv thj dj theo hjnh thuc du hoc or tns cug dc ma.","can_remove":false,"created_time":"2014-03-24T06:42:52+0000","like_count":0,"user_likes":false}},"paging":{"cursors":{"after":"ODM3MzcwMjc2Mjc5NjUx","before":"ODM3MzcwMjc2Mjc5NjUx"},"next":"https://graph.facebook.com/229244010425617_837368952946450/comments?limit=1&summary=1&after=ODM3MzcwMjc2Mjc5NjUx"},"summary":{"order":"chronological","total_count":91}}}