{"id":"229244010425617_837405019609510","type":"status","from":{"id":"100004254851841","name":"Nuong My"},"message":"anh chị nào giỏi tiếng nhật có thể cho e bảng chữ cái tiếng nhật đc k a.ui car cách đọc nữa.tại e muốn tự học nên k bít bắt đầu từ đâu.e cam on","created_time":"2014-03-22T04:43:42+0000","updated_time":"2014-03-22T16:55:09+0000","likes":{"data":{"100003818749610":{"id":"100003818749610","name":"Đừng Nhìn Thế"},"100004854043958":{"id":"100004854043958","name":"Huyền Angel"},"100007091952934":{"id":"100007091952934","name":"Look Job"},"100004938463041":{"id":"100004938463041","name":"Cô Chủ Nhỏ"}},"paging":{"cursors":{"after":"MTAwMDAzODE4NzQ5NjEw","before":"MTAwMDAzODE4NzQ5NjEw"},"next":"https://graph.facebook.com/229244010425617_837405019609510/likes?limit=1&summary=1&after=MTAwMDAzODE4NzQ5NjEw"},"summary":{"total_count":4}},"comments":{"data":{"837406046276074":{"id":"837406046276074","from":{"id":"100003640960503","name":"Li Na"},"message":"Trên mạng có đầy b ak","can_remove":false,"created_time":"2014-03-22T04:47:01+0000","like_count":0,"user_likes":false},"837406096276069":{"id":"837406096276069","from":{"id":"100003606565617","name":"Biển Xanh Thiên Sứ"},"message":"","can_remove":false,"created_time":"2014-03-22T04:47:12+0000","like_count":1,"user_likes":false},"837406682942677":{"id":"837406682942677","from":{"id":"100004254851841","name":"Nuong My"},"message":"hoj noi kho hiu qua Li Na ak","message_tags":[{"id":"100003640960503","name":"Li Na","type":"user","offset":20,"length":5}],"can_remove":false,"created_time":"2014-03-22T04:48:12+0000","like_count":0,"user_likes":false},"837407289609283":{"id":"837407289609283","from":{"id":"100004254851841","name":"Nuong My"},"message":"thanks Biển Xanh Thiên Sứ nhiu","can_remove":false,"created_time":"2014-03-22T04:49:28+0000","like_count":0,"user_likes":false},"837407546275924":{"id":"837407546275924","from":{"id":"100004254851841","name":"Nuong My"},"message":"cho em hỏi tí nữa là nếu học xog chữ cái mìh muốn ghép chữ thì ghép như thế nào ak","can_remove":false,"created_time":"2014-03-22T04:50:24+0000","like_count":0,"user_likes":false},"837407972942548":{"id":"837407972942548","from":{"id":"100003640960503","name":"Li Na"},"message":"Chẳng hạn như chữ \"tôi\"  tạo bởi 3 chữ cái \"wa+ta+shi\" tôi= watashi","can_remove":false,"created_time":"2014-03-22T04:52:25+0000","like_count":0,"user_likes":false},"837409442942401":{"id":"837409442942401","from":{"id":"100004254851841","name":"Nuong My"},"message":"tại e mới tìm hỉu mà tự học nữa nên khó quá.chị có thể nói cho e bít là mới bắt đầu thì phải học như thế nào ak.ui nguyên am phụ .âm trong tiếng nhật thì ntn ạ","can_remove":false,"created_time":"2014-03-22T04:58:22+0000","like_count":0,"user_likes":false},"837410616275617":{"id":"837410616275617","from":{"id":"100003606565617","name":"Biển Xanh Thiên Sứ"},"message":"","can_remove":false,"created_time":"2014-03-22T05:02:49+0000","like_count":3,"user_likes":false},"837410646275614":{"id":"837410646275614","from":{"id":"100003606565617","name":"Biển Xanh Thiên Sứ"},"message":"","can_remove":false,"created_time":"2014-03-22T05:03:02+0000","like_count":4,"user_likes":false},"837637489586263":{"id":"837637489586263","from":{"id":"100004454232040","name":"Ngựa BAy"},"message":"@@","can_remove":false,"created_time":"2014-03-22T15:52:05+0000","like_count":0,"user_likes":false},"837647976251881":{"id":"837647976251881","from":{"id":"100002944559105","name":"Domenico Dolce"},"message":"Tsu bạn hỏi tnay. Rất khó để hướng dẫn bạn. Bạn nên kiếm người nào dậy bạn thực tế thì sẽ rất dễ hiểu hơn đấy :)","can_remove":false,"created_time":"2014-03-22T16:04:33+0000","like_count":1,"user_likes":false},"837654182917927":{"id":"837654182917927","from":{"id":"100004454232040","name":"Ngựa BAy"},"message":"Có lẽ nào hay chú dạy e nó đi Domenico Dolce","message_tags":[{"id":"100002944559105","name":"Domenico Dolce","type":"user","offset":30,"length":14}],"can_remove":false,"created_time":"2014-03-22T16:13:47+0000","like_count":0,"user_likes":false},"837654886251190":{"id":"837654886251190","from":{"id":"100002235953037","name":"Cỏ Không Lá"},"message":"tới trường học 1 time đi bạn, tự học k dc đâu.","can_remove":false,"created_time":"2014-03-22T16:15:04+0000","like_count":0,"user_likes":false},"837677569582255":{"id":"837677569582255","from":{"id":"100005801442456","name":"An Nguyen"},"message":"Mấy bạn thấy chả vận động gì hết! Gõ gôgle  \" bảng chữ cái tiếng Nhật \" ,  hay ra youtube gõ \" hiragana \" cũng đầy ra mà. ??!?!?!?!??","can_remove":false,"created_time":"2014-03-22T16:48:13+0000","like_count":0,"user_likes":false},"837699286246750":{"id":"837699286246750","from":{"id":"100004254851841","name":"Nuong My"},"message":"e cảm ơn ạk.e k có nhìu time để đi học với lại k có điều kiện nên e pải tự  học.hi","can_remove":false,"created_time":"2014-03-22T16:55:09+0000","like_count":0,"user_likes":false}},"paging":{"cursors":{"after":"ODM3NDA2MDQ2Mjc2MDc0","before":"ODM3NDA2MDQ2Mjc2MDc0"},"next":"https://graph.facebook.com/229244010425617_837405019609510/comments?limit=1&summary=1&after=ODM3NDA2MDQ2Mjc2MDc0"},"summary":{"order":"chronological","total_count":15}}}