{"id":"229244010425617_837585049591507","type":"photo","object_id":"762195050468113","picture":"https://fbcdn-photos-c-a.akamaihd.net/hphotos-ak-prn1/t1.0-0/1975074_762195050468113_676308232_s.jpg","link":"https://www.facebook.com/photo.php?fbid=762195050468113&set=gm.837585049591507&type=1&relevant_count=1","from":{"id":"100000328742646","name":"Trần Giáp"},"message":"[Giải trí cuối tuần]\nHôm nay mình xin giới thiệu cho mọi người bộ Anime : 銀の匙 (Gin no saji - Chiếc thìa bạc)\nBộ phim nói về nền nông nghiệp Nhật Bản (đặc biệt là ngành chăn nuôi bò sữa) nhưng không hề khô khan mà trái lại vô cùng hài hước, hấp dẫn, thông qua câu truyện về anh chàng Hachiken, vì muốn chạy trốn khỏi áp lực gia đình nên đã quyết định đến học ở trường trung cấp nông nghiệp Ezonoo. Và ở đây, cậu đã nhận được những bài học bổ ích về cuộc sống và bắt đầu thay đổi suy nghĩ về cuộc chạy trốn của mình :) \nTrong bộ phim này có một câu nói rất hay:\n男の価値は金の使い方で分かる\nGiá trị của người đàn ông thể hiện qua việc anh ta tiêu tiền của mình như thế nào.\n\nTrang chủ : http://www.ginsaji-anime.com/\nXem Online:\nEngsub:http://www.nwanime.com/gin-no-saji/anime/3340/\nVietsub: http://vietsub.vnsharing.net/Anime/Gin-no-Saji\nJap sub rời : http://kitsunekko.net/subtitles/japanese/Gin_No_Saji/\n\nBonus: Ending của ss1 \nhttps://www.youtube.com/watch?v=-5K5II52frQ","created_time":"2014-03-22T14:10:56+0000","updated_time":"2014-03-23T10:15:05+0000","likes":{"data":{"100003229084469":{"id":"100003229084469","name":"Huyền Phạm"},"100000427448138":{"id":"100000427448138","name":"Anh Tuan Pham"},"100001458099624":{"id":"100001458099624","name":"Kham Pha"},"100000244546698":{"id":"100000244546698","name":"Yun Chan"},"100000128242314":{"id":"100000128242314","name":"Nagayama Sei"},"100000500260636":{"id":"100000500260636","name":"Lưu Nguyễn Thảo Tiên"},"100001416272263":{"id":"100001416272263","name":"Mai PB"},"100000040762045":{"id":"100000040762045","name":"Bình Minh"},"100004003730563":{"id":"100004003730563","name":"Thành Thời Gian"},"100007779284399":{"id":"100007779284399","name":"Anh Anh"},"100000292556230":{"id":"100000292556230","name":"Duy Anh Phạm"},"100007352353080":{"id":"100007352353080","name":"Hằng Miumiu"},"100001526631937":{"id":"100001526631937","name":"Tường Oanh Mineko"},"100002508122689":{"id":"100002508122689","name":"Vũ Mạnh Tuấn"},"620066722":{"id":"620066722","name":"Dong Khac Thai"},"569263718":{"id":"569263718","name":"Phuong Thao Tran"},"100002654686712":{"id":"100002654686712","name":"Dương Nhật Minh"},"100003913383051":{"id":"100003913383051","name":"Tho Tran"},"100000720509116":{"id":"100000720509116","name":"Nguyễn Mạnh Trường"},"100002552647626":{"id":"100002552647626","name":"Trí Minh"},"100004981114111":{"id":"100004981114111","name":"Mx Chinh"},"100004486960803":{"id":"100004486960803","name":"Nga Sapphire"},"1816269439":{"id":"1816269439","name":"Dao Ngoc"}},"paging":{"cursors":{"after":"MTAwMDAzMjI5MDg0NDY5","before":"MTAwMDAzMjI5MDg0NDY5"},"next":"https://graph.facebook.com/229244010425617_837585049591507/likes?limit=1&summary=1&after=MTAwMDAzMjI5MDg0NDY5"},"summary":{"total_count":23}},"comments":{"data":{"838080222875323":{"id":"838080222875323","from":{"id":"100001416272263","name":"Mai PB"},"message":"Cho vào note phim nhé Trần Giáp","message_tags":[{"id":"100000328742646","name":"Trần Giáp","type":"user","offset":22,"length":9}],"can_remove":false,"created_time":"2014-03-23T09:14:38+0000","like_count":0,"user_likes":false},"838101742873171":{"id":"838101742873171","from":{"id":"100000328742646","name":"Trần Giáp"},"message":"ok ak","can_remove":false,"created_time":"2014-03-23T10:15:05+0000","like_count":0,"user_likes":false}},"paging":{"cursors":{"after":"ODM4MDgwMjIyODc1MzIz","before":"ODM4MDgwMjIyODc1MzIz"},"next":"https://graph.facebook.com/229244010425617_837585049591507/comments?limit=1&summary=1&after=ODM4MDgwMjIyODc1MzIz"},"summary":{"order":"chronological","total_count":2}}}