{"id":"229244010425617_837582866258392","type":"link","picture":"https://fbexternal-a.akamaihd.net/safe_image.php?d=AQDeF26Oe54W_vLi&w=154&h=154&url=http%3A%2F%2Fimg.v3.news.zdn.vn%2FUploaded%2Fmtfuc%2F2014_03_22%2F696895.jpg","link":"http://news.zing.vn/Mo-thung-loa-ve-chai-nguoi-phu-nu-Sai-Gon-thay-5-trieu-Yen-post401614.html#home_featured|tinnong","from":{"id":"100003826577214","name":"Lua Pham"},"message":"Thấy người ta nhặt được tiền, tới đòi ăn chia, chắc chỉ có người Việt chúng ta thôi^_^\nNếu ko xác minh được số tiền đó của ai, thì số tiền đó sẽ về đâu ??? \n\nhttp://news.zing.vn/Mo-thung-loa-ve-chai-nguoi-phu-nu-Sai-Gon-thay-5-trieu-Yen-post401614.html#home_featured|tinnong","created_time":"2014-03-22T14:06:43+0000","updated_time":"2014-03-25T09:49:45+0000","likes":{"data":{"100003124307460":{"id":"100003124307460","name":"Duc Giang"},"100007930417031":{"id":"100007930417031","name":"Trang Yamato"},"100003587314679":{"id":"100003587314679","name":"Why Die"},"100006568425779":{"id":"100006568425779","name":"Giau Le"},"100001897737171":{"id":"100001897737171","name":"Ngọc Phạm"},"100001311893008":{"id":"100001311893008","name":"Nguyen Minh"},"745565751":{"id":"745565751","name":"Tuyen Hoang Thi"},"100006734168968":{"id":"100006734168968","name":"Tiểu Nhân Mã"},"100001897645276":{"id":"100001897645276","name":"Duong Hanh"},"100001458099624":{"id":"100001458099624","name":"Kham Pha"},"100007553742936":{"id":"100007553742936","name":"Kien Phan"},"738235689":{"id":"738235689","name":"Dang Thi Phuong"},"100002360771722":{"id":"100002360771722","name":"Missing Piece"},"100004492933662":{"id":"100004492933662","name":"Sorakira Bui"},"100003847828571":{"id":"100003847828571","name":"Dương Kệ"},"100002937804655":{"id":"100002937804655","name":"Dương Nguyễn"},"569263718":{"id":"569263718","name":"Phuong Thao Tran"},"100002975299796":{"id":"100002975299796","name":"Trinh Tuan Anh"},"100002740076179":{"id":"100002740076179","name":"Chip Moon"},"100004186327955":{"id":"100004186327955","name":"Huyvinh Bui"},"100000264485156":{"id":"100000264485156","name":"Võ Sĩ Đại"},"100004981114111":{"id":"100004981114111","name":"Mx Chinh"},"100001899160152":{"id":"100001899160152","name":"Mạnh M-u"},"100001614782185":{"id":"100001614782185","name":"Oguri Bellus"},"100000240603209":{"id":"100000240603209","name":"Hoang De"}},"paging":{"cursors":{"after":"MTAwMDAzMTI0MzA3NDYw","before":"MTAwMDAzMTI0MzA3NDYw"},"next":"https://graph.facebook.com/229244010425617_837582866258392/likes?limit=1&summary=1&after=MTAwMDAzMTI0MzA3NDYw"},"summary":{"total_count":26}},"comments":{"data":{"837625049587507":{"id":"837625049587507","from":{"id":"100006617225684","name":"Rain Black"},"message":"Ðào Trang","message_tags":[{"id":"100003629647569","name":"Ðào Trang","type":"user","offset":0,"length":9}],"can_remove":false,"created_time":"2014-03-22T15:32:24+0000","like_count":0,"user_likes":false},"837654036251275":{"id":"837654036251275","from":{"id":"100003299598895","name":"Lau's Veneno"},"message":"cái j xâux cũng lôi lên","can_remove":false,"created_time":"2014-03-22T16:13:37+0000","like_count":1,"user_likes":false},"837657562917589":{"id":"837657562917589","from":{"id":"100000603915176","name":"悪いな ぁ"},"message":"Ối giời ơi má ơi, tiền kìa :((((","can_remove":false,"created_time":"2014-03-22T16:21:29+0000","like_count":0,"user_likes":false},"837661122917233":{"id":"837661122917233","from":{"id":"100003934051737","name":"Thanh Sói"},"message":"tết nhặt được 7trieu và bao nhiu the ngan hàng trả lại cho người ta còn bị bà mẹ ng ta ra nói xỏ kêu không bít trong ví có phải có 7 triệu không hay hơn :v hai. tức chết đi mất.làm ng tốt không xong","can_remove":false,"created_time":"2014-03-22T16:24:10+0000","like_count":4,"user_likes":false},"837851949564817":{"id":"837851949564817","from":{"id":"100007930417031","name":"Trang Yamato"},"message":"Gần nhà em có ông anh kia làm nghề sửa khoá. Đợi lúc nhà kế bên đi vắng, anh ta qua đấy mở két lấy trộm tiền. Lấy có 30 triệu trong két mà nhà ấy bảo : hơn 300 triệu. Đút lót bọn công an thế nào mà anh ta bị tù hơn 10 năm, bán hết tài sản để đền bù thiệt hại. Dù ăn trộm là xấu cần được nghiêm trị. Nhưng phải có lý có tình chứ nhỉ ?","can_remove":false,"created_time":"2014-03-22T23:32:37+0000","like_count":4,"user_likes":false},"837864762896869":{"id":"837864762896869","from":{"id":"100004106982617","name":"Cậu Bé Hư"},"message":"TRang pạn ở đâu để mình báo công an bạn đj cùng àk mà biết lấy 30tr","can_remove":false,"created_time":"2014-03-23T00:05:56+0000","like_count":0,"user_likes":false},"837911939558818":{"id":"837911939558818","from":{"id":"100003934051737","name":"Thanh Sói"},"message":"cũng có thể do thằng nào lấy chưa biết  thì ông kia vào trộm.chứ mà đổ vạ ngta nthe thì nhà đấy qúa đáng thật.ngta cũng có gia đình mà.tôi quen 1 đứa nó toàn lấy tiền két bố mẹ.bố mẹ nó cũng chả biết vì ko ktra","can_remove":false,"created_time":"2014-03-23T02:03:18+0000","like_count":0,"user_likes":false},"838099019540110":{"id":"838099019540110","from":{"id":"100003587314679","name":"Why Die"},"message":"Có câu này mình từng nghe được.. Và bây giờ vẫn lấy làm lối sống : sinh ra là người tốt thì hãy làm người tốt đi bạn . :)","can_remove":false,"created_time":"2014-03-23T10:06:46+0000","like_count":0,"user_likes":false},"838241686192510":{"id":"838241686192510","from":{"id":"100003826577214","name":"Lua Pham"},"message":"Trang Yamato câu chuyện của bạn, nghe sao mà nhói lòng quá, cũng tội cho ông đó. Nhưng đứng ở 1 phương diện nào đó, thì cũng là để răng đe việc trộm cắp. Giả sử ko phải do người đó bị tố ăn cắp 300 triệu, mà luật việt nam quy định, trộm cắp 30 triệu thì sẽ ở tù 10 năm. Thì có lẽ người ta sẽ ko trách người bị mất của.","message_tags":[{"id":"100007930417031","name":"Trang Yamato","type":"user","offset":0,"length":12}],"can_remove":false,"created_time":"2014-03-23T15:06:54+0000","like_count":0,"user_likes":false},"838265556190123":{"id":"838265556190123","from":{"id":"100007930417031","name":"Trang Yamato"},"message":"Gia đình anh ăn trộm quỳ lạy van xin mà không được đó chị à :(","can_remove":false,"created_time":"2014-03-23T15:43:56+0000","like_count":0,"user_likes":false},"838308999519112":{"id":"838308999519112","from":{"id":"100002779080239","name":"Nguyễn Biên"},"message":"Sau 1 năm ko có ai nhận thì sẽ thuộc về người nhặt đc. Vấn đề là với số tiền lớn thế trong 1 năm chắc sẽ có rất nhiều chuyện hay xảy ra. 神しか知りません","can_remove":false,"created_time":"2014-03-23T16:47:46+0000","like_count":0,"user_likes":false},"839329586083720":{"id":"839329586083720","from":{"id":"1146680551","name":"優しい なぁ"},"message":"Nhặt được của rơi đem trả lại mà cũng khổ vậy sao :(\n\nhttp://m.docbao.vn/tin-tuc/25-03-2014/Nhieu-nguoi-tu-nhan-la-chu-nhan-5-trieu-yen-Nhat/29/226458/","can_remove":false,"created_time":"2014-03-25T09:49:45+0000","like_count":0,"user_likes":false}},"paging":{"cursors":{"after":"ODM3NjI1MDQ5NTg3NTA3","before":"ODM3NjI1MDQ5NTg3NTA3"},"next":"https://graph.facebook.com/229244010425617_837582866258392/comments?limit=1&summary=1&after=ODM3NjI1MDQ5NTg3NTA3"},"summary":{"order":"chronological","total_count":12}}}