{"id":"229244010425617_837663129583699","type":"photo","object_id":"519154478167017","picture":"https://fbcdn-photos-e-a.akamaihd.net/hphotos-ak-ash3/t1.0-0/599694_519154478167017_918151948_s.png","link":"https://www.facebook.com/photo.php?fbid=519154478167017&set=a.521232197959245.1073741832.518862408196224&type=1","from":{"id":"1725907325","name":"Nguyen Van Dung"},"message":"Có nhiều bạn đặt câu hỏi rằng: \"phải bắt đầu học tiếng nhật như thế nào?\"\n\nxin được trả lời rằng: hãy đọc hết album bảng chữ cái này.\n\n1. Xác định lại mục đích học tiếng nhật \"vì sao lại học tiếng nhật\"\n(đây là phần rất quan trọng, không nên học nếu học để chơi bời vì nó sẽ làm tốn time của mình)\n2. học bảng chữ cái\n3. số đếm\n4. chào hỏi\n5 .....\n\n--\nhy vọng album này sẽ giúp ích cho các bạn.","created_time":"2014-03-22T16:28:09+0000","updated_time":"2014-03-23T10:13:31+0000","likes":{"data":{"100006039188117":{"id":"100006039188117","name":"一ノ濑 ことみ"},"100005365830857":{"id":"100005365830857","name":"Đặng Thu Huyền"},"1146680551":{"id":"1146680551","name":"優しい なぁ"},"1394148660":{"id":"1394148660","name":"Cừu Non"},"100000354581624":{"id":"100000354581624","name":"Tatu Kun"},"100002446120607":{"id":"100002446120607","name":"Hoanhuy Luu"},"100001518348768":{"id":"100001518348768","name":"Nguyễn Trọng Tước"},"100000022163023":{"id":"100000022163023","name":"Kafe Ore"},"1821970083":{"id":"1821970083","name":"Nguyễn Mạnh Cường"},"100001416272263":{"id":"100001416272263","name":"Mai PB"},"100006478677175":{"id":"100006478677175","name":"Nguyễn Thế Hải"},"100007988441472":{"id":"100007988441472","name":"Sống Mòn"},"100004268412433":{"id":"100004268412433","name":"Uyen Kim"},"100002950940496":{"id":"100002950940496","name":"Pham Haruko"},"100003486467129":{"id":"100003486467129","name":"YU GI"},"100001458099624":{"id":"100001458099624","name":"Kham Pha"},"569263718":{"id":"569263718","name":"Phuong Thao Tran"},"100001561791394":{"id":"100001561791394","name":"Quang Trung"},"100003918707209":{"id":"100003918707209","name":"Thunguyet Nguyen"},"100001122451473":{"id":"100001122451473","name":"Lavender Cullen"},"100001893759148":{"id":"100001893759148","name":"Thanh Tung"},"100002651270973":{"id":"100002651270973","name":"Lê Văn Tiến"},"100002929699354":{"id":"100002929699354","name":"Mai Phạm"},"100001997876607":{"id":"100001997876607","name":"Phằn Xong Lứa"},"100003869208806":{"id":"100003869208806","name":"Tuyết Giang Võ"},"100001526631937":{"id":"100001526631937","name":"Tường Oanh Mineko"},"100006925509134":{"id":"100006925509134","name":"Thủy Tâm"},"100005534227149":{"id":"100005534227149","name":"Băng Tâm"},"100001337073791":{"id":"100001337073791","name":"Gm NeverWinter"},"100004069491515":{"id":"100004069491515","name":"Mai Pham"},"100003029633462":{"id":"100003029633462","name":"Ngô Văn Tư"},"100004401512882":{"id":"100004401512882","name":"Vũ Minh Thắng"},"100000097351024":{"id":"100000097351024","name":"Nguyễn Đào Trọng Nghĩa"},"1566523575":{"id":"1566523575","name":"Hoàng Nguyễn"},"100000335640786":{"id":"100000335640786","name":"Nguyen Luong"},"100003340350463":{"id":"100003340350463","name":"Kim Thanh Tran"},"100005933650210":{"id":"100005933650210","name":"Thuy An Tran"},"1816269439":{"id":"1816269439","name":"Dao Ngoc"},"100003934051737":{"id":"100003934051737","name":"Thanh Sói"},"100006564880101":{"id":"100006564880101","name":"Thụy"},"100003762427351":{"id":"100003762427351","name":"Hiroshi Yasu Oki"}},"paging":{"cursors":{"after":"MTAwMDA2MDM5MTg4MTE3","before":"MTAwMDA2MDM5MTg4MTE3"},"next":"https://graph.facebook.com/229244010425617_837663129583699/likes?limit=1&summary=1&after=MTAwMDA2MDM5MTg4MTE3"},"summary":{"total_count":41}},"comments":{"data":{"837667102916635":{"id":"837667102916635","from":{"id":"100003762427351","name":"Hiroshi Yasu Oki"},"message":"Chính xác là bạn cần phải xác định mục đích học tiếng Nhật.\nTừ đó,tạo nên động cơ yêu thích tiếng Nhật,không ngừng học hỏi và phấn đấu!\nTuy nhiên,dạo này có rất nhiều chàng trai,cô gái học tiếng Nhật chỉ đê \"đi Nhật\",và phần lớn họ chỉ học từ 6 tháng tới 1 năm,có nghĩa là,căn bản của họ hầu như không khác con số 1 là bao...Họ chỉ có mục tiêu,chứ chưa có động cơ học tập!","can_remove":false,"created_time":"2014-03-22T16:31:05+0000","like_count":2,"user_likes":false},"837670479582964":{"id":"837670479582964","from":{"id":"100006925509134","name":"Thủy Tâm"},"message":"Học luật thì học tiếng nhật có tốt ko ạ","can_remove":false,"created_time":"2014-03-22T16:35:20+0000","like_count":0,"user_likes":false},"837672719582740":{"id":"837672719582740","from":{"id":"1725907325","name":"Nguyen Van Dung"},"message":"không phải là có tốt hay không mà là rất tốt.\nQuan trọng là có thích hay không?\n\nHãy coi nó là một món ăn lạ. Bạn hãy ăn thử xem sao?, biết đâu lại hợp với khẩu vị của bạn. ^^!","can_remove":false,"created_time":"2014-03-22T16:39:06+0000","like_count":3,"user_likes":false},"837673256249353":{"id":"837673256249353","from":{"id":"100004401512882","name":"Vũ Minh Thắng"},"message":"mục tiêu 6tháng có thể giao tiếp thông thường đc k vậy?ngữ pháp thì 50bài mina no nihongo.1ngày 10tiếng cho tiếng nhật liệu mình có thể đạt đc mục tiêu đề ra k vậy.","can_remove":false,"created_time":"2014-03-22T16:40:14+0000","like_count":0,"user_likes":false},"837673312916014":{"id":"837673312916014","from":{"id":"100003762427351","name":"Hiroshi Yasu Oki"},"message":"Vậy bạn có muốn thử làm một luật sự quốc tế chứ? ;)","can_remove":false,"created_time":"2014-03-22T16:40:21+0000","like_count":1,"user_likes":false},"837674136249265":{"id":"837674136249265","from":{"id":"100006925509134","name":"Thủy Tâm"},"message":"Hiroshi.e muốn chứ","can_remove":false,"created_time":"2014-03-22T16:42:10+0000","like_count":1,"user_likes":false},"837674986249180":{"id":"837674986249180","from":{"id":"100003762427351","name":"Hiroshi Yasu Oki"},"message":"Vậy em hãy thử xem mình có yêu thích bộ môn Luật không nhé? Em hãy thử bắt đầu với một số bộ luật VN trước đi,để xem em yêu thích chúng tới đâu :)","can_remove":false,"created_time":"2014-03-22T16:43:35+0000","like_count":0,"user_likes":false},"837675292915816":{"id":"837675292915816","from":{"id":"100006925509134","name":"Thủy Tâm"},"message":"Cho e hỏi pí quyết học là gj vậy?","can_remove":false,"created_time":"2014-03-22T16:44:17+0000","like_count":0,"user_likes":false},"837675799582432":{"id":"837675799582432","from":{"id":"100003762427351","name":"Hiroshi Yasu Oki"},"message":"Đồng thời,hãy nuôi khả năng nghe cãi nhau bằng tiếng Nhật với Drama Legal High + học tiếng Nhật ;)","can_remove":false,"created_time":"2014-03-22T16:44:55+0000","like_count":0,"user_likes":false},"837676046249074":{"id":"837676046249074","from":{"id":"100003762427351","name":"Hiroshi Yasu Oki"},"message":"học tiếng qua phim ảnh cũng là một cách hay đấy ;)","can_remove":false,"created_time":"2014-03-22T16:45:20+0000","like_count":0,"user_likes":false},"837676852915660":{"id":"837676852915660","from":{"id":"100006925509134","name":"Thủy Tâm"},"message":"Muc tiêu kủa e là sau 2 năm nữa có pằg n3 là e ok rồi.ko mog kao xa là kãi pằg tjếng nhật đâu","can_remove":false,"created_time":"2014-03-22T16:46:40+0000","like_count":1,"user_likes":false},"837677726248906":{"id":"837677726248906","from":{"id":"1725907325","name":"Nguyen Van Dung"},"message":"muốn học giỏi tiếng nhật trước tiên phải học giỏi tiếng việt. Đó là một bí quyết. Bạn nên sửa cách viết( cách nói chuyện) của mình thì sẽ tốt hơn đó.\n\nTham khảo:\n\nhttps://www.facebook.com/photo.php?fbid=546665858749212&set=pb.518862408196224.-2207520000.1395506764.&type=3&theater","can_remove":false,"created_time":"2014-03-22T16:48:33+0000","like_count":2,"user_likes":false},"837678856248793":{"id":"837678856248793","from":{"id":"100003657473061","name":"Vu Trung Kien"},"message":"A nói cũng đúng a Hiroshi Yasu Oki à nhưng phần lớn tụi e đi học mong là chỉ đk học tốt biết mấy nhưng đâu có đk đi sang đây vừa làm vừa lo lắng tiền đóng học tâm chí đâu học hử a , e rất tích tiếng nhật vì nó là một ngôn ngữ khó đòi hỏi mỗi ng khi học phải biết quyết tâm nếu quyết tâm thì mới đạt đk trình độ nhất định nhưng đời đâu đk như muốn a đi sang đây vừa làm vừa lo tiền học ng có việc ko sao người không có việc thì sao hử anh , còn riêng e ngày e chỉ làm đủ 5 tiếng và e giành riêng cho việc học thôi và nếu a có cách gì thi bày cho e cách học tốt nhất đk không a","message_tags":[{"id":"100003762427351","name":"Hiroshi Yasu Oki","type":"user","offset":18,"length":16}],"can_remove":false,"created_time":"2014-03-22T16:50:20+0000","like_count":1,"user_likes":false},"837679136248765":{"id":"837679136248765","from":{"id":"100006925509134","name":"Thủy Tâm"},"message":"Nguyen văn dũng.tơ nói gì sai à","can_remove":false,"created_time":"2014-03-22T16:50:53+0000","like_count":0,"user_likes":false},"837680772915268":{"id":"837680772915268","from":{"id":"1725907325","name":"Nguyen Van Dung"},"message":"Muc tiêu kủa e là sau 2 năm nữa có pằg n3 là e ok rồi.ko mog kao xa là kãi pằg tjếng nhật đâu\n\n=> Mục tiêu của Em là sau 2 năm nữa có bằng N3 là em ok rồi. Không mong cao xa là cái bằng tiếng nhật đâu.","can_remove":false,"created_time":"2014-03-22T16:53:38+0000","like_count":3,"user_likes":false},"837699109580101":{"id":"837699109580101","from":{"id":"100003762427351","name":"Hiroshi Yasu Oki"},"message":"uhm,điều này thực ra thì mình chỉ có thể giúp bạn một ý kiến nhỏ như sau thôi:\nbạn hãy mang theo một cuốn sổ nhỏ bên mình. Những lúc bạn nghe những đoạn hội thoại giữa người Nhật với người Nhật hay người Nhật với bạn,bạn hãy ghi vào cuốn sổ đó. Cứ ghi bằng tiếng việt cũng được,thử dịch chúng,rồi khi có thời gian rảnh,lại giở ra,viết lại chúng bằng Hiragana,đọc thử lại đoạn hội thoại đó,rồi nhớ lại nghĩa của nó.\nMỗi ngày một chút thôi nhé,bạn sẽ thấy mình có được rất nhiều thứ mới đó ;)","can_remove":false,"created_time":"2014-03-22T16:54:49+0000","like_count":2,"user_likes":false},"837699812913364":{"id":"837699812913364","from":{"id":"100003657473061","name":"Vu Trung Kien"},"message":"Trời mục tiêu là sao a. Đối với e đấy ko phải mục tiêu a à cơ bản đó là sở thích và thích bộ môn tiếng nhật thui nói chung là dù tiếng nước nào cũng vậy cần chăm chỉ là đk","can_remove":false,"created_time":"2014-03-22T16:56:06+0000","like_count":0,"user_likes":false},"837700806246598":{"id":"837700806246598","from":{"id":"100003762427351","name":"Hiroshi Yasu Oki"},"message":"Mục tiêu là kết quả bạn muốn đạt được đó ạ ;)\nMình thấy,mục tiêu của bạn có lẽ là sự thông thạo tiếng Nhật. Cố lên nhé!\nhãy dùng sự đam mê và khao khát tiếng Nhật của bạn làm động lực nhé!","can_remove":false,"created_time":"2014-03-22T16:57:53+0000","like_count":1,"user_likes":false},"837701062913239":{"id":"837701062913239","from":{"id":"100003342678621","name":"Kim Chi Cải Thảo"},"message":"Cho e hoj gjo lam cach nao de gjao tjep nhanh hon ko ?","can_remove":false,"created_time":"2014-03-22T16:58:19+0000","like_count":1,"user_likes":false},"837702079579804":{"id":"837702079579804","from":{"id":"100003657473061","name":"Vu Trung Kien"},"message":"Vâng e tks a nhé a Hiroshi Yasu Oki thật ra e cũng là ng có tính tò mo a ah và hay hỏi nhiều cả trên lớp và ngoài h nữa nhưng e áp dụng cấu trúc đã học ở việt nam hầu như thầy cô bảo ngữ pháp việt nam dậy nhiều chỗ sai lắm","message_tags":[{"id":"100003762427351","name":"Hiroshi Yasu Oki","type":"user","offset":19,"length":16}],"can_remove":false,"created_time":"2014-03-22T17:00:13+0000","like_count":1,"user_likes":false},"837702266246452":{"id":"837702266246452","from":{"id":"100003762427351","name":"Hiroshi Yasu Oki"},"message":"Viết những đoạn hội thoại bạn muốn nói,rồi đứng trước gương nhìn thẳng vào mắt mình,lấy một hơi rồi tập nói.\nCòn đến khi bạn cảm giác khá hơn rồi thì bạn hãy thử tham gia cùng các trung tâm tiếng Nhật để có thể luyện nghe - nói tốt hơn?\nà mà,bạn cũng nên luyện nghe nhiều bằng âm nhạc và multimedia nhé ;)","can_remove":false,"created_time":"2014-03-22T17:00:41+0000","like_count":1,"user_likes":false},"837703282913017":{"id":"837703282913017","from":{"id":"100004401512882","name":"Vũ Minh Thắng"},"message":"hôm qua mới học mấy video của anh dũng,cũng hay và dễ hiểu ghê,cái bài hát chuyển động từ sang thể T hay mà dễ nhớ,e học đc 10ngày rùi,ok 2bảng chữ cái,kanji khoảng 30từ,giới thiệu bản thân gia đình,tên tuổi giờ giấc cũng ok rùi. :)","can_remove":false,"created_time":"2014-03-22T17:02:46+0000","like_count":2,"user_likes":false},"837703292913016":{"id":"837703292913016","from":{"id":"100003762427351","name":"Hiroshi Yasu Oki"},"message":"hãy cứ nói cho đúng đi trước đã em ạ,rồi sau đó sẽ của lại từ từ sau!\ncăn cốt của em là cái nói trước đã,rồi mới đến ngữ pháp và dùng từ :)","can_remove":false,"created_time":"2014-03-22T17:02:47+0000","like_count":0,"user_likes":false},"837703786246300":{"id":"837703786246300","from":{"id":"100003342678621","name":"Kim Chi Cải Thảo"},"message":"Co quyen sach nao day gjao tjep ko ad .","can_remove":false,"created_time":"2014-03-22T17:03:53+0000","like_count":0,"user_likes":false},"837703889579623":{"id":"837703889579623","from":{"id":"1725907325","name":"Nguyen Van Dung"},"message":"Thảo: không có cách nào khác là ngoài việc học hàng ngày. Đó là cách nhanh nhất. Cần mẫn mò mẫm tìm kiếm các từ mới, các mẫu câu, các tình huống giao tiếp... học nó và thực hành nó.\n\nHãy coi nó (tiếng nhật) như là một anh chàng điển trai, trong mộng của mình. Lúc nào cũng hằng ao ước được gặp anh ấy. Và đến một ngày nào đó anh ấy sẽ cầu hôn với bạn. :V","can_remove":false,"created_time":"2014-03-22T17:04:04+0000","like_count":6,"user_likes":false},"837705362912809":{"id":"837705362912809","from":{"id":"100003342678621","name":"Kim Chi Cải Thảo"},"message":"Vay thj kho wa .e gjo moj chj noj duok theo ngu phap hok .ma ngoaj doj sog kho noj wa .","can_remove":false,"created_time":"2014-03-22T17:06:47+0000","like_count":1,"user_likes":false},"837705646246114":{"id":"837705646246114","from":{"id":"100004401512882","name":"Vũ Minh Thắng"},"message":"a dũng ơi e mới xem đc 8video của a,e xem trên youtube,a vẫn còn post video mới hả a?","can_remove":false,"created_time":"2014-03-22T17:07:24+0000","like_count":0,"user_likes":false},"837706029579409":{"id":"837706029579409","from":{"id":"100006925509134","name":"Thủy Tâm"},"message":"làm sao đẻ koi dc những video ấy","can_remove":false,"created_time":"2014-03-22T17:08:12+0000","like_count":0,"user_likes":false},"837706056246073":{"id":"837706056246073","from":{"id":"100003342678621","name":"Kim Chi Cải Thảo"},"message":"Ad oj chu kanji kho nho wa lam cach nao de hok dk ko a.","can_remove":false,"created_time":"2014-03-22T17:08:14+0000","like_count":0,"user_likes":false},"837706182912727":{"id":"837706182912727","from":{"id":"100003762427351","name":"Hiroshi Yasu Oki"},"message":"uhm,em thử viết một câu nói theo đúng ngữ pháp ra giấy và đọc nói xem nào?\nhãy thử nghĩ về nghĩa của câu nói đó ;)\nđầu tiên em cũng cần phải nắm chắc ngữ pháp,và cách vận dụng nó :)","can_remove":false,"created_time":"2014-03-22T17:08:29+0000","like_count":0,"user_likes":false},"837706732912672":{"id":"837706732912672","from":{"id":"100003762427351","name":"Hiroshi Yasu Oki"},"message":"Nguyen Van Dung anh nói thế,nhiều bạn trai lại nghi ngờ giới tính ai đó :P","message_tags":[{"id":"1725907325","name":"Nguyen Van Dung","type":"user","offset":0,"length":15}],"can_remove":false,"created_time":"2014-03-22T17:09:29+0000","like_count":0,"user_likes":false},"837707282912617":{"id":"837707282912617","from":{"id":"100003657473061","name":"Vu Trung Kien"},"message":"Hjhj a nguyen van dung nói hay đó e thích câu này","can_remove":false,"created_time":"2014-03-22T17:10:30+0000","like_count":0,"user_likes":false},"837707439579268":{"id":"837707439579268","from":{"id":"100003342678621","name":"Kim Chi Cải Thảo"},"message":"Vag","can_remove":false,"created_time":"2014-03-22T17:10:59+0000","like_count":0,"user_likes":false},"837707472912598":{"id":"837707472912598","from":{"id":"1725907325","name":"Nguyen Van Dung"},"message":"Anh đang làm nhé. Làm xong cái nào anh sẽ đăng lên (anh dạy một vài ngữ pháp cơ bản rồi chuyển sang dạy tiếng nhật đàm thoại, hội thoại hàng ngày)\n\nem có thể coi các clip của Em kawamamisato dưới đây nhé. Có phụ đề tiếng anh đó.\n\nhttps://www.youtube.com/playlist?list=PLINFE8v4DOhu_3LutLwJWetAhdcCrBF4X","can_remove":false,"created_time":"2014-03-22T17:11:07+0000","like_count":0,"user_likes":false},"837708046245874":{"id":"837708046245874","from":{"id":"100003762427351","name":"Hiroshi Yasu Oki"},"message":"eo ơi chị Mishato xinh thế >_<\nà mà,anh cho bên Hội những người yêu thích nền văn hóa Nhật Bản của em thầu mấy cái clip dạy tiếng Nhật của anh nhé ;)\nThực chất là em muốn chia sẻ lại + tự học thôi anh nhá ;)","message_tags":[{"id":"147526675372517","name":"Hội những người yêu thích nền văn hóa Nhật Bản","type":"page","offset":48,"length":46}],"can_remove":false,"created_time":"2014-03-22T17:12:28+0000","like_count":0,"user_likes":false},"837708436245835":{"id":"837708436245835","from":{"id":"1725907325","name":"Nguyen Van Dung"},"message":"ok. em cứ share thoải mái đi. ^^!","can_remove":false,"created_time":"2014-03-22T17:13:14+0000","like_count":1,"user_likes":false},"837709016245777":{"id":"837709016245777","from":{"id":"100003342678621","name":"Kim Chi Cải Thảo"},"message":"Cho e hoj a co pjt trung tam nao dang tjn cay ko a.","can_remove":false,"created_time":"2014-03-22T17:13:57+0000","like_count":1,"user_likes":false},"837711512912194":{"id":"837711512912194","from":{"id":"100003657473061","name":"Vu Trung Kien"},"message":"Tinh hinh may a cho e tham gia voi va e xin lam nguoi theo doi","can_remove":false,"created_time":"2014-03-22T17:16:12+0000","like_count":0,"user_likes":false},"837712166245462":{"id":"837712166245462","from":{"id":"100003762427351","name":"Hiroshi Yasu Oki"},"message":"Em ở Hà Nội nhỉ?\nEm có thể đến những trung tâm sau:\n- Trung tâm Núi Trúc\n- Trung tâm tiếng Nhật Osaka 154 Phố Vọng - Hà Nội.\n- Trung tâm Mina\n- Trung tâm Akira - Wow Japanese","can_remove":false,"created_time":"2014-03-22T17:17:33+0000","like_count":0,"user_likes":false},"837712869578725":{"id":"837712869578725","from":{"id":"100003342678621","name":"Kim Chi Cải Thảo"},"message":"Vag e kam ơn a.","can_remove":false,"created_time":"2014-03-22T17:19:01+0000","like_count":0,"user_likes":false},"837713232912022":{"id":"837713232912022","from":{"id":"100003342678621","name":"Kim Chi Cải Thảo"},"message":"Ad oj lam cach nao de co the hok duoc chu kanji a.","can_remove":false,"created_time":"2014-03-22T17:19:52+0000","like_count":0,"user_likes":false},"837713352912010":{"id":"837713352912010","from":{"id":"100003762427351","name":"Hiroshi Yasu Oki"},"message":"anh zai Vu Trung Kien kìa ;)","message_tags":[{"id":"100003657473061","name":"Vu Trung Kien","type":"user","offset":8,"length":13}],"can_remove":false,"created_time":"2014-03-22T17:20:15+0000","like_count":0,"user_likes":false},"837714529578559":{"id":"837714529578559","from":{"id":"100001243411261","name":"Ngưu Tỷ Tỷ"},"message":"em học vì trai và đi qua đây vì theo trai, có phải là lý do không ? :v","can_remove":false,"created_time":"2014-03-22T17:22:43+0000","like_count":0,"user_likes":false},"837715626245116":{"id":"837715626245116","from":{"id":"100003657473061","name":"Vu Trung Kien"},"message":"Sao tự dưng lôi e vào đây a Hiroshi Yasu Oki","message_tags":[{"id":"100003762427351","name":"Hiroshi Yasu Oki","type":"user","offset":28,"length":16}],"can_remove":false,"created_time":"2014-03-22T17:25:06+0000","like_count":1,"user_likes":false},"837716679578344":{"id":"837716679578344","from":{"id":"100003657473061","name":"Vu Trung Kien"},"message":"A Hiroshi Yasu Oki và a Nguyen Van Dung ơi có bí quyết j chỉ e với nha","message_tags":[{"id":"100003762427351","name":"Hiroshi Yasu Oki","type":"user","offset":2,"length":16},{"id":"100003533332445","name":"Dung","type":"user","offset":35,"length":4}],"can_remove":false,"created_time":"2014-03-22T17:26:56+0000","like_count":1,"user_likes":false},"837716739578338":{"id":"837716739578338","from":{"id":"100003762427351","name":"Hiroshi Yasu Oki"},"message":"Nhầm người :v\nAnh Nguyen Van Dung kìa,chỉ cho bạn ấy cách ghi nhớ kanji nào ;)","message_tags":[{"id":"1725907325","name":"Nguyen Van Dung","type":"user","offset":18,"length":15}],"can_remove":false,"created_time":"2014-03-22T17:27:06+0000","like_count":0,"user_likes":false},"837716879578324":{"id":"837716879578324","from":{"id":"100003762427351","name":"Hiroshi Yasu Oki"},"message":"đêm rồi,trời lạnh mắt không kính nên hay nhầm :3","can_remove":false,"created_time":"2014-03-22T17:27:26+0000","like_count":1,"user_likes":false},"837717326244946":{"id":"837717326244946","from":{"id":"1725907325","name":"Nguyen Van Dung"},"message":"Anh ko có cách nhớ kanji, em có thể google tìm hiểu nhé. Lâu lắm rồi anh ko học kanji, giờ dốt lắm rồi.","can_remove":false,"created_time":"2014-03-22T17:28:19+0000","like_count":1,"user_likes":false},"837717962911549":{"id":"837717962911549","from":{"id":"100003342678621","name":"Kim Chi Cải Thảo"},"message":"Troj sao may a ku phaj day wa day laj the .ko mun gjup chu gj?","can_remove":false,"created_time":"2014-03-22T17:29:36+0000","like_count":1,"user_likes":false},"837718219578190":{"id":"837718219578190","from":{"id":"100003342678621","name":"Kim Chi Cải Thảo"},"message":"Da vang","can_remove":false,"created_time":"2014-03-22T17:30:04+0000","like_count":0,"user_likes":false},"837718496244829":{"id":"837718496244829","from":{"id":"100003762427351","name":"Hiroshi Yasu Oki"},"message":"giúp giúp ;)\nem bây giờ mua một cuốn Hán tự nhé,mua thêm cuốn sổ nhé,vừa học vừa ghi vào,rồi đến lúc rảnh thì giở ra mà đọc~\nnhớ là có thêm ví dụ nhé ;)","can_remove":false,"created_time":"2014-03-22T17:30:38+0000","like_count":1,"user_likes":false},"837719099578102":{"id":"837719099578102","from":{"id":"100003342678621","name":"Kim Chi Cải Thảo"},"message":"Hjh nhu kaj do co gjao e kug noj thj phaj","can_remove":false,"created_time":"2014-03-22T17:31:41+0000","like_count":0,"user_likes":false},"837719159578096":{"id":"837719159578096","from":{"id":"100003657473061","name":"Vu Trung Kien"},"message":"Học kanji học theo bộ hoặc theo cách viết âm ôn và âm kưn và nhơ nghĩa hán việt viết thật nhiều okm","can_remove":false,"created_time":"2014-03-22T17:31:45+0000","like_count":1,"user_likes":false},"837719482911397":{"id":"837719482911397","from":{"id":"100003342678621","name":"Kim Chi Cải Thảo"},"message":"Arigato","can_remove":false,"created_time":"2014-03-22T17:32:26+0000","like_count":0,"user_likes":false},"837720992911246":{"id":"837720992911246","from":{"id":"100003762427351","name":"Hiroshi Yasu Oki"},"message":"hay giống cái trò này của anh này:\nGhi thêm ví dụ dùng câu.\nBạn nên nhớ câu nói có sử dụng chữ đó là được.\nGiống như Utsukushi －美しいlà đẹp.\nNhưng Bi －美 cũng là cách nói khác của đẹp.\nVậy thì bạn nên nhớ như là:\nAno onna wa utsukushi desu ne!\nあの女は美しいですね！\nCái cô kia trông xinh đấy chứ nhỉ?\n\nBijin\n美人\nMỹ nhân \n\nBạn hiểu chứ ạ?","can_remove":false,"created_time":"2014-03-22T17:35:11+0000","like_count":0,"user_likes":false},"837722022911143":{"id":"837722022911143","from":{"id":"100003342678621","name":"Kim Chi Cải Thảo"},"message":"Vag .","can_remove":false,"created_time":"2014-03-22T17:38:02+0000","like_count":0,"user_likes":false},"838101199539892":{"id":"838101199539892","from":{"id":"1394148660","name":"Cừu Non"},"message":"Dương Uyên :D","message_tags":[{"id":"1349577898","name":"Dương Uyên","type":"user","offset":0,"length":10}],"can_remove":false,"created_time":"2014-03-23T10:13:31+0000","like_count":0,"user_likes":false}},"paging":{"cursors":{"after":"ODM3NjY3MTAyOTE2NjM1","before":"ODM3NjY3MTAyOTE2NjM1"},"next":"https://graph.facebook.com/229244010425617_837663129583699/comments?limit=1&summary=1&after=ODM3NjY3MTAyOTE2NjM1"},"summary":{"order":"chronological","total_count":57}}}