{"id":"229244010425617_837876129562399","type":"status","from":{"id":"1816269439","name":"Dao Ngoc"},"message":"Mời các bạn thưởng thức bản cover \"Minh yêu nhau đi\" của một bác Nhật rất yêu quý Việt Nam và sempai của mình! \nChúc cả nhà cuối tuần vui vẻ!","created_time":"2014-03-23T00:39:59+0000","updated_time":"2014-03-24T02:17:36+0000","likes":{"data":{"100001645111058":{"id":"100001645111058","name":"Nguyen Duc Huy"},"100001286971334":{"id":"100001286971334","name":"Oắt Dơ Fắc"},"1848242586":{"id":"1848242586","name":"Thùy Hoàng"},"100007930417031":{"id":"100007930417031","name":"Trang Yamato"},"100003188105866":{"id":"100003188105866","name":"Momiji Chan"},"100000358827536":{"id":"100000358827536","name":"Châm Bầu"},"100007468213697":{"id":"100007468213697","name":"Minh Cảnh"},"100000500260636":{"id":"100000500260636","name":"Lưu Nguyễn Thảo Tiên"},"100004649284698":{"id":"100004649284698","name":"コン マイ"},"100005882102567":{"id":"100005882102567","name":"Uongcafe Hizen"},"100000109783013":{"id":"100000109783013","name":"Lai Hoa"},"100007970592994":{"id":"100007970592994","name":"Chongungthu Tra"},"100000603915176":{"id":"100000603915176","name":"悪いな ぁ"},"1012068807":{"id":"1012068807","name":"Конан Незнамсикоев"},"100002936888737":{"id":"100002936888737","name":"Trin Hoa An"},"100000226547078":{"id":"100000226547078","name":"Phuong Linh Pham"},"100000178074664":{"id":"100000178074664","name":"Dinh Thi Thu Huong"},"100005877995098":{"id":"100005877995098","name":"Thien Nguyen"},"100003950139327":{"id":"100003950139327","name":"Kathy Banh"},"100005762196537":{"id":"100005762196537","name":"Quynhnhu Nguyen"},"100003521794748":{"id":"100003521794748","name":"Hoàng Trần Ngọc Cường"},"100003731623249":{"id":"100003731623249","name":"Mai Nguyen"},"100005888881007":{"id":"100005888881007","name":"Phiếu Kòi"},"100006528392123":{"id":"100006528392123","name":"Thảo Huỳnh"},"100000451899565":{"id":"100000451899565","name":"Tien Dung Nguyen"},"100006114753579":{"id":"100006114753579","name":"Doi Dua Lech"},"100001526631937":{"id":"100001526631937","name":"Tường Oanh Mineko"},"100004046108560":{"id":"100004046108560","name":"MiSo Cochunho"},"100002470650247":{"id":"100002470650247","name":"LinhLinh Chan"},"587084690":{"id":"587084690","name":"Bitter Candy"},"1397083684":{"id":"1397083684","name":"Păng Chan"},"100004374573625":{"id":"100004374573625","name":"Theu Vu"},"100003874040211":{"id":"100003874040211","name":"Long Bui"},"100004313163753":{"id":"100004313163753","name":"Cướp Biển Xinh Trai"},"100000187856584":{"id":"100000187856584","name":"Linh Hachi"},"100001458099624":{"id":"100001458099624","name":"Kham Pha"},"100004092183472":{"id":"100004092183472","name":"Bich Ngoc"},"100006288731124":{"id":"100006288731124","name":"Yutaka Harada"},"100007132717213":{"id":"100007132717213","name":"Vũ Huế"},"100002675248579":{"id":"100002675248579","name":"Ecchi Deviluke"},"100003913383051":{"id":"100003913383051","name":"Tho Tran"},"100007235437741":{"id":"100007235437741","name":"Trang Virgo"},"1557064760":{"id":"1557064760","name":"Lợi Hứa"},"100005387051072":{"id":"100005387051072","name":"Nguyễn Vinh Việt"},"100000089472724":{"id":"100000089472724","name":"Duy Nguyen"},"100005813941367":{"id":"100005813941367","name":"TY Tran"},"100000421724576":{"id":"100000421724576","name":"Trang Nguyen"},"100006043383782":{"id":"100006043383782","name":"Ngọc Lan"},"100000292556230":{"id":"100000292556230","name":"Duy Anh Phạm"},"100000148600266":{"id":"100000148600266","name":"Tamomi Chan"},"675816615":{"id":"675816615","name":"Nguyen Lieu Thu"},"100000309978634":{"id":"100000309978634","name":"Tan Vu"},"100003190321091":{"id":"100003190321091","name":"Yuki No Hana"},"100000381394367":{"id":"100000381394367","name":"Thành Nguyễn"},"100004087203108":{"id":"100004087203108","name":"Telùn Tèluntun"},"100000355576941":{"id":"100000355576941","name":"Hai Do Minh"},"100003090738530":{"id":"100003090738530","name":"Ngô Thị Thanh Hường"},"100003349214920":{"id":"100003349214920","name":"Gio Mua Ngay Ha"},"100000146166383":{"id":"100000146166383","name":"Minh Hong Nguyen"},"100002134083104":{"id":"100002134083104","name":"Bùi Quang Hoàng"},"100004065876647":{"id":"100004065876647","name":"Mrt Nguyễn"},"724593169":{"id":"724593169","name":"Ngo Thu Hien"},"1103173052":{"id":"1103173052","name":"Uyên Nguyễn"},"100002929489687":{"id":"100002929489687","name":"Yume Yuyu"},"100003027977812":{"id":"100003027977812","name":"Hoa Huynh"},"100006061929602":{"id":"100006061929602","name":"SuSu Jackson"},"100003939512448":{"id":"100003939512448","name":"My Enternyl"},"100001416272263":{"id":"100001416272263","name":"Mai PB"},"100007396898008":{"id":"100007396898008","name":"My Hanh"},"100004609630513":{"id":"100004609630513","name":"Hà Trang"},"1850147953":{"id":"1850147953","name":"Rùa Con"},"100003689503138":{"id":"100003689503138","name":"Mazi Queen"},"1082956399":{"id":"1082956399","name":"Danny Dee Nguyen IE"},"100003706563166":{"id":"100003706563166","name":"Long Bùi"},"100003849617303":{"id":"100003849617303","name":"Sinh Nguyen"},"100005067546276":{"id":"100005067546276","name":"Quynh Buivan"},"100004101038669":{"id":"100004101038669","name":"Oanh Inoshishi"},"569263718":{"id":"569263718","name":"Phuong Thao Tran"},"100006259453558":{"id":"100006259453558","name":"Lê Bình"},"100007988441472":{"id":"100007988441472","name":"Sống Mòn"},"100003275921481":{"id":"100003275921481","name":"Vũ Thanh Tùng"},"100003738033219":{"id":"100003738033219","name":"Yuni Hà"},"100006734168968":{"id":"100006734168968","name":"Tiểu Nhân Mã"},"100004492744468":{"id":"100004492744468","name":"Khanhquynh Lengoc"},"100001851653021":{"id":"100001851653021","name":"Yenngoc Tran"},"100001432462223":{"id":"100001432462223","name":"Truong Nguyen"},"100003349778730":{"id":"100003349778730","name":"Ngọc Ngơ Ngơ"},"100004454232040":{"id":"100004454232040","name":"Ngựa BAy"},"100003790715286":{"id":"100003790715286","name":"Công Pham"},"100001995633843":{"id":"100001995633843","name":"Yasunobu Toda"},"100002444618453":{"id":"100002444618453","name":"Tomio  Ueno"},"100000155586165":{"id":"100000155586165","name":"Amelie Miyuki Do"},"100006436037655":{"id":"100006436037655","name":"Ngo Na"},"100004095877200":{"id":"100004095877200","name":"Một Lần Để Yêu"},"100003094158721":{"id":"100003094158721","name":"Hikari Truong"},"100003103086919":{"id":"100003103086919","name":"Tâm Hiếu"}},"paging":{"cursors":{"after":"MTAwMDAxNjQ1MTExMDU4","before":"MTAwMDAxNjQ1MTExMDU4"},"next":"https://graph.facebook.com/229244010425617_837876129562399/likes?limit=1&summary=1&after=MTAwMDAxNjQ1MTExMDU4"},"summary":{"total_count":97}},"comments":{"data":{"837877879562224":{"id":"837877879562224","from":{"id":"100003776781273","name":"Dou Ckt"},"message":"Sao ko up lời tiếng nhật luôn","can_remove":false,"created_time":"2014-03-23T00:44:34+0000","like_count":0,"user_likes":false},"837878749562137":{"id":"837878749562137","from":{"id":"100003094158721","name":"Hikari Truong"},"message":"Sốc lắm cái đĩa tiền","can_remove":false,"created_time":"2014-03-23T00:47:05+0000","like_count":1,"user_likes":false},"837894512893894":{"id":"837894512893894","from":{"id":"100001432462223","name":"Truong Nguyen"},"message":":v","can_remove":false,"created_time":"2014-03-23T01:25:46+0000","like_count":0,"user_likes":false},"837896682893677":{"id":"837896682893677","from":{"id":"100003275921481","name":"Vũ Thanh Tùng"},"message":"Dc do","can_remove":false,"created_time":"2014-03-23T01:29:53+0000","like_count":0,"user_likes":false},"837947832888562":{"id":"837947832888562","from":{"id":"1816269439","name":"Dao Ngoc"},"message":"Bạn click vào link sẽ có ảnh ghi lời bài hát nhé. Dou Ckt!","can_remove":false,"created_time":"2014-03-23T03:25:57+0000","like_count":1,"user_likes":false},"838004076216271":{"id":"838004076216271","from":{"id":"100007235437741","name":"Trang Virgo"},"message":"Chất quá...","can_remove":false,"created_time":"2014-03-23T05:45:12+0000","like_count":0,"user_likes":false},"838004096216269":{"id":"838004096216269","from":{"id":"100003913383051","name":"Tho Tran"},"message":"Hi hi","can_remove":false,"created_time":"2014-03-23T05:45:19+0000","like_count":0,"user_likes":false},"838302019519810":{"id":"838302019519810","from":{"id":"100000603915176","name":"悪いな ぁ"},"message":"","can_remove":false,"created_time":"2014-03-23T16:35:18+0000","like_count":0,"user_likes":false},"838399556176723":{"id":"838399556176723","from":{"id":"100007468213697","name":"Minh Cảnh"},"message":"Chị Dao Ngoc ..e share đc k ạ..hì","can_remove":false,"created_time":"2014-03-23T20:04:51+0000","like_count":1,"user_likes":false},"838546386162040":{"id":"838546386162040","from":{"id":"1816269439","name":"Dao Ngoc"},"message":"Minh Cảnh: thoải mái nha em^^","message_tags":[{"id":"100007468213697","name":"Minh Cảnh","type":"user","offset":0,"length":9}],"can_remove":false,"created_time":"2014-03-24T02:17:36+0000","like_count":1,"user_likes":false}},"paging":{"cursors":{"after":"ODM3ODc3ODc5NTYyMjI0","before":"ODM3ODc3ODc5NTYyMjI0"},"next":"https://graph.facebook.com/229244010425617_837876129562399/comments?limit=1&summary=1&after=ODM3ODc3ODc5NTYyMjI0"},"summary":{"order":"chronological","total_count":10}}}