{"id":"229244010425617_838117896204889","type":"status","from":{"id":"100000166766026","name":"Challi Lai"},"message":"có bác nào nhận đưa kỹ sư đi nhật không? em đang có nhu cầu muốn đi. em học cntt.","created_time":"2014-03-23T10:55:38+0000","updated_time":"2014-03-23T16:44:18+0000","likes":{"data":{"100004296428209":{"id":"100004296428209","name":"Cu Cau"},"100002975299796":{"id":"100002975299796","name":"Trinh Tuan Anh"}},"paging":{"cursors":{"after":"MTAwMDA0Mjk2NDI4MjA5","before":"MTAwMDA0Mjk2NDI4MjA5"},"next":"https://graph.facebook.com/229244010425617_838117896204889/likes?limit=1&summary=1&after=MTAwMDA0Mjk2NDI4MjA5"},"summary":{"total_count":2}},"comments":{"data":{"838121042871241":{"id":"838121042871241","from":{"id":"100004528082100","name":"フン グェン"},"message":"Liên lạc 0936973929","can_remove":false,"created_time":"2014-03-23T11:01:45+0000","like_count":0,"user_likes":false},"838128729537139":{"id":"838128729537139","from":{"id":"100007480055384","name":"Bùi Trung Dũng"},"message":"lien he Trần Phương Tâm","message_tags":[{"id":"100003677953704","name":"Trần Phương Tâm","type":"user","offset":8,"length":15}],"can_remove":false,"created_time":"2014-03-23T11:22:20+0000","like_count":0,"user_likes":false},"838205046196174":{"id":"838205046196174","from":{"id":"100004873984337","name":"Itachi Katana"},"message":"Đi Nhật theo ktv(bằng ks) thì ít nhất bạn phải có n3, và phải được người Nhật về pv. Còn nếu ko, chắc chắn là bọn lừa người thôi. Bạn mình có 2 đứa bị lừa giữ bằng với tiền đặt cọc hơn 1 năm nay đã lấy đc đâu. Phải cẩn thận bạn nhé, cái gì cũng có giá của nó, ko dễ dàng đâu và điều này nữa, cái bằng đh của VN ko có giá trị gì trong mắt bọn nc ngoài đâu, cái quan trọng là bản thân bạn đó. Thế nhé!","can_remove":false,"created_time":"2014-03-23T13:56:04+0000","like_count":3,"user_likes":false},"838230559526956":{"id":"838230559526956","from":{"id":"100008020476146","name":"Gió Đông"},"message":"ad Anh Tuan Nguyen và Miu Buồn có thể giúp ko ạ? Em cũng đang muốn tìm hiểu :D","can_remove":false,"created_time":"2014-03-23T14:49:35+0000","like_count":0,"user_likes":false},"838306406186038":{"id":"838306406186038","from":{"id":"100003822434250","name":"Sói Đây Gà Đâu"},"message":"Kỹ sư ở vn sang đây cũng chỉ là thằng công nhân thôi. Bằng vn ko có giá trị bên này.","can_remove":false,"created_time":"2014-03-23T16:44:18+0000","like_count":0,"user_likes":false}},"paging":{"cursors":{"after":"ODM4MTIxMDQyODcxMjQx","before":"ODM4MTIxMDQyODcxMjQx"},"next":"https://graph.facebook.com/229244010425617_838117896204889/comments?limit=1&summary=1&after=ODM4MTIxMDQyODcxMjQx"},"summary":{"order":"chronological","total_count":5}}}