{"id":"229244010425617_838112726205406","type":"link","picture":"https://fbexternal-a.akamaihd.net/safe_image.php?d=AQBWb01zOVxtyxZZ&w=154&h=154&url=http%3A%2F%2Fm.f25.img.vnecdn.net%2F2014%2F03%2F22%2Fphoto-president-4089-1395470462_362x272.jpg","link":"http://vnexpress.net/tin-tuc/thoi-su/duong-sat-viet-nam-xac-minh-nghi-an-nhan-hoi-lo-80-trieu-yen-2967506.html","from":{"id":"100000381394367","name":"Thành Nguyễn"},"message":"Một tín hiệu đáng buồn nữa, những cũng có một tín hiệu vui đi kèm đó là ngày nay xã hội đã trở nên minh bạch hơn và khi thông tin được kết nối thì những điều ám muội sẽ không thể giấu diếm mãi, sẽ có lúc bị phơi bày ra ánh sáng. \n\nXã hội Nhật là một xã hội cởi mở về thông tin nên khi Việt Nam và Nhật Bản kết nối với nhau thì ngay cả một xã hội mà sự tự do thông tin bị hạn chế ở mức top của thế giới thì vẫn có cơ hội cho sự thật tìm được chỗ cho mình một cách công khai mà không bị đe dọa. Tất nhiên còn nhiều sự thật khác không có được cái may mắn như thế và chúng ta vẫn còn sống trong trạng thái mù mờ về rất nhiều vấn đề lớn của đất nước. \n\nMột trong những lý do làm cho một đất nước kém phát triển là vì người dân đất nước đó không biết chỗ sai, hỏng của đất nước mình nó nằm ở đâu, không thể bắt bệnh thì cũng không thể nào trị được bệnh. Hy vọng rằng cùng với việc càng ngày các kết nối của Việt Nam và thế giới được mở rộng thì theo nguyên lý \"bình thông nhau\" những cái ưu việt của các xã hội văn minh cũng luân chuyển về Việt Nam. \n\nhttp://vnexpress.net/tin-tuc/thoi-su/duong-sat-viet-nam-xac-minh-nghi-an-nhan-hoi-lo-80-trieu-yen-2967506.html","created_time":"2014-03-23T10:45:38+0000","updated_time":"2014-03-23T21:51:59+0000","likes":{"data":{"651345012":{"id":"651345012","name":"Ngoc Atho"},"1816269439":{"id":"1816269439","name":"Dao Ngoc"},"1318895018":{"id":"1318895018","name":"Van T Tran"},"100000089472724":{"id":"100000089472724","name":"Duy Nguyen"},"100007930417031":{"id":"100007930417031","name":"Trang Yamato"},"100000022163023":{"id":"100000022163023","name":"Kafe Ore"},"100002453893230":{"id":"100002453893230","name":"Lê Tâm"},"1416265619":{"id":"1416265619","name":"Starwar Bbj"},"100001754136107":{"id":"100001754136107","name":"Nguyễn Tuấn Vũ"},"1725907325":{"id":"1725907325","name":"Nguyen Van Dung"},"100002907638629":{"id":"100002907638629","name":"Huyền Trang"},"569263718":{"id":"569263718","name":"Phuong Thao Tran"},"100003635232168":{"id":"100003635232168","name":"Thanh Bg"},"100000918871201":{"id":"100000918871201","name":"Thang PhanVan"},"100000500260636":{"id":"100000500260636","name":"Lưu Nguyễn Thảo Tiên"}},"paging":{"cursors":{"after":"NjUxMzQ1MDEy","before":"NjUxMzQ1MDEy"},"next":"https://graph.facebook.com/229244010425617_838112726205406/likes?limit=1&summary=1&after=NjUxMzQ1MDEy"},"summary":{"total_count":15}},"comments":{"data":{"838135712869774":{"id":"838135712869774","from":{"id":"100001432462223","name":"Truong Nguyen"},"message":"trùng lắm thế ad :3 mỗi người giật 1 tít ntn, nghe như báo mạng luôn :))","can_remove":false,"created_time":"2014-03-23T11:41:01+0000","like_count":0,"user_likes":false},"838254512857894":{"id":"838254512857894","from":{"id":"100000381394367","name":"Thành Nguyễn"},"message":"Thứ nhất là mình đăng bài và không có giật tít nào cả, chỉ có đoạn nhận xét của mình. Bài báo này chưa xuất hiện trên group nên mình đăng, còn ai đó giật tít thì mình không rõ. Bạn có thể copy link lại đây.","can_remove":false,"created_time":"2014-03-23T15:25:47+0000","like_count":0,"user_likes":false},"838268929523119":{"id":"838268929523119","from":{"id":"100000603915176","name":"悪いな ぁ"},"message":"Chắc ý Truong Nguyen nói bài anh đăng trưa nay của BBC nói về về vấn đề đó.\n\n@Truong Nguyen: Thực ra cũng không gọi là trùng, bài trước là tin thông báo của BBC, còn bài này là về vấn đề xác nhận từ phía VN.","message_tags":[{"id":"100001432462223","name":"Truong Nguyen","type":"user","offset":7,"length":13}],"can_remove":false,"created_time":"2014-03-23T15:50:22+0000","like_count":1,"user_likes":false},"838424489507563":{"id":"838424489507563","from":{"id":"100004486841161","name":"Sheldon Cooper"},"message":"http://vn.news.yahoo.com/di%E1%BB%85n-bi%E1%BA%BFn-m%E1%BB%9Bi-nghi-%C3%A1n-%C4%91%C6%B0%E1%BB%9Dng-s%E1%BA%AFt-nh%E1%BA%ADn-081500354.html","can_remove":false,"created_time":"2014-03-23T20:57:27+0000","like_count":0,"user_likes":false},"838445816172097":{"id":"838445816172097","from":{"id":"1026780646","name":"Việt Hưng Khổng"},"message":"Trên ăn cướp thì nói gì được dưới trộm cắp! Ăn cướp trên ODA- tức là tiền vay- tiền của tương lai, hay nói dễ hiểu là tiền của con cháu chúng ta!","can_remove":false,"created_time":"2014-03-23T21:51:59+0000","like_count":3,"user_likes":false}},"paging":{"cursors":{"after":"ODM4MTM1NzEyODY5Nzc0","before":"ODM4MTM1NzEyODY5Nzc0"},"next":"https://graph.facebook.com/229244010425617_838112726205406/comments?limit=1&summary=1&after=ODM4MTM1NzEyODY5Nzc0"},"summary":{"order":"chronological","total_count":5}}}