{"id":"229244010425617_838187039531308","type":"link","link":"https://www.facebook.com/events/503002413155161/","from":{"id":"620066722","name":"Dong Khac Thai"},"message":"【Thông tin】 Buổi ngắm hoa anh đào và giao lưu quốc tế.\n\n※Chú ý: đăng ký chỉ bằng cách nhấn nút \"Tham dự\" không có ràng buộc nào nhưng các bạn nhớ xem địa điểm và thông tin đầy đủ rùi mới nhấn nút, nếu không tham gia được thì phải liên lạc với người của ban tổ chức, để đảm bảo uy tín của người Việt Nam.\n\n・Thời gian: từ 12:00 chủ  nhật 6 tháng 4\n\n・Địa điểm: công viên 井之頭(Inokashira) ở Kichijouji\n\n・Hoạt động: giao lưu với người Nhật và người nước ngoài ở Nhật và ngắm hoa anh đào, ban tổ chức chuẩn bị thức ăn nhẹ, nếu ai mang theo đồ ăn thêm cũng được.\n\n・Đánh giá: mình đã tham gia 1 số hoạt động của nhóm này và hoạt động này uy tín và tin tưởng được. Mình có quen được nhiều người Nhật và nước ngoài khác thông qua hoạt động này.\n\n・Chi phí: \n     Nếu  đăng ký trước 11g30 PM 30/3(chủ nhật) và nhấn like 3 group dưới đây, các hoạt động này là câu lạc bộ anh văn nên không sao, không phải là hoạt động spam.\n\n■Syphon English by Toshi\nhttps://www.facebook.com/omoshirorenso\n\n■国際交流の会、朝カフェ英会話in新宿 by Okky\nhttps://www.facebook.com/kokusaikouryunokai\nhttps://www.facebook.com/asacafeenglish\n\n【Người đi làm】: 500 yên\n【Du học sinh】: 250 yên\n\n・Cách đăng ký: chỉ cần nhất nút \"Going\" trong link event dưới.\n \nhttps://www.facebook.com/events/503002413155161/?notif_t=plan_user_invited","created_time":"2014-03-23T13:24:44+0000","updated_time":"2014-03-23T15:20:02+0000","likes":{"data":{"100006550144786":{"id":"100006550144786","name":"Sad Therosehouse"},"100001526631937":{"id":"100001526631937","name":"Tường Oanh Mineko"},"569263718":{"id":"569263718","name":"Phuong Thao Tran"},"100007930417031":{"id":"100007930417031","name":"Trang Yamato"},"100002504921256":{"id":"100002504921256","name":"Luke Nguyen"},"100001416272263":{"id":"100001416272263","name":"Mai PB"},"100001458099624":{"id":"100001458099624","name":"Kham Pha"},"100001754136107":{"id":"100001754136107","name":"Nguyễn Tuấn Vũ"},"100000918871201":{"id":"100000918871201","name":"Thang PhanVan"},"100006520210904":{"id":"100006520210904","name":"Miu Miu"},"100001995633843":{"id":"100001995633843","name":"Yasunobu Toda"},"1146680551":{"id":"1146680551","name":"優しい なぁ"},"1580589258":{"id":"1580589258","name":"Kani Oboeru"}},"paging":{"cursors":{"after":"MTAwMDA2NTUwMTQ0Nzg2","before":"MTAwMDA2NTUwMTQ0Nzg2"},"next":"https://graph.facebook.com/229244010425617_838187039531308/likes?limit=1&summary=1&after=MTAwMDA2NTUwMTQ0Nzg2"},"summary":{"total_count":13}},"comments":{"data":{"838190646197614":{"id":"838190646197614","from":{"id":"1760361316","name":"Meo WiWi"},"message":"Ko phải du học sinh nhưng đang thất nghiệp thì bao nhiêu a?","can_remove":false,"created_time":"2014-03-23T13:32:59+0000","like_count":0,"user_likes":false},"838191989530813":{"id":"838191989530813","from":{"id":"620066722","name":"Dong Khac Thai"},"message":"A cũng không rõ, chắc là cũng 250 yên. Cứ nói là đang kiếm việc thì chắc là ok, a đoán vậy.","can_remove":false,"created_time":"2014-03-23T13:35:49+0000","like_count":0,"user_likes":false},"838198786196800":{"id":"838198786196800","from":{"id":"1510031829","name":"Tran Nhat Anh"},"message":"chua nhan luong thang dau tien thi co co`n dc tinh la dhs k Thai, hehe, dao nay sao tich cuc post bai the, k 残業nua ah","can_remove":false,"created_time":"2014-03-23T13:46:37+0000","like_count":0,"user_likes":false},"838200369529975":{"id":"838200369529975","from":{"id":"620066722","name":"Dong Khac Thai"},"message":"Đi làm rùi đóng 500 đí chú:), tranh thủ cuối tuần post bài thui.","can_remove":false,"created_time":"2014-03-23T13:49:13+0000","like_count":0,"user_likes":false},"838202629529749":{"id":"838202629529749","from":{"id":"100004466347075","name":"Pham Thuy"},"message":"Phải nhấn nút \" tham gia\" của cả 3 link đó hả b?","can_remove":false,"created_time":"2014-03-23T13:52:23+0000","like_count":0,"user_likes":false},"838208579529154":{"id":"838208579529154","from":{"id":"620066722","name":"Dong Khac Thai"},"message":"Pham Thuy nhấn cả 3 link luôn bạn. Tuy nhiên có link thứ 2 o có nút \"いい\"nên mình đang hỏi lại, có kết quả mình báo sau.","can_remove":false,"created_time":"2014-03-23T14:03:15+0000","like_count":0,"user_likes":false},"838210712862274":{"id":"838210712862274","from":{"id":"100004466347075","name":"Pham Thuy"},"message":"Cảm ơn bạn, mình cũng ấn ok link đầu và cuối rồi, cái thứ hai k có","can_remove":false,"created_time":"2014-03-23T14:09:06+0000","like_count":0,"user_likes":false},"838210756195603":{"id":"838210756195603","from":{"id":"620066722","name":"Dong Khac Thai"},"message":"Pham Thuy người tổ chức đã chỉnh lại link 2, vào cả 3 link và nhấn vào nút \"Like\" luôn nhé bạn","can_remove":false,"created_time":"2014-03-23T14:09:17+0000","like_count":0,"user_likes":false},"838211316195547":{"id":"838211316195547","from":{"id":"100004466347075","name":"Pham Thuy"},"message":"Ok","can_remove":false,"created_time":"2014-03-23T14:10:23+0000","like_count":1,"user_likes":false},"838213779528634":{"id":"838213779528634","from":{"id":"100004466347075","name":"Pham Thuy"},"message":"Cái link 朝カフェ mình k biết làm sao để ấn dc nút tham gia! Giúp m vs","can_remove":false,"created_time":"2014-03-23T14:16:28+0000","like_count":0,"user_likes":false},"838217782861567":{"id":"838217782861567","from":{"id":"100001640832299","name":"Hoàng Đạt"},"message":"Hay quá rất tiếc e mới sang lại xa nên ko đi đc","can_remove":false,"created_time":"2014-03-23T14:24:44+0000","like_count":0,"user_likes":false},"838219882861357":{"id":"838219882861357","from":{"id":"620066722","name":"Dong Khac Thai"},"message":"Pham Thuy : sr lúc nãy mình chưa thay đổi link số 2 trên post này, mình sửa lại rùi.","can_remove":false,"created_time":"2014-03-23T14:29:25+0000","like_count":0,"user_likes":false},"838220462861299":{"id":"838220462861299","from":{"id":"620066722","name":"Dong Khac Thai"},"message":"Hoàng Đạt: nếu xa tiền đi lại cũng mắc nên mới sang cứ từ từ e:). Còn nếu tiền ok thì moi người thích dùng tiếng anh nữa, nên nếu tiếng anh giao tiếp Ok thì tham gia cho biết.","message_tags":[{"id":"100001640832299","name":"Hoàng Đạt","type":"user","offset":0,"length":9}],"can_remove":false,"created_time":"2014-03-23T14:30:50+0000","like_count":0,"user_likes":false},"838226182860727":{"id":"838226182860727","from":{"id":"100004466347075","name":"Pham Thuy"},"message":"Bạn sửa lại rồi ở chỗ nào vây? Mình k thấy","can_remove":false,"created_time":"2014-03-23T14:40:34+0000","like_count":0,"user_likes":false},"838227286193950":{"id":"838227286193950","from":{"id":"620066722","name":"Dong Khac Thai"},"message":"Pham Thuy link thứ 2 bài post của mình đó bạn, mình dán lại ở dưới cho dễ thấy https://www.facebook.com/kokusaikouryunokai","can_remove":false,"created_time":"2014-03-23T14:43:18+0000","like_count":0,"user_likes":false},"838227789527233":{"id":"838227789527233","from":{"id":"100004466347075","name":"Pham Thuy"},"message":"Ok rồi. Mình cảm ơn nha","can_remove":false,"created_time":"2014-03-23T14:44:23+0000","like_count":1,"user_likes":false},"838241969525815":{"id":"838241969525815","from":{"id":"550401589","name":"Cuong Cao"},"message":"Mình cũng muốn đi, có thể cùng đi với bạn Đông đc k ;)","can_remove":false,"created_time":"2014-03-23T15:07:09+0000","like_count":0,"user_likes":false},"838243762858969":{"id":"838243762858969","from":{"id":"620066722","name":"Dong Khac Thai"},"message":"Cuong Caook bạn, có gì hẹn ở công viên đó, rùi tham gia chung luôn, mọi ngườ ở đó thân thiện với người nước ngoài nên bạn cứ tham gia.","message_tags":[{"id":"550401589","name":"Cuong Cao","type":"user","offset":0,"length":9}],"can_remove":false,"created_time":"2014-03-23T15:09:57+0000","like_count":0,"user_likes":false},"838245626192116":{"id":"838245626192116","from":{"id":"100001640832299","name":"Hoàng Đạt"},"message":"E ở Chiba thôi cũng ko xa lắm nhưng mới sang giao tiếp còn kém sơ ko đi dc :) chắc phải để lần khác","can_remove":false,"created_time":"2014-03-23T15:13:07+0000","like_count":0,"user_likes":false},"838250226191656":{"id":"838250226191656","from":{"id":"620066722","name":"Dong Khac Thai"},"message":"Hoàng Đạt uh họ cũng hay tổ chức nên để hoạt động tới nhé.","message_tags":[{"id":"100001640832299","name":"Hoàng Đạt","type":"user","offset":0,"length":9}],"can_remove":false,"created_time":"2014-03-23T15:20:02+0000","like_count":1,"user_likes":false}},"paging":{"cursors":{"after":"ODM4MTkwNjQ2MTk3NjE0","before":"ODM4MTkwNjQ2MTk3NjE0"},"next":"https://graph.facebook.com/229244010425617_838187039531308/comments?limit=1&summary=1&after=ODM4MTkwNjQ2MTk3NjE0"},"summary":{"order":"chronological","total_count":20}}}