{"id":"229244010425617_838202646196414","type":"status","from":{"id":"100000198219367","name":"Chang Jiang"},"message":"Mọi người cho hỏi làm công việc đúng, chính xác, tốt thì dùng きちんと　hay ちゃんと nhỉ?\n\nNgày trước học phân biệt rồi nhưng mà quên khuấy mất @.@\n\nThank mọi người trc :d","created_time":"2014-03-23T13:52:28+0000","updated_time":"2014-03-23T15:17:49+0000","likes":{"data":{"507426901":{"id":"507426901","name":"Tvt Phan"},"100005696525096":{"id":"100005696525096","name":"Be Heo Beo"},"100005344084736":{"id":"100005344084736","name":"Nhất Nhất"},"100004009472817":{"id":"100004009472817","name":"Thanh Hằng"},"100001583822416":{"id":"100001583822416","name":"Nga Cao Kieu"},"100004394893221":{"id":"100004394893221","name":"NùnBẹt Vu"},"100001571041179":{"id":"100001571041179","name":"Khôi Nguyễn Văn"},"100003657473061":{"id":"100003657473061","name":"Vu Trung Kien"},"100002975299796":{"id":"100002975299796","name":"Trinh Tuan Anh"},"100002414995202":{"id":"100002414995202","name":"Nguyễn Duy Công"}},"paging":{"cursors":{"after":"NTA3NDI2OTAx","before":"NTA3NDI2OTAx"},"next":"https://graph.facebook.com/229244010425617_838202646196414/likes?limit=1&summary=1&after=NTA3NDI2OTAx"},"summary":{"total_count":10}},"comments":{"data":{"838205962862749":{"id":"838205962862749","from":{"id":"100001118056211","name":"Minh Đức"},"message":"Có hoàn cảnh nói ko anh? Câu cụ thể chẳng hạn","can_remove":false,"created_time":"2014-03-23T13:57:56+0000","like_count":0,"user_likes":false},"838205989529413":{"id":"838205989529413","from":{"id":"100002548277461","name":"Dai Tung"},"message":"biet nh ma eo bao.","can_remove":false,"created_time":"2014-03-23T13:58:01+0000","like_count":1,"user_likes":false},"838207216195957":{"id":"838207216195957","from":{"id":"1571805588","name":"Nguyen Thi Thu Hien"},"message":"Kichinto: làm việc cẩn thận 仕事をきちんとする\nChanto: tử tế ちゃんと挨拶する\nMình đoán vậy @@","can_remove":false,"created_time":"2014-03-23T14:00:20+0000","like_count":1,"user_likes":false},"838207596195919":{"id":"838207596195919","from":{"id":"100000198219367","name":"Chang Jiang"},"message":"chẳng hạn như ở công sở làm công việc được giao 1 cách cẩn thận và nghiêm túc ấy Minh Đức","message_tags":[{"id":"100001118056211","name":"Minh Đức","type":"user","offset":81,"length":8}],"can_remove":false,"created_time":"2014-03-23T14:01:09+0000","like_count":0,"user_likes":false},"838208649529147":{"id":"838208649529147","from":{"id":"1510031829","name":"Tran Nhat Anh"},"message":"「きちんと」は、 「整然と」「順序よく」という概念が強く、\n「ちゃんと」は、「完全に」「間違わないで」という概念が強い というところが、その違いでしょう。\n\n「きちんとした人」 （礼儀正しく、まじめで常識的 ）と「ちゃんとした人」（信頼できる、社会的に認められている）の\n違いを考えると、その性質の違いが具体的に感じられると思います。\n\n「朝食をきちんと食べよう」ですと、その目指すところは、「毎朝、規則的に正しく」と「習慣」を重視していると感じられますが、\n「ちゃんと食べよう」ですと、もちろん「規則正しく」とも取れますが、むしろ「忘れずに」「残さずきれいに」とか「バランスよく」といった\n一回ごとの朝食の「とり方」「内容」に重点があると感じられます。\n\nhttp://detail.chiebukuro.yahoo.co.jp/qa/question_detail/q1013602545","can_remove":false,"created_time":"2014-03-23T14:03:27+0000","like_count":4,"user_likes":false},"838208882862457":{"id":"838208882862457","from":{"id":"100001118056211","name":"Minh Đức"},"message":"thế thì theo em là kichinto :v\nCòn tại sao thì em ko biết :3","can_remove":false,"created_time":"2014-03-23T14:03:55+0000","like_count":0,"user_likes":false},"838210266195652":{"id":"838210266195652","from":{"id":"100000198219367","name":"Chang Jiang"},"message":"1 cái là đẹp, chuẩn, ngăn nắp\n\n1 cái là hoàn thiện, tử tế, chính xác :3","can_remove":false,"created_time":"2014-03-23T14:07:45+0000","like_count":0,"user_likes":false},"838212936195385":{"id":"838212936195385","from":{"id":"100000198219367","name":"Chang Jiang"},"message":"à mà ko biết người Nhật khi được khen thì họ thích được khen là  きちんと　hay ちゃんと nhỉ :3","can_remove":false,"created_time":"2014-03-23T14:13:49+0000","like_count":0,"user_likes":false},"838214472861898":{"id":"838214472861898","from":{"id":"100000331203536","name":"Hoàng Quốc Trình"},"message":"Chắc chắn là chantok.chứ chẳng ai dùng ki chanto","can_remove":false,"created_time":"2014-03-23T14:18:17+0000","like_count":0,"user_likes":false},"838218379528174":{"id":"838218379528174","from":{"id":"100006896502374","name":"Kantan Yo"},"message":"wakarang... hehee","can_remove":false,"created_time":"2014-03-23T14:26:14+0000","like_count":0,"user_likes":false},"838221932861152":{"id":"838221932861152","from":{"id":"1823574957","name":"Hoang Linh Angel Lht"},"message":"「ちゃんと」と思います。","can_remove":false,"created_time":"2014-03-23T14:33:32+0000","like_count":1,"user_likes":false},"838245469525465":{"id":"838245469525465","from":{"id":"100004394893221","name":"NùnBẹt Vu"},"message":"Mình học thì bà cô nhật mk dạy là きちんと dùng văn viết còn ちゃんと dùng văn nói bạn ak . Bọn nhật nói 1 kiểu viết 1 kiểu tớ cũng thánh họ","can_remove":false,"created_time":"2014-03-23T15:12:47+0000","like_count":3,"user_likes":false},"838248816191797":{"id":"838248816191797","from":{"id":"100002334361243","name":"Ông Cu Non"},"message":"きちんと la dung van viet","can_remove":false,"created_time":"2014-03-23T15:17:34+0000","like_count":0,"user_likes":false},"838248912858454":{"id":"838248912858454","from":{"id":"100002334361243","name":"Ông Cu Non"},"message":"Binh thuowng cu noi ちゃんと","can_remove":false,"created_time":"2014-03-23T15:17:49+0000","like_count":0,"user_likes":false}},"paging":{"cursors":{"after":"ODM4MjA1OTYyODYyNzQ5","before":"ODM4MjA1OTYyODYyNzQ5"},"next":"https://graph.facebook.com/229244010425617_838202646196414/comments?limit=1&summary=1&after=ODM4MjA1OTYyODYyNzQ5"},"summary":{"order":"chronological","total_count":14}}}