{"id":"229244010425617_838367856179893","type":"photo","object_id":"230374017165978","picture":"https://fbcdn-photos-a-a.akamaihd.net/hphotos-ak-frc3/t1.0-0/1959854_230374017165978_325393121_s.jpg","link":"https://www.facebook.com/photo.php?fbid=230374017165978&set=gm.838367856179893&type=1&relevant_count=1","from":{"id":"100005801442456","name":"An Nguyen"},"message":"Kể chuyện đêm khuya!\n\nAi từng đọc hay xem phim \" 1 lít nước mắt \" rồi nào ?  :3, rất nổi tiếng đúng không :3. Đây là bộ phim dựa trên quyển nhật ký của 1 cô gái trẻ bị mắc bệnh nan y.....\n\nÀ mà hôm nay tui k phải kể cho các bạn câu chuyện này đâu....! Còn tới 2 quyển nhật ký nổi tiếng khác và 1 trong số đó là ゆりちかへ\n \nLink < http://m.youtube.com/watch?list=WL&v=_fdwuNxnyfc >\n\nNó kể về 1 bà mẹ hết mực yêu thương đứa con gái bé bỏng của mình, nhưng số phận lại để người mẹ ấy bị mắc 1 căn bệnh nan y, và cô ấy không thể chăm sóc đứa con gái của mình đến khi lớn đc nữa! Vậy là cuốn nhật ký... Bắt đầu!\n\nCoi đi, khóc á huhu","created_time":"2014-03-23T18:49:34+0000","updated_time":"2014-03-24T14:51:46+0000","likes":{"data":{"1255757207":{"id":"1255757207","name":"Jenny Táo Đỏ"},"100001156522232":{"id":"100001156522232","name":"Le Na Nguyen Tran"},"100006654305327":{"id":"100006654305327","name":"Until You"},"100003579192498":{"id":"100003579192498","name":"Tham Ha"},"100005624312321":{"id":"100005624312321","name":"Ngũ Đệ"},"100004717327126":{"id":"100004717327126","name":"Chuyen Chuyen"},"100003331155159":{"id":"100003331155159","name":"Kem K Em"},"100003599920499":{"id":"100003599920499","name":"ふゆ はな"},"100007257395626":{"id":"100007257395626","name":"Linh Mít Tờ"},"100001526631937":{"id":"100001526631937","name":"Tường Oanh Mineko"},"100001324611896":{"id":"100001324611896","name":"Meo Luoi"},"100003084870026":{"id":"100003084870026","name":"Nguyễn Hiền"},"100000280178894":{"id":"100000280178894","name":"Đại Trượng Phu"},"100005976845471":{"id":"100005976845471","name":"TŨn MẬp"},"100005271433446":{"id":"100005271433446","name":"Nguyentan Thang"},"100000328742646":{"id":"100000328742646","name":"Trần Giáp"},"100004249842388":{"id":"100004249842388","name":"Anh Dang"},"100001432462223":{"id":"100001432462223","name":"Truong Nguyen"},"100000489372404":{"id":"100000489372404","name":"Phúc Bồ"},"100001533106767":{"id":"100001533106767","name":"Nguyễn Minh Châu"},"100004253979918":{"id":"100004253979918","name":"Louis Hoàng Văn Thái"},"100004982014580":{"id":"100004982014580","name":"Kun Kun"},"100003128033425":{"id":"100003128033425","name":"Tenshi Miyuki"},"100004716640495":{"id":"100004716640495","name":"Thúy An Dương"},"1416265619":{"id":"1416265619","name":"Starwar Bbj"},"100003104049512":{"id":"100003104049512","name":"Thao Phan"},"100003950139327":{"id":"100003950139327","name":"Kathy Banh"},"100001647013338":{"id":"100001647013338","name":"Kawa Sakura"},"100003835691750":{"id":"100003835691750","name":"Ouji Thiên"},"100002002293794":{"id":"100002002293794","name":"Thy Thy"},"100002966928087":{"id":"100002966928087","name":"Nguyen van Dat"},"100000022163023":{"id":"100000022163023","name":"Kafe Ore"},"100000089472724":{"id":"100000089472724","name":"Duy Nguyen"},"1452845400":{"id":"1452845400","name":"Thu Phuong"},"100000204870157":{"id":"100000204870157","name":"Pham Thanh Hai"},"100005145330760":{"id":"100005145330760","name":"Sơn Vũ"},"100004375364623":{"id":"100004375364623","name":"Quang Lê"},"100002099663057":{"id":"100002099663057","name":"Diep Nguyen"},"100004249722210":{"id":"100004249722210","name":"Lật Đật"},"569263718":{"id":"569263718","name":"Phuong Thao Tran"},"100003971304832":{"id":"100003971304832","name":"Nguyễn Xuân"},"100002745859939":{"id":"100002745859939","name":"Vũ Lợi"},"100003474980811":{"id":"100003474980811","name":"Bitter Coffee"},"1816269439":{"id":"1816269439","name":"Dao Ngoc"},"100004779104079":{"id":"100004779104079","name":"Hạt Tiêu"},"100005677081544":{"id":"100005677081544","name":"Su Su"},"100001745266291":{"id":"100001745266291","name":"Nguyen Huymen"},"100003080208620":{"id":"100003080208620","name":"Tieu Phuongphuong"},"100006734168968":{"id":"100006734168968","name":"Tiểu Nhân Mã"},"1146680551":{"id":"1146680551","name":"優しい なぁ"},"100004490496995":{"id":"100004490496995","name":"Rai Chamu"},"100002984557771":{"id":"100002984557771","name":"Hau Dao"},"100004109767053":{"id":"100004109767053","name":"Thu Dang"},"100001416272263":{"id":"100001416272263","name":"Mai PB"},"100002615664668":{"id":"100002615664668","name":"PuPu Phương Elf"},"100002501278236":{"id":"100002501278236","name":"Kỳ Lưu"},"100003762427351":{"id":"100003762427351","name":"Hiroshi Yasu Oki"},"100003834926615":{"id":"100003834926615","name":"Ngô Vĩnh Ngọc"},"100001359798024":{"id":"100001359798024","name":"November Gi"},"100000258880251":{"id":"100000258880251","name":"Carson Yang"},"100007236487366":{"id":"100007236487366","name":"Thanh Tam"},"100000346062611":{"id":"100000346062611","name":"Huyen Nguyen"},"100001458099624":{"id":"100001458099624","name":"Kham Pha"},"100007268163508":{"id":"100007268163508","name":"Đỗ Văn Long"},"100006061929602":{"id":"100006061929602","name":"SuSu Jackson"},"100002734920945":{"id":"100002734920945","name":"Hà Hòa"},"100005219469906":{"id":"100005219469906","name":"Giang Khánh"},"100000925967863":{"id":"100000925967863","name":"Nhung Hạt Tiêu"},"100000309153854":{"id":"100000309153854","name":"Pham Thuong"},"525828985":{"id":"525828985","name":"Cindy Taiki"},"100005009580054":{"id":"100005009580054","name":"Anna Nguyen"},"100004259829083":{"id":"100004259829083","name":"Nỏ Bít Nak"},"100003828118579":{"id":"100003828118579","name":"Khanh Linh"},"620066722":{"id":"620066722","name":"Dong Khac Thai"},"1137140946":{"id":"1137140946","name":"Thành Bùi"},"100004242520435":{"id":"100004242520435","name":"Cô Chủ Nhỏ"},"100007468213697":{"id":"100007468213697","name":"Minh Cảnh"},"100001869202112":{"id":"100001869202112","name":"Cry Cry"},"100002339089186":{"id":"100002339089186","name":"Thinh Nguyen Viet"},"100001051044941":{"id":"100001051044941","name":"Khanh Trung"},"100001196735510":{"id":"100001196735510","name":"Không Quay Đầu"},"100000359762118":{"id":"100000359762118","name":"Mi Tra"},"100000500260636":{"id":"100000500260636","name":"Lưu Nguyễn Thảo Tiên"},"100004102572645":{"id":"100004102572645","name":"Hien Mv"},"100003913383051":{"id":"100003913383051","name":"Tho Tran"},"100006781330290":{"id":"100006781330290","name":"Kiên Remode"},"100004374573625":{"id":"100004374573625","name":"Theu Vu"},"100004327473342":{"id":"100004327473342","name":"Đất Khách Quê Người"}},"paging":{"cursors":{"after":"MTI1NTc1NzIwNw==","before":"MTI1NTc1NzIwNw=="},"next":"https://graph.facebook.com/229244010425617_838367856179893/likes?limit=1&summary=1&after=MTI1NTc1NzIwNw%3D%3D"},"summary":{"total_count":90}},"comments":{"data":{"838387129511299":{"id":"838387129511299","from":{"id":"100003913383051","name":"Tho Tran"},"message":"Phim này cũng hay nè anh!!!\nhttp://m.youtube.com/watch?feature=youtu.be&v=pe7lxSQBDwI","can_remove":false,"created_time":"2014-03-23T19:38:32+0000","like_count":3,"user_likes":false},"838392509510761":{"id":"838392509510761","from":{"id":"100000359762118","name":"Mi Tra"},"message":"Toàn cú đêm thế này :3","can_remove":false,"created_time":"2014-03-23T19:51:47+0000","like_count":0,"user_likes":false},"838394632843882":{"id":"838394632843882","from":{"id":"100005801442456","name":"An Nguyen"},"message":"Cô cũng ngủ đi :3","can_remove":false,"created_time":"2014-03-23T19:57:57+0000","like_count":0,"user_likes":false},"838443939505618":{"id":"838443939505618","from":{"id":"100004242520435","name":"Cô Chủ Nhỏ"},"message":"An Nguyen: cho e hỏi tý dc k ạ... E vào tìm mà chang thấy cả","can_remove":false,"created_time":"2014-03-23T21:47:16+0000","like_count":0,"user_likes":false},"838445499505462":{"id":"838445499505462","from":{"id":"100004242520435","name":"Cô Chủ Nhỏ"},"message":"E tò mò muốn đọc truyen quá mà k byt vào trang nào đe doc ạ chỉ cho e với","can_remove":false,"created_time":"2014-03-23T21:51:20+0000","like_count":0,"user_likes":false},"838448759505136":{"id":"838448759505136","from":{"id":"100005801442456","name":"An Nguyen"},"message":"Truyện j em 😳、 cái này ra mua sách về đocj cho rồi em à.","can_remove":false,"created_time":"2014-03-23T21:59:56+0000","like_count":1,"user_likes":false},"838449356171743":{"id":"838449356171743","from":{"id":"100005801442456","name":"An Nguyen"},"message":"chưa đc 500¥ nữa :3 \nhttp://www.amazon.co.jp/gp/aw/d/4344416376/ref=mp_s_a_1_1/375-7352436-0069763?qid=1395612028&sr=1-1&pi=SY200_QL40#","can_remove":false,"created_time":"2014-03-23T22:01:23+0000","like_count":0,"user_likes":false},"838451842838161":{"id":"838451842838161","from":{"id":"100007642115476","name":"Kim Oanh Nguyen Thi"},"message":"toan tièng nhat lam sao ma doc duoc, du to mo nhung cung cha dam mua","can_remove":false,"created_time":"2014-03-23T22:09:53+0000","like_count":0,"user_likes":false},"838455759504436":{"id":"838455759504436","from":{"id":"100004242520435","name":"Cô Chủ Nhỏ"},"message":"Nhung tieng nhat doc sao dc ạ","can_remove":false,"created_time":"2014-03-23T22:20:56+0000","like_count":0,"user_likes":false},"838455769504435":{"id":"838455769504435","from":{"id":"100004242520435","name":"Cô Chủ Nhỏ"},"message":"Huhuhu","can_remove":false,"created_time":"2014-03-23T22:20:59+0000","like_count":0,"user_likes":false},"838480559501956":{"id":"838480559501956","from":{"id":"100005801442456","name":"An Nguyen"},"message":"Tưởng hỏi tiếng Nhật! Ai biết đâu :3","can_remove":false,"created_time":"2014-03-23T23:25:56+0000","like_count":0,"user_likes":false},"838480796168599":{"id":"838480796168599","from":{"id":"100004242520435","name":"Cô Chủ Nhỏ"},"message":"Hy","can_remove":false,"created_time":"2014-03-23T23:26:19+0000","like_count":0,"user_likes":false},"838480932835252":{"id":"838480932835252","from":{"id":"100004242520435","name":"Cô Chủ Nhỏ"},"message":"E rất mê đọc truyen va tieu thuyet nhưng tiec rang toan tieng nhat thi sao doc dc ạ","can_remove":false,"created_time":"2014-03-23T23:26:47+0000","like_count":0,"user_likes":false},"838509869499025":{"id":"838509869499025","from":{"id":"100004009472817","name":"Thanh Hằng"},"message":"Với trình độ tiếng nhật của e thù chắc chục năm nữa mới xem được tiếng nhật k phiên dịch mất......có bản nào phiên dịch k","can_remove":false,"created_time":"2014-03-24T00:41:19+0000","like_count":0,"user_likes":false},"838511252832220":{"id":"838511252832220","from":{"id":"100004198780939","name":"Trần Kim Anh"},"message":"Ban biet quyen thu hai la j ko, minh mua quyen mot roi, co j gioi thieu minh voi nha よろしくお願い申し上げます。","can_remove":false,"created_time":"2014-03-24T00:44:27+0000","like_count":0,"user_likes":false},"838528819497130":{"id":"838528819497130","from":{"id":"569263718","name":"Phuong Thao Tran"},"message":"phim kia chị tốn hết 1 lít rưỡi, phim này 2 lít ko An Nguyen :)","message_tags":[{"id":"100005801442456","name":"An Nguyen","type":"user","offset":51,"length":9}],"can_remove":false,"created_time":"2014-03-24T01:25:16+0000","like_count":0,"user_likes":false},"838605712822774":{"id":"838605712822774","from":{"id":"100004716640495","name":"Thúy An Dương"},"message":"Link trên em không vào được anh An Nguyen...","can_remove":false,"created_time":"2014-03-24T05:33:08+0000","like_count":0,"user_likes":false},"838606262822719":{"id":"838606262822719","from":{"id":"100003381475331","name":"Hoàng Hương"},"message":"hic ko có bản vietsub ạ? thế này trình độ em ko đọc mà cũng ko thể hiểu đc huhu","can_remove":false,"created_time":"2014-03-24T05:35:02+0000","like_count":0,"user_likes":false},"838634859486526":{"id":"838634859486526","from":{"id":"100005801442456","name":"An Nguyen"},"message":"Cái này kể về câu chuyện thui mà  😳. Link nhấp coi đc mà ta .","can_remove":false,"created_time":"2014-03-24T06:49:14+0000","like_count":0,"user_likes":false},"838855532797792":{"id":"838855532797792","from":{"id":"100006896502374","name":"Kantan Yo"},"message":"hieu chet lien ... ko dich noi 1 chu nao luon .. hehee","can_remove":false,"created_time":"2014-03-24T14:51:46+0000","like_count":0,"user_likes":false}},"paging":{"cursors":{"after":"ODM4Mzg3MTI5NTExMjk5","before":"ODM4Mzg3MTI5NTExMjk5"},"next":"https://graph.facebook.com/229244010425617_838367856179893/comments?limit=1&summary=1&after=ODM4Mzg3MTI5NTExMjk5"},"summary":{"order":"chronological","total_count":20}}}