{"id":"229244010425617_838502272833118","type":"status","from":{"id":"100005726675749","name":"Nhật Đặng"},"message":"Dép trong tiếng nhật đọc là gì thế m.n ơi","created_time":"2014-03-24T00:22:28+0000","updated_time":"2014-03-26T09:42:48+0000","likes":{"data":{"100003640960503":{"id":"100003640960503","name":"Li Na"},"100006344351937":{"id":"100006344351937","name":"Con Mồi"},"100002975299796":{"id":"100002975299796","name":"Trinh Tuan Anh"},"100006340654739":{"id":"100006340654739","name":"Gai Ho Duong"},"100006074522683":{"id":"100006074522683","name":"Duyen Do"},"100000230751128":{"id":"100000230751128","name":"Lưu Xuân An"},"100004319340144":{"id":"100004319340144","name":"Thỏ Heo"}},"paging":{"cursors":{"after":"MTAwMDAzNjQwOTYwNTAz","before":"MTAwMDAzNjQwOTYwNTAz"},"next":"https://graph.facebook.com/229244010425617_838502272833118/likes?limit=1&summary=1&after=MTAwMDAzNjQwOTYwNTAz"},"summary":{"total_count":7}},"comments":{"data":{"838503122833033":{"id":"838503122833033","from":{"id":"100000230751128","name":"Lưu Xuân An"},"message":"サンダル :)","can_remove":false,"created_time":"2014-03-24T00:25:19+0000","like_count":1,"user_likes":false},"838503269499685":{"id":"838503269499685","from":{"id":"100004908941067","name":"Cử Cơ"},"message":"Sulippa hay sao ý","can_remove":false,"created_time":"2014-03-24T00:25:46+0000","like_count":2,"user_likes":false},"838503776166301":{"id":"838503776166301","from":{"id":"100005726675749","name":"Nhật Đặng"},"message":"Cái nào vay a","can_remove":false,"created_time":"2014-03-24T00:27:03+0000","like_count":1,"user_likes":false},"838504322832913":{"id":"838504322832913","from":{"id":"100003657473061","name":"Vu Trung Kien"},"message":"スリッパ","can_remove":false,"created_time":"2014-03-24T00:27:35+0000","like_count":0,"user_likes":false},"838506616166017":{"id":"838506616166017","from":{"id":"100003069246142","name":"Hồng Trịnh"},"message":"スリッパchỉ là dép đi trong nhà thôi.","can_remove":false,"created_time":"2014-03-24T00:33:17+0000","like_count":0,"user_likes":false},"838506906165988":{"id":"838506906165988","from":{"id":"100003069246142","name":"Hồng Trịnh"},"message":"サンダル thì chuẩn","can_remove":false,"created_time":"2014-03-24T00:34:11+0000","like_count":4,"user_likes":false},"838508089499203":{"id":"838508089499203","from":{"id":"100005726675749","name":"Nhật Đặng"},"message":"Đ.m","can_remove":false,"created_time":"2014-03-24T00:36:06+0000","like_count":0,"user_likes":false},"838508886165790":{"id":"838508886165790","from":{"id":"100005726675749","name":"Nhật Đặng"},"message":"Đô mô","can_remove":false,"created_time":"2014-03-24T00:38:12+0000","like_count":1,"user_likes":false},"838509949499017":{"id":"838509949499017","from":{"id":"100004971493696","name":"Bình Yên Nhé"},"message":"No dinh hoi deu ah","can_remove":false,"created_time":"2014-03-24T00:41:40+0000","like_count":2,"user_likes":false},"838510302832315":{"id":"838510302832315","from":{"id":"100005726675749","name":"Nhật Đặng"},"message":"Đểu ji","can_remove":false,"created_time":"2014-03-24T00:42:39+0000","like_count":0,"user_likes":false},"838510996165579":{"id":"838510996165579","from":{"id":"100004971493696","name":"Bình Yên Nhé"},"message":"Dép do","can_remove":false,"created_time":"2014-03-24T00:43:59+0000","like_count":0,"user_likes":false},"838511979498814":{"id":"838511979498814","from":{"id":"100005726675749","name":"Nhật Đặng"},"message":"Co j ma deu. T thíc í ngĩ của b r đó","can_remove":false,"created_time":"2014-03-24T00:45:42+0000","like_count":1,"user_likes":false},"838525176164161":{"id":"838525176164161","from":{"id":"100002124532666","name":"Nguyễn Thành Du"},"message":"Sandal サンダル","can_remove":false,"created_time":"2014-03-24T01:15:43+0000","like_count":3,"user_likes":false},"838555226161156":{"id":"838555226161156","from":{"id":"100006421833869","name":"Tiểu Ngư"},"message":"サンダル là dép có quai hậu スリッパ thuộc kiểu dép lê dép đi trong nhà","can_remove":false,"created_time":"2014-03-24T02:41:26+0000","like_count":6,"user_likes":false},"838567936159885":{"id":"838567936159885","from":{"id":"100000845994100","name":"Hà Lợi"},"message":"Bạn tiểu ngư nói đúng.","can_remove":false,"created_time":"2014-03-24T03:25:34+0000","like_count":1,"user_likes":false},"838590836157595":{"id":"838590836157595","from":{"id":"100004296428209","name":"Cu Cau"},"message":"Kutsu cung dk hay la . Sandaru chữ cứng","can_remove":false,"created_time":"2014-03-24T04:41:25+0000","like_count":1,"user_likes":false},"838615712821774":{"id":"838615712821774","from":{"id":"1704108141","name":"Duong Truong"},"message":"サンダル。","can_remove":false,"created_time":"2014-03-24T06:02:24+0000","like_count":1,"user_likes":false},"838698659480146":{"id":"838698659480146","from":{"id":"100006344351937","name":"Con Mồi"},"message":"Nhật Đặng dả nai no vua vua thôi","message_tags":[{"id":"100005726675749","name":"Nhật Đặng","type":"user","offset":0,"length":9}],"can_remove":false,"created_time":"2014-03-24T09:20:15+0000","like_count":1,"user_likes":false},"839214372761908":{"id":"839214372761908","from":{"id":"100003640960503","name":"Li Na"},"message":"","can_remove":false,"created_time":"2014-03-25T03:58:14+0000","like_count":3,"user_likes":false},"839899862693359":{"id":"839899862693359","from":{"id":"100003657473061","name":"Vu Trung Kien"},"message":"Me oi","can_remove":false,"created_time":"2014-03-26T09:42:48+0000","like_count":0,"user_likes":false}},"paging":{"cursors":{"after":"ODM4NTAzMTIyODMzMDMz","before":"ODM4NTAzMTIyODMzMDMz"},"next":"https://graph.facebook.com/229244010425617_838502272833118/comments?limit=1&summary=1&after=ODM4NTAzMTIyODMzMDMz"},"summary":{"order":"chronological","total_count":20}}}