{"id":"229244010425617_838515666165112","type":"photo","object_id":"10201575409084191","picture":"https://fbcdn-photos-e-a.akamaihd.net/hphotos-ak-prn2/t1.0-0/1464018_10201575409084191_1250024125_s.jpg","link":"https://www.facebook.com/photo.php?fbid=10201575409084191&set=gm.838515666165112&type=1&relevant_count=1","from":{"id":"1146680551","name":"優しい なぁ"},"message":"Một vài cấu trúc liên quan đến từ \"と\" vẫn thường dùng ^_^. Hãy tranh thủ luyện tập khi có cơ hội nhoa :3\n\nと: với, và, là\n\nとしたら: giả sử là, giả định là\n\n宝くじに当たったとしたら、そのお金でどうする？\nGiả sử là nếu trúng số thì số tiền đó bạn sẽ làm gì? ^_^ hãy trả lời nhé :v\n\nMaria ozawaと結婚したら、40歳までに死んでしまうかな~\nnếu mà cưới ozawa thì chắc đen năm 40 tuổi dễ đi quoá ^_^\nMaria ozawaと結婚するとしたら、毎晩どうする？\nGiả sử nếu cưới ozawa, thì mỗi tối sẽ làm gì nhỉ :3\n\n もう一度生まれるとしたら、男と女とどっちがいい？\nNếu giả sử được sinh ra lần nữa, bạn thích thành  là con trai hay con gái zị :3\n\nとしても: dẫu ~ thì cũng\nThảoさんは日本語の先生だけど、俳優(はいゆう)としても有名(ゆうめ)だ。\nDẫu Thím Thảo là giáo viên tiếng Nhật, nhưng cũng rất nổi tiếng với tư cách là diễn viên ^_^\n\nと言えば(＝と言うと): nếu nói đến ~ thì ( nhớ ra, rồi liên tưởng đến)\nA: アン君: ベトナムの女性はどう？i\nB: えとね〜ベトナムの女性と言えば、きれいだし~優しいし~ やっぱ美女いっぱい いるんだよ。（＾Ｏ＾）\nNếu nói về con gái VN đó nha, vừa đẹp vừa dịu dàng nè...^_^\n\nと言っても: Dẫu nói là...nhưng , dù nói là...nhưng\nいつも骨(ほね)まで君のことを愛してると言っても、彼は日本へ来たとたんに、態度(たいど)が変わった．\nDù lúc nào cũng nói là \" yêu em đến tận xương tuỷ\" nhưng vừa mới đến nhật, hắn đã thay đổi thái độ rồi >_<\n\n彼女は料理ができると言っても、野菜をゆでると卵焼き(たまごやき)だけなんだ~\nNàng ấy dù nói là biết nấu ăn, nhưng chỉ rau luộc với trứng chiên thui à :3(^_-)\n\nとは言え: dẫu nói là \n\nとともに: cùng với...,đi kèm với...\n 地震が起こるとともに、津波(つまみ) が発生(はっせい)できるよ。\nKhi xảy ra động đất thì kèm đó sóng thần cũng có thể phát sinh.\n\n彼女ができない男が増えるとともに、油の値段も上がってくる (^_-)\nCùng với việc lượng đàn ông FA tăng lên thì giá dầu ăn cũng tăng theo ^_^\n\nというのは: cái gọi là\n\nとして: với tư cách là\n僕は留学生として、日本へ来た。\nVới tư cách là du học sinh, tôi đã đến Nhật.\n\nHIV は難病(なんびょう)として認定(にんてい)されている。\nHIV được nhận định với tư cách là một căn bệnh nan y >_<","created_time":"2014-03-24T00:52:35+0000","updated_time":"2014-03-25T04:49:55+0000","likes":{"data":{"100000500260636":{"id":"100000500260636","name":"Lưu Nguyễn Thảo Tiên"},"100001695345798":{"id":"100001695345798","name":"Tyn Aki"},"100002446120607":{"id":"100002446120607","name":"Hoanhuy Luu"},"100007192418177":{"id":"100007192418177","name":"Linh Vẹt"},"100007293188338":{"id":"100007293188338","name":"Dương Lê"},"100001526631937":{"id":"100001526631937","name":"Tường Oanh Mineko"},"100001904839834":{"id":"100001904839834","name":"Jane Vu Vơ"},"100004055040287":{"id":"100004055040287","name":"Nguyễn Minh"},"100001659230540":{"id":"100001659230540","name":"Lemon Tea"},"100000936327952":{"id":"100000936327952","name":"Nini Viên"},"100004202439850":{"id":"100004202439850","name":"Thanh Nhan"},"100006329763157":{"id":"100006329763157","name":"Một Mình Không Sao"},"100000973058335":{"id":"100000973058335","name":"Tuong Dau"},"100001807609603":{"id":"100001807609603","name":"Nguyễn Khánh Huyền"},"100002860860102":{"id":"100002860860102","name":"Dat Thanh Le"},"100003587314679":{"id":"100003587314679","name":"Why Die"},"100000271705877":{"id":"100000271705877","name":"Nguyễn Văn Minh"},"100002716525116":{"id":"100002716525116","name":"Nguyễn Tất Nguyên"},"100004933327576":{"id":"100004933327576","name":"Yanagi Nguyen"},"100004380181780":{"id":"100004380181780","name":"Be Boo"},"100001840875327":{"id":"100001840875327","name":"Phạm Chí Long"},"100000562524611":{"id":"100000562524611","name":"Chúc Đại Ka"},"100000187856584":{"id":"100000187856584","name":"Linh Hachi"},"100004970220495":{"id":"100004970220495","name":"Bột Lùn Hokage"},"100004301108383":{"id":"100004301108383","name":"Cần Một Người Chờ"},"1828663711":{"id":"1828663711","name":"Duny Chan"},"100004398962243":{"id":"100004398962243","name":"Phan Tom"},"100007090141294":{"id":"100007090141294","name":"Hoan Tokyo"},"100004389103856":{"id":"100004389103856","name":"Hoangphu Khanh"},"100005611296861":{"id":"100005611296861","name":"Cobeho Pham"},"100001880901011":{"id":"100001880901011","name":"Số Không"},"100003913383051":{"id":"100003913383051","name":"Tho Tran"},"100001971653484":{"id":"100001971653484","name":"Sakura Sakura"},"100002905656686":{"id":"100002905656686","name":"Vĩ Lọ Lem Em"},"100000747635624":{"id":"100000747635624","name":"Nguyễn Xuân Đại"},"100003796430338":{"id":"100003796430338","name":"Cường Ađam Z"},"100002202800066":{"id":"100002202800066","name":"Trang Trương"},"100003210512769":{"id":"100003210512769","name":"Trang Nguyễn"},"100003780948776":{"id":"100003780948776","name":"Sâu Đặng"},"100006259453558":{"id":"100006259453558","name":"Lê Bình"},"100007881153474":{"id":"100007881153474","name":"Chợ Zời Nhật Bản"},"100003592369169":{"id":"100003592369169","name":"Bằng Phạm"},"100001675790020":{"id":"100001675790020","name":"Suzuzu Hoang"},"100003956124579":{"id":"100003956124579","name":"Cua Bướng Bỉnh"},"569263718":{"id":"569263718","name":"Phuong Thao Tran"},"100000264801587":{"id":"100000264801587","name":"Nguyễn Đình Toàn"},"100000427892494":{"id":"100000427892494","name":"Kiem Duong"},"100003659221260":{"id":"100003659221260","name":"Tu Vo le Anh"},"1230050970":{"id":"1230050970","name":"Quỳnh Anh"},"100004454232040":{"id":"100004454232040","name":"Ngựa BAy"},"100002929489687":{"id":"100002929489687","name":"Yume Yuyu"},"100000329903772":{"id":"100000329903772","name":"Van Dt"},"100005271433446":{"id":"100005271433446","name":"Nguyentan Thang"},"100002449514019":{"id":"100002449514019","name":"Lương Hoa"},"100001216203214":{"id":"100001216203214","name":"Lala Rita"},"100000451899565":{"id":"100000451899565","name":"Tien Dung Nguyen"},"100004478292454":{"id":"100004478292454","name":"Nhím Xù"},"100006754325203":{"id":"100006754325203","name":"Đức Tóc Xoăn"},"100001365545442":{"id":"100001365545442","name":"Nguyễn Nam"},"100002954712134":{"id":"100002954712134","name":"La Quang Tiến"},"100004970312286":{"id":"100004970312286","name":"Shame"},"1041112197":{"id":"1041112197","name":"Thảo Nini"},"100003768667360":{"id":"100003768667360","name":"Cao Su Cao Su"},"100004490496995":{"id":"100004490496995","name":"Rai Chamu"},"100002643890570":{"id":"100002643890570","name":"Văn Thương Lê"},"100003255480317":{"id":"100003255480317","name":"Huyền Anh Vũ"},"100001754136107":{"id":"100001754136107","name":"Nguyễn Tuấn Vũ"},"100004969813093":{"id":"100004969813093","name":"Cậu Út Họ Bùi"},"100004101038669":{"id":"100004101038669","name":"Oanh Inoshishi"},"100005903373573":{"id":"100005903373573","name":"HaLinh Phong Phan"},"100003977703228":{"id":"100003977703228","name":"Ki Yu"},"100005275147210":{"id":"100005275147210","name":"Rose Yokuda"},"100004756261720":{"id":"100004756261720","name":"Hoai Thuong"},"100001055414440":{"id":"100001055414440","name":"Nôbi Ta"},"100004512390831":{"id":"100004512390831","name":"Cơn Gió Nhẹ"},"100005344084736":{"id":"100005344084736","name":"Nhất Nhất"},"100004802197403":{"id":"100004802197403","name":"Công Tử Hào Hoa"},"100003124307460":{"id":"100003124307460","name":"Duc Giang"},"100003155380603":{"id":"100003155380603","name":"Khuong Pham"},"100000969473733":{"id":"100000969473733","name":"Hachi Pham"},"1122379216":{"id":"1122379216","name":"Hà Ngô"},"100005839298361":{"id":"100005839298361","name":"Stephenie Tu"},"100001415407078":{"id":"100001415407078","name":"Kha Pham"},"100000468130893":{"id":"100000468130893","name":"Đẹp Và Tỉnh"},"100003039666419":{"id":"100003039666419","name":"Chỉ Yêu Mình Em"},"1000015524":{"id":"1000015524","name":"Hong Vo"},"100001231756625":{"id":"100001231756625","name":"Nga Ostrich"},"100002615664668":{"id":"100002615664668","name":"PuPu Phương Elf"},"1809939388":{"id":"1809939388","name":"Nguyễn Thạc Huy"},"100000398318047":{"id":"100000398318047","name":"Anh Thy"},"100004779104079":{"id":"100004779104079","name":"Hạt Tiêu"},"100001432462223":{"id":"100001432462223","name":"Truong Nguyen"},"100000262143403":{"id":"100000262143403","name":"Có Gì Hót"},"100006734168968":{"id":"100006734168968","name":"Tiểu Nhân Mã"},"100002923373197":{"id":"100002923373197","name":"Thu Sang"}},"paging":{"cursors":{"after":"MTAwMDAwNTAwMjYwNjM2","before":"MTAwMDAwNTAwMjYwNjM2"},"next":"https://graph.facebook.com/229244010425617_838515666165112/likes?limit=1&summary=1&after=MTAwMDAwNTAwMjYwNjM2"},"summary":{"total_count":95}},"comments":{"data":{"838516602831685":{"id":"838516602831685","from":{"id":"100002923373197","name":"Thu Sang"},"message":"đọc mấy mẫu câu xong cười cho ngất :v :v :)))","can_remove":false,"created_time":"2014-03-24T00:55:24+0000","like_count":1,"user_likes":false},"838516942831651":{"id":"838516942831651","from":{"id":"1146680551","name":"優しい なぁ"},"message":":v","can_remove":false,"created_time":"2014-03-24T00:56:24+0000","like_count":0,"user_likes":false},"838517262831619":{"id":"838517262831619","from":{"id":"100002923373197","name":"Thu Sang"},"message":"ngày xưa học mấy sensei chả bao giờ cho mấy ví dụ như này :D :D như này nhớ lâu lắm đây :P :P","can_remove":false,"created_time":"2014-03-24T00:57:23+0000","like_count":2,"user_likes":false},"838517756164903":{"id":"838517756164903","from":{"id":"1146680551","name":"優しい なぁ"},"message":"Tại chắc là \" thanh niên \" nghiêm túc :v","can_remove":false,"created_time":"2014-03-24T00:58:37+0000","like_count":1,"user_likes":false},"838528986163780":{"id":"838528986163780","from":{"id":"100004802197403","name":"Công Tử Hào Hoa"},"message":"よっしいいいいいいいいいいい。。。僕の勉強しているところだ","can_remove":false,"created_time":"2014-03-24T01:25:37+0000","like_count":0,"user_likes":false},"838530792830266":{"id":"838530792830266","from":{"id":"100003977703228","name":"Ki Yu"},"message":"Hay quá. Nhưng としても e hơi thắc mắc sao nó lại ko nằm ngay sau chữ 日本語先生, mà lại tận chữ haiyu nhưng lại dịch ko từ đó,.. Hic.","can_remove":false,"created_time":"2014-03-24T01:32:16+0000","like_count":1,"user_likes":false},"838532216163457":{"id":"838532216163457","from":{"id":"100004465720039","name":"Phú Phương"},"message":"=))))","can_remove":false,"created_time":"2014-03-24T01:36:11+0000","like_count":0,"user_likes":false},"838533766163302":{"id":"838533766163302","from":{"id":"1146680551","name":"優しい なぁ"},"message":"としても=として nhưng tiếng việt nó khác chút nên a phân ra 2 ví dụ cho dễ nhớ đó mà.","can_remove":false,"created_time":"2014-03-24T01:41:21+0000","like_count":1,"user_likes":false},"838533912829954":{"id":"838533912829954","from":{"id":"100007530217391","name":"Speaker  Native"},"message":"感覚で教えます。\n\nA(動詞基本形)としたら..v..v: giả sử được A sẽ chọn...v..v \nA(動詞過去形)としたら..v..v: giả sử được A thì..v..v\n\nVD\n結婚するとしたら、絶対に小沢さん私のマリア様と結婚したい。\n\nマリア様と結婚したとしたら、毎晩なにしますか。\n\nvì thế…\n\nＸ  Maria Ozawaと結婚するとしたら、40歳までに死んでしまうかな。\nGiả sử được cưới Maria Ozawa,tôi có thể sẽ chọn lỡ chết trước vượt qua 40 tuổi.\n\n◯Maria Ozawaと結婚したとしたら、40歳までに死んでしまうかな。\n◯  Maria Ozawaと結婚したら、40歳までに死んでしまうかな。\n\n1ヶ月で死にそうですね。^ ^","can_remove":false,"created_time":"2014-03-24T01:41:50+0000","like_count":9,"user_likes":false},"838534629496549":{"id":"838534629496549","from":{"id":"1146680551","name":"優しい なぁ"},"message":":v かな~ 書いたよ。(^_-)","can_remove":false,"created_time":"2014-03-24T01:43:48+0000","like_count":0,"user_likes":false},"838536426163036":{"id":"838536426163036","from":{"id":"1146680551","name":"優しい なぁ"},"message":"ありがとう。直しました~ 優しい先生 (thảo 先生) （＾Ｏ＾）","can_remove":false,"created_time":"2014-03-24T01:49:33+0000","like_count":0,"user_likes":false},"838540422829303":{"id":"838540422829303","from":{"id":"1778384200","name":"Trần Hạnh"},"message":"Bạn Nhật hỏi: đàn ông FA thì liên quan gì đến dầu ăn. Chị dễ dãi cho em xin câu trả lời bằng tiếng Nhật với ạ","can_remove":false,"created_time":"2014-03-24T01:58:49+0000","like_count":2,"user_likes":false},"838541899495822":{"id":"838541899495822","from":{"id":"1146680551","name":"優しい なぁ"},"message":"Ặc dịu dàng chứ. Ai lại xài chữ dễ dãi. Nghe ghê quá.","can_remove":false,"created_time":"2014-03-24T02:04:10+0000","like_count":3,"user_likes":false},"838545902828755":{"id":"838545902828755","from":{"id":"100004570332176","name":"Phuoc Giang"},"message":"Hay qa ak","can_remove":false,"created_time":"2014-03-24T02:16:10+0000","like_count":0,"user_likes":false},"838547299495282":{"id":"838547299495282","from":{"id":"1146680551","name":"優しい なぁ"},"message":"Tiếng việt có dấu thì sẽ hay hơn đoá :3","can_remove":false,"created_time":"2014-03-24T02:20:15+0000","like_count":1,"user_likes":false},"838548842828461":{"id":"838548842828461","from":{"id":"100007530217391","name":"Speaker  Native"},"message":"X日本語先生 \n◯日本語の先生\n◯日本語教師\n\nAとしても: bằng tư cách A cũng/ bằng kiểu A cũng\n\n彼は男としても尊敬できます。\nこのフォークは武器としても使えます。","can_remove":false,"created_time":"2014-03-24T02:23:14+0000","like_count":4,"user_likes":false},"838549822828363":{"id":"838549822828363","from":{"id":"1146680551","name":"優しい なぁ"},"message":"","can_remove":false,"created_time":"2014-03-24T02:26:16+0000","like_count":0,"user_likes":false},"838564302826915":{"id":"838564302826915","from":{"id":"100004178466278","name":"Thu Tồ Đông Anh"},"message":"Sênsei dạy về のに đi, đc k ạ??? E học hoài mà k hỉu >.< dịch loạn xạ lên. Sai be bét hết cả >.< お願いいたします。","can_remove":false,"created_time":"2014-03-24T03:11:54+0000","like_count":0,"user_likes":false},"838567186159960":{"id":"838567186159960","from":{"id":"1146680551","name":"優しい なぁ"},"message":"Thầy thảo đi vắng rùi :3","can_remove":false,"created_time":"2014-03-24T03:23:04+0000","like_count":0,"user_likes":false},"838574609492551":{"id":"838574609492551","from":{"id":"100007530217391","name":"Speaker  Native"},"message":"「のに 」 は簡単なのでアン先生が教えてくれますよ。","can_remove":false,"created_time":"2014-03-24T03:50:51+0000","like_count":3,"user_likes":false},"838591686157510":{"id":"838591686157510","from":{"id":"1146680551","name":"優しい なぁ"},"message":"(^ー゜)わからん","can_remove":false,"created_time":"2014-03-24T04:44:55+0000","like_count":0,"user_likes":false},"838592579490754":{"id":"838592579490754","from":{"id":"100006121501351","name":"Đào Đức Thi"},"message":"Chơi chữ thường tý đi . Chữ hán bó tay","can_remove":false,"created_time":"2014-03-24T04:48:17+0000","like_count":0,"user_likes":false},"838603739489638":{"id":"838603739489638","from":{"id":"100003381475331","name":"Hoàng Hương"},"message":"Mê Dongchul","message_tags":[{"id":"100004525472322","name":"Mê Dongchul","type":"user","offset":0,"length":11}],"can_remove":false,"created_time":"2014-03-24T05:27:26+0000","like_count":0,"user_likes":false},"838650396151639":{"id":"838650396151639","from":{"id":"100006089102969","name":"カメ 悪い"},"message":"V意向形としたら và としない đâu ?","can_remove":false,"created_time":"2014-03-24T07:29:18+0000","like_count":0,"user_likes":false},"838651706151508":{"id":"838651706151508","from":{"id":"100004525472322","name":"Mê Dongchul"},"message":"Hoàng Hương nhìn thấy rồi cơ mà đau mắt lắm","message_tags":[{"id":"100003381475331","name":"Hoàng Hương","type":"user","offset":0,"length":11}],"can_remove":false,"created_time":"2014-03-24T07:35:01+0000","like_count":0,"user_likes":false},"838651779484834":{"id":"838651779484834","from":{"id":"100007468213697","name":"Minh Cảnh"},"message":"Vẫn chưa đủ nhưng ad rất nhiệt tình...ol suốt mà post bài suốt nhỉ","can_remove":false,"created_time":"2014-03-24T07:35:22+0000","like_count":1,"user_likes":false},"838652369484775":{"id":"838652369484775","from":{"id":"1146680551","name":"優しい なぁ"},"message":"Cứ từ từ rồi sẽ up đầy đủ :v","can_remove":false,"created_time":"2014-03-24T07:37:52+0000","like_count":0,"user_likes":false},"838652686151410":{"id":"838652686151410","from":{"id":"1146680551","name":"優しい なぁ"},"message":"カメ悪い: không biết cấu trúc đó, bày đi :3","can_remove":false,"created_time":"2014-03-24T07:39:13+0000","like_count":0,"user_likes":false},"838654519484560":{"id":"838654519484560","from":{"id":"100006089102969","name":"カメ 悪い"},"message":"V意向形とする:今からしようと思う、又はしようと頑張ってると言いたいときに使う\nV意向形としない:相手がしない事を批判する気持ちを表す。","can_remove":false,"created_time":"2014-03-24T07:45:27+0000","like_count":2,"user_likes":false},"838675259482486":{"id":"838675259482486","from":{"id":"100003094158721","name":"Hikari Truong"},"message":"Những ví dụ bất con bà hủ...","can_remove":false,"created_time":"2014-03-24T08:41:43+0000","like_count":0,"user_likes":false},"838709192812426":{"id":"838709192812426","from":{"id":"1146680551","name":"優しい なぁ"},"message":":v","can_remove":false,"created_time":"2014-03-24T09:35:48+0000","like_count":1,"user_likes":false},"838714982811847":{"id":"838714982811847","from":{"id":"100002611874779","name":"Trung Nguyễn"},"message":"cô Thảo là thần tượng của thím à :v","can_remove":false,"created_time":"2014-03-24T09:57:27+0000","like_count":0,"user_likes":false},"838715759478436":{"id":"838715759478436","from":{"id":"1146680551","name":"優しい なぁ"},"message":"\" tuổi thơ dữ dội \" :3","can_remove":false,"created_time":"2014-03-24T10:01:10+0000","like_count":0,"user_likes":false},"838833892799956":{"id":"838833892799956","from":{"id":"100004055040287","name":"Nguyễn Minh"},"message":"Share sáng mai về r đọc","can_remove":false,"created_time":"2014-03-24T14:01:47+0000","like_count":0,"user_likes":false},"838934669456545":{"id":"838934669456545","from":{"id":"100000500260636","name":"Lưu Nguyễn Thảo Tiên"},"message":"Pác Kame cứ gọi là đầy mình mà giấu hàng thoài :))","can_remove":false,"created_time":"2014-03-24T17:11:48+0000","like_count":1,"user_likes":false},"839162186100460":{"id":"839162186100460","from":{"id":"100003642346565","name":"Khổng Minh Nhật"},"message":"Hay qa cai nay toan ngu phap n3","can_remove":false,"created_time":"2014-03-25T02:01:47+0000","like_count":0,"user_likes":false},"839230822760263":{"id":"839230822760263","from":{"id":"1146680551","name":"優しい なぁ"},"message":"Uhm n4,5 gì cũng có cả. Quan trọng là hiểu chính xác nghĩa và sử dụng thành thạo được hay k.","can_remove":false,"created_time":"2014-03-25T04:49:55+0000","like_count":0,"user_likes":false}},"paging":{"cursors":{"after":"ODM4NTE2NjAyODMxNjg1","before":"ODM4NTE2NjAyODMxNjg1"},"next":"https://graph.facebook.com/229244010425617_838515666165112/comments?limit=1&summary=1&after=ODM4NTE2NjAyODMxNjg1"},"summary":{"order":"chronological","total_count":37}}}