{"id":"229244010425617_838696849480327","type":"status","from":{"id":"100004399633968","name":"Sóng Thần"},"message":"Bác nào đã từng làm hồ sơ đi nhật tại 1trong 3 cty này biết chỉ giùm e có tin cậy k ạk.\n -1là chi nhánh cty Texgamex dệt may Sài Gòn gần bến xe nước ngầm Hà Nội./\n -2: là cty cổ phần đầu tư Quốc Huy địa chỉ số 6 lô 4B trung yên 1 đường vũ fạm hàn Cầu Giấy HN. \n-3: là cty cổ phần đầu tư phát triển Thăng Long địa chỉ số 6 C9 Mỹ đình từ liêm HN. Và cty nào thì có nhiều chủ sử dụng lao động về tuyển nhất,nhah đi mà chi phí ít nhất k ạk. Hiện tại e đăng kí nghề cơ khí muốn biết chi phí đi tất cả là bao nhiu? Mong các bác giúp đỡ chỉ giúp e . E đang fân vân k biết nên đi cty nào ạk.?","created_time":"2014-03-24T09:15:40+0000","updated_time":"2014-03-26T04:12:03+0000","likes":{"data":{"100006136714987":{"id":"100006136714987","name":"Lan Ta Gu"},"100007187850069":{"id":"100007187850069","name":"Tập Sống Ích Kỉ"},"100005363772765":{"id":"100005363772765","name":"Tân Mốc"}},"paging":{"cursors":{"after":"MTAwMDA2MTM2NzE0OTg3","before":"MTAwMDA2MTM2NzE0OTg3"},"next":"https://graph.facebook.com/229244010425617_838696849480327/likes?limit=1&summary=1&after=MTAwMDA2MTM2NzE0OTg3"},"summary":{"total_count":3}},"comments":{"data":{"839138772769468":{"id":"839138772769468","from":{"id":"100007187850069","name":"Tập Sống Ích Kỉ"},"message":"569 lạc long quân đi bạnn. Bác t đưa đi","can_remove":false,"created_time":"2014-03-25T01:10:06+0000","like_count":1,"user_likes":false},"839156899434322":{"id":"839156899434322","from":{"id":"100003217900686","name":"Thơm Đỗ"},"message":"Mình có quen một công ty trong miền nam, nhưng jio họ có chi nhánh ngoài hà nội rùi (cty là của người nhật mở tại việt nam), chi phí là 7000, không thu thêm bất kì một khoản nào khác, ( bạn có bằng cơ khí thì đi theo đường kĩ sư ) lương lucsn ào cũng đc 18 man trở lên.  với điều kiện bạn phải bít tiếng nhật lưu loát.","can_remove":false,"created_time":"2014-03-25T01:54:35+0000","like_count":0,"user_likes":false},"839166402766705":{"id":"839166402766705","from":{"id":"100004399633968","name":"Sóng Thần"},"message":"Thơm Đỗ...bác đi theo đường dây cty đó hả. Các cty kể trên e đã từng lên tham khảo đều có mức trên 10.000 + tất cả từ A→Z","message_tags":[{"id":"100003217900686","name":"Thơm Đỗ","type":"user","offset":0,"length":7}],"can_remove":false,"created_time":"2014-03-25T02:12:34+0000","like_count":0,"user_likes":false},"839170466099632":{"id":"839170466099632","from":{"id":"100003217900686","name":"Thơm Đỗ"},"message":"đợt trước t đi học tiếng nhật và quen cô giáo ấy, cô giáo ấy cũng giwosi thiệu, t cũng mới tìm hiểu và có ý mún cho chồng t đi trước, quan trọng là mình biết tiếng nhật trước mình sẽ chủ động hơn trong việc di lại ăn ở, 10000 trở lên đa phần là đã bao học tiếng, nhưng nếu mình tự đi học tiếng mình sẽ chủ động trong việc đi hơn, mà khi đỗ phỏng vấn để đc đc sớm nhất cũng phải mất 8 tháng, ko thì trong khoảng 1 năm, mà trong thời gian chờ đợi đó mình vẫn có thể đi làm bình thường, ko phải ăn trực nằm chờ, ak mà nếu đi đc thì chỉ phải đóng trước 4000 or 5000 ở việt nam thui, còn lại sau khi snag nhật đc 2 or 4 thnags mới phải đóng tiếp số tiền còn lại.","can_remove":false,"created_time":"2014-03-25T02:18:55+0000","like_count":2,"user_likes":false},"839180892765256":{"id":"839180892765256","from":{"id":"100002847948300","name":"Thuy Dung Vi"},"message":"Híc,híc. Sao mình đang định làm hồ sơ đi may thì người ta bảo có 6000 nhỉ. Hay là em lại bị lừa rùi. Em làm ở cty TMS nhân lực. Em hoang mang quá.","can_remove":false,"created_time":"2014-03-25T02:35:20+0000","like_count":0,"user_likes":false},"839181979431814":{"id":"839181979431814","from":{"id":"100001546837960","name":"Chung Goldstar"},"message":"Cách tính phí đa phần là 1 năm đầu bạn làm đủ để trả phí đi. Hai năm sau là tích lũy. Nên chắc chắn để còn đòi được tiền nhá bạn.","can_remove":false,"created_time":"2014-03-25T02:38:37+0000","like_count":1,"user_likes":false},"839183029431709":{"id":"839183029431709","from":{"id":"100002847948300","name":"Thuy Dung Vi"},"message":":3 ui da,mình cứ nghĩ cái gì cũng đơn giản. Híc híc,cảm ơn bạn đã tư vấn nhé. Để mình hỏi rõ hơn.","can_remove":false,"created_time":"2014-03-25T02:41:00+0000","like_count":0,"user_likes":false},"839187472764598":{"id":"839187472764598","from":{"id":"100003217900686","name":"Thơm Đỗ"},"message":"7000 là đi theo đường kĩ sư, đòi hỏi phải có bằng cao đẳng or đại học, còn đi tu nghiệp thì 8000 or 8500 trở lên, tùy theo đơn hàng ,,,,,,nhưng đa phần các dơn hàng đi tu nghiệp đều phải đặt cọc 2000 or 3000 tùy theo mức độ.   đây là những j mình bít đc thui nhé, các bạn tham khảo nhé.","can_remove":false,"created_time":"2014-03-25T02:48:26+0000","like_count":0,"user_likes":false},"839190079431004":{"id":"839190079431004","from":{"id":"100002847948300","name":"Thuy Dung Vi"},"message":"Tớ có bằng ĐH chuyên ngành may. Cũng đang định đi theo diện kỹ sư của công ty cổ phần du lịch dịch vụ dầu khí Hải Phòng-CNHN. Tớ hỏi thì họ bảo tất tất tật chỉ có 5,500 là sao Thơm Đỗ nhỉ.","message_tags":[{"id":"100003217900686","name":"Thơm Đỗ","type":"user","offset":176,"length":7}],"can_remove":false,"created_time":"2014-03-25T02:51:25+0000","like_count":0,"user_likes":false},"839191756097503":{"id":"839191756097503","from":{"id":"100003217900686","name":"Thơm Đỗ"},"message":"bạn hỏi họ xem chi phí ấy bao gồm những gì, quan trọng là sang đó lương bạn đc bao nhiu một tháng, ui nhìu vấn đề lắm. nói thật t cũng có hướng đi thế lên jio cũng là đnag tham khảo nhìu nguồn","can_remove":false,"created_time":"2014-03-25T02:53:47+0000","like_count":1,"user_likes":false},"839193026097376":{"id":"839193026097376","from":{"id":"100002847948300","name":"Thuy Dung Vi"},"message":"Ừ,mình cứ tham khảo nhiều nguồn cho chắc nhỉ. Hy vọng sang bên đó có nhiều người Việt Nam,không lại bơ vơ :D","can_remove":false,"created_time":"2014-03-25T02:56:31+0000","like_count":0,"user_likes":false},"839223612760984":{"id":"839223612760984","from":{"id":"100004399633968","name":"Sóng Thần"},"message":"Thơm Đỗ: mình tham khảo cac cty thi co cty bạn e đi giới thiệu cho họ yêu cầu đặt cọc 60tr chống chốn +thêm sổ đỏ gốc nữa thông báo gần ngày bay mới lên đặt và nộp nốt số tiền còn lại","message_tags":[{"id":"100003217900686","name":"Thơm Đỗ","type":"user","offset":0,"length":7}],"can_remove":false,"created_time":"2014-03-25T04:27:29+0000","like_count":1,"user_likes":false},"839294799420532":{"id":"839294799420532","from":{"id":"100004415461463","name":"Lê Trường An"},"message":"Tegamex nhiều đơn hàng mà giá cũng bt","can_remove":false,"created_time":"2014-03-25T08:08:48+0000","like_count":1,"user_likes":false},"839295119420500":{"id":"839295119420500","from":{"id":"100002847948300","name":"Thuy Dung Vi"},"message":"Có những công ty nào uy tín mà giá cả phải chăng thì cả nhà cứ up lên cho bọn em tham khảo với nhé. Bọn em chưa đi nên cũng đang ngơ ngác lắm ạ. Cảm ơn cả nhà nhiều.","can_remove":false,"created_time":"2014-03-25T08:10:43+0000","like_count":1,"user_likes":false},"839296896086989":{"id":"839296896086989","from":{"id":"100004399633968","name":"Sóng Thần"},"message":"Lê Trường An....Bạn đi cty đó oy hả. Vậy bạn có biết trưởng phòng nhật bản là ai k?","message_tags":[{"id":"100004415461463","name":"Lê Trường An","type":"user","offset":0,"length":12}],"can_remove":false,"created_time":"2014-03-25T08:16:53+0000","like_count":0,"user_likes":false},"839297786086900":{"id":"839297786086900","from":{"id":"100004415461463","name":"Lê Trường An"},"message":"Trưởng phòng nhật ở Việt Nam! Á","can_remove":false,"created_time":"2014-03-25T08:20:27+0000","like_count":1,"user_likes":false},"839297882753557":{"id":"839297882753557","from":{"id":"100004415461463","name":"Lê Trường An"},"message":"Mình đi xu học nhưng cũng đã học ở đấy rồi bạn ak","can_remove":false,"created_time":"2014-03-25T08:20:49+0000","like_count":0,"user_likes":false},"839297976086881":{"id":"839297976086881","from":{"id":"100004415461463","name":"Lê Trường An"},"message":"Bạn mình chúng nó đi cũng tuỳ đơn hàng thôi","can_remove":false,"created_time":"2014-03-25T08:21:03+0000","like_count":0,"user_likes":false},"839300612753284":{"id":"839300612753284","from":{"id":"100004399633968","name":"Sóng Thần"},"message":"Lê Trường An...Bạn đi ở đấy lâu chưa?","message_tags":[{"id":"100004415461463","name":"Lê Trường An","type":"user","offset":0,"length":12}],"can_remove":false,"created_time":"2014-03-25T08:29:47+0000","like_count":0,"user_likes":false},"839417696074909":{"id":"839417696074909","from":{"id":"100004399633968","name":"Sóng Thần"},"message":"Thuy Dung Vi cty bạn TMS là ở đâu?","message_tags":[{"id":"100002847948300","name":"Thuy Dung Vi","type":"user","offset":0,"length":12}],"can_remove":false,"created_time":"2014-03-25T14:05:12+0000","like_count":1,"user_likes":false},"839422992741046":{"id":"839422992741046","from":{"id":"100003692091609","name":"Dương Saker"},"message":"ở Vũ phạm Hàm  thì trk mk có hc ở ty UDIC còn cty Quốc Huy thì chưa nghe đến","can_remove":false,"created_time":"2014-03-25T14:15:52+0000","like_count":0,"user_likes":false},"839427699407242":{"id":"839427699407242","from":{"id":"100004399633968","name":"Sóng Thần"},"message":"Cty thì nằm ở đó. Học thì họ lại chuyển về hoài Đức học Dương Saker àk","message_tags":[{"id":"100003692091609","name":"Dương Saker","type":"user","offset":56,"length":11}],"can_remove":false,"created_time":"2014-03-25T14:28:30+0000","like_count":0,"user_likes":false},"839460469403965":{"id":"839460469403965","from":{"id":"100002847948300","name":"Thuy Dung Vi"},"message":"Công ty TMS Nhân Lực ở Phạm Hùng,Mỹ Đình bạn ạ","can_remove":false,"created_time":"2014-03-25T15:30:30+0000","like_count":0,"user_likes":false},"839676019382410":{"id":"839676019382410","from":{"id":"100004399633968","name":"Sóng Thần"},"message":"Thuy Dung Vi....Có fải cty TMS nhân lực của bạn đối diện 2 tòa nhà chung cư fảj k?","message_tags":[{"id":"100002847948300","name":"Thuy Dung Vi","type":"user","offset":0,"length":12}],"can_remove":false,"created_time":"2014-03-25T23:11:12+0000","like_count":1,"user_likes":false},"839768989373113":{"id":"839768989373113","from":{"id":"100001846634960","name":"Hoàng Văn Thanh"},"message":"bạn hãy bảo họ cho xem hồ sơ giấy tờ pháp lý xem có được phép đưa người sang nước ngoài ko nhé hj.","can_remove":false,"created_time":"2014-03-26T03:08:36+0000","like_count":1,"user_likes":false},"839769649373047":{"id":"839769649373047","from":{"id":"100001846634960","name":"Hoàng Văn Thanh"},"message":"c vào trang web này tra xem có tên doanh nghiệp đó ko nhé hj http://dolab.gov.vn/","can_remove":false,"created_time":"2014-03-26T03:10:06+0000","like_count":1,"user_likes":false},"839804396036239":{"id":"839804396036239","from":{"id":"100002847948300","name":"Thuy Dung Vi"},"message":"Tớ cũng ko để ý Sóng Thần ạ,nó ở tòa nhà Vimeco Phạm Hùng ý","can_remove":false,"created_time":"2014-03-26T04:12:03+0000","like_count":0,"user_likes":false}},"paging":{"cursors":{"after":"ODM5MTM4NzcyNzY5NDY4","before":"ODM5MTM4NzcyNzY5NDY4"},"next":"https://graph.facebook.com/229244010425617_838696849480327/comments?limit=1&summary=1&after=ODM5MTM4NzcyNzY5NDY4"},"summary":{"order":"chronological","total_count":27}}}