{"id":"229244010425617_838641406152538","type":"status","from":{"id":"100007220083563","name":"Nếu Là Anh"},"message":"mọi người cho e hỏi tí đc ko ạ...yêu cầu đi nhật cần những điều kiện gì ...vd:chiều cao ,cân nặng...vv để đủ điều kiện.","created_time":"2014-03-24T07:05:39+0000","updated_time":"2014-03-24T08:29:45+0000","likes":{"data":{"100001675994847":{"id":"100001675994847","name":"Khánh Phượng"},"100005961151820":{"id":"100005961151820","name":"Hối Tiếc Muộn Màng"},"100003181743412":{"id":"100003181743412","name":"Pham Kha"},"100007238765021":{"id":"100007238765021","name":"Vy Nhí Nhảnh"},"100006743887346":{"id":"100006743887346","name":"Lếu Láo Nhóc"},"100004630089111":{"id":"100004630089111","name":"Tuấn Vũ"}},"paging":{"cursors":{"after":"MTAwMDAxNjc1OTk0ODQ3","before":"MTAwMDAxNjc1OTk0ODQ3"},"next":"https://graph.facebook.com/229244010425617_838641406152538/likes?limit=1&summary=1&after=MTAwMDAxNjc1OTk0ODQ3"},"summary":{"total_count":6}},"comments":{"data":{"838642256152453":{"id":"838642256152453","from":{"id":"100000455388210","name":"Đức Trung Nguyễn"},"message":"Đẹp trai là được :))","can_remove":false,"created_time":"2014-03-24T07:07:52+0000","like_count":1,"user_likes":false},"838642336152445":{"id":"838642336152445","from":{"id":"100000048296076","name":"Anh Trần"},"message":"đạo đức","can_remove":false,"created_time":"2014-03-24T07:08:28+0000","like_count":0,"user_likes":false},"838642409485771":{"id":"838642409485771","from":{"id":"100000048296076","name":"Anh Trần"},"message":"văn hóa","can_remove":false,"created_time":"2014-03-24T07:08:41+0000","like_count":0,"user_likes":false},"838643636152315":{"id":"838643636152315","from":{"id":"100003144937413","name":"Bách Gà"},"message":"270 củ có là có thể đi","can_remove":false,"created_time":"2014-03-24T07:10:46+0000","like_count":1,"user_likes":false},"838643842818961":{"id":"838643842818961","from":{"id":"100000917495350","name":"Tran Tam"},"message":"Di du hoc hay lao.dong vay ban","can_remove":false,"created_time":"2014-03-24T07:11:38+0000","like_count":1,"user_likes":false},"838644009485611":{"id":"838644009485611","from":{"id":"100007220083563","name":"Nếu Là Anh"},"message":"à.m đi lao động","can_remove":false,"created_time":"2014-03-24T07:12:11+0000","like_count":0,"user_likes":false},"838644269485585":{"id":"838644269485585","from":{"id":"100004630089111","name":"Tuấn Vũ"},"message":"Giờ sag toàn tu nghiệp sinh","can_remove":false,"created_time":"2014-03-24T07:13:06+0000","like_count":0,"user_likes":false},"838644456152233":{"id":"838644456152233","from":{"id":"100007220083563","name":"Nếu Là Anh"},"message":"là sao ?tuấn vũ","can_remove":false,"created_time":"2014-03-24T07:13:53+0000","like_count":0,"user_likes":false},"838644469485565":{"id":"838644469485565","from":{"id":"100003144937413","name":"Bách Gà"},"message":"Tốt nhất du học thì đừng nên đi","can_remove":false,"created_time":"2014-03-24T07:13:57+0000","like_count":0,"user_likes":false},"838644612818884":{"id":"838644612818884","from":{"id":"100007220083563","name":"Nếu Là Anh"},"message":"m thấy sao bảo đi du học chắc hơn thì phải...","can_remove":false,"created_time":"2014-03-24T07:14:53+0000","like_count":0,"user_likes":false},"838644752818870":{"id":"838644752818870","from":{"id":"100004630089111","name":"Tuấn Vũ"},"message":"Nếu sang ,chắc mình cũng chỉ đi tns, du học thì money đâu ra","can_remove":false,"created_time":"2014-03-24T07:15:38+0000","like_count":0,"user_likes":false},"838645076152171":{"id":"838645076152171","from":{"id":"100003144937413","name":"Bách Gà"},"message":"Sang rồi biết sinh ạ :))","can_remove":false,"created_time":"2014-03-24T07:17:12+0000","like_count":1,"user_likes":false},"838645336152145":{"id":"838645336152145","from":{"id":"100004630089111","name":"Tuấn Vũ"},"message":"Wtf? Là sao anh?","can_remove":false,"created_time":"2014-03-24T07:18:01+0000","like_count":0,"user_likes":false},"838645399485472":{"id":"838645399485472","from":{"id":"100000917495350","name":"Tran Tam"},"message":"Yeu cau","can_remove":false,"created_time":"2014-03-24T07:18:20+0000","like_count":0,"user_likes":false},"838645552818790":{"id":"838645552818790","from":{"id":"100004630089111","name":"Tuấn Vũ"},"message":"Đi vì kt,thì chả chọn tns ah?","can_remove":false,"created_time":"2014-03-24T07:18:34+0000","like_count":0,"user_likes":false},"838645622818783":{"id":"838645622818783","from":{"id":"100007220083563","name":"Nếu Là Anh"},"message":"ừ...nhưng t mới hỏi là điều kiện để đi ấy bách Gà","can_remove":false,"created_time":"2014-03-24T07:18:40+0000","like_count":0,"user_likes":false},"838645806152098":{"id":"838645806152098","from":{"id":"100000917495350","name":"Tran Tam"},"message":"Con trai cao tu 1.65 tro len.can nang tu 53kg tro len.tot nghiep thpt tro len.ko vien gan b.ko hiv.","can_remove":false,"created_time":"2014-03-24T07:19:07+0000","like_count":0,"user_likes":false},"838645979485414":{"id":"838645979485414","from":{"id":"100007220083563","name":"Nếu Là Anh"},"message":"ok. Tran Tam.thaks.","message_tags":[{"id":"100000917495350","name":"Tran Tam","type":"user","offset":4,"length":8}],"can_remove":false,"created_time":"2014-03-24T07:20:09+0000","like_count":0,"user_likes":false},"838646429485369":{"id":"838646429485369","from":{"id":"100003144937413","name":"Bách Gà"},"message":"Ông ơi tôi 1m54 này 45 kg nhé","can_remove":false,"created_time":"2014-03-24T07:20:28+0000","like_count":0,"user_likes":false},"838646982818647":{"id":"838646982818647","from":{"id":"100007220083563","name":"Nếu Là Anh"},"message":"thế là đủ tiêu chuẩn hả  Bách Gà?","can_remove":false,"created_time":"2014-03-24T07:21:45+0000","like_count":0,"user_likes":false},"838647076151971":{"id":"838647076151971","from":{"id":"100003144937413","name":"Bách Gà"},"message":"Chắc đủ tôi đi r mà","can_remove":false,"created_time":"2014-03-24T07:22:03+0000","like_count":0,"user_likes":false},"838647136151965":{"id":"838647136151965","from":{"id":"100004630089111","name":"Tuấn Vũ"},"message":"Google","can_remove":false,"created_time":"2014-03-24T07:22:22+0000","like_count":0,"user_likes":false},"838647156151963":{"id":"838647156151963","from":{"id":"100003144937413","name":"Bách Gà"},"message":"Mà cty nó lo hết mà :))","can_remove":false,"created_time":"2014-03-24T07:22:30+0000","like_count":0,"user_likes":false},"838647292818616":{"id":"838647292818616","from":{"id":"100007220083563","name":"Nếu Là Anh"},"message":"ok.","can_remove":false,"created_time":"2014-03-24T07:23:23+0000","like_count":0,"user_likes":false},"838649626151716":{"id":"838649626151716","from":{"id":"100004630089111","name":"Tuấn Vũ"},"message":"Anh Bách sang đấy,làm hay đi du học đây?","can_remove":false,"created_time":"2014-03-24T07:27:17+0000","like_count":0,"user_likes":false},"838653026151376":{"id":"838653026151376","from":{"id":"100000917495350","name":"Tran Tam"},"message":"Bay gio ko don gian nvay","can_remove":false,"created_time":"2014-03-24T07:40:59+0000","like_count":0,"user_likes":false},"838653072818038":{"id":"838653072818038","from":{"id":"100000917495350","name":"Tran Tam"},"message":"Du hoc thi ok.tns thi ko hi vong","can_remove":false,"created_time":"2014-03-24T07:41:16+0000","like_count":1,"user_likes":false},"838653222818023":{"id":"838653222818023","from":{"id":"100003144937413","name":"Bách Gà"},"message":"Mình du học 1 tháng 4 em mình vẫn sang bt tran tam\nẠ","can_remove":false,"created_time":"2014-03-24T07:41:40+0000","like_count":0,"user_likes":false},"838653462817999":{"id":"838653462817999","from":{"id":"100004630089111","name":"Tuấn Vũ"},"message":"Anh sang đấy du học a?","can_remove":false,"created_time":"2014-03-24T07:41:58+0000","like_count":0,"user_likes":false},"838655212817824":{"id":"838655212817824","from":{"id":"100000917495350","name":"Tran Tam"},"message":"Uh.du hoc thi ko can den chieu cao.can nang.nhung lao dong thi co","can_remove":false,"created_time":"2014-03-24T07:49:17+0000","like_count":0,"user_likes":false},"838655342817811":{"id":"838655342817811","from":{"id":"100000917495350","name":"Tran Tam"},"message":"Vi minh lam.ben xkld.va da tung di nhat ve.ko du dk do.tot nhat ko nen.tham.gia keo mat tg va mat tien","can_remove":false,"created_time":"2014-03-24T07:49:54+0000","like_count":1,"user_likes":false},"838656289484383":{"id":"838656289484383","from":{"id":"100004630089111","name":"Tuấn Vũ"},"message":"Theo anh,có nên sang Nhật theo con đg tns?","can_remove":false,"created_time":"2014-03-24T07:54:16+0000","like_count":0,"user_likes":false},"838656782817667":{"id":"838656782817667","from":{"id":"100004664190011","name":"Lực Hâm"},"message":"Đi làm gì? Du học, tu nghiệp, du lịch hay vượt biên.... Hỏi thế thì biết trả lời thế nào đc?","can_remove":false,"created_time":"2014-03-24T07:56:06+0000","like_count":0,"user_likes":false},"838657102817635":{"id":"838657102817635","from":{"id":"100004630089111","name":"Tuấn Vũ"},"message":"Tns tu nghiệp sinh a.","can_remove":false,"created_time":"2014-03-24T07:57:23+0000","like_count":0,"user_likes":false},"838657219484290":{"id":"838657219484290","from":{"id":"100003144937413","name":"Bách Gà"},"message":"À dhs ko cần về cân nặng hay chiều cao con tns thì cần như a tran tam nói ấy","can_remove":false,"created_time":"2014-03-24T07:57:56+0000","like_count":0,"user_likes":false},"838658229484189":{"id":"838658229484189","from":{"id":"100000917495350","name":"Tran Tam"},"message":"Neu la m","can_remove":false,"created_time":"2014-03-24T08:01:57+0000","like_count":0,"user_likes":false},"838658352817510":{"id":"838658352817510","from":{"id":"100000917495350","name":"Tran Tam"},"message":"M ko di sang nhat.vi hien tai,tien yên nhat mat gia,luong nhat thi ko tang,viev lam thi ko.nhieu,","can_remove":false,"created_time":"2014-03-24T08:02:31+0000","like_count":1,"user_likes":false},"838658652817480":{"id":"838658652817480","from":{"id":"100004399633968","name":"Sóng Thần"},"message":"Tran Tam.?.. người nhật có xét kỹ.  chiều cao cân nặng lắm k ạk. Vì e cao 1m63 nặng 54kg hơi đuối với tiêu chuẩn đề za .Nhưng ngoại hình tốt ạk .và e muốn hỏi thêmbên nhật thường tuyển người lao động sang làm tại KCN vào những tháng nào là đông nhất ạk.","can_remove":false,"created_time":"2014-03-24T08:04:00+0000","like_count":0,"user_likes":false},"838658706150808":{"id":"838658706150808","from":{"id":"100004630089111","name":"Tuấn Vũ"},"message":"Sang Hàn,Đài thì ok không? Anh","can_remove":false,"created_time":"2014-03-24T08:04:26+0000","like_count":0,"user_likes":false},"838659039484108":{"id":"838659039484108","from":{"id":"100003144937413","name":"Bách Gà"},"message":"Đài với hàn ko ăn thua bằng nb đâu","can_remove":false,"created_time":"2014-03-24T08:05:34+0000","like_count":1,"user_likes":false},"838659456150733":{"id":"838659456150733","from":{"id":"100000917495350","name":"Tran Tam"},"message":"1;63 thi ban co the tam chap nhan.con thoi gian tuyen thi quanh nam.ko co thang nao.tuyen cu the nhieu ca","can_remove":false,"created_time":"2014-03-24T08:07:11+0000","like_count":1,"user_likes":false},"838659796150699":{"id":"838659796150699","from":{"id":"100000917495350","name":"Tran Tam"},"message":"Dai loan hien tai ko an thua vi thi truong dai loan co le sap vo vi ng viet nm.qua dong va te nan ng viet nam qua nhieu","can_remove":false,"created_time":"2014-03-24T08:07:58+0000","like_count":1,"user_likes":false},"838659946150684":{"id":"838659946150684","from":{"id":"100000917495350","name":"Tran Tam"},"message":"Han quoc thi cung vay.kho di.ma ma neu di duoc thi dat.","can_remove":false,"created_time":"2014-03-24T08:08:31+0000","like_count":1,"user_likes":false},"838659949484017":{"id":"838659949484017","from":{"id":"100004630089111","name":"Tuấn Vũ"},"message":"Có lẽ NB vẫn ok nhất","can_remove":false,"created_time":"2014-03-24T08:08:32+0000","like_count":0,"user_likes":false},"838660099484002":{"id":"838660099484002","from":{"id":"100000917495350","name":"Tran Tam"},"message":"Noi chung de di xkld tg nay qua la rat kho.cac ban nen tim hieu ki.","can_remove":false,"created_time":"2014-03-24T08:08:58+0000","like_count":0,"user_likes":false},"838660202817325":{"id":"838660202817325","from":{"id":"100004630089111","name":"Tuấn Vũ"},"message":"Nhưng cũng tầm 10k $","can_remove":false,"created_time":"2014-03-24T08:09:15+0000","like_count":0,"user_likes":false},"838660532817292":{"id":"838660532817292","from":{"id":"100004630089111","name":"Tuấn Vũ"},"message":"Theo bác,công ty Việt Thắng corp ở Mĩ Đình đc ko?","can_remove":false,"created_time":"2014-03-24T08:10:17+0000","like_count":0,"user_likes":false},"838660552817290":{"id":"838660552817290","from":{"id":"100003144937413","name":"Bách Gà"},"message":"Nếu đi hq bạn ko làm nghề nặng như hàn hay gì đó lương sẽ ko cao lắm","can_remove":false,"created_time":"2014-03-24T08:10:20+0000","like_count":0,"user_likes":false},"838660719483940":{"id":"838660719483940","from":{"id":"100004630089111","name":"Tuấn Vũ"},"message":"Các bác trải rồi thì biết. Em gà lắm","can_remove":false,"created_time":"2014-03-24T08:10:54+0000","like_count":0,"user_likes":false},"838660752817270":{"id":"838660752817270","from":{"id":"100000917495350","name":"Tran Tam"},"message":"Tns ki hop dong 15,4 man.tru tien nha,dien,nuoc,ga,thue,con khoang 9.5man.tru an uong linh tinh (tiet kiem va an do da) con khoang 8man=16tr vnd(chua tang ca)","can_remove":false,"created_time":"2014-03-24T08:11:02+0000","like_count":1,"user_likes":false},"838660959483916":{"id":"838660959483916","from":{"id":"100003692091609","name":"Dương Saker"},"message":"Việt Thắng  theo mk thì bạn k lên đi","can_remove":false,"created_time":"2014-03-24T08:11:37+0000","like_count":0,"user_likes":false},"838661116150567":{"id":"838661116150567","from":{"id":"100000917495350","name":"Tran Tam"},"message":"Viet thang hien nay dang bi may don hang hoan.ko hieu li do.","can_remove":false,"created_time":"2014-03-24T08:12:05+0000","like_count":0,"user_likes":false},"838661232817222":{"id":"838661232817222","from":{"id":"100004630089111","name":"Tuấn Vũ"},"message":"Ông anh em làm cơ khí bên Hàn thì khoảng 30tr/tháng","can_remove":false,"created_time":"2014-03-24T08:12:24+0000","like_count":0,"user_likes":false},"838661436150535":{"id":"838661436150535","from":{"id":"100003692091609","name":"Dương Saker"},"message":"nếu có ng nhà bên hàn thì bạn lên theo con đường sang hàn","can_remove":false,"created_time":"2014-03-24T08:12:52+0000","like_count":0,"user_likes":false},"838661702817175":{"id":"838661702817175","from":{"id":"100003692091609","name":"Dương Saker"},"message":"đi đâu cũng vậy thôi.tất cả là do mk hết","can_remove":false,"created_time":"2014-03-24T08:13:25+0000","like_count":1,"user_likes":false},"838661809483831":{"id":"838661809483831","from":{"id":"100004630089111","name":"Tuấn Vũ"},"message":"Em thấy bên Việt Thắng VTC có vẻ chắc chắn lắm mà","can_remove":false,"created_time":"2014-03-24T08:13:53+0000","like_count":0,"user_likes":false},"838661816150497":{"id":"838661816150497","from":{"id":"100000917495350","name":"Tran Tam"},"message":"Uh.de di han.co 2 dang di lao donv.do la di theo thuong binh xa hoi va chung chi tieng thi het khoang 4500usd.nhung cho lau va kho di.di theo dien the vang thi nhnh nhung chi phi cao","can_remove":false,"created_time":"2014-03-24T08:13:54+0000","like_count":1,"user_likes":false},"838662002817145":{"id":"838662002817145","from":{"id":"100003144937413","name":"Bách Gà"},"message":"Anh ơi 7m 1 tháng bên này sống khá đẹp đấy anh ạ","can_remove":false,"created_time":"2014-03-24T08:14:23+0000","like_count":0,"user_likes":false},"838662152817130":{"id":"838662152817130","from":{"id":"100004630089111","name":"Tuấn Vũ"},"message":"Người sinh kế,trời sinh thành mà bác","can_remove":false,"created_time":"2014-03-24T08:14:47+0000","like_count":0,"user_likes":false},"838662236150455":{"id":"838662236150455","from":{"id":"100003692091609","name":"Dương Saker"},"message":"nếu cty nào chắc chắn thì họ sẽ thu tiền lúc mk bay","can_remove":false,"created_time":"2014-03-24T08:15:03+0000","like_count":1,"user_likes":false},"838663299483682":{"id":"838663299483682","from":{"id":"100004630089111","name":"Tuấn Vũ"},"message":"Thanks các bác","can_remove":false,"created_time":"2014-03-24T08:18:02+0000","like_count":0,"user_likes":false},"838668192816526":{"id":"838668192816526","from":{"id":"100004399633968","name":"Sóng Thần"},"message":"Dương Saker....cty họ yêu cầu nộp 1 nửa già còn Lúc mình bay là hoàn thiện nốt nửa non+ tiền đặt cọc chống chốn thôi ạk. E thấy chị gái e đi về bảo vậy.  Chị ấy mới hết hợp đồng 3nam song","message_tags":[{"id":"100003692091609","name":"Dương Saker","type":"user","offset":0,"length":11}],"can_remove":false,"created_time":"2014-03-24T08:28:03+0000","like_count":2,"user_likes":false},"838669036149775":{"id":"838669036149775","from":{"id":"100003692091609","name":"Dương Saker"},"message":"nếu đỗ đơn hàng thì mk đặt cọc 2000 usd..đến khi có giấy cư trú về thì đóng nốt và tiền đặt cọc nữa","can_remove":false,"created_time":"2014-03-24T08:29:45+0000","like_count":3,"user_likes":false}},"paging":{"cursors":{"after":"ODM4NjQyMjU2MTUyNDUz","before":"ODM4NjQyMjU2MTUyNDUz"},"next":"https://graph.facebook.com/229244010425617_838641406152538/comments?limit=1&summary=1&after=ODM4NjQyMjU2MTUyNDUz"},"summary":{"order":"chronological","total_count":63}}}