{"id":"229244010425617_838841456132533","type":"status","from":{"id":"100003692091609","name":"Dương Saker"},"message":"có ACE nào hiện đang đi du học  sống và lm việc tại Nagoya k cmt cho e ? chút.vì e cũng có dự định du học sang vùng đó.","created_time":"2014-03-24T14:20:00+0000","updated_time":"2014-03-24T15:19:55+0000","likes":{"data":{"100007238765021":{"id":"100007238765021","name":"Vy Nhí Nhảnh"},"100002316048035":{"id":"100002316048035","name":"Đỗ Mạnh Tiến"},"100002975299796":{"id":"100002975299796","name":"Trinh Tuan Anh"},"100006734168968":{"id":"100006734168968","name":"Tiểu Nhân Mã"}},"paging":{"cursors":{"after":"MTAwMDA3MjM4NzY1MDIx","before":"MTAwMDA3MjM4NzY1MDIx"},"next":"https://graph.facebook.com/229244010425617_838841456132533/likes?limit=1&summary=1&after=MTAwMDA3MjM4NzY1MDIx"},"summary":{"total_count":4}},"comments":{"data":{"838843972798948":{"id":"838843972798948","from":{"id":"100006734168968","name":"Tiểu Nhân Mã"},"message":"B ở hd à","can_remove":false,"created_time":"2014-03-24T14:25:22+0000","like_count":0,"user_likes":false},"838844046132274":{"id":"838844046132274","from":{"id":"100003692091609","name":"Dương Saker"},"message":"vâng","can_remove":false,"created_time":"2014-03-24T14:25:38+0000","like_count":0,"user_likes":false},"838844552798890":{"id":"838844552798890","from":{"id":"100006734168968","name":"Tiểu Nhân Mã"},"message":"Cùng quê:)","can_remove":false,"created_time":"2014-03-24T14:27:07+0000","like_count":0,"user_likes":false},"838844932798852":{"id":"838844932798852","from":{"id":"100003692091609","name":"Dương Saker"},"message":"b cũng ở hd ak","can_remove":false,"created_time":"2014-03-24T14:27:44+0000","like_count":0,"user_likes":false},"838844956132183":{"id":"838844956132183","from":{"id":"100003692091609","name":"Dương Saker"},"message":"chỗ nào hd vậy","can_remove":false,"created_time":"2014-03-24T14:27:48+0000","like_count":0,"user_likes":false},"838845472798798":{"id":"838845472798798","from":{"id":"100006734168968","name":"Tiểu Nhân Mã"},"message":"Ừm, cẩm giàng,,hd. Chúc b sang nhật may mắn ;)","can_remove":false,"created_time":"2014-03-24T14:28:57+0000","like_count":0,"user_likes":false},"838845712798774":{"id":"838845712798774","from":{"id":"100003692091609","name":"Dương Saker"},"message":"cùng cg luôn","can_remove":false,"created_time":"2014-03-24T14:29:27+0000","like_count":0,"user_likes":false},"838845836132095":{"id":"838845836132095","from":{"id":"100003692091609","name":"Dương Saker"},"message":"chắc b ở cẩm hoàng","can_remove":false,"created_time":"2014-03-24T14:29:34+0000","like_count":0,"user_likes":false},"838847356131943":{"id":"838847356131943","from":{"id":"100006734168968","name":"Tiểu Nhân Mã"},"message":"Chuẩn oy. Cẩm hoàng đây. ^^","can_remove":false,"created_time":"2014-03-24T14:33:17+0000","like_count":0,"user_likes":false},"838847519465260":{"id":"838847519465260","from":{"id":"100003692091609","name":"Dương Saker"},"message":"hiện bạn đang ở quê nhà hay bên nhật vậy","can_remove":false,"created_time":"2014-03-24T14:33:43+0000","like_count":0,"user_likes":false},"838848506131828":{"id":"838848506131828","from":{"id":"100003246541781","name":"Đoàn Văn Tuyên"},"message":"Dương Saker E ĐI Ở CTY NÀO CHƯA. NẾU CHƯA THÌ QUA CTY ANH. A ĐẢM BẢO E SANG CÓ VIỆC LÀM NGAY. CHÁU CỦA A SANG NGÀY 25/12 VÀ BÂY GIỜ ĐÃ LĨNH THÁNG LƯƠNG THỨ 3. MỖI THÁNG 22 TR. ĐANG XIN THÊM 1 COOGN VIỆC NỮA ĐỂ LÀM. NẾU E SANG A SẼ NHỜ NHỮNG NG BẠN SANG TRƯỚC GIÚP ĐỠ EM","message_tags":[{"id":"100003692091609","name":"Dương Saker","type":"user","offset":0,"length":11}],"can_remove":false,"created_time":"2014-03-24T14:36:40+0000","like_count":0,"user_likes":false},"838849252798420":{"id":"838849252798420","from":{"id":"100003692091609","name":"Dương Saker"},"message":"theo e đk biết thì đi du học 1 năm chỉ có 4 đợt  vào 1-4-7-10  chứ ngoài ra k đi đk các tháng khác","can_remove":false,"created_time":"2014-03-24T14:38:15+0000","like_count":0,"user_likes":false},"838849679465044":{"id":"838849679465044","from":{"id":"100003246541781","name":"Đoàn Văn Tuyên"},"message":"HI. NẾU E NHẬP HỌC BÂY GIỜ SẼ ĐI KỲ THÁNG 10 E AH VÌ E CÒN PHẢI HỌC  VÀI THÁNG TIẾNG NHẬT Ở VIỆT NAM CHỨ. KO HỌC LÀM SAO E ĐI ĐC","can_remove":false,"created_time":"2014-03-24T14:39:10+0000","like_count":0,"user_likes":false},"838849952798350":{"id":"838849952798350","from":{"id":"100003246541781","name":"Đoàn Văn Tuyên"},"message":"ĐI VÀO THÁNG 10 SẼ HỌC 1 NĂM 6 THÁNG LÀ E SẼ TỐT NGHIỆP TRƯỜNG TIẾNG","can_remove":false,"created_time":"2014-03-24T14:39:38+0000","like_count":0,"user_likes":false},"838850126131666":{"id":"838850126131666","from":{"id":"100003692091609","name":"Dương Saker"},"message":"vâng e biết điều đó a ak","can_remove":false,"created_time":"2014-03-24T14:39:59+0000","like_count":0,"user_likes":false},"838850542798291":{"id":"838850542798291","from":{"id":"100003692091609","name":"Dương Saker"},"message":"e định đi t7 nhưng do NJP n5 của e đã hết hạn lên phải thi lại..","can_remove":false,"created_time":"2014-03-24T14:40:57+0000","like_count":0,"user_likes":false},"838852092798136":{"id":"838852092798136","from":{"id":"100006734168968","name":"Tiểu Nhân Mã"},"message":"Đang ở vn. Hihi:)","can_remove":false,"created_time":"2014-03-24T14:44:52+0000","like_count":0,"user_likes":false},"838852232798122":{"id":"838852232798122","from":{"id":"100006734168968","name":"Tiểu Nhân Mã"},"message":"Đoàn Văn Tuyên tt a tên gì?","can_remove":false,"created_time":"2014-03-24T14:45:10+0000","like_count":0,"user_likes":false},"838852482798097":{"id":"838852482798097","from":{"id":"100003246541781","name":"Đoàn Văn Tuyên"},"message":"CÔNG TY CEO GROUP E Ạ. E CŨNG MUỐN ĐI DU HỌC À","can_remove":false,"created_time":"2014-03-24T14:45:51+0000","like_count":0,"user_likes":false},"838854216131257":{"id":"838854216131257","from":{"id":"100006734168968","name":"Tiểu Nhân Mã"},"message":"Vâng,học xong cấp3 là e đi luôn vào t10 :)\nSao chưa nghe tt đấy pio nhỉ.","can_remove":false,"created_time":"2014-03-24T14:48:57+0000","like_count":0,"user_likes":false},"838854776131201":{"id":"838854776131201","from":{"id":"100003692091609","name":"Dương Saker"},"message":"e đang hc tại trường phải k..do thầy Thịnh dậy đúng k","can_remove":false,"created_time":"2014-03-24T14:49:59+0000","like_count":0,"user_likes":false},"838854779464534":{"id":"838854779464534","from":{"id":"100006734168968","name":"Tiểu Nhân Mã"},"message":"Vâng,học xong cấp3 là e đi luôn vào t10 :)\nSao chưa nghe tt đấy pio nhỉ.","can_remove":false,"created_time":"2014-03-24T14:49:59+0000","like_count":0,"user_likes":false},"838855379464474":{"id":"838855379464474","from":{"id":"100006734168968","name":"Tiểu Nhân Mã"},"message":"A hỏi e á? K a ạ. K có thầy thịnh nào cả","can_remove":false,"created_time":"2014-03-24T14:51:26+0000","like_count":0,"user_likes":false},"838855479464464":{"id":"838855479464464","from":{"id":"100003246541781","name":"Đoàn Văn Tuyên"},"message":"CÔNG TY CỔ PHẦN PHÁT TRIỂN DỊCH VỤ CEO, BÊN A LÀM CHÍNH VỀ XUẤT KHẨU LĐ ., MỖI NĂM ĐƯA 300 400 TU NGHIỆP SINH ĐI NHẬT, NGOÀI RA LÀM THÊM CẢ DU HỌC, ĐỐI TÁC CHÍNH LÀ HỌC VIỆN NAGOYA, MỖI THÁNG BÊN A KHOẢNG CHỤC BẠN ĐĂNG KÍ","can_remove":false,"created_time":"2014-03-24T14:51:36+0000","like_count":0,"user_likes":false},"838855562797789":{"id":"838855562797789","from":{"id":"100003692091609","name":"Dương Saker"},"message":"hiện e đang học tại trung tâm nào","can_remove":false,"created_time":"2014-03-24T14:51:52+0000","like_count":0,"user_likes":false},"838856642797681":{"id":"838856642797681","from":{"id":"100006734168968","name":"Tiểu Nhân Mã"},"message":"Học tại nhà cô giáo. \nE còn bận ôn thi tốt nghiệp và đh nữa nên chỉ học tối thôi,hok ở tt thỳ xa wá.\nNgày truoc e có hok ở sakura chỗ lai cách ý.","can_remove":false,"created_time":"2014-03-24T14:54:15+0000","like_count":0,"user_likes":false},"838857752797570":{"id":"838857752797570","from":{"id":"100003692091609","name":"Dương Saker"},"message":"e có cần ng dậy kèm thêm k..a xin dậy kèm e.","can_remove":false,"created_time":"2014-03-24T14:55:53+0000","like_count":0,"user_likes":false},"838857902797555":{"id":"838857902797555","from":{"id":"100003692091609","name":"Dương Saker"},"message":"a ms hc gần hết quyển 2 thôi","can_remove":false,"created_time":"2014-03-24T14:56:12+0000","like_count":0,"user_likes":false},"838858039464208":{"id":"838858039464208","from":{"id":"100003692091609","name":"Dương Saker"},"message":"kiến thức lắm k đk chắc cho lắm những có lẽ cũng dậy kèm đk.hjhj","can_remove":false,"created_time":"2014-03-24T14:56:35+0000","like_count":0,"user_likes":false},"838858716130807":{"id":"838858716130807","from":{"id":"100003246541781","name":"Đoàn Văn Tuyên"},"message":"TIỂU NHÂN MÃ,,, ĐI DU HỌC THÌ ALO NHÉ.. HỌC VIỆN NAGOYA, SANG CÓ VIỆC LÀM LUÔN","can_remove":false,"created_time":"2014-03-24T14:57:54+0000","like_count":0,"user_likes":false},"838861819463830":{"id":"838861819463830","from":{"id":"100006734168968","name":"Tiểu Nhân Mã"},"message":"E đang hok cô giáo mà. Hok thêm a nữa thời gian đâu mà học. Trong khi e sắp tốt nghiep và thy đh đến nơi oy. E cũng bắt đầu hok quyển2 oy ^^","can_remove":false,"created_time":"2014-03-24T15:05:24+0000","like_count":0,"user_likes":false},"838862102797135":{"id":"838862102797135","from":{"id":"100006734168968","name":"Tiểu Nhân Mã"},"message":"Đoàn Văn Tuyên vâng e. Sẽ tìm hiểu. Tks a","can_remove":false,"created_time":"2014-03-24T15:05:55+0000","like_count":0,"user_likes":false},"838862429463769":{"id":"838862429463769","from":{"id":"100003246541781","name":"Đoàn Văn Tuyên"},"message":"0964511236 , CÓ J ALO ANH. HÔM NÀO NÊN HÀ NỘI QUA THĂM CTY ANH NHÉ. HI VỌNG SẼ GIÚP ĐC 2 EM..","can_remove":false,"created_time":"2014-03-24T15:06:42+0000","like_count":0,"user_likes":false},"838864209463591":{"id":"838864209463591","from":{"id":"100003692091609","name":"Dương Saker"},"message":"vừa ôn thi vừa hc tiếng nhật..bjo đã sang q2 rồi..chắc e hc cũng khá lắm","can_remove":false,"created_time":"2014-03-24T15:08:29+0000","like_count":0,"user_likes":false},"838866046130074":{"id":"838866046130074","from":{"id":"100006734168968","name":"Tiểu Nhân Mã"},"message":"K.. e hok từ lớp 11. K thỳ ls mà nhah thế đc.. e còn psir nghỉ mấy tháng ôn thi nữa đấy. Cơ mà hok ngu,k khá đc.","can_remove":false,"created_time":"2014-03-24T15:10:23+0000","like_count":0,"user_likes":false},"838869172796428":{"id":"838869172796428","from":{"id":"100003692091609","name":"Dương Saker"},"message":"xác định đi du học t10 thì còn ôn thi đh lzj nữa e..có lẽ nào e thi khối D môn tự chọn là tiếng nhật","can_remove":false,"created_time":"2014-03-24T15:11:43+0000","like_count":1,"user_likes":false},"838870509462961":{"id":"838870509462961","from":{"id":"100006734168968","name":"Tiểu Nhân Mã"},"message":"Ồ pải thi chứ. Bõ công 12năm đèn sách pải đi thi xem n thế nào :)))\nVs lại xem sức hok mình đến đâu.\n Sayonara ^^ oyasumi:)","can_remove":false,"created_time":"2014-03-24T15:14:24+0000","like_count":0,"user_likes":false},"838870652796280":{"id":"838870652796280","from":{"id":"100006734168968","name":"Tiểu Nhân Mã"},"message":"Chuẩn.","can_remove":false,"created_time":"2014-03-24T15:14:48+0000","like_count":0,"user_likes":false},"838873182796027":{"id":"838873182796027","from":{"id":"100003552673703","name":"Khai Bui Quang"},"message":"Aichiken nagoya.","can_remove":false,"created_time":"2014-03-24T15:19:55+0000","like_count":0,"user_likes":false}},"paging":{"cursors":{"after":"ODM4ODQzOTcyNzk4OTQ4","before":"ODM4ODQzOTcyNzk4OTQ4"},"next":"https://graph.facebook.com/229244010425617_838841456132533/comments?limit=1&summary=1&after=ODM4ODQzOTcyNzk4OTQ4"},"summary":{"order":"chronological","total_count":39}}}