{"id":"229244010425617_838801396136539","type":"photo","object_id":"10201577502016513","picture":"https://fbcdn-photos-c-a.akamaihd.net/hphotos-ak-prn2/t1.0-0/1149028_10201577502016513_380858346_s.jpg","link":"https://www.facebook.com/photo.php?fbid=10201577502016513&set=pcb.838801396136539&type=1&relevant_count=4","from":{"id":"1146680551","name":"優しい なぁ"},"message":"【Chú ý】Giữ gìn giấy tờ tuỳ thân cẩn thận khi ở Nhật.\n\nViệc làm rơi, thất lạc, hay thậm chí là bị móc mất giấy tờ tuỳ thân, tiền bạc nhiều khi mang đến sự rắc rối cũng như sinh hoạt trong cuộc sống bị đảo ngược là việc mà không ai muốn. Nhưng không phải muốn mà tránh được. Nhất là khi trùng hợp mấy thời điểm gia hạn visa, hay về nước, hoặc nhập học. Như trường hợp của bạn này.\nTheo lời bạn ấy kể là bị móc mất thẻ ngoại kiều, thẻ ngân hàng và tiền khi đi trên tàu điện. Trong khi đó, đang trong thời điểm gần hết hạn visa, đang chuẩn bị gia hạn visa mới, nên đã rất là khổ sở.\nVậy nên mọi người hết sức chú ý tự bảo quản giấy tờ cá nhân cũng như tiền bạc để tránh những phiền phức không đáng có gây ảnh hưởng đến cuộc sống cũng như học tập nhé. Thân.","created_time":"2014-03-24T13:09:15+0000","updated_time":"2014-03-25T03:58:25+0000","likes":{"data":{"100007823165779":{"id":"100007823165779","name":"Mad Joke"},"100004454232040":{"id":"100004454232040","name":"Ngựa BAy"},"100003732529410":{"id":"100003732529410","name":"Huong Dang"},"100002615664668":{"id":"100002615664668","name":"PuPu Phương Elf"},"100005271433446":{"id":"100005271433446","name":"Nguyentan Thang"},"100001842961157":{"id":"100001842961157","name":"Hoa Biển Trắng"},"569263718":{"id":"569263718","name":"Phuong Thao Tran"},"100003181743412":{"id":"100003181743412","name":"Pham Kha"},"1816269439":{"id":"1816269439","name":"Dao Ngoc"},"100006485580026":{"id":"100006485580026","name":"Gimmy Phạm"},"525828985":{"id":"525828985","name":"Cindy Taiki"},"100007779404421":{"id":"100007779404421","name":"Anh Chanh Chua"},"1821970083":{"id":"1821970083","name":"Nguyễn Mạnh Cường"},"100000500260636":{"id":"100000500260636","name":"Lưu Nguyễn Thảo Tiên"},"100003971304832":{"id":"100003971304832","name":"Nguyễn Xuân"},"100003977703228":{"id":"100003977703228","name":"Ki Yu"},"100001526631937":{"id":"100001526631937","name":"Tường Oanh Mineko"},"100003262656197":{"id":"100003262656197","name":"ヴァン トゥアン"},"100003049639881":{"id":"100003049639881","name":"Truong Luvuxy"},"100001965604540":{"id":"100001965604540","name":"Nguyen Thi Minh Phuong"},"100005690740678":{"id":"100005690740678","name":"Bui Thanh Tung"},"1082956399":{"id":"1082956399","name":"Danny Dee Nguyen IE"},"100001807609603":{"id":"100001807609603","name":"Nguyễn Khánh Huyền"},"100005801442456":{"id":"100005801442456","name":"An Nguyen"},"100005828342497":{"id":"100005828342497","name":"Bee Boo"},"100003334742630":{"id":"100003334742630","name":"Htl Nhjm"},"100007373948794":{"id":"100007373948794","name":"Sunny Nguyen"},"100002985743170":{"id":"100002985743170","name":"Hoai Pham Thi"},"100003961479659":{"id":"100003961479659","name":"Giang Beo"},"100003740342167":{"id":"100003740342167","name":"Có Gì Hót"},"100004069830442":{"id":"100004069830442","name":"Văn Đình Nguyên"},"100007468213697":{"id":"100007468213697","name":"Minh Cảnh"},"100001876928704":{"id":"100001876928704","name":"Kien Nguyen"}},"paging":{"cursors":{"after":"MTAwMDA3ODIzMTY1Nzc5","before":"MTAwMDA3ODIzMTY1Nzc5"},"next":"https://graph.facebook.com/229244010425617_838801396136539/likes?limit=1&summary=1&after=MTAwMDA3ODIzMTY1Nzc5"},"summary":{"total_count":33}},"comments":{"data":{"838804976136181":{"id":"838804976136181","from":{"id":"100003934051737","name":"Thanh Sói"},"message":"nhọ hết chỗ nói","can_remove":false,"created_time":"2014-03-24T13:14:24+0000","like_count":0,"user_likes":false},"838829522800393":{"id":"838829522800393","from":{"id":"100001833272861","name":"Hà Kej"},"message":"Khổ thân.","can_remove":false,"created_time":"2014-03-24T13:52:38+0000","like_count":0,"user_likes":false},"838839832799362":{"id":"838839832799362","from":{"id":"100004519294911","name":"Trungdung Nguyen"},"message":"xin chân thành chia lỗi buồn với bạn đó","can_remove":false,"created_time":"2014-03-24T14:16:40+0000","like_count":0,"user_likes":false},"838841729465839":{"id":"838841729465839","from":{"id":"1146680551","name":"優しい なぁ"},"message":"\" Nỗi \" buồn chứ nhỉ :)","can_remove":false,"created_time":"2014-03-24T14:20:45+0000","like_count":1,"user_likes":false},"838844602798885":{"id":"838844602798885","from":{"id":"100006896502374","name":"Kantan Yo"},"message":"ra canh sat bao mat .. \ndoi vai tuan ho ko tim lai dc se cap cai moi ak .. \nko can lo lang .. hehee","can_remove":false,"created_time":"2014-03-24T14:27:21+0000","like_count":0,"user_likes":false},"838849766131702":{"id":"838849766131702","from":{"id":"100003049639881","name":"Truong Luvuxy"},"message":"Mất vida thì khổ rồi","can_remove":false,"created_time":"2014-03-24T14:39:20+0000","like_count":0,"user_likes":false},"838927829457229":{"id":"838927829457229","from":{"id":"100002362763411","name":"Ghê Vậy Ai Chơi"},"message":"Em cũng sắp sang. Đầu tháng 4 e nhập học. Cơ mà thấy nhiều bài viết về kiểu như này quá :(. Chả nhẽ cảnh giác với đồng hương hơn cả người ngoài x_X","can_remove":false,"created_time":"2014-03-24T16:59:20+0000","like_count":0,"user_likes":false},"838976392785706":{"id":"838976392785706","from":{"id":"100001958220978","name":"Trung Hiếu Bắp"},"message":"Pon Ruby: chuẩn đó bạn :v","message_tags":[{"id":"100002362763411","name":"Pon Ruby","type":"user","offset":0,"length":8}],"can_remove":false,"created_time":"2014-03-24T18:55:46+0000","like_count":0,"user_likes":false},"839017562781589":{"id":"839017562781589","from":{"id":"100004491812684","name":"Nợ Đời"},"message":"E cũng bị nó trộm mất cái balo trên tàu.hức.mất hết sạch giấy tờ,tiền bạc.may làm lại kịp cho đot xin visa vừa rôi.nó lấy tiền rồi nó để giấy tờ lại cho thì còn đỡ.haizzzz","can_remove":false,"created_time":"2014-03-24T20:14:29+0000","like_count":0,"user_likes":false},"839099469440065":{"id":"839099469440065","from":{"id":"100006485580026","name":"Gimmy Phạm"},"message":"Mình sắp sang chiba","can_remove":false,"created_time":"2014-03-24T23:34:28+0000","like_count":0,"user_likes":false},"839210126095666":{"id":"839210126095666","from":{"id":"100002717800272","name":"Hải Ngô"},"message":"Gimmy Phạm hoc truong nao o chiba vay","message_tags":[{"id":"100006485580026","name":"Gimmy Phạm","type":"user","offset":0,"length":10}],"can_remove":false,"created_time":"2014-03-25T03:45:35+0000","like_count":0,"user_likes":false},"839214456095233":{"id":"839214456095233","from":{"id":"100006781330290","name":"Kiên Remode"},"message":"vất vả rồi","can_remove":false,"created_time":"2014-03-25T03:58:25+0000","like_count":0,"user_likes":false}},"paging":{"cursors":{"after":"ODM4ODA0OTc2MTM2MTgx","before":"ODM4ODA0OTc2MTM2MTgx"},"next":"https://graph.facebook.com/229244010425617_838801396136539/comments?limit=1&summary=1&after=ODM4ODA0OTc2MTM2MTgx"},"summary":{"order":"chronological","total_count":12}}}