{"id":"229244010425617_838822012801144","type":"photo","object_id":"653710761343356","picture":"https://fbcdn-photos-f-a.akamaihd.net/hphotos-ak-prn1/t1.0-0/1525743_653710761343356_1338265587_s.jpg","link":"https://www.facebook.com/photo.php?fbid=653710761343356&set=pcb.838822012801144&type=1&relevant_count=2","from":{"id":"100001133145092","name":"Vũ Duy Đông"},"message":"皆さん もすぐ 地震 があるよ。皆さん 気をつけて下さい。 8.0r ぐらい","created_time":"2014-03-24T13:37:08+0000","updated_time":"2014-03-25T08:14:27+0000","likes":{"data":{"100003069246142":{"id":"100003069246142","name":"Hồng Trịnh"},"100004340858702":{"id":"100004340858702","name":"Boniva Capricornus"},"100004456541864":{"id":"100004456541864","name":"Nha Gia"},"100005804586628":{"id":"100005804586628","name":"Huyền Phạm"},"100004490496995":{"id":"100004490496995","name":"Rai Chamu"},"100004991379931":{"id":"100004991379931","name":"Con Yêu Bố Mẹ"},"100000038672100":{"id":"100000038672100","name":"Lê Chấn Hưng"},"100003939942324":{"id":"100003939942324","name":"Trung Vũ Kiên"},"100002976213828":{"id":"100002976213828","name":"Nana"},"100003868720130":{"id":"100003868720130","name":"Bình Trà Nhỏ"},"1580589258":{"id":"1580589258","name":"Kani Oboeru"},"100000238537116":{"id":"100000238537116","name":"Thảo Hn"},"100003567795945":{"id":"100003567795945","name":"Thu Thảo Đỗ"},"100002580875569":{"id":"100002580875569","name":"Nguyen Xi"},"100003826577214":{"id":"100003826577214","name":"Lua Pham"},"100007192418177":{"id":"100007192418177","name":"Linh Vẹt"},"100000500260636":{"id":"100000500260636","name":"Lưu Nguyễn Thảo Tiên"},"100005443502832":{"id":"100005443502832","name":"Văn Lx"},"100001807609603":{"id":"100001807609603","name":"Nguyễn Khánh Huyền"},"100001092865006":{"id":"100001092865006","name":"Huong Giang"},"100001444337943":{"id":"100001444337943","name":"Macjanh"},"100005802612629":{"id":"100005802612629","name":"Hana Nguyen"},"100000147414000":{"id":"100000147414000","name":"Nguyễn Công Thắng"},"100005775182411":{"id":"100005775182411","name":"Tuấn Milo"},"100004004924539":{"id":"100004004924539","name":"Gocnhin V-Dien"},"1608661728":{"id":"1608661728","name":"Nguyen Quang Ky"},"100004411770431":{"id":"100004411770431","name":"Giap Viet Dung"},"100002334361243":{"id":"100002334361243","name":"Ông Cu Non"},"100004784233958":{"id":"100004784233958","name":"NO Bita"},"1146680551":{"id":"1146680551","name":"優しい なぁ"},"100006363635494":{"id":"100006363635494","name":"Wms Lmc"},"100004451706188":{"id":"100004451706188","name":"Chú Tễu Đạt"}},"paging":{"cursors":{"after":"MTAwMDAzMDY5MjQ2MTQy","before":"MTAwMDAzMDY5MjQ2MTQy"},"next":"https://graph.facebook.com/229244010425617_838822012801144/likes?limit=1&summary=1&after=MTAwMDAzMDY5MjQ2MTQy"},"summary":{"total_count":32}},"comments":{"data":{"838827922800553":{"id":"838827922800553","from":{"id":"100004714864862","name":"Gia Bao"},"message":"本当？8.0r津波を発生するそうだね。ひどい過ぎ。","can_remove":false,"created_time":"2014-03-24T13:48:31+0000","like_count":0,"user_likes":false},"838830416133637":{"id":"838830416133637","from":{"id":"100005274031440","name":"Mattroi Trongdem"},"message":"O tinh nao vay ban","can_remove":false,"created_time":"2014-03-24T13:54:47+0000","like_count":0,"user_likes":false},"838830596133619":{"id":"838830596133619","from":{"id":"100004178466278","name":"Thu Tồ Đông Anh"},"message":"どこ？いつ？","can_remove":false,"created_time":"2014-03-24T13:55:10+0000","like_count":0,"user_likes":false},"838831522800193":{"id":"838831522800193","from":{"id":"100004714864862","name":"Gia Bao"},"message":"名古屋の地図","can_remove":false,"created_time":"2014-03-24T13:56:09+0000","like_count":0,"user_likes":false},"838832426133436":{"id":"838832426133436","from":{"id":"100004178466278","name":"Thu Tồ Đông Anh"},"message":"Ảnh hưởng tơi tokyo k ah???","can_remove":false,"created_time":"2014-03-24T13:58:15+0000","like_count":0,"user_likes":false},"838840499465962":{"id":"838840499465962","from":{"id":"100002334361243","name":"Ông Cu Non"},"message":"今回は危ないでしょうね","can_remove":false,"created_time":"2014-03-24T14:18:01+0000","like_count":1,"user_likes":false},"838840686132610":{"id":"838840686132610","from":{"id":"100002334361243","name":"Ông Cu Non"},"message":"強い地震着るかも....","can_remove":false,"created_time":"2014-03-24T14:18:30+0000","like_count":0,"user_likes":false},"838841886132490":{"id":"838841886132490","from":{"id":"100002334361243","name":"Ông Cu Non"},"message":"今回はこの前より強いそうです","can_remove":false,"created_time":"2014-03-24T14:21:10+0000","like_count":0,"user_likes":false},"838846052798740":{"id":"838846052798740","from":{"id":"100003822434250","name":"Sói Đây Gà Đâu"},"message":"どこ？","can_remove":false,"created_time":"2014-03-24T14:30:00+0000","like_count":1,"user_likes":false},"838880929461919":{"id":"838880929461919","from":{"id":"100002926514654","name":"Vu Tuan"},"message":"Sắp chết hết rồi mai về vn thui","can_remove":false,"created_time":"2014-03-24T15:37:36+0000","like_count":0,"user_likes":false},"838887492794596":{"id":"838887492794596","from":{"id":"100000221260528","name":"Đào Xuân Kiên"},"message":"Nagoya sắp động đất àh","can_remove":false,"created_time":"2014-03-24T15:48:44+0000","like_count":0,"user_likes":false},"838984659451546":{"id":"838984659451546","from":{"id":"100003145416720","name":"Dũng Chuột"},"message":"@@! Em đang ở nagoya , em chưa muốn chết T.T","can_remove":false,"created_time":"2014-03-24T19:18:48+0000","like_count":0,"user_likes":false},"839020049448007":{"id":"839020049448007","from":{"id":"100003826577214","name":"Lua Pham"},"message":"ghê vậy, tin này mà thiệt chắc chết wá; cho tui 6 man, tui mua vé máy bay đi  Giau Le","message_tags":[{"id":"100006568425779","name":"Giau Le","type":"user","offset":78,"length":7}],"can_remove":false,"created_time":"2014-03-24T20:23:04+0000","like_count":0,"user_likes":false},"839024729447539":{"id":"839024729447539","from":{"id":"100007289948655","name":"Hong Thuong"},"message":"Toan nuoc nhat roi","can_remove":false,"created_time":"2014-03-24T20:31:29+0000","like_count":0,"user_likes":false},"839031566113522":{"id":"839031566113522","from":{"id":"100003145416720","name":"Dũng Chuột"},"message":"Mấy giờ thế. Sao vẫn chưa thấy gì nhỷ :3","can_remove":false,"created_time":"2014-03-24T20:44:41+0000","like_count":0,"user_likes":false},"839057812777564":{"id":"839057812777564","from":{"id":"100000322834393","name":"Tien Hoang"},"message":"マジで","can_remove":false,"created_time":"2014-03-24T21:46:22+0000","like_count":0,"user_likes":false},"839295946087084":{"id":"839295946087084","from":{"id":"100005804586628","name":"Huyền Phạm"},"message":"愛知県ですか。","can_remove":false,"created_time":"2014-03-25T08:14:27+0000","like_count":0,"user_likes":false}},"paging":{"cursors":{"after":"ODM4ODI3OTIyODAwNTUz","before":"ODM4ODI3OTIyODAwNTUz"},"next":"https://graph.facebook.com/229244010425617_838822012801144/comments?limit=1&summary=1&after=ODM4ODI3OTIyODAwNTUz"},"summary":{"order":"chronological","total_count":17}}}