{"id":"229244010425617_839147369435275","type":"link","picture":"https://fbexternal-a.akamaihd.net/safe_image.php?d=AQC7XDnl6ER7d_5U&w=154&h=154&url=http%3A%2F%2Fa3.mzstatic.com%2Fus%2Fr30%2FPurple%2Fv4%2Fc6%2F25%2F08%2Fc6250862-b05e-1eac-a278-5a68f5693b2a%2Fmzl.cwxibefi.png","link":"https://itunes.apple.com/us/app/jlpt-kotoba-tu-vung-n5-n1/id842015560?ls=1&mt=8","from":{"id":"100000090589948","name":"Linh Hoang Trong"},"message":"Các bạn dùng thử nhé, thank nhiều!","created_time":"2014-03-25T01:32:53+0000","updated_time":"2014-03-25T16:56:27+0000","likes":{"data":{"100001714631876":{"id":"100001714631876","name":"Le Quoc Thanh"},"1808864861":{"id":"1808864861","name":"Trần Anh Khôi"},"100000500260636":{"id":"100000500260636","name":"Lưu Nguyễn Thảo Tiên"},"100001553557343":{"id":"100001553557343","name":"Lin Huỳnh"},"100006471746860":{"id":"100006471746860","name":"Hoang Chung"},"100006382505425":{"id":"100006382505425","name":"Linh Tú"},"100000264801587":{"id":"100000264801587","name":"Nguyễn Đình Toàn"},"100003835652381":{"id":"100003835652381","name":"Vi Dai Tra"},"100003275921481":{"id":"100003275921481","name":"Vũ Thanh Tùng"},"100001444337943":{"id":"100001444337943","name":"Macjanh"},"100002716525116":{"id":"100002716525116","name":"Nguyễn Tất Nguyên"},"612555030":{"id":"612555030","name":"Nguyen Thuy Linh"},"100004421678230":{"id":"100004421678230","name":"Khoa Hoàng"},"100003057566512":{"id":"100003057566512","name":"Thúy Nguyễn"},"100000110765909":{"id":"100000110765909","name":"Thảo Nguyễn"},"100004716847212":{"id":"100004716847212","name":"Khoa Lưu"},"100004827720249":{"id":"100004827720249","name":"Thuyhong Le"},"100001978792593":{"id":"100001978792593","name":"Sakai Ly"},"100004478287906":{"id":"100004478287906","name":"Lê Đức Anh"},"100000040762045":{"id":"100000040762045","name":"Bình Minh"},"100001156522232":{"id":"100001156522232","name":"Le Na Nguyen Tran"},"100004246173614":{"id":"100004246173614","name":"Gia Luật"},"100003225510061":{"id":"100003225510061","name":"Hien Le"},"100003313921267":{"id":"100003313921267","name":"Yuki No Hana"},"1786699354":{"id":"1786699354","name":"Gà Quay"},"100003080722791":{"id":"100003080722791","name":"Hương Lê"},"100001918219223":{"id":"100001918219223","name":"Thái Văn Lâm"},"100004496231407":{"id":"100004496231407","name":"Nguyễn Khắc Trung"},"100002946945433":{"id":"100002946945433","name":"Trang Ruby"},"100002503864184":{"id":"100002503864184","name":"Cậu Ba"},"100003155380603":{"id":"100003155380603","name":"Khuong Pham"},"100003103086919":{"id":"100003103086919","name":"Tâm Hiếu"},"100003464218115":{"id":"100003464218115","name":"Hạnh Cuội"}},"paging":{"cursors":{"after":"MTAwMDAxNzE0NjMxODc2","before":"MTAwMDAxNzE0NjMxODc2"},"next":"https://graph.facebook.com/229244010425617_839147369435275/likes?limit=1&summary=1&after=MTAwMDAxNzE0NjMxODc2"},"summary":{"total_count":33}},"comments":{"data":{"839149776101701":{"id":"839149776101701","from":{"id":"1349577898","name":"Dương Uyên"},"message":"Ko có Androi sao bạn? :(","can_remove":false,"created_time":"2014-03-25T01:39:34+0000","like_count":0,"user_likes":false},"839150579434954":{"id":"839150579434954","from":{"id":"100003913383051","name":"Tho Tran"},"message":"Tải nhưng không mở được anh ạ!!! @@","can_remove":false,"created_time":"2014-03-25T01:41:13+0000","like_count":0,"user_likes":false},"839154142767931":{"id":"839154142767931","from":{"id":"100000090589948","name":"Linh Hoang Trong"},"message":"Dương Uyên Trên android mình có đưa lên lâu rồi bạn à, chia thành từ vựng n1,n2, bạn có thể search trên đó. Tho Tran máy bạn là máy gì vậy ?","can_remove":false,"created_time":"2014-03-25T01:49:17+0000","like_count":0,"user_likes":false},"839154722767873":{"id":"839154722767873","from":{"id":"100003913383051","name":"Tho Tran"},"message":"iPhone anh ạ!","can_remove":false,"created_time":"2014-03-25T01:50:06+0000","like_count":0,"user_likes":false},"839154739434538":{"id":"839154739434538","from":{"id":"100007546264781","name":"Công Aki"},"message":"Mình mới học n4,chạy mãi dưới khổ thật","can_remove":false,"created_time":"2014-03-25T01:50:08+0000","like_count":0,"user_likes":false},"839155389434473":{"id":"839155389434473","from":{"id":"100000090589948","name":"Linh Hoang Trong"},"message":"Tho Tran Ý mình là 4,5,5s đó bạn :) Công Aki cái này từ n1-n5 luôn mà bạn^^","message_tags":[{"id":"100007546264781","name":"Công Aki","type":"user","offset":36,"length":8}],"can_remove":false,"created_time":"2014-03-25T01:51:25+0000","like_count":0,"user_likes":false},"839155549434457":{"id":"839155549434457","from":{"id":"100003913383051","name":"Tho Tran"},"message":"Dạ 5s ạ!!! Chạy ios 7.1","can_remove":false,"created_time":"2014-03-25T01:51:56+0000","like_count":0,"user_likes":false},"839155742767771":{"id":"839155742767771","from":{"id":"100000090589948","name":"Linh Hoang Trong"},"message":"ok, thank bạn, mình sẽ kiểm tra lại xem sao nhé!","can_remove":false,"created_time":"2014-03-25T01:52:26+0000","like_count":0,"user_likes":false},"839155829434429":{"id":"839155829434429","from":{"id":"100003913383051","name":"Tho Tran"},"message":"Vâng ạ!","can_remove":false,"created_time":"2014-03-25T01:52:41+0000","like_count":0,"user_likes":false},"839182866098392":{"id":"839182866098392","from":{"id":"100000040762045","name":"Bình Minh"},"message":"K mở được bạn nhé 5s 7.1","can_remove":false,"created_time":"2014-03-25T02:40:31+0000","like_count":0,"user_likes":false},"839216002761745":{"id":"839216002761745","from":{"id":"100002205448646","name":"Dung Tri"},"message":"iphone 5s - os 7 crash ban nhe","can_remove":false,"created_time":"2014-03-25T04:03:46+0000","like_count":0,"user_likes":false},"839216392761706":{"id":"839216392761706","from":{"id":"100000090589948","name":"Linh Hoang Trong"},"message":"thank mấy bạn, mình sẽ kiểm tra lại trên 5s","can_remove":false,"created_time":"2014-03-25T04:05:16+0000","like_count":2,"user_likes":false},"839218112761534":{"id":"839218112761534","from":{"id":"100003718429681","name":"Kawaii Tuti"},"message":"Có mất tiền k trời","can_remove":false,"created_time":"2014-03-25T04:12:14+0000","like_count":0,"user_likes":false},"839218166094862":{"id":"839218166094862","from":{"id":"100000090589948","name":"Linh Hoang Trong"},"message":"free hoàn toàn bạn nhé!","can_remove":false,"created_time":"2014-03-25T04:12:39+0000","like_count":0,"user_likes":false},"839218332761512":{"id":"839218332761512","from":{"id":"100003718429681","name":"Kawaii Tuti"},"message":"それは良かね😆","can_remove":false,"created_time":"2014-03-25T04:13:09+0000","like_count":1,"user_likes":false},"839220319427980":{"id":"839220319427980","from":{"id":"100003718429681","name":"Kawaii Tuti"},"message":"Bạn ơi cứ vào là nó out ra ngoài. @@","can_remove":false,"created_time":"2014-03-25T04:15:53+0000","like_count":1,"user_likes":false},"839220599427952":{"id":"839220599427952","from":{"id":"100000090589948","name":"Linh Hoang Trong"},"message":"Bạn xài 7.1 5s à","can_remove":false,"created_time":"2014-03-25T04:17:06+0000","like_count":0,"user_likes":false},"839220719427940":{"id":"839220719427940","from":{"id":"100003718429681","name":"Kawaii Tuti"},"message":"Mình xài 7.0.6 máy 5s","can_remove":false,"created_time":"2014-03-25T04:17:28+0000","like_count":0,"user_likes":false},"839220752761270":{"id":"839220752761270","from":{"id":"100003718429681","name":"Kawaii Tuti"},"message":"Đã jailbreak","can_remove":false,"created_time":"2014-03-25T04:17:35+0000","like_count":0,"user_likes":false},"839220906094588":{"id":"839220906094588","from":{"id":"100000090589948","name":"Linh Hoang Trong"},"message":"ok, mình sẽ kiểm tra lại","can_remove":false,"created_time":"2014-03-25T04:18:06+0000","like_count":0,"user_likes":false},"839237976092881":{"id":"839237976092881","from":{"id":"100000090589948","name":"Linh Hoang Trong"},"message":"Mình đã update lại rồi, giờ chờ apple duyệt nữa là xong. Xin lỗi vì sự bất tiện này.","can_remove":false,"created_time":"2014-03-25T05:19:12+0000","like_count":0,"user_likes":false},"839238069426205":{"id":"839238069426205","from":{"id":"100003718429681","name":"Kawaii Tuti"},"message":"Tks bạn. ^^","can_remove":false,"created_time":"2014-03-25T05:19:37+0000","like_count":0,"user_likes":false},"839240636092615":{"id":"839240636092615","from":{"id":"100001518348768","name":"Nguyễn Trọng Tước"},"message":"không có add cho windownphone hả anh ơi!","can_remove":false,"created_time":"2014-03-25T05:29:52+0000","like_count":0,"user_likes":false},"839452046071474":{"id":"839452046071474","from":{"id":"100004649284698","name":"コン マイ"},"message":"Sao tải về ko mở được vậy bạn ơi","can_remove":false,"created_time":"2014-03-25T15:13:25+0000","like_count":0,"user_likes":false},"839494746067204":{"id":"839494746067204","from":{"id":"100000090589948","name":"Linh Hoang Trong"},"message":"Mình đã nói ở trên đó bạn,5s bị lỗi. Mình đã fix rồi, đang chờ duyệt","can_remove":false,"created_time":"2014-03-25T16:56:05+0000","like_count":0,"user_likes":false},"839494899400522":{"id":"839494899400522","from":{"id":"100000090589948","name":"Linh Hoang Trong"},"message":"Nguyễn Trọng Tước mình ko làm cho wp bạn à","message_tags":[{"id":"100001518348768","name":"Nguyễn Trọng Tước","type":"user","offset":0,"length":17}],"can_remove":false,"created_time":"2014-03-25T16:56:27+0000","like_count":0,"user_likes":false}},"paging":{"cursors":{"after":"ODM5MTQ5Nzc2MTAxNzAx","before":"ODM5MTQ5Nzc2MTAxNzAx"},"next":"https://graph.facebook.com/229244010425617_839147369435275/comments?limit=1&summary=1&after=ODM5MTQ5Nzc2MTAxNzAx"},"summary":{"order":"chronological","total_count":26}}}