{"id":"229244010425617_839201456096533","type":"status","from":{"id":"100002488031743","name":"Đoàn Văn Hải"},"message":"Mọi người cho em hỏi tháng 4 này em sang chiba học.Em lên mang theo them bao nhiêu tiền là đủ ạ (ý em là vừa đủ ấy chứ không phải càng nhiều càng ít) em ở kí túc xã và chưa đóng tiền kí túc.Em cảm ơn nhiều","created_time":"2014-03-25T03:21:55+0000","updated_time":"2014-03-25T07:34:20+0000","likes":{"data":{"100006851160906":{"id":"100006851160906","name":"Chu Thị Hồng"},"100007396333897":{"id":"100007396333897","name":"Havy Nguyen"},"100006572713690":{"id":"100006572713690","name":"Đại Chim Lợn"},"1533951437":{"id":"1533951437","name":"Ken Love"},"100006067208916":{"id":"100006067208916","name":"Quỳnh Anh Cassiopeia"},"100002946945433":{"id":"100002946945433","name":"Trang Ruby"},"100005250242073":{"id":"100005250242073","name":"藤 の花"},"100002213031077":{"id":"100002213031077","name":"Ngoạ Long"},"100002716525116":{"id":"100002716525116","name":"Nguyễn Tất Nguyên"},"100008015290770":{"id":"100008015290770","name":"Mi Nhon"},"100003167566092":{"id":"100003167566092","name":"マイ スアン サン"},"100003301481599":{"id":"100003301481599","name":"Thành Công Nguyễn"},"100008066791509":{"id":"100008066791509","name":"Itsumo Matteiru Kimi"},"100001640832299":{"id":"100001640832299","name":"Hoàng Đạt"},"100004478287906":{"id":"100004478287906","name":"Lê Đức Anh"}},"paging":{"cursors":{"after":"MTAwMDA2ODUxMTYwOTA2","before":"MTAwMDA2ODUxMTYwOTA2"},"next":"https://graph.facebook.com/229244010425617_839201456096533/likes?limit=1&summary=1&after=MTAwMDA2ODUxMTYwOTA2"},"summary":{"total_count":15}},"comments":{"data":{"839203119429700":{"id":"839203119429700","from":{"id":"100003866609108","name":"Thế Béo"},"message":"Đong ký túc ui mag tầm 10-15","can_remove":false,"created_time":"2014-03-25T03:23:57+0000","like_count":1,"user_likes":false},"839203702762975":{"id":"839203702762975","from":{"id":"100004478287906","name":"Lê Đức Anh"},"message":"Cả kí túc ít thì phải mag 20 man","can_remove":false,"created_time":"2014-03-25T03:25:41+0000","like_count":1,"user_likes":false},"839205846096094":{"id":"839205846096094","from":{"id":"100008066791509","name":"Itsumo Matteiru Kimi"},"message":"Bạn đăng kí học trường nào thế Đoàn Văn Hải","message_tags":[{"id":"100002488031743","name":"Đoàn Văn Hải","type":"user","offset":31,"length":12}],"can_remove":false,"created_time":"2014-03-25T03:31:18+0000","like_count":0,"user_likes":false},"839206419429370":{"id":"839206419429370","from":{"id":"100003692091609","name":"Dương Saker"},"message":"e đang dự định đi du học nhật mà k biết lên đi vùng tokyo hay vùng nagoya nữa..ace nào biết tư vấn giúp e vs","can_remove":false,"created_time":"2014-03-25T03:33:14+0000","like_count":0,"user_likes":false},"839207646095914":{"id":"839207646095914","from":{"id":"100002488031743","name":"Đoàn Văn Hải"},"message":"matsuyama bạn à","can_remove":false,"created_time":"2014-03-25T03:37:15+0000","like_count":0,"user_likes":false},"839207942762551":{"id":"839207942762551","from":{"id":"100003094158721","name":"Hikari Truong"},"message":"Sang này mang bao nhiêu chả hết.... Há há... Ko thế nói là bao nhiêu thì đủ được...","can_remove":false,"created_time":"2014-03-25T03:38:33+0000","like_count":0,"user_likes":false},"839208229429189":{"id":"839208229429189","from":{"id":"100008066791509","name":"Itsumo Matteiru Kimi"},"message":"t đăng kí học ở narita, nhưng tháng 10 mới đi. bạn có ng quen ở bên đó k?","can_remove":false,"created_time":"2014-03-25T03:39:20+0000","like_count":0,"user_likes":false},"839208629429149":{"id":"839208629429149","from":{"id":"100002488031743","name":"Đoàn Văn Hải"},"message":"Ở trên em có hỏi là mang bao nhiêu để đóng đủ các khoản mà có phải ghi là cang nhiều càng ít nhà nông không có tiền sang đó phải tiết kiệm thôi","can_remove":false,"created_time":"2014-03-25T03:40:31+0000","like_count":0,"user_likes":false},"839208652762480":{"id":"839208652762480","from":{"id":"100003692091609","name":"Dương Saker"},"message":"b cũng đi tokoyo ak Anh Tuấn Đoàn","message_tags":[{"id":"100008066791509","name":"Anh Tuấn Đoàn","type":"user","offset":20,"length":13}],"can_remove":false,"created_time":"2014-03-25T03:40:38+0000","like_count":0,"user_likes":false},"839208772762468":{"id":"839208772762468","from":{"id":"100002488031743","name":"Đoàn Văn Hải"},"message":"tớ không có người quen nên ở kí túc xã","can_remove":false,"created_time":"2014-03-25T03:40:56+0000","like_count":0,"user_likes":false},"839208912762454":{"id":"839208912762454","from":{"id":"100008066791509","name":"Itsumo Matteiru Kimi"},"message":"k t đi chiba Dương Saker ak, bạn định đi vùng nào","message_tags":[{"id":"100003692091609","name":"Dương Saker","type":"user","offset":13,"length":11}],"can_remove":false,"created_time":"2014-03-25T03:41:24+0000","like_count":0,"user_likes":false},"839209009429111":{"id":"839209009429111","from":{"id":"100003692091609","name":"Dương Saker"},"message":"mk đạng phân vân lên đi vùng nào","can_remove":false,"created_time":"2014-03-25T03:41:45+0000","like_count":0,"user_likes":false},"839209029429109":{"id":"839209029429109","from":{"id":"100003692091609","name":"Dương Saker"},"message":"tháng 10 mk cũng đi","can_remove":false,"created_time":"2014-03-25T03:41:49+0000","like_count":1,"user_likes":false},"839209312762414":{"id":"839209312762414","from":{"id":"100008066791509","name":"Itsumo Matteiru Kimi"},"message":"Thế trước bạn học trên hà nội ak Đoàn Văn Hải có bạn nào quen đi cùng trường hay cùng chỗ k thế ? đi 1 mình thỉ lẻ loi lắm nhỉ","message_tags":[{"id":"100002488031743","name":"Đoàn Văn Hải","type":"user","offset":33,"length":12}],"can_remove":false,"created_time":"2014-03-25T03:42:30+0000","like_count":0,"user_likes":false},"839209519429060":{"id":"839209519429060","from":{"id":"100008066791509","name":"Itsumo Matteiru Kimi"},"message":"thế bạn ở đâu đi học tiếng chưa? bạn t đi tháng 4 sang chiba, nên t cũng đi chiba lun. Bạn ở đâu thế Dương Saker","message_tags":[{"id":"100003692091609","name":"Dương Saker","type":"user","offset":101,"length":11}],"can_remove":false,"created_time":"2014-03-25T03:43:20+0000","like_count":0,"user_likes":false},"839209722762373":{"id":"839209722762373","from":{"id":"100003692091609","name":"Dương Saker"},"message":"mk ở hải dương","can_remove":false,"created_time":"2014-03-25T03:43:48+0000","like_count":0,"user_likes":false},"839209756095703":{"id":"839209756095703","from":{"id":"100003692091609","name":"Dương Saker"},"message":"đầu tháng 4 mk ms bắt đầu đi hc","can_remove":false,"created_time":"2014-03-25T03:43:58+0000","like_count":0,"user_likes":false},"839209832762362":{"id":"839209832762362","from":{"id":"100004288476042","name":"Nguyễn Quyền"},"message":"KhoẢng 25 man .","can_remove":false,"created_time":"2014-03-25T03:44:16+0000","like_count":0,"user_likes":false},"839210422762303":{"id":"839210422762303","from":{"id":"100003692091609","name":"Dương Saker"},"message":"mk ở Cẩm giàng","can_remove":false,"created_time":"2014-03-25T03:46:28+0000","like_count":0,"user_likes":false},"839211592762186":{"id":"839211592762186","from":{"id":"100003181743412","name":"Pham Kha"},"message":"Mang 50man","can_remove":false,"created_time":"2014-03-25T03:51:03+0000","like_count":0,"user_likes":false},"839214386095240":{"id":"839214386095240","from":{"id":"100004246173614","name":"Gia Luật"},"message":"Đi tinh nào???đi tokyo thi mang nhiu vào ti khoang 15 lá","can_remove":false,"created_time":"2014-03-25T03:58:16+0000","like_count":0,"user_likes":false},"839214666095212":{"id":"839214666095212","from":{"id":"100003640960503","name":"Li Na"},"message":"20man","can_remove":false,"created_time":"2014-03-25T03:59:20+0000","like_count":0,"user_likes":false},"839214856095193":{"id":"839214856095193","from":{"id":"100003640960503","name":"Li Na"},"message":"20man","can_remove":false,"created_time":"2014-03-25T03:59:50+0000","like_count":0,"user_likes":false},"839216416095037":{"id":"839216416095037","from":{"id":"100008066791509","name":"Itsumo Matteiru Kimi"},"message":"bạn học đc mấy năm rùi Li Na","message_tags":[{"id":"100003640960503","name":"Li Na","type":"user","offset":23,"length":5}],"can_remove":false,"created_time":"2014-03-25T04:05:22+0000","like_count":0,"user_likes":false},"839216442761701":{"id":"839216442761701","from":{"id":"100002488031743","name":"Đoàn Văn Hải"},"message":"20 man la tính đóng cả tiền kí túc đó à bạn","can_remove":false,"created_time":"2014-03-25T04:05:30+0000","like_count":0,"user_likes":false},"839216899428322":{"id":"839216899428322","from":{"id":"100004246173614","name":"Gia Luật"},"message":"Có ai ở osaka ko nhỉ","can_remove":false,"created_time":"2014-03-25T04:07:31+0000","like_count":1,"user_likes":false},"839218099428202":{"id":"839218099428202","from":{"id":"100003913383051","name":"Tho Tran"},"message":"Kí túc của  trường bạn đã có bảng giá chưa? Nếu có rồi thì úp theo bảng giá đó nhân lên với 3 tháng, còn ngoài ra thì mang theo khoảng 15 man để chi tiêu trong khoang thời gian 3 tháng đầu khi chưa có việc nhưng phải thật sự tiết kiệm nhé! Vì tính bình quân các bạn sẽ tiêu tối thiểu là 8 man/ tháng trong đó có cả chi phí nhà ở, sinh hoạt phí...( hãy thật sự tiết kiệm nhé).\nChúc may mắn!","can_remove":false,"created_time":"2014-03-25T04:12:11+0000","like_count":5,"user_likes":false},"839220199427992":{"id":"839220199427992","from":{"id":"100002488031743","name":"Đoàn Văn Hải"},"message":"ở đó học ghi là 25000 yên/1 tháng mình đóng 3 tháng hay 6 tháng liền nhỉ.Thấy bảo phải ở 6 tháng trong kí túc nếu đang kí ở kí túc","can_remove":false,"created_time":"2014-03-25T04:15:28+0000","like_count":0,"user_likes":false},"839221099427902":{"id":"839221099427902","from":{"id":"100003913383051","name":"Tho Tran"},"message":"Thường thì sẽ là 3 tháng bạn ạ! Cũng từ theo quy định của trường bạn nữa, bạn lấy số tiền hàng tháng đó nhân với số tháng bạn ở kí túc, vd:2,5man *3 tháng rồi cộng thêm 15 man phòng thân","can_remove":false,"created_time":"2014-03-25T04:18:59+0000","like_count":0,"user_likes":false},"839221582761187":{"id":"839221582761187","from":{"id":"100008066791509","name":"Itsumo Matteiru Kimi"},"message":"bạn ơi thuê nhà bên đó có khó lắm k? Tho Tran","can_remove":false,"created_time":"2014-03-25T04:21:05+0000","like_count":0,"user_likes":false},"839222616094417":{"id":"839222616094417","from":{"id":"100003913383051","name":"Tho Tran"},"message":"Nói khó thì cũng không hẳn nhưng ở bên đây khi mới qua bạn chưa làm quen được với cuộc sống bên đây nén việc kiếm nhà sẽ gặp nhiều khó khăn, theo mình nghĩ bạn nên ở kí túc thời gian đầu để làm quen với cuộc sống và ổn  định cuộc sống trước đã!","can_remove":false,"created_time":"2014-03-25T04:22:55+0000","like_count":0,"user_likes":false},"839222846094394":{"id":"839222846094394","from":{"id":"100001156666759","name":"Kenshuu Steam"},"message":"mang theo càng nhiều càng tốt, càng có tiền để ăn chơi","can_remove":false,"created_time":"2014-03-25T04:23:46+0000","like_count":0,"user_likes":false},"839223112761034":{"id":"839223112761034","from":{"id":"100008066791509","name":"Itsumo Matteiru Kimi"},"message":"ý mình hỏi là sau mấy tháng ở kí túc ấy, mình muốn chuyển ra ngoài thì thế nào? mình nge nói là pải có ng bảo lãnh mới đc thuê nhà ak? Tho Tran","can_remove":false,"created_time":"2014-03-25T04:25:11+0000","like_count":0,"user_likes":false},"839223446094334":{"id":"839223446094334","from":{"id":"100003913383051","name":"Tho Tran"},"message":"Hi cũng không đến mức thế đâu bạn khi tìm đến công ty nhà đất thì họ sẽ làm hết thủ tục cho các bạn, nên cứ qua để ổn định cuộc sông đi đã nhé!! Cố lên!","can_remove":false,"created_time":"2014-03-25T04:27:01+0000","like_count":2,"user_likes":false},"839223966094282":{"id":"839223966094282","from":{"id":"100008066791509","name":"Itsumo Matteiru Kimi"},"message":"cám ơn bạn nha, thế bạn sang đó lâu chưa? học tiếng bên đó có khó k ?","can_remove":false,"created_time":"2014-03-25T04:28:59+0000","like_count":0,"user_likes":false},"839224242760921":{"id":"839224242760921","from":{"id":"100003913383051","name":"Tho Tran"},"message":"Mới qua, thôi với mình học cái gì cũng thấy khó hết, nhưng mình nghĩ các bạn sẽ làm được cố lên!","can_remove":false,"created_time":"2014-03-25T04:30:03+0000","like_count":0,"user_likes":false},"839224646094214":{"id":"839224646094214","from":{"id":"100008066791509","name":"Itsumo Matteiru Kimi"},"message":"cám ơn bạn nhiều nha :))","can_remove":false,"created_time":"2014-03-25T04:31:47+0000","like_count":0,"user_likes":false},"839230886093590":{"id":"839230886093590","from":{"id":"100001764083787","name":"Chinh Coi"},"message":"1man la bn tiền việt vậy ?","can_remove":false,"created_time":"2014-03-25T04:50:11+0000","like_count":1,"user_likes":false},"839231742760171":{"id":"839231742760171","from":{"id":"100004415461463","name":"Lê Trường An"},"message":"Là 2tr tiền việt","can_remove":false,"created_time":"2014-03-25T04:53:55+0000","like_count":1,"user_likes":false},"839231882760157":{"id":"839231882760157","from":{"id":"100004415461463","name":"Lê Trường An"},"message":"Theo mình nghĩ bạn chưa đóng tiền ký túc thì mang tầm 20man đủ sống 2thang","can_remove":false,"created_time":"2014-03-25T04:54:31+0000","like_count":0,"user_likes":false},"839233076093371":{"id":"839233076093371","from":{"id":"100004246173614","name":"Gia Luật"},"message":"Tháng 4 là tháng khó xin việc nhất. Đem nhìu tiền tí!!!!\nAi đi tokyo thì đem nhìu hơn!!!\nQua đây vất vả ko như là mơ đâu chuẩn bị tâm lí tí hihi!!!","can_remove":false,"created_time":"2014-03-25T04:58:45+0000","like_count":3,"user_likes":false},"839233379426674":{"id":"839233379426674","from":{"id":"100004415461463","name":"Lê Trường An"},"message":"Thì đất 20man mới đc 2 tháng thoii","can_remove":false,"created_time":"2014-03-25T05:00:11+0000","like_count":0,"user_likes":false},"839237236092955":{"id":"839237236092955","from":{"id":"100004509663620","name":"Minh Trường"},"message":"Chỉ cầm khoảng 10 man rồi xoay sở dần , còn không dùng hết lại gửi về nếu bạn sống tiết kiệm , còn lại vô cùng lắm. Có bạn sang chỉ cầm có 200 đên 300 usd ma. Chuc ban gap nhieu may man. Sống ở nhật chỉ cần có may mắn là có tất cả.","can_remove":false,"created_time":"2014-03-25T05:16:23+0000","like_count":1,"user_likes":false},"839238279426184":{"id":"839238279426184","from":{"id":"100004415461463","name":"Lê Trường An"},"message":"10man mà đi xin việc nữa hơi vất đấy","can_remove":false,"created_time":"2014-03-25T05:20:28+0000","like_count":0,"user_likes":false},"839238299426182":{"id":"839238299426182","from":{"id":"100004415461463","name":"Lê Trường An"},"message":"Lại chưa đóng tiền nhà mà","can_remove":false,"created_time":"2014-03-25T05:20:36+0000","like_count":0,"user_likes":false},"839241419425870":{"id":"839241419425870","from":{"id":"100003168259986","name":"Đức Trọng"},"message":"1man = bao nhiêu tiền việt vậy ạ :p (cho e hỏi ngu tị )","can_remove":false,"created_time":"2014-03-25T05:33:23+0000","like_count":0,"user_likes":false},"839245436092135":{"id":"839245436092135","from":{"id":"100004509663620","name":"Minh Trường"},"message":"Chưa đóng tiền nhà trước cũng taihen lắm.","can_remove":false,"created_time":"2014-03-25T05:47:28+0000","like_count":0,"user_likes":false},"839248846091794":{"id":"839248846091794","from":{"id":"100004415461463","name":"Lê Trường An"},"message":"Bên trên có câu tl rồi mà bạn","can_remove":false,"created_time":"2014-03-25T06:01:46+0000","like_count":0,"user_likes":false},"839252232758122":{"id":"839252232758122","from":{"id":"100003146740430","name":"Chan Doi"},"message":"15 man là chuẩn lun","can_remove":false,"created_time":"2014-03-25T06:16:40+0000","like_count":0,"user_likes":false},"839281842755161":{"id":"839281842755161","from":{"id":"100004415461463","name":"Lê Trường An"},"message":"Thoi mang 30man cho chắc ăn bạn ak k sợ chết đói đâu","can_remove":false,"created_time":"2014-03-25T07:23:48+0000","like_count":2,"user_likes":false},"839286736088005":{"id":"839286736088005","from":{"id":"100004509663620","name":"Minh Trường"},"message":"Càng khó khăn thì ý trí và lòng quyết tâm càng cao. Khi chúng ta đói thì chúng ta sẽ biết cách để sống. Bạn cầm bao nhiêu vẫn k bao giờ là đủ, bạn lên cân đối kinh tế nhà mình thế nào rồi tính toán. Không biết bạn định sang hoc o trường nào? Ở vùng nào?","can_remove":false,"created_time":"2014-03-25T07:34:20+0000","like_count":2,"user_likes":false}},"paging":{"cursors":{"after":"ODM5MjAzMTE5NDI5NzAw","before":"ODM5MjAzMTE5NDI5NzAw"},"next":"https://graph.facebook.com/229244010425617_839201456096533/comments?limit=1&summary=1&after=ODM5MjAzMTE5NDI5NzAw"},"summary":{"order":"chronological","total_count":53}}}