{"id":"229244010425617_839392012744144","type":"status","from":{"id":"100003776524244","name":"Jin Sylph"},"message":"Cho em hỏi mình có phải mang theo sách vở đi k ạ..\nEm mồng 7/4 này sang...","created_time":"2014-03-25T13:03:10+0000","updated_time":"2014-03-26T14:25:43+0000","likes":{"data":{"100004128252349":{"id":"100004128252349","name":"Vô Ưu"},"100004375659775":{"id":"100004375659775","name":"Siêu Nhân Xanh"},"100003921797806":{"id":"100003921797806","name":"Hà Chi"},"100007719188081":{"id":"100007719188081","name":"Ping GO"},"100007404786273":{"id":"100007404786273","name":"Nguyen Thi Hai Yen"}},"paging":{"cursors":{"after":"MTAwMDA0MTI4MjUyMzQ5","before":"MTAwMDA0MTI4MjUyMzQ5"},"next":"https://graph.facebook.com/229244010425617_839392012744144/likes?limit=1&summary=1&after=MTAwMDA0MTI4MjUyMzQ5"},"summary":{"total_count":5}},"comments":{"data":{"839392492744096":{"id":"839392492744096","from":{"id":"100003766970257","name":"Tư Lozen"},"message":"Vùng nào cậu","can_remove":false,"created_time":"2014-03-25T13:04:27+0000","like_count":1,"user_likes":false},"839392796077399":{"id":"839392796077399","from":{"id":"100005760913642","name":"Muon Mang"},"message":"Mag dj 1quyen thujwp ak","can_remove":false,"created_time":"2014-03-25T13:05:50+0000","like_count":1,"user_likes":false},"839393406077338":{"id":"839393406077338","from":{"id":"100003776524244","name":"Jin Sylph"},"message":"Gunma b àh","can_remove":false,"created_time":"2014-03-25T13:07:57+0000","like_count":0,"user_likes":false},"839393656077313":{"id":"839393656077313","from":{"id":"100003776524244","name":"Jin Sylph"},"message":"dạ,em cảm ơn","can_remove":false,"created_time":"2014-03-25T13:08:08+0000","like_count":0,"user_likes":false},"839394179410594":{"id":"839394179410594","from":{"id":"100005760913642","name":"Muon Mang"},"message":"Uk.sag do co truog no phat vo ma","can_remove":false,"created_time":"2014-03-25T13:08:59+0000","like_count":0,"user_likes":false},"839394402743905":{"id":"839394402743905","from":{"id":"100003776524244","name":"Jin Sylph"},"message":"dạ...vậy ạ,em k biết","can_remove":false,"created_time":"2014-03-25T13:09:41+0000","like_count":0,"user_likes":false},"839394842743861":{"id":"839394842743861","from":{"id":"100005760913642","name":"Muon Mang"},"message":"Uk","can_remove":false,"created_time":"2014-03-25T13:11:23+0000","like_count":0,"user_likes":false},"839394892743856":{"id":"839394892743856","from":{"id":"100005760913642","name":"Muon Mang"},"message":"P dj truog nao ma o vug nao vay","can_remove":false,"created_time":"2014-03-25T13:11:39+0000","like_count":2,"user_likes":false},"839395172743828":{"id":"839395172743828","from":{"id":"100006520210904","name":"Miu Miu"},"message":"Bạn nên mang theo vì sang đó mới đầu sẽ chưa quen nên hãy mang đi. Bên đó sách chỉ có tiếng nhật và giải thích tiếng anh thôi!","can_remove":false,"created_time":"2014-03-25T13:12:33+0000","like_count":1,"user_likes":false},"839396359410376":{"id":"839396359410376","from":{"id":"100003878132073","name":"Luan Tran Van"},"message":"Mua vài quyển vở mỏng, bút chì, tẩy, bút bi, ảnh.","can_remove":false,"created_time":"2014-03-25T13:16:13+0000","like_count":1,"user_likes":false},"839396566077022":{"id":"839396566077022","from":{"id":"100003776524244","name":"Jin Sylph"},"message":"em đi trường Nippon Academy Language School ạ","can_remove":false,"created_time":"2014-03-25T13:17:06+0000","like_count":0,"user_likes":false},"839396732743672":{"id":"839396732743672","from":{"id":"100003776524244","name":"Jin Sylph"},"message":"cảm  ơn mn nhiều :)","can_remove":false,"created_time":"2014-03-25T13:17:31+0000","like_count":0,"user_likes":false},"839398292743516":{"id":"839398292743516","from":{"id":"100004974936916","name":"Quynh Shyn"},"message":"a học đại học à","can_remove":false,"created_time":"2014-03-25T13:21:07+0000","like_count":1,"user_likes":false},"839399216076757":{"id":"839399216076757","from":{"id":"100003776524244","name":"Jin Sylph"},"message":"k em àh...học trường tiếng mà :))","can_remove":false,"created_time":"2014-03-25T13:23:52+0000","like_count":0,"user_likes":false},"839407629409249":{"id":"839407629409249","from":{"id":"100003881484005","name":"Tym Cong"},"message":"Mang sách ngữ pháp sang mà học.. Tuỳ từng truong phát sách cho","can_remove":false,"created_time":"2014-03-25T13:45:14+0000","like_count":0,"user_likes":false},"839408726075806":{"id":"839408726075806","from":{"id":"100003301481599","name":"Thành Công Nguyễn"},"message":"Nghèo Vô Đối đi trường tùng này","message_tags":[{"id":"100003902285255","name":"Nghèo Vô Đối","type":"user","offset":0,"length":12}],"can_remove":false,"created_time":"2014-03-25T13:48:00+0000","like_count":0,"user_likes":false},"839988389351173":{"id":"839988389351173","from":{"id":"100004106982617","name":"Cậu Bé Hư"},"message":"bạn đi trường nào đấy","can_remove":false,"created_time":"2014-03-26T13:36:42+0000","like_count":1,"user_likes":false},"839991686017510":{"id":"839991686017510","from":{"id":"100003776524244","name":"Jin Sylph"},"message":"Nippon academy language school b àh","can_remove":false,"created_time":"2014-03-26T13:43:58+0000","like_count":0,"user_likes":false},"839993872683958":{"id":"839993872683958","from":{"id":"100004106982617","name":"Cậu Bé Hư"},"message":"mình đi JLA cũng bay mồng 7 chuyến 12h30","can_remove":false,"created_time":"2014-03-26T13:49:07+0000","like_count":0,"user_likes":false},"839993886017290":{"id":"839993886017290","from":{"id":"100004106982617","name":"Cậu Bé Hư"},"message":":D","can_remove":false,"created_time":"2014-03-26T13:49:08+0000","like_count":1,"user_likes":false},"839996666017012":{"id":"839996666017012","from":{"id":"100003776524244","name":"Jin Sylph"},"message":"giốg y đúc mình :D","can_remove":false,"created_time":"2014-03-26T13:55:46+0000","like_count":0,"user_likes":false},"839996766017002":{"id":"839996766017002","from":{"id":"100003776524244","name":"Jin Sylph"},"message":"chỉ là mình k đi tokyo thôi","can_remove":false,"created_time":"2014-03-26T13:56:01+0000","like_count":0,"user_likes":false},"839996969350315":{"id":"839996969350315","from":{"id":"100004106982617","name":"Cậu Bé Hư"},"message":"hjhj thế cùng chuyến bay rồi hihi","can_remove":false,"created_time":"2014-03-26T13:56:33+0000","like_count":0,"user_likes":false},"839998566016822":{"id":"839998566016822","from":{"id":"100003776524244","name":"Jin Sylph"},"message":":D biết đâu gặp nhau","can_remove":false,"created_time":"2014-03-26T13:59:21+0000","like_count":0,"user_likes":false},"840001419349870":{"id":"840001419349870","from":{"id":"100004106982617","name":"Cậu Bé Hư"},"message":"kiểu zì chả gặp chứ chắc hday có 1 chuyến đấy thôi mà","can_remove":false,"created_time":"2014-03-26T14:05:13+0000","like_count":0,"user_likes":false},"840003802682965":{"id":"840003802682965","from":{"id":"100003776524244","name":"Jin Sylph"},"message":":)))","can_remove":false,"created_time":"2014-03-26T14:10:47+0000","like_count":0,"user_likes":false},"840007606015918":{"id":"840007606015918","from":{"id":"100003398911005","name":"Họ Tạ Tên Nam"},"message":"sang mang 1 2 quyển vở thôi . cố gắng học hành đừng nghe lời bạn xấu đá đồ đá tàu làm bố mẹ buồn nhé !","can_remove":false,"created_time":"2014-03-26T14:21:22+0000","like_count":1,"user_likes":false},"840009382682407":{"id":"840009382682407","from":{"id":"100003776524244","name":"Jin Sylph"},"message":"cảm ơn bạn :))) mình tin mình là ng tốt","can_remove":false,"created_time":"2014-03-26T14:25:43+0000","like_count":0,"user_likes":false}},"paging":{"cursors":{"after":"ODM5MzkyNDkyNzQ0MDk2","before":"ODM5MzkyNDkyNzQ0MDk2"},"next":"https://graph.facebook.com/229244010425617_839392012744144/comments?limit=1&summary=1&after=ODM5MzkyNDkyNzQ0MDk2"},"summary":{"order":"chronological","total_count":28}}}