{"id":"229244010425617_839326849417327","type":"photo","object_id":"10201582125372094","picture":"https://fbcdn-photos-e-a.akamaihd.net/hphotos-ak-prn2/t1.0-0/1975151_10201582125372094_97004565_s.jpg","link":"https://www.facebook.com/photo.php?fbid=10201582125372094&set=gm.839326849417327&type=1&relevant_count=1","from":{"id":"1146680551","name":"優しい なぁ"},"message":"Trong Group có khá nhiều anh/chị/ bạn đã tốt nghiệp cao học/ đại học/ senmon / trường Tiếng Nhật rồi.\n\nVậy có lời nào nhắn nhủ với các đàn em đi sau hem? Hãy cho các bậc đàn em vài lời nhắn nhủ làm động lực đi nào ! :3","created_time":"2014-03-25T09:38:30+0000","updated_time":"2014-03-26T08:45:49+0000","likes":{"data":{"100002793054191":{"id":"100002793054191","name":"Lai Vuong"},"100003849617303":{"id":"100003849617303","name":"Sinh Nguyen"},"100006734168968":{"id":"100006734168968","name":"Tiểu Nhân Mã"},"100002847948300":{"id":"100002847948300","name":"Thuy Dung Vi"},"100006329919271":{"id":"100006329919271","name":"Cường Đào Mạnh"},"100004510502059":{"id":"100004510502059","name":"Arika Phạm"},"100006781330290":{"id":"100006781330290","name":"Kiên Remode"},"100003977703228":{"id":"100003977703228","name":"Ki Yu"},"100007055018351":{"id":"100007055018351","name":"Tom Bui"},"100002126161922":{"id":"100002126161922","name":"Thanh Tran"},"100003895200314":{"id":"100003895200314","name":"Luyến Liver"},"100006513963367":{"id":"100006513963367","name":"Chinhchinh Lêlê"},"1809939388":{"id":"1809939388","name":"Nguyễn Thạc Huy"},"100001754136107":{"id":"100001754136107","name":"Nguyễn Tuấn Vũ"},"100003848387195":{"id":"100003848387195","name":"Uyen NgduchoangTu"},"100005271433446":{"id":"100005271433446","name":"Nguyentan Thang"},"100003780948776":{"id":"100003780948776","name":"Sâu Đặng"},"100001659230540":{"id":"100001659230540","name":"Lemon Tea"},"100003069246142":{"id":"100003069246142","name":"Hồng Trịnh"},"100001526631937":{"id":"100001526631937","name":"Tường Oanh Mineko"},"100005022937251":{"id":"100005022937251","name":"Hue Nguyen"},"100001464403812":{"id":"100001464403812","name":"Son Nguyen Ngoc"},"100004128252349":{"id":"100004128252349","name":"Vô Ưu"},"100007957862520":{"id":"100007957862520","name":"Sự Quý"},"100000500260636":{"id":"100000500260636","name":"Lưu Nguyễn Thảo Tiên"},"100000040762045":{"id":"100000040762045","name":"Bình Minh"},"100003082527467":{"id":"100003082527467","name":"Chu Văn Khương"},"100008000495549":{"id":"100008000495549","name":"Diệp Trúc Đình"},"100002421205294":{"id":"100002421205294","name":"Nghèo Kệ Tôi"},"100004945864137":{"id":"100004945864137","name":"Luu Huong"},"100003049639881":{"id":"100003049639881","name":"Truong Luvuxy"},"100004059545196":{"id":"100004059545196","name":"Hải Yên"},"100002439163527":{"id":"100002439163527","name":"Ngoc Doi"},"100001681112049":{"id":"100001681112049","name":"Lãng Tử Cô Độc"},"100005631643313":{"id":"100005631643313","name":"Tiểu Hoa"},"100005903373573":{"id":"100005903373573","name":"HaLinh Phong Phan"},"100003607925265":{"id":"100003607925265","name":"Thu Hằng"},"100001432462223":{"id":"100001432462223","name":"Truong Nguyen"},"100005211189763":{"id":"100005211189763","name":"Oliveu Cchann"},"100006718418391":{"id":"100006718418391","name":"Hà Quân"},"100007930417031":{"id":"100007930417031","name":"Trang Yamato"},"100002716525116":{"id":"100002716525116","name":"Nguyễn Tất Nguyên"},"1416265619":{"id":"1416265619","name":"Starwar Bbj"},"100003913383051":{"id":"100003913383051","name":"Tho Tran"},"100006259453558":{"id":"100006259453558","name":"Lê Bình"},"100002615664668":{"id":"100002615664668","name":"PuPu Phương Elf"},"1816269439":{"id":"1816269439","name":"Dao Ngoc"},"100004010850159":{"id":"100004010850159","name":"Tạ Văn Quân"},"100002568133487":{"id":"100002568133487","name":"Ty Ti"},"100004224242248":{"id":"100004224242248","name":"Cuộc Sống Thầm Lặng"},"100004965272241":{"id":"100004965272241","name":"Cỏ Nhỏ"}},"paging":{"cursors":{"after":"MTAwMDAyNzkzMDU0MTkx","before":"MTAwMDAyNzkzMDU0MTkx"},"next":"https://graph.facebook.com/229244010425617_839326849417327/likes?limit=1&summary=1&after=MTAwMDAyNzkzMDU0MTkx"},"summary":{"total_count":51}},"comments":{"data":{"839327069417305":{"id":"839327069417305","from":{"id":"100000299798248","name":"Vẹt Đêm"},"message":"Anh 優しい なぁ làm phát đầu tiên nhắn nhủ đi nào ^^","message_tags":[{"id":"1146680551","name":"優しい なぁ","type":"user","offset":4,"length":6}],"can_remove":false,"created_time":"2014-03-25T09:39:32+0000","like_count":3,"user_likes":false},"839327432750602":{"id":"839327432750602","from":{"id":"1146680551","name":"優しい なぁ"},"message":"A mới vào lớp 1 mừ em :)","can_remove":false,"created_time":"2014-03-25T09:41:01+0000","like_count":1,"user_likes":false},"839327802750565":{"id":"839327802750565","from":{"id":"100006520210904","name":"Miu Miu"},"message":"Mới vào lớp 1 thì nhắn cho các e \"mẫu giáo nhớn\" chuẩn bị vào lớp 1 cũng ok mà","can_remove":false,"created_time":"2014-03-25T09:42:58+0000","like_count":4,"user_likes":false},"839329996083679":{"id":"839329996083679","from":{"id":"100006087877560","name":"Bố Bé Pon"},"message":"\"Không đá đồ, trộm cắp, mang tiếng xấu cho Việt Nam\"","can_remove":false,"created_time":"2014-03-25T09:51:26+0000","like_count":19,"user_likes":false},"839330522750293":{"id":"839330522750293","from":{"id":"620066722","name":"Dong Khac Thai"},"message":"Mọi người cố gắng giao lưu với người Nhật nhiều để nghe tốt hơn và phát âm đúng. Tranh thủ kết bạn với nhiều fb của ng Nhật vì có thể học tiếng Nhật qua fb của họ, thường là những chủ đề thời sự hay gần gũi trong cuộc sống.","can_remove":false,"created_time":"2014-03-25T09:53:38+0000","like_count":8,"user_likes":false},"839332219416790":{"id":"839332219416790","from":{"id":"620066722","name":"Dong Khac Thai"},"message":"Nếu được ad viết thêm tiếng Nhật, có thể những ng Nhật trong group có cách nhìn khác và có lời khuyên hay.","can_remove":false,"created_time":"2014-03-25T10:01:10+0000","like_count":6,"user_likes":false},"839335686083110":{"id":"839335686083110","from":{"id":"100004781103522","name":"Phú Ông"},"message":"Hãy tiếp tục làm những điều mà trái tim bạn tin rằng nó đúng với bạn. Hãy để giấc mơ của bạn lớn mạnh hơn nỗi sợ hãi và hãy để hành động của bạn nói thay những lời sáo rỗng. Đừng để bản thân sống bằng sự may rủi, hãy sống bằng những lựa chọn của chính bạn. Hãy thay đổi, đừng đổ lỗi. Hãy làm tốt hơn bản thân mình mỗi ngày, đừng bận tâm ganh đua với kẻ khác. Hãy lắng nghe nội tâm của mình, không phải ý kiến của những người xung quanh.\nĐây là cuộc đời của bạn, và chỉ duy nhất của bạn. Người khác có thể cùng đi với bạn, nhưng không ai có thể đi giùm nó cho bạn.","can_remove":false,"created_time":"2014-03-25T10:11:08+0000","like_count":24,"user_likes":false},"839336419416370":{"id":"839336419416370","from":{"id":"100000278474335","name":"Aki Trinh"},"message":"Bố bé pon : đúng ! Ko đá đồ ! Ko nhảy tầu ! Ko làm xấu hình ảnh của VN là trách nhiệm số 1 ! Còn về học hành thì bạn Đong Khac Thai nói rồi : chịu khó giao lưu học hỏi ! Các bạn Châu Âu về khoản này tốt hơn mình ! Họ ko ngại giao tiếp ! Cố len nhé !","can_remove":false,"created_time":"2014-03-25T10:13:46+0000","like_count":6,"user_likes":false},"839339272749418":{"id":"839339272749418","from":{"id":"100004345809744","name":"Đỗ Tuấn"},"message":"(Y)","can_remove":false,"created_time":"2014-03-25T10:20:30+0000","like_count":0,"user_likes":false},"839339992749346":{"id":"839339992749346","from":{"id":"100006087877560","name":"Bố Bé Pon"},"message":"Việt Nam mình k có khái niệm nhảy tàu đâu a Aki Trinh:)) mình ngại vì tiếng kém lên gặp ng là ngại nói chuyện,","can_remove":false,"created_time":"2014-03-25T10:23:38+0000","like_count":2,"user_likes":false},"839341049415907":{"id":"839341049415907","from":{"id":"100000278474335","name":"Aki Trinh"},"message":"Bố Bé Pon : ko nhảy tàu ? Lạy hồn ! Vấn đề đang nóng dần đấy nhé !","can_remove":false,"created_time":"2014-03-25T10:29:18+0000","like_count":0,"user_likes":false},"839342052749140":{"id":"839342052749140","from":{"id":"100006087877560","name":"Bố Bé Pon"},"message":"E chưa nghe tin Việt Nam mình nhảy tàu:)","can_remove":false,"created_time":"2014-03-25T10:33:13+0000","like_count":1,"user_likes":false},"839344676082211":{"id":"839344676082211","from":{"id":"569263718","name":"Phuong Thao Tran"},"message":"Việt Nam mình không đăng tin nhảy tàu thôi, chứ mình nghe mấy tiền bối hay kể chuyện là từ khi có tàu hỏa là có nhảy tàu rồi bạn, người nhảy tàu ở VN cũng có nhiều loại, có người đi buôn bán, mưu sinh trên tàu, có người là công nhân, sinh viên nhảy tàu về quê... Mình đã chứng kiến cảnh các bạn buôn nhảy tàu, y như cascader đang diễn trong phim hành động, rất mạo hiểm, bán cả tính mạng cho miếng cơm manh áo hàng ngày...","can_remove":false,"created_time":"2014-03-25T10:43:28+0000","like_count":5,"user_likes":false},"839362042747141":{"id":"839362042747141","from":{"id":"1146680551","name":"優しい なぁ"},"message":"Ghê vậy. Nhưng hơi lạc đề :v","can_remove":false,"created_time":"2014-03-25T11:33:11+0000","like_count":1,"user_likes":false},"839363512746994":{"id":"839363512746994","from":{"id":"100001876890850","name":"Cây Xà Cừ"},"message":":(","can_remove":false,"created_time":"2014-03-25T11:38:34+0000","like_count":0,"user_likes":false},"839374929412519":{"id":"839374929412519","from":{"id":"100000278474335","name":"Aki Trinh"},"message":"Quan trọng nhất là ko ăn cắp là để giữ gìn hình ảnh của người Việt Nam !","can_remove":false,"created_time":"2014-03-25T12:15:38+0000","like_count":0,"user_likes":false},"839383632744982":{"id":"839383632744982","from":{"id":"100006087877560","name":"Bố Bé Pon"},"message":":)) đá tàu:)) e tưởng nhảy tàu tự tử","can_remove":false,"created_time":"2014-03-25T12:39:09+0000","like_count":0,"user_likes":false},"839404099409602":{"id":"839404099409602","from":{"id":"1146680551","name":"優しい なぁ"},"message":"Mới có mấy sempai thui à :(","can_remove":false,"created_time":"2014-03-25T13:36:02+0000","like_count":1,"user_likes":false},"839406982742647":{"id":"839406982742647","from":{"id":"100002611874779","name":"Trung Nguyễn"},"message":"@Anh: nên đưa những *em* học sinh 28 tuổi về nhà lấy vợ :v","can_remove":false,"created_time":"2014-03-25T13:43:14+0000","like_count":2,"user_likes":false},"839407999409212":{"id":"839407999409212","from":{"id":"100000603915176","name":"悪いな ぁ"},"message":"Khuyên các em thế này: \"khi nào thấy tàu dừng vì có người tự tử, hãy xông lên xem, nếu xem chưa kỹ hãy chụp ảnh để ngâm cứu thêm\".\n\nÝ nghĩa: \"Nhìn để biết sợ tự tử, tránh khi khó khăn lại nghĩ đến nó\" ☺️","can_remove":false,"created_time":"2014-03-25T13:46:19+0000","like_count":12,"user_likes":false},"839878846028794":{"id":"839878846028794","from":{"id":"100004798083725","name":"Cappu Ccino"},"message":"Khuyên các bạn mới sang đừng học theo mấy nguoi đi trước mấy cái trò làm xấu người Việt.Thêm nữa là vận động tự mình mà tìm việc, đừng có khi nào cũng hỏi sokai nữa.Tự tin lên các bạn !!","can_remove":false,"created_time":"2014-03-26T08:45:49+0000","like_count":1,"user_likes":false}},"paging":{"cursors":{"after":"ODM5MzI3MDY5NDE3MzA1","before":"ODM5MzI3MDY5NDE3MzA1"},"next":"https://graph.facebook.com/229244010425617_839326849417327/comments?limit=1&summary=1&after=ODM5MzI3MDY5NDE3MzA1"},"summary":{"order":"chronological","total_count":21}}}