{"id":"229244010425617_839411816075497","type":"status","from":{"id":"100007879952991","name":"Thow  Low"},"message":"Các anh chị cho e hỏi chút được không ạ: \n1. なんとか、なんとなく\n2.  いずれ、すでに\nNhững từ này dùng như thế nào trong câu ạ. Em cảm ơn anh chị nhiều nhiều","created_time":"2014-03-25T13:54:57+0000","updated_time":"2014-03-26T12:40:23+0000","likes":{"data":{"100003181743412":{"id":"100003181743412","name":"Pham Kha"},"100003158735323":{"id":"100003158735323","name":"Tiêu Tương Dạ Vũ"},"100003069246142":{"id":"100003069246142","name":"Hồng Trịnh"},"100000040762045":{"id":"100000040762045","name":"Bình Minh"},"1146680551":{"id":"1146680551","name":"優しい なぁ"},"100000067699837":{"id":"100000067699837","name":"Nguyễn Hải Phong"},"100004083892724":{"id":"100004083892724","name":"Linh Linh"},"100008064215029":{"id":"100008064215029","name":"Chấm Nhỏ Vĩ Đại"},"100007530217391":{"id":"100007530217391","name":"Speaker  Native"}},"paging":{"cursors":{"after":"MTAwMDAzMTgxNzQzNDEy","before":"MTAwMDAzMTgxNzQzNDEy"},"next":"https://graph.facebook.com/229244010425617_839411816075497/likes?limit=1&summary=1&after=MTAwMDAzMTgxNzQzNDEy"},"summary":{"total_count":9}},"comments":{"data":{"839493306067348":{"id":"839493306067348","from":{"id":"1146680551","name":"優しい なぁ"},"message":"Em không biết nghĩa hay sao?\nNó chỉ là các phó từ bổ nghĩa thôi mà. Thường đặt đầu câu.","can_remove":false,"created_time":"2014-03-25T16:52:06+0000","like_count":1,"user_likes":false},"839493379400674":{"id":"839493379400674","from":{"id":"1146680551","name":"優しい なぁ"},"message":"何とか元気？","can_remove":false,"created_time":"2014-03-25T16:52:24+0000","like_count":0,"user_likes":false},"839643249385687":{"id":"839643249385687","from":{"id":"100003069246142","name":"Hồng Trịnh"},"message":"Thực ra mấy từ này để hiểu mà dùng rất khó bạn à","can_remove":false,"created_time":"2014-03-25T21:52:43+0000","like_count":1,"user_likes":false},"839644502718895":{"id":"839644502718895","from":{"id":"100003069246142","name":"Hồng Trịnh"},"message":"Theo mình biết thìなんとか với nghĩa là bằng cách nào đó. Nó đc dùng khi trong đầu của mình đã biết rõ , hoặc đã có xuất hiện hình ảnh đó nhưng ko thể nói ra đc. Ví dụ: bằng cách nào đó tôi đã trưởng thành.","can_remove":false,"created_time":"2014-03-25T21:55:22+0000","like_count":1,"user_likes":false},"839652712718074":{"id":"839652712718074","from":{"id":"100003069246142","name":"Hồng Trịnh"},"message":"なんとなく cũng được hiểu là bằng cách nào đó, hoặc không hiểu như thế nào mà. Sử dụng khi có thể nói ra nhưng ko rõ mục đích, lí do. Ví dụ bạn nói\" さいきんなんとなくからだのちょうしがよくありません。nghĩa là không hiểu như thế nào mà gần đây cơ thể ko đc tốt","can_remove":false,"created_time":"2014-03-25T22:11:09+0000","like_count":1,"user_likes":false},"839653722717973":{"id":"839653722717973","from":{"id":"100003069246142","name":"Hồng Trịnh"},"message":"いずれ hiểu là từng thứ một, từng cái một. Dùng khi ở trước nó bạn đã liệt kê, nói đến những thứ nào trước đó. Mình thấy dùng nhiều trong văn viết, chưa thấy trong hội thoại.","can_remove":false,"created_time":"2014-03-25T22:14:09+0000","like_count":2,"user_likes":false},"839657346050944":{"id":"839657346050944","from":{"id":"100003069246142","name":"Hồng Trịnh"},"message":"すでにlà đã muộn, đã.","can_remove":false,"created_time":"2014-03-25T22:24:13+0000","like_count":1,"user_likes":false},"839658672717478":{"id":"839658672717478","from":{"id":"100003069246142","name":"Hồng Trịnh"},"message":"Chưa hiểu thì bạn có thể đọc sách n2, hay n3 gì đấy để xem ví dụ thì rõ. Mà tốt nhất là hỏi giáo viên của bạn í.","can_remove":false,"created_time":"2014-03-25T22:27:49+0000","like_count":1,"user_likes":false},"839883902694955":{"id":"839883902694955","from":{"id":"100007879952991","name":"Thow  Low"},"message":"thực ra thì một số trường hợp dùng なんとか、なんとなくem cũng hiểu sơ qua thông qua các ví dụ nhưng không hiểu rõ nó lắm.. em học ở trung tâm mới được mấy ngày, giáo viên giải thích e chẳng hiểu gì cả nên...","can_remove":false,"created_time":"2014-03-26T09:01:06+0000","like_count":0,"user_likes":false},"839884676028211":{"id":"839884676028211","from":{"id":"100007879952991","name":"Thow  Low"},"message":"ví dụ như thế này : người A làm 1 việc và người B nói vào:\nA: やったー\nＢ：なんとかね\nＡ：「なんとか」いうな！\nＢ：ごめん。なとなくね！\nEm cũng khoogn hiểu rõ lắm","can_remove":false,"created_time":"2014-03-26T09:04:29+0000","like_count":0,"user_likes":false},"839887256027953":{"id":"839887256027953","from":{"id":"100003069246142","name":"Hồng Trịnh"},"message":"Bn dang o vjet nam ah","can_remove":false,"created_time":"2014-03-26T09:09:11+0000","like_count":1,"user_likes":false},"839894989360513":{"id":"839894989360513","from":{"id":"100007879952991","name":"Thow  Low"},"message":"Speaker Native 先生、すみません。お願いします＾＾","message_tags":[{"id":"100007530217391","name":"Speaker Native","type":"user","offset":0,"length":14}],"can_remove":false,"created_time":"2014-03-26T09:32:50+0000","like_count":0,"user_likes":false},"839912206025458":{"id":"839912206025458","from":{"id":"569263718","name":"Phuong Thao Tran"},"message":"◆何とか（＝なんにとか）là phó từ:\n\n①手段や方法を尽くして，何かをすることを表す。 「 －完成させたいものだ」 「今のうちに－しないと大変だ」 「そこを－お願いします」：cho thấy sự cố gắng hết sức; ước ao, mong muốn; chỉ còn cách...(hết đường rồi)\n\n②十分ではないが，かろうじて要望にかなうさま。どうにか。まずまず。 「苦労の末，－目的地にたどりつく」 「これだけあれば－なる」 ：tạm chấp nhận được dù đã cố gắng; cuối cùng cũng; chỉ có vậy thôi, tiền nào của ấy...\n\n◆なん となく 【何と無く】\n\n①はっきりした理由や目的もないさま。わけもなく。どことなく。 「 －好きだ」 「 －旅に出る」：không rõ lý do, mục đích tại sao lại thế, kiểu như là ma xui quỷ khiến thế nào í, (có cảm giác là bằng trực giác)\nVD: なんとなく君のことが大好きだ。Chẳng hiểu sao anh lại thích em...\n\n② 取り立てて言う事柄がないさま。何ということもなく。平凡に。 「 －一生を送ってしまった人」: đó là điều hiển nhiên, tự nhiên nó phải như thế...","can_remove":false,"created_time":"2014-03-26T10:10:49+0000","like_count":3,"user_likes":false},"839913152692030":{"id":"839913152692030","from":{"id":"100007879952991","name":"Thow  Low"},"message":"cảm ơn chị ạ :D","can_remove":false,"created_time":"2014-03-26T10:12:57+0000","like_count":0,"user_likes":false},"839963089353703":{"id":"839963089353703","from":{"id":"100007530217391","name":"Speaker  Native"},"message":"いずれ: trong một cái nào đó, trong một kiểu nào đó, trong một ngày nào đó.\n\n中国留学、日本留学の\"いずれか\"を選んでください。\nDu học trung quốc hoặc du học nhật bản hãy chọn một bên nào đó đi.\n\nいずれにせよ、日本に行く事にしました。\nDù sao đi nữa, tôi đã định đi Nhật rồi.\n\nいずれ日本に行きます。\nMột ngày nào đó tôi sẽ đi Nhật.","can_remove":false,"created_time":"2014-03-26T12:40:23+0000","like_count":2,"user_likes":false}},"paging":{"cursors":{"after":"ODM5NDkzMzA2MDY3MzQ4","before":"ODM5NDkzMzA2MDY3MzQ4"},"next":"https://graph.facebook.com/229244010425617_839411816075497/comments?limit=1&summary=1&after=ODM5NDkzMzA2MDY3MzQ4"},"summary":{"order":"chronological","total_count":15}}}