{"id":"229244010425617_839424652740880","type":"status","from":{"id":"100006917112393","name":"Mun"},"message":"Có anh ckị nào trưa mùg 10 sang nhật không ạ.đi vùng hiroshima kàng tốt ạ.","created_time":"2014-03-25T14:20:23+0000","updated_time":"2014-03-25T15:15:07+0000","likes":{"data":{"100004487342842":{"id":"100004487342842","name":"Hai Ly"},"100008064215029":{"id":"100008064215029","name":"Chấm Nhỏ Vĩ Đại"},"100005111111972":{"id":"100005111111972","name":"Pu Sún"},"100003301481599":{"id":"100003301481599","name":"Thành Công Nguyễn"}},"paging":{"cursors":{"after":"MTAwMDA0NDg3MzQyODQy","before":"MTAwMDA0NDg3MzQyODQy"},"next":"https://graph.facebook.com/229244010425617_839424652740880/likes?limit=1&summary=1&after=MTAwMDA0NDg3MzQyODQy"},"summary":{"total_count":4}},"comments":{"data":{"839431606073518":{"id":"839431606073518","from":{"id":"100003263068205","name":"Viết Quân"},"message":"chào mừng bạn đến với hiroshima, mình đang ở hiroshima đây","can_remove":false,"created_time":"2014-03-25T14:36:41+0000","like_count":1,"user_likes":false},"839435302739815":{"id":"839435302739815","from":{"id":"100006917112393","name":"Mun"},"message":"A hk trg nào đấy ạ","can_remove":false,"created_time":"2014-03-25T14:45:14+0000","like_count":1,"user_likes":false},"839435756073103":{"id":"839435756073103","from":{"id":"100006917112393","name":"Mun"},"message":"A là ng ht à","can_remove":false,"created_time":"2014-03-25T14:46:23+0000","like_count":0,"user_likes":false},"839435942739751":{"id":"839435942739751","from":{"id":"100003263068205","name":"Viết Quân"},"message":"mình đang học ở trường mihara, mà bạn là người hà tĩnh nhỉ, nếu thế thì đồng hương rồi","can_remove":false,"created_time":"2014-03-25T14:46:46+0000","like_count":0,"user_likes":false},"839436112739734":{"id":"839436112739734","from":{"id":"100006917112393","name":"Mun"},"message":"Dạ.e kụg ở ht.e k pít trg a.hì.","can_remove":false,"created_time":"2014-03-25T14:47:15+0000","like_count":0,"user_likes":false},"839439826072696":{"id":"839439826072696","from":{"id":"100003263068205","name":"Viết Quân"},"message":"thôi đi bạn mình sinh năm 95 chưa gọi bạn là chị nữa là. bạn ở đâu của hà tĩnh vậy","can_remove":false,"created_time":"2014-03-25T14:49:57+0000","like_count":0,"user_likes":false},"839440439405968":{"id":"839440439405968","from":{"id":"100004487342842","name":"Hai Ly"},"message":"Dug lua em no Viết Quân","message_tags":[{"id":"100003263068205","name":"Viết Quân","type":"user","offset":14,"length":9}],"can_remove":false,"created_time":"2014-03-25T14:50:56+0000","like_count":1,"user_likes":false},"839440459405966":{"id":"839440459405966","from":{"id":"100006917112393","name":"Mun"},"message":"95 á.là pạn uj.ở ngj xuân nà.sag thág 10 á","can_remove":false,"created_time":"2014-03-25T14:51:01+0000","like_count":0,"user_likes":false},"839440956072583":{"id":"839440956072583","from":{"id":"100004908941067","name":"Cử Cơ"},"message":"Bạn học trg gì... human à","can_remove":false,"created_time":"2014-03-25T14:52:33+0000","like_count":1,"user_likes":false},"839441139405898":{"id":"839441139405898","from":{"id":"100003263068205","name":"Viết Quân"},"message":"Hai Ly mình là chả lừa ai bao giờ nhé =))","message_tags":[{"id":"100004487342842","name":"Hai Ly","type":"user","offset":0,"length":6}],"can_remove":false,"created_time":"2014-03-25T14:52:55+0000","like_count":0,"user_likes":false},"839441326072546":{"id":"839441326072546","from":{"id":"100006917112393","name":"Mun"},"message":"K ạ.","can_remove":false,"created_time":"2014-03-25T14:53:26+0000","like_count":0,"user_likes":false},"839441429405869":{"id":"839441429405869","from":{"id":"100003263068205","name":"Viết Quân"},"message":"bạn ở nghi xuân cơ hả còn mình thì ở tp hà tĩnh sang bữa tháng 10 ấy","can_remove":false,"created_time":"2014-03-25T14:53:48+0000","like_count":1,"user_likes":false},"839441636072515":{"id":"839441636072515","from":{"id":"100006917112393","name":"Mun"},"message":"Ừ.hì...","can_remove":false,"created_time":"2014-03-25T14:54:18+0000","like_count":1,"user_likes":false},"839441919405820":{"id":"839441919405820","from":{"id":"100004908941067","name":"Cử Cơ"},"message":"12 mình cũng qua hiroshima","can_remove":false,"created_time":"2014-03-25T14:54:47+0000","like_count":1,"user_likes":false},"839442366072442":{"id":"839442366072442","from":{"id":"100006917112393","name":"Mun"},"message":"Trg nào vậy pạn củ cơ","can_remove":false,"created_time":"2014-03-25T14:55:39+0000","like_count":0,"user_likes":false},"839442876072391":{"id":"839442876072391","from":{"id":"100004908941067","name":"Cử Cơ"},"message":"Human welfare hiroshima","can_remove":false,"created_time":"2014-03-25T14:56:51+0000","like_count":0,"user_likes":false},"839443399405672":{"id":"839443399405672","from":{"id":"100006917112393","name":"Mun"},"message":"Chả pít.híc.","can_remove":false,"created_time":"2014-03-25T14:57:55+0000","like_count":1,"user_likes":false},"839443446072334":{"id":"839443446072334","from":{"id":"100006457419726","name":"Nam Văn Lê"},"message":"ui.không có ai học ymca ah.m tối 28 đã sang đó rồi","can_remove":false,"created_time":"2014-03-25T14:58:02+0000","like_count":2,"user_likes":false},"839443909405621":{"id":"839443909405621","from":{"id":"100006917112393","name":"Mun"},"message":"Sớm thế ạ","can_remove":false,"created_time":"2014-03-25T14:59:00+0000","like_count":0,"user_likes":false},"839444029405609":{"id":"839444029405609","from":{"id":"100004908941067","name":"Cử Cơ"},"message":"Kết bạn nha Nam","can_remove":false,"created_time":"2014-03-25T14:59:11+0000","like_count":1,"user_likes":false},"839445512738794":{"id":"839445512738794","from":{"id":"100006457419726","name":"Nam Văn Lê"},"message":"Viết Quân dạo này chém gió ghê quá.bạn dạy m ít đi nào.(\"_\")","message_tags":[{"id":"100003263068205","name":"Viết Quân","type":"user","offset":0,"length":9}],"can_remove":false,"created_time":"2014-03-25T15:01:23+0000","like_count":1,"user_likes":false},"839446669405345":{"id":"839446669405345","from":{"id":"100003263068205","name":"Viết Quân"},"message":"mình thì biết gì đâu mà dạy đk ai :\">","can_remove":false,"created_time":"2014-03-25T15:03:49+0000","like_count":0,"user_likes":false},"839447556071923":{"id":"839447556071923","from":{"id":"100006457419726","name":"Nam Văn Lê"},"message":"sao a k ket ban voi Mun duoc vay nhi.a nt cug k dc mun oi","can_remove":false,"created_time":"2014-03-25T15:05:47+0000","like_count":0,"user_likes":false},"839447652738580":{"id":"839447652738580","from":{"id":"100006457419726","name":"Nam Văn Lê"},"message":"hehe","can_remove":false,"created_time":"2014-03-25T15:06:02+0000","like_count":1,"user_likes":false},"839447856071893":{"id":"839447856071893","from":{"id":"100006457419726","name":"Nam Văn Lê"},"message":"hn k di lam ah.ban oi.m con10man thi sag do sog dc may thag vay","can_remove":false,"created_time":"2014-03-25T15:06:33+0000","like_count":0,"user_likes":false},"839447952738550":{"id":"839447952738550","from":{"id":"100003263068205","name":"Viết Quân"},"message":"à mà nam nè bạn bay đến sân bay nào","can_remove":false,"created_time":"2014-03-25T15:06:47+0000","like_count":0,"user_likes":false},"839448569405155":{"id":"839448569405155","from":{"id":"100006457419726","name":"Nam Văn Lê"},"message":"m di den fukuoka roi di sinkansen ve hiroshima b ah.hn goi hah ly roi nhug ma thay chat ma cha dc bao nhiu kg ban ah","can_remove":false,"created_time":"2014-03-25T15:08:19+0000","like_count":1,"user_likes":false},"839449256071753":{"id":"839449256071753","from":{"id":"100006917112393","name":"Mun"},"message":"Nam van le :))","can_remove":false,"created_time":"2014-03-25T15:09:27+0000","like_count":0,"user_likes":false},"839450059405006":{"id":"839450059405006","from":{"id":"100003263068205","name":"Viết Quân"},"message":"10 man thì cứ tiết kiệm chưa nên mua đt, xe đạp khoảng 1 man nên bạn đủ sống khoảng hơn 3 tháng","can_remove":false,"created_time":"2014-03-25T15:10:18+0000","like_count":1,"user_likes":false},"839451019404910":{"id":"839451019404910","from":{"id":"100003263068205","name":"Viết Quân"},"message":"chưa nói có thể phải mua sách của trường, bọn mình đây phải mua sách của trường mất 3 man đấy","can_remove":false,"created_time":"2014-03-25T15:10:48+0000","like_count":0,"user_likes":false},"839451456071533":{"id":"839451456071533","from":{"id":"100006457419726","name":"Nam Văn Lê"},"message":"hihi","can_remove":false,"created_time":"2014-03-25T15:11:53+0000","like_count":0,"user_likes":false},"839452992738046":{"id":"839452992738046","from":{"id":"100003263068205","name":"Viết Quân"},"message":"phức tạp nhỉ mình thì đến sân bay hiroshima luôn, từ fukuoka đến hiroshima đi shinkansen mất 2 tiếng đấy","can_remove":false,"created_time":"2014-03-25T15:15:07+0000","like_count":0,"user_likes":false}},"paging":{"cursors":{"after":"ODM5NDMxNjA2MDczNTE4","before":"ODM5NDMxNjA2MDczNTE4"},"next":"https://graph.facebook.com/229244010425617_839424652740880/comments?limit=1&summary=1&after=ODM5NDMxNjA2MDczNTE4"},"summary":{"order":"chronological","total_count":32}}}