{"id":"229244010425617_839418756074803","type":"status","from":{"id":"100003301481599","name":"Thành Công Nguyễn"},"message":"Có ai 2/4 đi nhật k :3 lên Nội Bài bắt tay phát :v Mình đi ibaraki nhé","created_time":"2014-03-25T14:06:34+0000","updated_time":"2014-03-30T03:47:04+0000","likes":{"data":{"100003466287943":{"id":"100003466287943","name":"Kim Chi Saki Loyal"},"100003275921481":{"id":"100003275921481","name":"Vũ Thanh Tùng"},"100001069847320":{"id":"100001069847320","name":"Chang Gami"},"100003896124456":{"id":"100003896124456","name":"Van Tho"},"100003122723417":{"id":"100003122723417","name":"Doan Nguyen"},"100004269880514":{"id":"100004269880514","name":"Minh Trang"},"100003818167519":{"id":"100003818167519","name":"Nghia Trungnghia"},"100005907939887":{"id":"100005907939887","name":"Heo Mập"},"100003189145980":{"id":"100003189145980","name":"Nguyên Nghịch Ngợm"},"100003751724334":{"id":"100003751724334","name":"Nguyen Thanh Duan"},"100001731744647":{"id":"100001731744647","name":"Niềm Vui"},"100006113144074":{"id":"100006113144074","name":"Hà Phương"},"100004294082302":{"id":"100004294082302","name":"Trang Nhung"},"100003971304832":{"id":"100003971304832","name":"Nguyễn Xuân"},"1296997933":{"id":"1296997933","name":"Pham Thi Thu Phuong"},"100004698073938":{"id":"100004698073938","name":"Bé Gấu"},"100003650441746":{"id":"100003650441746","name":"Yo Ko So"},"100002799966323":{"id":"100002799966323","name":"Pappa Roti"},"100002419566054":{"id":"100002419566054","name":"Khánh Toàn"},"100001454348698":{"id":"100001454348698","name":"Phạm Quang Tùng"},"100004299274310":{"id":"100004299274310","name":"Jenny Sakura"},"100004734576972":{"id":"100004734576972","name":"Hoàng Đỗ"},"100002519835295":{"id":"100002519835295","name":"Mai Anh"},"100007295862307":{"id":"100007295862307","name":"Boy Bánh Bèo B"},"100004044790780":{"id":"100004044790780","name":"Vũ Thành"},"100004303890280":{"id":"100004303890280","name":"Bảo Bảo"},"100005111111972":{"id":"100005111111972","name":"Pu Sún"},"100004205949182":{"id":"100004205949182","name":"Nơi Em Chờ Anh"},"100008061784579":{"id":"100008061784579","name":"Hoàng Tuấn"},"100000126462919":{"id":"100000126462919","name":"Thao Phan"},"100006734168968":{"id":"100006734168968","name":"Tiểu Nhân Mã"},"100004780953947":{"id":"100004780953947","name":"Thịnh Nguyễn"},"100004296428209":{"id":"100004296428209","name":"Cu Cau"},"100004128252349":{"id":"100004128252349","name":"Vô Ưu"},"100006859893056":{"id":"100006859893056","name":"Yến Thanh"},"100003103086919":{"id":"100003103086919","name":"Tâm Hiếu"},"100001753944894":{"id":"100001753944894","name":"Luzcarita Little Heart"},"100004134600593":{"id":"100004134600593","name":"Kien Pham"},"100007082641397":{"id":"100007082641397","name":"Huyền Dâu"},"100006917112393":{"id":"100006917112393","name":"Mun"},"100006035258468":{"id":"100006035258468","name":"Thảo Còi"},"100004400315117":{"id":"100004400315117","name":"Tiểu Hoa Đà"},"100007346561551":{"id":"100007346561551","name":"Nguyễn Ngọc Lịch"}},"paging":{"cursors":{"after":"MTAwMDAzNDY2Mjg3OTQz","before":"MTAwMDAzNDY2Mjg3OTQz"},"next":"https://graph.facebook.com/229244010425617_839418756074803/likes?limit=1&summary=1&after=MTAwMDAzNDY2Mjg3OTQz"},"summary":{"total_count":45}},"comments":{"data":{"839419676074711":{"id":"839419676074711","from":{"id":"100006917112393","name":"Mun"},"message":"Tau :v","can_remove":false,"created_time":"2014-03-25T14:08:43+0000","like_count":1,"user_likes":false},"839420002741345":{"id":"839420002741345","from":{"id":"100006087877560","name":"Bố Bé Pon"},"message":"Có mình","can_remove":false,"created_time":"2014-03-25T14:09:29+0000","like_count":1,"user_likes":false},"839420289407983":{"id":"839420289407983","from":{"id":"100007082641397","name":"Huyền Dâu"},"message":"Em","can_remove":false,"created_time":"2014-03-25T14:10:13+0000","like_count":1,"user_likes":false},"839421099407902":{"id":"839421099407902","from":{"id":"100004134600593","name":"Kien Pham"},"message":"Chú đi trường nào..vùng naod","can_remove":false,"created_time":"2014-03-25T14:12:11+0000","like_count":0,"user_likes":false},"839421722741173":{"id":"839421722741173","from":{"id":"100003301481599","name":"Thành Công Nguyễn"},"message":"Đi hitachi ở ibaraki ạ","can_remove":false,"created_time":"2014-03-25T14:13:19+0000","like_count":0,"user_likes":false},"839421866074492":{"id":"839421866074492","from":{"id":"100003301481599","name":"Thành Công Nguyễn"},"message":"Huyền Dâu cô cũng đi m2 à","message_tags":[{"id":"100007082641397","name":"Huyền Dâu","type":"user","offset":0,"length":9}],"can_remove":false,"created_time":"2014-03-25T14:13:32+0000","like_count":1,"user_likes":false},"839422162741129":{"id":"839422162741129","from":{"id":"100003301481599","name":"Thành Công Nguyễn"},"message":"^^","can_remove":false,"created_time":"2014-03-25T14:13:56+0000","like_count":0,"user_likes":false},"839422296074449":{"id":"839422296074449","from":{"id":"100003103086919","name":"Tâm Hiếu"},"message":"bạn đi khu nào japan thế","can_remove":false,"created_time":"2014-03-25T14:14:18+0000","like_count":0,"user_likes":false},"839422409407771":{"id":"839422409407771","from":{"id":"100003301481599","name":"Thành Công Nguyễn"},"message":"Đi ibaraki bạn ạ ^^","can_remove":false,"created_time":"2014-03-25T14:14:39+0000","like_count":0,"user_likes":false},"839422666074412":{"id":"839422666074412","from":{"id":"100003103086919","name":"Tâm Hiếu"},"message":"ukm mình đi kobe shi","can_remove":false,"created_time":"2014-03-25T14:15:10+0000","like_count":0,"user_likes":false},"839422796074399":{"id":"839422796074399","from":{"id":"100003103086919","name":"Tâm Hiếu"},"message":"bạn ở đâu thế","can_remove":false,"created_time":"2014-03-25T14:15:23+0000","like_count":0,"user_likes":false},"839422849407727":{"id":"839422849407727","from":{"id":"100004134600593","name":"Kien Pham"},"message":"Mình đi NIT TO ở kanagawa nhe","can_remove":false,"created_time":"2014-03-25T14:15:32+0000","like_count":0,"user_likes":false},"839422919407720":{"id":"839422919407720","from":{"id":"100004296428209","name":"Cu Cau"},"message":"Lai chiba roi","can_remove":false,"created_time":"2014-03-25T14:15:41+0000","like_count":0,"user_likes":false},"839422966074382":{"id":"839422966074382","from":{"id":"100003301481599","name":"Thành Công Nguyễn"},"message":"chỗ mình cũng có 1 ông đi kobe đi m2 =))) mình ở hưng yên","can_remove":false,"created_time":"2014-03-25T14:15:47+0000","like_count":0,"user_likes":false},"839423096074369":{"id":"839423096074369","from":{"id":"100003301481599","name":"Thành Công Nguyễn"},"message":"gần chiba thôi bạn ^^","can_remove":false,"created_time":"2014-03-25T14:16:12+0000","like_count":1,"user_likes":false},"839423362741009":{"id":"839423362741009","from":{"id":"100004134600593","name":"Kien Pham"},"message":"2H tàu thì phải","can_remove":false,"created_time":"2014-03-25T14:16:52+0000","like_count":0,"user_likes":false},"839423516074327":{"id":"839423516074327","from":{"id":"100003103086919","name":"Tâm Hiếu"},"message":"ukm mik hà nội? sang đó có j liên hệ nha","can_remove":false,"created_time":"2014-03-25T14:17:17+0000","like_count":0,"user_likes":false},"839423602740985":{"id":"839423602740985","from":{"id":"100006087877560","name":"Bố Bé Pon"},"message":"Saitama điểm danh nào","can_remove":false,"created_time":"2014-03-25T14:17:31+0000","like_count":0,"user_likes":false},"839423642740981":{"id":"839423642740981","from":{"id":"100003301481599","name":"Thành Công Nguyễn"},"message":"ok ^^","can_remove":false,"created_time":"2014-03-25T14:17:45+0000","like_count":0,"user_likes":false},"839431089406903":{"id":"839431089406903","from":{"id":"100004296428209","name":"Cu Cau"},"message":"Tai to cung dj dot nay nhung mong 7 co","can_remove":false,"created_time":"2014-03-25T14:35:45+0000","like_count":0,"user_likes":false},"839431462740199":{"id":"839431462740199","from":{"id":"100003301481599","name":"Thành Công Nguyễn"},"message":"vùng nào vậy cậu","can_remove":false,"created_time":"2014-03-25T14:36:23+0000","like_count":0,"user_likes":false},"839432642740081":{"id":"839432642740081","from":{"id":"100004296428209","name":"Cu Cau"},"message":"T dj tokyo mA","can_remove":false,"created_time":"2014-03-25T14:38:37+0000","like_count":1,"user_likes":false},"839432806073398":{"id":"839432806073398","from":{"id":"100002965859167","name":"Nguyễn Thanh Hải"},"message":"ok.cũng 2-4 đây.biết đâu cùng chuyến bay nhề","can_remove":false,"created_time":"2014-03-25T14:39:00+0000","like_count":1,"user_likes":false},"839435656073113":{"id":"839435656073113","from":{"id":"100006668708862","name":"Tupy Giang"},"message":":v","can_remove":false,"created_time":"2014-03-25T14:46:11+0000","like_count":1,"user_likes":false},"839436062739739":{"id":"839436062739739","from":{"id":"100003301481599","name":"Thành Công Nguyễn"},"message":"Tupy Giang cũng đi 2.4 à =))))))))))))))","message_tags":[{"id":"100006668708862","name":"Tupy Giang","type":"user","offset":0,"length":10}],"can_remove":false,"created_time":"2014-03-25T14:47:09+0000","like_count":0,"user_likes":false},"839436082739737":{"id":"839436082739737","from":{"id":"100004296428209","name":"Cu Cau"},"message":"Cac b hoi cua la biet co bay cung hay k ngay","can_remove":false,"created_time":"2014-03-25T14:47:10+0000","like_count":0,"user_likes":false},"839436472739698":{"id":"839436472739698","from":{"id":"100003301481599","name":"Thành Công Nguyễn"},"message":"Nguyễn Thanh Hải ok bạn ^^","message_tags":[{"id":"100002965859167","name":"Nguyễn Thanh Hải","type":"user","offset":0,"length":16}],"can_remove":false,"created_time":"2014-03-25T14:47:34+0000","like_count":1,"user_likes":false},"839439282739417":{"id":"839439282739417","from":{"id":"100002965859167","name":"Nguyễn Thanh Hải"},"message":"ai học iwatani-yokohama-ganakawa-japan ko nào :)","can_remove":false,"created_time":"2014-03-25T14:48:42+0000","like_count":0,"user_likes":false},"839441352739210":{"id":"839441352739210","from":{"id":"100007295862307","name":"Boy Bánh Bèo B"},"message":"có tôi đây. tokyo kokusai eisai","can_remove":false,"created_time":"2014-03-25T14:53:32+0000","like_count":0,"user_likes":false},"839443099405702":{"id":"839443099405702","from":{"id":"100007295862307","name":"Boy Bánh Bèo B"},"message":"kết bạn nối vòng tay lớn đi chứ nhỉ?","can_remove":false,"created_time":"2014-03-25T14:57:19+0000","like_count":0,"user_likes":false},"839443309405681":{"id":"839443309405681","from":{"id":"100003301481599","name":"Thành Công Nguyễn"},"message":"kết bạn vs mình đi ^^ mình đang bị block","can_remove":false,"created_time":"2014-03-25T14:57:44+0000","like_count":0,"user_likes":false},"839443426072336":{"id":"839443426072336","from":{"id":"100006668708862","name":"Tupy Giang"},"message":"sắp thooy :)","can_remove":false,"created_time":"2014-03-25T14:57:59+0000","like_count":0,"user_likes":false},"839443659405646":{"id":"839443659405646","from":{"id":"100003301481599","name":"Thành Công Nguyễn"},"message":"ừ tháng mấy","can_remove":false,"created_time":"2014-03-25T14:58:32+0000","like_count":0,"user_likes":false},"839443786072300":{"id":"839443786072300","from":{"id":"100006668708862","name":"Tupy Giang"},"message":"đầu t5 bợn ợ","can_remove":false,"created_time":"2014-03-25T14:58:51+0000","like_count":0,"user_likes":false},"839443932738952":{"id":"839443932738952","from":{"id":"100004296428209","name":"Cu Cau"},"message":"Toi cung tokyo . Toi o truong kichirori","can_remove":false,"created_time":"2014-03-25T14:59:04+0000","like_count":0,"user_likes":false},"839443936072285":{"id":"839443936072285","from":{"id":"100007295862307","name":"Boy Bánh Bèo B"},"message":"mình vẫn chưa biết chính xác ngày bay nhưng cứ biết là đầu tháng thôi","can_remove":false,"created_time":"2014-03-25T14:59:04+0000","like_count":0,"user_likes":false},"839444016072277":{"id":"839444016072277","from":{"id":"100003301481599","name":"Thành Công Nguyễn"},"message":"sao muộn vậy","can_remove":false,"created_time":"2014-03-25T14:59:10+0000","like_count":0,"user_likes":false},"839455876071091":{"id":"839455876071091","from":{"id":"100003873656180","name":"Chân Ngắn Pro"},"message":"anh dj luc may  jo?","can_remove":false,"created_time":"2014-03-25T15:22:06+0000","like_count":0,"user_likes":false},"839455972737748":{"id":"839455972737748","from":{"id":"100003301481599","name":"Thành Công Nguyễn"},"message":"a đi 11h","can_remove":false,"created_time":"2014-03-25T15:22:27+0000","like_count":0,"user_likes":false},"839456042737741":{"id":"839456042737741","from":{"id":"100003873656180","name":"Chân Ngắn Pro"},"message":"anh dj vung nao the?","can_remove":false,"created_time":"2014-03-25T15:22:40+0000","like_count":0,"user_likes":false},"839456066071072":{"id":"839456066071072","from":{"id":"100003873656180","name":"Chân Ngắn Pro"},"message":"e kung dj vay","can_remove":false,"created_time":"2014-03-25T15:22:45+0000","like_count":0,"user_likes":false},"839456222737723":{"id":"839456222737723","from":{"id":"100003301481599","name":"Thành Công Nguyễn"},"message":"ừ thế chắc cùng chuyến bay rồi :3 a đi ibaraki hi","can_remove":false,"created_time":"2014-03-25T15:23:09+0000","like_count":0,"user_likes":false},"839456366071042":{"id":"839456366071042","from":{"id":"100003873656180","name":"Chân Ngắn Pro"},"message":"ec","can_remove":false,"created_time":"2014-03-25T15:23:30+0000","like_count":0,"user_likes":false},"839456459404366":{"id":"839456459404366","from":{"id":"100003873656180","name":"Chân Ngắn Pro"},"message":"e di osaka","can_remove":false,"created_time":"2014-03-25T15:23:37+0000","like_count":0,"user_likes":false},"839456529404359":{"id":"839456529404359","from":{"id":"100003873656180","name":"Chân Ngắn Pro"},"message":"nhung phia wa han quoc","can_remove":false,"created_time":"2014-03-25T15:23:45+0000","like_count":0,"user_likes":false},"839456609404351":{"id":"839456609404351","from":{"id":"100003301481599","name":"Thành Công Nguyễn"},"message":"haha xa vậy","can_remove":false,"created_time":"2014-03-25T15:23:56+0000","like_count":0,"user_likes":false},"839456739404338":{"id":"839456739404338","from":{"id":"100003873656180","name":"Chân Ngắn Pro"},"message":"chac k cungui","can_remove":false,"created_time":"2014-03-25T15:24:12+0000","like_count":0,"user_likes":false},"839456952737650":{"id":"839456952737650","from":{"id":"100004465720039","name":"Phú Phương"},"message":"1/4 . hì ^_^","can_remove":false,"created_time":"2014-03-25T15:24:42+0000","like_count":0,"user_likes":false},"839457422737603":{"id":"839457422737603","from":{"id":"100007082641397","name":"Huyền Dâu"},"message":"e đi osaka. ai dii cùng ko. quá cảnh HQ xuống nchuyen cho vui","can_remove":false,"created_time":"2014-03-25T15:25:18+0000","like_count":0,"user_likes":false},"839457642737581":{"id":"839457642737581","from":{"id":"100003873656180","name":"Chân Ngắn Pro"},"message":"ui","can_remove":false,"created_time":"2014-03-25T15:25:35+0000","like_count":0,"user_likes":false},"839457729404239":{"id":"839457729404239","from":{"id":"100003873656180","name":"Chân Ngắn Pro"},"message":"co e day","can_remove":false,"created_time":"2014-03-25T15:25:37+0000","like_count":0,"user_likes":false},"839457746070904":{"id":"839457746070904","from":{"id":"100003301481599","name":"Thành Công Nguyễn"},"message":"a cũng quá cảnh hàn quốc nè","can_remove":false,"created_time":"2014-03-25T15:25:40+0000","like_count":0,"user_likes":false},"839457882737557":{"id":"839457882737557","from":{"id":"100003873656180","name":"Chân Ngắn Pro"},"message":"vua cmt xong","can_remove":false,"created_time":"2014-03-25T15:25:48+0000","like_count":0,"user_likes":false},"839457906070888":{"id":"839457906070888","from":{"id":"100003301481599","name":"Thành Công Nguyễn"},"message":"thế chắc cùng chuyến bay rồi","can_remove":false,"created_time":"2014-03-25T15:25:50+0000","like_count":0,"user_likes":false},"839457956070883":{"id":"839457956070883","from":{"id":"100003301481599","name":"Thành Công Nguyễn"},"message":":3","can_remove":false,"created_time":"2014-03-25T15:25:50+0000","like_count":0,"user_likes":false},"839458856070793":{"id":"839458856070793","from":{"id":"100004734576972","name":"Hoàng Đỗ"},"message":"Cho hỏi mọi ng đều đi du học ah","can_remove":false,"created_time":"2014-03-25T15:26:49+0000","like_count":0,"user_likes":false},"839459209404091":{"id":"839459209404091","from":{"id":"100006597913689","name":"Pham Tuyet"},"message":"Co mjnh,ban dj vung nao the","can_remove":false,"created_time":"2014-03-25T15:27:42+0000","like_count":0,"user_likes":false},"839459876070691":{"id":"839459876070691","from":{"id":"100003301481599","name":"Thành Công Nguyễn"},"message":"mình đi ibaraki bạn ạ ^^ kết bạn lwen lên sân bay chụp ảnh cùng nhé :v","can_remove":false,"created_time":"2014-03-25T15:29:04+0000","like_count":1,"user_likes":false},"839460496070629":{"id":"839460496070629","from":{"id":"100006597913689","name":"Pham Tuyet"},"message":"The a,mjnh dj tokyo ko bjet co phaj qua canh ko","can_remove":false,"created_time":"2014-03-25T15:30:36+0000","like_count":0,"user_likes":false},"839460759403936":{"id":"839460759403936","from":{"id":"100006597913689","name":"Pham Tuyet"},"message":"Ban co so hjeu chuyen bay ko","can_remove":false,"created_time":"2014-03-25T15:31:18+0000","like_count":0,"user_likes":false},"839460886070590":{"id":"839460886070590","from":{"id":"100003301481599","name":"Thành Công Nguyễn"},"message":"bạn liên hệ vs ng đặt vé ý cho bạn ý","can_remove":false,"created_time":"2014-03-25T15:31:39+0000","like_count":0,"user_likes":false},"839461032737242":{"id":"839461032737242","from":{"id":"100003301481599","name":"Thành Công Nguyễn"},"message":"mình chưa có mình chưa đc cầm vé mà lên sân bay ng của trung tâm mới phát vé","can_remove":false,"created_time":"2014-03-25T15:31:58+0000","like_count":0,"user_likes":false},"839462232737122":{"id":"839462232737122","from":{"id":"100006597913689","name":"Pham Tuyet"},"message":"Uh mjnh dj vn310","can_remove":false,"created_time":"2014-03-25T15:34:52+0000","like_count":0,"user_likes":false},"839462779403734":{"id":"839462779403734","from":{"id":"100003301481599","name":"Thành Công Nguyễn"},"message":"kết bạn vs mình nhé ^^ mình đang bị block kết bạn","can_remove":false,"created_time":"2014-03-25T15:36:08+0000","like_count":0,"user_likes":false},"839462786070400":{"id":"839462786070400","from":{"id":"100004296428209","name":"Cu Cau"},"message":"Tokyo truong nao vay","can_remove":false,"created_time":"2014-03-25T15:36:08+0000","like_count":0,"user_likes":false},"839463182737027":{"id":"839463182737027","from":{"id":"100006597913689","name":"Pham Tuyet"},"message":"Nakano","can_remove":false,"created_time":"2014-03-25T15:37:06+0000","like_count":0,"user_likes":false},"839464206070258":{"id":"839464206070258","from":{"id":"100004296428209","name":"Cu Cau"},"message":"Vay chac xa kichirori","can_remove":false,"created_time":"2014-03-25T15:38:43+0000","like_count":0,"user_likes":false},"839464472736898":{"id":"839464472736898","from":{"id":"100006597913689","name":"Pham Tuyet"},"message":"Mjnh ko bjet,o gan shijuku y","can_remove":false,"created_time":"2014-03-25T15:39:27+0000","like_count":0,"user_likes":false},"839465202736825":{"id":"839465202736825","from":{"id":"100004296428209","name":"Cu Cau"},"message":"O the cung k xa dau gan day may ong anh mjnh cung o cho day","can_remove":false,"created_time":"2014-03-25T15:41:01+0000","like_count":0,"user_likes":false},"839466169403395":{"id":"839466169403395","from":{"id":"100006597913689","name":"Pham Tuyet"},"message":"Uhm","can_remove":false,"created_time":"2014-03-25T15:43:24+0000","like_count":0,"user_likes":false},"839489909401021":{"id":"839489909401021","from":{"id":"100007086630996","name":"Công Xa Cơ"},"message":"Hehe bạn minh cung di nakano.","can_remove":false,"created_time":"2014-03-25T16:43:49+0000","like_count":0,"user_likes":false},"839538806062798":{"id":"839538806062798","from":{"id":"100004527751157","name":"Tôi Tệ Lắm"},"message":"Di ibaraki thi chet doi ban a","can_remove":false,"created_time":"2014-03-25T18:08:38+0000","like_count":2,"user_likes":false},"839692766047402":{"id":"839692766047402","from":{"id":"100003971304832","name":"Nguyễn Xuân"},"message":"Mềnh cũng đi 11h ngày 3 :-) đi osaka  có ai học ở bunrin osaka k?","can_remove":false,"created_time":"2014-03-26T00:10:03+0000","like_count":0,"user_likes":false},"839744399375572":{"id":"839744399375572","from":{"id":"100007086630996","name":"Công Xa Cơ"},"message":"Các bạn có ai di niigata ko.","can_remove":false,"created_time":"2014-03-26T01:58:11+0000","like_count":0,"user_likes":false},"839750502708295":{"id":"839750502708295","from":{"id":"100008061784579","name":"Hoàng Tuấn"},"message":"ai đi CHIBA ko?\nHđó mềnh đi CHIBA\nTối mùng 2 rạng sáng mùng 3","can_remove":false,"created_time":"2014-03-26T02:14:25+0000","like_count":0,"user_likes":false},"839751152708230":{"id":"839751152708230","from":{"id":"100001156666759","name":"Kenshuu Steam"},"message":"chiba phang","can_remove":false,"created_time":"2014-03-26T02:16:01+0000","like_count":0,"user_likes":false},"839751636041515":{"id":"839751636041515","from":{"id":"100008061784579","name":"Hoàng Tuấn"},"message":"đâu CHIBA vại :)","can_remove":false,"created_time":"2014-03-26T02:17:50+0000","like_count":0,"user_likes":false},"839762186040460":{"id":"839762186040460","from":{"id":"100003167566092","name":"マイ スアン サン"},"message":"có chiba nè :v","can_remove":false,"created_time":"2014-03-26T02:52:35+0000","like_count":0,"user_likes":false},"839764962706849":{"id":"839764962706849","from":{"id":"100008061784579","name":"Hoàng Tuấn"},"message":"trường nào vậy?","can_remove":false,"created_time":"2014-03-26T02:59:16+0000","like_count":0,"user_likes":false},"839765879373424":{"id":"839765879373424","from":{"id":"100003167566092","name":"マイ スアン サン"},"message":"3h","can_remove":false,"created_time":"2014-03-26T03:01:06+0000","like_count":1,"user_likes":false},"839766019373410":{"id":"839766019373410","from":{"id":"100008061784579","name":"Hoàng Tuấn"},"message":"3h là trường nài vậy b :)","can_remove":false,"created_time":"2014-03-26T03:01:38+0000","like_count":1,"user_likes":false},"839766206040058":{"id":"839766206040058","from":{"id":"100003167566092","name":"マイ スアン サン"},"message":"thì ở chi ba có trường 3h ak","can_remove":false,"created_time":"2014-03-26T03:02:18+0000","like_count":0,"user_likes":false},"839766339373378":{"id":"839766339373378","from":{"id":"100008061784579","name":"Hoàng Tuấn"},"message":"ừ mình k biết :)","can_remove":false,"created_time":"2014-03-26T03:02:38+0000","like_count":0,"user_likes":false},"839766626040016":{"id":"839766626040016","from":{"id":"100003167566092","name":"マイ スアン サン"},"message":":(","can_remove":false,"created_time":"2014-03-26T03:03:46+0000","like_count":0,"user_likes":false},"839766839373328":{"id":"839766839373328","from":{"id":"100008061784579","name":"Hoàng Tuấn"},"message":"b cũng đi tối mùng 2 à","can_remove":false,"created_time":"2014-03-26T03:04:15+0000","like_count":0,"user_likes":false},"839767289373283":{"id":"839767289373283","from":{"id":"100003167566092","name":"マイ スアン サン"},"message":"mai mình mới bik ngày bay","can_remove":false,"created_time":"2014-03-26T03:04:59+0000","like_count":0,"user_likes":false},"839767562706589":{"id":"839767562706589","from":{"id":"100008061784579","name":"Hoàng Tuấn"},"message":"oh :)","can_remove":false,"created_time":"2014-03-26T03:05:31+0000","like_count":0,"user_likes":false},"839843746032304":{"id":"839843746032304","from":{"id":"100003934051737","name":"Thanh Sói"},"message":"ai đi m1 bơi về đội của tớ :))","can_remove":false,"created_time":"2014-03-26T06:35:47+0000","like_count":0,"user_likes":false},"839935199356492":{"id":"839935199356492","from":{"id":"100004527751157","name":"Tôi Tệ Lắm"},"message":"Có ai đi ustrunomiya k?","can_remove":false,"created_time":"2014-03-26T11:22:32+0000","like_count":0,"user_likes":false},"839938692689476":{"id":"839938692689476","from":{"id":"100004134600593","name":"Kien Pham"},"message":"Ai đi kanagawa ko..","can_remove":false,"created_time":"2014-03-26T11:33:25+0000","like_count":0,"user_likes":false},"839945819355430":{"id":"839945819355430","from":{"id":"100006597913689","name":"Pham Tuyet"},"message":"Do thuoc tokyo hay yokohama","can_remove":false,"created_time":"2014-03-26T11:55:29+0000","like_count":0,"user_likes":false},"839967896019889":{"id":"839967896019889","from":{"id":"100002853438802","name":"Thanh Thu"},"message":"mình cũng đi ibaraki, nhưng rất tiếc lại là 5/6","can_remove":false,"created_time":"2014-03-26T12:54:56+0000","like_count":0,"user_likes":false},"840407302642615":{"id":"840407302642615","from":{"id":"100006876723761","name":"Tới Còi"},"message":"mình cũng ibaraky.nhưng tối 31 bay","can_remove":false,"created_time":"2014-03-27T07:57:33+0000","like_count":0,"user_likes":false},"840420509307961":{"id":"840420509307961","from":{"id":"100007086630996","name":"Công Xa Cơ"},"message":"Cả nhà có ai đi niigata ko?mung 7bay .bắt tay nhau ở sân bay nôi bài","can_remove":false,"created_time":"2014-03-27T08:38:12+0000","like_count":0,"user_likes":false},"840556385961040":{"id":"840556385961040","from":{"id":"100004296428209","name":"Cu Cau"},"message":"E cug bay mong 7 bay ma tokyo","can_remove":false,"created_time":"2014-03-27T14:49:10+0000","like_count":1,"user_likes":false},"841371865879492":{"id":"841371865879492","from":{"id":"100003122723417","name":"Doan Nguyen"},"message":"Bạn ở chỗ nào của ibaraki vậy. Mình cũng đang ở iba đây","can_remove":false,"created_time":"2014-03-29T01:23:59+0000","like_count":0,"user_likes":false},"841372109212801":{"id":"841372109212801","from":{"id":"100003301481599","name":"Thành Công Nguyễn"},"message":"mito shi bạn ạ mình đi trường hitachi @@","can_remove":false,"created_time":"2014-03-29T01:24:35+0000","like_count":0,"user_likes":false},"841438242539521":{"id":"841438242539521","from":{"id":"100003896124456","name":"Van Tho"},"message":"ok","can_remove":false,"created_time":"2014-03-29T03:46:07+0000","like_count":0,"user_likes":false},"842030442480301":{"id":"842030442480301","from":{"id":"100003122723417","name":"Doan Nguyen"},"message":"Minami hitachi. Mình đang làm kỹ sư bên này","can_remove":false,"created_time":"2014-03-30T03:47:04+0000","like_count":0,"user_likes":false}},"paging":{"cursors":{"after":"ODM5NDE5Njc2MDc0NzEx","before":"ODM5NDE5Njc2MDc0NzEx"},"next":"https://graph.facebook.com/229244010425617_839418756074803/comments?limit=1&summary=1&after=ODM5NDE5Njc2MDc0NzEx"},"summary":{"order":"chronological","total_count":99}}}