{"id":"229244010425617_839425576074121","type":"status","from":{"id":"100005637102037","name":"Nguyễn Việt"},"message":"nhà mình có ai bay tối mùng 5/4 đi osaka không vậy?:)","created_time":"2014-03-25T14:23:08+0000","updated_time":"2014-03-25T16:29:54+0000","likes":{"data":{"100008061784579":{"id":"100008061784579","name":"Hoàng Tuấn"},"100002945776077":{"id":"100002945776077","name":"Hoàng Mạnh Cường"},"100005896002511":{"id":"100005896002511","name":"Thanh Hòa"},"100003971304832":{"id":"100003971304832","name":"Nguyễn Xuân"},"100004134600593":{"id":"100004134600593","name":"Kien Pham"},"100006113144074":{"id":"100006113144074","name":"Hà Phương"},"100007187850069":{"id":"100007187850069","name":"Tập Sống Ích Kỉ"}},"paging":{"cursors":{"after":"MTAwMDA4MDYxNzg0NTc5","before":"MTAwMDA4MDYxNzg0NTc5"},"next":"https://graph.facebook.com/229244010425617_839425576074121/likes?limit=1&summary=1&after=MTAwMDA4MDYxNzg0NTc5"},"summary":{"total_count":7}},"comments":{"data":{"839425769407435":{"id":"839425769407435","from":{"id":"100007187850069","name":"Tập Sống Ích Kỉ"},"message":"Bạn đi osaka à","can_remove":false,"created_time":"2014-03-25T14:23:38+0000","like_count":0,"user_likes":false},"839426162740729":{"id":"839426162740729","from":{"id":"100005637102037","name":"Nguyễn Việt"},"message":"uk toi  di osaka Tập Sống Ích Kỉ","message_tags":[{"id":"100007187850069","name":"Tập Sống Ích Kỉ","type":"user","offset":17,"length":15}],"can_remove":false,"created_time":"2014-03-25T14:24:34+0000","like_count":0,"user_likes":false},"839429199407092":{"id":"839429199407092","from":{"id":"100003971304832","name":"Nguyễn Xuân"},"message":"M.n đi trường nào osaka đấy ợ :-)","can_remove":false,"created_time":"2014-03-25T14:31:44+0000","like_count":0,"user_likes":false},"839435082739837":{"id":"839435082739837","from":{"id":"100007187850069","name":"Tập Sống Ích Kỉ"},"message":"Tớ kobe. @@","can_remove":false,"created_time":"2014-03-25T14:44:37+0000","like_count":0,"user_likes":false},"839485182734827":{"id":"839485182734827","from":{"id":"100002945776077","name":"Hoàng Mạnh Cường"},"message":"mình đi mùng 7 mới đen...","can_remove":false,"created_time":"2014-03-25T16:29:22+0000","like_count":0,"user_likes":false},"839485362734809":{"id":"839485362734809","from":{"id":"100002945776077","name":"Hoàng Mạnh Cường"},"message":"ai gần Ga Tenwa làm Quen cái nào","can_remove":false,"created_time":"2014-03-25T16:29:54+0000","like_count":0,"user_likes":false}},"paging":{"cursors":{"after":"ODM5NDI1NzY5NDA3NDM1","before":"ODM5NDI1NzY5NDA3NDM1"},"next":"https://graph.facebook.com/229244010425617_839425576074121/comments?limit=1&summary=1&after=ODM5NDI1NzY5NDA3NDM1"},"summary":{"order":"chronological","total_count":6}}}