{"id":"229244010425617_839435642739781","type":"status","from":{"id":"100003103086919","name":"Tâm Hiếu"},"message":"sorry ad nhé@ đăng tin để tìm bạn nha? nhà mình có ai đi kobe tháng 4 không nhỉ? làm quen cái nhé@@@","created_time":"2014-03-25T14:46:10+0000","updated_time":"2014-03-26T14:52:26+0000","likes":{"data":{"100007049679592":{"id":"100007049679592","name":"Ngọc Thưởng Lexus"},"100002257948897":{"id":"100002257948897","name":"Ngô Tùng"},"100007767102987":{"id":"100007767102987","name":"Du Học Thu Huyền"},"100001293764833":{"id":"100001293764833","name":"Nhan Le"},"100003103086919":{"id":"100003103086919","name":"Tâm Hiếu"},"100007970071748":{"id":"100007970071748","name":"Takahashi Phan Anh"}},"paging":{"cursors":{"after":"MTAwMDA3MDQ5Njc5NTky","before":"MTAwMDA3MDQ5Njc5NTky"},"next":"https://graph.facebook.com/229244010425617_839435642739781/likes?limit=1&summary=1&after=MTAwMDA3MDQ5Njc5NTky"},"summary":{"total_count":6}},"comments":{"data":{"839655386051140":{"id":"839655386051140","from":{"id":"100002257948897","name":"Ngô Tùng"},"message":"Mùng mấy bay hả bạn :-)","can_remove":false,"created_time":"2014-03-25T22:18:51+0000","like_count":0,"user_likes":false},"839687759381236":{"id":"839687759381236","from":{"id":"100003103086919","name":"Tâm Hiếu"},"message":"vẫn chưa có ngày bạn Ngô Tùng ah","message_tags":[{"id":"100002257948897","name":"Ngô Tùng","type":"user","offset":21,"length":8}],"can_remove":false,"created_time":"2014-03-25T23:51:41+0000","like_count":0,"user_likes":false},"839707606045918":{"id":"839707606045918","from":{"id":"100002257948897","name":"Ngô Tùng"},"message":"Bọn bên này mùng 1 hay mùng 4 bay rồi ý ... Cố lên nhé :-)","can_remove":false,"created_time":"2014-03-26T00:53:33+0000","like_count":0,"user_likes":false},"839715419378470":{"id":"839715419378470","from":{"id":"100003103086919","name":"Tâm Hiếu"},"message":"ukm chắc cũng tầm đó thôi b ah?","can_remove":false,"created_time":"2014-03-26T01:07:39+0000","like_count":0,"user_likes":false},"839726026044076":{"id":"839726026044076","from":{"id":"100007187850069","name":"Tập Sống Ích Kỉ"},"message":"Kobe có mặt","can_remove":false,"created_time":"2014-03-26T01:24:33+0000","like_count":0,"user_likes":false},"839726886043990":{"id":"839726886043990","from":{"id":"100003103086919","name":"Tâm Hiếu"},"message":"Tập Sống Ích Kỉ ở đâu thế đi ngày nào?","message_tags":[{"id":"100007187850069","name":"Tập Sống Ích Kỉ","type":"user","offset":0,"length":15}],"can_remove":false,"created_time":"2014-03-26T01:26:07+0000","like_count":0,"user_likes":false},"839727236043955":{"id":"839727236043955","from":{"id":"100007187850069","name":"Tập Sống Ích Kỉ"},"message":"Đang ở kobe. @@","can_remove":false,"created_time":"2014-03-26T01:26:48+0000","like_count":0,"user_likes":false},"839727862710559":{"id":"839727862710559","from":{"id":"100003103086919","name":"Tâm Hiếu"},"message":"ah ở đó rồi hả tưởng đợt này đi? hic bạn ở lâu chưa?","can_remove":false,"created_time":"2014-03-26T01:27:48+0000","like_count":0,"user_likes":false},"839728192710526":{"id":"839728192710526","from":{"id":"100007187850069","name":"Tập Sống Ích Kỉ"},"message":"Mới tháng 1","can_remove":false,"created_time":"2014-03-26T01:28:16+0000","like_count":0,"user_likes":false},"839728736043805":{"id":"839728736043805","from":{"id":"100003103086919","name":"Tâm Hiếu"},"message":"vậy ak? chăc b đi làm hả? nên mới đi ko vào dịp nào?","can_remove":false,"created_time":"2014-03-26T01:30:05+0000","like_count":0,"user_likes":false},"839730349376977":{"id":"839730349376977","from":{"id":"100007187850069","name":"Tập Sống Ích Kỉ"},"message":"Đi học","can_remove":false,"created_time":"2014-03-26T01:33:32+0000","like_count":0,"user_likes":false},"839730439376968":{"id":"839730439376968","from":{"id":"100007187850069","name":"Tập Sống Ích Kỉ"},"message":"Cuối năm tốt nghiệp. @@","can_remove":false,"created_time":"2014-03-26T01:33:44+0000","like_count":0,"user_likes":false},"839731612710184":{"id":"839731612710184","from":{"id":"100003103086919","name":"Tâm Hiếu"},"message":"vậy ak? học tr j bên đó thế?","can_remove":false,"created_time":"2014-03-26T01:35:05+0000","like_count":0,"user_likes":false},"839751519374860":{"id":"839751519374860","from":{"id":"100007187850069","name":"Tập Sống Ích Kỉ"},"message":"Shumei","can_remove":false,"created_time":"2014-03-26T02:17:19+0000","like_count":0,"user_likes":false},"839754789374533":{"id":"839754789374533","from":{"id":"100003103086919","name":"Tâm Hiếu"},"message":"ukm mình samg học trường học viện nhật ngưx kobe","can_remove":false,"created_time":"2014-03-26T02:28:05+0000","like_count":0,"user_likes":false},"839755786041100":{"id":"839755786041100","from":{"id":"100007187850069","name":"Tập Sống Ích Kỉ"},"message":"Thế à","can_remove":false,"created_time":"2014-03-26T02:31:18+0000","like_count":0,"user_likes":false},"839756202707725":{"id":"839756202707725","from":{"id":"100003103086919","name":"Tâm Hiếu"},"message":"ukm bạn quê ở đâu thế","can_remove":false,"created_time":"2014-03-26T02:33:01+0000","like_count":0,"user_likes":false},"839931946023484":{"id":"839931946023484","from":{"id":"100000399315424","name":"Rô Rô"},"message":"mình đi kobe tiếng ne^^","can_remove":false,"created_time":"2014-03-26T11:12:54+0000","like_count":0,"user_likes":false},"839932849356727":{"id":"839932849356727","from":{"id":"100003103086919","name":"Tâm Hiếu"},"message":"Rô Rô ở đâu thế đi hoc hay đi làm?","message_tags":[{"id":"100000399315424","name":"Rô Rô","type":"user","offset":0,"length":5}],"can_remove":false,"created_time":"2014-03-26T11:15:21+0000","like_count":0,"user_likes":false},"839932959356716":{"id":"839932959356716","from":{"id":"100000399315424","name":"Rô Rô"},"message":"ở huế. học kobe tiếng. hehe","can_remove":false,"created_time":"2014-03-26T11:15:46+0000","like_count":0,"user_likes":false},"839982646018414":{"id":"839982646018414","from":{"id":"100001293764833","name":"Nhan Le"},"message":"có t nữa  :))","can_remove":false,"created_time":"2014-03-26T13:25:07+0000","like_count":0,"user_likes":false},"839987452684600":{"id":"839987452684600","from":{"id":"100003103086919","name":"Tâm Hiếu"},"message":"ukm Rô Rô & Nhan Le có j liên lạc nhé","message_tags":[{"id":"100000399315424","name":"Rô Rô","type":"user","offset":4,"length":5},{"id":"100001293764833","name":"Nhan Le","type":"user","offset":12,"length":7}],"can_remove":false,"created_time":"2014-03-26T13:36:07+0000","like_count":2,"user_likes":false},"839993432684002":{"id":"839993432684002","from":{"id":"100003103086919","name":"Tâm Hiếu"},"message":"bạn nhan le đi học ah? hôm nào bay thế?","can_remove":false,"created_time":"2014-03-26T13:48:02+0000","like_count":0,"user_likes":false},"840003329349679":{"id":"840003329349679","from":{"id":"100001293764833","name":"Nhan Le"},"message":"Ừa, t đi học, 1/4 t bay :))","can_remove":false,"created_time":"2014-03-26T14:09:20+0000","like_count":1,"user_likes":false},"840004026016276":{"id":"840004026016276","from":{"id":"100003103086919","name":"Tâm Hiếu"},"message":"bay sớm thế? bạn học trường j thế? mình cũng đi học?","can_remove":false,"created_time":"2014-03-26T14:11:38+0000","like_count":0,"user_likes":false},"840004762682869":{"id":"840004762682869","from":{"id":"100007187850069","name":"Tập Sống Ích Kỉ"},"message":"Ai đi cho t gửi tí tí đồ với. Qua đây t trả + hậu tạ","can_remove":false,"created_time":"2014-03-26T14:13:42+0000","like_count":0,"user_likes":false},"840010039349008":{"id":"840010039349008","from":{"id":"100001293764833","name":"Nhan Le"},"message":"Tại có vé hôm đấy là tiện thôi, t học ở trường đh Kobe, c học trường gì thế?","can_remove":false,"created_time":"2014-03-26T14:27:38+0000","like_count":0,"user_likes":false},"840011086015570":{"id":"840011086015570","from":{"id":"100003103086919","name":"Tâm Hiếu"},"message":"vậy ah? t học học viện nhật ngữ kobe?","can_remove":false,"created_time":"2014-03-26T14:29:45+0000","like_count":0,"user_likes":false},"840011596015519":{"id":"840011596015519","from":{"id":"100003103086919","name":"Tâm Hiếu"},"message":"bạn học tiếp ngoại thương ah? thế chắc là học tiếp của đh kobe ah?","can_remove":false,"created_time":"2014-03-26T14:30:35+0000","like_count":0,"user_likes":false},"840020179347994":{"id":"840020179347994","from":{"id":"100001293764833","name":"Nhan Le"},"message":"T cũng chỉ học tiếng thôi c ạ. học xong ngoại thương rồi :))","can_remove":false,"created_time":"2014-03-26T14:52:26+0000","like_count":0,"user_likes":false}},"paging":{"cursors":{"after":"ODM5NjU1Mzg2MDUxMTQw","before":"ODM5NjU1Mzg2MDUxMTQw"},"next":"https://graph.facebook.com/229244010425617_839435642739781/comments?limit=1&summary=1&after=ODM5NjU1Mzg2MDUxMTQw"},"summary":{"order":"chronological","total_count":30}}}