{"id":"229244010425617_839427086073970","type":"status","from":{"id":"100005111111972","name":"Pu Sún"},"message":"Nhà mình có ai đi Osaka mùng 3/4 k ạ?","created_time":"2014-03-25T14:27:06+0000","updated_time":"2014-03-26T00:13:21+0000","likes":{"data":{"100007937496886":{"id":"100007937496886","name":"Loiyeuanhchuanoinhung Haytinvaotinhyeucuaanh Anhyeuem"},"100002945776077":{"id":"100002945776077","name":"Hoàng Mạnh Cường"},"100007930145431":{"id":"100007930145431","name":"Phát Tôn"},"100006917112393":{"id":"100006917112393","name":"Mun"},"100003301481599":{"id":"100003301481599","name":"Thành Công Nguyễn"},"100006437112992":{"id":"100006437112992","name":"Chiến Xuân"}},"paging":{"cursors":{"after":"MTAwMDA3OTM3NDk2ODg2","before":"MTAwMDA3OTM3NDk2ODg2"},"next":"https://graph.facebook.com/229244010425617_839427086073970/likes?limit=1&summary=1&after=MTAwMDA3OTM3NDk2ODg2"},"summary":{"total_count":6}},"comments":{"data":{"839436049406407":{"id":"839436049406407","from":{"id":"100004146277188","name":"Kenny Bùi"},"message":"Có t đi tokyo mung 3 nè Ý san","can_remove":false,"created_time":"2014-03-25T14:47:08+0000","like_count":1,"user_likes":false},"839449226071756":{"id":"839449226071756","from":{"id":"100005111111972","name":"Pu Sún"},"message":"Thế á?nhưng mà đi Osaka mà?có cùng chuyến bay đâu?","can_remove":false,"created_time":"2014-03-25T15:09:20+0000","like_count":0,"user_likes":false},"839454732737872":{"id":"839454732737872","from":{"id":"100004146277188","name":"Kenny Bùi"},"message":"Pit ruj.nhung gap nhau o?san bay noi bai' la dk","can_remove":false,"created_time":"2014-03-25T15:19:25+0000","like_count":1,"user_likes":false},"839455612737784":{"id":"839455612737784","from":{"id":"100005111111972","name":"Pu Sún"},"message":":))","can_remove":false,"created_time":"2014-03-25T15:21:20+0000","like_count":0,"user_likes":false},"839458806070798":{"id":"839458806070798","from":{"id":"100004146277188","name":"Kenny Bùi"},"message":":(","can_remove":false,"created_time":"2014-03-25T15:26:37+0000","like_count":0,"user_likes":false},"839472386069440":{"id":"839472386069440","from":{"id":"100007930145431","name":"Phát Tôn"},"message":"Ở osaka bạn đi trường nào vậy?..trường nào tốt hả bạn...arigatou.","can_remove":false,"created_time":"2014-03-25T15:59:01+0000","like_count":0,"user_likes":false},"839494062733939":{"id":"839494062733939","from":{"id":"100005496607458","name":"Tran Manh Tu"},"message":"0:20 ngày 2/4 lên máy bay này. trc bạn 1 ngày. bạn đi trg nào Osaka","can_remove":false,"created_time":"2014-03-25T16:54:39+0000","like_count":0,"user_likes":false},"839693502713995":{"id":"839693502713995","from":{"id":"100005111111972","name":"Pu Sún"},"message":"Phát Tôn mình đi trường Shin p ạ!còn trường nào tốt thì mình cũng k rõ đâu!vì mỗi trường có lợi thế riêng!","message_tags":[{"id":"100007930145431","name":"Phát Tôn","type":"user","offset":0,"length":8}],"can_remove":false,"created_time":"2014-03-26T00:12:26+0000","like_count":2,"user_likes":false},"839693849380627":{"id":"839693849380627","from":{"id":"100005111111972","name":"Pu Sún"},"message":"Tran Manh Tu Mình đi trg Shin","message_tags":[{"id":"100005496607458","name":"Tran Manh Tu","type":"user","offset":0,"length":12}],"can_remove":false,"created_time":"2014-03-26T00:13:21+0000","like_count":0,"user_likes":false}},"paging":{"cursors":{"after":"ODM5NDM2MDQ5NDA2NDA3","before":"ODM5NDM2MDQ5NDA2NDA3"},"next":"https://graph.facebook.com/229244010425617_839427086073970/comments?limit=1&summary=1&after=ODM5NDM2MDQ5NDA2NDA3"},"summary":{"order":"chronological","total_count":9}}}