{"id":"229244010425617_839711052712240","type":"status","from":{"id":"100002428163247","name":"Trần Đức Hùng"},"message":"Mình đang cần tìm nhà 1 người ở tầm 3-5man (bao gồm tất cả nhé), từ ga thuê đến shinjuku mất khoảng 30 phút đi tàu, hay dưới 30 phút thì càng tốt. Nếu ở ghép thì yêu cầu nữ (vì bạn tớ là nữ mà).\n\nAi biết inbox cho mình nhé, cảm ơn tất cả đã đọc tin.","created_time":"2014-03-26T00:58:51+0000","updated_time":"2014-03-26T05:18:09+0000","likes":{"data":{"100003103086919":{"id":"100003103086919","name":"Tâm Hiếu"},"100000174570922":{"id":"100000174570922","name":"Le Vu Hoang"},"100004780953947":{"id":"100004780953947","name":"Thịnh Nguyễn"},"100003642824422":{"id":"100003642824422","name":"Ngô Ba"}},"paging":{"cursors":{"after":"MTAwMDAzMTAzMDg2OTE5","before":"MTAwMDAzMTAzMDg2OTE5"},"next":"https://graph.facebook.com/229244010425617_839711052712240/likes?limit=1&summary=1&after=MTAwMDAzMTAzMDg2OTE5"},"summary":{"total_count":4}},"comments":{"data":{"839717776044901":{"id":"839717776044901","from":{"id":"100003642824422","name":"Ngô Ba"},"message":"Thế sao a k tìm ng xong kiếm nhà tầm 5 man là ok mà? 5 man thì chắc là có thôi mà?","can_remove":false,"created_time":"2014-03-26T01:12:32+0000","like_count":0,"user_likes":false},"839719996044679":{"id":"839719996044679","from":{"id":"100002428163247","name":"Trần Đức Hùng"},"message":"Nó thích ở 1 mình nhưng nếu ở ghép thì 2 phòng riêng biệt e ạ","can_remove":false,"created_time":"2014-03-26T01:15:20+0000","like_count":0,"user_likes":false},"839722909377721":{"id":"839722909377721","from":{"id":"100001243411261","name":"Ngưu Tỷ Tỷ"},"message":"ra công ty bất động sản hỏi cho nhanh anh ơi","can_remove":false,"created_time":"2014-03-26T01:20:39+0000","like_count":0,"user_likes":false},"839723386044340":{"id":"839723386044340","from":{"id":"100002428163247","name":"Trần Đức Hùng"},"message":"Ngưu Tỷ Tỷ hôm trước hỏi được chưa?","message_tags":[{"id":"100001243411261","name":"Ngưu Tỷ Tỷ","type":"user","offset":0,"length":10}],"can_remove":false,"created_time":"2014-03-26T01:21:29+0000","like_count":0,"user_likes":false},"839723596044319":{"id":"839723596044319","from":{"id":"100001243411261","name":"Ngưu Tỷ Tỷ"},"message":"được rồi anh ạ","can_remove":false,"created_time":"2014-03-26T01:21:51+0000","like_count":0,"user_likes":false},"839730032710342":{"id":"839730032710342","from":{"id":"100002428163247","name":"Trần Đức Hùng"},"message":"Ở chỗ em còn phòng không? Mấy 1 tháng? E qua nhà đất à?","can_remove":false,"created_time":"2014-03-26T01:32:55+0000","like_count":0,"user_likes":false},"839730392710306":{"id":"839730392710306","from":{"id":"100001243411261","name":"Ngưu Tỷ Tỷ"},"message":"em qua nhà đất","can_remove":false,"created_time":"2014-03-26T01:33:33+0000","like_count":0,"user_likes":false},"839730442710301":{"id":"839730442710301","from":{"id":"100001243411261","name":"Ngưu Tỷ Tỷ"},"message":"nên không biết còn phòng hay không","can_remove":false,"created_time":"2014-03-26T01:33:44+0000","like_count":0,"user_likes":false},"839733259376686":{"id":"839733259376686","from":{"id":"100006388207654","name":"Hoàng Công Tuyến"},"message":"Cho e hỏj tí,e sắp đj Nhật! Có phải làm TK ngân hàng cho mình kô hay là sang đấy mới làm? Còn bm e làm TK rồj","can_remove":false,"created_time":"2014-03-26T01:36:45+0000","like_count":0,"user_likes":false},"839810409368971":{"id":"839810409368971","from":{"id":"100001458099624","name":"Kham Pha"},"message":"hôm qua em đi qua chỗ môi giới nhà đất liếc thấy có căn 2man6/tháng, 1 phòng ở ga chiyodabashi, tokyo nhìn khá đc. Nếu cần thì em tìm địa chỉ cty ấy cho.","can_remove":false,"created_time":"2014-03-26T04:34:20+0000","like_count":0,"user_likes":false},"839810976035581":{"id":"839810976035581","from":{"id":"100002428163247","name":"Trần Đức Hùng"},"message":"Kham Pha: giúp anh nhé:)","can_remove":false,"created_time":"2014-03-26T04:37:06+0000","like_count":0,"user_likes":false},"839821952701150":{"id":"839821952701150","from":{"id":"100001458099624","name":"Kham Pha"},"message":"nhưng ga đấy có ok ko?","can_remove":false,"created_time":"2014-03-26T05:09:57+0000","like_count":0,"user_likes":false},"839824116034267":{"id":"839824116034267","from":{"id":"100002428163247","name":"Trần Đức Hùng"},"message":"Ặc! Giờ mới xem lại😭😭😭","can_remove":false,"created_time":"2014-03-26T05:18:09+0000","like_count":0,"user_likes":false}},"paging":{"cursors":{"after":"ODM5NzE3Nzc2MDQ0OTAx","before":"ODM5NzE3Nzc2MDQ0OTAx"},"next":"https://graph.facebook.com/229244010425617_839711052712240/comments?limit=1&summary=1&after=ODM5NzE3Nzc2MDQ0OTAx"},"summary":{"order":"chronological","total_count":13}}}