{"id":"229244010425617_839734552709890","type":"status","from":{"id":"100007295862307","name":"Boy Bánh Bèo B"},"message":"m.n cho mình hỏi. mình có 1 chai rượu định mang theo cho vào hành lý không biết có được k nhỉ? ai biết cho mình lời khuyên","created_time":"2014-03-26T01:39:29+0000","updated_time":"2014-03-26T02:59:08+0000","likes":{"data":{"100004410186854":{"id":"100004410186854","name":"Long Hoàng"},"100007295862307":{"id":"100007295862307","name":"Boy Bánh Bèo B"},"100003069246142":{"id":"100003069246142","name":"Hồng Trịnh"},"100005119621298":{"id":"100005119621298","name":"Xâu Xí Sọn"},"100006418027058":{"id":"100006418027058","name":"Chắc Đùa"}},"paging":{"cursors":{"after":"MTAwMDA0NDEwMTg2ODU0","before":"MTAwMDA0NDEwMTg2ODU0"},"next":"https://graph.facebook.com/229244010425617_839734552709890/likes?limit=1&summary=1&after=MTAwMDA0NDEwMTg2ODU0"},"summary":{"total_count":5}},"comments":{"data":{"839735689376443":{"id":"839735689376443","from":{"id":"100003466576233","name":"Nguyễn Văn Chiến"},"message":"rượu không thì không cho mang phải mang thêm đồ nhậu thì mới được mang ok !","can_remove":false,"created_time":"2014-03-26T01:41:54+0000","like_count":2,"user_likes":false},"839736339376378":{"id":"839736339376378","from":{"id":"100004908941067","name":"Cử Cơ"},"message":"Đc mà anh...khà khà.món này thật khoái khẩu","can_remove":false,"created_time":"2014-03-26T01:42:42+0000","like_count":0,"user_likes":false},"839736516043027":{"id":"839736516043027","from":{"id":"100007295862307","name":"Boy Bánh Bèo B"},"message":"um mình cám ơn nhé","can_remove":false,"created_time":"2014-03-26T01:43:00+0000","like_count":0,"user_likes":false},"839737319376280":{"id":"839737319376280","from":{"id":"100004908941067","name":"Cử Cơ"},"message":"A đi vùg nào vậy","can_remove":false,"created_time":"2014-03-26T01:44:31+0000","like_count":0,"user_likes":false},"839737432709602":{"id":"839737432709602","from":{"id":"100007295862307","name":"Boy Bánh Bèo B"},"message":"tokyo trường kokusai eisai","can_remove":false,"created_time":"2014-03-26T01:44:52+0000","like_count":0,"user_likes":false},"839737449376267":{"id":"839737449376267","from":{"id":"100007295862307","name":"Boy Bánh Bèo B"},"message":"gần ga kinshicho","can_remove":false,"created_time":"2014-03-26T01:45:02+0000","like_count":0,"user_likes":false},"839737566042922":{"id":"839737566042922","from":{"id":"100004908941067","name":"Cử Cơ"},"message":"E chịu","can_remove":false,"created_time":"2014-03-26T01:45:27+0000","like_count":0,"user_likes":false},"839737712709574":{"id":"839737712709574","from":{"id":"100004908941067","name":"Cử Cơ"},"message":"Thôi chúc bác gặp nhiều may mắn nha..!","can_remove":false,"created_time":"2014-03-26T01:46:02+0000","like_count":0,"user_likes":false},"839737856042893":{"id":"839737856042893","from":{"id":"100007295862307","name":"Boy Bánh Bèo B"},"message":"thế ông bạn đi vùng nào","can_remove":false,"created_time":"2014-03-26T01:46:30+0000","like_count":0,"user_likes":false},"839740876042591":{"id":"839740876042591","from":{"id":"100004908941067","name":"Cử Cơ"},"message":"E hiroshima.sang nhặt vỏ đạn đây","can_remove":false,"created_time":"2014-03-26T01:51:41+0000","like_count":1,"user_likes":false},"839741662709179":{"id":"839741662709179","from":{"id":"100007295862307","name":"Boy Bánh Bèo B"},"message":"hì. chắc trêu. có vỏ đạn cố gắng nhặt mấy năm lại giàu.","can_remove":false,"created_time":"2014-03-26T01:52:25+0000","like_count":0,"user_likes":false},"839741982709147":{"id":"839741982709147","from":{"id":"100007295862307","name":"Boy Bánh Bèo B"},"message":"biết đâu nhặt được cái tên lửa của triều tiên bắn sang đấy","can_remove":false,"created_time":"2014-03-26T01:52:50+0000","like_count":1,"user_likes":false},"839742159375796":{"id":"839742159375796","from":{"id":"100004908941067","name":"Cử Cơ"},"message":"Phải thế thôi.kiếm kế sinh nhai thôi.keke","can_remove":false,"created_time":"2014-03-26T01:53:15+0000","like_count":0,"user_likes":false},"839742469375765":{"id":"839742469375765","from":{"id":"100007295862307","name":"Boy Bánh Bèo B"},"message":"thế mùng mấy ông bạn bay?","can_remove":false,"created_time":"2014-03-26T01:54:22+0000","like_count":0,"user_likes":false},"839742812709064":{"id":"839742812709064","from":{"id":"100004908941067","name":"Cử Cơ"},"message":"12. Còn a","can_remove":false,"created_time":"2014-03-26T01:55:28+0000","like_count":0,"user_likes":false},"839743469375665":{"id":"839743469375665","from":{"id":"100007295862307","name":"Boy Bánh Bèo B"},"message":"chưa báo chính xác. chỉ bảo đầu tháng thôi","can_remove":false,"created_time":"2014-03-26T01:55:56+0000","like_count":1,"user_likes":false},"839743779375634":{"id":"839743779375634","from":{"id":"100004908941067","name":"Cử Cơ"},"message":"Èo...có rồi mà.nhưng bác đi tokyo là ấm rồi...","can_remove":false,"created_time":"2014-03-26T01:56:56+0000","like_count":0,"user_likes":false},"839744119375600":{"id":"839744119375600","from":{"id":"100007295862307","name":"Boy Bánh Bèo B"},"message":"sao ấm. bon chen lắm ông bạn ak.","can_remove":false,"created_time":"2014-03-26T01:57:40+0000","like_count":0,"user_likes":false},"839745306042148":{"id":"839745306042148","from":{"id":"100008001069195","name":"Kệ Tao Ngốc"},"message":"đi nkật mà c0n uốg rượj là s?","can_remove":false,"created_time":"2014-03-26T02:01:24+0000","like_count":0,"user_likes":false},"839745486042130":{"id":"839745486042130","from":{"id":"100007295862307","name":"Boy Bánh Bèo B"},"message":"hì. trai rượu thuốc thôi mà. 1 công đôi việc mà","can_remove":false,"created_time":"2014-03-26T02:02:06+0000","like_count":0,"user_likes":false},"839745639375448":{"id":"839745639375448","from":{"id":"100007295862307","name":"Boy Bánh Bèo B"},"message":"vừa uống vừa làm thuốc","can_remove":false,"created_time":"2014-03-26T02:02:28+0000","like_count":0,"user_likes":false},"839746862708659":{"id":"839746862708659","from":{"id":"100008001069195","name":"Kệ Tao Ngốc"},"message":"ak.ra v!bị khớp à mà uốg rượj tkuốk.hjhj.hehe","can_remove":false,"created_time":"2014-03-26T02:05:38+0000","like_count":0,"user_likes":false},"839747072708638":{"id":"839747072708638","from":{"id":"100007295862307","name":"Boy Bánh Bèo B"},"message":"k. thích thì mang thôi. lúc bì thì cần dùng đến","can_remove":false,"created_time":"2014-03-26T02:06:25+0000","like_count":0,"user_likes":false},"839747812708564":{"id":"839747812708564","from":{"id":"100008001069195","name":"Kệ Tao Ngốc"},"message":"uốg lm j cko say mềm ra.uốg k kan tkan pj móc tjền đấy","can_remove":false,"created_time":"2014-03-26T02:08:39+0000","like_count":0,"user_likes":false},"839748242708521":{"id":"839748242708521","from":{"id":"100003824915235","name":"Vũ Huy Thắng"},"message":"Lại 1 ng nữa ra đi!","can_remove":false,"created_time":"2014-03-26T02:10:12+0000","like_count":1,"user_likes":false},"839748796041799":{"id":"839748796041799","from":{"id":"100007295862307","name":"Boy Bánh Bèo B"},"message":"um. m cảm ơn nhé. nhưng m k phải nghiện rượu đâu.hì","can_remove":false,"created_time":"2014-03-26T02:11:15+0000","like_count":0,"user_likes":false},"839750432708302":{"id":"839750432708302","from":{"id":"100003824915235","name":"Vũ Huy Thắng"},"message":"Bạn ơi.dù mình k biét bạn là ai.chỉ bjet bn sap sag Nhat dung k.du hoc hay dj lam thj cug cbj tjh than va skhoe that tot nhe","can_remove":false,"created_time":"2014-03-26T02:14:04+0000","like_count":0,"user_likes":false},"839751426041536":{"id":"839751426041536","from":{"id":"100008001069195","name":"Kệ Tao Ngốc"},"message":"uk.phaj pjt uog djeu do va lu0n cah gjak.co gag hk tap.","can_remove":false,"created_time":"2014-03-26T02:16:49+0000","like_count":0,"user_likes":false},"839751562708189":{"id":"839751562708189","from":{"id":"100007295862307","name":"Boy Bánh Bèo B"},"message":"Vũ Huy Thắng um m cám ơn na.m đang ở nhà bỗ béo and đợi ngày bay thôi.hì","message_tags":[{"id":"100003824915235","name":"Vũ Huy Thắng","type":"user","offset":0,"length":12}],"can_remove":false,"created_time":"2014-03-26T02:17:30+0000","like_count":0,"user_likes":false},"839751799374832":{"id":"839751799374832","from":{"id":"100003824915235","name":"Vũ Huy Thắng"},"message":"Uk mình sag dc 4thag roi.cung nếm trải đc gần hết cung bậc cảm xúc.còn 2 bậc nữa thôi","can_remove":false,"created_time":"2014-03-26T02:18:30+0000","like_count":0,"user_likes":false},"839751829374829":{"id":"839751829374829","from":{"id":"100007295862307","name":"Boy Bánh Bèo B"},"message":"Kệ Tao Ngốc m xang chuyển bị tinh thần hết rồi. vất vả mà. đổ cả 1 đống tiền phải cố gắng thôi","message_tags":[{"id":"100008001069195","name":"Kệ Tao Ngốc","type":"user","offset":0,"length":11}],"can_remove":false,"created_time":"2014-03-26T02:18:37+0000","like_count":0,"user_likes":false},"839752096041469":{"id":"839752096041469","from":{"id":"100004296428209","name":"Cu Cau"},"message":"E cung dinh mang mam co dk k vay mn","can_remove":false,"created_time":"2014-03-26T02:19:36+0000","like_count":1,"user_likes":false},"839752536041425":{"id":"839752536041425","from":{"id":"100007295862307","name":"Boy Bánh Bèo B"},"message":"Vũ Huy Thắng thế ak. dù sao thì mọi người cùng cố gắng học tập và kiếm tiền về xd quê hương.","message_tags":[{"id":"100003824915235","name":"Vũ Huy Thắng","type":"user","offset":0,"length":12}],"can_remove":false,"created_time":"2014-03-26T02:20:24+0000","like_count":0,"user_likes":false},"839752786041400":{"id":"839752786041400","from":{"id":"100008001069195","name":"Kệ Tao Ngốc"},"message":"uk.mjh cug thjc nc nkat lam.cug mun sag hk va lm vc taj do.nkug kinh te gja djh k co djeu kien","can_remove":false,"created_time":"2014-03-26T02:21:21+0000","like_count":0,"user_likes":false},"839753076041371":{"id":"839753076041371","from":{"id":"100007295862307","name":"Boy Bánh Bèo B"},"message":"um. nhà m cũng phải vay mượn hết mà. xuất phát từ con nhà nông thôn cả mà","can_remove":false,"created_time":"2014-03-26T02:22:07+0000","like_count":0,"user_likes":false},"839753339374678":{"id":"839753339374678","from":{"id":"100003824915235","name":"Vũ Huy Thắng"},"message":"Sẽ rất vất vả.bn học đ  nhiều k.nếu học ít ở Vn thì sẽ rất khó khăn khi sag đây.mình học ở vn ít,sag đây 1 ngày tự hoc 3-4h.bgio thi cug khá hơn nhjeu","can_remove":false,"created_time":"2014-03-26T02:23:04+0000","like_count":0,"user_likes":false},"839753686041310":{"id":"839753686041310","from":{"id":"100007295862307","name":"Boy Bánh Bèo B"},"message":"m học cũng lâu rồi. đáng lẽ đi tháng 1 nhưng lỗi kỹ thuật của cty nên k đi đc","can_remove":false,"created_time":"2014-03-26T02:24:14+0000","like_count":0,"user_likes":false},"839753972707948":{"id":"839753972707948","from":{"id":"100007295862307","name":"Boy Bánh Bèo B"},"message":"Vũ Huy Thắng. mà bạn ở vùng nào thế?","can_remove":false,"created_time":"2014-03-26T02:24:57+0000","like_count":0,"user_likes":false},"839753976041281":{"id":"839753976041281","from":{"id":"100003824915235","name":"Vũ Huy Thắng"},"message":"Giao tiếp ổn chứ","can_remove":false,"created_time":"2014-03-26T02:24:59+0000","like_count":0,"user_likes":false},"839754066041272":{"id":"839754066041272","from":{"id":"100003824915235","name":"Vũ Huy Thắng"},"message":"岡山 住んでいます。","can_remove":false,"created_time":"2014-03-26T02:25:23+0000","like_count":0,"user_likes":false},"839754109374601":{"id":"839754109374601","from":{"id":"100007295862307","name":"Boy Bánh Bèo B"},"message":"nói chung cũng bt. xang đó va chạm nhiều mới phát triển nhiều dc","can_remove":false,"created_time":"2014-03-26T02:25:33+0000","like_count":0,"user_likes":false},"839754159374596":{"id":"839754159374596","from":{"id":"100008001069195","name":"Kệ Tao Ngốc"},"message":"uk.nka mjh k lm ruộg.bố mẹ cug suat phat tu c0n nka n0g.t dag kap 3.phaj co gag sau vao tru0g hu0g dan vjen du lick.","can_remove":false,"created_time":"2014-03-26T02:25:47+0000","like_count":2,"user_likes":false},"839754452707900":{"id":"839754452707900","from":{"id":"100008001069195","name":"Kệ Tao Ngốc"},"message":"p cko mjh yk kien dj.","can_remove":false,"created_time":"2014-03-26T02:26:52+0000","like_count":0,"user_likes":false},"839754542707891":{"id":"839754542707891","from":{"id":"100003824915235","name":"Vũ Huy Thắng"},"message":"Mình có duy nhất 1 lời khuyên qtrong cho bạn","can_remove":false,"created_time":"2014-03-26T02:27:08+0000","like_count":1,"user_likes":false},"839755092707836":{"id":"839755092707836","from":{"id":"100008001069195","name":"Kệ Tao Ngốc"},"message":"uk.p ns dj.","can_remove":false,"created_time":"2014-03-26T02:28:52+0000","like_count":0,"user_likes":false},"839755592707786":{"id":"839755592707786","from":{"id":"100003824915235","name":"Vũ Huy Thắng"},"message":"Khi bước chân sag Nhật thì hãy cẩn thận trong quan hệ bạn bè,suy nghĩ và tìm hiểu thật kĩ trước những thông tin từ mọi ng.không thì sẽ trở thành con ếch (かえるになる) ngay.","can_remove":false,"created_time":"2014-03-26T02:30:47+0000","like_count":2,"user_likes":false},"839756589374353":{"id":"839756589374353","from":{"id":"100004296428209","name":"Cu Cau"},"message":"A vu huy thang a ns do xem . E cung cbj bay roi","can_remove":false,"created_time":"2014-03-26T02:34:03+0000","like_count":0,"user_likes":false},"839756819374330":{"id":"839756819374330","from":{"id":"100008001069195","name":"Kệ Tao Ngốc"},"message":"b dg nc vs boy banh beo ak?","can_remove":false,"created_time":"2014-03-26T02:34:53+0000","like_count":0,"user_likes":false},"839757322707613":{"id":"839757322707613","from":{"id":"100004296428209","name":"Cu Cau"},"message":"T ak","can_remove":false,"created_time":"2014-03-26T02:36:00+0000","like_count":1,"user_likes":false},"839757549374257":{"id":"839757549374257","from":{"id":"100003824915235","name":"Vũ Huy Thắng"},"message":"Mình cùng là ng Vn.cùng sag Nhật học và làm việc.mình sag trước.có chút hiểu.mong muốn giúp mọi ng đc đến đâu hay đến đó.nếu có gì k hiểu khi sag,cứ nt cho mình","can_remove":false,"created_time":"2014-03-26T02:36:37+0000","like_count":2,"user_likes":false},"839757746040904":{"id":"839757746040904","from":{"id":"100008001069195","name":"Kệ Tao Ngốc"},"message":"t ms chj pjt 1ckut tjeg nkat tkuj.m0g cak p chỉ gjáo.","can_remove":false,"created_time":"2014-03-26T02:37:27+0000","like_count":0,"user_likes":false},"839757822707563":{"id":"839757822707563","from":{"id":"100004296428209","name":"Cu Cau"},"message":"T dang hoi a vu huy thang","can_remove":false,"created_time":"2014-03-26T02:37:43+0000","like_count":0,"user_likes":false},"839757906040888":{"id":"839757906040888","from":{"id":"100007295862307","name":"Boy Bánh Bèo B"},"message":"um. m.n cùng giúp đỡ nhau nhé","can_remove":false,"created_time":"2014-03-26T02:37:57+0000","like_count":0,"user_likes":false},"839758156040863":{"id":"839758156040863","from":{"id":"100004296428209","name":"Cu Cau"},"message":"(y)","can_remove":false,"created_time":"2014-03-26T02:38:55+0000","like_count":0,"user_likes":false},"839758236040855":{"id":"839758236040855","from":{"id":"100003824915235","name":"Vũ Huy Thắng"},"message":"Bởi vì mình cũng đã gặp rất nhiều khó khăn những ngày đầu tiên đặt chân đến đất nc này.mình hiểu nên muốn giúp mọi ng,dù là rất rất nhỏ","can_remove":false,"created_time":"2014-03-26T02:39:20+0000","like_count":0,"user_likes":false},"839758516040827":{"id":"839758516040827","from":{"id":"100003824915235","name":"Vũ Huy Thắng"},"message":"Bạn có viber k.nt mà nói nhiều nvay se rất mất tgjan.nếu co the thj goi vjber nhe","can_remove":false,"created_time":"2014-03-26T02:40:13+0000","like_count":0,"user_likes":false},"839759522707393":{"id":"839759522707393","from":{"id":"100004296428209","name":"Cu Cau"},"message":"E cung tokyo day","can_remove":false,"created_time":"2014-03-26T02:43:07+0000","like_count":0,"user_likes":false},"839759652707380":{"id":"839759652707380","from":{"id":"100007295862307","name":"Boy Bánh Bèo B"},"message":"m chưa tải. để m tải.","can_remove":false,"created_time":"2014-03-26T02:43:24+0000","like_count":0,"user_likes":false},"839759962707349":{"id":"839759962707349","from":{"id":"100007295862307","name":"Boy Bánh Bèo B"},"message":"Cu Cau. b xang trường nào thế","message_tags":[{"id":"100004296428209","name":"Cu Cau","type":"user","offset":0,"length":6}],"can_remove":false,"created_time":"2014-03-26T02:44:26+0000","like_count":0,"user_likes":false},"839760099374002":{"id":"839760099374002","from":{"id":"100004296428209","name":"Cu Cau"},"message":"E sang truong kichirori a ak","can_remove":false,"created_time":"2014-03-26T02:45:06+0000","like_count":0,"user_likes":false},"839760332707312":{"id":"839760332707312","from":{"id":"100007295862307","name":"Boy Bánh Bèo B"},"message":"m k biết trg đấy. m xang trg kokusai eisai gần ga kinshicho","can_remove":false,"created_time":"2014-03-26T02:45:53+0000","like_count":0,"user_likes":false},"839760336040645":{"id":"839760336040645","from":{"id":"100003824915235","name":"Vũ Huy Thắng"},"message":"Truong nao hay tp nao cug k phai van de qua lớn.o dau cug co muc tiền lương và chi phí nhất định","can_remove":false,"created_time":"2014-03-26T02:45:53+0000","like_count":0,"user_likes":false},"839760689373943":{"id":"839760689373943","from":{"id":"100004296428209","name":"Cu Cau"},"message":"Ma cong ty a dj ngta k tra tien nha vs tien hok cho ak","can_remove":false,"created_time":"2014-03-26T02:47:00+0000","like_count":0,"user_likes":false},"839760916040587":{"id":"839760916040587","from":{"id":"100007295862307","name":"Boy Bánh Bèo B"},"message":"um. m đóng tiền học với tiền nhà luôn mà. tiền học thì đóng 1 năm luôn","can_remove":false,"created_time":"2014-03-26T02:47:54+0000","like_count":0,"user_likes":false},"839761352707210":{"id":"839761352707210","from":{"id":"100003824915235","name":"Vũ Huy Thắng"},"message":"Các bn thi minh k ro.nhug minh dong 240tr la tat ca chi phi 1 nam hoc va 6 thag t nha","can_remove":false,"created_time":"2014-03-26T02:49:09+0000","like_count":1,"user_likes":false},"839761372707208":{"id":"839761372707208","from":{"id":"100004296428209","name":"Cu Cau"},"message":"E cung the tien nha 3 thang , tiwn hok 1 nam","can_remove":false,"created_time":"2014-03-26T02:49:14+0000","like_count":0,"user_likes":false},"839761452707200":{"id":"839761452707200","from":{"id":"100003824915235","name":"Vũ Huy Thắng"},"message":"Bay gio mjh chuyen ra ngoai,cug tkiem dc nhieu","can_remove":false,"created_time":"2014-03-26T02:49:28+0000","like_count":0,"user_likes":false},"839761859373826":{"id":"839761859373826","from":{"id":"100007295862307","name":"Boy Bánh Bèo B"},"message":"b ở ký túc xá ak?","can_remove":false,"created_time":"2014-03-26T02:51:07+0000","like_count":0,"user_likes":false},"839762112707134":{"id":"839762112707134","from":{"id":"100003824915235","name":"Vũ Huy Thắng"},"message":"アパート .có nhieu truong k co ktxa.o ktxa se rat bat tien khj dj lam アルバイト","can_remove":false,"created_time":"2014-03-26T02:52:19+0000","like_count":0,"user_likes":false},"839762116040467":{"id":"839762116040467","from":{"id":"100004296428209","name":"Cu Cau"},"message":"Cho e cty thue nha cho o ma","can_remove":false,"created_time":"2014-03-26T02:52:19+0000","like_count":0,"user_likes":false},"839763349373677":{"id":"839763349373677","from":{"id":"100003824915235","name":"Vũ Huy Thắng"},"message":"Minh nghi la ban bị chém đẹp rồi.","can_remove":false,"created_time":"2014-03-26T02:55:26+0000","like_count":0,"user_likes":false},"839764266040252":{"id":"839764266040252","from":{"id":"100003824915235","name":"Vũ Huy Thắng"},"message":"Ở chỗ mình là 2 man,chưa điện ga","can_remove":false,"created_time":"2014-03-26T02:57:09+0000","like_count":0,"user_likes":false},"839764429373569":{"id":"839764429373569","from":{"id":"100007295862307","name":"Boy Bánh Bèo B"},"message":"rẻ nhỉ. b ở ký túc hay thuê ngoài","can_remove":false,"created_time":"2014-03-26T02:57:49+0000","like_count":0,"user_likes":false},"839764939373518":{"id":"839764939373518","from":{"id":"100003824915235","name":"Vũ Huy Thắng"},"message":"Ở ngoài vì trường này k có ktx.bgjo chuyen ra cho moi thj mat co 1man 1 thag chua điện","can_remove":false,"created_time":"2014-03-26T02:59:08+0000","like_count":1,"user_likes":false}},"paging":{"cursors":{"after":"ODM5NzM1Njg5Mzc2NDQz","before":"ODM5NzM1Njg5Mzc2NDQz"},"next":"https://graph.facebook.com/229244010425617_839734552709890/comments?limit=1&summary=1&after=ODM5NzM1Njg5Mzc2NDQz"},"summary":{"order":"chronological","total_count":74}}}