{"id":"229244010425617_839738312709514","type":"photo","object_id":"219340081598300","picture":"https://fbcdn-photos-g-a.akamaihd.net/hphotos-ak-prn1/t1.0-0/1959248_219340081598300_69715111_s.jpg","link":"https://www.facebook.com/photo.php?fbid=219340081598300&set=gm.839738312709514&type=1&relevant_count=1","from":{"id":"100005669287482","name":"Khoai Tây Nướng"},"message":"E muốn tìm hiểu về tattoo nhật ạ. Ai biết ở tokyo chỗ nào xăm tattoo chỉ e với ạ. E cảm ơn","created_time":"2014-03-26T01:47:46+0000","updated_time":"2014-03-26T16:01:50+0000","likes":{"data":{"100004323853412":{"id":"100004323853412","name":"Ngọc Liên"},"100005102704972":{"id":"100005102704972","name":"Hoàng Lộc"},"100004984783476":{"id":"100004984783476","name":"Hai Nguyen"},"100003240853799":{"id":"100003240853799","name":"Dao Thanh"},"100008015290770":{"id":"100008015290770","name":"Mi Nhon"},"100003868720130":{"id":"100003868720130","name":"Bình Trà Nhỏ"},"100006716646759":{"id":"100006716646759","name":"Huy Thắng"},"100003676994042":{"id":"100003676994042","name":"Hùng Xồm"},"100003092013826":{"id":"100003092013826","name":"Voi Beo"},"100004130556584":{"id":"100004130556584","name":"Khuong Tung"},"100006435895929":{"id":"100006435895929","name":"Peheo Tajnjnh"},"100004263511135":{"id":"100004263511135","name":"Ngỡ Đã Quên"},"100003670181290":{"id":"100003670181290","name":"Nguyễn Văn Hải"},"100006718418391":{"id":"100006718418391","name":"Hà Quân"},"100007965552883":{"id":"100007965552883","name":"Mvp EndYou"},"100003988713474":{"id":"100003988713474","name":"Sasuke You"},"100007109526738":{"id":"100007109526738","name":"Từ Trạch Á"},"100000281056990":{"id":"100000281056990","name":"Thao Vo"},"100006427217360":{"id":"100006427217360","name":"Lula Đặng"},"100001432462223":{"id":"100001432462223","name":"Truong Nguyen"},"100003914468851":{"id":"100003914468851","name":"Song Pup Py"},"100007396333897":{"id":"100007396333897","name":"Havy Nguyen"},"100008001069195":{"id":"100008001069195","name":"Kệ Tao Ngốc"},"100003449691197":{"id":"100003449691197","name":"Vũ Văn Hoài"},"100006917112393":{"id":"100006917112393","name":"Mun"}},"paging":{"cursors":{"after":"MTAwMDA0MzIzODUzNDEy","before":"MTAwMDA0MzIzODUzNDEy"},"next":"https://graph.facebook.com/229244010425617_839738312709514/likes?limit=1&summary=1&after=MTAwMDA0MzIzODUzNDEy"},"summary":{"total_count":25}},"comments":{"data":{"839738502709495":{"id":"839738502709495","from":{"id":"100000991663833","name":"Mạnh Tạ"},"message":"Đừng đùa chứ =))","can_remove":false,"created_time":"2014-03-26T01:48:18+0000","like_count":0,"user_likes":false},"839738759376136":{"id":"839738759376136","from":{"id":"100000991663833","name":"Mạnh Tạ"},"message":"Shibuya , Harajuku đầy . Anh biết vì a đã tìm hiểu về cái này 3 lần rồi :3","can_remove":false,"created_time":"2014-03-26T01:49:07+0000","like_count":0,"user_likes":false},"839738959376116":{"id":"839738959376116","from":{"id":"100005669287482","name":"Khoai Tây Nướng"},"message":"Thế ạ. Cho e xin cái địa chỉ cụ thể vs ạ :))","can_remove":false,"created_time":"2014-03-26T01:49:52+0000","like_count":0,"user_likes":false},"839739399376072":{"id":"839739399376072","from":{"id":"100000991663833","name":"Mạnh Tạ"},"message":"Suy nghĩ kỹ chưa ? A quăng đâu rồi . Tìm đc a gửi cho","can_remove":false,"created_time":"2014-03-26T01:51:02+0000","like_count":1,"user_likes":false},"839740429375969":{"id":"839740429375969","from":{"id":"100005669287482","name":"Khoai Tây Nướng"},"message":"Vâng a tìm đc gửi e lun nhé. Tks a ;)))","can_remove":false,"created_time":"2014-03-26T01:51:33+0000","like_count":0,"user_likes":false},"839741469375865":{"id":"839741469375865","from":{"id":"100005669287482","name":"Khoai Tây Nướng"},"message":"Tìm hiểu thui mà a có gì phải suy nghĩ đâu ;))))","can_remove":false,"created_time":"2014-03-26T01:51:57+0000","like_count":0,"user_likes":false},"839745969375415":{"id":"839745969375415","from":{"id":"100001432462223","name":"Truong Nguyen"},"message":"trơìi ơii săm kiểu cổ á @@","can_remove":false,"created_time":"2014-03-26T02:03:24+0000","like_count":0,"user_likes":false},"839746466042032":{"id":"839746466042032","from":{"id":"100005669287482","name":"Khoai Tây Nướng"},"message":"Cổ cũng đc hiện đại cũng được bạn ạ. Biết địa chỉ cho mình xin với nhé :))","can_remove":false,"created_time":"2014-03-26T02:04:20+0000","like_count":0,"user_likes":false},"839747349375277":{"id":"839747349375277","from":{"id":"100001432462223","name":"Truong Nguyen"},"message":":)) ko biết, nhưng xem thấy kiểu cổ thì thật là chịu đau quá tốt. Chúc ban luyện thành\" kim cương bất hoại\" sau khi xong vc :))","can_remove":false,"created_time":"2014-03-26T02:07:15+0000","like_count":1,"user_likes":false},"839747649375247":{"id":"839747649375247","from":{"id":"100005669287482","name":"Khoai Tây Nướng"},"message":"Mình có xăm đâu hic. Mình tìm hiểu viết bài thui mà b :))))","can_remove":false,"created_time":"2014-03-26T02:08:02+0000","like_count":0,"user_likes":false},"839750819374930":{"id":"839750819374930","from":{"id":"100006859893056","name":"Yến Thanh"},"message":"shige :)","can_remove":false,"created_time":"2014-03-26T02:15:11+0000","like_count":1,"user_likes":false},"839751769374835":{"id":"839751769374835","from":{"id":"100001432462223","name":"Truong Nguyen"},"message":"@@tưởng hiến thân cho nghệ thuật :))","can_remove":false,"created_time":"2014-03-26T02:18:25+0000","like_count":1,"user_likes":false},"839752132708132":{"id":"839752132708132","from":{"id":"100005669287482","name":"Khoai Tây Nướng"},"message":"K chứ mình sợ đau lắm b ak :))))","can_remove":false,"created_time":"2014-03-26T02:19:50+0000","like_count":0,"user_likes":false},"839753572707988":{"id":"839753572707988","from":{"id":"100003250657085","name":"Nhất Kiếm Vô Tình"},"message":"cái này chắc đắt lắm nhỉ","can_remove":false,"created_time":"2014-03-26T02:23:53+0000","like_count":0,"user_likes":false},"839753632707982":{"id":"839753632707982","from":{"id":"100001432462223","name":"Truong Nguyen"},"message":"thôi cố đi mà :)) làm củ khoai tây chắc hợp lý","can_remove":false,"created_time":"2014-03-26T02:24:02+0000","like_count":0,"user_likes":false},"839759162707429":{"id":"839759162707429","from":{"id":"100000500260636","name":"Lưu Nguyễn Thảo Tiên"},"message":"Ở Osaka có k vậy ạ?? Sao e ít thấy quá!","can_remove":false,"created_time":"2014-03-26T02:41:53+0000","like_count":0,"user_likes":false},"839762972707048":{"id":"839762972707048","from":{"id":"100006520210904","name":"Miu Miu"},"message":"Có nhiều đó e Lưu Nguyễn Thảo Tiên nhìn \" lên trên\" đi","message_tags":[{"id":"100000500260636","name":"Lưu Nguyễn Thảo Tiên","type":"user","offset":14,"length":20}],"can_remove":false,"created_time":"2014-03-26T02:54:14+0000","like_count":0,"user_likes":false},"839765872706758":{"id":"839765872706758","from":{"id":"100000500260636","name":"Lưu Nguyễn Thảo Tiên"},"message":"K lẽ em ra Tokyo mới xăm đc sao huhu","can_remove":false,"created_time":"2014-03-26T03:01:05+0000","like_count":1,"user_likes":false},"839766532706692":{"id":"839766532706692","from":{"id":"100007468213697","name":"Minh Cảnh"},"message":"Tuỳ kích cỡ và độ khó,chủng loại nhưng a bạn mình săm 1 hình  quá to mất gần 50man...","can_remove":false,"created_time":"2014-03-26T03:03:25+0000","like_count":0,"user_likes":false},"839766576040021":{"id":"839766576040021","from":{"id":"100007468213697","name":"Minh Cảnh"},"message":"K quá to nhé.....","can_remove":false,"created_time":"2014-03-26T03:03:40+0000","like_count":0,"user_likes":false},"839767359373276":{"id":"839767359373276","from":{"id":"100003250657085","name":"Nhất Kiếm Vô Tình"},"message":"50man anh đàu ak 100tr ít thế","can_remove":false,"created_time":"2014-03-26T03:05:05+0000","like_count":0,"user_likes":false},"839767962706549":{"id":"839767962706549","from":{"id":"100006859893056","name":"Yến Thanh"},"message":"Còn tùy vào độ khó của hình xăm, và người xăm là ai nữa. người càng nổi tiếng thì giá xăm sẽ càng đắt. Nếu chỉ muốn tìm hiểu thì bạn nên tìm cửa hàng của Shigehara","can_remove":false,"created_time":"2014-03-26T03:06:21+0000","like_count":0,"user_likes":false},"839768306039848":{"id":"839768306039848","from":{"id":"100005669287482","name":"Khoai Tây Nướng"},"message":"Shigehara ở đâu hả b. Có địa chỉ cụ thể k ạ","can_remove":false,"created_time":"2014-03-26T03:07:06+0000","like_count":0,"user_likes":false},"839768589373153":{"id":"839768589373153","from":{"id":"100007991255663","name":"雪雪"},"message":"ơ nagoria co ko vậy","can_remove":false,"created_time":"2014-03-26T03:07:32+0000","like_count":0,"user_likes":false},"839768846039794":{"id":"839768846039794","from":{"id":"100006859893056","name":"Yến Thanh"},"message":"https://www.facebook.com/pages/YK-TATTOO-ART-STUDIO/279004922138057?sk=info","can_remove":false,"created_time":"2014-03-26T03:08:11+0000","like_count":0,"user_likes":false},"839769342706411":{"id":"839769342706411","from":{"id":"100006859893056","name":"Yến Thanh"},"message":"Giá xăm ở nhật mình ko nắm rõ nhưng nếu ở VN 1 hình full lưng giao động từ 15-40tr","can_remove":false,"created_time":"2014-03-26T03:09:19+0000","like_count":0,"user_likes":false},"839769402706405":{"id":"839769402706405","from":{"id":"100006859893056","name":"Yến Thanh"},"message":"tùy vào độ khó, và người xăm","can_remove":false,"created_time":"2014-03-26T03:09:27+0000","like_count":0,"user_likes":false},"839769469373065":{"id":"839769469373065","from":{"id":"100006859893056","name":"Yến Thanh"},"message":"nhưng nếu quyết định xăm nên đến những địa chỉ uy tín để làm","can_remove":false,"created_time":"2014-03-26T03:09:38+0000","like_count":0,"user_likes":false},"839770146039664":{"id":"839770146039664","from":{"id":"100005669287482","name":"Khoai Tây Nướng"},"message":"Thế nếu xăm thì chỗ nào tốt hả b","can_remove":false,"created_time":"2014-03-26T03:11:08+0000","like_count":0,"user_likes":false},"839770576039621":{"id":"839770576039621","from":{"id":"100006859893056","name":"Yến Thanh"},"message":"ở nhật thì nổi tiếng về xăm rồi nhưng mình chỉ biết có shige.","can_remove":false,"created_time":"2014-03-26T03:11:58+0000","like_count":1,"user_likes":false},"839770916039587":{"id":"839770916039587","from":{"id":"100006859893056","name":"Yến Thanh"},"message":"còn ở VN thì có thể đến Quốc Hoàn tattoo, Nam Phong tattoo, Gấu Đen, Hà Nội Tattoo club....","can_remove":false,"created_time":"2014-03-26T03:12:56+0000","like_count":0,"user_likes":false},"839771426039536":{"id":"839771426039536","from":{"id":"100005669287482","name":"Khoai Tây Nướng"},"message":"Cảm ơn b nhé. Nhưng mình tìm ở nhật cơ ạ","can_remove":false,"created_time":"2014-03-26T03:13:59+0000","like_count":0,"user_likes":false},"839771496039529":{"id":"839771496039529","from":{"id":"100006859893056","name":"Yến Thanh"},"message":"nói chung còn phải xem bạn ở khu vực nào nữa giờ tattoo ở vn cũng rất đẹp, ko thua kém gì trung quốc với nhật bản đâu bạn","can_remove":false,"created_time":"2014-03-26T03:14:05+0000","like_count":2,"user_likes":false},"839772149372797":{"id":"839772149372797","from":{"id":"100005669287482","name":"Khoai Tây Nướng"},"message":"Mình tìm ở tokyo bạn ạ","can_remove":false,"created_time":"2014-03-26T03:14:45+0000","like_count":0,"user_likes":false},"839772676039411":{"id":"839772676039411","from":{"id":"100006859893056","name":"Yến Thanh"},"message":"http://www.tokyo-tattoo.com/","can_remove":false,"created_time":"2014-03-26T03:16:06+0000","like_count":0,"user_likes":false},"839772986039380":{"id":"839772986039380","from":{"id":"100006859893056","name":"Yến Thanh"},"message":"http://www.inkrattattoo.com/","can_remove":false,"created_time":"2014-03-26T03:16:23+0000","like_count":1,"user_likes":false},"839773026039376":{"id":"839773026039376","from":{"id":"100006859893056","name":"Yến Thanh"},"message":"http://56tattoo.net/","can_remove":false,"created_time":"2014-03-26T03:16:33+0000","like_count":2,"user_likes":false},"839773086039370":{"id":"839773086039370","from":{"id":"100006859893056","name":"Yến Thanh"},"message":"http://shiryudoh.jp/","can_remove":false,"created_time":"2014-03-26T03:16:49+0000","like_count":2,"user_likes":false},"839773199372692":{"id":"839773199372692","from":{"id":"100006859893056","name":"Yến Thanh"},"message":"http://hocuspocustattoo.com/","can_remove":false,"created_time":"2014-03-26T03:17:14+0000","like_count":2,"user_likes":false},"839773316039347":{"id":"839773316039347","from":{"id":"100006859893056","name":"Yến Thanh"},"message":"http://www.muscat-tattoo.com/","can_remove":false,"created_time":"2014-03-26T03:17:28+0000","like_count":1,"user_likes":false},"839773352706010":{"id":"839773352706010","from":{"id":"100006859893056","name":"Yến Thanh"},"message":"http://www.la-perra-negra.com/","can_remove":false,"created_time":"2014-03-26T03:17:35+0000","like_count":1,"user_likes":false},"839773486039330":{"id":"839773486039330","from":{"id":"100006859893056","name":"Yến Thanh"},"message":"bạn vào đây tìm hiểu nhé","can_remove":false,"created_time":"2014-03-26T03:17:52+0000","like_count":0,"user_likes":false},"839773526039326":{"id":"839773526039326","from":{"id":"100006859893056","name":"Yến Thanh"},"message":"top 10 tiệm xăm ở tokyo đấy","can_remove":false,"created_time":"2014-03-26T03:17:59+0000","like_count":0,"user_likes":false},"839773542705991":{"id":"839773542705991","from":{"id":"100005669287482","name":"Khoai Tây Nướng"},"message":"Úi nhìu thế. Cảm ơn b nhé","can_remove":false,"created_time":"2014-03-26T03:18:03+0000","like_count":2,"user_likes":false},"839782579371754":{"id":"839782579371754","from":{"id":"100002509058006","name":"Jesse Ngo"},"message":"Hình xăm ở Nhật thì thường nó tính theo kích cỡ:\nSize 500¥: 1 man ~ 2man. Có chỗ rẻ thì 5000 or miễn phí. \nSize タバコ(bao thuốc): 2,5man ~ 3 or 4 man. \nSize ハガキ(bưu thiếp): 4~7 man.\nNếu xăm to thì 1h=1man or 1man1\nỞ Tokyo thì có đầy nhưng phải biết chọn. Mình khuyên bạn nên ra inkrat nhé! Quán này nổi tiếng mà giá cũng Bình thường lắm.\nCòn ở osaka cũng vô kể. Nếu muốn chỗ uy tín thì ra chopstick ở amemura nhé! \nNhưng nói gì thì nói \"hãy suy nghĩ kĩ trước khi đi xăm\" vì bạn ko xăm thì ko tìm hiểu dc đâu.","can_remove":false,"created_time":"2014-03-26T03:34:12+0000","like_count":3,"user_likes":false},"839786079371404":{"id":"839786079371404","from":{"id":"100001432462223","name":"Truong Nguyen"},"message":"bạn này tính viết bài thôi, nhát đau :))","can_remove":false,"created_time":"2014-03-26T03:37:03+0000","like_count":1,"user_likes":false},"839801716036507":{"id":"839801716036507","from":{"id":"100005669287482","name":"Khoai Tây Nướng"},"message":"Inkrat ở đâu tokyo hả b. Có địa chỉ cụ thể k ạ","can_remove":false,"created_time":"2014-03-26T04:03:18+0000","like_count":0,"user_likes":false},"839801822703163":{"id":"839801822703163","from":{"id":"100005669287482","name":"Khoai Tây Nướng"},"message":"@truong nguyen: nhát đau mà thử tí cũng đc b ạ :))))","can_remove":false,"created_time":"2014-03-26T04:03:53+0000","like_count":0,"user_likes":false},"839803102703035":{"id":"839803102703035","from":{"id":"100002509058006","name":"Jesse Ngo"},"message":"Inkrat ở trên kia vừa post kia kìa! :-w","can_remove":false,"created_time":"2014-03-26T04:08:01+0000","like_count":1,"user_likes":false},"839814722701873":{"id":"839814722701873","from":{"id":"100001432462223","name":"Truong Nguyen"},"message":"chúc bạn có những giây phút thú vị :))","can_remove":false,"created_time":"2014-03-26T04:48:51+0000","like_count":1,"user_likes":false},"839815429368469":{"id":"839815429368469","from":{"id":"100005669287482","name":"Khoai Tây Nướng"},"message":"Cũng chưa biết có thú vị k b ạ. Chứ mình sợ đau lắm ;))","can_remove":false,"created_time":"2014-03-26T04:51:31+0000","like_count":0,"user_likes":false},"839815849368427":{"id":"839815849368427","from":{"id":"100001432462223","name":"Truong Nguyen"},"message":"đau thì gào lên, cũng thú vị mà :))","can_remove":false,"created_time":"2014-03-26T04:52:29+0000","like_count":1,"user_likes":false},"839816262701719":{"id":"839816262701719","from":{"id":"100005669287482","name":"Khoai Tây Nướng"},"message":"Ở nhật nó ghét ồn ào. Hét lên liệu có đc k b :)))","can_remove":false,"created_time":"2014-03-26T04:53:12+0000","like_count":0,"user_likes":false},"839816719368340":{"id":"839816719368340","from":{"id":"100000500260636","name":"Lưu Nguyễn Thảo Tiên"},"message":"Đề nghị vào phòng vip riêng với nghệ sĩ xăm, hét thoải mái, sau khi ra mặt sẽ đờ đẫn vì có hình xăm trên ng!","can_remove":false,"created_time":"2014-03-26T04:54:34+0000","like_count":2,"user_likes":false},"839818339368178":{"id":"839818339368178","from":{"id":"100001432462223","name":"Truong Nguyen"},"message":"đâu cũng ghét ồn ào :)) và đâu cũng hô hào sống thật vs bản thân :)) bạn thử tập kiểu gào ít ồn ào và dễ thương xem =))","can_remove":false,"created_time":"2014-03-26T04:55:38+0000","like_count":1,"user_likes":false},"839818346034844":{"id":"839818346034844","from":{"id":"100005669287482","name":"Khoai Tây Nướng"},"message":"Nghe b nói thui cũng thấy thú vị :)))). Muốn thử oy đấy :))))","can_remove":false,"created_time":"2014-03-26T04:55:38+0000","like_count":0,"user_likes":false},"839818559368156":{"id":"839818559368156","from":{"id":"100005669287482","name":"Khoai Tây Nướng"},"message":"@truong nguyen: uh mình sẽ cố gào thét thật êm :))))","can_remove":false,"created_time":"2014-03-26T04:56:33+0000","like_count":1,"user_likes":false},"839818959368116":{"id":"839818959368116","from":{"id":"100001432462223","name":"Truong Nguyen"},"message":"chuyên gia Tiên kìa tham vấn đi còn kịp :))","can_remove":false,"created_time":"2014-03-26T04:57:45+0000","like_count":2,"user_likes":false},"839819236034755":{"id":"839819236034755","from":{"id":"100005669287482","name":"Khoai Tây Nướng"},"message":"T vừa tham vấn xong oy b ạ :))))","can_remove":false,"created_time":"2014-03-26T04:58:37+0000","like_count":0,"user_likes":false},"839820542701291":{"id":"839820542701291","from":{"id":"100001432462223","name":"Truong Nguyen"},"message":"ờ ha, bạn ấy chuyên gia đủ thứ đấy. hóa mĩ phẩm, nghệ thuật, thể thao, nấu ăn, đập phá, ngôn ngữ... nói chung khá là hoàn mĩ, nhưng ko nên tham vấn về vấn đề dinh dưỡng :))","can_remove":false,"created_time":"2014-03-26T05:02:43+0000","like_count":1,"user_likes":false},"839820932701252":{"id":"839820932701252","from":{"id":"100005669287482","name":"Khoai Tây Nướng"},"message":"Ờ những cái trên là đủ oy b ạ. Chứ dinh dưỡng t có thừa oy :))))","can_remove":false,"created_time":"2014-03-26T05:04:42+0000","like_count":0,"user_likes":false},"839821686034510":{"id":"839821686034510","from":{"id":"100001432462223","name":"Truong Nguyen"},"message":"thế ah, thì tham vấn ngc cho bạn ấy :)) nhận mà ko cho ah","can_remove":false,"created_time":"2014-03-26T05:08:36+0000","like_count":1,"user_likes":false},"839822612701084":{"id":"839822612701084","from":{"id":"100000500260636","name":"Lưu Nguyễn Thảo Tiên"},"message":"Cái gì hét ghê vại cha kia, người ta tưởng thiệt thì chết tui àh. Tui mập k thấy cổ luôn í chứ :)))","can_remove":false,"created_time":"2014-03-26T05:12:46+0000","like_count":0,"user_likes":false},"839823089367703":{"id":"839823089367703","from":{"id":"100001432462223","name":"Truong Nguyen"},"message":"thì đã loại vấn đề dinh dưỡng ra khỏi khả năng tham vấn còn gì :))","can_remove":false,"created_time":"2014-03-26T05:14:11+0000","like_count":0,"user_likes":false},"839823546034324":{"id":"839823546034324","from":{"id":"100000500260636","name":"Lưu Nguyễn Thảo Tiên"},"message":"Tui từ mập k thấy cổ xuống còn ốm lòi mắt cá đó tin tui đi mà!","can_remove":false,"created_time":"2014-03-26T05:15:45+0000","like_count":1,"user_likes":false},"839824109367601":{"id":"839824109367601","from":{"id":"100001432462223","name":"Truong Nguyen"},"message":"Tin mà :)) vì vậy đã bảo bạn ko biết gì về chăm sóc cân nặng bản thân mà :))","can_remove":false,"created_time":"2014-03-26T05:18:07+0000","like_count":0,"user_likes":false},"839826259367386":{"id":"839826259367386","from":{"id":"100000500260636","name":"Lưu Nguyễn Thảo Tiên"},"message":":))) rứa mà tui đi tư vấn tùm lum từ nay phải khoá mỏ lại! Oá spam cái topic nãy giờ dài loằng ngoằng","can_remove":false,"created_time":"2014-03-26T05:23:35+0000","like_count":0,"user_likes":false},"839826932700652":{"id":"839826932700652","from":{"id":"100001432462223","name":"Truong Nguyen"},"message":":)) trả tiền quảng cáo đi chứ, xù sao :3","can_remove":false,"created_time":"2014-03-26T05:25:08+0000","like_count":0,"user_likes":false},"839835296033149":{"id":"839835296033149","from":{"id":"100001778212258","name":"Cong Thien Nguyen"},"message":"Chắc có lẻ","can_remove":false,"created_time":"2014-03-26T05:57:28+0000","like_count":1,"user_likes":false},"839835952699750":{"id":"839835952699750","from":{"id":"100005669287482","name":"Khoai Tây Nướng"},"message":"Lẻ loi gì cu :))))","can_remove":false,"created_time":"2014-03-26T06:00:48+0000","like_count":0,"user_likes":false},"839837272699618":{"id":"839837272699618","from":{"id":"100000500260636","name":"Lưu Nguyễn Thảo Tiên"},"message":"Rủ bạn Khoai Tây Nướng đi xăm đó mà","can_remove":false,"created_time":"2014-03-26T06:07:11+0000","like_count":2,"user_likes":false},"839842332699112":{"id":"839842332699112","from":{"id":"100005669287482","name":"Khoai Tây Nướng"},"message":"B ý k dám xăm đâu b ạ. B ý sợ đau hơn cả t cơ :)))","can_remove":false,"created_time":"2014-03-26T06:28:35+0000","like_count":0,"user_likes":false},"839843222699023":{"id":"839843222699023","from":{"id":"100006859893056","name":"Yến Thanh"},"message":"giờ xăm có thuốc tê không đau tý nào luôn. mà cũng ko ảnh hưởng gì đến màu sắc của hình xăm","can_remove":false,"created_time":"2014-03-26T06:33:08+0000","like_count":1,"user_likes":false},"839843679365644":{"id":"839843679365644","from":{"id":"100005669287482","name":"Khoai Tây Nướng"},"message":"Thêm thuốc tê có đắt hơn k b. Nếu đắt hơn thì thui mình chịu đau tí cũng đc :))))","can_remove":false,"created_time":"2014-03-26T06:35:20+0000","like_count":0,"user_likes":false},"839844252698920":{"id":"839844252698920","from":{"id":"100006859893056","name":"Yến Thanh"},"message":"ko đáng bao nhiêu đâu :) đắt ở công sức người ta bỏ ra thôi","can_remove":false,"created_time":"2014-03-26T06:36:22+0000","like_count":1,"user_likes":false},"839844296032249":{"id":"839844296032249","from":{"id":"100006859893056","name":"Yến Thanh"},"message":"đắt ở cái thương hiệu :D","can_remove":false,"created_time":"2014-03-26T06:36:31+0000","like_count":1,"user_likes":false},"839845669365445":{"id":"839845669365445","from":{"id":"100005669287482","name":"Khoai Tây Nướng"},"message":"Uh thế thì t cũng yên tâm oy. Dùng thuốc tê cho đỡ phải hét :)))","can_remove":false,"created_time":"2014-03-26T06:39:11+0000","like_count":0,"user_likes":false},"840048466011832":{"id":"840048466011832","from":{"id":"100005102704972","name":"Hoàng Lộc"},"message":"ma` xam roi` kho' xin viec lam' a a.","can_remove":false,"created_time":"2014-03-26T15:57:44+0000","like_count":0,"user_likes":false},"840049816011697":{"id":"840049816011697","from":{"id":"100005669287482","name":"Khoai Tây Nướng"},"message":"Xăm vào lưng mặc quần áo ai nhìn thấy b :)))","can_remove":false,"created_time":"2014-03-26T16:01:50+0000","like_count":0,"user_likes":false}},"paging":{"cursors":{"after":"ODM5NzM4NTAyNzA5NDk1","before":"ODM5NzM4NTAyNzA5NDk1"},"next":"https://graph.facebook.com/229244010425617_839738312709514/comments?limit=1&summary=1&after=ODM5NzM4NTAyNzA5NDk1"},"summary":{"order":"chronological","total_count":79}}}