{"id":"229244010425617_839852486031430","type":"photo","object_id":"613764145328873","picture":"https://fbcdn-photos-d-a.akamaihd.net/hphotos-ak-frc3/t1.0-0/1238263_613764145328873_265114973_s.jpg","link":"https://www.facebook.com/photo.php?fbid=613764145328873&set=a.613651558673465.1073741848.534989253206363&type=1","from":{"id":"100005648859259","name":"Phương Tokyo"},"message":"Cái này hay nè, cho mấy bạn sắp sang Nhựt í :)))","created_time":"2014-03-26T07:04:53+0000","updated_time":"2014-03-26T22:42:30+0000","likes":{"data":{"100000267342665":{"id":"100000267342665","name":"An Dung"},"1000015524":{"id":"1000015524","name":"Hong Vo"},"100003616116150":{"id":"100003616116150","name":"Nguyễn Phúc Tuấn"},"100002470650247":{"id":"100002470650247","name":"LinhLinh Chan"},"100004522323186":{"id":"100004522323186","name":"Đỗ Văn Thắng"},"100001494978263":{"id":"100001494978263","name":"Hà Speed"},"745565751":{"id":"745565751","name":"Tuyen Hoang Thi"},"100004332271111":{"id":"100004332271111","name":"Rainbow Smile"},"100007996688840":{"id":"100007996688840","name":"Dũng Dũng"},"569263718":{"id":"569263718","name":"Phuong Thao Tran"},"100002316048035":{"id":"100002316048035","name":"Đỗ Mạnh Tiến"},"100001770988737":{"id":"100001770988737","name":"Nguyen Phi"},"100006876723761":{"id":"100006876723761","name":"Tới Còi"},"100000381394367":{"id":"100000381394367","name":"Thành Nguyễn"},"100006736295862":{"id":"100006736295862","name":"Khanh Nguyên"},"100004024391657":{"id":"100004024391657","name":"Khóc Trong Mưa"},"100002399803308":{"id":"100002399803308","name":"Quèo Phởn"},"100003118432528":{"id":"100003118432528","name":"Ngọc Lan"},"100000399315424":{"id":"100000399315424","name":"Rô Rô"},"100002047631241":{"id":"100002047631241","name":"Dontask Nguyễn"},"100003222467197":{"id":"100003222467197","name":"Võ Chí Công"},"100003819126368":{"id":"100003819126368","name":"Heo Con"},"100003709398683":{"id":"100003709398683","name":"Quynh Nguyen"},"100003934051737":{"id":"100003934051737","name":"Thanh Sói"},"100002975299796":{"id":"100002975299796","name":"Trinh Tuan Anh"},"100005197094004":{"id":"100005197094004","name":"Thanh Le"},"100002087805613":{"id":"100002087805613","name":"Hiền Long"},"100003032663784":{"id":"100003032663784","name":"Vượt Qua Thử Thách"},"100000424678631":{"id":"100000424678631","name":"Bùi Thanh Hà"},"100002745833537":{"id":"100002745833537","name":"Ngáo Ộp Kìa"},"100001551251307":{"id":"100001551251307","name":"Mạnh Dũng Hunter"},"100003849617303":{"id":"100003849617303","name":"Sinh Nguyen"},"100000070752758":{"id":"100000070752758","name":"Yen Panda"},"100001161097054":{"id":"100001161097054","name":"Hoa Lê"},"100001156522232":{"id":"100001156522232","name":"Le Na Nguyen Tran"},"100003541155273":{"id":"100003541155273","name":"ɞ Lâm Ct ʚ"},"100004531442964":{"id":"100004531442964","name":"Tùng Nguyễn Văn Tùng"},"100004424922774":{"id":"100004424922774","name":"Việt Nguyễn"},"100000973295703":{"id":"100000973295703","name":"El Pipita Gà"},"100003864813484":{"id":"100003864813484","name":"Thức Tự"},"1725907325":{"id":"1725907325","name":"Nguyen Van Dung"},"100002985743170":{"id":"100002985743170","name":"Hoai Pham Thi"},"100001864479440":{"id":"100001864479440","name":"Nguyễn Minh Tuyến"},"100004093159222":{"id":"100004093159222","name":"Tho Coj"},"100001073039074":{"id":"100001073039074","name":"Dương Ngọc Thành"}},"paging":{"cursors":{"after":"MTAwMDAwMjY3MzQyNjY1","before":"MTAwMDAwMjY3MzQyNjY1"},"next":"https://graph.facebook.com/229244010425617_839852486031430/likes?limit=1&summary=1&after=MTAwMDAwMjY3MzQyNjY1"},"summary":{"total_count":46}},"comments":{"data":{"839852792698066":{"id":"839852792698066","from":{"id":"100004862144506","name":"Nguyễn Thế Tạo"},"message":"cảm ơn nhóe Phương Tokyo","message_tags":[{"id":"100005648859259","name":"Phương Tokyo","type":"user","offset":12,"length":12}],"can_remove":false,"created_time":"2014-03-26T07:06:17+0000","like_count":2,"user_likes":false},"839855479364464":{"id":"839855479364464","from":{"id":"100001864479440","name":"Nguyễn Minh Tuyến"},"message":"rất hay và thiết thực , cảm ơn bạn nhé :)","can_remove":false,"created_time":"2014-03-26T07:16:25+0000","like_count":0,"user_likes":false},"839856129364399":{"id":"839856129364399","from":{"id":"100004065384017","name":"Maruko Ngáo Ngơ"},"message":"Đời Là Bể Khổ, Mạnh Hùng Nguyễn, Đức Duy, Sevenlove Vu","message_tags":[{"id":"100002396829556","name":"Đời Là Bể Khổ","type":"user","offset":0,"length":13},{"id":"100003872388379","name":"Mạnh Hùng Nguyễn","type":"user","offset":15,"length":16},{"id":"100004025277467","name":"Đức Duy","type":"user","offset":33,"length":7},{"id":"100003904402790","name":"Sevenlove Vu","type":"user","offset":42,"length":12}],"can_remove":false,"created_time":"2014-03-26T07:19:40+0000","like_count":0,"user_likes":false},"839856706031008":{"id":"839856706031008","from":{"id":"100000973295703","name":"El Pipita Gà"},"message":"Bùi Thanh Hà xem có học  hỏi được gì không này em ;)","message_tags":[{"id":"100000424678631","name":"Bùi Thanh Hà","type":"user","offset":0,"length":12}],"can_remove":false,"created_time":"2014-03-26T07:22:22+0000","like_count":0,"user_likes":false},"839857396030939":{"id":"839857396030939","from":{"id":"100003541155273","name":"ɞ Lâm Ct ʚ"},"message":"hay qá. cảm ơn b nhiều ^^ Domo.","can_remove":false,"created_time":"2014-03-26T07:25:54+0000","like_count":0,"user_likes":false},"839857719364240":{"id":"839857719364240","from":{"id":"100002266378594","name":"Huyen Do"},"message":"hay wa ban a.Doumo ban","can_remove":false,"created_time":"2014-03-26T07:27:35+0000","like_count":0,"user_likes":false},"839860749363937":{"id":"839860749363937","from":{"id":"100002396829556","name":"Đời Là Bể Khổ"},"message":"nani ? Maruko Ngáo Ngơ","message_tags":[{"id":"100004065384017","name":"Maruko Ngáo Ngơ","type":"user","offset":7,"length":15}],"can_remove":false,"created_time":"2014-03-26T07:41:23+0000","like_count":0,"user_likes":false},"839860829363929":{"id":"839860829363929","from":{"id":"100004065384017","name":"Maruko Ngáo Ngơ"},"message":"click vào từng ảnh mà đọc","can_remove":false,"created_time":"2014-03-26T07:41:50+0000","like_count":0,"user_likes":false},"839878639362148":{"id":"839878639362148","from":{"id":"100003032663784","name":"Vượt Qua Thử Thách"},"message":"thế tns thì có cần đến đồ vest k đây cậu","can_remove":false,"created_time":"2014-03-26T08:44:34+0000","like_count":0,"user_likes":false},"839884456028233":{"id":"839884456028233","from":{"id":"100003363496155","name":"Hà Phong Thọ"},"message":"khong hieu??","can_remove":false,"created_time":"2014-03-26T09:03:41+0000","like_count":0,"user_likes":false},"839917346024944":{"id":"839917346024944","from":{"id":"1642723779","name":"Han Van Thang"},"message":"vào đọc chơi chú  Tuananh Le","message_tags":[{"id":"100002916619973","name":"Tuananh Le","type":"user","offset":18,"length":10}],"can_remove":false,"created_time":"2014-03-26T10:20:09+0000","like_count":1,"user_likes":false},"839927649357247":{"id":"839927649357247","from":{"id":"100004192544616","name":"Cuộc Đời Lớn"},"message":"thank you","can_remove":false,"created_time":"2014-03-26T10:56:33+0000","like_count":0,"user_likes":false},"840213715995307":{"id":"840213715995307","from":{"id":"100003616116150","name":"Nguyễn Phúc Tuấn"},"message":"Khá là cần thiết và ý nghĩa.. :D Arigatou ^^","can_remove":false,"created_time":"2014-03-26T22:42:30+0000","like_count":0,"user_likes":false}},"paging":{"cursors":{"after":"ODM5ODUyNzkyNjk4MDY2","before":"ODM5ODUyNzkyNjk4MDY2"},"next":"https://graph.facebook.com/229244010425617_839852486031430/comments?limit=1&summary=1&after=ODM5ODUyNzkyNjk4MDY2"},"summary":{"order":"chronological","total_count":13}}}