{"id":"229244010425617_839968162686529","type":"status","from":{"id":"1276901320","name":"Chu Minh"},"message":"Bạn nào có muốn tham gia vào tập đoàn Tài chính Daiichi Life Nhật Bản không ạ ?","created_time":"2014-03-26T12:55:48+0000","updated_time":"2014-03-27T00:15:24+0000","likes":{"data":{"100000110765909":{"id":"100000110765909","name":"Thảo Nguyễn"},"100007041964196":{"id":"100007041964196","name":"Ngốk Ứ Chịu Đk"},"100001432462223":{"id":"100001432462223","name":"Truong Nguyen"},"100004738262525":{"id":"100004738262525","name":"Sơn Bạch Kim SonHang"},"100003090738530":{"id":"100003090738530","name":"Ngô Thị Thanh Hường"},"100000455233291":{"id":"100000455233291","name":"Joseph Khôi"},"100004283100483":{"id":"100004283100483","name":"Mýt Ướt"},"100003217471328":{"id":"100003217471328","name":"VI Trang"}},"paging":{"cursors":{"after":"MTAwMDAwMTEwNzY1OTA5","before":"MTAwMDAwMTEwNzY1OTA5"},"next":"https://graph.facebook.com/229244010425617_839968162686529/likes?limit=1&summary=1&after=MTAwMDAwMTEwNzY1OTA5"},"summary":{"total_count":9}},"comments":{"data":{"839971026019576":{"id":"839971026019576","from":{"id":"100001416272263","name":"Mai PB"},"message":"Công việc ở VN hay ở Nhật, vị trí gì..., bạn viết rõ ra để khỏi phải hỏi nhiều.","can_remove":false,"created_time":"2014-03-26T13:01:05+0000","like_count":1,"user_likes":false},"839981479351864":{"id":"839981479351864","from":{"id":"100000603915176","name":"悪いな ぁ"},"message":"Có tuyển Giám đốc khu vực Bờ Hồ không bạn ơi?","can_remove":false,"created_time":"2014-03-26T13:22:26+0000","like_count":4,"user_likes":false},"839990812684264":{"id":"839990812684264","from":{"id":"569263718","name":"Phuong Thao Tran"},"message":"bán bảo hiểm cho tập đoàn cũng là một cách, ^^","can_remove":false,"created_time":"2014-03-26T13:41:18+0000","like_count":1,"user_likes":false},"839995719350440":{"id":"839995719350440","from":{"id":"1276901320","name":"Chu Minh"},"message":"Ở Việt nam ạ, tuyển từ quản lý đến nhân viên tư vấn ạ. Cũng gần như bạn Thảo nói ạ","can_remove":false,"created_time":"2014-03-26T13:53:41+0000","like_count":0,"user_likes":false},"839996609350351":{"id":"839996609350351","from":{"id":"569263718","name":"Phuong Thao Tran"},"message":"bạn đang ở vị trí nào, và nhánh bạn cần tuyển vị trí nào thế?","can_remove":false,"created_time":"2014-03-26T13:55:38+0000","like_count":0,"user_likes":false},"839997202683625":{"id":"839997202683625","from":{"id":"1276901320","name":"Chu Minh"},"message":"Mình đag ở vị trí Trưởng nhóm kinh doanh ở Văn phòng Thanh Xuân ! Hiện tại đội ngũ quản lý đã đủ, giờ chỉ tuyển tư vấn tài chính, nhưng ranh giới giữa 2 vị trí này cũng chỉ khoảng 3 4 tháng thôi","can_remove":false,"created_time":"2014-03-26T13:57:19+0000","like_count":0,"user_likes":false},"839999969350015":{"id":"839999969350015","from":{"id":"569263718","name":"Phuong Thao Tran"},"message":"悪いな ぁ nghề của chị đó, :D","message_tags":[{"id":"100000603915176","name":"悪いな ぁ","type":"user","offset":0,"length":5}],"can_remove":false,"created_time":"2014-03-26T14:01:44+0000","like_count":1,"user_likes":false},"840000142683331":{"id":"840000142683331","from":{"id":"100000603915176","name":"悪いな ぁ"},"message":":v","can_remove":false,"created_time":"2014-03-26T14:02:24+0000","like_count":0,"user_likes":false},"840044626012216":{"id":"840044626012216","from":{"id":"1146680551","name":"優しい なぁ"},"message":":v","can_remove":false,"created_time":"2014-03-26T15:47:20+0000","like_count":0,"user_likes":false},"840252219324790":{"id":"840252219324790","from":{"id":"100002817600730","name":"Minh Anh Vg"},"message":"ơ có đến 2 ng tên kiểu giống nhau à :o anh chị đặt tên cặp đôi à?","can_remove":false,"created_time":"2014-03-27T00:09:04+0000","like_count":0,"user_likes":false},"840252852658060":{"id":"840252852658060","from":{"id":"100002966928087","name":"Nguyen van Dat"},"message":"cặp đôi hoàn hảo đó Minh Anh Vg à","message_tags":[{"id":"100002817600730","name":"Minh Anh Vg","type":"user","offset":20,"length":11}],"can_remove":false,"created_time":"2014-03-27T00:11:07+0000","like_count":1,"user_likes":false},"840254022657943":{"id":"840254022657943","from":{"id":"100001432462223","name":"Truong Nguyen"},"message":"vì con mèo con cú xác xơ :))","can_remove":false,"created_time":"2014-03-27T00:15:24+0000","like_count":0,"user_likes":false}},"paging":{"cursors":{"after":"ODM5OTcxMDI2MDE5NTc2","before":"ODM5OTcxMDI2MDE5NTc2"},"next":"https://graph.facebook.com/229244010425617_839968162686529/comments?limit=1&summary=1&after=ODM5OTcxMDI2MDE5NTc2"},"summary":{"order":"chronological","total_count":12}}}