{"id":"229244010425617_839942409355771","type":"status","from":{"id":"100000317758240","name":"Long Cô Hồn"},"message":"Mọi người cho mình hỏi .. Phỏng vấn ở quán thịt nướng kiểu wasoku thì như thế nào .. Ai có kinh nghiểm chỉ mình với ..","created_time":"2014-03-26T11:44:28+0000","updated_time":"2014-03-26T15:57:12+0000","likes":{"data":{"100004024455277":{"id":"100004024455277","name":"Hải Long"},"100007235437741":{"id":"100007235437741","name":"Trang Virgo"},"100005903373573":{"id":"100005903373573","name":"HaLinh Phong Phan"},"100002339089186":{"id":"100002339089186","name":"Thinh Nguyen Viet"},"100000317758240":{"id":"100000317758240","name":"Long Cô Hồn"}},"paging":{"cursors":{"after":"MTAwMDA0MDI0NDU1Mjc3","before":"MTAwMDA0MDI0NDU1Mjc3"},"next":"https://graph.facebook.com/229244010425617_839942409355771/likes?limit=1&summary=1&after=MTAwMDA0MDI0NDU1Mjc3"},"summary":{"total_count":5}},"comments":{"data":{"839946562688689":{"id":"839946562688689","from":{"id":"100001876928704","name":"Kien Nguyen"},"message":"Quán nào phỏng vấn chả vậy bạn . Chỉ cần thể hiện mình thông minh , nhanh nhẹn , có thể tin tưởng là đc . :)) đừng run quá ...","can_remove":false,"created_time":"2014-03-26T11:58:16+0000","like_count":0,"user_likes":false},"839947079355304":{"id":"839947079355304","from":{"id":"100000317758240","name":"Long Cô Hồn"},"message":"Vậy hả bạn .. Nhưng tiếng mình không tốt .. Mà nó hỏi có khó không bạn","can_remove":false,"created_time":"2014-03-26T12:00:08+0000","like_count":0,"user_likes":false},"839948326021846":{"id":"839948326021846","from":{"id":"100001876928704","name":"Kien Nguyen"},"message":"Mình nghĩ tiếng chỉ cần đủ để ng ta có thể dạy mình là đc . \nHỏi thế nào thì tuỳ từng quán từng 店長 cái này ko rõ đc . Nhưng cơ bản thì họ chỉ hỏi để biết mình có đạt những tiêu chuẩn trên kia mình đã nói hay ko thôi . Chắc ko khó lắm đâu . ;))","can_remove":false,"created_time":"2014-03-26T12:04:17+0000","like_count":0,"user_likes":false},"839949136021765":{"id":"839949136021765","from":{"id":"100000317758240","name":"Long Cô Hồn"},"message":"Cảm ơn bạn .. Vì mình đi đường thấy quán tuyển thì mình gọi cách đây 1 tháng .. Giờ người ta gọi lại đi phỏng vấn .. Mình mới sang 3 tháng lên tiếng ko tốt lắm","can_remove":false,"created_time":"2014-03-26T12:06:52+0000","like_count":0,"user_likes":false},"839951036021575":{"id":"839951036021575","from":{"id":"100006129404404","name":"Tien Nguyencong"},"message":"Chào a Long e la Tien Nguyencong e cũng đang cbi sang nhật Lam đầu bếp. Vi time gấp wa nên e chưa học dc tiếng nhiều.e muốn hỏi nếu như mình ko biết giao tiếp thì sang đó mình có làm dc ko ak?","message_tags":[{"id":"100006129404404","name":"Tien Nguyencong","type":"user","offset":18,"length":15}],"can_remove":false,"created_time":"2014-03-26T12:11:43+0000","like_count":0,"user_likes":false},"839959812687364":{"id":"839959812687364","from":{"id":"100000317758240","name":"Long Cô Hồn"},"message":"Vất vả bạn à","can_remove":false,"created_time":"2014-03-26T12:32:11+0000","like_count":0,"user_likes":false},"839960152687330":{"id":"839960152687330","from":{"id":"100000317758240","name":"Long Cô Hồn"},"message":"Vì mình ko hiểu đc người ta bảo gì","can_remove":false,"created_time":"2014-03-26T12:32:31+0000","like_count":0,"user_likes":false},"839964559353556":{"id":"839964559353556","from":{"id":"100005903373573","name":"HaLinh Phong Phan"},"message":"Mình tiếng cũng kém nhưng cũng đang làm quán thịt nướng.nói chung là mình cũng nhanh nhẹn tý,hỏi cũng đơn giản thôi nhưng tloi phải to,tõ.vì làm quán cần nhất là nói to.chúc bạn may mắn","can_remove":false,"created_time":"2014-03-26T12:45:04+0000","like_count":0,"user_likes":false},"839965602686785":{"id":"839965602686785","from":{"id":"100000317758240","name":"Long Cô Hồn"},"message":"はい。ありがとございます。","can_remove":false,"created_time":"2014-03-26T12:48:20+0000","like_count":0,"user_likes":false},"839997252683620":{"id":"839997252683620","from":{"id":"100003077002305","name":"Pha Le"},"message":"Người ta thừa biết là tiếng của mình k giỏi. Nhưng người ta sẽ nhìn người  để chọn. Tiếng k phải là số 1. Vì có thể làm trong bếp sẽ k cần giao tiếp nhiều. Hjjj","can_remove":false,"created_time":"2014-03-26T13:57:25+0000","like_count":0,"user_likes":false},"839997542683591":{"id":"839997542683591","from":{"id":"100000317758240","name":"Long Cô Hồn"},"message":"Hì .. Tkanh e nha .. Mai a phỏng vấn mà .. Bỡ ngỡ và hồi hộp","can_remove":false,"created_time":"2014-03-26T13:58:12+0000","like_count":0,"user_likes":false},"840040379345974":{"id":"840040379345974","from":{"id":"100000947170967","name":"Cây Bi"},"message":"hồi hộp cũng fai cười nói k hiểu lắm cũng tươi tắn mà gật r hỏi lại :))... đấy là tí gợi ý :))","can_remove":false,"created_time":"2014-03-26T15:37:54+0000","like_count":1,"user_likes":false},"840048326011846":{"id":"840048326011846","from":{"id":"100006129404404","name":"Tien Nguyencong"},"message":"E cam ơn mọi ngươi.sơ nhất là bất đồng ngôn ngư.","can_remove":false,"created_time":"2014-03-26T15:57:12+0000","like_count":0,"user_likes":false}},"paging":{"cursors":{"after":"ODM5OTQ2NTYyNjg4Njg5","before":"ODM5OTQ2NTYyNjg4Njg5"},"next":"https://graph.facebook.com/229244010425617_839942409355771/comments?limit=1&summary=1&after=ODM5OTQ2NTYyNjg4Njg5"},"summary":{"order":"chronological","total_count":13}}}