{"id":"229244010425617_840033742679971","type":"status","from":{"id":"100002074990297","name":"Tung Phe"},"message":"Mọi ng cho mình hỏi mình muốn gửi điện thoại về việt nam theo đường bưu phẩm thì có bị đánh thuế ko .nếu có thì bao nhiêu % vậy ?","created_time":"2014-03-26T15:22:38+0000","updated_time":"2014-03-27T11:01:21+0000","likes":{"data":{"100004780953947":{"id":"100004780953947","name":"Thịnh Nguyễn"},"100001432462223":{"id":"100001432462223","name":"Truong Nguyen"},"100002398072996":{"id":"100002398072996","name":"Hoàng Long"}},"paging":{"cursors":{"after":"MTAwMDA0NzgwOTUzOTQ3","before":"MTAwMDA0NzgwOTUzOTQ3"},"next":"https://graph.facebook.com/229244010425617_840033742679971/likes?limit=1&summary=1&after=MTAwMDA0NzgwOTUzOTQ3"},"summary":{"total_count":3}},"comments":{"data":{"840034779346534":{"id":"840034779346534","from":{"id":"100005818122474","name":"Hoang Cuc"},"message":"Tot nhat dunh goi vay bj mat day.chj goi sach tay ai ve thoi ay.","can_remove":false,"created_time":"2014-03-26T15:24:39+0000","like_count":0,"user_likes":false},"840039212679424":{"id":"840039212679424","from":{"id":"100000265363169","name":"Mít Sờ Kul"},"message":"B phải nói rõ là gửi về Việt Nam! Hay gửi trog nc Nhật chứ\nNếu là gửi về Việt Nam! Thì có mất tiền đấy. Ở hải quan sẽ mất vào trăm $ thì phải ;)","can_remove":false,"created_time":"2014-03-26T15:35:01+0000","like_count":0,"user_likes":false},"840039656012713":{"id":"840039656012713","from":{"id":"100002074990297","name":"Tung Phe"},"message":"Vài trăm cơ ak @@","can_remove":false,"created_time":"2014-03-26T15:36:20+0000","like_count":1,"user_likes":false},"840039709346041":{"id":"840039709346041","from":{"id":"100002074990297","name":"Tung Phe"},"message":"Tất nhiên là gửi về vn rồi","can_remove":false,"created_time":"2014-03-26T15:36:31+0000","like_count":0,"user_likes":false},"840040189345993":{"id":"840040189345993","from":{"id":"100000265363169","name":"Mít Sờ Kul"},"message":":v đúng đấy. Khoảng 2-300 j đấy. Mà ng lấy còn bị gọi lên cục hải quan, hạch sách này nọ nữa cơ. Mendokusai yo","can_remove":false,"created_time":"2014-03-26T15:37:35+0000","like_count":1,"user_likes":false},"840041389345873":{"id":"840041389345873","from":{"id":"100002074990297","name":"Tung Phe"},"message":"Tabun yamemasu @@","can_remove":false,"created_time":"2014-03-26T15:40:07+0000","like_count":1,"user_likes":false},"840129199337092":{"id":"840129199337092","from":{"id":"100006069192327","name":"Phong Đàm"},"message":"Mấy bạn này chưa gui bao gio rồi mình nói cho mọi ng hiểu nhé gui dt ở Nhật về Việt Nam! Vd điện thoại ip5s 16g ko phải đồ ăn cắp mang đến bưu điện Nhật gửi về Việt Nam! Hết chưa đến 1.3sen đã bao gồm cả thuế và là gửi bảo đảm mình lam thủ tục trong vòng 10p một tuần sau ng nhà bạn ở Việt Nam! Nhận được mang theo giấy báo số tiền là 10% giá trị máy bạn gửi về như mình gửi ip5s 16g thì mất gần 1trieu 300 ngìn ngoài ra ko bị Hải quan nào goi lên cả và cũng chẳng bao giờ bị mất nếu bạn bị mất là cái may vì bạn được bảo hiểm gấp nhiều lần gửi thế này an toàn và yên tâm đắt Tý nhưng dt của bạn là dt nhập ngoại . Hiiii","can_remove":false,"created_time":"2014-03-26T18:57:52+0000","like_count":2,"user_likes":false},"840253119324700":{"id":"840253119324700","from":{"id":"100002074990297","name":"Tung Phe"},"message":"Phong Đàm vậy ak thank bạn nha .nếu vậy thì cũng ngang mua ở vn nhưng đc cái mác máy ngoại :D","message_tags":[{"id":"100006069192327","name":"Phong Đàm","type":"user","offset":0,"length":9}],"can_remove":false,"created_time":"2014-03-27T00:12:06+0000","like_count":0,"user_likes":false},"840255582657787":{"id":"840255582657787","from":{"id":"100000265363169","name":"Mít Sờ Kul"},"message":"Thế thì mình cũng xin trình bày là bạn m cũng đc ny gửi máy từ nhật về. Phải làm thủ tục hải quan này nọ r mới lấy đc. Còn mất bn tiền thì m k nhớ :v","can_remove":false,"created_time":"2014-03-27T00:21:34+0000","like_count":0,"user_likes":false},"840269475989731":{"id":"840269475989731","from":{"id":"100007064374589","name":"Viec Lam Osaka"},"message":"ai can gui di dong lien he minh nha :)","can_remove":false,"created_time":"2014-03-27T01:04:38+0000","like_count":0,"user_likes":false},"840350325981646":{"id":"840350325981646","from":{"id":"100002074990297","name":"Tung Phe"},"message":"Viec Lam Osaka gửi theo hình thức nào vậy bạn","can_remove":false,"created_time":"2014-03-27T05:07:44+0000","like_count":0,"user_likes":false},"840463502636995":{"id":"840463502636995","from":{"id":"100003002624141","name":"Kelly Praha"},"message":"ngồi đấy mà câu khách","can_remove":false,"created_time":"2014-03-27T11:01:21+0000","like_count":0,"user_likes":false}},"paging":{"cursors":{"after":"ODQwMDM0Nzc5MzQ2NTM0","before":"ODQwMDM0Nzc5MzQ2NTM0"},"next":"https://graph.facebook.com/229244010425617_840033742679971/comments?limit=1&summary=1&after=ODQwMDM0Nzc5MzQ2NTM0"},"summary":{"order":"chronological","total_count":12}}}