{"id":"229244010425617_840022636014415","type":"photo","object_id":"715161241839916","picture":"https://fbcdn-photos-d-a.akamaihd.net/hphotos-ak-ash3/t1.0-0/1974985_715161241839916_182454149_s.jpg","link":"https://www.facebook.com/photo.php?fbid=715161241839916&set=gm.840022636014415&type=1&relevant_count=1","from":{"id":"100000381394367","name":"Thành Nguyễn"},"message":"Những ai có đủ dũng khí dám chịu đựng những thất bại bi thảm thì sẽ gặt hái được những thành công lớn lao vĩ đại.\n\n思い切って悲惨な失敗をする勇気のある者は、大成功を収め得る\n\n(おも)い(き)って(ひさん)な(しっぱい)をする(ゆうき)のある(もの)は、(たいせいこう)を(おさ)め(え)る\n\nOmoikitte hisanna shippai o suru yuuki no aru mono wa, taiseikou o osame eru\n\nChữ Hán \n\n思: Tư\n\n切: Thiết \n\n悲惨: Bi thảm\n\n失敗: Thất bại \n\n勇気: Dũng khí \n\n者：Giả \n\n大成功: Đại thành công\n\n収: Thu \n\n得: Đắc","created_time":"2014-03-26T14:59:25+0000","updated_time":"2014-03-27T02:07:20+0000","likes":{"data":{"100001526631937":{"id":"100001526631937","name":"Tường Oanh Mineko"},"100004945864137":{"id":"100004945864137","name":"Luu Huong"},"1122379216":{"id":"1122379216","name":"Hà Ngô"},"100001754136107":{"id":"100001754136107","name":"Nguyễn Tuấn Vũ"},"100005344084736":{"id":"100005344084736","name":"Nhất Nhất"},"100004452123869":{"id":"100004452123869","name":"Pham Tiên Bach"},"100003164753650":{"id":"100003164753650","name":"Nguyen Linhvi"},"100005211189763":{"id":"100005211189763","name":"Oliveu Cchann"},"100003913383051":{"id":"100003913383051","name":"Tho Tran"},"100003528526137":{"id":"100003528526137","name":"Nobu Mashiko"},"100003948755020":{"id":"100003948755020","name":"Cú Đêm"},"100002716525116":{"id":"100002716525116","name":"Nguyễn Tất Nguyên"},"100007963716784":{"id":"100007963716784","name":"Ninh Thị Hường"},"100006421833869":{"id":"100006421833869","name":"Tiểu Ngư"},"100002745859939":{"id":"100002745859939","name":"Vũ Lợi"},"100003182647292":{"id":"100003182647292","name":"Trương Thị Lan Phương"},"100000500260636":{"id":"100000500260636","name":"Lưu Nguyễn Thảo Tiên"},"100004128252349":{"id":"100004128252349","name":"Vô Ưu"},"100005390825802":{"id":"100005390825802","name":"Tuylip Trắng"},"100002290906582":{"id":"100002290906582","name":"Kanashimi No Yukue"},"100000363320234":{"id":"100000363320234","name":"Nguyen Cuong"},"100003587314679":{"id":"100003587314679","name":"Why Die"},"100006014164976":{"id":"100006014164976","name":"Bình Bông"},"100004454592879":{"id":"100004454592879","name":"Manh Tuong"},"100003126960428":{"id":"100003126960428","name":"Binh X Dtvt"},"1146680551":{"id":"1146680551","name":"優しい なぁ"},"100001557981751":{"id":"100001557981751","name":"Hồ Ngọc Khanh"},"100000221147466":{"id":"100000221147466","name":"Kiệt Nguyễn"},"100008010333387":{"id":"100008010333387","name":"Eagle Vothuong"},"100003138416201":{"id":"100003138416201","name":"Duy Viet"},"100003167606106":{"id":"100003167606106","name":"Trang Mèo"},"100004800542357":{"id":"100004800542357","name":"Nguyen Luyen"},"100000017007673":{"id":"100000017007673","name":"Hồ Vương Phi"},"100000903819210":{"id":"100000903819210","name":"Huong Quach"},"100002898154513":{"id":"100002898154513","name":"Gã Shrek"},"100004374631332":{"id":"100004374631332","name":"Huyền Pomigc"},"100003213171499":{"id":"100003213171499","name":"Van Nguyen"},"100000089472724":{"id":"100000089472724","name":"Duy Nguyen"}},"paging":{"cursors":{"after":"MTAwMDAxNTI2NjMxOTM3","before":"MTAwMDAxNTI2NjMxOTM3"},"next":"https://graph.facebook.com/229244010425617_840022636014415/likes?limit=1&summary=1&after=MTAwMDAxNTI2NjMxOTM3"},"summary":{"total_count":38}},"comments":{"data":{"840024312680914":{"id":"840024312680914","from":{"id":"100000089472724","name":"Duy Nguyen"},"message":"từ dare trong tiếng Nhật là gì vậy anh, trong nhiều trường hợp có thể sử dụng như tiếng anh đuwoc không anh","can_remove":false,"created_time":"2014-03-26T15:02:27+0000","like_count":0,"user_likes":false},"840025199347492":{"id":"840025199347492","from":{"id":"569263718","name":"Phuong Thao Tran"},"message":"収めうる chứ nhỉ","can_remove":false,"created_time":"2014-03-26T15:04:52+0000","like_count":0,"user_likes":false},"840025219347490":{"id":"840025219347490","from":{"id":"100000381394367","name":"Thành Nguyễn"},"message":"dare 思い切って","can_remove":false,"created_time":"2014-03-26T15:04:58+0000","like_count":0,"user_likes":false},"840025869347425":{"id":"840025869347425","from":{"id":"100000381394367","name":"Thành Nguyễn"},"message":"Phuong Thao Tran như nhau chị ạ","message_tags":[{"id":"569263718","name":"Phuong Thao Tran","type":"user","offset":0,"length":16}],"can_remove":false,"created_time":"2014-03-26T15:06:15+0000","like_count":0,"user_likes":false},"840026879347324":{"id":"840026879347324","from":{"id":"569263718","name":"Phuong Thao Tran"},"message":"chị chỉ nhớ phủ định thì đọc e, khẳng điịnh thì đọc u","can_remove":false,"created_time":"2014-03-26T15:07:28+0000","like_count":1,"user_likes":false},"840036979346314":{"id":"840036979346314","from":{"id":"1146680551","name":"優しい なぁ"},"message":"Ngược lại vs 勇気 => 内気？ hả anh đẹp trai?","can_remove":false,"created_time":"2014-03-26T15:29:25+0000","like_count":0,"user_likes":false},"840288822654463":{"id":"840288822654463","from":{"id":"100000381394367","name":"Thành Nguyễn"},"message":"Nope","can_remove":false,"created_time":"2014-03-27T02:06:06+0000","like_count":0,"user_likes":false},"840289039321108":{"id":"840289039321108","from":{"id":"100000381394367","name":"Thành Nguyễn"},"message":"Phuong Thao Tran chị có nguồn nào thì share luôn ra đây cho mọi người biết để cùng kiểm định. Không được lại nhờ mấy bác Nhật ra check","message_tags":[{"id":"569263718","name":"Phuong Thao Tran","type":"user","offset":0,"length":16}],"can_remove":false,"created_time":"2014-03-27T02:07:20+0000","like_count":0,"user_likes":false}},"paging":{"cursors":{"after":"ODQwMDI0MzEyNjgwOTE0","before":"ODQwMDI0MzEyNjgwOTE0"},"next":"https://graph.facebook.com/229244010425617_840022636014415/comments?limit=1&summary=1&after=ODQwMDI0MzEyNjgwOTE0"},"summary":{"order":"chronological","total_count":8}}}