{"id":"229244010425617_840176995998979","type":"video","picture":"https://fbexternal-a.akamaihd.net/safe_image.php?d=AQD7MnA4h-bh2KNn&w=130&h=130&url=http%3A%2F%2Fi1.ytimg.com%2Fvi%2FND4jBSU841U%2Fhqdefault.jpg","link":"http://www.youtube.com/watch?v=ND4jBSU841U&feature=youtu.be","source":"http://www.youtube.com/v/ND4jBSU841U?version=3&autohide=1&autoplay=1","from":{"id":"1725907325","name":"Nguyen Van Dung"},"message":"皆さん！おはようございます。\nChào buổi sáng\n\nアルバイトのめんせつの日本語です。べんきょうしてね","created_time":"2014-03-26T21:12:15+0000","updated_time":"2014-03-27T01:31:56+0000","likes":{"data":{"100007283736355":{"id":"100007283736355","name":"John Dinh"},"100007157165760":{"id":"100007157165760","name":"Yen Luong"},"100003733592186":{"id":"100003733592186","name":"Tuyền Lucy"},"100006652475501":{"id":"100006652475501","name":"Ha Huyen"},"100006608737930":{"id":"100006608737930","name":"Tùng Linh"},"100003961115216":{"id":"100003961115216","name":"Chang Pham"},"100003676414929":{"id":"100003676414929","name":"Au Kute"},"584018147":{"id":"584018147","name":"Bui Cat Dung"},"100000271705877":{"id":"100000271705877","name":"Nguyễn Văn Minh"},"100000110765909":{"id":"100000110765909","name":"Thảo Nguyễn"},"100004601049837":{"id":"100004601049837","name":"Hồng Lê"},"100002978461829":{"id":"100002978461829","name":"Hải Romeo"},"100001533106767":{"id":"100001533106767","name":"Nguyễn Minh Châu"},"100002919111331":{"id":"100002919111331","name":"Mí Rưỡi"},"100003896447803":{"id":"100003896447803","name":"Cu Bé"},"100003791297494":{"id":"100003791297494","name":"Thanh Ha Nguyen"},"100000081154861":{"id":"100000081154861","name":"Nguyen Hau"},"100004104063189":{"id":"100004104063189","name":"Dương Lê"},"100006935774342":{"id":"100006935774342","name":"Thuan  Tran Cong"},"100006734168968":{"id":"100006734168968","name":"Tiểu Nhân Mã"},"100003188105866":{"id":"100003188105866","name":"Momiji Chan"},"100004631352808":{"id":"100004631352808","name":"Sang Sury"},"100002661784608":{"id":"100002661784608","name":"Aya Shika"},"100004323840390":{"id":"100004323840390","name":"Thanh Duong Tran"},"100001611788666":{"id":"100001611788666","name":"LumLy Cờ Rai"},"100002886424009":{"id":"100002886424009","name":"Cơn Gió"},"100003242552199":{"id":"100003242552199","name":"Kim Anh Dang"},"1234763221":{"id":"1234763221","name":"Samatha Sam"},"100000306782110":{"id":"100000306782110","name":"Thuy Linh Dong"},"100001526631937":{"id":"100001526631937","name":"Tường Oanh Mineko"},"100003005273179":{"id":"100003005273179","name":"Hoang Dat"},"100002911645950":{"id":"100002911645950","name":"Củ Cải"},"1000015524":{"id":"1000015524","name":"Hong Vo"},"100003837141956":{"id":"100003837141956","name":"Mai Hoàng"},"100000143852350":{"id":"100000143852350","name":"Candy Tran"},"100002899304947":{"id":"100002899304947","name":"Bùi Hưng"},"100002913281005":{"id":"100002913281005","name":"Hà Mã"},"100003486467129":{"id":"100003486467129","name":"YU GI"},"100002453337030":{"id":"100002453337030","name":"Hien Bui Thi"},"100003105034037":{"id":"100003105034037","name":"Pham Oanh"},"100007346561551":{"id":"100007346561551","name":"Nguyễn Ngọc Lịch"},"100004075370074":{"id":"100004075370074","name":"Hanh NguyenThi"},"100004716847212":{"id":"100004716847212","name":"Khoa Lưu"},"100000677259087":{"id":"100000677259087","name":"Hue Lily"},"100006248492836":{"id":"100006248492836","name":"Lee Dat"},"740222053":{"id":"740222053","name":"Mizue Sato"},"100000387104744":{"id":"100000387104744","name":"No Xitar"},"100003188540285":{"id":"100003188540285","name":"Đầu Gấu Xấu Trai"},"1625381846":{"id":"1625381846","name":"Truong Thanh"},"1741100435":{"id":"1741100435","name":"Vo Chuoichien"},"100003090738530":{"id":"100003090738530","name":"Ngô Thị Thanh Hường"},"100001557981751":{"id":"100001557981751","name":"Hồ Ngọc Khanh"},"100006566923361":{"id":"100006566923361","name":"Nguyễn Thiện"},"100003707341912":{"id":"100003707341912","name":"Hằng Nga Nguyễn"},"100004454592879":{"id":"100004454592879","name":"Manh Tuong"},"100003307609044":{"id":"100003307609044","name":"Ha Jp"},"100000174004700":{"id":"100000174004700","name":"Nguyễn Việt Hưng"},"569263718":{"id":"569263718","name":"Phuong Thao Tran"},"100000022163023":{"id":"100000022163023","name":"Kafe Ore"},"623733188":{"id":"623733188","name":"Bui Hung Manh"},"100001754136107":{"id":"100001754136107","name":"Nguyễn Tuấn Vũ"},"100001595239903":{"id":"100001595239903","name":"Tran Binh Minh"},"100004039857628":{"id":"100004039857628","name":"Yen Chu"},"100005127511607":{"id":"100005127511607","name":"Cobe Kaun"},"100006471746860":{"id":"100006471746860","name":"Hoang Chung"},"100003227211791":{"id":"100003227211791","name":"Lan Lan"},"100001078275630":{"id":"100001078275630","name":"Thienbao Cao"},"100001518348768":{"id":"100001518348768","name":"Nguyễn Trọng Tước"},"100007930417031":{"id":"100007930417031","name":"Trang Yamato"},"100004519480434":{"id":"100004519480434","name":"Be Bi"},"100000084925115":{"id":"100000084925115","name":"Ba Duan Nguyen"},"1816269439":{"id":"1816269439","name":"Dao Ngoc"},"100003134547680":{"id":"100003134547680","name":"Thee Pham"},"100003155380603":{"id":"100003155380603","name":"Khuong Pham"},"100004205949182":{"id":"100004205949182","name":"Nơi Em Chờ Anh"},"100001415407078":{"id":"100001415407078","name":"Kha Pham"},"100001924061448":{"id":"100001924061448","name":"Morikawa Hiroyuki"},"100003465567929":{"id":"100003465567929","name":"Lê Chi"},"100003918707209":{"id":"100003918707209","name":"Thunguyet Nguyen"},"100005734772637":{"id":"100005734772637","name":"Daj Anh Hang"},"100000218686831":{"id":"100000218686831","name":"Ngố Tàu"},"100002139602541":{"id":"100002139602541","name":"Shunya Tamaki"},"100003753755703":{"id":"100003753755703","name":"Dinh Kim Thuy"},"100002611874779":{"id":"100002611874779","name":"Trung Nguyễn"},"100002463709594":{"id":"100002463709594","name":"Nguyen Huyen Thanh"},"100002716525116":{"id":"100002716525116","name":"Nguyễn Tất Nguyên"}},"paging":{"cursors":{"after":"MTAwMDA3MjgzNzM2MzU1","before":"MTAwMDA3MjgzNzM2MzU1"},"next":"https://graph.facebook.com/229244010425617_840176995998979/likes?limit=1&summary=1&after=MTAwMDA3MjgzNzM2MzU1"},"summary":{"total_count":86}},"comments":{"data":{"840181182665227":{"id":"840181182665227","from":{"id":"100002716525116","name":"Nguyễn Tất Nguyên"},"message":"いいね、どうも　ありがとう。","can_remove":false,"created_time":"2014-03-26T21:23:34+0000","like_count":1,"user_likes":false},"840186375998041":{"id":"840186375998041","from":{"id":"1725907325","name":"Nguyen Van Dung"},"message":"アルバイトだったんですか？","can_remove":false,"created_time":"2014-03-26T21:39:43+0000","like_count":0,"user_likes":false},"840237089326303":{"id":"840237089326303","from":{"id":"100005734772637","name":"Daj Anh Hang"},"message":"Ban oi Minh muon tai Phan nghe dam thoai giao tiep tieng nhan vay ban cho Minh hoi dung iPhone thi vao Phan nao dc a","can_remove":false,"created_time":"2014-03-26T23:17:10+0000","like_count":0,"user_likes":false},"840270195989659":{"id":"840270195989659","from":{"id":"100004039857628","name":"Yen Chu"},"message":"いいね。とても必要です","can_remove":false,"created_time":"2014-03-27T01:06:01+0000","like_count":0,"user_likes":false},"840274932655852":{"id":"840274932655852","from":{"id":"100001754136107","name":"Nguyễn Tuấn Vũ"},"message":"ありがとうございました。シェアしてもよろしいですか？","can_remove":false,"created_time":"2014-03-27T01:22:12+0000","like_count":1,"user_likes":false},"840278432655502":{"id":"840278432655502","from":{"id":"100005288370382","name":"Đức Vang"},"message":"Hoàng Chính","message_tags":[{"id":"100000628549116","name":"Hoàng Chính","type":"user","offset":0,"length":11}],"can_remove":false,"created_time":"2014-03-27T01:31:56+0000","like_count":0,"user_likes":false}},"paging":{"cursors":{"after":"ODQwMTgxMTgyNjY1MjI3","before":"ODQwMTgxMTgyNjY1MjI3"},"next":"https://graph.facebook.com/229244010425617_840176995998979/comments?limit=1&summary=1&after=ODQwMTgxMTgyNjY1MjI3"},"summary":{"order":"chronological","total_count":6}}}