{"id":"229244010425617_840370382646307","type":"status","from":{"id":"100001243411261","name":"Ngưu Tỷ Tỷ"},"message":"Em đi làm ở chỗ quán thịt nướng, có anh đầu bếp suốt này chọc em, mà em chỉ biết nhe răng cười, các \nsenpai dạy em vài câu chém lại đi ạ. Càng shock càng tốt :))\nCho em luôn cái nghĩa đi ạ .","created_time":"2014-03-27T06:06:47+0000","updated_time":"2014-03-27T16:34:14+0000","likes":{"data":{"100003749042557":{"id":"100003749042557","name":"Masashi  Shimizu"},"100003877275415":{"id":"100003877275415","name":"Yuki"},"100003648027273":{"id":"100003648027273","name":"Minh Phương Bùi"},"100005127511607":{"id":"100005127511607","name":"Cobe Kaun"},"100004101288567":{"id":"100004101288567","name":"Thanh Dũng"},"100001416272263":{"id":"100001416272263","name":"Mai PB"},"100002975299796":{"id":"100002975299796","name":"Trinh Tuan Anh"},"1403031497":{"id":"1403031497","name":"Hoa Blue"},"100004625980804":{"id":"100004625980804","name":"Văn Đài"},"100003090738530":{"id":"100003090738530","name":"Ngô Thị Thanh Hường"},"100003494367969":{"id":"100003494367969","name":"Chuyền MU"},"100007880444320":{"id":"100007880444320","name":"自由"},"100007988441472":{"id":"100007988441472","name":"Sống Mòn"},"100004004426525":{"id":"100004004426525","name":"Vi Trùng"},"100005602718646":{"id":"100005602718646","name":"Hiếu Phan"}},"paging":{"cursors":{"after":"MTAwMDAzNzQ5MDQyNTU3","before":"MTAwMDAzNzQ5MDQyNTU3"},"next":"https://graph.facebook.com/229244010425617_840370382646307/likes?limit=1&summary=1&after=MTAwMDAzNzQ5MDQyNTU3"},"summary":{"total_count":16}},"comments":{"data":{"840371029312909":{"id":"840371029312909","from":{"id":"1146680551","name":"優しい なぁ"},"message":"早いすぎる（＾Ｏ＾）","can_remove":false,"created_time":"2014-03-27T06:07:57+0000","like_count":1,"user_likes":false},"840371465979532":{"id":"840371465979532","from":{"id":"100001243411261","name":"Ngưu Tỷ Tỷ"},"message":"cho em cái nghĩa đi ạ","can_remove":false,"created_time":"2014-03-27T06:08:37+0000","like_count":0,"user_likes":false},"840371975979481":{"id":"840371975979481","from":{"id":"569263718","name":"Phuong Thao Tran"},"message":"[các em senpai dạy em vài câu chém lại đi ạ]<-- câu này cũng shock ^^","can_remove":false,"created_time":"2014-03-27T06:09:57+0000","like_count":5,"user_likes":false},"840371989312813":{"id":"840371989312813","from":{"id":"100004784233958","name":"NO Bita"},"message":"すけべ","can_remove":false,"created_time":"2014-03-27T06:10:00+0000","like_count":4,"user_likes":false},"840373245979354":{"id":"840373245979354","from":{"id":"1146680551","name":"優しい なぁ"},"message":"Em nói câu này ra zui lắm á :3","can_remove":false,"created_time":"2014-03-27T06:12:09+0000","like_count":0,"user_likes":false},"840373379312674":{"id":"840373379312674","from":{"id":"100001243411261","name":"Ngưu Tỷ Tỷ"},"message":"đừng có chơi đểu em chứ,khổ thân, huhu","can_remove":false,"created_time":"2014-03-27T06:12:40+0000","like_count":1,"user_likes":false},"840373792645966":{"id":"840373792645966","from":{"id":"100004784233958","name":"NO Bita"},"message":"Ai dám chơi đểu e....","can_remove":false,"created_time":"2014-03-27T06:13:51+0000","like_count":0,"user_likes":false},"840373812645964":{"id":"840373812645964","from":{"id":"100001243411261","name":"Ngưu Tỷ Tỷ"},"message":"Phuong Thao Tran gomennasai :)","message_tags":[{"id":"569263718","name":"Phuong Thao Tran","type":"user","offset":0,"length":16}],"can_remove":false,"created_time":"2014-03-27T06:14:02+0000","like_count":0,"user_likes":false},"840374992645846":{"id":"840374992645846","from":{"id":"100004345809744","name":"Đỗ Tuấn"},"message":"Hentai !!!","can_remove":false,"created_time":"2014-03-27T06:14:55+0000","like_count":1,"user_likes":false},"840375982645747":{"id":"840375982645747","from":{"id":"100001243411261","name":"Ngưu Tỷ Tỷ"},"message":"suốt ngày cứ bị bắt nạt từ chỗ làm đến chuyện lên group cũng thế ...haizzz","can_remove":false,"created_time":"2014-03-27T06:15:28+0000","like_count":0,"user_likes":false},"840376189312393":{"id":"840376189312393","from":{"id":"100004784233958","name":"NO Bita"},"message":"Bảo あいしてでしょう cũng dc","can_remove":false,"created_time":"2014-03-27T06:16:09+0000","like_count":2,"user_likes":false},"840376282645717":{"id":"840376282645717","from":{"id":"100001243411261","name":"Ngưu Tỷ Tỷ"},"message":"Đỗ Tuấn em cũng nghi có mùi này :)","can_remove":false,"created_time":"2014-03-27T06:16:33+0000","like_count":0,"user_likes":false},"840376415979037":{"id":"840376415979037","from":{"id":"1146680551","name":"優しい なぁ"},"message":"Mà nó trêu em cái gì mới đc chứ :)","can_remove":false,"created_time":"2014-03-27T06:17:07+0000","like_count":1,"user_likes":false},"840377492645596":{"id":"840377492645596","from":{"id":"100001243411261","name":"Ngưu Tỷ Tỷ"},"message":"Hoàn cảnh 1 : Dạo này mập ra zữ hen, bộ có bầu hả?... @@\nHoàn cảnh 2: Làm gì cũng không xong, nghỉ việc đi","can_remove":false,"created_time":"2014-03-27T06:21:58+0000","like_count":0,"user_likes":false},"840377592645586":{"id":"840377592645586","from":{"id":"100002093975536","name":"Thùy Trang Nguyễn"},"message":"早すぎるmới đúng a 優しい なぁơi.","message_tags":[{"id":"1146680551","name":"優しい なぁ","type":"user","offset":15,"length":6}],"can_remove":false,"created_time":"2014-03-27T06:22:24+0000","like_count":2,"user_likes":false},"840377739312238":{"id":"840377739312238","from":{"id":"100001243411261","name":"Ngưu Tỷ Tỷ"},"message":"Thùy Trang Nguyễn nghĩa là gì chị ơi","message_tags":[{"id":"100002093975536","name":"Thùy Trang Nguyễn","type":"user","offset":0,"length":17}],"can_remove":false,"created_time":"2014-03-27T06:23:12+0000","like_count":0,"user_likes":false},"840377859312226":{"id":"840377859312226","from":{"id":"100001243411261","name":"Ngưu Tỷ Tỷ"},"message":"Hoàn cảnh 3: Ồn ào quá đi !","can_remove":false,"created_time":"2014-03-27T06:23:53+0000","like_count":0,"user_likes":false},"840378015978877":{"id":"840378015978877","from":{"id":"1146680551","name":"優しい なぁ"},"message":"Hoàn ảnh một: 多分ね。あなたのせいかなあ","can_remove":false,"created_time":"2014-03-27T06:24:38+0000","like_count":5,"user_likes":false},"840378125978866":{"id":"840378125978866","from":{"id":"1146680551","name":"優しい なぁ"},"message":"Hoàn cảnh 2: 気にしなくていいよ","can_remove":false,"created_time":"2014-03-27T06:25:12+0000","like_count":3,"user_likes":false},"840378192645526":{"id":"840378192645526","from":{"id":"1146680551","name":"優しい なぁ"},"message":"Hoàn ảnh 3: うるせ〜じゃねえ〜","can_remove":false,"created_time":"2014-03-27T06:25:31+0000","like_count":2,"user_likes":false},"840378692645476":{"id":"840378692645476","from":{"id":"100001243411261","name":"Ngưu Tỷ Tỷ"},"message":"Hoàn cảnh 1: nói xong chắc lão nghỉ việc 2 tháng  dưỡng thương mất thôi...khà khà","can_remove":false,"created_time":"2014-03-27T06:27:33+0000","like_count":1,"user_likes":false},"840380202645325":{"id":"840380202645325","from":{"id":"1146680551","name":"優しい なぁ"},"message":":v hc1: よくわからないね。でもさ~可能性あるかなあ~ 酔っ払った時、誰と忘れちゃったんで、困るなあ（＾Ｏ＾）","can_remove":false,"created_time":"2014-03-27T06:30:42+0000","like_count":5,"user_likes":false},"840380722645273":{"id":"840380722645273","from":{"id":"1146680551","name":"優しい なぁ"},"message":"Hc2: 頑張ってるよ。うるせ〜なあ","can_remove":false,"created_time":"2014-03-27T06:32:10+0000","like_count":1,"user_likes":false},"840381189311893":{"id":"840381189311893","from":{"id":"100001243411261","name":"Ngưu Tỷ Tỷ"},"message":"vâng, em mà trả lời hoàn cảnh 1 như anh dạy thì tenchou sẽ biến hoàn ảnh 2 của em thành sự thật mất thôi :))","can_remove":false,"created_time":"2014-03-27T06:33:30+0000","like_count":0,"user_likes":false},"840381415978537":{"id":"840381415978537","from":{"id":"100000262143403","name":"Có Gì Hót"},"message":"Mỗi  lần nó \"chọc\" bảo nó くそったれ","can_remove":false,"created_time":"2014-03-27T06:34:06+0000","like_count":1,"user_likes":false},"840381422645203":{"id":"840381422645203","from":{"id":"100002093975536","name":"Thùy Trang Nguyễn"},"message":"Hc2:あんたをずっと見てるから、何もうまく出来ないよ！どうしよう~。あんたのせいじゃないの？","can_remove":false,"created_time":"2014-03-27T06:34:06+0000","like_count":2,"user_likes":false},"840381979311814":{"id":"840381979311814","from":{"id":"1146680551","name":"優しい なぁ"},"message":"ダメ~汚い có gì hót","can_remove":false,"created_time":"2014-03-27T06:34:49+0000","like_count":1,"user_likes":false},"840382399311772":{"id":"840382399311772","from":{"id":"100002093975536","name":"Thùy Trang Nguyễn"},"message":"Có Gì Hót:悪い言葉だな！ダメ！:)","can_remove":false,"created_time":"2014-03-27T06:35:47+0000","like_count":3,"user_likes":false},"840382842645061":{"id":"840382842645061","from":{"id":"100000262143403","name":"Có Gì Hót"},"message":"そそ","can_remove":false,"created_time":"2014-03-27T06:36:28+0000","like_count":0,"user_likes":false},"840382885978390":{"id":"840382885978390","from":{"id":"100002093975536","name":"Thùy Trang Nguyễn"},"message":"Ngưu Tỷ Tỷ: đẹp zai thì tán luôn đi, có gì phải xoắn! :v","message_tags":[{"id":"100001243411261","name":"Ngưu Tỷ Tỷ","type":"user","offset":0,"length":10}],"can_remove":false,"created_time":"2014-03-27T06:36:38+0000","like_count":3,"user_likes":false},"840384265978252":{"id":"840384265978252","from":{"id":"1146680551","name":"優しい なぁ"},"message":"Không tán được thì để Thuỳ Trang Nguyễn :3","can_remove":false,"created_time":"2014-03-27T06:40:36+0000","like_count":3,"user_likes":false},"840384339311578":{"id":"840384339311578","from":{"id":"100001243411261","name":"Ngưu Tỷ Tỷ"},"message":"lão là Sain của quán, sau sự việc em cứ rót bia trước rồi làm các đồ uống khác sau, bị tenchou làm thịt 1 trận, thì mọi người đã nhất trí để lão làm sensei của em, cho nên mỗi lần em làm sai là lão cứ đánh vào đầu, chửi tùm lum tà la, khổ thân!","can_remove":false,"created_time":"2014-03-27T06:40:52+0000","like_count":0,"user_likes":false},"840384705978208":{"id":"840384705978208","from":{"id":"100002093975536","name":"Thùy Trang Nguyễn"},"message":"優しい なぁ：e ở VN rồi, có muốn tán cũng chịu thôi! :v","message_tags":[{"id":"1146680551","name":"優しい なぁ","type":"user","offset":0,"length":6}],"can_remove":false,"created_time":"2014-03-27T06:41:43+0000","like_count":1,"user_likes":false},"840385325978146":{"id":"840385325978146","from":{"id":"100001243411261","name":"Ngưu Tỷ Tỷ"},"message":"Cảm ơn mọi người ...hehe","can_remove":false,"created_time":"2014-03-27T06:42:47+0000","like_count":0,"user_likes":false},"840385572644788":{"id":"840385572644788","from":{"id":"100002093975536","name":"Thùy Trang Nguyễn"},"message":"hixx, thương thế. Cái câu \"Không nên đánh phụ nữ dù chỉ bằng 1 cành hoa\" dịch qua tiếng Nhật sao thế các bác??","can_remove":false,"created_time":"2014-03-27T06:43:06+0000","like_count":1,"user_likes":false},"840385915978087":{"id":"840385915978087","from":{"id":"1146680551","name":"優しい なぁ"},"message":"僕の訳: bằng gậy bóng chày :))","can_remove":false,"created_time":"2014-03-27T06:44:19+0000","like_count":1,"user_likes":false},"840386319311380":{"id":"840386319311380","from":{"id":"100001243411261","name":"Ngưu Tỷ Tỷ"},"message":"ôi tâm hồn của anh Tiểu Hổ thật là trong trắng @@","can_remove":false,"created_time":"2014-03-27T06:45:44+0000","like_count":2,"user_likes":false},"840387372644608":{"id":"840387372644608","from":{"id":"1146680551","name":"優しい なぁ"},"message":"","can_remove":false,"created_time":"2014-03-27T06:50:37+0000","like_count":0,"user_likes":false},"840388995977779":{"id":"840388995977779","from":{"id":"100001243411261","name":"Ngưu Tỷ Tỷ"},"message":"そっか？ごめんね。。ひひ","can_remove":false,"created_time":"2014-03-27T06:55:22+0000","like_count":0,"user_likes":false},"840390819310930":{"id":"840390819310930","from":{"id":"100001156666759","name":"Kenshuu Steam"},"message":"","can_remove":false,"created_time":"2014-03-27T07:03:22+0000","like_count":3,"user_likes":false},"840394242643921":{"id":"840394242643921","from":{"id":"100001243411261","name":"Ngưu Tỷ Tỷ"},"message":"hôm bữa bị tenchou mắng vì vừa làm vừa giỡn mặt, mà còn nói ra câu này nữa chắc chít..hic","can_remove":false,"created_time":"2014-03-27T07:06:23+0000","like_count":0,"user_likes":false},"840396329310379":{"id":"840396329310379","from":{"id":"100001156666759","name":"Kenshuu Steam"},"message":"thì cãi lại là thằng trong bếp nó trọc tao chứ có phải tao dỡn đâu","can_remove":false,"created_time":"2014-03-27T07:13:05+0000","like_count":0,"user_likes":false},"840397045976974":{"id":"840397045976974","from":{"id":"100001243411261","name":"Ngưu Tỷ Tỷ"},"message":"vậy là phải nói rằng 先生が私をいじめた、私はちゃんとやっているんですよ。có đúng không?","can_remove":false,"created_time":"2014-03-27T07:16:57+0000","like_count":0,"user_likes":false},"840401672643178":{"id":"840401672643178","from":{"id":"100002087805613","name":"Hiền Long"},"message":"\"ittai nanno desu ka?\"...áp dụng cho mọi hoàn cảnh","can_remove":false,"created_time":"2014-03-27T07:34:25+0000","like_count":2,"user_likes":false},"840410562642289":{"id":"840410562642289","from":{"id":"100005953833214","name":"Roro Zoro"},"message":"畜生、てめーこれーっていえば、ちょうどいい、\nエロい❗️","can_remove":false,"created_time":"2014-03-27T08:12:15+0000","like_count":1,"user_likes":false},"840411632642182":{"id":"840411632642182","from":{"id":"100001243411261","name":"Ngưu Tỷ Tỷ"},"message":";không hiểu nghĩa anh ơi","can_remove":false,"created_time":"2014-03-27T08:15:14+0000","like_count":0,"user_likes":false},"840427335973945":{"id":"840427335973945","from":{"id":"100006787353477","name":"Tuấn Thật Thà"},"message":"Mình nói lại bằng tiếng việt nó cũng ko hiểu :))","can_remove":false,"created_time":"2014-03-27T08:50:43+0000","like_count":1,"user_likes":false},"840428109307201":{"id":"840428109307201","from":{"id":"100001243411261","name":"Ngưu Tỷ Tỷ"},"message":"hôm bữa em nhìn chằm chằm vào mặt lão nói Tiếng Việt , cái mặt lão ngây ra đúng là hài hước mà....:))","can_remove":false,"created_time":"2014-03-27T08:53:12+0000","like_count":1,"user_likes":false},"840429925973686":{"id":"840429925973686","from":{"id":"100005953833214","name":"Roro Zoro"},"message":"Đm thằng súc sinh dê cụ :)) nghĩa đấy","can_remove":false,"created_time":"2014-03-27T09:01:40+0000","like_count":0,"user_likes":false},"840431539306858":{"id":"840431539306858","from":{"id":"100001526631937","name":"Tường Oanh Mineko"},"message":"Roro Zoro , bạn kìm nén cảm xúc chút ha, nơi công cộng mà. Thay từ ngữ chút, bạn sẽ dễ thương hơn á :D","can_remove":false,"created_time":"2014-03-27T09:07:21+0000","like_count":1,"user_likes":false},"840432529306759":{"id":"840432529306759","from":{"id":"100001243411261","name":"Ngưu Tỷ Tỷ"},"message":"@@","can_remove":false,"created_time":"2014-03-27T09:11:12+0000","like_count":0,"user_likes":false},"840433659306646":{"id":"840433659306646","from":{"id":"100000270744242","name":"Rock Trong Tôi"},"message":"em phải nói câu お前、黙ってろよう。","can_remove":false,"created_time":"2014-03-27T09:13:29+0000","like_count":1,"user_likes":false},"840436092639736":{"id":"840436092639736","from":{"id":"100001243411261","name":"Ngưu Tỷ Tỷ"},"message":"có hơi thất lễ không?","can_remove":false,"created_time":"2014-03-27T09:20:10+0000","like_count":0,"user_likes":false},"840436719306340":{"id":"840436719306340","from":{"id":"100000270744242","name":"Rock Trong Tôi"},"message":"anh ko biết. thử nói xem kết qua thế nào","can_remove":false,"created_time":"2014-03-27T09:22:16+0000","like_count":0,"user_likes":false},"840437575972921":{"id":"840437575972921","from":{"id":"100002093975536","name":"Thùy Trang Nguyễn"},"message":"cơ bản là mình nói những điều ấy thì có giải quyết được hay không thôi? Chưa xét là làm mất hình ảnh người VN mình, mà trước hết là giá trị bản thân mình đã. nói hỗn làm gì khi nó không thay đổi cục diện? :v hướng đi nào là tùy bạn Ngưu Tỷ Tỷ quyết định mà, theo mình thì thi thoảng nói đùa lại là được.","can_remove":false,"created_time":"2014-03-27T09:24:58+0000","like_count":1,"user_likes":false},"840437885972890":{"id":"840437885972890","from":{"id":"100001243411261","name":"Ngưu Tỷ Tỷ"},"message":"nói đùa thì không sao, nhưng mà nói hỗn thì lại không hay, dùng từ ngữ cung kính nhưng ý nghĩa lại là trêu chọc em thấy mới đúng là thánh chém gió","can_remove":false,"created_time":"2014-03-27T09:26:48+0000","like_count":1,"user_likes":false},"840438199306192":{"id":"840438199306192","from":{"id":"100002093975536","name":"Thùy Trang Nguyễn"},"message":"cứ nói đùa như anh Yashashina ấy :)) cũng hay! đừng quá là dc bạn ơi. hì hì.　頑張ってねぇ～！","can_remove":false,"created_time":"2014-03-27T09:27:56+0000","like_count":1,"user_likes":false},"840438365972842":{"id":"840438365972842","from":{"id":"100001243411261","name":"Ngưu Tỷ Tỷ"},"message":"dạ vâng :)","can_remove":false,"created_time":"2014-03-27T09:28:28+0000","like_count":0,"user_likes":false},"840451899304822":{"id":"840451899304822","from":{"id":"100006129404404","name":"Tien Nguyencong"},"message":"Bạn ơi sang đó ma làm bếp ma mình ko biết tg nhật co lam dc ko?","can_remove":false,"created_time":"2014-03-27T10:22:48+0000","like_count":0,"user_likes":false},"840452075971471":{"id":"840452075971471","from":{"id":"100006129404404","name":"Tien Nguyencong"},"message":"Ma time Lam việc nhiều ko?","can_remove":false,"created_time":"2014-03-27T10:23:15+0000","like_count":0,"user_likes":false},"840456802637665":{"id":"840456802637665","from":{"id":"100001243411261","name":"Ngưu Tỷ Tỷ"},"message":"không biết tiếng khó làm được lắm,trừ khi người dạy việc bạn cũng là người Việt Nam","can_remove":false,"created_time":"2014-03-27T10:38:38+0000","like_count":0,"user_likes":false},"840457365970942":{"id":"840457365970942","from":{"id":"100006129404404","name":"Tien Nguyencong"},"message":"Trời. Thê as bạn biết bên đo bếp của ho Thương ̀ có người việt Lam ko?","can_remove":false,"created_time":"2014-03-27T10:40:37+0000","like_count":0,"user_likes":false},"840481385968540":{"id":"840481385968540","from":{"id":"100004258027371","name":"Rang Nguyen"},"message":"Cứ tiếng việt mà chửi với chúng nó. Tớ cũng vậy thôi chúng nó hỏi tại sao thì bảo tao nói tiếng việt chúng mày không hiểu thì cũng giống chúng mày nói tiếng nhật tao cũng không hiểu....rứa là ok bằng nhau.","can_remove":false,"created_time":"2014-03-27T11:58:23+0000","like_count":3,"user_likes":false},"840485572634788":{"id":"840485572634788","from":{"id":"100000322834393","name":"Tien Hoang"},"message":"ふざけるな、テメ...","can_remove":false,"created_time":"2014-03-27T12:08:07+0000","like_count":2,"user_likes":false},"840603135956365":{"id":"840603135956365","from":{"id":"100005953833214","name":"Roro Zoro"},"message":"ふざけんな。このやろう❗️\nKo thì nói やめよぜ。\nMạnh mồm tý thì bảo たけ！\nĐùa thì bảo nó là トム❗️ kiểu j cũng cười","can_remove":false,"created_time":"2014-03-27T16:34:14+0000","like_count":0,"user_likes":false}},"paging":{"cursors":{"after":"ODQwMzcxMDI5MzEyOTA5","before":"ODQwMzcxMDI5MzEyOTA5"},"next":"https://graph.facebook.com/229244010425617_840370382646307/comments?limit=1&summary=1&after=ODQwMzcxMDI5MzEyOTA5"},"summary":{"order":"chronological","total_count":65}}}