{"id":"229244010425617_840369715979707","type":"status","from":{"id":"1816269439","name":"Dao Ngoc"},"message":"Bạn ấy ở 69 ngày tại Nhật nhưng có một trải nghiệm thực sự đáng quý!\n---------\n[...] Chính mày sẽ phải thay đổi bản thân mày trước, từ việc nhỏ nhất là khạc nhổ bừa bãi, vứt rác, cách đi xe bus cho đúng, cho đến tiểu đúng nơi quy định......và hơn cả phải học cách xấu hổ và chia sẻ cái xấu hổ đó!\nViệc xấu rất dễ học nhưng việc tốt cũng dễ lan tỏa không kém! Thay đổi đất nước từ việc không khặc nhổ đi, nếu có lỡ thì nuốt ngược vào bụng ấy, đừng nhổ vào ĐẤT nữa! [...]","created_time":"2014-03-27T06:05:28+0000","updated_time":"2014-03-28T00:36:32+0000","likes":{"data":{"100003961596043":{"id":"100003961596043","name":"Manh Kieu"},"100005611296861":{"id":"100005611296861","name":"Cobeho Pham"},"100004054591361":{"id":"100004054591361","name":"Khanh Huyen"},"100003521794748":{"id":"100003521794748","name":"Hoàng Trần Ngọc Cường"},"100007965550850":{"id":"100007965550850","name":"Trương Nhi"},"100007749823946":{"id":"100007749823946","name":"Sakai Yuriko"},"100005078581305":{"id":"100005078581305","name":"Be Map"},"100003090938731":{"id":"100003090938731","name":"Giang Nguyen"},"1703670469":{"id":"1703670469","name":"Hai Pham Son"},"100004929942215":{"id":"100004929942215","name":"Khanh My"},"738235689":{"id":"738235689","name":"Dang Thi Phuong"},"100005440689746":{"id":"100005440689746","name":"Trang Mapy"},"100005801442456":{"id":"100005801442456","name":"An Nguyen"},"1816269439":{"id":"1816269439","name":"Dao Ngoc"},"100001416272263":{"id":"100001416272263","name":"Mai PB"},"100000154325668":{"id":"100000154325668","name":"Lam Buong Binh"},"100000198256705":{"id":"100000198256705","name":"Chunnie San"},"100006821673235":{"id":"100006821673235","name":"Tana Ka"},"100003074159139":{"id":"100003074159139","name":"Vô Vọng"},"100007396898008":{"id":"100007396898008","name":"My Hanh"},"1343046985":{"id":"1343046985","name":"Mylo Đá"},"100001128589118":{"id":"100001128589118","name":"Giang Manh"},"100005495773832":{"id":"100005495773832","name":"Hiền Vũ"},"100006569651679":{"id":"100006569651679","name":"Huyen Minh Trang"},"100005307004792":{"id":"100005307004792","name":"Kiều Văn"},"100004356254575":{"id":"100004356254575","name":"Co Be Xau Xi"},"100004194190922":{"id":"100004194190922","name":"Meo Luoi"},"100005738918380":{"id":"100005738918380","name":"Thanh Tâm"},"100003393727733":{"id":"100003393727733","name":"Phạm Thủy"},"100002915712282":{"id":"100002915712282","name":"Tiểu Ngư Ngư"},"100003151668630":{"id":"100003151668630","name":"Nga Quynh"},"100003587314679":{"id":"100003587314679","name":"Why Die"},"100000280178894":{"id":"100000280178894","name":"Đại Trượng Phu"},"100001899363306":{"id":"100001899363306","name":"Ruby Nguyen"},"100001773319373":{"id":"100001773319373","name":"Minh Huy Tran Thien"},"100003124307460":{"id":"100003124307460","name":"Duc Giang"},"100004492933662":{"id":"100004492933662","name":"Sorakira Bui"},"100003770348084":{"id":"100003770348084","name":"Anh Đừng Đi"},"100001338846010":{"id":"100001338846010","name":"Sơn Nguyễn Minh"},"100000298989958":{"id":"100000298989958","name":"Anh Đô"},"100004141509084":{"id":"100004141509084","name":"Kẹo Kẹo"},"1018045827":{"id":"1018045827","name":"Trang Nguyen"},"100007235437741":{"id":"100007235437741","name":"Trang Virgo"},"100003726912321":{"id":"100003726912321","name":"Thuong Ngo"},"1303327291":{"id":"1303327291","name":"Nguyễn Thanh Tùng"},"719872046":{"id":"719872046","name":"Mẹ Shin"},"100004375331513":{"id":"100004375331513","name":"Xôi Gói Lá Bàng"},"100002087805613":{"id":"100002087805613","name":"Hiền Long"},"100003702043787":{"id":"100003702043787","name":"Hằng Hanu"},"681602757":{"id":"681602757","name":"Giang Pham"},"100006498893441":{"id":"100006498893441","name":"Buta Chan"},"100005457010257":{"id":"100005457010257","name":"Phạm Văn Phi"},"100003913383051":{"id":"100003913383051","name":"Tho Tran"},"100003985637961":{"id":"100003985637961","name":"Dũng Dơi"},"100002912059161":{"id":"100002912059161","name":"Chí Hoàng Anh"},"100001432462223":{"id":"100001432462223","name":"Truong Nguyen"},"100003032663784":{"id":"100003032663784","name":"Vượt Qua Thử Thách"},"100004367679988":{"id":"100004367679988","name":"Kumi Nguyen"},"1545012193":{"id":"1545012193","name":"Pham Quynh Anh"},"100003849617303":{"id":"100003849617303","name":"Sinh Nguyen"},"100003739730542":{"id":"100003739730542","name":"Kumiko Pjzu"},"100002428408969":{"id":"100002428408969","name":"Nam Quynh"},"100003165554056":{"id":"100003165554056","name":"Sâu Bét"},"100006716646759":{"id":"100006716646759","name":"Huy Thắng"},"100003762427351":{"id":"100003762427351","name":"Hiroshi Yasu Oki"},"100007779284399":{"id":"100007779284399","name":"Anh Anh"},"1146680551":{"id":"1146680551","name":"優しい なぁ"},"100004200750629":{"id":"100004200750629","name":"Ansansan Trần"},"100000040762045":{"id":"100000040762045","name":"Bình Minh"},"1837866264":{"id":"1837866264","name":"QuynhDo Anh"},"1784427925":{"id":"1784427925","name":"Hang Vuong"},"100003282697164":{"id":"100003282697164","name":"Nguyễn Văn Vương"},"100005327893077":{"id":"100005327893077","name":"Nguyen Ngoc Ha"},"100004896576660":{"id":"100004896576660","name":"Ken Lanh Lung"},"100000408501606":{"id":"100000408501606","name":"Quang Kevin"},"100002641238579":{"id":"100002641238579","name":"Vịt Béo"},"100001807609603":{"id":"100001807609603","name":"Nguyễn Khánh Huyền"},"100007988441472":{"id":"100007988441472","name":"Sống Mòn"},"1296997933":{"id":"1296997933","name":"Pham Thi Thu Phuong"},"100002941580115":{"id":"100002941580115","name":"Mo Yume"},"100002629655875":{"id":"100002629655875","name":"Đỗ Thế Phong"},"100000328742646":{"id":"100000328742646","name":"Trần Giáp"},"100005534227149":{"id":"100005534227149","name":"Băng Tâm"},"703955677":{"id":"703955677","name":"Panda Uyen"},"100001526631937":{"id":"100001526631937","name":"Tường Oanh Mineko"},"100004107261449":{"id":"100004107261449","name":"Nhỏ Rom"},"100001692250190":{"id":"100001692250190","name":"Nguyễn Thanh Hà"},"100001614233452":{"id":"100001614233452","name":"Hienvit Duckling"},"100003189699388":{"id":"100003189699388","name":"Chuột Bạch Sưu Nhưn"},"100004780953947":{"id":"100004780953947","name":"Thịnh Nguyễn"},"100000045271667":{"id":"100000045271667","name":"Nam Thai Nguyen"},"100003916723321":{"id":"100003916723321","name":"Nguyen Thu Huyen"},"100003167606106":{"id":"100003167606106","name":"Trang Mèo"},"100003190943020":{"id":"100003190943020","name":"NgỌc ChÍnk"},"100004221763347":{"id":"100004221763347","name":"Huong Tran"},"100004242520435":{"id":"100004242520435","name":"Cô Chủ Nhỏ"},"100000857843369":{"id":"100000857843369","name":"Hasu Chan"},"100007930417031":{"id":"100007930417031","name":"Trang Yamato"},"569263718":{"id":"569263718","name":"Phuong Thao Tran"},"100002444618453":{"id":"100002444618453","name":"Tomio  Ueno"},"100003055356509":{"id":"100003055356509","name":"Thuan Nguyen"},"100004454592879":{"id":"100004454592879","name":"Manh Tuong"},"100000471304298":{"id":"100000471304298","name":"Nguyen Xuan Cong"},"100001458099624":{"id":"100001458099624","name":"Kham Pha"},"100007468213697":{"id":"100007468213697","name":"Minh Cảnh"}},"paging":{"cursors":{"after":"MTAwMDAzOTYxNTk2MDQz","before":"MTAwMDAzOTYxNTk2MDQz"},"next":"https://graph.facebook.com/229244010425617_840369715979707/likes?limit=1&summary=1&after=MTAwMDAzOTYxNTk2MDQz"},"summary":{"total_count":106}},"comments":{"data":{"840371595979519":{"id":"840371595979519","from":{"id":"100001458099624","name":"Kham Pha"},"message":"thay đổi bản thân, thay đổi đất nước, sức mạnh ở chính trong tay các bạn :)","can_remove":false,"created_time":"2014-03-27T06:09:03+0000","like_count":7,"user_likes":false},"840376019312410":{"id":"840376019312410","from":{"id":"100000045271667","name":"Nam Thai Nguyen"},"message":"Bạn này ở ngoài đời cũng rất nhiều điều đáng hoc. Thế hệ trẻ Vn chắc chắn sẽ thay đổi đất nước","can_remove":false,"created_time":"2014-03-27T06:15:32+0000","like_count":1,"user_likes":false},"840376135979065":{"id":"840376135979065","from":{"id":"100000198219367","name":"Chang Jiang"},"message":"đường phố siêu sạch, họ chẳng cần công nhân VS mà đường vẫn sạch, mình ở đó 1 tuần mà mãi mới thấy 1 túi nilon nhỏ trên đường, đúng thật như vật thể lạ luôn, vì ở Nhật cực khó có cơ hội thấy có vật như vậy :v","can_remove":false,"created_time":"2014-03-27T06:15:57+0000","like_count":1,"user_likes":false},"840376345979044":{"id":"840376345979044","from":{"id":"100004105417269","name":"Hà Minh Đăng"},"message":"Minh tu hao minh la nguoi viet nhung minh thay sau ho voi cach nguoi viet song","can_remove":false,"created_time":"2014-03-27T06:16:48+0000","like_count":0,"user_likes":false},"840385142644831":{"id":"840385142644831","from":{"id":"100007988441472","name":"Sống Mòn"},"message":"\"Xấu hổ \"nhé Hà Minh Đăng và viết tiếng Việt có dấu cũng là cách để bạn thay đổi đó.","message_tags":[{"id":"100004105417269","name":"Hà Minh Đăng","type":"user","offset":13,"length":12}],"can_remove":false,"created_time":"2014-03-27T06:42:33+0000","like_count":1,"user_likes":false},"840395112643834":{"id":"840395112643834","from":{"id":"1146680551","name":"優しい なぁ"},"message":"Chang Jang: Có công nhân vệ sinh mà","can_remove":false,"created_time":"2014-03-27T07:08:46+0000","like_count":0,"user_likes":false},"840404872642858":{"id":"840404872642858","from":{"id":"100003032663784","name":"Vượt Qua Thử Thách"},"message":"mỗi người làm 1 việc nhỏ thì cả nước sẽ tốt đep hơn theo từng ngày có đúng k nào","can_remove":false,"created_time":"2014-03-27T07:45:52+0000","like_count":1,"user_likes":false},"840410042642341":{"id":"840410042642341","from":{"id":"100003913383051","name":"Tho Tran"},"message":"Muốn có sự thay đổi lớn thì việc đầu tiên phải thay đổi là nhuengx điều nhỏ nhặt nhất :3","can_remove":false,"created_time":"2014-03-27T08:09:50+0000","like_count":1,"user_likes":false},"840428982640447":{"id":"840428982640447","from":{"id":"569263718","name":"Phuong Thao Tran"},"message":"[nếu có lỡ thì nuốt ngược vào bụng ấy] <--- có ai làm như bạn này nói chưa?","can_remove":false,"created_time":"2014-03-27T08:57:01+0000","like_count":1,"user_likes":false},"840446882638657":{"id":"840446882638657","from":{"id":"100002915712282","name":"Tiểu Ngư Ngư"},"message":"lắm lúc cứ giữ những tờ quảng cáo đc ngta cho làm nháp, hay cầm về để vứt thì toàn bị bọn bạn nhìn bằng ánh mắt kì dị. Chán.","can_remove":false,"created_time":"2014-03-27T10:01:57+0000","like_count":1,"user_likes":false},"840484445968234":{"id":"840484445968234","from":{"id":"100003032663784","name":"Vượt Qua Thử Thách"},"message":"nuột ngược vào bụng có j khó đâu mình bệnh ho đi học k dám nhổ vì sợ mất vệ sinh lớp nên toàn nuốt kẹt quá thì xin đi tỉu khạc ra:D","can_remove":false,"created_time":"2014-03-27T12:04:54+0000","like_count":0,"user_likes":false},"840509729299039":{"id":"840509729299039","from":{"id":"100004360652181","name":"Hùng Đỗ Danh"},"message":"Nói như hát.","can_remove":false,"created_time":"2014-03-27T13:04:40+0000","like_count":1,"user_likes":false},"840513309298681":{"id":"840513309298681","from":{"id":"100000154325668","name":"Lam Buong Binh"},"message":"Mình không phải lỡ nuốt mà là chủ động nuốt rất nhiều lần. Cũng bình thường có gì đâu, vào bụng có acid dạ dầy diệt vi khuẩn chứ khạc ra đường thì trông tệ và vi khuẩn thêm sinh sôi mà. Hihi","can_remove":false,"created_time":"2014-03-27T13:12:36+0000","like_count":0,"user_likes":false},"840513952631950":{"id":"840513952631950","from":{"id":"100003032663784","name":"Vượt Qua Thử Thách"},"message":":D khen thế ngại đấy nhá","can_remove":false,"created_time":"2014-03-27T13:13:48+0000","like_count":0,"user_likes":false},"840516742631671":{"id":"840516742631671","from":{"id":"100001416272263","name":"Mai PB"},"message":"Xấu hổ chính là động lực để cố gắng thoát ra tình trạng đó. Vì vậy phải tập nghe những điều xấu hổ chứ đừng bịt tai lại. Có một bà mẹ ở Mỹ đã bắt đứa con trai hư đứng ở ngoài đường, cho mọi người thấy trên áo có dòng chữ: tôi đã hư như thế này.... Còn bà mẹ đứng đằng sau con mình khóc. Trân mình ra trước sự xấu hổ để không bao giờ chịu bị như thế cũng là một cách rèn luyện.","can_remove":false,"created_time":"2014-03-27T13:20:24+0000","like_count":4,"user_likes":false},"840792095937469":{"id":"840792095937469","from":{"id":"100006666549596","name":"Thuyjo Kim"},"message":"Nếu có 70% ngươi Việt hiểu và làm đc những điều như bạn viết thì đất nước cũng sẽ trở lên tốt đẹp hơn k kém nước Nhật là mấy.","can_remove":false,"created_time":"2014-03-28T00:36:32+0000","like_count":2,"user_likes":false}},"paging":{"cursors":{"after":"ODQwMzcxNTk1OTc5NTE5","before":"ODQwMzcxNTk1OTc5NTE5"},"next":"https://graph.facebook.com/229244010425617_840369715979707/comments?limit=1&summary=1&after=ODQwMzcxNTk1OTc5NTE5"},"summary":{"order":"chronological","total_count":16}}}