{"id":"229244010425617_840350125981666","type":"status","from":{"id":"100007779284399","name":"Anh Anh"},"message":"今日は私は日本人の先生と話した。いろいろな面白い物を知る。でも、日本語を少ない話せる。私は沢山練習したい。。。皆さん、私はわからない時、教えていただけませんか。","created_time":"2014-03-27T05:06:45+0000","updated_time":"2014-03-28T05:10:16+0000","likes":{"data":{"100007798380150":{"id":"100007798380150","name":"海外移住"},"100001526631937":{"id":"100001526631937","name":"Tường Oanh Mineko"},"100001995633843":{"id":"100001995633843","name":"Yasunobu Toda"},"100001458099624":{"id":"100001458099624","name":"Kham Pha"},"100002202800066":{"id":"100002202800066","name":"Trang Trương"},"100003242552199":{"id":"100003242552199","name":"Kim Anh Dang"},"100006520248654":{"id":"100006520248654","name":"Tôi Cương"},"100002975299796":{"id":"100002975299796","name":"Trinh Tuan Anh"},"100001416272263":{"id":"100001416272263","name":"Mai PB"},"100006422374901":{"id":"100006422374901","name":"Nguyễn Hoàng Trung"},"100006678781295":{"id":"100006678781295","name":"ふく しの"},"100004046535537":{"id":"100004046535537","name":"Tuoi Le"},"100003049639881":{"id":"100003049639881","name":"Truong Luvuxy"},"100004625980804":{"id":"100004625980804","name":"Văn Đài"},"100003816847395":{"id":"100003816847395","name":"Nhung Lưu"},"100003194805709":{"id":"100003194805709","name":"Huỳnh"},"100002716525116":{"id":"100002716525116","name":"Nguyễn Tất Nguyên"},"100004873355903":{"id":"100004873355903","name":"Thu Hà Phan"},"100003740342167":{"id":"100003740342167","name":"Có Gì Hót"},"100003657473061":{"id":"100003657473061","name":"Vu Trung Kien"},"100001880901011":{"id":"100001880901011","name":"Số Không"},"100004895082603":{"id":"100004895082603","name":"Nobita Kun"},"100004716847212":{"id":"100004716847212","name":"Khoa Lưu"}},"paging":{"cursors":{"after":"MTAwMDA3Nzk4MzgwMTUw","before":"MTAwMDA3Nzk4MzgwMTUw"},"next":"https://graph.facebook.com/229244010425617_840350125981666/likes?limit=1&summary=1&after=MTAwMDA3Nzk4MzgwMTUw"},"summary":{"total_count":23}},"comments":{"data":{"840355912647754":{"id":"840355912647754","from":{"id":"100006421833869","name":"Tiểu Ngư"},"message":"今日、私は 日本人の先生と話した と 書いたら、いいんじゃない？","can_remove":false,"created_time":"2014-03-27T05:25:55+0000","like_count":3,"user_likes":false},"840471709302841":{"id":"840471709302841","from":{"id":"100006422374901","name":"Nguyễn Hoàng Trung"},"message":"もっと　やれば、もっとできる。少しさえ話せば　だんっだん　上手になりますよ。こんなんに　おっしゃれのは　いいですよ。","can_remove":false,"created_time":"2014-03-27T11:28:09+0000","like_count":3,"user_likes":false},"840552832628062":{"id":"840552832628062","from":{"id":"100007779284399","name":"Anh Anh"},"message":"Trung san　ありがとうな ^^ がんばろう。。","can_remove":false,"created_time":"2014-03-27T14:40:23+0000","like_count":1,"user_likes":false},"840559552627390":{"id":"840559552627390","from":{"id":"100007779284399","name":"Anh Anh"},"message":"Nguyễn Hoàng Trung だんっだん là gì thế c","message_tags":[{"id":"100006422374901","name":"Nguyễn Hoàng Trung","type":"user","offset":0,"length":18}],"can_remove":false,"created_time":"2014-03-27T14:57:23+0000","like_count":0,"user_likes":false},"840569325959746":{"id":"840569325959746","from":{"id":"100003587314679","name":"Why Die"},"message":"Mình hiểu nghĩa như là  だんだん cho dễ tưởng tượng.. Chẳng biết đúng hay sai :)","can_remove":false,"created_time":"2014-03-27T15:22:25+0000","like_count":0,"user_likes":false},"840782555938423":{"id":"840782555938423","from":{"id":"100006422374901","name":"Nguyễn Hoàng Trung"},"message":"dần dần có từ đônn cũng gần nghĩa thế nhưng ý mạnh hơn","can_remove":false,"created_time":"2014-03-28T00:06:07+0000","like_count":0,"user_likes":false},"840784332604912":{"id":"840784332604912","from":{"id":"100001995633843","name":"Yasunobu Toda"},"message":"知ることは、大事なことだ。\nあなたが、何を知りたいのかがわからないから、なんでも聞いてください。\nわからないことは、恥ずかしいことでは、ありません。","can_remove":false,"created_time":"2014-03-28T00:11:22+0000","like_count":6,"user_likes":false},"840898949260117":{"id":"840898949260117","from":{"id":"100007779284399","name":"Anh Anh"},"message":"Yasunobu Toda さん、どうもありがとうございます。かつどうてきで、ふてき になります。","can_remove":false,"created_time":"2014-03-28T04:59:19+0000","like_count":1,"user_likes":false},"840901175926561":{"id":"840901175926561","from":{"id":"100001995633843","name":"Yasunobu Toda"},"message":"やれば、なんでもできる。できないのは、やらないからです。","can_remove":false,"created_time":"2014-03-28T05:10:16+0000","like_count":1,"user_likes":false}},"paging":{"cursors":{"after":"ODQwMzU1OTEyNjQ3NzU0","before":"ODQwMzU1OTEyNjQ3NzU0"},"next":"https://graph.facebook.com/229244010425617_840350125981666/comments?limit=1&summary=1&after=ODQwMzU1OTEyNjQ3NzU0"},"summary":{"order":"chronological","total_count":9}}}