{"id":"229244010425617_840445055972173","type":"photo","object_id":"10152052030911723","picture":"https://fbcdn-photos-e-a.akamaihd.net/hphotos-ak-frc1/t1.0-0/10014536_10152052030911723_1385351291_s.jpg","link":"https://www.facebook.com/photo.php?fbid=10152052030911723&set=gm.840445055972173&type=1&relevant_count=1","from":{"id":"620066722","name":"Dong Khac Thai"},"message":"Hy vọng nhà sách ở mình cũng đông người lớn như vậy.","created_time":"2014-03-27T09:55:32+0000","updated_time":"2014-03-28T14:35:53+0000","likes":{"data":{"100004982014580":{"id":"100004982014580","name":"Kun Kun"},"100004313589403":{"id":"100004313589403","name":"Phuocthua Lại"},"100001787116330":{"id":"100001787116330","name":"Thụy Nhạc"},"100001526631937":{"id":"100001526631937","name":"Tường Oanh Mineko"},"100003809646101":{"id":"100003809646101","name":"Erika Nguyen"},"100002975299796":{"id":"100002975299796","name":"Trinh Tuan Anh"},"100001814271176":{"id":"100001814271176","name":"Lê Quang Minh"},"1725907325":{"id":"1725907325","name":"Nguyen Van Dung"},"100005738918380":{"id":"100005738918380","name":"Thanh Tâm"},"100003977703228":{"id":"100003977703228","name":"Ki Yu"},"100002421205294":{"id":"100002421205294","name":"Nghèo Kệ Tôi"},"100000143571912":{"id":"100000143571912","name":"Thao Phuong"},"100006848558742":{"id":"100006848558742","name":"Lan Đồng"},"1103173052":{"id":"1103173052","name":"Uyên Nguyễn"},"1816269439":{"id":"1816269439","name":"Dao Ngoc"},"100003181743412":{"id":"100003181743412","name":"Pham Kha"},"100006675074577":{"id":"100006675074577","name":"Tomato Lạnh"},"100006155404413":{"id":"100006155404413","name":"Đặng Hân"},"100007955791330":{"id":"100007955791330","name":"Vu Minh Hoạt"},"100003762427351":{"id":"100003762427351","name":"Hiroshi Yasu Oki"},"100001432462223":{"id":"100001432462223","name":"Truong Nguyen"},"1146680551":{"id":"1146680551","name":"優しい なぁ"},"100006113144074":{"id":"100006113144074","name":"Hà Phương"},"100001899363306":{"id":"100001899363306","name":"Ruby Nguyen"},"569263718":{"id":"569263718","name":"Phuong Thao Tran"},"1374789789":{"id":"1374789789","name":"Vân Anh Rùa"},"100004342064322":{"id":"100004342064322","name":"Út Tâm"},"100007930417031":{"id":"100007930417031","name":"Trang Yamato"},"100003115841931":{"id":"100003115841931","name":"Bánh Đa Cá Rô"}},"paging":{"cursors":{"after":"MTAwMDA0OTgyMDE0NTgw","before":"MTAwMDA0OTgyMDE0NTgw"},"next":"https://graph.facebook.com/229244010425617_840445055972173/likes?limit=1&summary=1&after=MTAwMDA0OTgyMDE0NTgw"},"summary":{"total_count":30}},"comments":{"data":{"840445355972143":{"id":"840445355972143","from":{"id":"100000309415626","name":"Kona Yuki"},"message":"Mấy nay SG có hội sách, thấy mọi người cũng rần rần mà anh :D","can_remove":false,"created_time":"2014-03-27T09:56:28+0000","like_count":1,"user_likes":false},"840445532638792":{"id":"840445532638792","from":{"id":"620066722","name":"Dong Khac Thai"},"message":"Được vậy thì tốt quá.","can_remove":false,"created_time":"2014-03-27T09:57:12+0000","like_count":0,"user_likes":false},"840446495972029":{"id":"840446495972029","from":{"id":"569263718","name":"Phuong Thao Tran"},"message":"ngay công viên Lê Văn Tám đó","can_remove":false,"created_time":"2014-03-27T10:00:39+0000","like_count":1,"user_likes":false},"840447552638590":{"id":"840447552638590","from":{"id":"1146680551","name":"優しい なぁ"},"message":"Cafe sách Vn cũng có đấy ^_^","can_remove":false,"created_time":"2014-03-27T10:05:10+0000","like_count":1,"user_likes":false},"840448569305155":{"id":"840448569305155","from":{"id":"100000603915176","name":"悪いな ぁ"},"message":"Nhà sách này hình như ở Shibuya hay Shinjuku thì phải, có rất nhiều tầng. Tầng 5 hay 6 gì là ngoại văn.","can_remove":false,"created_time":"2014-03-27T10:08:40+0000","like_count":1,"user_likes":false},"840452842638061":{"id":"840452842638061","from":{"id":"620066722","name":"Dong Khac Thai"},"message":"Hy vọng là có nhiều hội sách và quán caphe sách được mở nữa.","can_remove":false,"created_time":"2014-03-27T10:25:47+0000","like_count":0,"user_likes":false},"840458512637494":{"id":"840458512637494","from":{"id":"100000309415626","name":"Kona Yuki"},"message":"Hồi trước có 1 quán cà phê sách ở đường Cộng Hòa, nghe chúng bạn khen là rất được, sách nhiều, phong phú, mà không gian lại yên tĩnh (dù rất nhiều người vào). Chưa kịp đi thì dẹp mất tiêu rồi :v","can_remove":false,"created_time":"2014-03-27T10:45:15+0000","like_count":1,"user_likes":false},"840459125970766":{"id":"840459125970766","from":{"id":"1146680551","name":"優しい なぁ"},"message":"Khúc nào nhỉ? Thấy cafe sách phương nam cũng hay.","can_remove":false,"created_time":"2014-03-27T10:46:54+0000","like_count":0,"user_likes":false},"840459489304063":{"id":"840459489304063","from":{"id":"100000309415626","name":"Kona Yuki"},"message":"Hub Book Cafe ở 18A CH.","can_remove":false,"created_time":"2014-03-27T10:48:23+0000","like_count":0,"user_likes":false},"840460125970666":{"id":"840460125970666","from":{"id":"620066722","name":"Dong Khac Thai"},"message":"Hình như có mấy quán caphe đọc truyện Nhật ở chỗ Hai Bà Trưng.","can_remove":false,"created_time":"2014-03-27T10:50:17+0000","like_count":0,"user_likes":false},"840460989303913":{"id":"840460989303913","from":{"id":"100000309415626","name":"Kona Yuki"},"message":"Nhiều lắm anh. Em nhớ lúc trước có vô cái quán ramen nào trên đường Đông Du í. Trang trí y như bên Nhật luôn, manga trên kệ thì nhiều vô kể. Chỉ có cái là tivi mở ra rả, khách nói chuyện thì ồn ào nên chắc cầm đọc cái tựa sách thì được :v","can_remove":false,"created_time":"2014-03-27T10:52:57+0000","like_count":1,"user_likes":false},"840461002637245":{"id":"840461002637245","from":{"id":"569263718","name":"Phuong Thao Tran"},"message":"năm ngoái chị có ghé mấy lần mà, dẹp lúc nào thế Kona Yuki","message_tags":[{"id":"100000309415626","name":"Kona Yuki","type":"user","offset":49,"length":9}],"can_remove":false,"created_time":"2014-03-27T10:53:02+0000","like_count":0,"user_likes":false},"840461242637221":{"id":"840461242637221","from":{"id":"100000309415626","name":"Kona Yuki"},"message":"Em mới nghe bạn em nó than dạo gần đây nè chị Phuong Thao Tran. Mới đâu tháng trước í.","message_tags":[{"id":"569263718","name":"Phuong Thao Tran","type":"user","offset":46,"length":16}],"can_remove":false,"created_time":"2014-03-27T10:53:39+0000","like_count":0,"user_likes":false},"840461529303859":{"id":"840461529303859","from":{"id":"569263718","name":"Phuong Thao Tran"},"message":"oh, chắc tại ế ẩm quá, :(","can_remove":false,"created_time":"2014-03-27T10:54:12+0000","like_count":0,"user_likes":false},"840461642637181":{"id":"840461642637181","from":{"id":"1146680551","name":"優しい なぁ"},"message":"K chắc do chị Phuong Thảo Trân không ghé đây mà :3","can_remove":false,"created_time":"2014-03-27T10:54:33+0000","like_count":1,"user_likes":false},"840461912637154":{"id":"840461912637154","from":{"id":"569263718","name":"Phuong Thao Tran"},"message":"klq, :3","can_remove":false,"created_time":"2014-03-27T10:55:23+0000","like_count":0,"user_likes":false},"841079765908702":{"id":"841079765908702","from":{"id":"100001416272263","name":"Mai PB"},"message":"Sao trong ảnh không thấy đông nhỉ. :-)  Thử vào cửa hàng Book-off khu vực manga xem, sát cánh bên nhau luôn, gái trai già trẻ đủ cả.","can_remove":false,"created_time":"2014-03-28T14:15:38+0000","like_count":1,"user_likes":false},"841091322574213":{"id":"841091322574213","from":{"id":"620066722","name":"Dong Khac Thai"},"message":"E canh lúc hơi bớt người rùi mới chụp, sợ chụp đông mọi ng để ý.","can_remove":false,"created_time":"2014-03-28T14:35:13+0000","like_count":0,"user_likes":false},"841091625907516":{"id":"841091625907516","from":{"id":"1146680551","name":"優しい なぁ"},"message":"Chụp lén phỏng :3","can_remove":false,"created_time":"2014-03-28T14:35:53+0000","like_count":0,"user_likes":false}},"paging":{"cursors":{"after":"ODQwNDQ1MzU1OTcyMTQz","before":"ODQwNDQ1MzU1OTcyMTQz"},"next":"https://graph.facebook.com/229244010425617_840445055972173/comments?limit=1&summary=1&after=ODQwNDQ1MzU1OTcyMTQz"},"summary":{"order":"chronological","total_count":19}}}