{"id":"229244010425617_840448855971793","type":"status","from":{"id":"100007930417031","name":"Trang Yamato"},"message":"Mỗi lần dừng đèn xanh đèn đỏ hay lượn lờ đâu đó dễ bắt gặp các bạn sinh viên (đa phần) phát tờ rơi hay tờ bướm quảng cáo.\nVà sau mỗi lần ấy lại rác lại tràn ngập quanh khu mà người ấy đứng phát. Ai cũng cầm rồi vứt vô tội vạ. Nhiều khi cũng chẳng thèm đọc qua! Gây ảnh hưởng vẻ mỹ quan đô thị. \nCác nhà quảng cáo sản phẩm hãy nhìn vào đây mà học tập, có lẽ sẽ tốt hơn.\nCòn mọi người nếu có cầm hãy cố đem về nhà mà vứt vào sọt rác thì sẽ tốt hơn.\n\nhttp://gakutomo.com/cuoc-song-o-nhat/xe-dap-o-nhat/","created_time":"2014-03-27T10:10:17+0000","updated_time":"2014-03-27T16:30:44+0000","likes":{"data":{"100000371882766":{"id":"100000371882766","name":"Long Nông Dân"},"100003587314679":{"id":"100003587314679","name":"Why Die"},"100005211189763":{"id":"100005211189763","name":"Oliveu Cchann"},"100004445826984":{"id":"100004445826984","name":"Ong Noi Viet"},"100000982700971":{"id":"100000982700971","name":"Saka Nguyenthao"},"100000278474335":{"id":"100000278474335","name":"Aki Trinh"},"100003032663784":{"id":"100003032663784","name":"Vượt Qua Thử Thách"},"100006893979077":{"id":"100006893979077","name":"Matsumoto Tadashi"},"100000021018532":{"id":"100000021018532","name":"Hương Nguyễn"},"100000072551194":{"id":"100000072551194","name":"Nam Taro Vn"},"100000005117986":{"id":"100000005117986","name":"Tăng Tiên Sinh"},"569263718":{"id":"569263718","name":"Phuong Thao Tran"},"100005460966516":{"id":"100005460966516","name":"Hải Dương"},"1146680551":{"id":"1146680551","name":"優しい なぁ"},"100000045271667":{"id":"100000045271667","name":"Nam Thai Nguyen"},"620066722":{"id":"620066722","name":"Dong Khac Thai"}},"paging":{"cursors":{"after":"MTAwMDAwMzcxODgyNzY2","before":"MTAwMDAwMzcxODgyNzY2"},"next":"https://graph.facebook.com/229244010425617_840448855971793/likes?limit=1&summary=1&after=MTAwMDAwMzcxODgyNzY2"},"summary":{"total_count":16}},"comments":{"data":{"840451309304881":{"id":"840451309304881","from":{"id":"100000398157165","name":"Sống Còn"},"message":"Văn hoá đưa tờ rơi cũng khá đb ở Nhật nhỉ? Chỉ chào mời, ko cưỡng ép, chào hỏi tận tình, hướng dẫn tận tuỵ, ko kiểu lẳng lặng mà quăng, mà đút như mình...","can_remove":false,"created_time":"2014-03-27T10:20:38+0000","like_count":1,"user_likes":false},"840452772638068":{"id":"840452772638068","from":{"id":"100001432462223","name":"Truong Nguyen"},"message":"mình thấy Hà Nội cái tặng kèm này phổ biến, cũng ko ép buộc gì. Điển hình mình còn giữ cái quạt tròn tròn kiểu Nhật của phòng khám phụ khoa nào đó :))","can_remove":false,"created_time":"2014-03-27T10:25:37+0000","like_count":1,"user_likes":false},"840453615971317":{"id":"840453615971317","from":{"id":"100007930417031","name":"Trang Yamato"},"message":"Anh giữ làm gì thế ? Đàn ông mà giữ làm chi hihi","can_remove":false,"created_time":"2014-03-27T10:29:03+0000","like_count":0,"user_likes":false},"840454019304610":{"id":"840454019304610","from":{"id":"100001570773655","name":"Hoàng A Chang"},"message":"Chỉ có ở tokyo và osaka là nhiều thôi chứ các vùng khác ít lắm, thấy cô giáo bảo vậy","can_remove":false,"created_time":"2014-03-27T10:30:12+0000","like_count":0,"user_likes":false},"840454219304590":{"id":"840454219304590","from":{"id":"100001432462223","name":"Truong Nguyen"},"message":"quạt mát mà :)) thứ dùng đc nên giữ, bỏ đi cho lắm rác sao :)) vs lại có khi bạn, mẹ, chị cần có khi :)","can_remove":false,"created_time":"2014-03-27T10:31:00+0000","like_count":0,"user_likes":false},"840455679304444":{"id":"840455679304444","from":{"id":"100007930417031","name":"Trang Yamato"},"message":"Anh vui tính thế :3","can_remove":false,"created_time":"2014-03-27T10:34:21+0000","like_count":0,"user_likes":false},"840456249304387":{"id":"840456249304387","from":{"id":"100001432462223","name":"Truong Nguyen"},"message":"bình thường thôi mà, quà họ tặng lỡ cầm rồi :))","can_remove":false,"created_time":"2014-03-27T10:37:38+0000","like_count":0,"user_likes":false},"840457859304226":{"id":"840457859304226","from":{"id":"100001104538854","name":"Gia Trịnh"},"message":"Phát tờ rơi ở Việt Nam là một hình thức xả rác trá hình mà.","can_remove":false,"created_time":"2014-03-27T10:42:42+0000","like_count":0,"user_likes":false},"840458239304188":{"id":"840458239304188","from":{"id":"100007930417031","name":"Trang Yamato"},"message":"Truong Nguyen: Mà e để ý thấy anh nói cũng gớm lắm. Nếu không nhầm thì a cũng là : đàn ông thích đọc sách hơn đi nhậu đây ! Đúng không ạ ! Hihi","can_remove":false,"created_time":"2014-03-27T10:44:06+0000","like_count":0,"user_likes":false},"840461752637170":{"id":"840461752637170","from":{"id":"100000147414000","name":"Nguyễn Công Thắng"},"message":"nhìn làm gì -.- nó ăn vaod ý thức :) khỏi trông mong -/-","can_remove":false,"created_time":"2014-03-27T10:54:53+0000","like_count":0,"user_likes":false},"840466365970042":{"id":"840466365970042","from":{"id":"100001432462223","name":"Truong Nguyen"},"message":"thích phụ nữ hơn game :)) đâu dám nói về sách :))","can_remove":false,"created_time":"2014-03-27T11:11:08+0000","like_count":0,"user_likes":false},"840467115969967":{"id":"840467115969967","from":{"id":"100007930417031","name":"Trang Yamato"},"message":"Ối ! Anh này. Sao lại so sánh phụ nữ với game","can_remove":false,"created_time":"2014-03-27T11:13:57+0000","like_count":1,"user_likes":false},"840469692636376":{"id":"840469692636376","from":{"id":"100001432462223","name":"Truong Nguyen"},"message":"hấp dẫn tốn thời gian của đa số nam giới :)) chưa vợ","can_remove":false,"created_time":"2014-03-27T11:22:12+0000","like_count":0,"user_likes":false},"840470902636255":{"id":"840470902636255","from":{"id":"100007930417031","name":"Trang Yamato"},"message":"Tại sao đàn ông lại tốn thời gian vào những thứ vô bổ ấy nhỉ ? Trước em cũng chơi game Đế Chế nhưng thấy mấy Game online khác vừa tốn tiền vừa tốn thời gian, tốn sức mà cánh đàn ông vẫn cứ mê. :(","can_remove":false,"created_time":"2014-03-27T11:26:01+0000","like_count":2,"user_likes":false},"840471082636237":{"id":"840471082636237","from":{"id":"100000147414000","name":"Nguyễn Công Thắng"},"message":"giống cgai mê shopping vậy -.-","can_remove":false,"created_time":"2014-03-27T11:26:33+0000","like_count":0,"user_likes":false},"840471439302868":{"id":"840471439302868","from":{"id":"100007930417031","name":"Trang Yamato"},"message":"Hihi nhưng shopping và làm đẹp cho mấy anh ngắm mà :)","can_remove":false,"created_time":"2014-03-27T11:27:19+0000","like_count":1,"user_likes":false},"840474032635942":{"id":"840474032635942","from":{"id":"100000021018532","name":"Hương Nguyễn"},"message":"bọn phát tờ rơi nó cứ cố tình nhét vào tay or giỏ xe, ko cần quan tâm người ta muốn nhận hay ko :3","can_remove":false,"created_time":"2014-03-27T11:35:50+0000","like_count":0,"user_likes":false},"840474169302595":{"id":"840474169302595","from":{"id":"100006451920133","name":"Dương Gia Huy"},"message":"Bạn ui nói Việt Nam! Nói thật từ người lớn đã ko có ý thức rùi nếu đc 1 phần bên này đã tốt","can_remove":false,"created_time":"2014-03-27T11:36:31+0000","like_count":0,"user_likes":false},"840474242635921":{"id":"840474242635921","from":{"id":"100007930417031","name":"Trang Yamato"},"message":"Người nhận xong lại vứt bừa bãi :)","can_remove":false,"created_time":"2014-03-27T11:36:41+0000","like_count":0,"user_likes":false},"840474365969242":{"id":"840474365969242","from":{"id":"100006451920133","name":"Dương Gia Huy"},"message":"Nó đáp bưa ra ý nào có phát nó đi nó quăng ra đường ý","can_remove":false,"created_time":"2014-03-27T11:37:12+0000","like_count":0,"user_likes":false},"840530789296933":{"id":"840530789296933","from":{"id":"100005801442456","name":"An Nguyen"},"message":"Ít ra tốt hơn về mặt văn hoá giao tiếp như bạn đấy. Học lấy văn minh đi.","can_remove":false,"created_time":"2014-03-27T13:54:10+0000","like_count":1,"user_likes":false},"840532635963415":{"id":"840532635963415","from":{"id":"100000021018532","name":"Hương Nguyễn"},"message":"Mình có góp ý nhẹ rằng đây là diễn đàn, là nơi góp ý kiến và bàn luận chứ ko phải chỗ để chỉ trích và.....nên mong mọi người comment lịch sự một chút ạ, thực tế chúng ta cũng không biết nhau ngoài đời thực ra làm sao nên mọi người cũng đừng mạnh....tay quá ạ, gomen nếu comment của mình gây phiền cho mọi người :(","can_remove":false,"created_time":"2014-03-27T13:58:26+0000","like_count":1,"user_likes":false},"840533652629980":{"id":"840533652629980","from":{"id":"100007879952991","name":"Thow  Low"},"message":"Điểm chung của rất nhiều bạn là đọc xong 1 bài nhận xét, cảm nghĩ của ai đó mà không đồng tình chính là quay sang chỉ trích bản thân người viết chứ không phải là bàn xem vấn đề được viết đó đúng và sai như thế nào --->lối suy nghĩ tiêu cực","can_remove":false,"created_time":"2014-03-27T14:01:03+0000","like_count":1,"user_likes":false},"840556065961072":{"id":"840556065961072","from":{"id":"100007930417031","name":"Trang Yamato"},"message":"Nói chung là đa số không có văn hoá tranh luận. Thấy người khác nói sai ý mình, nhất là con gái thì lại \"xù lông nhím\" ^_^","can_remove":false,"created_time":"2014-03-27T14:48:23+0000","like_count":0,"user_likes":false},"840559065960772":{"id":"840559065960772","from":{"id":"100001432462223","name":"Truong Nguyen"},"message":"game cũng như phụ nữ, đẹp và hấp dẫn ắt khó giải thích vì sao ham :))","can_remove":false,"created_time":"2014-03-27T14:55:57+0000","like_count":1,"user_likes":false},"840560015960677":{"id":"840560015960677","from":{"id":"100002680224386","name":"Phương Bé Xù"},"message":"hi. mình ko quen ai nhưng cũng muốn chia sẻ 1 chút. m cũng hay đi phát tờ rơi nhưng m chỉ phát khi ngta cũng mún nhận và có rác thì m cũng nhặt ngay. nhưng rất nhiều người vô ý thức lại xả rác ngay ngoài đường điều này có lẽ là do ý thức cá nhân đó không tốt. vậy nên nếu ai cũng có ý thức bảo vệ môi trường thì sẽ ko có vấn đề về rác như vậy","can_remove":false,"created_time":"2014-03-27T14:58:47+0000","like_count":3,"user_likes":false},"840560025960676":{"id":"840560025960676","from":{"id":"100007930417031","name":"Trang Yamato"},"message":"Anh này !","can_remove":false,"created_time":"2014-03-27T14:58:47+0000","like_count":0,"user_likes":false},"840563062627039":{"id":"840563062627039","from":{"id":"100001432462223","name":"Truong Nguyen"},"message":"sao nào :)) phản biện chăng","can_remove":false,"created_time":"2014-03-27T15:06:21+0000","like_count":0,"user_likes":false},"840567325959946":{"id":"840567325959946","from":{"id":"100007930417031","name":"Trang Yamato"},"message":"Cho em cây quạt hịhi","can_remove":false,"created_time":"2014-03-27T15:17:40+0000","like_count":0,"user_likes":false},"840568422626503":{"id":"840568422626503","from":{"id":"100001432462223","name":"Truong Nguyen"},"message":"bị sao ah :3 con gái mà bất cẩn vs bản thân quá :3 *lo lắng*","can_remove":false,"created_time":"2014-03-27T15:19:59+0000","like_count":0,"user_likes":false},"840574802625865":{"id":"840574802625865","from":{"id":"100007930417031","name":"Trang Yamato"},"message":"Haizzz. Anh lại nói hàm ý gì rồi. E xin để quạt cho mát mà hihi","can_remove":false,"created_time":"2014-03-27T15:35:14+0000","like_count":0,"user_likes":false},"840575252625820":{"id":"840575252625820","from":{"id":"100001432462223","name":"Truong Nguyen"},"message":"ah thế thôi, quạt cũ rồi :)) bh có đợt phát mới xin 2 cái tặng luôn :))","can_remove":false,"created_time":"2014-03-27T15:36:34+0000","like_count":0,"user_likes":false},"840577062625639":{"id":"840577062625639","from":{"id":"100005504948950","name":"Linh Mạnh Trần"},"message":"Nói về \" Văn hoá tranh luận\" thì việc này bạn Trang Yamato cần phải học tập nhiều. :)) mình đã chứng kiến đôi lần bạn xù lông nhím đáng kể khi kêu réo cả phụ huynh của người ta ra. Đấy không phải là cách tranh luận có văn hoá :))","message_tags":[{"id":"100007930417031","name":"Trang Yamato","type":"user","offset":46,"length":12}],"can_remove":false,"created_time":"2014-03-27T15:41:24+0000","like_count":1,"user_likes":false},"840579485958730":{"id":"840579485958730","from":{"id":"100007930417031","name":"Trang Yamato"},"message":"Hihi với thành phần \"ít \" học thì nói càng \"dễ\" hiểu người ta mới thấm a ạ.\n\nVới người \" chân đất mắt toét\" thì phải đưa dẫn chứng cụ thể ạ.","can_remove":false,"created_time":"2014-03-27T15:44:43+0000","like_count":0,"user_likes":false},"840583192625026":{"id":"840583192625026","from":{"id":"100003587314679","name":"Why Die"},"message":"Chị Trang ơi làm kèo giao lưu Aoe chị ơi :v","can_remove":false,"created_time":"2014-03-27T15:47:13+0000","like_count":1,"user_likes":false},"840583949291617":{"id":"840583949291617","from":{"id":"100005504948950","name":"Linh Mạnh Trần"},"message":"Trích dẫn lại câu nói của chính bạn : Nói chung là đa số không có văn hoá tranh luận. Thấy người khác nói sai ý mình, nhất là con gái thì lại \"xù lông nhím\" .----> Đừng vội xù lông nhím ra bạn ạ. Bạn đang tự vả vào mồm mình đấy. Bình luận nhiều, tranh luận nhiều có vẻ học nhiều, đọc sách thánh hiền nhiều nhưng bạn lại chưa hiểu hết về mấy từ do chính bạn nói ra \" Văn hoá tranh luận \"","can_remove":false,"created_time":"2014-03-27T15:48:26+0000","like_count":0,"user_likes":false},"840585135958165":{"id":"840585135958165","from":{"id":"100007930417031","name":"Trang Yamato"},"message":"Anh lại \" xù lông nhím \" rồi hihi","can_remove":false,"created_time":"2014-03-27T15:50:37+0000","like_count":1,"user_likes":false},"840585875958091":{"id":"840585875958091","from":{"id":"100001432462223","name":"Truong Nguyen"},"message":"quạt rát cả tay :3 ông tha ng đẹp 1 tẹo :)","can_remove":false,"created_time":"2014-03-27T15:52:28+0000","like_count":0,"user_likes":false},"840590372624308":{"id":"840590372624308","from":{"id":"100005032382003","name":"Nguyễn Hồng Đăng"},"message":"Thực ra thì theo kình thấy bạn post bài trong những gruop việt nhật như thế này thì, hàu hết mọi người trong đó đều đã từng ở nhật hoặc đang ở nhật. Những cái như thế này thì mọi người nhìn rất rõ. Nếu cần tuyên truyền thì bạn nên tìm những group lớn hơn nữa,  nơi mà những người Việt Nam chưa nhìn thấy điều này.","can_remove":false,"created_time":"2014-03-27T16:03:29+0000","like_count":0,"user_likes":false},"840591729290839":{"id":"840591729290839","from":{"id":"100007930417031","name":"Trang Yamato"},"message":"Mình tuyên truyền gì vậy bạn?\nMình so sánh vấn đề \" tờ rơi \" giữa Việt - Nhật.\n\nNếu có ai trong group này làm quảng cáo hay người nhận tờ rơi thì nên xem lại. Vậy thì tốt hay xấu?","can_remove":false,"created_time":"2014-03-27T16:06:13+0000","like_count":0,"user_likes":false},"840593262624019":{"id":"840593262624019","from":{"id":"100005032382003","name":"Nguyễn Hồng Đăng"},"message":"Xin lỗi nhưng mình chưa nói đến truyện tốt xấu. Tiếp theo, mình hỏi bạn so sánh như vậy để làm gì? Có phải để mọi người thấy sai và rút kinh nghiệm k? Nếu k phải thì thôi mình xin lỗi bạn là mình cmt sai hướng. Còn nếu đúng thì xin vui lòng bạn hãy đọc lại cmt trước của mình.","can_remove":false,"created_time":"2014-03-27T16:09:44+0000","like_count":0,"user_likes":false},"840593849290627":{"id":"840593849290627","from":{"id":"100007930417031","name":"Trang Yamato"},"message":"Bạn đọc lại caption của mình đi ạ.","can_remove":false,"created_time":"2014-03-27T16:11:13+0000","like_count":0,"user_likes":false},"840594675957211":{"id":"840594675957211","from":{"id":"100005032382003","name":"Nguyễn Hồng Đăng"},"message":"Mình đã đọc hết caption của bạn. Và mình chắc chắn là bạn cũng đã đọc hết cmt đầu tiên của mình, nhưng bạn k hiểu ý mình muốn nói tới bạn là gì. Và câu hỏi ở cmt 2 bạn vẫn chưa trả lời mình.","can_remove":false,"created_time":"2014-03-27T16:14:18+0000","like_count":0,"user_likes":false},"840595159290496":{"id":"840595159290496","from":{"id":"100007930417031","name":"Trang Yamato"},"message":"Các nhà quảng cáo sản phẩm hãy nhìn vào đây mà học tập, có lẽ sẽ tốt hơn.\nCòn mọi người nếu có cầm hãy cố đem về nhà mà vứt vào sọt rác thì sẽ tốt hơn.\n=> đây bạn ạ","can_remove":false,"created_time":"2014-03-27T16:15:41+0000","like_count":0,"user_likes":false},"840596582623687":{"id":"840596582623687","from":{"id":"100005032382003","name":"Nguyễn Hồng Đăng"},"message":"Hình như bạn nhìn những cmt của mình là phản bác lại caption của bạn thì phải? Mình chưa dùng một từ nào phản bác cả, mình nói là sẽ tốt hơn nữa nếu bạn post trong các group lớn, nơi có rất nhiều người Việt vẫn chưa ngìn ra điều bạn muốn gửi tới họ","can_remove":false,"created_time":"2014-03-27T16:19:21+0000","like_count":0,"user_likes":false},"840597035956975":{"id":"840597035956975","from":{"id":"100007930417031","name":"Trang Yamato"},"message":"Chỉ có những anh/ chị/ bạn ở Nhật mới xác nhận điều này là đúng được. Bạn hiểu chứ? \nKhi đó mới thấy điều nên làm. Vậy thôi!","can_remove":false,"created_time":"2014-03-27T16:20:41+0000","like_count":0,"user_likes":false},"840597265956952":{"id":"840597265956952","from":{"id":"100001416272263","name":"Mai PB"},"message":"Nguyễn Hồng Đăng \"những gruop việt nhật như thế này thì, hàu hết mọi người trong đó đều đã từng ở nhật hoặc đang ở nhật\" --> không phải vậy nhé bạn, phần lớn mọi người ở VN đó. Và hy vọng bạn sẽ sớm thấy group này không phải là một dạng \"những group Việt Nhật như thế này\".","message_tags":[{"id":"100005032382003","name":"Nguyễn Hồng Đăng","type":"user","offset":0,"length":16}],"can_remove":false,"created_time":"2014-03-27T16:21:15+0000","like_count":2,"user_likes":false},"840600192623326":{"id":"840600192623326","from":{"id":"100005032382003","name":"Nguyễn Hồng Đăng"},"message":"Trang Yamato: điều bạn vừa nố mình đã nói trong cmt đầu tiển của mình. thế những người chưa nhận ra vấn đề này?\nMai PB: nếu đúng như bạn nói thì mình đã nói sai về tậm ảnh hưởng đến người Việt đang ở nước( chưa từng tới Nhật) đúng k ạ? Còn về cmt của mình thì mình khuyên bạn Trang Yamato nên post thêm bài ở những group lớn hơn nữa. Vậy điều bạn nói và mình nói có gì liên quan k ạ?","can_remove":false,"created_time":"2014-03-27T16:28:29+0000","like_count":0,"user_likes":false},"840601065956572":{"id":"840601065956572","from":{"id":"100003587314679","name":"Why Die"},"message":"Giơ tay:  Bạn Nguyễn Hồng Đăng cũng chỉ có ý tốt thôi mà. :) không cần thiết phải tranh luận nữa.. - em hết ý kiến.","can_remove":false,"created_time":"2014-03-27T16:30:44+0000","like_count":0,"user_likes":false}},"paging":{"cursors":{"after":"ODQwNDUxMzA5MzA0ODgx","before":"ODQwNDUxMzA5MzA0ODgx"},"next":"https://graph.facebook.com/229244010425617_840448855971793/comments?limit=1&summary=1&after=ODQwNDUxMzA5MzA0ODgx"},"summary":{"order":"chronological","total_count":49}}}