{"id":"229244010425617_840440779305934","type":"status","from":{"id":"1562725911","name":"Fragrant Rice"},"message":"スリランカ 、 インドネシア 、 フィリピン 、 台湾 、 香港 、 ベトナム 、 アフガニスタン 、 シンガポール 、 エジプト 、 イラン など世界68ヶ国や地域で放送され、苦難に遭いつつも決してあきらめず、 明治 、 大正 、 昭和 を生きた主人公・おしんの姿が、 日本 だけでなく世界各国で人々の共感を呼び、「おしんドローム」という言葉を生み出した。 \n\n作品では、おしんの幼年期の苦労を描いただけではなく、義理や周りを見ることなく他人を押しのけてまで銭儲けをしてもいずれ自分を追いやってしまう、人として本当に大切な物は何かというメッセージが、おしんが人生の歩みの中で出会ってきた沢山の恩人の言葉を通して散りばめられている。\n\nAnh/chị/bạn nào dịch giùm em/mình đoạn này với. Arigatou gozaimasu <3.","created_time":"2014-03-27T09:38:52+0000","updated_time":"2014-03-27T15:10:36+0000","likes":{"data":{"100001595320966":{"id":"100001595320966","name":"Nguyễn Nga"},"100001995633843":{"id":"100001995633843","name":"Yasunobu Toda"},"100005219469906":{"id":"100005219469906","name":"Giang Khánh"},"100000143571912":{"id":"100000143571912","name":"Thao Phuong"},"100004394924539":{"id":"100004394924539","name":"Jinvôlối Nguyễn"},"100006014164976":{"id":"100006014164976","name":"Bình Bông"},"100003049639881":{"id":"100003049639881","name":"Truong Luvuxy"}},"paging":{"cursors":{"after":"MTAwMDAxNTk1MzIwOTY2","before":"MTAwMDAxNTk1MzIwOTY2"},"next":"https://graph.facebook.com/229244010425617_840440779305934/likes?limit=1&summary=1&after=MTAwMDAxNTk1MzIwOTY2"},"summary":{"total_count":7}},"comments":{"data":{"840444562638889":{"id":"840444562638889","from":{"id":"620066722","name":"Dong Khac Thai"},"message":"Bộ phim Oshin được chiếu ở 68 nước trên thế giới ví dụ như Srilanka, Indonesia,Phippine, Đài Loan, Hồng Kông, Việt Nam, Afghanistan, Singapore, Ai Cập, Iran. Hình ảnh nhân vật chính Oshin sống qua 3 thời Minh Trị, Taisho, Showa tạo được sự đồng cảm không chỉ ở Nhật mà còn ở khắp nơi trên thế giới, và từ 'Oshin Doroumu' ( hội chứng Oshin)  được tạo ra. Wikipedia hả bạn?","can_remove":false,"created_time":"2014-03-27T09:53:22+0000","like_count":9,"user_likes":false},"840445362638809":{"id":"840445362638809","from":{"id":"100005934548279","name":"Cậu Bé Buồn"},"message":"そうだね。","can_remove":false,"created_time":"2014-03-27T09:56:30+0000","like_count":0,"user_likes":false},"840447062638639":{"id":"840447062638639","from":{"id":"569263718","name":"Phuong Thao Tran"},"message":"Dong Khac Thai hào phóng quá, tập hư cho bạn ấy đấy, ^^","message_tags":[{"id":"620066722","name":"Dong Khac Thai","type":"user","offset":0,"length":14}],"can_remove":false,"created_time":"2014-03-27T10:02:59+0000","like_count":4,"user_likes":false},"840447642638581":{"id":"840447642638581","from":{"id":"620066722","name":"Dong Khac Thai"},"message":"Chắc nhiều bạn tiếng Nhật chưa rành có thể hiểu được. Hy vọng là bạn hỏi đối chiếu với phần tự dịch để rút ra kinh nghiệm. Thank chị @Phuong Thao Tran đã nhắc.","can_remove":false,"created_time":"2014-03-27T10:05:31+0000","like_count":2,"user_likes":false},"840449982638347":{"id":"840449982638347","from":{"id":"100003397876835","name":"Nabito Lazy"},"message":"Chị Phuong Thao Tran nghiêm khắc nhất Group :v","message_tags":[{"id":"569263718","name":"Phuong Thao Tran","type":"user","offset":5,"length":16}],"can_remove":false,"created_time":"2014-03-27T10:14:49+0000","like_count":0,"user_likes":false},"840450942638251":{"id":"840450942638251","from":{"id":"569263718","name":"Phuong Thao Tran"},"message":"cảm ơn em Nabito Lazy đã quá khen, ^^","message_tags":[{"id":"100003397876835","name":"Nabito Lazy","type":"user","offset":10,"length":11}],"can_remove":false,"created_time":"2014-03-27T10:19:28+0000","like_count":0,"user_likes":false},"840451199304892":{"id":"840451199304892","from":{"id":"100001416272263","name":"Mai PB"},"message":"Muốn ng khác giúp mình, nên hỏi chỗ mình chưa hiểu hoặc là dịch thử nhờ sửa. Chứ đưa cả đoạn dài ngoằng ra nhờ là không nên.","can_remove":false,"created_time":"2014-03-27T10:20:23+0000","like_count":3,"user_likes":false},"840451615971517":{"id":"840451615971517","from":{"id":"620066722","name":"Dong Khac Thai"},"message":"Thanks a @Mai PB đã nhắc. Lần sau e chú ý.","can_remove":false,"created_time":"2014-03-27T10:21:57+0000","like_count":0,"user_likes":false},"840451692638176":{"id":"840451692638176","from":{"id":"1562725911","name":"Fragrant Rice"},"message":"Xin chân thành cảm ơn mọi người ạ.","can_remove":false,"created_time":"2014-03-27T10:22:17+0000","like_count":1,"user_likes":false},"840452665971412":{"id":"840452665971412","from":{"id":"569263718","name":"Phuong Thao Tran"},"message":"còn một đoạn nữa chưa được dịch đâu bạn ơi, bạn dịch đi nhé","can_remove":false,"created_time":"2014-03-27T10:25:13+0000","like_count":1,"user_likes":false},"840452949304717":{"id":"840452949304717","from":{"id":"1146680551","name":"優しい なぁ"},"message":"@Thai: làm một bài về các 平成、昭和 được hem. Mình cũng không rõ nữa ^_^","can_remove":false,"created_time":"2014-03-27T10:26:13+0000","like_count":0,"user_likes":false},"840453075971371":{"id":"840453075971371","from":{"id":"620066722","name":"Dong Khac Thai"},"message":"OK để cuối tuần mình viết.","can_remove":false,"created_time":"2014-03-27T10:27:01+0000","like_count":3,"user_likes":false},"840453185971360":{"id":"840453185971360","from":{"id":"569263718","name":"Phuong Thao Tran"},"message":"hóng Dong Khac Thai, ^^","message_tags":[{"id":"620066722","name":"Dong Khac Thai","type":"user","offset":5,"length":14}],"can_remove":false,"created_time":"2014-03-27T10:27:29+0000","like_count":1,"user_likes":false},"840453222638023":{"id":"840453222638023","from":{"id":"1146680551","name":"優しい なぁ"},"message":"Hóng :3","can_remove":false,"created_time":"2014-03-27T10:27:41+0000","like_count":1,"user_likes":false},"840453452638000":{"id":"840453452638000","from":{"id":"1562725911","name":"Fragrant Rice"},"message":"Phuong Thao Tran cảm ơn bạn đã nhắc, mình cũng biết còn 1 đoạn ở dưới chưa dịch :D. Vì mình còn ở trình độ tiếng Nhật thấp quá nên đành vào đây nhờ mọi người. Xin lỗi nếu như đã gây phiền toái cho các bạn. Mình sẽ rút kinh nghiệm.","can_remove":false,"created_time":"2014-03-27T10:28:36+0000","like_count":0,"user_likes":false},"840453952637950":{"id":"840453952637950","from":{"id":"569263718","name":"Phuong Thao Tran"},"message":"bạn Fragrant Rice thiệt là khiêm tốn, làm mình xấu hổ quá cơ, :3","message_tags":[{"id":"1562725911","name":"Fragrant Rice","type":"user","offset":4,"length":13}],"can_remove":false,"created_time":"2014-03-27T10:29:53+0000","like_count":1,"user_likes":false},"840455259304486":{"id":"840455259304486","from":{"id":"1146680551","name":"優しい なぁ"},"message":":v bữa nay sao điệu thía","can_remove":false,"created_time":"2014-03-27T10:32:27+0000","like_count":0,"user_likes":false},"840456125971066":{"id":"840456125971066","from":{"id":"100001416272263","name":"Mai PB"},"message":"Bạn Dong Khac Thai làm admin không ạ? :-)","message_tags":[{"id":"620066722","name":"Dong Khac Thai","type":"user","offset":4,"length":14}],"can_remove":false,"created_time":"2014-03-27T10:36:56+0000","like_count":0,"user_likes":false},"840459465970732":{"id":"840459465970732","from":{"id":"620066722","name":"Dong Khac Thai"},"message":"@Mai PB: dạ nếu a tin tưởng thì cho e làm luôn, hy vọng giúp gì cho mọi người.","can_remove":false,"created_time":"2014-03-27T10:48:18+0000","like_count":3,"user_likes":false},"840459855970693":{"id":"840459855970693","from":{"id":"1146680551","name":"優しい なぁ"},"message":"^_^","can_remove":false,"created_time":"2014-03-27T10:49:32+0000","like_count":2,"user_likes":false},"840464432636902":{"id":"840464432636902","from":{"id":"100004250740742","name":"Trang Nguyen"},"message":"Các ad của nhóm này chưa có mắt xanh chấm người làm ad. Mình ra vào group lớt thớt mà cũng đã chấm bạn Thái từ lâu lâu rồi! :-D","can_remove":false,"created_time":"2014-03-27T11:04:19+0000","like_count":3,"user_likes":false},"840544209295591":{"id":"840544209295591","from":{"id":"100001416272263","name":"Mai PB"},"message":"Người tốt thì nhiều nhưng người kiên nhẫn thì ít, phải có thời gian để xem xét","can_remove":false,"created_time":"2014-03-27T14:23:06+0000","like_count":0,"user_likes":false},"840561452627200":{"id":"840561452627200","from":{"id":"100000603915176","name":"悪いな ぁ"},"message":"Lại có vụ cơ cấu kg qua bầu cử :3","can_remove":false,"created_time":"2014-03-27T15:02:28+0000","like_count":0,"user_likes":false},"840563532626992":{"id":"840563532626992","from":{"id":"569263718","name":"Phuong Thao Tran"},"message":"chị có muốn \"bầu cữ\" không chị Cú, ^^","can_remove":false,"created_time":"2014-03-27T15:07:55+0000","like_count":0,"user_likes":false},"840563772626968":{"id":"840563772626968","from":{"id":"100000603915176","name":"悪いな ぁ"},"message":"Hí hí, lói thía thui, chúng ta ở nc XHCN mừ, bầu làm giề :v","can_remove":false,"created_time":"2014-03-27T15:08:49+0000","like_count":0,"user_likes":false},"840564249293587":{"id":"840564249293587","from":{"id":"569263718","name":"Phuong Thao Tran"},"message":"chị nhầm ý em rồi, :D","can_remove":false,"created_time":"2014-03-27T15:10:36+0000","like_count":0,"user_likes":false}},"paging":{"cursors":{"after":"ODQwNDQ0NTYyNjM4ODg5","before":"ODQwNDQ0NTYyNjM4ODg5"},"next":"https://graph.facebook.com/229244010425617_840440779305934/comments?limit=1&summary=1&after=ODQwNDQ0NTYyNjM4ODg5"},"summary":{"order":"chronological","total_count":26}}}