{"id":"229244010425617_840548129295199","type":"status","from":{"id":"100006712992259","name":"Thảo Lê"},"message":"E chào mọi người ạ. Huhu. E nộp hồ sơ đi tháng 4.. Nhưng giờ vẫn chưa có kết quả lưu trú ở Nhật.. Trung tâm e học nói.. ** TẠI HỒ SƠ E GỬI SANG BỊ MUỘN NÊN CHƯA CÓ**.. vậy là sao nhể.. e buồn và hoang mang lắm ạ.. e làm hồ sơ bằng thời gian với bạn e.. bạn e đã đi nhật rùi.. còn e vẫn phải chờ kq..  Mọi người giúp e mới ạ.. huhu.","created_time":"2014-03-27T14:31:01+0000","updated_time":"2014-03-28T06:26:53+0000","likes":{"data":{"100004269880514":{"id":"100004269880514","name":"Minh Trang"},"100006528887490":{"id":"100006528887490","name":"Cứ Như Vậy Đi"},"100003849703111":{"id":"100003849703111","name":"Bằng Lê Ngọc Nguyễn"},"100003632114986":{"id":"100003632114986","name":"Tài Tử Tế"},"100004558781734":{"id":"100004558781734","name":"Kien Hoang"},"100001432462223":{"id":"100001432462223","name":"Truong Nguyen"},"100002276015196":{"id":"100002276015196","name":"Tųấƞ Aŋĥ"},"100006614261300":{"id":"100006614261300","name":"Tao Cao Cường Đây"},"100002975299796":{"id":"100002975299796","name":"Trinh Tuan Anh"},"100003094158721":{"id":"100003094158721","name":"Hikari Truong"},"100003103086919":{"id":"100003103086919","name":"Tâm Hiếu"},"100004443042711":{"id":"100004443042711","name":"Xương Rồng Gai"},"100004039857628":{"id":"100004039857628","name":"Yen Chu"},"100001814271176":{"id":"100001814271176","name":"Lê Quang Minh"},"100004083892724":{"id":"100004083892724","name":"Linh Linh"},"100005250242073":{"id":"100005250242073","name":"藤 の花"},"100007402331679":{"id":"100007402331679","name":"Peter Toàn"}},"paging":{"cursors":{"after":"MTAwMDA0MjY5ODgwNTE0","before":"MTAwMDA0MjY5ODgwNTE0"},"next":"https://graph.facebook.com/229244010425617_840548129295199/likes?limit=1&summary=1&after=MTAwMDA0MjY5ODgwNTE0"},"summary":{"total_count":17}},"comments":{"data":{"840548645961814":{"id":"840548645961814","from":{"id":"100007402331679","name":"Peter Toàn"},"message":"Không liên quan cơ mà a cũng đang chờ lấy visa sốt cả ruột :3","can_remove":false,"created_time":"2014-03-27T14:32:37+0000","like_count":1,"user_likes":false},"840549189295093":{"id":"840549189295093","from":{"id":"100006712992259","name":"Thảo Lê"},"message":"thật thật ko ạ","can_remove":false,"created_time":"2014-03-27T14:34:19+0000","like_count":1,"user_likes":false},"840549499295062":{"id":"840549499295062","from":{"id":"100003835652381","name":"Vi Dai Tra"},"message":"Neu di duoc tu nghiep sinh can bao nhiu time anh chi nhj.tieng nhat co kho ko","can_remove":false,"created_time":"2014-03-27T14:35:11+0000","like_count":0,"user_likes":false},"840550349294977":{"id":"840550349294977","from":{"id":"100001432462223","name":"Truong Nguyen"},"message":":3 gì cơ, thấy nguồn tin trong này tư,cách lưư trú đã có hoàn toàn rồi mà :3 chia buồn","can_remove":false,"created_time":"2014-03-27T14:35:57+0000","like_count":0,"user_likes":false},"840551045961574":{"id":"840551045961574","from":{"id":"100006185140581","name":"Thảo Lê"},"message":"Hì vụ này sao giúp đk e cứ đợi thui có khi bị muộn như bn chị ý tận tháng 5 mí bay đk ...","can_remove":false,"created_time":"2014-03-27T14:36:41+0000","like_count":1,"user_likes":false},"840551052628240":{"id":"840551052628240","from":{"id":"100007402331679","name":"Peter Toàn"},"message":"Thật mà Bé pùn.E đi tỉnh nào?Ko sao đâu.À mà e đóng tiền chưa?","can_remove":false,"created_time":"2014-03-27T14:36:41+0000","like_count":1,"user_likes":false},"840551079294904":{"id":"840551079294904","from":{"id":"100004083892724","name":"Linh Linh"},"message":"doc status mjg cug hoang mang thay cho p lun","can_remove":false,"created_time":"2014-03-27T14:36:45+0000","like_count":1,"user_likes":false},"840551305961548":{"id":"840551305961548","from":{"id":"100003238292151","name":"Quang Pro"},"message":"Có khi ko đi dk cũng là cái may của bạn","can_remove":false,"created_time":"2014-03-27T14:36:51+0000","like_count":3,"user_likes":false},"840551832628162":{"id":"840551832628162","from":{"id":"100004083892724","name":"Linh Linh"},"message":"ko di dc thi may cai noi j","can_remove":false,"created_time":"2014-03-27T14:37:55+0000","like_count":0,"user_likes":false},"840552092628136":{"id":"840552092628136","from":{"id":"100003238292151","name":"Quang Pro"},"message":"Linh linh.bạn đã sang nhật chưa?","can_remove":false,"created_time":"2014-03-27T14:38:51+0000","like_count":0,"user_likes":false},"840552282628117":{"id":"840552282628117","from":{"id":"100007402331679","name":"Peter Toàn"},"message":"@Vi Dai Tra:Đi tns nhanh thì 6 tháng-1 năm b nhé.Tiếng Nhật cũng như bất kì tiếng nào.Không khó nếu chăm chỉ 1 chút ^^","can_remove":false,"created_time":"2014-03-27T14:39:01+0000","like_count":0,"user_likes":false},"840552339294778":{"id":"840552339294778","from":{"id":"100007402331679","name":"Peter Toàn"},"message":"@Vi Dai Tra:Đi tns nhanh thì 6 tháng-1 năm b nhé.Tiếng Nhật cũng như bất kì tiếng nào.Không khó nếu chăm chỉ 1 chút ^^","can_remove":false,"created_time":"2014-03-27T14:39:11+0000","like_count":0,"user_likes":false},"840552459294766":{"id":"840552459294766","from":{"id":"100003266872458","name":"Trần Thị Anh Thư"},"message":"nếu bạn đi du học thì có lẽ tháng 4 bạn ko đi đc, phải đợi đến tháng 7","can_remove":false,"created_time":"2014-03-27T14:39:47+0000","like_count":1,"user_likes":false},"840552989294713":{"id":"840552989294713","from":{"id":"100007402331679","name":"Peter Toàn"},"message":"E đóng tiền học phí chưa?","can_remove":false,"created_time":"2014-03-27T14:40:47+0000","like_count":1,"user_likes":false},"840553032628042":{"id":"840553032628042","from":{"id":"100004083892724","name":"Linh Linh"},"message":"Quang Pro mjh chua di nhug p mjh sag day dc 5 thag oy...cv khá ổn....","message_tags":[{"id":"100003238292151","name":"Quang Pro","type":"user","offset":0,"length":9}],"can_remove":false,"created_time":"2014-03-27T14:40:55+0000","like_count":0,"user_likes":false},"840553145961364":{"id":"840553145961364","from":{"id":"100003181743412","name":"Pham Kha"},"message":"cũng có nhiều trường nó chưa gửi về và chưa có visa mà","can_remove":false,"created_time":"2014-03-27T14:41:13+0000","like_count":0,"user_likes":false},"840553969294615":{"id":"840553969294615","from":{"id":"100003238292151","name":"Quang Pro"},"message":"Nếu bạn đi tns thì mình ủng hộ.còn đi theo dhs để kiếm tiền thì mình khuyên chân thành 1 câu là ở VIỆT NAM cho khoẻ","can_remove":false,"created_time":"2014-03-27T14:43:13+0000","like_count":5,"user_likes":false},"840554529294559":{"id":"840554529294559","from":{"id":"100006712992259","name":"Thảo Lê"},"message":"e chưa đóng tiền a @peter toàn ạ","can_remove":false,"created_time":"2014-03-27T14:44:40+0000","like_count":0,"user_likes":false},"840555052627840":{"id":"840555052627840","from":{"id":"100004083892724","name":"Linh Linh"},"message":"Oi...p chua dong tien thi nta ko cho p di la dug oy....","can_remove":false,"created_time":"2014-03-27T14:45:55+0000","like_count":0,"user_likes":false},"840555595961119":{"id":"840555595961119","from":{"id":"100003266872458","name":"Trần Thị Anh Thư"},"message":"nếu ko có tư cách lưu trú thì cũng gay go thật. bởi nó là điều kiện cần để xin visa","can_remove":false,"created_time":"2014-03-27T14:47:12+0000","like_count":0,"user_likes":false},"840556099294402":{"id":"840556099294402","from":{"id":"100006712992259","name":"Thảo Lê"},"message":"nhưng bh có tư cách lưu trú thỳ mới nộp tiền bạn Linh Linh ah","message_tags":[{"id":"100004083892724","name":"Linh Linh","type":"user","offset":49,"length":9}],"can_remove":false,"created_time":"2014-03-27T14:48:28+0000","like_count":0,"user_likes":false},"840556715961007":{"id":"840556715961007","from":{"id":"100002965859167","name":"Nguyễn Thanh Hải"},"message":"uhk,đợi đi t7 đi em nha,,giờ mà chưa có thì ko hi vọng gì đâu ,,","can_remove":false,"created_time":"2014-03-27T14:50:04+0000","like_count":1,"user_likes":false},"840557585960920":{"id":"840557585960920","from":{"id":"100007402331679","name":"Peter Toàn"},"message":"Ừ vậy là đến 98% e trượt đợt T4 này rùi vì kết quả COE đến thời điểm này không còn tr nào ko có nhé.Nếu muốn đi tiếp thì e phải đợi 6 tháng tức là đợt T10 cơ.Còn về việc sang sướng hay khổ thì không ai biết trước được nhưng a có 1 điều chia sẻ với e là:Cái gì cũng có cái giá của nó cả thôi.Chúc e có 1 cái định hướng đúng đắn ^_^","can_remove":false,"created_time":"2014-03-27T14:52:13+0000","like_count":5,"user_likes":false},"840557992627546":{"id":"840557992627546","from":{"id":"100004039857628","name":"Yen Chu"},"message":"K sao","can_remove":false,"created_time":"2014-03-27T14:53:18+0000","like_count":0,"user_likes":false},"840558229294189":{"id":"840558229294189","from":{"id":"100004039857628","name":"Yen Chu"},"message":"Tháng 4 có 2 đợt visa mà. Ngày trước tớ cũng thế","can_remove":false,"created_time":"2014-03-27T14:53:49+0000","like_count":1,"user_likes":false},"840559005960778":{"id":"840559005960778","from":{"id":"100003835652381","name":"Vi Dai Tra"},"message":"Quang Pro cog viek ben do tn  nhj","message_tags":[{"id":"100003238292151","name":"Quang Pro","type":"user","offset":0,"length":9}],"can_remove":false,"created_time":"2014-03-27T14:55:51+0000","like_count":0,"user_likes":false},"840559602627385":{"id":"840559602627385","from":{"id":"100003094158721","name":"Hikari Truong"},"message":"60% trượt visa... Giờ họ nhập học đến nơi rồi ạ...","can_remove":false,"created_time":"2014-03-27T14:57:36+0000","like_count":1,"user_likes":false},"840559649294047":{"id":"840559649294047","from":{"id":"100003835652381","name":"Vi Dai Tra"},"message":"Peter Toàn mjnh cung  hok mot o ngoai dk it chu.nhug lau ma ko dung thi wen.jo vao nhap hok ko bit tn","can_remove":false,"created_time":"2014-03-27T14:57:41+0000","like_count":0,"user_likes":false},"840559765960702":{"id":"840559765960702","from":{"id":"100003094158721","name":"Hikari Truong"},"message":"60% trượt visa... Giờ họ nhập học đến nơi rồi ạ...","can_remove":false,"created_time":"2014-03-27T14:58:07+0000","like_count":0,"user_likes":false},"840559979294014":{"id":"840559979294014","from":{"id":"100003616116150","name":"Nguyễn Phúc Tuấn"},"message":"E bị lừa rồi :))","can_remove":false,"created_time":"2014-03-27T14:58:44+0000","like_count":0,"user_likes":false},"840560199293992":{"id":"840560199293992","from":{"id":"100004505651073","name":"Lão Hạc"},"message":"Gửi Bé Pùn, nếu nộp hồ sơ du học tháng 4 mà hôm nay 27/3 rồi vẫn chưa có kết quả tư cách lưu trú thì e nên hỏi kỹ trung tâm xem đã gửi hồ sơ của E đi chưa. Bởi khi hồ sơ của E từ trung tâm gửi qua trường thì nhà trường sẽ kiểm duyệt trước , nếu hồ sơ OK thì nhà trường sẽ chuyển tới Cục quản lý nhập cảnh còn ko Ok thì nhà trường liên hệ hoăjch trả lại trung tâm ngay, trường hợp nhà trường OK thì gửi tới cục quản lý nhập cảnh để xin tư cách lưu trú. Nếu học tháng tư thì sẽ có tư cách lưu trú hoặc trượt tư cách lưu trú muộn nhất là giữa tháng 3 rồi. Trường hợp của E anh nghĩ là hồ sơ chưa qua tới trường, vì Nhật Bản ko giống VN, được là được , không là không chứ không phải là tới giờ này vẫn chờ đợi như vậy.","can_remove":false,"created_time":"2014-03-27T14:59:19+0000","like_count":6,"user_likes":false},"840560499293962":{"id":"840560499293962","from":{"id":"100006859893056","name":"Yến Thanh"},"message":"bị lừa rồi. đợi đợt sau hoặc kiếm công ty khác cho yên tâm đi","can_remove":false,"created_time":"2014-03-27T15:00:04+0000","like_count":1,"user_likes":false},"840560682627277":{"id":"840560682627277","from":{"id":"100003616116150","name":"Nguyễn Phúc Tuấn"},"message":"Lão Hạc like (y)","can_remove":false,"created_time":"2014-03-27T15:00:41+0000","like_count":1,"user_likes":false},"840561215960557":{"id":"840561215960557","from":{"id":"100007405563856","name":"Mirea Nguyen"},"message":"Hix bạn,bên trường mình có kqua là muộn nhất trong các vùng mà đã có cách đây gần 2 tuần rồi :(","can_remove":false,"created_time":"2014-03-27T15:01:46+0000","like_count":1,"user_likes":false},"840561235960555":{"id":"840561235960555","from":{"id":"100007402331679","name":"Peter Toàn"},"message":"Ừ nó có phải là thứ tiếng mẹ đẻ đâu nên lâu thì chả quên b ơi :D Đi tns thì tùy vào nghành nhé.Con trai thì cứ đi xây dựng hoặc đúc thì lương cao (y)","can_remove":false,"created_time":"2014-03-27T15:01:50+0000","like_count":0,"user_likes":false},"840561895960489":{"id":"840561895960489","from":{"id":"100007405563856","name":"Mirea Nguyen"},"message":"Bên trương mình khai giảng vào ngày 16/4,trễ nhất trong tất cả các trường nên có kqua muộn,b hỏi kĩ cty xem,có thể nó giấu kqua","can_remove":false,"created_time":"2014-03-27T15:03:33+0000","like_count":1,"user_likes":false},"840570482626297":{"id":"840570482626297","from":{"id":"100005217243496","name":"Dai Gia Oto"},"message":"Jo ma chua thay ji tuc la truot visa rui.dug mog doi ji ka","can_remove":false,"created_time":"2014-03-27T15:25:37+0000","like_count":0,"user_likes":false},"840571449292867":{"id":"840571449292867","from":{"id":"100001546837960","name":"Chung Goldstar"},"message":"Em đi trường nào ? Năm ngoái bên anh 4.4 mới báo kết quả visa của tháng 4 đấy.","can_remove":false,"created_time":"2014-03-27T15:28:05+0000","like_count":1,"user_likes":false},"840574062625939":{"id":"840574062625939","from":{"id":"100003632114986","name":"Tài Tử Tế"},"message":"Cũng không hẳn là bị trượt đâu bạn có nhiều trường nhập học muộn. Có trường đầu tháng 4 mới có bạn ak. Kinh tế ko có gì trục chặc là oke thôi bạn ak!!! Luôn hy vọng nhé.","can_remove":false,"created_time":"2014-03-27T15:33:37+0000","like_count":1,"user_likes":false},"840577072625638":{"id":"840577072625638","from":{"id":"100004394924539","name":"Jinvôlối Nguyễn"},"message":"Kiểu này pải nhập học thág 7","can_remove":false,"created_time":"2014-03-27T15:41:25+0000","like_count":0,"user_likes":false},"840760632607282":{"id":"840760632607282","from":{"id":"100003821557908","name":"Ku Tèo"},"message":"trượt r e ak","can_remove":false,"created_time":"2014-03-27T23:02:18+0000","like_count":0,"user_likes":false},"840765992606746":{"id":"840765992606746","from":{"id":"100007756088326","name":"Trung Pham"},"message":"Giờ mà chưa có thì chờ tháng 7 đi e.chắc e bị trật rồi.trung tâm nó nói thế khỏi mình nản bỏ cuộc thôi.chờ t7 xem","can_remove":false,"created_time":"2014-03-27T23:16:49+0000","like_count":0,"user_likes":false},"840770605939618":{"id":"840770605939618","from":{"id":"100003835652381","name":"Vi Dai Tra"},"message":"Peter Toàn the ban di nghanh nao.ngay xua ban hok o dau.thay o nha bo du toan la nghanh co khj thui ban ah","can_remove":false,"created_time":"2014-03-27T23:31:09+0000","like_count":0,"user_likes":false},"840770849272927":{"id":"840770849272927","from":{"id":"100003835652381","name":"Vi Dai Tra"},"message":"Peter Toàn bi quyet de phong van dk ko","can_remove":false,"created_time":"2014-03-27T23:31:47+0000","like_count":0,"user_likes":false},"840807302602615":{"id":"840807302602615","from":{"id":"100006712992259","name":"Thảo Lê"},"message":"e đi cái trường này mọi người ạ https://www.facebook.com/SendagayaJapaneseInstitute?fref=ts","can_remove":false,"created_time":"2014-03-28T01:18:30+0000","like_count":0,"user_likes":false},"840807922602553":{"id":"840807922602553","from":{"id":"100006712992259","name":"Thảo Lê"},"message":"e hỏi kĩ lắm rui.. trung tâm e bảo ko phải lo đâu.. rùi e sẽ đc đi trong tháng 4.. về kêu pama chuẩn  bị tiền đi. hị hị. bao giờ có kết quả sẽ thông báo với e ngay. :'( haizzzzzzz","can_remove":false,"created_time":"2014-03-28T01:20:23+0000","like_count":1,"user_likes":false},"840808325935846":{"id":"840808325935846","from":{"id":"100006712992259","name":"Thảo Lê"},"message":"Yen Chu Chung Goldstar thật ko ạ :3","can_remove":false,"created_time":"2014-03-28T01:21:41+0000","like_count":0,"user_likes":false},"840847985931880":{"id":"840847985931880","from":{"id":"100007402331679","name":"Peter Toàn"},"message":"Mình đã từng đăng kí dh nhưng trượt 1 lần sau đó đăng kí tns nhưng nghe bảo vẫn đi dh được nên mình theo đường dh và bây giờ đang chờ lấy visa bạn à.Kinh nghiệm đi tns qua thực tế mình cũng đã từng đi tuyển thì thái độ lúc tuyển rất quan trọng.Bạn cứ tự tin trả lời phỏng vấn,đừng rụt rè.Không nói đc tiếng Nhật thì cứ Vietnamese mà phang :D","can_remove":false,"created_time":"2014-03-28T02:32:44+0000","like_count":2,"user_likes":false},"840912595925419":{"id":"840912595925419","from":{"id":"100000210061617","name":"Vũ Tuấn"},"message":"Hnay mình mới có kết quả @@","can_remove":false,"created_time":"2014-03-28T05:41:55+0000","like_count":0,"user_likes":false},"840914259258586":{"id":"840914259258586","from":{"id":"100007405563856","name":"Mirea Nguyen"},"message":"Vũ Tuấn b có kqua trễ thế ak,b đi vùng nào vậy","can_remove":false,"created_time":"2014-03-28T05:46:32+0000","like_count":0,"user_likes":false},"840914625925216":{"id":"840914625925216","from":{"id":"100000628549116","name":"Hoàng Chính"},"message":"Phai chịu chứ sao","can_remove":false,"created_time":"2014-03-28T05:47:40+0000","like_count":0,"user_likes":false},"840915242591821":{"id":"840915242591821","from":{"id":"100000210061617","name":"Vũ Tuấn"},"message":"Mình đi chiba, mình nộp hồ sơ lên cục muộn bạn ah","can_remove":false,"created_time":"2014-03-28T05:50:12+0000","like_count":1,"user_likes":false},"840915685925110":{"id":"840915685925110","from":{"id":"100004249722210","name":"Lật Đật"},"message":"Vũ Tuấn t cũng vẫn chưa có kết quả. bạn nộp hồ sơ từ bao giờ thế","can_remove":false,"created_time":"2014-03-28T05:52:04+0000","like_count":0,"user_likes":false},"840916165925062":{"id":"840916165925062","from":{"id":"100000210061617","name":"Vũ Tuấn"},"message":"Cuối tháng 12 b ah","can_remove":false,"created_time":"2014-03-28T05:54:06+0000","like_count":1,"user_likes":false},"840916539258358":{"id":"840916539258358","from":{"id":"100004249722210","name":"Lật Đật"},"message":"giờ này mà vẫn chưa có giấy tạm trú ở nhật.. liệu hồ sơ của t cũng bị truowtk rùi ko nhể","can_remove":false,"created_time":"2014-03-28T05:55:35+0000","like_count":0,"user_likes":false},"840916922591653":{"id":"840916922591653","from":{"id":"100000210061617","name":"Vũ Tuấn"},"message":"T nghĩ trc 1-4 là có hết thôi","can_remove":false,"created_time":"2014-03-28T05:56:30+0000","like_count":0,"user_likes":false},"840926615924017":{"id":"840926615924017","from":{"id":"100006712992259","name":"Thảo Lê"},"message":"bạn có lịch bay chưa. hị hị","can_remove":false,"created_time":"2014-03-28T06:26:53+0000","like_count":0,"user_likes":false}},"paging":{"cursors":{"after":"ODQwNTQ4NjQ1OTYxODE0","before":"ODQwNTQ4NjQ1OTYxODE0"},"next":"https://graph.facebook.com/229244010425617_840548129295199/comments?limit=1&summary=1&after=ODQwNTQ4NjQ1OTYxODE0"},"summary":{"order":"chronological","total_count":59}}}