{"id":"229244010425617_840509412632404","type":"status","from":{"id":"100005801442456","name":"An Nguyen"},"message":"Nãy thấy bạn Ngưu Tỷ tỷ viết những dòng tâm sự về cuộc sống trên diễn đàn rất hay. Mình nghĩ mọi người cùng lập topic  \" trải nghiệm cá nhân \" nhỉ?\n\n Nó như dạng blog mở vậy ấy, rồi từ ấy mọi người có thể nhìn được thêm nhiều khía cạnh của cuộc sống ở Nhật. Tốt có, xấu cũng có ... Nhưng quan trọng là chúng ta có nơi để cùng sẽ chia suy nghĩ và trải lòng cùng nhau. Hôm nào cũng đóng góp với mọi người :) \n\nAdmin lập giúp phát nhỉ ?","created_time":"2014-03-27T13:03:56+0000","updated_time":"2014-03-28T03:29:43+0000","likes":{"data":{"100004360751785":{"id":"100004360751785","name":"Hà Nguyễn"},"100000399315424":{"id":"100000399315424","name":"Rô Rô"},"100005390825802":{"id":"100005390825802","name":"Tuylip Trắng"},"100002963737004":{"id":"100002963737004","name":"Hà Phùng"},"100001526631937":{"id":"100001526631937","name":"Tường Oanh Mineko"},"100001243411261":{"id":"100001243411261","name":"Ngưu Tỷ Tỷ"},"100004194190922":{"id":"100004194190922","name":"Meo Luoi"},"100003913383051":{"id":"100003913383051","name":"Tho Tran"},"100004254661893":{"id":"100004254661893","name":"Anh Là Tú"},"100000708958288":{"id":"100000708958288","name":"Mizu Le"},"1462597562":{"id":"1462597562","name":"Intel Zhang"},"100000500260636":{"id":"100000500260636","name":"Lưu Nguyễn Thảo Tiên"},"100002853438802":{"id":"100002853438802","name":"Thanh Thu"},"100002982047200":{"id":"100002982047200","name":"Buồn Ngủ"},"100003587314679":{"id":"100003587314679","name":"Why Die"},"100001432462223":{"id":"100001432462223","name":"Truong Nguyen"},"100004445826984":{"id":"100004445826984","name":"Ong Noi Viet"},"100003213171499":{"id":"100003213171499","name":"Van Nguyen"},"100000346062611":{"id":"100000346062611","name":"Huyen Nguyen"},"100007396898008":{"id":"100007396898008","name":"My Hanh"},"1146680551":{"id":"1146680551","name":"優しい なぁ"},"1416265619":{"id":"1416265619","name":"Starwar Bbj"},"100001161695859":{"id":"100001161695859","name":"Heo Cát"},"100007728841810":{"id":"100007728841810","name":"Rắc Iốt"},"525828985":{"id":"525828985","name":"Cindy Taiki"},"100003837141956":{"id":"100003837141956","name":"Mai Hoàng"},"100006716646759":{"id":"100006716646759","name":"Huy Thắng"},"100007880444320":{"id":"100007880444320","name":"自由"},"100003739730542":{"id":"100003739730542","name":"Kumiko Pjzu"},"100007468213697":{"id":"100007468213697","name":"Minh Cảnh"},"100000204870157":{"id":"100000204870157","name":"Pham Thanh Hai"},"1670530045":{"id":"1670530045","name":"Dinh Ngoc Hung"},"100004285329814":{"id":"100004285329814","name":"Nhóc Maruko"},"100002615664668":{"id":"100002615664668","name":"PuPu Phương Elf"},"100001416272263":{"id":"100001416272263","name":"Mai PB"},"100003748618992":{"id":"100003748618992","name":"Nguyen Tien Hiep"},"569263718":{"id":"569263718","name":"Phuong Thao Tran"},"100003810756955":{"id":"100003810756955","name":"Bờm Bụng Bự"},"100001464403812":{"id":"100001464403812","name":"Son Nguyen Ngoc"},"100004259829083":{"id":"100004259829083","name":"Nỏ Bít Nak"},"100002339089186":{"id":"100002339089186","name":"Thinh Nguyen Viet"}},"paging":{"cursors":{"after":"MTAwMDA0MzYwNzUxNzg1","before":"MTAwMDA0MzYwNzUxNzg1"},"next":"https://graph.facebook.com/229244010425617_840509412632404/likes?limit=1&summary=1&after=MTAwMDA0MzYwNzUxNzg1"},"summary":{"total_count":42}},"comments":{"data":{"840522482631097":{"id":"840522482631097","from":{"id":"100001416272263","name":"Mai PB"},"message":"Sẽ có mục đó","can_remove":false,"created_time":"2014-03-27T13:34:21+0000","like_count":1,"user_likes":false},"840533275963351":{"id":"840533275963351","from":{"id":"1146680551","name":"優しい なぁ"},"message":"Em thấy có mục trải nghiệm cuộc sống Nhật mà?","can_remove":false,"created_time":"2014-03-27T13:59:56+0000","like_count":0,"user_likes":false},"840534149296597":{"id":"840534149296597","from":{"id":"100001416272263","name":"Mai PB"},"message":"Ý An Nguyen là mục kể lể tự sự, ai nghe thì nghe, có ích không thì không biết. :-)","message_tags":[{"id":"100005801442456","name":"An Nguyen","type":"user","offset":2,"length":9}],"can_remove":false,"created_time":"2014-03-27T14:02:15+0000","like_count":6,"user_likes":false},"840565675960111":{"id":"840565675960111","from":{"id":"100003165554056","name":"Sâu Bét"},"message":"T nghĩ là lên lập cái topic cái gì mà Con phết sần nồ hay cái gì mà ng viết có thể nói như kiểu tự thú hay đại loại ấy ấy( cái này mới đây mốt lắm) để các b vừa có thể nói về cuộc sống cá nhân, ngoài ra có thể thổ lộ những việc xấu hổ đã làm và cảm nghĩ của chính ng đó.","can_remove":false,"created_time":"2014-03-27T15:13:30+0000","like_count":0,"user_likes":false},"840570019293010":{"id":"840570019293010","from":{"id":"100001432462223","name":"Truong Nguyen"},"message":"có ông lợi dụng trào lưu, rao vặt trá hình kìa add :)) vụ này thích thế :)","can_remove":false,"created_time":"2014-03-27T15:24:17+0000","like_count":0,"user_likes":false},"840573955959283":{"id":"840573955959283","from":{"id":"100003587314679","name":"Why Die"},"message":"Truong Nguyen : anh ác quá trời nhề... :)))","can_remove":false,"created_time":"2014-03-27T15:33:18+0000","like_count":0,"user_likes":false},"840575849292427":{"id":"840575849292427","from":{"id":"100001432462223","name":"Truong Nguyen"},"message":":)) đội vs a cú chuyên chọc tổ ong, phá tổ mối :)) e nhận vơ tí","can_remove":false,"created_time":"2014-03-27T15:37:46+0000","like_count":0,"user_likes":false},"840576989292313":{"id":"840576989292313","from":{"id":"100003587314679","name":"Why Die"},"message":":))) em là em khắc cốt ghi tâm rồi ạ.","can_remove":false,"created_time":"2014-03-27T15:41:07+0000","like_count":0,"user_likes":false},"840583759291636":{"id":"840583759291636","from":{"id":"100005801442456","name":"An Nguyen"},"message":"Cho cái bài lâu lắc lâu lơ của e vào luôn đi :)","can_remove":false,"created_time":"2014-03-27T15:47:57+0000","like_count":0,"user_likes":false},"840583839291628":{"id":"840583839291628","from":{"id":"100001432462223","name":"Truong Nguyen"},"message":"mà bán đc cho add 5yen hoa hồng. Mấy ông lờ đi rồi đấy :)) tớ thì thôi, ngại lắm =))","can_remove":false,"created_time":"2014-03-27T15:48:05+0000","like_count":0,"user_likes":false},"840584382624907":{"id":"840584382624907","from":{"id":"100003587314679","name":"Why Die"},"message":"😳 thôi mà.. Em bán được em chích % cho. Ko thì mở tiệc..bằng đấy mở tiệc to lắm ấy :p","can_remove":false,"created_time":"2014-03-27T15:49:29+0000","like_count":1,"user_likes":false},"840585079291504":{"id":"840585079291504","from":{"id":"100001432462223","name":"Truong Nguyen"},"message":"tùy bạn, ae nói bé với nhau thôi :))","can_remove":false,"created_time":"2014-03-27T15:50:31+0000","like_count":0,"user_likes":false},"840587865957892":{"id":"840587865957892","from":{"id":"100000500260636","name":"Lưu Nguyễn Thảo Tiên"},"message":"Iem đang viết tự nhiên nhớ tenchou quá huhu","can_remove":false,"created_time":"2014-03-27T15:57:20+0000","like_count":2,"user_likes":false},"840588872624458":{"id":"840588872624458","from":{"id":"100001432462223","name":"Truong Nguyen"},"message":"có gì bán ko Tiên :)) mà sao tenchou thân thiết nhỉ :v","can_remove":false,"created_time":"2014-03-27T15:59:38+0000","like_count":1,"user_likes":false},"840590262624319":{"id":"840590262624319","from":{"id":"100003587314679","name":"Why Die"},"message":"Há há.. Chưa chi đã hỏi có gì bán ko ? :))) vỡ bụng..","can_remove":false,"created_time":"2014-03-27T16:03:05+0000","like_count":0,"user_likes":false},"840591815957497":{"id":"840591815957497","from":{"id":"100001432462223","name":"Truong Nguyen"},"message":":3 tôi hỏi về tenchou mà, xuyên tạc :))","can_remove":false,"created_time":"2014-03-27T16:06:24+0000","like_count":0,"user_likes":false},"840592209290791":{"id":"840592209290791","from":{"id":"100003587314679","name":"Why Die"},"message":"Ơ kia kìa :p","can_remove":false,"created_time":"2014-03-27T16:07:23+0000","like_count":0,"user_likes":false},"840593619290650":{"id":"840593619290650","from":{"id":"100001432462223","name":"Truong Nguyen"},"message":"ah nghe nói tình trạng quấy rối cấp dưới ở NB nhiều. Cậu bị chưa, thấy tenchou của cậu thích trang điểm :3","can_remove":false,"created_time":"2014-03-27T16:10:37+0000","like_count":0,"user_likes":false},"840593642623981":{"id":"840593642623981","from":{"id":"100005801442456","name":"An Nguyen"},"message":"https://m.facebook.com/home.php?feed_ufi=comments#!/photo.php?fbid=175122506024463&id=100005801442456&set=o.229244010425617&source=43 bài này nẻ","can_remove":false,"created_time":"2014-03-27T16:10:43+0000","like_count":0,"user_likes":false},"840594192623926":{"id":"840594192623926","from":{"id":"100005801442456","name":"An Nguyen"},"message":"Mà mấy bác sao tám đi đâu không vậy ? Ngồi inbox cho nó thoải mái, chứ cm thế này bài nó cứ lên top không đâu. Để bài người ta còn đc chứ ý đến nữa chứ ?!?","can_remove":false,"created_time":"2014-03-27T16:12:43+0000","like_count":1,"user_likes":false},"840594605957218":{"id":"840594605957218","from":{"id":"100001432462223","name":"Truong Nguyen"},"message":":3 e xin lỗi, a ko thích nổi :3","can_remove":false,"created_time":"2014-03-27T16:13:59+0000","like_count":0,"user_likes":false},"840597129290299":{"id":"840597129290299","from":{"id":"100000500260636","name":"Lưu Nguyễn Thảo Tiên"},"message":"Chú Truong Nguyen spam nhiều quá đi nha! Cái gì bán là gì! Mún mua gì?\nNhờ ổng mà tui thèm ramen điên dại, mỗi làn ăn ramen là nhớ ổng! Haizzz","message_tags":[{"id":"100001432462223","name":"Truong Nguyen","type":"user","offset":4,"length":13}],"can_remove":false,"created_time":"2014-03-27T16:20:53+0000","like_count":0,"user_likes":false},"840603242623021":{"id":"840603242623021","from":{"id":"100001432462223","name":"Truong Nguyen"},"message":"e xin lỗi chị Tiên :3 cơ mà e thấy đồ gì chị chẳng thèm mà, cứ gì ramen :v","can_remove":false,"created_time":"2014-03-27T16:34:37+0000","like_count":0,"user_likes":false},"840781982605147":{"id":"840781982605147","from":{"id":"100001458099624","name":"Kham Pha"},"message":"cho luôn vào mục [Trải nghiệm cuộc sống Nhật]. Tách nhiều chuyên mục quá sẽ bị loạn.","can_remove":false,"created_time":"2014-03-28T00:04:05+0000","like_count":1,"user_likes":false},"840783585938320":{"id":"840783585938320","from":{"id":"100003913383051","name":"Tho Tran"},"message":"Chắc mình cũng phải viết một bài quớ @@","can_remove":false,"created_time":"2014-03-28T00:09:02+0000","like_count":3,"user_likes":false},"840783869271625":{"id":"840783869271625","from":{"id":"100001458099624","name":"Kham Pha"},"message":"Tho Tran (y)","message_tags":[{"id":"100003913383051","name":"Tho Tran","type":"user","offset":0,"length":8}],"can_remove":false,"created_time":"2014-03-28T00:09:37+0000","like_count":1,"user_likes":false},"840783929271619":{"id":"840783929271619","from":{"id":"100003913383051","name":"Tho Tran"},"message":":P","can_remove":false,"created_time":"2014-03-28T00:09:50+0000","like_count":0,"user_likes":false},"840793229270689":{"id":"840793229270689","from":{"id":"100001243411261","name":"Ngưu Tỷ Tỷ"},"message":"Mong muốn được nghe câu chuyện của những công việc baito khác nữa :)","can_remove":false,"created_time":"2014-03-28T00:41:01+0000","like_count":4,"user_likes":false},"840868782596467":{"id":"840868782596467","from":{"id":"100006827047311","name":"Chu Chu"},"message":"ủng hộ","can_remove":false,"created_time":"2014-03-28T03:29:43+0000","like_count":0,"user_likes":false}},"paging":{"cursors":{"after":"ODQwNTIyNDgyNjMxMDk3","before":"ODQwNTIyNDgyNjMxMDk3"},"next":"https://graph.facebook.com/229244010425617_840509412632404/comments?limit=1&summary=1&after=ODQwNTIyNDgyNjMxMDk3"},"summary":{"order":"chronological","total_count":29}}}