{"id":"229244010425617_840508215965857","type":"photo","object_id":"767250679953101","picture":"https://fbcdn-photos-d-a.akamaihd.net/hphotos-ak-ash4/t1.0-0/10153798_767250679953101_1555191781_s.jpg","link":"https://www.facebook.com/photo.php?fbid=767250679953101&set=pcb.840508215965857&type=1&relevant_count=2","from":{"id":"100000045271667","name":"Nam Thai Nguyen"},"message":"Đọc  đoạn nhật ký hành trình phiêu bên xứ Phù Tang này lai nhớ câu  ngạn ngữ Tây Ban Nha nổi tiếng: \"Ngay cả khi trong túi hết tiền, cái mũ trên đầu anh cũng phải đội cho ngay ngắn” . \n---------------------------------------------------------------------------\nTự trọng Nhật Bản \n\n tác giả: Đỗ Ngọc Thống\nThứ bảy, 15 Tháng 2 2014\n\nTôi đến đất nước Phù Tang đúng vào những ngày tết Quý Tỵ. Nước Nhật ăn tết Tây, nhưng do có nhiều người Hoa và Việt kiều nên không khí tết cổ truyền Á Đông vẫn có. Biết về nước Nhật, đọc và xem báo chí, sách vở, phim ảnh về Nhật đã nhiều; và cũng chỉ cách 4-5 giờ bay mà bây giờ tôi mới có dịp ngắm nhìn trực tiếp đất nước “mặt trời mọc”.\n\nBắt đầu từ sân bay Narita về Thủ đô Tokyo, nhìn phố xá, nhà cửa, con người… không thấy khác ta là mấy, trừ sự sạch sẽ và ngăn nắp. Nước Nhật sạch đến lạ kỳ. Không chỉ ở Thủ đô mà tất cả mọi nơi tôi đến, dễ đến mấy chục địa điểm trong vòng 7 ngày, từ thành phố đến nông thôn…tất cả đều sạch như vừa mới lau chùi, quét dọn xong. Vẻ đẹp của đất nước này là vẻ đẹp của sự kết hợp hài hòa giữa một bên là dáng vẻ hùng dũng của ngọn núi Phú Sĩ (Fujisan), tinh thần quả cảm của các Samurai và một bên là vẻ đẹp thanh nhã, mong manh của những cánh hoa anh đào, sự e ấp của các cô thiếu nữ Nhật trong bộ Kimono truyền thống.\n\nĐi cùng tôi là một anh bạn người Nhật gốc Việt, thành thạo cả hai thứ tiếng, anh đã sống ở Nhật gần 20 năm. Trong suốt chặng đường đồng hành ấy, anh kể cho tôi nghe biết bao nhiêu chuyện về nước Nhật, người Nhật, những gì anh đã nghe và chứng kiến. Trong muôn vàn chuyện ấy, để lại trong tôi ấn tượng mạnh nhất là những câu chuyện về lòng tự trọng của người Nhật bản. Cũng là dân châu Á, da vàng, thấp bé, tóc đen, mũi tẹt… mà sao dân Nhật lại khác biệt về lòng tự trọng đến thế.\n\nTừ thuở ấu thơ tôi đã từng nghe chuyện về những người lính Nhật đóng chiếm Đông Dương, trong đó có Việt Nam, vào đầu những năm 40 của thế kỉ trước, khi thất thủ không chịu làm tù binh, trung thành với tổ quốc, không phản bội Nhật Hoàng, không chịu nhục…đã mổ bụng tự sát. Xem phim Nhật cũng thấy lòng tự trọng ấy thể hiện rất rõ ở tinh thần võ sĩ đạo – Samurai, tinh thần sẵn sàng chết trong danh dự, vì danh dự.\n\nGiờ nghe những chuyện kể đời thường của người dân Nhật, mới thấy đó là cả một truyền thống, một cốt tính của người Nhật chứ đâu phải chỉ là “đặc quyền” của một giai tầng. Chẳng phải thế mà một người ăn xin, trong đêm giao thừa, không nhà không cửa, khi được mời uống rượu vui cùng mọi người ở một công viên đã kiên quyết chối từ, nếu không cho ông góp công bằng cách dọn dẹp, bày biện, quét dọn nơi tụ họp. Rồi một cặp vợ chồng già, nuôi gà trang trại, do vô tình không biết trong đàn gà của vợ chồng mình có 2 con bị cúm, sau khi nhập sản phẩm, người ta phát hiện ra…ông bà xấu hổ quá, đêm đến bèn thắt cổ tự vẫn.\n\nTôi bàng hoàng khi biết mỗi năm đất nước này có tới 35.000 người tự tử, cứ một ngày có tới 90 người nhảy lầu; hàng năm người ta tìm thấy hàng trăm xác người tự vẫn trong núi Phú Sĩ. Tất nhiên việc tự tử có nhiều nguyên do, nhưng lý do chính vẫn là xuất phát từ lòng tự trọng, không chịu được nỗi nhục và sự xấu hổ. Một ông chủ nhà băng vỡ nợ, một công nhân vừa bị đuổi việc, một kĩ sư vừa bị sa thải, một học sinh vừa thi trượt đại học… thế là tự tử.\n\nChính vì thế người Nhật rất kiêng kị khi xúc phạm người khác, họ tìm mọi cách nói giảm, nói tránh, bằng những hành động nhẹ nhàng, ít tính đe dọa, ít “bóc mẽ\" người khác trước đám đông. Khi một lái xe phạm luật giao thông, người cảnh sát không bắt tài xế phải xuống trình giấy tờ mà chính cảnh sát phải tới sát buồng lái để hỏi, chỉ vì để giữ cho người lái xe khỏi bị xúc phạm. Một cửa hàng sau khi lắp đặt camera để quản lý và trông coi hàng hóa phòng khi bị mất cắp, lập tức sau một thời gian không có người Nhật nào đến mua hàng nữa. Lý do cửa hàng bị tẩy chay vì như thế là không tin vào phẩm chất trung thực, cũng có nghĩa là đã xúc phạm lòng tự trọng của người Nhật. Từ đó các siêu thị ở Nhật không có camera như ở các nơi khác. Các nhân viên của công ty đi công tác hoặc làm việc công không cần lấy hóa đơn, dấu má gì mà chỉ khai theo ghi chép của chính người đó: vé tàu xe hết bao nhiêu, chi phí công việc mất bao nhiêu, ăn uống hết thế nào… Người ta tin tưởng tuyết đối vào sự trung thực của nhân viên. Tất nhiên cũng có trường hợp gian lận này nọ xảy ra… nhưng khi bị lộ người này chắn chắn mất việc, cao hơn nữa là mất cả lòng tự trọng và rất dễ lại xảy ra một vụ tự sát…\n\nTôi rất thích câu chuyện mang đầy tính giáo dục về lòng tự trọng này: Ở Nhật khi một đứa trẻ 2-3 tuổi lẫm chẫm đi theo mẹ, chẳng may bị trượt ngã, không bao giờ người mẹ cuống quýt, vội vã đỡ con dậy. Thay vào đó, bà mẹ quay lại nói với đứa trẻ: con hãy cố tự mình mà đứng dậy. Không sống dựa dẫm, cố mà đứng dậy ngay chỗ mình vấp ngã là tinh thần và ý thức mà người Nhật được dạy dỗ ngay từ khi còn nhỏ.\n\nCó lẽ vì tránh sự xúc phạm vào lòng tự trọng của mỗi con người mà ngay cả trong gia đình, khi vợ chồng xung đột, người Nhật thường không cãi vã mà chỉ im lặng. Im lặng có khi cả tuần, cả tháng, nhiều tháng. Lâu hơn nữa, rồi bỗng nhiên ra tòa. Ly dị. Thế thôi. Không nói và không hành động gì. Có lẽ khi nói và hành động rất dễ xúc phạm đến người khác, chắc họ cũng nghĩ “một lời nói, một đọi máu”, nhất là lúc đang giận dữ. Người Nhật chọn giải pháp Im lặng như một minh triết về lòng tự trọng.\n\n Không nhờ cậy, không làm phiền người khác, không lấy không của ai cái gì và cũng không cho không ai cái gì. Một anh bạn ngỏ lời xin điếu thuốc lá, bạn anh đương nhiên đưa ngay. Nhưng cũng rất nhanh, anh xin thuốc rút trong túi ra 10-15 Yên trả cho người đưa thuốc đúng số tiền của điếu thuốc vừa nhận. Đi ăn nhậu càng thế, ai ăn người ấy trả. Vui chung thì chia nhau trả. “Không ai phải nợ ai, không ai phải hàm ơn ai”. Họ bảo thế. Lâu lâu thành nếp sống quen, rất dễ chịu. Hình như đó là nguyên tắc sống của người Nhật nói riêng và của các nước phát triển nói chung… Tất nhiên cách sống đó cũng có mặt trái khi nó được thực hiện một cách cực đoan. Cực đoan đến mức như ở Nhật có cặp vợ chồng đi ăn vẫn người nào trả người ấy, con cái không liên quan gì, không bao giờ hỏi vay mượn của bố mẹ gì cả và có hỏi cũng không được thì là một hệ lụy. Vì lòng tự trọng mà có khi cả năm vợ chồng không nói với nhau một câu… thì “ghê” quá.\n\nMột đất nước mà từ người ăn mày, ăn xin đến các viên chức, công dân bình thường có một lòng tự trọng như thế thì dễ hiểu trong vài ba năm, đất nước ấy thay liên tục 4-5 Thủ tướng là chuyện bình thường. Không phải người đứng đầu bị cách chức mà là họ từ chức. Từ chức vì lòng tự trọng. Chẳng lẽ người có học, có văn hóa, có trình độ, có quyền chức… lại không có lòng tự trọng bằng một thằng ăn mày ? Có lẽ họ nghĩ thế ! Kết quả là bất kỳ trong lĩnh vực nào chỉ cần một sai phạm nhỏ, cho dù do cấp dưới gây ra, người đứng đầu vẫn thấy đó là trách nhiệm của chính mình, là lỗi của mình. Người càng có văn hóa cao càng có ý thức nhận lỗi, cho dù họ đúng. Một vị giáo sư khi bị xe người khác làm ngã, ông đứng dậy xin lỗi người làm ông ngã trước: xin lỗi vì tôi mà ông gây ra chuyện này!...\n\nBỗng nhớ tới tấm ảnh về một giáo sư Nhật - Giáo sư Shinya Yamanaka thuộc Đại học Kyoto. Khi bước lên thảm danh dự Stockholm nhận giải thưởng Nobel về y học năm 2012 từ tay quốc vương Thụy Điển, ông đứng thẳng hiên ngang nhìn trực diện vào người trao giải một cách tự tin và tự trọng biết nhường nào\n\nViết đến đây, tôi không thể không dẫn ra bức ảnh về tư thế của ông Tiễn sĩ, Kiến trúc sư NTT, người được trao giải thưởng nhà nước về văn học nghệ thuật của Việt Nam cũng năm 2012 vừa qua. Đây là hình ảnh ông đứng trước Chủ tịch nước Trương Tấn Sang mà báo chí ta đã đưa tin .\n\nTất nhiên trí thức Việt Nam không phải ai cũng có tư thế giống ông này. Nhưng cũng không ít người hình như đã sẵn tư thế ấy từ khi còn nhỏ tuổi. Thành ra khi viết và nghĩ về lòng tự trọng Nhật bản, không thể không dẫn ra bức ảnh này. Dù rất bận lòng và nhức nhối, nhưng may ra đánh thức được lòng tự trọng đang ngủ mê muội ít nhiều trong mỗi người dân Việt, nhất là những người có học.\n ( Sưu tầm )","created_time":"2014-03-27T13:01:14+0000","updated_time":"2014-03-27T17:01:15+0000","likes":{"data":{"100003686965537":{"id":"100003686965537","name":"Chuột Đồng Ra Phố"},"100001291575428":{"id":"100001291575428","name":"Domminique Gia Bảo"},"100007027184090":{"id":"100007027184090","name":"Xuan My"},"100000209556833":{"id":"100000209556833","name":"Ngô Hùng"},"100001526631937":{"id":"100001526631937","name":"Tường Oanh Mineko"},"100003748618992":{"id":"100003748618992","name":"Nguyen Tien Hiep"},"100000387942170":{"id":"100000387942170","name":"Hà Quảng Đạt"},"100004374573625":{"id":"100004374573625","name":"Theu Vu"},"1809939388":{"id":"1809939388","name":"Nguyễn Thạc Huy"},"100005110380591":{"id":"100005110380591","name":"Trang Ureshi"},"100004326585247":{"id":"100004326585247","name":"Phan Hồng Nhung"},"100003055356509":{"id":"100003055356509","name":"Thuan Nguyen"},"100003552696418":{"id":"100003552696418","name":"Thuy Le"},"100001432462223":{"id":"100001432462223","name":"Truong Nguyen"},"100001965604540":{"id":"100001965604540","name":"Nguyen Thi Minh Phuong"},"100004828320480":{"id":"100004828320480","name":"Mai Mai Yeu Em"},"100006034601024":{"id":"100006034601024","name":"Phuong Chibi"},"1466570169":{"id":"1466570169","name":"Vũ Xuân Tân"},"100002053089445":{"id":"100002053089445","name":"Mai Thanh"},"655982125":{"id":"655982125","name":"Le Thi Nga My"},"100003892404629":{"id":"100003892404629","name":"Đại Bàng Lột Xác"},"100002976213828":{"id":"100002976213828","name":"Nana"},"569263718":{"id":"569263718","name":"Phuong Thao Tran"},"100005652213287":{"id":"100005652213287","name":"Viet Mai"},"100003251724696":{"id":"100003251724696","name":"Kủ Chuối"},"100003629647569":{"id":"100003629647569","name":"Heo Lêi Ði"},"100002428163247":{"id":"100002428163247","name":"Trần Đức Hùng"},"100002399803308":{"id":"100002399803308","name":"Quèo Phởn"},"100001416272263":{"id":"100001416272263","name":"Mai PB"},"100003142151591":{"id":"100003142151591","name":"Kendy Pham"},"100001563076732":{"id":"100001563076732","name":"Nguyễn Tam Vũ"},"100000579915348":{"id":"100000579915348","name":"Hoàng Phi Điệp"},"100003653166642":{"id":"100003653166642","name":"Tu Bui"},"100001963269020":{"id":"100001963269020","name":"Ngo Thao"},"620066722":{"id":"620066722","name":"Dong Khac Thai"},"1146680551":{"id":"1146680551","name":"優しい なぁ"},"100000379547036":{"id":"100000379547036","name":"Duy Thanh"}},"paging":{"cursors":{"after":"MTAwMDAzNjg2OTY1NTM3","before":"MTAwMDAzNjg2OTY1NTM3"},"next":"https://graph.facebook.com/229244010425617_840508215965857/likes?limit=1&summary=1&after=MTAwMDAzNjg2OTY1NTM3"},"summary":{"total_count":39}},"comments":{"data":{"840529615963717":{"id":"840529615963717","from":{"id":"100001416272263","name":"Mai PB"},"message":"Khi nhìn vào những điều hay hoặc dở, có 2 thông tin cần phải thu nhận: (1) điều hay điều dở đó có phổ biến hay không, và (2) ít nhất thì nó cũng hay đến thế, dở đến thế. Điều 1 thì chưa chắc nhưng điều 2 thì là chắc chắn rồi. Khi nói đến điều hay dở của Nhật và VN thì chúng ta hay tranh luận về điều 1 bằng các câu nói \"ở đâu cũng có xấu có tốt\", nhưng ít ai để ý rằng ít nhất điều 2 đã xảy ra ở mức độ đó, phải chấp nhận thực tế đó. Ví dụ cụ thể bài viết này, có nhiều việc là hơi cực đoan, nhưng đã có những việc như thế. Ta cần phải suy nghĩ về điều đó.","can_remove":false,"created_time":"2014-03-27T13:51:32+0000","like_count":3,"user_likes":false},"840534162629929":{"id":"840534162629929","from":{"id":"100000045271667","name":"Nam Thai Nguyen"},"message":"Điêp khúc hoài niệm \"ngày xưa\" thực sự làm chúng ta mệt mỏi","can_remove":false,"created_time":"2014-03-27T14:02:16+0000","like_count":0,"user_likes":false},"840538829296129":{"id":"840538829296129","from":{"id":"100007930417031","name":"Trang Yamato"},"message":"Bài viết này không mới. \nĐơn giản một điều. Ở VN là cơ chế xin - cho nên sao mà ngẩng cao đầu được. :)","can_remove":false,"created_time":"2014-03-27T14:09:02+0000","like_count":0,"user_likes":false},"840538965962782":{"id":"840538965962782","from":{"id":"569263718","name":"Phuong Thao Tran"},"message":"mình có thể vòng tay cúi chào bất cứ người lớn nào, nhưng bắt tay thì thẳng người và 1 tay thôi","can_remove":false,"created_time":"2014-03-27T14:09:25+0000","like_count":1,"user_likes":false},"840539755962703":{"id":"840539755962703","from":{"id":"100007930417031","name":"Trang Yamato"},"message":"Vòng tay cúi chào là sao hả chị? Khoanh tay cúi chào chứ?","can_remove":false,"created_time":"2014-03-27T14:11:50+0000","like_count":0,"user_likes":false},"840540175962661":{"id":"840540175962661","from":{"id":"100000045271667","name":"Nam Thai Nguyen"},"message":"Miền Bắc bắt 1 tay thì tùy trường hợp chị ạ","can_remove":false,"created_time":"2014-03-27T14:12:59+0000","like_count":0,"user_likes":false},"840540515962627":{"id":"840540515962627","from":{"id":"569263718","name":"Phuong Thao Tran"},"message":"àh, dân miền trung mình gọi khoanh tay là vòng tay, :)","can_remove":false,"created_time":"2014-03-27T14:13:47+0000","like_count":0,"user_likes":false},"840542442629101":{"id":"840542442629101","from":{"id":"569263718","name":"Phuong Thao Tran"},"message":"trường hợp nào 1 tay, trg hợp nào 2 tay vậy NTN?","can_remove":false,"created_time":"2014-03-27T14:18:21+0000","like_count":0,"user_likes":false},"840543105962368":{"id":"840543105962368","from":{"id":"100000045271667","name":"Nam Thai Nguyen"},"message":"Theo em thấy, tục lệ khi bắt tay người lớn tuổi không nên dùng 1 tay. Tất nhiên đa phần trong công việc vẫn dùng 1 tay thôi chị ạ","can_remove":false,"created_time":"2014-03-27T14:20:16+0000","like_count":0,"user_likes":false},"840543799295632":{"id":"840543799295632","from":{"id":"100007930417031","name":"Trang Yamato"},"message":"Hình như sai với nội dung bài viết ạ","can_remove":false,"created_time":"2014-03-27T14:22:17+0000","like_count":0,"user_likes":false},"840544262628919":{"id":"840544262628919","from":{"id":"100000045271667","name":"Nam Thai Nguyen"},"message":"Đang đề cập tục lệ, thói quen nơi mình tiếp xúc mà Trang Yamato","message_tags":[{"id":"100007930417031","name":"Trang Yamato","type":"user","offset":51,"length":12}],"can_remove":false,"created_time":"2014-03-27T14:23:16+0000","like_count":1,"user_likes":false},"840544429295569":{"id":"840544429295569","from":{"id":"569263718","name":"Phuong Thao Tran"},"message":"ý em là bắt tay kiểu tình cảm và kiểu cviệc à, thế thì khác nhay mà, một bên là kễ phép, một bên là lịch sự.","can_remove":false,"created_time":"2014-03-27T14:23:32+0000","like_count":1,"user_likes":false},"840544909295521":{"id":"840544909295521","from":{"id":"100000045271667","name":"Nam Thai Nguyen"},"message":"Thực ra không có khuân phép cụ thể nhỉ, nhưng theo e biết Nhật ko hay dùng xã giao bắt tay lắm,","can_remove":false,"created_time":"2014-03-27T14:24:54+0000","like_count":0,"user_likes":false},"840546672628678":{"id":"840546672628678","from":{"id":"100007930417031","name":"Trang Yamato"},"message":"Cứ đưa phong bì là tốt nhất hihi","can_remove":false,"created_time":"2014-03-27T14:27:22+0000","like_count":0,"user_likes":false},"840547202628625":{"id":"840547202628625","from":{"id":"569263718","name":"Phuong Thao Tran"},"message":"đang bình tranh đấy Trang Yamato, :)","can_remove":false,"created_time":"2014-03-27T14:28:44+0000","like_count":0,"user_likes":false},"840554355961243":{"id":"840554355961243","from":{"id":"100007930417031","name":"Trang Yamato"},"message":"Vậy cho em hỏi? Tại sao lại phải vừa bắt tay lại vừa cúi đầu thế ạ?","can_remove":false,"created_time":"2014-03-27T14:44:17+0000","like_count":0,"user_likes":false},"840575062625839":{"id":"840575062625839","from":{"id":"100005504948950","name":"Linh Mạnh Trần"},"message":"Điểm mình khâm phục nhất ở người Nhật chính là 2 chữ này: TỰ TRỌNG.","can_remove":false,"created_time":"2014-03-27T15:35:57+0000","like_count":0,"user_likes":false},"840586732624672":{"id":"840586732624672","from":{"id":"569263718","name":"Phuong Thao Tran"},"message":"hành động của người trong tranh thì mình không biết người đó tại sao có hành động đó Trang Yamato à. Chỉ thấy cái kiểu bắt tay vừa cúi rạp người đó hơi nữa mùa, tư thế không đẹp, ^^","message_tags":[{"id":"100007930417031","name":"Trang Yamato","type":"user","offset":85,"length":12}],"can_remove":false,"created_time":"2014-03-27T15:54:12+0000","like_count":1,"user_likes":false},"840614272621918":{"id":"840614272621918","from":{"id":"100004326585247","name":"Phan Hồng Nhung"},"message":"nhớ nhật bản quá ah","can_remove":false,"created_time":"2014-03-27T17:01:15+0000","like_count":0,"user_likes":false}},"paging":{"cursors":{"after":"ODQwNTI5NjE1OTYzNzE3","before":"ODQwNTI5NjE1OTYzNzE3"},"next":"https://graph.facebook.com/229244010425617_840508215965857/comments?limit=1&summary=1&after=ODQwNTI5NjE1OTYzNzE3"},"summary":{"order":"chronological","total_count":20}}}