{"id":"229244010425617_840577735958905","type":"status","from":{"id":"100003381475331","name":"Hoàng Hương"},"message":"có anh chị nào mới đi nhật ko ạ hướng dẫn sơ qua cho em một số thủ tục khi đến sân bay nhật đc ko. mung1/4 này e đi mà thấy lo quá\nem cảm ơn","created_time":"2014-03-27T15:43:29+0000","updated_time":"2014-03-30T18:38:35+0000","likes":{"data":{"100006853953741":{"id":"100006853953741","name":"Hoàng Lợi"},"100003298572999":{"id":"100003298572999","name":"Cỏ May"},"100007451379141":{"id":"100007451379141","name":"Bi Doll"},"100002990876751":{"id":"100002990876751","name":"Çậu Buồn Vì Ai"},"100004443042711":{"id":"100004443042711","name":"Xương Rồng Gai"},"100002469422165":{"id":"100002469422165","name":"Duc Nguyen"},"100008037574588":{"id":"100008037574588","name":"Quý"},"100002981655149":{"id":"100002981655149","name":"Đỗ Văn Nghĩa"},"100004193774269":{"id":"100004193774269","name":"Xuyen Nguyen"},"100006944831466":{"id":"100006944831466","name":"Trần Hậu Thắng"},"100004745953163":{"id":"100004745953163","name":"Bo Tròn Ngyễn"},"719872046":{"id":"719872046","name":"Mẹ Shin"},"100006547747265":{"id":"100006547747265","name":"Ngoan Caijcungco"},"100000424678631":{"id":"100000424678631","name":"Bùi Thanh Hà"},"100005211189763":{"id":"100005211189763","name":"Oliveu Cchann"},"1341670471":{"id":"1341670471","name":"An Nguyen"},"100004525472322":{"id":"100004525472322","name":"Mê Dongchul"}},"paging":{"cursors":{"after":"MTAwMDA2ODUzOTUzNzQx","before":"MTAwMDA2ODUzOTUzNzQx"},"next":"https://graph.facebook.com/229244010425617_840577735958905/likes?limit=1&summary=1&after=MTAwMDA2ODUzOTUzNzQx"},"summary":{"total_count":17}},"comments":{"data":{"840579735958705":{"id":"840579735958705","from":{"id":"100003381475331","name":"Hoàng Hương"},"message":"chị Mê Dongchul vào like cho vui hả","message_tags":[{"id":"100004525472322","name":"Mê Dongchul","type":"user","offset":4,"length":11}],"can_remove":false,"created_time":"2014-03-27T15:44:53+0000","like_count":0,"user_likes":false},"840580229291989":{"id":"840580229291989","from":{"id":"100004525472322","name":"Mê Dongchul"},"message":"Ờ.thấy k ai tl tội nghiệp quá","can_remove":false,"created_time":"2014-03-27T15:45:35+0000","like_count":3,"user_likes":false},"840580569291955":{"id":"840580569291955","from":{"id":"100003381475331","name":"Hoàng Hương"},"message":"vừa viết đc 2 phút ai trả ời kịp giờ này bên nhật đã 12h46p đêm rồi chị ạ","can_remove":false,"created_time":"2014-03-27T15:46:17+0000","like_count":0,"user_likes":false},"840583285958350":{"id":"840583285958350","from":{"id":"100004525472322","name":"Mê Dongchul"},"message":"Hỏi chị vân xem","can_remove":false,"created_time":"2014-03-27T15:47:17+0000","like_count":0,"user_likes":false},"840583565958322":{"id":"840583565958322","from":{"id":"100003381475331","name":"Hoàng Hương"},"message":"chị vân đi lâu ùi ko bít nhớ ko nữa","can_remove":false,"created_time":"2014-03-27T15:47:37+0000","like_count":0,"user_likes":false},"840583912624954":{"id":"840583912624954","from":{"id":"1341670471","name":"An Nguyen"},"message":"Khi tới sân bay sẽ có ng hướng dẫn bạn. Nếu là lần đầu tiên tới thì nta sẽ chỉ bạn đứng ở chỗ nào của hải quan .. vì bên nhật chia ra nhiều loại. Dành cho ng nhật, dành cho ng nước ngoài đinj cư và ng mới đi hoặc đi du lịch","can_remove":false,"created_time":"2014-03-27T15:48:20+0000","like_count":1,"user_likes":false},"840584142624931":{"id":"840584142624931","from":{"id":"100002124532666","name":"Nguyễn Thành Du"},"message":"Xuống máy bay, đi theo đoàn, đến cửa dành cho người nước ngoài, sẽ có người giúp tận tình: \nĐiền thông tin, chụp ảnh thẻ ngoại kiều, lấy dấu vân tay, chờ lấy hành lý, ra bến xe bus, chờ trường đến đón","can_remove":false,"created_time":"2014-03-27T15:48:50+0000","like_count":1,"user_likes":false},"840584482624897":{"id":"840584482624897","from":{"id":"100003381475331","name":"Hoàng Hương"},"message":"cảm ơn mọi ng nhé","can_remove":false,"created_time":"2014-03-27T15:49:37+0000","like_count":0,"user_likes":false},"840585205958158":{"id":"840585205958158","from":{"id":"100002124532666","name":"Nguyễn Thành Du"},"message":"Lần mình còn phải đi một mình, quá cảnh ở hàn, phải tự mò về trường, vẫn ok :D","can_remove":false,"created_time":"2014-03-27T15:50:47+0000","like_count":2,"user_likes":false},"840585349291477":{"id":"840585349291477","from":{"id":"100003381475331","name":"Hoàng Hương"},"message":"sugoi ne","can_remove":false,"created_time":"2014-03-27T15:51:14+0000","like_count":1,"user_likes":false},"840585405958138":{"id":"840585405958138","from":{"id":"1341670471","name":"An Nguyen"},"message":"Mình thấy họ sẽ có cái quyển tiếng việt để chỉ bạn khai tronc tờ trình hải quan ( nếu bạn k đọc đc tiếng nhật hết nhé) , xg máy bay là đi theo mọi ng. Mọi ng đi đâu là bạn đi đó để biết mà lên xe điện ra chỗ làm thủ tục ( minhg thì đi ở kansai. Và mình nghĩ sân bay nào cũng vậy?!)","can_remove":false,"created_time":"2014-03-27T15:51:23+0000","like_count":0,"user_likes":false},"840586505958028":{"id":"840586505958028","from":{"id":"1341670471","name":"An Nguyen"},"message":"Bạn yên tâm là ng ở sân bay nhiệt tình lắm..k như hải quan bên mình đâu..nhìn họ nghiêm nhưng rất thân thiện.","can_remove":false,"created_time":"2014-03-27T15:53:49+0000","like_count":1,"user_likes":false},"840586522624693":{"id":"840586522624693","from":{"id":"100003381475331","name":"Hoàng Hương"},"message":"e đến sân bay narita ạ","can_remove":false,"created_time":"2014-03-27T15:53:50+0000","like_count":1,"user_likes":false},"840586672624678":{"id":"840586672624678","from":{"id":"100003381475331","name":"Hoàng Hương"},"message":"dạ vâng :))","can_remove":false,"created_time":"2014-03-27T15:54:04+0000","like_count":0,"user_likes":false},"840586755958003":{"id":"840586755958003","from":{"id":"100002124532666","name":"Nguyễn Thành Du"},"message":"Người nhật nhiệt tình lắm, tiếng nhật tốt thì ko lo, ko thì nói tiếng anh cũng được","can_remove":false,"created_time":"2014-03-27T15:54:13+0000","like_count":2,"user_likes":false},"840588902624455":{"id":"840588902624455","from":{"id":"100003381475331","name":"Hoàng Hương"},"message":"có ai ở Minamiyawata, chiba cho em làm quen nhé, mong nhận đc sự giúp đỡ","can_remove":false,"created_time":"2014-03-27T15:59:42+0000","like_count":0,"user_likes":false},"840591595957519":{"id":"840591595957519","from":{"id":"100001640832299","name":"Hoàng Đạt"},"message":"Mình cũng đi 1/4 nhưng đi của Jal ko biết có khó khăn j ko?","can_remove":false,"created_time":"2014-03-27T16:05:57+0000","like_count":1,"user_likes":false},"840594479290564":{"id":"840594479290564","from":{"id":"100004745953163","name":"Bo Tròn Ngyễn"},"message":"bạn đi trường nào thế. tối mùng 1 mk cũng bay nè.;-)","can_remove":false,"created_time":"2014-03-27T16:13:38+0000","like_count":2,"user_likes":false},"840594772623868":{"id":"840594772623868","from":{"id":"100003381475331","name":"Hoàng Hương"},"message":"mình đi trường ichikawa chuyến bay lúc 12h40p của vn airlines","can_remove":false,"created_time":"2014-03-27T16:14:37+0000","like_count":2,"user_likes":false},"840595262623819":{"id":"840595262623819","from":{"id":"100004745953163","name":"Bo Tròn Ngyễn"},"message":"ôi.ko cùng trường ùi.:-(  mk chưa pjt h pay cụ thể nữa kia","can_remove":false,"created_time":"2014-03-27T16:15:58+0000","like_count":1,"user_likes":false},"840595982623747":{"id":"840595982623747","from":{"id":"100003381475331","name":"Hoàng Hương"},"message":"oh bạn đặt vé máy bay chưa mà chưa pít giừo bay cụ thể","can_remove":false,"created_time":"2014-03-27T16:18:10+0000","like_count":1,"user_likes":false},"840597059290306":{"id":"840597059290306","from":{"id":"100004754173890","name":"像 ベトナム"},"message":"Mh hình như khoảg h đó mập","can_remove":false,"created_time":"2014-03-27T16:20:45+0000","like_count":2,"user_likes":false},"840597109290301":{"id":"840597109290301","from":{"id":"100004745953163","name":"Bo Tròn Ngyễn"},"message":"mk cty du học làm hết thủ tục nên ko pjt b ạ. trườg b nắm ở vùng nào","can_remove":false,"created_time":"2014-03-27T16:20:50+0000","like_count":1,"user_likes":false},"840597235956955":{"id":"840597235956955","from":{"id":"100004745953163","name":"Bo Tròn Ngyễn"},"message":"sao e pjt voi","can_remove":false,"created_time":"2014-03-27T16:21:12+0000","like_count":0,"user_likes":false},"840597569290255":{"id":"840597569290255","from":{"id":"100003381475331","name":"Hoàng Hương"},"message":"Minamiyawata, chiba","can_remove":false,"created_time":"2014-03-27T16:22:06+0000","like_count":2,"user_likes":false},"840597762623569":{"id":"840597762623569","from":{"id":"100004754173890","name":"像 ベトナム"},"message":"Mh khoảg 12h thì e đoán vậy chả nhẽ 40p 1 chuyến à","can_remove":false,"created_time":"2014-03-27T16:22:42+0000","like_count":1,"user_likes":false},"840597959290216":{"id":"840597959290216","from":{"id":"100003381475331","name":"Hoàng Hương"},"message":"có 1 chuyến 1 ngày thôi mà nếu cũng là vé của vn airlines","can_remove":false,"created_time":"2014-03-27T16:23:23+0000","like_count":2,"user_likes":false},"840597985956880":{"id":"840597985956880","from":{"id":"100004745953163","name":"Bo Tròn Ngyễn"},"message":"hình như cũng gần chỗ mk. mk ở utsunomiya,tochigi","can_remove":false,"created_time":"2014-03-27T16:23:28+0000","like_count":1,"user_likes":false},"840598082623537":{"id":"840598082623537","from":{"id":"100004745953163","name":"Bo Tròn Ngyễn"},"message":"mk ở gần chiba voi nhỷ","can_remove":false,"created_time":"2014-03-27T16:23:51+0000","like_count":2,"user_likes":false},"840598422623503":{"id":"840598422623503","from":{"id":"100004745953163","name":"Bo Tròn Ngyễn"},"message":"ừ  thế có lẽ cùng chuyến bay đó bạn ạ.hjhj","can_remove":false,"created_time":"2014-03-27T16:24:31+0000","like_count":2,"user_likes":false},"840598502623495":{"id":"840598502623495","from":{"id":"100004754173890","name":"像 ベトナム"},"message":"Chiba bên c tuyến ý","can_remove":false,"created_time":"2014-03-27T16:24:42+0000","like_count":2,"user_likes":false},"840599012623444":{"id":"840599012623444","from":{"id":"100004754173890","name":"像 ベトナム"},"message":"Okie có thêm người quen kìa mập :*>","can_remove":false,"created_time":"2014-03-27T16:25:49+0000","like_count":2,"user_likes":false},"840599505956728":{"id":"840599505956728","from":{"id":"100002124532666","name":"Nguyễn Thành Du"},"message":"Xin dấu chỗ chụp ảnh thẻ và lấy dấu vân tay, ngta sẽ cho dấu, mình chỉ când check thôi","can_remove":false,"created_time":"2014-03-27T16:26:58+0000","like_count":2,"user_likes":false},"840599532623392":{"id":"840599532623392","from":{"id":"100004745953163","name":"Bo Tròn Ngyễn"},"message":"ừ.hjhj.mà đang pm e chạy đi  đâu thế voi","can_remove":false,"created_time":"2014-03-27T16:27:01+0000","like_count":0,"user_likes":false},"840600195956659":{"id":"840600195956659","from":{"id":"100004754173890","name":"像 ベトナム"},"message":"Khổ.em vẫn đag hí húi mấy kái balo ^^","can_remove":false,"created_time":"2014-03-27T16:28:29+0000","like_count":1,"user_likes":false},"840600505956628":{"id":"840600505956628","from":{"id":"100002124532666","name":"Nguyễn Thành Du"},"message":"Hai bạn kia pm nhau đi. Loãng cả topic","can_remove":false,"created_time":"2014-03-27T16:29:08+0000","like_count":2,"user_likes":false},"840600899289922":{"id":"840600899289922","from":{"id":"100004745953163","name":"Bo Tròn Ngyễn"},"message":"bạn cho mk hỏi con dấu tkỳ sag trườg làm cho mk à?","can_remove":false,"created_time":"2014-03-27T16:30:16+0000","like_count":0,"user_likes":false},"840601045956574":{"id":"840601045956574","from":{"id":"100002124532666","name":"Nguyễn Thành Du"},"message":"Dấu gì hả bạn","can_remove":false,"created_time":"2014-03-27T16:30:38+0000","like_count":0,"user_likes":false},"840601249289887":{"id":"840601249289887","from":{"id":"100004754173890","name":"像 ベトナム"},"message":"Xìì.ô cê","can_remove":false,"created_time":"2014-03-27T16:31:07+0000","like_count":0,"user_likes":false},"840601319289880":{"id":"840601319289880","from":{"id":"100004745953163","name":"Bo Tròn Ngyễn"},"message":"con dấu thay cho ký tên ý pạn?","can_remove":false,"created_time":"2014-03-27T16:31:18+0000","like_count":0,"user_likes":false},"840601322623213":{"id":"840601322623213","from":{"id":"100002124532666","name":"Nguyễn Thành Du"},"message":"Trên kia là con dấu  cho phép làm thêm 28h/tuần thì tại sân bay\nỞ mặt sau thẻ ngoại kiều","can_remove":false,"created_time":"2014-03-27T16:31:19+0000","like_count":1,"user_likes":false},"840601405956538":{"id":"840601405956538","from":{"id":"100002124532666","name":"Nguyễn Thành Du"},"message":"À cái đó làm ở siêu thị, hơn 500¥","can_remove":false,"created_time":"2014-03-27T16:31:37+0000","like_count":1,"user_likes":false},"840601882623157":{"id":"840601882623157","from":{"id":"100004745953163","name":"Bo Tròn Ngyễn"},"message":"ồh.wakatta.sumimasen ;-)","can_remove":false,"created_time":"2014-03-27T16:32:31+0000","like_count":0,"user_likes":false},"840602285956450":{"id":"840602285956450","from":{"id":"100002124532666","name":"Nguyễn Thành Du"},"message":"いいえ","can_remove":false,"created_time":"2014-03-27T16:33:34+0000","like_count":0,"user_likes":false},"840605219289490":{"id":"840605219289490","from":{"id":"100003867669621","name":"Tiến Sỹ Nguyễn"},"message":"Tro lai chu de chinh di ban","can_remove":false,"created_time":"2014-03-27T16:39:52+0000","like_count":0,"user_likes":false},"840801592603186":{"id":"840801592603186","from":{"id":"100003899878089","name":"Mèo Nguyễn"},"message":"cho mìh hỏi, mình thấy các trường khác có gửi giấy xin làm thêm về ý, trường mình lại ko gửi, hỏi trung tâm họ kêu ra sân bay phát, có đúng ko vậy?","can_remove":false,"created_time":"2014-03-28T01:05:31+0000","like_count":1,"user_likes":false},"842370512446294":{"id":"842370512446294","from":{"id":"100004614193937","name":"Do Pham"},"message":"đúng mèo ạ","can_remove":false,"created_time":"2014-03-30T18:38:35+0000","like_count":0,"user_likes":false}},"paging":{"cursors":{"after":"ODQwNTc5NzM1OTU4NzA1","before":"ODQwNTc5NzM1OTU4NzA1"},"next":"https://graph.facebook.com/229244010425617_840577735958905/comments?limit=1&summary=1&after=ODQwNTc5NzM1OTU4NzA1"},"summary":{"order":"chronological","total_count":48}}}