{"id":"229244010425617_840600615956617","type":"photo","object_id":"277774009050468","picture":"https://fbcdn-photos-h-a.akamaihd.net/hphotos-ak-prn2/v/t34.0-11/10157077_277774039050465_1545370394_s.jpg?oh=27ff90dea16b41b633520412c905ce4d&oe=53501CB0&__gda__=1397756277_7eac2f12c4138e9eaf9e5ba3d18c5c4d","link":"https://www.facebook.com/photo.php?fbid=277774009050468&set=gm.840600615956617&type=1&relevant_count=1","from":{"id":"100004536125153","name":"Hoàng Đàn"},"message":"Các anh chị cho em hỏi là chai này dành cho nam giới nhưng tác dụng của nó là làm gì vậy ạ. Em cảm ơn","created_time":"2014-03-27T16:29:27+0000","updated_time":"2014-03-29T08:02:16+0000","likes":{"data":{"100003049639881":{"id":"100003049639881","name":"Truong Luvuxy"},"100004104368645":{"id":"100004104368645","name":"Nguyen Dinh Hiep"},"100002257397293":{"id":"100002257397293","name":"Quyen Hoang"},"100002339089186":{"id":"100002339089186","name":"Thinh Nguyen Viet"}},"paging":{"cursors":{"after":"MTAwMDAzMDQ5NjM5ODgx","before":"MTAwMDAzMDQ5NjM5ODgx"},"next":"https://graph.facebook.com/229244010425617_840600615956617/likes?limit=1&summary=1&after=MTAwMDAzMDQ5NjM5ODgx"},"summary":{"total_count":4}},"comments":{"data":{"840600972623248":{"id":"840600972623248","from":{"id":"100002339089186","name":"Thinh Nguyen Viet"},"message":"after shave lotion là dưỡng ẩm sau khi cạo râu thì phải :D","can_remove":false,"created_time":"2014-03-27T16:30:26+0000","like_count":4,"user_likes":false},"840601229289889":{"id":"840601229289889","from":{"id":"100004536125153","name":"Hoàng Đàn"},"message":"Vậy ạ anh,ありがとうございます","can_remove":false,"created_time":"2014-03-27T16:31:04+0000","like_count":1,"user_likes":false},"840601755956503":{"id":"840601755956503","from":{"id":"100002339089186","name":"Thinh Nguyen Viet"},"message":"^^ mình chỉ dịch tiếng Anh qua thui mà","can_remove":false,"created_time":"2014-03-27T16:32:21+0000","like_count":3,"user_likes":false},"840602222623123":{"id":"840602222623123","from":{"id":"100004536125153","name":"Hoàng Đàn"},"message":"Mặt sau đậy ạ","can_remove":false,"created_time":"2014-03-27T16:33:24+0000","like_count":0,"user_likes":false},"840603152623030":{"id":"840603152623030","from":{"id":"100002124532666","name":"Nguyễn Thành Du"},"message":"Đúng là dưỡng ẩm sau khi shave","can_remove":false,"created_time":"2014-03-27T16:34:19+0000","like_count":0,"user_likes":false},"840603179289694":{"id":"840603179289694","from":{"id":"100002339089186","name":"Thinh Nguyen Viet"},"message":"ui chà, khoai quá, hóng thêm các cao thủ N1, N2 vào giải nghĩa thui, đọc đc cả phần sau ko phải là chuyện đơn giản ^^","can_remove":false,"created_time":"2014-03-27T16:34:22+0000","like_count":1,"user_likes":false},"840603239289688":{"id":"840603239289688","from":{"id":"100002124532666","name":"Nguyễn Thành Du"},"message":"Shave chỗ nào cũng dc :))","can_remove":false,"created_time":"2014-03-27T16:34:37+0000","like_count":3,"user_likes":false},"840728122610533":{"id":"840728122610533","from":{"id":"100001606380276","name":"Phan Đức Thái"},"message":"Thế quái nào mua mà ko biết tác dụng hay là....","can_remove":false,"created_time":"2014-03-27T21:50:24+0000","like_count":1,"user_likes":false},"840784309271581":{"id":"840784309271581","from":{"id":"100002817600730","name":"Minh Anh Vg"},"message":"nước lotion cho nam :v","can_remove":false,"created_time":"2014-03-28T00:11:19+0000","like_count":1,"user_likes":false},"841165122566833":{"id":"841165122566833","from":{"id":"100001604587985","name":"Hoang Anh Dinh Ngoc"},"message":"Hoàng Đàn: Anh đừng nóng! đừng nóng...! Comment mới chỉ tỏ ý nghi ngại, vẫn chưa hề khẳng định điều gì cả, anh cũng không cần phải dùng từ ngữ công kích như vậy. :) họ mới định nêu giả thuyết thôi nên không phải thì mình bỏ qua đi ha! :)","can_remove":false,"created_time":"2014-03-28T17:26:38+0000","like_count":1,"user_likes":false},"841188735897805":{"id":"841188735897805","from":{"id":"100000603915176","name":"悪いな ぁ"},"message":"Nếu chỉ nói là dưỡng ẩm thôi thì cũng không đúng. Khi cạo nhông, thường lỗ chân nhông sẽ bị co kéo dẫn đến dễ viêm nhiễm. Loại nước này khi bôi sẽ làm cho se khít lỗ chân nhông; có chất làm mát, làm dịu đi cảm giác rát; có mùi thơm quyễn rũ lũ ong ve :v","can_remove":false,"created_time":"2014-03-28T18:35:16+0000","like_count":2,"user_likes":false},"841339602549385":{"id":"841339602549385","from":{"id":"100001604587985","name":"Hoang Anh Dinh Ngoc"},"message":"=)) anh mà đi quảng cáo cái nước này thì đảm bảo khách mua sạch trơn luôn không có chỗ cho học sinh đá đồ đâu!!! =)) mỗi tội từ \"nhông\" nghe hơi kỳ kỳ nhột nhột thôi =)","can_remove":false,"created_time":"2014-03-29T00:06:46+0000","like_count":1,"user_likes":false},"841373862545959":{"id":"841373862545959","from":{"id":"100000603915176","name":"悪いな ぁ"},"message":":v","can_remove":false,"created_time":"2014-03-29T01:30:12+0000","like_count":0,"user_likes":false},"841430472540298":{"id":"841430472540298","from":{"id":"569263718","name":"Phuong Thao Tran"},"message":"klq nhưng mà bó tay với mồm mép của chị cú","can_remove":false,"created_time":"2014-03-29T03:23:48+0000","like_count":0,"user_likes":false},"841491739200838":{"id":"841491739200838","from":{"id":"100001526631937","name":"Tường Oanh Mineko"},"message":"klq là gì vậy chị Phuong Thao Tran?","message_tags":[{"id":"569263718","name":"Phuong Thao Tran","type":"user","offset":18,"length":16}],"can_remove":false,"created_time":"2014-03-29T06:54:13+0000","like_count":0,"user_likes":false},"841501149199897":{"id":"841501149199897","from":{"id":"100003310618708","name":"BiNô Triết Gia"},"message":"Thế mà mình cứ tưởng, một người khoẻ hai người vui chứ","can_remove":false,"created_time":"2014-03-29T07:32:20+0000","like_count":0,"user_likes":false},"841511885865490":{"id":"841511885865490","from":{"id":"100002339089186","name":"Thinh Nguyen Viet"},"message":"klq là ko liên quan","can_remove":false,"created_time":"2014-03-29T08:02:16+0000","like_count":1,"user_likes":false}},"paging":{"cursors":{"after":"ODQwNjAwOTcyNjIzMjQ4","before":"ODQwNjAwOTcyNjIzMjQ4"},"next":"https://graph.facebook.com/229244010425617_840600615956617/comments?limit=1&summary=1&after=ODQwNjAwOTcyNjIzMjQ4"},"summary":{"order":"chronological","total_count":17}}}