{"id":"229244010425617_840772762606069","type":"status","from":{"id":"100000038095961","name":"Trần Thế Anh"},"message":"Hiện em đang muốn tìm trường và nơi học. Tháng 7 năm sau e mới đi. A/c có thể chia sẻ cho e kinh nghiệm: chọn trường nào, ở đâu tk chi phí, kinh nghiệm sống bên đó nữa ạ. E vẫn đang chọn trường nhật ngữ học 2 năm sau mới thi đại học ạ. Doumo Arigatou Gozaimasu","created_time":"2014-03-27T23:37:32+0000","updated_time":"2014-03-28T07:11:42+0000","likes":{"data":{"100000038095961":{"id":"100000038095961","name":"Trần Thế Anh"},"100002966747450":{"id":"100002966747450","name":"Thành Trick"},"100004082834314":{"id":"100004082834314","name":"Nguyễn Trọng Nghĩa"},"754523601":{"id":"754523601","name":"Thanhla Thanh"},"100003103086919":{"id":"100003103086919","name":"Tâm Hiếu"},"100000016905201":{"id":"100000016905201","name":"Mỹ Hạnh"},"100003145416720":{"id":"100003145416720","name":"Dũng Chuột"},"100006614261300":{"id":"100006614261300","name":"Tao Cao Cường Đây"},"100003663710795":{"id":"100003663710795","name":"Thủy Keiko"},"100004514113984":{"id":"100004514113984","name":"Kim Ank"},"100002469422165":{"id":"100002469422165","name":"Duc Nguyen"},"100002922871611":{"id":"100002922871611","name":"Milan Dung"}},"paging":{"cursors":{"after":"MTAwMDAwMDM4MDk1OTYx","before":"MTAwMDAwMDM4MDk1OTYx"},"next":"https://graph.facebook.com/229244010425617_840772762606069/likes?limit=1&summary=1&after=MTAwMDAwMDM4MDk1OTYx"},"summary":{"total_count":14}},"comments":{"data":{"840779159272096":{"id":"840779159272096","from":{"id":"100007616738497","name":"Dung Nguyen"},"message":"Cứ đj vùg osaka đj trườg j học phj rẻ vs ktx tiện thj chon","can_remove":false,"created_time":"2014-03-27T23:55:59+0000","like_count":0,"user_likes":false},"840786515938027":{"id":"840786515938027","from":{"id":"100006307596308","name":"Khi Nào Đổi Thay"},"message":":)) xác định đi đh thì ra vùng tôkyo :)) vì sang để học thì tokyo là nơi lý tưởng đó nếu nhà bạn có điều kiện trợ cấp 20triu mỗi tháng cho bạn","can_remove":false,"created_time":"2014-03-28T00:18:05+0000","like_count":0,"user_likes":false},"840786692604676":{"id":"840786692604676","from":{"id":"100002469422165","name":"Duc Nguyen"},"message":"Em lien he voi anh so nay nhe 0947661222. Anh la dai dien cuq to chuc ho tro du hoc sinh toi Nhat Ban hoc tap tai Ha Noi- To chuc JOOSS. Anh se ho tro tim truong va viec lam khi di du hoc.","can_remove":false,"created_time":"2014-03-28T00:18:49+0000","like_count":0,"user_likes":false},"840787135937965":{"id":"840787135937965","from":{"id":"100006307596308","name":"Khi Nào Đổi Thay"},"message":"nhưng vs 1 điều kiện toàn bộ là do em tự học :))","can_remove":false,"created_time":"2014-03-28T00:20:32+0000","like_count":2,"user_likes":false},"840789122604433":{"id":"840789122604433","from":{"id":"100001546837960","name":"Chung Goldstar"},"message":"Cục XNC ở osaka rất hắc xì dầu, công ty làm ẩu chút là hết cơ hội luôn. Lời khuyên là nên về thủ đô vẫn hơn. Còn trường rẻ ở đâu cũng có thêm nữa cơ hội làm việc nhiều hơn, thêm nữa giọng nói thủ đô vẫn hay hơn chứ.Em tham khảo thêm nhé.https://www.facebook.com/notes/780437075306305","can_remove":false,"created_time":"2014-03-28T00:26:36+0000","like_count":0,"user_likes":false},"840789169271095":{"id":"840789169271095","from":{"id":"100002469422165","name":"Duc Nguyen"},"message":"Ok roi em. Tu hoc va chon truong. Khi nao co may truong Nhat hoac to chuc JOOSS sang day anh se goi cho di gap ho. Nhung em de lai sdt cho anh. Du kien 13/4 ho sang Ha noi.","can_remove":false,"created_time":"2014-03-28T00:26:46+0000","like_count":0,"user_likes":false},"840789555937723":{"id":"840789555937723","from":{"id":"100003968889602","name":"Lục Yến Tinh"},"message":"Thág 7 năm sau mình cũng sag để học tiếng trong 2 năm.chưa biết lựa chọn địa điểm và trường nào để học mà vừa tập trug học vừa có thể làm thêm được.mọi ngừơi tư vấn dùm m nhé?hj","can_remove":false,"created_time":"2014-03-28T00:28:06+0000","like_count":0,"user_likes":false},"840789982604347":{"id":"840789982604347","from":{"id":"100004514113984","name":"Kim Ank"},"message":"M.n cho e hỏi.nếu e trượt viza t4 này.e đi t10 nhưng trug tâm #.cơ hội đi đk nhật nữa .có cao k?\nAi piết pảo giùm e vs ạk","can_remove":false,"created_time":"2014-03-28T00:29:41+0000","like_count":1,"user_likes":false},"840790025937676":{"id":"840790025937676","from":{"id":"100004514113984","name":"Kim Ank"},"message":"Tks trc ak","can_remove":false,"created_time":"2014-03-28T00:29:53+0000","like_count":0,"user_likes":false},"840790335937645":{"id":"840790335937645","from":{"id":"100001546837960","name":"Chung Goldstar"},"message":"Các bạn muốn tìm hiểu du học chịu khó đọc các bài viết trong này kĩ rồi đặt câu hỏi cụ thể thì sẽ nhiều lời khuyên hay hơn https://www.facebook.com/notes/c%E1%BB%99ng-%C4%91%E1%BB%93ng-vi%E1%BB%87t-nh%E1%BA%ADt-vietnam-japan-community-/quan-tr%E1%BB%8Dng-h%C6%B0%E1%BB%9Bng-d%E1%BA%ABn-s%E1%BB%AD-d%E1%BB%A5ng-group-c%C3%B3-h%E1%BA%A7u-h%E1%BA%BFt-nh%E1%BB%AFng-%C4%91i%E1%BB%81u-b%E1%BA%A1n-mu%E1%BB%91n-h%E1%BB%8Fi/704106249606055","can_remove":false,"created_time":"2014-03-28T00:30:38+0000","like_count":1,"user_likes":false},"840790485937630":{"id":"840790485937630","from":{"id":"100002469422165","name":"Duc Nguyen"},"message":"Ko sao dau. Can ho tro xin visa ko sang JOOSS anh nho may nguoi Nhat giup.","can_remove":false,"created_time":"2014-03-28T00:31:19+0000","like_count":0,"user_likes":false},"840790865937592":{"id":"840790865937592","from":{"id":"100001546837960","name":"Chung Goldstar"},"message":"@Kim Ank được em à nhưng với điều kiện em phải lấy toàn bộ hồ sơ đã khai của công ty trước và biết nguyên nhân trượt là gì công ty sau mới làm được. Nếu không có làm khác một chút là lại trượt đấy.","can_remove":false,"created_time":"2014-03-28T00:32:46+0000","like_count":1,"user_likes":false},"840792525937426":{"id":"840792525937426","from":{"id":"100004514113984","name":"Kim Ank"},"message":"Vầng.cảm ơn m.n.hồ sơ của e đẹp.nhưng vì tự làm tài chính.phía cục.pảo k rõ ràng.nghi ngờ làm giả thuế.có ng pảo ksao.cơ hội vẫn còn.có người lại pảo k đi đk nữa.e từ pỏ đh để đi N.h lại k đi đk.puồn","can_remove":false,"created_time":"2014-03-28T00:38:31+0000","like_count":0,"user_likes":false},"840793399270672":{"id":"840793399270672","from":{"id":"100001997065377","name":"Võ Minh Trang"},"message":"Cho e hỏi khi qa nhật thỳ lâu lâu có công an kiểm tra giấy tờ tuỳ thân k có là bị bắt mà giấy tờ đó là gi vậy mấy a.c","can_remove":false,"created_time":"2014-03-28T00:41:40+0000","like_count":1,"user_likes":false},"840796962603649":{"id":"840796962603649","from":{"id":"100003145416720","name":"Dũng Chuột"},"message":"Theo kinh nghiêm ít ỏi của anh các em muốn sang đây nên xác định trước mấy chuyện em ạ. Sang đây nếu xác định là đi học thì ok, nếu là đi làm chỉ đủ nuôi thân bên này thôi k có mấy tiền gửi về đâu với lại cực kỳ vất vả. Nếu sang nên đăng ký vào các trường ở chiba như igl, nhà trường quan tâm học sinh vs kiếm việc làm cho. Nhà bạn nào có điều kiện k phải đi làm thì k phải xoắn, trường nào cũng đc. Học tiếng mà, lên chuyên môn mới phải lo","can_remove":false,"created_time":"2014-03-28T00:51:55+0000","like_count":0,"user_likes":false},"840802769269735":{"id":"840802769269735","from":{"id":"100007767102987","name":"Du Học Thu Huyền"},"message":"Nếu lí do của bạn.... Khó đi lắm bạn ạh.mình khuyên bạn nếu thật sự muốn đi, bạn có 2 cách, pải đi lại công ty cũ, trường cũ và tất cả hso đều pải như trk, nhưg thêm bản giải thíc, cơ hội là 40%, còn cách 2 bạn đi qua nhật ngữ sendai, trường tự làm hồ sơ cho học sinh, không qua trung tâm nào cả, chuyên làm cho hsinh trượt visa và tu nghiệp sinh muốn đi học trở lại, vào 13/4 có đợt phỏng vấn tháng 7 bạn tự liên hệ vs trường,có a người việt sẽ hướng dẫn đi phỏng vấn, cơ hội 70%, chi phí làm hso tầm 11 ts 16 triệu thì phải","can_remove":false,"created_time":"2014-03-28T01:09:18+0000","like_count":1,"user_likes":false},"840805762602769":{"id":"840805762602769","from":{"id":"100006549732763","name":"Viet Huong"},"message":"Du Học Thu Huyền ý anh là mình tự làm hồ sơ đi không qua cty nếu bên trường nhật thông qua phải không ah","message_tags":[{"id":"100007767102987","name":"Du Học Thu Huyền","type":"user","offset":0,"length":16}],"can_remove":false,"created_time":"2014-03-28T01:16:06+0000","like_count":0,"user_likes":false},"840817812601564":{"id":"840817812601564","from":{"id":"100004514113984","name":"Kim Ank"},"message":"@du học du thuyền : đợt trc e nộp vào trường waseda là trường senmon.nên vừa ms pít kq đk 2 hôm.mà h t7 ko kịp nữa.nên đành fải đi t10 ak.mà trường sendai đấy ở đâu ak a","can_remove":false,"created_time":"2014-03-28T01:49:19+0000","like_count":0,"user_likes":false},"840820345934644":{"id":"840820345934644","from":{"id":"100006549732763","name":"Viet Huong"},"message":"Kim Ank mình cũng hk waseda đấy,bạn tự làm hồ sơ hay theo cty","can_remove":false,"created_time":"2014-03-28T01:57:20+0000","like_count":0,"user_likes":false},"840823822600963":{"id":"840823822600963","from":{"id":"100004514113984","name":"Kim Ank"},"message":"E đi theo cty chị ak.puồn lắm","can_remove":false,"created_time":"2014-03-28T02:04:57+0000","like_count":0,"user_likes":false},"840837555932923":{"id":"840837555932923","from":{"id":"100006549732763","name":"Viet Huong"},"message":"À,mình mh tưởng bạn tự làm hồ sơ.sao lại buồn","can_remove":false,"created_time":"2014-03-28T02:06:58+0000","like_count":0,"user_likes":false},"840839765932702":{"id":"840839765932702","from":{"id":"100004514113984","name":"Kim Ank"},"message":"Cty làm hộ hồ sơ..bác e làm chứng mih tài chính.sog chị họ e nộp vào trường.t4 pị trượt r.bh đang tìm hiểu.nhờ m.n giúp đỡ.thực sự e muốn sag nhật học","can_remove":false,"created_time":"2014-03-28T02:07:45+0000","like_count":1,"user_likes":false},"840840159265996":{"id":"840840159265996","from":{"id":"100006549732763","name":"Viet Huong"},"message":"Ah,thế chắc dk thôi,mh tháng sau bay,thế bạn viết đơn xin học phải k","can_remove":false,"created_time":"2014-03-28T02:09:12+0000","like_count":0,"user_likes":false},"840840355932643":{"id":"840840355932643","from":{"id":"100004514113984","name":"Kim Ank"},"message":"Khó lắm.trượt viza mà :((","can_remove":false,"created_time":"2014-03-28T02:09:42+0000","like_count":0,"user_likes":false},"840841042599241":{"id":"840841042599241","from":{"id":"100006549732763","name":"Viet Huong"},"message":"Mh tưởng trường cho bạn giấy xác nhận để xin visa cho dễ mà","can_remove":false,"created_time":"2014-03-28T02:11:34+0000","like_count":0,"user_likes":false},"840844562598889":{"id":"840844562598889","from":{"id":"100004514113984","name":"Kim Ank"},"message":"Ko pít.chỉ pít pị trượt thôi :(","can_remove":false,"created_time":"2014-03-28T02:21:15+0000","like_count":0,"user_likes":false},"840851312598214":{"id":"840851312598214","from":{"id":"100000264632470","name":"Tmm Gái Hôm Rằm"},"message":"làm hồ sơ 12 triệu. các khoản khác đóng theo web của trường. dự tính khoảng 200t tất cả bạn ah","can_remove":false,"created_time":"2014-03-28T02:42:13+0000","like_count":0,"user_likes":false},"840863952596950":{"id":"840863952596950","from":{"id":"100004514113984","name":"Kim Ank"},"message":"Đấy là trường nào ak .ở đâu.chắc chắn k ak.tại vì đây là cơ hội cuối của e r @tmm gái hôm rằm","can_remove":false,"created_time":"2014-03-28T03:17:15+0000","like_count":0,"user_likes":false},"840870679262944":{"id":"840870679262944","from":{"id":"100000264632470","name":"Tmm Gái Hôm Rằm"},"message":"e yên tâm đi. nếu thực sự muốn đi thì inbox anh. a ko làm dịch vụ chỉ là anh đã đi nên anh biết. trước khi đi anh tìm hiểu nhiều, bạn bè cùng học cũng ở bên này nhiều nên giúp đỡ nhau cũng dễ","can_remove":false,"created_time":"2014-03-28T03:35:33+0000","like_count":1,"user_likes":false},"840888315927847":{"id":"840888315927847","from":{"id":"100001997065377","name":"Võ Minh Trang"},"message":"E cũn làm hồ sơ ở sendai nè và t4 qa đó học....trường này làm hso cho mynh hết thasy cũn đơn giản ai rớt visa thỳ chắc khoảng 16tr","can_remove":false,"created_time":"2014-03-28T04:28:53+0000","like_count":1,"user_likes":false},"840890435927635":{"id":"840890435927635","from":{"id":"100004514113984","name":"Kim Ank"},"message":"Trường đấy xa tokio wá :((","can_remove":false,"created_time":"2014-03-28T04:36:43+0000","like_count":0,"user_likes":false},"840893529260659":{"id":"840893529260659","from":{"id":"100001997065377","name":"Võ Minh Trang"},"message":"Trường này học tiếng cách tokyo khoảng 6h hay s đó....e nge anh nói v","can_remove":false,"created_time":"2014-03-28T04:46:04+0000","like_count":0,"user_likes":false},"840894525927226":{"id":"840894525927226","from":{"id":"100004514113984","name":"Kim Ank"},"message":"Vầng","can_remove":false,"created_time":"2014-03-28T04:48:17+0000","like_count":0,"user_likes":false},"840896595927019":{"id":"840896595927019","from":{"id":"100006307596308","name":"Khi Nào Đổi Thay"},"message":"thui sang lgj mấy em ơi, ở nhà học gj thì học ko thì lấy ck đi, nếu sang bên này tiếng giỏi may ra sống sót được em àk.","can_remove":false,"created_time":"2014-03-28T04:54:11+0000","like_count":0,"user_likes":false},"840897245926954":{"id":"840897245926954","from":{"id":"100006307596308","name":"Khi Nào Đổi Thay"},"message":"mà vừa làm vừa học, các em nhanh tàn lắm, mất hết nét đẹp thời thanh xuân, thức đêm dậy sớm. ngày ngủ 4?5 tiếng may ra sống được bên này :))","can_remove":false,"created_time":"2014-03-28T04:55:35+0000","like_count":0,"user_likes":false},"840901082593237":{"id":"840901082593237","from":{"id":"100000038095961","name":"Trần Thế Anh"},"message":"E có qua trung tâm tư vấn du học. ACE. Công ty này là cty tư vấn thuế và giới thiệu nv cho cty ở nhật tại việt nam nhưng cũng có hỗ trợ du học. E cũng được tư vấn học ở trường nhật ngữ ARC, ở vùng Kyoto. E muốn tham khảo thêm thông tin từ những ac đã sang rồi để có them kinh nghiệm nữa ạ. Có ai học trg ARC chưa ạ","can_remove":false,"created_time":"2014-03-28T05:09:53+0000","like_count":1,"user_likes":false},"840914879258524":{"id":"840914879258524","from":{"id":"100000264632470","name":"Tmm Gái Hôm Rằm"},"message":"đi du học quan trọng nhất với người Việt Nam là việc làm. có người muốn đi du học lấy   visa để làm. có người thì muốn học là chính. nhưng dù là người nào cũng cần việc làm, các bạn đang muốn sang tìm hiểu kĩ vấn đề việc làm nhé. tránh tình trạng sang đây ko có việc  mà gửi tiền từ nhà sang để sống thì ko tồn tại đc đâu","can_remove":false,"created_time":"2014-03-28T05:49:03+0000","like_count":1,"user_likes":false},"840915985925080":{"id":"840915985925080","from":{"id":"100004514113984","name":"Kim Ank"},"message":"E chủ yếu đi học.đi làm đủ ăn thoii cũng đk.","can_remove":false,"created_time":"2014-03-28T05:53:16+0000","like_count":1,"user_likes":false},"840936692589676":{"id":"840936692589676","from":{"id":"100000038095961","name":"Trần Thế Anh"},"message":"E đc thầy giáo trường ARC có nói, nếu sang đấy vừa học và có thể đi làm đc thì trình độ tiếng phải tầm N3. N4,N5 thì tốt nhất nên ở nhà. N3 sang đó có thể làm cv nhẹ nhàng hơn N4,N5. Người nhật họ nói chứ ko phải là ng việt tư vấn đâu ạ.","can_remove":false,"created_time":"2014-03-28T07:11:42+0000","like_count":1,"user_likes":false}},"paging":{"cursors":{"after":"ODQwNzc5MTU5MjcyMDk2","before":"ODQwNzc5MTU5MjcyMDk2"},"next":"https://graph.facebook.com/229244010425617_840772762606069/comments?limit=1&summary=1&after=ODQwNzc5MTU5MjcyMDk2"},"summary":{"order":"chronological","total_count":39}}}