{"id":"229244010425617_840956042587741","type":"status","from":{"id":"100003196690403","name":"Yến Nhi Phan Thị"},"message":"Thứ 7 ngày 29/03/2014 xếp hàng bóc thăm trúng thưởng tại ga akihabara, trúng thưởng được 3000 không trúng thưởng được 1000. Sáng 8:00 tập trung tại cửa electrictown ga akihabara Bạn nào có nhu cầu xin vui lòng liên hệ số đt 08095738995(sofbank, có thể gọi viber)","created_time":"2014-03-28T08:33:42+0000","updated_time":"2014-03-28T09:58:06+0000","comments":{"data":{"840958349254177":{"id":"840958349254177","from":{"id":"100001795562878","name":"Hai Hoang"},"message":"A với.","can_remove":false,"created_time":"2014-03-28T08:44:42+0000","like_count":0,"user_likes":false},"840958495920829":{"id":"840958495920829","from":{"id":"100003196690403","name":"Yến Nhi Phan Thị"},"message":"a cứ trêu e, a đời nào đi xếp hàng","can_remove":false,"created_time":"2014-03-28T08:45:11+0000","like_count":0,"user_likes":false},"840979102585435":{"id":"840979102585435","from":{"id":"1557064760","name":"Lợi Hứa"},"message":"Anh Trần","message_tags":[{"id":"100000048296076","name":"Anh Trần","type":"user","offset":0,"length":8}],"can_remove":false,"created_time":"2014-03-28T09:55:19+0000","like_count":0,"user_likes":false},"840979489252063":{"id":"840979489252063","from":{"id":"100000048296076","name":"Anh Trần"},"message":"Lợi Hứa not my type dude","message_tags":[{"id":"1557064760","name":"Lợi Hứa","type":"user","offset":0,"length":7}],"can_remove":false,"created_time":"2014-03-28T09:57:00+0000","like_count":0,"user_likes":false},"840979769252035":{"id":"840979769252035","from":{"id":"1557064760","name":"Lợi Hứa"},"message":"ờ","can_remove":false,"created_time":"2014-03-28T09:58:06+0000","like_count":0,"user_likes":false}},"paging":{"cursors":{"after":"ODQwOTU4MzQ5MjU0MTc3","before":"ODQwOTU4MzQ5MjU0MTc3"},"next":"https://graph.facebook.com/229244010425617_840956042587741/comments?limit=1&summary=1&after=ODQwOTU4MzQ5MjU0MTc3"},"summary":{"order":"chronological","total_count":5}},"likes":{"data":[]}}