{"id":"229244010425617_840951115921567","type":"status","from":{"id":"1250063068","name":"Tuấn Tử Tế"},"message":"【Kêu gọi】Xin giúp đỡ cho Hệ thống đánh giá trường tiếng\nHiện mình đang làm web đánh giá các trường tiếng Nhật bên Nhật cho các bạn HS chuẩn bị du học có thể chọn được ngôi trường phù hợp nhất với mình.\nĐầu tiên mình dự định thí điểm trên khoảng 50 trường, nên mình mong muốn các bạn giúp đỡ đề xuất các trường tiếng uy tín(mình sẽ tự chọn ra 50)\nCách thức: Xin các bạn ghi vào ô comment tên rõ ràng của trường muốn đề cử và địa phương kèm 1 vài lời nhận xét(nếu có thể) theo các tiêu chi sau.\nTiêu chí: Mong các bạn đề cử với tiêu chi sau:\n+ Địa lý: Toàn nước Nhât\n+ Có nhiều bạn học sinh VN(Có học sinh thì các bạn ấy mới đánh giá được)\n+ Trường có uy tín, hỗ trợ cho các bạn học sinh(tìm việc, nhà ở, thủ tục ....)\nXin cám ơn sự giúp đỡ của các bạn!","created_time":"2014-03-28T08:10:56+0000","updated_time":"2014-04-04T12:24:01+0000","likes":{"data":{"1816269439":{"id":"1816269439","name":"Dao Ngoc"},"100003269203509":{"id":"100003269203509","name":"Hana Hana"},"100004481014042":{"id":"100004481014042","name":"Quảng Nguyên"},"100003628075694":{"id":"100003628075694","name":"Cuộc Sống"},"100004896576660":{"id":"100004896576660","name":"Ken Lanh Lung"},"100004004426525":{"id":"100004004426525","name":"Vi Trùng"},"100003103086919":{"id":"100003103086919","name":"Tâm Hiếu"},"100007880444320":{"id":"100007880444320","name":"自由"},"100001013109225":{"id":"100001013109225","name":"Mina Pham"},"1146680551":{"id":"1146680551","name":"優しい なぁ"},"100001526631937":{"id":"100001526631937","name":"Tường Oanh Mineko"},"100005762371370":{"id":"100005762371370","name":"Nhật Hồng"},"100001416272263":{"id":"100001416272263","name":"Mai PB"},"100001334415025":{"id":"100001334415025","name":"Nguyen Khanh"},"100000603915176":{"id":"100000603915176","name":"悪いな ぁ"},"100000634574162":{"id":"100000634574162","name":"Karatu Shuhei"},"100006933518153":{"id":"100006933518153","name":"Mai Hạnh Nguyễn"},"100001754136107":{"id":"100001754136107","name":"Nguyễn Tuấn Vũ"},"100003296170329":{"id":"100003296170329","name":"Minh Lụa"},"100000199747524":{"id":"100000199747524","name":"Gà Già"},"100003648830269":{"id":"100003648830269","name":"Jessica Nguyen"},"100002508122689":{"id":"100002508122689","name":"Vũ Mạnh Tuấn"},"1283298041":{"id":"1283298041","name":"Búa Đức Thanh"},"100000500260636":{"id":"100000500260636","name":"Lưu Nguyễn Thảo Tiên"},"569263718":{"id":"569263718","name":"Phuong Thao Tran"},"100004086631868":{"id":"100004086631868","name":"Lêkita Mít Ướt"},"100004445826984":{"id":"100004445826984","name":"Ong Noi Viet"},"100003276696481":{"id":"100003276696481","name":"Viet Đong"},"620066722":{"id":"620066722","name":"Dong Khac Thai"},"100002911599722":{"id":"100002911599722","name":"Vincente Tuyền Tinh Tế"},"1250063068":{"id":"1250063068","name":"Tuấn Tử Tế"},"100004360751785":{"id":"100004360751785","name":"Hà Nguyễn"},"100000075022900":{"id":"100000075022900","name":"Lan Chi Nguyễn"},"100000309153854":{"id":"100000309153854","name":"Pham Thuong"},"100001464505298":{"id":"100001464505298","name":"Dang Viet Chau"},"100001432462223":{"id":"100001432462223","name":"Truong Nguyen"}},"paging":{"cursors":{"after":"MTgxNjI2OTQzOQ==","before":"MTgxNjI2OTQzOQ=="},"next":"https://graph.facebook.com/229244010425617_840951115921567/likes?limit=1&summary=1&after=MTgxNjI2OTQzOQ%3D%3D"},"summary":{"total_count":36}},"comments":{"data":{"840951752588170":{"id":"840951752588170","from":{"id":"100000075022900","name":"Lan Chi Nguyễn"},"message":"東京日語学院 ( Tokyo Nichigo Gakuin)  ở Saitama anh ạ","can_remove":false,"created_time":"2014-03-28T08:14:01+0000","like_count":1,"user_likes":false},"840952452588100":{"id":"840952452588100","from":{"id":"100000378168444","name":"Hồng Phương"},"message":"東京外語専門学校(新宿）co he truong tieng ＆赤門会日本語学校 （西日暮里)","can_remove":false,"created_time":"2014-03-28T08:16:52+0000","like_count":2,"user_likes":false},"840952882588057":{"id":"840952882588057","from":{"id":"100004052933801","name":"Tiêu Hoàng Long"},"message":"沖縄国際言語文化センター(ICLC )","can_remove":false,"created_time":"2014-03-28T08:18:48+0000","like_count":1,"user_likes":false},"840953025921376":{"id":"840953025921376","from":{"id":"100005274876812","name":"Nhóc Coll"},"message":"Waseda o Tokyo","can_remove":false,"created_time":"2014-03-28T08:19:07+0000","like_count":1,"user_likes":false},"840953692587976":{"id":"840953692587976","from":{"id":"100007665993749","name":"Trần Viên"},"message":"Matsudo,ChiBa-Tokyo","can_remove":false,"created_time":"2014-03-28T08:22:18+0000","like_count":1,"user_likes":false},"840954665921212":{"id":"840954665921212","from":{"id":"100001899363306","name":"Ruby Nguyen"},"message":"茨城国際学院 ở Mito, Ibaraki.","can_remove":false,"created_time":"2014-03-28T08:26:47+0000","like_count":1,"user_likes":false},"840957522587593":{"id":"840957522587593","from":{"id":"100000500260636","name":"Lưu Nguyễn Thảo Tiên"},"message":"Mỗi trường có thể mạnh khác nhau. Trường tập trung học thì rất khắt khe việc làm mà?\nCác bạn cứ đòi đi qua đây vừa học vừa làm cứ tưởng sẽ trả đc học phí thôi ak ak. Nhầm chết!","can_remove":false,"created_time":"2014-03-28T08:40:38+0000","like_count":4,"user_likes":false},"840959009254111":{"id":"840959009254111","from":{"id":"100000500260636","name":"Lưu Nguyễn Thảo Tiên"},"message":"大阪\n関西大学別科 (Kansai University Bekka)\nCh/ tr học tốt, tkb, học hoàn toàn bằng may tính ICT, thi cử rõ ràng, ký túc có sv ng Nhật, học phí vừa phải, giáot rình cập nhật, đầu vào k quá dễ k đại trà, luyện thi khá chuẩn, gvien cool, rất nhiều sv quốc tế. 2 năm thì có 4 sv Vn thôi. Học căng và phải mua sách, k giới thiệu việc. \nメリック (Meric) liên kết các trường tốt, hoạt động khá nhiều đa dạng, ch.tr tạm đc. \nYMCA quá nổi rùi!","can_remove":false,"created_time":"2014-03-28T08:47:10+0000","like_count":4,"user_likes":false},"840961839253828":{"id":"840961839253828","from":{"id":"100003913383051","name":"Tho Tran"},"message":"Trường em chỉ được cái giáo viên nhiệt tình trong giảng dạy thôi còn những vấn đề khác thì.... Có nên đề cử không??","can_remove":false,"created_time":"2014-03-28T08:58:42+0000","like_count":2,"user_likes":false},"840962599253752":{"id":"840962599253752","from":{"id":"1250063068","name":"Tuấn Tử Tế"},"message":"Có Tho Tran! Cho anh thêm mấy câu comment nữa. Sau naỳ anh dựa vô đó oánh giá","message_tags":[{"id":"100003913383051","name":"Tho Tran","type":"user","offset":3,"length":8}],"can_remove":false,"created_time":"2014-03-28T08:59:47+0000","like_count":2,"user_likes":false},"840964839253528":{"id":"840964839253528","from":{"id":"100003913383051","name":"Tho Tran"},"message":"ヒューマンアカデミー日本語学校、東京都新宿区高田馬場4-9-9\n電話番号:03-5348-8951","can_remove":false,"created_time":"2014-03-28T09:06:55+0000","like_count":0,"user_likes":false},"841026262580719":{"id":"841026262580719","from":{"id":"569263718","name":"Phuong Thao Tran"},"message":"có cái trường của bạn Hong Nhung ở post kia cũng nên cho vào danh sách nhỉ","can_remove":false,"created_time":"2014-03-28T12:18:08+0000","like_count":1,"user_likes":false},"841067689243243":{"id":"841067689243243","from":{"id":"1453306147","name":"Huynh Phuong Dong"},"message":"JCLI日本語学校、大久保駅ー東京","can_remove":false,"created_time":"2014-03-28T13:49:22+0000","like_count":1,"user_likes":false},"841083082575037":{"id":"841083082575037","from":{"id":"100002977923434","name":"長流"},"message":"赤門会日本語学校 ?","can_remove":false,"created_time":"2014-03-28T14:21:15+0000","like_count":1,"user_likes":false},"841086035908075":{"id":"841086035908075","from":{"id":"1250063068","name":"Tuấn Tử Tế"},"message":"Ở đâu cơ chị Tê Tê!","can_remove":false,"created_time":"2014-03-28T14:25:51+0000","like_count":0,"user_likes":false},"841161845900494":{"id":"841161845900494","from":{"id":"1250063068","name":"Tuấn Tử Tế"},"message":"Đếm! đếm!","can_remove":false,"created_time":"2014-03-28T17:18:02+0000","like_count":0,"user_likes":false},"841535092529836":{"id":"841535092529836","from":{"id":"1250063068","name":"Tuấn Tử Tế"},"message":"Đã có 10 trường rồi!","can_remove":false,"created_time":"2014-03-29T09:17:40+0000","like_count":0,"user_likes":false},"841666042516741":{"id":"841666042516741","from":{"id":"100004481014042","name":"Quảng Nguyên"},"message":"Human academy tokyo học phí rẻ... Giáo trình tự biên soạn thích hợp cho các bạn sang nhật với mục đích học tập... Thầy cô rất thân thiện và thực tế","can_remove":false,"created_time":"2014-03-29T14:31:47+0000","like_count":1,"user_likes":false},"841666395850039":{"id":"841666395850039","from":{"id":"100004481014042","name":"Quảng Nguyên"},"message":"Trường ở quận shinjuku-ku nha anh","can_remove":false,"created_time":"2014-03-29T14:32:32+0000","like_count":0,"user_likes":false},"845295165487162":{"id":"845295165487162","from":{"id":"1250063068","name":"Tuấn Tử Tế"},"message":"tks bạn Quảng Nguyên","can_remove":false,"created_time":"2014-04-04T12:18:07+0000","like_count":0,"user_likes":false},"845297308820281":{"id":"845297308820281","from":{"id":"569263718","name":"Phuong Thao Tran"},"message":"ở bên Nhật ít trường tốt thế à, :(","can_remove":false,"created_time":"2014-04-04T12:24:01+0000","like_count":0,"user_likes":false}},"paging":{"cursors":{"after":"ODQwOTUxNzUyNTg4MTcw","before":"ODQwOTUxNzUyNTg4MTcw"},"next":"https://graph.facebook.com/229244010425617_840951115921567/comments?limit=1&summary=1&after=ODQwOTUxNzUyNTg4MTcw"},"summary":{"order":"chronological","total_count":21}}}