{"id":"229244010425617_840949032588442","type":"photo","object_id":"849319561751057","picture":"https://fbcdn-photos-c-a.akamaihd.net/hphotos-ak-frc1/t1.0-0/1982366_849319561751057_170574392_s.jpg","link":"https://www.facebook.com/photo.php?fbid=849319561751057&set=a.849319228417757.1073741834.511474515535565&type=1","from":{"id":"100001443364144","name":"Thanh Phuong Huynh"},"message":"[CHƯƠNG TRÌNH TUYỂN DỤNG LẬP TRÌNH VIÊN LÀM VIỆC TẠI NHẬT BẢN]\n\nCông ty Nhật tại Tokyo đang cần tuyển 1 nhóm Lập Trình Viên (Developer) sang Nhật làm việc với vị trí Nhân viên Chính Thức\n\n[Số Lượng]: 10\n\n[CHẾ ĐỘ VÀ QUYỀN LỢI]\n- Mức lương:18 man ~ 30 man yên ( $1800 ~ $3000), tùy vào năng lực.\n- Tất cả các chế độ về ngày nghỉ, lương, thưởng và ưu đãi theo tiêu chuẩn nhân sự tại Nhật.\n- Cơ hội làm việc, được đào tạo từ đầu và trau dồi kinh nghiệm với công ty hàng đầu tại Nhật về IT.\n- Chi phí vé máy bay, thủ tục do công ty Nhật chịu trách nhiệm và hướng dẫn.\n- Sẽ trở thành key-member của Công Ty Nhật khi thành lập Chi nhánh tại Việt Nam sau thời gian làm việc ở Nhật.\n\n[MÔ TẢ VỊ TRÍ]\n- Vị trí tuyển dụng: Nhân viên chính thức lập trình viên\n- Thời gian làm việc: 1~3 năm\n- Nơi làm việc: làm việc tại công ty IT tại Tokyo Nhật Bản\n\n[YÊU CẦU TUYỂN DỤNG]\n- Ưu tiên: Các bạn có trình độ giao tiếp tiếng Nhật cơ bản .\n- Yêu thích văn hóa và mong muốn làm việc tại Nhật Bản.\n- Trình độ chuyên môn: tốt nghiệp các trường đào tạo về lập trình.\n- Có kiến thức tổng quan về lập trình và một ngôn ngữ lập trình bất kỳ.\n- Không yêu cầu kinh nghiệm, sau khi nhận việc sẽ được công ty đào tạo từ đầu.\n- Nhanh nhẹn trong việc tìm hiểu và nắm bắt vấn đề công việc.\n\n[QUY TRÌNH TUYỂN DỤNG]\n1. Gửi CV bằng tiếng Anh hoặc tiếng Nhật càng tốt\n2. Duyệt CV và liên hệ mời tham gia phỏng vấn\n3. Phỏng vấn vòng 1 với Công ty đại diện tại VN\n4. Phỏng vấn vòng 2 với Công Ty Nhật Bản\n5. Thông báo kết quả \n6. Ứng viên được tuyển dụng sẽ được hướng dẫn, đào tạo kỹ năng làm việc tại Nhật trong thời gian chờ làm thủ tục.\n\n****************************************\nĐể ứng tuyển vui lòng gửi CV tiếng Nhật / tiếng Anh tới địa chỉ mai: htphuong@trycz.vn, tiêu đề mail ghi rõ \"Ứng tuyển chương trình tuyển dụng lập trình viên làm việc tại Nhật Bản\"\n\nhoặc gọi 01647.006.088 (Mr.Phương) để biết thêm thông tin.\n\nhttps://www.facebook.com/photo.php?fbid=849319561751057&set=a.849319228417757.1073741834.511474515535565&type=1&theater","created_time":"2014-03-28T08:01:13+0000","updated_time":"2014-03-28T19:05:41+0000","likes":{"data":{"100000771473206":{"id":"100000771473206","name":"Norito Hiraoka"},"100001547664083":{"id":"100001547664083","name":"Đặng Việt Dũng"},"100000110765909":{"id":"100000110765909","name":"Thảo Nguyễn"},"100001824172942":{"id":"100001824172942","name":"Phan Van"},"100001640273936":{"id":"100001640273936","name":"Nguyen Ba Tam"},"100001622486348":{"id":"100001622486348","name":"Tuan Lam"}},"paging":{"cursors":{"after":"MTAwMDAwNzcxNDczMjA2","before":"MTAwMDAwNzcxNDczMjA2"},"next":"https://graph.facebook.com/229244010425617_840949032588442/likes?limit=1&summary=1&after=MTAwMDAwNzcxNDczMjA2"},"summary":{"total_count":6}},"comments":{"data":{"840952502588095":{"id":"840952502588095","from":{"id":"100001860571838","name":"Nam Le"},"message":"Tiếc quá. Tiếng Nhật đã tương đương N3 mà tháng 9 mới tốt nghiệp ra trường. :(","can_remove":false,"created_time":"2014-03-28T08:16:57+0000","like_count":1,"user_likes":false},"840978715918807":{"id":"840978715918807","from":{"id":"100003852803358","name":"Ngọc Điệp"},"message":"Cho em hỏi, sao yêu cầu của họ đơn giản vậy ạ? Em xem các tin tuyển dụng ngay của công ty Việt mình đều thấy bắt buộc thành thạo 5-7 ngôn ngữ, có khả năng photoshop, design các kiểu, lại yêu cầu có vài năm kinh nghiệm.... Trong khi lương rõ ràng là hiếm khi được cao như các công ty nước ngoài?","can_remove":false,"created_time":"2014-03-28T09:54:42+0000","like_count":0,"user_likes":false},"841146052568740":{"id":"841146052568740","from":{"id":"100001169630281","name":"XeLu TuotXich"},"message":"ko có tên công ty, ko tin tưởng","can_remove":false,"created_time":"2014-03-28T16:32:52+0000","like_count":0,"user_likes":false},"841195219230490":{"id":"841195219230490","from":{"id":"100001443364144","name":"Thanh Phuong Huynh"},"message":"XeLu TuotXich :) Đại diện tuyển dụng tại Việt Nam là STEP UP HR thuộc công ty TryCZ nhé bạn. \nbạn có thể tham khảo pages https://www.facebook.com/stepuphr.vn hoặc http://trycz.vn để biết thêm công ty nhé bạn. \n\nCòn việc Tin tưởng hay không tùy ở bạn. Lựa chọn cơ hội hay bỏ qua nó là do bạn quyết định. Vậy nhé. Thân ^^","message_tags":[{"id":"100001169630281","name":"XeLu TuotXich","type":"user","offset":0,"length":13}],"can_remove":false,"created_time":"2014-03-28T18:54:58+0000","like_count":0,"user_likes":false},"841199625896716":{"id":"841199625896716","from":{"id":"100001443364144","name":"Thanh Phuong Huynh"},"message":"@Ngọc Điệp hiện tại bên cty Nhật ủy quyền bên mình tuyển 2 vị trí này nhé. https://www.facebook.com/photo.php?fbid=853600194656327&set=a.572579176091765.154443.511474515535565&type=1&theater\n\nhttps://www.facebook.com/photo.php?fbid=849319561751057&set=a.849319228417757.1073741834.511474515535565&type=1&theater\n\nBạn tham khảo thấy vị trí nào phù hợp thì có thể apply. cả 2 vị trí này đều làm tại Tokyo Nhật Bản nên lương phải khác khi làm tại VN chứ bạn. Thử so sánh đời sống 2 nước thì bạn cũng hiểu. \n\nCòn về vị trí này ko yêu cầu cao vì sẽ được đào tạo thêm dựa trên nền tảng lập trình mà bạn đã có và ngôn ngữ chính của bạn. Tất nhiên để được tuyển chọn đi Nhật làm việc thì cũng phải qua 2 vòng phỏng vấn, test kỹ thuật và tiếng Nhật nên cũng không đơn giản nhé bạn. Thân","can_remove":false,"created_time":"2014-03-28T19:05:41+0000","like_count":0,"user_likes":false}},"paging":{"cursors":{"after":"ODQwOTUyNTAyNTg4MDk1","before":"ODQwOTUyNTAyNTg4MDk1"},"next":"https://graph.facebook.com/229244010425617_840949032588442/comments?limit=1&summary=1&after=ODQwOTUyNTAyNTg4MDk1"},"summary":{"order":"chronological","total_count":5}}}