{"id":"229244010425617_840930255923653","type":"photo","object_id":"799395560074179","picture":"https://fbcdn-photos-g-a.akamaihd.net/hphotos-ak-prn2/t1.0-0/1797332_799395560074179_1900644128_s.jpg","link":"https://www.facebook.com/photo.php?fbid=799395560074179&set=a.678379525509117.1073741831.602038023143268&type=1","from":{"id":"100006712992259","name":"Thảo Lê"},"message":"Có đúng ko mọi người :3\n.\n.","created_time":"2014-03-28T06:43:29+0000","updated_time":"2014-03-28T22:47:03+0000","likes":{"data":{"100002918208166":{"id":"100002918208166","name":"Quan Okmen"},"100006499250252":{"id":"100006499250252","name":"Nguyễn Vân"},"100000771473206":{"id":"100000771473206","name":"Norito Hiraoka"},"100004231140995":{"id":"100004231140995","name":"Anh YaYa"},"100002975299796":{"id":"100002975299796","name":"Trinh Tuan Anh"},"100001815613858":{"id":"100001815613858","name":"Thanh  Tuyen"},"100005250242073":{"id":"100005250242073","name":"藤 の花"},"1505296112":{"id":"1505296112","name":"Lê Hoài Ân"},"100006358183641":{"id":"100006358183641","name":"イ トウ"},"100003097827873":{"id":"100003097827873","name":"Se Ven"},"100003840011788":{"id":"100003840011788","name":"Kiều Luân Asuwa"},"100001971653484":{"id":"100001971653484","name":"Sakura Sakura"},"100003058280462":{"id":"100003058280462","name":"Đặng Văn Thành"},"100000450623476":{"id":"100000450623476","name":"Chien Bui Xuan"},"100004317667175":{"id":"100004317667175","name":"Hoàng Tử Chăn Lợn"},"100003282697164":{"id":"100003282697164","name":"Nguyễn Văn Vương"},"100008013793402":{"id":"100008013793402","name":"Nga My"},"100007461963568":{"id":"100007461963568","name":"Kudo Shinichi"},"100003278156522":{"id":"100003278156522","name":"Akira Hirota"},"100001432462223":{"id":"100001432462223","name":"Truong Nguyen"},"100006239194036":{"id":"100006239194036","name":"Ngân Kòi"}},"paging":{"cursors":{"after":"MTAwMDAyOTE4MjA4MTY2","before":"MTAwMDAyOTE4MjA4MTY2"},"next":"https://graph.facebook.com/229244010425617_840930255923653/likes?limit=1&summary=1&after=MTAwMDAyOTE4MjA4MTY2"},"summary":{"total_count":21}},"comments":{"data":{"840930842590261":{"id":"840930842590261","from":{"id":"100003245420682","name":"Thỏ Ngọc Usagi"},"message":"O.o","can_remove":false,"created_time":"2014-03-28T06:46:21+0000","like_count":0,"user_likes":false},"840931269256885":{"id":"840931269256885","from":{"id":"100001432462223","name":"Truong Nguyen"},"message":":v A An ơi cái này có nằm trong bản kế hoạch phát triển NB hôm trc ko ah","can_remove":false,"created_time":"2014-03-28T06:48:40+0000","like_count":0,"user_likes":false},"840934415923237":{"id":"840934415923237","from":{"id":"100003077266439","name":"Tiểu Tinh"},"message":"ơ, không biết tiếng nhật, các c dịch hộ tt điều kiện cái","can_remove":false,"created_time":"2014-03-28T07:01:29+0000","like_count":1,"user_likes":false},"840936045923074":{"id":"840936045923074","from":{"id":"100002262262717","name":"Quả Táo Mèo"},"message":"Du hoc sinh và Tu nghiệp sinh là những kế hoạch phát triển kinh tế của Nhật Bản và thanh niên Việt Nam là 1 nguồn lao động của họ","can_remove":false,"created_time":"2014-03-28T07:09:01+0000","like_count":2,"user_likes":false},"840937472589598":{"id":"840937472589598","from":{"id":"100001432462223","name":"Truong Nguyen"},"message":"hôm trc trong bản kế hoạch phát triển NB của An Nguyễn đề,cập thì DHS ko nhằm mục tiêu này. TNS chưa rõ","can_remove":false,"created_time":"2014-03-28T07:12:47+0000","like_count":1,"user_likes":false},"840939795922699":{"id":"840939795922699","from":{"id":"100003077266439","name":"Tiểu Tinh"},"message":"tns hiểu là mình sang đó xkld - làm việc nhỉ?","can_remove":false,"created_time":"2014-03-28T07:18:13+0000","like_count":0,"user_likes":false},"840940025922676":{"id":"840940025922676","from":{"id":"100001432462223","name":"Truong Nguyen"},"message":"cơ bản là thế. hay gọi trao đổi lao động thì phải :)","can_remove":false,"created_time":"2014-03-28T07:19:44+0000","like_count":1,"user_likes":false},"840949269255085":{"id":"840949269255085","from":{"id":"100003840011788","name":"Kiều Luân Asuwa"},"message":"Liệu có fai là sự thật k nhỉ","can_remove":false,"created_time":"2014-03-28T08:02:46+0000","like_count":0,"user_likes":false},"840960845920594":{"id":"840960845920594","from":{"id":"100000500260636","name":"Lưu Nguyễn Thảo Tiên"},"message":"Víaa nào 5 năm? 3 năm mà?","can_remove":false,"created_time":"2014-03-28T08:55:24+0000","like_count":1,"user_likes":false},"840977299252282":{"id":"840977299252282","from":{"id":"100003657473061","name":"Vu Trung Kien"},"message":"Mình rất muốn nhưng ....","can_remove":false,"created_time":"2014-03-28T09:50:50+0000","like_count":0,"user_likes":false},"840981729251839":{"id":"840981729251839","from":{"id":"100006712992259","name":"Thảo Lê"},"message":"nhung sao bn Vu Trung Kien","message_tags":[{"id":"100003657473061","name":"Vu Trung Kien","type":"user","offset":13,"length":13}],"can_remove":false,"created_time":"2014-03-28T10:04:34+0000","like_count":1,"user_likes":false},"840982022585143":{"id":"840982022585143","from":{"id":"100001432462223","name":"Truong Nguyen"},"message":"chắc vợ ông giữ :3 gia đình vướng bận chuyện gì đó","can_remove":false,"created_time":"2014-03-28T10:05:37+0000","like_count":1,"user_likes":false},"840982045918474":{"id":"840982045918474","from":{"id":"100003657473061","name":"Vu Trung Kien"},"message":"Không có chi bạn à hihi chỉ là ý nghĩ thoáng qua thui","can_remove":false,"created_time":"2014-03-28T10:05:46+0000","like_count":1,"user_likes":false},"840982225918456":{"id":"840982225918456","from":{"id":"100003657473061","name":"Vu Trung Kien"},"message":"Làm chi có vk hử ông bạn hjhj","can_remove":false,"created_time":"2014-03-28T10:06:36+0000","like_count":0,"user_likes":false},"840982872585058":{"id":"840982872585058","from":{"id":"100001432462223","name":"Truong Nguyen"},"message":":3 ế vk như mình ah :))","can_remove":false,"created_time":"2014-03-28T10:08:06+0000","like_count":0,"user_likes":false},"840983079251704":{"id":"840983079251704","from":{"id":"100003657473061","name":"Vu Trung Kien"},"message":"Đúng rùi ế nặng rùi hjhj","can_remove":false,"created_time":"2014-03-28T10:08:41+0000","like_count":0,"user_likes":false},"840991785917500":{"id":"840991785917500","from":{"id":"100006712992259","name":"Thảo Lê"},"message":"sang đấy kiếm e vk người Nhật. hehe Vu Trung Kien Truong Nguyen ak","message_tags":[{"id":"100003657473061","name":"Vu Trung Kien","type":"user","offset":36,"length":13},{"id":"100001432462223","name":"Truong Nguyen","type":"user","offset":50,"length":13}],"can_remove":false,"created_time":"2014-03-28T10:39:36+0000","like_count":0,"user_likes":false},"840992279250784":{"id":"840992279250784","from":{"id":"100003657473061","name":"Vu Trung Kien"},"message":"Ui khổ lỗi mún không đk hjhj khi nói câu đó ra mọi người bảo can 50 lít bạn ah","can_remove":false,"created_time":"2014-03-28T10:40:55+0000","like_count":0,"user_likes":false},"840992655917413":{"id":"840992655917413","from":{"id":"100001432462223","name":"Truong Nguyen"},"message":":v e nào chứ","can_remove":false,"created_time":"2014-03-28T10:41:41+0000","like_count":0,"user_likes":false},"840994825917196":{"id":"840994825917196","from":{"id":"100002884430339","name":"Hồng Trịnh"},"message":"Có việc này thật à các senpai?","can_remove":false,"created_time":"2014-03-28T10:48:08+0000","like_count":0,"user_likes":false},"841312559218756":{"id":"841312559218756","from":{"id":"100006499250252","name":"Nguyễn Vân"},"message":"co that ko vay? nghi ngo","can_remove":false,"created_time":"2014-03-28T22:47:03+0000","like_count":0,"user_likes":false}},"paging":{"cursors":{"after":"ODQwOTMwODQyNTkwMjYx","before":"ODQwOTMwODQyNTkwMjYx"},"next":"https://graph.facebook.com/229244010425617_840930255923653/comments?limit=1&summary=1&after=ODQwOTMwODQyNTkwMjYx"},"summary":{"order":"chronological","total_count":21}}}