{"id":"229244010425617_841059745910704","type":"status","from":{"id":"100000036012976","name":"Tí Kihae"},"message":"Công ty anh em có suất đi Nhật làm 3 năm . Mọi người cho em lời khuyên được không ạ .","created_time":"2014-03-28T13:36:12+0000","updated_time":"2014-03-29T05:52:27+0000","likes":{"data":{"100003811426308":{"id":"100003811426308","name":"Xì Trum"},"100004975712968":{"id":"100004975712968","name":"Cương Nguyễn"},"100002469422165":{"id":"100002469422165","name":"Duc Nguyen"}},"paging":{"cursors":{"after":"MTAwMDAzODExNDI2MzA4","before":"MTAwMDAzODExNDI2MzA4"},"next":"https://graph.facebook.com/229244010425617_841059745910704/likes?limit=1&summary=1&after=MTAwMDAzODExNDI2MzA4"},"summary":{"total_count":3}},"comments":{"data":{"841061659243846":{"id":"841061659243846","from":{"id":"100004784233958","name":"NO Bita"},"message":"Đi theo cty rất tốt bạn ạ","can_remove":false,"created_time":"2014-03-28T13:37:52+0000","like_count":0,"user_likes":false},"841062365910442":{"id":"841062365910442","from":{"id":"100000036012976","name":"Tí Kihae"},"message":"dạ vâng ... em muốn hỏi ý kiến mọi người xem sao .. Em đi đi theo du học vừa học vừa làm nhưng anh em nói thui đi làm nên em hơi phân vân :(","can_remove":false,"created_time":"2014-03-28T13:39:06+0000","like_count":0,"user_likes":false},"841062955910383":{"id":"841062955910383","from":{"id":"100004784233958","name":"NO Bita"},"message":"Nếu đi du học tự túc thì ở nhà bạn à.. Cơ hội tốt là 30% thui... Bạn tiếng giỏi là 100%","can_remove":false,"created_time":"2014-03-28T13:40:20+0000","like_count":0,"user_likes":false},"841063569243655":{"id":"841063569243655","from":{"id":"100000036012976","name":"Tí Kihae"},"message":"vâng .. em cũng nghĩ vậy .. vừa tiếng em không có giỏi lắm .. Đi làm có phải ổn hơn","can_remove":false,"created_time":"2014-03-28T13:41:23+0000","like_count":0,"user_likes":false},"841064112576934":{"id":"841064112576934","from":{"id":"100004784233958","name":"NO Bita"},"message":"Tiếng k ổn thì đi làm ùi về là đẹp... Nhìu ng có m sang đây làm chỉ đủ tiêu... Nhìu ng k đủ... Đã vậy bjo đi đâu cũng Việt Nam! Ăn trộm Việt Nam! Ăn cắp.. Mún về","can_remove":false,"created_time":"2014-03-28T13:42:49+0000","like_count":0,"user_likes":false},"841064445910234":{"id":"841064445910234","from":{"id":"100000036012976","name":"Tí Kihae"},"message":"E nghe nói người nhật canh chừng ng VN lắm  ... :((","can_remove":false,"created_time":"2014-03-28T13:43:38+0000","like_count":0,"user_likes":false},"841065362576809":{"id":"841065362576809","from":{"id":"100004784233958","name":"NO Bita"},"message":"Ukm... Chán lém... Đi làm tốt hơn đó...","can_remove":false,"created_time":"2014-03-28T13:44:38+0000","like_count":0,"user_likes":false},"841065612576784":{"id":"841065612576784","from":{"id":"100006787353477","name":"Tuấn Thật Thà"},"message":"Đi theo cty mình ko biết nhưng du học nhìn có vẻ sướng cơ mà khổ vl","can_remove":false,"created_time":"2014-03-28T13:44:57+0000","like_count":0,"user_likes":false},"841066199243392":{"id":"841066199243392","from":{"id":"100000036012976","name":"Tí Kihae"},"message":"em thấy mấy đứa em của em bên đấy cũng nói đi làm ko đủ tiền lo đóng học nên em cũng hơi sợ Tuấn Thật Thà","message_tags":[{"id":"100006787353477","name":"Tuấn Thật Thà","type":"user","offset":92,"length":13}],"can_remove":false,"created_time":"2014-03-28T13:45:50+0000","like_count":0,"user_likes":false},"841066242576721":{"id":"841066242576721","from":{"id":"100000036012976","name":"Tí Kihae"},"message":"NO Bita  em cảm ơn ạ","message_tags":[{"id":"100004784233958","name":"NO Bita","type":"user","offset":0,"length":7}],"can_remove":false,"created_time":"2014-03-28T13:46:01+0000","like_count":0,"user_likes":false},"841071265909552":{"id":"841071265909552","from":{"id":"100004141509084","name":"Kẹo Kẹo"},"message":"đi làm thi ok du học thì vất day","can_remove":false,"created_time":"2014-03-28T13:57:58+0000","like_count":0,"user_likes":false},"841071512576194":{"id":"841071512576194","from":{"id":"100000134689658","name":"Nấmđộc SuJu"},"message":"ĐY Đ PHÂN VÂN GÌ NỮA. ĐY LÀM CHẮC MẸ T CŨNG CHO T ĐY ĐẤY","can_remove":false,"created_time":"2014-03-28T13:58:42+0000","like_count":0,"user_likes":false},"841073635909315":{"id":"841073635909315","from":{"id":"100000036012976","name":"Tí Kihae"},"message":"Nấmđộc SuJu em chào c ạ c đi cùng em ko ạ :3","message_tags":[{"id":"100000134689658","name":"Nấmđộc SuJu","type":"user","offset":0,"length":11}],"can_remove":false,"created_time":"2014-03-28T14:02:08+0000","like_count":0,"user_likes":false},"841073742575971":{"id":"841073742575971","from":{"id":"100000036012976","name":"Tí Kihae"},"message":"Kẹo Kẹo thank b","message_tags":[{"id":"100004141509084","name":"Kẹo Kẹo","type":"user","offset":0,"length":7}],"can_remove":false,"created_time":"2014-03-28T14:02:17+0000","like_count":1,"user_likes":false},"841074605909218":{"id":"841074605909218","from":{"id":"100000036012976","name":"Tí Kihae"},"message":"Tuấn Thật Thà vâng em cũng ko nghĩ nó đơn giản vì tùy vào số mình nó thế nào","message_tags":[{"id":"100006787353477","name":"Tuấn Thật Thà","type":"user","offset":0,"length":13}],"can_remove":false,"created_time":"2014-03-28T14:04:33+0000","like_count":0,"user_likes":false},"841074672575878":{"id":"841074672575878","from":{"id":"100000147414000","name":"Nguyễn Công Thắng"},"message":"uk :3 đi đi :3 em sẽ có thân hình vạm vỡ :3","can_remove":false,"created_time":"2014-03-28T14:04:43+0000","like_count":0,"user_likes":false},"841074785909200":{"id":"841074785909200","from":{"id":"100000036012976","name":"Tí Kihae"},"message":"hở ?? @@","can_remove":false,"created_time":"2014-03-28T14:05:07+0000","like_count":0,"user_likes":false},"841074922575853":{"id":"841074922575853","from":{"id":"100000134689658","name":"Nấmđộc SuJu"},"message":"sao lại có thân hình vạm vỡ vậy @@","can_remove":false,"created_time":"2014-03-28T14:05:25+0000","like_count":0,"user_likes":false},"841341602549185":{"id":"841341602549185","from":{"id":"100004975712968","name":"Cương Nguyễn"},"message":"Đi theo cty là tốt đó e... A cũng đang chờ đợt của cty.","can_remove":false,"created_time":"2014-03-29T00:12:56+0000","like_count":1,"user_likes":false},"841475685869110":{"id":"841475685869110","from":{"id":"100006528887490","name":"Cứ Như Vậy Đi"},"message":"Ở nhà chăn trâu sướng hơn qua đây","can_remove":false,"created_time":"2014-03-29T05:50:20+0000","like_count":0,"user_likes":false},"841476192535726":{"id":"841476192535726","from":{"id":"100000036012976","name":"Tí Kihae"},"message":"nói như bạn ...","can_remove":false,"created_time":"2014-03-29T05:52:01+0000","like_count":0,"user_likes":false},"841476275869051":{"id":"841476275869051","from":{"id":"100006528887490","name":"Cứ Như Vậy Đi"},"message":"Thiết","can_remove":false,"created_time":"2014-03-29T05:52:21+0000","like_count":0,"user_likes":false},"841476309202381":{"id":"841476309202381","from":{"id":"100006528887490","name":"Cứ Như Vậy Đi"},"message":"Thiệt","can_remove":false,"created_time":"2014-03-29T05:52:27+0000","like_count":0,"user_likes":false}},"paging":{"cursors":{"after":"ODQxMDYxNjU5MjQzODQ2","before":"ODQxMDYxNjU5MjQzODQ2"},"next":"https://graph.facebook.com/229244010425617_841059745910704/comments?limit=1&summary=1&after=ODQxMDYxNjU5MjQzODQ2"},"summary":{"order":"chronological","total_count":23}}}