{"id":"229244010425617_841068945909784","type":"status","from":{"id":"100004278729628","name":"Fởn Đầu Fox"},"message":"Mọi người cho em hỏi 1 tí ak^^\nMua laptop ở bên Nhật có đắt không ak?. Tầm bao nhiêu mua được cái dùng ổn ổn ak?","created_time":"2014-03-28T13:52:16+0000","updated_time":"2014-03-29T10:38:09+0000","likes":{"data":{"100005350922337":{"id":"100005350922337","name":"Đặng Hằng"},"100003574946076":{"id":"100003574946076","name":"Minhh Hảii"},"100002469422165":{"id":"100002469422165","name":"Duc Nguyen"},"100003115841931":{"id":"100003115841931","name":"Bánh Đa Cá Rô"},"100004205281988":{"id":"100004205281988","name":"Ngoc Diep"},"100004982014580":{"id":"100004982014580","name":"Kun Kun"},"100002710818496":{"id":"100002710818496","name":"Duy Duy"}},"paging":{"cursors":{"after":"MTAwMDA1MzUwOTIyMzM3","before":"MTAwMDA1MzUwOTIyMzM3"},"next":"https://graph.facebook.com/229244010425617_841068945909784/likes?limit=1&summary=1&after=MTAwMDA1MzUwOTIyMzM3"},"summary":{"total_count":7}},"comments":{"data":{"841069825909696":{"id":"841069825909696","from":{"id":"100002710818496","name":"Duy Duy"},"message":"minh moi dap hop e nay,7man so voi o vn thi la khoang 10tr","can_remove":false,"created_time":"2014-03-28T13:54:42+0000","like_count":1,"user_likes":false},"841070159242996":{"id":"841070159242996","from":{"id":"100004982014580","name":"Kun Kun"},"message":"minh dinh mang lastop tu vn sang ko pit co dc ko","can_remove":false,"created_time":"2014-03-28T13:55:17+0000","like_count":1,"user_likes":false},"841070495909629":{"id":"841070495909629","from":{"id":"100000270744242","name":"Rock Trong Tôi"},"message":"mua máy 最後 thì rẻ","can_remove":false,"created_time":"2014-03-28T13:56:09+0000","like_count":1,"user_likes":false},"841070502576295":{"id":"841070502576295","from":{"id":"100002689017246","name":"Vũ Văn Minh"},"message":"4man mới đét","can_remove":false,"created_time":"2014-03-28T13:56:10+0000","like_count":2,"user_likes":false},"841070532576292":{"id":"841070532576292","from":{"id":"100002689017246","name":"Vũ Văn Minh"},"message":"Đồ cuz rẻ","can_remove":false,"created_time":"2014-03-28T13:56:16+0000","like_count":1,"user_likes":false},"841070712576274":{"id":"841070712576274","from":{"id":"100002710818496","name":"Duy Duy"},"message":"lenovo b590 corei5 chay windows 7 4G","can_remove":false,"created_time":"2014-03-28T13:56:51+0000","like_count":0,"user_likes":false},"841071352576210":{"id":"841071352576210","from":{"id":"100004982014580","name":"Kun Kun"},"message":"mua o dau ha duy duy","can_remove":false,"created_time":"2014-03-28T13:58:09+0000","like_count":0,"user_likes":false},"841071479242864":{"id":"841071479242864","from":{"id":"100004278729628","name":"Fởn Đầu Fox"},"message":"he, vậy ak. chắc em cũng để sang đó mua. nhưng thế thì lại đắt hơn so vơi mua ở bên này ak?  Duy Duy","can_remove":false,"created_time":"2014-03-28T13:58:36+0000","like_count":1,"user_likes":false},"841071542576191":{"id":"841071542576191","from":{"id":"100002710818496","name":"Duy Duy"},"message":"to mua o cua hang do dien day","can_remove":false,"created_time":"2014-03-28T13:58:43+0000","like_count":1,"user_likes":false},"841071665909512":{"id":"841071665909512","from":{"id":"100002710818496","name":"Duy Duy"},"message":"uhm,dung r,","can_remove":false,"created_time":"2014-03-28T13:59:03+0000","like_count":1,"user_likes":false},"841072155909463":{"id":"841072155909463","from":{"id":"100004982014580","name":"Kun Kun"},"message":"the mua ben nay co dung dc ben day ko?ma sang do dung mang.the nao?","can_remove":false,"created_time":"2014-03-28T13:59:41+0000","like_count":1,"user_likes":false},"841073472575998":{"id":"841073472575998","from":{"id":"100002710818496","name":"Duy Duy"},"message":"dc het","can_remove":false,"created_time":"2014-03-28T14:01:44+0000","like_count":0,"user_likes":false},"841073872575958":{"id":"841073872575958","from":{"id":"100002710818496","name":"Duy Duy"},"message":"tai hom day thick may tinh roi nen mua o cua hang do co moi cai nay la re tien nhat nen moi mua thoi","can_remove":false,"created_time":"2014-03-28T14:02:39+0000","like_count":1,"user_likes":false},"841074259242586":{"id":"841074259242586","from":{"id":"100000270744242","name":"Rock Trong Tôi"},"message":"sang đây mua cho chắc chắn","can_remove":false,"created_time":"2014-03-28T14:03:36+0000","like_count":2,"user_likes":false},"841074279242584":{"id":"841074279242584","from":{"id":"100004982014580","name":"Kun Kun"},"message":"the ben nhat.no dung mang dcom hay mang.day nhu ben minh nhi?","can_remove":false,"created_time":"2014-03-28T14:03:39+0000","like_count":0,"user_likes":false},"841074372575908":{"id":"841074372575908","from":{"id":"100000270744242","name":"Rock Trong Tôi"},"message":"ko có máy ko cắm được mạng để dùng đâu","can_remove":false,"created_time":"2014-03-28T14:03:52+0000","like_count":0,"user_likes":false},"841074539242558":{"id":"841074539242558","from":{"id":"100000270744242","name":"Rock Trong Tôi"},"message":"mạng thì khoảng 4 sên 1 máy","can_remove":false,"created_time":"2014-03-28T14:04:17+0000","like_count":0,"user_likes":false},"841074542575891":{"id":"841074542575891","from":{"id":"100004982014580","name":"Kun Kun"},"message":"the ak","can_remove":false,"created_time":"2014-03-28T14:04:18+0000","like_count":0,"user_likes":false},"841074589242553":{"id":"841074589242553","from":{"id":"100000270744242","name":"Rock Trong Tôi"},"message":"lắp thêm máy nữa lại tính tiền","can_remove":false,"created_time":"2014-03-28T14:04:30+0000","like_count":0,"user_likes":false},"841074652575880":{"id":"841074652575880","from":{"id":"100004982014580","name":"Kun Kun"},"message":"t tuong thiet ke giong nhau ma mua ben nay lai ko dung dc ak","can_remove":false,"created_time":"2014-03-28T14:04:40+0000","like_count":0,"user_likes":false},"841074665909212":{"id":"841074665909212","from":{"id":"100000270744242","name":"Rock Trong Tôi"},"message":"nên mua cái phát wifi cho cả dẫy dùng","can_remove":false,"created_time":"2014-03-28T14:04:42+0000","like_count":1,"user_likes":false},"841074839242528":{"id":"841074839242528","from":{"id":"100002710818496","name":"Duy Duy"},"message":"to o voi 3 ng nuoc ngoai,dung mang day moi nguoi het co 1,5 sen/thang thoi","can_remove":false,"created_time":"2014-03-28T14:05:15+0000","like_count":0,"user_likes":false},"841075089242503":{"id":"841075089242503","from":{"id":"100002710818496","name":"Duy Duy"},"message":"Rock Trong Tôi cai fat wifi nhu ban noi thi bnhiu k,va ten la gi","message_tags":[{"id":"100000270744242","name":"Rock Trong Tôi","type":"user","offset":0,"length":14}],"can_remove":false,"created_time":"2014-03-28T14:05:59+0000","like_count":0,"user_likes":false},"841075092575836":{"id":"841075092575836","from":{"id":"100000270744242","name":"Rock Trong Tôi"},"message":"bọn mình dùng 1 máy thoi. còn lại  mua cái phát wifi 8sen5 để phát","can_remove":false,"created_time":"2014-03-28T14:06:01+0000","like_count":0,"user_likes":false},"841075219242490":{"id":"841075219242490","from":{"id":"100000270744242","name":"Rock Trong Tôi"},"message":"hãng NEC thì phải","can_remove":false,"created_time":"2014-03-28T14:06:24+0000","like_count":0,"user_likes":false},"841075839242428":{"id":"841075839242428","from":{"id":"100002710818496","name":"Duy Duy"},"message":"ban xem lai giup minh voi.khoang bnhiu k/cai vay,to dang dung mang day 1,5 sen thang lieu co on ko","can_remove":false,"created_time":"2014-03-28T14:07:35+0000","like_count":0,"user_likes":false},"841075949242417":{"id":"841075949242417","from":{"id":"100004982014580","name":"Kun Kun"},"message":"the minh mua may tinh ben nay thi sang do chi?mat tien mang.thui chu'?","can_remove":false,"created_time":"2014-03-28T14:07:51+0000","like_count":1,"user_likes":false},"841075995909079":{"id":"841075995909079","from":{"id":"100002316048035","name":"Đỗ Mạnh Tiến"},"message":"Duy Duy 7 man mà là 10tr à? o.O yên bn thế :v","can_remove":false,"created_time":"2014-03-28T14:08:03+0000","like_count":0,"user_likes":false},"841076239242388":{"id":"841076239242388","from":{"id":"100004982014580","name":"Kun Kun"},"message":"y kua pan y la o?vn cai may do khong 10tr nhung ben nhat la 7man","can_remove":false,"created_time":"2014-03-28T14:08:37+0000","like_count":2,"user_likes":false},"841076522575693":{"id":"841076522575693","from":{"id":"100004278729628","name":"Fởn Đầu Fox"},"message":"ý của duy duy là nếu mua ơ ciệt nam thì là 10 tr ạ","can_remove":false,"created_time":"2014-03-28T14:09:13+0000","like_count":0,"user_likes":false},"841076612575684":{"id":"841076612575684","from":{"id":"100002316048035","name":"Đỗ Mạnh Tiến"},"message":"à.tưởg bảo tíh ra giá ở vn là 10tr","can_remove":false,"created_time":"2014-03-28T14:09:24+0000","like_count":0,"user_likes":false},"841076622575683":{"id":"841076622575683","from":{"id":"100000270744242","name":"Rock Trong Tôi"},"message":"mạng bạn lắp phải  có option wifi thì mới phát đucợ","can_remove":false,"created_time":"2014-03-28T14:09:26+0000","like_count":0,"user_likes":false},"841076632575682":{"id":"841076632575682","from":{"id":"100002710818496","name":"Duy Duy"},"message":"Đỗ Mạnh Tiến to mua ben nay thoi,chu hoi o VN khoang 10 tr","message_tags":[{"id":"100002316048035","name":"Đỗ Mạnh Tiến","type":"user","offset":0,"length":12}],"can_remove":false,"created_time":"2014-03-28T14:09:29+0000","like_count":1,"user_likes":false},"841076782575667":{"id":"841076782575667","from":{"id":"100002710818496","name":"Duy Duy"},"message":"option la cai gi vay ban","can_remove":false,"created_time":"2014-03-28T14:09:53+0000","like_count":0,"user_likes":false},"841076869242325":{"id":"841076869242325","from":{"id":"100002316048035","name":"Đỗ Mạnh Tiến"},"message":"Duy Duy hãg nào đời j thế?","can_remove":false,"created_time":"2014-03-28T14:10:10+0000","like_count":0,"user_likes":false},"841076952575650":{"id":"841076952575650","from":{"id":"100004982014580","name":"Kun Kun"},"message":"ban noi minh chang hieu j ka?noi chung la mua may tinh ben vn dc ko?","can_remove":false,"created_time":"2014-03-28T14:10:18+0000","like_count":0,"user_likes":false},"841077445908934":{"id":"841077445908934","from":{"id":"100002710818496","name":"Duy Duy"},"message":"lenovo b590 core i5 win7 4G","can_remove":false,"created_time":"2014-03-28T14:11:19+0000","like_count":1,"user_likes":false},"841077449242267":{"id":"841077449242267","from":{"id":"100000270744242","name":"Rock Trong Tôi"},"message":"kiểu như là mình lắp mạng thì trong đó chỉ dùng intenet thôi hay là thêm wifi hay tivi hay gì đó đính kèm nữa ko","can_remove":false,"created_time":"2014-03-28T14:11:19+0000","like_count":0,"user_likes":false},"841077479242264":{"id":"841077479242264","from":{"id":"100002316048035","name":"Đỗ Mạnh Tiến"},"message":"Kun Kun mag máy từ vn sag dùg đc.chỉ cần mua giác đổi chân cắm thôi.nhưg mag lz.chở củi về rừg đấy.máy bên nhật vừa rẻ vừa đẹp k thík thì thôi","can_remove":false,"created_time":"2014-03-28T14:11:21+0000","like_count":2,"user_likes":false},"841077915908887":{"id":"841077915908887","from":{"id":"100004278729628","name":"Fởn Đầu Fox"},"message":"ớ. thế còn điện thoại thì khi nào được đăng kí ạ?","can_remove":false,"created_time":"2014-03-28T14:12:23+0000","like_count":1,"user_likes":false},"841077959242216":{"id":"841077959242216","from":{"id":"100000270744242","name":"Rock Trong Tôi"},"message":"chuẩn. mua cái 最後 ý","can_remove":false,"created_time":"2014-03-28T14:12:29+0000","like_count":1,"user_likes":false},"841078075908871":{"id":"841078075908871","from":{"id":"100000270744242","name":"Rock Trong Tôi"},"message":"nó giảm giá đến 40% mất","can_remove":false,"created_time":"2014-03-28T14:12:45+0000","like_count":0,"user_likes":false},"841078112575534":{"id":"841078112575534","from":{"id":"100000270744242","name":"Rock Trong Tôi"},"message":"có khi 50%","can_remove":false,"created_time":"2014-03-28T14:12:50+0000","like_count":0,"user_likes":false},"841078172575528":{"id":"841078172575528","from":{"id":"100000270744242","name":"Rock Trong Tôi"},"message":"mà máy xịn","can_remove":false,"created_time":"2014-03-28T14:12:56+0000","like_count":0,"user_likes":false},"841078192575526":{"id":"841078192575526","from":{"id":"100004982014580","name":"Kun Kun"},"message":"ua?the ha?nhung dat lam..t moi sang lzj co tjen ma mua nen faj mang may tu nha dj","can_remove":false,"created_time":"2014-03-28T14:12:58+0000","like_count":0,"user_likes":false},"841078889242123":{"id":"841078889242123","from":{"id":"100002316048035","name":"Đỗ Mạnh Tiến"},"message":"Kun Kun sag đkí đt mà dùg skype.r sau mua máy tíh cx đc","can_remove":false,"created_time":"2014-03-28T14:14:09+0000","like_count":0,"user_likes":false},"841079009242111":{"id":"841079009242111","from":{"id":"100000270744242","name":"Rock Trong Tôi"},"message":"có thì mang đi. dại gì mua máy mới. ko thì để ở nhà cho bố mẹ dùng. gọi skyper cho tiện","can_remove":false,"created_time":"2014-03-28T14:14:18+0000","like_count":0,"user_likes":false},"841079195908759":{"id":"841079195908759","from":{"id":"100002316048035","name":"Đỗ Mạnh Tiến"},"message":"Fởn Đầu Fox thấy nhiều ng bảo đủ 18 tuổi là đkí đt đc","can_remove":false,"created_time":"2014-03-28T14:14:36+0000","like_count":0,"user_likes":false},"841079659242046":{"id":"841079659242046","from":{"id":"100004982014580","name":"Kun Kun"},"message":"nhung bo me t cu thjck goi nc truc tiep qua wc..o?nha co 2 may nen t mang 1 may dj..neu dung dt thj co nc truc tiep dc ko?","can_remove":false,"created_time":"2014-03-28T14:15:26+0000","like_count":0,"user_likes":false},"841080012575344":{"id":"841080012575344","from":{"id":"100000270744242","name":"Rock Trong Tôi"},"message":"đăng kí đổi đẻ hôm nào nó dán biển ko đổi điện thoại cho ngươi việt nam ở kanagawa ý","can_remove":false,"created_time":"2014-03-28T14:16:09+0000","like_count":0,"user_likes":false},"841080095908669":{"id":"841080095908669","from":{"id":"100004278729628","name":"Fởn Đầu Fox"},"message":"tại em thấy có mấy anh chị bảo sang đấy 1 thời gian mới được đăng kí hay sao ak?","can_remove":false,"created_time":"2014-03-28T14:16:14+0000","like_count":0,"user_likes":false},"841080119242000":{"id":"841080119242000","from":{"id":"100002316048035","name":"Đỗ Mạnh Tiến"},"message":"Kun Kun đt có camera trước.cài skype dùg đc hết.yên tâm ở nhà nhìn đc lôg mũi luôn","can_remove":false,"created_time":"2014-03-28T14:16:16+0000","like_count":2,"user_likes":false},"841080515908627":{"id":"841080515908627","from":{"id":"100000270744242","name":"Rock Trong Tôi"},"message":"hi hi","can_remove":false,"created_time":"2014-03-28T14:16:20+0000","like_count":1,"user_likes":false},"841081329241879":{"id":"841081329241879","from":{"id":"100004982014580","name":"Kun Kun"},"message":"kaka..the co ak?long mui t ngan lam ko dai nhu kau dc..the t dung dt cho tien.vay","can_remove":false,"created_time":"2014-03-28T14:17:37+0000","like_count":1,"user_likes":false},"841081449241867":{"id":"841081449241867","from":{"id":"100002316048035","name":"Đỗ Mạnh Tiến"},"message":"Fởn Đầu Fox chắc lúc đấy chưa đủ 18t hoặc chưa làm đủ giấy tờ để đkí đt đc","can_remove":false,"created_time":"2014-03-28T14:17:44+0000","like_count":0,"user_likes":false},"841081762575169":{"id":"841081762575169","from":{"id":"100004278729628","name":"Fởn Đầu Fox"},"message":"he. vâng ak.","can_remove":false,"created_time":"2014-03-28T14:18:19+0000","like_count":0,"user_likes":false},"841082052575140":{"id":"841082052575140","from":{"id":"100004982014580","name":"Kun Kun"},"message":"hix..t  chuan bi di ma lo lam..chang biet co on?dinh dc ko","can_remove":false,"created_time":"2014-03-28T14:18:50+0000","like_count":0,"user_likes":false},"841082679241744":{"id":"841082679241744","from":{"id":"100000270744242","name":"Rock Trong Tôi"},"message":"ô bạn ở thuận thành ah","can_remove":false,"created_time":"2014-03-28T14:20:27+0000","like_count":0,"user_likes":false},"841082852575060":{"id":"841082852575060","from":{"id":"100004982014580","name":"Kun Kun"},"message":"ua?sao biet vay?","can_remove":false,"created_time":"2014-03-28T14:20:49+0000","like_count":0,"user_likes":false},"841082902575055":{"id":"841082902575055","from":{"id":"100004278729628","name":"Fởn Đầu Fox"},"message":"chỉ sợ khó kiếm việc làm thêm :(","can_remove":false,"created_time":"2014-03-28T14:20:55+0000","like_count":0,"user_likes":false},"841083059241706":{"id":"841083059241706","from":{"id":"100000270744242","name":"Rock Trong Tôi"},"message":"vừa vào xem timeline mới biết","can_remove":false,"created_time":"2014-03-28T14:21:12+0000","like_count":0,"user_likes":false},"841083235908355":{"id":"841083235908355","from":{"id":"100004982014580","name":"Kun Kun"},"message":"hi..thi sao?kau kung o thuan thanh ak?","can_remove":false,"created_time":"2014-03-28T14:21:39+0000","like_count":0,"user_likes":false},"841083439241668":{"id":"841083439241668","from":{"id":"100004982014580","name":"Kun Kun"},"message":"uk..t cung so nhat' ko co viec..ma co viec rui thi so.om' hix","can_remove":false,"created_time":"2014-03-28T14:22:01+0000","like_count":1,"user_likes":false},"841085189241493":{"id":"841085189241493","from":{"id":"100002316048035","name":"Đỗ Mạnh Tiến"},"message":"mn đi vùg nào thế?","can_remove":false,"created_time":"2014-03-28T14:24:07+0000","like_count":1,"user_likes":false},"841085865908092":{"id":"841085865908092","from":{"id":"100004278729628","name":"Fởn Đầu Fox"},"message":"Niigata ạ","can_remove":false,"created_time":"2014-03-28T14:25:27+0000","like_count":1,"user_likes":false},"841086312574714":{"id":"841086312574714","from":{"id":"100004982014580","name":"Kun Kun"},"message":"ma nez..sang do t dung skype nhung bo me t la 1280 thi lsao goi dc...hix..goi qua nick chat dc ko?","can_remove":false,"created_time":"2014-03-28T14:26:24+0000","like_count":0,"user_likes":false},"841087029241309":{"id":"841087029241309","from":{"id":"100002316048035","name":"Đỗ Mạnh Tiến"},"message":"Kun Kun cài skype trên laptop mà dùg.1280 chỉ bắt đc wifi nhưg k dùg đc thôi :)))))))))","can_remove":false,"created_time":"2014-03-28T14:27:20+0000","like_count":0,"user_likes":false},"841087935907885":{"id":"841087935907885","from":{"id":"100004982014580","name":"Kun Kun"},"message":"sax..kau cu treu..neu t sang do dung dt ma bo me dung lastop thi co goi dc ko","can_remove":false,"created_time":"2014-03-28T14:29:05+0000","like_count":1,"user_likes":false},"841088985907780":{"id":"841088985907780","from":{"id":"100002316048035","name":"Đỗ Mạnh Tiến"},"message":"đc.cứ cài skype vào lap cho ôg bà bô.lập thêm cái nik khác cho mìh.kết bạn vs nhau.lần sau mở máy là đăg nhập tự độg.nhà mìh cx toàn thế","can_remove":false,"created_time":"2014-03-28T14:30:31+0000","like_count":0,"user_likes":false},"841089545907724":{"id":"841089545907724","from":{"id":"100004982014580","name":"Kun Kun"},"message":"ak the ha?the thi ok rui..minh chang pit j ka?hix..thanks ku nhieu","can_remove":false,"created_time":"2014-03-28T14:31:29+0000","like_count":1,"user_likes":false},"841089882574357":{"id":"841089882574357","from":{"id":"100002316048035","name":"Đỗ Mạnh Tiến"},"message":"o.O ku?","can_remove":false,"created_time":"2014-03-28T14:32:08+0000","like_count":0,"user_likes":false},"841090405907638":{"id":"841090405907638","from":{"id":"100004982014580","name":"Kun Kun"},"message":"o' the la pe' ak?","can_remove":false,"created_time":"2014-03-28T14:33:26+0000","like_count":0,"user_likes":false},"841091195907559":{"id":"841091195907559","from":{"id":"100002316048035","name":"Đỗ Mạnh Tiến"},"message":":))))))) k có j?kb' nó là thanks kiu hay là thanks ku :v","can_remove":false,"created_time":"2014-03-28T14:34:56+0000","like_count":0,"user_likes":false},"841091215907557":{"id":"841091215907557","from":{"id":"100004278729628","name":"Fởn Đầu Fox"},"message":"=))","can_remove":false,"created_time":"2014-03-28T14:34:59+0000","like_count":0,"user_likes":false},"841091562574189":{"id":"841091562574189","from":{"id":"100004982014580","name":"Kun Kun"},"message":"kaka..kau la boy mak..","can_remove":false,"created_time":"2014-03-28T14:35:44+0000","like_count":0,"user_likes":false},"841091752574170":{"id":"841091752574170","from":{"id":"100002316048035","name":"Đỗ Mạnh Tiến"},"message":"nhưg viết k dấu k hiểu? :)))))","can_remove":false,"created_time":"2014-03-28T14:36:09+0000","like_count":0,"user_likes":false},"841092192574126":{"id":"841092192574126","from":{"id":"100002316048035","name":"Đỗ Mạnh Tiến"},"message":"mà k ai đi nagoya nhỉ :v","can_remove":false,"created_time":"2014-03-28T14:37:19+0000","like_count":1,"user_likes":false},"841092235907455":{"id":"841092235907455","from":{"id":"100004278729628","name":"Fởn Đầu Fox"},"message":"Kunkun. c đi tỉnh nào thế","can_remove":false,"created_time":"2014-03-28T14:37:27+0000","like_count":0,"user_likes":false},"841092382574107":{"id":"841092382574107","from":{"id":"100004982014580","name":"Kun Kun"},"message":"t di tinh?shizoka..kau biet ko","can_remove":false,"created_time":"2014-03-28T14:37:47+0000","like_count":1,"user_likes":false},"841093095907369":{"id":"841093095907369","from":{"id":"100004278729628","name":"Fởn Đầu Fox"},"message":"đỗ mạnh tiến. em chỉ transit ở Nagoya thôi ak","can_remove":false,"created_time":"2014-03-28T14:38:57+0000","like_count":0,"user_likes":false},"841093249240687":{"id":"841093249240687","from":{"id":"100004278729628","name":"Fởn Đầu Fox"},"message":"shizoka... :(. không biết roài","can_remove":false,"created_time":"2014-03-28T14:39:31+0000","like_count":0,"user_likes":false},"841093715907307":{"id":"841093715907307","from":{"id":"100004982014580","name":"Kun Kun"},"message":"tinh?co nui phu' sy y..ko biet ak?chan nhi? chang ai di o day nhi","can_remove":false,"created_time":"2014-03-28T14:40:24+0000","like_count":0,"user_likes":false},"841093915907287":{"id":"841093915907287","from":{"id":"100002316048035","name":"Đỗ Mạnh Tiến"},"message":"transit la j hả Fởn Đầu Fox sizuoka nằm giữa nagoya vs tokyo.gần núi fuji","can_remove":false,"created_time":"2014-03-28T14:40:58+0000","like_count":2,"user_likes":false},"841094149240597":{"id":"841094149240597","from":{"id":"100004278729628","name":"Fởn Đầu Fox"},"message":"ố. vậy hả. =)).","can_remove":false,"created_time":"2014-03-28T14:41:32+0000","like_count":0,"user_likes":false},"841094495907229":{"id":"841094495907229","from":{"id":"100004982014580","name":"Kun Kun"},"message":"chuan?day..the tien' co gan cho t ko?","can_remove":false,"created_time":"2014-03-28T14:42:11+0000","like_count":0,"user_likes":false},"841094925907186":{"id":"841094925907186","from":{"id":"100002316048035","name":"Đỗ Mạnh Tiến"},"message":"Kun Kunkb'.đã sag đâu mà b' xa gần :))))))","can_remove":false,"created_time":"2014-03-28T14:43:10+0000","like_count":0,"user_likes":false},"841094955907183":{"id":"841094955907183","from":{"id":"100004278729628","name":"Fởn Đầu Fox"},"message":"là em đi máy bay đi niigata nhưng phải dừng ở nagoya 12 tiếng rồi mới bay đến niigata tiếp được ak. vì niigata không có sân bay quốc tế","can_remove":false,"created_time":"2014-03-28T14:43:12+0000","like_count":1,"user_likes":false},"841095565907122":{"id":"841095565907122","from":{"id":"100004982014580","name":"Kun Kun"},"message":"ua?the ma da biet..gioi that","can_remove":false,"created_time":"2014-03-28T14:44:41+0000","like_count":0,"user_likes":false},"841096845906994":{"id":"841096845906994","from":{"id":"100002316048035","name":"Đỗ Mạnh Tiến"},"message":"tìm hiểu từ trước r :v","can_remove":false,"created_time":"2014-03-28T14:46:20+0000","like_count":0,"user_likes":false},"841098069240205":{"id":"841098069240205","from":{"id":"100004982014580","name":"Kun Kun"},"message":"t di nhung chang de?y..hjhj..the kau pjo di","can_remove":false,"created_time":"2014-03-28T14:47:59+0000","like_count":0,"user_likes":false},"841098652573480":{"id":"841098652573480","from":{"id":"100002316048035","name":"Đỗ Mạnh Tiến"},"message":"m2 :v","can_remove":false,"created_time":"2014-03-28T14:48:56+0000","like_count":0,"user_likes":false},"841098909240121":{"id":"841098909240121","from":{"id":"100004982014580","name":"Kun Kun"},"message":"t thi m7..co ve?thang 4 di rat nhieu","can_remove":false,"created_time":"2014-03-28T14:49:35+0000","like_count":1,"user_likes":false},"841098969240115":{"id":"841098969240115","from":{"id":"100004278729628","name":"Fởn Đầu Fox"},"message":":). à mà cám ơn mọi người nhiều nhiều ak","can_remove":false,"created_time":"2014-03-28T14:49:53+0000","like_count":0,"user_likes":false},"841099125906766":{"id":"841099125906766","from":{"id":"100004982014580","name":"Kun Kun"},"message":"ko co j?( minh co giup dc j dau nhi) kaka","can_remove":false,"created_time":"2014-03-28T14:50:22+0000","like_count":0,"user_likes":false},"841099552573390":{"id":"841099552573390","from":{"id":"100004278729628","name":"Fởn Đầu Fox"},"message":"mấy cái cậu thắc mắc t cũng đang định hỏi mừ","can_remove":false,"created_time":"2014-03-28T14:51:19+0000","like_count":1,"user_likes":false},"841099742573371":{"id":"841099742573371","from":{"id":"100004982014580","name":"Kun Kun"},"message":"hihi..the ak? kau sap dj rui chu?/","can_remove":false,"created_time":"2014-03-28T14:51:59+0000","like_count":0,"user_likes":false},"841099845906694":{"id":"841099845906694","from":{"id":"100004278729628","name":"Fởn Đầu Fox"},"message":"kun kun t cung đi tháng 4 =). ngày 15","can_remove":false,"created_time":"2014-03-28T14:52:14+0000","like_count":0,"user_likes":false},"841100325906646":{"id":"841100325906646","from":{"id":"100004278729628","name":"Fởn Đầu Fox"},"message":"vì tháng 4 là tháng nhập học của nhiều truong ben day ma","can_remove":false,"created_time":"2014-03-28T14:52:51+0000","like_count":0,"user_likes":false},"841101039239908":{"id":"841101039239908","from":{"id":"100004982014580","name":"Kun Kun"},"message":"troi..ca nuoc vn sang nhat rui hehe","can_remove":false,"created_time":"2014-03-28T14:54:14+0000","like_count":1,"user_likes":false},"841103089239703":{"id":"841103089239703","from":{"id":"100003849617303","name":"Sinh Nguyen"},"message":"Hải mua máy ở VN rồi mang sang đấy..t chắc sang đấy tiết kiệm rồi mua..:3","can_remove":false,"created_time":"2014-03-28T14:58:54+0000","like_count":1,"user_likes":false},"841103625906316":{"id":"841103625906316","from":{"id":"100004278729628","name":"Fởn Đầu Fox"},"message":"t cũng thế. máy hiện tại để lại cho em dùng","can_remove":false,"created_time":"2014-03-28T15:00:04+0000","like_count":0,"user_likes":false},"841104389239573":{"id":"841104389239573","from":{"id":"100003934051737","name":"Thanh Sói"},"message":"bao nhiêu người sang t4 mà sao chả thấy ai đi tobuco nhỉ :( toàn trường khác","can_remove":false,"created_time":"2014-03-28T15:01:32+0000","like_count":1,"user_likes":false},"841106315906047":{"id":"841106315906047","from":{"id":"100000469475474","name":"Hùng Nguyễn Duy"},"message":"Mang từ vn sang dùng cho thik","can_remove":false,"created_time":"2014-03-28T15:04:20+0000","like_count":0,"user_likes":false},"841309962552349":{"id":"841309962552349","from":{"id":"100003574946076","name":"Minhh Hảii"},"message":"C mua ở Việt Nam! Lun ý. Sang đây cũng phải 1 tg sau ms dùng đc vì ms có mạng. Mà t thấy có khi mua máy tính bảng hay hơn vì mang đi mang lại bắt wifi dễ dàng. Như cái lap của t, từ hôm sang chưa có mạng nên tìan vứt 1 chỗ. Muốnang đi dò wifi cũng k tiện vì k cầm trên tay như mtb đc","can_remove":false,"created_time":"2014-03-28T22:39:06+0000","like_count":1,"user_likes":false},"841311062552239":{"id":"841311062552239","from":{"id":"100004278729628","name":"Fởn Đầu Fox"},"message":"ohm he. vậy hả. có khi mua cái may tính bảng thật. mà c đăng kí điẹn thoại chưa?","can_remove":false,"created_time":"2014-03-28T22:42:14+0000","like_count":0,"user_likes":false},"841311442552201":{"id":"841311442552201","from":{"id":"100003574946076","name":"Minhh Hảii"},"message":"T chưa, vì vẫn chưa đku đc dịa chỉ T..T sốt hết cả ruột. K có mạng nên chả ll đc j. Như miền núi ấy","can_remove":false,"created_time":"2014-03-28T22:43:35+0000","like_count":1,"user_likes":false},"841313142552031":{"id":"841313142552031","from":{"id":"100004278729628","name":"Fởn Đầu Fox"},"message":":). ớ. mà c đi làm về roài ah. mệt lắm không","can_remove":false,"created_time":"2014-03-28T22:48:27+0000","like_count":0,"user_likes":false},"841313359218676":{"id":"841313359218676","from":{"id":"100004278729628","name":"Fởn Đầu Fox"},"message":"t đang ở miền núi. đây:3","can_remove":false,"created_time":"2014-03-28T22:49:06+0000","like_count":0,"user_likes":false},"841461672537178":{"id":"841461672537178","from":{"id":"100002944559105","name":"Domenico Dolce"},"message":"@thanh soi: bạn di tobuco o gifu ah","can_remove":false,"created_time":"2014-03-29T04:54:00+0000","like_count":0,"user_likes":false},"841562755860403":{"id":"841562755860403","from":{"id":"100003574946076","name":"Minhh Hảii"},"message":"Mệt bở hơi tai ý. :D sáng toàn ohair dậy sớm, thèm ngủ kinh khủng","can_remove":false,"created_time":"2014-03-29T10:38:09+0000","like_count":3,"user_likes":false}},"paging":{"cursors":{"after":"ODQxMDY5ODI1OTA5Njk2","before":"ODQxMDY5ODI1OTA5Njk2"},"next":"https://graph.facebook.com/229244010425617_841068945909784/comments?limit=1&summary=1&after=ODQxMDY5ODI1OTA5Njk2"},"summary":{"order":"chronological","total_count":110}}}