{"id":"229244010425617_841033335913345","type":"status","from":{"id":"100006396790426","name":"Nguyễn Thành Mạnh"},"message":"ai dich ho em cau nay voi tks:\n面積はどのくらいですか？","created_time":"2014-03-28T12:35:53+0000","updated_time":"2014-03-29T06:59:32+0000","likes":{"data":{"100007067256170":{"id":"100007067256170","name":"Phan Te"},"100004061887638":{"id":"100004061887638","name":"Ai MặcNoọng Lái Lai"},"100004102151652":{"id":"100004102151652","name":"Duc Nguyen"},"100006470003754":{"id":"100006470003754","name":"Tuấn Kún"}},"paging":{"cursors":{"after":"MTAwMDA3MDY3MjU2MTcw","before":"MTAwMDA3MDY3MjU2MTcw"},"next":"https://graph.facebook.com/229244010425617_841033335913345/likes?limit=1&summary=1&after=MTAwMDA3MDY3MjU2MTcw"},"summary":{"total_count":4}},"comments":{"data":{"841033769246635":{"id":"841033769246635","from":{"id":"100001458099624","name":"Kham Pha"},"message":"bạn viết tiếng Việt có dấu được không?","can_remove":false,"created_time":"2014-03-28T12:37:03+0000","like_count":0,"user_likes":false},"841034402579905":{"id":"841034402579905","from":{"id":"100002884556712","name":"Le Phan"},"message":"Diện tích là bnhiu???","can_remove":false,"created_time":"2014-03-28T12:39:04+0000","like_count":0,"user_likes":false},"841034579246554":{"id":"841034579246554","from":{"id":"100003747841579","name":"Amai Sweet"},"message":"Diện tích tầm bao nhiêu( m2 chẳng hạn)","can_remove":false,"created_time":"2014-03-28T12:39:31+0000","like_count":0,"user_likes":false},"841035015913177":{"id":"841035015913177","from":{"id":"100006396790426","name":"Nguyễn Thành Mạnh"},"message":"Em cam on","can_remove":false,"created_time":"2014-03-28T12:40:49+0000","like_count":0,"user_likes":false},"841035042579841":{"id":"841035042579841","from":{"id":"100004784233958","name":"NO Bita"},"message":"Khu vực khoảng bnhiu","can_remove":false,"created_time":"2014-03-28T12:40:55+0000","like_count":0,"user_likes":false},"841035975913081":{"id":"841035975913081","from":{"id":"100006396790426","name":"Nguyễn Thành Mạnh"},"message":"~と同じくらい   la gi vay a.","can_remove":false,"created_time":"2014-03-28T12:43:31+0000","like_count":0,"user_likes":false},"841036762579669":{"id":"841036762579669","from":{"id":"100002981870632","name":"Kenly Nhân"},"message":"giống màu tối.à .:D","can_remove":false,"created_time":"2014-03-28T12:45:16+0000","like_count":0,"user_likes":false},"841037212579624":{"id":"841037212579624","from":{"id":"100006396790426","name":"Nguyễn Thành Mạnh"},"message":"ca cau do la: 面積は～kｍ２で、～とおなじくらいです。","can_remove":false,"created_time":"2014-03-28T12:46:51+0000","like_count":0,"user_likes":false},"841038145912864":{"id":"841038145912864","from":{"id":"100006396790426","name":"Nguyễn Thành Mạnh"},"message":"nhưng còn phần sau là gì vậy a.","can_remove":false,"created_time":"2014-03-28T12:49:38+0000","like_count":0,"user_likes":false},"841038385912840":{"id":"841038385912840","from":{"id":"100003263068205","name":"Viết Quân"},"message":"diện tích khoảng bao nhiêu =))","can_remove":false,"created_time":"2014-03-28T12:50:23+0000","like_count":0,"user_likes":false},"841038539246158":{"id":"841038539246158","from":{"id":"100000455388210","name":"Đức Trung Nguyễn"},"message":"Phần sau là bằng khoảng ~","can_remove":false,"created_time":"2014-03-28T12:50:53+0000","like_count":0,"user_likes":false},"841038899246122":{"id":"841038899246122","from":{"id":"100006396790426","name":"Nguyễn Thành Mạnh"},"message":"phan sau la ví dụ dùng để so sánh diện tích với nơi khác ạ","can_remove":false,"created_time":"2014-03-28T12:51:43+0000","like_count":0,"user_likes":false},"841039085912770":{"id":"841039085912770","from":{"id":"100006396790426","name":"Nguyễn Thành Mạnh"},"message":"em cảm ơn. em đang làm bài poster nên làm phiền mọi người một chút","can_remove":false,"created_time":"2014-03-28T12:52:30+0000","like_count":0,"user_likes":false},"841041209245891":{"id":"841041209245891","from":{"id":"100002983929107","name":"Trần Nam"},"message":"Diện tích khoảng bao nhiêu??","can_remove":false,"created_time":"2014-03-28T12:58:09+0000","like_count":0,"user_likes":false},"841043715912307":{"id":"841043715912307","from":{"id":"100006396790426","name":"Nguyễn Thành Mạnh"},"message":"産業や有名なもの　có phải là những ngành công nghiệp nổi tiếng không ạ.","can_remove":false,"created_time":"2014-03-28T13:04:21+0000","like_count":0,"user_likes":false},"841044209245591":{"id":"841044209245591","from":{"id":"100003941230878","name":"Tran Ngoc"},"message":"めんせきはどのぐらいですか。diện tích la bao nhieu?","can_remove":false,"created_time":"2014-03-28T13:05:25+0000","like_count":1,"user_likes":false},"841045729245439":{"id":"841045729245439","from":{"id":"100003941230878","name":"Tran Ngoc"},"message":"Dung roi","can_remove":false,"created_time":"2014-03-28T13:08:56+0000","like_count":1,"user_likes":false},"841046915911987":{"id":"841046915911987","from":{"id":"100006396790426","name":"Nguyễn Thành Mạnh"},"message":"cảm ơn.","can_remove":false,"created_time":"2014-03-28T13:10:26+0000","like_count":1,"user_likes":false},"841051462578199":{"id":"841051462578199","from":{"id":"100002611874779","name":"Trung Nguyễn"},"message":"産業や有名なもの: ngành công nghiệp và những thứ nổi tiếng...","can_remove":false,"created_time":"2014-03-28T13:21:14+0000","like_count":1,"user_likes":false},"841052195911459":{"id":"841052195911459","from":{"id":"100000455388210","name":"Đức Trung Nguyễn"},"message":"Mono đây chỉ người thì sao ^^","can_remove":false,"created_time":"2014-03-28T13:22:53+0000","like_count":0,"user_likes":false},"841053832577962":{"id":"841053832577962","from":{"id":"100004991379931","name":"Con Yêu Bố Mẹ"},"message":"diện thích là bao nhiêu?","can_remove":false,"created_time":"2014-03-28T13:26:37+0000","like_count":1,"user_likes":false},"841061622577183":{"id":"841061622577183","from":{"id":"100001865968901","name":"Thuý Quyên"},"message":"Mình nghĩ câu thứ 2 đại ý là ngành công nghiệp chính và những thứ nổi tiếng thuộc về mảnh đất đó !","can_remove":false,"created_time":"2014-03-28T13:37:44+0000","like_count":1,"user_likes":false},"841489935867685":{"id":"841489935867685","from":{"id":"100003155401934","name":"Ha Mi Kim"},"message":"Diện tích là ... km2,gần bằng với....","can_remove":false,"created_time":"2014-03-29T06:50:02+0000","like_count":0,"user_likes":false},"841492752534070":{"id":"841492752534070","from":{"id":"100001416272263","name":"Mai PB"},"message":"Lần sau Kham Pha xóa luôn đi, để nó dài ra thế này khó xóa","message_tags":[{"id":"100001458099624","name":"Kham Pha","type":"user","offset":8,"length":8}],"can_remove":false,"created_time":"2014-03-29T06:59:32+0000","like_count":1,"user_likes":false}},"paging":{"cursors":{"after":"ODQxMDMzNzY5MjQ2NjM1","before":"ODQxMDMzNzY5MjQ2NjM1"},"next":"https://graph.facebook.com/229244010425617_841033335913345/comments?limit=1&summary=1&after=ODQxMDMzNzY5MjQ2NjM1"},"summary":{"order":"chronological","total_count":24}}}