{"id":"229244010425617_841128939237118","type":"status","from":{"id":"100001653564337","name":"Nhung Pham"},"message":"日本に来た時に、トイレはどこですかぐらいしか喋れなかった。dịch dùm vs mọi người","created_time":"2014-03-28T15:55:16+0000","updated_time":"2014-03-30T05:40:43+0000","likes":{"data":{"100003295702651":{"id":"100003295702651","name":"Ngọc RUki"},"100004915360462":{"id":"100004915360462","name":"Phamtuyen Pc"},"100000771473206":{"id":"100000771473206","name":"Norito Hiraoka"},"100003697837159":{"id":"100003697837159","name":"Bình Văn"},"100002099992571":{"id":"100002099992571","name":"Sim Vu"},"100003657473061":{"id":"100003657473061","name":"Vu Trung Kien"},"100004435213974":{"id":"100004435213974","name":"Mai Huu Sang"},"100006614261300":{"id":"100006614261300","name":"Tao Cao Cường Đây"}},"paging":{"cursors":{"after":"MTAwMDAzMjk1NzAyNjUx","before":"MTAwMDAzMjk1NzAyNjUx"},"next":"https://graph.facebook.com/229244010425617_841128939237118/likes?limit=1&summary=1&after=MTAwMDAzMjk1NzAyNjUx"},"summary":{"total_count":8}},"comments":{"data":{"841131032570242":{"id":"841131032570242","from":{"id":"100001416272263","name":"Mai PB"},"message":"日本に来た時に、\nトイレはどこですかぐらい\nしか喋（しゃべ）れなかった。\n\nChia ra thế này thì tự dịch được không?","can_remove":false,"created_time":"2014-03-28T16:01:05+0000","like_count":0,"user_likes":false},"841131235903555":{"id":"841131235903555","from":{"id":"100000270744242","name":"Rock Trong Tôi"},"message":"hình như là: vừa đến nhật bản chỉ nói chuyện như là nhà về sinh ở đâu nhỉ","can_remove":false,"created_time":"2014-03-28T16:01:48+0000","like_count":1,"user_likes":false},"841131625903516":{"id":"841131625903516","from":{"id":"100001653564337","name":"Nhung Pham"},"message":"Rock Trong Tôi tôi cũng dịch như bạn thế","message_tags":[{"id":"100000270744242","name":"Rock Trong Tôi","type":"user","offset":0,"length":14}],"can_remove":false,"created_time":"2014-03-28T16:02:53+0000","like_count":0,"user_likes":false},"841131662570179":{"id":"841131662570179","from":{"id":"100000270744242","name":"Rock Trong Tôi"},"message":"hì hì","can_remove":false,"created_time":"2014-03-28T16:03:04+0000","like_count":1,"user_likes":false},"841131675903511":{"id":"841131675903511","from":{"id":"100000270744242","name":"Rock Trong Tôi"},"message":"gà lắm","can_remove":false,"created_time":"2014-03-28T16:03:10+0000","like_count":1,"user_likes":false},"841131815903497":{"id":"841131815903497","from":{"id":"100003031372273","name":"Đào Thanh Tùng"},"message":"しか喋（しゃべ）れなかった: Câu này không biết hihi","can_remove":false,"created_time":"2014-03-28T16:03:39+0000","like_count":0,"user_likes":false},"841132115903467":{"id":"841132115903467","from":{"id":"100004435213974","name":"Mai Huu Sang"},"message":"Lúc mới qua nhật tôi chỉ có thể nói đc nhưng câu như nhà vs ở đâu thôi,","can_remove":false,"created_time":"2014-03-28T16:03:55+0000","like_count":3,"user_likes":false},"841133119236700":{"id":"841133119236700","from":{"id":"100001653564337","name":"Nhung Pham"},"message":"\" luc mới qua nhật có những khó khăn gì, và có đi lam thêm không\" nói sao mọi người","can_remove":false,"created_time":"2014-03-28T16:06:33+0000","like_count":0,"user_likes":false},"841138922569453":{"id":"841138922569453","from":{"id":"100003657473061","name":"Vu Trung Kien"},"message":"Đây đâu phải là nói vậy phải như thế này nè  日本へ来たときに  トイレは どこですかってぐらい喋れているだけ","can_remove":false,"created_time":"2014-03-28T16:17:03+0000","like_count":0,"user_likes":false},"841139079236104":{"id":"841139079236104","from":{"id":"100004798083725","name":"Cappu Ccino"},"message":"Khi đến Nhật thì ngoài việc hỏi nhà vệ sinh ở đâu thì tôi chẳng nói dc j","can_remove":false,"created_time":"2014-03-28T16:17:22+0000","like_count":4,"user_likes":false},"841146089235403":{"id":"841146089235403","from":{"id":"100002333971123","name":"Tran Cong"},"message":"google.","can_remove":false,"created_time":"2014-03-28T16:32:58+0000","like_count":0,"user_likes":false},"841201529229859":{"id":"841201529229859","from":{"id":"100003697837159","name":"Bình Văn"},"message":"khi tới nhật tôi chẳng biết nói ji ngoài việc hỏi nhà vệ sinh ở đâu","can_remove":false,"created_time":"2014-03-28T19:10:30+0000","like_count":1,"user_likes":false},"841510819198930":{"id":"841510819198930","from":{"id":"100002666381269","name":"Cường Việt Nam Đồng"},"message":"Khi tới nhật tôi chỉ có thể nói chuyện cỡ như : nhà vệ sinh ở đâu vậy","can_remove":false,"created_time":"2014-03-29T07:57:24+0000","like_count":0,"user_likes":false},"842067825809896":{"id":"842067825809896","from":{"id":"100004016574848","name":"Tùng Thật Thà"},"message":"Khi đến nhật tôi chỉ nói được những câu như \" nhà vệ sinh ở đâu?\" mà thôi.","can_remove":false,"created_time":"2014-03-30T05:40:43+0000","like_count":0,"user_likes":false}},"paging":{"cursors":{"after":"ODQxMTMxMDMyNTcwMjQy","before":"ODQxMTMxMDMyNTcwMjQy"},"next":"https://graph.facebook.com/229244010425617_841128939237118/comments?limit=1&summary=1&after=ODQxMTMxMDMyNTcwMjQy"},"summary":{"order":"chronological","total_count":14}}}