{"id":"229244010425617_841178549232157","type":"status","from":{"id":"100004380181780","name":"Be Boo"},"message":"おはようございます。！ mọi người có thể giải thích giúp e là tại sao trong tiếng nhật lúc thì viết hiragana lúc thì viết katakana ạ vd : いやな。イヤな。 và còn nhiều từ nữa ạ ! \nありがとございます。❗️","created_time":"2014-03-28T18:04:58+0000","updated_time":"2014-03-29T23:27:44+0000","likes":{"data":{"100007373948794":{"id":"100007373948794","name":"Sunny Nguyen"},"100004915360462":{"id":"100004915360462","name":"Phamtuyen Pc"},"100003103911540":{"id":"100003103911540","name":"Con Cua"},"100000628549116":{"id":"100000628549116","name":"Hoàng Chính"},"100000230751128":{"id":"100000230751128","name":"Lưu Xuân An"},"100002695613148":{"id":"100002695613148","name":"Tam Sinh Duyen"},"100006614261300":{"id":"100006614261300","name":"Tao Cao Cường Đây"},"100003670181290":{"id":"100003670181290","name":"Nguyễn Văn Hải"}},"paging":{"cursors":{"after":"MTAwMDA3MzczOTQ4Nzk0","before":"MTAwMDA3MzczOTQ4Nzk0"},"next":"https://graph.facebook.com/229244010425617_841178549232157/likes?limit=1&summary=1&after=MTAwMDA3MzczOTQ4Nzk0"},"summary":{"total_count":8}},"comments":{"data":{"841183719231640":{"id":"841183719231640","from":{"id":"100000500260636","name":"Lưu Nguyễn Thảo Tiên"},"message":"Chỉ có 1 số từ thôi bạn\nViết kata để cảm thán, nhấn mạnh. イヤ、ヤバイ\nHoặc cho dễ thương ドラえもん","can_remove":false,"created_time":"2014-03-28T18:20:37+0000","like_count":4,"user_likes":false},"841221322561213":{"id":"841221322561213","from":{"id":"100006614261300","name":"Tao Cao Cường Đây"},"message":"nó bắt fai thế nên minh fai thế :(","can_remove":false,"created_time":"2014-03-28T19:49:03+0000","like_count":0,"user_likes":false},"841265022556843":{"id":"841265022556843","from":{"id":"100003657473061","name":"Vu Trung Kien"},"message":"Thế cũng hỏi bó tay","can_remove":false,"created_time":"2014-03-28T20:47:33+0000","like_count":0,"user_likes":false},"841273029222709":{"id":"841273029222709","from":{"id":"100003205232355","name":"Nguyen Viet Tien"},"message":"Katakana de nhan manh tu muon noi, \nDung ca 2 cung dc k sao cả","can_remove":false,"created_time":"2014-03-28T21:09:42+0000","like_count":0,"user_likes":false},"841276759222336":{"id":"841276759222336","from":{"id":"100004380181780","name":"Be Boo"},"message":"Ko biết thì phải hỏi chứ hic Vu Vu Trung Kien","message_tags":[{"id":"100003657473061","name":"Vu Trung Kien","type":"user","offset":32,"length":13}],"can_remove":false,"created_time":"2014-03-28T21:20:14+0000","like_count":3,"user_likes":false},"841276879222324":{"id":"841276879222324","from":{"id":"100003657473061","name":"Vu Trung Kien"},"message":"Katakana và hiragana là 2 loại chữ. Khác nhau katakana là loaị chữ chuyên dành để viết tên nước ngoài và viết các địa danh hay còn dùng trong tên nữa còng hiragana chỉ dùng nhiều trong đoạn hội thoại và là loại chữ giản thể của chữ katakana thui nói chung dùng cái nào cũng đk trước kia chữ katakana có trước hiragana và dùng nhiều , h ng ta thích dùng loại chữ hiragana vì nó mềm mại","can_remove":false,"created_time":"2014-03-28T21:20:43+0000","like_count":0,"user_likes":false},"841277089222303":{"id":"841277089222303","from":{"id":"100003657473061","name":"Vu Trung Kien"},"message":"Đấy đó là mình biết có j đâu quá đơn giản","can_remove":false,"created_time":"2014-03-28T21:21:10+0000","like_count":0,"user_likes":false},"841278439222168":{"id":"841278439222168","from":{"id":"100007166645331","name":"Nguyễn Sỹ Tuân"},"message":"ý kiến của mọi người đưa ra đều đúng, mình thì nghĩ đơn giản hơn là 1 số từ hay dùng thường ngày sẽ viết bằng katakana để nhấn mạnh như kiểu viết HOA bên Tiếng Việt mình ý.","can_remove":false,"created_time":"2014-03-28T21:25:11+0000","like_count":3,"user_likes":false},"841285509221461":{"id":"841285509221461","from":{"id":"100004380181780","name":"Be Boo"},"message":"Tớ đồng ý với ý kiến của bạn tuân","can_remove":false,"created_time":"2014-03-28T21:44:27+0000","like_count":0,"user_likes":false},"841335509216461":{"id":"841335509216461","from":{"id":"100004465720039","name":"Phú Phương"},"message":"Thấy chữ kata .lại tưởng phiên âm tiến anh ,rồi ngồi mà đoán =))","can_remove":false,"created_time":"2014-03-28T23:52:52+0000","like_count":0,"user_likes":false},"841338682549477":{"id":"841338682549477","from":{"id":"100001695345798","name":"Tyn Aki"},"message":"dùng kata khi bạn muốn nhấn mạnh. kiểu dùng chữ khác nên muốn gây sự chú ý ^^","can_remove":false,"created_time":"2014-03-29T00:03:40+0000","like_count":0,"user_likes":false},"841351765881502":{"id":"841351765881502","from":{"id":"100004488912413","name":"Phungvan Tai"},"message":"The bay jo ma minh dang viet nhung quen mat tu hiragana vay minh viet thay bang katakana co dc ko","can_remove":false,"created_time":"2014-03-29T00:43:03+0000","like_count":0,"user_likes":false},"841353075881371":{"id":"841353075881371","from":{"id":"100006614261300","name":"Tao Cao Cường Đây"},"message":"ko. Nó có chuẩn quốc tế rồi bạn . chẳng lẽ bạn viết tiếng việt kiểu : viỆt NAm như thế có đc ko bạn.  minh vd thế","can_remove":false,"created_time":"2014-03-29T00:46:50+0000","like_count":0,"user_likes":false},"841367352546610":{"id":"841367352546610","from":{"id":"100002066899586","name":"Thảo Kendy"},"message":"Cũng như tiếng việt lúc thì viết thường lúc thì viết hoa đấy","can_remove":false,"created_time":"2014-03-29T01:10:52+0000","like_count":0,"user_likes":false},"841370235879655":{"id":"841370235879655","from":{"id":"100004321117254","name":"Neko Kawaii"},"message":"Khi 1 chữ hira viết bằng kata thì là người ta muốn nhấn mạnh bạn nhé","can_remove":false,"created_time":"2014-03-29T01:18:09+0000","like_count":0,"user_likes":false},"841405025876176":{"id":"841405025876176","from":{"id":"100000147414000","name":"Nguyễn Công Thắng"},"message":"họ thích thế ý mà -.- ông này hỏi bcuoi :3 :))))","can_remove":false,"created_time":"2014-03-29T02:31:34+0000","like_count":0,"user_likes":false},"841451365871542":{"id":"841451365871542","from":{"id":"100005569984314","name":"Sói SmiLe"},"message":"The ma kug hoi sensei k noi ak","can_remove":false,"created_time":"2014-03-29T04:19:42+0000","like_count":0,"user_likes":false},"841457795870899":{"id":"841457795870899","from":{"id":"100003733403933","name":"Thôi Đừng"},"message":"Hiragana là những từ thuần nhật, còn katakana là những từ mượn của nước ngoài, có 1 bảng riêng.","can_remove":false,"created_time":"2014-03-29T04:41:13+0000","like_count":0,"user_likes":false},"841458229204189":{"id":"841458229204189","from":{"id":"100004488912413","name":"Phungvan Tai"},"message":"Minh tu hoc dang tap viet may bang am tiet. Chua biet j het","can_remove":false,"created_time":"2014-03-29T04:43:21+0000","like_count":0,"user_likes":false},"841465985870080":{"id":"841465985870080","from":{"id":"100001535813596","name":"Đạt Acoustic"},"message":"Kanatana vừa là phiên âm tiếng anh vừa là viết hoa nữa","can_remove":false,"created_time":"2014-03-29T05:10:01+0000","like_count":0,"user_likes":false},"841894365827242":{"id":"841894365827242","from":{"id":"100008047423708","name":"のび た"},"message":"Vay minh viet toan bo bang chu hira duoc ko khi minh cung muon nhan manh dieu gi do ak.","can_remove":false,"created_time":"2014-03-29T22:44:22+0000","like_count":0,"user_likes":false},"841910569158955":{"id":"841910569158955","from":{"id":"100000500260636","name":"Lưu Nguyễn Thảo Tiên"},"message":"Bạn viết có dấu giúp được không khó hiểu quá!","can_remove":false,"created_time":"2014-03-29T23:27:44+0000","like_count":0,"user_likes":false}},"paging":{"cursors":{"after":"ODQxMTgzNzE5MjMxNjQw","before":"ODQxMTgzNzE5MjMxNjQw"},"next":"https://graph.facebook.com/229244010425617_841178549232157/comments?limit=1&summary=1&after=ODQxMTgzNzE5MjMxNjQw"},"summary":{"order":"chronological","total_count":22}}}