{"id":"229244010425617_841109945905684","type":"status","from":{"id":"100003381475331","name":"Hoàng Hương"},"message":"cho em hỏi một chút em chuẩn bị vali sang nhật bao gồm 2 vali nhỏ, 1 balo thì e có thể mang thêm 1 cái túi xách nhỏ đựng giấy tờ ở ngoài đc ko ạ","created_time":"2014-03-28T15:13:38+0000","updated_time":"2014-03-29T12:59:01+0000","likes":{"data":{"1018045827":{"id":"1018045827","name":"Trang Nguyen"},"100005127511607":{"id":"100005127511607","name":"Cobe Kaun"},"100004525472322":{"id":"100004525472322","name":"Mê Dongchul"},"100004367252213":{"id":"100004367252213","name":"Nguyễn Tô Lịch"}},"paging":{"cursors":{"after":"MTAxODA0NTgyNw==","before":"MTAxODA0NTgyNw=="},"next":"https://graph.facebook.com/229244010425617_841109945905684/likes?limit=1&summary=1&after=MTAxODA0NTgyNw%3D%3D"},"summary":{"total_count":4}},"comments":{"data":{"841110482572297":{"id":"841110482572297","from":{"id":"100003531155018","name":"Trang Kjm Kul"},"message":"Được ạ.chỉ cần dưới mức cân quy định nhớ","can_remove":false,"created_time":"2014-03-28T15:14:58+0000","like_count":0,"user_likes":false},"841110659238946":{"id":"841110659238946","from":{"id":"100003381475331","name":"Hoàng Hương"},"message":"nghia là tất cả vần là 40 kg kí gửi và 7kg xách tay ạ","can_remove":false,"created_time":"2014-03-28T15:15:36+0000","like_count":0,"user_likes":false},"841111509238861":{"id":"841111509238861","from":{"id":"100003531155018","name":"Trang Kjm Kul"},"message":"Tầm đó.mà","can_remove":false,"created_time":"2014-03-28T15:17:56+0000","like_count":0,"user_likes":false},"841111532572192":{"id":"841111532572192","from":{"id":"100000450623476","name":"Chien Bui Xuan"},"message":"xách tay thì cứ nhiều vào e ơi. ko ai kiểm tra cân hàng xách tay đâu. nhìn gọn là dc","can_remove":false,"created_time":"2014-03-28T15:18:04+0000","like_count":0,"user_likes":false},"841112112572134":{"id":"841112112572134","from":{"id":"100003381475331","name":"Hoàng Hương"},"message":"dạ vâng a. có 1 cái ba lô thôi, nhưng nhiều chắc gãy lưng quá TT","can_remove":false,"created_time":"2014-03-28T15:19:09+0000","like_count":0,"user_likes":false},"841112492572096":{"id":"841112492572096","from":{"id":"100000450623476","name":"Chien Bui Xuan"},"message":"ngày xưa a đi xách dc 14kg cơ mà. e cho vào quang gánh theo cũng dc :D","can_remove":false,"created_time":"2014-03-28T15:20:05+0000","like_count":3,"user_likes":false},"841112735905405":{"id":"841112735905405","from":{"id":"100004137965337","name":"Kim Uyên"},"message":"1 cái ba lô 1 cái xách tay ok","can_remove":false,"created_time":"2014-03-28T15:20:23+0000","like_count":0,"user_likes":false},"841112929238719":{"id":"841112929238719","from":{"id":"100004137965337","name":"Kim Uyên"},"message":"Lần trc ba lô của mình hơn chục kg vẫn ok","can_remove":false,"created_time":"2014-03-28T15:20:49+0000","like_count":1,"user_likes":false},"841112965905382":{"id":"841112965905382","from":{"id":"100003381475331","name":"Hoàng Hương"},"message":"có khi mai em kêu bà nội cho mượn cái quang gánh thì đẹp luôn ^^","can_remove":false,"created_time":"2014-03-28T15:20:59+0000","like_count":1,"user_likes":false},"841113305905348":{"id":"841113305905348","from":{"id":"100004137965337","name":"Kim Uyên"},"message":"Quang gánh hay bao cám con cò cũng đc","can_remove":false,"created_time":"2014-03-28T15:21:40+0000","like_count":1,"user_likes":false},"841113349238677":{"id":"841113349238677","from":{"id":"100003381475331","name":"Hoàng Hương"},"message":"thế ngg ta ko cân hannhf lí xách tay hả anh chị","can_remove":false,"created_time":"2014-03-28T15:21:48+0000","like_count":0,"user_likes":false},"841113799238632":{"id":"841113799238632","from":{"id":"100004137965337","name":"Kim Uyên"},"message":"K kg đâu ba lô của mình chính xác là 12 kg","can_remove":false,"created_time":"2014-03-28T15:22:40+0000","like_count":1,"user_likes":false},"841113942571951":{"id":"841113942571951","from":{"id":"100004137965337","name":"Kim Uyên"},"message":"Còn 2 cái vali kia phải chia đều kg ra","can_remove":false,"created_time":"2014-03-28T15:23:08+0000","like_count":1,"user_likes":false},"841114125905266":{"id":"841114125905266","from":{"id":"100004137965337","name":"Kim Uyên"},"message":"Cái ít cái nhiều là k đc đâu","can_remove":false,"created_time":"2014-03-28T15:23:29+0000","like_count":1,"user_likes":false},"841114689238543":{"id":"841114689238543","from":{"id":"100000450623476","name":"Chien Bui Xuan"},"message":"e nó cho vào quang gánh đi. chắc là đều thôi bạn Kim Uyên ak","message_tags":[{"id":"100004137965337","name":"Kim Uyên","type":"user","offset":49,"length":8}],"can_remove":false,"created_time":"2014-03-28T15:24:45+0000","like_count":1,"user_likes":false},"841114852571860":{"id":"841114852571860","from":{"id":"100003381475331","name":"Hoàng Hương"},"message":"oh lại còn cả chia đều nữa cơ ạ hic e định 1 cái 25kg 1 cái 15 kg","can_remove":false,"created_time":"2014-03-28T15:25:14+0000","like_count":0,"user_likes":false},"841115175905161":{"id":"841115175905161","from":{"id":"100004137965337","name":"Kim Uyên"},"message":"Phải chia đều đấy k đến sân bay nó bắt rạch ra đấy","can_remove":false,"created_time":"2014-03-28T15:25:52+0000","like_count":0,"user_likes":false},"841115265905152":{"id":"841115265905152","from":{"id":"100003381475331","name":"Hoàng Hương"},"message":"hì hì thôi mai bỏ hết đồ trong vali ra mang quang gánh cho đều vậy :p","can_remove":false,"created_time":"2014-03-28T15:26:00+0000","like_count":0,"user_likes":false},"841115385905140":{"id":"841115385905140","from":{"id":"100000450623476","name":"Chien Bui Xuan"},"message":"oke như thế là dc ko sao. nó tương đối thế thôi. k quá 30 kg 1 vali","can_remove":false,"created_time":"2014-03-28T15:26:06+0000","like_count":1,"user_likes":false},"841115502571795":{"id":"841115502571795","from":{"id":"100004137965337","name":"Kim Uyên"},"message":"Quang gánh nó cồng kềnh khổ thân bạn ý ra","can_remove":false,"created_time":"2014-03-28T15:26:23+0000","like_count":1,"user_likes":false},"841115792571766":{"id":"841115792571766","from":{"id":"100003381475331","name":"Hoàng Hương"},"message":"hì em cảm ơn anh chị đã nhiệt tình chỉ dạy cho em","can_remove":false,"created_time":"2014-03-28T15:27:07+0000","like_count":0,"user_likes":false},"841116152571730":{"id":"841116152571730","from":{"id":"100000450623476","name":"Chien Bui Xuan"},"message":"thế e  sang du học ak. tiếng nhật đến đâu. đi ở tỉnh nào","can_remove":false,"created_time":"2014-03-28T15:27:39+0000","like_count":0,"user_likes":false},"841116409238371":{"id":"841116409238371","from":{"id":"100003381475331","name":"Hoàng Hương"},"message":"vâng m học troòng tiếng, hiện mới đỗ n3","can_remove":false,"created_time":"2014-03-28T15:28:17+0000","like_count":0,"user_likes":false},"841116609238351":{"id":"841116609238351","from":{"id":"100004137965337","name":"Kim Uyên"},"message":"N3 là ngon r","can_remove":false,"created_time":"2014-03-28T15:28:50+0000","like_count":0,"user_likes":false},"841117052571640":{"id":"841117052571640","from":{"id":"100003381475331","name":"Hoàng Hương"},"message":"bình thường ạ tại em đi thi có chút ăn may thì phải học mỗi sách minna ko ôn thi ở đâu tưởng trượt thế mừ đỗ đc","can_remove":false,"created_time":"2014-03-28T15:29:47+0000","like_count":0,"user_likes":false},"841117212571624":{"id":"841117212571624","from":{"id":"100003890433299","name":"Hero Pham"},"message":"pan nay gjog mjnh day.cug 2 valj,va ba lo.","can_remove":false,"created_time":"2014-03-28T15:30:05+0000","like_count":1,"user_likes":false},"841117305904948":{"id":"841117305904948","from":{"id":"100000450623476","name":"Chien Bui Xuan"},"message":"Mình cũng vừa mới đỗ N3 xong, sang hơn 1 năm mới đỗ đó. bạn thế là giỏi oy","can_remove":false,"created_time":"2014-03-28T15:30:22+0000","like_count":1,"user_likes":false},"841117399238272":{"id":"841117399238272","from":{"id":"100004137965337","name":"Kim Uyên"},"message":"Hết đc 50 bài là nhàn là ngon r","can_remove":false,"created_time":"2014-03-28T15:30:40+0000","like_count":0,"user_likes":false},"841117922571553":{"id":"841117922571553","from":{"id":"100003381475331","name":"Hoàng Hương"},"message":"dạ vâng hì","can_remove":false,"created_time":"2014-03-28T15:31:07+0000","like_count":0,"user_likes":false},"841125689237443":{"id":"841125689237443","from":{"id":"100005350922337","name":"Đặng Hằng"},"message":"Anh chị ơi 1vali k đc quá 30kg ak?","can_remove":false,"created_time":"2014-03-28T15:47:15+0000","like_count":1,"user_likes":false},"841126549237357":{"id":"841126549237357","from":{"id":"100001583529210","name":"Nguyễn Kim Hà"},"message":"1 vali không quá 23 cân của japan, không quá 20 cân của máy bay Việt Nam bạn nhé","can_remove":false,"created_time":"2014-03-28T15:49:42+0000","like_count":1,"user_likes":false},"841132609236751":{"id":"841132609236751","from":{"id":"100005350922337","name":"Đặng Hằng"},"message":"Hjc.e đã nhồi nhét đc 25kg và bh thỳ ...bỏ ra","can_remove":false,"created_time":"2014-03-28T16:05:06+0000","like_count":1,"user_likes":false},"841132782570067":{"id":"841132782570067","from":{"id":"100003381475331","name":"Hoàng Hương"},"message":"mình cũng thế TT","can_remove":false,"created_time":"2014-03-28T16:05:35+0000","like_count":1,"user_likes":false},"841136809236331":{"id":"841136809236331","from":{"id":"1341670471","name":"An Nguyen"},"message":"Bạn đi hãng nào thế??","can_remove":false,"created_time":"2014-03-28T16:13:02+0000","like_count":0,"user_likes":false},"841137172569628":{"id":"841137172569628","from":{"id":"100003381475331","name":"Hoàng Hương"},"message":"vietnam ariline ạ","can_remove":false,"created_time":"2014-03-28T16:14:00+0000","like_count":0,"user_likes":false},"841137199236292":{"id":"841137199236292","from":{"id":"1341670471","name":"An Nguyen"},"message":"Việt nam airline thì k cần chia đều  mỗi vali k quá 32 cân","can_remove":false,"created_time":"2014-03-28T16:14:08+0000","like_count":2,"user_likes":false},"841137289236283":{"id":"841137289236283","from":{"id":"1341670471","name":"An Nguyen"},"message":"Mình là chuyên đi ln bạn nhé","can_remove":false,"created_time":"2014-03-28T16:14:22+0000","like_count":0,"user_likes":false},"841137605902918":{"id":"841137605902918","from":{"id":"100003381475331","name":"Hoàng Hương"},"message":"vang ạ","can_remove":false,"created_time":"2014-03-28T16:15:20+0000","like_count":0,"user_likes":false},"841139529236059":{"id":"841139529236059","from":{"id":"1341670471","name":"An Nguyen"},"message":"Vn air thì bạn mang bao nhiêu vali cũng đc, miễn sao k quá số kí, nhưng ráng làm gon cho dễ khi mình nhận lại. Vì để nhiều kiện, cái mặt tụi nhân viên khó chịu, :)\nXách tay cũng thế, nên kiếm 1 Balô đeo, rồi 1 balo để trên vali kéo nhỏ. :) tha hồ đựng nhé","can_remove":false,"created_time":"2014-03-28T16:18:15+0000","like_count":1,"user_likes":false},"841139582569387":{"id":"841139582569387","from":{"id":"100004201993297","name":"Bach Giap Van"},"message":"Ok","can_remove":false,"created_time":"2014-03-28T16:18:21+0000","like_count":0,"user_likes":false},"841139882569357":{"id":"841139882569357","from":{"id":"100004201993297","name":"Bach Giap Van"},"message":"Ok","can_remove":false,"created_time":"2014-03-28T16:18:51+0000","like_count":0,"user_likes":false},"841140252569320":{"id":"841140252569320","from":{"id":"100004201993297","name":"Bach Giap Van"},"message":"Ok","can_remove":false,"created_time":"2014-03-28T16:19:51+0000","like_count":0,"user_likes":false},"841140655902613":{"id":"841140655902613","from":{"id":"100004201993297","name":"Bach Giap Van"},"message":"Ok","can_remove":false,"created_time":"2014-03-28T16:20:51+0000","like_count":0,"user_likes":false},"841141339235878":{"id":"841141339235878","from":{"id":"1341670471","name":"An Nguyen"},"message":"Nhưng hãy nhơ cân ở nhà đi nhé, và trừ hao chênh lệch giữa cân mình và cân của họ, nếu k thì phải tháo đồ ra sắp lai rất là phiền mệt và mất time đó","can_remove":false,"created_time":"2014-03-28T16:21:47+0000","like_count":3,"user_likes":false},"841347995881879":{"id":"841347995881879","from":{"id":"100004745953163","name":"Bo Tròn Ngyễn"},"message":"anh chị cho em hỏi e muốn mang bột sắn dây đi co đc ko ạ?","can_remove":false,"created_time":"2014-03-29T00:32:38+0000","like_count":2,"user_likes":false},"841514082531937":{"id":"841514082531937","from":{"id":"100000982700971","name":"Saka Nguyenthao"},"message":"2 vani mỗi cái 20 kg. một xách tay có chân kéo 7 đến 10 kg nhìn gọn gàng. một balo đầy. một túi xách đựng nhỏ gọn giấy tờ thoải mái .","can_remove":false,"created_time":"2014-03-29T08:10:28+0000","like_count":2,"user_likes":false},"841623809187631":{"id":"841623809187631","from":{"id":"100000982700971","name":"Saka Nguyenthao"},"message":"bạn Bo tròn nguyễn : mang đc nhưng hãy cho vào vani ký gửi nhé . nói chung tất cả đồ ăn hay chất lỏng đóng gói cẩn thận và cho vào vani ký gửi là oke hết","can_remove":false,"created_time":"2014-03-29T12:59:01+0000","like_count":1,"user_likes":false}},"paging":{"cursors":{"after":"ODQxMTEwNDgyNTcyMjk3","before":"ODQxMTEwNDgyNTcyMjk3"},"next":"https://graph.facebook.com/229244010425617_841109945905684/comments?limit=1&summary=1&after=ODQxMTEwNDgyNTcyMjk3"},"summary":{"order":"chronological","total_count":47}}}