{"id":"229244010425617_841154742567871","type":"status","from":{"id":"1725907325","name":"Nguyen Van Dung"},"message":"Câu hỏi của 1 thành viên:\n\nXin hãy phân biệt giùm em sự khác nhau giữa ところ và　場所\n\n----\n\nTheo cảm giác của mình thì\nところ : chỗ (đoạn, lúc)\n場所: nơi \n\n- Xét 1 vài ví dụ sau\n\nví dụ 1. \nすわるところを　さがすtìm chỗ  ngồi  + ok\n座る場所を　探すtìm nơi ngồi + ok\n\nví dụ 2. \n\n分からないところがある　có chỗ không hiểu +  ok\n分からない場所がある　có nơi không hiểu  +  (×） (cái này có nói ko nhỉ??)\n\nví dụ 3 \nいいところですね　 chỗ này thật tuyệt (ok)\nいい場所ですね 　nơi này thật tuyệt (ok)\n\nví dụ 4 \n映画は今ちょうどいいところ phim đang đúng chỗ(đoạn) hay-(ok)\n映画は今ちょうどいい場所  phim đang đúng nơi hay   (×）\n\nví dụ 5\n角を曲がったところに学校があります。Có trường học đúng chỗ (đoạn) rẽ - (ok)\n角を曲がった場所に学校があります có trường học đúng nơi rẽ (×）\n\nví dụ 6\n家を出るところ、雪が降ってきた Lúc tôi ra khỏi nhà thì tuyết bắt đầu rơi.\n家を出る場所、雪が降ってきた (×）....\n---\n\nTuy nhiên:\nví dụ 7\n\n Tiếng nhật ここは私が生まれたところ (ok)　 Tiếng việt:  đây là chỗ tôi sinh ra  (×）\n　Tiếng nhật ここは私が生まれた場所 (×）　đây là nơi tôi sinh ra (ok)\n\nVì thế trong trường hợp này\n\n tokoro => nơi\nbasho => chỗ\n\nhix hix... :3\n\nkhó quá Anh zai Speaker Native ơiiiiiii.!","created_time":"2014-03-28T16:58:01+0000","updated_time":"2014-03-30T18:18:51+0000","likes":{"data":{"100003660088542":{"id":"100003660088542","name":"Le Duc Long"},"100000271705877":{"id":"100000271705877","name":"Nguyễn Văn Minh"},"100004021016322":{"id":"100004021016322","name":"Thu Hang Dang"},"100001526631937":{"id":"100001526631937","name":"Tường Oanh Mineko"},"100001897997884":{"id":"100001897997884","name":"Kiều Oanh"},"623733188":{"id":"623733188","name":"Bui Hung Manh"},"100002913281005":{"id":"100002913281005","name":"Hà Mã"},"569263718":{"id":"569263718","name":"Phuong Thao Tran"},"100001415407078":{"id":"100001415407078","name":"Kha Pham"},"100003799434301":{"id":"100003799434301","name":"Ninh Mai"},"100001528103377":{"id":"100001528103377","name":"Kim Long"},"100000501691859":{"id":"100000501691859","name":"Ngo Xuan Long"},"100007468213697":{"id":"100007468213697","name":"Minh Cảnh"},"100005020959969":{"id":"100005020959969","name":"Hanhphucnho Nhoi"},"100003486467129":{"id":"100003486467129","name":"YU GI"},"100001518348768":{"id":"100001518348768","name":"Nguyễn Trọng Tước"},"100005468251147":{"id":"100005468251147","name":"Ka Ka"},"100000603915176":{"id":"100000603915176","name":"悪いな ぁ"},"100001372256745":{"id":"100001372256745","name":"Tran Quan"},"100003282697164":{"id":"100003282697164","name":"Nguyễn Văn Vương"},"100000047107627":{"id":"100000047107627","name":"Tiểu Phương"},"100000857843369":{"id":"100000857843369","name":"Hasu Chan"},"100006567461873":{"id":"100006567461873","name":"Hoa HoaThuong"},"100003029633462":{"id":"100003029633462","name":"Ngô Văn Tư"},"1146680551":{"id":"1146680551","name":"優しい なぁ"},"100003837141956":{"id":"100003837141956","name":"Mai Hoàng"},"100003105034037":{"id":"100003105034037","name":"Pham Oanh"}},"paging":{"cursors":{"after":"MTAwMDAzNjYwMDg4NTQy","before":"MTAwMDAzNjYwMDg4NTQy"},"next":"https://graph.facebook.com/229244010425617_841154742567871/likes?limit=1&summary=1&after=MTAwMDAzNjYwMDg4NTQy"},"summary":{"total_count":27}},"comments":{"data":{"841157529234259":{"id":"841157529234259","from":{"id":"100003029633462","name":"Ngô Văn Tư"},"message":"Em xin phép copy nhé せんぱい。","can_remove":false,"created_time":"2014-03-28T17:06:19+0000","like_count":0,"user_likes":false},"841158355900843":{"id":"841158355900843","from":{"id":"1146680551","name":"優しい なぁ"},"message":"Theo mình thì nó là:\nところ：nơi, chỗ, địa điểm\n場所：địa điểm, vị trí.\n\nKhi xem trong từ điển Nhật - Anh thì\nところ: place\n場所: location , postion\n\nThế nên nhìn vào ấy thì thấy được sự khác nhau :3 \n映画は今ちょうどいい場所 => dame\n\ncòn mấy cái khác là cấu trúc ngữ pháp rùi.\n\nHóng Speaker Native giải thích thêm.","message_tags":[{"id":"100007530217391","name":"Speaker Native","type":"user","offset":260,"length":14}],"can_remove":false,"created_time":"2014-03-28T17:08:38+0000","like_count":2,"user_likes":false},"841158432567502":{"id":"841158432567502","from":{"id":"1725907325","name":"Nguyen Van Dung"},"message":"Tra từ điển thì thấy có câu dưới đây và trường hợp này cũng giống bên trên  basho => chỗ\n\n場所が悪くて舞台が見にくい sân khấu khó nhìn vì chỗ ngồi không tốt.\n\nところが悪くて(×）","can_remove":false,"created_time":"2014-03-28T17:08:47+0000","like_count":2,"user_likes":false},"841164802566865":{"id":"841164802566865","from":{"id":"100000047107627","name":"Tiểu Phương"},"message":"いいね。:)","can_remove":false,"created_time":"2014-03-28T17:25:53+0000","like_count":0,"user_likes":false},"841175479232464":{"id":"841175479232464","from":{"id":"100000603915176","name":"悪いな ぁ"},"message":"場所 là địa điểm, ところ là khu vực. Xét về mặt câu từ, ところ thường dùng để chỉ trên một diện tích rất rộng.","can_remove":false,"created_time":"2014-03-28T17:55:32+0000","like_count":1,"user_likes":false},"842268275789851":{"id":"842268275789851","from":{"id":"100007530217391","name":"Speaker  Native"},"message":"仕事だったから、気づかなかった。\n感覚ですが、解説します。\n\n1.違い\n所/ところ:chỗ,nơi, điểm nào đó(điểm gì cũng được)    ←そこに目的や物が有っても無くても良い。\n\n場所:chỗ, nơi       ← そこには目的または物が必要。  \n\n2.広さ\nところ<場所  \nVD\n◯この場所の ここの所にありました。\nＸこの所の、ここの場所にありました。\n\nところで、 \nVD2\n分からない箇所がある。\n箇所(カショ)＝ところ\n\nVD4\n映画は今ちょうどいい場面です。\n場面(ばめん)＝ところ\n\nVD2,4が「ところ」で置きかえられるのは、\nところ＝điểm nào đó(điểm gì cũng được)だから。\nもちろん、箇所、場面を使えばもっと正確です。\n\n以上のことから\nVD７は「生まれた所」「生まれた場所」どちらでも良いです。\nどちらとも言いますね。\nVD5も同じく、どちらでも良いです。","can_remove":false,"created_time":"2014-03-30T14:49:29+0000","like_count":4,"user_likes":false},"842268765789802":{"id":"842268765789802","from":{"id":"100007530217391","name":"Speaker  Native"},"message":"http://tabelog.com/tokyo/A1311/A131102/13089452/dtlrvwlst/3676292/","can_remove":false,"created_time":"2014-03-30T14:50:48+0000","like_count":0,"user_likes":false},"842269055789773":{"id":"842269055789773","from":{"id":"1146680551","name":"優しい なぁ"},"message":"覚えやすいじゃん。ありがとうございます。コーヒー飲む？（＾Ｏ＾）","can_remove":false,"created_time":"2014-03-30T14:51:31+0000","like_count":0,"user_likes":false},"842269492456396":{"id":"842269492456396","from":{"id":"100007530217391","name":"Speaker  Native"},"message":"http://www.ryoma-kinenkan.jp/study/qa/ryoma/post-20.php","can_remove":false,"created_time":"2014-03-30T14:52:40+0000","like_count":0,"user_likes":false},"842269849123027":{"id":"842269849123027","from":{"id":"100007530217391","name":"Speaker  Native"},"message":"今飲んでるよ。","can_remove":false,"created_time":"2014-03-30T14:53:24+0000","like_count":0,"user_likes":false},"842271445789534":{"id":"842271445789534","from":{"id":"1146680551","name":"優しい なぁ"},"message":"マジ！こんな時間(-_-)","can_remove":false,"created_time":"2014-03-30T14:55:32+0000","like_count":0,"user_likes":false},"842272162456129":{"id":"842272162456129","from":{"id":"100007530217391","name":"Speaker  Native"},"message":"君と違い、いつもでも脳を使うからね。: p","can_remove":false,"created_time":"2014-03-30T14:56:49+0000","like_count":1,"user_likes":false},"842274949122517":{"id":"842274949122517","from":{"id":"1725907325","name":"Nguyen Van Dung"},"message":"ありがとう、ございました。","can_remove":false,"created_time":"2014-03-30T15:01:47+0000","like_count":0,"user_likes":false},"842276652455680":{"id":"842276652455680","from":{"id":"1146680551","name":"優しい なぁ"},"message":"でもさ~脳を使い過ぎて、君の弟が使えないのは可能性あるんだって（＾Ｏ＾）(^_-) 気をつけてねえ〜(^_-)","can_remove":false,"created_time":"2014-03-30T15:03:23+0000","like_count":0,"user_likes":false},"842279575788721":{"id":"842279575788721","from":{"id":"100007530217391","name":"Speaker  Native"},"message":"没事，我弟弟还是可用呢：V\n君と違い「文武両道」だからね。","can_remove":false,"created_time":"2014-03-30T15:06:56+0000","like_count":0,"user_likes":false},"842281089121903":{"id":"842281089121903","from":{"id":"1146680551","name":"優しい なぁ"},"message":"조심하지 않으면 아내는 애인이있다 だよね。(^_-)","can_remove":false,"created_time":"2014-03-30T15:10:43+0000","like_count":0,"user_likes":false},"842282375788441":{"id":"842282375788441","from":{"id":"100007530217391","name":"Speaker  Native"},"message":"너와 달리 걱정할 필요 없다.","can_remove":false,"created_time":"2014-03-30T15:13:47+0000","like_count":0,"user_likes":false},"842283319121680":{"id":"842283319121680","from":{"id":"1146680551","name":"優しい なぁ"},"message":"걱정이야. 단짝 이니까 （＾Ｏ＾）","can_remove":false,"created_time":"2014-03-30T15:16:06+0000","like_count":0,"user_likes":false},"842284332454912":{"id":"842284332454912","from":{"id":"100007530217391","name":"Speaker  Native"},"message":"君も眠気覚ましにコーヒーを飲んだ方がいいぞ:P\nそれは夢だから。","can_remove":false,"created_time":"2014-03-30T15:18:58+0000","like_count":1,"user_likes":false},"842285945788084":{"id":"842285945788084","from":{"id":"1146680551","name":"優しい なぁ"},"message":"","can_remove":false,"created_time":"2014-03-30T15:22:47+0000","like_count":0,"user_likes":false},"842314269118585":{"id":"842314269118585","from":{"id":"100007530217391","name":"Speaker  Native"},"message":"あっ！「場所」を使って「ところ」を使わない文を書くの忘れてた。\n\n◦思い出の場所。\n◦君と約束した場所に行く。\n◦この場所で何ができるのか。\n◦この場所に家を建てる。\n◦花見のための場所を取る。\n\n文法上「ところ」でも良いのだが、\n目的がはっきりしていたり、 あまり動かないものが有ったりする場合や\nその事を強調したい場合、日本人は無意識に「場所」を使う。\nほとんどの日本人はこの事に気づいていない。","can_remove":false,"created_time":"2014-03-30T16:25:01+0000","like_count":1,"user_likes":false},"842361965780482":{"id":"842361965780482","from":{"id":"1146680551","name":"優しい なぁ"},"message":"ありがとうございます。","can_remove":false,"created_time":"2014-03-30T18:18:51+0000","like_count":0,"user_likes":false}},"paging":{"cursors":{"after":"ODQxMTU3NTI5MjM0MjU5","before":"ODQxMTU3NTI5MjM0MjU5"},"next":"https://graph.facebook.com/229244010425617_841154742567871/comments?limit=1&summary=1&after=ODQxMTU3NTI5MjM0MjU5"},"summary":{"order":"chronological","total_count":22}}}