{"id":"229244010425617_841148165901862","type":"status","from":{"id":"100001653564337","name":"Nhung Pham"},"message":"みんなさん, cho mình hỏi: Du học ở tỉnh shizuoka như thế nào ạ! Công việc làm thêm, giá cả, khí hậu,... Tất cả mọi thứ ở tỉnh nay ntn? Qua bao lâu thì có được việc làm thêm? Khi qua thì cần trang bị cho bản thân trình độ tieg nhat ntn???? Cảm ơn mọi người nhìu!!!","created_time":"2014-03-28T16:38:27+0000","updated_time":"2014-03-29T03:11:37+0000","likes":{"data":{"100004915360462":{"id":"100004915360462","name":"Phamtuyen Pc"},"100004982014580":{"id":"100004982014580","name":"Kun Kun"},"1798696715":{"id":"1798696715","name":"Tho Do Xuan"},"100003676167268":{"id":"100003676167268","name":"Út Buta"}},"paging":{"cursors":{"after":"MTAwMDA0OTE1MzYwNDYy","before":"MTAwMDA0OTE1MzYwNDYy"},"next":"https://graph.facebook.com/229244010425617_841148165901862/likes?limit=1&summary=1&after=MTAwMDA0OTE1MzYwNDYy"},"summary":{"total_count":4}},"comments":{"data":{"841150369234975":{"id":"841150369234975","from":{"id":"100003676167268","name":"Út Buta"},"message":"Ci di o dok hả Nhung Pham e có nhìu qen ở duoi đó lăm nè mà dưới đó khí hậu khắc ngiệt lắm nha :)","message_tags":[{"id":"100001653564337","name":"Nhung Pham","type":"user","offset":15,"length":10}],"can_remove":false,"created_time":"2014-03-28T16:45:13+0000","like_count":0,"user_likes":false},"841154772567868":{"id":"841154772567868","from":{"id":"100003150521152","name":"Haka Sei"},"message":"Trinh đo n3 thi tot nhe","can_remove":false,"created_time":"2014-03-28T16:58:09+0000","like_count":1,"user_likes":false},"841154902567855":{"id":"841154902567855","from":{"id":"100001653564337","name":"Nhung Pham"},"message":"Um... Chị đi ở dưới đo e ơi??? Chị dự định tháng 4 năm sau đi đây e... Chị đang cô gắng cày để lấy cái n3 r qua mà k bik lấy nổi không","can_remove":false,"created_time":"2014-03-28T16:58:39+0000","like_count":0,"user_likes":false},"841356705881008":{"id":"841356705881008","from":{"id":"100001535813596","name":"Đạt Acoustic"},"message":"Vì nó là vùng quê","can_remove":false,"created_time":"2014-03-29T00:56:39+0000","like_count":0,"user_likes":false},"841356709214341":{"id":"841356709214341","from":{"id":"100001535813596","name":"Đạt Acoustic"},"message":"Qua thì sẽ có nhg việc làm chỉ có làm nhà máy ít quán xá","can_remove":false,"created_time":"2014-03-29T00:56:39+0000","like_count":0,"user_likes":false},"841370252546320":{"id":"841370252546320","from":{"id":"100004982014580","name":"Kun Kun"},"message":"ai pao shizuoka la vung que?minh cung di cung do","can_remove":false,"created_time":"2014-03-29T01:18:14+0000","like_count":0,"user_likes":false},"841419799208032":{"id":"841419799208032","from":{"id":"100001233920165","name":"Thin Le"},"message":"lo học đi. giỏi tiếng là ok","can_remove":false,"created_time":"2014-03-29T03:04:57+0000","like_count":0,"user_likes":false},"841425892540756":{"id":"841425892540756","from":{"id":"100001653564337","name":"Nhung Pham"},"message":"Anh k cần giỏi tiếng mà cũng qua đó sao???","can_remove":false,"created_time":"2014-03-29T03:11:37+0000","like_count":1,"user_likes":false}},"paging":{"cursors":{"after":"ODQxMTUwMzY5MjM0OTc1","before":"ODQxMTUwMzY5MjM0OTc1"},"next":"https://graph.facebook.com/229244010425617_841148165901862/comments?limit=1&summary=1&after=ODQxMTUwMzY5MjM0OTc1"},"summary":{"order":"chronological","total_count":8}}}