{"id":"229244010425617_841352319214780","type":"status","from":{"id":"100004745953163","name":"Bo Tròn Ngyễn"},"message":"anh chị cho e hỏi có đc mang bột sắn dây lên máy bay ko ạ?","created_time":"2014-03-29T00:45:02+0000","updated_time":"2014-03-29T07:17:25+0000","likes":{"data":{"100002469422165":{"id":"100002469422165","name":"Duc Nguyen"},"100006307596308":{"id":"100006307596308","name":"Khi Nào Đổi Thay"},"100004095877200":{"id":"100004095877200","name":"Một Lần Để Yêu"},"100005157103710":{"id":"100005157103710","name":"Trai Phố Vĩnh"},"100008009826508":{"id":"100008009826508","name":"Hà Trương"},"100007404247561":{"id":"100007404247561","name":"Trần Khánh"},"100000471304298":{"id":"100000471304298","name":"Nguyen Xuan Cong"},"100002504620750":{"id":"100002504620750","name":"Kun Love"},"100005108107171":{"id":"100005108107171","name":"Thuý Candy"},"100005329470321":{"id":"100005329470321","name":"Đại Ka Hùng Hưng"}},"paging":{"cursors":{"after":"MTAwMDAyNDY5NDIyMTY1","before":"MTAwMDAyNDY5NDIyMTY1"},"next":"https://graph.facebook.com/229244010425617_841352319214780/likes?limit=1&summary=1&after=MTAwMDAyNDY5NDIyMTY1"},"summary":{"total_count":10}},"comments":{"data":{"841353035881375":{"id":"841353035881375","from":{"id":"100005329470321","name":"Đại Ka Hùng Hưng"},"message":"Mang theo an san ak map.he","can_remove":false,"created_time":"2014-03-29T00:46:43+0000","like_count":2,"user_likes":false},"841353435881335":{"id":"841353435881335","from":{"id":"100001695345798","name":"Tyn Aki"},"message":"được","can_remove":false,"created_time":"2014-03-29T00:47:37+0000","like_count":1,"user_likes":false},"841354002547945":{"id":"841354002547945","from":{"id":"100004745953163","name":"Bo Tròn Ngyễn"},"message":"Đại Ka Hùng Hưng  hxhx.ý kiến à?","message_tags":[{"id":"100005329470321","name":"Đại Ka Hùng Hưng","type":"user","offset":0,"length":16}],"can_remove":false,"created_time":"2014-03-29T00:49:17+0000","like_count":0,"user_likes":false},"841354345881244":{"id":"841354345881244","from":{"id":"100004745953163","name":"Bo Tròn Ngyễn"},"message":"mk thấy có ng pảo ko cho mang theo vì sợ pj nghj là ma túy.","can_remove":false,"created_time":"2014-03-29T00:50:15+0000","like_count":1,"user_likes":false},"841354585881220":{"id":"841354585881220","from":{"id":"100002831665828","name":"Nguyễn Ba Duy"},"message":"Tớ nghĩ là không ! nó là bột trắng như ma túy đấy","can_remove":false,"created_time":"2014-03-29T00:50:56+0000","like_count":0,"user_likes":false},"841354959214516":{"id":"841354959214516","from":{"id":"100002504620750","name":"Kun Love"},"message":"Mag dc boc day bac vào","can_remove":false,"created_time":"2014-03-29T00:52:15+0000","like_count":0,"user_likes":false},"841355335881145":{"id":"841355335881145","from":{"id":"100004745953163","name":"Bo Tròn Ngyễn"},"message":"thế bọc gjấy bạc vào là đc ạ.","can_remove":false,"created_time":"2014-03-29T00:53:12+0000","like_count":0,"user_likes":false},"841355399214472":{"id":"841355399214472","from":{"id":"100002831665828","name":"Nguyễn Ba Duy"},"message":"Bọc nó cũng soi được . chủ yếu nó có cho qua hay ko thui . Nhưng nhing toàn bột trắng thế nó ko lôi ra để thử kiểm tra mới lạ . Mà đã bỏe ra đâu mà chả thu . tốt nhất ko nên mang đỡ mất time và nhẹ người","can_remove":false,"created_time":"2014-03-29T00:53:30+0000","like_count":0,"user_likes":false},"841355699214442":{"id":"841355699214442","from":{"id":"100002504620750","name":"Kun Love"},"message":"Ma mag cai day lam j chu de o nha mag tien la ok","can_remove":false,"created_time":"2014-03-29T00:54:19+0000","like_count":0,"user_likes":false},"841355985881080":{"id":"841355985881080","from":{"id":"100003896124456","name":"Van Tho"},"message":"thế mà mình mua nhưng 2 căn.để ở nhà cho chắc.","can_remove":false,"created_time":"2014-03-29T00:54:57+0000","like_count":0,"user_likes":false},"841356035881075":{"id":"841356035881075","from":{"id":"100000336718952","name":"Trang Nguyễn"},"message":"ko cần,bọc giấy bạc làm gì bạn.thế ng ta càng nghi ktra mất thời gian.làm gì ng ta ko phân biệt đc ma tuý với bột sắn chứ.cứ mang đi ko sao","can_remove":false,"created_time":"2014-03-29T00:55:03+0000","like_count":1,"user_likes":false},"841359232547422":{"id":"841359232547422","from":{"id":"100003668330204","name":"Chí Nguyễn"},"message":"minh đã gặp th ntn lúc đưa thằng bạn sang Nga, bạn sẽ bị vào cửa kiểm.tra an ninh nó biết thừa đấy là bột sắn rồi, bạn sẽ phải mờ ra cho kiểm tra hoặc mất mấy trăm ý  lại phải tháo ra bọc lại mất 60k 1 thùng thì phải","can_remove":false,"created_time":"2014-03-29T01:01:27+0000","like_count":1,"user_likes":false},"841366049213407":{"id":"841366049213407","from":{"id":"100000336718952","name":"Trang Nguyễn"},"message":"nếu cẩn thận thì để trong hành lí xách tay,thích thì bỏ ra ktra.cần gì fai đóng hộp bọc lại làm gì cho mất công","can_remove":false,"created_time":"2014-03-29T01:08:39+0000","like_count":0,"user_likes":false},"841369905879688":{"id":"841369905879688","from":{"id":"100004490468078","name":"Hồ Minh Chính"},"message":"Haha kheo laj bj tom ve toi chuyen hang trang thj pun cuoi","can_remove":false,"created_time":"2014-03-29T01:17:16+0000","like_count":1,"user_likes":false},"841370365879642":{"id":"841370365879642","from":{"id":"100007404247561","name":"Trần Khánh"},"message":"Mang djdj ma an he","can_remove":false,"created_time":"2014-03-29T01:18:36+0000","like_count":1,"user_likes":false},"841371629212849":{"id":"841371629212849","from":{"id":"100004784233958","name":"NO Bita"},"message":"Cho vào ký gửi k sao đâu... Để túi bóng hay hộp nhựa bt thui... Càng kĩ càng dễ bị ktra","can_remove":false,"created_time":"2014-03-29T01:22:45+0000","like_count":0,"user_likes":false},"841376469212365":{"id":"841376469212365","from":{"id":"100001563994853","name":"Huy Brad"},"message":"Ko việc gì ko vấn đề đâu","can_remove":false,"created_time":"2014-03-29T01:35:01+0000","like_count":0,"user_likes":false},"841393105877368":{"id":"841393105877368","from":{"id":"100003875211691","name":"Hue Yamashironguyen"},"message":"Lần trc mình mang bột sắn dây qua đc mà bạn nhưng mình ký gửi hành lý chứ khg phải mang lên máy bay nha bạn.","can_remove":false,"created_time":"2014-03-29T02:05:45+0000","like_count":1,"user_likes":false},"841398995876779":{"id":"841398995876779","from":{"id":"100004463858056","name":"Misu Phạm"},"message":"Sang đây mua mang đi lm j chi mệt thừa cân thì mua omai vs kẹo sang cho c vài bữa c lên lấy về ăn hihi","can_remove":false,"created_time":"2014-03-29T02:12:31+0000","like_count":1,"user_likes":false},"841403279209684":{"id":"841403279209684","from":{"id":"100004465720039","name":"Phú Phương"},"message":"Bác này Lại troll nhau rồi :D","can_remove":false,"created_time":"2014-03-29T02:25:41+0000","like_count":0,"user_likes":false},"841430855873593":{"id":"841430855873593","from":{"id":"100004105417269","name":"Hà Minh Đăng"},"message":"Dc","can_remove":false,"created_time":"2014-03-29T03:25:08+0000","like_count":0,"user_likes":false},"841468182536527":{"id":"841468182536527","from":{"id":"100001535813596","name":"Đạt Acoustic"},"message":"Bọc giấy bạc vào","can_remove":false,"created_time":"2014-03-29T05:18:26+0000","like_count":0,"user_likes":false},"841478962535449":{"id":"841478962535449","from":{"id":"100007218699002","name":"Dung Kim"},"message":"Cho vào hàng ký gui là ok","can_remove":false,"created_time":"2014-03-29T06:02:43+0000","like_count":0,"user_likes":false},"841497072533638":{"id":"841497072533638","from":{"id":"100002239433285","name":"Mạnh Cường"},"message":"Ship t 1cân bạn ơi :v","can_remove":false,"created_time":"2014-03-29T07:17:25+0000","like_count":1,"user_likes":false}},"paging":{"cursors":{"after":"ODQxMzUzMDM1ODgxMzc1","before":"ODQxMzUzMDM1ODgxMzc1"},"next":"https://graph.facebook.com/229244010425617_841352319214780/comments?limit=1&summary=1&after=ODQxMzUzMDM1ODgxMzc1"},"summary":{"order":"chronological","total_count":24}}}