{"id":"229244010425617_841547502528595","type":"photo","object_id":"1465072167042971","picture":"https://fbcdn-photos-a-a.akamaihd.net/hphotos-ak-prn1/t1.0-0/1975096_1465072167042971_345579404_s.jpg","link":"https://www.facebook.com/photo.php?fbid=1465072167042971&set=a.1424554304428091.1073741841.1409613472588841&type=1","from":{"id":"100001621458915","name":"Cao Cường"},"message":"Thông tin dành cho các bạn Thực tập sinh ạ.","created_time":"2014-03-29T10:00:07+0000","updated_time":"2014-03-30T07:30:17+0000","likes":{"data":{"100006280445172":{"id":"100006280445172","name":"Kim Oanh Nguyễn"},"100004973283998":{"id":"100004973283998","name":"Hoai Dang"},"100003683896765":{"id":"100003683896765","name":"Song La Phai Mo"},"100005231773593":{"id":"100005231773593","name":"Tuan Teu"},"100000982700971":{"id":"100000982700971","name":"Saka Nguyenthao"},"100003032663784":{"id":"100003032663784","name":"Vượt Qua Thử Thách"},"100005067546276":{"id":"100005067546276","name":"Quynh Buivan"},"100000064390986":{"id":"100000064390986","name":"Pí Pa Pí Pò"},"100003827256334":{"id":"100003827256334","name":"Tuyết Xuống Trần Gian"},"100002975299796":{"id":"100002975299796","name":"Trinh Tuan Anh"},"100004434310965":{"id":"100004434310965","name":"Le Baongoc"},"100000029556807":{"id":"100000029556807","name":"Do Manh Ha"},"100007965550850":{"id":"100007965550850","name":"Trương Nhi"},"100005743214353":{"id":"100005743214353","name":"Lợi Vũ"},"100006191946474":{"id":"100006191946474","name":"Kim Luyên"},"100001995633843":{"id":"100001995633843","name":"Yasunobu Toda"},"100005448571964":{"id":"100005448571964","name":"Lê Anh Éo"},"100003039237438":{"id":"100003039237438","name":"Huong Luu Thi"},"100002710818496":{"id":"100002710818496","name":"Duy Duy"},"100002654637560":{"id":"100002654637560","name":"Dinh Tien Truong"},"100005379788053":{"id":"100005379788053","name":"Luu Chien"}},"paging":{"cursors":{"after":"MTAwMDA2MjgwNDQ1MTcy","before":"MTAwMDA2MjgwNDQ1MTcy"},"next":"https://graph.facebook.com/229244010425617_841547502528595/likes?limit=1&summary=1&after=MTAwMDA2MjgwNDQ1MTcy"},"summary":{"total_count":21}},"comments":{"data":{"841589775857701":{"id":"841589775857701","from":{"id":"100000021018532","name":"Hương Nguyễn"},"message":"có nghe nói về tin này rồi, thấy bảo các ngành khác cũng gia hạn được mà ???","can_remove":false,"created_time":"2014-03-29T11:35:50+0000","like_count":1,"user_likes":false},"841590299190982":{"id":"841590299190982","from":{"id":"100001621458915","name":"Cao Cường"},"message":"Mình thì chưa nghe tin ở bất kỳ đâu và cũng chưa đọc các bài báo nào nói là các ngành khác.","can_remove":false,"created_time":"2014-03-29T11:36:50+0000","like_count":0,"user_likes":false},"841590382524307":{"id":"841590382524307","from":{"id":"100001621458915","name":"Cao Cường"},"message":"Mới chỉ nghe thấy kensetsu","can_remove":false,"created_time":"2014-03-29T11:37:11+0000","like_count":0,"user_likes":false},"841593165857362":{"id":"841593165857362","from":{"id":"100000021018532","name":"Hương Nguyễn"},"message":"uh vì thấy ông nhật ở chỗ mình bảo là sau 3 năm nếu ko có vấn đề gì như trộm cắp hay vi phạm pháp luật khác thì nghiệp đoàn có thể gia hạn thêm 2 năm nữa, cũng ko rõ lắm vđề này","can_remove":false,"created_time":"2014-03-29T11:45:29+0000","like_count":1,"user_likes":false},"841658862517459":{"id":"841658862517459","from":{"id":"100003058280462","name":"Đặng Văn Thành"},"message":"các bạn cho mình ? sang Nhật làm có như m.n nói là ng vắt sức lao động cảu mình ghê lắm phải k? ạ","can_remove":false,"created_time":"2014-03-29T14:14:51+0000","like_count":1,"user_likes":false},"841707005845978":{"id":"841707005845978","from":{"id":"100002884430339","name":"Hồng Trịnh"},"message":"Cuong Xu","message_tags":[{"id":"100002836907149","name":"Cuong Xu","type":"user","offset":0,"length":8}],"can_remove":false,"created_time":"2014-03-29T15:30:48+0000","like_count":0,"user_likes":false},"841903182493027":{"id":"841903182493027","from":{"id":"100006421833869","name":"Tiểu Ngư"},"message":"Đi ngành xd mong hết 3 năm muốn chết. Ai mà thèm đc gia hạn thêm chứ.","can_remove":false,"created_time":"2014-03-29T23:11:00+0000","like_count":2,"user_likes":false},"841976995818979":{"id":"841976995818979","from":{"id":"100003058280462","name":"Đặng Văn Thành"},"message":"khổ lắm à @Tiểu Ngư t tưởng nếu  bt chỉ làm ngày 8h thôi mà","can_remove":false,"created_time":"2014-03-30T01:15:33+0000","like_count":0,"user_likes":false},"841978085818870":{"id":"841978085818870","from":{"id":"100006421833869","name":"Tiểu Ngư"},"message":"Làm 8tieng mà đi sớm về khuya. Làm công trường nay đây mai đó công đi lại xa. Mà cv thì mệt vật ra lương thì may mắn có cty cao nhưng thường thì xd lương cũng ko ra gì.","can_remove":false,"created_time":"2014-03-30T01:18:58+0000","like_count":0,"user_likes":false},"841978372485508":{"id":"841978372485508","from":{"id":"100003058280462","name":"Đặng Văn Thành"},"message":"èo. thế trong hợp đồng có làm 8h k sao bạn k ý kiến gì","can_remove":false,"created_time":"2014-03-30T01:19:48+0000","like_count":0,"user_likes":false},"841981029151909":{"id":"841981029151909","from":{"id":"100006421833869","name":"Tiểu Ngư"},"message":"Thì giơ làm là 8h đó nhưng thời gian đi và về trên đường ai tính tiền cho mình chứ","can_remove":false,"created_time":"2014-03-30T01:25:59+0000","like_count":0,"user_likes":false},"841981215818557":{"id":"841981215818557","from":{"id":"100003058280462","name":"Đặng Văn Thành"},"message":"èo :D","can_remove":false,"created_time":"2014-03-30T01:26:31+0000","like_count":0,"user_likes":false},"841981245818554":{"id":"841981245818554","from":{"id":"100003058280462","name":"Đặng Văn Thành"},"message":"khổ nhể","can_remove":false,"created_time":"2014-03-30T01:26:36+0000","like_count":0,"user_likes":false},"841981859151826":{"id":"841981859151826","from":{"id":"100006421833869","name":"Tiểu Ngư"},"message":"Hơn nữa nói là vậy đã sang rồi đều phải chấp nhận chứ cungx tuy nghiệp đoàn nhieu nghiep doan cũng chả giúp gì mình đâu.","can_remove":false,"created_time":"2014-03-30T01:27:48+0000","like_count":0,"user_likes":false},"841984629151549":{"id":"841984629151549","from":{"id":"100003058280462","name":"Đặng Văn Thành"},"message":"thế bnaj cho mình ? nếu mình đi theo Kĩ Thuật viên hay kĩ sư thì sang đó có khá khẩm hơn k?","can_remove":false,"created_time":"2014-03-30T01:35:26+0000","like_count":0,"user_likes":false},"841985039151508":{"id":"841985039151508","from":{"id":"100006421833869","name":"Tiểu Ngư"},"message":"Nghe nói đi dạng đó thì lương cao hơn và cv có lẽ ko giống tu nghiệp sinh","can_remove":false,"created_time":"2014-03-30T01:36:37+0000","like_count":0,"user_likes":false},"841985122484833":{"id":"841985122484833","from":{"id":"100003058280462","name":"Đặng Văn Thành"},"message":"thế à.","can_remove":false,"created_time":"2014-03-30T01:36:56+0000","like_count":0,"user_likes":false},"841985419151470":{"id":"841985419151470","from":{"id":"100003058280462","name":"Đặng Văn Thành"},"message":"uwfkm mình đi theo con đường đó. tại mình có bằng CĐ rồi đang định đi học tiếng để thi N3","can_remove":false,"created_time":"2014-03-30T01:37:21+0000","like_count":0,"user_likes":false},"841986049151407":{"id":"841986049151407","from":{"id":"100006421833869","name":"Tiểu Ngư"},"message":"Vậy thì chắc là con đương đến vớ japan của b sẽ ko khó khăn lắm đâu. Cố gắng lấy bằng đi nhé","can_remove":false,"created_time":"2014-03-30T01:39:40+0000","like_count":0,"user_likes":false},"841986305818048":{"id":"841986305818048","from":{"id":"100003058280462","name":"Đặng Văn Thành"},"message":"híc. mình cũng mong là vậy cảm ơn bạn nha.","can_remove":false,"created_time":"2014-03-30T01:40:16+0000","like_count":0,"user_likes":false},"841986945817984":{"id":"841986945817984","from":{"id":"100006421833869","name":"Tiểu Ngư"},"message":"Hề. Nhật bản đang chờ đón bn 1 ngày sớm nhất.","can_remove":false,"created_time":"2014-03-30T01:42:21+0000","like_count":0,"user_likes":false},"842002632483082":{"id":"842002632483082","from":{"id":"100000021018532","name":"Hương Nguyễn"},"message":"đi xkld thì phải xác định là khổ rồi chứ các bạn nghĩ ngày chỉ làm 8h thôi thì ở VN làm cũng được, tiền lương nhiều hay ít ăn nhau ở chỗ làm thêm giờ đấy :)","can_remove":false,"created_time":"2014-03-30T02:18:21+0000","like_count":0,"user_likes":false},"842012705815408":{"id":"842012705815408","from":{"id":"100001621458915","name":"Cao Cường"},"message":"Thấy nhiều bạn TTS cứ kêu ca về lương rồi thời gian làm việc này nọ.... Trước khi các ban sang các bạn đã được thông tin cho về thời gian làm việc, lương lậu...như thế nào và đã được ký hợp đồng. Nếu bạn chấp nhận với điều kiện làm việc đó, tiền lương đó thì bạn mới Ký hợp đồng rồi đi chứ. Bạn đã đồng ý và ký hợp đồng đến khi sang bên nay mọi thứ vẫn giống như hợp đồng thì đừng kêu ca nữa. Còn nếu thực tế lượng, thời gian làm việc nó khác hợp đồng đã ký thì các bạn có thể đi kiện lại Cty. Nếu ko biết kiện chỗ nào mình có thể hướng dẫn.","can_remove":false,"created_time":"2014-03-30T02:46:38+0000","like_count":1,"user_likes":false},"842013425815336":{"id":"842013425815336","from":{"id":"100001621458915","name":"Cao Cường"},"message":"Còn về công việc: sang đây công việc gì cũng vất vả thôi. thể cả đi du học, xác định đi xa nha làm ăn, học hành, lại ở một nước kinh tế phát triển cái gì cũng đắt đỏ hơn VN thế này. Chấp nhận điều đó được thì mới quyết định sang và cố gắng. Còn về thời gian đi trên đường.... Ở VN cũng vậy, ko có ai tính cái thời gian đi ngoài đường đến cty hay công trường để trả lương cho bạn cả. Nhật cũng có nhiều người đi làm 1 ngày cả đi cả về mất 6,7 tiếng cơ.","can_remove":false,"created_time":"2014-03-30T02:49:42+0000","like_count":1,"user_likes":false},"842014869148525":{"id":"842014869148525","from":{"id":"100001621458915","name":"Cao Cường"},"message":"Tiểu NgưVề vấn đề lương, thời gian làm việc, công việc thì: Đó là sự thỏa thuận và ký hợp đồng trực tiếp giữa TTS và XÍ NGHIỆP, TTS xem hợp đồng thấy điều kiện... ok thì ký và đi làm cho Xí nghiệp. Không có một nghiệp đoàn nào có quyền can thiếp đến vấn đề này. Trách nhiệm của nghiệp đoàn đại khái chỉ là: Hướng dẫn TTS về đời sống sinh hoạt, hỗ trợ TTS là cấc thủ tục hồ sơ liên quan, đảm bảo quyền lợi... của thực tập sinh đang ở nhật trong trường hợp công việc thực tập không giống như hợp đồng đã ký ví dụ: Công ty không trả lương, người TTS bị đánh đập chửi bới.... trong nhà máy","message_tags":[{"id":"100001693083107","name":"Tiểu Ngư","type":"user","offset":0,"length":8}],"can_remove":false,"created_time":"2014-03-30T02:54:42+0000","like_count":0,"user_likes":false},"842091295807549":{"id":"842091295807549","from":{"id":"100003058280462","name":"Đặng Văn Thành"},"message":"bạn Cao Cường bạn có thể cho mình ? xem có cty nào ở? HN uy tín đc k?","can_remove":false,"created_time":"2014-03-30T07:10:02+0000","like_count":0,"user_likes":false},"842094735807205":{"id":"842094735807205","from":{"id":"100001621458915","name":"Cao Cường"},"message":"Một số công ty mình thấy được, bạn có thể tham khảo: thông tin khái quát về cty có thể lên google tìm: SIMCO Sông Đà, CEO, LOD, LETCO (của trường ĐH CN HN)","can_remove":false,"created_time":"2014-03-30T07:21:54+0000","like_count":0,"user_likes":false},"842095002473845":{"id":"842095002473845","from":{"id":"100003058280462","name":"Đặng Văn Thành"},"message":"uwfkm.","can_remove":false,"created_time":"2014-03-30T07:23:10+0000","like_count":0,"user_likes":false},"842095822473763":{"id":"842095822473763","from":{"id":"100003058280462","name":"Đặng Văn Thành"},"message":"mình biết letco vì mình là sv tr CN mà hì hì. nhwung mình biết tin thì theo như là năm 2008 tr mình lấy tiền lương của Các sv đi lao động bên Đài Loan Cao lên bị bên Mấy bộ trên cảnh cáo hay lzj ý. nên mình ít tin tưởng hơn","can_remove":false,"created_time":"2014-03-30T07:24:37+0000","like_count":1,"user_likes":false},"842097869140225":{"id":"842097869140225","from":{"id":"100001621458915","name":"Cao Cường"},"message":"Nhưng nói chung đi cty nào cũng vậy: Cần phải check rõ ràng về Phí đi, đặt cọc, các loại phí liên quan, đóng nhận tiền có biên lai, giấy tờ đoàng hoàng, rồi cả tiền lương, công việc... bên Nhật nữa","can_remove":false,"created_time":"2014-03-30T07:29:47+0000","like_count":0,"user_likes":false},"842097945806884":{"id":"842097945806884","from":{"id":"100003058280462","name":"Đặng Văn Thành"},"message":"uwfkm.","can_remove":false,"created_time":"2014-03-30T07:30:13+0000","like_count":0,"user_likes":false},"842097959140216":{"id":"842097959140216","from":{"id":"100003058280462","name":"Đặng Văn Thành"},"message":"thanks bạn nha","can_remove":false,"created_time":"2014-03-30T07:30:17+0000","like_count":0,"user_likes":false}},"paging":{"cursors":{"after":"ODQxNTg5Nzc1ODU3NzAx","before":"ODQxNTg5Nzc1ODU3NzAx"},"next":"https://graph.facebook.com/229244010425617_841547502528595/comments?limit=1&summary=1&after=ODQxNTg5Nzc1ODU3NzAx"},"summary":{"order":"chronological","total_count":32}}}