{"id":"229244010425617_841614112521934","type":"status","from":{"id":"100006686343935","name":"Bất Cần Đời"},"message":"今日本に住んで時間は、もすぐ1年なったばかりなのにお金はちっと少し家族に送りました。私の希望(きぼう) は足りない、その時間は一生懸命やった、毎日残業したのにお金はどこか見えない、それで日本語の勉強することもしなかた、何をやったか？何も結果がない、本当は、がっかり、そっくりやめたい、でも今方法がない、これから、将来を見て、のんぶりすっつあるく、良い将来のように。viết thế có đung k các bác cho iken ợ","created_time":"2014-03-29T12:38:16+0000","updated_time":"2014-03-29T13:38:56+0000","likes":{"data":{"100005300712547":{"id":"100005300712547","name":"Đánh Đổi"},"100007323884318":{"id":"100007323884318","name":"Thu Hoai"},"100002981655149":{"id":"100002981655149","name":"Đỗ Văn Nghĩa"},"100003642346565":{"id":"100003642346565","name":"Khổng Minh Nhật"},"100005344084736":{"id":"100005344084736","name":"Nhất Nhất"},"100006422374901":{"id":"100006422374901","name":"Nguyễn Hoàng Trung"}},"paging":{"cursors":{"after":"MTAwMDA1MzAwNzEyNTQ3","before":"MTAwMDA1MzAwNzEyNTQ3"},"next":"https://graph.facebook.com/229244010425617_841614112521934/likes?limit=1&summary=1&after=MTAwMDA1MzAwNzEyNTQ3"},"summary":{"total_count":6}},"comments":{"data":{"841617952521550":{"id":"841617952521550","from":{"id":"100007879952991","name":"Thow  Low"},"message":"@@. わかりません＾＾もう一回直してください＾＾","can_remove":false,"created_time":"2014-03-29T12:46:20+0000","like_count":0,"user_likes":false},"841618142521531":{"id":"841618142521531","from":{"id":"100006686343935","name":"Bất Cần Đời"},"message":"Ạc sao k hỉu???","can_remove":false,"created_time":"2014-03-29T12:47:06+0000","like_count":0,"user_likes":false},"841618805854798":{"id":"841618805854798","from":{"id":"1557064760","name":"Lợi Hứa"},"message":"mình hiểu sơ sơ đại ý, còn câu thì hình như mấy chỗ sai thì phải :-?","can_remove":false,"created_time":"2014-03-29T12:48:25+0000","like_count":1,"user_likes":false},"841620092521336":{"id":"841620092521336","from":{"id":"100007879952991","name":"Thow  Low"},"message":"住んでる,\nもうすぐ　thì không thể 。。。になったばかりđược。\n私の希望は足りない：minh cung khong hieu.","can_remove":false,"created_time":"2014-03-29T12:51:18+0000","like_count":2,"user_likes":false},"841620579187954":{"id":"841620579187954","from":{"id":"100006686343935","name":"Bất Cần Đời"},"message":"Um viết thi chưa coi kĩ ?? Chủ yếu là có hiểu được noiij dung k đó.. K bít viết nta có hỉu k","can_remove":false,"created_time":"2014-03-29T12:52:25+0000","like_count":0,"user_likes":false},"841620669187945":{"id":"841620669187945","from":{"id":"100006686343935","name":"Bất Cần Đời"},"message":"Sai chỗ nào vậy  Lợi Hứa","message_tags":[{"id":"1557064760","name":"Lợi Hứa","type":"user","offset":17,"length":7}],"can_remove":false,"created_time":"2014-03-29T12:52:43+0000","like_count":0,"user_likes":false},"841622662521079":{"id":"841622662521079","from":{"id":"1557064760","name":"Lợi Hứa"},"message":"mấy chỗ bác kia chỉ kìa, với mấy câu mình ko hiểu lắm, để mình xem lại xíu :)","can_remove":false,"created_time":"2014-03-29T12:55:15+0000","like_count":0,"user_likes":false},"841622905854388":{"id":"841622905854388","from":{"id":"100007879952991","name":"Thow  Low"},"message":"ちょっと、少し：chon 1 tu thoi\nがっかり、そっくりやめたい：minh cung khong hieu","can_remove":false,"created_time":"2014-03-29T12:56:07+0000","like_count":0,"user_likes":false},"841623169187695":{"id":"841623169187695","from":{"id":"100007879952991","name":"Thow  Low"},"message":"bạn nên sửa lại bài rồi đưa cho mọi người xem, như thế sẽ hay hơn ＾＾","can_remove":false,"created_time":"2014-03-29T12:56:45+0000","like_count":0,"user_likes":false},"841623292521016":{"id":"841623292521016","from":{"id":"100006686343935","name":"Bất Cần Đời"},"message":"K hỉu ý hay sao ??? そっくりやめたい：là muốn từ bõ tất cả","can_remove":false,"created_time":"2014-03-29T12:57:12+0000","like_count":0,"user_likes":false},"841624749187537":{"id":"841624749187537","from":{"id":"100006686343935","name":"Bất Cần Đời"},"message":"ạc mình mà haonf chỉnh thì đâu cần hỏi đâu bạn???","can_remove":false,"created_time":"2014-03-29T13:01:40+0000","like_count":0,"user_likes":false},"841626875853991":{"id":"841626875853991","from":{"id":"100002716525116","name":"Nguyễn Tất Nguyên"},"message":"Bạn nên thay　それで(vì thế) bằng từ それに(hơn nữa) nghe có vẻ hợp lý hơn.\nCâu 勉強することもしなかた hay là しなかった?","can_remove":false,"created_time":"2014-03-29T13:06:52+0000","like_count":1,"user_likes":false},"841627762520569":{"id":"841627762520569","from":{"id":"100006686343935","name":"Bất Cần Đời"},"message":"Oh ý ngĩa ban có thể hiu hết k vậy hj","can_remove":false,"created_time":"2014-03-29T13:09:07+0000","like_count":0,"user_likes":false},"841631719186840":{"id":"841631719186840","from":{"id":"100002716525116","name":"Nguyễn Tất Nguyên"},"message":"大体　わかりました。gần cuối hơi khó hiểu. Nhưng cầu cho 1tương lai tốt đẹp thì ai cũng muốn :)\n日本語の勉強することもしなかった。bạn có thể bỏ すること đi cho đỡ lằng nhằng. Vì　も　thay cho を nên 勉強　là danh từ rồi khỏi cần すること làm gì. :)","can_remove":false,"created_time":"2014-03-29T13:18:02+0000","like_count":1,"user_likes":false},"841632209186791":{"id":"841632209186791","from":{"id":"100004918441036","name":"Phùng Văn Hiên"},"message":"すごいね","can_remove":false,"created_time":"2014-03-29T13:19:24+0000","like_count":0,"user_likes":false},"841633342520011":{"id":"841633342520011","from":{"id":"100004918441036","name":"Phùng Văn Hiên"},"message":"私 毎日勉強するよにまだへたいです","can_remove":false,"created_time":"2014-03-29T13:21:52+0000","like_count":0,"user_likes":false},"841634322519913":{"id":"841634322519913","from":{"id":"100006686343935","name":"Bất Cần Đời"},"message":"Hehe bạn ơi mình đag ở nhật mà còn bị lỗi nhìu lắm đo k thấy sao kaak","can_remove":false,"created_time":"2014-03-29T13:23:05+0000","like_count":0,"user_likes":false},"841635179186494":{"id":"841635179186494","from":{"id":"100006686343935","name":"Bất Cần Đời"},"message":"Nguyễn Tất Nguyen her cám ơn bạn gips ý hé. .. Chắc bnaj học củg cao hả bạn???","can_remove":false,"created_time":"2014-03-29T13:24:30+0000","like_count":0,"user_likes":false},"841635299186482":{"id":"841635299186482","from":{"id":"100004918441036","name":"Phùng Văn Hiên"},"message":"Ban di du hoc hay di tu nghiep vay .bất cần đời","can_remove":false,"created_time":"2014-03-29T13:24:50+0000","like_count":0,"user_likes":false},"841635639186448":{"id":"841635639186448","from":{"id":"100006686343935","name":"Bất Cần Đời"},"message":"Tu ngiệp àkkk","can_remove":false,"created_time":"2014-03-29T13:25:50+0000","like_count":0,"user_likes":false},"841635885853090":{"id":"841635885853090","from":{"id":"100004918441036","name":"Phùng Văn Hiên"},"message":"Ukm mh cung vay.b sag dc lau chua","can_remove":false,"created_time":"2014-03-29T13:26:39+0000","like_count":0,"user_likes":false},"841635919186420":{"id":"841635919186420","from":{"id":"100002716525116","name":"Nguyễn Tất Nguyên"},"message":"K quan trọng là ở đâu. Dần dần mới giỏi lên đc. :)) muốn sang Nhật luôn quá.hê","can_remove":false,"created_time":"2014-03-29T13:26:49+0000","like_count":0,"user_likes":false},"841636095853069":{"id":"841636095853069","from":{"id":"100006686343935","name":"Bất Cần Đời"},"message":"Mình chua duoc năm hj ?? Bna tat nguyen học lâu chưa","can_remove":false,"created_time":"2014-03-29T13:27:19+0000","like_count":0,"user_likes":false},"841637252519620":{"id":"841637252519620","from":{"id":"100002716525116","name":"Nguyễn Tất Nguyên"},"message":"Mình học đc 9tháng rùi.hjhj. mà vẫn chưa đi đc Nhật ;)","can_remove":false,"created_time":"2014-03-29T13:30:12+0000","like_count":0,"user_likes":false},"841637415852937":{"id":"841637415852937","from":{"id":"100006686343935","name":"Bất Cần Đời"},"message":"Ạc 9 thâng tới bài mấy rồi hả???","can_remove":false,"created_time":"2014-03-29T13:30:39+0000","like_count":0,"user_likes":false},"841637422519603":{"id":"841637422519603","from":{"id":"100002982833184","name":"Nam Lê Ngọc"},"message":"sai nhiều quá","can_remove":false,"created_time":"2014-03-29T13:30:40+0000","like_count":0,"user_likes":false},"841638789186133":{"id":"841638789186133","from":{"id":"100002716525116","name":"Nguyễn Tất Nguyên"},"message":"Đang học 　中級N3　quyển 2 bạn à.hj. học rồi ít đc vận dụng thành ra quên :). Bạn qua đó đc mấy tháng rồi?","can_remove":false,"created_time":"2014-03-29T13:33:44+0000","like_count":0,"user_likes":false},"841639075852771":{"id":"841639075852771","from":{"id":"100006686343935","name":"Bất Cần Đời"},"message":"Um vậy akk 9 thang vậy là nhanh đó!!! Qua chưa được 1 năm mới 7,8 tháng j đó","can_remove":false,"created_time":"2014-03-29T13:34:28+0000","like_count":0,"user_likes":false},"841641042519241":{"id":"841641042519241","from":{"id":"100002982833184","name":"Nam Lê Ngọc"},"message":"私 毎日勉強するよにまだへたいです→また間違ってる　。　毎日勉強しているのに、まだ下手です。","can_remove":false,"created_time":"2014-03-29T13:38:56+0000","like_count":1,"user_likes":false}},"paging":{"cursors":{"after":"ODQxNjE3OTUyNTIxNTUw","before":"ODQxNjE3OTUyNTIxNTUw"},"next":"https://graph.facebook.com/229244010425617_841614112521934/comments?limit=1&summary=1&after=ODQxNjE3OTUyNTIxNTUw"},"summary":{"order":"chronological","total_count":29}}}