{"id":"229244010425617_841603142523031","type":"photo","object_id":"479317388860419","picture":"https://fbcdn-photos-c-a.akamaihd.net/hphotos-ak-frc3/t1.0-0/10153764_479317388860419_723181333_s.jpg","link":"https://www.facebook.com/photo.php?fbid=479317388860419&set=pcb.841603142523031&type=1&relevant_count=3","from":{"id":"100003464850672","name":"Sê Cô"},"message":"Cảnh báo lưa đảo....","created_time":"2014-03-29T12:14:00+0000","updated_time":"2014-03-30T02:14:38+0000","likes":{"data":{"100008133690691":{"id":"100008133690691","name":"Con Yêu Mẹ"},"100002580875569":{"id":"100002580875569","name":"Nguyen Xi"},"100004456541864":{"id":"100004456541864","name":"Nha Gia"},"100005164236438":{"id":"100005164236438","name":"Hoa Mai"},"100004869400435":{"id":"100004869400435","name":"LyLy Nguyenngoc"},"100006646062110":{"id":"100006646062110","name":"Đặng Nguyệt"},"100007561894249":{"id":"100007561894249","name":"Phương Lý"},"100003669292626":{"id":"100003669292626","name":"Nhok Xinh"},"100000257464771":{"id":"100000257464771","name":"Trương Ngọc Điệp"},"100004871794179":{"id":"100004871794179","name":"Lee Mi Nguyen"},"745565751":{"id":"745565751","name":"Tuyen Hoang Thi"},"100004539612245":{"id":"100004539612245","name":"Trang Nguyễn"},"100004185816022":{"id":"100004185816022","name":"Gia Đê Tiện"},"100002892549628":{"id":"100002892549628","name":"Hải Hà"},"100007785703302":{"id":"100007785703302","name":"Thanh Soái"},"100003827256334":{"id":"100003827256334","name":"Tuyết Xuống Trần Gian"},"100004585720534":{"id":"100004585720534","name":"Phi Cối"},"100003287293423":{"id":"100003287293423","name":"Yêu Lại Từ Đầu"},"100003800798091":{"id":"100003800798091","name":"Kao Ri"},"100004079252921":{"id":"100004079252921","name":"Tình Yesterday"},"100005318497607":{"id":"100005318497607","name":"Ngọc Anh Lê"},"100004536125153":{"id":"100004536125153","name":"Hoàng Đàn"},"100001169630281":{"id":"100001169630281","name":"XeLu TuotXich"},"100004194190922":{"id":"100004194190922","name":"Meo Luoi"},"100003768667360":{"id":"100003768667360","name":"Cao Su Cao Su"},"100004481014042":{"id":"100004481014042","name":"Quảng Nguyên"},"100001448106319":{"id":"100001448106319","name":"Nguyen Anh"},"100004356254575":{"id":"100004356254575","name":"Co Be Xau Xi"},"100000271705877":{"id":"100000271705877","name":"Nguyễn Văn Minh"},"1462597562":{"id":"1462597562","name":"Intel Zhang"},"100004413608100":{"id":"100004413608100","name":"Thanh Thu"},"100005127511607":{"id":"100005127511607","name":"Cobe Kaun"},"100004753690388":{"id":"100004753690388","name":"Anh Tuấn"},"100000301610859":{"id":"100000301610859","name":"Yoshikata Takeshi"},"100005775182411":{"id":"100005775182411","name":"Tuấn Milo"},"100003978931285":{"id":"100003978931285","name":"Tuấn Nguyễn"},"100002615664668":{"id":"100002615664668","name":"PuPu Phương Elf"},"100007527360818":{"id":"100007527360818","name":"Ngọc Đức"},"100006308318274":{"id":"100006308318274","name":"Kim Dp"},"100004122307119":{"id":"100004122307119","name":"Ốc Xa Đọa"},"100002716525116":{"id":"100002716525116","name":"Nguyễn Tất Nguyên"},"100003830697766":{"id":"100003830697766","name":"Nhok Rua Cici"},"653264860":{"id":"653264860","name":"Duc Quang Pham"},"100001797875974":{"id":"100001797875974","name":"Đức Hạnh"},"100001193749870":{"id":"100001193749870","name":"Ông Văn Khiết"},"100000235598773":{"id":"100000235598773","name":"Phùng Thảo"},"100004069491515":{"id":"100004069491515","name":"Mai Pham"},"100004177749724":{"id":"100004177749724","name":"Nguyễn Phú Trí"},"100000513843528":{"id":"100000513843528","name":"Nhok Possible"},"100002492405890":{"id":"100002492405890","name":"Nguyen Van Thoa"},"100003115841931":{"id":"100003115841931","name":"Bánh Đa Cá Rô"},"100004348001227":{"id":"100004348001227","name":"Lâm Gia Kiu"},"100004141509084":{"id":"100004141509084","name":"Kẹo Kẹo"},"100004130556584":{"id":"100004130556584","name":"Khuong Tung"},"100002339089186":{"id":"100002339089186","name":"Thinh Nguyen Viet"}},"paging":{"cursors":{"after":"MTAwMDA4MTMzNjkwNjkx","before":"MTAwMDA4MTMzNjkwNjkx"},"next":"https://graph.facebook.com/229244010425617_841603142523031/likes?limit=1&summary=1&after=MTAwMDA4MTMzNjkwNjkx"},"summary":{"total_count":56}},"comments":{"data":{"841605672522778":{"id":"841605672522778","from":{"id":"100006859893056","name":"Yến Thanh"},"message":"Gét những thành phần này thế không biết, Đề nghị tích cực share ảnh tẩy chay những thành phần này","can_remove":false,"created_time":"2014-03-29T12:22:32+0000","like_count":3,"user_likes":false},"841614385855240":{"id":"841614385855240","from":{"id":"100007055220627","name":"Khoảnh Khắc"},"message":"May.....","can_remove":false,"created_time":"2014-03-29T12:38:32+0000","like_count":1,"user_likes":false},"841617609188251":{"id":"841617609188251","from":{"id":"100003464850672","name":"Sê Cô"},"message":"Cam on moi ng mong k ai bị lua nua","can_remove":false,"created_time":"2014-03-29T12:45:10+0000","like_count":0,"user_likes":false},"841618032521542":{"id":"841618032521542","from":{"id":"100003464850672","name":"Sê Cô"},"message":"","can_remove":false,"created_time":"2014-03-29T12:46:34+0000","like_count":0,"user_likes":false},"841618255854853":{"id":"841618255854853","from":{"id":"100003464850672","name":"Sê Cô"},"message":"Đay là tin nhan cua no, mong mọi ng lam chu g","can_remove":false,"created_time":"2014-03-29T12:47:12+0000","like_count":0,"user_likes":false},"841619099188102":{"id":"841619099188102","from":{"id":"100007055220627","name":"Khoảnh Khắc"},"message":"Bạn Hue Yamashironguyen ???","message_tags":[{"id":"100003875211691","name":"Hue Yamashironguyen","type":"user","offset":4,"length":19}],"can_remove":false,"created_time":"2014-03-29T12:49:14+0000","like_count":0,"user_likes":false},"841630402520305":{"id":"841630402520305","from":{"id":"100001416272263","name":"Mai PB"},"message":"Mang ra cảnh sát báo lừa đảo đi, nhớ mang theo biên lai chuyển tiền ngân hàng","can_remove":false,"created_time":"2014-03-29T13:14:36+0000","like_count":3,"user_likes":false},"841637565852922":{"id":"841637565852922","from":{"id":"100005547992963","name":"僕は りゅう"},"message":"mua bán mà cầm đằng lưỡi thế bạn","can_remove":false,"created_time":"2014-03-29T13:31:03+0000","like_count":3,"user_likes":false},"841741352509210":{"id":"841741352509210","from":{"id":"100007799982924","name":"Sống Là Phải Chất"},"message":"Toàn người việt lừa người việt. Kô chấp nhận đc","can_remove":false,"created_time":"2014-03-29T16:25:04+0000","like_count":1,"user_likes":false},"841930175823661":{"id":"841930175823661","from":{"id":"100003883612858","name":"Cậu Út"},"message":"Ko bằng súc vật","can_remove":false,"created_time":"2014-03-29T23:51:39+0000","like_count":1,"user_likes":false},"841932732490072":{"id":"841932732490072","from":{"id":"100005252490599","name":"Chí Phèo"},"message":"oa lam sao de nhan bjet dk cty hay nhug nguoj lua dao o day dk moj nguoj.","can_remove":false,"created_time":"2014-03-29T23:56:49+0000","like_count":0,"user_likes":false},"841958232487522":{"id":"841958232487522","from":{"id":"100006736295862","name":"Khanh Nguyên"},"message":"hay tin chinh ban than minh trc ban ah,ko can qua nhieu su tro giup tu nguoi ngoai","can_remove":false,"created_time":"2014-03-30T00:31:39+0000","like_count":0,"user_likes":false},"841970249152987":{"id":"841970249152987","from":{"id":"100006433341408","name":"Tam Mao"},"message":"May ngu thi chit","can_remove":false,"created_time":"2014-03-30T00:53:21+0000","like_count":0,"user_likes":false},"841998285816850":{"id":"841998285816850","from":{"id":"100003464850672","name":"Sê Cô"},"message":"","can_remove":false,"created_time":"2014-03-30T02:10:18+0000","like_count":0,"user_likes":false},"841999695816709":{"id":"841999695816709","from":{"id":"100000128242314","name":"Nagayama Sei"},"message":"Mat thang nay gian wa","can_remove":false,"created_time":"2014-03-30T02:14:38+0000","like_count":0,"user_likes":false}},"paging":{"cursors":{"after":"ODQxNjA1NjcyNTIyNzc4","before":"ODQxNjA1NjcyNTIyNzc4"},"next":"https://graph.facebook.com/229244010425617_841603142523031/comments?limit=1&summary=1&after=ODQxNjA1NjcyNTIyNzc4"},"summary":{"order":"chronological","total_count":15}}}