{"id":"229244010425617_841657715850907","type":"photo","object_id":"498075260304185","picture":"https://fbcdn-photos-c-a.akamaihd.net/hphotos-ak-frc3/t1.0-0/10152593_498075260304185_840673374_s.jpg","link":"https://www.facebook.com/photo.php?fbid=498075260304185&set=a.407649149346797.1073741828.407648479346864&type=1","from":{"id":"100006640721696","name":"Trần Thị Diệu Trang"},"created_time":"2014-03-29T14:11:51+0000","updated_time":"2014-03-29T16:12:26+0000","likes":{"data":{"100000021018532":{"id":"100000021018532","name":"Hương Nguyễn"},"100004857664746":{"id":"100004857664746","name":"Ông Virut"},"100002667117211":{"id":"100002667117211","name":"Nguyễn Cường"},"100001595320966":{"id":"100001595320966","name":"Nguyễn Nga"},"100002974724594":{"id":"100002974724594","name":"Mai Chu"},"100003702043787":{"id":"100003702043787","name":"Hằng Hanu"},"100007578121481":{"id":"100007578121481","name":"Nguyễn Hà Anh"},"1227859163":{"id":"1227859163","name":"Pham Hung Thinh"},"100004367679988":{"id":"100004367679988","name":"Kumi Nguyen"},"100005802612629":{"id":"100005802612629","name":"Hana Nguyen"},"100001775719325":{"id":"100001775719325","name":"Nguyễn Ngọc Trang"},"1065754114":{"id":"1065754114","name":"Koichiro Kume"},"100004445826984":{"id":"100004445826984","name":"Ong Noi Viet"},"100004490496995":{"id":"100004490496995","name":"Rai Chamu"},"100005051881072":{"id":"100005051881072","name":"Nhớ Nhớ"},"100006308318274":{"id":"100006308318274","name":"Kim Dp"}},"paging":{"cursors":{"after":"MTAwMDAwMDIxMDE4NTMy","before":"MTAwMDAwMDIxMDE4NTMy"},"next":"https://graph.facebook.com/229244010425617_841657715850907/likes?limit=1&summary=1&after=MTAwMDAwMDIxMDE4NTMy"},"summary":{"total_count":16}},"comments":{"data":{"841734265843252":{"id":"841734265843252","from":{"id":"100005802612629","name":"Hana Nguyen"},"message":"Hoài Katy Trần.vào đây mà học nek e.","message_tags":[{"id":"100004923780375","name":"Hoài Katy Trần","type":"user","offset":0,"length":14}],"can_remove":false,"created_time":"2014-03-29T16:12:26+0000","like_count":0,"user_likes":false}},"paging":{"cursors":{"after":"ODQxNzM0MjY1ODQzMjUy","before":"ODQxNzM0MjY1ODQzMjUy"}},"summary":{"order":"chronological","total_count":1}}}