{"id":"229244010425617_841703452513000","type":"status","from":{"id":"100000028932078","name":"Ngọc Mính"},"message":"Mình có hộp cà phê phin định tặng cho  チーフ nhưng chưa biết nói thế nào để ông ấy hiểu,ai biết thì bảo mình với,cà phê phin có phải là エスプレッソコーヒー ko ?\nよろしく","created_time":"2014-03-29T15:24:26+0000","updated_time":"2014-03-29T17:32:00+0000","likes":{"data":{"100000237467134":{"id":"100000237467134","name":"Định Hiếu"},"100001216346807":{"id":"100001216346807","name":"Anh Nguyễn"},"100004745953163":{"id":"100004745953163","name":"Bo Tròn Ngyễn"},"100008081041291":{"id":"100008081041291","name":"Linh Cherry"}},"paging":{"cursors":{"after":"MTAwMDAwMjM3NDY3MTM0","before":"MTAwMDAwMjM3NDY3MTM0"},"next":"https://graph.facebook.com/229244010425617_841703452513000/likes?limit=1&summary=1&after=MTAwMDAwMjM3NDY3MTM0"},"summary":{"total_count":4}},"comments":{"data":{"841704302512915":{"id":"841704302512915","from":{"id":"100000067699837","name":"Nguyễn Hải Phong"},"message":"giải thích bằng hình ảnh đi bạn","can_remove":false,"created_time":"2014-03-29T15:26:05+0000","like_count":1,"user_likes":false},"841706472512698":{"id":"841706472512698","from":{"id":"100004394924539","name":"Jinvôlối Nguyễn"},"message":"ブラックコーヒー","can_remove":false,"created_time":"2014-03-29T15:29:55+0000","like_count":0,"user_likes":false},"841706545846024":{"id":"841706545846024","from":{"id":"100001416272263","name":"Mai PB"},"message":"Cafe phin gọi là ドリップコーヒー.","can_remove":false,"created_time":"2014-03-29T15:30:02+0000","like_count":1,"user_likes":false},"841706999179312":{"id":"841706999179312","from":{"id":"100005734772637","name":"Daj Anh Hang"},"message":"フイルターコーヒー","can_remove":false,"created_time":"2014-03-29T15:30:48+0000","like_count":3,"user_likes":false},"841707542512591":{"id":"841707542512591","from":{"id":"100000028932078","name":"Ngọc Mính"},"message":"Cảm ơn mọi người,nhưng sao có nhiều cách gọi thế","can_remove":false,"created_time":"2014-03-29T15:31:49+0000","like_count":0,"user_likes":false},"841709029179109":{"id":"841709029179109","from":{"id":"100001416272263","name":"Mai PB"},"message":"ブラックコーヒー là cafe đen. フィルターコーヒー không có cách gọi đó, nhưng nói thì chắc người ta cũng hiểu. ドリップコーヒー là cách gọi chung các loại cafe phin, tức là pha cafe bằng filter giấy hoặc bằng phin cafe kiểu VN.","can_remove":false,"created_time":"2014-03-29T15:33:42+0000","like_count":4,"user_likes":false},"841709629179049":{"id":"841709629179049","from":{"id":"100004394924539","name":"Jinvôlối Nguyễn"},"message":"Thế cafe phin k phải cafe đen à? Mình cứ nghĩ nó là 1","can_remove":false,"created_time":"2014-03-29T15:35:09+0000","like_count":0,"user_likes":false},"841709785845700":{"id":"841709785845700","from":{"id":"100000028932078","name":"Ngọc Mính"},"message":"Vâng,e cảm ơn anh.e cũng thấy ở các siêu thị ng ta bán nhiều các cái giấy để lọc cafe,nhưng ko biết gọi thế nào","can_remove":false,"created_time":"2014-03-29T15:35:32+0000","like_count":0,"user_likes":false},"841710882512257":{"id":"841710882512257","from":{"id":"100005734772637","name":"Daj Anh Hang"},"message":"コーヒーグラインダーcung dung dc trong truong hop nay ban nhe","can_remove":false,"created_time":"2014-03-29T15:37:30+0000","like_count":0,"user_likes":false},"841711382512207":{"id":"841711382512207","from":{"id":"100001416272263","name":"Mai PB"},"message":"コーヒーグラインダー là máy xay hạt cafe bạn nhé","can_remove":false,"created_time":"2014-03-29T15:38:25+0000","like_count":1,"user_likes":false},"841711962512149":{"id":"841711962512149","from":{"id":"100001416272263","name":"Mai PB"},"message":"Giấy lọc gọi là 紙フィルター","can_remove":false,"created_time":"2014-03-29T15:39:35+0000","like_count":1,"user_likes":false},"841714545845224":{"id":"841714545845224","from":{"id":"100005734772637","name":"Daj Anh Hang"},"message":"ドリップコーヒーLa càe","can_remove":false,"created_time":"2014-03-29T15:43:58+0000","like_count":0,"user_likes":false},"841715032511842":{"id":"841715032511842","from":{"id":"100005734772637","name":"Daj Anh Hang"},"message":"Cafe nhỏ giot tuc La cafe phin dap an nay dc day","can_remove":false,"created_time":"2014-03-29T15:45:34+0000","like_count":0,"user_likes":false},"841715585845120":{"id":"841715585845120","from":{"id":"100002334361243","name":"Ông Cu Non"},"message":"Bạn dốt lắm ng nhật họ ko muốn bạn giải thích thế đâu đó là sự khinh thường khi bạn đưa món quà nhỏ chỉ cần nói là quà từ qe hương chứ họ nhìn là họcbieet ngay","can_remove":false,"created_time":"2014-03-29T15:46:51+0000","like_count":0,"user_likes":false},"841715629178449":{"id":"841715629178449","from":{"id":"1227859163","name":"Pham Hung Thinh"},"message":"レギュラーコーヒー: cà phê cần phải: hoặc cho vào phin, giấy lọc, máy pha cafe .... để pha thì mới uống được, dùng cặp với インスタントコーヒー là　cf pha sẵn, chỉ cần đổ nước sôi vào khoắng mới uống được","can_remove":false,"created_time":"2014-03-29T15:46:59+0000","like_count":0,"user_likes":false},"841716759178336":{"id":"841716759178336","from":{"id":"100002334361243","name":"Ông Cu Non"},"message":"Mình đảm bảo họ ko thích vì chắc chắn họ ko có thời gian để  ngồi chờ một tách cafe","can_remove":false,"created_time":"2014-03-29T15:49:18+0000","like_count":0,"user_likes":false},"841717512511594":{"id":"841717512511594","from":{"id":"1227859163","name":"Pham Hung Thinh"},"message":"Ông Cu Non: ko phải là thích hay ko thích, có quà là có cả tấm lòng rồi, bạn ấy tặng là quý rồi bạn ko phải care họ có tg hay không :p","message_tags":[{"id":"100002334361243","name":"Ông Cu Non","type":"user","offset":0,"length":10}],"can_remove":false,"created_time":"2014-03-29T15:50:51+0000","like_count":0,"user_likes":false},"841718075844871":{"id":"841718075844871","from":{"id":"100002334361243","name":"Ông Cu Non"},"message":"Tại mình thấy cái stt nó ảo quá thôi thông cảm","can_remove":false,"created_time":"2014-03-29T15:52:01+0000","like_count":1,"user_likes":false},"841723162511029":{"id":"841723162511029","from":{"id":"100000028932078","name":"Ngọc Mính"},"message":"Có bạn Cu Non ah.họ dùng giấy để lọc,pha chứ ko dùng phin.làm việc nhiều thì cũng phải biết thưởng thức.trong lúc đợi họ làm việc khác,có sao đâu","can_remove":false,"created_time":"2014-03-29T15:53:39+0000","like_count":0,"user_likes":false},"841724992510846":{"id":"841724992510846","from":{"id":"100002334361243","name":"Ông Cu Non"},"message":"Chứ sao trên kia bạn nói là muốn hỏi cái fin","can_remove":false,"created_time":"2014-03-29T15:55:05+0000","like_count":0,"user_likes":false},"841725089177503":{"id":"841725089177503","from":{"id":"100002334361243","name":"Ông Cu Non"},"message":"Mà hình thưc ko quan trọng đâu","can_remove":false,"created_time":"2014-03-29T15:55:21+0000","like_count":0,"user_likes":false},"841725522510793":{"id":"841725522510793","from":{"id":"100002334361243","name":"Ông Cu Non"},"message":"Qan trọng là cách bạn đưa cho ông ta có phù hợp ko thôi","can_remove":false,"created_time":"2014-03-29T15:56:02+0000","like_count":0,"user_likes":false},"841742465842432":{"id":"841742465842432","from":{"id":"1349577898","name":"Dương Uyên"},"message":"Ông Cu Non ngta tặng trc hết đó là tấm lòng của ngta đã, thích hay ko thì đó việc của ng đc nhận, dù ko có ích nhưng họ vẫn vui vì đc trân trọng. Bạn lấy tư cách gì mà nói ngta dốt! Vả lại ko phải ng Nhật nào cũng ko thích cafe phin bạn nhé! Thầy ng Nhật dạy mình rất thích đấy!","message_tags":[{"id":"100002334361243","name":"Ông Cu Non","type":"user","offset":0,"length":10}],"can_remove":false,"created_time":"2014-03-29T16:28:41+0000","like_count":1,"user_likes":false},"841750282508317":{"id":"841750282508317","from":{"id":"100002334361243","name":"Ông Cu Non"},"message":"B ko pai them dầu vào lửa nếu b ko hiểu lời tớ nói thì đùng cmt tầm bậy . Đây là trang cộng đồng bạn ý hỏi ý kiến nên ai là thành viên đều có thể cmt mình nói ngắn bạn có hiểu chưa?","can_remove":false,"created_time":"2014-03-29T16:31:57+0000","like_count":0,"user_likes":false},"841751275841551":{"id":"841751275841551","from":{"id":"1349577898","name":"Dương Uyên"},"message":"Okie, cứ coi như ko hiểu. Đương nhiên là bạn có quyền đưa ra ý kiến nhưng bạn ko thể nói 1 cách lịch sự hơn à! Bạn nói ngta dốt thì bạn mới là ng châm lửa trc đấy! Còn nội dung bạn đề cập mình ko bàn tới nữa đc chưa! Mình nói dài cũng mong bạn sẽ hiểu!","can_remove":false,"created_time":"2014-03-29T16:35:14+0000","like_count":0,"user_likes":false},"841751755841503":{"id":"841751755841503","from":{"id":"100003398911005","name":"Họ Tạ Tên Nam"},"message":"nói là cà phê việt nam tên nó là phin :)) cách sử dụng hết giơf làm sẽ làm mẫu cho :)) đỡ phải nói nhiều :))","can_remove":false,"created_time":"2014-03-29T16:36:48+0000","like_count":0,"user_likes":false},"841754415841237":{"id":"841754415841237","from":{"id":"100002334361243","name":"Ông Cu Non"},"message":"Ok tốt nhất ko nói đỡ mệt","can_remove":false,"created_time":"2014-03-29T16:43:55+0000","like_count":0,"user_likes":false},"841760752507270":{"id":"841760752507270","from":{"id":"100000469475474","name":"Hùng Nguyễn Duy"},"message":"Họ ko uống đâu :v  người Nhật ko dùng những đồ ko rõ nguồn gốc, ở cty m cung tạng cafe , thuốc lá nhưng họ k dùng","can_remove":false,"created_time":"2014-03-29T17:00:43+0000","like_count":0,"user_likes":false},"841761219173890":{"id":"841761219173890","from":{"id":"100003398911005","name":"Họ Tạ Tên Nam"},"message":"hôm nọ mình rủ 2 thằng cấp 3 hút cần chúng nó cũng hút đó có sao đâu","can_remove":false,"created_time":"2014-03-29T17:02:04+0000","like_count":1,"user_likes":false},"841761492507196":{"id":"841761492507196","from":{"id":"100002334361243","name":"Ông Cu Non"},"message":"Có lăn ra ko","can_remove":false,"created_time":"2014-03-29T17:03:02+0000","like_count":0,"user_likes":false},"841761579173854":{"id":"841761579173854","from":{"id":"100002334361243","name":"Ông Cu Non"},"message":"Chúng nó nhìn thấy cần là mắt sáng lắm","can_remove":false,"created_time":"2014-03-29T17:03:16+0000","like_count":0,"user_likes":false},"841772022506143":{"id":"841772022506143","from":{"id":"100006567461873","name":"Hoa HoaThuong"},"message":"á đù, không nhận thì cầm về ae chiến hộ cho :3","can_remove":false,"created_time":"2014-03-29T17:32:00+0000","like_count":0,"user_likes":false}},"paging":{"cursors":{"after":"ODQxNzA0MzAyNTEyOTE1","before":"ODQxNzA0MzAyNTEyOTE1"},"next":"https://graph.facebook.com/229244010425617_841703452513000/comments?limit=1&summary=1&after=ODQxNzA0MzAyNTEyOTE1"},"summary":{"order":"chronological","total_count":32}}}