{"id":"229244010425617_841733615843317","type":"photo","object_id":"664350370290727","picture":"https://fbcdn-photos-a-a.akamaihd.net/hphotos-ak-frc3/t1.0-0/1175194_664350370290727_699182957_s.jpg","link":"https://www.facebook.com/photo.php?fbid=664350370290727&set=gm.841733615843317&type=1&relevant_count=1","from":{"id":"100001473097222","name":"Chung Liên"},"message":"Mình đang mún tìm 1 phòng trọ 14-20m2 tại Kita-ku, Tokyo, giá cả phải chăng, đã có đồ đạc. Có cao nhân nào biết thông tin về phòng trọ, vui lòng cho mình biết thông tin nhé. Mình học trường A.T.I Tokyo Japanese School. Rất mong được giúp đỡ.\nDoumo arigatou ^_^","created_time":"2014-03-29T16:11:17+0000","updated_time":"2014-03-30T01:39:09+0000","likes":{"data":{"100004889430124":{"id":"100004889430124","name":"Quiet Man"},"100005127511607":{"id":"100005127511607","name":"Cobe Kaun"},"100003282697164":{"id":"100003282697164","name":"Nguyễn Văn Vương"},"100002262262717":{"id":"100002262262717","name":"Quả Táo Mèo"},"100001432462223":{"id":"100001432462223","name":"Truong Nguyen"},"100004973283998":{"id":"100004973283998","name":"Hoai Dang"},"100001595320966":{"id":"100001595320966","name":"Nguyễn Nga"},"100003183141444":{"id":"100003183141444","name":"Chi Lê"}},"paging":{"cursors":{"after":"MTAwMDA0ODg5NDMwMTI0","before":"MTAwMDA0ODg5NDMwMTI0"},"next":"https://graph.facebook.com/229244010425617_841733615843317/likes?limit=1&summary=1&after=MTAwMDA0ODg5NDMwMTI0"},"summary":{"total_count":8}},"comments":{"data":{"841737302509615":{"id":"841737302509615","from":{"id":"100001416272263","name":"Mai PB"},"message":"Em vào đây hỏi mấy bạn này.\nhttps://www.facebook.com/notes/833103253373020","can_remove":false,"created_time":"2014-03-29T16:17:54+0000","like_count":1,"user_likes":false},"841738855842793":{"id":"841738855842793","from":{"id":"100001473097222","name":"Chung Liên"},"message":"Em cảm ơn anh Mai PB nhìu ạ:)","message_tags":[{"id":"100001416272263","name":"Mai PB","type":"user","offset":14,"length":6}],"can_remove":false,"created_time":"2014-03-29T16:19:42+0000","like_count":0,"user_likes":false},"841751299174882":{"id":"841751299174882","from":{"id":"100005801442456","name":"An Nguyen"},"message":"E biết tiếng k ?","can_remove":false,"created_time":"2014-03-29T16:35:20+0000","like_count":0,"user_likes":false},"841751659174846":{"id":"841751659174846","from":{"id":"100001473097222","name":"Chung Liên"},"message":"An Nguyen ý anh là tiếng Nhật ạ?\nEm tự học, mới đến bài 25, nhưng giao tiếp tệ lắm^^\nTiếng Anh thì em ok :)","message_tags":[{"id":"100005801442456","name":"An Nguyen","type":"user","offset":0,"length":9}],"can_remove":false,"created_time":"2014-03-29T16:36:33+0000","like_count":0,"user_likes":false},"841752905841388":{"id":"841752905841388","from":{"id":"100005801442456","name":"An Nguyen"},"message":"Anh biết 1 Cty nhà này, nói chung thuộc dạng \" bự bự \", nhà trước kia của anh cũng nhờ ở đâu giúp tìm. Anh cũng đi nhiều Cty bất động sản nhưng thấy chỗ này ít mè nheo với màu mè như mấy chỗ kia, em đi được thì a giới thiệu địa chỉ cho tự đến. Anh cũng bận nên không đi đc :)","can_remove":false,"created_time":"2014-03-29T16:39:36+0000","like_count":0,"user_likes":false},"841753592507986":{"id":"841753592507986","from":{"id":"100001473097222","name":"Chung Liên"},"message":"An Nguyen ôi tốt quá ạ^^\n8.4 em sang, chắc em sẽ qua tìm hiểu lun, anh cho em địa chỉ với ạ. Thật sự cảm ơn :)","message_tags":[{"id":"100005801442456","name":"An Nguyen","type":"user","offset":0,"length":9}],"can_remove":false,"created_time":"2014-03-29T16:41:21+0000","like_count":0,"user_likes":false},"841754285841250":{"id":"841754285841250","from":{"id":"100005801442456","name":"An Nguyen"},"message":"Là sao ! 8/4 sang ở đâu @.@ ?!?","can_remove":false,"created_time":"2014-03-29T16:43:28+0000","like_count":0,"user_likes":false},"841754592507886":{"id":"841754592507886","from":{"id":"100001473097222","name":"Chung Liên"},"message":"Em ở tạm với 1 ng bạn, nhưng chỉ muốn nhờ vả bạn í 1 thời gian thôi^^","can_remove":false,"created_time":"2014-03-29T16:44:18+0000","like_count":0,"user_likes":false},"841755082507837":{"id":"841755082507837","from":{"id":"100005801442456","name":"An Nguyen"},"message":"Có nhiêu tiền và muốn ở khu vực nào ?","can_remove":false,"created_time":"2014-03-29T16:45:57+0000","like_count":0,"user_likes":false},"841755719174440":{"id":"841755719174440","from":{"id":"100001473097222","name":"Chung Liên"},"message":"Em có viết ở trên rùi đấy anh, em học A.T.I, Tabatashin-machi, Kita-ku. Nên tìm được phòng gần trường là tốt nhất ạ :)","can_remove":false,"created_time":"2014-03-29T16:47:26+0000","like_count":0,"user_likes":false},"841755935841085":{"id":"841755935841085","from":{"id":"100001473097222","name":"Chung Liên"},"message":"Tiền nong thì giá cả càng phải chăng càng tốt :)","can_remove":false,"created_time":"2014-03-29T16:48:09+0000","like_count":0,"user_likes":false},"841756225841056":{"id":"841756225841056","from":{"id":"100005801442456","name":"An Nguyen"},"message":"Phải chăng ?!? Là bao nhiêu @.@! Sai lầm mấy bạn mới sang là cứ thích ơr gần trường và kiếm mấy tuyến tàu 中央線 hay 山手線 mà  ở ! Nhật còn chả dám ở, mà dhs cứ thích bám vào! Khổ thật!","can_remove":false,"created_time":"2014-03-29T16:49:14+0000","like_count":1,"user_likes":false},"841758215840857":{"id":"841758215840857","from":{"id":"100004481014042","name":"Quảng Nguyên"},"message":"Chị là bạn của chị dung ag","can_remove":false,"created_time":"2014-03-29T16:53:56+0000","like_count":0,"user_likes":false},"841759385840740":{"id":"841759385840740","from":{"id":"100001473097222","name":"Chung Liên"},"message":"An Nguyen bản thân em cũng chưa sang nên chưa hình dung hết được các vấn đề cs bên đó, nghe bạn bè tư vấn thì biết vậy thôi. Với em, Nhật là một môi trường tốt để rèn luyện bản thân, không đi sao biết chân cứng đá mềm?\nMỗi ng sang Nhật có mục đích riêng, hãy tôn trọng sự lựa chọn của họ, mỗi sự lựa chọn đều có ý nghĩa của nó trong cs, dù ít hay nhiều :)\nEm nghĩ mức giá 5-7 man thì ok, cũng phải cân đối tiền đầu vào. Một cái phòng tốt căn cứ nhiều yếu tố, có thể giá phòng hơi đắt nhưng các yếu tố khác ok thì cũng có thể chấp nhận được","message_tags":[{"id":"100005801442456","name":"An Nguyen","type":"user","offset":0,"length":9}],"can_remove":false,"created_time":"2014-03-29T16:57:41+0000","like_count":2,"user_likes":false},"841759459174066":{"id":"841759459174066","from":{"id":"1146680551","name":"優しい なぁ"},"message":"Chưa có chỗ ở thì e qua chỗ An Nguyen ở tạm cũng đc đó e ời","can_remove":false,"created_time":"2014-03-29T16:57:59+0000","like_count":1,"user_likes":false},"841760279173984":{"id":"841760279173984","from":{"id":"100004481014042","name":"Quảng Nguyên"},"message":"Qua bên nhà em ở này :))","can_remove":false,"created_time":"2014-03-29T16:59:31+0000","like_count":1,"user_likes":false},"841760335840645":{"id":"841760335840645","from":{"id":"100000708958288","name":"Mizu Le"},"message":"E làm bên tìm nhà nè","can_remove":false,"created_time":"2014-03-29T16:59:42+0000","like_count":0,"user_likes":false},"841760359173976":{"id":"841760359173976","from":{"id":"100004481014042","name":"Quảng Nguyên"},"message":"Chị là bạn của chị dung chắc luôn","can_remove":false,"created_time":"2014-03-29T16:59:47+0000","like_count":1,"user_likes":false},"841760499173962":{"id":"841760499173962","from":{"id":"100000708958288","name":"Mizu Le"},"message":"anh chị hay các bạn nào cần thì liên lạc e sẽ hết mình giúp","can_remove":false,"created_time":"2014-03-29T17:00:16+0000","like_count":0,"user_likes":false},"841760835840595":{"id":"841760835840595","from":{"id":"100001473097222","name":"Chung Liên"},"message":"Quảng Nguyên: bít rùi còn hỏi chi nữa hả em ;)","can_remove":false,"created_time":"2014-03-29T17:00:55+0000","like_count":1,"user_likes":false},"841761002507245":{"id":"841761002507245","from":{"id":"100001473097222","name":"Chung Liên"},"message":"Mizu Le plz inbox với mình nhé :)","message_tags":[{"id":"100000708958288","name":"Mizu Le","type":"user","offset":0,"length":7}],"can_remove":false,"created_time":"2014-03-29T17:01:32+0000","like_count":0,"user_likes":false},"841761399173872":{"id":"841761399173872","from":{"id":"100005801442456","name":"An Nguyen"},"message":"Uhm, cứ qua đi, nếu có j thắc mắc thì inbox anh.","can_remove":false,"created_time":"2014-03-29T17:02:32+0000","like_count":0,"user_likes":false},"841762239173788":{"id":"841762239173788","from":{"id":"100001473097222","name":"Chung Liên"},"message":"An Nguyen hi, tạm thời em k thắc mắc gì cả, em có xin anh địa chỉ của cty nhà đất mà anh vẫn chưa nhắn cho em đấy ;)\nAnh mà k nhắn thì hôm sau em tìm đến tận nhà anh, nhờ anh dẫn đi :D","message_tags":[{"id":"100005801442456","name":"An Nguyen","type":"user","offset":0,"length":9}],"can_remove":false,"created_time":"2014-03-29T17:05:08+0000","like_count":0,"user_likes":false},"841763845840294":{"id":"841763845840294","from":{"id":"100005801442456","name":"An Nguyen"},"message":"OK, trừ cuối tuần.","can_remove":false,"created_time":"2014-03-29T17:10:08+0000","like_count":0,"user_likes":false},"841764535840225":{"id":"841764535840225","from":{"id":"100000708958288","name":"Mizu Le"},"message":"An Nguyen a tìm nhà sao ko kím e","message_tags":[{"id":"100005801442456","name":"An Nguyen","type":"user","offset":0,"length":9}],"can_remove":false,"created_time":"2014-03-29T17:11:51+0000","like_count":0,"user_likes":false},"841764555840223":{"id":"841764555840223","from":{"id":"100001473097222","name":"Chung Liên"},"message":"An Nguyen anh vẫn chưa nhắn cho em địa chỉ...ý anh là anh dẫn em đi thật hả (mặt bắt đầu ngu^^) :P","message_tags":[{"id":"100005801442456","name":"An Nguyen","type":"user","offset":0,"length":9}],"can_remove":false,"created_time":"2014-03-29T17:11:56+0000","like_count":0,"user_likes":false},"841764765840202":{"id":"841764765840202","from":{"id":"100000708958288","name":"Mizu Le"},"message":"Hjhj mà a có làm ở siêu thị olympic ga okubo ko ....","can_remove":false,"created_time":"2014-03-29T17:12:33+0000","like_count":0,"user_likes":false},"841765029173509":{"id":"841765029173509","from":{"id":"100000708958288","name":"Mizu Le"},"message":"Bạn Chung Liên kiu mình ib xong ko thèm tl lun","message_tags":[{"id":"100001473097222","name":"Chung Liên","type":"user","offset":4,"length":10}],"can_remove":false,"created_time":"2014-03-29T17:13:25+0000","like_count":0,"user_likes":false},"841765549173457":{"id":"841765549173457","from":{"id":"100001473097222","name":"Chung Liên"},"message":"Mizu Le thật xin lỗi bạn, nãy h nhìu tin nhắn đến nên mình cũng quên chưa trả lời b ngay, k cố ý đâu, thật xin lỗi^^","message_tags":[{"id":"100000708958288","name":"Mizu Le","type":"user","offset":0,"length":7}],"can_remove":false,"created_time":"2014-03-29T17:14:42+0000","like_count":0,"user_likes":false},"841765685840110":{"id":"841765685840110","from":{"id":"100005801442456","name":"An Nguyen"},"message":"Mizu le : anh có chân mà :)), a thích tự làm hơn là nhờ ai trước khi \" động đậy \" . Với kiếm nhà có j đâu mà :), chừng nào kiếm bạn gái rồi hãy liên lạc  với em :3.\n\nChung liên : đợi anh về mở mail anh đã, h đang đi làm.  Còn qua đây nếu k đi đc thì a có thể dẫn đi.","can_remove":false,"created_time":"2014-03-29T17:14:55+0000","like_count":0,"user_likes":false},"841766119173400":{"id":"841766119173400","from":{"id":"100000708958288","name":"Mizu Le"},"message":"Haha đc nhoa... nhưng cái này mà kiếm là hơi căng ah","can_remove":false,"created_time":"2014-03-29T17:15:38+0000","like_count":1,"user_likes":false},"841881205828558":{"id":"841881205828558","from":{"id":"100001243411261","name":"Ngưu Tỷ Tỷ"},"message":"thấy cái ảnh khiến mấy anh đứt cả ruột:))","can_remove":false,"created_time":"2014-03-29T22:01:04+0000","like_count":1,"user_likes":false},"841985822484763":{"id":"841985822484763","from":{"id":"100000270917152","name":"Hoàng Anh Tuân"},"message":"http://cs.chintai.net/sp/detail.html?shop_id=C01004421&bukken_id=009061&room_id=001&bk=list","can_remove":false,"created_time":"2014-03-30T01:38:42+0000","like_count":1,"user_likes":false},"841985939151418":{"id":"841985939151418","from":{"id":"100000270917152","name":"Hoàng Anh Tuân"},"message":"Bạn thử xem mấy nhà ở đây xem","can_remove":false,"created_time":"2014-03-30T01:39:09+0000","like_count":1,"user_likes":false}},"paging":{"cursors":{"after":"ODQxNzM3MzAyNTA5NjE1","before":"ODQxNzM3MzAyNTA5NjE1"},"next":"https://graph.facebook.com/229244010425617_841733615843317/comments?limit=1&summary=1&after=ODQxNzM3MzAyNTA5NjE1"},"summary":{"order":"chronological","total_count":34}}}