{"id":"229244010425617_841903002493045","type":"status","from":{"id":"100001719655122","name":"Hoàng Công Kiên"},"message":"Mọi người cho ý kiến về một câu chuyện này nha\nA: em qua đây kỳ tháng mấy?\nB: em qua tháng 1\nA: thế em học ở đâu?\nB: em học ở kobe\nA: thế đi làm ở đây cũng gần rồi tiện quá rồi còn gì.\nB: không gần tẹo nào ngày nào cũng đi đi lại lại mất mấy tiếng\nA: sao lại vậy ở chỗ làm này gần chỗ trường em mà\nB: trường em ở gần nhưng mà em bị một người ở bên này liên kết với công ty ở việt nam lừa thuê nhà hộ với giá rẻ, nhưng ko hề rẻ tẹo nào bọn em học ở kobe mà bị chị kia thuê nhà cho ở osaka ngày nào cũng mất mấy tiếng đi tầu đi học và đi làm.\n Đã thế khi mới qua chị đó đến sân bay đón bọn em về ktx đứa đên ktx xong chị ta đi đâu mấy hôm không đến. Làm bọn em ở đó chẳng dám đi đâu phòng thì không có gì chăn chiếu không có. Mấy hôm sau chị ta quay lại bảo bị ốm ko tới dẫn đi mua đồ đc. Dẫn bọn e đi làm điện thoại thì đăng ký từ nhà mạng này chuyển qua nhà mạng khác lấy tiền nhà mạng cho vì chúng em mới qua ko biết gì khi có giấy thông báo lộp tiền huỷ hợp đồng mí biết là bị lừa. Vấn đề nhà ở cũng bị lừa khi ở Việt Nam chị ta có nói với cty là nhà ở bên này đầy đủ tiên nghi rồi chỉ việc đên ở thôi, nhưng hơn hai tháng ko thấy có máy giặt hỏi chị ta thì chị ta bảo là mấy hôm nữa công ty nhà đất chuyển đên.\nA: thế sau công ty có chuyển đến ko?\nB: không gọi điện cho chị ta chị ta còn không thèm nge máy\nA: thế sao ko trả phòng chuyển xuống gần trường cho rẻ chứ đi lại thế mất thời gian\nB: em bảo trả phòng thì chị ta bảo ko đc. Em mà trả thì bị thu hết số tiền em hợp đông nhà mấy tháng đó và bị phạt thêm một tháng tiền nhà nữa\nA: thê tên chị đó là gì\nB: tên là Huyền trước có nikh fb là viêt nhât\nKết thúc câu chuyện vì bị người nhật nhắc nhở nói chuyện trong giờ làm việc","created_time":"2014-03-29T23:10:25+0000","updated_time":"2014-03-30T11:31:49+0000","likes":{"data":{"100001571041179":{"id":"100001571041179","name":"Khôi Nguyễn Văn"},"100008133690691":{"id":"100008133690691","name":"Con Yêu Mẹ"},"100001705570585":{"id":"100001705570585","name":"Nguyễn Linh"},"100002999594043":{"id":"100002999594043","name":"Sơn Tinh"},"792083330":{"id":"792083330","name":"Duc Le"},"100002945776077":{"id":"100002945776077","name":"Hoàng Mạnh Cường"},"100004492933662":{"id":"100004492933662","name":"Sorakira Bui"},"100000210436855":{"id":"100000210436855","name":"Hieu Muoi"},"100003913383051":{"id":"100003913383051","name":"Tho Tran"},"100002508122689":{"id":"100002508122689","name":"Vũ Mạnh Tuấn"},"100000109169227":{"id":"100000109169227","name":"Lê Hữu Ngọc"},"100000603915176":{"id":"100000603915176","name":"悪いな ぁ"},"100003167606106":{"id":"100003167606106","name":"Trang Mèo"},"100003834926615":{"id":"100003834926615","name":"Ngô Vĩnh Ngọc"},"1227859163":{"id":"1227859163","name":"Pham Hung Thinh"},"100003069255510":{"id":"100003069255510","name":"Viên Đá Nhỏ"},"100004362480675":{"id":"100004362480675","name":"Đi Tìm Thất Bại"},"100005980532801":{"id":"100005980532801","name":"Tình Yêu Gió"},"100005026902161":{"id":"100005026902161","name":"Pham Tien"},"100007064374589":{"id":"100007064374589","name":"Viec Lam Osaka"},"100000240933989":{"id":"100000240933989","name":"Tiểu Phụng"},"100003181743412":{"id":"100003181743412","name":"Pham Kha"},"100003945224089":{"id":"100003945224089","name":"Nhím Xù"},"100003142671913":{"id":"100003142671913","name":"Hoa Hồng Đen"},"100002615664668":{"id":"100002615664668","name":"PuPu Phương Elf"},"100007293188338":{"id":"100007293188338","name":"Dương Lê"},"100001059086820":{"id":"100001059086820","name":"Nguyễn Thành Long"},"100007491822270":{"id":"100007491822270","name":"Tâm Kem"},"100005658632451":{"id":"100005658632451","name":"Sòi Nguyễn"},"100006208266390":{"id":"100006208266390","name":"Memory Hd"},"100007238765021":{"id":"100007238765021","name":"Vy Nhí Nhảnh"},"100004075308762":{"id":"100004075308762","name":"Lie Lie"},"100006529537466":{"id":"100006529537466","name":"Kiều Anhh"},"100000500260636":{"id":"100000500260636","name":"Lưu Nguyễn Thảo Tiên"},"100006564879997":{"id":"100006564879997","name":"My HatTieu"},"100003855847350":{"id":"100003855847350","name":"Khanh Tran"}},"paging":{"cursors":{"after":"MTAwMDAxNTcxMDQxMTc5","before":"MTAwMDAxNTcxMDQxMTc5"},"next":"https://graph.facebook.com/229244010425617_841903002493045/likes?limit=1&summary=1&after=MTAwMDAxNTcxMDQxMTc5"},"summary":{"total_count":36}},"comments":{"data":{"841903835826295":{"id":"841903835826295","from":{"id":"100002817600730","name":"Minh Anh Vg"},"message":"qua Nhật rồi chẳng tin ai được hoàn toàn đâu, mình cũng vừa bị 1 cú, đành tự nhủ là phải tự học cách nghi ngờ và chủ động hỏi từ nhiều phía, chứ không tin đc lời của 1 ai cả đâu. :v","can_remove":false,"created_time":"2014-03-29T23:13:27+0000","like_count":1,"user_likes":false},"841904095826269":{"id":"841904095826269","from":{"id":"100006089102969","name":"カメ 悪い"},"message":"大阪 xuống 神戸 đếu gì mấy tiếng tàu\nTừ 京都 xuống đến 三ノ宮 có hơn tiếng tàu :s","can_remove":false,"created_time":"2014-03-29T23:14:44+0000","like_count":1,"user_likes":false},"841904682492877":{"id":"841904682492877","from":{"id":"100002428163247","name":"Trần Đức Hùng"},"message":"Có nhất thiết trong câu là phải có từ đệm không 悪い❓","can_remove":false,"created_time":"2014-03-29T23:16:38+0000","like_count":4,"user_likes":false},"841907019159310":{"id":"841907019159310","from":{"id":"100006089102969","name":"カメ 悪い"},"message":"Thô thật\nCòn hơn miệng nam mô bụng bồ dao găm\nTỏ vẻ học thức đạo đức nọ kia cơ mà bụng chắc găm cả mớ dao 😁","can_remove":false,"created_time":"2014-03-29T23:20:38+0000","like_count":0,"user_likes":false},"841907159159296":{"id":"841907159159296","from":{"id":"100002817600730","name":"Minh Anh Vg"},"message":"bình tĩnh nào :v cuối tuần nếu nóng quá thì nên ra đường hứng gió đi :v","can_remove":false,"created_time":"2014-03-29T23:20:58+0000","like_count":0,"user_likes":false},"841909002492445":{"id":"841909002492445","from":{"id":"100002428163247","name":"Trần Đức Hùng"},"message":"À! Chạm tự ái cơ, thôi thì kệ vậy:), xin lỗi chủ thớt vì câu không liên quan.","can_remove":false,"created_time":"2014-03-29T23:24:39+0000","like_count":2,"user_likes":false},"841909009159111":{"id":"841909009159111","from":{"id":"100005596470828","name":"Hoàng Sup Hyo"},"message":"Phải gọi là ra ga ngồi lên nóc sinkanshen chứ trên đó nhiều gió lắm :v","can_remove":false,"created_time":"2014-03-29T23:24:40+0000","like_count":0,"user_likes":false},"841909265825752":{"id":"841909265825752","from":{"id":"100000500260636","name":"Lưu Nguyễn Thảo Tiên"},"message":"Chú カメnói bậy quá nhá! Xoá cmm nhé.\n三ノ宮giáp kobe thôi mà!","can_remove":false,"created_time":"2014-03-29T23:25:17+0000","like_count":1,"user_likes":false},"841910245825654":{"id":"841910245825654","from":{"id":"100005596470828","name":"Hoàng Sup Hyo"},"message":"Nghe bảo trên coobe hay động đất lắm ae sống trên đó cẩn thận nhá :))","can_remove":false,"created_time":"2014-03-29T23:26:50+0000","like_count":0,"user_likes":false},"841910595825619":{"id":"841910595825619","from":{"id":"100001876928704","name":"Kien Nguyen"},"message":"Lần sau đăng có đầu có cuối chút . Mấy bài kiểu này chỉ khiến ae mệt mỏi và nản trí chứ chả ích lợi j ...","can_remove":false,"created_time":"2014-03-29T23:27:45+0000","like_count":2,"user_likes":false},"841911532492192":{"id":"841911532492192","from":{"id":"100006089102969","name":"カメ 悪い"},"message":"三ノ宮駅 ga to nhất nổi tiếng nhất 神戸 nằm ở trung tâm 中央区 của 神戸 dám văng câu nằm gần 神戸 =))\nXin lỗi cái bạn thích soi mói mình đếch nhờn nhé","can_remove":false,"created_time":"2014-03-29T23:30:19+0000","like_count":0,"user_likes":false},"841915429158469":{"id":"841915429158469","from":{"id":"100005801442456","name":"An Nguyen"},"message":"Này bạn Kame, bạn là người đc nhắc nhở chắc nhiều nhất cái diễn đàn này, nhưng mãi đến giờ bạn vẫn không thay đổi cách nc của mình. Bạn nghĩ  đây là nơi bạn có thể thích nói gì thì nói à? Hay k ai dám làm j bạn ?","can_remove":false,"created_time":"2014-03-29T23:35:41+0000","like_count":1,"user_likes":false},"841926865823992":{"id":"841926865823992","from":{"id":"100000500260636","name":"Lưu Nguyễn Thảo Tiên"},"message":"Ồ vậy Umeda là trung tâm Osaka sao?","can_remove":false,"created_time":"2014-03-29T23:42:04+0000","like_count":0,"user_likes":false},"841927119157300":{"id":"841927119157300","from":{"id":"100006089102969","name":"カメ 悪い"},"message":"Thôi mình vái =))))))","can_remove":false,"created_time":"2014-03-29T23:42:45+0000","like_count":0,"user_likes":false},"841927659157246":{"id":"841927659157246","from":{"id":"100006089102969","name":"カメ 悪い"},"message":"@an nguyen mình sống thoải mái vs mình chứ k sống vì ai mà thay đổi :))\nThấy cmt chướng tai gai mắt thì cứ xoá ạ :))","can_remove":false,"created_time":"2014-03-29T23:44:42+0000","like_count":0,"user_likes":false},"841927982490547":{"id":"841927982490547","from":{"id":"100000500260636","name":"Lưu Nguyễn Thảo Tiên"},"message":"Chú ở Tokyo rành Osaka gớm.\nHê oke từ này về sau thì thế nhé!","can_remove":false,"created_time":"2014-03-29T23:45:42+0000","like_count":0,"user_likes":false},"841928662490479":{"id":"841928662490479","from":{"id":"100006089102969","name":"カメ 悪い"},"message":"Xin lỗi địa lý lịch sử vn chửi mình ngu vs mất gốc mình nhận\nChứ chửi mình địa lý lịch sử nhật ngu là mình nhảy lại táp luôn rồi :-s","can_remove":false,"created_time":"2014-03-29T23:47:17+0000","like_count":1,"user_likes":false},"841929042490441":{"id":"841929042490441","from":{"id":"100005801442456","name":"An Nguyen"},"message":"Xoá là xong à ? K cần phải nhắc lần nữa đâu nhé.","can_remove":false,"created_time":"2014-03-29T23:48:12+0000","like_count":0,"user_likes":false},"841929229157089":{"id":"841929229157089","from":{"id":"100000500260636","name":"Lưu Nguyễn Thảo Tiên"},"message":"Dạ thôi em nhận mốt sẽ hỏi chú về địa lý lịch sử mong chú chỉ giáo!","can_remove":false,"created_time":"2014-03-29T23:48:44+0000","like_count":0,"user_likes":false},"841940929155919":{"id":"841940929155919","from":{"id":"100004624780295","name":"Rai Tei Man"},"message":"Trẻ trâu nhểy","can_remove":false,"created_time":"2014-03-29T23:58:54+0000","like_count":0,"user_likes":false},"841949959155016":{"id":"841949959155016","from":{"id":"100006896502374","name":"Kantan Yo"},"message":"o dat bao nhieu nam .. \nnghe wa nhieu chuyen ko tot cua ng viet minh .. \nbi ton thuong long tu ton dan toc ... dau long","can_remove":false,"created_time":"2014-03-30T00:10:59+0000","like_count":0,"user_likes":false},"841955499154462":{"id":"841955499154462","from":{"id":"100006102636151","name":"Hoàng Linh Đan"},"message":"1 cái stt,1 câu chuyện,kết thúc bên dưới là gì của những người cmt,những người có ý kiến.chẳng được gì cả.lãng xẹt.","can_remove":false,"created_time":"2014-03-30T00:26:31+0000","like_count":1,"user_likes":false},"841962482487097":{"id":"841962482487097","from":{"id":"100002817600730","name":"Minh Anh Vg"},"message":"bạn Kame nên kiệm lời 1 tý, biết là bạn thích bạn như thế, nhưng nơi công cộng thì nên kiềm chế bản thân, đừng để ng khác nhìn vào những gì thuộc về mình mà nhăn mặt chê bai, cho dù là ảo","can_remove":false,"created_time":"2014-03-30T00:36:44+0000","like_count":3,"user_likes":false},"841963715820307":{"id":"841963715820307","from":{"id":"100006102636151","name":"Hoàng Linh Đan"},"message":"Tất nhiên xa 1 chút k có sao.trước mình mới qua cũng ở xa cách trường 1h đi tàu lẫn đi bộ cơ.nhưng vấn đề ở đây không phải là xa hay gần mà vấn đề là ở người liên kết với công ty bên việt nam lừa thuê nhà giá rẻ ý bạn.","can_remove":false,"created_time":"2014-03-30T00:38:14+0000","like_count":0,"user_likes":false},"841968009153211":{"id":"841968009153211","from":{"id":"100002817600730","name":"Minh Anh Vg"},"message":"1 là tiếp tục chịu khó đi đi về về, vì quanh mình đi làm 2 3 tiếng là bt, 2 là tìm một senpai rành tiếng nhật có thể tin được giúp đỡ trong vụ này :v dĩ nhiên người nhật họ ko quan tâm mình bị ng việt lừa, chuyển đi mất tiền là điều không thể tránh, hợp đồng đã ghi rõ thì chỉ có thế mà làm theo, bạn chuyển đi thì xác định là tốn tiền đi","can_remove":false,"created_time":"2014-03-30T00:47:04+0000","like_count":0,"user_likes":false},"841970269152985":{"id":"841970269152985","from":{"id":"100006102636151","name":"Hoàng Linh Đan"},"message":"Với 1 du học sinh đi học đi làm mất 1.050¥ 1 lượt đi và 1.050¥ lượt về.hỏi 1 tháng đi lại của bạn ấy sẽ là bao nhiêu vậy bạn kame.giúp mình với","can_remove":false,"created_time":"2014-03-30T00:53:25+0000","like_count":0,"user_likes":false},"841971345819544":{"id":"841971345819544","from":{"id":"100006089102969","name":"カメ 悪い"},"message":"Bạn có nhìn kỹ ko đấy =))\nKia là giá tàu đi từ ga 京都 xuống đến ga 三ノ宮 ở 神戸 nhé\nCòn từ ga 大阪 xuống đến 三ノ宮 có 390¥ thôi nhé\nCũng ko rõ bạn của bạn chủ thớt ở ga nào nên mình chỉ đưa ra ga tiêu biểu làm ví dụ \nCái tuyến tàu hằng ngày đi lại chẳng lẽ k biết làm 定期券 =))","can_remove":false,"created_time":"2014-03-30T00:57:02+0000","like_count":0,"user_likes":false},"841971375819541":{"id":"841971375819541","from":{"id":"100007785703302","name":"Thanh Soái"},"message":"Ng vn bên này tốt lắm,ng ta chỉ cho chúng ta bít mình ngu chỗ nào và từ đó rút ra kinh nghiệm để khôn lên","can_remove":false,"created_time":"2014-03-30T00:57:12+0000","like_count":6,"user_likes":false},"841973595819319":{"id":"841973595819319","from":{"id":"100006102636151","name":"Hoàng Linh Đan"},"message":"Ok.cảm ơn bạn đã giúp mình.\nBạn giúp mình lần nữa được không:câu chuyện trên nói về vấn đề vậy bạn kame. Cảm ơn bạn trước về câu trả lời","can_remove":false,"created_time":"2014-03-30T01:03:25+0000","like_count":0,"user_likes":false},"841973622485983":{"id":"841973622485983","from":{"id":"100007756088326","name":"Trung Pham"},"message":"Kun kon.sr mn nha.tại đọc cái bài này cảm thấy ấm ức thay cho ngta","can_remove":false,"created_time":"2014-03-30T01:03:31+0000","like_count":0,"user_likes":false},"841974609152551":{"id":"841974609152551","from":{"id":"100006089102969","name":"カメ 悪い"},"message":"Thớt hỏi ý kiến\nKo hỏi cách giải quyết =)))\nMình thắc mắc cái thời gian đi tàu thì ý kiến :))\nHí hí =))","can_remove":false,"created_time":"2014-03-30T01:06:24+0000","like_count":1,"user_likes":false},"841975372485808":{"id":"841975372485808","from":{"id":"100007756088326","name":"Trung Pham"},"message":"Ngta nói thời gian đi tàu daitai thôi mà.chắc đi bộ từ nhà ra ga cũng xa nữa.vì ngta lừa thì làm gì có chuyện thuê nhà gần nhà ga cho mình","can_remove":false,"created_time":"2014-03-30T01:08:53+0000","like_count":0,"user_likes":false},"841975535819125":{"id":"841975535819125","from":{"id":"100002609621366","name":"KÚn KOn"},"message":"Vừa bình luận bên trên là k biết ngta ở ga nào? Mà còn cố tình cmt kiểu đó, có vẻ bạn thích nổi...???","can_remove":false,"created_time":"2014-03-30T01:09:36+0000","like_count":0,"user_likes":false},"841975955819083":{"id":"841975955819083","from":{"id":"100007756088326","name":"Trung Pham"},"message":"Bạn kame đọc rõ ý ngta nói đi.\"\"đi đi lại lại\" mấy mấy tiếng.mấy ở đây k có con số cụ thể có thể là 1.2.3h gì đó.mà ngta nói cả đi cả về.bạn soi kĩ quá nên tớ phải nói ra","can_remove":false,"created_time":"2014-03-30T01:11:19+0000","like_count":0,"user_likes":false},"841976115819067":{"id":"841976115819067","from":{"id":"100006089102969","name":"カメ 悪い"},"message":"Ở 大阪 mà nói mất mấy tiếng đi đi lại lại với 神戸 thì nói hơi quá :)))\nThắc mắc là quyền của mình\nBạn cấm =))\nVề nhà tự lập cái page rồi tự làm ét min mà cấm =))","can_remove":false,"created_time":"2014-03-30T01:11:54+0000","like_count":0,"user_likes":false},"841976245819054":{"id":"841976245819054","from":{"id":"100006089102969","name":"カメ 悪い"},"message":"Mình thấy ở đây có ng còn soi kỹ cmt của mình hơn ấy :))","can_remove":false,"created_time":"2014-03-30T01:12:55+0000","like_count":0,"user_likes":false},"841976632485682":{"id":"841976632485682","from":{"id":"100007756088326","name":"Trung Pham"},"message":"Ngta ở ga nhỏ thoi giab lau hon mới có tàu dừng lại chưa tính đến chuyện nhơx tàu nữa","can_remove":false,"created_time":"2014-03-30T01:14:20+0000","like_count":0,"user_likes":false},"841976755819003":{"id":"841976755819003","from":{"id":"100002609621366","name":"KÚn KOn"},"message":"悪い có khác, từ hành động, lời nói, đến mục đích...giống nhau phết!","can_remove":false,"created_time":"2014-03-30T01:14:48+0000","like_count":0,"user_likes":false},"841976759152336":{"id":"841976759152336","from":{"id":"100007756088326","name":"Trung Pham"},"message":"Thoi tóm lại tớ k cãi nhau nữa toppic loãng xẹt rồi","can_remove":false,"created_time":"2014-03-30T01:14:51+0000","like_count":0,"user_likes":false},"841977109152301":{"id":"841977109152301","from":{"id":"100000500260636","name":"Lưu Nguyễn Thảo Tiên"},"message":"Người soi kẻ không soi sẽ nên chuyện, thôi dừng ở đay nhé. \nBác kame làm quá rồi. Nhiệt tình không đúng chỗ gì hết. Cho ý kiến đi. Cm về ga, tàu thời gian nữa là em xoá","can_remove":false,"created_time":"2014-03-30T01:15:51+0000","like_count":0,"user_likes":false},"841977899152222":{"id":"841977899152222","from":{"id":"100007785703302","name":"Thanh Soái"},"message":"Từ osaka j đó đến cái j mà cobe đó tệ j cũng mất 1-2 tiếng đó là kể tưf nhà ra ga rồi đổi tàu rồi đến chính xác nơi mún đến chứ có fai trường vs nhà nằm sát ga mô","can_remove":false,"created_time":"2014-03-30T01:18:05+0000","like_count":1,"user_likes":false},"841979985818680":{"id":"841979985818680","from":{"id":"100006896502374","name":"Kantan Yo"},"message":"lai cai nhau ... \nco ai thich bo nhat ve vn .. ve doi voi tui .. hehe","can_remove":false,"created_time":"2014-03-30T01:23:11+0000","like_count":0,"user_likes":false},"841980129151999":{"id":"841980129151999","from":{"id":"100006102636151","name":"Hoàng Linh Đan"},"message":"Kết thúc tàu ở đây.kết thúc xa gần ở đây.chung cuộc bạn kame chiến thắng.chúng ta không còn gì để bàn cãi nữa.:(((((( ok.","can_remove":false,"created_time":"2014-03-30T01:23:34+0000","like_count":1,"user_likes":false},"841981715818507":{"id":"841981715818507","from":{"id":"100007756088326","name":"Trung Pham"},"message":"Mà túm lại có ai ở osaka k đi ngăm hoa anh đào đê","can_remove":false,"created_time":"2014-03-30T01:27:34+0000","like_count":0,"user_likes":false},"841981825818496":{"id":"841981825818496","from":{"id":"100006102636151","name":"Hoàng Linh Đan"},"message":"Ok bạn.xoá hết những cmt đó đi.","can_remove":false,"created_time":"2014-03-30T01:27:41+0000","like_count":0,"user_likes":false},"841981899151822":{"id":"841981899151822","from":{"id":"100002609621366","name":"KÚn KOn"},"message":"Xoá từ đây nhé!!!!","can_remove":false,"created_time":"2014-03-30T01:27:51+0000","like_count":0,"user_likes":false},"841982335818445":{"id":"841982335818445","from":{"id":"100007785703302","name":"Thanh Soái"},"message":"Trời đang mưa ngắm nổi j bạn","can_remove":false,"created_time":"2014-03-30T01:28:46+0000","like_count":0,"user_likes":false},"841982952485050":{"id":"841982952485050","from":{"id":"100007756088326","name":"Trung Pham"},"message":"Tuần sau bạn àh.","can_remove":false,"created_time":"2014-03-30T01:30:30+0000","like_count":0,"user_likes":false},"841983459151666":{"id":"841983459151666","from":{"id":"100002609621366","name":"KÚn KOn"},"message":"Stop đi kokoro, lạc chủ đề quá, tự dưng rủ rê đi ngắm hoa ở đây :))","can_remove":false,"created_time":"2014-03-30T01:32:03+0000","like_count":0,"user_likes":false},"841984272484918":{"id":"841984272484918","from":{"id":"1823443424","name":"Buff Xinh"},"message":"Không biết mỗi VN mình mới có người gàn hay là ở đâu cũng thế nhỉ. Các em mới sang chưa biết gì, gặp người hướng dẫn lại lừa hết hợp đồng điện thoại đến chuyện nhà cửa, giờ đi làm xa vừa tốn tiền vừa vất vả. Câu chuyện có thế, có khả năng gì giúp thì giúp, ko thì chia sẻ với người ta cho đỡ buồn, có vậy cũng không làm được. Ở chỗ công cộng gặp mấy người gàn dở ngông nghênh, tao thích làm gì thì làm, thích đùa cợt thích chỉ trích những người đang đau khổ thì kệ tao, tao cho là tao giỏi không mướn chúng mày đánh giá... lại còn càng nghe góp ý càng trơ lì ra ra vẻ ý kiến các người chả tác động đến ta đâu, ta phẫu thuật cắt dây thần kinh xấu hổ và lòng tự trọng lâu rồi... quả là như ăn cơm có đầy sạn. Đến mức admin qđ xoá comment vẫn cố thò mồm lên cười 1 cái sống sượng chữa thẹn thì đúng là ko nên động vào nữa, cũng mong là họ đừng có động vào page của chúng ta nữa. Mong các em mới sang ở Kobe nhanh chóng vượt qua khó khăn để sống tốt học tốt.","can_remove":false,"created_time":"2014-03-30T01:34:25+0000","like_count":10,"user_likes":false},"841984409151571":{"id":"841984409151571","from":{"id":"100007756088326","name":"Trung Pham"},"message":"Haha cãi nhau nhiều quá.osaka jou ở ga nào nhỉ.","can_remove":false,"created_time":"2014-03-30T01:34:49+0000","like_count":0,"user_likes":false},"841985549151457":{"id":"841985549151457","from":{"id":"100002609621366","name":"KÚn KOn"},"message":"Cảm ơn buff xinh :) bạn nói thay mọi ng ở đây lời muốn nói!","can_remove":false,"created_time":"2014-03-30T01:37:47+0000","like_count":2,"user_likes":false},"842012565815422":{"id":"842012565815422","from":{"id":"100004092045351","name":"Songdethuthach Chu"},"message":"Thế đấy,nhưng con người luôn như vậy.Người tốt thì lại rất ít khi tin,người xấu luôn nói ngọt hơn.hihi","can_remove":false,"created_time":"2014-03-30T02:46:12+0000","like_count":1,"user_likes":false},"842012792482066":{"id":"842012792482066","from":{"id":"1227859163","name":"Pham Hung Thinh"},"message":"Khổ thân các bạn đi du học & tu nghiệp vất vả, ngay từ khi mới sang đã bị lừa lọc -> nếu ko cẩn thận lại tạo thành thói xấu đấy cho chính bản thân mình sau này.... Chúc các bạn chân cứng đá mềm gặp nhiều may mắn để sau này cũng có thể giúp đỡ các bạn mới sang, bóc lột tiền từ bọn tư bản một cách chân chính bằng sức lao động của mình thôi.","can_remove":false,"created_time":"2014-03-30T02:47:03+0000","like_count":1,"user_likes":false},"842016559148356":{"id":"842016559148356","from":{"id":"100003905583531","name":"Nam Nobita"},"message":"Ném cho nó miếng tất thúi cho noa nhai thay vì đi hút máu đồng bào...ko bằng loài chó..dcm","can_remove":false,"created_time":"2014-03-30T03:01:57+0000","like_count":0,"user_likes":false},"842056502477695":{"id":"842056502477695","from":{"id":"100006520210904","name":"Miu Miu"},"message":"Nếu cần sự giúp đỡ và can thiệp thì bạn có thể ibox vì mình cũng muốn hỏi thêm 1 số thông tin thì mới có thể giúp dc nhé.(tư vấn và giúp trong khả năng có thể của mình)","can_remove":false,"created_time":"2014-03-30T05:14:37+0000","like_count":0,"user_likes":false},"842108599139152":{"id":"842108599139152","from":{"id":"100003977703228","name":"Ki Yu"},"message":"Giống bọn tớ. Trên toky có mụ tên Bình, nghe tên này chắc ko mấy ai thấy xa lạ. Nhiều ng khổ sở rồi. Haziii!!! Việt Nam! Cứ lừa nhau, ko hiểu tsao con người ta lại là người như thế nhỉ! Haziii","can_remove":false,"created_time":"2014-03-30T08:10:08+0000","like_count":0,"user_likes":false},"842114665805212":{"id":"842114665805212","from":{"id":"100004066428338","name":"Ho Ana"},"message":"Ban nao biet truong anlenguyt o tokio ko a..cho minh hoi xiu","can_remove":false,"created_time":"2014-03-30T08:20:02+0000","like_count":0,"user_likes":false},"842118835804795":{"id":"842118835804795","from":{"id":"100000628549116","name":"Hoàng Chính"},"message":"Á ah, đm thì ra là con việt nhật này","can_remove":false,"created_time":"2014-03-30T08:33:19+0000","like_count":0,"user_likes":false},"842120029138009":{"id":"842120029138009","from":{"id":"100000500260636","name":"Lưu Nguyễn Thảo Tiên"},"message":"Bạn lên án Việt nhật thì post bài để mọi ng né & giúp bạn! Xoá giúp mình cm nói tục nhé Nam Nobita, Hoàng Chính","can_remove":false,"created_time":"2014-03-30T08:36:22+0000","like_count":2,"user_likes":false},"842122585804420":{"id":"842122585804420","from":{"id":"100007756088326","name":"Trung Pham"},"message":"Con e viet nhat này thay nhieu ng keu lam roi","can_remove":false,"created_time":"2014-03-30T08:46:15+0000","like_count":0,"user_likes":false},"842122792471066":{"id":"842122792471066","from":{"id":"100005596470828","name":"Hoàng Sup Hyo"},"message":"Hoàng Chính sao bạn bức xúc thế","message_tags":[{"id":"100000628549116","name":"Hoàng Chính","type":"user","offset":0,"length":11}],"can_remove":false,"created_time":"2014-03-30T08:46:50+0000","like_count":0,"user_likes":false},"842148949135117":{"id":"842148949135117","from":{"id":"100000210436855","name":"Hieu Muoi"},"message":"Thấu và hiểu hơn ai hết","can_remove":false,"created_time":"2014-03-30T10:12:47+0000","like_count":1,"user_likes":false},"842163395800339":{"id":"842163395800339","from":{"id":"100006424623565","name":"BoBo CuaToi"},"message":"Dung tin ai ngoai tin ban than minh!tat ca chi vi dong tien ma lua loc nhau,dam dap len nhau de kiem dc may dong ,..\nKo con loi nao de ta!\nOi viet nam!","can_remove":false,"created_time":"2014-03-30T10:57:37+0000","like_count":0,"user_likes":false},"842182522465093":{"id":"842182522465093","from":{"id":"100005200064085","name":"Lan Anh Pham"},"message":"Người VN ơi là người VN ,sao lỡ hại nhau vậy","can_remove":false,"created_time":"2014-03-30T11:31:49+0000","like_count":0,"user_likes":false}},"paging":{"cursors":{"after":"ODQxOTAzODM1ODI2Mjk1","before":"ODQxOTAzODM1ODI2Mjk1"},"next":"https://graph.facebook.com/229244010425617_841903002493045/comments?limit=1&summary=1&after=ODQxOTAzODM1ODI2Mjk1"},"summary":{"order":"chronological","total_count":65}}}