{"id":"229244010425617_841930992490246","type":"status","from":{"id":"100005252490599","name":"Chí Phèo"},"message":"mọi người ơi cho mình hỏi chút nha.mjh rat muon dk dj nhat mình chỉ đi xklđ thui.ngưng cũng vì lo lắng vì sợ gặp bị cty lừa đảo nên ko wuet tâm lắm.mọi ng gjúp mìh cho mình cho vài lờj khuyên để đỡ phảj lo lắng hơn ko ạ.arigato minna-san.","created_time":"2014-03-29T23:54:12+0000","updated_time":"2014-03-30T12:44:24+0000","likes":{"data":{"100005579135439":{"id":"100005579135439","name":"Trai Nghèo Bắc Giang"}},"paging":{"cursors":{"after":"MTAwMDA1NTc5MTM1NDM5","before":"MTAwMDA1NTc5MTM1NDM5"}},"summary":{"total_count":1}},"comments":{"data":{"841949375821741":{"id":"841949375821741","from":{"id":"100001546837960","name":"Chung Goldstar"},"message":"Bạn đi Nhật làm gì ?","can_remove":false,"created_time":"2014-03-30T00:09:36+0000","like_count":0,"user_likes":false},"841952595821419":{"id":"841952595821419","from":{"id":"100007797156820","name":"Sói Già"},"message":"Chí Phèo bạn sửa bài đăng của mình thành có dấu cho dex đọc nha.","message_tags":[{"id":"100005252490599","name":"Chí Phèo","type":"user","offset":0,"length":8}],"can_remove":false,"created_time":"2014-03-30T00:18:16+0000","like_count":0,"user_likes":false},"841960815820597":{"id":"841960815820597","from":{"id":"100007055220627","name":"Khoảnh Khắc"},"message":"Đi ở ĐH Ngoại thương ...k bao h sợ bị lừa","can_remove":false,"created_time":"2014-03-30T00:34:47+0000","like_count":0,"user_likes":false},"842027269147285":{"id":"842027269147285","from":{"id":"100004394924539","name":"Jinvôlối Nguyễn"},"message":"Bạn đi theo du học hay tu nghiệp sinh","can_remove":false,"created_time":"2014-03-30T03:34:52+0000","like_count":0,"user_likes":false},"842032362480109":{"id":"842032362480109","from":{"id":"100005252490599","name":"Chí Phèo"},"message":"lúc đầu thì mình có ý định đi du học nhưng có nhiều người bảo.niếu đi du hoc thì tiếng phải giỏi chút đi mới đỡ khổ nên giờ mình muốn đi xklđ để học chút kinh ngiem va mình cũng ước muốn được đặt chân tới mảnh nihon.nhưng cũng lo lắng sợ gặp phải cty lừa đảo nên mình muốn hỏi ý kiến mọi ngươi nak.gjup minh voi nha.cam on moj ng nhje a","can_remove":false,"created_time":"2014-03-30T03:53:32+0000","like_count":0,"user_likes":false},"842032732480072":{"id":"842032732480072","from":{"id":"100003190753030","name":"Nguyễn Văn Hiển"},"message":"Đi ở Công Nghiệp Hà Nội cũng k sợ bị lừa.nhưng đi thì khoai lắm :-(","can_remove":false,"created_time":"2014-03-30T03:54:54+0000","like_count":1,"user_likes":false},"842078212475524":{"id":"842078212475524","from":{"id":"100005252490599","name":"Chí Phèo"},"message":"Thực ra thi mình muôn kiếm $.nhưng trong đó mình rất thích ngôn ngữ và từ ngữ rất phong phú cua nguoi Nhật Bản nen minh muốn di chuyến de biết nhieu hon ve văn hóa ...của đất nước nay.","can_remove":false,"created_time":"2014-03-30T06:17:27+0000","like_count":0,"user_likes":false},"842118975804781":{"id":"842118975804781","from":{"id":"100000550891827","name":"Thi Nguyen"},"message":"Bạn thử tham khảo cty Letco - ĐH công nghiệp và CEO Group xem sao. Bạn mình sau một tg khá dài tham khảo và tìm hiểu thông tin thì chọn đc 2 địa chỉ này. Mùng 4/4 bạn ý bay rồi (theo hình thức du học và từ CEO group). Chúc bạn tự tin và có quyết định đúng đắn!","can_remove":false,"created_time":"2014-03-30T08:33:33+0000","like_count":0,"user_likes":false},"842137705802908":{"id":"842137705802908","from":{"id":"100003190753030","name":"Nguyễn Văn Hiển"},"message":"Thi T tham gia của Letco.thật sự là rất tốt k lo bị lừa nhưng trúng tuyển rất khó (TTS)\nT đang tìm cty khác.k bít cty nào đây :-(","can_remove":false,"created_time":"2014-03-30T09:36:21+0000","like_count":1,"user_likes":false},"842144465802232":{"id":"842144465802232","from":{"id":"100005252490599","name":"Chí Phèo"},"message":"mjh cam on nhjeu nhe.mà bạn thi nguyen có thể cho mình đc của hai cty đó đk ko bạn.","can_remove":false,"created_time":"2014-03-30T10:00:13+0000","like_count":1,"user_likes":false},"842152395801439":{"id":"842152395801439","from":{"id":"100003190753030","name":"Nguyễn Văn Hiển"},"message":"Letco ở Đại học công nghiệp Hà Nội. mình đang học ở đó. có gì lh vs mình mình giúp. ok\ncòn Ceo mình mới nghe qua bít địa chỉ nhưng chưa tìm hiểu :D","can_remove":false,"created_time":"2014-03-30T10:28:03+0000","like_count":1,"user_likes":false},"842196322463713":{"id":"842196322463713","from":{"id":"100005252490599","name":"Chí Phèo"},"message":"vay ah.vay cho mjh hoj chut nha.ban hoc o do ban cam thay chat luog va hjeu qua khog ban.ma trog truog do da co aj dk dj nhan chua ban.nguyễn văn hiền","can_remove":false,"created_time":"2014-03-30T12:10:28+0000","like_count":0,"user_likes":false},"842197512463594":{"id":"842197512463594","from":{"id":"100005252490599","name":"Chí Phèo"},"message":"ma ban hok lau sap dk dj chua ban.ah ma con phj luk khoi dau nap hs de thj thj mat khoag bao nhjeu ban nhj.ruj luk vao thj thj ng ta can mjh lam nhug j ban cho mjh bjet dk ko.","can_remove":false,"created_time":"2014-03-30T12:12:56+0000","like_count":0,"user_likes":false},"842202055796473":{"id":"842202055796473","from":{"id":"100003190753030","name":"Nguyễn Văn Hiển"},"message":"Đợi lát mình onl mìk tìm wed bạn vào đó đọc nha.chứ nój thì dài lắm","can_remove":false,"created_time":"2014-03-30T12:26:00+0000","like_count":1,"user_likes":false},"842209792462366":{"id":"842209792462366","from":{"id":"100005252490599","name":"Chí Phèo"},"message":"um vay ban tjm guj zum mjh voj nha cam on ban nhjeu nak.","can_remove":false,"created_time":"2014-03-30T12:44:24+0000","like_count":0,"user_likes":false}},"paging":{"cursors":{"after":"ODQxOTQ5Mzc1ODIxNzQx","before":"ODQxOTQ5Mzc1ODIxNzQx"},"next":"https://graph.facebook.com/229244010425617_841930992490246/comments?limit=1&summary=1&after=ODQxOTQ5Mzc1ODIxNzQx"},"summary":{"order":"chronological","total_count":16}}}