{"id":"229244010425617_842003345816344","type":"link","picture":"https://fbstatic-a.akamaihd.net/rsrc.php/v2/y3/r/0PnClccPFXs.png","link":"https://www.facebook.com/groups/traodoigiaotrinhcu/","from":{"id":"100007234564638","name":"Trương Thanh"},"message":"Chẳng phải đâu! Nhưng nếu có cơ hội chia sẻ những cuốn giáo trình cũ cho các em khóa sau. Mình rất vui. Hiện tại mình và các bạn của mình cũng đang có rất nhiều cuốn giáo trình không dùng nữa. Bỏ đi phí lắm. các em khóa sau chưa có giáo trình học lại phải mua. Mất tiền. Vậy coi như có một nơi để chúng ta chia sẻ giáo trình lại cho nhau. Vừa có là làm việc thiện, Vừa để kết thêm bạn.   Tạm thời mình sẽ là cầu nối để các bạn trao và nhận giáo trình nhé! sdt mình: 01666.110.437 cảm ơn các bạn đã ủng hộ. hehe      đây là link của nhóm. chúng ta có thể cùng tham gia! <3 <3   https://www.facebook.com/groups/492956910833891/","created_time":"2014-03-30T02:20:25+0000","updated_time":"2014-03-31T13:28:34+0000","likes":{"data":{"100003263272915":{"id":"100003263272915","name":"Teddy Smile"},"1821970083":{"id":"1821970083","name":"Nguyễn Mạnh Cường"},"100000381394367":{"id":"100000381394367","name":"Thành Nguyễn"},"100003913383051":{"id":"100003913383051","name":"Tho Tran"},"100005882954389":{"id":"100005882954389","name":"Thu Hằng Nguyễn"},"100003959440423":{"id":"100003959440423","name":"Hue Tran"},"100001526631937":{"id":"100001526631937","name":"Tường Oanh Mineko"},"100005459013657":{"id":"100005459013657","name":"Trịnh Trung"},"100001458099624":{"id":"100001458099624","name":"Kham Pha"},"100004456541864":{"id":"100004456541864","name":"Nha Gia"},"100001416272263":{"id":"100001416272263","name":"Mai PB"},"1816269439":{"id":"1816269439","name":"Dao Ngoc"},"100001557981751":{"id":"100001557981751","name":"Hồ Ngọc Khanh"},"1026780646":{"id":"1026780646","name":"Việt Hưng Khổng"},"100004021189967":{"id":"100004021189967","name":"Love Rain"},"100005051881072":{"id":"100005051881072","name":"Nhớ Nhớ"},"100002716525116":{"id":"100002716525116","name":"Nguyễn Tất Nguyên"},"100006859893056":{"id":"100006859893056","name":"Yến Thanh"},"100004982014580":{"id":"100004982014580","name":"Kun Kun"}},"paging":{"cursors":{"after":"MTAwMDAzMjYzMjcyOTE1","before":"MTAwMDAzMjYzMjcyOTE1"},"next":"https://graph.facebook.com/229244010425617_842003345816344/likes?limit=1&summary=1&after=MTAwMDAzMjYzMjcyOTE1"},"summary":{"total_count":20}},"comments":{"data":{"842006405816038":{"id":"842006405816038","from":{"id":"100007756088326","name":"Trung Pham"},"message":"Ủng hộ nhóm","can_remove":false,"created_time":"2014-03-30T02:30:11+0000","like_count":0,"user_likes":false},"842006465816032":{"id":"842006465816032","from":{"id":"100007756088326","name":"Trung Pham"},"message":"Ý kiến tuyệt vời","can_remove":false,"created_time":"2014-03-30T02:30:22+0000","like_count":0,"user_likes":false},"842006482482697":{"id":"842006482482697","from":{"id":"100006859893056","name":"Yến Thanh"},"message":"Ý tưởng hay. Like cho bạn","can_remove":false,"created_time":"2014-03-30T02:30:27+0000","like_count":0,"user_likes":false},"842006522482693":{"id":"842006522482693","from":{"id":"100007234564638","name":"Trương Thanh"},"message":"<3 <3","can_remove":false,"created_time":"2014-03-30T02:30:35+0000","like_count":0,"user_likes":false},"842006529149359":{"id":"842006529149359","from":{"id":"100007756088326","name":"Trung Pham"},"message":"Ai k học minano 2 nữa cjo mình với","can_remove":false,"created_time":"2014-03-30T02:30:38+0000","like_count":0,"user_likes":false},"842006579149354":{"id":"842006579149354","from":{"id":"100006859893056","name":"Yến Thanh"},"message":"Cần có nhiều người như thế này ưữa :D","can_remove":false,"created_time":"2014-03-30T02:30:46+0000","like_count":0,"user_likes":false},"842006935815985":{"id":"842006935815985","from":{"id":"100007234564638","name":"Trương Thanh"},"message":"cảm ơn sự ủng hộ của Yến Thanh và Tsumetai Kokoro nhiều nhé","message_tags":[{"id":"100007756088326","name":"Tsumetai Kokoro","type":"user","offset":34,"length":15}],"can_remove":false,"created_time":"2014-03-30T02:31:42+0000","like_count":0,"user_likes":false},"842007119149300":{"id":"842007119149300","from":{"id":"100007234564638","name":"Trương Thanh"},"message":"đây là link của nhóm. chúng ta vào nhóm để chia sẻ thông tin cùng mọi người nha. https://www.facebook.com/groups/492956910833891/","can_remove":false,"created_time":"2014-03-30T02:32:21+0000","like_count":0,"user_likes":false},"842074152475930":{"id":"842074152475930","from":{"id":"100002946945433","name":"Trang Ruby"},"message":"Cho e tham gia vs.hj","can_remove":false,"created_time":"2014-03-30T06:02:21+0000","like_count":1,"user_likes":false},"842186125798066":{"id":"842186125798066","from":{"id":"100004456541864","name":"Nha Gia"},"message":"Can nhieu nguoi nhu the nay hon nua","can_remove":false,"created_time":"2014-03-30T11:41:43+0000","like_count":1,"user_likes":false},"842186189131393":{"id":"842186189131393","from":{"id":"100001416272263","name":"Mai PB"},"message":"Nhóm bạn Trương Thanh đang hoạt động ở đâu thì không thấy nói gi cả?","can_remove":false,"created_time":"2014-03-30T11:41:51+0000","like_count":0,"user_likes":false},"842239459126066":{"id":"842239459126066","from":{"id":"100007234564638","name":"Trương Thanh"},"message":"em cam ơn góp ý của anh Mai FB ah. hiện tại nhóm đang hoạt động ở tỉnh Hưng Yên rồi anh ah.","can_remove":false,"created_time":"2014-03-30T13:50:53+0000","like_count":0,"user_likes":false},"842242059125806":{"id":"842242059125806","from":{"id":"100001416272263","name":"Mai PB"},"message":"Bên Nhật cũng có 1 bạn đang làm. An Nguyen này.","message_tags":[{"id":"100005801442456","name":"An Nguyen","type":"user","offset":33,"length":9}],"can_remove":false,"created_time":"2014-03-30T13:56:42+0000","like_count":1,"user_likes":false},"842245999125412":{"id":"842245999125412","from":{"id":"100007234564638","name":"Trương Thanh"},"message":":) :)","can_remove":false,"created_time":"2014-03-30T14:00:28+0000","like_count":0,"user_likes":false},"842280642455281":{"id":"842280642455281","from":{"id":"100005801442456","name":"An Nguyen"},"message":"Đang tính giải quyết bơts chứ ngập nhà rồi.","can_remove":false,"created_time":"2014-03-30T15:09:37+0000","like_count":2,"user_likes":false},"842749709075041":{"id":"842749709075041","from":{"id":"100007234564638","name":"Trương Thanh"},"message":":) :)","can_remove":false,"created_time":"2014-03-31T12:01:04+0000","like_count":0,"user_likes":false},"842803402403005":{"id":"842803402403005","from":{"id":"100006263888044","name":"Hoàng Oanh"},"message":"có giáo trình manabo ko b Trương Thanh","can_remove":false,"created_time":"2014-03-31T13:28:34+0000","like_count":0,"user_likes":false}},"paging":{"cursors":{"after":"ODQyMDA2NDA1ODE2MDM4","before":"ODQyMDA2NDA1ODE2MDM4"},"next":"https://graph.facebook.com/229244010425617_842003345816344/comments?limit=1&summary=1&after=ODQyMDA2NDA1ODE2MDM4"},"summary":{"order":"chronological","total_count":17}}}