{"id":"229244010425617_842046665812012","type":"status","from":{"id":"100000025342829","name":"Vương Tiến Mạnh"},"message":"Mọi người ơi, cho em hỏi có câu lạc bộ tiếng Nhật nào ở HN không ạ, muốn tham gia để cải thiện tình hình, chứ rốt quá...","created_time":"2014-03-30T04:42:53+0000","updated_time":"2014-03-30T05:03:24+0000","likes":{"data":{"100002646034852":{"id":"100002646034852","name":"Hùng Eric"},"100001098947511":{"id":"100001098947511","name":"Phượng Tèo"},"100001632331572":{"id":"100001632331572","name":"Hoàng Phương"},"100001447389413":{"id":"100001447389413","name":"Bá Scholes"}},"paging":{"cursors":{"after":"MTAwMDAyNjQ2MDM0ODUy","before":"MTAwMDAyNjQ2MDM0ODUy"},"next":"https://graph.facebook.com/229244010425617_842046665812012/likes?limit=1&summary=1&after=MTAwMDAyNjQ2MDM0ODUy"},"summary":{"total_count":4}},"comments":{"data":{"842049489145063":{"id":"842049489145063","from":{"id":"1778354324","name":"Sơn Ken"},"message":"Bạn có nên tham gia một câu lạc bộ Chính tả Tiếng Việt trước không?","can_remove":false,"created_time":"2014-03-30T04:52:25+0000","like_count":2,"user_likes":false},"842049799145032":{"id":"842049799145032","from":{"id":"100000025342829","name":"Vương Tiến Mạnh"},"message":":D, Chẳng lẽ mình sai chính tả, bạn nói rõ hơn được ko???","can_remove":false,"created_time":"2014-03-30T04:53:47+0000","like_count":0,"user_likes":false},"842050039145008":{"id":"842050039145008","from":{"id":"1650776524","name":"Hùng Đỗ Quốc"},"message":"Công nhận chú rốt thật kkkkkk","can_remove":false,"created_time":"2014-03-30T04:54:47+0000","like_count":1,"user_likes":false},"842050095811669":{"id":"842050095811669","from":{"id":"1778354324","name":"Sơn Ken"},"message":"\"Dốt\" chứ không phải \"rốt\" bạn ạ.","can_remove":false,"created_time":"2014-03-30T04:54:59+0000","like_count":1,"user_likes":false},"842050495811629":{"id":"842050495811629","from":{"id":"100000025342829","name":"Vương Tiến Mạnh"},"message":":v, đúng rồi a, chắc phải học lại thật... Hùng Đỗ Quốc đã nhận được đồ chưa chú...","message_tags":[{"id":"1650776524","name":"Hùng Đỗ Quốc","type":"user","offset":42,"length":12}],"can_remove":false,"created_time":"2014-03-30T04:56:20+0000","like_count":0,"user_likes":false},"842052149144797":{"id":"842052149144797","from":{"id":"1650776524","name":"Hùng Đỗ Quốc"},"message":"Nhận đc oy. 39 ^^","can_remove":false,"created_time":"2014-03-30T05:01:17+0000","like_count":0,"user_likes":false},"842052535811425":{"id":"842052535811425","from":{"id":"100000025342829","name":"Vương Tiến Mạnh"},"message":"39 là cái j, chú xì tin quá,,, haha","can_remove":false,"created_time":"2014-03-30T05:03:24+0000","like_count":0,"user_likes":false}},"paging":{"cursors":{"after":"ODQyMDQ5NDg5MTQ1MDYz","before":"ODQyMDQ5NDg5MTQ1MDYz"},"next":"https://graph.facebook.com/229244010425617_842046665812012/comments?limit=1&summary=1&after=ODQyMDQ5NDg5MTQ1MDYz"},"summary":{"order":"chronological","total_count":7}}}