{"id":"229244010425617_842070979142914","type":"photo","object_id":"647076015364699","picture":"https://fbcdn-photos-c-a.akamaihd.net/hphotos-ak-prn2/t1.0-0/10154152_647076015364699_831306270_s.jpg","link":"https://www.facebook.com/photo.php?fbid=647076015364699&set=a.128433873895585.25065.105843392821300&type=1","from":{"id":"100001416272263","name":"Mai PB"},"message":"Fukuoka, sakura đã nở rộ.","created_time":"2014-03-30T05:48:19+0000","updated_time":"2014-03-31T11:35:41+0000","likes":{"data":{"100007868620766":{"id":"100007868620766","name":"Shinichi Kodo"},"100000221260528":{"id":"100000221260528","name":"Đào Xuân Kiên"},"100007517710642":{"id":"100007517710642","name":"Hoa Mai"},"100002615664668":{"id":"100002615664668","name":"PuPu Phương Elf"},"100002606750706":{"id":"100002606750706","name":"Đức Đứng Đắn"},"100007880444320":{"id":"100007880444320","name":"自由"},"100004313589403":{"id":"100004313589403","name":"Phuocthua Lại"},"100000468762077":{"id":"100000468762077","name":"Youki Youki"},"100002675248579":{"id":"100002675248579","name":"Ecchi Deviluke"},"100001571041179":{"id":"100001571041179","name":"Khôi Nguyễn Văn"},"100004018132859":{"id":"100004018132859","name":"Nguyễn Đức Tiến"},"100005153550490":{"id":"100005153550490","name":"Thanh Thanh"},"100003287293423":{"id":"100003287293423","name":"Yêu Lại Từ Đầu"},"100007938450435":{"id":"100007938450435","name":"Miruku Chokoreeto"},"100000180711513":{"id":"100000180711513","name":"Le Mai HAng"},"100000083333913":{"id":"100000083333913","name":"Tung Nguyen"},"1826530515":{"id":"1826530515","name":"Tăng Hằng"},"100006387723695":{"id":"100006387723695","name":"Hoa Minh"},"100007799559921":{"id":"100007799559921","name":"MoMo Tvt"},"100003874832426":{"id":"100003874832426","name":"Tú Còi"},"100007238765021":{"id":"100007238765021","name":"Vy Nhí Nhảnh"},"100000586819240":{"id":"100000586819240","name":"Bình Còi"},"1261612220":{"id":"1261612220","name":"Nguyen Thi Thuy Duong"},"100004128252349":{"id":"100004128252349","name":"Vô Ưu"},"100005934583193":{"id":"100005934583193","name":"Quốc Việt"},"100000215142696":{"id":"100000215142696","name":"Tăng Anh Thư"},"1770231240":{"id":"1770231240","name":"Mắt Hí Là Độc"},"100003232430758":{"id":"100003232430758","name":"Trang Nguyen"},"100005051881072":{"id":"100005051881072","name":"Nhớ Nhớ"},"100006734168968":{"id":"100006734168968","name":"Tiểu Nhân Mã"},"100007234564638":{"id":"100007234564638","name":"Trương Thanh"},"100003961115216":{"id":"100003961115216","name":"Chang Pham"},"100003242552199":{"id":"100003242552199","name":"Kim Anh Dang"},"100003952505326":{"id":"100003952505326","name":"Hoài Nguyễn"},"100001738431359":{"id":"100001738431359","name":"Phuongthao Nguyen"},"100001161084153":{"id":"100001161084153","name":"Phuong Phuong"},"100005882954389":{"id":"100005882954389","name":"Thu Hằng Nguyễn"},"100008133690691":{"id":"100008133690691","name":"Con Yêu Mẹ"},"100003947431316":{"id":"100003947431316","name":"Baohoa Nguyen"},"100004512392461":{"id":"100004512392461","name":"Nguyen Huong"},"100002985009288":{"id":"100002985009288","name":"Thúy Nga Nguyễn"},"100003893158172":{"id":"100003893158172","name":"Maru MO"},"100007396898008":{"id":"100007396898008","name":"My Hanh"},"100003005597243":{"id":"100003005597243","name":"Zany Royal"},"100004871794179":{"id":"100004871794179","name":"Lee Mi Nguyen"},"100001458099624":{"id":"100001458099624","name":"Kham Pha"},"100002912059161":{"id":"100002912059161","name":"Chí Hoàng Anh"},"1504224275":{"id":"1504224275","name":"Nhí Còi"},"100003499975866":{"id":"100003499975866","name":"Gà Con Vui Vẻ"},"100004528082100":{"id":"100004528082100","name":"フン グェン"},"100007283947929":{"id":"100007283947929","name":"ʚïɞHương ʚïɞ"},"1114300791":{"id":"1114300791","name":"Tra Mi"},"100005804586628":{"id":"100005804586628","name":"Huyền Phạm"},"100005907939887":{"id":"100005907939887","name":"Heo Mập"},"100001149552981":{"id":"100001149552981","name":"Hà Ngọc Hiếu"},"100005316101739":{"id":"100005316101739","name":"Hop Cat Van"},"1462597562":{"id":"1462597562","name":"Intel Zhang"},"792083330":{"id":"792083330","name":"Duc Le"},"100002493003000":{"id":"100002493003000","name":"Ni Pham"},"100003055356509":{"id":"100003055356509","name":"Thuan Nguyen"},"100005738918380":{"id":"100005738918380","name":"Thanh Tâm"},"100004484562803":{"id":"100004484562803","name":"Nỗiđautớgiấu Cậuhiểuthấu Đượcbaonhiêu"},"100004887964116":{"id":"100004887964116","name":"Trịnh Hải Yến"},"100007383343212":{"id":"100007383343212","name":"Cuong Lequang"},"100002945776077":{"id":"100002945776077","name":"Hoàng Mạnh Cường"},"100001965604540":{"id":"100001965604540","name":"Nguyen Thi Minh Phuong"},"100000381394367":{"id":"100000381394367","name":"Thành Nguyễn"},"100004456541864":{"id":"100004456541864","name":"Nha Gia"},"100004712551712":{"id":"100004712551712","name":"Pe Hoai"},"100004802197403":{"id":"100004802197403","name":"Công Tử Hào Hoa"},"100003950629248":{"id":"100003950629248","name":"Linh Xù"},"100005811458124":{"id":"100005811458124","name":"Phúc Long"},"100004697765656":{"id":"100004697765656","name":"Trần Nam Anh"},"100001806981402":{"id":"100001806981402","name":"Cookie Panda"},"100000594089108":{"id":"100000594089108","name":"Đoàn Tony"},"100002871405403":{"id":"100002871405403","name":"Thach Sanh"},"1416265619":{"id":"1416265619","name":"Starwar Bbj"},"100003613298180":{"id":"100003613298180","name":"Nga Ngố"},"100001526631937":{"id":"100001526631937","name":"Tường Oanh Mineko"},"100000021018532":{"id":"100000021018532","name":"Hương Nguyễn"},"100007578121481":{"id":"100007578121481","name":"Nguyễn Hà Anh"},"100003039237438":{"id":"100003039237438","name":"Huong Luu Thi"},"100005383622471":{"id":"100005383622471","name":"Kỳ Phong Thiếu Gia"},"100007390502512":{"id":"100007390502512","name":"Hoa Ban Mai"},"776188024":{"id":"776188024","name":"Le Anh Vu"},"100007960535964":{"id":"100007960535964","name":"Binh Ledang"},"100006333460445":{"id":"100006333460445","name":"Phan Quang Tự"},"100002762270141":{"id":"100002762270141","name":"Mien Nguyen"},"100006436037655":{"id":"100006436037655","name":"Ngo Na"},"100002470650247":{"id":"100002470650247","name":"LinhLinh Chan"},"100004466347075":{"id":"100004466347075","name":"Pham Thuy"},"100007963716784":{"id":"100007963716784","name":"Ninh Thị Hường"},"100004028126106":{"id":"100004028126106","name":"Mokatori Nguyen"},"100001793782938":{"id":"100001793782938","name":"Hồng Hà Khuất"},"1103173052":{"id":"1103173052","name":"Uyên Nguyễn"},"100003587314679":{"id":"100003587314679","name":"Why Die"},"1122379216":{"id":"1122379216","name":"Hà Ngô"},"100003334742630":{"id":"100003334742630","name":"Htl Nhjm"},"100005200064085":{"id":"100005200064085","name":"Lan Anh Pham"},"100000504109240":{"id":"100000504109240","name":"Khánh Trình"},"100003896447803":{"id":"100003896447803","name":"Cu Bé"},"100007222750760":{"id":"100007222750760","name":"Ngọc Ánh Hoàng"},"100005622426965":{"id":"100005622426965","name":"Hải Lý Kuro"},"100000106747415":{"id":"100000106747415","name":"Dư Công Diệp"},"100008081041291":{"id":"100008081041291","name":"Linh Cherry"},"100006718418391":{"id":"100006718418391","name":"Hà Quân"},"100004639693097":{"id":"100004639693097","name":"Họ Nguyễn Công Tử"},"100006711245076":{"id":"100006711245076","name":"Thi Ly Le"},"100002984557771":{"id":"100002984557771","name":"Hau Dao"},"100001695345798":{"id":"100001695345798","name":"Tyn Aki"},"100004406022687":{"id":"100004406022687","name":"Tuấn Xaker"},"1008699941":{"id":"1008699941","name":"Chikn Egl"},"100000622166682":{"id":"100000622166682","name":"Mai Nguyen"},"100005003915483":{"id":"100005003915483","name":"Nguyễn Linh"},"100001356306328":{"id":"100001356306328","name":"Plmobile Pl"},"100001397811070":{"id":"100001397811070","name":"Doan Lan Giang"},"100003103086919":{"id":"100003103086919","name":"Tâm Hiếu"},"100001216346807":{"id":"100001216346807","name":"Anh Nguyễn"},"100004764310809":{"id":"100004764310809","name":"Nguyen Hoang Son"},"100007930145431":{"id":"100007930145431","name":"Phát Tôn"},"100006464765355":{"id":"100006464765355","name":"Khuong Nguyen"},"569263718":{"id":"569263718","name":"Phuong Thao Tran"},"100003618430824":{"id":"100003618430824","name":"Chizuko Takita"},"100005211189763":{"id":"100005211189763","name":"Oliveu Cchann"},"100007935731429":{"id":"100007935731429","name":"Hạnh Phúc Giản Đơn"},"100005694491959":{"id":"100005694491959","name":"Phuong Truong Thi Thanh"},"100001557981751":{"id":"100001557981751","name":"Hồ Ngọc Khanh"},"100001754136107":{"id":"100001754136107","name":"Nguyễn Tuấn Vũ"},"1365164212":{"id":"1365164212","name":"Trần Ngọc Việt Hoài"},"100000380905937":{"id":"100000380905937","name":"Tam Giao"},"100004082834314":{"id":"100004082834314","name":"Nguyễn Trọng Nghĩa"},"100003816548596":{"id":"100003816548596","name":"Toi la Toi"},"100005083511331":{"id":"100005083511331","name":"Hà Huy Anh"},"100000089472724":{"id":"100000089472724","name":"Duy Nguyen"},"100003497927634":{"id":"100003497927634","name":"Nguyễn Hải Hà"},"100001305518248":{"id":"100001305518248","name":"Libra Nguyễn"},"100006308318274":{"id":"100006308318274","name":"Kim Dp"},"100000040762045":{"id":"100000040762045","name":"Bình Minh"},"100006514214932":{"id":"100006514214932","name":"Lý Lém Lỉnh"},"100002444618453":{"id":"100002444618453","name":"Tomio  Ueno"},"100004142251650":{"id":"100004142251650","name":"Đá RúCuồi"},"100002963737004":{"id":"100002963737004","name":"Hà Phùng"},"100006299772244":{"id":"100006299772244","name":"Nguyễn Tuấn"},"1816269439":{"id":"1816269439","name":"Dao Ngoc"},"100000045271667":{"id":"100000045271667","name":"Nam Thai Nguyen"},"1146680551":{"id":"1146680551","name":"優しい なぁ"},"100003972879524":{"id":"100003972879524","name":"Hiền Hí Hửng"},"100003875211691":{"id":"100003875211691","name":"Hue Yamashironguyen"},"100001114549932":{"id":"100001114549932","name":"Bui Thanh Hung"},"100004428701108":{"id":"100004428701108","name":"Gió Vô Tình"},"1148962646":{"id":"1148962646","name":"Tran Thi Tuong Van"},"100003179134270":{"id":"100003179134270","name":"Hoàng Mai"},"1725907325":{"id":"1725907325","name":"Nguyen Van Dung"},"100000250256418":{"id":"100000250256418","name":"Nguyen Viet Anh"},"100000176631338":{"id":"100000176631338","name":"Hà Phương"},"100006520210904":{"id":"100006520210904","name":"Miu Miu"},"100004104734120":{"id":"100004104734120","name":"Nguyễn Hương"}},"paging":{"cursors":{"after":"MTAwMDA3ODY4NjIwNzY2","before":"MTAwMDA3ODY4NjIwNzY2"},"next":"https://graph.facebook.com/229244010425617_842070979142914/likes?limit=1&summary=1&after=MTAwMDA3ODY4NjIwNzY2"},"summary":{"total_count":159}},"comments":{"data":{"842083022475043":{"id":"842083022475043","from":{"id":"100001754136107","name":"Nguyễn Tuấn Vũ"},"message":"Vâng bạt ngàn rồi a. E đang tìm chỗ ngắm tối :)","can_remove":false,"created_time":"2014-03-30T06:36:39+0000","like_count":1,"user_likes":false},"842124895804189":{"id":"842124895804189","from":{"id":"100001416272263","name":"Mai PB"},"message":"Cẩn thận cảm lạnh thôi. :-)","can_remove":false,"created_time":"2014-03-30T08:53:43+0000","like_count":1,"user_likes":false},"842187489131263":{"id":"842187489131263","from":{"id":"100006337662088","name":"LO Ve SOe BOd"},"message":"ước gì mình dc ngồi ngắm nhĩ ...chưa thấy bao giờ","can_remove":false,"created_time":"2014-03-30T11:45:52+0000","like_count":1,"user_likes":false},"842235505793128":{"id":"842235505793128","from":{"id":"100005882954389","name":"Thu Hằng Nguyễn"},"message":"Chú Mai PB  ngắm đã luôn chứ ạ,cảm đã có ameflu :3.","message_tags":[{"id":"100001416272263","name":"Mai PB","type":"user","offset":4,"length":6}],"can_remove":false,"created_time":"2014-03-30T13:42:55+0000","like_count":0,"user_likes":false},"842262385790440":{"id":"842262385790440","from":{"id":"100006734168968","name":"Tiểu Nhân Mã"},"message":"Tuyệt :)","can_remove":false,"created_time":"2014-03-30T14:37:38+0000","like_count":0,"user_likes":false},"842737752409570":{"id":"842737752409570","from":{"id":"100005892573780","name":"Le Thien Huong"},"message":"aichi-ken cung da no ro hoa anh dao roi ne","can_remove":false,"created_time":"2014-03-31T11:35:41+0000","like_count":0,"user_likes":false}},"paging":{"cursors":{"after":"ODQyMDgzMDIyNDc1MDQz","before":"ODQyMDgzMDIyNDc1MDQz"},"next":"https://graph.facebook.com/229244010425617_842070979142914/comments?limit=1&summary=1&after=ODQyMDgzMDIyNDc1MDQz"},"summary":{"order":"chronological","total_count":6}}}