{"id":"229244010425617_842054969144515","type":"link","link":"http://www.baohaiquan.vn/faq/pages/co-the-mang-bao-nhieu-cai-dien-thoai-ve-viet-nam-ma-ko-bi-hai-quan-tinh-thue.aspx","from":{"id":"100000240603209","name":"Hoang De"},"message":"Bạn nào sắp về nước và đang phân vân chuyện được mang theo người tối đa bao nhiều điện thoại (hoặc mặt hàng khác) để không bị phạt thì có thể tham khảo bài viết này nhé. PS: Thực tế có thể khác :D\nhttp://www.baohaiquan.vn/faq/pages/co-the-mang-bao-nhieu-cai-dien-thoai-ve-viet-nam-ma-ko-bi-hai-quan-tinh-thue.aspx","created_time":"2014-03-30T05:11:08+0000","updated_time":"2014-03-30T14:38:16+0000","likes":{"data":{"100006801729102":{"id":"100006801729102","name":"Seki Hidetarou"},"100002799884048":{"id":"100002799884048","name":"Nacy Nguyen"},"100002855090345":{"id":"100002855090345","name":"Xuan Huy"},"100000160859016":{"id":"100000160859016","name":"Thien Binh"},"100005703791922":{"id":"100005703791922","name":"Hoa Tiên Tử"},"1283298041":{"id":"1283298041","name":"Búa Đức Thanh"}},"paging":{"cursors":{"after":"MTAwMDA2ODAxNzI5MTAy","before":"MTAwMDA2ODAxNzI5MTAy"},"next":"https://graph.facebook.com/229244010425617_842054969144515/likes?limit=1&summary=1&after=MTAwMDA2ODAxNzI5MTAy"},"summary":{"total_count":6}},"comments":{"data":{"842064449143567":{"id":"842064449143567","from":{"id":"100003115841931","name":"Bánh Đa Cá Rô"},"message":"Chả thấy rõ ràng gì cả","can_remove":false,"created_time":"2014-03-30T05:27:03+0000","like_count":2,"user_likes":false},"842064722476873":{"id":"842064722476873","from":{"id":"100000240603209","name":"Hoang De"},"message":"Bạn ko rõ chỗ nào, để mình thử xem có giúp đc ko :D","can_remove":false,"created_time":"2014-03-30T05:28:06+0000","like_count":0,"user_likes":false},"842065162476829":{"id":"842065162476829","from":{"id":"100003115841931","name":"Bánh Đa Cá Rô"},"message":"Ko thấy nói rõ số lượng đt","can_remove":false,"created_time":"2014-03-30T05:29:46+0000","like_count":0,"user_likes":false},"842065482476797":{"id":"842065482476797","from":{"id":"100000240603209","name":"Hoang De"},"message":"À, nó thuộc mục cuối ấy. Người ta ko quy định số lượng mà quy định về giá trị. Nếu vượt quá 5tr VND thì phần dôi ra sẽ phải đóng thuế, cụ thể là 10% thuế VAT.","can_remove":false,"created_time":"2014-03-30T05:31:26+0000","like_count":0,"user_likes":false},"842065715810107":{"id":"842065715810107","from":{"id":"100003115841931","name":"Bánh Đa Cá Rô"},"message":"1 con 5s đã quá 5tr vnđ rồi","can_remove":false,"created_time":"2014-03-30T05:32:21+0000","like_count":1,"user_likes":false},"842067529143259":{"id":"842067529143259","from":{"id":"100000240603209","name":"Hoang De"},"message":"thông tin này chỉ là 参考まで, biết đâu có lúc phải dùng đến :D","can_remove":false,"created_time":"2014-03-30T05:39:09+0000","like_count":0,"user_likes":false},"842067585809920":{"id":"842067585809920","from":{"id":"100003733403933","name":"Thôi Đừng"},"message":"20 cái, chắc chắn vì e đã thấy mấy lần rồi =))))","can_remove":false,"created_time":"2014-03-30T05:39:22+0000","like_count":1,"user_likes":false},"842083635808315":{"id":"842083635808315","from":{"id":"100006173952546","name":"Tinh Messi"},"message":"mang tiền về thì tối đa bao nhiêu lá vậy bạn Hoang De","message_tags":[{"id":"100000240603209","name":"Hoang De","type":"user","offset":45,"length":8}],"can_remove":false,"created_time":"2014-03-30T06:40:24+0000","like_count":0,"user_likes":false},"842083799141632":{"id":"842083799141632","from":{"id":"100000240603209","name":"Hoang De"},"message":"thấy mấy người trong cty mình mang đc 70 man","can_remove":false,"created_time":"2014-03-30T06:41:14+0000","like_count":0,"user_likes":false},"842084075808271":{"id":"842084075808271","from":{"id":"100006173952546","name":"Tinh Messi"},"message":"ít vậy sao","can_remove":false,"created_time":"2014-03-30T06:42:14+0000","like_count":0,"user_likes":false},"842084209141591":{"id":"842084209141591","from":{"id":"100003105034037","name":"Pham Oanh"},"message":"đt thì ăn may thôi,kể cảng mang 5 cái k bị các bác hải quan sờ gáy thì vẫn qua,,,còn tiền thi mang bnhieu về cũng được,cất xuống đế giầy ấy","can_remove":false,"created_time":"2014-03-30T06:43:07+0000","like_count":1,"user_likes":false},"842087545807924":{"id":"842087545807924","from":{"id":"528761061","name":"Huyen Trang"},"message":"Bữa nay qua cổng hải quan cởi giày ra đó bạn Pham Oanh","can_remove":false,"created_time":"2014-03-30T06:57:04+0000","like_count":0,"user_likes":false},"842089025807776":{"id":"842089025807776","from":{"id":"100000240603209","name":"Hoang De"},"message":"Nếu nhiều hơn thì có dịch vụ gửi tiền về VN đó, phí cũng ko đắt lắm. Bạn tìm hiểu trên mạng đấy, dịch vụ này nhiều lắm","can_remove":false,"created_time":"2014-03-30T07:00:19+0000","like_count":0,"user_likes":false},"842089539141058":{"id":"842089539141058","from":{"id":"100006173952546","name":"Tinh Messi"},"message":"hình như là tu nghiệp sinh thì mang tiền về tự do mà","can_remove":false,"created_time":"2014-03-30T07:01:52+0000","like_count":0,"user_likes":false},"842089885807690":{"id":"842089885807690","from":{"id":"100000240603209","name":"Hoang De"},"message":"Hải quan cần quan tâm bạn là ai, đã là luật thì áp dụng chung cho mọi công dân.","can_remove":false,"created_time":"2014-03-30T07:02:56+0000","like_count":1,"user_likes":false},"842222122461133":{"id":"842222122461133","from":{"id":"100003250099399","name":"Đảng Phương"},"message":"Mình có thấy ghi dc cầm bao nhieu cái đt thì ko phải tính thuế đâu?","can_remove":false,"created_time":"2014-03-30T13:11:45+0000","like_count":0,"user_likes":false},"842262632457082":{"id":"842262632457082","from":{"id":"100004066492246","name":"Quốc Huân"},"message":"Tien thi khong qua 5000 do la my nhe!nam ngoai minh ve tuong duoi 70, anh hai quan bao luat moi roi, chi ra cai bang bao anh ra ma doc, vai!!!!","can_remove":false,"created_time":"2014-03-30T14:38:16+0000","like_count":0,"user_likes":false}},"paging":{"cursors":{"after":"ODQyMDY0NDQ5MTQzNTY3","before":"ODQyMDY0NDQ5MTQzNTY3"},"next":"https://graph.facebook.com/229244010425617_842054969144515/comments?limit=1&summary=1&after=ODQyMDY0NDQ5MTQzNTY3"},"summary":{"order":"chronological","total_count":17}}}