{"id":"229244010425617_842045505812128","type":"status","from":{"id":"100000342230134","name":"Thuy Le"},"message":"Đôi dòng status đến các bạn Nhật! Chỗ nào ko ổn các bạn sửa giúp mình!\n\nベトナム役人はODAの汚職もあり\n留学生は日本で万引きしますし\nベトナム航空客室乗務員は盗品をベトナムに持ち込む事件もありました。\n\n基本的に法律が他国に比べてぬるいところも若干ありますがそれ以上に違憲されないように行きとどいた機関がしっかりしていないのがそもそものもんだいでもあります。\n\nそれは政権によってかなり左右されてしまう国でもあるし\n\n国民がそれを是正させる能力の無さも問題でもあります。","created_time":"2014-03-30T04:39:40+0000","updated_time":"2014-03-31T02:03:12+0000","likes":{"data":{"100005602539708":{"id":"100005602539708","name":"Minh Chien Tran"},"100002371397093":{"id":"100002371397093","name":"Le Duc Dat"},"100001526631937":{"id":"100001526631937","name":"Tường Oanh Mineko"},"1795482302":{"id":"1795482302","name":"Hùng Ngô"},"100004101038669":{"id":"100004101038669","name":"Oanh Inoshishi"},"100001432462223":{"id":"100001432462223","name":"Truong Nguyen"},"100004016574848":{"id":"100004016574848","name":"Tùng Thật Thà"},"100001738527005":{"id":"100001738527005","name":"Lương Thế Nhất"},"100001149552981":{"id":"100001149552981","name":"Hà Ngọc Hiếu"},"100004914783096":{"id":"100004914783096","name":"Nguyễn Văn Sự"},"100003066508559":{"id":"100003066508559","name":"Chung ZunZin"},"100001416272263":{"id":"100001416272263","name":"Mai PB"}},"paging":{"cursors":{"after":"MTAwMDA1NjAyNTM5NzA4","before":"MTAwMDA1NjAyNTM5NzA4"},"next":"https://graph.facebook.com/229244010425617_842045505812128/likes?limit=1&summary=1&after=MTAwMDA1NjAyNTM5NzA4"},"summary":{"total_count":12}},"comments":{"data":{"842046815811997":{"id":"842046815811997","from":{"id":"100003066508559","name":"Chung ZunZin"},"message":"Vâng chính nó","can_remove":false,"created_time":"2014-03-30T04:43:26+0000","like_count":0,"user_likes":false},"842046852478660":{"id":"842046852478660","from":{"id":"100003066508559","name":"Chung ZunZin"},"message":"","can_remove":false,"created_time":"2014-03-30T04:43:42+0000","like_count":0,"user_likes":false},"842046859145326":{"id":"842046859145326","from":{"id":"100001416272263","name":"Mai PB"},"message":"Bạn viết ý tiếng Việt ra nữa.","can_remove":false,"created_time":"2014-03-30T04:43:44+0000","like_count":1,"user_likes":false},"842053049144707":{"id":"842053049144707","from":{"id":"100004016574848","name":"Tùng Thật Thà"},"message":"K hiểu lắm có chuyện gì vậy?","can_remove":false,"created_time":"2014-03-30T05:05:18+0000","like_count":0,"user_likes":false},"842057082477637":{"id":"842057082477637","from":{"id":"100000342230134","name":"Thuy Le"},"message":"Ý tiếng v của mình đây!\nベトナム役人はODAの汚職もあり\n留学生は日本で万引きしますし\nベトナム航空客室乗務員は盗品をベトナムに持ち込む事件もありました。\nQuan chức thì tham ô vốn ODA, du học sinh thì ăn cắp, tiếp viên hàng không thì vận chuyển hàng hoá ăn cắp...\n\n基本的に法律が他国に比べてぬるいところも若干ありますがそれ以上に違憲されないように行きとどいた機関がしっかりしていないのがそもそものもんだいでもあります。\nCơ bản khi bạn so sánh với luật pháp của nc khác, ít nhiều bạn sẽ thấy sự ko rõ ràng để giải quyết vấn đề của Bộ máy nhà nc vn. Cũng chính vì những điều đó mà nó tạo nên vấn nạn như bây giờ!\n\nそれは政権によってかなり左右されてしまう国でもあるし\nMột chế độ như thế nào nó sẽ tạo ra một xã hội như vậy!\n\n国民がそれを是正させる能力の無さも問題でもあります。\nThật khó mà giải quyết vấn đề nếu  mọi Ng dân ko ai chịu nhìn ra lỗi đó để sửa chữa!","can_remove":false,"created_time":"2014-03-30T05:16:12+0000","like_count":6,"user_likes":false},"842067182476627":{"id":"842067182476627","from":{"id":"100005200064085","name":"Lan Anh Pham"},"message":"VN nhieu te nan lam.Tren ko nghiem thi lam sao bao duoc dan","can_remove":false,"created_time":"2014-03-30T05:37:48+0000","like_count":0,"user_likes":false},"842199262463419":{"id":"842199262463419","from":{"id":"100001416272263","name":"Mai PB"},"message":"Thuy Le mình sửa chút xíu nhé.\n\nベトナムの役人がODAを汚職したり\nベトナム人留学生が日本で万引きしたり\nベトナム航空の客室乗務員が盗品をベトナムに持ち込んだりした事件が最近大きく取り上げられています。\n\n基本的に法律が他国に比べてぬるいところも若干ありますが、それ以上に取り締まる体制がしっかり機能していないことが、そもそもの問題でもあります。\n\n取り締まる機能自体が政権に操作されている国でもあります。\n\n国民がそれを是正させる能力の無さも問題ではあります。","message_tags":[{"id":"100000342230134","name":"Thuy Le","type":"user","offset":0,"length":7}],"can_remove":false,"created_time":"2014-03-30T12:18:43+0000","like_count":6,"user_likes":false},"842541025762576":{"id":"842541025762576","from":{"id":"100000342230134","name":"Thuy Le"},"message":"ありがとうMai PB!","can_remove":false,"created_time":"2014-03-31T02:03:12+0000","like_count":1,"user_likes":false}},"paging":{"cursors":{"after":"ODQyMDQ2ODE1ODExOTk3","before":"ODQyMDQ2ODE1ODExOTk3"},"next":"https://graph.facebook.com/229244010425617_842045505812128/comments?limit=1&summary=1&after=ODQyMDQ2ODE1ODExOTk3"},"summary":{"order":"chronological","total_count":8}}}