{"id":"229244010425617_842028639147148","type":"status","from":{"id":"100004394924539","name":"Jinvôlối Nguyễn"},"message":"みなさん おはようございます\n Trong page có ace nào rảnh ngồi kaiwa cho e từ bài 1=>>>> bài 5 cái\nVề nhà có tuần mà sợ qên ngữ pháp qá\nViber,zalo,line : 0987669394\n道もありがとうございます","created_time":"2014-03-30T03:40:29+0000","updated_time":"2014-03-30T05:32:35+0000","likes":{"data":{"100008047423708":{"id":"100008047423708","name":"のび た"},"100003841915569":{"id":"100003841915569","name":"Quang Hợp"},"100005711643856":{"id":"100005711643856","name":"Nguyễn Văn Chính"},"100005734772637":{"id":"100005734772637","name":"Daj Anh Hang"}},"paging":{"cursors":{"after":"MTAwMDA4MDQ3NDIzNzA4","before":"MTAwMDA4MDQ3NDIzNzA4"},"next":"https://graph.facebook.com/229244010425617_842028639147148/likes?limit=1&summary=1&after=MTAwMDA4MDQ3NDIzNzA4"},"summary":{"total_count":5}},"comments":{"data":{"842030309146981":{"id":"842030309146981","from":{"id":"100007797156820","name":"Sói Già"},"message":"Chj co skye thuj","can_remove":false,"created_time":"2014-03-30T03:46:38+0000","like_count":0,"user_likes":false},"842032282480117":{"id":"842032282480117","from":{"id":"100005444224792","name":"Anna Anh Nheo"},"message":"ざんねんですね","can_remove":false,"created_time":"2014-03-30T03:53:07+0000","like_count":0,"user_likes":false},"842032592480086":{"id":"842032592480086","from":{"id":"100005734772637","name":"Daj Anh Hang"},"message":"Ok","can_remove":false,"created_time":"2014-03-30T03:54:15+0000","like_count":0,"user_likes":false},"842034759146536":{"id":"842034759146536","from":{"id":"100004394924539","name":"Jinvôlối Nguyễn"},"message":"Daj anh Daj Anh Hang chị cứ nt vào zalo hay viber của e nhé","message_tags":[{"id":"100005734772637","name":"Daj Anh Hang","type":"user","offset":8,"length":12}],"can_remove":false,"created_time":"2014-03-30T04:02:43+0000","like_count":0,"user_likes":false},"842035259146486":{"id":"842035259146486","from":{"id":"100004394924539","name":"Jinvôlối Nguyễn"},"message":"Anna anh nheo: はい","can_remove":false,"created_time":"2014-03-30T04:04:32+0000","like_count":0,"user_likes":false},"842035602479785":{"id":"842035602479785","from":{"id":"100005444224792","name":"Anna Anh Nheo"},"message":"Bạn có hiêu từ lúc tôi viet đay la j k","can_remove":false,"created_time":"2014-03-30T04:05:50+0000","like_count":0,"user_likes":false},"842035942479751":{"id":"842035942479751","from":{"id":"100005444224792","name":"Anna Anh Nheo"},"message":"きよう。なんがつなんにちですか","can_remove":false,"created_time":"2014-03-30T04:07:29+0000","like_count":0,"user_likes":false},"842036089146403":{"id":"842036089146403","from":{"id":"100005444224792","name":"Anna Anh Nheo"},"message":"たんじょうびはいつですか","can_remove":false,"created_time":"2014-03-30T04:08:05+0000","like_count":0,"user_likes":false},"842042695812409":{"id":"842042695812409","from":{"id":"100004394924539","name":"Jinvôlối Nguyễn"},"message":"きようさんがつにちようびです","can_remove":false,"created_time":"2014-03-30T04:32:23+0000","like_count":0,"user_likes":false},"842044005812278":{"id":"842044005812278","from":{"id":"100004394924539","name":"Jinvôlối Nguyễn"},"message":"わたしのたんようびは 4月 7日 です","can_remove":false,"created_time":"2014-03-30T04:37:26+0000","like_count":0,"user_likes":false},"842044139145598":{"id":"842044139145598","from":{"id":"100004394924539","name":"Jinvôlối Nguyễn"},"message":"Từ đó là đág tiếc nhỉ","can_remove":false,"created_time":"2014-03-30T04:37:55+0000","like_count":0,"user_likes":false},"842044369145575":{"id":"842044369145575","from":{"id":"100005444224792","name":"Anna Anh Nheo"},"message":"そだね","can_remove":false,"created_time":"2014-03-30T04:38:24+0000","like_count":0,"user_likes":false},"842044592478886":{"id":"842044592478886","from":{"id":"100005444224792","name":"Anna Anh Nheo"},"message":"B hk tieng nhat di du hk hay dj lao động","can_remove":false,"created_time":"2014-03-30T04:38:52+0000","like_count":0,"user_likes":false},"842065769143435":{"id":"842065769143435","from":{"id":"100004394924539","name":"Jinvôlối Nguyễn"},"message":"Chưa xác định nữa b ah","can_remove":false,"created_time":"2014-03-30T05:32:35+0000","like_count":0,"user_likes":false}},"paging":{"cursors":{"after":"ODQyMDMwMzA5MTQ2OTgx","before":"ODQyMDMwMzA5MTQ2OTgx"},"next":"https://graph.facebook.com/229244010425617_842028639147148/comments?limit=1&summary=1&after=ODQyMDMwMzA5MTQ2OTgx"},"summary":{"order":"chronological","total_count":14}}}