{"id":"229244010425617_842140849135927","type":"photo","object_id":"10152056703166723","picture":"https://fbcdn-photos-e-a.akamaihd.net/hphotos-ak-prn1/t1.0-0/1970486_10152056703166723_1387115273_s.jpg","link":"https://www.facebook.com/photo.php?fbid=10152056703166723&set=pcb.842140849135927&type=1&relevant_count=8","from":{"id":"620066722","name":"Dong Khac Thai"},"message":"【Trải nghiệm】Giúp đỡ vùng động đất tại tỉnh Miyagi\n\n Mình may mắn được tham gia hoạt động giúp đỡ vùng sóng thần tại tỉnh Miyagi, có dịp nắm tình hình và giao lưu người dân địa phương. Mình tham gia trồng cây tại Minamisanriku và Kesennuma là vùng chịu nhiều ảnh hưởng của sóng thần, giao lưu với người dân sống trong khu ở tạm và có kỷ niệm khó quên. Đã 3 năm từ ngày sóng thần xảy ra nhưng để hồi phục thì còn mất thời gian. Tuy nhiên mọi người luôn vui vẻ và xây dựng lại nhà cửa và cuộc sống với tinh thần\" Người cố gắng là con người đẹp\"\n\n【体験】宮城県での震災支援活動\n \n幸運にも宮城県で震災支援活動に参加し、現地の状況を把握し、現地の人と交流出来た。津波による大きいな被害を受けた南三陸と気仙沼でガーデンを作り、仮設住宅の皆と交流して、忘れない記念になった。津波が起きてから3年経ったが、復興にはまだまだ時間がかかる。でも皆明るく、「頑張っている人は美しい」という前向きの心をこめて、町と生活を立ち直している！","created_time":"2014-03-30T09:47:36+0000","updated_time":"2014-03-31T10:49:56+0000","likes":{"data":{"100001787116330":{"id":"100001787116330","name":"Thụy Nhạc"},"100000022163023":{"id":"100000022163023","name":"Kafe Ore"},"100004564327116":{"id":"100004564327116","name":"Tiến Bình Nguyễn"},"100003776831083":{"id":"100003776831083","name":"Winter Ice"},"100000062835678":{"id":"100000062835678","name":"Chau Tuyet Bao Ngan"},"100004313589403":{"id":"100004313589403","name":"Phuocthua Lại"},"1217216466":{"id":"1217216466","name":"Jason Thai"},"100001432462223":{"id":"100001432462223","name":"Truong Nguyen"},"100000309415626":{"id":"100000309415626","name":"Kona Yuki"},"100003896124456":{"id":"100003896124456","name":"Van Tho"},"100001995633843":{"id":"100001995633843","name":"Yasunobu Toda"},"100007293188338":{"id":"100007293188338","name":"Dương Lê"},"100003327351931":{"id":"100003327351931","name":"Bánh Mì Sữa"},"100004716847212":{"id":"100004716847212","name":"Khoa Lưu"},"100003321820884":{"id":"100003321820884","name":"Tan Trong Gió"},"100000309153854":{"id":"100000309153854","name":"Pham Thuong"},"100000182896770":{"id":"100000182896770","name":"Luu Duy Phuong"},"100007938450435":{"id":"100007938450435","name":"Miruku Chokoreeto"},"100001786404410":{"id":"100001786404410","name":"Huệ Nguyễn"},"1293159975":{"id":"1293159975","name":"Wind Sea"},"100003785055521":{"id":"100003785055521","name":"Tiểu Long Nữ"},"100000368791196":{"id":"100000368791196","name":"Phuong Anh"},"701321818":{"id":"701321818","name":"Chau Tran"},"100000061732836":{"id":"100000061732836","name":"Hoàng Linh"},"100007861051666":{"id":"100007861051666","name":"Anan Cho"},"100001924391875":{"id":"100001924391875","name":"Toyoki Furusawa"},"100003778246918":{"id":"100003778246918","name":"Quá Khứ"},"1103173052":{"id":"1103173052","name":"Uyên Nguyễn"},"100000310503315":{"id":"100000310503315","name":"Kayo Chan"},"100006848558742":{"id":"100006848558742","name":"Lan Đồng"},"100004380181780":{"id":"100004380181780","name":"Be Boo"},"100001161097054":{"id":"100001161097054","name":"Hoa Lê"},"100001738431359":{"id":"100001738431359","name":"Phuongthao Nguyen"},"1257384319":{"id":"1257384319","name":"Trường Giang"},"100005801442456":{"id":"100005801442456","name":"An Nguyen"},"100001754136107":{"id":"100001754136107","name":"Nguyễn Tuấn Vũ"},"100004250740742":{"id":"100004250740742","name":"Trang Nguyen"},"1118453345":{"id":"1118453345","name":"Tâm Tung Tăng"},"100008133690691":{"id":"100008133690691","name":"Con Yêu Mẹ"},"100003893158172":{"id":"100003893158172","name":"Maru MO"},"100007323884318":{"id":"100007323884318","name":"Thu Hoai"},"100003039237438":{"id":"100003039237438","name":"Huong Luu Thi"},"100004200750629":{"id":"100004200750629","name":"Ansansan Trần"},"100000045271667":{"id":"100000045271667","name":"Nam Thai Nguyen"},"100001458099624":{"id":"100001458099624","name":"Kham Pha"},"100006663067003":{"id":"100006663067003","name":"Bình Heo"},"100001518348768":{"id":"100001518348768","name":"Nguyễn Trọng Tước"},"100001526631937":{"id":"100001526631937","name":"Tường Oanh Mineko"},"1394148660":{"id":"1394148660","name":"Cừu Non"},"100007235437741":{"id":"100007235437741","name":"Trang Virgo"},"100005200064085":{"id":"100005200064085","name":"Lan Anh Pham"},"100004639693097":{"id":"100004639693097","name":"Họ Nguyễn Công Tử"},"581814582":{"id":"581814582","name":"Nguyen Dinh Duc"},"100004889430124":{"id":"100004889430124","name":"Quiet Man"},"100001416272263":{"id":"100001416272263","name":"Mai PB"},"100006814592600":{"id":"100006814592600","name":"Nguyễn Mạnh Tuấn"},"100003732529410":{"id":"100003732529410","name":"Huong Dang"},"100004747622463":{"id":"100004747622463","name":"Tuan Phuong"},"100000037105491":{"id":"100000037105491","name":"Nguyen Kein"},"1146680551":{"id":"1146680551","name":"優しい なぁ"},"100000500260636":{"id":"100000500260636","name":"Lưu Nguyễn Thảo Tiên"},"100005067546276":{"id":"100005067546276","name":"Quynh Buivan"},"100001958220978":{"id":"100001958220978","name":"Trung Hiếu Bắp"},"100005344084736":{"id":"100005344084736","name":"Nhất Nhất"},"1821970083":{"id":"1821970083","name":"Nguyễn Mạnh Cường"},"100004862467178":{"id":"100004862467178","name":"Thủy Tr"},"1601782802":{"id":"1601782802","name":"Phùng Chí Hướng"},"100005866751996":{"id":"100005866751996","name":"Nam Nguyen"},"100005740812680":{"id":"100005740812680","name":"Hoàng Thúy Quỳnh"},"100003920174988":{"id":"100003920174988","name":"Chuot Dong"},"100005250991724":{"id":"100005250991724","name":"Ngô Thị Ái"},"569263718":{"id":"569263718","name":"Phuong Thao Tran"},"100001113873095":{"id":"100001113873095","name":"Đào Khoa"},"100001640832299":{"id":"100001640832299","name":"Hoàng Đạt"},"100001899363306":{"id":"100001899363306","name":"Ruby Nguyen"},"100000135225954":{"id":"100000135225954","name":"Miky Thao Nguyen"},"100004859014587":{"id":"100004859014587","name":"Hoang Helu"},"100001338846010":{"id":"100001338846010","name":"Sơn Nguyễn Minh"},"100001542633887":{"id":"100001542633887","name":"Uknwon Phạm"},"100004712551712":{"id":"100004712551712","name":"Pe Hoai"},"100000889991755":{"id":"100000889991755","name":"Nhat Vy"},"100004676318674":{"id":"100004676318674","name":"Nguyễn Huy Hoàng"},"100002428163247":{"id":"100002428163247","name":"Trần Đức Hùng"},"100006296409820":{"id":"100006296409820","name":"Tham Hoang"}},"paging":{"cursors":{"after":"MTAwMDAxNzg3MTE2MzMw","before":"MTAwMDAxNzg3MTE2MzMw"},"next":"https://graph.facebook.com/229244010425617_842140849135927/likes?limit=1&summary=1&after=MTAwMDAxNzg3MTE2MzMw"},"summary":{"total_count":84}},"comments":{"data":{"842178032465542":{"id":"842178032465542","from":{"id":"100001416272263","name":"Mai PB"},"message":"Dong Khac Thai đi thế nào vậy, tổ chức cho các kohai đi cùng được không?","message_tags":[{"id":"620066722","name":"Dong Khac Thai","type":"user","offset":0,"length":14}],"can_remove":false,"created_time":"2014-03-30T11:21:28+0000","like_count":0,"user_likes":false},"842191139130898":{"id":"842191139130898","from":{"id":"620066722","name":"Dong Khac Thai"},"message":"Mai PB:hoạt động của cty tổ chức, còn cá nhân chắc khó a. Lý do là chi phí đi lên đó khá mắc, nếu tự đi thì mất shinkansen thì mất khoảng 2.5 man và không có xe bus thì ga tới địa điểm. Còn muốn giao lưu với ng trong khu nhà tạm chắc phải đi với tư cách cty họ mới tin.","message_tags":[{"id":"100001416272263","name":"Mai PB","type":"user","offset":0,"length":6}],"can_remove":false,"created_time":"2014-03-30T11:55:49+0000","like_count":2,"user_likes":false},"842212919128720":{"id":"842212919128720","from":{"id":"100000045271667","name":"Nam Thai Nguyen"},"message":"Xuân Dũng Vũ cái em quan tâm này","message_tags":[{"id":"100001189795272","name":"Xuân Dũng Vũ","type":"user","offset":0,"length":12}],"can_remove":false,"created_time":"2014-03-30T12:50:53+0000","like_count":1,"user_likes":false},"842229775793701":{"id":"842229775793701","from":{"id":"100001416272263","name":"Mai PB"},"message":"\"Người cố gắng là con người đẹp\"","can_remove":false,"created_time":"2014-03-30T13:28:48+0000","like_count":1,"user_likes":false},"842230249126987":{"id":"842230249126987","from":{"id":"620066722","name":"Dong Khac Thai"},"message":"Để e sửa lại câu trên.","can_remove":false,"created_time":"2014-03-30T13:30:03+0000","like_count":0,"user_likes":false},"842235632459782":{"id":"842235632459782","from":{"id":"100001416272263","name":"Mai PB"},"message":"Thiếu một chữ con là ý hơi khác đó nha :-)","can_remove":false,"created_time":"2014-03-30T13:43:04+0000","like_count":0,"user_likes":false},"842237815792897":{"id":"842237815792897","from":{"id":"620066722","name":"Dong Khac Thai"},"message":"Ah thanks a, e sửa thiếu.","can_remove":false,"created_time":"2014-03-30T13:47:47+0000","like_count":0,"user_likes":false},"842263979123614":{"id":"842263979123614","from":{"id":"100001189795272","name":"Xuân Dũng Vũ"},"message":"1 tuần nữa là đặt chân lên đất Nhật rồi. Không biết có thực hiện được những điều ấp ủ bấy lâu không? :)","can_remove":false,"created_time":"2014-03-30T14:40:40+0000","like_count":0,"user_likes":false},"842632139086798":{"id":"842632139086798","from":{"id":"100006263888044","name":"Hoàng Oanh"},"message":"ban đi trường nào vậy xuan dũng vũ","can_remove":false,"created_time":"2014-03-31T06:33:16+0000","like_count":0,"user_likes":false},"842717032411642":{"id":"842717032411642","from":{"id":"100001189795272","name":"Xuân Dũng Vũ"},"message":"Nhật ngữ Naga bạn ạ? Còn bạn thì sao?","can_remove":false,"created_time":"2014-03-31T10:49:56+0000","like_count":0,"user_likes":false}},"paging":{"cursors":{"after":"ODQyMTc4MDMyNDY1NTQy","before":"ODQyMTc4MDMyNDY1NTQy"},"next":"https://graph.facebook.com/229244010425617_842140849135927/comments?limit=1&summary=1&after=ODQyMTc4MDMyNDY1NTQy"},"summary":{"order":"chronological","total_count":10}}}