{"id":"229244010425617_842163029133709","type":"status","from":{"id":"100006860345272","name":"Đời Không Như Ý"},"message":"Em xin chào các a các chị trong nhóm. Chúc các a các chị có 1 buổi tối chủ nhật vui vẻ.\nEm xin có chuyện này muốn hỏi các a các chị hi.\n\nPhương án1.\nEm và gia đình đang dự tính cho em đi xuất khẩu lao động  ở nhật. Nhà em cũng tìm hiểu qua người nhà nếu đi phải đặt tiền từ 180triệu cho tới tận 200triệu một số tiền ko hề nhỏ :(. Nếu đi theo đường này nhà em phải đi vay lãi ngoài ( tín dụng đen ) vì mẹ em nói khi đi bên công ti nhật họ giữ bìa đỏ nhà ( vì sợ ng vn trốn ra ngoài và ...vv) vì vậy ko thể mang bìa đỏ đi ký gửi ngân hàng để vay đc :(.\n\nPhương án 2.\nỞ nhà em có nge thông báo của xã là năm nay có tuyển người đi XKLĐ ở Nhật Hàn Malai ĐàLoan có người nước ngoài trực tiếp về tuyển dụng vàv đặc biệt ko mất tiền đặt cọc khoản tiền này do nhà nước trợ cấp hay do ngân hàng thì phải e cũng chưa rõ nhưng khi sang đó làm họ sẽ giữ lương của minh và khi nào về nước mới trả toàn bộ và sẽ trừ các khoản tiền mà lúc đầu minh ko phải đóng nhà nước hoặc ngân hàng chĩ giữ các giấy tờ quan trọng như bìa đỏ và hộ khẩu...\n\nTheo a chị đi theo phương án nào tốt hơn ạ . mong anh chị chỉ giúp em với . Em xin cảm ơn","created_time":"2014-03-30T10:56:25+0000","updated_time":"2014-03-31T04:44:31+0000","likes":{"data":{"100000184842814":{"id":"100000184842814","name":"Nguyễn Bá Phước"},"100001260645727":{"id":"100001260645727","name":"Ngo Duy Son"},"100004614361427":{"id":"100004614361427","name":"Hoàng Phi Hồng"},"100004575969764":{"id":"100004575969764","name":"Ok Finish"},"100005051881072":{"id":"100005051881072","name":"Nhớ Nhớ"},"100000271705877":{"id":"100000271705877","name":"Nguyễn Văn Minh"},"100003668363026":{"id":"100003668363026","name":"Esctasy Ketamin"},"100005590448710":{"id":"100005590448710","name":"Ngây Thơ"},"100000469475474":{"id":"100000469475474","name":"Hùng Nguyễn Duy"},"100003999550908":{"id":"100003999550908","name":"Ishi Kusa"},"100007756088326":{"id":"100007756088326","name":"Trung Pham"}},"paging":{"cursors":{"after":"MTAwMDAwMTg0ODQyODE0","before":"MTAwMDAwMTg0ODQyODE0"},"next":"https://graph.facebook.com/229244010425617_842163029133709/likes?limit=1&summary=1&after=MTAwMDAwMTg0ODQyODE0"},"summary":{"total_count":11}},"comments":{"data":{"842163739133638":{"id":"842163739133638","from":{"id":"100003776524244","name":"Jin Sylph"},"message":"đi làm mà ngta giữ lương của mình :)) chưa nghe bao h","can_remove":false,"created_time":"2014-03-30T10:58:51+0000","like_count":0,"user_likes":false},"842166792466666":{"id":"842166792466666","from":{"id":"100004178466278","name":"Thu Tồ Đông Anh"},"message":"Ở nhà đi bạn ạ","can_remove":false,"created_time":"2014-03-30T11:02:52+0000","like_count":0,"user_likes":false},"842167835799895":{"id":"842167835799895","from":{"id":"100008012021964","name":"Công Tủ Đa Tình"},"message":"Đung di lm gj","can_remove":false,"created_time":"2014-03-30T11:03:21+0000","like_count":0,"user_likes":false},"842168925799786":{"id":"842168925799786","from":{"id":"100003041735407","name":"Duy Nhất"},"message":"Thế thì ở nhà cho lành","can_remove":false,"created_time":"2014-03-30T11:05:09+0000","like_count":0,"user_likes":false},"842169655799713":{"id":"842169655799713","from":{"id":"100006860345272","name":"Đời Không Như Ý"},"message":"đi như phương án 2  ở làng em có a đi rồi về nước ms nhận lương nhận 1phát lương của 3năm luôn ấy nhưng bị trừ rất nhiều vì lúc đi ko mất tiền đặt cọc mà a","can_remove":false,"created_time":"2014-03-30T11:07:17+0000","like_count":0,"user_likes":false},"842175455799133":{"id":"842175455799133","from":{"id":"100005747108778","name":"Hồng Ngọc"},"message":"ở nhà đi.","can_remove":false,"created_time":"2014-03-30T11:15:48+0000","like_count":0,"user_likes":false},"842177002465645":{"id":"842177002465645","from":{"id":"100005200064085","name":"Lan Anh Pham"},"message":"coi chừng bị lừa đấy bạn.Hôm nay minh mới nghe  thấy","can_remove":false,"created_time":"2014-03-30T11:19:14+0000","like_count":0,"user_likes":false},"842177439132268":{"id":"842177439132268","from":{"id":"100004889430124","name":"Quiet Man"},"message":"Nếu đi thì bạn vào trong TP.HCM, trong đó giá mềm hơn, tầm 80m","can_remove":false,"created_time":"2014-03-30T11:20:35+0000","like_count":0,"user_likes":false},"842178059132206":{"id":"842178059132206","from":{"id":"100006860345272","name":"Đời Không Như Ý"},"message":"trời sao mn toàn kêu ở nhà vậy :(","can_remove":false,"created_time":"2014-03-30T11:21:31+0000","like_count":0,"user_likes":false},"842178245798854":{"id":"842178245798854","from":{"id":"100001416272263","name":"Mai PB"},"message":"Em vào đây hỏi các anh chị này nhé. https://www.facebook.com/notes/833103253373020","can_remove":false,"created_time":"2014-03-30T11:22:17+0000","like_count":0,"user_likes":false},"842178272465518":{"id":"842178272465518","from":{"id":"100003640960503","name":"Li Na"},"message":"Lạ nhỉ","can_remove":false,"created_time":"2014-03-30T11:22:24+0000","like_count":0,"user_likes":false},"842179089132103":{"id":"842179089132103","from":{"id":"100007224491761","name":"Nguyễn Thành Nam"},"message":"phương án 2 đi","can_remove":false,"created_time":"2014-03-30T11:25:10+0000","like_count":0,"user_likes":false},"842179202465425":{"id":"842179202465425","from":{"id":"100006116286615","name":"You Hana"},"message":"sao đặt cọc nhiều thế, bây giờ đi xkl chỉ mất cọc khoảng 60m và sổ đỏ là xong mà. Còn thông tin ở xã bạn nghe vô lý quá, lần đầu tiên nghe","can_remove":false,"created_time":"2014-03-30T11:25:38+0000","like_count":0,"user_likes":false},"842182842465061":{"id":"842182842465061","from":{"id":"100001416272263","name":"Mai PB"},"message":"đã xóa các message viết không dấu","can_remove":false,"created_time":"2014-03-30T11:32:32+0000","like_count":1,"user_likes":false},"842186602464685":{"id":"842186602464685","from":{"id":"100000628549116","name":"Hoàng Chính"},"message":"Phuong án 3 là ở nhà thi tốt hơn đấy","can_remove":false,"created_time":"2014-03-30T11:43:17+0000","like_count":0,"user_likes":false},"842188542464491":{"id":"842188542464491","from":{"id":"100004409381858","name":"Cuc Vu"},"message":"Chả có cty nhật nào giữ bìa đỏ của bạn cả. Mà tiền đặt cọc bjo chỉ khoảng 80tr thôi","can_remove":false,"created_time":"2014-03-30T11:48:18+0000","like_count":0,"user_likes":false},"842188615797817":{"id":"842188615797817","from":{"id":"100000603915176","name":"悪いな ぁ"},"message":"Các bác kg có một tí phân tích mà chỉ cmt vớ vẩn bảo chọn này nọ đi có cảm thấy mình vô trách nhiệm lắm kg?","can_remove":false,"created_time":"2014-03-30T11:48:29+0000","like_count":2,"user_likes":false},"842189062464439":{"id":"842189062464439","from":{"id":"100006860345272","name":"Đời Không Như Ý"},"message":"cảm ơn mn có lẽ minh cần tìm hiểu thông tin từ nhiều nguồn hơn","can_remove":false,"created_time":"2014-03-30T11:49:54+0000","like_count":0,"user_likes":false},"842189699131042":{"id":"842189699131042","from":{"id":"100006185262777","name":"Xu Xu"},"message":"phương án 1 bạn đi làm tiền lương của bạn gởi về chỉ đủ đóng lãi đen và chỉ đủ bạn giữ 1 ít chi tiêu và khi về chưa chắc lấy lại được sổ đỏ hay trả hết nợ. \nphương án 2 nếu bạn bạn chấp nhận lãng phí thời gian sức lực để lao động miễn phí cho công ty ma thì đây là phương án khả thi. \nchúc bạn lựa chọn đúng đắn","can_remove":false,"created_time":"2014-03-30T11:52:14+0000","like_count":1,"user_likes":false},"842192825797396":{"id":"842192825797396","from":{"id":"100000469475474","name":"Hùng Nguyễn Duy"},"message":"Chắc nghe nhầm chứ làm j có giữ lương, b nên tìm công ty của nhà nước và có giấy phép kih doanh để đi","can_remove":false,"created_time":"2014-03-30T12:01:24+0000","like_count":0,"user_likes":false},"842195252463820":{"id":"842195252463820","from":{"id":"100004531154067","name":"Linh Linh"},"message":"1 cậu àh.tớ cũg xắp đj.tớ chọn đj theo đừơg du học tuy vất vả 1 tý nhưng an toàn nhất.tháng tớj tớ sẽ đj học tjếng và tháng 11 cũng đj rồj.  nếu cậu mà đj kjểu xkld.như kjểu t2 ấy thỳ tớ khuyên cậu ở vn vẫn hơn. Tạj vj lúc cậu về sau khj tính tóan và trừ hết tất cả các khỏan thỳ lương của cậu cũng chj tầm 4-5 trjệu 1 tháng,mà trong khj đó cậu pảj xa gd.xa quê hương đến 1 nơj xa lạ như thế hok đáng đâu","can_remove":false,"created_time":"2014-03-30T12:09:00+0000","like_count":0,"user_likes":false},"842197795796899":{"id":"842197795796899","from":{"id":"100006860345272","name":"Đời Không Như Ý"},"message":"Cảm on mn đã chia sẽ minh sẽ xem thông tin từ nhiều phía . Cảm ơn mọi người . Mọi thứ thật không đơn giản chút nào","can_remove":false,"created_time":"2014-03-30T12:13:55+0000","like_count":0,"user_likes":false},"842198692463476":{"id":"842198692463476","from":{"id":"100004531154067","name":"Linh Linh"},"message":"um.dug vay.","can_remove":false,"created_time":"2014-03-30T12:16:32+0000","like_count":0,"user_likes":false},"842207502462595":{"id":"842207502462595","from":{"id":"100007576184490","name":"Hoài Phương"},"message":"Pạn,nên,lựa,chọn,thật,kĩ,vì,k,ai,cho,k,mìh,kái,gj,kả,fươg,án,2ý","can_remove":false,"created_time":"2014-03-30T12:40:43+0000","like_count":0,"user_likes":false},"842212779128734":{"id":"842212779128734","from":{"id":"100006569651679","name":"Huyen Minh Trang"},"message":"toan bon lua dao thoi.phuong an toi uu nhat la o nha","can_remove":false,"created_time":"2014-03-30T12:50:33+0000","like_count":0,"user_likes":false},"842213465795332":{"id":"842213465795332","from":{"id":"100005690740678","name":"Bui Thanh Tung"},"message":"Pa2 :Nếu nó giữ tiền lương của mình thì không nên đi , vì nếu hết hợp đồng cty tuyên bố phá sản thì đòi vào đâu ? Người nước ngoài thì cũng ba vạ lắm , hợp đồng chắc chắn hẵng đi . \nPa1 : đặt tiền rồi thì tại sao còn giữ sổ đỏ nhà người ta ? \nTheo mình thì : nếu thông tin rõ ràng , thì pa1 nghiêng hơn 1 chút . Vay ngoài cũng được , cũng có nhiều người làm thế . Song quan trọng nhất là phải xem bọn môi giới Vn có đáng tin cậy ko ? Nếu ko đáng tin cậy thì tốt nhất là ko dây dưa , đi tìm mối khác !","can_remove":false,"created_time":"2014-03-30T12:52:00+0000","like_count":0,"user_likes":false},"842218355794843":{"id":"842218355794843","from":{"id":"100003716785430","name":"Tham Le"},"message":"đi xkld theo cty bạn à, tổng cộng hết 200tr  gồm tiền đặt cọc(60-100tr tùy công ty) rồi, còn nếu cty khác bắt đặt cọc sổ đỏ thì sẽ ko phải đặt cọc tiền nữa đâu bạn ah.","can_remove":false,"created_time":"2014-03-30T13:03:20+0000","like_count":0,"user_likes":false},"842220365794642":{"id":"842220365794642","from":{"id":"100003716785430","name":"Tham Le"},"message":"có ai đi cty jnvet chưa cả nhà?","can_remove":false,"created_time":"2014-03-30T13:08:05+0000","like_count":0,"user_likes":false},"842220382461307":{"id":"842220382461307","from":{"id":"100005744975477","name":"Tuyết Mùa Hè"},"message":"Theo t nghĩ nếu gia đình b phải vay mượn cho b thì tốt nhất b nên ở nhà. Sẽ có nhiều chuyện xra vs b trong khi t.nhật ko tốt lm, nợ ở nhà vẫn chưa trả đk. Áp lực, vất vả,...sẽ khiến b hối hận đấy, và khi đó hối cũng muộn rồi","can_remove":false,"created_time":"2014-03-30T13:08:12+0000","like_count":1,"user_likes":false},"842221335794545":{"id":"842221335794545","from":{"id":"100005757881258","name":"Ngát Bolly"},"message":"Ở nhà !!!","can_remove":false,"created_time":"2014-03-30T13:10:17+0000","like_count":0,"user_likes":false},"842221399127872":{"id":"842221399127872","from":{"id":"100005744975477","name":"Tuyết Mùa Hè"},"message":"Nếu ra tphố lm thuê và tiết kiệm 3n b cũng t.kiệm đk tầm 70 80tr rui","can_remove":false,"created_time":"2014-03-30T13:10:23+0000","like_count":0,"user_likes":false},"842223342461011":{"id":"842223342461011","from":{"id":"100005744975477","name":"Tuyết Mùa Hè"},"message":"Vâng. N nếu ko cân nhắc cthể đổi đời theo chiều # đoỏ :)","can_remove":false,"created_time":"2014-03-30T13:13:57+0000","like_count":0,"user_likes":false},"842224932460852":{"id":"842224932460852","from":{"id":"100003716785430","name":"Tham Le"},"message":"Nếu bạn quyết định đi để giúp đỡ gia đình và thay đổi cuộc sống. Thì bạn tìm hiểu xem công ty nào uy tín thôi , chứ chắc chắn là sẽ phải vay mượn rồi ai cũng thế mà làm gì có gđ nào có tiền đâu.","can_remove":false,"created_time":"2014-03-30T13:16:28+0000","like_count":0,"user_likes":false},"842230579126954":{"id":"842230579126954","from":{"id":"100006860345272","name":"Đời Không Như Ý"},"message":"Cảm ơn mọi người. :(","can_remove":false,"created_time":"2014-03-30T13:31:24+0000","like_count":0,"user_likes":false},"842233939126618":{"id":"842233939126618","from":{"id":"100003716785430","name":"Tham Le"},"message":"mình cũng đang đi học để đi . Cứ đi đi bạn ah,","can_remove":false,"created_time":"2014-03-30T13:38:23+0000","like_count":0,"user_likes":false},"842238929126119":{"id":"842238929126119","from":{"id":"100000399879223","name":"Hoan Le"},"message":"Đừng đi, cả 2 phương án trên ko có gì chắc chắn cả. Bạn chỉ là nạn nhân của các cty xkld mà thôi. Hãy ở nhà làm gì đó, kiếm được ít tiền cũng được, nhưng bạn hoàn toàn chủ động. Ra nước ngoài rồi, nhiều khi bạn ko được tự quyết đâu. Lúc đó có muốn về nước cũng ko thể. Đừng tự chui đầu vào rọ.","can_remove":false,"created_time":"2014-03-30T13:49:52+0000","like_count":3,"user_likes":false},"842240522459293":{"id":"842240522459293","from":{"id":"100003716785430","name":"Tham Le"},"message":"bạn \"Hoan Le\"  có làm gì liên quan đến nhật không vây?","can_remove":false,"created_time":"2014-03-30T13:53:41+0000","like_count":0,"user_likes":false},"842245602458785":{"id":"842245602458785","from":{"id":"100000399879223","name":"Hoan Le"},"message":"ko liên quan đến N thì ở trong Page này làm gì?","can_remove":false,"created_time":"2014-03-30T13:59:19+0000","like_count":0,"user_likes":false},"842246892458656":{"id":"842246892458656","from":{"id":"100003716785430","name":"Tham Le"},"message":"làm cho cty Nhật  hả bạn mà ở Vn hay Nhật bản, sao nói như đúng rồi thế, bạn biết ai bị lừa chưa?","can_remove":false,"created_time":"2014-03-30T14:02:30+0000","like_count":0,"user_likes":false},"842248102458535":{"id":"842248102458535","from":{"id":"100005736540662","name":"Anh Đã Mơ"},"message":"mình cũng đi xuất khẩu đây giờ mình đang ở tokyo công ty mình đi không phải đặt cọc sổ đỏ đâu nếu bạn có nhu cầu thì liên hệ nhé","can_remove":false,"created_time":"2014-03-30T14:05:01+0000","like_count":0,"user_likes":false},"842248575791821":{"id":"842248575791821","from":{"id":"100003716785430","name":"Tham Le"},"message":"Anh Đã Mơ đi công ty gì , chi phí het  bao nhiêu.?","message_tags":[{"id":"100005736540662","name":"Anh Đã Mơ","type":"user","offset":0,"length":9}],"can_remove":false,"created_time":"2014-03-30T14:06:37+0000","like_count":0,"user_likes":false},"842250252458320":{"id":"842250252458320","from":{"id":"100005736540662","name":"Anh Đã Mơ"},"message":"nếu em có bằng đại học thì mất 4.500usd tiền phí đi và đặt cọc 2000usd để đề phòng em trốn nhưng nếu em thi vào đơn hàng của nghiệp đoàn jibi thì không phải đặt cọc công ty của mình đi cam đoan không mất chi phí mô giới","can_remove":false,"created_time":"2014-03-30T14:10:11+0000","like_count":0,"user_likes":false},"842250299124982":{"id":"842250299124982","from":{"id":"100000399879223","name":"Hoan Le"},"message":"Tham Le e đã nghe những câu chuyện về những bữa cơm chan nước mắt, bị lừa khổ sở trăm bề mà ko dám nói với người nhà của các bạn trên này chưa. Nếu e ko tin thì cứ học TN đi, sang đây sẽ biết.","message_tags":[{"id":"100003716785430","name":"Tham Le","type":"user","offset":0,"length":7}],"can_remove":false,"created_time":"2014-03-30T14:10:23+0000","like_count":1,"user_likes":false},"842250599124952":{"id":"842250599124952","from":{"id":"100005736540662","name":"Anh Đã Mơ"},"message":"à quên tên công ty là công ty hải phong nhé ở 713 lạc long quân tây hồ hà nội","can_remove":false,"created_time":"2014-03-30T14:11:20+0000","like_count":0,"user_likes":false},"842251592458186":{"id":"842251592458186","from":{"id":"100003716785430","name":"Tham Le"},"message":"bằng cđ thì sao Anh Đã Mơ","message_tags":[{"id":"100005736540662","name":"Anh Đã Mơ","type":"user","offset":16,"length":9}],"can_remove":false,"created_time":"2014-03-30T14:13:27+0000","like_count":0,"user_likes":false},"842252725791406":{"id":"842252725791406","from":{"id":"100003716785430","name":"Tham Le"},"message":"Hoan Le , e cũng biết là vất vả nhưng mình đi theo công ty uy tín thì làm sao bị lừa được.","can_remove":false,"created_time":"2014-03-30T14:16:00+0000","like_count":0,"user_likes":false},"842254502457895":{"id":"842254502457895","from":{"id":"100000399879223","name":"Hoan Le"},"message":"Nếu có bằng đại học, trước tiên hãy vào cty Nhật ở VN làm việc một thời gian, để học hỏi TN và cách làm việc. Sau đó hãy đưa ra quyết định, khi đó mức giá sẽ ít hơn 4500$ nhiều.","can_remove":false,"created_time":"2014-03-30T14:20:59+0000","like_count":0,"user_likes":false},"842256312457714":{"id":"842256312457714","from":{"id":"100003271088465","name":"Nguyen Quang"},"message":".","can_remove":false,"created_time":"2014-03-30T14:25:14+0000","like_count":0,"user_likes":false},"842258502457495":{"id":"842258502457495","from":{"id":"100005736540662","name":"Anh Đã Mơ"},"message":"thì đặt cọc 2.500usd nhé","can_remove":false,"created_time":"2014-03-30T14:29:51+0000","like_count":0,"user_likes":false},"842259265790752":{"id":"842259265790752","from":{"id":"100005736540662","name":"Anh Đã Mơ"},"message":"nếu vào công ty nhật mà không biết tiếng thì khó đó . nếu bạn có n2 rồi thì hãy liên hệ với trung tâm tiếng nhật của trường ngoại thương có thể bạn sẽ đi miễm phí đó","can_remove":false,"created_time":"2014-03-30T14:31:30+0000","like_count":0,"user_likes":false},"842262002457145":{"id":"842262002457145","from":{"id":"100003716785430","name":"Tham Le"},"message":"e có biết tiếng nhật đâu, e sẽ đi TTS thôi","can_remove":false,"created_time":"2014-03-30T14:36:37+0000","like_count":0,"user_likes":false},"842268789123133":{"id":"842268789123133","from":{"id":"100005736540662","name":"Anh Đã Mơ"},"message":"ừ thế thì cố lên mà công ty anh đi người nhật sẽ sang tuyển trực tiếp đó","can_remove":false,"created_time":"2014-03-30T14:50:56+0000","like_count":0,"user_likes":false},"842281599121852":{"id":"842281599121852","from":{"id":"100002966928087","name":"Nguyen van Dat"},"message":"theo mình nhé,phương án 1 nếu vay tiền lãi đen thì bạn không nên đi,vì bây giờ nếu bạn sang được đây,lương cơ bản của bạn tầm 8 đến 9 man,khoảng 16 đến 18 triệu,chưa trừ tiền ăn,thì còn 12 đến 14 triệu,nếu bạn vay 200 triệu tiền ngoaift,thì ít nhaat1  tháng banj phải trả thêm 4 đến 6 triệu tiền lãi,vậy lương cơ bản của bạn trừ đi hết còn 7 đến 8 triệu,chưa nói 1 năm có 3 kỳ nghỉ dài,chỉ đủ tiền ăn,\nphương án 2,bây giờ các công ty mô giới về các xã vùng xa chi 1 ít tiền cho ủy ban xã rồi quảng cáo rất nhiều,về xkld,bạn nên tìm hiểu kĩ,vì nếu đi các nước đó họ trừ tiền vô tội vạ lắm đó,như malai,trung đông.1 tháng bạn chỉ nhận được tầm 3 đến 4 triệu thôi","can_remove":false,"created_time":"2014-03-30T15:11:46+0000","like_count":2,"user_likes":false},"842282292455116":{"id":"842282292455116","from":{"id":"100003716785430","name":"Tham Le"},"message":"Anh Đã Mơ , chi phí đi tổng hết( cả ăn ở vé, học) 120tr + đặt cọc 100tr.Cty Jnvet thì sao ah?","message_tags":[{"id":"100005736540662","name":"Anh Đã Mơ","type":"user","offset":0,"length":9}],"can_remove":false,"created_time":"2014-03-30T15:13:35+0000","like_count":0,"user_likes":false},"842283042455041":{"id":"842283042455041","from":{"id":"100002966928087","name":"Nguyen van Dat"},"message":"nếu có bằng đại học thì tầm 2000usd thôi,nhưng rất khó đi,","can_remove":false,"created_time":"2014-03-30T15:15:32+0000","like_count":0,"user_likes":false},"842284995788179":{"id":"842284995788179","from":{"id":"100002666381269","name":"Cường Việt Nam Đồng"},"message":"Nếu bạn đi công ty trong sài gòn chỉ mất 3000đô . Không phải đặt cọc và cũng không phải để lại sổ đỏ . Bạn là người bắc vào đó học tính cả tiền ăn ở và đi đc chỉ khoảng 100tr","can_remove":false,"created_time":"2014-03-30T15:20:19+0000","like_count":0,"user_likes":false},"842287799121232":{"id":"842287799121232","from":{"id":"100002943154153","name":"Ngọc Chất"},"message":"Bạn đi cty nào mà chỉ 3000 vậy Cường vnd? 1 số cty trong sg k tuyển người miền bắc với miền trung đâu bạn","can_remove":false,"created_time":"2014-03-30T15:28:05+0000","like_count":2,"user_likes":false},"842288649121147":{"id":"842288649121147","from":{"id":"100002966928087","name":"Nguyen van Dat"},"message":"trong miền nam đi rẻ hơn miền bắc,nhưng khó đi hơn nhiều,và mức lương thấp hơn miền bắc 1 chút","can_remove":false,"created_time":"2014-03-30T15:29:28+0000","like_count":0,"user_likes":false},"842294895787189":{"id":"842294895787189","from":{"id":"100002666381269","name":"Cường Việt Nam Đồng"},"message":"Cũng không hẳn đâu a . Lương tuỳ công ty tuyển dụng . Nhiều ng đi công ty ngoài bắc sang đây e thấy lương còn thấp hơn .","can_remove":false,"created_time":"2014-03-30T15:41:40+0000","like_count":0,"user_likes":false},"842297515786927":{"id":"842297515786927","from":{"id":"100002666381269","name":"Cường Việt Nam Đồng"},"message":"Bạn thử liên hệ công ty hiteco ở 4A đường đồng xoài quận tân bình xem . Tuyển cả miền bắc và miền trung đó . Mình quên số đt rồi , hình như wed của công ty là hiteco.com thì phải . Hồi mình học thì chỉ có 2k7 . Nhưng hình như bây giờ tăng lên 3000 rồi","can_remove":false,"created_time":"2014-03-30T15:47:36+0000","like_count":0,"user_likes":false},"842300495786629":{"id":"842300495786629","from":{"id":"100002943154153","name":"Ngọc Chất"},"message":"Mình hôm trước có hòi hiteco và suleco đều k tuyển hộ khẩu miền bắc và miền trung bạn à. Chỉ tuyển quảng trị trở vào thôi. Tiếc thật","can_remove":false,"created_time":"2014-03-30T15:55:21+0000","like_count":0,"user_likes":false},"842301209119891":{"id":"842301209119891","from":{"id":"100002666381269","name":"Cường Việt Nam Đồng"},"message":"Vậy chắc mới thay đổi . Hồi đó mình học người bắc và trung có nhiều lắm","can_remove":false,"created_time":"2014-03-30T15:57:16+0000","like_count":0,"user_likes":false},"842321665784512":{"id":"842321665784512","from":{"id":"100003252801664","name":"Thoi Nguyen"},"message":"Dung ham re ma bi lua ban ah!di dau no cung phai co gia thi truong nen ban phai tim hieu ky!!!phuong an 1 vay den thi ban k nen! Ban thu tim hieu cty o tả thanh oai thanh tri ha noi di nhat ban bi giu so do nhung ngta se giup ban thu tuc vay ngan hang! Vi nguoi nha ban miinh da tung di nhat! Ten cty day du la cty cp cong nghiep va xay lap  thuong mai ha tinh(hanideco) ban tra tren mang la biet ve cty nay the nao! Chuc ban  co lua chon dung dan thanh cong!","can_remove":false,"created_time":"2014-03-30T16:44:29+0000","like_count":1,"user_likes":false},"842337212449624":{"id":"842337212449624","from":{"id":"1146680551","name":"優しい なぁ"},"message":"https://www.facebook.com/groups/CongdongVietNhat/permalink/798910373458975/\n\nTham khảo thêm ở đây nhé.","can_remove":false,"created_time":"2014-03-30T17:19:36+0000","like_count":0,"user_likes":false},"842491072434238":{"id":"842491072434238","from":{"id":"100004382503019","name":"Cường SiêuĐẳng"},"message":"Theo ac em nên ở nhà","can_remove":false,"created_time":"2014-03-30T23:46:39+0000","like_count":1,"user_likes":false},"842496319100380":{"id":"842496319100380","from":{"id":"100006263888044","name":"Hoàng Oanh"},"message":"nên đi du học thì tốt hơn","can_remove":false,"created_time":"2014-03-31T00:03:38+0000","like_count":1,"user_likes":false},"842594329090579":{"id":"842594329090579","from":{"id":"100003077266439","name":"Tiểu Tinh"},"message":"đơn hàng 3 năm thì hơn đó Trốc ạ","can_remove":false,"created_time":"2014-03-31T04:23:15+0000","like_count":0,"user_likes":false},"842599959090016":{"id":"842599959090016","from":{"id":"100003262381147","name":"Venusstar Dang"},"message":"em thử tham khảo công ty này JVnet nhé, anh trai chị làm IT trong đó, ko lừa đảo, đi hết 105tr thôi, đơn hàng điện tử may mặc, có gì inbox cho chị cũng đc.","can_remove":false,"created_time":"2014-03-31T04:44:31+0000","like_count":0,"user_likes":false}},"paging":{"cursors":{"after":"ODQyMTYzNzM5MTMzNjM4","before":"ODQyMTYzNzM5MTMzNjM4"},"next":"https://graph.facebook.com/229244010425617_842163029133709/comments?limit=1&summary=1&after=ODQyMTYzNzM5MTMzNjM4"},"summary":{"order":"chronological","total_count":72}}}