{"id":"229244010425617_842274932455852","type":"status","from":{"id":"100001817416797","name":"Luong Pham"},"message":"Xin ghé tin hỏi thăm ace đang sinh sống và học tập bên Nhật chút là mình muốn đi du học tự túc, học tiếng song mình đi xin việc bên nhật. Mình hỏi là xin việc bên Nhật có khó khăn lắm không?","created_time":"2014-03-30T15:01:47+0000","updated_time":"2014-03-31T13:18:04+0000","likes":{"data":{"100007048834608":{"id":"100007048834608","name":"Ngôc Buong"},"100003155401934":{"id":"100003155401934","name":"Ha Mi Kim"},"100001997876607":{"id":"100001997876607","name":"Phằn Xong Lứa"},"100004288178550":{"id":"100004288178550","name":"Có Một Người"},"100007317998148":{"id":"100007317998148","name":"Phùng Anh Tuấn"},"100004376231383":{"id":"100004376231383","name":"Chim Dangsun"},"100006208266390":{"id":"100006208266390","name":"Memory Hd"},"100002975299796":{"id":"100002975299796","name":"Trinh Tuan Anh"},"100006614261300":{"id":"100006614261300","name":"Tao Cao Cường Đây"},"100002469422165":{"id":"100002469422165","name":"Duc Nguyen"},"100003103086919":{"id":"100003103086919","name":"Tâm Hiếu"},"100006917112393":{"id":"100006917112393","name":"Mun"},"100005878231956":{"id":"100005878231956","name":"Tình Nghèo Có Nhau"},"100003069246142":{"id":"100003069246142","name":"Hồng Trịnh"}},"paging":{"cursors":{"after":"MTAwMDA3MDQ4ODM0NjA4","before":"MTAwMDA3MDQ4ODM0NjA4"},"next":"https://graph.facebook.com/229244010425617_842274932455852/likes?limit=1&summary=1&after=MTAwMDA3MDQ4ODM0NjA4"},"summary":{"total_count":14}},"comments":{"data":{"842276065789072":{"id":"842276065789072","from":{"id":"100003069246142","name":"Hồng Trịnh"},"message":"Khó. Người nhật còn thất nghiệp. Huống hồ","can_remove":false,"created_time":"2014-03-30T15:02:57+0000","like_count":1,"user_likes":false},"842278269122185":{"id":"842278269122185","from":{"id":"100004130556584","name":"Khuong Tung"},"message":"Tot nhat nen o nha","can_remove":false,"created_time":"2014-03-30T15:05:09+0000","like_count":0,"user_likes":false},"842280499121962":{"id":"842280499121962","from":{"id":"100001817416797","name":"Luong Pham"},"message":"Mọi người vạch cho mình đẫn chứng được không? Nói có, không làm mình cũng khó nghĩ.","can_remove":false,"created_time":"2014-03-30T15:09:08+0000","like_count":0,"user_likes":false},"842282009121811":{"id":"842282009121811","from":{"id":"100001352646768","name":"Thanh Nhâm"},"message":"Người Nhật thất nghiệp do đòi lương cao. Tiền công thuê ng VN rẻ hơn.","can_remove":false,"created_time":"2014-03-30T15:12:50+0000","like_count":4,"user_likes":false},"842282442455101":{"id":"842282442455101","from":{"id":"100002966928087","name":"Nguyen van Dat"},"message":"tùy vào năng lực tiếng,và từng vùng miền bạn à,mình thấy bây giờ,nếu vào mấy vùng ngoại ô rễ sống hơn","can_remove":false,"created_time":"2014-03-30T15:14:02+0000","like_count":0,"user_likes":false},"842282925788386":{"id":"842282925788386","from":{"id":"100006296409820","name":"Tham Hoang"},"message":"Tuy thuộc vào kha nang tiếng nhat của bạn !","can_remove":false,"created_time":"2014-03-30T15:15:10+0000","like_count":0,"user_likes":false},"842284622454883":{"id":"842284622454883","from":{"id":"100006296409820","name":"Tham Hoang"},"message":"Du học tự túc, tiếng nhật ko giỏi ở nhà còn hơn.\nNhiều bạn sang rui đang dở khóc !!!!!","can_remove":false,"created_time":"2014-03-30T15:19:34+0000","like_count":0,"user_likes":false},"842284732454872":{"id":"842284732454872","from":{"id":"100001817416797","name":"Luong Pham"},"message":"Mình cảm ơn nhiều. Và hỏi thêm nữa hi là có quy tắc xin việc ở nhật đúng không? Mình là người ngoại quốc thì sao?","can_remove":false,"created_time":"2014-03-30T15:19:53+0000","like_count":0,"user_likes":false},"842285365788142":{"id":"842285365788142","from":{"id":"1258880836","name":"Hương Giang"},"message":"Mình thấy có n2 trở lên cộng với nhiệt tình, thật thà, ham học hỏi là kiếm đc việc thôi.","can_remove":false,"created_time":"2014-03-30T15:21:04+0000","like_count":2,"user_likes":false},"842285615788117":{"id":"842285615788117","from":{"id":"100002966928087","name":"Nguyen van Dat"},"message":"chăm chỉ quay tay vận may sẽ tới :V","can_remove":false,"created_time":"2014-03-30T15:21:57+0000","like_count":3,"user_likes":false},"842288899121122":{"id":"842288899121122","from":{"id":"100006734168968","name":"Tiểu Nhân Mã"},"message":"Đến pio ms đc n2. Đùa à :(((","can_remove":false,"created_time":"2014-03-30T15:30:07+0000","like_count":1,"user_likes":false},"842289915787687":{"id":"842289915787687","from":{"id":"100002966928087","name":"Nguyen van Dat"},"message":":v","can_remove":false,"created_time":"2014-03-30T15:31:25+0000","like_count":0,"user_likes":false},"842291472454198":{"id":"842291472454198","from":{"id":"100001817416797","name":"Luong Pham"},"message":"Học tiếng cũng khó vậy hả bạn?","can_remove":false,"created_time":"2014-03-30T15:34:01+0000","like_count":0,"user_likes":false},"842291985787480":{"id":"842291985787480","from":{"id":"100002966928087","name":"Nguyen van Dat"},"message":"tùy vào iq của từng người,nhưng mà học cứ phải lo nồi cơm thì học sao được mệt lắm","can_remove":false,"created_time":"2014-03-30T15:34:57+0000","like_count":0,"user_likes":false},"842292315787447":{"id":"842292315787447","from":{"id":"100003978931285","name":"Tuấn Nguyễn"},"message":"yêu cầu của bạn Hương Giang chắc chỉ có những ng ở bên đó 2 3 năm mới có cái bằng n2 rồi mới xin đc việc còn lại chết đói cả.","message_tags":[{"id":"1258880836","name":"Hương Giang","type":"user","offset":16,"length":11}],"can_remove":false,"created_time":"2014-03-30T15:35:44+0000","like_count":3,"user_likes":false},"842294319120580":{"id":"842294319120580","from":{"id":"1258880836","name":"Hương Giang"},"message":"Bạn chủ topic nói là học xong trường tiếng rồi muốn xin đi làm nhé. Mình hiểu theo ý là bạn ấy muốn xin visa ở lại làm.","can_remove":false,"created_time":"2014-03-30T15:40:17+0000","like_count":0,"user_likes":false},"842294959120516":{"id":"842294959120516","from":{"id":"100001817416797","name":"Luong Pham"},"message":"Ý mình như bạn Hương Giang nói đó.","can_remove":false,"created_time":"2014-03-30T15:41:48+0000","like_count":0,"user_likes":false},"842296282453717":{"id":"842296282453717","from":{"id":"100003978931285","name":"Tuấn Nguyễn"},"message":"oh mình lại hiểu theo 1 nghĩa khác. sr nhé. nhưng theo mình thì hoc mỗi tiếng không thì cũng khó mà xin đc visa ở lại làm nghe các a chị nói nên học thêm senmon thì hơn.","can_remove":false,"created_time":"2014-03-30T15:44:43+0000","like_count":0,"user_likes":false},"842297409120271":{"id":"842297409120271","from":{"id":"100001817416797","name":"Luong Pham"},"message":"Senmon nghĩa là sao bạn? Tư vấn mình biết vs?","can_remove":false,"created_time":"2014-03-30T15:47:22+0000","like_count":0,"user_likes":false},"842297795786899":{"id":"842297795786899","from":{"id":"100003978931285","name":"Tuấn Nguyễn"},"message":"với cả nói trước thì cũng khó lắm. cứ sang học 1 2 năm thì sẽ có hướng đi cho mình cả thôi. senmon như là học nghề ý bạn.","can_remove":false,"created_time":"2014-03-30T15:48:23+0000","like_count":0,"user_likes":false},"842297822453563":{"id":"842297822453563","from":{"id":"1258880836","name":"Hương Giang"},"message":"Uhm, tiếng là đk cần nhất. Senmon là trường dạy nghề đó bạn. Khôg thì có bằng đh ở vn cũng đc nữa","can_remove":false,"created_time":"2014-03-30T15:48:30+0000","like_count":0,"user_likes":false},"842298129120199":{"id":"842298129120199","from":{"id":"100001817416797","name":"Luong Pham"},"message":"Rất mong mn giúp đỡ thông tin tốt để mình có được định hướng tốt. Hi.","can_remove":false,"created_time":"2014-03-30T15:49:12+0000","like_count":0,"user_likes":false},"842298422453503":{"id":"842298422453503","from":{"id":"100003978931285","name":"Tuấn Nguyễn"},"message":"bạn Hương Giang đang ở bên đó chắc biết nhiều bạn cứ hỏi bạn ý đi :)","message_tags":[{"id":"1258880836","name":"Hương Giang","type":"user","offset":4,"length":11}],"can_remove":false,"created_time":"2014-03-30T15:50:05+0000","like_count":0,"user_likes":false},"842299199120092":{"id":"842299199120092","from":{"id":"100001817416797","name":"Luong Pham"},"message":"Cảm ơn mọi người nha. Hi. Doumo sumimasen. Hihi.","can_remove":false,"created_time":"2014-03-30T15:52:06+0000","like_count":0,"user_likes":false},"842301122453233":{"id":"842301122453233","from":{"id":"100003921497941","name":"Bỏng Ngô"},"message":"Có bằng đh ở Việt nam sang cũng khó xin đc việc, học xong trường tiếng nếu ko đăng ký học lên Trung cấp, cao đẳng hay đại học ở Nhật thì khó mà xin đc visa để có thể ở lại.\nHix","can_remove":false,"created_time":"2014-03-30T15:57:05+0000","like_count":0,"user_likes":false},"842302885786390":{"id":"842302885786390","from":{"id":"100003978931285","name":"Tuấn Nguyễn"},"message":"loanh quanh luẩn quẩn cũng chỉ 1 vòng học ---> đi làm lấy tiền đóng tiền học....","can_remove":false,"created_time":"2014-03-30T16:01:13+0000","like_count":2,"user_likes":false},"842304075786271":{"id":"842304075786271","from":{"id":"100001797875974","name":"Đức Hạnh"},"message":"Mình có bằng đại học ở Việt Nam đinh tháng 10 sang Nhật này nhưng mà nghe các bạn nói thấy mất hết tự tin","can_remove":false,"created_time":"2014-03-30T16:04:00+0000","like_count":1,"user_likes":false},"842304392452906":{"id":"842304392452906","from":{"id":"100001797875974","name":"Đức Hạnh"},"message":"Bỏng Ngô khó thật à bạn @@","message_tags":[{"id":"100003921497941","name":"Bỏng Ngô","type":"user","offset":0,"length":8}],"can_remove":false,"created_time":"2014-03-30T16:04:44+0000","like_count":1,"user_likes":false},"842305889119423":{"id":"842305889119423","from":{"id":"100003921497941","name":"Bỏng Ngô"},"message":"Theo tớ biết thì chẳng có tác dụng gì? Bạn tớ đang 2 bằng 1 của Bách khoa,1 của HV kỹ thuật quan sự mà có ăn thua gì đâu","can_remove":false,"created_time":"2014-03-30T16:08:12+0000","like_count":0,"user_likes":false},"842306329119379":{"id":"842306329119379","from":{"id":"100001797875974","name":"Đức Hạnh"},"message":"Nghe nản quá. Thế này còn tinh thần gì mà đi nữa","can_remove":false,"created_time":"2014-03-30T16:09:25+0000","like_count":0,"user_likes":false},"842306525786026":{"id":"842306525786026","from":{"id":"100003921497941","name":"Bỏng Ngô"},"message":"Làm sao xin được việc với bằng đh của việt nam. Thật sự rất khó khăn nên các bạn hãy suy nghĩ kỹ rồi quyết định đi hay ko nhé? Du học thật sự vất vả bạn ạ","can_remove":false,"created_time":"2014-03-30T16:09:38+0000","like_count":2,"user_likes":false},"842306602452685":{"id":"842306602452685","from":{"id":"100001797875974","name":"Đức Hạnh"},"message":"Bỏng Ngô bạn ngày trước thì sao","message_tags":[{"id":"100003921497941","name":"Bỏng Ngô","type":"user","offset":0,"length":8}],"can_remove":false,"created_time":"2014-03-30T16:09:46+0000","like_count":0,"user_likes":false},"842306975785981":{"id":"842306975785981","from":{"id":"100001797875974","name":"Đức Hạnh"},"message":"Cảm ơn bạn. Tớ chuẩn bị tinh thần rồi nhưng càng tìm hiểu càng thấy nản","can_remove":false,"created_time":"2014-03-30T16:10:33+0000","like_count":0,"user_likes":false},"842312942452051":{"id":"842312942452051","from":{"id":"100004639693097","name":"Họ Nguyễn Công Tử"},"message":"Kiem n2 thi trong nc con dc nhiu tin jon sang nhat","can_remove":false,"created_time":"2014-03-30T16:21:12+0000","like_count":0,"user_likes":false},"842321709117841":{"id":"842321709117841","from":{"id":"100005758714297","name":"Thường Vân"},"message":"Có gì mà nản ? ;)) \nSợ khó khăn thì đúng là không nên tới Nhật thật đấy, vì người Nhật họ cần cù chăm chỉ lắm. Phần tiếng cũng thế, không phụ thuộc nhiều vào iq mà là sự chăm chỉ và cố gắng của bạn. Biết bao người vẫn đi Nhật và họ thành công đó thôi. Sợ bỏ ra nước mắt hay lên mạng hỏi han rồi sợ sệt lung tung thì ở nhà được rồi. :3","can_remove":false,"created_time":"2014-03-30T16:44:42+0000","like_count":5,"user_likes":false},"842322182451127":{"id":"842322182451127","from":{"id":"100001214305586","name":"Luan Tran"},"message":"thường vân : chuẩn","can_remove":false,"created_time":"2014-03-30T16:45:42+0000","like_count":2,"user_likes":false},"842322535784425":{"id":"842322535784425","from":{"id":"100005758714297","name":"Thường Vân"},"message":":)","can_remove":false,"created_time":"2014-03-30T16:46:45+0000","like_count":1,"user_likes":false},"842324122450933":{"id":"842324122450933","from":{"id":"100006614261300","name":"Tao Cao Cường Đây"},"message":"hi, chịu đc áp lực thì quất hjhh","can_remove":false,"created_time":"2014-03-30T16:50:18+0000","like_count":0,"user_likes":false},"842325049117507":{"id":"842325049117507","from":{"id":"100001214305586","name":"Luan Tran"},"message":"m thì ở VN thôi .","can_remove":false,"created_time":"2014-03-30T16:51:54+0000","like_count":0,"user_likes":false},"842467039103308":{"id":"842467039103308","from":{"id":"100004376231383","name":"Chim Dangsun"},"message":"Khó vãi luôn","can_remove":false,"created_time":"2014-03-30T22:38:22+0000","like_count":0,"user_likes":false},"842483635768315":{"id":"842483635768315","from":{"id":"100003069246142","name":"Hồng Trịnh"},"message":"Học 1 năm vẫn có thể đậu n2, nếu bạn học thật.mình ko nói đi làm thêm nhé. Mà là để vào làm chính thức cho cty nhật, ít nhất bạn phải có n2 trở lên, giờ đi học của bạn ở trường ko dưới 80 phần trăm. Như vậy bạn mới đủ tư cách xin visa.","can_remove":false,"created_time":"2014-03-30T23:21:21+0000","like_count":0,"user_likes":false},"842484519101560":{"id":"842484519101560","from":{"id":"100003069246142","name":"Hồng Trịnh"},"message":"Còn vẫn có trường hợp may mắn thì ko yêu cầu khó, nhưng chế độ công việc sẽ khác. Mà đã may mắn thì xác xuất ít. Học trưong tiếng thôi thì chưa đủ, bạn còn học senmon hoặc đh thì may ra.... Ngoại trừ bạn đã tốt nghiệp đại học ở việt nam, có công việc phù hợp vơi chuyên ngành đã học thì bạn sẽ có việc thôi","can_remove":false,"created_time":"2014-03-30T23:25:15+0000","like_count":0,"user_likes":false},"842487192434626":{"id":"842487192434626","from":{"id":"100001797875974","name":"Đức Hạnh"},"message":"Mình có bằng đại học QTKD ở VN. Tháng 10 mình du học học 1 năm 6 tháng lấy bằng Nhật ngữ. Nhưng mà đọc kĩ mới thấy không có hình thức nào dành cho khoa của mình :((. Toàn bên Kĩ thuật thôi à :((. Ai giúp mình thắc mắc này với","can_remove":false,"created_time":"2014-03-30T23:34:17+0000","like_count":0,"user_likes":false},"842538475762831":{"id":"842538475762831","from":{"id":"100006263888044","name":"Hoàng Oanh"},"message":"Gioi tieng thi ok xin dau cung dc b ak","can_remove":false,"created_time":"2014-03-31T01:56:17+0000","like_count":2,"user_likes":false},"842558809094131":{"id":"842558809094131","from":{"id":"100003928537769","name":"Quoccuong Nguyen"},"message":"Giai quyet nhung thac mac\nPm cho minh","can_remove":false,"created_time":"2014-03-31T02:46:30+0000","like_count":0,"user_likes":false},"842706335746045":{"id":"842706335746045","from":{"id":"100002846500935","name":"Hanh Lu"},"message":"hok tieng xong thj phaj thj truong nao chu,chu lam sao dj xin viec duoc","can_remove":false,"created_time":"2014-03-31T10:27:44+0000","like_count":0,"user_likes":false},"842774219072590":{"id":"842774219072590","from":{"id":"100001797875974","name":"Đức Hạnh"},"message":"Hanh Lu xin việc không được âo","can_remove":false,"created_time":"2014-03-31T12:48:53+0000","like_count":0,"user_likes":false},"842775432405802":{"id":"842775432405802","from":{"id":"100002846500935","name":"Hanh Lu"},"message":"hoc moi tjeng thuj,thj luu tru voi tu cach gj","can_remove":false,"created_time":"2014-03-31T12:52:30+0000","like_count":0,"user_likes":false},"842796332403712":{"id":"842796332403712","from":{"id":"100006263888044","name":"Hoàng Oanh"},"message":"giỏi tiếng thì ok hết ko fải lo","can_remove":false,"created_time":"2014-03-31T13:18:04+0000","like_count":0,"user_likes":false}},"paging":{"cursors":{"after":"ODQyMjc2MDY1Nzg5MDcy","before":"ODQyMjc2MDY1Nzg5MDcy"},"next":"https://graph.facebook.com/229244010425617_842274932455852/comments?limit=1&summary=1&after=ODQyMjc2MDY1Nzg5MDcy"},"summary":{"order":"chronological","total_count":49}}}