{"id":"229244010425617_842254449124567","type":"photo","object_id":"1407149309553592","picture":"https://fbcdn-photos-a-a.akamaihd.net/hphotos-ak-prn2/t1.0-0/1377441_1407149309553592_1196163878_s.jpg","link":"https://www.facebook.com/photo.php?fbid=1407149309553592&set=gm.842254449124567&type=1&relevant_count=1","from":{"id":"100007756088326","name":"Trung Pham"},"message":"Ace cho ý kiến k phải sáng tác mà coppy về đó\nTa về ta tắm ao tao\nDù trong dù đục vẫn là cái ao...","created_time":"2014-03-30T14:20:49+0000","updated_time":"2014-03-31T11:35:22+0000","likes":{"data":{"100008061278718":{"id":"100008061278718","name":"Angle Small"},"100006718002658":{"id":"100006718002658","name":"Ngoc Minh"},"100007756088326":{"id":"100007756088326","name":"Trung Pham"},"100007880444320":{"id":"100007880444320","name":"自由"},"100005907939887":{"id":"100005907939887","name":"Heo Mập"},"100004528082100":{"id":"100004528082100","name":"フン グェン"},"100005666550869":{"id":"100005666550869","name":"Phuong Thao"},"100003726912321":{"id":"100003726912321","name":"Thuong Ngo"},"100005164236438":{"id":"100005164236438","name":"Hoa Mai"},"100006436037655":{"id":"100006436037655","name":"Ngo Na"},"100004313589403":{"id":"100004313589403","name":"Phuocthua Lại"},"100006130145073":{"id":"100006130145073","name":"Viet Ma Thanh"},"100003762427351":{"id":"100003762427351","name":"Hiroshi Yasu Oki"},"100006367092088":{"id":"100006367092088","name":"Son Nguyenthuy"},"100000351278796":{"id":"100000351278796","name":"Hồ Văn Hải"},"100003807346055":{"id":"100003807346055","name":"Chap Nhan Di"},"100005458831628":{"id":"100005458831628","name":"Nhatki Cuame"},"100006534106453":{"id":"100006534106453","name":"Út Thương"},"100004065224806":{"id":"100004065224806","name":"Mai Dung"},"100005124363118":{"id":"100005124363118","name":"Con Trai Ho Duong"},"100000523549660":{"id":"100000523549660","name":"Sei Tsuki"},"100003821557908":{"id":"100003821557908","name":"Ku Tèo"},"100004072426763":{"id":"100004072426763","name":"Phạm Lương"},"100003591155580":{"id":"100003591155580","name":"Nước Mắt Của Mưa"},"100003077266439":{"id":"100003077266439","name":"Tiểu Tinh"},"100007403851517":{"id":"100007403851517","name":"Huong Vu"},"100004315652456":{"id":"100004315652456","name":"Cô Út Xa Nhà"},"100002993632427":{"id":"100002993632427","name":"Mỹ Vân"},"100005741891650":{"id":"100005741891650","name":"Ngoc Vuong Tokyo"},"100004134600593":{"id":"100004134600593","name":"Kien Pham"},"100002512202440":{"id":"100002512202440","name":"Nuz Nuz Đặng"},"100003771607349":{"id":"100003771607349","name":"Lan Thanh"},"100000417273183":{"id":"100000417273183","name":"Hoàng Vân Anh"},"100004142251650":{"id":"100004142251650","name":"Đá RúCuồi"},"100004699423965":{"id":"100004699423965","name":"Dang Doan"},"100007446790574":{"id":"100007446790574","name":"Hoàng Công Viên"},"100004424165718":{"id":"100004424165718","name":"Cáo Phong Lưu"},"100004525212395":{"id":"100004525212395","name":"Hạnh Nhân"},"100006247262454":{"id":"100006247262454","name":"Hao Nguyen"},"100002225333357":{"id":"100002225333357","name":"ThanhDienkk BG"},"100001887921127":{"id":"100001887921127","name":"Kata Apple"},"100007561894249":{"id":"100007561894249","name":"Phương Lý"},"100007891630983":{"id":"100007891630983","name":"Phuong Lai"},"100005947002561":{"id":"100005947002561","name":"Tao Là Tôi"},"100007785703302":{"id":"100007785703302","name":"Thanh Soái"},"100000562524611":{"id":"100000562524611","name":"Chúc Đại Ka"},"100004614972660":{"id":"100004614972660","name":"Nguyễn Mạnh Dũng"},"100003247303293":{"id":"100003247303293","name":"Thao Con Bố Thống"},"100001547154925":{"id":"100001547154925","name":"Tam Tamnguyendinh"},"100005459013657":{"id":"100005459013657","name":"Trịnh Trung"},"100006885847652":{"id":"100006885847652","name":"Hắc Hổ Nguyễn"},"100005641081561":{"id":"100005641081561","name":"Pham Tuan Kiet"},"100003287293423":{"id":"100003287293423","name":"Yêu Lại Từ Đầu"},"100003635232168":{"id":"100003635232168","name":"Thanh Bg"},"1641753612":{"id":"1641753612","name":"Barack Sam"},"100001458099624":{"id":"100001458099624","name":"Kham Pha"},"100004435534950":{"id":"100004435534950","name":"Ốc Đá"},"100002126161922":{"id":"100002126161922","name":"Thanh Tran"},"100000083333913":{"id":"100000083333913","name":"Tung Nguyen"},"738235689":{"id":"738235689","name":"Dang Thi Phuong"},"100002820290798":{"id":"100002820290798","name":"Quang Huy"},"100004747622463":{"id":"100004747622463","name":"Tuan Phuong"},"100007449186315":{"id":"100007449186315","name":"Cấn Thanh Tùng"},"100000045271667":{"id":"100000045271667","name":"Nam Thai Nguyen"},"100001628594107":{"id":"100001628594107","name":"Cong Nguyen Kim"},"100003740342167":{"id":"100003740342167","name":"Có Gì Hót"},"100005894440609":{"id":"100005894440609","name":"Thanh LaAnh"},"100007799559921":{"id":"100007799559921","name":"MoMo Tvt"},"100006716646759":{"id":"100006716646759","name":"Huy Thắng"},"100005758714297":{"id":"100005758714297","name":"Thường Vân"},"100002975299796":{"id":"100002975299796","name":"Trinh Tuan Anh"},"100004754173890":{"id":"100004754173890","name":"像 ベトナム"},"100003252801664":{"id":"100003252801664","name":"Thoi Nguyen"},"100007371607086":{"id":"100007371607086","name":"Visaoco Đơn"},"100004066190253":{"id":"100004066190253","name":"Tran Dinh Hai Tran"},"100003950629248":{"id":"100003950629248","name":"Linh Xù"},"100000931315689":{"id":"100000931315689","name":"WorKy Hooleec"},"100002815836338":{"id":"100002815836338","name":"Nguyễn Trọng Ngọc"},"100001770616282":{"id":"100001770616282","name":"Bùi Thu Hiền"},"100005100335055":{"id":"100005100335055","name":"Ha Chi Mai"},"100006271507308":{"id":"100006271507308","name":"Bùi Quỳnh Anh XS"},"100000979888687":{"id":"100000979888687","name":"Tran Long"},"100002580875569":{"id":"100002580875569","name":"Nguyen Xi"},"100003623410782":{"id":"100003623410782","name":"Conan Shinichi"},"100001341921156":{"id":"100001341921156","name":"Dinh Nguyen"},"100001257093338":{"id":"100001257093338","name":"Hanh Dang"},"100003835652381":{"id":"100003835652381","name":"Vi Dai Tra"},"100006497027174":{"id":"100006497027174","name":"Bùi Bích Phương"},"100000258880251":{"id":"100000258880251","name":"Carson Yang"},"100000237467134":{"id":"100000237467134","name":"Định Hiếu"},"100005802612629":{"id":"100005802612629","name":"Hana Nguyen"},"100007086630996":{"id":"100007086630996","name":"Công Xa Cơ"},"100006666549596":{"id":"100006666549596","name":"Thuyjo Kim"},"100003961115216":{"id":"100003961115216","name":"Chang Pham"},"100004745586890":{"id":"100004745586890","name":"Bao Nguyen Kevin"},"100000377362487":{"id":"100000377362487","name":"Tập Quên"},"100003799046445":{"id":"100003799046445","name":"Ánh Cỏ"},"100002802183255":{"id":"100002802183255","name":"Lê Việt Anh"},"100005446931997":{"id":"100005446931997","name":"Sakurasou San"},"100003039237438":{"id":"100003039237438","name":"Huong Luu Thi"},"100005738918380":{"id":"100005738918380","name":"Thanh Tâm"},"100004009472817":{"id":"100004009472817","name":"Thanh Hằng"},"100005051881072":{"id":"100005051881072","name":"Nhớ Nhớ"},"100001705924386":{"id":"100001705924386","name":"Đạo Diễn"},"100007234564638":{"id":"100007234564638","name":"Trương Thanh"},"100003103086919":{"id":"100003103086919","name":"Tâm Hiếu"},"100004517491075":{"id":"100004517491075","name":"Nguyen Manh Tung"},"100002262262717":{"id":"100002262262717","name":"Quả Táo Mèo"},"100004982014580":{"id":"100004982014580","name":"Kun Kun"},"100004664190011":{"id":"100004664190011","name":"Lực Hâm"},"100005904761637":{"id":"100005904761637","name":"Ken"},"100003749029088":{"id":"100003749029088","name":"Mạnh Tuân"},"100006424107964":{"id":"100006424107964","name":"Giáp Dũng"},"100004734752513":{"id":"100004734752513","name":"Lãng Tử Chung Tình"},"100006788972954":{"id":"100006788972954","name":"Ngà Voi"},"100006857616718":{"id":"100006857616718","name":"Ngoc Mai"},"100004646794576":{"id":"100004646794576","name":"Pham Hoang Viet"},"100004059545196":{"id":"100004059545196","name":"Hải Yên"},"100007861051666":{"id":"100007861051666","name":"Anan Cho"},"100004206246538":{"id":"100004206246538","name":"Có Lẽ Nào"},"100004908941067":{"id":"100004908941067","name":"Cử Cơ"},"100001260645727":{"id":"100001260645727","name":"Ngo Duy Son"},"100000594089108":{"id":"100000594089108","name":"Đoàn Tony"},"100004699261842":{"id":"100004699261842","name":"Dê Con Ngang Bướng"},"100004016057800":{"id":"100004016057800","name":"Pi Bo"},"100007471532054":{"id":"100007471532054","name":"Phuong Nguyen"}},"paging":{"cursors":{"after":"MTAwMDA4MDYxMjc4NzE4","before":"MTAwMDA4MDYxMjc4NzE4"},"next":"https://graph.facebook.com/229244010425617_842254449124567/likes?limit=1&summary=1&after=MTAwMDA4MDYxMjc4NzE4"},"summary":{"total_count":128}},"comments":{"data":{"842257942457551":{"id":"842257942457551","from":{"id":"1146680551","name":"優しい なぁ"},"message":"Dù sống ở đâu phải biết tự tìm niềm vui cho mình!\nNiềm vui ấy ở đâu? Trong học tập, công việc hoặc những gì xung quanh bạn!\nĐến cả Robinson khi lạc vào hoang đảo, vẫn lạc quan từng ngày, từng giờ, tự kiếm cho mình những niềm vui.\nĐây là Nhật chứ chẳng phải hoang đảo hay xứ sở tù đày nào cả.","can_remove":false,"created_time":"2014-03-30T14:28:26+0000","like_count":8,"user_likes":false},"842261069123905":{"id":"842261069123905","from":{"id":"100003899856448","name":"Nguyễn Hữu Tâm"},"message":"Làm cả tháng từ sáng đến khuya. Lương dc 8 lá. Làm ở đâu mà nhiều thế.","can_remove":false,"created_time":"2014-03-30T14:34:41+0000","like_count":0,"user_likes":false},"842261919123820":{"id":"842261919123820","from":{"id":"100002966928087","name":"Nguyen van Dat"},"message":"tùy vào đơn hàng @nguyễn hữa tâm à,nếu làm xây đựng,nay đây mai đó,dậy từ 3h sáng,vế đến nhà 9h tối,mà làm được 8 tiếng là bình thường","can_remove":false,"created_time":"2014-03-30T14:36:17+0000","like_count":1,"user_likes":false},"842273512455994":{"id":"842273512455994","from":{"id":"100002609621366","name":"KÚn KOn"},"message":":) ở đâu cũng phải tự mình thích nghi ở đó, cố gắng vươn lên trong mọi hoàn cảnh và môi trường! Chứ ko thì biết bao giờ...tầm hiểu biết ra khổ luỹ tre làng :)) đùa vậy thôi chứ biết cuộc sống bên này muôn vàn khó khăn gian khổ. Sẽ càng khó khăn hơn cho các bạn bị môi giới lừa lọc, tiền mất tật mang, hoặc sang đây với cái nhìn và giấc mơ màu hồng! Nhưng dẫu thế nào thì vẫn phải đứng dậy, ngta ngã đau như thế nào chẳng ai biết, nhưng cách bạn đứng dậy như thế nào, đi đến đích ra sao, đạt kết quả gì ! Đó mới là thứ đáng quan tâm và thứ để người khác nhìn vào. Lửa thử vàng gian nan thử sức, hãy coi môi trường này là lửa, để chúng ta trở thành những đồ trang sức quý giá, những vật báu :)! Dù nói dễ hơn làm, nhưng hãy tự lượng sức mình và cố gắng đi về phía trước!","can_remove":false,"created_time":"2014-03-30T14:59:07+0000","like_count":6,"user_likes":false},"842284409121571":{"id":"842284409121571","from":{"id":"100003266872458","name":"Trần Thị Anh Thư"},"message":"gambatte kudasai","can_remove":false,"created_time":"2014-03-30T15:19:03+0000","like_count":0,"user_likes":false},"842290332454312":{"id":"842290332454312","from":{"id":"100005802612629","name":"Hana Nguyen"},"message":"Rất hay và rất đúng.","can_remove":false,"created_time":"2014-03-30T15:32:21+0000","like_count":1,"user_likes":false},"842292452454100":{"id":"842292452454100","from":{"id":"100003875211691","name":"Hue Yamashironguyen"},"message":"Mà cũng theo từng trường hợp thôi má ơi! Tui thấy biết bao nhiêu người roi ne, nguoi ta cũng qua bên này làm,người ta mua nhà mua xe cuộc sống rất chi là ổn định+ thêm phần tiếng Nhật nói rất chi là liu loát.","can_remove":false,"created_time":"2014-03-30T15:36:09+0000","like_count":2,"user_likes":false},"842300849119927":{"id":"842300849119927","from":{"id":"100001341921156","name":"Dinh Nguyen"},"message":"Kuma Shiroi","message_tags":[{"id":"100004776727216","name":"Kuma Shiroi","type":"user","offset":0,"length":11}],"can_remove":false,"created_time":"2014-03-30T15:56:18+0000","like_count":1,"user_likes":false},"842307392452606":{"id":"842307392452606","from":{"id":"100006617225684","name":"Rain Black"},"message":"Có một ng trong danh sách comen mình thấy bản nào cũng có mặt, mà toàn phản bác những ý tg và sự sáng tạo của người khác , trong khi đó chưa đưa ra một đièu nào đúng về mảnh đất mình đang sống và sinh hoạt, có lẽ đối vs người này thì tốt nhưng đối vs tất cả thì đây là một mảnh đất không dễ để mà có đk sự bình yên như trước khi đặt chân tại đất nước này... Hãy động viên và dành những comen có tính chất cùng vươn lên hơn là soi mói...","can_remove":false,"created_time":"2014-03-30T16:11:07+0000","like_count":1,"user_likes":false},"842311529118859":{"id":"842311529118859","from":{"id":"100006617225684","name":"Rain Black"},"message":"Ớ , ko phải bạn đâu, đừng nói như vậy,....","can_remove":false,"created_time":"2014-03-30T16:18:39+0000","like_count":1,"user_likes":false},"842312539118758":{"id":"842312539118758","from":{"id":"100006617225684","name":"Rain Black"},"message":"Bạn chửi mình trong khi mình ko nói bạn, @hue yamashironguyen","can_remove":false,"created_time":"2014-03-30T16:20:13+0000","like_count":1,"user_likes":false},"842315942451751":{"id":"842315942451751","from":{"id":"100006617225684","name":"Rain Black"},"message":"Tại t ko muốn nói tên nên nói chung chung , ko lại bị chửi giong bạn chửi thì khổ","can_remove":false,"created_time":"2014-03-30T16:29:04+0000","like_count":1,"user_likes":false},"842331189116893":{"id":"842331189116893","from":{"id":"100007968911904","name":"Huong Nguyen Thi"},"message":"ban đa đc tầm nhjn thê joi","can_remove":false,"created_time":"2014-03-30T17:05:44+0000","like_count":0,"user_likes":false},"842343469115665":{"id":"842343469115665","from":{"id":"100006970987668","name":"Vankhoa Nguyen"},"message":"Thoi cuoc thong tin cap nhat","can_remove":false,"created_time":"2014-03-30T17:32:37+0000","like_count":0,"user_likes":false},"842352165781462":{"id":"842352165781462","from":{"id":"100001628594107","name":"Cong Nguyen Kim"},"message":"hay","can_remove":false,"created_time":"2014-03-30T17:56:57+0000","like_count":0,"user_likes":false},"842356889114323":{"id":"842356889114323","from":{"id":"100007968911904","name":"Huong Nguyen Thi"},"message":"mjnh sjh ra va lơn lên ơ Quan Lớn Tuần tranh . Quê hương đa cho ta ẩm thưc tuyêt hảo Bánh Gai Njnh Jang banh đâu xanh HD. Cac ban co vê tham wê Tuj nhơ thương thưc âm thưc nhe. như tuj mơi đc đj DL hêt đat nuoc VN. chưa đc đj DL nc ngoaj . uoc mơ nay ko bjêt đên bao jơ mơj hjen thưc đây ?Hjhj","can_remove":false,"created_time":"2014-03-30T18:10:50+0000","like_count":1,"user_likes":false},"842378135778865":{"id":"842378135778865","from":{"id":"100004776727216","name":"Kuma Shiroi"},"message":"Thất bại là mẹ thành công nhưng đừng để có nhiều mẹ quá :v","can_remove":false,"created_time":"2014-03-30T18:57:55+0000","like_count":2,"user_likes":false},"842384035778275":{"id":"842384035778275","from":{"id":"100001341921156","name":"Dinh Nguyen"},"message":"Kuma Shiroi 2 mẹ thôi :D","message_tags":[{"id":"100004776727216","name":"Kuma Shiroi","type":"user","offset":0,"length":11}],"can_remove":false,"created_time":"2014-03-30T19:14:23+0000","like_count":1,"user_likes":false},"842409525775726":{"id":"842409525775726","from":{"id":"100004428094993","name":"Hà Nguyễn"},"message":"cố gắng lên bạn ơi. đừng bi quan quá như vậy.","can_remove":false,"created_time":"2014-03-30T20:13:11+0000","like_count":1,"user_likes":false},"842409765775702":{"id":"842409765775702","from":{"id":"100004428094993","name":"Hà Nguyễn"},"message":"chặng đường nào trải bước trên hoa hồng mà bàn chân không thấm đau vì những mũi gại","can_remove":false,"created_time":"2014-03-30T20:14:13+0000","like_count":3,"user_likes":false},"842425809107431":{"id":"842425809107431","from":{"id":"1641753612","name":"Barack Sam"},"message":"そうですか。大変ですね。いつも、日本は嬉しいと思います","can_remove":false,"created_time":"2014-03-30T20:56:20+0000","like_count":0,"user_likes":false},"842431449106867":{"id":"842431449106867","from":{"id":"1641753612","name":"Barack Sam"},"message":"素敵じゃありません。ベトナムに帰りましょう、たくさんの仕事があります。","can_remove":false,"created_time":"2014-03-30T21:10:37+0000","like_count":2,"user_likes":false},"842505802432765":{"id":"842505802432765","from":{"id":"100006247262454","name":"Hao Nguyen"},"message":"Rat hay.tam trang chung cua moi nguoi","can_remove":false,"created_time":"2014-03-31T00:35:26+0000","like_count":2,"user_likes":false},"842514832431862":{"id":"842514832431862","from":{"id":"100007968911904","name":"Huong Nguyen Thi"},"message":"mjh đa tung đc đj dl bjen Mũi Né, noj dl bjen đc bjnh chon đep nhat bjen MN ,như paj chiêm tơj 3/4 nguoj dân cac nc  sôg ơ đo. như mjh thay bat đông ngôn ngư wa, ko bjt ruj mjh đc đj dl thj laj paj nhờ nguoj pjen djch bat tjen wa cac ban a...","can_remove":false,"created_time":"2014-03-31T01:03:59+0000","like_count":0,"user_likes":false},"842515339098478":{"id":"842515339098478","from":{"id":"100006970987668","name":"Vankhoa Nguyen"},"message":"Đấy là khoảng khắc riêng của bạn ấy.","can_remove":false,"created_time":"2014-03-31T01:05:07+0000","like_count":0,"user_likes":false},"842694825747196":{"id":"842694825747196","from":{"id":"100006130145073","name":"Viet Ma Thanh"},"message":"Hahaha, chu mi noi dung. Nuoc Nhat cham lam va mac mo lam. Ben xu ta, 5 trai xoai 2 do, ben Nhat 1 trai 4 do. Ta tuy ko o Nhat nhung co di lai vai lan va co nhieu ban Nhat. Chinh nguoi Nhat cung ko thich lam trong xu ho ma ho thich lam tren nhung xu cham tien do nhung co quan tu thien nhu JICA, UN dai tho. ho duoc luong cao hon va cong viec thi thu tha hon..","can_remove":false,"created_time":"2014-03-31T10:05:44+0000","like_count":0,"user_likes":false},"842711432412202":{"id":"842711432412202","from":{"id":"100006984126355","name":"Thiên An"},"message":"M cg da dc di vai nc chau a m.m thay nhg ng sg ben do dhoc.hoac di lao dong xuat khau.ho rat vat va.ai muon nhanh thoat khoi vat va nhanh thi sang nc ngoai cg la co hoi tot","can_remove":false,"created_time":"2014-03-31T10:34:07+0000","like_count":0,"user_likes":false},"842737625742916":{"id":"842737625742916","from":{"id":"100005164236438","name":"Hoa Mai"},"message":"Ôi sao cái bài này như kiểu viết cho mình","can_remove":false,"created_time":"2014-03-31T11:35:22+0000","like_count":1,"user_likes":false}},"paging":{"cursors":{"after":"ODQyMjU3OTQyNDU3NTUx","before":"ODQyMjU3OTQyNDU3NTUx"},"next":"https://graph.facebook.com/229244010425617_842254449124567/comments?limit=1&summary=1&after=ODQyMjU3OTQyNDU3NTUx"},"summary":{"order":"chronological","total_count":28}}}