{"id":"229244010425617_842344409115571","type":"status","from":{"id":"100002126299449","name":"Duy Bui"},"message":"Anh chị ơi làm ơn cho em hỏi 1 chút.\nEm học hết quyển 1 Minna rồi và tháng 4 này em sang Chiba,nhưng mà 2 tháng gần đây nói thẳng ra là lười nên hổng nhiều kiến thức quá,quên có khi 70% rồi,em hỏi liệu sang đó việc học sẽ ntn vs liệu có ổn không ạ","created_time":"2014-03-30T17:35:58+0000","updated_time":"2014-03-31T23:24:18+0000","likes":{"data":{"100003145416720":{"id":"100003145416720","name":"Dũng Chuột"},"100002975299796":{"id":"100002975299796","name":"Trinh Tuan Anh"},"100005464681785":{"id":"100005464681785","name":"Ông Bờm"},"100003254627434":{"id":"100003254627434","name":"Belongs To Nắng"},"100004464670928":{"id":"100004464670928","name":"Nguyễn Hiệp"},"100002469422165":{"id":"100002469422165","name":"Duc Nguyen"},"100003181743412":{"id":"100003181743412","name":"Pham Kha"},"100004204604376":{"id":"100004204604376","name":"Thu Nguyễn"},"100004694343922":{"id":"100004694343922","name":"Chocopie Ngon"},"100003103086919":{"id":"100003103086919","name":"Tâm Hiếu"},"100004288178550":{"id":"100004288178550","name":"Có Một Người"},"100007739863823":{"id":"100007739863823","name":"Sói Đồng Quê"},"100003914468851":{"id":"100003914468851","name":"Song Pup Py"},"100005051881072":{"id":"100005051881072","name":"Nhớ Nhớ"},"100004910854630":{"id":"100004910854630","name":"Hien Nguyen"},"100007051600515":{"id":"100007051600515","name":"Giang Nguyễn"},"100005443599696":{"id":"100005443599696","name":"Son Kent"},"100006208266390":{"id":"100006208266390","name":"Memory Hd"},"100004441321299":{"id":"100004441321299","name":"Ngôn Phi"},"100006591101509":{"id":"100006591101509","name":"Mít Ướt"},"100004327473342":{"id":"100004327473342","name":"Đất Khách Quê Người"},"100004323853412":{"id":"100004323853412","name":"Ngọc Liên"},"100003818384066":{"id":"100003818384066","name":"Suisei Trần"},"100006614261300":{"id":"100006614261300","name":"Tao Cao Cường Đây"},"100005137476710":{"id":"100005137476710","name":"Minh Hải"},"100008010635373":{"id":"100008010635373","name":"Phạm Ngọc Sơn"},"100001718857289":{"id":"100001718857289","name":"Sin Cos Tan"}},"paging":{"cursors":{"after":"MTAwMDAzMTQ1NDE2NzIw","before":"MTAwMDAzMTQ1NDE2NzIw"},"next":"https://graph.facebook.com/229244010425617_842344409115571/likes?limit=1&summary=1&after=MTAwMDAzMTQ1NDE2NzIw"},"summary":{"total_count":27}},"comments":{"data":{"842347962448549":{"id":"842347962448549","from":{"id":"100004159717053","name":"Ngo Tu"},"message":"like sao giống tớ thế , tớ cũng sang chiba , cũng quên gần hết","can_remove":false,"created_time":"2014-03-30T17:45:40+0000","like_count":0,"user_likes":false},"842348185781860":{"id":"842348185781860","from":{"id":"100006614261300","name":"Tao Cao Cường Đây"},"message":"hihi. sang học lại bạn à","can_remove":false,"created_time":"2014-03-30T17:46:24+0000","like_count":0,"user_likes":false},"842349309115081":{"id":"842349309115081","from":{"id":"100006781330290","name":"Kiên Remode"},"message":"k ổn","can_remove":false,"created_time":"2014-03-30T17:49:43+0000","like_count":0,"user_likes":false},"842349949115017":{"id":"842349949115017","from":{"id":"100007210902551","name":"Di Ba Lô"},"message":"mọi ng sang nhật dễ dàng thật :)","can_remove":false,"created_time":"2014-03-30T17:51:06+0000","like_count":0,"user_likes":false},"842350042448341":{"id":"842350042448341","from":{"id":"100004159717053","name":"Ngo Tu"},"message":"giờ đang học viết chữ cái , chán đời","can_remove":false,"created_time":"2014-03-30T17:51:25+0000","like_count":0,"user_likes":false},"842350269114985":{"id":"842350269114985","from":{"id":"100004159717053","name":"Ngo Tu"},"message":"sang làm culi cho bọn nhật","can_remove":false,"created_time":"2014-03-30T17:51:51+0000","like_count":2,"user_likes":false},"842350645781614":{"id":"842350645781614","from":{"id":"100007210902551","name":"Di Ba Lô"},"message":"có j khác làm việc bên đó vs VN ko hả bạn ?","can_remove":false,"created_time":"2014-03-30T17:52:54+0000","like_count":0,"user_likes":false},"842351899114822":{"id":"842351899114822","from":{"id":"100005801442456","name":"An Nguyen"},"message":"Hey... Hết nói !!!","can_remove":false,"created_time":"2014-03-30T17:56:09+0000","like_count":0,"user_likes":false},"842351952448150":{"id":"842351952448150","from":{"id":"100004159717053","name":"Ngo Tu"},"message":"ngủ ít hơn","can_remove":false,"created_time":"2014-03-30T17:56:19+0000","like_count":1,"user_likes":false},"842352109114801":{"id":"842352109114801","from":{"id":"100000455388210","name":"Đức Trung Nguyễn"},"message":"Ổn hết :)) sang đấy cung lười nữa thì chịu thôi :v","can_remove":false,"created_time":"2014-03-30T17:56:45+0000","like_count":0,"user_likes":false},"842352135781465":{"id":"842352135781465","from":{"id":"100002740587343","name":"Lê Mạnh Cường"},"message":"kiểu như bạn nhan nhản ở cái đất nhật này rồi, sang làm culi","can_remove":false,"created_time":"2014-03-30T17:56:51+0000","like_count":0,"user_likes":false},"842353332448012":{"id":"842353332448012","from":{"id":"100007210902551","name":"Di Ba Lô"},"message":"sang đó khi k biết tiếng , khi về nước liệu tiếng có khá hơn ko ạ ?","can_remove":false,"created_time":"2014-03-30T18:01:16+0000","like_count":0,"user_likes":false},"842353752447970":{"id":"842353752447970","from":{"id":"100004764720702","name":"Không Bon Chen"},"message":"Tôi sang có biy chứ nào đâu vẫn sang mang tiếng du học :))","can_remove":false,"created_time":"2014-03-30T18:02:11+0000","like_count":0,"user_likes":false},"842355212447824":{"id":"842355212447824","from":{"id":"100002126299449","name":"Duy Bui"},"message":"Bạn Ngo Tu học 3H hả","message_tags":[{"id":"100004159717053","name":"Ngo Tu","type":"user","offset":4,"length":6}],"can_remove":false,"created_time":"2014-03-30T18:06:08+0000","like_count":0,"user_likes":false},"842360269113985":{"id":"842360269113985","from":{"id":"100006933518153","name":"Mai Hạnh Nguyễn"},"message":"hey bạn duy có phải đi theo trung tâm nn của trường dân lập ko, mình cũng đang học sang năm ra trường ..mình định năm sau đi theo tt bạn thấy học ổn ko ;-?","can_remove":false,"created_time":"2014-03-30T18:14:05+0000","like_count":0,"user_likes":false},"842360639113948":{"id":"842360639113948","from":{"id":"100002126299449","name":"Duy Bui"},"message":"Cũng ổn bạn ạ","can_remove":false,"created_time":"2014-03-30T18:15:07+0000","like_count":1,"user_likes":false},"842360875780591":{"id":"842360875780591","from":{"id":"1146680551","name":"優しい なぁ"},"message":"Yên tâm đi, e học khoá 2 năm mà. Khi tốt nghiệp thì e cỡ n2 trở lên rồi","can_remove":false,"created_time":"2014-03-30T18:15:56+0000","like_count":6,"user_likes":false},"842361369113875":{"id":"842361369113875","from":{"id":"1725907325","name":"Nguyen Van Dung"},"message":"https://www.youtube.com/playlist?list=PLINFE8v4DOhuJmadOWBL_9NONo8o1UhPT\n\nみてね","can_remove":false,"created_time":"2014-03-30T18:17:09+0000","like_count":0,"user_likes":false},"842361825780496":{"id":"842361825780496","from":{"id":"100002126299449","name":"Duy Bui"},"message":"Vâng,mà sang học lại từ đầu ạ,em nghĩ tiếng mới sang k tốt thì hơi khổ hơn a nhỉ","can_remove":false,"created_time":"2014-03-30T18:18:25+0000","like_count":0,"user_likes":false},"842361905780488":{"id":"842361905780488","from":{"id":"100004159717053","name":"Ngo Tu"},"message":"trọ gần 3h cùng e , nó học 3h tớ funabashi","can_remove":false,"created_time":"2014-03-30T18:18:42+0000","like_count":1,"user_likes":false},"842362112447134":{"id":"842362112447134","from":{"id":"100004159717053","name":"Ngo Tu"},"message":"優しい なぁ thật không vậy ?","can_remove":false,"created_time":"2014-03-30T18:19:15+0000","like_count":0,"user_likes":false},"842362782447067":{"id":"842362782447067","from":{"id":"1146680551","name":"優しい なぁ"},"message":"Uhm thật chứ. Theo tiến độ thì 2 năm sẽ dạy từ bảng chữ cái đến n2 hoặc n1 tuỳ vào khả năng học vượt của bạn .","can_remove":false,"created_time":"2014-03-30T18:20:59+0000","like_count":2,"user_likes":false},"842363619113650":{"id":"842363619113650","from":{"id":"100003146740430","name":"Chan Doi"},"message":"mọi việc sẽ ổn thôi, với đk bạn phải cố gắng rất nhiều nhé, thằng bạn t trước khi sang rõ là lười học,kiểu chơi bời. học đến bài 10 thi nát tét chép đk baiô nên đỗ, từ đó nó có học hành gì đâu, sau 2 tháng giờ nó cũbg đã có việc làm cơm hộp rồi,nó dốt nhưng đc cái nó lạc quan","can_remove":false,"created_time":"2014-03-30T18:21:55+0000","like_count":5,"user_likes":false},"842363679113644":{"id":"842363679113644","from":{"id":"100002126299449","name":"Duy Bui"},"message":"học vượt là sao ạ,h em sang học lại từ đầu và chăm chỉ liệu có đc n2 k ạ","can_remove":false,"created_time":"2014-03-30T18:22:08+0000","like_count":1,"user_likes":false},"842364275780251":{"id":"842364275780251","from":{"id":"1146680551","name":"優しい なぁ"},"message":"Đuoc em ạ. Phải chăm chỉ đó nhé","can_remove":false,"created_time":"2014-03-30T18:23:47+0000","like_count":4,"user_likes":false},"842364289113583":{"id":"842364289113583","from":{"id":"100004159717053","name":"Ngo Tu"},"message":"nghe rất hay , sang ấy cày như trâu điên chắc ko theo kịp. nhất là mình cà rốt sẵn","can_remove":false,"created_time":"2014-03-30T18:23:48+0000","like_count":0,"user_likes":false},"842364449113567":{"id":"842364449113567","from":{"id":"100004159717053","name":"Ngo Tu"},"message":"e chỉ mong đc cái n3","can_remove":false,"created_time":"2014-03-30T18:24:14+0000","like_count":0,"user_likes":false},"842364872446858":{"id":"842364872446858","from":{"id":"100003173529851","name":"Linh Duy Thuật"},"message":"0% vẫn ổn","can_remove":false,"created_time":"2014-03-30T18:25:02+0000","like_count":0,"user_likes":false},"842365392446806":{"id":"842365392446806","from":{"id":"100005801442456","name":"An Nguyen"},"message":"Học đi đã em, hỏi làm gì? Ai biết em học hành và cố gắng đến đâu mà nói. Cứ học và làm đc đi rồi kết quả tự động đến. Mà đã dám xách dép và đi, thì lấy bản lĩnh làm điểm tựa và nỗ lực làm bàn đạp mà tiến lên. Đừng có gọi tên thằng \" Hoàn cảnh \" ra nhé, gặp nhiều cảnh vậy quá rồi. K đáng làm bật trượng phu đâu.","can_remove":false,"created_time":"2014-03-30T18:26:04+0000","like_count":9,"user_likes":false},"842368559113156":{"id":"842368559113156","from":{"id":"100002126299449","name":"Duy Bui"},"message":"Vâng,em chỉ muốn hỏi các tiền bối để thêm tự tin thôi ạ ,chứ em xác định đi là vất vả và cần cố gắng r","can_remove":false,"created_time":"2014-03-30T18:35:06+0000","like_count":1,"user_likes":false},"842377829112229":{"id":"842377829112229","from":{"id":"100004323853412","name":"Ngọc Liên"},"message":"Không sao đâu nhưng còn lâu mí ổn bạn ạ","can_remove":false,"created_time":"2014-03-30T18:57:04+0000","like_count":1,"user_likes":false},"842377839112228":{"id":"842377839112228","from":{"id":"100003939942324","name":"Trung Vũ Kiên"},"message":"Sang đây rồi nhiều con đường màu hồng lắm bạn ak m sang đến nay đc 3thang rồi lúc đầu cảm giác lo lắng dần dần thành quen cuộc sống thôi còn vấn đề học hok có thời gian học sách vở thì lên học bồi của người nhật vào rất nhanh","can_remove":false,"created_time":"2014-03-30T18:57:04+0000","like_count":0,"user_likes":false},"842381445778534":{"id":"842381445778534","from":{"id":"100006775208082","name":"Hugo Bietyeu"},"message":"ko sao.cu cam 50 man sang kieu j cung song dc 1 nam ko can lam","can_remove":false,"created_time":"2014-03-30T19:07:19+0000","like_count":0,"user_likes":false},"842384652444880":{"id":"842384652444880","from":{"id":"100000147414000","name":"Nguyễn Công Thắng"},"message":"ổn :3","can_remove":false,"created_time":"2014-03-30T19:16:16+0000","like_count":0,"user_likes":false},"842410059109006":{"id":"842410059109006","from":{"id":"100007642115476","name":"Kim Oanh Nguyen Thi"},"message":"ko bit ti tieng nhat nao thi sang day du hoc lam gi? di hoc thay giang nge co hieu ko? di xin viec ko biet tieng thi ng ta co nhan ko?","can_remove":false,"created_time":"2014-03-30T20:15:32+0000","like_count":1,"user_likes":false},"842410252442320":{"id":"842410252442320","from":{"id":"100007642115476","name":"Kim Oanh Nguyen Thi"},"message":"co gang hoc di b oi, ko bit tieng noi chuyen voi ng nhat co hieu gi ko? ma doi hoc bồi","can_remove":false,"created_time":"2014-03-30T20:16:23+0000","like_count":0,"user_likes":false},"842430932440252":{"id":"842430932440252","from":{"id":"100006208266390","name":"Memory Hd"},"message":"neu kg biet tiếng  gjao tiep hay bat dong ngon ngu trong cv met lam.va con hieu lam,wan trong la ban dj nghanh j .jo hoc chiuyen ve nhanh đó ban.chuc ban may man.","can_remove":false,"created_time":"2014-03-30T21:08:47+0000","like_count":0,"user_likes":false},"842432725773406":{"id":"842432725773406","from":{"id":"100006208266390","name":"Memory Hd"},"message":"chiba gjap tokyo o day ho noi con de nghe,kg nhu o osaka thi kho nghe lam,tot nhat o nha chiu kho hoc vao cag nhieu cang tot.và wan trong nho tu moi het tap1va  tap 2!","can_remove":false,"created_time":"2014-03-30T21:14:00+0000","like_count":0,"user_likes":false},"842433982439947":{"id":"842433982439947","from":{"id":"1641753612","name":"Barack Sam"},"message":"勉強しましょう","can_remove":false,"created_time":"2014-03-30T21:16:16+0000","like_count":1,"user_likes":false},"842434409106571":{"id":"842434409106571","from":{"id":"100006208266390","name":"Memory Hd"},"message":"hey","can_remove":false,"created_time":"2014-03-30T21:17:29+0000","like_count":0,"user_likes":false},"842435942439751":{"id":"842435942439751","from":{"id":"1641753612","name":"Barack Sam"},"message":"Memory Hd. あの、今、日本にいますか。","can_remove":false,"created_time":"2014-03-30T21:22:34+0000","like_count":0,"user_likes":false},"842436182439727":{"id":"842436182439727","from":{"id":"100006208266390","name":"Memory Hd"},"message":"hey imatsu","can_remove":false,"created_time":"2014-03-30T21:23:19+0000","like_count":0,"user_likes":false},"842437259106286":{"id":"842437259106286","from":{"id":"1641753612","name":"Barack Sam"},"message":"私は日本に行きたいです。でも、お金がありません。","can_remove":false,"created_time":"2014-03-30T21:26:41+0000","like_count":1,"user_likes":false},"842437609106251":{"id":"842437609106251","from":{"id":"1641753612","name":"Barack Sam"},"message":"いついなかえ帰りますか。","can_remove":false,"created_time":"2014-03-30T21:27:59+0000","like_count":0,"user_likes":false},"842437775772901":{"id":"842437775772901","from":{"id":"100006208266390","name":"Memory Hd"},"message":"gambattene!","can_remove":false,"created_time":"2014-03-30T21:28:38+0000","like_count":0,"user_likes":false},"842438062439539":{"id":"842438062439539","from":{"id":"100006208266390","name":"Memory Hd"},"message":"doshoukana!","can_remove":false,"created_time":"2014-03-30T21:29:52+0000","like_count":0,"user_likes":false},"842442395772439":{"id":"842442395772439","from":{"id":"100004592983448","name":"Nguyen van Hoc"},"message":"Van su khỏi đầu nan.         Gian nan dang chờ đợi","can_remove":false,"created_time":"2014-03-30T21:33:04+0000","like_count":2,"user_likes":false},"842448189105193":{"id":"842448189105193","from":{"id":"100007051600515","name":"Giang Nguyễn"},"message":"50 còn chưa ổn chứ 25 mà còn 70%","can_remove":false,"created_time":"2014-03-30T21:51:46+0000","like_count":1,"user_likes":false},"842463722436973":{"id":"842463722436973","from":{"id":"100007756088326","name":"Trung Pham"},"message":"","can_remove":false,"created_time":"2014-03-30T22:26:55+0000","like_count":3,"user_likes":false},"842480559101956":{"id":"842480559101956","from":{"id":"100004382503019","name":"Cường SiêuĐẳng"},"message":"Đây sang mà chưa thuộc hết bảng chữ cái này\nLo làm đis gì cho nhức đầu","can_remove":false,"created_time":"2014-03-30T23:11:33+0000","like_count":1,"user_likes":false},"842486229101389":{"id":"842486229101389","from":{"id":"100004052933801","name":"Tiêu Hoàng Long"},"message":"Xác cmn định","can_remove":false,"created_time":"2014-03-30T23:30:14+0000","like_count":0,"user_likes":false},"842489255767753":{"id":"842489255767753","from":{"id":"100001797875974","name":"Đức Hạnh"},"message":"Mệt đấy bạn ạ","can_remove":false,"created_time":"2014-03-30T23:40:34+0000","like_count":0,"user_likes":false},"842497819100230":{"id":"842497819100230","from":{"id":"100006263888044","name":"Hoàng Oanh"},"message":"sang đấy vẫn fải học lại từ đầu đấy b ah.nhưng hơi mệt đấy.moi người học giáo trình minna còn dễ hơn tôi nhiều.tôi fải học giáo trình manabo nhiều kiến thức vô cùng mà khó nữa trứ","can_remove":false,"created_time":"2014-03-31T00:10:07+0000","like_count":1,"user_likes":false},"842521762431169":{"id":"842521762431169","from":{"id":"100005596470828","name":"Hoàng Sup Hyo"},"message":"Sang đây còn lười hơn :))","can_remove":false,"created_time":"2014-03-31T01:19:02+0000","like_count":3,"user_likes":false},"842522245764454":{"id":"842522245764454","from":{"id":"100004382503019","name":"Cường SiêuĐẳng"},"message":"Sang mà vấp phải tổ đội ham chơi thì xong luôn =))","can_remove":false,"created_time":"2014-03-31T01:20:15+0000","like_count":3,"user_likes":false},"842528562430489":{"id":"842528562430489","from":{"id":"100005596470828","name":"Hoàng Sup Hyo"},"message":"Thật. Gặp đội siêng học thì đc. Gặp đội chơi thì xác cmn định :))","can_remove":false,"created_time":"2014-03-31T01:33:03+0000","like_count":4,"user_likes":false},"842543502428995":{"id":"842543502428995","from":{"id":"100007402331679","name":"Peter Toàn"},"message":"Like vì mình cũng như bạn,cũng đi Chiba ;)","can_remove":false,"created_time":"2014-03-31T02:09:00+0000","like_count":0,"user_likes":false},"842549269095085":{"id":"842549269095085","from":{"id":"100001594722256","name":"Viết An Phạm"},"message":"Ở VN chỉ ăn học không thôi mà còn như vậy, qua Nhật vừa làm vừa học thì không biết sẽ như thế nào sau 2 năm học tiếng?","can_remove":false,"created_time":"2014-03-31T02:18:33+0000","like_count":4,"user_likes":false},"842554129094599":{"id":"842554129094599","from":{"id":"100001156666759","name":"Kenshuu Steam"},"message":"anh nói thật chú mày đã lười thì cả đời sẽ khổ thôi!!!","can_remove":false,"created_time":"2014-03-31T02:34:06+0000","like_count":0,"user_likes":false},"842556995760979":{"id":"842556995760979","from":{"id":"100005350922337","name":"Đặng Hằng"},"message":"e thấy bảo hk hết 2q? mí tạm.hjc.","can_remove":false,"created_time":"2014-03-31T02:42:02+0000","like_count":0,"user_likes":false},"842584972424848":{"id":"842584972424848","from":{"id":"100005108558253","name":"My Uyen Xinh"},"message":"Mh cug hoc het may  quyen shin. Min. Taxuku. Toppicku. Va cug kha nhieu chu kanji. Vay ma qua day con lo mo lam. Ho dug chu yeu la quyen 2 tro len thoi. Gio chi con cach moi ngay ban chiu kho chep va hoc thuoc tu moi that nhieu. Ca quyen 1,2 Chi the thoi. Vi tg ko con nua. Qua day mua sam. Bien hieu toan chu kanji. Va trog khi noi khi ho dug the ngan nhieu. Nen noi tu moi ho cug hieu. Chuc ban thanh cog.....!","can_remove":false,"created_time":"2014-03-31T03:50:46+0000","like_count":1,"user_likes":false},"842599029090109":{"id":"842599029090109","from":{"id":"100004159717053","name":"Ngo Tu"},"message":"hết quyển 2 + chuukyuu sang là cũng ổn","can_remove":false,"created_time":"2014-03-31T04:39:57+0000","like_count":1,"user_likes":false},"842603752422970":{"id":"842603752422970","from":{"id":"100002568133487","name":"Ty Ti"},"message":"Học hết 2 quyển min vẫn chưa là gì cả, huống j bạn quyển 1 mà quên hết 70%,","can_remove":false,"created_time":"2014-03-31T04:56:59+0000","like_count":3,"user_likes":false},"842604042422941":{"id":"842604042422941","from":{"id":"100004159717053","name":"Ngo Tu"},"message":"e học ác đấy nhỉ","can_remove":false,"created_time":"2014-03-31T04:58:24+0000","like_count":1,"user_likes":false},"842604185756260":{"id":"842604185756260","from":{"id":"100000262143403","name":"Có Gì Hót"},"message":"Mang thật nhiều tiền sang mà xồ cai,","can_remove":false,"created_time":"2014-03-31T04:59:11+0000","like_count":0,"user_likes":false},"842604459089566":{"id":"842604459089566","from":{"id":"100002568133487","name":"Ty Ti"},"message":"A cũng vậy thôi, nghe đồn ngang n3 rồi mà Ngo Tu","message_tags":[{"id":"100004159717053","name":"Ngo Tu","type":"user","offset":42,"length":6}],"can_remove":false,"created_time":"2014-03-31T05:00:27+0000","like_count":0,"user_likes":false},"842604882422857":{"id":"842604882422857","from":{"id":"100000147414000","name":"Nguyễn Công Thắng"},"message":"thật -.- n2 còn chẳng ăn ai . em nên ở nhà đi , k có tg lai đâu -.- mng cũng vậy :)))","can_remove":false,"created_time":"2014-03-31T05:01:34+0000","like_count":3,"user_likes":false},"842609875755691":{"id":"842609875755691","from":{"id":"100001797875974","name":"Đức Hạnh"},"message":"Thật hay đùa vậy bạn Nguyễn Công Thắng","can_remove":false,"created_time":"2014-03-31T05:16:23+0000","like_count":1,"user_likes":false},"842614372421908":{"id":"842614372421908","from":{"id":"100000147414000","name":"Nguyễn Công Thắng"},"message":"thật -.- qua r mới biết -.- chưa qua háo hức lắm -.- qua r cũng háo hức những háo hức về :3","can_remove":false,"created_time":"2014-03-31T05:33:06+0000","like_count":2,"user_likes":false},"842615162421829":{"id":"842615162421829","from":{"id":"100001797875974","name":"Đức Hạnh"},"message":"Sang rồi phải cố gắng chứ. Hì.","can_remove":false,"created_time":"2014-03-31T05:34:52+0000","like_count":0,"user_likes":false},"842622939087718":{"id":"842622939087718","from":{"id":"100005108558253","name":"My Uyen Xinh"},"message":"Moi chi bat dau di tren con duog day soi va dinh thoi....dai dai ! Chotto....nan !","can_remove":false,"created_time":"2014-03-31T05:55:06+0000","like_count":0,"user_likes":false},"843154199034592":{"id":"843154199034592","from":{"id":"100003145416720","name":"Dũng Chuột"},"message":"Anh học cho đến tận lúc bay còn tịt ngòi nữa là :)) học ở vn k ăn thua đâu","can_remove":false,"created_time":"2014-03-31T21:26:45+0000","like_count":0,"user_likes":false},"843154722367873":{"id":"843154722367873","from":{"id":"100003145416720","name":"Dũng Chuột"},"message":"Nguyên công thắng nói chuẩn voãi :3 đúng là sang rồi vẫn háo hức nhưng háo hức đến ngày về","can_remove":false,"created_time":"2014-03-31T21:27:46+0000","like_count":1,"user_likes":false},"843165619033450":{"id":"843165619033450","from":{"id":"100000147414000","name":"Nguyễn Công Thắng"},"message":":))))))","can_remove":false,"created_time":"2014-03-31T21:49:04+0000","like_count":0,"user_likes":false},"843167149033297":{"id":"843167149033297","from":{"id":"100006614261300","name":"Tao Cao Cường Đây"},"message":"mẹ, mình cầm trong tay cái bằng N2 tiếng rồi mà đi xin việc éo đc gì. Khổ lỗi là N2 tiếng Việt nó mới đau sờ cau :v","can_remove":false,"created_time":"2014-03-31T21:52:04+0000","like_count":1,"user_likes":false},"843205332362812":{"id":"843205332362812","from":{"id":"100004382503019","name":"Cường SiêuĐẳng"},"message":"#duchanh thật chứ chả đùa","can_remove":false,"created_time":"2014-03-31T23:23:11+0000","like_count":0,"user_likes":false},"843205635696115":{"id":"843205635696115","from":{"id":"100004382503019","name":"Cường SiêuĐẳng"},"message":"#taolacuong tao N1 đây chưa ăn thùa nè mày","can_remove":false,"created_time":"2014-03-31T23:24:18+0000","like_count":0,"user_likes":false}},"paging":{"cursors":{"after":"ODQyMzQ3OTYyNDQ4NTQ5","before":"ODQyMzQ3OTYyNDQ4NTQ5"},"next":"https://graph.facebook.com/229244010425617_842344409115571/comments?limit=1&summary=1&after=ODQyMzQ3OTYyNDQ4NTQ5"},"summary":{"order":"chronological","total_count":78}}}