{"id":"229244010425617_842489795767699","type":"status","from":{"id":"100001797875974","name":"Đức Hạnh"},"message":"Ai có thông tin về Nagoya không cho mình với. Tháng 10 mình qua nhưng mà vẫn còn mông lung quá. Đọc trên mạng nghe toàn quảng cáo chán quá. Muốn mọi người chia se kinh nghiệm thực tế cho mình :((","created_time":"2014-03-30T23:43:05+0000","updated_time":"2014-03-31T12:46:59+0000","likes":{"data":{"100006652710586":{"id":"100006652710586","name":"Trần Minh Thu"},"100003014336072":{"id":"100003014336072","name":"Trần Hằg"},"100000628549116":{"id":"100000628549116","name":"Hoàng Chính"},"100003219896260":{"id":"100003219896260","name":"Nắng Mùa Thu"},"100002395900871":{"id":"100002395900871","name":"Come Back"},"100001502693321":{"id":"100001502693321","name":"Veronica Dz"},"100004288178550":{"id":"100004288178550","name":"Có Một Người"},"100001711730888":{"id":"100001711730888","name":"Hung Bimson"},"100007938450435":{"id":"100007938450435","name":"Miruku Chokoreeto"},"100006509792552":{"id":"100006509792552","name":"Phuong Le"},"100001566105595":{"id":"100001566105595","name":"Cơn Gió Lạ"},"100003069246142":{"id":"100003069246142","name":"Hồng Trịnh"},"100000067699837":{"id":"100000067699837","name":"Nguyễn Hải Phong"},"100003574946076":{"id":"100003574946076","name":"Minhh Hảii"},"100000014153164":{"id":"100000014153164","name":"Tan Tran"},"100007051600515":{"id":"100007051600515","name":"Giang Nguyễn"},"100004481014042":{"id":"100004481014042","name":"Quảng Nguyên"},"100005859731554":{"id":"100005859731554","name":"Con Đường Mưa"}},"paging":{"cursors":{"after":"MTAwMDA2NjUyNzEwNTg2","before":"MTAwMDA2NjUyNzEwNTg2"},"next":"https://graph.facebook.com/229244010425617_842489795767699/likes?limit=1&summary=1&after=MTAwMDA2NjUyNzEwNTg2"},"summary":{"total_count":18}},"comments":{"data":{"842490972434248":{"id":"842490972434248","from":{"id":"100004481014042","name":"Quảng Nguyên"},"message":"Cứ sang đây nhiều vào :)))","can_remove":false,"created_time":"2014-03-30T23:46:26+0000","like_count":0,"user_likes":false},"842491395767539":{"id":"842491395767539","from":{"id":"100007051600515","name":"Giang Nguyễn"},"message":"Càng đông đống càng to.qua đây cho vui bạn ak","can_remove":false,"created_time":"2014-03-30T23:47:24+0000","like_count":0,"user_likes":false},"842492265767452":{"id":"842492265767452","from":{"id":"100006424623565","name":"BoBo CuaToi"},"message":"Minh o tokyo nen ko bit ve nagoya\nNhung noi that nhe!\nBen nhat ko phai vung dat hua dau!\nDi tu ngiep thi dc chu dung di du hoc!\nChan thanh!","can_remove":false,"created_time":"2014-03-30T23:49:55+0000","like_count":4,"user_likes":false},"842493199100692":{"id":"842493199100692","from":{"id":"100007224720779","name":"Tý Tởn"},"message":"Sang đi mỗi tháng kiếm mấy chục man","can_remove":false,"created_time":"2014-03-30T23:52:46+0000","like_count":0,"user_likes":false},"842495495767129":{"id":"842495495767129","from":{"id":"100003875211691","name":"Hue Yamashironguyen"},"message":"Đứa nào trình độ quèn thì lương ít còn đứa nào trình độ cao thì lương nó cao.thế nên,quèn thì hãy chấp nhận quèn đi chứ đừng ngồi đó mà nói mỉa nói mai đất nc của họ trong khi đó tụi bay cũng là người đang sống & làm việc trên mảnh đất của họ đấy tụi bay hiểu khg ??? Đúng là toàn những thể loại Cóc nhái mà cứ ngỡ mình là Hoàng Tử với Thiên Nga.","can_remove":false,"created_time":"2014-03-31T00:00:23+0000","like_count":6,"user_likes":false},"842497709100241":{"id":"842497709100241","from":{"id":"100002945776077","name":"Hoàng Mạnh Cường"},"message":"như AE đi trước có nói cố gắng học tiếng tốt...sang đến đó tìm chỗ ít người Việt mà vào làm...đặc biệt là chăm chỉ Nhật họ thích điều này....còn về mặt tiền bạc thì dần dần thôi....đặc biệt là ko nên tin người quá bị lừa ráng chịu nếu quá cả tin...còn nghe mấy bố trung Tâm thì....Khóc..:(","can_remove":false,"created_time":"2014-03-31T00:09:21+0000","like_count":2,"user_likes":false},"842497905766888":{"id":"842497905766888","from":{"id":"100001797875974","name":"Đức Hạnh"},"message":"Hue Yamashironguyen bạn nói mình à :(( mình xhir hỏi xin lời khuyên thôi mà","can_remove":false,"created_time":"2014-03-31T00:10:32+0000","like_count":0,"user_likes":false},"842498179100194":{"id":"842498179100194","from":{"id":"100003875211691","name":"Hue Yamashironguyen"},"message":"Đức Hạnh : mình khg có nói bạn!","can_remove":false,"created_time":"2014-03-31T00:11:26+0000","like_count":0,"user_likes":false},"842498269100185":{"id":"842498269100185","from":{"id":"100001797875974","name":"Đức Hạnh"},"message":"Cảm ơn BoBo CuaToi và Hoàng Mạnh Cường nhé ! Mình chỉ sợ cơ chế không cho phép thôi chứ chăm chỉ thì mình ok.","message_tags":[{"id":"100006424623565","name":"BoBo CuaToi","type":"user","offset":7,"length":11}],"can_remove":false,"created_time":"2014-03-31T00:11:55+0000","like_count":0,"user_likes":false},"842499309100081":{"id":"842499309100081","from":{"id":"100001797875974","name":"Đức Hạnh"},"message":"Hue Yamashironguyen hì. Mình học xong đai học ở Việt Nam rồi. Giờ sang Nagoya nhưng mà ngành của mình là Quản trị kinh doanh. Chẳng có ai nhắc đến trường hợp của mình cả. Hix","can_remove":false,"created_time":"2014-03-31T00:14:15+0000","like_count":0,"user_likes":false},"842499622433383":{"id":"842499622433383","from":{"id":"100001797875974","name":"Đức Hạnh"},"message":"BoBo CuaToi sao lại không nên dsi theo hình thức DHS ạ :((","message_tags":[{"id":"100006424623565","name":"BoBo CuaToi","type":"user","offset":0,"length":11}],"can_remove":false,"created_time":"2014-03-31T00:15:32+0000","like_count":0,"user_likes":false},"842500229099989":{"id":"842500229099989","from":{"id":"100002945776077","name":"Hoàng Mạnh Cường"},"message":"Đức Hạnh....B đã từng đi làm ở Việt Nam chúng ta rồi chứ...B làm theo Kíp 12h/ngày B thấy thế nào???? ( rất mệt theo quan điểm của T )....Nhưng B có AE ở Nhà nói chung là người để cùng san sẻ...nếu đi hãy đặt tâm lý là hướng Tương lai ( Hướng Dương )...Vì sang đó mình cũng nghe nhiều vất vả...nhưng cái lo nhất là bất đồng ngôn ngữ...còn làm việc thì làm nhiều hưởng nhiều...B có thể làm 16h/ngày...ko bỏ học quá 80% chẳng Bao giờ B sợ là ko có tiền....Nhưng cố gắng làm như VN 12h là sức thanh niên vừa đủ...đừng cố quá mà Lao Lực....Vững vàng lên Chiến Tranh người ta còn thắng lợi...giờ chỉ chiến đấu với công việc ngại gì....nghe nói là Có N2 và BẰng ĐH ở VN rồi sẽ đc ở lại Nhật...chăm chỉ ngày đầu...sau đó chỉ làm 1 tháng 24 buổi ( tại Nhật bản luôn B mình nó chia sẻ )...Cố Lên nhé!","message_tags":[{"id":"100001797875974","name":"Đức Hạnh","type":"user","offset":0,"length":8}],"can_remove":false,"created_time":"2014-03-31T00:17:14+0000","like_count":6,"user_likes":false},"842501075766571":{"id":"842501075766571","from":{"id":"100000359762118","name":"Mi Tra"},"message":"Chăm chỉ thôi chưa đủ. Hãy chịu khó quan sát từ những điều nhỏ nhất, luôn đặt câu hỏi \"tại sao họ làm như vậy\" và tìm ra câu trả lời để mà học theo, làm theo. Phải biết họ cần gì ở mình. Và hãy đặt mình ở vị trí của họ \"nếu mình thuê một người làm công, mình sẽ cần người như thế nào?\". \nTóm lại thì kinh nghiệm là do những gì bạn tự trải nghiệm chứ dù là cùng sống ở Nhật nhưng mỗi người một hoàn cảnh, mỗi người một môi trường, ko ai có thể đưa ra lời khuyên thích đáng nhất ngoài bạn được.","can_remove":false,"created_time":"2014-03-31T00:19:36+0000","like_count":7,"user_likes":false},"842501369099875":{"id":"842501369099875","from":{"id":"100001797875974","name":"Đức Hạnh"},"message":"Hoàng Mạnh Cường cảm ơn bạn nhiều vì ở Việt Nam mình học tiếng cũng đủ dùng và làm được 12/ ngày. Hì. Chỉ sợ cơ chế Nhật phức tạp. Hạn chế làm việc lâu năm ở Nhât chẳng hạn. Mình ví dụ thế","can_remove":false,"created_time":"2014-03-31T00:20:36+0000","like_count":0,"user_likes":false},"842503875766291":{"id":"842503875766291","from":{"id":"100002945776077","name":"Hoàng Mạnh Cường"},"message":"Cơ chế chỉ nói làm 4h/ngày đúng ko nào...nhưng khi đi làm B cứ an tâm là Chui tận 6h đó là 1 việc mà thường là trường xin cho đó....nhưng chỉ ức ở cái là nghe cũng nhiều Vụ tự người việt Báo Cục XNC để về nước...đó mới là sự đau khổ nhất...chứ còn B có sức thì B đừng nghĩ B sẽ ko có tiền...đồng thời cơ chế nói vậy nhưng mình sẽ làm phù hợp theo cơ chế là đc mà....Chú mình bên đó vài năm có nói là...khi đi làm đừng để người Nhật mất thiện cảm cái nhìn đầu tiên...khi họ đã quý thì B làm cái gì họ cũng cho rằng B là người tốt...vì vậy tránh tệ nạn ( gọi là Khôn Nỏi đi là OK )....tâm lý hướng cộng đồng hướng về gia đình mỗi người Góp 1 chút là sau này Người Việt dần dần có giá trong mắt người Nhật chứ như hiện Nay cũng khá vất vả","can_remove":false,"created_time":"2014-03-31T00:28:27+0000","like_count":4,"user_likes":false},"842504379099574":{"id":"842504379099574","from":{"id":"100000359762118","name":"Mi Tra"},"message":"Nếu bạn ko vi phạm pháp luật, ra trường xin được cv là nhân viên chính thức, cty tạo điều kiện gia hạn hợp đồng thì ko ai hạn chế số năm ở Nhật của bạn đâu. \nBạn đã học đh ở VN rồi thì hãy cố gắng mà học tiếng, học kiến thức chuyên môn để nắm bắt khi cơ hội tới. \nBạn qua từ tháng 10, cũng được 6 tháng rồi, hãy ra ngoài thực tế mà trải nghiệm chứ đừng quá phụ thuộc vào những ý kiến trên internet. \nNgày nghỉ, ngày cuối tuần giao lưu tụ tập vs người Việt ít thôi, hãy kết bạn vs người Nhật hoặc tới những lớp học miễn phí như học tiếng Nhật, trà đạo,...( thông tin có thể xin ở shiyakusho) \nQuan trọng hơn hết bạn phải biết mục tiêu của bạn là gì, bạn phải học cái gì để đạt được mục tiêu đó. \nNếu ko có mục tiêu cụ thể, rõ ràng thì bạn ko biết mình nên đi đâu và nên làm gì. \nMục tiêu quá lớn, quá xa vời  khó đạt được thì dễ gây nản chí. Vì vậy, trước mắt đặt mục tiêu nhỏ, vừa tầm đã. Đạt được rồi thì lại đặt mục tiêu tiếp theo.","can_remove":false,"created_time":"2014-03-31T00:30:27+0000","like_count":7,"user_likes":false},"842525992430746":{"id":"842525992430746","from":{"id":"100003221880243","name":"Ngân Siêu Nhân"},"message":"hôm nọ t hỏi cô giáo t nếu sang bên Nhật khi đi làm cần điều gì. rồi cô cho t tự trả lời: t bảo chăm chỉ, chịu khó, nhanh nhẹn, thật thà. nhưng cô cứ bảo chưa đủ, thiếu điều quan trọng nhất. rồi t cũng ko trả lời đc. B biết là gì ko? đó là phải yêu văn hóa của Nhật,cô bảo người Việt Nam nói nhiều thân thiện  rất lãng phí Người nhật ko thích, Nên trc khi b đi b hãy tìm hiểu về Nhật đi.vì sao đi Nhật mà ko phải các nước khác. Mà nếu đặt mục tiêu quan trọng là sang học chứ sang kiếm tiền thì nên ở nhà","can_remove":false,"created_time":"2014-03-31T01:27:00+0000","like_count":2,"user_likes":false},"842549669095045":{"id":"842549669095045","from":{"id":"100006263888044","name":"Hoàng Oanh"},"message":"Thoi tiet o nagoya thi dep vo cung noi chung la truoc la sau quen","can_remove":false,"created_time":"2014-03-31T02:20:04+0000","like_count":1,"user_likes":false},"842600345756644":{"id":"842600345756644","from":{"id":"100001797875974","name":"Đức Hạnh"},"message":"Hoàng Mạnh Cường Ngân Siêu Nhân Mi Tra Hoàng Oanhcảm ơn rất nhiều các bạn đã chia sẻ. Sang đấy kết bạn được giao lưu học hỏi kinh nghiệm của các bạn thì tốt quá !!!","message_tags":[{"id":"100003221880243","name":"Ngân Siêu Nhân","type":"user","offset":17,"length":14},{"id":"100006263888044","name":"Hoàng Oanh","type":"user","offset":39,"length":10}],"can_remove":false,"created_time":"2014-03-31T04:45:31+0000","like_count":0,"user_likes":false},"842656872417658":{"id":"842656872417658","from":{"id":"100003031372273","name":"Đào Thanh Tùng"},"message":"lạc đề rùi ^^. Ai nói qua về Nagoya cho bạn ấy biết đi :D","can_remove":false,"created_time":"2014-03-31T07:54:31+0000","like_count":0,"user_likes":false},"842676839082328":{"id":"842676839082328","from":{"id":"100001797875974","name":"Đức Hạnh"},"message":"ừ nhỉ :)","can_remove":false,"created_time":"2014-03-31T09:12:49+0000","like_count":0,"user_likes":false},"842688532414492":{"id":"842688532414492","from":{"id":"100000014153164","name":"Tan Tran"},"message":"Nagoya là một thành phố lớn trong Aichi ken. Có rất nhiều chỗ vui chơi, giải trí...bạn muốn bit j ?","can_remove":false,"created_time":"2014-03-31T09:47:10+0000","like_count":0,"user_likes":false},"842689032414442":{"id":"842689032414442","from":{"id":"100001797875974","name":"Đức Hạnh"},"message":"Mình muốn hỏi về công việc bên ấy thế nào. Với trường hợp là DHS tự túc như mình thì có dễ xin việc làm thêm cũng như công việc sau khi tốt nghiệp trường Nhật ngữ không :)","can_remove":false,"created_time":"2014-03-31T09:49:20+0000","like_count":0,"user_likes":false},"842722192411126":{"id":"842722192411126","from":{"id":"100000628549116","name":"Hoàng Chính"},"message":"Khuyên chân thành bạn 1 câu là ở nhà đi. Nếu nhà có điều kiện thì thoải mái còn k thì sang hối hận k kịp","can_remove":false,"created_time":"2014-03-31T11:02:40+0000","like_count":0,"user_likes":false},"842762422407103":{"id":"842762422407103","from":{"id":"100003223032626","name":"Hoàng Tử Đói Tiền"},"message":"Xuong do","can_remove":false,"created_time":"2014-03-31T12:29:33+0000","like_count":0,"user_likes":false},"842762545740424":{"id":"842762545740424","from":{"id":"100003223032626","name":"Hoàng Tử Đói Tiền"},"message":"Kiem kho nam","can_remove":false,"created_time":"2014-03-31T12:29:51+0000","like_count":0,"user_likes":false},"842762815740397":{"id":"842762815740397","from":{"id":"100003031372273","name":"Đào Thanh Tùng"},"message":"tp lớn mà khó vậy á","can_remove":false,"created_time":"2014-03-31T12:30:33+0000","like_count":0,"user_likes":false},"842763622406983":{"id":"842763622406983","from":{"id":"100005250242073","name":"藤 の花"},"message":"nagoya. \n1mặt no zống như thiên đg. có vườn hoa treo babylon :)), có cánh đồng hoa tuylyp bất tận. \n1mặt nó như địa ngục trần gian.\năn kăp,đá đồ.... nơi nát bét nhất của nb.\n b nghĩ sao thì tùy. đây là thực tế. hii","can_remove":false,"created_time":"2014-03-31T12:32:34+0000","like_count":1,"user_likes":false},"842766752406670":{"id":"842766752406670","from":{"id":"100003031372273","name":"Đào Thanh Tùng"},"message":"á đù  @@  mùng 8 này mình qua nagoya :((  chikusa - ku :((","can_remove":false,"created_time":"2014-03-31T12:39:55+0000","like_count":0,"user_likes":false},"842772999072712":{"id":"842772999072712","from":{"id":"100001797875974","name":"Đức Hạnh"},"message":"Tệ nạn thì mình không bao giờ tham gia. Mình chỉ thắc mắc việc làm thôi. Hì","can_remove":false,"created_time":"2014-03-31T12:45:28+0000","like_count":0,"user_likes":false},"842773112406034":{"id":"842773112406034","from":{"id":"100006424623565","name":"BoBo CuaToi"},"message":"Ko nghe thi dung co hoi han khi sang ben nay roi!\nVay thoi!","can_remove":false,"created_time":"2014-03-31T12:45:45+0000","like_count":0,"user_likes":false},"842773222406023":{"id":"842773222406023","from":{"id":"100001797875974","name":"Đức Hạnh"},"message":"Đào Thanh TùngTùng bạn sang theo hình thức gì thế","can_remove":false,"created_time":"2014-03-31T12:46:03+0000","like_count":0,"user_likes":false},"842773495739329":{"id":"842773495739329","from":{"id":"100001797875974","name":"Đức Hạnh"},"message":":(","can_remove":false,"created_time":"2014-03-31T12:46:59+0000","like_count":0,"user_likes":false}},"paging":{"cursors":{"after":"ODQyNDkwOTcyNDM0MjQ4","before":"ODQyNDkwOTcyNDM0MjQ4"},"next":"https://graph.facebook.com/229244010425617_842489795767699/comments?limit=1&summary=1&after=ODQyNDkwOTcyNDM0MjQ4"},"summary":{"order":"chronological","total_count":33}}}