{"id":"229244010425617_842579079092104","type":"status","from":{"id":"100004256292728","name":"Phạm Việt Trinh"},"message":"Em chào anh chị!\nXin anh chị cho em lời khuyên với ạ\nĐáng lẽ anh trai em sẽ sang Nhật tháng 4 này theo du học tự túc ạ. Thấy công ty nói anh đã có tư cách lưu trú rồi. Nhưng vì ko đủ tiền nên chắc anh sẽ ko đi nữa.\nBây giờ anh định ở nhà kiếm tiền mấy năm rồi sau đó sẽ tiếp tục con đường này.\nAnh chị cho em hỏi sau này anh trai em còn cơ hội sang Nhật ko ạ? Hay để đi được thì anh phải làm như thế nào ạ?\nBây giờ anh ấy có thể làm gì để cơ hội sau này đc đi cao hơn ko ạ?\nEm xin cám ơn các anh chị!","created_time":"2014-03-31T03:38:06+0000","updated_time":"2014-04-01T10:48:33+0000","likes":{"data":{"100001432462223":{"id":"100001432462223","name":"Truong Nguyen"},"100004787825236":{"id":"100004787825236","name":"Phạm Nhân"},"100005252490599":{"id":"100005252490599","name":"Chí Phèo"},"100004502947682":{"id":"100004502947682","name":"Cuong Seven Up"},"100000857843369":{"id":"100000857843369","name":"Hasu Chan"}},"paging":{"cursors":{"after":"MTAwMDAxNDMyNDYyMjIz","before":"MTAwMDAxNDMyNDYyMjIz"},"next":"https://graph.facebook.com/229244010425617_842579079092104/likes?limit=1&summary=1&after=MTAwMDAxNDMyNDYyMjIz"},"summary":{"total_count":5}},"comments":{"data":{"842581379091874":{"id":"842581379091874","from":{"id":"100006638161405","name":"Daisukina Hito"},"message":"Sẽ k có lần 2 đâu ban nhé, nó cho mình cơ hội mình huỷ là đánh mất rồi đó","can_remove":false,"created_time":"2014-03-31T03:41:42+0000","like_count":0,"user_likes":false},"842584435758235":{"id":"842584435758235","from":{"id":"100005601069512","name":"トアン ゲン"},"message":"cung nhu minh, minh hoi rat ky viec nay. minh muon huy di du hoc chuyen sang di ky su nhung khong duoc, se rat kho de co lan 2.","can_remove":false,"created_time":"2014-03-31T03:49:41+0000","like_count":0,"user_likes":false},"842585795758099":{"id":"842585795758099","from":{"id":"100003733403933","name":"Thôi Đừng"},"message":"không có lần 2 đâu, hồ sơ mà sai còn khó có lần 2 huống gì trường hợp như anh bạn","can_remove":false,"created_time":"2014-03-31T03:54:32+0000","like_count":0,"user_likes":false},"842586852424660":{"id":"842586852424660","from":{"id":"100006263888044","name":"Hoàng Oanh"},"message":"Vẫn đi dc e ah","can_remove":false,"created_time":"2014-03-31T03:58:11+0000","like_count":0,"user_likes":false},"842586875757991":{"id":"842586875757991","from":{"id":"100004256292728","name":"Phạm Việt Trinh"},"message":"Thế có nghĩa là ko thể cứu vãn đc ạ? Em cũng biết cơ hội mong manh, nhưng anh chị thấy còn cách nào nữa ko ạ?","can_remove":false,"created_time":"2014-03-31T03:58:16+0000","like_count":0,"user_likes":false},"842587272424618":{"id":"842587272424618","from":{"id":"100006263888044","name":"Hoàng Oanh"},"message":"C ko rõ lắm nhưng di dc ma e chu yeu là hồ sơ có rõ ràng ko","can_remove":false,"created_time":"2014-03-31T03:59:22+0000","like_count":0,"user_likes":false},"842587299091282":{"id":"842587299091282","from":{"id":"100004256292728","name":"Phạm Việt Trinh"},"message":"Chị Hoang Anh, mình còn cách nào ạ, xin chị tư vấn cho em ạ","can_remove":false,"created_time":"2014-03-31T03:59:29+0000","like_count":0,"user_likes":false},"842588365757842":{"id":"842588365757842","from":{"id":"100006263888044","name":"Hoàng Oanh"},"message":"C cũng ko rõ lắm e ah","can_remove":false,"created_time":"2014-03-31T04:01:30+0000","like_count":0,"user_likes":false},"842588765757802":{"id":"842588765757802","from":{"id":"100006263888044","name":"Hoàng Oanh"},"message":"Nhưng vẫn còn cơ hội nhung bảo a e là chủ yeu fai gioi tieng nữa thì ok","can_remove":false,"created_time":"2014-03-31T04:02:41+0000","like_count":0,"user_likes":false},"842588855757793":{"id":"842588855757793","from":{"id":"100004256292728","name":"Phạm Việt Trinh"},"message":"Đợt trc chị biết thông tin này ở nguồn nào ạ? Chị cho em biết để em tìm hiểu đc ko ạ?","can_remove":false,"created_time":"2014-03-31T04:03:00+0000","like_count":0,"user_likes":false},"842589165757762":{"id":"842589165757762","from":{"id":"100006263888044","name":"Hoàng Oanh"},"message":"C thang 7 này cũng đi đây.e vào trang web của công ti a trai e tìm hiểu nhé","can_remove":false,"created_time":"2014-03-31T04:04:23+0000","like_count":0,"user_likes":false},"842589309091081":{"id":"842589309091081","from":{"id":"100005601069512","name":"トアン ゲン"},"message":"hay quan he tot voi nguoi nhat va nho ho bao lanh thi may ra. con khong thi chuyen huong sang cac quoc gia khac.","can_remove":false,"created_time":"2014-03-31T04:05:11+0000","like_count":0,"user_likes":false},"842590015757677":{"id":"842590015757677","from":{"id":"100004256292728","name":"Phạm Việt Trinh"},"message":"Vâng. Em sẽ ghi nhớ ạ","can_remove":false,"created_time":"2014-03-31T04:08:58+0000","like_count":0,"user_likes":false},"842603322423013":{"id":"842603322423013","from":{"id":"100000147414000","name":"Nguyễn Công Thắng"},"message":"không có đâu -.- đừng qua -.-","can_remove":false,"created_time":"2014-03-31T04:55:54+0000","like_count":0,"user_likes":false},"842627855753893":{"id":"842627855753893","from":{"id":"100004105417269","name":"Hà Minh Đăng"},"message":"Co tu cach luu tru roi ma ki di thi coi nhu cham het","can_remove":false,"created_time":"2014-03-31T06:16:47+0000","like_count":0,"user_likes":false},"842628579087154":{"id":"842628579087154","from":{"id":"100003899878089","name":"Mèo Nguyễn"},"message":"nói chung là khó và cơ hội mong manh lắm. Khi hồ sơ của anh bạn bị gửi lên cục là nó đã lưu lại rồi, sau này làm lại nó sẽ xét rất kĩ và hỏi lý do tại sao hồi đó được thì ko đi mà bây giờ lại đi. Hơn nữa nó cũng sẽ ko đánh giá cao anh bạn nữa vì cho rằng ý chỉ của anh bạn ko tốt nên từ bỏ sớm dù là lý do nào đi chăng nữa. Cho dù anh bạn có bảo là do lúc đó nhà ko có tiền nên ko đi được, nó sẽ hỏi ngược lại là đã có sổ tiết kiệm như thế này mà lại ko có thì hóa ra là hồi đó làm giả giấy tờ à. Nói tóm lại cơ hội chỉ còn có 30% trở xuống thôi bạn ạ. Nếu anh bạn thực sự muốn sang Nhật thì mình khuyên là học tốt rồi sang đó làm, chứ thực sự quay lại học cơ hội ko còn nhiều. Bây giờ cục xuất nhập cảnh cũng ghét ng vn lắm rồi, ko làm dễ như trước đâu, vì thế thời gian càng lâu thì càng khó.","can_remove":false,"created_time":"2014-03-31T06:20:19+0000","like_count":1,"user_likes":false},"842630232420322":{"id":"842630232420322","from":{"id":"100003899878089","name":"Mèo Nguyễn"},"message":"mình nghĩ giờ tốt nhất là gia đình bạn làm cái giấy ở bệnh viện bảo là anh bạn bị bệnh gì đó tạm thời ko rời khỏi vn được, cần chữa ngay, đúng là bệnh truyền nhiễm là được rồi gửi sang trường Nhật xin rút hồ sơ. Sau này làm lại họ có hỏi lý do mình còn để trả lời. Nhưng dù sao cũng ko chắc chắn được đâu, cơ hội đôi khi chỉ đến một lần. Nhưng như bạn nói, nhà đã ko có đủ tiền thì thôi đành chấp nhận, cố gắng học thật tốt ở vn rồi qua nhật làm việc cũng đc","can_remove":false,"created_time":"2014-03-31T06:25:36+0000","like_count":2,"user_likes":false},"842636312419714":{"id":"842636312419714","from":{"id":"100004256292728","name":"Phạm Việt Trinh"},"message":"Chị Mèo Nguyễn: em cám ơn chị nhiều ạ. Phương án của chị em thấy rất tốt ạ. Nhưng em chỉ lo ngại là xin đc cái giấy ở bệnh viện cũng khó lắm ạ","can_remove":false,"created_time":"2014-03-31T06:51:08+0000","like_count":1,"user_likes":false},"842638155752863":{"id":"842638155752863","from":{"id":"100004256292728","name":"Phạm Việt Trinh"},"message":"À chị cho em hỏi thêm là ở trên chị có nói là anh em hãy học tốt để sang đấy làm, chứ đi du học thì khó. Em hơi thắc mắc là tại sao lại sang làm đc mà ko học đc ạ? Em cũng chưa tìm hiểu về tư cách lưu trú nên em ko rõ ạ","can_remove":false,"created_time":"2014-03-31T06:56:17+0000","like_count":0,"user_likes":false},"842645032418842":{"id":"842645032418842","from":{"id":"100001264877022","name":"Nhật Ngữ Yuki"},"message":"như thế sẽ ít có cơ hội bạn ạ, vì hồ sơ của anh bạn đã đưa lên cục xuất nhập cảnh xác nhận một lần rồi mà ko đi , thì sang năm cục sẽ đặt ra rất nhiều nghi vấn nhé","can_remove":false,"created_time":"2014-03-31T07:24:46+0000","like_count":0,"user_likes":false},"842646359085376":{"id":"842646359085376","from":{"id":"100003899878089","name":"Mèo Nguyễn"},"message":"Phạm Việt Trinh vì một lần đỗ đi du học mà lại ko đi nên họ sẽ đánh giá ý chí của mình ko vững, với đặt ra nhiều nghi vấn này nọ như mình có nói. Còn khi đã được công ty ở bên Nhật nhận thì họ sẽ lo thủ tục visa ch o mình thì dễ dàng hơn, có nghi vấn cũng ít hơn so với du học.","can_remove":false,"created_time":"2014-03-31T07:29:52+0000","like_count":2,"user_likes":false},"842669822416363":{"id":"842669822416363","from":{"id":"100004256292728","name":"Phạm Việt Trinh"},"message":"Chị Hoàng Oanh: chị đi qua trung tâm nào ở đâu vậy chị?","can_remove":false,"created_time":"2014-03-31T08:46:13+0000","like_count":0,"user_likes":false},"842934285723250":{"id":"842934285723250","from":{"id":"100003601546034","name":"Nhí Minh"},"message":"Cu ten tam ma o nha chan vit di con suong hon o ben nhat em ah .!","can_remove":false,"created_time":"2014-03-31T14:23:04+0000","like_count":0,"user_likes":false},"842952299054782":{"id":"842952299054782","from":{"id":"100006263888044","name":"Hoàng Oanh"},"message":"chị có bố mẹ và a trai chị ở bên đấy nên trả phải qua trung tâm nào cả e ạ.vì bme chị sang đấy nhập quoc tịch từ năm 1997 e ạ","can_remove":false,"created_time":"2014-03-31T14:58:03+0000","like_count":0,"user_likes":false},"842953589054653":{"id":"842953589054653","from":{"id":"100006263888044","name":"Hoàng Oanh"},"message":"có bmẹ bảo lãnh hết rùi e ạ","can_remove":false,"created_time":"2014-03-31T14:59:07+0000","like_count":0,"user_likes":false},"843010355715643":{"id":"843010355715643","from":{"id":"100004256292728","name":"Phạm Việt Trinh"},"message":"Ôi chị thích thế. :-)","can_remove":false,"created_time":"2014-03-31T16:01:49+0000","like_count":0,"user_likes":false},"843015915715087":{"id":"843015915715087","from":{"id":"100006263888044","name":"Hoàng Oanh"},"message":"nhung thuc su c ko thich di nhat e ạ.vi co bme nen fai theo sang thoi.c thich di nc nao noi tieng anh ý","can_remove":false,"created_time":"2014-03-31T16:03:52+0000","like_count":0,"user_likes":false},"843025505714128":{"id":"843025505714128","from":{"id":"100004256292728","name":"Phạm Việt Trinh"},"message":"Thế sao c ko đi ạ? Nếu là em có khi em đã chạy theo sở thích rồi","can_remove":false,"created_time":"2014-03-31T16:18:26+0000","like_count":0,"user_likes":false},"843098079040204":{"id":"843098079040204","from":{"id":"100004787825236","name":"Phạm Nhân"},"message":"Sang nhật mà nói đk tiếng a cũng tốt đấy hoang oanh.lợi cho mình nhiều đấy","can_remove":false,"created_time":"2014-03-31T19:14:26+0000","like_count":0,"user_likes":false},"843209752362370":{"id":"843209752362370","from":{"id":"100001546837960","name":"Chung Goldstar"},"message":"Về cơ bản là các bạn sẽ nộp lại đơn lên cục để xin tiếp được. Tuy nhiên cần lưu ý, khi dừng không nhận COE đi thì cần có giải trình với trường lý do thuyết phục. Khi nộp xin lại COE nên quay về đúng trường đã xin COE lần 1. Đương nhiên các bạn sẽ lại phải xin lại các giấy tờ mới để khai lại như lần 1. Như vậy khả năng đạt visa sẽ cao.","can_remove":false,"created_time":"2014-03-31T23:35:38+0000","like_count":1,"user_likes":false},"843218632361482":{"id":"843218632361482","from":{"id":"100004256292728","name":"Phạm Việt Trinh"},"message":"Anh Chung Goldstar: vậy khả năng cao mình vẫn quay lại đc ạ?","can_remove":false,"created_time":"2014-03-31T23:58:42+0000","like_count":0,"user_likes":false},"843219445694734":{"id":"843219445694734","from":{"id":"100001546837960","name":"Chung Goldstar"},"message":"Càng quay lại sớm càng cao Phạm Việt Trinh à.","can_remove":false,"created_time":"2014-04-01T00:00:23+0000","like_count":1,"user_likes":false},"843220862361259":{"id":"843220862361259","from":{"id":"100004256292728","name":"Phạm Việt Trinh"},"message":"Vâng em cám ơn anh nhiều ạ! Thế mà bà ở trung tâm cứ nhất quyết khẳng định là sẽ ko bao giờ đi đc nữa","can_remove":false,"created_time":"2014-04-01T00:04:07+0000","like_count":2,"user_likes":false},"843224765694202":{"id":"843224765694202","from":{"id":"100005828342497","name":"Bee Boo"},"message":"Thật ra vẫn đi đk, nhưng nếu mà trung tâm k đủ năng lực, làm hso k chắc hoặc k hiểu rõ quy trình là trượt thật đó bạn ahh","can_remove":false,"created_time":"2014-04-01T00:15:41+0000","like_count":1,"user_likes":false},"843242192359126":{"id":"843242192359126","from":{"id":"100006263888044","name":"Hoàng Oanh"},"message":"Bên nhật tieng a dc su dung nhieu ko hả phạm Phạm Nhân","message_tags":[{"id":"100004787825236","name":"Phạm Nhân","type":"user","offset":45,"length":9}],"can_remove":false,"created_time":"2014-04-01T01:09:53+0000","like_count":0,"user_likes":false},"843250939024918":{"id":"843250939024918","from":{"id":"100001531816305","name":"Mẫn Nghi"},"message":"Rất khó, và cơ hội cực kỳ mong manh . Vì hs của anh bạn đã đc lưu giữ lại, khi làm hs lại lần 2 người ta sẽ hỏi sao ko đi lần 1, thì ko có thể nói lý do ko đủ tiền, nếu nói như vaz thì chính tự khẳng định hs giả . Như vaz hs anh bạn sẽ liệt vào trường hợp vĩnh viễn . Nên suy tính lại bạn nhé","can_remove":false,"created_time":"2014-04-01T01:29:00+0000","like_count":0,"user_likes":false},"843443205672358":{"id":"843443205672358","from":{"id":"100008094602427","name":"Haken Kyujin"},"message":"Cơ hội đi của bạn vẫn có thể nếu bạn nhờ trung tâm làm giấy giải trình lên và thấy giấy giải trình đó là hợp lý, hơi phức tạo chút thôi","can_remove":false,"created_time":"2014-04-01T10:48:33+0000","like_count":0,"user_likes":false}},"paging":{"cursors":{"after":"ODQyNTgxMzc5MDkxODc0","before":"ODQyNTgxMzc5MDkxODc0"},"next":"https://graph.facebook.com/229244010425617_842579079092104/comments?limit=1&summary=1&after=ODQyNTgxMzc5MDkxODc0"},"summary":{"order":"chronological","total_count":37}}}