{"id":"229244010425617_842559435760735","type":"status","from":{"id":"100006917112393","name":"Mun"},"message":"Chào m.n\nM.n cho e hỏi nhờ tí ạ.\nEm muốn đem theo 2 kây thuốc lá tkì có đk kô ạ.","created_time":"2014-03-31T02:48:13+0000","updated_time":"2014-03-31T11:43:35+0000","likes":{"data":{"100003076669104":{"id":"100003076669104","name":"Mazu Nguyen"},"100006614261300":{"id":"100006614261300","name":"Tao Cao Cường Đây"},"100005443599696":{"id":"100005443599696","name":"Son Kent"},"100004614193937":{"id":"100004614193937","name":"Do Pham"},"100006846840777":{"id":"100006846840777","name":"Đi Tìm Tương Lai"},"100006915849729":{"id":"100006915849729","name":"Lảo Bán Gà"},"100003301481599":{"id":"100003301481599","name":"Thành Công Nguyễn"},"100007030355017":{"id":"100007030355017","name":"Quân Hoàng"},"100006284072506":{"id":"100006284072506","name":"Nguyen van Tuan"},"100006263888044":{"id":"100006263888044","name":"Hoàng Oanh"},"100003267351115":{"id":"100003267351115","name":"Quang Chu"},"100003181743412":{"id":"100003181743412","name":"Pham Kha"}},"paging":{"cursors":{"after":"MTAwMDAzMDc2NjY5MTA0","before":"MTAwMDAzMDc2NjY5MTA0"},"next":"https://graph.facebook.com/229244010425617_842559435760735/likes?limit=1&summary=1&after=MTAwMDAzMDc2NjY5MTA0"},"summary":{"total_count":12}},"comments":{"data":{"842560459093966":{"id":"842560459093966","from":{"id":"100003267351115","name":"Quang Chu"},"message":"Oke","can_remove":false,"created_time":"2014-03-31T02:51:42+0000","like_count":1,"user_likes":false},"842560485760630":{"id":"842560485760630","from":{"id":"100006263888044","name":"Hoàng Oanh"},"message":"Dc b ah","can_remove":false,"created_time":"2014-03-31T02:51:54+0000","like_count":0,"user_likes":false},"842560872427258":{"id":"842560872427258","from":{"id":"100007616738497","name":"Dung Nguyen"},"message":"Sao bju chj? Đk mag 1 kây","can_remove":false,"created_time":"2014-03-31T02:53:01+0000","like_count":1,"user_likes":false},"842560899093922":{"id":"842560899093922","from":{"id":"100006917112393","name":"Mun"},"message":"Nên để ở đâu ạ","can_remove":false,"created_time":"2014-03-31T02:53:05+0000","like_count":0,"user_likes":false},"842561099093902":{"id":"842561099093902","from":{"id":"100006917112393","name":"Mun"},"message":"Em kảm ơn nhé","can_remove":false,"created_time":"2014-03-31T02:53:26+0000","like_count":0,"user_likes":false},"842561252427220":{"id":"842561252427220","from":{"id":"100006263888044","name":"Hoàng Oanh"},"message":"Nen cat kin vao hanh li b nhe","can_remove":false,"created_time":"2014-03-31T02:53:35+0000","like_count":1,"user_likes":false},"842561489093863":{"id":"842561489093863","from":{"id":"100006917112393","name":"Mun"},"message":"Kất kín á pạn.ng ta kô kt à pạn","can_remove":false,"created_time":"2014-03-31T02:54:05+0000","like_count":0,"user_likes":false},"842561659093846":{"id":"842561659093846","from":{"id":"100003301481599","name":"Thành Công Nguyễn"},"message":"cho  hành lí kí gửi","can_remove":false,"created_time":"2014-03-31T02:54:34+0000","like_count":1,"user_likes":false},"842561889093823":{"id":"842561889093823","from":{"id":"100006917112393","name":"Mun"},"message":"Nhét à a.có ls kô","can_remove":false,"created_time":"2014-03-31T02:55:13+0000","like_count":0,"user_likes":false},"842562009093811":{"id":"842562009093811","from":{"id":"100006263888044","name":"Hoàng Oanh"},"message":"Thi b de trong tui bong kin vao ngta cung ko ktra ki dau b ah","can_remove":false,"created_time":"2014-03-31T02:55:28+0000","like_count":0,"user_likes":false},"842562109093801":{"id":"842562109093801","from":{"id":"100003301481599","name":"Thành Công Nguyễn"},"message":"tùy m k nghe thì thôi hehe","can_remove":false,"created_time":"2014-03-31T02:55:50+0000","like_count":0,"user_likes":false},"842562125760466":{"id":"842562125760466","from":{"id":"100001825177304","name":"Cậu Chủ Nhỏ"},"message":"Mag nhju h0n cug dc ma e mun oi :v","can_remove":false,"created_time":"2014-03-31T02:55:52+0000","like_count":1,"user_likes":false},"842562155760463":{"id":"842562155760463","from":{"id":"100004365870608","name":"Minh Chien"},"message":"2 cay thj co phep ma dao mjnh dj ban mjnh mang 20cay ma may ko bj phat hjen","can_remove":false,"created_time":"2014-03-31T02:55:58+0000","like_count":1,"user_likes":false},"842562575760421":{"id":"842562575760421","from":{"id":"100006917112393","name":"Mun"},"message":"Hì.kảm ơn p nhé","can_remove":false,"created_time":"2014-03-31T02:56:30+0000","like_count":0,"user_likes":false},"842562762427069":{"id":"842562762427069","from":{"id":"100006917112393","name":"Mun"},"message":"20kây ư.siêu nhân quá","can_remove":false,"created_time":"2014-03-31T02:56:59+0000","like_count":0,"user_likes":false},"842563012427044":{"id":"842563012427044","from":{"id":"100006917112393","name":"Mun"},"message":"Kậu chủ nhỏ e mag hộ tkôi a ạ","can_remove":false,"created_time":"2014-03-31T02:57:57+0000","like_count":0,"user_likes":false},"842563889093623":{"id":"842563889093623","from":{"id":"100005596470828","name":"Hoàng Sup Hyo"},"message":"bị bắt đấy bạn. Luật mới của nhật bản đó . đừng mang theo kẻo lại được về nước sớm hơn dự kiến đấy haha","can_remove":false,"created_time":"2014-03-31T02:59:59+0000","like_count":2,"user_likes":false},"842563892426956":{"id":"842563892426956","from":{"id":"100001825177304","name":"Cậu Chủ Nhỏ"},"message":"Oh a tg mag sag day bu0n hehe :)))","can_remove":false,"created_time":"2014-03-31T03:00:01+0000","like_count":1,"user_likes":false},"842564709093541":{"id":"842564709093541","from":{"id":"100006917112393","name":"Mun"},"message":"Ns thật hay đùa đấy a hoàng...","can_remove":false,"created_time":"2014-03-31T03:02:25+0000","like_count":0,"user_likes":false},"842564905760188":{"id":"842564905760188","from":{"id":"100006917112393","name":"Mun"},"message":"Kậu chủ nhỏ.hẳn là buôn ý :))","can_remove":false,"created_time":"2014-03-31T03:02:56+0000","like_count":1,"user_likes":false},"842565312426814":{"id":"842565312426814","from":{"id":"100005596470828","name":"Hoàng Sup Hyo"},"message":"A đùa thôi , ko thấy a cười à :)). Mang ít thì đc chứ mang nhiều là vấn đề đấy, mà e con gái hút thuốc lm j?","can_remove":false,"created_time":"2014-03-31T03:03:50+0000","like_count":1,"user_likes":false},"842565699093442":{"id":"842565699093442","from":{"id":"100001825177304","name":"Cậu Chủ Nhỏ"},"message":"Hehe bu0n tku0c lai nhju lm ay e ak :v :v","can_remove":false,"created_time":"2014-03-31T03:04:33+0000","like_count":1,"user_likes":false},"842565799093432":{"id":"842565799093432","from":{"id":"100006917112393","name":"Mun"},"message":"2 kây tj có ls kô a.ớ.e có pảo e hút đâu :v","can_remove":false,"created_time":"2014-03-31T03:04:40+0000","like_count":0,"user_likes":false},"842565979093414":{"id":"842565979093414","from":{"id":"100006917112393","name":"Mun"},"message":"Kậu chủ nhỏ : k khéo lại giàu to ấy chứ :D","can_remove":false,"created_time":"2014-03-31T03:05:12+0000","like_count":0,"user_likes":false},"842566622426683":{"id":"842566622426683","from":{"id":"100001825177304","name":"Cậu Chủ Nhỏ"},"message":"Nhah gjau a mi bao E bu0n thu0c ma :D","can_remove":false,"created_time":"2014-03-31T03:07:04+0000","like_count":0,"user_likes":false},"842567279093284":{"id":"842567279093284","from":{"id":"100006917112393","name":"Mun"},"message":"^^ hay là mình kứ bất chấp hết buôn thuốc đi a :p","can_remove":false,"created_time":"2014-03-31T03:08:01+0000","like_count":0,"user_likes":false},"842567679093244":{"id":"842567679093244","from":{"id":"100005596470828","name":"Hoàng Sup Hyo"},"message":"Ờ bất chấp hết đi \nrồi ôm nhau về nước vĩnh viễn mà sống ha :)))","can_remove":false,"created_time":"2014-03-31T03:08:41+0000","like_count":0,"user_likes":false},"842568352426510":{"id":"842568352426510","from":{"id":"100006917112393","name":"Mun"},"message":"Giàu rồi tkì ôm nhau về thôi a.ở đấy lgì :))","can_remove":false,"created_time":"2014-03-31T03:10:14+0000","like_count":0,"user_likes":false},"842569085759770":{"id":"842569085759770","from":{"id":"100005596470828","name":"Hoàng Sup Hyo"},"message":"Chưa kịp giàu mới đau chứ. E nghĩ là nhật bạn dễ buôn lậu như việt nam à .nhầm lớn rồi :)","can_remove":false,"created_time":"2014-03-31T03:11:55+0000","like_count":0,"user_likes":false},"842569492426396":{"id":"842569492426396","from":{"id":"100001825177304","name":"Cậu Chủ Nhỏ"},"message":"@mun: hehe co tien la ve nha tug hoanh cko su0g het laj.sag haha","can_remove":false,"created_time":"2014-03-31T03:13:07+0000","like_count":1,"user_likes":false},"842570062426339":{"id":"842570062426339","from":{"id":"100006917112393","name":"Mun"},"message":"Kậu chủ nhỏ vứt hết quần áo ở nkà đi a :v","can_remove":false,"created_time":"2014-03-31T03:14:44+0000","like_count":1,"user_likes":false},"842570445759634":{"id":"842570445759634","from":{"id":"100006917112393","name":"Mun"},"message":"A hoàng... : a kô phân biệt đk đâu là đùa đâu là thật ạ.híhí :D","can_remove":false,"created_time":"2014-03-31T03:15:47+0000","like_count":0,"user_likes":false},"842570595759619":{"id":"842570595759619","from":{"id":"100005596470828","name":"Hoàng Sup Hyo"},"message":"Hê hê","can_remove":false,"created_time":"2014-03-31T03:16:18+0000","like_count":0,"user_likes":false},"842571049092907":{"id":"842571049092907","from":{"id":"100006917112393","name":"Mun"},"message":":))","can_remove":false,"created_time":"2014-03-31T03:18:09+0000","like_count":0,"user_likes":false},"842571169092895":{"id":"842571169092895","from":{"id":"100005596470828","name":"Hoàng Sup Hyo"},"message":"E sang tỉnh nào vz?","can_remove":false,"created_time":"2014-03-31T03:18:31+0000","like_count":0,"user_likes":false},"842571472426198":{"id":"842571472426198","from":{"id":"100006917112393","name":"Mun"},"message":"Hiroshima a ạ :))","can_remove":false,"created_time":"2014-03-31T03:19:42+0000","like_count":0,"user_likes":false},"842571482426197":{"id":"842571482426197","from":{"id":"100001825177304","name":"Cậu Chủ Nhỏ"},"message":"@mun: vat het q.a sag day a mac pag gj hu","can_remove":false,"created_time":"2014-03-31T03:19:45+0000","like_count":0,"user_likes":false},"842571822426163":{"id":"842571822426163","from":{"id":"100006917112393","name":"Mun"},"message":"Mặc đi vài bộ trên người tkôi kòn lại để tkuốc.sag đó giàu tkì mua quần áo.lo gì :))","can_remove":false,"created_time":"2014-03-31T03:21:22+0000","like_count":0,"user_likes":false},"842572065759472":{"id":"842572065759472","from":{"id":"100001825177304","name":"Cậu Chủ Nhỏ"},"message":"Thoi q.a ben ay to h0n ng a e oi :v","can_remove":false,"created_time":"2014-03-31T03:22:10+0000","like_count":0,"user_likes":false},"842572592426086":{"id":"842572592426086","from":{"id":"100006917112393","name":"Mun"},"message":"Nkìn a kũg đô đấy chứ kậu chủ nhỏ.kô ls đâu.chơi tốt :D","can_remove":false,"created_time":"2014-03-31T03:23:41+0000","like_count":0,"user_likes":false},"842576059092406":{"id":"842576059092406","from":{"id":"100004784233958","name":"NO Bita"},"message":"Ks bạn ạ... M mang 3 cây mà sao đâu","can_remove":false,"created_time":"2014-03-31T03:31:17+0000","like_count":1,"user_likes":false},"842579029092109":{"id":"842579029092109","from":{"id":"100004614193937","name":"Do Pham"},"message":"thoai mái","can_remove":false,"created_time":"2014-03-31T03:37:52+0000","like_count":0,"user_likes":false},"842581309091881":{"id":"842581309091881","from":{"id":"100005443599696","name":"Son Kent"},"message":"Mang một valy thuốc vào qua đây cái gì cũng có mà","can_remove":false,"created_time":"2014-03-31T03:41:26+0000","like_count":0,"user_likes":false},"842584992424846":{"id":"842584992424846","from":{"id":"100006917112393","name":"Mun"},"message":"Hì.e kảm ơn mí a nhé","can_remove":false,"created_time":"2014-03-31T03:50:51+0000","like_count":0,"user_likes":false},"842585252424820":{"id":"842585252424820","from":{"id":"100001753944894","name":"Luzcarita Little Heart"},"message":"5 cây đổ lại, mang thoải mái","can_remove":false,"created_time":"2014-03-31T03:51:52+0000","like_count":1,"user_likes":false},"842585435758135":{"id":"842585435758135","from":{"id":"100006917112393","name":"Mun"},"message":"Ôk cị iu.","can_remove":false,"created_time":"2014-03-31T03:52:53+0000","like_count":0,"user_likes":false},"842594385757240":{"id":"842594385757240","from":{"id":"100001825177304","name":"Cậu Chủ Nhỏ"},"message":"Mun a bt ma ko do dau e oi gay lm ay chu :))))))","message_tags":[{"id":"100006917112393","name":"Mun","type":"user","offset":0,"length":3}],"can_remove":false,"created_time":"2014-03-31T04:23:25+0000","like_count":0,"user_likes":false},"842594539090558":{"id":"842594539090558","from":{"id":"100006917112393","name":"Mun"},"message":"Gầy nkư k0n trâu mạ ý :v","can_remove":false,"created_time":"2014-03-31T04:24:07+0000","like_count":1,"user_likes":false},"842595012423844":{"id":"842595012423844","from":{"id":"100001825177304","name":"Cậu Chủ Nhỏ"},"message":"hehe chag vay thi sao :))))","can_remove":false,"created_time":"2014-03-31T04:25:50+0000","like_count":0,"user_likes":false},"842595969090415":{"id":"842595969090415","from":{"id":"100006917112393","name":"Mun"},"message":":))","can_remove":false,"created_time":"2014-03-31T04:28:40+0000","like_count":0,"user_likes":false},"842596275757051":{"id":"842596275757051","from":{"id":"100001825177304","name":"Cậu Chủ Nhỏ"},"message":":v","can_remove":false,"created_time":"2014-03-31T04:30:17+0000","like_count":0,"user_likes":false},"842698062413539":{"id":"842698062413539","from":{"id":"100000628549116","name":"Hoàng Chính"},"message":"Nó ktra thấy nó đuổi về đấy :v","can_remove":false,"created_time":"2014-03-31T10:13:56+0000","like_count":1,"user_likes":false},"842714195745259":{"id":"842714195745259","from":{"id":"100006917112393","name":"Mun"},"message":"Oh...thế là lại đk về vs mẹ :))","can_remove":false,"created_time":"2014-03-31T10:41:49+0000","like_count":0,"user_likes":false},"842720639077948":{"id":"842720639077948","from":{"id":"100000628549116","name":"Hoàng Chính"},"message":"Đùa đấy 10 cây cũng đc :))","can_remove":false,"created_time":"2014-03-31T11:00:03+0000","like_count":1,"user_likes":false},"842725179077494":{"id":"842725179077494","from":{"id":"100006917112393","name":"Mun"},"message":"A mag đk 10kây á.hộ e kái :))","can_remove":false,"created_time":"2014-03-31T11:09:21+0000","like_count":0,"user_likes":false},"842727705743908":{"id":"842727705743908","from":{"id":"100004592983448","name":"Nguyen van Hoc"},"message":"Mag qua ma hút mấy cay cũng được nhưng nhoi gói trong giấy bạc","can_remove":false,"created_time":"2014-03-31T11:16:45+0000","like_count":1,"user_likes":false},"842737629076249":{"id":"842737629076249","from":{"id":"100006917112393","name":"Mun"},"message":"Vâg.e kảm ơn a nhé","can_remove":false,"created_time":"2014-03-31T11:35:23+0000","like_count":0,"user_likes":false},"842741952409150":{"id":"842741952409150","from":{"id":"100004592983448","name":"Nguyen van Hoc"},"message":"Ko co gì à à mang wa chúc cây gói vay chẳng sao ak","can_remove":false,"created_time":"2014-03-31T11:41:29+0000","like_count":0,"user_likes":false},"842742679075744":{"id":"842742679075744","from":{"id":"100006917112393","name":"Mun"},"message":"E ckỉ mag 2 kây tkôi á.e mag hộ a ạ","can_remove":false,"created_time":"2014-03-31T11:43:35+0000","like_count":0,"user_likes":false}},"paging":{"cursors":{"after":"ODQyNTYwNDU5MDkzOTY2","before":"ODQyNTYwNDU5MDkzOTY2"},"next":"https://graph.facebook.com/229244010425617_842559435760735/comments?limit=1&summary=1&after=ODQyNTYwNDU5MDkzOTY2"},"summary":{"order":"chronological","total_count":59}}}