{"id":"229244010425617_842609519089060","type":"link","picture":"https://fbexternal-a.akamaihd.net/safe_image.php?d=AQBMyB-Jlzmi4Pn9&w=154&h=154&url=http%3A%2F%2Ftiasang.com.vn%2FDesktopModules%2FVietTotal.Articles%2FImageHandlerLarge.ashx%3Fwidth%3D227%26height%3D227%26HomeDirectory%3D%252FPortals%252F0%252FVietTotal.Articles%252FKinhte%252F%26fileName%3DViet_Nam_imgs_08052009_0010.jpg%26portalid%3D0%26i%3D2803%26q%3D1","link":"http://tiasang.com.vn/Default.aspx?tabid=114&CategoryID=7&News=3205","from":{"id":"100005880487339","name":"Duhoc Thanhhai"},"message":"Đây là lý do vì sao Nhật biết các nước \"ăn\" tiền ODA nhưng vẫn tiếp tục viện  trợ .\n\nhttp://tiasang.com.vn/Default.aspx?tabid=114&CategoryID=7&News=3205","created_time":"2014-03-31T05:14:45+0000","updated_time":"2014-04-01T06:16:14+0000","likes":{"data":{"100001432462223":{"id":"100001432462223","name":"Truong Nguyen"},"100002675248579":{"id":"100002675248579","name":"Ecchi Deviluke"},"100000003986066":{"id":"100000003986066","name":"Trâm Trồng Trọt"},"100004409010627":{"id":"100004409010627","name":"Diep Quynh Anh"},"100006542076782":{"id":"100006542076782","name":"Mỹ Thuật Clever Art"},"100003254627434":{"id":"100003254627434","name":"Belongs To Nắng"},"100004046108560":{"id":"100004046108560","name":"MiSo Cochunho"},"1703670469":{"id":"1703670469","name":"Hai Pham Son"},"100000702926671":{"id":"100000702926671","name":"Hang Pham"},"100001843551366":{"id":"100001843551366","name":"Sâu Màu Mè"},"100003478225364":{"id":"100003478225364","name":"Nguyễn Quốc Phong"},"100000022163023":{"id":"100000022163023","name":"Kafe Ore"},"100005145330760":{"id":"100005145330760","name":"Sơn Vũ"},"100006821673235":{"id":"100006821673235","name":"Tana Ka"},"100000083087770":{"id":"100000083087770","name":"Van Dien Kieu"},"100000520791394":{"id":"100000520791394","name":"Hoàng Thúy"},"100000600815626":{"id":"100000600815626","name":"KqlTwo MeoHen"},"100001995263460":{"id":"100001995263460","name":"Chibi Yuriko"},"100003124307460":{"id":"100003124307460","name":"Duc Giang"},"100002955288091":{"id":"100002955288091","name":"Ngoc Anh Duong"},"100003251724696":{"id":"100003251724696","name":"Kủ Chuối"},"1026780646":{"id":"1026780646","name":"Việt Hưng Khổng"},"100003732529410":{"id":"100003732529410","name":"Huong Dang"},"100000500260636":{"id":"100000500260636","name":"Lưu Nguyễn Thảo Tiên"},"100004584512718":{"id":"100004584512718","name":"Duc Thanh Nguyen"},"100001458099624":{"id":"100001458099624","name":"Kham Pha"},"100000226369400":{"id":"100000226369400","name":"Vạn Lý Độc Hành"},"100004654271416":{"id":"100004654271416","name":"Ta Bui Van"},"100001751941162":{"id":"100001751941162","name":"Vinh Lê"},"100000918871201":{"id":"100000918871201","name":"Thang PhanVan"},"100000347491202":{"id":"100000347491202","name":"Linh Hà Ngọc"},"100000046164914":{"id":"100000046164914","name":"Linh Phạm"},"569263718":{"id":"569263718","name":"Phuong Thao Tran"},"100005057138072":{"id":"100005057138072","name":"Lưu Tuấn Phát"},"100003985637961":{"id":"100003985637961","name":"Dũng Dơi"},"100003626978536":{"id":"100003626978536","name":"Hà Proby"},"100001249960028":{"id":"100001249960028","name":"Giang Phạm"},"100003733403933":{"id":"100003733403933","name":"Thôi Đừng"},"100006579366555":{"id":"100006579366555","name":"Thắng Trương"},"100003762427351":{"id":"100003762427351","name":"Hiroshi Yasu Oki"},"100008081041291":{"id":"100008081041291","name":"Linh Cherry"},"100000647058867":{"id":"100000647058867","name":"Thuong Le Thi"},"100003875131996":{"id":"100003875131996","name":"Ngoc Anh"},"100001583251458":{"id":"100001583251458","name":"Riki Chan"},"100000076592588":{"id":"100000076592588","name":"Trúc Lê"},"100000747635624":{"id":"100000747635624","name":"Nguyễn Xuân Đại"},"100000381394367":{"id":"100000381394367","name":"Thành Nguyễn"},"100003190943020":{"id":"100003190943020","name":"NgỌc ChÍnk"},"100000250256418":{"id":"100000250256418","name":"Nguyen Viet Anh"},"100001595239903":{"id":"100001595239903","name":"Tran Binh Minh"},"1452845400":{"id":"1452845400","name":"Thu Phuong"},"1801500845":{"id":"1801500845","name":"Nguyen Diem Phuong"},"100002480814193":{"id":"100002480814193","name":"Đỗ Khắc Mức"},"100003005597243":{"id":"100003005597243","name":"Zany Royal"},"100000232458793":{"id":"100000232458793","name":"Tung Pham"},"100003713836498":{"id":"100003713836498","name":"Bình Phong"},"100000266781065":{"id":"100000266781065","name":"Hai Mv"},"100000931315689":{"id":"100000931315689","name":"WorKy Hooleec"},"100001770616282":{"id":"100001770616282","name":"Bùi Thu Hiền"},"1283298041":{"id":"1283298041","name":"Búa Đức Thanh"},"1327413628":{"id":"1327413628","name":"Bảo Ngọc"}},"paging":{"cursors":{"after":"MTAwMDAxNDMyNDYyMjIz","before":"MTAwMDAxNDMyNDYyMjIz"},"next":"https://graph.facebook.com/229244010425617_842609519089060/likes?limit=1&summary=1&after=MTAwMDAxNDMyNDYyMjIz"},"summary":{"total_count":61}},"comments":{"data":{"842612299088782":{"id":"842612299088782","from":{"id":"100007930417031","name":"Trang Yamato"},"message":"Nếu như một anh chàng bình thường (biết tiếng Nhật) cũng viết được điều nay, vậy những người ở bộ này bộ nọ, không hiểu sao mà vẫn vay ODA đều đều thế.\n\nCủa biếu là của lo\nCua cho là của nợ\nÔng bà ta đã dạy thế rồi cơ mà!\nThế nên chưa cai sữa, thì có 1000 lời chê bai người đã cung cấp nguồn sữa chỉ là lời bạo biện ngu xuẩn và buồn cười.","can_remove":false,"created_time":"2014-03-31T05:24:53+0000","like_count":3,"user_likes":false},"842614365755242":{"id":"842614365755242","from":{"id":"100005880487339","name":"Duhoc Thanhhai"},"message":"Các ông ở Bộ chỉ lo làm cho hết nhiệm kì.Lấy cái ODA đó nhét vào chỗ này chỗ kia.Cái tiếng thơm các ông ăn hết.Còn chuyện trả nợ thì đợi các nhiệm kỳ sau.Các ông đâu cần biết","can_remove":false,"created_time":"2014-03-31T05:33:05+0000","like_count":3,"user_likes":false},"842616532421692":{"id":"842616532421692","from":{"id":"100006710072380","name":"Trọng Hiếu Phạm"},"message":"quan trọng là người nhận ODA sử dụng nó theo cách tiêu cực hay tích cực, kế hoạch Marshall ngày xưa cũng là một loại ODA, nhưng nhờ đó mà châu Âu phát triển phồn thịnh... còn những nước nhận ODA ngày nay ra sao!? có chịu phát triển hay không!?","can_remove":false,"created_time":"2014-03-31T05:38:34+0000","like_count":7,"user_likes":false},"842647152418630":{"id":"842647152418630","from":{"id":"100006579366555","name":"Thắng Trương"},"message":"Chẳng ai cho ko ai cái gì bh cả","can_remove":false,"created_time":"2014-03-31T07:33:12+0000","like_count":1,"user_likes":false},"842653909084621":{"id":"842653909084621","from":{"id":"1394477797","name":"Nguyen Huan"},"message":"Nguyễn Anh nè","message_tags":[{"id":"100001647340928","name":"Nguyễn Anh","type":"user","offset":0,"length":10}],"can_remove":false,"created_time":"2014-03-31T07:42:58+0000","like_count":1,"user_likes":false},"842673902415955":{"id":"842673902415955","from":{"id":"100001416272263","name":"Mai PB"},"message":"\"ngay tại Nhật Bản, cũng có nhiều học giả, với tinh thần trung thực trong khoa học, đã “vạch trần” bản chất thực của chính sách ODA của chính đất nước mình.\" Báo VN mà cũng dám nói câu này à, trong khi trong đất nước VN không cho ai \"vạch trần\" mình.","can_remove":false,"created_time":"2014-03-31T09:02:10+0000","like_count":7,"user_likes":false},"842727315743947":{"id":"842727315743947","from":{"id":"100000045271667","name":"Nam Thai Nguyen"},"message":"Vạch trần kiểu Nhật thì gây hiệu ứng domino anh ạ","can_remove":false,"created_time":"2014-03-31T11:15:01+0000","like_count":0,"user_likes":false},"843045769045435":{"id":"843045769045435","from":{"id":"100007930417031","name":"Trang Yamato"},"message":"\" không vạch áo cho người xem lưng\" là câu cửa miệng mà :)\n\nKhi nào chưa coi trọng tiếng nói của dân thì đừng hòng mơ phát triển.","can_remove":false,"created_time":"2014-03-31T16:59:10+0000","like_count":0,"user_likes":false},"843050012378344":{"id":"843050012378344","from":{"id":"100004046108560","name":"MiSo Cochunho"},"message":"ODA thì chẳng qua cũng là một chiến lược của Nhật mà thôi.  Tưởng ngon ăn mà xơi không hả \")) Vừa được tiếng vừa được miếng\"))","can_remove":false,"created_time":"2014-03-31T17:09:13+0000","like_count":0,"user_likes":false},"843076452375700":{"id":"843076452375700","from":{"id":"100007930417031","name":"Trang Yamato"},"message":"Chừng nào đủ tuổi \" trưởng thành \" thì hãy vạch trần.\n\nCòn chưa đủ tuổi thì nên im lặng đi.","can_remove":false,"created_time":"2014-03-31T18:13:01+0000","like_count":1,"user_likes":false},"843085032374842":{"id":"843085032374842","from":{"id":"100004046108560","name":"MiSo Cochunho"},"message":":)) Bạn nói bạn là trưởng thành nhưng mình nghĩ dù trưởng thành vẫn phải học hỏi lắng nghe thêm nhiều và đôi khi học cả từ những đứa trẻ đó:))  Và comment thì nên đúng vào bài đồng thời biết tôn trọng ý kiến của người khác nếu không bạn có nói bạn là người trưởng thành cả trăm nghìn lần mọi người vẫn chỉ nghĩ bạn là một cô bé nông nổi hiếu thắng thôi.  Thay đổi đi bạn ,thay đổi để mọi người khỏi phiền lòng vì bạn bạn nhé.","can_remove":false,"created_time":"2014-03-31T18:35:49+0000","like_count":0,"user_likes":false},"843227312360614":{"id":"843227312360614","from":{"id":"100002945776077","name":"Hoàng Mạnh Cường"},"message":"Trang Yamato....Tuổi trưởng thành là tuổi bao nhiêu B nhỉ....????....Nhận ODA vì sao...? đó là Câu hỏi ai cũng biết.....Vì ta quá là nghèo cầu đường thì kém chất lượng....Nhờ Bác Liên Xô xây mãi mới đc cái cầu....ko có ODA này chắc chúng ta lại đi cầu treo...có khi lại đi Phà, đi Tàu luôn....Nhưng dù gì cũng vậy không nên trách các Vị này Vị kia ở trong bộ máy nhà nước họ mà Công bằng thì nước ta phát triển lâu rồi chứ ko phải chịu cái cảnh đang phát triển rồi thì nước chưa phát triển như hiện nay nhé!....còn nếu đứng trên phương diện người Nhật hay các nước hỗ trợ vốn không hoàn lại mà nói....Họ phải có Mục Tiêu mục đích lấy đc thì họ mới hỗ trợ...Việt Nam mình có Vốn chỉ Vơ vào...nhưng họ đâu có khai thác về mặt con người mấy đâu....Nên vấn đề này tốt nhất AE trong này ko cần bàn luận đâu....vì chẳng đc gì luôn..( ý kiến Riêng có gì ko phải xin đc lĩnh giáo )....","message_tags":[{"id":"100007930417031","name":"Trang Yamato","type":"user","offset":0,"length":12}],"can_remove":false,"created_time":"2014-04-01T00:23:20+0000","like_count":0,"user_likes":false},"843246172358728":{"id":"843246172358728","from":{"id":"100003310618708","name":"BiNô Triết Gia"},"message":"Liên hệ chuyện du học sinh thử xem mọi người, cùng một chiến thuật","can_remove":false,"created_time":"2014-04-01T01:22:04+0000","like_count":0,"user_likes":false},"843348689015143":{"id":"843348689015143","from":{"id":"100007930417031","name":"Trang Yamato"},"message":"Điều đáng lo ngại nhất, dường như chúng ta đang sợ sự trưởng thành và không hề muốn \"cai sữa\". Phải chăng vì thế mà có người nói VN không phải là nước kém phát triển hay khó phát triển mà thuộc loại... không chịu phát triển.\n\nCâu chuyện gần đây về một nghệ sĩ gặp những khó khăn trong cuộc sống đã khơi gợi nhiều suy nghĩ trong lòng bạn đọc. Đồng ý rằng câu chuyện đó có thể nhìn từ nhiều góc độ, và dù thế nào cũng không ai được quyền phán xét người khác bởi cách hành xử của mỗi người trước mỗi biến cố trong cuộc sống không thể giống nhau.\n\nTư duy ngược đời\n\nThế nhưng người ta có quyền đồng tình hoặc không đồng tình, khen hoặc chê. Đó cũng là một thứ quyền lực của dư luận. Và trong đa số trường hợp, dư luận phản ánh cái nhìn mang tính đại diện nhất định của xã hội đối với một sự vật, hiện tượng. Khi có quá nhiều người lên tiếng cho rằng người nghệ sĩ khả kính một thời kia đang kêu gọi sự thương hại của người hâm mộ bằng chính danh tiếng của mình, phải chăng cách hành xử ấy đã vượt quá sự bình thường để đi đến mức bất thường?\n\nNhưng sẽ còn đáng buồn hơn khi từ câu chuyện này chúng ta nhìn rộng ra xung quanh để thấy rằng người nghệ sĩ này không phải là trường hợp cá biệt, mà có lẽ chỉ là trường hợp điển hình trong xã hội hiện nay, nơi có quá nhiều người ưa sống dựa vào lòng thương hại của người khác.\n\nNgười viết bài này sinh ra ở một nơi nhiều năm nay được xếp trong danh sách \"xã đặc biệt khó khăn\". Theo quy định hiện hành, các địa phương đặc biệt khó khăn sẽ được hưởng những sự hỗ trợ nhất định nhất để xóa đói giảm nghèo và đầu tư phát triển.\n\nBuồn thay, năm nào cũng tái diễn chuyện người dân tranh cãi nhau về việc hộ nào xứng đáng được xếp là hộ nghèo. Họ \"đấu tố\" nhau vì tại sao cùng hoàn cảnh nhưng có hộ được xếp là hộ nghèo, có hộ thì không. Đôi khi giải pháp là việc luân phiên thay nhau... nghèo. Chưa kể trong số các hộ nghèo có những gia đình thực sự do hoàn cảnh khó khăn nhưng cũng có những gia đình nghèo đơn giản vì... lười lao động. Nhưng dù thế nào thì việc bị ra khỏi danh sách hộ nghèo cũng không phải tin vui với bất cứ ai.\n\nChính quyền cơ sở thì đau đầu trong việc phân bổ chỉ tiêu, trong khi huyện thì không đồng ý cắt giảm tỷ lệ hộ nghèo. Nguyên nhân là phải đủ tỷ lệ xã nghèo nhất định thì huyện mới là huyện nghèo! Bởi ai cũng hiểu, còn nghèo thì còn được đầu tư!\n\nHàng năm, Việt Nam cũng vẫn đang phải ngửa tay xin hỗ trợ phát triển chính thức (ODA) từ các nước phát triển trên thế giới. Vẫn biết các nước có những mục tiêu kinh tế chính trị khác nhau khi cấp ODA, nhưng xét đến cùng chúng ta cũng là kẻ đi vay, và chúng ta phải chịu ơn những người cho vay. Hãy nhìn vào Nhật Bản, một trong những nước cấp ODA nhiều nhất cho Việt Nam. Nhật Bản có gì hơn Việt Nam về điều kiện tự nhiên xã hội và kể cả trí tuệ con người, thế nhưng suốt bao nhiêu năm nay chúng ta vẫn mong được rủ lòng thương từ một đất nước phải chịu hoàn cảnh còn khắc nghiệt hơn chính mình?","can_remove":false,"created_time":"2014-04-01T05:59:52+0000","like_count":1,"user_likes":false},"843352242348121":{"id":"843352242348121","from":{"id":"100007930417031","name":"Trang Yamato"},"message":"Đang nói tới tuổi trưởng thành là khi không còn cần tới ODA","can_remove":false,"created_time":"2014-04-01T06:16:14+0000","like_count":1,"user_likes":false}},"paging":{"cursors":{"after":"ODQyNjEyMjk5MDg4Nzgy","before":"ODQyNjEyMjk5MDg4Nzgy"},"next":"https://graph.facebook.com/229244010425617_842609519089060/comments?limit=1&summary=1&after=ODQyNjEyMjk5MDg4Nzgy"},"summary":{"order":"chronological","total_count":15}}}