{"id":"229244010425617_842677159082296","type":"status","from":{"id":"100001423834680","name":"Oanh Dang"},"message":"皆さん！＾＾\nEm là sinh viên kinh tế đang tìm việc ạ, anh chị nào trong group mình có bản CV tiếng nhật có thể cho em xin để tham khảo được không ạ?\nどうもありがとうございます。","created_time":"2014-03-31T09:14:01+0000","updated_time":"2014-04-01T09:13:43+0000","likes":{"data":{"100007938450435":{"id":"100007938450435","name":"Miruku Chokoreeto"},"100007293188338":{"id":"100007293188338","name":"Dương Lê"},"100006263888044":{"id":"100006263888044","name":"Hoàng Oanh"}},"paging":{"cursors":{"after":"MTAwMDA3OTM4NDUwNDM1","before":"MTAwMDA3OTM4NDUwNDM1"},"next":"https://graph.facebook.com/229244010425617_842677159082296/likes?limit=1&summary=1&after=MTAwMDA3OTM4NDUwNDM1"},"summary":{"total_count":3}},"comments":{"data":{"842677849082227":{"id":"842677849082227","from":{"id":"100004159717053","name":"Ngo Tu"},"message":"CV là gì","can_remove":false,"created_time":"2014-03-31T09:15:44+0000","like_count":0,"user_likes":false},"842678752415470":{"id":"842678752415470","from":{"id":"100001423834680","name":"Oanh Dang"},"message":"là bản thông tin cá nhân để apply vào các công ty đấy ạ :)","can_remove":false,"created_time":"2014-03-31T09:18:33+0000","like_count":0,"user_likes":false},"842678962415449":{"id":"842678962415449","from":{"id":"100006520210904","name":"Miu Miu"},"message":"Bạn vào tệp trong Gr đó","can_remove":false,"created_time":"2014-03-31T09:19:26+0000","like_count":0,"user_likes":false},"842683075748371":{"id":"842683075748371","from":{"id":"100001423834680","name":"Oanh Dang"},"message":"bạn ơi có phải file arubaito ko nhỉ","can_remove":false,"created_time":"2014-03-31T09:30:58+0000","like_count":0,"user_likes":false},"842684832414862":{"id":"842684832414862","from":{"id":"100006025604334","name":"Huynh Nguyen"},"message":"Mình có","can_remove":false,"created_time":"2014-03-31T09:36:37+0000","like_count":0,"user_likes":false},"842685615748117":{"id":"842685615748117","from":{"id":"100001423834680","name":"Oanh Dang"},"message":"Bạn ơi bạn có thể up lên đây hay gửi vào mail của mình được ko, mail của mình là dangoanh.ba@gmail.com, onegaishimasu!!!","can_remove":false,"created_time":"2014-03-31T09:38:44+0000","like_count":0,"user_likes":false},"842688809081131":{"id":"842688809081131","from":{"id":"100006025604334","name":"Huynh Nguyen"},"message":"Minh vua gui cho ban roi","can_remove":false,"created_time":"2014-03-31T09:48:18+0000","like_count":1,"user_likes":false},"842688859081126":{"id":"842688859081126","from":{"id":"100006025604334","name":"Huynh Nguyen"},"message":"Nhận dc nhắm cho mình","can_remove":false,"created_time":"2014-03-31T09:48:30+0000","like_count":1,"user_likes":false},"842689305747748":{"id":"842689305747748","from":{"id":"100003961308936","name":"Isabella Nhi Phan"},"message":"Bạn có thể gửi cho mình vơi được không? :) Email của mình: khuongnhiphan@gmail.com, mình cảm ơn ^^","can_remove":false,"created_time":"2014-03-31T09:50:12+0000","like_count":0,"user_likes":false},"842692879080724":{"id":"842692879080724","from":{"id":"100004864140163","name":"Trà Đá"},"message":"Gửi cho mình luôn vs Huynh Nguyen email thousandthang@gmail.com おねがい","can_remove":false,"created_time":"2014-03-31T10:00:45+0000","like_count":0,"user_likes":false},"842693982413947":{"id":"842693982413947","from":{"id":"100006025604334","name":"Huynh Nguyen"},"message":"Các bạn sau khi nhận dc mail của mình các bạn phải hồi âm lại cho mìn vì cần tải thêm bản office nưa để chỉnh sửa lại CV. Vì CV của các bạn nhận dc là CV của mình","can_remove":false,"created_time":"2014-03-31T10:03:32+0000","like_count":0,"user_likes":false},"842695532413792":{"id":"842695532413792","from":{"id":"100006025604334","name":"Huynh Nguyen"},"message":"Nhận dc chưa 2 bạn\n@Tra Da\n@Nhi Phan","can_remove":false,"created_time":"2014-03-31T10:08:13+0000","like_count":0,"user_likes":false},"842704585746220":{"id":"842704585746220","from":{"id":"100004864140163","name":"Trà Đá"},"message":"Mình nhận đc zui tks nha","can_remove":false,"created_time":"2014-03-31T10:23:32+0000","like_count":0,"user_likes":false},"842773805739298":{"id":"842773805739298","from":{"id":"100002981655149","name":"Đỗ Văn Nghĩa"},"message":"bạn gửi luôn cho mình với nhé,  mail mình là donghia.ln@gmail.com","can_remove":false,"created_time":"2014-03-31T12:47:54+0000","like_count":0,"user_likes":false},"842806809069331":{"id":"842806809069331","from":{"id":"100003961308936","name":"Isabella Nhi Phan"},"message":"Mình nhận được rồi nha Huynh Nguyen","message_tags":[{"id":"100006025604334","name":"Huynh Nguyen","type":"user","offset":23,"length":12}],"can_remove":false,"created_time":"2014-03-31T13:35:58+0000","like_count":2,"user_likes":false},"842807199069292":{"id":"842807199069292","from":{"id":"100002981655149","name":"Đỗ Văn Nghĩa"},"message":"bạn Isabella Nhi Phan gửi lại cho mình với nhé","can_remove":false,"created_time":"2014-03-31T13:37:00+0000","like_count":0,"user_likes":false},"843204902362855":{"id":"843204902362855","from":{"id":"100006025604334","name":"Huynh Nguyen"},"message":"Các bạn vào appstore tải thêm ứng dụng Kingstore Office để chỉnh sửa và lưu văn bản nhé","can_remove":false,"created_time":"2014-03-31T23:21:27+0000","like_count":0,"user_likes":false},"843205065696172":{"id":"843205065696172","from":{"id":"100006025604334","name":"Huynh Nguyen"},"message":"@Nghĩa: bạn nhận dc chưa?","can_remove":false,"created_time":"2014-03-31T23:22:00+0000","like_count":0,"user_likes":false},"843222875694391":{"id":"843222875694391","from":{"id":"100006044379373","name":"Quý Đặng"},"message":"Bạn gửi cho mình nưa nhé kemedoi@gmail.com","can_remove":false,"created_time":"2014-04-01T00:09:04+0000","like_count":0,"user_likes":false},"843223489027663":{"id":"843223489027663","from":{"id":"100006025604334","name":"Huynh Nguyen"},"message":"Ok bạn tải trước cho mình Kingsoft Office trong App nhé","can_remove":false,"created_time":"2014-04-01T00:10:50+0000","like_count":1,"user_likes":false},"843327315683947":{"id":"843327315683947","from":{"id":"100003791101315","name":"Cao Tấn Thành"},"message":"caotanthanh216@gmail.com . bạn gửi giùm mìh luôn nhé","can_remove":false,"created_time":"2014-04-01T04:54:29+0000","like_count":0,"user_likes":false},"843341302349215":{"id":"843341302349215","from":{"id":"100004558473452","name":"Kobayashi Kun"},"message":"Gửi cho mình lun với nhé : dungnguyenhuu1310@yahoo.com\nThankssss","can_remove":false,"created_time":"2014-04-01T05:33:29+0000","like_count":0,"user_likes":false},"843398319010180":{"id":"843398319010180","from":{"id":"100002981655149","name":"Đỗ Văn Nghĩa"},"message":"mình vẫn chưa nhận được bạn Huynh Nguyen, bạn gửi lại giúp mình nhé","message_tags":[{"id":"100006025604334","name":"Huynh Nguyen","type":"user","offset":28,"length":12}],"can_remove":false,"created_time":"2014-04-01T09:13:43+0000","like_count":0,"user_likes":false}},"paging":{"cursors":{"after":"ODQyNjc3ODQ5MDgyMjI3","before":"ODQyNjc3ODQ5MDgyMjI3"},"next":"https://graph.facebook.com/229244010425617_842677159082296/comments?limit=1&summary=1&after=ODQyNjc3ODQ5MDgyMjI3"},"summary":{"order":"chronological","total_count":23}}}