{"id":"229244010425617_842610889088923","type":"photo","object_id":"1401996950073080","picture":"https://fbcdn-photos-g-a.akamaihd.net/hphotos-ak-ash3/t1.0-0/1907307_1401996950073080_1161370285_s.jpg","link":"https://www.facebook.com/photo.php?fbid=1401996950073080&set=gm.842610889088923&type=1&relevant_count=1","from":{"id":"100007883647413","name":"Thang Luu"},"message":"Trong tiếng nhật giữa văn nói và văn viết luôn có một khoảng cách nhất định, và do đó có những từ trong văn nói và văn viết thông thường có sự khác biệt nhất định, nhưng đều có thể dùng được. Tuy nhiên trong khi viết luận văn thì có những từ không được phép dùng. Trong ảnh sau là danh sách những từ không được phép viết trong luận văn (cột bên trái), và những từ thay thế tương đương được viết trong luận văn (cột bên phải).","created_time":"2014-03-31T05:19:54+0000","updated_time":"2014-04-01T08:27:33+0000","likes":{"data":{"100003828347619":{"id":"100003828347619","name":"Huyền Tuyết"},"100002799210522":{"id":"100002799210522","name":"Lệ Đào"},"1026780646":{"id":"1026780646","name":"Việt Hưng Khổng"},"100003227043397":{"id":"100003227043397","name":"Akatsuki Yuuki"},"100007157165760":{"id":"100007157165760","name":"Yen Luong"},"1146680551":{"id":"1146680551","name":"優しい なぁ"},"100001458099624":{"id":"100001458099624","name":"Kham Pha"},"1668615906":{"id":"1668615906","name":"Thục Anh Trần"},"100001231756625":{"id":"100001231756625","name":"Nga Ostrich"},"100000659425505":{"id":"100000659425505","name":"Nguyen Thanh Tung"},"100003164753650":{"id":"100003164753650","name":"Nguyen Linhvi"},"100002977590173":{"id":"100002977590173","name":"Yumi Hikari"},"100004375364623":{"id":"100004375364623","name":"Quang Lê"},"100000328742646":{"id":"100000328742646","name":"Trần Giáp"},"100001069847320":{"id":"100001069847320","name":"Chang Gami"},"100006753967365":{"id":"100006753967365","name":"Hà Đỗ Quỳnh Trang"},"1703670469":{"id":"1703670469","name":"Hai Pham Son"},"100000993680274":{"id":"100000993680274","name":"Thinh Nguyen Van"},"100001426553415":{"id":"100001426553415","name":"Dorayaki Doraemonster"},"100002615664668":{"id":"100002615664668","name":"PuPu Phương Elf"},"1279166815":{"id":"1279166815","name":"Pham Dung"},"100003496350073":{"id":"100003496350073","name":"Tiên Sam"},"100007396898008":{"id":"100007396898008","name":"My Hanh"},"100007317998148":{"id":"100007317998148","name":"Phùng Anh Tuấn"},"100004367679988":{"id":"100004367679988","name":"Kumi Nguyen"},"100001897787902":{"id":"100001897787902","name":"Dlinh Ng"},"100005907939887":{"id":"100005907939887","name":"Heo Mập"},"100002414995202":{"id":"100002414995202","name":"Nguyễn Duy Công"},"100002954712134":{"id":"100002954712134","name":"La Quang Tiến"},"100002518127134":{"id":"100002518127134","name":"Trần Hà Trang"},"100004068174376":{"id":"100004068174376","name":"Luong Thao"},"100000660375795":{"id":"100000660375795","name":"Wanbi Tuấn Hưng"},"100005209505354":{"id":"100005209505354","name":"Huyền Huyn"},"100003833884603":{"id":"100003833884603","name":"Maria Phạm"},"100000147414000":{"id":"100000147414000","name":"Nguyễn Công Thắng"},"1736842303":{"id":"1736842303","name":"Quỳnh Anh"},"100006751901935":{"id":"100006751901935","name":"Nam Vũ"},"100003814756892":{"id":"100003814756892","name":"Hai Nguyen"},"100000007916310":{"id":"100000007916310","name":"Nguyen Xuan Mai"},"100003271726894":{"id":"100003271726894","name":"Yuki Na"},"100006266882815":{"id":"100006266882815","name":"Phạm Lan Mai"},"100001995633843":{"id":"100001995633843","name":"Yasunobu Toda"},"100003798448413":{"id":"100003798448413","name":"Hà Thị Thương"},"100002399803308":{"id":"100002399803308","name":"Quèo Phởn"},"1000015524":{"id":"1000015524","name":"Hong Vo"},"100003742517006":{"id":"100003742517006","name":"Huế Himawari"},"100004694253428":{"id":"100004694253428","name":"Yến Nguyễn"},"100004573743625":{"id":"100004573743625","name":"Bean Hana"},"100001205388889":{"id":"100001205388889","name":"Ninh Vuong"},"100000189498000":{"id":"100000189498000","name":"Fish Siunhun"},"100006039337137":{"id":"100006039337137","name":"Diệu Ninh"},"100000297668059":{"id":"100000297668059","name":"Thạnh Nguyễn"},"100004064402492":{"id":"100004064402492","name":"Hue Dinh"},"100002950942558":{"id":"100002950942558","name":"Le Hien"},"100002981655149":{"id":"100002981655149","name":"Đỗ Văn Nghĩa"},"100001337423715":{"id":"100001337423715","name":"Magicminx Kripton"},"100003041350096":{"id":"100003041350096","name":"Hoang Gia Nhat"},"100002470650247":{"id":"100002470650247","name":"LinhLinh Chan"},"100004126231481":{"id":"100004126231481","name":"Anh Nguyen"},"1809939388":{"id":"1809939388","name":"Nguyễn Thạc Huy"},"779812883":{"id":"779812883","name":"Nguyen NgocAnh"},"100000103906860":{"id":"100000103906860","name":"Hangni Tranthi"},"100006450671569":{"id":"100006450671569","name":"Sayonara Sukina Hito"},"100000302315094":{"id":"100000302315094","name":"Lang Thang"},"1303327291":{"id":"1303327291","name":"Nguyễn Thanh Tùng"},"100007471532054":{"id":"100007471532054","name":"Phuong Nguyen"},"100002698724287":{"id":"100002698724287","name":"Phan Văn Toàn"},"100002102469718":{"id":"100002102469718","name":"Nguyễn Vũ"},"100003205232355":{"id":"100003205232355","name":"Nguyen Viet Tien"},"100002348937847":{"id":"100002348937847","name":"Xanh Le Te"},"100001007000967":{"id":"100001007000967","name":"Bibi Nguyễn"},"100000338371972":{"id":"100000338371972","name":"Kumiko Chan"},"100002833803367":{"id":"100002833803367","name":"Hoang Anh Luong"},"100006363458283":{"id":"100006363458283","name":"Nhung Rubi"},"100001901354316":{"id":"100001901354316","name":"Đức Nghiêm Xuân"},"1257384319":{"id":"1257384319","name":"Trường Giang"},"100005051881072":{"id":"100005051881072","name":"Nhớ Nhớ"},"100006282365367":{"id":"100006282365367","name":"Tiến Huy Nguyễn"},"100002508122689":{"id":"100002508122689","name":"Vũ Mạnh Tuấn"},"100005307004792":{"id":"100005307004792","name":"Kiều Văn"},"100000523549660":{"id":"100000523549660","name":"Sei Tsuki"},"100000455388210":{"id":"100000455388210","name":"Đức Trung Nguyễn"},"100002963737004":{"id":"100002963737004","name":"Hà Phùng"},"100003105034037":{"id":"100003105034037","name":"Pham Oanh"},"100003271088465":{"id":"100003271088465","name":"Nguyen Quang"},"100007928881637":{"id":"100007928881637","name":"ながい ぜんいち"},"1416265619":{"id":"1416265619","name":"Starwar Bbj"},"100001280944540":{"id":"100001280944540","name":"Windy Nguyen"},"100000194083398":{"id":"100000194083398","name":"An TranLe"},"100000262070143":{"id":"100000262070143","name":"Sachiko Kam"},"1402376848":{"id":"1402376848","name":"Manh Bui Van"},"100003924638739":{"id":"100003924638739","name":"Toi La Ai"},"100003005597243":{"id":"100003005597243","name":"Zany Royal"},"100003069246142":{"id":"100003069246142","name":"Hồng Trịnh"},"100003167566092":{"id":"100003167566092","name":"マイ スアン サン"},"100000183258577":{"id":"100000183258577","name":"Valen Tino"},"1394477797":{"id":"1394477797","name":"Nguyen Huan"},"100006263888044":{"id":"100006263888044","name":"Hoàng Oanh"},"100000147767032":{"id":"100000147767032","name":"Hoang Thu"},"100001894736223":{"id":"100001894736223","name":"Tường Yến"},"100001775719325":{"id":"100001775719325","name":"Nguyễn Ngọc Trang"},"100000198219367":{"id":"100000198219367","name":"Chang Jiang"},"100000110765909":{"id":"100000110765909","name":"Thảo Nguyễn"},"100002903691762":{"id":"100002903691762","name":"Duelist Hunter"},"100000218007271":{"id":"100000218007271","name":"Luu Vinh Loc"},"100001546837960":{"id":"100001546837960","name":"Chung Goldstar"},"100001584352837":{"id":"100001584352837","name":"Nguyễn Thành"},"569263718":{"id":"569263718","name":"Phuong Thao Tran"},"100006271507308":{"id":"100006271507308","name":"Bùi Quỳnh Anh XS"},"100000789697497":{"id":"100000789697497","name":"Đỗ Hồng Thái"},"706746330":{"id":"706746330","name":"Nguyen Binh Khiem"},"100001663326777":{"id":"100001663326777","name":"Yuri Chan"},"100007517282805":{"id":"100007517282805","name":"Vy Vim"},"100000309415626":{"id":"100000309415626","name":"Kona Yuki"},"100004847910157":{"id":"100004847910157","name":"Mơ Sone"}},"paging":{"cursors":{"after":"MTAwMDAzODI4MzQ3NjE5","before":"MTAwMDAzODI4MzQ3NjE5"},"next":"https://graph.facebook.com/229244010425617_842610889088923/likes?limit=1&summary=1&after=MTAwMDAzODI4MzQ3NjE5"},"summary":{"total_count":115}},"comments":{"data":{"842612812422064":{"id":"842612812422064","from":{"id":"100001663326777","name":"Yuri Chan"},"message":"Ghét thế -_-","can_remove":false,"created_time":"2014-03-31T05:26:34+0000","like_count":0,"user_likes":false},"842618329088179":{"id":"842618329088179","from":{"id":"100000110765909","name":"Thảo Nguyễn"},"message":"Cám ơn bạn nhé, bài rất hữu ích^_^","can_remove":false,"created_time":"2014-03-31T05:43:02+0000","like_count":0,"user_likes":false},"842623142421031":{"id":"842623142421031","from":{"id":"100006263888044","name":"Hoàng Oanh"},"message":"văn nói giao tiep hàng ngày thì hay dùng thế thông ngắn","can_remove":false,"created_time":"2014-03-31T05:56:28+0000","like_count":0,"user_likes":false},"842623529087659":{"id":"842623529087659","from":{"id":"1394477797","name":"Nguyen Huan"},"message":"Nguyễn Anh nè","message_tags":[{"id":"100001647340928","name":"Nguyễn Anh","type":"user","offset":0,"length":10}],"can_remove":false,"created_time":"2014-03-31T05:57:42+0000","like_count":0,"user_likes":false},"842628539087158":{"id":"842628539087158","from":{"id":"703955677","name":"Panda Uyen"},"message":"@tienphandoan","can_remove":false,"created_time":"2014-03-31T06:20:03+0000","like_count":0,"user_likes":false},"842636869086325":{"id":"842636869086325","from":{"id":"100003205232355","name":"Nguyen Viet Tien"},"message":"Bai nay hay đấy","can_remove":false,"created_time":"2014-03-31T06:52:41+0000","like_count":0,"user_likes":false},"842742769075735":{"id":"842742769075735","from":{"id":"100006307094156","name":"An Nguyễn"},"message":"An Nguyễn","message_tags":[{"id":"100006307094156","name":"An Nguyễn","type":"user","offset":0,"length":9}],"can_remove":false,"created_time":"2014-03-31T11:44:01+0000","like_count":0,"user_likes":false},"843383772344968":{"id":"843383772344968","from":{"id":"100004563790758","name":"Thu Hien Tran"},"message":"tieng nhat hay nhung kho wa","can_remove":false,"created_time":"2014-04-01T08:26:45+0000","like_count":0,"user_likes":false},"843383909011621":{"id":"843383909011621","from":{"id":"100001647340928","name":"Nguyễn Anh"},"message":"Thu Hien Tran: bạn học đến đâu r?","can_remove":false,"created_time":"2014-04-01T08:27:33+0000","like_count":0,"user_likes":false}},"paging":{"cursors":{"after":"ODQyNjEyODEyNDIyMDY0","before":"ODQyNjEyODEyNDIyMDY0"},"next":"https://graph.facebook.com/229244010425617_842610889088923/comments?limit=1&summary=1&after=ODQyNjEyODEyNDIyMDY0"},"summary":{"order":"chronological","total_count":9}}}