{"id":"229244010425617_842753579074654","type":"status","from":{"id":"100007162899202","name":"Qiu Xian Huang"},"message":"Chào anh chị\nEm là thành viên mới\nEm mới bắt đầu học tiếng Nhật và cũng rất yêu qúy Nhật Bản\nTrong năm tới em dự định đi du học ở yokohama Nhật\nNhưng bây giờ kiến thức tiếng Nhật của em rất nông\nVì thế em muốn tìm thầy( cô) dạy kèm thêm cho em\nEm ở Thái Bình( Nếu không ai ở TB dạy em trực tiếp được thì có thể dạy em qua cách khác như fb zalo...)\nEm xin cảm ơn!!!!","created_time":"2014-03-31T12:09:42+0000","updated_time":"2014-04-03T09:58:09+0000","likes":{"data":{"100003269203509":{"id":"100003269203509","name":"Hana Hana"},"100004268172765":{"id":"100004268172765","name":"Vũ Thế Thuấn"},"100003254627434":{"id":"100003254627434","name":"Belongs To Nắng"},"100005252490599":{"id":"100005252490599","name":"Chí Phèo"},"100007162899202":{"id":"100007162899202","name":"Qiu Xian Huang"},"100005310091804":{"id":"100005310091804","name":"Han Yo"},"100005507083420":{"id":"100005507083420","name":"Hiroshi  Ogata"},"1847428675":{"id":"1847428675","name":"Nguyễn Xuân Đại"},"100002259785938":{"id":"100002259785938","name":"Minh Thuần"},"100003740342167":{"id":"100003740342167","name":"Có Gì Hót"},"100006263888044":{"id":"100006263888044","name":"Hoàng Oanh"},"100004343407087":{"id":"100004343407087","name":"Heo Con"}},"paging":{"cursors":{"after":"MTAwMDAzMjY5MjAzNTA5","before":"MTAwMDAzMjY5MjAzNTA5"},"next":"https://graph.facebook.com/229244010425617_842753579074654/likes?limit=1&summary=1&after=MTAwMDAzMjY5MjAzNTA5"},"summary":{"total_count":12}},"comments":{"data":{"842754959074516":{"id":"842754959074516","from":{"id":"100002963737004","name":"Hà Phùng"},"message":"TQ ko tiếp :v","can_remove":false,"created_time":"2014-03-31T12:13:53+0000","like_count":1,"user_likes":false},"842757109074301":{"id":"842757109074301","from":{"id":"100006263888044","name":"Hoàng Oanh"},"message":"e đến trung tâm nào mà học e ak.tìm xem nếu ko có lên băc ninh học cũng có nhiều bạn đến học ở đây lắm","can_remove":false,"created_time":"2014-03-31T12:19:00+0000","like_count":1,"user_likes":false},"842757519074260":{"id":"842757519074260","from":{"id":"100004356511640","name":"Vũ Lê Lợi"},"message":"Ai đâu rảnh mà ngày nào cũng lên mạng dạy bạn đc chứ,phải tìm đến trung tâm","can_remove":false,"created_time":"2014-03-31T12:20:01+0000","like_count":0,"user_likes":false},"842772139072798":{"id":"842772139072798","from":{"id":"100003181743412","name":"Pham Kha"},"message":"Bninh lam gì.tbih cug có ttam mà","can_remove":false,"created_time":"2014-03-31T12:43:39+0000","like_count":0,"user_likes":false},"842772279072784":{"id":"842772279072784","from":{"id":"100003181743412","name":"Pham Kha"},"message":"Học ở ttam đó","can_remove":false,"created_time":"2014-03-31T12:43:46+0000","like_count":0,"user_likes":false},"842772762406069":{"id":"842772762406069","from":{"id":"100007162899202","name":"Qiu Xian Huang"},"message":"thái bình có ở đâu bạn?","can_remove":false,"created_time":"2014-03-31T12:44:51+0000","like_count":0,"user_likes":false},"842773069072705":{"id":"842773069072705","from":{"id":"100003181743412","name":"Pham Kha"},"message":"Tbih có ttam mới mở còn ở đâu mk ko rõ.ko thì lên hnoi học có nhiều ttam","can_remove":false,"created_time":"2014-03-31T12:45:40+0000","like_count":0,"user_likes":false},"842773085739370":{"id":"842773085739370","from":{"id":"100004784233958","name":"NO Bita"},"message":"Lên hn bạn ạ... Nhìn tên chắc bạn bít tiếng tq.. Sang nhật rất có ích","can_remove":false,"created_time":"2014-03-31T12:45:42+0000","like_count":0,"user_likes":false},"842773619072650":{"id":"842773619072650","from":{"id":"100006529381413","name":"Nhien Nhi Nho"},"message":"Len ha noi hoc ban ak","can_remove":false,"created_time":"2014-03-31T12:47:27+0000","like_count":0,"user_likes":false},"842773982405947":{"id":"842773982405947","from":{"id":"100005736540662","name":"Anh Đã Mơ"},"message":"nếu em có vấn đề gì về tiếng nhật anh có thể giúp anh mới sang bên nhật rồi bạnbanh ở yokohama đó","can_remove":false,"created_time":"2014-03-31T12:48:24+0000","like_count":0,"user_likes":false},"842774169072595":{"id":"842774169072595","from":{"id":"100004784233958","name":"NO Bita"},"message":"Nên nhớ.. Đi dh thì tiếng phải tốt... K thì có nhìu vấn đề á","can_remove":false,"created_time":"2014-03-31T12:48:47+0000","like_count":0,"user_likes":false},"842774615739217":{"id":"842774615739217","from":{"id":"100005736540662","name":"Anh Đã Mơ"},"message":"ban đầu nếu muốn đi du họp em phải học tốt kanji vào nhé","can_remove":false,"created_time":"2014-03-31T12:50:01+0000","like_count":0,"user_likes":false},"842774659072546":{"id":"842774659072546","from":{"id":"100007162899202","name":"Qiu Xian Huang"},"message":"t đang học 11 trung học phổ thông.làm sao lên HN được.thui đành vậy T_T","can_remove":false,"created_time":"2014-03-31T12:50:09+0000","like_count":0,"user_likes":false},"842775009072511":{"id":"842775009072511","from":{"id":"100007162899202","name":"Qiu Xian Huang"},"message":"Anh da mo: nhung k ai day ca :3 :3","can_remove":false,"created_time":"2014-03-31T12:51:16+0000","like_count":0,"user_likes":false},"842775212405824":{"id":"842775212405824","from":{"id":"100004784233958","name":"NO Bita"},"message":"E đang 11 thì lo cái tn đi đã.. Lo xong học cũng vừa.. Còn trẻ mà","can_remove":false,"created_time":"2014-03-31T12:51:48+0000","like_count":0,"user_likes":false},"842776152405730":{"id":"842776152405730","from":{"id":"100005736540662","name":"Anh Đã Mơ"},"message":"em ở đâu thái bình anh ngày trước cũng tự học kanji mà nó không khó đâu học rồi em sẽ thấy thú vị lắm tuy anh không đi du học nhưng trong 8 tháng anh học được 1200 bộ rồi cách học của anh rất đơn giản","can_remove":false,"created_time":"2014-03-31T12:53:55+0000","like_count":0,"user_likes":false},"842777015738977":{"id":"842777015738977","from":{"id":"100004784233958","name":"NO Bita"},"message":"Nhầm lẫn k đại k.. E nge nói có hơn 200 bộ hay sao mà","can_remove":false,"created_time":"2014-03-31T12:55:58+0000","like_count":0,"user_likes":false},"842777105738968":{"id":"842777105738968","from":{"id":"100007162899202","name":"Qiu Xian Huang"},"message":"nobita: nhung het 12 e di r.cha nhe k pit ti gj ma di ak?","can_remove":false,"created_time":"2014-03-31T12:56:05+0000","like_count":0,"user_likes":false},"842777962405549":{"id":"842777962405549","from":{"id":"100007162899202","name":"Qiu Xian Huang"},"message":"anh da mo: e o thị tran Diem Dien.kanji la j a?e tuong chj can hoc 2 bang chu cai","can_remove":false,"created_time":"2014-03-31T12:57:40+0000","like_count":0,"user_likes":false},"842778129072199":{"id":"842778129072199","from":{"id":"100004784233958","name":"NO Bita"},"message":"E đi vội vã vậy học ở trg ùi học tiếng nhật dc bnhiu... Sang trg k tốt khổ lém e","can_remove":false,"created_time":"2014-03-31T12:58:00+0000","like_count":0,"user_likes":false},"842780492405296":{"id":"842780492405296","from":{"id":"100004784233958","name":"NO Bita"},"message":"Kanji giống vậy này 漢字... Dùng phổ biến toàn bộ nb","can_remove":false,"created_time":"2014-03-31T12:59:04+0000","like_count":0,"user_likes":false},"842784055738273":{"id":"842784055738273","from":{"id":"100005736540662","name":"Anh Đã Mơ"},"message":"sang nhật chỉ có kanji và chữ cứng thôi em à kanji là chữ người trung quốc được nhật bản mượn đó dịch theo chữ hán gọi là hán tự","can_remove":false,"created_time":"2014-03-31T13:00:29+0000","like_count":0,"user_likes":false},"842784175738261":{"id":"842784175738261","from":{"id":"100005736540662","name":"Anh Đã Mơ"},"message":"là chữ anh nobita viết đó","can_remove":false,"created_time":"2014-03-31T13:00:48+0000","like_count":0,"user_likes":false},"842784635738215":{"id":"842784635738215","from":{"id":"100007162899202","name":"Qiu Xian Huang"},"message":"omg.the con hiragana k can thiet ak?","can_remove":false,"created_time":"2014-03-31T13:01:20+0000","like_count":0,"user_likes":false},"842785452404800":{"id":"842785452404800","from":{"id":"100005736540662","name":"Anh Đã Mơ"},"message":"ở vệt nam gọi là chữ nho đó nhưng nó có một số điểm khác và không phải giống nhau đâu","can_remove":false,"created_time":"2014-03-31T13:01:38+0000","like_count":1,"user_likes":false},"842786202404725":{"id":"842786202404725","from":{"id":"100005736540662","name":"Anh Đã Mơ"},"message":"anh sang thì thấy nay người nhật toàn phiên âm kanji sang chữ cứng thôi còn trong giáo trình thì phiên âm sang chữ mềm đo","can_remove":false,"created_time":"2014-03-31T13:02:50+0000","like_count":0,"user_likes":false},"842786785738000":{"id":"842786785738000","from":{"id":"100005736540662","name":"Anh Đã Mơ"},"message":"nếu em học được kanji thì em mới tự học được ngữ pháp tiếng nhật và vốn tưf vựng của em sẽ phong phú","can_remove":false,"created_time":"2014-03-31T13:03:44+0000","like_count":0,"user_likes":false},"842787519071260":{"id":"842787519071260","from":{"id":"100004784233958","name":"NO Bita"},"message":"Anh đã mơ chỉ bảo e nó cách học đi.. M lượn sang stt khác :-))(","can_remove":false,"created_time":"2014-03-31T13:04:22+0000","like_count":0,"user_likes":false},"842787835737895":{"id":"842787835737895","from":{"id":"100005736540662","name":"Anh Đã Mơ"},"message":"ok","can_remove":false,"created_time":"2014-03-31T13:05:10+0000","like_count":0,"user_likes":false},"842787932404552":{"id":"842787932404552","from":{"id":"100007162899202","name":"Qiu Xian Huang"},"message":"ôi.........giáoooooo viên dạyyyyy :'(:'(:'(:'(","can_remove":false,"created_time":"2014-03-31T13:05:26+0000","like_count":0,"user_likes":false},"842788669071145":{"id":"842788669071145","from":{"id":"100002963737004","name":"Hà Phùng"},"message":"Người ta viết cả chữ mềm Hira và Kanji đó, đón giản vì cho dễ đọc dễ hiểu,chữ cứng Kana ít hơn -_-","can_remove":false,"created_time":"2014-03-31T13:06:24+0000","like_count":1,"user_likes":false},"842789315737747":{"id":"842789315737747","from":{"id":"100007162899202","name":"Qiu Xian Huang"},"message":"thế em nên học từ gì bây giờ","can_remove":false,"created_time":"2014-03-31T13:07:42+0000","like_count":0,"user_likes":false},"842789675737711":{"id":"842789675737711","from":{"id":"100006263888044","name":"Hoàng Oanh"},"message":"truoc tien e fai học chữ mềm và chữ cững sau nay thì hoc kạni","can_remove":false,"created_time":"2014-03-31T13:08:22+0000","like_count":0,"user_likes":false},"842789899071022":{"id":"842789899071022","from":{"id":"100006263888044","name":"Hoàng Oanh"},"message":"cố gắng học là học đc hết.học ngoại ngữ thì fải chịu khó","can_remove":false,"created_time":"2014-03-31T13:08:54+0000","like_count":0,"user_likes":false},"842790075737671":{"id":"842790075737671","from":{"id":"100005736540662","name":"Anh Đã Mơ"},"message":"ban đầu em vẫn phải học chữ mềm và chữ cứng để học giáo trình cấp độ n5 và n4","can_remove":false,"created_time":"2014-03-31T13:09:19+0000","like_count":0,"user_likes":false},"842790215737657":{"id":"842790215737657","from":{"id":"100007162899202","name":"Qiu Xian Huang"},"message":"học bảng chữ cái hira va kata hả? e thuộc rồi","can_remove":false,"created_time":"2014-03-31T13:09:44+0000","like_count":0,"user_likes":false},"842790395737639":{"id":"842790395737639","from":{"id":"100006263888044","name":"Hoàng Oanh"},"message":"uh.cũng ko khó lắm e ạ","can_remove":false,"created_time":"2014-03-31T13:10:14+0000","like_count":0,"user_likes":false},"842790979070914":{"id":"842790979070914","from":{"id":"100006263888044","name":"Hoàng Oanh"},"message":"thế e lên hà nội mà học.ở đó nhiều trung tâm lắm","can_remove":false,"created_time":"2014-03-31T13:11:55+0000","like_count":0,"user_likes":false},"842791965737482":{"id":"842791965737482","from":{"id":"100007162899202","name":"Qiu Xian Huang"},"message":"omg.e dang hoc 11 thpt k di duoc :3 :3","can_remove":false,"created_time":"2014-03-31T13:12:57+0000","like_count":0,"user_likes":false},"842792439070768":{"id":"842792439070768","from":{"id":"100005736540662","name":"Anh Đã Mơ"},"message":"thuộc rồi thì học ngữ pháp đơn giản đi em rồi học từ vựng đi em mua giáo trinh みんなの 日本語 chưa","can_remove":false,"created_time":"2014-03-31T13:13:24+0000","like_count":0,"user_likes":false},"842792459070766":{"id":"842792459070766","from":{"id":"100006263888044","name":"Hoàng Oanh"},"message":"thé thi lo j e","can_remove":false,"created_time":"2014-03-31T13:13:27+0000","like_count":0,"user_likes":false},"842793869070625":{"id":"842793869070625","from":{"id":"100007162899202","name":"Qiu Xian Huang"},"message":"anh da mo: chua ạ.vj e k pir nen mua sach j","can_remove":false,"created_time":"2014-03-31T13:14:46+0000","like_count":0,"user_likes":false},"842794549070557":{"id":"842794549070557","from":{"id":"100007162899202","name":"Qiu Xian Huang"},"message":"hoang oanh: 1 nam nua e dj r.cha nhe lai k pit ti gj","can_remove":false,"created_time":"2014-03-31T13:15:35+0000","like_count":0,"user_likes":false},"842795362403809":{"id":"842795362403809","from":{"id":"100006263888044","name":"Hoàng Oanh"},"message":"uh.hoch h cũng ko sao e ạ","can_remove":false,"created_time":"2014-03-31T13:16:30+0000","like_count":0,"user_likes":false},"842795595737119":{"id":"842795595737119","from":{"id":"100007162899202","name":"Qiu Xian Huang"},"message":"hoang oanh: 1 nam nua e dj r.cha nhe lai k pit ti gj","can_remove":false,"created_time":"2014-03-31T13:16:55+0000","like_count":0,"user_likes":false},"842796179070394":{"id":"842796179070394","from":{"id":"100004784233958","name":"NO Bita"},"message":"Cho a hỏi.. E bít tiếng tq phải hok...?","can_remove":false,"created_time":"2014-03-31T13:17:58+0000","like_count":0,"user_likes":false},"842801879069824":{"id":"842801879069824","from":{"id":"100007162899202","name":"Qiu Xian Huang"},"message":"yes 1 chút ạ","can_remove":false,"created_time":"2014-03-31T13:26:23+0000","like_count":0,"user_likes":false},"842802419069770":{"id":"842802419069770","from":{"id":"100004784233958","name":"NO Bita"},"message":"1 chút là tốt e ạ.. Bên này tung của nhìu.. Bít tiếng tq lợi lém... Cộng thêm có chút tiếng nhật nữa... Ổn e ạ","can_remove":false,"created_time":"2014-03-31T13:27:41+0000","like_count":1,"user_likes":false},"842805425736136":{"id":"842805425736136","from":{"id":"100007370317405","name":"Lik Lik"},"message":"Bạn qua trung tâm Mai hoàng của a Giang Hoang Dinh ấy ;)) t thấy a rất nhiệt tình @qiu","message_tags":[{"id":"100003908456038","name":"Giang Hoang Dinh","type":"user","offset":34,"length":16}],"can_remove":false,"created_time":"2014-03-31T13:32:02+0000","like_count":1,"user_likes":false},"842810112402334":{"id":"842810112402334","from":{"id":"100003618111863","name":"Đức Hanh Nguyễn"},"message":"Ni keyi shou hanyu ma?","can_remove":false,"created_time":"2014-03-31T13:39:19+0000","like_count":0,"user_likes":false},"842817469068265":{"id":"842817469068265","from":{"id":"100007162899202","name":"Qiu Xian Huang"},"message":"lik lik: trung tam cua anh ý o dau z b?","can_remove":false,"created_time":"2014-03-31T13:49:54+0000","like_count":1,"user_likes":false},"842830165733662":{"id":"842830165733662","from":{"id":"100007370317405","name":"Lik Lik"},"message":"Ở thái bình đấy bạn, b cứ pm a ý, có gì thắc mắc hay muốn hoc ntn a ấy tư vấn cho nhiệt tình lắm :d","can_remove":false,"created_time":"2014-03-31T13:53:19+0000","like_count":0,"user_likes":false},"842846832398662":{"id":"842846832398662","from":{"id":"100003908456038","name":"Giang Hoang Dinh"},"message":"Nihao","can_remove":false,"created_time":"2014-03-31T13:54:43+0000","like_count":0,"user_likes":false},"842868435729835":{"id":"842868435729835","from":{"id":"100003908456038","name":"Giang Hoang Dinh"},"message":"Chào em qiu xian huang","can_remove":false,"created_time":"2014-03-31T13:55:52+0000","like_count":0,"user_likes":false},"842886675728011":{"id":"842886675728011","from":{"id":"100003908456038","name":"Giang Hoang Dinh"},"message":"Anh Là Giang ở cty Shizuoka mai Hoàng","can_remove":false,"created_time":"2014-03-31T13:56:41+0000","like_count":0,"user_likes":false},"842898269060185":{"id":"842898269060185","from":{"id":"100003908456038","name":"Giang Hoang Dinh"},"message":"Cty anh ở chỗ sở giáo dục đào tạo thái bình em nhé , đối diện với đoàn chèo thái bình","can_remove":false,"created_time":"2014-03-31T13:57:25+0000","like_count":0,"user_likes":false},"842910355725643":{"id":"842910355725643","from":{"id":"100003865478998","name":"Đại Gia Chân Đất"},"message":"Cứ háo hức","can_remove":false,"created_time":"2014-03-31T13:59:00+0000","like_count":0,"user_likes":false},"842940659055946":{"id":"842940659055946","from":{"id":"100005310091804","name":"Han Yo"},"message":"mình cũng đi yokohama nè :D","can_remove":false,"created_time":"2014-03-31T14:33:38+0000","like_count":0,"user_likes":false},"842945472388798":{"id":"842945472388798","from":{"id":"100007162899202","name":"Qiu Xian Huang"},"message":"giang hoang dinh: a o tren tp tb a? e o thi tran diem dien cơ  :'( :'(:'(","can_remove":false,"created_time":"2014-03-31T14:42:42+0000","like_count":0,"user_likes":false},"842945949055417":{"id":"842945949055417","from":{"id":"100007162899202","name":"Qiu Xian Huang"},"message":"han yo: bao gio ban dj?","can_remove":false,"created_time":"2014-03-31T14:43:39+0000","like_count":0,"user_likes":false},"842949219055090":{"id":"842949219055090","from":{"id":"100005310091804","name":"Han Yo"},"message":"tháng 6 năm nay. lẽ ra là tháng 4 rồi nhưg sai giấy khai sinh nên làm lại :/","can_remove":false,"created_time":"2014-03-31T14:50:21+0000","like_count":0,"user_likes":false},"842950519054960":{"id":"842950519054960","from":{"id":"100007162899202","name":"Qiu Xian Huang"},"message":"han yo: sớm hơn t 1 năm nha.khi nào t sang.gặp nhau nhớ chỉ bảo nhé :-D","can_remove":false,"created_time":"2014-03-31T14:52:58+0000","like_count":0,"user_likes":false},"842950965721582":{"id":"842950965721582","from":{"id":"100005310091804","name":"Han Yo"},"message":"bạn sn bn ?","can_remove":false,"created_time":"2014-03-31T14:54:22+0000","like_count":0,"user_likes":false},"842951162388229":{"id":"842951162388229","from":{"id":"100005310091804","name":"Han Yo"},"message":"sang học viện asuka đúng k ?","can_remove":false,"created_time":"2014-03-31T14:54:55+0000","like_count":0,"user_likes":false},"842951235721555":{"id":"842951235721555","from":{"id":"100007162899202","name":"Qiu Xian Huang"},"message":"97","can_remove":false,"created_time":"2014-03-31T14:55:06+0000","like_count":0,"user_likes":false},"842951969054815":{"id":"842951969054815","from":{"id":"100005310091804","name":"Han Yo"},"message":"học qua tiếng Trung rồi à ?","can_remove":false,"created_time":"2014-03-31T14:57:16+0000","like_count":0,"user_likes":false},"842961332387212":{"id":"842961332387212","from":{"id":"100006424623565","name":"BoBo CuaToi"},"message":"The sang hoc hay kiem tien?\nHoc thi moi thang nha gui 30 tr sang\nLam thi du tien an va hoc\nKo co thoi jan nghu+ thoi jan hoc\nKo doc tren face moi nguoi khoc do meu do ah ma con muon sang?","can_remove":false,"created_time":"2014-03-31T15:01:07+0000","like_count":1,"user_likes":false},"843037762379569":{"id":"843037762379569","from":{"id":"100003908456038","name":"Giang Hoang Dinh"},"message":"Um cty A ở gần chỗ vườn hoa Thái Bình đằng sau nhà văn hoá Lào động Qiu xian huang ak","can_remove":false,"created_time":"2014-03-31T16:45:58+0000","like_count":1,"user_likes":false},"843133169036695":{"id":"843133169036695","from":{"id":"100004614193937","name":"Do Pham"},"message":"97 @@ hoc hoi qua moi nguoi di ! co gi hok hieu thi nt . add fb vao","can_remove":false,"created_time":"2014-03-31T20:41:20+0000","like_count":1,"user_likes":false},"843172655699413":{"id":"843172655699413","from":{"id":"100007162899202","name":"Qiu Xian Huang"},"message":"han yo: ukm.co hoc wa tieng trung","can_remove":false,"created_time":"2014-03-31T22:05:59+0000","like_count":0,"user_likes":false},"843173449032667":{"id":"843173449032667","from":{"id":"100007162899202","name":"Qiu Xian Huang"},"message":"bobo cua toi: kho vay á?","can_remove":false,"created_time":"2014-03-31T22:06:40+0000","like_count":0,"user_likes":false},"843173739032638":{"id":"843173739032638","from":{"id":"100004614193937","name":"Do Pham"},"message":"da nang qua nhieu thu tieng the em","can_remove":false,"created_time":"2014-03-31T22:07:22+0000","like_count":0,"user_likes":false},"843174399032572":{"id":"843174399032572","from":{"id":"100007162899202","name":"Qiu Xian Huang"},"message":"do pham: theo nghe du lich nen hoc thoi","can_remove":false,"created_time":"2014-03-31T22:09:26+0000","like_count":0,"user_likes":false},"844430628906949":{"id":"844430628906949","from":{"id":"100005310091804","name":"Han Yo"},"message":"học bao nhiêu chữ hán rồi ?","can_remove":false,"created_time":"2014-04-03T03:11:39+0000","like_count":0,"user_likes":false},"844433415573337":{"id":"844433415573337","from":{"id":"100003683600776","name":"Hiệu Lê"},"message":"Qiu Xian Huang Thai Binh にすんでいますよ。","message_tags":[{"id":"100007162899202","name":"Qiu Xian Huang","type":"user","offset":0,"length":14}],"can_remove":false,"created_time":"2014-04-03T03:20:56+0000","like_count":0,"user_likes":false},"844434835573195":{"id":"844434835573195","from":{"id":"100003683600776","name":"Hiệu Lê"},"message":"私はHiệu です。２１さい、Thái Bình から来ました。","can_remove":false,"created_time":"2014-04-03T03:24:03+0000","like_count":0,"user_likes":false},"844459488904063":{"id":"844459488904063","from":{"id":"100007162899202","name":"Qiu Xian Huang"},"message":"Hiệu Lê: ?????","can_remove":false,"created_time":"2014-04-03T04:38:52+0000","like_count":0,"user_likes":false},"844459692237376":{"id":"844459692237376","from":{"id":"100007162899202","name":"Qiu Xian Huang"},"message":"han yo: k đếm hết","can_remove":false,"created_time":"2014-04-03T04:39:28+0000","like_count":0,"user_likes":false},"844461818903830":{"id":"844461818903830","from":{"id":"100005310091804","name":"Han Yo"},"message":"vậy là hơn 1945 chữ rồi đúng k ? siêu thế :3","can_remove":false,"created_time":"2014-04-03T04:46:50+0000","like_count":0,"user_likes":false},"844544292228916":{"id":"844544292228916","from":{"id":"100007162899202","name":"Qiu Xian Huang"},"message":"han yo: chắc cỡ đó","can_remove":false,"created_time":"2014-04-03T09:58:09+0000","like_count":1,"user_likes":false}},"paging":{"cursors":{"after":"ODQyNzU0OTU5MDc0NTE2","before":"ODQyNzU0OTU5MDc0NTE2"},"next":"https://graph.facebook.com/229244010425617_842753579074654/comments?limit=1&summary=1&after=ODQyNzU0OTU5MDc0NTE2"},"summary":{"order":"chronological","total_count":80}}}