{"id":"229244010425617_842997682383577","type":"status","from":{"id":"100007446790574","name":"Hoàng Công Viên"},"message":"Mọi người trong cộng đồng mình cho mình hỏi 1 chút nhé: trung bình 1 tháng thì tổng chi phí của mình hết khoảng bao nhiêu tiền bao gồm ( ăn .Ở. thuế. Bảo hiểm. ..) vậy?どもありがとうございます","created_time":"2014-03-31T15:42:05+0000","updated_time":"2014-03-31T17:02:55+0000","likes":{"data":{"100003103086919":{"id":"100003103086919","name":"Tâm Hiếu"},"100003254627434":{"id":"100003254627434","name":"Belongs To Nắng"},"100004215699313":{"id":"100004215699313","name":"Diện Calvin Kute"},"100003818167519":{"id":"100003818167519","name":"Nghia Trungnghia"},"100005818122474":{"id":"100005818122474","name":"Hoang Cuc"}},"paging":{"cursors":{"after":"MTAwMDAzMTAzMDg2OTE5","before":"MTAwMDAzMTAzMDg2OTE5"},"next":"https://graph.facebook.com/229244010425617_842997682383577/likes?limit=1&summary=1&after=MTAwMDAzMTAzMDg2OTE5"},"summary":{"total_count":5}},"comments":{"data":{"842999145716764":{"id":"842999145716764","from":{"id":"100007923544903","name":"Chứng Minh Tài Chính"},"message":"Đang hỏi về vấn đề gì? Nếu là Tu nghiệp sinh thì hết tầm 5,5man. Còn về du học sinh thì tâm vô cùng....Vì mấy cái của này kiếm được nên sài cũng được. Còn thường thì cũng tầm 5-7man/tháng thôi ^^!","can_remove":false,"created_time":"2014-03-31T15:43:49+0000","like_count":1,"user_likes":false},"843001375716541":{"id":"843001375716541","from":{"id":"100007446790574","name":"Hoàng Công Viên"},"message":"Cảm ơn Chứng Minh Tài Chính nhé. Mình đi tns","message_tags":[{"id":"100007923544903","name":"Chứng Minh Tài Chính","type":"user","offset":7,"length":20}],"can_remove":false,"created_time":"2014-03-31T15:46:57+0000","like_count":1,"user_likes":false},"843009575715721":{"id":"843009575715721","from":{"id":"100006263888044","name":"Hoàng Oanh"},"message":"như a Chứng Minh Tài Chính noi đung day","message_tags":[{"id":"100007923544903","name":"Chứng Minh Tài Chính","type":"user","offset":6,"length":20}],"can_remove":false,"created_time":"2014-03-31T16:00:19+0000","like_count":2,"user_likes":false},"843021609047851":{"id":"843021609047851","from":{"id":"100006638161405","name":"Daisukina Hito"},"message":"Như mình thống kê nhe: 6 man tiên học 1 tháng, 2 man tiền nhà, 3-4 sên tiền điện nước, bảo hiểm 1 sên 2 , điện thoại 1 man, tàu xe 1man5 , ăn uống 2 man , chi phí lung tung 1 man","can_remove":false,"created_time":"2014-03-31T16:09:14+0000","like_count":2,"user_likes":false},"843024085714270":{"id":"843024085714270","from":{"id":"100007923544903","name":"Chứng Minh Tài Chính"},"message":"Thường thì các bạn tu nghiệp giờ được ký là 13man - 5,5 man thì tháng cũng bỏ ra được 16-17tr tiền việt chưa làm thêm. chịu khó nữa thì 3 năm cũng có  ngót tỷ. ^^!","can_remove":false,"created_time":"2014-03-31T16:14:09+0000","like_count":0,"user_likes":false},"843024635714215":{"id":"843024635714215","from":{"id":"100006638161405","name":"Daisukina Hito"},"message":"Dhs nặng về học phí còn mọi thứ thì cũng hơi giống tu nghiệp thui còn ăn uống và sinh hoạt thì ở mình thui","can_remove":false,"created_time":"2014-03-31T16:15:37+0000","like_count":0,"user_likes":false},"843024909047521":{"id":"843024909047521","from":{"id":"100007446790574","name":"Hoàng Công Viên"},"message":"Vậy ạ . Nhưng ko biết có làm thêm ko nữa","can_remove":false,"created_time":"2014-03-31T16:16:35+0000","like_count":0,"user_likes":false},"843026045714074":{"id":"843026045714074","from":{"id":"100007923544903","name":"Chứng Minh Tài Chính"},"message":"Quy định là được làm thêm 2h/ngày 59h/tháng. Nhưng 1 số ACE vẫn làm thêm nhiều. Đặc biệt là may ở osaka và yamagata. Điện tử cũng làm thêm tương đối nhiều. còn cả đúc, tiện....Nhưng nói chung là vẫn cứ được làm thêm nên các bạn TNS ko phải quá lo lắng. chủ yếu là các đơn vị ở vn  làm có chuẩn hay ko thôi, phí và phí dịch vụ như nào mới là vấn đề quan trọng ^^!","can_remove":false,"created_time":"2014-03-31T16:19:19+0000","like_count":1,"user_likes":false},"843027829047229":{"id":"843027829047229","from":{"id":"100007446790574","name":"Hoàng Công Viên"},"message":"Vậy ah.m thì ở kyoto và làm xây dung","can_remove":false,"created_time":"2014-03-31T16:23:25+0000","like_count":0,"user_likes":false},"843028229047189":{"id":"843028229047189","from":{"id":"100007446790574","name":"Hoàng Công Viên"},"message":"Chứng Minh Tài Chính đi dhs ah","message_tags":[{"id":"100007923544903","name":"Chứng Minh Tài Chính","type":"user","offset":0,"length":20}],"can_remove":false,"created_time":"2014-03-31T16:24:30+0000","like_count":0,"user_likes":false},"843028665713812":{"id":"843028665713812","from":{"id":"100007923544903","name":"Chứng Minh Tài Chính"},"message":"ko ông anh mình đi. m làm ngân hàng thôi. :) nhưng mấy cái này thì biết vì anh ấy cũng bảo cho nhiều. heee","can_remove":false,"created_time":"2014-03-31T16:25:37+0000","like_count":0,"user_likes":false},"843029419047070":{"id":"843029419047070","from":{"id":"100007446790574","name":"Hoàng Công Viên"},"message":"Oh vậy ah","can_remove":false,"created_time":"2014-03-31T16:27:28+0000","like_count":0,"user_likes":false},"843029595713719":{"id":"843029595713719","from":{"id":"100007446790574","name":"Hoàng Công Viên"},"message":"B đang làm ở đâu?","can_remove":false,"created_time":"2014-03-31T16:27:49+0000","like_count":0,"user_likes":false},"843029952380350":{"id":"843029952380350","from":{"id":"100007923544903","name":"Chứng Minh Tài Chính"},"message":"ở hà nội c ah :)","can_remove":false,"created_time":"2014-03-31T16:28:44+0000","like_count":0,"user_likes":false},"843032522380093":{"id":"843032522380093","from":{"id":"100007446790574","name":"Hoàng Công Viên"},"message":"Vậy ah.cảm ơn bạn vì những chia sẽ nhé. Chúc b luôn gặt hái được những thành công trong cs nhé.","can_remove":false,"created_time":"2014-03-31T16:35:09+0000","like_count":0,"user_likes":false},"843032705713408":{"id":"843032705713408","from":{"id":"100006424623565","name":"BoBo CuaToi"},"message":"Cu lam phep tinh cho cac ban dinh di du hoc nhe!\n1tuan chi dc lam 28tieng\nMoi tieng luong 1sen yen \nThang dc bao nhieu?\nTien an o hoc di lai rat dat do\nTom lai la ko on!","can_remove":false,"created_time":"2014-03-31T16:35:40+0000","like_count":3,"user_likes":false},"843047229045289":{"id":"843047229045289","from":{"id":"100006115004455","name":"Nghia Vuong"},"message":"A","can_remove":false,"created_time":"2014-03-31T17:02:55+0000","like_count":0,"user_likes":false}},"paging":{"cursors":{"after":"ODQyOTk5MTQ1NzE2NzY0","before":"ODQyOTk5MTQ1NzE2NzY0"},"next":"https://graph.facebook.com/229244010425617_842997682383577/comments?limit=1&summary=1&after=ODQyOTk5MTQ1NzE2NzY0"},"summary":{"order":"chronological","total_count":17}}}