{"id":"229244010425617_842928402390505","type":"status","from":{"id":"100003274931672","name":"Công Hải Aries"},"message":"Mọi người cho mình hỏi.. mình có = lái oto và xe máy bên VN, nó có sd dk bên nhật k???  có phải mang đi đổi sang tiếng nhật ở VN hay phải san nhật ms đổi dk vậy?? thủ tục cần những gì vậy??","created_time":"2014-03-31T14:08:50+0000","updated_time":"2014-04-01T04:00:33+0000","likes":{"data":{"100006504874936":{"id":"100006504874936","name":"Hiếu Hd"},"100006263888044":{"id":"100006263888044","name":"Hoàng Oanh"},"100001797875974":{"id":"100001797875974","name":"Đức Hạnh"}},"paging":{"cursors":{"after":"MTAwMDA2NTA0ODc0OTM2","before":"MTAwMDA2NTA0ODc0OTM2"},"next":"https://graph.facebook.com/229244010425617_842928402390505/likes?limit=1&summary=1&after=MTAwMDA2NTA0ODc0OTM2"},"summary":{"total_count":3}},"comments":{"data":{"842929952390350":{"id":"842929952390350","from":{"id":"100000628549116","name":"Hoàng Chính"},"message":"Sang bên này đổi nhưng vẫn fai thi","can_remove":false,"created_time":"2014-03-31T14:11:32+0000","like_count":0,"user_likes":false},"842930939056918":{"id":"842930939056918","from":{"id":"100003274931672","name":"Công Hải Aries"},"message":"vậy ah , nhưng chắc thỉ đổi = vậy cũng rẻ..mà k biết bên đấy có bằng lái  thì cv. lương có cao hơn k nhỉ =D","can_remove":false,"created_time":"2014-03-31T14:13:53+0000","like_count":0,"user_likes":false},"842931322390213":{"id":"842931322390213","from":{"id":"100000628549116","name":"Hoàng Chính"},"message":"Lái chi để lái xe chu lien quan gj đến luong :))","can_remove":false,"created_time":"2014-03-31T14:14:36+0000","like_count":0,"user_likes":false},"842931929056819":{"id":"842931929056819","from":{"id":"100003274931672","name":"Công Hải Aries"},"message":"y' t là lương lái xe cao k?? hii.. và đôi khi trong cv minh biết thêm vẫn tốt hơn chu'","can_remove":false,"created_time":"2014-03-31T14:16:11+0000","like_count":0,"user_likes":false},"842932975723381":{"id":"842932975723381","from":{"id":"100000628549116","name":"Hoàng Chính"},"message":"Cái đó mjnh cũng k bjt rõ lắm, chỉ bjet muốn fai đổi và thi ở bên này","can_remove":false,"created_time":"2014-03-31T14:18:55+0000","like_count":0,"user_likes":false},"842933242390021":{"id":"842933242390021","from":{"id":"100003274931672","name":"Công Hải Aries"},"message":"ok. arigato !","can_remove":false,"created_time":"2014-03-31T14:19:44+0000","like_count":0,"user_likes":false},"842933299056682":{"id":"842933299056682","from":{"id":"100003945224089","name":"Nhím Xù"},"message":"Có băng lái xe o to đi đoi rui đi xin viec chơ du hoc sinh cho cac cong ty luong cung ok đấy bạn","can_remove":false,"created_time":"2014-03-31T14:19:55+0000","like_count":0,"user_likes":false},"842933725723306":{"id":"842933725723306","from":{"id":"100003274931672","name":"Công Hải Aries"},"message":"đổi ở VN hay ở Nhật hả bạn Nhím Xù ?? chỗ nào vậy?","can_remove":false,"created_time":"2014-03-31T14:21:16+0000","like_count":0,"user_likes":false},"842934092389936":{"id":"842934092389936","from":{"id":"100003945224089","name":"Nhím Xù"},"message":"Ở nhật.đôi ko khó đâu","can_remove":false,"created_time":"2014-03-31T14:22:22+0000","like_count":0,"user_likes":false},"842934605723218":{"id":"842934605723218","from":{"id":"100003274931672","name":"Công Hải Aries"},"message":"vậy ah.. cần thủ tục gì vậy??( giấy tờ gì vậy) ý mình là hồ sơ lái xe có cần đi dịch thuật đóng dấu bên VN mag sang k?","can_remove":false,"created_time":"2014-03-31T14:23:59+0000","like_count":0,"user_likes":false},"842937225722956":{"id":"842937225722956","from":{"id":"100006263888044","name":"Hoàng Oanh"},"message":"đổi dc b ah.nhưng mà khi sang bên nhật thì b fải thi lí thuyết đó b ah.có 10 câu lí thuyết nhưng toàn là chứ hán thôi.quy tắc đi xe bên đấy cũng khác so với việt nam .","can_remove":false,"created_time":"2014-03-31T14:25:44+0000","like_count":0,"user_likes":false},"842937719056240":{"id":"842937719056240","from":{"id":"100006263888044","name":"Hoàng Oanh"},"message":"bằng mà b muốn đổi thì quy định là ko dưới 6 tháng b nhé.thế thôi","can_remove":false,"created_time":"2014-03-31T14:27:18+0000","like_count":0,"user_likes":false},"842938025722876":{"id":"842938025722876","from":{"id":"100003274931672","name":"Công Hải Aries"},"message":"chữ hán mình sẽ học.. thì thực hành thì mình lái rất tốt. ở VN thi toàn 99. 98 điểm( đôi khi phóng nhanh tiết kiệm thời gian.. quá toc đo tru 1 diểm) :v  bên nhật đi theo phía bên trái.. chắc xa hình nó ngc lại so vs VN thôi..","can_remove":false,"created_time":"2014-03-31T14:28:10+0000","like_count":0,"user_likes":false},"842938645722814":{"id":"842938645722814","from":{"id":"100006263888044","name":"Hoàng Oanh"},"message":"xa hình khác với vn đó b.vì bmẹ mình lái xe bên đấy nên mình mới bit và bảo b thôi","can_remove":false,"created_time":"2014-03-31T14:29:14+0000","like_count":0,"user_likes":false},"842938992389446":{"id":"842938992389446","from":{"id":"100006263888044","name":"Hoàng Oanh"},"message":"vô lăng nó cũng theo bên trái đó ko như ở vn đâyu","can_remove":false,"created_time":"2014-03-31T14:29:59+0000","like_count":0,"user_likes":false},"842939545722724":{"id":"842939545722724","from":{"id":"100003274931672","name":"Công Hải Aries"},"message":"mình k hiểu quy định ko duoi 6 tháng là sao??..có phải là tình từ ngày cấp đã dk cấp 6 thnasg rồi ha?.. hồ sơ lái xe có cần mag đi dich thuat dong dấu để mag sang k?. hay chỉ cần mag = sang là dk?","can_remove":false,"created_time":"2014-03-31T14:30:50+0000","like_count":0,"user_likes":false},"842939739056038":{"id":"842939739056038","from":{"id":"100006263888044","name":"Hoàng Oanh"},"message":"b có bằng dc bao lâu rồi","can_remove":false,"created_time":"2014-03-31T14:31:18+0000","like_count":0,"user_likes":false},"842940045722674":{"id":"842940045722674","from":{"id":"100006263888044","name":"Hoàng Oanh"},"message":"mang bằng sang thi và đổi là ok","can_remove":false,"created_time":"2014-03-31T14:32:06+0000","like_count":0,"user_likes":false},"842940339055978":{"id":"842940339055978","from":{"id":"100003274931672","name":"Công Hải Aries"},"message":"ah.. biết lái thì lâu rồi. nhưng chính thức cấp = là dk 1 tháng rồi :v  nản quá biết vậy thi từ năm ngoái cho xog","can_remove":false,"created_time":"2014-03-31T14:32:52+0000","like_count":0,"user_likes":false},"842940699055942":{"id":"842940699055942","from":{"id":"100006263888044","name":"Hoàng Oanh"},"message":"h chưa có bằng thì đổi sao đc.sao ko thi bằng từ năm ngoái đi","can_remove":false,"created_time":"2014-03-31T14:33:43+0000","like_count":0,"user_likes":false},"842941065722572":{"id":"842941065722572","from":{"id":"100006263888044","name":"Hoàng Oanh"},"message":"biết lái xe nhưng h chưa có bằng thì ko đổi đc ngay bây h đâu.quy định là ko duoi 6 tháng kể từ ngày cấp","can_remove":false,"created_time":"2014-03-31T14:34:49+0000","like_count":0,"user_likes":false},"842941612389184":{"id":"842941612389184","from":{"id":"100003274931672","name":"Công Hải Aries"},"message":"có = dk 1 tháng rồi..năm ngoái bận k thi dk..có nghĩa là. sau 6 tháng kể từ ngày có = thì ms dk đổi bên Nhật ah? ^^","can_remove":false,"created_time":"2014-03-31T14:36:21+0000","like_count":0,"user_likes":false},"842941772389168":{"id":"842941772389168","from":{"id":"100006263888044","name":"Hoàng Oanh"},"message":"đúng rồi","can_remove":false,"created_time":"2014-03-31T14:36:51+0000","like_count":0,"user_likes":false},"842941902389155":{"id":"842941902389155","from":{"id":"100006263888044","name":"Hoàng Oanh"},"message":"sang đấy thi li thuyế thì có 10 câu thôi","can_remove":false,"created_time":"2014-03-31T14:37:18+0000","like_count":0,"user_likes":false},"842942269055785":{"id":"842942269055785","from":{"id":"100003274931672","name":"Công Hải Aries"},"message":"lại còn vậy.. nihonjin baka .. sợ dưới 6 thnasg lái xe đâm vào cột điện hay sao mà lại còn trên 6 thag.. haizz","can_remove":false,"created_time":"2014-03-31T14:38:13+0000","like_count":0,"user_likes":false},"842942679055744":{"id":"842942679055744","from":{"id":"100003274931672","name":"Công Hải Aries"},"message":"lí thuyết ở VN 500 câu. đến giờ trả lời k sai 1 câu nào.. vậy thì 10 câu có nghĩa lí gi.. hii","can_remove":false,"created_time":"2014-03-31T14:39:18+0000","like_count":0,"user_likes":false},"842942722389073":{"id":"842942722389073","from":{"id":"100006263888044","name":"Hoàng Oanh"},"message":"luật bên đấy nó ko như ở mình đâu.đi xe đạp còn fải học luật nữa cơ","can_remove":false,"created_time":"2014-03-31T14:39:24+0000","like_count":0,"user_likes":false},"842943025722376":{"id":"842943025722376","from":{"id":"100006263888044","name":"Hoàng Oanh"},"message":"10 câu nhưng nó dài lắm b ạ.toàn là chữ hán thôi","can_remove":false,"created_time":"2014-03-31T14:40:03+0000","like_count":0,"user_likes":false},"842943072389038":{"id":"842943072389038","from":{"id":"100003274931672","name":"Công Hải Aries"},"message":"hình như đi xe đạp k dk trở tối đa quá 5 ng ha hoang oanh?","can_remove":false,"created_time":"2014-03-31T14:40:09+0000","like_count":0,"user_likes":false},"842943275722351":{"id":"842943275722351","from":{"id":"100006263888044","name":"Hoàng Oanh"},"message":"xe đạp thì làm sao mà chở dc 5 nguoi.1 den 2 nguoi thoi","can_remove":false,"created_time":"2014-03-31T14:40:44+0000","like_count":0,"user_likes":false},"842943649055647":{"id":"842943649055647","from":{"id":"100006263888044","name":"Hoàng Oanh"},"message":"b lái xe gioi thi sang day xin vao cong ty nao đó mà lái cho họ lương cũng cao mà.14 đến 17 man 1 tháng","can_remove":false,"created_time":"2014-03-31T14:41:28+0000","like_count":0,"user_likes":false},"842945465722132":{"id":"842945465722132","from":{"id":"100003274931672","name":"Công Hải Aries"},"message":"b sang nhật chưa mà biết họ k cho chở quá 5 ng??","can_remove":false,"created_time":"2014-03-31T14:42:41+0000","like_count":0,"user_likes":false},"842945855722093":{"id":"842945855722093","from":{"id":"100003274931672","name":"Công Hải Aries"},"message":"lái xe thì k giỏi.. nhưng cũng biết dạp con vào số bó cua ép vỉa hii","can_remove":false,"created_time":"2014-03-31T14:43:34+0000","like_count":0,"user_likes":false},"842946105722068":{"id":"842946105722068","from":{"id":"100006263888044","name":"Hoàng Oanh"},"message":"mình đi đi lại lại như cơm bữa b ạ.vì gia đình mình ở đó lâu năm rồi nên bít","can_remove":false,"created_time":"2014-03-31T14:43:55+0000","like_count":0,"user_likes":false},"842947035721975":{"id":"842947035721975","from":{"id":"100003274931672","name":"Công Hải Aries"},"message":"uso.. mấy thằng bạn nó pảo bên nhật đi xe đạp chỉ dk đi 1 mình thôi..2 ng đâu ra?","can_remove":false,"created_time":"2014-03-31T14:45:40+0000","like_count":1,"user_likes":false},"842947445721934":{"id":"842947445721934","from":{"id":"100006263888044","name":"Hoàng Oanh"},"message":"uh.thì mình bảo 1 den 2 ng là cùng.nhưng h nguoi viet sang nhat đông kinh khủng.","can_remove":false,"created_time":"2014-03-31T14:46:35+0000","like_count":0,"user_likes":false},"842947579055254":{"id":"842947579055254","from":{"id":"100003945224089","name":"Nhím Xù"},"message":"Xe đạp o nhật ma đi 2 thì nó mời về đồn uong nc trà nhá","can_remove":false,"created_time":"2014-03-31T14:46:48+0000","like_count":1,"user_likes":false},"842947965721882":{"id":"842947965721882","from":{"id":"100006263888044","name":"Hoàng Oanh"},"message":"đi 1 nguoi.ko nhu o minh di 2 3 nguoi đâu","can_remove":false,"created_time":"2014-03-31T14:47:41+0000","like_count":0,"user_likes":false},"842948152388530":{"id":"842948152388530","from":{"id":"100003945224089","name":"Nhím Xù"},"message":"Chỉ một và nhất đinh la 1 .đi 2 la pham luật ng ta nhin thấy kêu ầm lên la 危ない chứ chua cân ccong an","can_remove":false,"created_time":"2014-03-31T14:48:01+0000","like_count":0,"user_likes":false},"842948392388506":{"id":"842948392388506","from":{"id":"100006263888044","name":"Hoàng Oanh"},"message":"uk","can_remove":false,"created_time":"2014-03-31T14:48:34+0000","like_count":0,"user_likes":false},"842949139055098":{"id":"842949139055098","from":{"id":"100003274931672","name":"Công Hải Aries"},"message":"おもしろいですね！ oa đồn công an mà cũng có trà đá ah..すてきですね！ thế thì khi sang nhật cũng thỉnh thoảnh ghé qua uống trà đá ms dk. mọi ng có ai thử chưa?","can_remove":false,"created_time":"2014-03-31T14:50:09+0000","like_count":0,"user_likes":false},"842949529055059":{"id":"842949529055059","from":{"id":"100006263888044","name":"Hoàng Oanh"},"message":"b ý nói trêu theo kiểu như ở vn thôi trứ có trà đá uống với công an thì đã ko gọi là đi nc ngoài","can_remove":false,"created_time":"2014-03-31T14:51:20+0000","like_count":0,"user_likes":false},"842950465721632":{"id":"842950465721632","from":{"id":"100003274931672","name":"Công Hải Aries"},"message":"k trà  đá thì cafe..liệu có mất vài man để dk ra ngoài k?? hii","can_remove":false,"created_time":"2014-03-31T14:52:51+0000","like_count":0,"user_likes":false},"842952432388102":{"id":"842952432388102","from":{"id":"100003274931672","name":"Công Hải Aries"},"message":"dù sao cũng cám ơm mọi ng đã chia sẻ thông tin cho T..cám ơn!","can_remove":false,"created_time":"2014-03-31T14:58:22+0000","like_count":0,"user_likes":false},"843003449049667":{"id":"843003449049667","from":{"id":"100006154922097","name":"Bạch Dương"},"message":"どういたしまして :3","can_remove":false,"created_time":"2014-03-31T15:49:19+0000","like_count":0,"user_likes":false},"843043795712299":{"id":"843043795712299","from":{"id":"100004006950326","name":"Ngọc Gia Bảo"},"message":"Ở Nhật gọi là Cảnh Sát , chứ ko gọi là Côn An như ở Việt Nam sau 1975","can_remove":false,"created_time":"2014-03-31T16:54:54+0000","like_count":0,"user_likes":false},"843230082360337":{"id":"843230082360337","from":{"id":"100003274931672","name":"Công Hải Aries"},"message":"日本車やで lamborghini を かいたいですから Bạch Dương :v","message_tags":[{"id":"100006154922097","name":"Bạch Dương","type":"user","offset":29,"length":10}],"can_remove":false,"created_time":"2014-04-01T00:32:33+0000","like_count":0,"user_likes":false},"843244025692276":{"id":"843244025692276","from":{"id":"100006263888044","name":"Hoàng Oanh"},"message":"Công an vs cảnh sat thì khac j nhau","can_remove":false,"created_time":"2014-04-01T01:15:31+0000","like_count":0,"user_likes":false},"843306382352707":{"id":"843306382352707","from":{"id":"100003274931672","name":"Công Hải Aries"},"message":"hoag oanh.. o nhat lau qua hay sao ma ns canh sat vs cong an khac gi nhau.. ngay tu kai ten đã khác nhau rồi..k khác thì sinh ra công an vs cảnh sát lam gì. =D","can_remove":false,"created_time":"2014-04-01T04:00:33+0000","like_count":0,"user_likes":false}},"paging":{"cursors":{"after":"ODQyOTI5OTUyMzkwMzUw","before":"ODQyOTI5OTUyMzkwMzUw"},"next":"https://graph.facebook.com/229244010425617_842928402390505/comments?limit=1&summary=1&after=ODQyOTI5OTUyMzkwMzUw"},"summary":{"order":"chronological","total_count":49}}}