{"id":"229244010425617_842978982385447","type":"status","from":{"id":"100003381475331","name":"Hoàng Hương"},"message":"Mai em đi rồi làm thủ tục ở sân bay có phức tạp ko anh chị? anh chị hướng dẫn qua cho em một chút đc ko, em cảm ơn","created_time":"2014-03-31T15:11:16+0000","updated_time":"2014-03-31T16:02:47+0000","likes":{"data":{"100004525472322":{"id":"100004525472322","name":"Mê Dongchul"},"100006271507308":{"id":"100006271507308","name":"Bùi Quỳnh Anh XS"}},"paging":{"cursors":{"after":"MTAwMDA0NTI1NDcyMzIy","before":"MTAwMDA0NTI1NDcyMzIy"},"next":"https://graph.facebook.com/229244010425617_842978982385447/likes?limit=1&summary=1&after=MTAwMDA0NTI1NDcyMzIy"},"summary":{"total_count":2}},"comments":{"data":{"842981775718501":{"id":"842981775718501","from":{"id":"100006263888044","name":"Hoàng Oanh"},"message":"phức tạp gi đâu e.ngừoi ta làm cho mình hết mà.yên tâm đi","can_remove":false,"created_time":"2014-03-31T15:15:02+0000","like_count":1,"user_likes":false},"842982355718443":{"id":"842982355718443","from":{"id":"100003381475331","name":"Hoàng Hương"},"message":"Thật thế hả chị em cứ lo ko pít làm gì thế thì em yên tâm rồi, em cảm ơn chị nhé","can_remove":false,"created_time":"2014-03-31T15:15:57+0000","like_count":0,"user_likes":false},"842982699051742":{"id":"842982699051742","from":{"id":"100006263888044","name":"Hoàng Oanh"},"message":"ko co j e ak.sang nhat e gioi tieng la ok e ạ.","can_remove":false,"created_time":"2014-03-31T15:16:42+0000","like_count":1,"user_likes":false},"842983059051706":{"id":"842983059051706","from":{"id":"100006424623565","name":"BoBo CuaToi"},"message":"Sao moi nguoi van mun sang nhi","can_remove":false,"created_time":"2014-03-31T15:17:09+0000","like_count":0,"user_likes":false},"842983682384977":{"id":"842983682384977","from":{"id":"100003381475331","name":"Hoàng Hương"},"message":"tại sao lại ko muốn sang em học tiếng nhật và muốn đi học tiếng cũng ko nên hay gì ạ","can_remove":false,"created_time":"2014-03-31T15:17:47+0000","like_count":0,"user_likes":false},"842983812384964":{"id":"842983812384964","from":{"id":"100006263888044","name":"Hoàng Oanh"},"message":"h nguoi viet nam sang nhat đông dã man.nhiêu kinh khung di dau cũng toàn la ng viet\\","can_remove":false,"created_time":"2014-03-31T15:18:03+0000","like_count":0,"user_likes":false},"842984215718257":{"id":"842984215718257","from":{"id":"100006263888044","name":"Hoàng Oanh"},"message":"đi nhật cũng tốt mà e.mình đi du học để sau này còn có tuong lai","can_remove":false,"created_time":"2014-03-31T15:18:45+0000","like_count":0,"user_likes":false},"842985179051494":{"id":"842985179051494","from":{"id":"100003381475331","name":"Hoàng Hương"},"message":"em cũng biết dù chưa sang nhật nhưng trải nghiệm qua đợt xin visa là đủ biết đông ntn rùi ạ hic vâng em đi học thôi chứ cũng ko phỉa muốn đi làm kiếm tiền gì , đơn giản em muốn học tiếng ở bản xứ để tốt hơn và hiểu văn hoá sau này về nuwóc làm việc","can_remove":false,"created_time":"2014-03-31T15:20:05+0000","like_count":0,"user_likes":false},"842985332384812":{"id":"842985332384812","from":{"id":"100006263888044","name":"Hoàng Oanh"},"message":"that su la chi cung ko thich di nhat lam nhung vì bme va a trai ở bên đáy nen fai sang thôi ko o 1 minh dc e ạ","can_remove":false,"created_time":"2014-03-31T15:20:37+0000","like_count":1,"user_likes":false},"842985629051449":{"id":"842985629051449","from":{"id":"100006263888044","name":"Hoàng Oanh"},"message":"sau nay minh gioi tieng và có bằng thì về nc minh còn có cơ hội e ạ","can_remove":false,"created_time":"2014-03-31T15:21:08+0000","like_count":1,"user_likes":false},"842986065718072":{"id":"842986065718072","from":{"id":"100003381475331","name":"Hoàng Hương"},"message":"vâng nhưng em nghĩ là ở đâu cũng thế mà có ng tốt kẻ xấu chứ đâu h=gì vn hay nhật, nên em vẫn quyết đình đi để học tiếng cho tôts hơn","can_remove":false,"created_time":"2014-03-31T15:22:05+0000","like_count":0,"user_likes":false},"842986465718032":{"id":"842986465718032","from":{"id":"100006263888044","name":"Hoàng Oanh"},"message":"uh.e nghi dc nhu the la tot day.chi thi ko thich di nhat lam e ạ","can_remove":false,"created_time":"2014-03-31T15:22:39+0000","like_count":0,"user_likes":false},"842987259051286":{"id":"842987259051286","from":{"id":"100003381475331","name":"Hoàng Hương"},"message":"hì vâng có lẽ chị ko giống em về ước mơ, chị đi theo gia đình còn e đi theo sự yêu thích và mơ ước của em","can_remove":false,"created_time":"2014-03-31T15:24:09+0000","like_count":0,"user_likes":false},"842987862384559":{"id":"842987862384559","from":{"id":"100006263888044","name":"Hoàng Oanh"},"message":"chị chuyen tieng anh cơ e ạ.nhung h chi van bit tieng nhat e ạ de sang minh còn học e ạ","can_remove":false,"created_time":"2014-03-31T15:25:38+0000","like_count":1,"user_likes":false},"842988092384536":{"id":"842988092384536","from":{"id":"100006263888044","name":"Hoàng Oanh"},"message":"thi chị co bme ben day van tot hơn nhung nguoi khac e ạ.","can_remove":false,"created_time":"2014-03-31T15:26:21+0000","like_count":0,"user_likes":false},"842988355717843":{"id":"842988355717843","from":{"id":"100003381475331","name":"Hoàng Hương"},"message":"hì vâng đúng thế nói chung là sẽ khó khăn nên mọi ng cần cố gắng thôi chứ ngồi than trách thì cũng ko đc gì","can_remove":false,"created_time":"2014-03-31T15:27:08+0000","like_count":0,"user_likes":false},"842988952384450":{"id":"842988952384450","from":{"id":"100006263888044","name":"Hoàng Oanh"},"message":"uk.mai e bay roi ah","can_remove":false,"created_time":"2014-03-31T15:28:16+0000","like_count":0,"user_likes":false},"842989089051103":{"id":"842989089051103","from":{"id":"100003381475331","name":"Hoàng Hương"},"message":"vâng tối mai chị ạ","can_remove":false,"created_time":"2014-03-31T15:28:39+0000","like_count":0,"user_likes":false},"842989189051093":{"id":"842989189051093","from":{"id":"100006263888044","name":"Hoàng Oanh"},"message":"uh.e đi truong nao the","can_remove":false,"created_time":"2014-03-31T15:28:55+0000","like_count":0,"user_likes":false},"842989462384399":{"id":"842989462384399","from":{"id":"100003381475331","name":"Hoàng Hương"},"message":"em học nhật ngữ ichikawa ở chiba","can_remove":false,"created_time":"2014-03-31T15:29:22+0000","like_count":0,"user_likes":false},"842989929051019":{"id":"842989929051019","from":{"id":"100006263888044","name":"Hoàng Oanh"},"message":"vậy ah.c hoc ở truong toei tren tokyo e ạ","can_remove":false,"created_time":"2014-03-31T15:29:59+0000","like_count":1,"user_likes":false},"842991125717566":{"id":"842991125717566","from":{"id":"100003381475331","name":"Hoàng Hương"},"message":"tokyo chắc xa chiba ùi","can_remove":false,"created_time":"2014-03-31T15:32:06+0000","like_count":0,"user_likes":false},"842992075717471":{"id":"842992075717471","from":{"id":"100006263888044","name":"Hoàng Oanh"},"message":"uh.xa e ah","can_remove":false,"created_time":"2014-03-31T15:33:28+0000","like_count":0,"user_likes":false},"842993505717328":{"id":"842993505717328","from":{"id":"100006263888044","name":"Hoàng Oanh"},"message":"sang đấy thi co gang mà học e ak.gambatte kudasai!!!","can_remove":false,"created_time":"2014-03-31T15:36:16+0000","like_count":0,"user_likes":false},"842993772383968":{"id":"842993772383968","from":{"id":"100003381475331","name":"Hoàng Hương"},"message":"hai, arigatou","can_remove":false,"created_time":"2014-03-31T15:36:50+0000","like_count":0,"user_likes":false},"842995895717089":{"id":"842995895717089","from":{"id":"100003594936986","name":"Thủy Aries"},"message":"Tokyo với chiba giáp nhau. Chừng 1h chứ mấy. Mà ichikawa san sát đó mà.","can_remove":false,"created_time":"2014-03-31T15:40:52+0000","like_count":1,"user_likes":false},"842996372383708":{"id":"842996372383708","from":{"id":"100003381475331","name":"Hoàng Hương"},"message":"em cũng thấy bảo cách thành phó hơn 1 tiếng đi tàu","can_remove":false,"created_time":"2014-03-31T15:41:35+0000","like_count":0,"user_likes":false},"842996892383656":{"id":"842996892383656","from":{"id":"100006263888044","name":"Hoàng Oanh"},"message":"cũng ko sat lắm e ah.b đó ở chiba nhung chị ở toei cơ e ah","can_remove":false,"created_time":"2014-03-31T15:41:50+0000","like_count":0,"user_likes":false},"842998589050153":{"id":"842998589050153","from":{"id":"100006263888044","name":"Hoàng Oanh"},"message":"hơn 1 tieng di tau nhung la singcangsen thi cung nhanh hơn e ạ","can_remove":false,"created_time":"2014-03-31T15:42:51+0000","like_count":0,"user_likes":false},"842999035716775":{"id":"842999035716775","from":{"id":"100003594936986","name":"Thủy Aries"},"message":"新幹線？","can_remove":false,"created_time":"2014-03-31T15:43:34+0000","like_count":0,"user_likes":false},"842999202383425":{"id":"842999202383425","from":{"id":"100004745953163","name":"Bo Tròn Ngyễn"},"message":"b học trường nào,vùng nào thế","can_remove":false,"created_time":"2014-03-31T15:44:00+0000","like_count":0,"user_likes":false},"842999462383399":{"id":"842999462383399","from":{"id":"100006263888044","name":"Hoàng Oanh"},"message":"b hoi ai","can_remove":false,"created_time":"2014-03-31T15:44:22+0000","like_count":0,"user_likes":false},"843000105716668":{"id":"843000105716668","from":{"id":"100003594936986","name":"Thủy Aries"},"message":"Trời coi profile hoang oanh sn 93 mà cứ xưng chị nhé.:)))","can_remove":false,"created_time":"2014-03-31T15:45:35+0000","like_count":0,"user_likes":false},"843000492383296":{"id":"843000492383296","from":{"id":"100003594936986","name":"Thủy Aries"},"message":"Cmt trên bạn ấy nói rùi mà.","can_remove":false,"created_time":"2014-03-31T15:46:09+0000","like_count":0,"user_likes":false},"843000679049944":{"id":"843000679049944","from":{"id":"100006263888044","name":"Hoàng Oanh"},"message":"minh hoc ơ toei tren tokyo nhung mình ở đó lâu năm với gia dinh rui ban ạ","can_remove":false,"created_time":"2014-03-31T15:46:21+0000","like_count":0,"user_likes":false},"843000795716599":{"id":"843000795716599","from":{"id":"100003381475331","name":"Hoàng Hương"},"message":"Bo tròn nguyễn mai mình bay chứ ko phai chị Hoàng Oanh đâu bạn mình đi chiba","can_remove":false,"created_time":"2014-03-31T15:46:38+0000","like_count":1,"user_likes":false},"843001302383215":{"id":"843001302383215","from":{"id":"100006263888044","name":"Hoàng Oanh"},"message":"ô the minh dnag nc voi hoang huong ma tra xung chi","can_remove":false,"created_time":"2014-03-31T15:46:50+0000","like_count":0,"user_likes":false},"843001569049855":{"id":"843001569049855","from":{"id":"100004745953163","name":"Bo Tròn Ngyễn"},"message":"xin lỗi.mk nhầm.hỳ. Hoàng Oanh","can_remove":false,"created_time":"2014-03-31T15:47:07+0000","like_count":0,"user_likes":false},"843001715716507":{"id":"843001715716507","from":{"id":"100006263888044","name":"Hoàng Oanh"},"message":"minh dang nc voi hoang huong ma b thuy arie","can_remove":false,"created_time":"2014-03-31T15:47:37+0000","like_count":1,"user_likes":false},"843002419049770":{"id":"843002419049770","from":{"id":"100004745953163","name":"Bo Tròn Ngyễn"},"message":"Hoàng Hương.ừ.mình đi khu vực khác nk cũng gần chỗ bạn sao ý.","can_remove":false,"created_time":"2014-03-31T15:48:23+0000","like_count":1,"user_likes":false},"843003945716284":{"id":"843003945716284","from":{"id":"100003381475331","name":"Hoàng Hương"},"message":"hig mong là gần đồng hương giúp đỡ nhau nhé :))","can_remove":false,"created_time":"2014-03-31T15:49:51+0000","like_count":0,"user_likes":false},"843004065716272":{"id":"843004065716272","from":{"id":"100006263888044","name":"Hoàng Oanh"},"message":"nc voi cai e o inbõ ma hoi chị buc minh qua hoang huong ạ","can_remove":false,"created_time":"2014-03-31T15:50:06+0000","like_count":0,"user_likes":false},"843004979049514":{"id":"843004979049514","from":{"id":"100003381475331","name":"Hoàng Hương"},"message":"có chuyện gì thế chị, sao lại bực mình, bình tĩnh nào :))","can_remove":false,"created_time":"2014-03-31T15:51:25+0000","like_count":0,"user_likes":false},"843005209049491":{"id":"843005209049491","from":{"id":"100004745953163","name":"Bo Tròn Ngyễn"},"message":"oke bạn.yoroshjku onegaishjmasu.:-)","can_remove":false,"created_time":"2014-03-31T15:52:01+0000","like_count":1,"user_likes":false},"843005265716152":{"id":"843005265716152","from":{"id":"100006263888044","name":"Hoàng Oanh"},"message":"e ý toàn hỏi vớ vẩn thui e ý bảo là e ý ko muốn đi du học mà muon sang day định cư cơ ma c noi cho e day bit rui ma cứ hỏi mai thôi","can_remove":false,"created_time":"2014-03-31T15:52:20+0000","like_count":0,"user_likes":false},"843006139049398":{"id":"843006139049398","from":{"id":"100003381475331","name":"Hoàng Hương"},"message":"hì cái khoản định cư còn mỗi ng 1 trường hợp mà, chị nói với bạn ý hỏi tư vấn của các trung tâm hay tư vấn gì đó chứ sao mà chị  có thể nắm rõ đc","can_remove":false,"created_time":"2014-03-31T15:53:48+0000","like_count":0,"user_likes":false},"843006289049383":{"id":"843006289049383","from":{"id":"100006263888044","name":"Hoàng Oanh"},"message":"ko thích đi du hoc nhung lai thich sống bên đó cơ.ko có nguoi bao lanh thi có mà sang bốc trấu mà sống","can_remove":false,"created_time":"2014-03-31T15:53:51+0000","like_count":1,"user_likes":false},"843007319049280":{"id":"843007319049280","from":{"id":"100006263888044","name":"Hoàng Oanh"},"message":"lại hỏi là e muon ket hôn thì moi dc o lau nam ben day ah.chiu thoi e ý như bi lam sao ý","can_remove":false,"created_time":"2014-03-31T15:55:00+0000","like_count":1,"user_likes":false},"843007365715942":{"id":"843007365715942","from":{"id":"100003381475331","name":"Hoàng Hương"},"message":"chị nên bảo bạn ý là chị chỉ biết thế thôi và kết thúc cuộc nói chuyện thì tốt hơn chị ah,","can_remove":false,"created_time":"2014-03-31T15:55:08+0000","like_count":0,"user_likes":false},"843007785715900":{"id":"843007785715900","from":{"id":"100006271507308","name":"Bùi Quỳnh Anh XS"},"message":"Hoàng Hương chị ơi làm s để đc qa nhật chị?","message_tags":[{"id":"100003381475331","name":"Hoàng Hương","type":"user","offset":0,"length":11}],"can_remove":false,"created_time":"2014-03-31T15:56:06+0000","like_count":0,"user_likes":false},"843007942382551":{"id":"843007942382551","from":{"id":"100006263888044","name":"Hoàng Oanh"},"message":"uh.toan hoi vo vam sang đấy mà đi gập maria ozawa","can_remove":false,"created_time":"2014-03-31T15:56:29+0000","like_count":1,"user_likes":false},"843008149049197":{"id":"843008149049197","from":{"id":"100006263888044","name":"Hoàng Oanh"},"message":"chuc e len duong may man nhe.hoang huong","can_remove":false,"created_time":"2014-03-31T15:57:19+0000","like_count":1,"user_likes":false},"843008215715857":{"id":"843008215715857","from":{"id":"100003381475331","name":"Hoàng Hương"},"message":"Bùi Quỳnh Anh ơi cái này chị cũng ko rõ em có thể đi du học tự túc, đi du học qua trung tâm, trường đh or công ty xuất khẩu lđ","can_remove":false,"created_time":"2014-03-31T15:57:40+0000","like_count":1,"user_likes":false},"843008469049165":{"id":"843008469049165","from":{"id":"100003381475331","name":"Hoàng Hương"},"message":"Hoàng Oanh#: vâng em cảm ơn chị nhé","can_remove":false,"created_time":"2014-03-31T15:58:17+0000","like_count":0,"user_likes":false},"843008935715785":{"id":"843008935715785","from":{"id":"100006263888044","name":"Hoàng Oanh"},"message":"doitasimasite!!!","can_remove":false,"created_time":"2014-03-31T15:58:58+0000","like_count":1,"user_likes":false},"843009359049076":{"id":"843009359049076","from":{"id":"100006271507308","name":"Bùi Quỳnh Anh XS"},"message":"Hoàng Hương chị học ở trường z bây h chị đi qua nhật..z h chị qua nhật làm hả chị?:)","message_tags":[{"id":"100003381475331","name":"Hoàng Hương","type":"user","offset":0,"length":11}],"can_remove":false,"created_time":"2014-03-31T15:59:46+0000","like_count":1,"user_likes":false},"843009669049045":{"id":"843009669049045","from":{"id":"100003381475331","name":"Hoàng Hương"},"message":"chị qua học tiếng và ngày mai chị đi Quynh anh ạ","can_remove":false,"created_time":"2014-03-31T16:00:22+0000","like_count":1,"user_likes":false},"843010052382340":{"id":"843010052382340","from":{"id":"100006271507308","name":"Bùi Quỳnh Anh XS"},"message":"hồi trước chị có học tiếng nhật k chị Hoàng Hương","message_tags":[{"id":"100003381475331","name":"Hoàng Hương","type":"user","offset":38,"length":11}],"can_remove":false,"created_time":"2014-03-31T16:01:17+0000","like_count":1,"user_likes":false},"843011395715539":{"id":"843011395715539","from":{"id":"100006263888044","name":"Hoàng Oanh"},"message":"c hoc dc may nam rui e ak.nhung that su chi ko thich di nhat e ạ","can_remove":false,"created_time":"2014-03-31T16:02:15+0000","like_count":2,"user_likes":false},"843012839048728":{"id":"843012839048728","from":{"id":"100006263888044","name":"Hoàng Oanh"},"message":"vi bme o ben day nen c fai theo sag day hoc thoi.ko o nha 1 minh dc","can_remove":false,"created_time":"2014-03-31T16:02:47+0000","like_count":1,"user_likes":false}},"paging":{"cursors":{"after":"ODQyOTgxNzc1NzE4NTAx","before":"ODQyOTgxNzc1NzE4NTAx"},"next":"https://graph.facebook.com/229244010425617_842978982385447/comments?limit=1&summary=1&after=ODQyOTgxNzc1NzE4NTAx"},"summary":{"order":"chronological","total_count":60}}}