{"id":"229244010425617_843050629044949","type":"link","picture":"https://fbexternal-a.akamaihd.net/safe_image.php?d=AQCkRyMcNnEwo2HP&w=154&h=154&url=http%3A%2F%2Fl.f32.img.vnecdn.net%2F2014%2F03%2F31%2Fdfa1-1396236063_490x294.jpg","link":"http://vnexpress.net/tin-tuc/the-gioi/philippines-nop-4-000-trang-tai-lieu-kien-trung-quoc-2971192.html","from":{"id":"100000603915176","name":"悪いな ぁ"},"message":"Căng quá đi, tình hình này căng quá đi! Liệu Mỹ có nhảy vào không? Hình như Trung Quốc đang doạ tấn công :3","created_time":"2014-03-31T17:11:14+0000","updated_time":"2014-04-01T05:54:41+0000","likes":{"data":{"100006734168968":{"id":"100006734168968","name":"Tiểu Nhân Mã"},"100001292564389":{"id":"100001292564389","name":"Tran Viet"},"100000210071666":{"id":"100000210071666","name":"Vjt Sóc Suzzy"},"100001416272263":{"id":"100001416272263","name":"Mai PB"},"100006030062964":{"id":"100006030062964","name":"Tùng Lâm"},"100003913383051":{"id":"100003913383051","name":"Tho Tran"},"100003254627434":{"id":"100003254627434","name":"Belongs To Nắng"},"100004046108560":{"id":"100004046108560","name":"MiSo Cochunho"},"100006271507308":{"id":"100006271507308","name":"Bùi Quỳnh Anh XS"},"100000500260636":{"id":"100000500260636","name":"Lưu Nguyễn Thảo Tiên"},"100005211189763":{"id":"100005211189763","name":"Oliveu Cchann"},"100004520614057":{"id":"100004520614057","name":"Dương Quỳnh Hoa"},"100001663326777":{"id":"100001663326777","name":"Yuri Chan"},"100001432462223":{"id":"100001432462223","name":"Truong Nguyen"},"1725907325":{"id":"1725907325","name":"Nguyen Van Dung"}},"paging":{"cursors":{"after":"MTAwMDA2NzM0MTY4OTY4","before":"MTAwMDA2NzM0MTY4OTY4"},"next":"https://graph.facebook.com/229244010425617_843050629044949/likes?limit=1&summary=1&after=MTAwMDA2NzM0MTY4OTY4"},"summary":{"total_count":15}},"comments":{"data":{"843052335711445":{"id":"843052335711445","from":{"id":"100001432462223","name":"Truong Nguyen"},"message":"tòa án quốc tế ah ? nhảy gì đây :))","can_remove":false,"created_time":"2014-03-31T17:15:39+0000","like_count":0,"user_likes":false},"843052785711400":{"id":"843052785711400","from":{"id":"100000603915176","name":"悪いな ぁ"},"message":"Không biết TV bên Nhật đã báo tin này lên chưa nhỉ?","can_remove":false,"created_time":"2014-03-31T17:16:43+0000","like_count":0,"user_likes":false},"843054115711267":{"id":"843054115711267","from":{"id":"100001432462223","name":"Truong Nguyen"},"message":":3 sao kiện lúc này ta :v","can_remove":false,"created_time":"2014-03-31T17:18:55+0000","like_count":0,"user_likes":false},"843054395711239":{"id":"843054395711239","from":{"id":"100003031372273","name":"Đào Thanh Tùng"},"message":"sự kiện này xảy ra hôm nay nè 1/4 đó","can_remove":false,"created_time":"2014-03-31T17:19:29+0000","like_count":0,"user_likes":false},"843054829044529":{"id":"843054829044529","from":{"id":"100000603915176","name":"悪いな ぁ"},"message":":v","can_remove":false,"created_time":"2014-03-31T17:20:19+0000","like_count":0,"user_likes":false},"843055092377836":{"id":"843055092377836","from":{"id":"100001432462223","name":"Truong Nguyen"},"message":":)) 1/4 đùa với tòa án quốc tế sao :v","can_remove":false,"created_time":"2014-03-31T17:21:04+0000","like_count":0,"user_likes":false},"843055345711144":{"id":"843055345711144","from":{"id":"100000603915176","name":"悪いな ぁ"},"message":"Các bác lói thía lào í chứ, hem bít đọc hử, tiêu đề ló ghi nù nù ra đoá :3","can_remove":false,"created_time":"2014-03-31T17:21:58+0000","like_count":0,"user_likes":false},"843055872377758":{"id":"843055872377758","from":{"id":"100004006950326","name":"Ngọc Gia Bảo"},"message":"Việt Nam cũng phải học hỏi vậy chứ , cứ như rùa rút đầu để nhìn giặc xâm phạm lãnh thổ","can_remove":false,"created_time":"2014-03-31T17:23:17+0000","like_count":0,"user_likes":false},"843056099044402":{"id":"843056099044402","from":{"id":"100003031372273","name":"Đào Thanh Tùng"},"message":"Nhân sự kiện 悪いな ぁ vừa post Hình như phía Nhật chuẩn bị cho DHS, TNS các nước ngoài về nước hết không chiến tranh hạt nhân giữa Nhật và TQ xảy ra đó :v","can_remove":false,"created_time":"2014-03-31T17:23:48+0000","like_count":3,"user_likes":false},"843056259044386":{"id":"843056259044386","from":{"id":"100002716525116","name":"Nguyễn Tất Nguyên"},"message":"Giật tít là Nhật.... trong bài là philipin. @@","can_remove":false,"created_time":"2014-03-31T17:24:06+0000","like_count":1,"user_likes":false},"843056575711021":{"id":"843056575711021","from":{"id":"100000603915176","name":"悪いな ぁ"},"message":"Ơ, cái bọn VNExpress nó sửa lại bài à, láo nhề","can_remove":false,"created_time":"2014-03-31T17:25:02+0000","like_count":0,"user_likes":false},"843056732377672":{"id":"843056732377672","from":{"id":"100001432462223","name":"Truong Nguyen"},"message":"Nhật ko có hạt nhân :3","can_remove":false,"created_time":"2014-03-31T17:25:14+0000","like_count":0,"user_likes":false},"843057259044286":{"id":"843057259044286","from":{"id":"100000603915176","name":"悪いな ぁ"},"message":"Nhật có điện hạt nhân, thường khi chiến tranh họ sẽ ném mấy thùng điện xuống đầu kẻ thù :D","can_remove":false,"created_time":"2014-03-31T17:26:36+0000","like_count":0,"user_likes":false},"843057702377575":{"id":"843057702377575","from":{"id":"100003031372273","name":"Đào Thanh Tùng"},"message":"TQ không thắng dc đâu Nhật có đội đặc công siêu nhân GAO rồi.","can_remove":false,"created_time":"2014-03-31T17:27:43+0000","like_count":0,"user_likes":false},"843058225710856":{"id":"843058225710856","from":{"id":"100000603915176","name":"悪いな ぁ"},"message":"Thực ra các bác không biết đấy thôi, nghe nói mấy năm trước Nhật có một kho vũ khí nguyên tử đặt ngầm ở khu vực Yokohama đấy, mạnh lắm :3","can_remove":false,"created_time":"2014-03-31T17:28:45+0000","like_count":0,"user_likes":false},"843058245710854":{"id":"843058245710854","from":{"id":"100001432462223","name":"Truong Nguyen"},"message":"này là sao a Cú  :3","can_remove":false,"created_time":"2014-03-31T17:28:51+0000","like_count":4,"user_likes":false},"843058515710827":{"id":"843058515710827","from":{"id":"100000603915176","name":"悪いな ぁ"},"message":"Tệ thật, tin tức loạn thía :3","can_remove":false,"created_time":"2014-03-31T17:29:21+0000","like_count":1,"user_likes":false},"843058789044133":{"id":"843058789044133","from":{"id":"100001432462223","name":"Truong Nguyen"},"message":"kiểu ném kia của a gọi là bom bẩn :3","can_remove":false,"created_time":"2014-03-31T17:30:04+0000","like_count":0,"user_likes":false},"843058972377448":{"id":"843058972377448","from":{"id":"100001432462223","name":"Truong Nguyen"},"message":"yêu cầu giải thích vụ loan tin thất thiệt, mà VN nộp thật, đánh nhau to :v","can_remove":false,"created_time":"2014-03-31T17:30:35+0000","like_count":0,"user_likes":false},"843059059044106":{"id":"843059059044106","from":{"id":"100003031372273","name":"Đào Thanh Tùng"},"message":"đúng đó ban Truong Nguyen 4000 trang tài liệu này là vốn ODA của Nhật viên trợ cho VN cùng Nhật kiện TQ đó :v","can_remove":false,"created_time":"2014-03-31T17:30:46+0000","like_count":0,"user_likes":false},"843059785710700":{"id":"843059785710700","from":{"id":"100000603915176","name":"悪いな ぁ"},"message":"Không biết trong group có ai gốc Hoa không nhỉ :))","can_remove":false,"created_time":"2014-03-31T17:32:09+0000","like_count":0,"user_likes":false},"843065829043429":{"id":"843065829043429","from":{"id":"100000382278651","name":"Thanh Huyen"},"message":"Đúng là thông tin truyền từ người này đến người khác đax bị nhiễu tin rui. Tam sao thất bản: \"Philippines nộp 4.000 trang tài liệu kiện Trung Quốc\nPhilippines nộp bằng chứng lên tòa án quốc tế để phản đối các yêu sách về lãnh thổ của Trung Quốc trên Biển Đông, bất chấp Bắc Kinh cảnh báo động thái trên sẽ ảnh hưởng tới quan hệ giữa hai nước.\nTàu Philippines phá thế phong tỏa của Trung Quốc ở Biển Đông / Philippines tố Trung Quốc dùng vòi rồng đuổi tàu cá\n...\"","can_remove":false,"created_time":"2014-03-31T17:47:42+0000","like_count":0,"user_likes":false},"843066105710068":{"id":"843066105710068","from":{"id":"100001432462223","name":"Truong Nguyen"},"message":":3 đấy bạn xem :v","can_remove":false,"created_time":"2014-03-31T17:48:22+0000","like_count":0,"user_likes":false},"843066329043379":{"id":"843066329043379","from":{"id":"100000382278651","name":"Thanh Huyen"},"message":"Các pac nha mình hóng giỏi thật. Pái pục pái puc","can_remove":false,"created_time":"2014-03-31T17:48:53+0000","like_count":0,"user_likes":false},"843067989043213":{"id":"843067989043213","from":{"id":"100001432462223","name":"Truong Nguyen"},"message":":3 a Cú có  vào xin lỗi đi kìa :3 ng đẹp nóng rồi","can_remove":false,"created_time":"2014-03-31T17:52:25+0000","like_count":0,"user_likes":false},"843068302376515":{"id":"843068302376515","from":{"id":"100000382278651","name":"Thanh Huyen"},"message":"Philippines nộp 4.000 trang tài liệu kiện Trung Quốc\nNgoại trưởng Philippines Albert del Roảio.","can_remove":false,"created_time":"2014-03-31T17:53:11+0000","like_count":0,"user_likes":false},"843068575709821":{"id":"843068575709821","from":{"id":"100003031372273","name":"Đào Thanh Tùng"},"message":":v ai post stt vô xin lỗi đi kìa :v","can_remove":false,"created_time":"2014-03-31T17:54:14+0000","like_count":0,"user_likes":false},"843068705709808":{"id":"843068705709808","from":{"id":"100000382278651","name":"Thanh Huyen"},"message":"Hahaaa...","can_remove":false,"created_time":"2014-03-31T17:54:37+0000","like_count":0,"user_likes":false},"843069252376420":{"id":"843069252376420","from":{"id":"100001432462223","name":"Truong Nguyen"},"message":"bạn Huyền có thể chia sẻ bí quyết sao để bạn tiếp cận thông tin tốt như vậy đc ko :v","can_remove":false,"created_time":"2014-03-31T17:55:59+0000","like_count":0,"user_likes":false},"843069829043029":{"id":"843069829043029","from":{"id":"100000382278651","name":"Thanh Huyen"},"message":"Đơn giản thui vi minh có đc đao tao qua ve chuyên ngành Thông tin ma. Hiii","can_remove":false,"created_time":"2014-03-31T17:57:31+0000","like_count":0,"user_likes":false},"843070565709622":{"id":"843070565709622","from":{"id":"100001432462223","name":"Truong Nguyen"},"message":"thế ạh, may quá, nhân nay ngày đầu tháng, bạn chia sẻ đc ko ạh :v","can_remove":false,"created_time":"2014-03-31T17:58:15+0000","like_count":0,"user_likes":false},"843071965709482":{"id":"843071965709482","from":{"id":"100000382278651","name":"Thanh Huyen"},"message":"Bí kip gia truyền, tiết lộ...!","can_remove":false,"created_time":"2014-03-31T18:00:16+0000","like_count":0,"user_likes":false},"843073165709362":{"id":"843073165709362","from":{"id":"100001432462223","name":"Truong Nguyen"},"message":":3 sao bạn lỡ làm thế, hâm mộ quá mà :v khi mà thông tin đi sai, bị cá nhân bóp méo, bạn đã đến khai sáng. Vậy mà khai sáng nửa vời sao :3","can_remove":false,"created_time":"2014-03-31T18:03:00+0000","like_count":0,"user_likes":false},"843075305709148":{"id":"843075305709148","from":{"id":"1146680551","name":"優しい なぁ"},"message":"Nhật mừ:) e đã đọc đi đọc lại 3 lần rùi. Không phải vn đâu đới :3","can_remove":false,"created_time":"2014-03-31T18:09:18+0000","like_count":0,"user_likes":false},"843075619042450":{"id":"843075619042450","from":{"id":"100000603915176","name":"悪いな ぁ"},"message":"Ui, sorry bạn Thanh Huyen, vừa đi wc một tí mà vào đã bị hạch tội rùi :3","message_tags":[{"id":"100000382278651","name":"Thanh Huyen","type":"user","offset":14,"length":11}],"can_remove":false,"created_time":"2014-03-31T18:10:17+0000","like_count":0,"user_likes":false},"843075872375758":{"id":"843075872375758","from":{"id":"100000382278651","name":"Thanh Huyen"},"message":"Mình bật mí nhỏ nha, đơn giản là ở stt có ảnh Ngoại trưởng Philippines, Quốc huy off Philippines.","can_remove":false,"created_time":"2014-03-31T18:11:08+0000","like_count":1,"user_likes":false},"843075899042422":{"id":"843075899042422","from":{"id":"100001432462223","name":"Truong Nguyen"},"message":"xl chậm bạn ấy ko tiết lộ bí quyết kìa :3","can_remove":false,"created_time":"2014-03-31T18:11:13+0000","like_count":0,"user_likes":false},"843076049042407":{"id":"843076049042407","from":{"id":"100000603915176","name":"悪いな ぁ"},"message":"Hía hía :v","can_remove":false,"created_time":"2014-03-31T18:11:40+0000","like_count":0,"user_likes":false},"843076519042360":{"id":"843076519042360","from":{"id":"100000382278651","name":"Thanh Huyen"},"message":"Bạn Truong Nguyen. Bạn chú ý ảnh ở stt. Hehee...","can_remove":false,"created_time":"2014-03-31T18:13:20+0000","like_count":0,"user_likes":false},"843076912375654":{"id":"843076912375654","from":{"id":"100001432462223","name":"Truong Nguyen"},"message":"chuẩn chuẩn, \"soi\" quá chuẩn luôn :v ae chú ý nha :))","can_remove":false,"created_time":"2014-03-31T18:14:33+0000","like_count":0,"user_likes":false},"843077055708973":{"id":"843077055708973","from":{"id":"1146680551","name":"優しい なぁ"},"message":"Ô hay rõ ràng là bác phó tổng thống nhật mà em","can_remove":false,"created_time":"2014-03-31T18:15:03+0000","like_count":0,"user_likes":false},"843077095708969":{"id":"843077095708969","from":{"id":"100000603915176","name":"悪いな ぁ"},"message":"Nàm thao mà thay lổi cái ảnh đoá :((","can_remove":false,"created_time":"2014-03-31T18:15:11+0000","like_count":0,"user_likes":false},"843077312375614":{"id":"843077312375614","from":{"id":"100000382278651","name":"Thanh Huyen"},"message":"Thế nó mới độc chứ. Hahaa...","can_remove":false,"created_time":"2014-03-31T18:16:02+0000","like_count":0,"user_likes":false},"843077732375572":{"id":"843077732375572","from":{"id":"1146680551","name":"優しい なぁ"},"message":"Mà có tin mới nè bà con","can_remove":false,"created_time":"2014-03-31T18:17:16+0000","like_count":0,"user_likes":false},"843077859042226":{"id":"843077859042226","from":{"id":"100000382278651","name":"Thanh Huyen"},"message":"Phó Tổng thống Nhật và Ngoại trưởng Philippines k phân piệt đc sao ...???","can_remove":false,"created_time":"2014-03-31T18:17:48+0000","like_count":0,"user_likes":false},"843078482375497":{"id":"843078482375497","from":{"id":"1146680551","name":"優しい なぁ"},"message":"Mình đã gặp 3 lần rồi đới. Chắc chắn là phó tổng thống Nhật ố zà woa :3","can_remove":false,"created_time":"2014-03-31T18:19:24+0000","like_count":0,"user_likes":false},"843080395708639":{"id":"843080395708639","from":{"id":"100000382278651","name":"Thanh Huyen"},"message":"Eー! Nhật bản làm ji có Phó tổng thống. Khakhaa","can_remove":false,"created_time":"2014-03-31T18:23:15+0000","like_count":0,"user_likes":false},"843080852375260":{"id":"843080852375260","from":{"id":"100001432462223","name":"Truong Nguyen"},"message":"lại nói hớ kìa :))","can_remove":false,"created_time":"2014-03-31T18:24:42+0000","like_count":0,"user_likes":false},"843081379041874":{"id":"843081379041874","from":{"id":"100001432462223","name":"Truong Nguyen"},"message":"e có cái này :3 lọan mất","can_remove":false,"created_time":"2014-03-31T18:26:10+0000","like_count":0,"user_likes":false},"843081475708531":{"id":"843081475708531","from":{"id":"1146680551","name":"優しい なぁ"},"message":"Ố mình nhầm, Phó chủ tịch ạ :3","can_remove":false,"created_time":"2014-03-31T18:26:29+0000","like_count":0,"user_likes":false},"843081619041850":{"id":"843081619041850","from":{"id":"100000382278651","name":"Thanh Huyen"},"message":"Đi ngủ thoai muon rui. Các pac おやすみなさい。","can_remove":false,"created_time":"2014-03-31T18:26:59+0000","like_count":1,"user_likes":false},"843082442375101":{"id":"843082442375101","from":{"id":"100000382278651","name":"Thanh Huyen"},"message":"Vụ này e like pac Truong Nguyen","can_remove":false,"created_time":"2014-03-31T18:29:33+0000","like_count":0,"user_likes":false},"843083612374984":{"id":"843083612374984","from":{"id":"100001432462223","name":"Truong Nguyen"},"message":"làm gì đâu ạh :3 cám ơn ko hết nữa mà :)","can_remove":false,"created_time":"2014-03-31T18:32:31+0000","like_count":0,"user_likes":false},"843140815702597":{"id":"843140815702597","from":{"id":"100004965278923","name":"Chuông Gió"},"message":"Hic, hom trc 24h đưa tin là philippin mà. Sao hôm nay lại là Nhật và VN nhỉ。có sự nhầm lẫn ko.((","can_remove":false,"created_time":"2014-03-31T20:57:49+0000","like_count":0,"user_likes":false},"843274489022563":{"id":"843274489022563","from":{"id":"100000603915176","name":"悪いな ぁ"},"message":"Kg nhầm đâu bạn","can_remove":false,"created_time":"2014-04-01T02:31:37+0000","like_count":0,"user_likes":false},"843275879022424":{"id":"843275879022424","from":{"id":"100001432462223","name":"Truong Nguyen"},"message":":v","can_remove":false,"created_time":"2014-04-01T02:37:17+0000","like_count":0,"user_likes":false},"843292095687469":{"id":"843292095687469","from":{"id":"100001546837960","name":"Chung Goldstar"},"message":"Trung + không dám oánh nhau đâu.","can_remove":false,"created_time":"2014-04-01T03:32:45+0000","like_count":0,"user_likes":false},"843319759018036":{"id":"843319759018036","from":{"id":"100001292564389","name":"Tran Viet"},"message":"sao ghi nhật kiện TQ    +.+\nphilippin mà","can_remove":false,"created_time":"2014-04-01T04:38:03+0000","like_count":0,"user_likes":false},"843320065684672":{"id":"843320065684672","from":{"id":"100001432462223","name":"Truong Nguyen"},"message":":))","can_remove":false,"created_time":"2014-04-01T04:38:38+0000","like_count":1,"user_likes":false},"843347092348636":{"id":"843347092348636","from":{"id":"1146680551","name":"優しい なぁ"},"message":":3","can_remove":false,"created_time":"2014-04-01T05:54:41+0000","like_count":0,"user_likes":false}},"paging":{"cursors":{"after":"ODQzMDUyMzM1NzExNDQ1","before":"ODQzMDUyMzM1NzExNDQ1"},"next":"https://graph.facebook.com/229244010425617_843050629044949/comments?limit=1&summary=1&after=ODQzMDUyMzM1NzExNDQ1"},"summary":{"order":"chronological","total_count":60}}}