{"id":"229244010425617_843081315708547","type":"photo","object_id":"609131989174449","picture":"https://fbcdn-photos-c-a.akamaihd.net/hphotos-ak-frc1/t1.0-0/10151243_609131989174449_1748276670_s.jpg","link":"https://www.facebook.com/photo.php?fbid=609131989174449&set=gm.843081315708547&type=1&relevant_count=1","from":{"id":"100002329594159","name":"Đời Phiêu Lãng"},"message":"Anh chị em cẩn thận, Vì mình đã bị lừa","created_time":"2014-03-31T18:25:59+0000","updated_time":"2014-04-07T05:52:58+0000","likes":{"data":{"100005275411260":{"id":"100005275411260","name":"Hoa Của Nắng"},"100003279184320":{"id":"100003279184320","name":"Nguyen Long Hoang"},"100003254627434":{"id":"100003254627434","name":"Belongs To Nắng"},"100006974080148":{"id":"100006974080148","name":"Pek Cỏ"},"100000474967022":{"id":"100000474967022","name":"The Vinh"},"100003111105864":{"id":"100003111105864","name":"Doanh Phan Van"},"100007948051692":{"id":"100007948051692","name":"Kinh Lup Yeu Doi"},"100003715998997":{"id":"100003715998997","name":"Hoàng Thông Ramos"},"100004572486220":{"id":"100004572486220","name":"Sương Đêm"},"100002916790804":{"id":"100002916790804","name":"Sư Tử"},"100006382505425":{"id":"100006382505425","name":"Linh Tú"},"100004435534950":{"id":"100004435534950","name":"Ốc Đá"},"100003883612858":{"id":"100003883612858","name":"Cậu Út"},"100001057467030":{"id":"100001057467030","name":"Buông Tay"},"100003466287943":{"id":"100003466287943","name":"Kim Chi Saki Loyal"},"100003250099399":{"id":"100003250099399","name":"Đảng Phương"},"100002345543175":{"id":"100002345543175","name":"Nguyễn Tiến Dĩnh"},"100003574946076":{"id":"100003574946076","name":"Minhh Hảii"},"100006682892241":{"id":"100006682892241","name":"Chang Lien Quan"},"100003541155273":{"id":"100003541155273","name":"ɞ Lâm Ct ʚ"},"100000211237467":{"id":"100000211237467","name":"Nguyễn Thị Hà"},"100003297697938":{"id":"100003297697938","name":"Vân Nguyễn"},"100000644733146":{"id":"100000644733146","name":"Thuy Pham Duc"},"100006718418391":{"id":"100006718418391","name":"Hà Quân"},"100006367092088":{"id":"100006367092088","name":"Son Nguyenthuy"},"100004348001227":{"id":"100004348001227","name":"Lâm Gia Kiu"},"100005839267253":{"id":"100005839267253","name":"Thanh Daoxuan"},"100001458099624":{"id":"100001458099624","name":"Kham Pha"},"100003779387909":{"id":"100003779387909","name":"Tom Tommy"},"100002993632427":{"id":"100002993632427","name":"Mỹ Vân"},"100003093338327":{"id":"100003093338327","name":"Linh Nguyen"},"100003002812107":{"id":"100003002812107","name":"Phuc Tong"},"100001432462223":{"id":"100001432462223","name":"Truong Nguyen"},"100001362770102":{"id":"100001362770102","name":"Le Trinh"},"100002469422165":{"id":"100002469422165","name":"Duc Nguyen"},"100005350922337":{"id":"100005350922337","name":"Đặng Hằng"},"100006859893056":{"id":"100006859893056","name":"Yến Thanh"},"100004531839852":{"id":"100004531839852","name":"Ryuu Ichirou Nguyen"},"525828985":{"id":"525828985","name":"Cindy Taiki"},"100004456541864":{"id":"100004456541864","name":"Nha Gia"},"100002147884296":{"id":"100002147884296","name":"Ngoc Tran"},"100004649584363":{"id":"100004649584363","name":"Nguyen Thj Chjn Nguyen"},"100001381487754":{"id":"100001381487754","name":"Nguyễn Thế Hà"},"100007051600515":{"id":"100007051600515","name":"Giang Nguyễn"},"100004296428209":{"id":"100004296428209","name":"Cu Cau"},"100006208266390":{"id":"100006208266390","name":"Memory Hd"},"100004621177594":{"id":"100004621177594","name":"Huy Luong"},"100000381942173":{"id":"100000381942173","name":"Vì Nghèo Mà Ra"},"100000163391277":{"id":"100000163391277","name":"Viet Bui"},"100002329594159":{"id":"100002329594159","name":"Đời Phiêu Lãng"},"100003363934206":{"id":"100003363934206","name":"Vũ Trung Kiên"},"100004084747950":{"id":"100004084747950","name":"Chưởng Chịu Chơi"},"100004604679926":{"id":"100004604679926","name":"Đổi Thay"},"100000317758240":{"id":"100000317758240","name":"Long Cô Hồn"},"100001824172942":{"id":"100001824172942","name":"Phan Van"},"100003145230878":{"id":"100003145230878","name":"Anh Chu"},"100003583455476":{"id":"100003583455476","name":"Huong Lan"},"100004006950326":{"id":"100004006950326","name":"Ngọc Gia Bảo"},"100002339089186":{"id":"100002339089186","name":"Thinh Nguyen Viet"}},"paging":{"cursors":{"after":"MTAwMDA1Mjc1NDExMjYw","before":"MTAwMDA1Mjc1NDExMjYw"},"next":"https://graph.facebook.com/229244010425617_843081315708547/likes?limit=1&summary=1&after=MTAwMDA1Mjc1NDExMjYw"},"summary":{"total_count":59}},"comments":{"data":{"843083779041634":{"id":"843083779041634","from":{"id":"100001824172942","name":"Phan Van"},"message":"Tiến Nguyễn Công","message_tags":[{"id":"1694966999","name":"Tiến Nguyễn Công","type":"user","offset":0,"length":16}],"can_remove":false,"created_time":"2014-03-31T18:33:04+0000","like_count":1,"user_likes":false},"843096095707069":{"id":"843096095707069","from":{"id":"1725907325","name":"Nguyen Van Dung"},"message":"Người việt nam được phân làm 2 loại \"tiêu biểu\" thế này\n\n1. hễ khôn hơn người khác một tí là lừa người khác\n\n2. Dễ bị người khác lừa như là người lớn dùng kẹo dụ trẻ con vậy\n\nCòn nhiều loại khac nữa ví dụ: hễ thấy ai giàu có hơn mình một tí là dòm ngó, gièm pha, nói xấu...\n\nNhững kiểu dạng người như trên thường là thiển học do đó ko biết được đâu là giả, đâu là thật, đâu là thiện là ác.! \n\nThằng khôn lỏi khi bị bắt mới biết thân, thằng khờ khạo ăn kẹo đắng mới biết dại.\n\nHãy mau mau tỉnh ngộ, mau mau tỉnh ngộ.","can_remove":false,"created_time":"2014-03-31T19:09:07+0000","like_count":11,"user_likes":false},"843100859039926":{"id":"843100859039926","from":{"id":"100004621177594","name":"Huy Luong"},"message":"Con me thang cho","can_remove":false,"created_time":"2014-03-31T19:21:48+0000","like_count":1,"user_likes":false},"843107959039216":{"id":"843107959039216","from":{"id":"100003398911005","name":"Họ Tạ Tên Nam"},"message":"Hôi của :v giống vụ hôi gì gì đó ở nhà nó ý nhờ","can_remove":false,"created_time":"2014-03-31T19:41:15+0000","like_count":1,"user_likes":false},"843110339038978":{"id":"843110339038978","from":{"id":"100004006950326","name":"Ngọc Gia Bảo"},"message":"Chính vì bị người khác nhìn là kẻ cắp, nên công dân Việt Nam đi ra nước ngoài bị kỳ thị, tệ hơn là bị khinh khi. Hãy cứ thẳng thắn như vậy để đau đớn và tỉnh ngộ. Từng có ý kiến cho rằng, làm sao để khi ra nước ngoài, cầm tấm hộ chiếu Việt Nam không phải xấu hổ, mà được tôn trọng như công dân Hàn Quốc, Nhật Bản. Ý kiến đó đã từng bị phê phán gay gắt, cho rằng người phát ngôn như vậy là không yêu nước...","can_remove":false,"created_time":"2014-03-31T19:47:31+0000","like_count":6,"user_likes":false},"843143612368984":{"id":"843143612368984","from":{"id":"100003349778730","name":"Ngọc Ngơ Ngơ"},"message":"Mất 50 man rồi thì bỏ thêm 25 man nữa mà mà thăm bố mẹ nó thôi ^^","can_remove":false,"created_time":"2014-03-31T21:05:53+0000","like_count":2,"user_likes":false},"843212642362081":{"id":"843212642362081","from":{"id":"1823443424","name":"Buff Xinh"},"message":"Giả làm visa con nuôi để ở lại Nhật vốn là việc phạm pháp, muốn đc visa vĩnh trú thì phải xin việc làm, đóng thuế đàng hoàng đủ số năm yêu cầu. Cứ có cầu về những việc phạm pháp thì lại nảy ra những mối cung phạm pháp, cái lý này cũng dễ hiểu mà. Giờ bị lừa rồi cũng chẳng thể đi báo cảnh sát được. Mọi người hãy rút kinh nghiệm, sống đàng hoàng và kiên nhẫn, cố gắng bằng khả năng của mình thì sẽ không bị vướng phải những chuyện thế này.","can_remove":false,"created_time":"2014-03-31T23:44:24+0000","like_count":1,"user_likes":false},"843225779027434":{"id":"843225779027434","from":{"id":"100001416272263","name":"Mai PB"},"message":"Vẫn báo cảnh sát được, mới chỉ định phạm tội thôi thì không bị tù gì đâu. Sở dĩ người phạm pháp nhởn nhơ vì biết rằng người bị lừa phần lớn không chịu ra ra cảnh sát tố cáo mà chỉ về nhà khóc. Đó là do yếu tố dân trí, và lỗi của Nhà Nước VN từ lâu đã làm hỏng lòng tin của dân vào hệ thống pháp quyền.","can_remove":false,"created_time":"2014-04-01T00:19:31+0000","like_count":3,"user_likes":false},"843275065689172":{"id":"843275065689172","from":{"id":"100006473177600","name":"Mít Ướt"},"message":"Viet nam","can_remove":false,"created_time":"2014-04-01T02:33:59+0000","like_count":1,"user_likes":false},"843303485686330":{"id":"843303485686330","from":{"id":"100003278861649","name":"Phạm Kim Quyền"},"message":"Arashi Vinh","message_tags":[{"id":"100000474967022","name":"Arashi Vinh","type":"user","offset":0,"length":11}],"can_remove":false,"created_time":"2014-04-01T03:54:11+0000","like_count":1,"user_likes":false},"843334845683194":{"id":"843334845683194","from":{"id":"100005953833214","name":"Roro Zoro"},"message":"Vãi thánh xuất hiện !!\nXin nhận của tiểu đệ 1 đập bái làm súc sinh :)","can_remove":false,"created_time":"2014-04-01T05:10:28+0000","like_count":1,"user_likes":false},"843610338988978":{"id":"843610338988978","from":{"id":"100002329594159","name":"Đời Phiêu Lãng"},"message":"với loại này. Cảnh sát chưa chắc làm được gì đâu các bác ạ. Thứ nhất có quyền. Thứ hai có tiền. Hai loại ấy cần tẩn cho một trận thì đúng hơn ý. mà tên này thuộc dạng thứ 2. Có tiền. Ai biết rồi sẽ thế nào. cho sống dở chết dở chắc hợp lí á","can_remove":false,"created_time":"2014-04-01T16:44:46+0000","like_count":1,"user_likes":false},"846504622032883":{"id":"846504622032883","from":{"id":"100002329594159","name":"Đời Phiêu Lãng"},"message":"Cảm ơn các bạn đã share nhiệt tình. Hi vọng là ai đó nhín thấy và tẩn cho nó trận. Và không ai dại dột nữa. hi.","can_remove":false,"created_time":"2014-04-06T14:44:33+0000","like_count":0,"user_likes":false},"846504985366180":{"id":"846504985366180","from":{"id":"100002329594159","name":"Đời Phiêu Lãng"},"message":"Nhà anh này có một vợ với đứa con nhỏ. nghe bảo là li dị rồi. chả bít thế nào. thấy có một mẹ già một vợ một con nhỏ ở nhà thui ạ. chẳng lẽ làm gì  họ","can_remove":false,"created_time":"2014-04-06T14:45:24+0000","like_count":1,"user_likes":false},"846946211988724":{"id":"846946211988724","from":{"id":"100006803468897","name":"Maria Maria"},"message":"Thằng này giỏi nhỉ!","can_remove":false,"created_time":"2014-04-07T05:52:58+0000","like_count":0,"user_likes":false}},"paging":{"cursors":{"after":"ODQzMDgzNzc5MDQxNjM0","before":"ODQzMDgzNzc5MDQxNjM0"},"next":"https://graph.facebook.com/229244010425617_843081315708547/comments?limit=1&summary=1&after=ODQzMDgzNzc5MDQxNjM0"},"summary":{"order":"chronological","total_count":15}}}