{"id":"229244010425617_843278022355543","type":"photo","object_id":"676032789121985","picture":"https://fbcdn-photos-c-a.akamaihd.net/hphotos-ak-prn1/t1.0-0/10150699_676032789121985_557932654_s.jpg","link":"https://www.facebook.com/photo.php?fbid=676032789121985&set=gm.843278022355543&type=1&relevant_count=1","from":{"id":"100001458099624","name":"Kham Pha"},"message":"[Những dấu hiệu bạn đã ở Nhật quá lâu] Phần 3:  Tàu đến muộn, lỗi tại ai?\n\nChào các bạn. Đã rất lâu rồi kể từ phần 2 của chuyên mục [Những dấu hiệu bạn đã ở Nhật quá lâu] ra mắt. Xin được nhắc lại chuyên mục không nhằm mục đích cung cấp cho người đọc bằng chứng để xác định rằng mình đã ở Nhật lâu hay chưa. Mà thực chất là cùng nhau lý giải do đâu những đặc điểm ấy lại chứng tỏ bạn đã ở Nhật quá lâu, hay nói cách khác là bạn đã nhiễm những đặc trưng của phong cách Nhật. Nhờ đó cho chúng ta cái nhìn cận cảnh về nước Nhật và con người Nhật thay vì những câu chuyện văn hóa cuối tuần với cái nhìn hời hợt đậm chất quảng cáo show hàng.\n\nHôm nay chúng ta sẽ đến với phần 3 mang tên  “Tàu đến muộn, lỗi tại ai?”. Đây có lẽ là một dấu hiệu thú vị và đặc tính Nhật, mà ngay cả người nước ngoài đến Nhật sau một thời gian cũng rất dễ bị lây nhiễm.\n\nTình huống là thế này. Khi bạn bắt một chiếc tàu điện hay một chiếc bus mà mãi không thấy nó đến, thông thường chúng ta sẽ nghĩ là tại nó chưa đến, nó đến muộn đúng không? Đó là suy nghĩ của hầu hết mọi người khi còn ở VN hoặc vừa mới sang Nhật. Nhưng do người Nhật rất coi trọng chuyện đúng giờ nên hệ thống giao thông công cộng ở Nhật cũng theo đó mà rất đúng giờ, chuyện tàu hay bus sai giờ (đặc biệt là tàu điện) là khá hiếm. Chúng ta hiểu “hiếm” ở đây theo nghĩa là tỉ lệ thấp trong hàng nghìn chuyến tàu qua ga hàng ngày. Vấn đề cũng từ đây mà phát sinh. Bởi vì độ tin cậy của hệ thống giao thông ở Nhật rất cao nên khi một chiếc tàu đến sai giờ, không ít người sẽ bắt đầu nghĩ “Mình đến sai giờ?”, “Mình đứng sai tuyến tàu?”... Nói tóm lại là bạn bắt đầu nghĩ tàu không đến là do lỗi tại bạn chứ không phải tại chiếc tàu. Thật lòng đi, có phải bạn đã từng nghĩ vậy không?\n\nLink các bài khác trong chuyên mục: \nhttps://www.facebook.com/notes/788876594462353\n\nCộng đồng Việt Nhật\n--Kham Pha","created_time":"2014-04-01T02:44:55+0000","updated_time":"2014-04-01T15:45:20+0000","likes":{"data":{"100005597670688":{"id":"100005597670688","name":"Vô Tình"},"100001686242822":{"id":"100001686242822","name":"Nhật Vũ"},"100001718857289":{"id":"100001718857289","name":"Sin Cos Tan"},"100000500260636":{"id":"100000500260636","name":"Lưu Nguyễn Thảo Tiên"},"100001840875327":{"id":"100001840875327","name":"Phạm Chí Long"},"100001807609603":{"id":"100001807609603","name":"Nguyễn Khánh Huyền"},"1778354324":{"id":"1778354324","name":"Sơn Ken"},"100003913383051":{"id":"100003913383051","name":"Tho Tran"},"100000038385946":{"id":"100000038385946","name":"Nguyen Duy"},"100000918871201":{"id":"100000918871201","name":"Thang PhanVan"},"100001751941162":{"id":"100001751941162","name":"Vinh Lê"},"100001444337943":{"id":"100001444337943","name":"Macjanh"},"100005457010257":{"id":"100005457010257","name":"Phạm Văn Phi"},"1837866264":{"id":"1837866264","name":"QuynhDo Anh"},"100000917490385":{"id":"100000917490385","name":"Vân Anh Hoàng"},"100002239433285":{"id":"100002239433285","name":"Mạnh Cường"},"1145584654":{"id":"1145584654","name":"Tobe Tung"},"1146680551":{"id":"1146680551","name":"優しい なぁ"},"1828906841":{"id":"1828906841","name":"Trọng Nghĩa Bùi"},"570109573":{"id":"570109573","name":"Mai Le Minh Tuyen"},"100004128252349":{"id":"100004128252349","name":"Vô Ưu"},"569263718":{"id":"569263718","name":"Phuong Thao Tran"},"100002615664668":{"id":"100002615664668","name":"PuPu Phương Elf"},"100007963716784":{"id":"100007963716784","name":"Ninh Thị Hường"},"100001322928010":{"id":"100001322928010","name":"Phiêu Ngủ Gật"},"100001526631937":{"id":"100001526631937","name":"Tường Oanh Mineko"},"100000073698728":{"id":"100000073698728","name":"Hương Giang"},"1816269439":{"id":"1816269439","name":"Dao Ngoc"},"100007909359766":{"id":"100007909359766","name":"Phi Thuy"},"100000331203536":{"id":"100000331203536","name":"Hoàng Quốc Trình"},"100001337423715":{"id":"100001337423715","name":"Magicminx Kripton"},"100003190943020":{"id":"100003190943020","name":"NgỌc ChÍnk"},"100000045271667":{"id":"100000045271667","name":"Nam Thai Nguyen"},"100000309415626":{"id":"100000309415626","name":"Kona Yuki"},"100000094188022":{"id":"100000094188022","name":"Tran Hung"},"100002290906582":{"id":"100002290906582","name":"Kanashimi No Yukue"},"100004424922774":{"id":"100004424922774","name":"Việt Nguyễn"},"100004212220580":{"id":"100004212220580","name":"Anh Chu"},"100001432462223":{"id":"100001432462223","name":"Truong Nguyen"},"100000198506906":{"id":"100000198506906","name":"Ngọc Oanh"},"100002966928087":{"id":"100002966928087","name":"Nguyen van Dat"}},"paging":{"cursors":{"after":"MTAwMDA1NTk3NjcwNjg4","before":"MTAwMDA1NTk3NjcwNjg4"},"next":"https://graph.facebook.com/229244010425617_843278022355543/likes?limit=1&summary=1&after=MTAwMDA1NTk3NjcwNjg4"},"summary":{"total_count":42}},"comments":{"data":{"843281025688576":{"id":"843281025688576","from":{"id":"100001432462223","name":"Truong Nguyen"},"message":":v bạn rất tốt nhưng tàu rất tiếc ah :3","can_remove":false,"created_time":"2014-04-01T02:55:21+0000","like_count":3,"user_likes":false},"843317735684905":{"id":"843317735684905","from":{"id":"100003480936752","name":"Hoàng Phú"},"message":"Hồi đầu tưởng đứng sai line ;))","can_remove":false,"created_time":"2014-04-01T04:32:15+0000","like_count":0,"user_likes":false},"843335359016476":{"id":"843335359016476","from":{"id":"100003865478998","name":"Đại Gia Chân Đất"},"message":"Chuẩn","can_remove":false,"created_time":"2014-04-01T05:11:48+0000","like_count":1,"user_likes":false},"843343469015665":{"id":"843343469015665","from":{"id":"1214116060","name":"Trần Xuân Đức"},"message":"tàu đến muộn là anh nghĩ có thằng tự tử :))","can_remove":false,"created_time":"2014-04-01T05:43:19+0000","like_count":5,"user_likes":false},"843345769015435":{"id":"843345769015435","from":{"id":"100000228099663","name":"Quan Vu Ngoc"},"message":"chuan","can_remove":false,"created_time":"2014-04-01T05:49:37+0000","like_count":1,"user_likes":false},"843352265681452":{"id":"843352265681452","from":{"id":"100001458099624","name":"Kham Pha"},"message":"Trần Xuân Đức tự tử thì xác định chuyển line khác thôi :(","message_tags":[{"id":"1214116060","name":"Trần Xuân Đức","type":"user","offset":0,"length":13}],"can_remove":false,"created_time":"2014-04-01T06:16:21+0000","like_count":0,"user_likes":false},"843403895676289":{"id":"843403895676289","from":{"id":"100004784233958","name":"NO Bita"},"message":"M thì chụp bảng giờ tàu nên k có chuyện mụn.. Chỉ ngủ quên thui kk","can_remove":false,"created_time":"2014-04-01T09:31:02+0000","like_count":1,"user_likes":false},"843406675676011":{"id":"843406675676011","from":{"id":"100003913383051","name":"Tho Tran"},"message":"Tàu muộn mình nghĩ tại mình ra sớm ai rè xem đồng hồ thì thấy mình bị trễ 3p :v","can_remove":false,"created_time":"2014-04-01T09:38:15+0000","like_count":2,"user_likes":false},"843446472338698":{"id":"843446472338698","from":{"id":"100003466287943","name":"Kim Chi Saki Loyal"},"message":"Em nghe noi tau o nhat khong cham toi 3 phut ma","can_remove":false,"created_time":"2014-04-01T10:58:21+0000","like_count":0,"user_likes":false},"843446942338651":{"id":"843446942338651","from":{"id":"100001432462223","name":"Truong Nguyen"},"message":"nhưng ng lao vào tàu thì ko dám chắc :3","can_remove":false,"created_time":"2014-04-01T10:59:54+0000","like_count":0,"user_likes":false},"843581215658557":{"id":"843581215658557","from":{"id":"100003359689542","name":"Quang Vinh Pham"},"message":"Tàu đến muộn là nghĩ ngay đến có thằng tự tử","can_remove":false,"created_time":"2014-04-01T15:45:20+0000","like_count":0,"user_likes":false}},"paging":{"cursors":{"after":"ODQzMjgxMDI1Njg4NTc2","before":"ODQzMjgxMDI1Njg4NTc2"},"next":"https://graph.facebook.com/229244010425617_843278022355543/comments?limit=1&summary=1&after=ODQzMjgxMDI1Njg4NTc2"},"summary":{"order":"chronological","total_count":11}}}