{"id":"229244010425617_843377445678934","type":"link","picture":"https://fbcdn-profile-a.akamaihd.net/hprofile-ak-ash3/t1.0-1/c57.36.452.452/s200x200/546080_362983000449191_1160343334_n.jpg","link":"https://www.facebook.com/pages/Tuy%E1%BB%83n-d%E1%BB%A5ng-Fpt-IS/362982543782570","from":{"id":"100000859251315","name":"Thảo Ntp"},"message":"[HOT JOB] FPT IS CẦN TUYỂN 01 QUẢN LÝ ĐỐI TÁC NHẬT BẢN\n\nFPT IS  là công ty quy mô ~ 3000 nhân viên, hoạt động trong lĩnh vực CNTT\nXem thêm tại page:https://www.facebook.com/pages/Tuy%E1%BB%83n-d%E1%BB%A5ng-Fpt-IS/362982543782570?ref=hl\n\nTham khảo thông tin công ty tại : www.fis.com.vn \nTrụ sở tại Keangnam LandMark72, Phạm Hùng, Hà Nội \n\nCần tuyển:   01 bạn Tiếng Nhật từ N2 \nCó khả năng Biên phiên dịch, nghe nói thành thạo. \nYêu thích công việc năng động, sáng tạo. Yêu thích môi trường thân thiện, chuyên nghiệp của Trung tâm toàn cầu,\n Thường xuyên gặp gỡ, trao đổi với đối tác Nhật Bản, hỗ trợ PM làm cầu nối cho những dự án lớn trong ngành CNTT.\n\nCV vui lòng gửi về email: thaontp1@fpt.com.vn\nHoặc add Skype để biết thêm thông tin: dailammoc93","created_time":"2014-04-01T08:00:22+0000","updated_time":"2014-04-01T08:24:02+0000","likes":{"data":{"100001726465259":{"id":"100001726465259","name":"Hoàng Phạm"},"100001918025773":{"id":"100001918025773","name":"Hữu Phú Nguyễn"},"1766640700":{"id":"1766640700","name":"Mẫn Tú"},"100001151950064":{"id":"100001151950064","name":"Như Quỳnh"},"100000859251315":{"id":"100000859251315","name":"Thảo Ntp"},"1773771951":{"id":"1773771951","name":"Trung Nguyen Tran"}},"paging":{"cursors":{"after":"MTAwMDAxNzI2NDY1MjU5","before":"MTAwMDAxNzI2NDY1MjU5"},"next":"https://graph.facebook.com/229244010425617_843377445678934/likes?limit=1&summary=1&after=MTAwMDAxNzI2NDY1MjU5"},"summary":{"total_count":6}},"comments":{"data":{"843383022345043":{"id":"843383022345043","from":{"id":"100000269929755","name":"Trần Văn Tuấn"},"message":"Minh Hiền","message_tags":[{"id":"100001656013251","name":"Minh Hiền","type":"user","offset":0,"length":9}],"can_remove":false,"created_time":"2014-04-01T08:24:02+0000","like_count":2,"user_likes":false}},"paging":{"cursors":{"after":"ODQzMzgzMDIyMzQ1MDQz","before":"ODQzMzgzMDIyMzQ1MDQz"}},"summary":{"order":"chronological","total_count":1}}}