{"id":"229244010425617_843354055681273","type":"status","from":{"id":"100000634863165","name":"Trứng Rán"},"message":"Em học tiếng  Nhật vì yêu thích nước Nhật và muốn có 1 công việc tốt hơn thui chứ không có ý định du học gì cả. em đang học đến  bài 14 giáo trình Mina no nihongo rồi ạ. bắt đầu loạn trưởng và chóng mặt vì nhiều cái cần nhớ quá... Anh chị nào cho em xin ít kinh nghiệm  với ạ. Tháng 7 này có đợt thi, nếu học liên tục và chăm chỉ em có kịp thi N5 không ạ? Em cảm ơn anh chị nhiều ạ! Domo arigatou!","created_time":"2014-04-01T06:25:41+0000","updated_time":"2014-04-02T02:02:34+0000","likes":{"data":{"100005164326979":{"id":"100005164326979","name":"Thái Trần"},"100004622350350":{"id":"100004622350350","name":"Anh Tuan"},"100003301481599":{"id":"100003301481599","name":"Thành Công Nguyễn"},"100005744975477":{"id":"100005744975477","name":"Tuyết Mùa Hè"},"100001394221664":{"id":"100001394221664","name":"Mạnh Chúc Đinh"},"100003254627434":{"id":"100003254627434","name":"Belongs To Nắng"},"100002615664668":{"id":"100002615664668","name":"PuPu Phương Elf"},"100001432462223":{"id":"100001432462223","name":"Truong Nguyen"},"100004281995479":{"id":"100004281995479","name":"Hạnh Phúc Nhé"},"100007995421886":{"id":"100007995421886","name":"Ừ Anh Sẽ Đợi"},"100005495773832":{"id":"100005495773832","name":"Hiền Vũ"},"100004141509084":{"id":"100004141509084","name":"Kẹo Kẹo"},"100003327351931":{"id":"100003327351931","name":"Bánh Mì Sữa"},"100004194190922":{"id":"100004194190922","name":"Meo Luoi"},"100006367092088":{"id":"100006367092088","name":"Son Nguyenthuy"},"100003941338766":{"id":"100003941338766","name":"Nhinl Pe"},"1819880188":{"id":"1819880188","name":"Thưởng Nguyễn"},"100003323382657":{"id":"100003323382657","name":"Quynh Giang Le"},"100006846840777":{"id":"100006846840777","name":"Đi Tìm Tương Lai"},"100004215971517":{"id":"100004215971517","name":"Chi Chanh Chua"},"100002225333357":{"id":"100002225333357","name":"ThanhDienkk BG"},"100003031756149":{"id":"100003031756149","name":"Đại Mìn"},"100005308895955":{"id":"100005308895955","name":"Jimmy Hip Nguyen"},"100000186616129":{"id":"100000186616129","name":"Tuyên Xây Dựng"}},"paging":{"cursors":{"after":"MTAwMDA1MTY0MzI2OTc5","before":"MTAwMDA1MTY0MzI2OTc5"},"next":"https://graph.facebook.com/229244010425617_843354055681273/likes?limit=1&summary=1&after=MTAwMDA1MTY0MzI2OTc5"},"summary":{"total_count":24}},"comments":{"data":{"843355352347810":{"id":"843355352347810","from":{"id":"100005308895955","name":"Jimmy Hip Nguyen"},"message":"5t e nhé.kk","can_remove":false,"created_time":"2014-04-01T06:30:44+0000","like_count":0,"user_likes":false},"843355492347796":{"id":"843355492347796","from":{"id":"100000634863165","name":"Trứng Rán"},"message":"5 tháng a. em học từ đầu tháng 12 ạ..thế này chắc thi N5 được rồi :v","can_remove":false,"created_time":"2014-04-01T06:31:27+0000","like_count":1,"user_likes":false},"843355875681091":{"id":"843355875681091","from":{"id":"100003398911005","name":"Họ Tạ Tên Nam"},"message":"học chắc 25 bài là thi đc n5 bạn ạ . vì mình mới trượt n5 xong :(","can_remove":false,"created_time":"2014-04-01T06:33:38+0000","like_count":0,"user_likes":false},"843355882347757":{"id":"843355882347757","from":{"id":"100001742571258","name":"Hải Bằng"},"message":"N5 thì học thật chắc khoảng 15 đến 17 bài là đủ đỗ rồi. Đương nhiên là nghe cũng phải tốt tốt 1 chút","can_remove":false,"created_time":"2014-04-01T06:33:39+0000","like_count":0,"user_likes":false},"843356079014404":{"id":"843356079014404","from":{"id":"100004404072444","name":"Cô Đơn Mình Em"},"message":"Bao nhjeu thag k quan tr0g h0k t0t gjao trjh mjnna1 la 0k","can_remove":false,"created_time":"2014-04-01T06:34:33+0000","like_count":1,"user_likes":false},"843356145681064":{"id":"843356145681064","from":{"id":"100000634863165","name":"Trứng Rán"},"message":"khoảng từ bài 1-7 nghe rất tốt ạ..sau em nghe dc ít lắm..chắc tại lười nghe..hic..đi làm suốt nên cũng chẳng có nhiều thời gian..huhu","can_remove":false,"created_time":"2014-04-01T06:34:58+0000","like_count":0,"user_likes":false},"843356509014361":{"id":"843356509014361","from":{"id":"100000309415626","name":"Kona Yuki"},"message":"Thi năng lực tiếng Nhật không giới hạn kiến thức của người dự thi đâu bạn, bạn mới học bảng chữ cái mà đăng ký thi N1 cũng chẳng ai cản bạn đâu :D","can_remove":false,"created_time":"2014-04-01T06:36:46+0000","like_count":0,"user_likes":false},"843356705681008":{"id":"843356705681008","from":{"id":"100004404072444","name":"Cô Đơn Mình Em"},"message":"Mjh kung jt nge lam nhug ma djem vjet kung cao ban ah.diem nge thj 20d la dk ma.","can_remove":false,"created_time":"2014-04-01T06:37:32+0000","like_count":0,"user_likes":false},"843356925680986":{"id":"843356925680986","from":{"id":"100006154922097","name":"Bạch Dương"},"message":"Em học đến khoảng 17 bài như Hải Bằng nói là đủ đi thi rồi","can_remove":false,"created_time":"2014-04-01T06:38:18+0000","like_count":1,"user_likes":false},"843356979014314":{"id":"843356979014314","from":{"id":"100004404072444","name":"Cô Đơn Mình Em"},"message":"Tat nhjen k ai can.nhung co dieu la k the kona ah","can_remove":false,"created_time":"2014-04-01T06:38:38+0000","like_count":0,"user_likes":false},"843357042347641":{"id":"843357042347641","from":{"id":"100006154922097","name":"Bạch Dương"},"message":"Thời gian sau bài 17 ấy là ôn nhiều nhiều đề cho quen, với tập nghe vsf chữ hán nhiều nữa","can_remove":false,"created_time":"2014-04-01T06:38:56+0000","like_count":0,"user_likes":false},"843357059014306":{"id":"843357059014306","from":{"id":"100006154922097","name":"Bạch Dương"},"message":"Cũng chả khó gì đâu","can_remove":false,"created_time":"2014-04-01T06:39:07+0000","like_count":0,"user_likes":false},"843357095680969":{"id":"843357095680969","from":{"id":"100006154922097","name":"Bạch Dương"},"message":"Cố lên nhé :3 !","can_remove":false,"created_time":"2014-04-01T06:39:17+0000","like_count":0,"user_likes":false},"843357149014297":{"id":"843357149014297","from":{"id":"100004404072444","name":"Cô Đơn Mình Em"},"message":"Uhm.n5 thj de ma neu ai dj du h0c thj n5 neu k thj cgag hk thj n4 lu0n","can_remove":false,"created_time":"2014-04-01T06:39:27+0000","like_count":1,"user_likes":false},"843357542347591":{"id":"843357542347591","from":{"id":"100000634863165","name":"Trứng Rán"},"message":"được cái kanji thì em thích học..và thấy học cũng vào..nhưng phần nghe thì ngu ngu ạ..ai có tài liệu nghe hay hay share em  với :)","can_remove":false,"created_time":"2014-04-01T06:41:17+0000","like_count":1,"user_likes":false},"843357632347582":{"id":"843357632347582","from":{"id":"100001742571258","name":"Hải Bằng"},"message":"Từ giờ đến tháng 7 thì thoải mái thời gian, dư sức học hết 25 bài .","can_remove":false,"created_time":"2014-04-01T06:41:37+0000","like_count":0,"user_likes":false},"843357842347561":{"id":"843357842347561","from":{"id":"100000634863165","name":"Trứng Rán"},"message":"thế này có khi em đăng ký thi N4 luôn :v","can_remove":false,"created_time":"2014-04-01T06:42:34+0000","like_count":0,"user_likes":false},"843358192347526":{"id":"843358192347526","from":{"id":"100007665993749","name":"Trần Viên"},"message":"Ở mình học bài 4 đi thi đỗ n5.bài 14 đỗ n4.chép ghe lắm","can_remove":false,"created_time":"2014-04-01T06:43:56+0000","like_count":1,"user_likes":false},"843358885680790":{"id":"843358885680790","from":{"id":"100006154922097","name":"Bạch Dương"},"message":"Những người thích ăn Trứng Rán có tư chất thông minh lắm. Anh tin em còn thi đk cả N3 cơ >:o  がんばってください　！","message_tags":[{"id":"100000634863165","name":"Trứng Rán","type":"user","offset":21,"length":9}],"can_remove":false,"created_time":"2014-04-01T06:45:10+0000","like_count":1,"user_likes":false},"843358895680789":{"id":"843358895680789","from":{"id":"100003323382657","name":"Quynh Giang Le"},"message":"cố nhớ cách chia động từ bạn à","can_remove":false,"created_time":"2014-04-01T06:45:16+0000","like_count":1,"user_likes":false},"843359359014076":{"id":"843359359014076","from":{"id":"100000634863165","name":"Trứng Rán"},"message":"Phở Đặc Biệt thi này mà cũng chép àh.. cơ bản là kiến thức nữa chứ..làm cái bằng to mà đầu rỗng thì cũng ngại lắm","message_tags":[{"id":"100007665993749","name":"Phở Đặc Biệt","type":"user","offset":0,"length":12}],"can_remove":false,"created_time":"2014-04-01T06:46:58+0000","like_count":0,"user_likes":false},"843359469014065":{"id":"843359469014065","from":{"id":"100000634863165","name":"Trứng Rán"},"message":"Bạch Dương: em cũng hi vọng thế.. sợ ăn trứng rán cháy lại giảm thông minh thì hỏng :)","can_remove":false,"created_time":"2014-04-01T06:47:41+0000","like_count":0,"user_likes":false},"843359749014037":{"id":"843359749014037","from":{"id":"100003951914516","name":"Thu Phuong Nguyen"},"message":"thi đc N5 đó.học cả chữ hán nữa","can_remove":false,"created_time":"2014-04-01T06:48:37+0000","like_count":1,"user_likes":false},"843359892347356":{"id":"843359892347356","from":{"id":"100007665993749","name":"Trần Viên"},"message":"Biết thế nhưng kỳ bay gấp quá không có N5 k bay được.thế nên nếu chép dk thì cứ chép.đỗ N5 rồi học thoải mái hơn.","can_remove":false,"created_time":"2014-04-01T06:49:27+0000","like_count":0,"user_likes":false},"843360929013919":{"id":"843360929013919","from":{"id":"100000634863165","name":"Trứng Rán"},"message":"Phở thế à... h đang vi vu ngắm sakura bên đó rồi à...sướng hầy.. sang bên đó sẽ có nhiều điểu kiện học tập hơn là ở VN","message_tags":[{"id":"100007665993749","name":"Phở","type":"user","offset":0,"length":3}],"can_remove":false,"created_time":"2014-04-01T06:54:08+0000","like_count":0,"user_likes":false},"843361109013901":{"id":"843361109013901","from":{"id":"100006154922097","name":"Bạch Dương"},"message":"Thông thường đi thi thì 3 người ngồi 2 bàn với khoảng cách khá xa, và ... chép vẫn khá dễ ... >:o \nNhưng vì em Trứng Rán học đk, nên hãy để bạn khác phải chép của em đi, đk ko :v","message_tags":[{"id":"100000634863165","name":"Trứng Rán","type":"user","offset":111,"length":9}],"can_remove":false,"created_time":"2014-04-01T06:54:41+0000","like_count":2,"user_likes":false},"843361319013880":{"id":"843361319013880","from":{"id":"100000634863165","name":"Trứng Rán"},"message":"thế ạ... thế này mắt em toét làm sao chép dc đây... thế thì em try học vậy để mọi người được nhờ :v","can_remove":false,"created_time":"2014-04-01T06:55:44+0000","like_count":0,"user_likes":false},"843362555680423":{"id":"843362555680423","from":{"id":"100006154922097","name":"Bạch Dương"},"message":"Làm bài trắc nghiệm, trả lời bằng cách tô đen ô đáp án.\nVới bản thân mình làm mà ko để ý cẩn thận còn đánh dấu sai so với ý nghĩ, chứ đừng nói ng đi chép ... dễ tô nhầm lắm.\nTự làm sướng hơn. Cố lên em !","can_remove":false,"created_time":"2014-04-01T07:01:08+0000","like_count":0,"user_likes":false},"843362852347060":{"id":"843362852347060","from":{"id":"100000634863165","name":"Trứng Rán"},"message":"Dạ vâng..hope năm sau trình độ cao siêu cũng vào cmt những con gà mới bị tiếng Nhật cám dỗ như em bây giờ...hehe","can_remove":false,"created_time":"2014-04-01T07:02:59+0000","like_count":0,"user_likes":false},"843365235680155":{"id":"843365235680155","from":{"id":"100005263719971","name":"Hung Le"},"message":"thi tốt","can_remove":false,"created_time":"2014-04-01T07:13:44+0000","like_count":0,"user_likes":false},"843376825678996":{"id":"843376825678996","from":{"id":"100004159717053","name":"Ngo Tu"},"message":"đến bài 21 đã đủ thi n5 , mình còn vừa học vừa chơi vẫn đỗ n5 , học bài 8 mình nghỉ đi làm , ở nhà toàn đọc sách","can_remove":false,"created_time":"2014-04-01T07:57:51+0000","like_count":0,"user_likes":false},"843399059010106":{"id":"843399059010106","from":{"id":"100003146740430","name":"Chan Doi"},"message":"gam bát tê cư đa xai nê","can_remove":false,"created_time":"2014-04-01T09:15:49+0000","like_count":0,"user_likes":false},"843399192343426":{"id":"843399192343426","from":{"id":"100003146740430","name":"Chan Doi"},"message":"N5 dư sức em ạ, có thể N4 nhé nếu học khoảng 40 bài","can_remove":false,"created_time":"2014-04-01T09:16:14+0000","like_count":1,"user_likes":false},"843408615675817":{"id":"843408615675817","from":{"id":"100004159717053","name":"Ngo Tu"},"message":"35 đã đủ thi n4 rồi bạn ạ","can_remove":false,"created_time":"2014-04-01T09:38:58+0000","like_count":1,"user_likes":false},"843420835674595":{"id":"843420835674595","from":{"id":"100000634863165","name":"Trứng Rán"},"message":"vậy ạ.. thế em đăng ký thi N4 luôn cho máu.. có động lực mà phấn đấu trong 3 tháng tới ạ.. Cảm ơn cả nhà nhiều nha <3 <3 <3","can_remove":false,"created_time":"2014-04-01T09:55:36+0000","like_count":0,"user_likes":false},"843421119007900":{"id":"843421119007900","from":{"id":"100005263719971","name":"Hung Le"},"message":"có mà thi vào mắt","can_remove":false,"created_time":"2014-04-01T09:56:36+0000","like_count":0,"user_likes":false},"843422172341128":{"id":"843422172341128","from":{"id":"100000634863165","name":"Trứng Rán"},"message":":( :( :(","can_remove":false,"created_time":"2014-04-01T09:57:09+0000","like_count":0,"user_likes":false},"843423069007705":{"id":"843423069007705","from":{"id":"100005263719971","name":"Hung Le"},"message":"học hết 50 bài rồi hãy đăng kí n4, ko thì phí tiền thôi , nếu nói học hết 35 bài thi đc n4 cũng ko sai nhưng có phải bạn học được cái j là nhớ được hết cái ý đâu lại còn 1 số cái chưa chắc đã đc học, kanji n4 cũng khá .","can_remove":false,"created_time":"2014-04-01T09:58:58+0000","like_count":3,"user_likes":false},"843424682340877":{"id":"843424682340877","from":{"id":"100004159717053","name":"Ngo Tu"},"message":"tớ thi n4 đợt t12 năm vừa , cũng bình thường mà","can_remove":false,"created_time":"2014-04-01T10:01:31+0000","like_count":0,"user_likes":false},"843424939007518":{"id":"843424939007518","from":{"id":"100004159717053","name":"Ngo Tu"},"message":"kanji thì ăn hết cái quyển chữ hán đi kèm mina là ok","can_remove":false,"created_time":"2014-04-01T10:02:06+0000","like_count":1,"user_likes":false},"843435789006433":{"id":"843435789006433","from":{"id":"100003146740430","name":"Chan Doi"},"message":"kanji học hết 500 từ trong giáo trình mina là ok, ko khó lắm chỉ ngại lười thôi","can_remove":false,"created_time":"2014-04-01T10:28:43+0000","like_count":1,"user_likes":false},"843436235673055":{"id":"843436235673055","from":{"id":"100003146740430","name":"Chan Doi"},"message":"có ngại thì ngại phần nghe thôi, luyện nghe chokai và xem lyrics nhiều vào","can_remove":false,"created_time":"2014-04-01T10:29:59+0000","like_count":0,"user_likes":false},"843442055672473":{"id":"843442055672473","from":{"id":"100007963716784","name":"Ninh Thị Hường"},"message":"đúng rồi, đằng nào cũng mất công, gắng học lên n4 rồi hãy thi bạn, dù bạn có n5 thì bạn vẫn phải học lên kia mà...Kiến thức thì cần hệ thống lại để ko bị lẫn và học kanji thật chắc nữa....cố lên! cố lên bạn!","can_remove":false,"created_time":"2014-04-01T10:43:44+0000","like_count":2,"user_likes":false},"843454995671179":{"id":"843454995671179","from":{"id":"100003146740430","name":"Chan Doi"},"message":"nghe thì 13 bài đầu thấy còn dễ, về sau có thể  tê, thể nai, thể tà, thể rự, thể thông thường, ưn+desu,động từ khả năng, thể ý định, động từ bị động, mục đích, sai khiến, khiêm nhường, kính ngữ","can_remove":false,"created_time":"2014-04-01T11:26:22+0000","like_count":1,"user_likes":false},"843456029004409":{"id":"843456029004409","from":{"id":"100003146740430","name":"Chan Doi"},"message":"nghe quyển 2 mà ko có lyrics thì như vịt nghe sấm, khi nge phải tập trung vào tranh vẽ, gợi ý vì ko thể nghe hết đc,khi làm bài thi cũng vậy","can_remove":false,"created_time":"2014-04-01T11:29:20+0000","like_count":0,"user_likes":false},"843458529004159":{"id":"843458529004159","from":{"id":"100001233920165","name":"Thin Le"},"message":"nếu ở đà nẵng thì qua 125 hoàng hoa thám mua đồ ăn nhật. đồ ăn quán ni ăn vào thông minh hẳn lên","can_remove":false,"created_time":"2014-04-01T11:37:00+0000","like_count":0,"user_likes":false},"843541825662496":{"id":"843541825662496","from":{"id":"100001902317590","name":"Midori Chan"},"message":"học đến quyển 2 mới choáng T^T cô bật băng xong cả lớp nhìn nhau cười ngu =))","can_remove":false,"created_time":"2014-04-01T14:29:19+0000","like_count":2,"user_likes":false},"843554495661229":{"id":"843554495661229","from":{"id":"100006263888044","name":"Hoàng Oanh"},"message":"mình hỏi ai cũng đèu trả lời là học minna no,mình thì học mânbo nhiều kiến thức kinh khủng","can_remove":false,"created_time":"2014-04-01T14:51:30+0000","like_count":0,"user_likes":false},"843792455637433":{"id":"843792455637433","from":{"id":"100006424623565","name":"BoBo CuaToi"},"message":"N5 e hoc chac 25bai va chut chu han don jan thoi la ok nhe!","can_remove":false,"created_time":"2014-04-02T00:30:21+0000","like_count":1,"user_likes":false},"843805468969465":{"id":"843805468969465","from":{"id":"100005776355988","name":"Phiên Phiên"},"message":"nếu bạn bắt đầu loạn ngữ pháp thì mình nghĩ bạn nên học chắc lại các bài đầu tiên! sẽ hơi mệt mỏi 1 chút nhưng có ích cho bạn sau này! như mẫu ngữ pháp N1 ha N2 desu sau này sẽ là tiền đề để học bài 22 định ngữ! còn mẫu ngữ pháp morau (nhận), ageru (cho, tặng), kureru (cho, tặng) bạn cũng cần nắm chắc những điểm khác biệt của 3 mẫu này để lên bài 25 bạn sẽ hiểu đươc í nghĩa của việc sử dụng các mẫu này! mình chân thành khuyên bạn nên học chắc các bài đầu vì sau này những mẫu cơ bản đó sẽ phát triển lên thành các mẫu khác! nếu bạn không nắm chắc sẽ rất khó khăn để học tiếp! còn thi N thì bạn học hết bài 25, học khoảng 130 chữ kanji, và nghe tốt các bài trong giáo trình minna no là ok! theo mình thì thi N nó chỉ để kiểm tra năng lực thôi bạn ạ! còn đi làm thì giờ người ta nói là tuyển người có trình độ tương đương N3, N2 vì có những người mang bằng N1 nhưng lại không thể giao tiếp được nên bằng sau này học lên cao bạn thi 1 thể thì tốt hơn!","can_remove":false,"created_time":"2014-04-02T01:08:58+0000","like_count":3,"user_likes":false},"843811838968828":{"id":"843811838968828","from":{"id":"100007963716784","name":"Ninh Thị Hường"},"message":"すい語彙ですね！ありがとございました。 :v","can_remove":false,"created_time":"2014-04-02T01:26:55+0000","like_count":0,"user_likes":false},"843812372302108":{"id":"843812372302108","from":{"id":"100000634863165","name":"Trứng Rán"},"message":"Phiên Phiên... cảm ơn bạn nhiều nhá.. đúng là mình cũng đang có ý định vừa học tiếp và vừa ôn lại nữa..try thâtnj nhiều thôi...","can_remove":false,"created_time":"2014-04-02T01:27:29+0000","like_count":0,"user_likes":false},"843817355634943":{"id":"843817355634943","from":{"id":"100005776355988","name":"Phiên Phiên"},"message":"douitashimate ^_^ gambatte kudasai ne!","can_remove":false,"created_time":"2014-04-02T01:40:57+0000","like_count":1,"user_likes":false},"843817825634896":{"id":"843817825634896","from":{"id":"100006154922097","name":"Bạch Dương"},"message":"ì ì ế :3","can_remove":false,"created_time":"2014-04-02T01:42:04+0000","like_count":0,"user_likes":false},"843825535634125":{"id":"843825535634125","from":{"id":"100001156666759","name":"Kenshuu Steam"},"message":"họcvì yêu thích nước nhât, học tiếng nhật ròi mới thấy ghét nước nhật... bạn cứ thử đi...chừng nào ngộ ra bạn lien hệ với tôi mình kết bạn nhé đồng chí","can_remove":false,"created_time":"2014-04-02T02:02:34+0000","like_count":1,"user_likes":false}},"paging":{"cursors":{"after":"ODQzMzU1MzUyMzQ3ODEw","before":"ODQzMzU1MzUyMzQ3ODEw"},"next":"https://graph.facebook.com/229244010425617_843354055681273/comments?limit=1&summary=1&after=ODQzMzU1MzUyMzQ3ODEw"},"summary":{"order":"chronological","total_count":55}}}