{"id":"229244010425617_843374872345858","type":"status","from":{"id":"1146680551","name":"優しい なぁ"},"message":"\" とんでもない ” hay \"とんでもございません”, cái này hay nghe được, nhưng chưa hiểu lắm :) \nVậy bạn nào giải thích hộ với được hem :3\n- Ý nghĩa\n- Cấu trúc sử dụng","created_time":"2014-04-01T07:49:06+0000","updated_time":"2014-04-01T11:31:55+0000","likes":{"data":{"100006846840777":{"id":"100006846840777","name":"Đi Tìm Tương Lai"},"100001439469258":{"id":"100001439469258","name":"Trí Dũng"},"100004915360462":{"id":"100004915360462","name":"Phamtuyen Pc"},"100003291701878":{"id":"100003291701878","name":"Bui Anhdat"},"100006711245076":{"id":"100006711245076","name":"Thi Ly Le"},"100004564327116":{"id":"100004564327116","name":"Tiến Bình Nguyễn"},"100005286576040":{"id":"100005286576040","name":"Sẽ Bá Đạo"},"100004005830479":{"id":"100004005830479","name":"Lam School"},"100003094158721":{"id":"100003094158721","name":"Hikari Truong"},"100003069246142":{"id":"100003069246142","name":"Hồng Trịnh"},"1122379216":{"id":"1122379216","name":"Hà Ngô"},"100002615664668":{"id":"100002615664668","name":"PuPu Phương Elf"},"100001432462223":{"id":"100001432462223","name":"Truong Nguyen"},"525828985":{"id":"525828985","name":"Cindy Taiki"},"100006638161405":{"id":"100006638161405","name":"Daisukina Hito"},"100003818384066":{"id":"100003818384066","name":"Suisei Trần"}},"paging":{"cursors":{"after":"MTAwMDA2ODQ2ODQwNzc3","before":"MTAwMDA2ODQ2ODQwNzc3"},"next":"https://graph.facebook.com/229244010425617_843374872345858/likes?limit=1&summary=1&after=MTAwMDA2ODQ2ODQwNzc3"},"summary":{"total_count":18}},"comments":{"data":{"843375022345843":{"id":"843375022345843","from":{"id":"1816269439","name":"Dao Ngoc"},"message":"とんでもございません⇒ Cái này sai nha thím.","can_remove":false,"created_time":"2014-04-01T07:50:04+0000","like_count":4,"user_likes":false},"843375642345781":{"id":"843375642345781","from":{"id":"1146680551","name":"優しい なぁ"},"message":"Sao sai :3","can_remove":false,"created_time":"2014-04-01T07:52:14+0000","like_count":0,"user_likes":false},"843376835678995":{"id":"843376835678995","from":{"id":"100000299798248","name":"Vẹt Đêm"},"message":"Mình chen ngang xíu ( ko liên quan câu hỏi của chủ topic) : とんでもございません　không sai đâu nhưng xài trong văn phong kính ngữ trao đổi công việc, kinh doanh thì ko phù hợp~~. Thay vào đó thì mình thấy mấy bác hay xài とんでもないことでございますhơn","can_remove":false,"created_time":"2014-04-01T07:57:54+0000","like_count":1,"user_likes":false},"843376879012324":{"id":"843376879012324","from":{"id":"100003069246142","name":"Hồng Trịnh"},"message":"Mới biết mỗi とんでもない thôi bn ơi. Nghĩa là chẳng ra sao, vớ vẩn; không dám đâu!","can_remove":false,"created_time":"2014-04-01T07:58:01+0000","like_count":2,"user_likes":false},"843377179012294":{"id":"843377179012294","from":{"id":"100003069246142","name":"Hồng Trịnh"},"message":"Ví dụ: とんでもない話. \" câu chuyện vơ vẩn\"","can_remove":false,"created_time":"2014-04-01T07:59:13+0000","like_count":1,"user_likes":false},"843377312345614":{"id":"843377312345614","from":{"id":"1146680551","name":"優しい なぁ"},"message":"Mình cứ tưởng とんでもございません là kính ngữ của とんでもない chứ nhỉ :)","can_remove":false,"created_time":"2014-04-01T07:59:31+0000","like_count":0,"user_likes":false},"843377879012224":{"id":"843377879012224","from":{"id":"100000154325668","name":"Lam Buong Binh"},"message":"Theo mình biết thì とんでもないđược hiểu theo 2 nghĩa:\n1.không có gì cả, chuyện nhỏ, hiểu đại khái như どいたしまして khi có ai đó cảm ơn.\n2. Không thể tin được, thật kinh ngạc dùng khi có điều gì xảy ra ngoài sức tưởng tưởng cua mình. \nGiống như 信じられない。","can_remove":false,"created_time":"2014-04-01T08:02:32+0000","like_count":3,"user_likes":false},"843378632345482":{"id":"843378632345482","from":{"id":"100003069246142","name":"Hồng Trịnh"},"message":"Vay thi con la : qua dang, qua muc nua nhe","can_remove":false,"created_time":"2014-04-01T08:04:52+0000","like_count":0,"user_likes":false},"843378845678794":{"id":"843378845678794","from":{"id":"1146680551","name":"優しい なぁ"},"message":"Còn nghĩa này nưa à mn?\n\n会社の人は、\n「すいません」→「とんでもない。あなたに謝っていただくようなことではありません。こちらこそお傍を失礼いたします。」\nという意味で使ったのですね。","can_remove":false,"created_time":"2014-04-01T08:05:36+0000","like_count":0,"user_likes":false},"843379272345418":{"id":"843379272345418","from":{"id":"1725907325","name":"Nguyen Van Dung"},"message":"「とんでも」に「ない」の付いた形だが、「とんでも」が単独で使われた例はなく、「とんでもない」で一語と見るのがよい。\n\nとすれば、「ない」を切り離して「ありません」「ございません」と置き換えて丁寧表現とするのは不適切で、丁寧に言うなら「とんでもないことです」「とんでもないことでございます」「とんでものうございます」と言わなければならない。\n\nー＞　しかし、最近は「とんでもありません」「とんでもございません」と言う人が多くなっている。\n\nhttp://dictionary.goo.ne.jp/leaf/jn2/162083/m0u/","can_remove":false,"created_time":"2014-04-01T08:06:32+0000","like_count":5,"user_likes":false},"843379689012043":{"id":"843379689012043","from":{"id":"1146680551","name":"優しい なぁ"},"message":"Giải thích tiếng Việt đi :3","can_remove":false,"created_time":"2014-04-01T08:08:09+0000","like_count":0,"user_likes":false},"843380059012006":{"id":"843380059012006","from":{"id":"100003197724558","name":"Khai Minh"},"message":"bác Nguyen Van Dung mới tìm hiểu ở đây nhỉ http://dictionary.goo.ne.jp/leaf/jn2/162083/m0u/ :)","message_tags":[{"id":"1725907325","name":"Nguyen Van Dung","type":"user","offset":4,"length":15}],"can_remove":false,"created_time":"2014-04-01T08:09:56+0000","like_count":1,"user_likes":false},"843380212345324":{"id":"843380212345324","from":{"id":"100003069246142","name":"Hồng Trịnh"},"message":"だが、とんでもないはよく使っているね。いい意味もあるし、良くない意味もあるしので、人とことにとっと、使ってください。","can_remove":false,"created_time":"2014-04-01T08:10:47+0000","like_count":1,"user_likes":false},"843381035678575":{"id":"843381035678575","from":{"id":"100001852895814","name":"Hướng Dương"},"message":"とんでもございません là khiêm nhường ngữ(謙遜語) của とんでもない  thường được sử dụng với người trên, nhất là trong các giao tiếp mang tính trang trọng. Tuy nhiên phần lớn là phụ nữ lớn tuổi sử dụng chứ giới trẻ thì rất ít sử dụng","can_remove":false,"created_time":"2014-04-01T08:14:07+0000","like_count":0,"user_likes":false},"843381229011889":{"id":"843381229011889","from":{"id":"1146680551","name":"優しい なぁ"},"message":"それぞれの場合によって、意味が変わるから、困るなあ（＾Ｏ＾）","can_remove":false,"created_time":"2014-04-01T08:14:51+0000","like_count":0,"user_likes":false},"843381562345189":{"id":"843381562345189","from":{"id":"100003069246142","name":"Hồng Trịnh"},"message":"Bạn dung giải thích rằng とんでもthêm ないlà một câu, không đứng đơn độc.cho nên とんでもないlà câu hoàn chỉnh , theo mình hiểu dùng khi nói.  \nNếu bỏ ない、mà đặt vào sau ありませんhay ございません thì lịch sự hơn.","can_remove":false,"created_time":"2014-04-01T08:16:41+0000","like_count":0,"user_likes":false},"843381662345179":{"id":"843381662345179","from":{"id":"1725907325","name":"Nguyen Van Dung"},"message":"có thể hiểu  「ない」được gắn vào「とんでも」, thế nhưng ko có ví dụ nào cho việc sử dụng riêng từ 「とんでも」 do đó ta nên coi とんでもない như một từ.\n\nvì thế sẽ không thích hợp cho việc ta cắt bỏ riêng 「ない」(trong câu とんでもない) và thay nó bằng các biểu hiện lịch sự như 「ありません」「ございません」. Nếu muốn nói lịch sự ta cần phải nói rằng 「とんでもないことです」「とんでもないことでございます」「とんでものうございます」.\n\nTuy nhiên, gần đây có nhiều người hay nói 「とんでもありません」「とんでもございません」.\n\n(mình ko giải thích, từ điển giải thích)\n\n平成19年（2007）2月文化審議会答申の『敬語の指針』では、相手からのほめ言葉に対して謙遜しながら軽く打ち消す表現として「とんでもございません（とんでもありません）」を使っても、現在では問題ないとしている。\nthêm câu này nữa, đại khái nói rằng là : Ngày nay việc sử dụng「とんでもございません（とんでもありません）」 cũng ko có vấn đề gì hết.","can_remove":false,"created_time":"2014-04-01T08:17:12+0000","like_count":4,"user_likes":false},"843382412345104":{"id":"843382412345104","from":{"id":"100003069246142","name":"Hồng Trịnh"},"message":"Nhưng ございませんlà chưa chính xác mà làとんでもないことです、hayとんでもないこてでございます、とんでものうございます。gần đây nhiều người dùng とんでもありませんvà とんでもございません.","can_remove":false,"created_time":"2014-04-01T08:20:34+0000","like_count":0,"user_likes":false},"843382799011732":{"id":"843382799011732","from":{"id":"100003069246142","name":"Hồng Trịnh"},"message":"Bạn nguyen van dung xem tớ hiểu vậy đúng chưa","can_remove":false,"created_time":"2014-04-01T08:22:48+0000","like_count":0,"user_likes":false},"843384982344847":{"id":"843384982344847","from":{"id":"1146680551","name":"優しい なぁ"},"message":"","can_remove":false,"created_time":"2014-04-01T08:31:49+0000","like_count":3,"user_likes":false},"843385012344844":{"id":"843385012344844","from":{"id":"1146680551","name":"優しい なぁ"},"message":"","can_remove":false,"created_time":"2014-04-01T08:31:58+0000","like_count":4,"user_likes":false},"843386145678064":{"id":"843386145678064","from":{"id":"100002371397093","name":"Le Duc Dat"},"message":"Không biết nó có bao nhiêu sắc thái nhưng theo mình đk học thì có 1 nghĩa là khi ai đó khen thì ta dùng とんでもない","can_remove":false,"created_time":"2014-04-01T08:36:21+0000","like_count":0,"user_likes":false},"843387505677928":{"id":"843387505677928","from":{"id":"1146680551","name":"優しい なぁ"},"message":"君を愛してると言うなんてとんでもない（＾Ｏ＾）(^_-)","can_remove":false,"created_time":"2014-04-01T08:40:22+0000","like_count":1,"user_likes":false},"843387839011228":{"id":"843387839011228","from":{"id":"1725907325","name":"Nguyen Van Dung"},"message":"\"hổng dám đâu\" mang ý nghĩa không tốt.\n\nnên hiểu là \"có gì đâu ạ\"","can_remove":false,"created_time":"2014-04-01T08:41:35+0000","like_count":0,"user_likes":false},"843388319011180":{"id":"843388319011180","from":{"id":"1146680551","name":"優しい なぁ"},"message":"^_^ \" hổng dám đâu \" kìa :3","can_remove":false,"created_time":"2014-04-01T08:43:32+0000","like_count":0,"user_likes":false},"843389929011019":{"id":"843389929011019","from":{"id":"1146680551","name":"優しい なぁ"},"message":"皆、教えてくれてありがとうございます。(^_-)","can_remove":false,"created_time":"2014-04-01T08:49:34+0000","like_count":1,"user_likes":false},"843402775676401":{"id":"843402775676401","from":{"id":"100004380181780","name":"Be Boo"},"message":"憂しいなあ bạn có phần mềm tra cứu gì vậy có thể bảo giúp mình được ko hj cảm ơn bạn","can_remove":false,"created_time":"2014-04-01T09:27:36+0000","like_count":0,"user_likes":false},"843404089009603":{"id":"843404089009603","from":{"id":"100003211776567","name":"Kụ Đính"},"message":"cái này mua 9,99¥    đó 3:.ID ai mua rồi xin xài ké","can_remove":false,"created_time":"2014-04-01T09:31:31+0000","like_count":0,"user_likes":false},"843404822342863":{"id":"843404822342863","from":{"id":"100003059002710","name":"Hạnh Nhân"},"message":"優しい なぁ　bạn dùng phần mềm tra cứu gì mà hay vậy","message_tags":[{"id":"1146680551","name":"優しい なぁ","type":"user","offset":0,"length":6}],"can_remove":false,"created_time":"2014-04-01T09:33:58+0000","like_count":0,"user_likes":false},"843409475675731":{"id":"843409475675731","from":{"id":"100003980112068","name":"Endless Paradise"},"message":"お礼なんてとんでもない。","can_remove":false,"created_time":"2014-04-01T09:41:12+0000","like_count":0,"user_likes":false},"843453699004642":{"id":"843453699004642","from":{"id":"100006089102969","name":"カメ 悪い"},"message":"とんでもない mỗi lúc 1 kiểu tuỳ văn cảnh\nCãi nhau cả ngày cho đúng :))","can_remove":false,"created_time":"2014-04-01T11:21:14+0000","like_count":0,"user_likes":false},"843456775671001":{"id":"843456775671001","from":{"id":"100000309153854","name":"Pham Thuong"},"message":"đúng là có rất nhiều cách dùng. mình 追加 thêm văn cảnh khi dùng とんでもない\nKhi đến cửa hàng mình hỏi nhân viên về vấn đề gì đấy, sau một hồi họ giải thích xong, mình xin lỗi đã làm phiền và cảm ơn họ, thì họ cũng dùng とんでもない。không có gì cả đâu.","can_remove":false,"created_time":"2014-04-01T11:31:55+0000","like_count":0,"user_likes":false}},"paging":{"cursors":{"after":"ODQzMzc1MDIyMzQ1ODQz","before":"ODQzMzc1MDIyMzQ1ODQz"},"next":"https://graph.facebook.com/229244010425617_843374872345858/comments?limit=1&summary=1&after=ODQzMzc1MDIyMzQ1ODQz"},"summary":{"order":"chronological","total_count":32}}}