{"id":"229244010425617_843318689018143","type":"status","from":{"id":"100001640832299","name":"Hoàng Đạt"},"message":"Tối nay bay rồi.ko biết nên vui hay buồn đây :(","created_time":"2014-04-01T04:35:20+0000","updated_time":"2014-04-05T00:47:05+0000","likes":{"data":{"100000917490385":{"id":"100000917490385","name":"Vân Anh Hoàng"},"100003027977812":{"id":"100003027977812","name":"Hoa Huynh"},"100007996590174":{"id":"100007996590174","name":"Tiến Khuy"},"100007055018351":{"id":"100007055018351","name":"Tom Bui"},"100005428062500":{"id":"100005428062500","name":"ʚɞThanh Thanhʚɞ"},"100006361121356":{"id":"100006361121356","name":"Xuka Mũm Mĩm"},"1725907325":{"id":"1725907325","name":"Nguyen Van Dung"},"100007806284139":{"id":"100007806284139","name":"Đặng Yên"},"100006734168968":{"id":"100006734168968","name":"Tiểu Nhân Mã"},"100006208266390":{"id":"100006208266390","name":"Memory Hd"},"1227859163":{"id":"1227859163","name":"Pham Hung Thinh"},"100005865042504":{"id":"100005865042504","name":"Vẽ Trái Tim"},"100002769242150":{"id":"100002769242150","name":"Nguyen Nhan Hiep"},"100002913815458":{"id":"100002913815458","name":"Bích Ngà"},"100004004426525":{"id":"100004004426525","name":"Vi Trùng"},"100007162899202":{"id":"100007162899202","name":"Qiu Xian Huang"},"100007260391107":{"id":"100007260391107","name":"Hikaru Hime"},"100008133690691":{"id":"100008133690691","name":"Con Yêu Mẹ"},"100003950629248":{"id":"100003950629248","name":"Linh Xù"},"100002087805613":{"id":"100002087805613","name":"Hiền Long"},"100007055220627":{"id":"100007055220627","name":"Khoảnh Khắc"},"100004982014580":{"id":"100004982014580","name":"Kun Kun"},"100003155401934":{"id":"100003155401934","name":"Ha Mi Kim"},"100007295862307":{"id":"100007295862307","name":"Boy Bánh Bèo B"},"100003077266439":{"id":"100003077266439","name":"Tiểu Tinh"},"100005444224792":{"id":"100005444224792","name":"Anna Anh Nheo"},"100008061784579":{"id":"100008061784579","name":"Hoàng Tuấn"},"100007745042001":{"id":"100007745042001","name":"Thu Nguyen"},"745565751":{"id":"745565751","name":"Tuyen Hoang Thi"},"100001531816305":{"id":"100001531816305","name":"Mẫn Nghi"},"100003465567929":{"id":"100003465567929","name":"Lê Chi"},"100007026673544":{"id":"100007026673544","name":"Thích Ngủ Nướng"},"100000106606544":{"id":"100000106606544","name":"Thu Hiền"},"100002503864184":{"id":"100002503864184","name":"Cậu Ba"},"100005523367055":{"id":"100005523367055","name":"Hương Cool"},"100004908941067":{"id":"100004908941067","name":"Cử Cơ"},"100003978931285":{"id":"100003978931285","name":"Tuấn Nguyễn"}},"paging":{"cursors":{"after":"MTAwMDAwOTE3NDkwMzg1","before":"MTAwMDAwOTE3NDkwMzg1"},"next":"https://graph.facebook.com/229244010425617_843318689018143/likes?limit=1&summary=1&after=MTAwMDAwOTE3NDkwMzg1"},"summary":{"total_count":37}},"comments":{"data":{"843320612351284":{"id":"843320612351284","from":{"id":"100006089102969","name":"カメ 悪い"},"message":"Có gay ko :\">\nChúng mình vui :v","can_remove":false,"created_time":"2014-04-01T04:40:16+0000","like_count":5,"user_likes":false},"843320655684613":{"id":"843320655684613","from":{"id":"100004456171115","name":"Phạm Quốc Việt"},"message":"Wellcome to Địa Ngục :)","can_remove":false,"created_time":"2014-04-01T04:40:23+0000","like_count":1,"user_likes":false},"843320882351257":{"id":"843320882351257","from":{"id":"100003492301271","name":"Vuong Vui Ve"},"message":"わたしも。12じ。","can_remove":false,"created_time":"2014-04-01T04:40:45+0000","like_count":0,"user_likes":false},"843323035684375":{"id":"843323035684375","from":{"id":"100003978931285","name":"Tuấn Nguyễn"},"message":"ganbattene.","can_remove":false,"created_time":"2014-04-01T04:43:00+0000","like_count":0,"user_likes":false},"843326222350723":{"id":"843326222350723","from":{"id":"100002944559105","name":"Domenico Dolce"},"message":"@ Hoàng Đạt: đi trường nào vậy bạn","can_remove":false,"created_time":"2014-04-01T04:51:17+0000","like_count":0,"user_likes":false},"843330225683656":{"id":"843330225683656","from":{"id":"100008009256613","name":"Bi Bu Bin"},"message":"bạn di du học ạ","can_remove":false,"created_time":"2014-04-01T05:00:41+0000","like_count":0,"user_likes":false},"843334032349942":{"id":"843334032349942","from":{"id":"100004420686591","name":"Kieu Thi Tuyen"},"message":"たのしい。おめでと。","can_remove":false,"created_time":"2014-04-01T05:08:15+0000","like_count":1,"user_likes":false},"843336095683069":{"id":"843336095683069","from":{"id":"100003465567929","name":"Lê Chi"},"message":"Co len","can_remove":false,"created_time":"2014-04-01T05:13:52+0000","like_count":0,"user_likes":false},"843336732349672":{"id":"843336732349672","from":{"id":"100002944559105","name":"Domenico Dolce"},"message":"Có bạn nào đêm nay bay đi trường Tobuco - Gifu k vậy!!!","can_remove":false,"created_time":"2014-04-01T05:15:46+0000","like_count":0,"user_likes":false},"843338192349526":{"id":"843338192349526","from":{"id":"100001531816305","name":"Mẫn Nghi"},"message":"co gang len ban nhe","can_remove":false,"created_time":"2014-04-01T05:20:00+0000","like_count":1,"user_likes":false},"843338615682817":{"id":"843338615682817","from":{"id":"100001640832299","name":"Hoàng Đạt"},"message":"Cảm ơn mọi ng. Mình đi matsuyama chiba Domenico Dolce","message_tags":[{"id":"100002944559105","name":"Domenico Dolce","type":"user","offset":39,"length":14}],"can_remove":false,"created_time":"2014-04-01T05:22:05+0000","like_count":0,"user_likes":false},"843338752349470":{"id":"843338752349470","from":{"id":"100002944559105","name":"Domenico Dolce"},"message":"Vậy ah. Mình đem nay cũng bay. Chúc bạn may mắn nhé :-)","can_remove":false,"created_time":"2014-04-01T05:22:43+0000","like_count":4,"user_likes":false},"843339319016080":{"id":"843339319016080","from":{"id":"100001640832299","name":"Hoàng Đạt"},"message":"Bạn cũng vậy nhé","can_remove":false,"created_time":"2014-04-01T05:25:48+0000","like_count":2,"user_likes":false},"843363979013614":{"id":"843363979013614","from":{"id":"100002940938517","name":"Nhung Heo"},"message":"gambatte lên","can_remove":false,"created_time":"2014-04-01T07:08:19+0000","like_count":1,"user_likes":false},"843368529013159":{"id":"843368529013159","from":{"id":"100005263719971","name":"Hung Le"},"message":"ganbattene.","can_remove":false,"created_time":"2014-04-01T07:25:08+0000","like_count":2,"user_likes":false},"843374475679231":{"id":"843374475679231","from":{"id":"100005350922337","name":"Đặng Hằng"},"message":"Chúc may mắn.t cũg đêm nay.^^","can_remove":false,"created_time":"2014-04-01T07:47:14+0000","like_count":2,"user_likes":false},"843382105678468":{"id":"843382105678468","from":{"id":"100004624780295","name":"Rai Tei Man"},"message":"Well come hell","can_remove":false,"created_time":"2014-04-01T08:19:07+0000","like_count":0,"user_likes":false},"843412265675452":{"id":"843412265675452","from":{"id":"100005436431918","name":"Camel Nguyen"},"message":"B bjt ai sag kumamoto k ?","can_remove":false,"created_time":"2014-04-01T09:49:21+0000","like_count":0,"user_likes":false},"843447885671890":{"id":"843447885671890","from":{"id":"100008041958808","name":"Hikaru Hoshi"},"message":"Vui lên bạn ơi! Vì từ ngày mai sẽ là những chuỗi ngày không vui! :(","can_remove":false,"created_time":"2014-04-01T11:02:44+0000","like_count":7,"user_likes":false},"843518708998141":{"id":"843518708998141","from":{"id":"100006734168968","name":"Tiểu Nhân Mã"},"message":"May mắn nhé","can_remove":false,"created_time":"2014-04-01T13:44:00+0000","like_count":0,"user_likes":false},"843526372330708":{"id":"843526372330708","from":{"id":"100007806284139","name":"Đặng Yên"},"message":"おめでとうございます.","can_remove":false,"created_time":"2014-04-01T13:57:54+0000","like_count":0,"user_likes":false},"843563618993650":{"id":"843563618993650","from":{"id":"100002488031743","name":"Đoàn Văn Hải"},"message":"Mình không biết sự khó khăn đó là như thế nào nhưng mình rất hào hứng để đón nhận nó.Mình nghĩ không gì làm khó mình trừ khi mình nản trí.hãy đặt mục tiêu và cố gắng vì nó.Đạt sang trước nhé mùng 6 mình cũng sang","can_remove":false,"created_time":"2014-04-01T15:07:46+0000","like_count":2,"user_likes":false},"843989102284435":{"id":"843989102284435","from":{"id":"100007055018351","name":"Tom Bui"},"message":"50. 50, chúc bạn lên đường may mắn,,,","can_remove":false,"created_time":"2014-04-02T07:52:41+0000","like_count":1,"user_likes":false},"845651442118201":{"id":"845651442118201","from":{"id":"100001640832299","name":"Hoàng Đạt"},"message":"cảm ơn mọi ng. Đoàn Văn Hải tôi sang rồi.ban đầu thì tạm ổn. có khi ông sẽ ở cùng tôi đấy. tại jo nhà tôi ở vẫn thiếu 3 ng nữa mà trường đã sang gần hết rồi","message_tags":[{"id":"100002488031743","name":"Đoàn Văn Hải","type":"user","offset":15,"length":12}],"can_remove":false,"created_time":"2014-04-05T00:47:05+0000","like_count":0,"user_likes":false}},"paging":{"cursors":{"after":"ODQzMzIwNjEyMzUxMjg0","before":"ODQzMzIwNjEyMzUxMjg0"},"next":"https://graph.facebook.com/229244010425617_843318689018143/comments?limit=1&summary=1&after=ODQzMzIwNjEyMzUxMjg0"},"summary":{"order":"chronological","total_count":24}}}