{"id":"229244010425617_843471705669508","type":"status","from":{"id":"100003896124456","name":"Van Tho"},"message":"mấy người ở trung tâm mình tự dưng bị hoãn chuyến bay từ ngày mai sang tận ngày mùng 8 có ai biết lí do tại sao không?","created_time":"2014-04-01T12:12:27+0000","updated_time":"2014-04-02T10:53:23+0000","likes":{"data":{"746619078":{"id":"746619078","name":"Nguyen Le"},"100000122922961":{"id":"100000122922961","name":"Minh Tuấn"},"100003254627434":{"id":"100003254627434","name":"Belongs To Nắng"},"100005164236438":{"id":"100005164236438","name":"Hoa Mai"}},"paging":{"cursors":{"after":"NzQ2NjE5MDc4","before":"NzQ2NjE5MDc4"},"next":"https://graph.facebook.com/229244010425617_843471705669508/likes?limit=1&summary=1&after=NzQ2NjE5MDc4"},"summary":{"total_count":4}},"comments":{"data":{"843476162335729":{"id":"843476162335729","from":{"id":"100006089102969","name":"カメ 悪い"},"message":"Ko đặt dc vé\nChưa lấy dc visa =))","can_remove":false,"created_time":"2014-04-01T12:22:29+0000","like_count":0,"user_likes":false},"843480585668620":{"id":"843480585668620","from":{"id":"100006214334245","name":"Tuổi Trẻ Tài Cao"},"message":"T còn 15 nàu","can_remove":false,"created_time":"2014-04-01T12:27:32+0000","like_count":0,"user_likes":false},"843482959001716":{"id":"843482959001716","from":{"id":"100003896124456","name":"Van Tho"},"message":"có vé rùi mà b.","can_remove":false,"created_time":"2014-04-01T12:31:28+0000","like_count":0,"user_likes":false},"843484225668256":{"id":"843484225668256","from":{"id":"100005164236438","name":"Hoa Mai"},"message":"Ng nhật có ấn tượng xấu về ng Việt Nam! Bạn ạ","can_remove":false,"created_time":"2014-04-01T12:35:11+0000","like_count":0,"user_likes":false},"843485192334826":{"id":"843485192334826","from":{"id":"100003896124456","name":"Van Tho"},"message":"dung vay.khong biet co phai hoan canh tao ra nhung con nguoi nhu vay khong?hay chính bản thân họ đã có tính cách vậy rùi.mang tiếng cả một dân tộc.","can_remove":false,"created_time":"2014-04-01T12:37:21+0000","like_count":0,"user_likes":false},"843486542334691":{"id":"843486542334691","from":{"id":"100005164236438","name":"Hoa Mai"},"message":"Nhiều chuyện lắm ngay cả chuyện trong nc tham ô, còn tiếp viên hàng không vận chuyển lậu. Bh ng Việt Nam! Có tiếg xấu lắm. Bên này thì trộm cắp😢","can_remove":false,"created_time":"2014-04-01T12:39:07+0000","like_count":0,"user_likes":false},"843490179000994":{"id":"843490179000994","from":{"id":"100006214334245","name":"Tuổi Trẻ Tài Cao"},"message":"Hoa Mai ak. Thré thì lquan gì hả c. T4 này mình cũng sang nhật","can_remove":false,"created_time":"2014-04-01T12:48:19+0000","like_count":1,"user_likes":false},"843493672333978":{"id":"843493672333978","from":{"id":"100003896124456","name":"Van Tho"},"message":"có vẻ bây giờ sang nhật như là ra chiến trường vậy?","can_remove":false,"created_time":"2014-04-01T12:55:44+0000","like_count":0,"user_likes":false},"843514428998569":{"id":"843514428998569","from":{"id":"100003594936986","name":"Thủy Aries"},"message":"Bạn nao đi mùng 8 thế. Đi chung cho vui.:))","can_remove":false,"created_time":"2014-04-01T13:34:50+0000","like_count":0,"user_likes":false},"843514742331871":{"id":"843514742331871","from":{"id":"100006214334245","name":"Tuổi Trẻ Tài Cao"},"message":"15 cơ","can_remove":false,"created_time":"2014-04-01T13:35:24+0000","like_count":0,"user_likes":false},"843517252331620":{"id":"843517252331620","from":{"id":"100003978931285","name":"Tuấn Nguyễn"},"message":"mình thì hôm qua mới có kết quả. chưa có giấy đóng tiền ....  nữa chắc cũng phải hơn 10 ngày nữa mới có lịch bay :)","can_remove":false,"created_time":"2014-04-01T13:40:43+0000","like_count":1,"user_likes":false},"843577242325621":{"id":"843577242325621","from":{"id":"100005127511607","name":"Cobe Kaun"},"message":"m mug 8 khoag 0h10phut thj bay.k bjt co bay cug b k","can_remove":false,"created_time":"2014-04-01T15:36:16+0000","like_count":0,"user_likes":false},"843736538976358":{"id":"843736538976358","from":{"id":"100006549732763","name":"Viet Huong"},"message":"Có ai hk ở waseda bay hôm mùng 8 k","can_remove":false,"created_time":"2014-04-01T21:33:16+0000","like_count":0,"user_likes":false},"843803015636377":{"id":"843803015636377","from":{"id":"100003978931285","name":"Tuấn Nguyễn"},"message":"mình có thằng e học cùng tiếng nhật ở vn và sắp tới mình sang cũng ở cùng nó. nó cũng học ở waseda nhưng đã bay từ hôm 28 rồi bạn Viet Huong a","message_tags":[{"id":"100006549732763","name":"Viet Huong","type":"user","offset":130,"length":10}],"can_remove":false,"created_time":"2014-04-02T00:59:38+0000","like_count":0,"user_likes":false},"844059995610679":{"id":"844059995610679","from":{"id":"100003682891990","name":"Nguyễn Linh"},"message":"Trung tam nao vay ban","can_remove":false,"created_time":"2014-04-02T10:53:23+0000","like_count":0,"user_likes":false}},"paging":{"cursors":{"after":"ODQzNDc2MTYyMzM1NzI5","before":"ODQzNDc2MTYyMzM1NzI5"},"next":"https://graph.facebook.com/229244010425617_843471705669508/comments?limit=1&summary=1&after=ODQzNDc2MTYyMzM1NzI5"},"summary":{"order":"chronological","total_count":15}}}