{"id":"229244010425617_843535718996440","type":"status","from":{"id":"100004187114168","name":"Hoang Hieu Pro"},"message":"mọi người cho e hỏi,e muốn sang nhật theo đường dây vừa đi học vừa làm thì có dc ko mọi người,vì e muốn đi sang chủ yếu là đi làm để mà kiếm thêm thu nhập cho gđ nạ,e xin mọi người cho e lời khuyên với ạ.e cam ơn mọi người trước.","created_time":"2014-04-01T14:17:28+0000","updated_time":"2014-04-01T15:23:21+0000","likes":{"data":{"100004893549836":{"id":"100004893549836","name":"Duy Khoa"},"100001797875974":{"id":"100001797875974","name":"Đức Hạnh"},"100004870446333":{"id":"100004870446333","name":"Annie Hồ"},"100007903567494":{"id":"100007903567494","name":"ベトナムの ビュイ"},"100000122922961":{"id":"100000122922961","name":"Minh Tuấn"},"100007806284139":{"id":"100007806284139","name":"Đặng Yên"},"100003832358096":{"id":"100003832358096","name":"Đinh Ngân"}},"paging":{"cursors":{"after":"MTAwMDA0ODkzNTQ5ODM2","before":"MTAwMDA0ODkzNTQ5ODM2"},"next":"https://graph.facebook.com/229244010425617_843535718996440/likes?limit=1&summary=1&after=MTAwMDA0ODkzNTQ5ODM2"},"summary":{"total_count":7}},"comments":{"data":{"843537125662966":{"id":"843537125662966","from":{"id":"100004187114168","name":"Hoang Hieu Pro"},"message":"nhung ma muon di lao dong sang do e nghe la khó lắm a nạ","can_remove":false,"created_time":"2014-04-01T14:20:17+0000","like_count":0,"user_likes":false},"843538365662842":{"id":"843538365662842","from":{"id":"100004187114168","name":"Hoang Hieu Pro"},"message":"thế ha anh.nhung e buoc dau o nha di da mat 300tr roi a nạ","can_remove":false,"created_time":"2014-04-01T14:22:28+0000","like_count":0,"user_likes":false},"843539142329431":{"id":"843539142329431","from":{"id":"100004187114168","name":"Hoang Hieu Pro"},"message":"the ak","can_remove":false,"created_time":"2014-04-01T14:23:26+0000","like_count":0,"user_likes":false},"843539268996085":{"id":"843539268996085","from":{"id":"100004006950326","name":"Ngọc Gia Bảo"},"message":"Đường dây - đọc lên ghê quá , y như là nói về gái điếm vậy đó :-s","can_remove":false,"created_time":"2014-04-01T14:23:38+0000","like_count":1,"user_likes":false},"843539508996061":{"id":"843539508996061","from":{"id":"100004187114168","name":"Hoang Hieu Pro"},"message":"tai vi gan nha e cũng co mot thang e no di roi va bao la sang do tuan lam co 3 buoi thoi a na","can_remove":false,"created_time":"2014-04-01T14:24:15+0000","like_count":0,"user_likes":false},"843539525662726":{"id":"843539525662726","from":{"id":"100004006950326","name":"Ngọc Gia Bảo"},"message":"Muốn đi kiếm tiền sao ko đi dạng TNS ?","can_remove":false,"created_time":"2014-04-01T14:24:16+0000","like_count":0,"user_likes":false},"843539715662707":{"id":"843539715662707","from":{"id":"100005865042504","name":"Vẽ Trái Tim"},"message":"Có bằng nghề thì lên đy làm b ơi","can_remove":false,"created_time":"2014-04-01T14:24:24+0000","like_count":0,"user_likes":false},"843540202329325":{"id":"843540202329325","from":{"id":"100004187114168","name":"Hoang Hieu Pro"},"message":"thi e cung có bang nghe roi a nạ","can_remove":false,"created_time":"2014-04-01T14:25:42+0000","like_count":0,"user_likes":false},"843541112329234":{"id":"843541112329234","from":{"id":"100004187114168","name":"Hoang Hieu Pro"},"message":"thế ak,thi e dang có ý dinh sang do vau di lam vua hc a nạ,nen e muon biet loi khuyen của anh chi di truoc nạ","can_remove":false,"created_time":"2014-04-01T14:28:04+0000","like_count":0,"user_likes":false},"843543772328968":{"id":"843543772328968","from":{"id":"100004187114168","name":"Hoang Hieu Pro"},"message":"thế hả anh","can_remove":false,"created_time":"2014-04-01T14:33:08+0000","like_count":0,"user_likes":false},"843544428995569":{"id":"843544428995569","from":{"id":"100005308895955","name":"Jimmy Hip Nguyen"},"message":"Kiếm ¥ thì tu nghiệp sih b nhé. Du học thì xđih vài năm đầu k có gì ngoài kiến thức nha.","can_remove":false,"created_time":"2014-04-01T14:33:39+0000","like_count":0,"user_likes":false},"843544758995536":{"id":"843544758995536","from":{"id":"100004187114168","name":"Hoang Hieu Pro"},"message":"tại vi chỗ nha e co mấy nguoi sang đó rồi bỏ ra ngoài lam a nạ","can_remove":false,"created_time":"2014-04-01T14:34:29+0000","like_count":0,"user_likes":false},"843545832328762":{"id":"843545832328762","from":{"id":"100004187114168","name":"Hoang Hieu Pro"},"message":"vâng e cảm ơn lời khuyen cua a nhe","can_remove":false,"created_time":"2014-04-01T14:36:49+0000","like_count":0,"user_likes":false},"843546588995353":{"id":"843546588995353","from":{"id":"100004187114168","name":"Hoang Hieu Pro"},"message":"e la ctrai,đấy la hinh của nguoi yeu e ma","can_remove":false,"created_time":"2014-04-01T14:38:37+0000","like_count":0,"user_likes":false},"843547952328550":{"id":"843547952328550","from":{"id":"100004187114168","name":"Hoang Hieu Pro"},"message":"vang e cam on loi khuyen cau a nhe","can_remove":false,"created_time":"2014-04-01T14:39:52+0000","like_count":0,"user_likes":false},"843549665661712":{"id":"843549665661712","from":{"id":"100004187114168","name":"Hoang Hieu Pro"},"message":"vâng e sẽ nói với gđ và hỏi ý kiến gđ nữa mà","can_remove":false,"created_time":"2014-04-01T14:44:07+0000","like_count":0,"user_likes":false},"843570342326311":{"id":"843570342326311","from":{"id":"100001797875974","name":"Đức Hạnh"},"message":"Có bằng đh ở VN có tác dụng gì không anh Phạm Văn Khánh","message_tags":[{"id":"100008012253285","name":"Phạm Văn Khánh","type":"user","offset":41,"length":14}],"can_remove":false,"created_time":"2014-04-01T15:23:21+0000","like_count":0,"user_likes":false}},"paging":{"cursors":{"after":"ODQzNTM3MTI1NjYyOTY2","before":"ODQzNTM3MTI1NjYyOTY2"},"next":"https://graph.facebook.com/229244010425617_843535718996440/comments?limit=1&summary=1&after=ODQzNTM3MTI1NjYyOTY2"},"summary":{"order":"chronological","total_count":47}}}