{"id":"229244010425617_843585015658177","type":"status","from":{"id":"1146680551","name":"優しい なぁ"},"message":"Ai giúp bạn này với. :3 \n\nBài hơi dài ^_^ \nPhụ nữ khó hiểu hay đàn ông chậm hiểu? \n\n\" ベトナム人女性に恋をしてしまいました。女心を教えてください。 長文失礼します。始めに可能な限り、スペックを紹介します。\n\nAさん 22歳 ベトナム人 日本人ラーメン屋さんの店員 \n性格：おとなしい シャイ かわいい もてる 英語ができる \n情報：1年前元彼の母から顔のダメ出しをされて別れることになる。\nショックを受けている。 \n１年間で３度ベトナム人男性より告白されるも、好きではないからという理由で断る。 \n\n私 27歳 日本人 ベトナム滞在6ケ月\n英会話ok 離婚歴あり、Aさんには伝えている。 \n\n普段は英語で会話しています。大体私から話しかけています。\n私が一目ぼれをし、度々そのラーメン屋さんに行くようになり、\n話しをするようになりました。 \n他にも仲のいい女性定員Ｂさんがいます。（日本語OK） \n\nある日Ｂさんとメールしてたときに \n彼女がほしいと話していたら、Aさんはどうですか？と聞いてきました。 \n私は少し気になっていると伝えると、Aさんをデートに誘ってください、と言いました。 \nAさんも気にしてくれているのかなと思い、今度デートに誘おうと思いました。 \nでもなんだかその辺ぐらいからAさんが私を避けているような気がしました。 \n\nそしてその次の日、デートに誘おうと思い、ラｰメン屋さんに行きましたが、 \nAさんは全く出てきてくれませんでした。Bさんがいたのでなんで出てきてくれないの？ \nと聞くと、わかりませんとのこと。\n結局Ｂさんも本当のAさんの気持ちがわからないようです。 \n\nその日の夜Aさんに思い切ってメールしました。\n\n「話したいことがあったから、今日話したかったな。」 \n「何ですか？」 \n「もしあなたとデートしたい、と言ったら受けてくれますか？」 \n「はい、予定が空いているときであれば。」 \n「よかった、嫌われたかと思ってた。」 \n「そんなことないです、予定が空いているときであれば、会います。」 \n「そうですか。いつ空いてますか？」 \n「私が空いている時すぐ連絡します。もう遅いので今日は寝てください。」 \n\nというメールが続きました。ただなんだかこのまま返信がない気がします。 \n\n好きな人以外とデートすることはベトナムでもありえるのか？ \nなぜ私がラーメン屋さんに行った時、一度も顔を見せてくれなかったのか？\n\n彼女が本当に何を考えているかわかりません。女心を教えてください。\n断るに断れず、正直私の気持ちを察して迷惑がっているのではと感じています。”","created_time":"2014-04-01T15:54:11+0000","updated_time":"2014-04-02T07:27:43+0000","likes":{"data":{"100003227211791":{"id":"100003227211791","name":"Lan Lan"},"100002470650247":{"id":"100002470650247","name":"LinhLinh Chan"},"100000049850027":{"id":"100000049850027","name":"Anh Nguyen"},"100001432462223":{"id":"100001432462223","name":"Truong Nguyen"},"100001872458112":{"id":"100001872458112","name":"Alita Nguyen"},"100003282697164":{"id":"100003282697164","name":"Nguyễn Văn Vương"},"100001161097054":{"id":"100001161097054","name":"Hoa Lê"},"100001995633843":{"id":"100001995633843","name":"Yasunobu Toda"},"100006014164976":{"id":"100006014164976","name":"Bình Bông"},"100003920174988":{"id":"100003920174988","name":"Chuot Dong"},"100004450956167":{"id":"100004450956167","name":"Thắng Satoh"},"100001393959821":{"id":"100001393959821","name":"Le Ngoc Linh Nhi"},"100000644733146":{"id":"100000644733146","name":"Thuy Pham Duc"},"100001338846010":{"id":"100001338846010","name":"Sơn Nguyễn Minh"},"100002333971123":{"id":"100002333971123","name":"Tran Cong"},"100002963737004":{"id":"100002963737004","name":"Hà Phùng"},"100002975299796":{"id":"100002975299796","name":"Trinh Tuan Anh"}},"paging":{"cursors":{"after":"MTAwMDAzMjI3MjExNzkx","before":"MTAwMDAzMjI3MjExNzkx"},"next":"https://graph.facebook.com/229244010425617_843585015658177/likes?limit=1&summary=1&after=MTAwMDAzMjI3MjExNzkx"},"summary":{"total_count":17}},"comments":{"data":{"843586148991397":{"id":"843586148991397","from":{"id":"1146680551","name":"優しい なぁ"},"message":"http://m.chiebukuro.yahoo.co.jp/detail/q13121231173\n\nCó thể đọc thêm ở đây :3 có mấy câu trả lời hay nhắm :3","can_remove":false,"created_time":"2014-04-01T15:57:45+0000","like_count":3,"user_likes":false},"843587005657978":{"id":"843587005657978","from":{"id":"100003094158721","name":"Hikari Truong"},"message":"Nhìn dài khỏi đọc luôn... Haizzz","can_remove":false,"created_time":"2014-04-01T15:59:36+0000","like_count":0,"user_likes":false},"843587238991288":{"id":"843587238991288","from":{"id":"100001154562752","name":"Ha Nguyen"},"message":"phụ nữ khó hiểu thật :))","can_remove":false,"created_time":"2014-04-01T16:00:20+0000","like_count":0,"user_likes":false},"843587388991273":{"id":"843587388991273","from":{"id":"100007468213697","name":"Minh Cảnh"},"message":"Thím nào dịch đi..","can_remove":false,"created_time":"2014-04-01T16:00:37+0000","like_count":0,"user_likes":false},"843587622324583":{"id":"843587622324583","from":{"id":"1146680551","name":"優しい なぁ"},"message":"Chú dịch đi :3","can_remove":false,"created_time":"2014-04-01T16:01:18+0000","like_count":0,"user_likes":false},"843587922324553":{"id":"843587922324553","from":{"id":"100003094158721","name":"Hikari Truong"},"message":"Ai post người ấy dịch... Há","can_remove":false,"created_time":"2014-04-01T16:01:47+0000","like_count":0,"user_likes":false},"843588005657878":{"id":"843588005657878","from":{"id":"100001154562752","name":"Ha Nguyen"},"message":"tình hình rất là tình hình mà chuyện này có thật ấy ạ?","can_remove":false,"created_time":"2014-04-01T16:01:58+0000","like_count":0,"user_likes":false},"843588112324534":{"id":"843588112324534","from":{"id":"100003094158721","name":"Hikari Truong"},"message":"Ai post người ấy dịch... Há","can_remove":false,"created_time":"2014-04-01T16:02:18+0000","like_count":1,"user_likes":false},"843588138991198":{"id":"843588138991198","from":{"id":"100007468213697","name":"Minh Cảnh"},"message":"E sợ gạch đá lắm nên chỉ chờ hóng thôi.","can_remove":false,"created_time":"2014-04-01T16:02:23+0000","like_count":0,"user_likes":false},"843588372324508":{"id":"843588372324508","from":{"id":"100007468213697","name":"Minh Cảnh"},"message":"Hikari Truong like you","can_remove":false,"created_time":"2014-04-01T16:03:00+0000","like_count":1,"user_likes":false},"843588482324497":{"id":"843588482324497","from":{"id":"1146680551","name":"優しい なぁ"},"message":"Đàn ông k sợ :3","can_remove":false,"created_time":"2014-04-01T16:03:15+0000","like_count":0,"user_likes":false},"843588772324468":{"id":"843588772324468","from":{"id":"1146680551","name":"優しい なぁ"},"message":"Nếu nói vại mỗi người chia ra dịch cho zui :3","can_remove":false,"created_time":"2014-04-01T16:04:03+0000","like_count":0,"user_likes":false},"843588852324460":{"id":"843588852324460","from":{"id":"100003094158721","name":"Hikari Truong"},"message":"Minh cảnh::: tanh tiu^o^","can_remove":false,"created_time":"2014-04-01T16:04:18+0000","like_count":0,"user_likes":false},"843589412324404":{"id":"843589412324404","from":{"id":"100003094158721","name":"Hikari Truong"},"message":"優しいなぁ:ko tốt ko tốt","can_remove":false,"created_time":"2014-04-01T16:05:55+0000","like_count":0,"user_likes":false},"843589808991031":{"id":"843589808991031","from":{"id":"1146680551","name":"優しい なぁ"},"message":"関係ねえー","can_remove":false,"created_time":"2014-04-01T16:06:48+0000","like_count":0,"user_likes":false},"843591445657534":{"id":"843591445657534","from":{"id":"100007468213697","name":"Minh Cảnh"},"message":"Thế hoá ra suốt ngày trên đây xem có j hot là lại share à a.. Cái tên face cũng khó viết..  Để tiếng việt có dễ k....chắc hổng làm baito ạ","can_remove":false,"created_time":"2014-04-01T16:09:10+0000","like_count":0,"user_likes":false},"843591772324168":{"id":"843591772324168","from":{"id":"1146680551","name":"優しい なぁ"},"message":"Uhm. Rãnh mà cưng.","can_remove":false,"created_time":"2014-04-01T16:09:52+0000","like_count":1,"user_likes":false},"843594158990596":{"id":"843594158990596","from":{"id":"100004399687724","name":"Nguyễn Đức Huy"},"message":"Hoặc là bà này đi làm trâu quá không có thời gian để mà hẹn hò, hai là ông Nhật này quá xấu hoặc dở hơi nên bà ấy không thích, chứ con gái thì ở đâu trả giống nhau mà hỏi với trả han.","can_remove":false,"created_time":"2014-04-01T16:13:48+0000","like_count":1,"user_likes":false},"843594528990559":{"id":"843594528990559","from":{"id":"100002333971123","name":"Tran Cong"},"message":"女なら僕にもわからないけれども、あの子は恥ずかしいと思いますよ。頑張れ。","can_remove":false,"created_time":"2014-04-01T16:15:00+0000","like_count":0,"user_likes":false},"843594662323879":{"id":"843594662323879","from":{"id":"1146680551","name":"優しい なぁ"},"message":":v","can_remove":false,"created_time":"2014-04-01T16:15:21+0000","like_count":0,"user_likes":false},"843595258990486":{"id":"843595258990486","from":{"id":"100003978931285","name":"Tuấn Nguyễn"},"message":"đang ở việt nam thứ nhất trình độ tiếng nhật của mình còn kém thứ 2 cái máy tính không hỗ trợ tiếng nhật không đọc được gì :3 các bác dịch cho mình hóng với :)","can_remove":false,"created_time":"2014-04-01T16:17:05+0000","like_count":0,"user_likes":false},"843601795656499":{"id":"843601795656499","from":{"id":"100002333971123","name":"Tran Cong"},"message":"Minh ko du trinh do dich cho các bạn nhung minh thay nó rat binh thuong thui . Ko co gi hong dau . Hihi . Cam on bạn dang bai nay nhe . Vi minh co them nhieu thu de mim cuoi .","can_remove":false,"created_time":"2014-04-01T16:28:39+0000","like_count":1,"user_likes":false},"843603925656286":{"id":"843603925656286","from":{"id":"100002333971123","name":"Tran Cong"},"message":"mà nè xấu bụng ( 優しい方) . bạn nhan tien dịch giup các bạn đó di . ai dem con bỏ chợ vậy  .","can_remove":false,"created_time":"2014-04-01T16:33:23+0000","like_count":0,"user_likes":false},"843606778989334":{"id":"843606778989334","from":{"id":"100003094158721","name":"Hikari Truong"},"message":"優しいなぁ: quà tặng của ông anh chả ai nhận... Nên a tự mở quà nha...","can_remove":false,"created_time":"2014-04-01T16:40:16+0000","like_count":1,"user_likes":false},"843610748988937":{"id":"843610748988937","from":{"id":"1146680551","name":"優しい なぁ"},"message":"Trước tiên cmt có dấu nhé :3\nDịch đại khái:\nMột anh chàng 27 tuổi người Nhật , trót yêu một cô gái 22 tuổi ngườ Vn dịu dàng , dễ thương nhưng hơi xấu hổ, nhút nhát và nói tiếng anh được. Chia tay người iu trước hơn 1 năm rùi.\nThì 2 người có nt qua lại vs nhau, có nói vài lời đường mật. A chàng người nhật kia mới tưởng là cũng để ý đến ảnh nên đã tính rủ hẹn họ với ẻm.\nNhưng hôm sau, khi gặp ẻm thì ẻm chẳng thèm đã động gì , nên anh chàng này càng không hiểu cổ đang nghĩ gì.\nVà típ tục nhắn tin qua lại nhưng lạ là đến quán ramen thì chằng thèm nhìn ảnh....\nLý do k đi hẹn hò của cô ấy là : bận .\nNên a ta hỏi là: ở vn, nếu mà không thích nhau thì người ta có hẹn hò vs nhau hem :3\n........","can_remove":false,"created_time":"2014-04-01T16:45:51+0000","like_count":1,"user_likes":false},"843884818961530":{"id":"843884818961530","from":{"id":"100000500260636","name":"Lưu Nguyễn Thảo Tiên"},"message":"Mẹ ông ấy k thích cái mặt con dâu mà ông này chia tay à!\nCái đó là tính xấu của 1 số chị em phụ nữ Vn roài. \nCó a nào đó thích mình thì giữ lại mang tiếng nc với ng nước ngoài cho oai. Không Tây thì cũng Nhật, Đài Loan.","can_remove":false,"created_time":"2014-04-02T04:12:02+0000","like_count":1,"user_likes":false},"843925108957501":{"id":"843925108957501","from":{"id":"569263718","name":"Phuong Thao Tran"},"message":"Mẹ của ông nào Lưu Nguyễn Thảo Tiên? bài trên là mẹ của người yêu cũ của cô gái nhé.","message_tags":[{"id":"100000500260636","name":"Lưu Nguyễn Thảo Tiên","type":"user","offset":15,"length":20}],"can_remove":false,"created_time":"2014-04-02T05:53:11+0000","like_count":1,"user_likes":false},"843925362290809":{"id":"843925362290809","from":{"id":"569263718","name":"Phuong Thao Tran"},"message":"còn cô gái có thể ngại về cái quá khứ một đời vợ của anh chàng chăng... ^^","can_remove":false,"created_time":"2014-04-02T05:53:49+0000","like_count":2,"user_likes":false},"843983002285045":{"id":"843983002285045","from":{"id":"100000500260636","name":"Lưu Nguyễn Thảo Tiên"},"message":"Dạ em nhầm, cảm ơn chị,oeee","can_remove":false,"created_time":"2014-04-02T07:27:43+0000","like_count":0,"user_likes":false}},"paging":{"cursors":{"after":"ODQzNTg2MTQ4OTkxMzk3","before":"ODQzNTg2MTQ4OTkxMzk3"},"next":"https://graph.facebook.com/229244010425617_843585015658177/comments?limit=1&summary=1&after=ODQzNTg2MTQ4OTkxMzk3"},"summary":{"order":"chronological","total_count":29}}}