{"id":"229244010425617_843526762330669","type":"link","picture":"https://fbexternal-a.akamaihd.net/safe_image.php?d=AQCUWTpydSYEbHDR&w=154&h=154&url=http%3A%2F%2Fwww.bigsight.jp%2Fimg%2Finfo_bnr_01.jpg","link":"http://www.bigsight.jp/english/","from":{"id":"1227016020","name":"Giang Huong Nguyen"},"message":"Chào mọi người. Công ty mình là Seta International, làm về IT. Công ty mình cần tuyển baito lễ tân đứng phát tài liệu trong triển lãm của công ty (Tiếng Nhật N4 trở lên là OK)\n\n■Thời gian: Ngày 14, 15 , 16 tháng 5 /2014. Từ 10h-18h. Có thể làm theo ca sáng chiều, theo ngày. Các bạn đi được ngày nào, ca nào cứ liên lạc với mình mình sẽ sắp xếp. \n\n■Địa điểm : 〒135-0063 東京都江東区有明3-11-1\n(Tokyo Big Sight Inc. 3-11-1 Ariake, Koto-ku, Tokyo, Japan 135-0063)\nhttp://www.bigsight.jp/english/\n\n■Lương: 900yen/ giờ\n\n■Yêu cầu: Ngoại hình phù hợp mặc áo dài. Ưu tiên những bạn có áo dài và đi làm được nhiều buổi. Ưu tiên các bạn liên lạc sớm.\n\n■ Liên lạc: giang.n.h@seta-international.co.jp\n\n※ Chú ý: Các bạn nếu thực sự có thể đi được thì hãy đăng ký, đừng đăng ký cho vui rồi đến gần ngày mới báo là không đi được, sẽ rất khó cho bên mình.\nCảm ơn các bạn đã đọc tin.","created_time":"2014-04-01T13:58:35+0000","updated_time":"2014-04-01T16:19:51+0000","likes":{"data":{"711491571":{"id":"711491571","name":"Graziani Inaizarg"},"1580589258":{"id":"1580589258","name":"Kani Oboeru"},"100003807346055":{"id":"100003807346055","name":"Chap Nhan Di"},"100000402376462":{"id":"100000402376462","name":"Hoan Pham Van"},"100002088790567":{"id":"100002088790567","name":"Phù Du"},"1223217351":{"id":"1223217351","name":"Lê Minh Quân"},"100003024730023":{"id":"100003024730023","name":"Sachiko Hạnh"},"100000341039244":{"id":"100000341039244","name":"Minzoku Kaori"},"100003069246142":{"id":"100003069246142","name":"Hồng Trịnh"},"100000106747415":{"id":"100000106747415","name":"Dư Công Diệp"}},"paging":{"cursors":{"after":"NzExNDkxNTcx","before":"NzExNDkxNTcx"},"next":"https://graph.facebook.com/229244010425617_843526762330669/likes?limit=1&summary=1&after=NzExNDkxNTcx"},"summary":{"total_count":10}},"comments":{"data":{"843537145662964":{"id":"843537145662964","from":{"id":"100003307609044","name":"Ha Jp"},"message":"gui thong tin vao mail ak ban","can_remove":false,"created_time":"2014-04-01T14:20:21+0000","like_count":0,"user_likes":false},"843541618995850":{"id":"843541618995850","from":{"id":"100003156783866","name":"Nguyễn Dương"},"message":"ko tuyển nam ak bạn","can_remove":false,"created_time":"2014-04-01T14:29:07+0000","like_count":0,"user_likes":false},"843542105662468":{"id":"843542105662468","from":{"id":"1227016020","name":"Giang Huong Nguyen"},"message":"Tuyển nữ bạn nhé. Gửi thông tin vào mail cho m nhé. Thanks ban","can_remove":false,"created_time":"2014-04-01T14:29:44+0000","like_count":0,"user_likes":false},"843542875662391":{"id":"843542875662391","from":{"id":"1778384200","name":"Trần Hạnh"},"message":"SETA còn tuyển BrSE Nhật ko bạn ui?","can_remove":false,"created_time":"2014-04-01T14:31:36+0000","like_count":1,"user_likes":false},"843550735661605":{"id":"843550735661605","from":{"id":"1580589258","name":"Kani Oboeru"},"message":"Seta giờ khủng nhỉ","can_remove":false,"created_time":"2014-04-01T14:46:24+0000","like_count":1,"user_likes":false},"843551105661568":{"id":"843551105661568","from":{"id":"1227016020","name":"Giang Huong Nguyen"},"message":"Trần Hạnh: Bên mình có bạn nhé, bạn gửi CV cho mình nhé ^^","can_remove":false,"created_time":"2014-04-01T14:47:23+0000","like_count":0,"user_likes":false},"843551408994871":{"id":"843551408994871","from":{"id":"1227016020","name":"Giang Huong Nguyen"},"message":"@kani Oboeru: Thanks bạn, cùng phát triển vững mạnh nhé :)","can_remove":false,"created_time":"2014-04-01T14:48:04+0000","like_count":0,"user_likes":false},"843596972323648":{"id":"843596972323648","from":{"id":"100000038403442","name":"Murasakino Ayame"},"message":"Cá Sibi ^^","message_tags":[{"id":"100000189774871","name":"Cá Sibi","type":"user","offset":0,"length":7}],"can_remove":false,"created_time":"2014-04-01T16:19:51+0000","like_count":0,"user_likes":false}},"paging":{"cursors":{"after":"ODQzNTM3MTQ1NjYyOTY0","before":"ODQzNTM3MTQ1NjYyOTY0"},"next":"https://graph.facebook.com/229244010425617_843526762330669/comments?limit=1&summary=1&after=ODQzNTM3MTQ1NjYyOTY0"},"summary":{"order":"chronological","total_count":8}}}