{"id":"229244010425617_843558555660823","type":"status","from":{"id":"100004943376120","name":"Rikka Takanashi"},"message":"Mọi người ai có link luyện nghe bài tập của Minna no Nihongo hoặc của bài tập nào khác thì cho e được không ạ. E xin cảm ơn ạ","created_time":"2014-04-01T14:58:23+0000","updated_time":"2014-04-07T12:03:09+0000","likes":{"data":{"100003279184320":{"id":"100003279184320","name":"Nguyen Long Hoang"},"100004943376120":{"id":"100004943376120","name":"Rikka Takanashi"},"100002975299796":{"id":"100002975299796","name":"Trinh Tuan Anh"},"100004084175316":{"id":"100004084175316","name":"Xuyen Pham"},"100007806284139":{"id":"100007806284139","name":"Đặng Yên"}},"paging":{"cursors":{"after":"MTAwMDAzMjc5MTg0MzIw","before":"MTAwMDAzMjc5MTg0MzIw"},"next":"https://graph.facebook.com/229244010425617_843558555660823/likes?limit=1&summary=1&after=MTAwMDAzMjc5MTg0MzIw"},"summary":{"total_count":5}},"comments":{"data":{"843560688993943":{"id":"843560688993943","from":{"id":"100004484136922","name":"Ling Lingg"},"message":"a ạ, nếu e tìm đ.c cái mp4 thì trong đó có giáo trình chuẩn của tiếng nhật núi trúc :v","can_remove":false,"created_time":"2014-04-01T15:01:05+0000","like_count":0,"user_likes":false},"843561172327228":{"id":"843561172327228","from":{"id":"100000038095961","name":"Trần Thế Anh"},"message":"http://www.studyjapanese.net/2011/03/file-audio-cua-50-bai-khoa-minna-no.html tất cả những gì bạn cần nó ở đây nhé..:3","can_remove":false,"created_time":"2014-04-01T15:02:23+0000","like_count":1,"user_likes":false},"847071451976200":{"id":"847071451976200","from":{"id":"100004943376120","name":"Rikka Takanashi"},"message":"Trần Thế Anh hai , Arigatou nee :3","message_tags":[{"id":"100000038095961","name":"Trần Thế Anh","type":"user","offset":0,"length":12}],"can_remove":false,"created_time":"2014-04-07T12:03:09+0000","like_count":0,"user_likes":false}},"paging":{"cursors":{"after":"ODQzNTYwNjg4OTkzOTQz","before":"ODQzNTYwNjg4OTkzOTQz"},"next":"https://graph.facebook.com/229244010425617_843558555660823/comments?limit=1&summary=1&after=ODQzNTYwNjg4OTkzOTQz"},"summary":{"order":"chronological","total_count":3}}}