{"id":"229244010425617_843569822326363","type":"link","picture":"https://fbexternal-a.akamaihd.net/safe_image.php?d=AQAH8EQ_J3hdl7FN&w=154&h=154&url=http%3A%2F%2Fgotojapan.vn%2Fadmin%2Fimg%2Fupload%2F6abc9f80668affd5122bd55ed2064b89.png","link":"http://gotojapan.vn/ct-tin/817/tuyen-tinh-nguyen-vien-chuong-trinh-chung-tay-xep-nu-cuoi","from":{"id":"100005504642044","name":"Võ Tú Duyên"},"message":"[THÔNG TIN TÌNH NGUYỆN]\n\nNhằm chia sẻ nỗi đau và đem lại nụ cười cho các em nhỏ kém may mắn ở Bệnh viện Nhi Trung Ương, cũng như tại các bệnh viên khác, Trung tâm Tư vấn Du học và Đào tạo Tiếng Nhật VTM – HR cùng các bạn TNV người Nhật tổ chức chương trình từ thiện “Chung tay xếp Nụ cười” với hy vọng đem lại nụ cười - liều thuốc tinh thần quý giá song hành cùng các em trên con đường chống chọi với bệnh tật. Chương trình đầu tiên dự kiến diễn ra vào ngày 20/4/2014 tại Bệnh viện Nhi Trung ương.\n\nĐể chương trình có thể diễn ra một cách tốt đẹp, cũng như để các em cảm nhận tốt hơn tình thương của những người xung quanh với mình, chúng tôi rất mong có được cần sự hỗ trợ của các bạn tình nguyện viên .\n\nSố lượng: 20 người\n\nYêu cầu:\n- Nhanh nhẹn, sáng tạo, nhiệt tình\n- Yêu thích trẻ em và có tấm lòng nhân ái.\n- Ưu tiên ứng viên có kinh nghiệm tổ chức trò chơi cho trẻ em, cũng như các hoạt động thiện nguyện khác.\n\nCông việc chi tiết và cách thức đăng ký xin vui lòng xem tại link dưới đây.\n\nhttp://gotojapan.vn/ct-tin/817/tuyen-tinh-nguyen-vien-chuong-trinh-chung-tay-xep-nu-cuoi","created_time":"2014-04-01T15:21:56+0000","updated_time":"2014-04-01T16:11:05+0000","likes":{"data":{"100001416272263":{"id":"100001416272263","name":"Mai PB"},"100003057566512":{"id":"100003057566512","name":"Thúy Nguyễn"},"100002744609053":{"id":"100002744609053","name":"Hồng Cass"},"569263718":{"id":"569263718","name":"Phuong Thao Tran"},"100007806284139":{"id":"100007806284139","name":"Đặng Yên"},"100001432462223":{"id":"100001432462223","name":"Truong Nguyen"},"100005381678231":{"id":"100005381678231","name":"Djnh Nguyen"},"100003466287943":{"id":"100003466287943","name":"Kim Chi Saki Loyal"},"100002508122689":{"id":"100002508122689","name":"Vũ Mạnh Tuấn"},"100001277305626":{"id":"100001277305626","name":"Hiền Hí Hửng"}},"paging":{"cursors":{"after":"MTAwMDAxNDE2MjcyMjYz","before":"MTAwMDAxNDE2MjcyMjYz"},"next":"https://graph.facebook.com/229244010425617_843569822326363/likes?limit=1&summary=1&after=MTAwMDAxNDE2MjcyMjYz"},"summary":{"total_count":10}},"comments":{"data":{"843592532324092":{"id":"843592532324092","from":{"id":"100002744609053","name":"Hồng Cass"},"message":"Độc Hành","message_tags":[{"id":"1820725762","name":"Độc Hành","type":"user","offset":0,"length":8}],"can_remove":false,"created_time":"2014-04-01T16:11:05+0000","like_count":1,"user_likes":false}},"paging":{"cursors":{"after":"ODQzNTkyNTMyMzI0MDky","before":"ODQzNTkyNTMyMzI0MDky"}},"summary":{"order":"chronological","total_count":1}}}