{"id":"229244010425617_843541998995812","type":"status","from":{"id":"100003122298713","name":"Đô Rê Môn"},"message":"Chào mọi người.\nE muốn hỏi anh chị là đi nhật theo diện tu nghiệp sinh hay xuất khâủ lao động gì đó có ổn k ạ.\nE có cơ hội trao dồi tieeng nhật k.vì bây giờ đi du học e không có khả năng chi trả\nMong mọi ngươi tư vân giúp e ak\nthanks mọi ngừơi","created_time":"2014-04-01T14:29:33+0000","updated_time":"2014-04-02T02:55:33+0000","likes":{"data":{"100003903565961":{"id":"100003903565961","name":"Trâm Kute"},"100002580875569":{"id":"100002580875569","name":"Nguyen Xi"},"100003466287943":{"id":"100003466287943","name":"Kim Chi Saki Loyal"},"100007446790574":{"id":"100007446790574","name":"Hoàng Công Viên"},"746619078":{"id":"746619078","name":"Nguyen Le"},"100007806284139":{"id":"100007806284139","name":"Đặng Yên"},"100003800328678":{"id":"100003800328678","name":"Takahashi Phan"},"100006470949779":{"id":"100006470949779","name":"Nghìn Ký Tự"}},"paging":{"cursors":{"after":"MTAwMDAzOTAzNTY1OTYx","before":"MTAwMDAzOTAzNTY1OTYx"},"next":"https://graph.facebook.com/229244010425617_843541998995812/likes?limit=1&summary=1&after=MTAwMDAzOTAzNTY1OTYx"},"summary":{"total_count":8}},"comments":{"data":{"843545642328781":{"id":"843545642328781","from":{"id":"100002916284756","name":"Tường Nguyễn Văn"},"message":"Tu nghiệp sinh hay thực tập sinh đều hên xui vào dc công ti như thế nào nữa mới quyết định được là khổ hay k? Xuất khẩu lao động cũng vậy, du học thì tiếng nhật phải vững cơ may dễ sống vào làm thêm phụ chi phí, tìm hiểu kĩ công ti đưa mình đi, có an toàn k? Nhưng ng đi trc nhiều ng bị bỏ rơi lắm","can_remove":false,"created_time":"2014-04-01T14:36:23+0000","like_count":1,"user_likes":false},"843545685662110":{"id":"843545685662110","from":{"id":"100002966928087","name":"Nguyen van Dat"},"message":"cơ hội hay không do mình thôi cho dù là ở đâu.nhưng nếu ở bên nhật thì bạn sẽ nhanh tiếp thu hơn,vì được kaiwo nhiều với người nhật,tôi có 1 người bạn học 1 năm 6 tháng bên vn,giờ chuẩn bị thi n1 rồi","can_remove":false,"created_time":"2014-04-01T14:36:31+0000","like_count":1,"user_likes":false},"843545918995420":{"id":"843545918995420","from":{"id":"100003245420682","name":"Thỏ Ngọc Usagi"},"message":"Nếu ko đủ tài chính thì ko nên đi du học. Sẽ rất vất vả và ko có tiền. N bù lại sẽ có vốn tiếng nhật. Đi tns sẽ ko phải lo vấn đề tiền nhưng có trau dồi đc tiếng hay ko thì còn tuỳ thuộc từng cty và tuỳ thuộc vào bản thân bạn","can_remove":false,"created_time":"2014-04-01T14:36:56+0000","like_count":1,"user_likes":false},"843547435661935":{"id":"843547435661935","from":{"id":"100005865042504","name":"Vẽ Trái Tim"},"message":"Xkld b à :)","can_remove":false,"created_time":"2014-04-01T14:39:42+0000","like_count":1,"user_likes":false},"843548468995165":{"id":"843548468995165","from":{"id":"100003122298713","name":"Đô Rê Môn"},"message":"tai vì mình nghe có nhiều thôn tin trái chiều về tns nên cũng rât phân vân.","can_remove":false,"created_time":"2014-04-01T14:40:37+0000","like_count":0,"user_likes":false},"843548515661827":{"id":"843548515661827","from":{"id":"100006263888044","name":"Hoàng Oanh"},"message":"bạn của Nguyen van Dat học 1 năm 6 tháng mà đã chuẩn bị thi n1 rồi á.giỏi nhỉ.n1 thì khó kinh khủng luôn toàn chữ hán thui","can_remove":false,"created_time":"2014-04-01T14:40:42+0000","like_count":0,"user_likes":false},"843549012328444":{"id":"843549012328444","from":{"id":"100003122298713","name":"Đô Rê Môn"},"message":"b nào biết cty nào uy tin không cho mình thông tin với.giờ đi tìm cứ ngơ ngơ ak","can_remove":false,"created_time":"2014-04-01T14:41:59+0000","like_count":0,"user_likes":false},"843549098995102":{"id":"843549098995102","from":{"id":"100002966928087","name":"Nguyen van Dat"},"message":"uh,tùy vào khả năng tiếp thu và nổ lực của tưng người nữa,có người 2 năm chưa được n3,nhưng có người 6 tháng đã được rồi","can_remove":false,"created_time":"2014-04-01T14:42:17+0000","like_count":0,"user_likes":false},"843549435661735":{"id":"843549435661735","from":{"id":"100006263888044","name":"Hoàng Oanh"},"message":"bmẹ mình ở bên nhật 14 năm rùi mà chỉ có n2 thui.n1 chủ yếu la nguoi trung quoc hoc n1","can_remove":false,"created_time":"2014-04-01T14:43:21+0000","like_count":1,"user_likes":false},"843549465661732":{"id":"843549465661732","from":{"id":"100002966928087","name":"Nguyen van Dat"},"message":"Hoàng Oanh bạn có tin chỉ cần 1h  bạn tôi nhớ hết 50 từ mới.và cả kanji không :v","message_tags":[{"id":"100006263888044","name":"Hoàng Oanh","type":"user","offset":0,"length":10}],"can_remove":false,"created_time":"2014-04-01T14:43:23+0000","like_count":1,"user_likes":false},"843549662328379":{"id":"843549662328379","from":{"id":"100002966928087","name":"Nguyen van Dat"},"message":"thi n1 khoảng 80 % là trung quốc,","can_remove":false,"created_time":"2014-04-01T14:44:06+0000","like_count":1,"user_likes":false},"843549708995041":{"id":"843549708995041","from":{"id":"100006263888044","name":"Hoàng Oanh"},"message":"uh.thì ai chịu khó thì cũng học dc ma","can_remove":false,"created_time":"2014-04-01T14:44:11+0000","like_count":0,"user_likes":false},"843549872328358":{"id":"843549872328358","from":{"id":"100006263888044","name":"Hoàng Oanh"},"message":"uk.n1 khó lắm","can_remove":false,"created_time":"2014-04-01T14:44:43+0000","like_count":0,"user_likes":false},"843550262328319":{"id":"843550262328319","from":{"id":"100005865042504","name":"Vẽ Trái Tim"},"message":"Biết đến bao giờ m mới thi đc n1 :)))","can_remove":false,"created_time":"2014-04-01T14:45:49+0000","like_count":0,"user_likes":false},"843550752328270":{"id":"843550752328270","from":{"id":"100006263888044","name":"Hoàng Oanh"},"message":"fải chịu khó học thì thi đc","can_remove":false,"created_time":"2014-04-01T14:46:26+0000","like_count":0,"user_likes":false},"843550925661586":{"id":"843550925661586","from":{"id":"100006263888044","name":"Hoàng Oanh"},"message":"mà cần n2 là cũng dc rùi Vẽ Trái Tim","message_tags":[{"id":"100005865042504","name":"Vẽ Trái Tim","type":"user","offset":30,"length":11}],"can_remove":false,"created_time":"2014-04-01T14:46:54+0000","like_count":1,"user_likes":false},"843551502328195":{"id":"843551502328195","from":{"id":"100002966928087","name":"Nguyen van Dat"},"message":"bạn mình tu nghiệp n2 nhiều,đa số học chắc nghữ pháp bên vn,sang đây học thêm,năm đầu n3,năm thứ 2 cũng n2,có 1 số cao thủ thì n1 :v","can_remove":false,"created_time":"2014-04-01T14:48:23+0000","like_count":0,"user_likes":false},"843552068994805":{"id":"843552068994805","from":{"id":"100006263888044","name":"Hoàng Oanh"},"message":"phiên dịc cho công ti canon ở bn hầu như toàn người bằng n2","can_remove":false,"created_time":"2014-04-01T14:49:37+0000","like_count":0,"user_likes":false},"843555978994414":{"id":"843555978994414","from":{"id":"100005865042504","name":"Vẽ Trái Tim"},"message":"Úi zời mình chỉ cần n3 thôi :))","can_remove":false,"created_time":"2014-04-01T14:54:03+0000","like_count":0,"user_likes":false},"843557362327609":{"id":"843557362327609","from":{"id":"100006263888044","name":"Hoàng Oanh"},"message":"thì cố gắng là học dc n2 thôi trứ có gj","can_remove":false,"created_time":"2014-04-01T14:56:20+0000","like_count":1,"user_likes":false},"843558115660867":{"id":"843558115660867","from":{"id":"100005865042504","name":"Vẽ Trái Tim"},"message":"Khó nhai lắm :)))","can_remove":false,"created_time":"2014-04-01T14:57:32+0000","like_count":0,"user_likes":false},"843558795660799":{"id":"843558795660799","from":{"id":"100006263888044","name":"Hoàng Oanh"},"message":"the b đi truong nao hả Vẽ Trái Tim","message_tags":[{"id":"100005865042504","name":"Vẽ Trái Tim","type":"user","offset":24,"length":11}],"can_remove":false,"created_time":"2014-04-01T14:58:53+0000","like_count":1,"user_likes":false},"843560542327291":{"id":"843560542327291","from":{"id":"100005865042504","name":"Vẽ Trái Tim"},"message":"K m đy theo xkld :)","can_remove":false,"created_time":"2014-04-01T15:00:44+0000","like_count":0,"user_likes":false},"843560915660587":{"id":"843560915660587","from":{"id":"100006263888044","name":"Hoàng Oanh"},"message":"the ah,thế có đơn hàng đi chưa","can_remove":false,"created_time":"2014-04-01T15:01:43+0000","like_count":1,"user_likes":false},"843561792327166":{"id":"843561792327166","from":{"id":"100005865042504","name":"Vẽ Trái Tim"},"message":"M đag đợi b ạ.cgai chưa có đơn hàng :)","can_remove":false,"created_time":"2014-04-01T15:03:49+0000","like_count":1,"user_likes":false},"843563375660341":{"id":"843563375660341","from":{"id":"100003122298713","name":"Đô Rê Môn"},"message":"b biết cty nào k chỉ mình với.hi","can_remove":false,"created_time":"2014-04-01T15:06:56+0000","like_count":1,"user_likes":false},"843563922326953":{"id":"843563922326953","from":{"id":"100005865042504","name":"Vẽ Trái Tim"},"message":"Đô rê môn: cũng chưa đi à :) m theo cty trên hn b ạ","can_remove":false,"created_time":"2014-04-01T15:08:28+0000","like_count":0,"user_likes":false},"843564362326909":{"id":"843564362326909","from":{"id":"100007446790574","name":"Hoàng Công Viên"},"message":"Đô Rê mon là nam hay nữ","can_remove":false,"created_time":"2014-04-01T15:09:23+0000","like_count":1,"user_likes":false},"843564368993575":{"id":"843564368993575","from":{"id":"100003122298713","name":"Đô Rê Môn"},"message":"cty gì vậy.mình cũng nghe chi nói cty ơr hà nôi nhung bảo kho co don hang ak","can_remove":false,"created_time":"2014-04-01T15:09:26+0000","like_count":1,"user_likes":false},"843564445660234":{"id":"843564445660234","from":{"id":"100003122298713","name":"Đô Rê Môn"},"message":"nữ ak","can_remove":false,"created_time":"2014-04-01T15:09:43+0000","like_count":0,"user_likes":false},"843564758993536":{"id":"843564758993536","from":{"id":"100007446790574","name":"Hoàng Công Viên"},"message":"Giờ b đang ở đâu","can_remove":false,"created_time":"2014-04-01T15:10:26+0000","like_count":0,"user_likes":false},"843565222326823":{"id":"843565222326823","from":{"id":"100003122298713","name":"Đô Rê Môn"},"message":"mình ở đà nẵng ak","can_remove":false,"created_time":"2014-04-01T15:11:29+0000","like_count":0,"user_likes":false},"843565435660135":{"id":"843565435660135","from":{"id":"100005865042504","name":"Vẽ Trái Tim"},"message":"Đô rê môn: m theo cty vinaline .vì cty m mới thành lập giờ toàn đơn hàng ctrai,cgai khó quá chả thấy đâu","can_remove":false,"created_time":"2014-04-01T15:11:53+0000","like_count":1,"user_likes":false},"843565438993468":{"id":"843565438993468","from":{"id":"100007446790574","name":"Hoàng Công Viên"},"message":"Oh vậy ah","can_remove":false,"created_time":"2014-04-01T15:11:53+0000","like_count":0,"user_likes":false},"843565722326773":{"id":"843565722326773","from":{"id":"100007446790574","name":"Hoàng Công Viên"},"message":"Mình cũng đang học tiếng ở Hà Nội","can_remove":false,"created_time":"2014-04-01T15:12:40+0000","like_count":1,"user_likes":false},"843566002326745":{"id":"843566002326745","from":{"id":"100003122298713","name":"Đô Rê Môn"},"message":"học ở đó học phí bao nhiêu b","can_remove":false,"created_time":"2014-04-01T15:13:07+0000","like_count":0,"user_likes":false},"843566075660071":{"id":"843566075660071","from":{"id":"100007446790574","name":"Hoàng Công Viên"},"message":"Cty mình giờ cũng dag có 2 đơn hàng nữ chuẩn bị thi","can_remove":false,"created_time":"2014-04-01T15:13:12+0000","like_count":1,"user_likes":false},"843566392326706":{"id":"843566392326706","from":{"id":"100003122298713","name":"Đô Rê Môn"},"message":"cty b tên gì vậy?hi","can_remove":false,"created_time":"2014-04-01T15:13:53+0000","like_count":0,"user_likes":false},"843566588993353":{"id":"843566588993353","from":{"id":"100005865042504","name":"Vẽ Trái Tim"},"message":"Mất gần 200 b ạ :)","can_remove":false,"created_time":"2014-04-01T15:14:14+0000","like_count":1,"user_likes":false},"843566718993340":{"id":"843566718993340","from":{"id":"100005865042504","name":"Vẽ Trái Tim"},"message":"Hoàng công viên: b học cty nào ế","can_remove":false,"created_time":"2014-04-01T15:14:36+0000","like_count":0,"user_likes":false},"843566768993335":{"id":"843566768993335","from":{"id":"100007446790574","name":"Hoàng Công Viên"},"message":"Học phí 2 triệu 1 tháng b ah","can_remove":false,"created_time":"2014-04-01T15:14:44+0000","like_count":0,"user_likes":false},"843567142326631":{"id":"843567142326631","from":{"id":"100007446790574","name":"Hoàng Công Viên"},"message":"Newtatco b ah","can_remove":false,"created_time":"2014-04-01T15:15:11+0000","like_count":0,"user_likes":false},"843567442326601":{"id":"843567442326601","from":{"id":"100005865042504","name":"Vẽ Trái Tim"},"message":"Nghe lạ thế nhể :)","can_remove":false,"created_time":"2014-04-01T15:15:50+0000","like_count":0,"user_likes":false},"843567472326598":{"id":"843567472326598","from":{"id":"100007446790574","name":"Hoàng Công Viên"},"message":"Mình thi đậu rồi còn 10 ngày nữa là bay thôi","can_remove":false,"created_time":"2014-04-01T15:15:56+0000","like_count":2,"user_likes":false},"843567645659914":{"id":"843567645659914","from":{"id":"100003122298713","name":"Đô Rê Môn"},"message":"hai trieu cung dc ak.minh ở ktx hay sao.học xong cái đi theo diện chi b","can_remove":false,"created_time":"2014-04-01T15:16:21+0000","like_count":1,"user_likes":false},"843567665659912":{"id":"843567665659912","from":{"id":"100005865042504","name":"Vẽ Trái Tim"},"message":"Thích nhá.cty b dc ở đâu.đông ng đỗ k","can_remove":false,"created_time":"2014-04-01T15:16:25+0000","like_count":0,"user_likes":false},"843567692326576":{"id":"843567692326576","from":{"id":"100007446790574","name":"Hoàng Công Viên"},"message":"Chac b ko để ý","can_remove":false,"created_time":"2014-04-01T15:16:29+0000","like_count":1,"user_likes":false},"843568082326537":{"id":"843568082326537","from":{"id":"100007446790574","name":"Hoàng Công Viên"},"message":"Tiên ktx là 150ng 1 tháng","can_remove":false,"created_time":"2014-04-01T15:17:29+0000","like_count":1,"user_likes":false},"843568168993195":{"id":"843568168993195","from":{"id":"100007446790574","name":"Hoàng Công Viên"},"message":"An uống tự túc","can_remove":false,"created_time":"2014-04-01T15:17:42+0000","like_count":0,"user_likes":false},"843568268993185":{"id":"843568268993185","from":{"id":"100003122298713","name":"Đô Rê Môn"},"message":"co N mấy là đc Hoàng công viên","can_remove":false,"created_time":"2014-04-01T15:17:54+0000","like_count":1,"user_likes":false},"843568418993170":{"id":"843568418993170","from":{"id":"100007446790574","name":"Hoàng Công Viên"},"message":"Cty mình ở 21 láng hạ bạn ah","can_remove":false,"created_time":"2014-04-01T15:18:13+0000","like_count":0,"user_likes":false},"843568515659827":{"id":"843568515659827","from":{"id":"100005865042504","name":"Vẽ Trái Tim"},"message":"Dc ở đâu ý","can_remove":false,"created_time":"2014-04-01T15:18:26+0000","like_count":0,"user_likes":false},"843568788993133":{"id":"843568788993133","from":{"id":"100005865042504","name":"Vẽ Trái Tim"},"message":"M chịu thôi :))) chúc b đy may mắn thành công","can_remove":false,"created_time":"2014-04-01T15:19:04+0000","like_count":1,"user_likes":false},"843569078993104":{"id":"843569078993104","from":{"id":"100007446790574","name":"Hoàng Công Viên"},"message":"Cảm ơn Vẽ Trái Tim nhé","message_tags":[{"id":"100005865042504","name":"Vẽ Trái Tim","type":"user","offset":7,"length":11}],"can_remove":false,"created_time":"2014-04-01T15:19:54+0000","like_count":1,"user_likes":false},"843569395659739":{"id":"843569395659739","from":{"id":"100007446790574","name":"Hoàng Công Viên"},"message":"K cần chứng chỉ. B thi đậu thì cty mới đào tạo tiếng","can_remove":false,"created_time":"2014-04-01T15:20:45+0000","like_count":0,"user_likes":false},"843569598993052":{"id":"843569598993052","from":{"id":"100007446790574","name":"Hoàng Công Viên"},"message":"Còn nếu học trước rồi thì càng tốt","can_remove":false,"created_time":"2014-04-01T15:21:15+0000","like_count":0,"user_likes":false},"843570082326337":{"id":"843570082326337","from":{"id":"100005865042504","name":"Vẽ Trái Tim"},"message":"Hoàng Công Viên: thế cty b có bắt đặt cọc tiền trước kho vào k","can_remove":false,"created_time":"2014-04-01T15:22:36+0000","like_count":0,"user_likes":false},"843570435659635":{"id":"843570435659635","from":{"id":"100007446790574","name":"Hoàng Công Viên"},"message":"Không","can_remove":false,"created_time":"2014-04-01T15:23:34+0000","like_count":0,"user_likes":false},"843570865659592":{"id":"843570865659592","from":{"id":"100007446790574","name":"Hoàng Công Viên"},"message":"Khi nào thi đậu đóng tiền đặt cọc","can_remove":false,"created_time":"2014-04-01T15:24:12+0000","like_count":1,"user_likes":false},"843571075659571":{"id":"843571075659571","from":{"id":"100007446790574","name":"Hoàng Công Viên"},"message":"Khi nào bay thì đóng tiền phí đi b ah","can_remove":false,"created_time":"2014-04-01T15:24:40+0000","like_count":1,"user_likes":false},"843572778992734":{"id":"843572778992734","from":{"id":"100001730894739","name":"Duy Viet Tran"},"message":"Neu ban di tu nghiep sinh hay xuat khau ban cung mat khoa tienkha kha ma! Đi dung cty thi ko sao di sai thi thu nhap ko dam bao? Ma theo dien ldong thi neu tiep xuc voi nguoi Nhat n ban moi tan kha nang gtiep hoc ho íc ! Ko thi cung biet coi nhu vay thoi' neu cty nao ho co day ham thu them thi dc! Ko co thi van vay thoi ban nhu la lam kiem tien thoi!","can_remove":false,"created_time":"2014-04-01T15:28:13+0000","like_count":2,"user_likes":false},"843573805659298":{"id":"843573805659298","from":{"id":"100001730894739","name":"Duy Viet Tran"},"message":"Đi thep tu nghiep sinh cung   3 năm nhung neu đúng tu nghiep sinh cua trg cu đi thi ban se dc hoc hoi ca tay nghe lan chuyen mon! Con di mang theo tinh chat thi tuy vao cty!","can_remove":false,"created_time":"2014-04-01T15:30:04+0000","like_count":1,"user_likes":false},"843574472325898":{"id":"843574472325898","from":{"id":"100003122298713","name":"Đô Rê Môn"},"message":"mình cảm ơn","can_remove":false,"created_time":"2014-04-01T15:31:03+0000","like_count":1,"user_likes":false},"843575355659143":{"id":"843575355659143","from":{"id":"100002508122689","name":"Vũ Mạnh Tuấn"},"message":"Duy Viet Tran viết tiếng Việt có dấu theo đúng quy định nhé !","message_tags":[{"id":"100001730894739","name":"Duy Viet Tran","type":"user","offset":0,"length":13}],"can_remove":false,"created_time":"2014-04-01T15:33:07+0000","like_count":1,"user_likes":false},"843581825658496":{"id":"843581825658496","from":{"id":"100001730894739","name":"Duy Viet Tran"},"message":"Vậy a! Mình xin lỗi vì ko biết!","can_remove":false,"created_time":"2014-04-01T15:46:53+0000","like_count":1,"user_likes":false},"843845282298817":{"id":"843845282298817","from":{"id":"100005865042504","name":"Vẽ Trái Tim"},"message":":)","can_remove":false,"created_time":"2014-04-02T02:55:33+0000","like_count":0,"user_likes":false}},"paging":{"cursors":{"after":"ODQzNTQ1NjQyMzI4Nzgx","before":"ODQzNTQ1NjQyMzI4Nzgx"},"next":"https://graph.facebook.com/229244010425617_843541998995812/comments?limit=1&summary=1&after=ODQzNTQ1NjQyMzI4Nzgx"},"summary":{"order":"chronological","total_count":66}}}