{"id":"229244010425617_843581435658535","type":"photo","object_id":"718142154875158","picture":"https://fbcdn-photos-c-a.akamaihd.net/hphotos-ak-frc3/t1.0-0/1471745_718142154875158_1177620231_s.jpg","link":"https://www.facebook.com/photo.php?fbid=718142154875158&set=gm.843581435658535&type=1&relevant_count=1","from":{"id":"100000381394367","name":"Thành Nguyễn"},"message":"Người khôn ngoan luôn tạo ra nhiều cơ hội hơn số cơ hội mà anh ta tìm thấy\n\n賢者はチャンスを見つけるよりも、自らチャンスを創り出す\n\n(けんじゃ)はちゃんすを(み)つけるよりも、みずからちゃんすを(つく)り(だ)す\n\nKenja wa chansu o mitsukeru yori mo, mizukara chansu o tsukuri dasu\n\nChữ Hán \n\n賢者:Hiền giả\n\n見: Kiến \n\n自: Tự\n\n創: Sáng\n\n出：Xuất","created_time":"2014-04-01T15:45:57+0000","updated_time":"2014-04-01T16:35:03+0000","likes":{"data":{"100001730894739":{"id":"100001730894739","name":"Duy Viet Tran"},"100000363320234":{"id":"100000363320234","name":"Nguyen Cuong"},"100005344084736":{"id":"100005344084736","name":"Nhất Nhất"},"100003055356509":{"id":"100003055356509","name":"Thuan Nguyen"},"100001754136107":{"id":"100001754136107","name":"Nguyễn Tuấn Vũ"},"100000045271667":{"id":"100000045271667","name":"Nam Thai Nguyen"},"100002698724287":{"id":"100002698724287","name":"Phan Văn Toàn"},"100003913383051":{"id":"100003913383051","name":"Tho Tran"},"100004456541864":{"id":"100004456541864","name":"Nha Gia"},"1146680551":{"id":"1146680551","name":"優しい なぁ"},"100005211189763":{"id":"100005211189763","name":"Oliveu Cchann"},"100000903819210":{"id":"100000903819210","name":"Huong Quach"},"100002959594535":{"id":"100002959594535","name":"Nguyen Ngoc Anh"},"100000250256418":{"id":"100000250256418","name":"Nguyen Viet Anh"},"100004870446333":{"id":"100004870446333","name":"Annie Hồ"},"100007798380150":{"id":"100007798380150","name":"海外移住"},"100002963737004":{"id":"100002963737004","name":"Hà Phùng"},"100002290906582":{"id":"100002290906582","name":"Kanashimi No Yukue"},"100007963716784":{"id":"100007963716784","name":"Ninh Thị Hường"},"100007446790574":{"id":"100007446790574","name":"Hoàng Công Viên"},"1725907325":{"id":"1725907325","name":"Nguyen Van Dung"},"100000993680274":{"id":"100000993680274","name":"Thinh Nguyen Van"},"100003275658608":{"id":"100003275658608","name":"Đỗ Hữu Phúc"},"100001741955615":{"id":"100001741955615","name":"Pham Van Thinh"},"100004215699313":{"id":"100004215699313","name":"Diện Calvin Kute"},"100007806284139":{"id":"100007806284139","name":"Đặng Yên"}},"paging":{"cursors":{"after":"MTAwMDAxNzMwODk0NzM5","before":"MTAwMDAxNzMwODk0NzM5"},"next":"https://graph.facebook.com/229244010425617_843581435658535/likes?limit=1&summary=1&after=MTAwMDAxNzMwODk0NzM5"},"summary":{"total_count":27}},"comments":{"data":{"843582792325066":{"id":"843582792325066","from":{"id":"100001741955615","name":"Pham Van Thinh"},"message":"Những cơ hội anh ta vô tình tìm thấy mới là cơ hội có giá trị nhất","can_remove":false,"created_time":"2014-04-01T15:49:00+0000","like_count":0,"user_likes":false},"843582815658397":{"id":"843582815658397","from":{"id":"100001629078159","name":"Hòa Trần"},"message":"Nhưng người khôn của hiếm..vẫn khó kiếm tiền","can_remove":false,"created_time":"2014-04-01T15:49:05+0000","like_count":0,"user_likes":false},"843583528991659":{"id":"843583528991659","from":{"id":"100003213171499","name":"Van Nguyen"},"message":"A post nhiều tí,để e học Hán tự.cảm ơn anh!","can_remove":false,"created_time":"2014-04-01T15:50:52+0000","like_count":0,"user_likes":false},"843585355658143":{"id":"843585355658143","from":{"id":"100000381394367","name":"Thành Nguyễn"},"message":"Hai bạn Pham Van Thinh và Hoa Tran có lẽ vẫn chưa hiểu hết ý nghĩa của câu này rồi :D","can_remove":false,"created_time":"2014-04-01T15:55:19+0000","like_count":0,"user_likes":false},"843586168991395":{"id":"843586168991395","from":{"id":"100000381394367","name":"Thành Nguyễn"},"message":"Bạn Van Nguyen nhu cầu của mọi người rất đa dạng, post nhiều thì lấn không gian của các bài khác, hơn nữa mình cũng ko có thời gian để làm việc đó. Duy trì mỗi ngày một post là cố gắng rồi. Còn bạn muốn học nhiều thì tìm lại các post cũ mình back up tại đây\n\nhttps://www.facebook.com/pages/Multilingual-Megamind/244808205687442?ref=hl","can_remove":false,"created_time":"2014-04-01T15:57:49+0000","like_count":1,"user_likes":false},"843586262324719":{"id":"843586262324719","from":{"id":"100001741955615","name":"Pham Van Thinh"},"message":"hihi minh hoc cau tieng nhat cua ban thoi. Con y nghia thi quan tam sau :D","can_remove":false,"created_time":"2014-04-01T15:58:04+0000","like_count":0,"user_likes":false},"843587418991270":{"id":"843587418991270","from":{"id":"100003213171499","name":"Van Nguyen"},"message":"Ko bình luận bao giờ nhưng bài nào a post e chả học Hán tự","can_remove":false,"created_time":"2014-04-01T16:00:46+0000","like_count":0,"user_likes":false},"843588905657788":{"id":"843588905657788","from":{"id":"100002427715884","name":"Hell Angel"},"message":"muốn tạo ra cơ hội, thì phải chuyển động không ngừng ạ? \nChúa ơi, e cũng chả biết phải ls nữa=))))))))) mỗi lần thất bại, sự tin tưởng vào bản thân của e càng giảm sút còn chán nản tăng","can_remove":false,"created_time":"2014-04-01T16:04:30+0000","like_count":1,"user_likes":false},"843590255657653":{"id":"843590255657653","from":{"id":"100000381394367","name":"Thành Nguyễn"},"message":"Van Nguyen, nãy bị lỗi copy vừa mới update cái link vào phần comment ở trên","can_remove":false,"created_time":"2014-04-01T16:07:30+0000","like_count":0,"user_likes":false},"843591068990905":{"id":"843591068990905","from":{"id":"100000381394367","name":"Thành Nguyễn"},"message":"Hell Angel đi tìm cái mắt trắng trong con cá đen","message_tags":[{"id":"100002427715884","name":"Hell Angel","type":"user","offset":0,"length":10}],"can_remove":false,"created_time":"2014-04-01T16:08:19+0000","like_count":0,"user_likes":false},"843602365656442":{"id":"843602365656442","from":{"id":"100006498893441","name":"Buta Chan"},"message":"Hell Angel k fai that bại mà la dùung lại cho đỡ mỏi chân...hjhj","message_tags":[{"id":"100002427715884","name":"Hell Angel","type":"user","offset":0,"length":10}],"can_remove":false,"created_time":"2014-04-01T16:30:02+0000","like_count":0,"user_likes":false},"843604502322895":{"id":"843604502322895","from":{"id":"1146680551","name":"優しい なぁ"},"message":"僕の訳: 見つけるチャンスから他のチャンスを発見できると言う賢い人である。","can_remove":false,"created_time":"2014-04-01T16:35:03+0000","like_count":0,"user_likes":false}},"paging":{"cursors":{"after":"ODQzNTgyNzkyMzI1MDY2","before":"ODQzNTgyNzkyMzI1MDY2"},"next":"https://graph.facebook.com/229244010425617_843581435658535/comments?limit=1&summary=1&after=ODQzNTgyNzkyMzI1MDY2"},"summary":{"order":"chronological","total_count":12}}}