{"id":"229244010425617_843500828999929","type":"status","from":{"id":"100007924780428","name":"Hoa Cúc Tím"},"message":"Có bạn nào chụp cảnh hoa anh đào nở, làm ơn cho tớ xin vài kiểu tớ xin cảm ơn nhiều","created_time":"2014-04-01T13:10:57+0000","updated_time":"2014-04-02T11:58:24+0000","likes":{"data":{"100007924780428":{"id":"100007924780428","name":"Hoa Cúc Tím"},"100006271507308":{"id":"100006271507308","name":"Bùi Quỳnh Anh XS"},"100005327112379":{"id":"100005327112379","name":"Guongcuoideem Dk Hanhphuk"},"100006614261300":{"id":"100006614261300","name":"Tao Cao Cường Đây"},"100001754136107":{"id":"100001754136107","name":"Nguyễn Tuấn Vũ"},"100003069246142":{"id":"100003069246142","name":"Hồng Trịnh"},"100006263888044":{"id":"100006263888044","name":"Hoàng Oanh"},"100006602973061":{"id":"100006602973061","name":"Hung Cuong"}},"paging":{"cursors":{"after":"MTAwMDA3OTI0NzgwNDI4","before":"MTAwMDA3OTI0NzgwNDI4"},"next":"https://graph.facebook.com/229244010425617_843500828999929/likes?limit=1&summary=1&after=MTAwMDA3OTI0NzgwNDI4"},"summary":{"total_count":8}},"comments":{"data":{"843502205666458":{"id":"843502205666458","from":{"id":"100006263888044","name":"Hoàng Oanh"},"message":"b ko ở nhật ah","can_remove":false,"created_time":"2014-04-01T13:13:46+0000","like_count":0,"user_likes":false},"843502815666397":{"id":"843502815666397","from":{"id":"100000270744242","name":"Rock Trong Tôi"},"message":"gửi bạn","can_remove":false,"created_time":"2014-04-01T13:14:51+0000","like_count":2,"user_likes":false},"843502972333048":{"id":"843502972333048","from":{"id":"100006263888044","name":"Hoàng Oanh"},"message":"cây lá đỏ","can_remove":false,"created_time":"2014-04-01T13:15:10+0000","like_count":0,"user_likes":false},"843502975666381":{"id":"843502975666381","from":{"id":"100007924780428","name":"Hoa Cúc Tím"},"message":"Không tớ đang ở malaysia nhưng thích ngắm hoa anh đào","can_remove":false,"created_time":"2014-04-01T13:15:11+0000","like_count":0,"user_likes":false},"843503032333042":{"id":"843503032333042","from":{"id":"100007799370568","name":"Shigatsu No Sakura"},"message":"đẹp quá.","can_remove":false,"created_time":"2014-04-01T13:15:21+0000","like_count":0,"user_likes":false},"843503122333033":{"id":"843503122333033","from":{"id":"100000270744242","name":"Rock Trong Tôi"},"message":"chỗ mình  chưa nở rộ. cuối tuần này nó mới nở. 2 bên đường cty đẹp mê hồn. cây ko cũng thấy đẹp rồi","can_remove":false,"created_time":"2014-04-01T13:15:38+0000","like_count":0,"user_likes":false},"843503378999674":{"id":"843503378999674","from":{"id":"100007799370568","name":"Shigatsu No Sakura"},"message":"đẹp nhưng mình không được ngắm trực tiếp.hu.","can_remove":false,"created_time":"2014-04-01T13:16:15+0000","like_count":1,"user_likes":false},"843504238999588":{"id":"843504238999588","from":{"id":"100006263888044","name":"Hoàng Oanh"},"message":"lúc nào có điiều kiện thì sang nhật.mùa này hoa anh đào đang nở đấy.rồi thì cây lá đỏ","can_remove":false,"created_time":"2014-04-01T13:18:09+0000","like_count":1,"user_likes":false},"843504308999581":{"id":"843504308999581","from":{"id":"100007924780428","name":"Hoa Cúc Tím"},"message":"Đẹp wa Thank Rock Trong Tôi nhiều","message_tags":[{"id":"100000270744242","name":"Trong Tôi","type":"user","offset":19,"length":9}],"can_remove":false,"created_time":"2014-04-01T13:18:15+0000","like_count":0,"user_likes":false},"843504362332909":{"id":"843504362332909","from":{"id":"100004178466278","name":"Thu Tồ Đông Anh"},"message":"","can_remove":false,"created_time":"2014-04-01T13:18:25+0000","like_count":1,"user_likes":false},"843504432332902":{"id":"843504432332902","from":{"id":"100004178466278","name":"Thu Tồ Đông Anh"},"message":"Tặng bạn :)","can_remove":false,"created_time":"2014-04-01T13:18:30+0000","like_count":0,"user_likes":false},"843504542332891":{"id":"843504542332891","from":{"id":"100005736540662","name":"Anh Đã Mơ"},"message":"","can_remove":false,"created_time":"2014-04-01T13:18:45+0000","like_count":1,"user_likes":false},"843504748999537":{"id":"843504748999537","from":{"id":"100004178466278","name":"Thu Tồ Đông Anh"},"message":"","can_remove":false,"created_time":"2014-04-01T13:19:11+0000","like_count":1,"user_likes":false},"843505065666172":{"id":"843505065666172","from":{"id":"100007799370568","name":"Shigatsu No Sakura"},"message":"cây lá đỏ và hoa đều đẹp mê hồn.","can_remove":false,"created_time":"2014-04-01T13:19:51+0000","like_count":1,"user_likes":false},"843505075666171":{"id":"843505075666171","from":{"id":"100007924780428","name":"Hoa Cúc Tím"},"message":"Tớ định tháng sau rùi wa Thank các bạn nhiều nhé","can_remove":false,"created_time":"2014-04-01T13:19:52+0000","like_count":0,"user_likes":false},"843505578999454":{"id":"843505578999454","from":{"id":"100006263888044","name":"Hoàng Oanh"},"message":"đẹp mà Hoa Cúc Tím","message_tags":[{"id":"100007924780428","name":"Hoa Cúc Tím","type":"user","offset":9,"length":11}],"can_remove":false,"created_time":"2014-04-01T13:20:35+0000","like_count":1,"user_likes":false},"843505852332760":{"id":"843505852332760","from":{"id":"100007799370568","name":"Shigatsu No Sakura"},"message":"tháng sau đi thì hoa anh đào tàn mất rồi.","can_remove":false,"created_time":"2014-04-01T13:21:01+0000","like_count":0,"user_likes":false},"843506038999408":{"id":"843506038999408","from":{"id":"100000270744242","name":"Rock Trong Tôi"},"message":"mong  tuần này chỗ hoa ở cty nở. sẽ có 1 bức ảnh dẹp hơn vậy","can_remove":false,"created_time":"2014-04-01T13:21:19+0000","like_count":1,"user_likes":false},"843506708999341":{"id":"843506708999341","from":{"id":"100007924780428","name":"Hoa Cúc Tím"},"message":"Khi nào có ảnh bạn cho tớ xin nhé tớ cảm ơn nhiều","can_remove":false,"created_time":"2014-04-01T13:22:30+0000","like_count":0,"user_likes":false},"843507202332625":{"id":"843507202332625","from":{"id":"100000270744242","name":"Rock Trong Tôi"},"message":"tháng 5 thì về phía bắc may ra còn","can_remove":false,"created_time":"2014-04-01T13:23:56+0000","like_count":0,"user_likes":false},"843507338999278":{"id":"843507338999278","from":{"id":"100000270744242","name":"Rock Trong Tôi"},"message":"chỗ mình ở tochigi thì nó đang chuẩn bị nở rồi này","can_remove":false,"created_time":"2014-04-01T13:24:18+0000","like_count":0,"user_likes":false},"843507382332607":{"id":"843507382332607","from":{"id":"100000270744242","name":"Rock Trong Tôi"},"message":"có mấy cây nở trước thôi","can_remove":false,"created_time":"2014-04-01T13:24:26+0000","like_count":0,"user_likes":false},"843508735665805":{"id":"843508735665805","from":{"id":"100007924780428","name":"Hoa Cúc Tím"},"message":"Đẹp wa hi vọng tớ wa còn dc ngắm hoa anh đào","can_remove":false,"created_time":"2014-04-01T13:26:12+0000","like_count":0,"user_likes":false},"843509692332376":{"id":"843509692332376","from":{"id":"100004178466278","name":"Thu Tồ Đông Anh"},"message":"Tokyo nở rộ lắm rồi ;)))","can_remove":false,"created_time":"2014-04-01T13:27:07+0000","like_count":1,"user_likes":false},"843510668998945":{"id":"843510668998945","from":{"id":"100007799370568","name":"Shigatsu No Sakura"},"message":"ở osaka nghe nói cũng có nhieuf hoa đẹp lắm.","can_remove":false,"created_time":"2014-04-01T13:28:16+0000","like_count":1,"user_likes":false},"843512405665438":{"id":"843512405665438","from":{"id":"100007924780428","name":"Hoa Cúc Tím"},"message":"Thank Shigatsu No Sakura. Thu Tồ Đông Anh. Nhiều nhé","message_tags":[{"id":"100007799370568","name":"Shigatsu No Sakura","type":"user","offset":6,"length":18},{"id":"100004178466278","name":"Thu Tồ Đông Anh","type":"user","offset":26,"length":15}],"can_remove":false,"created_time":"2014-04-01T13:31:03+0000","like_count":0,"user_likes":false},"843517278998284":{"id":"843517278998284","from":{"id":"100004178466278","name":"Thu Tồ Đông Anh"},"message":"度致しましてp(^_^)q","can_remove":false,"created_time":"2014-04-01T13:40:45+0000","like_count":0,"user_likes":false},"843517585664920":{"id":"843517585664920","from":{"id":"100003886630055","name":"Hokkakh Di Motminh"},"message":"","can_remove":false,"created_time":"2014-04-01T13:41:42+0000","like_count":3,"user_likes":false},"843518198998192":{"id":"843518198998192","from":{"id":"100007924780428","name":"Hoa Cúc Tím"},"message":"Xl tớ kg bít tiếng nhật","can_remove":false,"created_time":"2014-04-01T13:42:56+0000","like_count":0,"user_likes":false},"843519768998035":{"id":"843519768998035","from":{"id":"100006436037655","name":"Ngo Na"},"message":"tang ban","can_remove":false,"created_time":"2014-04-01T13:46:06+0000","like_count":3,"user_likes":false},"843523308997681":{"id":"843523308997681","from":{"id":"100007806284139","name":"Đặng Yên"},"message":"「さくら」すてきですね.","can_remove":false,"created_time":"2014-04-01T13:52:50+0000","like_count":0,"user_likes":false},"843524235664255":{"id":"843524235664255","from":{"id":"100001754136107","name":"Nguyễn Tuấn Vũ"},"message":"Tặng c, c co the vao trong abum cua t","can_remove":false,"created_time":"2014-04-01T13:54:44+0000","like_count":1,"user_likes":false},"843524468997565":{"id":"843524468997565","from":{"id":"100001754136107","name":"Nguyễn Tuấn Vũ"},"message":"","can_remove":false,"created_time":"2014-04-01T13:55:09+0000","like_count":1,"user_likes":false},"843539452329400":{"id":"843539452329400","from":{"id":"100001719655122","name":"Hoàng Công Kiên"},"message":"","can_remove":false,"created_time":"2014-04-01T14:24:05+0000","like_count":1,"user_likes":false},"843539762329369":{"id":"843539762329369","from":{"id":"100001719655122","name":"Hoàng Công Kiên"},"message":"","can_remove":false,"created_time":"2014-04-01T14:24:34+0000","like_count":1,"user_likes":false},"843562518993760":{"id":"843562518993760","from":{"id":"100004564327116","name":"Tiến Bình Nguyễn"},"message":"","can_remove":false,"created_time":"2014-04-01T15:05:19+0000","like_count":1,"user_likes":false},"843562875660391":{"id":"843562875660391","from":{"id":"100004068174376","name":"Luong Thao"},"message":"Khuyến mại nhá","can_remove":false,"created_time":"2014-04-01T15:05:51+0000","like_count":1,"user_likes":false},"843562882327057":{"id":"843562882327057","from":{"id":"100004068174376","name":"Luong Thao"},"message":"","can_remove":false,"created_time":"2014-04-01T15:05:52+0000","like_count":1,"user_likes":false},"843562968993715":{"id":"843562968993715","from":{"id":"100004068174376","name":"Luong Thao"},"message":"","can_remove":false,"created_time":"2014-04-01T15:06:08+0000","like_count":2,"user_likes":false},"843566312326714":{"id":"843566312326714","from":{"id":"100007924780428","name":"Hoa Cúc Tím"},"message":"Thank Luong Thao , Tiến Bình Nguyễn ,Hoàng Công Kiên ,Nguyễn Tuấn Vũ ,Ngo Na, Hokkakh Di Motminh nhiều nhé đẹp wa mình rất thích","message_tags":[{"id":"100004068174376","name":"Luong Thao","type":"user","offset":6,"length":10},{"id":"100004564327116","name":"Tiến Bình Nguyễn","type":"user","offset":19,"length":16},{"id":"100003886630055","name":"Hokkakh Di Motminh","type":"user","offset":78,"length":18}],"can_remove":false,"created_time":"2014-04-01T15:13:40+0000","like_count":0,"user_likes":false},"843692812314064":{"id":"843692812314064","from":{"id":"100004380181780","name":"Be Boo"},"message":"","can_remove":false,"created_time":"2014-04-01T19:42:08+0000","like_count":1,"user_likes":false},"844043598945652":{"id":"844043598945652","from":{"id":"100000628549116","name":"Hoàng Chính"},"message":"","can_remove":false,"created_time":"2014-04-02T10:03:39+0000","like_count":1,"user_likes":false},"844044402278905":{"id":"844044402278905","from":{"id":"100007924780428","name":"Hoa Cúc Tím"},"message":"Thank Hoàng Chính , Be Boo nhiều nhé","can_remove":false,"created_time":"2014-04-02T10:07:37+0000","like_count":0,"user_likes":false},"844075732275772":{"id":"844075732275772","from":{"id":"100005089175681","name":"Eck Kon"},"message":"cái này hót moi lúc sáng nè","can_remove":false,"created_time":"2014-04-02T11:45:12+0000","like_count":1,"user_likes":false},"844076582275687":{"id":"844076582275687","from":{"id":"100007924780428","name":"Hoa Cúc Tím"},"message":"Đẹp Wa thank Eck Kon nhiều","can_remove":false,"created_time":"2014-04-02T11:48:00+0000","like_count":0,"user_likes":false},"844079102275435":{"id":"844079102275435","from":{"id":"100007799370568","name":"Shigatsu No Sakura"},"message":"đẹp không?","can_remove":false,"created_time":"2014-04-02T11:54:51+0000","like_count":1,"user_likes":false},"844080545608624":{"id":"844080545608624","from":{"id":"100007924780428","name":"Hoa Cúc Tím"},"message":"Đẹp wa Thank Shigatsu No Sakura nhiều","message_tags":[{"id":"100007799370568","name":"Shigatsu No Sakura","type":"user","offset":14,"length":18}],"can_remove":false,"created_time":"2014-04-02T11:58:24+0000","like_count":0,"user_likes":false}},"paging":{"cursors":{"after":"ODQzNTAyMjA1NjY2NDU4","before":"ODQzNTAyMjA1NjY2NDU4"},"next":"https://graph.facebook.com/229244010425617_843500828999929/comments?limit=1&summary=1&after=ODQzNTAyMjA1NjY2NDU4"},"summary":{"order":"chronological","total_count":47}}}