{"id":"229244010425617_843739532309392","type":"photo","object_id":"221970874663913","picture":"https://fbcdn-photos-d-a.akamaihd.net/hphotos-ak-prn2/t1.0-0/1921955_221970874663913_1448763704_s.jpg","link":"https://www.facebook.com/kyodaijsc/photos/a.167899083404426.1073741829.167832026744465/221970874663913/?type=1","from":{"id":"100001256731971","name":"Khải Đăng Dũng"},"message":"Sao những tin này mọi người thờ ơ nhỉ ???","created_time":"2014-04-01T21:42:29+0000","updated_time":"2014-04-02T14:50:35+0000","likes":{"data":{"100001321803374":{"id":"100001321803374","name":"Quyền Nguyễn Duy"},"100000827487217":{"id":"100000827487217","name":"Dang Truong"},"100003131014697":{"id":"100003131014697","name":"Kim Long Hd"},"100006779201767":{"id":"100006779201767","name":"Yuki No Hana"},"100004512333714":{"id":"100004512333714","name":"Đạt Titikaka"},"100000131851615":{"id":"100000131851615","name":"Vu Thi Hong Nhung"},"100002902100532":{"id":"100002902100532","name":"Na Nguyễn"},"100000274458588":{"id":"100000274458588","name":"Min Cass"},"100001129126377":{"id":"100001129126377","name":"Riêu Cua Bún"},"100006581439969":{"id":"100006581439969","name":"Tài Thiếu Gia"},"100000662668291":{"id":"100000662668291","name":"Đỗ Thăng"},"100001760268040":{"id":"100001760268040","name":"Nguyễn Đăng Tính"},"100004334792317":{"id":"100004334792317","name":"Hoa Bất Tử"},"100003659412863":{"id":"100003659412863","name":"Nguyễn Tiến Minh"},"100006509792552":{"id":"100006509792552","name":"Phuong Le"},"100001819436000":{"id":"100001819436000","name":"Nguyễn Xuân Sơn"},"100005184577817":{"id":"100005184577817","name":"Tôi Ơi Đừng Khóc"},"100004110270168":{"id":"100004110270168","name":"Thảothảo Đồng"},"100003290036407":{"id":"100003290036407","name":"Tuoi Sweet"},"100007880444320":{"id":"100007880444320","name":"自由"},"100003789868758":{"id":"100003789868758","name":"Nguyễn Quốc"},"100004512392461":{"id":"100004512392461","name":"Nguyen Huong"},"100007439251631":{"id":"100007439251631","name":"Ba Anh Em"},"100003188105866":{"id":"100003188105866","name":"Momiji Chan"},"100002687851512":{"id":"100002687851512","name":"Cóc Lê"},"100004702509437":{"id":"100004702509437","name":"Đỗ Duy"},"100006566076454":{"id":"100006566076454","name":"Nguyễn Thị Thanh Tâm"},"100003755383177":{"id":"100003755383177","name":"Nguyen van Duc"},"100004916406283":{"id":"100004916406283","name":"Hoa Nguyễn"},"100004693504211":{"id":"100004693504211","name":"Nam Le"},"100004887964116":{"id":"100004887964116","name":"Trịnh Hải Yến"},"100004010420265":{"id":"100004010420265","name":"Xuân Đạo"},"100003716938568":{"id":"100003716938568","name":"Thaovan Nguyen"},"100003292287141":{"id":"100003292287141","name":"Kẹo Mút Nhí Nhảnh"},"100004094391964":{"id":"100004094391964","name":"Vo Danh"},"100005559850110":{"id":"100005559850110","name":"Leo Vl Codonvc"},"1816779768":{"id":"1816779768","name":"Đôn Kihôtê"},"100000082948387":{"id":"100000082948387","name":"Hưng Hóm Hỉnh"},"100006859893056":{"id":"100006859893056","name":"Yến Thanh"},"100002234602064":{"id":"100002234602064","name":"Lim Trắng"},"1223217351":{"id":"1223217351","name":"Lê Minh Quân"},"100004409010627":{"id":"100004409010627","name":"Diep Quynh Anh"},"100005893542139":{"id":"100005893542139","name":"Lạc Lốj"},"100003976314151":{"id":"100003976314151","name":"Loan Hà"},"100003734278470":{"id":"100003734278470","name":"Nguyễn Cúc"},"100001683443068":{"id":"100001683443068","name":"Dương Tươi"},"100000625558363":{"id":"100000625558363","name":"Mýt Xink"},"100006813520503":{"id":"100006813520503","name":"Chinh Nguyen"},"100004784131023":{"id":"100004784131023","name":"Giang VU"},"100004046108560":{"id":"100004046108560","name":"MiSo Cochunho"},"100003636414742":{"id":"100003636414742","name":"Văn Tiến Nguyễn"},"100000193104491":{"id":"100000193104491","name":"Hac Nguyet"},"100000592390868":{"id":"100000592390868","name":"Kiriyu Mabu"},"100003342122124":{"id":"100003342122124","name":"Xuan Nguyen"},"100007729029571":{"id":"100007729029571","name":"Bình Boong"},"100006470659368":{"id":"100006470659368","name":"Dau Tay"},"100001997876607":{"id":"100001997876607","name":"Phằn Xong Lứa"},"100005338178871":{"id":"100005338178871","name":"Thu Phuong Bui"},"100007996688840":{"id":"100007996688840","name":"Dũng Dũng"},"100001184035484":{"id":"100001184035484","name":"Luyện Mỹ Hiền"},"100005739343807":{"id":"100005739343807","name":"Xinh Tuoi Viet Nam"},"100005907212031":{"id":"100005907212031","name":"何心孝"},"100004084747950":{"id":"100004084747950","name":"Chưởng Chịu Chơi"},"100007799559921":{"id":"100007799559921","name":"MoMo Tvt"},"100003014119790":{"id":"100003014119790","name":"Tuan Hung"},"100002824993099":{"id":"100002824993099","name":"Chi Bell"},"100001216346807":{"id":"100001216346807","name":"Anh Nguyễn"},"100003109526135":{"id":"100003109526135","name":"Bella Lagger"},"100000688796611":{"id":"100000688796611","name":"Khù Văn Khoằm"},"100001510406192":{"id":"100001510406192","name":"Hiếu Bùi"},"100001647732873":{"id":"100001647732873","name":"Kei Kun"},"100002871405403":{"id":"100002871405403","name":"Thach Sanh"},"100000189498000":{"id":"100000189498000","name":"Fish Siunhun"},"100004061763677":{"id":"100004061763677","name":"Oriflame Doanh"},"100004049307872":{"id":"100004049307872","name":"Minxu Ngoc"},"100003853752853":{"id":"100003853752853","name":"Khanh Vy Le"},"100002144312903":{"id":"100002144312903","name":"Kuroi Neko"},"100004747622463":{"id":"100004747622463","name":"Tuan Phuong"},"100007553742936":{"id":"100007553742936","name":"Kien Phan"},"100003945581110":{"id":"100003945581110","name":"Bí Ngô"},"100001916013578":{"id":"100001916013578","name":"Mi Tron"},"100005892573780":{"id":"100005892573780","name":"Le Thien Huong"},"100003702043787":{"id":"100003702043787","name":"Hằng Hanu"},"100000189564897":{"id":"100000189564897","name":"Thanh Vt"},"100007561894249":{"id":"100007561894249","name":"Phương Lý"},"100001273149504":{"id":"100001273149504","name":"Le Duc Tinh"},"100005463691886":{"id":"100005463691886","name":"Luân Nguyễn"},"100003152693340":{"id":"100003152693340","name":"Huyền Trần"},"100004915360462":{"id":"100004915360462","name":"Phamtuyen Pc"},"1293159975":{"id":"1293159975","name":"Wind Sea"},"100006727562475":{"id":"100006727562475","name":"Hoài Thương"},"100001014186213":{"id":"100001014186213","name":"Phuong Nguyen Nguyen"},"100004374631332":{"id":"100004374631332","name":"Huyền Pomigc"},"100001432462223":{"id":"100001432462223","name":"Truong Nguyen"},"100003836713505":{"id":"100003836713505","name":"Châu Minh Huỳnh"},"100004890935039":{"id":"100004890935039","name":"Râu Quặp"},"100007930417031":{"id":"100007930417031","name":"Trang Yamato"},"100001900443447":{"id":"100001900443447","name":"Ngọc Cường"},"100004326585247":{"id":"100004326585247","name":"Phan Hồng Nhung"},"100004692284049":{"id":"100004692284049","name":"Hồ Huyền Trinh"},"100002913281005":{"id":"100002913281005","name":"Hà Mã"},"100002999756689":{"id":"100002999756689","name":"Lắng Nghe"},"100007955791330":{"id":"100007955791330","name":"Vu Minh Hoạt"},"100003819875708":{"id":"100003819875708","name":"Piglazy Pham"},"100004797491054":{"id":"100004797491054","name":"Kiên SeVen"},"100006423391096":{"id":"100006423391096","name":"Cá Sắp Chết Đuối"},"100003962916120":{"id":"100003962916120","name":"Phong Trinh"},"100000399315424":{"id":"100000399315424","name":"Rô Rô"},"100001798684231":{"id":"100001798684231","name":"Lazy Lazy"},"100001481918288":{"id":"100001481918288","name":"Váy Ngắn"},"100001196210668":{"id":"100001196210668","name":"Mã Đại"},"100007471532054":{"id":"100007471532054","name":"Phuong Nguyen"},"100004299969653":{"id":"100004299969653","name":"Tập Quên Tất Cả"},"100003150888729":{"id":"100003150888729","name":"Make Believe"},"100004452123869":{"id":"100004452123869","name":"Pham Tiên Bach"},"100002240682615":{"id":"100002240682615","name":"Ngân Đinh"},"100007965550850":{"id":"100007965550850","name":"Trương Nhi"},"100000367010477":{"id":"100000367010477","name":"Sky's Wings"},"100001360740403":{"id":"100001360740403","name":"Nguyễn Ninh"},"100002931607525":{"id":"100002931607525","name":"Takiya Genji"},"100002047950514":{"id":"100002047950514","name":"Nhạn Nguyễn"},"746619078":{"id":"746619078","name":"Nguyen Le"},"100006710072380":{"id":"100006710072380","name":"Trọng Hiếu Phạm"},"100003381475331":{"id":"100003381475331","name":"Hoàng Hương"},"100006239194036":{"id":"100006239194036","name":"Ngân Kòi"},"100000122074365":{"id":"100000122074365","name":"Louis Pei"},"100001675679203":{"id":"100001675679203","name":"Buồn Ơi Chào Mi"},"100003195250735":{"id":"100003195250735","name":"Dauha Muabuon"},"100002975299796":{"id":"100002975299796","name":"Trinh Tuan Anh"},"100004357653165":{"id":"100004357653165","name":"Anna Tran"},"100004799073277":{"id":"100004799073277","name":"Thu Hoài"},"100004066474631":{"id":"100004066474631","name":"Thành BG"},"100006120793934":{"id":"100006120793934","name":"Tia Nắng"},"100001786404410":{"id":"100001786404410","name":"Huệ Nguyễn"},"100003155058767":{"id":"100003155058767","name":"Luong Trinh"},"100000229305900":{"id":"100000229305900","name":"Linh Nt"},"1760361316":{"id":"1760361316","name":"Meo WiWi"},"100001894942740":{"id":"100001894942740","name":"Bê Tông"},"100000049907574":{"id":"100000049907574","name":"Thịnh Cnc"},"100000311774593":{"id":"100000311774593","name":"Kieu My"},"100003831275313":{"id":"100003831275313","name":"Atlantic Pham"},"100001592953699":{"id":"100001592953699","name":"Trúc Phạm"},"100003957280804":{"id":"100003957280804","name":"Mến Nguyễn"},"100004762171423":{"id":"100004762171423","name":"Nrt Uch"},"100005834022676":{"id":"100005834022676","name":"Nguyễn Thế Thành"},"100006268478855":{"id":"100006268478855","name":"Anh Hùng"},"100006651309875":{"id":"100006651309875","name":"Hà Phan"},"100002975401404":{"id":"100002975401404","name":"Nicô Quả Bíngô"},"100004065931277":{"id":"100004065931277","name":"Nina Le"},"100002979593922":{"id":"100002979593922","name":"Hien Mon"},"100003232645048":{"id":"100003232645048","name":"Khung Long Bao Chua"},"100003942528766":{"id":"100003942528766","name":"Manabu  Yasui"},"100003511751900":{"id":"100003511751900","name":"Tô Thị Hứa"},"100003827874808":{"id":"100003827874808","name":"Bố Trẻ Con"},"100003090738530":{"id":"100003090738530","name":"Ngô Thị Thanh Hường"},"100000014226452":{"id":"100000014226452","name":"Kirimaru Kaze"},"100003323382657":{"id":"100003323382657","name":"Quynh Giang Le"},"100003265150834":{"id":"100003265150834","name":"Phan Si Hung"},"100003193696621":{"id":"100003193696621","name":"Dương Minh Thúy"},"100000634863165":{"id":"100000634863165","name":"Trứng Rán"},"100001591772357":{"id":"100001591772357","name":"Sora Hana"},"100000309415626":{"id":"100000309415626","name":"Kona Yuki"},"100001718600326":{"id":"100001718600326","name":"Thanhdat Le"},"100003497747051":{"id":"100003497747051","name":"Phuong Tran"},"100001524647665":{"id":"100001524647665","name":"Phương Nguyễn"},"100002225333357":{"id":"100002225333357","name":"ThanhDienkk BG"},"100003518966987":{"id":"100003518966987","name":"Thanh Hoài Ngô"},"100006434358133":{"id":"100006434358133","name":"Tươi Cún"},"100003190943020":{"id":"100003190943020","name":"NgỌc ChÍnk"},"100001825177304":{"id":"100001825177304","name":"Cậu Chủ Nhỏ"},"100003696134321":{"id":"100003696134321","name":"Phạm Hạnh"},"1801921965":{"id":"1801921965","name":"Tạ Minh Ngọc"},"100000003986066":{"id":"100000003986066","name":"Trâm Trồng Trọt"},"100003274193538":{"id":"100003274193538","name":"Việt Hưng"},"100004061553773":{"id":"100004061553773","name":"Linh Lê"},"100004913312278":{"id":"100004913312278","name":"Ốc Tiêu"},"100004075850515":{"id":"100004075850515","name":"本多亜妃"},"100003772192783":{"id":"100003772192783","name":"Thu Xoan"},"100003201365407":{"id":"100003201365407","name":"Đinh Thùy Dung"},"1234763221":{"id":"1234763221","name":"Samatha Sam"},"1657236046":{"id":"1657236046","name":"Le Hang"},"100003242552199":{"id":"100003242552199","name":"Kim Anh Dang"},"100003317405905":{"id":"100003317405905","name":"Tran Duyen"},"100002981655149":{"id":"100002981655149","name":"Đỗ Văn Nghĩa"},"100004625980804":{"id":"100004625980804","name":"Văn Đài"},"1353030012":{"id":"1353030012","name":"Tran Huy Hung"},"100005127511607":{"id":"100005127511607","name":"Cobe Kaun"},"100005452088757":{"id":"100005452088757","name":"Long Nhi Vuong"},"100004622350350":{"id":"100004622350350","name":"Anh Tuan"},"100005051881072":{"id":"100005051881072","name":"Nhớ Nhớ"},"100000871291149":{"id":"100000871291149","name":"Xuan Huong"},"100006481905463":{"id":"100006481905463","name":"Hung Ho"},"100000198506906":{"id":"100000198506906","name":"Ngọc Oanh"},"100003807346055":{"id":"100003807346055","name":"Chap Nhan Di"},"100004529465617":{"id":"100004529465617","name":"Nga Nguyen"},"100005225070381":{"id":"100005225070381","name":"Okane Mochi"},"569263718":{"id":"569263718","name":"Phuong Thao Tran"},"100005557419433":{"id":"100005557419433","name":"Quý Đặng Đắc"},"100004494724523":{"id":"100004494724523","name":"Nhượng Nguyễn"},"100004044331331":{"id":"100004044331331","name":"Xu Xu"},"100003870615698":{"id":"100003870615698","name":"Mongthien Nguyen"},"100003849617303":{"id":"100003849617303","name":"Sinh Nguyen"},"100001526631937":{"id":"100001526631937","name":"Tường Oanh Mineko"},"100005310420126":{"id":"100005310420126","name":"Đinh Văn Hà"},"100003032663784":{"id":"100003032663784","name":"Vượt Qua Thử Thách"},"100005887419564":{"id":"100005887419564","name":"Cười Một Mình"},"100003144794147":{"id":"100003144794147","name":"かわいい ぶた"},"100001864479440":{"id":"100001864479440","name":"Nguyễn Minh Tuyến"},"100003800922971":{"id":"100003800922971","name":"Chuột Chù Nhảy Xếch"},"100003875460824":{"id":"100003875460824","name":"Bé Nim"},"100003694981194":{"id":"100003694981194","name":"Kim Duongxuan"},"100004158245859":{"id":"100004158245859","name":"Doanthanh Phuong"},"100002503864184":{"id":"100002503864184","name":"Cậu Ba"},"100000270878661":{"id":"100000270878661","name":"Quỳnh Trang Venus"},"100007206966940":{"id":"100007206966940","name":"Đồn Như Lời"},"100003041350096":{"id":"100003041350096","name":"Hoang Gia Nhat"},"100005587061366":{"id":"100005587061366","name":"Trần Mỹ Hạnh"},"100000795770040":{"id":"100000795770040","name":"Nghĩa Trần"},"100006308318274":{"id":"100006308318274","name":"Kim Dp"},"100004712551712":{"id":"100004712551712","name":"Pe Hoai"},"100001770616282":{"id":"100001770616282","name":"Bùi Thu Hiền"},"100003465567929":{"id":"100003465567929","name":"Lê Chi"},"100002985009288":{"id":"100002985009288","name":"Thúy Nga Nguyễn"},"100003376508093":{"id":"100003376508093","name":"Đỗ Thùy Trang"},"100003058280462":{"id":"100003058280462","name":"Đặng Văn Thành"},"100007761427966":{"id":"100007761427966","name":"Lặng Nhìn Cuộc Sống"},"100001583708890":{"id":"100001583708890","name":"Dung Pé Heo"},"100000138544685":{"id":"100000138544685","name":"Nguyen Trong Nam"},"100001260645727":{"id":"100001260645727","name":"Ngo Duy Son"},"100004047718015":{"id":"100004047718015","name":"Đinh Văn Hải"},"100006175110286":{"id":"100006175110286","name":"Mai Hương Trần"},"100002290906582":{"id":"100002290906582","name":"Kanashimi No Yukue"},"100002853438802":{"id":"100002853438802","name":"Thanh Thu"},"100004362480675":{"id":"100004362480675","name":"Đi Tìm Thất Bại"},"100000045271667":{"id":"100000045271667","name":"Nam Thai Nguyen"},"100003281651448":{"id":"100003281651448","name":"DaSon Vhp"},"100003232430758":{"id":"100003232430758","name":"Trang Nguyen"},"100006865964549":{"id":"100006865964549","name":"Vâng Em Đểu"},"100005989274491":{"id":"100005989274491","name":"Minh Khương"},"100000368791196":{"id":"100000368791196","name":"Phuong Anh"},"100005776355988":{"id":"100005776355988","name":"Phiên Phiên"},"100005907939887":{"id":"100005907939887","name":"Heo Mập"},"100000128242314":{"id":"100000128242314","name":"Nagayama Sei"},"100007233249576":{"id":"100007233249576","name":"Nguyen van Hung"},"100003952505326":{"id":"100003952505326","name":"Hoài Nguyễn"},"100002093975536":{"id":"100002093975536","name":"Thùy Trang Nguyễn"},"100006788972954":{"id":"100006788972954","name":"Ngà Voi"},"100001702762210":{"id":"100001702762210","name":"Lệ Minh"},"100001169630281":{"id":"100001169630281","name":"XeLu TuotXich"},"100004324293178":{"id":"100004324293178","name":"Nguyễn Linh"},"100001738887873":{"id":"100001738887873","name":"Hoang Le"},"100003621677867":{"id":"100003621677867","name":"Red Lion"},"100006382505425":{"id":"100006382505425","name":"Linh Tú"},"100002665902660":{"id":"100002665902660","name":"Duong Thien"},"100007029546550":{"id":"100007029546550","name":"Rechijan Giang"},"620134445":{"id":"620134445","name":"Anh Do"},"100002828879099":{"id":"100002828879099","name":"Jimmy Pham"},"100004367679988":{"id":"100004367679988","name":"Kumi Nguyen"},"100004215699313":{"id":"100004215699313","name":"Diện Calvin Kute"},"100005108107171":{"id":"100005108107171","name":"Thuý Candy"},"100006911163405":{"id":"100006911163405","name":"Quyền Riêng Tư"},"100003005597243":{"id":"100003005597243","name":"Zany Royal"},"100004546058786":{"id":"100004546058786","name":"Nguyễn Mai Lan"},"100003167566092":{"id":"100003167566092","name":"マイ スアン サン"},"1416265619":{"id":"1416265619","name":"Starwar Bbj"},"100000979888687":{"id":"100000979888687","name":"Tran Long"},"100003809646101":{"id":"100003809646101","name":"Erika Nguyen"},"100004441321299":{"id":"100004441321299","name":"Ngôn Phi"},"100003164504637":{"id":"100003164504637","name":"Vuthanh Tam"},"100003746683363":{"id":"100003746683363","name":"Cuong Nguyen"},"100003876597453":{"id":"100003876597453","name":"Chi Văn Phan"},"100003941338766":{"id":"100003941338766","name":"Nhinl Pe"},"100003449691197":{"id":"100003449691197","name":"Vũ Văn Hoài"},"100007750683566":{"id":"100007750683566","name":"Ty Ty"},"100003961540931":{"id":"100003961540931","name":"Trần Thanh"},"100003136601724":{"id":"100003136601724","name":"Hoang Vu"},"100004537383439":{"id":"100004537383439","name":"Lê Thị Thanh"},"100003645578785":{"id":"100003645578785","name":"Thuy Duong"},"100002716525116":{"id":"100002716525116","name":"Nguyễn Tất Nguyên"},"100004420686591":{"id":"100004420686591","name":"Kieu Thi Tuyen"},"100003713963050":{"id":"100003713963050","name":"Đỗ Bá Mười"},"100003276696481":{"id":"100003276696481","name":"Viet Đong"},"1018045827":{"id":"1018045827","name":"Trang Nguyen"},"100002106660617":{"id":"100002106660617","name":"Tuong Vi"},"100005095152754":{"id":"100005095152754","name":"Samngoc Be"},"100005410784446":{"id":"100005410784446","name":"Hoa Trong Tuyết"},"100003883612858":{"id":"100003883612858","name":"Cậu Út"},"100006736295862":{"id":"100006736295862","name":"Khanh Nguyên"},"100005696229015":{"id":"100005696229015","name":"Than Phan"},"100003233690108":{"id":"100003233690108","name":"Tú Ctn"},"100004784233958":{"id":"100004784233958","name":"NO Bita"},"100005451990675":{"id":"100005451990675","name":"An Pham"},"100005610186654":{"id":"100005610186654","name":"Thy Thy"},"100004915784063":{"id":"100004915784063","name":"Bao An Tran Le"},"100005597670688":{"id":"100005597670688","name":"Vô Tình"},"100005516044347":{"id":"100005516044347","name":"Vân Anh"},"100004618932270":{"id":"100004618932270","name":"Cun Yêu"},"100003921497941":{"id":"100003921497941","name":"Bỏng Ngô"},"100006638161405":{"id":"100006638161405","name":"Daisukina Hito"},"1341670471":{"id":"1341670471","name":"An Nguyen"},"100003168663740":{"id":"100003168663740","name":"Ớt Ngọt"},"100005303710059":{"id":"100005303710059","name":"Ten Years Later"},"100003256748606":{"id":"100003256748606","name":"Thái"},"100003567795945":{"id":"100003567795945","name":"Thu Thảo Đỗ"},"100004157822257":{"id":"100004157822257","name":"Keep Smile"},"100002753911318":{"id":"100002753911318","name":"Nguyễn Văn Nam"},"100003726625381":{"id":"100003726625381","name":"Thao Tran"},"100004564327116":{"id":"100004564327116","name":"Tiến Bình Nguyễn"},"100002709768482":{"id":"100002709768482","name":"Vuong Dung Tms"},"100006529381413":{"id":"100006529381413","name":"Nhien Nhi Nho"},"100007806284139":{"id":"100007806284139","name":"Đặng Yên"},"100006050047606":{"id":"100006050047606","name":"Giáp Văn Thắng"},"100003726912321":{"id":"100003726912321","name":"Thuong Ngo"},"100003125931765":{"id":"100003125931765","name":"No Reason"},"100004075308762":{"id":"100004075308762","name":"Lie Lie"},"100005327112379":{"id":"100005327112379","name":"Guongcuoideem Dk Hanhphuk"},"100006614261300":{"id":"100006614261300","name":"Tao Cao Cường Đây"},"100007938450435":{"id":"100007938450435","name":"Miruku Chokoreeto"},"100004532434306":{"id":"100004532434306","name":"Nguyễn Đức Hoàng"}},"paging":{"cursors":{"after":"MTAwMDAxMzIxODAzMzc0","before":"MTAwMDAxMzIxODAzMzc0"},"next":"https://graph.facebook.com/229244010425617_843739532309392/likes?limit=1&summary=1&after=MTAwMDAxMzIxODAzMzc0"},"summary":{"total_count":322}},"comments":{"data":{"843744412308904":{"id":"843744412308904","from":{"id":"100006089102969","name":"カメ 悪い"},"message":"Share chán đọc chán rồi nó chìm chứ sao :))","can_remove":false,"created_time":"2014-04-01T21:56:54+0000","like_count":1,"user_likes":false},"843748485641830":{"id":"843748485641830","from":{"id":"100003913383051","name":"Tho Tran"},"message":"Tin này trên group  được share lâu rồi ạ","can_remove":false,"created_time":"2014-04-01T22:08:40+0000","like_count":0,"user_likes":false},"843777118972300":{"id":"843777118972300","from":{"id":"100004586136838","name":"Công Thương"},"message":"Người Việt Nam như đàn cua trong chau ý . Cứ con nào leo lên là bị kéo xuống . Lên cua ở Việt Nam bắt thả vào chậu ko cần đậy cũng ko con nào bò ra dc . Cứ bò lên lại bị con kia kéo xuống cứ như vậy hố hố ...","can_remove":false,"created_time":"2014-04-01T23:49:15+0000","like_count":3,"user_likes":false},"843809602302385":{"id":"843809602302385","from":{"id":"100000270878661","name":"Quỳnh Trang Venus"},"message":"tiếng lành đồn gần tiếng dữ đồn xa","can_remove":false,"created_time":"2014-04-02T01:23:16+0000","like_count":0,"user_likes":false},"843838398966172":{"id":"843838398966172","from":{"id":"100002508122689","name":"Vũ Mạnh Tuấn"},"message":"tin này đã được share từ lâu rồi bạn ạ","can_remove":false,"created_time":"2014-04-02T02:40:27+0000","like_count":3,"user_likes":false},"843848352298510":{"id":"843848352298510","from":{"id":"100001432462223","name":"Truong Nguyen"},"message":"có con cua trên kia kìa :)) a ấy h đi làm đc rồi ấy chứ :v","can_remove":false,"created_time":"2014-04-02T03:02:58+0000","like_count":0,"user_likes":false},"843860572297288":{"id":"843860572297288","from":{"id":"100003827874808","name":"Bố Trẻ Con"},"message":"mỗi người Hãy chung tay  góp phần thay đổi ý nghĩ kỳ thị người VN . Vì 1 cộng đồng ngày càng phát triển","can_remove":false,"created_time":"2014-04-02T03:37:20+0000","like_count":0,"user_likes":false},"843915218958490":{"id":"843915218958490","from":{"id":"100007797156820","name":"Sói Già"},"message":"Share chán từ lâu rùi","can_remove":false,"created_time":"2014-04-02T05:25:59+0000","like_count":0,"user_likes":false},"843959535620725":{"id":"843959535620725","from":{"id":"100003962916120","name":"Phong Trinh"},"message":"nói vậy nhưng phải lm sao để có thể thay đổi đc cách nhiền nhận của họ về ng Việt mình khi mà những hành động đó vẫn đang tiếp diễn =.='","can_remove":false,"created_time":"2014-04-02T06:59:48+0000","like_count":0,"user_likes":false},"843967708953241":{"id":"843967708953241","from":{"id":"100007797156820","name":"Sói Già"},"message":"thay đổi....có lẽ chả bao h đc.100 người làm tốt nhưng chỉ 1 ng làm không tốt đều bị.","can_remove":false,"created_time":"2014-04-02T07:17:32+0000","like_count":0,"user_likes":false},"844000658949946":{"id":"844000658949946","from":{"id":"100007561894249","name":"Phương Lý"},"message":"Trog kaj xấu vẫn có những tấm gươg đẹp, mọi người hãy cùng nhau cố gắng làm thay đổi những suy nghj khôg tốt của ngườj nhật về con ngườj. Vjệt nam mình","can_remove":false,"created_time":"2014-04-02T08:34:58+0000","like_count":0,"user_likes":false},"844006505616028":{"id":"844006505616028","from":{"id":"100003674731922","name":"Yamada Yoshiko"},"message":"bởi vì hành động xấu của chúng ta quá nhiều nên những hành động tốt như thế này không đc chú ý à phải thôi, nếu bớt những hành vi hối lộ, trộm cắp,... đi thì dù chỉ có 1 hành động tốt thế này thôi cũng sẽ đc người Nhật và ng Việt mình chú ý ngay mà","can_remove":false,"created_time":"2014-04-02T08:53:19+0000","like_count":2,"user_likes":false},"844040425612636":{"id":"844040425612636","from":{"id":"100001458099624","name":"Kham Pha"},"message":"bài này đã được chị Dao Ngoc đăng lên group cách đây nửa tháng và cũng rất được mọi người ủng hộ :)\nMừng vì đất nc còn những người như thế này.","message_tags":[{"id":"1816269439","name":"Dao Ngoc","type":"user","offset":20,"length":8}],"can_remove":false,"created_time":"2014-04-02T09:53:27+0000","like_count":0,"user_likes":false},"844160195600659":{"id":"844160195600659","from":{"id":"100003290036407","name":"Tuoi Sweet"},"message":"đọc mà có khởi sắc","can_remove":false,"created_time":"2014-04-02T14:50:35+0000","like_count":0,"user_likes":false}},"paging":{"cursors":{"after":"ODQzNzQ0NDEyMzA4OTA0","before":"ODQzNzQ0NDEyMzA4OTA0"},"next":"https://graph.facebook.com/229244010425617_843739532309392/comments?limit=1&summary=1&after=ODQzNzQ0NDEyMzA4OTA0"},"summary":{"order":"chronological","total_count":14}}}