{"id":"229244010425617_843872312296114","type":"status","from":{"id":"100004006950326","name":"Ngọc Gia Bảo"},"message":"Việc xách mỹ phẩm của các tiếp viên hàng không cũng ít bị hải quan kiểm soát tại các sân bay Nhật quan tâm. \n\nTại các phi trường quốc tế ở Nhật Bản, hải quan chỉ chú trọng đến việc kiểm soát ma túy, vũ khí. \n\nNếu trong hành lý khi xuất nhập cảnh của phi hành đoàn không có hai thứ này thì chỉ soát qua cho có lệ hoặc nhiều lúc chẳng cần ngó đến. Vì thế, việc vận chuyển mỹ phẩm về trong nước càng dễ dàng và không bị đánh thuế.","created_time":"2014-04-02T03:58:15+0000","updated_time":"2014-04-02T04:27:13+0000","likes":{"data":{"100006652710586":{"id":"100006652710586","name":"Trần Minh Thu"},"100006838896104":{"id":"100006838896104","name":"Đặng Văn Quyết"},"100001655006973":{"id":"100001655006973","name":"Luan Nguyen"}},"paging":{"cursors":{"after":"MTAwMDA2NjUyNzEwNTg2","before":"MTAwMDA2NjUyNzEwNTg2"},"next":"https://graph.facebook.com/229244010425617_843872312296114/likes?limit=1&summary=1&after=MTAwMDA2NjUyNzEwNTg2"},"summary":{"total_count":4}},"comments":{"data":{"843874808962531":{"id":"843874808962531","from":{"id":"100000060844605","name":"Vũ Danh Việt"},"message":"Vậy thì phải có chế tài, quy định cụ thể: xách tay ntn, số ượng bn thì được coi là buôn lậu.\nNhư mình nếu sang đó kiểu gì cũng bị bắt nhờ mua mĩ phẩm -_- và chắc là cũng ko ít lắm :))","can_remove":false,"created_time":"2014-04-02T04:02:33+0000","like_count":1,"user_likes":false},"843875388962473":{"id":"843875388962473","from":{"id":"100003634822576","name":"Jessica Lam Phuong"},"message":"Mỗi tiếp viên dc mang 1 khối lượng mà,có sao đâu","can_remove":false,"created_time":"2014-04-02T04:03:32+0000","like_count":0,"user_likes":false},"843878132295532":{"id":"843878132295532","from":{"id":"100001416272263","name":"Mai PB"},"message":"Người VN không có ý thức là hàng hóa xách tay số lượng lớn chính là hàng lậu (trốn thuế) tức cũng là một hình thức ăn cắp. Tuy nhiên dân ăn cắp cũng chưa bằng quan tham nhũng, vậy nên huề cả làng. Chỉ có hậu quả là nước VN để lại ấn tượng xấu đối với quốc tế.","can_remove":false,"created_time":"2014-04-02T04:08:23+0000","like_count":1,"user_likes":false},"843889312294414":{"id":"843889312294414","from":{"id":"100006838896104","name":"Đặng Văn Quyết"},"message":"Người vn đi đâu cũng còn đeo theo cái tiếng ăn cắp vặt khổ toàn tiếng xấu ..tốt thì khoe mà xấu thì che chứ lại như vậy cho bạn bè quốc tế xem thường","can_remove":false,"created_time":"2014-04-02T04:17:19+0000","like_count":0,"user_likes":false},"843892985627380":{"id":"843892985627380","from":{"id":"100007719188262","name":"Trần Văn Thưởng"},"message":"Ngọc Gia Bảo hình như hơi quan tâm thái quá đến vấn đề này rồi đấy.","message_tags":[{"id":"100004006950326","name":"Ngọc Gia Bảo","type":"user","offset":0,"length":12}],"can_remove":false,"created_time":"2014-04-02T04:27:13+0000","like_count":1,"user_likes":false}},"paging":{"cursors":{"after":"ODQzODc0ODA4OTYyNTMx","before":"ODQzODc0ODA4OTYyNTMx"},"next":"https://graph.facebook.com/229244010425617_843872312296114/comments?limit=1&summary=1&after=ODQzODc0ODA4OTYyNTMx"},"summary":{"order":"chronological","total_count":5}}}