{"id":"229244010425617_843864455630233","type":"status","from":{"id":"100004006950326","name":"Ngọc Gia Bảo"},"message":"Một trong những nguyên nhân khiến một số tiếp viên hàng không nhắm đến buôn lậu hàng mỹ phẩm Nhật Bản đó là thu nhập từ việc buôn hàng lậu là khá cao. Giá công xách mỗi kg mỹ phẩm, dưỡng da giao động khoảng 250.000 đồng/kg .","created_time":"2014-04-02T03:43:10+0000","updated_time":"2014-04-02T05:58:55+0000","likes":{"data":{"100002235296201":{"id":"100002235296201","name":"Bien Duc Thang"}},"paging":{"cursors":{"after":"MTAwMDAyMjM1Mjk2MjAx","before":"MTAwMDAyMjM1Mjk2MjAx"}},"summary":{"total_count":1}},"comments":{"data":{"843869292296416":{"id":"843869292296416","from":{"id":"100003005597243","name":"Zany Royal"},"message":"Sao bạn Ngọc Gia Bảo ko gộp 2 cái vô 1 tin luôn mà cứ viết từng đoạn nhỏ nhỏ thế?","message_tags":[{"id":"100004006950326","name":"Ngọc Gia Bảo","type":"user","offset":8,"length":12}],"can_remove":false,"created_time":"2014-04-02T03:52:00+0000","like_count":0,"user_likes":false},"843873185629360":{"id":"843873185629360","from":{"id":"100004006950326","name":"Ngọc Gia Bảo"},"message":"Do 1 số tin hơi hỗn độn , mình đem về chỉnh sửa câu từ 1 chút nên gần giống như spam vậy , mong mọi người thông cảm nghe","can_remove":false,"created_time":"2014-04-02T03:59:53+0000","like_count":0,"user_likes":false},"843874758962536":{"id":"843874758962536","from":{"id":"100003005597243","name":"Zany Royal"},"message":"Mình nghĩ bạn nên gộp lại thành 1 tin để mọi ng đọc cho dễ. Hơn nữa ch đã xảy ra, nói đi nói lại không để làm gì cả vì chúng ta không phải là ng gây ra. Thay vào đó mỗi ng tự thay đổi nhận thức, suy nghĩ và tích cực làm việc thì tốt hơn.","can_remove":false,"created_time":"2014-04-02T04:02:27+0000","like_count":0,"user_likes":false},"843926655624013":{"id":"843926655624013","from":{"id":"569263718","name":"Phuong Thao Tran"},"message":"Ngọc Gia Bảo mọi người sẽ rất cảm ơn bạn nếu bạn gom tin lại để đăng cho group bớt hỗn độn thông tin nhé!","message_tags":[{"id":"100004006950326","name":"Ngọc Gia Bảo","type":"user","offset":0,"length":12}],"can_remove":false,"created_time":"2014-04-02T05:58:55+0000","like_count":0,"user_likes":false}},"paging":{"cursors":{"after":"ODQzODY5MjkyMjk2NDE2","before":"ODQzODY5MjkyMjk2NDE2"},"next":"https://graph.facebook.com/229244010425617_843864455630233/comments?limit=1&summary=1&after=ODQzODY5MjkyMjk2NDE2"},"summary":{"order":"chronological","total_count":4}}}