{"id":"229244010425617_843829028967109","type":"status","from":{"id":"100004006950326","name":"Ngọc Gia Bảo"},"created_time":"2014-04-02T02:13:29+0000","updated_time":"2014-04-02T13:00:11+0000","likes":{"data":{"100004762171423":{"id":"100004762171423","name":"Nrt Uch"},"1837866264":{"id":"1837866264","name":"QuynhDo Anh"},"100005910873521":{"id":"100005910873521","name":"Cục Thịt Vô Dụng"},"100000046089491":{"id":"100000046089491","name":"Trần Trọng Đại"},"100002418831429":{"id":"100002418831429","name":"Tâm Persie"},"100004075850515":{"id":"100004075850515","name":"本多亜妃"},"100002439260522":{"id":"100002439260522","name":"Gái Nguyễn"},"100004952940836":{"id":"100004952940836","name":"Lưu Đình Khải"},"100004413608100":{"id":"100004413608100","name":"Thanh Thu"},"100001216346807":{"id":"100001216346807","name":"Anh Nguyễn"},"100002586962623":{"id":"100002586962623","name":"Phu Nguyen"},"100004583227208":{"id":"100004583227208","name":"Lieu Vu"},"100003165545289":{"id":"100003165545289","name":"Tuyền Dương"},"100004313402997":{"id":"100004313402997","name":"Trang Nguyen"},"100003769140981":{"id":"100003769140981","name":"Yun Coi"},"100003961308936":{"id":"100003961308936","name":"Isabella Nhi Phan"},"100001995263460":{"id":"100001995263460","name":"Chibi Yuriko"},"100005758714297":{"id":"100005758714297","name":"Thường Vân"},"100001789340099":{"id":"100001789340099","name":"Nguyễn Việt Linh"},"100006953375189":{"id":"100006953375189","name":"Tiến Trần"},"100003490399309":{"id":"100003490399309","name":"Nguyễn Ngọc Hân"},"100004391136907":{"id":"100004391136907","name":"Đình Nghĩa"},"100001359605447":{"id":"100001359605447","name":"Thạch Xà Lách"},"100002666381269":{"id":"100002666381269","name":"Cường Việt Nam Đồng"},"100003072751555":{"id":"100003072751555","name":"Bui Dinh Truong"},"1717530880":{"id":"1717530880","name":"Triệu Việt Cường"},"100000275767135":{"id":"100000275767135","name":"Dũng Mốc"},"100000662668291":{"id":"100000662668291","name":"Đỗ Thăng"},"100006627121749":{"id":"100006627121749","name":"Cỏ Kim"},"100007056335960":{"id":"100007056335960","name":"Minh Phuong"},"100003163010060":{"id":"100003163010060","name":"Ngọc Diệp"},"100002898186345":{"id":"100002898186345","name":"Anh Túc"},"100006533318497":{"id":"100006533318497","name":"Linh Loan"},"100001802934945":{"id":"100001802934945","name":"Đỗ Nhi"},"100004512390831":{"id":"100004512390831","name":"Cơn Gió Nhẹ"},"100004704368470":{"id":"100004704368470","name":"Xi Xink"},"100003326911907":{"id":"100003326911907","name":"Thương Gemini"},"1571155341":{"id":"1571155341","name":"Trang Rubie"},"100000238537116":{"id":"100000238537116","name":"Thảo Hn"},"100003599920499":{"id":"100003599920499","name":"ふゆ はな"},"100001458099624":{"id":"100001458099624","name":"Kham Pha"},"100007960535964":{"id":"100007960535964","name":"Binh Ledang"},"100004982014580":{"id":"100004982014580","name":"Kun Kun"},"100003499975866":{"id":"100003499975866","name":"Gà Con Vui Vẻ"},"100005327112379":{"id":"100005327112379","name":"Guongcuoideem Dk Hanhphuk"},"100003886630055":{"id":"100003886630055","name":"Hokkakh Di Motminh"},"100001092868663":{"id":"100001092868663","name":"Minh Tran Thi Nguyet"},"100000082588389":{"id":"100000082588389","name":"Tu Nguyen"},"100008133690691":{"id":"100008133690691","name":"Con Yêu Mẹ"},"100000300294659":{"id":"100000300294659","name":"Kim Yên"},"100001546217296":{"id":"100001546217296","name":"Steve Giáp"},"100004039857628":{"id":"100004039857628","name":"Yen Chu"},"100003836713505":{"id":"100003836713505","name":"Châu Minh Huỳnh"},"100005127511607":{"id":"100005127511607","name":"Cobe Kaun"},"620134445":{"id":"620134445","name":"Anh Do"},"100004780839242":{"id":"100004780839242","name":"ZuZu Ma Quái"},"100000190284723":{"id":"100000190284723","name":"Quốc Euro"},"1778931068":{"id":"1778931068","name":"Hà Vô Vọng"},"100006423391096":{"id":"100006423391096","name":"Cá Sắp Chết Đuối"},"100003674836859":{"id":"100003674836859","name":"Hong Nguyen Van"},"100003962916120":{"id":"100003962916120","name":"Phong Trinh"},"100006050047606":{"id":"100006050047606","name":"Giáp Văn Thắng"},"100004094256514":{"id":"100004094256514","name":"Nitkon Nguyễn"},"100006308318274":{"id":"100006308318274","name":"Kim Dp"},"100007806284139":{"id":"100007806284139","name":"Đặng Yên"},"100003996388478":{"id":"100003996388478","name":"Chu Văn Hiệp"},"100003665614585":{"id":"100003665614585","name":"Aini-nguyen Tran"},"100004120503495":{"id":"100004120503495","name":"My Thanh"},"100005806389493":{"id":"100005806389493","name":"Lan Anh Pham"},"100002933818194":{"id":"100002933818194","name":"Vu Minh"},"100003719244864":{"id":"100003719244864","name":"Ngoc Ngan Ngo"},"100005802612629":{"id":"100005802612629","name":"Hana Nguyen"},"100003058280462":{"id":"100003058280462","name":"Đặng Văn Thành"},"100004309902050":{"id":"100004309902050","name":"Lun Tho"},"100006004471218":{"id":"100006004471218","name":"Bác Hồ Vĩ Đại"},"100001787704723":{"id":"100001787704723","name":"Thạch Anh Tím"},"100001139885732":{"id":"100001139885732","name":"Minh Khánh"},"100000109411901":{"id":"100000109411901","name":"Bach Nguyen"},"100004799073277":{"id":"100004799073277","name":"Thu Hoài"},"100000298989958":{"id":"100000298989958","name":"Anh Đô"},"100001358724021":{"id":"100001358724021","name":"Nâu Rhum"},"100000367010477":{"id":"100000367010477","name":"Sky's Wings"},"100004075308762":{"id":"100004075308762","name":"Lie Lie"},"100001895297908":{"id":"100001895297908","name":"Do Khoi"},"100001825592585":{"id":"100001825592585","name":"Liên Nguyễn"},"100001160975497":{"id":"100001160975497","name":"Minh Đức Đỗ"},"100005920572274":{"id":"100005920572274","name":"Cindy Chan"},"100006727562475":{"id":"100006727562475","name":"Hoài Thương"},"100003189517409":{"id":"100003189517409","name":"Thục Nữ Cải Trang"},"100006271507308":{"id":"100006271507308","name":"Bùi Quỳnh Anh XS"},"100004362480675":{"id":"100004362480675","name":"Đi Tìm Thất Bại"},"100003729320400":{"id":"100003729320400","name":"Hà Nguyễn"},"100002999989202":{"id":"100002999989202","name":"Hằng Mèo"},"100006409272147":{"id":"100006409272147","name":"Joshi Kousei"},"100003987842480":{"id":"100003987842480","name":"Ha Nguyen"},"100001838022518":{"id":"100001838022518","name":"Maruco Chan"},"100005574134399":{"id":"100005574134399","name":"Pé Bự"},"100005801442456":{"id":"100005801442456","name":"An Nguyen"},"100003224466030":{"id":"100003224466030","name":"Trí Phạm"},"1452845400":{"id":"1452845400","name":"Thu Phuong"},"100002815734165":{"id":"100002815734165","name":"Nguyễn Đức Minh"},"100004877281136":{"id":"100004877281136","name":"Yuki Ori"},"100001114549932":{"id":"100001114549932","name":"Bui Thanh Hung"},"100000177841596":{"id":"100000177841596","name":"Xelena Sanyo"},"100003878102664":{"id":"100003878102664","name":"Tú Cẩm"},"100000230751128":{"id":"100000230751128","name":"Lưu Xuân An"},"100002709038300":{"id":"100002709038300","name":"Sìu Châu"},"100005452088757":{"id":"100005452088757","name":"Long Nhi Vuong"},"100003943054116":{"id":"100003943054116","name":"ĐiênĐảo ThếGiới Mạng"},"100006299772244":{"id":"100006299772244","name":"Nguyễn Tuấn"},"100003898875729":{"id":"100003898875729","name":"Hai Nguyen"},"100000500260636":{"id":"100000500260636","name":"Lưu Nguyễn Thảo Tiên"},"1059982899":{"id":"1059982899","name":"Heigen Nguyen"},"100004212220580":{"id":"100004212220580","name":"Anh Chu"},"100006541414057":{"id":"100006541414057","name":"Hue Nguyen"},"100004061887638":{"id":"100004061887638","name":"Ai MặcNoọng Lái Lai"},"100006667844576":{"id":"100006667844576","name":"Nga Nguyễn"},"100004054591361":{"id":"100004054591361","name":"Khanh Huyen"},"100003942528766":{"id":"100003942528766","name":"Manabu  Yasui"},"1819880188":{"id":"1819880188","name":"Thưởng Nguyễn"},"100007930417031":{"id":"100007930417031","name":"Trang Yamato"},"100003090738530":{"id":"100003090738530","name":"Ngô Thị Thanh Hường"},"100004348001227":{"id":"100004348001227","name":"Lâm Gia Kiu"},"100004065931277":{"id":"100004065931277","name":"Nina Le"},"100001753345824":{"id":"100001753345824","name":"Mạnh Hùng Đồng"},"100004556712097":{"id":"100004556712097","name":"Chishi Jung"},"100005096765989":{"id":"100005096765989","name":"Ngoc Tran"},"100003607925265":{"id":"100003607925265","name":"Thu Hằng"},"100001057467030":{"id":"100001057467030","name":"Buông Tay"},"100000181968417":{"id":"100000181968417","name":"TranHo MyThuyen"},"100000120242088":{"id":"100000120242088","name":"Nevaeh Hara"},"100003329264859":{"id":"100003329264859","name":"Xuân Hiệu"},"100003323382657":{"id":"100003323382657","name":"Quynh Giang Le"},"100004478522616":{"id":"100004478522616","name":"Hưng Đăng"},"100003816548596":{"id":"100003816548596","name":"Toi la Toi"},"100006175110286":{"id":"100006175110286","name":"Mai Hương Trần"},"100002449514019":{"id":"100002449514019","name":"Lương Hoa"},"100007466264280":{"id":"100007466264280","name":"Thảo Ngố"},"100003518966987":{"id":"100003518966987","name":"Thanh Hoài Ngô"},"100000209556833":{"id":"100000209556833","name":"Ngô Hùng"},"100004226143862":{"id":"100004226143862","name":"Đặng Mạnh Hùng"},"100004798387832":{"id":"100004798387832","name":"Trang Xuxu"},"100005303710059":{"id":"100005303710059","name":"Ten Years Later"},"100004159503039":{"id":"100004159503039","name":"Miu Chan"},"100003190943020":{"id":"100003190943020","name":"NgỌc ChÍnk"},"100004375364623":{"id":"100004375364623","name":"Quang Lê"},"100003365762731":{"id":"100003365762731","name":"Trần Mạnh Hùng"},"100002974724594":{"id":"100002974724594","name":"Mai Chu"},"100003055356509":{"id":"100003055356509","name":"Thuan Nguyen"},"100003086813332":{"id":"100003086813332","name":"Ngoc Anh Nguyen"},"100002707392534":{"id":"100002707392534","name":"Thang Vo"},"100001341921156":{"id":"100001341921156","name":"Dinh Nguyen"},"100002828879099":{"id":"100002828879099","name":"Jimmy Pham"},"100006474388392":{"id":"100006474388392","name":"Hứa Bổn Hòa"},"100001359455451":{"id":"100001359455451","name":"Nguyễn Đức Thịnh"},"100006015120983":{"id":"100006015120983","name":"Đỗ Thực"},"100005557419433":{"id":"100005557419433","name":"Quý Đặng Đắc"},"100005271433446":{"id":"100005271433446","name":"Nguyentan Thang"},"100007272394237":{"id":"100007272394237","name":"Ivy Nguyen"},"100003005597243":{"id":"100003005597243","name":"Zany Royal"},"100001014584313":{"id":"100001014584313","name":"Hoa Nguyen"},"100002290906582":{"id":"100002290906582","name":"Kanashimi No Yukue"},"100003864143890":{"id":"100003864143890","name":"Hue Nguyen"},"100005529851429":{"id":"100005529851429","name":"Nguyen Khuyen"},"100004169731179":{"id":"100004169731179","name":"Hường Hoàng"},"100002667117211":{"id":"100002667117211","name":"Nguyễn Cường"},"100003807346055":{"id":"100003807346055","name":"Chap Nhan Di"},"100002985743170":{"id":"100002985743170","name":"Hoai Pham Thi"},"100001100833914":{"id":"100001100833914","name":"Nam Bùi Phương"},"100001260645727":{"id":"100001260645727","name":"Ngo Duy Son"},"100001793782938":{"id":"100001793782938","name":"Hồng Hà Khuất"}},"paging":{"cursors":{"after":"MTAwMDA0NzYyMTcxNDIz","before":"MTAwMDA0NzYyMTcxNDIz"},"next":"https://graph.facebook.com/229244010425617_843829028967109/likes?limit=1&summary=1&after=MTAwMDA0NzYyMTcxNDIz"},"summary":{"total_count":171}},"comments":{"data":{"843840715632607":{"id":"843840715632607","from":{"id":"100003005597243","name":"Zany Royal"},"message":":(","can_remove":false,"created_time":"2014-04-02T02:46:11+0000","like_count":0,"user_likes":false},"843847928965219":{"id":"843847928965219","from":{"id":"1023965040","name":"Juli KimChi"},"message":"Haha , Fình fường thui, còn đỡ đau hơn khi người Vn ko hoan nghênh hàng TQ. Haha","can_remove":false,"created_time":"2014-04-02T03:01:45+0000","like_count":1,"user_likes":false},"843848728965139":{"id":"843848728965139","from":{"id":"100000060844605","name":"Vũ Danh Việt"},"message":"Vậy giải pháp ở đây là gì? :\\","can_remove":false,"created_time":"2014-04-02T03:04:07+0000","like_count":0,"user_likes":false},"843849302298415":{"id":"843849302298415","from":{"id":"100002093975536","name":"Thùy Trang Nguyễn"},"message":"Nâng cao nhận thức! Ko tự ý thức được thì có làm gì cũng trở nên công cốc.","can_remove":false,"created_time":"2014-04-02T03:05:43+0000","like_count":1,"user_likes":false},"843850392298306":{"id":"843850392298306","from":{"id":"100004006950326","name":"Ngọc Gia Bảo"},"message":"Uy tín , nhân phẩm của 1 con người , của 1 quốc gia mà so vs hàng hóa ??","can_remove":false,"created_time":"2014-04-02T03:09:32+0000","like_count":0,"user_likes":false},"843850992298246":{"id":"843850992298246","from":{"id":"100004006950326","name":"Ngọc Gia Bảo"},"message":"Muốn có đc nhận thức cao , hành động có suy nghĩ thì phải bắt nguồn từ giáo dục , ngay từ lúc nhỏ","can_remove":false,"created_time":"2014-04-02T03:11:43+0000","like_count":0,"user_likes":false},"843852425631436":{"id":"843852425631436","from":{"id":"1023965040","name":"Juli KimChi"},"message":"Hàng hóa do con người làm ra, con người tồi làm ra hàng hóa dỏm. Thâm như tàu thì chỉ đi hại người thôi. Ý thức nó tốt chỗ nào? Ko đánh đồng hết người tàu nhưng nó đã đánh đồng hết dân vn rồi đấy?","can_remove":false,"created_time":"2014-04-02T03:15:26+0000","like_count":0,"user_likes":false},"843853198964692":{"id":"843853198964692","from":{"id":"100003852904921","name":"Văn Mạnh Võ"},"message":"đi ngược lại quy luật thì sẽ bị quy luật trừng phạt.","can_remove":false,"created_time":"2014-04-02T03:17:51+0000","like_count":0,"user_likes":false},"843858665630812":{"id":"843858665630812","from":{"id":"100007930417031","name":"Trang Yamato"},"message":"Trích lời GS Nguyễn Lân Dũng:\nTham lam còn dẫn đến mất uy tín quốc tế. Nào là tôm bị trả lại vì có đinh đóng vào đầu tôm cho tăng cân (!), nào cà phê thì hái lẫn lộn cả quả xanh (vì nếu để chín hết sẽ mất trộm!), nào giầy vải lẫn cả loại vải có lẫn formalin (do nhập ẩu nguyên liệu rẻ), nào phạt gây ô nhiễm chỉ nắm \"anh có tóc\" trong khi hàng chục cơ sở cùng gây ô nhiễm tại cùng chỗ đó...\n\nAi cũng có thể kể ra hàng trăm ví dụ về việc lạm dụng chức quyền để gây tác hại cho xã hội. Học hàm, học vị là chuyện nghiêm túc với các quy định hết sức chặt chẽ. Vậy mà vẫn có những người có bằng Tiến sĩ nước ngoài trong khi tiếng Anh chỉ đủ ở mức biết vài câu chào hỏi (!). May mà báo chí chưa sờ đến hay không dám sờ đến đấy. Học hàm Giáo sư, Phó giáo sư trên toàn thế giới là chuyện chỉ dành riêng cho các trường Đại học và thường chỉ cần do Hiệu trưởng Đại học quyết định. Hơn nữa cần ghi rõ là Giáo sư của trường nào? Làm gì có chuyện dành cho vô số vụ trưởng, thứ trưởng, sĩ quan quân đội, công an... như ở nước ta?\n\nChuyện xưng danh Viện sĩ Viện hàn lâm khoa học New York cũng thực nực cười. Chữ Academy còn có nghĩa là Học viện, Trường phái, Hội đoàn... Member chỉ có nghĩa là Thành viên, còn Academician mới là Viện sĩ!\n\nChuyện háo danh còn ở mức Nhà nước. Quốc hội đã từng thảo luận về việc đã nên thành lập Viện Hàn lâm chưa, ý kiến chung là \"chưa\". Vậy mà bỗng nhiên xuất hiện hai Viện hàn lâm trong khi không có Viện sĩ nào (?). Ai tham mưu làm chuyện này, phải chăng xuất phát từ việc có ba Viện từ lâu đã tự tiện đặt tên nước ngoài là Academy (?). Có lẽ ai cũng nên tìm xem trên YouTube sự hùng biện tài hoa và khá có lý trong trên 1 giờ liền của một học sinh lớp 12 với nhan đề \"Sự trăn trở của một kẻ lười biếng\".\n\nTôi cảm thấy nó có tính thuyết phục hơn nhiều tham luận của không ít học giả về những tồn tại kéo dài của nền giáo dục nước nhà. Nên chăng cần viết lại bài độc diễn này dưới dạng văn bản để nhiều người, nhất là những người chịu trách nhiệm, có điều kiện tham khảo. Trong các tồn tại được cậu học sinh này thẳng thắn nêu lên thì chính là bệnh thành tích và một chương trình học tập vừa nặng, vừa thấp (!) so với thế giới, hơn nữa khá xa lạ với nhu cầu của đời sống (!).","can_remove":false,"created_time":"2014-04-02T03:34:03+0000","like_count":5,"user_likes":false},"843861845630494":{"id":"843861845630494","from":{"id":"1828906841","name":"Trọng Nghĩa Bùi"},"message":"Người VN không hoan nghênh hàng TQ? Thế tại sao hàng TQ vẫn đều đều đc nhập về VN mà không thấy giảm nhỉ?","can_remove":false,"created_time":"2014-04-02T03:39:30+0000","like_count":3,"user_likes":false},"843862728963739":{"id":"843862728963739","from":{"id":"100002962664772","name":"Hieu Chu Ba"},"message":"Vào xem profile của đứa ThuyTrang Nguyen này toàn thông tin đả động chính phủ, haizzzz","can_remove":false,"created_time":"2014-04-02T03:40:43+0000","like_count":0,"user_likes":false},"843864432296902":{"id":"843864432296902","from":{"id":"100007930417031","name":"Trang Yamato"},"message":"Thế bạn không biết câu: \" anh em xa không bằng láng giềng gần \" à?\nThêm nữa, hàng TQ rẻ, dân buôn hám lời, nhà nước làm ngơ, nên mới xảy ra tình trạng coi thường sức khoẻ người tiêu dùng!\n\nHỏi mn một câu: Nếu không phải cây nhà lá vườn, ra đường, đi chợ bạn sẽ ăn gì và mua gì bây giờ?","can_remove":false,"created_time":"2014-04-02T03:43:07+0000","like_count":0,"user_likes":false},"843866172296728":{"id":"843866172296728","from":{"id":"1828906841","name":"Trọng Nghĩa Bùi"},"message":"Mình đang chất vấn ngược lại bạn ở trên. Nói là ko hoan nghênh nhưng vẫn tiêu thụ ầm ầm, vậy đó ko phải thực chất mà trên danh nghĩa thôi.","can_remove":false,"created_time":"2014-04-02T03:46:06+0000","like_count":1,"user_likes":false},"843866342296711":{"id":"843866342296711","from":{"id":"100004061887638","name":"Ai MặcNoọng Lái Lai"},"message":"Qá đắt ;))","can_remove":false,"created_time":"2014-04-02T03:46:15+0000","like_count":0,"user_likes":false},"843867075629971":{"id":"843867075629971","from":{"id":"1023965040","name":"Juli KimChi"},"message":"Tớ thì né hàng TQ triệt để. Mờ mắt thì bóc nhầm đành chịu chứ  cho cũng ko lấy. Phải nói dân buôn hám lợi chứ người dùng ai ko tham sống sợ chết.","can_remove":false,"created_time":"2014-04-02T03:47:41+0000","like_count":0,"user_likes":false},"843867885629890":{"id":"843867885629890","from":{"id":"100002962664772","name":"Hieu Chu Ba"},"message":"Thuytrang Nguyen vs Thùy Trang Nguyễn bạn có biết phân biệt ko hả b","can_remove":false,"created_time":"2014-04-02T03:49:23+0000","like_count":0,"user_likes":false},"843868215629857":{"id":"843868215629857","from":{"id":"100002962664772","name":"Hieu Chu Ba"},"message":"mình đang nói người mà bạn Ngọc Gia Bảo chia sẻ ảnh chứ ko phải bạn, ok ?","can_remove":false,"created_time":"2014-04-02T03:50:00+0000","like_count":0,"user_likes":false},"843868402296505":{"id":"843868402296505","from":{"id":"100002093975536","name":"Thùy Trang Nguyễn"},"message":"mình nhầm, :v sorry. đã xóa cm.","can_remove":false,"created_time":"2014-04-02T03:50:22+0000","like_count":0,"user_likes":false},"843878335628845":{"id":"843878335628845","from":{"id":"100003878102664","name":"Tú Cẩm"},"message":"Hay quá !","can_remove":false,"created_time":"2014-04-02T04:08:41+0000","like_count":0,"user_likes":false},"843878892295456":{"id":"843878892295456","from":{"id":"1828906841","name":"Trọng Nghĩa Bùi"},"message":"Juli KimChi Bạn cũng muốn tẩy chay hàng TQ, mình hiểu. Nhưng bạn có nhận ra là những người như bạn và mình vẫn là số ít, nên chưa thể đại diện cho cả 1 đất nước không? Chừng nào phần đông người dân vẫn tiêu thụ hàng hoá TQ, các thương lái vẫn thoải mái nhập hàng TQ loại rởm về thì tình hình sẽ không có gì thay đổi cả.\nĐối với bài viết ở trên, việc người ta đối xử phân biệt với người VN chắc chắn là kết quả từ hành vi của rất nhiều(!) người họ đã gặp (để ý là người ta không đánh giá 1 nhóm người cụ thể nào, tức là nói chung mọi hạng người, mọi giai cấp) Để thay đổi hình ảnh đó không phải một sớm một chiều mà cần sự cố gắng của mỗi người trong chúng ta. Mình mong là tới thế hệ sau sẽ ko còn phải biết đến sự tủi hổ như vậy nữa :)","message_tags":[{"id":"1023965040","name":"Juli KimChi","type":"user","offset":0,"length":11}],"can_remove":false,"created_time":"2014-04-02T04:09:22+0000","like_count":0,"user_likes":false},"843884608961551":{"id":"843884608961551","from":{"id":"100003876634196","name":"Lee Young Min"},"message":"ý nghĩa quá <3","can_remove":false,"created_time":"2014-04-02T04:11:39+0000","like_count":0,"user_likes":false},"843886572294688":{"id":"843886572294688","from":{"id":"1828906841","name":"Trọng Nghĩa Bùi"},"message":"Ngoài ra tuy Hongkong thuộc TQ, nhưng ở đó chịu ít kiểm soát của chính phủ mà mang đậm tính quốc tế hơn, gần giống như Singapore vậy.","can_remove":false,"created_time":"2014-04-02T04:13:08+0000","like_count":0,"user_likes":false},"843892282294117":{"id":"843892282294117","from":{"id":"100000157345230","name":"Thích Là Được"},"message":"bài này nghe hơi ngứa \"Nhiều công ty không muốn hợp tác với người Việt vì đã có kinh nghiệm về chuyện bị ăn cắp công nghệ, kỹ thuật, mà luật pháp tại Việt Nam chưa quy định chặt chẽ để bảo vệ quyền sáng chế.\"  Được thế này còn sợ éo j TQ nữa, nói thế này cái bọn Tàu khựa mới là siêu ăn cắp :v","can_remove":false,"created_time":"2014-04-02T04:25:33+0000","like_count":0,"user_likes":false},"843893675627311":{"id":"843893675627311","from":{"id":"100003224466030","name":"Trí Phạm"},"message":"ko biet noi gi","can_remove":false,"created_time":"2014-04-02T04:29:33+0000","like_count":0,"user_likes":false},"843899592293386":{"id":"843899592293386","from":{"id":"100003340002245","name":"Nguyenthe Trac"},"message":"mỗi lần đọc lại thấy  ấm ức khó chịu, bao nhiêu năm bên Nhật chưa một lần lấy cái quoái gì ở cái đất nc đấy. người Việt mình cũng rất nhẫn nhị với bọn Nhật bản. Khổ thế không biết. mấy thằng mất dậy ăn cắp ăn trộm, ko biết nghĩ. tôi buồn","can_remove":false,"created_time":"2014-04-02T04:41:52+0000","like_count":3,"user_likes":false},"843913948958617":{"id":"843913948958617","from":{"id":"100005603767995","name":"Trang Phạm"},"message":"Bọn hong kong tẩy chay ng việt là đúng rùi...! Coi lan kwai fong nó còn đặt cả ảnh bác hồ lúc cno mây mưa cơ mà....😡","can_remove":false,"created_time":"2014-04-02T05:22:17+0000","like_count":0,"user_likes":false},"843924632290882":{"id":"843924632290882","from":{"id":"100006337662088","name":"LO Ve SOe BOd"},"message":"buồn ghê gớm ... s lại như vậy trời","can_remove":false,"created_time":"2014-04-02T05:51:18+0000","like_count":0,"user_likes":false},"843932998956712":{"id":"843932998956712","from":{"id":"100003996388478","name":"Chu Văn Hiệp"},"message":"đêm mai sẽ bay sang nhật... nhưng mà chán quá :((","can_remove":false,"created_time":"2014-04-02T06:06:01+0000","like_count":1,"user_likes":false},"844023922280953":{"id":"844023922280953","from":{"id":"100004982014580","name":"Kun Kun"},"message":"roi cac nc khac cung tay?chay het ng vn thoi..","can_remove":false,"created_time":"2014-04-02T09:33:40+0000","like_count":0,"user_likes":false},"844039565612722":{"id":"844039565612722","from":{"id":"569263718","name":"Phuong Thao Tran"},"message":"Kun Kun nhắc bạn nhiều lần về việc tiếng Việt có dấu, nên buộc phải xóa nick bạn","can_remove":false,"created_time":"2014-04-02T09:50:26+0000","like_count":1,"user_likes":false},"844069732276372":{"id":"844069732276372","from":{"id":"100000662668291","name":"Đỗ Thăng"},"message":"con sâu làm dầu nồi canh. khôn hiểu những con người ấy nghĩ gì. vì chút lợi nhỏ trước mắt mà đánh mất cả tinh thần tự tôn dân tộc","can_remove":false,"created_time":"2014-04-02T11:26:33+0000","like_count":0,"user_likes":false},"844106648939347":{"id":"844106648939347","from":{"id":"100006953375189","name":"Tiến Trần"},"message":"phần lớn do người dân nghèo, không đủ chi phí khi sang nước ngoài sinh sống, hoc tập dẫn đến việc trộm cắp.\nnói cho cùng thì cũng do luật việt nam chưa đủ chặt chẽ","can_remove":false,"created_time":"2014-04-02T13:00:11+0000","like_count":0,"user_likes":false}},"paging":{"cursors":{"after":"ODQzODQwNzE1NjMyNjA3","before":"ODQzODQwNzE1NjMyNjA3"},"next":"https://graph.facebook.com/229244010425617_843829028967109/comments?limit=1&summary=1&after=ODQzODQwNzE1NjMyNjA3"},"summary":{"order":"chronological","total_count":32}}}