{"id":"229244010425617_843893352294010","type":"photo","object_id":"361677077304359","picture":"https://fbcdn-photos-d-a.akamaihd.net/hphotos-ak-prn1/t1.0-0/10177481_361677077304359_976788858_s.jpg","link":"https://www.facebook.com/photo.php?fbid=361677077304359&set=pcb.843893352294010&type=1&relevant_count=2","from":{"id":"100003862091827","name":"Cao Minh Pham"},"message":"e này 50cc , đi có cần bằng lái ko các mem","created_time":"2014-04-02T04:28:25+0000","updated_time":"2014-04-02T12:38:37+0000","likes":{"data":{"100005597670688":{"id":"100005597670688","name":"Vô Tình"},"100004635995033":{"id":"100004635995033","name":"Phuong Ot"},"100001504584357":{"id":"100001504584357","name":"Hoàng My"},"100001156846127":{"id":"100001156846127","name":"Nguyễn Duy Hưng"},"100005250242073":{"id":"100005250242073","name":"藤 の花"}},"paging":{"cursors":{"after":"MTAwMDA1NTk3NjcwNjg4","before":"MTAwMDA1NTk3NjcwNjg4"},"next":"https://graph.facebook.com/229244010425617_843893352294010/likes?limit=1&summary=1&after=MTAwMDA1NTk3NjcwNjg4"},"summary":{"total_count":5}},"comments":{"data":{"843898222293523":{"id":"843898222293523","from":{"id":"100001292844502","name":"Nam Anh Nguyen"},"message":"Có cần e à\nỞ nhật đi xe đạp và các loại xe cho trẻ e là k cần  bằng thoii","can_remove":false,"created_time":"2014-04-02T04:40:01+0000","like_count":1,"user_likes":false},"844002222283123":{"id":"844002222283123","from":{"id":"100003862091827","name":"Cao Minh Pham"},"message":"oài","can_remove":false,"created_time":"2014-04-02T08:39:14+0000","like_count":0,"user_likes":false},"844002298949782":{"id":"844002298949782","from":{"id":"100003862091827","name":"Cao Minh Pham"},"message":"đổi bằng khó ko anh , e đang muốn đổi đi làm cho tiện","can_remove":false,"created_time":"2014-04-02T08:39:47+0000","like_count":0,"user_likes":false},"844008755615803":{"id":"844008755615803","from":{"id":"100000359762118","name":"Mi Tra"},"message":"Đổi bằng có phải có hồ sơ gốc hồi học bằng lái ở vn và thi 10 câu lý thuyết. Đúng khoảng 7 câu là ok. Nhưng nếu bạn ko hiểu luật ở Nhật thì đừng nên chạy vì tốc độ chạy rất nhanh, đụng nhau là vô viện luôn đấy","can_remove":false,"created_time":"2014-04-02T09:01:17+0000","like_count":0,"user_likes":false},"844032915613387":{"id":"844032915613387","from":{"id":"521525966","name":"Hoa Tím Tất"},"message":"Làm gì cần bằng gốc chị Mi Tra, chỉ cần bằng gốc là đc thôi. Đổi bằng 50cc dễ lắm, 125cc mới khó vì có thêm fần thực hành, rớt như sung.\nVề luật thì lúc đi đường cứ chịu khó quan sát, sau 1 thời gian là rút ra đc luật ngay","message_tags":[{"id":"100000359762118","name":"Mi Tra","type":"user","offset":24,"length":6}],"can_remove":false,"created_time":"2014-04-02T09:38:34+0000","like_count":1,"user_likes":false},"844087855607893":{"id":"844087855607893","from":{"id":"100000359762118","name":"Mi Tra"},"message":"Cái đó tuỳ tỉnh thành đó. Mình ở tỉnh Kanagawa, đổi bằng khá khó. \nCòn bạn bảo chạy ra đường 1 thời gian là rút ra được luật thì mình ko tán thành. \nChạy xe ở Nhật, kỹ thuật một phần, \"văn hoá khi tham gia giao thông\" cũng quan trọng ko kém. Bạn đọc sách dạy Luật giao thông của Nhật thì sẽ biết.","can_remove":false,"created_time":"2014-04-02T12:16:06+0000","like_count":0,"user_likes":false},"844096302273715":{"id":"844096302273715","from":{"id":"521525966","name":"Hoa Tím Tất"},"message":"Ý mình là rút ra luật ( dĩ nhiên nên có kiểm chứng lại qua sách vở) để chạy cho đúng. Mình đi xe máy một thời gian, thấy cứ đi đúng luật, tuân thủ biển báo, chú ý quan sát thì khá là an toàn, ko có vấn đề j, ko đến nỗi \"đừng nên chạy\" :D\n\nCá nhân mình thấy đi xe máy ở Nhật an toàn hơn ở VN, cứ đèn xanh đi đèn đỏ dừng, chả sợ có thằng xe đạp hay ng đi bộ, nhất là các chú áo vàng bất ngờ từ trong bụi rậm nhảy ra ngáng chân Kim Đồng =))","can_remove":false,"created_time":"2014-04-02T12:38:37+0000","like_count":1,"user_likes":false}},"paging":{"cursors":{"after":"ODQzODk4MjIyMjkzNTIz","before":"ODQzODk4MjIyMjkzNTIz"},"next":"https://graph.facebook.com/229244010425617_843893352294010/comments?limit=1&summary=1&after=ODQzODk4MjIyMjkzNTIz"},"summary":{"order":"chronological","total_count":7}}}