{"id":"229244010425617_843858408964171","type":"status","from":{"id":"100005865042504","name":"Vẽ Trái Tim"},"message":"E vừa xem thời sự lại có vụ lừa đảo xkld mọi người ạ.ac nào đi nhớ tìm hiểu kỹ vào nhoé <3","created_time":"2014-04-02T03:33:18+0000","updated_time":"2014-04-02T07:48:56+0000","likes":{"data":{"100006307596308":{"id":"100006307596308","name":"Khi Nào Đổi Thay"},"100003239387692":{"id":"100003239387692","name":"Ngà Ngà Ngố"},"100001432462223":{"id":"100001432462223","name":"Truong Nguyen"},"100007797156820":{"id":"100007797156820","name":"Sói Già"},"100007719188262":{"id":"100007719188262","name":"Trần Văn Thưởng"},"100007446790574":{"id":"100007446790574","name":"Hoàng Công Viên"},"100005577912026":{"id":"100005577912026","name":"Huyen Anh"}},"paging":{"cursors":{"after":"MTAwMDA2MzA3NTk2MzA4","before":"MTAwMDA2MzA3NTk2MzA4"},"next":"https://graph.facebook.com/229244010425617_843858408964171/likes?limit=1&summary=1&after=MTAwMDA2MzA3NTk2MzA4"},"summary":{"total_count":7}},"comments":{"data":{"843965705620108":{"id":"843965705620108","from":{"id":"100007719188262","name":"Trần Văn Thưởng"},"message":"tớ ko đi ko lo :) nhưng mà tội cho mấy bạn bị lừa.","can_remove":false,"created_time":"2014-04-02T07:13:18+0000","like_count":1,"user_likes":false},"843985645618114":{"id":"843985645618114","from":{"id":"100005865042504","name":"Vẽ Trái Tim"},"message":"Trần Văn Thưởng: chúc mừng b đã k đy :))) những b bị lừa là những ng k biết gì","can_remove":false,"created_time":"2014-04-02T07:38:16+0000","like_count":0,"user_likes":false},"843986462284699":{"id":"843986462284699","from":{"id":"100007719188262","name":"Trần Văn Thưởng"},"message":"ủa, ai lừa gì? Vẽ Trái Tim","message_tags":[{"id":"100005865042504","name":"Vẽ Trái Tim","type":"user","offset":15,"length":11}],"can_remove":false,"created_time":"2014-04-02T07:41:10+0000","like_count":1,"user_likes":false},"843986765618002":{"id":"843986765618002","from":{"id":"100007719188262","name":"Trần Văn Thưởng"},"message":"à à, hiểu rồi, nãy đọc ko kỹ","can_remove":false,"created_time":"2014-04-02T07:42:07+0000","like_count":1,"user_likes":false},"843987108951301":{"id":"843987108951301","from":{"id":"100007719188262","name":"Trần Văn Thưởng"},"message":"không hẳn là không biết gì mà đơn giản là bọn lừa đảo quá tinh vi","can_remove":false,"created_time":"2014-04-02T07:43:42+0000","like_count":1,"user_likes":false},"843988462284499":{"id":"843988462284499","from":{"id":"100005865042504","name":"Vẽ Trái Tim"},"message":"Hê ukm b.thương thay cho số phận đã nghèo còn nghèo hơn","can_remove":false,"created_time":"2014-04-02T07:48:56+0000","like_count":0,"user_likes":false}},"paging":{"cursors":{"after":"ODQzOTY1NzA1NjIwMTA4","before":"ODQzOTY1NzA1NjIwMTA4"},"next":"https://graph.facebook.com/229244010425617_843858408964171/comments?limit=1&summary=1&after=ODQzOTY1NzA1NjIwMTA4"},"summary":{"order":"chronological","total_count":6}}}