{"id":"229244010425617_844023752280970","type":"photo","object_id":"10152061302616723","picture":"https://scontent-a.xx.fbcdn.net/hphotos-frc1/l/t1.0-0/r270/10174883_10152061302616723_2102744368_s.jpg","link":"https://www.facebook.com/photo.php?fbid=10152061302616723&set=gm.844023752280970&type=1&relevant_count=1","from":{"id":"620066722","name":"Dong Khac Thai"},"message":"【Đọc báo cùng nhau】Các bạn mới vào công ty: \"Cố gắng lên\", lời tặng của những người đi trước.\n「\n・Nếu bị la thì sẽ tìm được một thứ gì đó.\n\n・Đối đầu với ưu tư 1 cách tích cực.\n\n・Hãy là những người tiên phong chinh phục bóng đêm.」\n\nNguồn: Báo Mainichi\n\nCó lẽ những từ quý giá ở trên không chỉ có lúc mới vào công ty mà cả đời này \nphải nhớ.\n\n※Link đầy đủ tiếng Nhật (đăng ký thành viên web miễn phí thì mới đọc được):\nhttp://mainichi.jp/shimen/news/m20140401dde012040007000c.html\n\n【一緒に新聞を読みましょう】ガンバレ！新入社員　人生の先輩から贈る言葉\n\n「・叱れたら見つけもの。\n　（しかれたらみつけもの）\n\n　・積極的に「ゆううつ」に挑め\n　（せっきょくてきに「ゆううつ」にいどめ）\n\n　・闇に向かう先駆者になれ\n　（やみにむかうせんくしゃになれ）」\n\n毎日新聞より。\n\nやっばり上の貴重な言葉は新入社員の時だけでけではなく、人生一生覚えないといけない。\n\n※日本語の記事のリンク（内容閲覧のために、無料でＷＥＢ会員の登録要）\nhttp://mainichi.jp/shimen/news/m20140401dde012040007000c.html","created_time":"2014-04-02T09:33:12+0000","updated_time":"2014-04-02T12:13:52+0000","likes":{"data":{"100002911599722":{"id":"100002911599722","name":"Vincente Tuyền Tinh Tế"},"100005947002561":{"id":"100005947002561","name":"Tao Là Tôi"},"100003778246918":{"id":"100003778246918","name":"Quá Khứ"},"100001216346807":{"id":"100001216346807","name":"Anh Nguyễn"},"100001416272263":{"id":"100001416272263","name":"Mai PB"},"736619290":{"id":"736619290","name":"Hoa Vo Khuyet"},"100002427715884":{"id":"100002427715884","name":"Hell Angel"},"100004112258038":{"id":"100004112258038","name":"Chung Tran"},"100000048685290":{"id":"100000048685290","name":"Nguyen Sy Thang"},"100000160723457":{"id":"100000160723457","name":"Maria Do"},"545670961":{"id":"545670961","name":"Tran Vu Ha Minh"},"100006604537364":{"id":"100006604537364","name":"Dan Le"},"100007880444320":{"id":"100007880444320","name":"自由"},"100001995633843":{"id":"100001995633843","name":"Yasunobu Toda"},"100002709038300":{"id":"100002709038300","name":"Sìu Châu"},"1146680551":{"id":"1146680551","name":"優しい なぁ"},"100003666736429":{"id":"100003666736429","name":"Saobang Nguyen"},"100001393959821":{"id":"100001393959821","name":"Le Ngoc Linh Nhi"},"1816269439":{"id":"1816269439","name":"Dao Ngoc"},"100002963737004":{"id":"100002963737004","name":"Hà Phùng"},"100004551908016":{"id":"100004551908016","name":"Lê Duy"},"100005307004792":{"id":"100005307004792","name":"Kiều Văn"},"100001526631937":{"id":"100001526631937","name":"Tường Oanh Mineko"},"569263718":{"id":"569263718","name":"Phuong Thao Tran"},"100000381394367":{"id":"100000381394367","name":"Thành Nguyễn"},"100002611874779":{"id":"100002611874779","name":"Trung Nguyễn"},"1394148660":{"id":"1394148660","name":"Cừu Non"},"100003726912321":{"id":"100003726912321","name":"Thuong Ngo"},"100001432462223":{"id":"100001432462223","name":"Truong Nguyen"}},"paging":{"cursors":{"after":"MTAwMDAyOTExNTk5NzIy","before":"MTAwMDAyOTExNTk5NzIy"},"next":"https://graph.facebook.com/229244010425617_844023752280970/likes?limit=1&summary=1&after=MTAwMDAyOTExNTk5NzIy"},"summary":{"total_count":29}},"comments":{"data":{"844033642279981":{"id":"844033642279981","from":{"id":"100002611874779","name":"Trung Nguyễn"},"message":"\"積極的　- tích cực\" chứ nhỉ mà bạn Thái @@","can_remove":false,"created_time":"2014-04-02T09:40:56+0000","like_count":2,"user_likes":false},"844033982279947":{"id":"844033982279947","from":{"id":"620066722","name":"Dong Khac Thai"},"message":"ha ha sr nhầm to:)","can_remove":false,"created_time":"2014-04-02T09:41:26+0000","like_count":0,"user_likes":false},"844034095613269":{"id":"844034095613269","from":{"id":"620066722","name":"Dong Khac Thai"},"message":"Thanks bạn Trung Nguyễn","message_tags":[{"id":"100002611874779","name":"Trung Nguyễn","type":"user","offset":11,"length":12}],"can_remove":false,"created_time":"2014-04-02T09:42:02+0000","like_count":0,"user_likes":false},"844085948941417":{"id":"844085948941417","from":{"id":"1642723779","name":"Han Van Thang"},"message":"Hay nhỉ","can_remove":false,"created_time":"2014-04-02T12:11:17+0000","like_count":1,"user_likes":false},"844087018941310":{"id":"844087018941310","from":{"id":"620066722","name":"Dong Khac Thai"},"message":"E thích mấy bài giáo dục định hướng như vậy.","can_remove":false,"created_time":"2014-04-02T12:13:52+0000","like_count":0,"user_likes":false}},"paging":{"cursors":{"after":"ODQ0MDMzNjQyMjc5OTgx","before":"ODQ0MDMzNjQyMjc5OTgx"},"next":"https://graph.facebook.com/229244010425617_844023752280970/comments?limit=1&summary=1&after=ODQ0MDMzNjQyMjc5OTgx"},"summary":{"order":"chronological","total_count":5}}}