{"id":"229244010425617_844047305611948","type":"status","from":{"id":"100001458099624","name":"Kham Pha"},"message":"-Dạo trước, trước cả lúc có vụ VN Airline có một chị người Nhật hỏi mình \"tại sao du học sinh Việt Nam sang Nhật hay ăn cắp vậy?\" \n-Mình trả lời \"có lẽ bởi vì một số bị các cty môi giới lừa lấy quá nhiều phí mà sang đây giá cả đắt đó nên họ không đủ tiền sống\"\n-Chị ấy lại hỏi \"họ có biết sang đây sẽ cực khổ không mà vẫn sang?\"\n-Mình lại trả lời \"một số ko biết, một số biết nhưng cuộc sống ở VN của họ cũng đã quá khổ rồi nên sang đây với hi vọng thay đổi được.\" \n\nMình biết các bạn du học sinh sang Nhật có cuộc sống không dễ dàng gì nhưng hi vọng các bạn không nản chí và sa vào con đường phạm pháp. Cuộc sống đôi khi có lúc này lúc nọ, khó khăn vất vả nhưng chính những lúc như thế mà vượt qua được thì mới thực sự trưởng thành :)\n皆さん、頑張ってください。私はいつまでも心より応援しております。","created_time":"2014-04-02T10:17:40+0000","updated_time":"2014-04-03T15:22:32+0000","likes":{"data":{"100003864143890":{"id":"100003864143890","name":"Hue Nguyen"},"100003216142531":{"id":"100003216142531","name":"Dudu Tròn"},"100003115841931":{"id":"100003115841931","name":"Bánh Đa Cá Rô"},"100007745822702":{"id":"100007745822702","name":"Nhung Vũ Thị"},"100006907235659":{"id":"100006907235659","name":"Thao Van"},"100005395026544":{"id":"100005395026544","name":"Xí NgẦu"},"100000758307606":{"id":"100000758307606","name":"Lương Ngọc Thành"},"100002945776077":{"id":"100002945776077","name":"Hoàng Mạnh Cường"},"1136463483":{"id":"1136463483","name":"Nông Dân"},"100003124307460":{"id":"100003124307460","name":"Duc Giang"},"100000021018532":{"id":"100000021018532","name":"Hương Nguyễn"},"100004068300605":{"id":"100004068300605","name":"Tam Anh"},"100005428813389":{"id":"100005428813389","name":"Bình Nhi"},"100001098114383":{"id":"100001098114383","name":"Kiên Xetok"},"100003972330545":{"id":"100003972330545","name":"Cnc CK"},"100003055356509":{"id":"100003055356509","name":"Thuan Nguyen"},"100004520614057":{"id":"100004520614057","name":"Dương Quỳnh Hoa"},"100003992111176":{"id":"100003992111176","name":"Nam Tào"},"100004295739853":{"id":"100004295739853","name":"Mẫn Đức Trung"},"100001793077006":{"id":"100001793077006","name":"Hồng Hải Hà"},"100002285032831":{"id":"100002285032831","name":"Hà Đỗ"},"100004339894669":{"id":"100004339894669","name":"Bồ Công Anh"},"100004119541573":{"id":"100004119541573","name":"Thùy Dung"},"100007935877434":{"id":"100007935877434","name":"Tuyết Hà Cam"},"100006781330290":{"id":"100006781330290","name":"Kiên Remode"},"100001628594107":{"id":"100001628594107","name":"Cong Nguyen Kim"},"100004842993862":{"id":"100004842993862","name":"Trương Thị Thanh Tâm"},"100004602996737":{"id":"100004602996737","name":"Đăng Lynk"},"1296997933":{"id":"1296997933","name":"Pham Thi Thu Phuong"},"100007472856790":{"id":"100007472856790","name":"Tuyển Dụng J-Job"},"100001372256745":{"id":"100001372256745","name":"Tran Quan"},"100007895614653":{"id":"100007895614653","name":"Dinh Thi Thu"},"100001432462223":{"id":"100001432462223","name":"Truong Nguyen"},"100000052661831":{"id":"100000052661831","name":"Shuntoku Pham"},"100001007000967":{"id":"100001007000967","name":"Bibi Nguyễn"},"100000293655870":{"id":"100000293655870","name":"Tiên Tien"},"100005629113448":{"id":"100005629113448","name":"Ngoc Duyen"},"100004871794179":{"id":"100004871794179","name":"Lee Mi Nguyen"},"100004366063652":{"id":"100004366063652","name":"Vũ Bá Dũng"},"100007386759302":{"id":"100007386759302","name":"Phượng Anh"},"100002959135962":{"id":"100002959135962","name":"Duong Nguyen Van"},"100006471638632":{"id":"100006471638632","name":"Nguyễn Hải Hà"},"100000930750489":{"id":"100000930750489","name":"Vuvan Song"},"100002573593584":{"id":"100002573593584","name":"Thơ Lê"},"100002745859939":{"id":"100002745859939","name":"Vũ Lợi"},"100000439907914":{"id":"100000439907914","name":"Tran Anh Thai"},"100006004634631":{"id":"100006004634631","name":"Quy Le Van"},"100003227211791":{"id":"100003227211791","name":"Lan Lan"},"100003688666241":{"id":"100003688666241","name":"Hồng Thủy Sakura"},"100003799434301":{"id":"100003799434301","name":"Ninh Mai"},"100000562416083":{"id":"100000562416083","name":"Tuong Hayate"},"100003117196570":{"id":"100003117196570","name":"Nguyễn Văn Ngọc"},"100005122060121":{"id":"100005122060121","name":"Trương Linh"},"100000381942173":{"id":"100000381942173","name":"Vì Nghèo Mà Ra"},"100002427715884":{"id":"100002427715884","name":"Hell Angel"},"100001754136107":{"id":"100001754136107","name":"Nguyễn Tuấn Vũ"},"100007558053842":{"id":"100007558053842","name":"Nhox Siêu Quậy"},"100000500260636":{"id":"100000500260636","name":"Lưu Nguyễn Thảo Tiên"},"100004860791741":{"id":"100004860791741","name":"Cữ Rữa Thôi"},"100004318625255":{"id":"100004318625255","name":"Toàn Mạnh"},"100003125931765":{"id":"100003125931765","name":"No Reason"},"100000380502922":{"id":"100000380502922","name":"Anh Thật Ngốc"},"100001759587037":{"id":"100001759587037","name":"Kiều Linhh"},"100006184234950":{"id":"100006184234950","name":"Thế Nhút"},"100003674836859":{"id":"100003674836859","name":"Hong Nguyen Van"},"100000045271667":{"id":"100000045271667","name":"Nam Thai Nguyen"},"569263718":{"id":"569263718","name":"Phuong Thao Tran"},"100007989731081":{"id":"100007989731081","name":"Hoàng Đạo"},"1669816305":{"id":"1669816305","name":"Hoàng Đăng Lâm"},"100006710072380":{"id":"100006710072380","name":"Trọng Hiếu Phạm"},"100002853438802":{"id":"100002853438802","name":"Thanh Thu"},"100003858982755":{"id":"100003858982755","name":"Trần Hải"},"100004099960501":{"id":"100004099960501","name":"Hiền Nguyễn"},"1560994739":{"id":"1560994739","name":"Nguyen Anh Tien"},"100001730894739":{"id":"100001730894739","name":"Duy Viet Tran"},"100003576036346":{"id":"100003576036346","name":"Tu Bui Ngoc"},"100000325572172":{"id":"100000325572172","name":"Kaze Hikaru"},"100001819436000":{"id":"100001819436000","name":"Nguyễn Xuân Sơn"},"100000176005586":{"id":"100000176005586","name":"Nghia le Van"},"100000789697497":{"id":"100000789697497","name":"Đỗ Hồng Thái"},"100007778794669":{"id":"100007778794669","name":"Nga Quỳnh"},"100002157658697":{"id":"100002157658697","name":"Cu Min"},"100005184577817":{"id":"100005184577817","name":"Tôi Ơi Đừng Khóc"},"100003065042112":{"id":"100003065042112","name":"Tô Đức Hùng"},"1148962646":{"id":"1148962646","name":"Tran Thi Tuong Van"},"100000159330845":{"id":"100000159330845","name":"Nguyen Thi Viet"},"1773169835":{"id":"1773169835","name":"Nguyễn Tuấn Hải"},"100004016335743":{"id":"100004016335743","name":"Trần Khôi"},"100003669115614":{"id":"100003669115614","name":"Lê Tươi"},"100003920174988":{"id":"100003920174988","name":"Chuot Dong"},"100003836713505":{"id":"100003836713505","name":"Châu Minh Huỳnh"},"100003188105866":{"id":"100003188105866","name":"Momiji Chan"},"100004573743625":{"id":"100004573743625","name":"Bean Hana"},"100004313589403":{"id":"100004313589403","name":"Phuocthua Lại"},"100001907600126":{"id":"100001907600126","name":"Thanh Trang"},"100006335015996":{"id":"100006335015996","name":"Lê Hoàng"},"100000918871201":{"id":"100000918871201","name":"Thang PhanVan"},"100004158757364":{"id":"100004158757364","name":"Cuong Nguyen Duc"},"100003496692527":{"id":"100003496692527","name":"Cỏ Ba Lá"},"100003938019120":{"id":"100003938019120","name":"Min Hee Chan"},"100000257464771":{"id":"100000257464771","name":"Trương Ngọc Điệp"},"100003553243152":{"id":"100003553243152","name":"Oanh Nguyen"},"100005984439383":{"id":"100005984439383","name":"Băng Phạm Tiểu"},"100004257672185":{"id":"100004257672185","name":"Xóa Tên Anh"},"100008071332361":{"id":"100008071332361","name":"Bobo Chan"},"100000363320234":{"id":"100000363320234","name":"Nguyen Cuong"},"100005951864560":{"id":"100005951864560","name":"Nguyễn Văn Yên"},"100005327112379":{"id":"100005327112379","name":"Guongcuoideem Dk Hanhphuk"},"100006722864042":{"id":"100006722864042","name":"Họ Bá Tên Đạo"},"100004136346995":{"id":"100004136346995","name":"Kim Dong Chung"},"100002606435744":{"id":"100002606435744","name":"Hồng Nhung"},"1809939388":{"id":"1809939388","name":"Nguyễn Thạc Huy"},"100004286503089":{"id":"100004286503089","name":"Vua Ga"},"100007356733000":{"id":"100007356733000","name":"Hưng Kun"},"100004232253359":{"id":"100004232253359","name":"Binh Phan"},"100001797875974":{"id":"100001797875974","name":"Đức Hạnh"},"100003841915569":{"id":"100003841915569","name":"Quang Hợp"},"100003221149832":{"id":"100003221149832","name":"Con Gà Công Nghệ"},"1146680551":{"id":"1146680551","name":"優しい なぁ"},"100002428163247":{"id":"100002428163247","name":"Trần Đức Hùng"},"100003251578428":{"id":"100003251578428","name":"Đoàn Long"},"100003607925265":{"id":"100003607925265","name":"Thu Hằng"},"100008133690691":{"id":"100008133690691","name":"Con Yêu Mẹ"},"100003032663784":{"id":"100003032663784","name":"Vượt Qua Thử Thách"},"100007337430966":{"id":"100007337430966","name":"Nguyễn Hường"},"1749448287":{"id":"1749448287","name":"Tu Quyen"},"100006552763483":{"id":"100006552763483","name":"Chery Cole"},"100005801442456":{"id":"100005801442456","name":"An Nguyen"},"100003719334579":{"id":"100003719334579","name":"Hoàng Yến"},"100004250016923":{"id":"100004250016923","name":"Bao Nguyen"},"100003264330800":{"id":"100003264330800","name":"Tiểu Mộc"},"100007513002840":{"id":"100007513002840","name":"Truong Nguyen"},"100002855702221":{"id":"100002855702221","name":"Thủ Dương"},"100003893158172":{"id":"100003893158172","name":"Maru MO"},"100001114549932":{"id":"100001114549932","name":"Bui Thanh Hung"},"100003945581110":{"id":"100003945581110","name":"Bí Ngô"},"100003814756892":{"id":"100003814756892","name":"Hai Nguyen"},"100006709392146":{"id":"100006709392146","name":"Chu Bá Đại"},"1813611352":{"id":"1813611352","name":"To Đùng"},"100000399879223":{"id":"100000399879223","name":"Hoan Le"},"100003216856318":{"id":"100003216856318","name":"Lan Nguyễn"},"100001840875327":{"id":"100001840875327","name":"Phạm Chí Long"},"100001683443068":{"id":"100001683443068","name":"Dương Tươi"},"100001257093338":{"id":"100001257093338","name":"Hanh Dang"},"100002981655149":{"id":"100002981655149","name":"Đỗ Văn Nghĩa"},"100001546837960":{"id":"100001546837960","name":"Chung Goldstar"},"100002290906582":{"id":"100002290906582","name":"Kanashimi No Yukue"},"100002137253818":{"id":"100002137253818","name":"Anh Khoa"},"100000342230134":{"id":"100000342230134","name":"Thuy Le"},"100003754808113":{"id":"100003754808113","name":"Thu Mit"},"100006008169978":{"id":"100006008169978","name":"Quỳnh Giao"},"100000377362487":{"id":"100000377362487","name":"Tập Quên"},"100005744975477":{"id":"100005744975477","name":"Tuyết Mùa Hè"},"100003132750382":{"id":"100003132750382","name":"Trung Quân"},"100002890851860":{"id":"100002890851860","name":"Hải Linh"},"100006821673235":{"id":"100006821673235","name":"Tana Ka"},"100004141509084":{"id":"100004141509084","name":"Kẹo Kẹo"},"100001526631937":{"id":"100001526631937","name":"Tường Oanh Mineko"},"100003697539923":{"id":"100003697539923","name":"Minh Thắng"},"100001571041179":{"id":"100001571041179","name":"Khôi Nguyễn Văn"},"100007909359766":{"id":"100007909359766","name":"Phi Thuy"},"100000381394367":{"id":"100000381394367","name":"Thành Nguyễn"},"100005804586628":{"id":"100005804586628","name":"Huyền Phạm"},"100006933518153":{"id":"100006933518153","name":"Mai Hạnh Nguyễn"},"100000367010477":{"id":"100000367010477","name":"Sky's Wings"},"100001958220978":{"id":"100001958220978","name":"Trung Hiếu Bắp"},"100003130740935":{"id":"100003130740935","name":"Lam Anh"},"100006923141255":{"id":"100006923141255","name":"ドー べト チエン"},"100004784293913":{"id":"100004784293913","name":"Nguyen Lung"},"1764773046":{"id":"1764773046","name":"Thu Thao Bui"},"100004136340523":{"id":"100004136340523","name":"Mỹ Thuận Nguyễn"},"100007553742936":{"id":"100007553742936","name":"Kien Phan"},"100000917490385":{"id":"100000917490385","name":"Vân Anh Hoàng"},"100006846840777":{"id":"100006846840777","name":"Đi Tìm Tương Lai"},"100002971920268":{"id":"100002971920268","name":"Tùng Tung Tăng"},"100004221600922":{"id":"100004221600922","name":"Thịnh Nguyễn"},"100003666736429":{"id":"100003666736429","name":"Saobang Nguyen"},"100005344084736":{"id":"100005344084736","name":"Nhất Nhất"},"100004764720702":{"id":"100004764720702","name":"Không Bon Chen"},"100004435534950":{"id":"100004435534950","name":"Ốc Đá"},"100002493974023":{"id":"100002493974023","name":"Tuyết Nhung"},"100003826954451":{"id":"100003826954451","name":"Nguyen Huu Tai"},"100002942125736":{"id":"100002942125736","name":"Lạnh Lùng"},"100005058398238":{"id":"100005058398238","name":"Minh Thư Nguyễn"},"100004463501638":{"id":"100004463501638","name":"Beo Ngố"},"100006652710586":{"id":"100006652710586","name":"Trần Minh Thu"},"100005451990675":{"id":"100005451990675","name":"An Pham"},"100002525493023":{"id":"100002525493023","name":"Thuy Linh"},"100001864479440":{"id":"100001864479440","name":"Nguyễn Minh Tuyến"},"100002568133487":{"id":"100002568133487","name":"Ty Ti"},"100003290036407":{"id":"100003290036407","name":"Tuoi Sweet"},"100004409739644":{"id":"100004409739644","name":"Nobita Honda"},"100005495773832":{"id":"100005495773832","name":"Hiền Vũ"},"100004627514398":{"id":"100004627514398","name":"Tự Hoàn Thiện"},"100007995421886":{"id":"100007995421886","name":"Ừ Anh Sẽ Đợi"},"100001563076732":{"id":"100001563076732","name":"Nguyễn Tam Vũ"},"100004159717053":{"id":"100004159717053","name":"Ngo Tu"},"100005225070381":{"id":"100005225070381","name":"Okane Mochi"},"100007806284139":{"id":"100007806284139","name":"Đặng Yên"},"100001396016701":{"id":"100001396016701","name":"Ong Thợ"},"100004094256514":{"id":"100004094256514","name":"Nitkon Nguyễn"},"100002761230525":{"id":"100002761230525","name":"EB Viet Nam"},"100001502693321":{"id":"100001502693321","name":"Veronica Dz"},"100002598725137":{"id":"100002598725137","name":"Nhật Anh Nguyễn"},"100002978037376":{"id":"100002978037376","name":"Hoàng Mạnh Cường"},"100003250657085":{"id":"100003250657085","name":"Nhất Kiếm Vô Tình"},"100004965272241":{"id":"100004965272241","name":"Cỏ Nhỏ"},"525828985":{"id":"525828985","name":"Cindy Taiki"},"100001011735320":{"id":"100001011735320","name":"Trí Đinh"},"100006612573107":{"id":"100006612573107","name":"Hana  Yuki"},"100002918208166":{"id":"100002918208166","name":"Quan Okmen"},"100000019126977":{"id":"100000019126977","name":"Nguyen Thi Ngoc Anh"},"100005696525096":{"id":"100005696525096","name":"Be Heo Beo"},"100003753377912":{"id":"100003753377912","name":"Trang Beo"},"100007272394237":{"id":"100007272394237","name":"Ivy Nguyen"},"1041112197":{"id":"1041112197","name":"Thảo Nini"},"100000054665103":{"id":"100000054665103","name":"John Nguyễn"},"100002462325825":{"id":"100002462325825","name":"Hà Tồ"},"100006434358133":{"id":"100006434358133","name":"Tươi Cún"},"100001044224883":{"id":"100001044224883","name":"Fan Tom"},"100000414537421":{"id":"100000414537421","name":"Hnamik Trần"},"100003466287943":{"id":"100003466287943","name":"Kim Chi Saki Loyal"},"100005917954526":{"id":"100005917954526","name":"Người Hoa Gốc Việt"},"1303327291":{"id":"1303327291","name":"Nguyễn Thanh Tùng"},"100005534227149":{"id":"100005534227149","name":"Băng Tâm"},"100003913383051":{"id":"100003913383051","name":"Tho Tran"},"100004798083725":{"id":"100004798083725","name":"Cappu Ccino"},"100005673701091":{"id":"100005673701091","name":"Ngọc Bích"},"100001154562752":{"id":"100001154562752","name":"Ha Nguyen"}},"paging":{"cursors":{"after":"MTAwMDAzODY0MTQzODkw","before":"MTAwMDAzODY0MTQzODkw"},"next":"https://graph.facebook.com/229244010425617_844047305611948/likes?limit=1&summary=1&after=MTAwMDAzODY0MTQzODkw"},"summary":{"total_count":232}},"comments":{"data":{"844048525611826":{"id":"844048525611826","from":{"id":"100005917954526","name":"Người Hoa Gốc Việt"},"message":"thật khó tả mặt để đâu được nhỉ","can_remove":false,"created_time":"2014-04-02T10:21:28+0000","like_count":0,"user_likes":false},"844048672278478":{"id":"844048672278478","from":{"id":"100003466287943","name":"Kim Chi Saki Loyal"},"message":"みんなさん。がんばってくださいね。","can_remove":false,"created_time":"2014-04-02T10:22:01+0000","like_count":8,"user_likes":false},"844051088944903":{"id":"844051088944903","from":{"id":"100007262851862","name":"Thanh Shinsetsu"},"message":"Xấu hổ quá","can_remove":false,"created_time":"2014-04-02T10:29:11+0000","like_count":0,"user_likes":false},"844051645611514":{"id":"844051645611514","from":{"id":"100002675927707","name":"K.r. Ngok"},"message":"Haiz làm trong công ty mà  một vài người nhật cũng có ít biểu hiện trên khuôn mặt họ tỏ ý không thích người vn lắm...lúc đó thấy thật xấu hổ...các bạn thật ích kỉ khi chỉ sống cho riêng bản thân mình..haiz","can_remove":false,"created_time":"2014-04-02T10:30:47+0000","like_count":1,"user_likes":false},"844054722277873":{"id":"844054722277873","from":{"id":"100001011735320","name":"Trí Đinh"},"message":"Lỗi 1 phần cũng do các công ty vấn ,họ không đi sâu vào vấn đề ,họ chỉ cho thấy bề nổi,để thu hút người đi,chỉ cần đủ điều kiện để làm lợi cho ho,sang Nhật cũng có rất nhiều người ,ai cũng bảo đi du học là để học nhưng thực chất trước khi sang nhiều người lại nghĩ bên đó để kiếm tiền,,,hy vọng về sau hình ảnh người Việt mình sẽ dần được cải thiện,mỗi người giúp đỡ nhau 1 tý","can_remove":false,"created_time":"2014-04-02T10:39:15+0000","like_count":4,"user_likes":false},"844055232277822":{"id":"844055232277822","from":{"id":"100002675927707","name":"K.r. Ngok"},"message":"Thế cái vụ của vn airline là do chết đói hả","can_remove":false,"created_time":"2014-04-02T10:40:40+0000","like_count":0,"user_likes":false},"844057358944276":{"id":"844057358944276","from":{"id":"100004784233958","name":"NO Bita"},"message":"Ý thức.... K ai chết đói cả....","can_remove":false,"created_time":"2014-04-02T10:47:45+0000","like_count":2,"user_likes":false},"844061412277204":{"id":"844061412277204","from":{"id":"100005744642424","name":"Hai Quân"},"message":"Hjhj bien kho","can_remove":false,"created_time":"2014-04-02T10:57:48+0000","like_count":0,"user_likes":false},"844073478942664":{"id":"844073478942664","from":{"id":"100004141509084","name":"Kẹo Kẹo"},"message":"do ý thức cả thôi.moi ng co gag len dug lam nhug dieu sai trai nua","can_remove":false,"created_time":"2014-04-02T11:39:15+0000","like_count":1,"user_likes":false},"844077768942235":{"id":"844077768942235","from":{"id":"100005744975477","name":"Tuyết Mùa Hè"},"message":"Nếu ko thể lm cho bản thân m tốt hơn, lm cho hình ảnh con ng, xã hội VN tốt hơn thì cũng xin đừng lm nó xấu hơn các b à. Hãy nhớ các b chỉ là 1 phần rất rất nhỏ, chỉ là 1/90triệu n mọi hành vi of các b sẽ đại diện, gây ảnh hưởng đến danh dự of 1 nước vn đk găy dựng từ biết bao thế hệ","can_remove":false,"created_time":"2014-04-02T11:51:23+0000","like_count":1,"user_likes":false},"844080732275272":{"id":"844080732275272","from":{"id":"100001546837960","name":"Chung Goldstar"},"message":"Tôi cũng hết sức ủng hộ các bạn nhưng không bao giờ thông cảm cho chuyện ăn cắp, lừa đảo, và những ai, tổ chức nào chà đạp lên cộng đồng người Việt.","can_remove":false,"created_time":"2014-04-02T11:59:00+0000","like_count":4,"user_likes":false},"844086135608065":{"id":"844086135608065","from":{"id":"100000399879223","name":"Hoan Le"},"message":"Chuẩn quá. Cộng đồng mình có cách gì cho các cty xkld vô lương tâm sập tiệm hết ko? Đó mới là cốt lõi của vấn đề, có thực mới vực được đạo.","can_remove":false,"created_time":"2014-04-02T12:11:36+0000","like_count":0,"user_likes":false},"844087472274598":{"id":"844087472274598","from":{"id":"100007799370568","name":"Shigatsu No Sakura"},"message":"dù có bị công ty lừa hay không thì cũng không được ăn cắp.những đồng tiền làm ra từ sức lao động chân chính thực sự có giá trị lớn.","can_remove":false,"created_time":"2014-04-02T12:14:54+0000","like_count":1,"user_likes":false},"844096222273723":{"id":"844096222273723","from":{"id":"100005744642424","name":"Hai Quân"},"message":"Toan nhung loi vo nghĩa thoi. Hay song va cam nhan xem","can_remove":false,"created_time":"2014-04-02T12:38:29+0000","like_count":2,"user_likes":false},"844098662273479":{"id":"844098662273479","from":{"id":"100006846840777","name":"Đi Tìm Tương Lai"},"message":"Nói đi cũng phải nói lại . Đâu phải cứ muốn là được đâu !","can_remove":false,"created_time":"2014-04-02T12:44:12+0000","like_count":1,"user_likes":false},"844099068940105":{"id":"844099068940105","from":{"id":"100004116577285","name":"Cuong Giang"},"message":"2 bạn bên trên ủng hộ ăn cắp sai?????","can_remove":false,"created_time":"2014-04-02T12:45:28+0000","like_count":0,"user_likes":false},"844104722272873":{"id":"844104722272873","from":{"id":"100006846840777","name":"Đi Tìm Tương Lai"},"message":"Là sao a cườg giang . E k ủng hộ việc ăn cắp mà rất gét ăn cắp","can_remove":false,"created_time":"2014-04-02T12:55:19+0000","like_count":0,"user_likes":false},"844106005606078":{"id":"844106005606078","from":{"id":"100007799370568","name":"Shigatsu No Sakura"},"message":"Thiếu Gia Họ Phùng,không phải việc gì cứ muốn là được,nhưng không hành động thì chắc chắn là sẽ không được.quyết tâm thay đổi để có thể ngẩng cao đầu là điều cần thiết,dù nó khó đến đâu đi nữa.","can_remove":false,"created_time":"2014-04-02T12:58:38+0000","like_count":0,"user_likes":false},"844111445605534":{"id":"844111445605534","from":{"id":"100003032663784","name":"Vượt Qua Thử Thách"},"message":"cùng quan điểm vs Shigatsu No Sakura","message_tags":[{"id":"100007799370568","name":"Shigatsu No Sakura","type":"user","offset":18,"length":18}],"can_remove":false,"created_time":"2014-04-02T13:09:48+0000","like_count":0,"user_likes":false},"844114048938607":{"id":"844114048938607","from":{"id":"100006846840777","name":"Đi Tìm Tương Lai"},"message":"E cũng ngĩ như anh . Tất cả là do mình . Nhưng có những người lại k thèm thay đổi để tốt lên !","can_remove":false,"created_time":"2014-04-02T13:16:22+0000","like_count":0,"user_likes":false},"844139628936049":{"id":"844139628936049","from":{"id":"100000363320234","name":"Nguyen Cuong"},"message":"hay","can_remove":false,"created_time":"2014-04-02T14:06:49+0000","like_count":0,"user_likes":false},"844151852268160":{"id":"844151852268160","from":{"id":"100004646794576","name":"Pham Hoang Viet"},"message":"Thật đáng xấu hổ cho người việt nam chúng ta qua.cứ đà như vậy sớm muộn gì người việt chúng ta sẽ bị tẩy chay trên các quốc gia có người việt sinh sống xấu hổ xấu hổ qua!!!!!!!!!!!!!","can_remove":false,"created_time":"2014-04-02T14:28:16+0000","like_count":0,"user_likes":false},"844155545601124":{"id":"844155545601124","from":{"id":"100006102636151","name":"Hoàng Linh Đan"},"message":"Cuộc sống khó khăn,thiếu thốn,giá cả đắt đỏ và  đã tăng thêm.tình trạng này sẽ còn tăng thêm nữa sau vụ tăng thuế này.không kết thúc được đâu,không dừng lại được đâu.chờ đi rồi sẽ thấy.\nỞ đâu có cây cối ở đó có sâu bọ và ở đâu có con người ở đó có tệ nạn.\nSâu bọ đói bắt buộc phải ăn thực vật.\nCon người đói tất yếu đầu tiên trong suy nghĩ là tệ nạn","can_remove":false,"created_time":"2014-04-02T14:38:36+0000","like_count":1,"user_likes":false},"844158985600780":{"id":"844158985600780","from":{"id":"100001416272263","name":"Mai PB"},"message":"Mọi người chưa đọc phân tích ở bài viết về điều tra của cảnh sát Nhật hôm nọ à? Có sự hoạt động ăn cắp có tổ chức nên chắc chắn có sự lôi kéo của bọn xấu một cách có hệ thống. Vì vậy không loại trừ khả năng có những người bị bọn đầu sỏ cho vào tròng hoặc đưa lợi nhuận ra nhử, bị lôi kéo đi ăn cắp. Cảnh sát vẫn đang điều tra.","can_remove":false,"created_time":"2014-04-02T14:47:29+0000","like_count":2,"user_likes":false},"844173095599369":{"id":"844173095599369","from":{"id":"100002157658697","name":"Cu Min"},"message":"đừng nhìn mặt ngoài mà kết luận vội.biết đâu người việt chỉ là phần nổi .phần chìm là người nhật cầm đầu thì sao","can_remove":false,"created_time":"2014-04-02T15:21:35+0000","like_count":2,"user_likes":false},"844190965597582":{"id":"844190965597582","from":{"id":"100007799370568","name":"Shigatsu No Sakura"},"message":"vậy người việt ta chấp nhận làm phần nổi của cái xấu hay sao?người nhật có cầm đầu hay không,chúng ta không biết,nhưng nhiều người việt ăn cắp,đó là sự thật,không thể dùng việc người nhật cầm đầu ra để bào chữa.không chỉ ở nhật,ở đài loan,hàn quốc,thái lan,cũng đều nhìn người việt ta với ánh mắt như thế.cái quan trọng là người việt ta phải thay đổi,thật sự thay đổi để tốt lên,dù sống ở nước nao đi chăng nữa.","can_remove":false,"created_time":"2014-04-02T16:05:02+0000","like_count":1,"user_likes":false},"844200805596598":{"id":"844200805596598","from":{"id":"100006710072380","name":"Trọng Hiếu Phạm"},"message":"to Cu Min: đổ lỗi cho người khác không giúp mình tốt hơn...","can_remove":false,"created_time":"2014-04-02T16:23:59+0000","like_count":1,"user_likes":false},"844203702262975":{"id":"844203702262975","from":{"id":"100007989731081","name":"Hoàng Đạo"},"message":"minh la ng viet nam minh fai giu long tu trong.tu ton cua dan toc chu.vi loi ich cua ban than ma hon 100trieu ng fai mang kai tieng xau thi that la xau ho va nhuc nha","can_remove":false,"created_time":"2014-04-02T16:29:39+0000","like_count":0,"user_likes":false},"844244315592247":{"id":"844244315592247","from":{"id":"100003125931765","name":"No Reason"},"message":"thank ban dong vien , maj bay roi ma thay chan wa","can_remove":false,"created_time":"2014-04-02T18:07:45+0000","like_count":0,"user_likes":false},"844257195590959":{"id":"844257195590959","from":{"id":"100004318625255","name":"Toàn Mạnh"},"message":"Phải xác định từ Tổ Quốc .. Học thật Tốt .. Minna San Ganbatte kudasai .!!!","can_remove":false,"created_time":"2014-04-02T18:45:26+0000","like_count":0,"user_likes":false},"844326008917411":{"id":"844326008917411","from":{"id":"100000381942173","name":"Vì Nghèo Mà Ra"},"message":"Hay","can_remove":false,"created_time":"2014-04-02T21:50:37+0000","like_count":0,"user_likes":false},"844344988915513":{"id":"844344988915513","from":{"id":"100004360652181","name":"Hùng Đỗ Danh"},"message":"Noi nhu hat. Can them chut suy nghi.......???????","can_remove":false,"created_time":"2014-04-02T22:49:56+0000","like_count":1,"user_likes":false},"844361605580518":{"id":"844361605580518","from":{"id":"100001458099624","name":"Kham Pha"},"message":"các bạn đóng góp ý kiến gì thì nhớ viết tiếng Việt có dấu nhé :)","can_remove":false,"created_time":"2014-04-02T23:35:31+0000","like_count":1,"user_likes":false},"844408285575850":{"id":"844408285575850","from":{"id":"100000293655870","name":"Tiên Tien"},"message":"em thấy cái này hay, em cũng hy vọng hình ảnh của Việt Nam được thay đổi trong mắt cộng đồng quốc tế. muốn thay đổi thì bắt đầu từ mỗi bạn trẻ bây giờ, vì Ba mẹ và các thời đại trước nữa dù biết nhiều hành vi là sai, là không đúng là cổ hủ, nhưng vì đã theo cái nếp sống đó, còn suy nghĩ và ý thức thì do ít được ăn học vì nghèo vì đói, không biết hay đã biết rồi nhưng thói quen khó sửa, nên hy vọng nếu thấy những hình ảnh không đẹp ở Ba Mẹ hay những người lớn tuổi thì thông cảm và chỉ ra chỗ sai, giúp họ sửa từ từ. còn các bạn trẻ được đến trường được học để hiểu biết thì nên thay đổi, làm gì cũng nghĩ cho cộng đồng đầu tiên thì sẽ có hình ảnh và cách nghĩ đẹp hơn nhiều. biết là khó nhưng hy vọng mình và thế hệ bây giờ làm được điều đó, làm luôn cả phần của những người làm chưa tốt","can_remove":false,"created_time":"2014-04-03T02:10:29+0000","like_count":1,"user_likes":false},"844410768908935":{"id":"844410768908935","from":{"id":"100001372256745","name":"Tran Quan"},"message":"vang !","can_remove":false,"created_time":"2014-04-03T02:18:37+0000","like_count":0,"user_likes":false},"844515072231838":{"id":"844515072231838","from":{"id":"100000075052330","name":"Quelam Huynh"},"message":"Mình chỉ buồn , vì sao những nguoi  ăn cấp vặt đó không thử suy nghỉ nếu mình là người bị mất cấp thì sẽ nghỉ sao về người đã ăn cắp đồ của Mình ta?","can_remove":false,"created_time":"2014-04-03T08:17:12+0000","like_count":1,"user_likes":false},"844537058896306":{"id":"844537058896306","from":{"id":"100006130145073","name":"Viet Ma Thanh"},"message":"Ban Quelam Huynh noi it nhung nguoi ta hieu nhieu. Hay do! Cho \"like\" 1 cai nha. Neu ve VN lan nay se den cafe ton duc thang hay cafe kim gi do uong cafe chung..","can_remove":false,"created_time":"2014-04-03T09:33:29+0000","like_count":0,"user_likes":false},"844662265550452":{"id":"844662265550452","from":{"id":"100001458099624","name":"Kham Pha"},"message":"các bạn chú ý viết tiếng Việt có dấu :)","can_remove":false,"created_time":"2014-04-03T14:28:23+0000","like_count":1,"user_likes":false},"844694645547214":{"id":"844694645547214","from":{"id":"100003466471603","name":"Kim Long"},"message":"viết không dấu thì tốt nhất đừng viết có ai thèm đọc đâu.","can_remove":false,"created_time":"2014-04-03T15:22:32+0000","like_count":0,"user_likes":false}},"paging":{"cursors":{"after":"ODQ0MDQ4NTI1NjExODI2","before":"ODQ0MDQ4NTI1NjExODI2"},"next":"https://graph.facebook.com/229244010425617_844047305611948/comments?limit=1&summary=1&after=ODQ0MDQ4NTI1NjExODI2"},"summary":{"order":"chronological","total_count":39}}}