{"id":"229244010425617_844151398934872","type":"status","from":{"id":"100007614518128","name":"Kuriya Tohru"},"message":"Cho em hỏi là mấy câu chào như Konnichiwa, konbanwa đồng nghĩa như hello vậy mình dùng buổi nào cũng đc ạ (em hơi thắc mắc tí :p)","created_time":"2014-04-02T14:27:03+0000","updated_time":"2014-04-03T03:25:28+0000","likes":{"data":{"100002975299796":{"id":"100002975299796","name":"Trinh Tuan Anh"},"100003466287943":{"id":"100003466287943","name":"Kim Chi Saki Loyal"},"1394148660":{"id":"1394148660","name":"Cừu Non"},"100003275658608":{"id":"100003275658608","name":"Đỗ Hữu Phúc"},"100006722864042":{"id":"100006722864042","name":"Họ Bá Tên Đạo"},"100004635941383":{"id":"100004635941383","name":"Phương Anh Nguyễn"},"100003465567929":{"id":"100003465567929","name":"Lê Chi"}},"paging":{"cursors":{"after":"MTAwMDAyOTc1Mjk5Nzk2","before":"MTAwMDAyOTc1Mjk5Nzk2"},"next":"https://graph.facebook.com/229244010425617_844151398934872/likes?limit=1&summary=1&after=MTAwMDAyOTc1Mjk5Nzk2"},"summary":{"total_count":7}},"comments":{"data":{"844153278934684":{"id":"844153278934684","from":{"id":"100006722864042","name":"Họ Bá Tên Đạo"},"message":"Cô em bảo konichiwa chỉ chào cho buổi trưa là từ 10h==> 17h còn kobanwa là ùng buổi tối lời chào  như Konnichiwa, konbanwa đc chia thời gian cụ thể hơn là  heloo :D","can_remove":false,"created_time":"2014-04-02T14:32:22+0000","like_count":2,"user_likes":false},"844154162267929":{"id":"844154162267929","from":{"id":"100002817600730","name":"Minh Anh Vg"},"message":"Lần đầu tiên gặp 1 ng nào đó trong ngày cũng chào bằng おはよう thì phải. Đi làm toàn đc chào thế dù là buổi tối","can_remove":false,"created_time":"2014-04-02T14:34:47+0000","like_count":4,"user_likes":false},"844154168934595":{"id":"844154168934595","from":{"id":"100007614518128","name":"Kuriya Tohru"},"message":"À mình hiểu r, cám ơn bạn nhé :3","can_remove":false,"created_time":"2014-04-02T14:34:47+0000","like_count":0,"user_likes":false},"844155182267827":{"id":"844155182267827","from":{"id":"100002963737004","name":"Hà Phùng"},"message":"おはようthì lúc nào cũng dc..nôm na là chào -_- ..còn konichiwa là chào buổi trưa, konbanwa là chào buổi tối","can_remove":false,"created_time":"2014-04-02T14:37:19+0000","like_count":1,"user_likes":false},"844159078934104":{"id":"844159078934104","from":{"id":"100003321786144","name":"Baloon Bambootatoo"},"message":"こんにちは =hello bạn ạ. dùng cho buổi nào cũng được\nおはようございます là buổi sáng tốt lành. khi bạn đi làm đêm hoặc tối ng ta cũng chào ntn vì họ nói rằng muốn tạo cảm giác hứng khởi làm việc giống như buổi sáng","can_remove":false,"created_time":"2014-04-02T14:47:44+0000","like_count":4,"user_likes":false},"844162328933779":{"id":"844162328933779","from":{"id":"100007797156820","name":"Sói Già"},"message":"thế còn chào lần đâu tiên gặp mặt đâu","can_remove":false,"created_time":"2014-04-02T14:56:28+0000","like_count":0,"user_likes":false},"844163745600304":{"id":"844163745600304","from":{"id":"100005166820615","name":"Mưa"},"message":"chào lần đầu : はじめまして、buổi sáng : おはようございます, chào buổi trưa :   こんにちは , buổi tối: こんばんは. Tùy theo thời gian rồi chào theo các thời gian đó","can_remove":false,"created_time":"2014-04-02T14:59:49+0000","like_count":5,"user_likes":false},"844164282266917":{"id":"844164282266917","from":{"id":"100007797156820","name":"Sói Già"},"message":"chuẩn rùi nói như Mưa mới đúng","can_remove":false,"created_time":"2014-04-02T15:00:45+0000","like_count":1,"user_likes":false},"844339718916040":{"id":"844339718916040","from":{"id":"100002124532666","name":"Nguyễn Thành Du"},"message":"Các bạn trên nói cũng đúng mà, đi học chiều mà cô giáo vẫn おはよう","can_remove":false,"created_time":"2014-04-02T22:30:51+0000","like_count":0,"user_likes":false},"844345382248807":{"id":"844345382248807","from":{"id":"100000628549116","name":"Hoàng Chính"},"message":"ばか","can_remove":false,"created_time":"2014-04-02T22:51:31+0000","like_count":0,"user_likes":false},"844435258906486":{"id":"844435258906486","from":{"id":"100007797156820","name":"Sói Già"},"message":"Hoàng Chính  なぜ","message_tags":[{"id":"100000628549116","name":"Hoàng Chính","type":"user","offset":0,"length":11}],"can_remove":false,"created_time":"2014-04-03T03:25:28+0000","like_count":0,"user_likes":false}},"paging":{"cursors":{"after":"ODQ0MTUzMjc4OTM0Njg0","before":"ODQ0MTUzMjc4OTM0Njg0"},"next":"https://graph.facebook.com/229244010425617_844151398934872/comments?limit=1&summary=1&after=ODQ0MTUzMjc4OTM0Njg0"},"summary":{"order":"chronological","total_count":11}}}