{"id":"229244010425617_844176205599058","type":"status","from":{"id":"100000331957035","name":"Duong Thanh Huyen"},"message":"nhờ ad cho mình hỏi.mn đang sống và lv tại nhật đã đi theo cty nào  uy tín cho mình xin tên cty và địa chỉ đc ko.mình hc rất khó khăn nên muốn đi xklđ để có tiền nuôi hai con ăn học.(mình sn 84,ck mình mới mất nên mình phải kiếm tiền nuôi hai con ăn học).mong mn giúp đỡ đừng gạt mình mà tội nghiệp.chân thành cám ơn mn","created_time":"2014-04-02T15:27:43+0000","updated_time":"2014-04-03T22:04:22+0000","likes":{"data":{"100003978931285":{"id":"100003978931285","name":"Tuấn Nguyễn"},"100008088271559":{"id":"100008088271559","name":"Kaori Yuriko"},"100006712992259":{"id":"100006712992259","name":"Thảo Lê"},"100002769293948":{"id":"100002769293948","name":"Nguyễn Bá Khánh"},"1227859163":{"id":"1227859163","name":"Pham Hung Thinh"},"100007806284139":{"id":"100007806284139","name":"Đặng Yên"},"100006282365367":{"id":"100006282365367","name":"Tiến Huy Nguyễn"},"100008018466784":{"id":"100008018466784","name":"Thoan Nguyen Vu"},"100004136340523":{"id":"100004136340523","name":"Mỹ Thuận Nguyễn"},"100004975712968":{"id":"100004975712968","name":"Cương Nguyễn"},"100006581439969":{"id":"100006581439969","name":"Tài Thiếu Gia"},"100000418310746":{"id":"100000418310746","name":"Nhoc Be Bu"},"100003256003869":{"id":"100003256003869","name":"Bướng Bỉnh"},"100000158857919":{"id":"100000158857919","name":"Thanh Mai"},"100006846840777":{"id":"100006846840777","name":"Đi Tìm Tương Lai"},"100003740342167":{"id":"100003740342167","name":"Có Gì Hót"},"100007238765021":{"id":"100007238765021","name":"Vy Nhí Nhảnh"},"100007930417031":{"id":"100007930417031","name":"Trang Yamato"},"100001958220978":{"id":"100001958220978","name":"Trung Hiếu Bắp"},"100006389413007":{"id":"100006389413007","name":"Việt Vui Vẻ"},"100002716525116":{"id":"100002716525116","name":"Nguyễn Tất Nguyên"},"100006432879903":{"id":"100006432879903","name":"Nguyễn Ngọc Toàn"},"100006453621378":{"id":"100006453621378","name":"Quynh Le"},"100002717800272":{"id":"100002717800272","name":"Hải Ngô"},"100003882452475":{"id":"100003882452475","name":"Duc Tran Anh"},"100002469422165":{"id":"100002469422165","name":"Duc Nguyen"},"100007063239470":{"id":"100007063239470","name":"Yuu Sakuragi"},"100001432462223":{"id":"100001432462223","name":"Truong Nguyen"},"100007642115476":{"id":"100007642115476","name":"Kim Oanh Nguyen Thi"},"100007988441472":{"id":"100007988441472","name":"Sống Mòn"},"100007449186315":{"id":"100007449186315","name":"Cấn Thanh Tùng"},"100000138544685":{"id":"100000138544685","name":"Nguyen Trong Nam"},"100004043337771":{"id":"100004043337771","name":"Cà Pháo"},"1803369905":{"id":"1803369905","name":"Quăm Đít Nhôm"},"100002450017516":{"id":"100002450017516","name":"Dương Trường"}},"paging":{"cursors":{"after":"MTAwMDAzOTc4OTMxMjg1","before":"MTAwMDAzOTc4OTMxMjg1"},"next":"https://graph.facebook.com/229244010425617_844176205599058/likes?limit=1&summary=1&after=MTAwMDAzOTc4OTMxMjg1"},"summary":{"total_count":35}},"comments":{"data":{"844180408931971":{"id":"844180408931971","from":{"id":"100000138544685","name":"Nguyen Trong Nam"},"message":"chị có thể đi theo công ty jvnet nhé. rất uy tín.chị có thể gọi điện hoặc lên mạng tìm hiểu về cty này nhé","can_remove":false,"created_time":"2014-04-02T15:37:46+0000","like_count":0,"user_likes":false},"844180682265277":{"id":"844180682265277","from":{"id":"100000331957035","name":"Duong Thanh Huyen"},"message":"cty tms này thấy mn nói phí cao lắm","can_remove":false,"created_time":"2014-04-02T15:38:34+0000","like_count":0,"user_likes":false},"844181198931892":{"id":"844181198931892","from":{"id":"100000331957035","name":"Duong Thanh Huyen"},"message":"mih lo lắm có ít dành dụm nếu bị lừa thì các con mình sẽ oán giận mẹ nó lắm","can_remove":false,"created_time":"2014-04-02T15:39:58+0000","like_count":0,"user_likes":false},"844181432265202":{"id":"844181432265202","from":{"id":"100000331957035","name":"Duong Thanh Huyen"},"message":"mn đã đi rùi comment nhé","can_remove":false,"created_time":"2014-04-02T15:40:44+0000","like_count":0,"user_likes":false},"844189198931092":{"id":"844189198931092","from":{"id":"100000331957035","name":"Duong Thanh Huyen"},"message":"m ko có tk sky","can_remove":false,"created_time":"2014-04-02T15:59:38+0000","like_count":0,"user_likes":false},"844189905597688":{"id":"844189905597688","from":{"id":"100003821557908","name":"Ku Tèo"},"message":"+84 90 4918190 số dt đấy","can_remove":false,"created_time":"2014-04-02T16:01:48+0000","like_count":0,"user_likes":false},"844189958931016":{"id":"844189958931016","from":{"id":"100003821557908","name":"Ku Tèo"},"message":"uy tín chất lượng","can_remove":false,"created_time":"2014-04-02T16:02:00+0000","like_count":0,"user_likes":false},"844190092264336":{"id":"844190092264336","from":{"id":"100000331957035","name":"Duong Thanh Huyen"},"message":"vậy hỏi lại e gái bạn hộ tớ Emnho Anhvocung.cũng ở bắc ninh hả ạn","message_tags":[{"id":"100007972864980","name":"Emnho Anhvocung","type":"user","offset":28,"length":15}],"can_remove":false,"created_time":"2014-04-02T16:02:25+0000","like_count":1,"user_likes":false},"844190425597636":{"id":"844190425597636","from":{"id":"100000331957035","name":"Duong Thanh Huyen"},"message":"cám ơn Ku Tèo nha","message_tags":[{"id":"100003821557908","name":"Ku Tèo","type":"user","offset":7,"length":6}],"can_remove":false,"created_time":"2014-04-02T16:03:19+0000","like_count":0,"user_likes":false},"844190642264281":{"id":"844190642264281","from":{"id":"100000331957035","name":"Duong Thanh Huyen"},"message":"tên thầy e là gì nhỉ ku teo","can_remove":false,"created_time":"2014-04-02T16:04:03+0000","like_count":0,"user_likes":false},"844190682264277":{"id":"844190682264277","from":{"id":"100003821557908","name":"Ku Tèo"},"message":"vag k co gi chị cứ ll thử xem bảo là bạn của e e tên hưng","can_remove":false,"created_time":"2014-04-02T16:04:13+0000","like_count":0,"user_likes":false},"844190745597604":{"id":"844190745597604","from":{"id":"100003821557908","name":"Ku Tèo"},"message":"Toàn","can_remove":false,"created_time":"2014-04-02T16:04:21+0000","like_count":1,"user_likes":false},"844190945597584":{"id":"844190945597584","from":{"id":"100003821557908","name":"Ku Tèo"},"message":"chib tên gi","can_remove":false,"created_time":"2014-04-02T16:05:00+0000","like_count":0,"user_likes":false},"844191048930907":{"id":"844191048930907","from":{"id":"100000331957035","name":"Duong Thanh Huyen"},"message":"m là Huyền","can_remove":false,"created_time":"2014-04-02T16:05:20+0000","like_count":0,"user_likes":false},"844191428930869":{"id":"844191428930869","from":{"id":"100003821557908","name":"Ku Tèo"},"message":"ok chị cứ gọi ma nc chị ak","can_remove":false,"created_time":"2014-04-02T16:06:21+0000","like_count":0,"user_likes":false},"844191768930835":{"id":"844191768930835","from":{"id":"100000331957035","name":"Duong Thanh Huyen"},"message":"uh,cám ơn e lần nữa nha","can_remove":false,"created_time":"2014-04-02T16:07:09+0000","like_count":0,"user_likes":false},"844191895597489":{"id":"844191895597489","from":{"id":"100006337933726","name":"Lê Nam"},"message":"chuyển visa du hoc sang lao dong co kho lam ko b? chi phii ra sao hả bạn?","can_remove":false,"created_time":"2014-04-02T16:07:31+0000","like_count":0,"user_likes":false},"844192052264140":{"id":"844192052264140","from":{"id":"100003821557908","name":"Ku Tèo"},"message":"vag k có gì","can_remove":false,"created_time":"2014-04-02T16:07:51+0000","like_count":0,"user_likes":false},"844192128930799":{"id":"844192128930799","from":{"id":"100003821557908","name":"Ku Tèo"},"message":"dễ mà","can_remove":false,"created_time":"2014-04-02T16:08:01+0000","like_count":0,"user_likes":false},"844192342264111":{"id":"844192342264111","from":{"id":"100003821557908","name":"Ku Tèo"},"message":"minh hc xog senmon cug chuyển sang visa lao đông","can_remove":false,"created_time":"2014-04-02T16:08:26+0000","like_count":1,"user_likes":false},"844196495597029":{"id":"844196495597029","from":{"id":"100006337933726","name":"Lê Nam"},"message":"thế à! cái khó của mình là minh có bang đh o vn rui, chỉ tinh sag nhat hoc truong tieng rui xin visa lao dong , minh chua biet co dc ko day","can_remove":false,"created_time":"2014-04-02T16:16:12+0000","like_count":1,"user_likes":false},"844197492263596":{"id":"844197492263596","from":{"id":"100006453621378","name":"Quynh Le"},"message":"có băng dh càng dễ b a ma b da di hk tiếng chưa m chỉ bit một cty chuyên du học nhật bản thôi với may nước nữa na","can_remove":false,"created_time":"2014-04-02T16:18:32+0000","like_count":0,"user_likes":false},"844198195596859":{"id":"844198195596859","from":{"id":"100006453621378","name":"Quynh Le"},"message":"du học ay cái của  c e cũng k bit","can_remove":false,"created_time":"2014-04-02T16:19:46+0000","like_count":0,"user_likes":false},"844204035596275":{"id":"844204035596275","from":{"id":"100006337933726","name":"Lê Nam"},"message":"công ty nào thế bạn quỳnh lê","can_remove":false,"created_time":"2014-04-02T16:30:37+0000","like_count":0,"user_likes":false},"844207258929286":{"id":"844207258929286","from":{"id":"100006337933726","name":"Lê Nam"},"message":"ok! cám on bạn! ko biet cs cua dhs ben nhat ntn nhỉ?","can_remove":false,"created_time":"2014-04-02T16:37:18+0000","like_count":1,"user_likes":false},"844210188928993":{"id":"844210188928993","from":{"id":"100007449186315","name":"Cấn Thanh Tùng"},"message":"Doitashimashite.","can_remove":false,"created_time":"2014-04-02T16:40:36+0000","like_count":0,"user_likes":false},"844237895592889":{"id":"844237895592889","from":{"id":"100005559850110","name":"Leo Vl Codonvc"},"message":"tớ thấy đi qua cty Ico.vn đảm bảo an toàn các ban nhé có j các bạn cứ vào web của cty xem ý ICO.VN mà xem với tìm hiểu nhé !!","can_remove":false,"created_time":"2014-04-02T17:49:24+0000","like_count":0,"user_likes":false},"844238645592814":{"id":"844238645592814","from":{"id":"100005559850110","name":"Leo Vl Codonvc"},"message":"icovietnam.com.vn  nhé","can_remove":false,"created_time":"2014-04-02T17:50:55+0000","like_count":0,"user_likes":false},"844250338924978":{"id":"844250338924978","from":{"id":"100002757844270","name":"Gió Lạnh Đầu Mùa"},"message":"để mai mình hỏi bạn mình cho. bạn mình cũng đi sang đó nhiều. có một công ty đang tuyển lao động may sang đó lương 20 hay 30tr/ tháng ấy. có gì inbox cho mình nhé","can_remove":false,"created_time":"2014-04-02T18:25:14+0000","like_count":0,"user_likes":false},"844332962250049":{"id":"844332962250049","from":{"id":"100002709768482","name":"Vuong Dung Tms"},"message":"www.tmshr.com","can_remove":false,"created_time":"2014-04-02T22:09:43+0000","like_count":1,"user_likes":false},"844389968911015":{"id":"844389968911015","from":{"id":"569263718","name":"Phuong Thao Tran"},"message":"những cmt tiếng Việt không dấu, tiếng Việt kiểu teen đã bị xóa. Nhắc nhở các bạn không lặp lại và chú ý giúp!","can_remove":false,"created_time":"2014-04-03T01:18:30+0000","like_count":1,"user_likes":false},"844409492242396":{"id":"844409492242396","from":{"id":"100006453621378","name":"Quynh Le"},"message":"o gân ho tay ay","can_remove":false,"created_time":"2014-04-03T02:14:47+0000","like_count":0,"user_likes":false},"844418322241513":{"id":"844418322241513","from":{"id":"100008018466784","name":"Thoan Nguyen Vu"},"message":"ban o dau vay?","can_remove":false,"created_time":"2014-04-03T02:36:48+0000","like_count":0,"user_likes":false},"844588062224539":{"id":"844588062224539","from":{"id":"100002846500935","name":"Hanh Lu"},"message":"di cong ty hiteco trong tphcm","can_remove":false,"created_time":"2014-04-03T12:08:36+0000","like_count":0,"user_likes":false},"844672675549411":{"id":"844672675549411","from":{"id":"100002769293948","name":"Nguyễn Bá Khánh"},"message":"Mong chị gặp nhiều may mắn","can_remove":false,"created_time":"2014-04-03T14:43:53+0000","like_count":0,"user_likes":false},"844870548862957":{"id":"844870548862957","from":{"id":"100002709768482","name":"Vuong Dung Tms"},"message":"www.tmshr.com.vn","can_remove":false,"created_time":"2014-04-03T22:04:22+0000","like_count":0,"user_likes":false}},"paging":{"cursors":{"after":"ODQ0MTgwNDA4OTMxOTcx","before":"ODQ0MTgwNDA4OTMxOTcx"},"next":"https://graph.facebook.com/229244010425617_844176205599058/comments?limit=1&summary=1&after=ODQ0MTgwNDA4OTMxOTcx"},"summary":{"order":"chronological","total_count":37}}}