{"id":"229244010425617_844574095559269","type":"photo","object_id":"770487012962801","picture":"https://fbcdn-photos-f-a.akamaihd.net/hphotos-ak-frc3/t1.0-0/1544617_770487012962801_1206293341_s.jpg","link":"https://www.facebook.com/photo.php?fbid=770487012962801&set=gm.844574095559269&type=1&relevant_count=1","from":{"id":"100000045271667","name":"Nam Thai Nguyen"},"message":"【TƯ DUY TRANH LUẬN TIẾN BỘ】\n\nVới sự phát triển của mạng xã hội như Facebook  thì con người đang ngày càng kết nối với nhau nhiều hơn, như vậy sẽ tranh luận nhiều hơn, tạo ra nhiều dư luận xã hội hơn. Không ít những cuộc chiến tranh luận nổ ra trên mạng về đủ mọi vấn đề, chúng ta tham gia vào nó, và bị nó chi phối quan điểm. Nếu không có một cái nhìn tỉnh táo và tư duy logic thì rất dễ bị dắt mũi theo định hướng của các nhà truyền thông và dư luận xã hội. \n\nVấn đề tranh luận tính đúng sai của một topic có rất nhiều ý kiến trái chiều. Trong tranh luận, cái TÔI cá nhân thường đề cao nên thật khó ta bị khuất phục khi gán lỗi, nhưng mấy ai nhận ra khi \"thua\" thì chính là lúc người ta đã thắng, bởi đó là lúc họ chạm được một trường nhìn khác, để khai mở thêm khả năng tư duy của chính mình. \n\nAi cũng muốn nghe phê bình, chỉ có điều người phê bình không phải là mình. \n\nNgười Nhật cũng giống Việt Nam, \"thể diện\" là một gì rất quan trọng, và do đó, \"những gì mình không muốn thì đừng làm cho người khác\", họ cũng giữ thể diện cho phía bên kia.\n\nKhi tranh luận, người ta không thể tranh luận với một cảm xúc, mà chỉ có thể phân tích những quan điểm, những luận chứng và dẫn chứng của nhau. Do đó, khi nào cảm xúc bùng nổ, đó là lúc tranh luận biến mất, chỉ còn lại sự phỉ báng lẫn nhau\n\nHãy cùng đọc và thấu hiểu để thể hiện mình có năng lực Văn hóa tranh luận \n\n--------------------------------------------------------------------------------\nTăng duy lí\n\nCốt tử của văn hóa dân chủ, trước tiên, là tinh thần duy lý trong tư duy và đối thoại. Một tư tưởng dẫu là xấu xa nhất, được trình bày bằng một phương pháp lập luận tồi tệ nhất, vẫn cần phải được bẻ gãy bằng tư tưởng đúng đắn, bằng cách tư duy hợp với logic hình thức và logic thực tiễn, không nên bị tấn công bằng bất kỳ điều gì khác.\n\nMặt khác, văn hóa dân chủ đòi hỏi mỗi con người ý thức được tính tương đối của mỗi cách nhìn thế giới. Mỗi một cách nhìn thế giới đều tương tự một cái ống nhòm, một mặt, tạo ra một \"trường nhìn\" giúp cho người tư duy có thể nhìn thấy rất kỹ một góc nhìn mà ống nhòm cho phép thấy, và mặt khác, tạo ra một \"trường mù\", khiến người ta bị che khuất trước phần còn lại của thế giới. Để đi đến chân lý, do đó, cần tối đa hóa các trường nhìn mà mình có thể lĩnh hội được.\n\nVì vậy, người ta không chỉ cần đến sự phản biện như một phương thức tiếp thu trường nhìn của kẻ khác, mà còn cần phải tự mình đối thoại với trường nhìn cố hữu của chính mình. Khả năng tư duy của mỗi con người, như vậy có nghĩa là, tùy thuộc vào khả năng mở rộng các trường nhìn. Trường nhìn càng phong phú, năng lực thức nhận thế giới càng mở rộng. Ngược lại, giam hãm mình một trường nhìn duy nhất là bản chất của tính ì tư duy.\n\nDo đó, trong tranh luận, khi \"thua\" thì chính là lúc người ta đã thắng, bởi đó là lúc họ chạm được một trường nhìn khác, để khai mở thêm khả năng tư duy của chính mình.\n\nNguyên tắc duy lý thì chỉ có một, nhưng văn hóa tranh luận thì có thể khác nhau tùy từng vùng văn hóa. Phương Tây tổ chức cuộc tranh luận như một võ đài của lý trí. Trong cuộc tỷ thí, knock out là chuyện bình thường. Bình thường cả với người thắng lẫn người thua. Ở Nhật Bản, văn hóa tranh luận của họ vừa tiếp thu tinh thần duy lý phương Tây, vừa kết hợp với chữ Lễ truyền thống. Trong tranh luận, sẽ không có hạ knock out như Phương Tây.\n\nNgười Nhật cũng giống Việt Nam, \"thể diện\" là một gì rất quan trọng, và do đó, \"những gì mình không muốn thì đừng làm cho người khác\", họ cũng giữ thể diện cho phía bên kia.\n\nVăn hóa tranh luận này của Nhật vốn mới chỉ hình thành gần đây, từ thời Minh Trị, khi xã hội công dân sơ khai hình thành, mở đầu với phong cách tranh luận trong Nhóm Meirokusha. Cuối thế kỷ XIX, trong bối cảnh một chế độ phong kiến sắp biến thành phát xít, Hội Meirokusha vẫn có thể có những cuộc tranh luận vừa nóng bỏng trong lập luận vừa lịch thiệp trong xưng hô.\n\nHọ đem đến một văn hóa tranh luận mới trong lịch sử văn hóa Nhật Bản, đưa kẻ làm quan và người trí thức của dân tộc này, từ chỗ chỉ biết dùng khái niệm \"tà thuyết\" để gán cho những tư duy khác mình, đến chỗ đủ tầm cao văn hóa để vừa giữ vững chữ Lễ của phương Đông vừa thấm nhuần tính logic và minh bạch của phương Tây duy lý khi tranh biện.\n\nVới tinh thần khai sáng của triết học cổ điển Đức, họ biết tôn trọng tự do tư duy của chính mình và của người khác, can đảm trong suy nghĩ, trong phán xét và lựa chọn, lĩnh hội niềm tin bằng lý trí, với ý chí tự do trước quyền lực, tôn giáo, tập quán hay những loại áp lực tương tự.\n\nNhững kẻ thù của lý tính\n\nKẻ thù lớn nhất của tinh thần duy lý là sự duy cảm, thiên kiến và \"ngã chấp\".\n\nChúng ta thường tự hào rằng người Việt vốn duy cảm. Nhưng duy cảm không phải là một trình độ sống đáng tự hào.\n\nVốn rời lũy tre làng duy cảm chưa lâu, người Việt Nam chúng ta nếu bị hạ knock out trong một cuộc tranh luận, có lẽ đến hết đời vẫn khó có thể quên, chứ chưa nói đến việc có thể hợp tác với kẻ đã dạy mình một bài học. Khi đối diện với tinh thần hạ knock out của văn hóa tranh luận kiểu Phương Tây, người Việt Nam thường cảm thấy họ \"thô bạo\" hoặc \"thiếu tinh thần xây dựng\". Trong thời đại toàn cầu hóa, chúng ta phải hiểu để quen với văn hóa của họ.\n\nMặt khác, tôn trọng chữ \"Tình\", nhưng khi tranh luận, người Việt dễ dàng bị chìm vào những cãi vã và mạt sát, theo kiểu mà dân gian thường nói là \"Lời nói đọi máu\" .\n\nKhi tranh luận, người ta không thể tranh luận với một cảm xúc, mà chỉ có thể phân tích những quan điểm, những luận chứng và dẫn chứng của nhau. Do đó, khi nào cảm xúc bùng nổ, đó là lúc tranh luận biến mất, chỉ còn lại sự phỉ báng lẫn nhau.\n\nSự duy cảm sẽ làm cho những thiên kiến trở nên vững chắc. Thiên kiến là cái người ta tin bất chấp thực tế, bất chấp bằng chứng, bất chấp lý tính. Do đó, không ai có thể tranh luận được với những thiên kiến. Thiên kiến là cái không ai có thể giúp chúng ta gỡ bỏ được, trừ chính bản thân chúng ta.\n\nVà nền tảng sâu xa nhất của thiên kiến là \"ngã chấp\". Ta từ đâu? Ta là ai? Ta về đâu? Là những câu hỏi có tính bản thể luận mà nếu lãng quên, con người sẽ trượt ra khỏi con đường của lý tính.\n\nỞ Châu Âu cận đại, những người quý tộc phong kiến hầu như không thể chấp nhận thời đại mới, bởi họ đồng nhất mình với hệ hình phong kiến. Họ cảm thấy mình chỉ có thể tồn tại trong hệ hình đó. Để thúc đẩy lịch sử tiến lên, những người tư sản không còn cách nào khác phải thực hiện cách mạng. Trong bối cảnh này, chỉ có thể có chiến tranh chứ không thể có \"đối thoại\" hay \"tranh luận\".\n\nNhật Bản thời Minh trị duy tân cung cấp những bài học lớn về quan hệ giữa \"ngã chấp\" và văn hóa dân chủ. Được thấm đẫm tinh thần \"phá chấp\" của Phật giáo, những đại lãnh chúa, tức là những con người nòng cốt duy trì chế độ phong kiến cũ, nhận thức được rằng mình sinh ra từ \"Không\" và sẽ trở về \"Không\". Do đó, họ không đồng nhất mình với bất kỳ một hệ hình nào. Đối với họ, dẫu là \"địa chủ\" hay \"tư sản\" thì đều không quan trọng. Đó chỉ là cái \"giả tướng\" (hình thức bề ngoài) của \"cõi tạm trần gian\".\n\nNhờ thế, tầng lớp thượng lưu Nhật nhanh chóng phủ định chính cái vỏ bề ngoài của mình, dẫn dắt dân tộc đi vào cuộc canh tân thần kỳ. Họ không chỉ tiến hóa để thích ứng với bối cảnh mới, mà còn tạo ra chính bối cảnh mới ấy, thúc đẩy toàn xã hội tiến hóa theo.\n\nTruyền thống dân chủ của nước ta\n\nNền chính trị nước ta vốn có nền văn hóa dân chủ cao hơn Trung Quốc. Đó là một nét chủ đạo của kỷ nguyên Đại Việt, khi mà ngay cả một Hoàng đế mà rồi đây sẽ được nhân dân tôn sùng như là hiện thân của Phật cũng khiêm cung lắng nghe các cụ bô lão toàn quốc trước khi ra quyết định.\n\nVà, trong lịch sử hiện đại, những người đầu tiên đấu tranh để khai sáng cho Dân tộc về tự do tư duy chính là những người Cộng sản, khởi đầu từ Nguyễn Ái Quốc, tiếp nối bởi các nhà lãnh đạo trẻ của Đảng ở những năm 30 của thế kỷ trước.\n\nĐáng tiếc, chiến tranh đã khiến cho tranh luận không thể phát triển thành một nét văn hóa chủ đạo của đất nước. Vì chiến tranh, ta không thể đem kế hoạch tấn công Điện Biên, hay Chiến dịch Hồ Chí Minh ra trình Quốc hội, rồi mời toàn dân... tranh luận sôi nổi.\n\nNhưng, bước vào hòa bình, nhất là hòa bình trong thời đại toàn cầu hóa, mà cứ chạy theo quán tính, không khôi phục lại văn hóa tranh luận, thì nói như \"Tiến hóa luận\" của Chales Darwin, cũng giống như một loài trên cạn đã tiến vào môi trường nước nhưng vẫn... thở bằng phổi, hoặc tung mình lên trời xanh bằng... tứ chi.\n\nĐể đến được những bến bờ xa nhất, chúng ta phải tiến hóa thành loài có mang; để bay đến những chân trời rộng nhất, chúng ta phải tiến hóa thành loài có cánh.\n\nTranh luận là một năng lực văn hóa. Văn hóa là cái không thể hình thành qua việc đọc sách hay nghe tuyên truyền, mà cần được \"vun trồng\" trong thử thách thực tế, cần được rèn luyện để trưởng thành.\nNguồn :http://tuanvietnam.net/2010-08-25-bo-quan-tinh-thoi-chien-trong-ra-quyet-sach","created_time":"2014-04-03T11:29:01+0000","updated_time":"2014-04-03T12:20:11+0000","likes":{"data":{"100000381394367":{"id":"100000381394367","name":"Thành Nguyễn"},"100002856849372":{"id":"100002856849372","name":"Khanh Nguyen Duc"},"1816269439":{"id":"1816269439","name":"Dao Ngoc"},"1709886473":{"id":"1709886473","name":"Vo Anh Khoa"},"100001526631937":{"id":"100001526631937","name":"Tường Oanh Mineko"},"100006803468897":{"id":"100006803468897","name":"Maria Maria"},"100007930417031":{"id":"100007930417031","name":"Trang Yamato"},"100000132627519":{"id":"100000132627519","name":"Trung Quang Dang"},"1146680551":{"id":"1146680551","name":"優しい なぁ"},"1026780646":{"id":"1026780646","name":"Việt Hưng Khổng"},"569263718":{"id":"569263718","name":"Phuong Thao Tran"},"100000500260636":{"id":"100000500260636","name":"Lưu Nguyễn Thảo Tiên"},"100003122298713":{"id":"100003122298713","name":"Đô Rê Môn"}},"paging":{"cursors":{"after":"MTAwMDAwMzgxMzk0MzY3","before":"MTAwMDAwMzgxMzk0MzY3"},"next":"https://graph.facebook.com/229244010425617_844574095559269/likes?limit=1&summary=1&after=MTAwMDAwMzgxMzk0MzY3"},"summary":{"total_count":13}},"comments":{"data":{"844575485559130":{"id":"844575485559130","from":{"id":"569263718","name":"Phuong Thao Tran"},"message":"cho cái subject cho topic nó đẹp trai lên đi nào","can_remove":false,"created_time":"2014-04-03T11:33:13+0000","like_count":2,"user_likes":false},"844576182225727":{"id":"844576182225727","from":{"id":"1026780646","name":"Việt Hưng Khổng"},"message":"May mà mình có võ đọc nhanh :)): \nTóm tắt: tranh luận là văn hoá cần được bồi đắp.\nPhương Tây knock out- Nhật thì từ thời Minh Trị manh nha- nhưng vẫn giữ chữ Lễ; \nQuan trọng nhất là VN ta, duy cảm nhiều quá; chủ yếu là mạt sát nhau chứ ko tranh luận bằng lý lẽ; cần xây dựng và trau dồi thì mới mong góp phần thúc đẩy tiến bộ XH được ^^","can_remove":false,"created_time":"2014-04-03T11:35:11+0000","like_count":9,"user_likes":false},"844582532225092":{"id":"844582532225092","from":{"id":"100000045271667","name":"Nam Thai Nguyen"},"message":"Chuẩn đấy Việt Hưng Khổng http://new.chungta.com/suyngam/tu-lieu-tra-cuu/nguyen_hoa-van_hoa_tranh_luan_la_qua_trinh_lau_dai/default.aspx","message_tags":[{"id":"1026780646","name":"Việt Hưng Khổng","type":"user","offset":10,"length":15}],"can_remove":false,"created_time":"2014-04-03T11:51:00+0000","like_count":1,"user_likes":false},"844593578890654":{"id":"844593578890654","from":{"id":"100006803468897","name":"Maria Maria"},"message":"Chuẩn không cần chỉnh.nhưng vẫn có không ít người chưa làm chủ được cảm xúc.","can_remove":false,"created_time":"2014-04-03T12:20:11+0000","like_count":0,"user_likes":false}},"paging":{"cursors":{"after":"ODQ0NTc1NDg1NTU5MTMw","before":"ODQ0NTc1NDg1NTU5MTMw"},"next":"https://graph.facebook.com/229244010425617_844574095559269/comments?limit=1&summary=1&after=ODQ0NTc1NDg1NTU5MTMw"},"summary":{"order":"chronological","total_count":4}}}