{"id":"229244010425617_844556035561075","type":"status","from":{"id":"1563094349","name":"Nguyen Hoai Vu"},"message":"Mọi người đi đâu nhớ mang giấy tờ nhé.dạo này tokyo siết an ninh. Không biết có vụ gì.","created_time":"2014-04-03T10:34:57+0000","updated_time":"2014-04-03T16:21:34+0000","likes":{"data":{"100007552054035":{"id":"100007552054035","name":"Hưng Koy"},"100003059002710":{"id":"100003059002710","name":"Hạnh Nhân"},"100006716646759":{"id":"100006716646759","name":"Huy Thắng"},"100007446790574":{"id":"100007446790574","name":"Hoàng Công Viên"},"100003913383051":{"id":"100003913383051","name":"Tho Tran"},"569263718":{"id":"569263718","name":"Phuong Thao Tran"},"100001432462223":{"id":"100001432462223","name":"Truong Nguyen"},"100005428813389":{"id":"100005428813389","name":"Bình Nhi"},"100001458099624":{"id":"100001458099624","name":"Kham Pha"},"100005903373573":{"id":"100005903373573","name":"HaLinh Phong Phan"},"100001150325461":{"id":"100001150325461","name":"Trang Ruby"},"100004908941067":{"id":"100004908941067","name":"Cử Cơ"},"100004313589403":{"id":"100004313589403","name":"Phuocthua Lại"},"100004136340523":{"id":"100004136340523","name":"Mỹ Thuận Nguyễn"},"100002959135962":{"id":"100002959135962","name":"Duong Nguyen Van"},"100002707392534":{"id":"100002707392534","name":"Thang Vo"},"100007406707720":{"id":"100007406707720","name":"Nguyễn Hùng"},"100004142251650":{"id":"100004142251650","name":"Đá RúCuồi"},"100002975299796":{"id":"100002975299796","name":"Trinh Tuan Anh"},"100004435213974":{"id":"100004435213974","name":"Mai Huu Sang"},"100003538177986":{"id":"100003538177986","name":"Çåu Çhủ Ñhỏ"},"100005917954526":{"id":"100005917954526","name":"Người Hoa Gốc Việt"},"100007055220627":{"id":"100007055220627","name":"Khoảnh Khắc"},"100000182595918":{"id":"100000182595918","name":"Vũ Huy"},"100007806284139":{"id":"100007806284139","name":"Đặng Yên"},"100003251578428":{"id":"100003251578428","name":"Đoàn Long"},"100001807609603":{"id":"100001807609603","name":"Nguyễn Khánh Huyền"},"100006734168968":{"id":"100006734168968","name":"Tiểu Nhân Mã"},"100003739643123":{"id":"100003739643123","name":"Tú Anh Nguyễn"},"100006668708862":{"id":"100006668708862","name":"Tupy Giang"},"100008071332361":{"id":"100008071332361","name":"Bobo Chan"},"100002769293948":{"id":"100002769293948","name":"Nguyễn Bá Khánh"},"100000045271667":{"id":"100000045271667","name":"Nam Thai Nguyen"},"1816269439":{"id":"1816269439","name":"Dao Ngoc"},"100004465472164":{"id":"100004465472164","name":"Víp Nhất Xóm"},"100003921497941":{"id":"100003921497941","name":"Bỏng Ngô"},"100007449186315":{"id":"100007449186315","name":"Cấn Thanh Tùng"},"1349577898":{"id":"1349577898","name":"Dương Uyên"},"100004075308762":{"id":"100004075308762","name":"Lie Lie"},"100003090738530":{"id":"100003090738530","name":"Ngô Thị Thanh Hường"}},"paging":{"cursors":{"after":"MTAwMDA3NTUyMDU0MDM1","before":"MTAwMDA3NTUyMDU0MDM1"},"next":"https://graph.facebook.com/229244010425617_844556035561075/likes?limit=1&summary=1&after=MTAwMDA3NTUyMDU0MDM1"},"summary":{"total_count":40}},"comments":{"data":{"844556385561040":{"id":"844556385561040","from":{"id":"100001528103377","name":"Kim Long"},"message":"hiroshima có vậy ko anh?","can_remove":false,"created_time":"2014-04-03T10:35:43+0000","like_count":0,"user_likes":false},"844556835560995":{"id":"844556835560995","from":{"id":"1563094349","name":"Nguyen Hoai Vu"},"message":"A ko rõ. Nhưng hôm nào đi làm về cũng thấy cảnh sát đứng đầy.","can_remove":false,"created_time":"2014-04-03T10:37:49+0000","like_count":0,"user_likes":false},"844560092227336":{"id":"844560092227336","from":{"id":"100005450524828","name":"Beo Beo"},"message":"Dã man lun bị h là sợ tới già","can_remove":false,"created_time":"2014-04-03T10:47:11+0000","like_count":0,"user_likes":false},"844560675560611":{"id":"844560675560611","from":{"id":"100005450524828","name":"Beo Beo"},"message":"E quyen mang ví đc xe đưa ruoc giữ tới 3 h sáng nay nó tới trg điều tra đang nghỉ xuân mà bị gọi thốc cổ tới trưởng tưởng j rõ sợ nk chung h sợ tới già","can_remove":false,"created_time":"2014-04-03T10:48:34+0000","like_count":0,"user_likes":false},"844580975558581":{"id":"844580975558581","from":{"id":"100005917954526","name":"Người Hoa Gốc Việt"},"message":"ùh hôm chủ nhật mình nên ueno chơi bị công an nó hỏi, mõi khi đi có sao đâu cơ chứ","can_remove":false,"created_time":"2014-04-03T11:46:57+0000","like_count":0,"user_likes":false},"844582028891809":{"id":"844582028891809","from":{"id":"1293842461","name":"Nắng Thủy Tinh"},"message":"mình vừa đi 1 mạch khắp mấy địa danh nổi tiếng nhưng k thấy ai hỏi gì","can_remove":false,"created_time":"2014-04-03T11:49:31+0000","like_count":0,"user_likes":false},"844584908891521":{"id":"844584908891521","from":{"id":"100005917954526","name":"Người Hoa Gốc Việt"},"message":"hên nhỉ","can_remove":false,"created_time":"2014-04-03T11:57:47+0000","like_count":0,"user_likes":false},"844640358885976":{"id":"844640358885976","from":{"id":"100005903373573","name":"HaLinh Phong Phan"},"message":"Dạo này ở các ga lớn như shinjiuku hay ikebukuro thì ngay cửa soát vé có hẳn bậc cao cho chú cảnh sát đứng lên để quan sát đó.","can_remove":false,"created_time":"2014-04-03T13:48:58+0000","like_count":1,"user_likes":false},"844641575552521":{"id":"844641575552521","from":{"id":"1293842461","name":"Nắng Thủy Tinh"},"message":"rất là chán, bạn mình làm hướng dẫn của saigontourist bảo rằng có 1 khách vừa bỏ trốn trong tua mới đây ở Tokyo. chả hiểu trốn làm gì nữa. cứ thế này Nhật họ đuổi hết người Việt về nước","can_remove":false,"created_time":"2014-04-03T13:50:31+0000","like_count":1,"user_likes":false},"844664465550232":{"id":"844664465550232","from":{"id":"100007995421886","name":"Ừ Anh Sẽ Đợi"},"message":"vẫn đá tàu được bình thường hoho","can_remove":false,"created_time":"2014-04-03T14:33:04+0000","like_count":0,"user_likes":false},"844687805547898":{"id":"844687805547898","from":{"id":"1563094349","name":"Nguyen Hoai Vu"},"message":"Gặp những ng đá tàu như bạn này vs kiểu bỏ trốn thế kia thì bảo sao dưới con mắt bạn bè Việt nam cũng chỉ vậy mà thôi. Haiz","can_remove":false,"created_time":"2014-04-03T15:11:55+0000","like_count":0,"user_likes":false},"844690462214299":{"id":"844690462214299","from":{"id":"100007995421886","name":"Ừ Anh Sẽ Đợi"},"message":"xin lỗi bạn chứ hoi xem 100 thằng du học xem có đến 95 người đá tàu không cả trai lẫn gái","can_remove":false,"created_time":"2014-04-03T15:13:34+0000","like_count":0,"user_likes":false},"844691762214169":{"id":"844691762214169","from":{"id":"1563094349","name":"Nguyen Hoai Vu"},"message":"Vậy đó là xấu hay đẹp. Nhưng cẩn thận nhé. Đợt này đang căng. Hạn chế nhé.","can_remove":false,"created_time":"2014-04-03T15:16:38+0000","like_count":1,"user_likes":false},"844702008879811":{"id":"844702008879811","from":{"id":"569263718","name":"Phuong Thao Tran"},"message":"Ừ Anh Sẽ Đợi công an hỏi và mời đi chơi đi bạn, good luck!","message_tags":[{"id":"100007995421886","name":"Ừ Anh Sẽ Đợi","type":"user","offset":0,"length":12}],"can_remove":false,"created_time":"2014-04-03T15:34:04+0000","like_count":0,"user_likes":false},"844703558879656":{"id":"844703558879656","from":{"id":"100007995421886","name":"Ừ Anh Sẽ Đợi"},"message":"Bị hỏi rùi mà bạn yên tâm đi :3","can_remove":false,"created_time":"2014-04-03T15:35:18+0000","like_count":0,"user_likes":false},"844704382212907":{"id":"844704382212907","from":{"id":"569263718","name":"Phuong Thao Tran"},"message":"công an hỏi sao bạn? và hỏi nhân dịp gì vậy?","can_remove":false,"created_time":"2014-04-03T15:37:15+0000","like_count":0,"user_likes":false},"844705615546117":{"id":"844705615546117","from":{"id":"100001416272263","name":"Mai PB"},"message":"Ừ Anh Sẽ Đợi chúc sớm được về nước. Mặt dầy.","message_tags":[{"id":"100007995421886","name":"Ừ Anh Sẽ Đợi","type":"user","offset":0,"length":12}],"can_remove":false,"created_time":"2014-04-03T15:38:40+0000","like_count":1,"user_likes":false},"844706002212745":{"id":"844706002212745","from":{"id":"100007995421886","name":"Ừ Anh Sẽ Đợi"},"message":"Cảm ơn nhá ! Sao lại sớm về nước vậy bạn @MaiPB","can_remove":false,"created_time":"2014-04-03T15:39:49+0000","like_count":0,"user_likes":false},"844706392212706":{"id":"844706392212706","from":{"id":"569263718","name":"Phuong Thao Tran"},"message":"bạn Ừ Anh Sẽ Đợi chưa trả lời mình, bạn trả lời đi","message_tags":[{"id":"100007995421886","name":"Ừ Anh Sẽ Đợi","type":"user","offset":4,"length":12}],"can_remove":false,"created_time":"2014-04-03T15:40:47+0000","like_count":0,"user_likes":false},"844707215545957":{"id":"844707215545957","from":{"id":"100007995421886","name":"Ừ Anh Sẽ Đợi"},"message":"Công an hỏi nhân dịp đi xe đạp 2 người bạn ơi @@","can_remove":false,"created_time":"2014-04-03T15:41:36+0000","like_count":0,"user_likes":false},"844707935545885":{"id":"844707935545885","from":{"id":"569263718","name":"Phuong Thao Tran"},"message":"tưởng bạn bị hỏi khi đá vé tàu nữa chứ","can_remove":false,"created_time":"2014-04-03T15:42:40+0000","like_count":1,"user_likes":false},"844710462212299":{"id":"844710462212299","from":{"id":"569263718","name":"Phuong Thao Tran"},"message":"ờ mà bạn Ừ Anh Sẽ Đợi có khi nào đá vé tàu chưa, đang tò mò","message_tags":[{"id":"100007995421886","name":"Ừ Anh Sẽ Đợi","type":"user","offset":9,"length":12}],"can_remove":false,"created_time":"2014-04-03T15:46:36+0000","like_count":0,"user_likes":false},"844711092212236":{"id":"844711092212236","from":{"id":"100007995421886","name":"Ừ Anh Sẽ Đợi"},"message":"Đã từng nhiều lần đá tàu …","can_remove":false,"created_time":"2014-04-03T15:48:03+0000","like_count":0,"user_likes":false},"844713258878686":{"id":"844713258878686","from":{"id":"569263718","name":"Phuong Thao Tran"},"message":"cảm giác lúc đó thế nào bạn, mà sao đá vậy?","can_remove":false,"created_time":"2014-04-03T15:51:29+0000","like_count":0,"user_likes":false},"844718418878170":{"id":"844718418878170","from":{"id":"569263718","name":"Phuong Thao Tran"},"message":"Ừ Anh Sẽ Đợi, chắc bạn nói chơi chứ gì","message_tags":[{"id":"100007995421886","name":"Ừ Anh Sẽ Đợi","type":"user","offset":0,"length":12}],"can_remove":false,"created_time":"2014-04-03T16:02:37+0000","like_count":0,"user_likes":false},"844720965544582":{"id":"844720965544582","from":{"id":"100001432462223","name":"Truong Nguyen"},"message":"lý do : đuổi theo 1 bóng hồng, cô ấy lên tàu và mình quên ví :))","can_remove":false,"created_time":"2014-04-03T16:07:50+0000","like_count":0,"user_likes":false},"844723482210997":{"id":"844723482210997","from":{"id":"569263718","name":"Phuong Thao Tran"},"message":"@Truong Nguyen cũng có kinh nghiệm nhỉ","can_remove":false,"created_time":"2014-04-03T16:12:56+0000","like_count":0,"user_likes":false},"844728655543813":{"id":"844728655543813","from":{"id":"100001432462223","name":"Truong Nguyen"},"message":":3 e có đâu","can_remove":false,"created_time":"2014-04-03T16:21:34+0000","like_count":0,"user_likes":false}},"paging":{"cursors":{"after":"ODQ0NTU2Mzg1NTYxMDQw","before":"ODQ0NTU2Mzg1NTYxMDQw"},"next":"https://graph.facebook.com/229244010425617_844556035561075/comments?limit=1&summary=1&after=ODQ0NTU2Mzg1NTYxMDQw"},"summary":{"order":"chronological","total_count":28}}}