{"id":"229244010425617_844564892226856","type":"photo","object_id":"367887916685654","picture":"https://fbcdn-photos-g-a.akamaihd.net/hphotos-ak-frc3/t1.0-0/10169385_367887916685654_1855118852_s.jpg","link":"https://www.facebook.com/photo.php?fbid=367887916685654&set=gm.844564892226856&type=1&relevant_count=1","from":{"id":"100003933466469","name":"Phong Aki"},"message":"[Giới thiệu văn hoá]- Xin giới thiệu đến cả nhà lớp học món ăn Nhật được tổ chức tại Hà Nội vào thứ 7 tuần này do BETOAJI tổ chức. Mong được sự ủng hộ của anh chị em trong nhóm. Xin cám ơn.","created_time":"2014-04-03T11:02:16+0000","updated_time":"2014-04-03T15:12:39+0000","likes":{"data":{"100001754136107":{"id":"100001754136107","name":"Nguyễn Tuấn Vũ"},"1283298041":{"id":"1283298041","name":"Búa Đức Thanh"},"1788906313":{"id":"1788906313","name":"Hien Hoang"},"100001526631937":{"id":"100001526631937","name":"Tường Oanh Mineko"},"100001416272263":{"id":"100001416272263","name":"Mai PB"},"100003466471603":{"id":"100003466471603","name":"Kim Long"},"100000993680274":{"id":"100000993680274","name":"Thinh Nguyen Van"},"100001432462223":{"id":"100001432462223","name":"Truong Nguyen"},"100000279494197":{"id":"100000279494197","name":"My Loan"},"100000199780783":{"id":"100000199780783","name":"Nguyen Thu Hoai"},"100004046108560":{"id":"100004046108560","name":"MiSo Cochunho"},"100001443373636":{"id":"100001443373636","name":"Hoa Nguyen Huu"},"100000470703055":{"id":"100000470703055","name":"Saru Kachim"},"100003466287943":{"id":"100003466287943","name":"Kim Chi Saki Loyal"},"100000212958966":{"id":"100000212958966","name":"YaNa Vo"},"100002137253818":{"id":"100002137253818","name":"Anh Khoa"},"100006748204387":{"id":"100006748204387","name":"Tiểu Quái Thú"},"620066722":{"id":"620066722","name":"Dong Khac Thai"},"569263718":{"id":"569263718","name":"Phuong Thao Tran"},"100003282697164":{"id":"100003282697164","name":"Nguyễn Văn Vương"},"563072599":{"id":"563072599","name":"Chichi Chanchan"},"1146680551":{"id":"1146680551","name":"優しい なぁ"},"100002769293948":{"id":"100002769293948","name":"Nguyễn Bá Khánh"},"100002444618453":{"id":"100002444618453","name":"Tomio  Ueno"},"100007938450435":{"id":"100007938450435","name":"Miruku Chokoreeto"},"100003747827381":{"id":"100003747827381","name":"Dấu Chấm Hết"},"100006652710586":{"id":"100006652710586","name":"Trần Minh Thu"},"100005024348771":{"id":"100005024348771","name":"Long Hoàng"},"100001458099624":{"id":"100001458099624","name":"Kham Pha"}},"paging":{"cursors":{"after":"MTAwMDAxNzU0MTM2MTA3","before":"MTAwMDAxNzU0MTM2MTA3"},"next":"https://graph.facebook.com/229244010425617_844564892226856/likes?limit=1&summary=1&after=MTAwMDAxNzU0MTM2MTA3"},"summary":{"total_count":29}},"comments":{"data":{"844661882217157":{"id":"844661882217157","from":{"id":"100001458099624","name":"Kham Pha"},"message":"bạn Kim Chi Saki Loyal đây là lần thứ 2 mình nhắc nhở về việc viết tiếng Việt có dấu dù rõ ràng bạn viết được. Thêm một lần nửa mình buộc phải ban nick của bạn, dù rất không muốn.","message_tags":[{"id":"100003466287943","name":"Kim Chi Saki Loyal","type":"user","offset":4,"length":18}],"can_remove":false,"created_time":"2014-04-03T14:27:24+0000","like_count":3,"user_likes":false},"844688472214498":{"id":"844688472214498","from":{"id":"100003466287943","name":"Kim Chi Saki Loyal"},"message":"Gomennasai ne","can_remove":false,"created_time":"2014-04-03T15:12:39+0000","like_count":0,"user_likes":false}},"paging":{"cursors":{"after":"ODQ0NjYxODgyMjE3MTU3","before":"ODQ0NjYxODgyMjE3MTU3"},"next":"https://graph.facebook.com/229244010425617_844564892226856/comments?limit=1&summary=1&after=ODQ0NjYxODgyMjE3MTU3"},"summary":{"order":"chronological","total_count":2}}}