{"id":"229244010425617_844592985557380","type":"status","from":{"id":"100002966928087","name":"Nguyen van Dat"},"message":"VÌ SAO MỌI NGƯỜI ĐỔ XÔ ĐI NHẬT BẢN\nsau đây mình sẽ có một số chia sẽ.hi vọng sẽ giúp được cho những ai có ý định ngắm hoa anh đào V: bài 1 mình sẽ chia sẻ về tns trước\n1 Số lượng cung vượt quá nhiều so với cầu\nnhư chúng ta biết: Nhật Bản,Hàn Quốc.Đài Loan là những nước có mức thu nhập khá và ổn định nên rất rất nhiều người lao động lựa chọn. với Hàn quốc thì đã không lấy lao động VIÊT NAM,từ năm 2012 do tỉ lệ trốn ra ngoài khá cao.còn ĐÀI LOAN thì mới có luật phạt cho những ai trốn ra ngoài lên đến 100 triệu,nên tất cả lượng người đổ đi NHẬT đã tăng lên đáng kể theo trung bình 1o bạn đăng kí chỉ tầm 2 đến 3 bạn đi được thôi,,nhưng ở đâu cũng có góc khuất của nó bạn à.mình sẽ lấy mình làm ví dụ nhé\n\n2 không minh bạch về phí đi và chi phí phát sinh\nnhư các bạn mình đến các công ty mô giới họ bảo chi phí hết 10500usd,trong đó có 3 ngìn sau khi vè vn sẽ lấy lại,nhưng trời ơi nếu ai đi xong cũng tầm hơn 300.mình sẽ liệt kê sau đây,thứ nhất là phí 10500usd.thứ 2 phí đầu vào ăn học tao nguồn 1 000 usd. \nsau đây là phí phát sinh.thư nhất tiền sách 2 bộ minano,vali.máy nghe nhạc mp4 trung quoc.đồng phục xuất cảnh,công ty bán  có 9 triệu thôi :v.tiền cò1000usd,tiền ăn học ,ăn ở  ,hà nội trung bình là 6 tháng hoặc có người hơn 1 năm,mỗi tháng trung bình 1 tháng tầm 5 củ.tiền sắm đồ và cầm đi khoảng 1 usd nữa,vậy bạn cộng lại xem bao nhiêu rồi/tiền đi đi lại lại 1 năm,phám bệnh cũng kha khá đó\n\n3 mức lương trên giấy\ncái này thì mình đã nói khá nhiều rồi,mình xin nhắc lại,mức lương của bạn khi kí hợp đồng của tns trung bình là  khoảng 14 man,28 triệu nhưng đó là chưa trừ tiền nhà,ddienj,bảo hiểm,thuế vvv,và ăn nữa,nếu trừ hết 1 tháng bạn nhận đươcj tầm 14 triệu thôi\n4 nghiệp đoàn cũng góp 1 phần không nhỏ\nbên việt nam nói là nghiệp đoàn nhưng thật chất ra đó chỉ là công ty mô giới bên nhật,ví dụ nhé,nếu có 1 công ty nào cần tuyển tns,thì sẽ đến công ty mô giới tìm,và các công ty mô giới bên nhật không thể tự tìm đến tns được mà phải qua công ty mô giới bên việt nam,và công ty mô giới bên việt nam cũng có 1 phí bôi trơn,cho các nghiệp đoàn để khi nào ngiệp đoàn có đơn hàng sẽ tìm đến các công ty mô giới,theo mình biết là 1000usd 1 người,và nghiệp đoàn sẽ ăn thêm vào mức lương 1h của tns nữa \n\n5 cò        cò ở đây có nhiều loại,nếu ai không biết sẽ phải thêm 1 lần cò nữa cái này mình gọi là cò lữa,nghĩa là những người này tìm người cho các công ty mô giới,dắc các em lên công ty thế la hết.trung bình thu từ 300 đến 500 usd 1 em.tiếp thẹo bạn sẽ làm việc với cò thật :V.làm việc vào vấn đề,muốn có đơn hàng thì phí tầm 1000 đến 1500usd 1  em,đấy\n\nbài viết của mình sẽ mắc một số lỗi chính tả mong mọi người thông cảm nhé,nếu có thời gian mình sẽ viêt thêm về du học nguyen van dat","created_time":"2014-04-03T12:18:42+0000","updated_time":"2014-04-04T10:22:10+0000","likes":{"data":{"100008133690691":{"id":"100008133690691","name":"Con Yêu Mẹ"},"100002533923307":{"id":"100002533923307","name":"NguyễnTài Nguyên"},"100003742284688":{"id":"100003742284688","name":"Lữ Thanh"},"100003271726894":{"id":"100003271726894","name":"Yuki Na"},"100001526631937":{"id":"100001526631937","name":"Tường Oanh Mineko"},"100007145314357":{"id":"100007145314357","name":"にほん の がくせい"},"100006712992259":{"id":"100006712992259","name":"Thảo Lê"},"100005818244323":{"id":"100005818244323","name":"Thuan Nguyen van Thuan"},"100005902955365":{"id":"100005902955365","name":"Thu Hằng"},"100004119541573":{"id":"100004119541573","name":"Thùy Dung"},"100004075308762":{"id":"100004075308762","name":"Lie Lie"},"100004699423965":{"id":"100004699423965","name":"Dang Doan"},"100007006813457":{"id":"100007006813457","name":"Gia Huy"},"100004192453959":{"id":"100004192453959","name":"Bố Em Nhím"},"100003560030685":{"id":"100003560030685","name":"Ngo Thanh"},"100001432462223":{"id":"100001432462223","name":"Truong Nguyen"},"100006735010872":{"id":"100006735010872","name":"Dao Van Hiep"},"100005443599696":{"id":"100005443599696","name":"Son Kent"},"100001416272263":{"id":"100001416272263","name":"Mai PB"},"100003346691086":{"id":"100003346691086","name":"Nhuận Hoàng"},"100001016429049":{"id":"100001016429049","name":"Huong Le"},"100001786404410":{"id":"100001786404410","name":"Huệ Nguyễn"},"569263718":{"id":"569263718","name":"Phuong Thao Tran"},"100003980112068":{"id":"100003980112068","name":"Endless Paradise"},"100004365187131":{"id":"100004365187131","name":"Nga Hoàng"},"100003907858257":{"id":"100003907858257","name":"Ngân Nhím"},"100006851160906":{"id":"100006851160906","name":"Chu Thị Hồng"},"100004191241728":{"id":"100004191241728","name":"Phù Thủy Kute"},"100007875486503":{"id":"100007875486503","name":"Hồng Đức Trong Tôi"},"1146680551":{"id":"1146680551","name":"優しい なぁ"},"100003892404629":{"id":"100003892404629","name":"Đại Bàng Lột Xác"},"100003893158172":{"id":"100003893158172","name":"Maru MO"},"100006439462117":{"id":"100006439462117","name":"Kira Hung"},"100005865042504":{"id":"100005865042504","name":"Vẽ Trái Tim"},"100003142671913":{"id":"100003142671913","name":"Hoa Hồng Đen"},"100005225070381":{"id":"100005225070381","name":"Okane Mochi"},"100000325921206":{"id":"100000325921206","name":"Rain Bow"},"100001426974478":{"id":"100001426974478","name":"Tien Mai Duy"},"100004975712968":{"id":"100004975712968","name":"Cương Nguyễn"},"100002339089186":{"id":"100002339089186","name":"Thinh Nguyen Viet"},"100006069337594":{"id":"100006069337594","name":"Nhàn Hoàng"},"100000500260636":{"id":"100000500260636","name":"Lưu Nguyễn Thảo Tiên"},"100005696525096":{"id":"100005696525096","name":"Be Heo Beo"},"100005917954526":{"id":"100005917954526","name":"Người Hoa Gốc Việt"},"100004451257322":{"id":"100004451257322","name":"Minhdiem Bui"},"100005804102900":{"id":"100005804102900","name":"Thuận Lê"},"100006803468897":{"id":"100006803468897","name":"Maria Maria"},"100004065184286":{"id":"100004065184286","name":"Hanh Nguyen"},"100003496692527":{"id":"100003496692527","name":"Cỏ Ba Lá"},"100007963716784":{"id":"100007963716784","name":"Ninh Thị Hường"},"100003882966065":{"id":"100003882966065","name":"TrAi Quê HD"},"100003032663784":{"id":"100003032663784","name":"Vượt Qua Thử Thách"},"100004400315117":{"id":"100004400315117","name":"Tiểu Hoa Đà"},"1676315463":{"id":"1676315463","name":"Mỹ Trinh"},"100002966928087":{"id":"100002966928087","name":"Nguyen van Dat"}},"paging":{"cursors":{"after":"MTAwMDA4MTMzNjkwNjkx","before":"MTAwMDA4MTMzNjkwNjkx"},"next":"https://graph.facebook.com/229244010425617_844592985557380/likes?limit=1&summary=1&after=MTAwMDA4MTMzNjkwNjkx"},"summary":{"total_count":56}},"comments":{"data":{"844596478890364":{"id":"844596478890364","from":{"id":"100003032663784","name":"Vượt Qua Thử Thách"},"message":"thế quân nhân xuất ngũ cũng sẽ phải đi theo kiểu y như trên hay khác vậy a Đạt","can_remove":false,"created_time":"2014-04-03T12:27:08+0000","like_count":1,"user_likes":false},"844598622223483":{"id":"844598622223483","from":{"id":"100002966928087","name":"Nguyen van Dat"},"message":"cũng vậy bạn à","can_remove":false,"created_time":"2014-04-03T12:32:05+0000","like_count":0,"user_likes":false},"844599622223383":{"id":"844599622223383","from":{"id":"100003032663784","name":"Vượt Qua Thử Thách"},"message":"e đọc ở các trường trung cấp nghề thì thấy là quân nhân xuất ngủ sẽ miễn phí ăn ở , học hành còn khoảng đi dễ hơn hay k thì đành vậy","can_remove":false,"created_time":"2014-04-03T12:34:03+0000","like_count":0,"user_likes":false},"844600325556646":{"id":"844600325556646","from":{"id":"100003032663784","name":"Vượt Qua Thử Thách"},"message":"nếu là quân nhân ra quân học cả trung đội trưởng có thêm thì khoản 30 hoặc 40 muốn đi qua để kiếm người mà thế này chắc e đập đầu haizz","can_remove":false,"created_time":"2014-04-03T12:35:20+0000","like_count":1,"user_likes":false},"844601058889906":{"id":"844601058889906","from":{"id":"100002966928087","name":"Nguyen van Dat"},"message":"đi rể hay không là do cò bạn à V:","can_remove":false,"created_time":"2014-04-03T12:37:21+0000","like_count":0,"user_likes":false},"844601482223197":{"id":"844601482223197","from":{"id":"100003032663784","name":"Vượt Qua Thử Thách"},"message":"chắc khi đi cầm không đủ là phải cầm theo sổ đỏ để vay vốn ngân hàng phải k anh","can_remove":false,"created_time":"2014-04-03T12:38:36+0000","like_count":0,"user_likes":false},"844602985556380":{"id":"844602985556380","from":{"id":"100004604981670","name":"Hoa Hồng Xanh"},"message":"thật k vậy","can_remove":false,"created_time":"2014-04-03T12:42:03+0000","like_count":0,"user_likes":false},"844603312223014":{"id":"844603312223014","from":{"id":"100005917954526","name":"Người Hoa Gốc Việt"},"message":"đúng đấy","can_remove":false,"created_time":"2014-04-03T12:42:30+0000","like_count":0,"user_likes":false},"844603788889633":{"id":"844603788889633","from":{"id":"100004604981670","name":"Hoa Hồng Xanh"},"message":"thế thì phải từ bỏ ước mơ sao...hị hị","can_remove":false,"created_time":"2014-04-03T12:43:31+0000","like_count":0,"user_likes":false},"844604102222935":{"id":"844604102222935","from":{"id":"100005917954526","name":"Người Hoa Gốc Việt"},"message":"nếu ước mơ thì đừng từ bỏ","can_remove":false,"created_time":"2014-04-03T12:44:17+0000","like_count":0,"user_likes":false},"844604822222863":{"id":"844604822222863","from":{"id":"100005917954526","name":"Người Hoa Gốc Việt"},"message":"mẹ mình bảo m là:\nĐừng bao giờ từ bỏ ước mơ của m...! :(","can_remove":false,"created_time":"2014-04-03T12:45:23+0000","like_count":1,"user_likes":false},"844604848889527":{"id":"844604848889527","from":{"id":"100004604981670","name":"Hoa Hồng Xanh"},"message":"nhà nghèo mà như thế thì khó có cơ hội dc đi lắm","can_remove":false,"created_time":"2014-04-03T12:45:30+0000","like_count":0,"user_likes":false},"844605338889478":{"id":"844605338889478","from":{"id":"100005917954526","name":"Người Hoa Gốc Việt"},"message":"nghèo thì cố mà neo trèo","can_remove":false,"created_time":"2014-04-03T12:46:31+0000","like_count":0,"user_likes":false},"844605772222768":{"id":"844605772222768","from":{"id":"100004604981670","name":"Hoa Hồng Xanh"},"message":"trèo cao ngã đau lém","can_remove":false,"created_time":"2014-04-03T12:47:10+0000","like_count":0,"user_likes":false},"844607048889307":{"id":"844607048889307","from":{"id":"100003032663784","name":"Vượt Qua Thử Thách"},"message":"hết năm nay ráng trúng tuyển lính để nhận đi học XKLĐ chọn nhật sợ k đủ phí đi thôi chứ nợ k sợ","can_remove":false,"created_time":"2014-04-03T12:48:21+0000","like_count":0,"user_likes":false},"844607268889285":{"id":"844607268889285","from":{"id":"100003032663784","name":"Vượt Qua Thử Thách"},"message":"tại đi cũng không phải để kiếm tiền mà kiếm người","can_remove":false,"created_time":"2014-04-03T12:48:59+0000","like_count":0,"user_likes":false},"844607272222618":{"id":"844607272222618","from":{"id":"100004604981670","name":"Hoa Hồng Xanh"},"message":"mk là nữ...","can_remove":false,"created_time":"2014-04-03T12:48:59+0000","like_count":0,"user_likes":false},"844607348889277":{"id":"844607348889277","from":{"id":"100005917954526","name":"Người Hoa Gốc Việt"},"message":"chính vì đau nên mới cố, chứ k đau thì cứ té song lại neo thì thú vị hơn","can_remove":false,"created_time":"2014-04-03T12:49:11+0000","like_count":1,"user_likes":false},"844607535555925":{"id":"844607535555925","from":{"id":"100004604981670","name":"Hoa Hồng Xanh"},"message":"ukm.dc đó","can_remove":false,"created_time":"2014-04-03T12:49:33+0000","like_count":0,"user_likes":false},"844607895555889":{"id":"844607895555889","from":{"id":"100003032663784","name":"Vượt Qua Thử Thách"},"message":"thôi cấm đầu vào chơi nốt  bán nhà cũng đi","can_remove":false,"created_time":"2014-04-03T12:50:17+0000","like_count":0,"user_likes":false},"844608548889157":{"id":"844608548889157","from":{"id":"100004975712968","name":"Cương Nguyễn"},"message":"chuẩn đấy a Nguyen van Dat","message_tags":[{"id":"100002966928087","name":"Nguyen van Dat","type":"user","offset":12,"length":14}],"can_remove":false,"created_time":"2014-04-03T12:51:20+0000","like_count":0,"user_likes":false},"844608688889143":{"id":"844608688889143","from":{"id":"100004975712968","name":"Cương Nguyễn"},"message":"cty nào cũng nói hay nói tài","can_remove":false,"created_time":"2014-04-03T12:51:40+0000","like_count":2,"user_likes":false},"844608718889140":{"id":"844608718889140","from":{"id":"100004604981670","name":"Hoa Hồng Xanh"},"message":"hihi.dc đó Vượt Qua Thử Thách","message_tags":[{"id":"100003032663784","name":"Vượt Qua Thử Thách","type":"user","offset":11,"length":18}],"can_remove":false,"created_time":"2014-04-03T12:51:42+0000","like_count":0,"user_likes":false},"844608982222447":{"id":"844608982222447","from":{"id":"100005917954526","name":"Người Hoa Gốc Việt"},"message":"ấy đừng bán để lại cái bếp để phòng khi mưa gió","can_remove":false,"created_time":"2014-04-03T12:52:14+0000","like_count":1,"user_likes":false},"844609908889021":{"id":"844609908889021","from":{"id":"100004604981670","name":"Hoa Hồng Xanh"},"message":"mưa gió ra gầm cầu ở cũng dc mà.cứ bán hết cho dc nhìu tiền chứ","can_remove":false,"created_time":"2014-04-03T12:53:21+0000","like_count":0,"user_likes":false},"844610152222330":{"id":"844610152222330","from":{"id":"100003032663784","name":"Vượt Qua Thử Thách"},"message":"haizz quyết đi k trở lại kiếp này sống tha phương","can_remove":false,"created_time":"2014-04-03T12:53:38+0000","like_count":0,"user_likes":false},"844610312222314":{"id":"844610312222314","from":{"id":"100000814940278","name":"Pham van Thao"},"message":"HEHEHHE DO CON CHUA KE CONG TY RA SAO NUA, NEU MA CONG TY TOI HOAC KHONG CO LAM THEM THI SANG DAY 3 NAM DU DE TRA NO KEKEKEK","can_remove":false,"created_time":"2014-04-03T12:54:15+0000","like_count":0,"user_likes":false},"844610485555630":{"id":"844610485555630","from":{"id":"100004604981670","name":"Hoa Hồng Xanh"},"message":"quyết tâm thế nhỉ.chắc thành công đó.good luck to you!","can_remove":false,"created_time":"2014-04-03T12:54:43+0000","like_count":1,"user_likes":false},"844610938888918":{"id":"844610938888918","from":{"id":"100005917954526","name":"Người Hoa Gốc Việt"},"message":"gầm cầu họ thu thuế đó, đê bây giờ còn có thuế cơ mà","can_remove":false,"created_time":"2014-04-03T12:55:31+0000","like_count":0,"user_likes":false},"844611738888838":{"id":"844611738888838","from":{"id":"100003032663784","name":"Vượt Qua Thử Thách"},"message":"cứ nói thế tệ tệ có cái nhà trọ đi làm kiếm lại chứ có j gớm đâu mà bi thương","can_remove":false,"created_time":"2014-04-03T12:56:55+0000","like_count":0,"user_likes":false},"844611962222149":{"id":"844611962222149","from":{"id":"100003032663784","name":"Vượt Qua Thử Thách"},"message":"sợ khó đi thôi về khó cỡ nào mình cũng chịu","can_remove":false,"created_time":"2014-04-03T12:57:17+0000","like_count":0,"user_likes":false},"844612325555446":{"id":"844612325555446","from":{"id":"100004604981670","name":"Hoa Hồng Xanh"},"message":"đâu có quê mk  k thu mà.","can_remove":false,"created_time":"2014-04-03T12:57:53+0000","like_count":0,"user_likes":false},"844613085555370":{"id":"844613085555370","from":{"id":"100003032663784","name":"Vượt Qua Thử Thách"},"message":"trừ những khoảng cò ăn học ra thì phải bao nhiu trở lên mới có thể đi là cái mình quan tâm trước","can_remove":false,"created_time":"2014-04-03T12:59:07+0000","like_count":0,"user_likes":false},"844613098888702":{"id":"844613098888702","from":{"id":"100005917954526","name":"Người Hoa Gốc Việt"},"message":"cứ ở mà xem thu ngay","can_remove":false,"created_time":"2014-04-03T12:59:10+0000","like_count":0,"user_likes":false},"844613355555343":{"id":"844613355555343","from":{"id":"100004604981670","name":"Hoa Hồng Xanh"},"message":"hihi.k có tiền thì họ thu kiểu gì","can_remove":false,"created_time":"2014-04-03T13:00:07+0000","like_count":0,"user_likes":false},"844613515555327":{"id":"844613515555327","from":{"id":"100005917954526","name":"Người Hoa Gốc Việt"},"message":"thu thứ khác đâu cứ phải tiền","can_remove":false,"created_time":"2014-04-03T13:00:51+0000","like_count":0,"user_likes":false},"844613928888619":{"id":"844613928888619","from":{"id":"100004604981670","name":"Hoa Hồng Xanh"},"message":"vậy thì k gọi là thuế.hi","can_remove":false,"created_time":"2014-04-03T13:01:55+0000","like_count":0,"user_likes":false},"844614508888561":{"id":"844614508888561","from":{"id":"100005917954526","name":"Người Hoa Gốc Việt"},"message":"thế là gì?","can_remove":false,"created_time":"2014-04-03T13:03:18+0000","like_count":0,"user_likes":false},"844615122221833":{"id":"844615122221833","from":{"id":"100004604981670","name":"Hoa Hồng Xanh"},"message":"mk cũng k bít nứa","can_remove":false,"created_time":"2014-04-03T13:03:45+0000","like_count":0,"user_likes":false},"844616978888314":{"id":"844616978888314","from":{"id":"100005865042504","name":"Vẽ Trái Tim"},"message":"Vượt qua chính mình","can_remove":false,"created_time":"2014-04-03T13:07:08+0000","like_count":0,"user_likes":false},"844617398888272":{"id":"844617398888272","from":{"id":"100005917954526","name":"Người Hoa Gốc Việt"},"message":"k phải 1m đâu mà phải là nhiều mình đấy","can_remove":false,"created_time":"2014-04-03T13:08:11+0000","like_count":1,"user_likes":false},"844620352221310":{"id":"844620352221310","from":{"id":"100005865042504","name":"Vẽ Trái Tim"},"message":"Chính là mềnh mà ;)","can_remove":false,"created_time":"2014-04-03T13:13:58+0000","like_count":0,"user_likes":false},"844620748887937":{"id":"844620748887937","from":{"id":"100002675927707","name":"K.r. Ngok"},"message":"May mà mình đi k qua môi giới..không qua đây ba năm cũng về vn cạp đâts ăn","can_remove":false,"created_time":"2014-04-03T13:15:21+0000","like_count":1,"user_likes":false},"844620858887926":{"id":"844620858887926","from":{"id":"100005917954526","name":"Người Hoa Gốc Việt"},"message":"thế người sung quanh k vượt qua họ thì m đi làm sao được cơ chứ","can_remove":false,"created_time":"2014-04-03T13:15:31+0000","like_count":1,"user_likes":false},"844623222221023":{"id":"844623222221023","from":{"id":"100003058280462","name":"Đặng Văn Thành"},"message":"ẹc. thế mình định qua Nhật làm KTV thì bây h phải làm sao ước mơ giàu sang tan biến","can_remove":false,"created_time":"2014-04-03T13:20:00+0000","like_count":0,"user_likes":false},"844623432221002":{"id":"844623432221002","from":{"id":"100005865042504","name":"Vẽ Trái Tim"},"message":"Thế :)","can_remove":false,"created_time":"2014-04-03T13:20:41+0000","like_count":0,"user_likes":false},"844652042218141":{"id":"844652042218141","from":{"id":"100003703576535","name":"Tap Nguyendang"},"message":"thank anh đã chia sẻ.:)","can_remove":false,"created_time":"2014-04-03T14:10:06+0000","like_count":0,"user_likes":false},"844672938882718":{"id":"844672938882718","from":{"id":"100006335015996","name":"Lê Hoàng"},"message":"thằng anh e quen qua đó làm KTV trừ các khoản chưa tính làm thêm là còn dư 11 man :v :v","can_remove":false,"created_time":"2014-04-03T14:44:46+0000","like_count":0,"user_likes":false},"844694695547209":{"id":"844694695547209","from":{"id":"100003346691086","name":"Nhuận Hoàng"},"message":"kiếp sống tha phương thật là mệt, mình đang định đi xuất khẩu lao động mà không biết giờ phải làm tn đây, muốn đi nhật nhưng sợ nghe mn ns mà ghê quá, nhà ở quê nghèo khó sẵ, lặn lội lên HN tìm đường sinh nhai mà còn bị hớt tay trên thì khổ biết ns sao cho hết nhỉ??? :(","can_remove":false,"created_time":"2014-04-03T15:22:37+0000","like_count":0,"user_likes":false},"844721168877895":{"id":"844721168877895","from":{"id":"100001194291716","name":"Huyền Trang"},"message":"sao chi phí đi nhật mọi người nói cao vậy, mình có ng quen đi chỉ hết có khoảng 6000$ thôi mà","can_remove":false,"created_time":"2014-04-03T16:08:13+0000","like_count":0,"user_likes":false},"844726068877405":{"id":"844726068877405","from":{"id":"100003346691086","name":"Nhuận Hoàng"},"message":"đi 6000 ở đâu vậy b","can_remove":false,"created_time":"2014-04-03T16:17:01+0000","like_count":0,"user_likes":false},"844727092210636":{"id":"844727092210636","from":{"id":"100001194291716","name":"Huyền Trang"},"message":"Nhưng mình thấy hầu hết các bạn đi đều không phải gia đình khá giả và phải đi vay ngân hàng, vậy mấy nghìn đấy là ít hay nhiều","can_remove":false,"created_time":"2014-04-03T16:18:15+0000","like_count":0,"user_likes":false},"844727512210594":{"id":"844727512210594","from":{"id":"100001194291716","name":"Huyền Trang"},"message":"Ở iig bạn Nhuận Hoàng ạ","can_remove":false,"created_time":"2014-04-03T16:18:55+0000","like_count":1,"user_likes":false},"844727795543899":{"id":"844727795543899","from":{"id":"569263718","name":"Phuong Thao Tran"},"message":"Kantan Yo nhắc bạn lần cuối về tiếng Việt có dấu","message_tags":[{"id":"100006896502374","name":"Kantan Yo","type":"user","offset":0,"length":9}],"can_remove":false,"created_time":"2014-04-03T16:19:07+0000","like_count":0,"user_likes":false},"844729822210363":{"id":"844729822210363","from":{"id":"100003346691086","name":"Nhuận Hoàng"},"message":"b có web của cty ấy k b? m vao search mà không tìm thấy b ah :(","can_remove":false,"created_time":"2014-04-03T16:24:10+0000","like_count":0,"user_likes":false},"844731258876886":{"id":"844731258876886","from":{"id":"100001194291716","name":"Huyền Trang"},"message":"http://iigtravel.com/?lang=vn","can_remove":false,"created_time":"2014-04-03T16:26:22+0000","like_count":1,"user_likes":false},"844733898876622":{"id":"844733898876622","from":{"id":"100003346691086","name":"Nhuận Hoàng"},"message":"thanks ạ","can_remove":false,"created_time":"2014-04-03T16:30:36+0000","like_count":0,"user_likes":false},"844735258876486":{"id":"844735258876486","from":{"id":"100001194291716","name":"Huyền Trang"},"message":"không có gì đâu bạn ạ","can_remove":false,"created_time":"2014-04-03T16:33:03+0000","like_count":0,"user_likes":false},"844742702209075":{"id":"844742702209075","from":{"id":"100003560030685","name":"Ngo Thanh"},"message":"hic gom nhi ban Nguyen van Dat ak hic","message_tags":[{"id":"100002966928087","name":"Nguyen van Dat","type":"user","offset":16,"length":14}],"can_remove":false,"created_time":"2014-04-03T16:47:34+0000","like_count":0,"user_likes":false},"844841465532532":{"id":"844841465532532","from":{"id":"100007006813457","name":"Gia Huy"},"message":"Het300 triệu o nha mua oto lam con hon nhiêu.. Co cho nào di ko mắt Tien ko e.?","can_remove":false,"created_time":"2014-04-03T20:40:33+0000","like_count":0,"user_likes":false},"844893882193957":{"id":"844893882193957","from":{"id":"100003058280462","name":"Đặng Văn Thành"},"message":"sao hẳn 6000$ thế. tr t hình như k nhầm chỉ tầm 4-5.5 nghìn đô thôi mà :d","can_remove":false,"created_time":"2014-04-03T23:20:57+0000","like_count":0,"user_likes":false},"844894648860547":{"id":"844894648860547","from":{"id":"100001194291716","name":"Huyền Trang"},"message":"khoảng tầm đấy, nhiều hay ít do từng người nữa mà","can_remove":false,"created_time":"2014-04-03T23:24:30+0000","like_count":0,"user_likes":false},"844896122193733":{"id":"844896122193733","from":{"id":"100003058280462","name":"Đặng Văn Thành"},"message":"ưkm","can_remove":false,"created_time":"2014-04-03T23:29:50+0000","like_count":0,"user_likes":false},"844922588857753":{"id":"844922588857753","from":{"id":"100002675927707","name":"K.r. Ngok"},"message":"Bạn đi công ty nào thế trung hạnh","can_remove":false,"created_time":"2014-04-04T01:00:05+0000","like_count":1,"user_likes":false},"844922638857748":{"id":"844922638857748","from":{"id":"100002675927707","name":"K.r. Ngok"},"message":"Cho xjn link với","can_remove":false,"created_time":"2014-04-04T01:00:16+0000","like_count":1,"user_likes":false},"844930755523603":{"id":"844930755523603","from":{"id":"100003813857715","name":"Dem Dong Lanh"},"message":"Tom Bui","message_tags":[{"id":"100007055018351","name":"Tom Bui","type":"user","offset":0,"length":7}],"can_remove":false,"created_time":"2014-04-04T01:25:07+0000","like_count":1,"user_likes":false},"844933328856679":{"id":"844933328856679","from":{"id":"100007055018351","name":"Tom Bui"},"message":"Khó hiểu quá","can_remove":false,"created_time":"2014-04-04T01:34:45+0000","like_count":0,"user_likes":false},"844934272189918":{"id":"844934272189918","from":{"id":"100007055018351","name":"Tom Bui"},"message":"Chúng tớ ở miền bắc mà","can_remove":false,"created_time":"2014-04-04T01:37:17+0000","like_count":0,"user_likes":false},"844935688856443":{"id":"844935688856443","from":{"id":"100007055018351","name":"Tom Bui"},"message":"Đi du học vất lắm, b bay chưa??? Hay đang học?? Nghĩ đến học 4-6 tháng mà fat ngan","can_remove":false,"created_time":"2014-04-04T01:41:36+0000","like_count":0,"user_likes":false},"844973252186020":{"id":"844973252186020","from":{"id":"100002675927707","name":"K.r. Ngok"},"message":"Tớ cũng đi ở miền bắc...","can_remove":false,"created_time":"2014-04-04T03:22:05+0000","like_count":0,"user_likes":false},"844974192185926":{"id":"844974192185926","from":{"id":"100002675927707","name":"K.r. Ngok"},"message":"Tớ thì bay rồi nhưng mấy đứa e hỏi nên đi công ty nào nên t phải đi hỏi thăm lung tung","can_remove":false,"created_time":"2014-04-04T03:25:06+0000","like_count":0,"user_likes":false},"845005635516115":{"id":"845005635516115","from":{"id":"100007390502512","name":"Hoa Ban Mai"},"message":"Uhm...đúng là nhật","can_remove":false,"created_time":"2014-04-04T04:58:36+0000","like_count":0,"user_likes":false},"845147078835304":{"id":"845147078835304","from":{"id":"100000174570922","name":"Le Vu Hoang"},"message":"\"1 Số lượng cung vượt quá nhiều so với cầu\" cho minh hoi ban co dan chung hay can cu nao ko ah?","can_remove":false,"created_time":"2014-04-04T09:11:22+0000","like_count":0,"user_likes":false},"845165995500079":{"id":"845165995500079","from":{"id":"569263718","name":"Phuong Thao Tran"},"message":"Kantan Yo","message_tags":[{"id":"100006896502374","name":"Kantan Yo","type":"user","offset":0,"length":9}],"can_remove":false,"created_time":"2014-04-04T10:18:49+0000","like_count":0,"user_likes":false},"845166835499995":{"id":"845166835499995","from":{"id":"100006896502374","name":"Kantan Yo"},"message":"hehe","can_remove":false,"created_time":"2014-04-04T10:22:10+0000","like_count":0,"user_likes":false}},"paging":{"cursors":{"after":"ODQ0NTk2NDc4ODkwMzY0","before":"ODQ0NTk2NDc4ODkwMzY0"},"next":"https://graph.facebook.com/229244010425617_844592985557380/comments?limit=1&summary=1&after=ODQ0NTk2NDc4ODkwMzY0"},"summary":{"order":"chronological","total_count":81}}}