{"id":"229244010425617_844637885552890","type":"video","picture":"https://fbexternal-a.akamaihd.net/safe_image.php?d=AQCFl6kQhTQewQFG&w=130&h=130&url=http%3A%2F%2Fi1.ytimg.com%2Fvi%2FGvYW6uVFzN0%2Fmaxresdefault.jpg","link":"https://www.youtube.com/watch?v=GvYW6uVFzN0&list=PLAhx2XOq4JzKPmNAfMk3sriI3TARaCQoU&index=8","source":"http://www.youtube.com/v/GvYW6uVFzN0?list=PLAhx2XOq4JzKPmNAfMk3sriI3TARaCQoU&version=3&autoplay=1","from":{"id":"100001416272263","name":"Mai PB"},"message":"Ai thích 演歌（えんか Enka）không? Đây là một thể loại nhạc quê hương của Nhật, vị trí trong âm nhạc Nhật như là country của Mỹ, chanson của Pháp, và \"nhạc vàng\" của VN. ^^ Ai nghe bài sau mà yêu thì chắc đã/sẽ yêu nước Nhật rồi.\n\nhttps://www.youtube.com/watch?v=GvYW6uVFzN0","created_time":"2014-04-03T13:44:49+0000","updated_time":"2014-04-03T19:18:59+0000","likes":{"data":{"1026780646":{"id":"1026780646","name":"Việt Hưng Khổng"},"100007330144944":{"id":"100007330144944","name":"Phương"},"100001432462223":{"id":"100001432462223","name":"Truong Nguyen"},"100002963737004":{"id":"100002963737004","name":"Hà Phùng"},"100006734168968":{"id":"100006734168968","name":"Tiểu Nhân Mã"},"100002999756689":{"id":"100002999756689","name":"Lắng Nghe"},"100001824172942":{"id":"100001824172942","name":"Phan Van"},"100004046108560":{"id":"100004046108560","name":"MiSo Cochunho"},"100000500260636":{"id":"100000500260636","name":"Lưu Nguyễn Thảo Tiên"},"100000076592588":{"id":"100000076592588","name":"Trúc Lê"},"1146680551":{"id":"1146680551","name":"優しい なぁ"},"569263718":{"id":"569263718","name":"Phuong Thao Tran"},"100004099326394":{"id":"100004099326394","name":"Thanh Chan"},"100005495773832":{"id":"100005495773832","name":"Hiền Vũ"},"100000054665103":{"id":"100000054665103","name":"John Nguyễn"},"100006520210904":{"id":"100006520210904","name":"Miu Miu"},"100007879952991":{"id":"100007879952991","name":"Thow  Low"},"1453400118":{"id":"1453400118","name":"Ngan Nguyen"},"100000973295703":{"id":"100000973295703","name":"El Pipita Gà"},"100000005117986":{"id":"100000005117986","name":"Tăng Tiên Sinh"},"100002470650247":{"id":"100002470650247","name":"LinhLinh Chan"},"100003516815793":{"id":"100003516815793","name":"Hiển Trần"},"100000086665238":{"id":"100000086665238","name":"Hoàng Minh"}},"paging":{"cursors":{"after":"MTAyNjc4MDY0Ng==","before":"MTAyNjc4MDY0Ng=="},"next":"https://graph.facebook.com/229244010425617_844637885552890/likes?limit=1&summary=1&after=MTAyNjc4MDY0Ng%3D%3D"},"summary":{"total_count":23}},"comments":{"data":{"844639188886093":{"id":"844639188886093","from":{"id":"100001416272263","name":"Mai PB"},"message":"Giới thiệu luôn bài này. Bài hát đại diện cho Nagasaki.\nhttps://www.youtube.com/watch?v=_FR3BvtL7g4","can_remove":false,"created_time":"2014-04-03T13:46:18+0000","like_count":1,"user_likes":false},"844752998874712":{"id":"844752998874712","from":{"id":"100001444337943","name":"Macjanh"},"message":"ai hieu se vui lam nhe\nhttp://youtu.be/ri4Ivn6JCtE","can_remove":false,"created_time":"2014-04-03T17:05:53+0000","like_count":1,"user_likes":false},"844806812202664":{"id":"844806812202664","from":{"id":"100001824172942","name":"Phan Van"},"message":"道連れ　渡哲也: http://youtu.be/VE7XbxUz0V8\n\n\"Đua đòi \"với bác Mai PB tí ạ_^","message_tags":[{"id":"100001416272263","name":"Mai PB","type":"user","offset":56,"length":6}],"can_remove":false,"created_time":"2014-04-03T19:18:59+0000","like_count":1,"user_likes":false}},"paging":{"cursors":{"after":"ODQ0NjM5MTg4ODg2MDkz","before":"ODQ0NjM5MTg4ODg2MDkz"},"next":"https://graph.facebook.com/229244010425617_844637885552890/comments?limit=1&summary=1&after=ODQ0NjM5MTg4ODg2MDkz"},"summary":{"order":"chronological","total_count":3}}}