{"id":"229244010425617_844702402213105","type":"photo","object_id":"677229209002343","picture":"https://fbcdn-photos-e-a.akamaihd.net/hphotos-ak-ash3/t1.0-0/10170745_677229209002343_1235265672_s.jpg","link":"https://www.facebook.com/photo.php?fbid=677229209002343&set=gm.844702402213105&type=1&relevant_count=1","from":{"id":"100001458099624","name":"Kham Pha"},"message":"Nobita ngốc nghếch mà nhiều lúc cũng có những câu rất chí lý :)","created_time":"2014-04-03T15:34:35+0000","updated_time":"2014-04-04T00:26:10+0000","likes":{"data":{"100004762171423":{"id":"100004762171423","name":"Nrt Uch"},"100002205448646":{"id":"100002205448646","name":"Dung Tri"},"100002325437073":{"id":"100002325437073","name":"Hoang Hirasu"},"100003032663784":{"id":"100003032663784","name":"Vượt Qua Thử Thách"},"100004375364623":{"id":"100004375364623","name":"Quang Lê"},"100003979269293":{"id":"100003979269293","name":"Đức Nguyễn"},"100007157709202":{"id":"100007157709202","name":"Sau Tất Cả"},"100001591772357":{"id":"100001591772357","name":"Sora Hana"},"100005602390639":{"id":"100005602390639","name":"Long Nguyen"},"100004128252349":{"id":"100004128252349","name":"Vô Ưu"},"1504224275":{"id":"1504224275","name":"Nhí Còi"},"100000267443070":{"id":"100000267443070","name":"Kani Chan"},"100007728841810":{"id":"100007728841810","name":"Rắc Iốt"},"100004569372269":{"id":"100004569372269","name":"Thuỷ Nguyễn"},"100005776355988":{"id":"100005776355988","name":"Phiên Phiên"},"100000516210564":{"id":"100000516210564","name":"Nguyen Thi Ha"},"100002911187986":{"id":"100002911187986","name":"Nghia Bui"},"100000096031205":{"id":"100000096031205","name":"Ngọc Ân"},"100007806284139":{"id":"100007806284139","name":"Đặng Yên"},"100001826438940":{"id":"100001826438940","name":"Huế Phạm"},"100004101991124":{"id":"100004101991124","name":"Cau Chu Nho"},"100000258880251":{"id":"100000258880251","name":"Carson Yang"},"1778384200":{"id":"1778384200","name":"Trần Hạnh"},"100000240706191":{"id":"100000240706191","name":"U' Bồng Bột"},"100003977703228":{"id":"100003977703228","name":"Ki Yu"},"100001336420260":{"id":"100001336420260","name":"Trường Phong"},"1766182958":{"id":"1766182958","name":"Thuy Dung Nguyen"},"100001077416551":{"id":"100001077416551","name":"Yasushi Sato"},"100007200786191":{"id":"100007200786191","name":"Tuan Hoang Trong"},"100002087805613":{"id":"100002087805613","name":"Hiền Long"},"100006014164976":{"id":"100006014164976","name":"Bình Bông"},"100006712992259":{"id":"100006712992259","name":"Thảo Lê"},"100001526631937":{"id":"100001526631937","name":"Tường Oanh Mineko"},"100002954712134":{"id":"100002954712134","name":"La Quang Tiến"},"100003189517409":{"id":"100003189517409","name":"Thục Nữ Cải Trang"},"1764773046":{"id":"1764773046","name":"Thu Thao Bui"},"100000831758751":{"id":"100000831758751","name":"Phạm Thị Tâm Hương"},"100008133690691":{"id":"100008133690691","name":"Con Yêu Mẹ"},"100007272394237":{"id":"100007272394237","name":"Ivy Nguyen"},"100005058398238":{"id":"100005058398238","name":"Minh Thư Nguyễn"},"100003144794147":{"id":"100003144794147","name":"かわいい ぶた"},"100003729790119":{"id":"100003729790119","name":"Ai Ly"},"1837866264":{"id":"1837866264","name":"QuynhDo Anh"},"100000634863165":{"id":"100000634863165","name":"Trứng Rán"},"100000266887521":{"id":"100000266887521","name":"Hương Lê Thu"},"100000020988042":{"id":"100000020988042","name":"Viet Huong Nguyen"},"100000166766026":{"id":"100000166766026","name":"Challi Lai"},"100000073698728":{"id":"100000073698728","name":"Hương Giang"},"1033579777":{"id":"1033579777","name":"Kam Chickie"},"100000377362487":{"id":"100000377362487","name":"Tập Quên"},"100007468213697":{"id":"100007468213697","name":"Minh Cảnh"},"100004141182807":{"id":"100004141182807","name":"Duc Thinh"},"100000983811825":{"id":"100000983811825","name":"Hoa Lê"},"100004295739853":{"id":"100004295739853","name":"Mẫn Đức Trung"},"100001995633843":{"id":"100001995633843","name":"Yasunobu Toda"},"100000110765909":{"id":"100000110765909","name":"Thảo Nguyễn"},"100003232645048":{"id":"100003232645048","name":"Khung Long Bao Chua"},"100003142671913":{"id":"100003142671913","name":"Hoa Hồng Đen"},"100007798380150":{"id":"100007798380150","name":"海外移住"},"100000431318772":{"id":"100000431318772","name":"Vu Mo Lun"},"100003985637961":{"id":"100003985637961","name":"Dũng Dơi"},"100000500260636":{"id":"100000500260636","name":"Lưu Nguyễn Thảo Tiên"},"100006494739209":{"id":"100006494739209","name":"Hanh Giang Phuoc"},"100000918871201":{"id":"100000918871201","name":"Thang PhanVan"},"100007293188338":{"id":"100007293188338","name":"Dương Lê"},"100006846840777":{"id":"100006846840777","name":"Đi Tìm Tương Lai"},"100002145517146":{"id":"100002145517146","name":"Kazuhide Ito"},"100002999756689":{"id":"100002999756689","name":"Lắng Nghe"},"100003161050124":{"id":"100003161050124","name":"Minh Nguyen"},"100003609836099":{"id":"100003609836099","name":"長谷川琢"},"100002348937847":{"id":"100002348937847","name":"Xanh Le Te"},"100003209645288":{"id":"100003209645288","name":"Quân Nguyễn Minh"},"100004046108560":{"id":"100004046108560","name":"MiSo Cochunho"},"1571155341":{"id":"1571155341","name":"Trang Rubie"},"100001521129449":{"id":"100001521129449","name":"Thiep Oumu"},"100000006500209":{"id":"100000006500209","name":"Hai Nhy"},"100003540308544":{"id":"100003540308544","name":"Nguyen Hoang Ba"},"100000720686402":{"id":"100000720686402","name":"Ngọc Sơn Trần"},"100001606549268":{"id":"100001606549268","name":"Back Nguyễn Như"},"100004299969653":{"id":"100004299969653","name":"Tập Quên Tất Cả"},"100002975299796":{"id":"100002975299796","name":"Trinh Tuan Anh"},"100002508122689":{"id":"100002508122689","name":"Vũ Mạnh Tuấn"},"100002820525919":{"id":"100002820525919","name":"Papy Cry"},"100003818384066":{"id":"100003818384066","name":"Suisei Trần"},"100004286912548":{"id":"100004286912548","name":"Le Te"},"1145584654":{"id":"1145584654","name":"Tobe Tung"},"100003040551362":{"id":"100003040551362","name":"Hạnh Hoàng"},"100001636105083":{"id":"100001636105083","name":"Zdungx Dũng"},"1535104031":{"id":"1535104031","name":"Hoang Nguyen"},"100005887419564":{"id":"100005887419564","name":"Cười Một Mình"},"100004492933662":{"id":"100004492933662","name":"Sorakira Bui"},"100001393959821":{"id":"100001393959821","name":"Le Ngoc Linh Nhi"},"100006011495971":{"id":"100006011495971","name":"Hà Siêu Ú"},"100003657473061":{"id":"100003657473061","name":"Vu Trung Kien"},"100006905583272":{"id":"100006905583272","name":"Nguyen Anh Tuan"},"100001853769326":{"id":"100001853769326","name":"Thương Vũ"},"100002208992050":{"id":"100002208992050","name":"Nhan Mai Van"},"1114300791":{"id":"1114300791","name":"Tra Mi"},"100000328742646":{"id":"100000328742646","name":"Trần Giáp"},"100002911599722":{"id":"100002911599722","name":"Vincente Tuyền Tinh Tế"},"100005696405294":{"id":"100005696405294","name":"Khackhac Luan"},"100000052661831":{"id":"100000052661831","name":"Shuntoku Pham"},"100001432462223":{"id":"100001432462223","name":"Truong Nguyen"},"100003553243152":{"id":"100003553243152","name":"Oanh Nguyen"},"100006734168968":{"id":"100006734168968","name":"Tiểu Nhân Mã"},"100000067699837":{"id":"100000067699837","name":"Nguyễn Hải Phong"},"100003191306428":{"id":"100003191306428","name":"Vân Anh Nguyễn"},"1654094913":{"id":"1654094913","name":"Chu Pi"},"100006553440513":{"id":"100006553440513","name":"Hương Ngọc Mai"},"100000303753500":{"id":"100000303753500","name":"Đỗ Tiến"},"100004877281136":{"id":"100004877281136","name":"Yuki Ori"},"100001759587037":{"id":"100001759587037","name":"Kiều Linhh"},"100007857724917":{"id":"100007857724917","name":"Harry Pham"},"569263718":{"id":"569263718","name":"Phuong Thao Tran"},"100005028996981":{"id":"100005028996981","name":"Nguyet Moon"},"100003666736429":{"id":"100003666736429","name":"Saobang Nguyen"},"100002746877200":{"id":"100002746877200","name":"Duy Vuong"},"100001597573934":{"id":"100001597573934","name":"Ly Chu"},"100001338846010":{"id":"100001338846010","name":"Sơn Nguyễn Minh"},"100000302315094":{"id":"100000302315094","name":"Lang Thang"},"100003323382657":{"id":"100003323382657","name":"Quynh Giang Le"},"100007015029011":{"id":"100007015029011","name":"Hao Hai Duong"},"1146680551":{"id":"1146680551","name":"優しい なぁ"},"100001184851573":{"id":"100001184851573","name":"Tominaga Sei"},"100003546942984":{"id":"100003546942984","name":"Nhat Quang Hoang"},"100001416272263":{"id":"100001416272263","name":"Mai PB"},"100001359798024":{"id":"100001359798024","name":"November Gi"},"100003913383051":{"id":"100003913383051","name":"Tho Tran"},"100003918997915":{"id":"100003918997915","name":"Nguyễn Văn Còn"},"1283298041":{"id":"1283298041","name":"Búa Đức Thanh"},"100000917490385":{"id":"100000917490385","name":"Vân Anh Hoàng"},"100000257464771":{"id":"100000257464771","name":"Trương Ngọc Điệp"},"100005866751996":{"id":"100005866751996","name":"Nam Nguyen"},"100005024348771":{"id":"100005024348771","name":"Long Hoàng"},"100001595320966":{"id":"100001595320966","name":"Nguyễn Nga"}},"paging":{"cursors":{"after":"MTAwMDA0NzYyMTcxNDIz","before":"MTAwMDA0NzYyMTcxNDIz"},"next":"https://graph.facebook.com/229244010425617_844702402213105/likes?limit=1&summary=1&after=MTAwMDA0NzYyMTcxNDIz"},"summary":{"total_count":136}},"comments":{"data":{"844703952212950":{"id":"844703952212950","from":{"id":"1146680551","name":"優しい なぁ"},"message":"作家と違いだよ","can_remove":false,"created_time":"2014-04-03T15:36:15+0000","like_count":0,"user_likes":false},"844706308879381":{"id":"844706308879381","from":{"id":"100000198219367","name":"Chang Jiang"},"message":"đấy là rút từ kinh nghiệm đầy mình của Nô mà :))","can_remove":false,"created_time":"2014-04-03T15:40:37+0000","like_count":0,"user_likes":false},"844706655546013":{"id":"844706655546013","from":{"id":"100005866751996","name":"Nam Nguyen"},"message":"その通りだな〜！！(^o^)","can_remove":false,"created_time":"2014-04-03T15:41:12+0000","like_count":0,"user_likes":false},"844707728879239":{"id":"844707728879239","from":{"id":"100002802761628","name":"Việt Đức"},"message":"優しいなぁさんは直していただけませんか？お願いします！","can_remove":false,"created_time":"2014-04-03T15:42:06+0000","like_count":0,"user_likes":false},"844708105545868":{"id":"844708105545868","from":{"id":"1146680551","name":"優しい なぁ"},"message":"何が？","can_remove":false,"created_time":"2014-04-03T15:43:03+0000","like_count":0,"user_likes":false},"844710448878967":{"id":"844710448878967","from":{"id":"100002802761628","name":"Việt Đức"},"message":"文法は違うか？","can_remove":false,"created_time":"2014-04-03T15:46:34+0000","like_count":1,"user_likes":false},"844711492212196":{"id":"844711492212196","from":{"id":"100003340002245","name":"Nguyenthe Trac"},"message":"nanka?","can_remove":false,"created_time":"2014-04-03T15:48:55+0000","like_count":0,"user_likes":false},"844711582212187":{"id":"844711582212187","from":{"id":"100003340002245","name":"Nguyenthe Trac"},"message":":v nanka?","can_remove":false,"created_time":"2014-04-03T15:49:01+0000","like_count":0,"user_likes":false},"844711608878851":{"id":"844711608878851","from":{"id":"1146680551","name":"優しい なぁ"},"message":"何を直す？","can_remove":false,"created_time":"2014-04-03T15:49:06+0000","like_count":0,"user_likes":false},"844715125545166":{"id":"844715125545166","from":{"id":"100005310091804","name":"Han Yo"},"message":"xin ít sub -_-","can_remove":false,"created_time":"2014-04-03T15:55:33+0000","like_count":0,"user_likes":false},"844715978878414":{"id":"844715978878414","from":{"id":"1146680551","name":"優しい なぁ"},"message":"Điều tối kỵ nhất là Chìm đắm trong việc nghĩ bản thân mình là kẻ vô tích sự :3","can_remove":false,"created_time":"2014-04-03T15:58:00+0000","like_count":12,"user_likes":false},"844718318878180":{"id":"844718318878180","from":{"id":"100005310091804","name":"Han Yo"},"message":"dịch hay thế. có thể cho e nhữg  từ mơí trog câu k ạ,senpai ?!?","can_remove":false,"created_time":"2014-04-03T16:02:21+0000","like_count":1,"user_likes":false},"844720528877959":{"id":"844720528877959","from":{"id":"1146680551","name":"優しい なぁ"},"message":"Hỏi người post bài ấy em :3","can_remove":false,"created_time":"2014-04-03T16:07:00+0000","like_count":0,"user_likes":false},"844725705544108":{"id":"844725705544108","from":{"id":"100001458099624","name":"Kham Pha"},"message":"\"Thứ suy nghĩ không bao giờ khá được là việc chìm đắm trong ý nghĩ rằng bản thân mình là đồ bỏ đi\" \nOhno Abbey先生、皆さんはのびた君の言葉を説明して欲しいですよ。助けていただけませんか？","message_tags":[{"id":"100006025868140","name":"Ohno Abbey","type":"user","offset":100,"length":10}],"can_remove":false,"created_time":"2014-04-03T16:16:33+0000","like_count":6,"user_likes":false},"844729782210367":{"id":"844729782210367","from":{"id":"1146680551","name":"優しい なぁ"},"message":"Dịch dài mà hay thế :3","can_remove":false,"created_time":"2014-04-03T16:24:07+0000","like_count":0,"user_likes":false},"844738148876197":{"id":"844738148876197","from":{"id":"100002508122689","name":"Vũ Mạnh Tuấn"},"message":"優しい なぁ：điều tối kị nhất là điều k nên làm, ko được làm.\nVậy hóa ra cái câu của bác là cổ vũ cho cái việc nghĩ bản thân là kẻ vô tích sự ah","message_tags":[{"id":"1146680551","name":"優しい なぁ","type":"user","offset":0,"length":6}],"can_remove":false,"created_time":"2014-04-03T16:38:18+0000","like_count":0,"user_likes":false},"844740398875972":{"id":"844740398875972","from":{"id":"1146680551","name":"優しい なぁ"},"message":"Phủ định với phủ định là thành khẳng định mà :)","can_remove":false,"created_time":"2014-04-03T16:43:37+0000","like_count":1,"user_likes":false},"844741342209211":{"id":"844741342209211","from":{"id":"100002508122689","name":"Vũ Mạnh Tuấn"},"message":"Đúng là phủ định với phủ định thành khẳng định.\nBác nghĩ lại xem: bt người ta nói : Cấm đ** bậy hay Cấm không đ** bậy.","can_remove":false,"created_time":"2014-04-03T16:45:14+0000","like_count":2,"user_likes":false},"844742675542411":{"id":"844742675542411","from":{"id":"1146680551","name":"優しい なぁ"},"message":"A ghi chủ ngữ rất rõ ràng mà\n=> Điều tối kỵ nhật LÀ không đc nghĩ mình là kẻ vô dụng.\nHiểu chứ?","can_remove":false,"created_time":"2014-04-03T16:47:31+0000","like_count":1,"user_likes":false},"844743782208967":{"id":"844743782208967","from":{"id":"100002508122689","name":"Vũ Mạnh Tuấn"},"message":"nếu a rạch ròi ra như thế thì k có vấn đề gì, nhưng để bt thì câu nào thuận tại hơn nhỉ","can_remove":false,"created_time":"2014-04-03T16:50:34+0000","like_count":2,"user_likes":false},"844743788875633":{"id":"844743788875633","from":{"id":"100001458099624","name":"Kham Pha"},"message":"武 俊 chú soi giỏi đấy :v","message_tags":[{"id":"100002508122689","name":"武 俊","type":"user","offset":0,"length":3}],"can_remove":false,"created_time":"2014-04-03T16:50:37+0000","like_count":0,"user_likes":false},"844744295542249":{"id":"844744295542249","from":{"id":"1146680551","name":"優しい なぁ"},"message":"Cảm ơn mấy thánh soi, a sửa lại rồi.","can_remove":false,"created_time":"2014-04-03T16:51:22+0000","like_count":0,"user_likes":false},"844744462208899":{"id":"844744462208899","from":{"id":"100002508122689","name":"Vũ Mạnh Tuấn"},"message":"cảm ơn tinh thần tiếp thu của anh ạ :v","can_remove":false,"created_time":"2014-04-03T16:51:45+0000","like_count":0,"user_likes":false},"844745095542169":{"id":"844745095542169","from":{"id":"1146680551","name":"優しい なぁ"},"message":"","can_remove":false,"created_time":"2014-04-03T16:53:10+0000","like_count":1,"user_likes":false},"844751118874900":{"id":"844751118874900","from":{"id":"100000226369400","name":"Vạn Lý Độc Hành"},"message":"Cho e xin làm cover ạ :3","can_remove":false,"created_time":"2014-04-03T17:04:25+0000","like_count":0,"user_likes":false},"844752995541379":{"id":"844752995541379","from":{"id":"1146680551","name":"優しい なぁ"},"message":"Không cho :3","can_remove":false,"created_time":"2014-04-03T17:05:53+0000","like_count":1,"user_likes":false},"844753435541335":{"id":"844753435541335","from":{"id":"100000226369400","name":"Vạn Lý Độc Hành"},"message":"Cái này e xin a Khám Phá nhé :3 Mà vừa thay nó báo ảnh ko đủ rộng làm cover nên k đc :'(","can_remove":false,"created_time":"2014-04-03T17:06:54+0000","like_count":0,"user_likes":false},"844761108873901":{"id":"844761108873901","from":{"id":"100000328742646","name":"Trần Giáp"},"message":"ảnh to cho bạn :3 https://lh3.googleusercontent.com/-GRm6wBN60Os/TqYVPjh2ipI/AAAAAAAAKLk/nstOHA0aO_c/s640/blogger-image--103474817.jpg","can_remove":false,"created_time":"2014-04-03T17:23:59+0000","like_count":2,"user_likes":false},"844761522207193":{"id":"844761522207193","from":{"id":"100000226369400","name":"Vạn Lý Độc Hành"},"message":"Vâng e xin,e cám ơn ạ :3","can_remove":false,"created_time":"2014-04-03T17:25:17+0000","like_count":0,"user_likes":false},"844864655530213":{"id":"844864655530213","from":{"id":"100006846840777","name":"Đi Tìm Tương Lai"},"message":"Ai dịch giúp e với ạ","can_remove":false,"created_time":"2014-04-03T21:46:00+0000","like_count":0,"user_likes":false},"844874858862526":{"id":"844874858862526","from":{"id":"100003985637961","name":"Dũng Dơi"},"message":"điều tối kị nhất đó là nghĩ rằng bản thân mình làm cái gì cũng không được :v","can_remove":false,"created_time":"2014-04-03T22:18:57+0000","like_count":7,"user_likes":false},"844911265525552":{"id":"844911265525552","from":{"id":"1033579777","name":"Kam Chickie"},"message":"câu này hay quá :3","can_remove":false,"created_time":"2014-04-04T00:26:10+0000","like_count":0,"user_likes":false}},"paging":{"cursors":{"after":"ODQ0NzAzOTUyMjEyOTUw","before":"ODQ0NzAzOTUyMjEyOTUw"},"next":"https://graph.facebook.com/229244010425617_844702402213105/comments?limit=1&summary=1&after=ODQ0NzAzOTUyMjEyOTUw"},"summary":{"order":"chronological","total_count":33}}}