{"id":"229244010425617_844939942189351","type":"status","from":{"id":"100008041958808","name":"Hikaru Hoshi"},"message":"Các anh chị đi trước cho em hỏi, em định mang những đồ cá nhân như dầu gội đầu(chai), khử mùi,p/s thì có được mang theo(hành lý gửi) không ạ? Vì  em sợ ban đầu sang chưa đi mua được. Và ngoài ra, những đồ khô mình mang có cần bọc giấy bạc không ạ?  Em xin cảm ơn mọi người!","created_time":"2014-04-04T01:53:28+0000","updated_time":"2014-04-04T11:40:57+0000","likes":{"data":{"100007938450435":{"id":"100007938450435","name":"Miruku Chokoreeto"},"100005443599696":{"id":"100005443599696","name":"Son Kent"},"100002855090345":{"id":"100002855090345","name":"Xuan Huy"},"100006263888044":{"id":"100006263888044","name":"Hoàng Oanh"},"100002959135962":{"id":"100002959135962","name":"Duong Nguyen Van"},"100007987839652":{"id":"100007987839652","name":"Đinh Thùy Linh"}},"paging":{"cursors":{"after":"MTAwMDA3OTM4NDUwNDM1","before":"MTAwMDA3OTM4NDUwNDM1"},"next":"https://graph.facebook.com/229244010425617_844939942189351/likes?limit=1&summary=1&after=MTAwMDA3OTM4NDUwNDM1"},"summary":{"total_count":6}},"comments":{"data":{"844940802189265":{"id":"844940802189265","from":{"id":"100001899363306","name":"Ruby Nguyen"},"message":"Dầu gội mang mấy gói đi thôi e ạ, bên này rẻ lắm. Đồ khô buộc kín cho khỏi mùi là ok r.","can_remove":false,"created_time":"2014-04-04T01:55:48+0000","like_count":1,"user_likes":false},"844941408855871":{"id":"844941408855871","from":{"id":"100002959135962","name":"Duong Nguyen Van"},"message":"cái gì cũng mang được trư hàng quốc cấm","can_remove":false,"created_time":"2014-04-04T01:58:06+0000","like_count":1,"user_likes":false},"844943562188989":{"id":"844943562188989","from":{"id":"100000953918208","name":"Trần Đình Lộc"},"message":"Gói báo là được rồi k cần giấy bạc.","can_remove":false,"created_time":"2014-04-04T02:04:11+0000","like_count":1,"user_likes":false},"844962122187133":{"id":"844962122187133","from":{"id":"100006827047311","name":"Chu Chu"},"message":"mang chà bông thịt heo ( ruốc) đi được không nhỉ?","can_remove":false,"created_time":"2014-04-04T02:42:35+0000","like_count":1,"user_likes":false},"844970515519627":{"id":"844970515519627","from":{"id":"100008041958808","name":"Hikaru Hoshi"},"message":"mình thấy mọi người mang đi được Chu Chu ah.","can_remove":false,"created_time":"2014-04-04T03:11:58+0000","like_count":0,"user_likes":false},"844970972186248":{"id":"844970972186248","from":{"id":"100007642115476","name":"Kim Oanh Nguyen Thi"},"message":"tat ca cho vao hanh ly ky gui dc b ah, ko can boc giay bac dau, co mang thit cho thi boc can than vao la ok","can_remove":false,"created_time":"2014-04-04T03:13:50+0000","like_count":1,"user_likes":false},"844971158852896":{"id":"844971158852896","from":{"id":"100007642115476","name":"Kim Oanh Nguyen Thi"},"message":"mang ruoc dc b chu chu ah","can_remove":false,"created_time":"2014-04-04T03:14:24+0000","like_count":0,"user_likes":false},"844972062186139":{"id":"844972062186139","from":{"id":"100008041958808","name":"Hikaru Hoshi"},"message":"Vâng, em cảm ơn chị Kim Oanh Nguyen Thi  ah.","message_tags":[{"id":"100007642115476","name":"Kim Oanh Nguyen Thi","type":"user","offset":20,"length":19}],"can_remove":false,"created_time":"2014-04-04T03:17:48+0000","like_count":1,"user_likes":false},"845000138849998":{"id":"845000138849998","from":{"id":"100006827047311","name":"Chu Chu"},"message":"Tại hôm Tết đi du lịch Nhật, sân bay ở Osaka, lúc lấy hành lý gửi mình thấy họ đưa cái bảng hỏi có mang đồ ăn là thịt ko, lấy hết hành lý rồi thì lúc ra ngoài bắt mở hết ra để khám xét bằng tay nữa","can_remove":false,"created_time":"2014-04-04T04:38:42+0000","like_count":0,"user_likes":false},"845165448833467":{"id":"845165448833467","from":{"id":"100004258027371","name":"Rang Nguyen"},"message":"Nhớ mang theo nhiều nhiều mì tôm nhé","can_remove":false,"created_time":"2014-04-04T10:16:29+0000","like_count":1,"user_likes":false},"845266515490027":{"id":"845266515490027","from":{"id":"100004303683227","name":"Hiệp Gà Víp"},"message":"Dầu gội k cần bọc sao .cá khô thì làm tnao .ace","can_remove":false,"created_time":"2014-04-04T11:38:26+0000","like_count":0,"user_likes":false},"845267675489911":{"id":"845267675489911","from":{"id":"100002945776077","name":"Hoàng Mạnh Cường"},"message":"mang Gạo đc không các bác","can_remove":false,"created_time":"2014-04-04T11:40:57+0000","like_count":0,"user_likes":false}},"paging":{"cursors":{"after":"ODQ0OTQwODAyMTg5MjY1","before":"ODQ0OTQwODAyMTg5MjY1"},"next":"https://graph.facebook.com/229244010425617_844939942189351/comments?limit=1&summary=1&after=ODQ0OTQwODAyMTg5MjY1"},"summary":{"order":"chronological","total_count":12}}}