{"id":"229244010425617_844913295525349","type":"photo","object_id":"1406310302972236","picture":"https://fbcdn-photos-d-a.akamaihd.net/hphotos-ak-prn2/t1.0-0/1375198_1406310302972236_832854516_s.jpg","link":"https://www.facebook.com/photo.php?fbid=1406310302972236&set=gm.844913295525349&type=1&relevant_count=1","from":{"id":"100007798380150","name":"海外移住"},"message":"おはようございます。東京は今日も曇りです。桜散らないで～(´Д｀)","created_time":"2014-04-04T00:31:40+0000","updated_time":"2014-04-06T06:59:01+0000","likes":{"data":{"100001754136107":{"id":"100001754136107","name":"Nguyễn Tuấn Vũ"},"100003168965222":{"id":"100003168965222","name":"Bùi Mai Vân"},"100003762427351":{"id":"100003762427351","name":"Hiroshi Yasu Oki"},"100000045271667":{"id":"100000045271667","name":"Nam Thai Nguyen"},"100003804107246":{"id":"100003804107246","name":"Bà Già"},"100008078559483":{"id":"100008078559483","name":"ประสม ธัญพิทยาพาณิชย์"},"100004732893408":{"id":"100004732893408","name":"Syuiti  Ota"},"100008136190669":{"id":"100008136190669","name":"Aishiteiru Anatao"},"100001035951210":{"id":"100001035951210","name":"Yoshihisa Shinozuka"},"100004512333714":{"id":"100004512333714","name":"Đạt Titikaka"},"100006603036735":{"id":"100006603036735","name":"Erica Miki Nakamura"},"100002000138969":{"id":"100002000138969","name":"Hidetoshi Iwasaki"},"100004258027371":{"id":"100004258027371","name":"Rang Nguyen"},"100004461005204":{"id":"100004461005204","name":"San Shain"},"1227859163":{"id":"1227859163","name":"Pham Hung Thinh"},"100006735309637":{"id":"100006735309637","name":"Bu-Ta Kute Nguyen"},"100003973378919":{"id":"100003973378919","name":"Thảo Nguyên"},"100000279494197":{"id":"100000279494197","name":"My Loan"},"100003878410014":{"id":"100003878410014","name":"Sumie Matsuo"},"100005757070446":{"id":"100005757070446","name":"Vu Quang"},"100007961291110":{"id":"100007961291110","name":"Làm Lại Từ Đầu"},"100006907235659":{"id":"100006907235659","name":"Thao Van"},"100002667117211":{"id":"100002667117211","name":"Nguyễn Cường"},"100004700732681":{"id":"100004700732681","name":"Coxanh Pham"},"100000110765909":{"id":"100000110765909","name":"Thảo Nguyễn"},"100001056100850":{"id":"100001056100850","name":"間野目香織"},"100003227043397":{"id":"100003227043397","name":"Akatsuki Yuuki"},"100007554789841":{"id":"100007554789841","name":"Maki Tasaki"},"100003957878204":{"id":"100003957878204","name":"Ma Kết"},"100004991379931":{"id":"100004991379931","name":"Con Yêu Bố Mẹ"},"100006712992259":{"id":"100006712992259","name":"Thảo Lê"},"100002962424010":{"id":"100002962424010","name":"Emlagi Trongtraitimanh"},"100004072426763":{"id":"100004072426763","name":"Phạm Lương"},"1303217748":{"id":"1303217748","name":"Trinh Thi Thanh Duyen"},"100003192597026":{"id":"100003192597026","name":"Trung Nguyen"},"100001526631937":{"id":"100001526631937","name":"Tường Oanh Mineko"},"100007996688840":{"id":"100007996688840","name":"Dũng Dũng"},"100003916838960":{"id":"100003916838960","name":"Hương Libra"},"100004862467178":{"id":"100004862467178","name":"Thủy Tr"},"1146680551":{"id":"1146680551","name":"優しい なぁ"},"100004619888773":{"id":"100004619888773","name":"Thảo Nguyên Tạ"},"1816269439":{"id":"1816269439","name":"Dao Ngoc"},"100005801442456":{"id":"100005801442456","name":"An Nguyen"},"100003516333935":{"id":"100003516333935","name":"三留弘法"},"100003227211791":{"id":"100003227211791","name":"Lan Lan"},"100003838006869":{"id":"100003838006869","name":"Yukiko Takeshima"},"100003877275415":{"id":"100003877275415","name":"Yuki"},"100007995421886":{"id":"100007995421886","name":"Ừ Anh Sẽ Đợi"},"100001695345798":{"id":"100001695345798","name":"Tyn Aki"},"100005898276999":{"id":"100005898276999","name":"Kí Ức Buồn"},"100005444224792":{"id":"100005444224792","name":"Anna Anh Nheo"},"100006876672293":{"id":"100006876672293","name":"Tí Cô Nương"},"100005977143638":{"id":"100005977143638","name":"Thanh Dangtien"},"569263718":{"id":"569263718","name":"Phuong Thao Tran"},"100003942528766":{"id":"100003942528766","name":"Manabu  Yasui"},"100002839983036":{"id":"100002839983036","name":"Phuong Nguyen"},"100001432462223":{"id":"100001432462223","name":"Truong Nguyen"},"100006638891142":{"id":"100006638891142","name":"Trịnh Thế Định"},"100000495302979":{"id":"100000495302979","name":"Huy Toàn"},"100001338846010":{"id":"100001338846010","name":"Sơn Nguyễn Minh"},"100006011495971":{"id":"100006011495971","name":"Hà Siêu Ú"},"100004367679988":{"id":"100004367679988","name":"Kumi Nguyen"},"100001458099624":{"id":"100001458099624","name":"Kham Pha"},"100005024348771":{"id":"100005024348771","name":"Long Hoàng"},"1535104031":{"id":"1535104031","name":"Hoang Nguyen"},"100001470078978":{"id":"100001470078978","name":"Ganna Chan"},"100002945776077":{"id":"100002945776077","name":"Hoàng Mạnh Cường"},"100005850881917":{"id":"100005850881917","name":"Ngu Ít Thôi"},"100006638161405":{"id":"100006638161405","name":"Daisukina Hito"},"100001233118357":{"id":"100001233118357","name":"Trần Đức Thân"},"100005267382789":{"id":"100005267382789","name":"Tuanvy Doan"},"100004534750384":{"id":"100004534750384","name":"Mãi Khắc Tên Em"},"100007068013838":{"id":"100007068013838","name":"Anh NG"},"100003027515100":{"id":"100003027515100","name":"Hana Yuki"},"100001824172942":{"id":"100001824172942","name":"Phan Van"},"100006872763812":{"id":"100006872763812","name":"Dep Toc"}},"paging":{"cursors":{"after":"MTAwMDAxNzU0MTM2MTA3","before":"MTAwMDAxNzU0MTM2MTA3"},"next":"https://graph.facebook.com/229244010425617_844913295525349/likes?limit=1&summary=1&after=MTAwMDAxNzU0MTM2MTA3"},"summary":{"total_count":76}},"comments":{"data":{"844914985525180":{"id":"844914985525180","from":{"id":"100001824172942","name":"Phan Van"},"message":"Kireiii","can_remove":false,"created_time":"2014-04-04T00:34:31+0000","like_count":1,"user_likes":false},"844917268858285":{"id":"844917268858285","from":{"id":"100005898276999","name":"Kí Ức Buồn"},"message":"","can_remove":false,"created_time":"2014-04-04T00:42:11+0000","like_count":1,"user_likes":false},"844917335524945":{"id":"844917335524945","from":{"id":"100007798380150","name":"海外移住"},"message":"Phan Vanさん　桜の花は本当にきれいですよね！","message_tags":[{"id":"100001824172942","name":"Phan Van","type":"user","offset":0,"length":8}],"can_remove":false,"created_time":"2014-04-04T00:42:27+0000","like_count":1,"user_likes":false},"844918198858192":{"id":"844918198858192","from":{"id":"100001458099624","name":"Kham Pha"},"message":"さくらが大好きだよ。","can_remove":false,"created_time":"2014-04-04T00:44:27+0000","like_count":2,"user_likes":false},"844918922191453":{"id":"844918922191453","from":{"id":"100005898276999","name":"Kí Ức Buồn"},"message":"きれいだね","can_remove":false,"created_time":"2014-04-04T00:46:22+0000","like_count":3,"user_likes":false},"844919528858059":{"id":"844919528858059","from":{"id":"100005898276999","name":"Kí Ức Buồn"},"message":"いいでしょう❓","can_remove":false,"created_time":"2014-04-04T00:48:29+0000","like_count":5,"user_likes":false},"844920122191333":{"id":"844920122191333","from":{"id":"100002839983036","name":"Phuong Nguyen"},"message":"ây za ep","can_remove":false,"created_time":"2014-04-04T00:50:41+0000","like_count":1,"user_likes":false},"844920905524588":{"id":"844920905524588","from":{"id":"100005898276999","name":"Kí Ức Buồn"},"message":"Chim hiền quá. Chim ăn bánh mì. Hì","can_remove":false,"created_time":"2014-04-04T00:53:21+0000","like_count":3,"user_likes":false},"846306578719354":{"id":"846306578719354","from":{"id":"100005023448146","name":"Phung Nguyen"},"message":"tai sao ban lai buon????","can_remove":false,"created_time":"2014-04-06T06:59:01+0000","like_count":2,"user_likes":false}},"paging":{"cursors":{"after":"ODQ0OTE0OTg1NTI1MTgw","before":"ODQ0OTE0OTg1NTI1MTgw"},"next":"https://graph.facebook.com/229244010425617_844913295525349/comments?limit=1&summary=1&after=ODQ0OTE0OTg1NTI1MTgw"},"summary":{"order":"chronological","total_count":9}}}