{"id":"229244010425617_844924405524238","type":"photo","object_id":"1397281950548306","picture":"https://fbcdn-photos-e-a.akamaihd.net/hphotos-ak-frc3/t1.0-0/10151294_1397281950548306_830907290_s.jpg","link":"https://www.facebook.com/photo.php?fbid=1397281950548306&set=pcb.844924405524238&type=1&relevant_count=6","from":{"id":"100007995421886","name":"Ừ Anh Sẽ Đợi"},"message":"さくら 2014","created_time":"2014-04-04T01:05:01+0000","updated_time":"2014-04-04T10:35:59+0000","likes":{"data":{"100006604537364":{"id":"100006604537364","name":"Dan Le"},"100004762171423":{"id":"100004762171423","name":"Nrt Uch"},"100002820525919":{"id":"100002820525919","name":"Papy Cry"},"100005738918380":{"id":"100005738918380","name":"Thanh Tâm"},"100000242885047":{"id":"100000242885047","name":"Ny Trần"},"100001071396824":{"id":"100001071396824","name":"Thanh Binh Le"},"100004254851841":{"id":"100004254851841","name":"Nuong My"},"100003272717174":{"id":"100003272717174","name":"Hieu Nguyen"},"100003568206957":{"id":"100003568206957","name":"Dece Ngthv"},"100002913281005":{"id":"100002913281005","name":"Hà Mã"},"100000402376462":{"id":"100000402376462","name":"Hoan Pham Van"},"100002691020065":{"id":"100002691020065","name":"Kẹo Cảm Xúc Maruko"},"100005622426965":{"id":"100005622426965","name":"Hải Lý Kuro"},"100006514214932":{"id":"100006514214932","name":"Lý Lém Lỉnh"},"100003049561539":{"id":"100003049561539","name":"Nguyễn Kiim Thảo"},"100003961115216":{"id":"100003961115216","name":"Chang Pham"},"100008132528372":{"id":"100008132528372","name":"ズオン ヒエン"},"100004019567931":{"id":"100004019567931","name":"Mo Do"},"100003275658608":{"id":"100003275658608","name":"Đỗ Hữu Phúc"},"100001839738736":{"id":"100001839738736","name":"Son Vu"},"100003011417151":{"id":"100003011417151","name":"Hue Kim"},"100004351478036":{"id":"100004351478036","name":"Ngán Cái Cuộc Đời"},"100003182647292":{"id":"100003182647292","name":"Trương Thị Lan Phương"},"100005003047692":{"id":"100005003047692","name":"Thanh Mèo"},"100000146040566":{"id":"100000146040566","name":"Loan Trần"},"100006627121749":{"id":"100006627121749","name":"Cỏ Kim"},"100002963737004":{"id":"100002963737004","name":"Hà Phùng"},"100000279494197":{"id":"100000279494197","name":"My Loan"},"100007955791330":{"id":"100007955791330","name":"Vu Minh Hoạt"},"100001608503761":{"id":"100001608503761","name":"Thế Lữ"},"100006638891142":{"id":"100006638891142","name":"Trịnh Thế Định"},"100001256731971":{"id":"100001256731971","name":"Khải Đăng Dũng"},"100003132750382":{"id":"100003132750382","name":"Trung Quân"},"100002294571139":{"id":"100002294571139","name":"Licy Rin"},"100006734168968":{"id":"100006734168968","name":"Tiểu Nhân Mã"},"100003672713217":{"id":"100003672713217","name":"Trống Rỗng Trống Rỗng"},"100001738887873":{"id":"100001738887873","name":"Hoang Le"},"100007132388972":{"id":"100007132388972","name":"Van Anh"},"100001469154202":{"id":"100001469154202","name":"Linh Miu Nguyen"},"100000300294659":{"id":"100000300294659","name":"Kim Yên"},"100007449186315":{"id":"100007449186315","name":"Cấn Thanh Tùng"},"100005211189763":{"id":"100005211189763","name":"Oliveu Cchann"},"100005798250165":{"id":"100005798250165","name":"Trang Nguyễn"},"100001738431359":{"id":"100001738431359","name":"Phuongthao Nguyen"},"100003945581110":{"id":"100003945581110","name":"Bí Ngô"},"100004569372269":{"id":"100004569372269","name":"Thuỷ Nguyễn"},"100001786404410":{"id":"100001786404410","name":"Huệ Nguyễn"},"100007027184090":{"id":"100007027184090","name":"Xuan My"},"100003206782592":{"id":"100003206782592","name":"Nhan Tran"},"100002527131594":{"id":"100002527131594","name":"Nhat Pham"},"100001415407078":{"id":"100001415407078","name":"Kha Pham"},"100001973246849":{"id":"100001973246849","name":"Pho Mai Ga Cuon"},"100006271507308":{"id":"100006271507308","name":"Bùi Quỳnh Anh XS"},"100007806284139":{"id":"100007806284139","name":"Đặng Yên"},"100003205024849":{"id":"100003205024849","name":"Thanh Do Nguyen"},"100004528082100":{"id":"100004528082100","name":"フン グェン"},"100002794765745":{"id":"100002794765745","name":"Nguyễn Phong"},"100003819875708":{"id":"100003819875708","name":"Piglazy Pham"},"100004249235170":{"id":"100004249235170","name":"Jin Kyoh"},"100001592953699":{"id":"100001592953699","name":"Trúc Phạm"},"100001583708890":{"id":"100001583708890","name":"Dung Pé Heo"},"100003762427351":{"id":"100003762427351","name":"Hiroshi Yasu Oki"},"100002615664668":{"id":"100002615664668","name":"PuPu Phương Elf"},"100000311774593":{"id":"100000311774593","name":"Kieu My"},"100003466287943":{"id":"100003466287943","name":"Kim Chi Saki Loyal"},"100006523716139":{"id":"100006523716139","name":"Hung Huy"},"100005396618355":{"id":"100005396618355","name":"Ông Nội Mày Đây"},"100003709398683":{"id":"100003709398683","name":"Quynh Nguyen"},"100007688081240":{"id":"100007688081240","name":"Nguyễn Đức Lượng"},"100006513963367":{"id":"100006513963367","name":"Chinhchinh Lêlê"},"100001216346807":{"id":"100001216346807","name":"Anh Nguyễn"},"100006534041194":{"id":"100006534041194","name":"Vuong Long Tran"},"100005563322933":{"id":"100005563322933","name":"Nguyễn Trang"},"100007731070282":{"id":"100007731070282","name":"Hanh Le"},"100001526631937":{"id":"100001526631937","name":"Tường Oanh Mineko"},"100003285383982":{"id":"100003285383982","name":"Yume Maboroshi"},"1234763221":{"id":"1234763221","name":"Samatha Sam"},"100008077627185":{"id":"100008077627185","name":"Yumi San"},"100004271412499":{"id":"100004271412499","name":"Vũ Nghĩa"},"100006846840777":{"id":"100006846840777","name":"Đi Tìm Tương Lai"},"100006614261300":{"id":"100006614261300","name":"Tao Cao Cường Đây"},"100006712992259":{"id":"100006712992259","name":"Thảo Lê"},"100006590884923":{"id":"100006590884923","name":"Rubi Nguyễn"},"100002962424010":{"id":"100002962424010","name":"Emlagi Trongtraitimanh"},"100006718418391":{"id":"100006718418391","name":"Hà Quân"},"100007068013838":{"id":"100007068013838","name":"Anh NG"},"100003471933847":{"id":"100003471933847","name":"Kieu Anh Nguyen"},"100001066462200":{"id":"100001066462200","name":"Cẩm Nhung Mika"},"100003167566092":{"id":"100003167566092","name":"マイ スアン サン"},"100003726625381":{"id":"100003726625381","name":"Thao Tran"},"100004694253428":{"id":"100004694253428","name":"Yến Nguyễn"},"100003993641838":{"id":"100003993641838","name":"Hc Hâm"},"100001997065377":{"id":"100001997065377","name":"Võ Minh Trang"},"100003992111176":{"id":"100003992111176","name":"Nam Tào"},"100001233118357":{"id":"100001233118357","name":"Trần Đức Thân"},"100006382505425":{"id":"100006382505425","name":"Linh Tú"},"100004068174376":{"id":"100004068174376","name":"Luong Thao"},"100003916838960":{"id":"100003916838960","name":"Hương Libra"},"569263718":{"id":"569263718","name":"Phuong Thao Tran"},"100003676414929":{"id":"100003676414929","name":"Au Kute"},"100006251103362":{"id":"100006251103362","name":"Lâm Thảo"},"100003143534122":{"id":"100003143534122","name":"Thuong Hoai"},"100001695345798":{"id":"100001695345798","name":"Tyn Aki"},"100003232645048":{"id":"100003232645048","name":"Khung Long Bao Chua"},"100005007457664":{"id":"100005007457664","name":"Băng Tan"},"100001824172942":{"id":"100001824172942","name":"Phan Van"},"100006509792552":{"id":"100006509792552","name":"Phuong Le"},"100001458099624":{"id":"100001458099624","name":"Kham Pha"},"100007055220627":{"id":"100007055220627","name":"Khoảnh Khắc"},"1416265619":{"id":"1416265619","name":"Starwar Bbj"},"100001432462223":{"id":"100001432462223","name":"Truong Nguyen"},"100007995421886":{"id":"100007995421886","name":"Ừ Anh Sẽ Đợi"}},"paging":{"cursors":{"after":"MTAwMDA2NjA0NTM3MzY0","before":"MTAwMDA2NjA0NTM3MzY0"},"next":"https://graph.facebook.com/229244010425617_844924405524238/likes?limit=1&summary=1&after=MTAwMDA2NjA0NTM3MzY0"},"summary":{"total_count":113}},"comments":{"data":{"844966878853324":{"id":"844966878853324","from":{"id":"100007068013838","name":"Anh NG"},"message":"Hà Phương này chị","message_tags":[{"id":"100006113144074","name":"Hà Phương","type":"user","offset":0,"length":9}],"can_remove":false,"created_time":"2014-04-04T02:58:26+0000","like_count":0,"user_likes":false},"844968978853114":{"id":"844968978853114","from":{"id":"100006712992259","name":"Thảo Lê"},"message":"đẹp quá","can_remove":false,"created_time":"2014-04-04T03:05:18+0000","like_count":1,"user_likes":false},"844969358853076":{"id":"844969358853076","from":{"id":"100006712992259","name":"Thảo Lê"},"message":". 東京　ạ. hehe","can_remove":false,"created_time":"2014-04-04T03:06:52+0000","like_count":0,"user_likes":false},"844969768853035":{"id":"844969768853035","from":{"id":"100007995421886","name":"Ừ Anh Sẽ Đợi"},"message":"そです","can_remove":false,"created_time":"2014-04-04T03:08:23+0000","like_count":0,"user_likes":false},"844970062186339":{"id":"844970062186339","from":{"id":"100006712992259","name":"Thảo Lê"},"message":"oh. khì. Ừ Anh Sẽ Đợi có gần shjnjuku ko ạ","message_tags":[{"id":"100007995421886","name":"Ừ Anh Sẽ Đợi","type":"user","offset":9,"length":12}],"can_remove":false,"created_time":"2014-04-04T03:09:38+0000","like_count":0,"user_likes":false},"844970375519641":{"id":"844970375519641","from":{"id":"100007995421886","name":"Ừ Anh Sẽ Đợi"},"message":"Không mình hiện tại ở 小山","can_remove":false,"created_time":"2014-04-04T03:11:11+0000","like_count":1,"user_likes":false},"844996102183735":{"id":"844996102183735","from":{"id":"100003466287943","name":"Kim Chi Saki Loyal"},"message":"Ôimeoi kirei desune","can_remove":false,"created_time":"2014-04-04T04:28:46+0000","like_count":1,"user_likes":false},"845014588848553":{"id":"845014588848553","from":{"id":"100003819875708","name":"Piglazy Pham"},"message":"đẹp wa","can_remove":false,"created_time":"2014-04-04T05:32:00+0000","like_count":1,"user_likes":false},"845054722177873":{"id":"845054722177873","from":{"id":"100007806284139","name":"Đặng Yên"},"message":"suteki desune!!","can_remove":false,"created_time":"2014-04-04T05:42:40+0000","like_count":1,"user_likes":false},"845075722175773":{"id":"845075722175773","from":{"id":"100007995421886","name":"Ừ Anh Sẽ Đợi"},"message":"ありがとうございます（≧∇≦）","can_remove":false,"created_time":"2014-04-04T06:04:29+0000","like_count":0,"user_likes":false},"845082215508457":{"id":"845082215508457","from":{"id":"100007806284139","name":"Đặng Yên"},"message":"どういたしまして.","can_remove":false,"created_time":"2014-04-04T06:33:00+0000","like_count":1,"user_likes":false},"845172455499433":{"id":"845172455499433","from":{"id":"100006638891142","name":"Trịnh Thế Định"},"message":"とても素敵.","can_remove":false,"created_time":"2014-04-04T10:35:27+0000","like_count":1,"user_likes":false},"845172578832754":{"id":"845172578832754","from":{"id":"100007995421886","name":"Ừ Anh Sẽ Đợi"},"message":"そですね","can_remove":false,"created_time":"2014-04-04T10:35:59+0000","like_count":0,"user_likes":false}},"paging":{"cursors":{"after":"ODQ0OTY2ODc4ODUzMzI0","before":"ODQ0OTY2ODc4ODUzMzI0"},"next":"https://graph.facebook.com/229244010425617_844924405524238/comments?limit=1&summary=1&after=ODQ0OTY2ODc4ODUzMzI0"},"summary":{"order":"chronological","total_count":13}}}