{"id":"229244010425617_844970225519656","type":"status","from":{"id":"100006614261300","name":"Tao Cao Cường Đây"},"message":"A.c cho em hỏi : Tên e là Nguyễn Cao Cường giờ e muốn chuyển sang tên tiếng nhật. A.c chuyển giúp e đc ko ạ :)","created_time":"2014-04-04T03:10:19+0000","updated_time":"2014-04-04T08:55:02+0000","likes":{"data":{"100006614261300":{"id":"100006614261300","name":"Tao Cao Cường Đây"}},"paging":{"cursors":{"after":"MTAwMDA2NjE0MjYxMzAw","before":"MTAwMDA2NjE0MjYxMzAw"}},"summary":{"total_count":1}},"comments":{"data":{"844973345519344":{"id":"844973345519344","from":{"id":"100000209176558","name":"Samui Kaze"},"message":"グエン カオ クオン","can_remove":false,"created_time":"2014-04-04T03:22:29+0000","like_count":1,"user_likes":false},"844973872185958":{"id":"844973872185958","from":{"id":"100006614261300","name":"Tao Cao Cường Đây"},"message":"Samui Kaze e cam o a nhá. e tra thì thấy nhieu kieu quá chẳng biet kieu nào vs kieu nào","message_tags":[{"id":"100000209176558","name":"Samui Kaze","type":"user","offset":0,"length":10}],"can_remove":false,"created_time":"2014-04-04T03:23:42+0000","like_count":0,"user_likes":false},"845000532183292":{"id":"845000532183292","from":{"id":"100001528103377","name":"Kim Long"},"message":"Cho em ké bạn Cường với...em tên Phạm Kim Long chuyển như thế nào vậy anh? (em xem tài liệu có nhiều cách chuyển quá ko bit cái nào là 9xac , a giúp 1 tài liệu vs nha). cám ơn Anh.","can_remove":false,"created_time":"2014-04-04T04:40:43+0000","like_count":0,"user_likes":false},"845002345516444":{"id":"845002345516444","from":{"id":"100002817600730","name":"Minh Anh Vg"},"message":"ファン キム ロン thì phải","can_remove":false,"created_time":"2014-04-04T04:45:48+0000","like_count":2,"user_likes":false},"845004178849594":{"id":"845004178849594","from":{"id":"100003762427351","name":"Hiroshi Yasu Oki"},"message":"Mình thấy các bạn có thể sử dụng Google Translate để chuyển tên mình sang Katakana đó ạ :)","can_remove":false,"created_time":"2014-04-04T04:54:03+0000","like_count":1,"user_likes":false},"845074362175909":{"id":"845074362175909","from":{"id":"569263718","name":"Phuong Thao Tran"},"message":"ファム・キム・ローン","can_remove":false,"created_time":"2014-04-04T05:59:04+0000","like_count":1,"user_likes":false},"845075968842415":{"id":"845075968842415","from":{"id":"100000209176558","name":"Samui Kaze"},"message":"ファン キン ロン mình nghĩ thế này đúng hơn vì ん cũng có thể đọc sang vần m đc mà :D","can_remove":false,"created_time":"2014-04-04T06:05:06+0000","like_count":1,"user_likes":false},"845079688842043":{"id":"845079688842043","from":{"id":"569263718","name":"Phuong Thao Tran"},"message":"ん chỉ đọc thành âm m khi tiếp theo nó là là phụ âm b, p, m thôi hoặc phủ định ~sen, ví dụ: konbanha, viết là thế nhưng đọc là kombanwa. Tiếp đến đọc và viết là 2 việc khác nhau, Phạm thì không thể viết là Phạn được.","can_remove":false,"created_time":"2014-04-04T06:21:57+0000","like_count":0,"user_likes":false},"845080562175289":{"id":"845080562175289","from":{"id":"100001528103377","name":"Kim Long"},"message":"Chị @Thảo ơi Quy tắc Biến Âm cơ bản trong tiếng nhật ?em đang tìm hiểu vấn đề đó mà ít tài liệu quá. chị hướng dẫn cho em vài tài liệu nha chị","can_remove":false,"created_time":"2014-04-04T06:25:59+0000","like_count":0,"user_likes":false},"845084035508275":{"id":"845084035508275","from":{"id":"100003167566092","name":"マイ スアン サン"},"message":"em tên là mai thị xuân sang thì đổi sang là gì chị Phuong Thao Tran","can_remove":false,"created_time":"2014-04-04T06:41:15+0000","like_count":0,"user_likes":false},"845088932174452":{"id":"845088932174452","from":{"id":"569263718","name":"Phuong Thao Tran"},"message":"Kim Long: theo chị nhớ thì không có quy tắc rõ ràng cho các loại biến âm,  ở trên chỉ là dấu hiệu nhận diện đọc biến âm của ん mà thôi. Nên chỉ còn cách là học thuộc. Các bạn nào biết thì chỉ thêm nhé, ^^\nMai Xuân Sang: マイ・ティ・スアン・サーン","message_tags":[{"id":"100001528103377","name":"Kim Long","type":"user","offset":0,"length":8},{"id":"100003167566092","name":"Mai Xuân Sang","type":"user","offset":204,"length":13}],"can_remove":false,"created_time":"2014-04-04T07:00:59+0000","like_count":2,"user_likes":false},"845141792169166":{"id":"845141792169166","from":{"id":"100003878132073","name":"Luan Tran Van"},"message":"Lên www.translate.google.com \nVà bạn gõ cụm từ \nNguyen Cao Cuong\nSẽ ra tên của bạn từ Việt sang Nhật","can_remove":false,"created_time":"2014-04-04T08:55:02+0000","like_count":0,"user_likes":false}},"paging":{"cursors":{"after":"ODQ0OTczMzQ1NTE5MzQ0","before":"ODQ0OTczMzQ1NTE5MzQ0"},"next":"https://graph.facebook.com/229244010425617_844970225519656/comments?limit=1&summary=1&after=ODQ0OTczMzQ1NTE5MzQ0"},"summary":{"order":"chronological","total_count":12}}}