{"id":"229244010425617_845091118840900","type":"status","from":{"id":"1122379216","name":"Hà Ngô"},"message":"Các anh chị phân biệt giúp em 間、間に với ạ. Mặc dù đã thêm từ ずっと vào khi dịch mà em vẫn thấy lơ mơ :(\n例えば:\nA. 寝ている間、どろぼうに入られました。\nB. 寝ている間に、どろぼうに入られました。\nC. 寝ているときに、どろぼうに入られました。\nどちらがいいですか？\nよろしくお願いします！","created_time":"2014-04-04T07:02:55+0000","updated_time":"2014-04-04T23:53:24+0000","likes":{"data":{"100000500260636":{"id":"100000500260636","name":"Lưu Nguyễn Thảo Tiên"},"100008017384297":{"id":"100008017384297","name":"Bùi Trần Khánh Ly"},"100003913383051":{"id":"100003913383051","name":"Tho Tran"},"100006035258468":{"id":"100006035258468","name":"Thảo Còi"},"100005618556344":{"id":"100005618556344","name":"Hoàng Phi Long"},"100000474381232":{"id":"100000474381232","name":"Duong Seven"},"100003657473061":{"id":"100003657473061","name":"Vu Trung Kien"}},"paging":{"cursors":{"after":"MTAwMDAwNTAwMjYwNjM2","before":"MTAwMDAwNTAwMjYwNjM2"},"next":"https://graph.facebook.com/229244010425617_845091118840900/likes?limit=1&summary=1&after=MTAwMDAwNTAwMjYwNjM2"},"summary":{"total_count":7}},"comments":{"data":{"845094715507207":{"id":"845094715507207","from":{"id":"100000747635624","name":"Nguyễn Xuân Đại"},"message":"B.","can_remove":false,"created_time":"2014-04-04T07:13:47+0000","like_count":1,"user_likes":false},"845096228840389":{"id":"845096228840389","from":{"id":"1122379216","name":"Hà Ngô"},"message":"私もＢを選べているよ。","can_remove":false,"created_time":"2014-04-04T07:20:27+0000","like_count":0,"user_likes":false},"845097648840247":{"id":"845097648840247","from":{"id":"100003932725687","name":"Ký Ức"},"message":"うん僕も、","can_remove":false,"created_time":"2014-04-04T07:25:02+0000","like_count":1,"user_likes":false},"845097725506906":{"id":"845097725506906","from":{"id":"824089766","name":"Le Dai"},"message":"間に = while; during (the time when) \nNên B là chuẩn nhất rồi.","can_remove":false,"created_time":"2014-04-04T07:25:21+0000","like_count":4,"user_likes":false},"845097838840228":{"id":"845097838840228","from":{"id":"100000474381232","name":"Duong Seven"},"message":"Bだと思う","can_remove":false,"created_time":"2014-04-04T07:25:46+0000","like_count":1,"user_likes":false},"845098635506815":{"id":"845098635506815","from":{"id":"1122379216","name":"Hà Ngô"},"message":"Ai có thể giải thích kỹ hơn về sự khác nhau này không ạ?","can_remove":false,"created_time":"2014-04-04T07:28:45+0000","like_count":0,"user_likes":false},"845099535506725":{"id":"845099535506725","from":{"id":"100003657473061","name":"Vu Trung Kien"},"message":"BToi chon b theo mình nghĩ là đang trong lúc ngủ bị trộm vào , còn c là khi đang ngủ bi trộm vào, còn câu a không rõ lắm","can_remove":false,"created_time":"2014-04-04T07:32:21+0000","like_count":0,"user_likes":false},"845100012173344":{"id":"845100012173344","from":{"id":"824089766","name":"Le Dai"},"message":"ときに là chỉ 1 thời điểm nào đó, còn 間に là chỉ 1 khoảng thời gian nào đó. Trộm vào nhà lúc ngủ thì ko thể biết rõ thời điểm mà chỉ biết là trong khoảng thời gian nào đó thôi nên 間に là đáp án chính xác.","can_remove":false,"created_time":"2014-04-04T07:34:44+0000","like_count":2,"user_likes":false},"845101692173176":{"id":"845101692173176","from":{"id":"1122379216","name":"Hà Ngô"},"message":"Mình nghĩ 間に là khoảnh khắc, thời điểm chứ nhỉ. Vì trong lúc mình ngủ thì trộm chỉ có thể vào ví dụ 1h, 1h30 hay 1 thời điểm nhất định. Chứ khôn phải trộm vào suốt lúc mình ngủ. 間 mới là trong lúc, trong khoảng thời gian liên tục. Ví dụ như là: \n私は家をかたづけている間、弟はテレビを見ていたんだ。","can_remove":false,"created_time":"2014-04-04T07:41:20+0000","like_count":1,"user_likes":false},"845104855506193":{"id":"845104855506193","from":{"id":"100003657473061","name":"Vu Trung Kien"},"message":"Nếu vậy. Cũng đúng nhưng trong khoảng thời gian đó mình đang ngủ và ko biêt nó vào trong khoảng thời gian nào mình nghĩ lên dung (mani) đúng hơn","can_remove":false,"created_time":"2014-04-04T07:52:16+0000","like_count":0,"user_likes":false},"845125302170815":{"id":"845125302170815","from":{"id":"1122379216","name":"Hà Ngô"},"message":"間:あいだい\n間に:あいだに \nNhé Vu Trung Kien!","message_tags":[{"id":"100003657473061","name":"Vu Trung Kien","type":"user","offset":20,"length":13}],"can_remove":false,"created_time":"2014-04-04T08:09:48+0000","like_count":0,"user_likes":false},"845126448837367":{"id":"845126448837367","from":{"id":"100003657473061","name":"Vu Trung Kien"},"message":"Uh minh nhầm","can_remove":false,"created_time":"2014-04-04T08:10:25+0000","like_count":0,"user_likes":false},"845126812170664":{"id":"845126812170664","from":{"id":"100003657473061","name":"Vu Trung Kien"},"message":"Uhm nhưng theo mình nghĩ là vậy","can_remove":false,"created_time":"2014-04-04T08:10:55+0000","like_count":0,"user_likes":false},"845128352170510":{"id":"845128352170510","from":{"id":"100003398911005","name":"Họ Tạ Tên Nam"},"message":"học dốt giải thích cho cũng khó","can_remove":false,"created_time":"2014-04-04T08:13:23+0000","like_count":0,"user_likes":false},"845128375503841":{"id":"845128375503841","from":{"id":"1122379216","name":"Hà Ngô"},"message":"Lúc sử dụng cấu trúc này mình vẫn nhầm, bảo tự dưng nói là sẽ bị sai hoặc không nghĩ ra để nói :(","can_remove":false,"created_time":"2014-04-04T08:13:26+0000","like_count":0,"user_likes":false},"845129652170380":{"id":"845129652170380","from":{"id":"1122379216","name":"Hà Ngô"},"message":"Thế em giỏi giải thích đi Họ Tạ Tên Nam :どうぞ","message_tags":[{"id":"100003398911005","name":"Họ Tạ Tên Nam","type":"user","offset":26,"length":13}],"can_remove":false,"created_time":"2014-04-04T08:14:56+0000","like_count":0,"user_likes":false},"845131598836852":{"id":"845131598836852","from":{"id":"100003398911005","name":"Họ Tạ Tên Nam"},"message":"giải thích xong cũng có hiểu đâu . đi ngủ đê","can_remove":false,"created_time":"2014-04-04T08:19:18+0000","like_count":0,"user_likes":false},"845133352170010":{"id":"845133352170010","from":{"id":"1122379216","name":"Hà Ngô"},"message":"Chị đang hỏi nghiêm túc. Tinh thần học hỏi, trả lời đi :(","can_remove":false,"created_time":"2014-04-04T08:20:31+0000","like_count":0,"user_likes":false},"845137878836224":{"id":"845137878836224","from":{"id":"1146680551","name":"優しい なぁ"},"message":"Ví dụ:\nGiưa thời gian học có giờ ra chơi.\n=> 授業の間に、休憩します。(^_-)","can_remove":false,"created_time":"2014-04-04T08:38:32+0000","like_count":1,"user_likes":false},"845144902168855":{"id":"845144902168855","from":{"id":"569263718","name":"Phuong Thao Tran"},"message":"間、間に nếu dịch ra tiếng Việt đều có nghĩa là trong khi, trong lúc. Chỉ khác ở chỗ:\n- aida: cho biết hành động, trạng thái ở vế sau nó kéo dài, liên tục gần như cùng khoảng thời gian với trạng thái và hành động ở vế trước aida.\n- aidani: cho biết hành động, trạng thái ở vế sau chỉ xảy ra một khoảng khắc, một thời điểm nào đó trong suốt thời gian hành động, trạng thái trước aidani mà thôi. \nNên ví dụ trên ta chọn câu B.\n\nP/s: cả 3 ví dụ trên đều là ている, chứ mình chưa thấy thể nào chia ～るいる cả, :)","can_remove":false,"created_time":"2014-04-04T09:03:10+0000","like_count":6,"user_likes":false},"845264728823539":{"id":"845264728823539","from":{"id":"100002666381269","name":"Cường Việt Nam Đồng"},"message":"","can_remove":false,"created_time":"2014-04-04T11:33:36+0000","like_count":1,"user_likes":false},"845264822156863":{"id":"845264822156863","from":{"id":"100002666381269","name":"Cường Việt Nam Đồng"},"message":"","can_remove":false,"created_time":"2014-04-04T11:33:57+0000","like_count":1,"user_likes":false},"845264895490189":{"id":"845264895490189","from":{"id":"100002666381269","name":"Cường Việt Nam Đồng"},"message":"いいですか？","can_remove":false,"created_time":"2014-04-04T11:34:10+0000","like_count":2,"user_likes":false},"845391388810873":{"id":"845391388810873","from":{"id":"1122379216","name":"Hà Ngô"},"message":"いいですが、皆さん！本当にありがとうございました。","can_remove":false,"created_time":"2014-04-04T14:24:09+0000","like_count":0,"user_likes":false},"845637105452968":{"id":"845637105452968","from":{"id":"100007468213697","name":"Minh Cảnh"},"message":"M vào sau nên mn cm cả rồi, chỉ muốn bổ sung cho b dễ phân biệt.\nあいだ nếu vế sau vị ngữ là động từ thì nó hay chia ở ている、ていた、つづける、つづけていた、。。。các từ biểu thị ý kéo dài.....","can_remove":false,"created_time":"2014-04-04T23:53:24+0000","like_count":0,"user_likes":false}},"paging":{"cursors":{"after":"ODQ1MDk0NzE1NTA3MjA3","before":"ODQ1MDk0NzE1NTA3MjA3"},"next":"https://graph.facebook.com/229244010425617_845091118840900/comments?limit=1&summary=1&after=ODQ1MDk0NzE1NTA3MjA3"},"summary":{"order":"chronological","total_count":27}}}