{"id":"229244010425617_845101398839872","type":"photo","object_id":"224760421064720","picture":"https://fbcdn-photos-d-a.akamaihd.net/hphotos-ak-ash4/t1.0-0/10007493_224760421064720_179824962_s.jpg","link":"https://www.facebook.com/photo.php?fbid=224760421064720&set=gm.845101398839872&type=1&relevant_count=1","from":{"id":"100005922909956","name":"Takai  Masahiro"},"message":"hello ! thank you for many messages.I live in Setagaya pref. in TOKYO.\n\nI am studying the department of urban engineering.I want to live in Vietnam.Please teach me Vietnamese.","created_time":"2014-04-04T07:40:19+0000","updated_time":"2014-04-16T04:35:09+0000","likes":{"data":{"100000095655445":{"id":"100000095655445","name":"Kamiya Satoshi"},"100006432978826":{"id":"100006432978826","name":"Syotaro  Honma"},"100006490448962":{"id":"100006490448962","name":"Maki  Yanai"},"1821970083":{"id":"1821970083","name":"Nguyễn Mạnh Cường"},"100005922909956":{"id":"100005922909956","name":"Takai  Masahiro"},"1146680551":{"id":"1146680551","name":"優しい なぁ"},"100004421642976":{"id":"100004421642976","name":"Nao  Mizumura"},"100004456541864":{"id":"100004456541864","name":"Nha Gia"},"100001526631937":{"id":"100001526631937","name":"Tường Oanh Mineko"},"1026780646":{"id":"1026780646","name":"Việt Hưng Khổng"},"100002124532666":{"id":"100002124532666","name":"Nguyễn Thành Du"},"100002975299796":{"id":"100002975299796","name":"Trinh Tuan Anh"},"100003055356509":{"id":"100003055356509","name":"Thuan Nguyen"},"100003466287943":{"id":"100003466287943","name":"Kim Chi Saki Loyal"},"100001260645727":{"id":"100001260645727","name":"Ngo Duy Son"},"100000381394367":{"id":"100000381394367","name":"Thành Nguyễn"},"100003224466030":{"id":"100003224466030","name":"Trí Phạm"},"100003762427351":{"id":"100003762427351","name":"Hiroshi Yasu Oki"},"100000002047093":{"id":"100000002047093","name":"Mint Candy"},"100002419566054":{"id":"100002419566054","name":"Khánh Toàn"},"1725907325":{"id":"1725907325","name":"Nguyen Van Dung"},"100001432462223":{"id":"100001432462223","name":"Truong Nguyen"},"100000106606544":{"id":"100000106606544","name":"Thu Hiền"},"100006907235659":{"id":"100006907235659","name":"Thao Van"},"100001458099624":{"id":"100001458099624","name":"Kham Pha"},"100006480708633":{"id":"100006480708633","name":"Rinn  Natsume"},"100001494978263":{"id":"100001494978263","name":"Hà Speed"},"100004823498609":{"id":"100004823498609","name":"Vân Veo"},"100003058280462":{"id":"100003058280462","name":"Đặng Văn Thành"}},"paging":{"cursors":{"after":"MTAwMDAwMDk1NjU1NDQ1","before":"MTAwMDAwMDk1NjU1NDQ1"},"next":"https://graph.facebook.com/229244010425617_845101398839872/likes?limit=1&summary=1&after=MTAwMDAwMDk1NjU1NDQ1"},"summary":{"total_count":29}},"comments":{"data":[{"id":"845101545506524","from":{"id":"100003058280462","name":"Đặng Văn Thành"},"message":"welcome to VN :D","can_remove":false,"created_time":"2014-04-04T07:41:00+0000","like_count":1,"user_likes":false}],"paging":{"cursors":{"after":"ODQ1MTAxNTQ1NTA2NTI0","before":"ODQ1MTAxNTQ1NTA2NTI0"},"next":"https://graph.facebook.com/229244010425617_845101398839872/comments?limit=1&summary=1&after=ODQ1MTAxNTQ1NTA2NTI0"},"summary":{"order":"chronological","total_count":33}}}