{"id":"229244010425617_845107955505883","type":"status","from":{"id":"100003164226433","name":"Anh Le"},"message":"Các bác cho em hỏi có nên mua điện thoại iphone cũ bên Nhật về không ạ!và nếu mua thì nên mua loại nào để về nước mình là có thể dùng được luôn,em đang ở iwata - shizuoka,em không rành lắm về món này!tư vấn giúp em với nhé!tks!","created_time":"2014-04-04T07:54:00+0000","updated_time":"2014-04-08T05:42:15+0000","likes":{"data":{"100004445826984":{"id":"100004445826984","name":"Ong Noi Viet"},"100002651270973":{"id":"100002651270973","name":"Lê Văn Tiến"},"100006614261300":{"id":"100006614261300","name":"Tao Cao Cường Đây"},"100007190593865":{"id":"100007190593865","name":"Toi Khong Noi"},"100001432462223":{"id":"100001432462223","name":"Truong Nguyen"},"100003164226433":{"id":"100003164226433","name":"Anh Le"}},"paging":{"cursors":{"after":"MTAwMDA0NDQ1ODI2OTg0","before":"MTAwMDA0NDQ1ODI2OTg0"},"next":"https://graph.facebook.com/229244010425617_845107955505883/likes?limit=1&summary=1&after=MTAwMDA0NDQ1ODI2OTg0"},"summary":{"total_count":6}},"comments":{"data":{"845345542148791":{"id":"845345542148791","from":{"id":"100007995421886","name":"Ừ Anh Sẽ Đợi"},"message":"ip 4s 5 5s về xài sim ghép ok bạn ah nhà mạng nào cũng dc","can_remove":false,"created_time":"2014-04-04T13:08:18+0000","like_count":1,"user_likes":false},"845403132143032":{"id":"845403132143032","from":{"id":"100006614261300","name":"Tao Cao Cường Đây"},"message":"iphone ios7.1 ko lắp sim ghép dc. ko mua ios 7.1 nhé. con lại thì oke hết","can_remove":false,"created_time":"2014-04-04T14:50:04+0000","like_count":2,"user_likes":false},"845627425453936":{"id":"845627425453936","from":{"id":"100003164226433","name":"Anh Le"},"message":"cảm ơn mọi người nhé!","can_remove":false,"created_time":"2014-04-04T23:20:49+0000","like_count":0,"user_likes":false},"845763068773705":{"id":"845763068773705","from":{"id":"100005428813389","name":"Bình Nhi"},"message":"Ios 7.1 lắp đc r b ạ","can_remove":false,"created_time":"2014-04-05T06:26:13+0000","like_count":1,"user_likes":false},"846155385401140":{"id":"846155385401140","from":{"id":"100003164226433","name":"Anh Le"},"message":"vậy dùng được hết hả bác?","can_remove":false,"created_time":"2014-04-05T23:09:40+0000","like_count":0,"user_likes":false},"846155628734449":{"id":"846155628734449","from":{"id":"100003164226433","name":"Anh Le"},"message":"ah!em nghe nói kích hoạt ip cần dùng sim vina phải ko ạ!","can_remove":false,"created_time":"2014-04-05T23:10:17+0000","like_count":0,"user_likes":false},"846159342067411":{"id":"846159342067411","from":{"id":"100001416272263","name":"Mai PB"},"message":"Một Mình Bướk bạn đã bị xóa rất nhiều comment vì viết không dấu. Nếu hôm nay còn viết như vậy sẽ bị xóa member.","message_tags":[{"id":"100007120538599","name":"Một Mình Bướk","type":"user","offset":0,"length":13}],"can_remove":false,"created_time":"2014-04-05T23:21:25+0000","like_count":1,"user_likes":false},"846163405400338":{"id":"846163405400338","from":{"id":"100003164226433","name":"Anh Le"},"message":"sao lại thế ah! có dấu mà,đừng xóa của em chứ!híc!","can_remove":false,"created_time":"2014-04-05T23:34:47+0000","like_count":0,"user_likes":false},"846168618733150":{"id":"846168618733150","from":{"id":"100001416272263","name":"Mai PB"},"message":"Anh Lê có liên quan gì đâu, đang nói ng khác mà.","can_remove":false,"created_time":"2014-04-05T23:53:52+0000","like_count":1,"user_likes":false},"846168918733120":{"id":"846168918733120","from":{"id":"100003164226433","name":"Anh Le"},"message":"híc!em hỏi để mọi người tư vấn,bác xóa mất của em,bắt đền!","can_remove":false,"created_time":"2014-04-05T23:55:08+0000","like_count":0,"user_likes":false},"846169272066418":{"id":"846169272066418","from":{"id":"1026780646","name":"Việt Hưng Khổng"},"message":"Anh Le chú ý là theo luật thì VN cấm nhập đồ điện tử đã qua sử dụng- tức là Hải quan có thể lập biên bản và tịch thu đấy nhé ;)","can_remove":false,"created_time":"2014-04-05T23:56:24+0000","like_count":1,"user_likes":false},"846170498732962":{"id":"846170498732962","from":{"id":"100003164226433","name":"Anh Le"},"message":"nhưng bác ơi,em trình hóa đơn ra là được chứ,chẳng lẽ em dùng máy trợ tim,hải quan cũng nỡ lấy hay sao.hôm qua mấy đứa bạn em về,mỗi đứa mang 2 cái ip về.chắc ko sao đâu bác ah,vì theo em thì người ta chỉ thu những đồ sll+không có chứng từ mua bán thui,phải không bác,dù sao cũng cảm ơn bác vì đã nhắc nhở em nhé!","can_remove":false,"created_time":"2014-04-06T00:01:09+0000","like_count":0,"user_likes":false},"846182538731758":{"id":"846182538731758","from":{"id":"100005428813389","name":"Bình Nhi"},"message":"Mang về Việt Nam! Vẫn đc.. Nhưng 1 ng chỉ đc cầm 3 cái về thui","can_remove":false,"created_time":"2014-04-06T00:39:49+0000","like_count":0,"user_likes":false},"846300425386636":{"id":"846300425386636","from":{"id":"100003164226433","name":"Anh Le"},"message":"Vậy là ngon rồi.sợ ko có tiền mà mua 3 cái ấy chứ.hi@@","can_remove":false,"created_time":"2014-04-06T06:38:47+0000","like_count":0,"user_likes":false},"847529315263747":{"id":"847529315263747","from":{"id":"100007120538599","name":"Một Mình Bướk"},"message":"Sao lại viết ko dấu thì bị xoá vậy bác","can_remove":false,"created_time":"2014-04-08T05:41:19+0000","like_count":0,"user_likes":false},"847529501930395":{"id":"847529501930395","from":{"id":"100007120538599","name":"Một Mình Bướk"},"message":"Em mới biết điều này ak bác Mai PB","can_remove":false,"created_time":"2014-04-08T05:42:15+0000","like_count":0,"user_likes":false}},"paging":{"cursors":{"after":"ODQ1MzQ1NTQyMTQ4Nzkx","before":"ODQ1MzQ1NTQyMTQ4Nzkx"},"next":"https://graph.facebook.com/229244010425617_845107955505883/comments?limit=1&summary=1&after=ODQ1MzQ1NTQyMTQ4Nzkx"},"summary":{"order":"chronological","total_count":16}}}