{"id":"229244010425617_845264662156879","type":"photo","object_id":"303211336495490","picture":"https://fbcdn-photos-h-a.akamaihd.net/hphotos-ak-prn2/v/t34.0-11/10151735_303210149828942_604548256_s.jpg?oh=5452ea326de4c834c9ddd038ef349de0&oe=53504120&__gda__=1397777878_eaa7b747ee84dba8c0cf037625afd674","link":"https://www.facebook.com/photo.php?fbid=303211336495490&set=gm.845264662156879&type=1&relevant_count=1","from":{"id":"100004198780939","name":"Trần Kim Anh"},"message":"Mở tivi ra co cai nay hihi, that ko ta, khong biet la đieu tra dựa trên gì nua （；゜０゜）","created_time":"2014-04-04T11:33:23+0000","updated_time":"2014-04-05T09:58:55+0000","likes":{"data":{"100001293764833":{"id":"100001293764833","name":"Nhan Le"},"100001526631937":{"id":"100001526631937","name":"Tường Oanh Mineko"},"100000039713069":{"id":"100000039713069","name":"BakkuTran Love RuriRuri"},"100005801442456":{"id":"100005801442456","name":"An Nguyen"},"100007961291110":{"id":"100007961291110","name":"Làm Lại Từ Đầu"},"1783623647":{"id":"1783623647","name":"Nguyen Thuong Huyen"},"1616974500":{"id":"1616974500","name":"Duong Lien"},"100000347491202":{"id":"100000347491202","name":"Linh Hà Ngọc"},"100003914763138":{"id":"100003914763138","name":"An Vy"},"100002967213597":{"id":"100002967213597","name":"Yến Hải"},"1757304308":{"id":"1757304308","name":"Trọng Hiền Trần"},"100001381487754":{"id":"100001381487754","name":"Nguyễn Thế Hà"},"1281405049":{"id":"1281405049","name":"Huy Trần"},"657157297":{"id":"657157297","name":"Phan Dien"},"100003683896765":{"id":"100003683896765","name":"Song La Phai Mo"},"100001707977128":{"id":"100001707977128","name":"Nguyễn Thủy"},"100001484541006":{"id":"100001484541006","name":"Quang Vũ"},"100005741886681":{"id":"100005741886681","name":"Giang Nguyễn"},"100000363117576":{"id":"100000363117576","name":"Huy Long Mai"},"100001880901011":{"id":"100001880901011","name":"Số Không"},"100000073698728":{"id":"100000073698728","name":"Hương Giang"},"1257384319":{"id":"1257384319","name":"Trường Giang"},"100004354424343":{"id":"100004354424343","name":"Vón Bỉm Sơn"},"100006494739209":{"id":"100006494739209","name":"Hanh Giang Phuoc"},"100002820525919":{"id":"100002820525919","name":"Papy Cry"},"100001051044941":{"id":"100001051044941","name":"Khanh Trung"},"100005850817532":{"id":"100005850817532","name":"Nguyễn Hải"},"100002348937847":{"id":"100002348937847","name":"Xanh Le Te"},"100001310402601":{"id":"100001310402601","name":"Watanabe Minh Thao"},"100003898875729":{"id":"100003898875729","name":"Hai Nguyen"},"100002265193557":{"id":"100002265193557","name":"Gấu Mó"},"100003729320400":{"id":"100003729320400","name":"Hà Nguyễn"},"100002309199483":{"id":"100002309199483","name":"Sachi Wu"},"100003818384066":{"id":"100003818384066","name":"Suisei Trần"},"1283298041":{"id":"1283298041","name":"Búa Đức Thanh"},"100006097992724":{"id":"100006097992724","name":"Trà My Võ"},"1146680551":{"id":"1146680551","name":"優しい なぁ"},"100002102773959":{"id":"100002102773959","name":"Nguyen Vina"},"100000141138651":{"id":"100000141138651","name":"Cẩm Vân"},"100003226985234":{"id":"100003226985234","name":"Rita Nguyen"},"100001016429049":{"id":"100001016429049","name":"Huong Le"},"100007348835669":{"id":"100007348835669","name":"Tuấn Anhh"},"1394148660":{"id":"1394148660","name":"Cừu Non"},"100001292564389":{"id":"100001292564389","name":"Tran Viet"},"100003543021100":{"id":"100003543021100","name":"SabaySabay Thaifood"},"100008064215029":{"id":"100008064215029","name":"Chấm Nhỏ Vĩ Đại"},"100000018443787":{"id":"100000018443787","name":"Doan Hoai Nam"},"100001013109225":{"id":"100001013109225","name":"Mina Pham"},"569263718":{"id":"569263718","name":"Phuong Thao Tran"},"100000381394367":{"id":"100000381394367","name":"Thành Nguyễn"},"100005581442605":{"id":"100005581442605","name":"Ryoko Tanaka"},"100002975299796":{"id":"100002975299796","name":"Trinh Tuan Anh"},"100006734168968":{"id":"100006734168968","name":"Tiểu Nhân Mã"},"100003682580597":{"id":"100003682580597","name":"Thanh BinBõ"},"525828985":{"id":"525828985","name":"Cindy Taiki"},"100000242445931":{"id":"100000242445931","name":"Nguyen Ngoc Hanh"},"100006911042663":{"id":"100006911042663","name":"Naoki Uehara"},"100001205388889":{"id":"100001205388889","name":"Ninh Vuong"},"559823806":{"id":"559823806","name":"Tran Bach"},"100001156846127":{"id":"100001156846127","name":"Nguyễn Duy Hưng"},"100000098004511":{"id":"100000098004511","name":"Nguyễn Đức Tùng"},"100001196735510":{"id":"100001196735510","name":"Không Quay Đầu"},"1148962646":{"id":"1148962646","name":"Tran Thi Tuong Van"},"100006736295862":{"id":"100006736295862","name":"Khanh Nguyên"},"100007779160957":{"id":"100007779160957","name":"Nắng Ấm Xa Dần"},"100002765402691":{"id":"100002765402691","name":"Trúc Lâm"},"100003654363908":{"id":"100003654363908","name":"Nguyen Kieu Trang"},"100008071332361":{"id":"100008071332361","name":"Bobo Chan"},"100001432462223":{"id":"100001432462223","name":"Truong Nguyen"},"100002913281005":{"id":"100002913281005","name":"Hà Mã"},"100003049639881":{"id":"100003049639881","name":"Truong Luvuxy"},"100007799559921":{"id":"100007799559921","name":"MoMo Tvt"},"100003800328678":{"id":"100003800328678","name":"Takahashi Phan"},"100000654453229":{"id":"100000654453229","name":"Nguyen Hanh"},"620066722":{"id":"620066722","name":"Dong Khac Thai"},"100002884430339":{"id":"100002884430339","name":"Hồng Trịnh"},"100006846840777":{"id":"100006846840777","name":"Đi Tìm Tương Lai"},"100004054263566":{"id":"100004054263566","name":"Nguyen Theu"},"100005685278868":{"id":"100005685278868","name":"Thu Thao"},"100002423382079":{"id":"100002423382079","name":"Thuyền Phố"},"100003546942984":{"id":"100003546942984","name":"Nhat Quang Hoang"},"100003239773322":{"id":"100003239773322","name":"Sake Salmon"},"100002615664668":{"id":"100002615664668","name":"PuPu Phương Elf"},"100005211189763":{"id":"100005211189763","name":"Oliveu Cchann"},"100003893158172":{"id":"100003893158172","name":"Maru MO"},"100001324611896":{"id":"100001324611896","name":"Meo Luoi"},"100000111779331":{"id":"100000111779331","name":"Nguyễn Thành Đạt"},"100003322232741":{"id":"100003322232741","name":"Huấn Nguyễn"},"100001546666929":{"id":"100001546666929","name":"Gà Vivian"},"100005866751996":{"id":"100005866751996","name":"Nam Nguyen"},"100003892404629":{"id":"100003892404629","name":"Đại Bàng Lột Xác"},"100002290906582":{"id":"100002290906582","name":"Kanashimi No Yukue"},"100001807609603":{"id":"100001807609603","name":"Nguyễn Khánh Huyền"},"100007806284139":{"id":"100007806284139","name":"Đặng Yên"},"100004375364623":{"id":"100004375364623","name":"Quang Lê"},"100006185140581":{"id":"100006185140581","name":"Thảo Lê"},"100004496623284":{"id":"100004496623284","name":"Mc Bily"},"100002926514654":{"id":"100002926514654","name":"Vu Tuan"},"100000031765287":{"id":"100000031765287","name":"Mèo Lười"},"100007075511476":{"id":"100007075511476","name":"Xa Xa"},"100001114549932":{"id":"100001114549932","name":"Bui Thanh Hung"},"100000176481245":{"id":"100000176481245","name":"Pham Khuong"},"100000279494197":{"id":"100000279494197","name":"My Loan"},"100003086107151":{"id":"100003086107151","name":"Khoi Quang"}},"paging":{"cursors":{"after":"MTAwMDAxMjkzNzY0ODMz","before":"MTAwMDAxMjkzNzY0ODMz"},"next":"https://graph.facebook.com/229244010425617_845264662156879/likes?limit=1&summary=1&after=MTAwMDAxMjkzNzY0ODMz"},"summary":{"total_count":104}},"comments":{"data":{"845270612156284":{"id":"845270612156284","from":{"id":"100003058280462","name":"Đặng Văn Thành"},"message":"sao VN lại là Nhất kia chán quá trời :D","can_remove":false,"created_time":"2014-04-04T11:46:41+0000","like_count":0,"user_likes":false},"845271015489577":{"id":"845271015489577","from":{"id":"100002963737004","name":"Hà Phùng"},"message":"VN No 1 cái gì vậy mấy bạn :(","can_remove":false,"created_time":"2014-04-04T11:47:56+0000","like_count":0,"user_likes":false},"845271242156221":{"id":"845271242156221","from":{"id":"100003086107151","name":"Khoi Quang"},"message":"Vua xem xog Thay on Lanh ca nguoi","can_remove":false,"created_time":"2014-04-04T11:48:37+0000","like_count":0,"user_likes":false},"845271558822856":{"id":"845271558822856","from":{"id":"100004198780939","name":"Trần Kim Anh"},"message":"妻(つま)が怖い(こわい)国(くに):viêt nam là nước có vợ dữ, ( hay gọi la khó tinh,nghiem khắc, hung dữ)","can_remove":false,"created_time":"2014-04-04T11:49:56+0000","like_count":2,"user_likes":false},"845271962156149":{"id":"845271962156149","from":{"id":"100002963737004","name":"Hà Phùng"},"message":"Cao hơn cả Tung Của cơ ạ..chắc có gì nhầm lẫn đây :v","can_remove":false,"created_time":"2014-04-04T11:51:19+0000","like_count":0,"user_likes":false},"845272185489460":{"id":"845272185489460","from":{"id":"100000942734562","name":"Hidekatsu Tomoi"},"message":"ベトナムの女性はこわくないですが、立場（たちば）は強いですね。","can_remove":false,"created_time":"2014-04-04T11:51:58+0000","like_count":22,"user_likes":false},"845272215489457":{"id":"845272215489457","from":{"id":"100004103596333","name":"大統領"},"message":"Gọi là đất nước đàn ông sợ vợ có tỷ lệ cao nhất trong các nước kể trên :))","can_remove":false,"created_time":"2014-04-04T11:52:00+0000","like_count":3,"user_likes":false},"845272218822790":{"id":"845272218822790","from":{"id":"100004198780939","name":"Trần Kim Anh"},"message":"Mình cũng nghĩ vậy hihi (*^_^*)❗️","can_remove":false,"created_time":"2014-04-04T11:52:01+0000","like_count":0,"user_likes":false},"845272518822760":{"id":"845272518822760","from":{"id":"100003071766106","name":"Rắn Độc Là Anh"},"message":"có nói về người chồng nước nào hung dữ nhất ko bạn?","can_remove":false,"created_time":"2014-04-04T11:53:05+0000","like_count":0,"user_likes":false},"845272858822726":{"id":"845272858822726","from":{"id":"100004198780939","name":"Trần Kim Anh"},"message":"友井 英勝、ありがとうー(*^_^*)❗️私もそう思った(^○^)","message_tags":[{"id":"100000942734562","name":"友井 英勝","type":"user","offset":0,"length":5}],"can_remove":false,"created_time":"2014-04-04T11:53:39+0000","like_count":1,"user_likes":false},"845284338821578":{"id":"845284338821578","from":{"id":"100004198780939","name":"Trần Kim Anh"},"message":"友井 英勝先生、ドンズー学校の先生ですか？","message_tags":[{"id":"100000942734562","name":"友井 英勝","type":"user","offset":0,"length":5}],"can_remove":false,"created_time":"2014-04-04T11:59:30+0000","like_count":0,"user_likes":false},"845286208821391":{"id":"845286208821391","from":{"id":"100000942734562","name":"Hidekatsu Tomoi"},"message":"Tran Kim Anhさん、そうですよ。ドンズーで教えています。","can_remove":false,"created_time":"2014-04-04T12:05:01+0000","like_count":1,"user_likes":false},"845290398820972":{"id":"845290398820972","from":{"id":"100006821673235","name":"Tana Ka"},"message":"bao sao.den cty hoi may thang chua co vk.may co muon lay vk VN ko.thang nao cung lac dau.tao so gai VN lam.","can_remove":false,"created_time":"2014-04-04T12:08:26+0000","like_count":4,"user_likes":false},"845297605486918":{"id":"845297605486918","from":{"id":"100001432462223","name":"Truong Nguyen"},"message":":)) kinh thật ta","can_remove":false,"created_time":"2014-04-04T12:24:39+0000","like_count":0,"user_likes":false},"845297712153574":{"id":"845297712153574","from":{"id":"100005211189763","name":"Oliveu Cchann"},"message":"Bá đạo quá :v :v","can_remove":false,"created_time":"2014-04-04T12:24:58+0000","like_count":0,"user_likes":false},"845344698815542":{"id":"845344698815542","from":{"id":"100003031372273","name":"Đào Thanh Tùng"},"message":":)) hahaha","can_remove":false,"created_time":"2014-04-04T13:06:03+0000","like_count":0,"user_likes":false},"845348745481804":{"id":"845348745481804","from":{"id":"100007063057870","name":"神谷大和"},"message":"Chuẩn rồi","can_remove":false,"created_time":"2014-04-04T13:15:19+0000","like_count":0,"user_likes":false},"845356508814361":{"id":"845356508814361","from":{"id":"100000025306507","name":"Phương Nam"},"message":"43% dan ong VN so vo (笑)","can_remove":false,"created_time":"2014-04-04T13:30:32+0000","like_count":1,"user_likes":false},"845366172146728":{"id":"845366172146728","from":{"id":"100003466471603","name":"Kim Long"},"message":"99% còn 1% là quá sợ.","can_remove":false,"created_time":"2014-04-04T13:44:06+0000","like_count":1,"user_likes":false},"845386185478060":{"id":"845386185478060","from":{"id":"100005070307038","name":"Zendo Lee"},"message":"đấy là tôn trọng vk. vk có là hổ đâu mà sợ","can_remove":false,"created_time":"2014-04-04T14:20:24+0000","like_count":2,"user_likes":false},"845391655477513":{"id":"845391655477513","from":{"id":"1146680551","name":"優しい なぁ"},"message":"いいえ、ベトナムの男性が元々優しい性格だから。(^_-)","can_remove":false,"created_time":"2014-04-04T14:24:48+0000","like_count":2,"user_likes":false},"845392998810712":{"id":"845392998810712","from":{"id":"100004198780939","name":"Trần Kim Anh"},"message":"Buon cuoi ghe ::)))","can_remove":false,"created_time":"2014-04-04T14:27:36+0000","like_count":0,"user_likes":false},"845394132143932":{"id":"845394132143932","from":{"id":"1146680551","name":"優しい なぁ"},"message":":v","can_remove":false,"created_time":"2014-04-04T14:29:48+0000","like_count":1,"user_likes":false},"845396068810405":{"id":"845396068810405","from":{"id":"100001292564389","name":"Tran Viet"},"message":"Yuki Kobayashi     (:-0)\nchuẩn rồi","message_tags":[{"id":"100005080238445","name":"Yuki Kobayashi","type":"user","offset":0,"length":14}],"can_remove":false,"created_time":"2014-04-04T14:33:51+0000","like_count":1,"user_likes":false},"845396188810393":{"id":"845396188810393","from":{"id":"100001292564389","name":"Tran Viet"},"message":"Khuat Ngoc Dung","message_tags":[{"id":"100006065984166","name":"Khuat Ngoc Dung","type":"user","offset":0,"length":15}],"can_remove":false,"created_time":"2014-04-04T14:34:16+0000","like_count":0,"user_likes":false},"845396275477051":{"id":"845396275477051","from":{"id":"100001292564389","name":"Tran Viet"},"message":"Statique Statique","message_tags":[{"id":"100000450142482","name":"Statique Statique","type":"user","offset":0,"length":17}],"can_remove":false,"created_time":"2014-04-04T14:34:30+0000","like_count":1,"user_likes":false},"845403412143004":{"id":"845403412143004","from":{"id":"100004206246538","name":"Có Lẽ Nào"},"message":"VN , trung quốc , thái , nhật","can_remove":false,"created_time":"2014-04-04T14:50:12+0000","like_count":0,"user_likes":false},"845409508809061":{"id":"845409508809061","from":{"id":"100001016429049","name":"Huong Le"},"message":"=)) đúng hài","can_remove":false,"created_time":"2014-04-04T15:03:55+0000","like_count":0,"user_likes":false},"845415588808453":{"id":"845415588808453","from":{"id":"100006097992724","name":"Trà My Võ"},"message":"Lúc nãy mình vừa xem trương trình này. Mình và chồng mình cũng bất ngờ ko biết họ đã khảo sát chưa đâu phải phụ nữ việt ai cũng đáng sợ có người này người kia","can_remove":false,"created_time":"2014-04-04T15:16:01+0000","like_count":0,"user_likes":false},"845739545442724":{"id":"845739545442724","from":{"id":"1757304308","name":"Trọng Hiền Trần"},"message":"Tính hình chung là có 43% các ông chồng (cả người Việt lẫn nước ngoài) khai rằng vợ họ rất đáng sợ. Trong khi Nhật Bản chỉ có 14%. Vì vậy ...vẫn còn đến 57% các bà vợ Việt Nam...không dữ :3","can_remove":false,"created_time":"2014-04-05T05:00:17+0000","like_count":0,"user_likes":false},"845748425441836":{"id":"845748425441836","from":{"id":"100002963737004","name":"Hà Phùng"},"message":"Sợ vk là tốt đấy ạ :3","can_remove":false,"created_time":"2014-04-05T05:35:12+0000","like_count":0,"user_likes":false},"845825935434085":{"id":"845825935434085","from":{"id":"100004488912413","name":"Phungvan Tai"},"message":"Phu nu viet nam nghe thay chua. The moi biet suk chiu dung cua dan ong viet nam la nhu the nao","can_remove":false,"created_time":"2014-04-05T09:58:55+0000","like_count":0,"user_likes":false}},"paging":{"cursors":{"after":"ODQ1MjcwNjEyMTU2Mjg0","before":"ODQ1MjcwNjEyMTU2Mjg0"},"next":"https://graph.facebook.com/229244010425617_845264662156879/comments?limit=1&summary=1&after=ODQ1MjcwNjEyMTU2Mjg0"},"summary":{"order":"chronological","total_count":32}}}