{"id":"229244010425617_845344118815600","type":"photo","object_id":"1397544570522044","picture":"https://fbcdn-photos-c-a.akamaihd.net/hphotos-ak-frc3/t1.0-0/1982306_1397544570522044_1337669628_s.jpg","link":"https://www.facebook.com/photo.php?fbid=1397544570522044&set=gm.845344118815600&type=1&relevant_count=1","from":{"id":"100007995421886","name":"Ừ Anh Sẽ Đợi"},"message":"Áo Dài Việt Nam Giữa xứ sở Hoa Anh Đào tuyệt vời phải không các bạn !  Yêu lắm áo dài ơiiiiii","created_time":"2014-04-04T13:04:21+0000","updated_time":"2014-04-06T06:48:33+0000","likes":{"data":{"100003213657878":{"id":"100003213657878","name":"Hưng Nguyễn"},"100002890615135":{"id":"100002890615135","name":"Ga Kute Ga Kute"},"100005090677811":{"id":"100005090677811","name":"Trí Chơn"},"100005995958954":{"id":"100005995958954","name":"Hao Nguyen"},"100000045271667":{"id":"100000045271667","name":"Nam Thai Nguyen"},"100001526631937":{"id":"100001526631937","name":"Tường Oanh Mineko"},"1137709136":{"id":"1137709136","name":"Tuan Truong"},"100001222113521":{"id":"100001222113521","name":"Tạ Thu Hường"},"100007006242408":{"id":"100007006242408","name":"Nguyễn Hoàng Lan"},"100001432462223":{"id":"100001432462223","name":"Truong Nguyen"},"100003818384066":{"id":"100003818384066","name":"Suisei Trần"},"100004367229369":{"id":"100004367229369","name":"Nhung Vo"},"1776330824":{"id":"1776330824","name":"Nyaa Nyaa"},"100004487384179":{"id":"100004487384179","name":"Hp Mongmanh"},"100003877451650":{"id":"100003877451650","name":"Huy Tự"},"100004497032158":{"id":"100004497032158","name":"Thanh Cam Dang"},"100003286777492":{"id":"100003286777492","name":"Nguyen Nam"},"100004716640495":{"id":"100004716640495","name":"Thúy An Dương"},"100005128598537":{"id":"100005128598537","name":"Chinh Nguyễn"},"100004218876620":{"id":"100004218876620","name":"Linh Truong"},"100005107090292":{"id":"100005107090292","name":"Yen Le"},"100005003047692":{"id":"100005003047692","name":"Thanh Mèo"},"100002853438802":{"id":"100002853438802","name":"Thanh Thu"},"100007930417031":{"id":"100007930417031","name":"Trang Yamato"},"100004764452387":{"id":"100004764452387","name":"Nguyễn Hồng Nhung"},"100008032451032":{"id":"100008032451032","name":"Suýt Ẹp Choai"},"100003961115216":{"id":"100003961115216","name":"Chang Pham"},"100006800430654":{"id":"100006800430654","name":"Ha Quan"},"100003144113910":{"id":"100003144113910","name":"Xuy Kute"},"100007506151020":{"id":"100007506151020","name":"Em Sai"},"100000148600266":{"id":"100000148600266","name":"Tamomi Chan"},"100003023852973":{"id":"100003023852973","name":"Rjo Nguy Hiểm"},"100003462033553":{"id":"100003462033553","name":"Hoàng Ly"},"100001738431359":{"id":"100001738431359","name":"Phuongthao Nguyen"},"100005924851985":{"id":"100005924851985","name":"Pham Thu Hien"},"100002225283681":{"id":"100002225283681","name":"Nguyễn Châu"},"100004916201437":{"id":"100004916201437","name":"Tuyền Bắp"},"100007989692592":{"id":"100007989692592","name":"Xuatkhau Laodong"},"100005275147210":{"id":"100005275147210","name":"Rose Yokuda"},"100002959714236":{"id":"100002959714236","name":"Quỳnh Anh"},"100004200277026":{"id":"100004200277026","name":"Phong Tran"},"100008133690691":{"id":"100008133690691","name":"Con Yêu Mẹ"},"100007027184090":{"id":"100007027184090","name":"Xuan My"},"100004400315117":{"id":"100004400315117","name":"Tiểu Hoa Đà"},"100006029490374":{"id":"100006029490374","name":"Ha Khac Kim"},"100005231773593":{"id":"100005231773593","name":"Tuan Teu"},"100007965550850":{"id":"100007965550850","name":"Trương Nhi"},"100003242552199":{"id":"100003242552199","name":"Kim Anh Dang"},"100003957878204":{"id":"100003957878204","name":"Ma Kết"},"100002113085507":{"id":"100002113085507","name":"Pon Trọc Kamiki"},"100003017563050":{"id":"100003017563050","name":"Nu Nhí Nhố"},"100004120086625":{"id":"100004120086625","name":"Hat Cat Vo Hinh"},"100004512390831":{"id":"100004512390831","name":"Cơn Gió Nhẹ"},"100001341921156":{"id":"100001341921156","name":"Dinh Nguyen"},"100004547294167":{"id":"100004547294167","name":"Lê Hương"},"100001702762210":{"id":"100001702762210","name":"Lệ Minh"},"100000495302979":{"id":"100000495302979","name":"Huy Toàn"},"100006409272147":{"id":"100006409272147","name":"Joshi Kousei"},"100004559310139":{"id":"100004559310139","name":"Cao Cường"},"100006083164006":{"id":"100006083164006","name":"Truong Dollar"},"100004253979918":{"id":"100004253979918","name":"Louis Hoàng Văn Thái"},"100001416272263":{"id":"100001416272263","name":"Mai PB"},"100005802182631":{"id":"100005802182631","name":"Xuân Nguyễn"},"100004072426763":{"id":"100004072426763","name":"Phạm Lương"},"100003168663740":{"id":"100003168663740","name":"Ớt Ngọt"},"100003695504730":{"id":"100003695504730","name":"Tàu Ngầm"},"100007517710642":{"id":"100007517710642","name":"Hoa Mai"},"100000271705877":{"id":"100000271705877","name":"Nguyễn Văn Minh"},"100006679113531":{"id":"100006679113531","name":"Trịnh Duyên"},"1819602846":{"id":"1819602846","name":"Trâm Jewel"},"100004323549447":{"id":"100004323549447","name":"Ốc Hương"},"100005200901301":{"id":"100005200901301","name":"Cat Bui"},"100001292539538":{"id":"100001292539538","name":"Mit Va Tit"},"100002084634368":{"id":"100002084634368","name":"Hoàng Hải"},"100005798250165":{"id":"100005798250165","name":"Trang Nguyễn"},"100006533318497":{"id":"100006533318497","name":"Linh Loan"},"100007554789841":{"id":"100007554789841","name":"Maki Tasaki"},"100005485024776":{"id":"100005485024776","name":"Phan Công Tâm"},"100007798380150":{"id":"100007798380150","name":"海外移住"},"100001880901011":{"id":"100001880901011","name":"Số Không"},"100004001207045":{"id":"100004001207045","name":"Tùng Boong Boong"},"100003038212989":{"id":"100003038212989","name":"Hoàng Duy"},"100006498121916":{"id":"100006498121916","name":"Thao Van"},"100006414572571":{"id":"100006414572571","name":"Chuyentinhtren Thảo Nguyên"},"100004340858702":{"id":"100004340858702","name":"Boniva Capricornus"},"100003192597026":{"id":"100003192597026","name":"Trung Nguyen"},"100005067546276":{"id":"100005067546276","name":"Quynh Buivan"},"100003302488343":{"id":"100003302488343","name":"Đứng Dậy Vươn Vai"},"100003027977812":{"id":"100003027977812","name":"Hoa Huynh"},"100002940938517":{"id":"100002940938517","name":"Nhung Heo"},"100002824100999":{"id":"100002824100999","name":"Hoài Nhàn Nguyễn"},"100003962466662":{"id":"100003962466662","name":"Dương Dũng"},"100008007091627":{"id":"100008007091627","name":"Uyên Peridot"},"100007044511357":{"id":"100007044511357","name":"Boon Trần"},"100001836341721":{"id":"100001836341721","name":"Vit Con Xau Xi"},"100003011417151":{"id":"100003011417151","name":"Hue Kim"},"100004330682431":{"id":"100004330682431","name":"Thoa Candy"},"100003696799824":{"id":"100003696799824","name":"Gấu Kute"},"100004889430124":{"id":"100004889430124","name":"Quiet Man"},"100007298857847":{"id":"100007298857847","name":"Miu Thanh"},"100004735472502":{"id":"100004735472502","name":"Nguyễn Đức Trung"},"100005902392514":{"id":"100005902392514","name":"Kaori"},"100005933650210":{"id":"100005933650210","name":"Thuy An Tran"},"100001663326777":{"id":"100001663326777","name":"Yuri Chan"},"100001233118357":{"id":"100001233118357","name":"Trần Đức Thân"},"100007875486503":{"id":"100007875486503","name":"Hồng Đức Trong Tôi"},"100004402898867":{"id":"100004402898867","name":"Keepy Le"},"100006011495971":{"id":"100006011495971","name":"Hà Siêu Ú"},"100006569221461":{"id":"100006569221461","name":"Phương Thảo"},"100003129280901":{"id":"100003129280901","name":"Phan Thuy Hang"},"100003568206957":{"id":"100003568206957","name":"Dece Ngthv"},"100004621629700":{"id":"100004621629700","name":"Nguyễn Nghĩa"},"100002984557771":{"id":"100002984557771","name":"Hau Dao"},"100006271507308":{"id":"100006271507308","name":"Bùi Quỳnh Anh XS"},"100003956090799":{"id":"100003956090799","name":"Tung Chelsea"},"100006299772244":{"id":"100006299772244","name":"Nguyễn Tuấn"},"1284914607":{"id":"1284914607","name":"Hằng Minh Phạm"},"100008052342996":{"id":"100008052342996","name":"Thuy Chi"},"100000419894721":{"id":"100000419894721","name":"Minh Hong"},"100004512333714":{"id":"100004512333714","name":"Đạt Titikaka"},"100001643497965":{"id":"100001643497965","name":"Luna Lynn"},"100000474967022":{"id":"100000474967022","name":"The Vinh"},"100003650441746":{"id":"100003650441746","name":"Yo Ko So"},"100003182187634":{"id":"100003182187634","name":"Nguyễn Huy Hiệp"},"100005187367701":{"id":"100005187367701","name":"Hoang Ly"},"100004094256514":{"id":"100004094256514","name":"Nitkon Nguyễn"},"100000201901683":{"id":"100000201901683","name":"Loan Nguyen"},"100004313589403":{"id":"100004313589403","name":"Phuocthua Lại"},"100000187856584":{"id":"100000187856584","name":"Linh Hachi"},"100004395960771":{"id":"100004395960771","name":"YuMe Anh Đào"},"100001016429049":{"id":"100001016429049","name":"Huong Le"},"100003143534122":{"id":"100003143534122","name":"Thuong Hoai"},"100003924638739":{"id":"100003924638739","name":"Toi La Ai"},"100000076592588":{"id":"100000076592588","name":"Trúc Lê"},"100006367092088":{"id":"100006367092088","name":"Son Nguyenthuy"},"100003836713505":{"id":"100003836713505","name":"Châu Minh Huỳnh"},"100006675074577":{"id":"100006675074577","name":"Tomato Lạnh"},"100008064215029":{"id":"100008064215029","name":"Chấm Nhỏ Vĩ Đại"},"100003920610348":{"id":"100003920610348","name":"Mac Tuan"},"100003737199270":{"id":"100003737199270","name":"CuFu Deal"},"100007996022475":{"id":"100007996022475","name":"Huy Dan  Tran"},"100006380262297":{"id":"100006380262297","name":"Sunny Hồng Nữ"},"100000441720012":{"id":"100000441720012","name":"Tran Diem"},"100003465567929":{"id":"100003465567929","name":"Lê Chi"},"100000089472724":{"id":"100000089472724","name":"Duy Nguyen"},"100007571106604":{"id":"100007571106604","name":"Ngan Nguyen"},"100003138207111":{"id":"100003138207111","name":"Hạnh Nguyễn"},"1146680551":{"id":"1146680551","name":"優しい なぁ"},"100003672713217":{"id":"100003672713217","name":"Trống Rỗng Trống Rỗng"},"100006734168968":{"id":"100006734168968","name":"Tiểu Nhân Mã"},"569263718":{"id":"569263718","name":"Phuong Thao Tran"},"100006848703849":{"id":"100006848703849","name":"Mai Phương"},"100003878132073":{"id":"100003878132073","name":"Luan Tran Van"},"100004026761828":{"id":"100004026761828","name":"Lanina Lâm"},"100003285383982":{"id":"100003285383982","name":"Yume Maboroshi"},"100003841915569":{"id":"100003841915569","name":"Quang Hợp"},"100007996623103":{"id":"100007996623103","name":"Tu Nguyen Dang"},"100000120802520":{"id":"100000120802520","name":"Hồng Anh"},"100004221600922":{"id":"100004221600922","name":"Thịnh Nguyễn"},"100004282271256":{"id":"100004282271256","name":"Dy Nguyen"},"100003227211791":{"id":"100003227211791","name":"Lan Lan"},"100005634519705":{"id":"100005634519705","name":"Chú Voi Còi"},"100003695800615":{"id":"100003695800615","name":"Phượng Phạm"},"100004871794179":{"id":"100004871794179","name":"Lee Mi Nguyen"},"100004973283998":{"id":"100004973283998","name":"Hoai Dang"},"100003971203278":{"id":"100003971203278","name":"Cường Lê"},"100007972864980":{"id":"100007972864980","name":"Emnho Anhvocung"},"100004271412499":{"id":"100004271412499","name":"Vũ Nghĩa"},"100003992111176":{"id":"100003992111176","name":"Nam Tào"},"100004011646310":{"id":"100004011646310","name":"Sakura Chung"},"100001765764359":{"id":"100001765764359","name":"グエン ハング"},"100006865964549":{"id":"100006865964549","name":"Vâng Em Đểu"},"100002975299796":{"id":"100002975299796","name":"Trinh Tuan Anh"},"100004917425745":{"id":"100004917425745","name":"Nhân Tâm"},"100002913281005":{"id":"100002913281005","name":"Hà Mã"},"100002956004854":{"id":"100002956004854","name":"Tường Vy"},"100004385972950":{"id":"100004385972950","name":"Hạnh Văn"},"100003916838960":{"id":"100003916838960","name":"Hương Libra"},"100002929489687":{"id":"100002929489687","name":"Yume Yuyu"},"100003588858942":{"id":"100003588858942","name":"Sa Nguyễn"},"100005757070446":{"id":"100005757070446","name":"Vu Quang"},"100001738887873":{"id":"100001738887873","name":"Hoang Le"},"100006565447607":{"id":"100006565447607","name":"Hương Ngọc Lan"},"100001583708890":{"id":"100001583708890","name":"Dung Pé Heo"},"100003590527832":{"id":"100003590527832","name":"Heo Sữa"},"1387435193":{"id":"1387435193","name":"Harsha Karunarathna"},"100006481061284":{"id":"100006481061284","name":"Junya  Akutsu"},"100004293060475":{"id":"100004293060475","name":"Huynh Trinh"},"100004004426525":{"id":"100004004426525","name":"Vi Trùng"},"100005024348771":{"id":"100005024348771","name":"Long Hoàng"},"100003337412856":{"id":"100003337412856","name":"Vo Bac"},"100004549866329":{"id":"100004549866329","name":"Jony Quang"},"100004375364623":{"id":"100004375364623","name":"Quang Lê"},"100001786404410":{"id":"100001786404410","name":"Huệ Nguyễn"},"100004196113423":{"id":"100004196113423","name":"Đồng Hiền"},"100004085927294":{"id":"100004085927294","name":"Amsterdam Sa"},"100004484562803":{"id":"100004484562803","name":"Nỗiđautớgiấu Cậuhiểuthấu Đượcbaonhiêu"},"100003208054206":{"id":"100003208054206","name":"Cường Nguyễn"},"100001995633843":{"id":"100001995633843","name":"Yasunobu Toda"},"100003024730023":{"id":"100003024730023","name":"Sachiko Hạnh"},"100005917954526":{"id":"100005917954526","name":"Người Hoa Gốc Việt"},"100007446790574":{"id":"100007446790574","name":"Hoàng Công Viên"},"100004141509084":{"id":"100004141509084","name":"Kẹo Kẹo"},"100003607925265":{"id":"100003607925265","name":"Thu Hằng"},"100007051600515":{"id":"100007051600515","name":"Giang Nguyễn"},"100004258027371":{"id":"100004258027371","name":"Rang Nguyen"},"100004551365667":{"id":"100004551365667","name":"Dong Ho Cat"},"100007705662691":{"id":"100007705662691","name":"Hue Vu"},"100005327112379":{"id":"100005327112379","name":"Guongcuoideem Dk Hanhphuk"},"100004321568905":{"id":"100004321568905","name":"Anh Sino"},"100002916665535":{"id":"100002916665535","name":"Naga Tsuki"},"100003449691197":{"id":"100003449691197","name":"Vũ Văn Hoài"},"100005206751658":{"id":"100005206751658","name":"Gin Satoh"},"100006129404404":{"id":"100006129404404","name":"Tien Nguyencong"},"100003340002245":{"id":"100003340002245","name":"Nguyenthe Trac"},"100003072751555":{"id":"100003072751555","name":"Bui Dinh Truong"},"100000298989958":{"id":"100000298989958","name":"Anh Đô"},"100001011735320":{"id":"100001011735320","name":"Trí Đinh"},"100001260645727":{"id":"100001260645727","name":"Ngo Duy Son"},"100001824172942":{"id":"100001824172942","name":"Phan Van"},"100007996688840":{"id":"100007996688840","name":"Dũng Dũng"},"100004934352605":{"id":"100004934352605","name":"Moon HA Noi"},"100004481400197":{"id":"100004481400197","name":"Sếp Lùn"},"100006590884923":{"id":"100006590884923","name":"Rubi Nguyễn"},"100005801442456":{"id":"100005801442456","name":"An Nguyen"},"100005627101557":{"id":"100005627101557","name":"Tuyen Bui"},"100006859893056":{"id":"100006859893056","name":"Yến Thanh"},"100005121093576":{"id":"100005121093576","name":"Hao Hao"},"100000814940278":{"id":"100000814940278","name":"Pham van Thao"},"100002938789788":{"id":"100002938789788","name":"Bờm Bờm"},"100007058828518":{"id":"100007058828518","name":"Nhàn Hảii"},"100005744642424":{"id":"100005744642424","name":"Hai Quân"},"100001668962705":{"id":"100001668962705","name":"Vinh Quang"},"100004522323186":{"id":"100004522323186","name":"Đỗ Văn Thắng"},"100003496991813":{"id":"100003496991813","name":"Gió Oo"},"100004297386794":{"id":"100004297386794","name":"Le Anh Linh"},"100007855782672":{"id":"100007855782672","name":"Dương Tuấn"},"100004827720249":{"id":"100004827720249","name":"Thuyhong Le"},"100005217243496":{"id":"100005217243496","name":"Dai Gia Oto"},"100002923913474":{"id":"100002923913474","name":"Tran Ngoc"},"100007806284139":{"id":"100007806284139","name":"Đặng Yên"},"100003275658608":{"id":"100003275658608","name":"Đỗ Hữu Phúc"},"620066722":{"id":"620066722","name":"Dong Khac Thai"},"100004061553773":{"id":"100004061553773","name":"Linh Lê"},"100005299417294":{"id":"100005299417294","name":"Vui Nguyễn"},"100002963737004":{"id":"100002963737004","name":"Hà Phùng"},"100004100402648":{"id":"100004100402648","name":"Dap Vo Cay Dan"},"100003058280462":{"id":"100003058280462","name":"Đặng Văn Thành"},"100006879393527":{"id":"100006879393527","name":"Nam Đinh"},"100004569372269":{"id":"100004569372269","name":"Thuỷ Nguyễn"},"100005563322933":{"id":"100005563322933","name":"Nguyễn Trang"},"100007132388972":{"id":"100007132388972","name":"Van Anh"},"100002224038946":{"id":"100002224038946","name":"Lê Duy Thành"},"100002966928087":{"id":"100002966928087","name":"Nguyen van Dat"},"100003875131996":{"id":"100003875131996","name":"Ngoc Anh"},"100003622340096":{"id":"100003622340096","name":"Kougyoku Guen"},"100008071332361":{"id":"100008071332361","name":"Bobo Chan"},"100007995421886":{"id":"100007995421886","name":"Ừ Anh Sẽ Đợi"}},"paging":{"cursors":{"after":"MTAwMDAzMjEzNjU3ODc4","before":"MTAwMDAzMjEzNjU3ODc4"},"next":"https://graph.facebook.com/229244010425617_845344118815600/likes?limit=1&summary=1&after=MTAwMDAzMjEzNjU3ODc4"},"summary":{"total_count":261}},"comments":{"data":{"845347275481951":{"id":"845347275481951","from":{"id":"100007806284139","name":"Đặng Yên"},"message":"すてきですね.","can_remove":false,"created_time":"2014-04-04T13:12:01+0000","like_count":1,"user_likes":false},"845348492148496":{"id":"845348492148496","from":{"id":"100007995421886","name":"Ừ Anh Sẽ Đợi"},"message":"@@ ! Đặng Yên","message_tags":[{"id":"100007806284139","name":"Đặng Yên","type":"user","offset":5,"length":8}],"can_remove":false,"created_time":"2014-04-04T13:14:44+0000","like_count":0,"user_likes":false},"845350415481637":{"id":"845350415481637","from":{"id":"100007806284139","name":"Đặng Yên"},"message":"có chuyện j vậy ạk... Ừ Anh Sẽ Đợi...?","message_tags":[{"id":"100007995421886","name":"Ừ Anh Sẽ Đợi","type":"user","offset":22,"length":12}],"can_remove":false,"created_time":"2014-04-04T13:16:51+0000","like_count":0,"user_likes":false},"845354388814573":{"id":"845354388814573","from":{"id":"620066722","name":"Dong Khac Thai"},"message":"Từ Đồ Vương Lãng: nói chuyện nghiệm túc nhé bạn","message_tags":[{"id":"100007054592614","name":"Từ Đồ Vương Lãng","type":"user","offset":0,"length":16}],"can_remove":false,"created_time":"2014-04-04T13:27:12+0000","like_count":1,"user_likes":false},"845354908814521":{"id":"845354908814521","from":{"id":"100007995421886","name":"Ừ Anh Sẽ Đợi"},"message":"những người như vậy không nên nói làm gì bạn ạ !","can_remove":false,"created_time":"2014-04-04T13:28:15+0000","like_count":1,"user_likes":false},"845355605481118":{"id":"845355605481118","from":{"id":"100001432462223","name":"Truong Nguyen"},"message":"kể cả ko áo dài vẫn yêu (^^)","can_remove":false,"created_time":"2014-04-04T13:29:37+0000","like_count":2,"user_likes":false},"845356118814400":{"id":"845356118814400","from":{"id":"100007806284139","name":"Đặng Yên"},"message":"そうです.","can_remove":false,"created_time":"2014-04-04T13:30:08+0000","like_count":0,"user_likes":false},"845357462147599":{"id":"845357462147599","from":{"id":"100001432462223","name":"Truong Nguyen"},"message":":)) nude","can_remove":false,"created_time":"2014-04-04T13:31:16+0000","like_count":2,"user_likes":false},"845359412147404":{"id":"845359412147404","from":{"id":"100007995421886","name":"Ừ Anh Sẽ Đợi"},"message":"Mình muốn chia sẻ những hình ảnh tốt của đất nước Nhật và những người Việt đang đã và sẽ sinh sống và làm việc tại đất nước mặt trời mọc mong các bạn ủng hộ ...!","can_remove":false,"created_time":"2014-04-04T13:33:18+0000","like_count":5,"user_likes":false},"845360258813986":{"id":"845360258813986","from":{"id":"100001432462223","name":"Truong Nguyen"},"message":"mình muốn đc xem ảnh suối nc nóng Nhật đc ko ^^","can_remove":false,"created_time":"2014-04-04T13:34:35+0000","like_count":1,"user_likes":false},"845362145480464":{"id":"845362145480464","from":{"id":"100007995421886","name":"Ừ Anh Sẽ Đợi"},"message":"hiiii 1 dịp nào đó bạn nhé vì những hình ảnh này mình đi chơi ở đâu là chụp ở đó","can_remove":false,"created_time":"2014-04-04T13:35:42+0000","like_count":1,"user_likes":false},"845363038813708":{"id":"845363038813708","from":{"id":"100001432462223","name":"Truong Nguyen"},"message":"^^ bạn đi  chơi đi","can_remove":false,"created_time":"2014-04-04T13:36:38+0000","like_count":0,"user_likes":false},"845363475480331":{"id":"845363475480331","from":{"id":"100007995421886","name":"Ừ Anh Sẽ Đợi"},"message":"cuối tuần hoặc những kỳ nghỉ dài mình mới đi được. ngày bình thường còn phải đi cày bạn ạ @@","can_remove":false,"created_time":"2014-04-04T13:37:50+0000","like_count":0,"user_likes":false},"845363765480302":{"id":"845363765480302","from":{"id":"100005917954526","name":"Người Hoa Gốc Việt"},"message":"công nhận đẹp thật <3","can_remove":false,"created_time":"2014-04-04T13:38:22+0000","like_count":2,"user_likes":false},"845364025480276":{"id":"845364025480276","from":{"id":"100001432462223","name":"Truong Nguyen"},"message":":)) cố nghỉ đi","can_remove":false,"created_time":"2014-04-04T13:39:00+0000","like_count":0,"user_likes":false},"845364528813559":{"id":"845364528813559","from":{"id":"100007995421886","name":"Ừ Anh Sẽ Đợi"},"message":"hỳ hỳ sao nghỉ được !","can_remove":false,"created_time":"2014-04-04T13:40:03+0000","like_count":1,"user_likes":false},"845365065480172":{"id":"845365065480172","from":{"id":"100001432462223","name":"Truong Nguyen"},"message":":)) vui vậy thôi mà :)) cám ơn vì bức ảnh","can_remove":false,"created_time":"2014-04-04T13:41:29+0000","like_count":2,"user_likes":false},"845373815479297":{"id":"845373815479297","from":{"id":"100004917425745","name":"Nhân Tâm"},"message":"(y) Áo dài Huế chơ bạn hihi ^^","can_remove":false,"created_time":"2014-04-04T13:56:48+0000","like_count":1,"user_likes":false},"845377418812270":{"id":"845377418812270","from":{"id":"100004271412499","name":"Vũ Nghĩa"},"message":"cái này là yutaka phải k ạ","can_remove":false,"created_time":"2014-04-04T14:03:23+0000","like_count":0,"user_likes":false},"845377842145561":{"id":"845377842145561","from":{"id":"100007995421886","name":"Ừ Anh Sẽ Đợi"},"message":"Yutaka ???","can_remove":false,"created_time":"2014-04-04T14:04:31+0000","like_count":0,"user_likes":false},"845377968812215":{"id":"845377968812215","from":{"id":"100004271412499","name":"Vũ Nghĩa"},"message":"đúng k ạ","can_remove":false,"created_time":"2014-04-04T14:04:51+0000","like_count":0,"user_likes":false},"845378358812176":{"id":"845378358812176","from":{"id":"100007995421886","name":"Ừ Anh Sẽ Đợi"},"message":"Ko phải bạn ah","can_remove":false,"created_time":"2014-04-04T14:05:16+0000","like_count":0,"user_likes":false},"845378828812129":{"id":"845378828812129","from":{"id":"100001432462223","name":"Truong Nguyen"},"message":"vãi quốc phục VN bạn ơi :3","can_remove":false,"created_time":"2014-04-04T14:05:48+0000","like_count":0,"user_likes":false},"845378848812127":{"id":"845378848812127","from":{"id":"100004271412499","name":"Vũ Nghĩa"},"message":"k lẽ là kimono hả bạn,hay là gì,mình k biết rõ lắm","can_remove":false,"created_time":"2014-04-04T14:05:49+0000","like_count":0,"user_likes":false},"845379572145388":{"id":"845379572145388","from":{"id":"100001432462223","name":"Truong Nguyen"},"message":"áo dài ấy, áo dài Việt Nam ấy:)","can_remove":false,"created_time":"2014-04-04T14:07:35+0000","like_count":0,"user_likes":false},"845379702145375":{"id":"845379702145375","from":{"id":"100001432462223","name":"Truong Nguyen"},"message":"bạn có thích áo dài đi mưa ko :v","can_remove":false,"created_time":"2014-04-04T14:07:59+0000","like_count":0,"user_likes":false},"845394452143900":{"id":"845394452143900","from":{"id":"100006389914643","name":"The Anh Dinh"},"message":"Ao dai vn&kimono nb ca 2 deu dep","can_remove":false,"created_time":"2014-04-04T14:30:16+0000","like_count":1,"user_likes":false},"845406005476078":{"id":"845406005476078","from":{"id":"100001016429049","name":"Huong Le"},"message":"cái nào cũng xinh, người mặc cũng xinh :)","can_remove":false,"created_time":"2014-04-04T14:56:19+0000","like_count":1,"user_likes":false},"845445495472129":{"id":"845445495472129","from":{"id":"100004460707948","name":"Akemi Tran"},"message":"totemo kire desune","can_remove":false,"created_time":"2014-04-04T16:18:10+0000","like_count":2,"user_likes":false},"845661758783836":{"id":"845661758783836","from":{"id":"1819602846","name":"Trâm Jewel"},"message":"Những hình ảnh thật đẹp, chắc hẳn các ban quốc tế sẽ thấy một vn hiền hòa đáng yêu. Gần đây có vài b đưa lên nhiều hảnh xấu nhưng ko có giải pháp với cái nhìn tiêu cực, phiến diện. Nhưng ko đại diện cho điều j cả, nghèo đói thì sih tệ nạn đâu cũng vậy","can_remove":false,"created_time":"2014-04-05T01:19:57+0000","like_count":1,"user_likes":false},"845662322117113":{"id":"845662322117113","from":{"id":"1819602846","name":"Trâm Jewel"},"message":"Nếu c bạn để ý sẽ thấy đều là nick mới lập của bên phản động chống phá cq. M ko ủng hộ bên nào cả, chỉ mong các b giúp cải thiện ha dân tộc m trong mắt bb quốc tế","can_remove":false,"created_time":"2014-04-05T01:21:34+0000","like_count":1,"user_likes":false},"845725602110785":{"id":"845725602110785","from":{"id":"100006409272147","name":"Joshi Kousei"},"message":"Nếu sang Nhật kiểu gì mình cũng phải sắm áo dài để mang sang đó mới được!","can_remove":false,"created_time":"2014-04-05T04:16:36+0000","like_count":2,"user_likes":false},"845748068775205":{"id":"845748068775205","from":{"id":"100004646794576","name":"Pham Hoang Viet"},"message":"rất tuyệt vời","can_remove":false,"created_time":"2014-04-05T05:33:48+0000","like_count":1,"user_likes":false},"845748935441785":{"id":"845748935441785","from":{"id":"100004423266449","name":"Be Keo"},"message":"Áo dài của vn thì ok nhưng ng mặc thì.....oe oe","can_remove":false,"created_time":"2014-04-05T05:36:52+0000","like_count":0,"user_likes":false},"845896905426988":{"id":"845896905426988","from":{"id":"100007995421886","name":"Ừ Anh Sẽ Đợi"},"message":"Người mặc thì sao bạn ???","can_remove":false,"created_time":"2014-04-05T12:47:20+0000","like_count":1,"user_likes":false},"845984418751570":{"id":"845984418751570","from":{"id":"100004423266449","name":"Be Keo"},"message":"Chẳng đẹp tẹo nào thậm chí còn làm cho áo dài việt nam mất dáng","can_remove":false,"created_time":"2014-04-05T16:00:15+0000","like_count":0,"user_likes":false},"845984802084865":{"id":"845984802084865","from":{"id":"100007995421886","name":"Ừ Anh Sẽ Đợi"},"message":"Vậy hả ! Thế ntn thì áo dài Vn có dáng vậy bạn ?","can_remove":false,"created_time":"2014-04-05T16:01:33+0000","like_count":0,"user_likes":false},"845985535418125":{"id":"845985535418125","from":{"id":"100004423266449","name":"Be Keo"},"message":"Bn nhìn lại ảnh coi....bn ý mặc rộng như áo đi mượn của ng khác.....","can_remove":false,"created_time":"2014-04-05T16:03:04+0000","like_count":0,"user_likes":false},"846303245386354":{"id":"846303245386354","from":{"id":"100007995421886","name":"Ừ Anh Sẽ Đợi"},"message":"Chắc bạn mặc áo dài đẹp lắm nhỉ @Be Keo","can_remove":false,"created_time":"2014-04-06T06:48:33+0000","like_count":1,"user_likes":false}},"paging":{"cursors":{"after":"ODQ1MzQ3Mjc1NDgxOTUx","before":"ODQ1MzQ3Mjc1NDgxOTUx"},"next":"https://graph.facebook.com/229244010425617_845344118815600/comments?limit=1&summary=1&after=ODQ1MzQ3Mjc1NDgxOTUx"},"summary":{"order":"chronological","total_count":39}}}