{"id":"229244010425617_845393615477317","type":"link","picture":"https://fbexternal-a.akamaihd.net/safe_image.php?d=AQDnIuCr2jqLlSvY&w=154&h=154&url=http%3A%2F%2Fimg1.thethaovanhoa.vn%2FthumbImages%2F2014%2F03%2F27%2F10%2F25%2Fcuoituan13_300.jpg","link":"http://thethaovanhoa.vn/dien-dan-van-hoa/tu-viec-canh-sat-nhat-hoc-tieng-viet-noi-dau-tieng-dan-toc-n20140331074415796.htm","from":{"id":"100000504109240","name":"Khánh Trình"},"message":"Ngẫm mà buồn....","created_time":"2014-04-04T14:28:30+0000","updated_time":"2014-04-04T20:16:47+0000","likes":{"data":{"100002147884296":{"id":"100002147884296","name":"Ngoc Tran"},"1797023909":{"id":"1797023909","name":"Nhoc Misaki Vu"},"100006256235947":{"id":"100006256235947","name":"Nguyen Thuy"},"100004512390831":{"id":"100004512390831","name":"Cơn Gió Nhẹ"},"100004517491075":{"id":"100004517491075","name":"Nguyen Manh Tung"},"100004619430334":{"id":"100004619430334","name":"Haru Kiseki"},"100001341921156":{"id":"100001341921156","name":"Dinh Nguyen"},"100000495302979":{"id":"100000495302979","name":"Huy Toàn"},"100004483324084":{"id":"100004483324084","name":"Trần Hòa"},"100000637502679":{"id":"100000637502679","name":"Phạm Dương"},"100002707392534":{"id":"100002707392534","name":"Thang Vo"},"100005703791922":{"id":"100005703791922","name":"Hoa Tiên Tử"},"100006307596308":{"id":"100006307596308","name":"Khi Nào Đổi Thay"},"100006899764031":{"id":"100006899764031","name":"Chuột Con"},"100000068660150":{"id":"100000068660150","name":"Hito Kami"},"100001614143866":{"id":"100001614143866","name":"Lại Là Thành"},"100004362480675":{"id":"100004362480675","name":"Đi Tìm Thất Bại"},"100000357360778":{"id":"100000357360778","name":"Huy Phạm"},"100004935031711":{"id":"100004935031711","name":"Thanh Chuxu"},"100004431820493":{"id":"100004431820493","name":"Sabishii Aki"},"100004591630960":{"id":"100004591630960","name":"Ngân Ngang Ngược"},"100000795770040":{"id":"100000795770040","name":"Nghĩa Trần"},"100001199096236":{"id":"100001199096236","name":"Phúc Vũ Viết Phúc"},"100000115580730":{"id":"100000115580730","name":"Duy Tùng"},"100004313402997":{"id":"100004313402997","name":"Trang Nguyen"},"100001787704723":{"id":"100001787704723","name":"Thạch Anh Tím"},"100002975299796":{"id":"100002975299796","name":"Trinh Tuan Anh"},"100006734168968":{"id":"100006734168968","name":"Tiểu Nhân Mã"},"100008132528372":{"id":"100008132528372","name":"ズオン ヒエン"},"100008064215029":{"id":"100008064215029","name":"Chấm Nhỏ Vĩ Đại"},"1416265619":{"id":"1416265619","name":"Starwar Bbj"},"100007996688840":{"id":"100007996688840","name":"Dũng Dũng"}},"paging":{"cursors":{"after":"MTAwMDAyMTQ3ODg0Mjk2","before":"MTAwMDAyMTQ3ODg0Mjk2"},"next":"https://graph.facebook.com/229244010425617_845393615477317/likes?limit=1&summary=1&after=MTAwMDAyMTQ3ODg0Mjk2"},"summary":{"total_count":32}},"comments":{"data":{"845398765476802":{"id":"845398765476802","from":{"id":"100007187850069","name":"Tập Sống Ích Kỉ"},"message":"Tất cả là tại mấy ngưoi não bé thôi. Bây giờ chúng tôi phải khổ. Não bé thì ở nhà mẹ đi. Bày đặt qua Nhật.","can_remove":false,"created_time":"2014-04-04T14:40:37+0000","like_count":1,"user_likes":false},"845400158809996":{"id":"845400158809996","from":{"id":"100000504109240","name":"Khánh Trình"},"message":"đúng. con sâu làm rầu nồi canh. Tập Sống Ích Kỉ chỉ cần mình không phải là con sâu đó thì tôi tin dần dần mình sẽ có một nồi canh ngọn thôi.","message_tags":[{"id":"100007187850069","name":"Tập Sống Ích Kỉ","type":"user","offset":32,"length":15}],"can_remove":false,"created_time":"2014-04-04T14:43:54+0000","like_count":0,"user_likes":false},"845405152142830":{"id":"845405152142830","from":{"id":"100003822434250","name":"Sói Đây Gà Đâu"},"message":"Đau lắm. Đi làm ở trường tiều học nhật bị thằng lớp 3 bảo mình là thằng ăn trộm khi mình nói mình là người vn. Thất bại thật .","can_remove":false,"created_time":"2014-04-04T14:53:59+0000","like_count":5,"user_likes":false},"845406248809387":{"id":"845406248809387","from":{"id":"100000504109240","name":"Khánh Trình"},"message":"cố gắng lên b. hãy sống không hổ thẹn với 2 tiếng thiêng liêng Việt Nam là được.","can_remove":false,"created_time":"2014-04-04T14:57:10+0000","like_count":0,"user_likes":false},"845407848809227":{"id":"845407848809227","from":{"id":"100003822434250","name":"Sói Đây Gà Đâu"},"message":"Ko chúi vào đâu đk giải thích mãi ...","can_remove":false,"created_time":"2014-04-04T15:00:38+0000","like_count":1,"user_likes":false},"845441692139176":{"id":"845441692139176","from":{"id":"100008010333387","name":"Eagle Vothuong"},"message":"Điên cả tập đoàn! Thế gọi là xoá mù chữ cho cs Nhật. Thế giờ cs Việt hok tiếng Nhật lại là nỗi đau of nc Nhật chắc!","can_remove":false,"created_time":"2014-04-04T16:09:00+0000","like_count":0,"user_likes":false},"845442852139060":{"id":"845442852139060","from":{"id":"100008010333387","name":"Eagle Vothuong"},"message":"Ng não bé là những ng gây chuyện. Còn nhưng ng viết tựa đề giống như thế này là thực vật k não","can_remove":false,"created_time":"2014-04-04T16:11:30+0000","like_count":2,"user_likes":false},"845473035469375":{"id":"845473035469375","from":{"id":"100000504109240","name":"Khánh Trình"},"message":"Eagle Vothuong hjjjjj.....","message_tags":[{"id":"100008010333387","name":"Eagle Vothuong","type":"user","offset":0,"length":14}],"can_remove":false,"created_time":"2014-04-04T17:09:09+0000","like_count":0,"user_likes":false},"845563158793696":{"id":"845563158793696","from":{"id":"100006307596308","name":"Khi Nào Đổi Thay"},"message":"học cũng hay, nếu bên này có gì bất khuất cần đến công an giải quyết thì có người hiểu để rãi bầy","can_remove":false,"created_time":"2014-04-04T20:16:47+0000","like_count":1,"user_likes":false}},"paging":{"cursors":{"after":"ODQ1Mzk4NzY1NDc2ODAy","before":"ODQ1Mzk4NzY1NDc2ODAy"},"next":"https://graph.facebook.com/229244010425617_845393615477317/comments?limit=1&summary=1&after=ODQ1Mzk4NzY1NDc2ODAy"},"summary":{"order":"chronological","total_count":9}}}