{"id":"229244010425617_845419008808111","type":"status","from":{"id":"1146680551","name":"優しい なぁ"},"message":"Đây là một trong những ビジネスクイズ (Đố vui về kinh doanh) của hãng Hitachi. Tham gia cho vui nhé. :3\n\nPhần 2: \nBạn là một nhân viên mới của công ty, lần đầu đi dự tiệc chiêu đãi, trong đó có cả \" sếp \" bự. 4 người cùng bắt taxi đến nhà hàng, vậy bạn sẽ ngồi ở đâu khi lên taxi?\n\n上司とともに初めての接待。次のお店へ4名で移動の際、タクシーを利用することに。新入社員のあなたは、どこに座りますか？\n\nA：後部座席の中央\n(Ngồi ở vị trí giữa của ghế sau)\n\nB：運転手の後ろ。\n(Ngồi ở vị trí ngay sau bác tài xế )\n\nC：助手席。\n(Ngồi ở ghế lái phụ )\n\nD：助手席の後ろ。\n( Ngồi ở vị trí sau ghế lái phụ)","created_time":"2014-04-04T15:23:35+0000","updated_time":"2014-04-05T03:57:37+0000","likes":{"data":{"100004253979918":{"id":"100004253979918","name":"Louis Hoàng Văn Thái"},"100004784682700":{"id":"100004784682700","name":"Huyen Trang"},"100000342230134":{"id":"100000342230134","name":"Thuy Le"},"100006846840777":{"id":"100006846840777","name":"Đi Tìm Tương Lai"},"100005344084736":{"id":"100005344084736","name":"Nhất Nhất"},"100005634519705":{"id":"100005634519705","name":"Chú Voi Còi"},"100001526631937":{"id":"100001526631937","name":"Tường Oanh Mineko"},"100003055356509":{"id":"100003055356509","name":"Thuan Nguyen"},"100001608503761":{"id":"100001608503761","name":"Thế Lữ"},"100005428813389":{"id":"100005428813389","name":"Bình Nhi"},"100002112711405":{"id":"100002112711405","name":"Minh Nhat"},"100000561594901":{"id":"100000561594901","name":"Yến Kawaii"},"100007331221184":{"id":"100007331221184","name":"Mìn Minn"},"100007449186315":{"id":"100007449186315","name":"Cấn Thanh Tùng"},"100006876672293":{"id":"100006876672293","name":"Tí Cô Nương"},"100008064215029":{"id":"100008064215029","name":"Chấm Nhỏ Vĩ Đại"},"100000126462919":{"id":"100000126462919","name":"Thao Phan"}},"paging":{"cursors":{"after":"MTAwMDA0MjUzOTc5OTE4","before":"MTAwMDA0MjUzOTc5OTE4"},"next":"https://graph.facebook.com/229244010425617_845419008808111/likes?limit=1&summary=1&after=MTAwMDA0MjUzOTc5OTE4"},"summary":{"total_count":19}},"comments":{"data":{"845419812141364":{"id":"845419812141364","from":{"id":"100003070973770","name":"Thắm Là Ta"},"message":"B","can_remove":false,"created_time":"2014-04-04T15:25:30+0000","like_count":1,"user_likes":false},"845420032141342":{"id":"845420032141342","from":{"id":"100002966928087","name":"Nguyen van Dat"},"message":"ngồi cốp xe","can_remove":false,"created_time":"2014-04-04T15:26:09+0000","like_count":3,"user_likes":false},"845420305474648":{"id":"845420305474648","from":{"id":"100000126462919","name":"Thao Phan"},"message":"C","can_remove":false,"created_time":"2014-04-04T15:26:52+0000","like_count":1,"user_likes":false},"845421002141245":{"id":"845421002141245","from":{"id":"100003961479659","name":"Giang Beo"},"message":"d","can_remove":false,"created_time":"2014-04-04T15:28:29+0000","like_count":1,"user_likes":false},"845421305474548":{"id":"845421305474548","from":{"id":"100003958205469","name":"Netwh Lai"},"message":"C","can_remove":false,"created_time":"2014-04-04T15:29:04+0000","like_count":1,"user_likes":false},"845421472141198":{"id":"845421472141198","from":{"id":"100004491812684","name":"Nợ Đời"},"message":"Cho xếp ngồi trước.mình ngồi sau.hô hô","can_remove":false,"created_time":"2014-04-04T15:29:22+0000","like_count":0,"user_likes":false},"845422818807730":{"id":"845422818807730","from":{"id":"100000005117986","name":"Tăng Tiên Sinh"},"message":"Vụ này có liên quan đến chuyện trả tiền. Hình như ở Nhật ng ngồi cạnh ghế lái sẽ là ng trả tiền xe. Vậy chắc là ngồi cạnh ghế lái","can_remove":false,"created_time":"2014-04-04T15:31:22+0000","like_count":2,"user_likes":false},"845422858807726":{"id":"845422858807726","from":{"id":"100004092835069","name":"Hung Nguyen"},"message":"Minh ngồi cạnh tài xế, xếp bự ngồi sau lái xe","can_remove":false,"created_time":"2014-04-04T15:31:27+0000","like_count":1,"user_likes":false},"845423042141041":{"id":"845423042141041","from":{"id":"100002779080239","name":"Nguyễn Biên"},"message":"Lái phụ. Khi xuống xe mình sẽ là ng trả tiền taxi","can_remove":false,"created_time":"2014-04-04T15:32:04+0000","like_count":1,"user_likes":false},"845423382141007":{"id":"845423382141007","from":{"id":"100000474967022","name":"The Vinh"},"message":"Xep nhat thuong ko thich oai nhu may og viet nam xep se ngoi sau minh ghe phu la on nhat ( c)","can_remove":false,"created_time":"2014-04-04T15:33:03+0000","like_count":1,"user_likes":false},"845424868807525":{"id":"845424868807525","from":{"id":"100002126299449","name":"Duy Bui"},"message":"Ngồi lên đầu sếp :D","can_remove":false,"created_time":"2014-04-04T15:33:44+0000","like_count":1,"user_likes":false},"845425532140792":{"id":"845425532140792","from":{"id":"100004007022428","name":"Ngốc Siro"},"message":"A","can_remove":false,"created_time":"2014-04-04T15:35:09+0000","like_count":1,"user_likes":false},"845425588807453":{"id":"845425588807453","from":{"id":"100000198219367","name":"Chang Jiang"},"message":"hình như cái này mình từng được cô bảo cho :))\n\nchức bé nhất ngồi cạnh ghế lái :))\n\nkhách sẽ ngồi ghế sau phía sau tài xế (an toàn nhất), còn sếp mình sẽ ngồi sau ghế lái phụ :d","can_remove":false,"created_time":"2014-04-04T15:35:22+0000","like_count":2,"user_likes":false},"845425675474111":{"id":"845425675474111","from":{"id":"100004007022428","name":"Ngốc Siro"},"message":"cho giốg xếp chọn a","can_remove":false,"created_time":"2014-04-04T15:35:35+0000","like_count":0,"user_likes":false},"845425975474081":{"id":"845425975474081","from":{"id":"1146680551","name":"優しい なぁ"},"message":"Chang Jiang: Sai rùi :v","can_remove":false,"created_time":"2014-04-04T15:36:20+0000","like_count":0,"user_likes":false},"845426385474040":{"id":"845426385474040","from":{"id":"100004491812684","name":"Nợ Đời"},"message":"Tò mò hẹ.cho riêng e câu trả lời đi","can_remove":false,"created_time":"2014-04-04T15:37:13+0000","like_count":0,"user_likes":false},"845426475474031":{"id":"845426475474031","from":{"id":"100003913383051","name":"Tho Tran"},"message":"C","can_remove":false,"created_time":"2014-04-04T15:37:31+0000","like_count":0,"user_likes":false},"845427125473966":{"id":"845427125473966","from":{"id":"100003913383051","name":"Tho Tran"},"message":"Giải thích thế này hem biết đúng hok: Tuỳ theo chức vụ: nhưng xếp luôn vào trước và ra sau, sếp sẽ ngồi ở vị trí B,  còn các thành viên khác nếu chức vụ bình thường hoặc ngang hàng thì vị trí cạnh sếp sẽ ngồi ở vị trí D, còn C và A thì ta có thể lựa chọn nhưng nếu vừa ít tuổi, lại có chức vụ thấp hơn thì thường sẽ ngồi ở vị trí lái phụ => đáp án C","can_remove":false,"created_time":"2014-04-04T15:38:46+0000","like_count":1,"user_likes":false},"845427375473941":{"id":"845427375473941","from":{"id":"1146680551","name":"優しい なぁ"},"message":"Nhớ là taxi nhật cửa khác đoá nhoé :3","can_remove":false,"created_time":"2014-04-04T15:39:25+0000","like_count":0,"user_likes":false},"845427642140581":{"id":"845427642140581","from":{"id":"100003913383051","name":"Tho Tran"},"message":"Đi có 2 lần nên hem nhớ :3","can_remove":false,"created_time":"2014-04-04T15:40:00+0000","like_count":0,"user_likes":false},"845428648807147":{"id":"845428648807147","from":{"id":"100004007022428","name":"Ngốc Siro"},"message":"đã bảo A rùi mà...he he he","can_remove":false,"created_time":"2014-04-04T15:42:22+0000","like_count":0,"user_likes":false},"845430378806974":{"id":"845430378806974","from":{"id":"1816269439","name":"Dao Ngoc"},"message":"A","can_remove":false,"created_time":"2014-04-04T15:45:39+0000","like_count":0,"user_likes":false},"845431198806892":{"id":"845431198806892","from":{"id":"1816269439","name":"Dao Ngoc"},"message":"Chỗ chật hẹp khó chịu nhất. Đời tôm tép phải ngồi đó thôi :3! Cơ mà lần sau thím đó tag em nhé. Lần này hơj chậm chân! :v","can_remove":false,"created_time":"2014-04-04T15:46:40+0000","like_count":0,"user_likes":false},"845431275473551":{"id":"845431275473551","from":{"id":"100000561594901","name":"Yến Kawaii"},"message":"chắc là C. he he. hóng đáp án","can_remove":false,"created_time":"2014-04-04T15:47:00+0000","like_count":0,"user_likes":false},"845431608806851":{"id":"845431608806851","from":{"id":"100003913383051","name":"Tho Tran"},"message":"Chị Dao Ngoc: nhưng hingf như ghế lái phụ là vị trí không an toàn nhất :3","can_remove":false,"created_time":"2014-04-04T15:48:00+0000","like_count":0,"user_likes":false},"845433295473349":{"id":"845433295473349","from":{"id":"100004491812684","name":"Nợ Đời"},"message":"Mình sẽ ngồi bên vị trí lái phụ của xe.xếp to nhâtr","can_remove":false,"created_time":"2014-04-04T15:51:28+0000","like_count":0,"user_likes":false},"845434785473200":{"id":"845434785473200","from":{"id":"100004491812684","name":"Nợ Đời"},"message":"Mình sẽ ngồi bên vị trí lái phụ xe.xếp to nhất sẽ ngồi chéo bác lái xe.nhug ng thân cận hoặc tin tưởng của xếp sẽ ngồi bên cạnh xếp.vì 2 lý do:vị trí sau chéo với vị trí tàu xế an toàn nhất.thứ2 vì xếp là ng lên xe trước và xuống xe sau cùng nên mình fai đóng cửa xe khi xe chạy và mở cửa xe khi xe dừng.chuẩn luôn.hô hô","can_remove":false,"created_time":"2014-04-04T15:54:21+0000","like_count":1,"user_likes":false},"845435148806497":{"id":"845435148806497","from":{"id":"100002362763411","name":"Ghê Vậy Ai Chơi"},"message":"Em xin đính chính lại là SẾP","can_remove":false,"created_time":"2014-04-04T15:55:12+0000","like_count":0,"user_likes":false},"845447425471936":{"id":"845447425471936","from":{"id":"100006520210904","name":"Miu Miu"},"message":"Tham gia chút ah. Bao giờ nhân viên cũng mở cửa cho Sếp lên trc và vị trí Sếp ngồi là sau ghế lái vì đó là chỗ an toàn nhất. Và mình sẽ ngồi ghế phụ","can_remove":false,"created_time":"2014-04-04T16:23:03+0000","like_count":1,"user_likes":false},"845447982138547":{"id":"845447982138547","from":{"id":"100003480936752","name":"Hoàng Phú"},"message":"C","can_remove":false,"created_time":"2014-04-04T16:24:29+0000","like_count":0,"user_likes":false},"845455395471139":{"id":"845455395471139","from":{"id":"100002779080239","name":"Nguyễn Biên"},"message":"答えは？","can_remove":false,"created_time":"2014-04-04T16:40:00+0000","like_count":0,"user_likes":false},"845464325470246":{"id":"845464325470246","from":{"id":"100000198219367","name":"Chang Jiang"},"message":"xem đáp án rồi, chuẩn là C nhóa :v\n\ntheo lí giải của họ là để tính toán đường đi, tiền bạc các thứ thì ng thấp nhất ngồi đó :3","can_remove":false,"created_time":"2014-04-04T16:56:38+0000","like_count":1,"user_likes":false},"845465425470136":{"id":"845465425470136","from":{"id":"100000198219367","name":"Chang Jiang"},"message":"cơ mà cũng là taxi nhưng trường hợp khác thì thấp nhất sẽ phải ngồi giữa ghế sau :))\n\n先方の車で接待相手側が運転される場合は、助手席が上座になり、後部座席の中央が下座になります","can_remove":false,"created_time":"2014-04-04T16:59:10+0000","like_count":0,"user_likes":false},"845468538803158":{"id":"845468538803158","from":{"id":"1146680551","name":"優しい なぁ"},"message":"正解は、C:の助手席です。\n\n運転手に目的地を告げ、精算を行うために、下座となる助手席に座ります。タクシーや運転手付の車では運転手の後ろが上座になります。\nなお、先方の車で接待相手側が運転される場合は、助手席が上座になり、後部座席の中央が下座になります。","can_remove":false,"created_time":"2014-04-04T17:03:32+0000","like_count":4,"user_likes":false},"845473062136039":{"id":"845473062136039","from":{"id":"1146680551","name":"優しい なぁ"},"message":"Chang Jiang bữa sau từ từ chút nhóe, để mấy bạn khác chơi nữa chứ :3","message_tags":[{"id":"100000198219367","name":"Chang Jiang","type":"user","offset":0,"length":11}],"can_remove":false,"created_time":"2014-04-04T17:09:14+0000","like_count":3,"user_likes":false},"845474378802574":{"id":"845474378802574","from":{"id":"100000198219367","name":"Chang Jiang"},"message":"khuya rồi để các bạn còn đi ngủ chứ :3\n\nthức khuya để hóng đáp án hại sức khỏe lắm à :3","can_remove":false,"created_time":"2014-04-04T17:13:10+0000","like_count":1,"user_likes":false},"845575075459171":{"id":"845575075459171","from":{"id":"100003211776567","name":"Kụ Đính"},"message":"c là chắc.vì ngồi ở ghế lái phụ nếu tai nạn là dễ chết nhất.trong khi xếp bự B.còn A với D thì cho nhân viên cũ.nếu chúng ta mất khôn","can_remove":false,"created_time":"2014-04-04T20:46:34+0000","like_count":1,"user_likes":false},"845662182117127":{"id":"845662182117127","from":{"id":"100002912714964","name":"Yen Hoang"},"message":"Taxi là C xe ô tô riêng là A :)","can_remove":false,"created_time":"2014-04-05T01:21:10+0000","like_count":0,"user_likes":false},"845694872113858":{"id":"845694872113858","from":{"id":"100004784682700","name":"Huyen Trang"},"message":"D","can_remove":false,"created_time":"2014-04-05T02:44:54+0000","like_count":0,"user_likes":false},"845698338780178":{"id":"845698338780178","from":{"id":"100000735018942","name":"Mỹ Mỹ"},"message":"Cái này hồi học tiếng Nhật thương mại có dc dạy nhưng rất tiếc quên mất, mang máng hình như là C :\">","can_remove":false,"created_time":"2014-04-05T02:56:30+0000","like_count":0,"user_likes":false},"845720012111344":{"id":"845720012111344","from":{"id":"100003111441031","name":"Yu Lovekiki"},"message":"C","can_remove":false,"created_time":"2014-04-05T03:57:37+0000","like_count":0,"user_likes":false}},"paging":{"cursors":{"after":"ODQ1NDE5ODEyMTQxMzY0","before":"ODQ1NDE5ODEyMTQxMzY0"},"next":"https://graph.facebook.com/229244010425617_845419008808111/comments?limit=1&summary=1&after=ODQ1NDE5ODEyMTQxMzY0"},"summary":{"order":"chronological","total_count":42}}}