{"id":"229244010425617_845425818807430","type":"status","from":{"id":"100002126299449","name":"Duy Bui"},"message":"Mấy anh chị ơi cho em hỏi chút.\nMùng 9 này em bay nhưng công ty lại không đặt vé máy bay cho bay thẳng từ HN tới Narita mà lại đi kiểu từ HN 7h vào HCM rồi 12h từ HCM đi Nhật,em muốn hỏi là đi như thế có lằng nhằng quá không và ai đi như vậy rồi xin chỉ giúp em quy trình với ạ. Chắc hẳn nó sẽ khác bay bình thường.\nEm xin cám ơn nhiều ạ!!!","created_time":"2014-04-04T15:35:57+0000","updated_time":"2014-04-06T00:36:45+0000","likes":{"data":{"100001814271176":{"id":"100001814271176","name":"Lê Quang Minh"},"100003181743412":{"id":"100003181743412","name":"Pham Kha"},"100007806284139":{"id":"100007806284139","name":"Đặng Yên"},"100001718857289":{"id":"100001718857289","name":"Sin Cos Tan"},"100002733754741":{"id":"100002733754741","name":"Bùi Thùy Dung"},"100005327112379":{"id":"100005327112379","name":"Guongcuoideem Dk Hanhphuk"},"100006614261300":{"id":"100006614261300","name":"Tao Cao Cường Đây"},"100002847942488":{"id":"100002847942488","name":"Bông Tuyết Rubi"},"100003090738530":{"id":"100003090738530","name":"Ngô Thị Thanh Hường"},"100003254627434":{"id":"100003254627434","name":"Belongs To Nắng"},"100007055220627":{"id":"100007055220627","name":"Khoảnh Khắc"},"100001432462223":{"id":"100001432462223","name":"Truong Nguyen"},"100007396898008":{"id":"100007396898008","name":"My Hanh"}},"paging":{"cursors":{"after":"MTAwMDAxODE0MjcxMTc2","before":"MTAwMDAxODE0MjcxMTc2"},"next":"https://graph.facebook.com/229244010425617_845425818807430/likes?limit=1&summary=1&after=MTAwMDAxODE0MjcxMTc2"},"summary":{"total_count":13}},"comments":{"data":{"845429318807080":{"id":"845429318807080","from":{"id":"100007187850069","name":"Tập Sống Ích Kỉ"},"message":"Chỉ thấy có người bay từ HN đến hàn rồi hàn qua Nhật","can_remove":false,"created_time":"2014-04-04T15:43:44+0000","like_count":2,"user_likes":false},"845429385473740":{"id":"845429385473740","from":{"id":"100007187850069","name":"Tập Sống Ích Kỉ"},"message":"Chưa thấy như thế bao giờ","can_remove":false,"created_time":"2014-04-04T15:43:55+0000","like_count":0,"user_likes":false},"845430412140304":{"id":"845430412140304","from":{"id":"100007120538599","name":"Một Mình Bướk"},"message":"Toi bay sag han roi han sang nhat","can_remove":false,"created_time":"2014-04-04T15:45:46+0000","like_count":1,"user_likes":false},"845431675473511":{"id":"845431675473511","from":{"id":"100002126299449","name":"Duy Bui"},"message":"Ừm,thank mọi ng nhé,tại công ty kêu hết vé nên phải vào HCM bay @@ thấy hơi lằng nhằng cái khoản chuyển chặng í","can_remove":false,"created_time":"2014-04-04T15:48:18+0000","like_count":0,"user_likes":false},"845435118806500":{"id":"845435118806500","from":{"id":"100004159717053","name":"Ngo Tu"},"message":":( tớ mùng 8","can_remove":false,"created_time":"2014-04-04T15:55:09+0000","like_count":0,"user_likes":false},"845445265472152":{"id":"845445265472152","from":{"id":"100001610529032","name":"Sakura Suki"},"message":"chua thay truog hop nào nó khôn như của b đấy","can_remove":false,"created_time":"2014-04-04T16:17:35+0000","like_count":0,"user_likes":false},"845447825471896":{"id":"845447825471896","from":{"id":"100003165554056","name":"Sâu Bét"},"message":"Đi như vậy cty ăn đc tiền vé. Và b sẽ đc nằm vật vờ ở Sân bay Tân sơn nhất để thăm quan Hcm tươi đẹp :))","can_remove":false,"created_time":"2014-04-04T16:24:06+0000","like_count":0,"user_likes":false},"845489455467733":{"id":"845489455467733","from":{"id":"100003718429681","name":"Kawaii Tuti"},"message":"Đây là vé bay quá cảnh. Rẻ hơn vé bay thẳng","can_remove":false,"created_time":"2014-04-04T17:47:18+0000","like_count":0,"user_likes":false},"845514288798583":{"id":"845514288798583","from":{"id":"100004985590880","name":"Vi Vi"},"message":"Mình tối mồng 6 bay qúa cảnh san hàn quốc sau đó ms sang nhật.và vé máy bay thì đắt hơn chứ.hjx.k piết bay qúa cảnh như thế mình có phải làm thêm thủ tục gì k nhỉ?","can_remove":false,"created_time":"2014-04-04T18:35:00+0000","like_count":0,"user_likes":false},"845543952128950":{"id":"845543952128950","from":{"id":"100006437927747","name":"Tian Vova"},"message":"chẳng có j phai lo đâu. thang 10 nam ngoai mình vs bạn mình đã phải bay theo đường bay nvay đấy. cũng vì lý do hết vé bay thẳng từ Hà Nội đến nhật. vs bạn ko pai làm thêm thủ tục j nữa cả. vì trên vé bạn đã ghi rõ đường bay ròii. chỉ việc đưa vé nhân viên check rồi lên máy bay thôi","can_remove":false,"created_time":"2014-04-04T19:22:34+0000","like_count":0,"user_likes":false},"845581395458539":{"id":"845581395458539","from":{"id":"100006614261300","name":"Tao Cao Cường Đây"},"message":"minh ko fai nói quá lời nhưng các bạn lại bị công ty hack tiền ở khâu này roài. Minh mới đi lần đầu mà bay kiểu qua 2 3 chặng kiểu này cực kì phiền phức. Minh thì đặt vé máy bay thẳng 2h chiều vn đến no la 9h tối bên nhật đây, còn đang lo là lam thủ tục lằng nhằng ko còn tàu về nhà nè.","can_remove":false,"created_time":"2014-04-04T21:09:11+0000","like_count":2,"user_likes":false},"845608435455835":{"id":"845608435455835","from":{"id":"100002923913474","name":"Tran Ngoc"},"message":"công ty e còn sang sing r đợi 2 tiếng mới qua nhật.vé ko biết là đắt hay rẻ hơn nhưng chỉ thấy vất vả thôi.","can_remove":false,"created_time":"2014-04-04T22:17:33+0000","like_count":0,"user_likes":false},"845612622122083":{"id":"845612622122083","from":{"id":"100001752806083","name":"Hứa Văn Cường"},"message":"chúc e lên đường bình an nha Duy Dữ Dội , e đi theo đường lao động hay tu nghiệp sinh","message_tags":[{"id":"100002126299449","name":"Duy Dữ Dội","type":"user","offset":32,"length":10}],"can_remove":false,"created_time":"2014-04-04T22:33:26+0000","like_count":0,"user_likes":false},"845612702122075":{"id":"845612702122075","from":{"id":"100003613039730","name":"Phạm Tú"},"message":"Bay thế k sao cả mình ms bay hôm m2 xong\nvào hcm r đợi thế thôi. Cứ đưa vé là họ chỉ đg cho may là ở vn k khổ luôn","can_remove":false,"created_time":"2014-04-04T22:33:36+0000","like_count":0,"user_likes":false},"845617398788272":{"id":"845617398788272","from":{"id":"100003921497941","name":"Bỏng Ngô"},"message":"Ko phải lo gì đâu bạn ạ, mình bay tháng 10.2013 tại HCM và xuống sân bay Narita. Khoảng 7h30 máy bay hạ cánh...\nYên tâm bạn nhé","can_remove":false,"created_time":"2014-04-04T22:50:02+0000","like_count":1,"user_likes":false},"845631635453515":{"id":"845631635453515","from":{"id":"100004985590880","name":"Vi Vi"},"message":"Doumo arigatougozaimasu.","can_remove":false,"created_time":"2014-04-04T23:35:17+0000","like_count":0,"user_likes":false},"845638565452822":{"id":"845638565452822","from":{"id":"100002126299449","name":"Duy Bui"},"message":"Cảm ơn m.ng nhiều. H thì mình yên tâm r","can_remove":false,"created_time":"2014-04-04T23:58:29+0000","like_count":0,"user_likes":false},"845639845452694":{"id":"845639845452694","from":{"id":"100004085927294","name":"Amsterdam Sa"},"message":"chà, hum ai đi như vậy hết bạn oi, từ hà nội đi nhật bản mới đúng, đi như vậy sẽ tốn time cho bạn thôi","can_remove":false,"created_time":"2014-04-05T00:03:11+0000","like_count":0,"user_likes":false},"845660738783938":{"id":"845660738783938","from":{"id":"100004985590880","name":"Vi Vi"},"message":"Mìng cũng k biết đâu.trường mình buổi trưa ms ra đón đc,nên phải đi qúa cảnh.","can_remove":false,"created_time":"2014-04-05T01:17:14+0000","like_count":0,"user_likes":false},"845719712111374":{"id":"845719712111374","from":{"id":"100003807133289","name":"Khải Thảo"},"message":":3","can_remove":false,"created_time":"2014-04-05T03:56:13+0000","like_count":0,"user_likes":false},"845742398775772":{"id":"845742398775772","from":{"id":"100007656991195","name":"Linh Chi"},"message":"K sao đâu bạn chỉ là chuyến bay đón khách tại tphcm thôi mà","can_remove":false,"created_time":"2014-04-05T05:10:33+0000","like_count":0,"user_likes":false},"845748815441797":{"id":"845748815441797","from":{"id":"100004192212628","name":"Chí Phèo"},"message":"Chắc họ đón người ở tphcm thôi","can_remove":false,"created_time":"2014-04-05T05:36:32+0000","like_count":0,"user_likes":false},"845819692101376":{"id":"845819692101376","from":{"id":"100003181743412","name":"Pham Kha"},"message":"Bthuong cũng chả có gì loàng ngoàng đâu","can_remove":false,"created_time":"2014-04-05T09:33:46+0000","like_count":0,"user_likes":false},"845859468764065":{"id":"845859468764065","from":{"id":"100006734168968","name":"Tiểu Nhân Mã"},"message":"Đi máy bay có say k nhỉ. E bị say xe k có thuốc chữa @@","can_remove":false,"created_time":"2014-04-05T11:03:48+0000","like_count":0,"user_likes":false},"845860082097337":{"id":"845860082097337","from":{"id":"100003181743412","name":"Pham Kha"},"message":"Máy bay ko say đâu","can_remove":false,"created_time":"2014-04-05T11:04:41+0000","like_count":0,"user_likes":false},"845942615422417":{"id":"845942615422417","from":{"id":"100002971920268","name":"Tùng Tung Tăng"},"message":"Monhf còn đến singapore :)) ms bay sang nhật bổn phê lắm","can_remove":false,"created_time":"2014-04-05T14:32:23+0000","like_count":0,"user_likes":false},"845949378755074":{"id":"845949378755074","from":{"id":"100004975712968","name":"Cương Nguyễn"},"message":"vào ngắm sài gòn tý oy đi cũng ok mà","can_remove":false,"created_time":"2014-04-05T14:46:32+0000","like_count":0,"user_likes":false},"846181292065216":{"id":"846181292065216","from":{"id":"100002126299449","name":"Duy Bui"},"message":"Arigatou.","can_remove":false,"created_time":"2014-04-06T00:36:45+0000","like_count":0,"user_likes":false}},"paging":{"cursors":{"after":"ODQ1NDI5MzE4ODA3MDgw","before":"ODQ1NDI5MzE4ODA3MDgw"},"next":"https://graph.facebook.com/229244010425617_845425818807430/comments?limit=1&summary=1&after=ODQ1NDI5MzE4ODA3MDgw"},"summary":{"order":"chronological","total_count":28}}}