{"id":"229244010425617_845696578780354","type":"status","from":{"id":"100003843530855","name":"Mèo Béo"},"message":"có anh chị nào biết gì về thông tin visa tị nạn k ạ","created_time":"2014-04-05T02:51:06+0000","updated_time":"2014-04-05T13:53:40+0000","likes":{"data":{"100002975299796":{"id":"100002975299796","name":"Trinh Tuan Anh"},"100005428813389":{"id":"100005428813389","name":"Bình Nhi"},"100005941178271":{"id":"100005941178271","name":"Trung Hau"}},"paging":{"cursors":{"after":"MTAwMDAyOTc1Mjk5Nzk2","before":"MTAwMDAyOTc1Mjk5Nzk2"},"next":"https://graph.facebook.com/229244010425617_845696578780354/likes?limit=1&summary=1&after=MTAwMDAyOTc1Mjk5Nzk2"},"summary":{"total_count":3}},"comments":{"data":{"845697318780280":{"id":"845697318780280","from":{"id":"100001416272263","name":"Mai PB"},"message":"Không có visa như vậy.","can_remove":false,"created_time":"2014-04-05T02:53:23+0000","like_count":0,"user_likes":false},"845698565446822":{"id":"845698565446822","from":{"id":"1510031829","name":"Tran Nhat Anh"},"message":"http://www.immi-moj.go.jp/tetuduki/nanmin/nanmin.html\n難民ビザ、あるはあるんけど、今の時代はよほどの理由がない限り、結構難しいと思うんけどね。","can_remove":false,"created_time":"2014-04-05T02:57:30+0000","like_count":0,"user_likes":false},"845703892112956":{"id":"845703892112956","from":{"id":"100001416272263","name":"Mai PB"},"message":"Quy chế tị nạn ở trên không cấp visa (vào hộ chiếu), mà thay vào đó cấp chứng nhận người tị nạn. Không thể đơn giản đến xin visa như thông thường. Nếu muốn xin tị nạn, có thể đến cục quản lý xnc để xin tư vấn.","can_remove":false,"created_time":"2014-04-05T03:08:57+0000","like_count":1,"user_likes":false},"845717195444959":{"id":"845717195444959","from":{"id":"100003843530855","name":"Mèo Béo"},"message":"e có giấy đợi kết quả rồi.ý e muốn hỏi là ví dụ như đk visa tị nạn thì mình có đk đi lm tự do như arubaito k","can_remove":false,"created_time":"2014-04-05T03:47:43+0000","like_count":0,"user_likes":false},"845719982111347":{"id":"845719982111347","from":{"id":"100001416272263","name":"Mai PB"},"message":"Không những được đi làm mà nếu không xin được việc còn được Chính phủ cho đi học tiếng, học nghề hoặc trợ cấp gì đó. Ngày xưa là vậy, bây giờ không rõ nhưng chắc là được. Mà ng VN bây giờ cũng xin tị nạn được thì quả là ngạc nhiên đấy.","can_remove":false,"created_time":"2014-04-05T03:57:29+0000","like_count":3,"user_likes":false},"845722752111070":{"id":"845722752111070","from":{"id":"100001520307352","name":"Nguyen Sang"},"message":"Mèo Béo sao xin dc tị nạn hay vậy","message_tags":[{"id":"100003843530855","name":"Mèo Béo","type":"user","offset":0,"length":7}],"can_remove":false,"created_time":"2014-04-05T04:07:49+0000","like_count":0,"user_likes":false},"845723208777691":{"id":"845723208777691","from":{"id":"100003843530855","name":"Mèo Béo"},"message":"vâng.người Việt Nam! bjo xin đk a ak.việt nam cũng chỉ có ít người đi lm cái ý thôi.e kinh tế khó khăn quá e mới hỏi vs lm cái visa ý.lên hỏi ý kiến ac","can_remove":false,"created_time":"2014-04-05T04:09:20+0000","like_count":0,"user_likes":false},"845723218777690":{"id":"845723218777690","from":{"id":"100003843530855","name":"Mèo Béo"},"message":"tôi đang thử Nguyen Nguyen Sang ak","message_tags":[{"id":"100001520307352","name":"Nguyen Sang","type":"user","offset":20,"length":11}],"can_remove":false,"created_time":"2014-04-05T04:09:27+0000","like_count":0,"user_likes":false},"845723845444294":{"id":"845723845444294","from":{"id":"100001520307352","name":"Nguyen Sang"},"message":"Bày cho cách xin visa này vs","can_remove":false,"created_time":"2014-04-05T04:12:05+0000","like_count":0,"user_likes":false},"845724288777583":{"id":"845724288777583","from":{"id":"100003843530855","name":"Mèo Béo"},"message":"từ đã.đây có ảnh rồi có giấy là tôi lm cho mọi ngươi.tôi đang thử xem người việt ta có lm đk k.lm đk tôi sẽ đăng lên fb cho tất cả mọi người tham khảo","can_remove":false,"created_time":"2014-04-05T04:13:12+0000","like_count":0,"user_likes":false},"845724405444238":{"id":"845724405444238","from":{"id":"100003843530855","name":"Mèo Béo"},"message":"mà nc giêng đi","can_remove":false,"created_time":"2014-04-05T04:13:35+0000","like_count":0,"user_likes":false},"845741805442498":{"id":"845741805442498","from":{"id":"100001520307352","name":"Nguyen Sang"},"message":"Ok","can_remove":false,"created_time":"2014-04-05T05:07:47+0000","like_count":0,"user_likes":false},"845923002091045":{"id":"845923002091045","from":{"id":"100006803468897","name":"Maria Maria"},"message":"Cái này hot ah nha!","can_remove":false,"created_time":"2014-04-05T13:46:08+0000","like_count":0,"user_likes":false},"845925802090765":{"id":"845925802090765","from":{"id":"100003843530855","name":"Mèo Béo"},"message":"uk hót đấy","can_remove":false,"created_time":"2014-04-05T13:53:40+0000","like_count":0,"user_likes":false}},"paging":{"cursors":{"after":"ODQ1Njk3MzE4NzgwMjgw","before":"ODQ1Njk3MzE4NzgwMjgw"},"next":"https://graph.facebook.com/229244010425617_845696578780354/comments?limit=1&summary=1&after=ODQ1Njk3MzE4NzgwMjgw"},"summary":{"order":"chronological","total_count":14}}}