{"id":"229244010425617_845823422101003","type":"status","from":{"id":"100008009256613","name":"Bi Bu Bin"},"message":"Mọi ng ơi \nAi biết trung tâm tiếng nhật nào ở Hà Nội an toàn và chất lượng không ạ\nAi biết chỉ giúp em với.\nArigatou gozaimasu  !!!","created_time":"2014-04-05T09:49:20+0000","updated_time":"2014-04-06T06:50:28+0000","likes":{"data":{"100002651270973":{"id":"100002651270973","name":"Lê Văn Tiến"},"100003279184320":{"id":"100003279184320","name":"Nguyen Long Hoang"},"100007511135956":{"id":"100007511135956","name":"Hà Văn Tí"},"100004392395418":{"id":"100004392395418","name":"Minh Hà"},"100004604981670":{"id":"100004604981670","name":"Hoa Hồng Xanh"},"100007822080156":{"id":"100007822080156","name":"Mưa Sao Băng"},"100004101991124":{"id":"100004101991124","name":"Cau Chu Nho"},"100005359569128":{"id":"100005359569128","name":"Hiền Trần"},"100000317758240":{"id":"100000317758240","name":"Long Cô Hồn"},"100000021018532":{"id":"100000021018532","name":"Hương Nguyễn"}},"paging":{"cursors":{"after":"MTAwMDAyNjUxMjcwOTcz","before":"MTAwMDAyNjUxMjcwOTcz"},"next":"https://graph.facebook.com/229244010425617_845823422101003/likes?limit=1&summary=1&after=MTAwMDAyNjUxMjcwOTcz"},"summary":{"total_count":10}},"comments":{"data":{"845823998767612":{"id":"845823998767612","from":{"id":"100006890501068","name":"Yokoso Nagoya"},"message":"bạn học đến trình độ nào rồi, nếu đến N3 thì mình giới thiệu học ở VJCC ĐH Ngoại Thương :)","can_remove":false,"created_time":"2014-04-05T09:51:48+0000","like_count":1,"user_likes":false},"845824335434245":{"id":"845824335434245","from":{"id":"100002963737004","name":"Hà Phùng"},"message":"Mới học thì cứ Núi Trúc là ổn nhất thôi.","can_remove":false,"created_time":"2014-04-05T09:52:57+0000","like_count":2,"user_likes":false},"845824572100888":{"id":"845824572100888","from":{"id":"100004510514127","name":"KuTin Ki"},"message":"dh ngoai ngu. neu b thich minh cho vao lop minh hoc. mih dang thuc tap o day.","can_remove":false,"created_time":"2014-04-05T09:53:51+0000","like_count":0,"user_likes":false},"845824628767549":{"id":"845824628767549","from":{"id":"100008009256613","name":"Bi Bu Bin"},"message":"e bắt đầu moi học.Nếu học đến N3 mới đc học  dc ở trườg đó ạ","can_remove":false,"created_time":"2014-04-05T09:54:07+0000","like_count":0,"user_likes":false},"845824635434215":{"id":"845824635434215","from":{"id":"100004698966337","name":"Thảo Lee"},"message":"Nhật ngữ Asuka đh thăng long cũng đc bạn ạ :D các cô dạy thích lắm :D","can_remove":false,"created_time":"2014-04-05T09:54:10+0000","like_count":1,"user_likes":false},"845825318767480":{"id":"845825318767480","from":{"id":"100004510514127","name":"KuTin Ki"},"message":"neu du hoc tu tuc. thi di theo vietsse cung ok","can_remove":false,"created_time":"2014-04-05T09:55:56+0000","like_count":0,"user_likes":false},"845826512100694":{"id":"845826512100694","from":{"id":"100004304560207","name":"Nguyen Hoang"},"message":"Hok nguồn 3thág.trung tâm 3 thjên đuog pảo s0n nhé.thj hok đê?dj thuk tap sjh sag nhat lam vjek","can_remove":false,"created_time":"2014-04-05T10:00:39+0000","like_count":0,"user_likes":false},"845829355433743":{"id":"845829355433743","from":{"id":"100001249960028","name":"Giang Phạm"},"message":"Eikoh Xã Đàn","can_remove":false,"created_time":"2014-04-05T10:12:05+0000","like_count":0,"user_likes":false},"845834472099898":{"id":"845834472099898","from":{"id":"100008009256613","name":"Bi Bu Bin"},"message":"bt thôi ạ.để dj xkld","can_remove":false,"created_time":"2014-04-05T10:26:49+0000","like_count":0,"user_likes":false},"845838408766171":{"id":"845838408766171","from":{"id":"100006424623565","name":"BoBo CuaToi"},"message":"Trung tam nao cung vay thoi\nDeu muon moi t cua minh ma\nBan muon sang nhat ah","can_remove":false,"created_time":"2014-04-05T10:39:30+0000","like_count":0,"user_likes":false},"845839898766022":{"id":"845839898766022","from":{"id":"100008009256613","name":"Bi Bu Bin"},"message":"vâng.nhưng mỗi cty mỗi khác.liệu  có an toàn. BoBo  CuaToi.biết cty nào ko.giúp mìh vs","can_remove":false,"created_time":"2014-04-05T10:43:41+0000","like_count":0,"user_likes":false},"845841645432514":{"id":"845841645432514","from":{"id":"100006424623565","name":"BoBo CuaToi"},"message":"Minh khuyen that nhe!\nBan xac dinh sang nhat de hoc hay kiem t?\nNeu sang hoc thi dc\nXac dinh dau tu 2nam hoc ben nay\nTrc khi di hoc o nha 1nam \nLam chac 2quyen minano\nThanh cong se den voi ban\nCon sang de kiem t thi ban nen xem lai !\nMinh cung dang o tokyo!\nNeu ban muon sang thi minh se jup\nLam hso nop truc tiep cho truong minh dang hoc\nBot dc kha nhieu t day","can_remove":false,"created_time":"2014-04-05T10:48:42+0000","like_count":1,"user_likes":false},"845854965431182":{"id":"845854965431182","from":{"id":"100000064686295","name":"Huy Roli"},"message":"Học ở nhật ngữ kosei đi","can_remove":false,"created_time":"2014-04-05T10:59:33+0000","like_count":0,"user_likes":false},"845864172096928":{"id":"845864172096928","from":{"id":"100006282365367","name":"Tiến Huy Nguyễn"},"message":"Trung Tâm Himawari e ah","message_tags":[{"id":"100006963010709","name":"Trung Tâm Himawari","type":"user","offset":0,"length":18}],"can_remove":false,"created_time":"2014-04-05T11:16:28+0000","like_count":1,"user_likes":false},"845865182096827":{"id":"845865182096827","from":{"id":"100006282365367","name":"Tiến Huy Nguyễn"},"message":"BoBo CuaToi c đang học ở tr nào tokyo vậy. Học phí bnhieu 1 năm vậy c","message_tags":[{"id":"100006424623565","name":"BoBo CuaToi","type":"user","offset":0,"length":11}],"can_remove":false,"created_time":"2014-04-05T11:19:41+0000","like_count":0,"user_likes":false},"845866152096730":{"id":"845866152096730","from":{"id":"100006424623565","name":"BoBo CuaToi"},"message":"Isb\n60man","can_remove":false,"created_time":"2014-04-05T11:21:34+0000","like_count":0,"user_likes":false},"845866442096701":{"id":"845866442096701","from":{"id":"100005997090061","name":"Bùi Minh Đức"},"message":"E ơ đau vay?","can_remove":false,"created_time":"2014-04-05T11:22:40+0000","like_count":0,"user_likes":false},"845867118763300":{"id":"845867118763300","from":{"id":"100006282365367","name":"Tiến Huy Nguyễn"},"message":"Mình cũng đang dự định đi nhưng chưa tìm đc tr nào. Cho mình hỏi chút.ở tokyo xin việc có khó lắm ko c vì mình sang bên đó cũng ko có bạn bè gì sợ sẽ khó khăn trong khi xin việc làm thêm","can_remove":false,"created_time":"2014-04-05T11:25:02+0000","like_count":0,"user_likes":false},"845867875429891":{"id":"845867875429891","from":{"id":"100004423266449","name":"Be Keo"},"message":"Đh hà nội đại học quốc gia....núi trúc rất nhiều","can_remove":false,"created_time":"2014-04-05T11:27:25+0000","like_count":0,"user_likes":false},"845868182096527":{"id":"845868182096527","from":{"id":"100004423266449","name":"Be Keo"},"message":"Mấy trung tâm anh ngữ ko nên học vì rất lâu mới có lớp học bn ah","can_remove":false,"created_time":"2014-04-05T11:28:11+0000","like_count":0,"user_likes":false},"845868225429856":{"id":"845868225429856","from":{"id":"100005997090061","name":"Bùi Minh Đức"},"message":"Ko nên vao khu vưc tokyô ban ah nên tránh xa tokyô thj tôt .ban đj du h0c ha?ban ơ đau nhj","can_remove":false,"created_time":"2014-04-05T11:28:18+0000","like_count":0,"user_likes":false},"845871212096224":{"id":"845871212096224","from":{"id":"100006282365367","name":"Tiến Huy Nguyễn"},"message":"Nhà em ở Nội Bài a ah","can_remove":false,"created_time":"2014-04-05T11:38:20+0000","like_count":0,"user_likes":false},"845872318762780":{"id":"845872318762780","from":{"id":"100005997090061","name":"Bùi Minh Đức"},"message":"Đj du h0c rat vat vả đay ban ah.ban hay xác đjnh ch0 ky .ban sjnh năm bao nhju đa h0k qua trư0ng l0p nao chưa","can_remove":false,"created_time":"2014-04-05T11:41:56+0000","like_count":0,"user_likes":false},"845883655428313":{"id":"845883655428313","from":{"id":"100006282365367","name":"Tiến Huy Nguyễn"},"message":"E vừa ra tr a ah thế a đi làm hay đi học","can_remove":false,"created_time":"2014-04-05T12:14:46+0000","like_count":0,"user_likes":false},"845889688761043":{"id":"845889688761043","from":{"id":"100004392395418","name":"Minh Hà"},"message":"Bon minh đang học ơ vinamotô . Chi nhanh bên Câu Dien . Ngã tư Canh . Chuẩn luôn ban ạ","can_remove":false,"created_time":"2014-04-05T12:30:33+0000","like_count":0,"user_likes":false},"845935198756492":{"id":"845935198756492","from":{"id":"100008009256613","name":"Bi Bu Bin"},"message":"đại học công nghiệp,CEO,JVNET,Tms.nhữg ai đã di wa ttâm này rồi ạ.mọi ng thấy tr tâm nào chất lưog.cho e ý kiến đc ko","can_remove":false,"created_time":"2014-04-05T14:16:31+0000","like_count":0,"user_likes":false},"845937542089591":{"id":"845937542089591","from":{"id":"100006263888044","name":"Hoàng Oanh"},"message":"Bi Bu Bin b nen di theo cong ti letco truong dh cong nghiep ý","message_tags":[{"id":"100008009256613","name":"Bi Bu Bin","type":"user","offset":0,"length":9}],"can_remove":false,"created_time":"2014-04-05T14:21:27+0000","like_count":0,"user_likes":false},"845938642089481":{"id":"845938642089481","from":{"id":"100006263888044","name":"Hoàng Oanh"},"message":"đi theo truong dh cong nghiep b ạ.","can_remove":false,"created_time":"2014-04-05T14:24:06+0000","like_count":0,"user_likes":false},"845996818750330":{"id":"845996818750330","from":{"id":"100001222113521","name":"Tạ Thu Hường"},"message":"jvnet!ok","can_remove":false,"created_time":"2014-04-05T16:27:22+0000","like_count":0,"user_likes":false},"845997038750308":{"id":"845997038750308","from":{"id":"100001222113521","name":"Tạ Thu Hường"},"message":"jvnet ai cũng đi ở đó","can_remove":false,"created_time":"2014-04-05T16:27:59+0000","like_count":0,"user_likes":false},"845997115416967":{"id":"845997115416967","from":{"id":"100001222113521","name":"Tạ Thu Hường"},"message":"hay mà dạy tốt các đơn hàng sang đây lương cũng cao nữa","can_remove":false,"created_time":"2014-04-05T16:28:12+0000","like_count":0,"user_likes":false},"845997142083631":{"id":"845997142083631","from":{"id":"100001222113521","name":"Tạ Thu Hường"},"message":"e mình cũng đi ở đó","can_remove":false,"created_time":"2014-04-05T16:28:18+0000","like_count":0,"user_likes":false},"845997278750284":{"id":"845997278750284","from":{"id":"100008063169192","name":"Nhâm Tiến Dũng"},"message":"iig la tot nhat","can_remove":false,"created_time":"2014-04-05T16:28:31+0000","like_count":0,"user_likes":false},"845998068750205":{"id":"845998068750205","from":{"id":"100008063169192","name":"Nhâm Tiến Dũng"},"message":"ko phai dat coc","can_remove":false,"created_time":"2014-04-05T16:30:19+0000","like_count":0,"user_likes":false},"846162132067132":{"id":"846162132067132","from":{"id":"100003207793265","name":"Lê Thiết"},"message":"Trung Tâm Núi Trúc bạn ah","can_remove":false,"created_time":"2014-04-05T23:31:14+0000","like_count":0,"user_likes":false},"846178005398878":{"id":"846178005398878","from":{"id":"100005048585633","name":"Hjep Hjn"},"message":"bạn học tiếng à","can_remove":false,"created_time":"2014-04-06T00:22:46+0000","like_count":0,"user_likes":false},"846183468731665":{"id":"846183468731665","from":{"id":"100008009256613","name":"Bi Bu Bin"},"message":"vâng.học tiếng bạn Hjep Hjn à","can_remove":false,"created_time":"2014-04-06T00:44:08+0000","like_count":0,"user_likes":false},"846183905398288":{"id":"846183905398288","from":{"id":"100008063169192","name":"Nhâm Tiến Dũng"},"message":"hoc den dau rui","can_remove":false,"created_time":"2014-04-06T00:46:12+0000","like_count":0,"user_likes":false},"846184602064885":{"id":"846184602064885","from":{"id":"100008009256613","name":"Bi Bu Bin"},"message":"bắt đầu chữ cái thôi ạ","can_remove":false,"created_time":"2014-04-06T00:48:32+0000","like_count":0,"user_likes":false},"846184718731540":{"id":"846184718731540","from":{"id":"100008063169192","name":"Nhâm Tiến Dũng"},"message":"vay ak","can_remove":false,"created_time":"2014-04-06T00:49:03+0000","like_count":0,"user_likes":false},"846184772064868":{"id":"846184772064868","from":{"id":"100008063169192","name":"Nhâm Tiến Dũng"},"message":"hoc cung hoi kho ma","can_remove":false,"created_time":"2014-04-06T00:49:16+0000","like_count":0,"user_likes":false},"846186432064702":{"id":"846186432064702","from":{"id":"100008009256613","name":"Bi Bu Bin"},"message":"ukm.bạn biết trug tâm nào ko.chỉ cho mìh vs","can_remove":false,"created_time":"2014-04-06T00:55:01+0000","like_count":0,"user_likes":false},"846186678731344":{"id":"846186678731344","from":{"id":"100008063169192","name":"Nhâm Tiến Dũng"},"message":"truoc minh hoc iig","can_remove":false,"created_time":"2014-04-06T00:56:01+0000","like_count":0,"user_likes":false},"846187688731243":{"id":"846187688731243","from":{"id":"100008009256613","name":"Bi Bu Bin"},"message":"iig.tên viết tắt của cty gì ạ","can_remove":false,"created_time":"2014-04-06T00:57:58+0000","like_count":0,"user_likes":false},"846187968731215":{"id":"846187968731215","from":{"id":"100001294443479","name":"Hai Tí"},"message":"Học tiếng nhật tốt chỉ có núi trúc","can_remove":false,"created_time":"2014-04-06T00:58:45+0000","like_count":0,"user_likes":false},"846188298731182":{"id":"846188298731182","from":{"id":"100008063169192","name":"Nhâm Tiến Dũng"},"message":"cong ty co phan du lich IIG","can_remove":false,"created_time":"2014-04-06T00:59:49+0000","like_count":0,"user_likes":false},"846189415397737":{"id":"846189415397737","from":{"id":"100008009256613","name":"Bi Bu Bin"},"message":"vâng. cảm ơn m ng","can_remove":false,"created_time":"2014-04-06T01:03:40+0000","like_count":0,"user_likes":false},"846190078731004":{"id":"846190078731004","from":{"id":"100008009256613","name":"Bi Bu Bin"},"message":"vâng. cảm ơn m ng","can_remove":false,"created_time":"2014-04-06T01:06:00+0000","like_count":0,"user_likes":false},"846190185397660":{"id":"846190185397660","from":{"id":"100008063169192","name":"Nhâm Tiến Dũng"},"message":"ko co j","can_remove":false,"created_time":"2014-04-06T01:06:19+0000","like_count":0,"user_likes":false},"846250215391657":{"id":"846250215391657","from":{"id":"100006581439969","name":"Tài Thiếu Gia"},"message":"aimujapan.me linh ha noi","can_remove":false,"created_time":"2014-04-06T04:08:31+0000","like_count":0,"user_likes":false},"846270822056263":{"id":"846270822056263","from":{"id":"100006424623565","name":"BoBo CuaToi"},"message":"Khi loi khuyen ko co tac dung thi su im lang la so 1!","can_remove":false,"created_time":"2014-04-06T05:09:03+0000","like_count":1,"user_likes":false},"846275928722419":{"id":"846275928722419","from":{"id":"100004145821002","name":"Em Thật Ngốc"},"message":"Kosei Lê trọng tấn rất thú vị","can_remove":false,"created_time":"2014-04-06T05:27:43+0000","like_count":0,"user_likes":false},"846283698721642":{"id":"846283698721642","from":{"id":"100008009256613","name":"Bi Bu Bin"},"message":"e cảm ơn tất cả mọi ng ạ","can_remove":false,"created_time":"2014-04-06T05:53:18+0000","like_count":0,"user_likes":false},"846302335386445":{"id":"846302335386445","from":{"id":"100006738090523","name":"Hien Nguyen"},"message":"Cháu qua núi trúc ở đấy dậy cho các bạn muốn đi du học rất tốt đấy.","can_remove":false,"created_time":"2014-04-06T06:45:19+0000","like_count":0,"user_likes":false},"846302722053073":{"id":"846302722053073","from":{"id":"100008009256613","name":"Bi Bu Bin"},"message":"cháu muốn đi hìh thức xkld ak","can_remove":false,"created_time":"2014-04-06T06:46:19+0000","like_count":0,"user_likes":false},"846304068719605":{"id":"846304068719605","from":{"id":"100006738090523","name":"Hien Nguyen"},"message":"Nếu thế cháu cứ vào đó học một khóa để biết tiếng rồi khi tuyển xkld cơ hội trúng sẽ cao hơn.khi trúng tuyển cty họ lại bắt cháu học mà.","can_remove":false,"created_time":"2014-04-06T06:50:28+0000","like_count":1,"user_likes":false}},"paging":{"cursors":{"after":"ODQ1ODIzOTk4NzY3NjEy","before":"ODQ1ODIzOTk4NzY3NjEy"},"next":"https://graph.facebook.com/229244010425617_845823422101003/comments?limit=1&summary=1&after=ODQ1ODIzOTk4NzY3NjEy"},"summary":{"order":"chronological","total_count":56}}}