{"id":"229244010425617_845968478753164","type":"link","picture":"https://fbexternal-a.akamaihd.net/safe_image.php?d=AQCZx2slcNOe6mys&w=154&h=154&url=http%3A%2F%2Fecx.images-amazon.com%2Fimages%2FI%2F51dbPHXgRVL._SS500_.jpg","link":"http://www.amazon.co.jp/%E3%82%AB%E3%83%AB%E3%83%8A%E9%A3%9F%E5%93%81-%E3%83%A9%E3%83%B3%E3%83%96%E3%83%BC%E3%82%BF%E3%83%B3-1kg/dp/B0068B33ZE","from":{"id":"100003240220629","name":"Duc Hoang Le Minh"},"message":"チョムチョム（Cho^m Cho^m）です。ランブータンと読んでいますが（タイ語？）、1kgに1.500円ぐらいで、下記のリンクで購入できます。 :D\nhttp://www.amazon.co.jp/%E3%82%AB%E3%83%AB%E3%83%8A%E9%A3%9F%E5%93%81-%E3%83%A9%E3%83%B3%E3%83%96%E3%83%BC%E3%82%BF%E3%83%B3-1kg/dp/B0068B33ZE\n(Xin lỗi không phải quảng cáo nhé, học được từ chôm chôm- ランブータン)","created_time":"2014-04-05T15:26:30+0000","updated_time":"2014-04-05T17:16:39+0000","likes":{"data":{"100001432462223":{"id":"100001432462223","name":"Truong Nguyen"},"100003913383051":{"id":"100003913383051","name":"Tho Tran"},"569263718":{"id":"569263718","name":"Phuong Thao Tran"}},"paging":{"cursors":{"after":"MTAwMDAxNDMyNDYyMjIz","before":"MTAwMDAxNDMyNDYyMjIz"},"next":"https://graph.facebook.com/229244010425617_845968478753164/likes?limit=1&summary=1&after=MTAwMDAxNDMyNDYyMjIz"},"summary":{"total_count":3}},"comments":{"data":{"845971012086244":{"id":"845971012086244","from":{"id":"100006296409820","name":"Tham Hoang"},"message":"高いでしょう！","can_remove":false,"created_time":"2014-04-05T15:31:18+0000","like_count":0,"user_likes":false},"845972018752810":{"id":"845972018752810","from":{"id":"569263718","name":"Phuong Thao Tran"},"message":"thất nghiệp đi bán chôm chôm ạ, :D","can_remove":false,"created_time":"2014-04-05T15:33:12+0000","like_count":0,"user_likes":false},"845972892086056":{"id":"845972892086056","from":{"id":"100003240220629","name":"Duc Hoang Le Minh"},"message":"Bán code cực quá, chắc chuyển qua chôm chôm hehe","can_remove":false,"created_time":"2014-04-05T15:34:37+0000","like_count":0,"user_likes":false},"845976615419017":{"id":"845976615419017","from":{"id":"100003913383051","name":"Tho Tran"},"message":"Người nhật ít người biết về chôm chôm, cách này chắc lời cao vì em thấy các thầy cô chỉ biết chôm chôm Việt Nam qua sách giáo khoa của chúng em :3","can_remove":false,"created_time":"2014-04-05T15:41:56+0000","like_count":0,"user_likes":false},"845978305418848":{"id":"845978305418848","from":{"id":"100006296409820","name":"Tham Hoang"},"message":"Chuyển qua đÂy đi anh e làm tiếp thị cho!","can_remove":false,"created_time":"2014-04-05T15:45:44+0000","like_count":0,"user_likes":false},"845979902085355":{"id":"845979902085355","from":{"id":"569263718","name":"Phuong Thao Tran"},"message":"chôm chôm ở Biên Hòa giá 3-5k/kg... buôn lời đậm á, ^^","can_remove":false,"created_time":"2014-04-05T15:49:19+0000","like_count":0,"user_likes":false},"845980758751936":{"id":"845980758751936","from":{"id":"100003913383051","name":"Tho Tran"},"message":"Nhưng group cấm quảng cáo thì phải chị Thảo :(","can_remove":false,"created_time":"2014-04-05T15:51:21+0000","like_count":0,"user_likes":false},"845982188751793":{"id":"845982188751793","from":{"id":"569263718","name":"Phuong Thao Tran"},"message":"post này kg mang tính chất q.cáo em Thơ ơi ,","can_remove":false,"created_time":"2014-04-05T15:54:50+0000","like_count":0,"user_likes":false},"845982362085109":{"id":"845982362085109","from":{"id":"100001432462223","name":"Truong Nguyen"},"message":":v 300 ngàn","can_remove":false,"created_time":"2014-04-05T15:55:10+0000","like_count":0,"user_likes":false},"845982465418432":{"id":"845982465418432","from":{"id":"100003913383051","name":"Tho Tran"},"message":":P","can_remove":false,"created_time":"2014-04-05T15:55:22+0000","like_count":0,"user_likes":false},"845990968750915":{"id":"845990968750915","from":{"id":"100002371397093","name":"Le Duc Dat"},"message":"Rambutan","can_remove":false,"created_time":"2014-04-05T16:14:07+0000","like_count":0,"user_likes":false},"846016735415005":{"id":"846016735415005","from":{"id":"100000067699837","name":"Nguyễn Hải Phong"},"message":"Natsumi Watanabe chôm chôm ở Nhật đắt nhỉ ;)","message_tags":[{"id":"100005026114297","name":"Natsumi Watanabe","type":"user","offset":0,"length":16}],"can_remove":false,"created_time":"2014-04-05T17:16:39+0000","like_count":1,"user_likes":false}},"paging":{"cursors":{"after":"ODQ1OTcxMDEyMDg2MjQ0","before":"ODQ1OTcxMDEyMDg2MjQ0"},"next":"https://graph.facebook.com/229244010425617_845968478753164/comments?limit=1&summary=1&after=ODQ1OTcxMDEyMDg2MjQ0"},"summary":{"order":"chronological","total_count":12}}}