{"id":"229244010425617_845901698759842","type":"photo","object_id":"743575829021258","picture":"https://fbcdn-photos-f-a.akamaihd.net/hphotos-ak-frc1/t1.0-0/1948158_743575829021258_4857851465057136142_s.jpg","link":"https://www.facebook.com/photo.php?fbid=743575829021258&set=a.140966742615506.29228.133331390045708&type=1","from":{"id":"100000045271667","name":"Nam Thai Nguyen"},"message":"Sách giáo khoa của Nhật Bản khẳng định Hoàng Sa, Trường Sa thuộc về Việt Nam.\nĐây mới thực sự là người anh em của Việt Nam!\np/s: Hãy share trên wall nhà mình :D","created_time":"2014-04-05T12:59:59+0000","updated_time":"2014-04-06T03:35:50+0000","likes":{"data":{"100005818244323":{"id":"100005818244323","name":"Thuan Nguyen van Thuan"},"100007880444320":{"id":"100007880444320","name":"自由"},"100002838236635":{"id":"100002838236635","name":"Tuyet Nguyen Thi"},"100003911265377":{"id":"100003911265377","name":"Thanh Truc Vo"},"100000489372404":{"id":"100000489372404","name":"Phúc Bồ"},"100001071750107":{"id":"100001071750107","name":"Christine Đường"},"100003945581110":{"id":"100003945581110","name":"Bí Ngô"},"100002922604308":{"id":"100002922604308","name":"Dalanh Daratlanh"},"100002126161922":{"id":"100002126161922","name":"Thanh Tran"},"100004915360462":{"id":"100004915360462","name":"Phamtuyen Pc"},"100000046089491":{"id":"100000046089491","name":"Trần Trọng Đại"},"100003713963050":{"id":"100003713963050","name":"Đỗ Bá Mười"},"1704897991":{"id":"1704897991","name":"Pé Mùi"},"100003005597243":{"id":"100003005597243","name":"Zany Royal"},"100005830542552":{"id":"100005830542552","name":"Diệp Xinh"},"100004158245859":{"id":"100004158245859","name":"Doanthanh Phuong"},"100002290434796":{"id":"100002290434796","name":"Canh Pham"},"100000047107627":{"id":"100000047107627","name":"Tiểu Phương"},"100006614261300":{"id":"100006614261300","name":"Tao Cao Cường Đây"},"100005225070381":{"id":"100005225070381","name":"Okane Mochi"},"100000022163023":{"id":"100000022163023","name":"Kafe Ore"},"1707323911":{"id":"1707323911","name":"Minh Nguyen Tuyet"},"100005569984314":{"id":"100005569984314","name":"Sói SmiLe"},"100002403228834":{"id":"100002403228834","name":"Hân Hân"},"100001233118357":{"id":"100001233118357","name":"Trần Đức Thân"},"100004269880514":{"id":"100004269880514","name":"Minh Trang"},"100001754136107":{"id":"100001754136107","name":"Nguyễn Tuấn Vũ"},"100005685278868":{"id":"100005685278868","name":"Thu Thao"},"100005487126866":{"id":"100005487126866","name":"Giọt Lệ Thiên Thần"},"100002113085507":{"id":"100002113085507","name":"Pon Trọc Kamiki"},"100003962916120":{"id":"100003962916120","name":"Phong Trinh"},"100000128764209":{"id":"100000128764209","name":"Chau Le"},"100005496607458":{"id":"100005496607458","name":"Tran Manh Tu"},"100003695374435":{"id":"100003695374435","name":"Xíu Nguyễn"},"100002065732666":{"id":"100002065732666","name":"Nam Thai Tran"},"100003542390555":{"id":"100003542390555","name":"Hiền Trần"},"100000817288109":{"id":"100000817288109","name":"Út Ít Ụt Ịt"},"100008080681431":{"id":"100008080681431","name":"RuBy Chan"},"100003669115614":{"id":"100003669115614","name":"Lê Tươi"},"100000006500209":{"id":"100000006500209","name":"Hai Nhy"},"100003913864198":{"id":"100003913864198","name":"Linh Lê"},"100000014153164":{"id":"100000014153164","name":"Tan Tran"},"100001904308031":{"id":"100001904308031","name":"Hoàng Tuốc Lơ Vít"},"100002444618453":{"id":"100002444618453","name":"Tomio  Ueno"},"100005947002561":{"id":"100005947002561","name":"Tao Là Tôi"},"100007992793383":{"id":"100007992793383","name":"Ánh Nguyễn"},"100003635232168":{"id":"100003635232168","name":"Thanh Bg"},"100002531562253":{"id":"100002531562253","name":"Tuyet Nguyen"},"100006578046438":{"id":"100006578046438","name":"Ngọc Gà"},"100006114753579":{"id":"100006114753579","name":"Doi Dua Lech"},"1033579777":{"id":"1033579777","name":"Kam Chickie"},"100002105192290":{"id":"100002105192290","name":"Tuấn Tí Tởn"},"100007962993230":{"id":"100007962993230","name":"Huy Huyen"},"100007965550850":{"id":"100007965550850","name":"Trương Nhi"},"100007965523298":{"id":"100007965523298","name":"Lee Chinh"},"100003090938731":{"id":"100003090938731","name":"Giang Nguyen"},"100000380905937":{"id":"100000380905937","name":"Tam Giao"},"100003279184320":{"id":"100003279184320","name":"Nguyen Long Hoang"},"1749625818":{"id":"1749625818","name":"Khanh Nguyen Quoc"},"100003049561539":{"id":"100003049561539","name":"Nguyễn Kiim Thảo"},"100004197245286":{"id":"100004197245286","name":"Nguyen Diu"},"100001888059165":{"id":"100001888059165","name":"Nguyen Dinh Tang"},"100004915784063":{"id":"100004915784063","name":"Bao An Tran Le"},"100003892785497":{"id":"100003892785497","name":"Yến Yến"},"100006791732884":{"id":"100006791732884","name":"Hiền Vũ"},"100000204672920":{"id":"100000204672920","name":"Thảo Nguyên Nguyên"},"100000211237467":{"id":"100000211237467","name":"Nguyễn Thị Hà"},"100003826954451":{"id":"100003826954451","name":"Nguyen Huu Tai"},"100003697539923":{"id":"100003697539923","name":"Minh Thắng"},"100000322834393":{"id":"100000322834393","name":"Tien Hoang"},"100003671676785":{"id":"100003671676785","name":"Minh RaMen"},"100001802076152":{"id":"100001802076152","name":"Hoang Thanh Dong"},"100004465472164":{"id":"100004465472164","name":"Víp Nhất Xóm"},"100002709768482":{"id":"100002709768482","name":"Vuong Dung Tms"},"100003124307460":{"id":"100003124307460","name":"Duc Giang"},"100004699423965":{"id":"100004699423965","name":"Dang Doan"},"100002894338621":{"id":"100002894338621","name":"Thanh Lê"},"100001591772357":{"id":"100001591772357","name":"Sora Hana"},"100004752216467":{"id":"100004752216467","name":"Thuy Anh Pham"},"100005277816953":{"id":"100005277816953","name":"End Die"},"100001643497965":{"id":"100001643497965","name":"Luna Lynn"},"100002938483020":{"id":"100002938483020","name":"Cuong Pham"},"100000200742771":{"id":"100000200742771","name":"Nấm Ngoan Hiền"},"100003883612858":{"id":"100003883612858","name":"Cậu Út"},"100007086630996":{"id":"100007086630996","name":"Công Xa Cơ"},"100000500260636":{"id":"100000500260636","name":"Lưu Nguyễn Thảo Tiên"},"100003939512448":{"id":"100003939512448","name":"My Enternyl"},"100000523549660":{"id":"100000523549660","name":"Sei Tsuki"},"100000221150592":{"id":"100000221150592","name":"Nanami Moe"},"100007983158241":{"id":"100007983158241","name":"Dương Hải"},"100006552763483":{"id":"100006552763483","name":"Chery Cole"},"100000603915176":{"id":"100000603915176","name":"悪いな ぁ"},"1694966999":{"id":"1694966999","name":"Nguyễn Công Tiến"},"100007186080944":{"id":"100007186080944","name":"Phương Trời Xa"},"100003824789138":{"id":"100003824789138","name":"An Hoàng"},"685734821":{"id":"685734821","name":"Narcis Ng"},"100004129021879":{"id":"100004129021879","name":"Anh Nguyen"},"100006175110286":{"id":"100006175110286","name":"Mai Hương Trần"},"100000236025075":{"id":"100000236025075","name":"Nightwish Spirit"},"100002744609053":{"id":"100002744609053","name":"Hồng Cass"},"100003913383051":{"id":"100003913383051","name":"Tho Tran"},"100004082125113":{"id":"100004082125113","name":"Cá Trê"},"100003717024400":{"id":"100003717024400","name":"Jiin Ngáo"},"100006314431619":{"id":"100006314431619","name":"Hà Hiền Hòa"},"100003973378919":{"id":"100003973378919","name":"Thảo Nguyên"},"100002913281005":{"id":"100002913281005","name":"Hà Mã"},"100004088172713":{"id":"100004088172713","name":"Vuong Thao"},"100001775340770":{"id":"100001775340770","name":"Cà Phê Một Mình"},"100004798083725":{"id":"100004798083725","name":"Cappu Ccino"},"100004299304737":{"id":"100004299304737","name":"Quang Vũ Dương"},"100007806284139":{"id":"100007806284139","name":"Đặng Yên"},"516931671":{"id":"516931671","name":"Nam Hung Nguyen"},"1452845400":{"id":"1452845400","name":"Thu Phuong"},"100002769955969":{"id":"100002769955969","name":"Dung Ngô"},"100004101530760":{"id":"100004101530760","name":"Kittylove Llvv"},"100001995633843":{"id":"100001995633843","name":"Yasunobu Toda"},"100001541536632":{"id":"100001541536632","name":"Viet Do"},"100003596217216":{"id":"100003596217216","name":"Lê Phước Trung"},"100006513963367":{"id":"100006513963367","name":"Chinhchinh Lêlê"},"100005762196537":{"id":"100005762196537","name":"Quynhnhu Nguyen"},"100004428488253":{"id":"100004428488253","name":"Tuân Đặng"},"100003694981194":{"id":"100003694981194","name":"Kim Duongxuan"},"100004698966337":{"id":"100004698966337","name":"Thảo Lee"},"100006043419016":{"id":"100006043419016","name":"Banphrionsa Mire"},"100004050323101":{"id":"100004050323101","name":"Ngọc Hoa"},"100000052661831":{"id":"100000052661831","name":"Shuntoku Pham"},"100001702762210":{"id":"100001702762210","name":"Lệ Minh"},"100003194814329":{"id":"100003194814329","name":"Trần Thanh"},"100003512453640":{"id":"100003512453640","name":"Cá Midori"},"100005339854111":{"id":"100005339854111","name":"Phương Hoàng Nguyễn"},"100007979350496":{"id":"100007979350496","name":"Nguyễn Hữu Đạo"},"100001533106767":{"id":"100001533106767","name":"Nguyễn Minh Châu"},"100007857724917":{"id":"100007857724917","name":"Harry Pham"},"100003957878204":{"id":"100003957878204","name":"Ma Kết"},"100002467884587":{"id":"100002467884587","name":"Hồng An"},"100006848703849":{"id":"100006848703849","name":"Mai Phương"},"100006499250252":{"id":"100006499250252","name":"Nguyễn Vân"},"816924473":{"id":"816924473","name":"Nguyễn Tùng"},"100003462033553":{"id":"100003462033553","name":"Hoàng Ly"},"100004456541864":{"id":"100004456541864","name":"Nha Gia"},"100004234301106":{"id":"100004234301106","name":"Hà Kawaii"},"100001837284849":{"id":"100001837284849","name":"Đàm Mạnh Đại"},"100002853438802":{"id":"100002853438802","name":"Thanh Thu"},"100000808815001":{"id":"100000808815001","name":"Xuong Tran"},"100002660837326":{"id":"100002660837326","name":"Ky Trần"},"100004511499641":{"id":"100004511499641","name":"Yêu Thương Quay Về"},"100002489640627":{"id":"100002489640627","name":"Hasuka Chan"},"100007446607402":{"id":"100007446607402","name":"Thu Bui Dinh"},"100006381426699":{"id":"100006381426699","name":"Asakura Yo"},"100007909359766":{"id":"100007909359766","name":"Phi Thuy"},"100007763774542":{"id":"100007763774542","name":"ʚTḩiêñ Tḩầñɞ"},"100003075376625":{"id":"100003075376625","name":"Thùy Dương"},"100007749823946":{"id":"100007749823946","name":"Sakai Yuriko"},"100006409272147":{"id":"100006409272147","name":"Joshi Kousei"},"100000135225954":{"id":"100000135225954","name":"Miky Thao Nguyen"},"100006177463122":{"id":"100006177463122","name":"Cuc Vu"},"100006296409820":{"id":"100006296409820","name":"Tham Hoang"},"100001610529032":{"id":"100001610529032","name":"Sakura Suki"},"100000532742867":{"id":"100000532742867","name":"Yuri Katsura"},"100003103086919":{"id":"100003103086919","name":"Tâm Hiếu"},"100000083451997":{"id":"100000083451997","name":"Toan Lo"},"100004331882459":{"id":"100004331882459","name":"Sky Oanh"},"100007905004742":{"id":"100007905004742","name":"Nguyet Thi"},"100003224466030":{"id":"100003224466030","name":"Trí Phạm"},"100006004634631":{"id":"100006004634631","name":"Quy Le Van"},"100002396398237":{"id":"100002396398237","name":"Tri Cao"},"100004694253428":{"id":"100004694253428","name":"Yến Nguyễn"},"100005224444803":{"id":"100005224444803","name":"Lanhuongtit Pham"},"100001571041179":{"id":"100001571041179","name":"Khôi Nguyễn Văn"},"100004246510881":{"id":"100004246510881","name":"Kem Su"},"100002676859353":{"id":"100002676859353","name":"Chu Quang Viên"},"100005307004792":{"id":"100005307004792","name":"Kiều Văn"},"100002999515557":{"id":"100002999515557","name":"Trần Thanh Chiến"},"100000152780699":{"id":"100000152780699","name":"Vian Phan"},"100004252990585":{"id":"100004252990585","name":"Nguyen Lien"},"1252077502":{"id":"1252077502","name":"Hoang Loan"},"100007918093460":{"id":"100007918093460","name":"Đại Phạm Văn"},"100001883080698":{"id":"100001883080698","name":"Ú Mỏ Nhọn"},"100003186000045":{"id":"100003186000045","name":"Gió Lạnh"},"100006382662351":{"id":"100006382662351","name":"Phạm Khắc Phương"},"100005801442456":{"id":"100005801442456","name":"An Nguyen"},"100005587061366":{"id":"100005587061366","name":"Trần Mỹ Hạnh"},"100004407519934":{"id":"100004407519934","name":"Huế Phạm"},"100003800715916":{"id":"100003800715916","name":"Rubic Angel"},"1848712649":{"id":"1848712649","name":"Trung Việt"},"1629517470":{"id":"1629517470","name":"Nguyen Thi Thanh Van"},"1137140946":{"id":"1137140946","name":"Thành Bùi"},"100001707684935":{"id":"100001707684935","name":"Luu Dinh"},"100000137157278":{"id":"100000137157278","name":"Min Đức Nguyễn"},"100004072695214":{"id":"100004072695214","name":"Phương Angel"},"100002979593922":{"id":"100002979593922","name":"Hien Mon"},"100005495773832":{"id":"100005495773832","name":"Hiền Vũ"},"100004082850320":{"id":"100004082850320","name":"Dong Ho Kat"},"100003564836780":{"id":"100003564836780","name":"Đỗ Văn Quyết"},"100003734874697":{"id":"100003734874697","name":"Phương Thúy"},"100003814756892":{"id":"100003814756892","name":"Hai Nguyen"},"100000221973381":{"id":"100000221973381","name":"Mạnh Ngô"},"100003233690108":{"id":"100003233690108","name":"Tú Ctn"},"100003683390259":{"id":"100003683390259","name":"Huệ Hoàng"},"100002124532666":{"id":"100002124532666","name":"Nguyễn Thành Du"},"100006095353806":{"id":"100006095353806","name":"Gia Han Le"},"100003943938804":{"id":"100003943938804","name":"Le Tien Dung"},"100005818926673":{"id":"100005818926673","name":"Ngà Hoàng"},"100006627121749":{"id":"100006627121749","name":"Cỏ Kim"},"100003841693574":{"id":"100003841693574","name":"Nguyen Nhung"},"100002959135962":{"id":"100002959135962","name":"Duong Nguyen Van"},"100000309978634":{"id":"100000309978634","name":"Tan Vu"},"100004500702268":{"id":"100004500702268","name":"Ngát Còi"},"100003961308936":{"id":"100003961308936","name":"Isabella Nhi Phan"},"100003540308544":{"id":"100003540308544","name":"Nguyen Hoang Ba"},"100006692138439":{"id":"100006692138439","name":"Dương Lê Thái Hòa"},"100006722864042":{"id":"100006722864042","name":"Họ Bá Tên Đạo"},"100001806981402":{"id":"100001806981402","name":"Cookie Panda"},"100004697765656":{"id":"100004697765656","name":"Trần Nam Anh"},"100007875852477":{"id":"100007875852477","name":"Ngọclinh DT"},"100006568425779":{"id":"100006568425779","name":"Giau Le"},"100000008054518":{"id":"100000008054518","name":"Ki Lo"},"100002820525919":{"id":"100002820525919","name":"Papy Cry"},"100003568206957":{"id":"100003568206957","name":"Dece Ngthv"},"100001487144680":{"id":"100001487144680","name":"Ngọc Trần"},"100000876802397":{"id":"100000876802397","name":"Trần Bảo Ngân"},"100000221260528":{"id":"100000221260528","name":"Đào Xuân Kiên"},"100006363635494":{"id":"100006363635494","name":"Wms Lmc"},"100003898875729":{"id":"100003898875729","name":"Hai Nguyen"},"100005187367701":{"id":"100005187367701","name":"Hoang Ly"},"100003275658608":{"id":"100003275658608","name":"Đỗ Hữu Phúc"},"100003791639010":{"id":"100003791639010","name":"Nguyễn Huế"},"100005310091804":{"id":"100005310091804","name":"Han Yo"},"100006488589110":{"id":"100006488589110","name":"Hộp Lê"},"100005677922501":{"id":"100005677922501","name":"Duy Tran"},"100006051303660":{"id":"100006051303660","name":"Chung Tình Là Ngôc"},"100004326153291":{"id":"100004326153291","name":"Truong Nhu"},"100005102704972":{"id":"100005102704972","name":"Hoàng Lộc"},"100001444337943":{"id":"100001444337943","name":"Macjanh"},"100000067699837":{"id":"100000067699837","name":"Nguyễn Hải Phong"},"100004374030406":{"id":"100004374030406","name":"Chính Nôbita"},"100004028509063":{"id":"100004028509063","name":"Ruby Rubie"},"100001362770102":{"id":"100001362770102","name":"Le Trinh"},"100002325675794":{"id":"100002325675794","name":"Mạnh Đọi"},"100006579366555":{"id":"100006579366555","name":"Thắng Trương"},"1116098561":{"id":"1116098561","name":"Nguyen Tuyet Nhung"},"100003525137061":{"id":"100003525137061","name":"Nguyen Hai Anh Nguyen"},"100001977762454":{"id":"100001977762454","name":"Tài Vũ Văn"},"100004522323186":{"id":"100004522323186","name":"Đỗ Văn Thắng"},"100007754344848":{"id":"100007754344848","name":"Hoaanhđào Tháng Tư"},"100003188297901":{"id":"100003188297901","name":"Hoai Xuan"},"100006328300416":{"id":"100006328300416","name":"Thảo Anh"},"100007777603244":{"id":"100007777603244","name":"Hoa Pham"},"100006984725456":{"id":"100006984725456","name":"Mai Anh"},"1303217748":{"id":"1303217748","name":"Trinh Thi Thanh Duyen"},"100007642921236":{"id":"100007642921236","name":"Như Quỳnhh"},"100006423679465":{"id":"100006423679465","name":"Kí Ức"},"100007961291110":{"id":"100007961291110","name":"Làm Lại Từ Đầu"},"100007974160871":{"id":"100007974160871","name":"Vạn Sự Tùy Duyên"},"100007728841810":{"id":"100007728841810","name":"Rắc Iốt"},"569263718":{"id":"569263718","name":"Phuong Thao Tran"},"100006478536280":{"id":"100006478536280","name":"Thuy Trang Nguyen"},"100000019126977":{"id":"100000019126977","name":"Nguyen Thi Ngoc Anh"},"100001583708890":{"id":"100001583708890","name":"Dung Pé Heo"},"100002414995202":{"id":"100002414995202","name":"Nguyễn Duy Công"},"100006440411160":{"id":"100006440411160","name":"Yến Anh"},"100000527769043":{"id":"100000527769043","name":"Phan Việt Anh"},"100001752806083":{"id":"100001752806083","name":"Hứa Văn Cường"},"100001359455451":{"id":"100001359455451","name":"Nguyễn Đức Thịnh"},"100005497260903":{"id":"100005497260903","name":"Bình An"},"100001222113521":{"id":"100001222113521","name":"Tạ Thu Hường"},"1008699941":{"id":"1008699941","name":"Chikn Egl"},"100002173851284":{"id":"100002173851284","name":"Duong Luong"},"100007930417031":{"id":"100007930417031","name":"Trang Yamato"},"100004085927294":{"id":"100004085927294","name":"Amsterdam Sa"},"100001218775683":{"id":"100001218775683","name":"Dũng Chelsea Dũng"},"1146680551":{"id":"1146680551","name":"優しい なぁ"},"100006528392123":{"id":"100006528392123","name":"Thảo Huỳnh"},"100003321786144":{"id":"100003321786144","name":"Baloon Bambootatoo"},"100001751941162":{"id":"100001751941162","name":"Vinh Lê"},"100003616116150":{"id":"100003616116150","name":"Nguyễn Phúc Tuấn"},"100000367010477":{"id":"100000367010477","name":"Sky's Wings"},"100001684597181":{"id":"100001684597181","name":"Tiểu Vũ"},"1776330824":{"id":"1776330824","name":"Nyaa Nyaa"},"100002709923817":{"id":"100002709923817","name":"Cỏ Dại"},"825219132":{"id":"825219132","name":"Long Ngo Phi"},"100007162899202":{"id":"100007162899202","name":"Qiu Xian Huang"},"100005290058777":{"id":"100005290058777","name":"Sicốc Chan"},"100004784682700":{"id":"100004784682700","name":"Huyen Trang"},"100002745833537":{"id":"100002745833537","name":"Ngáo Ộp Kìa"},"1433975306":{"id":"1433975306","name":"Tùng Paul"},"100004468119632":{"id":"100004468119632","name":"Vân Anh Siu Nhân"},"100003466287943":{"id":"100003466287943","name":"Kim Chi Saki Loyal"},"100000279494197":{"id":"100000279494197","name":"My Loan"},"100000230629050":{"id":"100000230629050","name":"Anh Đào Tô"},"100003157796395":{"id":"100003157796395","name":"Hao Hao"},"100003762427351":{"id":"100003762427351","name":"Hiroshi Yasu Oki"},"100003032663784":{"id":"100003032663784","name":"Vượt Qua Thử Thách"},"100002950942558":{"id":"100002950942558","name":"Le Hien"},"100006734168968":{"id":"100006734168968","name":"Tiểu Nhân Mã"},"100004975712968":{"id":"100004975712968","name":"Cương Nguyễn"},"100001260645727":{"id":"100001260645727","name":"Ngo Duy Son"},"100002488031743":{"id":"100002488031743","name":"Đoàn Văn Hải"},"100005211189763":{"id":"100005211189763","name":"Oliveu Cchann"},"100001114549932":{"id":"100001114549932","name":"Bui Thanh Hung"},"100003898395957":{"id":"100003898395957","name":"Hưng Vũ"},"100004026761828":{"id":"100004026761828","name":"Lanina Lâm"},"1128427597":{"id":"1128427597","name":"Quyên Nguyễn"},"100001836341721":{"id":"100001836341721","name":"Vit Con Xau Xi"},"1234763221":{"id":"1234763221","name":"Samatha Sam"},"100006859893056":{"id":"100006859893056","name":"Yến Thanh"},"100003799046445":{"id":"100003799046445","name":"Ánh Cỏ"},"100002399803308":{"id":"100002399803308","name":"Quèo Phởn"},"100004313402997":{"id":"100004313402997","name":"Trang Nguyen"},"100001007000967":{"id":"100001007000967","name":"Bibi Nguyễn"},"100003744702121":{"id":"100003744702121","name":"Diệu Aby"},"100001636105083":{"id":"100001636105083","name":"Zdungx Dũng"},"100000309415626":{"id":"100000309415626","name":"Kona Yuki"},"100006905583272":{"id":"100006905583272","name":"Nguyen Anh Tuan"},"100003168663740":{"id":"100003168663740","name":"Ớt Ngọt"},"100004392395418":{"id":"100004392395418","name":"Minh Hà"},"100007511135956":{"id":"100007511135956","name":"Hà Văn Tí"},"100002898154513":{"id":"100002898154513","name":"Gã Shrek"},"100003143578550":{"id":"100003143578550","name":"Vn Tim"},"100003918997915":{"id":"100003918997915","name":"Nguyễn Văn Còn"},"100005997090061":{"id":"100005997090061","name":"Bùi Minh Đức"},"100003516815793":{"id":"100003516815793","name":"Hiển Trần"},"100001458099624":{"id":"100001458099624","name":"Kham Pha"}},"paging":{"cursors":{"after":"MTAwMDA1ODE4MjQ0MzIz","before":"MTAwMDA1ODE4MjQ0MzIz"},"next":"https://graph.facebook.com/229244010425617_845901698759842/likes?limit=1&summary=1&after=MTAwMDA1ODE4MjQ0MzIz"},"summary":{"total_count":325}},"comments":{"data":{"845903905426288":{"id":"845903905426288","from":{"id":"100001458099624","name":"Kham Pha"},"message":"tỏ thái độ phải rõ ràng như thế chứ :D","can_remove":false,"created_time":"2014-04-05T13:03:09+0000","like_count":3,"user_likes":false},"845904775426201":{"id":"845904775426201","from":{"id":"100000045271667","name":"Nam Thai Nguyen"},"message":"Không lời ca ngợi tình cảm hữu nghị  nào bằng hành động ^^","can_remove":false,"created_time":"2014-04-05T13:05:24+0000","like_count":8,"user_likes":false},"845907195425959":{"id":"845907195425959","from":{"id":"100006734168968","name":"Tiểu Nhân Mã"},"message":"Like mạnh. \nGhét hội tàu khựa><","can_remove":false,"created_time":"2014-04-05T13:09:12+0000","like_count":0,"user_likes":false},"845909652092380":{"id":"845909652092380","from":{"id":"100001432462223","name":"Truong Nguyen"},"message":"luật biển quốc tế cũng công nhận mà :))","can_remove":false,"created_time":"2014-04-05T13:14:27+0000","like_count":0,"user_likes":false},"845911145425564":{"id":"845911145425564","from":{"id":"100004085927294","name":"Amsterdam Sa"},"message":"I love you Japan <3  <3  <3  <3  <3","can_remove":false,"created_time":"2014-04-05T13:18:35+0000","like_count":3,"user_likes":false},"845911295425549":{"id":"845911295425549","from":{"id":"100004784682700","name":"Huyen Trang"},"message":"klq nhưng SGK của Nhật có màu sắc và hình ảnh sinh động thật đấy =))","can_remove":false,"created_time":"2014-04-05T13:18:55+0000","like_count":2,"user_likes":false},"845914725425206":{"id":"845914725425206","from":{"id":"100007930417031","name":"Trang Yamato"},"message":"Sách VN cũng công nhận đấy thôi :)","can_remove":false,"created_time":"2014-04-05T13:27:03+0000","like_count":1,"user_likes":false},"845915945425084":{"id":"845915945425084","from":{"id":"100007754344848","name":"Hoaanhđào Tháng Tư"},"message":"sách giáo khoa của nhật có hình ảnh rõ nét ghê.hi.hoàng sa là của việt nam.vốn là vậy mà.nhật bản làm vậy là đúng.","can_remove":false,"created_time":"2014-04-05T13:29:54+0000","like_count":1,"user_likes":false},"845917702091575":{"id":"845917702091575","from":{"id":"100002593186636","name":"Michael Hoa"},"message":"Các cuốn sách giáo khoa này được dạy học sinh toàn nước Nhật từ mùa xuân 2015.","can_remove":false,"created_time":"2014-04-05T13:34:30+0000","like_count":2,"user_likes":false},"845918245424854":{"id":"845918245424854","from":{"id":"100000600815626","name":"KqlTwo MeoHen"},"message":"Kẻ thù của kẻ thù là bạn... :v","can_remove":false,"created_time":"2014-04-05T13:35:36+0000","like_count":7,"user_likes":false},"845930048757007":{"id":"845930048757007","from":{"id":"100003146740430","name":"Chan Doi"},"message":"hâm mộ nước Nhật từ bé","can_remove":false,"created_time":"2014-04-05T14:03:43+0000","like_count":1,"user_likes":false},"845932522090093":{"id":"845932522090093","from":{"id":"100005495773832","name":"Hiền Vũ"},"message":"Kiều Văn sách dạy của nhật dễ thương nhỉ","message_tags":[{"id":"100005307004792","name":"Kiều Văn","type":"user","offset":0,"length":8}],"can_remove":false,"created_time":"2014-04-05T14:09:12+0000","like_count":1,"user_likes":false},"845946852088660":{"id":"845946852088660","from":{"id":"100001416272263","name":"Mai PB"},"message":"Có thấy gì Hoàng Sa Trường Sa đâu nhỉ? Cờ VN là ý nói nước VN bên trái đó thôi mà? Người Nhật chưa bao giờ khẳng định chắc chắn điều này.","can_remove":false,"created_time":"2014-04-05T14:40:52+0000","like_count":6,"user_likes":false},"845992642084081":{"id":"845992642084081","from":{"id":"100001327275562","name":"Aoki Hagane No Arpeggio"},"message":"Hầu hết đồ đạc trong nhà toàn của Nhật :'(","can_remove":false,"created_time":"2014-04-05T16:17:52+0000","like_count":0,"user_likes":false},"846001205416558":{"id":"846001205416558","from":{"id":"100000221260528","name":"Đào Xuân Kiên"},"message":"Trần Đình Bách","message_tags":[{"id":"100001319641474","name":"Trần Đình Bách","type":"user","offset":0,"length":14}],"can_remove":false,"created_time":"2014-04-05T16:38:53+0000","like_count":0,"user_likes":false},"846191438730868":{"id":"846191438730868","from":{"id":"100001104538854","name":"Gia Trịnh"},"message":"Giờ khẳng định cũng làm được gì?Định hy vọng TQ sẽ trả lại Hoàng Sa àh?VN nên học philippin kìa,ít nhất cũng có hành động cụ thể.","can_remove":false,"created_time":"2014-04-06T01:10:46+0000","like_count":1,"user_likes":false},"846198462063499":{"id":"846198462063499","from":{"id":"100000030980994","name":"Ông Sung"},"message":"Khẳng định thì cả thế giới biết trừ tàu.","can_remove":false,"created_time":"2014-04-06T01:33:59+0000","like_count":0,"user_likes":false},"846206632062682":{"id":"846206632062682","from":{"id":"100001104538854","name":"Gia Trịnh"},"message":"Cả thế giới biết để làm gì?định nhờ nước khác đòi giúp àh.vn hãy nhìn sang philip kìa,họ đưa các bằng chứng ra LHQ,sẵn sàng bảo vệ quyền lợi của mình.Chứ đâu như,suốt ngày cứ rêu rao trong nước rằng \"trường sa-hoàng sa là của Việt Nam!\"để làm gì ko biết,ko lẽ dân mình ko biết điều đó sao.","can_remove":false,"created_time":"2014-04-06T02:03:42+0000","like_count":3,"user_likes":false},"846215555395123":{"id":"846215555395123","from":{"id":"100002672409491","name":"Yến Lê"},"message":"Xin phép chủ Thớt cho tớ share :)","can_remove":false,"created_time":"2014-04-06T02:25:52+0000","like_count":0,"user_likes":false},"846221552061190":{"id":"846221552061190","from":{"id":"100005529430352","name":"Xu Huyền"},"message":"mùa xuân 2015 ??????????","can_remove":false,"created_time":"2014-04-06T02:45:35+0000","like_count":1,"user_likes":false},"846238148726197":{"id":"846238148726197","from":{"id":"100002065732666","name":"Nam Thai Tran"},"message":"(y)","can_remove":false,"created_time":"2014-04-06T03:31:15+0000","like_count":0,"user_likes":false},"846239318726080":{"id":"846239318726080","from":{"id":"100005496607458","name":"Tran Manh Tu"},"message":"(y)","can_remove":false,"created_time":"2014-04-06T03:35:50+0000","like_count":0,"user_likes":false}},"paging":{"cursors":{"after":"ODQ1OTAzOTA1NDI2Mjg4","before":"ODQ1OTAzOTA1NDI2Mjg4"},"next":"https://graph.facebook.com/229244010425617_845901698759842/comments?limit=1&summary=1&after=ODQ1OTAzOTA1NDI2Mjg4"},"summary":{"order":"chronological","total_count":22}}}