{"id":"229244010425617_846216145395064","type":"status","from":{"id":"100005301067758","name":"Phan Thành Chung"},"message":"Tks tất cả mọi người nhé. \nMọi người cho e hỏi thêm vs. Tình hình là e học đc tiếng nhật 3 tháng rồi giờ cũng biết qua qua rồi. Mọi người cho e hỏi có ai biết chỗ nào chỉ CẦN Đến tuyển đỗ đơn hàng rồi xong mới phải học ko.","created_time":"2014-04-06T02:27:59+0000","updated_time":"2014-04-06T06:34:59+0000","likes":{"data":{"100002890615135":{"id":"100002890615135","name":"Ga Kute Ga Kute"},"100001752806083":{"id":"100001752806083","name":"Hứa Văn Cường"},"100002158598797":{"id":"100002158598797","name":"Cỏ Khát Mưa"},"100000873759220":{"id":"100000873759220","name":"Trần Thanh"},"100005014840334":{"id":"100005014840334","name":"Lê Anh Nam"},"100007806284139":{"id":"100007806284139","name":"Đặng Yên"},"100001652101905":{"id":"100001652101905","name":"Mèo Lười"}},"paging":{"cursors":{"after":"MTAwMDAyODkwNjE1MTM1","before":"MTAwMDAyODkwNjE1MTM1"},"next":"https://graph.facebook.com/229244010425617_846216145395064/likes?limit=1&summary=1&after=MTAwMDAyODkwNjE1MTM1"},"summary":{"total_count":7}},"comments":{"data":{"846217388728273":{"id":"846217388728273","from":{"id":"100003245420682","name":"Thỏ Ngọc Usagi"},"message":"Bạn ở đâu?","can_remove":false,"created_time":"2014-04-06T02:31:30+0000","like_count":0,"user_likes":false},"846217708728241":{"id":"846217708728241","from":{"id":"100005301067758","name":"Phan Thành Chung"},"message":"E ở Hà Nội.","can_remove":false,"created_time":"2014-04-06T02:32:18+0000","like_count":0,"user_likes":false},"846218738728138":{"id":"846218738728138","from":{"id":"100001432462223","name":"Truong Nguyen"},"message":"thử ở cty DH công nghiệp HN xem sao bạn ah :)","can_remove":false,"created_time":"2014-04-06T02:36:19+0000","like_count":1,"user_likes":false},"846218808728131":{"id":"846218808728131","from":{"id":"100003766970257","name":"Tư Lozen"},"message":"Bạn mún tìm cty để đi nhật ak","can_remove":false,"created_time":"2014-04-06T02:36:34+0000","like_count":1,"user_likes":false},"846219052061440":{"id":"846219052061440","from":{"id":"100005301067758","name":"Phan Thành Chung"},"message":"Tư Lozen vâg đúng r a","can_remove":false,"created_time":"2014-04-06T02:37:25+0000","like_count":1,"user_likes":false},"846219422061403":{"id":"846219422061403","from":{"id":"100003245420682","name":"Thỏ Ngọc Usagi"},"message":"Bạn có bằng cao đẳng hay đại học ko???","can_remove":false,"created_time":"2014-04-06T02:38:30+0000","like_count":0,"user_likes":false},"846219662061379":{"id":"846219662061379","from":{"id":"100005301067758","name":"Phan Thành Chung"},"message":"Ko. Chỉ có bằng c3 thôi","can_remove":false,"created_time":"2014-04-06T02:39:22+0000","like_count":0,"user_likes":false},"846220545394624":{"id":"846220545394624","from":{"id":"100003246541781","name":"Đoàn Văn Tuyên"},"message":"Qua cty mjh thj dh xay trat. Trug tuyen moi phai học","can_remove":false,"created_time":"2014-04-06T02:42:20+0000","like_count":0,"user_likes":false},"846220892061256":{"id":"846220892061256","from":{"id":"100003245420682","name":"Thỏ Ngọc Usagi"},"message":"Mình biết có chỗ đang tuyển nhưng cần có bằng cao đẳng cơ. Vì thi tuyển kĩ thuật viên cơ","can_remove":false,"created_time":"2014-04-06T02:43:40+0000","like_count":1,"user_likes":false},"846220932061252":{"id":"846220932061252","from":{"id":"100005301067758","name":"Phan Thành Chung"},"message":"Đoàn Văn Tuyên cty nào cơ. Ở đâu.","message_tags":[{"id":"100003246541781","name":"Đoàn Văn Tuyên","type":"user","offset":0,"length":14}],"can_remove":false,"created_time":"2014-04-06T02:43:50+0000","like_count":0,"user_likes":false},"846221245394554":{"id":"846221245394554","from":{"id":"100005301067758","name":"Phan Thành Chung"},"message":"Thỏ Ngọc Usagi vậy à. Thế a biết chỗ nào chỉ tuyển tns đi lao động bt ko","can_remove":false,"created_time":"2014-04-06T02:44:26+0000","like_count":0,"user_likes":false},"846221368727875":{"id":"846221368727875","from":{"id":"100003766970257","name":"Tư Lozen"},"message":"Bạn inbox mình đi","can_remove":false,"created_time":"2014-04-06T02:44:52+0000","like_count":0,"user_likes":false},"846221435394535":{"id":"846221435394535","from":{"id":"100003766970257","name":"Tư Lozen"},"message":"Mình cho địa chỉ nạ","can_remove":false,"created_time":"2014-04-06T02:45:02+0000","like_count":0,"user_likes":false},"846221585394520":{"id":"846221585394520","from":{"id":"100006129404404","name":"Tien Nguyencong"},"message":"Xuống ha Long","can_remove":false,"created_time":"2014-04-06T02:45:42+0000","like_count":1,"user_likes":false},"846223648727647":{"id":"846223648727647","from":{"id":"100004590847033","name":"Bống Yêu"},"message":"Ha long o cty nso","can_remove":false,"created_time":"2014-04-06T02:52:20+0000","like_count":0,"user_likes":false},"846226902060655":{"id":"846226902060655","from":{"id":"100004571587833","name":"Nguyễn Ngọc Anh"},"message":"Cty mình này tên hinomaru ở 68 tô vĩnh diện thanh xuân hà nội trúng tuyển mới phải học","can_remove":false,"created_time":"2014-04-06T03:04:38+0000","like_count":0,"user_likes":false},"846226908727321":{"id":"846226908727321","from":{"id":"100004553534402","name":"Minh Tuấn"},"message":"vinaincomex la bon lua dao","can_remove":false,"created_time":"2014-04-06T03:04:39+0000","like_count":0,"user_likes":false},"846227055393973":{"id":"846227055393973","from":{"id":"100004590847033","name":"Bống Yêu"},"message":"Minh sinh nam 84 con co co hoi di nhat khong ban","can_remove":false,"created_time":"2014-04-06T03:05:06+0000","like_count":0,"user_likes":false},"846227302060615":{"id":"846227302060615","from":{"id":"100004571587833","name":"Nguyễn Ngọc Anh"},"message":"Còn bạn ơi","can_remove":false,"created_time":"2014-04-06T03:05:44+0000","like_count":0,"user_likes":false},"846227662060579":{"id":"846227662060579","from":{"id":"100004590847033","name":"Bống Yêu"},"message":"Ban co dia chi cty cu the khong cho minh voi","can_remove":false,"created_time":"2014-04-06T03:06:34+0000","like_count":0,"user_likes":false},"846227862060559":{"id":"846227862060559","from":{"id":"100004571587833","name":"Nguyễn Ngọc Anh"},"message":"68 tô vĩnh diện thanh xuân hà nội","can_remove":false,"created_time":"2014-04-06T03:07:16+0000","like_count":0,"user_likes":false},"846227975393881":{"id":"846227975393881","from":{"id":"100004571587833","name":"Nguyễn Ngọc Anh"},"message":"Mình ko phải nv công ty mà là dhs của cty đã bên nhật r nhé","can_remove":false,"created_time":"2014-04-06T03:07:37+0000","like_count":0,"user_likes":false},"846228392060506":{"id":"846228392060506","from":{"id":"100004590847033","name":"Bống Yêu"},"message":"The ah. Nhung gio tuoi 84 it don hang de thi lam","can_remove":false,"created_time":"2014-04-06T03:08:53+0000","like_count":0,"user_likes":false},"846229332060412":{"id":"846229332060412","from":{"id":"100003246541781","name":"Đoàn Văn Tuyên"},"message":"ceo group .. 0964511236","can_remove":false,"created_time":"2014-04-06T03:11:55+0000","like_count":1,"user_likes":false},"846230755393603":{"id":"846230755393603","from":{"id":"100006129404404","name":"Tien Nguyencong"},"message":"T chỉ biết a to dạy tiếng rồi đưa hs sang nhật dc 4 khóa rồi. T cũng đang cbi di.","can_remove":false,"created_time":"2014-04-06T03:14:21+0000","like_count":0,"user_likes":false},"846232325393446":{"id":"846232325393446","from":{"id":"100007642115476","name":"Kim Oanh Nguyen Thi"},"message":"cong ty cua b Nguyễn ngoc a di het bnhiu vay?","can_remove":false,"created_time":"2014-04-06T03:17:39+0000","like_count":0,"user_likes":false},"846232405393438":{"id":"846232405393438","from":{"id":"100001715078484","name":"Phan Trung Hiếu"},"message":"13/4 cty mình tuyển trực tiếp đơn hàng linh kiện ô tô. trúng tuyển xong mới học. \nhttp://vinaincomex.vn/tuyen-gap-nam-nu-don-hang-co-khi-che-tao-san-xuat-nhat-ban/","can_remove":false,"created_time":"2014-04-06T03:17:53+0000","like_count":1,"user_likes":false},"846233572059988":{"id":"846233572059988","from":{"id":"100004590847033","name":"Bống Yêu"},"message":"The nu sinh nam 84 co thi dc don hag nay khong Phan Trung Hiếu","message_tags":[{"id":"100001715078484","name":"Phan Trung Hiếu","type":"user","offset":47,"length":15}],"can_remove":false,"created_time":"2014-04-06T03:21:27+0000","like_count":0,"user_likes":false},"846233732059972":{"id":"846233732059972","from":{"id":"100003245420682","name":"Thỏ Ngọc Usagi"},"message":"sinh năm 84 nếu có đi thì chỉ đi đc đơn hàng may thôi bạn bống ơi","can_remove":false,"created_time":"2014-04-06T03:22:07+0000","like_count":0,"user_likes":false},"846234088726603":{"id":"846234088726603","from":{"id":"100001715078484","name":"Phan Trung Hiếu"},"message":"Bống Yêu mình chỉ lấy nữ từ 18 đến 30t thôi bạn ạ. tốt nghiệp cấp 3 và phải cao ít nhất 1m53 trở lên thôi","message_tags":[{"id":"100004590847033","name":"Bống Yêu","type":"user","offset":0,"length":8}],"can_remove":false,"created_time":"2014-04-06T03:23:26+0000","like_count":0,"user_likes":false},"846235648726447":{"id":"846235648726447","from":{"id":"100004590847033","name":"Bống Yêu"},"message":"Minh tinh ra cung 30. Tot nghiep dai hoc. Cao 160. The co thi duoc k bn Phan Trung Hiếu","message_tags":[{"id":"100001715078484","name":"Phan Trung Hiếu","type":"user","offset":72,"length":15}],"can_remove":false,"created_time":"2014-04-06T03:26:35+0000","like_count":0,"user_likes":false},"846236142059731":{"id":"846236142059731","from":{"id":"100005301067758","name":"Phan Thành Chung"},"message":"Phan Trung Hiếu đơn hàng này hết hạn nộp hồ sơ chưa a ơi","message_tags":[{"id":"100001715078484","name":"Phan Trung Hiếu","type":"user","offset":0,"length":15}],"can_remove":false,"created_time":"2014-04-06T03:28:45+0000","like_count":0,"user_likes":false},"846238642059481":{"id":"846238642059481","from":{"id":"100001715078484","name":"Phan Trung Hiếu"},"message":"Bống Yêu  bạn tốt nghiệp đh thì tốt quá, nếu đủ 30t thì ok bạn nhé vì nếu quá 30t mình cũng ko dám nhận đâu vì nhận vào mà tuyển ko trúng thì mất thời gian của cả 2 bên nữa. 13/4 này tuyển trực tiếp tại cty mình luôn. \nPhan Thành Chung chưa em ạ. 13/4 mới tuyển mà","message_tags":[{"id":"100004590847033","name":"Bống Yêu","type":"user","offset":0,"length":8},{"id":"100005301067758","name":"Phan Thành Chung","type":"user","offset":219,"length":16}],"can_remove":false,"created_time":"2014-04-06T03:32:59+0000","like_count":1,"user_likes":false},"846239062059439":{"id":"846239062059439","from":{"id":"100004553534402","name":"Minh Tuấn"},"message":"vinaincomex khong tuyen dc dau mh hoc roi đến mục thất mới đi đc bạn ơi","can_remove":false,"created_time":"2014-04-06T03:34:21+0000","like_count":0,"user_likes":false},"846239415392737":{"id":"846239415392737","from":{"id":"100004590847033","name":"Bống Yêu"},"message":"Neu tinh theo sinh nhat cua minh la 20/10/1984den thang 10 nay minh moi 30 tuoi. Minh co tham gia thi tuyen duoc khong. Ban chot cho minh luon de minh con lien lac voi ban. Phan Trung Hiếu","message_tags":[{"id":"100001715078484","name":"Phan Trung Hiếu","type":"user","offset":173,"length":15}],"can_remove":false,"created_time":"2014-04-06T03:36:15+0000","like_count":0,"user_likes":false},"846240425392636":{"id":"846240425392636","from":{"id":"100001715078484","name":"Phan Trung Hiếu"},"message":"Bống Yêu  ok. gọi cho mình nhé 0982.110.797","message_tags":[{"id":"100004590847033","name":"Bống Yêu","type":"user","offset":0,"length":8}],"can_remove":false,"created_time":"2014-04-06T03:38:30+0000","like_count":0,"user_likes":false},"846252648724747":{"id":"846252648724747","from":{"id":"100001715078484","name":"Phan Trung Hiếu"},"message":"cty mình cũng đang rất cần tuyển phiên dịch và giáo viên tiếng nhật tiếng tốt. mọi nguoif ai có khả năng hoặc giới thiệu mình với nhé. cảm ơn nhiều!\nhttp://vinaincomex.vn/tuyen-giao-vien-day-tieng-nhat/","can_remove":false,"created_time":"2014-04-06T04:15:41+0000","like_count":0,"user_likes":false},"846257282057617":{"id":"846257282057617","from":{"id":"100006356281236","name":"Duc Minh"},"message":"0975.124.020 cty Nosco Imast bạn nhé, đang nhiều đơn hàng, trúng tuyển mới học bạn nhé","can_remove":false,"created_time":"2014-04-06T04:31:57+0000","like_count":1,"user_likes":false},"846275875389091":{"id":"846275875389091","from":{"id":"100003934394087","name":"Cu BIn NgOk"},"message":"Để cuối năm đi cùng a . Tháng 7 a cũng đi học tiếng rồi .","can_remove":false,"created_time":"2014-04-06T05:27:31+0000","like_count":1,"user_likes":false},"846296415387037":{"id":"846296415387037","from":{"id":"100005301067758","name":"Phan Thành Chung"},"message":"Cu BIn NgOk thì cứ đi học đê...","message_tags":[{"id":"100003934394087","name":"Cu BIn NgOk","type":"user","offset":0,"length":11}],"can_remove":false,"created_time":"2014-04-06T06:25:03+0000","like_count":0,"user_likes":false},"846297242053621":{"id":"846297242053621","from":{"id":"100003934394087","name":"Cu BIn NgOk"},"message":"2 tháng nữa a học song bằng nghề là đi học tiếng luôn mà , ông già bảo rồi .","can_remove":false,"created_time":"2014-04-06T06:28:37+0000","like_count":0,"user_likes":false},"846298748720137":{"id":"846298748720137","from":{"id":"100005301067758","name":"Phan Thành Chung"},"message":"Ừ thế để e đi học trước chứ ở nhà chơi chán lắm","can_remove":false,"created_time":"2014-04-06T06:34:17+0000","like_count":0,"user_likes":false},"846299232053422":{"id":"846299232053422","from":{"id":"100003934394087","name":"Cu BIn NgOk"},"message":"Oki","can_remove":false,"created_time":"2014-04-06T06:34:59+0000","like_count":0,"user_likes":false}},"paging":{"cursors":{"after":"ODQ2MjE3Mzg4NzI4Mjcz","before":"ODQ2MjE3Mzg4NzI4Mjcz"},"next":"https://graph.facebook.com/229244010425617_846216145395064/comments?limit=1&summary=1&after=ODQ2MjE3Mzg4NzI4Mjcz"},"summary":{"order":"chronological","total_count":43}}}