{"id":"229244010425617_846281382055207","type":"photo","object_id":"537183399735895","picture":"https://fbcdn-photos-a-a.akamaihd.net/hphotos-ak-prn2/t1.0-0/1480595_537183399735895_7162238490213292089_s.jpg","link":"https://www.facebook.com/photo.php?fbid=537183399735895&set=gm.846281382055207&type=1&relevant_count=1","from":{"id":"100003327182344","name":"Hồng Cẩm"},"message":"có bạn nào đang ôn thi N5 không nhỉ? bạn đã làm thủ tục chưa, mua hồ sơ và phí thi là bao nhiêu? ai thi rồi, có thể chia sẻ kinh nghiệm ôn thi cho mình với không?,,,mình sợ môn nghe quá huhuhuhu.","created_time":"2014-04-06T05:45:06+0000","updated_time":"2014-04-06T20:53:53+0000","likes":{"data":{"100004026514121":{"id":"100004026514121","name":"Ti Con Meo"},"100003017563050":{"id":"100003017563050","name":"Nu Nhí Nhố"},"100003999550908":{"id":"100003999550908","name":"Ishi Kusa"},"100003133977159":{"id":"100003133977159","name":"Lưu Văn Cường"},"100002716525116":{"id":"100002716525116","name":"Nguyễn Tất Nguyên"}},"paging":{"cursors":{"after":"MTAwMDA0MDI2NTE0MTIx","before":"MTAwMDA0MDI2NTE0MTIx"},"next":"https://graph.facebook.com/229244010425617_846281382055207/likes?limit=1&summary=1&after=MTAwMDA0MDI2NTE0MTIx"},"summary":{"total_count":5}},"comments":{"data":{"846282242055121":{"id":"846282242055121","from":{"id":"100003920610348","name":"Mac Tuan"},"message":"Lam nhah con kjp k het han oy kja","can_remove":false,"created_time":"2014-04-06T05:48:17+0000","like_count":0,"user_likes":false},"846282362055109":{"id":"846282362055109","from":{"id":"100003920610348","name":"Mac Tuan"},"message":"Phj la hon  600.000","can_remove":false,"created_time":"2014-04-06T05:48:52+0000","like_count":0,"user_likes":false},"846282375388441":{"id":"846282375388441","from":{"id":"100003327182344","name":"Hồng Cẩm"},"message":"hihi. cô giáo nói đóng tiền và hình cô làm giùm cho. 300k ak","can_remove":false,"created_time":"2014-04-06T05:49:06+0000","like_count":0,"user_likes":false},"846282622055083":{"id":"846282622055083","from":{"id":"100002716525116","name":"Nguyễn Tất Nguyên"},"message":"　だいじょうぶだよ、心配しないでください","can_remove":false,"created_time":"2014-04-06T05:49:55+0000","like_count":1,"user_likes":false},"846283115388367":{"id":"846283115388367","from":{"id":"100003327182344","name":"Hồng Cẩm"},"message":"hạn cuối hình như ngày 10 phải không Mac Tuan","message_tags":[{"id":"100003920610348","name":"Mac Tuan","type":"user","offset":37,"length":8}],"can_remove":false,"created_time":"2014-04-06T05:51:34+0000","like_count":0,"user_likes":false},"846283208721691":{"id":"846283208721691","from":{"id":"100003133977159","name":"Lưu Văn Cường"},"message":"30k hồ sơ + 280k tiền phí! cổng ĐHNN - ĐHQG hà nội! t6 tuần sau hết hạn","can_remove":false,"created_time":"2014-04-06T05:51:57+0000","like_count":0,"user_likes":false},"846283565388322":{"id":"846283565388322","from":{"id":"100003327182344","name":"Hồng Cẩm"},"message":"ohhh. mình ở tp Hồ Chí Minh.","can_remove":false,"created_time":"2014-04-06T05:52:45+0000","like_count":0,"user_likes":false},"846283662054979":{"id":"846283662054979","from":{"id":"100003133977159","name":"Lưu Văn Cường"},"message":"http://jpf.org.vn/2014/02/19/thong-bao-ve-viec-to-chuc-ky-thi-nang-luc-tieng-nhat-thang-72014/","can_remove":false,"created_time":"2014-04-06T05:53:09+0000","like_count":0,"user_likes":false},"846283672054978":{"id":"846283672054978","from":{"id":"100003133977159","name":"Lưu Văn Cường"},"message":"xem ngay ko hết hạn","can_remove":false,"created_time":"2014-04-06T05:53:14+0000","like_count":0,"user_likes":false},"846284218721590":{"id":"846284218721590","from":{"id":"100003920610348","name":"Mac Tuan"},"message":"Sao re vay nhj","can_remove":false,"created_time":"2014-04-06T05:54:59+0000","like_count":0,"user_likes":false},"846284418721570":{"id":"846284418721570","from":{"id":"100003920610348","name":"Mac Tuan"},"message":"Trung tam m bao hon 6tram chu","can_remove":false,"created_time":"2014-04-06T05:55:24+0000","like_count":0,"user_likes":false},"846284518721560":{"id":"846284518721560","from":{"id":"100003133977159","name":"Lưu Văn Cường"},"message":"chắc là nattest đó","can_remove":false,"created_time":"2014-04-06T05:55:49+0000","like_count":0,"user_likes":false},"846284755388203":{"id":"846284755388203","from":{"id":"100003327182344","name":"Hồng Cẩm"},"message":"11/4 hạn cuối rồi. cũng may là còn kịp. cảm ơn nhé","can_remove":false,"created_time":"2014-04-06T05:56:35+0000","like_count":0,"user_likes":false},"846287172054628":{"id":"846287172054628","from":{"id":"100004159717053","name":"Ngo Tu"},"message":"đã từng tự dký thi cả n5 , n4 ở đông du","can_remove":false,"created_time":"2014-04-06T06:03:46+0000","like_count":0,"user_likes":false},"846287325387946":{"id":"846287325387946","from":{"id":"100004159717053","name":"Ngo Tu"},"message":"kinh nghiệm thì nhiều :v lắm","can_remove":false,"created_time":"2014-04-06T06:04:07+0000","like_count":0,"user_likes":false},"846288628721149":{"id":"846288628721149","from":{"id":"100003327182344","name":"Hồng Cẩm"},"message":"Đồng Du dạy và ôn thi kỹ phải biết. nhưng giờ không qua đó được rồi. ôn ở trung tâm văn hóa chán lắm, anh Ngo Tu cho xin ít kinh nghiệm thi ôn + thi đi","message_tags":[{"id":"100004159717053","name":"Ngo Tu","type":"user","offset":106,"length":6}],"can_remove":false,"created_time":"2014-04-06T06:05:51+0000","like_count":0,"user_likes":false},"846293422054003":{"id":"846293422054003","from":{"id":"100004159717053","name":"Ngo Tu"},"message":"ôn thì vào mấy trang trắc nghiệm mà làm , a toàn làm ở đấy , sao làm nhiều thành quen , a tự học nên k biết tt nó ôn thế nào","can_remove":false,"created_time":"2014-04-06T06:14:36+0000","like_count":0,"user_likes":false},"846293825387296":{"id":"846293825387296","from":{"id":"100004159717053","name":"Ngo Tu"},"message":"nó chung chữ hán dễ kiếm điểm nhất , dễ , làm nhanh cái gì khó thì \" đỏ đen\" , đừng để bị điểm liệt là đc","can_remove":false,"created_time":"2014-04-06T06:15:57+0000","like_count":0,"user_likes":false},"846295012053844":{"id":"846295012053844","from":{"id":"100003920610348","name":"Mac Tuan"},"message":"Chu han ma de a\" kaka chug to hoc gjoi chu han oy","can_remove":false,"created_time":"2014-04-06T06:19:45+0000","like_count":0,"user_likes":false},"846296302053715":{"id":"846296302053715","from":{"id":"100003702464850","name":"Chung Bùi Thị"},"message":"M thi rui.nghe dêz ko khó đâu. Chịu khó nghe file nghe n5 downtrên mạng ý.nó gần giống đó","can_remove":false,"created_time":"2014-04-06T06:24:33+0000","like_count":1,"user_likes":false},"846296448720367":{"id":"846296448720367","from":{"id":"100000852350313","name":"Bật Cả Chính Phủ"},"message":"400k.giảng đường B2 DHNN-DHQG.thi thì hên xui","can_remove":false,"created_time":"2014-04-06T06:25:11+0000","like_count":0,"user_likes":false},"846301532053192":{"id":"846301532053192","from":{"id":"100003327182344","name":"Hồng Cẩm"},"message":"ai thì rồi cũng nói dễ hết. mà sao mình lo quá. sợ bị liệt môn nghe","can_remove":false,"created_time":"2014-04-06T06:43:09+0000","like_count":0,"user_likes":false},"846302275386451":{"id":"846302275386451","from":{"id":"100003327182344","name":"Hồng Cẩm"},"message":"có ai ở tp HCM không? ôn thì giùm mình vào chủ nhật đi, mình sẽ hậu tạ ( giáo trình có sẵn) ^^mình không có nhiều thời gian rảnh nên k đi học ở trường được.","can_remove":false,"created_time":"2014-04-06T06:45:09+0000","like_count":1,"user_likes":false},"846305892052756":{"id":"846305892052756","from":{"id":"100004159717053","name":"Ngo Tu"},"message":"chữ hán có hơn 100 chữ","can_remove":false,"created_time":"2014-04-06T06:55:52+0000","like_count":0,"user_likes":false},"846309798719032":{"id":"846309798719032","from":{"id":"100007905004742","name":"Nguyet Thi"},"message":"Thi n5.n4 co nhieu kanji ko moi nguoi nhi.ai biet noi gium cai","can_remove":false,"created_time":"2014-04-06T07:11:30+0000","like_count":0,"user_likes":false},"846314312051914":{"id":"846314312051914","from":{"id":"100004159717053","name":"Ngo Tu"},"message":"n4 tầm hơn 300 chữ","can_remove":false,"created_time":"2014-04-06T07:14:58+0000","like_count":0,"user_likes":false},"846716775345001":{"id":"846716775345001","from":{"id":"100004649584363","name":"Nguyen Thj Chjn Nguyen"},"message":"nghe nhiu se wen thui","can_remove":false,"created_time":"2014-04-06T20:53:53+0000","like_count":1,"user_likes":false}},"paging":{"cursors":{"after":"ODQ2MjgyMjQyMDU1MTIx","before":"ODQ2MjgyMjQyMDU1MTIx"},"next":"https://graph.facebook.com/229244010425617_846281382055207/comments?limit=1&summary=1&after=ODQ2MjgyMjQyMDU1MTIx"},"summary":{"order":"chronological","total_count":27}}}