{"id":"229244010425617_846243802058965","type":"link","picture":"https://fbexternal-a.akamaihd.net/safe_image.php?d=AQCZNvlcX7giyU--&w=154&h=154&url=http%3A%2F%2Fthanhnientudo.files.wordpress.com%2F2014%2F04%2F20140405-021816.jpg","link":"http://thanhnientudo.wordpress.com/2014/04/05/doc-de-biet-nguoi-nuoc-ngoai-suy-nghi-gi-ve-nguoi-viet-nam/","from":{"id":"100001583529210","name":"Nguyễn Kim Hà"},"message":"Đọc để biết người nước ngoài nghĩ gì","created_time":"2014-04-06T03:51:17+0000","updated_time":"2014-04-07T07:44:36+0000","likes":{"data":{"100001872458112":{"id":"100001872458112","name":"Alita Nguyen"},"100003254627434":{"id":"100003254627434","name":"Belongs To Nắng"},"100006974080148":{"id":"100006974080148","name":"Pek Cỏ"},"100001797891546":{"id":"100001797891546","name":"Long TrầnVăn"},"100001309515104":{"id":"100001309515104","name":"Love Hana Hà Nam"},"100007472856790":{"id":"100007472856790","name":"Tuyển Dụng J-Job"},"100001809888388":{"id":"100001809888388","name":"Nguyễn Đức Thịnh"},"100000247000145":{"id":"100000247000145","name":"Hoàng Hùng"},"100007736444243":{"id":"100007736444243","name":"Thư Nguyễn"},"100003827256334":{"id":"100003827256334","name":"Tuyết Xuống Trần Gian"},"1356084187":{"id":"1356084187","name":"Ha Mai Anh"},"100001413392918":{"id":"100001413392918","name":"Minh Nhật"},"100002820525919":{"id":"100002820525919","name":"Papy Cry"},"100000110765909":{"id":"100000110765909","name":"Thảo Nguyễn"},"100004802197403":{"id":"100004802197403","name":"Công Tử Hào Hoa"},"100000500260636":{"id":"100000500260636","name":"Lưu Nguyễn Thảo Tiên"},"100001292564389":{"id":"100001292564389","name":"Tran Viet"},"100003990210815":{"id":"100003990210815","name":"Huong Nguyen"},"100000427247946":{"id":"100000427247946","name":"Phuong Lan"},"100005931554045":{"id":"100005931554045","name":"Kimkieu Yoshida"},"100001754136107":{"id":"100001754136107","name":"Nguyễn Tuấn Vũ"},"100007930417031":{"id":"100007930417031","name":"Trang Yamato"},"711491571":{"id":"711491571","name":"Graziani Inaizarg"},"100001286971334":{"id":"100001286971334","name":"Oắt Dơ Fắc"},"100001787704723":{"id":"100001787704723","name":"Thạch Anh Tím"},"1796391086":{"id":"1796391086","name":"Le Loan"},"100004639052712":{"id":"100004639052712","name":"Lê Trí Dũng"},"100004130291099":{"id":"100004130291099","name":"Phan Anh"},"100007806284139":{"id":"100007806284139","name":"Đặng Yên"},"100004445826984":{"id":"100004445826984","name":"Ong Noi Viet"},"100006023431254":{"id":"100006023431254","name":"Hoa Anh Dao"},"100001169630281":{"id":"100001169630281","name":"XeLu TuotXich"},"100004990084855":{"id":"100004990084855","name":"Dung Nguyen"},"100006491500507":{"id":"100006491500507","name":"Tít Lan"},"100000068660150":{"id":"100000068660150","name":"Hito Kami"},"100005801442456":{"id":"100005801442456","name":"An Nguyen"},"100004018610613":{"id":"100004018610613","name":"Nguyễn Trịnh Thu Huyền"},"100006502142950":{"id":"100006502142950","name":"Heo Sankyou"},"100003757954673":{"id":"100003757954673","name":"Lâm Trần"},"100004642933206":{"id":"100004642933206","name":"Aloha Aloha"},"1026780646":{"id":"1026780646","name":"Việt Hưng Khổng"},"100008133690691":{"id":"100008133690691","name":"Con Yêu Mẹ"},"100004619888773":{"id":"100004619888773","name":"Thảo Nguyên Tạ"},"100000148600266":{"id":"100000148600266","name":"Tamomi Chan"},"100005157006749":{"id":"100005157006749","name":"Xu  Xa"},"100000267180211":{"id":"100000267180211","name":"Nguyen Minh Phong"},"100002941809570":{"id":"100002941809570","name":"Hằng Nguyễn"},"100000045271667":{"id":"100000045271667","name":"Nam Thai Nguyen"},"100004564298611":{"id":"100004564298611","name":"Han Ha In"},"100001526631937":{"id":"100001526631937","name":"Tường Oanh Mineko"},"100006857616718":{"id":"100006857616718","name":"Ngoc Mai"},"100004212973034":{"id":"100004212973034","name":"Van  Dong"},"569263718":{"id":"569263718","name":"Phuong Thao Tran"},"100004375951426":{"id":"100004375951426","name":"Lâm Bảo Toàn"},"1583880214":{"id":"1583880214","name":"Viet Manh"},"100001628594107":{"id":"100001628594107","name":"Cong Nguyen Kim"},"100003106309034":{"id":"100003106309034","name":"Thúy Nguyễn"},"100005991604051":{"id":"100005991604051","name":"Hoang Dai"},"1146680551":{"id":"1146680551","name":"優しい なぁ"},"100001219791118":{"id":"100001219791118","name":"Thu Huong"},"100002444618453":{"id":"100002444618453","name":"Tomio  Ueno"},"100003913383051":{"id":"100003913383051","name":"Tho Tran"},"100002257948897":{"id":"100002257948897","name":"Ngô Tùng"},"100004367679988":{"id":"100004367679988","name":"Kumi Nguyen"},"100006473220479":{"id":"100006473220479","name":"万事屋 ズン"},"100000504109240":{"id":"100000504109240","name":"Khánh Trình"},"100001416272263":{"id":"100001416272263","name":"Mai PB"},"100001743577850":{"id":"100001743577850","name":"Tuan Maile"},"100001686438071":{"id":"100001686438071","name":"Hoàng Nhân"},"100002975299796":{"id":"100002975299796","name":"Trinh Tuan Anh"},"100001583529210":{"id":"100001583529210","name":"Nguyễn Kim Hà"},"100000342230134":{"id":"100000342230134","name":"Thuy Le"},"100004799073277":{"id":"100004799073277","name":"Thu Hoài"},"100007063057870":{"id":"100007063057870","name":"神谷大和"},"100002820290798":{"id":"100002820290798","name":"Quang Huy"},"100004974936916":{"id":"100004974936916","name":"Quynh Shyn"},"100002838998211":{"id":"100002838998211","name":"Mai Anh Bảo"},"100000384231663":{"id":"100000384231663","name":"Nguyễn Công Thành"},"1816269439":{"id":"1816269439","name":"Dao Ngoc"},"100007797156820":{"id":"100007797156820","name":"Sói Già"},"100004374573625":{"id":"100004374573625","name":"Theu Vu"},"100002919591130":{"id":"100002919591130","name":"Duy Khoa"},"100002425288918":{"id":"100002425288918","name":"Kira Chiến ND"},"100003057952418":{"id":"100003057952418","name":"Đinh Trọng Thắng"},"100008017537931":{"id":"100008017537931","name":"Nguyễn Đạt"},"100002375344981":{"id":"100002375344981","name":"Trung Tran"},"100003748618992":{"id":"100003748618992","name":"Nguyen Tien Hiep"},"100003762427351":{"id":"100003762427351","name":"Hiroshi Yasu Oki"}},"paging":{"cursors":{"after":"MTAwMDAxODcyNDU4MTEy","before":"MTAwMDAxODcyNDU4MTEy"},"next":"https://graph.facebook.com/229244010425617_846243802058965/likes?limit=1&summary=1&after=MTAwMDAxODcyNDU4MTEy"},"summary":{"total_count":88}},"comments":{"data":{"846254798724532":{"id":"846254798724532","from":{"id":"100005221304454","name":"Muoi le Quoc"},"message":"tat ca nhung thu ma minh yeu deu co o day.","can_remove":false,"created_time":"2014-04-06T04:23:14+0000","like_count":1,"user_likes":false},"846256022057743":{"id":"846256022057743","from":{"id":"100000052201550","name":"Thao Le"},"message":"Mỗi người hãy nhớ lại suy nghỉ và làm theo 5 Điều Bác Hồ dạy nhé!","can_remove":false,"created_time":"2014-04-06T04:27:48+0000","like_count":4,"user_likes":false},"846271785389500":{"id":"846271785389500","from":{"id":"100001416272263","name":"Mai PB"},"message":"Người VN sang Lào hỏi, tại sao các anh có Bộ Thủy Sản mặc dù không có biển? Người Lào trả lời, giống như các anh có Bộ Văn Hóa đó thôi.","can_remove":false,"created_time":"2014-04-06T05:13:08+0000","like_count":19,"user_likes":false},"846276648722347":{"id":"846276648722347","from":{"id":"100003981635336","name":"Dũng Phạm"},"message":"nhuk","can_remove":false,"created_time":"2014-04-06T05:31:04+0000","like_count":0,"user_likes":false},"846283568721655":{"id":"846283568721655","from":{"id":"100006896502374","name":"Kantan Yo"},"message":"dau xot ....","can_remove":false,"created_time":"2014-04-06T05:52:46+0000","like_count":0,"user_likes":false},"846305065386172":{"id":"846305065386172","from":{"id":"100006821673235","name":"Tana Ka"},"message":"Mai PB.tôi không biết ông là người nước nào.nhưng lời nói của ông đang súc phạm tới danh dự va văn hoá của Đất nước chúng tôi .mỗi nước đều có phong tục va cách sống riêng .tôi vẫn biết nước tôi có nhiều điều chưa tốt.nhưng vẫn chưa đến mức như những lời ông nói.tôi xin góp ý với ông.lần sau ông viết bình luân thì hãy chỉ rõ ra.ko nên \"vơ đũa cả lắm\"như thế.còn Tôi vẫn luôn tư hào mình là người Việt Nam,được sinh ra lơn lên cùng sự chỉ bảo tốt đẹp của gia đình tôi va mọi người trên mảnh đất quê hương có nhiều truyền thống tốt đẹp .","can_remove":false,"created_time":"2014-04-06T06:53:12+0000","like_count":9,"user_likes":false},"846341215382557":{"id":"846341215382557","from":{"id":"100001416272263","name":"Mai PB"},"message":":-) mong sao ai cũng nghĩ đến sự tự ái như comment trên trước khi làm những điều không hay như trong bài viết.","can_remove":false,"created_time":"2014-04-06T08:15:36+0000","like_count":1,"user_likes":false},"846341648715847":{"id":"846341648715847","from":{"id":"1629517470","name":"Nguyen Thi Thanh Van"},"message":"Vâng qua đây đi rồi biết cái truyền thống tốt đẹp đó nó được phát huy đến mức cao nhất rồi đấy !!! 1 VN tốt đẹp đã là quá khứ rồi .. còn bây giờ như thế nào thì chả muốn phát biểu nữa.","can_remove":false,"created_time":"2014-04-06T08:16:13+0000","like_count":1,"user_likes":false},"846348108715201":{"id":"846348108715201","from":{"id":"100001013690761","name":"Ha Nguyen Takahashi"},"message":"Tana Ka nên xem lại chính tả trước khi bàn về văn hóa","can_remove":false,"created_time":"2014-04-06T08:31:17+0000","like_count":3,"user_likes":false},"846354352047910":{"id":"846354352047910","from":{"id":"100006337662088","name":"LO Ve SOe BOd"},"message":"hài ,,, mấy ba mấy má k biết nhục con thì nhục thay ....","can_remove":false,"created_time":"2014-04-06T08:50:26+0000","like_count":0,"user_likes":false},"846354708714541":{"id":"846354708714541","from":{"id":"100006821673235","name":"Tana Ka"},"message":"Ha Nguyen Takahashi.vâng.tôi vẫn còn kém.nhưng bạn có dám khẳng định bạn chưa bao giờ viết sai chính tả không.bạn có biết điều bạn viết đó thể hiện con người của bạn là quá soi mói và nhỏ nhem không...","can_remove":false,"created_time":"2014-04-06T08:51:30+0000","like_count":1,"user_likes":false},"846355795381099":{"id":"846355795381099","from":{"id":"100006803468897","name":"Maria Maria"},"message":"Sách giáo khoa dạy chúng ta phải tự hào về truyền thống dân tộc còn thực trạng lại đi ngược lại với những cái được  gọi là tinh hoa là bản sắc.buồn","can_remove":false,"created_time":"2014-04-06T08:55:36+0000","like_count":0,"user_likes":false},"846364882046857":{"id":"846364882046857","from":{"id":"100001013690761","name":"Ha Nguyen Takahashi"},"message":"Tana Ka bị đụng chạm từ bài viết hay sao mà cắn hết người này tới người khác vậy? mắc cười!","can_remove":false,"created_time":"2014-04-06T09:25:31+0000","like_count":0,"user_likes":false},"846378072045538":{"id":"846378072045538","from":{"id":"100003240220629","name":"Duc Hoang Le Minh"},"message":"\"S\"úc phạm quá, \"S\"úc phạm quá đi :D","can_remove":false,"created_time":"2014-04-06T09:58:08+0000","like_count":1,"user_likes":false},"846396952043650":{"id":"846396952043650","from":{"id":"100000068660150","name":"Hito Kami"},"message":"mình nghĩ phải nhìn vào sự thật là thế hệ anh hùng cha ông đã dần qua , tầng lớp ngày nay không còn biết công ơn những người đã khuất ,nói xấu lẫn nhau , kỳ thị vùng miền , không tôn trọng pháp luật , coi những điều bất công là bình thường , chạy theo những giá trị hão huyền vật chất thời trang theo số đông khi mà bản thân không hiểu giá trị của nó ... điều này mình nghĩ nước nào cũng có , chỉ là ít hay nhiều , nhưng có nhiều người không chịu nhìn thẳng vào sự thât , tinh thần Việt Nam liệu còn tồn tại trong bao nhiêu người Việt Nam ? một tinh thần không kỳ thị Bắc Trung Nam ,TH - NA -HT ,cộng sản - tư bản ? sính ngoại mà dìm người Việt xuống ? tham ô hối lộ hay đơn giản nhất là tè bậy , khạc nhổ ?","can_remove":false,"created_time":"2014-04-06T10:46:55+0000","like_count":0,"user_likes":false},"846400102043335":{"id":"846400102043335","from":{"id":"100004275305539","name":"Tuyen Susan"},"message":"ở đất nước nào cũng có ng xấu kẻ tốt,sao lại vơ đũa cả nắm vậy nhỉ.không nhìn nhận những cái tốt của ng khác chỉ nhìn thấy được điểm xấu thì người đó cũng chẳng tốt đẹp gì","can_remove":false,"created_time":"2014-04-06T10:57:24+0000","like_count":0,"user_likes":false},"846416375375041":{"id":"846416375375041","from":{"id":"100006023431254","name":"Hoa Anh Dao"},"message":"chuan khong can chinh","can_remove":false,"created_time":"2014-04-06T11:44:50+0000","like_count":0,"user_likes":false},"846435345373144":{"id":"846435345373144","from":{"id":"100004571381814","name":"Lee Lee"},"message":"Tôi yêu đất nước tôi vì nơi đó có bố mẹ tôi,em gái tôi và những người thân anh em bạn bè tôi!đó là điều tôi luôn tự hào!không bao giờ biết xấu hổ khi là tôi mang dòng máu Việt Nam!là người Việt Nam ma luôn miệng hạ thấp chính hinh ảnh đất nước mình!vẫn biết là có như thế nhưng tự biết tự kiểm điểm có phải hơn không!ở bất cứ đâu chẳng có nhiều thành phần!nhật bản -tại nơi tôi đang sống cũng rất nhiều cái xấu !","can_remove":false,"created_time":"2014-04-06T12:29:33+0000","like_count":5,"user_likes":false},"846444705372208":{"id":"846444705372208","from":{"id":"100003651523596","name":"Ghibli Gin"},"message":"họ nói đâu có sai. dị nhất là cái kiều cứ tự hào dân tộc rồi đi phản pháo ý kiến của người khác. VN rõ ràng yêu kém hơn các nước trong khu vực mà, đó vốn là sự thật bạn ơi","can_remove":false,"created_time":"2014-04-06T12:47:01+0000","like_count":1,"user_likes":false},"846448768705135":{"id":"846448768705135","from":{"id":"100004571381814","name":"Lee Lee"},"message":"Tất nhiên có rất nhiều cái xấu đang tồn tại!nhưng tình yêu luôn chiếm phần nhiều!rồi mình sẽ lại quay về đất nước ấy!nơi đã sinh ra mình!và may mắn mình được sinh ra va lớn lên ở vùng quê yên bình!","can_remove":false,"created_time":"2014-04-06T12:54:39+0000","like_count":2,"user_likes":false},"846474618702550":{"id":"846474618702550","from":{"id":"100007930417031","name":"Trang Yamato"},"message":"Đa số mọi người đều không phân biệt đưoc giữa tình yêu gia đình, và tình yêu với chế độ.","can_remove":false,"created_time":"2014-04-06T13:42:43+0000","like_count":3,"user_likes":false},"846480838701928":{"id":"846480838701928","from":{"id":"100004571381814","name":"Lee Lee"},"message":"Tình yêu mù quáng o.0 ;))","can_remove":false,"created_time":"2014-04-06T13:56:56+0000","like_count":0,"user_likes":false},"846534832029862":{"id":"846534832029862","from":{"id":"100006803468897","name":"Maria Maria"},"message":"Xin phép mọi người có gì không phải mọi người bỏ quá cho!ngay dân ta còn khinh thường người ta huống chi nước ngoài,tôi chỉ thấy buồn vì thực trạng.ai thấy nhục tốt nhất nên chuyển quốc tịch.","can_remove":false,"created_time":"2014-04-06T15:44:08+0000","like_count":0,"user_likes":false},"846537252029620":{"id":"846537252029620","from":{"id":"100001292564389","name":"Tran Viet"},"message":"oiiii đất nước tôi oii    '- //","can_remove":false,"created_time":"2014-04-06T15:48:51+0000","like_count":0,"user_likes":false},"846543015362377":{"id":"846543015362377","from":{"id":"100000381394367","name":"Thành Nguyễn"},"message":"Việc người nước ngoài bình phẩm thế nào về người Việt trước hết hay khoan quan tâm xem điều đó là họ nói tốt hay nói xấu mà đánh giá xem là họ nói đúng hay nói sai sự thật. Nếu họ nói đúng sự thật thì dù việc họ nhận xét rằng người Việt Nam là xấu thì cũng nên trân trọng những nhận xét của người ta. Còn nếu tự cho rằng họ nhận xét sai thì đặt câu hỏi xem  tại sao người ta lại nhận xét như thế, họ dựa vào quan sát nào mà đánh giá, họ có động cơ gì, lợi ích gì khi nhận xét như vậy không? Nếu không tìm ra lợi ích và động cơ ấy thì nên quay trở lại câu đầu.","can_remove":false,"created_time":"2014-04-06T16:00:25+0000","like_count":3,"user_likes":false},"846665512016794":{"id":"846665512016794","from":{"id":"100003398911005","name":"Họ Tạ Tên Nam"},"message":"dạo này đi đường thích nói tiếng nhật vs ng việt :) mặc dù nói xong cũng chả hiểu gì","can_remove":false,"created_time":"2014-04-06T19:16:18+0000","like_count":1,"user_likes":false},"846956285321050":{"id":"846956285321050","from":{"id":"100004394892049","name":"Nguyen Hieu"},"message":"cac ban than men!cung kho trach dc nguoi Viet Nam ve nhung hanh xu khi giao tiep lam,theo quan diem cua toi thi mot dat nuoc chua phat trien manh ve moi mat thi trong do van hoa ung xu cung vay ,no cung nam o muc do trung binh thoi.cac ban ko the so sanh Viet Nam voi Nhat Ban dc,vi NB la dat nuoc nhu the nao chac cac ban da biet,va vi sao cac ban phai sang nhat ban de hoc hanh va lao dong la vi ly do do.","can_remove":false,"created_time":"2014-04-07T06:31:19+0000","like_count":1,"user_likes":false},"846972988652713":{"id":"846972988652713","from":{"id":"100001013690761","name":"Ha Nguyen Takahashi"},"message":"Nguyen Hieu không nên bao biện như vậy, rất nhiều nước phải sang NB làm việc đó kể cả Mỹ. Ngày xưa có câu: đói cho sạch ...","message_tags":[{"id":"100004394892049","name":"Nguyen Hieu","type":"user","offset":0,"length":11}],"can_remove":false,"created_time":"2014-04-07T07:22:40+0000","like_count":0,"user_likes":false},"846979965318682":{"id":"846979965318682","from":{"id":"100003651523596","name":"Ghibli Gin"},"message":"người ta vẫn thường nói \" bần cùng sinh đạo tặc \" ý, chứ \" đói cho sạch, rách cho thơm \" khó tồn tại lắm","can_remove":false,"created_time":"2014-04-07T07:44:36+0000","like_count":0,"user_likes":false}},"paging":{"cursors":{"after":"ODQ2MjU0Nzk4NzI0NTMy","before":"ODQ2MjU0Nzk4NzI0NTMy"},"next":"https://graph.facebook.com/229244010425617_846243802058965/comments?limit=1&summary=1&after=ODQ2MjU0Nzk4NzI0NTMy"},"summary":{"order":"chronological","total_count":29}}}