{"id":"229244010425617_846322288717783","type":"photo","object_id":"10202489047320580","picture":"https://fbcdn-photos-h-a.akamaihd.net/hphotos-ak-frc3/t1.0-0/10151977_10202489047320580_4148488578039262197_s.jpg","link":"https://www.facebook.com/photo.php?fbid=10202489047320580&set=pcb.846322288717783&type=1&relevant_count=9","from":{"id":"1026780646","name":"Việt Hưng Khổng"},"message":"Góp một ít hình ảnh hoa đào ngày mưa gió ^^","created_time":"2014-04-06T07:22:44+0000","updated_time":"2014-04-07T10:50:42+0000","likes":{"data":{"100001293764833":{"id":"100001293764833","name":"Nhan Le"},"100001047273740":{"id":"100001047273740","name":"Kieu Ly Tran"},"100005969226472":{"id":"100005969226472","name":"Hoàng Hải"},"100004385914146":{"id":"100004385914146","name":"Trang Pham"},"100003984289354":{"id":"100003984289354","name":"Thuyên Phan"},"746619078":{"id":"746619078","name":"Nguyen Le"},"100005835339252":{"id":"100005835339252","name":"Hương Mộc Lan"},"100004512392461":{"id":"100004512392461","name":"Nguyen Huong"},"100004564327116":{"id":"100004564327116","name":"Tiến Bình Nguyễn"},"100001838203291":{"id":"100001838203291","name":"Thu Thuy"},"100002829720569":{"id":"100002829720569","name":"Hương Mùa Hè"},"100001844030144":{"id":"100001844030144","name":"Minami Gata"},"100004618932270":{"id":"100004618932270","name":"Cun Yêu"},"100007930145431":{"id":"100007930145431","name":"Phát Tôn"},"100003353416245":{"id":"100003353416245","name":"Ary Nguyen"},"100007412675653":{"id":"100007412675653","name":"SiuNhơn Dép Lào"},"100003692439279":{"id":"100003692439279","name":"Gam Cao Thi"},"100002940938517":{"id":"100002940938517","name":"Nhung Heo"},"1707323911":{"id":"1707323911","name":"Minh Nguyen Tuyet"},"100003011417151":{"id":"100003011417151","name":"Hue Kim"},"100000592390868":{"id":"100000592390868","name":"Kiriyu Mabu"},"100007938450435":{"id":"100007938450435","name":"Miruku Chokoreeto"},"100004347516218":{"id":"100004347516218","name":"Khổng Trang"},"100003269647827":{"id":"100003269647827","name":"Luôn Là Chính Mình"},"100002294571139":{"id":"100002294571139","name":"Licy Rin"},"100002922584888":{"id":"100002922584888","name":"Sa Ku Ra"},"100004737756923":{"id":"100004737756923","name":"Lieu Du"},"100005738918380":{"id":"100005738918380","name":"Thanh Tâm"},"100004512333714":{"id":"100004512333714","name":"Đạt Titikaka"},"100003215401405":{"id":"100003215401405","name":"Len Nguyen"},"100000334640166":{"id":"100000334640166","name":"Tara Mekenzie"},"100004364743275":{"id":"100004364743275","name":"Ăn Và Uống"},"100007903567494":{"id":"100007903567494","name":"ベトナムの ビュイ"},"100003465567929":{"id":"100003465567929","name":"Lê Chi"},"100003621494480":{"id":"100003621494480","name":"Con Trai Trưởng Bản"},"100006813520503":{"id":"100006813520503","name":"Chinh Nguyen"},"100006003193699":{"id":"100006003193699","name":"Quynhchau Ha"},"100007068013838":{"id":"100007068013838","name":"Anh NG"},"100002141784417":{"id":"100002141784417","name":"Ngoc Bui Minh"},"100008061784579":{"id":"100008061784579","name":"Hoàng Tuấn"},"100004069891926":{"id":"100004069891926","name":"Hạnh Phúc Ảo"},"100000083333913":{"id":"100000083333913","name":"Tung Nguyen"},"100003054360250":{"id":"100003054360250","name":"Chuyên Chan"},"100001578398012":{"id":"100001578398012","name":"Ốc Sên"},"100001216346807":{"id":"100001216346807","name":"Anh Nguyễn"},"100007594146684":{"id":"100007594146684","name":"Daisuk Rise"},"100002929489687":{"id":"100002929489687","name":"Yume Yuyu"},"100006271507308":{"id":"100006271507308","name":"Bùi Quỳnh Anh XS"},"100003945581110":{"id":"100003945581110","name":"Bí Ngô"},"100003951914516":{"id":"100003951914516","name":"Thu Phuong Nguyen"},"100005078581305":{"id":"100005078581305","name":"Be Map"},"100006367092088":{"id":"100006367092088","name":"Son Nguyenthuy"},"100002984557771":{"id":"100002984557771","name":"Hau Dao"},"100004104734120":{"id":"100004104734120","name":"Nguyễn Hương"},"100004367679988":{"id":"100004367679988","name":"Kumi Nguyen"},"100004970622798":{"id":"100004970622798","name":"Nguyen Thu Hien"},"100003892785497":{"id":"100003892785497","name":"Yến Yến"},"100000212958966":{"id":"100000212958966","name":"YaNa Vo"},"100005200064085":{"id":"100005200064085","name":"Lan Anh Pham"},"100000271705877":{"id":"100000271705877","name":"Nguyễn Văn Minh"},"100004384325226":{"id":"100004384325226","name":"Chỉ Thế Thôi"},"100007729029571":{"id":"100007729029571","name":"Bình Boong"},"100006654305327":{"id":"100006654305327","name":"Until You"},"100001000443851":{"id":"100001000443851","name":"Pham Hoai Hung"},"100004974218698":{"id":"100004974218698","name":"Kim Oanh Le"},"100000200742771":{"id":"100000200742771","name":"Nấm Ngoan Hiền"},"100006209381222":{"id":"100006209381222","name":"Anh Na Nit Rin"},"100006666549596":{"id":"100006666549596","name":"Thuyjo Kim"},"100003899510131":{"id":"100003899510131","name":"Hoa Oải Hương"},"100006738090523":{"id":"100006738090523","name":"Hien Nguyen"},"100003902331763":{"id":"100003902331763","name":"Ngốk Nghếck"},"100003024934033":{"id":"100003024934033","name":"Trang Pham"},"100004747834759":{"id":"100004747834759","name":"Trang Tròn Trịa"},"100002126161922":{"id":"100002126161922","name":"Thanh Tran"},"100003671676785":{"id":"100003671676785","name":"Minh RaMen"},"100002567105508":{"id":"100002567105508","name":"Hong Do"},"100001754136107":{"id":"100001754136107","name":"Nguyễn Tuấn Vũ"},"100006718418391":{"id":"100006718418391","name":"Hà Quân"},"100000316573913":{"id":"100000316573913","name":"Hưng Lê"},"100000331320623":{"id":"100000331320623","name":"Trái Tim Sỏi Đá"},"100001888059165":{"id":"100001888059165","name":"Nguyen Dinh Tang"},"100004400315117":{"id":"100004400315117","name":"Tiểu Hoa Đà"},"100003084870026":{"id":"100003084870026","name":"Nguyễn Hiền"},"100002853438802":{"id":"100002853438802","name":"Thanh Thu"},"100002660837326":{"id":"100002660837326","name":"Ky Trần"},"100003483939106":{"id":"100003483939106","name":"Loan Tròn"},"100002521989716":{"id":"100002521989716","name":"Dung Viet"},"100002099992571":{"id":"100002099992571","name":"Sim Vu"},"100007763774542":{"id":"100007763774542","name":"ʚTḩiêñ Tḩầñɞ"},"100007777603244":{"id":"100007777603244","name":"Hoa Pham"},"100006175110286":{"id":"100006175110286","name":"Mai Hương Trần"},"100003276780986":{"id":"100003276780986","name":"Quang Huy"},"100004332271111":{"id":"100004332271111","name":"Rainbow Smile"},"100003817201579":{"id":"100003817201579","name":"Heo Conlonton"},"100001526631937":{"id":"100001526631937","name":"Tường Oanh Mineko"},"100003455667188":{"id":"100003455667188","name":"Hoang Dung Nguyen"},"100007858088961":{"id":"100007858088961","name":"Nhuong Nguyen"},"100003518966987":{"id":"100003518966987","name":"Thanh Hoài Ngô"},"100005359569128":{"id":"100005359569128","name":"Hiền Trần"},"100000279494197":{"id":"100000279494197","name":"My Loan"},"100004026761828":{"id":"100004026761828","name":"Lanina Lâm"},"100003032663784":{"id":"100003032663784","name":"Vượt Qua Thử Thách"},"100000500260636":{"id":"100000500260636","name":"Lưu Nguyễn Thảo Tiên"},"100001905216942":{"id":"100001905216942","name":"Cương Phạm"},"100005602390639":{"id":"100005602390639","name":"Long Nguyen"},"100005096765989":{"id":"100005096765989","name":"Ngoc Tran"},"100003492683282":{"id":"100003492683282","name":"Nguyễn Hương Liên"},"100003203114998":{"id":"100003203114998","name":"Nhung Pham"},"100004569372269":{"id":"100004569372269","name":"Thuỷ Nguyễn"},"100007458340204":{"id":"100007458340204","name":"Thuy Kute Thuy Kute"},"100003826954451":{"id":"100003826954451","name":"Nguyen Huu Tai"},"100000543272543":{"id":"100000543272543","name":"Tôi Là Ai"},"100002820525919":{"id":"100002820525919","name":"Papy Cry"},"100007117622529":{"id":"100007117622529","name":"Tom Boy Hạnh Phúc"},"100000261439813":{"id":"100000261439813","name":"Nguyen AnhTu"},"100005521297230":{"id":"100005521297230","name":"Hằng Đình"},"100004094256514":{"id":"100004094256514","name":"Nitkon Nguyễn"},"100003375595337":{"id":"100003375595337","name":"Toshihiko Morikami"},"100000916691536":{"id":"100000916691536","name":"Hà Candy"},"100005487126866":{"id":"100005487126866","name":"Giọt Lệ Thiên Thần"},"100004915360462":{"id":"100004915360462","name":"Phamtuyen Pc"},"100005127511607":{"id":"100005127511607","name":"Cobe Kaun"},"100003305730258":{"id":"100003305730258","name":"Nguyễn Việt Bình"},"100000508301848":{"id":"100000508301848","name":"Lan Phuong Nguyen"},"100000695454369":{"id":"100000695454369","name":"Thanh Nga Do"},"100002630333938":{"id":"100002630333938","name":"Huong Le"},"100003674731922":{"id":"100003674731922","name":"Yamada Yoshiko"},"100000438877828":{"id":"100000438877828","name":"Teng Chil"},"100004604981670":{"id":"100004604981670","name":"Hoa Hồng Xanh"},"100006508740653":{"id":"100006508740653","name":"Trang Trần Ganbatte"},"100007461963568":{"id":"100007461963568","name":"Kudo Shinichi"},"100004445826984":{"id":"100004445826984","name":"Ong Noi Viet"},"100002451143782":{"id":"100002451143782","name":"New Light"},"100003755486365":{"id":"100003755486365","name":"Hoàng Linh"},"100003017563050":{"id":"100003017563050","name":"Nu Nhí Nhố"},"100002426333047":{"id":"100002426333047","name":"Trương Ngọc Hà"},"100004243650784":{"id":"100004243650784","name":"Hong Sang"},"100006475277380":{"id":"100006475277380","name":"Thực Thật Thà"},"100005529851429":{"id":"100005529851429","name":"Nguyen Khuyen"},"100001793782938":{"id":"100001793782938","name":"Hồng Hà Khuất"},"100000225744541":{"id":"100000225744541","name":"Dung Nguyen"},"100004543173359":{"id":"100004543173359","name":"Thanh Thuy"},"100001836341721":{"id":"100001836341721","name":"Vit Con Xau Xi"},"100003816642768":{"id":"100003816642768","name":"Ngôi Sao May Mắn"},"100005815148304":{"id":"100005815148304","name":"Ánh Mặt Trời"},"100004246510881":{"id":"100004246510881","name":"Kem Su"},"100005622426965":{"id":"100005622426965","name":"Hải Lý Kuro"},"100006247262454":{"id":"100006247262454","name":"Hao Nguyen"},"100005211189763":{"id":"100005211189763","name":"Oliveu Cchann"},"100004192212628":{"id":"100004192212628","name":"Chí Phèo"},"100004753690388":{"id":"100004753690388","name":"Anh Tuấn"},"100004470697124":{"id":"100004470697124","name":"Hue Dang"},"100006130691059":{"id":"100006130691059","name":"Tomoyuki Furuta"},"100005590448710":{"id":"100005590448710","name":"Ngây Thơ"},"100003728934972":{"id":"100003728934972","name":"Roy Primrose"},"100002863701803":{"id":"100002863701803","name":"To Ri"},"100000076592588":{"id":"100000076592588","name":"Trúc Lê"},"100001738431359":{"id":"100001738431359","name":"Phuongthao Nguyen"},"100004716640495":{"id":"100004716640495","name":"Thúy An Dương"},"100001618414095":{"id":"100001618414095","name":"Hanu Mei Chan"},"100003144113910":{"id":"100003144113910","name":"Xuy Kute"},"1137709136":{"id":"1137709136","name":"Tuan Truong"},"100004991379931":{"id":"100004991379931","name":"Con Yêu Bố Mẹ"},"100007881153474":{"id":"100007881153474","name":"Chợ Zời Nhật Bản"},"100003742580481":{"id":"100003742580481","name":"Ngô Nam"},"100001601312514":{"id":"100001601312514","name":"Vinh Tien Hoang"},"100002002551038":{"id":"100002002551038","name":"Vu Hongcuc"},"100004072426763":{"id":"100004072426763","name":"Phạm Lương"},"1107703298":{"id":"1107703298","name":"Ngoc Thuy Ta"},"100007396898008":{"id":"100007396898008","name":"My Hanh"},"100002955251034":{"id":"100002955251034","name":"Jemy Tran"},"100004646794576":{"id":"100004646794576","name":"Pham Hoang Viet"},"100004299969653":{"id":"100004299969653","name":"Tập Quên Tất Cả"},"1776330824":{"id":"1776330824","name":"Nyaa Nyaa"},"100004654271416":{"id":"100004654271416","name":"Ta Bui Van"},"100006414572571":{"id":"100006414572571","name":"Chuyentinhtren Thảo Nguyên"},"100007972864980":{"id":"100007972864980","name":"Emnho Anhvocung"},"100000242081691":{"id":"100000242081691","name":"Mai Suong"},"100003099524479":{"id":"100003099524479","name":"Thành Nguyễn"},"100004551365667":{"id":"100004551365667","name":"Dong Ho Cat"},"100006409272147":{"id":"100006409272147","name":"Joshi Kousei"},"100007267754139":{"id":"100007267754139","name":"Thanh Minh Yumi"},"100000654453229":{"id":"100000654453229","name":"Nguyen Hanh"},"100001659230540":{"id":"100001659230540","name":"Lemon Tea"},"100003368927526":{"id":"100003368927526","name":"Hải Đặng"},"100006590884923":{"id":"100006590884923","name":"Rubi Nguyễn"},"100005802612629":{"id":"100005802612629","name":"Hana Nguyen"},"100005051881072":{"id":"100005051881072","name":"Nhớ Nhớ"},"100001995633843":{"id":"100001995633843","name":"Yasunobu Toda"},"100000012934418":{"id":"100000012934418","name":"Nguyễn Bảo Ngọc"},"100002508122689":{"id":"100002508122689","name":"Vũ Mạnh Tuấn"},"1308649982":{"id":"1308649982","name":"Pnêy Dân Kt"},"100000974393563":{"id":"100000974393563","name":"Gauxinh Smile"},"100002744609053":{"id":"100002744609053","name":"Hồng Cass"},"100006513963367":{"id":"100006513963367","name":"Chinhchinh Lêlê"},"100001416272263":{"id":"100001416272263","name":"Mai PB"},"100001702762210":{"id":"100001702762210","name":"Lệ Minh"},"100002615664668":{"id":"100002615664668","name":"PuPu Phương Elf"},"100000523549660":{"id":"100000523549660","name":"Sei Tsuki"},"100002291611687":{"id":"100002291611687","name":"Hoàng Giang"},"1814478750":{"id":"1814478750","name":"Đan Anh"},"100001368056386":{"id":"100001368056386","name":"Ngọc Wilshere"},"100005290058777":{"id":"100005290058777","name":"Sicốc Chan"},"100005775182411":{"id":"100005775182411","name":"Tuấn Milo"},"100004917425745":{"id":"100004917425745","name":"Nhân Tâm"},"569263718":{"id":"569263718","name":"Phuong Thao Tran"},"100005734902825":{"id":"100005734902825","name":"Khổng Hằng"},"100004107559740":{"id":"100004107559740","name":"Hoang Tu Hoa Hong"},"100003029633462":{"id":"100003029633462","name":"Ngô Văn Tư"},"100002902190420":{"id":"100002902190420","name":"Hồ Hương"},"100007806284139":{"id":"100007806284139","name":"Đặng Yên"},"100002705761951":{"id":"100002705761951","name":"Te Kureijī"},"100003493045159":{"id":"100003493045159","name":"Đào Minh Nguyệt"},"100005056535633":{"id":"100005056535633","name":"Thu Thủy"},"100006533318497":{"id":"100006533318497","name":"Linh Loan"},"100006657704419":{"id":"100006657704419","name":"Trang Huyen Uong"},"100007645805664":{"id":"100007645805664","name":"Ngọc Quyên"},"100003069764055":{"id":"100003069764055","name":"Đại Gia Sim Thẻ"},"100005757881258":{"id":"100005757881258","name":"Ngát Bolly"},"100000054665103":{"id":"100000054665103","name":"John Nguyễn"},"100008133690691":{"id":"100008133690691","name":"Con Yêu Mẹ"},"100007132388972":{"id":"100007132388972","name":"Van Anh"},"100005084161540":{"id":"100005084161540","name":"Thắng Dương"},"100002916665535":{"id":"100002916665535","name":"Naga Tsuki"},"100006602973061":{"id":"100006602973061","name":"Hung Cuong"},"100006299772244":{"id":"100006299772244","name":"Nguyễn Tuấn"},"100001708331268":{"id":"100001708331268","name":"Lieu Dang"},"100003683896765":{"id":"100003683896765","name":"Song La Phai Mo"},"100008064215029":{"id":"100008064215029","name":"Chấm Nhỏ Vĩ Đại"},"100002396398237":{"id":"100002396398237","name":"Tri Cao"},"100005444224792":{"id":"100005444224792","name":"Anna Anh Nheo"},"100005798250165":{"id":"100005798250165","name":"Trang Nguyễn"},"100004922134460":{"id":"100004922134460","name":"Cô Nàng Cá Tính"},"100003466287943":{"id":"100003466287943","name":"Kim Chi Saki Loyal"},"100003821503042":{"id":"100003821503042","name":"ThucQuyen Yuki"},"714808375":{"id":"714808375","name":"Thu Nga"},"100004096243144":{"id":"100004096243144","name":"Shorai Nguyễn"},"100002421205294":{"id":"100002421205294","name":"Nghèo Kệ Tôi"},"100003819875708":{"id":"100003819875708","name":"Piglazy Pham"},"100003005597243":{"id":"100003005597243","name":"Zany Royal"},"100006716646759":{"id":"100006716646759","name":"Huy Thắng"},"100001715078484":{"id":"100001715078484","name":"Phan Trung Hiếu"},"100007822080156":{"id":"100007822080156","name":"Mưa Sao Băng"},"100000187856584":{"id":"100000187856584","name":"Linh Hachi"},"100005228169426":{"id":"100005228169426","name":"Keo Ngot"},"100003939512448":{"id":"100003939512448","name":"My Enternyl"},"100007739863823":{"id":"100007739863823","name":"Sói Đồng Quê"},"100007918629775":{"id":"100007918629775","name":"Quốc Đạt"},"100002628916928":{"id":"100002628916928","name":"Kẹ Hấp"},"100001233118357":{"id":"100001233118357","name":"Trần Đức Thân"},"1574575448":{"id":"1574575448","name":"An Na An"},"100005578955582":{"id":"100005578955582","name":"Bé Cua"},"100005917954526":{"id":"100005917954526","name":"Người Hoa Gốc Việt"},"100003700084315":{"id":"100003700084315","name":"Trầm Luân"},"100001663326777":{"id":"100001663326777","name":"Yuri Chan"},"100003950629248":{"id":"100003950629248","name":"Linh Xù"},"100000228426127":{"id":"100000228426127","name":"Kim Oanh"},"100006859893056":{"id":"100006859893056","name":"Yến Thanh"},"100003762427351":{"id":"100003762427351","name":"Hiroshi Yasu Oki"},"100004451081107":{"id":"100004451081107","name":"Rùa Con"},"100002890615135":{"id":"100002890615135","name":"Ga Kute Ga Kute"},"100005811458124":{"id":"100005811458124","name":"Phúc Long"},"100007583976942":{"id":"100007583976942","name":"Nguyễn Ngọc Trâm"},"100000045271667":{"id":"100000045271667","name":"Nam Thai Nguyen"},"100007930417031":{"id":"100007930417031","name":"Trang Yamato"},"100002427715884":{"id":"100002427715884","name":"Hell Angel"},"100004291602880":{"id":"100004291602880","name":"Thanh Mai Nguyễn"},"100000572010533":{"id":"100000572010533","name":"Thao Vo"},"100005917355554":{"id":"100005917355554","name":"Hige Yumi Toboe"},"1504295073":{"id":"1504295073","name":"Mật Gấu"},"100007405446351":{"id":"100007405446351","name":"Hạnh Kún"},"100003327182344":{"id":"100003327182344","name":"Hồng Cẩm"},"1146680551":{"id":"1146680551","name":"優しい なぁ"}},"paging":{"cursors":{"after":"MTAwMDAxMjkzNzY0ODMz","before":"MTAwMDAxMjkzNzY0ODMz"},"next":"https://graph.facebook.com/229244010425617_846322288717783/likes?limit=1&summary=1&after=MTAwMDAxMjkzNzY0ODMz"},"summary":{"total_count":277}},"comments":{"data":{"846324045384274":{"id":"846324045384274","from":{"id":"1146680551","name":"優しい なぁ"},"message":"Ở đâu mà đẹp vại :3","can_remove":false,"created_time":"2014-04-06T07:24:21+0000","like_count":1,"user_likes":false},"846325165384162":{"id":"846325165384162","from":{"id":"620066722","name":"Dong Khac Thai"},"message":"Hôm nay gió to cánh hoa rơi đẹp lắm.","can_remove":false,"created_time":"2014-04-06T07:26:32+0000","like_count":2,"user_likes":false},"846325782050767":{"id":"846325782050767","from":{"id":"1146680551","name":"優しい なぁ"},"message":"Nắm tay đi vs gấu trong cảnh này cũng thích nhỉ :3","can_remove":false,"created_time":"2014-04-06T07:28:01+0000","like_count":2,"user_likes":false},"846327055383973":{"id":"846327055383973","from":{"id":"100003828118579","name":"Khanh Linh"},"message":"本厚木（笑）","can_remove":false,"created_time":"2014-04-06T07:30:57+0000","like_count":3,"user_likes":false},"846327168717295":{"id":"846327168717295","from":{"id":"100003828118579","name":"Khanh Linh"},"message":"Gần nhà mềnh ^^","can_remove":false,"created_time":"2014-04-06T07:31:34+0000","like_count":0,"user_likes":false},"846329245383754":{"id":"846329245383754","from":{"id":"100004424502062","name":"Bé Mít"},"message":"Kirei desu ne","can_remove":false,"created_time":"2014-04-06T07:38:04+0000","like_count":0,"user_likes":false},"846331952050150":{"id":"846331952050150","from":{"id":"100005917954526","name":"Người Hoa Gốc Việt"},"message":"phái nó có con mắt tinh tường đấy, chụp đẹp thật <3","can_remove":false,"created_time":"2014-04-06T07:48:04+0000","like_count":0,"user_likes":false},"846332418716770":{"id":"846332418716770","from":{"id":"100008009256613","name":"Bi Bu Bin"},"message":"hoa anh đào đẹp nhưg cs nhật bản có đẹp như thế ko ạ ...?","can_remove":false,"created_time":"2014-04-06T07:50:05+0000","like_count":2,"user_likes":false},"846332712050074":{"id":"846332712050074","from":{"id":"100005917954526","name":"Người Hoa Gốc Việt"},"message":"có chứ đẹp hơn hoa nhiều","can_remove":false,"created_time":"2014-04-06T07:51:17+0000","like_count":1,"user_likes":false},"846335618716450":{"id":"846335618716450","from":{"id":"100003819875708","name":"Piglazy Pham"},"message":"gời ơi sao mà đẹp tek tiếc wa","can_remove":false,"created_time":"2014-04-06T08:00:16+0000","like_count":1,"user_likes":false},"846348898715122":{"id":"846348898715122","from":{"id":"100006984126355","name":"Thiên An"},"message":"Nhin nhu o hien thuc ay nhi","can_remove":false,"created_time":"2014-04-06T08:33:54+0000","like_count":0,"user_likes":false},"846349012048444":{"id":"846349012048444","from":{"id":"100006984126355","name":"Thiên An"},"message":"Nha b o gan day qua that b rat hp","can_remove":false,"created_time":"2014-04-06T08:34:22+0000","like_count":0,"user_likes":false},"846350592048286":{"id":"846350592048286","from":{"id":"100003069764055","name":"Đại Gia Sim Thẻ"},"message":"i like sakura","can_remove":false,"created_time":"2014-04-06T08:39:25+0000","like_count":0,"user_likes":false},"846358745380804":{"id":"846358745380804","from":{"id":"100003902099014","name":"Thuy Kem"},"message":"kirei sakurahana desu ne!","can_remove":false,"created_time":"2014-04-06T09:05:48+0000","like_count":0,"user_likes":false},"846374798712532":{"id":"846374798712532","from":{"id":"100000687662713","name":"Vu Thi Man"},"message":"Minh dong gop mot chut","can_remove":false,"created_time":"2014-04-06T09:47:29+0000","like_count":2,"user_likes":false},"846389482044397":{"id":"846389482044397","from":{"id":"100004646794576","name":"Pham Hoang Viet"},"message":"rất cảm ơn mọi ngươi mình lại được nhìn thấy hoa anh đào","can_remove":false,"created_time":"2014-04-06T10:20:10+0000","like_count":1,"user_likes":false},"846390138710998":{"id":"846390138710998","from":{"id":"100004646794576","name":"Pham Hoang Viet"},"message":"minh cũng đã từng là tu nghiệp sinh cách đây khoảng 7 năm về trước cũng được chụp và được ngắm hoa anh đào nở ,các bạn có những hình anh nào hãy chia sẻ cho mọi người nhé","can_remove":false,"created_time":"2014-04-06T10:22:35+0000","like_count":0,"user_likes":false},"846395285377150":{"id":"846395285377150","from":{"id":"100001823208360","name":"Huong Dong"},"message":"dep qua,tinh nao vay ban,cho minh it hoa anh dao qua,nen ko dep","can_remove":false,"created_time":"2014-04-06T10:41:26+0000","like_count":0,"user_likes":false},"846400712043274":{"id":"846400712043274","from":{"id":"1026780646","name":"Việt Hưng Khổng"},"message":"Đây là con đường dọc bờ sông Sagami, Atsugi shi","can_remove":false,"created_time":"2014-04-06T10:59:57+0000","like_count":0,"user_likes":false},"846406072042738":{"id":"846406072042738","from":{"id":"100004246510881","name":"Kem Su"},"message":"dep...........................................","can_remove":false,"created_time":"2014-04-06T11:15:15+0000","like_count":1,"user_likes":false},"846417358708276":{"id":"846417358708276","from":{"id":"100003674731922","name":"Yamada Yoshiko"},"message":"siêu đẹp <3","can_remove":false,"created_time":"2014-04-06T11:47:34+0000","like_count":1,"user_likes":false},"846420758707936":{"id":"846420758707936","from":{"id":"100003305730258","name":"Nguyễn Việt Bình"},"message":"Quá đẹp so với qui định!","can_remove":false,"created_time":"2014-04-06T11:57:46+0000","like_count":1,"user_likes":false},"846422795374399":{"id":"846422795374399","from":{"id":"100004915360462","name":"Phamtuyen Pc"},"message":"Đẹp quá","can_remove":false,"created_time":"2014-04-06T12:02:46+0000","like_count":1,"user_likes":false},"846428935373785":{"id":"846428935373785","from":{"id":"100006604537364","name":"Dan Le"},"message":"thích wa!","can_remove":false,"created_time":"2014-04-06T12:20:07+0000","like_count":1,"user_likes":false},"846472412036104":{"id":"846472412036104","from":{"id":"100002853438802","name":"Thanh Thu"},"message":"Ôi... đẹp quá!","can_remove":false,"created_time":"2014-04-06T13:38:37+0000","like_count":1,"user_likes":false},"847010571982288":{"id":"847010571982288","from":{"id":"100002940938517","name":"Nhung Heo"},"message":"Thuyên Phan đẹp a nhờ","message_tags":[{"id":"100003984289354","name":"Thuyên Phan","type":"user","offset":0,"length":11}],"can_remove":false,"created_time":"2014-04-07T09:21:38+0000","like_count":1,"user_likes":false},"847044598645552":{"id":"847044598645552","from":{"id":"100007412675653","name":"SiuNhơn Dép Lào"},"message":"đẹp quá aaaaa~~ muốn nhìn thấy bên ngoài quá cơ","can_remove":false,"created_time":"2014-04-07T10:50:42+0000","like_count":0,"user_likes":false}},"paging":{"cursors":{"after":"ODQ2MzI0MDQ1Mzg0Mjc0","before":"ODQ2MzI0MDQ1Mzg0Mjc0"},"next":"https://graph.facebook.com/229244010425617_846322288717783/comments?limit=1&summary=1&after=ODQ2MzI0MDQ1Mzg0Mjc0"},"summary":{"order":"chronological","total_count":27}}}