{"id":"229244010425617_846509148699097","type":"status","from":{"id":"100007468213697","name":"Minh Cảnh"},"message":"Hôm nay đi pv để đổi 1 baito khác phù hợp vs time học tập thay vì trả lời an toàn mình có tl như sau nên muốn share chút kinh nghiệm.\nCũng k biết sao hay chồ xem lý lịch thấy ng Việt Nam! Nên hỏi thêm 1 câu mà những lần trước kia mình chưa bị hỏi.\n..........\n-Chồ! Tại sao cậu chọn đi du học Nhật!( k nghĩ là bị hỏi)\nTrả lời. Nếu học tiếng Anh chắc chắn tôi sẽ đi Mỹ, Anh hay Úc chứ k chọn đất nước của ngài.\n-Chồ. Cậu thấy mức lương nv hợp lý chưa.\nTrả lời. Có thấp 1 chút ạ.\n-Chồ. Cậu nghĩ thấp sao còn chọn cửa hàng này.\nTrả lời. Nếu chỉ vì lương tôi chắc chắn đã không đến đây hôm nay.( k an toàn)\n..........\n- Chồ. Ước mơ của cậu là gì.\nTrả lời. Ước mơ của tôi là khi tôi bằng tuổi ngài bây h t cũng muốn sống ở 1 môi trường tốt như bây h ngài đang sống về giao thông, kinh tế(omg lúc đó k nghĩ đc gì ngoài 2 từ này) và nhiều thứ khác.\n- Chồ. Thế k muốn sống ở đây à( cười yêu)\nTrả lời. Nhe răng....😉😉😉gãi đầu...\n.........\nChồ. Lúc nào cậu có thể đi làm.\n==> chờ mãi cuối cùng cũng chịu nói\n\nTrên chỉ là 1 số câu m thấy ấn tượng nên share cho mn.\nNgoài ra trước khi jikoshokai ng pv thường xem tờ viết tay của b juj nghe xong họ sẽ hỏi xoay quanh nên tờ viết tay của b rất quan trọng.\nKhi phỏng vấn k nên chỉ chờ ng ta hỏi mới trả lời mà kết thúc câu trả lời của bản thân  các bạn cố gắng lái câu chuyện theo hướng đã chuẩn bị trước hạn chế thấp nhất các câu k có chuẩn bị trước để k bị bối rối vì như các bạn cũng hiểu nhiều câu ngay cả hỏi bằng tiếng việt còn bối rối nữa là.\nNên luyện tập từ h vì sau này học xong khi xin việc chính thức lúc pv bạn cũng đã có cho mình những kinh nghiệm nhất định( mặt ..ầy) từ việc xin baito từ h.\nVà khi xin baito ở Nhật thường thường là nếu b đỗ pv ng ta sẽ hỏi bạn khi nào có thể đi làm.\nThứ 2 là người ta sẽ nói lại lịch và cho bạn lịch làm luôn( trường hợp này khi pv ng ta sẽ hỏi hơi kĩ về khung h muốn làm của b, số ngày,...nên nếu ai để ý thì đến đây là biết ok juj)\nTrong trường hợp xịt ng ta thường hẹn là nếu vào cái giờ A này hay cái giờ C kia mà k gọi lại thì...\nĐừng buồn mà hãy cố gắng cho lần sau nhé, mỗi lần hãy cố tích luỹ thêm kinh nghiệm cho bản thân.\nM sẽ cố gắng dành time để post 1 bài pv baito bằng tiếng nhật đầy đủ từ vựng và các trường hợp .. Nhất để share kinh nghiệm cho mn đi sau.\nNói nhiều nhưng chưa nói đc ý chính.\nMục đích bài viết này là mình muốn nói đó là hình ảnh ng Việt Nam! Mình hiện tại đang rất xấu, bằng chứng là \nKhi pv mình nhận đc 1 câu hỏi.\nTại sao chọn du học nhật...=> trước đây mình chưa từng bị hỏi.\nK liên quan nhưng mà sắp thi rồi đó, cố gắng lên nhé mọi người.","created_time":"2014-04-06T14:53:21+0000","updated_time":"2014-04-10T03:12:59+0000","likes":{"data":{"100001416272263":{"id":"100001416272263","name":"Mai PB"},"100000655383199":{"id":"100000655383199","name":"Huy Hoang"},"100003327351931":{"id":"100003327351931","name":"Bánh Mì Sữa"},"100003939562107":{"id":"100003939562107","name":"Bùi QuyềnGtnd"},"100002449514019":{"id":"100002449514019","name":"Lương Hoa"},"100005074082521":{"id":"100005074082521","name":"Tratuna Nguyen"},"100000176631338":{"id":"100000176631338","name":"Hà Phương"},"100006420665090":{"id":"100006420665090","name":"Hường Nguyễn"},"100007307320750":{"id":"100007307320750","name":"Ngoisao Bang"},"100003279184320":{"id":"100003279184320","name":"Nguyen Long Hoang"},"100003977703228":{"id":"100003977703228","name":"Ki Yu"},"100002849008610":{"id":"100002849008610","name":"Nguyễn Phương Hùng"},"100007728841810":{"id":"100007728841810","name":"Rắc Iốt"},"100004500702268":{"id":"100004500702268","name":"Ngát Còi"},"100004049307872":{"id":"100004049307872","name":"Minxu Ngoc"},"100007081418613":{"id":"100007081418613","name":"Nhung Hồng"},"100000039713069":{"id":"100000039713069","name":"BakkuTran Love RuriRuri"},"100004450956167":{"id":"100004450956167","name":"Thắng Satoh"},"100000054665103":{"id":"100000054665103","name":"John Nguyễn"},"100005759054279":{"id":"100005759054279","name":"Ngô Phương Thục"},"1828663711":{"id":"1828663711","name":"Duny Chan"},"100004873984337":{"id":"100004873984337","name":"Itachi Katana"},"100001744184866":{"id":"100001744184866","name":"Cường Nguyễn"},"100000795770040":{"id":"100000795770040","name":"Nghĩa Trần"},"1776330824":{"id":"1776330824","name":"Nyaa Nyaa"},"1145584654":{"id":"1145584654","name":"Tobe Tung"},"1020656279":{"id":"1020656279","name":"Hồng Vũ Pinku"},"100004374573625":{"id":"100004374573625","name":"Theu Vu"},"1018045827":{"id":"1018045827","name":"Trang Nguyen"},"100003192597026":{"id":"100003192597026","name":"Trung Nguyen"},"100003697539923":{"id":"100003697539923","name":"Minh Thắng"},"1580589258":{"id":"1580589258","name":"Kani Oboeru"},"100002999756689":{"id":"100002999756689","name":"Lắng Nghe"},"100007558053842":{"id":"100007558053842","name":"Nhox Siêu Quậy"},"706746330":{"id":"706746330","name":"Nguyen Binh Khiem"},"620066722":{"id":"620066722","name":"Dong Khac Thai"},"100000562524611":{"id":"100000562524611","name":"Chúc Đại Ka"},"100006247629276":{"id":"100006247629276","name":"Long Vĩnh"},"100000205222755":{"id":"100000205222755","name":"Hong Nhung"},"100002966658166":{"id":"100002966658166","name":"Giọt Nắng"},"100004075308762":{"id":"100004075308762","name":"Lie Lie"},"100003702043787":{"id":"100003702043787","name":"Hằng Hanu"},"100005710212437":{"id":"100005710212437","name":"Đinh Tiến Hoàng"},"100003764736821":{"id":"100003764736821","name":"Hùng Kon"},"100000876802397":{"id":"100000876802397","name":"Trần Bảo Ngân"},"100001997876607":{"id":"100001997876607","name":"Phằn Xong Lứa"},"100006126133935":{"id":"100006126133935","name":"Hoàng Thị Thu"},"100008061784579":{"id":"100008061784579","name":"Hoàng Tuấn"},"100003188105866":{"id":"100003188105866","name":"Momiji Chan"},"100002419566054":{"id":"100002419566054","name":"Khánh Toàn"},"100002402865655":{"id":"100002402865655","name":"Dinh To Nguyen"},"100005495773832":{"id":"100005495773832","name":"Hiền Vũ"},"100004106982617":{"id":"100004106982617","name":"Cậu Bé Hư"},"100002853438802":{"id":"100002853438802","name":"Thanh Thu"},"100005211189763":{"id":"100005211189763","name":"Oliveu Cchann"},"100003220725572":{"id":"100003220725572","name":"Thuan Pham"},"100000266887521":{"id":"100000266887521","name":"Hương Lê Thu"},"100000178074664":{"id":"100000178074664","name":"Dinh Thi Thu Huong"},"100002265193557":{"id":"100002265193557","name":"Gấu Mó"},"100000438877828":{"id":"100000438877828","name":"Teng Chil"},"100001526631937":{"id":"100001526631937","name":"Tường Oanh Mineko"},"100002787603296":{"id":"100002787603296","name":"Phương Thảo"},"100003568206957":{"id":"100003568206957","name":"Dece Ngthv"},"100003105034037":{"id":"100003105034037","name":"Pham Oanh"},"100002425288918":{"id":"100002425288918","name":"Kira Chiến ND"},"100000110765909":{"id":"100000110765909","name":"Thảo Nguyễn"},"100001064248150":{"id":"100001064248150","name":"Hòa Đỗ"},"100000221260528":{"id":"100000221260528","name":"Đào Xuân Kiên"},"100004380181780":{"id":"100004380181780","name":"Be Boo"},"100005801442456":{"id":"100005801442456","name":"An Nguyen"},"100000204870157":{"id":"100000204870157","name":"Pham Thanh Hai"},"100000600611629":{"id":"100000600611629","name":"Nhện Bạc"},"100000983811825":{"id":"100000983811825","name":"Hoa Lê"},"100000347491202":{"id":"100000347491202","name":"Linh Hà Ngọc"},"1816269439":{"id":"1816269439","name":"Dao Ngoc"},"100002609621366":{"id":"100002609621366","name":"KÚn KOn"},"100001368056386":{"id":"100001368056386","name":"Ngọc Wilshere"},"100001689568877":{"id":"100001689568877","name":"Thuy Nguyen"},"100006035258468":{"id":"100006035258468","name":"Thảo Còi"},"1781602757":{"id":"1781602757","name":"Nguyễn Thu Phương"},"100003132750382":{"id":"100003132750382","name":"Trung Quân"},"100002884430339":{"id":"100002884430339","name":"Hồng Trịnh"},"100003254627434":{"id":"100003254627434","name":"Belongs To Nắng"},"100004588446734":{"id":"100004588446734","name":"Thỏ Tuyết"},"100005344084736":{"id":"100005344084736","name":"Nhất Nhất"},"100002508122689":{"id":"100002508122689","name":"Vũ Mạnh Tuấn"},"100001409704504":{"id":"100001409704504","name":"DK Reddream"},"100007963716784":{"id":"100007963716784","name":"Ninh Thị Hường"},"100006437927747":{"id":"100006437927747","name":"Tian Vova"},"1146680551":{"id":"1146680551","name":"優しい なぁ"},"100000060844605":{"id":"100000060844605","name":"Vũ Danh Việt"},"100003648830269":{"id":"100003648830269","name":"Jessica Nguyen"},"100004945864137":{"id":"100004945864137","name":"Luu Huong"},"100002959135962":{"id":"100002959135962","name":"Duong Nguyen Van"},"100001114549932":{"id":"100001114549932","name":"Bui Thanh Hung"},"100004573743625":{"id":"100004573743625","name":"Bean Hana"},"100000200742771":{"id":"100000200742771","name":"Nấm Ngoan Hiền"},"1416265619":{"id":"1416265619","name":"Starwar Bbj"},"100003913383051":{"id":"100003913383051","name":"Tho Tran"},"100006690006678":{"id":"100006690006678","name":"Hồng Nhiễu"},"569263718":{"id":"569263718","name":"Phuong Thao Tran"},"100001362770102":{"id":"100001362770102","name":"Le Trinh"},"100000500260636":{"id":"100000500260636","name":"Lưu Nguyễn Thảo Tiên"},"100002339089186":{"id":"100002339089186","name":"Thinh Nguyen Viet"},"100002618328161":{"id":"100002618328161","name":"Lê Đức Thịnh"},"100000262070143":{"id":"100000262070143","name":"Sachiko Kam"},"100001154562752":{"id":"100001154562752","name":"Ha Nguyen"},"100006389413007":{"id":"100006389413007","name":"Việt Vui Vẻ"},"100001257093338":{"id":"100001257093338","name":"Hanh Dang"},"100000471304298":{"id":"100000471304298","name":"Nguyen Xuan Cong"},"100007161698406":{"id":"100007161698406","name":"Cơn Gió Lạ"},"100000128764209":{"id":"100000128764209","name":"Chau Le"},"100008088271559":{"id":"100008088271559","name":"Kaori Yuriko"},"100001458099624":{"id":"100001458099624","name":"Kham Pha"},"100001059086820":{"id":"100001059086820","name":"Nguyễn Thành Long"},"100002901724136":{"id":"100002901724136","name":"Nguyễn Mạnh"},"1026780646":{"id":"1026780646","name":"Việt Hưng Khổng"},"100000339385551":{"id":"100000339385551","name":"Le Minh Trang"},"100007468213697":{"id":"100007468213697","name":"Minh Cảnh"},"100001663326777":{"id":"100001663326777","name":"Yuri Chan"},"1044835514":{"id":"1044835514","name":"Sue Nguyen"}},"paging":{"cursors":{"after":"MTAwMDAxNDE2MjcyMjYz","before":"MTAwMDAxNDE2MjcyMjYz"},"next":"https://graph.facebook.com/229244010425617_846509148699097/likes?limit=1&summary=1&after=MTAwMDAxNDE2MjcyMjYz"},"summary":{"total_count":123}},"comments":{"data":{"846512555365423":{"id":"846512555365423","from":{"id":"100001663326777","name":"Yuri Chan"},"message":"Câu 1: vì sao lại chọn học tiếng nhật mà ko phải tiếng khác.\nCâu 2: cậu nghĩ bản thân có thực lực gì mà có quyền nói mức lương cao thấp ở đây. \nCâu 3: cậu nghĩ răngf când phải làm gì để Việt Nam đạt được như cậu mong muốn \nMời người trả lời :D","can_remove":false,"created_time":"2014-04-06T15:01:51+0000","like_count":8,"user_likes":false},"846514885365190":{"id":"846514885365190","from":{"id":"100003913383051","name":"Tho Tran"},"message":"Trả lời khôn khéo :3","can_remove":false,"created_time":"2014-04-06T15:07:33+0000","like_count":1,"user_likes":false},"846515482031797":{"id":"846515482031797","from":{"id":"100007468213697","name":"Minh Cảnh"},"message":"Yuri Chan.\nT thích ngoại ngữ k chỉ tiếng nhật, tiếng nhật chỉ là bắt đầu, sau khi sử dụng thành thạo tiếng nhật t chắc chắn sẽ học tiếp ngôn ngữ khác( câu này bị hỏi suốt rồi)\nCâu 2. Cửa hàng cần ng, t nghĩ t chỉ đủ khả năng để đáp ứng nhu cầu cửa hàng, t k nói mức lương thấp là để trả lời câu hỏi của ngài.\nCâu3. Trươc hết t sẽ học","can_remove":false,"created_time":"2014-04-06T15:08:19+0000","like_count":6,"user_likes":false},"846520888697923":{"id":"846520888697923","from":{"id":"100002959135962","name":"Duong Nguyen Van"},"message":"post tiếng nhật lên để ngâm cứu với đồng chí ơi :)","can_remove":false,"created_time":"2014-04-06T15:17:05+0000","like_count":1,"user_likes":false},"846520922031253":{"id":"846520922031253","from":{"id":"1554283228","name":"Hang Lm"},"message":"em share kinh nghiệm cụ thể cho các bạn rất bổ ích. Đi pv baito họ cũng hỏi nhiều câu như pv xin việc chính thức vậy. Họ muốn nghe ước mơ của mình để hiểu hơn về con người của mình. \nCó tencho còn hỏi: bạn có nghĩ là mình là người may mắn không? \nCó tencho còn quan sát xem lúc ra về mình có chào các nhân viên khác không để quyết định nhận hay không đấy :D","can_remove":false,"created_time":"2014-04-06T15:17:10+0000","like_count":9,"user_likes":false},"846535032029842":{"id":"846535032029842","from":{"id":"100000500260636","name":"Lưu Nguyễn Thảo Tiên"},"message":"Luôn phải cười và nhìn vào mắt ng đối diện khi cười, để chứng tỏ mình lạc quan, k ngại khó. \nLịch sự, khiêm tốn, lễ phép, để ý ng khác, tự tin, độc lập là cái họ kiếm.\nHọ hỏi lich làm & khi nào đi làm k phải là đã đậu mà họ sẽ hỏi tài khoản ngân hàng.","can_remove":false,"created_time":"2014-04-06T15:44:38+0000","like_count":10,"user_likes":false},"846537485362930":{"id":"846537485362930","from":{"id":"1816269439","name":"Dao Ngoc"},"message":"Good! 😙😙👍👍👍","can_remove":false,"created_time":"2014-04-06T15:49:28+0000","like_count":2,"user_likes":false},"846540928695919":{"id":"846540928695919","from":{"id":"100000347491202","name":"Linh Hà Ngọc"},"message":"Mong mãi mới có một  vài bài góp ý hay như thế này!\nMình cũng xin nêu kinh nghiệm bản thân, năm trước mình có đi phỏng vấn quán ăn với một bạn Nepal, sau phỏng vấn, tencho bảo hai đứa mình ra bàn ngoài ngồi, còn tencho bàn luận một lúc với mấy bác lớn tuổi trong đó vì chỉ có 1 suất mà tới hai người phỏng vấn. \nMình đã chuẩn bị và trả lời pv rất trôi chảy nên chắc mẩm sẽ thắng được anh bạn kia, nhưng sau đó mình lại là người bị loại. Về ngẫm lại mới hiểu ra, cái bàn bọn mình ngồi chờ có cách sắp xếp đồ hơi lệch một chút với các bàn khác ( cụ thể là lọ gia vị sai vị trí ), và anh bạn Nepal tinh ý đã sửa lại khi vừa ngồi xuống :\"<","can_remove":false,"created_time":"2014-04-06T15:56:12+0000","like_count":18,"user_likes":false},"846546718695340":{"id":"846546718695340","from":{"id":"100007468213697","name":"Minh Cảnh"},"message":"Hang Lm Dao Ngoc 😀 nhờ các chị đấy \nThảo Tiên tk ngân hàng họ hỏi trước.\nDuong Van Nguyen Post 1 bài cả nhật cả việt cần vài h đồng hồ đấy thím ạ, e dùng đt chứ đâu phải pc","message_tags":[{"id":"1554283228","name":"Hang Lm","type":"user","offset":0,"length":7}],"can_remove":false,"created_time":"2014-04-06T16:05:41+0000","like_count":1,"user_likes":false},"846555922027753":{"id":"846555922027753","from":{"id":"100000110765909","name":"Thảo Nguyễn"},"message":"Bài viết hay, người viết bài đưa ra câu trả lời rất thông minh, like mạnh","can_remove":false,"created_time":"2014-04-06T16:24:01+0000","like_count":1,"user_likes":false},"846570478692964":{"id":"846570478692964","from":{"id":"100001526631937","name":"Tường Oanh Mineko"},"message":"\"chồ\" là cái gì vậy?","can_remove":false,"created_time":"2014-04-06T16:49:36+0000","like_count":0,"user_likes":false},"846577168692295":{"id":"846577168692295","from":{"id":"100000110765909","name":"Thảo Nguyễn"},"message":"Ý bạn là 店長, cửa hành trưởng/ người quản lý cửa hàng đó mà","can_remove":false,"created_time":"2014-04-06T17:06:10+0000","like_count":0,"user_likes":false},"846581188691893":{"id":"846581188691893","from":{"id":"100005495773832","name":"Hiền Vũ"},"message":"Kiều Văn oi bài này hay thiệt.ấn tượng câu trả lời .","message_tags":[{"id":"100005307004792","name":"Kiều Văn","type":"user","offset":0,"length":8}],"can_remove":false,"created_time":"2014-04-06T17:15:23+0000","like_count":1,"user_likes":false},"846583865358292":{"id":"846583865358292","from":{"id":"100005307004792","name":"Kiều Văn"},"message":"uh hjhj phải học tập kinh nghiệm mới được, quá ấn tượng hjhj","can_remove":false,"created_time":"2014-04-06T17:18:24+0000","like_count":1,"user_likes":false},"846584322024913":{"id":"846584322024913","from":{"id":"100005495773832","name":"Hiền Vũ"},"message":"hii anh ấy thông minh,hóm hỉnh ,nếu là mình thì....hì hì","can_remove":false,"created_time":"2014-04-06T17:19:08+0000","like_count":1,"user_likes":false},"847068938643118":{"id":"847068938643118","from":{"id":"100003977703228","name":"Ki Yu"},"message":"Được, cho a điểm 9 nhé! 😊","can_remove":false,"created_time":"2014-04-07T11:57:54+0000","like_count":0,"user_likes":false},"847205448629467":{"id":"847205448629467","from":{"id":"100003939562107","name":"Bùi QuyềnGtnd"},"message":"楽しい","can_remove":false,"created_time":"2014-04-07T16:16:29+0000","like_count":0,"user_likes":false},"848676228482389":{"id":"848676228482389","from":{"id":"100001416272263","name":"Mai PB"},"message":"Notes bài này nữa.","can_remove":false,"created_time":"2014-04-10T03:12:59+0000","like_count":1,"user_likes":false}},"paging":{"cursors":{"after":"ODQ2NTEyNTU1MzY1NDIz","before":"ODQ2NTEyNTU1MzY1NDIz"},"next":"https://graph.facebook.com/229244010425617_846509148699097/comments?limit=1&summary=1&after=ODQ2NTEyNTU1MzY1NDIz"},"summary":{"order":"chronological","total_count":18}}}