{"id":"229244010425617_846502055366473","type":"status","from":{"id":"100003787391928","name":"Vĩ Khắc"},"message":"các bạn ơi cho mình hỏi một chút! hiện tại mình đang học tiếng nhật ở trong nước và sang năm mình mới tốt nghiệp đại học! và sau khi tốt nghiệp đại học mình muốn sang bên đó học tiếng nhật ở các trường nhật ngữ nhưng với thời gian ngắn từ 6 tháng đến 1 năm liệu có được không? các trường bên đó có cho học với thời gian ngắn vậy không? cảm ơn mọi người!","created_time":"2014-04-06T14:39:02+0000","updated_time":"2014-04-06T21:28:18+0000","likes":{"data":{"100003298604835":{"id":"100003298604835","name":"Trần Thị Trang"},"100002653432195":{"id":"100002653432195","name":"Sj Pom Ninjin"},"100003039237438":{"id":"100003039237438","name":"Huong Luu Thi"},"100003254627434":{"id":"100003254627434","name":"Belongs To Nắng"},"100006263888044":{"id":"100006263888044","name":"Hoàng Oanh"},"100007396898008":{"id":"100007396898008","name":"My Hanh"}},"paging":{"cursors":{"after":"MTAwMDAzMjk4NjA0ODM1","before":"MTAwMDAzMjk4NjA0ODM1"},"next":"https://graph.facebook.com/229244010425617_846502055366473/likes?limit=1&summary=1&after=MTAwMDAzMjk4NjA0ODM1"},"summary":{"total_count":6}},"comments":{"data":{"846503418699670":{"id":"846503418699670","from":{"id":"100006263888044","name":"Hoàng Oanh"},"message":"mình học trường tiếng bên đấy là 2 năm.còn trường khác thì mình ko rõ","can_remove":false,"created_time":"2014-04-06T14:42:08+0000","like_count":0,"user_likes":false},"846503452033000":{"id":"846503452033000","from":{"id":"100000241284352","name":"Khong Minh Hoang"},"message":"Bên nhật có những khoá ngắn hạn 6t 1 năm đó b, b thích đi vùng nào?","can_remove":false,"created_time":"2014-04-06T14:42:19+0000","like_count":0,"user_likes":false},"846503692032976":{"id":"846503692032976","from":{"id":"100003787391928","name":"Vĩ Khắc"},"message":"ơ thế là được hả Khong Minh Hoang","message_tags":[{"id":"100000241284352","name":"Khong Minh Hoang","type":"user","offset":17,"length":16}],"can_remove":false,"created_time":"2014-04-06T14:42:56+0000","like_count":0,"user_likes":false},"846504205366258":{"id":"846504205366258","from":{"id":"100003787391928","name":"Vĩ Khắc"},"message":"vùng nào mình cũng chưa có dự định các bạn có biết trường nào hay không?","can_remove":false,"created_time":"2014-04-06T14:43:45+0000","like_count":0,"user_likes":false},"846504362032909":{"id":"846504362032909","from":{"id":"100000241284352","name":"Khong Minh Hoang"},"message":"Uh m xem thấy có những trường họ có khoá ngắn hạn đấy","can_remove":false,"created_time":"2014-04-06T14:43:51+0000","like_count":0,"user_likes":false},"846504442032901":{"id":"846504442032901","from":{"id":"100003787391928","name":"Vĩ Khắc"},"message":"vùng nào nó sinh hoạt rẻ một chút ý","can_remove":false,"created_time":"2014-04-06T14:44:07+0000","like_count":0,"user_likes":false},"846504708699541":{"id":"846504708699541","from":{"id":"100000200742771","name":"Nấm Ngoan Hiền"},"message":"Chắc là có chứ nhỉ, nhiều trường có những khóa ngắn hạn 1-2 năm. Chủ yếu học tiếng","can_remove":false,"created_time":"2014-04-06T14:44:44+0000","like_count":0,"user_likes":false},"846505328699479":{"id":"846505328699479","from":{"id":"100003787391928","name":"Vĩ Khắc"},"message":"vậy à","can_remove":false,"created_time":"2014-04-06T14:46:07+0000","like_count":0,"user_likes":false},"846505405366138":{"id":"846505405366138","from":{"id":"100000200742771","name":"Nấm Ngoan Hiền"},"message":"Mình biết có Đh ngắn hạn Yamaguchi","can_remove":false,"created_time":"2014-04-06T14:46:20+0000","like_count":0,"user_likes":false},"846505852032760":{"id":"846505852032760","from":{"id":"100003787391928","name":"Vĩ Khắc"},"message":"cảm ơn cộng đồng nhé","can_remove":false,"created_time":"2014-04-06T14:47:23+0000","like_count":0,"user_likes":false},"846518615364817":{"id":"846518615364817","from":{"id":"100003807346055","name":"Chap Nhan Di"},"message":"vay o hiroshima co k nhi","can_remove":false,"created_time":"2014-04-06T15:13:23+0000","like_count":0,"user_likes":false},"846520455364633":{"id":"846520455364633","from":{"id":"100000471304298","name":"Nguyen Xuan Cong"},"message":"co nhieu khoa ngan han a :D","can_remove":false,"created_time":"2014-04-06T15:16:08+0000","like_count":0,"user_likes":false},"846520878697924":{"id":"846520878697924","from":{"id":"100003807346055","name":"Chap Nhan Di"},"message":"co ai co thong tin cu the thi cho minh vs","can_remove":false,"created_time":"2014-04-06T15:17:04+0000","like_count":0,"user_likes":false},"846570658692946":{"id":"846570658692946","from":{"id":"100006355923788","name":"Hoàng Tuấn"},"message":"Đi tháng 1 và tháng 7 là học 1 năm rưỡi thì phải","can_remove":false,"created_time":"2014-04-06T16:50:08+0000","like_count":0,"user_likes":false},"846595922023753":{"id":"846595922023753","from":{"id":"100003833933967","name":"Nguyễn Dương"},"message":"Có cho mà...","can_remove":false,"created_time":"2014-04-06T17:43:09+0000","like_count":0,"user_likes":false},"846596128690399":{"id":"846596128690399","from":{"id":"100003833933967","name":"Nguyễn Dương"},"message":"Có cho mà...","can_remove":false,"created_time":"2014-04-06T17:43:40+0000","like_count":0,"user_likes":false},"846734252009920":{"id":"846734252009920","from":{"id":"100001294443479","name":"Hai Tí"},"message":"Có trường học đúng 1 năm trong và phí chỉ là 36 man 1 năm ở nago nhé !","can_remove":false,"created_time":"2014-04-06T21:28:18+0000","like_count":0,"user_likes":false}},"paging":{"cursors":{"after":"ODQ2NTAzNDE4Njk5Njcw","before":"ODQ2NTAzNDE4Njk5Njcw"},"next":"https://graph.facebook.com/229244010425617_846502055366473/comments?limit=1&summary=1&after=ODQ2NTAzNDE4Njk5Njcw"},"summary":{"order":"chronological","total_count":17}}}