{"id":"229244010425617_846896171993728","type":"link","picture":"https://fbexternal-a.akamaihd.net/safe_image.php?d=AQBe3EFVb7FK4Bah&w=154&h=154&url=http%3A%2F%2Fcdn9.trandaiquang.net%2Ffiles%2F2014%2F04%2Fnuoi-con-kieu-nhat-.jpg","link":"http://trandaiquang.net/sung-sot-bua-com-ban-tru-cua-tre-nhat.html","from":{"id":"569263718","name":"Phuong Thao Tran"},"message":"Khả năng tự lập và sinh tồn của con trẻ sẽ cao hơn nếu luyện ngay từ đầu cho trẻ, và một xã hội kỷ cương tự cường bắt đầu từ nhừng việc uốn nắn chồi non như thế.\n\nXin giời thiệu cả nhà bài viết trên vietnamnet.vn : Bữa cơm trưa bán trú của trẻ Nhật.\n\n<-- link:   http://vietnamnet.vn/vn/doi-song/168663/sung-sot-bua-com-ban-tru-cua-tre-nhat.html -->\n\nQua bài viết các bạn sẽ nhật thấy một sự thay đổi đúng đắn, đột phá nữa của chính phủ Nhật để có một nước Nhật như hôm nay.\n\nP/s: \n1. Một câu hỏi nho nhỏ cho các mem: các bạn biết nấu cơm, phụ giúp bố mẹ việc nhầ lúc mấy tuổi?\nLiệu có mem nào hiện đang đi, bắt đấu đi, có ý định đi du học, có ý định tách bố mẹ sống riêng mà vẫn chưa một lần nấu cơm cho chính mình không?\n\nMình thì biết nấu cơm sau buổi đi học đầu tiên của thời đi học.\nSau khi đi học về, nhà không có ai, của thì đóng, mình đã phá rào mở của vô nhà, và bắt đầu tập nấu nối cơm đầu tiên trong đời... kết quả là... bây giờ vẫn biết nấu cơm, chỉ khác là hồi đó nấu bằng lá thông, nay nấu bằng nồi điện, :D","created_time":"2014-04-07T03:22:09+0000","updated_time":"2014-04-07T06:36:23+0000","likes":{"data":{"100000035226247":{"id":"100000035226247","name":"Thanh Lan"},"1394148660":{"id":"1394148660","name":"Cừu Non"},"100005121162487":{"id":"100005121162487","name":"Khanh Huyen"},"100000500260636":{"id":"100000500260636","name":"Lưu Nguyễn Thảo Tiên"},"100006974080148":{"id":"100006974080148","name":"Pek Cỏ"},"100000325921206":{"id":"100000325921206","name":"Rain Bow"},"100002019306447":{"id":"100002019306447","name":"Ngo Hiep"},"100003287448877":{"id":"100003287448877","name":"Thi Nat"},"100002658525022":{"id":"100002658525022","name":"LE O Kun"},"100001754136107":{"id":"100001754136107","name":"Nguyễn Tuấn Vũ"},"100003107056906":{"id":"100003107056906","name":"Tuyet Le"},"100001432462223":{"id":"100001432462223","name":"Truong Nguyen"},"100004460831749":{"id":"100004460831749","name":"Quynh Cap"},"100000183792818":{"id":"100000183792818","name":"Le Nga"},"100000214398360":{"id":"100000214398360","name":"Thang Pham"},"100003144794147":{"id":"100003144794147","name":"かわいい ぶた"},"1816269439":{"id":"1816269439","name":"Dao Ngoc"},"100004290395059":{"id":"100004290395059","name":"A Di Đà Phật"},"100004004273874":{"id":"100004004273874","name":"Chi To Kato"},"100005859968752":{"id":"100005859968752","name":"Lan Tran"},"100005025099733":{"id":"100005025099733","name":"Cáo Ngao Ngao"},"1146680551":{"id":"1146680551","name":"優しい なぁ"}},"paging":{"cursors":{"after":"MTAwMDAwMDM1MjI2MjQ3","before":"MTAwMDAwMDM1MjI2MjQ3"},"next":"https://graph.facebook.com/229244010425617_846896171993728/likes?limit=1&summary=1&after=MTAwMDAwMDM1MjI2MjQ3"},"summary":{"total_count":22}},"comments":{"data":{"846904888659523":{"id":"846904888659523","from":{"id":"1146680551","name":"優しい なぁ"},"message":"Co Thật là \" biết \" nấu cơm không đoá :3","can_remove":false,"created_time":"2014-04-07T03:46:21+0000","like_count":0,"user_likes":false},"846909018659110":{"id":"846909018659110","from":{"id":"100001416272263","name":"Mai PB"},"message":"Nội dung thì không sao nhưng cái trang này và nhiều trang khác hình như toàn đi lấy bài các nơi về làm của mình, không ghi rõ nguồn gì cả. Không đáng tôn trọng.","can_remove":false,"created_time":"2014-04-07T03:55:31+0000","like_count":2,"user_likes":false},"846911561992189":{"id":"846911561992189","from":{"id":"569263718","name":"Phuong Thao Tran"},"message":"có ghi là (Theo Khám Phá) mà anh, cơ mà ko biết có phải Kham Pha nhà mình không, :)","message_tags":[{"id":"100001458099624","name":"Kham Pha","type":"user","offset":56,"length":8}],"can_remove":false,"created_time":"2014-04-07T04:02:36+0000","like_count":0,"user_likes":false},"846911885325490":{"id":"846911885325490","from":{"id":"100001416272263","name":"Mai PB"},"message":"Đương nhiên là không phải, mà ai biết Khám Phá là cái gì? Khám Phá gì mà \"tôi lấy chồng Nhật\"?","can_remove":false,"created_time":"2014-04-07T04:03:45+0000","like_count":1,"user_likes":false},"846911978658814":{"id":"846911978658814","from":{"id":"569263718","name":"Phuong Thao Tran"},"message":":D","can_remove":false,"created_time":"2014-04-07T04:04:04+0000","like_count":0,"user_likes":false},"846913105325368":{"id":"846913105325368","from":{"id":"100001458099624","name":"Kham Pha"},"message":":))","can_remove":false,"created_time":"2014-04-07T04:08:06+0000","like_count":0,"user_likes":false},"846913305325348":{"id":"846913305325348","from":{"id":"569263718","name":"Phuong Thao Tran"},"message":"em đã đổi link, có vẻ hơi có gốc gác hơn, :)","can_remove":false,"created_time":"2014-04-07T04:08:38+0000","like_count":1,"user_likes":false},"846915831991762":{"id":"846915831991762","from":{"id":"1146680551","name":"優しい なぁ"},"message":"（＾Ｏ＾）","can_remove":false,"created_time":"2014-04-07T04:16:07+0000","like_count":0,"user_likes":false},"846920591991286":{"id":"846920591991286","from":{"id":"100002508122689","name":"Vũ Mạnh Tuấn"},"message":"Theo chia sẻ của độc giả lethuy...@...........","can_remove":false,"created_time":"2014-04-07T04:26:33+0000","like_count":0,"user_likes":false},"846921768657835":{"id":"846921768657835","from":{"id":"100004290395059","name":"A Di Đà Phật"},"message":"^_^","can_remove":false,"created_time":"2014-04-07T04:28:59+0000","like_count":0,"user_likes":false},"846951591988186":{"id":"846951591988186","from":{"id":"100000045271667","name":"Nam Thai Nguyen"},"message":"Kham Pha là trang bee.net.vn hay khampha.vn cũng được nhé, chứ Kham Pha nhà mình mặt búng ra sữa, con cái gì :|","can_remove":false,"created_time":"2014-04-07T06:14:51+0000","like_count":1,"user_likes":false},"846954085321270":{"id":"846954085321270","from":{"id":"100001432462223","name":"Truong Nguyen"},"message":"Tưởng Khám Phá là con zai, chống lầy là sao :v","can_remove":false,"created_time":"2014-04-07T06:23:24+0000","like_count":0,"user_likes":false},"846956991987646":{"id":"846956991987646","from":{"id":"100001458099624","name":"Kham Pha"},"message":"Nam Thai Nguyen đừng có nói linh tinh, tại trời phú mặt em trẻ hơn tuổi thôi chứ tuổi em đấy đứa con cái rồi đấy.","message_tags":[{"id":"100000045271667","name":"Nam Thai Nguyen","type":"user","offset":0,"length":15}],"can_remove":false,"created_time":"2014-04-07T06:34:30+0000","like_count":1,"user_likes":false},"846957611987584":{"id":"846957611987584","from":{"id":"100001754136107","name":"Nguyễn Tuấn Vũ"},"message":"E bo sung: Khi nhập học thì phụ huynh ghi con mình bị dị ưng với loại thức an nào xong báo cho nhà trường. Học sinh đó sẽ đc ăn suất riêng .","can_remove":false,"created_time":"2014-04-07T06:36:23+0000","like_count":0,"user_likes":false}},"paging":{"cursors":{"after":"ODQ2OTA0ODg4NjU5NTIz","before":"ODQ2OTA0ODg4NjU5NTIz"},"next":"https://graph.facebook.com/229244010425617_846896171993728/comments?limit=1&summary=1&after=ODQ2OTA0ODg4NjU5NTIz"},"summary":{"order":"chronological","total_count":14}}}