{"id":"229244010425617_846897575326921","type":"status","from":{"id":"100006675074577","name":"Tomato Lạnh"},"message":"Chào mọi người .e có vài lời muốn nói.chắc là được đúng k ạ! Nhóm cộng đồng việt nhật là 1 trong những nhóm e thích nhất.các bài viết trong nhóm đều rất hay. E mới chỉ chạm ngõ đến cánh cửa tiếng nhật thôi. E thi trượt dh năm ngoái vì tội trèo cao .sau đó e quyết định học tiếng nhật .cũng như bao ng . E học tiếng nhật khao khát đi du học tự túc .có 1 ng đã hỏi e câu này : e đi sang nhật để kiếm tiền hay du học thực sự .e nói: đi vì cả 2. Tiền thì ai chả muốn. Nhưng k vì thế mà e bán rẻ danh dự và đạo đức. Còn việc học nó gắn liền với hành trang e sang nhật .e muốn học để thực hiện ước mơ của mình nhanh hơn .k phải chỉ đi nhật e mới thực hiện được ước mơ. Nhưng đó là con đường ngắn nhất , gjan nan nhất mà e có thể đi. Vẫn biết chuyện ng việt sang nhật . sống k được tốt   cho lắm .1 cái tốt k thể thắng 10 cái xấu .1giây không dươc ng ta quý và nhìn bằng 1phút .nhưng kim s  có chạy thì mới có phút có giờ .ng tốt có sống thì kẻ xấu mới biết mặt. Mới biết rằng k phải ai cũng xấu như mình. E cảm ơn tất cả ad và ceo đã góp phần tạo lên nhóm cộng đồng việt nhật mà e rất thích. Cố gắng đọc stt e viết nhé .mặc dù nó k hay và dài .có gì xin m.n chỉ dạy và giúp đỡ e nhé!:-P","created_time":"2014-04-07T03:27:23+0000","updated_time":"2014-04-08T16:13:50+0000","likes":{"data":{"100005275411260":{"id":"100005275411260","name":"Hoa Của Nắng"},"100003622001805":{"id":"100003622001805","name":"Long Nguyễn"},"100007970443878":{"id":"100007970443878","name":"Phương Anh"},"100003932015617":{"id":"100003932015617","name":"Xấu Trai Kệ Anh"},"100003821021953":{"id":"100003821021953","name":"ズン グエン"},"100003913932250":{"id":"100003913932250","name":"Khánh Phúc"},"100001233118357":{"id":"100001233118357","name":"Trần Đức Thân"},"100006473518050":{"id":"100006473518050","name":"Không Quan Tâm"},"100005902955365":{"id":"100005902955365","name":"Thu Hằng"},"100002709768482":{"id":"100002709768482","name":"Vuong Dung Tms"},"100002137253818":{"id":"100002137253818","name":"Anh Khoa"},"100007963716784":{"id":"100007963716784","name":"Ninh Thị Hường"},"100007764364676":{"id":"100007764364676","name":"Luong Ha Nguyen"},"100003279184320":{"id":"100003279184320","name":"Nguyen Long Hoang"},"100007729029571":{"id":"100007729029571","name":"Bình Boong"},"100003281703428":{"id":"100003281703428","name":"Khánh Tây Môn"},"100005664395451":{"id":"100005664395451","name":"Su Su"},"100003080901798":{"id":"100003080901798","name":"Thư Celano"},"100003686123087":{"id":"100003686123087","name":"Trương Thị Quý Trâm"},"100004479244087":{"id":"100004479244087","name":"Thư Trần"},"100005121162487":{"id":"100005121162487","name":"Khanh Huyen"},"100001995263460":{"id":"100001995263460","name":"Chibi Yuriko"},"1550521697":{"id":"1550521697","name":"Trình Nguyễn"},"100002205448646":{"id":"100002205448646","name":"Dung Tri"},"1026780646":{"id":"1026780646","name":"Việt Hưng Khổng"},"100003893158172":{"id":"100003893158172","name":"Maru MO"},"100003714451753":{"id":"100003714451753","name":"Dom Lee"},"100003254627434":{"id":"100003254627434","name":"Belongs To Nắng"},"100006974080148":{"id":"100006974080148","name":"Pek Cỏ"},"100005802182631":{"id":"100005802182631","name":"Xuân Nguyễn"},"100003500824416":{"id":"100003500824416","name":"Trung Chu"},"100001886570539":{"id":"100001886570539","name":"Nguyen Binh"},"100000245098200":{"id":"100000245098200","name":"Nguyễn Trường Giang"},"100001321431507":{"id":"100001321431507","name":"Heo Sin"},"100005801442456":{"id":"100005801442456","name":"An Nguyen"},"100000299798248":{"id":"100000299798248","name":"Vẹt Đêm"},"100003913383051":{"id":"100003913383051","name":"Tho Tran"},"100004367679988":{"id":"100004367679988","name":"Kumi Nguyen"},"100002907830115":{"id":"100002907830115","name":"NgàyXưa Mình NgoanLắm"},"100002321118254":{"id":"100002321118254","name":"Minh Thiện"},"100003124307460":{"id":"100003124307460","name":"Duc Giang"},"100003181743412":{"id":"100003181743412","name":"Pham Kha"},"100001610529032":{"id":"100001610529032","name":"Sakura Suki"},"100003729320400":{"id":"100003729320400","name":"Hà Nguyễn"},"100001432462223":{"id":"100001432462223","name":"Truong Nguyen"},"100008009256613":{"id":"100008009256613","name":"Bi Bu Bin"},"100000045271667":{"id":"100000045271667","name":"Nam Thai Nguyen"},"1146680551":{"id":"1146680551","name":"優しい なぁ"},"100001526631937":{"id":"100001526631937","name":"Tường Oanh Mineko"},"100003778246918":{"id":"100003778246918","name":"Quá Khứ"},"100000258880251":{"id":"100000258880251","name":"Carson Yang"},"100003991849787":{"id":"100003991849787","name":"Kinoko Soyeon Cartier"},"100002853438802":{"id":"100002853438802","name":"Thanh Thu"},"100001458099624":{"id":"100001458099624","name":"Kham Pha"},"100008041958808":{"id":"100008041958808","name":"Hikaru Hoshi"},"100004798083725":{"id":"100004798083725","name":"Cappu Ccino"},"100004049307872":{"id":"100004049307872","name":"Minxu Ngoc"},"100003028960890":{"id":"100003028960890","name":"Phạm Đình Thái Sơn"},"100006403632615":{"id":"100006403632615","name":"Nghĩa Đinh"},"100006996489783":{"id":"100006996489783","name":"Vi Vu Tiểu Thư"},"100003920174988":{"id":"100003920174988","name":"Chuot Dong"},"100002615664668":{"id":"100002615664668","name":"PuPu Phương Elf"},"100003496048128":{"id":"100003496048128","name":"Hư Vô"},"100004456541864":{"id":"100004456541864","name":"Nha Gia"},"100004716847212":{"id":"100004716847212","name":"Khoa Lưu"},"100003740342167":{"id":"100003740342167","name":"Có Gì Hót"},"100000203962521":{"id":"100000203962521","name":"Natalie Diversity"},"100003058280462":{"id":"100003058280462","name":"Đặng Văn Thành"},"100004621177594":{"id":"100004621177594","name":"Huy Luong"},"100004351478036":{"id":"100004351478036","name":"Ngán Cái Cuộc Đời"},"100002959135962":{"id":"100002959135962","name":"Duong Nguyen Van"},"100002508122689":{"id":"100002508122689","name":"Vũ Mạnh Tuấn"},"100000696142641":{"id":"100000696142641","name":"Nguyễn Thanh Hùng"},"100002581926379":{"id":"100002581926379","name":"Nm Nm"},"824089766":{"id":"824089766","name":"Le Dai"},"1442756019":{"id":"1442756019","name":"Tuấn Lê"},"100003937566803":{"id":"100003937566803","name":"Tung Nguyễn"},"100006098550222":{"id":"100006098550222","name":"Phạm Thị Lan Anh"},"100001416272263":{"id":"100001416272263","name":"Mai PB"},"100003898395957":{"id":"100003898395957","name":"Hưng Vũ"},"100006691092293":{"id":"100006691092293","name":"Giang Học Tiếng Nhật"},"100005529851429":{"id":"100005529851429","name":"Nguyen Khuyen"},"100006116286615":{"id":"100006116286615","name":"You Hana"},"100003656246493":{"id":"100003656246493","name":"Windy Love"},"100003764736821":{"id":"100003764736821","name":"Hùng Kon"},"100004917425745":{"id":"100004917425745","name":"Nhân Tâm"},"100007797156820":{"id":"100007797156820","name":"Sói Già"},"1803369905":{"id":"1803369905","name":"Quăm Đít Nhôm"},"100007330954863":{"id":"100007330954863","name":"Sống Khác"},"100004960144509":{"id":"100004960144509","name":"Hoa Nguyễn"},"100003346367611":{"id":"100003346367611","name":"Nga Nguyen"},"100007260391107":{"id":"100007260391107","name":"Hikaru Hime"},"100003192597026":{"id":"100003192597026","name":"Trung Nguyen"},"100000083451997":{"id":"100000083451997","name":"Toan Lo"},"100005775182411":{"id":"100005775182411","name":"Tuấn Milo"},"100006751901935":{"id":"100006751901935","name":"Nam Vũ"},"1809939388":{"id":"1809939388","name":"Nguyễn Thạc Huy"},"100008077627185":{"id":"100008077627185","name":"Yumi San"},"100003486806893":{"id":"100003486806893","name":"Pig Cake"},"100001754136107":{"id":"100001754136107","name":"Nguyễn Tuấn Vũ"},"569263718":{"id":"569263718","name":"Phuong Thao Tran"},"1819602846":{"id":"1819602846","name":"Trâm Jewel"},"100003103153769":{"id":"100003103153769","name":"Trọng Hiếu"},"1259486859":{"id":"1259486859","name":"Le Son Tung"},"100007848283507":{"id":"100007848283507","name":"Oishi Oishi"},"100004428701108":{"id":"100004428701108","name":"Gió Vô Tình"},"100003799434301":{"id":"100003799434301","name":"Ninh Mai"},"100005870913757":{"id":"100005870913757","name":"Thinh Martin"}},"paging":{"cursors":{"after":"MTAwMDA1Mjc1NDExMjYw","before":"MTAwMDA1Mjc1NDExMjYw"},"next":"https://graph.facebook.com/229244010425617_846897575326921/likes?limit=1&summary=1&after=MTAwMDA1Mjc1NDExMjYw"},"summary":{"total_count":108}},"comments":{"data":{"846899325326746":{"id":"846899325326746","from":{"id":"100005870913757","name":"Thinh Martin"},"message":"rất tình tiết","can_remove":false,"created_time":"2014-04-07T03:29:43+0000","like_count":0,"user_likes":false},"846902258659786":{"id":"846902258659786","from":{"id":"100006675074577","name":"Tomato Lạnh"},"message":"E chỉ viết những gì mình muốn nói. Nhưng k dám viết dài vì sợ k ai đọc. Cảm ơn tất cả m.n đã đăng những bài viết hay  để e có thêm kinh nghjệm","can_remove":false,"created_time":"2014-04-07T03:37:53+0000","like_count":2,"user_likes":false},"846903255326353":{"id":"846903255326353","from":{"id":"100005870913757","name":"Thinh Martin"},"message":"cứ viết hết đi bạn","can_remove":false,"created_time":"2014-04-07T03:41:19+0000","like_count":0,"user_likes":false},"846904208659591":{"id":"846904208659591","from":{"id":"100007797156820","name":"Sói Già"},"message":"thật sự là rất cảm ơn bạn về bài viết này.nó là cảm xúc của ng viết .hì hì","can_remove":false,"created_time":"2014-04-07T03:44:54+0000","like_count":0,"user_likes":false},"846904265326252":{"id":"846904265326252","from":{"id":"100003764736821","name":"Hùng Kon"},"message":"Bài viết của bạn hay lắm mình cũng có chung suy nghĩ giống bạn  ^^","can_remove":false,"created_time":"2014-04-07T03:45:00+0000","like_count":0,"user_likes":false},"846904395326239":{"id":"846904395326239","from":{"id":"100004917425745","name":"Nhân Tâm"},"message":"Đọc để mà tiếp thu :D","can_remove":false,"created_time":"2014-04-07T03:45:22+0000","like_count":0,"user_likes":false},"846907428659269":{"id":"846907428659269","from":{"id":"100001416272263","name":"Mai PB"},"message":"Không liên quan nhưng cho mình hỏi \"ceo\" là viết tắt của chữ gì vậy?","can_remove":false,"created_time":"2014-04-07T03:50:49+0000","like_count":0,"user_likes":false},"846908858659126":{"id":"846908858659126","from":{"id":"100004917425745","name":"Nhân Tâm"},"message":"CEO = Chief Executive Officer là người điều hành, bộ phận lãnh đạo hay đại loại như vậy đó bạn ơi!","can_remove":false,"created_time":"2014-04-07T03:54:59+0000","like_count":0,"user_likes":false},"846910215325657":{"id":"846910215325657","from":{"id":"100001416272263","name":"Mai PB"},"message":"CEO thì biết chứ, nhưng ceo thì không phải, và group thì không có người lãnh đạo. Điều hành thì là các admin.","can_remove":false,"created_time":"2014-04-07T03:58:45+0000","like_count":2,"user_likes":false},"846912198658792":{"id":"846912198658792","from":{"id":"100002963737004","name":"Hà Phùng"},"message":"Các Ad thôi..ko phải tập đoàn mà CEO( mà viết hoa mới đúng nhé ) -_-","can_remove":false,"created_time":"2014-04-07T04:04:54+0000","like_count":0,"user_likes":false},"846914505325228":{"id":"846914505325228","from":{"id":"100004621177594","name":"Huy Luong"},"message":"Hay do","can_remove":false,"created_time":"2014-04-07T04:13:21+0000","like_count":0,"user_likes":false},"846933355323343":{"id":"846933355323343","from":{"id":"100001101932047","name":"Quang Thiếu Gia"},"message":"Tiên trách kỷ hậu trách nhân. Bạn tốt hay xấu do bạn tự chọn thôi. Còn sang đây thì thực sự vất vả. Ko có nghề hèn, chỉ có ng hèn. Bạn cũng chẳng cần thiết phải bán danh dự hay đạo đức gì hết. Cái gì cũng có giá của nó. Cố gắng và chúc bạn thành công với con đường bạn chọn. :)","can_remove":false,"created_time":"2014-04-07T05:00:42+0000","like_count":6,"user_likes":false},"846938078656204":{"id":"846938078656204","from":{"id":"100006996489783","name":"Vi Vu Tiểu Thư"},"message":"(y)","can_remove":false,"created_time":"2014-04-07T05:15:45+0000","like_count":1,"user_likes":false},"846944575322221":{"id":"846944575322221","from":{"id":"100004049307872","name":"Minxu Ngoc"},"message":"Dòng đời xô đẩy cả thôi cứ nói mình là người tốt liệu có ai làm đk ntn chưa?","can_remove":false,"created_time":"2014-04-07T05:45:59+0000","like_count":4,"user_likes":false},"846944861988859":{"id":"846944861988859","from":{"id":"100004049307872","name":"Minxu Ngoc"},"message":"Hoàng Tuấn","message_tags":[{"id":"100007797132044","name":"Hoàng Tuấn","type":"user","offset":0,"length":10}],"can_remove":false,"created_time":"2014-04-07T05:47:01+0000","like_count":0,"user_likes":false},"846948055321873":{"id":"846948055321873","from":{"id":"100004005830479","name":"Lam School"},"message":"Những người văn chương thì k học đc tiếng nhật đâu.","can_remove":false,"created_time":"2014-04-07T06:00:38+0000","like_count":2,"user_likes":false},"846948328655179":{"id":"846948328655179","from":{"id":"100001458099624","name":"Kham Pha"},"message":"cảm ơn em đã chia sẻ, nhưng cố gắng viết dễ nhìn hơn nhé :)","can_remove":false,"created_time":"2014-04-07T06:01:33+0000","like_count":2,"user_likes":false},"846948921988453":{"id":"846948921988453","from":{"id":"100000258880251","name":"Carson Yang"},"message":"Ủng hộ bạn !","can_remove":false,"created_time":"2014-04-07T06:03:54+0000","like_count":0,"user_likes":false},"846949735321705":{"id":"846949735321705","from":{"id":"100001583529210","name":"Nguyễn Kim Hà"},"message":"Cám ơn em đã chia sẻ^^","can_remove":false,"created_time":"2014-04-07T06:07:46+0000","like_count":0,"user_likes":false},"846957661987579":{"id":"846957661987579","from":{"id":"100000154183383","name":"Nguyễn Quang Minh"},"message":"bạn nghĩ sao về việc đi tự túc lại tốt hơn việc học ĐH ở VN ? mình k chê bai j bạn đậu. chỉ là con đường kia chưa thực sự tốt cho bạn. Mình chỉ giả sử nếu bạn k có đk để tự túc thì bạn sẽ làm j. hãy đi theo con đường khó khăn để thành công chứ k nên cứ nghĩ đi du học là sẽ thành công. đại học chỉ cho sinh viên cơ hội và sinh viên là ng nắm giữ cơ hội cho chính mình. k đại học nào cho bạn tương lai cả. bạn đã biết đh họ học những j chưa. hay là cứ đi rồi tính. 5 năm học đh của mình ở VN chỉ tốn 25 triệu học phí, học bổng hàng kỳ sau khi trả tiền học vẫn dư 2 triệu cho bạn khao bạn bè ăn nhậu. sao bạn chọn con đường bỏ tiền đi học khi chưa biết có lợi hơn hay k","can_remove":false,"created_time":"2014-04-07T06:36:36+0000","like_count":5,"user_likes":false},"846967835319895":{"id":"846967835319895","from":{"id":"100006775208082","name":"Hugo Bietyeu"},"message":"5 nam hoc ko duoi 200 tr dau ban oi.ban ko tinh tien an tien tro ah.noi chung sang day la khổ day.xd trc di","can_remove":false,"created_time":"2014-04-07T07:04:44+0000","like_count":0,"user_likes":false},"846968401986505":{"id":"846968401986505","from":{"id":"100000154183383","name":"Nguyễn Quang Minh"},"message":"mình chỉ tính học phí thôi mà. ở sg giá cả đắt đổ vậy mà bạn mình cả học phí lẫn ăn, ngủ hết có 2 triệu. quan trọng là bạn tiêu ntn","can_remove":false,"created_time":"2014-04-07T07:07:23+0000","like_count":0,"user_likes":false},"846971981986147":{"id":"846971981986147","from":{"id":"100006775208082","name":"Hugo Bietyeu"},"message":"uh 2 tr 1 thag thi thoai mai.vay5 nam mat 100tr rui.chua ke nhug khoan phat sinh nhe","can_remove":false,"created_time":"2014-04-07T07:19:15+0000","like_count":0,"user_likes":false},"846983611984984":{"id":"846983611984984","from":{"id":"100000154183383","name":"Nguyễn Quang Minh"},"message":"đang nói học phí mà bạn @@ 5 năm mất 100tr con bên kia 5 năm chắc bèo cũng fai cả tỷ đồng @@ chưa kể phát sinh lun.vậy cái nào lợi hơn. tự túc k xấu, nhưng k fai ai đi du học cũng là thành công","can_remove":false,"created_time":"2014-04-07T07:55:25+0000","like_count":1,"user_likes":false},"847005261982819":{"id":"847005261982819","from":{"id":"100007822080156","name":"Mưa Sao Băng"},"message":"nge bên nhật zất vất vả.n vẩn mun đi","can_remove":false,"created_time":"2014-04-07T09:05:34+0000","like_count":0,"user_likes":false},"847028078647204":{"id":"847028078647204","from":{"id":"100002205448646","name":"Dung Tri"},"message":"Tomato Lanh: Viết rất hay, du hơi văn chương một chút ^^","can_remove":false,"created_time":"2014-04-07T10:18:09+0000","like_count":0,"user_likes":false},"847028701980475":{"id":"847028701980475","from":{"id":"100002205448646","name":"Dung Tri"},"message":"Giữa việc học ĐH vs sang du học trường tiếng thì mình vẫn khuyến khích theo học ĐH trước :)","can_remove":false,"created_time":"2014-04-07T10:20:32+0000","like_count":2,"user_likes":false},"847396678610344":{"id":"847396678610344","from":{"id":"100007162899202","name":"Qiu Xian Huang"},"message":"thất bại ở đâu đứng dậy ở đó :-D","can_remove":false,"created_time":"2014-04-07T23:28:46+0000","like_count":0,"user_likes":false},"847738678576144":{"id":"847738678576144","from":{"id":"100003932015617","name":"Xấu Trai Kệ Anh"},"message":"Hay nhỉe","can_remove":false,"created_time":"2014-04-08T13:57:01+0000","like_count":0,"user_likes":false},"847824945234184":{"id":"847824945234184","from":{"id":"100006675074577","name":"Tomato Lạnh"},"message":"e cam on tat ca moi nguoi !","can_remove":false,"created_time":"2014-04-08T16:13:50+0000","like_count":1,"user_likes":false}},"paging":{"cursors":{"after":"ODQ2ODk5MzI1MzI2NzQ2","before":"ODQ2ODk5MzI1MzI2NzQ2"},"next":"https://graph.facebook.com/229244010425617_846897575326921/comments?limit=1&summary=1&after=ODQ2ODk5MzI1MzI2NzQ2"},"summary":{"order":"chronological","total_count":30}}}