{"id":"229244010425617_846950721988273","type":"status","from":{"id":"100003200982730","name":"Vương Nguyên"},"message":"e chào a c trong nhóm. e mới vào nhóm. a c cho e hỏi về tr nhật ngữ I-seifu với ạ? e cảm ơn a c.","created_time":"2014-04-07T06:11:28+0000","updated_time":"2014-04-08T05:10:45+0000","comments":{"data":{"847518248598187":{"id":"847518248598187","from":{"id":"100004007022428","name":"Ngốc Siro"},"message":"có bit bạn ak","can_remove":false,"created_time":"2014-04-08T04:59:48+0000","like_count":0,"user_likes":false},"847518308598181":{"id":"847518308598181","from":{"id":"100004007022428","name":"Ngốc Siro"},"message":"mình ở gần đó...nó ở tenoj","can_remove":false,"created_time":"2014-04-08T05:00:08+0000","like_count":0,"user_likes":false},"847518785264800":{"id":"847518785264800","from":{"id":"100003200982730","name":"Vương Nguyên"},"message":"tr ý thế nào vậy a Ngốc Siro","message_tags":[{"id":"100004007022428","name":"Ngốc Siro","type":"user","offset":19,"length":9}],"can_remove":false,"created_time":"2014-04-08T05:02:24+0000","like_count":0,"user_likes":false},"847518868598125":{"id":"847518868598125","from":{"id":"100003200982730","name":"Vương Nguyên"},"message":"e chưa sang đấy. e muốn hỏi xem tr ý thế nào ạ","can_remove":false,"created_time":"2014-04-08T05:02:51+0000","like_count":0,"user_likes":false},"847518961931449":{"id":"847518961931449","from":{"id":"100004007022428","name":"Ngốc Siro"},"message":"ak..chất lượng dậy cũg tốt bạn ak...pải nói thầy cô giáo cũg khó tính nên pải học đoàg hoàg đó...","can_remove":false,"created_time":"2014-04-08T05:03:24+0000","like_count":0,"user_likes":false},"847519108598101":{"id":"847519108598101","from":{"id":"100004007022428","name":"Ngốc Siro"},"message":"bạn đã đỗ viza chưa vậy","can_remove":false,"created_time":"2014-04-08T05:03:59+0000","like_count":0,"user_likes":false},"847521621931183":{"id":"847521621931183","from":{"id":"100003200982730","name":"Vương Nguyên"},"message":"e vẫn đang làm hồ sơ. nếu đi t10 e ms đi. e đk gặp thầy hiệu trg tr ý oy.","can_remove":false,"created_time":"2014-04-08T05:10:15+0000","like_count":0,"user_likes":false},"847521688597843":{"id":"847521688597843","from":{"id":"100003200982730","name":"Vương Nguyên"},"message":"e thấy pảo tr ý bị kêu nhiều phải k a","can_remove":false,"created_time":"2014-04-08T05:10:39+0000","like_count":0,"user_likes":false},"847521715264507":{"id":"847521715264507","from":{"id":"100003200982730","name":"Vương Nguyên"},"message":"Ngốc Siro","message_tags":[{"id":"100004007022428","name":"Ngốc Siro","type":"user","offset":0,"length":9}],"can_remove":false,"created_time":"2014-04-08T05:10:45+0000","like_count":0,"user_likes":false}},"paging":{"cursors":{"after":"ODQ3NTE4MjQ4NTk4MTg3","before":"ODQ3NTE4MjQ4NTk4MTg3"},"next":"https://graph.facebook.com/229244010425617_846950721988273/comments?limit=1&summary=1&after=ODQ3NTE4MjQ4NTk4MTg3"},"summary":{"order":"chronological","total_count":9}},"likes":{"data":[]}}