{"id":"229244010425617_846928198657192","type":"photo","object_id":"10152101605403719","picture":"https://fbcdn-photos-g-a.akamaihd.net/hphotos-ak-prn1/t1.0-0/923552_10152101605403719_2245851256459511976_s.jpg","link":"https://www.facebook.com/photo.php?fbid=10152101605403719&set=gm.846928198657192&type=1&relevant_count=1","from":{"id":"569263718","name":"Phuong Thao Tran"},"message":"【Văn hóa sử dụng thang máy】Hãy bắt đầu với những ý thức nhỏ...\nĐừng để người khác phải khó chịu và nhận ra người VN không biết \"cách\" đi thang máy bạn nhé.\n\n1. Nếu bạn là người đầu tiên bước vào thang máy, bạn nên nhấn-giữ nút Open giữ cửa với tư thế né sang một bên (để người khác nhấn số) và chờ người cuối cùng.\n2. Nếu thấy thấp thoáng, hoặc có tiếng động của người muốn đi thang máy, mà thang máy đang còn chỗ trống thì lại nhấn nút open để chờ xem có ai cần vào không.\n3. Nếu thang dừng ở tầng nào đó thì bạn nên nhấn-giữ nút open, chờ mọi người ra hết mới nhấn nút close.\n4. Bạn nên thả túi xách, ba lô khỏi vai, lưng, để bớt chiếm không gian trong thang máy, nhường chỗ cho người khác muốn vào\n5. Nếu bạn là người đứng gần bảng điều khiển, bạn nên nhấn giữ nút open cho đến khi người ra khỏi thang máy là bạn.\n6. Không đọc báo giấy, sử dụng điện thoai, ipad... trong thang máy đông người (chiếm dụng không gian)\n7. Tự động dồn, điều chỉnh tư thế bản thân để nhường không gian cho người khác muốn sử dụng thang máy.\n--------------------- Bổ  sung--------\n8.  Nếu bạn là người đứng gần bảng điều khiển và bạn ra khỏi thang máy khi vẫn còn người, hãy ấn CLOSE ngay trước khi bước ra. (Le Dai)\n9. Khi đứng chờ nên đứng sang hai bên, lối ở giữa nhường cho người ở trong đi ra. Người ở trong đi ra hết rồi hãy vào (Mi Tra)\n10.  Không xịt nước hoa quá nhiều chỉ nên thoang thoảng vừa đủ. Không bỏ rác lại trong thang máy (Bùi Ngọc Lê)\n11. Nên hạn chế mùi nước hoa \"tự nhiên\" từ cơ thể (Phuong Thao Tran)\n12. Nếu ở Nhật, nên tập nói \"Suimasen\" thành thói quen khi hành động của mình gây ảnh hưởng đến người khác, dù ít hay nhiều. (Le Dai)\n\nP/s: Các mục trên là mình tự liệt kê ra, bạn nào biết thì bổ sung thêm nhé...!","created_time":"2014-04-07T04:42:57+0000","updated_time":"2014-04-07T16:06:53+0000","likes":{"data":{"100002976213828":{"id":"100002976213828","name":"Nana"},"100001565212169":{"id":"100001565212169","name":"Trần Thanh Hào"},"100006679838217":{"id":"100006679838217","name":"Loan Đỗ"},"100002831514491":{"id":"100002831514491","name":"Hoàng Hữu Trung"},"100001286971334":{"id":"100001286971334","name":"Oắt Dơ Fắc"},"100005903373573":{"id":"100005903373573","name":"HaLinh Phong Phan"},"1784427925":{"id":"1784427925","name":"Hang Vuong"},"620066722":{"id":"620066722","name":"Dong Khac Thai"},"100002709038300":{"id":"100002709038300","name":"Sìu Châu"},"100000500260636":{"id":"100000500260636","name":"Lưu Nguyễn Thảo Tiên"},"100004064402492":{"id":"100004064402492","name":"Hue Dinh"},"1725907325":{"id":"1725907325","name":"Nguyen Van Dung"},"100006974080148":{"id":"100006974080148","name":"Pek Cỏ"},"100005626560548":{"id":"100005626560548","name":"Tony Hoàng"},"100003912810608":{"id":"100003912810608","name":"Thoang Qua"},"100000042881160":{"id":"100000042881160","name":"Nguyen van Hien"},"100001754136107":{"id":"100001754136107","name":"Nguyễn Tuấn Vũ"},"100000045271667":{"id":"100000045271667","name":"Nam Thai Nguyen"},"1146680551":{"id":"1146680551","name":"優しい なぁ"},"100003099524479":{"id":"100003099524479","name":"Thành Nguyễn"},"100001526631937":{"id":"100001526631937","name":"Tường Oanh Mineko"},"791148863":{"id":"791148863","name":"Hồ Long Ẩn"},"100000110765909":{"id":"100000110765909","name":"Thảo Nguyễn"},"100000456391246":{"id":"100000456391246","name":"ʚïɞ Hiền ʚïɞ"},"100003005597243":{"id":"100003005597243","name":"Zany Royal"},"100000419436597":{"id":"100000419436597","name":"Bùi Ngọc Lê"},"1416265619":{"id":"1416265619","name":"Starwar Bbj"},"100005804586628":{"id":"100005804586628","name":"Huyền Phạm"},"100001185300979":{"id":"100001185300979","name":"Tuyen Nguyen"},"1369942664":{"id":"1369942664","name":"Cloudy Aut"},"100001997065377":{"id":"100001997065377","name":"Võ Minh Trang"},"646133003":{"id":"646133003","name":"Gipsy Ng"},"100003108351809":{"id":"100003108351809","name":"Tôm Yêu Em"},"100003181743412":{"id":"100003181743412","name":"Pham Kha"},"100001432462223":{"id":"100001432462223","name":"Truong Nguyen"},"100003168663740":{"id":"100003168663740","name":"Ớt Ngọt"},"100006716646759":{"id":"100006716646759","name":"Huy Thắng"},"100000359762118":{"id":"100000359762118","name":"Mi Tra"},"100008035780803":{"id":"100008035780803","name":"Chợ Đồ"}},"paging":{"cursors":{"after":"MTAwMDAyOTc2MjEzODI4","before":"MTAwMDAyOTc2MjEzODI4"},"next":"https://graph.facebook.com/229244010425617_846928198657192/likes?limit=1&summary=1&after=MTAwMDAyOTc2MjEzODI4"},"summary":{"total_count":39}},"comments":{"data":{"846929795323699":{"id":"846929795323699","from":{"id":"824089766","name":"Le Dai"},"message":"Nếu bạn là người đứng gần bảng điều khiển và bạn ra khỏi thang máy khi vẫn còn người, hãy ấn CLOSE ngay trước khi bước ra.","can_remove":false,"created_time":"2014-04-07T04:49:10+0000","like_count":1,"user_likes":false},"846929911990354":{"id":"846929911990354","from":{"id":"100001614233452","name":"Hienvit Duckling"},"message":"Em nghĩ còn nữa đó là:  đứng đợi ở 2 bên cửa của thang máy chứ đừng có phi thẳng tới giữa cửa của thang máy đứng, và đợi người trong thang máy ra thì mới bước vào... ;)","can_remove":false,"created_time":"2014-04-07T04:49:42+0000","like_count":2,"user_likes":false},"846930111990334":{"id":"846930111990334","from":{"id":"100000359762118","name":"Mi Tra"},"message":"Đầu tiên có lẽ là đứng chờ thang máy.\nKhi đứng chờ nên đứng sang hai bên, lối ở giữa nhường cho người ở trong đi ra. Người ở trong đi ra hết rồi hãy vào","can_remove":false,"created_time":"2014-04-07T04:50:32+0000","like_count":5,"user_likes":false},"846930125323666":{"id":"846930125323666","from":{"id":"824089766","name":"Le Dai"},"message":"Cái trên áp dụng cho cả tàu điện.","can_remove":false,"created_time":"2014-04-07T04:50:35+0000","like_count":0,"user_likes":false},"846933571989988":{"id":"846933571989988","from":{"id":"100001432462223","name":"Truong Nguyen"},"message":"Phụ nữ nên trang điểm nhẹ, mang ít phụ kiện để tăng khả năng chứa người trong thang máy :v","can_remove":false,"created_time":"2014-04-07T05:01:16+0000","like_count":0,"user_likes":false},"846941411989204":{"id":"846941411989204","from":{"id":"100000419436597","name":"Bùi Ngọc Lê"},"message":"Không xịt nước hoa quá nhiều chỉ nên thoang thoảng vừa đủ. Không bỏ rác lại trong thang máy","can_remove":false,"created_time":"2014-04-07T05:33:11+0000","like_count":1,"user_likes":false},"846943331989012":{"id":"846943331989012","from":{"id":"569263718","name":"Phuong Thao Tran"},"message":"Nên hạn chế mùi nước hoa \"tự nhiên\" từ cơ thể...","can_remove":false,"created_time":"2014-04-07T05:41:22+0000","like_count":1,"user_likes":false},"846951051988240":{"id":"846951051988240","from":{"id":"1146680551","name":"優しい なぁ"},"message":"Thấy người Nhật hay nói \" suimasen \" khi họ bước vào thang máy, hay khẽ cúi chào. :)","can_remove":false,"created_time":"2014-04-07T06:12:45+0000","like_count":2,"user_likes":false},"846952365321442":{"id":"846952365321442","from":{"id":"824089766","name":"Le Dai"},"message":"Nên tập nói \"Suimasen\" thành thói quen khi hành động của mình gây ảnh hưởng đến người khác, dù ít hay nhiều.","can_remove":false,"created_time":"2014-04-07T06:16:25+0000","like_count":1,"user_likes":false},"847002841983061":{"id":"847002841983061","from":{"id":"620066722","name":"Dong Khac Thai"},"message":"Mình có vào Etown ở Hcm 1 số lần và ít thấy ai nhấn nút giữ cửa cho ng vào và ng ra.","can_remove":false,"created_time":"2014-04-07T08:58:14+0000","like_count":0,"user_likes":false},"847006541982691":{"id":"847006541982691","from":{"id":"569263718","name":"Phuong Thao Tran"},"message":"Dong Khac Thai ở VN hầu như rất ít khi nhìn thấy đc những hình ảnh trên, nên nếu thấy ai làm những động tác trên thì có thể đoán sơ sơ profile của họ, :)","message_tags":[{"id":"620066722","name":"Dong Khac Thai","type":"user","offset":0,"length":14}],"can_remove":false,"created_time":"2014-04-07T09:10:39+0000","like_count":0,"user_likes":false},"847011715315507":{"id":"847011715315507","from":{"id":"620066722","name":"Dong Khac Thai"},"message":"Dạ còn nhiều mặt phải thay đổi.","can_remove":false,"created_time":"2014-04-07T09:25:25+0000","like_count":0,"user_likes":false},"847199531963392":{"id":"847199531963392","from":{"id":"683231044","name":"Hoàng Hải Đăng"},"message":"Ko nói chuyện cá nhân trong thang máy","can_remove":false,"created_time":"2014-04-07T16:04:49+0000","like_count":0,"user_likes":false},"847201141963231":{"id":"847201141963231","from":{"id":"569263718","name":"Phuong Thao Tran"},"message":"vậy nói chuyện tập thể nhé Hoàng Hải Đăng, :)","message_tags":[{"id":"683231044","name":"Hoàng Hải Đăng","type":"user","offset":27,"length":14}],"can_remove":false,"created_time":"2014-04-07T16:06:53+0000","like_count":0,"user_likes":false}},"paging":{"cursors":{"after":"ODQ2OTI5Nzk1MzIzNjk5","before":"ODQ2OTI5Nzk1MzIzNjk5"},"next":"https://graph.facebook.com/229244010425617_846928198657192/comments?limit=1&summary=1&after=ODQ2OTI5Nzk1MzIzNjk5"},"summary":{"order":"chronological","total_count":14}}}