{"id":"229244010425617_847062245310454","type":"link","picture":"https://fbexternal-a.akamaihd.net/safe_image.php?d=AQAPKmHO1QNg-Z5_&w=154&h=154&url=http%3A%2F%2Fstatic9.nguyentandung.org%2Ffiles%2F2014%2F04%2Fsv_vn_bi_truc_xuat_kienthuc1_bnhm.jpg","link":"http://nguyentandung.org/nhat-truc-xuat-24-du-hoc-sinh-viet-nam.html","from":{"id":"100002966928087","name":"Nguyen van Dat"},"message":"mọi người chú ý nhé http://nguyentandung.org/nhat-truc-xuat-24-du-hoc-sinh-viet-nam.html","created_time":"2014-04-07T11:40:00+0000","updated_time":"2014-04-08T04:40:44+0000","likes":{"data":{"100006735010872":{"id":"100006735010872","name":"Dao Van Hiep"},"100003857157932":{"id":"100003857157932","name":"Trâm Tâm Lý"},"100007194216325":{"id":"100007194216325","name":"Dung Kute"},"100004057374771":{"id":"100004057374771","name":"Sao Bang Vo Tinh"},"100004001968197":{"id":"100004001968197","name":"Hằng Nguyễn"},"100000176631338":{"id":"100000176631338","name":"Hà Phương"},"100003269334465":{"id":"100003269334465","name":"Hongnhi Nguyen"},"100003069246142":{"id":"100003069246142","name":"Hồng Trịnh"},"100004075308762":{"id":"100004075308762","name":"Lie Lie"},"100003796563086":{"id":"100003796563086","name":"Thanh Nga Pham"},"100001074875869":{"id":"100001074875869","name":"Ly Hoang"},"100002892549628":{"id":"100002892549628","name":"Hải Hà"},"100005288370382":{"id":"100005288370382","name":"Đức Vang"},"100005082210114":{"id":"100005082210114","name":"Tieu Thu Lo Lem"},"100003286539406":{"id":"100003286539406","name":"Kaori Chan"},"100001448718351":{"id":"100001448718351","name":"Vũ Văn Đạt"},"100006883026024":{"id":"100006883026024","name":"Minh Anh Vũ"},"1846809835":{"id":"1846809835","name":"Dorae Phương"},"100002147884296":{"id":"100002147884296","name":"Ngoc Tran"},"100001663326777":{"id":"100001663326777","name":"Yuri Chan"},"100001872458112":{"id":"100001872458112","name":"Alita Nguyen"},"100007918629775":{"id":"100007918629775","name":"Quốc Đạt"},"100007961291110":{"id":"100007961291110","name":"Làm Lại Từ Đầu"},"100006642314151":{"id":"100006642314151","name":"さむくない ふゆ"},"100004332271111":{"id":"100004332271111","name":"Rainbow Smile"},"100003644911696":{"id":"100003644911696","name":"Manh Tran Dang"},"100003292057722":{"id":"100003292057722","name":"Ánh Mặt Trời"},"100002672409491":{"id":"100002672409491","name":"Yến Lê"},"100004441321299":{"id":"100004441321299","name":"Ngôn Phi"},"100005529851429":{"id":"100005529851429","name":"Nguyen Khuyen"},"100003734874697":{"id":"100003734874697","name":"Phương Thúy"},"100006907235659":{"id":"100006907235659","name":"Thao Van"},"100003799046445":{"id":"100003799046445","name":"Ánh Cỏ"},"100005673701091":{"id":"100005673701091","name":"Ngọc Bích"},"100008015290770":{"id":"100008015290770","name":"Mi Nhon"},"100002975299796":{"id":"100002975299796","name":"Trinh Tuan Anh"},"100007855482283":{"id":"100007855482283","name":"Tuan Anh"},"100006851160906":{"id":"100006851160906","name":"Chu Thị Hồng"},"100003849703111":{"id":"100003849703111","name":"Bằng Lê Ngọc Nguyễn"},"100005211189763":{"id":"100005211189763","name":"Oliveu Cchann"},"100003853752853":{"id":"100003853752853","name":"Khanh Vy Le"},"100003560030685":{"id":"100003560030685","name":"Ngo Thanh"},"100000504109240":{"id":"100000504109240","name":"Khánh Trình"},"100001778212258":{"id":"100001778212258","name":"Cong Thien Nguyen"},"100004220984471":{"id":"100004220984471","name":"Thanh Mai"},"100003748618992":{"id":"100003748618992","name":"Nguyen Tien Hiep"},"100007086630996":{"id":"100007086630996","name":"Công Xa Cơ"},"100005630321105":{"id":"100005630321105","name":"Can Phong Bang"},"100007822384290":{"id":"100007822384290","name":"Hop Truong"},"100001705570585":{"id":"100001705570585","name":"Nguyễn Linh"},"100001260645727":{"id":"100001260645727","name":"Ngo Duy Son"},"100007219960554":{"id":"100007219960554","name":"Chàng Trai SongTử"},"100003815740456":{"id":"100003815740456","name":"Giam Doc Thang"},"100000005117986":{"id":"100000005117986","name":"Tăng Tiên Sinh"},"100002918208166":{"id":"100002918208166","name":"Quan Okmen"},"100005834653445":{"id":"100005834653445","name":"Thanh Nguyễn"},"100007629041409":{"id":"100007629041409","name":"Trần Trung Hiếu"},"1778354324":{"id":"1778354324","name":"Sơn Ken"},"100004205319059":{"id":"100004205319059","name":"Bắc Phạm"},"100007293188338":{"id":"100007293188338","name":"Dương Lê"},"100003748960104":{"id":"100003748960104","name":"Minh Phuong"},"100006590884923":{"id":"100006590884923","name":"Rubi Nguyễn"},"1394148660":{"id":"1394148660","name":"Cừu Non"},"100004126231481":{"id":"100004126231481","name":"Anh Nguyen"},"100000008054518":{"id":"100000008054518","name":"Ki Lo"},"100002966928087":{"id":"100002966928087","name":"Nguyen van Dat"},"100000445470443":{"id":"100000445470443","name":"Linh Chi"},"100003245420682":{"id":"100003245420682","name":"Thỏ Ngọc Usagi"},"100004784233958":{"id":"100004784233958","name":"NO Bita"},"100003764831225":{"id":"100003764831225","name":"Nguyễn Hoàng"},"100004569372269":{"id":"100004569372269","name":"Thuỷ Nguyễn"},"100003539230092":{"id":"100003539230092","name":"Trang Maika"},"1283298041":{"id":"1283298041","name":"Búa Đức Thanh"},"100003929319677":{"id":"100003929319677","name":"Tâm Cò"}},"paging":{"cursors":{"after":"MTAwMDA2NzM1MDEwODcy","before":"MTAwMDA2NzM1MDEwODcy"},"next":"https://graph.facebook.com/229244010425617_847062245310454/likes?limit=1&summary=1&after=MTAwMDA2NzM1MDEwODcy"},"summary":{"total_count":75}},"comments":{"data":{"847064808643531":{"id":"847064808643531","from":{"id":"100003764831225","name":"Nguyễn Hoàng"},"message":"Carazy Tuan chú xem nhe.phai can than sap di roi day","message_tags":[{"id":"100004036697057","name":"Carazy Tuan","type":"user","offset":0,"length":11}],"can_remove":false,"created_time":"2014-04-07T11:48:28+0000","like_count":0,"user_likes":false},"847065485310130":{"id":"847065485310130","from":{"id":"100001625929750","name":"Tuấn Hp"},"message":"Mạnh Tạ","message_tags":[{"id":"100000991663833","name":"Mạnh Tạ","type":"user","offset":0,"length":7}],"can_remove":false,"created_time":"2014-04-07T11:50:24+0000","like_count":0,"user_likes":false},"847065808643431":{"id":"847065808643431","from":{"id":"569263718","name":"Phuong Thao Tran"},"message":"do link đã được post nhiều lần, nên post này sẽ bị xóa nhé!","can_remove":false,"created_time":"2014-04-07T11:51:19+0000","like_count":0,"user_likes":false},"847067445309934":{"id":"847067445309934","from":{"id":"100002966928087","name":"Nguyen van Dat"},"message":"đã thấy ai pot đâu,mà chắc còn nhiều người chưa biêt","can_remove":false,"created_time":"2014-04-07T11:55:30+0000","like_count":0,"user_likes":false},"847071181976227":{"id":"847071181976227","from":{"id":"100002695613148","name":"Tam Sinh Duyen"},"message":"Trên báo cũng đăng tin này...","can_remove":false,"created_time":"2014-04-07T12:02:10+0000","like_count":0,"user_likes":false},"847078315308847":{"id":"847078315308847","from":{"id":"100002710818496","name":"Duy Duy"},"message":"Aisiteru Aisiteru chu y em zai nhe","message_tags":[{"id":"100003671746604","name":"Aisiteru Aisiteru","type":"user","offset":0,"length":17}],"can_remove":false,"created_time":"2014-04-07T12:21:01+0000","like_count":0,"user_likes":false},"847082431975102":{"id":"847082431975102","from":{"id":"100002539219069","name":"Ngân Oanh"},"message":"haizzz... miếng cơm manh áo...!!!","can_remove":false,"created_time":"2014-04-07T12:31:45+0000","like_count":0,"user_likes":false},"847090578640954":{"id":"847090578640954","from":{"id":"100002003096932","name":"Em Diep Em Lam"},"message":"Nikkei chỉ nói điều tra,làm gì có chỗ nào trục xuất nhể???","can_remove":false,"created_time":"2014-04-07T12:47:25+0000","like_count":0,"user_likes":false},"847103305306348":{"id":"847103305306348","from":{"id":"100006182112994","name":"Người Dưng"},"message":"Nguyễn Ngọc Ánh","message_tags":[{"id":"100004823948087","name":"Nguyễn Ngọc Ánh","type":"user","offset":0,"length":15}],"can_remove":false,"created_time":"2014-04-07T13:12:12+0000","like_count":1,"user_likes":false},"847104961972849":{"id":"847104961972849","from":{"id":"100007295862307","name":"Boy Bánh Bèo B"},"message":"chém ak","can_remove":false,"created_time":"2014-04-07T13:15:20+0000","like_count":0,"user_likes":false},"847111831972162":{"id":"847111831972162","from":{"id":"100000419436597","name":"Bùi Ngọc Lê"},"message":"Huong Xuan đọc kỹ nhé","message_tags":[{"id":"620657352","name":"Huong Xuan","type":"user","offset":0,"length":10}],"can_remove":false,"created_time":"2014-04-07T13:32:39+0000","like_count":0,"user_likes":false},"847116331971712":{"id":"847116331971712","from":{"id":"100004702509437","name":"Đỗ Duy"},"message":"cho về hết đê. Bắt đi lại từ đầu tất cả","can_remove":false,"created_time":"2014-04-07T13:42:21+0000","like_count":0,"user_likes":false},"847116435305035":{"id":"847116435305035","from":{"id":"100004702509437","name":"Đỗ Duy"},"message":"làm mới cho no sướng","can_remove":false,"created_time":"2014-04-07T13:42:29+0000","like_count":0,"user_likes":false},"847168738633138":{"id":"847168738633138","from":{"id":"100002147884296","name":"Ngoc Tran"},"message":"Kho nhị","can_remove":false,"created_time":"2014-04-07T15:25:18+0000","like_count":0,"user_likes":false},"847407768609235":{"id":"847407768609235","from":{"id":"100004057374771","name":"Sao Bang Vo Tinh"},"message":"Kho he","can_remove":false,"created_time":"2014-04-08T00:04:29+0000","like_count":0,"user_likes":false},"847506161932729":{"id":"847506161932729","from":{"id":"100006189572428","name":"Thái Tuấn"},"message":"Dũng ơi sai lầm rùi người lao động ko có tội","can_remove":false,"created_time":"2014-04-08T04:32:27+0000","like_count":0,"user_likes":false},"847510351932310":{"id":"847510351932310","from":{"id":"100003800715916","name":"Rubic Angel"},"message":"sao giống ngây trước vậy? Phan Bội Châu cùng một số du học sinh cũng bị trục  xuất khỏi Nhật do phong trào Đông Du..","can_remove":false,"created_time":"2014-04-08T04:40:44+0000","like_count":0,"user_likes":false}},"paging":{"cursors":{"after":"ODQ3MDY0ODA4NjQzNTMx","before":"ODQ3MDY0ODA4NjQzNTMx"},"next":"https://graph.facebook.com/229244010425617_847062245310454/comments?limit=1&summary=1&after=ODQ3MDY0ODA4NjQzNTMx"},"summary":{"order":"chronological","total_count":17}}}