{"id":"229244010425617_847079925308686","type":"status","from":{"id":"100007530217391","name":"Speaker  Native"},"message":"「とんでもない」đây là câu làm cho người việt khó hiểu vì người nhật cũng dịch ra không được. Nên hôm nay để mình giải thích bằng cảm giác.\nÝ nghĩa của nó cũng giống như「とてつもない」: sự lớn vô cùng, bất thường nhưng nó khác một chỗ 「とんでもない」 là khiêm tốn với câu phủ định.\n\nTừ câu thường -> lịch sự: \nとんでもない\nとんでもないです\nとんでもございません\nとんでもない事でございます\n\n❇︎Cách dùng cơ bản: Vì nó có nghĩa là \"sự lớn vô cùng\" nên có thể dịch thành khủng khiếp, khen cũng được, chê cũng được, giật mình cũng được.\n\n機長まで盗品を密輸するなんて\"とんでもない話\"だ。\nĐến cả phi công mà cũng làm những chuyện buôn lậu, \"chuyện khủng khiếp\" thiệt.\n\n⁑とんでもなくA: A lớn vô cùng.\n\nとんでもなく凄い物を開発する。\nPhát triển đồ rất vĩ đại.\n\n彼のはとんでもなく大きい: P\nCái của anh ta to lớn vô cùng: p\n\n∴Cho nên khi mình nhận được cái gì, dùng câu này sẽ thể hiện sự khiêm tốn.\n\n謝礼なんて\"とんでもございません。\"\nTôi không xứng đáng nhận tiền cảm tạ này đâu. \n( Tiền cảm tạ thì đối với tôi quá lớn )\n\n私のような凡才が最優秀賞に選ばれるなんて\"とんでもない事でございます。\"\nNgười tầm thường như tôi không xứng đáng được lựa giải quán quân.\n( Người tầm thường như tôi được lựa giải quán quân thì đối với tôi lớn quá đi mất)\n\n∵Dùng cho bản thân mình sẽ thành khiêm tốn, nhưng dùng cho người đối diện thì thành phủ định rất nặng vì nó mang nghĩa giống như trên.\n\n「給料を上げるなんてとんでもないです。」\nNhững chuyện tăng lương lên thỳ とんでもないです。\n\n↑\nTự người nhân viên và ông chủ nói thì ý nghĩa sẽ khác.\n\nとんでもない，宝くじに当たるわけがないよ。\nKhông thể nào, làm sao mà trúng vé số.\n\n番外編:\n\n私がハンサムで頭の良い、優秀な日本語の先生だなんてとんでもございます〜。♪(´ε｀ )","created_time":"2014-04-07T12:24:48+0000","updated_time":"2014-04-07T14:56:28+0000","likes":{"data":{"1821970083":{"id":"1821970083","name":"Nguyễn Mạnh Cường"},"100002999756689":{"id":"100002999756689","name":"Lắng Nghe"},"100001335019213":{"id":"100001335019213","name":"Cuong Phan"},"100004083155555":{"id":"100004083155555","name":"Mẹ Tại"},"100002887947757":{"id":"100002887947757","name":"Nguyen Dang"},"779812883":{"id":"779812883","name":"Nguyen NgocAnh"},"100000154325668":{"id":"100000154325668","name":"Lam Buong Binh"},"1261612220":{"id":"1261612220","name":"Nguyen Thi Thuy Duong"},"100000309415626":{"id":"100000309415626","name":"Kona Yuki"},"100001286971334":{"id":"100001286971334","name":"Oắt Dơ Fắc"},"1369942664":{"id":"1369942664","name":"Cloudy Aut"},"100001526631937":{"id":"100001526631937","name":"Tường Oanh Mineko"},"100002615664668":{"id":"100002615664668","name":"PuPu Phương Elf"},"100000076592588":{"id":"100000076592588","name":"Trúc Lê"},"525828985":{"id":"525828985","name":"Cindy Taiki"},"1778384200":{"id":"1778384200","name":"Trần Hạnh"},"100002716525116":{"id":"100002716525116","name":"Nguyễn Tất Nguyên"},"100001416272263":{"id":"100001416272263","name":"Mai PB"},"100002449514019":{"id":"100002449514019","name":"Lương Hoa"},"100005307004792":{"id":"100005307004792","name":"Kiều Văn"},"1278668475":{"id":"1278668475","name":"Da Buon"},"100004094346107":{"id":"100004094346107","name":"Thuy Nga Nguyen"},"100003105034037":{"id":"100003105034037","name":"Pham Oanh"},"100000973058335":{"id":"100000973058335","name":"Tuong Dau"},"1146680551":{"id":"1146680551","name":"優しい なぁ"},"100001475884878":{"id":"100001475884878","name":"Mắt Buồn"},"100003155380603":{"id":"100003155380603","name":"Khuong Pham"},"100005866751996":{"id":"100005866751996","name":"Nam Nguyen"},"569263718":{"id":"569263718","name":"Phuong Thao Tran"},"1026780646":{"id":"1026780646","name":"Việt Hưng Khổng"},"100007728841810":{"id":"100007728841810","name":"Rắc Iốt"},"100005917954526":{"id":"100005917954526","name":"Người Hoa Gốc Việt"},"100006422374901":{"id":"100006422374901","name":"Nguyễn Hoàng Trung"},"100001324611896":{"id":"100001324611896","name":"Meo Luoi"},"100003913383051":{"id":"100003913383051","name":"Tho Tran"},"100003129280901":{"id":"100003129280901","name":"Phan Thuy Hang"},"100000221147466":{"id":"100000221147466","name":"Kiệt Nguyễn"}},"paging":{"cursors":{"after":"MTgyMTk3MDA4Mw==","before":"MTgyMTk3MDA4Mw=="},"next":"https://graph.facebook.com/229244010425617_847079925308686/likes?limit=1&summary=1&after=MTgyMTk3MDA4Mw%3D%3D"},"summary":{"total_count":37}},"comments":{"data":{"847080208641991":{"id":"847080208641991","from":{"id":"100007530217391","name":"Speaker  Native"},"message":"機長 きちょう\n盗品 とうひん\n密輸 みつゆ\n凄い すごい\n開発 かいはつ\n大きい:p おおきい :p\n謝礼 しゃれい\n凡才 ぼんさい\n最優秀賞 さいゆうしゅうしょう\n給料 きゅうりょう\n番外編 ばんがいへん","can_remove":false,"created_time":"2014-04-07T12:25:32+0000","like_count":2,"user_likes":false},"847081895308489":{"id":"847081895308489","from":{"id":"100001324611896","name":"Meo Luoi"},"message":"Mình cũng thắc mắc hoài k hiểu thực ra nghĩa của câu đó là gì !!! Bây giờ thì hiểu chút rồi ạ !!! Thank thầy","can_remove":false,"created_time":"2014-04-07T12:30:14+0000","like_count":1,"user_likes":false},"847082198641792":{"id":"847082198641792","from":{"id":"100001324611896","name":"Meo Luoi"},"message":"Nhưng câu cuối cùng không có hiểu lắm ạ","can_remove":false,"created_time":"2014-04-07T12:31:07+0000","like_count":0,"user_likes":false},"847082318641780":{"id":"847082318641780","from":{"id":"100007530217391","name":"Speaker  Native"},"message":"「とんでもございません」là tiếng Nhật sai vì \"とんでもない\" bao gồm cả  \"ない\"\nlà một từ. Nhưng hiện tại thì nhiều người chấp nhận rồi.\n\nVí dụ..\n\nやるせない\nせつない\nかたじけない\nはしたない\nおっかない\nつぐない\nあぶない\nきたない\nつじあきない\nすくない\nめんもくない\nいたいけない\nあどけない\nおさない\nいざない\nおこない\n\nNgoài ra còn rất nhiều từ khác kết thúc bằng ない.\nNếu bạn nào muốn thành rapper tiếng Nhật thì thuộc lòng nhé.","can_remove":false,"created_time":"2014-04-07T12:31:28+0000","like_count":4,"user_likes":false},"847084718641540":{"id":"847084718641540","from":{"id":"100007530217391","name":"Speaker  Native"},"message":"とんでも\"ございます\"。  ←just a kidding with wrong Japanese.","can_remove":false,"created_time":"2014-04-07T12:37:07+0000","like_count":1,"user_likes":false},"847085495308129":{"id":"847085495308129","from":{"id":"569263718","name":"Phuong Thao Tran"},"message":"Speaker Native さん、謙遜は自慢の４倍というベトナム語の諺があるわ、 (^_-)","message_tags":[{"id":"100007530217391","name":"Speaker Native","type":"user","offset":0,"length":14}],"can_remove":false,"created_time":"2014-04-07T12:38:06+0000","like_count":0,"user_likes":false},"847086428641369":{"id":"847086428641369","from":{"id":"569263718","name":"Phuong Thao Tran"},"message":"だって、あざすやで。。。, ^^","can_remove":false,"created_time":"2014-04-07T12:39:14+0000","like_count":0,"user_likes":false},"847093408640671":{"id":"847093408640671","from":{"id":"1146680551","name":"優しい なぁ"},"message":"とんでもない:(^_-)","can_remove":false,"created_time":"2014-04-07T12:52:40+0000","like_count":0,"user_likes":false},"847128028637209":{"id":"847128028637209","from":{"id":"100007530217391","name":"Speaker  Native"},"message":"(^_-) ←？ くわしい説明お願いします。","can_remove":false,"created_time":"2014-04-07T14:06:50+0000","like_count":1,"user_likes":false},"847134761969869":{"id":"847134761969869","from":{"id":"100006089102969","name":"カメ 悪い"},"message":"とんでもない lôi nó ra bàn cả ngày =))\nChả khác gì lôi かける、当たる ra bàn cả :))","can_remove":false,"created_time":"2014-04-07T14:17:45+0000","like_count":0,"user_likes":false},"847143705302308":{"id":"847143705302308","from":{"id":"100006089102969","name":"カメ 悪い"},"message":"Anh nói gì ạ em ko hiểu tiếng nhật =))","can_remove":false,"created_time":"2014-04-07T14:32:19+0000","like_count":0,"user_likes":false},"847143935302285":{"id":"847143935302285","from":{"id":"100006089102969","name":"カメ 悪い"},"message":"Mà hình như tiếng trung ạ :v","can_remove":false,"created_time":"2014-04-07T14:32:42+0000","like_count":0,"user_likes":false},"847146465302032":{"id":"847146465302032","from":{"id":"100006089102969","name":"カメ 悪い"},"message":"Sao sao cơ ạ =))\nEm k hiểu =))","can_remove":false,"created_time":"2014-04-07T14:35:39+0000","like_count":0,"user_likes":false},"847148781968467":{"id":"847148781968467","from":{"id":"100002424045951","name":"Hoàng Tùng Anh"},"message":"=))","can_remove":false,"created_time":"2014-04-07T14:39:08+0000","like_count":0,"user_likes":false},"847153228634689":{"id":"847153228634689","from":{"id":"100006089102969","name":"カメ 悪い"},"message":"Ô thì em có biết tiếng nhật đâu\nChết vô cộng đồng việt lào bấm nhầm vô cộng đồng việt nhật à \nMới đầu nhìn chữ mù mờ tưởng tiếng trung cơ\nRa đây là tiếng nhật =))\nP/s cuối cùng cũng type dc mấy chữ việt à =))","can_remove":false,"created_time":"2014-04-07T14:49:37+0000","like_count":0,"user_likes":false},"847154115301267":{"id":"847154115301267","from":{"id":"100006089102969","name":"カメ 悪い"},"message":"Lại viết gì đấy =))\nKhổ thật :((","can_remove":false,"created_time":"2014-04-07T14:52:27+0000","like_count":1,"user_likes":false},"847156238634388":{"id":"847156238634388","from":{"id":"100002424045951","name":"Hoàng Tùng Anh"},"message":"（＾∇＾）","can_remove":false,"created_time":"2014-04-07T14:56:28+0000","like_count":0,"user_likes":false}},"paging":{"cursors":{"after":"ODQ3MDgwMjA4NjQxOTkx","before":"ODQ3MDgwMjA4NjQxOTkx"},"next":"https://graph.facebook.com/229244010425617_847079925308686/comments?limit=1&summary=1&after=ODQ3MDgwMjA4NjQxOTkx"},"summary":{"order":"chronological","total_count":18}}}