{"id":"229244010425617_847073551975990","type":"video","picture":"https://fbexternal-a.akamaihd.net/safe_image.php?d=AQD8QOJpTN4ubf1f&w=130&h=130&url=http%3A%2F%2Fi1.ytimg.com%2Fvi%2Fx9i6aUxE2ZY%2Fhqdefault.jpg","link":"https://www.youtube.com/watch?v=x9i6aUxE2ZY&list=PLINFE8v4DOhtY9kWdx1pYYeoBumBwETUd","source":"http://www.youtube.com/v/x9i6aUxE2ZY?version=3&list=PLINFE8v4DOhtY9kWdx1pYYeoBumBwETUd&autoplay=1","from":{"id":"1725907325","name":"Nguyen Van Dung"},"message":"Đến giờ học bài rồi.\n勉強する時間になった。\n\n今日は、関西弁の言葉を学ぼうね\nhôm nay chúng ta cùng học tiếng vùng kansai nhé\n\n先生は超(ちょう）かわいいよ\nCô giáo xinh vãi ~\n\n9 từ mới trong bài như sau:\n\n1. おおきに　＝　ありがとう = cám ơn (là từ được người lớn tuổi sử dụng, giới trẻ ít sử dụng)\n\n２．なんぼ　＝　いくら bao nhiêu\n\n３．せやで　＝　そうだね \"ừ\" (dùng khi đồng ý với ý kiến của đối phương)\n\n４．しんどい　＝　つかれる mệt (quá)\n\n５．えげつない　＝　やばい bỏ mẹ, chết cha (Trong clip: món ăn này dở tệ)\n\n6．なんでやねん　＝　なんでそうなるの？ = Sao lại thế?\n\n7．まくど　＝　マクドナルド = quán McDonald\n\n8．べっぴん　＝　びじん = Người đẹp\nみさ先生はべっぴんですね。\n\n9．あめちゃん　＝　あめ = kẹo \n\nNgoài ra cô giáo còn hay sử dụng từ\n\n10.ほんまに　＝　ほんとうに = thật sự.. là (rất)\n\nYoutubeでコメントをみさ先生に残してね\nđể lại tin nhắn trên youtube cho cô giáo Misa nhé.","created_time":"2014-04-07T12:08:51+0000","updated_time":"2014-04-08T11:25:09+0000","likes":{"data":{"1717530880":{"id":"1717530880","name":"Triệu Việt Cường"},"100001432462223":{"id":"100001432462223","name":"Truong Nguyen"},"100003657473061":{"id":"100003657473061","name":"Vu Trung Kien"},"100002475846364":{"id":"100002475846364","name":"Hisayuki Asai"},"100001592953699":{"id":"100001592953699","name":"Trúc Phạm"},"100003676414929":{"id":"100003676414929","name":"Au Kute"},"100002531562253":{"id":"100002531562253","name":"Tuyet Nguyen"},"100000176631338":{"id":"100000176631338","name":"Hà Phương"},"100000342230134":{"id":"100000342230134","name":"Thuy Le"},"100003918707209":{"id":"100003918707209","name":"Thunguyet Nguyen"},"100002918208166":{"id":"100002918208166","name":"Quan Okmen"},"100000067213449":{"id":"100000067213449","name":"Nguyễn Thị Quyên"},"100003564836780":{"id":"100003564836780","name":"Đỗ Văn Quyết"},"100006935774342":{"id":"100006935774342","name":"Thuan  Tran Cong"},"100005677081544":{"id":"100005677081544","name":"Su Su"},"100001663326777":{"id":"100001663326777","name":"Yuri Chan"},"100001526631937":{"id":"100001526631937","name":"Tường Oanh Mineko"},"1148962646":{"id":"1148962646","name":"Tran Thi Tuong Van"},"100007514527313":{"id":"100007514527313","name":"Phan Tuấn Vũ"},"100004601049837":{"id":"100004601049837","name":"Hồng Lê"},"1850147953":{"id":"1850147953","name":"Rùa Con"},"100003165545289":{"id":"100003165545289","name":"Tuyền Dương"},"100004098754348":{"id":"100004098754348","name":"YeongJin Ha"},"100003686602180":{"id":"100003686602180","name":"Linh Pham"},"100002941809570":{"id":"100002941809570","name":"Hằng Nguyễn"},"100004368162869":{"id":"100004368162869","name":"Yenthuy Le"},"100004712551712":{"id":"100004712551712","name":"Pe Hoai"},"1234763221":{"id":"1234763221","name":"Samatha Sam"},"100007236487366":{"id":"100007236487366","name":"Thanh Tam"},"100007930417031":{"id":"100007930417031","name":"Trang Yamato"},"100001416272263":{"id":"100001416272263","name":"Mai PB"},"100003465567929":{"id":"100003465567929","name":"Lê Chi"},"100002463709594":{"id":"100002463709594","name":"Nguyen Huyen Thanh"},"100000110765909":{"id":"100000110765909","name":"Thảo Nguyễn"},"100001057467030":{"id":"100001057467030","name":"Buông Tay"},"100003102044053":{"id":"100003102044053","name":"Kitaro Quy"},"100003036901956":{"id":"100003036901956","name":"D Trường Tộ"},"100006734168968":{"id":"100006734168968","name":"Tiểu Nhân Mã"},"100002139602541":{"id":"100002139602541","name":"Shunya Tamaki"},"100001995633843":{"id":"100001995633843","name":"Yasunobu Toda"},"1416265619":{"id":"1416265619","name":"Starwar Bbj"},"100008103150383":{"id":"100008103150383","name":"Cuộc Đời Lớn"},"100004094346107":{"id":"100004094346107","name":"Thuy Nga Nguyen"},"100006981524423":{"id":"100006981524423","name":"Thao Vo"},"100006907235659":{"id":"100006907235659","name":"Thao Van"},"100002449514019":{"id":"100002449514019","name":"Lương Hoa"},"1026780646":{"id":"1026780646","name":"Việt Hưng Khổng"},"100004021016322":{"id":"100004021016322","name":"Thu Hang Dang"},"100001298705845":{"id":"100001298705845","name":"Tuấn Phạm"},"100003105034037":{"id":"100003105034037","name":"Pham Oanh"},"100002963737004":{"id":"100002963737004","name":"Hà Phùng"},"100003124307460":{"id":"100003124307460","name":"Duc Giang"},"100003024934033":{"id":"100003024934033","name":"Trang Pham"},"1146680551":{"id":"1146680551","name":"優しい なぁ"},"1276744041":{"id":"1276744041","name":"Oanh Pham"},"100003291941806":{"id":"100003291941806","name":"Hoang Tu Be"},"100008041958808":{"id":"100008041958808","name":"Hikaru Hoshi"},"100005211189763":{"id":"100005211189763","name":"Oliveu Cchann"},"100008033654317":{"id":"100008033654317","name":"Nỗi Lòng Xa Xứ"},"100001503789312":{"id":"100001503789312","name":"Quy Hung Ngo"},"100004339650606":{"id":"100004339650606","name":"Tomboy Vu"},"100002000344087":{"id":"100002000344087","name":"Bôn Ba"},"100000226547078":{"id":"100000226547078","name":"Phuong Linh Pham"},"100003279184320":{"id":"100003279184320","name":"Nguyen Long Hoang"},"100003702043787":{"id":"100003702043787","name":"Hằng Hanu"},"100004450956167":{"id":"100004450956167","name":"Thắng Satoh"},"100008119592972":{"id":"100008119592972","name":"Ngọc Xíu Cool"},"100005775182411":{"id":"100005775182411","name":"Tuấn Milo"},"100005917954526":{"id":"100005917954526","name":"Người Hoa Gốc Việt"},"569263718":{"id":"569263718","name":"Phuong Thao Tran"},"100001060880300":{"id":"100001060880300","name":"Quang Danh Ict"},"100003242552199":{"id":"100003242552199","name":"Kim Anh Dang"},"100000067699837":{"id":"100000067699837","name":"Nguyễn Hải Phong"}},"paging":{"cursors":{"after":"MTcxNzUzMDg4MA==","before":"MTcxNzUzMDg4MA=="},"next":"https://graph.facebook.com/229244010425617_847073551975990/likes?limit=1&summary=1&after=MTcxNzUzMDg4MA%3D%3D"},"summary":{"total_count":73}},"comments":{"data":{"847074681975877":{"id":"847074681975877","from":{"id":"1725907325","name":"Nguyen Van Dung"},"message":"Các bạn sắp sang Osaka (vùng kansai) thì hãy tham gia lớp học này nhé.","can_remove":false,"created_time":"2014-04-07T12:11:40+0000","like_count":1,"user_likes":false},"847075115309167":{"id":"847075115309167","from":{"id":"100001060880300","name":"Quang Danh Ict"},"message":"em thích nhất câu này ợ: \n先生は超(ちょう）かわいいよ\nCô giáo xinh vãi ~","can_remove":false,"created_time":"2014-04-07T12:12:54+0000","like_count":0,"user_likes":false},"847077158642296":{"id":"847077158642296","from":{"id":"569263718","name":"Phuong Thao Tran"},"message":"べっぴんさんになれるんやでの【んやで】はどんな意味、どんな時に使うのでしょうか？","can_remove":false,"created_time":"2014-04-07T12:18:09+0000","like_count":1,"user_likes":false},"847079315308747":{"id":"847079315308747","from":{"id":"100006263888044","name":"Hoàng Oanh"},"message":"Nguyen Van Dung vùng osaka nghe tiếng khó hiểu lắm ah","can_remove":false,"created_time":"2014-04-07T12:23:08+0000","like_count":1,"user_likes":false},"847084265308252":{"id":"847084265308252","from":{"id":"100007879952991","name":"Thow  Low"},"message":"しんどい；なんぼ　dưới vùng Kyushu thỉnh thoảng có nghe người lớn tuổi nói :D","can_remove":false,"created_time":"2014-04-07T12:36:10+0000","like_count":0,"user_likes":false},"847084998641512":{"id":"847084998641512","from":{"id":"100007879952991","name":"Thow  Low"},"message":"Từ ほんまに sau khi đọc cmtt của 1 bạn Nhật xong thắc mắc đến h mới biết @@","can_remove":false,"created_time":"2014-04-07T12:37:35+0000","like_count":0,"user_likes":false},"847089485307730":{"id":"847089485307730","from":{"id":"100007530217391","name":"Speaker  Native"},"message":"なれるんだよ。   → なれるんやで。\n\n あの人はベトナム人だよ。     →あの人はベトナム人やで。","can_remove":false,"created_time":"2014-04-07T12:45:23+0000","like_count":6,"user_likes":false},"847092445307434":{"id":"847092445307434","from":{"id":"1146680551","name":"優しい なぁ"},"message":"関西だったら、めっちゃかわいいと言うじゃないんですか？","can_remove":false,"created_time":"2014-04-07T12:50:35+0000","like_count":0,"user_likes":false},"847094225307256":{"id":"847094225307256","from":{"id":"100005211189763","name":"Oliveu Cchann"},"message":"Like~ em thích bài này *tung hoa* XD cảm ơn chị ạ xD","can_remove":false,"created_time":"2014-04-07T12:55:19+0000","like_count":0,"user_likes":false},"847094648640547":{"id":"847094648640547","from":{"id":"100008041958808","name":"Hikaru Hoshi"},"message":"đọc truyện biết vùng kansai tiếng đặc sệt, mà chưa rõ nghe bao h.","can_remove":false,"created_time":"2014-04-07T12:56:40+0000","like_count":0,"user_likes":false},"847095345307144":{"id":"847095345307144","from":{"id":"100007530217391","name":"Speaker  Native"},"message":"関西弁はほんまにカンタンや、漫才を見とったら分かるようになるで。\nなんつうか、同じことの繰り返しがな。\nほな、一度youtubeなんちゃらで漫才見たらええねん。","can_remove":false,"created_time":"2014-04-07T12:58:51+0000","like_count":3,"user_likes":false},"847097031973642":{"id":"847097031973642","from":{"id":"100004450956167","name":"Thắng Satoh"},"message":"Hay quá","can_remove":false,"created_time":"2014-04-07T13:03:35+0000","like_count":0,"user_likes":false},"847097701973575":{"id":"847097701973575","from":{"id":"100007530217391","name":"Speaker  Native"},"message":"＠アンくん\nめっさかわええ","can_remove":false,"created_time":"2014-04-07T13:05:09+0000","like_count":2,"user_likes":false},"847098718640140":{"id":"847098718640140","from":{"id":"1146680551","name":"優しい なぁ"},"message":"めっさかわええ〜(^_-)","can_remove":false,"created_time":"2014-04-07T13:06:54+0000","like_count":0,"user_likes":false},"847102248639787":{"id":"847102248639787","from":{"id":"569263718","name":"Phuong Thao Tran"},"message":"めっさやさしえんやで　という？","can_remove":false,"created_time":"2014-04-07T13:10:21+0000","like_count":1,"user_likes":false},"847104398639572":{"id":"847104398639572","from":{"id":"100007530217391","name":"Speaker  Native"},"message":"めっさやさしいんやで。    \n\n良い→ええ\n\n優しい  \"しい\"まで一つの単語。 だから\"ええ\"に変えられない。","can_remove":false,"created_time":"2014-04-07T13:14:08+0000","like_count":3,"user_likes":false},"847104675306211":{"id":"847104675306211","from":{"id":"100002963737004","name":"Hà Phùng"},"message":"Cô giáo dạy trường nào ý nhỉ ;)","can_remove":false,"created_time":"2014-04-07T13:14:41+0000","like_count":0,"user_likes":false},"847105815306097":{"id":"847105815306097","from":{"id":"1725907325","name":"Nguyen Van Dung"},"message":"でも、すごい　＝＞「すげえ」になるのはどういうことですか。\nまた、\nたかい　＝＞たけえ　っていいますね。\n↑\n文法的には説明できますかSpeaker Native chan.","message_tags":[{"id":"100007530217391","name":"Speaker Native","type":"user","offset":67,"length":14}],"can_remove":false,"created_time":"2014-04-07T13:17:12+0000","like_count":2,"user_likes":false},"847106505306028":{"id":"847106505306028","from":{"id":"100001298705845","name":"Tuấn Phạm"},"message":"cô giáo ns dễ nghe nhỉ :)","can_remove":false,"created_time":"2014-04-07T13:19:12+0000","like_count":0,"user_likes":false},"847106641972681":{"id":"847106641972681","from":{"id":"100007530217391","name":"Speaker  Native"},"message":"問題ない。 \nそれは若者の汚い話し方。  友達同士でしか使わない。\n\n僕も同級生に会ったらその話し方になる。","can_remove":false,"created_time":"2014-04-07T13:19:23+0000","like_count":2,"user_likes":false},"847108351972510":{"id":"847108351972510","from":{"id":"100007530217391","name":"Speaker  Native"},"message":"発音も\"ê\"  \"から\"e\"に変わる。","can_remove":false,"created_time":"2014-04-07T13:23:04+0000","like_count":1,"user_likes":false},"847111481972197":{"id":"847111481972197","from":{"id":"1146680551","name":"優しい なぁ"},"message":"イケメンは？(^_-)","can_remove":false,"created_time":"2014-04-07T13:31:40+0000","like_count":0,"user_likes":false},"847113541971991":{"id":"847113541971991","from":{"id":"100007530217391","name":"Speaker  Native"},"message":"イケメンはここ15年ぐらいの新しい言葉だから大阪も同じ。\n\n関西の人がよく言うのは「えらい男前」","can_remove":false,"created_time":"2014-04-07T13:36:25+0000","like_count":2,"user_likes":false},"847117081971637":{"id":"847117081971637","from":{"id":"100007879952991","name":"Thow  Low"},"message":"エロ男じゃないですか＾＾","can_remove":false,"created_time":"2014-04-07T13:43:51+0000","like_count":0,"user_likes":false},"847121298637882":{"id":"847121298637882","from":{"id":"1416265619","name":"Starwar Bbj"},"message":"Trời ạ, ở Kansai mà mới chỉ nghe có mỗi ほんまに, còn lại chưa bao h nghe thấy","can_remove":false,"created_time":"2014-04-07T13:51:22+0000","like_count":0,"user_likes":false},"847122495304429":{"id":"847122495304429","from":{"id":"1725907325","name":"Nguyen Van Dung"},"message":"Cái gì chưa học chưa biết sẽ ít thấy^^\n\nSau khi học chắc chắn sẽ nghe thấy.\n\nThấy thì phải dùng. :P","can_remove":false,"created_time":"2014-04-07T13:54:32+0000","like_count":1,"user_likes":false},"847158975300781":{"id":"847158975300781","from":{"id":"100000257464771","name":"Trương Ngọc Điệp"},"message":"Còn có ほかす là 捨てる\nなおす là 片付ける","can_remove":false,"created_time":"2014-04-07T15:01:56+0000","like_count":0,"user_likes":false},"847205171962828":{"id":"847205171962828","from":{"id":"100006389413007","name":"Việt Vui Vẻ"},"message":"cô giáo người việt nam hả mọi người :)","can_remove":false,"created_time":"2014-04-07T16:15:30+0000","like_count":0,"user_likes":false},"847213271962018":{"id":"847213271962018","from":{"id":"100000210061617","name":"Vũ Tuấn"},"message":"Việt Vui Vẻ chú thấy thế nào","message_tags":[{"id":"100006389413007","name":"Việt Vui Vẻ","type":"user","offset":0,"length":11}],"can_remove":false,"created_time":"2014-04-07T16:25:58+0000","like_count":0,"user_likes":false},"847213698628642":{"id":"847213698628642","from":{"id":"100006389413007","name":"Việt Vui Vẻ"},"message":"uh người việt nam thì phải xinh dã man :3","can_remove":false,"created_time":"2014-04-07T16:27:18+0000","like_count":0,"user_likes":false},"847214441961901":{"id":"847214441961901","from":{"id":"100000210061617","name":"Vũ Tuấn"},"message":"Nhật ấy, lớp tôi mà có cô này chắc ko học nổi quá =))","can_remove":false,"created_time":"2014-04-07T16:28:48+0000","like_count":0,"user_likes":false},"847214678628544":{"id":"847214678628544","from":{"id":"100000030980994","name":"Ông Sung"},"message":"Nghe yêu mất rồi. べっぴん","can_remove":false,"created_time":"2014-04-07T16:29:27+0000","like_count":2,"user_likes":false},"847214805295198":{"id":"847214805295198","from":{"id":"100006389413007","name":"Việt Vui Vẻ"},"message":"oh nhìn xinh thế không biết nữa :)","can_remove":false,"created_time":"2014-04-07T16:29:37+0000","like_count":1,"user_likes":false},"847230181960327":{"id":"847230181960327","from":{"id":"100003657473061","name":"Vu Trung Kien"},"message":"すげえ!みんな 一緒に勉強してください ! でもね！ 問題が あるんですから 日本人の若者から 寒い イコール さみって言われた ! ちょっとい意味分からないけど 大丈夫だと思うねえ！","can_remove":false,"created_time":"2014-04-07T17:01:44+0000","like_count":0,"user_likes":false},"847630065253672":{"id":"847630065253672","from":{"id":"100001368056386","name":"Ngọc Wilshere"},"message":"<3 rồi =))","can_remove":false,"created_time":"2014-04-08T11:25:09+0000","like_count":0,"user_likes":false}},"paging":{"cursors":{"after":"ODQ3MDc0NjgxOTc1ODc3","before":"ODQ3MDc0NjgxOTc1ODc3"},"next":"https://graph.facebook.com/229244010425617_847073551975990/comments?limit=1&summary=1&after=ODQ3MDc0NjgxOTc1ODc3"},"summary":{"order":"chronological","total_count":35}}}