{"id":"229244010425617_847164428633569","type":"status","from":{"id":"100000235206649","name":"Tiptop Nguyễn"},"message":"Thấy bạn bè bịn rịn nhau cất cánh sang Nhật , nước mắt lưng tròng, trong lòng họ ngổn ngang những thương nhớ bạn bè và người thân yêu....\ncòn mình đây cũng nước mắt trong lòng không biết bao giờ mới được đặt chân sang xứ Phù Tang :'( vẫn biết trên báo đài ngày ngày vẫn đăng tin cuộc sống bên đó khốn khó, không phải ai sang cũng có miếng cơm đủ ăn, biết là thế nhưng mình vẫn rất muốn đc đặt chân đến 1 lần  cho thỏa chí :)","created_time":"2014-04-07T15:15:02+0000","updated_time":"2014-04-07T23:26:18+0000","likes":{"data":{"100005275411260":{"id":"100005275411260","name":"Hoa Của Nắng"},"100004032585669":{"id":"100004032585669","name":"Đoàn Phú Minh"},"100005758714297":{"id":"100005758714297","name":"Thường Vân"},"100005313853606":{"id":"100005313853606","name":"Mèo Con Yêu Gấu"},"100000176631338":{"id":"100000176631338","name":"Hà Phương"},"100004253979918":{"id":"100004253979918","name":"Louis Hoàng Văn Thái"},"100004069891926":{"id":"100004069891926","name":"Hạnh Phúc Ảo"},"100000188213312":{"id":"100000188213312","name":"Bui Ngoc Cuong"},"100002769893915":{"id":"100002769893915","name":"Nam Xoăn"},"100002615664668":{"id":"100002615664668","name":"PuPu Phương Elf"},"100003920377257":{"id":"100003920377257","name":"Tú Anh Phạm"},"100002872913772":{"id":"100002872913772","name":"Thịnh Nguyễn"},"100002762270141":{"id":"100002762270141","name":"Mien Nguyen"},"100002962424010":{"id":"100002962424010","name":"Emlagi Trongtraitimanh"},"100003898395957":{"id":"100003898395957","name":"Hưng Vũ"},"100001458099624":{"id":"100001458099624","name":"Kham Pha"},"100007963716784":{"id":"100007963716784","name":"Ninh Thị Hường"},"100007117622529":{"id":"100007117622529","name":"Tom Boy Hạnh Phúc"},"100003764736821":{"id":"100003764736821","name":"Hùng Kon"},"100003462214601":{"id":"100003462214601","name":"Ky Hoa Truong"},"100005824059953":{"id":"100005824059953","name":"Sữa Chua Nếp Cẩm"},"100001741955615":{"id":"100001741955615","name":"Pham Van Thinh"},"100001824172942":{"id":"100001824172942","name":"Phan Van"}},"paging":{"cursors":{"after":"MTAwMDA1Mjc1NDExMjYw","before":"MTAwMDA1Mjc1NDExMjYw"},"next":"https://graph.facebook.com/229244010425617_847164428633569/likes?limit=1&summary=1&after=MTAwMDA1Mjc1NDExMjYw"},"summary":{"total_count":23}},"comments":{"data":{"847165925300086":{"id":"847165925300086","from":{"id":"100001824172942","name":"Phan Van"},"message":"いつか、その時が来るからさ(^^ゞ","can_remove":false,"created_time":"2014-04-07T15:18:37+0000","like_count":2,"user_likes":false},"847167928633219":{"id":"847167928633219","from":{"id":"100001824172942","name":"Phan Van"},"message":"Ko fải cứ đi bằng đc mới là thành công,có những ng đi về vẫn hoàn không...^^ Tiptop Nguyễn trong khi chờ cơ hội đi Nhật đến với e hãy cứ sống và học thật nỗ lực để thjan luôn có ý nghĩa","message_tags":[{"id":"100000235206649","name":"Tiptop Nguyễn","type":"user","offset":77,"length":13}],"can_remove":false,"created_time":"2014-04-07T15:23:47+0000","like_count":4,"user_likes":false},"847222568627755":{"id":"847222568627755","from":{"id":"100004069891926","name":"Hạnh Phúc Ảo"},"message":"私も...","can_remove":false,"created_time":"2014-04-07T16:46:32+0000","like_count":0,"user_likes":false},"847395818610430":{"id":"847395818610430","from":{"id":"100004458494037","name":"Hong Nguyen"},"message":"O nha la tôt ban oi","can_remove":false,"created_time":"2014-04-07T23:26:18+0000","like_count":0,"user_likes":false}},"paging":{"cursors":{"after":"ODQ3MTY1OTI1MzAwMDg2","before":"ODQ3MTY1OTI1MzAwMDg2"},"next":"https://graph.facebook.com/229244010425617_847164428633569/comments?limit=1&summary=1&after=ODQ3MTY1OTI1MzAwMDg2"},"summary":{"order":"chronological","total_count":4}}}