{"id":"229244010425617_847253525291326","type":"photo","object_id":"606693979424201","picture":"https://fbcdn-photos-g-a.akamaihd.net/hphotos-ak-prn1/t1.0-0/10151196_606693979424201_1970473715853642353_s.jpg","link":"https://www.facebook.com/photo.php?fbid=606693979424201&set=gm.847253525291326&type=1&relevant_count=1","from":{"id":"100002508122689","name":"Vũ Mạnh Tuấn"},"message":"お母さん\nMom\n私の心の中にいつも\nInside my heart\n私を信じてくれているお母さんがいる\nI know you always believed in me\nこれからも宜しくお願いします\nI leave my life entirely in your hands.\nいっぱい心配ばかりかけちゃってごめんね。\nI am sorry for the worry I put you through.\n\nMẹ, từ tận đáy lòng mình, con biết mẹ luôn tin vào con. Cả cuộc đời con do mẹ dắt dìu. Con xin lỗi vì luôn khiến mẹ phải lo lắng.\n\n「一リットルの涙」- Trích phim \"Một lít nước mắt\"","created_time":"2014-04-07T17:51:25+0000","updated_time":"2014-04-14T14:46:08+0000","likes":{"data":{"100001752584298":{"id":"100001752584298","name":"Thành Dx"},"100000600611629":{"id":"100000600611629","name":"Nhện Bạc"},"100003291941806":{"id":"100003291941806","name":"Hoang Tu Be"},"100001416272263":{"id":"100001416272263","name":"Mai PB"},"100000189564897":{"id":"100000189564897","name":"Thanh Vt"},"100006554551624":{"id":"100006554551624","name":"Hương Giang"},"100008121611755":{"id":"100008121611755","name":"Sky Love"},"100005381678231":{"id":"100005381678231","name":"Djnh Nguyen"},"100004219393828":{"id":"100004219393828","name":"Nhu Tran"},"100003129280901":{"id":"100003129280901","name":"Phan Thuy Hang"},"100006418027058":{"id":"100006418027058","name":"Chắc Đùa"},"100002501278236":{"id":"100002501278236","name":"Kỳ Lưu"},"100006307596308":{"id":"100006307596308","name":"Khi Nào Đổi Thay"},"100001216346807":{"id":"100001216346807","name":"Anh Nguyễn"},"100000022163023":{"id":"100000022163023","name":"Kafe Ore"},"100001825592585":{"id":"100001825592585","name":"Liên Nguyễn"},"100004784682700":{"id":"100004784682700","name":"Huyen Trang"},"100004564327116":{"id":"100004564327116","name":"Tiến Bình Nguyễn"},"100008133690691":{"id":"100008133690691","name":"Con Yêu Mẹ"},"100000438877828":{"id":"100000438877828","name":"Teng Chil"},"100005574134399":{"id":"100005574134399","name":"Pé Bự"},"100000157345230":{"id":"100000157345230","name":"Thích Là Được"},"100002824100999":{"id":"100002824100999","name":"Hoài Nhàn Nguyễn"},"100003984391946":{"id":"100003984391946","name":"Pi Đôrê"},"100000148600266":{"id":"100000148600266","name":"Tamomi Chan"},"100004178466278":{"id":"100004178466278","name":"Thu Tồ Đông Anh"},"100006600665983":{"id":"100006600665983","name":"Kaun Nguyễn"},"100007299456297":{"id":"100007299456297","name":"Chinh Duyên"},"100007880444320":{"id":"100007880444320","name":"自由"},"100001592953699":{"id":"100001592953699","name":"Trúc Phạm"},"100003851371931":{"id":"100003851371931","name":"Nhung Kòy"},"100000062884729":{"id":"100000062884729","name":"Huệ Ca"},"1850147953":{"id":"1850147953","name":"Rùa Con"},"100000262070143":{"id":"100000262070143","name":"Sachiko Kam"},"100000176631338":{"id":"100000176631338","name":"Hà Phương"},"100000703348447":{"id":"100000703348447","name":"Lan Lan"},"100004452123869":{"id":"100004452123869","name":"Pham Tiên Bach"},"100004780953947":{"id":"100004780953947","name":"Thịnh Nguyễn"},"100001458593763":{"id":"100001458593763","name":"Tú Bờm"},"100006140261159":{"id":"100006140261159","name":"Mai Hương Đỗ"},"100000046509665":{"id":"100000046509665","name":"Anh Tuấn"},"100001702363025":{"id":"100001702363025","name":"Thân Giang"},"100000037024030":{"id":"100000037024030","name":"Hung Duc Tran"},"100004580922930":{"id":"100004580922930","name":"Khánh Line"},"100004340104072":{"id":"100004340104072","name":"Vì Em Là Nắng"},"100002202800066":{"id":"100002202800066","name":"Trang Trương"},"100007340647205":{"id":"100007340647205","name":"Katori Lê"},"100001754136107":{"id":"100001754136107","name":"Nguyễn Tuấn Vũ"},"100000299798248":{"id":"100000299798248","name":"Vẹt Đêm"},"100001973246849":{"id":"100001973246849","name":"Pho Mai Ga Cuon"},"100000159382576":{"id":"100000159382576","name":"Nguyen Aoizumi"},"100003762427351":{"id":"100003762427351","name":"Hiroshi Yasu Oki"},"100003005597243":{"id":"100003005597243","name":"Zany Royal"},"100003635073121":{"id":"100003635073121","name":"Yoi Yebi"},"100004694253428":{"id":"100004694253428","name":"Yến Nguyễn"},"100007963716784":{"id":"100007963716784","name":"Ninh Thị Hường"},"100003518966987":{"id":"100003518966987","name":"Thanh Hoài Ngô"},"100004340858702":{"id":"100004340858702","name":"Boniva Capricornus"},"100003912810608":{"id":"100003912810608","name":"Thoang Qua"},"100003717410579":{"id":"100003717410579","name":"Lộc An"},"100002753911318":{"id":"100002753911318","name":"Nguyễn Văn Nam"},"100000073698728":{"id":"100000073698728","name":"Hương Giang"},"100000504109240":{"id":"100000504109240","name":"Khánh Trình"},"100006791732884":{"id":"100006791732884","name":"Hiền Vũ"},"100006349021140":{"id":"100006349021140","name":"Scorp Black"},"100003686602180":{"id":"100003686602180","name":"Linh Pham"},"100003181743412":{"id":"100003181743412","name":"Pham Kha"},"100003222467197":{"id":"100003222467197","name":"Võ Chí Công"},"100006517890567":{"id":"100006517890567","name":"Trai Họ Trần"},"569263718":{"id":"569263718","name":"Phuong Thao Tran"},"100004745586890":{"id":"100004745586890","name":"Bao Nguyen Kevin"},"100003143578550":{"id":"100003143578550","name":"Vn Tim"},"100002855702221":{"id":"100002855702221","name":"Thủ Dương"},"100000431046778":{"id":"100000431046778","name":"Han Jinnie"},"100003269464001":{"id":"100003269464001","name":"Mít Vân Ngọc"},"100007798380150":{"id":"100007798380150","name":"海外移住"},"100003310618708":{"id":"100003310618708","name":"BiNô Triết Gia"},"1145584654":{"id":"1145584654","name":"Tobe Tung"},"100006750000025":{"id":"100006750000025","name":"Mai Hoàng Đức"},"100004010458181":{"id":"100004010458181","name":"Phuong Bich"},"100006925324619":{"id":"100006925324619","name":"Lilth Hoang"},"100003340002245":{"id":"100003340002245","name":"Nguyenthe Trac"},"100003918707209":{"id":"100003918707209","name":"Thunguyet Nguyen"},"1416265619":{"id":"1416265619","name":"Starwar Bbj"},"100006403632615":{"id":"100006403632615","name":"Nghĩa Đinh"},"100004199198189":{"id":"100004199198189","name":"Cường Vũ"},"525828985":{"id":"525828985","name":"Cindy Taiki"},"100003069246142":{"id":"100003069246142","name":"Hồng Trịnh"},"100001764656477":{"id":"100001764656477","name":"Hạnh Trần"},"100000474381232":{"id":"100000474381232","name":"Duong Seven"},"1303327291":{"id":"1303327291","name":"Nguyễn Thanh Tùng"},"100000440204123":{"id":"100000440204123","name":"Ojiopii Dung"},"100000328742646":{"id":"100000328742646","name":"Trần Giáp"},"100002290434796":{"id":"100002290434796","name":"Canh Pham"},"100007558053842":{"id":"100007558053842","name":"Nhox Siêu Quậy"},"100003278373007":{"id":"100003278373007","name":"Oguri Shun"},"100004802197403":{"id":"100004802197403","name":"Công Tử Hào Hoa"},"100005801442456":{"id":"100005801442456","name":"An Nguyen"},"100003055422184":{"id":"100003055422184","name":"Kaze Le"},"100004026514121":{"id":"100004026514121","name":"Ti Con Meo"},"100001793782938":{"id":"100001793782938","name":"Hồng Hà Khuất"},"100000758307606":{"id":"100000758307606","name":"Lương Ngọc Thành"},"100000201466298":{"id":"100000201466298","name":"HuyenTrang Ng"},"100003913383051":{"id":"100003913383051","name":"Tho Tran"},"100005307004792":{"id":"100005307004792","name":"Kiều Văn"},"100008010333387":{"id":"100008010333387","name":"Eagle Vothuong"},"100001834078497":{"id":"100001834078497","name":"Tý Đẹp"},"100000489372404":{"id":"100000489372404","name":"Phúc Bồ"},"100002427715884":{"id":"100002427715884","name":"Hell Angel"},"100000221147466":{"id":"100000221147466","name":"Kiệt Nguyễn"},"100003074448160":{"id":"100003074448160","name":"Nguyễn Thanh Tình"},"100003898875729":{"id":"100003898875729","name":"Hai Nguyen"},"100005673240447":{"id":"100005673240447","name":"Thao Pe"},"1824015127":{"id":"1824015127","name":"Bùi Quang Tân"},"100000110765909":{"id":"100000110765909","name":"Thảo Nguyễn"},"100005495773832":{"id":"100005495773832","name":"Hiền Vũ"},"100004716847212":{"id":"100004716847212","name":"Khoa Lưu"},"100004453542571":{"id":"100004453542571","name":"Quy Hoàng"},"100008067666105":{"id":"100008067666105","name":"Màu Nắng"},"1146680551":{"id":"1146680551","name":"優しい なぁ"},"100002703289788":{"id":"100002703289788","name":"Chihiro Haku"},"100006605442258":{"id":"100006605442258","name":"Hòa Nguyen"},"100001311893008":{"id":"100001311893008","name":"Nguyen Minh"},"100006271507308":{"id":"100006271507308","name":"Bùi Quỳnh Anh XS"},"1725907325":{"id":"1725907325","name":"Nguyen Van Dung"},"100001526631937":{"id":"100001526631937","name":"Tường Oanh Mineko"},"100001216203214":{"id":"100001216203214","name":"Lala Rita"},"100007797156820":{"id":"100007797156820","name":"Sói Già"},"100003028960890":{"id":"100003028960890","name":"Phạm Đình Thái Sơn"}},"paging":{"cursors":{"after":"MTAwMDAxNzUyNTg0Mjk4","before":"MTAwMDAxNzUyNTg0Mjk4"},"next":"https://graph.facebook.com/229244010425617_847253525291326/likes?limit=1&summary=1&after=MTAwMDAxNzUyNTg0Mjk4"},"summary":{"total_count":131}},"comments":{"data":{"847256465291032":{"id":"847256465291032","from":{"id":"1725907325","name":"Nguyen Van Dung"},"message":"お母さんが大好き、大好きです。\n\nお母さんの料理を食べたい...\n\n明日、帰国しちゃうか....","can_remove":false,"created_time":"2014-04-07T18:00:03+0000","like_count":8,"user_likes":false},"847261195290559":{"id":"847261195290559","from":{"id":"100002139602541","name":"Shunya Tamaki"},"message":"このドラマ見てたくさん泣いた記憶があります。。。","can_remove":false,"created_time":"2014-04-07T18:11:19+0000","like_count":6,"user_likes":false},"847261858623826":{"id":"847261858623826","from":{"id":"1725907325","name":"Nguyen Van Dung"},"message":"俺も泣きっぱなしだったよ\n 。・゜・(ノД`)・゜・。","can_remove":false,"created_time":"2014-04-07T18:13:42+0000","like_count":3,"user_likes":false},"847265275290151":{"id":"847265275290151","from":{"id":"100008010333387","name":"Eagle Vothuong"},"message":"","can_remove":false,"created_time":"2014-04-07T18:23:04+0000","like_count":6,"user_likes":false},"847322331951112":{"id":"847322331951112","from":{"id":"100007558053842","name":"Nhox Siêu Quậy"},"message":"Phim hay","can_remove":false,"created_time":"2014-04-07T20:10:31+0000","like_count":1,"user_likes":false},"847332781950067":{"id":"847332781950067","from":{"id":"100000048296076","name":"Anh Trần"},"message":"Erika :X","can_remove":false,"created_time":"2014-04-07T20:37:07+0000","like_count":0,"user_likes":false},"847344848615527":{"id":"847344848615527","from":{"id":"100004715524978","name":"Minh Chiến"},"message":"いつも人気がある彼女ですよ","can_remove":false,"created_time":"2014-04-07T20:58:28+0000","like_count":0,"user_likes":false},"847394015277277":{"id":"847394015277277","from":{"id":"100003310618708","name":"BiNô Triết Gia"},"message":"Nghẹn thiệt chứ ko chơi,","can_remove":false,"created_time":"2014-04-07T23:23:22+0000","like_count":0,"user_likes":false},"848762015140477":{"id":"848762015140477","from":{"id":"100000600611629","name":"Nhện Bạc"},"message":"cho mình hỏi gọi mẹ là haha, còn đây là obaasan nhưng thấy sách ghi đấy là gọi mẹ của bạn, tại sao ở đây gọi là obaasan dịch ra thì là  \"mẹ\"?","can_remove":false,"created_time":"2014-04-10T07:40:34+0000","like_count":0,"user_likes":false},"848830571800288":{"id":"848830571800288","from":{"id":"100005578955582","name":"Bé Cua"},"message":"ng nhat thg goi me la おかあさん、vi goi vay no than thien.it ng goi me la haha lem.","can_remove":false,"created_time":"2014-04-10T11:08:44+0000","like_count":1,"user_likes":false},"851343111549034":{"id":"851343111549034","from":{"id":"100002508122689","name":"Vũ Mạnh Tuấn"},"message":"Nhện Bạc: khi nói chuyện với mẹ của mình thì phải xưng là お母さん or　お母ちゃん ( thân thiện hơn )\nCòn khi nói chuyện với người thứ 3 về mẹ mình thì ms nói : 私のはは\n\nQuy tắc nói chuyện là xưng khiêm hô tôn. Nói với người khác, thì mẹ của mình cũng thuộc nhóm của mình, nên phải hạ thấp xuống. Nói với mẹ, tức người đối diện, thì phải nâng cao người đối diện lên ( nên ms có さん）","message_tags":[{"id":"100000600611629","name":"Nhện Bạc","type":"user","offset":0,"length":8}],"can_remove":false,"created_time":"2014-04-14T14:09:13+0000","like_count":1,"user_likes":false},"851361871547158":{"id":"851361871547158","from":{"id":"100000600611629","name":"Nhện Bạc"},"message":"Cám ơn 2 bạn nhiều","can_remove":false,"created_time":"2014-04-14T14:46:08+0000","like_count":0,"user_likes":false}},"paging":{"cursors":{"after":"ODQ3MjU2NDY1MjkxMDMy","before":"ODQ3MjU2NDY1MjkxMDMy"},"next":"https://graph.facebook.com/229244010425617_847253525291326/comments?limit=1&summary=1&after=ODQ3MjU2NDY1MjkxMDMy"},"summary":{"order":"chronological","total_count":12}}}