{"id":"229244010425617_847484851934860","type":"status","from":{"id":"100000030073288","name":"Thanh Danh Tran"},"message":"- các senpai cho em hỏi cái này với, a/c nào đã từng hay hiện đang bên nhật giúp em với.\n- hiện tại thì anh của em cũng đang học tiếng nhật và làm 1 cty nhật tại việt nam, năm nay anh ấy trên 30t rồi và rất muốn đi học tiếp, vậy ở Nhật có giới hạn tuổi tác đi học ko vậy ah ? và nếu ko giới hạn thì có thể học bất kỳ nghành nghề nào cũng được phải ko vậy ?\n- Rất mong các senpai giúp, arigato gozaimasu !!","created_time":"2014-04-08T03:35:48+0000","updated_time":"2014-04-09T09:05:05+0000","likes":{"data":{"100007468213697":{"id":"100007468213697","name":"Minh Cảnh"},"100003574946076":{"id":"100003574946076","name":"Minhh Hảii"},"100000471304298":{"id":"100000471304298","name":"Nguyen Xuan Cong"}},"paging":{"cursors":{"after":"MTAwMDA3NDY4MjEzNjk3","before":"MTAwMDA3NDY4MjEzNjk3"},"next":"https://graph.facebook.com/229244010425617_847484851934860/likes?limit=1&summary=1&after=MTAwMDA3NDY4MjEzNjk3"},"summary":{"total_count":3}},"comments":{"data":{"847514628598549":{"id":"847514628598549","from":{"id":"824089766","name":"Le Dai"},"message":"Quan trọng là anh của bạn muốn học gì, đại học, cao học hay học trường nghề?","can_remove":false,"created_time":"2014-04-08T04:47:34+0000","like_count":0,"user_likes":false},"847524965264182":{"id":"847524965264182","from":{"id":"100001533106767","name":"Nguyễn Minh Châu"},"message":"k phải cứ đi nhật là giỏi lên đâu bạn ạ. nếu có qtam học thì ở vn cũng học giỏi đc","can_remove":false,"created_time":"2014-04-08T05:22:03+0000","like_count":0,"user_likes":false},"847526005264078":{"id":"847526005264078","from":{"id":"824089766","name":"Le Dai"},"message":"Ra nước ngoài học ko phải chỉ mục đích học giỏi mà còn để mở mang đầu óc, tiếp xúc với các nền văn minh khác nhau trên TG, từ đó làm bản thân thêm phong phú bạn ạ.","can_remove":false,"created_time":"2014-04-08T05:27:23+0000","like_count":2,"user_likes":false},"847526418597370":{"id":"847526418597370","from":{"id":"100001533106767","name":"Nguyễn Minh Châu"},"message":"mình cũng hiểu thế bạn ạ,nhưng nghe bạn này nói thì có thể anh bạn ý vì t nhật kém nên muốn du học để nâng cao tiếng, thăng tiến trong cviec...","can_remove":false,"created_time":"2014-04-08T05:29:22+0000","like_count":0,"user_likes":false},"847526681930677":{"id":"847526681930677","from":{"id":"824089766","name":"Le Dai"},"message":"Hình như anh bạn ấy muốn học nâng cao tay nghề đó chứ. (và nếu ko giới hạn thì có thể học bất kỳ nghành nghề nào cũng được phải ko vậy ?)","can_remove":false,"created_time":"2014-04-08T05:30:38+0000","like_count":0,"user_likes":false},"847527098597302":{"id":"847527098597302","from":{"id":"824089766","name":"Le Dai"},"message":"Nói chung ko có đk thì đành chịu chứ có thì cứ nên ra nước ngoài để mở mang đầu óc :D","can_remove":false,"created_time":"2014-04-08T05:32:08+0000","like_count":1,"user_likes":false},"847537728596239":{"id":"847537728596239","from":{"id":"100007917634982","name":"Cry Cry"},"message":"Sang mà rửa tiền :3","can_remove":false,"created_time":"2014-04-08T06:17:44+0000","like_count":0,"user_likes":false},"847614595255219":{"id":"847614595255219","from":{"id":"100000030073288","name":"Thanh Danh Tran"},"message":"ah cám ơn senpai Le Dai và senpai Nguyễn Minh Châu góp ý, anh mình  thì ổng muốn đi học về những điều mình thích, nhằm nâng cao kiến thức, học hỏi kiến thức của người khác và nâng cao ngôn ngữ tiếng nhật, mà nghề của anh mình về CNTT, do đó ko biết là có giới hạn gì về việc học hành gì hay ko :(","message_tags":[{"id":"824089766","name":"Le Dai","type":"user","offset":17,"length":6},{"id":"100001533106767","name":"Nguyễn Minh Châu","type":"user","offset":34,"length":16}],"can_remove":false,"created_time":"2014-04-08T10:30:42+0000","like_count":0,"user_likes":false},"847824618567550":{"id":"847824618567550","from":{"id":"824089766","name":"Le Dai"},"message":"CNTT thì ko có giới hạn gì đâu :)) Ko biết ông ấy định học cao học hay gì?","can_remove":false,"created_time":"2014-04-08T16:13:08+0000","like_count":0,"user_likes":false},"847831001900245":{"id":"847831001900245","from":{"id":"100000030073288","name":"Thanh Danh Tran"},"message":"ah ổng dự tính là theo bên đại học mà nếu đại học ko được thì ko giới hạn chỉ có cao học như Le Dai nói.","message_tags":[{"id":"824089766","name":"Le Dai","type":"user","offset":93,"length":6}],"can_remove":false,"created_time":"2014-04-08T16:25:09+0000","like_count":0,"user_likes":false},"847852525231426":{"id":"847852525231426","from":{"id":"100001533106767","name":"Nguyễn Minh Châu"},"message":"Học đh hay cao học cũng phải học tiếng khg 2 năm đó bạn ạ","can_remove":false,"created_time":"2014-04-08T17:05:27+0000","like_count":0,"user_likes":false},"847854891897856":{"id":"847854891897856","from":{"id":"100000030073288","name":"Thanh Danh Tran"},"message":"ý của Nguyễn Minh Châu là học thêm vốn tiếng nhật hay là bắt buộc vậy ? ah anh của mình thì mình nghĩ là vốn tiếng nhật cũng kha khá rồi, đã học 3 năm và đang làm cty nhật ở vn, chỉ có mình mới học có 1 năm nên việc còn lại chỉ học :)","message_tags":[{"id":"100001533106767","name":"Nguyễn Minh Châu","type":"user","offset":6,"length":16}],"can_remove":false,"created_time":"2014-04-08T17:11:18+0000","like_count":0,"user_likes":false},"847855488564463":{"id":"847855488564463","from":{"id":"100001533106767","name":"Nguyễn Minh Châu"},"message":"Bắt buộc ạ. Kể cả có n1 n2 r mà học cao học cũng phải học tiếng. K học vào học cùng ng nhật bị sốc lắm ạ.","can_remove":false,"created_time":"2014-04-08T17:13:14+0000","like_count":0,"user_likes":false},"847863078563704":{"id":"847863078563704","from":{"id":"100000030073288","name":"Thanh Danh Tran"},"message":"thế là ổng mà đi qua nhật học lên cao học thì mất toi 2 năm :( mặc dù anh mình đã có N2 rùi, cái này để mình nhắn lại cho anh mình biết, rất cám ơn Nguyễn Minh Châu đã giúp mình, chắc khuyên anh mình có muốn sang thì chắc xin việc làm thì tốt hơn :))","message_tags":[{"id":"100001533106767","name":"Nguyễn Minh Châu","type":"user","offset":148,"length":16}],"can_remove":false,"created_time":"2014-04-08T17:16:44+0000","like_count":1,"user_likes":false},"848030338546978":{"id":"848030338546978","from":{"id":"824089766","name":"Le Dai"},"message":"N2 rồi lại làm về CNTT, bên Nhật ko thiếu việc luôn. Mình cũng N2 + CNTT bên này này :D","can_remove":false,"created_time":"2014-04-09T00:57:53+0000","like_count":0,"user_likes":false},"848084941874851":{"id":"848084941874851","from":{"id":"100001416272263","name":"Mai PB"},"message":"Nếu thi được vào ĐH thì khg cần học tiếng. Không cần phải học cao học, có thể chọn giữa ĐH và senmon.","can_remove":false,"created_time":"2014-04-09T03:17:58+0000","like_count":0,"user_likes":false},"848233831859962":{"id":"848233831859962","from":{"id":"100000030073288","name":"Thanh Danh Tran"},"message":"ah vậy là trên 30t vẫn theo học đại học được nữa hả anh Mai PB ? cái này em mới biết luôn :( em cảm ơn anh, để em nói lại cho anh của em biết có gì để ổng quyết định vậy :)","can_remove":false,"created_time":"2014-04-09T09:05:05+0000","like_count":0,"user_likes":false}},"paging":{"cursors":{"after":"ODQ3NTE0NjI4NTk4NTQ5","before":"ODQ3NTE0NjI4NTk4NTQ5"},"next":"https://graph.facebook.com/229244010425617_847484851934860/comments?limit=1&summary=1&after=ODQ3NTE0NjI4NTk4NTQ5"},"summary":{"order":"chronological","total_count":17}}}