{"id":"229244010425617_847495495267129","type":"status","from":{"id":"100003738033219","name":"Yuni Hà"},"message":"Các tiền bối cho em hỏi học bổng Asahi là gì? dành cho đối tượng và điều kiện cần như thế nào ạ?","created_time":"2014-04-08T03:57:29+0000","updated_time":"2014-04-12T14:34:55+0000","likes":{"data":{"100003188540285":{"id":"100003188540285","name":"Đầu Gấu Xấu Trai"},"100000054665103":{"id":"100000054665103","name":"John Nguyễn"},"100003702043787":{"id":"100003702043787","name":"Hằng Hanu"},"100003069246142":{"id":"100003069246142","name":"Hồng Trịnh"},"100004496623284":{"id":"100004496623284","name":"Mc Bily"}},"paging":{"cursors":{"after":"MTAwMDAzMTg4NTQwMjg1","before":"MTAwMDAzMTg4NTQwMjg1"},"next":"https://graph.facebook.com/229244010425617_847495495267129/likes?limit=1&summary=1&after=MTAwMDAzMTg4NTQwMjg1"},"summary":{"total_count":5}},"comments":{"data":{"847496768600335":{"id":"847496768600335","from":{"id":"100003766970257","name":"Tư Lozen"},"message":"Hok khi nào nói.như ai ơi thì có học bổng ngay","can_remove":false,"created_time":"2014-04-08T04:01:58+0000","like_count":0,"user_likes":false},"847496858600326":{"id":"847496858600326","from":{"id":"100003766970257","name":"Tư Lozen"},"message":"Vào trang fukuoka baito đăng mà hỏi nạ","can_remove":false,"created_time":"2014-04-08T04:02:15+0000","like_count":0,"user_likes":false},"847497541933591":{"id":"847497541933591","from":{"id":"100003738033219","name":"Yuni Hà"},"message":"?? Là sao ạ","can_remove":false,"created_time":"2014-04-08T04:04:49+0000","like_count":1,"user_likes":false},"847498141933531":{"id":"847498141933531","from":{"id":"100003766970257","name":"Tư Lozen"},"message":"E chuẩn bị du hok ak","can_remove":false,"created_time":"2014-04-08T04:06:08+0000","like_count":0,"user_likes":false},"847507208599291":{"id":"847507208599291","from":{"id":"100000054665103","name":"John Nguyễn"},"message":"Mình là dhs học bổng của asahi đây 😅","can_remove":false,"created_time":"2014-04-08T04:35:24+0000","like_count":0,"user_likes":false},"847515848598427":{"id":"847515848598427","from":{"id":"100005806119527","name":"Bin Tran"},"message":"Điều kiện là nhà nghèo , học giỏi ...","can_remove":false,"created_time":"2014-04-08T04:50:41+0000","like_count":0,"user_likes":false},"847536941929651":{"id":"847536941929651","from":{"id":"100007917634982","name":"Cry Cry"},"message":"Uống bia tốt","can_remove":false,"created_time":"2014-04-08T06:14:35+0000","like_count":0,"user_likes":false},"847537141929631":{"id":"847537141929631","from":{"id":"100007917634982","name":"Cry Cry"},"message":"1m 2 lốc  Ashahi to","can_remove":false,"created_time":"2014-04-08T06:15:14+0000","like_count":0,"user_likes":false},"847540591929286":{"id":"847540591929286","from":{"id":"100000054665103","name":"John Nguyễn"},"message":"asahi là báo asahi chứ có phải bia asahi đâu bạn Cry Cry ^^","message_tags":[{"id":"100007917634982","name":"Cry Cry","type":"user","offset":49,"length":7}],"can_remove":false,"created_time":"2014-04-08T06:33:00+0000","like_count":1,"user_likes":false},"847542018595810":{"id":"847542018595810","from":{"id":"100003738033219","name":"Yuni Hà"},"message":"Lốc j ạ @@","can_remove":false,"created_time":"2014-04-08T06:40:53+0000","like_count":0,"user_likes":false},"847546475262031":{"id":"847546475262031","from":{"id":"100000054665103","name":"John Nguyễn"},"message":"Yuni Hà cần biết thêm về học bổng asahi thì inbox a nhé","message_tags":[{"id":"100003738033219","name":"Yuni Hà","type":"user","offset":0,"length":7}],"can_remove":false,"created_time":"2014-04-08T06:54:32+0000","like_count":0,"user_likes":false},"847572001926145":{"id":"847572001926145","from":{"id":"100007917634982","name":"Cry Cry"},"message":"Mình biết mà :)) nói vui tí","can_remove":false,"created_time":"2014-04-08T08:32:42+0000","like_count":0,"user_likes":false},"850219491661396":{"id":"850219491661396","from":{"id":"100007561142790","name":"Ngọc Thắng Phan"},"message":"Hb này chỉ dành cho nam.thôi à ???","can_remove":false,"created_time":"2014-04-12T14:19:07+0000","like_count":0,"user_likes":false},"850231988326813":{"id":"850231988326813","from":{"id":"100003766970257","name":"Tư Lozen"},"message":"Uống bia ashahi nhiều là oke","can_remove":false,"created_time":"2014-04-12T14:34:55+0000","like_count":0,"user_likes":false}},"paging":{"cursors":{"after":"ODQ3NDk2NzY4NjAwMzM1","before":"ODQ3NDk2NzY4NjAwMzM1"},"next":"https://graph.facebook.com/229244010425617_847495495267129/comments?limit=1&summary=1&after=ODQ3NDk2NzY4NjAwMzM1"},"summary":{"order":"chronological","total_count":14}}}