{"id":"229244010425617_847566135260065","type":"status","from":{"id":"100004494575712","name":"Hoàng Nam"},"message":"Cần bái sư... ai muốn làm sư thì inbox nhé!!!\nphải có sư mới nhanh tiến bộ được.... Giờ mới nhập môn :))","created_time":"2014-04-08T08:14:10+0000","updated_time":"2014-04-08T14:35:22+0000","likes":{"data":{"100006907235659":{"id":"100006907235659","name":"Thao Van"},"100003622001805":{"id":"100003622001805","name":"Long Nguyễn"},"100001432462223":{"id":"100001432462223","name":"Truong Nguyen"},"100000021018532":{"id":"100000021018532","name":"Hương Nguyễn"},"100003254627434":{"id":"100003254627434","name":"Belongs To Nắng"},"100005616403749":{"id":"100005616403749","name":"Luân Thanh Bùi"},"100007963716784":{"id":"100007963716784","name":"Ninh Thị Hường"},"100001533106767":{"id":"100001533106767","name":"Nguyễn Minh Châu"},"100004182494340":{"id":"100004182494340","name":"Đoàn Vương"}},"paging":{"cursors":{"after":"MTAwMDA2OTA3MjM1NjU5","before":"MTAwMDA2OTA3MjM1NjU5"},"next":"https://graph.facebook.com/229244010425617_847566135260065/likes?limit=1&summary=1&after=MTAwMDA2OTA3MjM1NjU5"},"summary":{"total_count":9}},"comments":{"data":{"847594961923849":{"id":"847594961923849","from":{"id":"100001533106767","name":"Nguyễn Minh Châu"},"message":"Bạn ở đâu ạ?","can_remove":false,"created_time":"2014-04-08T09:36:31+0000","like_count":0,"user_likes":false},"847595135257165":{"id":"847595135257165","from":{"id":"100004494575712","name":"Hoàng Nam"},"message":"mình ở HN","can_remove":false,"created_time":"2014-04-08T09:36:50+0000","like_count":0,"user_likes":false},"847595321923813":{"id":"847595321923813","from":{"id":"100004494575712","name":"Hoàng Nam"},"message":"bạn nào giúp m vơi :(","can_remove":false,"created_time":"2014-04-08T09:37:23+0000","like_count":0,"user_likes":false},"847596581923687":{"id":"847596581923687","from":{"id":"100001533106767","name":"Nguyễn Minh Châu"},"message":"Mình học đhnn khoa t nhật. Nếu đc cứ trao đổi vs mình nhé","can_remove":false,"created_time":"2014-04-08T09:39:59+0000","like_count":0,"user_likes":false},"847597265256952":{"id":"847597265256952","from":{"id":"100004494575712","name":"Hoàng Nam"},"message":"ui thế à.. cám ơn bạn nhé!!","can_remove":false,"created_time":"2014-04-08T09:41:34+0000","like_count":0,"user_likes":false},"847603341923011":{"id":"847603341923011","from":{"id":"100007797156820","name":"Sói Già"},"message":"mình bái sư chung với Hoàng Nam đc ko Nguyễn Minh Châu","message_tags":[{"id":"100004494575712","name":"Hoàng Nam","type":"user","offset":22,"length":9},{"id":"100001533106767","name":"Nguyễn Minh Châu","type":"user","offset":38,"length":16}],"can_remove":false,"created_time":"2014-04-08T09:56:09+0000","like_count":1,"user_likes":false},"847627865253892":{"id":"847627865253892","from":{"id":"100008041958808","name":"Hikaru Hoshi"},"message":"Hay đấy, mình cũng muốn, hay là mình lập group đi, mình tham gia với, mình cũng muốn tìm sư. Sói Già Hoàng Nam, Nguyễn Minh Châu","message_tags":[{"id":"100004494575712","name":"Hoàng Nam","type":"user","offset":101,"length":9},{"id":"100001533106767","name":"Nguyễn Minh Châu","type":"user","offset":112,"length":16}],"can_remove":false,"created_time":"2014-04-08T11:19:57+0000","like_count":3,"user_likes":false},"847630175253661":{"id":"847630175253661","from":{"id":"100003058280462","name":"Đặng Văn Thành"},"message":"Mình cũng mún bái sư với. tháng 7 này thi N4 mà bây h mới học đến bài 25 hì hì @@!","can_remove":false,"created_time":"2014-04-08T11:25:24+0000","like_count":1,"user_likes":false},"847635671919778":{"id":"847635671919778","from":{"id":"100004494575712","name":"Hoàng Nam"},"message":"đây mới nhập môn thôi mấy bạn à Đặng Văn Thành Hikaru Hoshi à :)","message_tags":[{"id":"100008041958808","name":"Hikaru Hoshi","type":"user","offset":47,"length":12}],"can_remove":false,"created_time":"2014-04-08T11:39:25+0000","like_count":0,"user_likes":false},"847637308586281":{"id":"847637308586281","from":{"id":"100008041958808","name":"Hikaru Hoshi"},"message":"Mình cũng mới học tầm N5 đổ về, mà chệch choạc mà, muốn ôn tập và trau dồi liên tục. Có gì thì cùng giúp đỡ nhau :)","can_remove":false,"created_time":"2014-04-08T11:41:59+0000","like_count":0,"user_likes":false},"847638111919534":{"id":"847638111919534","from":{"id":"100004494575712","name":"Hoàng Nam"},"message":"ok bạn.... :v nghĩ mà hài.. t đã biết chữ nào đâu :)","can_remove":false,"created_time":"2014-04-08T11:43:38+0000","like_count":0,"user_likes":false},"847638978586114":{"id":"847638978586114","from":{"id":"100003058280462","name":"Đặng Văn Thành"},"message":"@@!","can_remove":false,"created_time":"2014-04-08T11:45:05+0000","like_count":0,"user_likes":false},"847660275250651":{"id":"847660275250651","from":{"id":"100007797156820","name":"Sói Già"},"message":"Đặng Văn Thành thế học sang quyển 2 hơi khó đáy","can_remove":false,"created_time":"2014-04-08T11:56:42+0000","like_count":0,"user_likes":false},"847660518583960":{"id":"847660518583960","from":{"id":"100007797156820","name":"Sói Già"},"message":"Hikaru Hoshi ok thui 2 tay luôn","message_tags":[{"id":"100008041958808","name":"Hikaru Hoshi","type":"user","offset":0,"length":12}],"can_remove":false,"created_time":"2014-04-08T11:57:23+0000","like_count":0,"user_likes":false},"847685908581421":{"id":"847685908581421","from":{"id":"100005804586628","name":"Huyền Phạm"},"message":"Cho mình 1 chân","can_remove":false,"created_time":"2014-04-08T12:39:04+0000","like_count":0,"user_likes":false},"847686081914737":{"id":"847686081914737","from":{"id":"100003058280462","name":"Đặng Văn Thành"},"message":"ừm. Sói Già à. mình định tự học nên hơi khó mún có ng chỉ bảo @@!","can_remove":false,"created_time":"2014-04-08T12:39:38+0000","like_count":0,"user_likes":false},"847689958581016":{"id":"847689958581016","from":{"id":"100003254627434","name":"Belongs To Nắng"},"message":"cho mình 1 chân bái sư vs","can_remove":false,"created_time":"2014-04-08T12:45:56+0000","like_count":0,"user_likes":false},"847691618580850":{"id":"847691618580850","from":{"id":"100001533106767","name":"Nguyễn Minh Châu"},"message":"mọi ng nếu lập nhóm xong có j cứ hỏi mình nha,mình cũng đang dạy cơ bản :) mình học năm 4","can_remove":false,"created_time":"2014-04-08T12:49:53+0000","like_count":1,"user_likes":false},"847691951914150":{"id":"847691951914150","from":{"id":"100007797156820","name":"Sói Già"},"message":"vậy là trình của câu n2 rùi ah","can_remove":false,"created_time":"2014-04-08T12:50:34+0000","like_count":2,"user_likes":false},"847692081914137":{"id":"847692081914137","from":{"id":"100005804586628","name":"Huyền Phạm"},"message":"Ai ôm n4 n3 k mình theo vs.","can_remove":false,"created_time":"2014-04-08T12:50:48+0000","like_count":0,"user_likes":false},"847692418580770":{"id":"847692418580770","from":{"id":"100003058280462","name":"Đặng Văn Thành"},"message":"năm 4 à. hì hì thế chắc là dạy đc mình rồi Nguyễn MinhNguyễn Minh Châu","message_tags":[{"id":"100001313105660","name":"Nguyễn Minh","type":"user","offset":52,"length":11},{"id":"100001533106767","name":"Nguyễn Minh Châu","type":"user","offset":63,"length":16}],"can_remove":false,"created_time":"2014-04-08T12:51:18+0000","like_count":2,"user_likes":false},"847707631912582":{"id":"847707631912582","from":{"id":"100003032663784","name":"Vượt Qua Thử Thách"},"message":"mình muốn tự học trong 2 năm học nhìu lên n2 nổi hk dạ","can_remove":false,"created_time":"2014-04-08T13:11:06+0000","like_count":0,"user_likes":false},"847726228577389":{"id":"847726228577389","from":{"id":"100008041958808","name":"Hikaru Hoshi"},"message":"mình hiện mạng chưa ổn định, ai thường xuyên lên mạng thì lập nhóm, Sói Già lập nhé!","can_remove":false,"created_time":"2014-04-08T13:35:11+0000","like_count":1,"user_likes":false},"847743741908971":{"id":"847743741908971","from":{"id":"100004494575712","name":"Hoàng Nam"},"message":"lập đi m.n ơi","can_remove":false,"created_time":"2014-04-08T14:05:56+0000","like_count":0,"user_likes":false},"847750218574990":{"id":"847750218574990","from":{"id":"100005939653440","name":"Vinh Lương"},"message":"Cho minh học cùng với. Học 1 minh khó quá mn lập nhóm học chung đi. Mn giúp đỡ lẫn nhau. Onegaishimasu","can_remove":false,"created_time":"2014-04-08T14:16:06+0000","like_count":0,"user_likes":false},"847758098574202":{"id":"847758098574202","from":{"id":"100004494575712","name":"Hoàng Nam"},"message":"thế này nhé... mình sẽ lập group m.n tham gia nhé... hình thức như CLB mn đồng ý ko","can_remove":false,"created_time":"2014-04-08T14:24:30+0000","like_count":2,"user_likes":false},"847762118573800":{"id":"847762118573800","from":{"id":"100005939653440","name":"Vinh Lương"},"message":"Uh. Lập đi b. Có gì mn cùng giúp đỡ lẫn nhau :-D:-D","can_remove":false,"created_time":"2014-04-08T14:31:23+0000","like_count":1,"user_likes":false},"847764061906939":{"id":"847764061906939","from":{"id":"100004494575712","name":"Hoàng Nam"},"message":"https://www.facebook.com/groups/647668505281018/","can_remove":false,"created_time":"2014-04-08T14:35:09+0000","like_count":1,"user_likes":false},"847764151906930":{"id":"847764151906930","from":{"id":"100004494575712","name":"Hoàng Nam"},"message":"đây m.n giúp đỡ nhau nhé!!","can_remove":false,"created_time":"2014-04-08T14:35:22+0000","like_count":1,"user_likes":false}},"paging":{"cursors":{"after":"ODQ3NTk0OTYxOTIzODQ5","before":"ODQ3NTk0OTYxOTIzODQ5"},"next":"https://graph.facebook.com/229244010425617_847566135260065/comments?limit=1&summary=1&after=ODQ3NTk0OTYxOTIzODQ5"},"summary":{"order":"chronological","total_count":29}}}