{"id":"229244010425617_847701591913186","type":"status","from":{"id":"100001256731971","name":"Khải Đăng Dũng"},"message":"Mình đang có nhu cầu chuyển tiền về VN. Mình mới qua nên không biết làm sao cả. Vấn đề này có nhiều cách để giải quyết, mình cũng đã tìm hiểu. Tuy nhiên, vốn tiếng kém mà một số trang web chuyển qua ngân hàng. Do chưa chuyển bao giờ nên mình cũng hơi lo lắng. Bạn nào biết làm ơn giúp mình với. , nếu ai có thể chuyển đươcj thì inbox mình nha. お願いします。","created_time":"2014-04-08T13:00:10+0000","updated_time":"2014-04-08T20:49:15+0000","likes":{"data":{"100004915360462":{"id":"100004915360462","name":"Phamtuyen Pc"}},"paging":{"cursors":{"after":"MTAwMDA0OTE1MzYwNDYy","before":"MTAwMDA0OTE1MzYwNDYy"}},"summary":{"total_count":1}},"comments":{"data":{"847707611912584":{"id":"847707611912584","from":{"id":"1341670471","name":"An Nguyen"},"message":"Bạn chuyển bao nhiêu và khi nào cần chuyển.","can_remove":false,"created_time":"2014-04-08T13:11:05+0000","like_count":0,"user_likes":false},"847709625245716":{"id":"847709625245716","from":{"id":"1341670471","name":"An Nguyen"},"message":"Ra ngân hàng thì nta có chỉ đó. Mà k biết ng mới qua có chuyển đc k. Vì ong xã mình là ng nhật chuyển tiền về việt Nam cũng đủ giấy tờ ( có thể do số tiền lớn) \nBạn chờ các ý kiến của mọi ng nhé. Tháng 5 mình mới về việt Nam lận.. Chắc k kịp giúp bạn đâu ;(","can_remove":false,"created_time":"2014-04-08T13:14:31+0000","like_count":0,"user_likes":false},"847714708578541":{"id":"847714708578541","from":{"id":"100002235953037","name":"Cỏ Không Lá"},"message":"làm cái thẻ SBI đó bạn, ra bưu điện bỏ vào máy cái rụp là tiền ở vn rồi.","can_remove":false,"created_time":"2014-04-08T13:20:01+0000","like_count":1,"user_likes":false},"847719031911442":{"id":"847719031911442","from":{"id":"100001051044941","name":"Khanh Trung"},"message":"Vang Ha","message_tags":[{"id":"100002848445126","name":"Vang Ha","type":"user","offset":0,"length":7}],"can_remove":false,"created_time":"2014-04-08T13:24:40+0000","like_count":0,"user_likes":false},"847749901908355":{"id":"847749901908355","from":{"id":"100003245420682","name":"Thỏ Ngọc Usagi"},"message":"Làm thẻ chuyển cho an toàn","can_remove":false,"created_time":"2014-04-08T14:15:48+0000","like_count":0,"user_likes":false},"847786478571364":{"id":"847786478571364","from":{"id":"100004784233958","name":"NO Bita"},"message":"Đúng rùi bạn... Làm cái sbi đi. Tiện lém","can_remove":false,"created_time":"2014-04-08T15:18:10+0000","like_count":0,"user_likes":false},"847803455236333":{"id":"847803455236333","from":{"id":"100004980884544","name":"VượtQua ChínhMinh"},"message":"SBI lam o dau moi Ng","can_remove":false,"created_time":"2014-04-08T15:33:13+0000","like_count":0,"user_likes":false},"847804378569574":{"id":"847804378569574","from":{"id":"100004784233958","name":"NO Bita"},"message":"Mình sẽ gọi về Việt Nam! Và họ sẽ y/c 1 số thứ .. Có gì họ sẽ hướng dẫn.. Nếu cần trong bạn bè mình có nick chuyển tiền việt nhật á... Ad vào nc là ok","can_remove":false,"created_time":"2014-04-08T15:35:19+0000","like_count":1,"user_likes":false},"847873911895954":{"id":"847873911895954","from":{"id":"100007558053842","name":"Nhox Siêu Quậy"},"message":"Chỉ cần lm thẻ sbi là chuyển đc tiền Việt Nam! À mọi ng...","can_remove":false,"created_time":"2014-04-08T17:36:13+0000","like_count":0,"user_likes":false},"847953205221358":{"id":"847953205221358","from":{"id":"100003668363026","name":"Esctasy Ketamin"},"message":"Làm ntn thế. Chuyển về thì phí ntn thế các b","can_remove":false,"created_time":"2014-04-08T20:49:15+0000","like_count":0,"user_likes":false}},"paging":{"cursors":{"after":"ODQ3NzA3NjExOTEyNTg0","before":"ODQ3NzA3NjExOTEyNTg0"},"next":"https://graph.facebook.com/229244010425617_847701591913186/comments?limit=1&summary=1&after=ODQ3NzA3NjExOTEyNTg0"},"summary":{"order":"chronological","total_count":10}}}