{"id":"229244010425617_847747461908599","type":"photo","object_id":"853929204626511","picture":"https://fbcdn-photos-b-a.akamaihd.net/hphotos-ak-prn2/t1.0-0/1619189_853929204626511_7915891244769091038_s.jpg","link":"https://www.facebook.com/photo.php?fbid=853929204626511&set=gm.847747461908599&type=1&relevant_count=1","from":{"id":"100000283183309","name":"Mây Mây"},"message":"さら、今年の夏東京の隣にある千葉県に来て、生きた日本語と日本文化を勉強しませんか。日本での新しい経験があなたを持っています。\nCác bạn có muốn đến Chiba vào mùa hè năm nay để học tập tiếng Nhật cũng như trải nghiệm văn hóa Nhật Bản sống động không? Những trải nghiệm mới mẻ, thú vị đang chờ bạn ở Nhật đó.","created_time":"2014-04-08T14:12:54+0000","updated_time":"2014-04-08T14:17:32+0000","likes":{"data":{"100002778771134":{"id":"100002778771134","name":"Kyanh Granger"},"100001571342950":{"id":"100001571342950","name":"Catherine Le"}},"paging":{"cursors":{"after":"MTAwMDAyNzc4NzcxMTM0","before":"MTAwMDAyNzc4NzcxMTM0"},"next":"https://graph.facebook.com/229244010425617_847747461908599/likes?limit=1&summary=1&after=MTAwMDAyNzc4NzcxMTM0"},"summary":{"total_count":2}},"comments":{"data":{"847749635241715":{"id":"847749635241715","from":{"id":"100003158960288","name":"Bao Huy Bao Huy"},"message":"何ですか。","can_remove":false,"created_time":"2014-04-08T14:15:41+0000","like_count":0,"user_likes":false},"847750251908320":{"id":"847750251908320","from":{"id":"100000283183309","name":"Mây Mây"},"message":"Bao Huy Bao Huy huy đi à =)))","message_tags":[{"id":"100003158960288","name":"Bao Huy Bao Huy","type":"user","offset":0,"length":15}],"can_remove":false,"created_time":"2014-04-08T14:16:08+0000","like_count":0,"user_likes":false},"847751275241551":{"id":"847751275241551","from":{"id":"100003158960288","name":"Bao Huy Bao Huy"},"message":"いいえ　:3","can_remove":false,"created_time":"2014-04-08T14:17:08+0000","like_count":1,"user_likes":false},"847751618574850":{"id":"847751618574850","from":{"id":"100000283183309","name":"Mây Mây"},"message":":<","can_remove":false,"created_time":"2014-04-08T14:17:32+0000","like_count":0,"user_likes":false}},"paging":{"cursors":{"after":"ODQ3NzQ5NjM1MjQxNzE1","before":"ODQ3NzQ5NjM1MjQxNzE1"},"next":"https://graph.facebook.com/229244010425617_847747461908599/comments?limit=1&summary=1&after=ODQ3NzQ5NjM1MjQxNzE1"},"summary":{"order":"chronological","total_count":4}}}