{"id":"229244010425617_847765058573506","type":"status","from":{"id":"587084690","name":"Bitter Candy"},"message":"SOSSSSS!!! E có ít giấy tờ gấp cần gửi về Việt Nam trong tuần này. Có ai sắp về ko cho e gửi nhờ với ạ!! E sẽ gửi phí ạ. E cảm ơn ạ <3","created_time":"2014-04-08T14:37:31+0000","updated_time":"2014-04-09T09:54:00+0000","likes":{"data":{"100001432462223":{"id":"100001432462223","name":"Truong Nguyen"},"100003800715916":{"id":"100003800715916","name":"Rubic Angel"}},"paging":{"cursors":{"after":"MTAwMDAxNDMyNDYyMjIz","before":"MTAwMDAxNDMyNDYyMjIz"},"next":"https://graph.facebook.com/229244010425617_847765058573506/likes?limit=1&summary=1&after=MTAwMDAxNDMyNDYyMjIz"},"summary":{"total_count":2}},"comments":{"data":{"847766028573409":{"id":"847766028573409","from":{"id":"100000603915176","name":"悪いな ぁ"},"message":"Là giấy tờ quan trọng thì nên đi gửi các hãng chuyển phát cho đảm bảo an toàn, đừng có mà nhờ mang về, mất rồi lại khóc, chẳng có ai đền được đâu cho dù muốn!","can_remove":false,"created_time":"2014-04-08T14:39:24+0000","like_count":1,"user_likes":false},"847768138573198":{"id":"847768138573198","from":{"id":"587084690","name":"Bitter Candy"},"message":"B có biết chuyển phát nào nhanh ko b? M chưa dùng, chỉ sợ cpn mất khoảng 1 tuần thì chậm mất :( thank b!!","can_remove":false,"created_time":"2014-04-08T14:41:27+0000","like_count":0,"user_likes":false},"847768401906505":{"id":"847768401906505","from":{"id":"1779016169","name":"Nguyen Huu Khanh Van"},"message":"Ｇui bao dam\no buu dien di ban．Ｐhi khoang 900 yen ma an toan，1 ngay la toi.","can_remove":false,"created_time":"2014-04-08T14:42:10+0000","like_count":1,"user_likes":false},"847768768573135":{"id":"847768768573135","from":{"id":"100000899822518","name":"Quyen Chan"},"message":"b chuyển = DHL chỉ mất 1 ngày thôi, tuy nhiên giá cước hơi cao. :)","can_remove":false,"created_time":"2014-04-08T14:42:41+0000","like_count":1,"user_likes":false},"847768921906453":{"id":"847768921906453","from":{"id":"587084690","name":"Bitter Candy"},"message":"Có 1 ngày thui hả b??? Tuyệt quá! Có phải là gửi ở Lawson cũng đc đúng ko?","can_remove":false,"created_time":"2014-04-08T14:43:04+0000","like_count":0,"user_likes":false},"847769375239741":{"id":"847769375239741","from":{"id":"587084690","name":"Bitter Candy"},"message":"Tu Anh Phan","message_tags":[{"id":"1428177128","name":"Tu Anh Phan","type":"user","offset":0,"length":11}],"can_remove":false,"created_time":"2014-04-08T14:44:07+0000","like_count":1,"user_likes":false},"847769638573048":{"id":"847769638573048","from":{"id":"1779016169","name":"Nguyen Huu Khanh Van"},"message":"Ban ra buu dien gan nha day.","can_remove":false,"created_time":"2014-04-08T14:44:50+0000","like_count":1,"user_likes":false},"847769988573013":{"id":"847769988573013","from":{"id":"587084690","name":"Bitter Candy"},"message":"Cảm ơn mọi ng nhiều nha!!! <3 <3","can_remove":false,"created_time":"2014-04-08T14:45:46+0000","like_count":0,"user_likes":false},"847774715239207":{"id":"847774715239207","from":{"id":"1044835514","name":"Sue Nguyen"},"message":"FEDEX hoặc DHL thôi,","can_remove":false,"created_time":"2014-04-08T14:52:11+0000","like_count":1,"user_likes":false},"847781485238530":{"id":"847781485238530","from":{"id":"620066722","name":"Dong Khac Thai"},"message":"Nếu gởi bằng EMS thư chuyển phát nhanh quốc tế thì mất khoảng 3 ngày, dưới 500g thì khoảng 900 yên, gởi ở bưu điện. Bưu điện nhỏ thì mở tới 5g thui, còn bưu điện lớn như ở 区 thì có cửa tiếp nhận tới 9g tối.","can_remove":false,"created_time":"2014-04-08T15:06:47+0000","like_count":1,"user_likes":false},"847784545238224":{"id":"847784545238224","from":{"id":"587084690","name":"Bitter Candy"},"message":"Vâg mai e đi gửi luôn ạ! May quá có mọi ng tư vấn. Thank cả nhà ạ! Oyasuminasaiiii <3","can_remove":false,"created_time":"2014-04-08T15:14:00+0000","like_count":1,"user_likes":false},"848131595203519":{"id":"848131595203519","from":{"id":"521525966","name":"Hoa Tím Tất"},"message":"Thấy cái ava của Bitter Candy mà bồi hồi :D\nGửi DHL 1 tờ giấy mất 4sen rưỡi nhé, sáng nay gửi tầm 1h chiều mai ở HN sẽ nhận đc","message_tags":[{"id":"587084690","name":"Bitter Candy","type":"user","offset":17,"length":12}],"can_remove":false,"created_time":"2014-04-09T05:45:18+0000","like_count":1,"user_likes":false},"848244981858847":{"id":"848244981858847","from":{"id":"587084690","name":"Bitter Candy"},"message":"Vâng e cảm ơn c ạ ^^","can_remove":false,"created_time":"2014-04-09T09:54:00+0000","like_count":0,"user_likes":false}},"paging":{"cursors":{"after":"ODQ3NzY2MDI4NTczNDA5","before":"ODQ3NzY2MDI4NTczNDA5"},"next":"https://graph.facebook.com/229244010425617_847765058573506/comments?limit=1&summary=1&after=ODQ3NzY2MDI4NTczNDA5"},"summary":{"order":"chronological","total_count":13}}}