{"id":"229244010425617_847772408572771","type":"status","from":{"id":"100001416272263","name":"Mai PB"},"message":"Đúng và Sai ở group Cộng Đồng Việt Nhật.\n\n- Đây là cộng đồng của người Việt ở Nhật? Sai, là cộng đồng của tất cả những ai yêu thích hoặc có quan tâm đến Nhật và VN, chia sẻ các giá trị Việt Nhật. Thực ra phần lớn member vẫn còn đang ở VN.\n\n- Đây là group học tiếng Nhật? Đúng và sai. Group không dạy tiếng Nhật bài bản từ aiueo, nhưng rất nhiều người nhiệt tình chỉ dạy đúng sai và giải thích những điều mà sách giáo khoa không dạy.\n\n- Group là do admin viết bài, admin cai quản group? Sai, admin chỉ là member tích cực, và chỉ làm người dọn rác, nhân viên trật tự. Luôn khuyến khích member viết bài. Thực tế thì phần lớn admin bị ép làm admin từ khi trót tích cực gắn bó với group. ^^\n\n- Group này thích chính trị? Đúng và Sai. Trong các giá trị Việt Nhật có những giá trị đời thường, liên quan đến đời sống xã hội. Tất cả những điều này ảnh hưởng đến từng con người (chủ yếu là người VN), đó chính là chính trị. Đưa những vấn đề này lên để phản ánh các nội dung văn hóa, giáo dục, nhân đạo mà group quan tâm và cho phép. Tuy nhiên một nửa các nội dung này có liên quan ít nhiều đến Nhật Bản, hoặc đề cập đến VN qua lăng kính đối chiếu với Nhật Bản và thế giới. Điều quan trọng: group muốn hướng member làm quen với các giá trị dân chủ, tự do, cũng chính là một trong những điều các member có thể học và nên học từ nước Nhật.\n\n- Đưa tin xấu về VN, làm cho member xấu hổ vì ghét VN? Vì yêu Nhật? Sai. Phần lớn các cách đưa tin xấu về VN chính là phản ánh thực tại con người, xã hội VN, nhằm các mục đích cảnh báo, phẫn nộ với cái xấu. Thực sự thì con người và xã hội VN vốn không phải như vậy, nó có thể đã tốt hơn thế rất nhiều, thậm chí không hổ thẹn cả với nước Nhật mà cả thế giới tôn trọng. Chẳng qua nó đang bị làm xấu đi vì nhiều nguyên nhân. Đề cập và phân tích đến nó chính là để tự cải tạo bản thân người VN.\n\n- Group ít có hành động gì giúp cho người VN ở VN quan tâm đến Nhật, hoặc đang ở Nhật? Đúng và sai. Group chỉ toàn các member nhiệt tình và quan tâm đến cộng đồng, ở các nơi khác nhau ở Nhật và VN, ít thời gian, và cũng chẳng phải đoàn thể nào, cũng không phải là các nhà từ thiện, chỉ có thể giúp nhau online. Nhưng có giúp được gì không? Có chứ, bằng thông tin đó. Lên đây để được tư vấn, được chia sẻ, đồng cảm, trao đổi liên lạc, biết đâu gặp được bạn trai bạn gái, bạn chia phòng, bạn làm thêm. Và quan trọng là group đã có rất nhiều bài viết có ích (hy vọng là thế). Ai chưa biết các bài viết này, hãy vào notes được ghim trên đầu group.\n\n- Người Việt bị ghét khắp nơi trên nước Nhật? Sai, những người cảm thấy điều đó phần lớn là các bạn đang làm thêm, vốn là những người chưa có đủ cơ hội chứng minh bản thân trước người Nhật (ví dụ là đang ở trong quan hệ người làm thuê và người thuê việc), và làm việc ở những môi trường mà thực ra là toàn những người Nhật bị hạn chế thông tin, hạn chế hiểu biết. Và cũng chỉ là các môi trường hạn hẹp. Các sinh viên senmon, đại học, các nhân viên đi làm... không cảm thấy những điều này. Xã hội thông tin Nhật cũng không có đủ chỗ để quan tâm đến những điều xấu đó, tuy thỉnh thoảng có rộ lên một chút. Mọi người hãy cố gắng lên, sống vui vẻ và hòa đồng là được.\n\n- Các trường dạy tiếng Nhật mà không giới thiệu việc làm thêm là trường xấu? Sai. Theo nguyên tắc, trường tiếng Nhật không được giới thiệu việc làm (vốn yêu cầu giấy phép môi giới lao động riêng). Vì vậy nếu trường nào giới thiệu thì cũng chỉ là giúp đỡ du học sinh giải tỏa nhu cầu tìm việc, và cũng giới thiệu một cách nhỏ giọt, không rầm rộ, không thu phí. Ngược lại, nhiều trường tiếng nghiêm khắc sẽ không giới thiệu việc làm. Không thể lấy tiêu chí này để chọn trường, nếu mục đích chính là du học.\n\n- Hình thức du học hiện giờ được áp dụng là \"vừa học vừa làm\"? Sai, đây là cách nói nôm na của người VN. Nước Nhật cấm du học sinh và người có visa gia đình làm việc, tuy nhiên cho phép đặc biệt 28 giờ làm thêm mỗi tuần. Dù thế nào vẫn chỉ là \"đặc biệt cho phép 28 giờ\", nên không được coi như đương nhiên chính phủ chấp nhận cho đi làm thêm. Vì vậy, đừng có làm toáng lên với trường, với người Nhật là tại sao không tìm việc cho tôi, tôi đi làm theo kiểu vừa học vừa làm cơ mà. Có lừa đảo gì thì đó chính là các công ty du học, chứ không có ai hứa hẹn cho bạn sang Nhật kiếm tiền cả (về mặt chính thức).\n\n- Group Cộng Đồng Việt Nhật có liên quan đến tổ chức VYSA? Sai, CĐVN là một nhóm độc lập, chỉ (mới) hoạt động dưới hình thức group Facebook duy nhất này mà thôi. Tuy nhiên CĐVN có quan hệ tốt với vài member của VYSA.\n\nCòn gì nữa thì đề nghị các member comment ở dưới nhé.","created_time":"2014-04-08T14:48:11+0000","updated_time":"2014-04-13T04:46:33+0000","likes":{"data":{"1725907325":{"id":"1725907325","name":"Nguyen Van Dung"},"100003207764143":{"id":"100003207764143","name":"Anh Vũ Thái"},"100000579915348":{"id":"100000579915348","name":"Hoàng Phi Điệp"},"100000776461179":{"id":"100000776461179","name":"Jotaro Nguyen"},"100002358065757":{"id":"100002358065757","name":"Trọng Sơn"},"100003168012986":{"id":"100003168012986","name":"Ngoc Son Hoang"},"100000033277655":{"id":"100000033277655","name":"Ah Sa"},"100002126161922":{"id":"100002126161922","name":"Thanh Tran"},"100003607925265":{"id":"100003607925265","name":"Thu Hằng"},"100001508739620":{"id":"100001508739620","name":"Lê Ngọc Hoàn"},"623733188":{"id":"623733188","name":"Bui Hung Manh"},"1816269439":{"id":"1816269439","name":"Dao Ngoc"},"100001134227322":{"id":"100001134227322","name":"Phan Thanh Thuy"},"100002449514019":{"id":"100002449514019","name":"Lương Hoa"},"100003291941806":{"id":"100003291941806","name":"Hoang Tu Be"},"100001243411261":{"id":"100001243411261","name":"Ngưu Tỷ Tỷ"},"100002618328161":{"id":"100002618328161","name":"Lê Đức Thịnh"},"1318895018":{"id":"1318895018","name":"Van T Tran"},"100003055356509":{"id":"100003055356509","name":"Thuan Nguyen"},"100003764736821":{"id":"100003764736821","name":"Hùng Kon"},"100000381394367":{"id":"100000381394367","name":"Thành Nguyễn"},"100000052661831":{"id":"100000052661831","name":"Shuntoku Pham"},"100000095655445":{"id":"100000095655445","name":"Kamiya Satoshi"},"100003242552199":{"id":"100003242552199","name":"Kim Anh Dang"},"100000021018532":{"id":"100000021018532","name":"Hương Nguyễn"},"1781602757":{"id":"1781602757","name":"Nguyễn Thu Phương"},"100001336420260":{"id":"100001336420260","name":"Trường Phong"},"100006907235659":{"id":"100006907235659","name":"Thao Van"},"525828985":{"id":"525828985","name":"Cindy Taiki"},"100003105034037":{"id":"100003105034037","name":"Pham Oanh"},"100005903373573":{"id":"100005903373573","name":"HaLinh Phong Phan"},"100000309153854":{"id":"100000309153854","name":"Pham Thuong"},"100006185140581":{"id":"100006185140581","name":"Thảo Lê"},"100000299798248":{"id":"100000299798248","name":"Vẹt Đêm"},"100000328742646":{"id":"100000328742646","name":"Trần Giáp"},"100003732529410":{"id":"100003732529410","name":"Huong Dang"},"100000022163023":{"id":"100000022163023","name":"Kafe Ore"},"100002327743510":{"id":"100002327743510","name":"Tuan Thanh"},"100005333138526":{"id":"100005333138526","name":"Nguyễn Hữu Huy"},"100000045271667":{"id":"100000045271667","name":"Nam Thai Nguyen"},"100002615664668":{"id":"100002615664668","name":"PuPu Phương Elf"},"100001128589118":{"id":"100001128589118","name":"Giang Manh"},"100002060967373":{"id":"100002060967373","name":"Mai Hoang"},"100005634488818":{"id":"100005634488818","name":"Mỹ Thuận"},"100003248117243":{"id":"100003248117243","name":"Sleepy Man"},"100006659978893":{"id":"100006659978893","name":"Ngọc Ngà Nguyễn"},"100000309415626":{"id":"100000309415626","name":"Kona Yuki"},"100004408570721":{"id":"100004408570721","name":"Zen Còi"},"100006734168968":{"id":"100006734168968","name":"Tiểu Nhân Mã"},"100004351478036":{"id":"100004351478036","name":"Ngán Cái Cuộc Đời"},"100000073698728":{"id":"100000073698728","name":"Hương Giang"},"100004299274310":{"id":"100004299274310","name":"Jenny Sakura"},"100003918997915":{"id":"100003918997915","name":"Nguyễn Văn Còn"},"100001876928704":{"id":"100001876928704","name":"Kien Nguyen"},"100003113092410":{"id":"100003113092410","name":"Than Thi Hong Duong"},"1828906841":{"id":"1828906841","name":"Trọng Nghĩa Bùi"},"100002817600730":{"id":"100002817600730","name":"Minh Anh Vg"},"100002901724136":{"id":"100002901724136","name":"Nguyễn Mạnh"},"100003913383051":{"id":"100003913383051","name":"Tho Tran"},"100003622001805":{"id":"100003622001805","name":"Long Nguyễn"},"100001627822638":{"id":"100001627822638","name":"Duong Lam"},"100005211189763":{"id":"100005211189763","name":"Oliveu Cchann"},"100000200742771":{"id":"100000200742771","name":"Nấm Ngoan Hiền"},"1146680551":{"id":"1146680551","name":"優しい なぁ"},"100004398330290":{"id":"100004398330290","name":"Lam Linh"},"100005801442456":{"id":"100005801442456","name":"An Nguyen"},"100007970443878":{"id":"100007970443878","name":"Phương Anh"},"100004290395059":{"id":"100004290395059","name":"A Di Đà Phật"},"100003291701878":{"id":"100003291701878","name":"Bui Anhdat"},"100000204870157":{"id":"100000204870157","name":"Pham Thanh Hai"},"100001526631937":{"id":"100001526631937","name":"Tường Oanh Mineko"},"100003553243152":{"id":"100003553243152","name":"Oanh Nguyen"},"100001896073075":{"id":"100001896073075","name":"Huy Lê"},"1821970083":{"id":"1821970083","name":"Nguyễn Mạnh Cường"},"100004445826984":{"id":"100004445826984","name":"Ong Noi Viet"},"100000326838321":{"id":"100000326838321","name":"Thanh Lv"},"100003146740430":{"id":"100003146740430","name":"Chan Doi"},"100006185262777":{"id":"100006185262777","name":"Xu Xu"},"100004486841161":{"id":"100004486841161","name":"Sheldon Cooper"},"100001723862714":{"id":"100001723862714","name":"Bo Bien Vang"},"100002508122689":{"id":"100002508122689","name":"Vũ Mạnh Tuấn"},"100001754136107":{"id":"100001754136107","name":"Nguyễn Tuấn Vũ"},"100001659230540":{"id":"100001659230540","name":"Lemon Tea"},"100003933466469":{"id":"100003933466469","name":"Phong Aki"},"100003049639881":{"id":"100003049639881","name":"Truong Luvuxy"},"100001643497965":{"id":"100001643497965","name":"Luna Lynn"},"100007903567494":{"id":"100007903567494","name":"ベトナムの ビュイ"},"100002787603296":{"id":"100002787603296","name":"Phương Thảo"},"100001786404410":{"id":"100001786404410","name":"Huệ Nguyễn"},"100001775719325":{"id":"100001775719325","name":"Nguyễn Ngọc Trang"},"1026780646":{"id":"1026780646","name":"Việt Hưng Khổng"},"620066722":{"id":"620066722","name":"Dong Khac Thai"},"100001458099624":{"id":"100001458099624","name":"Kham Pha"},"100003496048128":{"id":"100003496048128","name":"Hư Vô"},"100000603915176":{"id":"100000603915176","name":"悪いな ぁ"},"569263718":{"id":"569263718","name":"Phuong Thao Tran"},"100004025145536":{"id":"100004025145536","name":"Hồng Nhung"},"100000193104491":{"id":"100000193104491","name":"Hac Nguyet"},"100003058280462":{"id":"100003058280462","name":"Đặng Văn Thành"},"100001390704043":{"id":"100001390704043","name":"Trung Imai"},"100007468213697":{"id":"100007468213697","name":"Minh Cảnh"}},"paging":{"cursors":{"after":"MTcyNTkwNzMyNQ==","before":"MTcyNTkwNzMyNQ=="},"next":"https://graph.facebook.com/229244010425617_847772408572771/likes?limit=1&summary=1&after=MTcyNTkwNzMyNQ%3D%3D"},"summary":{"total_count":101}},"comments":{"data":{"847776325239046":{"id":"847776325239046","from":{"id":"100000603915176","name":"悪いな ぁ"},"message":"Và mỗi người có nhiều mối quan tâm, khi ai đó quan tâm điều gì họ sẽ viết điều đó. Đừng bắt ai phải dừng, nếu không thích chỉ cần không tham gia. Nếu cảm thấy thiếu bài viết mà các bạn quan tâm, các bạn hoàn toàn có thể viết, không ai cấm :)","can_remove":false,"created_time":"2014-04-08T14:55:00+0000","like_count":7,"user_likes":false},"847778181905527":{"id":"847778181905527","from":{"id":"100001416272263","name":"Mai PB"},"message":"Tiếp.\n- Người Việt bị ghét khắp nơi trên nước Nhật? Sai, những người cảm thấy điều đó phần lớn là các bạn đang làm thêm, vốn là những người chưa có đủ cơ hội chứng minh bản thân trước người Nhật (ví dụ là đang ở trong quan hệ người làm thuê và người thuê việc), và làm việc ở những môi trường mà thực ra là toàn những người Nhật bị hạn chế thông tin, hạn chế hiểu biết. Và cũng chỉ là các môi trường hạn hẹp. Các sinh viên senmon, đại học, các nhân viên đi làm... không cảm thấy những điều này. Xã hội thông tin Nhật cũng không có đủ chỗ để quan tâm đến những điều xấu đó, tuy thỉnh thoảng có rộ lên một chút. Mọi người hãy cố gắng lên, sống vui vẻ và hòa đồng là được.","can_remove":false,"created_time":"2014-04-08T15:00:19+0000","like_count":10,"user_likes":false},"847783055238373":{"id":"847783055238373","from":{"id":"100001416272263","name":"Mai PB"},"message":"Tiếp.\n- Các trường dạy tiếng Nhật mà không giới thiệu việc làm thêm là trường xấu? Sai. Theo nguyên tắc, trường tiếng Nhật không được giới thiệu việc làm (vốn yêu cầu giấy phép môi giới lao động riêng). Vì vậy nếu trường nào giới thiệu thì cũng chỉ là giúp đỡ du học sinh giải tỏa nhu cầu tìm việc, và cũng giới thiệu một cách nhỏ giọt, không rầm rộ, không thu phí. Ngược lại, nhiều trường tiếng nghiêm khắc sẽ không giới thiệu việc làm. Không thể lấy tiêu chí này để chọn trường, nếu mục đích chính là du học.\n\n- Hình thức du học hiện giờ được áp dụng là \"vừa học vừa làm\"? Sai, đây là cách nói nôm na của người VN. Nước Nhật cấm du học sinh và người có visa gia đình làm việc, tuy nhiên cho phép đặc biệt 28 giờ làm thêm mỗi tuần. Dù thế nào vẫn chỉ là \"đặc biệt cho phép 28 giờ\", nên không được coi như đương nhiên chính phủ chấp nhận cho đi làm thêm. Vì vậy, đừng có làm toáng lên với trường, với người Nhật là tại sao không tìm việc cho tôi, tôi đi làm theo kiểu vừa học vừa làm cơ mà. Có lừa đảo gì thì đó chính là các công ty du học, chứ không có ai hứa hẹn cho bạn sang Nhật kiếm tiền cả (về mặt chính thức).","can_remove":false,"created_time":"2014-04-08T15:10:50+0000","like_count":6,"user_likes":false},"847801595236519":{"id":"847801595236519","from":{"id":"100004198780939","name":"Trần Kim Anh"},"message":"E cảm ơn bài viet của anh","can_remove":false,"created_time":"2014-04-08T15:29:28+0000","like_count":1,"user_likes":false},"847812278568784":{"id":"847812278568784","from":{"id":"100003398911005","name":"Họ Tạ Tên Nam"},"message":"thôi đi má . dài ko thèm đọc ok !","can_remove":false,"created_time":"2014-04-08T15:48:56+0000","like_count":0,"user_likes":false},"847815991901746":{"id":"847815991901746","from":{"id":"1416265619","name":"Starwar Bbj"},"message":"\"biết đâu gặp được bạn trai bạn gái\" :D","can_remove":false,"created_time":"2014-04-08T15:56:12+0000","like_count":1,"user_likes":false},"847845218565490":{"id":"847845218565490","from":{"id":"1146680551","name":"優しい なぁ"},"message":"Lần đầu tiên thấy già làng viết bài dài. Cảm ơn anh. Dài nhưng không dài, đầy đủ những gì cần nói. :)","can_remove":false,"created_time":"2014-04-08T16:48:19+0000","like_count":3,"user_likes":false},"847847485231930":{"id":"847847485231930","from":{"id":"1146680551","name":"優しい なぁ"},"message":"Group là nơi để Quảng Cáo Du Học , hay Quảng cáo XKLĐ : Sai Group là nơi để các bạn lên án những công ty Du Học, XKLĐ xấu, gây ảnh hưởng nhiều mặt đến DHS hay TNS. Group không đại diện cho bất cứ một Công ty Du Học hay XKLĐ nào hết. Group Cộng Đồng Việt - Nhật là nơi chia sẻ giá trị tinh thần Việt - Nhật.","can_remove":false,"created_time":"2014-04-08T16:54:27+0000","like_count":12,"user_likes":false},"847900875226591":{"id":"847900875226591","from":{"id":"100003913383051","name":"Tho Tran"},"message":"Group là nơi để chém gió: cũng đúng vì mỗi bài đăng các member có thể trao đổi bằng các comment để hiểu hơn về một vấn đề gì đó liên quan đến cuộc sống tại nhật hay vấn đề xã hội Việt Nam hiện có.\nGroup là nơi để chia sẻ suy nghĩ cá nhân về xã hội Việt Nam hay nhật bản cũng đúng: các member có thể chia sẻ sự trải nghiệm cuộc sống tại Nhật và những thông tin mới nhất về giáo dục và xã hội Việt Nam đang diễn ra :3","can_remove":false,"created_time":"2014-04-08T18:26:24+0000","like_count":6,"user_likes":false},"847976345219044":{"id":"847976345219044","from":{"id":"100004380181780","name":"Be Boo"},"message":"Nhờ có group mà e học hỏi được rất nhiều hjhj nhất là từ ad kham pha ạ hihi","can_remove":false,"created_time":"2014-04-08T22:03:05+0000","like_count":4,"user_likes":false},"848059128544099":{"id":"848059128544099","from":{"id":"100001416272263","name":"Mai PB"},"message":"Bài này mà dài à, 優しい なぁ?","message_tags":[{"id":"1146680551","name":"優しい なぁ","type":"user","offset":18,"length":6}],"can_remove":false,"created_time":"2014-04-09T02:08:07+0000","like_count":2,"user_likes":false},"848062601877085":{"id":"848062601877085","from":{"id":"1146680551","name":"優しい なぁ"},"message":"Lần đầu thấy a viết dài :3","can_remove":false,"created_time":"2014-04-09T02:16:50+0000","like_count":1,"user_likes":false},"848062635210415":{"id":"848062635210415","from":{"id":"100003913383051","name":"Tho Tran"},"message":"Dài hơn các bài khác ạ!!! Nhưng vẫn chưa thấy dài lắm bác ạ!!!","can_remove":false,"created_time":"2014-04-09T02:17:02+0000","like_count":1,"user_likes":false},"848344931848852":{"id":"848344931848852","from":{"id":"1146680551","name":"優しい なぁ"},"message":":) bạn nào chưa đọc thì đọc nhé :3","can_remove":false,"created_time":"2014-04-09T14:32:42+0000","like_count":1,"user_likes":false},"848360038514008":{"id":"848360038514008","from":{"id":"100000381394367","name":"Thành Nguyễn"},"message":"Bài này rất bổ ích và rất cần thiết để \"giải ảo\" cho rất nhiều mem.","can_remove":false,"created_time":"2014-04-09T15:09:22+0000","like_count":1,"user_likes":false},"848403501842995":{"id":"848403501842995","from":{"id":"100001458099624","name":"Kham Pha"},"message":"admin kì cựu có khác, nêu ra rất nhiều vấn đề dễ gây hiểu lầm (y)\nHi vọng các bạn hiểu rõ hơn về phương hướng hoạt động của group để tránh các hiểu lầm, tranh cãi không đáng có :)","can_remove":false,"created_time":"2014-04-09T16:30:01+0000","like_count":1,"user_likes":false},"850578484958830":{"id":"850578484958830","from":{"id":"100001416272263","name":"Mai PB"},"message":"Tiếp.\n- Group Cộng Đồng Việt Nhật không phải thuộc tổ chức VYSA, chỉ (mới) hoạt động dưới hình thức group Facebook duy nhất này mà thôi.","can_remove":false,"created_time":"2014-04-13T04:05:54+0000","like_count":5,"user_likes":false},"850592114957467":{"id":"850592114957467","from":{"id":"100005801442456","name":"An Nguyen"},"message":"Tiếp : Nhóm Admin từng có 1 Admin rất đẹp trai :3","can_remove":false,"created_time":"2014-04-13T04:45:35+0000","like_count":0,"user_likes":false},"850592491624096":{"id":"850592491624096","from":{"id":"100000603915176","name":"悪いな ぁ"},"message":"Nhưng do tuổi già kéo đến, nhan sắc bị tàn phai -> loại ^^","can_remove":false,"created_time":"2014-04-13T04:46:33+0000","like_count":3,"user_likes":false}},"paging":{"cursors":{"after":"ODQ3Nzc2MzI1MjM5MDQ2","before":"ODQ3Nzc2MzI1MjM5MDQ2"},"next":"https://graph.facebook.com/229244010425617_847772408572771/comments?limit=1&summary=1&after=ODQ3Nzc2MzI1MjM5MDQ2"},"summary":{"order":"chronological","total_count":19}}}