{"id":"229244010425617_847773275239351","type":"status","from":{"id":"100002508122689","name":"Vũ Mạnh Tuấn"},"message":"わかってもらえない方も、わかってあげられない方も、両方とも気の毒なんだ。\n\nわかってもらえないかたも、わかってあげられないかたも、りょうほうもきのどくなんだ。\n\nKẻ không được người khác hiểu cho, hay kẻ không chịu hiểu cho người khác; cả hai đều là người bất hạnh.\n\nTrích 1 lít nước mắt","created_time":"2014-04-08T14:49:30+0000","updated_time":"2014-04-09T06:56:07+0000","likes":{"data":{"100000242885047":{"id":"100000242885047","name":"Ny Trần"},"100000110765909":{"id":"100000110765909","name":"Thảo Nguyễn"},"100006266882815":{"id":"100006266882815","name":"Phạm Lan Mai"},"100003913383051":{"id":"100003913383051","name":"Tho Tran"},"100000603915176":{"id":"100000603915176","name":"悪いな ぁ"},"100001122451473":{"id":"100001122451473","name":"Lavender Cullen"},"1146680551":{"id":"1146680551","name":"優しい なぁ"},"100001526631937":{"id":"100001526631937","name":"Tường Oanh Mineko"},"100004589250661":{"id":"100004589250661","name":"Pé Kẹo Mút"},"1824015127":{"id":"1824015127","name":"Bùi Quang Tân"},"100001416272263":{"id":"100001416272263","name":"Mai PB"},"100001592953699":{"id":"100001592953699","name":"Trúc Phạm"},"100003961115216":{"id":"100003961115216","name":"Chang Pham"},"100000189564897":{"id":"100000189564897","name":"Thanh Vt"},"100000823407127":{"id":"100000823407127","name":"Neko Ngox"},"569263718":{"id":"569263718","name":"Phuong Thao Tran"},"100001691733212":{"id":"100001691733212","name":"Thế Dương"},"100000037024030":{"id":"100000037024030","name":"Hung Duc Tran"},"100005758714297":{"id":"100005758714297","name":"Thường Vân"},"100003222467197":{"id":"100003222467197","name":"Võ Chí Công"},"100004041794244":{"id":"100004041794244","name":"Watanuki Kimihiro"},"100000257464771":{"id":"100000257464771","name":"Trương Ngọc Điệp"},"100002982264086":{"id":"100002982264086","name":"Danh Huong"},"100006734168968":{"id":"100006734168968","name":"Tiểu Nhân Mã"}},"paging":{"cursors":{"after":"MTAwMDAwMjQyODg1MDQ3","before":"MTAwMDAwMjQyODg1MDQ3"},"next":"https://graph.facebook.com/229244010425617_847773275239351/likes?limit=1&summary=1&after=MTAwMDAwMjQyODg1MDQ3"},"summary":{"total_count":25}},"comments":{"data":{"847774338572578":{"id":"847774338572578","from":{"id":"100002982264086","name":"Danh Huong"},"message":"e bị cuồng tiếng nhật r e ơi :3 hoa hết cả mắt","can_remove":false,"created_time":"2014-04-08T14:51:09+0000","like_count":0,"user_likes":false},"847774735239205":{"id":"847774735239205","from":{"id":"100001416272263","name":"Mai PB"},"message":"わかってもらえないことが多ね、僕たちは。","can_remove":false,"created_time":"2014-04-08T14:52:16+0000","like_count":4,"user_likes":false},"847777765238902":{"id":"847777765238902","from":{"id":"100002508122689","name":"Vũ Mạnh Tuấn"},"message":"本当だ。その時、黙った方がいいかどうか考えるべきだ。","can_remove":false,"created_time":"2014-04-08T14:59:02+0000","like_count":2,"user_likes":false},"847824061900939":{"id":"847824061900939","from":{"id":"1146680551","name":"優しい なぁ"},"message":"泣きましたか？","can_remove":false,"created_time":"2014-04-08T16:11:53+0000","like_count":0,"user_likes":false},"847890671894278":{"id":"847890671894278","from":{"id":"100000603915176","name":"悪いな ぁ"},"message":"この話の理由は「 Vũ Mạnh Tuấnと知らない美人は一緒に何かやっていた時に、突然恋人は来て何が見えちゃいました」","message_tags":[{"id":"100002508122689","name":"Vũ Mạnh Tuấn","type":"user","offset":9,"length":12}],"can_remove":false,"created_time":"2014-04-08T18:02:36+0000","like_count":0,"user_likes":false},"848188091864536":{"id":"848188091864536","from":{"id":"100002508122689","name":"Vũ Mạnh Tuấn"},"message":"そうね。\nただ、現在恋人まだいない、悲しい（笑）","can_remove":false,"created_time":"2014-04-09T06:56:07+0000","like_count":0,"user_likes":false}},"paging":{"cursors":{"after":"ODQ3Nzc0MzM4NTcyNTc4","before":"ODQ3Nzc0MzM4NTcyNTc4"},"next":"https://graph.facebook.com/229244010425617_847773275239351/comments?limit=1&summary=1&after=ODQ3Nzc0MzM4NTcyNTc4"},"summary":{"order":"chronological","total_count":6}}}