{"id":"229244010425617_847869135229765","type":"status","from":{"id":"100003248117243","name":"Sleepy Man"},"message":"Trong này, bây giờ cứ mỗi lần có một bài nào lên án cái xấu là làm cho các bạn nhàm chán, thực ra cũng chẳng ai muốn vậy cả. Chỉ là cứ thi thoảng lại có một cái gì đó, mọi người lại bức xúc, lại muốn viết. Còn người khác thì nói, tại sao không tìm ra cái tốt để viết đi!\n\nThế nên mình có một so sánh để các bạn thấy, cái xấu khi mà đã hiện ra một cách quá nhiều lên thì nó sẽ thành một ấn tượng không tốt đè lên cả những cái tốt. Và ví dụ đó nó nằm ngay ở các công ty Du học, Xuất khẩu lao động.\n\nKhông nói sâu xa vì đâu nhưng ngày nay, cứ mỗi lần nghe nhắc đến các công ty này thì ai cũng bảo \"toàn bọn lừa đảo\", \"các bác cho em hỏi công ty nào uy tín...\". Vậy mọi người cùng cho tất cả các công ty này là thế sao? Đó cũng là vì các công ty khác xấu rồi gây nên cái suy nghĩ xấu trên toàn bộ cộng đồng. Và mọi người có bỏ công sức đi để tìm hiểu cái nào xấu, cái nào tốt không?\n\nCũng như vậy, chuyện về người VN thế nào và ấn tượng xấu ra sao? Mọi người luôn muốn tách bạch ra cái xấu cái tốt, đừng suốt ngày nói cái xấu vậy. Tại sao các bạn không công bằng khi cũng kêu gọi như vậy với các công ty kia đi? Đơn giản thôi, vì khi nói đến người Việt Nam một phần là đã động chạm đến các bạn rồi, phải không :)\n\nKhi bị động chạm, các bạn lên tiếng, bảo vệ quyền lợi, bảo vệ hình ảnh. Nhưng các bạn đã thật sự biết cách bảo vệ chưa hay chỉ nghĩ ra cách che dấu? Rồi quên đi rằng, che dấu thì chỉ là tự che dấu thôi, còn sự việc có thế nào nó đã thế rồi. Hậu quả ra sao: Đi xin việc khó, người nước ngoài nhìn thấy người Việt coi thường, đi đâu cũng thấy thông cáo tiếng Việt...\n\nCác bạn muốn tự huyễn hoặc mình bằng những cái đáng tự hào của dân tộc nhưng tự các bạn chẳng có một sự cố gắng nào cả. Nào là tìm ra cái này cái nọ hay của VN để nói lên. Để làm cái gì, cuối cùng cũng chỉ là những cá nhân nhỏ nhoi, vài người như họ không thể toả sáng cho đất nước này thay các bạn đâu, các bạn không thể sống bằng hào quang của họ đâu. Xin lỗi nhé, nếu không từ sự cố gắng của tất cả người VN thì đừng bao giờ mong người VN được ngẩng mặt.\n\nMình xin trích một câu của một cô bé, và đó cũng chính là lời của chính mình hay rất nhiều người khác: \"Hỏi em em có yêu Việt Nam không? em xin trả lời là có. Nhưng nếu hỏi em có tự hào là người Việt Nam không? em xin nói là không\".\n\nNào, mời các bạn ném đá :v","created_time":"2014-04-08T17:27:20+0000","updated_time":"2014-04-09T01:05:24+0000","likes":{"data":{"1416265619":{"id":"1416265619","name":"Starwar Bbj"},"569263718":{"id":"569263718","name":"Phuong Thao Tran"},"100001754136107":{"id":"100001754136107","name":"Nguyễn Tuấn Vũ"},"100001416272263":{"id":"100001416272263","name":"Mai PB"},"1303217748":{"id":"1303217748","name":"Trinh Thi Thanh Duyen"},"1821970083":{"id":"1821970083","name":"Nguyễn Mạnh Cường"},"1146680551":{"id":"1146680551","name":"優しい なぁ"},"100005801442456":{"id":"100005801442456","name":"An Nguyen"},"100005758714297":{"id":"100005758714297","name":"Thường Vân"},"100003764736821":{"id":"100003764736821","name":"Hùng Kon"},"100004915360462":{"id":"100004915360462","name":"Phamtuyen Pc"},"100002431745215":{"id":"100002431745215","name":"Miu Mơ Màng"},"100003322992958":{"id":"100003322992958","name":"Phạm Thuần"},"100007930417031":{"id":"100007930417031","name":"Trang Yamato"},"100006098550222":{"id":"100006098550222","name":"Phạm Thị Lan Anh"},"100005211189763":{"id":"100005211189763","name":"Oliveu Cchann"}},"paging":{"cursors":{"after":"MTQxNjI2NTYxOQ==","before":"MTQxNjI2NTYxOQ=="},"next":"https://graph.facebook.com/229244010425617_847869135229765/likes?limit=1&summary=1&after=MTQxNjI2NTYxOQ%3D%3D"},"summary":{"total_count":16}},"comments":{"data":{"847877335228945":{"id":"847877335228945","from":{"id":"100003496048128","name":"Hư Vô"},"message":"Những bình luận đưa ra là ý kiến cá nhân của từng người...Bạn cho rằng nó không thay đổi được gì -(  Ừ cho là không thể ) . Vậy bạn viết lên đây nhằm mục đích gì ?","can_remove":false,"created_time":"2014-04-08T17:45:14+0000","like_count":0,"user_likes":false},"847878121895533":{"id":"847878121895533","from":{"id":"100007930417031","name":"Trang Yamato"},"message":"Cho 30000 members của group được đọc. \nBạn có bao giờ phát biểu trước 30000 người bao giờ chưa?","can_remove":false,"created_time":"2014-04-08T17:47:19+0000","like_count":5,"user_likes":false},"847893748560637":{"id":"847893748560637","from":{"id":"100000603915176","name":"悪いな ぁ"},"message":"Mọi ý kiến đều là biện luận cho cái tôi, bạn ấy viết lên đây để không gói gọn trong chỉ là 1 comment, để cho nhiều người cùng đọc.","can_remove":false,"created_time":"2014-04-08T18:11:00+0000","like_count":0,"user_likes":false},"847895121893833":{"id":"847895121893833","from":{"id":"100003496048128","name":"Hư Vô"},"message":"Đọc rồi cảm nhận- muốn đưa lên ý kiến của bản thân về sự việc... Bạn viết lên đây cũng chính là cái tôi của bạn thôi","can_remove":false,"created_time":"2014-04-08T18:14:31+0000","like_count":0,"user_likes":false},"847895195227159":{"id":"847895195227159","from":{"id":"1821970083","name":"Nguyễn Mạnh Cường"},"message":"Có phải nội dung đại ý bạn viết là kêu ca ít thôi, lắng nghe và sửa chữa hành động gì đó đi fai không Sleepy Man? do đọc thấy gài nhiều ý liên tiếp nên chủ ý của bạn, mình chưa rõ.","message_tags":[{"id":"100003248117243","name":"Sleepy Man","type":"user","offset":102,"length":10}],"can_remove":false,"created_time":"2014-04-08T18:14:44+0000","like_count":0,"user_likes":false},"847896111893734":{"id":"847896111893734","from":{"id":"100000603915176","name":"悪いな ぁ"},"message":"Em nhìn lại từ chỗ \"Thế nên\" ấy, chỗ đó đến cuối là cho cái đoạn đầu. Đọc lướt cũng thấy mà.\n\nHư Vô, ai chẳng đại diện cho cá nhân để viết :)","message_tags":[{"id":"100003496048128","name":"Hư Vô","type":"user","offset":94,"length":5}],"can_remove":false,"created_time":"2014-04-08T18:16:41+0000","like_count":2,"user_likes":false},"847901415226537":{"id":"847901415226537","from":{"id":"100007930417031","name":"Trang Yamato"},"message":"Cũng đại diện cho ban ngành nữa mà bạn :)","can_remove":false,"created_time":"2014-04-08T18:27:10+0000","like_count":0,"user_likes":false},"848032771880068":{"id":"848032771880068","from":{"id":"100003248117243","name":"Sleepy Man"},"message":"Giật mình, hoá ra phát biểu cho 30k người. Chỉ cần 1k thôi đã đỏ mặt rùi ☺️","can_remove":false,"created_time":"2014-04-09T01:05:24+0000","like_count":0,"user_likes":false}},"paging":{"cursors":{"after":"ODQ3ODc3MzM1MjI4OTQ1","before":"ODQ3ODc3MzM1MjI4OTQ1"},"next":"https://graph.facebook.com/229244010425617_847869135229765/comments?limit=1&summary=1&after=ODQ3ODc3MzM1MjI4OTQ1"},"summary":{"order":"chronological","total_count":8}}}