{"id":"229244010425617_847887981894547","type":"status","from":{"id":"100007930417031","name":"Trang Yamato"},"message":"Những ước mơ chỉ gói lại...bằng Tiền\nKhoảng mười năm trước, hầu hết những đứa trẻ đi thi đại học đều được bố mẹ định hướng vào kinh tế, bác sĩ, kỹ sư xây dựng, bách khoa.\nNgười Việt đang thi nhau 'ném tiền qua cửa sổ'\nLúc ấy, nhiều em học sinh đã “bứt rào” bằng cách lên báo kể về nỗi khổ của một đứa con phải chạy đua với... mơ ước của cha mẹ. Để đáp lại việc đó, nhiều phụ huynh nói: “Thi họa sĩ, âm nhạc rồi biết lấy gì ăn!” \n\nKhi cuộc sống nghèo khổ\n\nMười năm sau, người ta lại chứng kiến một làn sóng kì quặc khác, nhiều người đã tốt nghiệp đại học chẳng còn chút gì mặn mà với đại học nữa, mà giờ ai cũng phải đi học thạc sĩ. Một chị nói: “Giờ học thạc sĩ xong lương mới cao, chứ lương đại học bèo lắm”. Nhiều người, vì mức lương sẽ tăng từ 5 triệu lên 6 triệu sẵn sàng bỏ hai năm trời đi học thạc sĩ, dù không hề biết thạc sĩ liệu sẽ làm gì với cái nghề mình đang làm - Vậy cuối cùng, cái đích mà tất cả những bậc phụ huynh và cả người học hướng tới là gì? - CHỈ LÀ TIỀN\n\nCó một thời dĩ vãng người ta vật lộn với từng miếng ăn, khổ cực trăm bề. Lúc ấy, nhìn lên chỉ thấy kỹ sư bác sĩ là ngon lành, nhìn xuống chỉ thấy nông dân cắm đầu xuống ruộng, làm một ngày mười mấy tiếng đến hết mùa cũng không đủ ăn. Cái sự khổ cực của một xã hội nghèo biến các ước mơ của người ta cũng trở nên nghèo nàn và đơn giản vô cùng, là có được tiền để trang trải cho cuộc sống khốn khổ.\n\nRồi tới tận lúc đã đi qua cái nghèo đó cả 20 năm, thứ duy nhất những phụ huynh già ấy còn giữ trong mình vẫn là tiền. Họ kể cho con cái nghe về những người bạn làm bác sĩ đã giàu có. Họ kể về những người thân quen đã trở thành ông to bà lớn nhờ làm chủ tịch, làm kế toán trưởng. Và họ muốn con cái của mình - một thế hệ sắp xây ra những cuộc đời mới - cũng chỉ là những đứa trẻ có ước mơ duy nhất LÀ TIỀN.\n\nCó bao nhiêu thạc sĩ đang ngồi trong môi trường cao học thực sự biết cái họ đang học là để chuẩn bị bước đầu để họ trở thành những nhà nghiên cứu - chứ không phải vì cái bằng thạc sĩ sẽ khiến họ có lương cao hơn và được thăng chức? Có bao nhiêu sinh viên đi học ngành y tế, xây dựng hiểu rằng ngành của mình là để cứu người và xây nhà đẹp rồi mới được trả nhiều tiền - chứ không phải là làm nghề này chắc chắn sẽ ra nhiều tiền trước hết?\n\nNhững phụ huynh nghèo khổ trong một thế giới nghèo khổ, quá đỗi nhọc nhằn đã trở thành người đầu tiên gieo những hạt mầm hạn hẹp và quá đơn giản vào con đường tương lai của chính con cái mình. Thậm chí có người từng lên báo khoe rằng con tôi tuy làm chăn bò nhưng vẫn giàu. Tại sao không ai khoe rằng con tôi tuy làm chăn bò nhưng rất yêu công việc với gia súc, rất ham thích nghề nông, nó muốn cải tiến chuyện chăm sóc và nuôi bò? - Bởi vì cuối cùng, tất cả những ước mơ mà các bố mẹ ấy muốn thể hiện ra là: “Con tôi đã giàu” chứ không phải là “Con tôi rất hạnh phúc với việc cháu làm” .\n\n... và những đứa trẻ cô đơn\n\nTrong 12 năm đi học, có rất nhiều em học sinh đã vô tình phát hiện ra ước mơ thực sự của mình, có khi là những ước mơ rất lạ lùng, đơn giản hoặc nghe đầy vẻ hão huyền. Em muốn đi làm phim. Em muốn có một garage chuyên độ motor. Em muốn làm một người trồng nấm. Em muốn tìm hiểu về việc lai ghép hoa lan. Có hàng nghìn ước mơ như vậy, với những nghề nghiệp mới và lạ lùng mà các em thấy được từ cuộc sống, từ giao tiếp hằng ngày, từ những thầy cô hoặc người lớn nào đó mà các em quen biết. Ấy vậy mà, đến lúc đưa bút viết vào hồ sơ thi đại học, các em lại đổ xô vào quản trị kinh doanh, vào kế toán, vào bác sĩ (dù nhiều em biết mình học không giỏi lắm), chỉ bởi vì nghe nói mấy nghề ấy an toàn, có việc làm. \n\nNhững mơ mộng rất thành thật ban đầu đã biến đi đâu mất? - Chúng bị triệt tiêu trong lời của thầy cô, trong những buổi tối rì rầm trò chuyện với cha mẹ. Cô giáo chỉ kể rằng có anh cựu học sinh giờ làm kiến trúc sư nên giàu lắm. Cha mẹ chỉ kể rằng hàng xóm nhà mình làm bác sĩ nên xây nhà 5 tầng. Bài học rỉ rả, đơn điệu, thực tế khiến cho đám trẻ mơ mộng tự ngồi dùng kéo xén bỏ bớt các họa tiết loè loẹt trong ước mơ của mình. Và chúng cho ra những hồ sơ thi đại học kinh tế, quản trị mà rất nhiều trong số các em biết nghề đó có nghĩa là làm gì. Bốn năm sau, khi nền kinh tế gặp khủng hoảng, những “kinh tế”, “quản trị” ngày ấy đua nhau đi học giờ một lần nữa lại hoang mang không biết phải làm gì trước cuộc đời.\n\nCứ ngồi ở bất cứ đâu trên các diễn đàn, trong những tâm sự, có hàng nghìn đứa trẻ sau này là sinh viên năm ba, năm tư thú nhận rằng: “Lúc đó em đăng ký đại vì bạn rủ, cô giáo nói chứ có biết đâu nghề này không hợp!” - Rồi đứa sinh viên 22 tuổi đó (nếu can đảm) lại phải bơi lại từ đầu cái con đường nghề nghiệp, đi tìm và học đúng cái nghề hợp với sở trường và sự thích thú của mình. Đó là lúc bốn năm cha mẹ cơm gạo nuôi em hóa thành công cốc.\n\nĐã đến lúc sự định hướng nghề nghiệp và chọn lựa tương lai cho các em không chỉ còn gói gọn trong các bài test khả năng của bạn (miễn phí trên mạng) hay những lời khuyên bâng quơ của bạn chung lớp, lời khuyên thực dụng của cô giáo hay đo đếm một ước mơ tương lai bằng số tiền kiếm được. Sự định hướng nghề nghiệp phải bắt nguồn từ chính trung tâm của giáo dục - là đứa trẻ sắp đi thi đại học kia. Không như 10 năm trước, cha mẹ có thể ép đâu con thi đấy nữa. Các phụ huynh cũng không thể đổ công việc ấy hoàn toàn cho những thầy cô ở trường, vì cuối cùng cha mẹ sẽ là người bỏ tiền nuôi con bốn năm đại học cơ mà. Đã đến lúc cha mẹ phải là những người nhìn thấy con mình qua nhiều năm tháng, thấy những ước mơ nhỏ dấy lên trong con và dần phác hoạ cho con mình thấy đâu là con đường nghề nghiệp mà bé muốn theo đuổi.\n\nNếu một đứa trẻ hỏi cha mẹ: “Nếu con muốn sau này sửa chữa, làm việc với máy móc của xe máy thì sao?” - thì đó là lúc cha nên dắt con mình đến một garage xe máy và cho con quan sát công việc của một người thợ sửa chữa hoặc độ xe máy, để đứa trẻ có thể hình dung được nếu sau này mình làm nghề này, mình sẽ tay chân lấm lem, sẽ được làm việc với máy móc, sẽ ở trong garage với hàng chục chiếc xe máy khác nhau mỗi ngày. Những hiểu biết đơn giản đó là nơi một đứa trẻ dần hình thành nên ước mơ của mình, tự biết rằng liệu sức mình có phù hợp với một công việc như vậy hay không hay mình có... nên đổi sang một việc mới.\n\nKhông phải mọi người ai cũng có thể trở nên giàu có đồ sộ, nhưng bất cứ ai nếu biết cách đều có thể thu xếp để cuộc sống của mình trở nên nhẹ nhàng, hạnh phúc. Và để có thể trở nên hạnh phúc, một con người cần phải thấy vui vẻ khi làm công việc của mình mỗi ngày như một niềm yêu thích - không thì những năm tháng dài với người “bạn đời” công việc chỉ là một ác mộng kéo dài liên tiếp không hồi kết.\n\nCha mẹ đã đi qua rồi cái thời khổ sở, thắc thỏm vì không có miếng ăn, giờ chẳng lẽ nỡ để con cái cũng phải khổ sở vật lộn với chính cái ước mơ mà mình phải bỏ tiền ra mua cho con suốt 4 năm ròng đại học?\n\n------------\n* Bài viết thể hiện văn phong và góc nhìn của tác giả, là nhà báo, blogger đang sống và làm việc tại TP.HCM. Nguồn: Dunghangviet.vn","created_time":"2014-04-08T17:55:28+0000","updated_time":"2014-04-09T14:45:30+0000","likes":{"data":{"100006688951234":{"id":"100006688951234","name":"Ổi Xanh Lè"},"100001564606763":{"id":"100001564606763","name":"Hiếu Phạm"},"100004351478036":{"id":"100004351478036","name":"Ngán Cái Cuộc Đời"},"100001432462223":{"id":"100001432462223","name":"Truong Nguyen"},"100002696130804":{"id":"100002696130804","name":"Hong Vy Le"},"100002698724287":{"id":"100002698724287","name":"Phan Văn Toàn"},"100006250749549":{"id":"100006250749549","name":"Vy Si"},"100003124640776":{"id":"100003124640776","name":"Cú Mèo Bụng Bự"},"100004873984337":{"id":"100004873984337","name":"Itachi Katana"},"100000970923167":{"id":"100000970923167","name":"Nhóc Tèo"},"100003546942984":{"id":"100003546942984","name":"Nhat Quang Hoang"},"100000200742771":{"id":"100000200742771","name":"Nấm Ngoan Hiền"},"100004119541573":{"id":"100004119541573","name":"Thùy Dung"},"100000031765287":{"id":"100000031765287","name":"Mèo Lười"},"100007797156820":{"id":"100007797156820","name":"Sói Già"},"100003091512323":{"id":"100003091512323","name":"Tuyet Hong"},"100000245098200":{"id":"100000245098200","name":"Nguyễn Trường Giang"},"100004077280022":{"id":"100004077280022","name":"Hai Yen"},"100004631352808":{"id":"100004631352808","name":"Sang Sury"},"100003124307460":{"id":"100003124307460","name":"Duc Giang"},"1694966999":{"id":"1694966999","name":"Nguyễn Công Tiến"},"100000042881160":{"id":"100000042881160","name":"Nguyen van Hien"},"100003248117243":{"id":"100003248117243","name":"Sleepy Man"},"711491571":{"id":"711491571","name":"Graziani Inaizarg"},"100007738533215":{"id":"100007738533215","name":"Píc Pa Pol"},"569263718":{"id":"569263718","name":"Phuong Thao Tran"},"100001325881275":{"id":"100001325881275","name":"Duc Tedomi"},"100001754136107":{"id":"100001754136107","name":"Nguyễn Tuấn Vũ"},"100004167104258":{"id":"100004167104258","name":"Trần Ngọc Hoa"},"824089766":{"id":"824089766","name":"Le Dai"},"100001416272263":{"id":"100001416272263","name":"Mai PB"},"100000866044857":{"id":"100000866044857","name":"Nguyen Hanh"},"1416265619":{"id":"1416265619","name":"Starwar Bbj"},"100000005117986":{"id":"100000005117986","name":"Tăng Tiên Sinh"},"100003377121463":{"id":"100003377121463","name":"Ngô Tấn Tài"},"1026780646":{"id":"1026780646","name":"Việt Hưng Khổng"},"100004716847212":{"id":"100004716847212","name":"Khoa Lưu"},"579879322":{"id":"579879322","name":"Mi Meo Meo"},"100004996359569":{"id":"100004996359569","name":"Trần Tú Linh"},"100001051668011":{"id":"100001051668011","name":"Mạnh Hùng"},"100003227043397":{"id":"100003227043397","name":"Akatsuki Yuuki"},"100002484378356":{"id":"100002484378356","name":"Bảo Hân"},"100005326598672":{"id":"100005326598672","name":"Duong Duong"},"100003480936752":{"id":"100003480936752","name":"Hoàng Phú"},"1146680551":{"id":"1146680551","name":"優しい なぁ"},"100000603915176":{"id":"100000603915176","name":"悪いな ぁ"},"100006520210904":{"id":"100006520210904","name":"Miu Miu"},"100002733230904":{"id":"100002733230904","name":"Trịnh Việt Anh"},"100003587314679":{"id":"100003587314679","name":"Why Die"},"100003764736821":{"id":"100003764736821","name":"Hùng Kon"},"100001341293603":{"id":"100001341293603","name":"Phạm Công Nam"},"100004242520435":{"id":"100004242520435","name":"Cô Chủ Nhỏ"},"1757304308":{"id":"1757304308","name":"Trọng Hiền Trần"},"100006098550222":{"id":"100006098550222","name":"Phạm Thị Lan Anh"},"100001368056386":{"id":"100001368056386","name":"Ngọc Wilshere"},"100002605115967":{"id":"100002605115967","name":"Vi Phan"}},"paging":{"cursors":{"after":"MTAwMDA2Njg4OTUxMjM0","before":"MTAwMDA2Njg4OTUxMjM0"},"next":"https://graph.facebook.com/229244010425617_847887981894547/likes?limit=1&summary=1&after=MTAwMDA2Njg4OTUxMjM0"},"summary":{"total_count":57}},"comments":{"data":{"847889215227757":{"id":"847889215227757","from":{"id":"100001368056386","name":"Ngọc Wilshere"},"message":"thấm!","can_remove":false,"created_time":"2014-04-08T17:58:47+0000","like_count":0,"user_likes":false},"847891691894176":{"id":"847891691894176","from":{"id":"100007930417031","name":"Trang Yamato"},"message":"Chung qui cũng tại một nền kinh tế lạc hậu dần do sự lãnh đạo thiếu tầm nhìn của \" họ \"","can_remove":false,"created_time":"2014-04-08T18:04:56+0000","like_count":2,"user_likes":false},"847892918560720":{"id":"847892918560720","from":{"id":"100000603915176","name":"悪いな ぁ"},"message":"Giật cả mình, tưởng Trang Yamato viết. Thanks for share!","message_tags":[{"id":"100007930417031","name":"Trang Yamato","type":"user","offset":20,"length":12}],"can_remove":false,"created_time":"2014-04-08T18:08:55+0000","like_count":4,"user_likes":false},"847893628560649":{"id":"847893628560649","from":{"id":"1821970083","name":"Nguyễn Mạnh Cường"},"message":"Mình thấy là gói gém lại mọi thứ phải là Cuộc sống tốt đẹp (bớt khổ thể xác hơn) hơn theo ý nghĩ cá nhân mỗi người.\nMình nghĩ rằng:\n     Nếu nhận định là tiền làm cho cuộc sống tốt đẹp thì họ đánh giá cao về tiền hơn thứ khác 1 chút, nếu nhận định là tri thức thì họ đánh giá cao về nhiều điều khác nữa hơn cả tiền.\nNhận định, đánh giá đó từ đâu thì mình nghĩ là do môi trường xung quanh mỗi cá nhân tiếp xúc thường xuyên, và gây ảnh hưởng, lo suy nghĩ nhiều nhất.\nSuy nghĩ đúng đắn nên vì cái gì là tốt đẹp thì riêng cá nhân mình nghĩ rằng nên được gần gũi, nương tựa tiếp xúc với sách báo tích cực và coi trọng hơn chút thì sẽ tốt.","can_remove":false,"created_time":"2014-04-08T18:10:46+0000","like_count":1,"user_likes":false},"847896131893732":{"id":"847896131893732","from":{"id":"100003480936752","name":"Hoàng Phú"},"message":"Hồi bé có ước mơ lm nhà du hành vũ trụ !!! Đi chụp ảnh trái đất !!! Lớn lên mốt chút muốn làm ông nọ bà kia Nhưng nhận ra hơi hoang tưởng\nThời cấp 3 thì bắt đầu muốn có cuộc sống mới mẻ, tự lập nên muốn sang đây !!!\nBih thì nhận ra tương lai mình phải ở việt nam chứ ko phải nhật bổn nên đang chọn ngành :( năm sau em mới thi \nCó ai biết 医療 về việt nam có tương lai ko ạh\nVà bên này thì yêu cầu cao ko ạh :(","can_remove":false,"created_time":"2014-04-08T18:16:44+0000","like_count":0,"user_likes":false},"847900471893298":{"id":"847900471893298","from":{"id":"100007930417031","name":"Trang Yamato"},"message":"Liên quan gì chăng?","can_remove":false,"created_time":"2014-04-08T18:25:45+0000","like_count":0,"user_likes":false},"847900855226593":{"id":"847900855226593","from":{"id":"100003480936752","name":"Hoàng Phú"},"message":"Có :( \nBih vẫn phân vân ko biết năm sau học cái j @@","can_remove":false,"created_time":"2014-04-08T18:26:22+0000","like_count":0,"user_likes":false},"847901171893228":{"id":"847901171893228","from":{"id":"100003480936752","name":"Hoàng Phú"},"message":"Đọc xong ms nhớ","can_remove":false,"created_time":"2014-04-08T18:26:48+0000","like_count":0,"user_likes":false},"848026558547356":{"id":"848026558547356","from":{"id":"100001754136107","name":"Nguyễn Tuấn Vũ"},"message":"E vừa đọc vừa nhớ lại cuộc nói chuyện với bố e: bố thấy ngành quản trị kinh doanh giờ thừa nhiều rồi, con học 1 2 năm nữa xem xét lại xem ngành nào có triển vọng, mai sau làm ra tiền thì chuyển. Chẳng hạn như công nghệ thông tin, mai sau thế này... cần ng như thế này...","can_remove":false,"created_time":"2014-04-09T00:45:55+0000","like_count":0,"user_likes":false},"848029781880367":{"id":"848029781880367","from":{"id":"100007738533215","name":"Píc Pa Pol"},"message":"Bạn Trang Yamato shared bài viết dài và hay quá ! :D.","message_tags":[{"id":"100007930417031","name":"Trang Yamato","type":"user","offset":4,"length":12}],"can_remove":false,"created_time":"2014-04-09T00:56:16+0000","like_count":0,"user_likes":false},"848031671880178":{"id":"848031671880178","from":{"id":"653264860","name":"Duc Quang Pham"},"message":"Vật chất quyết định ý thức: Bố mẹ, thày cô nghèo khổ thì sẽ hướng con thoát ra hoàn cảnh đó. Nhưng vì thiếu hiểu biết, thiếu kiến thức (do nghèo!) nên cách tốt nhất là dạy con theo những gương mẫu mình nhìn thấy.\n\nƯớc mơ xuất phát từ thực tế: Trẻ em được nuôi dạy trong một môi trường hạn hẹp thì khó có ước mơ đột phá, định hướng tương lai phù hợp, nếu có thì cũng chưa chắc đã tự mình lý giải được phương thức để thực hiện ước mơ và mục đích của ước mơ.\n\nMột cái vòng luẩn quẩn của nghèo và dốt. Nếu muốn trẻ nhỏ có được ước mơ và đam mê đúng nghĩa thì bố mẹ bố mẹ phải có hiểu biết (nếu đang nghèo thì phải học) và giàu một chút mới được","can_remove":false,"created_time":"2014-04-09T01:01:59+0000","like_count":1,"user_likes":false},"848034498546562":{"id":"848034498546562","from":{"id":"100001101932047","name":"Quang Thiếu Gia"},"message":"Nếu là ng có nghị lưc và điều kiện thì dù bạn học ngành gì bạn cũng thấy được tương lai phía trước. Nhưng nếu xuất phát điểm của bạn thấp bạn sẽ thấy được đôi khi ước mơ chỉ là mơ ước. Học đại học là cả 1 sự tính toán. Kinh tế, công việc sau này. Mình có nhưng xã hội không cần, những thứ xã hội cần mình lại không có. Như giờ ước mơ của bạn là kế toán, ngân hàng. Cầm bằng Khá ra trường có khi còn chưa có việc và chỉ đủ ăn. Với tốc độ phổ cập giáo dục bậc đại học và thạc sĩ ở Vn thì.... Bản thân mình cũng tốt nghiệp  Bách Khoa. Trước lúc ra trường vẫn nghĩ đời 1 màu hồng. Nhưng ra mới thấy cuộc đời phũ phàng hơn mình nghĩ. Đúng là tốt nghiệp trường học thì dễ còn trường đời mới khó. Nhưng dẫu sao cũng nên ước mơ. Cho cuộc sống này thêm đa màu sắc. Đừng như ai đó, cuộc đời là bức tranh đơn sắc màu xám nghoẹt :)","can_remove":false,"created_time":"2014-04-09T01:12:14+0000","like_count":3,"user_likes":false},"848055468544465":{"id":"848055468544465","from":{"id":"100004631352808","name":"Sang Sury"},"message":"bai viet nay that tuyet arigatougozaimasu :)","can_remove":false,"created_time":"2014-04-09T02:00:04+0000","like_count":0,"user_likes":false},"848171825199496":{"id":"848171825199496","from":{"id":"100007930417031","name":"Trang Yamato"},"message":"Haizzz. Lại cái lý thuyết \" Vật chất quyết định ý thức \" lỗi thời.\n\nNgười Nhật họ ý thức cao là vì điều gì?","can_remove":false,"created_time":"2014-04-09T06:38:11+0000","like_count":1,"user_likes":false},"848198671863478":{"id":"848198671863478","from":{"id":"100001101932047","name":"Quang Thiếu Gia"},"message":"Vì họ sống trong 1 chế độ khác, 1 nền giáo dục khác. Đừng đem nước ngoài so sáng với Vn, khập khiễng lắm ty à :) Nhập gia tuỳ tục, tiền ko mua dc hạnh phúc nhưng ko có tiền thì khó để đạt được ước mơ. Con nhà nông như tụi t với cái ước mơ hoạ sĩ hay nhiếp ảnh... thực sự là hơi phù phiếm. Ước mơ gì khi ngày mai phải lo tiền học, tiền nhà, và 1 đống chi phí. Đơn giản nhé: có cái mình muốn và cái mình cần, cái mình muốn đôi khi không cần, nhưng cái mình cần thì đôi khi lại ko muốn. Đối lập nhỉ ??! T chỉ muốn phân biệt rõ 2 điều đó, đừng để ước mơ xoá mờ thực tại. Ngày mai thì chẳng ai biết trước. いくらたいへんでも、がんばりましょう :)","can_remove":false,"created_time":"2014-04-09T07:02:41+0000","like_count":1,"user_likes":false},"848213048528707":{"id":"848213048528707","from":{"id":"653264860","name":"Duc Quang Pham"},"message":"\"Vật chất quyết định ý thức\" lý thuyết này chỉ lâu đời chứ không lỗi thời. \n\nMột cách gián tiếp thì tiền bạc vật chất tác động tới giáo dục và văn hóa.\n\nĐể định hướng cho con cái người Nhật phải chi rất nhiều tiền cho giáo dục. Từ nhỏ con cái họ được học và trải nghiệm rất nhiều thứ (nhạc họa thể dục thể thao ... khoa học kỹ thuật, công nghệ cao) và gần như là toàn diện. Không có tiền không có hiểu biết thì không thể làm được. Có tiếp xúc thực tế, cộng thêm sự định hướng phù hợp thì mới thấy được mặt phải và mặt trái của một ước mơ và lúc đấy mới có một mơ ước hoàn thiện.\n\nNgay trong xã hội Nhật không phải ai cũng có điều kiện theo đuổi ước mơ của mình đâu. Hỏi bao nhiêu người Nhật đủ tiền bạc và công sức để đầu tư cho việc học những trường như trường Y, trường luật ... Vào những trường nổi tiếng và học những nghành yêu thích trong những trường nổi tiến nhu Tokyo, Tohoku, Osaka, Waseda ...  \n\nNgười Nhật cực kỳ thực dụng họ biết giá trị của đồng tiền và ý thức vô cùng quan trọng của đồng tiền. Ý thức họ cao một phần là do truyền thống, một phần lớn là do họ sử dụng đồng tiền một cách vô cùng hợp lý để đầu tư lại cho xã hội.\n\nĐừng bao giờ hi vọng một xã hội nghèo nàn mà nhân văn.\nHãy làm việc và kiếm tiền đi, còn mơ ước thì có thể để sau đó hoặc con cháu chúng ta làm thay nhé :))","can_remove":false,"created_time":"2014-04-09T07:45:30+0000","like_count":3,"user_likes":false},"848332971850048":{"id":"848332971850048","from":{"id":"100006250749549","name":"Vy Si"},"message":"Na LÙn","message_tags":[{"id":"100008019068529","name":"Na LÙn","type":"user","offset":0,"length":6}],"can_remove":false,"created_time":"2014-04-09T14:01:38+0000","like_count":0,"user_likes":false},"848338391849506":{"id":"848338391849506","from":{"id":"100007930417031","name":"Trang Yamato"},"message":"Mọi sự so sánh đều khập khiễng, vì nếu không khập khiễng thì sẽ giống nhau. Khi đó thì chẳng còn gì để so sánh cả.\nXH nghèo nàn là do bản thân chúng ta không cố gắng kiếm tiền? \nĐương nhiên là không phải, chừng nào mà lượng ODA để phát triển kinh tế, XH còn chảy vào túi của mấy ông lớn thì đừng mơ đến chuyện phát triển. :)","can_remove":false,"created_time":"2014-04-09T14:16:30+0000","like_count":0,"user_likes":false},"848350041848341":{"id":"848350041848341","from":{"id":"100001101932047","name":"Quang Thiếu Gia"},"message":"Bàn mấy vấn đề này to quá :) Ngủ thôi mai còn đi cày trả nợ đời. おやすみなさい。;)","can_remove":false,"created_time":"2014-04-09T14:45:30+0000","like_count":0,"user_likes":false}},"paging":{"cursors":{"after":"ODQ3ODg5MjE1MjI3NzU3","before":"ODQ3ODg5MjE1MjI3NzU3"},"next":"https://graph.facebook.com/229244010425617_847887981894547/comments?limit=1&summary=1&after=ODQ3ODg5MjE1MjI3NzU3"},"summary":{"order":"chronological","total_count":19}}}