{"id":"229244010425617_847831368566875","type":"video","source":"http://www.youtube.com/v/KUzzzPryMUg?autohide=1&version=3&autoplay=1","from":{"id":"569263718","name":"Phuong Thao Tran"},"message":"【Góc âm nhạc】\nGửi các tình yêu khúc tình ca 愛人　(Nhân Tình), \n\nGiai điệu của bài này mình nghe cách đây vài chục năm bằng bản cover tiếng Việt.\nTình cờ nghe bản tiếng Nhật, quả thật bất ngờ... ^_~\nBản này ca sĩ Đặng Lệ Quân có trình bày nhưng mình thích ca sỹ người Nhật Quế Ngân Thục, 桂銀淑,Keiunsuku  trình bày hơn, ^_^\n\nMời cả nhà thưởng thức và chúc ngủ ngon, ^ ^\n<---link:  https://www.youtube.com/watch?v=KUzzzPryMUg   --->\n---------------------------------------------\nあなたが好きだから　それでいいのよ\nたとえ一緒に街を　歩けなくても\nこの部屋にいつも　帰ってくれたら\nわたしは待つ身の　女でいいの\n\n尽して　泣きぬれて　そして愛されて\n時がふたりを　離さぬように\n見つめて　寄りそって　そしてだきしめて\nこのままあなたの胸で　暮らしたい\n\nめぐり逢い少しだけ　遅いだけなの\n何も言わずいてね　わかっているわ\n心だけせめて　残してくれたら\nわたしは見送る　女でいいの\n\n★尽して　泣きぬれて　そして愛されて\n　明日がふたりを　こわさぬように\n　離れて　恋しくて　そして会いたくて\n　このままあなたの胸で　眠りたい★","created_time":"2014-04-08T16:25:59+0000","updated_time":"2014-04-08T17:03:56+0000","likes":{"data":{"620066722":{"id":"620066722","name":"Dong Khac Thai"},"100005969887558":{"id":"100005969887558","name":"Trần Cuồng Phong"},"100000328742646":{"id":"100000328742646","name":"Trần Giáp"},"100004253979918":{"id":"100004253979918","name":"Louis Hoàng Văn Thái"},"100007468213697":{"id":"100007468213697","name":"Minh Cảnh"},"100001432462223":{"id":"100001432462223","name":"Truong Nguyen"},"100001526631937":{"id":"100001526631937","name":"Tường Oanh Mineko"},"100000022163023":{"id":"100000022163023","name":"Kafe Ore"}},"paging":{"cursors":{"after":"NjIwMDY2NzIy","before":"NjIwMDY2NzIy"},"next":"https://graph.facebook.com/229244010425617_847831368566875/likes?limit=1&summary=1&after=NjIwMDY2NzIy"},"summary":{"total_count":8}},"comments":{"data":{"847840825232596":{"id":"847840825232596","from":{"id":"100000022163023","name":"Kafe Ore"},"message":"Một bài hát tuyệt vời ... khắc khoải yêu đương, khắc khoải đợi mong.\nEm thích nghe テレサ・テン trình bày hơn . \nCảm ơn chị đã share, cũng chúc chị ngủ ngon !\nhttps://www.youtube.com/watch?v=Km0tMGHIAHU","can_remove":false,"created_time":"2014-04-08T16:39:42+0000","like_count":0,"user_likes":false},"847841708565841":{"id":"847841708565841","from":{"id":"569263718","name":"Phuong Thao Tran"},"message":"bản cover tiếng Việt cũng thổn thức lắm, cố tìm thử xem Kafe Ore, :)","message_tags":[{"id":"100000022163023","name":"Kafe Ore","type":"user","offset":56,"length":8}],"can_remove":false,"created_time":"2014-04-08T16:41:39+0000","like_count":1,"user_likes":false},"847844961898849":{"id":"847844961898849","from":{"id":"569263718","name":"Phuong Thao Tran"},"message":"theo cảm nhận của mình thì giọng của Đặng Lệ Quân không thể hiện hết cõi lòng lời của bài này bằng Quế Ngân Thục, :)","can_remove":false,"created_time":"2014-04-08T16:47:25+0000","like_count":1,"user_likes":false},"847848501898495":{"id":"847848501898495","from":{"id":"100000022163023","name":"Kafe Ore"},"message":"Thổn thức lòng ! . \" rượu rót chưa uống mà hồn đã say khướt .. \"\nhttps://www.youtube.com/watch?v=ksEyyOouONk","can_remove":false,"created_time":"2014-04-08T16:57:10+0000","like_count":1,"user_likes":false},"847851995231479":{"id":"847851995231479","from":{"id":"569263718","name":"Phuong Thao Tran"},"message":"Ngọc Lan thì đi với Đặng Lệ Quân thiệt, nhưng nghe Khánh Hà thì phê hơn, ^ ^\nhttp://www.nhaccuatui.com/video/tan-tac-khanh-ha.d12HBK7lsivt.html","can_remove":false,"created_time":"2014-04-08T17:03:56+0000","like_count":1,"user_likes":false}},"paging":{"cursors":{"after":"ODQ3ODQwODI1MjMyNTk2","before":"ODQ3ODQwODI1MjMyNTk2"},"next":"https://graph.facebook.com/229244010425617_847831368566875/comments?limit=1&summary=1&after=ODQ3ODQwODI1MjMyNTk2"},"summary":{"order":"chronological","total_count":5}}}