{"id":"229244010425617_847805918569420","type":"status","from":{"id":"100001416272263","name":"Mai PB"},"message":"Đây, cũng là người Việt Nam nhưng bạn này làm được điều tốt này. Giới thiệu bài này không phải để tự hào người VN gì cả, bởi vì những việc như thế này, rất nhiều người từ đủ các nước làm rồi. Người Nhật sang VN làm việc tương tự mấy chục năm nay cũng có. Vậy giới thiệu với mục đích gì, để mọi người hãy hiểu, cái quan trọng nhất ở một con người là cái tâm. Có tâm thì không ai phân biệt quốc tịch cả. Và điều quan trọng nhất cần phải làm ở mọi xã hội, mọi thời đại chính là giáo dục. Hãy sang Nhật nếu có thể, để học từ xh Nhật những điều tốt.","created_time":"2014-04-08T15:37:08+0000","updated_time":"2014-04-09T08:28:49+0000","likes":{"data":{"100000084907383":{"id":"100000084907383","name":"Hồng Nhung"},"100004929942215":{"id":"100004929942215","name":"Khanh My"},"100003832543092":{"id":"100003832543092","name":"Hue Nguyen"},"100003272242369":{"id":"100003272242369","name":"Shin Satoh"},"100007330144944":{"id":"100007330144944","name":"Phương"},"100006882070398":{"id":"100006882070398","name":"Mỹ Đức Dương Thị"},"100003024730023":{"id":"100003024730023","name":"Sachiko Hạnh"},"100003857157932":{"id":"100003857157932","name":"Trâm Tâm Lý"},"100006909487454":{"id":"100006909487454","name":"Nguyễn Đức Thắng"},"100000367010477":{"id":"100000367010477","name":"Sky's Wings"},"100002871405403":{"id":"100002871405403","name":"Thach Sanh"},"100001233118357":{"id":"100001233118357","name":"Trần Đức Thân"},"100001943106952":{"id":"100001943106952","name":"Ut Tay Ninh"},"100007749823946":{"id":"100007749823946","name":"Sakai Yuriko"},"100003893158172":{"id":"100003893158172","name":"Maru MO"},"100003516815793":{"id":"100003516815793","name":"Hiển Trần"},"100007898072851":{"id":"100007898072851","name":"Trần Văn Chuyên"},"100004096243144":{"id":"100004096243144","name":"Shorai Nguyễn"},"100001876928704":{"id":"100001876928704","name":"Kien Nguyen"},"1776330824":{"id":"1776330824","name":"Nyaa Nyaa"},"100004762171423":{"id":"100004762171423","name":"Nrt Uch"},"100005440689746":{"id":"100005440689746","name":"Trang Mapy"},"100002453893230":{"id":"100002453893230","name":"Lê Tâm"},"100003877275415":{"id":"100003877275415","name":"Yuki"},"100004716640495":{"id":"100004716640495","name":"Thúy An Dương"},"100004559260324":{"id":"100004559260324","name":"Anh Túc"},"100001246485382":{"id":"100001246485382","name":"Haniki Nguyen"},"100001044224883":{"id":"100001044224883","name":"Fan Tom"},"100004194190922":{"id":"100004194190922","name":"Meo Luoi"},"100004141509084":{"id":"100004141509084","name":"Kẹo Kẹo"},"100006409272147":{"id":"100006409272147","name":"Joshi Kousei"},"100004496623284":{"id":"100004496623284","name":"Mc Bily"},"100004367679988":{"id":"100004367679988","name":"Kumi Nguyen"},"100000889991755":{"id":"100000889991755","name":"Nhat Vy"},"100002059661614":{"id":"100002059661614","name":"Ngô Sỹ Hiệp"},"100005275411260":{"id":"100005275411260","name":"Hoa Của Nắng"},"100007135864191":{"id":"100007135864191","name":"Linh Đa Lê"},"100003275658608":{"id":"100003275658608","name":"Đỗ Hữu Phúc"},"100003039237438":{"id":"100003039237438","name":"Huong Luu Thi"},"100003500824416":{"id":"100003500824416","name":"Trung Chu"},"100001708331268":{"id":"100001708331268","name":"Lieu Dang"},"1452845400":{"id":"1452845400","name":"Thu Phuong"},"100003287293423":{"id":"100003287293423","name":"Yêu Lại Từ Đầu"},"100003950005025":{"id":"100003950005025","name":"Tara Cobra"},"100003913383051":{"id":"100003913383051","name":"Tho Tran"},"100001260645727":{"id":"100001260645727","name":"Ngo Duy Son"},"100003732529410":{"id":"100003732529410","name":"Huong Dang"},"100004101038669":{"id":"100004101038669","name":"Oanh Inoshishi"},"100005957170273":{"id":"100005957170273","name":"Thi Dong Nguyen"},"100001754136107":{"id":"100001754136107","name":"Nguyễn Tuấn Vũ"},"100001807609603":{"id":"100001807609603","name":"Nguyễn Khánh Huyền"},"1816269439":{"id":"1816269439","name":"Dao Ngoc"},"1009579545":{"id":"1009579545","name":"Tịnh Quang"},"100000918871201":{"id":"100000918871201","name":"Thang PhanVan"},"100004140850631":{"id":"100004140850631","name":"Huong Trang"},"100003734278470":{"id":"100003734278470","name":"Nguyễn Cúc"},"100004770424643":{"id":"100004770424643","name":"Thuyên Nga"},"100001995263460":{"id":"100001995263460","name":"Chibi Yuriko"},"100003912810608":{"id":"100003912810608","name":"Thoang Qua"},"100005801442456":{"id":"100005801442456","name":"An Nguyen"},"100004551908016":{"id":"100004551908016","name":"Lê Duy"},"100007880444320":{"id":"100007880444320","name":"自由"},"100003090738530":{"id":"100003090738530","name":"Ngô Thị Thanh Hường"},"100006520210904":{"id":"100006520210904","name":"Miu Miu"},"1005117187":{"id":"1005117187","name":"Juri Le"},"100003924638739":{"id":"100003924638739","name":"Toi La Ai"},"100007930145431":{"id":"100007930145431","name":"Phát Tôn"},"100006098550222":{"id":"100006098550222","name":"Phạm Thị Lan Anh"},"100003719334579":{"id":"100003719334579","name":"Hoàng Yến"},"100000055943236":{"id":"100000055943236","name":"Nguyễn Chinh"},"100008133690691":{"id":"100008133690691","name":"Con Yêu Mẹ"},"100007442013692":{"id":"100007442013692","name":"Phuong Ngo"},"100002428163247":{"id":"100002428163247","name":"Trần Đức Hùng"},"100003553243152":{"id":"100003553243152","name":"Oanh Nguyen"},"100004398330290":{"id":"100004398330290","name":"Lam Linh"},"100002342366178":{"id":"100002342366178","name":"Huong Diep"},"100001643497965":{"id":"100001643497965","name":"Luna Lynn"},"100002641370562":{"id":"100002641370562","name":"Linh Vũ"},"100003911265377":{"id":"100003911265377","name":"Thanh Truc Vo"},"100002822719392":{"id":"100002822719392","name":"Py Nguyễn"},"100000282035510":{"id":"100000282035510","name":"Enter Max"},"100001113783887":{"id":"100001113783887","name":"Tien Pham"},"100007799559921":{"id":"100007799559921","name":"MoMo Tvt"},"100005717284672":{"id":"100005717284672","name":"Phong Nguyễn"},"100001786404410":{"id":"100001786404410","name":"Huệ Nguyễn"},"100003242552199":{"id":"100003242552199","name":"Kim Anh Dang"},"100001793782938":{"id":"100001793782938","name":"Hồng Hà Khuất"},"100001526631937":{"id":"100001526631937","name":"Tường Oanh Mineko"},"100006418027058":{"id":"100006418027058","name":"Chắc Đùa"},"100004041794244":{"id":"100004041794244","name":"Watanuki Kimihiro"},"100001533106767":{"id":"100001533106767","name":"Nguyễn Minh Châu"},"100003291701878":{"id":"100003291701878","name":"Bui Anhdat"},"100000052661831":{"id":"100000052661831","name":"Shuntoku Pham"},"100000876802397":{"id":"100000876802397","name":"Trần Bảo Ngân"},"1146680551":{"id":"1146680551","name":"優しい なぁ"},"100000331320623":{"id":"100000331320623","name":"Trái Tim Sỏi Đá"},"1453400118":{"id":"1453400118","name":"Ngan Nguyen"},"100003980112068":{"id":"100003980112068","name":"Endless Paradise"},"1821970083":{"id":"1821970083","name":"Nguyễn Mạnh Cường"},"100004057444453":{"id":"100004057444453","name":"Vân Este"},"100000231671242":{"id":"100000231671242","name":"Aoi Matsubayashi"},"100003496048128":{"id":"100003496048128","name":"Hư Vô"},"1570557403":{"id":"1570557403","name":"Nguyên Hân"},"1303327291":{"id":"1303327291","name":"Nguyễn Thanh Tùng"},"100003898875729":{"id":"100003898875729","name":"Hai Nguyen"},"100005091033623":{"id":"100005091033623","name":"Mai Trung Tín"},"100005557419433":{"id":"100005557419433","name":"Quý Đặng Đắc"},"1725907325":{"id":"1725907325","name":"Nguyen Van Dung"},"100005307004792":{"id":"100005307004792","name":"Kiều Văn"},"569263718":{"id":"569263718","name":"Phuong Thao Tran"},"100005495773832":{"id":"100005495773832","name":"Hiền Vũ"},"100003030654354":{"id":"100003030654354","name":"Chuông Gió"},"100000054665103":{"id":"100000054665103","name":"John Nguyễn"},"100000355576941":{"id":"100000355576941","name":"Hai Do Minh"},"100004049753092":{"id":"100004049753092","name":"Bông Nguyễn"},"100003983705863":{"id":"100003983705863","name":"Hoàng Anh Tài"},"528761061":{"id":"528761061","name":"Huyen Trang"},"100001659230540":{"id":"100001659230540","name":"Lemon Tea"},"100001458099624":{"id":"100001458099624","name":"Kham Pha"}},"paging":{"cursors":{"after":"MTAwMDAwMDg0OTA3Mzgz","before":"MTAwMDAwMDg0OTA3Mzgz"},"next":"https://graph.facebook.com/229244010425617_847805918569420/likes?limit=1&summary=1&after=MTAwMDAwMDg0OTA3Mzgz"},"summary":{"total_count":122}},"comments":{"data":{"847855161897829":{"id":"847855161897829","from":{"id":"100000055943236","name":"Nguyễn Chinh"},"message":"Tự nhiên thấy trước nay mình chưa làm được gì cả :(","can_remove":false,"created_time":"2014-04-08T17:12:18+0000","like_count":3,"user_likes":false},"847982368551775":{"id":"847982368551775","from":{"id":"1009579545","name":"Tịnh Quang"},"message":"Thật tự hào với e","can_remove":false,"created_time":"2014-04-08T22:25:55+0000","like_count":0,"user_likes":false},"848003738549638":{"id":"848003738549638","from":{"id":"100007075511476","name":"Xa Xa"},"message":"Hic sao ko dậy ở vn ? Trẻ vn nghèo ko được đi học nhiều hơn thái lan mà...","can_remove":false,"created_time":"2014-04-08T23:39:39+0000","like_count":1,"user_likes":false},"848120461871299":{"id":"848120461871299","from":{"id":"100000186616129","name":"Tuyên Xây Dựng"},"message":"sang Thái Lan du lịch. sao ko dạy ở mù căng chải VN","can_remove":false,"created_time":"2014-04-09T05:07:29+0000","like_count":1,"user_likes":false},"848131271870218":{"id":"848131271870218","from":{"id":"100004716640495","name":"Thúy An Dương"},"message":"Cảm ơn chị LỆ QUYÊN","can_remove":false,"created_time":"2014-04-09T05:44:21+0000","like_count":0,"user_likes":false},"848182241865121":{"id":"848182241865121","from":{"id":"100001416272263","name":"Mai PB"},"message":"Xa Xa, Tuyên Xây Dựng : bởi vì không đơn giản làm những dự án như thế này ở VN, do thiếu thông tin, chính quyền thường yêu cầu giấy phép, xin phép, tổ chức phải đăng ký...  Ngoài ra, còn phải đảm bảo an ninh, điều kiện sinh sống tối thiểu cho người làm từ thiện như thế này, thì lại cần phải có sự tổ chức tốt, nếu không có thể nguy hiểm. Muốn làm từ thiện hoặc hoạt động xã hội ở VN không phải đơn giản. Không được \"cầm đèn chạy trước oto\" mặc dù oto rùa.","message_tags":[{"id":"100007075511476","name":"Xa Xa","type":"user","offset":0,"length":5}],"can_remove":false,"created_time":"2014-04-09T06:48:04+0000","like_count":2,"user_likes":false},"848183088531703":{"id":"848183088531703","from":{"id":"100007075511476","name":"Xa Xa"},"message":"Hic ... Vì thế nên nước mình mãi thế này đây","can_remove":false,"created_time":"2014-04-09T06:49:35+0000","like_count":0,"user_likes":false},"848183298531682":{"id":"848183298531682","from":{"id":"100007075511476","name":"Xa Xa"},"message":"Túm lại là phải xin ý kiến các cấp ... Đây là vđ nhạy cảm hihi...","can_remove":false,"created_time":"2014-04-09T06:50:16+0000","like_count":1,"user_likes":false},"848225881860757":{"id":"848225881860757","from":{"id":"100001876928704","name":"Kien Nguyen"},"message":"Cám ơn bạn nhé ! Lệ Quyên !!!","can_remove":false,"created_time":"2014-04-09T08:28:49+0000","like_count":0,"user_likes":false}},"paging":{"cursors":{"after":"ODQ3ODU1MTYxODk3ODI5","before":"ODQ3ODU1MTYxODk3ODI5"},"next":"https://graph.facebook.com/229244010425617_847805918569420/comments?limit=1&summary=1&after=ODQ3ODU1MTYxODk3ODI5"},"summary":{"order":"chronological","total_count":9}}}