{"id":"229244010425617_848097488540263","type":"status","from":{"id":"100000500260636","name":"Lưu Nguyễn Thảo Tiên"},"message":"[Cách học hội thoại ~ phương pháp Shadowing シャドウイング] P1\nHôm nay mình xin triển khai chỗ \"bắt chước người bản xứ\" trong 1 bài post về phương pháp học gần đây của anh Việt Hưng Khổng \n\nĐa số người VN gặp văn đề này khi học tiếng, bạn có không? \nKhông nge được người bản xứ nói gì\nKhông nói, giao tiếp được\nNói hoài không ai hiểu\nPhải dịch trước khi nói\nQuên ngay, đăc biệt là nhầm\nViết thiếu tự nhiên\nKhông biết dùng từ gì\nLàm kiểm tra toàn \"thấy quen quen\" thì lụi\n\nTưởng tượng việc thực hành ngoại ngữ giống như việc tập xe đạp, việc học ngữ pháp từ vựng như là học về các vận hành, cấu trúc, các bộ phận..bạn lúc này chỉ có thể đi sửa xe đạp!!! Còn mục đích của bạn là chạy xe đạp nhưng bạn chỉ mở sách xem, xem người khác chạy xe nhưng quên mất là bạn phải leo lên xe và đạp. \nVậy khi tập, mất thăng bằng, té, đau, nhấp từng khúc..dù gì đi nữa tóm lại là TẬP và LUYỆN.\n\n================================\nCơ sở lý thuyết\nPhương pháp này phản xạ, bắt chước là chủ yếu, càng giống càng thành công. Bạn chỉ cần chăm chỉ thực hành nghe nói là được. Học giỏi ngoại ngữ không cần phải có IQ cao nhé! \n\nBạn học 1 cách thụ động - học để kiểm tra: học vẹt từ vựng, nhìn, biết, nhớ. Từ vựng đó tồn tại trong não bạn dưới dạng hình ảnh Không phải âm thanh, nên bạn nghe không được ngôn ngữ của người bản xứ. Tương tự với ngữ pháp. \nThông tin của bạn lúc này nằm im chứ không truy xuất được lúc cần, không ứng dụng, không giao tiếp được.\n\nÝ tưởng / hình ảnh => ngôn ngữ => nói / diễn đạt\n\nKhi bạn muốn trình bày 1 ý kiến thì não sẽ \"xuất\" Ý còn phần ngôn ngữ bạn phải \"dịch\". Bước ngôn ngữ này bạn không thể có đủ thời gian \"dịch\" khi hội thoại nên bạn sẽ phải chuẩn bị trước một Vùng ngôn ngữ riêng trong não. Vậy nếu bạn muốn nó được hình thành thì cần phải có \"Vốn\" - Input (Nhập) được lưu trữ bằng nhiều giác quan. Bạn muốn Output là khả năng hội thoại thì khi học phải nói, bạn muốn làm bài tốt thì môi trường khi học càng giống với khi kiểm tra càng tốt. \n\nTại sao nên học băng phương pháp này?\nPhát triển \"sense of language\" tức là nhìn vào bạn có thể biết \"kỳ kỳ\", từ này không thể dùng trong hoàn cảnh đó v.v...\nGiao tiếp cơ bản - trôi chảy.\nPhân biệt đối tương giao tiếp, sử dụng mẫu câu thích hợp.\nPhát âm chuẩn. Đúng tone đúng điệu.\n\n================================\n\nCách học:  \nメ Sơ - tiền trung cấp\n- Viết chữ đúng nét, đọc to thành tiếng, âm trước khi đặt bút viết.\n- Từ vựng sau khi học xong, mở file nghe, viết lại. \n- Câu ví dụ, mở nghe 1 lần, đọc to, viết lại.\n- Học đến khoảng bài 20. Bắt đầu luyện kaiwa. Chọn bài thích nhất. Chưa cần giống lắm, yêu cầu trôi chảy, đúng ngữ pháp, đúng từ\n \nメ Trung - cao cấp (Đã xong 中級へ行こう) \n\n1/ Luyện phát âm, ngữ điệu: \nB1 Chọn 1 bài dưới 2ph (luyện trong 25ph)\nB2 Nghe cả bài, nắm đại khái nội dung, k cần thuộc.\nB3 Nghe theo từng đoạn nhỏ có nghĩa, 1s/ lần nghe, \nLặp lại đến khi thật giống phát âm, phần lên xuống giọng, ngữ điệu, tốc độ, cảm xúc ng nói.\nB4 Nghe từng câu 1-3s, lặp lại câu.\nB5 Nối lại các đoạn nhỏ, lặp lại cả câu. Đoạn nào có vấn đề khi ráp câu, quay trở lại b3,4\nKhi luyện câu, hình dung ngữ cảnh và ý nghĩa câu. \nRáp 2 câu.\nRáp đoạn.\nTự thu âm. \nLuyện nhuyễn chừng 2 bài b sẽ thấy khác. Tuổi nhỏ và có năng khiếu nhạc sẽ học nhanh hơn. \n\nNhững bài đọc dài có Cd thì chọn đọc theo cũng được nhé!","created_time":"2014-04-09T03:43:55+0000","updated_time":"2014-04-10T07:38:26+0000","likes":{"data":{"100001557981751":{"id":"100001557981751","name":"Hồ Ngọc Khanh"},"100001511299242":{"id":"100001511299242","name":"Ngọc Anh Nguyễn"},"100002901724136":{"id":"100002901724136","name":"Nguyễn Mạnh"},"100003694981194":{"id":"100003694981194","name":"Kim Duongxuan"},"100003307140104":{"id":"100003307140104","name":"Saru Nguyen"},"100002181625299":{"id":"100002181625299","name":"Thuỷ Doãn"},"100000655383199":{"id":"100000655383199","name":"Huy Hoang"},"100004022118015":{"id":"100004022118015","name":"Phan Tinh"},"100003662772797":{"id":"100003662772797","name":"Uyên Thánh Thiện"},"100000154325668":{"id":"100000154325668","name":"Lam Buong Binh"},"1725907325":{"id":"1725907325","name":"Nguyen Van Dung"},"100002257397293":{"id":"100002257397293","name":"Quyen Hoang"},"100005459013657":{"id":"100005459013657","name":"Trịnh Trung"},"1369942664":{"id":"1369942664","name":"Cloudy Aut"},"1784427925":{"id":"1784427925","name":"Hang Vuong"},"100007503307408":{"id":"100007503307408","name":"Việt Anh"},"100001458099624":{"id":"100001458099624","name":"Kham Pha"},"100003480936752":{"id":"100003480936752","name":"Hoàng Phú"},"100003553243152":{"id":"100003553243152","name":"Oanh Nguyen"},"100000073698728":{"id":"100000073698728","name":"Hương Giang"},"100004253979918":{"id":"100004253979918","name":"Louis Hoàng Văn Thái"},"100006974080148":{"id":"100006974080148","name":"Pek Cỏ"},"100004000251506":{"id":"100004000251506","name":"Vuong Manh Luan"},"100000703348447":{"id":"100000703348447","name":"Lan Lan"},"100006617707180":{"id":"100006617707180","name":"Đức Thanh"},"100005495773832":{"id":"100005495773832","name":"Hiền Vũ"},"100003747841579":{"id":"100003747841579","name":"Amai Sweet"},"100000398157165":{"id":"100000398157165","name":"Sống Còn"},"1816269439":{"id":"1816269439","name":"Dao Ngoc"},"100000178074664":{"id":"100000178074664","name":"Dinh Thi Thu Huong"},"1026780646":{"id":"1026780646","name":"Việt Hưng Khổng"},"100003799434301":{"id":"100003799434301","name":"Ninh Mai"},"100004077918319":{"id":"100004077918319","name":"Heo Còi"},"100003916723321":{"id":"100003916723321","name":"Nguyen Thu Huyen"},"100005775182411":{"id":"100005775182411","name":"Tuấn Milo"},"100001114549932":{"id":"100001114549932","name":"Bui Thanh Hung"},"100003032663784":{"id":"100003032663784","name":"Vượt Qua Thử Thách"},"100003739643123":{"id":"100003739643123","name":"Tú Anh Nguyễn"},"1821970083":{"id":"1821970083","name":"Nguyễn Mạnh Cường"},"100003182647292":{"id":"100003182647292","name":"Trương Thị Lan Phương"},"100001775719325":{"id":"100001775719325","name":"Nguyễn Ngọc Trang"},"100000283635847":{"id":"100000283635847","name":"Trung Super"},"100002835263165":{"id":"100002835263165","name":"Sầu Riêng"},"100002396398237":{"id":"100002396398237","name":"Tri Cao"},"100002202800066":{"id":"100002202800066","name":"Trang Trương"},"100004375364623":{"id":"100004375364623","name":"Quang Lê"},"100003912810608":{"id":"100003912810608","name":"Thoang Qua"},"100007471925078":{"id":"100007471925078","name":"Yu Ki"},"100005307004792":{"id":"100005307004792","name":"Kiều Văn"},"524273247":{"id":"524273247","name":"Hung Ken"},"100002615664668":{"id":"100002615664668","name":"PuPu Phương Elf"},"100000876802397":{"id":"100000876802397","name":"Trần Bảo Ngân"},"100003511061469":{"id":"100003511061469","name":"Nhan Nguyen"},"100004299274310":{"id":"100004299274310","name":"Jenny Sakura"},"100003885856131":{"id":"100003885856131","name":"Thắng Khanh"},"100003901630275":{"id":"100003901630275","name":"Phạm Quang Lợi"},"100003874040211":{"id":"100003874040211","name":"Long Bui"},"100004450956167":{"id":"100004450956167","name":"Thắng Satoh"},"100007293188338":{"id":"100007293188338","name":"Dương Lê"},"100003828938221":{"id":"100003828938221","name":"Watashi WA Thanh Desu"},"100003069246142":{"id":"100003069246142","name":"Hồng Trịnh"},"100002449514019":{"id":"100002449514019","name":"Lương Hoa"},"100004119541573":{"id":"100004119541573","name":"Thùy Dung"},"100007938450435":{"id":"100007938450435","name":"Miruku Chokoreeto"},"100005801442456":{"id":"100005801442456","name":"An Nguyen"},"569263718":{"id":"569263718","name":"Phuong Thao Tran"},"100008033654317":{"id":"100008033654317","name":"Nỗi Lòng Xa Xứ"},"100001432462223":{"id":"100001432462223","name":"Truong Nguyen"},"1146680551":{"id":"1146680551","name":"優しい なぁ"},"100003310618708":{"id":"100003310618708","name":"BiNô Triết Gia"},"100004478287906":{"id":"100004478287906","name":"Lê Đức Anh"},"100000298989958":{"id":"100000298989958","name":"Anh Đô"},"100001044224883":{"id":"100001044224883","name":"Fan Tom"},"1204273200":{"id":"1204273200","name":"Kumo Hoang"},"100005145330760":{"id":"100005145330760","name":"Sơn Vũ"},"100001526631937":{"id":"100001526631937","name":"Tường Oanh Mineko"},"100000152396772":{"id":"100000152396772","name":"Huệ Lê Tuyết"},"100001606380276":{"id":"100001606380276","name":"Phan Đức Thái"},"100004712551712":{"id":"100004712551712","name":"Pe Hoai"},"620066722":{"id":"620066722","name":"Dong Khac Thai"},"100001444337943":{"id":"100001444337943","name":"Macjanh"},"100004086631868":{"id":"100004086631868","name":"Lêkita Mít Ướt"},"100002963737004":{"id":"100002963737004","name":"Hà Phùng"},"100003158558639":{"id":"100003158558639","name":"Lời Nói Gió Bay"},"100003913383051":{"id":"100003913383051","name":"Tho Tran"},"100000328742646":{"id":"100000328742646","name":"Trần Giáp"},"100001416272263":{"id":"100001416272263","name":"Mai PB"},"100002735721462":{"id":"100002735721462","name":"Reyna Tr"},"1259384895":{"id":"1259384895","name":"Emylyyuri Xdntd"}},"paging":{"cursors":{"after":"MTAwMDAxNTU3OTgxNzUx","before":"MTAwMDAxNTU3OTgxNzUx"},"next":"https://graph.facebook.com/229244010425617_848097488540263/likes?limit=1&summary=1&after=MTAwMDAxNTU3OTgxNzUx"},"summary":{"total_count":89}},"comments":{"data":{"848099125206766":{"id":"848099125206766","from":{"id":"100001416272263","name":"Mai PB"},"message":"P1, tức là...","can_remove":false,"created_time":"2014-04-09T03:48:57+0000","like_count":0,"user_likes":false},"848099505206728":{"id":"848099505206728","from":{"id":"100000500260636","name":"Lưu Nguyễn Thảo Tiên"},"message":"Còn hành hạ ng khác bằng p2 ợ. Anh để ý ghê. Mờ em k vô đc note để lấy link bài anh Khổng.","can_remove":false,"created_time":"2014-04-09T03:50:18+0000","like_count":1,"user_likes":false},"848099531873392":{"id":"848099531873392","from":{"id":"100003913383051","name":"Tho Tran"},"message":"ありがとう","can_remove":false,"created_time":"2014-04-09T03:50:22+0000","like_count":0,"user_likes":false},"848100561873289":{"id":"848100561873289","from":{"id":"100002963737004","name":"Hà Phùng"},"message":"Đau đầu quá -_-","can_remove":false,"created_time":"2014-04-09T03:53:48+0000","like_count":0,"user_likes":false},"848101108539901":{"id":"848101108539901","from":{"id":"100000600815626","name":"KqlTwo MeoHen"},"message":"まだ初級で勉強しているの。","can_remove":false,"created_time":"2014-04-09T03:55:25+0000","like_count":0,"user_likes":false},"848105021872843":{"id":"848105021872843","from":{"id":"100001526631937","name":"Tường Oanh Mineko"},"message":"cái này em đã được học nhưng chưa thực hiện kỹ theo đúng các bước như thế này. Lại TẬP và LUYỆN thôi, lần  này sẽ cố gắng đạt được theo các bước chị đã nhắc. Thanks you !","can_remove":false,"created_time":"2014-04-09T04:09:15+0000","like_count":1,"user_likes":false},"848105745206104":{"id":"848105745206104","from":{"id":"100001416272263","name":"Mai PB"},"message":"Sao không vô notes đc, Lưu Nguyễn Thảo Tiên ?","message_tags":[{"id":"100000500260636","name":"Lưu Nguyễn Thảo Tiên","type":"user","offset":23,"length":20}],"can_remove":false,"created_time":"2014-04-09T04:11:48+0000","like_count":0,"user_likes":false},"848106305206048":{"id":"848106305206048","from":{"id":"100000500260636","name":"Lưu Nguyễn Thảo Tiên"},"message":"Em tag tên còn k hiện ra nữa, hự!","can_remove":false,"created_time":"2014-04-09T04:14:09+0000","like_count":0,"user_likes":false},"848108171872528":{"id":"848108171872528","from":{"id":"100001432462223","name":"Truong Nguyen"},"message":":v viết hay thế ah :v","can_remove":false,"created_time":"2014-04-09T04:18:30+0000","like_count":0,"user_likes":false},"848108531872492":{"id":"848108531872492","from":{"id":"100001526631937","name":"Tường Oanh Mineko"},"message":"Đây là link về phương pháp học ngoại ngữ đã được viết bởi anh Việt Hưng Khổng, mọi người xem bổ sung thêm. Khi nào ok thì bổ sung link này lên bài viết nhé c Lưu Nguyễn Thảo Tiên.\nhttps://www.facebook.com/groups/CongdongVietNhat/permalink/846441622039183/","message_tags":[{"id":"100000500260636","name":"Lưu Nguyễn Thảo Tiên","type":"user","offset":158,"length":20}],"can_remove":false,"created_time":"2014-04-09T04:19:50+0000","like_count":1,"user_likes":false},"848110318538980":{"id":"848110318538980","from":{"id":"569263718","name":"Phuong Thao Tran"},"message":"Viết quá hay... (Y)","can_remove":false,"created_time":"2014-04-09T04:27:16+0000","like_count":2,"user_likes":false},"848111338538878":{"id":"848111338538878","from":{"id":"100004088408017","name":"Bách Đà"},"message":"Hay","can_remove":false,"created_time":"2014-04-09T04:30:25+0000","like_count":0,"user_likes":false},"848111428538869":{"id":"848111428538869","from":{"id":"100004088408017","name":"Bách Đà"},"message":"Mình cũng phải học theo cách này xem thế nào","can_remove":false,"created_time":"2014-04-09T04:30:48+0000","like_count":0,"user_likes":false},"848233728526639":{"id":"848233728526639","from":{"id":"100003032663784","name":"Vượt Qua Thử Thách"},"message":"thế mình học nghe theo âm nhạc thì thế nào nhể ballad đến rock rồi rap chắc cũng hay đấy","can_remove":false,"created_time":"2014-04-09T09:04:40+0000","like_count":0,"user_likes":false},"848243135192365":{"id":"848243135192365","from":{"id":"100002963737004","name":"Hà Phùng"},"message":"Mình đã thử và -_-","can_remove":false,"created_time":"2014-04-09T09:45:41+0000","like_count":0,"user_likes":false},"848243231859022":{"id":"848243231859022","from":{"id":"100003032663784","name":"Vượt Qua Thử Thách"},"message":"k thành công hả","can_remove":false,"created_time":"2014-04-09T09:46:16+0000","like_count":0,"user_likes":false},"848243431859002":{"id":"848243431859002","from":{"id":"100000500260636","name":"Lưu Nguyễn Thảo Tiên"},"message":"Coi chừng ngộ độc, tớ failed rồi đây!","can_remove":false,"created_time":"2014-04-09T09:47:29+0000","like_count":1,"user_likes":false},"848449258505086":{"id":"848449258505086","from":{"id":"100000500260636","name":"Lưu Nguyễn Thảo Tiên"},"message":"Kham Pha cúi cùng cũng chỉnh xong :\"> hô hô","message_tags":[{"id":"100001458099624","name":"Kham Pha","type":"user","offset":0,"length":8}],"can_remove":false,"created_time":"2014-04-09T17:36:10+0000","like_count":0,"user_likes":false},"848605421822803":{"id":"848605421822803","from":{"id":"100001458099624","name":"Kham Pha"},"message":"phương pháp này là chuẩn rồi đó, hồi trc cũng định viết một bài tương tự nhưng bị Lưu Nguyễn Thảo Tiên nẫng mất rồi :)","message_tags":[{"id":"100000500260636","name":"Lưu Nguyễn Thảo Tiên","type":"user","offset":82,"length":20}],"can_remove":false,"created_time":"2014-04-10T00:06:15+0000","like_count":1,"user_likes":false},"848610528488959":{"id":"848610528488959","from":{"id":"100002889530069","name":"Doãn Thế Anh"},"message":"Phương pháp rất hay!","can_remove":false,"created_time":"2014-04-10T00:20:00+0000","like_count":0,"user_likes":false},"848614378488574":{"id":"848614378488574","from":{"id":"100001416272263","name":"Mai PB"},"message":"Note lại bài này đi.","can_remove":false,"created_time":"2014-04-10T00:33:11+0000","like_count":1,"user_likes":false},"848754608474551":{"id":"848754608474551","from":{"id":"100000500260636","name":"Lưu Nguyễn Thảo Tiên"},"message":"Có thể note giùm em không!? Em k mở nổi note ra cơ","can_remove":false,"created_time":"2014-04-10T07:38:26+0000","like_count":0,"user_likes":false}},"paging":{"cursors":{"after":"ODQ4MDk5MTI1MjA2NzY2","before":"ODQ4MDk5MTI1MjA2NzY2"},"next":"https://graph.facebook.com/229244010425617_848097488540263/comments?limit=1&summary=1&after=ODQ4MDk5MTI1MjA2NzY2"},"summary":{"order":"chronological","total_count":22}}}