{"id":"229244010425617_848003725216306","type":"photo","object_id":"1408284959441437","picture":"https://fbcdn-photos-d-a.akamaihd.net/hphotos-ak-frc3/t1.0-0/10253741_1408284959441437_3652153670068339710_s.jpg","link":"https://www.facebook.com/photo.php?fbid=1408284959441437&set=gm.848003725216306&type=1&relevant_count=1","from":{"id":"100007798380150","name":"海外移住"},"message":"「克己（こっき）」という言葉があります。自分に甘えず、怠けたいと思う心に勝つ！という意味です。経済状況、環境等くじけそうになることは周りにはたくさんありますが、何事も諦めずにコツコツ頑張りたいですね(^-^)\n\n※写真と内容は関係ありません(笑)","created_time":"2014-04-08T23:39:37+0000","updated_time":"2014-04-09T00:23:25+0000","likes":{"data":{"100000242885047":{"id":"100000242885047","name":"Ny Trần"},"100006603036735":{"id":"100006603036735","name":"Erica Miki Nakamura"},"100003878410014":{"id":"100003878410014","name":"Sumie Matsuo"},"100001056100850":{"id":"100001056100850","name":"間野目香織"},"100002655715552":{"id":"100002655715552","name":"Orito Midori"},"100002157666249":{"id":"100002157666249","name":"Keiji Furusho"},"100001786404410":{"id":"100001786404410","name":"Huệ Nguyễn"},"100001432462223":{"id":"100001432462223","name":"Truong Nguyen"},"100001279209972":{"id":"100001279209972","name":"Bara Anh"},"100006307596308":{"id":"100006307596308","name":"Khi Nào Đổi Thay"},"100004362480675":{"id":"100004362480675","name":"Đi Tìm Thất Bại"},"100003942528766":{"id":"100003942528766","name":"Manabu  Yasui"},"100002118381264":{"id":"100002118381264","name":"Yuji Tsuboi"},"100005940993762":{"id":"100005940993762","name":"Hiroko  Horiuchi"},"100001663326777":{"id":"100001663326777","name":"Yuri Chan"},"100004076014686":{"id":"100004076014686","name":"Đăng Trần Hải"},"100004784233958":{"id":"100004784233958","name":"NO Bita"},"569263718":{"id":"569263718","name":"Phuong Thao Tran"},"100001754136107":{"id":"100001754136107","name":"Nguyễn Tuấn Vũ"},"100005925607989":{"id":"100005925607989","name":"Shintaro Wakao"},"100004732893408":{"id":"100004732893408","name":"Syuiti  Ota"},"100002213101970":{"id":"100002213101970","name":"Hideyuki  Motohashi"},"100001824172942":{"id":"100001824172942","name":"Phan Van"},"100006791732884":{"id":"100006791732884","name":"Hiền Vũ"},"100004408570721":{"id":"100004408570721","name":"Zen Còi"}},"paging":{"cursors":{"after":"MTAwMDAwMjQyODg1MDQ3","before":"MTAwMDAwMjQyODg1MDQ3"},"next":"https://graph.facebook.com/229244010425617_848003725216306/likes?limit=1&summary=1&after=MTAwMDAwMjQyODg1MDQ3"},"summary":{"total_count":25}},"comments":{"data":{"848006238549388":{"id":"848006238549388","from":{"id":"100001824172942","name":"Phan Van"},"message":"関係ない写真は、可愛い♥","can_remove":false,"created_time":"2014-04-08T23:49:08+0000","like_count":1,"user_likes":false},"848015638548448":{"id":"848015638548448","from":{"id":"100007798380150","name":"海外移住"},"message":"Phan Vanさん　僕も気に入ってます(^^)","message_tags":[{"id":"100001824172942","name":"Phan Van","type":"user","offset":0,"length":8}],"can_remove":false,"created_time":"2014-04-09T00:18:41+0000","like_count":1,"user_likes":false},"848017458548266":{"id":"848017458548266","from":{"id":"100001824172942","name":"Phan Van"},"message":"海外移住さん　そうですね。可愛くて、直ぐ気に入ってしまったんです。特に犬ちゃんが大好きな私には","message_tags":[{"id":"100007798380150","name":"海外移住","type":"user","offset":0,"length":4}],"can_remove":false,"created_time":"2014-04-09T00:23:25+0000","like_count":1,"user_likes":false}},"paging":{"cursors":{"after":"ODQ4MDA2MjM4NTQ5Mzg4","before":"ODQ4MDA2MjM4NTQ5Mzg4"},"next":"https://graph.facebook.com/229244010425617_848003725216306/comments?limit=1&summary=1&after=ODQ4MDA2MjM4NTQ5Mzg4"},"summary":{"order":"chronological","total_count":3}}}