{"id":"229244010425617_848180178531994","type":"status","from":{"id":"100006907235659","name":"Thao Van"},"message":"Ca nha oi cho e hoi chut.thẻ ngoại kiều của em bị sai họ Do thành Dc tai lúc ở sân bay e k xem kĩ.giờ e phải làm sao......đến đâu có thể giúp e làm lại đc ạ? Arigato","created_time":"2014-04-09T06:45:01+0000","updated_time":"2014-04-09T08:42:31+0000","likes":{"data":{"100004096243144":{"id":"100004096243144","name":"Shorai Nguyễn"},"100004501380197":{"id":"100004501380197","name":"Tuấn Phạm Văn"}},"paging":{"cursors":{"after":"MTAwMDA0MDk2MjQzMTQ0","before":"MTAwMDA0MDk2MjQzMTQ0"},"next":"https://graph.facebook.com/229244010425617_848180178531994/likes?limit=1&summary=1&after=MTAwMDA0MDk2MjQzMTQ0"},"summary":{"total_count":2}},"comments":{"data":{"848181138531898":{"id":"848181138531898","from":{"id":"824089766","name":"Le Dai"},"message":"Lên Nyukan (入国管理局) bảo họ sửa lại em nhé.","can_remove":false,"created_time":"2014-04-09T06:46:12+0000","like_count":1,"user_likes":false},"848183345198344":{"id":"848183345198344","from":{"id":"100004007022428","name":"Ngốc Siro"},"message":"bảo thầy cô giáo đưa nên nyukan e ak","can_remove":false,"created_time":"2014-04-09T06:50:20+0000","like_count":1,"user_likes":false},"848184171864928":{"id":"848184171864928","from":{"id":"100006907235659","name":"Thao Van"},"message":"Thay co se dua mjh di ha a. E chi so thay co k dua di thi e chag biet lam sao","can_remove":false,"created_time":"2014-04-09T06:51:48+0000","like_count":0,"user_likes":false},"848184281864917":{"id":"848184281864917","from":{"id":"100004007022428","name":"Ngốc Siro"},"message":"có chứ e....họ có trách nhiệm mà","can_remove":false,"created_time":"2014-04-09T06:52:16+0000","like_count":1,"user_likes":false},"848186035198075":{"id":"848186035198075","from":{"id":"824089766","name":"Le Dai"},"message":"Em cứ yên tâm đi, người Nhật đa phần là thân thiện, nhất lại là thầy cô giáo, người có trách nhiệm với mình.","can_remove":false,"created_time":"2014-04-09T06:54:25+0000","like_count":1,"user_likes":false},"848187875197891":{"id":"848187875197891","from":{"id":"100006907235659","name":"Thao Van"},"message":"Dạ e cam on moi nguoi ạ","can_remove":false,"created_time":"2014-04-09T06:55:20+0000","like_count":0,"user_likes":false},"848191721864173":{"id":"848191721864173","from":{"id":"100004007022428","name":"Ngốc Siro"},"message":"ko có j e ak...page của mọi ng nếu ai có vấn đề j thắc mắc ko bít nếu bọn a bít bọn a sẽ chỉ....","can_remove":false,"created_time":"2014-04-09T06:57:41+0000","like_count":1,"user_likes":false},"848213875195291":{"id":"848213875195291","from":{"id":"100007736444243","name":"Thư Nguyễn"},"message":"K ai đưa đâu","can_remove":false,"created_time":"2014-04-09T07:48:50+0000","like_count":0,"user_likes":false},"848213925195286":{"id":"848213925195286","from":{"id":"100007736444243","name":"Thư Nguyễn"},"message":"Tự đi em à","can_remove":false,"created_time":"2014-04-09T07:48:57+0000","like_count":0,"user_likes":false},"848214008528611":{"id":"848214008528611","from":{"id":"100007736444243","name":"Thư Nguyễn"},"message":"Anh vừa đi làm về hôm nay đây","can_remove":false,"created_time":"2014-04-09T07:49:18+0000","like_count":1,"user_likes":false},"848214755195203":{"id":"848214755195203","from":{"id":"100007881153474","name":"Chợ Zời Nhật Bản"},"message":"Ko sao đâu em.","can_remove":false,"created_time":"2014-04-09T07:52:15+0000","like_count":1,"user_likes":false},"848216315195047":{"id":"848216315195047","from":{"id":"100006907235659","name":"Thao Van"},"message":"Thu nguyen a oi lam co lang nhag j k a","can_remove":false,"created_time":"2014-04-09T07:58:15+0000","like_count":0,"user_likes":false},"848220445194634":{"id":"848220445194634","from":{"id":"100004088408017","name":"Bách Đà"},"message":"E pít tiếng thì đến sở đia chính khu e ở là làm lại đc ak","can_remove":false,"created_time":"2014-04-09T08:14:57+0000","like_count":1,"user_likes":false},"848222471861098":{"id":"848222471861098","from":{"id":"100006907235659","name":"Thao Van"},"message":"Vay ha a thank a ạ bách đà","can_remove":false,"created_time":"2014-04-09T08:18:39+0000","like_count":0,"user_likes":false},"848222971861048":{"id":"848222971861048","from":{"id":"100004088408017","name":"Bách Đà"},"message":"E hỏi đia chỉ しやくしょ với mang hộ chiếu đến đó. Rùi bạn bảo họ làm cho ko khó lắm đâu","can_remove":false,"created_time":"2014-04-09T08:21:08+0000","like_count":1,"user_likes":false},"848223165194362":{"id":"848223165194362","from":{"id":"100007736444243","name":"Thư Nguyễn"},"message":"K k lằng nhằng lắm","can_remove":false,"created_time":"2014-04-09T08:21:54+0000","like_count":1,"user_likes":false},"848224111860934":{"id":"848224111860934","from":{"id":"100007917634982","name":"Cry Cry"},"message":"Mang đủ giấy tờ đi theo nói họ cấp lại là đc. Nyukan thì mình nghĩ là đc còn Shiyakusho thì k chắc lắm","can_remove":false,"created_time":"2014-04-09T08:23:10+0000","like_count":1,"user_likes":false},"848224205194258":{"id":"848224205194258","from":{"id":"100007917634982","name":"Cry Cry"},"message":"Mang đủ giấy tờ đi theo nói họ cấp lại là đc. Nyukan thì mình nghĩ là đc còn Shiyakusho thì k chắc lắm","can_remove":false,"created_time":"2014-04-09T08:23:41+0000","like_count":0,"user_likes":false},"848224345194244":{"id":"848224345194244","from":{"id":"100004088408017","name":"Bách Đà"},"message":"Mình làm lại ở shiyakusho mà","can_remove":false,"created_time":"2014-04-09T08:24:14+0000","like_count":1,"user_likes":false},"848224455194233":{"id":"848224455194233","from":{"id":"100004244915542","name":"Duy Béo"},"message":"Sang rôi hả bà chị","can_remove":false,"created_time":"2014-04-09T08:24:37+0000","like_count":0,"user_likes":false},"848225541860791":{"id":"848225541860791","from":{"id":"100006907235659","name":"Thao Van"},"message":"Chi may sag lau Zui ah.Duy Béo nhug giay to dag co van de","message_tags":[{"id":"100004244915542","name":"Duy Béo","type":"user","offset":23,"length":7}],"can_remove":false,"created_time":"2014-04-09T08:28:18+0000","like_count":0,"user_likes":false},"848226101860735":{"id":"848226101860735","from":{"id":"100004244915542","name":"Duy Béo"},"message":"Chả thấy bảo gì vs thằng em cả.chết r có em ms quên mất em cũ của chị r","can_remove":false,"created_time":"2014-04-09T08:29:17+0000","like_count":0,"user_likes":false},"848226371860708":{"id":"848226371860708","from":{"id":"100006907235659","name":"Thao Van"},"message":"Moi o dau za the Duy Béo","message_tags":[{"id":"100004244915542","name":"Duy Béo","type":"user","offset":17,"length":7}],"can_remove":false,"created_time":"2014-04-09T08:30:12+0000","like_count":0,"user_likes":false},"848226568527355":{"id":"848226568527355","from":{"id":"100004244915542","name":"Duy Béo"},"message":":)) biết đâu đc vs chị ý.","can_remove":false,"created_time":"2014-04-09T08:30:56+0000","like_count":0,"user_likes":false},"848226571860688":{"id":"848226571860688","from":{"id":"100007917634982","name":"Cry Cry"},"message":"Mình mới chuyển nhà mà đăng kí cái mạng NTT mới chờ mãi nó k tới lăp mạng cho. Nó gửi hết đồ tới kèm cái đĩa cài r bảo tự cài :) K nổi","can_remove":false,"created_time":"2014-04-09T08:30:57+0000","like_count":0,"user_likes":false},"848227188527293":{"id":"848227188527293","from":{"id":"100006907235659","name":"Thao Van"},"message":"Troi oi dua nhau thui ma may nghi that chac Duy Béo","message_tags":[{"id":"100004244915542","name":"Duy Béo","type":"user","offset":44,"length":7}],"can_remove":false,"created_time":"2014-04-09T08:33:37+0000","like_count":0,"user_likes":false},"848227428527269":{"id":"848227428527269","from":{"id":"100004244915542","name":"Duy Béo"},"message":"Hè hè, e có nghe bài, biết đâu đc chữ ngờ :)))))))))))","can_remove":false,"created_time":"2014-04-09T08:34:51+0000","like_count":1,"user_likes":false},"848228021860543":{"id":"848228021860543","from":{"id":"100006907235659","name":"Thao Van"},"message":"Ma van de cua chi dag can giup may doc chua.biet j k","can_remove":false,"created_time":"2014-04-09T08:37:28+0000","like_count":0,"user_likes":false},"848228308527181":{"id":"848228308527181","from":{"id":"100004244915542","name":"Duy Béo"},"message":"Đưa thầy giáo thôi e chỉ biết vậy thôi","can_remove":false,"created_time":"2014-04-09T08:38:25+0000","like_count":1,"user_likes":false},"848228601860485":{"id":"848228601860485","from":{"id":"100007917634982","name":"Cry Cry"},"message":"Nếu tiếng Nhật của bạn giao tiếp đc thì có thể tự đi ra Văn phòng hành chính quận hoặc cục xuất nhập cảnh để tự làm. Địa chỉ Bạn có thể hỏi mọi người xung quanh. Cũng dễ thôi","can_remove":false,"created_time":"2014-04-09T08:39:45+0000","like_count":1,"user_likes":false},"848229005193778":{"id":"848229005193778","from":{"id":"100004007022428","name":"Ngốc Siro"},"message":"riêng thẻ ngoại kiều là mình đăg ký chỗ nyukan..shiyakuso ko làm đx đâu...vì lên nyukan họ sẽ cấp cho e thẻ mới","can_remove":false,"created_time":"2014-04-09T08:41:56+0000","like_count":1,"user_likes":false},"848229111860434":{"id":"848229111860434","from":{"id":"100004096243144","name":"Shorai Nguyễn"},"message":"Lên nuykan kêu người ta sửa lại","can_remove":false,"created_time":"2014-04-09T08:42:31+0000","like_count":1,"user_likes":false}},"paging":{"cursors":{"after":"ODQ4MTgxMTM4NTMxODk4","before":"ODQ4MTgxMTM4NTMxODk4"},"next":"https://graph.facebook.com/229244010425617_848180178531994/comments?limit=1&summary=1&after=ODQ4MTgxMTM4NTMxODk4"},"summary":{"order":"chronological","total_count":32}}}