{"id":"229244010425617_848249965191682","type":"status","from":{"id":"100003967628834","name":"Duyvinh Nguyen"},"message":"Chào các bạn . sắp tơi đây mình sẽ bay đến học ở kumamoto . Không biết có bạn nào ở tỉnh đó không vậy nhỉ. Rất mong dược làm quen và giao lưu vơi mọi người.","created_time":"2014-04-09T10:13:00+0000","updated_time":"2014-04-12T09:57:14+0000","likes":{"data":{"100002835263165":{"id":"100002835263165","name":"Sầu Riêng"},"100006614261300":{"id":"100006614261300","name":"Tao Cao Cường Đây"},"100003877275415":{"id":"100003877275415","name":"Yuki"},"100003967628834":{"id":"100003967628834","name":"Duyvinh Nguyen"},"100003574946076":{"id":"100003574946076","name":"Minhh Hảii"},"100008103150383":{"id":"100008103150383","name":"Cuộc Đời Lớn"}},"paging":{"cursors":{"after":"MTAwMDAyODM1MjYzMTY1","before":"MTAwMDAyODM1MjYzMTY1"},"next":"https://graph.facebook.com/229244010425617_848249965191682/likes?limit=1&summary=1&after=MTAwMDAyODM1MjYzMTY1"},"summary":{"total_count":6}},"comments":{"data":{"848251845191494":{"id":"848251845191494","from":{"id":"100003967628834","name":"Duyvinh Nguyen"},"message":"ác","can_remove":false,"created_time":"2014-04-09T10:20:31+0000","like_count":0,"user_likes":false},"848251941858151":{"id":"848251941858151","from":{"id":"100003967628834","name":"Duyvinh Nguyen"},"message":"Cuộc Đời Lớn . ở đâu bắc ninh vậy","message_tags":[{"id":"100004192544616","name":"Cuộc Đời Lớn","type":"user","offset":0,"length":12}],"can_remove":false,"created_time":"2014-04-09T10:20:56+0000","like_count":0,"user_likes":false},"850110428338969":{"id":"850110428338969","from":{"id":"100004192544616","name":"Cuộc Đời Lớn"},"message":"Từ sơn","can_remove":false,"created_time":"2014-04-12T09:57:14+0000","like_count":0,"user_likes":false}},"paging":{"cursors":{"after":"ODQ4MjUxODQ1MTkxNDk0","before":"ODQ4MjUxODQ1MTkxNDk0"},"next":"https://graph.facebook.com/229244010425617_848249965191682/comments?limit=1&summary=1&after=ODQ4MjUxODQ1MTkxNDk0"},"summary":{"order":"chronological","total_count":3}}}