{"id":"229244010425617_848258101857535","type":"status","from":{"id":"100005106330409","name":"Thật Thế Không"},"message":"Xin chào tất cả anh chị em trong cộng đồng\nĐến đêm mai là thế sang nhatạ theo đường du học rồi!\nNghe trên cộng đồng thấy nhiều thong tin lừa đảo đăng ký điện thoại, đổi mạng rồi có những chiêu trò để lừa lọc nhau qua việc đk điện thoại nên bản thân cũng thấy lo lo. Và cũng mong muốn tìm hiểu kỹ trước khi đi đăng ký để tránh bị lừa nên hôm nay mạn phép cho mình hỏi, rất mong mọi người giúp đỡ nhé, đặc biệt những bạn nào mới đăng ký điện thoại đợt này.\n- 1 là: phần lớn là du học sinh việt mình dung sofbank đúng không ạ, và mình cũng nên đk sofbank để cho lien lạc rẻ hay là đk mạng khác ạ!\n- 2 là: do đk kinh tế cũng khó khăn nên mình chưa muốn dùng 5s mà chỉ muốn dung iphone 4s hoặc 5 thì chi phí thế nào trong trường hợp mua máy luôn (mua đứt) và trong trường hợp mua trả góp\n- 3 là: những dịch vụ nào cần thiết đăng ký, những dịch vụ nào không cần thiết đăng ký để tiết kiệm chi phí. \nRất cảm ơn mọi người đã đóng góp ý kiến, và xin hãy đóng góp theo đúng nội dung bài đăng để những ai quan tâm có thể theo dõi và tránh để loãng topic.\nP/S: chắc cũng nhiều người mới sang và chuẩn bị sang trong đợt tháng 4 này quan tâm giống mình nhỉ!","created_time":"2014-04-09T10:41:24+0000","updated_time":"2014-04-09T15:34:35+0000","likes":{"data":{"100007337430966":{"id":"100007337430966","name":"Nguyễn Hường"},"100005344084736":{"id":"100005344084736","name":"Nhất Nhất"},"100002981655149":{"id":"100002981655149","name":"Đỗ Văn Nghĩa"},"100002835263165":{"id":"100002835263165","name":"Sầu Riêng"},"100008041958808":{"id":"100008041958808","name":"Hikaru Hoshi"},"100001438932250":{"id":"100001438932250","name":"Luong Anh Nguyet"},"100005106330409":{"id":"100005106330409","name":"Thật Thế Không"}},"paging":{"cursors":{"after":"MTAwMDA3MzM3NDMwOTY2","before":"MTAwMDA3MzM3NDMwOTY2"},"next":"https://graph.facebook.com/229244010425617_848258101857535/likes?limit=1&summary=1&after=MTAwMDA3MzM3NDMwOTY2"},"summary":{"total_count":7}},"comments":{"data":{"848259508524061":{"id":"848259508524061","from":{"id":"100006614261300","name":"Tao Cao Cường Đây"},"message":"Minh cung moi sang, may mà có ng thân chứ ko mất tiền ngu nhiều lắm đấy. 1: dùng sofbank cho rẻ. 2 : dung ip5 ki hop dong dc mien phi, 5s ki hop đồng thì mất thêm phi .3 fai đăng kí mạng internet để gọi đt viber zalo line .....","can_remove":false,"created_time":"2014-04-09T10:46:12+0000","like_count":2,"user_likes":false},"848262421857103":{"id":"848262421857103","from":{"id":"100005106330409","name":"Thật Thế Không"},"message":"tiền cước hàng tháng thế nào vậy bác Tao Cao Cường Đây","message_tags":[{"id":"100006614261300","name":"Tao Cao Cường Đây","type":"user","offset":37,"length":17}],"can_remove":false,"created_time":"2014-04-09T10:57:17+0000","like_count":0,"user_likes":false},"848265015190177":{"id":"848265015190177","from":{"id":"100007917634982","name":"Cry Cry"},"message":"Thế này nhé :) Bạn mới qua muốn dùng dt thì đầu tiên mượn 1 máy của ai đó đi đăng kí sim Sb ( sim thôi nhé , hàng tháng chi trả cước 980¥ ấy ) Sau đó bạn qua mạng Au 乗り換え sẽ đc 5s miễn phí kèm point. Chỗ mình thì còn đc 5s và 7 lá tiền mặt. Mỗi tháng sẽ chỉ mất 3-4 sen. Mình nghĩ như vậy hợp lí. Tại bạn đăng kí sim Au thì nó bắt mua máy mới đc dk thì phải nên đăng kí sb là đc. Trước đó bạn làm thẻ bưu điện hoặc ngân hàng nhé","can_remove":false,"created_time":"2014-04-09T11:05:13+0000","like_count":1,"user_likes":false},"848267981856547":{"id":"848267981856547","from":{"id":"100006614261300","name":"Tao Cao Cường Đây"},"message":"ban dung nghe bon no chuyen mang lay 7 8 man, sau nay no anh huong den xin visa day. tot nhat cu dang ki dung bt da,","can_remove":false,"created_time":"2014-04-09T11:14:42+0000","like_count":2,"user_likes":false},"848269018523110":{"id":"848269018523110","from":{"id":"100007917634982","name":"Cry Cry"},"message":":)) Sợ mình lừa ah bạn trẻ.  Có thể hỏi ý kiến của mọi ng trong Page xem nó có vấn đề gì phạm luật hay ảnh hương tới xin visa nhé :)) Biết hơn chút muốn khuyên thì ...","can_remove":false,"created_time":"2014-04-09T11:17:53+0000","like_count":1,"user_likes":false},"848270218522990":{"id":"848270218522990","from":{"id":"100005106330409","name":"Thật Thế Không"},"message":"cảm ơn Cry Cry nhé, nhưng như vậy mình sẽ dùng mạng au à, mà làm như vậy thì có vấn đề gì k","message_tags":[{"id":"100007917634982","name":"Cry Cry","type":"user","offset":7,"length":7}],"can_remove":false,"created_time":"2014-04-09T11:22:15+0000","like_count":1,"user_likes":false},"848272935189385":{"id":"848272935189385","from":{"id":"100007917634982","name":"Cry Cry"},"message":"Bh điện thoại mọi ng đều có internet đều có Sky và Viber hoặc zalo. Như mình cũng đều gọi qua đó , đâu cần chung mạng. Chuyển đổi mạng là 1 việc bình thường. Bạn đi khắp các cửa hàng mạng đều treo biển chuyển mạng đc điện thoại hoặc khuyến mãi gì đó. Ngay cả trường hợp bạn mua dt trả sau r k trả luôn thì cũng chỉ nằm trong danh sách đen của Nhà mạng. Việc visa của bạn k liên quan chứ đừng nói là chuyển mạng. Bạn có thể tìm hiểu thêm nếu còn hoài nghi","can_remove":false,"created_time":"2014-04-09T11:29:22+0000","like_count":0,"user_likes":false},"848278475188831":{"id":"848278475188831","from":{"id":"100000065836904","name":"Trần Minh"},"message":"làm thẻ bưu điện như nào thế Cry Cry. thẻ bưu điện dùng làm gì ngoài đăng ký điện thoại nữa ko","message_tags":[{"id":"100007917634982","name":"Cry Cry","type":"user","offset":29,"length":7}],"can_remove":false,"created_time":"2014-04-09T11:45:46+0000","like_count":0,"user_likes":false},"848280208521991":{"id":"848280208521991","from":{"id":"100000065836904","name":"Trần Minh"},"message":"Tao Cao Cường Đây được miễn phí tiền máy Ip5 hả bạn, mỗi tháng trả bn thế","message_tags":[{"id":"100006614261300","name":"Tao Cao Cường Đây","type":"user","offset":0,"length":17}],"can_remove":false,"created_time":"2014-04-09T11:49:44+0000","like_count":0,"user_likes":false},"848281438521868":{"id":"848281438521868","from":{"id":"100006614261300","name":"Tao Cao Cường Đây"},"message":"mình cũng ko rõ đâu , chỉ là các anh chị đi trước bảo vậy? mình cũng chưa đăng kí đt , hôm qua vào chỗ BIG CAMERA xem dt thì ip5 nó cho mien phí, còn 5s thì thêm 480yen hay sao ý . Còn việc chuyển mang thì có a chị đi truoc bảo như sau : \"((( Doãn Ngọc Bách :\nEm tốt nhất trước mắt cứ dùng softbank, từ từ rồi chuyển AU, đừng nghe lung tung chuyển mạng được tiền là thiệt thân đó, nó có thể cho mình 7-8 man nhưng đó là số tiền em phải trả lại, con dao hai lưỡi nếu sau này xin visa đó em ! Cẩn thận đó)","can_remove":false,"created_time":"2014-04-09T11:53:13+0000","like_count":0,"user_likes":false},"848282141855131":{"id":"848282141855131","from":{"id":"100000065836904","name":"Trần Minh"},"message":"480 yên 1 tháng ấy hả, rẻ thế. Mình cũng chưa có điện thoại.","can_remove":false,"created_time":"2014-04-09T11:54:18+0000","like_count":1,"user_likes":false},"848283031855042":{"id":"848283031855042","from":{"id":"100007917634982","name":"Cry Cry"},"message":"Thẻ bưu điện bên này bạn chuyển tiền hay rút tiền k bị mất phí nhé. Còn thẻ ngân hàng mất phí.","can_remove":false,"created_time":"2014-04-09T11:55:13+0000","like_count":1,"user_likes":false},"848283061855039":{"id":"848283061855039","from":{"id":"100000205222755","name":"Hong Nhung"},"message":"480yen + 1 man nữa tiền net và tiềng phí","can_remove":false,"created_time":"2014-04-09T11:55:15+0000","like_count":1,"user_likes":false},"848283345188344":{"id":"848283345188344","from":{"id":"100006614261300","name":"Tao Cao Cường Đây"},"message":"mà cứ đt iphone cho dễ dùng, đk mấy cái đt khác nó ko có tiếng việt dùng khoai vãi luyện. thang ở phòng nó có cái galaxy s3 tieng nhật dùng chuối lắm :(","can_remove":false,"created_time":"2014-04-09T11:55:58+0000","like_count":0,"user_likes":false},"848283478521664":{"id":"848283478521664","from":{"id":"100007917634982","name":"Cry Cry"},"message":"Nghe bực nhỉ :) K muốn giải thích nhiều vụ điện thoại nữa k mang tiếng. Còn ai muốn hỏi cứ inbox mình","can_remove":false,"created_time":"2014-04-09T11:56:30+0000","like_count":0,"user_likes":false},"848284121854933":{"id":"848284121854933","from":{"id":"100000205222755","name":"Hong Nhung"},"message":"Mua dt ip cũ Liên lạc vs mình nhé, mua đứt xog chỉ ra đăng kí sim dịch vụ thôi, mình chỉ mua hộ, trả hoá đơn cho bạn. Và mình chỉ mua lại của người nhật,","can_remove":false,"created_time":"2014-04-09T11:58:07+0000","like_count":0,"user_likes":false},"848284598521552":{"id":"848284598521552","from":{"id":"100007756088326","name":"Trung Pham"},"message":"Chuẩn dki sim 980¥ dùng 1 tháng thì cắt.(hoặc có thể dki xong cắt cái này phí hơi cao tý) căt sim phải đền bù 9sen k dữ sim. 1 man 2 dữ sim dữ số.chạy qua au hoặc docomo dki nó sẽ tặng đien thoại hoặc tiền mặt. Au thì 5 lá tiền mặt.dôcmo tặng 5s.tháng  đầu tiên 7 sen. Tháng thứ 2.3.4 là 5 sen.nếu bạn nào biết thì cắt bỏ các dịch vụ thì còn 4sen2.","can_remove":false,"created_time":"2014-04-09T11:59:38+0000","like_count":1,"user_likes":false},"848284698521542":{"id":"848284698521542","from":{"id":"100004527729048","name":"Cái Tí"},"message":"Ko e ạ bjo e sag khi e di dag ki sim thi se dc tang may ip tuy chon va tra tien theo thag moi thag khoang 1 man","can_remove":false,"created_time":"2014-04-09T11:59:57+0000","like_count":0,"user_likes":false},"848285915188087":{"id":"848285915188087","from":{"id":"100007756088326","name":"Trung Pham"},"message":"Hong nhung.mua điện thoại cũ mà ngta đang còn hợp đồng thì k dki dc sim bạn nhé.nó mở khay sim ra nhập số id vào.nếu chủ đó vẫn dùng sim bt thì mình k dùng máy đó dki đc nhé.tớ đã vấp 1 lần  rồi trước mua con 4s  cu ở tiệm.den khi ra dki sim chọn số làm mọi thủ tục rồi.nó tháo khay sim nhập id vào thì k thể dki.vì chủ cũ của nó đã dùng chính số id này để dki sim.ngta chưa huỷ hợp đồng mình k thể dki dc","can_remove":false,"created_time":"2014-04-09T12:03:27+0000","like_count":0,"user_likes":false},"848286118521400":{"id":"848286118521400","from":{"id":"100007917634982","name":"Cry Cry"},"message":"K hẳn đâu Tsumetai : Khuyến mãi thế nào tuỳ vào tưng nơi. Và cũng đừng bh vô shop mạng mà đổi. Ra Yamadadenki, eonsmall, edon... Nhiều lắm. Ra đó đổi sẽ có thêm point. Tất nhiên hợp đồng bao h cũng là sử dụng 2 năm. Còn mình mới đổi và cắt hết mấy dịch vụ như Yahoo.. Thì còn 2 sen955 1 tháng nhé","can_remove":false,"created_time":"2014-04-09T12:04:09+0000","like_count":0,"user_likes":false},"848286138521398":{"id":"848286138521398","from":{"id":"100007756088326","name":"Trung Pham"},"message":"Bạn cry cry nói đúng rồi","can_remove":false,"created_time":"2014-04-09T12:04:12+0000","like_count":0,"user_likes":false},"848286811854664":{"id":"848286811854664","from":{"id":"100007756088326","name":"Trung Pham"},"message":"Của tớ giờ vẫn là 4 sen2.vi dung mang nua","can_remove":false,"created_time":"2014-04-09T12:06:10+0000","like_count":0,"user_likes":false},"848289378521074":{"id":"848289378521074","from":{"id":"100000205222755","name":"Hong Nhung"},"message":"Uhm, tất nhiên hỏi rồi mới mua, tớ chỉ mua lại của mấy người nhật, và có hoá đơn chịu tránh nhiệm pháp lý mới mua. Còn k dám mua linh tinh. Người nhật cũng k dám tin","can_remove":false,"created_time":"2014-04-09T12:14:56+0000","like_count":0,"user_likes":false},"848289901854355":{"id":"848289901854355","from":{"id":"100007756088326","name":"Trung Pham"},"message":"Vs lại mua ip thì nên nhớ bảo nó mở tkhoan icoul bạn nhé.k có nếu bị khoá máy thì thành cục sắt vụn đó","can_remove":false,"created_time":"2014-04-09T12:16:49+0000","like_count":0,"user_likes":false},"848290861854259":{"id":"848290861854259","from":{"id":"100000205222755","name":"Hong Nhung"},"message":"Hi hi cảm ơn bạn, tớ k biết đấy,","can_remove":false,"created_time":"2014-04-09T12:19:25+0000","like_count":0,"user_likes":false},"848293611853984":{"id":"848293611853984","from":{"id":"100000210061617","name":"Vũ Tuấn"},"message":"Cho nình hỏi là mình có sẵn ip5 (mình mua từ hồi ở Việt Nam!) thì sang có đăng ký được Sim ko thế các bạn?","can_remove":false,"created_time":"2014-04-09T12:27:07+0000","like_count":0,"user_likes":false},"848293701853975":{"id":"848293701853975","from":{"id":"100004066492246","name":"Quốc Huân"},"message":"Bạn cry cry nói đúng đó, rẻ mà ổn nhất, ra siêu thị điện máy đổi nhà mạng, tổng chi phí mất 1.5 man; cắt hđ cũ 1.2 làm hd mới 3 sen. Nhưng ngày hôm sau các bạn nhớ gọi điện lên tổng đài cắt mấy dịnh vụ ko cần thiết đi.","can_remove":false,"created_time":"2014-04-09T12:27:29+0000","like_count":0,"user_likes":false},"848294378520574":{"id":"848294378520574","from":{"id":"100004066492246","name":"Quốc Huân"},"message":"Bạn đăng ký khả năng vẫn ok, sợ máy bạn vẫn còn hd với nhà mạng, mà ip thì bắt buộc phải dùng internet, thông thường 6sen 1 thag nếu ko có khuyến mại","can_remove":false,"created_time":"2014-04-09T12:29:22+0000","like_count":0,"user_likes":false},"848295611853784":{"id":"848295611853784","from":{"id":"100004066492246","name":"Quốc Huân"},"message":"Tốt nhất mua dt cục gạch, mang ra đăng ký sim, 980¥ 1 tháng và 3 sen làm hợp đồng, sau 1 tháng chuyển nhà mạng khác mất 1.5 man và nhận về ip5s tuỳ nơi có thể có point 1~3 man","can_remove":false,"created_time":"2014-04-09T12:32:16+0000","like_count":0,"user_likes":false},"848317545184924":{"id":"848317545184924","from":{"id":"100003878132073","name":"Luan Tran Van"},"message":"Cước softbank hiện 6 sên/1thang, dù đăng kí trực tiếp hay chuyển đổi cước vẫn 6 sên/1 thang, và miễn phí máy.","can_remove":false,"created_time":"2014-04-09T13:25:08+0000","like_count":0,"user_likes":false},"848319431851402":{"id":"848319431851402","from":{"id":"100007917634982","name":"Cry Cry"},"message":"Sao cứ cãi mình hoài :)) Khi bạn đi norikae luôn có khuyến mãi giảm 1 nửa giá tiền internet. Chuẩn là 5sen4 chia 2. Yêu cầu của nó là bạn phải sử dụng 1 vài dịch vụ như Yahoo... Khi nào nó cũng hỏi bạn clik vô mấy cái dịch vụ đó đó. Bạn có thể cắt mấy dịch vụ đó đi ngay hôm sau miễn phí vì dịch vụ đó luôn miên phi 1 tháng đầu sử dụng","can_remove":false,"created_time":"2014-04-09T13:29:29+0000","like_count":1,"user_likes":false},"848320295184649":{"id":"848320295184649","from":{"id":"100004066492246","name":"Quốc Huân"},"message":"Chắc bạn ý chưa làm,bạn cry cry nói đúng, m mới chuyển au-> docomo đc 1 con ip5s và mỗi tháng 3sen cả tiền kihon và mạng trong 2 năm","can_remove":false,"created_time":"2014-04-09T13:32:25+0000","like_count":0,"user_likes":false},"848321161851229":{"id":"848321161851229","from":{"id":"100003878132073","name":"Luan Tran Van"},"message":"Hì, mình mới chỉ đăng kí cho hơn 100 người thôi.","can_remove":false,"created_time":"2014-04-09T13:34:30+0000","like_count":1,"user_likes":false},"848321468517865":{"id":"848321468517865","from":{"id":"100007917634982","name":"Cry Cry"},"message":"Hơn 100 thì liên quan ? Có cần xem hợp đồng mình chụp lên k","can_remove":false,"created_time":"2014-04-09T13:35:39+0000","like_count":1,"user_likes":false},"848321841851161":{"id":"848321841851161","from":{"id":"100003878132073","name":"Luan Tran Van"},"message":"Hì. Ko cần","can_remove":false,"created_time":"2014-04-09T13:36:46+0000","like_count":1,"user_likes":false},"848370211846324":{"id":"848370211846324","from":{"id":"100003751909185","name":"Hoang Gia Gia"},"message":"chuan day.toi 11 thang nay co rat nhju nguoi sang","can_remove":false,"created_time":"2014-04-09T15:28:50+0000","like_count":1,"user_likes":false},"848373058512706":{"id":"848373058512706","from":{"id":"100005106330409","name":"Thật Thế Không"},"message":"nghe mấy bạn nói mà mình thấy rối hơn, với người ở lâu thì có thể giao tiếp và thương thảo để làm được việc đó, nhưng với người mới sang như mình thì chắc là khó. nhưng bạn ơi nếu mua đứt máy iphone 5 dùng mạng sofbank thì mỗi tháng chi phí thế nào ạ Cry Cry  Luan Tran van","message_tags":[{"id":"100007917634982","name":"Cry Cry","type":"user","offset":251,"length":7}],"can_remove":false,"created_time":"2014-04-09T15:34:35+0000","like_count":1,"user_likes":false}},"paging":{"cursors":{"after":"ODQ4MjU5NTA4NTI0MDYx","before":"ODQ4MjU5NTA4NTI0MDYx"},"next":"https://graph.facebook.com/229244010425617_848258101857535/comments?limit=1&summary=1&after=ODQ4MjU5NTA4NTI0MDYx"},"summary":{"order":"chronological","total_count":37}}}