{"id":"229244010425617_848267701856575","type":"photo","object_id":"379149122225531","picture":"https://fbcdn-photos-h-a.akamaihd.net/hphotos-ak-prn2/t1.0-0/1506809_379149122225531_671503333831052558_s.jpg","link":"https://www.facebook.com/photo.php?fbid=379149122225531&set=pcb.848267701856575&type=1&relevant_count=2","from":{"id":"100003913383051","name":"Tho Tran"},"message":"Nay đi lang thang thấy tuyển arubaito nhiều quá mà không có điều kiện đi làm, chia sẻ cùng các bạn, ai cần thì liên hệ nhé!!!","created_time":"2014-04-09T11:13:29+0000","updated_time":"2014-04-09T16:26:02+0000","likes":{"data":{"100004004426525":{"id":"100004004426525","name":"Vi Trùng"},"100005596470828":{"id":"100005596470828","name":"Hoàng Sup Hyo"},"100004564327116":{"id":"100004564327116","name":"Tiến Bình Nguyễn"},"100002999756689":{"id":"100002999756689","name":"Lắng Nghe"},"100000110765909":{"id":"100000110765909","name":"Thảo Nguyễn"},"100001432462223":{"id":"100001432462223","name":"Truong Nguyen"},"100003582683714":{"id":"100003582683714","name":"Gat Di Nuoc Mat"},"100006984126355":{"id":"100006984126355","name":"Thiên An"},"711491571":{"id":"711491571","name":"Graziani Inaizarg"},"100005696525096":{"id":"100005696525096","name":"Be Heo Beo"},"100000231671242":{"id":"100000231671242","name":"Aoi Matsubayashi"},"100001526631937":{"id":"100001526631937","name":"Tường Oanh Mineko"},"1821970083":{"id":"1821970083","name":"Nguyễn Mạnh Cường"},"569263718":{"id":"569263718","name":"Phuong Thao Tran"},"100001416272263":{"id":"100001416272263","name":"Mai PB"},"100007767102987":{"id":"100007767102987","name":"Du Học Thu Huyền"},"100003103911540":{"id":"100003103911540","name":"Con Cua"},"100003285533701":{"id":"100003285533701","name":"Trang Vu"},"100000309153854":{"id":"100000309153854","name":"Pham Thuong"},"100004242520435":{"id":"100004242520435","name":"Cô Chủ Nhỏ"},"100006263888044":{"id":"100006263888044","name":"Hoàng Oanh"},"100002807936337":{"id":"100002807936337","name":"Nguyễn Hồng Hạnh"}},"paging":{"cursors":{"after":"MTAwMDA0MDA0NDI2NTI1","before":"MTAwMDA0MDA0NDI2NTI1"},"next":"https://graph.facebook.com/229244010425617_848267701856575/likes?limit=1&summary=1&after=MTAwMDA0MDA0NDI2NTI1"},"summary":{"total_count":22}},"comments":{"data":{"848268001856545":{"id":"848268001856545","from":{"id":"100002807936337","name":"Nguyễn Hồng Hạnh"},"message":"E đk đc k c nhỉ?","can_remove":false,"created_time":"2014-04-09T11:14:44+0000","like_count":0,"user_likes":false},"848268435189835":{"id":"848268435189835","from":{"id":"100003913383051","name":"Tho Tran"},"message":"Gọi điện hẹm lịch phỏng vấn đi :)","can_remove":false,"created_time":"2014-04-09T11:15:53+0000","like_count":0,"user_likes":false},"848268531856492":{"id":"848268531856492","from":{"id":"100006263888044","name":"Hoàng Oanh"},"message":"Làm vc gj thế b ơi","can_remove":false,"created_time":"2014-04-09T11:16:10+0000","like_count":0,"user_likes":false},"848268568523155":{"id":"848268568523155","from":{"id":"100002807936337","name":"Nguyễn Hồng Hạnh"},"message":"Trả biết tiếng c ạ :(","can_remove":false,"created_time":"2014-04-09T11:16:20+0000","like_count":0,"user_likes":false},"848268621856483":{"id":"848268621856483","from":{"id":"100003913383051","name":"Tho Tran"},"message":"Quán nhậu","can_remove":false,"created_time":"2014-04-09T11:16:30+0000","like_count":0,"user_likes":false},"848268825189796":{"id":"848268825189796","from":{"id":"100003913383051","name":"Tho Tran"},"message":"He he mới qua thì từ từ đã Nguyễn Hồng Hạnh","can_remove":false,"created_time":"2014-04-09T11:17:06+0000","like_count":0,"user_likes":false},"848268928523119":{"id":"848268928523119","from":{"id":"100002807936337","name":"Nguyễn Hồng Hạnh"},"message":"Vâng. E cũng nói thế thôi mà chị. Hi","can_remove":false,"created_time":"2014-04-09T11:17:29+0000","like_count":0,"user_likes":false},"848270818522930":{"id":"848270818522930","from":{"id":"100003913383051","name":"Tho Tran"},"message":":)","can_remove":false,"created_time":"2014-04-09T11:23:45+0000","like_count":0,"user_likes":false},"848291601854185":{"id":"848291601854185","from":{"id":"100004646794576","name":"Pham Hoang Viet"},"message":"thank you Tho Tran nhé","can_remove":false,"created_time":"2014-04-09T12:21:05+0000","like_count":0,"user_likes":false},"848291925187486":{"id":"848291925187486","from":{"id":"100004646794576","name":"Pham Hoang Viet"},"message":"nhưng thông tin như vậy rất hữu ích cho nhưng bạn du học sinh hiện chưa có việc làm có thông tin gì mọi người hãy Post lên nhé","can_remove":false,"created_time":"2014-04-09T12:22:18+0000","like_count":0,"user_likes":false},"848369908513021":{"id":"848369908513021","from":{"id":"100005696525096","name":"Be Heo Beo"},"message":"Ga nào vậy chị?","can_remove":false,"created_time":"2014-04-09T15:28:02+0000","like_count":0,"user_likes":false},"848373061846039":{"id":"848373061846039","from":{"id":"100003913383051","name":"Tho Tran"},"message":"Otsuka ạ","can_remove":false,"created_time":"2014-04-09T15:34:36+0000","like_count":0,"user_likes":false},"848396598510352":{"id":"848396598510352","from":{"id":"100006984126355","name":"Thiên An"},"message":"T thay rat thich hanh dong cua b.vi moi ng. .","can_remove":false,"created_time":"2014-04-09T16:16:55+0000","like_count":0,"user_likes":false},"848401545176524":{"id":"848401545176524","from":{"id":"100003582683714","name":"Gat Di Nuoc Mat"},"message":"Tran Hung","message_tags":[{"id":"100004103703618","name":"Tran Hung","type":"user","offset":0,"length":9}],"can_remove":false,"created_time":"2014-04-09T16:26:02+0000","like_count":0,"user_likes":false}},"paging":{"cursors":{"after":"ODQ4MjY4MDAxODU2NTQ1","before":"ODQ4MjY4MDAxODU2NTQ1"},"next":"https://graph.facebook.com/229244010425617_848267701856575/comments?limit=1&summary=1&after=ODQ4MjY4MDAxODU2NTQ1"},"summary":{"order":"chronological","total_count":14}}}