{"id":"229244010425617_848668198483192","type":"status","from":{"id":"1283298041","name":"Búa Đức Thanh"},"message":"[Đăng tuyển việc baito]\nKhông phí giới thiệu.\nCông việc horu nhà hàng VN\nThời gian 10 h sáng đến 3h chiều, ngày trong tuần, tuần 2-4 buổi.\nĐịa điểm ga Shinjuku.\nYêu cầu : Tiếng nhật tạm được, nhanh nhẹn.","created_time":"2014-04-10T02:49:40+0000","updated_time":"2014-04-10T11:38:47+0000","likes":{"data":{"792083330":{"id":"792083330","name":"Duc Le"},"100004779104079":{"id":"100004779104079","name":"Hạt Tiêu"},"100003807346055":{"id":"100003807346055","name":"Chap Nhan Di"},"100003181743412":{"id":"100003181743412","name":"Pham Kha"},"100002292742543":{"id":"100002292742543","name":"Kim Hyun Joong"},"100003244716078":{"id":"100003244716078","name":"Mylife Khuyen"},"100008144912157":{"id":"100008144912157","name":"Nguyễn Tuân"},"100006464757230":{"id":"100006464757230","name":"Cậu Ấm TựLập"},"100006171510945":{"id":"100006171510945","name":"Le Loi"},"100000154462273":{"id":"100000154462273","name":"Thu Nguyen"},"100001853769326":{"id":"100001853769326","name":"Thương Vũ"},"100002469422165":{"id":"100002469422165","name":"Duc Nguyen"},"100003785859353":{"id":"100003785859353","name":"Mac Van Manh"},"100006307596308":{"id":"100006307596308","name":"Khi Nào Đổi Thay"},"100005696525096":{"id":"100005696525096","name":"Be Heo Beo"},"100002677555210":{"id":"100002677555210","name":"Hải Cường"},"100003739643123":{"id":"100003739643123","name":"Tú Anh Nguyễn"},"569263718":{"id":"569263718","name":"Phuong Thao Tran"},"100003036901956":{"id":"100003036901956","name":"D Trường Tộ"},"100005903373573":{"id":"100005903373573","name":"HaLinh Phong Phan"},"100000531684206":{"id":"100000531684206","name":"Tran Ken"},"100001534458769":{"id":"100001534458769","name":"Đã Từng"},"100000110765909":{"id":"100000110765909","name":"Thảo Nguyễn"},"100001526631937":{"id":"100001526631937","name":"Tường Oanh Mineko"},"100002820290798":{"id":"100002820290798","name":"Quang Huy"},"100006102636151":{"id":"100006102636151","name":"Hoàng Linh Đan"},"1146680551":{"id":"1146680551","name":"優しい なぁ"},"100001416272263":{"id":"100001416272263","name":"Mai PB"},"100003582683714":{"id":"100003582683714","name":"Gat Di Nuoc Mat"},"100003913383051":{"id":"100003913383051","name":"Tho Tran"},"100004321568905":{"id":"100004321568905","name":"Anh Sino"},"100007330144944":{"id":"100007330144944","name":"Phương"},"100000038672100":{"id":"100000038672100","name":"Lê Chấn Hưng"}},"paging":{"cursors":{"after":"NzkyMDgzMzMw","before":"NzkyMDgzMzMw"},"next":"https://graph.facebook.com/229244010425617_848668198483192/likes?limit=1&summary=1&after=NzkyMDgzMzMw"},"summary":{"total_count":34}},"comments":{"data":{"848669511816394":{"id":"848669511816394","from":{"id":"100003291701878","name":"Bui Anhdat"},"message":"Cái giờ mà dhs không thể làm được nhỉ tiếc thế","can_remove":false,"created_time":"2014-04-10T02:51:36+0000","like_count":0,"user_likes":false},"848674848482527":{"id":"848674848482527","from":{"id":"100005450524828","name":"Beo Beo"},"message":"Thế du học sinh sao làm đc a","can_remove":false,"created_time":"2014-04-10T03:09:17+0000","like_count":0,"user_likes":false},"848677861815559":{"id":"848677861815559","from":{"id":"100006102636151","name":"Hoàng Linh Đan"},"message":"Anh ơi có giờ khác k ạ","can_remove":false,"created_time":"2014-04-10T03:19:20+0000","like_count":0,"user_likes":false},"848679181815427":{"id":"848679181815427","from":{"id":"100004100859720","name":"Tam Tiếu"},"message":"Gio nay chi co nghi xuan voi lam dc thui.hi","can_remove":false,"created_time":"2014-04-10T03:24:55+0000","like_count":1,"user_likes":false},"848680765148602":{"id":"848680765148602","from":{"id":"100000110765909","name":"Thảo Nguyễn"},"message":"Mà nghỉ xuân thì đã được đặt dấu chấm.","can_remove":false,"created_time":"2014-04-10T03:29:54+0000","like_count":0,"user_likes":false},"848684321814913":{"id":"848684321814913","from":{"id":"100005903373573","name":"HaLinh Phong Phan"},"message":"Hic h này ai làm đc nhỉ","can_remove":false,"created_time":"2014-04-10T03:36:52+0000","like_count":0,"user_likes":false},"848684988481513":{"id":"848684988481513","from":{"id":"100004588446734","name":"Thỏ Tuyết"},"message":"Lam 2 buoi dc k a. T7 va cn","can_remove":false,"created_time":"2014-04-10T03:39:21+0000","like_count":1,"user_likes":false},"848686631814682":{"id":"848686631814682","from":{"id":"100003763768548","name":"Nguyễn Dũng"},"message":"Tuần làm 3 buổi:\nT7,cn từ 10h\nThứ 3 từ 11h được ko bạn?","can_remove":false,"created_time":"2014-04-10T03:44:59+0000","like_count":0,"user_likes":false},"848687018481310":{"id":"848687018481310","from":{"id":"100003143534122","name":"Thuong Hoai"},"message":"k làm buồi chiều dc hả a? eo ơi","can_remove":false,"created_time":"2014-04-10T03:46:21+0000","like_count":0,"user_likes":false},"848698538480158":{"id":"848698538480158","from":{"id":"100005696525096","name":"Be Heo Beo"},"message":"E học buổi sáng nên chắc chỉ làm dk từ1 h! Dk ko a","can_remove":false,"created_time":"2014-04-10T04:26:02+0000","like_count":0,"user_likes":false},"848703241813021":{"id":"848703241813021","from":{"id":"100003751909185","name":"Hoang Gia Gia"},"message":"vậy thực tập sinh co lam dc ko ad?","can_remove":false,"created_time":"2014-04-10T04:44:03+0000","like_count":0,"user_likes":false},"848707655145913":{"id":"848707655145913","from":{"id":"100000267342665","name":"An Dung"},"message":"Thu Hà, Hung Do xem có làm đc ko nè","message_tags":[{"id":"100003838791541","name":"Thu Hà","type":"user","offset":0,"length":6},{"id":"100000171897706","name":"Hung Do","type":"user","offset":8,"length":7}],"can_remove":false,"created_time":"2014-04-10T05:00:47+0000","like_count":0,"user_likes":false},"848775718472440":{"id":"848775718472440","from":{"id":"100004145821002","name":"Em Thật Ngốc"},"message":"h đấy đi học hết thì phải","can_remove":false,"created_time":"2014-04-10T08:03:54+0000","like_count":0,"user_likes":false},"848841768465835":{"id":"848841768465835","from":{"id":"100001051044941","name":"Khanh Trung"},"message":"Pham Tuan ,","message_tags":[{"id":"100004444803334","name":"Pham Tuan","type":"user","offset":0,"length":9}],"can_remove":false,"created_time":"2014-04-10T11:38:35+0000","like_count":0,"user_likes":false},"848841808465831":{"id":"848841808465831","from":{"id":"100001051044941","name":"Khanh Trung"},"message":"Dang An","message_tags":[{"id":"100004261600079","name":"Dang An","type":"user","offset":0,"length":7}],"can_remove":false,"created_time":"2014-04-10T11:38:47+0000","like_count":0,"user_likes":false}},"paging":{"cursors":{"after":"ODQ4NjY5NTExODE2Mzk0","before":"ODQ4NjY5NTExODE2Mzk0"},"next":"https://graph.facebook.com/229244010425617_848668198483192/comments?limit=1&summary=1&after=ODQ4NjY5NTExODE2Mzk0"},"summary":{"order":"chronological","total_count":16}}}