{"id":"229244010425617_848662085150470","type":"status","from":{"id":"100001883080698","name":"Ú Mỏ Nhọn"},"message":"Mọi người đi trước cho mình tham khảo với. Ở Hà Nội thì nên dịch thuật hồ sơ ở đâu uy tín và giá cả phải chăng nhỉ? Mình cảm ơn.","created_time":"2014-04-10T02:29:59+0000","updated_time":"2014-04-11T15:13:14+0000","likes":{"data":{"100005793901727":{"id":"100005793901727","name":"Pé Lật Đật"},"100001230413257":{"id":"100001230413257","name":"Nhung Luong"}},"paging":{"cursors":{"after":"MTAwMDA1NzkzOTAxNzI3","before":"MTAwMDA1NzkzOTAxNzI3"},"next":"https://graph.facebook.com/229244010425617_848662085150470/likes?limit=1&summary=1&after=MTAwMDA1NzkzOTAxNzI3"},"summary":{"total_count":2}},"comments":{"data":{"849035491779796":{"id":"849035491779796","from":{"id":"1230050970","name":"Quỳnh Anh"},"message":"http://www.congchungdongda.com","can_remove":false,"created_time":"2014-04-10T17:50:37+0000","like_count":0,"user_likes":false},"849385595078119":{"id":"849385595078119","from":{"id":"100001883080698","name":"Ú Mỏ Nhọn"},"message":"Quỳnh Anh cảm ơn bạn nhé, xin lỗi vì trả lời muộn, nhưng ý mình muốn hỏi là nơi dịch thuật cơ, không phải văn phòng công chứng?","message_tags":[{"id":"1230050970","name":"Quỳnh Anh","type":"user","offset":0,"length":9}],"can_remove":false,"created_time":"2014-04-11T08:38:19+0000","like_count":0,"user_likes":false},"849451418404870":{"id":"849451418404870","from":{"id":"100003553243152","name":"Oanh Nguyen"},"message":"Lần trước mình dịch ở trong trường Đại học ngoại ngữ, khoảng 100 hay 150 nghìn 1 trang ý, mình ko nhớ rõ, dịch thuật công chứng luôn.","can_remove":false,"created_time":"2014-04-11T11:40:51+0000","like_count":0,"user_likes":false},"849453608404651":{"id":"849453608404651","from":{"id":"100001883080698","name":"Ú Mỏ Nhọn"},"message":"@oanh nguyen: cảm ơn bạn nhé, thế ở trong trường thì đấy là trung tâm của trường chứ không phải tư nhân phải không? mà là trường ĐH Ngoại ngữ - ĐH Quốc gia hả bạn?","can_remove":false,"created_time":"2014-04-11T11:46:50+0000","like_count":0,"user_likes":false},"849505128399499":{"id":"849505128399499","from":{"id":"1230050970","name":"Quỳnh Anh"},"message":"O cho day vua dich thuat vua cog chung ban a, \ngia ca phai chang va phuc vu tot, trc day minh lam giay to da ra do dich roi cong chug lun","can_remove":false,"created_time":"2014-04-11T13:41:29+0000","like_count":0,"user_likes":false},"849507638399248":{"id":"849507638399248","from":{"id":"100003553243152","name":"Oanh Nguyen"},"message":"Mình nghĩ là của tư nhân, tại trong đó có mấy trung tâm nữa. Uh. Đại học Ngoại ngữ- Đại học Quốc gia bạn ạ.","can_remove":false,"created_time":"2014-04-11T13:46:45+0000","like_count":0,"user_likes":false},"849557878394224":{"id":"849557878394224","from":{"id":"100001883080698","name":"Ú Mỏ Nhọn"},"message":"Quỳnh Anh, @oanh nguyen: cảm ơn 2 bạn nhiều nhé, mình sẽ đến hỏi cụ thể.","message_tags":[{"id":"1230050970","name":"Quỳnh Anh","type":"user","offset":0,"length":9}],"can_remove":false,"created_time":"2014-04-11T15:13:14+0000","like_count":0,"user_likes":false}},"paging":{"cursors":{"after":"ODQ5MDM1NDkxNzc5Nzk2","before":"ODQ5MDM1NDkxNzc5Nzk2"},"next":"https://graph.facebook.com/229244010425617_848662085150470/comments?limit=1&summary=1&after=ODQ5MDM1NDkxNzc5Nzk2"},"summary":{"order":"chronological","total_count":7}}}