{"id":"229244010425617_848635611819784","type":"photo","object_id":"240327222839111","picture":"https://fbcdn-photos-h-a.akamaihd.net/hphotos-ak-ash3/t1.0-0/10171819_240327222839111_8750512754430152944_s.jpg","link":"https://www.facebook.com/photo.php?fbid=240327222839111&set=gm.848635611819784&type=1&relevant_count=1","from":{"id":"100005855053978","name":"Tiền Là Quyền"},"message":"AC.cho em hoỉ 3 tu e vòng do sao ko phát am duok nhỉ ma chi phát am la (doroshikuonegaishimasu) xin cam on ac truoc.","created_time":"2014-04-10T01:31:14+0000","updated_time":"2014-04-11T09:48:41+0000","likes":{"data":{"100004061887638":{"id":"100004061887638","name":"Ai MặcNoọng Lái Lai"},"100007955791330":{"id":"100007955791330","name":"Vu Minh Hoạt"},"100004096753932":{"id":"100004096753932","name":"Mạnh Super"},"100003800715916":{"id":"100003800715916","name":"Rubic Angel"},"100002887947757":{"id":"100002887947757","name":"Nguyen Dang"}},"paging":{"cursors":{"after":"MTAwMDA0MDYxODg3NjM4","before":"MTAwMDA0MDYxODg3NjM4"},"next":"https://graph.facebook.com/229244010425617_848635611819784/likes?limit=1&summary=1&after=MTAwMDA0MDYxODg3NjM4"},"summary":{"total_count":5}},"comments":{"data":{"848636691819676":{"id":"848636691819676","from":{"id":"100003245420682","name":"Thỏ Ngọc Usagi"},"message":"Do-zo yo ro shi ku o ne gai shi ma su","can_remove":false,"created_time":"2014-04-10T01:33:40+0000","like_count":1,"user_likes":false},"848636968486315":{"id":"848636968486315","from":{"id":"100003245420682","name":"Thỏ Ngọc Usagi"},"message":"Romaji của bạn phát âm sai rồi","can_remove":false,"created_time":"2014-04-10T01:34:34+0000","like_count":1,"user_likes":false},"848637028486309":{"id":"848637028486309","from":{"id":"100007187850069","name":"Tập Sống Ích Kỉ"},"message":"Có yo bác ơi","can_remove":false,"created_time":"2014-04-10T01:34:47+0000","like_count":0,"user_likes":false},"848637225152956":{"id":"848637225152956","from":{"id":"100003245420682","name":"Thỏ Ngọc Usagi"},"message":"Âm dou phát âm kéo dài ra.","can_remove":false,"created_time":"2014-04-10T01:35:24+0000","like_count":1,"user_likes":false},"848637755152903":{"id":"848637755152903","from":{"id":"100007055220627","name":"Khoảnh Khắc"},"message":"わからない","can_remove":false,"created_time":"2014-04-10T01:36:49+0000","like_count":0,"user_likes":false},"848638115152867":{"id":"848638115152867","from":{"id":"100005855053978","name":"Tiền Là Quyền"},"message":"The phat am la do -zo-yo ak.\nSao minh nge lai ko thay nguoi ta phat am (N,zo,yo) nhi thac mac wua nen hoi n.","can_remove":false,"created_time":"2014-04-10T01:37:55+0000","like_count":0,"user_likes":false},"848639315152747":{"id":"848639315152747","from":{"id":"100003245420682","name":"Thỏ Ngọc Usagi"},"message":"Trong một câu họ thường nói nối âm đó bạn. Mình mới nghe chưa quen sẽ khó phân biệt lắm","can_remove":false,"created_time":"2014-04-10T01:40:20+0000","like_count":0,"user_likes":false},"848639515152727":{"id":"848639515152727","from":{"id":"100005855053978","name":"Tiền Là Quyền"},"message":"The ak.mjh cam on mn nhiu nha\nthaks.","can_remove":false,"created_time":"2014-04-10T01:41:14+0000","like_count":0,"user_likes":false},"848641225152556":{"id":"848641225152556","from":{"id":"100004917425745","name":"Nhân Tâm"},"message":"Dou-zo-yo-ro-shi-ku ! Chắc tại từ \"dou\" phát âm dài nên hay bị nhầm đó bạn ơi :)","can_remove":false,"created_time":"2014-04-10T01:46:52+0000","like_count":1,"user_likes":false},"848643775152301":{"id":"848643775152301","from":{"id":"100004088408017","name":"Bách Đà"},"message":"Bạn chơi chữ hay pết nhỉ","can_remove":false,"created_time":"2014-04-10T01:49:13+0000","like_count":3,"user_likes":false},"848647758485236":{"id":"848647758485236","from":{"id":"100005855053978","name":"Tiền Là Quyền"},"message":"The mn cho mjh hoi \nthe phat am dung la \"dou\" hay la \"do\" nhi.?","can_remove":false,"created_time":"2014-04-10T01:51:45+0000","like_count":0,"user_likes":false},"848647961818549":{"id":"848647961818549","from":{"id":"100004088408017","name":"Bách Đà"},"message":"Bạn giả vờ thật hay đùa đấy","can_remove":false,"created_time":"2014-04-10T01:52:35+0000","like_count":0,"user_likes":false},"848648061818539":{"id":"848648061818539","from":{"id":"100004917425745","name":"Nhân Tâm"},"message":"Viết thẳng ra là \" đôô\" :D","can_remove":false,"created_time":"2014-04-10T01:53:04+0000","like_count":0,"user_likes":false},"848648081818537":{"id":"848648081818537","from":{"id":"100005855053978","name":"Tiền Là Quyền"},"message":"That nhe k dua dau nha.","can_remove":false,"created_time":"2014-04-10T01:53:11+0000","like_count":0,"user_likes":false},"848649298485082":{"id":"848649298485082","from":{"id":"100004088408017","name":"Bách Đà"},"message":"Bạn khoanh chữ ư trường âm của do với chữ zo và chữ yo ban hỏi phát âm không ra . Vạn có hỏi 先生 thì cũng chịu câu này","can_remove":false,"created_time":"2014-04-10T01:55:58+0000","like_count":1,"user_likes":false},"848650571818288":{"id":"848650571818288","from":{"id":"100005855053978","name":"Tiền Là Quyền"},"message":"mn cho hoi dum la sau cau xin chao toi ten la\"\"desu roi den cau nay \"betonamukimashita\" phat am the co dung ko. Nhi.","can_remove":false,"created_time":"2014-04-10T01:58:21+0000","like_count":0,"user_likes":false},"848650651818280":{"id":"848650651818280","from":{"id":"100004336204724","name":"Pé Ti"},"message":"chữ ư( う) ko phát âm, là trường âm mak","can_remove":false,"created_time":"2014-04-10T01:58:40+0000","like_count":1,"user_likes":false},"848650868484925":{"id":"848650868484925","from":{"id":"100004917425745","name":"Nhân Tâm"},"message":"\"betonamu karakimashita\" chứ :3","can_remove":false,"created_time":"2014-04-10T01:59:25+0000","like_count":0,"user_likes":false},"848651025151576":{"id":"848651025151576","from":{"id":"100005855053978","name":"Tiền Là Quyền"},"message":"The ak.the thi mjh hiu cau nay roi.","can_remove":false,"created_time":"2014-04-10T01:59:51+0000","like_count":0,"user_likes":false},"848651385151540":{"id":"848651385151540","from":{"id":"100005855053978","name":"Tiền Là Quyền"},"message":"Nhan tam cam on nha.minh nge nhug thay thieu thieu chac la 2 tu nay.","can_remove":false,"created_time":"2014-04-10T02:01:00+0000","like_count":0,"user_likes":false},"848651485151530":{"id":"848651485151530","from":{"id":"100004917425745","name":"Nhân Tâm"},"message":"Dooitashimashite :)","can_remove":false,"created_time":"2014-04-10T02:01:29+0000","like_count":1,"user_likes":false},"848651721818173":{"id":"848651721818173","from":{"id":"100004993025353","name":"Ruby Tuyển"},"message":"Douzoyoroshiku onegaishimasu","can_remove":false,"created_time":"2014-04-10T02:02:02+0000","like_count":2,"user_likes":false},"848651861818159":{"id":"848651861818159","from":{"id":"1544149588","name":"Anh Dung Tran"},"message":"Douzoyoroshiku onegaishimasu","can_remove":false,"created_time":"2014-04-10T02:02:24+0000","like_count":1,"user_likes":false},"848652285151450":{"id":"848652285151450","from":{"id":"100005855053978","name":"Tiền Là Quyền"},"message":"Thaks mn nhiu nhe.","can_remove":false,"created_time":"2014-04-10T02:03:24+0000","like_count":0,"user_likes":false},"848670181816327":{"id":"848670181816327","from":{"id":"100005390825802","name":"Tuylip Trắng"},"message":"douzoyoroshiku onegaishimasu","can_remove":false,"created_time":"2014-04-10T02:54:29+0000","like_count":0,"user_likes":false},"848673058482706":{"id":"848673058482706","from":{"id":"100006382505425","name":"Linh Tú"},"message":"う k phat am vj la truong am cua お.ban chi can keo dai と\" thoi","can_remove":false,"created_time":"2014-04-10T03:04:07+0000","like_count":1,"user_likes":false},"848681278481884":{"id":"848681278481884","from":{"id":"100000110765909","name":"Thảo Nguyễn"},"message":"Đô zồ dô rô shi cư... \nPhiên âm 100% phiên bản tiếng Việt đây ạ (*^^*)","can_remove":false,"created_time":"2014-04-10T03:31:26+0000","like_count":0,"user_likes":false},"848691078480904":{"id":"848691078480904","from":{"id":"100004343521460","name":"Rain Ice"},"message":"oh i fckin i know, wakarimashita,","can_remove":false,"created_time":"2014-04-10T03:59:21+0000","like_count":0,"user_likes":false},"848691351814210":{"id":"848691351814210","from":{"id":"100005955696142","name":"Hong Tít"},"message":"Douzoyoroshiku onegaishimasu","can_remove":false,"created_time":"2014-04-10T04:00:28+0000","like_count":0,"user_likes":false},"848692831814062":{"id":"848692831814062","from":{"id":"100003587314679","name":"Why Die"},"message":"Ọc.. Tiếng anh mình không hiểu","can_remove":false,"created_time":"2014-04-10T04:05:26+0000","like_count":0,"user_likes":false},"848693845147294":{"id":"848693845147294","from":{"id":"100003669402452","name":"Mỳ Tôm Xào Trứng"},"message":"Nhân Tâm. Dooitashimashite nghĩa là j vậy","can_remove":false,"created_time":"2014-04-10T04:09:46+0000","like_count":0,"user_likes":false},"848694265147252":{"id":"848694265147252","from":{"id":"100004343521460","name":"Rain Ice"},"message":"yonde itadakemasu yo! u can read","can_remove":false,"created_time":"2014-04-10T04:11:03+0000","like_count":0,"user_likes":false},"848694291813916":{"id":"848694291813916","from":{"id":"100005219074602","name":"Minh Mộng Mơ"},"message":"Học tiến Nhật có khó không các bạn mình rất muốn","can_remove":false,"created_time":"2014-04-10T04:11:15+0000","like_count":0,"user_likes":false},"848695088480503":{"id":"848695088480503","from":{"id":"100007917634982","name":"Cry Cry"},"message":"Doitashimashite nghĩ là No problem :))","can_remove":false,"created_time":"2014-04-10T04:14:47+0000","like_count":0,"user_likes":false},"848695198480492":{"id":"848695198480492","from":{"id":"100007917634982","name":"Cry Cry"},"message":"Học làm gì đau đầu lắm :3","can_remove":false,"created_time":"2014-04-10T04:15:16+0000","like_count":1,"user_likes":false},"848695321813813":{"id":"848695321813813","from":{"id":"100005219074602","name":"Minh Mộng Mơ"},"message":"mình muốn học lắm","can_remove":false,"created_time":"2014-04-10T04:15:52+0000","like_count":0,"user_likes":false},"848695335147145":{"id":"848695335147145","from":{"id":"100004343521460","name":"Rain Ice"},"message":"why u study","can_remove":false,"created_time":"2014-04-10T04:15:57+0000","like_count":0,"user_likes":false},"848695515147127":{"id":"848695515147127","from":{"id":"100004908941067","name":"Cử Cơ"},"message":"Con chịu","can_remove":false,"created_time":"2014-04-10T04:16:57+0000","like_count":0,"user_likes":false},"848695598480452":{"id":"848695598480452","from":{"id":"100007917634982","name":"Cry Cry"},"message":"K học k đi đc nên phải học thôi. Có muốn đâu mà :(","can_remove":false,"created_time":"2014-04-10T04:17:14+0000","like_count":0,"user_likes":false},"848695871813758":{"id":"848695871813758","from":{"id":"100005219074602","name":"Minh Mộng Mơ"},"message":"ùm học tiếng nhật giống như học từng tiếng lớp 1 xong áp dụng lớp 2 nv thì mình có thể thành thạo nhĩ Cry Cry","message_tags":[{"id":"100007917634982","name":"Cry Cry","type":"user","offset":102,"length":7}],"can_remove":false,"created_time":"2014-04-10T04:18:29+0000","like_count":0,"user_likes":false},"848696001813745":{"id":"848696001813745","from":{"id":"100007917634982","name":"Cry Cry"},"message":"Mình biết mỗi bảng chữ cái k à","can_remove":false,"created_time":"2014-04-10T04:19:11+0000","like_count":0,"user_likes":false},"848696065147072":{"id":"848696065147072","from":{"id":"100003669402452","name":"Mỳ Tôm Xào Trứng"},"message":"Cry cry .học giỏi tiếng nhật nhỉ","can_remove":false,"created_time":"2014-04-10T04:19:22+0000","like_count":0,"user_likes":false},"848696085147070":{"id":"848696085147070","from":{"id":"100005219074602","name":"Minh Mộng Mơ"},"message":"cho mình xem với","can_remove":false,"created_time":"2014-04-10T04:19:29+0000","like_count":0,"user_likes":false},"848697438480268":{"id":"848697438480268","from":{"id":"100005855053978","name":"Tiền Là Quyền"},"message":"Cry Cry\nsugoidesune....","can_remove":false,"created_time":"2014-04-10T04:22:52+0000","like_count":0,"user_likes":false},"848698031813542":{"id":"848698031813542","from":{"id":"100007917634982","name":"Cry Cry"},"message":"まだです","can_remove":false,"created_time":"2014-04-10T04:24:12+0000","like_count":0,"user_likes":false},"848698178480194":{"id":"848698178480194","from":{"id":"100005855053978","name":"Tiền Là Quyền"},"message":"Arigatou gozaimasu a nata...\nThaks.","can_remove":false,"created_time":"2014-04-10T04:24:43+0000","like_count":1,"user_likes":false},"848698711813474":{"id":"848698711813474","from":{"id":"100005219074602","name":"Minh Mộng Mơ"},"message":"thấy A chị nói tiếng nhật hay qá à","can_remove":false,"created_time":"2014-04-10T04:27:00+0000","like_count":0,"user_likes":false},"848699221813423":{"id":"848699221813423","from":{"id":"100003587314679","name":"Why Die"},"message":"Mấy phần này vẫn đơn giản mà... Cứ học đi để thấy độ khoai của nó..","can_remove":false,"created_time":"2014-04-10T04:29:09+0000","like_count":0,"user_likes":false},"848706805145998":{"id":"848706805145998","from":{"id":"100003069246142","name":"Hồng Trịnh"},"message":"Phiên âm và phát âm là khác nhau rồi. Tưởng bạn tiền là quyền hỏi là bạn ko phát âm đc chứ","can_remove":false,"created_time":"2014-04-10T04:57:21+0000","like_count":1,"user_likes":false},"848733628476649":{"id":"848733628476649","from":{"id":"100004458695349","name":"Heo Buồn"},"message":"Doozoyoroshikuonegaishimasu :v","can_remove":false,"created_time":"2014-04-10T06:47:34+0000","like_count":0,"user_likes":false},"848736738476338":{"id":"848736738476338","from":{"id":"100006464757230","name":"Cậu Ấm TựLập"},"message":"Sao lại không phát âm đc từ zo and yo phát âm khác hẳn nhau mà","can_remove":false,"created_time":"2014-04-10T06:59:15+0000","like_count":0,"user_likes":false},"848772315139447":{"id":"848772315139447","from":{"id":"100000024629190","name":"Thanh Ngọc"},"message":"Nghi ngờ bạn này mghe ngta nói yoroshiku onegaishimasu thì đúng hơn :)","can_remove":false,"created_time":"2014-04-10T07:52:59+0000","like_count":0,"user_likes":false},"848784028471609":{"id":"848784028471609","from":{"id":"100005855053978","name":"Tiền Là Quyền"},"message":"Thanh Ngọc : ummjh nge nhu vay do.?","can_remove":false,"created_time":"2014-04-10T08:31:42+0000","like_count":0,"user_likes":false},"848784095138269":{"id":"848784095138269","from":{"id":"100005855053978","name":"Tiền Là Quyền"},"message":"Dup dam vs.?","can_remove":false,"created_time":"2014-04-10T08:32:07+0000","like_count":0,"user_likes":false},"848806361802709":{"id":"848806361802709","from":{"id":"100000024629190","name":"Thanh Ngọc"},"message":"Ừm vậy là họ nói từ đoạn yoroshiku thôi chứ k phải nói đầy đủ là douzo yoroshiku đâu bạn. Câu của bạn post lên là câu đầy đủ rồi, nó thêm douzo ở đầu chứ k phải bạn nghe nhầm đâu ^_^","can_remove":false,"created_time":"2014-04-10T09:52:21+0000","like_count":2,"user_likes":false},"848813285135350":{"id":"848813285135350","from":{"id":"100000024629190","name":"Thanh Ngọc"},"message":"Ý nghĩa cũng giống nhau thôi nhưng từ yoroshiku-> yoroshikuonegaishimasu -> douzo yoroshiku onegaishimasu thì mức lịch sự tăng dần, càng nói dài thì mức lịch sự càng cao.","can_remove":false,"created_time":"2014-04-10T10:17:10+0000","like_count":2,"user_likes":false},"849277665088912":{"id":"849277665088912","from":{"id":"100006496236641","name":"Hoa Cỏ May"},"message":"Ghe thay co giao giang xong ma dau ca dau","can_remove":false,"created_time":"2014-04-11T03:12:24+0000","like_count":0,"user_likes":false},"849279418422070":{"id":"849279418422070","from":{"id":"100005855053978","name":"Tiền Là Quyền"},"message":"Hoa co may \nban thu hok thu tieng nay di no se hut ban vao nhu nam cham vs sat ay.","can_remove":false,"created_time":"2014-04-11T03:17:31+0000","like_count":0,"user_likes":false},"849282775088401":{"id":"849282775088401","from":{"id":"100006496236641","name":"Hoa Cỏ May"},"message":"To dang hoc min 1ma Tien la quyen","can_remove":false,"created_time":"2014-04-11T03:27:28+0000","like_count":1,"user_likes":false},"849284745088204":{"id":"849284745088204","from":{"id":"100005855053978","name":"Tiền Là Quyền"},"message":"Hihi...um.","can_remove":false,"created_time":"2014-04-11T03:28:28+0000","like_count":0,"user_likes":false},"849284925088186":{"id":"849284925088186","from":{"id":"100006496236641","name":"Hoa Cỏ May"},"message":"Ban hoc min may roi","can_remove":false,"created_time":"2014-04-11T03:28:58+0000","like_count":0,"user_likes":false},"849287175087961":{"id":"849287175087961","from":{"id":"100005855053978","name":"Tiền Là Quyền"},"message":"Cung moi 1 ak nhu ban thoi.","can_remove":false,"created_time":"2014-04-11T03:36:03+0000","like_count":0,"user_likes":false},"849287241754621":{"id":"849287241754621","from":{"id":"100005855053978","name":"Tiền Là Quyền"},"message":"Nhug duok cai hok ma ko thay chan thoi hihi...","can_remove":false,"created_time":"2014-04-11T03:36:18+0000","like_count":0,"user_likes":false},"849287368421275":{"id":"849287368421275","from":{"id":"100006496236641","name":"Hoa Cỏ May"},"message":"Vay la tot roai heeee","can_remove":false,"created_time":"2014-04-11T03:36:40+0000","like_count":1,"user_likes":false},"849287878421224":{"id":"849287878421224","from":{"id":"100005855053978","name":"Tiền Là Quyền"},"message":"Ban vao tai 50 bai giao tip ve ma hok ay.vu hok vua nge no de biet hon.(ap dung cho nguoi tu hok nhe).","can_remove":false,"created_time":"2014-04-11T03:38:28+0000","like_count":0,"user_likes":false},"849288835087795":{"id":"849288835087795","from":{"id":"100007917634982","name":"Cry Cry"},"message":"Hết 25 bài đầu là thấy chán chán :) Thật","can_remove":false,"created_time":"2014-04-11T03:40:55+0000","like_count":1,"user_likes":false},"849289205087758":{"id":"849289205087758","from":{"id":"100005855053978","name":"Tiền Là Quyền"},"message":"Minh chua den noi do.hihi...","can_remove":false,"created_time":"2014-04-11T03:41:47+0000","like_count":0,"user_likes":false},"849289485087730":{"id":"849289485087730","from":{"id":"100007917634982","name":"Cry Cry"},"message":"頑張って。","can_remove":false,"created_time":"2014-04-11T03:42:29+0000","like_count":0,"user_likes":false},"849291891754156":{"id":"849291891754156","from":{"id":"100005855053978","name":"Tiền Là Quyền"},"message":"Hon nua mjh cung ko biet tieng han nua moi chet chua.\n(k biet tu nao)","can_remove":false,"created_time":"2014-04-11T03:44:29+0000","like_count":0,"user_likes":false},"849293081754037":{"id":"849293081754037","from":{"id":"100007917634982","name":"Cry Cry"},"message":"Tự học luôn đi bạn. Ghi âm Hán ra học trước rồi viết lại nhiều lần. Trước đó học cách viết Kanji. Trên trước dưới sau, trong trước ngoài sau ...","can_remove":false,"created_time":"2014-04-11T03:46:31+0000","like_count":1,"user_likes":false},"849296178420394":{"id":"849296178420394","from":{"id":"100005855053978","name":"Tiền Là Quyền"},"message":"Vay ak.mjh thay chu han no cu nhu the nao ay.","can_remove":false,"created_time":"2014-04-11T03:52:55+0000","like_count":0,"user_likes":false},"849408115075867":{"id":"849408115075867","from":{"id":"100003382891337","name":"Đinh Văn Mạnh"},"message":"どうぞよろしくお願いします。 bạn ạ","can_remove":false,"created_time":"2014-04-11T09:48:41+0000","like_count":1,"user_likes":false}},"paging":{"cursors":{"after":"ODQ4NjM2NjkxODE5Njc2","before":"ODQ4NjM2NjkxODE5Njc2"},"next":"https://graph.facebook.com/229244010425617_848635611819784/comments?limit=1&summary=1&after=ODQ4NjM2NjkxODE5Njc2"},"summary":{"order":"chronological","total_count":72}}}