{"id":"229244010425617_848690105147668","type":"status","from":{"id":"100008001069195","name":"Kệ Tao Ngốc"},"message":"cho e hỏi.sag nkật học lần đầu tìm chỗ ở,thíc ngki cuộc sốg chắc khó khăn lắm nhỉ?","created_time":"2014-04-10T03:56:10+0000","updated_time":"2014-04-10T09:26:34+0000","likes":{"data":{"100003662772797":{"id":"100003662772797","name":"Uyên Thánh Thiện"},"100006307596308":{"id":"100006307596308","name":"Khi Nào Đổi Thay"}},"paging":{"cursors":{"after":"MTAwMDAzNjYyNzcyNzk3","before":"MTAwMDAzNjYyNzcyNzk3"},"next":"https://graph.facebook.com/229244010425617_848690105147668/likes?limit=1&summary=1&after=MTAwMDAzNjYyNzcyNzk3"},"summary":{"total_count":2}},"comments":{"data":{"848693555147323":{"id":"848693555147323","from":{"id":"100003751909185","name":"Hoang Gia Gia"},"message":"thời gian đầu mới sang thì lên ở khu nội trú cua trường thì tốt hơn.nếu bạn có điều kiện hoăc thuộc đường đi và ngôn ngữ giao tiếp tốt thì ok","can_remove":false,"created_time":"2014-04-10T04:08:21+0000","like_count":0,"user_likes":false},"848704145146264":{"id":"848704145146264","from":{"id":"100008001069195","name":"Kệ Tao Ngốc"},"message":"uk.thank you.p cũg là ng ở nkật ak?","can_remove":false,"created_time":"2014-04-10T04:47:53+0000","like_count":0,"user_likes":false},"848705345146144":{"id":"848705345146144","from":{"id":"100003751909185","name":"Hoang Gia Gia"},"message":"ừh.minh đang ở hokkaido","can_remove":false,"created_time":"2014-04-10T04:52:37+0000","like_count":1,"user_likes":false},"848706535146025":{"id":"848706535146025","from":{"id":"100003775685711","name":"Thằng Chăn Vịt"},"message":"Ừ","can_remove":false,"created_time":"2014-04-10T04:56:22+0000","like_count":0,"user_likes":false},"848709661812379":{"id":"848709661812379","from":{"id":"100001675994847","name":"Khánh Phượng"},"message":"Mình thấy cũng bình thường à bạn, mình thấy thời gian troi qua nhanh hơn bên mình","can_remove":false,"created_time":"2014-04-10T05:08:08+0000","like_count":0,"user_likes":false},"848710978478914":{"id":"848710978478914","from":{"id":"100003751909185","name":"Hoang Gia Gia"},"message":"ko phải chứ.khánh phượng?o dau mà 1 ngày chả có 24h.chẳng qua là ở đây chênh lệch giờ với quê mình thôi","can_remove":false,"created_time":"2014-04-10T05:11:40+0000","like_count":0,"user_likes":false},"848711408478871":{"id":"848711408478871","from":{"id":"100001675994847","name":"Khánh Phượng"},"message":"Tại mình cảm thấy thế thôi :)) mới ngủ dậy lại sắp hết ngày rồi :)))","can_remove":false,"created_time":"2014-04-10T05:12:46+0000","like_count":0,"user_likes":false},"848712171812128":{"id":"848712171812128","from":{"id":"100003751909185","name":"Hoang Gia Gia"},"message":"ừh.mình thì thấy lâu hết ngày lắm.....haiz","can_remove":false,"created_time":"2014-04-10T05:16:18+0000","like_count":0,"user_likes":false},"848712388478773":{"id":"848712388478773","from":{"id":"100001675994847","name":"Khánh Phượng"},"message":":)) chắc tại mình mới qua nên thấy thế, ở lâu lại mong hết thời gian để về Việt Nam!","can_remove":false,"created_time":"2014-04-10T05:17:12+0000","like_count":0,"user_likes":false},"848714261811919":{"id":"848714261811919","from":{"id":"100006307596308","name":"Khi Nào Đổi Thay"},"message":"rễ lắm em àk, vì bên này mình được ví như trâu như bò nên chỗ ở đơn giản lắm","can_remove":false,"created_time":"2014-04-10T05:25:31+0000","like_count":0,"user_likes":false},"848714418478570":{"id":"848714418478570","from":{"id":"100003662772797","name":"Uyên Thánh Thiện"},"message":"Mọi người đi du học tự túc hay học bổng ạ?","can_remove":false,"created_time":"2014-04-10T05:25:59+0000","like_count":0,"user_likes":false},"848714688478543":{"id":"848714688478543","from":{"id":"100001675994847","name":"Khánh Phượng"},"message":"Mình tự túc :)","can_remove":false,"created_time":"2014-04-10T05:26:49+0000","like_count":1,"user_likes":false},"848714725145206":{"id":"848714725145206","from":{"id":"100008001069195","name":"Kệ Tao Ngốc"},"message":"uk.chắc m.n nkớ quê lắm nhỉ.bao gjờ t ms đc sag nhật sốg và hc tập đây.hj.háo hức wa.gjờ mìh ms đag lớp 10.hj.","can_remove":false,"created_time":"2014-04-10T05:26:59+0000","like_count":0,"user_likes":false},"848715011811844":{"id":"848715011811844","from":{"id":"100001675994847","name":"Khánh Phượng"},"message":"Học xong 12 đi luôn đi :))","can_remove":false,"created_time":"2014-04-10T05:28:05+0000","like_count":0,"user_likes":false},"848715705145108":{"id":"848715705145108","from":{"id":"100003662772797","name":"Uyên Thánh Thiện"},"message":"Lớp 12 có được đăng kí học bổng chính phủ không nhỉ?","can_remove":false,"created_time":"2014-04-10T05:31:39+0000","like_count":0,"user_likes":false},"848716995144979":{"id":"848716995144979","from":{"id":"100001675994847","name":"Khánh Phượng"},"message":"Học xong 12 trong đó 3 năm cấp 3 bạn phải là học sinh khá giỏi điểm tb k dưới 7.5 hạnh kiểm tốt rồi tùm lun gì nữa á","can_remove":false,"created_time":"2014-04-10T05:36:09+0000","like_count":1,"user_likes":false},"848717081811637":{"id":"848717081811637","from":{"id":"100008001069195","name":"Kệ Tao Ngốc"},"message":"nkưg t ckẳg quen pít aj bên đấy.mà đi 1ckuyến ntếk mất bao nhjêu xjền v?","can_remove":false,"created_time":"2014-04-10T05:36:30+0000","like_count":0,"user_likes":false},"848717665144912":{"id":"848717665144912","from":{"id":"100001675994847","name":"Khánh Phượng"},"message":"Khoảng 300tr","can_remove":false,"created_time":"2014-04-10T05:38:19+0000","like_count":0,"user_likes":false},"848717981811547":{"id":"848717981811547","from":{"id":"100003751909185","name":"Hoang Gia Gia"},"message":"hjhj.mjnh thay lớn hơn con số đó gấp nhiều lần đó.","can_remove":false,"created_time":"2014-04-10T05:39:40+0000","like_count":0,"user_likes":false},"848718021811543":{"id":"848718021811543","from":{"id":"100003662772797","name":"Uyên Thánh Thiện"},"message":":)) trước lạ sau quen mà.","can_remove":false,"created_time":"2014-04-10T05:39:52+0000","like_count":0,"user_likes":false},"848718371811508":{"id":"848718371811508","from":{"id":"100008001069195","name":"Kệ Tao Ngốc"},"message":"uk.eo ơi.đắt v?nkà mìh ngkèo lắm,hjhj.k có cơ hộj rồj.","can_remove":false,"created_time":"2014-04-10T05:41:14+0000","like_count":0,"user_likes":false},"848718985144780":{"id":"848718985144780","from":{"id":"100003751909185","name":"Hoang Gia Gia"},"message":"m.n ở đây có aiddang là du học sinh ko vây?","can_remove":false,"created_time":"2014-04-10T05:43:46+0000","like_count":0,"user_likes":false},"848719088478103":{"id":"848719088478103","from":{"id":"100003662772797","name":"Uyên Thánh Thiện"},"message":"B có thể xin học bổng, hỗ trợ học phí.","can_remove":false,"created_time":"2014-04-10T05:44:16+0000","like_count":0,"user_likes":false},"848739211809424":{"id":"848739211809424","from":{"id":"100002853230995","name":"Nguyễn Vân"},"message":"Đứa nào học giỏi thì chị khuyến khích sang đây. Chứ cứ nghe hết ng Việt trộm cắp, đá tàu,...vì ko đủ tiền trang trải cs thì mệt mỏi lắm.","can_remove":false,"created_time":"2014-04-10T07:09:20+0000","like_count":0,"user_likes":false},"848741485142530":{"id":"848741485142530","from":{"id":"100001526631937","name":"Tường Oanh Mineko"},"message":"Kệ Tao Ngốc ơi, bạn viết tiếng việt chuẩn hơn chút là ko ai \"kệ bạn\" đâu, ha ^_^, dễ ẹt í mà","message_tags":[{"id":"100008001069195","name":"Kệ Tao Ngốc","type":"user","offset":0,"length":11}],"can_remove":false,"created_time":"2014-04-10T07:19:57+0000","like_count":0,"user_likes":false},"848742345142444":{"id":"848742345142444","from":{"id":"100008001069195","name":"Kệ Tao Ngốc"},"message":"ừ.hjhj.chuẩn chưa.khôg sai lỗi chíh tả đâu.chuẩn khôg cần chỉh.m0g 1ngày khôg xa.tớ có thể làm bố mẹ mở mày mở mặt.","can_remove":false,"created_time":"2014-04-10T07:23:11+0000","like_count":0,"user_likes":false},"848742851809060":{"id":"848742851809060","from":{"id":"100001526631937","name":"Tường Oanh Mineko"},"message":"uhm, tinh thần rất tốt, bạn \"siêng\" xí nữa nhe, ví dụ như: \" hjhj\" ----> hihi, \" chish tả\" ----> chính tả......mới là \"chuẩn không cần chỉnh\", nhé !","can_remove":false,"created_time":"2014-04-10T07:25:43+0000","like_count":0,"user_likes":false},"848744238475588":{"id":"848744238475588","from":{"id":"100000603915176","name":"悪いな ぁ"},"message":"Thực ra nên gọi là Bỡ ngỡ chứ không gọi là Khó khăn. Chỉ có ở VN mới có cảm giác Khó khăn thôi. Ví dụ đi làm thẻ Người nước ngoài, ở VN làm CMT mất 1 tuần trời, chưa kể sếp hàng. Còn ở Nhật thì mất nhiều là 1 tiếng, nhanh thì 10 phút -> Bỡ ngỡ hay Khó khăn :D","can_remove":false,"created_time":"2014-04-10T07:29:54+0000","like_count":1,"user_likes":false},"848798675136811":{"id":"848798675136811","from":{"id":"100008001069195","name":"Kệ Tao Ngốc"},"message":"vậy à,côg nhận.nhưg tớ làm chứg minh thư từ năm lớp 9rồi.hi","can_remove":false,"created_time":"2014-04-10T09:26:34+0000","like_count":0,"user_likes":false}},"paging":{"cursors":{"after":"ODQ4NjkzNTU1MTQ3MzIz","before":"ODQ4NjkzNTU1MTQ3MzIz"},"next":"https://graph.facebook.com/229244010425617_848690105147668/comments?limit=1&summary=1&after=ODQ4NjkzNTU1MTQ3MzIz"},"summary":{"order":"chronological","total_count":29}}}