{"id":"229244010425617_848656798484332","type":"status","from":{"id":"100007745042001","name":"Thu Nguyen"},"message":"các bạn cho mình hỏi khi máy bay quá cảnh ở hàn quốc, xuống đó có khó khăn để tìm máy bay đi tiếp qua nhật bản không ạ? cảm ơn tất cả mọi người ạ","created_time":"2014-04-10T02:14:58+0000","updated_time":"2014-04-10T09:22:27+0000","likes":{"data":{"100000270980320":{"id":"100000270980320","name":"Minhtriet Tran"},"100003181743412":{"id":"100003181743412","name":"Pham Kha"},"100007086630996":{"id":"100007086630996","name":"Công Xa Cơ"},"100005855053978":{"id":"100005855053978","name":"Tiền Là Quyền"}},"paging":{"cursors":{"after":"MTAwMDAwMjcwOTgwMzIw","before":"MTAwMDAwMjcwOTgwMzIw"},"next":"https://graph.facebook.com/229244010425617_848656798484332/likes?limit=1&summary=1&after=MTAwMDAwMjcwOTgwMzIw"},"summary":{"total_count":4}},"comments":{"data":{"848657898484222":{"id":"848657898484222","from":{"id":"100000603915176","name":"悪いな ぁ"},"message":"Khó phết đấy :3","can_remove":false,"created_time":"2014-04-10T02:17:33+0000","like_count":1,"user_likes":false},"848659151817430":{"id":"848659151817430","from":{"id":"824089766","name":"Le Dai"},"message":"Trừ khi bạn ko biết tí tiếng Anh nào, còn ko thì ko vấn đề, có biển hướng dẫn bằng tiếng Anh hết rồi.","can_remove":false,"created_time":"2014-04-10T02:20:17+0000","like_count":1,"user_likes":false},"848659368484075":{"id":"848659368484075","from":{"id":"100007745042001","name":"Thu Nguyen"},"message":"chết tiếng anh mình cũng không giỏi lắm","can_remove":false,"created_time":"2014-04-10T02:20:50+0000","like_count":0,"user_likes":false},"848659425150736":{"id":"848659425150736","from":{"id":"100004544826841","name":"ToNy Nhat"},"message":"Bạn cần hỏi nhân viên sân bay để tìm đúng cổng vào sân bay của mình. Hiểu 1 chút tiếng anh. Và nắm rõ giờ bay để nghe thông báo","can_remove":false,"created_time":"2014-04-10T02:20:55+0000","like_count":1,"user_likes":false},"848659568484055":{"id":"848659568484055","from":{"id":"824089766","name":"Le Dai"},"message":"Ko hiểu tiếng Anh thì cứ tìm nhân viên sân bay đưa cho họ cái vé để họ chỉ cho","can_remove":false,"created_time":"2014-04-10T02:21:20+0000","like_count":1,"user_likes":false},"848659901817355":{"id":"848659901817355","from":{"id":"100007745042001","name":"Thu Nguyen"},"message":"cảm ơn các bạn nhé. mình đi một mình nên cũng hơi lo ạ","can_remove":false,"created_time":"2014-04-10T02:22:12+0000","like_count":0,"user_likes":false},"848660501817295":{"id":"848660501817295","from":{"id":"100003894790209","name":"Linh Phạm"},"message":"Cứ vào cửa theo số ghi trên máy bay hoặc nhìn bảng giờ bay vào ngồi đợi thôi","can_remove":false,"created_time":"2014-04-10T02:24:16+0000","like_count":1,"user_likes":false},"848661115150567":{"id":"848661115150567","from":{"id":"100003894790209","name":"Linh Phạm"},"message":"À quên ghi trên vé","can_remove":false,"created_time":"2014-04-10T02:26:20+0000","like_count":0,"user_likes":false},"848661175150561":{"id":"848661175150561","from":{"id":"100007745042001","name":"Thu Nguyen"},"message":"tức xuống đấy không cần phải mua vé khác ạ.","can_remove":false,"created_time":"2014-04-10T02:26:36+0000","like_count":1,"user_likes":false},"848661438483868":{"id":"848661438483868","from":{"id":"100003894790209","name":"Linh Phạm"},"message":"Uk ở nhật n xuất cho mình luôn 2 vé mà","can_remove":false,"created_time":"2014-04-10T02:27:22+0000","like_count":1,"user_likes":false},"848661488483863":{"id":"848661488483863","from":{"id":"824089766","name":"Le Dai"},"message":"Lúc ở VN là em đã được phát vé đầy đủ rồi, gồm 2 vé 1 cái là VN - HQ 1 cái là HQ - NB nên ko cần đến đấy mua vé khác đâu.","can_remove":false,"created_time":"2014-04-10T02:27:28+0000","like_count":1,"user_likes":false},"848661931817152":{"id":"848661931817152","from":{"id":"100007745042001","name":"Thu Nguyen"},"message":"vâng. e cảm ơn mọi người ạ. tức là xuống sân bay HQ rồi tìm theo cái vé còn lại hoặc hỏi là được ak","can_remove":false,"created_time":"2014-04-10T02:29:09+0000","like_count":1,"user_likes":false},"848662041817141":{"id":"848662041817141","from":{"id":"100007745042001","name":"Thu Nguyen"},"message":"còn hành lí, xuống máy bay mình lấy ở đâu ak","can_remove":false,"created_time":"2014-04-10T02:29:44+0000","like_count":0,"user_likes":false},"848663125150366":{"id":"848663125150366","from":{"id":"100003894790209","name":"Linh Phạm"},"message":"Hành lý n tự chuyển cho b nhé đến nhật thỳ b mới lấy thôi","can_remove":false,"created_time":"2014-04-10T02:34:14+0000","like_count":1,"user_likes":false},"848663815150297":{"id":"848663815150297","from":{"id":"100007745042001","name":"Thu Nguyen"},"message":"cảm ơn bạn ạ","can_remove":false,"created_time":"2014-04-10T02:36:04+0000","like_count":1,"user_likes":false},"848664161816929":{"id":"848664161816929","from":{"id":"100000154183383","name":"Nguyễn Quang Minh"},"message":"bạn hỏi nhân viên cảng hàng k ấy ^^ nhưng mà chắc fai xài tiếng anhh rùi :v","can_remove":false,"created_time":"2014-04-10T02:37:00+0000","like_count":1,"user_likes":false},"848666598483352":{"id":"848666598483352","from":{"id":"100003291701878","name":"Bui Anhdat"},"message":"Trước khj bạn lên máy bay ở việt nam bạn sẽ đk phát 2 vé \nVà đk dặn dò kĩ lưỡng rồi \nNếu trường hợp không biết tiếng anh bạn hãy nhìn vào cuống vé\nỞ đó có ghi cho bạn chuyến bay nào\nCổng soát vé số mấy\nGiờ bay\nSau khj sang đến hàn quốc bạn sẽ phải đợi vài tiếng để đi chuyến tiếp theo\nKhj vào kiểm tra an ninh xong thì bạn đi ra chổ bảng điện tử có ghi những chuyến bay hôm đó chỉ cẩn nhìn theo cột hàng dọc thấy chổ nào ghi là nigata hay sân vay bạn đáp trên cuống vé và đằng sau nó là japan rồi nhìn số cổng ra và tự tìm thôi \nTrường hợp cuối cùng bạn có thể đến 受付 và đem vé ra i do not know english please help thì ngta dẫn đi or nhờ chú gác vé or nhân viên đứng cạnh tàu điện ngầm và hỏi nhé chúc bạn may mắn","can_remove":false,"created_time":"2014-04-10T02:43:49+0000","like_count":0,"user_likes":false},"848667838483228":{"id":"848667838483228","from":{"id":"100006003193699","name":"Quynhchau Ha"},"message":"ko","can_remove":false,"created_time":"2014-04-10T02:48:22+0000","like_count":0,"user_likes":false},"848668155149863":{"id":"848668155149863","from":{"id":"100007745042001","name":"Thu Nguyen"},"message":"cảm on ban ak","can_remove":false,"created_time":"2014-04-10T02:49:30+0000","like_count":0,"user_likes":false},"848671735149505":{"id":"848671735149505","from":{"id":"100005605381050","name":"Huyền Hunnie"},"message":"Bạn cko mình hỏj là khj bay sang Nhật tkì phảj 2 chuyến à","can_remove":false,"created_time":"2014-04-10T02:59:57+0000","like_count":0,"user_likes":false},"848672138482798":{"id":"848672138482798","from":{"id":"100000154183383","name":"Nguyễn Quang Minh"},"message":"ủa mà mình thấy có chuyển bay thẳng, sao fai bay xiên vậy ạ ^^ tư vấn giúp e","can_remove":false,"created_time":"2014-04-10T03:01:20+0000","like_count":0,"user_likes":false},"848672148482797":{"id":"848672148482797","from":{"id":"100006003193699","name":"Quynhchau Ha"},"message":"ko","can_remove":false,"created_time":"2014-04-10T03:01:24+0000","like_count":0,"user_likes":false},"848672185149460":{"id":"848672185149460","from":{"id":"100006003193699","name":"Quynhchau Ha"},"message":"tuy theo dot","can_remove":false,"created_time":"2014-04-10T03:01:32+0000","like_count":0,"user_likes":false},"848672278482784":{"id":"848672278482784","from":{"id":"100006003193699","name":"Quynhchau Ha"},"message":"co dot bay thẳng co dot bay quá cảnh","can_remove":false,"created_time":"2014-04-10T03:01:54+0000","like_count":0,"user_likes":false},"848675488482463":{"id":"848675488482463","from":{"id":"100005579135439","name":"Trai Nghèo Bắc Giang"},"message":"Don gian lam","can_remove":false,"created_time":"2014-04-10T03:11:03+0000","like_count":0,"user_likes":false},"848675735149105":{"id":"848675735149105","from":{"id":"100005579135439","name":"Trai Nghèo Bắc Giang"},"message":"Neu co j thi dua cai ve may bay di tu han den nhat cho ngui bao ve ngui ta chi cho e ak","can_remove":false,"created_time":"2014-04-10T03:11:55+0000","like_count":0,"user_likes":false},"848675898482422":{"id":"848675898482422","from":{"id":"100006051303660","name":"Chung Tình Là Ngôc"},"message":"thu nguyen .mjn cung sap bay sang nhat.va cung pai qua canh sang han quoc.nhung cung o bjet the nao","can_remove":false,"created_time":"2014-04-10T03:12:22+0000","like_count":1,"user_likes":false},"848676321815713":{"id":"848676321815713","from":{"id":"100005579135439","name":"Trai Nghèo Bắc Giang"},"message":"Cu yen tam an ngu khoe di zui khac sang dc ! Khg lac dau ma pai no nhe","can_remove":false,"created_time":"2014-04-10T03:13:22+0000","like_count":1,"user_likes":false},"848677931815552":{"id":"848677931815552","from":{"id":"100004698966337","name":"Thảo Lee"},"message":"quá cảnh thía nì m có đc đi lung tung trong vòng mấy tiếng ngồi đợi đó hem ạ :D","can_remove":false,"created_time":"2014-04-10T03:19:35+0000","like_count":0,"user_likes":false},"848678768482135":{"id":"848678768482135","from":{"id":"824089766","name":"Le Dai"},"message":"Đi lòng vòng thoải mái em ơi, sân bay cũng khá là lớn :D","can_remove":false,"created_time":"2014-04-10T03:22:53+0000","like_count":1,"user_likes":false},"848694565147222":{"id":"848694565147222","from":{"id":"100007917634982","name":"Cry Cry"},"message":"Vì bạn đi theo trung tâm. Họ thường chọn bay quá cảnh và bay đêm để tiết kiệm chi phí vé. Trong khi cty tiếp nhận luôn trả cho trung tâm tiền vé :)) Bọn nó ăn tham mà","can_remove":false,"created_time":"2014-04-10T04:12:08+0000","like_count":0,"user_likes":false},"848694588480553":{"id":"848694588480553","from":{"id":"100007917634982","name":"Cry Cry"},"message":"Bạn sang inchon phải k?","can_remove":false,"created_time":"2014-04-10T04:12:17+0000","like_count":1,"user_likes":false},"848697315146947":{"id":"848697315146947","from":{"id":"100007055220627","name":"Khoảnh Khắc"},"message":"Học trường nào vậy e???","can_remove":false,"created_time":"2014-04-10T04:22:07+0000","like_count":0,"user_likes":false},"848737575142921":{"id":"848737575142921","from":{"id":"100001156666759","name":"Kenshuu Steam"},"message":"mày bị câm sao mà không biết kiếm ngừoi của sân bay mà hỏi","can_remove":false,"created_time":"2014-04-10T07:02:42+0000","like_count":0,"user_likes":false},"848739731809372":{"id":"848739731809372","from":{"id":"824089766","name":"Le Dai"},"message":"Kenshuu Steam: Trông thế mà hóa ra loại vô học.","can_remove":false,"created_time":"2014-04-10T07:11:45+0000","like_count":1,"user_likes":false},"848740358475976":{"id":"848740358475976","from":{"id":"100001156666759","name":"Kenshuu Steam"},"message":"Mày lại chém gió, Mày gặp tao rồi ah Le Dai","message_tags":[{"id":"824089766","name":"Le Dai","type":"user","offset":37,"length":6}],"can_remove":false,"created_time":"2014-04-10T07:14:18+0000","like_count":0,"user_likes":false},"848741081809237":{"id":"848741081809237","from":{"id":"824089766","name":"Le Dai"},"message":"Đọc phát ngôn là hiểu, cần gì gặp (Và cũng ko muốn gặp).","can_remove":false,"created_time":"2014-04-10T07:17:52+0000","like_count":1,"user_likes":false},"848741255142553":{"id":"848741255142553","from":{"id":"100004544826841","name":"ToNy Nhat"},"message":"Học tập và làm việc ở Nhật mà ko học tính tốt, đi học tính cách phát xít","can_remove":false,"created_time":"2014-04-10T07:18:53+0000","like_count":0,"user_likes":false},"848741281809217":{"id":"848741281809217","from":{"id":"100001156666759","name":"Kenshuu Steam"},"message":"Thế thì chú mày bớt chém gió đi. anh hùng bàn phím vừa thôi chú em ah.","can_remove":false,"created_time":"2014-04-10T07:19:02+0000","like_count":0,"user_likes":false},"848742985142380":{"id":"848742985142380","from":{"id":"100007745042001","name":"Thu Nguyen"},"message":"Ban gi oi. Cung biet de hoi. Nhung minh hoi kinh nghiem di truoc de khong bo ngo va chu dong trong tinh huong day la sai a","can_remove":false,"created_time":"2014-04-10T07:26:16+0000","like_count":0,"user_likes":false},"848743158475696":{"id":"848743158475696","from":{"id":"100007745042001","name":"Thu Nguyen"},"message":"Kenshuu ban hoi qua loi roi a","can_remove":false,"created_time":"2014-04-10T07:27:02+0000","like_count":0,"user_likes":false},"848743261809019":{"id":"848743261809019","from":{"id":"100007086630996","name":"Công Xa Cơ"},"message":"Các bạn đi vùng niigata ah.bao giờ các bạn bay vậy.mình 15 này cũng bay niigata.","can_remove":false,"created_time":"2014-04-10T07:27:28+0000","like_count":0,"user_likes":false},"848743431809002":{"id":"848743431809002","from":{"id":"100001156666759","name":"Kenshuu Steam"},"message":"éo sai nhưng hỏi trên đây thì ai mà chỉ dẫn được. đến đấy rồi kiếm ngừoi của sân bay hỏi chứ. ở đây đầy người mà. Nếu chỉ dẫn ở trên đây thì \"  ở inchon thì xuống máy bay quẹo trái đi bộ tầm gần 2km là tới\" còn chỗ khác thì tịt...","can_remove":false,"created_time":"2014-04-10T07:28:06+0000","like_count":0,"user_likes":false},"848744005142278":{"id":"848744005142278","from":{"id":"100007745042001","name":"Thu Nguyen"},"message":"T di vung kobe. Truong arist a","can_remove":false,"created_time":"2014-04-10T07:29:02+0000","like_count":0,"user_likes":false},"848744021808943":{"id":"848744021808943","from":{"id":"100001156666759","name":"Kenshuu Steam"},"message":"Lố éo đâu tại nói hơi khó lọt tai tí thôi, mà đôi khi tưng tửng thế cho thật lòng chứ đéo muốn tỏ ra lịch sự rồi đâm sau lưg thằng khác","can_remove":false,"created_time":"2014-04-10T07:29:07+0000","like_count":0,"user_likes":false},"848744155142263":{"id":"848744155142263","from":{"id":"100004544826841","name":"ToNy Nhat"},"message":"ストープ","can_remove":false,"created_time":"2014-04-10T07:29:42+0000","like_count":0,"user_likes":false},"848744445142234":{"id":"848744445142234","from":{"id":"100007745042001","name":"Thu Nguyen"},"message":"Cam on b da chi dan. Minh hoi truoc de khoi bo ngo thoi","can_remove":false,"created_time":"2014-04-10T07:30:38+0000","like_count":0,"user_likes":false},"848745121808833":{"id":"848745121808833","from":{"id":"100001156666759","name":"Kenshuu Steam"},"message":"hỏi trên đây bạn không thể hình dung ra cái sân bay nó thế nào nên đến lúc đấy cũng không có tạc dụng gì cả. Nói thật trên kia tôi nói hơi khó lọt tai chứ ở sân bay có rất nhiều nhân viên của sân bay hoặc nhân viên an ninh, chìa cho nó xem cái vé và xổ 1 câu \" I Want to go to JP\" là nó chỉ cho là chuẩn nhất.","can_remove":false,"created_time":"2014-04-10T07:33:25+0000","like_count":0,"user_likes":false},"848745761808769":{"id":"848745761808769","from":{"id":"100007745042001","name":"Thu Nguyen"},"message":"Reshuu. Minh hieu roi. Tim nhan vien dua ve la ho se giup minh ah. Gia dinh minh lo lang nen minh muon tim hieu de giai thich cho m.n yen tam. Cam on ban rat nhieu","can_remove":false,"created_time":"2014-04-10T07:35:48+0000","like_count":0,"user_likes":false},"848745941808751":{"id":"848745941808751","from":{"id":"824089766","name":"Le Dai"},"message":"Kenshuu Steam: Nếu với bạn bè thân thiết của bạn thì bạn nói kiểu gì cũng được, nhưng đây là nơi công cộng thì bạn nên nói có văn hóa, chủ thớt có quen biết gì bạn đâu mà bạn nói bỗ bã như vậy.","can_remove":false,"created_time":"2014-04-10T07:36:12+0000","like_count":2,"user_likes":false},"848761595140519":{"id":"848761595140519","from":{"id":"100007745042001","name":"Thu Nguyen"},"message":"Da. Xin cam on m.n nhe. Minh hieu roi ah.","can_remove":false,"created_time":"2014-04-10T07:39:13+0000","like_count":0,"user_likes":false},"848761895140489":{"id":"848761895140489","from":{"id":"100001156666759","name":"Kenshuu Steam"},"message":"Le Dai: cái đó tùy quan điểm mỗi người chứ, đồng chí không thể áp đặt cái suy nghĩ của đồng chí vào của mình nhé. nhưng công nhận là cũng hơi bỗ thật.","can_remove":false,"created_time":"2014-04-10T07:40:12+0000","like_count":1,"user_likes":false},"848762081807137":{"id":"848762081807137","from":{"id":"100001156666759","name":"Kenshuu Steam"},"message":"Mà đồng chí có chắc là chủ thớt không quen biết tui không?","can_remove":false,"created_time":"2014-04-10T07:40:50+0000","like_count":0,"user_likes":false},"848769958473016":{"id":"848769958473016","from":{"id":"824089766","name":"Le Dai"},"message":"Mọi người chả ai biết bạn với chủ thớt quen nhau hay không nên chính vì vậy cách nói chuyện của bạn mới khó nghe. Mình chả áp đặt, chỉ bày tỏ quan điểm cá nhân vậy thôi, nghe hay ko thì tùy ở bạn.","can_remove":false,"created_time":"2014-04-10T07:45:16+0000","like_count":0,"user_likes":false},"848770211806324":{"id":"848770211806324","from":{"id":"824089766","name":"Le Dai"},"message":"Mà kể cả có quen biết đi chăng nữa, nói bỗ bã giữa chốn công cộng là hoàn toàn ko có văn minh chút nào.","can_remove":false,"created_time":"2014-04-10T07:45:54+0000","like_count":0,"user_likes":false},"848770858472926":{"id":"848770858472926","from":{"id":"100001156666759","name":"Kenshuu Steam"},"message":"NÓi gì thì nói lần sau rút kinh nghiệm, nhưng câu đồng chí chửi mình là hơi vội vàng đấy.","can_remove":false,"created_time":"2014-04-10T07:48:02+0000","like_count":1,"user_likes":false},"848772131806132":{"id":"848772131806132","from":{"id":"824089766","name":"Le Dai"},"message":"OK nếu bạn đã biết rút kinh nghiệm thì xem ra ấn tượng ban đầu của mình có vẻ ko chính xác. Xin lỗi nhé.","can_remove":false,"created_time":"2014-04-10T07:52:17+0000","like_count":2,"user_likes":false},"848794761803869":{"id":"848794761803869","from":{"id":"100002762270141","name":"Mien Nguyen"},"message":"đi quá cảnh qua inchion thì khi làm thủ tục ở Việt Nam bạn sẽ đuợc đưa 2chiếc vé.1 dùng khi lên máy bay ở Việt nam.còn 1 bạn giữ để đi từ inchion khi lên máy bay.hành lý gửi thẳng.trên máy bay tiếp viên sẽ hỏi bạn bay quá cảnh hay là sang hàn quốc.tl là quá cảnh  thì tviên ko phát cho tờ khai gì đó.xuống sân bay bạn đi thẳng (hoặc đi theo nguời Nhật )đến cửa ghi transit.vào đó xếp hàng kiểm tra đồ xách tay xong.tìm cửa lên chuyến bay tiếp.ngồi chờ.có thể ngủ hoặc dùng mạng thoải mái .wifi miễn phí.chưa đi ai cũng lo .mình cũng vậy.nhưng bạn yên tâm ko khó đâu.nếu lạc cứ hỏi nhân viên sân bay là dc.chúc bạn may mắn","can_remove":false,"created_time":"2014-04-10T09:11:11+0000","like_count":0,"user_likes":false},"848796031803742":{"id":"848796031803742","from":{"id":"100007745042001","name":"Thu Nguyen"},"message":"Uhm. Minh cam on ban nhieu nhe","can_remove":false,"created_time":"2014-04-10T09:16:00+0000","like_count":0,"user_likes":false},"848797061803639":{"id":"848797061803639","from":{"id":"100001526631937","name":"Tường Oanh Mineko"},"message":"@:Thu Nguyen : sao đề tài post viết dấu đầy đủ mà càng về sau các comment thì lại cụt dấu hết đi vậy?","can_remove":false,"created_time":"2014-04-10T09:20:56+0000","like_count":0,"user_likes":false},"848797441803601":{"id":"848797441803601","from":{"id":"100007745042001","name":"Thu Nguyen"},"message":"Xin loi ban a. Minh dung may tinh. Gio comment bang dien thoai. Nen khong the viet dau a. Hic thanh that xin loi.","can_remove":false,"created_time":"2014-04-10T09:22:27+0000","like_count":0,"user_likes":false}},"paging":{"cursors":{"after":"ODQ4NjU3ODk4NDg0MjIy","before":"ODQ4NjU3ODk4NDg0MjIy"},"next":"https://graph.facebook.com/229244010425617_848656798484332/comments?limit=1&summary=1&after=ODQ4NjU3ODk4NDg0MjIy"},"summary":{"order":"chronological","total_count":61}}}