{"id":"229244010425617_848723148477697","type":"status","from":{"id":"100004423956239","name":"Thom Nguyen"},"message":"Anh chị và các bạn giải thích giúp em cách dùng hình dung động từ và hình dung từ với ạ. Ví dụ trong câu: Hoa anh đào là hoa đẹp. Và câu Cái này là cái cặp lớn. Em thắc mắc là tại sao cùng bổ nghĩa cho danh từ. Nhưng câu thứ nhất có thêm な vào sau きれい. Trong khi câu thứ 2 lại không thêm な vào sau 大きい ạ. Em cảm ơn!","created_time":"2014-04-10T06:07:12+0000","updated_time":"2014-04-10T21:26:59+0000","likes":{"data":{"100002897935717":{"id":"100002897935717","name":"Hanaluhi R Inusato"},"100000271705877":{"id":"100000271705877","name":"Nguyễn Văn Minh"},"100004320702266":{"id":"100004320702266","name":"Ennight Kun"},"100002959135962":{"id":"100002959135962","name":"Duong Nguyen Van"},"1453400118":{"id":"1453400118","name":"Ngan Nguyen"},"100003069246142":{"id":"100003069246142","name":"Hồng Trịnh"},"100006464757230":{"id":"100006464757230","name":"Cậu Ấm TựLập"}},"paging":{"cursors":{"after":"MTAwMDAyODk3OTM1NzE3","before":"MTAwMDAyODk3OTM1NzE3"},"next":"https://graph.facebook.com/229244010425617_848723148477697/likes?limit=1&summary=1&after=MTAwMDAyODk3OTM1NzE3"},"summary":{"total_count":7}},"comments":{"data":{"848724515144227":{"id":"848724515144227","from":{"id":"569263718","name":"Phuong Thao Tran"},"message":"viết câu tiếng Nhật ra đi bạn","can_remove":false,"created_time":"2014-04-10T06:12:21+0000","like_count":0,"user_likes":false},"848724908477521":{"id":"848724908477521","from":{"id":"100003506953061","name":"Ennino Trần"},"message":"có tao mà m khinh ko thèm hỏi hả? ghét chưa. có 2 loại tính từ, 大きい là tính từ đuôi i, kirei là tính từ đuôi na, bình thường tính từ đuôi na là bỏ na. trong 1 số cấu trúc thì phải có na. câu này là như thế. mà m chuyển giáo trình đi, nói hình dung động từ chẳng ai hiểu đâu. t cũng ko hiểu m đang nói đến cái gì.","can_remove":false,"created_time":"2014-04-10T06:13:06+0000","like_count":2,"user_likes":false},"848725278477484":{"id":"848725278477484","from":{"id":"100001416272263","name":"Mai PB"},"message":"Thân mật mày tao ở trước 30 nghìn người là không nên. :-)","can_remove":false,"created_time":"2014-04-10T06:15:17+0000","like_count":1,"user_likes":false},"848725965144082":{"id":"848725965144082","from":{"id":"100003506953061","name":"Ennino Trần"},"message":"ây gu, hì. tớ xin lỗi b Thom Nguyen ( Thơm thúi) nhé","message_tags":[{"id":"100004423956239","name":"Thom Nguyen","type":"user","offset":24,"length":11}],"can_remove":false,"created_time":"2014-04-10T06:17:48+0000","like_count":0,"user_likes":false},"848729148477097":{"id":"848729148477097","from":{"id":"100004423956239","name":"Thom Nguyen"},"message":"Em thấy cả 2 cùng kết thúc là い mà không cùng thuộc nhóm tính từ đuôi い ạ. A C giúp em phân biệt đâu là tính từ đuôi い và đâu là đuôi な với\nEnnino : nt nhé","can_remove":false,"created_time":"2014-04-10T06:29:00+0000","like_count":0,"user_likes":false},"848730648476947":{"id":"848730648476947","from":{"id":"100000455388210","name":"Đức Trung Nguyễn"},"message":"Tuỳ vào cấu trúc mà ôkii cung là tính từ đuôi na, đứng trc danh từ thì thêm na sau thì bỏ, vd: ookii na kaban. Kono kaban ookii :3","can_remove":false,"created_time":"2014-04-10T06:37:06+0000","like_count":0,"user_likes":false},"848731078476904":{"id":"848731078476904","from":{"id":"100001416272263","name":"Mai PB"},"message":"Không phải là 大きいな mà là 大きな, Đức Trung Nguyễn","message_tags":[{"id":"100000455388210","name":"Đức Trung Nguyễn","type":"user","offset":30,"length":16}],"can_remove":false,"created_time":"2014-04-10T06:38:43+0000","like_count":2,"user_likes":false},"848731375143541":{"id":"848731375143541","from":{"id":"100000455388210","name":"Đức Trung Nguyễn"},"message":"Arigatou ^^","can_remove":false,"created_time":"2014-04-10T06:39:54+0000","like_count":0,"user_likes":false},"848731868476825":{"id":"848731868476825","from":{"id":"100003398911005","name":"Họ Tạ Tên Nam"},"message":"học xong bài 8 là hiểu","can_remove":false,"created_time":"2014-04-10T06:41:04+0000","like_count":1,"user_likes":false},"848731995143479":{"id":"848731995143479","from":{"id":"100005804586628","name":"Huyền Phạm"},"message":"Sakura wa kirei na hana de su. Kirei là tính từ đuôi na. Tính từ đặc biệt. Có きれい な、ゆうめいな、きらいな,........ Còn 大きいlà tính từ đuôi i. Thường thương khi 1 tính từ đi kèm vs danh từ để tạo thành cum danh từ thì ta phải giữ nguyên đuôi của chúng giống như きれいなはな、大きいかばん..... Mình nghĩ vậy đó. Sai thì bổ xung nhé","can_remove":false,"created_time":"2014-04-10T06:41:27+0000","like_count":3,"user_likes":false},"848739151809430":{"id":"848739151809430","from":{"id":"100003069246142","name":"Hồng Trịnh"},"message":"Vậy thì bạn nên tìm hiểu những trường hợp đặc biệt của những tính từ な nhưng kết thúc là い đi. Trên mạng sẽ liệt kê ra. 大きい và 小さい vừa là tính từ い vừa là tt な.","can_remove":false,"created_time":"2014-04-10T07:09:03+0000","like_count":1,"user_likes":false},"848790241804321":{"id":"848790241804321","from":{"id":"100007917634982","name":"Cry Cry"},"message":"Bài 8 học tính từ thì phải. Có cấu trúc đi kèm mà bạn. Tính tư đuôi な bổ nghĩa cho Danh từ thì thêm な ấy. Còn đuôi い thì そのまま :))","can_remove":false,"created_time":"2014-04-10T08:53:46+0000","like_count":2,"user_likes":false},"848864118463600":{"id":"848864118463600","from":{"id":"100002334361243","name":"Ông Cu Non"},"message":"Cry cry : i like you","can_remove":false,"created_time":"2014-04-10T12:31:58+0000","like_count":0,"user_likes":false},"848865275130151":{"id":"848865275130151","from":{"id":"100007917634982","name":"Cry Cry"},"message":"できる❓","can_remove":false,"created_time":"2014-04-10T12:35:42+0000","like_count":0,"user_likes":false},"848865578463454":{"id":"848865578463454","from":{"id":"100002334361243","name":"Ông Cu Non"},"message":"できるかも.....","can_remove":false,"created_time":"2014-04-10T12:36:27+0000","like_count":0,"user_likes":false},"848872158462796":{"id":"848872158462796","from":{"id":"100000271705877","name":"Nguyễn Văn Minh"},"message":"Câu hỏi hay cho các bạn mới học tiếng Nhật nhỉ, theo mình cách hình dung đâu là tính từ đuôi na, đâu là đuôi i ( để dịch ra nghĩa tiếng Việt ) thì khó, thay vì đó bạn mới học thì học thuộc từ mới hơn, tính từ đuôi na khi tra từ điển cũng bỏ na, nhưng ghép với danh từ để bỗ nghĩa và một số trường hợp thì vẫn cần. Cách nhớ đơn giản là bạn loại trừ cái nào kết thúc bằng i thì thường là tính từ đuôi i, còn lại là đuôi na, ví dụ :ちさい、おおきい、あまい、からい。。。 trừ một số trường hợp như きれい kết thúc bằng i nhưng là đuôi na. Ngoài ra thì những tính từ mà phiên âm từ tiếng nc ngoài ( viết bằng katakana ) hoặc những tính từ ghép từ 2 âm hán khác nhau cũng là đuôi na, ví dụ ハサムな、危険な（きけん）。。。 Quan trọng nhất là đừng dựa vào nghĩa mà đoán nó là được :)","can_remove":false,"created_time":"2014-04-10T12:48:46+0000","like_count":1,"user_likes":false},"848881941795151":{"id":"848881941795151","from":{"id":"100004423956239","name":"Thom Nguyen"},"message":"Em cảm ơn tất cả A C ạ. E hiểu rồi. Tại em tự mò học nên đọc đến bài này thì không hiểu. Càng ngày càng khó. Search mạng thì họ giải thích cũng khó hiểu. Em cảm ơn A C nhiều!","can_remove":false,"created_time":"2014-04-10T13:13:09+0000","like_count":0,"user_likes":false},"849124841770861":{"id":"849124841770861","from":{"id":"100006003193699","name":"Quynhchau Ha"},"message":"きれい là tính từ đuôi な","can_remove":false,"created_time":"2014-04-10T21:26:02+0000","like_count":1,"user_likes":false},"849125191770826":{"id":"849125191770826","from":{"id":"100006003193699","name":"Quynhchau Ha"},"message":"大きい là tính từ đuôi i","can_remove":false,"created_time":"2014-04-10T21:26:59+0000","like_count":0,"user_likes":false}},"paging":{"cursors":{"after":"ODQ4NzI0NTE1MTQ0MjI3","before":"ODQ4NzI0NTE1MTQ0MjI3"},"next":"https://graph.facebook.com/229244010425617_848723148477697/comments?limit=1&summary=1&after=ODQ4NzI0NTE1MTQ0MjI3"},"summary":{"order":"chronological","total_count":19}}}