{"id":"229244010425617_848716875144991","type":"link","picture":"https://fbexternal-a.akamaihd.net/safe_image.php?d=AQD8RT2wSRoOpcTq&w=154&h=154&url=https%3A%2F%2Fssl.gstatic.com%2Fdocs%2Fforms%2Fsocial%2Fsocial-forms.png","link":"https://docs.google.com/forms/d/1KixZtz-flMlN0PU6hQsPW535sfylb6hmkQCXr-xKvm4/viewform","from":{"id":"100001621458915","name":"Cao Cường"},"message":"Xin phép các add cho phép đăng bản điều tra thông tin dưới đây.\nHy vọng các mem cùng giành chút thời gian hợp tác.\n\n* Để đưa ra được những đánh giá nhận xét tổng quan về chất lượng, chí phí... của các công ty phái cử tu nghiệp sinh Việt Nam sang Nhật. \n\n* Với mục đích xây dựng danh sách so sánh khái quát giúp cho các bạn đang có ý định đi sang nhật theo dạng thực tập sinh, kỹ sư... có thêm những thông tin hữu ích và có những lựa chọn hợp lý.\n\n* Rất mong các bạn tu nghiệp sinh, kỹ sư... đang chuẩn bị sang Nhật, đang làm việc tại Nhật, đã về nước cùng giành chút thời gian để hợp tác hoàn thành bản điều tra dưới đây.\n\nChú ý: \n- Bản điều tra này vì mục đích cộng đồng, và sẽ được tuyên bố công khai trên page https://www.facebook.com/tunghiepsinhvietnam sau một thời gian và thu thập được nhiều dữ liệu.\n- Bản điều tra này không vì mục đích cá nhân, nhằm chuộc lợi cho cá nhân hay công ty nào đó. Đặc biệt là các công ty phái cử hay công ty du học...\n\nRất mong nhận được nhiều sự hợp tác. Xin cảm ơn!\n\nhttps://docs.google.com/forms/d/1KixZtz-flMlN0PU6hQsPW535sfylb6hmkQCXr-xKvm4/viewform","created_time":"2014-04-10T05:35:22+0000","updated_time":"2014-04-10T14:48:03+0000","likes":{"data":{"100004299969653":{"id":"100004299969653","name":"Tập Quên Tất Cả"},"1795482302":{"id":"1795482302","name":"Hùng Ngô"}},"paging":{"cursors":{"after":"MTAwMDA0Mjk5OTY5NjUz","before":"MTAwMDA0Mjk5OTY5NjUz"},"next":"https://graph.facebook.com/229244010425617_848716875144991/likes?limit=1&summary=1&after=MTAwMDA0Mjk5OTY5NjUz"},"summary":{"total_count":2}},"comments":{"data":{"848719405144738":{"id":"848719405144738","from":{"id":"1795482302","name":"Hùng Ngô"},"message":"(y)","can_remove":false,"created_time":"2014-04-10T05:45:55+0000","like_count":0,"user_likes":false},"848726285144050":{"id":"848726285144050","from":{"id":"100001621458915","name":"Cao Cường"},"message":"Hùng Ngô like gì thế nhể?","message_tags":[{"id":"1795482302","name":"Hùng Ngô","type":"user","offset":0,"length":8}],"can_remove":false,"created_time":"2014-04-10T06:19:01+0000","like_count":0,"user_likes":false},"848782935138385":{"id":"848782935138385","from":{"id":"100001441648308","name":"Ly Loan"},"message":"nếu được công khai thì 1 số công ty phải giật mình vì đã và đang hút hít với liều lượng cực mạnh số tiền của thực tập sinh, kỹ thuật viên sang nhật :D","can_remove":false,"created_time":"2014-04-10T08:28:14+0000","like_count":1,"user_likes":false},"848806115136067":{"id":"848806115136067","from":{"id":"100001621458915","name":"Cao Cường"},"message":"Thế thì fai làm để cho họ ko dam hút hít của mình nữa chứ:))","can_remove":false,"created_time":"2014-04-10T09:51:24+0000","like_count":0,"user_likes":false},"848876278462384":{"id":"848876278462384","from":{"id":"100001441648308","name":"Ly Loan"},"message":"cái này là họ làm ăn mà, có thanh tra cũng chả ăn thua hiu hiu","can_remove":false,"created_time":"2014-04-10T12:59:11+0000","like_count":0,"user_likes":false},"848879528462059":{"id":"848879528462059","from":{"id":"100000603915176","name":"悪いな ぁ"},"message":"Nếu bản điều tra này vì mục đích kg rõ ràng hoặc mang tính chất cá nhân công ty bạn thì chắc mọi người kg mất thời gian làm đâu. Hoặc ít ra kết quả cũng có mức công khai, đem lại một cái nhìn nào đó cho người đánh giá thì họ mới làm. Nếu không nhầm thì bạn đang đi thu thập thông tin người sắp muốn đi thì đúng hơn!","can_remove":false,"created_time":"2014-04-10T13:07:15+0000","like_count":0,"user_likes":false},"848889825127696":{"id":"848889825127696","from":{"id":"100001621458915","name":"Cao Cường"},"message":"悪いな ぁ Mình làm cái này vì muốn đưa ra những thông tin hữu ích cho các bạn đang có ý định đi TTS sang Nhật, để các bạn có thể dựa vào đó mà lựa chọn công ty cho phù hợp để đỡ mất nhiều tiền oan.\nVà tất nhiên khi có dữ liệu mình sẽ update thông tin này công khai vì mục đích như mình đã nói.\nKhông biết bạn dựa vào đâu để phán đoán mình làm vì mục đích cá nhân, để săn lùng ng muốn đi....:))\nNói thật. Mình đang sống và làm việc trên đất nhật cho 1 công ty Nhật và tất nhiên không phải công ty phái cử hay du học gì cả :))","can_remove":false,"created_time":"2014-04-10T13:23:23+0000","like_count":0,"user_likes":false},"848890408460971":{"id":"848890408460971","from":{"id":"100001621458915","name":"Cao Cường"},"message":"Nếu bạn có ý kiến or thắc mắc có thể coment or inbox trực tiếp. Hoặc qua page https://www.facebook.com/tunghiepsinhvietnam bạn sẽ biết thêm thông tin :))","can_remove":false,"created_time":"2014-04-10T13:25:07+0000","like_count":0,"user_likes":false},"848892021794143":{"id":"848892021794143","from":{"id":"1795482302","name":"Hùng Ngô"},"message":"Anh thấy ý tưởng cũng táo bạo thì like thôi :)","can_remove":false,"created_time":"2014-04-10T13:28:14+0000","like_count":1,"user_likes":false},"848896651793680":{"id":"848896651793680","from":{"id":"100000603915176","name":"悪いな ぁ"},"message":"Bài post ở đây thì thắc mắc ở đây, sao phải vào đâu ;)","can_remove":false,"created_time":"2014-04-10T13:34:35+0000","like_count":0,"user_likes":false},"848897721793573":{"id":"848897721793573","from":{"id":"100001621458915","name":"Cao Cường"},"message":"tưởng giề :))","can_remove":false,"created_time":"2014-04-10T13:37:14+0000","like_count":0,"user_likes":false},"848898978460114":{"id":"848898978460114","from":{"id":"100001441648308","name":"Ly Loan"},"message":"tớ sẽ gom góp vào cho bạn tầm 20 cty  trong tổng số gần 200cty đc cấp phép đưa ng sang nhật lao động, có những cty tốt, tốt ở đây là k có cò mồi, mức phí đặt cọc k vượt trần quy định, còn chủ yếu là vơ rất vét. dưng mà từ từ đã :)))","can_remove":false,"created_time":"2014-04-10T13:39:25+0000","like_count":1,"user_likes":false},"848900565126622":{"id":"848900565126622","from":{"id":"100001621458915","name":"Cao Cường"},"message":"Thanks Ly Loan. Rất hy vọng nhận được đóng góp đúng thực tế. đặc biệt là từ những bạn thực tập sinh đã trải qua thực tế. Chứ dựa trên các con số mà không phai do chính các bạn TTS đưa ra nhờ thực tế mình đã trải qua. Thì mình cũng có được tầm hơn 200 cty. bao gồm cả công ty đang bị cụ đình chỉ giấy phép.... :))","can_remove":false,"created_time":"2014-04-10T13:42:51+0000","like_count":0,"user_likes":false},"848902305126448":{"id":"848902305126448","from":{"id":"100000603915176","name":"悪いな ぁ"},"message":"Mục đích thì có ghi, nhưng kg ghi công bố từ đâu, công bố ở đâu, ngày giờ kết thúc. Như vậy mà rõ ràng sao? Thêm nữa, thăm dò mang tính chất cá nhân, kg khỏi kém khách quan. Chất lượng thăm dò kg tốt như vậy, vô hình chung gây ảnh hưởng đến các công ty. Ví dụ, một công ty, nhưng một du học sinh uất ức gì đó nhưng lỗi là của cậu ta, nhưng cậu ta cố tình vào nói xấu, ảnh hưởng kg? Chưa kể các công ty khác nhảy vào bôi xấu công ty cạnh tranh, công bằng không?","can_remove":false,"created_time":"2014-04-10T13:46:36+0000","like_count":1,"user_likes":false},"848918951791450":{"id":"848918951791450","from":{"id":"100001621458915","name":"Cao Cường"},"message":"Một phần câu hỏi của bạn thì hình như cũng có được nghi. \nbản điều tra nào cũng chỉ mang  tính khách quan. và bản điều tra này cũng vậy. kết quả của nó cũng chỉ mang tính chất tham khảo. Và tất nhiên ng làm ra bản điều tra sẽ phải và có cách để kiểm chứng nó để sao cho nó sát thực nhất. \nNếu ai cũng có cái suy nghĩ \"Ngắn cũn cỡn\"  theo kiểu; Ví dụ, một công ty, nhưng một du học sinh uất ức gì đó nhưng lỗi là của cậu ta, nhưng cậu ta cố tình vào nói xấu, ảnh hưởng kg? Chưa kể các công ty khác nhảy vào bôi xấu công ty cạnh tranh, công bằng không?\nThì dù là bản điều tra kiểu gì đi chăng nữa thì cũng có rất rất nhiều người trả lời theo kiểu SUY NGHĨ ngắn như 2 cái câu hỏi cuối của bạn.\nTất nhiên điều bạn lo lắng không phải không đúng và cũng ko phải ko có :))","can_remove":false,"created_time":"2014-04-10T14:23:24+0000","like_count":0,"user_likes":false},"848923118457700":{"id":"848923118457700","from":{"id":"100000603915176","name":"悪いな ぁ"},"message":"Thì khổ, nghĩ ngắn nên mới nghĩ ra đc cái vớ vẩn vậy. Còn nghĩ dài nên cái mình hỏi nó mới chỉ có đc một phần ngồi trên bài viết, kg biết vì chủ post cũng song hành nghĩ ngắn cùng hay tại chỉ thích ghi ngắn cho có ;)","can_remove":false,"created_time":"2014-04-10T14:32:10+0000","like_count":0,"user_likes":false},"848924681790877":{"id":"848924681790877","from":{"id":"100001621458915","name":"Cao Cường"},"message":"Ai làm gì thì cũng có suy nghĩ và ý định riêng. Đâu cần thiết phải nghĩ NGẮN như ng khác và làm theo ng khác :))","can_remove":false,"created_time":"2014-04-10T14:35:42+0000","like_count":0,"user_likes":false},"848925138457498":{"id":"848925138457498","from":{"id":"100000603915176","name":"悪いな ぁ"},"message":"Ừm, bởi vậy mới bị thằng nghĩ ngắn vào phá đám :)) yên tâm đi, kg ai làm bài này đâu ;)","can_remove":false,"created_time":"2014-04-10T14:36:36+0000","like_count":0,"user_likes":false},"848927355123943":{"id":"848927355123943","from":{"id":"100001621458915","name":"Cao Cường"},"message":"Cái này không ép buộc ai phải làm hay ai phải đọc. thích và quan tâm thì nhào zô thôi. và tất nhiên có nhiều ng xem rồi bỏ qua nhưng không phải ai cũng thế. Phá đám hay ko đây đâu cần phải quan tâm. :)) kệ thôi. Cũng chẳng ảnh hưởng gì đến bản thân :))","can_remove":false,"created_time":"2014-04-10T14:40:50+0000","like_count":0,"user_likes":false},"848927971790548":{"id":"848927971790548","from":{"id":"100001621458915","name":"Cao Cường"},"message":"Biết đâu có 1 số con người đang lo ngại. Có nhiều đáp án và kết quả được công bố thì mất đi 1 nguồn kiếm lời của cty hay bản thân mình :))","can_remove":false,"created_time":"2014-04-10T14:42:10+0000","like_count":0,"user_likes":false},"848928005123878":{"id":"848928005123878","from":{"id":"100000603915176","name":"悪いな ぁ"},"message":":))","can_remove":false,"created_time":"2014-04-10T14:42:15+0000","like_count":0,"user_likes":false},"848928518457160":{"id":"848928518457160","from":{"id":"100000603915176","name":"悪いな ぁ"},"message":"Chẳng biết ai lo đâu, có người đang lo viết bài thành công cốc :v","can_remove":false,"created_time":"2014-04-10T14:43:19+0000","like_count":0,"user_likes":false},"848928678457144":{"id":"848928678457144","from":{"id":"100001621458915","name":"Cao Cường"},"message":":))","can_remove":false,"created_time":"2014-04-10T14:43:35+0000","like_count":0,"user_likes":false},"848929075123771":{"id":"848929075123771","from":{"id":"100001621458915","name":"Cao Cường"},"message":"Ôi lo quá. Xin b 悪いな ぁ đừng spam bài của e, hay đừng tuyên truyền bậy bạ để mọi ng không giúp e hoàn thành :))","can_remove":false,"created_time":"2014-04-10T14:44:21+0000","like_count":0,"user_likes":false},"848935851789760":{"id":"848935851789760","from":{"id":"100000603915176","name":"悪いな ぁ"},"message":"Hớ hớ, ad ở đâu vào đây có người gọi kìa :v","can_remove":false,"created_time":"2014-04-10T14:48:03+0000","like_count":0,"user_likes":false}},"paging":{"cursors":{"after":"ODQ4NzE5NDA1MTQ0NzM4","before":"ODQ4NzE5NDA1MTQ0NzM4"},"next":"https://graph.facebook.com/229244010425617_848716875144991/comments?limit=1&summary=1&after=ODQ4NzE5NDA1MTQ0NzM4"},"summary":{"order":"chronological","total_count":25}}}