{"id":"229244010425617_848783038471708","type":"status","from":{"id":"100001416272263","name":"Mai PB"},"message":"Người Nhật rất hay viết tắt các từ ghép và thành ngữ dài. Các mem hãy thử đoán xem các từ sau nghĩa là gì, viết tắt của chữ gì.\nスマホ\nガラケー\n地デジ\n学割\n就活\nセクハラ\nメルアド\nメル友\n\nHôm nay là bài dễ nhất đấy.","created_time":"2014-04-10T08:28:39+0000","updated_time":"2014-04-10T10:39:28+0000","likes":{"data":{"100001134227322":{"id":"100001134227322","name":"Phan Thanh Thuy"},"738235689":{"id":"738235689","name":"Dang Thi Phuong"},"100001899326484":{"id":"100001899326484","name":"Nguyễn Thế Anh"},"100004923553810":{"id":"100004923553810","name":"Xuan KY Nguyen"},"100004094346107":{"id":"100004094346107","name":"Thuy Nga Nguyen"},"100002449514019":{"id":"100002449514019","name":"Lương Hoa"},"100001557981751":{"id":"100001557981751","name":"Hồ Ngọc Khanh"},"100004135781791":{"id":"100004135781791","name":"Vũ Thế Anh"},"1453400118":{"id":"1453400118","name":"Ngan Nguyen"},"100003828118579":{"id":"100003828118579","name":"Khanh Linh"},"100000154325668":{"id":"100000154325668","name":"Lam Buong Binh"},"100000309153854":{"id":"100000309153854","name":"Pham Thuong"},"100004394893221":{"id":"100004394893221","name":"NùnBẹt Vu"},"100005252979022":{"id":"100005252979022","name":"Anh Duy"},"100003075823746":{"id":"100003075823746","name":"Strong Cuong"},"100004452123869":{"id":"100004452123869","name":"Pham Tiên Bach"},"100006711245076":{"id":"100006711245076","name":"Thi Ly Le"},"100005495773832":{"id":"100005495773832","name":"Hiền Vũ"},"100001995633843":{"id":"100001995633843","name":"Yasunobu Toda"},"100000769990638":{"id":"100000769990638","name":"Nguyen Tuan"},"100001775719325":{"id":"100001775719325","name":"Nguyễn Ngọc Trang"},"100004490496995":{"id":"100004490496995","name":"Rai Chamu"},"100005775182411":{"id":"100005775182411","name":"Tuấn Milo"},"100003587314679":{"id":"100003587314679","name":"Why Die"},"100002580875569":{"id":"100002580875569","name":"Nguyen Xi"},"100001637318798":{"id":"100001637318798","name":"Kora Kora"},"100000325921206":{"id":"100000325921206","name":"Rain Bow"},"100003913383051":{"id":"100003913383051","name":"Tho Tran"},"100002976213828":{"id":"100002976213828","name":"Nana"},"1146680551":{"id":"1146680551","name":"優しい なぁ"},"100000826279369":{"id":"100000826279369","name":"Linh Vi"},"1816269439":{"id":"1816269439","name":"Dao Ngoc"},"100006614261300":{"id":"100006614261300","name":"Tao Cao Cường Đây"},"100001526631937":{"id":"100001526631937","name":"Tường Oanh Mineko"},"100003179905990":{"id":"100003179905990","name":"Trâm Yoko"},"100000500260636":{"id":"100000500260636","name":"Lưu Nguyễn Thảo Tiên"}},"paging":{"cursors":{"after":"MTAwMDAxMTM0MjI3MzIy","before":"MTAwMDAxMTM0MjI3MzIy"},"next":"https://graph.facebook.com/229244010425617_848783038471708/likes?limit=1&summary=1&after=MTAwMDAxMTM0MjI3MzIy"},"summary":{"total_count":36}},"comments":{"data":{"848784285138250":{"id":"848784285138250","from":{"id":"100004083892724","name":"Linh Linh"},"message":"watashi wa anatagasuki.....","can_remove":false,"created_time":"2014-04-10T08:33:09+0000","like_count":0,"user_likes":false},"848784711804874":{"id":"848784711804874","from":{"id":"1816269439","name":"Dao Ngoc"},"message":"Hay qua! Ui em cũng ko bít hết mấy từ trên. :3!","can_remove":false,"created_time":"2014-04-10T08:34:56+0000","like_count":0,"user_likes":false},"848784848471527":{"id":"848784848471527","from":{"id":"100001526631937","name":"Tường Oanh Mineko"},"message":"hóng ^_^","can_remove":false,"created_time":"2014-04-10T08:35:31+0000","like_count":0,"user_likes":false},"848784995138179":{"id":"848784995138179","from":{"id":"100001416272263","name":"Mai PB"},"message":"Biết từ nào viết từ ấy ra thôi.","can_remove":false,"created_time":"2014-04-10T08:36:11+0000","like_count":0,"user_likes":false},"848785001804845":{"id":"848785001804845","from":{"id":"1816269439","name":"Dao Ngoc"},"message":"Anh Mai oánh dấu các từ cho dễ comment đc không ạ?","can_remove":false,"created_time":"2014-04-10T08:36:13+0000","like_count":1,"user_likes":false},"848785548471457":{"id":"848785548471457","from":{"id":"1816269439","name":"Dao Ngoc"},"message":"Em comment trước 3 từ\nスマホ:スマートフォン, \n学割: 学生割引,\n就活:就職活動","can_remove":false,"created_time":"2014-04-10T08:38:17+0000","like_count":4,"user_likes":false},"848785555138123":{"id":"848785555138123","from":{"id":"1146680551","name":"優しい なぁ"},"message":"Linh Linh thế à :3","message_tags":[{"id":"100004083892724","name":"Linh Linh","type":"user","offset":0,"length":9}],"can_remove":false,"created_time":"2014-04-10T08:38:18+0000","like_count":1,"user_likes":false},"848785801804765":{"id":"848785801804765","from":{"id":"1146680551","name":"優しい なぁ"},"message":"メルアド: mail address","can_remove":false,"created_time":"2014-04-10T08:39:13+0000","like_count":1,"user_likes":false},"848786101804735":{"id":"848786101804735","from":{"id":"100007253222055","name":"Nguyễn Việt Dương Hà"},"message":"Cho em hỏi ạ. Những cái hình sao kia gjống nhau thế dựa vào đâu mà n.n đọc đk vậy ạ?","can_remove":false,"created_time":"2014-04-10T08:40:42+0000","like_count":0,"user_likes":false},"848786591804686":{"id":"848786591804686","from":{"id":"824089766","name":"Le Dai"},"message":"スマホ：スマートフォン (Điện thoại smartphone)\nガラケー：ガラパゴスケータイ (Điện thoại ko phải smartphone)\n地デジ：地上デジタル (Truyền hình vệ tinh mặt đất)\n学割：学生割引 (Giảm giá cho học sinh sinh viên)\n就活：就職活動 (Hoạt động tìm việc làm sau khi tốt nghiệp)\nセクハラ：セクシャルハラスメント (Quấy rối tình dục)\nメルアド：メールアドレス (E-mail)\nメル友：メール友達 (Bạn qua thư)","can_remove":false,"created_time":"2014-04-10T08:43:11+0000","like_count":17,"user_likes":false},"848786831804662":{"id":"848786831804662","from":{"id":"100007253222055","name":"Nguyễn Việt Dương Hà"},"message":"M.n chỉ em mí","can_remove":false,"created_time":"2014-04-10T08:44:01+0000","like_count":0,"user_likes":false},"848786868471325":{"id":"848786868471325","from":{"id":"100004466347075","name":"Pham Thuy"},"message":"スマートホン\n学生割引\n就職生活\nメルアドレス","can_remove":false,"created_time":"2014-04-10T08:44:05+0000","like_count":1,"user_likes":false},"848786895137989":{"id":"848786895137989","from":{"id":"100001416272263","name":"Mai PB"},"message":"Đúng rồi, nhưng có tra từ điển không đấy? :-)","can_remove":false,"created_time":"2014-04-10T08:44:14+0000","like_count":0,"user_likes":false},"848787128471299":{"id":"848787128471299","from":{"id":"824089766","name":"Le Dai"},"message":"Cũng có 1-2 từ :3","can_remove":false,"created_time":"2014-04-10T08:45:05+0000","like_count":0,"user_likes":false},"848787391804606":{"id":"848787391804606","from":{"id":"100002333971123","name":"Tran Cong"},"message":"cai nay hay do anh . cai nay em nhin chac doan mo thui tra tu tien sao tahy dc ạ","can_remove":false,"created_time":"2014-04-10T08:45:45+0000","like_count":0,"user_likes":false},"848787405137938":{"id":"848787405137938","from":{"id":"1146680551","name":"優しい なぁ"},"message":"Thành thật quá ta :3 レ ダイ","can_remove":false,"created_time":"2014-04-10T08:45:50+0000","like_count":0,"user_likes":false},"848788325137846":{"id":"848788325137846","from":{"id":"100001416272263","name":"Mai PB"},"message":"Không hiểu Nguyễn Việt Dương Hà nói hình gì?","message_tags":[{"id":"100007253222055","name":"Nguyễn Việt Dương Hà","type":"user","offset":11,"length":20}],"can_remove":false,"created_time":"2014-04-10T08:48:55+0000","like_count":1,"user_likes":false},"848793038470708":{"id":"848793038470708","from":{"id":"100007253222055","name":"Nguyễn Việt Dương Hà"},"message":"Đó đó c. Những cái hình đen đen tròn tròn có ngôi sao ở giữa í ạ","can_remove":false,"created_time":"2014-04-10T09:04:33+0000","like_count":0,"user_likes":false},"848793311804014":{"id":"848793311804014","from":{"id":"100003587314679","name":"Why Die"},"message":"Chắc không hiện hán tự :)))))))","can_remove":false,"created_time":"2014-04-10T09:05:53+0000","like_count":0,"user_likes":false},"848796568470355":{"id":"848796568470355","from":{"id":"100004490496995","name":"Rai Chamu"},"message":"với e là rất khó đấy ạ.nhưng mà cũng cám ơn anh đã post bài này,\nrất hay và thú vị đấy ạ","can_remove":false,"created_time":"2014-04-10T09:18:22+0000","like_count":0,"user_likes":false},"848796985136980":{"id":"848796985136980","from":{"id":"100003807346055","name":"Chap Nhan Di"},"message":"sumato: smart, tiếng anh có nghĩa là \"thông minh\", nhưng người Nhật dùng trong trường hợp mô tả người có dáng người mảnh khảnh, nhỏ nhẹ,đẹp nha..(mong mọi người chỉ giáo)","can_remove":false,"created_time":"2014-04-10T09:20:33+0000","like_count":0,"user_likes":false},"848799225136756":{"id":"848799225136756","from":{"id":"100001156666759","name":"Kenshuu Steam"},"message":"bác giải nghĩa đi Mai PB","message_tags":[{"id":"100001416272263","name":"Mai PB","type":"user","offset":18,"length":6}],"can_remove":false,"created_time":"2014-04-10T09:28:50+0000","like_count":0,"user_likes":false},"848808091802536":{"id":"848808091802536","from":{"id":"569263718","name":"Phuong Thao Tran"},"message":"biết được mỗi nghĩa của スマホ, セクハラ, メルアド ^ ^","can_remove":false,"created_time":"2014-04-10T09:57:52+0000","like_count":0,"user_likes":false},"848811031802242":{"id":"848811031802242","from":{"id":"1146680551","name":"優しい なぁ"},"message":"セクハラ-> Sao biết hay vậy? ~~ Phuong Thao Tran :v","message_tags":[{"id":"569263718","name":"Phuong Thao Tran","type":"user","offset":28,"length":16}],"can_remove":false,"created_time":"2014-04-10T10:09:14+0000","like_count":0,"user_likes":false},"848811778468834":{"id":"848811778468834","from":{"id":"100000381394367","name":"Thành Nguyễn"},"message":"Chủ đề này đã có lần đề cập\nセクハラ từ này hồi trước có nói trong bài này https://www.facebook.com/notes/704825619534118/","can_remove":false,"created_time":"2014-04-10T10:12:03+0000","like_count":0,"user_likes":false},"848819111801434":{"id":"848819111801434","from":{"id":"100002333971123","name":"Tran Cong"},"message":"ガラケー nghĩa là gì vay em tra từ điển ko ra","can_remove":false,"created_time":"2014-04-10T10:36:23+0000","like_count":0,"user_likes":false},"848819641801381":{"id":"848819641801381","from":{"id":"100000381394367","name":"Thành Nguyễn"},"message":"Mọi người nên chú ý đọc cả các comment của người khác nữa, đó cũng là một cách học, vì có nhiều bạn đã đưa ra các đáp án mà các bạn chưa biết. Ngoài ra nếu ai đó có tra từ điển thì cũng không vấn đề gì, tra từ điển cũng là một cách học khác,. Tra từ điển trong một context có nhiều người thi giải đố thế này sẽ dễ nhớ hơn so với lúc tra thông thường.","can_remove":false,"created_time":"2014-04-10T10:38:24+0000","like_count":2,"user_likes":false},"848820088468003":{"id":"848820088468003","from":{"id":"100000381394367","name":"Thành Nguyễn"},"message":"http://nanapi.jp/2605/","can_remove":false,"created_time":"2014-04-10T10:39:28+0000","like_count":0,"user_likes":false}},"paging":{"cursors":{"after":"ODQ4Nzg0Mjg1MTM4MjUw","before":"ODQ4Nzg0Mjg1MTM4MjUw"},"next":"https://graph.facebook.com/229244010425617_848783038471708/comments?limit=1&summary=1&after=ODQ4Nzg0Mjg1MTM4MjUw"},"summary":{"order":"chronological","total_count":28}}}