{"id":"229244010425617_848814831801862","type":"status","from":{"id":"100004159717053","name":"Ngo Tu"},"message":"Mọi người ơi cho e hỏi là shiyakusho có làm thứ 7 và chủ nhật k ạ","created_time":"2014-04-10T10:21:19+0000","updated_time":"2014-04-10T13:28:21+0000","likes":{"data":{"100005457011487":{"id":"100005457011487","name":"Ngo Thu"}},"paging":{"cursors":{"after":"MTAwMDA1NDU3MDExNDg3","before":"MTAwMDA1NDU3MDExNDg3"}},"summary":{"total_count":1}},"comments":{"data":{"848830231800322":{"id":"848830231800322","from":{"id":"100005669287482","name":"Khoai Tây Nướng"},"message":"K bạn ạ","can_remove":false,"created_time":"2014-04-10T11:07:28+0000","like_count":1,"user_likes":false},"848846525132026":{"id":"848846525132026","from":{"id":"100005007457664","name":"Băng Tan"},"message":"K a ạ từ t2 đến t6 hôm qua e đi làm xong hj","can_remove":false,"created_time":"2014-04-10T11:51:52+0000","like_count":0,"user_likes":false},"848846598465352":{"id":"848846598465352","from":{"id":"100005007457664","name":"Băng Tan"},"message":"K mất tiền","can_remove":false,"created_time":"2014-04-10T11:52:02+0000","like_count":0,"user_likes":false},"848870921796253":{"id":"848870921796253","from":{"id":"100003587314679","name":"Why Die"},"message":"Bạn vào trang mà tra.. Tự thân vận động mà nghĩ chứ..","can_remove":false,"created_time":"2014-04-10T12:46:27+0000","like_count":0,"user_likes":false},"848889345127744":{"id":"848889345127744","from":{"id":"100004159717053","name":"Ngo Tu"},"message":"Mình không biết ms hỏi thôi biết tra rồi thì khỏi cần hỏi","can_remove":false,"created_time":"2014-04-10T13:22:10+0000","like_count":1,"user_likes":false},"848889918461020":{"id":"848889918461020","from":{"id":"100004159717053","name":"Ngo Tu"},"message":"Băng Tanmai anh đi làm","message_tags":[{"id":"100005007457664","name":"Băng Tan","type":"user","offset":0,"length":8}],"can_remove":false,"created_time":"2014-04-10T13:23:40+0000","like_count":1,"user_likes":false},"848890131794332":{"id":"848890131794332","from":{"id":"100004159717053","name":"Ngo Tu"},"message":"Định để cuối tuần chúng nó đc nghỉ thì đi","can_remove":false,"created_time":"2014-04-10T13:24:18+0000","like_count":0,"user_likes":false},"848892051794140":{"id":"848892051794140","from":{"id":"100005007457664","name":"Băng Tan"},"message":"Ngon hjhj","can_remove":false,"created_time":"2014-04-10T13:28:21+0000","like_count":0,"user_likes":false}},"paging":{"cursors":{"after":"ODQ4ODMwMjMxODAwMzIy","before":"ODQ4ODMwMjMxODAwMzIy"},"next":"https://graph.facebook.com/229244010425617_848814831801862/comments?limit=1&summary=1&after=ODQ4ODMwMjMxODAwMzIy"},"summary":{"order":"chronological","total_count":8}}}