{"id":"229244010425617_848838445132834","type":"status","from":{"id":"100002279693302","name":"Không Ai"},"message":"Anh chị nào đã đổi bằng xe máy ở nhật rồi tư vấn e về thủ tục cách làm với. E muốn đổi bằng của việt nam sang bằng của nhật mà chưa nắm rõ thủ tục thế nào cả. おねがいします","created_time":"2014-04-10T11:29:08+0000","updated_time":"2014-04-10T13:12:04+0000","likes":{"data":{"100003883612858":{"id":"100003883612858","name":"Cậu Út"},"100008052603586":{"id":"100008052603586","name":"Dao Chung"},"100006263888044":{"id":"100006263888044","name":"Hoàng Oanh"},"100005939971822":{"id":"100005939971822","name":"Đoàn Chăm Chỉ"}},"paging":{"cursors":{"after":"MTAwMDAzODgzNjEyODU4","before":"MTAwMDAzODgzNjEyODU4"},"next":"https://graph.facebook.com/229244010425617_848838445132834/likes?limit=1&summary=1&after=MTAwMDAzODgzNjEyODU4"},"summary":{"total_count":4}},"comments":{"data":{"848841828465829":{"id":"848841828465829","from":{"id":"100002003096932","name":"Em Diep Em Lam"},"message":"Bạn dịch và công chứng bằng và chứng chỉ đào tạo sang tiếng Nhật, lên DSQ xin xác nhận giấy tờ này là thạt, k phải giả.\nSau đó mang ra chỗ đăng kí, ng ta sẽ cho bạn thi lý thuyết luật bằng tiếng Việt (dễ) và lái thực hành (cái này khó).\nCái này minh làm từ 5 năm trước, k bierts có thay đổi gì chưa nữa","can_remove":false,"created_time":"2014-04-10T11:38:50+0000","like_count":2,"user_likes":false},"848842301799115":{"id":"848842301799115","from":{"id":"100002279693302","name":"Không Ai"},"message":"Phải lên tận đại sứ quán nữa á bạn. Chỗ mình xa đại sứ quán lắm. Mới cả bằng của mình n hơi bong có làm sao k","can_remove":false,"created_time":"2014-04-10T11:40:14+0000","like_count":1,"user_likes":false},"848842751799070":{"id":"848842751799070","from":{"id":"100002003096932","name":"Em Diep Em Lam"},"message":"Tokyo thì ra SQ, xa thì ra các TLSQ vùng đó.\nBằng thật là đc, bạn cứ tham khỏ thêm ng khác đi","can_remove":false,"created_time":"2014-04-10T11:41:34+0000","like_count":1,"user_likes":false},"848843118465700":{"id":"848843118465700","from":{"id":"100002279693302","name":"Không Ai"},"message":"Mình tận nagasaki. Thấy mấy ng nước ngoài ở đây bảo chỉ cần dịch bằng rồi đi lên chỗ thi là đc","can_remove":false,"created_time":"2014-04-10T11:42:29+0000","like_count":0,"user_likes":false},"848843518465660":{"id":"848843518465660","from":{"id":"100002003096932","name":"Em Diep Em Lam"},"message":"Vậy thử làm theo họ xem,nhỡ đâu okie,cung là dịp hỏi kĩ hơn về thủ tục","can_remove":false,"created_time":"2014-04-10T11:43:27+0000","like_count":0,"user_likes":false},"848847628465249":{"id":"848847628465249","from":{"id":"100002279693302","name":"Không Ai"},"message":"Mình cảm ơn nhé. Mai mình hỏi rõ","can_remove":false,"created_time":"2014-04-10T11:54:47+0000","like_count":0,"user_likes":false},"848850131798332":{"id":"848850131798332","from":{"id":"100000154183383","name":"Nguyễn Quang Minh"},"message":"bằng đó đi đc phân khối lớn lớn k bạn :v hay xe 50cc","can_remove":false,"created_time":"2014-04-10T12:01:13+0000","like_count":0,"user_likes":false},"848851521798193":{"id":"848851521798193","from":{"id":"100001416272263","name":"Mai PB"},"message":"Người Nhật không đòi hỏi phải công chứng bản dịch đâu, nên cứ dịch ra thôi, không cần ĐSQ làm gì.","can_remove":false,"created_time":"2014-04-10T12:05:03+0000","like_count":0,"user_likes":false},"848853125131366":{"id":"848853125131366","from":{"id":"1259384895","name":"Emylyyuri Xdntd"},"message":"mình thứ 6 tới cũng thi bằng lái nè. Nhưng thi bằng tiếng Anh ( dưới mình ko có TV). Bạn nên hỏi rõ chỗ được dịch ko thì mất công dịch lại vì ko dc chấp nhận đó. Mình dịch tuần rồi là 3 sen 380y.","can_remove":false,"created_time":"2014-04-10T12:08:59+0000","like_count":0,"user_likes":false},"848858451797500":{"id":"848858451797500","from":{"id":"100007917634982","name":"Cry Cry"},"message":"Đề thi chuyển đổi từ vn qua loại 50 cc là 10 câu tiếng Nhật hoặc tiếng Anh. Đậu thì hết khoảng 5 sen","can_remove":false,"created_time":"2014-04-10T12:22:04+0000","like_count":1,"user_likes":false},"848859888464023":{"id":"848859888464023","from":{"id":"100002279693302","name":"Không Ai"},"message":"Mình nhờ thầy giáo rồi","can_remove":false,"created_time":"2014-04-10T12:24:01+0000","like_count":0,"user_likes":false},"848860031797342":{"id":"848860031797342","from":{"id":"100002279693302","name":"Không Ai"},"message":"Chắc phải mang đến chỗ thi hỏi xem đc k rồi mới dịch nhỉ","can_remove":false,"created_time":"2014-04-10T12:24:20+0000","like_count":0,"user_likes":false},"848860425130636":{"id":"848860425130636","from":{"id":"100000469475474","name":"Hùng Nguyễn Duy"},"message":":D hay nhỉ, hay mình cũng làm cái","can_remove":false,"created_time":"2014-04-10T12:25:17+0000","like_count":1,"user_likes":false},"848860465130632":{"id":"848860465130632","from":{"id":"100002003096932","name":"Em Diep Em Lam"},"message":"Ah,từ nãy cứ nghĩ là bằng oto :))","can_remove":false,"created_time":"2014-04-10T12:25:25+0000","like_count":1,"user_likes":false},"848861091797236":{"id":"848861091797236","from":{"id":"100002279693302","name":"Không Ai"},"message":"Đi xe 50cc thôi. Xe oto k biết lái. ☺️","can_remove":false,"created_time":"2014-04-10T12:26:44+0000","like_count":0,"user_likes":false},"848861375130541":{"id":"848861375130541","from":{"id":"100000469475474","name":"Hùng Nguyễn Duy"},"message":"Super CUp á. có đắt ko nhỉ :D, mùa đông năm sau mua cái đi làm","can_remove":false,"created_time":"2014-04-10T12:27:31+0000","like_count":0,"user_likes":false},"848861488463863":{"id":"848861488463863","from":{"id":"100002279693302","name":"Không Ai"},"message":"Xe cu re thoi","can_remove":false,"created_time":"2014-04-10T12:27:57+0000","like_count":0,"user_likes":false},"848861595130519":{"id":"848861595130519","from":{"id":"100000469475474","name":"Hùng Nguyễn Duy"},"message":"khoang bn b","can_remove":false,"created_time":"2014-04-10T12:28:24+0000","like_count":0,"user_likes":false},"848866098463402":{"id":"848866098463402","from":{"id":"100000271705877","name":"Nguyễn Văn Minh"},"message":"bạn tham khảo ở đây xem thế nào. Mình đang làm bằng oto mà mãi chưa được :) http://nhatban.net.vn/cam-nang/413-lam-bang-lai-xe-o-nhat.html","can_remove":false,"created_time":"2014-04-10T12:38:07+0000","like_count":1,"user_likes":false},"848867308463281":{"id":"848867308463281","from":{"id":"100002279693302","name":"Không Ai"},"message":"Cảm ơn bạn nhé\nXe dưới chỗ mình tầm 3 4 man xe cũ","can_remove":false,"created_time":"2014-04-10T12:40:51+0000","like_count":1,"user_likes":false},"848870698462942":{"id":"848870698462942","from":{"id":"100000687662713","name":"Vu Thi Man"},"message":"Cho minh lam don gian hon, nhung bang o VN sang day chi doi duoc loai di xe may nho thoi, gentsuki thi phai. Dich bang cong chung, anh va xin giay xac nhan cu tru, mang ho so den Trung tam sat hach, goi dien hen truoc thi tot, den noi ho lam thu tuc cho thi li thuyet luon, k phai thi thuc hanh, neu ban do thi se cap bang luon trong ngay. Don gian the day","can_remove":false,"created_time":"2014-04-10T12:46:09+0000","like_count":2,"user_likes":false},"848871661796179":{"id":"848871661796179","from":{"id":"100002279693302","name":"Không Ai"},"message":"Có phải trình bằng cũ ra cho ngta xem k bạn","can_remove":false,"created_time":"2014-04-10T12:47:45+0000","like_count":0,"user_likes":false},"848872281796117":{"id":"848872281796117","from":{"id":"100000469475474","name":"Hùng Nguyễn Duy"},"message":"Mình ở nagahashi, osaka, ko biết làm khó ko nhỉ :D","can_remove":false,"created_time":"2014-04-10T12:49:07+0000","like_count":0,"user_likes":false},"848872881796057":{"id":"848872881796057","from":{"id":"100000687662713","name":"Vu Thi Man"},"message":"Co chu, do la dieu hien nhien, truoc khi thi li thuyet ho se dieu tra 1 chut nhu la ban thi nam nao, dat bao nhieu cau / bao nhieu...","can_remove":false,"created_time":"2014-04-10T12:50:56+0000","like_count":0,"user_likes":false},"848873608462651":{"id":"848873608462651","from":{"id":"100001416272263","name":"Mai PB"},"message":"https://www.facebook.com/notes/823826637634015","can_remove":false,"created_time":"2014-04-10T12:52:43+0000","like_count":0,"user_likes":false},"848875148462497":{"id":"848875148462497","from":{"id":"1259384895","name":"Emylyyuri Xdntd"},"message":"anh Mai PB ơi, anh có bản tiếng Anh ko ạ? cho em với nha. Em cảm ơn anh!","message_tags":[{"id":"100001416272263","name":"Mai PB","type":"user","offset":4,"length":6}],"can_remove":false,"created_time":"2014-04-10T12:56:20+0000","like_count":0,"user_likes":false},"848875688462443":{"id":"848875688462443","from":{"id":"100001416272263","name":"Mai PB"},"message":"Bản tiếng Anh của cái gì?","can_remove":false,"created_time":"2014-04-10T12:57:30+0000","like_count":0,"user_likes":false},"848876265129052":{"id":"848876265129052","from":{"id":"1259384895","name":"Emylyyuri Xdntd"},"message":"dạ, em thấy link có thi thử lý thuyết của xe máy ạ (Thi thử trên mạng đề thi lấy bằng xe máy 50cc (原付免許模試)) . Em muốn thi thử bằng Tiếng Anh vì em đọc ko hiểu bên Tiếng Nhật ạ.","can_remove":false,"created_time":"2014-04-10T12:59:09+0000","like_count":0,"user_likes":false},"848879688462043":{"id":"848879688462043","from":{"id":"100001416272263","name":"Mai PB"},"message":"Emylyyuri Xdntd \nhttp://www.scribd.com/doc/41589052/Gentsuki-License-Test\n\nhttp://forum.gaijinpot.com/forum/living-in-japan/travel-transportation/19571-gentsuki-50cc-scooter-license-test","message_tags":[{"id":"1259384895","name":"Emylyyuri Xdntd","type":"user","offset":0,"length":15}],"can_remove":false,"created_time":"2014-04-10T13:07:35+0000","like_count":1,"user_likes":false},"848881508461861":{"id":"848881508461861","from":{"id":"1259384895","name":"Emylyyuri Xdntd"},"message":"em cảm ơn anh Mai PB nhiều ạ!","message_tags":[{"id":"100001416272263","name":"Mai PB","type":"user","offset":14,"length":6}],"can_remove":false,"created_time":"2014-04-10T13:12:04+0000","like_count":1,"user_likes":false}},"paging":{"cursors":{"after":"ODQ4ODQxODI4NDY1ODI5","before":"ODQ4ODQxODI4NDY1ODI5"},"next":"https://graph.facebook.com/229244010425617_848838445132834/comments?limit=1&summary=1&after=ODQ4ODQxODI4NDY1ODI5"},"summary":{"order":"chronological","total_count":30}}}