{"id":"229244010425617_848803448469667","type":"photo","object_id":"10152107069908719","picture":"https://fbcdn-photos-f-a.akamaihd.net/hphotos-ak-ash4/t1.0-0/1491752_10152107069908719_6754540721498745225_s.jpg","link":"https://www.facebook.com/photo.php?fbid=10152107069908719&set=gm.848803448469667&type=1&relevant_count=1","from":{"id":"569263718","name":"Phuong Thao Tran"},"message":"【Hội chứng Việt Nam ở Nhật (nước ngoài) và định hướng chia sẻ liên quan】\n\n\"Hội chứng\" là gì. Trong y học, định nghĩa hội chứng của 1 chứng bệnh là do nhiều nguyên nhân khác nhau tạo thành - tạo thành 1 hội chứng.\n\nĐể chữa bệnh thì ta cần chẩn bênh, và chẩn bệnh thì dựa trên các dấu hiệu hay triệu chứng để đoán bệnh. Tùy vào mức độ của bệnh, nếu bệnh nhẹ thì chỉ cần uống kháng sinh, hoặc tiểu phẫu và chỉ trong thời gian ngắn đã hết triệu chứng bệnh (ở đây mình chỉ nói là hết triệu chứng mà không nói hết bệnh, bời khả năng bệnh đó sẽ bị gặp lại, ví dụ như cảm cúm, đau bao tử, hoặc khi đi xét nghiệm ví dụ viêm gan siêu vi B thì các chỉ số nằm dưới ngưỡng phát hiện là hết triệu chứng chứ vẫn có khả năng phát bệnh lại, nên không thể nói là hết bệnh.)\n\nCâu hỏi đặt ra là:\n1. Vậy thì hội chứng Việt Nam tại Nhật là gồm những gì?\n2. Và group CĐVN này có thể làm gì với hội chứng đó?\n\nGần đây báo giới trong nước cũng như nước ngoài thường đưa tin về VN, đáng chú ý là toàn tin xấu nổi cộm về hiện trạng du học sinh bị các công ty môi giới lừa gạt ở Nhật, du học sinh vi phạm pháp luật ăn cắp, trốn vé tàu, có hành động cố tình trêu ghẹo nhân viên thu ngân siêu thị bên Nhật một cách thiếu văn hóa, tụ tập ẩu đả nhau tại xứ người như vụ 7 du học sinh đả thương 1 du học sinh người Nepal. \n\nRồi đến việc hình ảnh biểu tượng Áo dài của Việt Nam bị một số tiếp viên hàng không do thiếu ý thức, mặc dù bay cao, bay xa nhưng ý thức về hành động việc làm của mình vẫn bị lực hút quán tính ở vị trí kéo dài từ Vĩ tuyến 8°27′ - 23°23′ Bắc và Kinh tuyến: 102°8′ - 109°27′ Đông của TIỀN kéo trụ lại mặt đất dẫn đến có những hành động giúp cho VN càng thêm vươn cao bay xa hơn so với Năm Châu. \nRồi vụ hối lộ 80 triệu yên trong ngành đường sắt. \n\nTất thảy từ chồi, thân, đến gốc cây đều nhiễm triệu chứng bệnh, những thông tin  đó đều liên quan đến Việt-Nhật và ngẫu nhiên nó cũng được chia sẻ lại ở group này, group Cộng Đồng Việt Nhật.\n\nTrả lời câu hỏi thứ nhất: Đó là hội chứng. \nHội chứng khi một số người Nhật tránh tiếp xúc với du học sinh Việt, gây khó khăn cho các du học sinh trong việc tìm việc làm thêm, họ cảnh giác với người Việt (xuất hiện nhiều biển báo bằng tiếng Việt, cảnh sát Nhật học tiếng Việt để giao tiếp với người Việt, kiểm tra an ninh đột xuất và gắt gao hơn, hiện tượng trước đây hiếm khi có) thậm chí tỏ thái độ kì thị ra mặt. Điều này cũng giống như việc bạn ở một nơi an ninh tuyệt đối và không có trộm cắp thì ngủ hoặc ra khỏi nhà không cần phải khóa cửa. Nhưng nếu chỗ mất an ninh hay trộm cắp thì nhà có vài lớp khóa cửa, có camera chống trộm, lắp đặt chuông báo động v.v...\n \nĐể trả lời câu hỏi thứ 2 lại phải hỏi thêm một câu nữa, hỏi thay cho những bạn có thắc mắc: là tại sao group lại đăng nhiều tin về triệu chứng bệnh với tần suất khá dày như vậy. Thưa đó là đang nêu triệu chứng và cập nhật triệu chứng để chẩn bệnh và đánh giá mức tình trạng bệnh.\n\n- Vậy CĐVN cũng là nơi nêu  và phân tích các triệu chứng bệnh mang tính xã hội đó. Cho những bạn chuẩn bị hành trang thấy được cái hậu quả của hội chứng mà phòng ngừa từ trong ý thức đến hành động.\n\nCũng giống như có bệnh thì vái tứ phương. Mọi chia sẽ ở đây không phải là bêu rếu, bới móc cái tật cái bệnh của bản thân, mà là đang nêu và phân tích để cùng biết mà chia sẻ thấu hiểu, để khuyên giải nhau cùng phòng ngừa bệnh.\n\nCó một số ý kiến cho rằng, việc ngồi chia sẻ trên bàn phím như vậy không có ích gì, không làm thay đổi được gì, hoặc chỉ làm xấu mặt nhau mà thôi.\nKhông, nếu bạn có suy nghĩ như vậy thì đồng nghĩa với việc cho rằng sự phát minh ra chữ viết của loài người là vô ích, và bao nhiêu sách vở, tài liệu tư liệu của loài người này đều là mớ giấy lộn, nên đốt đi, nên tiêu hủy đi chăng.\n\nBởi tu duy hành động của  con người sẽ theo thứ tự: mới đầu có thể không quan tâm có thể do không biết, nhưng thấy nhiều sẽ tò mò đọc (biết), rồi quan tâm (thích), đọc rồi sẽ hiểu, hiểu rồi sẽ suy nghĩ (tương tư-yêu), suy nghĩ nhiều rồi sẽ hành động (có thể dẫn tới đam mê). \n\nVà phương tiện truyền đạt ở group là chữ viết, nên ngồi bàn phím là một cách  truyền đạt.\nCũng giống như hầu hết thông tin các bạn nhận được là thông qua truyền thông, báo mạng. CĐVN cũng là một kênh truyền đạt thông tin tương tự như thế.\nĐó là lý do, mục đích của các bài đăng trên group hiện nay là muốn mọi người tiếp cận chia sẻ thông tin luồng sau: Không biết (Nghe) ---> Biết --->Hiểu ---> Thích ---> Yêu ---> Đam mê.  \n\nTất nhiên là mỗi người đều có quyền tiếp cận riêng của mình, ^_^\n\nNhưng, cái thiếu sót ở hầu hết các bài chia sẻ đó đều thiếu phương pháp định hướng cụ thể cho từng cái phân tích, có khi không đạt được kết quả phân tích, chia sẻ, khuyên giải, ngăn ngừa mà lại thành tranh cải mang tính cá nhân, cái tôi của chủ post và người bình luận, và có khi người đọc còn không hiểu chia sẻ đó muốn nói, muốn nhắn nhủ điều gì, nên các bình luận cứ tủa ra nhiều hướng, tích cực đúng ý chủ post có, trái ý cũng có, tiêu cực cũng có. Đó là lỗi của người post bài. \n\nĐể tăng tính hiệu quả của bài đăng, đề nghị các chủ topic khi đăng bài, nhớ kèm theo không những lời bình mà còn định hướng tư tưởng cho người đọc!\n\nXin hết.","created_time":"2014-04-10T09:41:31+0000","updated_time":"2014-04-17T00:23:52+0000","likes":{"data":{"100002126299449":{"id":"100002126299449","name":"Duy Bui"},"100000348834916":{"id":"100000348834916","name":"Đỗ Kiên"},"100005794771306":{"id":"100005794771306","name":"April Ng"},"100005801442456":{"id":"100005801442456","name":"An Nguyen"},"100003160479777":{"id":"100003160479777","name":"Tran Nu Hoang Yen"},"1026780646":{"id":"1026780646","name":"Việt Hưng Khổng"},"100004700732681":{"id":"100004700732681","name":"Coxanh Pham"},"1816269439":{"id":"1816269439","name":"Dao Ngoc"},"100006329763157":{"id":"100006329763157","name":"Một Mình Không Sao"},"100000381394367":{"id":"100000381394367","name":"Thành Nguyễn"},"100003474980811":{"id":"100003474980811","name":"Bitter Coffee"},"1766442011":{"id":"1766442011","name":"Le Phuong"},"100003775685711":{"id":"100003775685711","name":"Thằng Chăn Vịt"},"100003913383051":{"id":"100003913383051","name":"Tho Tran"},"100001526631937":{"id":"100001526631937","name":"Tường Oanh Mineko"},"100000500260636":{"id":"100000500260636","name":"Lưu Nguyễn Thảo Tiên"},"100001432462223":{"id":"100001432462223","name":"Truong Nguyen"},"100000089472724":{"id":"100000089472724","name":"Duy Nguyen"},"620066722":{"id":"620066722","name":"Dong Khac Thai"},"1146680551":{"id":"1146680551","name":"優しい なぁ"}},"paging":{"cursors":{"after":"MTAwMDAyMTI2Mjk5NDQ5","before":"MTAwMDAyMTI2Mjk5NDQ5"},"next":"https://graph.facebook.com/229244010425617_848803448469667/likes?limit=1&summary=1&after=MTAwMDAyMTI2Mjk5NDQ5"},"summary":{"total_count":20}},"comments":{"data":{"848884618461550":{"id":"848884618461550","from":{"id":"100000603915176","name":"悪いな ぁ"},"message":"Quả tim bóng quá nhể, ảnh này sửa hơi kém!","can_remove":false,"created_time":"2014-04-10T13:15:55+0000","like_count":0,"user_likes":false},"849127355103943":{"id":"849127355103943","from":{"id":"100003913383051","name":"Tho Tran"},"message":"Tim có nhân :3","can_remove":false,"created_time":"2014-04-10T21:34:14+0000","like_count":0,"user_likes":false},"849309485085730":{"id":"849309485085730","from":{"id":"1816269439","name":"Dao Ngoc"},"message":"Hoan nghênh chủ kiến hợp lý của chị Thảo!","can_remove":false,"created_time":"2014-04-11T04:26:47+0000","like_count":1,"user_likes":false},"852651241418221":{"id":"852651241418221","from":{"id":"100001416272263","name":"Mai PB"},"message":"\"vụ hối lộ 80 yên\" kìa :-)","can_remove":false,"created_time":"2014-04-16T11:33:19+0000","like_count":1,"user_likes":false},"852709174745761":{"id":"852709174745761","from":{"id":"569263718","name":"Phuong Thao Tran"},"message":"sai một li đi một một triệu, ^^\nTho Tran: Tim có \"tâm\" đó :)\nchị 悪いな ぁ  có quả nào bóng hơn thì cho em xin ạ","message_tags":[{"id":"100003913383051","name":"Tho Tran","type":"user","offset":32,"length":8},{"id":"100000603915176","name":"悪いな ぁ","type":"user","offset":65,"length":5}],"can_remove":false,"created_time":"2014-04-16T13:50:38+0000","like_count":0,"user_likes":false},"852711324745546":{"id":"852711324745546","from":{"id":"100000603915176","name":"悪いな ぁ"},"message":"Tim thật luôn nhoé :3","can_remove":false,"created_time":"2014-04-16T13:55:16+0000","like_count":0,"user_likes":false},"852712284745450":{"id":"852712284745450","from":{"id":"569263718","name":"Phuong Thao Tran"},"message":"chừng đó đâu đủ làm đồ nhắm cho 3 vạn thành viên đc chị ơi","can_remove":false,"created_time":"2014-04-16T13:58:06+0000","like_count":0,"user_likes":false},"852712718078740":{"id":"852712718078740","from":{"id":"100000603915176","name":"悪いな ぁ"},"message":"Ra ngồi một góc ăn một mình đi ;)","can_remove":false,"created_time":"2014-04-16T13:58:59+0000","like_count":0,"user_likes":false},"852713144745364":{"id":"852713144745364","from":{"id":"569263718","name":"Phuong Thao Tran"},"message":"chưa tới giờ, :D","can_remove":false,"created_time":"2014-04-16T14:00:23+0000","like_count":0,"user_likes":false},"852756544741024":{"id":"852756544741024","from":{"id":"100005801442456","name":"An Nguyen"},"message":"Dân mà cứ suốt ngày cứ đâu cãi bừa ấy là thường không biết tự mà đi đọc để hiểu. Nên thật chia buồn .... Những lời chị nói chắc không đến được cái đích mà chị mong muốn :))","can_remove":false,"created_time":"2014-04-16T15:30:22+0000","like_count":0,"user_likes":false},"852762388073773":{"id":"852762388073773","from":{"id":"100001416272263","name":"Mai PB"},"message":"https://www.facebook.com/notes/769413259742020","can_remove":false,"created_time":"2014-04-16T15:42:51+0000","like_count":0,"user_likes":false},"852819264734752":{"id":"852819264734752","from":{"id":"100003913383051","name":"Tho Tran"},"message":"Ơ nhưng em thấy có nhân  hình sao kìa chị Thảo :3","can_remove":false,"created_time":"2014-04-16T17:32:41+0000","like_count":0,"user_likes":false},"852977061385639":{"id":"852977061385639","from":{"id":"100001432462223","name":"Truong Nguyen"},"message":"Vỏ bọc quà chứ nhân gì :3","can_remove":false,"created_time":"2014-04-17T00:23:52+0000","like_count":0,"user_likes":false}},"paging":{"cursors":{"after":"ODQ4ODg0NjE4NDYxNTUw","before":"ODQ4ODg0NjE4NDYxNTUw"},"next":"https://graph.facebook.com/229244010425617_848803448469667/comments?limit=1&summary=1&after=ODQ4ODg0NjE4NDYxNTUw"},"summary":{"order":"chronological","total_count":13}}}