{"id":"229244010425617_848926581790687","type":"status","from":{"id":"100002508122689","name":"Vũ Mạnh Tuấn"},"message":"Có chuyện muốn nhờ các anh chị tư vấn giúp. \n\nThầy giáo của em hàng tháng đều đi rút tiền do gia đình ở bên Nhật gửi. ( thầy hiện đag sống ở VN ) Tuy nhiên vì tuổi cao và đi lại khó khăn nên thầy hay nhờ học sinh đi cùng. \nNói chuyện với thầy thì thầy có bảo là tháng nào cũng ra Vietcom bank ở hồ Gươm rút tiền, vì rút ở ATM thì toàn tiền 100k, cầm rất nhiều và dễ nhầm lẫn. Tuy nhiên, khi thầy đưa cho xem cái receipt thì em thấy mỗi lần, ở Vietcombank chỉ cho rút tối đa 2.000.000 đ, phí rút tiền là 20.000 đ.\nThấy rút 10 triệu, phải thực hiện giao dịch ở ngân hàng 5 lần, mất 100.000 đ tiền phí.\n\nRất thắc mắc là tại sao số tiền rút tối đa lại chỉ có 2 triệu. Trong khi thẻ ATM của e ( thẻ do ngân hàng Vietin bank làm miễn phí cho sv ) còn rút được 5 triệu/ lần. Liệu có phải là tùy ngân hàng mà số tiền rút tối đa sẽ khác nhau ?  Ai có kinh nghiệm về vấn đề này có thể giải đáp giúp em ko ạ. Để em nói lại với thầy lần sau chuyển ngân hàng rút tiền, hoặc bằng cách nào đó đỡ tốn nhiều fee rút như thế, mà không phải giao dịch nhiều lần. \n\nThẻ của thầy là thẻ do ngân hàng Sumimoto Mitsui Banking Corporation ( SMBC ) cấp ( ngân hàng bên Nhật , thẻ dùng toàn cầu ) \n\nよろしくお願いします。","created_time":"2014-04-10T14:39:06+0000","updated_time":"2014-04-12T08:49:41+0000","likes":{"data":{"100004737102326":{"id":"100004737102326","name":"Vũ Thắnq"},"100002593615836":{"id":"100002593615836","name":"Thu Mai Thi"},"100003814756892":{"id":"100003814756892","name":"Hai Nguyen"},"100000257464771":{"id":"100000257464771","name":"Trương Ngọc Điệp"},"100005327112379":{"id":"100005327112379","name":"Guongcuoideem Dk Hanhphuk"},"100004764720702":{"id":"100004764720702","name":"Không Bon Chen"},"100001122451473":{"id":"100001122451473","name":"Lavender Cullen"}},"paging":{"cursors":{"after":"MTAwMDA0NzM3MTAyMzI2","before":"MTAwMDA0NzM3MTAyMzI2"},"next":"https://graph.facebook.com/229244010425617_848926581790687/likes?limit=1&summary=1&after=MTAwMDA0NzM3MTAyMzI2"},"summary":{"total_count":7}},"comments":{"data":{"848928445123834":{"id":"848928445123834","from":{"id":"100001495688011","name":"Chung Kếu"},"message":"lần trước rút tiền qua thẻ Vietcombank cũng chỉ được tối đa 2 tr/ lần, chả hiểu sao","can_remove":false,"created_time":"2014-04-10T14:43:10+0000","like_count":0,"user_likes":false},"848928571790488":{"id":"848928571790488","from":{"id":"100002912714964","name":"Yen Hoang"},"message":"Thẻ bên nhật mà rút ở Việt Nam mất phí cao là đúng rồi , tìm ngân hàng liên doanh với ngân hàng đó rút thì tiện hơn đó .","can_remove":false,"created_time":"2014-04-10T14:43:24+0000","like_count":0,"user_likes":false},"848928841790461":{"id":"848928841790461","from":{"id":"100002508122689","name":"Vũ Mạnh Tuấn"},"message":"vấn đề là cái 2tr./ 1 lần rút","can_remove":false,"created_time":"2014-04-10T14:43:50+0000","like_count":0,"user_likes":false},"848930118457000":{"id":"848930118457000","from":{"id":"1259384895","name":"Emylyyuri Xdntd"},"message":"bạn ra ngân hàng rút 1 lần sẽ giảm dc nhiều hơn. 1 lần là 11k/1 giao dịch (mình nhớ là vậy ạ, ko biết còn chính xác ko)","can_remove":false,"created_time":"2014-04-10T14:46:02+0000","like_count":0,"user_likes":false},"848930268456985":{"id":"848930268456985","from":{"id":"1009579545","name":"Tịnh Quang"},"message":"Nếu cái thẻ đó đa năng sao thầy e ko ra cây Vietinbannk rút 5 tr như e nói","can_remove":false,"created_time":"2014-04-10T14:46:19+0000","like_count":0,"user_likes":false},"848930755123603":{"id":"848930755123603","from":{"id":"100002508122689","name":"Vũ Mạnh Tuấn"},"message":"Emylyyuri Xdntd: thì thầy ra ngân hàng Vietcom bank mà. đâu phải atm","can_remove":false,"created_time":"2014-04-10T14:47:10+0000","like_count":0,"user_likes":false},"848935281789817":{"id":"848935281789817","from":{"id":"100002508122689","name":"Vũ Mạnh Tuấn"},"message":"THẦY GIÁO MÌNH RÚT TIỀN Ở NGÂN HÀNG NHÉ, KO PHẢI Ở CÂY ATM","can_remove":false,"created_time":"2014-04-10T14:47:59+0000","like_count":0,"user_likes":false},"848941725122506":{"id":"848941725122506","from":{"id":"100000040762045","name":"Bình Minh"},"message":"Theo kn của mình từng rút trước đây ở hcm. Thẻ của mình cũng là sumitomo mitsui thì rút ở tất cả các cây atm ở quận3,5,11... cũng chỉ đc mỗi lần hai triệu nên rút 20tr tốn 200 ngàn phí. Nhg chỉ duy nhất ở sàigon cênter 65 lê lợi cây atm của ANZ thì rút được một lần tối đa 20tr vẫn chỉ mất 20ngan phí giao dịch. Nên bạn thử kêu thầy tìm cây atm ở khu cao ốc nào có cty Nhật hay cty nn mở vp nhiều xem sao?","can_remove":false,"created_time":"2014-04-10T14:48:47+0000","like_count":1,"user_likes":false},"848941765122502":{"id":"848941765122502","from":{"id":"100002508122689","name":"Vũ Mạnh Tuấn"},"message":"Tịnh Quang hình như cây atm của vietcom cũng chỉ 2 tr/ lần ạ ; mà thầy phàn nàn là nó toàn ra tiền 100k, nên cầm nhiều tiền quá, k tiện. \nE muốn hỏi liệu có phải do vietcom giới hạn chỉ rút đc 2 tr ko","can_remove":false,"created_time":"2014-04-10T14:48:54+0000","like_count":0,"user_likes":false},"848941951789150":{"id":"848941951789150","from":{"id":"1828906841","name":"Trọng Nghĩa Bùi"},"message":"chắc là ATM ngân hàng đặt ra hạn mức rút khác đối với thẻ quốc tế (visa, mastercard chẳng hạn)","can_remove":false,"created_time":"2014-04-10T14:49:12+0000","like_count":0,"user_likes":false},"848942115122467":{"id":"848942115122467","from":{"id":"100002963737004","name":"Hà Phùng"},"message":"Một số ngân hàng thì chỉ cho tối đa 2tr, mội số cho rút tối đa 5tr nhưng phải nội mạng, ngoại mạng cũng chỉ 2tr thôi.","can_remove":false,"created_time":"2014-04-10T14:49:32+0000","like_count":0,"user_likes":false},"848942298455782":{"id":"848942298455782","from":{"id":"100002508122689","name":"Vũ Mạnh Tuấn"},"message":"ko phải thẻ visa hay master card đâu ạ anh Trọng Nghĩa Bùi . thẻ ngân hàng ấy ah","message_tags":[{"id":"1828906841","name":"Trọng Nghĩa Bùi","type":"user","offset":43,"length":15}],"can_remove":false,"created_time":"2014-04-10T14:49:52+0000","like_count":0,"user_likes":false},"848942855122393":{"id":"848942855122393","from":{"id":"100002508122689","name":"Vũ Mạnh Tuấn"},"message":"Hà Phùng: ngân hàng gì mà chỉ rút đc 2 tr/ lần, chả phải là ít quá sao :3","message_tags":[{"id":"100002963737004","name":"Hà Phùng","type":"user","offset":0,"length":8}],"can_remove":false,"created_time":"2014-04-10T14:51:19+0000","like_count":0,"user_likes":false},"848942878455724":{"id":"848942878455724","from":{"id":"100001766758021","name":"Huyền Trần"},"message":"Vì nó khác ngân hàng, nên mỗi lần rút nó chỉ cho rút tối đa 2tr thôi ợ. Còn nếu rút đúng ngân hàng thì mới rút được tối đa. Bt mình rút được 5tr ở vietcom mà","can_remove":false,"created_time":"2014-04-10T14:51:21+0000","like_count":2,"user_likes":false},"848942895122389":{"id":"848942895122389","from":{"id":"100001912633316","name":"Du Ca"},"message":"đó là quy định theo từng ngân hàng Tuấn à, tớ nhớ ko nhầm thì Sumimoto có 1 cái chi nhánh ở Hà Nội đó, gần ga hà nội, cũng ko xa vietcombank mấy, thử lên đó hỏi xem có rẻ hơn ko ^ ^","can_remove":false,"created_time":"2014-04-10T14:51:24+0000","like_count":1,"user_likes":false},"848943208455691":{"id":"848943208455691","from":{"id":"100002508122689","name":"Vũ Mạnh Tuấn"},"message":"@Hồng Nhi: thầy ấy bảo đã từng rút ở ANZ , max 400k ; e cũng k hiểu là thế nào luôn :|","can_remove":false,"created_time":"2014-04-10T14:52:04+0000","like_count":1,"user_likes":false},"848943315122347":{"id":"848943315122347","from":{"id":"1009579545","name":"Tịnh Quang"},"message":"e bảo thầy e ra ngân hàng ANZ ở bờ hồ phía đương kem Thủy Tạ ý rút luôn 1 lần rất tiện","can_remove":false,"created_time":"2014-04-10T14:52:17+0000","like_count":2,"user_likes":false},"848944825122196":{"id":"848944825122196","from":{"id":"729237579","name":"Hang Moon"},"message":"xloi nhưng m chả hiểu câu chuyện của ban Tuấn. 1 là nếu mà thầy bạn rút ở Ngân hàng thì bn tiền rút 1 lần cũng đc. còn nếu thầy đưa cái receipt ra mỗi lần rút đc 2tr, mất 20k thì phải là receipt từ cây ATM chứ. bạn cho m xin ảnh receipt đc k? mà m nghĩ là thẻ của SMBC thì k thể rút tại quầy VCB đc vì có mở tk tại VCB đâu mà rút tại quầy :(.sao bạn  k bảo thầy qua SMBC trụ sở chính rút luôn ấy.","can_remove":false,"created_time":"2014-04-10T14:55:28+0000","like_count":0,"user_likes":false},"848946031788742":{"id":"848946031788742","from":{"id":"1828906841","name":"Trọng Nghĩa Bùi"},"message":"@武 俊 visa hay mastercard thì cũng là thẻ ngân hàng mà, a thấy có cô dùng thẻ visa đăng ký tại vietcombank, kết nối với TK khác ở Nhật (cô nhận lương qua tk đó) nên mỗi lần rút tiền là phải qua giao dịch quốc tế rồi","can_remove":false,"created_time":"2014-04-10T14:58:03+0000","like_count":1,"user_likes":false},"848946381788707":{"id":"848946381788707","from":{"id":"1725907325","name":"Nguyen Van Dung"},"message":"ngân hàng VN đang cho chính phủ và các doanh nghiệp \"nhà nước\" vay quá nhiều tiền. Rút nhiều để hết tiền ngân hàng à. ^^!\n\nhttps://www.facebook.com/photo.php?fbid=525122487586562&set=a.295680247197455.63320.246214618810685&type=3&theater","can_remove":false,"created_time":"2014-04-10T14:58:48+0000","like_count":1,"user_likes":false},"848946411788704":{"id":"848946411788704","from":{"id":"100000335640786","name":"Nguyen Luong"},"message":"đó là theo quy định riêng của từng ngân hàng. vs lại ban thử vào hẳn trong quầy làm đơn rút max xem sao. Bản đồ của smbc tại HN đây, bạn có thể tham khảo\nĐ/C: 1105, tầng 11, Tòa nhà Pacific Place , 83B Lý Thường Kiệt, Hà nội","can_remove":false,"created_time":"2014-04-10T14:58:53+0000","like_count":1,"user_likes":false},"848946428455369":{"id":"848946428455369","from":{"id":"100002508122689","name":"Vũ Mạnh Tuấn"},"message":"Hang Moon: mình xin phép trả lời.\n\nChính xác là thầy rút ở Ngân hàng VietCom bank ( ở chỗ Hồ Gươm ) , rút  tiền ở ngân hàng vẫn có cái receipt; và vấn đề là mỗi lần ngân hàng chỉ cho rút 2 tr; mất 20k fee. Còn ảnh thì hiện giờ ko có vì lúc chiều mình chưa chụp lại.\n\nCác ngân hàng bây giờ đều liên kết vs nhau mà nên rút khác ngân hàng vẫn được. \n\nMình cũng đag tìm cái chi nhanh SMBC ở HN mà chưa thấy đâu cả. :3","can_remove":false,"created_time":"2014-04-10T14:58:54+0000","like_count":0,"user_likes":false},"848947038455308":{"id":"848947038455308","from":{"id":"729237579","name":"Hang Moon"},"message":"mai bạn chụp cho m ảnh cái receipt đc k?","can_remove":false,"created_time":"2014-04-10T14:59:48+0000","like_count":1,"user_likes":false},"848947305121948":{"id":"848947305121948","from":{"id":"100001912633316","name":"Du Ca"},"message":"Trên anh Nguyen Luong có đưa ảnh bản đồ rồi đó :3 thử qua đó xem xem có rẻ hơn ko :D","can_remove":false,"created_time":"2014-04-10T15:00:37+0000","like_count":1,"user_likes":false},"848948705121808":{"id":"848948705121808","from":{"id":"100002508122689","name":"Vũ Mạnh Tuấn"},"message":"Hang Moon: ok lúc nào chụp đc mình sẽ post","can_remove":false,"created_time":"2014-04-10T15:03:31+0000","like_count":0,"user_likes":false},"848948851788460":{"id":"848948851788460","from":{"id":"100002508122689","name":"Vũ Mạnh Tuấn"},"message":"Du Ca: mai gọi điện hỏi xem sao :D","can_remove":false,"created_time":"2014-04-10T15:03:44+0000","like_count":0,"user_likes":false},"848948921788453":{"id":"848948921788453","from":{"id":"100002508122689","name":"Vũ Mạnh Tuấn"},"message":"cảm ơn a Nguyen Luong ạ","can_remove":false,"created_time":"2014-04-10T15:03:57+0000","like_count":1,"user_likes":false},"848949885121690":{"id":"848949885121690","from":{"id":"100002508122689","name":"Vũ Mạnh Tuấn"},"message":"cảm ơn mọi người đã tư vấn. Mai em sẽ gọi điện hỏi bên SMBC xem thế nào ^^","can_remove":false,"created_time":"2014-04-10T15:06:24+0000","like_count":1,"user_likes":false},"848950291788316":{"id":"848950291788316","from":{"id":"100000335640786","name":"Nguyen Luong"},"message":"Bạn có sdt của VP smbc chưa?\nThông tin smbc tại HN:\nĐ/C: P 1105, tầng 11, Tòa nhà Pacific Place , 83B Lý Thường Kiệt, Hà nội\nĐT: 84- (4) 3946-1100","can_remove":false,"created_time":"2014-04-10T15:07:27+0000","like_count":0,"user_likes":false},"848950881788257":{"id":"848950881788257","from":{"id":"100002508122689","name":"Vũ Mạnh Tuấn"},"message":"vâng em cảm ơn ạ","can_remove":false,"created_time":"2014-04-10T15:08:49+0000","like_count":0,"user_likes":false},"848951081788237":{"id":"848951081788237","from":{"id":"100000270744242","name":"Rock Trong Tôi"},"message":"chắc họ sợ người nhật sang rửa tiền","can_remove":false,"created_time":"2014-04-10T15:09:27+0000","like_count":0,"user_likes":false},"848951088454903":{"id":"848951088454903","from":{"id":"100000270744242","name":"Rock Trong Tôi"},"message":":)","can_remove":false,"created_time":"2014-04-10T15:09:29+0000","like_count":0,"user_likes":false},"848951595121519":{"id":"848951595121519","from":{"id":"100002488031743","name":"Đoàn Văn Hải"},"message":"nếu rút nhiều phải vào ngân hàng đó rút.chứ rút cây sao rút được nhiều","can_remove":false,"created_time":"2014-04-10T15:10:45+0000","like_count":0,"user_likes":false},"848952028454809":{"id":"848952028454809","from":{"id":"100002508122689","name":"Vũ Mạnh Tuấn"},"message":"Rock Trong Tôi tưởng tượng cũng hay nhỉ :)) 10 tr thì rửa cái gì","message_tags":[{"id":"100000270744242","name":"Rock Trong Tôi","type":"user","offset":0,"length":14}],"can_remove":false,"created_time":"2014-04-10T15:11:38+0000","like_count":1,"user_likes":false},"848952271788118":{"id":"848952271788118","from":{"id":"100002508122689","name":"Vũ Mạnh Tuấn"},"message":"Đoàn Văn Hải: mình đâu có nói là rút cây. Thầy giáo mình rút ở ngân hàng vietcom bank  mà","can_remove":false,"created_time":"2014-04-10T15:12:14+0000","like_count":0,"user_likes":false},"848952721788073":{"id":"848952721788073","from":{"id":"100002488031743","name":"Đoàn Văn Hải"},"message":"nếu rút ở ngân hàng làm gì có kiểu mỗi lần chỉ rút dc 2 triệu","can_remove":false,"created_time":"2014-04-10T15:13:26+0000","like_count":0,"user_likes":false},"848953111788034":{"id":"848953111788034","from":{"id":"100002508122689","name":"Vũ Mạnh Tuấn"},"message":"chính vì thế nên mình mới phải lên đây hỏi mọi người. mong bạn đọc kĩ, vì thẻ của thầy là SMBC của Nhật","can_remove":false,"created_time":"2014-04-10T15:14:15+0000","like_count":1,"user_likes":false},"848962701787075":{"id":"848962701787075","from":{"id":"100007881153474","name":"Chợ Zời Nhật Bản"},"message":"Đây là quy định của VCB, với thẻ thanh toán quốc tế thường, mỗi lần rút tối thiểu 10.000 và tối đa 2.000.000 ! Chia ra nhiều hạng thẻ mà mức rút tiền được cao hơn.","can_remove":false,"created_time":"2014-04-10T15:32:20+0000","like_count":0,"user_likes":false},"848965075120171":{"id":"848965075120171","from":{"id":"100002508122689","name":"Vũ Mạnh Tuấn"},"message":"Chợ Zời Nhật Bản có biết các ngân hàng khác thì thế nào k. làm thế nào để rút đc nhiều tiền hơn mỗi lần","message_tags":[{"id":"100007881153474","name":"Chợ Zời Nhật Bản","type":"user","offset":0,"length":16}],"can_remove":false,"created_time":"2014-04-10T15:34:53+0000","like_count":0,"user_likes":false},"848965551786790":{"id":"848965551786790","from":{"id":"100007881153474","name":"Chợ Zời Nhật Bản"},"message":"Do mệnh giá thẻ của bạn khi mở thẻ. Thẻ mở tại ngân hàng nào ?","can_remove":false,"created_time":"2014-04-10T15:35:53+0000","like_count":0,"user_likes":false},"848965835120095":{"id":"848965835120095","from":{"id":"100002508122689","name":"Vũ Mạnh Tuấn"},"message":"mình viết trên bài đăng rồi mà.Thẻ do Sumimoto Mitsui Banking Corporation ( SMBC )  Nhật Bản cấp.","can_remove":false,"created_time":"2014-04-10T15:36:43+0000","like_count":0,"user_likes":false},"848967561786589":{"id":"848967561786589","from":{"id":"100007881153474","name":"Chợ Zời Nhật Bản"},"message":"Thẻ mở tại ngân hàng nước ngoài thì mình ko nắm rõ. Nhưng nếu mở tại nước ngoài rút tại vn thì phí của VCB là rẻ nhất rồi đấy bạn ạ. Sang anz, citibank hay hsbc thì phí rất cao.","can_remove":false,"created_time":"2014-04-10T15:40:27+0000","like_count":0,"user_likes":false},"848971055119573":{"id":"848971055119573","from":{"id":"1820079981","name":"Nguyễn Hải"},"message":"K biết thế nào bạn thử kêu thầy chọn rút tiền rồi chọn số khác rồi rút 5tr xem đc k. Mình đang dùng của VCB cũng rút đc 5tr mỗi lần.","can_remove":false,"created_time":"2014-04-10T15:46:11+0000","like_count":0,"user_likes":false},"848974998452512":{"id":"848974998452512","from":{"id":"100002508122689","name":"Vũ Mạnh Tuấn"},"message":"thầy toàn rút ngân hàng mà cũng chỉ đc max 2 tr đó Hải Nguyễn ạ :3\n\nChợ Zời Nhật Bản cảm ơn đã tư vấn :D","message_tags":[{"id":"1820079981","name":"Hải Nguyễn","type":"user","offset":51,"length":10},{"id":"100007881153474","name":"Chợ Zời Nhật Bản","type":"user","offset":68,"length":16}],"can_remove":false,"created_time":"2014-04-10T15:54:44+0000","like_count":2,"user_likes":false},"848994248450587":{"id":"848994248450587","from":{"id":"100002853438802","name":"Thanh Thu"},"message":"Theo mình thấy nếu dùng thẻ của Vietcom Bank thì rút đc tới 5 triệu tai ATM của ngân hàng Vietcom Bank. Tuy nhiên dùng thẻ của ngân hàng khác rút thì tối đa chỉ đc 2 triệu thôi bạn a.","can_remove":false,"created_time":"2014-04-10T16:30:26+0000","like_count":2,"user_likes":false},"848994718450540":{"id":"848994718450540","from":{"id":"100002508122689","name":"Vũ Mạnh Tuấn"},"message":"vậy ah. Cảm ơn Thanh Thu ^_^","can_remove":false,"created_time":"2014-04-10T16:31:34+0000","like_count":0,"user_likes":false},"848997035116975":{"id":"848997035116975","from":{"id":"100002853438802","name":"Thanh Thu"},"message":"とんでもない :)","can_remove":false,"created_time":"2014-04-10T16:33:29+0000","like_count":0,"user_likes":false},"849020855114593":{"id":"849020855114593","from":{"id":"100007881153474","name":"Chợ Zời Nhật Bản"},"message":"Agribank làm gì có thẻ tín dụng thanh toán quốc tế.","can_remove":false,"created_time":"2014-04-10T17:15:54+0000","like_count":0,"user_likes":false},"849023881780957":{"id":"849023881780957","from":{"id":"100002508122689","name":"Vũ Mạnh Tuấn"},"message":"Naga Nguyen ơi, rút đc mấy triệu 1 lần thế , ở agribank ý","can_remove":false,"created_time":"2014-04-10T17:22:49+0000","like_count":0,"user_likes":false},"849024361780909":{"id":"849024361780909","from":{"id":"100002508122689","name":"Vũ Mạnh Tuấn"},"message":"thế thì ngon hơn là 2 tr roài. sẽ thử :D","can_remove":false,"created_time":"2014-04-10T17:24:10+0000","like_count":0,"user_likes":false},"849036051779740":{"id":"849036051779740","from":{"id":"100007881153474","name":"Chợ Zời Nhật Bản"},"message":"Hóng cái vụ agribank xem sao vì mình chưa hình dung ra khác quốc gia và ko có hệ thống thẻ thanh toán quốc tế thì rút sao đc nhỉ.","can_remove":false,"created_time":"2014-04-10T17:51:49+0000","like_count":0,"user_likes":false},"849344401748905":{"id":"849344401748905","from":{"id":"100001156666759","name":"Kenshuu Steam"},"message":"lên trực tiếp ngân hàng mà hỏi, Vietcombank rút tối đa 1 lần là 5tr đấy, còn tùy vào loại tiền cơ vì nó có giới hạn số tờ tiền được rút trong 1 lần hoặc tối đa 5tr","can_remove":false,"created_time":"2014-04-11T06:23:13+0000","like_count":0,"user_likes":false},"849391098410902":{"id":"849391098410902","from":{"id":"100002508122689","name":"Vũ Mạnh Tuấn"},"message":"thầy giáo em rút tiền ở ngân hàng Vietcom bank mà, có rút ATM đâu Kenshuu Steam","message_tags":[{"id":"100001156666759","name":"Kenshuu Steam","type":"user","offset":66,"length":13}],"can_remove":false,"created_time":"2014-04-11T08:51:45+0000","like_count":0,"user_likes":false},"849615751721770":{"id":"849615751721770","from":{"id":"729237579","name":"Hang Moon"},"message":"bạn chụp đc cái bill chưa m xem","can_remove":false,"created_time":"2014-04-11T17:03:40+0000","like_count":0,"user_likes":false},"849617945054884":{"id":"849617945054884","from":{"id":"100002508122689","name":"Vũ Mạnh Tuấn"},"message":"Hang Moon: nay mình k qua nhà thầy đc vì phải đi học, gomen. \n\nHôm nay cũng đã nhờ ng đến chi nhánh smbc HN hỏi, cơ mà họ bảo là bên họ chưa cung cấp dịch vụ cho khách hàng cá nhân.\n\nmình sẽ post lên sớm nhất có thể","can_remove":false,"created_time":"2014-04-11T17:05:38+0000","like_count":0,"user_likes":false},"850066608343351":{"id":"850066608343351","from":{"id":"1794153054","name":"Thư Anh"},"message":"mình hiểu ý của bạn Vũ Mạnh Tuấn rồi, ý bạn là thầy giáo của bạn ra ngân hàng vietcombank rút tiền, không phải rút bằng ATM, cũng không phải rút ở quầy giao dịch, mà rút bằng máy POS. Cái này là do máy POS áp dụng mức tối đa rút là 2tr/lần, còn phí rút tiền là do rút khác ngân hàng.","message_tags":[{"id":"100002508122689","name":"Vũ Mạnh Tuấn","type":"user","offset":20,"length":12}],"can_remove":false,"created_time":"2014-04-12T08:00:39+0000","like_count":0,"user_likes":false},"850082761675069":{"id":"850082761675069","from":{"id":"100002508122689","name":"Vũ Mạnh Tuấn"},"message":"theo như thầy nói thì là qua quầy giao dịch chứ k phải rút máy :\"(","can_remove":false,"created_time":"2014-04-12T08:49:41+0000","like_count":0,"user_likes":false}},"paging":{"cursors":{"after":"ODQ4OTI4NDQ1MTIzODM0","before":"ODQ4OTI4NDQ1MTIzODM0"},"next":"https://graph.facebook.com/229244010425617_848926581790687/comments?limit=1&summary=1&after=ODQ4OTI4NDQ1MTIzODM0"},"summary":{"order":"chronological","total_count":57}}}