{"id":"229244010425617_848912548458757","type":"photo","object_id":"512149348895052","picture":"https://fbcdn-photos-e-a.akamaihd.net/hphotos-ak-prn2/t1.0-0/1660382_512149348895052_5112869482207882314_s.jpg","link":"https://www.facebook.com/photo.php?fbid=512149348895052&set=gm.848912548458757&type=1&relevant_count=1","from":{"id":"100002999756689","name":"Lắng Nghe"},"message":"Chuyên Mục: Đóng Góp Ý Kiến Xây Dựng Cộng Đồng Việt Nhật.\n★Xin tự giới thiệu mình là men mới cứng của kỳ tháng 1 năm nay.\n★Gần đây có rất nhiều bản tin đưa tin du học sinh,thực tập sinh,tu nghiệp sinh,thậm chí cả tiếp viên hàng không :trộm cắp,chém giết,lợi dụng lừa tiền của nhau,lối cư sử thiếu văn hóa.... của người Việt Nam.\n★Và nguồn gốc và nguyên nhân của những hiện trạng nhức nhối trên là\n+ 1 bước lên tiên của bọn môi giới.\n+ Thiếu kiến thức về du học tự túc,nhiều men \" thích thì đi\"\n+ sang nhật khi trình độ tiếng đang ở あ、い、う、え、お。\n+ Một số thành phần hám lợi,ham của,cam tâm lừa lọc bà con hoặc có cơ hội và trôm luôn.\n+ Một số thành phần khác lại thiếu văn hóa đã đi sâu vào nếm nhăn của não.\n=> Những thành phần trên rất rễ túng quẫn làm liều hoặc vô ý thức và văn hóa 1 cách thực sự.\n★Dừng lại ở việc bàn nguyên nhân và nguồn gốc vì đã có rất nhiều men đã pase bài tương tự và chúng ta đi đến giải pháp.\n★Ghé quá tường nhà của cộng đồng Việt Nhật thì đã được xây bởi 3vạn gạch ( số lượng thành viên) + số người tham gia pase bài và \" chém gió\" thì quả là 1 con số khá ấn tượng.Mà ông cha ta nói chí phải \n\" Một cây làm chẳng nên non\nBa cây chụm lại lên hòn núi cao\"\n=> giá trị của sự tích lũy là rất lớn( mỗi người đóng góp một chút sức mình = 1 hòn núi cao) và phải chăng Công Đồng Việt Nhật đang hơi lãng phí chăng???\n★Mình xin đề xuất luôn ý kiến và kế hoạch của mình.Và mình đặt tên cho nó là \"TAY TO\".Hiện tại trang Cộng đồng việt nhật hơn lộn xộn: học tập + tư vấn + công việc+ bản tin thời sự nhức nhối....\n★Và mình muốn mở rộng phạm vi hoạt động của Cộng Đồng ,lập trang fb để phân chia các mảng rõ ràng nhằm tạo điều kiện phát triển cho các mảng.\n+ Trang chủ. Là trang hiện tại dùng để chia sẻ + tư vấn du học+ các bản tin thời sự + chia sẻ của các thành viên trong Cộng Đồng Việt Nhật.\n+ Trang học tập: mình thấy cái này chưa làm tốt lắm,hơi lộn xộn,chia sẻ theo cảm hứng,và gần như dành cho các cấp độ cao-> 1 số bạn học thấp,tham khảo được tý nào hay tý đó.Học onlie( chia sẻ kiến thức phù hợp với từng trình độ+ giải đáp những câu hỏi của các bạn học)+ kết hợp học oflie(lập các nhóm nhỏ gần nhau có cùng trình độ và các nhóm tự hoạt động dưới sự hướng dẫn  của bạn quản trị,Nếu có tình nguyện viên nữa thì tuyệt vời ông mặt trời.hj\n+ Trang việc làm \" NÓI KHÔNG VỚI SOKAI\" chia sẻ,giúp đỡ nhau công việc phù hợp với từng trình độ và khả năng của từng người.tạo điều kiện và môi trường cho những người thực sự muốn giúp đỡ người khác và những bạn đang gặp khó khăn về việc làm.\n+ Tổ chức các buổi oflie của Cộng Đồng Việt Nhật nhằm xây dựng hình ảnh + giới thiệu văn hóa người Việt Nam+hội thảo du học giúp các bạn HIỂU ĐÚNG thế nào là \"Du Học Nhật Bản\"+ giúp đỡ nhưng bạn đang gặp khó khăn.\n*** Đó là ý kiến cá nhân của mình.những mảng ko tốn mất nhiều thời gian của mọi người lắm vì chủ yếu là onlie nhưng hãy để cho nó đem lại GIÁ TRỊ THỰC.\n★Và mình biết đây là việc không dễ dàng ,nhất là thời gian đầu.Nhưng quan điểm của mình là nếu nó ĐÚNG+ KHẢ THI thì nhất định mình sẽ làm dù có khó khăn đến đâu( MỖI KHI GẶP KHÓ KHĂN MÌNH LẠI TĂNG CÂN).\n★Để khỏi mang tiếng là ba hoa chích chòe như một số người : e xin đăng ký thực hiện mảng Học Tập nhé các Ad.hj( dù hiện tại trình đang rất gà)\nP/S: Cuối bài mình muốn lời muốn gửi gắm đến tất cả mọi người\" Tôi có 1 VIỆT NAM để YÊU và TỰ HÀO và tôi tin chắc các bạn cũng vậy\"\nVà mình cũng đang có dự định xây biệt thự ,mình cần mượn 3vạn gạch của CỘNG ĐỒNG VIỆT NHẬT.hj.\n............Xin Hết Ạ..........","created_time":"2014-04-10T14:10:13+0000","updated_time":"2014-04-16T15:43:18+0000","likes":{"data":{"100004965278923":{"id":"100004965278923","name":"Chuông Gió"},"100003553243152":{"id":"100003553243152","name":"Oanh Nguyen"},"100004027934477":{"id":"100004027934477","name":"Tran Gia Trang"},"100006369543422":{"id":"100006369543422","name":"Chuối Hoa"},"100003841915569":{"id":"100003841915569","name":"Quang Hợp"},"100003474980811":{"id":"100003474980811","name":"Bitter Coffee"},"100000045271667":{"id":"100000045271667","name":"Nam Thai Nguyen"},"100002853230995":{"id":"100002853230995","name":"Nguyễn Vân"},"100002714843086":{"id":"100002714843086","name":"Kute Tina"},"100003913383051":{"id":"100003913383051","name":"Tho Tran"},"100000603915176":{"id":"100000603915176","name":"悪いな ぁ"},"100002959135962":{"id":"100002959135962","name":"Duong Nguyen Van"},"100001057467030":{"id":"100001057467030","name":"Buông Tay"},"100002428163247":{"id":"100002428163247","name":"Trần Đức Hùng"},"100004424070830":{"id":"100004424070830","name":"Trang Nguyen"},"100003587314679":{"id":"100003587314679","name":"Why Die"},"100004302398685":{"id":"100004302398685","name":"Toan Duong"},"100003275658608":{"id":"100003275658608","name":"Đỗ Hữu Phúc"},"100001467937129":{"id":"100001467937129","name":"Nhân Nguyễn"},"100003253770705":{"id":"100003253770705","name":"Nguyễn Phương Cúc"},"100000022163023":{"id":"100000022163023","name":"Kafe Ore"},"100001416272263":{"id":"100001416272263","name":"Mai PB"},"1725907325":{"id":"1725907325","name":"Nguyen Van Dung"},"100000019126977":{"id":"100000019126977","name":"Nguyen Thi Ngoc Anh"},"100008033654317":{"id":"100008033654317","name":"Nỗi Lòng Xa Xứ"},"100001574904046":{"id":"100001574904046","name":"Cuong Truong Van"},"100006095353806":{"id":"100006095353806","name":"Gia Han Le"},"100004864140163":{"id":"100004864140163","name":"Trà Đá"},"100006621158590":{"id":"100006621158590","name":"Ri Bi"}},"paging":{"cursors":{"after":"MTAwMDA0OTY1Mjc4OTIz","before":"MTAwMDA0OTY1Mjc4OTIz"},"next":"https://graph.facebook.com/229244010425617_848912548458757/likes?limit=1&summary=1&after=MTAwMDA0OTY1Mjc4OTIz"},"summary":{"total_count":29}},"comments":{"data":{"848915825125096":{"id":"848915825125096","from":{"id":"100001574904046","name":"Cuong Truong Van"},"message":"cho ông một viên nhé,... nghiêm túc he.","can_remove":false,"created_time":"2014-04-10T14:16:50+0000","like_count":2,"user_likes":false},"848915845125094":{"id":"848915845125094","from":{"id":"100004864140163","name":"Trà Đá"},"message":"Nói hay đó bạn","can_remove":false,"created_time":"2014-04-10T14:16:52+0000","like_count":0,"user_likes":false},"848915985125080":{"id":"848915985125080","from":{"id":"100004864140163","name":"Trà Đá"},"message":"Mà bạn đang ở việt hay ở nhật","can_remove":false,"created_time":"2014-04-10T14:17:14+0000","like_count":0,"user_likes":false},"848917081791637":{"id":"848917081791637","from":{"id":"100002999756689","name":"Lắng Nghe"},"message":"Mình đang ở nhật.chứng tỏ chưa đọc kỹ bài của mình rùi.","can_remove":false,"created_time":"2014-04-10T14:18:37+0000","like_count":1,"user_likes":false},"848917568458255":{"id":"848917568458255","from":{"id":"100004864140163","name":"Trà Đá"},"message":"Có mà , thấy cái không sokai là cũng hiểu","can_remove":false,"created_time":"2014-04-10T14:19:42+0000","like_count":0,"user_likes":false},"848917641791581":{"id":"848917641791581","from":{"id":"100004864140163","name":"Trà Đá"},"message":"Nhưng tại …","can_remove":false,"created_time":"2014-04-10T14:19:52+0000","like_count":0,"user_likes":false},"848917705124908":{"id":"848917705124908","from":{"id":"100004864140163","name":"Trà Đá"},"message":"Thông tin cá nhân k thấy ghi ở đây","can_remove":false,"created_time":"2014-04-10T14:20:09+0000","like_count":0,"user_likes":false},"848918081791537":{"id":"848918081791537","from":{"id":"100004864140163","name":"Trà Đá"},"message":"Nhưng nói zi thì nói mình cũng thích bạn zui đó","can_remove":false,"created_time":"2014-04-10T14:21:07+0000","like_count":1,"user_likes":false},"848918481791497":{"id":"848918481791497","from":{"id":"100008033654317","name":"Nỗi Lòng Xa Xứ"},"message":"bai bạn viêt rat hay minh ủng hộ nên minh ko cho bạn gạch","can_remove":false,"created_time":"2014-04-10T14:22:14+0000","like_count":1,"user_likes":false},"848918508458161":{"id":"848918508458161","from":{"id":"100002999756689","name":"Lắng Nghe"},"message":"Cảm ơn bạn.nếu bạn có thể chung tay góp sức thì vui hơn nữa.","can_remove":false,"created_time":"2014-04-10T14:22:23+0000","like_count":1,"user_likes":false},"848919245124754":{"id":"848919245124754","from":{"id":"100008033654317","name":"Nỗi Lòng Xa Xứ"},"message":"minh rat muon jiup nhung minh co the jiup dc j đây","can_remove":false,"created_time":"2014-04-10T14:23:57+0000","like_count":1,"user_likes":false},"848919325124746":{"id":"848919325124746","from":{"id":"100008033654317","name":"Nỗi Lòng Xa Xứ"},"message":"tiêng nhật minh rất kem","can_remove":false,"created_time":"2014-04-10T14:24:14+0000","like_count":0,"user_likes":false},"848919978458014":{"id":"848919978458014","from":{"id":"1725907325","name":"Nguyen Van Dung"},"message":"vấn đề bạn đưa ra rất hay và thực tế. Tuy nhiên,một vài admin đang làm web cho cộng đồng rồi thì phải, bạn và mọi người cố đợi thêm \"tẹo nữa\" ^^! ( ko phải mình)","can_remove":false,"created_time":"2014-04-10T14:25:19+0000","like_count":3,"user_likes":false},"848920345124644":{"id":"848920345124644","from":{"id":"100007917634982","name":"Cry Cry"},"message":"Mình thích vụ off","can_remove":false,"created_time":"2014-04-10T14:26:08+0000","like_count":2,"user_likes":false},"848921088457903":{"id":"848921088457903","from":{"id":"100002999756689","name":"Lắng Nghe"},"message":"Bác Nguyen Van Dung,e là hâm mộ bác lắm đó.e đã xem video hướng dẫn phát âm của bác với a người nhật.hj.","can_remove":false,"created_time":"2014-04-10T14:28:00+0000","like_count":0,"user_likes":false},"848922221791123":{"id":"848922221791123","from":{"id":"100002999756689","name":"Lắng Nghe"},"message":"Nỗi Lòng Xa Xứ bạn có thể giúp các mảng phù hợp khả năng của bạn.hj","message_tags":[{"id":"100008033654317","name":"Nỗi Lòng Xa Xứ","type":"user","offset":0,"length":14}],"can_remove":false,"created_time":"2014-04-10T14:30:36+0000","like_count":0,"user_likes":false},"848923278457684":{"id":"848923278457684","from":{"id":"1725907325","name":"Nguyen Van Dung"},"message":"có gì  mà hâm mộ. Phát âm sai toe toét cả đấy, đừng có mà tin, đừng có mà nghe. :V","can_remove":false,"created_time":"2014-04-10T14:32:35+0000","like_count":2,"user_likes":false},"848924021790943":{"id":"848924021790943","from":{"id":"100002999756689","name":"Lắng Nghe"},"message":"Cry Cry ,vậy Cộng đồng cần bạn giúp 1 tay vụ off rùi.hj.","can_remove":false,"created_time":"2014-04-10T14:34:17+0000","like_count":0,"user_likes":false},"848924915124187":{"id":"848924915124187","from":{"id":"100002999756689","name":"Lắng Nghe"},"message":"Bác lại khiêm tốn rùi.Bác tay to thế này ,chắc mảng nào cũng có thể giúp được Cộng Đồng Việt Nhật rùi???hj.","can_remove":false,"created_time":"2014-04-10T14:36:04+0000","like_count":0,"user_likes":false},"848925995124079":{"id":"848925995124079","from":{"id":"100001583529210","name":"Nguyễn Kim Hà"},"message":"Sao các mem thích off thế?^^ mở 1 vụ off cho mem thì các mem đi không?^^","can_remove":false,"created_time":"2014-04-10T14:38:26+0000","like_count":1,"user_likes":false},"848927045123974":{"id":"848927045123974","from":{"id":"100002999756689","name":"Lắng Nghe"},"message":"Vấn đề là off vì mục đích gì thui Nguyễn Kim Hà???","can_remove":false,"created_time":"2014-04-10T14:40:09+0000","like_count":0,"user_likes":false},"848927101790635":{"id":"848927101790635","from":{"id":"100004864140163","name":"Trà Đá"},"message":"Có đk thì đi zui ,chủ yếu là phải gần nhau","can_remove":false,"created_time":"2014-04-10T14:40:20+0000","like_count":0,"user_likes":false},"848927901790555":{"id":"848927901790555","from":{"id":"100001583529210","name":"Nguyễn Kim Hà"},"message":"Off vì chuyên mục của bạn chẳng hạn? Nếu có nhiều mem đồng ý^^","can_remove":false,"created_time":"2014-04-10T14:42:05+0000","like_count":1,"user_likes":false},"848929458457066":{"id":"848929458457066","from":{"id":"100002999756689","name":"Lắng Nghe"},"message":"Vậy cần Nguyễn Kim Hà tay bưng nước dót rùi.haha【冗談だけ】","can_remove":false,"created_time":"2014-04-10T14:45:02+0000","like_count":0,"user_likes":false},"848933938456618":{"id":"848933938456618","from":{"id":"1725907325","name":"Nguyen Van Dung"},"message":"tay em có như \"chim sẻ hay hưng nhổn\" đâu mà cân được bản đồ .:V","can_remove":false,"created_time":"2014-04-10T14:47:49+0000","like_count":1,"user_likes":false},"848942368455775":{"id":"848942368455775","from":{"id":"100002999756689","name":"Lắng Nghe"},"message":"Bác lại lôi từ ngữ chuyên ngành ra rùi.nói nhỏ \" e cũng khoái khoản này lắm đó\" he.","can_remove":false,"created_time":"2014-04-10T14:50:01+0000","like_count":1,"user_likes":false},"848942838455728":{"id":"848942838455728","from":{"id":"100007917634982","name":"Cry Cry"},"message":"2 tay :))","can_remove":false,"created_time":"2014-04-10T14:51:17+0000","like_count":1,"user_likes":false},"848944531788892":{"id":"848944531788892","from":{"id":"100002999756689","name":"Lắng Nghe"},"message":"Vậy chắc mình phải yêu cầu các ad memo tên các bạn cho đỡ quên.hehe.","can_remove":false,"created_time":"2014-04-10T14:54:50+0000","like_count":0,"user_likes":false},"848962071787138":{"id":"848962071787138","from":{"id":"100000500260636","name":"Lưu Nguyễn Thảo Tiên"},"message":"Bạn cứ trồi lên hoài đc nhớ mặt cơ!","can_remove":false,"created_time":"2014-04-10T15:30:43+0000","like_count":1,"user_likes":false},"848964525120226":{"id":"848964525120226","from":{"id":"100002999756689","name":"Lắng Nghe"},"message":"Men cứng của group có phải đây ko ta??? Bị thích cái điệu cười của bạn mất rùi? Hj","can_remove":false,"created_time":"2014-04-10T15:33:32+0000","like_count":1,"user_likes":false},"848987871784558":{"id":"848987871784558","from":{"id":"100007797156820","name":"Sói Già"},"message":"mem nào .admin rùi .thần tượng của tôi đấy","can_remove":false,"created_time":"2014-04-10T16:15:12+0000","like_count":0,"user_likes":false},"849017171781628":{"id":"849017171781628","from":{"id":"100000500260636","name":"Lưu Nguyễn Thảo Tiên"},"message":"Ủa vại hả? Điệu cười ớ? Dòm thế nào mà thích vại? Chắc lại thêm 1 ng bị lừa tềnh.","can_remove":false,"created_time":"2014-04-10T17:05:51+0000","like_count":0,"user_likes":false},"849027045113974":{"id":"849027045113974","from":{"id":"100000603915176","name":"悪いな ぁ"},"message":"Lưu Nguyễn Thảo Tiên mất 6.8 man để đc cơ cấu lên admin đấy, chơi sang cực :3","message_tags":[{"id":"100000500260636","name":"Lưu Nguyễn Thảo Tiên","type":"user","offset":0,"length":20}],"can_remove":false,"created_time":"2014-04-10T17:30:38+0000","like_count":0,"user_likes":false},"849027661780579":{"id":"849027661780579","from":{"id":"100000500260636","name":"Lưu Nguyễn Thảo Tiên"},"message":"Ai mất cơ?","can_remove":false,"created_time":"2014-04-10T17:31:48+0000","like_count":0,"user_likes":false},"849028241780521":{"id":"849028241780521","from":{"id":"100000500260636","name":"Lưu Nguyễn Thảo Tiên"},"message":"Chú nói cháu là răng khểnh nịnh bợ mà quên zồi à, chỉ cần trồi mặt và nịnh thoai","can_remove":false,"created_time":"2014-04-10T17:32:21+0000","like_count":0,"user_likes":false},"849028451780500":{"id":"849028451780500","from":{"id":"100000603915176","name":"悪いな ぁ"},"message":"Dưng mừ vẫn phải mất tiền, cháu có phải con ông cháu cha đâu mà không mất :v","can_remove":false,"created_time":"2014-04-10T17:32:55+0000","like_count":0,"user_likes":false},"849028815113797":{"id":"849028815113797","from":{"id":"100000500260636","name":"Lưu Nguyễn Thảo Tiên"},"message":"Cái gì free thì hưởng thoai mất tiền ngoảnh đít","can_remove":false,"created_time":"2014-04-10T17:33:51+0000","like_count":0,"user_likes":false},"849029065113772":{"id":"849029065113772","from":{"id":"100000603915176","name":"悪いな ぁ"},"message":"Keo kiệt cẩn thận mất chức đới ;)","can_remove":false,"created_time":"2014-04-10T17:34:31+0000","like_count":0,"user_likes":false},"849090028441009":{"id":"849090028441009","from":{"id":"100002999756689","name":"Lắng Nghe"},"message":"2 cái con người vô zuyên khủng khiếp này ,bàn bài viết của e đê???nhưng mà hỏi nhỏ a 悪いなぁ tý,cứ cơ cấu 6,8man là thành ad cứng như cô đang cười xinh xinh kia ak?:)*-*)","can_remove":false,"created_time":"2014-04-10T20:15:45+0000","like_count":1,"user_likes":false},"849166341766711":{"id":"849166341766711","from":{"id":"100000500260636","name":"Lưu Nguyễn Thảo Tiên"},"message":"Ọc ọc thế thì tui chui vô làm ad lâu rồi chứ đợi mấy tháng chi. Viết bài chi. Lão ấy cú vì k đc làm ad dù phong bì tận 10man đấy ấy ơi.","can_remove":false,"created_time":"2014-04-10T23:20:17+0000","like_count":2,"user_likes":false},"849183525098326":{"id":"849183525098326","from":{"id":"100002853230995","name":"Nguyễn Vân"},"message":"Em tán dương bài viết này. Và e thấy đáng khinh cho những người dám cười nhạo bài viết này. Du học tự túc thực sự rất vất vả. Có thể ví như xuống địa ngục để thử lửa niềm tin và ý chí. Nhưng vì sao, vì sao mà Việt Nam của những năm về trc lại làm nên thành tích, còn bây giờ lại làm xấu hơn hình ảnh Việt Nam mình??? Tại sao ở Việt Nam lại có những người nhẫn tâm vẽ \"con đường màu hồng\" cho họ, nào là \"du học Nhật Bản cơ hội cho học sinh nghèo\", nào là ko đậu đại học cũng có thể đi du học,...bla bla. Mỗi ngày, khi nghe ng Nhật hay ng ngoại quốc nói về người Việt xấu, e đều phải cúi đầu \"どうもすみません。\" và thấy xấu hổ thay cho dân tộc mình. Lỗi của ng việt, mình cũng là ng Việt và mình nhận lỗi. Đã từng học đc điều đó từ 店長 của mình. Vậy nên các bạn, mỗi khi làm một điều gì đó xấu, hãy nghĩ về chú g mình, khi ngày ngày lại phải cúi đầu vì mình là người việt, và nghĩ về kohai, để ko có ngày ng ta treo biển \"ko nhận người Việt\". Như thế có đáng ko? Học tốt nhé mọi người, cùng nhau cố gắng sẽ làm đc thôi!","can_remove":false,"created_time":"2014-04-10T23:54:40+0000","like_count":4,"user_likes":false},"849228911760454":{"id":"849228911760454","from":{"id":"100002999756689","name":"Lắng Nghe"},"message":"Mình chỉ đồng ý với bạn Nguyễn Vân 1 nửa comemt trên.theo mình ko phải cúi đầu và xin lỗi vì những việc đó chúng ta không có làm ak.quan điểm rõ ràng nhé: ở đâu cũng có người người kia,còn rất nhiều người tốt như các ad đây chẳng hạn( chém gió hj) chỉ là việt nam có nhiều hơn 1 chút. Nên chúng ta mới phải ngồi đầy và đưa ra cách giải quyết.( dù ai nói ngả nói nghiêng,lòng ta vẫn vững như kiềng 4 chân cho chắc)hãy luôn ngẩng cao đầu mà sống nhé! Hj.","can_remove":false,"created_time":"2014-04-11T01:17:02+0000","like_count":1,"user_likes":false},"849236035093075":{"id":"849236035093075","from":{"id":"100002999756689","name":"Lắng Nghe"},"message":"Lưu Nguyễn Thảo Tiên , phát hiện trong CĐVN có cảnh \"bưng bít, đót lót \"nhé. Mà đi cửa nào vậy bạn???haha","can_remove":false,"created_time":"2014-04-11T01:20:14+0000","like_count":0,"user_likes":false},"849236408426371":{"id":"849236408426371","from":{"id":"100007917634982","name":"Cry Cry"},"message":"Cửa sau :))","can_remove":false,"created_time":"2014-04-11T01:20:47+0000","like_count":0,"user_likes":false},"849236678426344":{"id":"849236678426344","from":{"id":"100007917634982","name":"Cry Cry"},"message":"Ăn thôi","can_remove":false,"created_time":"2014-04-11T01:21:17+0000","like_count":0,"user_likes":false},"849237598426252":{"id":"849237598426252","from":{"id":"100002999756689","name":"Lắng Nghe"},"message":"Èo. Ko ngon bằng dưa hấu việt nam roai? Xia xỉa. He.","can_remove":false,"created_time":"2014-04-11T01:24:02+0000","like_count":0,"user_likes":false},"849264975090181":{"id":"849264975090181","from":{"id":"100003841915569","name":"Quang Hợp"},"message":"Hay đấy. Làm luôn đi.","can_remove":false,"created_time":"2014-04-11T02:41:57+0000","like_count":0,"user_likes":false},"849266975089981":{"id":"849266975089981","from":{"id":"100000500260636","name":"Lưu Nguyễn Thảo Tiên"},"message":"Hợ bạn cứ trồi lên đi rồi tính :))) cả hội động chứ hông phải mềnh tui","can_remove":false,"created_time":"2014-04-11T02:47:45+0000","like_count":1,"user_likes":false},"849276888422323":{"id":"849276888422323","from":{"id":"100002999756689","name":"Lắng Nghe"},"message":"Vậy là hình thức \"phạm tội \"có tổ chức đây???","can_remove":false,"created_time":"2014-04-11T03:10:47+0000","like_count":0,"user_likes":false},"852762544740424":{"id":"852762544740424","from":{"id":"100001416272263","name":"Mai PB"},"message":"https://www.facebook.com/notes/769413259742020","can_remove":false,"created_time":"2014-04-16T15:43:18+0000","like_count":0,"user_likes":false}},"paging":{"cursors":{"after":"ODQ4OTE1ODI1MTI1MDk2","before":"ODQ4OTE1ODI1MTI1MDk2"},"next":"https://graph.facebook.com/229244010425617_848912548458757/comments?limit=1&summary=1&after=ODQ4OTE1ODI1MTI1MDk2"},"summary":{"order":"chronological","total_count":50}}}