{"id":"229244010425617_848965865120092","type":"photo","object_id":"534527943333355","picture":"https://fbcdn-photos-c-a.akamaihd.net/hphotos-ak-prn1/t1.0-0/1560541_534527943333355_3270275989468397840_s.jpg","link":"https://www.facebook.com/photo.php?fbid=534527943333355&set=gm.848965865120092&type=1&relevant_count=1","from":{"id":"100003284633130","name":"Phap Le"},"message":"Các bạn đi xe đạp chú ý nhé","created_time":"2014-04-10T15:36:49+0000","updated_time":"2014-04-11T16:25:38+0000","likes":{"data":{"100002615664668":{"id":"100002615664668","name":"PuPu Phương Elf"},"100004024391657":{"id":"100004024391657","name":"Khóc Trong Mưa"},"100000012424353":{"id":"100000012424353","name":"Dinh Thi Mai Loan"},"1488637282":{"id":"1488637282","name":"TonThat Nam"},"100004737102326":{"id":"100004737102326","name":"Vũ Thắnq"},"100004115894253":{"id":"100004115894253","name":"Đi Tìm Thất Bại"},"100003747827381":{"id":"100003747827381","name":"Dấu Chấm Hết"},"100006364359320":{"id":"100006364359320","name":"Chiếc Áo Cô Đơn"},"100001432462223":{"id":"100001432462223","name":"Truong Nguyen"},"100002978237989":{"id":"100002978237989","name":"Dac Sply"},"100004135781791":{"id":"100004135781791","name":"Vũ Thế Anh"},"100001337423715":{"id":"100001337423715","name":"Magicminx Kripton"},"100000042881160":{"id":"100000042881160","name":"Nguyen van Hien"},"100001881609794":{"id":"100001881609794","name":"Thao Nguyen"},"100003884160906":{"id":"100003884160906","name":"Thảo Lê"},"100001993996012":{"id":"100001993996012","name":"Ngoc Bich"},"100005559850110":{"id":"100005559850110","name":"Leo Vl Codonvc"},"100005308082814":{"id":"100005308082814","name":"Yuki Lee"},"100005200064085":{"id":"100005200064085","name":"Lan Anh Pham"},"100000489603204":{"id":"100000489603204","name":"Cao XH Diệp"},"100004613823453":{"id":"100004613823453","name":"Nguyen Huu Vuong"},"100002865793814":{"id":"100002865793814","name":"Nguyễn Xuân"},"100005307004792":{"id":"100005307004792","name":"Kiều Văn"},"100001593935792":{"id":"100001593935792","name":"Khac Trinh"},"100000435326435":{"id":"100000435326435","name":"Vân Vớ Vẩn"},"100001701546980":{"id":"100001701546980","name":"Huỳnh Hữu Thể"},"100000942734562":{"id":"100000942734562","name":"Hidekatsu Tomoi"},"1303217748":{"id":"1303217748","name":"Trinh Thi Thanh Duyen"},"100001284703208":{"id":"100001284703208","name":"Ba Duy"},"100006307596308":{"id":"100006307596308","name":"Khi Nào Đổi Thay"},"100007532194991":{"id":"100007532194991","name":"Cường Tố Môshimasu"},"100003132750382":{"id":"100003132750382","name":"Trung Quân"},"100005145330760":{"id":"100005145330760","name":"Sơn Vũ"},"100001904804991":{"id":"100001904804991","name":"Toàn Lưu Xuân"},"100007552054035":{"id":"100007552054035","name":"Hưng Koy"},"100003686602180":{"id":"100003686602180","name":"Linh Pham"},"100001840875327":{"id":"100001840875327","name":"Phạm Chí Long"},"100004991023027":{"id":"100004991023027","name":"Hien Kute"},"100000282860891":{"id":"100000282860891","name":"Do Thien Loc"},"100001397957914":{"id":"100001397957914","name":"Tam Tit"},"100006459642094":{"id":"100006459642094","name":"Yêu Anh Nhé"},"100003281774880":{"id":"100003281774880","name":"Thien Tuan"},"100001870763372":{"id":"100001870763372","name":"Chang Trai Da Cam"},"100000131752860":{"id":"100000131752860","name":"Azumi Hiname"},"100002820525919":{"id":"100002820525919","name":"Papy Cry"},"100005696525096":{"id":"100005696525096","name":"Be Heo Beo"},"100000062053263":{"id":"100000062053263","name":"Duy Uma"},"100005828342497":{"id":"100005828342497","name":"Bee Boo"},"100002975299796":{"id":"100002975299796","name":"Trinh Tuan Anh"},"100002147884296":{"id":"100002147884296","name":"Ngoc Tran"},"100004045178866":{"id":"100004045178866","name":"Bộ Trưởng Cốt"},"100007253222055":{"id":"100007253222055","name":"Nguyễn Việt Dương Hà"},"100001995633843":{"id":"100001995633843","name":"Yasunobu Toda"},"100003892404629":{"id":"100003892404629","name":"Đại Bàng Lột Xác"},"100000110765909":{"id":"100000110765909","name":"Thảo Nguyễn"},"100005000733208":{"id":"100005000733208","name":"Chi Chan"},"100001775719325":{"id":"100001775719325","name":"Nguyễn Ngọc Trang"},"100000054665103":{"id":"100000054665103","name":"John Nguyễn"},"100000309415626":{"id":"100000309415626","name":"Kona Yuki"},"100003670726723":{"id":"100003670726723","name":"Hữu Hải Đặng"},"100001409704504":{"id":"100001409704504","name":"DK Reddream"},"824089766":{"id":"824089766","name":"Le Dai"},"100003796074411":{"id":"100003796074411","name":"Huấn Coi"},"100001447641416":{"id":"100001447641416","name":"Lê Linh"},"100000288625882":{"id":"100000288625882","name":"Viet Hoang"},"100001557981751":{"id":"100001557981751","name":"Hồ Ngọc Khanh"},"100000413493166":{"id":"100000413493166","name":"Hai Bo"},"100007471532054":{"id":"100007471532054","name":"Phuong Nguyen"},"100003939942324":{"id":"100003939942324","name":"Trung Vũ Kiên"},"100002348937847":{"id":"100002348937847","name":"Xanh Le Te"},"100008064215029":{"id":"100008064215029","name":"Chấm Nhỏ Vĩ Đại"},"100000500260636":{"id":"100000500260636","name":"Lưu Nguyễn Thảo Tiên"},"100000131890046":{"id":"100000131890046","name":"Hoàng Phủ Kiệt"},"100007270092409":{"id":"100007270092409","name":"Lan Phươngg"},"100001526631937":{"id":"100001526631937","name":"Tường Oanh Mineko"},"100001864479440":{"id":"100001864479440","name":"Nguyễn Minh Tuyến"}},"paging":{"cursors":{"after":"MTAwMDAyNjE1NjY0NjY4","before":"MTAwMDAyNjE1NjY0NjY4"},"next":"https://graph.facebook.com/229244010425617_848965865120092/likes?limit=1&summary=1&after=MTAwMDAyNjE1NjY0NjY4"},"summary":{"total_count":76}},"comments":{"data":[{"id":"848966801786665","from":{"id":"100001864479440","name":"Nguyễn Minh Tuyến"},"message":"b dich ra ho voi , m ko bit het chu han","can_remove":false,"created_time":"2014-04-10T15:39:05+0000","like_count":0,"user_likes":false}],"paging":{"cursors":{"after":"ODQ4OTY2ODAxNzg2NjY1","before":"ODQ4OTY2ODAxNzg2NjY1"},"next":"https://graph.facebook.com/229244010425617_848965865120092/comments?limit=1&summary=1&after=ODQ4OTY2ODAxNzg2NjY1"},"summary":{"order":"chronological","total_count":61}}}