{"id":"229244010425617_848913431792002","type":"link","picture":"https://fbexternal-a.akamaihd.net/safe_image.php?d=AQAog63ddUtzrvLW&w=154&h=154&url=http%3A%2F%2Fwww3.nhk.or.jp%2Fnews%2Fimg%2Ffb_futa_600px.png","link":"http://www3.nhk.or.jp/news/html/20140410/k10013652211000.html","from":{"id":"620066722","name":"Dong Khac Thai"},"message":"【Du lịch】 Sau hoa anh đào là tới hoa tu lip\nTháng 4 lễ hội hoa tại công viên Showakinen Tokyo\n\nSau hoa anh đào là đến thời gian của hoa tulip.\n\nTrong những ngày xuân ấm áp thì vừa đi bộ và ngắm hoa thì tuyệt vời.\n\nỞ công viên Showakinen ở Tokyo trong suốt tháng 4 có 220 ngàn hoa tulip nở, các bạn hãy đến thử vào dịp tuần lễ vàng nhé!\n※Chi tiết: http://www.hanazakura.jp/tulip/syouwa.html\n\nhttp://www3.nhk.or.jp/news/html/20140410/k10013652211000.html\n\n【旅行】桜の後はチューリップが見頃\n４月上旬ー４月下旬　東京の昭和記念公園　フラワーフェスティバル\n\n桜が終わり、次はチューリップの見頃。\n\n穏やかな春の日々に、歩きながら色鮮やかなチューリップを楽しむのは最高だ。\n\n東京の昭和記念公園では４月いっぱいで２２万本のチューリップが開花するため、ゴールデンウィークに友達と行ってみてほしい！\n※詳細：http://www.hanazakura.jp/tulip/syouwa.html\n\nhttp://www3.nhk.or.jp/news/html/20140410/k10013652211000.html","created_time":"2014-04-10T14:12:09+0000","updated_time":"2014-04-10T14:53:12+0000","likes":{"data":{"100005024348771":{"id":"100005024348771","name":"Long Hoàng"},"100001324611896":{"id":"100001324611896","name":"Meo Luoi"},"100001995633843":{"id":"100001995633843","name":"Yasunobu Toda"},"100003901630275":{"id":"100003901630275","name":"Phạm Quang Lợi"},"100004299274310":{"id":"100004299274310","name":"Jenny Sakura"},"1146680551":{"id":"1146680551","name":"優しい なぁ"},"100007880444320":{"id":"100007880444320","name":"自由"},"100004250740742":{"id":"100004250740742","name":"Trang Nguyen"},"1283298041":{"id":"1283298041","name":"Búa Đức Thanh"},"100001526631937":{"id":"100001526631937","name":"Tường Oanh Mineko"},"100001695345798":{"id":"100001695345798","name":"Tyn Aki"},"100005390825802":{"id":"100005390825802","name":"Tuylip Trắng"},"100001416272263":{"id":"100001416272263","name":"Mai PB"},"100001114549932":{"id":"100001114549932","name":"Bui Thanh Hung"},"1259384895":{"id":"1259384895","name":"Emylyyuri Xdntd"}},"paging":{"cursors":{"after":"MTAwMDA1MDI0MzQ4Nzcx","before":"MTAwMDA1MDI0MzQ4Nzcx"},"next":"https://graph.facebook.com/229244010425617_848913431792002/likes?limit=1&summary=1&after=MTAwMDA1MDI0MzQ4Nzcx"},"summary":{"total_count":15}},"comments":{"data":{"848916175125061":{"id":"848916175125061","from":{"id":"100001416272263","name":"Mai PB"},"message":"Vẫn chưa hết anh đào đâu. 芝桜 Shibazakura, một loại anh đào khác nở như một tấm thảm khổng lồ. Lễ hội nổi tiếng sắp bắt đầu, ngay tại chân núi Phú Sĩ. http://www.shibazakura.jp/","can_remove":false,"created_time":"2014-04-10T14:17:34+0000","like_count":2,"user_likes":false},"848917351791610":{"id":"848917351791610","from":{"id":"620066722","name":"Dong Khac Thai"},"message":"Wow chỗ này đẹp quá anh.","can_remove":false,"created_time":"2014-04-10T14:19:09+0000","like_count":0,"user_likes":false},"848917561791589":{"id":"848917561791589","from":{"id":"100001416272263","name":"Mai PB"},"message":"Anh cũng sắp đi. ;-)","can_remove":false,"created_time":"2014-04-10T14:19:41+0000","like_count":1,"user_likes":false},"848918281791517":{"id":"848918281791517","from":{"id":"100001695345798","name":"Tyn Aki"},"message":"bonus bên cạnh hoa tuylip là hoa anh túc và hoa cải cũng cực đẹp :3","can_remove":false,"created_time":"2014-04-10T14:21:38+0000","like_count":1,"user_likes":false},"848918418458170":{"id":"848918418458170","from":{"id":"100006368081099","name":"Man Thu"},"message":"Anh cho em theo với,","can_remove":false,"created_time":"2014-04-10T14:22:00+0000","like_count":0,"user_likes":false},"848925341790811":{"id":"848925341790811","from":{"id":"620066722","name":"Dong Khac Thai"},"message":"Tyn Aki: công nhận hoa cải đẹp, nhớ ngày xưa xem phim Lời  nguyền dòng sông, trong phim có cánh đồng hoa cải đẹp lắm.https://www.youtube.com/watch?v=67MrdGlk9ds","message_tags":[{"id":"100001695345798","name":"Tyn Aki","type":"user","offset":0,"length":7}],"can_remove":false,"created_time":"2014-04-10T14:37:00+0000","like_count":1,"user_likes":false},"848925741790771":{"id":"848925741790771","from":{"id":"100001695345798","name":"Tyn Aki"},"message":"nhờ cái góc đấy em ms thấy 1 thoáng Vn ;))","can_remove":false,"created_time":"2014-04-10T14:37:54+0000","like_count":1,"user_likes":false},"848926608457351":{"id":"848926608457351","from":{"id":"100004250740742","name":"Trang Nguyen"},"message":"Các địa điểm ngắm tulip ở mọi miền nhé! http://www.hanazakura.jp/tulip/index.html","can_remove":false,"created_time":"2014-04-10T14:39:08+0000","like_count":2,"user_likes":false},"848927475123931":{"id":"848927475123931","from":{"id":"100004250740742","name":"Trang Nguyen"},"message":"Dịp tuần lễ vàng còn có lễ hội hoa đỗ quyên tsutsuji và hoa fuji cũng rất đẹp ở rất nhiều công viên nhé, không nên bỏ lỡ.","can_remove":false,"created_time":"2014-04-10T14:41:11+0000","like_count":1,"user_likes":false},"848928075123871":{"id":"848928075123871","from":{"id":"1259384895","name":"Emylyyuri Xdntd"},"message":"hoa anh Mai PB nói phải ko ạ. Tặng cả nhà cuối tuần nha!","message_tags":[{"id":"100001416272263","name":"Mai PB","type":"user","offset":8,"length":6}],"can_remove":false,"created_time":"2014-04-10T14:42:23+0000","like_count":4,"user_likes":false},"848929861790359":{"id":"848929861790359","from":{"id":"620066722","name":"Dong Khac Thai"},"message":"Trang Nguyen: thanks chị thông tin về hoa, chắc chị thích hoa.","message_tags":[{"id":"100004250740742","name":"Trang Nguyen","type":"user","offset":0,"length":12}],"can_remove":false,"created_time":"2014-04-10T14:45:38+0000","like_count":1,"user_likes":false},"848942805122398":{"id":"848942805122398","from":{"id":"100004250740742","name":"Trang Nguyen"},"message":"Say mê hoa cỏ ở đây nên lúc nào cũng kè kè cuốn từ điển hoa bốn mùa http://www.hana300.com/index.html","can_remove":false,"created_time":"2014-04-10T14:51:10+0000","like_count":1,"user_likes":false},"848943778455634":{"id":"848943778455634","from":{"id":"620066722","name":"Dong Khac Thai"},"message":"Trang Nguyen:thanks chị, để e nghiên cứu từ điển này.","message_tags":[{"id":"100004250740742","name":"Trang Nguyen","type":"user","offset":0,"length":12}],"can_remove":false,"created_time":"2014-04-10T14:53:12+0000","like_count":0,"user_likes":false}},"paging":{"cursors":{"after":"ODQ4OTE2MTc1MTI1MDYx","before":"ODQ4OTE2MTc1MTI1MDYx"},"next":"https://graph.facebook.com/229244010425617_848913431792002/comments?limit=1&summary=1&after=ODQ4OTE2MTc1MTI1MDYx"},"summary":{"order":"chronological","total_count":13}}}