{"id":"229244010425617_849055745111104","type":"photo","object_id":"815895721773884","picture":"https://fbcdn-photos-c-a.akamaihd.net/hphotos-ak-frc3/t1.0-0/10168210_815895721773884_2315008129456180767_s.jpg","link":"https://www.facebook.com/photo.php?fbid=815895721773884&set=pcb.849055745111104&type=1&relevant_count=7","from":{"id":"100000603915176","name":"悪いな ぁ"},"message":"Tìm việc qua tạp chí TownWork - Phần 1\n\nBài này dành cho mấy bạn mới sang, mấy bạn sang lâu rồi chắc không cần đọc. Có bạn hôm nọ mới hỏi nhưng chưa thể trả lời kỹ càng được, bạn vào đây xem nhé. Ai không thích bài dài cũng không cần đọc nên đừng chê bài dài mà tớ choém đới. Bài cố gắng viết thật chi tiết, kể cả Kanji nên bạn nào biết chữ rồi sẽ thấy nhàm chán, nhưng những người chưa biết, nhất là chữ Kanji còn kém thì muôn vàn gian khó :(\n\nAi thích đọc báo giấy thì cứ việc lấy báo giấy về nhà, nhưng khuyên các bạn có máy tính hay smart phone thì không nên lấy báo giấy, rác nhà ra, cũng là một cách bảo vệ môi trường nhỉ :)\n\nĐầu tiên, trên điện thoai, các bạn có thể truy cập vào trang www.townwork.net. Ngay khi truy cập, ở phần trên cùng cách bạn đã thấy lời mời chào download phần mềm riêng của TownWork cho điện thoại, các bạn có thể nhấn vào đó để download về.\n\nSau khi truy cập, tại màn hình chính các bạn sẽ thấy nó được chia ra làm 2 tab: アルバイト・求人（きゅうじん）và 社員求人（しゃいんきゅうじん）. Tab thứ 2 các bạn không cần quan tâm, chỗ đó là dành cho người tìm việc làm nhân viên chính thức trong các công ty, tab đầu tiên mới là dành cho Arubaito (chữ 求人 nghĩa Hán Việt là Cầu Nhân: Tuyển người, tuyển dụng,…).\n\nTiếp đến bên dưới hàng chữ 全国のアルバイト・求人 là một loạt các nút để lựa chọn, tên các vùng như sau:\n\n関東（かんとう）・関西（かんさい）・東海（とうかい）\n北海道（ほっかいどう）・東北（とうほく）・甲信越／北陸（こうしんえつ／ほくりく）\n中国（ちゅうごく）・四国（しこく）・九州／沖縄（きゅうしゅう／おきなわ）\n\nTuỳ theo các bạn ở vùng nào mà chọn vùng đó, ví dụ như 東京（とうきょう） thì thuộc vùng 関東. Để biết được các bạn đang ở vùng nào thì các bạn có thể xem ở đây: http://ja.wikipedia.org/wiki/%E6%97%A5%E6%9C%AC%E3%81%AE%E5%9C%B0%E5%9F%9F. Hoặc có thể gõ trực tiếp tên thành phố (chữ Kanji) vào mạng rồi xem trong wikipedia là biết được nó thuộc vùng nào.\n\nBài ở đây ta sẽ ví dụ tìm vào vùng 東京, sau khi nhấn chọn vùng 関東, bảng lựa chọn lại hiện ra tên thành phố, tỉnh muốn tìm -> nhấn tiếp vào 東京. Chú ý, tại đoạn này, các bạn có thể tìm theo 3 cách: Chọn theo vùng (エリアから探す), chọn theo ga (駅から探す), chọn theo ngành nghề (職種から探す).\n\nCách 1: エリアから探す\nVới cách này, cái lợi của các bạn là có thể tìm được nhiều kết quả có công việc phù hợp với mình hơn, nhưng không tiện cho các bạn không thuộc đường, chưa biết nhiều về các ga xung quanh mình.\n\nKhi chọn vào, các bạn sẽ thấy có 2 lựa chọn: 23区 (23 quận trong Tokyo) và 23区以外 (các vùng nằm ngoài 23 quận trong Tokyo). Chọn vào cái nào mình cần, lúc đó màn hình sẽ hiện ra cụ thể từng quận hiện đang có bao nhiêu tin đăng tuyển.\n\nTiếp tục nhấn vào, ví dụ là 新宿区（しんじゅくく）, lúc này máy sẽ hiện một hàng phía dưới cùng có 3 nút: クリア -> xoá lựa chọn, xxxx 件ヒット 検索する -> Hiển thị các kết quả của phần đã chọn lựa. Nếu thích các bạn có thể chọn thêm quận rồi hãy nhấn nút này.\n\nSau khi nhấn đến đây thì mới là vào phần chính mà ta muốn tìm, đó là kết quả tìm kiếm.\n\nPhần 2: https://www.facebook.com/groups/CongdongVietNhat/permalink/849349488415063/","created_time":"2014-04-10T18:42:49+0000","updated_time":"2014-04-11T13:14:21+0000","likes":{"data":{"100006893979077":{"id":"100006893979077","name":"Matsumoto Tadashi"},"569263718":{"id":"569263718","name":"Phuong Thao Tran"},"100000040762045":{"id":"100000040762045","name":"Bình Minh"},"100004072866570":{"id":"100004072866570","name":"Nguyen Kong Hung"},"100007930417031":{"id":"100007930417031","name":"Trang Yamato"},"1821970083":{"id":"1821970083","name":"Nguyễn Mạnh Cường"},"100006860141377":{"id":"100006860141377","name":"Gấu Của Hôm Nay"},"100001059086820":{"id":"100001059086820","name":"Nguyễn Thành Long"},"100001546837960":{"id":"100001546837960","name":"Chung Goldstar"},"100002762270141":{"id":"100002762270141","name":"Mien Nguyen"},"100001526631937":{"id":"100001526631937","name":"Tường Oanh Mineko"},"100000095655445":{"id":"100000095655445","name":"Kamiya Satoshi"},"100000221260528":{"id":"100000221260528","name":"Đào Xuân Kiên"},"100000579915348":{"id":"100000579915348","name":"Hoàng Phi Điệp"},"100000381394367":{"id":"100000381394367","name":"Thành Nguyễn"},"100000500260636":{"id":"100000500260636","name":"Lưu Nguyễn Thảo Tiên"},"100001458099624":{"id":"100001458099624","name":"Kham Pha"},"100001416272263":{"id":"100001416272263","name":"Mai PB"},"100005903373573":{"id":"100005903373573","name":"HaLinh Phong Phan"},"100005024348771":{"id":"100005024348771","name":"Long Hoàng"},"100002090727415":{"id":"100002090727415","name":"Yakuza Chau"},"100000347491202":{"id":"100000347491202","name":"Linh Hà Ngọc"},"100001689568877":{"id":"100001689568877","name":"Thuy Nguyen"},"1550521697":{"id":"1550521697","name":"Trình Nguyễn"},"100000110765909":{"id":"100000110765909","name":"Thảo Nguyễn"},"100005211189763":{"id":"100005211189763","name":"Oliveu Cchann"},"100004021451657":{"id":"100004021451657","name":"Ngọc Kim"},"100001997065377":{"id":"100001997065377","name":"Võ Minh Trang"},"1146680551":{"id":"1146680551","name":"優しい なぁ"},"1283298041":{"id":"1283298041","name":"Búa Đức Thanh"},"100003765750895":{"id":"100003765750895","name":"Ken Thiếu Gia"},"100002615664668":{"id":"100002615664668","name":"PuPu Phương Elf"},"100005804586628":{"id":"100005804586628","name":"Huyền Phạm"},"100006288731124":{"id":"100006288731124","name":"Yutaka Harada"},"100001754136107":{"id":"100001754136107","name":"Nguyễn Tuấn Vũ"},"100004779104079":{"id":"100004779104079","name":"Hạt Tiêu"},"100003065966506":{"id":"100003065966506","name":"Hùng Khùng"},"100003155380603":{"id":"100003155380603","name":"Khuong Pham"},"1781602757":{"id":"1781602757","name":"Nguyễn Thu Phương"},"100000918871201":{"id":"100000918871201","name":"Thang PhanVan"},"100004087308631":{"id":"100004087308631","name":"Mạc Văn Cường"},"100002677555210":{"id":"100002677555210","name":"Hải Cường"},"100006361146013":{"id":"100006361146013","name":"Tuấn Anh"},"100001432462223":{"id":"100001432462223","name":"Truong Nguyen"},"1026780646":{"id":"1026780646","name":"Việt Hưng Khổng"},"100001397957914":{"id":"100001397957914","name":"Tam Tit"},"100003913383051":{"id":"100003913383051","name":"Tho Tran"},"100004150718928":{"id":"100004150718928","name":"Dinh Hien"},"100003918997915":{"id":"100003918997915","name":"Nguyễn Văn Còn"},"100000257464771":{"id":"100000257464771","name":"Trương Ngọc Điệp"},"100003327351931":{"id":"100003327351931","name":"Bánh Mì Sữa"},"100001580358429":{"id":"100001580358429","name":"Hoai Nam Do"}},"paging":{"cursors":{"after":"MTAwMDA2ODkzOTc5MDc3","before":"MTAwMDA2ODkzOTc5MDc3"},"next":"https://graph.facebook.com/229244010425617_849055745111104/likes?limit=1&summary=1&after=MTAwMDA2ODkzOTc5MDc3"},"summary":{"total_count":52}},"comments":{"data":{"849060088444003":{"id":"849060088444003","from":{"id":"1103173052","name":"Uyên Nguyễn"},"message":"Ngủ đi chị ơi","can_remove":false,"created_time":"2014-04-10T18:55:23+0000","like_count":0,"user_likes":false},"849060911777254":{"id":"849060911777254","from":{"id":"100000603915176","name":"悪いな ぁ"},"message":"Chị đang ngủ :3","can_remove":false,"created_time":"2014-04-10T18:57:57+0000","like_count":0,"user_likes":false},"849096028440409":{"id":"849096028440409","from":{"id":"100001397957914","name":"Tam Tit"},"message":"Chị ui, chỉ ngủ xong chị lại review tiếp nhé, hấp dẫn lém í, arigatou","can_remove":false,"created_time":"2014-04-10T20:31:37+0000","like_count":0,"user_likes":false},"849167148433297":{"id":"849167148433297","from":{"id":"100000991663833","name":"Mạnh Tạ"},"message":"Townwork việc lồi lõm bỏ xừ . Thêm baitoru cả jobaidem nữa","can_remove":false,"created_time":"2014-04-10T23:22:13+0000","like_count":0,"user_likes":false},"849172921766053":{"id":"849172921766053","from":{"id":"100003765750895","name":"Ken Thiếu Gia"},"message":"thank bạn, rất chi tiết ^^","can_remove":false,"created_time":"2014-04-10T23:33:26+0000","like_count":1,"user_likes":false},"849216598428352":{"id":"849216598428352","from":{"id":"100003952078488","name":"Be Bu"},"message":"@tsuki pham","can_remove":false,"created_time":"2014-04-11T00:50:47+0000","like_count":0,"user_likes":false},"849249915091687":{"id":"849249915091687","from":{"id":"100001416272263","name":"Mai PB"},"message":"Mạnh Tạ vậy nhờ bạn viết về 2 trang đó được không?","can_remove":false,"created_time":"2014-04-11T01:59:41+0000","like_count":0,"user_likes":false},"849273705089308":{"id":"849273705089308","from":{"id":"100000603915176","name":"悪いな ぁ"},"message":"Tối nhé Tam Tit, ban ngay hem làm được :)","can_remove":false,"created_time":"2014-04-11T03:01:53+0000","like_count":1,"user_likes":false},"849314795085199":{"id":"849314795085199","from":{"id":"100000991663833","name":"Mạnh Tạ"},"message":"Ok a . Hiện giờ e ko có mạng wifi . Đang phải đi xài ké . Tối thứ 3 e có ngày nghỉ , mà e viết trên hiểu biết của e , nếu ko đc chi tiết thì có được ko a ?","can_remove":false,"created_time":"2014-04-11T04:48:04+0000","like_count":3,"user_likes":false},"849325081750837":{"id":"849325081750837","from":{"id":"100000603915176","name":"悪いな ぁ"},"message":"Mọi chia sẻ đều đáng hoan nghênh mà, cố gắng làm được tốt đến đâu hay đến đó. Vì thực ra chia sẻ những cái đơn giản này thường chỉ dành cho người mới sang nên cố gắng càng chi tiết càng tốt :)","can_remove":false,"created_time":"2014-04-11T05:23:00+0000","like_count":1,"user_likes":false},"849341895082489":{"id":"849341895082489","from":{"id":"100000603915176","name":"悪いな ぁ"},"message":"Ai cũng biết nếu setting cho máy bằng tiếng Việt đều có thể hiển thị vậy, nhưng bạn làm như vậy là làm lười người khác đấy Đào Xuân Kiên!","message_tags":[{"id":"100000221260528","name":"Đào Xuân Kiên","type":"user","offset":123,"length":13}],"can_remove":false,"created_time":"2014-04-11T06:17:50+0000","like_count":0,"user_likes":false},"849343811748964":{"id":"849343811748964","from":{"id":"100000603915176","name":"悪いな ぁ"},"message":"Bạn viết thì để bạn dùng đi, học tiếng Nhật mà làm vậy thì vứt đi, học làm gì nữa.","can_remove":false,"created_time":"2014-04-11T06:20:23+0000","like_count":0,"user_likes":false},"849369181746427":{"id":"849369181746427","from":{"id":"100001526631937","name":"Tường Oanh Mineko"},"message":"Có ai note lại bài này chưa nhỉ?","can_remove":false,"created_time":"2014-04-11T07:51:41+0000","like_count":0,"user_likes":false},"849370935079585":{"id":"849370935079585","from":{"id":"100000603915176","name":"悪いな ぁ"},"message":"Không cần thiết đâu em, ai cần thì search thôi ;)","can_remove":false,"created_time":"2014-04-11T07:57:46+0000","like_count":0,"user_likes":false},"849415855075093":{"id":"849415855075093","from":{"id":"100004798083725","name":"Cappu Ccino"},"message":"Mình thấy bạn nào ở gần ga nào thì đi ra mấy cái combini rồi lượm về gọi điện thấy hay hơn :)","can_remove":false,"created_time":"2014-04-11T10:11:45+0000","like_count":1,"user_likes":false},"849422641741081":{"id":"849422641741081","from":{"id":"100006614261300","name":"Tao Cao Cường Đây"},"message":"hay đấy","can_remove":false,"created_time":"2014-04-11T10:25:57+0000","like_count":0,"user_likes":false},"849493651733980":{"id":"849493651733980","from":{"id":"569263718","name":"Phuong Thao Tran"},"message":"Tường Oanh Mineko note rồi thì cho cái link ra đây đi em","message_tags":[{"id":"100001526631937","name":"Tường Oanh Mineko","type":"user","offset":0,"length":17}],"can_remove":false,"created_time":"2014-04-11T13:14:21+0000","like_count":0,"user_likes":false}},"paging":{"cursors":{"after":"ODQ5MDYwMDg4NDQ0MDAz","before":"ODQ5MDYwMDg4NDQ0MDAz"},"next":"https://graph.facebook.com/229244010425617_849055745111104/comments?limit=1&summary=1&after=ODQ5MDYwMDg4NDQ0MDAz"},"summary":{"order":"chronological","total_count":17}}}