{"id":"229244010425617_849451485071530","type":"status","from":{"id":"100008047423708","name":"のび た"},"message":"Mọi người mới học tiếng Nhật hoặc muốn học thêm kiến thức thì có thể học qua mp3 mình thấy rất hay. Các bạn có thể tìm trên google là \"danh sách bài học của anh Cường\" với 1 bài giới thiệu, 50 bài học và 1 bài kiểm tra. Sau đó tải bằng mp3 để học. Rất thú vị các bạn ạ. :)","created_time":"2014-04-11T11:41:06+0000","updated_time":"2014-04-11T12:41:16+0000","likes":{"data":{"100002615664668":{"id":"100002615664668","name":"PuPu Phương Elf"},"100006606513173":{"id":"100006606513173","name":"Thọ Thọ"},"100004406108994":{"id":"100004406108994","name":"Thu Hà"},"100007446790574":{"id":"100007446790574","name":"Hoàng Công Viên"},"100006933518153":{"id":"100006933518153","name":"Mai Hạnh Nguyễn"},"100001583708890":{"id":"100001583708890","name":"Dung Pé Heo"},"620066722":{"id":"620066722","name":"Dong Khac Thai"},"100003276780986":{"id":"100003276780986","name":"Quang Huy"},"1026780646":{"id":"1026780646","name":"Việt Hưng Khổng"},"100003254627434":{"id":"100003254627434","name":"Belongs To Nắng"},"100004360751785":{"id":"100004360751785","name":"Hà Nguyễn"},"100007238765021":{"id":"100007238765021","name":"Vy Nhí Nhảnh"},"100002339089186":{"id":"100002339089186","name":"Thinh Nguyen Viet"},"100003939562107":{"id":"100003939562107","name":"Bùi QuyềnGtnd"},"100007797156820":{"id":"100007797156820","name":"Sói Già"}},"paging":{"cursors":{"after":"MTAwMDAyNjE1NjY0NjY4","before":"MTAwMDAyNjE1NjY0NjY4"},"next":"https://graph.facebook.com/229244010425617_849451485071530/likes?limit=1&summary=1&after=MTAwMDAyNjE1NjY0NjY4"},"summary":{"total_count":15}},"comments":{"data":{"849455065071172":{"id":"849455065071172","from":{"id":"620066722","name":"Dong Khac Thai"},"message":"Cám ơn bạn のび た　đã chia sẻ, mình cũng có nghe 1 số bài. Còn bạn Tsumetai Kokoro có nghe hết và hiểu hết nội dung người ta dạy không ah?","message_tags":[{"id":"100008047423708","name":"のび た","type":"user","offset":11,"length":4},{"id":"100007756088326","name":"Tsumetai Kokoro","type":"user","offset":64,"length":15}],"can_remove":false,"created_time":"2014-04-11T11:50:39+0000","like_count":0,"user_likes":false},"849455438404468":{"id":"849455438404468","from":{"id":"100005917954526","name":"Người Hoa Gốc Việt"},"message":"học kiểu đó hôm nào mình cũng bị ngủ trước giờ quy định","can_remove":false,"created_time":"2014-04-11T11:51:28+0000","like_count":0,"user_likes":false},"849459661737379":{"id":"849459661737379","from":{"id":"100007879952991","name":"Thow  Low"},"message":"hồi học cơ bản mình cũng học qua, nói chung là họ dạy cũng kĩ mà, sơ sài gì nữa. Chỉ cần bạn nghe qua 1 lần, đọc ngữ pháp và nghe lại thì rất hay","can_remove":false,"created_time":"2014-04-11T11:59:54+0000","like_count":1,"user_likes":false},"849475305069148":{"id":"849475305069148","from":{"id":"100003852803358","name":"Ngọc Điệp"},"message":"http://www.nhk.or.jp/lesson/vietnamese/learn/list/ chắc là danh sách này","can_remove":false,"created_time":"2014-04-11T12:36:04+0000","like_count":1,"user_likes":false},"849476941735651":{"id":"849476941735651","from":{"id":"620066722","name":"Dong Khac Thai"},"message":"のび た： cố gắng lúc chia sẻ thì đựa ra đường link hay hình ảnh chụp màn hình cụ thể nhé e. Nếu không thì cũng có trường hợp  hiểu nhầm ý nhau và phải xác nhận lại.","message_tags":[{"id":"100008047423708","name":"のび た","type":"user","offset":0,"length":4}],"can_remove":false,"created_time":"2014-04-11T12:39:48+0000","like_count":0,"user_likes":false},"849477535068925":{"id":"849477535068925","from":{"id":"100008047423708","name":"のび た"},"message":"ok","can_remove":false,"created_time":"2014-04-11T12:41:16+0000","like_count":0,"user_likes":false}},"paging":{"cursors":{"after":"ODQ5NDU1MDY1MDcxMTcy","before":"ODQ5NDU1MDY1MDcxMTcy"},"next":"https://graph.facebook.com/229244010425617_849451485071530/comments?limit=1&summary=1&after=ODQ5NDU1MDY1MDcxMTcy"},"summary":{"order":"chronological","total_count":6}}}