{"id":"229244010425617_849485011734844","type":"photo","object_id":"10202522544397986","picture":"https://fbcdn-photos-d-a.akamaihd.net/hphotos-ak-frc3/t1.0-0/10247197_10202522544397986_5300713477248305700_s.jpg","link":"https://www.facebook.com/photo.php?fbid=10202522544397986&set=gm.849485011734844&type=1&relevant_count=1","from":{"id":"1026780646","name":"Việt Hưng Khổng"},"message":"[Câu hỏi thảo luận]: Dành cho tất cả các bạn biết tới Nhật Bản: Theo các bạn, người Nhật học tập; làm việc so với người Việt thì thế nào ?\nVà đâu là nguyên nhân cốt lõi làm nên một nước Nhật phát triển như ngày nay ? \n\n(Khuyến khích mọi ý kiến cá nhân-tranh luận dựa trên lý trí, dẫn chứng ; những comment mang tính kích động, chia rẽ sắc tộc sẽ bị xóa :) )","created_time":"2014-04-11T12:53:34+0000","updated_time":"2014-04-12T15:56:12+0000","likes":{"data":{"100001702972099":{"id":"100001702972099","name":"Kim Việt Hùng"},"100000221973381":{"id":"100000221973381","name":"Mạnh Ngô"},"100001526631937":{"id":"100001526631937","name":"Tường Oanh Mineko"},"100003855159339":{"id":"100003855159339","name":"Duyngan DO"},"100005397424406":{"id":"100005397424406","name":"Trần Thái Hùng"},"100003893158172":{"id":"100003893158172","name":"Maru MO"},"100004035601770":{"id":"100004035601770","name":"Yuki Nguyễn"},"100003683896765":{"id":"100003683896765","name":"Song La Phai Mo"},"100000236025075":{"id":"100000236025075","name":"Nightwish Spirit"},"100006003193699":{"id":"100006003193699","name":"Quynhchau Ha"},"100005917954526":{"id":"100005917954526","name":"Người Hoa Gốc Việt"},"100008061784579":{"id":"100008061784579","name":"Hoàng Tuấn"},"100003462033553":{"id":"100003462033553","name":"Hoàng Ly"},"100005219074602":{"id":"100005219074602","name":"Minh Mộng Mơ"},"100006604537364":{"id":"100006604537364","name":"Dan Le"},"100003883612858":{"id":"100003883612858","name":"Cậu Út"},"100004564327116":{"id":"100004564327116","name":"Tiến Bình Nguyễn"},"100000042525641":{"id":"100000042525641","name":"Dũng Lê Đức"},"100003032663784":{"id":"100003032663784","name":"Vượt Qua Thử Thách"},"100001458099624":{"id":"100001458099624","name":"Kham Pha"},"100000045271667":{"id":"100000045271667","name":"Nam Thai Nguyen"},"100001257093338":{"id":"100001257093338","name":"Hanh Dang"},"100007779160957":{"id":"100007779160957","name":"Nắng Ấm Xa Dần"},"100007797156820":{"id":"100007797156820","name":"Sói Già"},"569263718":{"id":"569263718","name":"Phuong Thao Tran"},"1108104959":{"id":"1108104959","name":"Nguyễn Hoàng Anh"},"100004512333714":{"id":"100004512333714","name":"Đạt Titikaka"},"100003818167519":{"id":"100003818167519","name":"Nghia Trungnghia"},"100002745859939":{"id":"100002745859939","name":"Vũ Lợi"},"100001416272263":{"id":"100001416272263","name":"Mai PB"},"1146680551":{"id":"1146680551","name":"優しい なぁ"},"620066722":{"id":"620066722","name":"Dong Khac Thai"}},"paging":{"cursors":{"after":"MTAwMDAxNzAyOTcyMDk5","before":"MTAwMDAxNzAyOTcyMDk5"},"next":"https://graph.facebook.com/229244010425617_849485011734844/likes?limit=1&summary=1&after=MTAwMDAxNzAyOTcyMDk5"},"summary":{"total_count":32}},"comments":{"data":{"849486545068024":{"id":"849486545068024","from":{"id":"100003857157932","name":"Trâm Tâm Lý"},"message":"từ khóa: nguyên tắc, tự giác, đúng giờ, làm ra làm chơi ra chơi","can_remove":false,"created_time":"2014-04-11T12:57:26+0000","like_count":0,"user_likes":false},"849487665067912":{"id":"849487665067912","from":{"id":"620066722","name":"Dong Khac Thai"},"message":"Mình nghĩ là sự phát triển của Nhật dựa vào 4yếu tô: 勤勉(kiên trì), 改善（cải tiến）, チームワーク(làm việc nhóm), 細かい(chi tiết, tỉ mỹ)。vd khi người nông dân làm ra hạt gạo, họ sẽ suy nghĩ để cải thiện cho gạo ngon hơn, năng suât hơn. Quá trình này diễn ra không ngừng nghĩ và không bao giờ hài lòng với bản thân.","can_remove":false,"created_time":"2014-04-11T12:59:35+0000","like_count":3,"user_likes":false},"849490131734332":{"id":"849490131734332","from":{"id":"100001621458915","name":"Cao Cường"},"message":"Theo ý kiến cá nhân: Nhật đó được nề kinh tế như ngày nay là bởi  ý thức con người khi làm việc. Và bởi \"3 VÌ\": Vì khách hàng, vì tập thể và vì công việc.","can_remove":false,"created_time":"2014-04-11T13:05:08+0000","like_count":1,"user_likes":false},"849491268400885":{"id":"849491268400885","from":{"id":"100007917634982","name":"Cry Cry"},"message":"3 vì rồi kìa :)","can_remove":false,"created_time":"2014-04-11T13:08:18+0000","like_count":1,"user_likes":false},"849491565067522":{"id":"849491565067522","from":{"id":"100001621458915","name":"Cao Cường"},"message":"Gõ nhầm :))","can_remove":false,"created_time":"2014-04-11T13:09:17+0000","like_count":0,"user_likes":false},"849492985067380":{"id":"849492985067380","from":{"id":"620066722","name":"Dong Khac Thai"},"message":"Việt Hưng Khổng; chủ thớt thử cho ý kiến nhé.","message_tags":[{"id":"1026780646","name":"Việt Hưng Khổng","type":"user","offset":0,"length":15}],"can_remove":false,"created_time":"2014-04-11T13:12:51+0000","like_count":0,"user_likes":false},"849494681733877":{"id":"849494681733877","from":{"id":"100000065836904","name":"Trần Minh"},"message":"Ý thức với cộng đồng và với xã hội. Theo mình đó là 2 điều then chốt làm nên nước Nhật ngày nay.","can_remove":false,"created_time":"2014-04-11T13:16:38+0000","like_count":1,"user_likes":false},"849494991733846":{"id":"849494991733846","from":{"id":"100007778046910","name":"Cô Chủ Nhỏ"},"message":"Người nhật họ yêu nước.họ tôn trọng và yêu nhưng gì mà do họ làm ra.họ luôn sử dụng chính sản phẩm của mình.một cộng đồng giúp đỡ nhau.đùm bọc nhau.họ quý thời gian và coi trọng nó.trong công việc họ phân biệt công tư rõ ràng.đặc biệt họ coi trọng đồng tiền của mình.vì vậy tiền của nhật rất có giá trị.\nVd một yên của nhật không mua dc gì.nhung họ vẫn không bỏ và vẫn sử dụng nó.đó là lý do mà tiền nhật có giá chị.dù bạn có mua cái gì đắt tiền.bạn mang toàn tiền 1 yên ra.họ vẫn bán.\nHọ yêu nước thể hiện trên nhưng xuất cơm hộp.tại sao cơm hộp ở đâu cũng có quả đỏ đỏ ở giữa.chắc ít bạn hiểu.nó là biểu tượng cho lá cờ nhật.\nHọ yêu nhưng gì họ làm ra.bởi nhưng thực phẩm họ làm ra họ đều sử dụng.họ chỉ xuất khẩu khi thừa.họ hạn trế dùng đồ nhập khẩu.họ coi trọng tất cả những sản phẩm của họ.\nChế độ bảo hiểm,hay y tế của họ hiện đại.họ cũng làm vì công việc của mình vì trách nhiệm.và mạng người của họ có giá trị","can_remove":false,"created_time":"2014-04-11T13:17:34+0000","like_count":7,"user_likes":false},"849504288399583":{"id":"849504288399583","from":{"id":"100000045271667","name":"Nam Thai Nguyen"},"message":"Vì Mặt trời luôn mọc sớm ở đất nước này  :D. Bình minh đến với đất nước này sớm hơn, nếu đứng về nguyên nhân cội nguồn nó là sản phẩm mang tính Lịch sử ( hôm nào mạn phép post sau ). Còn nếu nhìn tính đac trưng mang tính thời đại mà người Nhật nổi lên đó là tư duy: phản tỉnh và cải tiến. Hai cái này trái ngược nhưng cộng hưởng, bổ sung cho nhau tạo ra cái gọi là \" thàn kỳ \" nhật bản. Các nước trên TG không trừ Mỹ, nghiên cứu, học hỏi vò đầu vì nó nhưng đều ko làm đến nơi đến chốn. Hai \" key word\" đó có thể lý giải chắc tương đối đầy đủ mọi đặc tính của người Nhật :D","can_remove":false,"created_time":"2014-04-11T13:39:23+0000","like_count":1,"user_likes":false},"849506635066015":{"id":"849506635066015","from":{"id":"100007930417031","name":"Trang Yamato"},"message":"Nhật được như ngày hôm nay là nhờ Giáo Dục. Người dân biết xấu hổ, không sĩ diện hão.","can_remove":false,"created_time":"2014-04-11T13:43:56+0000","like_count":1,"user_likes":false},"849508385065840":{"id":"849508385065840","from":{"id":"100003032663784","name":"Vượt Qua Thử Thách"},"message":"mình cũng biết 1 mớ nhưng chưa tiền kể :D để sau nha","can_remove":false,"created_time":"2014-04-11T13:48:12+0000","like_count":1,"user_likes":false},"849518428398169":{"id":"849518428398169","from":{"id":"100000052201550","name":"Thao Le"},"message":"Mỗi người Việt Nam hãy đọc và làm tốt 5 điêu bác hồ dạy, mọi thứ sẽ thay đỗi căn bản!","can_remove":false,"created_time":"2014-04-11T14:01:58+0000","like_count":4,"user_likes":false},"849518658398146":{"id":"849518658398146","from":{"id":"100003032663784","name":"Vượt Qua Thử Thách"},"message":"các bác bớt nóng nào từ từ đừng gay tranh cãi đều góp ý cả mà :D","can_remove":false,"created_time":"2014-04-11T14:02:45+0000","like_count":0,"user_likes":false},"849519385064740":{"id":"849519385064740","from":{"id":"100004564327116","name":"Tiến Bình Nguyễn"},"message":"để làm nên một nước nhật pt như ngày nay .Họ những con người lãnh đạo đã dám nghĩ và làm , họ xây dựng đất nupcws trên cơ sở của luật pháp \n2 những thế hệ đi trước đã biết tích luỹ của cải tạo đà phát triển cho thế hệ đi sau \n3/ xây dựng được nhưngx thế hệ người nhật khiêm nhường và trung thực , trung thực trong cả làm ăn và qs đời thường => họ tin dùng sp mà họ làm ra => giảm nhập khẩu tiết kiệm ngân sách","can_remove":false,"created_time":"2014-04-11T14:04:37+0000","like_count":0,"user_likes":false},"849519618398050":{"id":"849519618398050","from":{"id":"100007930417031","name":"Trang Yamato"},"message":"http://www.thanhnien.com.vn/pages/20120929/giao-duc-khong-chi-lac-hau-ma-con-dang-lac-loi.aspx","can_remove":false,"created_time":"2014-04-11T14:05:03+0000","like_count":2,"user_likes":false},"849521308397881":{"id":"849521308397881","from":{"id":"100007778046910","name":"Cô Chủ Nhỏ"},"message":"Vì có những con người coi trọng nước khác mà khinh nước mình nên đất nước mới ngày càng như vậy.tôi khen nhật,nhưng tôi vận yêu việt nam mình.nhưng tôi muốn hỏi nếu nhật cũng có nhưng người coi trọng nước khác mà khinh nược họ.thì liệu dc ntn không???đâu đâu cũng có người này người nọ.nhật cũng có mặt xấu của nhật mà.trang yamato","can_remove":false,"created_time":"2014-04-11T14:08:21+0000","like_count":2,"user_likes":false},"849522278397784":{"id":"849522278397784","from":{"id":"620066722","name":"Dong Khac Thai"},"message":"Không chỉ ngồi chỉ trích mà phải đưa ra giải pháp  để cải thiện chính mình.","can_remove":false,"created_time":"2014-04-11T14:10:28+0000","like_count":4,"user_likes":false},"849522575064421":{"id":"849522575064421","from":{"id":"100003032663784","name":"Vượt Qua Thử Thách"},"message":"ừ chuẩn Cô Chủ Nhỏ Đâu cũng có người tốt kẻ xấu cả","message_tags":[{"id":"100007778046910","name":"Cô Chủ Nhỏ","type":"user","offset":8,"length":10}],"can_remove":false,"created_time":"2014-04-11T14:11:09+0000","like_count":0,"user_likes":false},"849522965064382":{"id":"849522965064382","from":{"id":"100003032663784","name":"Vượt Qua Thử Thách"},"message":"đừng là 1 phần của vấn đề mà hảy là 1 phần của giải pháp bạn nhé","can_remove":false,"created_time":"2014-04-11T14:11:55+0000","like_count":1,"user_likes":false},"849528931730452":{"id":"849528931730452","from":{"id":"100007930417031","name":"Trang Yamato"},"message":"Phần lịch sử bạn nói chưa đúng :)","can_remove":false,"created_time":"2014-04-11T14:22:38+0000","like_count":0,"user_likes":false},"849529258397086":{"id":"849529258397086","from":{"id":"100007778046910","name":"Cô Chủ Nhỏ"},"message":"Tôi không hiểu sao.những cái đẹp của mình không đưa ra để mọi người noi hương mà chỉ biết săm se những cái không tốt,những cái xấu xa ra mà nói.ukm việt nam có người ăn cắp,ăn chộm.nhưng sao k ai nói một tấm gương cô gái trẻ nhặt dc ví tiền có mấy trục triệu đã giả lại người đánh rơi.có ca sĩ phi nhung đã nuôi dưỡng bao trẻ em mồ côi.có hai người đàn bà đã 7 năm sống và chôn xác thai nhi bị phá.còn rất nhiều người tốt.sao không thấy ai nói,ai kể để học.mà chỉ nói cái xấu rùi nói từ xấu hổ về vn.tôi tự hỏi bạn đã làm gì cho đất nước mình chưa.mà đòi hỏi nước mình phải đem lại tự hào cho bạn.hai từ việt nam.đã quá tự hào không gì xấu hộ.cái xấu hổ là nhưng người.chỉ biết đứng nhìn mà nói còn chẳng làm dc cái gì cả.tôi cũng thấy xấu hổ vì là con dân của việt nam mà chưa làm gì dc cho đất nước mình.tôi không xấu hổ là người việt nam.chỉ xấu hổ vì mình không làm dc gì.trc khi bạn đòi hỏi gì hãy xem mình đã làm dc những gì.","can_remove":false,"created_time":"2014-04-11T14:23:18+0000","like_count":4,"user_likes":false},"849530821730263":{"id":"849530821730263","from":{"id":"100007930417031","name":"Trang Yamato"},"message":"Sao lại đem chuyện từ thiện đi so sánh với chuyện yêu nước hay không.\n\nHệ thống GIÁO DỤC lỗi thời của Vn đã làm nên một bộ phận lớp trẻ viết ngôn ngữ mẹ đẻ còn sai chính tả!","can_remove":false,"created_time":"2014-04-11T14:27:00+0000","like_count":3,"user_likes":false},"849532328396779":{"id":"849532328396779","from":{"id":"100003032663784","name":"Vượt Qua Thử Thách"},"message":"và h là tranh cãi tranh đúng sai rồi á nên rủ nhau uống caffe tranh cãi thì tốt hơn 2 bác ạ tránh tình trạng hận nhau .","can_remove":false,"created_time":"2014-04-11T14:29:55+0000","like_count":1,"user_likes":false},"849533448396667":{"id":"849533448396667","from":{"id":"100003032663784","name":"Vượt Qua Thử Thách"},"message":"chia sẻ các bác mới xem xong tin nhảy xuống sông cứu người tự tử lên lại mất sách đồ rất văn hóa","can_remove":false,"created_time":"2014-04-11T14:32:15+0000","like_count":0,"user_likes":false},"849534208396591":{"id":"849534208396591","from":{"id":"100007778046910","name":"Cô Chủ Nhỏ"},"message":"Mọi người thấy đấy có những con người chỉ biết ăn rùi bắt lỗi của người khác.chỉ nghĩ thế sao chẳng vậy.nuôi trẻ mồ côi.hay tất cả việc tôi nói đều nói lên lòng yêu nước cả.sự yêu thương con người vs con người.vậy việc người ta ăn chộm ăn cắp cũng đâu liên quan gì đâu.bạn không thấy mình nói vậy không đùn sao.bạn chỉ biết soi mói cái lỗi người khác bới móc nó ra.cho nó xấu đi.sao thay vào đó nói cái tốt cho mọi người biết nhìn và ngẫm.nv có lẽ sẽ khác hơn không.tôi học k giỏi văn khôg hay.không giỏi như bạn.nhưng chuyện sai chính tả không liên quan tới chuyện tôi nói đúng hay sai trang yamato ak","can_remove":false,"created_time":"2014-04-11T14:34:06+0000","like_count":2,"user_likes":false},"849535025063176":{"id":"849535025063176","from":{"id":"100003032663784","name":"Vượt Qua Thử Thách"},"message":"nếu được tôi mở cuộc họp báo cho 2 bác :D","can_remove":false,"created_time":"2014-04-11T14:35:33+0000","like_count":2,"user_likes":false},"849536291729716":{"id":"849536291729716","from":{"id":"100007778046910","name":"Cô Chủ Nhỏ"},"message":"Tớ không cãi nhau tớ đâu phải vô học thức mà lại soi mói cái nhau đâu.tớ nói là tranh luận thui.còn ai muốn cái nhau tớ sẽ im lặng vì đây không có gì để cãi.tớ cũng chẳng hơn gì ai mà thế này thế nọ.chỉ là người ta cứ thích soi mói bắt lỗi người khác.hơn thua để dc cái gì đâu chứ.vượt qua thử thách ak","can_remove":false,"created_time":"2014-04-11T14:37:40+0000","like_count":1,"user_likes":false},"849537748396237":{"id":"849537748396237","from":{"id":"100003883612858","name":"Cậu Út"},"message":"Họ có tinh thần tự giác cao . Chơi ra chơi làm ra làm","can_remove":false,"created_time":"2014-04-11T14:40:39+0000","like_count":0,"user_likes":false},"849537945062884":{"id":"849537945062884","from":{"id":"100003883612858","name":"Cậu Út"},"message":"Sống tự lập từ bé","can_remove":false,"created_time":"2014-04-11T14:41:03+0000","like_count":0,"user_likes":false},"849546395062039":{"id":"849546395062039","from":{"id":"100004068174376","name":"Luong Thao"},"message":"Cơ mà sao ai cũng phải so sánh nhật bản vs Việt Nam nhỉ. Cứ nhìn phong cách làm vc of họ là bit tại sao thôi","can_remove":false,"created_time":"2014-04-11T14:53:24+0000","like_count":0,"user_likes":false},"849555428394469":{"id":"849555428394469","from":{"id":"100005219074602","name":"Minh Mộng Mơ"},"message":"Người nhật theo Em thì họ là một thế giới rất quan trọng về thời gian  người nhật học trung học sau đó sẽ tốt nghiệp phải không Anh ( em thì thắc mặt có phải người nhật học tới THCS ) họ làm  việc tốt hơn người VN mình bởi nước họ dù để đồ như thế nào đi nữa họ cũng không bị ăn cướp , Theo Em nguyên nhân nước nhất phát triển là chắc do sự hát triển nhanh về bề mặt kinh tế và chính trị , họ làm việc rất có hiệu quả và ngành Thông tin điện tử của họ phát triển nhất của thế giới . Em cũng rất buồn vì Em đọc báo thấy họ có những bản cảnh báo về người Việt Nam nhiều quá :( :( không biết vì sao người Việt Nam mình lại mấy bản cảnh báo nhật lại dịch ra tiếng việt :( tại sao không dịch ra tiếng Anh , Hàn ...","can_remove":false,"created_time":"2014-04-11T15:06:45+0000","like_count":3,"user_likes":false},"849557365060942":{"id":"849557365060942","from":{"id":"100003961596043","name":"Manh Kieu"},"message":"Tất cả mọi thứ đều được xây dựng bằng thái độ tôn trọng bản thân, chủ nhân và đất nước!","can_remove":false,"created_time":"2014-04-11T15:11:32+0000","like_count":2,"user_likes":false},"849558828394129":{"id":"849558828394129","from":{"id":"1474321363","name":"Gnouc Oab"},"message":"Không có cái gì ngày một ngày hai là làm được cả. Chắc chắn nhiều bạn đã tự hỏi, Nhật thua trong Thế chiến 2, sau đó thì nghèo hơn cả VN năm 75, nhưng bây giờ thì họ đã vượt lên rất nhanh. Đó là vì họ có nền tảng. Một người thầy ở trường DH Kinh tế TpHCM đã giảng rằng, từ thời Minh Trị, ông vua đó đã cho những nhà trí thức qua Châu Âu học hỏi. Để đến Thế chiến 2, Nhật đã có thể tự làm cho mình máy bay, tàu chiến. Thế nên, bạn có thể thấy, dù Nhật kiệt quệ sau chiến tranh, nhưng gần như ngay sau đó, Nhật đã chế tạo được Shinkansen, rồi máy Sony, xe Honda... Rồi họ bán những thứ đó, lấy ngoại tệ về, làm đất nước giàu lên, bền vững. Nhìn lại Việt Nam, chúng ta phát triển gần 30 năm qua phần lớn là vì chúng ta đang khai thác tài nguyên, đất để trồng lúa, than, dầu mỏ bán thô. Chúng ta không có một nền tảng là lớp người có tri thức, kỹ năng như Nhật cách đây 60 năm. Nên không thể bứt lên phát triển tiếp. Lời cuối, nhắn gửi các bạn đang học và làm việc, không chỉ ở Nhật mà bất cứ quốc gia nào khác, nếu tận sâu trong bạn muốn làm điều gì đó cho Việt Nam, đừng nghĩ chuyện gì xa xôi, lớn lao cả. Hãy học tập, làm việc thật tốt. Tích luỹ cho mình càng nhiều kinh nghiệm, kỹ năng càng tốt, bất cứ kinh nghiệm, kỹ năng gì. Để khi bạn về Việt Nam, bạn dùng những điều đó để làm giàu cho mình và những người cạnh bạn. Đó là cái giàu RẤT BỀN VỮNG. Rồi từ những cái giàu bền vững như vậy, Việt Nam rồi cũng sẽ có cty lớn giống như Honda, Samsung, Mitsubishi, LG...","can_remove":false,"created_time":"2014-04-11T15:15:17+0000","like_count":5,"user_likes":false},"849602725056406":{"id":"849602725056406","from":{"id":"100006004471218","name":"Bác Hồ Vĩ Đại"},"message":". thực ra người việt mình về mọi mặt không kém gì người nhật cả. Có điều mình muốn nhấn mạnh ở đây . tại sao đất nước mình nghèo nàn cả về vật chất đến ý thức như vậy . Tất cả đều do \" CƠ CHẾ \"  mà thôi.mình ít học lắm . không giáo điều , nói lăng nhăng mà không giúp đươc đất nước giàu và mạnh là một lũ phản quốc","can_remove":false,"created_time":"2014-04-11T16:40:01+0000","like_count":3,"user_likes":false},"849694521713893":{"id":"849694521713893","from":{"id":"100006666549596","name":"Thuyjo Kim"},"message":"Người Nhật đc như bg giờ la do họ biết cách sử dụng chất xám của họ một cách thông minh và hiệu quả.Các bạn trẻ hãy đừng để chất xám của mình chảy ra nước ngoài.Hãy mang về Việt Nam phục vụ đất nước chăc chắn sẽ k thua nước Nhật.","can_remove":false,"created_time":"2014-04-11T19:49:02+0000","like_count":0,"user_likes":false},"849748265041852":{"id":"849748265041852","from":{"id":"1026780646","name":"Việt Hưng Khổng"},"message":"@Dung Hoang: nếu bạn hỏi có thành ý thì mình trả lời: \n-Mình post để có thể học hỏi, tiếp nhận ý kiến của mọi người- và ngược lại, giúp mọi người tiếp nhận những góc nhìn mới- nếu họ thấy cần thiết!-\nHiểu biết của mỗi người chỉ như hạt cát trên xa mạc, khi bạn được nghe nhiều người nói, bạn sẽ được tiếp cận vấn đề từ nhiều hướng khác nhau, mở mang tầm nhìn của bản thân. \"Nếu bạn có một quả táo, tôi có một quả táo, đổi cho nhau mỗi người vẫn chỉ có một quả táo, nhưng nếu bạn có một ý tưởng, tôi có một ý tưởng, trao đổi với nhau mỗi người sẽ có hai ý tưởng :)\"","can_remove":false,"created_time":"2014-04-11T21:35:31+0000","like_count":2,"user_likes":false},"849748515041827":{"id":"849748515041827","from":{"id":"100000479252137","name":"Tran Tan"},"message":"mình có ý kiến nhỏ nếu có sai thì cung đường sỏi đá bay 4 phía nhá Cô Chủ Nhỏ bạn nói cũng đúng nhưng mà làm không đơn giản như bạn nghĩ đâu.. bạn cũng biết \"flappy bird\", với \"tàu ngầm hoàng sa\" và việc VN thử nghiệm chế tạo máy bay  do các GS hàng đầu của các trường ĐH phát triển ma  chính thủ tướng ký duyệt  \", và cái việc cải tổ ruộng đất ngày xưa chưa nó không  đơn giản  chỉ là việc nghĩ ra ý tưởng  để thực hiện nó rồi được công nhận  như nước ngoài đâu.. còn vô số cơ chế, thủ tục rồi cách người ta nhìn nhận và nó cho mình hỏi thật mọi ngươi nếu 10  du học sinh đi du hoc các bạn đếm trên đầu ngón tay xem được mấy  người quay về.Ok  công nhận với bạn người VN  rất thông minh chăm chỉ... mình tự hào về điều đó và không ai phủ nhân điều đó...nhưng cái gốc của nền văn minh là văn hóa mà văn hóa xuất phát từ Giáo dục bạn ak... chỉ cần giáo dục sai lầm cả xã hội đi xuống bạn hiểu ý mình chứ\n\np/s: @cô chủ nhỏ:  Hình như bạn này là đồng hương thì phải  rất vui dk nc  với bạn","message_tags":[{"id":"100007778046910","name":"Cô Chủ Nhỏ","type":"user","offset":67,"length":10}],"can_remove":false,"created_time":"2014-04-11T21:36:32+0000","like_count":3,"user_likes":false},"849750201708325":{"id":"849750201708325","from":{"id":"1026780646","name":"Việt Hưng Khổng"},"message":"Có nhiều khác biệt giữa hai đất nước, mình xin nêu ra một điểm: VN  chúng ta như \"nhà giàu\"- NB như \"nhà nghèo\"; và \"con nhà nghèo\" luôn nỗ lực hết mình để thoát nghèo- còn \"con nhà giàu\" thì phá tán tài sản; ở quy mô quốc gia thì hai nước sẽ tiến ...ngược chiều nhau như chúng ta thấy :)","can_remove":false,"created_time":"2014-04-11T21:40:50+0000","like_count":3,"user_likes":false},"849805035036175":{"id":"849805035036175","from":{"id":"100003206782592","name":"Nhan Tran"},"message":"Cần cù,tỉ mỉ và nguyên tắc","can_remove":false,"created_time":"2014-04-11T23:54:21+0000","like_count":0,"user_likes":false},"849806808369331":{"id":"849806808369331","from":{"id":"100003683896765","name":"Song La Phai Mo"},"message":"hay quá các bạn. thực tế là việt nam mình thua nhật về nhiều thứ. nhưng các bạn ko biết lúc mà người nhật họ có máy bay trên trời thì việt nam mình còn chưa có dép để đi.cái này bắt nguồn từ xa xưa.có lẽ ai mở mắt trước thì khôn hơn .chiến tranh tàn phá việt nam mình thì ai cũng biết. năm 45 nhật bị bại trận thì việt nam mình có trên 90 % dân mù chữ....nhiều lắm các lí do để việt nam mình thua nhật...dù sao các bạn nên tự hào là mình là người vn.mất gốc là chẳng còn j.","can_remove":false,"created_time":"2014-04-12T00:00:26+0000","like_count":0,"user_likes":false},"849814928368519":{"id":"849814928368519","from":{"id":"100000045271667","name":"Nam Thai Nguyen"},"message":"Một trong những nguyên nhân khiến con người ta cảm thấy không hạnh phúc là do họ không bao giờ biết đủ với những thứ đã có trong hiện tại...\n\nHọ luôn \"nhìn ngó\" những thứ của người khác mà quên mất phải trân quý những thứ quý giá bên mình...\n\nCứ mãi theo đuổi những vọng tưởng để rồi giật mình phát hiện mình không có những thứ đang ra sức theo đuổi, mà còn vô tình làm đánh mất những thứ đã có được !\n( Theo bí mật người Do Thái dạy con làm giàu )","can_remove":false,"created_time":"2014-04-12T00:21:44+0000","like_count":3,"user_likes":false},"849919965024682":{"id":"849919965024682","from":{"id":"100007778046910","name":"Cô Chủ Nhỏ"},"message":"Tớ chưa bjo dám nói gì tới việc chính trị của nước mình.tớ chỉ nói tới vấn đề là.vì nước mình có nhưng con người chỉ biết a rua.ma thui.thấy một ng nói gì là a rua vào nói theo.k có ý kiến của riêng mình.chỉ biết ngồi rùi kêu ca mất mặt này nọ.như vậy sao mà đi lên dc. Tran tan","can_remove":false,"created_time":"2014-04-12T03:22:28+0000","like_count":2,"user_likes":false},"849946501688695":{"id":"849946501688695","from":{"id":"100007930417031","name":"Trang Yamato"},"message":"Vấn đề lớn nhất hiện nay là việc giới trẻ sử dụng ngôn ngữ teen, và viết sai chính tả quá nhiều. \nĐi nước này nước kia, học tiếng này tiếng nọ mà tiếng Việt còn không tôn trọng và giữ gìn. \nĐa số người Việt coi đấy là chuyện nhỏ và bỏ qua. Chính cái tính  này làm sự khác biệt giữa VN và Nhật hay các nước khác.","can_remove":false,"created_time":"2014-04-12T04:07:32+0000","like_count":2,"user_likes":false},"849953428354669":{"id":"849953428354669","from":{"id":"100000479252137","name":"Tran Tan"},"message":"Cô Chủ Nhỏ hj chính trị thì mình cũng chẳng biết đâu.. nhưng mà bzo muốn thay đổi cách suy nhĩ và hành động thì phải thay đổi cả 1 thế hệ bạn ak... vì cách suy nghĩ nó ảnh hưởng bởi cách giáo dục từ gia đình và xã hội nữa đúng không","message_tags":[{"id":"100007778046910","name":"Cô Chủ Nhỏ","type":"user","offset":0,"length":10}],"can_remove":false,"created_time":"2014-04-12T04:25:17+0000","like_count":1,"user_likes":false},"849962318353780":{"id":"849962318353780","from":{"id":"100007778046910","name":"Cô Chủ Nhỏ"},"message":"Nó không còn quan trọng khi những người luôn muốn bới móc sự sai lầm của người khác để.biệt minh cho sai lầm của mình.k nói mọi người ai cũng biết tiếng việt chúng ta rất đa rạng rất khó.tôi k phải viết theo chào lưu của giới trẻ.mà khi viết chúng ta thường dùng ngôn ngữ ngắn gọn không dài dòng,t2 là sử dụng qua bàn phím dt nó nhỏ.tiếp là vì tôi k dảnh để nc phím tôi chỉ tranh thủ bàn luận vs mọi ngươi.chứ không dảnh như ai mà chỉnh sửa chú ý lỗi của người khac.t3 tôi chưa bjo nhận mình k viết sai lỗi chính tả.mà ai cũng biết tiếng việt chúng ta khó ntn.nhiều ng giỏi còn nhầm lẫn nữa là một người k là gì cả như tôi.và tôi hỏi ai đảm bảo chưa bjo viết k sai không.hay vi chua gap ng an khong ngoi roi di bat loi chinh ta trong khi ng ta","can_remove":false,"created_time":"2014-04-12T04:39:25+0000","like_count":2,"user_likes":false},"850039351679410":{"id":"850039351679410","from":{"id":"100003683896765","name":"Song La Phai Mo"},"message":"Như họp quốc hội nhỉ. Tôi đồng ý với cô chủ nhỏ. Đề nghị ko lạc đề. Ý kiến tiếp theo đi","can_remove":false,"created_time":"2014-04-12T06:24:23+0000","like_count":1,"user_likes":false},"850113355005343":{"id":"850113355005343","from":{"id":"100006533318497","name":"Linh Loan"},"message":"nó hơn mình nhiều lắm kgông nói vật chất mà nói đến 3 điều này thôi mình đẫ làm đc đâu mà nói đến các thứ khác thứ 1 chung thực văn minh và lịch sự minh̀ phải làm đc 3 điều đó may da còn cíu vãn đc chút","can_remove":false,"created_time":"2014-04-12T10:06:40+0000","like_count":0,"user_likes":false},"850251898324822":{"id":"850251898324822","from":{"id":"100001416272263","name":"Mai PB"},"message":"Người Nhật họ có nền tảng, đúng.\nHọ cố gắng học tập làm việc, đúng.\nNgười Việt có nền tảng không? Không. \nVì sao? Vì nền giáo dục yếu kém. \nNgười VN có cố gắng học tập làm việc không? \nCó, nhưng lệch lạc, ví dụ học không theo nhu cầu, không theo tính cách bản thân mà học cái gì có vẻ lương cao, nhàn nhã.\nChính phủ Nhật có vì dân vì nước không? Có.\nChính phủ VN có vì dân vì nước không? E rằng khó có thể nói là có. Tham nhũng, giáo điều, chính trị lạc hậu quá nhiều.\nChỉ cần mỗi người làm việc tốt, học tập tốt là đủ chăng? Không, nếu như không có môi trường xã hội trong sạch, dân chủ, thì dân và quan đều cùng chèo thuyền  nhưng ngược chiều nhau, cái thuyền VN sẽ đứng tại chỗ thôi. Hoặc là dân cố xây, quan cố phá, mà phá thì nhanh hơn xây nhiều.\nKết luận: cần giáo dục và dân chủ, thì VN ta sẽ không thua kém nước nào ở châu Á, tuy có thể không bằng Nhật vì dù sao Nhật cũng là một nước rất rất đặc biệt của thế giới. ^^","can_remove":false,"created_time":"2014-04-12T15:19:10+0000","like_count":2,"user_likes":false},"850270618322950":{"id":"850270618322950","from":{"id":"100001416272263","name":"Mai PB"},"message":"https://www.facebook.com/notes/815054661844546","can_remove":false,"created_time":"2014-04-12T15:56:12+0000","like_count":0,"user_likes":false}},"paging":{"cursors":{"after":"ODQ5NDg2NTQ1MDY4MDI0","before":"ODQ5NDg2NTQ1MDY4MDI0"},"next":"https://graph.facebook.com/229244010425617_849485011734844/comments?limit=1&summary=1&after=ODQ5NDg2NTQ1MDY4MDI0"},"summary":{"order":"chronological","total_count":50}}}