{"id":"229244010425617_849449135071765","type":"photo","object_id":"10152075818526723","picture":"https://fbcdn-photos-h-a.akamaihd.net/hphotos-ak-ash4/t1.0-0/10001470_10152075818526723_5383457826277147327_s.jpg","link":"https://www.facebook.com/photo.php?fbid=10152075818526723&set=gm.849449135071765&type=1&relevant_count=1","from":{"id":"620066722","name":"Dong Khac Thai"},"message":"【Cuộc sống ở Nhật】 Vài điểm chú ý khi đi tàu:\n\n①Đứng kế phụ nữ\n\nỞ Nhật có xảy ra vấn đề gọi 痴漢(ちかん) có nghĩa là hành vi sàm sỡ phụ nữ tại nơi công cộng như trên tàu. Ở Nhật rất nghiệm khắc với những người có hành vi này. Trong trường hợp người nước ngoài thì càng khó giải thích và có lẽ họ cũng không tin người nước ngoài và chắc chắn được 1 vé về nước. Anh em mới sang nhớ bình tĩnh trước cái đẹp.\n\nTrong trường hợp tàu giờ cao điểm, khi đó thì đông như hộp cá hộp để tránh hiểu nhầm xảy ra thì có 1 số cách như sau:\n\n・Đứng né phụ nữ.\n\n・Nếu có mang cặp thì dùng cặp ngăn mình với người trước.\n\n・Hạn chế để tay xuống dưới bằng cách nắm dây tàu, cầm sách, điện thoại.\n\n※Chú ý: 1 trường hợp người Nhật 25 tuổi bị nghi sàm sỡ phụ nữ, bị cảnh sát thẩm vấn và cuối cùng là nhảy tàu tự tử.\n\nPhần 1: https://www.youtube.com/watch?v=_No0gcB7g2g\n\nPhần 2: https://www.youtube.com/watch?v=ZMSnLonuQSs\n\n②Nói chuyện lớn tiếng\n\n・Hạn chế nói chuyện lớn tiếng trên tàu vì sẽ làm người khác khó chịu.\n\n・Người Nhật rất kỹ vụ vệ sinh nên họ sợ mùi thức ăn từ miệng người khác, hoặc là sợ người khác có mang bệnh tật có thể lây qua đường hô hấp.","created_time":"2014-04-11T11:33:35+0000","updated_time":"2014-04-12T16:24:37+0000","likes":{"data":{"100004390203431":{"id":"100004390203431","name":"Nga NT"},"100001695345798":{"id":"100001695345798","name":"Tyn Aki"},"100004007955342":{"id":"100004007955342","name":"Thăng Kim"},"100000747635624":{"id":"100000747635624","name":"Nguyễn Xuân Đại"},"100000199747524":{"id":"100000199747524","name":"Gà Già"},"100003145416720":{"id":"100003145416720","name":"Dũng Chuột"},"100005559850110":{"id":"100005559850110","name":"Leo Vl Codonvc"},"100001432462223":{"id":"100001432462223","name":"Truong Nguyen"},"100001526631937":{"id":"100001526631937","name":"Tường Oanh Mineko"},"100002676859353":{"id":"100002676859353","name":"Chu Quang Viên"},"100000197264825":{"id":"100000197264825","name":"Ngọc Hân"},"100004313589403":{"id":"100004313589403","name":"Phuocthua Lại"},"100004519866642":{"id":"100004519866642","name":"Duc Hoang"},"100000677259087":{"id":"100000677259087","name":"Hue Lily"},"100001401005342":{"id":"100001401005342","name":"Đỗ Chí Luân"},"100004311728957":{"id":"100004311728957","name":"Van An Vo"},"100000054665103":{"id":"100000054665103","name":"John Nguyễn"},"100006004471218":{"id":"100006004471218","name":"Bác Hồ Vĩ Đại"},"100001699357422":{"id":"100001699357422","name":"Pylno's Hung"},"100005529851429":{"id":"100005529851429","name":"Nguyen Khuyen"},"100004263697752":{"id":"100004263697752","name":"Phuc Duc Bui"},"100002753911318":{"id":"100002753911318","name":"Nguyễn Văn Nam"},"100005210680831":{"id":"100005210680831","name":"Thảo Hà"},"100006593585113":{"id":"100006593585113","name":"Nông Dân Nghèo"},"100003638172915":{"id":"100003638172915","name":"Lan Còi"},"100000045271667":{"id":"100000045271667","name":"Nam Thai Nguyen"},"100005105622855":{"id":"100005105622855","name":"Vu Xuan"},"100003124307460":{"id":"100003124307460","name":"Duc Giang"},"100000655926909":{"id":"100000655926909","name":"Kokoha Coco HA"},"100003623410782":{"id":"100003623410782","name":"Conan Shinichi"},"100005801442456":{"id":"100005801442456","name":"An Nguyen"},"100003282697164":{"id":"100003282697164","name":"Nguyễn Văn Vương"},"100003525137061":{"id":"100003525137061","name":"Nguyen Hai Anh Nguyen"},"100004076014686":{"id":"100004076014686","name":"Đăng Trần Hải"},"100007930417031":{"id":"100007930417031","name":"Trang Yamato"},"100001455488160":{"id":"100001455488160","name":"Chung Cacbon"},"100002439163527":{"id":"100002439163527","name":"Ngoc Doi"},"100007991981581":{"id":"100007991981581","name":"Na Young"},"100000110765909":{"id":"100000110765909","name":"Thảo Nguyễn"},"100004367679988":{"id":"100004367679988","name":"Kumi Nguyen"},"100004355468485":{"id":"100004355468485","name":"Lam Trúc"},"545670961":{"id":"545670961","name":"Tran Vu Ha Minh"},"100006533592750":{"id":"100006533592750","name":"Duy H Trần"},"100004402031221":{"id":"100004402031221","name":"Thu Nguyen"},"100004232253359":{"id":"100004232253359","name":"Binh Phan"},"100001643497965":{"id":"100001643497965","name":"Luna Lynn"},"1788906313":{"id":"1788906313","name":"Hien Hoang"},"100003883612858":{"id":"100003883612858","name":"Cậu Út"},"100003553271511":{"id":"100003553271511","name":"Lưu Đức Hạnh"},"100001705236423":{"id":"100001705236423","name":"Ngoc Xit"},"100001571041179":{"id":"100001571041179","name":"Khôi Nguyễn Văn"},"100000647527569":{"id":"100000647527569","name":"Binh Nguyen"},"100006832329009":{"id":"100006832329009","name":"Thư Thư"},"100000972524778":{"id":"100000972524778","name":"Minh Trang"},"100003583847902":{"id":"100003583847902","name":"Laze Tân"},"100002913281005":{"id":"100002913281005","name":"Hà Mã"},"100004613823453":{"id":"100004613823453","name":"Nguyen Huu Vuong"},"100001458099624":{"id":"100001458099624","name":"Kham Pha"},"100003680606356":{"id":"100003680606356","name":"Đoàn Ngân"},"100006690006678":{"id":"100006690006678","name":"Hồng Nhiễu"},"100000311404740":{"id":"100000311404740","name":"St Moussaieff"},"1196390000":{"id":"1196390000","name":"Kiến Xink Gái"},"100002414995202":{"id":"100002414995202","name":"Nguyễn Duy Công"},"100003213570367":{"id":"100003213570367","name":"Duy Quang Nguyen"},"100005277368389":{"id":"100005277368389","name":"Manucian Đức Thiện"},"100003881446336":{"id":"100003881446336","name":"Trần Dung"},"100003599920499":{"id":"100003599920499","name":"ふゆ はな"},"706746330":{"id":"706746330","name":"Nguyen Binh Khiem"},"100003064613244":{"id":"100003064613244","name":"Min SjHyuk"},"100004388105916":{"id":"100004388105916","name":"Hiếu Nguyễn"},"100000073698728":{"id":"100000073698728","name":"Hương Giang"},"100003200184387":{"id":"100003200184387","name":"Ly Ha"},"100004707884599":{"id":"100004707884599","name":"Phạm Ánh Hồng"},"100006290882619":{"id":"100006290882619","name":"Thanh Hang"},"100007918629775":{"id":"100007918629775","name":"Quốc Đạt"},"100002985009288":{"id":"100002985009288","name":"Thúy Nga Nguyễn"},"100002941809570":{"id":"100002941809570","name":"Hằng Nguyễn"},"100001738431359":{"id":"100001738431359","name":"Phuongthao Nguyen"},"100003568037923":{"id":"100003568037923","name":"Sot Cachua"},"1469436341":{"id":"1469436341","name":"Son Tran"},"100007420361725":{"id":"100007420361725","name":"Nhìn Cái Gì"},"100005308082814":{"id":"100005308082814","name":"Yuki Lee"},"569263718":{"id":"569263718","name":"Phuong Thao Tran"},"100006113144074":{"id":"100006113144074","name":"Hà Phương"},"100005323170235":{"id":"100005323170235","name":"Đặng Trung Hiếu"},"100000446032980":{"id":"100000446032980","name":"Chang Kul"},"100000387942170":{"id":"100000387942170","name":"Hà Quảng Đạt"},"100004268827258":{"id":"100004268827258","name":"Can Đảm"},"100007794097389":{"id":"100007794097389","name":"Vũ Trọng Tân"},"100000264268101":{"id":"100000264268101","name":"Back To December"},"100003666736429":{"id":"100003666736429","name":"Saobang Nguyen"},"100003898875729":{"id":"100003898875729","name":"Hai Nguyen"},"100004562916471":{"id":"100004562916471","name":"Chi Su"},"100003346691086":{"id":"100003346691086","name":"Nhuận Hoàng"},"100006434358133":{"id":"100006434358133","name":"Tươi Cún"},"100000675881225":{"id":"100000675881225","name":"Hung Quoc Tran"},"100004016724597":{"id":"100004016724597","name":"Tú Mi Lô"},"100005458320703":{"id":"100005458320703","name":"Pj Koj"},"100000213079098":{"id":"100000213079098","name":"Bean Kute"},"100005271433446":{"id":"100005271433446","name":"Nguyentan Thang"},"100001993996012":{"id":"100001993996012","name":"Ngoc Bich"},"100001547154925":{"id":"100001547154925","name":"Tam Tamnguyendinh"},"100003830697766":{"id":"100003830697766","name":"Nhok Rua Cici"},"100000342230134":{"id":"100000342230134","name":"Thuy Le"},"100005809809361":{"id":"100005809809361","name":"Hoa Ngoc Lan"},"100004363394584":{"id":"100004363394584","name":"Hoa Xương Rồng"},"100000311774593":{"id":"100000311774593","name":"Kieu My"},"100001233920165":{"id":"100001233920165","name":"Thin Le"},"100003929334541":{"id":"100003929334541","name":"Nguyễn Trung"},"100000896386301":{"id":"100000896386301","name":"Leo DH"},"100001992546575":{"id":"100001992546575","name":"Cat Black"},"100001718857289":{"id":"100001718857289","name":"Sin Cos Tan"},"100002847948300":{"id":"100002847948300","name":"Thuy Dung Vi"},"100000366780924":{"id":"100000366780924","name":"Tiêu Siêu Điên"},"100000249128844":{"id":"100000249128844","name":"Cúc Min"},"100007253222055":{"id":"100007253222055","name":"Nguyễn Việt Dương Hà"},"100007450663259":{"id":"100007450663259","name":"Cờ Bí Dúi Tốt"},"1764773046":{"id":"1764773046","name":"Thu Thao Bui"},"100007779160957":{"id":"100007779160957","name":"Nắng Ấm Xa Dần"},"100004037198361":{"id":"100004037198361","name":"Cao Thanh Quyển"},"100000147414000":{"id":"100000147414000","name":"Nguyễn Công Thắng"},"100002859912832":{"id":"100002859912832","name":"Trần Thanh Nguyên"},"100001337423715":{"id":"100001337423715","name":"Magicminx Kripton"},"100002334361243":{"id":"100002334361243","name":"Ông Cu Non"},"100003933466469":{"id":"100003933466469","name":"Phong Aki"},"1593585564":{"id":"1593585564","name":"Nguyễn Hữu Cường"},"100005307004792":{"id":"100005307004792","name":"Kiều Văn"},"100003281703428":{"id":"100003281703428","name":"Khánh Tây Môn"},"1550521697":{"id":"1550521697","name":"Trình Nguyễn"},"100000084165481":{"id":"100000084165481","name":"Tuan Tran"},"100005489710987":{"id":"100005489710987","name":"Cẩn"},"100004464334048":{"id":"100004464334048","name":"Nguyễn Duy Giáp"},"1068482018":{"id":"1068482018","name":"Loan Le"},"100001771450637":{"id":"100001771450637","name":"Dang Thanh Nam"},"100004160679847":{"id":"100004160679847","name":"Linh Nguyễn"},"100003914371410":{"id":"100003914371410","name":"Huy Xù"},"100005275411260":{"id":"100005275411260","name":"Hoa Của Nắng"},"100000381506148":{"id":"100000381506148","name":"Vinh Nguyen"},"100000231671242":{"id":"100000231671242","name":"Aoi Matsubayashi"},"100001318098340":{"id":"100001318098340","name":"Trang Anh"},"100001142298013":{"id":"100001142298013","name":"Kim Pham"},"100002029061052":{"id":"100002029061052","name":"Nhất Sọ"},"100003643250494":{"id":"100003643250494","name":"Ngốc Nhất Nhà"},"100005814217210":{"id":"100005814217210","name":"Huỳnh Anh Tùng"},"100007511135956":{"id":"100007511135956","name":"Hà Văn Tí"},"100004254661893":{"id":"100004254661893","name":"Anh Là Tú"},"100004119541573":{"id":"100004119541573","name":"Thùy Dung"},"100004057374771":{"id":"100004057374771","name":"Sao Bang Vo Tinh"},"1146680551":{"id":"1146680551","name":"優しい なぁ"}},"paging":{"cursors":{"after":"MTAwMDA0MzkwMjAzNDMx","before":"MTAwMDA0MzkwMjAzNDMx"},"next":"https://graph.facebook.com/229244010425617_849449135071765/likes?limit=1&summary=1&after=MTAwMDA0MzkwMjAzNDMx"},"summary":{"total_count":149}},"comments":{"data":{"849450011738344":{"id":"849450011738344","from":{"id":"1146680551","name":"優しい なぁ"},"message":"Bổ sung\n\nhttps://www.facebook.com/groups/CongdongVietNhat/permalink/793131814036831/","can_remove":false,"created_time":"2014-04-11T11:36:18+0000","like_count":2,"user_likes":false},"849451138404898":{"id":"849451138404898","from":{"id":"100000048296076","name":"Anh Trần"},"message":"em ko bình tĩnh được =))","can_remove":false,"created_time":"2014-04-11T11:39:57+0000","like_count":1,"user_likes":false},"849451258404886":{"id":"849451258404886","from":{"id":"100000603915176","name":"悪いな ぁ"},"message":"Ngày xưa có một con bé nó sàm sỡ mình, lúc đó tiếng N kém quá kg biết gào sao, đành phải cười nụ ☺️","can_remove":false,"created_time":"2014-04-11T11:40:22+0000","like_count":8,"user_likes":false},"849451808404831":{"id":"849451808404831","from":{"id":"620066722","name":"Dong Khac Thai"},"message":"悪いな ぁ khổ hả, bây giờ chắc biết cách gào:)","message_tags":[{"id":"100000603915176","name":"悪いな ぁ","type":"user","offset":0,"length":5}],"can_remove":false,"created_time":"2014-04-11T11:42:13+0000","like_count":1,"user_likes":false},"849451878404824":{"id":"849451878404824","from":{"id":"100007879952991","name":"Thow  Low"},"message":"その場合：もっと、もっと、お願い＾＾","can_remove":false,"created_time":"2014-04-11T11:42:26+0000","like_count":3,"user_likes":false},"849451998404812":{"id":"849451998404812","from":{"id":"100004458494037","name":"Hong Nguyen"},"message":"Cty mih nguoi nêban vua bi đuôi viêc vi viêc nay","can_remove":false,"created_time":"2014-04-11T11:42:47+0000","like_count":4,"user_likes":false},"849452231738122":{"id":"849452231738122","from":{"id":"620066722","name":"Dong Khac Thai"},"message":"@hong nguyen: nguy hiểm quá nhỉ.","can_remove":false,"created_time":"2014-04-11T11:43:35+0000","like_count":0,"user_likes":false},"849452241738121":{"id":"849452241738121","from":{"id":"100000603915176","name":"悪いな ぁ"},"message":"Cũng kg khổ lắm, chỉ kg hiểu thôi 😔","can_remove":false,"created_time":"2014-04-11T11:43:36+0000","like_count":1,"user_likes":false},"849457228404289":{"id":"849457228404289","from":{"id":"100000048296076","name":"Anh Trần"},"message":"các tay đua đừng tổ lái qua JAV , ăn ban bây h =))","can_remove":false,"created_time":"2014-04-11T11:55:52+0000","like_count":1,"user_likes":false},"849457281737617":{"id":"849457281737617","from":{"id":"620066722","name":"Dong Khac Thai"},"message":"Không nói tục bạn Tatsu Honda, không sửa thì cho phép mình xóa comment.","message_tags":[{"id":"100003259532731","name":"Tatsu Honda","type":"user","offset":18,"length":11}],"can_remove":false,"created_time":"2014-04-11T11:56:05+0000","like_count":3,"user_likes":false},"849459071737438":{"id":"849459071737438","from":{"id":"100001432462223","name":"Truong Nguyen"},"message":":3 thì hoà đi, xem tan qua đc song sắt nhà tù hay cửa sổ máy bay ko :))","can_remove":false,"created_time":"2014-04-11T11:58:21+0000","like_count":0,"user_likes":false},"849459118404100":{"id":"849459118404100","from":{"id":"620066722","name":"Dong Khac Thai"},"message":"Lineage Royal: hơi lạc đề rùi bạn.","message_tags":[{"id":"100004012640803","name":"Lineage Royal","type":"user","offset":0,"length":13}],"can_remove":false,"created_time":"2014-04-11T11:58:31+0000","like_count":0,"user_likes":false},"849459628404049":{"id":"849459628404049","from":{"id":"100006310142163","name":"Nam Bin Béo Bự"},"message":"あぶない","can_remove":false,"created_time":"2014-04-11T11:59:48+0000","like_count":1,"user_likes":false},"849460165070662":{"id":"849460165070662","from":{"id":"100001432462223","name":"Truong Nguyen"},"message":"Sống như phim có ngày chết oan mất :))","can_remove":false,"created_time":"2014-04-11T12:00:55+0000","like_count":0,"user_likes":false},"849460198403992":{"id":"849460198403992","from":{"id":"100003633000923","name":"An Nguyễn"},"message":"Toan lo cai vo van","can_remove":false,"created_time":"2014-04-11T12:01:00+0000","like_count":0,"user_likes":false},"849460491737296":{"id":"849460491737296","from":{"id":"100000603915176","name":"悪いな ぁ"},"message":"Đổng Khắc Thái hình như là admin cơ mà, chửi bậy là xoá, sao phải nhắc nhở thế. Cuối cùng câu chửi vẫn nằm nguyên!","can_remove":false,"created_time":"2014-04-11T12:01:43+0000","like_count":0,"user_likes":false},"849460738403938":{"id":"849460738403938","from":{"id":"620066722","name":"Dong Khac Thai"},"message":"Cho phép mình xóa các comment về JAV ở trên, nếu không xóa thì các bạn lúc sau sẽ hiểu lầm bài.","can_remove":false,"created_time":"2014-04-11T12:02:21+0000","like_count":0,"user_likes":false},"849460958403916":{"id":"849460958403916","from":{"id":"100001432462223","name":"Truong Nguyen"},"message":"A Cú ơi, nữ xàm sỡ nam luật tính sao ah :v","can_remove":false,"created_time":"2014-04-11T12:03:00+0000","like_count":1,"user_likes":false},"849461241737221":{"id":"849461241737221","from":{"id":"100007756088326","name":"Trung Pham"},"message":"Cái thứ 2 thì không đúng lắm chính bọn nhật lên tàu nó nói chuyện rất to.","can_remove":false,"created_time":"2014-04-11T12:03:36+0000","like_count":0,"user_likes":false},"849461575070521":{"id":"849461575070521","from":{"id":"620066722","name":"Dong Khac Thai"},"message":"悪いな ぁ mình nhắc nhở cho bạn kia tự sửa để họ tâm phục khẩu phục, có khi ng này đang bận gì chưa coi comment.  Khoảng 30p sau nếu bạn này chưa sửa thì mình sẽ xóa.","message_tags":[{"id":"100000603915176","name":"悪いな ぁ","type":"user","offset":0,"length":5}],"can_remove":false,"created_time":"2014-04-11T12:04:19+0000","like_count":0,"user_likes":false},"849462595070419":{"id":"849462595070419","from":{"id":"100000603915176","name":"悪いな ぁ"},"message":"Mình nghĩ nên mạnh tay họ sẽ nhớ. Trong này đông lắm, nhắc và đợi 30' có khi quên rồi ấy. Mà luật là xoá luôn!","can_remove":false,"created_time":"2014-04-11T12:07:20+0000","like_count":1,"user_likes":false},"849463188403693":{"id":"849463188403693","from":{"id":"100003259532731","name":"Tatsu Honda"},"message":"Xin lỗi mình là người việt nam và bạn nên nhớ bạn cũng là người việt nam đó.mình k thể cái gì cũng làm theo cái gọi là phong cách của nhật đc.đọc xong bạn thích xoá thì tuỳ","can_remove":false,"created_time":"2014-04-11T12:08:44+0000","like_count":1,"user_likes":false},"849463408403671":{"id":"849463408403671","from":{"id":"620066722","name":"Dong Khac Thai"},"message":"Tsumetai Kokoro  cũng có 1 số người lên tàu nói to nhưng rất ít. Họ biết mình là người nước ngoài nên họ sẽ đề phòng hơn.","message_tags":[{"id":"100007756088326","name":"Tsumetai Kokoro","type":"user","offset":0,"length":15}],"can_remove":false,"created_time":"2014-04-11T12:09:22+0000","like_count":0,"user_likes":false},"849463795070299":{"id":"849463795070299","from":{"id":"100000603915176","name":"悪いな ぁ"},"message":"Tatsu Honda nói mình hả?","can_remove":false,"created_time":"2014-04-11T12:10:33+0000","like_count":0,"user_likes":false},"849464141736931":{"id":"849464141736931","from":{"id":"100007756088326","name":"Trung Pham"},"message":"Chỉ có ng nhật nó gét nc bằng tiếng nước ngoài thôi.còn nói chuyện bằng tiếng nó ok hêt.k biết chỗ mn sao chỗ mình lên tàu như cái chợ nó nói đau cả đầu.xui nhất là lên gặp phải bọn học sinh","can_remove":false,"created_time":"2014-04-11T12:11:33+0000","like_count":1,"user_likes":false},"849464548403557":{"id":"849464548403557","from":{"id":"620066722","name":"Dong Khac Thai"},"message":"Tatsu Honda: ok bạn nếu trên fb của bạn thì bạn có thể nói gì cũng được, cũng giống  như nhà của bạn. Còn ở đây là nơi công cộng bạn, nên phải theo luật của cộng đồng. Đây là những gì mình biết được khi sống ở Nhật và chia sẽ  lại cho bạn. Nếu bạn mới sang không hiểu rõ có gì làm sai pháp luật thì lúc đó chỉ có bạn chịu trách nhiệm.","message_tags":[{"id":"100003259532731","name":"Tatsu Honda","type":"user","offset":0,"length":11}],"can_remove":false,"created_time":"2014-04-11T12:12:40+0000","like_count":4,"user_likes":false},"849465321736813":{"id":"849465321736813","from":{"id":"100004217023937","name":"Quang Vinh"},"message":"Có sao đâu.vì trật ms bị xô đẩy ms vậy","can_remove":false,"created_time":"2014-04-11T12:14:17+0000","like_count":0,"user_likes":false},"849465578403454":{"id":"849465578403454","from":{"id":"100004258027371","name":"Rang Nguyen"},"message":"Văn hóa nơi công cộng ở đây thì bất cứ 1 ai trước khi muốn đến đều phải biết","can_remove":false,"created_time":"2014-04-11T12:14:53+0000","like_count":3,"user_likes":false},"849470661736279":{"id":"849470661736279","from":{"id":"100004639693097","name":"Họ Nguyễn Công Tử"},"message":"vai","can_remove":false,"created_time":"2014-04-11T12:25:12+0000","like_count":0,"user_likes":false},"849473481735997":{"id":"849473481735997","from":{"id":"100001233920165","name":"Thin Le"},"message":"","can_remove":false,"created_time":"2014-04-11T12:31:59+0000","like_count":1,"user_likes":false},"849475541735791":{"id":"849475541735791","from":{"id":"100004075308762","name":"Lie Lie"},"message":"3 tháng r chưa thấy gái Nhật xinh lắm..k bằng VN..nên cái đẹp đó k khó để kiềm chế..hjhe.","can_remove":false,"created_time":"2014-04-11T12:36:33+0000","like_count":1,"user_likes":false},"849477458402266":{"id":"849477458402266","from":{"id":"620066722","name":"Dong Khac Thai"},"message":"Tuan MaiViết có dấu nhé bạn, nếu bạn đọc người khác viết vậy thì chắc khó hiểu. Nếu không sửa mình xin phép xóa.","message_tags":[{"id":"100003326943303","name":"Tuan Mai","type":"user","offset":0,"length":8}],"can_remove":false,"created_time":"2014-04-11T12:41:06+0000","like_count":1,"user_likes":false},"849480548401957":{"id":"849480548401957","from":{"id":"100003326943303","name":"Tuan Mai"},"message":"Mình cũng chỉ góp vui một tình huống mình da gặp khi di tàu. Ko biết thì thôi nhưng biết rồi thì thấy người nhật nó co nhiều điều khó hiểu","can_remove":false,"created_time":"2014-04-11T12:45:17+0000","like_count":0,"user_likes":false},"849480628401949":{"id":"849480628401949","from":{"id":"100001432462223","name":"Truong Nguyen"},"message":"Quấy rồi là hành vi làm ng khác ko cảm thấy thoải mái hoặc cảm giác bị đe doạ... Còn chụp ảnh hình như vi phạm cả quyền về sự riêng tư nữa thì phải :3","can_remove":false,"created_time":"2014-04-11T12:45:28+0000","like_count":0,"user_likes":false},"849482218401790":{"id":"849482218401790","from":{"id":"100003211776567","name":"Kụ Đính"},"message":"cái này có toa tày riêng danh cho chị e phụ nữ sợ bị sàm sỡ đó","can_remove":false,"created_time":"2014-04-11T12:47:31+0000","like_count":1,"user_likes":false},"849482418401770":{"id":"849482418401770","from":{"id":"100000098177754","name":"Quái Vật"},"message":"xem cái phim manga chikan ấy,,xem đi biết ngay bị hiểu nhầm là chikan thì rắc rối như nào , lên đồn ngay không giải thích","can_remove":false,"created_time":"2014-04-11T12:48:07+0000","like_count":2,"user_likes":false},"849482565068422":{"id":"849482565068422","from":{"id":"100000098177754","name":"Quái Vật"},"message":"muốn vào phòng đó tính bằng ngàn đô đấy","can_remove":false,"created_time":"2014-04-11T12:48:36+0000","like_count":0,"user_likes":false},"849484721734873":{"id":"849484721734873","from":{"id":"620066722","name":"Dong Khac Thai"},"message":"Việc chụp hình hay quay phim lén thì bị tội 盗撮(とうさつ)。Trong trường hợp là nhân viên công ty thì có thể được lên báo, mất việc, mất uy tín công ty, lý lịch cá nhân có vết đen và rất khó để tìm việc khác, Chỉ còn cách là nhảy tàu.","can_remove":false,"created_time":"2014-04-11T12:52:39+0000","like_count":2,"user_likes":false},"849488255067853":{"id":"849488255067853","from":{"id":"100004068174376","name":"Luong Thao"},"message":"Mình đã gặp một trg hợp sàm sỡ. Nhưng là đứa con gái đổ vạ cho ô đó. Mà ko bit ở đâu có một anh hùng cứu mỹ nhân nhiệt tình tóm a kia đi c.an. Còn c này thì sụt sùi khóc hết nc mắt. Tội cho ô kia","can_remove":false,"created_time":"2014-04-11T13:00:39+0000","like_count":1,"user_likes":false},"849491815067497":{"id":"849491815067497","from":{"id":"620066722","name":"Dong Khac Thai"},"message":"Luong Thao có một số trường hợp nữ giả bị chikan để đòi tiền, nếu đưa tiền thì không báo công an. Cho nên mọi người cần chú ý để không rơi vào tình trạng dễ bị hiểu nhầm.","message_tags":[{"id":"100004068174376","name":"Luong Thao","type":"user","offset":0,"length":10}],"can_remove":false,"created_time":"2014-04-11T13:09:50+0000","like_count":1,"user_likes":false},"849497561733589":{"id":"849497561733589","from":{"id":"100004205319059","name":"Bắc Phạm"},"message":"ôi cái đẹp","can_remove":false,"created_time":"2014-04-11T13:22:34+0000","like_count":0,"user_likes":false},"849498441733501":{"id":"849498441733501","from":{"id":"620066722","name":"Dong Khac Thai"},"message":"Mọi người xem thử cái này. 1 ng Nhật 25 tuổi phải chon tự tử vì bị nghi sàm sỡ. https://www.youtube.com/watch?v=_No0gcB7g2g","can_remove":false,"created_time":"2014-04-11T13:24:49+0000","like_count":3,"user_likes":false},"849532821730063":{"id":"849532821730063","from":{"id":"100001416272263","name":"Mai PB"},"message":"Tương tự chuyện ở VN nhỉ... Anh A bị bắt vào đồn công an. Sau khi bị hỏi cung và được thả ra 24 tiếng sau đó, anh A đột tử. Vì gần đây có quá nhiều vụ công dân bị chết sau khi từ đồn công an về, lần này dư luật một mực nghi ngờ công an viên đã tra tấn làm chết công dân kia. Bị oan, công an viên tự tử....\nNhảm nhảm, hôm nay uống nhiều quá. :-)\nhttp://tuoitre.vn/Chinh-tri-xa-hoi/Phap-luat/594558/them-mot-nguoi-chet-sau-khi-lam-viec-voi-cong-an.html","can_remove":false,"created_time":"2014-04-11T14:30:56+0000","like_count":0,"user_likes":false},"849537038396308":{"id":"849537038396308","from":{"id":"100001432462223","name":"Truong Nguyen"},"message":"Lạc đề nha ad, ad tổ lái về Việt Nam nha. :3","can_remove":false,"created_time":"2014-04-11T14:39:17+0000","like_count":2,"user_likes":false},"849614441721901":{"id":"849614441721901","from":{"id":"100000110765909","name":"Thảo Nguyễn"},"message":"Xem xong phóng sự  ban Dong Khac Thai chia se, đổ oan ng khác nv thì có phạm tội k nhỉ... \nTội nghiệp","can_remove":false,"created_time":"2014-04-11T17:02:03+0000","like_count":1,"user_likes":false},"849967288353283":{"id":"849967288353283","from":{"id":"100001156666759","name":"Kenshuu Steam"},"message":"các bác đi chung tàu với các bác xỉn hay mấy em học sinh thì sẽ hiểu. khuôn mẫu quá cũng không tốt","can_remove":false,"created_time":"2014-04-12T04:53:35+0000","like_count":0,"user_likes":false},"850282751655070":{"id":"850282751655070","from":{"id":"100001416272263","name":"Mai PB"},"message":"https://www.facebook.com/notes/757898647560148","can_remove":false,"created_time":"2014-04-12T16:24:37+0000","like_count":1,"user_likes":false}},"paging":{"cursors":{"after":"ODQ5NDUwMDExNzM4MzQ0","before":"ODQ5NDUwMDExNzM4MzQ0"},"next":"https://graph.facebook.com/229244010425617_849449135071765/comments?limit=1&summary=1&after=ODQ5NDUwMDExNzM4MzQ0"},"summary":{"order":"chronological","total_count":47}}}