{"id":"229244010425617_849594398390572","type":"status","from":{"id":"100003248117243","name":"Sleepy Man"},"message":"Một đất nước muốn phát triển không thể thiếu những cái đầu lớn, không thể thiếu nhân tài. Ấy thế mà, vẫn có một số người nói Việt Nam đang ổn định, đang phát triển tốt đấy chứ.\n\nXin hỏi các bạn đang sống tại Nhật, có xem nhiều tin tức và biết được một chút về những người trong chính phủ Nhật. Xin hỏi các bạn đang sống ở Việt Nam yêu nước hay bảo người khác là phản động một chút nhé! Các bạn có biết những câu nói dưới đây của ai không? Các bạn nghĩ sao khi một đất nước đang có những người như vậy điều hành không?\n\nNếu các bạn hay dùng từ phản động, bạn nghĩ sao khi đọc những câu này và các bạn sẽ làm gì?\n\n\"Quốc hội tức là dân, dân quyết sai thì dân chịu, chứ kỷ luật ai”\n\nChỉ 1 tháng sau, tháng 7/2010, thông tin về vụ bê bối ở Vinashin bung ra:  “Tôi thì vẫn chưa lo”\n\n“Với những chính sách điều chỉnh thị trường hiện nay, tôi đảm bảo TTCK sẽ lên giá và có chất lượng hơn. Nếu là nhà đầu tư chứng khoán thì lúc này tôi sẽ mua cổ phiếu”\n\n\"GDP năm nay của Việt Nam tuy chỉ có 106 tỷ USD, nhưng đến 2020 sẽ tăng lên 300 tỷ USD và năm 2030 là 700 tỷ, đến 2040 ước đoán cỡ 1,2 - 1,4 nghìn tỷ USD. Đến 2050, khi hoàn thành toàn tuyến, con số đó dự kiến sẽ tăng gấp đôi”. Và:  \"Thu nhập bình quân đầu người hiện nay là 1.200 USD, nhưng với tốc độ tăng trưởng kinh tế tương lai thì đến 2020 sẽ là 3.000 USD, và lần lượt tăng lên mức 6.000, rồi 12.000 và sẽ đạt 20.000 vào năm 2050\"\n\nliên quan đến vấn đề trách nhiệm, trả lời câu hỏi của đại biểu Đặng Như Lợi trước đó về kỷ luật hành chính, câu trả lời là: \"Sai thì phải sửa, làm 10 việc tốt cũng có thể có một việc sai. Nếu cách chức hết thì lấy ai làm việc. Cứ nói theo quy định của pháp luật, nhưng pháp luật cũng có cái đạo, cứ dẹp đi là bầu không kịp\"","created_time":"2014-04-11T16:22:51+0000","updated_time":"2014-04-12T14:12:35+0000","likes":{"data":{"100001416272263":{"id":"100001416272263","name":"Mai PB"},"1026780646":{"id":"1026780646","name":"Việt Hưng Khổng"},"1556805797":{"id":"1556805797","name":"Phan Đăng Thuận Hà"},"100005801442456":{"id":"100005801442456","name":"An Nguyen"},"100000429908109":{"id":"100000429908109","name":"Viet Anh Nguyen"},"100005596470828":{"id":"100005596470828","name":"Hoàng Sup Hyo"},"100003901118730":{"id":"100003901118730","name":"Lắng Nghe Nước Mắt"},"100005101303993":{"id":"100005101303993","name":"Nam NguyễnHải"},"100003327351931":{"id":"100003327351931","name":"Bánh Mì Sữa"},"100004406108994":{"id":"100004406108994","name":"Thu Hà"},"100007930417031":{"id":"100007930417031","name":"Trang Yamato"},"653264860":{"id":"653264860","name":"Duc Quang Pham"},"100007187850069":{"id":"100007187850069","name":"Tập Sống Ích Kỉ"},"100005329959371":{"id":"100005329959371","name":"Luz Phạm"}},"paging":{"cursors":{"after":"MTAwMDAxNDE2MjcyMjYz","before":"MTAwMDAxNDE2MjcyMjYz"},"next":"https://graph.facebook.com/229244010425617_849594398390572/likes?limit=1&summary=1&after=MTAwMDAxNDE2MjcyMjYz"},"summary":{"total_count":14}},"comments":{"data":{"849756965040982":{"id":"849756965040982","from":{"id":"1717530880","name":"Triệu Việt Cường"},"message":"Chủ tịch Nguyễn Sinh Hùng.","can_remove":false,"created_time":"2014-04-11T22:00:44+0000","like_count":0,"user_likes":false},"849863281697017":{"id":"849863281697017","from":{"id":"100001876928704","name":"Kien Nguyen"},"message":"Vậy mục đích của bài viết này là j ????","can_remove":false,"created_time":"2014-04-12T01:33:29+0000","like_count":1,"user_likes":false},"849970081686337":{"id":"849970081686337","from":{"id":"100001646814780","name":"Nhật Dương"},"message":"Chỉ muốn đảng cs sớm sụp đổ","can_remove":false,"created_time":"2014-04-12T05:02:11+0000","like_count":0,"user_likes":false},"850056721677673":{"id":"850056721677673","from":{"id":"100002999756689","name":"Lắng Nghe"},"message":"Nhật Dương ăn nói ngông cuồng,phản động.Dù thế nào đi chăng nữa,chế độ Xã Hội Chủ Nghĩa của là chế độ Bác chọn và toàn thể Người nước Việt Nam chọn(theo mình nó là chế độ tốt)Và theo bạn Đảng Cộng Sản sụp đổ thì bạn sẽ đi đâu và theo chế độ nào???.Là con người chắc chắn cũng có lúc sai lầm,và cũng có người này người kia.hãy tự suy xét lại bản thân mình xem \" Đừng hỏi tổ quốc đã làm gì cho ta- Mà hãy hỏi ta đã làm gì cho tổ quốc hôm nay\" Nếu chỉ tập chung vào cái tiêu cựu như những thông tin như thế này thì cũng chỉ mang ý nghĩ tiêu cực và cực đoan thui.cho nên có sai thì phải sửa,mà cũng  không vì một số quan chức quan liêu mà chúng ta nản lòng nản chí,và nó đang tiêu cực như vậy đó- và cần sự chung tay thay đổi nó phải không các bạn trẻ???\nP/S :cmt không có ý khiêu khích,lăng mạ.chỉ mạng tính góp ý và cùng nhau đi lên.","message_tags":[{"id":"100001646814780","name":"Nhật Dương","type":"user","offset":0,"length":10}],"can_remove":false,"created_time":"2014-04-12T07:26:52+0000","like_count":1,"user_likes":false},"850102351673110":{"id":"850102351673110","from":{"id":"100005801442456","name":"An Nguyen"},"message":"Thế nào là phản động ? Bạn nào xài từ đó đc thì có thể định nghĩa được không ? Hay quy chụp và chụp mũ ? \nhttp://vietnamhumanrightscommitte.wordpress.com/2012/10/19/the-nao-la-phan-dong/#more-910","can_remove":false,"created_time":"2014-04-12T09:37:02+0000","like_count":0,"user_likes":false},"850184691664876":{"id":"850184691664876","from":{"id":"100002999756689","name":"Lắng Nghe"},"message":"Dạ vâng theo bạn Cụm từ \"Chỉ muốn đảng cs sớm sụp đổ\" theo bạn có được gọi là phản động không bạn????","can_remove":false,"created_time":"2014-04-12T13:14:08+0000","like_count":0,"user_likes":false},"850188721664473":{"id":"850188721664473","from":{"id":"100005801442456","name":"An Nguyen"},"message":"Bạn đọc cái bài mình đưa định nghĩa phản động rồi bạn hẳn cm tiếp cũng k quá muộn đâu.","can_remove":false,"created_time":"2014-04-12T13:24:17+0000","like_count":0,"user_likes":false},"850196144997064":{"id":"850196144997064","from":{"id":"100002884430339","name":"Hồng Trịnh"},"message":"mình không hiểu, mục đích bạn đăng bài này là gì vây?","can_remove":false,"created_time":"2014-04-12T13:36:43+0000","like_count":0,"user_likes":false},"850201204996558":{"id":"850201204996558","from":{"id":"100002999756689","name":"Lắng Nghe"},"message":"Dạ vâng.mình định nghĩa và dùng 2 từ \" phản động \" là sai.nhưng tư tưởng \" Chỉ muốn đảng cs sớm sụp đổ\" là hoàn toàn không chấp nhận được.","can_remove":false,"created_time":"2014-04-12T13:47:51+0000","like_count":0,"user_likes":false},"850204291662916":{"id":"850204291662916","from":{"id":"1026780646","name":"Việt Hưng Khổng"},"message":"Lắng nghe có thể nói cho mình biết, cùng một dân tộc, cùng một ngôn ngữ thì Cộng sản Bắc triều và Tư bản \"thối nát\" Nam triều thì ở đâu cuộc sống của nhân dân tốt hơn không ?","can_remove":false,"created_time":"2014-04-12T13:54:05+0000","like_count":1,"user_likes":false},"850208248329187":{"id":"850208248329187","from":{"id":"100002999756689","name":"Lắng Nghe"},"message":"Cái này mình không biết nha.","can_remove":false,"created_time":"2014-04-12T14:01:51+0000","like_count":0,"user_likes":false},"850208531662492":{"id":"850208531662492","from":{"id":"100007754344848","name":"Hoaanhđào Tháng Tư"},"message":"dù cộng sản hay tư bản,cái nào thực hiện đúng như lời đã nói là tự do,dân chủ,bình đẳng,bác ái,biết phát huy chân,thiện,mỹ là được.","can_remove":false,"created_time":"2014-04-12T14:02:30+0000","like_count":2,"user_likes":false},"850210044995674":{"id":"850210044995674","from":{"id":"100003398911005","name":"Họ Tạ Tên Nam"},"message":"ko quan tâm nhưng vn đang rất khó khăn đó :) \nà mà klq cho e hỏi tí : bọn nhật bọn nó nhìn phát nhớ luôn hay sao mà thằng đầu bếp e nó hay chửi e thế :(","can_remove":false,"created_time":"2014-04-12T14:05:45+0000","like_count":0,"user_likes":false},"850214651661880":{"id":"850214651661880","from":{"id":"100007754344848","name":"Hoaanhđào Tháng Tư"},"message":"mình xem tập 1 phim \"người nhật không biết tiếng nhật\",phim ấy có đoạn người nhật khinh thường du học sinh nước ngoài đi làm thêm(là một người da đen)trong khi du học sinh da đen chỉ biết chịu đựng.nhưng khi cậu ấy học tiếng nhật giỏi hơn,cậu ấy dần quen việc ở trong quán và dần được chủ quán coi trọng.người nhật rất coi trọng những người làm được việc,bản thân học chăm chỉ và họ cũng muốn người khác như vậy.","can_remove":false,"created_time":"2014-04-12T14:12:35+0000","like_count":1,"user_likes":false}},"paging":{"cursors":{"after":"ODQ5NzU2OTY1MDQwOTgy","before":"ODQ5NzU2OTY1MDQwOTgy"},"next":"https://graph.facebook.com/229244010425617_849594398390572/comments?limit=1&summary=1&after=ODQ5NzU2OTY1MDQwOTgy"},"summary":{"order":"chronological","total_count":14}}}