{"id":"229244010425617_849644191718926","type":"link","picture":"https://fbexternal-a.akamaihd.net/safe_image.php?d=AQAn502WTggYXCgy&w=154&h=154&url=http%3A%2F%2Fwww.news24.jp%2Fpictures%2Fnews24_logo_facebook.gif","link":"http://www.news24.jp/articles/2014/04/12/07249123.html","from":{"id":"620066722","name":"Dong Khac Thai"},"message":"【Tin  mới】 Nhóm tội phạm có tổ chức của người Việt mới bị bắt tại Nhật\n\nLink tiếng Nhật\n\nhttp://www.news24.jp/articles/2014/04/12/07249123.html\n\n※Bài báo\n\nVì bị nghi ngờ ăn trộm số lượng lớn mỹ phẩm ở nhà thuốc tỉnh kagawa, một nhóm trộm cắp có tổ chức của người Việt bị vạch trần.\n\nNgười bị bắt vì bị tình nghi ăn trộm là 5 người gồm cả nam và nữ quốc tịch VN, trong đó có ドゥ・バン・チュン(25) công nhân làm xây dựng tại tp Mitoyo , グェン・クゥイ・クゥアン du học sinh tại thành phô Matsuko tinh Chiba, \n\nTheo điều tra của cảnh sát, 5 người này đồng phạm với nhau, từ tháng 12 năm ngoái tới tháng 1 năm nay đã ăn trộm 67 món thực phẩm chức năng và mỹ phẩm trị giá 18,8man tại nhà thuốc thành phố Marugame và Mitoyo.\n\n3 người gồm có nghi phạm チュンđang trên đường trốn chạy từ tiệm thuốc ở tp Marukame là nơi gây ra các vụ trộm, thì bị cảnh sát tại tp Sakaide tỉnh Kagawa\nbắt　4 trong 5 người bị khởi tố vì tội ăn trộm, còn đồng phạm nữ thì bị bắt vào ngày 11.\n　\nTheo như cảnh sát thì 5 người nói là \"mục đích là ăn trộm rùi bán lại đồ lấy tiền mặt\",  thành viên trong nhóm này cũng có gởi đồ cho nhân vật có liên quan tới VN Airlline.\n\nCảnh sát đang điều tra người đàn ông chủ mưu đang trốn chạy và đang điều tra các vụ phạm tội khác và mối quan hệ phía sau.\n\n※Suy nghĩ của cá nhân\n\nNhững người như thế này làm ảnh hưởng tới cuộc sống, công việc và uy tín của bao người làm ăn đàng hoàng khác. Phải siết chặt lại các công ty môi giới du học làm ăn không đàng hoàng, vẽ ra viễn cảnh lương 2 ngàn đô.","created_time":"2014-04-11T17:48:18+0000","updated_time":"2014-04-13T01:57:17+0000","likes":{"data":{"569263718":{"id":"569263718","name":"Phuong Thao Tran"},"100003643250494":{"id":"100003643250494","name":"Ngốc Nhất Nhà"},"100000918871201":{"id":"100000918871201","name":"Thang PhanVan"},"100003929334541":{"id":"100003929334541","name":"Nguyễn Trung"},"100003764736821":{"id":"100003764736821","name":"Hùng Kon"},"100006803468897":{"id":"100006803468897","name":"Maria Maria"},"1128427597":{"id":"1128427597","name":"Quyên Nguyễn"},"100003939942324":{"id":"100003939942324","name":"Trung Vũ Kiên"},"1108104959":{"id":"1108104959","name":"Nguyễn Hoàng Anh"},"100002371397093":{"id":"100002371397093","name":"Le Duc Dat"},"100004057374771":{"id":"100004057374771","name":"Sao Bang Vo Tinh"},"100004327473342":{"id":"100004327473342","name":"Đất Khách Quê Người"},"100001786404410":{"id":"100001786404410","name":"Huệ Nguyễn"},"100000091547214":{"id":"100000091547214","name":"Nguyễn Minh Quân"},"100001695345798":{"id":"100001695345798","name":"Tyn Aki"},"100005814217210":{"id":"100005814217210","name":"Huỳnh Anh Tùng"},"100003635232168":{"id":"100003635232168","name":"Thanh Bg"},"100000290594555":{"id":"100000290594555","name":"Thuy Tien Le"},"100000095655445":{"id":"100000095655445","name":"Kamiya Satoshi"},"736619290":{"id":"736619290","name":"Hoa Vo Khuyet"},"100001995633843":{"id":"100001995633843","name":"Yasunobu Toda"},"100003894427927":{"id":"100003894427927","name":"Phong Dinh"},"100000309415626":{"id":"100000309415626","name":"Kona Yuki"},"1068482018":{"id":"1068482018","name":"Loan Le"},"100007918629775":{"id":"100007918629775","name":"Quốc Đạt"},"1146680551":{"id":"1146680551","name":"優しい なぁ"},"100001542633887":{"id":"100001542633887","name":"Uknwon Phạm"},"100003933466469":{"id":"100003933466469","name":"Phong Aki"},"100000572010533":{"id":"100000572010533","name":"Thao Vo"},"100006361146013":{"id":"100006361146013","name":"Tuấn Anh"},"100002283229675":{"id":"100002283229675","name":"Vũ Văn Hưng"},"100007882004281":{"id":"100007882004281","name":"Quan To"},"100004075308762":{"id":"100004075308762","name":"Lie Lie"},"100000342230134":{"id":"100000342230134","name":"Thuy Le"},"100003327351931":{"id":"100003327351931","name":"Bánh Mì Sữa"},"100006638891142":{"id":"100006638891142","name":"Trịnh Thế Định"},"100005801442456":{"id":"100005801442456","name":"An Nguyen"},"100005866751996":{"id":"100005866751996","name":"Nam Nguyen"},"100006933518153":{"id":"100006933518153","name":"Mai Hạnh Nguyễn"},"100003126960428":{"id":"100003126960428","name":"Binh X Dtvt"},"100003913383051":{"id":"100003913383051","name":"Tho Tran"},"100002508122689":{"id":"100002508122689","name":"Vũ Mạnh Tuấn"}},"paging":{"cursors":{"after":"NTY5MjYzNzE4","before":"NTY5MjYzNzE4"},"next":"https://graph.facebook.com/229244010425617_849644191718926/likes?limit=1&summary=1&after=NTY5MjYzNzE4"},"summary":{"total_count":42}},"comments":{"data":{"849647641718581":{"id":"849647641718581","from":{"id":"100003248117243","name":"Sleepy Man"},"message":"Mình không hài lòng với bài dịch mà có thêm lời bình mang tính chất định hướng người đọc như vậy! Nhất là những lời bình gián tiếp gây phương hại đến cho người khác!","can_remove":false,"created_time":"2014-04-11T17:52:05+0000","like_count":0,"user_likes":false},"849648035051875":{"id":"849648035051875","from":{"id":"620066722","name":"Dong Khac Thai"},"message":"Đây là quan điểm cá nhân của mình. Ai cũng biết rõ là như vậy thì cần gì phải giấu nữa.","can_remove":false,"created_time":"2014-04-11T17:52:52+0000","like_count":0,"user_likes":false},"849649571718388":{"id":"849649571718388","from":{"id":"100003248117243","name":"Sleepy Man"},"message":"Nói rõ hơn là thế này, khi bạn viết như thế này, vô hình chung mọi sự chỉ trích đổ dồn sang cho các công ty du học. Vậy công ty du học làm ra chuyện này sao? Sai!\n\nCó công ty lừa đảo, có công ty đàng hoàng. Nhưng dù là công ty lừa đảo đi nữa thì việc ăn cắp này là do bản thân người ăn cắp tự suy nghĩ, tự gây ra, không thể đổ tội cho công ty du học.\n\nNếu bạn kết luận vậy, bạn nên kết luận cả từ cái XHCN trở đi, nó tạo ra cái Đảng cộng sản. Từ cái Đảng đó nó tạo ra cả một cái xã hội thối nát. Bạn nghĩ đúng không?\n\nTiếp đến, bạn là một admin, dịch mà bình luận ngày trong stt mở đầu, nó mang tính chất định hướng không tốt cho người đọc. Bạn có thể dịch sau đó comment bình luận. Bạn đang sống ở nước Nhật, bạn thừa biết các nước tư bản không bao giờ họ đăng tin có bình luận dẫn hướng, họ đăng tin thô cho mọi người tự cảm nhận. Cách định hướng của bạn chỉ dành cho mấy nước xã hội chủ nghĩa thôi. Nên nghĩ kỹ lại nếu bạn đang là admin.","can_remove":false,"created_time":"2014-04-11T17:56:32+0000","like_count":1,"user_likes":false},"849649805051698":{"id":"849649805051698","from":{"id":"620066722","name":"Dong Khac Thai"},"message":"Có lẽ 1 trong những lý do chính dẫn tới tình trạng hiện nay là do các công ty môi giới du học vẽ ra viển cảnh quá đẹp như vậy, vừa học vừa có 2000 đô 1 tháng, còn hơn người đi làm bình thường. Rùi có trường hợp o có N5 vẫn cách nào đó chạy có được N5 mà o phải thi. Sang đây o tiền, o tiếng, giá sinh hoạt mắc .. dẫn họ vào chỗ như thế này.","can_remove":false,"created_time":"2014-04-11T17:57:01+0000","like_count":1,"user_likes":false},"849650815051597":{"id":"849650815051597","from":{"id":"620066722","name":"Dong Khac Thai"},"message":"Mình biết được thực trạng như vậy và nói ra thôi, cũng không có liên quan tới admin hay thành viên cả. Mình có bổ sung là quan điểm cá nhân. Ai mà chẳng biết vấn đề như vậy.","can_remove":false,"created_time":"2014-04-11T17:58:58+0000","like_count":0,"user_likes":false},"849651511718194":{"id":"849651511718194","from":{"id":"100003248117243","name":"Sleepy Man"},"message":"Tốt nhất, đăng tin thô và xoá lời bình của bạn đi. Còn nếu không thì bạn tự sai lầm đấy, sống ở nước tiên tiến nên học cái tốt chứ đừng giữ cái xấu của dân Cộng sản.","can_remove":false,"created_time":"2014-04-11T18:00:01+0000","like_count":1,"user_likes":false},"849652045051474":{"id":"849652045051474","from":{"id":"620066722","name":"Dong Khac Thai"},"message":"Ok mình có suy  nghĩ và tự chịu trách nhiệm việc mình làm. Cám ơn bạn.","can_remove":false,"created_time":"2014-04-11T18:00:55+0000","like_count":0,"user_likes":false},"849652078384804":{"id":"849652078384804","from":{"id":"100003248117243","name":"Sleepy Man"},"message":"Thực trạng nó bắt nguồn từ đâu? Sao bạn không đổ tội nốt lên đầu bố mẹ những người phạm tội vì không biết dạy đỗ con cái đí?","can_remove":false,"created_time":"2014-04-11T18:01:02+0000","like_count":1,"user_likes":false},"849652631718082":{"id":"849652631718082","from":{"id":"100003248117243","name":"Sleepy Man"},"message":"Mình nghĩ bạn không phải là người chịu gì cả, chịu cuối cùng là các công ty du học bị mang tiếng đào tạo ra lũ ăn cắp. Như vậy có quá đáng không khi những công ty đàng hoàng tử tế cũng dính chúng?","can_remove":false,"created_time":"2014-04-11T18:02:26+0000","like_count":0,"user_likes":false},"849653488384663":{"id":"849653488384663","from":{"id":"620066722","name":"Dong Khac Thai"},"message":"Mình chỉ lên án cty làm ăn không đàng hoàng. Dư luận sẽ đọc và đánh giá được. Sr mình ngừng tranh luận tại đây.","can_remove":false,"created_time":"2014-04-11T18:04:49+0000","like_count":0,"user_likes":false},"849670088383003":{"id":"849670088383003","from":{"id":"100000178017604","name":"Hà Nội Yêu"},"message":"Quá tệ luôn, tôi đã nghĩ người vn mình rút kinh nghiệm mấy vụ trước thì đỡ hơn vậy mà :(","can_remove":false,"created_time":"2014-04-11T18:52:06+0000","like_count":0,"user_likes":false},"849675871715758":{"id":"849675871715758","from":{"id":"100003799434301","name":"Ninh Mai"},"message":"Ăn trôm quen tay bỏ sao đc, mình đã chứng kiến 1 bạn du học sinh trong ví có tới hơn 7 man thế mà vẫn ăn trộm 1 cái bánh + 1 chai nước ( tổng trị gái 300en)","can_remove":false,"created_time":"2014-04-11T19:04:21+0000","like_count":4,"user_likes":false},"849718131711532":{"id":"849718131711532","from":{"id":"100001458099624","name":"Kham Pha"},"message":"Sleepy Man ko nên khắt khe quá như vậy, bạn ấy đăng bài chia sẻ lên group và có thêm suy nghĩ cá nhân là chuyện bình thường, có gì sai đâu? Admin chỉ cần khách quan trong xử lý công việc group thôi chứ đăng bài thì tương đương như member.\nCó điều là bạn Sleepy Man nói cũng đúng ở chỗ Dong Khac Thai nên để bình luận của bản thân sau khi dịch nội dung, như vậy hợp lý hơn.","message_tags":[{"id":"100003248117243","name":"Sleepy Man","type":"user","offset":0,"length":10},{"id":"620066722","name":"Dong Khac Thai","type":"user","offset":285,"length":14}],"can_remove":false,"created_time":"2014-04-11T20:37:30+0000","like_count":2,"user_likes":false},"849725245044154":{"id":"849725245044154","from":{"id":"100000048296076","name":"Anh Trần"},"message":"tốt , bắt hết đi cho sạch :v","can_remove":false,"created_time":"2014-04-11T20:45:09+0000","like_count":0,"user_likes":false},"849729465043732":{"id":"849729465043732","from":{"id":"100004075308762","name":"Lie Lie"},"message":"Trời ơi có tên mềnh..@@","can_remove":false,"created_time":"2014-04-11T20:54:50+0000","like_count":0,"user_likes":false},"849729785043700":{"id":"849729785043700","from":{"id":"100000048296076","name":"Anh Trần"},"message":"^ về đồn ngay :v","can_remove":false,"created_time":"2014-04-11T20:55:17+0000","like_count":0,"user_likes":false},"849729958377016":{"id":"849729958377016","from":{"id":"100004075308762","name":"Lie Lie"},"message":":v hehe","can_remove":false,"created_time":"2014-04-11T20:55:28+0000","like_count":0,"user_likes":false},"849730491710296":{"id":"849730491710296","from":{"id":"620066722","name":"Dong Khac Thai"},"message":"@グエンチュンドゥック: OK mình sẽ cho quan điểm cá nhân xuống dưới.","can_remove":false,"created_time":"2014-04-11T20:56:42+0000","like_count":0,"user_likes":false},"849731848376827":{"id":"849731848376827","from":{"id":"100005455082902","name":"Kevinl Doi"},"message":"Tất cả đường cùng thôi chứ k ai muôn mắc tội đâu...\nNỗi khổ riêng ai Thấu...\nCó ai dám vỗ vào Ngưc minh và đứng nên nói từ ngày sang nhật cho đến bg là k đi trái Luật dù chỉ 1 lần k... Ai dám k....:))","can_remove":false,"created_time":"2014-04-11T21:00:26+0000","like_count":1,"user_likes":false},"849732158376796":{"id":"849732158376796","from":{"id":"100004075308762","name":"Lie Lie"},"message":"Mấy bạn ms sang 1 2 ngày chắc dám đó bạn..hehe..","can_remove":false,"created_time":"2014-04-11T21:01:26+0000","like_count":0,"user_likes":false},"849734528376559":{"id":"849734528376559","from":{"id":"620066722","name":"Dong Khac Thai"},"message":"Kevinl Doi : luật pháp là luật pháp bạn, ai cũng cùng đường thì xã hội loạn lên hết hả bạn. Vấn đề là phải hiểu nguyên nhân cốt lõi ban đầu để khắc phục. Không khắc phục rùi tới lúc phạm luật lại nói vì đường cùng thì hợp lý không bạn. Suy nghĩ lại nhé bạn.","can_remove":false,"created_time":"2014-04-11T21:06:22+0000","like_count":1,"user_likes":false},"849736131709732":{"id":"849736131709732","from":{"id":"100005455082902","name":"Kevinl Doi"},"message":"Thôi tạnh cái văn ấy đi...\nTháng k bới đc ra xèng no ăn no học no nợ no lại ở nhà ấy thì ở đây mà khắc với chả Phục....","can_remove":false,"created_time":"2014-04-11T21:10:14+0000","like_count":0,"user_likes":false},"849737551709590":{"id":"849737551709590","from":{"id":"620066722","name":"Dong Khac Thai"},"message":"Kevinl Doi: Mình đang nói chuyện đàng hoàng nhé bạn. Cái đó từ ban đầu đã không tìm hiều rõ, và nhiều trường hợp không được tư vấn nghiêm túc Nói ra cho người sau còn biết để còn tránh và suy nghĩ cẩn thận rùi mới sang..","can_remove":false,"created_time":"2014-04-11T21:12:38+0000","like_count":0,"user_likes":false},"849750841708261":{"id":"849750841708261","from":{"id":"100000048296076","name":"Anh Trần"},"message":"vậy mấy t đường cùng ăn cướp nhà bạn , thì bạn tha thứ cho nó nhỉ :v","can_remove":false,"created_time":"2014-04-11T21:42:15+0000","like_count":0,"user_likes":false},"849751478374864":{"id":"849751478374864","from":{"id":"100002971920268","name":"Tùng Tung Tăng"},"message":"Bắt hết đi cho trong nước nhà… canh suốt ngày có sâu… ai ăn đc…","can_remove":false,"created_time":"2014-04-11T21:44:12+0000","like_count":0,"user_likes":false},"849752051708140":{"id":"849752051708140","from":{"id":"100006361146013","name":"Tuấn Anh"},"message":"Xiết chặt kiểm soát người việt sang bên này giữa 2 chính phủ","can_remove":false,"created_time":"2014-04-11T21:45:50+0000","like_count":0,"user_likes":false},"849774905039188":{"id":"849774905039188","from":{"id":"100007917634982","name":"Cry Cry"},"message":"Kevinl Doi @ : Mình sang đây hơn 1 năm và chưa bao giờ làm gì trái pháp luật của Nhật Bản. Ai cũng có nỗi khổ riêng nhưng đừng lấy nó ra để làm lí do cho những hành động trên.","can_remove":false,"created_time":"2014-04-11T22:48:55+0000","like_count":7,"user_likes":false},"849799375036741":{"id":"849799375036741","from":{"id":"100003165554056","name":"Sâu Bét"},"message":"@kevinl doi: e k biết ntn chứ, e chưa đá, chưa ăn trộm bất cứ cái gì, dù là hoa quả ngoài đường","can_remove":false,"created_time":"2014-04-11T23:35:30+0000","like_count":1,"user_likes":false},"849802258369786":{"id":"849802258369786","from":{"id":"620066722","name":"Dong Khac Thai"},"message":"Thanks e, để a xem lại nhé.","can_remove":false,"created_time":"2014-04-11T23:44:24+0000","like_count":0,"user_likes":false},"849806111702734":{"id":"849806111702734","from":{"id":"100006368081099","name":"Man Thu"},"message":"Cứ theo chân bạn kevinl doi,kiểu gi cũng ra một đường dây. Kẻ mà nghe chưa xong đã nguỵ biện ấy,thì chỉ có đạp lên người khác mà sống.thế nên mới có trường hợp đường cùng là sinh nhật bạn hết tiền nên đi lấy hàng hiệu gucci về tặng.Nhật là đất nước không cần phải nịnh bợ, không phải uốn éo....Mà vẫn có thể sống tốt, thế nên không biết tiếng vẫn có thể làm được. Đây là nhà người ta, họ làm j mình không thể kiểm soát nhưng mình đang là khách.","can_remove":false,"created_time":"2014-04-11T23:58:11+0000","like_count":6,"user_likes":false},"850519208298091":{"id":"850519208298091","from":{"id":"620066722","name":"Dong Khac Thai"},"message":"@Ngo Le Anh: vấn đề là do họ không được đưa thông tin chính xác từ đầu.","can_remove":false,"created_time":"2014-04-13T01:50:12+0000","like_count":0,"user_likes":false},"850522568297755":{"id":"850522568297755","from":{"id":"620066722","name":"Dong Khac Thai"},"message":"@Ngo Le Anh: nếu quản lý hoạt động của công ty du học chặt từ đầu thì mới giải quyết được vấn đề này.","can_remove":false,"created_time":"2014-04-13T01:57:17+0000","like_count":0,"user_likes":false}},"paging":{"cursors":{"after":"ODQ5NjQ3NjQxNzE4NTgx","before":"ODQ5NjQ3NjQxNzE4NTgx"},"next":"https://graph.facebook.com/229244010425617_849644191718926/comments?limit=1&summary=1&after=ODQ5NjQ3NjQxNzE4NTgx"},"summary":{"order":"chronological","total_count":36}}}