{"id":"229244010425617_849817455034933","type":"link","picture":"https://fbexternal-a.akamaihd.net/safe_image.php?d=AQAe3wEkwoaeoy4t&w=154&h=154&url=http%3A%2F%2Ftownwork.net%2Ftwc%2Fassets%2Fogp.png","link":"http://townwork.net/kantou/","from":{"id":"100003913383051","name":"Tho Tran"},"message":"Xin chia sẻ một vài kinh nghiệm nhỏ về cách săn việc làm thêm cho những người mới qua Nhật cũng như đang săn việc làm ( năng lực tiếng có thể chưa tốt):\nVới mình công việc làm thêm và việc học đều quan trọng như nhau, thậm chí có những bạn cần một công việc làm thêm hơn việc học hiện tại. Vì phải trang trải cuộc sống, học hành đi lại, và nhiều thứ phải lo âu cho cuộc sống...\nVới mình kiếm một công việc làm thêm để trang trải cuộc sống tại nơi đây cũng không hề dễ nhưng cũng chẳng quá khó để tìm nó. Nhưng tìm bằng cách nào? Địa điểm ra sao cho thuận tiện đi lại, chi phí phát sinh kèm theo khi được nhận vào làm...\n- cách tìm việc: có rất nhiều thông tin tuyển tuyển dụng arubaito mình cũng đã chia sẻ như cách tìm việc trên:\n+http://townwork.net\n+http://www.baitoru.com\n+http://www.gaikokujins.com\nTất cả những trang web này đều rất bổ ích cho việc tìm kiếm thông tin ảrubaito. Nhưng những cách này đôi khi cũng gây khá nhiều bất tiện cho người xin việc tuy biết thông tin đầy đủ của nhà tuyển dụng đăng trên đó. Khi biết được thông tin tuyển dụng từ những tờ báo này ứng viên sẽ gọi  điện tới để phỏng vấn, sau phải chờ đợi lịch hẹn từ nhà tuyển dụng ...vv cái khoảng thời gian chờ đợi đó thường sẽ làm các bạn mất khá nhiều thời gian...=> tâm trạng lo âu vì chẳng biết bao giờ với nhận được điện thoại từ họ=> thấy chán nảm=> suy nghĩ tới việc \" mình không thể tự xin việc\" => tìm đến người shoukai=> mất phí ( nếu công việc tốt thì chẹp miệng cười thầm mất phí nhưng  được việc ngon, công việc không tốt thì thái độ và suy nghĩ cũng khác.... Bị lừa). \nĐể được chủ động hơn trong công cuộc săn việc mình nghĩ các bạn nên săn việc ở các Quán ăn, quán thịt nướng, hay bán hàng .... ( tuỳ vào năng lực tiếng của mỗi người). tiếng kém các bạn nên săn việc làm trong bếp tại các quán ăn, quán nhậu ( lương thấp tý cũng được), tiếng tốt săn việc làm ホール, hay bán hàng tại các quán thịt nướng, combini...thường những thông tin tuyển dụng sẽ  được dán phía  trước của các quán...các bạn nên chụp ảnh thông tin đó, sau về chuẩn bị kĩ lưỡng những câu hỏi, trả lời trước khi gọi điện đến phỏng vấn, như thế tỷ lệ đỗ phỏng vấn sẽ cao hơn, các bạn có thể chủ động hơn vì cách này đậu hay không thì gần như các bạn sẽ biết sau khi cuộc gọi điện kết thúc.\nCòn cách gọi điện như thế nào thì cá bạn xem tại link\nCâu hỏi phỏng vấn tại quán:\nhttps://www.facebook.com/groups/CongdongVietNhat/permalink/760488820634464/\n- Khi tìm việc thì các bạn cũng nên để tâm tới địa điển, ga xem có phù hợp không? Chi phí đi lại và thời gian nữa... Nếu xa mà được nhà tuyển dụng chi trả chi phí đi lại thì ok nhưng không thì chắc hơi vất, thời gian nếu gấp quá, hoặc sát với giờ học cũng sẽ làm các bạn vất vả... Nên cân nhắc cả thời gian và địa  điểm sao cho phù hợp nhất\nP/s: kinh nghiệm từ bản thân nên có nhiều thông tin chắc không đầy đủ hoặc thiếu xót do chưa trải nghiệm hết, bài viết chỉ mang tính chất để các bạn tham khảo. Chúc các bạn may mắn!!!","created_time":"2014-04-12T00:30:52+0000","updated_time":"2014-04-12T16:09:38+0000","likes":{"data":{"100003155380603":{"id":"100003155380603","name":"Khuong Pham"},"100002762270141":{"id":"100002762270141","name":"Mien Nguyen"},"100005801442456":{"id":"100005801442456","name":"An Nguyen"},"100003172583705":{"id":"100003172583705","name":"MrToàn Pro"},"1550521697":{"id":"1550521697","name":"Trình Nguyễn"},"100003922416229":{"id":"100003922416229","name":"Hòa Nguyễn Văn"},"100004057444453":{"id":"100004057444453","name":"Vân Este"},"100003075823746":{"id":"100003075823746","name":"Strong Cuong"},"569263718":{"id":"569263718","name":"Phuong Thao Tran"},"100001526631937":{"id":"100001526631937","name":"Tường Oanh Mineko"},"100003031756149":{"id":"100003031756149","name":"Đại Mìn"},"100002963737004":{"id":"100002963737004","name":"Hà Phùng"},"100002959135962":{"id":"100002959135962","name":"Duong Nguyen Van"},"100004779104079":{"id":"100004779104079","name":"Hạt Tiêu"},"100005169155652":{"id":"100005169155652","name":"Pham Minh"},"100000095655445":{"id":"100000095655445","name":"Kamiya Satoshi"},"100005703791922":{"id":"100005703791922","name":"Hoa Tiên Tử"},"100007998096480":{"id":"100007998096480","name":"Đăng Dũng"},"100001416272263":{"id":"100001416272263","name":"Mai PB"},"100002615664668":{"id":"100002615664668","name":"PuPu Phương Elf"},"1026780646":{"id":"1026780646","name":"Việt Hưng Khổng"},"100001432462223":{"id":"100001432462223","name":"Truong Nguyen"},"620066722":{"id":"620066722","name":"Dong Khac Thai"},"100000747635624":{"id":"100000747635624","name":"Nguyễn Xuân Đại"}},"paging":{"cursors":{"after":"MTAwMDAzMTU1MzgwNjAz","before":"MTAwMDAzMTU1MzgwNjAz"},"next":"https://graph.facebook.com/229244010425617_849817455034933/likes?limit=1&summary=1&after=MTAwMDAzMTU1MzgwNjAz"},"summary":{"total_count":24}},"comments":{"data":{"849819571701388":{"id":"849819571701388","from":{"id":"100002126299449","name":"Duy Bui"},"message":"Vào quán nhậu làm để về nc à","can_remove":false,"created_time":"2014-04-12T00:35:28+0000","like_count":0,"user_likes":false},"849826095034069":{"id":"849826095034069","from":{"id":"100003913383051","name":"Tho Tran"},"message":"Nói là quán nhậu nhưng thực ra là những quán như quán thịt nướng, chứ quán rượu họ cũng đâu nhận du học sinh :3","can_remove":false,"created_time":"2014-04-12T00:44:11+0000","like_count":0,"user_likes":false},"849845758365436":{"id":"849845758365436","from":{"id":"100002615664668","name":"PuPu Phương Elf"},"message":"Arigatou <3","can_remove":false,"created_time":"2014-04-12T00:57:13+0000","like_count":0,"user_likes":false},"849850788364933":{"id":"849850788364933","from":{"id":"100001432462223","name":"Truong Nguyen"},"message":"Cảm ơn a ah :)","can_remove":false,"created_time":"2014-04-12T01:05:36+0000","like_count":1,"user_likes":false},"849851288364883":{"id":"849851288364883","from":{"id":"100001416272263","name":"Mai PB"},"message":"Quán nhậu trong bài là loại quán ăn phổ biến izakaya 居酒屋, chứ không phải quán uống kiểu bar, pub đâu.","can_remove":false,"created_time":"2014-04-12T01:06:35+0000","like_count":2,"user_likes":false},"849851765031502":{"id":"849851765031502","from":{"id":"100001416272263","name":"Mai PB"},"message":"Em Tho Tran dạo này lên tay. Mà \"thậm chí\" nhé.","message_tags":[{"id":"100003913383051","name":"Tho Tran","type":"user","offset":3,"length":8}],"can_remove":false,"created_time":"2014-04-12T01:07:27+0000","like_count":0,"user_likes":false},"849852388364773":{"id":"849852388364773","from":{"id":"100003913383051","name":"Tho Tran"},"message":"Híc, sợ hiểu nhầm quán nhậu với quán rươu ( bar) nên em phải sửa thành quán Thịt :3, em kém nhắm bác ạ!!!","can_remove":false,"created_time":"2014-04-12T01:09:13+0000","like_count":1,"user_likes":false},"850028381680507":{"id":"850028381680507","from":{"id":"100005804586628","name":"Huyền Phạm"},"message":"Chữ hán ahhhhhhh","can_remove":false,"created_time":"2014-04-12T06:13:39+0000","like_count":0,"user_likes":false},"850130205003658":{"id":"850130205003658","from":{"id":"569263718","name":"Phuong Thao Tran"},"message":"trang trải nhé em, :)","can_remove":false,"created_time":"2014-04-12T10:52:22+0000","like_count":0,"user_likes":false},"850130475003631":{"id":"850130475003631","from":{"id":"569263718","name":"Phuong Thao Tran"},"message":"cảm ơn em nhé, chị đang tìm việc, hihi","can_remove":false,"created_time":"2014-04-12T10:53:14+0000","like_count":0,"user_likes":false},"850138591669486":{"id":"850138591669486","from":{"id":"100002235953037","name":"Cỏ Không Lá"},"message":"thím ở trên xạo xự dễ sợ. đang tìm việc thứ 4 hả thím :))","can_remove":false,"created_time":"2014-04-12T11:13:58+0000","like_count":0,"user_likes":false},"850138785002800":{"id":"850138785002800","from":{"id":"100001432462223","name":"Truong Nguyen"},"message":"Chị tìm việc gì chị Thảo, e theo với :v","can_remove":false,"created_time":"2014-04-12T11:14:58+0000","like_count":0,"user_likes":false},"850141708335841":{"id":"850141708335841","from":{"id":"100003913383051","name":"Tho Tran"},"message":"Đã sửa lỗi chính tả cảm ơn chị Thảo và Anh Mai ạ! Một bài viết cơ sửa cả chục lần lận xấu hổ quớ :3","can_remove":false,"created_time":"2014-04-12T11:24:38+0000","like_count":2,"user_likes":false},"850276541655691":{"id":"850276541655691","from":{"id":"100001416272263","name":"Mai PB"},"message":"Đã update vào đây. https://www.facebook.com/notes/745063928843620","can_remove":false,"created_time":"2014-04-12T16:09:38+0000","like_count":1,"user_likes":false}},"paging":{"cursors":{"after":"ODQ5ODE5NTcxNzAxMzg4","before":"ODQ5ODE5NTcxNzAxMzg4"},"next":"https://graph.facebook.com/229244010425617_849817455034933/comments?limit=1&summary=1&after=ODQ5ODE5NTcxNzAxMzg4"},"summary":{"order":"chronological","total_count":14}}}