{"id":"229244010425617_849881381695207","type":"status","from":{"id":"100001030555523","name":"Hoa NT"},"message":"mình hiện tại đang sống và học tập tại ga okubo mình muốn tham gia một câu lạc bộ võ thuật ở khu vực này , trước kia mình cũng đã học kara-te ở Việt Nam rồi bây h sang đây muốn tìm hiểu thêm và muốn rèn luyện thể chất , Vậy ai đã từng học võ ở đây hoặc biết thông tin về võ nhật bản , câu lạc bộ nào đó thì chia sẻ cho mình đc ko ạ . ありがとうございます","created_time":"2014-04-12T02:08:15+0000","updated_time":"2014-04-12T09:28:20+0000","likes":{"data":{"100001646814780":{"id":"100001646814780","name":"Nhật Dương"},"100004544803436":{"id":"100004544803436","name":"Hà Anh Nhẫn"},"100004057374771":{"id":"100004057374771","name":"Sao Bang Vo Tinh"},"100007187850069":{"id":"100007187850069","name":"Tập Sống Ích Kỉ"}},"paging":{"cursors":{"after":"MTAwMDAxNjQ2ODE0Nzgw","before":"MTAwMDAxNjQ2ODE0Nzgw"},"next":"https://graph.facebook.com/229244010425617_849881381695207/likes?limit=1&summary=1&after=MTAwMDAxNjQ2ODE0Nzgw"},"summary":{"total_count":4}},"comments":{"data":{"849888431694502":{"id":"849888431694502","from":{"id":"100004087053647","name":"Đặng Ngọc Biên"},"message":"Rèn luyện thể chất thì bạn xin vào yamato clup ý","can_remove":false,"created_time":"2014-04-12T02:20:19+0000","like_count":0,"user_likes":false},"849890551694290":{"id":"849890551694290","from":{"id":"100004057374771","name":"Sao Bang Vo Tinh"},"message":"A hoa hok vo ak","can_remove":false,"created_time":"2014-04-12T02:26:26+0000","like_count":0,"user_likes":false},"849891785027500":{"id":"849891785027500","from":{"id":"100001030555523","name":"Hoa NT"},"message":"đang muốn học võ  đây sao Sao Bang Vo Tinh","message_tags":[{"id":"100004057374771","name":"Sao Bang Vo Tinh","type":"user","offset":26,"length":16}],"can_remove":false,"created_time":"2014-04-12T02:29:35+0000","like_count":0,"user_likes":false},"849892498360762":{"id":"849892498360762","from":{"id":"100001030555523","name":"Hoa NT"},"message":"tớ cũng đang làm yamato mà nhưng muốn tham gia thêm clup võ bạn ah","can_remove":false,"created_time":"2014-04-12T02:31:09+0000","like_count":0,"user_likes":false},"849904541692891":{"id":"849904541692891","from":{"id":"100003398911005","name":"Họ Tạ Tên Nam"},"message":"gần nhà mình có 1 lớp võ karate ở asagaya","can_remove":false,"created_time":"2014-04-12T02:47:37+0000","like_count":0,"user_likes":false},"849905861692759":{"id":"849905861692759","from":{"id":"100005376572332","name":"Cong Tu Ho Le"},"message":"Vay len iwakura due mih day vo cho","can_remove":false,"created_time":"2014-04-12T02:49:12+0000","like_count":0,"user_likes":false},"849916291691716":{"id":"849916291691716","from":{"id":"100001030555523","name":"Hoa NT"},"message":"tớ muốn tìm quanh khu vực đang sống","can_remove":false,"created_time":"2014-04-12T03:13:44+0000","like_count":0,"user_likes":false},"849926931690652":{"id":"849926931690652","from":{"id":"100000953918208","name":"Trần Đình Lộc"},"message":"Cần dạy tớ dạy cho. Keke","can_remove":false,"created_time":"2014-04-12T03:37:47+0000","like_count":0,"user_likes":false},"850097821673563":{"id":"850097821673563","from":{"id":"100001030555523","name":"Hoa NT"},"message":"tớ chỉ cần người nhật dạy  có bằng cấp rõ ràng","can_remove":false,"created_time":"2014-04-12T09:26:22+0000","like_count":0,"user_likes":false},"850098425006836":{"id":"850098425006836","from":{"id":"100005801442456","name":"An Nguyen"},"message":"Okubo thì bạn lên khu thể thao của trường đại học 早稲田 ấy. Đủ môn đủ dụng cụ mà thấy giá k mắc lắm.","can_remove":false,"created_time":"2014-04-12T09:28:20+0000","like_count":0,"user_likes":false}},"paging":{"cursors":{"after":"ODQ5ODg4NDMxNjk0NTAy","before":"ODQ5ODg4NDMxNjk0NTAy"},"next":"https://graph.facebook.com/229244010425617_849881381695207/comments?limit=1&summary=1&after=ODQ5ODg4NDMxNjk0NTAy"},"summary":{"order":"chronological","total_count":10}}}