{"id":"229244010425617_850054065011272","type":"status","from":{"id":"100002235953037","name":"Cỏ Không Lá"},"message":"hi vọng vậy.","created_time":"2014-04-12T07:14:15+0000","updated_time":"2014-04-13T05:25:07+0000","likes":{"data":{"100007378744033":{"id":"100007378744033","name":"Minhhuyenspa Duong"},"100004096243144":{"id":"100004096243144","name":"Shorai Nguyễn"},"100001432462223":{"id":"100001432462223","name":"Truong Nguyen"},"100002480485328":{"id":"100002480485328","name":"Công Trung"},"100000603915176":{"id":"100000603915176","name":"悪いな ぁ"},"100004535192637":{"id":"100004535192637","name":"Minh Nguyen Danh"},"100002974724594":{"id":"100002974724594","name":"Mai Chu"},"100002256469546":{"id":"100002256469546","name":"Kun Ngo"},"100007561894249":{"id":"100007561894249","name":"Phương Lý"},"100003948750906":{"id":"100003948750906","name":"Như Thùy"},"100004150804982":{"id":"100004150804982","name":"Bé Mập"},"100006314431619":{"id":"100006314431619","name":"Hà Hiền Hòa"},"100007988441472":{"id":"100007988441472","name":"Sống Mòn"},"100001643497965":{"id":"100001643497965","name":"Luna Lynn"},"100001222113521":{"id":"100001222113521","name":"Tạ Thu Hường"},"100004512333714":{"id":"100004512333714","name":"Đạt Titikaka"},"100003961115216":{"id":"100003961115216","name":"Chang Pham"},"100000249128844":{"id":"100000249128844","name":"Cúc Min"},"100002636810882":{"id":"100002636810882","name":"Vương Hà"},"100004604679926":{"id":"100004604679926","name":"Đổi Thay"},"100001397957914":{"id":"100001397957914","name":"Tam Tit"},"100006504080084":{"id":"100006504080084","name":"Ha Tien"},"100000021018532":{"id":"100000021018532","name":"Hương Nguyễn"},"100001809765422":{"id":"100001809765422","name":"Hương Nguyễn"},"100004613823453":{"id":"100004613823453","name":"Nguyen Huu Vuong"},"100002472574542":{"id":"100002472574542","name":"Thanh Ngọc"},"100002975299796":{"id":"100002975299796","name":"Trinh Tuan Anh"},"100000183258577":{"id":"100000183258577","name":"Valen Tino"},"100005271433446":{"id":"100005271433446","name":"Nguyentan Thang"},"100004676732713":{"id":"100004676732713","name":"Bét Tè Lè Nhè"},"100000996305320":{"id":"100000996305320","name":"Luon Nguyen Thi Thu"},"100005566122039":{"id":"100005566122039","name":"Son Nich"},"100001548134652":{"id":"100001548134652","name":"Taurus Loan"},"100002348937847":{"id":"100002348937847","name":"Xanh Le Te"},"100003567795945":{"id":"100003567795945","name":"Thu Thảo Đỗ"},"100003896447803":{"id":"100003896447803","name":"Cu Bé"},"100004913312278":{"id":"100004913312278","name":"Ốc Tiêu"},"100006369543422":{"id":"100006369543422","name":"Chuối Hoa"},"100005415637583":{"id":"100005415637583","name":"Thuyhuong Ha"},"100003281734925":{"id":"100003281734925","name":"Chau Nguyen"},"100001553557343":{"id":"100001553557343","name":"Lin Huỳnh"},"100003785055521":{"id":"100003785055521","name":"Tiểu Long Nữ"},"100006627121749":{"id":"100006627121749","name":"Cỏ Kim"},"100005317299339":{"id":"100005317299339","name":"Lieu Le"},"100007963716784":{"id":"100007963716784","name":"Ninh Thị Hường"},"1128427597":{"id":"1128427597","name":"Quyên Nguyễn"},"100002820525919":{"id":"100002820525919","name":"Papy Cry"},"100001602108729":{"id":"100001602108729","name":"Tram Mai"},"100007236487366":{"id":"100007236487366","name":"Thanh Tam"},"100005083511331":{"id":"100005083511331","name":"Hà Huy Anh"},"100006736295862":{"id":"100006736295862","name":"Khanh Nguyên"},"100003211776567":{"id":"100003211776567","name":"Kụ Đính"},"100001233118357":{"id":"100001233118357","name":"Trần Đức Thân"},"100001216346807":{"id":"100001216346807","name":"Anh Nguyễn"},"100000168415489":{"id":"100000168415489","name":"Pham Viet Anh"},"100003921391889":{"id":"100003921391889","name":"Bui Luong"},"100003868720130":{"id":"100003868720130","name":"Bình Trà Nhỏ"},"100007132388972":{"id":"100007132388972","name":"Van Anh"},"1683010782":{"id":"1683010782","name":"Luan Nguyen"},"100004029526671":{"id":"100004029526671","name":"Lưu Hồng Sơn"},"100007146188694":{"id":"100007146188694","name":"Thì Làm Sao"},"100006734168968":{"id":"100006734168968","name":"Tiểu Nhân Mã"},"100001448106319":{"id":"100001448106319","name":"Nguyen Anh"},"100004507721436":{"id":"100004507721436","name":"Tiểu Quỷ Họ Tạ"},"100003112333231":{"id":"100003112333231","name":"Trần Phương Linh"},"100003530480491":{"id":"100003530480491","name":"Tiep Vo"},"100004914783096":{"id":"100004914783096","name":"Nguyễn Văn Sự"},"100000918871201":{"id":"100000918871201","name":"Thang PhanVan"},"100003898157363":{"id":"100003898157363","name":"レースアン マイン"},"100007799982924":{"id":"100007799982924","name":"Sống Là Phải Chất"},"100003655233412":{"id":"100003655233412","name":"Nguyên Wata"},"100000128875786":{"id":"100000128875786","name":"Gà Hà"},"100006612000774":{"id":"100006612000774","name":"HãyMở Cửa Nhé TìnhYêu"},"100004697134434":{"id":"100004697134434","name":"Thảo Xexekubo"},"100001285627231":{"id":"100001285627231","name":"Bich Ngoc"},"1797459530":{"id":"1797459530","name":"Hoai Phuong"},"100000368791196":{"id":"100000368791196","name":"Phuong Anh"},"100003635232168":{"id":"100003635232168","name":"Thanh Bg"},"100000342230134":{"id":"100000342230134","name":"Thuy Le"},"100007395903514":{"id":"100007395903514","name":"Việt"},"100003276780986":{"id":"100003276780986","name":"Quang Huy"},"100004745586890":{"id":"100004745586890","name":"Bao Nguyen Kevin"},"100004915360462":{"id":"100004915360462","name":"Phamtuyen Pc"},"100003172583705":{"id":"100003172583705","name":"MrToàn Pro"},"100006737202541":{"id":"100006737202541","name":"Heo Toli"},"100007996688840":{"id":"100007996688840","name":"Dũng Dũng"},"100007779160957":{"id":"100007779160957","name":"Nắng Ấm Xa Dần"},"100005446931997":{"id":"100005446931997","name":"Sakurasou San"},"100003245420682":{"id":"100003245420682","name":"Thỏ Ngọc Usagi"},"100002716525116":{"id":"100002716525116","name":"Nguyễn Tất Nguyên"},"100006617707180":{"id":"100006617707180","name":"Đức Thanh"},"100004804572855":{"id":"100004804572855","name":"BO Tit OC"}},"paging":{"cursors":{"after":"MTAwMDA3Mzc4NzQ0MDMz","before":"MTAwMDA3Mzc4NzQ0MDMz"},"next":"https://graph.facebook.com/229244010425617_850054065011272/likes?limit=1&summary=1&after=MTAwMDA3Mzc4NzQ0MDMz"},"summary":{"total_count":93}},"comments":{"data":{"850056115011067":{"id":"850056115011067","from":{"id":"100007779160957","name":"Nắng Ấm Xa Dần"},"message":"vậy thì ngon","can_remove":false,"created_time":"2014-04-12T07:24:26+0000","like_count":0,"user_likes":false},"850056325011046":{"id":"850056325011046","from":{"id":"100006737202541","name":"Heo Toli"},"message":"Nếu như khuyến khích nhiều hơn thì số vi phạm sẽ giảm.hehe","can_remove":false,"created_time":"2014-04-12T07:25:18+0000","like_count":0,"user_likes":false},"850056331677712":{"id":"850056331677712","from":{"id":"100000154183383","name":"Nguyễn Quang Minh"},"message":"học viết tiếng nhật thì đc, mà viết tiếng việt thì k có dấu. buồn cười","can_remove":false,"created_time":"2014-04-12T07:25:19+0000","like_count":0,"user_likes":false},"850056645011014":{"id":"850056645011014","from":{"id":"100003245420682","name":"Thỏ Ngọc Usagi"},"message":"Chả biết có tin đc hay ko","can_remove":false,"created_time":"2014-04-12T07:26:17+0000","like_count":0,"user_likes":false},"850062631677082":{"id":"850062631677082","from":{"id":"100002235953037","name":"Cỏ Không Lá"},"message":":)) vậy mà mùi mẫn hả. nhưng bạn nên sửa lại cmt có dấu trc khi bị admin達 xóa cmt.","can_remove":false,"created_time":"2014-04-12T07:48:02+0000","like_count":2,"user_likes":false},"850073195009359":{"id":"850073195009359","from":{"id":"100003318314667","name":"Tuấn Nguyễn"},"message":"Thanh Hảo","message_tags":[{"id":"100003207063737","name":"Thanh Hảo","type":"user","offset":0,"length":9}],"can_remove":false,"created_time":"2014-04-12T08:17:58+0000","like_count":0,"user_likes":false},"850145385002140":{"id":"850145385002140","from":{"id":"100001284703208","name":"Ba Duy"},"message":"Tin vịt","can_remove":false,"created_time":"2014-04-12T11:34:42+0000","like_count":0,"user_likes":false},"850148918335120":{"id":"850148918335120","from":{"id":"100002235953037","name":"Cỏ Không Lá"},"message":"Ba Duy uhm, hi vọng vậy :)","can_remove":false,"created_time":"2014-04-12T11:46:10+0000","like_count":0,"user_likes":false},"850255801657765":{"id":"850255801657765","from":{"id":"100006580087448","name":"チュオン フック ハウ"},"message":"うそばかりよ！。","can_remove":false,"created_time":"2014-04-12T15:27:50+0000","like_count":0,"user_likes":false},"850257831657562":{"id":"850257831657562","from":{"id":"100001650056739","name":"Tồn Dương"},"message":"Thông tin bạn lấy ở đâu vậy","can_remove":false,"created_time":"2014-04-12T15:29:24+0000","like_count":0,"user_likes":false},"850258074990871":{"id":"850258074990871","from":{"id":"100006580087448","name":"チュオン フック ハウ"},"message":"できない","can_remove":false,"created_time":"2014-04-12T15:29:31+0000","like_count":0,"user_likes":false},"850264698323542":{"id":"850264698323542","from":{"id":"100002235953037","name":"Cỏ Không Lá"},"message":"nếu bạn để ý thì thấy mình chia sẽ ảnh của ng khác lên cho mọi ng koi chứ k fải của mính nhé. bản thân mình cũng k biết nó thế nào Tồn Dương","message_tags":[{"id":"100001650056739","name":"Tồn Dương","type":"user","offset":155,"length":9}],"can_remove":false,"created_time":"2014-04-12T15:42:28+0000","like_count":1,"user_likes":false},"850265631656782":{"id":"850265631656782","from":{"id":"100001650056739","name":"Tồn Dương"},"message":"Uh. Thực ra mình cũng nghe thông tin này rùi, nhưng hình như là mới đang bàn trong quốc hội chứ chưa chính thức áp dụng. Mình muốn xác minh lại thôi","can_remove":false,"created_time":"2014-04-12T15:44:53+0000","like_count":0,"user_likes":false},"850309968319015":{"id":"850309968319015","from":{"id":"100003789868758","name":"Nguyễn Quốc"},"message":"Ui h dc gia han them 2 nam nua thui nhung di lam nhu cuu van the nay thi xg 3 nam la tot lam roy chu quay lai lgi","can_remove":false,"created_time":"2014-04-12T17:27:00+0000","like_count":0,"user_likes":false},"850603771622968":{"id":"850603771622968","from":{"id":"100006494739209","name":"Hanh Giang Phuoc"},"message":"có bạn nào biết làm thế nào để viết dk cả chữ cứng cả chữ mềm và cả chữ hán nũa ko chỉ jiúp mình với. どもありがとう","can_remove":false,"created_time":"2014-04-13T05:25:07+0000","like_count":0,"user_likes":false}},"paging":{"cursors":{"after":"ODUwMDU2MTE1MDExMDY3","before":"ODUwMDU2MTE1MDExMDY3"},"next":"https://graph.facebook.com/229244010425617_850054065011272/comments?limit=1&summary=1&after=ODUwMDU2MTE1MDExMDY3"},"summary":{"order":"chronological","total_count":16}}}