{"id":"229244010425617_850167131666632","type":"status","from":{"id":"100001621458915","name":"Cao Cường"},"message":"Các bạn du học sinh, thực tập sinh và ... các bạn đang ở Nhật chú ý nhé.\nGần đây thông tin về người nước ngoài trong đó có người Việt Nam ở Nhật vi phạm pháp luật, bị bắt do: ăn trộm ăn cắp, đá tàu, chuyển tiền tay ba... rất nhiều trên các báo, tivi và trên mạng. Do đó và suy nghĩ và lòng tin về người Việt Nam chúng ta trong mỗi người Nhật đang thay đổi và xấu đi rất nhiều. \n\nNó ảnh hưởng đến hầu hết người Việt Nam đang ở Nhật khi học hành ở trường, kiếm việc làm thêm, làm việc ở công ty, tìm thuê nhà, hay kể cả lúc đi siêu thị thức ăn...\n\nVà một thực tế mà có thể có rất nhiều người đã biết là:\n- Hiện tại ở hầu hết các nhà ga đặc biệt là các nhà ga lớn đều được tăng cường thêm nhân viên có những nơi có cả cảnh sát đứng để quan sát và kiểm tra, cùng với camera an ninh.\n- Tại các siêu thị, trung tâm mua sắm lớn đều được cài đặt thêm các thiết bị an ninh, camera giám sát, nhân viên an ninh. Họ để ý nhiều hơn khi thấy có khách nước ngoài vào.\n- Trên khá nhiều tuyến đường, các điểm vui chơi giải trí... cũng thường xuyên bắt gặp cảnh sát đi tuần, kiểm tra. Và họ có thể kiểm tra giấy tờ cá nhân...\n- Đã có cả trường hợp cảnh sát vào khu ký túc xá người Việt Nam, người nước ngoài để hỏi thăm và kiểm tra giấy tờ.\n\nVì vậy chúng ta cần phải chú ý:\n- Khi đi ra ngoài thì luôn nhớ mang theo giấy tờ tùy thân (thẻ lưu trú) dù là đi gần hay xa, nhanh hay lâu. Để trường hợp nhỡ may bị cảnh sát hỏi thăm và kiểm tra thì sẽ không bị gặp rắc rối. \nVì dù người ta có bất chợt kiểm tra mà chúng ta có đủ giấy tờ, giải trình đầy đủ thì cũng không vấn đề gì. Trong trường hợp bạn quên giấy tờ thì khả năng bị mời về đồn để kiểm tra và xác minh là tương đối cao. \n- Luôn cố gắng nhớ địa chỉ mình ở, nơi mình học tập làm việc.... (đặc biệt là đối với bạn mới sang) để khi bị hỏi còn biết đường trả lời.\n- Và tốt nhất là làm sao để tránh được việc bị kiểm tra. Muốn như thế thì chúng ta cũng cần chú ý hơn nữa đến: Cử chỉ, hành động, cách ăn mặc, cách nói chuyện (đặc biệt những khi đi mấy người cùng nhau thì tránh nói lớn tiếng...) khi chúng ta đi ra ngoài, đi mua sắm, đi chơi, đi tàu... làm sao để tránh bị hiểu lầm, tránh bị nghi ngờ...\n\nChúc các bạn học tập và làm việc tốt. :)","created_time":"2014-04-12T12:35:40+0000","updated_time":"2014-04-12T13:25:05+0000","likes":{"data":{"100005758714297":{"id":"100005758714297","name":"Thường Vân"},"1835742337":{"id":"1835742337","name":"Vân Anh Nguyễn"},"100003511061469":{"id":"100003511061469","name":"Nhan Nguyen"},"100006389413007":{"id":"100006389413007","name":"Việt Vui Vẻ"},"100004385374949":{"id":"100004385374949","name":"Tan Nguyen"},"100007157165760":{"id":"100007157165760","name":"Yen Luong"},"1725907325":{"id":"1725907325","name":"Nguyen Van Dung"},"100002292427325":{"id":"100002292427325","name":"Lan Tiêu"},"100007045988781":{"id":"100007045988781","name":"Vu Vo Hoa"},"100003955112557":{"id":"100003955112557","name":"Lục Nam Rapper"},"100004028366199":{"id":"100004028366199","name":"Huong Nguyen"},"100004330322242":{"id":"100004330322242","name":"Kha'nh Ngo'k"},"1799371931":{"id":"1799371931","name":"Vichini Nhan"},"100003058280462":{"id":"100003058280462","name":"Đặng Văn Thành"},"100004350698536":{"id":"100004350698536","name":"Daothuy Nga"},"100000208026550":{"id":"100000208026550","name":"Hana Ko"},"620066722":{"id":"620066722","name":"Dong Khac Thai"},"100002975299796":{"id":"100002975299796","name":"Trinh Tuan Anh"},"100000399315424":{"id":"100000399315424","name":"Rô Rô"},"100007576184490":{"id":"100007576184490","name":"Hoài Phương"},"100002507911362":{"id":"100002507911362","name":"Cuong Nguyen"},"100004392823234":{"id":"100004392823234","name":"Anh Dũng Nguyễn"},"100004745586890":{"id":"100004745586890","name":"Bao Nguyen Kevin"},"100007132388972":{"id":"100007132388972","name":"Van Anh"},"100001066462200":{"id":"100001066462200","name":"Cẩm Nhung Mika"},"100005073001419":{"id":"100005073001419","name":"An Chelsea"},"1840348734":{"id":"1840348734","name":"Anh Đậu Béo"},"100003516815793":{"id":"100003516815793","name":"Hiển Trần"},"100002824916506":{"id":"100002824916506","name":"Minh Thinh"},"100004613823453":{"id":"100004613823453","name":"Nguyen Huu Vuong"},"100004795623520":{"id":"100004795623520","name":"Hiệp Nguyễn Thị"},"100005855053978":{"id":"100005855053978","name":"Tiền Là Quyền"},"100000019126977":{"id":"100000019126977","name":"Nguyen Thi Ngoc Anh"},"100003552597982":{"id":"100003552597982","name":"Đức Tiến"},"100004072426763":{"id":"100004072426763","name":"Phạm Lương"},"100000656539977":{"id":"100000656539977","name":"Ta An"},"100003918997915":{"id":"100003918997915","name":"Nguyễn Văn Còn"},"100003945224089":{"id":"100003945224089","name":"Nhím Xù"},"100002695613148":{"id":"100002695613148","name":"Tam Sinh Duyen"},"100004010850159":{"id":"100004010850159","name":"Tạ Văn Quân"},"100003205566643":{"id":"100003205566643","name":"Hương Kute"},"100000747635624":{"id":"100000747635624","name":"Nguyễn Xuân Đại"},"100001416272263":{"id":"100001416272263","name":"Mai PB"},"100003213657878":{"id":"100003213657878","name":"Hưng Nguyễn"},"100000022163023":{"id":"100000022163023","name":"Kafe Ore"},"100000886214985":{"id":"100000886214985","name":"Trung Trần Quang"},"100001786404410":{"id":"100001786404410","name":"Huệ Nguyễn"},"100004098523021":{"id":"100004098523021","name":"Nguyễn Tiến"},"100006821673235":{"id":"100006821673235","name":"Tana Ka"},"100005458320703":{"id":"100005458320703","name":"Pj Koj"},"100000095655445":{"id":"100000095655445","name":"Kamiya Satoshi"},"100002041632385":{"id":"100002041632385","name":"Phạm Quang Thiện"},"100004697765656":{"id":"100004697765656","name":"Trần Nam Anh"},"1146680551":{"id":"1146680551","name":"優しい なぁ"},"100007166645331":{"id":"100007166645331","name":"Nguyễn Sỹ Tuân"},"100001542633887":{"id":"100001542633887","name":"Uknwon Phạm"},"1068482018":{"id":"1068482018","name":"Loan Le"},"100003072751555":{"id":"100003072751555","name":"Bui Dinh Truong"},"100003105034037":{"id":"100003105034037","name":"Pham Oanh"},"100004424014602":{"id":"100004424014602","name":"Shiro Kuma"},"100006056231053":{"id":"100006056231053","name":"Trường Tồn"},"100002427715884":{"id":"100002427715884","name":"Hell Angel"},"100003642346565":{"id":"100003642346565","name":"Khổng Minh Nhật"},"100004798083725":{"id":"100004798083725","name":"Cappu Ccino"},"100006502552041":{"id":"100006502552041","name":"Xấu Xí"},"100003893158172":{"id":"100003893158172","name":"Maru MO"},"100005572564501":{"id":"100005572564501","name":"Han Le"},"100006575940986":{"id":"100006575940986","name":"Pham Nhai"},"100007779160957":{"id":"100007779160957","name":"Nắng Ấm Xa Dần"},"100003221880243":{"id":"100003221880243","name":"Ngân Siêu Nhân"},"100004263697752":{"id":"100004263697752","name":"Phuc Duc Bui"},"100003186433902":{"id":"100003186433902","name":"Vũ Phong"},"100006533318497":{"id":"100006533318497","name":"Linh Loan"},"100003795215119":{"id":"100003795215119","name":"Phan Nam Khánh"},"100008164682839":{"id":"100008164682839","name":"Phuong Thao Kute"},"100003172583705":{"id":"100003172583705","name":"MrToàn Pro"},"100003898395957":{"id":"100003898395957","name":"Hưng Vũ"},"100003207764143":{"id":"100003207764143","name":"Anh Vũ Thái"},"100005755297709":{"id":"100005755297709","name":"Ko Hi"},"100003822434250":{"id":"100003822434250","name":"Sói Đây Gà Đâu"},"100007963716784":{"id":"100007963716784","name":"Ninh Thị Hường"},"100000271705877":{"id":"100000271705877","name":"Nguyễn Văn Minh"},"100006185140581":{"id":"100006185140581","name":"Thảo Lê"},"100001432462223":{"id":"100001432462223","name":"Truong Nguyen"},"100002895297713":{"id":"100002895297713","name":"Minh Jan"},"100004427554499":{"id":"100004427554499","name":"Đăng Hướng"},"100003103911540":{"id":"100003103911540","name":"Con Cua"},"100003211776567":{"id":"100003211776567","name":"Kụ Đính"},"100005814217210":{"id":"100005814217210","name":"Huỳnh Anh Tùng"},"100003174621865":{"id":"100003174621865","name":"Quang Phạm"},"100001744184866":{"id":"100001744184866","name":"Cường Nguyễn"},"100000309415626":{"id":"100000309415626","name":"Kona Yuki"},"100000062237077":{"id":"100000062237077","name":"Khánh Khờ Khạo"},"100002654637560":{"id":"100002654637560","name":"Dinh Tien Truong"},"100001458099624":{"id":"100001458099624","name":"Kham Pha"}},"paging":{"cursors":{"after":"MTAwMDA1NzU4NzE0Mjk3","before":"MTAwMDA1NzU4NzE0Mjk3"},"next":"https://graph.facebook.com/229244010425617_850167131666632/likes?limit=1&summary=1&after=MTAwMDA1NzU4NzE0Mjk3"},"summary":{"total_count":95}},"comments":{"data":{"850168471666498":{"id":"850168471666498","from":{"id":"100001458099624","name":"Kham Pha"},"message":"cám ơn bạn :)","can_remove":false,"created_time":"2014-04-12T12:38:58+0000","like_count":0,"user_likes":false},"850170588332953":{"id":"850170588332953","from":{"id":"100003171672878","name":"Tầu Heo"},"message":"cảm ơn bạn:(","can_remove":false,"created_time":"2014-04-12T12:41:44+0000","like_count":0,"user_likes":false},"850171098332902":{"id":"850171098332902","from":{"id":"100005755297709","name":"Ko Hi"},"message":"Vy Trần","message_tags":[{"id":"100001732381655","name":"Vy Trần","type":"user","offset":0,"length":7}],"can_remove":false,"created_time":"2014-04-12T12:43:06+0000","like_count":0,"user_likes":false},"850171218332890":{"id":"850171218332890","from":{"id":"100003174621865","name":"Quang Phạm"},"message":"thanks","can_remove":false,"created_time":"2014-04-12T12:43:36+0000","like_count":0,"user_likes":false},"850172631666082":{"id":"850172631666082","from":{"id":"100001621458915","name":"Cao Cường"},"message":"Hôm trước bên mình mới nhận được ĐT của TTS: A lô a ơi sao tự nhiên cảnh sát và tận phòng e để hỏi về giấy tờ ... :)). Như vậy là cậu ấy đã có thêm nhiều cơ hội để giao tiếp và học tiếng Nhật. Tất nhiên là chỉ bị hỏi chứ không sao cả vì mọi thứ đều đẩy đủ và ngon lành mà. Nhưng bụp 1 cái tự nhiên bị thế, chắc cũng hết hồn :))","can_remove":false,"created_time":"2014-04-12T12:45:41+0000","like_count":1,"user_likes":false},"850174911665854":{"id":"850174911665854","from":{"id":"100007963716784","name":"Ninh Thị Hường"},"message":"thế này tụi em đi sau,muốn đi cũng khó khăn quá nhỉ?","can_remove":false,"created_time":"2014-04-12T12:51:52+0000","like_count":0,"user_likes":false},"850175921665753":{"id":"850175921665753","from":{"id":"100005809809361","name":"Hoa Ngoc Lan"},"message":"1ng vi moi ng.hay co gag de thay doi cach nhin of ng Nhat ve ng VN nhe mn.t sap sag Nhat ma thay lo wa","can_remove":false,"created_time":"2014-04-12T12:54:35+0000","like_count":1,"user_likes":false},"850175934999085":{"id":"850175934999085","from":{"id":"100001621458915","name":"Cao Cường"},"message":"Đi đâu hả e?","can_remove":false,"created_time":"2014-04-12T12:54:41+0000","like_count":0,"user_likes":false},"850176284999050":{"id":"850176284999050","from":{"id":"100001621458915","name":"Cao Cường"},"message":"Chắc cũng vất cả, khó khăn hơn. Nhưng ko sao. CÒn cố được mà :))","can_remove":false,"created_time":"2014-04-12T12:55:28+0000","like_count":1,"user_likes":false},"850176484999030":{"id":"850176484999030","from":{"id":"100007963716784","name":"Ninh Thị Hường"},"message":"câu này làm em ko biết trả lời thế nào. tất nhiên là đi nhật rồi ạ.","can_remove":false,"created_time":"2014-04-12T12:56:05+0000","like_count":1,"user_likes":false},"850176821665663":{"id":"850176821665663","from":{"id":"100005809809361","name":"Hoa Ngoc Lan"},"message":"e dinh di Nara nhug nam sau moi di co","can_remove":false,"created_time":"2014-04-12T12:56:42+0000","like_count":1,"user_likes":false},"850177568332255":{"id":"850177568332255","from":{"id":"100004562916471","name":"Chi Su"},"message":"Nge mà chẳg mún đi lun..","can_remove":false,"created_time":"2014-04-12T12:58:48+0000","like_count":0,"user_likes":false},"850182184998460":{"id":"850182184998460","from":{"id":"100001621458915","name":"Cao Cường"},"message":"Ko cần nản sớm vậy các bạn ;). Mỗi ng cố gắng 1 chút giống như Hoa Ngoc Lan nói kìa. Những ng xấu nó chỉ là 1 phần cực kỳ nhỏ mà thôi.","message_tags":[{"id":"100005809809361","name":"Hoa Ngoc Lan","type":"user","offset":63,"length":12}],"can_remove":false,"created_time":"2014-04-12T13:08:02+0000","like_count":1,"user_likes":false},"850184678331544":{"id":"850184678331544","from":{"id":"100004562916471","name":"Chi Su"},"message":"Chắc ng nhật jờ có thành kiến xấu về ng vn rùi. Dù mk ko như thế nhưg họ cứ dè chừg, đề fòng mk thì kũg pùn lm.","can_remove":false,"created_time":"2014-04-12T13:14:05+0000","like_count":0,"user_likes":false},"850185974998081":{"id":"850185974998081","from":{"id":"100001621458915","name":"Cao Cường"},"message":"Chính vì thế mới cần mỗi ng chúng ta bằng hành động, lời nói, việc làm của mình để chọ ng ta thấy những vẻ đẹp, cái tốt của chính bản thân mình và của cả đất nước và con người việt nam chứ.","can_remove":false,"created_time":"2014-04-12T13:17:14+0000","like_count":7,"user_likes":false},"850186458331366":{"id":"850186458331366","from":{"id":"100003751909185","name":"Hoang Gia Gia"},"message":"mặc kệ người ta nói gì đi nữa mình cứ sống không hổ thẹn với bản thân mình là được","can_remove":false,"created_time":"2014-04-12T13:18:40+0000","like_count":2,"user_likes":false},"850186734998005":{"id":"850186734998005","from":{"id":"100001621458915","name":"Cao Cường"},"message":"Cũng có rất nhiều người Nhật vẫn rất yêu quý người Vn... Những người Nhật mình quen cũng nói: ở đâu cũng có người tốt người xấu, và thật tiệc rằng dạo này tin xấu về VN nhiều quá :))","can_remove":false,"created_time":"2014-04-12T13:19:27+0000","like_count":2,"user_likes":false},"850187001664645":{"id":"850187001664645","from":{"id":"100004562916471","name":"Chi Su"},"message":"Bik thế..nhưg mấy ai ý thức đc như cta đag ns, chỉ cần 1ng trog số dhs, tts xấu là thêm 1cn kinh khủg khiếp xảy ra và ảh hưởg nhữg ng còn lại rùi.","can_remove":false,"created_time":"2014-04-12T13:20:08+0000","like_count":0,"user_likes":false},"850188651664480":{"id":"850188651664480","from":{"id":"100007767102987","name":"Du Học Thu Huyền"},"message":"Ai xấu thì ở Việt Nam! Cũng xấu, nhưng người có ý thức thì dù có ở đâu vẫn có ý thức.... Vì vậy các bạn hãy luôn cố gắng nhé. Mình tin các bạn là người tốt thì k có lí do gì để ng nhật đánh đồng vs những người xấu, nhưng có lẽ là cần thời gian để chứng minh đó","can_remove":false,"created_time":"2014-04-12T13:23:59+0000","like_count":1,"user_likes":false},"850189298331082":{"id":"850189298331082","from":{"id":"1112235871","name":"Minh-Hai Pham"},"message":"Hiện có một số nơi CS đã đc học tiếng Việt để nhận dạng và xử lý các trg hợp người Việt :))","can_remove":false,"created_time":"2014-04-12T13:25:05+0000","like_count":0,"user_likes":false}},"paging":{"cursors":{"after":"ODUwMTY4NDcxNjY2NDk4","before":"ODUwMTY4NDcxNjY2NDk4"},"next":"https://graph.facebook.com/229244010425617_850167131666632/comments?limit=1&summary=1&after=ODUwMTY4NDcxNjY2NDk4"},"summary":{"order":"chronological","total_count":20}}}