{"id":"229244010425617_850145785002100","type":"photo","object_id":"236541299882583","picture":"https://fbcdn-photos-f-a.akamaihd.net/hphotos-ak-prn2/t1.0-0/10155913_236541299882583_6910320549424537822_s.jpg","link":"https://www.facebook.com/photo.php?fbid=236541299882583&set=gm.850145785002100&type=1&relevant_count=1","from":{"id":"100005801442456","name":"An Nguyen"},"message":"< Lịch sử Nhật Bản >\n\nTrước tiên vào bài thì xin cho tí thời gian để nói lên lý do vì sao chia sẽ nhé . Group gần đây có rất nhiều cuộc tranh cãi nổ ra, và thực ra trong số các cuộc tranh cãi vô nghĩa ấy, thì phần lý do chính là do sự hằn hộc và để bụng vì có lần xích mích nào đó đã xảy ra giữa các thành viên. Nếu công tâm nhìn nhận thật  ra thì các bạn có thấy ngố ngố và trẻ con quá không ? chúng ta không phải còn quá bé để phải đi chấp vặt và để bụng hẹp hòi những điều ấy, hãy biết rộng lượng hơn, và biết công tâm rạch ròi trong mọi điều, chứ đừng để tình cảm cá nhân lấn áp đi lý trí.\n\nVà câu chuyện sau đây không đại diện cho nước Nhật và phủ định đi những cậu chuyện buồn của quá khứ trong cuộc thế chiến thứ 2 . Mình chỉ muốn nói lên giá trị của hành động của những con người lịch sử này, và coi trọng những hành động họ đã làm. Đừng có các thánh gatô nào xuất hiện khi mình đã phải nói trước những điều trên nhé ! Đa tạ....\n\nClip < http://youtu.be/eynqGV835M0 >\n\n28-2-1942 tại vùng biển Malaysia, có cuộc chạm trán giữa hải quân Nhật và hoàng gia Anh. \n\nNgày 1 - 3 - 1942 Hải quân Anh bại trận, tàu trúng đạn và các thuỷ thủ phải nhảy khỏi boong để tìm lấy lối thoát. Hơn 400 con người lềnh bềnh giữa biển nước mênh mông với chỉ 8 chiếc xuồng cứu hộ. Họ đối mặt với vô vàn nguy hiểm : dầu trôi, cá mập, đói khát .... có những người không thể chịu được cảnh tượng bi đát trên mà muốn tự sát. Và rồi trong thời khắc ấy, xuất hiện một con thuyền. Niềm hi vọng được sống lại được nhén nhom cho tất cả, nhưng đấy lại là 1 chiếc chiến hạm to lớn của Nhật tên là Ikadzuchi với 220 thủy thủ.\n\nCó lẽ những người lạc quan nhất thì cũng không thể ngờ đến câu chuyện tiếp theo phía sau. Một quân đội của chế độ quân phiệt tung hoành và bành trướng cả nửa Châu Á, lại giang tay cứu giúp số thủy thủ trôi dạt trên. Dù là kẻ thù trên chiến trường, và cũng là kẻ vừa bại trận, nhưng vị thuyền trưởng của chiếc chiến hạm kia vẫn quyết định cứu lấy tất cả và coi trọng họ như những con người gặp hoạn nạn khác. Cung cấp lương thực, thức uống và các nhu yếu phẩm, không những thế tàu còn quay đầu, cứu các người khác đang bị trôi xa, dù rằng việc đó sẽ làm tàu có thể không đủ nhiên liệu để tiếp tục tham chiến. \n\nTổng cộng số lượng thủy thủ được tàu cứu vớt là 422 người, gấp đôi số lượng bên phía Nhật. Trong những lúc nguy hiểm nhất, các lực lượng của Nhật đã từ bỏ vị trí chiến đấu của mình để cứu người, dù có thể sẽ có sự bạo động xảy ra.\n\nCó lẽ kể tạm đến đây, mong rằng các bạn có thể hiểu được phần ý mình muốn nói tới. Hãy xây dựng 1 cộng đồng mạnh hơn và gắn kết hơn nữa. Đừng vì cảm xúc cá nhân chi phối mà biến nơi đây thành nơi để các bạn có thể ẩu đả và xúc phạm nhau trong lời nói. Tôn trọng người khác cũng là tôn trọng bản thân mình, hãy cư xử 1 cách có văn hoá.","created_time":"2014-04-12T11:36:01+0000","updated_time":"2014-04-12T19:22:07+0000","likes":{"data":{"100000342230134":{"id":"100000342230134","name":"Thuy Le"},"100003933466469":{"id":"100003933466469","name":"Phong Aki"},"1293842461":{"id":"1293842461","name":"Nắng Thủy Tinh"},"620066722":{"id":"620066722","name":"Dong Khac Thai"},"100000098177754":{"id":"100000098177754","name":"Quái Vật"},"100003913383051":{"id":"100003913383051","name":"Tho Tran"},"100000603915176":{"id":"100000603915176","name":"悪いな ぁ"},"100007468213697":{"id":"100007468213697","name":"Minh Cảnh"},"1416265619":{"id":"1416265619","name":"Starwar Bbj"},"100001786404410":{"id":"100001786404410","name":"Huệ Nguyễn"},"100001059086820":{"id":"100001059086820","name":"Nguyễn Thành Long"},"100001416272263":{"id":"100001416272263","name":"Mai PB"},"100003552597982":{"id":"100003552597982","name":"Đức Tiến"},"569263718":{"id":"569263718","name":"Phuong Thao Tran"},"100004716640495":{"id":"100004716640495","name":"Thúy An Dương"},"100004101363917":{"id":"100004101363917","name":"Lan Anh Mẫn"},"100002034804853":{"id":"100002034804853","name":"Hải Mẫn"},"100001128589118":{"id":"100001128589118","name":"Giang Manh"},"100004827720249":{"id":"100004827720249","name":"Thuyhong Le"},"100001233118357":{"id":"100001233118357","name":"Trần Đức Thân"},"100001693743102":{"id":"100001693743102","name":"Anh Rùa"},"100004937285101":{"id":"100004937285101","name":"Ha Thu Ho"},"100000747635624":{"id":"100000747635624","name":"Nguyễn Xuân Đại"},"100004259829083":{"id":"100004259829083","name":"Nỏ Bít Nak"},"100003024934033":{"id":"100003024934033","name":"Trang Pham"},"100003207764143":{"id":"100003207764143","name":"Anh Vũ Thái"},"100001924061448":{"id":"100001924061448","name":"Morikawa Hiroyuki"},"100001675790020":{"id":"100001675790020","name":"Suzuzu Hoang"},"100000931315689":{"id":"100000931315689","name":"WorKy Hooleec"},"100001432462223":{"id":"100001432462223","name":"Truong Nguyen"},"100002972188631":{"id":"100002972188631","name":"Phù Thủy"},"100002235953037":{"id":"100002235953037","name":"Cỏ Không Lá"},"1026780646":{"id":"1026780646","name":"Việt Hưng Khổng"},"100001118056211":{"id":"100001118056211","name":"Minh Đức"},"100005744975477":{"id":"100005744975477","name":"Tuyết Mùa Hè"},"1550521697":{"id":"1550521697","name":"Trình Nguyễn"},"100001526631937":{"id":"100001526631937","name":"Tường Oanh Mineko"},"525828985":{"id":"525828985","name":"Cindy Taiki"},"100004242520435":{"id":"100004242520435","name":"Cô Chủ Nhỏ"},"1305472811":{"id":"1305472811","name":"Tuan Nguyen"}},"paging":{"cursors":{"after":"MTAwMDAwMzQyMjMwMTM0","before":"MTAwMDAwMzQyMjMwMTM0"},"next":"https://graph.facebook.com/229244010425617_850145785002100/likes?limit=1&summary=1&after=MTAwMDAwMzQyMjMwMTM0"},"summary":{"total_count":40}},"comments":{"data":{"850148035001875":{"id":"850148035001875","from":{"id":"100005744975477","name":"Tuyết Mùa Hè"},"message":"ありがとう","can_remove":false,"created_time":"2014-04-12T11:43:31+0000","like_count":0,"user_likes":false},"850148268335185":{"id":"850148268335185","from":{"id":"1550521697","name":"Trình Nguyễn"},"message":"Cảm ơn An Nguyen. Thanh niên Việt Nam ai cũng như bạn thì sớm muộn Việt Nam cũng thành cường quốc.","message_tags":[{"id":"100005801442456","name":"An Nguyen","type":"user","offset":7,"length":9}],"can_remove":false,"created_time":"2014-04-12T11:44:11+0000","like_count":4,"user_likes":false},"850151081668237":{"id":"850151081668237","from":{"id":"100002235953037","name":"Cỏ Không Lá"},"message":"tks chú An.","can_remove":false,"created_time":"2014-04-12T11:51:25+0000","like_count":1,"user_likes":false},"850174321665913":{"id":"850174321665913","from":{"id":"100006821673235","name":"Tana Ka"},"message":"đáng để học hỏi.nhưng sao bạn không lấy dẫn chứng từ lịch sử Việt Nam ấy.chắc sẽ hay hơn nhiều.VN mình đâu thiếu gì vị Tướng tài có lòng nhân ái chứ.<hay có lẽ những điều gì cuả NB đối với chúng ta bây giờ cũng là số 1 chứ...>","can_remove":false,"created_time":"2014-04-12T12:50:12+0000","like_count":2,"user_likes":false},"850176094999069":{"id":"850176094999069","from":{"id":"100005801442456","name":"An Nguyen"},"message":"Đơn giản mình thích câu chuyện và nó có clip sinh động thôi. Không cần luận 1 vấn đề trở nên nghiệm trọng quá như vậy. Và thay vì đợi mình kiếm 1 ai đó khác thì bạn cũng có thể đóng góp bài viết thì cũng là việc rất đáng ghi nhân. Diễn đàn không phải của riêng ai, hãy chung tay góp sức thì nó sẽ càng trở nên tốt đẹp hơn.","can_remove":false,"created_time":"2014-04-12T12:54:59+0000","like_count":6,"user_likes":false},"850187578331254":{"id":"850187578331254","from":{"id":"100006821673235","name":"Tana Ka"},"message":"mình chi góp ý mang tính chất xây dựng thôi bạn.","can_remove":false,"created_time":"2014-04-12T13:21:46+0000","like_count":1,"user_likes":false},"850272928322719":{"id":"850272928322719","from":{"id":"100001416272263","name":"Mai PB"},"message":"Đã update vào đây.\nhttps://www.facebook.com/notes/730922820257731","can_remove":false,"created_time":"2014-04-12T16:01:53+0000","like_count":0,"user_likes":false},"850340454982633":{"id":"850340454982633","from":{"id":"100000098177754","name":"Quái Vật"},"message":"topic bổ ích đấy,,mình cần topic nói về tình anh em của nhật bản và thổ nhĩ kỳ mà chưa tìm được đấy","can_remove":false,"created_time":"2014-04-12T18:49:35+0000","like_count":0,"user_likes":false},"850354741647871":{"id":"850354741647871","from":{"id":"100005801442456","name":"An Nguyen"},"message":"❓ http://youtu.be/0ij2r2qcHtc <== ❓","can_remove":false,"created_time":"2014-04-12T19:22:07+0000","like_count":1,"user_likes":false}},"paging":{"cursors":{"after":"ODUwMTQ4MDM1MDAxODc1","before":"ODUwMTQ4MDM1MDAxODc1"},"next":"https://graph.facebook.com/229244010425617_850145785002100/comments?limit=1&summary=1&after=ODUwMTQ4MDM1MDAxODc1"},"summary":{"order":"chronological","total_count":9}}}