{"id":"229244010425617_850232791660066","type":"status","from":{"id":"100002488031743","name":"Đoàn Văn Hải"},"message":"các anh chị cho em hỏi em không đăng kí dùng iphone mà muốn đăng kí một con điên thoại nào đó để phí trả hàng tháng bớt đi 1 ít.anh chị tư vấn hộ em nên đăng kí dùng con điện thoại nào của nhà mạng nào ạ","created_time":"2014-04-12T14:36:30+0000","updated_time":"2014-04-14T20:52:04+0000","likes":{"data":{"100004090953541":{"id":"100004090953541","name":"Quang Thức"},"100001222113521":{"id":"100001222113521","name":"Tạ Thu Hường"},"100006907235659":{"id":"100006907235659","name":"Thao Van"},"100003181743412":{"id":"100003181743412","name":"Pham Kha"},"100008099259939":{"id":"100008099259939","name":"Thuy Nguyen"},"100004288178550":{"id":"100004288178550","name":"Có Một Người"},"100007055220627":{"id":"100007055220627","name":"Khoảnh Khắc"}},"paging":{"cursors":{"after":"MTAwMDA0MDkwOTUzNTQx","before":"MTAwMDA0MDkwOTUzNTQx"},"next":"https://graph.facebook.com/229244010425617_850232791660066/likes?limit=1&summary=1&after=MTAwMDA0MDkwOTUzNTQx"},"summary":{"total_count":7}},"comments":{"data":{"850236318326380":{"id":"850236318326380","from":{"id":"100002966928087","name":"Nguyen van Dat"},"message":"có dùng mạng không bạn","can_remove":false,"created_time":"2014-04-12T14:43:02+0000","like_count":0,"user_likes":false},"850237074992971":{"id":"850237074992971","from":{"id":"100002324966273","name":"Nguyễn Thanh Hoài"},"message":"dùng soft bank đi nhiều ng dùng","can_remove":false,"created_time":"2014-04-12T14:44:33+0000","like_count":0,"user_likes":false},"850237778326234":{"id":"850237778326234","from":{"id":"100002488031743","name":"Đoàn Văn Hải"},"message":"bạn tư vấn cho mình dùng mạng thì giá nhiêu và không thì giá nhiêu miễn là giá giảm hơn so với iphone mình muốn tiết kiệm được tí nào hay tí ấy","can_remove":false,"created_time":"2014-04-12T14:45:55+0000","like_count":0,"user_likes":false},"850238498326162":{"id":"850238498326162","from":{"id":"100004299274310","name":"Jenny Sakura"},"message":"Uhm, bạn hãy đăng ký đt 0¥ nhé","can_remove":false,"created_time":"2014-04-12T14:46:56+0000","like_count":0,"user_likes":false},"850239184992760":{"id":"850239184992760","from":{"id":"100004299274310","name":"Jenny Sakura"},"message":"Gói cước hàng tháng chỉ nghe gọi nt là 980¥ thì phải, ngày trước nếu mình cũng biết đăng ký đt 0¥ có phải là đỡ bn tiền rùi ko","can_remove":false,"created_time":"2014-04-12T14:48:33+0000","like_count":1,"user_likes":false},"850239448326067":{"id":"850239448326067","from":{"id":"100004299274310","name":"Jenny Sakura"},"message":"Dùng Au hoặc softbanh nhé, ng việt mình thường dùng 2 loại này","can_remove":false,"created_time":"2014-04-12T14:49:04+0000","like_count":0,"user_likes":false},"850240388325973":{"id":"850240388325973","from":{"id":"100002488031743","name":"Đoàn Văn Hải"},"message":"mình đăng kí cái điện thoại 0 yên kiểu gì hả bạn","can_remove":false,"created_time":"2014-04-12T14:49:55+0000","like_count":0,"user_likes":false},"850241048325907":{"id":"850241048325907","from":{"id":"100004299274310","name":"Jenny Sakura"},"message":"Bạn cứ ra bảo đky đt 0¥ là được mà, hãy bảo vs họ là chỉ dùng nghe gọi và nt là họ hiểu","can_remove":false,"created_time":"2014-04-12T14:51:36+0000","like_count":1,"user_likes":false},"850241128325899":{"id":"850241128325899","from":{"id":"100003398911005","name":"Họ Tạ Tên Nam"},"message":"đt 0¥ là mình đk ip 5 xong nó tặng cho cái máy mini đó","can_remove":false,"created_time":"2014-04-12T14:51:51+0000","like_count":0,"user_likes":false},"850241361659209":{"id":"850241361659209","from":{"id":"100002488031743","name":"Đoàn Văn Hải"},"message":"はい、ありがとう ございます","can_remove":false,"created_time":"2014-04-12T14:52:42+0000","like_count":0,"user_likes":false},"850242968325715":{"id":"850242968325715","from":{"id":"100002324966273","name":"Nguyễn Thanh Hoài"},"message":"dk kiểu j mà 0¥. tớ thấy rẻ nhất 1sen rồi","can_remove":false,"created_time":"2014-04-12T14:56:07+0000","like_count":0,"user_likes":false},"850243034992375":{"id":"850243034992375","from":{"id":"100002488031743","name":"Đoàn Văn Hải"},"message":"cho mình hỏi thêm có con nào dùng mạng mà rẻ hơn iphone không ạ","can_remove":false,"created_time":"2014-04-12T14:56:20+0000","like_count":0,"user_likes":false},"850245511658794":{"id":"850245511658794","from":{"id":"100002324966273","name":"Nguyễn Thanh Hoài"},"message":"có blackberry bạn ở.màn hình bé ko tốn kb lại còn rẻ.haháha","can_remove":false,"created_time":"2014-04-12T15:02:07+0000","like_count":0,"user_likes":false},"850246254992053":{"id":"850246254992053","from":{"id":"1580589258","name":"Kani Oboeru"},"message":"Norokae là rẻ nhất chỉ 3 sen tháng","can_remove":false,"created_time":"2014-04-12T15:04:15+0000","like_count":0,"user_likes":false},"850246631658682":{"id":"850246631658682","from":{"id":"100008033654317","name":"Nỗi Lòng Xa Xứ"},"message":"nhung theo minh nghi sang day dt gân nhu rat wan trong cho viec đi lai nhung dia diem minh ko biet va cong viec hoc hanh cung cân đen no rat nhieu đê tra tư đien neu dung nhung cai 0¥ thi se ko co chuc năng nay cac ban hay thử nghi nhe","can_remove":false,"created_time":"2014-04-12T15:05:11+0000","like_count":2,"user_likes":false},"850298381653507":{"id":"850298381653507","from":{"id":"100004258027371","name":"Rang Nguyen"},"message":"","can_remove":false,"created_time":"2014-04-12T16:59:57+0000","like_count":1,"user_likes":false},"850545324962146":{"id":"850545324962146","from":{"id":"100005885953492","name":"Minh Bui"},"message":"vậy các bạn chọn phương pháp nào la hơp lý thi bảo cho mình nhé","can_remove":false,"created_time":"2014-04-13T02:46:51+0000","like_count":0,"user_likes":false},"850751504941528":{"id":"850751504941528","from":{"id":"100003878132073","name":"Luan Tran Van"},"message":"Dùng điện thoại softbank 5,7sen/1 tháng. Còn nếu đăng kí máy 0¥ thì cước khoảng 800¥/1 tháng, nhưng dùng iphone có nhiều cái tiện cho liên lạc, đi đường, chụp ảnh. Tra từ điển cho học tập. Lời khuyên nên dùng iphone.","can_remove":false,"created_time":"2014-04-13T12:47:11+0000","like_count":1,"user_likes":false},"850756441607701":{"id":"850756441607701","from":{"id":"100000221260528","name":"Đào Xuân Kiên"},"message":"Khuyên bạn nên dùng smartphone để tiện cho học hành,tra tàu...về smartphone thì có 2 hệ điều hành chính.iphone dùng ios của apple là hệ điều hành mã nguồn kín,khó can thiệp theo ý mình thích,kho ứng dụng đa số là phải trả tiền.loại thứ 2 là hệ điều hành android mà các hãng như SONY,LG,SAMSUNG,HTC cài đặt cho máy của họ.về hệ điều hành android thì do là mã nguồn mở lên dễ can thiệp,kho ứng dụng miễn phí khổng lồ.","can_remove":false,"created_time":"2014-04-13T12:59:25+0000","like_count":1,"user_likes":false},"851542294862449":{"id":"851542294862449","from":{"id":"100004142494319","name":"Mai Ngan"},"message":"Tao Cao Cường Đây zô xem nè","message_tags":[{"id":"100006614261300","name":"Tao Cao Cường Đây","type":"user","offset":0,"length":17}],"can_remove":false,"created_time":"2014-04-14T20:52:04+0000","like_count":0,"user_likes":false}},"paging":{"cursors":{"after":"ODUwMjM2MzE4MzI2Mzgw","before":"ODUwMjM2MzE4MzI2Mzgw"},"next":"https://graph.facebook.com/229244010425617_850232791660066/comments?limit=1&summary=1&after=ODUwMjM2MzE4MzI2Mzgw"},"summary":{"order":"chronological","total_count":20}}}