{"id":"229244010425617_850230108327001","type":"status","from":{"id":"100001416272263","name":"Mai PB"},"message":"Đề nghị các member hãy cùng giúp admin nhắc nhở mọi người viết có dấu, bởi vì từ bây giờ các admin sẽ ít nhắc nhở nữa mà xóa luôn.\nPS: điện thoại hay máy tính không dùng được tiếng Việt (cố gắng dùng được)  thì comment 1 câu này trước: (xin loi dt khong co tieng Viet)","created_time":"2014-04-12T14:31:42+0000","updated_time":"2014-04-13T07:12:38+0000","likes":{"data":{"100004703683693":{"id":"100004703683693","name":"Hoang Phuc"},"100006659978893":{"id":"100006659978893","name":"Ngọc Ngà Nguyễn"},"100000500260636":{"id":"100000500260636","name":"Lưu Nguyễn Thảo Tiên"},"100004096243144":{"id":"100004096243144","name":"Shorai Nguyễn"},"100001415407078":{"id":"100001415407078","name":"Kha Pham"},"100006614261300":{"id":"100006614261300","name":"Tao Cao Cường Đây"},"100001432462223":{"id":"100001432462223","name":"Truong Nguyen"},"100007417445587":{"id":"100007417445587","name":"Bantinthon Yt Baolakhoai"},"100003780948776":{"id":"100003780948776","name":"Sâu Đặng"},"100004057374771":{"id":"100004057374771","name":"Sao Bang Vo Tinh"},"100004998936727":{"id":"100004998936727","name":"Kanda Kyota"},"1026780646":{"id":"1026780646","name":"Việt Hưng Khổng"},"620066722":{"id":"620066722","name":"Dong Khac Thai"},"100006126133935":{"id":"100006126133935","name":"Hoàng Thị Thu"},"100000257464771":{"id":"100000257464771","name":"Trương Ngọc Điệp"},"100008099350890":{"id":"100008099350890","name":"Nguyễn Hùng"},"100003913383051":{"id":"100003913383051","name":"Tho Tran"},"100000033277655":{"id":"100000033277655","name":"Ah Sa"},"100001134227322":{"id":"100001134227322","name":"Phan Thanh Thuy"},"100004086631868":{"id":"100004086631868","name":"Lêkita Mít Ướt"},"100003207764143":{"id":"100003207764143","name":"Anh Vũ Thái"},"100006649242954":{"id":"100006649242954","name":"Tân Nguyen Thi Minh"},"100006734168968":{"id":"100006734168968","name":"Tiểu Nhân Mã"},"100003075823746":{"id":"100003075823746","name":"Strong Cuong"},"100003587314679":{"id":"100003587314679","name":"Why Die"},"450268778436163":{"id":"450268778436163","name":"Mazii.net"},"100007988441472":{"id":"100007988441472","name":"Sống Mòn"},"1146680551":{"id":"1146680551","name":"優しい なぁ"},"100005529851429":{"id":"100005529851429","name":"Nguyen Khuyen"},"100008094602427":{"id":"100008094602427","name":"Haken Kyujin"},"100001754136107":{"id":"100001754136107","name":"Nguyễn Tuấn Vũ"},"100000270980320":{"id":"100000270980320","name":"Minhtriet Tran"},"100000474381232":{"id":"100000474381232","name":"Duong Seven"},"100000022163023":{"id":"100000022163023","name":"Kafe Ore"},"100003324969497":{"id":"100003324969497","name":"Nam Phạm"},"100003115841931":{"id":"100003115841931","name":"Bánh Đa Cá Rô"},"100001695345798":{"id":"100001695345798","name":"Tyn Aki"},"100004877281136":{"id":"100004877281136","name":"Yuki Ori"},"100000572010533":{"id":"100000572010533","name":"Thao Vo"},"100003276780986":{"id":"100003276780986","name":"Quang Huy"},"100007930417031":{"id":"100007930417031","name":"Trang Yamato"},"1778354324":{"id":"1778354324","name":"Sơn Ken"},"100005801442456":{"id":"100005801442456","name":"An Nguyen"},"1816269439":{"id":"1816269439","name":"Dao Ngoc"},"100003065966506":{"id":"100003065966506","name":"Hùng Khùng"},"100003980112068":{"id":"100003980112068","name":"Endless Paradise"},"100004380181780":{"id":"100004380181780","name":"Be Boo"},"100004398330290":{"id":"100004398330290","name":"Lam Linh"},"100007575090003":{"id":"100007575090003","name":"Quan Tien Xu"},"100007055220627":{"id":"100007055220627","name":"Khoảnh Khắc"},"569263718":{"id":"569263718","name":"Phuong Thao Tran"},"100003762427351":{"id":"100003762427351","name":"Hiroshi Yasu Oki"}},"paging":{"cursors":{"after":"MTAwMDA0NzAzNjgzNjkz","before":"MTAwMDA0NzAzNjgzNjkz"},"next":"https://graph.facebook.com/229244010425617_850230108327001/likes?limit=1&summary=1&after=MTAwMDA0NzAzNjgzNjkz"},"summary":{"total_count":53}},"comments":{"data":{"850231694993509":{"id":"850231694993509","from":{"id":"100007055220627","name":"Khoảnh Khắc"},"message":"Không những vậy mà bài nào không mang tính chất xây dựng cũng nên xóa luôn","can_remove":false,"created_time":"2014-04-12T14:34:20+0000","like_count":2,"user_likes":false},"850232841660061":{"id":"850232841660061","from":{"id":"100001416272263","name":"Mai PB"},"message":"Bài không mang tính xây dựng hay không thì không thể đơn giản phán đoán, không thích thì chỉ có thể bỏ đi không đếm xỉa thôi. Group tránh can thiệp vào nội dung kiểu kiểm duyệt. Báo chí VN của chúng ta đã bị kiểm duyệt quá nhiều rồi, ít nhất cũng nên tự do trên FB. :-)","can_remove":false,"created_time":"2014-04-12T14:36:38+0000","like_count":9,"user_likes":false},"850240441659301":{"id":"850240441659301","from":{"id":"100000687662713","name":"Vu Thi Man"},"message":"Dien thoai cua minh k go duoc tieng Viet, cai phan mem roi n van k go duoc anh Mai PB a","can_remove":false,"created_time":"2014-04-12T14:49:59+0000","like_count":1,"user_likes":false},"850241664992512":{"id":"850241664992512","from":{"id":"100001416272263","name":"Mai PB"},"message":"Thế thì comment câu đó trước, ví dụ: (xin loi dt khong co tieng Viet). Mà sao cài rồi không viết được là sao? iPhone hay Android đều dùng được mà?","can_remove":false,"created_time":"2014-04-12T14:53:30+0000","like_count":0,"user_likes":false},"850242824992396":{"id":"850242824992396","from":{"id":"100001416272263","name":"Mai PB"},"message":"Vu Thi Man bạn làm như thế này.\nhttps://www.facebook.com/groups/CongdongVietNhat/permalink/820371581312854/","message_tags":[{"id":"100000687662713","name":"Vu Thi Man","type":"user","offset":0,"length":10}],"can_remove":false,"created_time":"2014-04-12T14:55:45+0000","like_count":0,"user_likes":false},"850243468325665":{"id":"850243468325665","from":{"id":"100000687662713","name":"Vu Thi Man"},"message":"Samsung Glaxy","can_remove":false,"created_time":"2014-04-12T14:57:19+0000","like_count":0,"user_likes":false},"850260698323942":{"id":"850260698323942","from":{"id":"1341670471","name":"An Nguyen"},"message":"Cài rồi , nhưng bạn có chuyển đổi bàn phím không","can_remove":false,"created_time":"2014-04-12T15:35:26+0000","like_count":1,"user_likes":false},"850262581657087":{"id":"850262581657087","from":{"id":"1341670471","name":"An Nguyen"},"message":"Bạn biết cách sử dụng dấu trong tiếng việt?? Ví dụ : s= dấu sắc, f= dấu huyền","can_remove":false,"created_time":"2014-04-12T15:36:31+0000","like_count":1,"user_likes":false},"850262848323727":{"id":"850262848323727","from":{"id":"100008094602427","name":"Haken Kyujin"},"message":"Ủng hộ (y)","can_remove":false,"created_time":"2014-04-12T15:37:13+0000","like_count":0,"user_likes":false},"850266094990069":{"id":"850266094990069","from":{"id":"1341670471","name":"An Nguyen"},"message":"Có hai dạng bàn phím tiếng Việt . Đó là telex và VNi. Hãy vô phần ngôn ngữ nhập của bạn xem đã có bàn phím tiếng việt chưa. Sau đó quay ra thử gõ xem, nhớ là chuyển đổi bàn phím nếu bạn cài đặt nhiều ngôn ngữ bàn phím..","can_remove":false,"created_time":"2014-04-12T15:46:00+0000","like_count":0,"user_likes":false},"850266431656702":{"id":"850266431656702","from":{"id":"1341670471","name":"An Nguyen"},"message":"Nếu được thì bạn chụp màn hình len để mọi ng chỉ nhé","can_remove":false,"created_time":"2014-04-12T15:46:40+0000","like_count":0,"user_likes":false},"850267128323299":{"id":"850267128323299","from":{"id":"1341670471","name":"An Nguyen"},"message":"Vậy xài đc english thôi hả, bạn tải đc tiếng việt, rồi bạn sẽ tải đc ln nihongo đó","can_remove":false,"created_time":"2014-04-12T15:48:35+0000","like_count":0,"user_likes":false},"850269478323064":{"id":"850269478323064","from":{"id":"100000687662713","name":"Vu Thi Man"},"message":"K dung duoc nen minh xoa mat roi, chac phai down lai. Trong phan setting langue k co tieng Viet nen cai roi ma go van k duoc","can_remove":false,"created_time":"2014-04-12T15:53:28+0000","like_count":0,"user_likes":false},"850269944989684":{"id":"850269944989684","from":{"id":"1341670471","name":"An Nguyen"},"message":"Sao bạn k chụp hình len để mọi ng cùng xem.. Nếu trong list k có thì cần cập nhật nó, rồi mới quay ra chọn ngôn ngữ nhập","can_remove":false,"created_time":"2014-04-12T15:54:53+0000","like_count":0,"user_likes":false},"850293128320699":{"id":"850293128320699","from":{"id":"100003207764143","name":"Anh Vũ Thái"},"message":"Ủng hộ anh ad luôn. Dị ứng với mấy kiểu viết k dấu xong r thì viết kiểu teen. Đọc k nổi","can_remove":false,"created_time":"2014-04-12T16:48:21+0000","like_count":2,"user_likes":false},"850318988318113":{"id":"850318988318113","from":{"id":"100003913383051","name":"Tho Tran"},"message":"Comment không dấu sẽ bị xoá, đề nghị ad làm đúng quy định nhé!!! :3","can_remove":false,"created_time":"2014-04-12T17:52:23+0000","like_count":1,"user_likes":false},"850462671637078":{"id":"850462671637078","from":{"id":"100003913383051","name":"Tho Tran"},"message":"Quy định của group ạ :(","can_remove":false,"created_time":"2014-04-12T23:27:50+0000","like_count":1,"user_likes":false},"850463111637034":{"id":"850463111637034","from":{"id":"100006803468897","name":"Maria Maria"},"message":"Nhu này co thể coi la viết không dau không ạ,hay chỉ nhung từ co dấu moi bị xoã","can_remove":false,"created_time":"2014-04-12T23:29:10+0000","like_count":0,"user_likes":false},"850463461636999":{"id":"850463461636999","from":{"id":"100006803468897","name":"Maria Maria"},"message":"Tại sao chưa thay ai xoa cm chưa có dấu ạ?","can_remove":false,"created_time":"2014-04-12T23:30:37+0000","like_count":0,"user_likes":false},"850463718303640":{"id":"850463718303640","from":{"id":"100003913383051","name":"Tho Tran"},"message":"Xin lỗi nhé! Các anh/ chị đọc nội quy của group ý, em không phải ad nên thấy nội quy nhiw thế thì truyền tải thôi, giờ chưa ai xoá lát sẽ có người xoá, yên tâm ạ!","can_remove":false,"created_time":"2014-04-12T23:31:35+0000","like_count":0,"user_likes":false},"850559784960700":{"id":"850559784960700","from":{"id":"100004702509437","name":"Đỗ Duy"},"message":"google play, seach: \"laban key\" and \"setup\"","can_remove":false,"created_time":"2014-04-13T03:18:43+0000","like_count":0,"user_likes":false},"850559901627355":{"id":"850559901627355","from":{"id":"100004702509437","name":"Đỗ Duy"},"message":"to Vu Thi Man","can_remove":false,"created_time":"2014-04-13T03:19:07+0000","like_count":0,"user_likes":false},"850612138288798":{"id":"850612138288798","from":{"id":"100008094602427","name":"Haken Kyujin"},"message":"Mình xung phong làm admin, nhưng chỉ đi xoá mấy comment không dấu và chửi bậy thôi, ngoài ra không làm gì khác :v","can_remove":false,"created_time":"2014-04-13T05:52:40+0000","like_count":1,"user_likes":false},"850613721621973":{"id":"850613721621973","from":{"id":"100008094602427","name":"Haken Kyujin"},"message":"Mình không biết, nhưng nhiều bạn làm được thì mình cũng làm được chứ. Với lại chủ yếu là tôn trọng quy định thôi, ai cũng nói bỏ qua thì nhắc không biết đến bao giờ cả :(","can_remove":false,"created_time":"2014-04-13T05:59:04+0000","like_count":2,"user_likes":false},"850617478288264":{"id":"850617478288264","from":{"id":"100007797156820","name":"Sói Già"},"message":"Nghia Le ...chính phải từ cái nhỏ nhất chặt chẽ thì mới làm đc,chỉ 1 từ quen mà nói sửa khó là đc ah.mình không nghĩ thế....gruop là cộng đồng Việt-Nhật ....Việt-Nhật chứ không phải mỗi Việt không đâu.Tiếng Việt là của ng Việt Nam.đến tiếng của mình bạn còn không thể viết hẳn hoi thì thế nào.\nở nhà bạn quen vứt rác chung sang Nhật họ bắt phân loại rác cũng 1 câu nói quen rùi sửa khó lắm.thì người Nhật họ nghĩ thế nào.\ntui nghĩ các admin ở đây mún viết có dấu thứ nhất để chính tự nâng cao ý thức của người Việt Nam.thứ 2 còn mún người Nhật họ có thể đọc được,vào đây giao lưu kết bạn điều đó không phải tốt hơn sao....","message_tags":[{"id":"100007155522344","name":"Nghia Le","type":"user","offset":0,"length":8}],"can_remove":false,"created_time":"2014-04-13T06:11:47+0000","like_count":3,"user_likes":false},"850624551620890":{"id":"850624551620890","from":{"id":"100004528082100","name":"フン グェン"},"message":"Đọc comment từ đầu mà đến cuối mới thấy được lí do.đau mắt","can_remove":false,"created_time":"2014-04-13T06:34:33+0000","like_count":1,"user_likes":false},"850625624954116":{"id":"850625624954116","from":{"id":"100000603915176","name":"悪いな ぁ"},"message":"Phuong Thao Tran vào ngắm member chửi nè","message_tags":[{"id":"569263718","name":"Phuong Thao Tran","type":"user","offset":0,"length":16}],"can_remove":false,"created_time":"2014-04-13T06:37:31+0000","like_count":0,"user_likes":false},"850630368286975":{"id":"850630368286975","from":{"id":"569263718","name":"Phuong Thao Tran"},"message":"Nghia Le yêu cầu bạn lượm mấy từ giẻ rách giúp!","message_tags":[{"id":"100007155522344","name":"Nghia Le","type":"user","offset":0,"length":8}],"can_remove":false,"created_time":"2014-04-13T06:51:52+0000","like_count":1,"user_likes":false},"850631411620204":{"id":"850631411620204","from":{"id":"569263718","name":"Phuong Thao Tran"},"message":"thứ nhất trong group cấm chửi thề, nói tục và yêu cầu viết tiếng Việt có dấu, bạn muốn nói gì thì hãy làm theo luật group đã rồi nói nhé. Nghia Le","message_tags":[{"id":"100007155522344","name":"Nghia Le","type":"user","offset":138,"length":8}],"can_remove":false,"created_time":"2014-04-13T06:55:38+0000","like_count":1,"user_likes":false},"850635688286443":{"id":"850635688286443","from":{"id":"569263718","name":"Phuong Thao Tran"},"message":"vậy tạm thời bạn đừng cmt gì trong group nữa cho đến khi cài được bộ gõ tiếng Việt có dấu nhé. Cài không được có thể hỏi hoặc tìm tòi trên mạng vì rất nhiều người mua máy ở Nhật mà vẫn gõ được chữ có dấu, và không viết kiểu teen. Nghia Le","message_tags":[{"id":"100007155522344","name":"Nghia Le","type":"user","offset":230,"length":8}],"can_remove":false,"created_time":"2014-04-13T07:07:43+0000","like_count":1,"user_likes":false},"850637561619589":{"id":"850637561619589","from":{"id":"569263718","name":"Phuong Thao Tran"},"message":"câu hỏi của bạn có liên quan đến việc viết có dấu ?Nghia Le và xin nhắc lại, nếu bạn vẫn viết không dấu, và viết theo kiểu teen thì buộc admin phải delete account của bạn. Thân!","message_tags":[{"id":"100007155522344","name":"Nghia Le","type":"user","offset":51,"length":8}],"can_remove":false,"created_time":"2014-04-13T07:12:38+0000","like_count":0,"user_likes":false}},"paging":{"cursors":{"after":"ODUwMjMxNjk0OTkzNTA5","before":"ODUwMjMxNjk0OTkzNTA5"},"next":"https://graph.facebook.com/229244010425617_850230108327001/comments?limit=1&summary=1&after=ODUwMjMxNjk0OTkzNTA5"},"summary":{"order":"chronological","total_count":31}}}