{"id":"229244010425617_850234891659856","type":"status","from":{"id":"100002966928087","name":"Nguyen van Dat"},"message":"như mình nói mĩnh thỉnh thoảng sẽ chia sẽ một số bài viết về những con người việt nam đang ngày đêm ,tận tụy,làm giàu cho đất nước.vâng đó là ÔNG NGUYỄN BÁ THANH,bí thư tỉnh ĐÀ NẴNG và nếu ai trong chúng ta đã đến ĐÃ NẴNG chắc cũng có một ấn tượng từ các làm du lịch,môi trường,đường xá,hi vọng nếu tỉnh nào  của VIỆT NAM cũng có một NGUYỄN BÁ THANH như vậy,thì 10 năm hay 20 năm nữa,VIỆT NAM chúng ta sẽ không còn núp dưới bóng của TRUNG QUỐC nữa,đây là 1 bài khá cũ,của ông khi chấp vấn các giám đốc sở  mình xin úp lại \n\nKhông chỉ tại kỳ họp thứ 4 HĐND TP Đà Nẵng khoá VIII vừa diễn ra mà hầu như ở bất cứ kỳ họp nào của HĐND TP thì các giám đốc sở cũng đều \"toát mồ hôi hột\" trước chất vấn của các đại biểu và đặc biệt là của Chủ tịch HĐND TP Nguyễn Bá Thanh.\nĐể bạn đọc có thể hiểu thêm không khí chất vấn tại các kỳ họp HĐND TP Đà Nẵng và chất lượng điều hành công việc của các giám đốc sở, chúng tôi xin trích giới thiệu một phần cuộc \"truy tận gốc, bắt tận ngọn\" giữa các đại biểu HĐND và Chủ tịch HĐND TP Đà Nẵng Nguyễn Bá Thanh với Giám đốc Sở Xây dựng Phạm Việt Hùng trong phiên chất vấn hôm 4/7 của kỳ họp thứ 4 HĐND TP Đà Nẵng khoá VIII:\n \nKỳ họp thứ 4 HĐND TP Đà Nẵng khoá VIII vừa diễn ra trong hai ngày 3 - 4/7 - Ảnh: HC\nKỳ họp thứ 4 HĐND TP Đà Nẵng khoá VIII vừa diễn ra trong hai ngày 3 - 4/7 - Ảnh: HC\n \nĐổ trách nhiệm\n \nĐại biểu Trương Phước Ánh: Khu tái định cư (TĐC) phía Nam đường Nguyễn Tất Thành nối dài và khu TĐC Hoà Liên 3 đã thi công xong phần san nền, giao thông, thoát nước nhưng chưa có điện, nước sinh hoạt. Khi nào thì có điện, nước cho dân?\n \nÔng Phạm Việt Hùng: Khu TĐC phía Nam đường Nguyễn Tất Thành hiện đã có 400 lô đất, khu TĐC Hoà Liên đã có 350 lô đất. Đối với khu vực đã có đất thực tế thì hệ thống cấp nước đã hoàn thành và sẵn sàng phục vụ. Riêng về cấp điện cho khu TĐC phía Nam đường Nguyễn Tất Thành do Công ty Điện lực Đà Nẵng đầu tư. Sở Xây dựng Đà Nẵng đã chỉ đạo Công ty Xây dựng và Phát triển hạ tầng Đà Nẵng (đơn vị điều hành dự án - PV) có công văn đôn đốc Điện lực Đà Nẵng triển khai cấp điện sinh hoạt cho nhân dân ở khu vực đã có đất thực tế. Hiện Điện lực Đà Nẵng đã dựng trụ và kéo dây nhưng chưa có điện là do vị trí bố trí trạm biến áp 250kV còn vướng giải toả 17 hộ thuộc xã Hoà Liên...\n \nÔng Nguyễn Bá Thanh cắt lời: Người ta hỏi rất cụ thể, ông kể lể làm chi? Bữa ni là tháng 7, ông trả lời đi, tháng mấy xong? Người dân đang chờ mà ông lại kể lể dông dài Xuân Hạ Thu Đông!\n \nÔng Phạm Việt Hùng: Ngành điện cam kết nhân dân đến nhận đất làm nhà đến đâu thì sẽ cung cấp điện đến đó.\n \nÔng Nguyễn Bá Thanh: Không phải!\n \nÔng Phạm Việt Hùng: Nếu cần thiết thì ngành điện sẽ kéo điện tạm để cho người dân.\n \nÔng Nguyễn Bá Thanh: Nếu cần thiết răng nữa? Người ta đang cần mà ông còn nói nếu cần thiết!\n \nÔng Phạm Việt Hùng: Báo cáo anh hiện nay Công ty Điện lực đang trồng trụ, kéo dây\n \nÔng Nguyễn Bá Thanh: Bao giờ xong?\n \nÔng Phạm Việt Hùng: Đang còn vướng mấy hộ...\n \nÔng Nguyễn Bá Thanh: Tôi là người dân tôi không biết ông vướng cái chi. Ông vướng 17 hộ hay 9 hộ, 10 hộ tôi đâu cần quan tâm. Tôi hỏi bao giờ có điện thì trả lời, thế thôi. Trả lời nổi không?\n \nÔng Phạm Việt Hùng: Báo cáo anh là để... Sở Xây dựng xin trả lời sau!\n \nÔng Nguyễn Bá Thanh: Thế là ông không nắm được vấn đề!\n \nÔng Ngô Tấn Cư, Phó Giám đốc Công ty Điện lực Đà Nẵng đứng dậy cho biết: Hiện nay giao mặt bằng xây dựng chưa đủ. Giao mặt bằng đến đâu thì Điện lực Đà Nẵng làm đến đấy. Riêng các hộ đến xây nhà ở khu TĐC phía Nam đường Nguyễn Tất Thành, chúng tôi bảo đảm cho nhân dân vào ở là có điện. Còn khi nào Sở Xây dựng, BQL dự án bàn giao mặt bằng thì chúng tôi sẽ triển khai ngay việc cấp điện!\n \nÔng Nguyễn Bá Thanh: Như vậy là ổng còn \"móc\" theo câu khi nào BQL dự án giao mặt bằng thì ổng làm. Còn ông này (Giám đốc Sở Xây dựng - PV) không biết cái chi hết trơn, cũng không biết hồi nào ông BQL xong. 17 hộ không biết bao giờ xong. Uỷ ban (UBND TP Đà Nẵng) các anh nghe đó thì biết. Ông ni đứng cứ coi như cái đó ở đâu đâu, không biết.\n \nCòn 17 hộ nớ lý do là... tại vì... người ta chưa đi, cho nên số mới vô làm nhà không có điện. Không có điện là do 17 hộ không đi. Còn tại sao không đi thì không biết trách nhiệm của ai hết. Quản lý nhà nước yếu đến như thế đó. Thôi ông không biết thì trả lời qua chuyện khác đi. Nếu BQL dự án thuộc Sở Xây dựng thì Giám đốc Sở phải chịu trách nhiệm về việc chậm trễ dự án chứ không phải nói lơ mơ, đổ cho chỗ này chỗ kia!\n \nĐại biểu HĐND TP Đà Nẵng Nguyễn Hoàng Sơn chất vấn Giám đốc Sở Xây dựng Phạm Việt Hùng - Ảnh: HC\nĐại biểu HĐND TP Đà Nẵng Nguyễn Hoàng Sơn chất vấn Giám đốc Sở Xây dựng Phạm Việt Hùng - Ảnh: HC\n \nKhông sát thực tế, không nắm vấn đề\n \nĐại biểu Nguyễn Hoàng Sơn: Mùa mưa năm 2011, Đà Nẵng có nhiều điểm ngập úng, ách tắc giao thông, gây khó khăn cho cuộc sống của người dân. Đề nghị cho biết đến nay đã khắc phục bao nhiêu điểm ngập úng và số điểm chưa khắc phục được là bao nhiêu, lý do vì sao chưa giải quyết. Đồng thời cho biết mùa mưa năm 2012 sắp đến có còn ngập úng như năm 2011 nữa không? Trước mắt, có phương án nào để hạn chế tối đa việc ngập úng trên địa bàn TP?\n \nÔng Phạm Việt Hùng: Hiện trên địa bàn TP có 91 điểm ngập úng. Gồm quận Hải Châu 9, Thanh Khê 16, Sơn Trà 21, Ngũ Hành Sơn 9, Liên Chiểu 23, Cẩm Lệ 7 và Hoà Vang 6 điểm. Đến nay đã xử lý được 11 điểm ngập úng. Còn lại 80 điểm, Sở xây dựng đã báo cáo UBND TP và đề nghị bố trí kinh phí để xử lý, tổng cộng là 313,61 tỉ đồng. Do tình hình kinh phí khó khăn nên Sở Xây dựng đang xin ý kiến UBND TP để phân kỳ, chọn những điểm ngập úng căn cơ để xử lý trước mắt.\n \nÔng Nguyễn Bá Thanh: Quận Hải Châu còn 2 điểm ngập nặng nhất là ở chỗ nào?\n \nÔng Phạm Việt Hùng: Ở quận Hải Châu, hiện còn điểm ngập nặng trên đường Quang Trung.\n \nÔng Nguyễn Bá Thanh: Ở đâu?\n \nÔng Phạm Việt Hùng: Quang Trung. Quang Trung với lại à... chỗ gần gần chợ Tam Giác, chỗ cây xăng, chỗ đường à... cây xăng chỗ chợ Đống Đa, à chợ Tam Giác!\n \nÔng Nguyễn Bá Thanh: Rồi còn chỗ nào nữa?\n \nÔng Phạm Việt Hùng: Nói chung là các cái điểm um... um...\n \nÔng Nguyễn Bá Thanh: Không, nói riêng chứ không nói chung! (cả hội trường bật cười)\n \nÔng Phạm Việt Hùng: (ngắc ngứ)\n \nÔng Nguyễn Bá Thanh: Ở Hải Châu, điểm ngập nặng nhất ở khu vực Đầm Rong (phường Thuận Phước) đã làm trạm bơm xong rồi, mùa mưa này sẽ giải quyết được chuyện ngập. Còn một điểm nữa là ở khu vực đường Trương Chí Cương (phường Hoà Cường). Đấy, ông phải lo xúc tiến nhanh các thủ tục đi, hình thành trạm bơm ở đó mới giải quyết được cả tuyến của khu vực Hoà Cường ra ngoài sông kia kìa. Thôi nói qua cái khác đi. Ông không nắm được gì hết!\n \nVà đối phó\n \nĐại biểu Thái Thanh Hùng: Dự án Bến xe liên tỉnh đã đưa vào sử dụng 5 năm. Từ đó đến nay, tổ 41 (Hoà Mỹ 6, phường Hoà Minh, quận Liên Chiểu) có 55 hộ dân, đặc biệt là có 17 hộ dân mưa xuống nước ngập vào nhà, có nhà ngập 1 - 2m. Lý do là mương thoát nước nhỏ, chạy vòng vèo. Dân yêu cầu làm cống thẳng ra đường cống chạy quanh bến xe, dài khoảng 25m là giải quyết được ngập. Nhưng 5 năm nay người dân đề nghị không ai giải quyết. Tại kỳ họp thứ 3, tôi đã chất vấn Giám đốc Sở Xây dựng, song qua 6 tháng cử tri vẫn chưa thấy động tĩnh gì. Vậy bao giờ mới giải quyết được?\n \nÔng Phạm Việt Hùng: Vấn đề trên Sở Xây dựng đã có báo cáo tại công văn 2201 ngày 20/6/2012. Theo đó, đã đề xuất và UBND TP đã đồng ý tại công văn 4383 ngày 3/7/2012 cụ thể như sau: Nâng cao trình kiệt, hẻm hiện trạng...\n \nÔng Nguyễn Bá Thanh cắt ngang: Cái chi? Cái chi?\n \nÔng Phạm Việt Hùng: Báo cáo anh là vấn đề này Sở Xây dựng đã có báo cáo và UBND TP đã...\n \nÔng Nguyễn Bá Thanh: À, UBND TP mới đồng ý ngày hôm qua ấy hả? Đúng rồi. Do kỳ họp HĐND ni cho nên các ông đối phó.\n \nÔng Phạm Việt Hùng: Kinh phí tối đa là sáu trăm hai...\n \nÔng Nguyễn Bá Thanh lại cắt ngang: Thôi không cần đọc nữa. Cái đó người ta chất vấn từ hồi ông Nguyễn Ngọc Tuấn còn làm Giám đốc Sở Xây dựng kia, bây giờ lên đến Phó Chủ tịch UBND TP rồi ông Tuấn ơi. Ông mắc nợ cái nớ ông đi giải quyết đi. Có mấy chục mét đường cống chứ có phải tốn tiền ghê gớm lắm đâu mà để nói tới, nói lui rồi các ông đối phó. Ngày hôm qua đây các ông mới ký, chừ nghe có vẻ công văn nọ, công văn kia, tưởng mô hay lắm. Thôi ông đừng nói nữa hắn kỳ. Ông lo giải quyết trước mùa mưa, không có nói ú ớ gì hết. Cho 60 ngày, giải quyết đi, đừng nói lòng vòng nữa!\n \nLàm lộn ngược đầu nên công việc ách tắc\n \nKết thúc phiên thảo luận, ông Nguyễn Bá Thanh yêu cầu các giám đốc sở rút kinh nghiệm để các phiên chất vấn chất lượng hơn. Muốn chất lượng hơn chỉ có một cách là... lội dưới cơ sở. Họp hội cũng cần nhưng phải dành thời gian đi sâu, đi sát cơ sở mới nắm được vấn đề, để hỏi đâu trả lời đấy.\n \n\"Mình là cơ quan chuyên môn, cơ quan tham mưu thì phải sâu hơn lãnh đạo. Nhiều lúc lãnh đạo TP lại sát hơn giám đốc sở. Cứ làm lộn ngược đầu như thế nên công việc ách tắc là phải. Mình phải chịu khó đi mới quán xuyến được công việc và đi thẳng vô câu người ta hỏi. Phải nắm được gốc của vấn đề để biết cách xử lý và trả lời cho dân, chứ đừng \"phỉnh\" người ta, nói theo kiểu cho... uống thuốc an thần!\" - ông Nguyễn Bá Thanh nói.\n    nguồn http://vi.wikipedia.org/wiki/Nguy%E1%BB%85n_B%C3%A1_Thanh","created_time":"2014-04-12T14:40:06+0000","updated_time":"2014-04-12T16:47:17+0000","likes":{"data":{"100007903567494":{"id":"100007903567494","name":"ベトナムの ビュイ"},"100008099350890":{"id":"100008099350890","name":"Nguyễn Hùng"},"100003321786144":{"id":"100003321786144","name":"Baloon Bambootatoo"},"100002235953037":{"id":"100002235953037","name":"Cỏ Không Lá"},"100007988441472":{"id":"100007988441472","name":"Sống Mòn"},"569263718":{"id":"569263718","name":"Phuong Thao Tran"},"100005818926673":{"id":"100005818926673","name":"Ngà Hoàng"},"100000022163023":{"id":"100000022163023","name":"Kafe Ore"},"100003893158172":{"id":"100003893158172","name":"Maru MO"},"100001416272263":{"id":"100001416272263","name":"Mai PB"},"100004798083725":{"id":"100004798083725","name":"Cappu Ccino"},"1834022759":{"id":"1834022759","name":"Nga Hoàng Lê"},"100000351278796":{"id":"100000351278796","name":"Hồ Văn Hải"},"100001602108729":{"id":"100001602108729","name":"Tram Mai"},"100002966928087":{"id":"100002966928087","name":"Nguyen van Dat"}},"paging":{"cursors":{"after":"MTAwMDA3OTAzNTY3NDk0","before":"MTAwMDA3OTAzNTY3NDk0"},"next":"https://graph.facebook.com/229244010425617_850234891659856/likes?limit=1&summary=1&after=MTAwMDA3OTAzNTY3NDk0"},"summary":{"total_count":16}},"comments":{"data":{"850248654991813":{"id":"850248654991813","from":{"id":"100000022163023","name":"Kafe Ore"},"message":"Bị thích Đà Nẵng, thích bác Bí Thư Tỉnh này luôn . Bác cố lên, Bác mà tranh cử chức Tổng bí thư hay Chủ tịch nước, cháu sẽ vận động cả làng cả xóm bỏ phiếu cho Bác.","can_remove":false,"created_time":"2014-04-12T15:11:36+0000","like_count":1,"user_likes":false},"850250278324984":{"id":"850250278324984","from":{"id":"100002966928087","name":"Nguyen van Dat"},"message":"nay bác ấy làm Trưởng ban Nội chính T.Ư rồi,nhưng vẫn chưa  tung hoàng được nhiều","can_remove":false,"created_time":"2014-04-12T15:15:16+0000","like_count":1,"user_likes":false},"850276158322396":{"id":"850276158322396","from":{"id":"100002235953037","name":"Cỏ Không Lá"},"message":"dc đấy thím Đạt. phát huy nhé.","can_remove":false,"created_time":"2014-04-12T16:08:34+0000","like_count":1,"user_likes":false},"850292728320739":{"id":"850292728320739","from":{"id":"1725907325","name":"Nguyen Van Dung"},"message":"Ông Thanh về diệt bọn công an đàn áp anh zai tôi đi.\n----\nNghĩ rằng người cầm quyền có tinh thần cảnh giác cao, nhìn đâu cũng thấy phản động, chống phá đất nước, hay ít là kẻ gây rối, tôi mạo muội gửi bức thư này cho ông Chủ tịch UBND Tp Đà Nẵng.\n\nThông điệp bức thư là xin đừng làm khó tôi.\nNguyễn Văn Thạnh\n\nCụ thể:\n\nTHƯ NGỎ\n\nĐà Nẵng, ngày 7/4/2014.\nKính gửi: Ông Chủ tịch UBND Thành phố Đà Nẵng.\n\nTôi là Nguyễn Văn Thạnh \nSinh ngày 27-11-1983\nCMND số 211763975, cấp ngày 21-4-1999 tại CA Bình Định.\n\nĐịa chỉ liên lạc: Hòm thư số 5-bưu điện Ngô Quyền-Sơn Trà-Tp Đà Nẵng.\nĐT: 0984.973.376\n\nHôm nay tôi viết thư này giãi bày với ông một việc:\n\nTôi đến Đà Nẵng năm 2002 để học Đại học, tôi theo học trường ĐHBK Đà Nẵng, niên khóa 2002-2008, sau khi ra trường tôi sinh sống và làm việc ở đây. Đà Nẵng là một thành phố để lại trong tôi nhiều tình cảm tốt đẹp.\n\nÝ thức trách nhiệm của một công dân, ngoài việc phấn đấu cho sự thành đạt của bản thân, tôi còn có mong muốn đóng góp cho xã hội. Ngay từ thời sinh viên, năm 2006, tôi có hoạt động cộng đồng để cải thiện cuộc sống cho đối tượng bệnh nhân máu khó đông ở Quảng Nam-Đà Nẵng, cũng như toàn quốc. Tôi vinh dự được nhận giấy khen của Chủ tịch thành phố Đà Nẵng về việc này.\nThời gian qua, tôi có viết một số bài thể hiện quan điểm chính kiến của mình với mong muốn đóng góp cho đất nước, cho xã hội; các bài viết của tôi có đăng trên internet. Từ đây tôi gặp rắc rối trong cuộc sống: tôi bị phòng an ninh chính trị PA61 mời làm việc, bị kẻ lạ mặt vô cớ đánh ngay trước đồn CA phường Hòa Minh, bị đoàn kiểm tra liên ngành chặn xe chuyển nhà để xét hàng, liên tục bị kiểm tra hành chính cư trú, thậm chí bị nhân viên công lực lạm quyền đánh đập,…Tất cả những việc đó, tôi có trình báo lên cơ quan chức năng, chắc hẳn ông có biết. Ngoài những sự việc trên, điều làm tôi vô cùng mệt mỏi là việc các chủ nhà bị áp lực của công an khu vực phải thôi hợp đồng thuê nhà với tôi, đồng nghĩa với việc tôi liên tục chuyển nhà.\n\nThưa ông, như ông biết, lịch sử dân tộc ta có nhiều đau thương trong việc đối xử với người yêu nước. Trong các giai đoạn lịch sử đã qua, rất nhiều người yêu nước đã bị bách hại, thậm chí là giết chết.\n\nVà đồng thời lịch sử cũng cho ta bài học là rất nhiều người tại thời điểm đó nói và làm một số việc bị lên án là sai trái nhưng sau này thấy họ đúng và họ là người yêu nước chân chính. Điều này không chỉ gây hại cho dân, cho nước mà còn làm cho uy tín, sự nghiệp của người cầm quyền tổn thất rất lớn.\n\nChúng ta cũng thấy rằng, mỗi giai đoạn khó khăn của đất nước rất cần tiếng nói của quần chúng nhân dân, bỡi lẽ có nhiều vấn đề Đảng, chính quyền chưa thấy nhưng nhân dân lại thấy rất rõ. Làm khó người lên tiếng cũng đồng nghĩa gây khó khăn thêm cho đất nước trong việc tìm kiếm giải pháp giải quyết vấn đề.\nTừ những bài học lịch sử trên, tôi mong ông quan tâm chỉ đạo cấp dưới mà trực tiếp là ngành công an không làm khó tôi nữa. Là một người yêu nước, tôi chỉ mong muốn góp tiếng nói, góp trí tuệ, lòng nhiệt huyết của mình để cống hiến cho đất nước, cho dân tộc. Tự đáy lòng, tôi chỉ có mong muốn trên mà thôi. Những việc tôi làm là minh bạch, ông có thể theo dõi trên trang tin cá nhân www.thanhblog.org. Tất nhiên, tuổi trẻ có thể bồng bột, nông nổi, nhất là lúc bị xách nhiễu, đánh đập thì tôi không khỏi thốt ra những lời khó nghe, nặng nề thậm chí là cực đoan.\n\nCó lẽ, ông cũng biết rằng, người cầm quyền không có mục tiêu nào khác là chăm lo cho hạnh phúc của nhân dân và người cầm quyền được kính trọng hơn nếu giang tay bảo vệ cho người yêu nước để họ có thể tận tậm, tận lực cống hiến cho đất nước.\n\nĐây là bức thư của người tuổi còn trẻ gửi cho ông, có thể có nhiều sai sót, mong ông lượng thứ bỏ qua.\n\nXin kính chúc ông sức khỏe!\n\nKính thư\n\nNguyễn Văn Thạnh","message_tags":[{"id":"100003945036031","name":"Nguyễn Văn Thạnh","type":"user","offset":292,"length":16}],"can_remove":false,"created_time":"2014-04-12T16:47:17+0000","like_count":3,"user_likes":false}},"paging":{"cursors":{"after":"ODUwMjQ4NjU0OTkxODEz","before":"ODUwMjQ4NjU0OTkxODEz"},"next":"https://graph.facebook.com/229244010425617_850234891659856/comments?limit=1&summary=1&after=ODUwMjQ4NjU0OTkxODEz"},"summary":{"order":"chronological","total_count":4}}}