{"id":"229244010425617_850287841654561","type":"video","source":"http://www.youtube.com/v/a4LqcKGY8fI?version=3&autohide=1&autoplay=1","from":{"id":"1146680551","name":"優しい なぁ"},"message":"Ở Nhật, tỉ lệ stress khá cao. Đây là cách giải giải tỏa khi căng thẳng theo kiểu Nhật.\nNhìn vào video và max volume. Hãy dành 7p, mệt mỏi trong ngày sẽ tan biến. Mình đã thử, thấy hết mệt thật và chuẩn bị đi ngủ :3\n\nhttps://www.youtube.com/watch?v=a4LqcKGY8fI","created_time":"2014-04-12T16:36:22+0000","updated_time":"2014-04-12T18:13:12+0000","likes":{"data":{"100001515993886":{"id":"100001515993886","name":"Thu Vu"},"100000089472724":{"id":"100000089472724","name":"Duy Nguyen"},"100004256292728":{"id":"100004256292728","name":"Phạm Việt Trinh"},"100004857664746":{"id":"100004857664746","name":"Ông Virut"},"100000572010533":{"id":"100000572010533","name":"Thao Vo"},"100005198804062":{"id":"100005198804062","name":"Sam Susi"},"100006627121749":{"id":"100006627121749","name":"Cỏ Kim"},"1821970083":{"id":"1821970083","name":"Nguyễn Mạnh Cường"},"100005067546276":{"id":"100005067546276","name":"Quynh Buivan"},"100003729839083":{"id":"100003729839083","name":"Hoàng Khải"},"100002954712134":{"id":"100002954712134","name":"La Quang Tiến"},"100006604537364":{"id":"100006604537364","name":"Dan Le"},"100003893158172":{"id":"100003893158172","name":"Maru MO"},"1018045827":{"id":"1018045827","name":"Trang Nguyen"},"100007750683566":{"id":"100007750683566","name":"Ty Ty"},"100005891501510":{"id":"100005891501510","name":"Nhóc À Kim"},"100003799434301":{"id":"100003799434301","name":"Ninh Mai"},"100003686602180":{"id":"100003686602180","name":"Linh Pham"},"100000387942170":{"id":"100000387942170","name":"Hà Quảng Đạt"},"1026780646":{"id":"1026780646","name":"Việt Hưng Khổng"},"100002126161922":{"id":"100002126161922","name":"Thanh Tran"},"100002975299796":{"id":"100002975299796","name":"Trinh Tuan Anh"},"100006622444153":{"id":"100006622444153","name":"Cảnh Đặng"},"100008099350890":{"id":"100008099350890","name":"Nguyễn Hùng"},"100005042802293":{"id":"100005042802293","name":"Huân YThảo"},"100004072866570":{"id":"100004072866570","name":"Nguyen Kong Hung"},"100003082343329":{"id":"100003082343329","name":"Ta Ke"},"100001100972138":{"id":"100001100972138","name":"Quang Trạch Nguyễn"},"100002941809570":{"id":"100002941809570","name":"Hằng Nguyễn"},"1571155341":{"id":"1571155341","name":"Trang Rubie"},"100006421833869":{"id":"100006421833869","name":"Tiểu Ngư"},"100003110793209":{"id":"100003110793209","name":"Midori Nguyen"},"100007468213697":{"id":"100007468213697","name":"Minh Cảnh"},"100007132926185":{"id":"100007132926185","name":"Kiên Phạm"},"100001324611896":{"id":"100001324611896","name":"Meo Luoi"},"100004086631868":{"id":"100004086631868","name":"Lêkita Mít Ướt"},"100005271433446":{"id":"100005271433446","name":"Nguyentan Thang"},"100000245098200":{"id":"100000245098200","name":"Nguyễn Trường Giang"},"1453400118":{"id":"1453400118","name":"Ngan Nguyen"},"100001695345798":{"id":"100001695345798","name":"Tyn Aki"},"100003327351931":{"id":"100003327351931","name":"Bánh Mì Sữa"},"100004572073871":{"id":"100004572073871","name":"Vandai Hau"},"100004102572645":{"id":"100004102572645","name":"Hien Mv"},"100006498855835":{"id":"100006498855835","name":"Hà My"},"100006014164976":{"id":"100006014164976","name":"Bình Bông"},"100000022163023":{"id":"100000022163023","name":"Kafe Ore"},"100000213464426":{"id":"100000213464426","name":"Tuấn Nguyễn"}},"paging":{"cursors":{"after":"MTAwMDAxNTE1OTkzODg2","before":"MTAwMDAxNTE1OTkzODg2"},"next":"https://graph.facebook.com/229244010425617_850287841654561/likes?limit=1&summary=1&after=MTAwMDAxNTE1OTkzODg2"},"summary":{"total_count":47}},"comments":{"data":{"850290448320967":{"id":"850290448320967","from":{"id":"100005801442456","name":"An Nguyen"},"message":"Dòng nhạc này gọi là new age.","can_remove":false,"created_time":"2014-04-12T16:42:57+0000","like_count":0,"user_likes":false},"850294898320522":{"id":"850294898320522","from":{"id":"100007468213697","name":"Minh Cảnh"},"message":"よしなに","can_remove":false,"created_time":"2014-04-12T16:52:08+0000","like_count":0,"user_likes":false},"850297928320219":{"id":"850297928320219","from":{"id":"1303217748","name":"Trinh Thi Thanh Duyen"},"message":"睡眠音楽","can_remove":false,"created_time":"2014-04-12T16:58:41+0000","like_count":1,"user_likes":false},"850300241653321":{"id":"850300241653321","from":{"id":"100002235953037","name":"Cỏ Không Lá"},"message":"uhm, buồn ngủ, nghe xong mất ngủ luôn :(","can_remove":false,"created_time":"2014-04-12T17:05:18+0000","like_count":0,"user_likes":false},"850311298318882":{"id":"850311298318882","from":{"id":"100000695079974","name":"Lê Huy Hoàng"},"message":"Phương Dung","message_tags":[{"id":"100003551700006","name":"Phương Dung","type":"user","offset":0,"length":11}],"can_remove":false,"created_time":"2014-04-12T17:31:01+0000","like_count":0,"user_likes":false},"850326324984046":{"id":"850326324984046","from":{"id":"100000106606544","name":"Thu Hiền"},"message":":v","can_remove":false,"created_time":"2014-04-12T18:13:12+0000","like_count":0,"user_likes":false}},"paging":{"cursors":{"after":"ODUwMjkwNDQ4MzIwOTY3","before":"ODUwMjkwNDQ4MzIwOTY3"},"next":"https://graph.facebook.com/229244010425617_850287841654561/comments?limit=1&summary=1&after=ODUwMjkwNDQ4MzIwOTY3"},"summary":{"order":"chronological","total_count":6}}}