{"id":"229244010425617_850205134996165","type":"status","from":{"id":"100007872792574","name":"Libra Hermione"},"message":"em chào m.n ạ. em hiện là sv sắp tốt nghiệp đh, nhưng em ra trường thì cô em giới thiệu và khuyên em nên du học nhật 2 năm vừa học vừa làm, sau này có tiếng về ko sợ thất nghiệp, em rất băn khoăn, nếu anh chị nào có kinh nghiệm rồi chia sẻ em với, em cảm ơn ạ","created_time":"2014-04-12T13:55:15+0000","updated_time":"2014-04-13T11:15:07+0000","likes":{"data":{"100005744975477":{"id":"100005744975477","name":"Tuyết Mùa Hè"},"100007821313633":{"id":"100007821313633","name":"Hải Yến Nguyễn"},"100005755297709":{"id":"100005755297709","name":"Ko Hi"},"100003032663784":{"id":"100003032663784","name":"Vượt Qua Thử Thách"},"100000022163023":{"id":"100000022163023","name":"Kafe Ore"},"100003714451753":{"id":"100003714451753","name":"Dom Lee"},"100005275411260":{"id":"100005275411260","name":"Hoa Của Nắng"},"100005138371347":{"id":"100005138371347","name":"Nhung Hoang"},"100007616402925":{"id":"100007616402925","name":"Hoa Dang"},"100003145230878":{"id":"100003145230878","name":"Anh Chu"},"100001527462517":{"id":"100001527462517","name":"Thu Hiền Phạm"},"100004057374771":{"id":"100004057374771","name":"Sao Bang Vo Tinh"}},"paging":{"cursors":{"after":"MTAwMDA1NzQ0OTc1NDc3","before":"MTAwMDA1NzQ0OTc1NDc3"},"next":"https://graph.facebook.com/229244010425617_850205134996165/likes?limit=1&summary=1&after=MTAwMDA1NzQ0OTc1NDc3"},"summary":{"total_count":12}},"comments":{"data":{"850205601662785":{"id":"850205601662785","from":{"id":"100003028995415","name":"Vô Çùng Đểu"},"message":"mình cũng muốn đi :'( nhg nghe bảo người nhật k có ưa người VN :'(","can_remove":false,"created_time":"2014-04-12T13:56:04+0000","like_count":1,"user_likes":false},"850206768329335":{"id":"850206768329335","from":{"id":"100001533106767","name":"Nguyễn Minh Châu"},"message":"Mình chưa đi nhật nhg mình biết là k có chương trình j học 2 năm cả ạ","can_remove":false,"created_time":"2014-04-12T13:58:33+0000","like_count":2,"user_likes":false},"850206838329328":{"id":"850206838329328","from":{"id":"100007693654165","name":"Khanhtoan Thanhthao"},"message":"ko pai dau nguoi nhat tot lam","can_remove":false,"created_time":"2014-04-12T13:58:38+0000","like_count":1,"user_likes":false},"850208004995878":{"id":"850208004995878","from":{"id":"100004091392967","name":"Pé Hạt Tiêu"},"message":"Học tiếng nếu đi từ tháng 4 thì là khoá 2 năm ạ.nhưng nói thật thì sang bên này vất vả lắm hơn nữa giờ ng Nhật có phần k ưa ng VN vì có nhiều tiếng xấu quá","can_remove":false,"created_time":"2014-04-12T14:01:09+0000","like_count":2,"user_likes":false},"850208601662485":{"id":"850208601662485","from":{"id":"100001533106767","name":"Nguyễn Minh Châu"},"message":"2 năm là học đại học hay học j vậy bạn Pé Hạt Tiêu?","can_remove":false,"created_time":"2014-04-12T14:02:35+0000","like_count":0,"user_likes":false},"850208778329134":{"id":"850208778329134","from":{"id":"100000747635624","name":"Nguyễn Xuân Đại"},"message":"https://www.facebook.com/notes/780437075306305","can_remove":false,"created_time":"2014-04-12T14:02:50+0000","like_count":0,"user_likes":false},"850209168329095":{"id":"850209168329095","from":{"id":"100007872792574","name":"Libra Hermione"},"message":"@nguyễ minh châu: chị ơi, thế đi mấy năm ạ","can_remove":false,"created_time":"2014-04-12T14:03:40+0000","like_count":0,"user_likes":false},"850209371662408":{"id":"850209371662408","from":{"id":"100004091392967","name":"Pé Hạt Tiêu"},"message":"Đấy là học trường tiếng bạn nhé.bạn học trường tiếng xong mới thi lên.học cao đẳng hay đại học","can_remove":false,"created_time":"2014-04-12T14:04:03+0000","like_count":1,"user_likes":false},"850209904995688":{"id":"850209904995688","from":{"id":"100000747635624","name":"Nguyễn Xuân Đại"},"message":"Bạn nên tham khảo trên đường link có hết đó","can_remove":false,"created_time":"2014-04-12T14:05:23+0000","like_count":0,"user_likes":false},"850210304995648":{"id":"850210304995648","from":{"id":"100005376572332","name":"Cong Tu Ho Le"},"message":"Len di e ak","can_remove":false,"created_time":"2014-04-12T14:06:20+0000","like_count":0,"user_likes":false},"850210398328972":{"id":"850210398328972","from":{"id":"100000035641538","name":"Hopes Hiden"},"message":"Bạn có năng lực thì ở Việt Nam! Mà làm dù học sang bên nhật.nói đumgs là đi làm nô lệ cho nhật.a nếu bẠn có tiền thì đi cũng đc","can_remove":false,"created_time":"2014-04-12T14:06:31+0000","like_count":0,"user_likes":false},"850210534995625":{"id":"850210534995625","from":{"id":"100001533106767","name":"Nguyễn Minh Châu"},"message":"Ah mình biết thế nên mới thắc măc k biết đh hay cao học j mà mỗi 2 năm. Nếu sang học tieng r về  làm việc k cần thiết sang nhật lắm. Tất nhiên nếu có đk thì đi là tốt nhất","can_remove":false,"created_time":"2014-04-12T14:06:47+0000","like_count":0,"user_likes":false},"850210624995616":{"id":"850210624995616","from":{"id":"100005376572332","name":"Cong Tu Ho Le"},"message":"Di 3n e nhe","can_remove":false,"created_time":"2014-04-12T14:06:54+0000","like_count":0,"user_likes":false},"850210711662274":{"id":"850210711662274","from":{"id":"100007872792574","name":"Libra Hermione"},"message":"thực ra thì em cũng ko có tiền anh ạ. mà năng lực em thuộc kiểu bt","can_remove":false,"created_time":"2014-04-12T14:07:05+0000","like_count":0,"user_likes":false},"850210764995602":{"id":"850210764995602","from":{"id":"100007872792574","name":"Libra Hermione"},"message":"ko có gì nổi trội","can_remove":false,"created_time":"2014-04-12T14:07:12+0000","like_count":0,"user_likes":false},"850211061662239":{"id":"850211061662239","from":{"id":"100005376572332","name":"Cong Tu Ho Le"},"message":"Troi the thi do la wuyt djh va p co mun di k","can_remove":false,"created_time":"2014-04-12T14:07:54+0000","like_count":0,"user_likes":false},"850211148328897":{"id":"850211148328897","from":{"id":"100004413909331","name":"Thần Chết"},"message":"M cung co mot suat di ma cha biet the nao day","can_remove":false,"created_time":"2014-04-12T14:08:08+0000","like_count":0,"user_likes":false},"850211164995562":{"id":"850211164995562","from":{"id":"100005376572332","name":"Cong Tu Ho Le"},"message":"Di dag day co cai tot va cai hai ca p ak","can_remove":false,"created_time":"2014-04-12T14:08:10+0000","like_count":1,"user_likes":false},"850211561662189":{"id":"850211561662189","from":{"id":"100007872792574","name":"Libra Hermione"},"message":"Pé Hạt Tiêu: mình sang đó vào trường học tiếng thì đi mấy năm vậy bạn","can_remove":false,"created_time":"2014-04-12T14:09:12+0000","like_count":0,"user_likes":false},"850211834995495":{"id":"850211834995495","from":{"id":"100007872792574","name":"Libra Hermione"},"message":"mình cũng đang phân vân lắm nên mới lên đây nhờ m.n tư vấn, tiếng nhật thì chưa biế gì","can_remove":false,"created_time":"2014-04-12T14:09:48+0000","like_count":0,"user_likes":false},"850211838328828":{"id":"850211838328828","from":{"id":"100005376572332","name":"Cong Tu Ho Le"},"message":"5nam","can_remove":false,"created_time":"2014-04-12T14:09:48+0000","like_count":0,"user_likes":false},"850212098328802":{"id":"850212098328802","from":{"id":"100000035641538","name":"Hopes Hiden"},"message":"Nói chung nếu bạn sang o pải sang để kiếm tiền thì coi như đi rèn luyện cũng đc","can_remove":false,"created_time":"2014-04-12T14:10:00+0000","like_count":0,"user_likes":false},"850213224995356":{"id":"850213224995356","from":{"id":"100005376572332","name":"Cong Tu Ho Le"},"message":"Chua pit thi hok zoi se pit het ma de ma co kho dau co gag hok la gioi thoi","can_remove":false,"created_time":"2014-04-12T14:10:33+0000","like_count":0,"user_likes":false},"850213258328686":{"id":"850213258328686","from":{"id":"100004091392967","name":"Pé Hạt Tiêu"},"message":"Khoá tháng 4 là 2 năm.tháng 7 là 1 năm 6 tháng.tháng 10 là 1 năm 3 tháng","can_remove":false,"created_time":"2014-04-12T14:10:34+0000","like_count":0,"user_likes":false},"850213701661975":{"id":"850213701661975","from":{"id":"100000861676460","name":"Dinh Duyen Hong"},"message":"Bạn học đại học cnganh gi? Đi dh nhật sẽ là cơ hội tốt cho nhug ai luôn suy nghĩ tích cực và biết phấn đấu.","can_remove":false,"created_time":"2014-04-12T14:11:02+0000","like_count":0,"user_likes":false},"850214191661926":{"id":"850214191661926","from":{"id":"100007872792574","name":"Libra Hermione"},"message":"mình học ngành tài chính doanh nghiệp","can_remove":false,"created_time":"2014-04-12T14:11:53+0000","like_count":0,"user_likes":false},"850214204995258":{"id":"850214204995258","from":{"id":"100000861676460","name":"Dinh Duyen Hong"},"message":"Chị đang làm việc tại nhật  và hiểu rõ củ tỉ cs dhs. Nếu cần lời khuyên em cứ inbox nhé","can_remove":false,"created_time":"2014-04-12T14:11:55+0000","like_count":0,"user_likes":false},"850215508328461":{"id":"850215508328461","from":{"id":"100007872792574","name":"Libra Hermione"},"message":"mình thấy bảo ở đó vất vả lắm phải ko ạ, kiểu làm nặng nhọc hay phải làm nhiều giờ vậy m.n","can_remove":false,"created_time":"2014-04-12T14:14:12+0000","like_count":0,"user_likes":false},"850216191661726":{"id":"850216191661726","from":{"id":"100007693654165","name":"Khanhtoan Thanhthao"},"message":"o dau cha the lao dong kiem tien thi pai vat va thoi .nhung kuok song ho khak mjnh lam","can_remove":false,"created_time":"2014-04-12T14:15:37+0000","like_count":0,"user_likes":false},"850216488328363":{"id":"850216488328363","from":{"id":"100000861676460","name":"Dinh Duyen Hong"},"message":"Ah tuỳ khu vực và tuỳ công việc em ah. Ko nói kiểu vơ đũa cả nắm được","can_remove":false,"created_time":"2014-04-12T14:16:00+0000","like_count":0,"user_likes":false},"850217048328307":{"id":"850217048328307","from":{"id":"100007872792574","name":"Libra Hermione"},"message":"chị Dinh Duyen Hong; em ib chị rồi đó ạ","message_tags":[{"id":"100000861676460","name":"Dinh Duyen Hong","type":"user","offset":4,"length":15}],"can_remove":false,"created_time":"2014-04-12T14:16:47+0000","like_count":0,"user_likes":false},"850217741661571":{"id":"850217741661571","from":{"id":"100007872792574","name":"Libra Hermione"},"message":"Khanhtoan Thanhthao: anh ơi, họ khắc như nào ạ, em chưa biết gì về nhật cả ạ","message_tags":[{"id":"100007693654165","name":"Khanhtoan Thanhthao","type":"user","offset":0,"length":19}],"can_remove":false,"created_time":"2014-04-12T14:17:15+0000","like_count":0,"user_likes":false},"850218924994786":{"id":"850218924994786","from":{"id":"100007693654165","name":"Khanhtoan Thanhthao"},"message":"con nguoi ho ton trong nhau lam va jat sach se va ho that tha lam it khi noi joi","can_remove":false,"created_time":"2014-04-12T14:18:33+0000","like_count":1,"user_likes":false},"850219284994750":{"id":"850219284994750","from":{"id":"100000861676460","name":"Dinh Duyen Hong"},"message":"Ib là gì hả e libra???!","can_remove":false,"created_time":"2014-04-12T14:18:58+0000","like_count":0,"user_likes":false},"850220211661324":{"id":"850220211661324","from":{"id":"100007872792574","name":"Libra Hermione"},"message":"em nt cho chị rồi ạ.hihi, em viết tắt. em xin lỗi chị nhé","can_remove":false,"created_time":"2014-04-12T14:19:47+0000","like_count":0,"user_likes":false},"850220851661260":{"id":"850220851661260","from":{"id":"100007872792574","name":"Libra Hermione"},"message":"Khanhtoan Thanhthao: anh ở đó bao lâu rồi ạ, ở đó em thấy bảo nb gét việt mình lắm ạ","message_tags":[{"id":"100007693654165","name":"Khanhtoan Thanhthao","type":"user","offset":0,"length":19}],"can_remove":false,"created_time":"2014-04-12T14:20:38+0000","like_count":0,"user_likes":false},"850221531661192":{"id":"850221531661192","from":{"id":"100000861676460","name":"Dinh Duyen Hong"},"message":"Ah đã hiểu","can_remove":false,"created_time":"2014-04-12T14:21:32+0000","like_count":0,"user_likes":false},"850222588327753":{"id":"850222588327753","from":{"id":"1828906841","name":"Trọng Nghĩa Bùi"},"message":"Bạn sắp tốt nghiệp mà chưa có kế hoạch công việc là đang chậm chân rồi đấy. Kể cả đi học tiếng Nhật nữa thì sau khi học xong bạn có tự lo được việc làm không? Chưa tính đến chi phí cho toàn bộ việc đi học.\nSuy nghĩ của mình là bạn phải tự chủ động về công việc và tương lai của bản thân trước. Lựa chọn du học chỉ là một con đường (vòng) khác thôi, sẽ không giúp ích nhiều nếu như bạn không thay đổi.","can_remove":false,"created_time":"2014-04-12T14:22:26+0000","like_count":1,"user_likes":false},"850224088327603":{"id":"850224088327603","from":{"id":"100001527462517","name":"Thu Hiền Phạm"},"message":"Chị làm về du học Nhật, có gì thắc mắc thì inbox chị giải thích cho e nhé","can_remove":false,"created_time":"2014-04-12T14:24:43+0000","like_count":1,"user_likes":false},"850224261660919":{"id":"850224261660919","from":{"id":"100007872792574","name":"Libra Hermione"},"message":"dạ, tại em chưa bao giờ có ý định đi du học ạ, nhưng từ bé em rất thích đucợ đi du học nhưng mà em thích đi mấy nước như là anh, hay mỹ gì đó vì em rất thích tiếng anh, mặc dù tiếng anh của em ko được tốt lắm, nhưng mấy hôm nay cô em gọi ý thế nên em cũng suy nghĩ nhiều","can_remove":false,"created_time":"2014-04-12T14:24:56+0000","like_count":1,"user_likes":false},"850229281660417":{"id":"850229281660417","from":{"id":"100007872792574","name":"Libra Hermione"},"message":"anh ơi, nếu đi làm thì thường 1 ngày các anh làm mấy tiếng ạ","can_remove":false,"created_time":"2014-04-12T14:30:57+0000","like_count":0,"user_likes":false},"850231614993517":{"id":"850231614993517","from":{"id":"100000861676460","name":"Dinh Duyen Hong"},"message":"Em Libra đọc cmt mỗi ng 1 quannđiểm thế này thì càng loạn lên thoi. Theo chị, em thấy tin ai thì nghe người đó, hoặc là đừng tin ai, tự mình quyết định. Thành công là dành cho những ai dám làm mà!","can_remove":false,"created_time":"2014-04-12T14:34:09+0000","like_count":1,"user_likes":false},"850231934993485":{"id":"850231934993485","from":{"id":"100007872792574","name":"Libra Hermione"},"message":"chị Dinh Duyen Hong: em nhắn tin cho chị rồi đó, chị nhắn tin lại cho em với ạ","message_tags":[{"id":"100000861676460","name":"Dinh Duyen Hong","type":"user","offset":4,"length":15}],"can_remove":false,"created_time":"2014-04-12T14:34:48+0000","like_count":0,"user_likes":false},"850232141660131":{"id":"850232141660131","from":{"id":"100007872792574","name":"Libra Hermione"},"message":"thế anh ko đi học ạ, anh sang đây là đi làm à","can_remove":false,"created_time":"2014-04-12T14:35:17+0000","like_count":0,"user_likes":false},"850233578326654":{"id":"850233578326654","from":{"id":"100007872792574","name":"Libra Hermione"},"message":"thế có phải làm đêm ko anh","can_remove":false,"created_time":"2014-04-12T14:37:54+0000","like_count":0,"user_likes":false},"850234291659916":{"id":"850234291659916","from":{"id":"100000861676460","name":"Dinh Duyen Hong"},"message":"Libra ko thấy tin nhắn của e. Em chat onl với chị thử xem nào! Hic","can_remove":false,"created_time":"2014-04-12T14:39:04+0000","like_count":0,"user_likes":false},"850234318326580":{"id":"850234318326580","from":{"id":"100003169862158","name":"Dat Phu Tho"},"message":"Nói chung là nếu đi theo dạng học bổng thì đi . Còn nếu đi theo diện tự túc thì bạn đầu tiên phải thật sự yêu thích tiếng nhật và nước nhật rồi hãy nghĩ tới việc đi du học nhật .!!. Bạn hãy nghĩ nếu sau mấy năm bạn học xong bạn trở về thì có những người như bạn hnay đã đi trước bạn mấy năm thì sao . Bạn đã chậm chân hơn họ .!!","can_remove":false,"created_time":"2014-04-12T14:39:08+0000","like_count":0,"user_likes":false},"850236154993063":{"id":"850236154993063","from":{"id":"100007872792574","name":"Libra Hermione"},"message":"em thấy bảo tới 2h đêm nưa, ko biết có đúng ko ạ","can_remove":false,"created_time":"2014-04-12T14:42:41+0000","like_count":0,"user_likes":false},"850239008326111":{"id":"850239008326111","from":{"id":"100000022163023","name":"Kafe Ore"},"message":"\" sợ thất nghiệp \" - Bạn có sợ ko ?\nBạn từ bé rất thích được đi du học, nhưng lại chưa bao giờ có ý định du học.\nBạn rất thích tiếng anh, nhưng tiếng anh lại ko được tốt lắm.\n\nMình mạn phép gợi ý với bạn rằng : Nếu bản thân không biết mình thực sự muốn gì và phải làm gì để có được điều mình muốn thì - Đi du học đi bạn ạ.\n2 năm vừa học vừa làm, 2 năm này là thời gian học tiếng và bạn ko thể tìm được công việc đúng chuyên nghành đã học. Nó sẽ giúp bạn quên đi rằng bạn đã từng tốt nghiệp ĐH ở VN.","can_remove":false,"created_time":"2014-04-12T14:48:04+0000","like_count":1,"user_likes":false},"850240231659322":{"id":"850240231659322","from":{"id":"100007872792574","name":"Libra Hermione"},"message":"thật sự là em học tốn kém lắm rồi ạ, em muốn đi làm nhưng ở việt nam em thấy lương thấp như này ko bù nổi nhưng năm tháng em học đh, nên em mới suy nghĩ về điều này ạ","can_remove":false,"created_time":"2014-04-12T14:49:42+0000","like_count":0,"user_likes":false},"850240594992619":{"id":"850240594992619","from":{"id":"100007872792574","name":"Libra Hermione"},"message":"e học chuyên ngành tài chính doanh nghiệp ạ","can_remove":false,"created_time":"2014-04-12T14:50:23+0000","like_count":0,"user_likes":false},"850240858325926":{"id":"850240858325926","from":{"id":"100007872792574","name":"Libra Hermione"},"message":"lúc học em chưa có ý định đi du học thì em học thêm khóa kế toán thực tế nữa, ko biết có giúp gì cho việc đi du học k","can_remove":false,"created_time":"2014-04-12T14:51:02+0000","like_count":0,"user_likes":false},"850243728325639":{"id":"850243728325639","from":{"id":"100006803468897","name":"Maria Maria"},"message":"Ý kiến chủ quan của mình thế này nhé:mạn phép,Đem hàn quốc ra so sánh,thì du học sinh việt nam bên nhật,chẳng khác gì lao động bất hợp pháp bên hàn.thông qua theo dõi diễn đàn,thì hiện nay.người nhật mà ngay cả người việt đang đã,có lẽ là sẽ duy trì thái độ kỳ thị,với du học sinh việt nam.nếu như du học những năm về trước thì có thể rất ok!nhưng mấy năm gần đây,làn sóng xuất ngoại trở lên ồ ạt,sóng sau đè sóng trước.lao động việt vốn rất được ưa chuộng tại những thị trường cao cấp như nhật bản,vì đức tính cần cù,ham học hỏi.nhưng gần đây có khá nhiều cá nhân,còn rèn luyện được cho bản thân những kỹ năng khá đặc biệt.có thể gọi nôm na kỹ năng đó là khôn,\"khôn lỏi\".nếu như cá nhân đó sống tại việt nam.đành rằng\"thật thà ăn cháo,láo nháo ăn cơm\"nhưng khi sang một thế giới mới với một trật tự xã hội khác,cá nhân này sẽ bị cộng đồng tẩy chay.hy vọng bạn sẽ giữ được hình tượng tốt trong mắt người nhật.\nCm này mang tính chất học hỏi có gì không nên,không phải diễn đàn bỏ quá cho!","can_remove":false,"created_time":"2014-04-12T14:57:46+0000","like_count":5,"user_likes":false},"850244518325560":{"id":"850244518325560","from":{"id":"100000022163023","name":"Kafe Ore"},"message":"Theo mình, chuyên nghành của bạn nếu có thêm kiến thức tiếng Nhật thì bạn có không ít cơ hội kiếm việc làm kế toán cho Cty Nhật tại VN với mức lương ko hề thấp.\nMình cũng thấy ở trường ĐH Ngoại Thương có nhiều khóa dạy tiếng Nhật chuyên nghành kế toán. Bạn có thể ra trường và bắt đầu đi làm để tích lũy kinh nghiệm KT, đồng thời học thêm tiếng Nhật nghành kế toán.\nHọc mấy năm ĐH, ko ai là ko tốn kém. Và đầu tư đi du học cũng tốn kém ko ít đâu bạn ạ. \nKhóa kế toán thục tế mà bạn học, có lẽ chả giúp ích gì cho việc du học hết. Vì 2 năm đầu bạn học tiếng, đi làm thêm thì chả có ai thuê bạn làm kế toán ở Nhật đâu. Lúc này bạn chỉ có Kế toán tiền nhà, tiền ăn, tiền học phí, tiền đã đầu tư du học thôi.","can_remove":false,"created_time":"2014-04-12T14:59:44+0000","like_count":2,"user_likes":false},"850475848302427":{"id":"850475848302427","from":{"id":"100007767102987","name":"Du Học Thu Huyền"},"message":"Bạn lên tự suy nghĩ và tìm ra hướng đi cho bản thân, đừng nghe theo lời giới thiệu hay để ai chèo lái tuoeng lai mình bạn ạ, tương lai và cs của bạn nằm trong tay bạn mà.  Good luck","can_remove":false,"created_time":"2014-04-13T00:05:36+0000","like_count":0,"user_likes":false},"850490964967582":{"id":"850490964967582","from":{"id":"100003913383051","name":"Tho Tran"},"message":"Xin góp ý chút nhé: nếu thực sự bản thân muốn đi du học  để lấy kiến thức về ngôn ngữ, xã hội, văn hoá của  những  đất nước tiên tiến thì nên đi, nhưng phải chuẩn bị tâm lí sẽ tốn kém một khoản tiền khá lớn, và thu lại vốn chỉ sau khi bạn học xong và đi làm, tiếp chuẩn bị thêm tâm lí: khi tốt nghiệp đại học ở Việt Nam ra mà không được thực hành thì sự mai một kiến thức là rất nhanh cho dù bạn học lý thuyết siêu, nhất về lĩnh vực bạn học toàn Nợ/ Có, kết chuyển rồi báo cáo.... Lung tung cả, muốn có năng lực tiếng và duy trì được cái mình đã học thì theo mình nên ở lại đi làm  về chuyên ngành 1 thời gian, có thể chấp nhận làm không công để được thực hành, đồng thời tích luỹ khả năng tiếng nhật đã rồi hãy đi nhật!\nP/s: suy nghĩ cá nhân thôi","can_remove":false,"created_time":"2014-04-13T00:50:03+0000","like_count":2,"user_likes":false},"850495061633839":{"id":"850495061633839","from":{"id":"100003246541781","name":"Đoàn Văn Tuyên"},"message":"Đi singapor đi","can_remove":false,"created_time":"2014-04-13T01:04:19+0000","like_count":1,"user_likes":false},"850567004959978":{"id":"850567004959978","from":{"id":"100007872792574","name":"Libra Hermione"},"message":"vâng, em cảm ơn của các anh chị  ạ","can_remove":false,"created_time":"2014-04-13T03:37:09+0000","like_count":0,"user_likes":false},"850699231613422":{"id":"850699231613422","from":{"id":"100007719188262","name":"Trần Văn Thưởng"},"message":"Nghia Le đề nghị không viết kiểu teen như thế.","message_tags":[{"id":"100007155522344","name":"Nghia Le","type":"user","offset":0,"length":8}],"can_remove":false,"created_time":"2014-04-13T10:22:36+0000","like_count":0,"user_likes":false},"850699621613383":{"id":"850699621613383","from":{"id":"100007155522344","name":"Nghia Le"},"message":"hai,wakarymasita","can_remove":false,"created_time":"2014-04-13T10:23:55+0000","like_count":0,"user_likes":false},"850699984946680":{"id":"850699984946680","from":{"id":"100007155522344","name":"Nghia Le"},"message":"jomaj koto ga dekiru desu ka?","can_remove":false,"created_time":"2014-04-13T10:24:56+0000","like_count":0,"user_likes":false},"850700441613301":{"id":"850700441613301","from":{"id":"100007719188262","name":"Trần Văn Thưởng"},"message":"\"jomaj\" janai, romaji desu yo.","can_remove":false,"created_time":"2014-04-13T10:26:10+0000","like_count":0,"user_likes":false},"850700508279961":{"id":"850700508279961","from":{"id":"100007155522344","name":"Nghia Le"},"message":"ima betonamu go wakaku koto ga dekanai","can_remove":false,"created_time":"2014-04-13T10:26:27+0000","like_count":0,"user_likes":false},"850700638279948":{"id":"850700638279948","from":{"id":"100007155522344","name":"Nghia Le"},"message":"onegaisimasu","can_remove":false,"created_time":"2014-04-13T10:26:56+0000","like_count":0,"user_likes":false},"850700924946586":{"id":"850700924946586","from":{"id":"100007155522344","name":"Nghia Le"},"message":"nihongo madamada de su","can_remove":false,"created_time":"2014-04-13T10:27:51+0000","like_count":0,"user_likes":false},"850701161613229":{"id":"850701161613229","from":{"id":"100007719188262","name":"Trần Văn Thưởng"},"message":"viết không dấu thì không sao nhưng làm ơn đừng viết kiểu \"mjh h0k pjt vjet nku tke na0\" là được, cảm ơn bạn đã chú ý.","can_remove":false,"created_time":"2014-04-13T10:28:45+0000","like_count":0,"user_likes":false},"850701358279876":{"id":"850701358279876","from":{"id":"100007155522344","name":"Nghia Le"},"message":"minasan wa okane dake desu","can_remove":false,"created_time":"2014-04-13T10:29:19+0000","like_count":0,"user_likes":false},"850701621613183":{"id":"850701621613183","from":{"id":"569263718","name":"Phuong Thao Tran"},"message":"sao vậy Nghia Le, bạn vừa vào lại group mà vẫn giữ tật cũ thế à!!!","can_remove":false,"created_time":"2014-04-13T10:29:58+0000","like_count":0,"user_likes":false},"850702138279798":{"id":"850702138279798","from":{"id":"100007155522344","name":"Nghia Le"},"message":"betonamugo shanai","can_remove":false,"created_time":"2014-04-13T10:31:17+0000","like_count":0,"user_likes":false},"850702378279774":{"id":"850702378279774","from":{"id":"100007155522344","name":"Nghia Le"},"message":"denbude wa nihongo desu","can_remove":false,"created_time":"2014-04-13T10:32:24+0000","like_count":0,"user_likes":false},"850702731613072":{"id":"850702731613072","from":{"id":"100007155522344","name":"Nghia Le"},"message":"sumimasen","can_remove":false,"created_time":"2014-04-13T10:33:26+0000","like_count":0,"user_likes":false},"850702874946391":{"id":"850702874946391","from":{"id":"569263718","name":"Phuong Thao Tran"},"message":"日本語をどうぞ! mata, shanai--> janai ne","can_remove":false,"created_time":"2014-04-13T10:33:57+0000","like_count":1,"user_likes":false},"850703011613044":{"id":"850703011613044","from":{"id":"100007155522344","name":"Nghia Le"},"message":"hai wakaru","can_remove":false,"created_time":"2014-04-13T10:34:31+0000","like_count":0,"user_likes":false},"850703308279681":{"id":"850703308279681","from":{"id":"100007155522344","name":"Nghia Le"},"message":"shanai wa iidesu","can_remove":false,"created_time":"2014-04-13T10:35:39+0000","like_count":0,"user_likes":false},"850704398279572":{"id":"850704398279572","from":{"id":"100007693654165","name":"Khanhtoan Thanhthao"},"message":"はじめてにほんごをかきましたか。","can_remove":false,"created_time":"2014-04-13T10:38:48+0000","like_count":0,"user_likes":false},"850704431612902":{"id":"850704431612902","from":{"id":"569263718","name":"Phuong Thao Tran"},"message":"tiếng Việt không dấu đã bị xóa, các bạn chú ý giúp, admin kg muôn xóa account của các bạn!","can_remove":false,"created_time":"2014-04-13T10:38:54+0000","like_count":0,"user_likes":false},"850705948279417":{"id":"850705948279417","from":{"id":"100007155522344","name":"Nghia Le"},"message":"taihendesu","can_remove":false,"created_time":"2014-04-13T10:42:56+0000","like_count":0,"user_likes":false},"850706174946061":{"id":"850706174946061","from":{"id":"100007155522344","name":"Nghia Le"},"message":"wakarymasita","can_remove":false,"created_time":"2014-04-13T10:43:37+0000","like_count":0,"user_likes":false},"850706478279364":{"id":"850706478279364","from":{"id":"100007155522344","name":"Nghia Le"},"message":"Phuong Thao Tran konbanwa","can_remove":false,"created_time":"2014-04-13T10:44:25+0000","like_count":0,"user_likes":false},"850711144945564":{"id":"850711144945564","from":{"id":"100000030980994","name":"Ông Sung"},"message":"Nghia Le có hiểu tiếng việt không? Bạn đang làm gì với tiếng nhật của bạn thế?","message_tags":[{"id":"100007155522344","name":"Nghia Le","type":"user","offset":0,"length":8}],"can_remove":false,"created_time":"2014-04-13T10:57:06+0000","like_count":1,"user_likes":false},"850717068278305":{"id":"850717068278305","from":{"id":"100007155522344","name":"Nghia Le"},"message":"A đươc rồi nha .ac vơí nhau vưa thôi","can_remove":false,"created_time":"2014-04-13T11:15:07+0000","like_count":0,"user_likes":false}},"paging":{"cursors":{"after":"ODUwMjA1NjAxNjYyNzg1","before":"ODUwMjA1NjAxNjYyNzg1"},"next":"https://graph.facebook.com/229244010425617_850205134996165/comments?limit=1&summary=1&after=ODUwMjA1NjAxNjYyNzg1"},"summary":{"order":"chronological","total_count":81}}}