{"id":"229244010425617_850639081619437","type":"status","from":{"id":"100005219074602","name":"Minh Mộng Mơ"},"message":"Có 2 bảng hira và kana học 1 bảng hara thui bảng kana có cần thiến cho sau này k các A ??? Chị","created_time":"2014-04-13T07:16:41+0000","updated_time":"2014-04-13T12:13:59+0000","likes":{"data":{"100000572010533":{"id":"100000572010533","name":"Thao Vo"},"100006907235659":{"id":"100006907235659","name":"Thao Van"},"100004288178550":{"id":"100004288178550","name":"Có Một Người"},"100005744975477":{"id":"100005744975477","name":"Tuyết Mùa Hè"},"100004870630272":{"id":"100004870630272","name":"Hà Xinh"},"100001438932250":{"id":"100001438932250","name":"Luong Anh Nguyet"},"100007938450435":{"id":"100007938450435","name":"Miruku Chokoreeto"},"100002225333357":{"id":"100002225333357","name":"ThanhDienkk BG"},"100003181743412":{"id":"100003181743412","name":"Pham Kha"},"100006614261300":{"id":"100006614261300","name":"Tao Cao Cường Đây"},"100001467937129":{"id":"100001467937129","name":"Nhân Nguyễn"},"100005219074602":{"id":"100005219074602","name":"Minh Mộng Mơ"}},"paging":{"cursors":{"after":"MTAwMDAwNTcyMDEwNTMz","before":"MTAwMDAwNTcyMDEwNTMz"},"next":"https://graph.facebook.com/229244010425617_850639081619437/likes?limit=1&summary=1&after=MTAwMDAwNTcyMDEwNTMz"},"summary":{"total_count":13}},"comments":{"data":{"850639514952727":{"id":"850639514952727","from":{"id":"100001467937129","name":"Nhân Nguyễn"},"message":"học 1 ngôn ngữ mới mà còn hỏi bảng chữ cái có quan trọng không nữa :(","can_remove":false,"created_time":"2014-04-13T07:18:40+0000","like_count":2,"user_likes":false},"850639901619355":{"id":"850639901619355","from":{"id":"100005219074602","name":"Minh Mộng Mơ"},"message":"thì nghe Tiền Là Quyền nói học bảng kira thui bảng kana từ sau sẽ suy ra dx","message_tags":[{"id":"100005855053978","name":"Tiền Là Quyền","type":"user","offset":9,"length":13}],"can_remove":false,"created_time":"2014-04-13T07:20:02+0000","like_count":0,"user_likes":false},"850640234952655":{"id":"850640234952655","from":{"id":"100004018390691","name":"Pham Thi"},"message":"Âm tuy giống nhưng mặt chữ khác thì suy ra đằng nào?","can_remove":false,"created_time":"2014-04-13T07:20:57+0000","like_count":0,"user_likes":false},"850640351619310":{"id":"850640351619310","from":{"id":"100005219074602","name":"Minh Mộng Mơ"},"message":"z. nên học cả 2 cho thành thạo ha :)","can_remove":false,"created_time":"2014-04-13T07:21:17+0000","like_count":0,"user_likes":false},"850640571619288":{"id":"850640571619288","from":{"id":"100004072426763","name":"Phạm Lương"},"message":"ko ai noi gj voi b sao ma hoi cau buon cuoi ge.","can_remove":false,"created_time":"2014-04-13T07:22:04+0000","like_count":0,"user_likes":false},"850640578285954":{"id":"850640578285954","from":{"id":"100004715524978","name":"Minh Chiến"},"message":"Hihi câu hỏi củ chuối ... Học nại sợ thừa . Nếu b là lê quý đôn thì k cần học kata ...","can_remove":false,"created_time":"2014-04-13T07:22:04+0000","like_count":1,"user_likes":false},"850640778285934":{"id":"850640778285934","from":{"id":"100005364935818","name":"Chuột Con"},"message":"Kanji thì học dần dần. Còn 2 bảng chữ kia bắt buộc phải học. Mới bđầu mà đã ngại khó sao hả nhok.","can_remove":false,"created_time":"2014-04-13T07:22:38+0000","like_count":0,"user_likes":false},"850641011619244":{"id":"850641011619244","from":{"id":"100001467937129","name":"Nhân Nguyễn"},"message":"một người chưa thuộc bảng chữ cái hỏi 1 người chưa biết \"trường âm\" :( . tốt nhất bạn nên học nhuyễn 2 bảng chữ cái như \" cháo \" , viết từ nào đọc được ngay , chứ không phải thuộc vẹt theo trình tự . bao h thuộc đc. như thế . thì bắt đầu học từ mới bài 1 , và ngữ pháp ....","can_remove":false,"created_time":"2014-04-13T07:23:26+0000","like_count":2,"user_likes":false},"850641061619239":{"id":"850641061619239","from":{"id":"100004715524978","name":"Minh Chiến"},"message":"Đúng là minh mộng mơ có khác ... Mơ nữa đi hii","can_remove":false,"created_time":"2014-04-13T07:23:35+0000","like_count":0,"user_likes":false},"850641124952566":{"id":"850641124952566","from":{"id":"100003181743412","name":"Pham Kha"},"message":"Bảng nào cũng cần","can_remove":false,"created_time":"2014-04-13T07:23:45+0000","like_count":0,"user_likes":false},"850641208285891":{"id":"850641208285891","from":{"id":"100005219074602","name":"Minh Mộng Mơ"},"message":"@@ tại E thuộc hết rồi mới hỏi","can_remove":false,"created_time":"2014-04-13T07:24:00+0000","like_count":0,"user_likes":false},"850641441619201":{"id":"850641441619201","from":{"id":"100006663485225","name":"Quang Béo"},"message":"どちらもうたいせつです","can_remove":false,"created_time":"2014-04-13T07:24:35+0000","like_count":1,"user_likes":false},"850641548285857":{"id":"850641548285857","from":{"id":"100005219074602","name":"Minh Mộng Mơ"},"message":"@@ máy e k có font nhật","can_remove":false,"created_time":"2014-04-13T07:24:55+0000","like_count":0,"user_likes":false},"850641818285830":{"id":"850641818285830","from":{"id":"100005219074602","name":"Minh Mộng Mơ"},"message":"z. E tks các A chị nha E đi học tiếp cho nhuyễn như cháo :) :) Agiratoo nghi đúng k nhĩ hi","can_remove":false,"created_time":"2014-04-13T07:25:44+0000","like_count":0,"user_likes":false},"850642131619132":{"id":"850642131619132","from":{"id":"100000641166561","name":"Vu Nguyen"},"message":"Học có hai bảng khoảng 150 từ mà làm gì phải \"có cần thiến\" không ghê vậy? Bạn luyện Kanji nữa chắc lên quan luôn quá!","can_remove":false,"created_time":"2014-04-13T07:26:29+0000","like_count":1,"user_likes":false},"850642218285790":{"id":"850642218285790","from":{"id":"100005219074602","name":"Minh Mộng Mơ"},"message":"@@ 150 từ đâu ra","can_remove":false,"created_time":"2014-04-13T07:26:48+0000","like_count":0,"user_likes":false},"850642258285786":{"id":"850642258285786","from":{"id":"100003181743412","name":"Pham Kha"},"message":"ありがとう","can_remove":false,"created_time":"2014-04-13T07:26:56+0000","like_count":1,"user_likes":false},"850642281619117":{"id":"850642281619117","from":{"id":"100005219074602","name":"Minh Mộng Mơ"},"message":":3 2 bảng chưa 100 từ","can_remove":false,"created_time":"2014-04-13T07:27:01+0000","like_count":1,"user_likes":false},"850643644952314":{"id":"850643644952314","from":{"id":"100005219074602","name":"Minh Mộng Mơ"},"message":"Kanji cỡ nhiu từ v. A Vu Nguyen","can_remove":false,"created_time":"2014-04-13T07:28:55+0000","like_count":1,"user_likes":false},"850643968285615":{"id":"850643968285615","from":{"id":"100005219074602","name":"Minh Mộng Mơ"},"message":"Ùm Tks A Người Vận Chuyển","can_remove":false,"created_time":"2014-04-13T07:30:22+0000","like_count":0,"user_likes":false},"850644298285582":{"id":"850644298285582","from":{"id":"100000641166561","name":"Vu Nguyen"},"message":"Mình cũng không rõ lắm! Nhưng về cơ bản khoảng 2000 từ là có thể đọc báo được vì đó là số lượng từ phổ dụng. Còn muốn cao thủ hơn thì bạn phải luyện thêm nhiều. Kanji nó bắt nguồn từ Trung Quốc nên có rất nhiều từ mà ngay thậm chí người Nhật cũng bó tay luôn! Mình là người nước ngoài nên luyện được chừng nào thì cứ luyện thôi! Cố gắng lên! Có công mài sắt có ngày thành dao găm! He he","can_remove":false,"created_time":"2014-04-13T07:31:13+0000","like_count":2,"user_likes":false},"850644438285568":{"id":"850644438285568","from":{"id":"100005219074602","name":"Minh Mộng Mơ"},"message":":)) Kanji là từ nói và đọc của ng` Nhật phải k A","can_remove":false,"created_time":"2014-04-13T07:32:00+0000","like_count":0,"user_likes":false},"850644768285535":{"id":"850644768285535","from":{"id":"100003181743412","name":"Pham Kha"},"message":"Kanji là mặt chữ tquoc.cach đọc của nhật bản","can_remove":false,"created_time":"2014-04-13T07:33:18+0000","like_count":0,"user_likes":false},"850644851618860":{"id":"850644851618860","from":{"id":"100003181743412","name":"Pham Kha"},"message":"Giống như đi mượn ấy","can_remove":false,"created_time":"2014-04-13T07:33:29+0000","like_count":0,"user_likes":false},"850645021618843":{"id":"850645021618843","from":{"id":"100005219074602","name":"Minh Mộng Mơ"},"message":"à :)) như vậy thì chữ TQ cách đọc của nhật sao e Tks","can_remove":false,"created_time":"2014-04-13T07:34:12+0000","like_count":0,"user_likes":false},"850645501618795":{"id":"850645501618795","from":{"id":"100000641166561","name":"Vu Nguyen"},"message":"Cái đặc điểm của ngôn ngữ Nhật là sự hỗn hợp của ba anh chàng Hiragana, Katakana và Kanji. Xuất phát từ người Tàu họ mò sang Triều Tiên rồi lần lên Nhật Bản nên có từ Kanji từ đó. Kanji thì nó là từ tượng hình, nghĩa là mượn hình ảnh để biểu diễn ý tưởng nên nó dễ hiểu hơn. Hiragana và Katakana thì người Nhật người ta sáng tạo ra từ chữ Kanji để ký âm cách đọc chữ Kanji.","can_remove":false,"created_time":"2014-04-13T07:35:33+0000","like_count":1,"user_likes":false},"850645988285413":{"id":"850645988285413","from":{"id":"100005219074602","name":"Minh Mộng Mơ"},"message":"à thế thì phải quyết tam mới được E thuộc được 63 chữ trong 2 bàng h` cố gắn tí nữa thôi là xong hết hihi E tks các A nhỉu lắm","can_remove":false,"created_time":"2014-04-13T07:36:37+0000","like_count":0,"user_likes":false},"850646204952058":{"id":"850646204952058","from":{"id":"100000641166561","name":"Vu Nguyen"},"message":"Ừ, cố gắng lên bạn. Cũng như bảng chữ cái tiếng Việt mình vậy, bạn cần phải nằm lòng 2 bảng chữ Hiragana và Katakana đó!","can_remove":false,"created_time":"2014-04-13T07:37:34+0000","like_count":0,"user_likes":false},"850646408285371":{"id":"850646408285371","from":{"id":"100005219074602","name":"Minh Mộng Mơ"},"message":"Dạ hihi A B C D như A I O U E","can_remove":false,"created_time":"2014-04-13T07:38:06+0000","like_count":0,"user_likes":false},"850646951618650":{"id":"850646951618650","from":{"id":"100000641166561","name":"Vu Nguyen"},"message":"Ừ, cứ nghĩ như vậy cũng tốt. Người VN mình không biết a ă ớ bờ cờ thì coi như không phải người Việt và không biết Hiragana và Katakana thì coi như chưa có học tiếng Nhật vậy thôi","can_remove":false,"created_time":"2014-04-13T07:39:19+0000","like_count":0,"user_likes":false},"850647068285305":{"id":"850647068285305","from":{"id":"100004013241352","name":"Ngat Hoang"},"message":"Toan hoi câu hay.bo tay","can_remove":false,"created_time":"2014-04-13T07:39:51+0000","like_count":1,"user_likes":false},"850647221618623":{"id":"850647221618623","from":{"id":"100005219074602","name":"Minh Mộng Mơ"},"message":":)) hihi ùm E chắc 2 năm nữa mới học trong mấy cái trường dạy tiếng nhật","can_remove":false,"created_time":"2014-04-13T07:40:38+0000","like_count":0,"user_likes":false},"850647314951947":{"id":"850647314951947","from":{"id":"100005219074602","name":"Minh Mộng Mơ"},"message":"E mới lớp 10 à","can_remove":false,"created_time":"2014-04-13T07:41:07+0000","like_count":0,"user_likes":false},"850647584951920":{"id":"850647584951920","from":{"id":"100003181743412","name":"Pham Kha"},"message":"Vãi.vậy 2nam tu học ở nhà chắc cũng đủ để sang đây gtiep cơ bản","can_remove":false,"created_time":"2014-04-13T07:42:00+0000","like_count":0,"user_likes":false},"850647644951914":{"id":"850647644951914","from":{"id":"100000641166561","name":"Vu Nguyen"},"message":"Không sao đâu em! Có sự yêu thích là được thôi. Có tinh thần học tập là tốt rồi! Cố gắng lên. Vạn sự khởi đầu nan.","can_remove":false,"created_time":"2014-04-13T07:42:22+0000","like_count":1,"user_likes":false},"850647801618565":{"id":"850647801618565","from":{"id":"100003181743412","name":"Pham Kha"},"message":"Đi trk cứ trộm cắp giờ ra đường gặp công an là bị nó hỏi.","can_remove":false,"created_time":"2014-04-13T07:42:34+0000","like_count":0,"user_likes":false},"850647878285224":{"id":"850647878285224","from":{"id":"100005219074602","name":"Minh Mộng Mơ"},"message":"Vạn sự khỡi đầu nan Gian nan bắt đuầ nãn @@","can_remove":false,"created_time":"2014-04-13T07:42:56+0000","like_count":0,"user_likes":false},"850647951618550":{"id":"850647951618550","from":{"id":"100005219074602","name":"Minh Mộng Mơ"},"message":"E thì học thì k lo tại e có  1 ước mơ bên Nhật mà","can_remove":false,"created_time":"2014-04-13T07:43:14+0000","like_count":0,"user_likes":false},"850648088285203":{"id":"850648088285203","from":{"id":"100005219074602","name":"Minh Mộng Mơ"},"message":"Ước mơ được gặp Gouriki Ayame bên nhật bản :)) Arigatoo các a chị đã giúp E hi hi","can_remove":false,"created_time":"2014-04-13T07:44:06+0000","like_count":0,"user_likes":false},"850648418285170":{"id":"850648418285170","from":{"id":"100000641166561","name":"Vu Nguyen"},"message":"Quan trọng là có ước mơ và đi đôi vơi ước mơ là biến nó thành hiện thực bạn! Hoan nghênh tinh thần học tập của bạn! Cố gắng lên vì tương lai và gia đình bạn nhé! Cố gắng học tập  thật nhiều ngôn ngữ Nhật trước khi sang Nhật để sang đây khỏi bỡ ngỡ và nhớ là đừng có bắt chước các sempai đi ăn trộm ăn cắp hay đá vé tàu,... khi sang Nhật để mất mặt cộng đồng Việt mình nhé!","can_remove":false,"created_time":"2014-04-13T07:45:32+0000","like_count":3,"user_likes":false},"850648931618452":{"id":"850648931618452","from":{"id":"100005219074602","name":"Minh Mộng Mơ"},"message":"hihi Dạ mà A Vu Nguyen A đang ở Nhật hả","can_remove":false,"created_time":"2014-04-13T07:47:20+0000","like_count":0,"user_likes":false},"850649541618391":{"id":"850649541618391","from":{"id":"100003181743412","name":"Pham Kha"},"message":"Sempai đi trk vs gần đây bị bắt mấy ng.chỉ làm khó những người đi sau.cố gắng học thật tốt đi sang n sẽ dễ hơn","can_remove":false,"created_time":"2014-04-13T07:49:14+0000","like_count":0,"user_likes":false},"850649984951680":{"id":"850649984951680","from":{"id":"100005219074602","name":"Minh Mộng Mơ"},"message":"Đâu E pk mà A :) E cũng cám ơn A","can_remove":false,"created_time":"2014-04-13T07:50:44+0000","like_count":0,"user_likes":false},"850650051618340":{"id":"850650051618340","from":{"id":"100005219074602","name":"Minh Mộng Mơ"},"message":"k Có gì phải nóng đâu A à E xl vì k đọc kỉ","can_remove":false,"created_time":"2014-04-13T07:50:55+0000","like_count":0,"user_likes":false},"850659481617397":{"id":"850659481617397","from":{"id":"100005744975477","name":"Tuyết Mùa Hè"},"message":"giống như kiểu hỏi có gạo rùi có nhất thiết phải cần nước ko nhỉ","can_remove":false,"created_time":"2014-04-13T08:23:36+0000","like_count":0,"user_likes":false},"850670451616300":{"id":"850670451616300","from":{"id":"100005219074602","name":"Minh Mộng Mơ"},"message":"hi hi thui  k sao đâu bỏ qua đi mình cần khiêm tốn chứ họ nói bạn k pk trường âm thì kệ họ :)","can_remove":false,"created_time":"2014-04-13T08:53:44+0000","like_count":0,"user_likes":false},"850670501616295":{"id":"850670501616295","from":{"id":"100005219074602","name":"Minh Mộng Mơ"},"message":"mình biết mà nhịn nhau tí k sao đâu","can_remove":false,"created_time":"2014-04-13T08:53:53+0000","like_count":1,"user_likes":false},"850670574949621":{"id":"850670574949621","from":{"id":"100005219074602","name":"Minh Mộng Mơ"},"message":"qua Nhật đụng cái họ nói K pk tiếng nhật cái gây 1 vè về VN nữa khổ thân đó","can_remove":false,"created_time":"2014-04-13T08:54:09+0000","like_count":0,"user_likes":false},"850686638281348":{"id":"850686638281348","from":{"id":"100004178466278","name":"Thu Tồ Đông Anh"},"message":"Quá cần ý chứ. H mới học 2 bảng đã lười thỳ sau này liệu có học nổi kanji????","can_remove":false,"created_time":"2014-04-13T09:50:03+0000","like_count":2,"user_likes":false},"850686781614667":{"id":"850686781614667","from":{"id":"100004178466278","name":"Thu Tồ Đông Anh"},"message":"Quá cần ý chứ. H mới học 2 bảng đã lười thỳ sau này liệu có học nổi kanji????","can_remove":false,"created_time":"2014-04-13T09:50:33+0000","like_count":1,"user_likes":false},"850687078281304":{"id":"850687078281304","from":{"id":"100004178466278","name":"Thu Tồ Đông Anh"},"message":"Quá cần ý chứ. H mới học 2 bảng đã lười thỳ sau này liệu có học nổi kanji????","can_remove":false,"created_time":"2014-04-13T09:51:34+0000","like_count":1,"user_likes":false},"850687428281269":{"id":"850687428281269","from":{"id":"100004178466278","name":"Thu Tồ Đông Anh"},"message":"Quá cần ý chứ. H mới học 2 bảng đã lười thỳ sau này liệu có học nổi kanji????","can_remove":false,"created_time":"2014-04-13T09:52:35+0000","like_count":1,"user_likes":false},"850710594945619":{"id":"850710594945619","from":{"id":"100005219074602","name":"Minh Mộng Mơ"},"message":"Ùm","can_remove":false,"created_time":"2014-04-13T10:55:40+0000","like_count":0,"user_likes":false},"850710918278920":{"id":"850710918278920","from":{"id":"100005219074602","name":"Minh Mộng Mơ"},"message":"h` sẽ cố gắn học :)","can_remove":false,"created_time":"2014-04-13T10:56:21+0000","like_count":0,"user_likes":false},"850738344942844":{"id":"850738344942844","from":{"id":"100005219074602","name":"Minh Mộng Mơ"},"message":"học sắp thành công x2 bảng :) nhưng chưa thành thạo hết tất cả  những từ còn vấp vấp khi  viết còn phải snghi? ch như cháo mới như cơm thui :))","can_remove":false,"created_time":"2014-04-13T12:13:59+0000","like_count":0,"user_likes":false}},"paging":{"cursors":{"after":"ODUwNjM5NTE0OTUyNzI3","before":"ODUwNjM5NTE0OTUyNzI3"},"next":"https://graph.facebook.com/229244010425617_850639081619437/comments?limit=1&summary=1&after=ODUwNjM5NTE0OTUyNzI3"},"summary":{"order":"chronological","total_count":56}}}