{"id":"229244010425617_850767164939962","type":"status","from":{"id":"100008064990803","name":"Sakutara Sakutara"},"message":"Làm ơn cho em hỏi!em bị rối loạn sắc giác,mắt 9/10.liệu có thể đi theo chương trình tu nghiệp sinh nhật bản không ạ?e đang làm hồ sơ theo hướng dẫn của TMS HR.trong quá trình làm hồ sơ,em biết được tin sở lao động thương binh xã hội.Đang có nhu cầu đào tạo, hướng dẫn lao động có mong muốn tu nghiệp sinh nhật bản.Em tới điạ chỉ 114 trần phú,hà đông,hà nội\"trung tâm giới thiệu việc làm\"tìm hiểu về chương trình tu nghiệp sinh.sau khi được tư vấn,em nắm được 1 số thông tin như:đi theo chương trình này dẻ hơn rất nhiều,nhưng em bị rối loạn sắc giác nên không đi được.\nTheo mọi người em phải làm sao ạ?TMS HR nói rằng sức khoẻ em đạt tiêu chuẩn,nhưng phụ thuộc đơn hàng.114 TRẦN PHÚ nói bị rối  loạn sắc giác không đi được.\nRất mong mọi người tư vấn cho em!em cam ơn!","created_time":"2014-04-13T13:22:09+0000","updated_time":"2014-04-13T14:54:27+0000","likes":{"data":{"100008070511514":{"id":"100008070511514","name":"PépSi Ứ Nâng Ly"},"100007903567494":{"id":"100007903567494","name":"ベトナムの ビュイ"},"100006803468897":{"id":"100006803468897","name":"Maria Maria"},"100008064990803":{"id":"100008064990803","name":"Sakutara Sakutara"}},"paging":{"cursors":{"after":"MTAwMDA4MDcwNTExNTE0","before":"MTAwMDA4MDcwNTExNTE0"},"next":"https://graph.facebook.com/229244010425617_850767164939962/likes?limit=1&summary=1&after=MTAwMDA4MDcwNTExNTE0"},"summary":{"total_count":4}},"comments":{"data":[{"id":"850769348273077","from":{"id":"100005219074602","name":"Minh Mộng Mơ"},"message":"La' cai' gi` mat' 9 / 10 tui 7/ 10 co sao dau ?","can_remove":false,"created_time":"2014-04-13T13:27:08+0000","like_count":0,"user_likes":false}],"paging":{"cursors":{"after":"ODUwNzY5MzQ4MjczMDc3","before":"ODUwNzY5MzQ4MjczMDc3"},"next":"https://graph.facebook.com/229244010425617_850767164939962/comments?limit=1&summary=1&after=ODUwNzY5MzQ4MjczMDc3"},"summary":{"order":"chronological","total_count":8}}}