{"id":"229244010425617_850724398277572","type":"status","from":{"id":"100003921292873","name":"Bá Long"},"message":"anh chị ơi. ai có file pdf từ vựng thường dùng trong cuộc sống không cho em với ạ","created_time":"2014-04-13T11:34:59+0000","updated_time":"2014-04-13T17:33:05+0000","likes":{"data":{"1841930165":{"id":"1841930165","name":"Nguyen An"},"100001871027934":{"id":"100001871027934","name":"Hòa Vương"},"100001432462223":{"id":"100001432462223","name":"Truong Nguyen"},"100004463889537":{"id":"100004463889537","name":"Zibi Tuan Anh"}},"paging":{"cursors":{"after":"MTg0MTkzMDE2NQ==","before":"MTg0MTkzMDE2NQ=="},"next":"https://graph.facebook.com/229244010425617_850724398277572/likes?limit=1&summary=1&after=MTg0MTkzMDE2NQ%3D%3D"},"summary":{"total_count":4}},"comments":{"data":{"850726168277395":{"id":"850726168277395","from":{"id":"100003211776567","name":"Kụ Đính"},"message":"lại viết tắc chúc may mắng","can_remove":false,"created_time":"2014-04-13T11:40:06+0000","like_count":0,"user_likes":false},"850726708277341":{"id":"850726708277341","from":{"id":"100007963716784","name":"Ninh Thị Hường"},"message":"anh gửi tên mail của anh đi, em gửi cho","can_remove":false,"created_time":"2014-04-13T11:41:34+0000","like_count":2,"user_likes":false},"850727204943958":{"id":"850727204943958","from":{"id":"100006617707180","name":"Đức Thanh"},"message":"Cho mình xin nữa được k","can_remove":false,"created_time":"2014-04-13T11:43:04+0000","like_count":0,"user_likes":false},"850727328277279":{"id":"850727328277279","from":{"id":"100003921292873","name":"Bá Long"},"message":"hailuatb123@gmail.com. domo arigato gozaimashita","can_remove":false,"created_time":"2014-04-13T11:43:37+0000","like_count":0,"user_likes":false},"850730924943586":{"id":"850730924943586","from":{"id":"100004025807179","name":"Khoảng Lặng"},"message":"gửi mình nữa  b: d7ltcdt@gmail.com .tks b na","can_remove":false,"created_time":"2014-04-13T11:53:56+0000","like_count":1,"user_likes":false},"850733044943374":{"id":"850733044943374","from":{"id":"100004379524300","name":"Kỹ Sư Nghèo"},"message":"Mình với: tndoyhh@gmail.com","can_remove":false,"created_time":"2014-04-13T12:00:16+0000","like_count":1,"user_likes":false},"850733608276651":{"id":"850733608276651","from":{"id":"100003211776567","name":"Kụ Đính"},"message":"tớ nữa nè.tinhyeulacatbui_phuicailabay@yahoo.com.vn","can_remove":false,"created_time":"2014-04-13T12:01:46+0000","like_count":0,"user_likes":false},"850733651609980":{"id":"850733651609980","from":{"id":"100001016429049","name":"Huong Le"},"message":"được thì share cho mình 1 bản luôn với thuhuong.tk01@gmail.com","can_remove":false,"created_time":"2014-04-13T12:01:54+0000","like_count":0,"user_likes":false},"850739024942776":{"id":"850739024942776","from":{"id":"100001727253941","name":"Peconpe Pe"},"message":"à há... e xin 1 vé nha peconpe92@gmail.com :D arigatougozaimasu Ninh Thị Hường","message_tags":[{"id":"100007963716784","name":"Ninh Thị Hường","type":"user","offset":64,"length":14}],"can_remove":false,"created_time":"2014-04-13T12:15:28+0000","like_count":0,"user_likes":false},"850739768276035":{"id":"850739768276035","from":{"id":"100007039389375","name":"Hades Lê"},"message":"Cho mình xin 1 suất nữa nha. Thank c nhiều.  Gmail la anhnangbanmai878@gmail.com","can_remove":false,"created_time":"2014-04-13T12:17:47+0000","like_count":0,"user_likes":false},"850742021609143":{"id":"850742021609143","from":{"id":"100002488031743","name":"Đoàn Văn Hải"},"message":"em xin 1 suất nữa em cảm ơn nhiều doanvanhai861990@gmail.com","can_remove":false,"created_time":"2014-04-13T12:24:37+0000","like_count":0,"user_likes":false},"850746714942007":{"id":"850746714942007","from":{"id":"100005885953492","name":"Minh Bui"},"message":"vậy cho mình xin một bản nhé:minhhpad@gmail.com","can_remove":false,"created_time":"2014-04-13T12:35:50+0000","like_count":0,"user_likes":false},"850750561608289":{"id":"850750561608289","from":{"id":"100002907524963","name":"Tuyết Yêu Thương"},"message":"Cho e nữa nhé :) letuyet1095@gmail.com arigatou :)","can_remove":false,"created_time":"2014-04-13T12:44:59+0000","like_count":0,"user_likes":false},"850768848273127":{"id":"850768848273127","from":{"id":"100007155522344","name":"Nghia Le"},"message":"e kug mun","can_remove":false,"created_time":"2014-04-13T13:26:03+0000","like_count":0,"user_likes":false},"850779278272084":{"id":"850779278272084","from":{"id":"100001114549932","name":"Bui Thanh Hung"},"message":"Cho mình 1 bản với bạn ơi! bthung2008@yahoo.com","can_remove":false,"created_time":"2014-04-13T13:50:41+0000","like_count":0,"user_likes":false},"850784558271556":{"id":"850784558271556","from":{"id":"100003714451753","name":"Dom Lee"},"message":"cho mình xin một bản với nhé anhhoa104@gmail.com arigatou","can_remove":false,"created_time":"2014-04-13T14:01:22+0000","like_count":0,"user_likes":false},"850790718270940":{"id":"850790718270940","from":{"id":"100001629363328","name":"Le Bao Hoang"},"message":"cho to xin mot ban voi nhe lebaohoangtia@gmail.com. To cam on","can_remove":false,"created_time":"2014-04-13T14:15:02+0000","like_count":0,"user_likes":false},"850795951603750":{"id":"850795951603750","from":{"id":"100001443373636","name":"Hoa Nguyen Huu"},"message":"cho anh xin một bản với nhh.dsi@gmail.com  Thank you.","can_remove":false,"created_time":"2014-04-13T14:24:24+0000","like_count":0,"user_likes":false},"850898598260152":{"id":"850898598260152","from":{"id":"100004702509437","name":"Đỗ Duy"},"message":"Bạn cho mình xin 1 bản eng.dv.duy@gmail.com","can_remove":false,"created_time":"2014-04-13T17:33:05+0000","like_count":0,"user_likes":false}},"paging":{"cursors":{"after":"ODUwNzI2MTY4Mjc3Mzk1","before":"ODUwNzI2MTY4Mjc3Mzk1"},"next":"https://graph.facebook.com/229244010425617_850724398277572/comments?limit=1&summary=1&after=ODUwNzI2MTY4Mjc3Mzk1"},"summary":{"order":"chronological","total_count":20}}}