{"id":"229244010425617_850779401605405","type":"video","object_id":"726722454033041","picture":"https://fbcdn-vthumb-a.akamaihd.net/hvthumb-ak-prn1/t15.0-10/1976477_726722940699659_726722454033041_5788_406_t.jpg","link":"https://www.facebook.com/photo.php?v=726722454033041","source":"https://fbcdn-video-a.akamaihd.net/hvideo-ak-prn1/v/t42.1790-2/1606154_726722914032995_1730949686_n.mp4?oh=a66b119a4fb0605ef27c79f7ccd9d949&oe=534FE649&__gda__=1397763672_8b54e7c83f5f316d3729256b34101253","from":{"id":"100005648859259","name":"Phương Tokyo"},"message":"Là thế đó, cuộc  sống ở Nhật mà thoải mái như m.ng ở Việt Nam nghĩ ra thì đã ko có chuyện càng ngày càng xảy ra như thực trạng tạo thành hệ thống như này.","created_time":"2014-04-13T13:51:01+0000","updated_time":"2014-04-14T14:59:15+0000","likes":{"data":{"100004456541864":{"id":"100004456541864","name":"Nha Gia"},"100004057374771":{"id":"100004057374771","name":"Sao Bang Vo Tinh"},"100004445826984":{"id":"100004445826984","name":"Ong Noi Viet"},"100004350698536":{"id":"100004350698536","name":"Daothuy Nga"},"100006605200153":{"id":"100006605200153","name":"Đức Dùng"},"100000500260636":{"id":"100000500260636","name":"Lưu Nguyễn Thảo Tiên"},"100004797491054":{"id":"100004797491054","name":"Kiên SeVen"},"100003753802872":{"id":"100003753802872","name":"Ryo Lynk"},"100001222113521":{"id":"100001222113521","name":"Tạ Thu Hường"},"100003666946281":{"id":"100003666946281","name":"Tạ Ngọc Thắng"},"100002330153405":{"id":"100002330153405","name":"Lê Minh Cường"},"100006735010872":{"id":"100006735010872","name":"Dao Van Hiep"},"100007843684593":{"id":"100007843684593","name":"Thang Tran"},"100003069246142":{"id":"100003069246142","name":"Hồng Trịnh"},"100006263888044":{"id":"100006263888044","name":"Hoàng Oanh"},"100007855782672":{"id":"100007855782672","name":"Dương Tuấn"},"100003541155273":{"id":"100003541155273","name":"ɞ Lâm Ct ʚ"},"100007996688840":{"id":"100007996688840","name":"Dũng Dũng"},"100005196780824":{"id":"100005196780824","name":"사랑해요"},"100006835448514":{"id":"100006835448514","name":"Henry Nguyen"},"100005327112379":{"id":"100005327112379","name":"Guongcuoideem Dk Hanhphuk"},"100002047631241":{"id":"100002047631241","name":"Dontask Nguyễn"},"100003287293423":{"id":"100003287293423","name":"Yêu Lại Từ Đầu"},"100003729983318":{"id":"100003729983318","name":"Ljnhanh Jjnla"},"1155911306":{"id":"1155911306","name":"Lương Quang Huy"},"623733188":{"id":"623733188","name":"Bui Hung Manh"},"100002912059161":{"id":"100002912059161","name":"Chí Hoàng Anh"},"100002279308793":{"id":"100002279308793","name":"Tùng Tử Tế"},"100000572010533":{"id":"100000572010533","name":"Thao Vo"},"100004536125153":{"id":"100004536125153","name":"Hoàng Đàn"},"100004750471215":{"id":"100004750471215","name":"Alacuop Alacuop"},"100002205448646":{"id":"100002205448646","name":"Dung Tri"},"100007793202158":{"id":"100007793202158","name":"Tien Real"}},"paging":{"cursors":{"after":"MTAwMDA0NDU2NTQxODY0","before":"MTAwMDA0NDU2NTQxODY0"},"next":"https://graph.facebook.com/229244010425617_850779401605405/likes?limit=1&summary=1&after=MTAwMDA0NDU2NTQxODY0"},"summary":{"total_count":33}},"comments":{"data":{"850783751604970":{"id":"850783751604970","from":{"id":"100002205448646","name":"Dung Tri"},"message":"Vấn đề ở chỗ họ không cố gắng lao động tự thay đổi mình thôi, còn cuộc sống khó khăn thì ở VN hay NB đều vậy cả.","can_remove":false,"created_time":"2014-04-13T14:00:38+0000","like_count":0,"user_likes":false},"850788058271206":{"id":"850788058271206","from":{"id":"100001754136107","name":"Nguyễn Tuấn Vũ"},"message":"Mình xoá comment của Bé Bi và Alacuop vì viết tiếng việt ko dấu nhé","can_remove":false,"created_time":"2014-04-13T14:08:40+0000","like_count":0,"user_likes":false},"850802031603142":{"id":"850802031603142","from":{"id":"100004750471215","name":"Alacuop Alacuop"},"message":"Kì z..","can_remove":false,"created_time":"2014-04-13T14:33:49+0000","like_count":0,"user_likes":false},"850802738269738":{"id":"850802738269738","from":{"id":"100004750471215","name":"Alacuop Alacuop"},"message":"Ngùöi viêt hai ngùöi viêt","can_remove":false,"created_time":"2014-04-13T14:35:35+0000","like_count":0,"user_likes":false},"850811614935517":{"id":"850811614935517","from":{"id":"100007055220627","name":"Khoảnh Khắc"},"message":"Bạn xóa luôn cái bài này đi....lần này nưã là đăng 5 lần rùi","can_remove":false,"created_time":"2014-04-13T14:53:27+0000","like_count":0,"user_likes":false},"850824401600905":{"id":"850824401600905","from":{"id":"100004561603300","name":"Kim Tuấn Kute"},"message":"Toàn là nhung nguoi thê nhi","can_remove":false,"created_time":"2014-04-13T15:10:56+0000","like_count":0,"user_likes":false},"850841291599216":{"id":"850841291599216","from":{"id":"100003616116150","name":"Nguyễn Phúc Tuấn"},"message":"おめでとう。。べとなむへかえってください。","can_remove":false,"created_time":"2014-04-13T15:44:39+0000","like_count":0,"user_likes":false},"850880798261932":{"id":"850880798261932","from":{"id":"100004394648327","name":"Kevin Ti Con"},"message":"Vl","can_remove":false,"created_time":"2014-04-13T17:00:29+0000","like_count":0,"user_likes":false},"850924148257597":{"id":"850924148257597","from":{"id":"100005327112379","name":"Guongcuoideem Dk Hanhphuk"},"message":"Mình đã nói vs bạn rùi đó","can_remove":false,"created_time":"2014-04-13T18:35:24+0000","like_count":0,"user_likes":false},"851056671577678":{"id":"851056671577678","from":{"id":"100003729577643","name":"Mai Thanh Duy"},"message":"Mẹ người việt làm thế này toàn hại người việt thôi... Người đi trước toàn làm hại người đi sau thôi thế này thì người nhật càng ghét người việt hơn","can_remove":false,"created_time":"2014-04-14T00:26:11+0000","like_count":0,"user_likes":false},"851078878242124":{"id":"851078878242124","from":{"id":"746619078","name":"Nguyen Le"},"message":"Mình mới qua Nhật công tác 1 tuần, cũng tiếp xúc với các bạn du học sinh. Mình thấy cuộc sống bên Nhật chỉ khó khăn với những bạn ko chịu cố gắng, vốn tiếng Nhật ko có. Các bạn mà mình tiếp xúc đều đi học rồi làm đến 12h đêm. Vừa học vừa làm mặc dù cực nhưng các bạn ấy đều làm được. Chỉ vì một số bộ phận nhỏ lười nhác, thích hưởng mà ko chịu lao động nên thành ra như thế này.","can_remove":false,"created_time":"2014-04-14T01:37:14+0000","like_count":1,"user_likes":false},"851134728236539":{"id":"851134728236539","from":{"id":"100005003110756","name":"Tu-an Lee"},"message":"suy nghĩ đơn giản vậy,làm quá h thì nó đuổi về nước,ko đi làm nhiều thì ko đủ tiền ăn học.Những người đi da do đây phần lớn là họ hết visa rồi k xin đc việc để làm nên mới phải làm vậy,chứ bt b nghĩ họ muốn như vậy à.còn mấy người suốt ngày cứ bảo người khác làm xấu mặt bạn thì các bạn toàn là những người sĩ diện hão,bản thân đất nước VN đã là 1 nước nghèo lạc hậu r,nên chẳng có j phải ngượng những j người khác làm cả,các bạn cứ làm tốt việc của các bạn thì bố thằng nhật nào nó ghét","can_remove":false,"created_time":"2014-04-14T04:17:20+0000","like_count":1,"user_likes":false},"851231348226877":{"id":"851231348226877","from":{"id":"746619078","name":"Nguyen Le"},"message":"Tu-an Lee thế bạn ko có việc là bạn đi ăn cắp hả? Bản thân bạn ko thấy ngượng nhưng người khác thấy ngượng bạn ạ? Cái này ko có một chút nào gọi là sĩ diện hão bạn nhé! Cái này gọi là TỰ TRỌNG!","message_tags":[{"id":"100005003110756","name":"Tu-an Lee","type":"user","offset":0,"length":9}],"can_remove":false,"created_time":"2014-04-14T09:29:37+0000","like_count":0,"user_likes":false},"851369334879745":{"id":"851369334879745","from":{"id":"100005003110756","name":"Tu-an Lee"},"message":"ko ăn cắp thì cạp đất mà ăn ah.đơn giản chỉ là việc ai người đấy làm.họ làm thì họ chịu chẳng ảnh hưởng j đến nồi cơm của ai cả,TQ nó đông gấp 10 lần VN mà nó và nhật còn đang tranh chấp,Nhất nó ghét TQ,chưa có chỗ cho VN đâu,chắc bạn Nguyễn Lệ bị Nhật nó ghét sẵn rồi.h cứ đổ lỗi cho người khác.","can_remove":false,"created_time":"2014-04-14T14:59:15+0000","like_count":0,"user_likes":false}},"paging":{"cursors":{"after":"ODUwNzgzNzUxNjA0OTcw","before":"ODUwNzgzNzUxNjA0OTcw"},"next":"https://graph.facebook.com/229244010425617_850779401605405/comments?limit=1&summary=1&after=ODUwNzgzNzUxNjA0OTcw"},"summary":{"order":"chronological","total_count":14}}}