{"id":"229244010425617_850794568270555","type":"link","picture":"https://fbexternal-a.akamaihd.net/safe_image.php?d=AQCuVuuC_ryAa8wV&w=154&h=154&url=http%3A%2F%2Fyhoccongdong.com%2Fimages%2Fthongtin%2F6875-thongtin-cac-bai-tap-phuc-hoi-chuc-nang-vung-ham-mat-o-nguoi-lon-tuoi.jpg","link":"http://yhoccongdong.com/thongtin/cac-bai-tap-phuc-hoi-chuc-nang-vung-ham-mat-o-nguoi-lon-tuoi/","from":{"id":"100003933466469","name":"Phong Aki"},"message":"【Sức khỏe】 Nhật Bản là một trong những nước có thành phần dân số già trên thế giới. Làm thế nào để nhóm dân số này sống khỏe để tự chăm sóc mình và có thể tham gia vào các hoạt động xã hội khác là việc luôn được họ quan tâm. Xin giới thiệu cả nhà một số bài tập mà người lớn tuổi ở Nhật được các bác sĩ khuyên làm nhằm giúp họ ăn ngon miệng hơn, ít bị hít và sặc thức ăn (một trong những nguyên nhân dẫn đến bệnh phổi tắc nghẽn mãn tính)...Hi vọng những bài tập này cũng sẽ có ích cho các cụ ông, cụ bà ở quê nhà. ;)","created_time":"2014-04-13T14:21:20+0000","updated_time":"2014-04-13T23:40:39+0000","likes":{"data":{"100004450659927":{"id":"100004450659927","name":"Rubi Ninh"},"100000234091319":{"id":"100000234091319","name":"Chí Hiếu Lê Trần"},"100000511545548":{"id":"100000511545548","name":"Nguyễn Hữu Trí"},"1032467761":{"id":"1032467761","name":"Stefan Luu"},"100003762427351":{"id":"100003762427351","name":"Hiroshi Yasu Oki"},"100000045271667":{"id":"100000045271667","name":"Nam Thai Nguyen"},"100003683896765":{"id":"100003683896765","name":"Song La Phai Mo"},"100000225740249":{"id":"100000225740249","name":"Nguyễn Thị Hồi"},"100000206716927":{"id":"100000206716927","name":"Nga Kimdong"},"100001432462223":{"id":"100001432462223","name":"Truong Nguyen"},"100000205222755":{"id":"100000205222755","name":"Hong Nhung"},"1788906313":{"id":"1788906313","name":"Hien Hoang"},"100005801442456":{"id":"100005801442456","name":"An Nguyen"},"683204562":{"id":"683204562","name":"Hoang Mai"},"100001526631937":{"id":"100001526631937","name":"Tường Oanh Mineko"},"587147918":{"id":"587147918","name":"Keiichi Alberto Ezaki"},"100001416272263":{"id":"100001416272263","name":"Mai PB"},"1629517470":{"id":"1629517470","name":"Nguyen Thi Thanh Van"},"100002140370152":{"id":"100002140370152","name":"Van Chau"},"100003158558639":{"id":"100003158558639","name":"Lời Nói Gió Bay"},"100002137253818":{"id":"100002137253818","name":"Anh Khoa"},"100004463889537":{"id":"100004463889537","name":"Zibi Tuan Anh"},"1632732527":{"id":"1632732527","name":"John Kojiro Moriwaka"},"100000747635624":{"id":"100000747635624","name":"Nguyễn Xuân Đại"},"100003939562107":{"id":"100003939562107","name":"Bùi QuyềnGtnd"},"100007779160957":{"id":"100007779160957","name":"Nắng Ấm Xa Dần"},"100003913383051":{"id":"100003913383051","name":"Tho Tran"},"569263718":{"id":"569263718","name":"Phuong Thao Tran"},"100000359762118":{"id":"100000359762118","name":"Mi Tra"},"100000398157165":{"id":"100000398157165","name":"Sống Còn"},"1146680551":{"id":"1146680551","name":"優しい なぁ"},"100000022163023":{"id":"100000022163023","name":"Kafe Ore"},"1018045827":{"id":"1018045827","name":"Trang Nguyen"},"100007987333915":{"id":"100007987333915","name":"Đoàn Đại"},"100000372956259":{"id":"100000372956259","name":"Huyen Trang"},"100000212958966":{"id":"100000212958966","name":"YaNa Vo"},"620066722":{"id":"620066722","name":"Dong Khac Thai"},"100000500260636":{"id":"100000500260636","name":"Lưu Nguyễn Thảo Tiên"},"100000647527569":{"id":"100000647527569","name":"Binh Nguyen"},"100001443373636":{"id":"100001443373636","name":"Hoa Nguyen Huu"}},"paging":{"cursors":{"after":"MTAwMDA0NDUwNjU5OTI3","before":"MTAwMDA0NDUwNjU5OTI3"},"next":"https://graph.facebook.com/229244010425617_850794568270555/likes?limit=1&summary=1&after=MTAwMDA0NDUwNjU5OTI3"},"summary":{"total_count":40}},"comments":{"data":{"850798108270201":{"id":"850798108270201","from":{"id":"620066722","name":"Dong Khac Thai"},"message":"Cảm ơn a Phong đã chia sẻ bài về sức khỏe. Trang hiện không có mảng thông tin về sức khỏe. Để mọi người có  thể lao động và học tập hiệu quả thì sức khỏe là quan trọng nhất.","can_remove":false,"created_time":"2014-04-13T14:27:08+0000","like_count":5,"user_likes":false},"850801048269907":{"id":"850801048269907","from":{"id":"1146680551","name":"優しい なぁ"},"message":"Cảm ơn a Phong vì bài viết hữu ích. \nThấy hiệu quả nhất là phần bài tập cho lưỡi  :3","can_remove":false,"created_time":"2014-04-13T14:31:29+0000","like_count":4,"user_likes":false},"850801508269861":{"id":"850801508269861","from":{"id":"620066722","name":"Dong Khac Thai"},"message":"優しい なぁ: chú An tập lưỡi sớm vậy, bài cho các cụ mà:)","message_tags":[{"id":"1146680551","name":"優しい なぁ","type":"user","offset":0,"length":6}],"can_remove":false,"created_time":"2014-04-13T14:32:40+0000","like_count":0,"user_likes":false},"850802191603126":{"id":"850802191603126","from":{"id":"1146680551","name":"優しい なぁ"},"message":"Bài tập này dành cho mọi lứa tuổi đấy :3","can_remove":false,"created_time":"2014-04-13T14:34:13+0000","like_count":1,"user_likes":false},"850806261602719":{"id":"850806261602719","from":{"id":"569263718","name":"Phuong Thao Tran"},"message":"bài tập cho lưỡi không có bước gập lưỡi nhỉ, ^^","can_remove":false,"created_time":"2014-04-13T14:42:51+0000","like_count":0,"user_likes":false},"850806448269367":{"id":"850806448269367","from":{"id":"1146680551","name":"優しい なぁ"},"message":"Ối chị cũng quan tâm bài tập đó à","can_remove":false,"created_time":"2014-04-13T14:43:22+0000","like_count":0,"user_likes":false},"850807034935975":{"id":"850807034935975","from":{"id":"569263718","name":"Phuong Thao Tran"},"message":"mọi lứa tuổi và không phân biệt giới tính mà, ^_^","can_remove":false,"created_time":"2014-04-13T14:44:39+0000","like_count":1,"user_likes":false},"851040404912638":{"id":"851040404912638","from":{"id":"100003933466469","name":"Phong Aki"},"message":"Thật ra còn mội bài tập nữa giành cho lưỡi, nhưng rất tiếc môn tuyệt kĩ đó không truyền được cho người ngoài mà chỉ giành cho nha sĩ. Mong các bạn thông cảm. Món đó là: \"nhổ răng bằng lưỡi\". :D","can_remove":false,"created_time":"2014-04-13T23:40:39+0000","like_count":3,"user_likes":false}},"paging":{"cursors":{"after":"ODUwNzk4MTA4MjcwMjAx","before":"ODUwNzk4MTA4MjcwMjAx"},"next":"https://graph.facebook.com/229244010425617_850794568270555/comments?limit=1&summary=1&after=ODUwNzk4MTA4MjcwMjAx"},"summary":{"order":"chronological","total_count":8}}}