{"id":"229244010425617_850705454946133","type":"photo","object_id":"10152079044301723","picture":"https://fbcdn-photos-h-a.akamaihd.net/hphotos-ak-ash3/t1.0-0/10155035_10152079044301723_8301055714183311412_s.jpg","link":"https://www.facebook.com/photo.php?fbid=10152079044301723&set=gm.850705454946133&type=1&relevant_count=1","from":{"id":"620066722","name":"Dong Khac Thai"},"message":"【Cuộc sống ở Nhật】Bệnh ủ rũ tối chủ nhật: sazaesan shoukougun\n\nTới ngày nghỉ cuối tuần thì ai cũng vui nhưng vào tối chủ nhật thì chắc hầu hết mọi người đều có cảm giác ủ rũ như\"Trời! Đã là tối chủ nhật rùi\" hoặc \"Mai lại phải đi làm rùi\"\n\nCó lẽ bạn đã bị bệnh \"Sazae san\".\n\nKhi nghe tên bệnh này chắc nhiều người tự hỏi \"Không biết Sazae là ai nhỉ\".\n\n\"Sazae san\" là phim hoạt hình được chiếu trên kênh Fuji từ 18:30 tối chủ nhật. Khi xem xong phim này thì sẽ cảm giác chán như \"Vậy là ngày nghỉ đã hết \"\n\nĐể tránh khỏi bệnh này thì phải làm sao nhỉ? \n\nVào cuối tuần cần cân bằng giữa thời gian nghỉ ngơi và thời gian cho việc muốn làm, và khuyến khích tránh việc ngủ trễ.\n\n【日本での生活】サザエさん症候群(しょうこうぐん)\n\n週末は楽しいけど、日曜日の夜は「もう日曜日の夜だ！」「明日また仕事だ」という憂鬱の気分になった経験は、誰にでもあると思う。\n\nやはり「サザエさん症候群」という病気になるかも。\n\nこの病気を聞き、「サザエさんは誰」という質問を思い浮かべる人が多いと思う。「サザエさん」はフジテレビで日曜日18:30に放送されるアニメ。このアニメを見終わると、「休みはもう終わりだ！」と嫌な感じになる。\n\nどうすれば、この病気を解消できるでしょうか？\n\n週末に休みの時間とやりたいことをするための時間をバランスよく分け、遅寝を控えることがお薦め。","created_time":"2014-04-13T10:41:40+0000","updated_time":"2014-04-13T16:14:40+0000","likes":{"data":{"1252077502":{"id":"1252077502","name":"Hoang Loan"},"100001995633843":{"id":"100001995633843","name":"Yasunobu Toda"},"100003929334541":{"id":"100003929334541","name":"Nguyễn Trung"},"100004294620502":{"id":"100004294620502","name":"Miu Nguyen"},"100000098177754":{"id":"100000098177754","name":"Quái Vật"},"100001526631937":{"id":"100001526631937","name":"Tường Oanh Mineko"},"100000067699837":{"id":"100000067699837","name":"Nguyễn Hải Phong"},"100001324867342":{"id":"100001324867342","name":"Lee Dzung"},"100002427715884":{"id":"100002427715884","name":"Hell Angel"},"1146680551":{"id":"1146680551","name":"優しい なぁ"},"1717530880":{"id":"1717530880","name":"Triệu Việt Cường"},"100003528526137":{"id":"100003528526137","name":"Nobu Mashiko"},"100004601049837":{"id":"100004601049837","name":"Hồng Lê"},"100000970923167":{"id":"100000970923167","name":"Nhóc Tèo"},"100001432462223":{"id":"100001432462223","name":"Truong Nguyen"},"711491571":{"id":"711491571","name":"Graziani Inaizarg"},"100000199780783":{"id":"100000199780783","name":"Nguyen Thu Hoai"},"100000381394367":{"id":"100000381394367","name":"Thành Nguyễn"},"100005024348771":{"id":"100005024348771","name":"Long Hoàng"},"100001336420260":{"id":"100001336420260","name":"Trường Phong"},"100003516815793":{"id":"100003516815793","name":"Hiển Trần"},"1271836124":{"id":"1271836124","name":"Thảo Diệu"},"100001502650608":{"id":"100001502650608","name":"Tien Vu"},"1593585564":{"id":"1593585564","name":"Nguyễn Hữu Cường"},"100003040551362":{"id":"100003040551362","name":"Hạnh Hoàng"},"100003690443543":{"id":"100003690443543","name":"Shitouji Sarami"},"100003124307460":{"id":"100003124307460","name":"Duc Giang"},"100003207764143":{"id":"100003207764143","name":"Anh Vũ Thái"},"1068482018":{"id":"1068482018","name":"Loan Le"},"100006436037655":{"id":"100006436037655","name":"Ngo Na"},"569263718":{"id":"569263718","name":"Phuong Thao Tran"},"100005495773832":{"id":"100005495773832","name":"Hiền Vũ"},"100004356254575":{"id":"100004356254575","name":"Co Be Xau Xi"}},"paging":{"cursors":{"after":"MTI1MjA3NzUwMg==","before":"MTI1MjA3NzUwMg=="},"next":"https://graph.facebook.com/229244010425617_850705454946133/likes?limit=1&summary=1&after=MTI1MjA3NzUwMg%3D%3D"},"summary":{"total_count":33}},"comments":{"data":{"850731231610222":{"id":"850731231610222","from":{"id":"100005080238445","name":"Yuki Kobayashi"},"message":"Chắc có lẽ ở nhật đa số người đã bị bệnh \"sazaesan\"  xem sazaesan xong rồi là lại thấy ưu sầu vì ngày mai lại bắt đầu phải đi làm ,đi học .mình cũng vậy =_=","can_remove":false,"created_time":"2014-04-13T11:55:08+0000","like_count":1,"user_likes":false},"850733151610030":{"id":"850733151610030","from":{"id":"620066722","name":"Dong Khac Thai"},"message":"MÌnh cũng bị bệnh này.","can_remove":false,"created_time":"2014-04-13T12:00:34+0000","like_count":0,"user_likes":false},"850745924942086":{"id":"850745924942086","from":{"id":"569263718","name":"Phuong Thao Tran"},"message":"mình bị suốt tuần, :)","can_remove":false,"created_time":"2014-04-13T12:33:30+0000","like_count":2,"user_likes":false},"850748334941845":{"id":"850748334941845","from":{"id":"569263718","name":"Phuong Thao Tran"},"message":"mai nhận lương hả Kona Yuki, ^^","message_tags":[{"id":"100000309415626","name":"Kona Yuki","type":"user","offset":18,"length":9}],"can_remove":false,"created_time":"2014-04-13T12:38:57+0000","like_count":0,"user_likes":false},"850748644941814":{"id":"850748644941814","from":{"id":"100000309415626","name":"Kona Yuki"},"message":"Oh, bị thấy comment rồi ạ ^^\nKhông chị, mai chồng đi công tác về :v","can_remove":false,"created_time":"2014-04-13T12:39:46+0000","like_count":0,"user_likes":false},"850749061608439":{"id":"850749061608439","from":{"id":"569263718","name":"Phuong Thao Tran"},"message":"sao la làng trên group trước 3 vạn thành viên thế, :D","can_remove":false,"created_time":"2014-04-13T12:40:40+0000","like_count":0,"user_likes":false},"850749518275060":{"id":"850749518275060","from":{"id":"100000309415626","name":"Kona Yuki"},"message":"Dạ tại em đang vui, với lại chồng có dạy là không được nói xạo :\">","can_remove":false,"created_time":"2014-04-13T12:41:45+0000","like_count":0,"user_likes":false},"850753678274644":{"id":"850753678274644","from":{"id":"1146680551","name":"優しい なぁ"},"message":"Dự báo là sẽ vắng mặt một thời gian đây :3","can_remove":false,"created_time":"2014-04-13T12:53:09+0000","like_count":1,"user_likes":false},"850755201607825":{"id":"850755201607825","from":{"id":"620066722","name":"Dong Khac Thai"},"message":"Kona Yuki: nghe lời chồng ha:) vậy tốt.","message_tags":[{"id":"100000309415626","name":"Kona Yuki","type":"user","offset":0,"length":9}],"can_remove":false,"created_time":"2014-04-13T12:56:45+0000","like_count":1,"user_likes":false},"850758118274200":{"id":"850758118274200","from":{"id":"620066722","name":"Dong Khac Thai"},"message":"優しい なぁ:so biết rõ vậy chú;)","message_tags":[{"id":"1146680551","name":"優しい なぁ","type":"user","offset":0,"length":6}],"can_remove":false,"created_time":"2014-04-13T13:03:15+0000","like_count":0,"user_likes":false},"850859991597346":{"id":"850859991597346","from":{"id":"100001526631937","name":"Tường Oanh Mineko"},"message":"em mắc bệnh ủ rũ này khá lâu trong thời gian gần đây","can_remove":false,"created_time":"2014-04-13T16:14:40+0000","like_count":2,"user_likes":false}},"paging":{"cursors":{"after":"ODUwNzMxMjMxNjEwMjIy","before":"ODUwNzMxMjMxNjEwMjIy"},"next":"https://graph.facebook.com/229244010425617_850705454946133/comments?limit=1&summary=1&after=ODUwNzMxMjMxNjEwMjIy"},"summary":{"order":"chronological","total_count":11}}}