{"id":"229244010425617_850899104926768","type":"status","from":{"id":"100000154183383","name":"Nguyễn Quang Minh"},"message":"có 1 điều mình phân vân, cái này chắc cũng nhiều người phân vân. đó là việc chuyển tiền mình tiết kiệm đc ở nhật về VN. Nếu chuyển tiền qua dịch vụ chuyển tiền, wa đơn giản, nhưng mất phí. có các nào để chuyển tiền kiểu như lập tài khoản ngân hàng nhật bản, có cả chi nhánh ở VN và Nhật để gửi tiền vô đó, gửi bao nhiêu cũng đc và về VN rút k mọi người. cũng như trong nc khi bố mẹ gửi tiền cho con thì nạp trực tiếp vào tài khoản của con để k mất phí ấy. mọi người vô tám chuyện này đi. quan trọng cho những ng đi làm, và cả những ng đi học nếu bố mẹ muốn chuyển tiền cho con","created_time":"2014-04-13T17:34:05+0000","updated_time":"2014-04-14T03:53:24+0000","likes":{"data":{"1018045827":{"id":"1018045827","name":"Trang Nguyen"},"100001603131231":{"id":"100001603131231","name":"ỶThiên ĐồLong Ký"},"100005891501510":{"id":"100005891501510","name":"Nhóc À Kim"},"100005207560951":{"id":"100005207560951","name":"Tong Van"},"100003287293423":{"id":"100003287293423","name":"Yêu Lại Từ Đầu"},"100005327112379":{"id":"100005327112379","name":"Guongcuoideem Dk Hanhphuk"},"100005623630071":{"id":"100005623630071","name":"Mèo Con Đanh Đá"},"100005334308748":{"id":"100005334308748","name":"Vu Chinh"},"100000572010533":{"id":"100000572010533","name":"Thao Vo"},"100001843391954":{"id":"100001843391954","name":"Lam Trung"},"100006520422672":{"id":"100006520422672","name":"Le Dung"},"100003179134270":{"id":"100003179134270","name":"Hoàng Mai"},"100003090738530":{"id":"100003090738530","name":"Ngô Thị Thanh Hường"},"100007480055384":{"id":"100007480055384","name":"Bùi Trung Dũng"}},"paging":{"cursors":{"after":"MTAxODA0NTgyNw==","before":"MTAxODA0NTgyNw=="},"next":"https://graph.facebook.com/229244010425617_850899104926768/likes?limit=1&summary=1&after=MTAxODA0NTgyNw%3D%3D"},"summary":{"total_count":14}},"comments":{"data":{"850899878260024":{"id":"850899878260024","from":{"id":"100007480055384","name":"Bùi Trung Dũng"},"message":":v lo xa quá Em à, từ từ. Mai bắt đầu học buổi đầu tiên à !","can_remove":false,"created_time":"2014-04-13T17:36:23+0000","like_count":1,"user_likes":false},"850900218259990":{"id":"850900218259990","from":{"id":"100000154183383","name":"Nguyễn Quang Minh"},"message":"k lo sang đó lo cũng mệt lắm ạ ^^ hỏi cho nhiều bạn mà a :v mai học a b c :v","can_remove":false,"created_time":"2014-04-13T17:37:16+0000","like_count":0,"user_likes":false},"850901194926559":{"id":"850901194926559","from":{"id":"100007480055384","name":"Bùi Trung Dũng"},"message":"uh :3 chắc háo hức đây, haha","can_remove":false,"created_time":"2014-04-13T17:40:21+0000","like_count":0,"user_likes":false},"850902228259789":{"id":"850902228259789","from":{"id":"100008033654317","name":"Nỗi Lòng Xa Xứ"},"message":"neu nhu ban muon nhu vay , ban bao o nha lam cho cai the viza roi gui sang ben nay ban dung tet ban co the gui tien ve ko can wa ai va ban cung co the nhận tien tu vn gui sang ko can wa ai","can_remove":false,"created_time":"2014-04-13T17:43:10+0000","like_count":0,"user_likes":false},"850903588259653":{"id":"850903588259653","from":{"id":"100000154183383","name":"Nguyễn Quang Minh"},"message":"cụ thể hơn về thẻ visa đi ạ  ^^ visa là thẻ tín dụng thì phải ?? e muốn cái thẻ của mình chỉ như cái sổ tiết kiệm di động để e có thể dễ dàng gửi và rút ở VN và Nhật Bản k mất phí (hoặc mất rất ít)","can_remove":false,"created_time":"2014-04-13T17:45:12+0000","like_count":0,"user_likes":false},"850904708259541":{"id":"850904708259541","from":{"id":"100000154183383","name":"Nguyễn Quang Minh"},"message":"Bùi Trung Dũng: cũng bth thôi ạ ^^ học tiếng anh vs tiếng pháp rồi, nói chung là công cụ thôi chứ e cũng k fai thích thú j ngoại ngữ :v","message_tags":[{"id":"100007480055384","name":"Bùi Trung Dũng","type":"user","offset":0,"length":14}],"can_remove":false,"created_time":"2014-04-13T17:47:14+0000","like_count":1,"user_likes":false},"850904778259534":{"id":"850904778259534","from":{"id":"100001784363025","name":"Hoa Nhật"},"message":"cái phí rút tiền, chuyển đổi ngoại tệ qua ngân hàng còn đắt hơn là bạn làm dịch vụ đó :) Nếu như phí ngân hàng mà rẻ thì đã ko phát sinh chợ đen. Vì sao, vì còn tiền bảo hiểm cho món tiền đó, còn làm dịch vụ bên ngoài thì phí bảo hiểm gần như ko có. Tin tưởng là chính. Cái j cũng vậy thôi. cũng như bạn đi học phải đóng học phí ấy mà :) Có những thứ bắt buộc phải tiết kiệm nhưng cũng có những cái muốn tiết kiệm mà ko thể","can_remove":false,"created_time":"2014-04-13T17:47:24+0000","like_count":0,"user_likes":false},"850905761592769":{"id":"850905761592769","from":{"id":"100004016335743","name":"Trần Khôi"},"message":"cái này thì có bạn ak.! mấy cái ngân hàng QT đoá.nhưng chủ yếu là dành cho doanh nghiep và giới đại gia thui. ! 😅","can_remove":false,"created_time":"2014-04-13T17:49:21+0000","like_count":0,"user_likes":false},"850905914926087":{"id":"850905914926087","from":{"id":"100000154183383","name":"Nguyễn Quang Minh"},"message":"e k nói cái phí chuyển đổi ngoại tệ ạ. e k biết ở nc ngoài thế nào, ở trong nc, giả sử e xài đông á bank thì e gửi tiền vào đó và rút ở ATM của đông á k mất tiền ạ. gửi ít thì k sao, chứ vài trăm triệu mà mất phí là k nhỏ đâu ạ (thu nhập ở nhật của mình thuộc diện nghèo mà, fai tiết kiệm ạ)","can_remove":false,"created_time":"2014-04-13T17:49:39+0000","like_count":0,"user_likes":false},"850906654926013":{"id":"850906654926013","from":{"id":"100001784363025","name":"Hoa Nhật"},"message":"Nhưng em phải hiểu là bên Nhật thì những ngân hàng Vn ko sang đó mà trồng cột cho em rút :)","can_remove":false,"created_time":"2014-04-13T17:51:06+0000","like_count":0,"user_likes":false},"850907578259254":{"id":"850907578259254","from":{"id":"100000154183383","name":"Nguyễn Quang Minh"},"message":"http://vietbao.vn/Kinh-te/Them-mot-chi-nhanh-ngan-hang-Nhat-Ban-tai-VN/10875908/87/ ý e  là lập tài khoản của ngân hàng nhật có chi nhánh tại VN, tức là toàn bộ giao dịch của e đều qua 1 ngân hàng, k qua bất cứ ngân hàng trung gian nào. dù có phí cũng sẽ rẻ nhất ạ","can_remove":false,"created_time":"2014-04-13T17:52:57+0000","like_count":0,"user_likes":false},"850907838259228":{"id":"850907838259228","from":{"id":"100001784363025","name":"Hoa Nhật"},"message":"nếu em biết có ngân hàng này rồi thì cứ xài thôi sao còn thắc mắc nhỉ ?","can_remove":false,"created_time":"2014-04-13T17:53:42+0000","like_count":0,"user_likes":false},"850908734925805":{"id":"850908734925805","from":{"id":"100000154183383","name":"Nguyễn Quang Minh"},"message":"cái này là e suy luận từ cách e xài ngân hàng VN ạ. Chứ ngân hàng nhật thì e chưa biết có xài cách này đc k. thấy nhiều bạn cần gửi tiền về cho gia đình mà mất phí, thấy sao sao ạ. e có thể lập 1 tài khoản ,2 thẻ ATM chính và phụ, để mình là chính, gửi tiền vào đó, ba mẹ chỉ việc ở bên VN rút ra, thế là kiều hối về nước với chi phí rẻ nhất. e nghĩ đây là mẹo thôi ạ","can_remove":false,"created_time":"2014-04-13T17:56:18+0000","like_count":0,"user_likes":false},"850908828259129":{"id":"850908828259129","from":{"id":"100004016335743","name":"Trần Khôi"},"message":"ngan hang UFJ chủ yếu là dành cho doanh nghiep của nhật hyhy","can_remove":false,"created_time":"2014-04-13T17:56:27+0000","like_count":1,"user_likes":false},"850909444925734":{"id":"850909444925734","from":{"id":"100001784363025","name":"Hoa Nhật"},"message":"Ngân hàng nc ngaoif vào Vn là để mở đường cho các doanh nghiệp đầu tư vào :) Còn dân đen, du học sinh ít tiền thì nên chấp nhận đi ^^.","can_remove":false,"created_time":"2014-04-13T17:57:53+0000","like_count":1,"user_likes":false},"850909554925723":{"id":"850909554925723","from":{"id":"100000154183383","name":"Nguyễn Quang Minh"},"message":"đừng đọc mấy cái đó ^^ cái đó là làm ăn lớn :v đó là cách chuyển tiền qua lại giữa 2 nc mà mất ít phí nhất đó ^^ còn mình chỉ dăm 3 trăm triệu tích góp ở bên nhật, gửi về đỡ đần ba mẹ hoặc ba mẹ đỡ đần mình :v","can_remove":false,"created_time":"2014-04-13T17:58:17+0000","like_count":0,"user_likes":false},"850911141592231":{"id":"850911141592231","from":{"id":"100000154183383","name":"Nguyễn Quang Minh"},"message":"nếu k fai ngân hàng nhật thì xài ANZ cũng đc, có ở cả 2 nc VN và Nhật ^^ có dịch vụ khách hàng cá nhân lun ^^ đỡ fai lo :v","can_remove":false,"created_time":"2014-04-13T18:02:43+0000","like_count":0,"user_likes":false},"850912078258804":{"id":"850912078258804","from":{"id":"100000154183383","name":"Nguyễn Quang Minh"},"message":"Hoa Nhật: càng ít tiền càng fai tính toán chứ ạ ^^ tích tiểu thành đại mà :v tiêu tiền dễ, tiết kiếm tiền khó :v thôi ngủ đã, 1h roài :v bạn nào sắp đi thì cứ tìm mấy ngân hàng quốc tế mà hỏi cái kiểu này nhé. sẽ giúp ích đc nhiều lắm đó ^^","message_tags":[{"id":"100001784363025","name":"Hoa Nhật","type":"user","offset":0,"length":8}],"can_remove":false,"created_time":"2014-04-13T18:05:22+0000","like_count":0,"user_likes":false},"850912961592049":{"id":"850912961592049","from":{"id":"100000154183383","name":"Nguyễn Quang Minh"},"message":"ANZ có 3 trụ sở chính ở Nhật Bản, osaka, tokyo và nagoya. đủ xài roài :v","can_remove":false,"created_time":"2014-04-13T18:07:53+0000","like_count":0,"user_likes":false},"850913808258631":{"id":"850913808258631","from":{"id":"100007656991195","name":"Linh Chi"},"message":"Víacard \nMới sang học mà bạn đã lo gửi tiền về r à","can_remove":false,"created_time":"2014-04-13T18:09:28+0000","like_count":0,"user_likes":false},"850929481590397":{"id":"850929481590397","from":{"id":"100005009700126","name":"Jang Min"},"message":"mastercard dùng được toàn thế giới mà","can_remove":false,"created_time":"2014-04-13T18:48:52+0000","like_count":0,"user_likes":false},"850978401585505":{"id":"850978401585505","from":{"id":"100007917634982","name":"Cry Cry"},"message":":)) Sbi cũng là 1 ngân hàng liên kết việt Nhật. Nhưng thuế cũng khá cao, bù lại tháng 12 lấy hoá đơn đó hoàn thuế nên cũng coi như free","can_remove":false,"created_time":"2014-04-13T20:40:49+0000","like_count":0,"user_likes":false},"850979398252072":{"id":"850979398252072","from":{"id":"100003878132073","name":"Luan Tran Van"},"message":"Không mất phí thì không có vì không có ai làm không công cho bạn cả, và thứ 2 nếu muốn gửi ở nhật mà rút ở vn thì chỉ có thẻ visa có chức năng thanh toán quốc tế. Bạn tìm hiểu tỉ giá và phí trên 1 lần rút sẽ thấy visa nó tiện nhưng max thế nào.","can_remove":false,"created_time":"2014-04-13T20:44:45+0000","like_count":1,"user_likes":false},"851016361581709":{"id":"851016361581709","from":{"id":"100000182896770","name":"Luu Duy Phuong"},"message":"tiết kiệm thì gom nhiều tiền vào gửi 1 lần thì mất ít phí , chứ không có cách nào khác đâu, visa phí còn ác hơn chuyển dịch vụ","can_remove":false,"created_time":"2014-04-13T22:27:39+0000","like_count":1,"user_likes":false},"851089891574356":{"id":"851089891574356","from":{"id":"100003069246142","name":"Hồng Trịnh"},"message":"Bạn đi du học ah. Nếu như đi du học thì có đủ điều kiện để gửi tiền về ko? Trong khi trước khi sang nhật chúng ta đã cam kết gđ đứng ra đóng học phí cho. Ko có con đường chính thức cho du học sinh gửi tiền về theo cách lập tk đâu. Sau này bạn có công việc thì ok","can_remove":false,"created_time":"2014-04-14T02:09:58+0000","like_count":0,"user_likes":false},"851124761570869":{"id":"851124761570869","from":{"id":"100001222113521","name":"Tạ Thu Hường"},"message":"vô lí","can_remove":false,"created_time":"2014-04-14T03:53:24+0000","like_count":0,"user_likes":false}},"paging":{"cursors":{"after":"ODUwODk5ODc4MjYwMDI0","before":"ODUwODk5ODc4MjYwMDI0"},"next":"https://graph.facebook.com/229244010425617_850899104926768/comments?limit=1&summary=1&after=ODUwODk5ODc4MjYwMDI0"},"summary":{"order":"chronological","total_count":26}}}