{"id":"229244010425617_850885671594778","type":"status","from":{"id":"100008094602427","name":"Haken Kyujin"},"message":"Đời du học\n\nTôi cũng đã từng một thời là du học sinh, nhưng có vẻ tôi khác nhiều với các bạn, mặc dù trên lý thuyết chúng ta đều đi du học. Không biết từ khi nào, du học đã trở thành một nghề, một chiếc cần câu cơm cho những người thấy mất phương hướng khi sống tại Việt Nam. Trượt đại học đi, không kiếm được việc đi, nghe nói kiếm được nhiều tiền đi, nhìn thấy những quảng cáo hay cũng đi… và muôn vàn lý do khác.\n\nNgày trước, mỗi khi tan trường, nhìn những người bạn cùng lớp, cùng trường rảo bước trên mọi con đường để đi làm. Ai cũng thấy họ thật vội vã, hình như họ rất sợ đi làm muộn thì phải, phải chăng họ sợ bị trách phạt hay họ sợ muộn giờ làm thôi? Cũng không phải, họ vẫn giữ cái lề thói đủng đỉnh, lề mề của người Việt Nam khi đi học cơ mà! Hoá ra không phải, chỉ là nếu đi làm muộn, họ sẽ phí mất số tiền lương cho thời khắc đi muộn.\n\nAi cũng vậy, họ làm việc điên cuồng, công việc và công việc. Không những 1 công việc, thậm chí là 2, hoặc 3. Lý do để đi làm thì chỉ có 1, đó là tiền. Và trong 1 cái lý do đó là vô vàn những lý do nhỏ khác: Làm để kiếm tiền học cho năm sau, kiếm tiền trả nợ ở quê nhà nơi bố mẹ đang gồng ghánh khoản nợ kếch xù cho bạn đi học, kiếm tiền để có chút vốn về quê hương làm ăn, …. ôi nhiều lắm.\n\nƠ, thế cuối cùng du học chỉ có vậy thôi sao? Đi làm nhiều thì sức đâu mà học, thời gian đâu mà ngủ? Đến lớp, tỉnh thì mắt lờ đờ, không tỉnh nổi thì ngủ lăn ra, mặc sức thày giáo giảng. Ông dạy kệ ông, tôi ngủ kệ tôi, miễn sao tỷ lệ đến lớp tôi vẫn đủ là được rồi.\n\nHết học xong trường tiếng, mọi người lục tục đi thi vào trường chuyên môn, đại học. Lúc đó mới sực nhớ ra rằng, muốn vào thì phải thi, kiến thức ở đâu ra bây giờ, trình độ có đâu nhỉ? Trong trường, trong lớp, mọi người kháo nhau những ngôi trường rất là dễ, thi là đỗ thôi nhưng mà… học phí rất cao. Cũng không sao, vào được là được, còn được học là còn có Visa, có Visa thì lo gì không kiếm được tiền nhỉ?\n\nChưa biết các bạn kiếm được bao nhiêu, gửi về nhà được đến thế nào, lo tiền học cho sang năm ra sao. Nhưng tự các bạn thử tính con số thực mà mình thu về đi, con số đó có đáng cho các bạn ném hết sức lực ngần ấy năm đi học hay không? Chưa kể, bị phát hiện quá giờ -> về nước, thi không nổi -> trượt.. chưa kịp trả nợ đã trắng tay, có đáng không?\n\nCái gì cũng có cái giá của nó, những người không thể nào làm được liên tục nhiều như vậy, sức lực kiệt quệ, đau ốm. Người không cố gắng được thì bắt đầu nghĩ cách làm sao để kiếm được tiền mà không mệt mỏi, phải chăng đó là lúc các bạn nghĩ đến chuyện ăn cắp, shokai công việc, lừa đảo nhau… Đó có phải là lỗi của các công ty du học không? Nói là đúng cũng được, nói là sai cũng được. Họ đi quảng cáo, làm sao đưa được nhiều người đi nhất, đó là mục tiêu. Vậy nên không tránh khỏi có những công ty cố tình nói sai sự thật, làm các bạn nghĩ đến một viễn cảnh huy hoàng. Sang làm hùng hục, tiền kiếm được nhiều, mỗi lần về nước trông như Việt kiều thành đạt. Không có đâu!\n\nNhưng cũng có những công ty họ không bao giờ lừa đảo, cũng vì không hót hay nên chẳng ai muốn đi từ nơi đó. Rồi bao nhiêu câu hỏi, ai có biết công ty nào uy tín hay không? Mình muốn đi du học! Thế theo các bạn, thế nào là uy tín? Phải chăng uy tín với các bạn là đưa được bạn đi học, và giới thiệu cho bạn một công việc lương 2000 Yên/h? Với mình, bất cứ công ty nào cũng vậy, nghề của họ là làm du học, uy tín là: Kiểm soát hồ sơ cẩn thận, dạy dỗ tiếng Nhật thật tốt, tìm được cho mình những trường học có giáo viên giỏi, hướng dẫn cẩn thận cho mình mức sống của từng vùng miền. Có phải thế không nào?\n\nCác bạn vào chơi trong group nhiều, biết nhiều về cuộc sống bên đó, vậy tại sao vẫn cố tình huyễn hoặc mình bằng những lời đường mật mà các bạn đã biết là sai? Hiện tại, khoá học tháng 4 đã bắt đầu, nếu định đi, hãy chuẩn bị thật tốt cho khoá tháng 10. Đừng để mình thành người khờ khạo khi hỏi những câu như vậy, chỉ cần biết công ty nào có thể đưa đi, và chuẩn bị sẵn tinh thần với những khó khăn, những điều mới mẻ phía trước. Mình có thể khẳng định, nếu mục đích đi vì tiền, xin hãy ở nhà, đừng đi rồi quay lại chửi các công ty là lừa đảo.\n\nNếu có thời gian, lần sau mình sẽ viết tặng các bạn một bài về thủ tục đi du học và lựa chọn trường, cũng như tìm những công ty du học nên thế nào. Good night!","created_time":"2014-04-13T17:07:13+0000","updated_time":"2014-04-16T12:04:04+0000","likes":{"data":{"100008088403670":{"id":"100008088403670","name":"Đầu Đá"},"100001464403812":{"id":"100001464403812","name":"Son Nguyen Ngoc"},"100000135225954":{"id":"100000135225954","name":"Miky Thao Nguyen"},"1816269439":{"id":"1816269439","name":"Dao Ngoc"},"100000226369400":{"id":"100000226369400","name":"Vạn Lý Độc Hành"},"100005801442456":{"id":"100005801442456","name":"An Nguyen"},"100002615664668":{"id":"100002615664668","name":"PuPu Phương Elf"},"100003188533652":{"id":"100003188533652","name":"Thao Nguyen"},"100004057218213":{"id":"100004057218213","name":"Traj Thon Que"},"100003134563774":{"id":"100003134563774","name":"Ngô Hồng"},"100001243411261":{"id":"100001243411261","name":"Ngưu Tỷ Tỷ"},"1443385821":{"id":"1443385821","name":"Mèo Màu Mè"},"100001819436000":{"id":"100001819436000","name":"Nguyễn Xuân Sơn"},"100002235953037":{"id":"100002235953037","name":"Cỏ Không Lá"},"100001796487257":{"id":"100001796487257","name":"Tuấn Anh"},"100000045271667":{"id":"100000045271667","name":"Nam Thai Nguyen"},"100007843684593":{"id":"100007843684593","name":"Thang Tran"},"100003401393496":{"id":"100003401393496","name":"Adachi San"},"100004745586890":{"id":"100004745586890","name":"Bao Nguyen Kevin"},"100005631643313":{"id":"100005631643313","name":"Tiểu Hoa"},"100001286971334":{"id":"100001286971334","name":"Oắt Dơ Fắc"},"100007491822270":{"id":"100007491822270","name":"Tâm Kem"},"100003623661411":{"id":"100003623661411","name":"Hyena Ren"},"100007462630444":{"id":"100007462630444","name":"Huyên Him"},"100005567464628":{"id":"100005567464628","name":"Nhuquoc Vu"},"100004165176839":{"id":"100004165176839","name":"Nguoila Da Tungquen"},"100005441644764":{"id":"100005441644764","name":"Bố Tao Đầy Tiền"},"100000271705877":{"id":"100000271705877","name":"Nguyễn Văn Minh"},"100006605200153":{"id":"100006605200153","name":"Đức Dùng"},"100001336420260":{"id":"100001336420260","name":"Trường Phong"},"100004374573625":{"id":"100004374573625","name":"Theu Vu"},"100001661472861":{"id":"100001661472861","name":"Lê Hồng Nhung"},"100003903233372":{"id":"100003903233372","name":"Vương Sỹ Tuấn"},"100003271726894":{"id":"100003271726894","name":"Yuki Na"},"100004351478036":{"id":"100004351478036","name":"Ngán Cái Cuộc Đời"},"100003724419279":{"id":"100003724419279","name":"Diệu Linh"},"100001526631937":{"id":"100001526631937","name":"Tường Oanh Mineko"},"100006883026024":{"id":"100006883026024","name":"Minh Anh Vũ"},"100001416272263":{"id":"100001416272263","name":"Mai PB"},"100000005117986":{"id":"100000005117986","name":"Tăng Tiên Sinh"},"100007029815593":{"id":"100007029815593","name":"Ngoc Nguyen"},"100001286155970":{"id":"100001286155970","name":"Nguyễn Dương"},"100003058280462":{"id":"100003058280462","name":"Đặng Văn Thành"},"100004692284049":{"id":"100004692284049","name":"Hồ Huyền Trinh"},"100000263221346":{"id":"100000263221346","name":"Phạm Hoàng Ngân"},"100000500260636":{"id":"100000500260636","name":"Lưu Nguyễn Thảo Tiên"},"100004096243144":{"id":"100004096243144","name":"Shorai Nguyễn"},"100005670699847":{"id":"100005670699847","name":"Trịnh Kim"},"100003778246918":{"id":"100003778246918","name":"Quá Khứ"},"100000359762118":{"id":"100000359762118","name":"Mi Tra"},"100004145821002":{"id":"100004145821002","name":"Em Thật Ngốc"},"100003211776567":{"id":"100003211776567","name":"Kụ Đính"},"100002041632385":{"id":"100002041632385","name":"Phạm Quang Thiện"},"100004409731083":{"id":"100004409731083","name":"Đô Trong Nghia"},"100004086631868":{"id":"100004086631868","name":"Lêkita Mít Ướt"},"100000795770040":{"id":"100000795770040","name":"Nghĩa Trần"},"100000210436855":{"id":"100000210436855","name":"Hieu Muoi"},"100001458099624":{"id":"100001458099624","name":"Kham Pha"},"100007120295988":{"id":"100007120295988","name":"Dung Hoang"},"100004827674172":{"id":"100004827674172","name":"Hải Nữ"},"100000095655445":{"id":"100000095655445","name":"Kamiya Satoshi"},"100002966928087":{"id":"100002966928087","name":"Nguyen van Dat"},"100003124307460":{"id":"100003124307460","name":"Duc Giang"},"100006663067003":{"id":"100006663067003","name":"Bình Heo"},"100000315260316":{"id":"100000315260316","name":"Thắng Kun"},"100003980112068":{"id":"100003980112068","name":"Endless Paradise"},"1629517470":{"id":"1629517470","name":"Nguyen Thi Thanh Van"},"100000193104491":{"id":"100000193104491","name":"Hac Nguyet"},"100000862659974":{"id":"100000862659974","name":"Võ Phi Hùng"},"100003174621865":{"id":"100003174621865","name":"Quang Phạm"},"100004253979918":{"id":"100004253979918","name":"Louis Hoàng Văn Thái"},"100007822080156":{"id":"100007822080156","name":"Mưa Sao Băng"},"100008187361125":{"id":"100008187361125","name":"Tuân Phạm Nguyễn"},"100001650056739":{"id":"100001650056739","name":"Tồn Dương"},"100000381394367":{"id":"100000381394367","name":"Thành Nguyễn"},"100000280178894":{"id":"100000280178894","name":"Đại Trượng Phu"},"100001602108729":{"id":"100001602108729","name":"Tram Mai"},"100002754702267":{"id":"100002754702267","name":"No Bo Dy"},"100000603915176":{"id":"100000603915176","name":"悪いな ぁ"},"100003607925265":{"id":"100003607925265","name":"Thu Hằng"},"100003892404629":{"id":"100003892404629","name":"Đại Bàng Lột Xác"},"100007909359766":{"id":"100007909359766","name":"Phi Thuy"},"569263718":{"id":"569263718","name":"Phuong Thao Tran"},"100001619572596":{"id":"100001619572596","name":"Lạc Lối"},"100004549623507":{"id":"100004549623507","name":"Nhếch Mép"},"100003726625381":{"id":"100003726625381","name":"Thao Tran"},"1046597104":{"id":"1046597104","name":"Tien Vuong"},"100003111441031":{"id":"100003111441031","name":"Yu Lovekiki"},"100001675994847":{"id":"100001675994847","name":"Khánh Phượng"},"100007855782672":{"id":"100007855782672","name":"Dương Tuấn"},"100006258522063":{"id":"100006258522063","name":"Con Nhà Nghèo"},"100003041350096":{"id":"100003041350096","name":"Hoang Gia Nhat"},"100003945224089":{"id":"100003945224089","name":"Nhím Xù"},"100003703576535":{"id":"100003703576535","name":"Tap Nguyendang"},"100004707884599":{"id":"100004707884599","name":"Phạm Ánh Hồng"},"1801883671":{"id":"1801883671","name":"Thao Nhim"},"100007188937198":{"id":"100007188937198","name":"Tình Phai"},"100006552373938":{"id":"100006552373938","name":"Thanh Phan"},"100002902100532":{"id":"100002902100532","name":"Na Nguyễn"},"100002947094594":{"id":"100002947094594","name":"Lê Bích"},"100001359455451":{"id":"100001359455451","name":"Nguyễn Đức Thịnh"},"100005051881072":{"id":"100005051881072","name":"Nhớ Nhớ"},"100004055631719":{"id":"100004055631719","name":"Nguyen van Lien"},"100007471925078":{"id":"100007471925078","name":"Yu Ki"},"100001754136107":{"id":"100001754136107","name":"Nguyễn Tuấn Vũ"},"100003785823794":{"id":"100003785823794","name":"Suong Ngoc"},"100003127059821":{"id":"100003127059821","name":"Quang Khai Tran"},"1068482018":{"id":"1068482018","name":"Loan Le"},"100002849008610":{"id":"100002849008610","name":"Nguyễn Phương Hùng"},"100001675790020":{"id":"100001675790020","name":"Suzuzu Hoang"},"100004659360261":{"id":"100004659360261","name":"Heo Mập"},"100004236490345":{"id":"100004236490345","name":"Hoàn Nguyễn"},"100008133690691":{"id":"100008133690691","name":"Con Yêu Mẹ"},"100003322232741":{"id":"100003322232741","name":"Huấn Nguyễn"},"100007267445115":{"id":"100007267445115","name":"Ha Nguyen"},"1146680551":{"id":"1146680551","name":"優しい なぁ"},"100003393727733":{"id":"100003393727733","name":"Phạm Thủy"},"100003929334541":{"id":"100003929334541","name":"Nguyễn Trung"},"100005807880378":{"id":"100005807880378","name":"Vũ Phong"},"100001853769326":{"id":"100001853769326","name":"Thương Vũ"},"100004259795262":{"id":"100004259795262","name":"P-rince Vũ"},"100007843420077":{"id":"100007843420077","name":"Nguyễn Đức Việt"},"100001683372588":{"id":"100001683372588","name":"Long Hồ Viết"},"100007552054035":{"id":"100007552054035","name":"Hưng Koy"},"100004673744399":{"id":"100004673744399","name":"Ngọc Anh Trà My"},"100004619863305":{"id":"100004619863305","name":"Phong Tmnt"},"100007139343252":{"id":"100007139343252","name":"Hà Mận"},"100007257722151":{"id":"100007257722151","name":"Giang Hay Lang Thang"},"100005939971822":{"id":"100005939971822","name":"Đoàn Chăm Chỉ"},"1026780646":{"id":"1026780646","name":"Việt Hưng Khổng"},"100004993025353":{"id":"100004993025353","name":"Ruby Tuyển"},"100003739643123":{"id":"100003739643123","name":"Tú Anh Nguyễn"},"100007875486503":{"id":"100007875486503","name":"Hồng Đức Trong Tôi"},"100003872907449":{"id":"100003872907449","name":"Nguyễn Thị Xuân Lang"},"100004798083725":{"id":"100004798083725","name":"Cappu Ccino"},"100003740342167":{"id":"100003740342167","name":"Có Gì Hót"},"1807677280":{"id":"1807677280","name":"Thuận Nghiêm"},"100003069246142":{"id":"100003069246142","name":"Hồng Trịnh"},"100003920174988":{"id":"100003920174988","name":"Chuot Dong"},"100000386836450":{"id":"100000386836450","name":"Bích Châm"},"100004306652941":{"id":"100004306652941","name":"Cô Bé Mưa"},"100003898520151":{"id":"100003898520151","name":"Bánh Su Kem"},"100007800490631":{"id":"100007800490631","name":"Lụa Đặng"},"100003065966506":{"id":"100003065966506","name":"Hùng Khùng"},"100006126133935":{"id":"100006126133935","name":"Hoàng Thị Thu"},"100005327112379":{"id":"100005327112379","name":"Guongcuoideem Dk Hanhphuk"},"100000126462919":{"id":"100000126462919","name":"Thao Phan"},"100006933518153":{"id":"100006933518153","name":"Mai Hạnh Nguyễn"},"100003729983318":{"id":"100003729983318","name":"Ljnhanh Jjnla"},"100004509723474":{"id":"100004509723474","name":"Hai Luu Van"},"100001311893008":{"id":"100001311893008","name":"Nguyen Minh"},"100002977921692":{"id":"100002977921692","name":"Không Biết Nghĩ"},"100000572010533":{"id":"100000572010533","name":"Thao Vo"},"100003913383051":{"id":"100003913383051","name":"Tho Tran"},"100004895377558":{"id":"100004895377558","name":"Dũng Nguyễn"},"100005350360526":{"id":"100005350360526","name":"Linh Danh Thue"},"100002959135962":{"id":"100002959135962","name":"Duong Nguyen Van"},"100003992742988":{"id":"100003992742988","name":"Chất Nguyễn"},"100005495773832":{"id":"100005495773832","name":"Hiền Vũ"},"100001480817001":{"id":"100001480817001","name":"Le Hanh"},"100003040551362":{"id":"100003040551362","name":"Hạnh Hoàng"},"100000309415626":{"id":"100000309415626","name":"Kona Yuki"},"100003480936752":{"id":"100003480936752","name":"Hoàng Phú"},"1666517039":{"id":"1666517039","name":"Phan Hieu Nhan"},"100001473097222":{"id":"100001473097222","name":"Chung Liên"},"100006140261159":{"id":"100006140261159","name":"Mai Hương Đỗ"},"100000399315424":{"id":"100000399315424","name":"Rô Rô"},"100006859893056":{"id":"100006859893056","name":"Yến Thanh"},"100001988400534":{"id":"100001988400534","name":"Vũ Bích Liên"},"1044835514":{"id":"1044835514","name":"Sue Nguyen"},"100003657473061":{"id":"100003657473061","name":"Vu Trung Kien"},"100006044681039":{"id":"100006044681039","name":"Lâm Phước Huy"},"100001368056386":{"id":"100001368056386","name":"Ngọc Wilshere"},"100006520210904":{"id":"100006520210904","name":"Miu Miu"},"100001222113521":{"id":"100001222113521","name":"Tạ Thu Hường"}},"paging":{"cursors":{"after":"MTAwMDA4MDg4NDAzNjcw","before":"MTAwMDA4MDg4NDAzNjcw"},"next":"https://graph.facebook.com/229244010425617_850885671594778/likes?limit=1&summary=1&after=MTAwMDA4MDg4NDAzNjcw"},"summary":{"total_count":176}},"comments":{"data":{"850887748261237":{"id":"850887748261237","from":{"id":"100006044681039","name":"Lâm Phước Huy"},"message":"Bài viết tâm huyết !__! thực trạng du học sinh hiện nay","can_remove":false,"created_time":"2014-04-13T17:13:03+0000","like_count":7,"user_likes":false},"850889071594438":{"id":"850889071594438","from":{"id":"100006520210904","name":"Miu Miu"},"message":"Cuộc sống của các bạn là do chính các bạn tạo ra. Đừng nên phó mặc tất cả cho người khác, sống có trách nhiệm một chút, định hướng trc cho mình 1 cuộc sống sắp tới sẽ ntn? Thành công hay ko là do bạn, nếu bạn ko cố gắng tốt cho chính bản thân mình thì sao phải bắt người khác tốt với mình đúng ko? Các bạn có dự định du học nên suy nghĩ nhé và các bạn đi rồi ngẫm lại xem đúng nv ko? Chúc các bạn thành công","can_remove":false,"created_time":"2014-04-13T17:16:16+0000","like_count":3,"user_likes":false},"850897648260247":{"id":"850897648260247","from":{"id":"100004163011183","name":"Princess Ly Ly"},"message":"Mà sao phải đi nuớc ngoài phải chăng tự mình vẽ nên viễn cảnh đẹp rồi công ty du học nào nói tương tự giống bức tranh mình vẽ ra thì là uy tín. Chăng lẽ ở Việt Nam không có công ty nào giúp các bạn thực hiện ước mơ. Tương lai là do mình tạo ra, thức để thực hiện chứ không phải thực hiện trong mơ. Mình rất thích đoạn “Trượt đại học đi, không kiếm được việc đi, nghe nói kiếm được nhiều tiền đi, nhìn thấy những quảng cáo hay cũng đi… và muôn vàn lý do khác.” . Thất bại ở quê nhà thì sang đất khách tỉ lệ thành công thực sự là rất nhỏ","can_remove":false,"created_time":"2014-04-13T17:30:03+0000","like_count":0,"user_likes":false},"850911058258906":{"id":"850911058258906","from":{"id":"100004134600593","name":"Kien Pham"},"message":"Csong bên này ko đơn giản .mình cũng đang nằm chờ việc ,cũng rất lo mọi nguoi a","can_remove":false,"created_time":"2014-04-13T18:02:25+0000","like_count":0,"user_likes":false},"850916774925001":{"id":"850916774925001","from":{"id":"100006247629276","name":"Long Vĩnh"},"message":"Đời nó không giống như mơ. Nhưng cố gắng mà mơ để đi hết dc đến cuối con đường mà mình đã xác định.9","can_remove":false,"created_time":"2014-04-13T18:16:42+0000","like_count":0,"user_likes":false},"850923011591044":{"id":"850923011591044","from":{"id":"100002977921692","name":"Không Biết Nghĩ"},"message":"im lang ( may e viet khong co dau)","can_remove":false,"created_time":"2014-04-13T18:32:28+0000","like_count":2,"user_likes":false},"850934868256525":{"id":"850934868256525","from":{"id":"100003729983318","name":"Ljnhanh Jjnla"},"message":"1 bài viết quá hay, cảm ơn bạn","can_remove":false,"created_time":"2014-04-13T19:02:50+0000","like_count":2,"user_likes":false},"850967231586622":{"id":"850967231586622","from":{"id":"100005327112379","name":"Guongcuoideem Dk Hanhphuk"},"message":"Cuộc sống ko phải là một màu hồng có người nọ có người kia .có thể bạn hoàn hảo nhưng người khác thì lại không mỗi con người đều có một cách sống.lối sống khác nhau tôi muốn các bạn hãy đặt mình vào vị trí người khác chứ không phải bạn để nói...có thể bạn học giỏi có thể bạn may mắn hơn người khác được sống trong môi trường đầy đủ đáp ứng được việc làm.sinh hoạt.học tập ...còn người khác thì sao bạn cứ thử nghĩ tới họ thì bạn sẽ biết nó như thế nào nhưng dù sao cũng cảm ơn vì bài viết của bạn","can_remove":false,"created_time":"2014-04-13T20:07:23+0000","like_count":3,"user_likes":false},"850991084917570":{"id":"850991084917570","from":{"id":"100004306652941","name":"Cô Bé Mưa"},"message":"Loi noi thuyet Phuc nhung  lap luan chua du sac thick nhat la cau cuoi. Het.","can_remove":false,"created_time":"2014-04-13T21:12:17+0000","like_count":0,"user_likes":false},"851004038249608":{"id":"851004038249608","from":{"id":"100004798083725","name":"Cappu Ccino"},"message":"Ko liên quan nhưng cho m hỏi là có ai biết số liệu dhs sang Nhật t4 năm nay ko?","can_remove":false,"created_time":"2014-04-13T21:48:40+0000","like_count":0,"user_likes":false},"851007164915962":{"id":"851007164915962","from":{"id":"100001113873095","name":"Đào Khoa"},"message":"Chỉ là bài toán : thời gian+ tiền bạc + con người thôi mà. \"Biến\" con người và tiền bạc là thay đổi nên  đáp án cũng thay đổi.\n\"Biến\" con người có giới hạn thay đổi rộng nhất, đáp án như thế nào đều phụ thuộc vào biến này.","can_remove":false,"created_time":"2014-04-13T21:57:42+0000","like_count":2,"user_likes":false},"851012984915380":{"id":"851012984915380","from":{"id":"100000562524611","name":"Chúc Đại Ka"},"message":"Ơ thế chị là quảng cáo cho cty ak.","can_remove":false,"created_time":"2014-04-13T22:16:21+0000","like_count":2,"user_likes":false},"851018381581507":{"id":"851018381581507","from":{"id":"100004619863305","name":"Phong Tmnt"},"message":"Ngọc Anh Trà My","message_tags":[{"id":"100004673744399","name":"Ngọc Anh Trà My","type":"user","offset":0,"length":15}],"can_remove":false,"created_time":"2014-04-13T22:32:49+0000","like_count":1,"user_likes":false},"851022694914409":{"id":"851022694914409","from":{"id":"100003913383051","name":"Tho Tran"},"message":"Cả nhà viết comment có dấu nhé!","can_remove":false,"created_time":"2014-04-13T22:47:46+0000","like_count":1,"user_likes":false},"851024008247611":{"id":"851024008247611","from":{"id":"100006337933726","name":"Lê Nam"},"message":"ở bài sau xem như thế nào! rất dễ đây là chiêu PR công ty du học! con đường thành công không trải đầy hoa hồng bao giờ cả! những bạn nào đủ nghị lực và tiềm lực thì đi và cũng nên tìm hiểu thạt rõ ràng nhé! chúc các bạn thành công!","can_remove":false,"created_time":"2014-04-13T22:52:10+0000","like_count":5,"user_likes":false},"851045478245464":{"id":"851045478245464","from":{"id":"100003281199548","name":"Donkihote Vu"},"message":"Uh thì đầu tiên mục đích ai đi sang đây chẳng muốn là đc học. Tuỳ vào sức học của mỗi ng, ng nào theo đc thì học, ng nào k thì đành đi làm đóng tiền học. 2 3 4 năm sau ng ta về nc thì ng ta cũng có đc 1 chút vốn để lập nghiệp. Chứ còn bằng ngần đấy time ở vn có đi làm cũng chỉ đủ ăn nuôi sống bản thân thôi. Đời nhiều ngã rẽ, chúc các bạn thành công trên những ngã rẽ của mình :)","can_remove":false,"created_time":"2014-04-13T23:53:00+0000","like_count":0,"user_likes":false},"851054134911265":{"id":"851054134911265","from":{"id":"100004055631719","name":"Nguyen van Lien"},"message":"Cám ơn anh chị đã có những dòng chữ chân thành và tâm huyết.....","can_remove":false,"created_time":"2014-04-14T00:17:13+0000","like_count":1,"user_likes":false},"851084104908268":{"id":"851084104908268","from":{"id":"100007909359766","name":"Phi Thuy"},"message":"bài viết hay quá. thanks anh/chị!","can_remove":false,"created_time":"2014-04-14T01:52:30+0000","like_count":0,"user_likes":false},"851089154907763":{"id":"851089154907763","from":{"id":"100003751909185","name":"Hoang Gia Gia"},"message":"bài viết rất hay.mọi người có ý định đi du học thì cố gắng tìm hiểu thật kỹ nhé.vì chính bản thân mình đã thất bại một lần và trở về nước trong tuyetj vọng.","can_remove":false,"created_time":"2014-04-14T02:07:40+0000","like_count":1,"user_likes":false},"851095988240413":{"id":"851095988240413","from":{"id":"100007719188262","name":"Trần Văn Thưởng"},"message":"Du học về nếu có thất bại thì ít nhất cũng có vốn tiếng trong người chứ nhỉ? chẳng lẽ thất bại là không có gì?","can_remove":false,"created_time":"2014-04-14T02:28:02+0000","like_count":0,"user_likes":false},"851096728240339":{"id":"851096728240339","from":{"id":"100007909359766","name":"Phi Thuy"},"message":"thất bại không có nghĩa là dừng lại, vì mình có thể tìm được một cơ hội khác tốt hơn!","can_remove":false,"created_time":"2014-04-14T02:29:44+0000","like_count":1,"user_likes":false},"851101354906543":{"id":"851101354906543","from":{"id":"100008094602427","name":"Haken Kyujin"},"message":"Cảm ơn bạn Lê Nam đã đề phòng, chính vì bạn nói vậy nên mình sẽ không viết bài sau với nội dung đã nói nữa. Nhưng mình cũng hỏi bạn vài câu:\n\nCó bao giờ bạn làm việc mà không cần quảng cáo không? Với mình thì có, những không phải ở đây.\n\nBài mình viết mình đã chỉ đích danh chỗ nào uy tín, chỗ nào không uy tín hay không? Mình không định làm vậy, như thế là cạnh tranh không lành mạnh. Tự mình làm được gì mình sẽ làm, chơi xấu người khác không phải việc mình làm.\n\nMình chỉ mong các bạn có được cái nhìn của cá nhân mình với cuộc sống, với cách chọn lựa. Mình cấp cho các bạn cái nên xe, những mình không chỉ điểm đến, vậy thôi :)","can_remove":false,"created_time":"2014-04-14T02:42:31+0000","like_count":5,"user_likes":false},"851101861573159":{"id":"851101861573159","from":{"id":"100003751909185","name":"Hoang Gia Gia"},"message":"khi việc du học tới nửa chặng đường phải bỏ về rồi thì vốn tiếng trong người cũng không làm gì đươc bạn Trần Văn Thưởng ạ.","message_tags":[{"id":"100007719188262","name":"Trần Văn Thưởng","type":"user","offset":104,"length":15}],"can_remove":false,"created_time":"2014-04-14T02:43:58+0000","like_count":1,"user_likes":false},"851103298239682":{"id":"851103298239682","from":{"id":"100000381394367","name":"Thành Nguyễn"},"message":"Bài này rất có ích cho các bạn nào đang định đi theo con đường này, hãy tỉnh táo mà suy nghĩ về những gì mà bạn chủ post đã nói. Đó là những điều rất thực tế.","can_remove":false,"created_time":"2014-04-14T02:47:28+0000","like_count":3,"user_likes":false},"851104078239604":{"id":"851104078239604","from":{"id":"569263718","name":"Phuong Thao Tran"},"message":"không vì một ý kiến mà bỏ ý định tốt ban đầu của bạn chứ Haken Kyujin, bài viết sắp tới với nội dung: [thủ tục đi du học và lựa chọn trường, cũng như tìm những công ty du học nên thế nào.] là nội dung còn cốt lõi hơn cả bài này nữa, theo mình nghĩ là như thế. Bạn cứ cống hiến cho cộng đồng nhé, ^_^","message_tags":[{"id":"100008094602427","name":"Haken Kyujin","type":"user","offset":57,"length":12}],"can_remove":false,"created_time":"2014-04-14T02:49:38+0000","like_count":5,"user_likes":false},"851106414906037":{"id":"851106414906037","from":{"id":"100007822080156","name":"Mưa Sao Băng"},"message":"Hay","can_remove":false,"created_time":"2014-04-14T02:56:42+0000","like_count":0,"user_likes":false},"851123468237665":{"id":"851123468237665","from":{"id":"100004005830479","name":"Lam School"},"message":"Rất hay nhưng có 1 chi tiết là \"nếu đi mục đích vì tiền xin hay ở nhà đừng đi r quay lại chửi các công ty\" chi tiết này các bạn ý chửi cũng đúng mà.lỗi tại ai.bạn thử xem các em ms tốt nghiệp trung học phổ thông chưa biết tí j về cs bên ngoài huống j bên nhật.thế mà họ đã tiêm nhiễm vẽ ra những thứ k hề có thực.mk nghĩ việc lm đó là 1 việc lm thất đức.trung tâm của mk thì rất tốt nên mk chả chê trách j.còn các bạn ở các trung tâm khác đi thì học phí rất cao.mà hứa hẹn rất ngon.các bạn ý nhà giàu có thì k sao.nhưng có những bạn nhà phải đi vay lãi cho bạn ý đi.để bây giờ bố mẹ và GĐ bạn ý còng lưng ra trả nợ...ai sang đây r mà k thương bố mẹ cơ chứ.nghĩ đến vậy thôi cũng đủ bật khóc rồi.vì cái j mà bạn.tương lai của bạn.bố mẹ bạn.gia đình bạn.lao Đao k thấy lối ra.","can_remove":false,"created_time":"2014-04-14T03:49:04+0000","like_count":0,"user_likes":false},"851128251570520":{"id":"851128251570520","from":{"id":"100000265363169","name":"Mít Sờ Kul"},"message":"Về cơ bản làm ăn là phải quảng cáo b ạ. Thế các b có chửi chin-su khi nc mắm k thật hảo hạng hay bột nêm chả có tí xương thịt nào k :| thời đại công nghệ. Các b trẻ fb này nọ ầm ầm. Chả lẽ k biết tự lên mạng tìm hiểu. Senpai r' nhiều. Báo chí r group này khác. K hề khó để tìm hiểu.\nNói đi cũg phải nói lại. Có r' nhiều cty đem con bỏ chợ :<\nCái này quả thật đáng trách. Nên lời khuyên dành cho các b chỉ là tìm hiểu vs suy nghĩ kĩ nhé. Muốn lm ra tiền phải vất vả. Ở đâu cũg vậy thôi","can_remove":false,"created_time":"2014-04-14T04:02:19+0000","like_count":2,"user_likes":false},"851176871565658":{"id":"851176871565658","from":{"id":"100000263221346","name":"Phạm Hoàng Ngân"},"message":"mình rất thik bài viết của bạn. cho mình share bài viết nhé :))","can_remove":false,"created_time":"2014-04-14T06:42:15+0000","like_count":0,"user_likes":false},"851191014897577":{"id":"851191014897577","from":{"id":"100008094602427","name":"Haken Kyujin"},"message":"Dc bạn Phạm Hoàng Ngân","can_remove":false,"created_time":"2014-04-14T07:39:05+0000","like_count":0,"user_likes":false},"851243048225707":{"id":"851243048225707","from":{"id":"100003724419279","name":"Diệu Linh"},"message":"Bài viết hay và ý nghĩa rất có ích cho những bạn đang muốn chọn con đg này. Tặng b 1 like nhé :)","can_remove":false,"created_time":"2014-04-14T10:10:06+0000","like_count":2,"user_likes":false},"851862948163717":{"id":"851862948163717","from":{"id":"100001796487257","name":"Tuấn Anh"},"message":"Hay-..mong...sớm-đc-đọc-bài-của-bạn-tiếp!-thanks","can_remove":false,"created_time":"2014-04-15T10:48:50+0000","like_count":1,"user_likes":false},"852665411416804":{"id":"852665411416804","from":{"id":"100001416272263","name":"Mai PB"},"message":"https://www.facebook.com/notes/852664394750239","can_remove":false,"created_time":"2014-04-16T12:04:04+0000","like_count":0,"user_likes":false}},"paging":{"cursors":{"after":"ODUwODg3NzQ4MjYxMjM3","before":"ODUwODg3NzQ4MjYxMjM3"},"next":"https://graph.facebook.com/229244010425617_850885671594778/comments?limit=1&summary=1&after=ODUwODg3NzQ4MjYxMjM3"},"summary":{"order":"chronological","total_count":33}}}