{"id":"229244010425617_850837811599564","type":"photo","object_id":"1410115345925065","picture":"https://fbcdn-photos-h-a.akamaihd.net/hphotos-ak-prn1/t1.0-0/10259343_1410115345925065_1798002413796863031_s.jpg","link":"https://www.facebook.com/photo.php?fbid=1410115345925065&set=gm.850837811599564&type=1&relevant_count=1","from":{"id":"100007798380150","name":"海外移住"},"message":"一緒に仕事をしている仲間がほぼ毎月ベトナム訪問していますが正直うらやましいですね。一度旅行でホーチミンを訪問しましたが、食べ物も僕好みだったし、街並みも好きでした。自分も行けるよう、頑張って結果を出していきたいと思います。ベトナムのみなさん。その時はよろしくお願いしますね＾＾\n\n写真と内容は関係ないですｗ","created_time":"2014-04-13T15:36:32+0000","updated_time":"2014-04-14T00:39:42+0000","likes":{"data":{"100002157666249":{"id":"100002157666249","name":"Keiji Furusho"},"100004566972183":{"id":"100004566972183","name":"Tsuyoshi Ta"},"100000128875786":{"id":"100000128875786","name":"Gà Hà"},"100005507083420":{"id":"100005507083420","name":"Hiroshi  Ogata"},"100005940993762":{"id":"100005940993762","name":"Hiroko  Horiuchi"},"100001614233452":{"id":"100001614233452","name":"Hienvit Duckling"},"100003942528766":{"id":"100003942528766","name":"Manabu  Yasui"},"100004512333714":{"id":"100004512333714","name":"Đạt Titikaka"},"100007554789841":{"id":"100007554789841","name":"Maki Tasaki"},"100005925607989":{"id":"100005925607989","name":"Shintaro Wakao"},"100002022687535":{"id":"100002022687535","name":"Ryoichi Inoue"},"100000572010533":{"id":"100000572010533","name":"Thao Vo"},"100005887419564":{"id":"100005887419564","name":"Cười Một Mình"},"100001786404410":{"id":"100001786404410","name":"Huệ Nguyễn"},"100001824172942":{"id":"100001824172942","name":"Phan Van"},"100006665976944":{"id":"100006665976944","name":"Kanako  Inoue"},"100001695345798":{"id":"100001695345798","name":"Tyn Aki"},"100000187856584":{"id":"100000187856584","name":"Linh Hachi"},"100007468213697":{"id":"100007468213697","name":"Minh Cảnh"},"100006014164976":{"id":"100006014164976","name":"Bình Bông"},"100003210512769":{"id":"100003210512769","name":"Trang Nguyễn"},"100003719334579":{"id":"100003719334579","name":"Hoàng Yến"},"100005801442456":{"id":"100005801442456","name":"An Nguyen"},"100000495302979":{"id":"100000495302979","name":"Huy Toàn"},"100002404788271":{"id":"100002404788271","name":"Munetaka  Yamada"},"100001432462223":{"id":"100001432462223","name":"Truong Nguyen"},"100004869152714":{"id":"100004869152714","name":"Nhóc Maruco"},"100000237467134":{"id":"100000237467134","name":"Định Hiếu"}},"paging":{"cursors":{"after":"MTAwMDAyMTU3NjY2MjQ5","before":"MTAwMDAyMTU3NjY2MjQ5"},"next":"https://graph.facebook.com/229244010425617_850837811599564/likes?limit=1&summary=1&after=MTAwMDAyMTU3NjY2MjQ5"},"summary":{"total_count":28}},"comments":{"data":{"850859368264075":{"id":"850859368264075","from":{"id":"100000187856584","name":"Linh Hachi"},"message":"shashinga kireine!!!!!!!!!!!!!!!!hj","can_remove":false,"created_time":"2014-04-13T16:13:28+0000","like_count":1,"user_likes":false},"850861764930502":{"id":"850861764930502","from":{"id":"100001695345798","name":"Tyn Aki"},"message":"こちらこそよろしくお願いします。写真はカンボジアでのですね。\n日の入りの写真はほんとうに綺麗ですね。ショコラティエの景色ですね。","can_remove":false,"created_time":"2014-04-13T16:18:28+0000","like_count":2,"user_likes":false},"850876101595735":{"id":"850876101595735","from":{"id":"100001824172942","name":"Phan Van"},"message":"Hải phòng nimo kimasenka^^","can_remove":false,"created_time":"2014-04-13T16:49:57+0000","like_count":1,"user_likes":false},"851060901577255":{"id":"851060901577255","from":{"id":"100007798380150","name":"海外移住"},"message":"リンさん　綺麗な写真は心が癒されますね(^^)","can_remove":false,"created_time":"2014-04-14T00:39:10+0000","like_count":0,"user_likes":false},"851061114910567":{"id":"851061114910567","from":{"id":"100007798380150","name":"海外移住"},"message":"Phan Vanさん　行ってみたいですね！どんなところですか？","message_tags":[{"id":"100001824172942","name":"Phan Van","type":"user","offset":0,"length":8}],"can_remove":false,"created_time":"2014-04-14T00:39:42+0000","like_count":0,"user_likes":false}},"paging":{"cursors":{"after":"ODUwODU5MzY4MjY0MDc1","before":"ODUwODU5MzY4MjY0MDc1"},"next":"https://graph.facebook.com/229244010425617_850837811599564/comments?limit=1&summary=1&after=ODUwODU5MzY4MjY0MDc1"},"summary":{"order":"chronological","total_count":5}}}