{"id":"229244010425617_851166604900018","type":"status","from":{"id":"100003281703428","name":"Khánh Tây Môn"},"message":"em là 1 kĩ sư xây dựng,e tốt nghiệp được năm rồi mà vẫn chưa xin đươcj việc, e định đi xuất khẩu lao động ở nhật.Anh, chị cho em hỏi em nên đi du học hay đi xuất khẩu lao động ạ?,đi du học và xk lao động khác nhau như thế nào ạ.em chân thành cảm ơn","created_time":"2014-04-14T05:58:04+0000","updated_time":"2014-04-15T10:06:19+0000","likes":{"data":{"100004445826984":{"id":"100004445826984","name":"Ong Noi Viet"},"100004547050860":{"id":"100004547050860","name":"La A Tai Sao"},"1571805588":{"id":"1571805588","name":"Nguyen Thi Thu Hien"},"100004025807179":{"id":"100004025807179","name":"Khoảng Lặng"},"100000770988801":{"id":"100000770988801","name":"Tung Le"},"100005271433446":{"id":"100005271433446","name":"Nguyentan Thang"},"100003038212989":{"id":"100003038212989","name":"Hoàng Duy"},"100003568206957":{"id":"100003568206957","name":"Dece Ngthv"},"100000177841596":{"id":"100000177841596","name":"Xelena Sanyo"},"100007029815593":{"id":"100007029815593","name":"Ngoc Nguyen"},"100003100250200":{"id":"100003100250200","name":"Thien Truong"},"100003704198037":{"id":"100003704198037","name":"Thinnguyenktdn Nguyen"},"100003692359896":{"id":"100003692359896","name":"Nguyen Nhung"},"100006263888044":{"id":"100006263888044","name":"Hoàng Oanh"}},"paging":{"cursors":{"after":"MTAwMDA0NDQ1ODI2OTg0","before":"MTAwMDA0NDQ1ODI2OTg0"},"next":"https://graph.facebook.com/229244010425617_851166604900018/likes?limit=1&summary=1&after=MTAwMDA0NDQ1ODI2OTg0"},"summary":{"total_count":14}},"comments":{"data":{"851167238233288":{"id":"851167238233288","from":{"id":"100004375364623","name":"Quang Lê"},"message":"http://duhochoasen.com/du-hoc-nhat-ban-hay-xuat-khau-lao-dong/\nKhông biết có giúp được bạn nhiều không....","can_remove":false,"created_time":"2014-04-14T06:00:38+0000","like_count":1,"user_likes":false},"851168241566521":{"id":"851168241566521","from":{"id":"100001675994847","name":"Khánh Phượng"},"message":"Đi xkld thì ko học tiếng nhiều còn đi du học thì chủ yếu là học và bị hạn chế giờ làm","can_remove":false,"created_time":"2014-04-14T06:05:39+0000","like_count":0,"user_likes":false},"851168811566464":{"id":"851168811566464","from":{"id":"100003281703428","name":"Khánh Tây Môn"},"message":"cho em hỏi mình lam 28h/tuần ,công viêc đó mình tự tìm phù hợp với mình hay sao ạ","can_remove":false,"created_time":"2014-04-14T06:07:56+0000","like_count":0,"user_likes":false},"851168914899787":{"id":"851168914899787","from":{"id":"100006347431607","name":"Tai Phan"},"message":"Đi du học bạn ơi!nếu bạn quyết định đi du học thì liên hệ với mình nhé!","can_remove":false,"created_time":"2014-04-14T06:08:21+0000","like_count":0,"user_likes":false},"851169088233103":{"id":"851169088233103","from":{"id":"100001675994847","name":"Khánh Phượng"},"message":"Do trường hoặc bạn từ tìm nếu có khả năng","can_remove":false,"created_time":"2014-04-14T06:09:04+0000","like_count":1,"user_likes":false},"851169318233080":{"id":"851169318233080","from":{"id":"100003281703428","name":"Khánh Tây Môn"},"message":"còn không có khả năng thi mình lam ntn bạn","can_remove":false,"created_time":"2014-04-14T06:10:00+0000","like_count":0,"user_likes":false},"851169488233063":{"id":"851169488233063","from":{"id":"100001675994847","name":"Khánh Phượng"},"message":"Do trường họ sẽ tìm cv phù hợp với bạn","can_remove":false,"created_time":"2014-04-14T06:10:47+0000","like_count":0,"user_likes":false},"851169558233056":{"id":"851169558233056","from":{"id":"100003281703428","name":"Khánh Tây Môn"},"message":"dạ ,em cảm ơn","can_remove":false,"created_time":"2014-04-14T06:11:09+0000","like_count":0,"user_likes":false},"851169774899701":{"id":"851169774899701","from":{"id":"100002918208166","name":"Quan Okmen"},"message":"nếu muốn chết thì đi du học......... còn   đi xkld mà kiếm tiền","can_remove":false,"created_time":"2014-04-14T06:11:32+0000","like_count":2,"user_likes":false},"851170668232945":{"id":"851170668232945","from":{"id":"100004375364623","name":"Quang Lê"},"message":"Nặng nề thế. Chết hay không là do mình thôi...","can_remove":false,"created_time":"2014-04-14T06:14:50+0000","like_count":0,"user_likes":false},"851171041566241":{"id":"851171041566241","from":{"id":"100003281703428","name":"Khánh Tây Môn"},"message":"cho em hỏi mình đi du học thì trình độ tiếng nhật của mình ntn là đủ dk ạ","can_remove":false,"created_time":"2014-04-14T06:16:32+0000","like_count":0,"user_likes":false},"851171491566196":{"id":"851171491566196","from":{"id":"100004375364623","name":"Quang Lê"},"message":"Bằng năng lực Nhật Ngữ cấp độ tối thiểu là N5. Nhưng càng giỏi thì qua bển càng khỏe....","can_remove":false,"created_time":"2014-04-14T06:18:51+0000","like_count":1,"user_likes":false},"851173344899344":{"id":"851173344899344","from":{"id":"100003281703428","name":"Khánh Tây Môn"},"message":"dạ.em chân thành cảm ơn ac","can_remove":false,"created_time":"2014-04-14T06:27:33+0000","like_count":0,"user_likes":false},"851173831565962":{"id":"851173831565962","from":{"id":"100000600815626","name":"KqlTwo MeoHen"},"message":"Nghe đâu CP Nhật sẽ mang xe chở lợn đi hốt hết cộng đồng người Việt ở Nhật chất lên container và chở họ về nước qua đường biển... :v","can_remove":false,"created_time":"2014-04-14T06:29:25+0000","like_count":1,"user_likes":false},"851174081565937":{"id":"851174081565937","from":{"id":"100000500260636","name":"Lưu Nguyễn Thảo Tiên"},"message":"Tiền làm thêm k đủ để bạn trả học phí đâu đừng có dại nếu k co tương lai trên 6nam ở Nhật.","can_remove":false,"created_time":"2014-04-14T06:30:24+0000","like_count":2,"user_likes":false},"851174094899269":{"id":"851174094899269","from":{"id":"100004096243144","name":"Shorai Nguyễn"},"message":"Nếu bạn đi du học phải n3 trở lên mới dễ xin việc làm thêm nhé.đi làm thêm chỉ đủ tiền nhà va tiền ăn thôi bạn nhé","can_remove":false,"created_time":"2014-04-14T06:30:30+0000","like_count":0,"user_likes":false},"851174254899253":{"id":"851174254899253","from":{"id":"100003281703428","name":"Khánh Tây Môn"},"message":"dạ em đang ở N4","can_remove":false,"created_time":"2014-04-14T06:31:08+0000","like_count":1,"user_likes":false},"851175291565816":{"id":"851175291565816","from":{"id":"100000500260636","name":"Lưu Nguyễn Thảo Tiên"},"message":"Nói là vậy chứ n3 qua đây như con nít vậy có nói đc tiếng Nhật đâu, n2 may ra còn ú ớ chút ít cỡ n3-n2 rồi muốn đi thì đi.","can_remove":false,"created_time":"2014-04-14T06:35:51+0000","like_count":0,"user_likes":false},"851175604899118":{"id":"851175604899118","from":{"id":"100004452123869","name":"Pham Tiên Bach"},"message":"cần học tiếng tốt 1 chút giúp ích nhiều cho mình.vì bạn có bằng đại học theo mình lên đi du học có tiếng sẽ tốt rất nhiều.đi xklđ có tiền trước mắt sau này về tiếng bập bẽ lại bắt đầu lại cũng rất mệt","can_remove":false,"created_time":"2014-04-14T06:37:11+0000","like_count":1,"user_likes":false},"851175754899103":{"id":"851175754899103","from":{"id":"100003281703428","name":"Khánh Tây Môn"},"message":"và trình độ anh văn thì ntn ạ","can_remove":false,"created_time":"2014-04-14T06:37:55+0000","like_count":0,"user_likes":false},"851175974899081":{"id":"851175974899081","from":{"id":"100004452123869","name":"Pham Tiên Bach"},"message":"vì sang bên nhật cần tiếng nhật chứ ,tiêng anh có càng tốt ,chủ yếu là tiêng nhật tôt vì sang bên nhật xin việc hay nói chuyện chủ yếu là tiêng nhật mà","can_remove":false,"created_time":"2014-04-14T06:39:12+0000","like_count":1,"user_likes":false},"851176294899049":{"id":"851176294899049","from":{"id":"100000500260636","name":"Lưu Nguyễn Thảo Tiên"},"message":"Anh văn qua đây cũng công cốc chỉ la xí xa xí xồ cho vui thôi, và có cái bằng mốt học cao dễ hơn. Nếu bạn tự tin có thể diễn tả tiếng anh bằng tiếng anh được thì tự tin đc. Tiếng Anh kiểu \"sách vở\" k nói đc thì dẹp luôn.","can_remove":false,"created_time":"2014-04-14T06:39:42+0000","like_count":1,"user_likes":false},"851177514898927":{"id":"851177514898927","from":{"id":"100003281703428","name":"Khánh Tây Môn"},"message":"anh chị có tài liệu nào hay không cho em xin với","can_remove":false,"created_time":"2014-04-14T06:45:12+0000","like_count":0,"user_likes":false},"851178198232192":{"id":"851178198232192","from":{"id":"100007917634982","name":"Cry Cry"},"message":"Nếu đi xkld của bạn là đơn hàng viza Ktv Xây dựng thì còn được. Nếu là tu nghiệp xd thì mình khuyên bạn k nên đi. Du học để kiếm tiền thì càng k. Gia đình có đk cho sang học thì mịnh k nói :3","can_remove":false,"created_time":"2014-04-14T06:47:45+0000","like_count":3,"user_likes":false},"851178564898822":{"id":"851178564898822","from":{"id":"100003281703428","name":"Khánh Tây Môn"},"message":"anh có thể nói rõ hơn dược không","can_remove":false,"created_time":"2014-04-14T06:49:24+0000","like_count":0,"user_likes":false},"851179328232079":{"id":"851179328232079","from":{"id":"100007917634982","name":"Cry Cry"},"message":"Tu nghiệp sinh Xây dựng bên Nhật bắt đầu gia hạn viza lên 5 năm nhưng đặc thù ngành làm ngoài trời, công việc vất vả , it hoặc hầu như k có làm thêm. Còn nếu bạn là viza kĩ thuật viên thì bạn có thể chuyển đổi công ty khác tự do","can_remove":false,"created_time":"2014-04-14T06:53:00+0000","like_count":0,"user_likes":false},"851179598232052":{"id":"851179598232052","from":{"id":"100003281703428","name":"Khánh Tây Môn"},"message":"dạ em hiểu rồi,em cam ơn a","can_remove":false,"created_time":"2014-04-14T06:54:04+0000","like_count":0,"user_likes":false},"851190411564304":{"id":"851190411564304","from":{"id":"824089766","name":"Le Dai"},"message":"Đã có bằng ĐH thì ko phải đi xuất khẩu lao động làm gì, vào 1 số trung tâm đào tạo tiếng Nhật mà họ sẽ giới thiệu công ty Nhật đến phỏng vấn sau khi khóa học kết thúc, vừa được sang Nhật với tư cách kỹ sư vừa ko mất tiền môi giới, visa lại ko bị hạn chế này nọ, có thể định cư luôn bên Nhật nếu ký hợp đồng dài hạn.","can_remove":false,"created_time":"2014-04-14T07:36:01+0000","like_count":1,"user_likes":false},"851191938230818":{"id":"851191938230818","from":{"id":"100001715078484","name":"Phan Trung Hiếu"},"message":"http://vinaincomex.vn/tuyen-8-ky-su-xay-dung-di-lam-viec-tai-nhat-ban/","can_remove":false,"created_time":"2014-04-14T07:40:20+0000","like_count":1,"user_likes":false},"851192928230719":{"id":"851192928230719","from":{"id":"824089766","name":"Le Dai"},"message":"Học bên VN độ 1 năm gì đấy để đảm bảo tiếng Nhật có thể phỏng vấn được, sau đó cty Nhật sẽ cử người sang VN phỏng vấn.","can_remove":false,"created_time":"2014-04-14T07:42:38+0000","like_count":0,"user_likes":false},"851193758230636":{"id":"851193758230636","from":{"id":"100007200463323","name":"Ca Bong"},"message":"Đi xuất khâu đi chứ đi du học không có tiền đâu","can_remove":false,"created_time":"2014-04-14T07:44:38+0000","like_count":0,"user_likes":false},"851194464897232":{"id":"851194464897232","from":{"id":"100003281703428","name":"Khánh Tây Môn"},"message":"Vay la khong gioi han nang luc tieng nhat ,minh co kha nang phong van la duoc phai khong anh","can_remove":false,"created_time":"2014-04-14T07:46:29+0000","like_count":0,"user_likes":false},"851195028230509":{"id":"851195028230509","from":{"id":"100007200463323","name":"Ca Bong"},"message":"Đi xuất khâu tuy tg ngắn nhưng có tiền","can_remove":false,"created_time":"2014-04-14T07:48:26+0000","like_count":0,"user_likes":false},"851195181563827":{"id":"851195181563827","from":{"id":"100001715078484","name":"Phan Trung Hiếu"},"message":"tiếng nhật thì để phỏng vấn đc tốt bạn học đc trình độ N5 hoặc N4 là cũng ổn rồi","can_remove":false,"created_time":"2014-04-14T07:49:05+0000","like_count":0,"user_likes":false},"851195314897147":{"id":"851195314897147","from":{"id":"100003568206957","name":"Dece Ngthv"},"message":"quyết tâm đi du học chứ đừng xklđ bạn nhé ^^","can_remove":false,"created_time":"2014-04-14T07:49:39+0000","like_count":0,"user_likes":false},"851195574897121":{"id":"851195574897121","from":{"id":"100007200463323","name":"Ca Bong"},"message":"Đi du học thì tg dài nhưng để có tiền gửi về thì cũng trật vật lắm sang đây ít nhất 1 năm mới chuyển bằng sang kĩ thuật viên được","can_remove":false,"created_time":"2014-04-14T07:50:38+0000","like_count":0,"user_likes":false},"851196561563689":{"id":"851196561563689","from":{"id":"100006155316288","name":"Nhat Thanh Nguyễn"},"message":"Đi tu nghiep hon e ah, đi du hoc vat lam","can_remove":false,"created_time":"2014-04-14T07:54:09+0000","like_count":0,"user_likes":false},"851197288230283":{"id":"851197288230283","from":{"id":"100007200463323","name":"Ca Bong"},"message":"Thấy chưa em đi du học nên khổ lắm nên em bảo thật đừng đi du học","can_remove":false,"created_time":"2014-04-14T07:55:45+0000","like_count":0,"user_likes":false},"851197841563561":{"id":"851197841563561","from":{"id":"100007200463323","name":"Ca Bong"},"message":"Dc bạn ah","can_remove":false,"created_time":"2014-04-14T07:58:50+0000","like_count":0,"user_likes":false},"851197964896882":{"id":"851197964896882","from":{"id":"100001715078484","name":"Phan Trung Hiếu"},"message":"bạn tn đâị học thì tốt nhất là đi chương trình kỹ sư. đi tu nghiệp xd thì lương thấp hơn và vất vả hơn","can_remove":false,"created_time":"2014-04-14T07:59:16+0000","like_count":0,"user_likes":false},"851201288229883":{"id":"851201288229883","from":{"id":"100008144912538","name":"Hoàng Chính"},"message":"Co bằng kỹ sư roi thi nen di du học, mjnh cũng tot nghiep đh đây, du hoc xong khi về nuoc co tuong lại hon","can_remove":false,"created_time":"2014-04-14T08:11:00+0000","like_count":0,"user_likes":false},"851202558229756":{"id":"851202558229756","from":{"id":"100008144912538","name":"Hoàng Chính"},"message":"Sau khi hoc tiéng xong nếu thi đc vào đh thi hoc them 4 nam nua","can_remove":false,"created_time":"2014-04-14T08:13:36+0000","like_count":0,"user_likes":false},"851211868228825":{"id":"851211868228825","from":{"id":"569263718","name":"Phuong Thao Tran"},"message":"đã xóa hết cmt không dấu của Khánh Tây Môn, nếu tiếp tục sẽ xóa bài và xóa nick luôn nhé!","message_tags":[{"id":"100003281703428","name":"Khánh Tây Môn","type":"user","offset":29,"length":13}],"can_remove":false,"created_time":"2014-04-14T08:30:41+0000","like_count":0,"user_likes":false},"851215711561774":{"id":"851215711561774","from":{"id":"100002889530069","name":"Doãn Thế Anh"},"message":"Nghe cái tên của bạn đã hiểu là tại sao ko xin đc việc rồi","can_remove":false,"created_time":"2014-04-14T08:42:25+0000","like_count":1,"user_likes":false},"851229581560387":{"id":"851229581560387","from":{"id":"100001256731971","name":"Khải Đăng Dũng"},"message":"Mình có thể tư vấn giúp bạn về việc đi lao động tại Nhật qua visa kỹ sư. Mình hiện đang làm việc tại Nhật bằng Visa kỹ sư. Mình mới qua được 3 tháng. Nếu thấy có ích thì inbox mình. Chúc bạn may mắn.","can_remove":false,"created_time":"2014-04-14T09:23:18+0000","like_count":0,"user_likes":false},"851229788227033":{"id":"851229788227033","from":{"id":"100001256731971","name":"Khải Đăng Dũng"},"message":"Theo mình thì bạn nên đi lao động dạng kỹ sư là ổn nhất. Đi du học, không ít dủi do, còn đi lao động TNS thì hơi phí. hihi","can_remove":false,"created_time":"2014-04-14T09:24:09+0000","like_count":1,"user_likes":false},"851240678225944":{"id":"851240678225944","from":{"id":"100005441644764","name":"Bố Tao Đầy Tiền"},"message":"cao đẳng đc ko  anh Khải Đăng Dũng","can_remove":false,"created_time":"2014-04-14T09:58:39+0000","like_count":0,"user_likes":false},"851244511558894":{"id":"851244511558894","from":{"id":"100003281703428","name":"Khánh Tây Môn"},"message":"dạ.em cảm ơn anh Khải Đăng Dũng .","can_remove":false,"created_time":"2014-04-14T10:13:47+0000","like_count":0,"user_likes":false},"851244718225540":{"id":"851244718225540","from":{"id":"100001416272263","name":"Mai PB"},"message":"Bạn Khải Đăng Dũng có thể viết bài tư vấn ngay trên group cho mọi ng tham khảo không?","can_remove":false,"created_time":"2014-04-14T10:14:51+0000","like_count":1,"user_likes":false},"851245974892081":{"id":"851245974892081","from":{"id":"100005441644764","name":"Bố Tao Đầy Tiền"},"message":"e đi du học rồi nhưng e cũng đã có bằng cđ ở Việt Nam! chuyên ngành đt nhưng h học song tiếng e muốn đi làm","can_remove":false,"created_time":"2014-04-14T10:18:18+0000","like_count":0,"user_likes":false},"851247051558640":{"id":"851247051558640","from":{"id":"100005441644764","name":"Bố Tao Đầy Tiền"},"message":"ko muốn học nên nữa học tiếng đã vất vả rồi học nữa làm sao hiểu đc mà học hả mấy bà tư vấn du học tương với chả lai ai đảm bảo tương lai mấy bà toàn đưa thông tin vớ vẩn lừa đảo chết hết đi cho rồi","can_remove":false,"created_time":"2014-04-14T10:20:57+0000","like_count":1,"user_likes":false},"851300561553289":{"id":"851300561553289","from":{"id":"100001256731971","name":"Khải Đăng Dũng"},"message":"Mình không phải là người môi giới. Mình đi được là nhờ có người môi giới. Chi phí khá cao, mặc dù mình sống ở đây (qua được 3 tháng), mọi thứ cũng chưa thực sự ổn định. Nhưng mình cảm thấy quyết định sang Nhật với visa này là chuẩn nhất. \nCông ty đã đưa mình đi theo cách tuyển qua form hoặc phỏng vấn qua Skype. Khi đạt được sự thỏa thuận thì bắt đầu xin giấy tờ, tư cách lưu trú. \nKhông ai dám hứa là bao nhiêu lâu bạn có thể đi. Điều đó tùy thuộc nhiều yếu tố. Bằng chuẩn( ĐH hoặc CĐ chính quy), chuyên ngành phù hợp (Xây dựng và cơ khí thưởng tuyển nhiều), kinh nghiệm làm việc .... và cả may mắn nữa. \nMình nộp hồ sơ vào tháng 7/2013. đến tháng 01/2014 thì sang đây.","can_remove":false,"created_time":"2014-04-14T12:33:03+0000","like_count":1,"user_likes":false},"851300964886582":{"id":"851300964886582","from":{"id":"100001256731971","name":"Khải Đăng Dũng"},"message":"Bố bạn nhiều tiền rồi thì khuyên bạn đừng đi đâu nhé. Sống trên đất nước của ng ta, nói tiếng người ta. Chắc chắn là sẽ khổ hơn ở VN rồi. @@","can_remove":false,"created_time":"2014-04-14T12:33:51+0000","like_count":1,"user_likes":false},"851301398219872":{"id":"851301398219872","from":{"id":"100005441644764","name":"Bố Tao Đầy Tiền"},"message":"mình đang bên nhật rồi nhưng đi theo du học muốn đi lÀm rồi về","can_remove":false,"created_time":"2014-04-14T12:35:00+0000","like_count":0,"user_likes":false},"851302874886391":{"id":"851302874886391","from":{"id":"100001256731971","name":"Khải Đăng Dũng"},"message":"Thế thì tự đi xin việc, chứ sao giờ nữa. @@","can_remove":false,"created_time":"2014-04-14T12:38:00+0000","like_count":1,"user_likes":false},"851302924886386":{"id":"851302924886386","from":{"id":"100001256731971","name":"Khải Đăng Dũng"},"message":"bên này rồi thì thiếu gì việc","can_remove":false,"created_time":"2014-04-14T12:38:08+0000","like_count":1,"user_likes":false},"851303611552984":{"id":"851303611552984","from":{"id":"100005441644764","name":"Bố Tao Đầy Tiền"},"message":"khá khó 紹介してお願いします","can_remove":false,"created_time":"2014-04-14T12:39:33+0000","like_count":0,"user_likes":false},"851363161547029":{"id":"851363161547029","from":{"id":"100000154183383","name":"Nguyễn Quang Minh"},"message":"1 cái là kiếm tiền, 1 cái là tiêu tiền ^^ nếu bạn là 1 kỹ sư thì nên kiếm 1 vài chương trình đi dạng kỹ sư, lg cao hơn chút, ở lâu hơn chút ^^","can_remove":false,"created_time":"2014-04-14T14:48:06+0000","like_count":1,"user_likes":false},"851368864879792":{"id":"851368864879792","from":{"id":"100003281703428","name":"Khánh Tây Môn"},"message":"dạ.em chân thành cảm ơn tất cả mọi người","can_remove":false,"created_time":"2014-04-14T14:58:25+0000","like_count":0,"user_likes":false},"851815441501801":{"id":"851815441501801","from":{"id":"100004075370074","name":"Hanh NguyenThi"},"message":"XKLD : - Ưu : Am phận thủ thường, lương ký hợp đồng bao nhiêu thi nhân bấy nhiêu, hết thời hạn thì bắt buộc phải về nước (muốn ở lại thêm cũng ko đc)","can_remove":false,"created_time":"2014-04-15T09:00:07+0000","like_count":0,"user_likes":false},"851817834834895":{"id":"851817834834895","from":{"id":"100006134343042","name":"Thân Phạm"},"message":"O nh la lanh nhat jo moi bit mjh ngu","can_remove":false,"created_time":"2014-04-15T09:08:44+0000","like_count":0,"user_likes":false},"851826778167334":{"id":"851826778167334","from":{"id":"100004075370074","name":"Hanh NguyenThi"},"message":"Du học: Vât vả hơn vì vừa phải đi học vừa đi làm. Năm đầu lương thấp, đến năm thứ 2 lương bằng lương XKLD hoặc cao hơn gấp đôi (nếu bạn kiếm được 2 việc làm thêm, tuy nhiên vẫn phải đảm bảo các điều kiện bên truong quy định). Học xong trường tiếng bạn có thể ở Nhật thời gian tùy thích (Nếu tiếng Nhật của bạn tốt có thể xin vào Cty nhật làm việc làm việc, hoặc Tiếng chưa tốt bạn học len Đại học , cao đẳng , trung cấp tùy thich) Sau khi về nước đảm bảo bạn se kiếm được công việc tốt với mức lương cao.","can_remove":false,"created_time":"2014-04-15T09:27:27+0000","like_count":0,"user_likes":false},"851827501500595":{"id":"851827501500595","from":{"id":"100005441644764","name":"Bố Tao Đầy Tiền"},"message":"khó","can_remove":false,"created_time":"2014-04-15T09:29:48+0000","like_count":0,"user_likes":false},"851829081500437":{"id":"851829081500437","from":{"id":"100000469475474","name":"Hùng Nguyễn Duy"},"message":"Số người du học kiếm đc lương gấp đôi xkld là bn % ? ngày làm bn tiêng, học bn tiếng, nghỉ ngơi con bn tiếng? m mới sang thấy mấy b du học sang 1 năm 2 năm toàn kêu ngày ngủ 4 tiếng vs 2 tiếng, làm thêm suốt ms đc ~18 man 1 tháng đủ tiền học , ăn ở.. Giờ có phải cứ muốn làm thêm là dc đâu, c có bằng dh rồi nên tim cách đi theo KTV,","can_remove":false,"created_time":"2014-04-15T09:34:59+0000","like_count":1,"user_likes":false},"851829364833742":{"id":"851829364833742","from":{"id":"100005441644764","name":"Bố Tao Đầy Tiền"},"message":"そう","can_remove":false,"created_time":"2014-04-15T09:36:13+0000","like_count":0,"user_likes":false},"851829408167071":{"id":"851829408167071","from":{"id":"100005441644764","name":"Bố Tao Đầy Tiền"},"message":"そう","can_remove":false,"created_time":"2014-04-15T09:36:19+0000","like_count":0,"user_likes":false},"851835858166426":{"id":"851835858166426","from":{"id":"100005396618355","name":"Ông Nội Mày Đây"},"message":"thế là đi du học tốt hơn hay lao đọng tốt hơn","can_remove":false,"created_time":"2014-04-15T09:43:18+0000","like_count":0,"user_likes":false},"851837631499582":{"id":"851837631499582","from":{"id":"100005441644764","name":"Bố Tao Đầy Tiền"},"message":"ở nhà mà làm chăm chỉ là tốt nhất chót đâm lao phải theo lao thôi ở nhà có thể làm người sang bên này chỉ làm trâu thay người mà còn ko biết có đủ mang vốn về ko ở nhà cống hiến cho nước nhà cho gđ là tốt nhất","can_remove":false,"created_time":"2014-04-15T09:47:04+0000","like_count":2,"user_likes":false},"851846338165378":{"id":"851846338165378","from":{"id":"100000469475474","name":"Hùng Nguyễn Duy"},"message":"đi làm tốt hơn","can_remove":false,"created_time":"2014-04-15T10:06:19+0000","like_count":0,"user_likes":false}},"paging":{"cursors":{"after":"ODUxMTY3MjM4MjMzMjg4","before":"ODUxMTY3MjM4MjMzMjg4"},"next":"https://graph.facebook.com/229244010425617_851166604900018/comments?limit=1&summary=1&after=ODUxMTY3MjM4MjMzMjg4"},"summary":{"order":"chronological","total_count":69}}}