{"id":"229244010425617_851157454900933","type":"status","from":{"id":"100002508122689","name":"Vũ Mạnh Tuấn"},"message":"[Cần tư vấn học tiếng Nhật ở trung tâm]\n\nMình có 1 người bạn học cùng lớp, hiện giờ trình độ tiếng Nhật bị hổng khá nhiều do trước ko chú tâm học,và cũng không hứng thú học. Mặc dù đến nay đã học được 1 năm rưỡi , trình độ thực tế phải là cỡ trung cấp N3; nhưng bạn ấy chắc giờ chỉ ở giữa N5 và N4. Vì không theo kịp mọi người nên cảm thấy chán nản và ngại học.\n\nBạn ấy muốn đi học để bồi lại phần kiến thức đã hổng để theo kịp trên lớp. Mình có khuyên tốt nhất nên đi học ở trung tâm ( vì dù có tự học cũng khó, khi mà đã bị mất định hướng và không còn hứng thú ); nhưng không biết nhiều về các trung tâm tiếng Nhật.\n\nAnh chị hay các bạn nào biết có thể tư vấn cho mình cụ thể về trung tâm có thể giúp bạn ấy bồi lại khả năng tiếng Nhật được không? Nếu có thể thì cho mình biết cụ thể về lượng thời gian cần thiết, học phí, hoặc các vấn đề khác. \nAnh chị nào ở các trung tâm Nhật ngữ nếu có tham gia group thì có thể tư vấn giúp không ạ.\n\nXin chân thành cảm ơn mọi người !","created_time":"2014-04-14T05:26:43+0000","updated_time":"2014-04-14T23:32:12+0000","likes":{"data":{"100001122451473":{"id":"100001122451473","name":"Lavender Cullen"},"100000500260636":{"id":"100000500260636","name":"Lưu Nguyễn Thảo Tiên"},"100007029815593":{"id":"100007029815593","name":"Ngoc Nguyen"},"100000292556230":{"id":"100000292556230","name":"Duy Anh Phạm"},"100002949055983":{"id":"100002949055983","name":"Joke Nguyễn"},"100003796430338":{"id":"100003796430338","name":"Cường Ađam Z"},"100007797156820":{"id":"100007797156820","name":"Sói Già"},"100005127511607":{"id":"100005127511607","name":"Cobe Kaun"}},"paging":{"cursors":{"after":"MTAwMDAxMTIyNDUxNDcz","before":"MTAwMDAxMTIyNDUxNDcz"},"next":"https://graph.facebook.com/229244010425617_851157454900933/likes?limit=1&summary=1&after=MTAwMDAxMTIyNDUxNDcz"},"summary":{"total_count":8}},"comments":{"data":{"851158661567479":{"id":"851158661567479","from":{"id":"100007797156820","name":"Sói Già"},"message":"anh nghe dân face đồn có trung tâm ở núi trúc hay lắm mà","can_remove":false,"created_time":"2014-04-14T05:31:23+0000","like_count":0,"user_likes":false},"851158751567470":{"id":"851158751567470","from":{"id":"1824015127","name":"Bùi Quang Tân"},"message":"Núi Trúc dậy siêu chậm","can_remove":false,"created_time":"2014-04-14T05:31:59+0000","like_count":0,"user_likes":false},"851158894900789":{"id":"851158894900789","from":{"id":"100007797156820","name":"Sói Già"},"message":"vậy ở mô rứa?","can_remove":false,"created_time":"2014-04-14T05:32:33+0000","like_count":0,"user_likes":false},"851159084900770":{"id":"851159084900770","from":{"id":"100003058280462","name":"Đặng Văn Thành"},"message":"@@!","can_remove":false,"created_time":"2014-04-14T05:33:49+0000","like_count":0,"user_likes":false},"851160001567345":{"id":"851160001567345","from":{"id":"100007200463323","name":"Ca Bong"},"message":"Vế trung tâm của HAVICO ngách 14/100 khu tập thể ngân hàng - Hoàng  Quốc Việt - Cầu Giấy HN","can_remove":false,"created_time":"2014-04-14T05:37:50+0000","like_count":0,"user_likes":false},"851161574900521":{"id":"851161574900521","from":{"id":"100005122151391","name":"Phố Hẹn Hò"},"message":"Núi trúc bạn nhé.dạy rất chắc.","can_remove":false,"created_time":"2014-04-14T05:43:41+0000","like_count":1,"user_likes":false},"851162528233759":{"id":"851162528233759","from":{"id":"100000303662777","name":"Trang Táo Mèo"},"message":"Nếu có thể học trog thời gian dài thì nên chọn núi trúc :-)","can_remove":false,"created_time":"2014-04-14T05:45:50+0000","like_count":0,"user_likes":false},"851168728233139":{"id":"851168728233139","from":{"id":"100001016429049","name":"Huong Le"},"message":"bạn của bạn hiện đang ở đâu?","can_remove":false,"created_time":"2014-04-14T06:07:41+0000","like_count":0,"user_likes":false},"851168891566456":{"id":"851168891566456","from":{"id":"100007797156820","name":"Sói Già"},"message":"Huong Le ở Hà Nội","can_remove":false,"created_time":"2014-04-14T06:08:15+0000","like_count":0,"user_likes":false},"851169084899770":{"id":"851169084899770","from":{"id":"100001016429049","name":"Huong Le"},"message":"hic, vậy mình không biết rồi, mình ở SG :)","can_remove":false,"created_time":"2014-04-14T06:09:02+0000","like_count":0,"user_likes":false},"851169451566400":{"id":"851169451566400","from":{"id":"100007797156820","name":"Sói Già"},"message":"ko sao đâu ít nhất cũng cảm ơn vì bạn sẵn lòng giúp","can_remove":false,"created_time":"2014-04-14T06:10:33+0000","like_count":1,"user_likes":false},"851180598231952":{"id":"851180598231952","from":{"id":"100006116286615","name":"You Hana"},"message":"tìm 1 gia sư riêng, lấp chỗ hổng cho bạn ý thì sẽ tốt hơn, ở trung tâm nào bây giờ cũng dạy kiểu, tuần 3 buổi: thì 2 buổi hết 1 bài, mà tuần 5 buổi: thì 3 buổi/2 bài. Nên mình nghĩ sẽ không hiểu quả bằng tìm gia sư riêng đâu","can_remove":false,"created_time":"2014-04-14T06:58:04+0000","like_count":0,"user_likes":false},"851207841562561":{"id":"851207841562561","from":{"id":"100001661472861","name":"Lê Hồng Nhung"},"message":"trình độ giữa N5 và N4 thì chắc phải học lại từ bài 25 rùi :D","can_remove":false,"created_time":"2014-04-14T08:18:16+0000","like_count":0,"user_likes":false},"851215861561759":{"id":"851215861561759","from":{"id":"100002667117211","name":"Nguyễn Cường"},"message":"Học đâu cũng vậy!! Bản thân không nổ lực thì đâu rồi lại vào đấy thôi!!!","can_remove":false,"created_time":"2014-04-14T08:42:56+0000","like_count":0,"user_likes":false},"851215864895092":{"id":"851215864895092","from":{"id":"100002508122689","name":"Vũ Mạnh Tuấn"},"message":"tìm gia sư dạy riêng cũng là 1 ý hay đấy nhỉ :D","can_remove":false,"created_time":"2014-04-14T08:42:56+0000","like_count":0,"user_likes":false},"851228331560512":{"id":"851228331560512","from":{"id":"100008115937632","name":"Minh Thuý"},"message":"Núi Trúc","can_remove":false,"created_time":"2014-04-14T09:18:50+0000","like_count":0,"user_likes":false},"851236508226361":{"id":"851236508226361","from":{"id":"100002950942558","name":"Le Hien"},"message":"anh nghĩ là tự học đi, cái căn bản là tinh thần học của bạn ấy, ko còn hứng thú, nếu đến trung tâm với tâm lý ỷ lại thế thì xong rồi lại tụt thôi -_-\nGiáo trình các kiểu các cô cho cả rồi, cứ bám lấy đấy mà học, chả cần đi đâu đâu. Chăm chỉ.","can_remove":false,"created_time":"2014-04-14T09:46:09+0000","like_count":0,"user_likes":false},"851302911553054":{"id":"851302911553054","from":{"id":"100002654686712","name":"Dương Nhật Minh"},"message":"Xuống học vs lớp bọn em í anh :D","can_remove":false,"created_time":"2014-04-14T12:38:06+0000","like_count":0,"user_likes":false},"851304201552925":{"id":"851304201552925","from":{"id":"100002508122689","name":"Vũ Mạnh Tuấn"},"message":"Dương Nhật Minh đk làm sao đc hả e :))","message_tags":[{"id":"100002654686712","name":"Dương Nhật Minh","type":"user","offset":0,"length":15}],"can_remove":false,"created_time":"2014-04-14T12:41:00+0000","like_count":0,"user_likes":false},"851304431552902":{"id":"851304431552902","from":{"id":"100002654686712","name":"Dương Nhật Minh"},"message":"Lớp em thỉnh thoảng có 1 anh K57 học mà :-/","can_remove":false,"created_time":"2014-04-14T12:41:36+0000","like_count":0,"user_likes":false},"851304724886206":{"id":"851304724886206","from":{"id":"100002654686712","name":"Dương Nhật Minh"},"message":"Mà hình như các tiết khác thì anh đấy học ở lớp E hay sao ấy :-/","can_remove":false,"created_time":"2014-04-14T12:42:04+0000","like_count":0,"user_likes":false},"851304831552862":{"id":"851304831552862","from":{"id":"100002508122689","name":"Vũ Mạnh Tuấn"},"message":"anh ý phải hủy tiếng Nhật hiện tại để học cùng các em đấy :))","can_remove":false,"created_time":"2014-04-14T12:42:21+0000","like_count":1,"user_likes":false},"851306954885983":{"id":"851306954885983","from":{"id":"100002654686712","name":"Dương Nhật Minh"},"message":"À ra thế, em không biết :D","can_remove":false,"created_time":"2014-04-14T12:47:50+0000","like_count":0,"user_likes":false},"851593988190613":{"id":"851593988190613","from":{"id":"100000065836904","name":"Trần Minh"},"message":"Ko có hứng thú học thì đừng có cố, kiếm cái gì có hứng thú mà làm. Ko cũng chẳng giải quyết đc cái gì.","can_remove":false,"created_time":"2014-04-14T23:32:12+0000","like_count":1,"user_likes":false}},"paging":{"cursors":{"after":"ODUxMTU4NjYxNTY3NDc5","before":"ODUxMTU4NjYxNTY3NDc5"},"next":"https://graph.facebook.com/229244010425617_851157454900933/comments?limit=1&summary=1&after=ODUxMTU4NjYxNTY3NDc5"},"summary":{"order":"chronological","total_count":24}}}