{"id":"229244010425617_851156071567738","type":"link","picture":"https://fbexternal-a.akamaihd.net/safe_image.php?d=AQAgCmzDwzNuzeqm&w=154&h=154&url=http%3A%2F%2Fshopaothuat.vn%2Fwp%2Fwp-content%2Fuploads%2Fcyril-takayama-ao-thuat-la-mot-thu-quyen-luc.jpg","link":"http://shopaothuat.vn/blog/cyril-takayama-ao-thuat-la-mot-thu-quyen-luc.html","from":{"id":"100000381394367","name":"Thành Nguyễn"},"message":"Nhà ảo thuật có một nửa dòng máu Nhât. Dù bị đuổi học nhưng anh đã thành công trên con đường mà mình đã chọn bằng chính mình đam mê của mình. Hãy xem đó là một ví dụ sống. Đừng từ bỏ đam mê của mình và ngày nào đó bạn sẽ thành công    http://shopaothuat.vn/blog/cyril-takayama-ao-thuat-la-mot-thu-quyen-luc.html","created_time":"2014-04-14T05:20:29+0000","updated_time":"2014-04-14T16:35:37+0000","likes":{"data":{"100001807609603":{"id":"100001807609603","name":"Nguyễn Khánh Huyền"},"100005051881072":{"id":"100005051881072","name":"Nhớ Nhớ"},"100006675074577":{"id":"100006675074577","name":"Tomato Lạnh"},"1725907325":{"id":"1725907325","name":"Nguyen Van Dung"},"100001754136107":{"id":"100001754136107","name":"Nguyễn Tuấn Vũ"},"100005145330760":{"id":"100005145330760","name":"Sơn Vũ"},"100007029815593":{"id":"100007029815593","name":"Ngoc Nguyen"},"100002946945433":{"id":"100002946945433","name":"Trang Ruby"},"100000040762045":{"id":"100000040762045","name":"Bình Minh"},"100002892549628":{"id":"100002892549628","name":"Hải Hà"},"100000500260636":{"id":"100000500260636","name":"Lưu Nguyễn Thảo Tiên"},"100004101363917":{"id":"100004101363917","name":"Lan Anh Mẫn"},"100004367679988":{"id":"100004367679988","name":"Kumi Nguyen"},"100005344084736":{"id":"100005344084736","name":"Nhất Nhất"},"100000022163023":{"id":"100000022163023","name":"Kafe Ore"},"100002508122689":{"id":"100002508122689","name":"Vũ Mạnh Tuấn"},"569263718":{"id":"569263718","name":"Phuong Thao Tran"},"100005083594005":{"id":"100005083594005","name":"Dương Minh Nhi"},"100000719054124":{"id":"100000719054124","name":"Toàn Duệ"},"100007797156820":{"id":"100007797156820","name":"Sói Già"}},"paging":{"cursors":{"after":"MTAwMDAxODA3NjA5NjAz","before":"MTAwMDAxODA3NjA5NjAz"},"next":"https://graph.facebook.com/229244010425617_851156071567738/likes?limit=1&summary=1&after=MTAwMDAxODA3NjA5NjAz"},"summary":{"total_count":20}},"comments":{"data":{"851156131567732":{"id":"851156131567732","from":{"id":"100000381394367","name":"Thành Nguyễn"},"message":"https://www.youtube.com/watch?v=Yr8wZO2kGc8&hd=1","can_remove":false,"created_time":"2014-04-14T05:20:46+0000","like_count":2,"user_likes":false},"851159848234027":{"id":"851159848234027","from":{"id":"100002508122689","name":"Vũ Mạnh Tuấn"},"message":"anh có thể giải thích nguyên lý hoạt động của cái màn ảo thuật kia ko anh Thành :3","can_remove":false,"created_time":"2014-04-14T05:36:57+0000","like_count":0,"user_likes":false},"851186634898015":{"id":"851186634898015","from":{"id":"100001444337943","name":"Macjanh"},"message":"đam mê khác với nghề nghiệp :D","can_remove":false,"created_time":"2014-04-14T07:20:20+0000","like_count":0,"user_likes":false},"851195178230494":{"id":"851195178230494","from":{"id":"100000381394367","name":"Thành Nguyễn"},"message":"Vũ Mạnh Tuấn tất cả các màn ảo thuật đều dựa trên một nguyên lý chung đó tìm cách lấp đầy những lỗ hổng trong nhận thức của con người bằng các ám thị mà nhà ảo thuật tạo ra. Nhận thức của con người thực ra là có tính gián đoạn chứ không phải liên tục, phần lớn các thông tin mà chúng ta nhìn thấy nghe thấy đều là do bộ não tự điền đầy vào những gì mà các giác quan thu thập được. \n\nCái này gọi là nhận thức dựa trên pattern, để giảm bớt sự quá tải cho mình bộ não tạo ra các pattern khi phát hiện ra sự vật thì chúng thường được đưa về các pattern có sẵn nếu chúng tương đối giống nhau\n\nví dụ trời tối chúng ta nhìn thấy cái dây thừng rất dễ giật mình tưởng là con rắn, chỉ khi xem xét kỹ mới phân biệt được, đó là vì con rắn có nhiều đặc điểm giống với cái dây thừng, khi trông thấy dây thừng não sẽ tự điền thêm các thông tin như mắt mũi, da  mà ta biết về con rắn vào cái dây thừng ( do cơ chế cảnh báo nguy hiểm mà bộ não thực hiện điều này ).  \n\nTrong các trình duyệt như chrome, fifefox etc.. cũng có cơ chế tương tự gọi là cookies, do người dùng thường xuyên vào 1 số trang web nên thông tin về các trang đó sẽ lưu trong cookies, lần sau vào thì browser không load các trang đó từ mạng về mà dùng ngay thông tin trong cookies, nếu check thấy thông tin không có khác biệt, chỉ khi refesh thì mới load lại. \n\nNếu vào trong cookies mà sửa content một trang dantri chẳng hạn thì ta có thể tạo ra một trang báo fake trên trình duyệt với hình ảnh Vũ Mạnh Tuấn đang nude vì môi trường, dù trên server máy chủ không phải như vậy. Việc làm của nhà ảo thuật cũng giống như can thiệp vào cookies vậy \n\nCòn về nguyên lý cụ thể hơn về ảo thuật trong clip kia muốn biết thêm thì phải đóng học phí.","message_tags":[{"id":"100002508122689","name":"Vũ Mạnh Tuấn","type":"user","offset":0,"length":12}],"can_remove":false,"created_time":"2014-04-14T07:49:04+0000","like_count":5,"user_likes":false},"851195714897107":{"id":"851195714897107","from":{"id":"100000381394367","name":"Thành Nguyễn"},"message":"Macjanh tất nhiên đam mê không phải là nghề nghiệp nhưng nếu theo đuổi nghề nghiệp mà mình đam mê thì khả năng thành công sẽ cao hơn.","can_remove":false,"created_time":"2014-04-14T07:51:05+0000","like_count":0,"user_likes":false},"851216901561655":{"id":"851216901561655","from":{"id":"100002508122689","name":"Vũ Mạnh Tuấn"},"message":"cảm ơn anh ạ. Nhưng dù sao em vẫn rất thắc mắc về cái mà - phải - đóng - học - phí mới có thể biết","can_remove":false,"created_time":"2014-04-14T08:46:08+0000","like_count":0,"user_likes":false},"851344494882229":{"id":"851344494882229","from":{"id":"1725907325","name":"Nguyen Van Dung"},"message":"em coi ông này không biết bao nhiêu tiếng đồng hồ rồi. Cũng học được vài chiêu khá hay :P","can_remove":false,"created_time":"2014-04-14T14:12:14+0000","like_count":0,"user_likes":false},"851373928212619":{"id":"851373928212619","from":{"id":"100000381394367","name":"Thành Nguyễn"},"message":"Học được chiêu gì thì đem ra đây show thôi","can_remove":false,"created_time":"2014-04-14T15:07:00+0000","like_count":1,"user_likes":false},"851389081544437":{"id":"851389081544437","from":{"id":"100000381394367","name":"Thành Nguyễn"},"message":"https://www.youtube.com/watch?v=WjDJ_74sEz8","can_remove":false,"created_time":"2014-04-14T15:29:50+0000","like_count":0,"user_likes":false},"851390534877625":{"id":"851390534877625","from":{"id":"100000381394367","name":"Thành Nguyễn"},"message":"https://www.youtube.com/watch?v=p37I5i6lA3Y","can_remove":false,"created_time":"2014-04-14T15:32:14+0000","like_count":0,"user_likes":false},"851406261542719":{"id":"851406261542719","from":{"id":"569263718","name":"Phuong Thao Tran"},"message":"xem anh chàng này biểu diễn là ghiền luôn á","can_remove":false,"created_time":"2014-04-14T16:05:18+0000","like_count":1,"user_likes":false},"851408518209160":{"id":"851408518209160","from":{"id":"1725907325","name":"Nguyen Van Dung"},"message":"Đúng đó chị^*\nHôm nào em biểu diễn chị coi nha :v","can_remove":false,"created_time":"2014-04-14T16:09:31+0000","like_count":0,"user_likes":false},"851409838209028":{"id":"851409838209028","from":{"id":"569263718","name":"Phuong Thao Tran"},"message":"Cyril Nguyen Van Dung biểu diễn à, ^^","message_tags":[{"id":"1725907325","name":"Nguyen Van Dung","type":"user","offset":6,"length":15}],"can_remove":false,"created_time":"2014-04-14T16:12:38+0000","like_count":1,"user_likes":false},"851422371541108":{"id":"851422371541108","from":{"id":"569263718","name":"Phuong Thao Tran"},"message":"nếu cần phụ diễn thì nói trước nhé, ^^","can_remove":false,"created_time":"2014-04-14T16:35:37+0000","like_count":0,"user_likes":false}},"paging":{"cursors":{"after":"ODUxMTU2MTMxNTY3NzMy","before":"ODUxMTU2MTMxNTY3NzMy"},"next":"https://graph.facebook.com/229244010425617_851156071567738/comments?limit=1&summary=1&after=ODUxMTU2MTMxNTY3NzMy"},"summary":{"order":"chronological","total_count":14}}}