{"id":"229244010425617_851222081561137","type":"status","from":{"id":"100000919140390","name":"Nhật Hoa"},"message":"Em xin phép các admin, đăng thông tin cơ hội việc làm cho các bạn học tiếng Nhật. \n\nThông tin tuyển dụng dành cho các bạn học tiếng Nhật có chuyên môn về CAD\n\n【Vị trí】 Kỹ sư (Làm việc tại Kyoto)\n\n【Nội dung công việc】　 Sử dụng phần mềm CAD để triển khai, chuyển đổi bản vẽ từ 3D sang 2D và ngược lại\n\n【Lương】20~22 man (có thể thương thảo thêm khi phỏng vấn)\n\n【Điều kiện ứng tuyển】\n●　Có chuyên môn về CAD\n ●　Tiếng Nhật: N4 trở lên\n\n ★　Tuyển dụng cả ứng viên đang sống tại Nhật và Việt Nam!　★\n\n ★　Hồ sơ ứng tuyển (có kèm ảnh) gửi về địa chỉ: le-thi-nhat-hoa@grop.co.jp \n Các bạn mạnh dạn ứng tuyển nha! Sẽ còn nhiều cơ hội nữa đó","created_time":"2014-04-14T09:01:03+0000","updated_time":"2014-04-15T05:34:25+0000","likes":{"data":{"100007201991334":{"id":"100007201991334","name":"Lona Tran Trannguyen"},"100001432462223":{"id":"100001432462223","name":"Truong Nguyen"},"1698221591":{"id":"1698221591","name":"Cao Thi Thuy Linh"},"100003276696481":{"id":"100003276696481","name":"Viet Đong"},"100001446655901":{"id":"100001446655901","name":"KaKa Lê"},"100000748161304":{"id":"100000748161304","name":"Henry Dam"},"100000106806242":{"id":"100000106806242","name":"Sai Dinh Thang"},"100000237315573":{"id":"100000237315573","name":"Tu Vu Van"},"100000394718832":{"id":"100000394718832","name":"Phan Nguyen Ai Van"},"100002041632385":{"id":"100002041632385","name":"Phạm Quang Thiện"},"100002094216506":{"id":"100002094216506","name":"Sky Blue"},"100004141328986":{"id":"100004141328986","name":"Dinh Thi THu Ha"},"100000319656890":{"id":"100000319656890","name":"Tớ Là Nam"}},"paging":{"cursors":{"after":"MTAwMDA3MjAxOTkxMzM0","before":"MTAwMDA3MjAxOTkxMzM0"},"next":"https://graph.facebook.com/229244010425617_851222081561137/likes?limit=1&summary=1&after=MTAwMDA3MjAxOTkxMzM0"},"summary":{"total_count":13}},"comments":{"data":{"851288371554508":{"id":"851288371554508","from":{"id":"100005271433446","name":"Nguyentan Thang"},"message":"ở việt nam có công ty của Nhật nào tuyển kỹ sư như vậy ko ạ","can_remove":false,"created_time":"2014-04-14T12:07:34+0000","like_count":0,"user_likes":false},"851344694882209":{"id":"851344694882209","from":{"id":"100000205520878","name":"Chú Kim"},"message":"KaKa Lê","message_tags":[{"id":"100001446655901","name":"KaKa Lê","type":"user","offset":0,"length":7}],"can_remove":false,"created_time":"2014-04-14T14:12:44+0000","like_count":1,"user_likes":false},"851371134879565":{"id":"851371134879565","from":{"id":"100001446655901","name":"KaKa Lê"},"message":"hê hê, arigatou anh Chú Kim, tháng 7 em mới thi N4:((","message_tags":[{"id":"100000205520878","name":"Chú Kim","type":"user","offset":20,"length":7}],"can_remove":false,"created_time":"2014-04-14T15:02:15+0000","like_count":0,"user_likes":false},"851409174875761":{"id":"851409174875761","from":{"id":"100001864793577","name":"Sakura Đhbkhn"},"message":"Bao gjo di dc ha e oi?","can_remove":false,"created_time":"2014-04-14T16:11:05+0000","like_count":0,"user_likes":false},"851416811541664":{"id":"851416811541664","from":{"id":"100004878002359","name":"Phúc Sinh"},"message":"KaKa Lê  bạn học xây dựng k bao nhiêu?","message_tags":[{"id":"100001446655901","name":"KaKa Lê","type":"user","offset":0,"length":7}],"can_remove":false,"created_time":"2014-04-14T16:25:59+0000","like_count":0,"user_likes":false},"851631208186891":{"id":"851631208186891","from":{"id":"100001446655901","name":"KaKa Lê"},"message":"mình học K54 bạn Phúc Sinh ạ, còn bạn:s","message_tags":[{"id":"100004878002359","name":"Phúc Sinh","type":"user","offset":17,"length":9}],"can_remove":false,"created_time":"2014-04-15T00:51:15+0000","like_count":0,"user_likes":false},"851750458174966":{"id":"851750458174966","from":{"id":"100004878002359","name":"Phúc Sinh"},"message":"KaKa Lê mình k56 nhưng sinh năm 91,học muộn bạn à","message_tags":[{"id":"100001446655901","name":"KaKa Lê","type":"user","offset":0,"length":7}],"can_remove":false,"created_time":"2014-04-15T05:34:25+0000","like_count":1,"user_likes":false}},"paging":{"cursors":{"after":"ODUxMjg4MzcxNTU0NTA4","before":"ODUxMjg4MzcxNTU0NTA4"},"next":"https://graph.facebook.com/229244010425617_851222081561137/comments?limit=1&summary=1&after=ODUxMjg4MzcxNTU0NTA4"},"summary":{"order":"chronological","total_count":7}}}