{"id":"229244010425617_851299434886735","type":"status","from":{"id":"100000003620958","name":"Thanh Tung Le"},"message":"có bạn nào đi tu nghiệp sinh ở CÔNG TY CỔ PHẦN KCS VIỆT NAM không ạ? công ty này có uy tín không các bạn? bạn nào biết thì trả lời giúp mình nha. cảm ơn các bạn nhiều","created_time":"2014-04-14T12:31:23+0000","updated_time":"2014-04-14T12:37:25+0000","comments":{"data":{"851301201553225":{"id":"851301201553225","from":{"id":"100006614261300","name":"Tao Cao Cường Đây"},"message":"google check TMS . oke","can_remove":false,"created_time":"2014-04-14T12:34:25+0000","like_count":0,"user_likes":false},"851302641553081":{"id":"851302641553081","from":{"id":"100000003620958","name":"Thanh Tung Le"},"message":"KCS và TMS có liên quan với nhau à bạn Tao Cao Cường Đây","message_tags":[{"id":"100006614261300","name":"Tao Cao Cường Đây","type":"user","offset":39,"length":17}],"can_remove":false,"created_time":"2014-04-14T12:37:25+0000","like_count":0,"user_likes":false}},"paging":{"cursors":{"after":"ODUxMzAxMjAxNTUzMjI1","before":"ODUxMzAxMjAxNTUzMjI1"},"next":"https://graph.facebook.com/229244010425617_851299434886735/comments?limit=1&summary=1&after=ODUxMzAxMjAxNTUzMjI1"},"summary":{"order":"chronological","total_count":2}},"likes":{"data":[]}}