{"id":"229244010425617_851262081557137","type":"status","from":{"id":"100004271412499","name":"Vũ Nghĩa"},"message":"mọi người cho em hỏi,học tới bài nào thì có thể thi đc N5 vậy ạ","created_time":"2014-04-14T11:05:25+0000","updated_time":"2014-04-15T07:08:37+0000","likes":{"data":{"100004057374771":{"id":"100004057374771","name":"Sao Bang Vo Tinh"},"100003683896765":{"id":"100003683896765","name":"Song La Phai Mo"},"100006614261300":{"id":"100006614261300","name":"Tao Cao Cường Đây"}},"paging":{"cursors":{"after":"MTAwMDA0MDU3Mzc0Nzcx","before":"MTAwMDA0MDU3Mzc0Nzcx"},"next":"https://graph.facebook.com/229244010425617_851262081557137/likes?limit=1&summary=1&after=MTAwMDA0MDU3Mzc0Nzcx"},"summary":{"total_count":3}},"comments":{"data":{"851263441557001":{"id":"851263441557001","from":{"id":"100006253482321","name":"Hoàng Đoàn Huy"},"message":"Bài 15","can_remove":false,"created_time":"2014-04-14T11:08:46+0000","like_count":0,"user_likes":false},"851263594890319":{"id":"851263594890319","from":{"id":"100004271412499","name":"Vũ Nghĩa"},"message":"còn kanji thì sao ạ","can_remove":false,"created_time":"2014-04-14T11:09:15+0000","like_count":0,"user_likes":false},"851265354890143":{"id":"851265354890143","from":{"id":"100000079295350","name":"Nguyễn Thái Thiên Ân"},"message":"ai dịch giúp e cái này với ạ","can_remove":false,"created_time":"2014-04-14T11:14:03+0000","like_count":1,"user_likes":false},"851271134889565":{"id":"851271134889565","from":{"id":"100004057374771","name":"Sao Bang Vo Tinh"},"message":"3tr","can_remove":false,"created_time":"2014-04-14T11:27:20+0000","like_count":0,"user_likes":false},"851294604887218":{"id":"851294604887218","from":{"id":"100005744975477","name":"Tuyết Mùa Hè"},"message":"t đang học bảng chữ vẫn thi đỗ đó","can_remove":false,"created_time":"2014-04-14T12:20:01+0000","like_count":0,"user_likes":false},"851296651553680":{"id":"851296651553680","from":{"id":"100002945776077","name":"Hoàng Mạnh Cường"},"message":"Bài 18 nếu học ko chắc còn học tốt thì bài 14 đỗ","can_remove":false,"created_time":"2014-04-14T12:24:42+0000","like_count":0,"user_likes":false},"851296964886982":{"id":"851296964886982","from":{"id":"100000198219367","name":"Chang Jiang"},"message":"Nguyễn Thái Thiên Ân:  \"Ít nhất muốn trở thành kỉ niệm của bạn\" :3","message_tags":[{"id":"100000079295350","name":"Nguyễn Thái Thiên Ân","type":"user","offset":0,"length":20}],"can_remove":false,"created_time":"2014-04-14T12:25:25+0000","like_count":1,"user_likes":false},"851304181552927":{"id":"851304181552927","from":{"id":"100000079295350","name":"Nguyễn Thái Thiên Ân"},"message":"ありがと　:v","can_remove":false,"created_time":"2014-04-14T12:40:54+0000","like_count":0,"user_likes":false},"851321771551168":{"id":"851321771551168","from":{"id":"100003751909185","name":"Hoang Gia Gia"},"message":"mình ngi pai hoctoibaif 25","can_remove":false,"created_time":"2014-04-14T13:23:19+0000","like_count":0,"user_likes":false},"851337498216262":{"id":"851337498216262","from":{"id":"100004271412499","name":"Vũ Nghĩa"},"message":"tuyet mua he,co thật là bạn đỗ n5","can_remove":false,"created_time":"2014-04-14T13:57:07+0000","like_count":0,"user_likes":false},"851625438187468":{"id":"851625438187468","from":{"id":"100007155522344","name":"Nghia Le"},"message":"hoc den bai 19 neu chac kien thuc,hoac hoac den bai 25 va 100 chu kanji nhju wa nhj","can_remove":false,"created_time":"2014-04-15T00:36:38+0000","like_count":0,"user_likes":false},"851639734852705":{"id":"851639734852705","from":{"id":"100006614261300","name":"Tao Cao Cường Đây"},"message":"học đủ điểm đỗ thì bai 17 18. còn để đỗ điểm tuyệt đối thì fai 25 bài chứ. mà học tiếng điều cốt lõi vẫn là fai Nói - nghe - viết cho người ta hiểu là cái đích cuối cùng mà","can_remove":false,"created_time":"2014-04-15T01:15:28+0000","like_count":1,"user_likes":false},"851720171511328":{"id":"851720171511328","from":{"id":"100004271412499","name":"Vũ Nghĩa"},"message":"e hiểu r,cảm ơn mọi người","can_remove":false,"created_time":"2014-04-15T03:57:40+0000","like_count":0,"user_likes":false},"851738171509528":{"id":"851738171509528","from":{"id":"100003069246142","name":"Hồng Trịnh"},"message":"Của giáo trình nào cơ?","can_remove":false,"created_time":"2014-04-15T04:55:26+0000","like_count":0,"user_likes":false},"851738364842842":{"id":"851738364842842","from":{"id":"100003069246142","name":"Hồng Trịnh"},"message":"Minna no hả bn","can_remove":false,"created_time":"2014-04-15T04:55:57+0000","like_count":0,"user_likes":false},"851777348172277":{"id":"851777348172277","from":{"id":"100004271412499","name":"Vũ Nghĩa"},"message":"vâng ạ","can_remove":false,"created_time":"2014-04-15T07:08:37+0000","like_count":0,"user_likes":false}},"paging":{"cursors":{"after":"ODUxMjYzNDQxNTU3MDAx","before":"ODUxMjYzNDQxNTU3MDAx"},"next":"https://graph.facebook.com/229244010425617_851262081557137/comments?limit=1&summary=1&after=ODUxMjYzNDQxNTU3MDAx"},"summary":{"order":"chronological","total_count":16}}}