{"id":"229244010425617_851277698222242","type":"photo","object_id":"682688751789722","picture":"https://fbcdn-photos-f-a.akamaihd.net/hphotos-ak-frc3/t1.0-0/10151859_682688751789722_4001569405662627745_s.jpg","link":"https://www.facebook.com/photo.php?fbid=682688751789722&set=gm.851277698222242&type=1&relevant_count=1","from":{"id":"100001458099624","name":"Kham Pha"},"message":"[Những dấu hiệu bạn đã ở Nhật quá lâu] Phần 6: Cúi người trong lúc gọi điện thoai\n\nTrong giao tiếp, Người Nhật có những thói quen sau:\n-Nói cảm ơn\n-Nói xin lỗi\n-Cúi chào \n-Cúi tạm biệt\n-Cúi cảm ơn\n-Cúi xin lỗi\n\nHọ làm những việc này thường ngày nhiều đến mức ngay cả khi nói chuyện điện thoại mà làm một trong mấy việc trên họ cũng cúi cả người luôn. Ở Nhật, nếu ra đường hoặc ở nơi làm việc bạn thấy một ai đó đang cầm điện thoại vừa nói chuyện vừa cúi chào rất nhiệt thành thì cũng đừng ngạc nhiên, cẩn thận chính bạn trong lúc vô thức cũng bắt đầu làm như vậy từ lúc nào không hay rồi đấy :)\n\nLink chuyên mục:\nhttps://www.facebook.com/notes/788876594462353\n\nCộng đồng Việt Nhật\n--Kham Pha","created_time":"2014-04-14T11:43:26+0000","updated_time":"2014-04-15T02:28:39+0000","likes":{"data":{"100006381426699":{"id":"100006381426699","name":"Asakura Yo"},"100003607680785":{"id":"100003607680785","name":"Nguyễn Văn Định"},"100000480097123":{"id":"100000480097123","name":"Phạm Kim Ngọc"},"100000677259087":{"id":"100000677259087","name":"Hue Lily"},"1148962646":{"id":"1148962646","name":"Tran Thi Tuong Van"},"100008077627185":{"id":"100008077627185","name":"Yumi San"},"100000516210564":{"id":"100000516210564","name":"Nguyen Thi Ha"},"100005124662797":{"id":"100005124662797","name":"Nguyen Van Duc"},"100004123327271":{"id":"100004123327271","name":"Nguyễn Phương"},"100000403689614":{"id":"100000403689614","name":"Vo Phuong"},"100004711450616":{"id":"100004711450616","name":"Hân Chocopie"},"1330346997":{"id":"1330346997","name":"Kieu Anh"},"100004915360462":{"id":"100004915360462","name":"Phamtuyen Pc"},"100002270706809":{"id":"100002270706809","name":"Heo Vịt Trời"},"100000045271667":{"id":"100000045271667","name":"Nam Thai Nguyen"},"100005098000109":{"id":"100005098000109","name":"Quynh Truong"},"100005887419564":{"id":"100005887419564","name":"Cười Một Mình"},"100001754136107":{"id":"100001754136107","name":"Nguyễn Tuấn Vũ"},"100004256292728":{"id":"100004256292728","name":"Phạm Việt Trinh"},"100005801442456":{"id":"100005801442456","name":"An Nguyen"},"100006675074577":{"id":"100006675074577","name":"Tomato Lạnh"},"100003207764143":{"id":"100003207764143","name":"Anh Vũ Thái"},"100000309978634":{"id":"100000309978634","name":"Tan Vu"},"100001751941162":{"id":"100001751941162","name":"Vinh Lê"},"100006848558742":{"id":"100006848558742","name":"Lan Đồng"},"100003748618992":{"id":"100003748618992","name":"Nguyen Tien Hiep"},"100000129285362":{"id":"100000129285362","name":"Đá Tảng"},"100003622005728":{"id":"100003622005728","name":"Theodore Bagwell"},"100003174621865":{"id":"100003174621865","name":"Quang Phạm"},"100006883026024":{"id":"100006883026024","name":"Minh Anh Vũ"},"100001432462223":{"id":"100001432462223","name":"Truong Nguyen"},"100001526631937":{"id":"100001526631937","name":"Tường Oanh Mineko"},"100004948534088":{"id":"100004948534088","name":"Thu Meo"},"100001298705845":{"id":"100001298705845","name":"Tuấn Phạm"},"1394148660":{"id":"1394148660","name":"Cừu Non"},"1769213541":{"id":"1769213541","name":"Subin Nguyen"},"100001759587037":{"id":"100001759587037","name":"Kiều Linhh"},"100003762427351":{"id":"100003762427351","name":"Hiroshi Yasu Oki"},"100002260556462":{"id":"100002260556462","name":"Cong Tuc Dinh"},"100002608518165":{"id":"100002608518165","name":"Leo Xinh"},"100004572073871":{"id":"100004572073871","name":"Vandai Hau"},"100000500260636":{"id":"100000500260636","name":"Lưu Nguyễn Thảo Tiên"},"100003913383051":{"id":"100003913383051","name":"Tho Tran"},"100007120295988":{"id":"100007120295988","name":"Dung Hoang"},"100003524889394":{"id":"100003524889394","name":"Giang Euro"},"100003076762517":{"id":"100003076762517","name":"ThiênKim Nhị Tiểu Quỷ"},"100007963716784":{"id":"100007963716784","name":"Ninh Thị Hường"},"620066722":{"id":"620066722","name":"Dong Khac Thai"},"100003189755733":{"id":"100003189755733","name":"Vương Phương"},"100003065966506":{"id":"100003065966506","name":"Hùng Khùng"},"100005891851699":{"id":"100005891851699","name":"Hải Nguyễn"},"100005271433446":{"id":"100005271433446","name":"Nguyentan Thang"},"100001133145092":{"id":"100001133145092","name":"Vũ Duy Đông"},"100003636798497":{"id":"100003636798497","name":"Tuấn Olivier"},"1146680551":{"id":"1146680551","name":"優しい なぁ"},"100001817799254":{"id":"100001817799254","name":"Truong Strong"},"100004483324084":{"id":"100004483324084","name":"Trần Hòa"},"100000367010477":{"id":"100000367010477","name":"Sky's Wings"},"100002675248579":{"id":"100002675248579","name":"Ecchi Deviluke"},"100000524998224":{"id":"100000524998224","name":"Đông Đỗ"},"100006710072380":{"id":"100006710072380","name":"Trọng Hiếu Phạm"},"100005495773832":{"id":"100005495773832","name":"Hiền Vũ"},"100001011735320":{"id":"100001011735320","name":"Trí Đinh"},"100007234564638":{"id":"100007234564638","name":"Trương Thanh"},"100003064613244":{"id":"100003064613244","name":"Min SjHyuk"},"100003824535898":{"id":"100003824535898","name":"Trần Đạt"},"100004351478036":{"id":"100004351478036","name":"Ngán Cái Cuộc Đời"},"100006879393527":{"id":"100006879393527","name":"Nam Đinh"},"100006933518153":{"id":"100006933518153","name":"Mai Hạnh Nguyễn"},"100004570323680":{"id":"100004570323680","name":"Nguyên Khanh Tiên"},"100002508122689":{"id":"100002508122689","name":"Vũ Mạnh Tuấn"}},"paging":{"cursors":{"after":"MTAwMDA2MzgxNDI2Njk5","before":"MTAwMDA2MzgxNDI2Njk5"},"next":"https://graph.facebook.com/229244010425617_851277698222242/likes?limit=1&summary=1&after=MTAwMDA2MzgxNDI2Njk5"},"summary":{"total_count":71}},"comments":{"data":{"851377154878963":{"id":"851377154878963","from":{"id":"100006675074577","name":"Tomato Lạnh"},"message":"vâng , Kham Pha e cũng bị nhiễm tính đó khi nói chuyện cùng với thầy dạy e,hjhj","message_tags":[{"id":"100001458099624","name":"Kham Pha","type":"user","offset":7,"length":8}],"can_remove":false,"created_time":"2014-04-14T15:11:20+0000","like_count":2,"user_likes":false},"851664174850261":{"id":"851664174850261","from":{"id":"100000516210564","name":"Nguyen Thi Ha"},"message":"Mình cũng thường làm vậy khi nói chuyện với mọi người. Mình chỉ làm với người Nhật có gần 6 năm thôi. Có khi là thói quen thật nhỉ...","can_remove":false,"created_time":"2014-04-15T02:28:39+0000","like_count":2,"user_likes":false}},"paging":{"cursors":{"after":"ODUxMzc3MTU0ODc4OTYz","before":"ODUxMzc3MTU0ODc4OTYz"},"next":"https://graph.facebook.com/229244010425617_851277698222242/comments?limit=1&summary=1&after=ODUxMzc3MTU0ODc4OTYz"},"summary":{"order":"chronological","total_count":2}}}