{"id":"229244010425617_851341758215836","type":"link","picture":"https://fbstatic-a.akamaihd.net/rsrc.php/v2/y3/r/0PnClccPFXs.png","link":"https://www.facebook.com/groups/157641594306750/permalink/648296688574569/","from":{"id":"100001416272263","name":"Mai PB"},"message":"Một bạn trẻ du học sinh ở Aomori (miền Bắc nước Nhật) đã cùng nhóm bạn lập nên 1 trang Facebook giới thiệu VN bằng tiếng Nhật. Hay đúng không?","created_time":"2014-04-14T14:06:20+0000","updated_time":"2014-04-15T14:55:17+0000","likes":{"data":{"100000221260528":{"id":"100000221260528","name":"Đào Xuân Kiên"},"100003052986106":{"id":"100003052986106","name":"Kún ZumBie"},"100003694981194":{"id":"100003694981194","name":"Kim Duongxuan"},"100003124640776":{"id":"100003124640776","name":"Cú Mèo Bụng Bự"},"100005024348771":{"id":"100005024348771","name":"Long Hoàng"},"100007903567494":{"id":"100007903567494","name":"ベトナムの ビュイ"},"603757816":{"id":"603757816","name":"Trung Chu Bao"},"1816269439":{"id":"1816269439","name":"Dao Ngoc"},"100002137253818":{"id":"100002137253818","name":"Anh Khoa"},"100007629041409":{"id":"100007629041409","name":"Trần Trung Hiếu"},"100004490496995":{"id":"100004490496995","name":"Rai Chamu"},"100003077266439":{"id":"100003077266439","name":"Tiểu Tinh"},"100000052661831":{"id":"100000052661831","name":"Shuntoku Pham"},"100001834667912":{"id":"100001834667912","name":"Rebecah Ngo"},"100007417445587":{"id":"100007417445587","name":"Bantinthon Yt Baolakhoai"},"100006098550222":{"id":"100006098550222","name":"Phạm Thị Lan Anh"},"100005957170273":{"id":"100005957170273","name":"Thi Dong Nguyen"},"100001713699481":{"id":"100001713699481","name":"Vũ Huyền Trang"},"100003227211791":{"id":"100003227211791","name":"Lan Lan"},"100003913383051":{"id":"100003913383051","name":"Tho Tran"},"100001557981751":{"id":"100001557981751","name":"Hồ Ngọc Khanh"},"100004362480675":{"id":"100004362480675","name":"Đi Tìm Thất Bại"},"100000359762118":{"id":"100000359762118","name":"Mi Tra"},"100000110765909":{"id":"100000110765909","name":"Thảo Nguyễn"},"100004105720456":{"id":"100004105720456","name":"Mộc Như Băng"},"100004096243144":{"id":"100004096243144","name":"Shorai Nguyễn"},"100005495773832":{"id":"100005495773832","name":"Hiền Vũ"},"100001995633843":{"id":"100001995633843","name":"Yasunobu Toda"},"100001738431359":{"id":"100001738431359","name":"Phuongthao Nguyen"},"569263718":{"id":"569263718","name":"Phuong Thao Tran"},"100000367010477":{"id":"100000367010477","name":"Sky's Wings"},"100003046386930":{"id":"100003046386930","name":"Gấu Biển"},"100006675074577":{"id":"100006675074577","name":"Tomato Lạnh"},"100001161097054":{"id":"100001161097054","name":"Hoa Lê"},"100000500260636":{"id":"100000500260636","name":"Lưu Nguyễn Thảo Tiên"},"100006502552041":{"id":"100006502552041","name":"Xấu Xí"},"100008010333387":{"id":"100008010333387","name":"Eagle Vothuong"},"100004368162869":{"id":"100004368162869","name":"Yenthuy Le"},"100002188112488":{"id":"100002188112488","name":"Tony Tran"},"100000095655445":{"id":"100000095655445","name":"Kamiya Satoshi"},"100003107603691":{"id":"100003107603691","name":"Hoa Nắng Tháng Ba"},"100000408501606":{"id":"100000408501606","name":"Quang Kevin"},"100004445826984":{"id":"100004445826984","name":"Ong Noi Viet"},"100001896073075":{"id":"100001896073075","name":"Huy Lê"},"100005364935818":{"id":"100005364935818","name":"Chuột Con"},"100008086364094":{"id":"100008086364094","name":"Huy Lương"},"100002940938517":{"id":"100002940938517","name":"Nhung Heo"},"100007055220627":{"id":"100007055220627","name":"Khoảnh Khắc"},"100002404521223":{"id":"100002404521223","name":"Huyền Nguyễn"},"1026780646":{"id":"1026780646","name":"Việt Hưng Khổng"},"1146680551":{"id":"1146680551","name":"優しい なぁ"},"100007746432579":{"id":"100007746432579","name":"Bin Avin"},"620066722":{"id":"620066722","name":"Dong Khac Thai"},"100006734168968":{"id":"100006734168968","name":"Tiểu Nhân Mã"},"100002959594535":{"id":"100002959594535","name":"Nguyen Ngoc Anh"},"100001526631937":{"id":"100001526631937","name":"Tường Oanh Mineko"},"100000221973381":{"id":"100000221973381","name":"Mạnh Ngô"},"1821970083":{"id":"1821970083","name":"Nguyễn Mạnh Cường"},"1431487921":{"id":"1431487921","name":"Phạm Light"},"100004780208320":{"id":"100004780208320","name":"Nhu Quynh Ngo"},"100001091130377":{"id":"100001091130377","name":"Nguyễn Việt Hà"}},"paging":{"cursors":{"after":"MTAwMDAwMjIxMjYwNTI4","before":"MTAwMDAwMjIxMjYwNTI4"},"next":"https://graph.facebook.com/229244010425617_851341758215836/likes?limit=1&summary=1&after=MTAwMDAwMjIxMjYwNTI4"},"summary":{"total_count":61}},"comments":{"data":[{"id":"851342554882423","from":{"id":"100001222113521","name":"Tạ Thu Hường"},"message":"aomori gần iwate của tớ","can_remove":false,"created_time":"2014-04-14T14:07:48+0000","like_count":0,"user_likes":false}],"paging":{"cursors":{"after":"ODUxMzQyNTU0ODgyNDIz","before":"ODUxMzQyNTU0ODgyNDIz"},"next":"https://graph.facebook.com/229244010425617_851341758215836/comments?limit=1&summary=1&after=ODUxMzQyNTU0ODgyNDIz"},"summary":{"order":"chronological","total_count":8}}}