{"id":"229244010425617_851314344885244","type":"photo","object_id":"818357554858240","picture":"https://fbcdn-photos-d-a.akamaihd.net/hphotos-ak-frc3/t1.0-0/10269614_818357554858240_7280564661247625209_s.png","link":"https://www.facebook.com/JapanToday/photos/a.264156846944983.77222.206382352722433/818357554858240/?type=1","from":{"id":"100001416272263","name":"Mai PB"},"message":"Ai đã may mắn xem được cuộc diễu hành này ở Kochijoji cuối tuần vừa rồi?","created_time":"2014-04-14T13:06:06+0000","updated_time":"2014-04-14T16:33:21+0000","likes":{"data":{"100002975299796":{"id":"100002975299796","name":"Trinh Tuan Anh"},"100003618430824":{"id":"100003618430824","name":"Chizuko Takita"},"100003988346205":{"id":"100003988346205","name":"Ly Liều Lĩnh"},"100003907690244":{"id":"100003907690244","name":"Nguyễn Khắc Trung"},"100005694491959":{"id":"100005694491959","name":"Phuong Truong Thi Thanh"},"100001796487257":{"id":"100001796487257","name":"Tuấn Anh"},"100007903567494":{"id":"100007903567494","name":"ベトナムの ビュイ"},"100005124662797":{"id":"100005124662797","name":"Nguyen Van Duc"},"100006734168968":{"id":"100006734168968","name":"Tiểu Nhân Mã"},"100005024348771":{"id":"100005024348771","name":"Long Hoàng"},"100003930582015":{"id":"100003930582015","name":"Truong Van Ly"},"100000387942170":{"id":"100000387942170","name":"Hà Quảng Đạt"},"100001834667912":{"id":"100001834667912","name":"Rebecah Ngo"},"100001324611896":{"id":"100001324611896","name":"Meo Luoi"},"100006185140581":{"id":"100006185140581","name":"Thảo Lê"},"1295034025":{"id":"1295034025","name":"Sam Apple"},"100004985590880":{"id":"100004985590880","name":"Vi Vi"},"100000769990638":{"id":"100000769990638","name":"Nguyen Tuan"},"100003130966421":{"id":"100003130966421","name":"Mailoan Nguyen"},"100004533248030":{"id":"100004533248030","name":"Nguyễn Cường"},"100007576184490":{"id":"100007576184490","name":"Hoài Phương"},"1283298041":{"id":"1283298041","name":"Búa Đức Thanh"},"100000154325668":{"id":"100000154325668","name":"Lam Buong Binh"},"100004398330290":{"id":"100004398330290","name":"Lam Linh"},"100002327743510":{"id":"100002327743510","name":"Tuan Thanh"},"100000500260636":{"id":"100000500260636","name":"Lưu Nguyễn Thảo Tiên"},"100000236025075":{"id":"100000236025075","name":"Nightwish Spirit"},"100002667117211":{"id":"100002667117211","name":"Nguyễn Cường"},"100000110765909":{"id":"100000110765909","name":"Thảo Nguyễn"},"100003211776567":{"id":"100003211776567","name":"Kụ Đính"},"100003254627434":{"id":"100003254627434","name":"Belongs To Nắng"},"100004096243144":{"id":"100004096243144","name":"Shorai Nguyễn"},"100000052661831":{"id":"100000052661831","name":"Shuntoku Pham"},"100001016429049":{"id":"100001016429049","name":"Huong Le"},"100001738431359":{"id":"100001738431359","name":"Phuongthao Nguyen"},"100002067867139":{"id":"100002067867139","name":"Ponh Ponh"},"100000245792299":{"id":"100000245792299","name":"Hjnee Le"},"100005938593327":{"id":"100005938593327","name":"Duyen Tran"},"100003349778730":{"id":"100003349778730","name":"Ngọc Ngơ Ngơ"},"100005801442456":{"id":"100005801442456","name":"An Nguyen"},"100002912978945":{"id":"100002912978945","name":"Feliz Novia"},"100000381394367":{"id":"100000381394367","name":"Thành Nguyễn"},"100004745586890":{"id":"100004745586890","name":"Bao Nguyen Kevin"},"100001786404410":{"id":"100001786404410","name":"Huệ Nguyễn"},"100004193774269":{"id":"100004193774269","name":"Xuyen Nguyen"},"100007552054035":{"id":"100007552054035","name":"Hưng Koy"},"100005163096748":{"id":"100005163096748","name":"Thang Nguyen Van"},"100001071750107":{"id":"100001071750107","name":"Christine Đường"},"100002411645161":{"id":"100002411645161","name":"Trinh Nguyen Van"},"1394148660":{"id":"1394148660","name":"Cừu Non"},"100006098550222":{"id":"100006098550222","name":"Phạm Thị Lan Anh"},"569263718":{"id":"569263718","name":"Phuong Thao Tran"},"100004884667659":{"id":"100004884667659","name":"Sayaka Kanomata"},"100002959594535":{"id":"100002959594535","name":"Nguyen Ngoc Anh"},"100000408501606":{"id":"100000408501606","name":"Quang Kevin"},"100001289002711":{"id":"100001289002711","name":"Son Kun"},"100005621676216":{"id":"100005621676216","name":"Ku Hung"},"100003903233372":{"id":"100003903233372","name":"Vương Sỹ Tuấn"},"100005219074602":{"id":"100005219074602","name":"Minh Mộng Mơ"},"100002801148946":{"id":"100002801148946","name":"Kiều Thanh Hưng"},"100000603915176":{"id":"100000603915176","name":"悪いな ぁ"},"1508774599":{"id":"1508774599","name":"Đức Anh Quách"},"100006458470738":{"id":"100006458470738","name":"Cáo Nhu Mì"},"100001727253941":{"id":"100001727253941","name":"Peconpe Pe"},"100007909359766":{"id":"100007909359766","name":"Phi Thuy"},"100000095655445":{"id":"100000095655445","name":"Kamiya Satoshi"},"100003186000045":{"id":"100003186000045","name":"Gió Lạnh"},"100000218497692":{"id":"100000218497692","name":"Myx Lee"},"100008000495549":{"id":"100008000495549","name":"Diệp Trúc Đình"},"100001695345798":{"id":"100001695345798","name":"Tyn Aki"},"100002094216506":{"id":"100002094216506","name":"Sky Blue"},"100005622426965":{"id":"100005622426965","name":"Hải Lý Kuro"},"100002157379029":{"id":"100002157379029","name":"Nguyen Hai Dung"},"100000328742646":{"id":"100000328742646","name":"Trần Giáp"},"100005249792183":{"id":"100005249792183","name":"Rinne Smile Away"},"825219132":{"id":"825219132","name":"Long Ngo Phi"},"100007055220627":{"id":"100007055220627","name":"Khoảnh Khắc"},"100001525213247":{"id":"100001525213247","name":"Phương Thảo Nguyễn"},"100002339089186":{"id":"100002339089186","name":"Thinh Nguyen Viet"},"100001526631937":{"id":"100001526631937","name":"Tường Oanh Mineko"},"100001629363328":{"id":"100001629363328","name":"Le Bao Hoang"},"100000322696747":{"id":"100000322696747","name":"Hàn Diện Băng Tâm"},"100001161097054":{"id":"100001161097054","name":"Hoa Lê"},"572917377":{"id":"572917377","name":"Lee Nguyen"},"100001458099624":{"id":"100001458099624","name":"Kham Pha"},"100003818167519":{"id":"100003818167519","name":"Nghia Trungnghia"},"100004714864862":{"id":"100004714864862","name":"Gia Bao"},"100003207764143":{"id":"100003207764143","name":"Anh Vũ Thái"},"100005797481713":{"id":"100005797481713","name":"Kagamine Twins"},"1349577898":{"id":"1349577898","name":"Dương Uyên"},"100005903373573":{"id":"100005903373573","name":"HaLinh Phong Phan"},"100007461963568":{"id":"100007461963568","name":"Kudo Shinichi"},"100003075823746":{"id":"100003075823746","name":"Strong Cuong"},"100003057952418":{"id":"100003057952418","name":"Đinh Trọng Thắng"},"100003724419279":{"id":"100003724419279","name":"Diệu Linh"},"100004443042711":{"id":"100004443042711","name":"Xương Rồng Gai"},"100001899363306":{"id":"100001899363306","name":"Ruby Nguyen"},"100003875131996":{"id":"100003875131996","name":"Ngoc Anh"},"100006053981043":{"id":"100006053981043","name":"Nguyen Van Dang"},"100000067699837":{"id":"100000067699837","name":"Nguyễn Hải Phong"},"100004111384246":{"id":"100004111384246","name":"Khoa Khoa"},"100004057374771":{"id":"100004057374771","name":"Sao Bang Vo Tinh"},"100002480485328":{"id":"100002480485328","name":"Công Trung"},"1828540337":{"id":"1828540337","name":"Linh Tran"},"100004105720456":{"id":"100004105720456","name":"Mộc Như Băng"},"100004050416667":{"id":"100004050416667","name":"Lon Ta Lon Ton"},"100002999989202":{"id":"100002999989202","name":"Hằng Mèo"},"100006634801210":{"id":"100006634801210","name":"NO Dừng Bước"},"100007396898008":{"id":"100007396898008","name":"My Hanh"},"100004030165117":{"id":"100004030165117","name":"Ruby Candy"},"100007987333915":{"id":"100007987333915","name":"Đoàn Đại"},"100007996688840":{"id":"100007996688840","name":"Dũng Dũng"},"100000217003431":{"id":"100000217003431","name":"Khoa Đinh"},"100004445826984":{"id":"100004445826984","name":"Ong Noi Viet"},"1369869524":{"id":"1369869524","name":"Tùng Nguyễn"},"100006214334245":{"id":"100006214334245","name":"Tuổi Trẻ Tài Cao"},"545670961":{"id":"545670961","name":"Tran Vu Ha Minh"},"100001359798024":{"id":"100001359798024","name":"November Gi"},"1725907325":{"id":"1725907325","name":"Nguyen Van Dung"},"1146680551":{"id":"1146680551","name":"優しい なぁ"},"100000060844605":{"id":"100000060844605","name":"Vũ Danh Việt"},"620066722":{"id":"620066722","name":"Dong Khac Thai"},"100001924061448":{"id":"100001924061448","name":"Morikawa Hiroyuki"}},"paging":{"cursors":{"after":"MTAwMDAyOTc1Mjk5Nzk2","before":"MTAwMDAyOTc1Mjk5Nzk2"},"next":"https://graph.facebook.com/229244010425617_851314344885244/likes?limit=1&summary=1&after=MTAwMDAyOTc1Mjk5Nzk2"},"summary":{"total_count":123}},"comments":{"data":{"851315034885175":{"id":"851315034885175","from":{"id":"1146680551","name":"優しい なぁ"},"message":"Nhìn con robot giống trong truyện Hecman thế nhỉ :3","can_remove":false,"created_time":"2014-04-14T13:07:45+0000","like_count":0,"user_likes":false},"851315991551746":{"id":"851315991551746","from":{"id":"100006214334245","name":"Tuổi Trẻ Tài Cao"},"message":"Ui đẹp thế","can_remove":false,"created_time":"2014-04-14T13:09:54+0000","like_count":0,"user_likes":false},"851316044885074":{"id":"851316044885074","from":{"id":"100001359798024","name":"November Gi"},"message":"Em đi qua mà đúng lúc nó bị cảnh sát bắt cho lên xe mất rồi ko đuợc nhìn được ạ. :)))","can_remove":false,"created_time":"2014-04-14T13:10:06+0000","like_count":0,"user_likes":false},"851316318218380":{"id":"851316318218380","from":{"id":"100004445826984","name":"Ong Noi Viet"},"message":"có video không bạn ơi","can_remove":false,"created_time":"2014-04-14T13:10:53+0000","like_count":0,"user_likes":false},"851316434885035":{"id":"851316434885035","from":{"id":"100003124307460","name":"Duc Giang"},"message":"Giống trong truyện Hecman thật. tuổi thơ nghiện truyện của mình","can_remove":false,"created_time":"2014-04-14T13:10:56+0000","like_count":1,"user_likes":false},"851317134884965":{"id":"851317134884965","from":{"id":"100006728258694","name":"Diệp Hằng"},"message":"oh sieu nhan ak thick nho? nguoi Nhat tuyet that","can_remove":false,"created_time":"2014-04-14T13:12:32+0000","like_count":0,"user_likes":false},"851317548218257":{"id":"851317548218257","from":{"id":"100007987333915","name":"Đoàn Đại"},"message":"ai za","can_remove":false,"created_time":"2014-04-14T13:13:40+0000","like_count":0,"user_likes":false},"851325468217465":{"id":"851325468217465","from":{"id":"100000322696747","name":"Hàn Diện Băng Tâm"},"message":"Lan Anh Mai khủng ko","message_tags":[{"id":"100005519531629","name":"Lan Anh Mai","type":"user","offset":0,"length":11}],"can_remove":false,"created_time":"2014-04-14T13:31:25+0000","like_count":0,"user_likes":false},"851326964883982":{"id":"851326964883982","from":{"id":"100000328742646","name":"Trần Giáp"},"message":"Gundam :)","can_remove":false,"created_time":"2014-04-14T13:34:57+0000","like_count":0,"user_likes":false},"851327471550598":{"id":"851327471550598","from":{"id":"100001416272263","name":"Mai PB"},"message":"Có ảnh khác được share đây: https://www.facebook.com/groups/157641594306750/permalink/648232241914347/?stream_ref=2","can_remove":false,"created_time":"2014-04-14T13:36:27+0000","like_count":1,"user_likes":false},"851336501549695":{"id":"851336501549695","from":{"id":"100000603915176","name":"悪いな ぁ"},"message":"Quá khủng, con này chắc cũng phải 5 man ấy nhể :3","can_remove":false,"created_time":"2014-04-14T13:54:58+0000","like_count":0,"user_likes":false},"851337041549641":{"id":"851337041549641","from":{"id":"1146680551","name":"優しい なぁ"},"message":"Có 1sen à, mới mua về nè :3","can_remove":false,"created_time":"2014-04-14T13:56:06+0000","like_count":0,"user_likes":false},"851337571549588":{"id":"851337571549588","from":{"id":"100004445826984","name":"Ong Noi Viet"},"message":"tôi lại tưởng nó đi được","can_remove":false,"created_time":"2014-04-14T13:57:19+0000","like_count":0,"user_likes":false},"851338131549532":{"id":"851338131549532","from":{"id":"100005219074602","name":"Minh Mộng Mơ"},"message":"Siêu nhân 1 vè về quá khứ","can_remove":false,"created_time":"2014-04-14T13:58:48+0000","like_count":1,"user_likes":false},"851341638215848":{"id":"851341638215848","from":{"id":"100003903233372","name":"Vương Sỹ Tuấn"},"message":"Ghê","can_remove":false,"created_time":"2014-04-14T14:06:04+0000","like_count":0,"user_likes":false},"851360211547324":{"id":"851360211547324","from":{"id":"100000603915176","name":"悪いな ぁ"},"message":"Điêu lòi, mua trả góp hả?","can_remove":false,"created_time":"2014-04-14T14:42:57+0000","like_count":1,"user_likes":false},"851421108207901":{"id":"851421108207901","from":{"id":"100003211776567","name":"Kụ Đính"},"message":"đây là dũng sĩ hexman","can_remove":false,"created_time":"2014-04-14T16:33:21+0000","like_count":0,"user_likes":false}},"paging":{"cursors":{"after":"ODUxMzE1MDM0ODg1MTc1","before":"ODUxMzE1MDM0ODg1MTc1"},"next":"https://graph.facebook.com/229244010425617_851314344885244/comments?limit=1&summary=1&after=ODUxMzE1MDM0ODg1MTc1"},"summary":{"order":"chronological","total_count":17}}}