{"id":"229244010425617_851310768218935","type":"status","from":{"id":"100002966928087","name":"Nguyen van Dat"},"message":"theo bạn NHẬT BẢN và VIỆT NAM thì ở đâu bạn thấy bình yêu hơn\n trước tiên mình xin kể 1 câu chuyện về sự bình yên\n  Một vị vua treo giải thưởng cho hoạ sĩ nào vẽ đuợc bức tranh đẹp nhất về sự bình yên. Nhiều hoạ sĩ đã cố công. Nhà vua ngắm tất cả các bức tranh nhưng ông chỉ thích có hai bức và phải chọn lấy một.\n\nTrong hai bức tranh đó, một bức tranh vẽ hồ nước yên ả. Mặt hồ là tấm gương tuyệt mĩ với những ngọn núi cao chót vót bao quanh. Bên trên là bầu trời xanh với những đám mây trắng bồng bềnh, trôi hững hờ. Tất cả ai ngắm bức tranh này đều cho rằng đây là một bức tranh thật hoàn hảo.\n\nBức tranh thứ hai cũng có những ngọn núi, nhưng là những ngọn núi trần trụi và lởm chởm đá. Bên trên, bầu trời giận dữ đỗ mưa như trút, kèm theo sấm chớp ầm ầm. Bên vách vúi là dòng thác cuồn cuộn nổi bọt trắng xoá. Thật chẳng bình yên chút nào.\n\nNhưng sau khi ngắm nhìn, ông thấy đằng sau dòng thác là một bụi cây nhỏ mọc lên từ khe của một tảng đá. Nơi đó, giữa dòng thác trút nước xuống một cách giận dữ, có con chim mẹ đang thản nhiên đậu trên tổ của mình, bên cạnh đàn chim con ríu rít… đang che trở cho các con của mình, Bình yên thật sự…\n\n\"Ta chấm bức tranh này!\" - Nhà vua công bố: \"Sự bình yên không có nghĩa là một nơi không có tiếng ồn ào,\n\nmình thấy bức tranh thứ 1 như kiểu nhật bản bây giờ,thật yên bình ra đường ko thấy tiếng còi xe.không ôn ào, làm xong và nhỉ  nhưng lúc nào trong đầu cũng 1 đống phải suy nghĩ tiền và tiên    .thì bình yên sao được \ncòn bức tranh thứ 2 mình lại thấy như VIỆT NAM ồn ào,nhộn nhịp,\nBình yên ở nơi gần gũi ta nhất.”GIA ĐÌNH”, nơi mỗi lúc ta đi về có người luôn quan tâm, gần gũi, luôn chở che cho ta những lúc buồn hay thất vọng. Về nhà ăn bát cơm gia đình. Bình yên hơn khi ăn 1 nơi nào khác, hạnh phúc hơn nơi nào khác \nBình yên ở nơi mà chúng ta cần nhất,”BẠN BÈ”, nơi mà ta luôn có thể chia sẻ mọi thứ, bên ta và không rời xa ta.Nở nụ cười khi gặp nhau, tạm biệt khi xa nhau, luôn ấm cúng như gia đình thứ hai. \nđây là suy nghĩ của cá nhân của mình   ......\"v","created_time":"2014-04-14T12:57:35+0000","updated_time":"2014-04-15T03:25:14+0000","likes":{"data":{"100005121162487":{"id":"100005121162487","name":"Khanh Huyen"},"100006087877560":{"id":"100006087877560","name":"Bố Bé Pon"},"100002762270141":{"id":"100002762270141","name":"Mien Nguyen"},"100004126231481":{"id":"100004126231481","name":"Anh Nguyen"},"100007449186315":{"id":"100007449186315","name":"Cấn Thanh Tùng"},"100001650056739":{"id":"100001650056739","name":"Tồn Dương"},"100003287293423":{"id":"100003287293423","name":"Yêu Lại Từ Đầu"},"100002675248579":{"id":"100002675248579","name":"Ecchi Deviluke"},"100006581073344":{"id":"100006581073344","name":"Tsuki No Koi"},"100003918997915":{"id":"100003918997915","name":"Nguyễn Văn Còn"},"100004120923996":{"id":"100004120923996","name":"Luong Hoa"},"100001526631937":{"id":"100001526631937","name":"Tường Oanh Mineko"},"100004342594378":{"id":"100004342594378","name":"Tuyetchinh Nguyen"},"100004688231541":{"id":"100004688231541","name":"Thảo Nguyên"},"100004340104072":{"id":"100004340104072","name":"Vì Em Là Nắng"},"100004884120960":{"id":"100004884120960","name":"Nguyễn Văn Hoàng"},"1725907325":{"id":"1725907325","name":"Nguyen Van Dung"},"100003785823794":{"id":"100003785823794","name":"Suong Ngoc"},"100000347491202":{"id":"100000347491202","name":"Linh Hà Ngọc"},"100007390502512":{"id":"100007390502512","name":"Hoa Ban Mai"},"100008033053417":{"id":"100008033053417","name":"Bông Hồng Xanh"},"1807677280":{"id":"1807677280","name":"Thuận Nghiêm"},"100001754136107":{"id":"100001754136107","name":"Nguyễn Tuấn Vũ"},"100007055280592":{"id":"100007055280592","name":"Phạm Hồng Đỉnh"},"100003729983318":{"id":"100003729983318","name":"Ljnhanh Jjnla"},"100004915360462":{"id":"100004915360462","name":"Phamtuyen Pc"},"100003882966065":{"id":"100003882966065","name":"TrAi Quê HD"},"100004160679847":{"id":"100004160679847","name":"Linh Nguyễn"},"100003540932391":{"id":"100003540932391","name":"Lê Bá Tuân"},"100002439260522":{"id":"100002439260522","name":"Gái Nguyễn"},"100000045271667":{"id":"100000045271667","name":"Nam Thai Nguyen"},"569263718":{"id":"569263718","name":"Phuong Thao Tran"},"100001416272263":{"id":"100001416272263","name":"Mai PB"},"100003769578685":{"id":"100003769578685","name":"Chu An"},"100008061784579":{"id":"100008061784579","name":"Hoàng Tuấn"},"100003762427351":{"id":"100003762427351","name":"Hiroshi Yasu Oki"},"100004120302167":{"id":"100004120302167","name":"Tuan Chuot"},"100006933518153":{"id":"100006933518153","name":"Mai Hạnh Nguyễn"},"100007843684593":{"id":"100007843684593","name":"Thang Tran"},"100005891501510":{"id":"100005891501510","name":"Nhóc À Kim"},"100008009256613":{"id":"100008009256613","name":"Bi Bu Bin"},"100006292625552":{"id":"100006292625552","name":"Phùng Lan"},"100003165545289":{"id":"100003165545289","name":"Tuyền Dương"},"100001432462223":{"id":"100001432462223","name":"Truong Nguyen"},"100005693140969":{"id":"100005693140969","name":"Xjnh Tuoi"},"100004374573625":{"id":"100004374573625","name":"Theu Vu"},"100004343521460":{"id":"100004343521460","name":"Rain Ice"},"100005934873291":{"id":"100005934873291","name":"Ngọc Sơn Trương"},"100001315647858":{"id":"100001315647858","name":"Toan Ha Van"},"100001786404410":{"id":"100001786404410","name":"Huệ Nguyễn"},"100006670564032":{"id":"100006670564032","name":"Mất Niềm Tin"},"100001658751624":{"id":"100001658751624","name":"Kim Chan"},"100001222113521":{"id":"100001222113521","name":"Tạ Thu Hường"},"100008086364094":{"id":"100008086364094","name":"Huy Lương"},"100006014014366":{"id":"100006014014366","name":"Khac Kim Dien"},"100006719584370":{"id":"100006719584370","name":"Hoa Thủy Tinh"},"100003207764143":{"id":"100003207764143","name":"Anh Vũ Thái"},"100007994678852":{"id":"100007994678852","name":"Visaokhong Laanh"},"100003115841931":{"id":"100003115841931","name":"Bánh Đa Cá Rô"},"100003161424746":{"id":"100003161424746","name":"Tam Mao"},"100001359798024":{"id":"100001359798024","name":"November Gi"},"100000046128293":{"id":"100000046128293","name":"Hai Au Tran"},"100000495883314":{"id":"100000495883314","name":"Anh Ba Khía"},"100001602108729":{"id":"100001602108729","name":"Tram Mai"},"100003970393448":{"id":"100003970393448","name":"Lotus Lotus"},"100004163011183":{"id":"100004163011183","name":"Princess Ly Ly"},"100001819436000":{"id":"100001819436000","name":"Nguyễn Xuân Sơn"},"100004985590880":{"id":"100004985590880","name":"Vi Vi"},"100001563076732":{"id":"100001563076732","name":"Nguyễn Tam Vũ"},"100000245098200":{"id":"100000245098200","name":"Nguyễn Trường Giang"},"100002235953037":{"id":"100002235953037","name":"Cỏ Không Lá"},"100006627121749":{"id":"100006627121749","name":"Cỏ Kim"},"100006248618563":{"id":"100006248618563","name":"Momi Zi"},"100004396021058":{"id":"100004396021058","name":"Ngô Đình Minh"},"100003317038785":{"id":"100003317038785","name":"Minh Lý Nguyễn"},"100000039713069":{"id":"100000039713069","name":"BakkuTran Love RuriRuri"},"100003105034037":{"id":"100003105034037","name":"Pham Oanh"},"100007056335960":{"id":"100007056335960","name":"Minh Phuong"},"100002470609356":{"id":"100002470609356","name":"Trang Thu Lê"},"100007905004742":{"id":"100007905004742","name":"Nguyet Thi"},"100004128252349":{"id":"100004128252349","name":"Vô Ưu"},"100000292250041":{"id":"100000292250041","name":"Nguyễn Thanh Tùng"},"100004445826984":{"id":"100004445826984","name":"Ong Noi Viet"},"100007055220627":{"id":"100007055220627","name":"Khoảnh Khắc"},"100002966928087":{"id":"100002966928087","name":"Nguyen van Dat"},"100004101038669":{"id":"100004101038669","name":"Oanh Inoshishi"}},"paging":{"cursors":{"after":"MTAwMDA1MTIxMTYyNDg3","before":"MTAwMDA1MTIxMTYyNDg3"},"next":"https://graph.facebook.com/229244010425617_851310768218935/likes?limit=1&summary=1&after=MTAwMDA1MTIxMTYyNDg3"},"summary":{"total_count":86}},"comments":{"data":{"851314304885248":{"id":"851314304885248","from":{"id":"100007055220627","name":"Khoảnh Khắc"},"message":"Mình thích suy nghĩ của bạn???","can_remove":false,"created_time":"2014-04-14T13:05:58+0000","like_count":2,"user_likes":false},"851317434884935":{"id":"851317434884935","from":{"id":"100003724419279","name":"Diệu Linh"},"message":"2 chữ quê hương :)","can_remove":false,"created_time":"2014-04-14T13:13:16+0000","like_count":0,"user_likes":false},"851317464884932":{"id":"851317464884932","from":{"id":"100002966928087","name":"Nguyen van Dat"},"message":":v","can_remove":false,"created_time":"2014-04-14T13:13:24+0000","like_count":0,"user_likes":false},"851319348218077":{"id":"851319348218077","from":{"id":"100006431440420","name":"Đình Đán"},"message":"Tất nhiên là quê hương :) Nhật thì bạn phải làm việc cực, tinh thần trách nhiệm cao, bộn bề đủ thứ. Còn ở VN, rất thoải mái :)","can_remove":false,"created_time":"2014-04-14T13:17:24+0000","like_count":1,"user_likes":false},"851319374884741":{"id":"851319374884741","from":{"id":"100002966928087","name":"Nguyen van Dat"},"message":"uh,ở nhật 1 năm mà cứ tưởng 360  ngày","can_remove":false,"created_time":"2014-04-14T13:17:26+0000","like_count":2,"user_likes":false},"851319934884685":{"id":"851319934884685","from":{"id":"100006248618563","name":"Momi Zi"},"message":"nếu ở nhật có công việc ổn định,gia đình,bạn bè,tình yêu thì tuyệt vời","can_remove":false,"created_time":"2014-04-14T13:18:58+0000","like_count":4,"user_likes":false},"851320581551287":{"id":"851320581551287","from":{"id":"100000039713069","name":"BakkuTran Love RuriRuri"},"message":"Mình thích suy nghĩ của bạn!","can_remove":false,"created_time":"2014-04-14T13:20:33+0000","like_count":1,"user_likes":false},"851320681551277":{"id":"851320681551277","from":{"id":"100002966928087","name":"Nguyen van Dat"},"message":":V","can_remove":false,"created_time":"2014-04-14T13:20:53+0000","like_count":0,"user_likes":false},"851324934884185":{"id":"851324934884185","from":{"id":"100004198780939","name":"Trần Kim Anh"},"message":"Ôi hay thế!!","can_remove":false,"created_time":"2014-04-14T13:30:19+0000","like_count":1,"user_likes":false},"851327224883956":{"id":"851327224883956","from":{"id":"100002235953037","name":"Cỏ Không Lá"},"message":"hay đấy thím.","can_remove":false,"created_time":"2014-04-14T13:35:44+0000","like_count":2,"user_likes":false},"851327384883940":{"id":"851327384883940","from":{"id":"100002966928087","name":"Nguyen van Dat"},"message":"thím cái gì :v","can_remove":false,"created_time":"2014-04-14T13:36:10+0000","like_count":1,"user_likes":false},"851327624883916":{"id":"851327624883916","from":{"id":"100000500260636","name":"Lưu Nguyễn Thảo Tiên"},"message":"Đúng chức danh","can_remove":false,"created_time":"2014-04-14T13:36:38+0000","like_count":0,"user_likes":false},"851327941550551":{"id":"851327941550551","from":{"id":"100002966928087","name":"Nguyen van Dat"},"message":"Lưu Nguyễn Thảo Tiên chức danh gì","message_tags":[{"id":"100000500260636","name":"Lưu Nguyễn Thảo Tiên","type":"user","offset":0,"length":20}],"can_remove":false,"created_time":"2014-04-14T13:37:29+0000","like_count":0,"user_likes":false},"851328401550505":{"id":"851328401550505","from":{"id":"100000500260636","name":"Lưu Nguyễn Thảo Tiên"},"message":"Là thím đó :v","can_remove":false,"created_time":"2014-04-14T13:38:31+0000","like_count":1,"user_likes":false},"851329418217070":{"id":"851329418217070","from":{"id":"100002966928087","name":"Nguyen van Dat"},"message":"ặc","can_remove":false,"created_time":"2014-04-14T13:40:34+0000","like_count":0,"user_likes":false},"851390631544282":{"id":"851390631544282","from":{"id":"100004288476042","name":"Nguyễn Quyền"},"message":"Nhiều tiền bình yên hết !","can_remove":false,"created_time":"2014-04-14T15:32:26+0000","like_count":1,"user_likes":false},"851405748209437":{"id":"851405748209437","from":{"id":"100008009256613","name":"Bi Bu Bin"},"message":"(y) bình yên: )))).đã đọc","can_remove":false,"created_time":"2014-04-14T16:04:41+0000","like_count":0,"user_likes":false},"851406181542727":{"id":"851406181542727","from":{"id":"100008009256613","name":"Bi Bu Bin"},"message":"(y) bình yên: )))).đã đọc","can_remove":false,"created_time":"2014-04-14T16:05:08+0000","like_count":0,"user_likes":false},"851408851542460":{"id":"851408851542460","from":{"id":"1146680551","name":"優しい なぁ"},"message":"Chà, càng ngày viết lách càng lên tay Nguyen Van Dat nhỉ :3\n\nNgười ta nói, đất lành thì chim đậu. Mà đất lành như thế nào thì còn tùy vào suy nghĩ của mỗi người.\nnhiều người nghĩ, đất lành là nơi kiếm ra tiền. Cũng Đúng, Tiền giải quyết được mọi nhu cầu căn bản của con người.\nNhiều người nghĩ, đất lành là nơi có gia đình bạn bè. Cũng Đúng, có gia đình, bạn bè ở bên cạnh thì buồn, đau ốm có người sẻ chia.\nNhưng, Chữ bình yên thì rộng lắm. Kiếm được chữ bình yên ở đâu đều khó. Ở Nhật, ở VN hay bất cứ đâu cũng vậy.\nThế nên, Bình yên hay không , không quan trọng ta ở đâu, ta làm gì, mà là ta đang nghĩ gì.","can_remove":false,"created_time":"2014-04-14T16:10:12+0000","like_count":6,"user_likes":false},"851421868207825":{"id":"851421868207825","from":{"id":"100003248117243","name":"Sleepy Man"},"message":"Mình thì chẳng thấy sự yên bình đó ở VN. Sự yên bình là ta có thể nghĩ mọi thứ, làm mọi điều ta thích. Thành quả ta nhận lại xứng đáng với công sức ta bỏ ra, không phải lo đầu này đầu nọ. Ở Nhật, làm nhiều ăn nhiều, làm ít ăn ít. Nhưng cho dù làm chỉ 1 tuần như sinh viên đi nữa, vẫn lo đủ cho một cuộc sống bình thường. Nhưng ở VN thì sao, về đến nhà đầu vẫn phải lo tính toán, đơn giản vì có đi làm thế nào đi nữa cũng không thể đủ sống. Như vậy có thật sự là bình yên không?\n\nChưa hết, nhìn mọi thứ có vẻ yên ả, đơn giản vì ta đã quá quen với cuộc sống trong nước, ở Nhật dù gì đi nữa, mọi thứ không thể hoà nhập được hoàn toàn. Nhưng mà, có ai đã thật sự quan tâm hết mọi thứ trong nước chưa? có hiểu rằng nó đang có những cơn sóng ngầm thật sự đợi thời dâng lên chưa?\n\nKinh tế yếu kém, kém đến mức đi đến đâu ai cũng kêu làm ăn khó khăn. Hết năm này đến năm khác, cái thiện ở đâu không thấy, chỉ thấy càng ngày càng kém đi. Về nhà có gia đình ôm ấp chở che, hạnh phúc đấy. Nhưng mà, ngồi im mà lòng không im, có thật sự là yên bình chăng?","can_remove":false,"created_time":"2014-04-14T16:34:34+0000","like_count":6,"user_likes":false},"851432281540117":{"id":"851432281540117","from":{"id":"100001416272263","name":"Mai PB"},"message":"Bình yên không phải từ VN hay từ NB, mà từ con tim mình hướng đến cái gì ở đâu. Nếu một người Nhật thích VN hoặc một người VN thích Nhật, họ vẫn có thể cảm thấy bình yên ở đó. Nó mang ý nghĩa tương đối với từng người, chứ không phải tuyệt đối \"VN thì ồn ào nhưng bình yên\", đúng không Nguyen van Dat?","message_tags":[{"id":"100002966928087","name":"Nguyen van Dat","type":"user","offset":285,"length":14}],"can_remove":false,"created_time":"2014-04-14T16:58:00+0000","like_count":9,"user_likes":false},"851432291540116":{"id":"851432291540116","from":{"id":"100003769578685","name":"Chu An"},"message":"hay quá","can_remove":false,"created_time":"2014-04-14T16:58:02+0000","like_count":0,"user_likes":false},"851435741539771":{"id":"851435741539771","from":{"id":"100000359762118","name":"Mi Tra"},"message":"Bạn đi sống nhờ nhà người khác, dù chủ nhà có thân thiện đến đâu thì cũng ko thể bằng nhà bạn được. Thế nên cảm giác bình yên có được khi bạn trở về nhà là đương nhiên rồi. \n\n Nhật Bản cũng ko hẳn là bức tranh bình lặng như bạn tả đâu.","can_remove":false,"created_time":"2014-04-14T17:06:47+0000","like_count":1,"user_likes":false},"851438184872860":{"id":"851438184872860","from":{"id":"100007930417031","name":"Trang Yamato"},"message":"Về VN, đừng đi làm, đừng ốm đau bệnh tật, đừng ra đường thì sẽ bình yên.","can_remove":false,"created_time":"2014-04-14T17:11:55+0000","like_count":5,"user_likes":false},"851501194866559":{"id":"851501194866559","from":{"id":"100008094602427","name":"Haken Kyujin"},"message":"Có bình yên hay không đó là do chính bản thân mình  chứ ko phải cuộc sống xung quanh tác động lên nó.","can_remove":false,"created_time":"2014-04-14T19:13:50+0000","like_count":0,"user_likes":false},"851638738186138":{"id":"851638738186138","from":{"id":"100007799370568","name":"Shigatsu No Sakura"},"message":"câu chuyện về hai bức tranh đó mình cũng đọc hồi trước rồi.dù sao nó cũng chỉ động viên con người thôi chứ xa thực tế lắm.làm sao có thể thấy bình yên nếu người thân của mình mắc trọng bệnh,làm sao thấy bình yên khi bạn tốt của mình gặp hiểm nguy,làm sao thấy bình yên nếu bị tống tiền hay bắt cóc.nói chung đã là con người thì phải có cảm xúc,thậm chí là nhiều cảm xúc.còn về môi trường sống nào là tốt nhất thì ai học hết câp 2 cũng đều biết chuyện mẹ hiền dạy con,Mạnh Mẫu đã  không ngại đổi chỗ ở mấy lần để Mạnh Tử học được điều hay lẽ phải,sau này Mạnh Tử đã trở thành vĩ nhân qua bao thế kỷ vẫn được người đời biết đến.","can_remove":false,"created_time":"2014-04-15T01:11:49+0000","like_count":4,"user_likes":false},"851642728185739":{"id":"851642728185739","from":{"id":"100001416272263","name":"Mai PB"},"message":"Ta bình yên mà những người xung quanh không bình yên được, vậy có là bình yên thật sự không?","can_remove":false,"created_time":"2014-04-15T01:26:21+0000","like_count":7,"user_likes":false},"851646888185323":{"id":"851646888185323","from":{"id":"1725907325","name":"Nguyen Van Dung"},"message":"Có lẽ phải định nghĩa lại 2 chữ bình yên và phân loại nó nhỉ, mọi người.\n\nAnh Mai FB, hộ em cái. :) ^^","can_remove":false,"created_time":"2014-04-15T01:38:08+0000","like_count":0,"user_likes":false},"851648144851864":{"id":"851648144851864","from":{"id":"100001416272263","name":"Mai PB"},"message":"Nó là triết lý sống, nghĩa là mỗi ng có triết lý riêng, phân loại sao đây. Bày tỏ quan niệm của mình để tham khảo vậy thôi, không có đúng sai gì cả.","can_remove":false,"created_time":"2014-04-15T01:41:18+0000","like_count":2,"user_likes":false},"851655144851164":{"id":"851655144851164","from":{"id":"100000747635624","name":"Nguyễn Xuân Đại"},"message":"Mình nghĩ nhận xét này chỉ đúng với góc nhìn của cá nhân bạn.","can_remove":false,"created_time":"2014-04-15T02:03:38+0000","like_count":0,"user_likes":false},"851669464849732":{"id":"851669464849732","from":{"id":"100000579915348","name":"Hoàng Phi Điệp"},"message":"Có bình yên hay không đó là do chính bản thân mình  chứ ko phải cuộc sống xung quanh tác động lên nó???\n===\nBạn nói thật chứ? \nKinh tế kém, cty bạn cắt giảm nhân sự cho bạn nghỉ việc => bạn có bình yên được không?\n\nBạn đang làm ăn kinh doanh, có một nhóm người đại diện cho một cơ quan quản lý NN đến và đưa ra một loạt các quy định các nghị định và lung tung định... mà để thực hiện được còn khó hơn lên trời. Sau đó lập biên bản yêu cầu bạn ngừng hoạt động kinh doanh... Sau một hồi xin xỏ qua lại, đe nẹt và doạ nạt thì một con số được đưa ra... Và thế là bạn đi đứt 3 tháng tiền sinh sống cho cả gia đình bạn mà bạn là trụ cột => bạn có bình yên không?\n\nBạn bị nhức đầu sổ mũi, không biết bệnh gì, vào bệnh viện bạn nộp tiền khám dịch vụ. Đang chờ đúng đến lượt mình thì một bác sỹ ở đâu đến dắt một người chen ngang bạn và bạn phải tiếp tục chờ. Khi vào phòng bệnh\nBạn thắc mắc thì bác sỹ trợn mắt mắng bạn => bạn có bình yên được không? \n\nBạn về quê chơi, chẳng may đi nhầm vào đường cấm của xã, có cái biển cấm viết tay nguệch ngoạc mờ tịt và bé tý, chưa kịp định thần thì bị mấy đ/c công an viên của xã nhảy xổ ra túm cổ lôi xềnh xệch bạn. Chưa kịp định thần chỉ kịp thốt lên: \"Ơ, các ông làm cái trò gì vậy, sao lại kéo tôi\". Thì bốp bốp: \"A thằng này láo, đã đi vào đường cấm mà còn cãi à? Mắt mày mù à?\" \"Tôi có thấy biển cấm nào đâu?\" \"A thằng này khoẻ cãi. Mày cãi này\". Thế là sau một hồi binh bốp bạn được nằm theo phương song song với mặt đất và được đăng ký tạm trú 24h tại trụ sở xã. => bạn có bình yên được không.\n\nĐây là vài giả thiết mình vẽ ra theo vô vàn những thông tin có thật đăng hằng ngày đầy ắp trên báo chí chính thống của nước nhà. Mình không bịa! => bạn, mình và tất cả chúng ta có bình yên được không?","can_remove":false,"created_time":"2014-04-15T02:43:47+0000","like_count":4,"user_likes":false},"851671114849567":{"id":"851671114849567","from":{"id":"100000579915348","name":"Hoàng Phi Điệp"},"message":"Ai cũng mong muốn được bình yên trong cuộc sống nhưng nó phụ thuộc rất nhiều thứ xảy ra xung quanh mình. Do vậy, muốn bình yên thì hãy \"cầu trời\" đừng xảy ra những điều không may mắn với mình và những người mình thương yêu.","can_remove":false,"created_time":"2014-04-15T02:49:26+0000","like_count":2,"user_likes":false},"851708714845807":{"id":"851708714845807","from":{"id":"569263718","name":"Phuong Thao Tran"},"message":"nó sẽ đệ quy đấy Hoàng Phi Điệp, :D","message_tags":[{"id":"100000579915348","name":"Hoàng Phi Điệp","type":"user","offset":17,"length":14}],"can_remove":false,"created_time":"2014-04-15T03:20:34+0000","like_count":0,"user_likes":false},"851710481512297":{"id":"851710481512297","from":{"id":"100000579915348","name":"Hoàng Phi Điệp"},"message":"Mình chưa hiểu ý bạn? Phuong Thao Tran.","can_remove":false,"created_time":"2014-04-15T03:25:14+0000","like_count":0,"user_likes":false}},"paging":{"cursors":{"after":"ODUxMzE0MzA0ODg1MjQ4","before":"ODUxMzE0MzA0ODg1MjQ4"},"next":"https://graph.facebook.com/229244010425617_851310768218935/comments?limit=1&summary=1&after=ODUxMzE0MzA0ODg1MjQ4"},"summary":{"order":"chronological","total_count":34}}}