{"id":"229244010425617_851309074885771","type":"status","from":{"id":"1341670471","name":"An Nguyen"},"message":"Mình nói lên y kiến cá nhân, mình biết sẽ có người đồng tình và không đồng tình\nMình thật sự khong muốn xem ti vi bên nhật đâu , vì ông xa mình hay coi về tin tức nên minh không biết sẽ lúc nào đó việt Nam lại nổi lên\nNhiều khi làm lơ mà ông xã kêu mình xem để biết tình hình thôi, nhưng mỗi lúc cãi nhau thì ông xã mình hay nói \" thật sai lầm...\" ( mình biết khi nóng lên thì ai cũng nói k kiểm soát chứ k ý j )\nHai vợ chồng mình quyết đinh về việt Nam sống nhưng thật là khó chịu khi ông xa mình chứng kiến cảnh đêm khuya 3-4 g sáng thì cẩu tặc leo vô nhà bắt cho của mình, lấy máy bơm nước của mình.. Rồi thi thấy mình lót tay cho mấy ng làm giấy tờ nhà.. Ông xã mình nói :' việt Nam phức tạp hơn những j ông xã minh nghĩ , thật là sai lầm khi sống ở viêt Nam, nào là ăn trộm , hối lộ, ở dơ...\nRồi về đây chơi mấy tháng thì dạo này hot tin tức liên tục về việt nam đặc biệt là trộm cắp.. Thì ông xã hỏi : \" sao Việt Nam nhiều ăn cắp thế?!\"\nLúc đó mình chỉ im lặng, như cố né tránh câu hỏi và chuyển sang vấn đề khác.\nĂn cắp thì các bạn biện minh hoàn cảnh, rồi nói minh k làm thì sợ j.. Vậy các bạn có biết khi ăn cắp thi người ta sẽ ngay tới người nghèo chứ k ai nghĩ ng giàu, và cũng như thế, nếu tình trạng này kéo dài thì đứng giữa các nước, nếu xảy ra tình trạng mất đồ thì nước nào sẽ bị nghi ngờ hơn. Rồi dù bạn k làm nhưng bạn sẽ là ng bị xét đầu tiên thì bạn cảm thấy khó chịu k.. Các bạn k làm điều xấu thì còn thoải mái khi các ban qua đây chỉ du học hay tu nghiệp sinh j đó thôi, vài năm về nước là k cần quan tâm tới nước nhật nhiều, còn mình và những người kết hôn với người nhật, có một gia đình thứ hai bên nhật thì cái time đối diện k hề ngắn,và nó có thể là mãi mãi nếu cứ thế nối tiếp nhau làm những điều xấu.. \nVà nay tiếp diễn thêm vố lớn hơn là trồng cả cần sa, thì thôi ơi, Việt Nam minh thì còn sợ j ai.. Lúc này thì biện minh cho lí do hoàn cảnh j đây hỡi các bạn\nMình nói lên thì hì vọng những ai chưa lỡ bước thì hãy cố giữ mình nhé, và những ai có thể thì hãy thể hiện mình trước người nhật dù chỉ là những hành động nhỏ... Lấy thiện cảm lại với mọi người.. Mình chưa bao giờ viết bài trong group nên có j đó thì mong các bạn bỏ qua...","created_time":"2014-04-14T12:53:00+0000","updated_time":"2014-04-15T22:24:07+0000","likes":{"data":{"100000110765909":{"id":"100000110765909","name":"Thảo Nguyễn"},"100001807609603":{"id":"100001807609603","name":"Nguyễn Khánh Huyền"},"100002618328161":{"id":"100002618328161","name":"Lê Đức Thịnh"},"100000221260528":{"id":"100000221260528","name":"Đào Xuân Kiên"},"100002916376886":{"id":"100002916376886","name":"Thủy Bee"},"100003052986106":{"id":"100003052986106","name":"Kún ZumBie"},"100003188533652":{"id":"100003188533652","name":"Thao Nguyen"},"100000983811825":{"id":"100000983811825","name":"Hoa Lê"},"100001796487257":{"id":"100001796487257","name":"Tuấn Anh"},"100002954712134":{"id":"100002954712134","name":"La Quang Tiến"},"100003181743412":{"id":"100003181743412","name":"Pham Kha"},"100001650056739":{"id":"100001650056739","name":"Tồn Dương"},"100001416272263":{"id":"100001416272263","name":"Mai PB"},"100007909359766":{"id":"100007909359766","name":"Phi Thuy"},"100003894790209":{"id":"100003894790209","name":"Linh Phạm"},"779812883":{"id":"779812883","name":"Nguyen NgocAnh"},"100004621177594":{"id":"100004621177594","name":"Huy Luong"},"100003913383051":{"id":"100003913383051","name":"Tho Tran"},"100000208982983":{"id":"100000208982983","name":"Ajima Trinh"},"100008061784579":{"id":"100008061784579","name":"Hoàng Tuấn"},"100000399315424":{"id":"100000399315424","name":"Rô Rô"},"100006681162163":{"id":"100006681162163","name":"Thich LaNhich"},"100000258880251":{"id":"100000258880251","name":"Carson Yang"},"100000703348447":{"id":"100000703348447","name":"Lan Lan"},"1146680551":{"id":"1146680551","name":"優しい なぁ"},"100000381394367":{"id":"100000381394367","name":"Thành Nguyễn"},"100001688644423":{"id":"100001688644423","name":"Hong Do"},"100005801442456":{"id":"100005801442456","name":"An Nguyen"},"100001311893008":{"id":"100001311893008","name":"Nguyen Minh"},"100004458494037":{"id":"100004458494037","name":"Hong Nguyen"},"100003226296157":{"id":"100003226296157","name":"Hirokazu Yano"},"100000500260636":{"id":"100000500260636","name":"Lưu Nguyễn Thảo Tiên"},"100004747622463":{"id":"100004747622463","name":"Tuan Phuong"},"100001754136107":{"id":"100001754136107","name":"Nguyễn Tuấn Vũ"},"100000816600741":{"id":"100000816600741","name":"Phuong Nguyen"},"100000876802397":{"id":"100000876802397","name":"Trần Bảo Ngân"},"1632560981":{"id":"1632560981","name":"Thanh Nguyen"},"100008115937632":{"id":"100008115937632","name":"Minh Thuý"},"100003165554056":{"id":"100003165554056","name":"Sâu Bét"},"100001458099624":{"id":"100001458099624","name":"Kham Pha"},"100003207764143":{"id":"100003207764143","name":"Anh Vũ Thái"},"1686769839":{"id":"1686769839","name":"Anh Phúc Cùi Bắp"},"1490793154":{"id":"1490793154","name":"Khanh Trinh"},"100003206037078":{"id":"100003206037078","name":"Ngần Lumia"},"100004351478036":{"id":"100004351478036","name":"Ngán Cái Cuộc Đời"},"100002393421147":{"id":"100002393421147","name":"Huy Nguyễn"},"100003135476190":{"id":"100003135476190","name":"Huyen Nguyen"},"100000271705877":{"id":"100000271705877","name":"Nguyễn Văn Minh"},"100004128252349":{"id":"100004128252349","name":"Vô Ưu"},"100004350698536":{"id":"100004350698536","name":"Daothuy Nga"},"1303217748":{"id":"1303217748","name":"Trinh Thi Thanh Duyen"},"100003269334465":{"id":"100003269334465","name":"Hongnhi Nguyen"},"100004826141277":{"id":"100004826141277","name":"Thuỷ Còi"},"100006337662088":{"id":"100006337662088","name":"LO Ve SOe BOd"},"100004445826984":{"id":"100004445826984","name":"Ong Noi Viet"},"100006617707180":{"id":"100006617707180","name":"Đức Thanh"},"100004134600593":{"id":"100004134600593","name":"Kien Pham"},"100006248618563":{"id":"100006248618563","name":"Momi Zi"},"100007963716784":{"id":"100007963716784","name":"Ninh Thị Hường"},"100003065966506":{"id":"100003065966506","name":"Hùng Khùng"},"100002558853425":{"id":"100002558853425","name":"Thành Nguyễn"},"100000810586901":{"id":"100000810586901","name":"TanTan Do"},"100003724419279":{"id":"100003724419279","name":"Diệu Linh"}},"paging":{"cursors":{"after":"MTAwMDAwMTEwNzY1OTA5","before":"MTAwMDAwMTEwNzY1OTA5"},"next":"https://graph.facebook.com/229244010425617_851309074885771/likes?limit=1&summary=1&after=MTAwMDAwMTEwNzY1OTA5"},"summary":{"total_count":64}},"comments":{"data":[{"id":"851310271552318","from":{"id":"100000810586901","name":"TanTan Do"},"message":"Bức xúc dữ zậy em, bệnh này bs bó tay rồi,","can_remove":false,"created_time":"2014-04-14T12:56:27+0000","like_count":2,"user_likes":false}],"paging":{"cursors":{"after":"ODUxMzEwMjcxNTUyMzE4","before":"ODUxMzEwMjcxNTUyMzE4"},"next":"https://graph.facebook.com/229244010425617_851309074885771/comments?limit=1&summary=1&after=ODUxMzEwMjcxNTUyMzE4"},"summary":{"order":"chronological","total_count":32}}}