{"id":"229244010425617_851407671542578","type":"link","picture":"https://external.xx.fbcdn.net/safe_image.php?d=AQDIWZWuJWyiu5Sa&w=154&h=154&url=http%3A%2F%2Famd.c.yimg.jp%2Fim_siggrhFy5MINNRE9xtIaQuB95A---x134-y200-q90%2Famd%2F20140414-00000002-kobenext-000-6-view.jpg&l","link":"http://headlines.yahoo.co.jp/hl?a=20140414-00000002-kobenext-soci","from":{"id":"100001416272263","name":"Mai PB"},"message":"Không muốn nhưng cũng phải đưa tin xấu tiếp. Mới có 6 người VN bị bắt vì trồng cần sa tại Kobe. Đoán rằng phần lớn là người VN tị nạn, vì những vụ việc như thế này đã xảy ra từ hàng chục năm trước rồi. Kobe cũng là nơi sinh sống của rất nhiều người tị nạn VN, tương tự như cộng đồng tị nạn ở Kanagawa. (PS: Có thể đọc comment của người Nhật ở dưới)\nhttp://headlines.yahoo.co.jp/hl?a=20140414-00000002-kobenext-soci\n\nXem video thì ở đây. Báo này cho biết đây là vụ quy mô lớn nhất từ hồi năm 1998, và là vụ thứ 3 bị phát hiện từ năm ngoái, đều là người VN ở Kobe.\nhttp://www.kobe-np.co.jp/news/jiken/201404/0006862989.shtml\nhttps://www.youtube.com/watch?v=FDWWNeDuFg8\n\nPhóng sự của TV Nippon Television dưới đây cho biết bọn này còn ăn cắp cả điện từ 3 đường điện khác nhau để trồng cần sa. Và phải cần 10 xe tải mới chở hết số cần sa tang vật này.\nhttp://www.news24.jp/nnn/news8899614.html","created_time":"2014-04-14T16:07:39+0000","updated_time":"2014-04-15T15:35:42+0000","likes":{"data":{"100003147198530":{"id":"100003147198530","name":"Minh Thuận"},"100003052986106":{"id":"100003052986106","name":"Kún ZumBie"},"100006750000025":{"id":"100006750000025","name":"Mai Hoàng Đức"},"100000909082169":{"id":"100000909082169","name":"Hương Nhật Cần Nắng"},"100001222113521":{"id":"100001222113521","name":"Tạ Thu Hường"},"1566523575":{"id":"1566523575","name":"Hoàng Nguyễn"},"100000917490385":{"id":"100000917490385","name":"Vân Anh Hoàng"},"100000381394367":{"id":"100000381394367","name":"Thành Nguyễn"},"100004445826984":{"id":"100004445826984","name":"Ong Noi Viet"},"100001432462223":{"id":"100001432462223","name":"Truong Nguyen"},"100004057374771":{"id":"100004057374771","name":"Sử Hữu Việt"},"100001796487257":{"id":"100001796487257","name":"Tuấn Anh"},"100005441644764":{"id":"100005441644764","name":"Bố Tao Đầy Tiền"},"100004116577285":{"id":"100004116577285","name":"Cuong Giang"},"100004075370074":{"id":"100004075370074","name":"Hanh NguyenThi"},"100000141968619":{"id":"100000141968619","name":"Chacha Bubu"},"100000256064180":{"id":"100000256064180","name":"Tran Vu"},"100003134784326":{"id":"100003134784326","name":"Sao Mai"},"100001872458112":{"id":"100001872458112","name":"Alita Nguyen"},"100005566122039":{"id":"100005566122039","name":"Son Nich"},"100007046977797":{"id":"100007046977797","name":"Tutj Huy"},"100003683896765":{"id":"100003683896765","name":"Song La Phai Mo"},"100003521794748":{"id":"100003521794748","name":"Hoàng Trần Ngọc Cường"},"100000221260528":{"id":"100000221260528","name":"Đào Xuân Kiên"},"100001526631937":{"id":"100001526631937","name":"Tường Oanh Mineko"},"100002966928087":{"id":"100002966928087","name":"Nguyen van Dat"},"100007642115476":{"id":"100007642115476","name":"Kim Oanh Nguyen Thi"},"100000500260636":{"id":"100000500260636","name":"Lưu Nguyễn Thảo Tiên"},"100000747635624":{"id":"100000747635624","name":"Nguyễn Xuân Đại"},"100002166530269":{"id":"100002166530269","name":"Thuấn Chelsea"},"100000095655445":{"id":"100000095655445","name":"Kamiya Satoshi"},"100000579915348":{"id":"100000579915348","name":"Hoàng Phi Điệp"},"100000504109240":{"id":"100000504109240","name":"Khánh Trình"},"100004351478036":{"id":"100004351478036","name":"Ngán Cái Cuộc Đời"},"100003962466662":{"id":"100003962466662","name":"Dương Dũng"},"100002223951860":{"id":"100002223951860","name":"Thêm Trần Thị"},"100003874040211":{"id":"100003874040211","name":"Long Bui"},"100001718883015":{"id":"100001718883015","name":"Sayonara Daisukina Hito"},"100000769990638":{"id":"100000769990638","name":"Nguyen Tuan"},"100006056231053":{"id":"100006056231053","name":"Trường Tồn"},"100007995421886":{"id":"100007995421886","name":"Ừ Anh Sẽ Đợi"},"1683010782":{"id":"1683010782","name":"Luan Nguyen"},"100004374573625":{"id":"100004374573625","name":"Theu Vu"},"100005891501510":{"id":"100005891501510","name":"Nhóc À Kim"},"100000822450585":{"id":"100000822450585","name":"Tuấn Nguyễn Hữu"},"100004199198189":{"id":"100004199198189","name":"Cường Vũ"},"100003075823746":{"id":"100003075823746","name":"Strong Cuong"},"525828985":{"id":"525828985","name":"Cindy Taiki"},"100000309153854":{"id":"100000309153854","name":"Pham Thuong"},"100003143534122":{"id":"100003143534122","name":"Thuong Hoai"},"100002959594535":{"id":"100002959594535","name":"Nguyen Ngoc Anh"},"100000608338682":{"id":"100000608338682","name":"Trinh Minh Hoa"},"100007224720779":{"id":"100007224720779","name":"Tý Tởn"},"100000154325668":{"id":"100000154325668","name":"Lam Buong Binh"},"100002427715884":{"id":"100002427715884","name":"Hell Angel"},"100000126462919":{"id":"100000126462919","name":"Thao Phan"},"100003276696481":{"id":"100003276696481","name":"Viet Đong"},"100003913383051":{"id":"100003913383051","name":"Tho Tran"},"100000603915176":{"id":"100000603915176","name":"悪いな ぁ"},"100006129570763":{"id":"100006129570763","name":"Dương Văn Hiển"},"100002974724594":{"id":"100002974724594","name":"Mai Chu"},"100005307004792":{"id":"100005307004792","name":"Kiều Văn"},"100003124307460":{"id":"100003124307460","name":"Duc Giang"},"100004285329814":{"id":"100004285329814","name":"Nhóc Maruko"},"100003578589205":{"id":"100003578589205","name":"Phuong Tam Ngo"},"1146680551":{"id":"1146680551","name":"優しい なぁ"},"100001667142117":{"id":"100001667142117","name":"Kẻ Cắp Thời Gian"},"100005570016402":{"id":"100005570016402","name":"Nguyễn Lừng"},"100001597707261":{"id":"100001597707261","name":"Nguyên Tóc Xù"},"100004896576660":{"id":"100004896576660","name":"Ken Lanh Lung"},"100003402699439":{"id":"100003402699439","name":"Trang Chan"},"100001616374728":{"id":"100001616374728","name":"Haruka Kanno"},"100001995633843":{"id":"100001995633843","name":"Yasunobu Toda"},"100003627965168":{"id":"100003627965168","name":"Gấu Ngốc Nghếch"},"100001713699481":{"id":"100001713699481","name":"Vũ Huyền Trang"},"1211853514":{"id":"1211853514","name":"Mai Le"},"100003933466469":{"id":"100003933466469","name":"Phong Aki"},"100003254627434":{"id":"100003254627434","name":"Belongs To Nắng"},"100001807609603":{"id":"100001807609603","name":"Nguyễn Khánh Huyền"},"100003496048128":{"id":"100003496048128","name":"Hư Vô"},"100003575935092":{"id":"100003575935092","name":"Lolo Nguyen"},"100002985009288":{"id":"100002985009288","name":"Thúy Nga Nguyễn"},"100005801442456":{"id":"100005801442456","name":"An Nguyen"},"100004039857628":{"id":"100004039857628","name":"Yen Chu"},"100006087877560":{"id":"100006087877560","name":"Bố Bé Pon"},"100004016335743":{"id":"100004016335743","name":"Trần Khôi"},"100003814756892":{"id":"100003814756892","name":"Hai Nguyen"},"100003227211791":{"id":"100003227211791","name":"Lan Lan"},"100004096243144":{"id":"100004096243144","name":"Shorai Nguyễn"},"100004985590880":{"id":"100004985590880","name":"Vi Vi"},"100000399315424":{"id":"100000399315424","name":"Rô Rô"}},"paging":{"cursors":{"after":"MTAwMDAzMTQ3MTk4NTMw","before":"MTAwMDAzMTQ3MTk4NTMw"},"next":"https://graph.facebook.com/229244010425617_851407671542578/likes?limit=1&summary=1&after=MTAwMDAzMTQ3MTk4NTMw"},"summary":{"total_count":92}},"comments":{"data":[{"id":"851410171542328","from":{"id":"100000478623193","name":"Nguyễn Đức Dũng"},"message":"ở Nhật cũng cho tị nạn cơ á. có khi đóng quả thuyền bơi sang mới đc","can_remove":false,"created_time":"2014-04-14T16:13:14+0000","like_count":0,"user_likes":false}],"paging":{"cursors":{"after":"ODUxNDEwMTcxNTQyMzI4","before":"ODUxNDEwMTcxNTQyMzI4"},"next":"https://graph.facebook.com/229244010425617_851407671542578/comments?limit=1&summary=1&after=ODUxNDEwMTcxNTQyMzI4"},"summary":{"order":"chronological","total_count":69}}}