{"id":"229244010425617_851464424870236","type":"status","from":{"id":"1146680551","name":"優しい なぁ"},"message":"Cấu trúc: ~Aきれない: ~ A Không nổi\nきれない=きれず\n\n多すぎて食べきらず残した。　\n多すぎて食べきれなくて残した。\n=> Nhiều quoá, ăn hem nổi nên đã chừa lại.\n\ngalaxy note4待ちきれずにnote3を買った。\n=> đợi hem nổi galaxy n4, nên đã mua galaxy 3\n\nあなたが帰って来るのを待ちきれない。\n=> Không đợi nỗi đến khi e về.\n\n彼のことをよく考えると、彼を愛しきれないじゃん！けちな男だし~\n=> suy đi tính lại thì k iu a ta nổi đâu. Một lão keo kiệt vãi ~","created_time":"2014-04-14T17:51:16+0000","updated_time":"2014-04-15T03:40:42+0000","likes":{"data":{"100003227211791":{"id":"100003227211791","name":"Lan Lan"},"100000500260636":{"id":"100000500260636","name":"Lưu Nguyễn Thảo Tiên"},"100000148600266":{"id":"100000148600266","name":"Tamomi Chan"},"100001659230540":{"id":"100001659230540","name":"Lemon Tea"},"100004078906472":{"id":"100004078906472","name":"Thiên Bình"},"100004096243144":{"id":"100004096243144","name":"Shorai Nguyễn"},"100004452123869":{"id":"100004452123869","name":"Pham Tiên Bach"},"100000098177754":{"id":"100000098177754","name":"Quái Vật"},"100000257464771":{"id":"100000257464771","name":"Trương Ngọc Điệp"},"100002348937847":{"id":"100002348937847","name":"Xanh Le Te"},"100001603404890":{"id":"100001603404890","name":"Nguyen Hang"},"100005468251147":{"id":"100005468251147","name":"Ka Ka"},"100000175468518":{"id":"100000175468518","name":"Chj Koj"},"100003282697164":{"id":"100003282697164","name":"Nguyễn Văn Vương"},"100006822601471":{"id":"100006822601471","name":"Thành Danh"},"1725907325":{"id":"1725907325","name":"Nguyen Van Dung"},"100001526631937":{"id":"100001526631937","name":"Tường Oanh Mineko"},"100005940993762":{"id":"100005940993762","name":"Hiroko  Horiuchi"},"100003668363026":{"id":"100003668363026","name":"Esctasy Ketamin"},"100000095655445":{"id":"100000095655445","name":"Kamiya Satoshi"},"100001807609603":{"id":"100001807609603","name":"Nguyễn Khánh Huyền"},"100002954712134":{"id":"100002954712134","name":"La Quang Tiến"},"100002976213828":{"id":"100002976213828","name":"Nana"},"100000089472724":{"id":"100000089472724","name":"Duy Nguyen"},"100003207764143":{"id":"100003207764143","name":"Anh Vũ Thái"},"100001842961157":{"id":"100001842961157","name":"Hoa Biển Trắng"},"100004374573625":{"id":"100004374573625","name":"Theu Vu"},"100007798380150":{"id":"100007798380150","name":"海外移住"},"100005891501510":{"id":"100005891501510","name":"Nhóc À Kim"},"100004915360462":{"id":"100004915360462","name":"Phamtuyen Pc"},"100001775719325":{"id":"100001775719325","name":"Nguyễn Ngọc Trang"},"100000040762045":{"id":"100000040762045","name":"Bình Minh"},"100000126462919":{"id":"100000126462919","name":"Thao Phan"},"100003913383051":{"id":"100003913383051","name":"Tho Tran"},"100005770027426":{"id":"100005770027426","name":"Nặc Danh"},"100000603915176":{"id":"100000603915176","name":"悪いな ぁ"},"100003956124579":{"id":"100003956124579","name":"Cua Bướng Bỉnh"},"100007015261176":{"id":"100007015261176","name":"Anata Ni Deaete Yokatta"},"100006933518153":{"id":"100006933518153","name":"Mai Hạnh Nguyễn"},"100005588653854":{"id":"100005588653854","name":"Không Là Ai"},"100002628200732":{"id":"100002628200732","name":"Sáng Mắt Thấy Tiền"}},"paging":{"cursors":{"after":"MTAwMDAzMjI3MjExNzkx","before":"MTAwMDAzMjI3MjExNzkx"},"next":"https://graph.facebook.com/229244010425617_851464424870236/likes?limit=1&summary=1&after=MTAwMDAzMjI3MjExNzkx"},"summary":{"total_count":41}},"comments":{"data":{"851474418202570":{"id":"851474418202570","from":{"id":"100000603915176","name":"悪いな ぁ"},"message":"Thực ra gọi là không hết thì chuẩn hơn chứ nhỉ :)","can_remove":false,"created_time":"2014-04-14T18:13:30+0000","like_count":1,"user_likes":false},"851475664869112":{"id":"851475664869112","from":{"id":"1146680551","name":"優しい なぁ"},"message":"Không nổi chứ :3","can_remove":false,"created_time":"2014-04-14T18:15:33+0000","like_count":0,"user_likes":false},"851476324869046":{"id":"851476324869046","from":{"id":"1103173052","name":"Uyên Nguyễn"},"message":"Ngủ đi 2 chị. Đêm đã khuya rồi.","can_remove":false,"created_time":"2014-04-14T18:16:45+0000","like_count":2,"user_likes":false},"851477018202310":{"id":"851477018202310","from":{"id":"100000603915176","name":"悪いな ぁ"},"message":"食べきれない -> ăn không hết, ăn không sạch. Không nổi là trạng thái \"khả năng\", nhưng ở đây cho dù ăn đc mà không ăn nốt thì gọi vậy cũng ok mà :)","can_remove":false,"created_time":"2014-04-14T18:18:03+0000","like_count":2,"user_likes":false},"851477514868927":{"id":"851477514868927","from":{"id":"1103173052","name":"Uyên Nguyễn"},"message":"Ngủ đi chị ぁ 悪いな ơiiiiiiiiii","message_tags":[{"id":"100000603915176","name":"ぁ 悪いな","type":"user","offset":11,"length":5}],"can_remove":false,"created_time":"2014-04-14T18:18:57+0000","like_count":2,"user_likes":false},"851477618202250":{"id":"851477618202250","from":{"id":"100000603915176","name":"悪いな ぁ"},"message":"Ờ, chị ngủ đây.","can_remove":false,"created_time":"2014-04-14T18:19:29+0000","like_count":0,"user_likes":false},"851477751535570":{"id":"851477751535570","from":{"id":"1146680551","name":"優しい なぁ"},"message":"早く寝るようせかす。(-_-)","can_remove":false,"created_time":"2014-04-14T18:20:01+0000","like_count":1,"user_likes":false},"851639668186045":{"id":"851639668186045","from":{"id":"569263718","name":"Phuong Thao Tran"},"message":"nói đúng hơn là không thể... hết chứ nhỉ, vì Vます＋きる: là.... V hết","can_remove":false,"created_time":"2014-04-15T01:15:11+0000","like_count":2,"user_likes":false},"851647184851960":{"id":"851647184851960","from":{"id":"100003205232355","name":"Nguyen Viet Tien"},"message":"Cái này là hết V :))","can_remove":false,"created_time":"2014-04-15T01:39:09+0000","like_count":0,"user_likes":false},"851659271517418":{"id":"851659271517418","from":{"id":"1146680551","name":"優しい なぁ"},"message":"Phuong Thao Tran: không nổi theo e nó sát hơn. Vì nếu theo tiếng việt dễ nhầm qua thể khả năng đúng hem :3","can_remove":false,"created_time":"2014-04-15T02:15:51+0000","like_count":0,"user_likes":false},"851663084850370":{"id":"851663084850370","from":{"id":"100000603915176","name":"悪いな ぁ"},"message":"Ừm, PTT chuẩn, quên mất là nó từ きる, sorry em 優しい một nửa ^_^","can_remove":false,"created_time":"2014-04-15T02:25:26+0000","like_count":0,"user_likes":false},"851702201513125":{"id":"851702201513125","from":{"id":"100001526631937","name":"Tường Oanh Mineko"},"message":"\"あなたが帰って来るのを待ちきれない\"  <---- \"ko chịu nỗi\" thì làm chi anh Dễ....hè? :v","can_remove":false,"created_time":"2014-04-15T03:01:18+0000","like_count":0,"user_likes":false},"851715374845141":{"id":"851715374845141","from":{"id":"1146680551","name":"優しい なぁ"},"message":"寝ちゃった(^_-)","can_remove":false,"created_time":"2014-04-15T03:40:42+0000","like_count":0,"user_likes":false}},"paging":{"cursors":{"after":"ODUxNDc0NDE4MjAyNTcw","before":"ODUxNDc0NDE4MjAyNTcw"},"next":"https://graph.facebook.com/229244010425617_851464424870236/comments?limit=1&summary=1&after=ODUxNDc0NDE4MjAyNTcw"},"summary":{"order":"chronological","total_count":13}}}