{"id":"229244010425617_851402628209749","type":"link","picture":"https://fbcdn-photos-h-a.akamaihd.net/hphotos-ak-frc3/t1.0-0/10255286_692668357457678_5964622944221129832_s.jpg","link":"https://www.facebook.com/groups/157641594306750/permalink/647737775297127/","from":{"id":"100001416272263","name":"Mai PB"},"message":"Thứ 7 tuần sau 26/4 ở SG sẽ có lễ hội Nhật Bản do Tổng Lãnh Sự Quán Nhật tại VN tổ chức, giới thiệu văn hóa Nhật và cả thông tin du học Nhật. Nhưng chỉ từ 9h sáng đến mỗi 2h chiều, sao ngắn vậy nhỉ?","created_time":"2014-04-14T15:58:08+0000","updated_time":"2014-04-15T15:38:16+0000","likes":{"data":{"100004445826984":{"id":"100004445826984","name":"Ong Noi Viet"},"100001727253941":{"id":"100001727253941","name":"Peconpe Pe"},"100003075823746":{"id":"100003075823746","name":"Strong Cuong"},"100002985009288":{"id":"100002985009288","name":"Thúy Nga Nguyễn"},"100001834667912":{"id":"100001834667912","name":"Rebecah Ngo"},"569263718":{"id":"569263718","name":"Phuong Thao Tran"},"1146680551":{"id":"1146680551","name":"優しい なぁ"},"657157297":{"id":"657157297","name":"Phan Dien"}},"paging":{"cursors":{"after":"MTAwMDA0NDQ1ODI2OTg0","before":"MTAwMDA0NDQ1ODI2OTg0"},"next":"https://graph.facebook.com/229244010425617_851402628209749/likes?limit=1&summary=1&after=MTAwMDA0NDQ1ODI2OTg0"},"summary":{"total_count":8}},"comments":{"data":[{"id":"851403364876342","from":{"id":"1846702723","name":"Phạm Quang Phú"},"message":"Setsuna Seiei trường mình nè ku","message_tags":[{"id":"100004963388755","name":"Setsuna Seiei","type":"user","offset":0,"length":13}],"can_remove":false,"created_time":"2014-04-14T15:59:59+0000","like_count":1,"user_likes":false}],"paging":{"cursors":{"after":"ODUxNDAzMzY0ODc2MzQy","before":"ODUxNDAzMzY0ODc2MzQy"},"next":"https://graph.facebook.com/229244010425617_851402628209749/comments?limit=1&summary=1&after=ODUxNDAzMzY0ODc2MzQy"},"summary":{"order":"chronological","total_count":2}}}