{"id":"229244010425617_851669591516386","type":"status","from":{"id":"100007843895950","name":"Hột Mít"},"message":"Cho em hỏi là mọi người nói 1 từ hoặc 1 câu rồi ghép \"って\" là sao ạ. Em thấy ghép vô như vậy nói cảm giác câu mềm và rất tự nhiên.","created_time":"2014-04-15T02:44:10+0000","updated_time":"2014-04-16T04:28:51+0000","likes":{"data":{"100006927611384":{"id":"100006927611384","name":"Thanh Xuân"},"100001727253941":{"id":"100001727253941","name":"Peconpe Pe"}},"paging":{"cursors":{"after":"MTAwMDA2OTI3NjExMzg0","before":"MTAwMDA2OTI3NjExMzg0"},"next":"https://graph.facebook.com/229244010425617_851669591516386/likes?limit=1&summary=1&after=MTAwMDA2OTI3NjExMzg0"},"summary":{"total_count":2}},"comments":{"data":[{"id":"851699558180056","from":{"id":"100000067699837","name":"Nguyễn Hải Phong"},"message":"＝と","can_remove":false,"created_time":"2014-04-15T03:00:08+0000","like_count":0,"user_likes":false}],"paging":{"cursors":{"after":"ODUxNjk5NTU4MTgwMDU2","before":"ODUxNjk5NTU4MTgwMDU2"},"next":"https://graph.facebook.com/229244010425617_851669591516386/comments?limit=1&summary=1&after=ODUxNjk5NTU4MTgwMDU2"},"summary":{"order":"chronological","total_count":3}}}