{"id":"229244010425617_851739938176018","type":"link","picture":"https://fbexternal-a.akamaihd.net/safe_image.php?d=AQA3-2c-dP5-WYdL&w=154&h=154&url=http%3A%2F%2Fimg.47news.jp%2Fsmp%2Fcommon%2Fimages%2Fsearchbar%2Fbutton.jpg","link":"http://www.47news.jp/smp/CN/201404/CN2014041401001970.html","from":{"id":"100003240220629","name":"Duc Hoang Le Minh"},"message":"Nhật đang xem xét miễn thị thực du lịch cho 3 nước. Trong đó có VN . Cho dù dạo này có nhiều xi can dan, nhưng về \"chiến lược\" dài hạn, VN vẫn là bạn tốt :). Hi vọng không có các vụ việc mang tiếng gây ảnh hưởng nữa.\nhttp://www.47news.jp/smp/CN/201404/CN2014041401001970.html","created_time":"2014-04-15T05:01:15+0000","updated_time":"2014-04-16T05:30:47+0000","likes":{"data":{"100002615664668":{"id":"100002615664668","name":"PuPu Phương Elf"},"100007422764406":{"id":"100007422764406","name":"Vu Thao"},"100000221118637":{"id":"100000221118637","name":"Toi Nguyen Thi"},"100004650518662":{"id":"100004650518662","name":"Hang Cherry"},"100005896180513":{"id":"100005896180513","name":"Hero Kun"},"100004106768984":{"id":"100004106768984","name":"Knorr Kho Cá"},"100004798083725":{"id":"100004798083725","name":"Cappu Ccino"},"100003221627788":{"id":"100003221627788","name":"Tom Xu Xu"},"100003293593262":{"id":"100003293593262","name":"Tất Thể"},"100004199198189":{"id":"100004199198189","name":"Cường Vũ"},"100000562416083":{"id":"100000562416083","name":"Tuong Hayate"},"100003589823827":{"id":"100003589823827","name":"Sao Sa Mạc"},"100003930582015":{"id":"100003930582015","name":"Truong Van Ly"},"100000022163023":{"id":"100000022163023","name":"Kafe Ore"},"100005007966961":{"id":"100005007966961","name":"Trang Quỳnh Đoàn"},"100002916376886":{"id":"100002916376886","name":"Thủy Bee"},"100001995633843":{"id":"100001995633843","name":"Yasunobu Toda"},"100003171672878":{"id":"100003171672878","name":"Tầu Heo"},"100000084786611":{"id":"100000084786611","name":"Iam Manhattan"},"1394148660":{"id":"1394148660","name":"Cừu Non"},"100001324867342":{"id":"100001324867342","name":"Lee Dzung"},"100002866811518":{"id":"100002866811518","name":"Le Nhung"},"100000266318740":{"id":"100000266318740","name":"Tào Phớ Esce"},"1233895362":{"id":"1233895362","name":"Smile Loan"},"100005495773832":{"id":"100005495773832","name":"Hiền Vũ"},"100001602108729":{"id":"100001602108729","name":"Tram Mai"},"100000381394367":{"id":"100000381394367","name":"Thành Nguyễn"},"100006436037655":{"id":"100006436037655","name":"Ngo Na"},"100004342594378":{"id":"100004342594378","name":"Tuyetchinh Nguyen"},"100002339089186":{"id":"100002339089186","name":"Thinh Nguyen Viet"},"100004466347075":{"id":"100004466347075","name":"Pham Thuy"},"614140901":{"id":"614140901","name":"Nga Nguyễn"},"100000500260636":{"id":"100000500260636","name":"Lưu Nguyễn Thảo Tiên"},"100003822826558":{"id":"100003822826558","name":"Nhím Siêu Xù"},"100004198266673":{"id":"100004198266673","name":"Hoa Tu"},"100003742517006":{"id":"100003742517006","name":"Huế Himawari"},"100002999756689":{"id":"100002999756689","name":"Lắng Nghe"},"100003108351809":{"id":"100003108351809","name":"Tôm Yêu Em"},"100000265363169":{"id":"100000265363169","name":"Mít Sờ Kul"},"100003075823746":{"id":"100003075823746","name":"Strong Cuong"},"100001359605447":{"id":"100001359605447","name":"Thạch Xà Lách"},"100006185140581":{"id":"100006185140581","name":"Thảo Lê"},"100005327112379":{"id":"100005327112379","name":"Guongcuoideem Dk Hanhphuk"},"100004669895318":{"id":"100004669895318","name":"Cừ Nguyễn Văn"},"100003892655135":{"id":"100003892655135","name":"Dưa Chuột"},"100001350506106":{"id":"100001350506106","name":"Meo FuFu"},"100003671792441":{"id":"100003671792441","name":"Yuri Qhd"},"100004049626137":{"id":"100004049626137","name":"Nguyen Thuong"},"100006116286615":{"id":"100006116286615","name":"You Hana"},"1046597104":{"id":"1046597104","name":"Tien Vuong"},"100001834667912":{"id":"100001834667912","name":"Rebecah Ngo"},"100002331012304":{"id":"100002331012304","name":"Bao Khuyen"},"100004140850631":{"id":"100004140850631","name":"Huong Trang"},"100005307004792":{"id":"100005307004792","name":"Kiều Văn"},"100004078906472":{"id":"100004078906472","name":"Thiên Bình"},"678264171":{"id":"678264171","name":"Hạ Bá Hải"},"100001563076732":{"id":"100001563076732","name":"Nguyễn Tam Vũ"},"100003207764143":{"id":"100003207764143","name":"Anh Vũ Thái"},"100000110765909":{"id":"100000110765909","name":"Thảo Nguyễn"},"1629517470":{"id":"1629517470","name":"Nguyen Thi Thanh Van"},"100002166530269":{"id":"100002166530269","name":"Thuấn Chelsea"},"100001292844502":{"id":"100001292844502","name":"Nam Anh Nguyen"},"100000221260528":{"id":"100000221260528","name":"Đào Xuân Kiên"},"100000116047403":{"id":"100000116047403","name":"Bít Tết"},"1146680551":{"id":"1146680551","name":"優しい なぁ"},"100004398330290":{"id":"100004398330290","name":"Lam Linh"},"100006098550222":{"id":"100006098550222","name":"Phạm Thị Lan Anh"},"100001883218378":{"id":"100001883218378","name":"Audict Ntar"},"100003107056906":{"id":"100003107056906","name":"Tuyet Le"},"100004187679708":{"id":"100004187679708","name":"Bé Búp"},"100002223951860":{"id":"100002223951860","name":"Thêm Trần Thị"},"1271836124":{"id":"1271836124","name":"Thảo Diệu"},"100000154325668":{"id":"100000154325668","name":"Lam Buong Binh"},"1778354324":{"id":"1778354324","name":"Sơn Ken"},"100000747635624":{"id":"100000747635624","name":"Nguyễn Xuân Đại"},"1801752534":{"id":"1801752534","name":"He He He"},"100004896576660":{"id":"100004896576660","name":"Ken Lanh Lung"},"562404419":{"id":"562404419","name":"Phương Oanh"},"100001760808604":{"id":"100001760808604","name":"Trần Tuấn Dũng"},"100005775182411":{"id":"100005775182411","name":"Tuấn Milo"},"1443385821":{"id":"1443385821","name":"Mèo Màu Mè"},"100001393959821":{"id":"100001393959821","name":"Le Ngoc Linh Nhi"},"100001526631937":{"id":"100001526631937","name":"Tường Oanh Mineko"},"100003732529410":{"id":"100003732529410","name":"Huong Dang"},"100002941809570":{"id":"100002941809570","name":"Hằng Nguyễn"},"100003090738530":{"id":"100003090738530","name":"Ngô Thị Thanh Hường"},"100000359762118":{"id":"100000359762118","name":"Mi Tra"},"100004478832761":{"id":"100004478832761","name":"Thiên Trang"},"1018045827":{"id":"1018045827","name":"Trang Nguyen"},"100000089472724":{"id":"100000089472724","name":"Duy Nguyen"},"100000033277655":{"id":"100000033277655","name":"Ah Sa"},"100003069246142":{"id":"100003069246142","name":"Hồng Trịnh"},"100007798380150":{"id":"100007798380150","name":"海外移住"},"100001433891208":{"id":"100001433891208","name":"Nguyễn Đức Đông"},"569263718":{"id":"569263718","name":"Phuong Thao Tran"},"100000795770040":{"id":"100000795770040","name":"Nghĩa Trần"},"100000063237655":{"id":"100000063237655","name":"Thien Khiem Nguyen"},"100002348937847":{"id":"100002348937847","name":"Xanh Le Te"},"100001826935636":{"id":"100001826935636","name":"Phí Đình Liệu"},"100002716525116":{"id":"100002716525116","name":"Nguyễn Tất Nguyên"},"100007909359766":{"id":"100007909359766","name":"Phi Thuy"},"100002892549628":{"id":"100002892549628","name":"Hải Hà"},"1745971996":{"id":"1745971996","name":"Xi Tret"},"100000095655445":{"id":"100000095655445","name":"Kamiya Satoshi"},"100001359798024":{"id":"100001359798024","name":"November Gi"},"796263134":{"id":"796263134","name":"Gió Rung Chuông"},"100000262070143":{"id":"100000262070143","name":"Sachiko Kam"},"100005664395451":{"id":"100005664395451","name":"Su Su"},"100002259224886":{"id":"100002259224886","name":"Be Days"},"100005834022676":{"id":"100005834022676","name":"Nguyễn Thế Thành"},"1128427597":{"id":"1128427597","name":"Quyên Nguyễn"},"100003291701878":{"id":"100003291701878","name":"Bui Anhdat"},"1775693736":{"id":"1775693736","name":"Pig Let"},"100000217003431":{"id":"100000217003431","name":"Khoa Đinh"},"100000067699837":{"id":"100000067699837","name":"Nguyễn Hải Phong"}},"paging":{"cursors":{"after":"MTAwMDAyNjE1NjY0NjY4","before":"MTAwMDAyNjE1NjY0NjY4"},"next":"https://graph.facebook.com/229244010425617_851739938176018/likes?limit=1&summary=1&after=MTAwMDAyNjE1NjY0NjY4"},"summary":{"total_count":115}},"comments":{"data":[{"id":"851740954842583","from":{"id":"100003291701878","name":"Bui Anhdat"},"message":"Mong điều này lắm","can_remove":false,"created_time":"2014-04-15T05:04:54+0000","like_count":0,"user_likes":false}],"paging":{"cursors":{"after":"ODUxNzQwOTU0ODQyNTgz","before":"ODUxNzQwOTU0ODQyNTgz"},"next":"https://graph.facebook.com/229244010425617_851739938176018/comments?limit=1&summary=1&after=ODUxNzQwOTU0ODQyNTgz"},"summary":{"order":"chronological","total_count":19}}}