{"id":"229244010425617_851859448164067","type":"status","from":{"id":"100001069847320","name":"Chang Gami"},"message":"Mọi người cho em nhờ tí. Em chuẩn bị đi mua đt nhưng thấy bảo có nhiều dịch vụ tốn tiền cần cắt đi.. Mình k biết tiếng lắm thì bảo với ngta thế nào ak?... Thêm nữa có nhất thiết phải mua ip5 bên này k ạ? Vì e muốn mua con z2 ạ","created_time":"2014-04-15T10:37:21+0000","updated_time":"2014-04-17T00:37:24+0000","likes":{"data":{"100006859651801":{"id":"100006859651801","name":"Thuy Tran"},"100004915360462":{"id":"100004915360462","name":"Phamtuyen Pc"},"100003833395570":{"id":"100003833395570","name":"Kim Than Chet"},"100000469475474":{"id":"100000469475474","name":"Hùng Nguyễn Duy"},"100003925635356":{"id":"100003925635356","name":"Tiến Mộc YêuQuái"},"100005696525096":{"id":"100005696525096","name":"Be Heo Beo"},"100005938593327":{"id":"100005938593327","name":"Duyen Tran"},"100008061784579":{"id":"100008061784579","name":"Hoàng Tuấn"},"100006614261300":{"id":"100006614261300","name":"Tao Cao Cường Đây"}},"paging":{"cursors":{"after":"MTAwMDA2ODU5NjUxODAx","before":"MTAwMDA2ODU5NjUxODAx"},"next":"https://graph.facebook.com/229244010425617_851859448164067/likes?limit=1&summary=1&after=MTAwMDA2ODU5NjUxODAx"},"summary":{"total_count":9}},"comments":{"data":{"851859928164019":{"id":"851859928164019","from":{"id":"100006614261300","name":"Tao Cao Cường Đây"},"message":"Z2 chac của mang docomo. mà mang này ng viet it dùng thì fai. chủ yeu sofbank ý","can_remove":false,"created_time":"2014-04-15T10:39:06+0000","like_count":0,"user_likes":false},"851860254830653":{"id":"851860254830653","from":{"id":"100001069847320","name":"Chang Gami"},"message":"Sofbank thì chỉ có ip5s hả anh??? Mà bảo cắt hết mấy mạng linh tinh đi thế nào ak?","can_remove":false,"created_time":"2014-04-15T10:40:29+0000","like_count":0,"user_likes":false},"851861004830578":{"id":"851861004830578","from":{"id":"100006614261300","name":"Tao Cao Cường Đây"},"message":"minh cung ko rõ nua. cát mang linh tinh là sao? minh chỉ đang kí mỗi nghe gọi nhắn tin, và mạng internet thôi. thế là đủ rồi. chủ yếu sau gọi viber. zalo, line mien phí mag bạn","can_remove":false,"created_time":"2014-04-15T10:42:52+0000","like_count":0,"user_likes":false},"851862878163724":{"id":"851862878163724","from":{"id":"100007917634982","name":"Cry Cry"},"message":"Mấy cái dịch vụ ngoài internet thì bảo nó là k cần. Cắt k mất tiền phạt.","can_remove":false,"created_time":"2014-04-15T10:48:33+0000","like_count":0,"user_likes":false},"851863511496994":{"id":"851863511496994","from":{"id":"100000359762118","name":"Mi Tra"},"message":"Hầu như mọi người dùng softbank vì cùng mạng gọi miễn phí từ 1h sáng tới 9h đêm. Giờ có viber, line nên cũng ko cần thiết phải là softbank lắm. \nCòn bạn thích dùng ip hay z2 gì đó thì tuỳ, chẳng ai ép.\nBạn hợp đồng trả góp của nhà mạng nào thì cũng vậy, nếu chưa đủ 2 năm sử dụng thì phải bồi thường hợp đồng là gần 1 man và trả nốt số tiền máy còn lại. \nKhi đăng ký sẽ có thêm một số gói dịch vụ đi kèm. Trong 1,2 tháng đầu sẽ miễn phí. Nếu bạn ko dùng thì cầm bản hợp đồng khi đăng ký điện thoại ra cửa hàng bảo người ta cắt cho. \nKhi đăng ký người ta sẽ khoanh những dịch vụ nào là bắt buộc và ko bắt buộc. Bạn chỉ cần cầm tờ giấy đó ra chỉ là ok thôi.","can_remove":false,"created_time":"2014-04-15T10:50:40+0000","like_count":1,"user_likes":false},"851864311496914":{"id":"851864311496914","from":{"id":"100001069847320","name":"Chang Gami"},"message":"Cảm ơn mọi người nhé... Mình hiểu rồi giờ mình đi mua đt :D","can_remove":false,"created_time":"2014-04-15T10:52:31+0000","like_count":2,"user_likes":false},"851864621496883":{"id":"851864621496883","from":{"id":"100007917634982","name":"Cry Cry"},"message":"Có thể cắt ngay sau hôm đăng kí nên mấy dịch vụ miễn phí 1-2 tháng thì k nên để lâu. Mà mua đt r đăng kí sim rẻ hơn bạn ak","can_remove":false,"created_time":"2014-04-15T10:53:29+0000","like_count":0,"user_likes":false},"851866824829996":{"id":"851866824829996","from":{"id":"100006781330290","name":"Kiên Remode"},"message":"a khuyên thật đừg nên dùg sb .mạng qá chuối .dùng au .gọi thì viber còn hơn","can_remove":false,"created_time":"2014-04-15T11:00:41+0000","like_count":0,"user_likes":false},"851874328162579":{"id":"851874328162579","from":{"id":"100006614261300","name":"Tao Cao Cường Đây"},"message":"A Kiên Remode đang kí mới mang Au có km gì ko anh","message_tags":[{"id":"100006781330290","name":"Kiên Remode","type":"user","offset":2,"length":11}],"can_remove":false,"created_time":"2014-04-15T11:14:22+0000","like_count":0,"user_likes":false},"851879394828739":{"id":"851879394828739","from":{"id":"100008112094651","name":"Giap Le"},"message":"Minh ko hiu","can_remove":false,"created_time":"2014-04-15T11:28:20+0000","like_count":0,"user_likes":false},"851879674828711":{"id":"851879674828711","from":{"id":"100008112094651","name":"Giap Le"},"message":"Minh dung soffbank ma thang het man tu","can_remove":false,"created_time":"2014-04-15T11:29:00+0000","like_count":0,"user_likes":false},"851879768162035":{"id":"851879768162035","from":{"id":"100008112094651","name":"Giap Le"},"message":"Chi goi vibo va dung mang","can_remove":false,"created_time":"2014-04-15T11:29:15+0000","like_count":0,"user_likes":false},"851881234828555":{"id":"851881234828555","from":{"id":"100000359762118","name":"Mi Tra"},"message":"Gói mạng 5sen hơn hàng tháng thực chất là chỉ có 7G thôi (cái này ko nhớ rõ vì mình ko dùng softbank). Hết 7G thì sẽ tăng 2100¥ cho 2G. \nBạn vào internet, dùng viber nhiều thì lượng G tăng lên, trả tiền nhiều. \nCái này hầu như mọi người ko biết.","can_remove":false,"created_time":"2014-04-15T11:33:49+0000","like_count":1,"user_likes":false},"851888164827862":{"id":"851888164827862","from":{"id":"100003211776567","name":"Kụ Đính"},"message":"nên khuyên bạn dung Au đi đâu mạng cũng tốt.cắt hết có thể cắt.tiền bảo hành máy cũng  cắt luôn nhá.nếu đúng thì mỗi tháng 4sen5 con 5s nếu có ipall thì 6sen5 tuỳ theo khuyến mãi.ngoài ra tìm hiểu các chương trình khuyến mãi của các nhà mạng để tranh thủ lợi ích.vd vừa rồi au có khuyến mãi là học sinh dưới 21 tuổi đawng ký lần đầu sẽ miễn phí tiền máy..tức trả mỗi tháng cho nó 450¥ mỗi tháng của con 5s","can_remove":false,"created_time":"2014-04-15T11:52:02+0000","like_count":1,"user_likes":false},"851946828155329":{"id":"851946828155329","from":{"id":"100006781330290","name":"Kiên Remode"},"message":"hiện tại cả đăg kí máy lẫn chuyển mạng  đều ko có km .giá rất là đắt ( tất cả các mạg )","can_remove":false,"created_time":"2014-04-15T12:13:19+0000","like_count":0,"user_likes":false},"851947878155224":{"id":"851947878155224","from":{"id":"100001069847320","name":"Chang Gami"},"message":"Hix.. Xui ghê nhỉ >..<...","can_remove":false,"created_time":"2014-04-15T12:15:16+0000","like_count":0,"user_likes":false},"852431391440206":{"id":"852431391440206","from":{"id":"100003878132073","name":"Luan Tran Van"},"message":"Đăng kí trực tiếp khuyến mại 5sen/1 máy nhé.","can_remove":false,"created_time":"2014-04-16T02:13:25+0000","like_count":0,"user_likes":false},"852560414760637":{"id":"852560414760637","from":{"id":"100003211776567","name":"Kụ Đính"},"message":"nếu rẻ hơn là xin ai đó cai sim sau đó mua máy cũ(mới toanh).giá khá mềm 3man5¥ 5s hoặc rẻ hơn","can_remove":false,"created_time":"2014-04-16T07:16:48+0000","like_count":0,"user_likes":false},"852566854759993":{"id":"852566854759993","from":{"id":"100006614261300","name":"Tao Cao Cường Đây"},"message":"đừng mua máy cũ. rính fai hang đá đồ sau lắp sim vào là rách việc đấy. mua máy mới đk mỗi tháng 5sen2 .tháng đầu tiên thì + tiền hòa mang gì đoa là mat 1man .","can_remove":false,"created_time":"2014-04-16T07:38:57+0000","like_count":0,"user_likes":false},"852573671425978":{"id":"852573671425978","from":{"id":"100006781330290","name":"Kiên Remode"},"message":"đứa nào đá đc  điện thoại ở nhà mạg tao gọi bằng bố luôn :)))","can_remove":false,"created_time":"2014-04-16T08:04:03+0000","like_count":1,"user_likes":false},"852573884759290":{"id":"852573884759290","from":{"id":"100006781330290","name":"Kiên Remode"},"message":"a khuyên thật nên mua lại .đập hộp cũg có .giá rẻ mà đỡ đc rất nhiều cái","can_remove":false,"created_time":"2014-04-16T08:04:58+0000","like_count":2,"user_likes":false},"852592358090776":{"id":"852592358090776","from":{"id":"100003878132073","name":"Luan Tran Van"},"message":"Không nên mua điện thoại cũ của bạn bè, vì bạn bè khi đăng kí điện thoại trả góp, hết tiền bán, nên chiếc điện thoại đó, sau 3 tháng mà chủ cũ không đóng sẽ bị khoá. Người mới sẽ ko dùng đc.","can_remove":false,"created_time":"2014-04-16T09:10:19+0000","like_count":1,"user_likes":false},"852628818087130":{"id":"852628818087130","from":{"id":"100001069847320","name":"Chang Gami"},"message":"Vâng ạ, e cảm ơn ý kiến đóng góp của mọi ng .... Hnay e vừa ra xem điện thoại phân vân giữa sofbank và au tại ai cũng dùng sofbank gọi miên phí mà e lại kết con z1 nên lại đi về :(","can_remove":false,"created_time":"2014-04-16T10:31:13+0000","like_count":0,"user_likes":false},"852631421420203":{"id":"852631421420203","from":{"id":"100003878132073","name":"Luan Tran Van"},"message":"E dang kí truc tiep Z1 gio cuoc 7,4 sen, con iphone 6 sen","can_remove":false,"created_time":"2014-04-16T10:39:43+0000","like_count":0,"user_likes":false},"852642921419053":{"id":"852642921419053","from":{"id":"100001069847320","name":"Chang Gami"},"message":"Là sao hả anh???","can_remove":false,"created_time":"2014-04-16T11:12:11+0000","like_count":0,"user_likes":false},"852660238083988":{"id":"852660238083988","from":{"id":"100003878132073","name":"Luan Tran Van"},"message":"Mua tra gop Z1 y, con gia may Z1 khoang 6.1 man, neu tra ca may 1 lan thi 6,1man:24 thang, moi thang giam dc 2,5sen, se con khoang 5sen.","can_remove":false,"created_time":"2014-04-16T11:52:59+0000","like_count":0,"user_likes":false},"852661321417213":{"id":"852661321417213","from":{"id":"100001069847320","name":"Chang Gami"},"message":"Ak cò nếu mua trả góp thì mỗi tháng phải trả 7,5 sen ak...","can_remove":false,"created_time":"2014-04-16T11:55:35+0000","like_count":0,"user_likes":false},"852664694750209":{"id":"852664694750209","from":{"id":"100004418255758","name":"Phạm Phước Thiên"},"message":"Thế dùng au hay sb tốt hơn","can_remove":false,"created_time":"2014-04-16T12:02:21+0000","like_count":0,"user_likes":false},"852715341411811":{"id":"852715341411811","from":{"id":"100001069847320","name":"Chang Gami"},"message":"Quan trọng bạn bè bạn hay dùng mạng nào vì gọi cùng mạng k mất tiền mg","can_remove":false,"created_time":"2014-04-16T14:06:16+0000","like_count":0,"user_likes":false},"852879438062068":{"id":"852879438062068","from":{"id":"100007917634982","name":"Cry Cry"},"message":"Gọi qua viber, zalo ... Đăng kí mới dt ở trung tâm mua sắm lớn thường có point mua hàng miễn phí","can_remove":false,"created_time":"2014-04-16T19:56:40+0000","like_count":0,"user_likes":false},"852972064719472":{"id":"852972064719472","from":{"id":"100007155522344","name":"Nghia Le"},"message":"Mọi người ơi.mang nào mang về vn dễ bẻ khóa nhất vậy","can_remove":false,"created_time":"2014-04-17T00:07:54+0000","like_count":0,"user_likes":false},"852972488052763":{"id":"852972488052763","from":{"id":"100003878132073","name":"Luan Tran Van"},"message":"Dòng iphone ko bẻ khoá đc, dòng máy sony, sam sung của docomo bẻ khoá luôn tại nhật mất khoảng 3 sen.","can_remove":false,"created_time":"2014-04-17T00:09:16+0000","like_count":0,"user_likes":false},"852973621385983":{"id":"852973621385983","from":{"id":"100007155522344","name":"Nghia Le"},"message":"Iphone vẩn mang về bẻ khóa mà mình mun mua iphone nhưng thẩy mỗi người một y kiến .fân vân quá","can_remove":false,"created_time":"2014-04-17T00:13:09+0000","like_count":0,"user_likes":false},"852974391385906":{"id":"852974391385906","from":{"id":"100007917634982","name":"Cry Cry"},"message":"Biết thì nói - k thì im lặng dùm bạn Luan Tran Van à :)))","can_remove":false,"created_time":"2014-04-17T00:15:27+0000","like_count":0,"user_likes":false},"852974931385852":{"id":"852974931385852","from":{"id":"100007155522344","name":"Nghia Le"},"message":"Thế nào mới đúng hả ban cry cry","can_remove":false,"created_time":"2014-04-17T00:17:24+0000","like_count":0,"user_likes":false},"852975118052500":{"id":"852975118052500","from":{"id":"100003878132073","name":"Luan Tran Van"},"message":"Vâng tôi im lặng, con gà Cry Cry","can_remove":false,"created_time":"2014-04-17T00:18:06+0000","like_count":0,"user_likes":false},"852975371385808":{"id":"852975371385808","from":{"id":"100007917634982","name":"Cry Cry"},"message":"Về Vn nếu muốn chuyển về bản quốc tế có thể mua key chính hãng những khá cao 4-5 tr thì phải. Còn k ở vn dùng sim ghép 500k. Ip bản 7.0<< nhé! Bản 7.1 mình chưa hỏi đc.","can_remove":false,"created_time":"2014-04-17T00:19:10+0000","like_count":0,"user_likes":false},"852975754719103":{"id":"852975754719103","from":{"id":"100007917634982","name":"Cry Cry"},"message":"Bạn Luân này :)) Chính thằng bạn ng Nhật của mình nó làm dịch vụ bẻ cả khoá nhà mạng từ ip sb dùng sim au kìa. Còn bẻ khoá hàng samsung bên này hoặc vn bẻ cũng k có cái giá 3 sen đâu bạn. Hơn 1 sen thôi","can_remove":false,"created_time":"2014-04-17T00:20:50+0000","like_count":0,"user_likes":false},"852976881385657":{"id":"852976881385657","from":{"id":"100007155522344","name":"Nghia Le"},"message":"Tek iphone 5 băt buộc phải dùng sim ghep ag.ma iphone 4 be dk ko bn","can_remove":false,"created_time":"2014-04-17T00:23:21+0000","like_count":0,"user_likes":false},"852978084718870":{"id":"852978084718870","from":{"id":"100007917634982","name":"Cry Cry"},"message":"4 thì bạn mình ở Vn nó bẻ 3 cái 500 k. 5 thì bản dưới 7.0 dùng sim ghép. 7.1 mình k rõ. Avatar cậu là Ptv ak","can_remove":false,"created_time":"2014-04-17T00:26:37+0000","like_count":0,"user_likes":false},"852978811385464":{"id":"852978811385464","from":{"id":"100007155522344","name":"Nghia Le"},"message":"Thương d15 ban biết tro này ag","can_remove":false,"created_time":"2014-04-17T00:29:08+0000","like_count":0,"user_likes":false},"852978911385454":{"id":"852978911385454","from":{"id":"100007155522344","name":"Nghia Le"},"message":"Nham D16","can_remove":false,"created_time":"2014-04-17T00:29:26+0000","like_count":0,"user_likes":false},"852979174718761":{"id":"852979174718761","from":{"id":"100007917634982","name":"Cry Cry"},"message":":)) Thời ptv mình cày cũng trâu phết","can_remove":false,"created_time":"2014-04-17T00:29:57+0000","like_count":0,"user_likes":false},"852979201385425":{"id":"852979201385425","from":{"id":"100007917634982","name":"Cry Cry"},"message":"Hd mà","can_remove":false,"created_time":"2014-04-17T00:30:01+0000","like_count":0,"user_likes":false},"852979264718752":{"id":"852979264718752","from":{"id":"100003878132073","name":"Luan Tran Van"},"message":"Thế ip5 phải dùng sim ghép à, sao gọi là bẻ khoá đc.","can_remove":false,"created_time":"2014-04-17T00:30:11+0000","like_count":0,"user_likes":false},"852979654718713":{"id":"852979654718713","from":{"id":"100007917634982","name":"Cry Cry"},"message":"Bạn k muốn sim ghép thì mua keylock. Giá cao hơn nhiều so vs sim ghép ! Ok?","can_remove":false,"created_time":"2014-04-17T00:32:03+0000","like_count":0,"user_likes":false},"852979718052040":{"id":"852979718052040","from":{"id":"100007155522344","name":"Nghia Le"},"message":"Ban choi vdc ag","can_remove":false,"created_time":"2014-04-17T00:32:22+0000","like_count":0,"user_likes":false},"852979931385352":{"id":"852979931385352","from":{"id":"100007155522344","name":"Nghia Le"},"message":"Bjo sro ảo lám","can_remove":false,"created_time":"2014-04-17T00:33:24+0000","like_count":0,"user_likes":false},"852980151385330":{"id":"852980151385330","from":{"id":"100003878132073","name":"Luan Tran Van"},"message":"Ban đầu bạn nói là bẻ đc. Nhưng mình biết là bẻ đc với giá rất cao, mua máy mới quốc tế ở vn có bảo hành còn hơn. Vậy nói chung vẫn là dùng sim ghép.","can_remove":false,"created_time":"2014-04-17T00:34:16+0000","like_count":0,"user_likes":false},"852980458051966":{"id":"852980458051966","from":{"id":"100007155522344","name":"Nghia Le"},"message":"Thuj nao.bjh yen nhe","can_remove":false,"created_time":"2014-04-17T00:35:29+0000","like_count":0,"user_likes":false},"852980594718619":{"id":"852980594718619","from":{"id":"100007917634982","name":"Cry Cry"},"message":"Thế có bẻ đc k nào ? K thể chống lại những thằng ngu :))","can_remove":false,"created_time":"2014-04-17T00:36:09+0000","like_count":0,"user_likes":false},"852980924718586":{"id":"852980924718586","from":{"id":"100003878132073","name":"Luan Tran Van"},"message":"Thằng ngu mới đi bẻ, cước vận chuyển và cước bẻ. Cao hơn mua máy mới tại nhà có bảo hành.","can_remove":false,"created_time":"2014-04-17T00:37:24+0000","like_count":0,"user_likes":false}},"paging":{"cursors":{"after":"ODUxODU5OTI4MTY0MDE5","before":"ODUxODU5OTI4MTY0MDE5"},"next":"https://graph.facebook.com/229244010425617_851859448164067/comments?limit=1&summary=1&after=ODUxODU5OTI4MTY0MDE5"},"summary":{"order":"chronological","total_count":52}}}