{"id":"229244010425617_851885941494751","type":"status","from":{"id":"100003930582015","name":"Truong Van Ly"},"message":"mình mới học tiếng nhật chưa biết lên học tn mong mọi người có thể giúp mình học mình cảm ơn rất nhiều","created_time":"2014-04-15T11:44:53+0000","updated_time":"2014-04-15T12:33:47+0000","likes":{"data":{"100003134563774":{"id":"100003134563774","name":"Ngô Hồng"}},"paging":{"cursors":{"after":"MTAwMDAzMTM0NTYzNzc0","before":"MTAwMDAzMTM0NTYzNzc0"}},"summary":{"total_count":1}},"comments":{"data":[{"id":"851886644828014","from":{"id":"100000322462671","name":"Nguyenkhanh Vu"},"message":"khởi động 2 bảng chử cái đi thôi :v","can_remove":false,"created_time":"2014-04-15T11:47:21+0000","like_count":2,"user_likes":false}],"paging":{"cursors":{"after":"ODUxODg2NjQ0ODI4MDE0","before":"ODUxODg2NjQ0ODI4MDE0"},"next":"https://graph.facebook.com/229244010425617_851885941494751/comments?limit=1&summary=1&after=ODUxODg2NjQ0ODI4MDE0"},"summary":{"order":"chronological","total_count":13}}}