{"id":"229244010425617_851981888151823","type":"status","from":{"id":"100001667142117","name":"Kẻ Cắp Thời Gian"},"message":"để thay đổi không khí mình đố các bạn 1 câu đố nhé. Nói trước không được nghĩ bậy bạ nha. \" Lưng tròn đít lại bảnh bao, Mân mân mó mó đút ...vào, Thủy hỏa âm dương sôi sình sịch, Âm dương nhị khí sướng làm sao\" . Đố các bạn là cái gì?","created_time":"2014-04-15T13:09:00+0000","updated_time":"2014-04-15T14:22:26+0000","likes":{"data":{"100004915360462":{"id":"100004915360462","name":"Phamtuyen Pc"},"100004337586261":{"id":"100004337586261","name":"Thuy Nguyen"},"100003766196060":{"id":"100003766196060","name":"Thanh Nhắng"},"100005327112379":{"id":"100005327112379","name":"Guongcuoideem Dk Hanhphuk"},"100001013390512":{"id":"100001013390512","name":"Hung Sukekomashi"},"1341670471":{"id":"1341670471","name":"An Nguyen"},"100000593990507":{"id":"100000593990507","name":"Pi Ka Chu"},"100003499878505":{"id":"100003499878505","name":"Nguyen Huu Loi"},"100007935731429":{"id":"100007935731429","name":"Hạnh Phúc Giản Đơn"}},"paging":{"cursors":{"after":"MTAwMDA0OTE1MzYwNDYy","before":"MTAwMDA0OTE1MzYwNDYy"},"next":"https://graph.facebook.com/229244010425617_851981888151823/likes?limit=1&summary=1&after=MTAwMDA0OTE1MzYwNDYy"},"summary":{"total_count":9}},"comments":{"data":[{"id":"851985558151456","from":{"id":"100004087053647","name":"Đặng Ngọc Biên"},"message":"Là cái ấy á gì.","can_remove":false,"created_time":"2014-04-15T13:16:20+0000","like_count":0,"user_likes":false}],"paging":{"cursors":{"after":"ODUxOTg1NTU4MTUxNDU2","before":"ODUxOTg1NTU4MTUxNDU2"},"next":"https://graph.facebook.com/229244010425617_851981888151823/comments?limit=1&summary=1&after=ODUxOTg1NTU4MTUxNDU2"},"summary":{"order":"chronological","total_count":8}}}