{"id":"229244010425617_851964048153607","type":"status","from":{"id":"100003211776567","name":"Kụ Đính"},"message":"sự khác giữa でをにへloạn cả đầu\nac nào cho chút kinh nghiêm đập mấy thằng giới từ cái :3)) 中心公園で散歩しました。\nTôi đi dạo ở công viên trung tâm.\n(Nghĩa là hành động đi dạo diễn ra bên trong công viên.)\n\n中心公園に散歩しました。\nTôi đi dạo vào công viên trung tâm.\n(Tôi đi dạo, và đích đến là công viên trung tâm.)\n\n中心公園へ散歩しました。\nTôi đi dạo về phía công viên trung tâm.\n(Đi về phía công viên, không nhất thiết là phải tới đó, mà cũng có thể vào trong đó hay đi vượt qua đó)\n\n中心公園を散歩しました。 \nTôi đi dạo qua công viên trung tâm.\n(Đi xuyên qua ra ngoài công viên.)","created_time":"2014-04-15T12:32:14+0000","updated_time":"2014-04-15T23:26:08+0000","likes":{"data":{"100004419811484":{"id":"100004419811484","name":"Trần Văn Dũng"},"100000500260636":{"id":"100000500260636","name":"Lưu Nguyễn Thảo Tiên"}},"paging":{"cursors":{"after":"MTAwMDA0NDE5ODExNDg0","before":"MTAwMDA0NDE5ODExNDg0"},"next":"https://graph.facebook.com/229244010425617_851964048153607/likes?limit=1&summary=1&after=MTAwMDA0NDE5ODExNDg0"},"summary":{"total_count":2}},"comments":{"data":[{"id":"852338311449514","from":{"id":"100000065836904","name":"Trần Minh"},"message":"đi đến công viên dùng へ、 đi dạo công viên dùng wo. ở trong công viên dùng ni, làm gì đó trong công viên dùng de. theo mình thì là thế","can_remove":false,"created_time":"2014-04-15T23:26:08+0000","like_count":1,"user_likes":false}],"paging":{"cursors":{"after":"ODUyMzM4MzExNDQ5NTE0","before":"ODUyMzM4MzExNDQ5NTE0"}},"summary":{"order":"chronological","total_count":1}}}