{"id":"229244010425617_851980941485251","type":"status","from":{"id":"100004702509437","name":"Đỗ Duy"},"message":"Chào mọi người! Mình rất cần mọi người giúp mình với: \n1. Cho mình hỏi mình muốn đi Kỹ Thuật Viên bên Nhật thì điều kiện để họ cấp visa cho mình là gì ?\n2. Nếu mình gửi hồ sơ trực tiếp sang bên đó mà không phỏng vấn ở Việt Nam thì họ có xin visa được cho mình không?\n3. Nếu mình chưa có hợp đồng lao động thì họ có xin visa được cho mình không?\n4. Nếu nghiệp đoàn bên đó họ gửi hồ sơ của mình lên cục rồi thì mình rút lại có bị đánh dấu không?\nCảm ơn mọi người đã đọc và quan tâm, hãy trả lời giúp mình từng trường hợp nhé. Chúc cả nhà ngày vui!","created_time":"2014-04-15T13:06:59+0000","updated_time":"2014-04-16T07:59:59+0000","likes":{"data":{"100003683150263":{"id":"100003683150263","name":"Trần Cảnh"}},"paging":{"cursors":{"after":"MTAwMDAzNjgzMTUwMjYz","before":"MTAwMDAzNjgzMTUwMjYz"}},"summary":{"total_count":1}},"comments":{"data":{"851982398151772":{"id":"851982398151772","from":{"id":"100003827874808","name":"Bố Trẻ Con"},"message":"cho hỏi kế 1 câu là : khi họ đã gửi lên cục XNC rồi mà mình xin rút  mà sau này mình đi ở 1 cty khác mà cty đó gửi lên có bị từ chối hay là  vướng mắc gì không .\nありがとございます。","can_remove":false,"created_time":"2014-04-15T13:10:04+0000","like_count":0,"user_likes":false},"851984711484874":{"id":"851984711484874","from":{"id":"100002966928087","name":"Nguyen van Dat"},"message":"cau1 ,cần bằng đại học chính quy,và 1 số công ty cần trình độ tiếng nữa n3hay n2  \ncâu 2  nếu bạn biết công ty nào tuyển,thì có thể nộp trưcj tiếp hồ sơ,còn vía họ tự làm.nhưng là rất khó,vì đơn hàng kĩ sư,họ tuyển rất chặt chẽ,1 chọi 10 là bình thường,nên họ sẽ về việt nam tuyển trực tiếp\ncaau3 nếu bạn chưa có hợp đồng lao động,và tạm vắng tạm trú thì ko xin dc visa\ncâu 4 nếu nghiệp đoàn của bạn đã gửa hồ sơ lên cục xuất nhập cảnh,thì chắc bạn đã có tạm vắng tạm trú,và gần như là ko đi được nhật nữa nếu bạn rút","can_remove":false,"created_time":"2014-04-15T13:15:08+0000","like_count":1,"user_likes":false},"851986581484687":{"id":"851986581484687","from":{"id":"100003827874808","name":"Bố Trẻ Con"},"message":"mình muốn hỏi là nếu chưa có hợp đồng lao động thì k thể gửi hồ sơ lên cục XNC để xin visa có phải k? Nguyen van Dat","message_tags":[{"id":"100002966928087","name":"Nguyen van Dat","type":"user","offset":102,"length":14}],"can_remove":false,"created_time":"2014-04-15T13:18:38+0000","like_count":0,"user_likes":false},"851987201484625":{"id":"851987201484625","from":{"id":"100002966928087","name":"Nguyen van Dat"},"message":"nói chung tùy,bạn có tạm vắng tạm trú chưa,phải có tạm vằng tạm trú thì mới xin dc visa","can_remove":false,"created_time":"2014-04-15T13:19:54+0000","like_count":0,"user_likes":false},"851987391484606":{"id":"851987391484606","from":{"id":"100002966928087","name":"Nguyen van Dat"},"message":"giống như việt nam đấy,phải có hộ khẩu thì mới làm dc cmt nhân dân","can_remove":false,"created_time":"2014-04-15T13:20:20+0000","like_count":0,"user_likes":false},"851989804817698":{"id":"851989804817698","from":{"id":"100004702509437","name":"Đỗ Duy"},"message":"chưa bạn àh. Tức là cái gọi là tư cách lưu trú đúng ko? Cái đó mình chưa có bạn àh","can_remove":false,"created_time":"2014-04-15T13:20:59+0000","like_count":0,"user_likes":false},"851991384817540":{"id":"851991384817540","from":{"id":"100003827874808","name":"Bố Trẻ Con"},"message":"mình hiểu ntn k biết có đúng k : phải ký hợp đồng với cty mình đến làm việc ( k phải cty mô giới bên nhật ) sau đó cty mình đến làm việc mới xin tư cách lưu trú cho mình và visa trên cục XNC có phải không?","can_remove":false,"created_time":"2014-04-15T13:23:30+0000","like_count":0,"user_likes":false},"852572708092741":{"id":"852572708092741","from":{"id":"100000641227862","name":"Anh Lê"},"message":"Làm visa cần những cái sau\n          (1) Hộ chiếu\n          (2) Tờ khai xin cấp Visa (download mẫu kèm theo) 1 tờ\n           (3) 01 ảnh 4,5cm x 4,5cm\n          (4) Giấy chứng nhận đủ tư cách lưu trú tại Nhật\n          (5) Tài liệu xác nhận chính xác bản thân (01 bản)\n\n               + Trường hợp đi học tiếng, du học: Giấy phép nhập học\n\n               + Trường hợp đi lao động kỹ thuật, kỹ năng: Bản hợp đồng lao động, giấy thông báo tuyển dụng...\n\n               + Trường hợp đi tu nghiệp: Giấy tiếp nhận tu nghiệp...\n\n               + Trường hợp vợ/chồng người Nhật: Bản sao hộ tịch sau khi đã nhập hộ khẩu hoặc giấy chứng nhận kết hôn do chính phủ Việt Nam cấp\n\n               + Trường hợp vợ/ chồng người vĩnh trú ở Nhật lâu dài: Giấy chứng nhận đã nộp đăng ký kết hôn hoặc giấy khai sinh do chính phủ Việt Nam cấp\n\n               + Trường hợp người định cư ở Nhật: Giấy khai sinh hoặc giấy chứng nhận kết hôn do chính phủ Việt Nam cấp","can_remove":false,"created_time":"2014-04-16T07:59:29+0000","like_count":1,"user_likes":false},"852572851426060":{"id":"852572851426060","from":{"id":"100000641227862","name":"Anh Lê"},"message":"Đi kiểu kĩ thuật thì bên công ty sẽ lo hợp đồng lao động và gửi về cho bạn. Sau đấy cầm lên dsq","can_remove":false,"created_time":"2014-04-16T07:59:59+0000","like_count":0,"user_likes":false}},"paging":{"cursors":{"after":"ODUxOTgyMzk4MTUxNzcy","before":"ODUxOTgyMzk4MTUxNzcy"},"next":"https://graph.facebook.com/229244010425617_851980941485251/comments?limit=1&summary=1&after=ODUxOTgyMzk4MTUxNzcy"},"summary":{"order":"chronological","total_count":9}}}