{"id":"229244010425617_852049468145065","type":"photo","object_id":"610388855721380","picture":"https://fbcdn-photos-e-a.akamaihd.net/hphotos-ak-frc3/t1.0-0/10157324_610388855721380_6046702868637973937_s.jpg","link":"https://www.facebook.com/photo.php?fbid=610388855721380&set=gm.852049468145065&type=1&relevant_count=1","from":{"id":"100002508122689","name":"Vũ Mạnh Tuấn"},"message":"Văn hóa Nhật có 1 điểm khá thú vị, mà chắc nhiều người nhận ra. \n\nĐó là : \"xưng khiêm, hô tôn\". Tức là thế nào: khi nói về mình, hoặc người thuộc \" nhóm \" của mình; thì tự động hạ thấp, khiêm nhường. Còn khi nói về người khác, hoặc những người thuộc \" nhóm \" của người khác, thì nhớ tôn lên , nâng họ cao lên. \n\nNgười trong \" nhóm \" nghĩa là thế nào. Ví dụ khi bạn là nhân viên công ty A, bạn nói chuyện với khách hàng ở công ty B; thì tất cả những người trong công ty bạn đều trở thành người trong nhóm với bạn; cho nên dù nói với khách hàng về giám đốc của mình; thì cũng chỉ như đang nói về bản thân mà thôi. \n\nMà đã là bản thân, thì nhớ \"khiêm\" - hạ thấp xuống. Nghe những câu tiếng Nhật thể hiện sự khiêm nhường của người Nhật, nhiều người còn cảm thấy lạ lẫm và thấy khó hiểu. Mọi người thử xem xét vài câu sau nhé:\n\n汚い家ですがどうぞ。( Chỉ là căn nhà bẩn, nhưng xin mời bạn vào ) \n\nちらかっていますがどうぞお入りください。( Dù là lộn xộn, nhưng xin mời bạn vào )\n\n粗茶ですがどうぞ ( Chỉ là thứ trà kém chất lượng, nhưng xin mời bạn )\n\nこれはバカな妻です。( Đây là bà vợ ngốc nghếch của tôi ) \n\nつまらない物ですが、。。。( Đây chỉ là thứ tầm thường, nhàm chán nhưng ... -> khi tặng quà )\n\n....\n\nMọi người có thấy lạ không. Biết là \"khiêm\", nhưng mọi người lí giải như thế nào về cách dùng như thế này của người Nhật. Tại sao lại đem tặng những thứ đồ nhàm chán cho người khác; tại sao lại nói vợ mình là đồ ngốc; tại sao lại mời khách đến căn nhà bẩn thỉu, lộn xộn của mình. \n\nVà các bạn đã từng dùng cách nói như thế này để diễn tả sự \" khiêm\" của mình chưa, hãy cùng comment ở dưới nhé.","created_time":"2014-04-15T14:55:38+0000","updated_time":"2014-04-15T15:02:39+0000","likes":{"data":{"100000747635624":{"id":"100000747635624","name":"Nguyễn Xuân Đại"},"100002451143782":{"id":"100002451143782","name":"New Light"},"100000221260528":{"id":"100000221260528","name":"Đào Xuân Kiên"},"569263718":{"id":"569263718","name":"Phuong Thao Tran"},"100001526631937":{"id":"100001526631937","name":"Tường Oanh Mineko"},"100001416272263":{"id":"100001416272263","name":"Mai PB"},"100006933518153":{"id":"100006933518153","name":"Mai Hạnh Nguyễn"},"100007396898008":{"id":"100007396898008","name":"My Hanh"},"100003967220773":{"id":"100003967220773","name":"Gió Lạnh"},"100006750000025":{"id":"100006750000025","name":"Mai Hoàng Đức"},"1145584654":{"id":"1145584654","name":"Tobe Tung"},"100008070511514":{"id":"100008070511514","name":"PépSi Ứ Nâng Ly"},"100001602108729":{"id":"100001602108729","name":"Tram Mai"},"100001687224723":{"id":"100001687224723","name":"Thịnh Ngô Văn"},"1146680551":{"id":"1146680551","name":"優しい なぁ"},"100006431472448":{"id":"100006431472448","name":"Thao Anh Nguyen"},"100000292556230":{"id":"100000292556230","name":"Duy Anh Phạm"}},"paging":{"cursors":{"after":"MTAwMDAwNzQ3NjM1NjI0","before":"MTAwMDAwNzQ3NjM1NjI0"},"next":"https://graph.facebook.com/229244010425617_852049468145065/likes?limit=1&summary=1&after=MTAwMDAwNzQ3NjM1NjI0"},"summary":{"total_count":17}},"comments":{"data":[{"id":"852050981478247","from":{"id":"100000198219367","name":"Chang Jiang"},"message":"thì VN tặng nhau thứ to đùng vẫn nói \"Đây là món quà nhỏ, mong nhận cho\" còn j ;))","can_remove":false,"created_time":"2014-04-15T14:59:57+0000","like_count":1,"user_likes":false}],"paging":{"cursors":{"after":"ODUyMDUwOTgxNDc4MjQ3","before":"ODUyMDUwOTgxNDc4MjQ3"},"next":"https://graph.facebook.com/229244010425617_852049468145065/comments?limit=1&summary=1&after=ODUyMDUwOTgxNDc4MjQ3"},"summary":{"order":"chronological","total_count":4}}}