{"id":"229244010425617_852032438146768","type":"photo","object_id":"273043849532353","picture":"https://fbcdn-photos-f-a.akamaihd.net/hphotos-ak-prn1/t1.0-0/67952_273043849532353_1626018778537169990_s.jpg","link":"https://www.facebook.com/photo.php?fbid=273043849532353&set=gm.852032438146768&type=1&relevant_count=1","from":{"id":"100004802197403","name":"Công Tử Hào Hoa"},"message":"mọi người chú ý nhé... không hề hoa lá cải gì đâu...","created_time":"2014-04-15T14:23:36+0000","updated_time":"2014-04-16T05:32:03+0000","likes":{"data":{"100008099350890":{"id":"100008099350890","name":"Nguyễn Hùng"},"100003506059419":{"id":"100003506059419","name":"Le Quoc Vuong"},"100008167356827":{"id":"100008167356827","name":"Quyền Shinjuku"},"100005708283207":{"id":"100005708283207","name":"Ha Hoang"},"100003671792441":{"id":"100003671792441","name":"Yuri Qhd"},"100001458099624":{"id":"100001458099624","name":"Kham Pha"},"100003781956956":{"id":"100003781956956","name":"Giuy Gí Giỏm"},"100004075308762":{"id":"100004075308762","name":"Lie Lie"},"100006734168968":{"id":"100006734168968","name":"Tiểu Nhân Mã"},"100004908941067":{"id":"100004908941067","name":"Cử Cơ"},"100005463510799":{"id":"100005463510799","name":"Trần Kim Anh"},"100007987839652":{"id":"100007987839652","name":"Đinh Thùy Linh"},"100003729983318":{"id":"100003729983318","name":"Ljnhanh Jjnla"},"100005471975386":{"id":"100005471975386","name":"Thu Hà Đồng Thị"},"100000747635624":{"id":"100000747635624","name":"Nguyễn Xuân Đại"},"100001707977128":{"id":"100001707977128","name":"Nguyễn Thủy"},"100000500260636":{"id":"100000500260636","name":"Lưu Nguyễn Thảo Tiên"},"100004418255758":{"id":"100004418255758","name":"Phạm Phước Thiên"},"100002157379029":{"id":"100002157379029","name":"Nguyen Hai Dung"},"100003121694180":{"id":"100003121694180","name":"Thanhbinh Nguyen"},"100007996688840":{"id":"100007996688840","name":"Dũng Dũng"},"100002945776077":{"id":"100002945776077","name":"Hoàng Mạnh Cường"},"100003913383051":{"id":"100003913383051","name":"Tho Tran"},"100006737202541":{"id":"100006737202541","name":"Heo Toli"},"100004101469900":{"id":"100004101469900","name":"Boy Bướng Bỉnh"},"100002469422165":{"id":"100002469422165","name":"Duc Nguyen"},"100000221260528":{"id":"100000221260528","name":"Đào Xuân Kiên"},"100003683896765":{"id":"100003683896765","name":"Song La Phai Mo"},"100004747622463":{"id":"100004747622463","name":"Tuan Phuong"},"100002000138969":{"id":"100002000138969","name":"Hidetoshi Iwasaki"},"100003052986106":{"id":"100003052986106","name":"Kún ZumBie"},"100008094602427":{"id":"100008094602427","name":"Haken Kyujin"},"100006718418391":{"id":"100006718418391","name":"Hà Quân"},"100003769140981":{"id":"100003769140981","name":"Yun Coi"},"100001222113521":{"id":"100001222113521","name":"Tạ Thu Hường"},"100008061784579":{"id":"100008061784579","name":"Hoàng Tuấn"},"100007433622161":{"id":"100007433622161","name":"Vũ Nhất Phong"},"100000469475474":{"id":"100000469475474","name":"Hùng Nguyễn Duy"},"100000402248255":{"id":"100000402248255","name":"Quang Đặng Văn"},"100000198506906":{"id":"100000198506906","name":"Ngọc Oanh"},"100005755297709":{"id":"100005755297709","name":"Ko Hi"},"100003157796395":{"id":"100003157796395","name":"Hao Hao"},"100006134343042":{"id":"100006134343042","name":"Thân Phạm"},"100006933518153":{"id":"100006933518153","name":"Mai Hạnh Nguyễn"},"100000095655445":{"id":"100000095655445","name":"Kamiya Satoshi"},"100004877281136":{"id":"100004877281136","name":"Yuki Ori"},"100000570137523":{"id":"100000570137523","name":"Yen Hoang"},"100004185404471":{"id":"100004185404471","name":"Dang Sang"},"100002965514826":{"id":"100002965514826","name":"Cao Thị Lệ"},"100000917490385":{"id":"100000917490385","name":"Vân Anh Hoàng"},"100004589250661":{"id":"100004589250661","name":"Pé Kẹo Mút"},"100001324867342":{"id":"100001324867342","name":"Lee Dzung"},"100003181743412":{"id":"100003181743412","name":"Pham Kha"},"100005327112379":{"id":"100005327112379","name":"Guongcuoideem Dk Hanhphuk"}},"paging":{"cursors":{"after":"MTAwMDA4MDk5MzUwODkw","before":"MTAwMDA4MDk5MzUwODkw"},"next":"https://graph.facebook.com/229244010425617_852032438146768/likes?limit=1&summary=1&after=MTAwMDA4MDk5MzUwODkw"},"summary":{"total_count":54}},"comments":{"data":[{"id":"852035014813177","from":{"id":"100004624780295","name":"Rai Tei Man"},"message":"đi sang đây còn bầy đặt hút cần sa nữa thì về cho lành","can_remove":false,"created_time":"2014-04-15T14:28:40+0000","like_count":0,"user_likes":false}],"paging":{"cursors":{"after":"ODUyMDM1MDE0ODEzMTc3","before":"ODUyMDM1MDE0ODEzMTc3"},"next":"https://graph.facebook.com/229244010425617_852032438146768/comments?limit=1&summary=1&after=ODUyMDM1MDE0ODEzMTc3"},"summary":{"order":"chronological","total_count":18}}}