{"id":"229244010425617_852040798145932","type":"status","from":{"id":"100002699757700","name":"Nguyen Hien"},"message":"Dạo này không hiểu sao e nói tiếng nhật mà ng nhật k nghe được, cứ phải nghé tai lại và hỏi đi hỏi lại, e nghĩ là cách phát âm của e chưa đúng, vì vẫn đậm chất giọng việt nam( miền bắc), trưoc đây khôg bị kiểu như thế này bao giờ, gần đây không hiểu sao, anh chị nào chuyên môn tư vấn cho e về cách phát âm chuẩn để còn sửa ạ...","created_time":"2014-04-15T14:40:00+0000","updated_time":"2014-04-16T08:23:50+0000","likes":{"data":{"100003678109213":{"id":"100003678109213","name":"Mi Ngắn"},"100000309153854":{"id":"100000309153854","name":"Pham Thuong"},"100003055356509":{"id":"100003055356509","name":"Thuan Nguyen"},"100004878933796":{"id":"100004878933796","name":"Viên Đá Nhỏ"},"100005801442456":{"id":"100005801442456","name":"An Nguyen"},"100003930582015":{"id":"100003930582015","name":"Truong Van Ly"},"100000175468518":{"id":"100000175468518","name":"Chj Koj"},"100006684126951":{"id":"100006684126951","name":"Hoàn Gas"},"100003910433964":{"id":"100003910433964","name":"Le Gend"},"100002530408803":{"id":"100002530408803","name":"Khanh Linh"},"100005495773832":{"id":"100005495773832","name":"Hiền Vũ"},"100005950813340":{"id":"100005950813340","name":"Xuân Lê"},"100001666852167":{"id":"100001666852167","name":"Nguyễn Thùy Chi"},"100003165554056":{"id":"100003165554056","name":"Sâu Bét"}},"paging":{"cursors":{"after":"MTAwMDAzNjc4MTA5MjEz","before":"MTAwMDAzNjc4MTA5MjEz"},"next":"https://graph.facebook.com/229244010425617_852040798145932/likes?limit=1&summary=1&after=MTAwMDAzNjc4MTA5MjEz"},"summary":{"total_count":14}},"comments":{"data":{"852043084812370":{"id":"852043084812370","from":{"id":"100001416272263","name":"Mai PB"},"message":"1. Ghi âm lời đọc của mình rồi nghe lại, sẽ thấy có nhiều phát hiện.\n2. Xem TV nhiều, bắt chước người ta nói.","can_remove":false,"created_time":"2014-04-15T14:42:15+0000","like_count":3,"user_likes":false},"852044041478941":{"id":"852044041478941","from":{"id":"100002699757700","name":"Nguyen Hien"},"message":"có lúc e phát âm từ じょうず、きれい、mà e nói 2 3 lần người ta mới hiểu, hjx","can_remove":false,"created_time":"2014-04-15T14:44:28+0000","like_count":0,"user_likes":false},"852044591478886":{"id":"852044591478886","from":{"id":"100002699757700","name":"Nguyen Hien"},"message":"e sang 1 năm rồi mà cứ phát âm kiểu này","can_remove":false,"created_time":"2014-04-15T14:45:35+0000","like_count":0,"user_likes":false},"852044618145550":{"id":"852044618145550","from":{"id":"100001416272263","name":"Mai PB"},"message":"Học lại online xem: http://www.nhk.or.jp/lesson/vietnamese/learn/list/index.html","can_remove":false,"created_time":"2014-04-15T14:45:37+0000","like_count":1,"user_likes":false},"852045301478815":{"id":"852045301478815","from":{"id":"1725907325","name":"Nguyen Van Dung"},"message":"https://www.youtube.com/watch?v=6KgeCNXEKP8&index=3&list=PLINFE8v4DOhuJmadOWBL_9NONo8o1UhPT\n\ncoi thử đi, xem sửa được phần nào thì sửa. :)","can_remove":false,"created_time":"2014-04-15T14:47:17+0000","like_count":3,"user_likes":false},"852045634812115":{"id":"852045634812115","from":{"id":"100002699757700","name":"Nguyen Hien"},"message":"e cám ơn","can_remove":false,"created_time":"2014-04-15T14:48:20+0000","like_count":0,"user_likes":false},"852045711478774":{"id":"852045711478774","from":{"id":"100002699757700","name":"Nguyen Hien"},"message":"mong sẽ sửa dk phần nào","can_remove":false,"created_time":"2014-04-15T14:48:27+0000","like_count":0,"user_likes":false},"852124251470920":{"id":"852124251470920","from":{"id":"100002699757700","name":"Nguyen Hien"},"message":"E cám ơn a dũng, a giỏi ghê :))","can_remove":false,"created_time":"2014-04-15T17:01:33+0000","like_count":0,"user_likes":false},"852479534768725":{"id":"852479534768725","from":{"id":"100000024629190","name":"Thanh Ngọc"},"message":"Người Nhật phát âm lấy hơi trong vòm miệng nên nghe giọng nhẹ, người Việt phát âm ra từ trong cổ họng nên nghe nghe bị nặng, thêm nữa là ngữ điệu bắt chước chưa chuẩn nên dễ gây hiểu nhầm vì tiếng Nhật nhiều khi chỉ cần thay đổi ngữ điệu là đã thay đổi sang một ý nghĩa khác rồi.","can_remove":false,"created_time":"2014-04-16T03:30:49+0000","like_count":2,"user_likes":false},"852562944760384":{"id":"852562944760384","from":{"id":"100000359762118","name":"Mi Tra"},"message":"Bạn nhập từ muốn nghe vào đây rồi bắt chước theo nhé! \n\nhttp://www.gavo.t.u-tokyo.ac.jp/ojad/pages/usage_search","can_remove":false,"created_time":"2014-04-16T07:27:15+0000","like_count":6,"user_likes":false},"852573034759375":{"id":"852573034759375","from":{"id":"100001416272263","name":"Mai PB"},"message":"Link của Mi Tra hay nhỉ. Đã lưu lại vào đây.\nhttps://www.facebook.com/editdoc.php?note_id=715083001841713","message_tags":[{"id":"100000359762118","name":"Mi Tra","type":"user","offset":9,"length":6}],"can_remove":false,"created_time":"2014-04-16T08:00:57+0000","like_count":0,"user_likes":false},"852578651425480":{"id":"852578651425480","from":{"id":"100000603915176","name":"悪いな ぁ"},"message":"Luyên đâu xa, nghe người ta nói rồi bắt chước lại ấy :)","can_remove":false,"created_time":"2014-04-16T08:23:50+0000","like_count":0,"user_likes":false}},"paging":{"cursors":{"after":"ODUyMDQzMDg0ODEyMzcw","before":"ODUyMDQzMDg0ODEyMzcw"},"next":"https://graph.facebook.com/229244010425617_852040798145932/comments?limit=1&summary=1&after=ODUyMDQzMDg0ODEyMzcw"},"summary":{"order":"chronological","total_count":12}}}