{"id":"229244010425617_852023734814305","type":"photo","object_id":"10152082896991723","picture":"https://fbcdn-photos-e-a.akamaihd.net/hphotos-ak-prn1/t1.0-0/10253978_10152082896991723_9211574922526875420_s.jpg","link":"https://www.facebook.com/photo.php?fbid=10152082896991723&set=gm.852023734814305&type=1&relevant_count=1","from":{"id":"620066722","name":"Dong Khac Thai"},"message":"【Sản phẩm tiện lợi】Ly rượu bắt bạn nhậu phải uống cạn.\n\nTrong lúc nhậu nếu muốn bạn nhậu uống hết thì phải làm cách nào nhỉ?\n\nNếu dùng ly có lỗ dưới đáy thì một khi đã rót rượu thì không thể buông tay cho tới khi uống cạn.\n\nĐể biết thông tin chi tiết về loại ly này bạn hãy xem ở link bên dưới.\nhttp://item.rakuten.co.jp/kikumasa/1398847/\n\n【便利な商品】相手に飲み干させるお酒のコップ\n\n飲み会等の時に相手に飲み干させると思ったら、どうしたらいいか？\n\n底に穴が開いているコップを使えば、一度お酒を入れると、飲み干すまで手を離すことが出来ない。\n\nこのコップの詳細は下のリンクでご覧ください。\nhttp://item.rakuten.co.jp/kikumasa/1398847/","created_time":"2014-04-15T14:08:02+0000","updated_time":"2014-04-16T01:05:13+0000","likes":{"data":{"100001583032195":{"id":"100001583032195","name":"Lê Anh Hoàng"},"100000179637081":{"id":"100000179637081","name":"Hyun Hyhy"},"100001738431359":{"id":"100001738431359","name":"Phuongthao Nguyen"},"100000325921206":{"id":"100000325921206","name":"Rain Bow"},"100000747635624":{"id":"100000747635624","name":"Nguyễn Xuân Đại"},"1550521697":{"id":"1550521697","name":"Trình Nguyễn"},"100006848558742":{"id":"100006848558742","name":"Lan Đồng"},"100001850322231":{"id":"100001850322231","name":"Chuong Lee"},"100002916376886":{"id":"100002916376886","name":"Thủy Bee"},"100001789328064":{"id":"100001789328064","name":"Bùi Đức Trung"},"100002105192290":{"id":"100002105192290","name":"Tuấn Tí Tởn"},"100000308217777":{"id":"100000308217777","name":"Nguyễn Sơn Tùng"},"100001995633843":{"id":"100001995633843","name":"Yasunobu Toda"},"569263718":{"id":"569263718","name":"Phuong Thao Tran"},"100001416272263":{"id":"100001416272263","name":"Mai PB"},"1778354324":{"id":"1778354324","name":"Sơn Ken"},"100004388105916":{"id":"100004388105916","name":"Hiếu Nguyễn"},"100001687224723":{"id":"100001687224723","name":"Thịnh Ngô Văn"},"1850342062":{"id":"1850342062","name":"Chiemi Haga"},"100005024348771":{"id":"100005024348771","name":"Long Hoàng"},"100005083511331":{"id":"100005083511331","name":"Hà Huy Anh"},"100001526631937":{"id":"100001526631937","name":"Tường Oanh Mineko"},"100000309415626":{"id":"100000309415626","name":"Kona Yuki"},"100006775208082":{"id":"100006775208082","name":"Hugo Bietyeu"},"1146680551":{"id":"1146680551","name":"優しい なぁ"},"100005327112379":{"id":"100005327112379","name":"Guongcuoideem Dk Hanhphuk"},"100001678522029":{"id":"100001678522029","name":"Táo Khuyết"},"1283298041":{"id":"1283298041","name":"Búa Đức Thanh"},"100001432462223":{"id":"100001432462223","name":"Truong Nguyen"},"100001681112049":{"id":"100001681112049","name":"Lãng Tử Cô Độc"},"100006933518153":{"id":"100006933518153","name":"Mai Hạnh Nguyễn"}},"paging":{"cursors":{"after":"MTAwMDAxNTgzMDMyMTk1","before":"MTAwMDAxNTgzMDMyMTk1"},"next":"https://graph.facebook.com/229244010425617_852023734814305/likes?limit=1&summary=1&after=MTAwMDAxNTgzMDMyMTk1"},"summary":{"total_count":31}},"comments":{"data":[{"id":"852025328147479","from":{"id":"1259384895","name":"Emylyyuri Xdntd"},"message":"hay quá anh ạ!","can_remove":false,"created_time":"2014-04-15T14:11:28+0000","like_count":1,"user_likes":false}],"paging":{"cursors":{"after":"ODUyMDI1MzI4MTQ3NDc5","before":"ODUyMDI1MzI4MTQ3NDc5"},"next":"https://graph.facebook.com/229244010425617_852023734814305/comments?limit=1&summary=1&after=ODUyMDI1MzI4MTQ3NDc5"},"summary":{"order":"chronological","total_count":12}}}