{"id":"229244010425617_852347671448578","type":"photo","object_id":"479935822107007","picture":"https://fbcdn-photos-f-a.akamaihd.net/hphotos-ak-ash3/t1.0-0/10155627_479935822107007_4086767929208701302_s.jpg","link":"https://www.facebook.com/photo.php?fbid=479935822107007&set=gm.852347671448578&type=1&relevant_count=1","from":{"id":"100002717800272","name":"Hải Ngô"},"message":"mọi ngưoi cho mình hỏi các nút này sử dụng như thế nào ạ.arigatou gozaimasu","created_time":"2014-04-15T23:48:04+0000","updated_time":"2014-04-16T03:55:53+0000","likes":{"data":{"100001752293530":{"id":"100001752293530","name":"Trà Linh"},"100004288178550":{"id":"100004288178550","name":"Có Một Người"},"100002717800272":{"id":"100002717800272","name":"Hải Ngô"}},"paging":{"cursors":{"after":"MTAwMDAxNzUyMjkzNTMw","before":"MTAwMDAxNzUyMjkzNTMw"},"next":"https://graph.facebook.com/229244010425617_852347671448578/likes?limit=1&summary=1&after=MTAwMDAxNzUyMjkzNTMw"},"summary":{"total_count":3}},"comments":{"data":[{"id":"852364138113598","from":{"id":"100003633000923","name":"An Nguyễn"},"message":"Moi len tp ah","can_remove":false,"created_time":"2014-04-16T00:36:44+0000","like_count":0,"user_likes":false}],"paging":{"cursors":{"after":"ODUyMzY0MTM4MTEzNTk4","before":"ODUyMzY0MTM4MTEzNTk4"},"next":"https://graph.facebook.com/229244010425617_852347671448578/comments?limit=1&summary=1&after=ODUyMzY0MTM4MTEzNTk4"},"summary":{"order":"chronological","total_count":7}}}