{"id":"229244010425617_852492541434091","type":"status","from":{"id":"100004965605425","name":"Nàng Margaret"},"message":"Mình ở HN,e muốn liên hệ vs a/chị nào ở Nhật có thể giúp e mua đồ k ạ?vì chị e bên đấy đag đi học k tiện chuyển ạ :(","created_time":"2014-04-16T04:07:58+0000","updated_time":"2014-04-16T04:21:27+0000","likes":{"data":{"100003920610348":{"id":"100003920610348","name":"Mac Tuan"}},"paging":{"cursors":{"after":"MTAwMDAzOTIwNjEwMzQ4","before":"MTAwMDAzOTIwNjEwMzQ4"}},"summary":{"total_count":1}},"comments":{"data":[{"id":"852494171433928","from":{"id":"100000810586901","name":"TanTan Do"},"message":"Inbox mình nhé","can_remove":false,"created_time":"2014-04-16T04:13:25+0000","like_count":1,"user_likes":false}],"paging":{"cursors":{"after":"ODUyNDk0MTcxNDMzOTI4","before":"ODUyNDk0MTcxNDMzOTI4"},"next":"https://graph.facebook.com/229244010425617_852492541434091/comments?limit=1&summary=1&after=ODUyNDk0MTcxNDMzOTI4"},"summary":{"order":"chronological","total_count":2}}}