{"id":"229244010425617_852452168104795","type":"status","from":{"id":"100007012928233","name":"Không Ai"},"message":"có cách nào hoc hiệu quả tiếng Nhật với người bắt đầu học, mình sắp ra trương muốn về quê làm nhưng họ ưu tiên những người biết về tiếng Nhật nên mình muốn tự học xem tn nghe mng bảo tieng Nhật khó( mình đang luyện nói tiếng anh nữa có vẻ hơi tham nhưng mình muốn về quê làm việc gần bố mẹ) mong mng giúp đỡ, cảm ơn mng","created_time":"2014-04-16T02:17:08+0000","updated_time":"2014-04-16T03:13:32+0000","likes":{"data":{"100002999756689":{"id":"100002999756689","name":"Lắng Nghe"},"100003052986106":{"id":"100003052986106","name":"Kún ZumBie"},"100001350506106":{"id":"100001350506106","name":"Meo FuFu"},"100004413608100":{"id":"100004413608100","name":"Thanh Thu"}},"paging":{"cursors":{"after":"MTAwMDAyOTk5NzU2Njg5","before":"MTAwMDAyOTk5NzU2Njg5"},"next":"https://graph.facebook.com/229244010425617_852452168104795/likes?limit=1&summary=1&after=MTAwMDAyOTk5NzU2Njg5"},"summary":{"total_count":4}},"comments":{"data":[{"id":"852453048104707","from":{"id":"100000747635624","name":"Nguyễn Xuân Đại"},"message":"Trên mạng có khá nhiều video dạy học.Bạn hãy học theo. Tuy nhiên mình nghĩ nên đi học một hai khoá cơ bản,sau đó tự học sẽ dễ hơn.","can_remove":false,"created_time":"2014-04-16T02:20:06+0000","like_count":1,"user_likes":false}],"paging":{"cursors":{"after":"ODUyNDUzMDQ4MTA0NzA3","before":"ODUyNDUzMDQ4MTA0NzA3"},"next":"https://graph.facebook.com/229244010425617_852452168104795/comments?limit=1&summary=1&after=ODUyNDUzMDQ4MTA0NzA3"},"summary":{"order":"chronological","total_count":4}}}