{"id":"229244010425617_852403648109647","type":"status","from":{"id":"100003939942324","name":"Trung Vũ Kiên"},"message":"Có ai biết công ty du lịch nào ở tokyo làm visa đi du lịch hàn quốc không ak chỉ giúp e với ah お願いします。","created_time":"2014-04-16T02:05:55+0000","updated_time":"2014-04-16T04:02:53+0000","likes":{"data":{"100000572010533":{"id":"100000572010533","name":"Thao Vo"}},"paging":{"cursors":{"after":"MTAwMDAwNTcyMDEwNTMz","before":"MTAwMDAwNTcyMDEwNTMz"}},"summary":{"total_count":1}},"comments":{"data":[{"id":"852437624772916","from":{"id":"100008070511514","name":"PépSi Ứ Nâng Ly"},"message":"Định đi Hàn quốc 2 tuần miễn phí à cậu","can_remove":false,"created_time":"2014-04-16T02:14:17+0000","like_count":0,"user_likes":false}],"paging":{"cursors":{"after":"ODUyNDM3NjI0NzcyOTE2","before":"ODUyNDM3NjI0NzcyOTE2"},"next":"https://graph.facebook.com/229244010425617_852403648109647/comments?limit=1&summary=1&after=ODUyNDM3NjI0NzcyOTE2"},"summary":{"order":"chronological","total_count":7}}}