{"id":"229244010425617_852453984771280","type":"status","from":{"id":"100007987839652","name":"Đinh Thùy Linh"},"message":"Mình có 1 ng bác phụ trách nấu ăn trên tàu, lần này tàu đi Nhật.Bác ko biết tiếng Nhật nên gặp khó khăn trong việc phân loại, mua các loại gia vị Nhật.Có bạn nào biết chỉ giúp mình với( giúp mình viết tên các loại gia vị theo tiếng Nhật chuẩn, có hình ảnh càng tốt :) )\n1.Gói Sukitaro\n2.Nước Tare\n3.Rượu Sake \n4.Murin\n5 Bột Hondashi\n6 Viên cà ri Varmont curry\n7 Kamaboko\n8 Bột Katazuki\n9 Bột Katakuri\nMình viết theo đúng những gì bác ấy đưa nên có gì sai thông cảm nhé :)\ndoomo arigatoogozaimasu.","created_time":"2014-04-16T02:21:39+0000","updated_time":"2014-04-16T05:11:29+0000","likes":{"data":{"100000182896770":{"id":"100000182896770","name":"Luu Duy Phuong"},"100008099350890":{"id":"100008099350890","name":"Nguyễn Hùng"},"100002717800272":{"id":"100002717800272","name":"Hải Ngô"},"100006985694087":{"id":"100006985694087","name":"Bily Nguyen"},"100003113093907":{"id":"100003113093907","name":"Niềm Cake"},"100004174240497":{"id":"100004174240497","name":"Cậu Cả"},"100000543272543":{"id":"100000543272543","name":"Tôi Là Ai"},"100008109338571":{"id":"100008109338571","name":"Nami Mèo Trộm"},"100004900833193":{"id":"100004900833193","name":"Bi Tí Hon"},"100003930582015":{"id":"100003930582015","name":"Truong Van Ly"},"100000572010533":{"id":"100000572010533","name":"Thao Vo"}},"paging":{"cursors":{"after":"MTAwMDAwMTgyODk2Nzcw","before":"MTAwMDAwMTgyODk2Nzcw"},"next":"https://graph.facebook.com/229244010425617_852453984771280/likes?limit=1&summary=1&after=MTAwMDAwMTgyODk2Nzcw"},"summary":{"total_count":11}},"comments":{"data":[{"id":"852457561437589","from":{"id":"100000309415626","name":"Kona Yuki"},"message":"Số 4 là Mirin chứ nhỉ?","can_remove":false,"created_time":"2014-04-16T02:31:14+0000","like_count":2,"user_likes":false}],"paging":{"cursors":{"after":"ODUyNDU3NTYxNDM3NTg5","before":"ODUyNDU3NTYxNDM3NTg5"},"next":"https://graph.facebook.com/229244010425617_852453984771280/comments?limit=1&summary=1&after=ODUyNDU3NTYxNDM3NTg5"},"summary":{"order":"chronological","total_count":40}}}