{"id":"229244010425617_852463574770321","type":"status","from":{"id":"100003930582015","name":"Truong Van Ly"},"message":"mọi người cho mình hỏi bị viên gan b có đi du học được ko","created_time":"2014-04-16T02:50:14+0000","updated_time":"2014-04-16T12:22:39+0000","likes":{"data":{"100008167356827":{"id":"100008167356827","name":"Quyền Shinjuku"},"100000489372404":{"id":"100000489372404","name":"Phúc Bồ"},"100004100402648":{"id":"100004100402648","name":"Dap Vo Cay Dan"},"100004908941067":{"id":"100004908941067","name":"Cử Cơ"},"100005311860174":{"id":"100005311860174","name":"Vũ Văn Giang"},"100005744975477":{"id":"100005744975477","name":"Tuyết Mùa Hè"},"100008206111121":{"id":"100008206111121","name":"Nguyễn Việt"},"100002431745215":{"id":"100002431745215","name":"Miu Mơ Màng"},"100004288178550":{"id":"100004288178550","name":"Có Một Người"}},"paging":{"cursors":{"after":"MTAwMDA4MTY3MzU2ODI3","before":"MTAwMDA4MTY3MzU2ODI3"},"next":"https://graph.facebook.com/229244010425617_852463574770321/likes?limit=1&summary=1&after=MTAwMDA4MTY3MzU2ODI3"},"summary":{"total_count":9}},"comments":{"data":{"852463801436965":{"id":"852463801436965","from":{"id":"100000471304298","name":"Nguyen Xuan Cong"},"message":"có","can_remove":false,"created_time":"2014-04-16T02:51:19+0000","like_count":0,"user_likes":false},"852464091436936":{"id":"852464091436936","from":{"id":"100000471304298","name":"Nguyen Xuan Cong"},"message":"ngon, k sao hết, trừ ki bi hiv thôi :D","can_remove":false,"created_time":"2014-04-16T02:52:24+0000","like_count":0,"user_likes":false},"852464494770229":{"id":"852464494770229","from":{"id":"100000471304298","name":"Nguyen Xuan Cong"},"message":"đang định đi à","can_remove":false,"created_time":"2014-04-16T02:53:39+0000","like_count":0,"user_likes":false},"852466761436669":{"id":"852466761436669","from":{"id":"100000471304298","name":"Nguyen Xuan Cong"},"message":"ừ, vậy học tiếng chưa?","can_remove":false,"created_time":"2014-04-16T02:56:18+0000","like_count":0,"user_likes":false},"852466931436652":{"id":"852466931436652","from":{"id":"100007433622161","name":"Vũ Nhất Phong"},"message":"Dk","can_remove":false,"created_time":"2014-04-16T02:57:12+0000","like_count":0,"user_likes":false},"852467144769964":{"id":"852467144769964","from":{"id":"100003930582015","name":"Truong Van Ly"},"message":"cảm ơn bạn Vũ Nhất Phong hih","can_remove":false,"created_time":"2014-04-16T02:57:49+0000","like_count":0,"user_likes":false},"852468004769878":{"id":"852468004769878","from":{"id":"100000471304298","name":"Nguyen Xuan Cong"},"message":"he, thời gian đầu cứ phải học ở cty, trung tâm đã cho dễ sau rồi tự học cng dc","can_remove":false,"created_time":"2014-04-16T03:00:22+0000","like_count":0,"user_likes":false},"852469828103029":{"id":"852469828103029","from":{"id":"100002606750706","name":"Đức Đứng Đắn"},"message":"Đc bạn ak","can_remove":false,"created_time":"2014-04-16T03:05:32+0000","like_count":1,"user_likes":false},"852470344769644":{"id":"852470344769644","from":{"id":"100003930582015","name":"Truong Van Ly"},"message":"cám ơn bạn Đức Đứng Đắn","can_remove":false,"created_time":"2014-04-16T03:07:16+0000","like_count":2,"user_likes":false},"852470381436307":{"id":"852470381436307","from":{"id":"100000471304298","name":"Nguyen Xuan Cong"},"message":"Học từ vựng, đến ngữ pháp, rồi dịch từ tiếng việt sang tiếng nhất trong sách bản dịch và ngữ pháp ấy, rồi nghe reiben, bunkei, renshuu C, roi làm bài tập, rồi nghe mondai rồi kaiwa, tìm người cùng kaiwa là tốt nhất, mình cũng đang tư học 29 bài rồi :)) mà hay quên qá, Kanji thì ngày nào cũng viết 5-10 từ","can_remove":false,"created_time":"2014-04-16T03:07:24+0000","like_count":2,"user_likes":false},"852471708102841":{"id":"852471708102841","from":{"id":"100003930582015","name":"Truong Van Ly"},"message":"nghe  reiben, bunkei, renshuu C la j ha ban","can_remove":false,"created_time":"2014-04-16T03:09:06+0000","like_count":0,"user_likes":false},"852472071436138":{"id":"852472071436138","from":{"id":"100000471304298","name":"Nguyen Xuan Cong"},"message":"trong sách mina nihongo ấy, tải file mp3 về. đâu học ở trung tâm đến bài 16, rồi tự học","can_remove":false,"created_time":"2014-04-16T03:09:56+0000","like_count":0,"user_likes":false},"852472161436129":{"id":"852472161436129","from":{"id":"100000471304298","name":"Nguyen Xuan Cong"},"message":"á Phạm Linhkute sao lại lạc vào đây","message_tags":[{"id":"100005945851133","name":"Phạm Linhkute","type":"user","offset":2,"length":13}],"can_remove":false,"created_time":"2014-04-16T03:10:21+0000","like_count":0,"user_likes":false},"852472358102776":{"id":"852472358102776","from":{"id":"100000471304298","name":"Nguyen Xuan Cong"},"message":"chuẩn đó, từ nào dễ xào luôn cho quen :D , em h mần cj?","can_remove":false,"created_time":"2014-04-16T03:10:50+0000","like_count":0,"user_likes":false},"852472728102739":{"id":"852472728102739","from":{"id":"100000471304298","name":"Nguyen Xuan Cong"},"message":"Thì trước khi đang học dh thì thầy cũng bảo vậy học là để quên, còn học để nhớ thì chỉ để làm thầy làm cô thôi","can_remove":false,"created_time":"2014-04-16T03:11:37+0000","like_count":0,"user_likes":false},"852473228102689":{"id":"852473228102689","from":{"id":"100004452123869","name":"Pham Tiên Bach"},"message":"có đi được bạn nhé.nếu bạn đi du học thì có thể liên lạc với mình ,mình làm tại simco Song DA cty mình đang tuyên đợt tháng 10 .","can_remove":false,"created_time":"2014-04-16T03:13:12+0000","like_count":0,"user_likes":false},"852474098102602":{"id":"852474098102602","from":{"id":"100000471304298","name":"Nguyen Xuan Cong"},"message":"hè, thì a đầu tháng 7 là đi rồi, thi sao dc :))","can_remove":false,"created_time":"2014-04-16T03:15:25+0000","like_count":0,"user_likes":false},"852474251435920":{"id":"852474251435920","from":{"id":"100004296428209","name":"Cu Cau"},"message":"Co","can_remove":false,"created_time":"2014-04-16T03:15:57+0000","like_count":1,"user_likes":false},"852474634769215":{"id":"852474634769215","from":{"id":"100004452123869","name":"Pham Tiên Bach"},"message":"học ít nhất là phải biết 25 bài cơ bản không thì qua nhật chỉ khổ mình thôi ,biết nhiều tiêng thì xin việc tôt hơn người không biêt tiêng cac bạn nhe","can_remove":false,"created_time":"2014-04-16T03:16:56+0000","like_count":0,"user_likes":false},"852474764769202":{"id":"852474764769202","from":{"id":"100000471304298","name":"Nguyen Xuan Cong"},"message":"đang cố cày nốt cho hết 50 bài mà nhác quá, k có k.khi học hành :)) Tháng 7 là 1 năm 9 tháng","can_remove":false,"created_time":"2014-04-16T03:17:22+0000","like_count":0,"user_likes":false},"852474924769186":{"id":"852474924769186","from":{"id":"100004452123869","name":"Pham Tiên Bach"},"message":"đi đọt nào cung đươc 6nam ,đi thang 7 học tiêng 1 năm 9 thang ,đi thang 10 học tiêng 1 năm 6 thang đi thang 1 học tieng 1 nam 3 thang ban nhe","can_remove":false,"created_time":"2014-04-16T03:18:01+0000","like_count":0,"user_likes":false},"852475074769171":{"id":"852475074769171","from":{"id":"100003930582015","name":"Truong Van Ly"},"message":"e","can_remove":false,"created_time":"2014-04-16T03:18:38+0000","like_count":0,"user_likes":false},"852475514769127":{"id":"852475514769127","from":{"id":"100000471304298","name":"Nguyen Xuan Cong"},"message":"trước hết là học tiếng, sau thì tùy nhu cầu mà đăng ký. học nghề, cao đẳng, đại học, cao học... Mình đang học bài 30","can_remove":false,"created_time":"2014-04-16T03:19:41+0000","like_count":0,"user_likes":false},"852476254769053":{"id":"852476254769053","from":{"id":"100003930582015","name":"Truong Van Ly"},"message":"ko phải trường nào cũng nhân viên gan b ah bạn Phạm Linhkute","can_remove":false,"created_time":"2014-04-16T03:22:15+0000","like_count":0,"user_likes":false},"852476618102350":{"id":"852476618102350","from":{"id":"100000471304298","name":"Nguyen Xuan Cong"},"message":"a rồi dc tháng rồi, trường heisei ở saitama","can_remove":false,"created_time":"2014-04-16T03:23:21+0000","like_count":0,"user_likes":false},"852477231435622":{"id":"852477231435622","from":{"id":"100003930582015","name":"Truong Van Ly"},"message":"truong ban di co phai thi phong van ko ban Nguyen Xuan cong","can_remove":false,"created_time":"2014-04-16T03:25:09+0000","like_count":0,"user_likes":false},"852477504768928":{"id":"852477504768928","from":{"id":"100000471304298","name":"Nguyen Xuan Cong"},"message":"Có chứ, hầu như họ đều p.v nhưng nếu mà hồ sơ nộp mụn thì k, P.v trường thì k có gì đâu, quan trọng là nyukan ấy","can_remove":false,"created_time":"2014-04-16T03:26:09+0000","like_count":0,"user_likes":false},"852477621435583":{"id":"852477621435583","from":{"id":"100005945851133","name":"Phạm Linhkute"},"message":"vay ạ,chak a hoc chak lam jui.jj","can_remove":false,"created_time":"2014-04-16T03:26:27+0000","like_count":0,"user_likes":false},"852477744768904":{"id":"852477744768904","from":{"id":"100000471304298","name":"Nguyen Xuan Cong"},"message":"eck đang hổng kiến thức đây","can_remove":false,"created_time":"2014-04-16T03:26:49+0000","like_count":0,"user_likes":false},"852479304768748":{"id":"852479304768748","from":{"id":"100003930582015","name":"Truong Van Ly"},"message":"nuykan là gì hả bạn Nguyễn Xuân Cong","message_tags":[{"id":"100001804185531","name":"Cong","type":"user","offset":32,"length":4}],"can_remove":false,"created_time":"2014-04-16T03:30:05+0000","like_count":0,"user_likes":false},"852479571435388":{"id":"852479571435388","from":{"id":"100000471304298","name":"Nguyen Xuan Cong"},"message":"K rõ :)) hình như là cục quản lý xuất nhập cảnh ở Nhật bản, nơi cấp COE cho ae du học sinh, tu nghiệp sinh :))","can_remove":false,"created_time":"2014-04-16T03:31:01+0000","like_count":0,"user_likes":false},"852479668102045":{"id":"852479668102045","from":{"id":"100004452123869","name":"Pham Tiên Bach"},"message":"nyuukan hình như  vào tù","can_remove":false,"created_time":"2014-04-16T03:31:26+0000","like_count":0,"user_likes":false},"852483724768306":{"id":"852483724768306","from":{"id":"100003833933967","name":"Nguyễn Dương"},"message":"Đi hết","can_remove":false,"created_time":"2014-04-16T03:43:29+0000","like_count":1,"user_likes":false},"852511294765549":{"id":"852511294765549","from":{"id":"100003075823746","name":"Strong Cuong"},"message":"Mình đã học xong 25 bài nhưng học qua để đi thi nattest. Nắm đc 70%.\nNên học lại hay học lên quyển 2 nhỉ??","can_remove":false,"created_time":"2014-04-16T05:06:12+0000","like_count":0,"user_likes":false},"852539198096092":{"id":"852539198096092","from":{"id":"100003640960503","name":"Li Na"},"message":"Có","can_remove":false,"created_time":"2014-04-16T05:55:03+0000","like_count":1,"user_likes":false},"852545571428788":{"id":"852545571428788","from":{"id":"100006003193699","name":"Quynhchau Ha"},"message":"ko","can_remove":false,"created_time":"2014-04-16T06:16:57+0000","like_count":0,"user_likes":false},"852545971428748":{"id":"852545971428748","from":{"id":"100000471304298","name":"Nguyen Xuan Cong"},"message":"bạn cứ qua cty tư vấn du học, hỏi thì chắc chắn hơn","can_remove":false,"created_time":"2014-04-16T06:18:33+0000","like_count":0,"user_likes":false},"852547098095302":{"id":"852547098095302","from":{"id":"100000958631804","name":"Toan Nguyen"},"message":"chịu khó học thì nhanh thôi bạn àh","can_remove":false,"created_time":"2014-04-16T06:23:03+0000","like_count":0,"user_likes":false},"852594868090525":{"id":"852594868090525","from":{"id":"100007253222055","name":"Nguyễn Việt Dương Hà"},"message":"Ơ. Các anh chị ơi. Em thắc mắc lắm. Viên gan b là ko đi du học được mà","can_remove":false,"created_time":"2014-04-16T09:19:56+0000","like_count":0,"user_likes":false},"852595451423800":{"id":"852595451423800","from":{"id":"100007253222055","name":"Nguyễn Việt Dương Hà"},"message":"Em có 1 ng thân bị viên gan b. Đi khám họ ns ksao cả, ko phải lo lắng. Chỉ ko đi ra nc ngoài đk thôi còn cứ sinh hoạt bình thường. Thế là sao ạ? Anh chị giải thích cho em với","can_remove":false,"created_time":"2014-04-16T09:22:08+0000","like_count":0,"user_likes":false},"852618614754817":{"id":"852618614754817","from":{"id":"100003181743412","name":"Pham Kha"},"message":"Đi bth du học n ko ktra sk","can_remove":false,"created_time":"2014-04-16T10:07:56+0000","like_count":0,"user_likes":false},"852662714750407":{"id":"852662714750407","from":{"id":"100006803468897","name":"Maria Maria"},"message":"Viêm gan B có thể lây qua đường giao tiếp không ạ?anh chị làm ơn,em vừa đọc tin nhắn của 1 bạn bị viêm gan B.làm ơn cho em hỏi luôn cách phòng tránh và chữa viêm gan B","can_remove":false,"created_time":"2014-04-16T11:58:22+0000","like_count":0,"user_likes":false},"852673168082695":{"id":"852673168082695","from":{"id":"100007253222055","name":"Nguyễn Việt Dương Hà"},"message":"Mình nghĩ k lây qua đường giao tiếp đâu","can_remove":false,"created_time":"2014-04-16T12:22:39+0000","like_count":1,"user_likes":false}},"paging":{"cursors":{"after":"ODUyNDYzODAxNDM2OTY1","before":"ODUyNDYzODAxNDM2OTY1"},"next":"https://graph.facebook.com/229244010425617_852463574770321/comments?limit=1&summary=1&after=ODUyNDYzODAxNDM2OTY1"},"summary":{"order":"chronological","total_count":43}}}