{"id":"229244010425617_852499798100032","type":"video","object_id":"524747060967520","picture":"https://fbcdn-vthumb-a.akamaihd.net/hvthumb-ak-ash3/t15.0-10/1976023_524747457634147_524747060967520_38851_1492_t.jpg","link":"https://fbcdn-video-a.akamaihd.net/hvideo-ak-frc1/v/t42.1790-2/10273634_524747434300816_683470548_n.mp4?oh=172ed1fe91a99b612ce31ec468033027&oe=535141CD&__gda__=1397861554_b5188e1ccbef0373fa7016005f17edd7","source":"https://fbcdn-video-a.akamaihd.net/hvideo-ak-frc1/v/t42.1790-2/10273634_524747434300816_683470548_n.mp4?oh=172ed1fe91a99b612ce31ec468033027&oe=535141CD&__gda__=1397861554_b5188e1ccbef0373fa7016005f17edd7","from":{"id":"100002966928087","name":"Nguyen van Dat"},"message":"SOCK CẢNH ĐI TÀU ĐIỆN Ở NHẬT\nnói thật cao to đen hôi như em mà đi xong tí nữa ngất.:V\n,giờ cao điểm","created_time":"2014-04-16T04:30:50+0000","updated_time":"2014-04-16T16:22:54+0000","likes":{"data":{"100001917485436":{"id":"100001917485436","name":"Cun Mit"},"1146680551":{"id":"1146680551","name":"優しい なぁ"},"100008099350890":{"id":"100008099350890","name":"Nguyễn Hùng"},"100003250099399":{"id":"100003250099399","name":"Đảng Phương"},"100003209525149":{"id":"100003209525149","name":"Nguyen Phuong"},"100007963510767":{"id":"100007963510767","name":"Lam van Hoa"},"100002907830115":{"id":"100002907830115","name":"NgàyXưa Mình NgoanLắm"},"100004536125153":{"id":"100004536125153","name":"Hoàng Đàn"},"100004850880414":{"id":"100004850880414","name":"Nguyen Lam"},"100007806284139":{"id":"100007806284139","name":"Đặng Yên"},"100007903567494":{"id":"100007903567494","name":"ベトナムの ビュイ"},"100003211776567":{"id":"100003211776567","name":"Kụ Đính"},"100003553243152":{"id":"100003553243152","name":"Oanh Nguyen"},"100003182421680":{"id":"100003182421680","name":"Manh Pham"},"100001643901807":{"id":"100001643901807","name":"Nguyễn Xuân Tùng"},"100003940625251":{"id":"100003940625251","name":"Vô Tình"},"100000655383199":{"id":"100000655383199","name":"Huy Hoang"},"100004421253649":{"id":"100004421253649","name":"Nguyen Dung NB"},"100002157379029":{"id":"100002157379029","name":"Nguyen Hai Dung"},"100006436037655":{"id":"100006436037655","name":"Ngo Na"},"100001744184866":{"id":"100001744184866","name":"Cường Nguyễn"},"100005121093576":{"id":"100005121093576","name":"Hao Hao"},"100004699423965":{"id":"100004699423965","name":"Dang Doan"},"100003769265756":{"id":"100003769265756","name":"Kim Nien"},"100000148600266":{"id":"100000148600266","name":"Tamomi Chan"},"100008167356827":{"id":"100008167356827","name":"Quyền Shinjuku"},"100001705570585":{"id":"100001705570585","name":"Nguyễn Linh"},"100003765750895":{"id":"100003765750895","name":"Ken Thiếu Gia"},"100006473177600":{"id":"100006473177600","name":"Mít Ướt"},"100004936573663":{"id":"100004936573663","name":"Ba Phat"},"100004642933206":{"id":"100004642933206","name":"Aloha Aloha"},"100007756088326":{"id":"100007756088326","name":"Trung Pham"},"100003161424746":{"id":"100003161424746","name":"Tam Mao"},"569263718":{"id":"569263718","name":"Phuong Thao Tran"},"100004101469900":{"id":"100004101469900","name":"Boy Bướng Bỉnh"},"100008062957263":{"id":"100008062957263","name":"Tsunemori Akane"},"100005630321105":{"id":"100005630321105","name":"Can Phong Bang"},"100004116213155":{"id":"100004116213155","name":"Giàng A Páo"},"100004072866570":{"id":"100004072866570","name":"Nguyen Kong Hung"},"100004460831749":{"id":"100004460831749","name":"Quynh Cap"},"100001678522029":{"id":"100001678522029","name":"Táo Khuyết"},"100006533318497":{"id":"100006533318497","name":"Linh Loan"},"100002235953037":{"id":"100002235953037","name":"Cỏ Không Lá"},"100001257093338":{"id":"100001257093338","name":"Hanh Dang"},"100004446452343":{"id":"100004446452343","name":"Nguyễn Quốc Khánh"},"100004445826984":{"id":"100004445826984","name":"Ong Noi Viet"},"100003732529410":{"id":"100003732529410","name":"Huong Dang"},"100000276407198":{"id":"100000276407198","name":"Tady Nguyen"},"100004288178550":{"id":"100004288178550","name":"Có Một Người"},"100002912978945":{"id":"100002912978945","name":"Feliz Novia"},"100006220207000":{"id":"100006220207000","name":"Hoa Anh Dao"},"100000245098200":{"id":"100000245098200","name":"Nguyễn Trường Giang"},"100004951622639":{"id":"100004951622639","name":"Quang Tung"},"100003698475998":{"id":"100003698475998","name":"Nguyen Cuong"},"100004254661893":{"id":"100004254661893","name":"Anh Là Tú"},"100007843684593":{"id":"100007843684593","name":"Thang Tran"},"100000917490385":{"id":"100000917490385","name":"Vân Anh Hoàng"},"100003780948776":{"id":"100003780948776","name":"Sâu Đặng"},"100004775977451":{"id":"100004775977451","name":"Thanhngoc Nguyen"},"100000302315094":{"id":"100000302315094","name":"Lang Thang"},"100001786404410":{"id":"100001786404410","name":"Huệ Nguyễn"},"100007019461021":{"id":"100007019461021","name":"Bac Quang"},"100005024348771":{"id":"100005024348771","name":"Long Hoàng"},"100007297363152":{"id":"100007297363152","name":"Luu Huong"},"100007987839652":{"id":"100007987839652","name":"Đinh Thùy Linh"},"100002419566054":{"id":"100002419566054","name":"Khánh Toàn"},"100002765402691":{"id":"100002765402691","name":"Trúc Lâm"},"100004007955342":{"id":"100004007955342","name":"Thăng Kim"},"100001205935041":{"id":"100001205935041","name":"Vu Thao"},"100007979951892":{"id":"100007979951892","name":"Hà Mạc"},"100004348001227":{"id":"100004348001227","name":"Lâm Gia Kiu"},"100003623661411":{"id":"100003623661411","name":"Hyena Ren"},"100007629041409":{"id":"100007629041409","name":"Trần Trung Hiếu"},"100000266645289":{"id":"100000266645289","name":"Quy D Duong"},"100003898395957":{"id":"100003898395957","name":"Hưng Vũ"},"100001407027028":{"id":"100001407027028","name":"Thanh Tùng"},"100001194582135":{"id":"100001194582135","name":"Nguyễn Thu Hồng"},"100007744597374":{"id":"100007744597374","name":"Lee Nguyễn"},"100003561194121":{"id":"100003561194121","name":"Duc Anh Le"},"100005597670688":{"id":"100005597670688","name":"Vô Tình"},"100000343384845":{"id":"100000343384845","name":"Jenny NG"},"100006481129923":{"id":"100006481129923","name":"Ngan Long"},"100001707977128":{"id":"100001707977128","name":"Nguyễn Thủy"},"100007951448708":{"id":"100007951448708","name":"Luong Hien"},"100004320154140":{"id":"100004320154140","name":"Tình Yêu Hoa Hồng"},"100002963737004":{"id":"100002963737004","name":"Hà Phùng"},"100000100770463":{"id":"100000100770463","name":"Lê Thanh Hùng"},"100000315752724":{"id":"100000315752724","name":"Do Van Tham"},"100004409010627":{"id":"100004409010627","name":"Diep Quynh Anh"},"100004263913728":{"id":"100004263913728","name":"Kyo Rin"},"100004099960501":{"id":"100004099960501","name":"Hiền Nguyễn"},"100003525367976":{"id":"100003525367976","name":"Le Than"},"100006734168968":{"id":"100006734168968","name":"Tiểu Nhân Mã"},"100000309153854":{"id":"100000309153854","name":"Pham Thuong"},"100001754136107":{"id":"100001754136107","name":"Nguyễn Tuấn Vũ"},"100004075308762":{"id":"100004075308762","name":"Lie Lie"},"100008206111121":{"id":"100008206111121","name":"Nguyễn Việt"},"100003763768548":{"id":"100003763768548","name":"Nguyễn Dũng"},"100003966455899":{"id":"100003966455899","name":"Sóc Nhí"},"100001359798024":{"id":"100001359798024","name":"November Gi"},"1629517470":{"id":"1629517470","name":"Nguyen Thi Thanh Van"},"100007168031772":{"id":"100007168031772","name":"Oanh Kieu"},"100004081061001":{"id":"100004081061001","name":"Hoàng Hương"},"100006474302616":{"id":"100006474302616","name":"Thái Hoàng Anh"},"100003977703228":{"id":"100003977703228","name":"Ki Yu"},"100004799080964":{"id":"100004799080964","name":"Kokoro Mitsubishi"},"100005664395451":{"id":"100005664395451","name":"Su Su"},"100003250657085":{"id":"100003250657085","name":"Nhất Kiếm Vô Tình"},"100003181743412":{"id":"100003181743412","name":"Pham Kha"},"100001441648308":{"id":"100001441648308","name":"Ly Loan"},"100000054665103":{"id":"100000054665103","name":"John Nguyễn"},"100002966928087":{"id":"100002966928087","name":"Nguyen van Dat"}},"paging":{"cursors":{"after":"MTAwMDAxOTE3NDg1NDM2","before":"MTAwMDAxOTE3NDg1NDM2"},"next":"https://graph.facebook.com/229244010425617_852499798100032/likes?limit=1&summary=1&after=MTAwMDAxOTE3NDg1NDM2"},"summary":{"total_count":112}},"comments":{"data":{"852501564766522":{"id":"852501564766522","from":{"id":"100003398911005","name":"Họ Tạ Tên Nam"},"message":"đã từ rất lâu rồi :v nhưng h đi vẫn đau lưng lắm :(","can_remove":false,"created_time":"2014-04-16T04:37:23+0000","like_count":1,"user_likes":false},"852501838099828":{"id":"852501838099828","from":{"id":"100003827874808","name":"Bố Trẻ Con"},"message":"công nhận vui hơn xe bus của VN mình. đi xe bus mình còn k có ai ấn đây đi tàu điện ở 1 nước văn minh mà lại bị ấn như xe trở lợn của VN  hay chăng đây là cách rèn luyện thể lực cho mấy chú bảo vệ ở đó nhỉ?","can_remove":false,"created_time":"2014-04-16T04:38:14+0000","like_count":2,"user_likes":false},"852502158099796":{"id":"852502158099796","from":{"id":"100002966928087","name":"Nguyen van Dat"},"message":"giờ cao điểm thôi Bố Trẻ Con à","message_tags":[{"id":"100003827874808","name":"Bố Trẻ Con","type":"user","offset":18,"length":10}],"can_remove":false,"created_time":"2014-04-16T04:39:02+0000","like_count":0,"user_likes":false},"852502558099756":{"id":"852502558099756","from":{"id":"100003827874808","name":"Bố Trẻ Con"},"message":"hi :v VN mình cũng chỉ có giờ cao điểm xe bus mới bị nhồi nhét. nhưng mà được cái k có mấy chú  bảo vệ tập thể lực kia","can_remove":false,"created_time":"2014-04-16T04:40:36+0000","like_count":0,"user_likes":false},"852503564766322":{"id":"852503564766322","from":{"id":"100003827874808","name":"Bố Trẻ Con"},"message":"thế sao lúc nay k bị coi là \" kẻ biến thái\" nhỉ. mình nhớ là có lần trên cộng đồng có bài nói tình huống tránh khi đi tàu điện k thì k may trở thành \" biến thái\" và được mấy chú CS hỏi thăm đó.","can_remove":false,"created_time":"2014-04-16T04:43:17+0000","like_count":0,"user_likes":false},"852505284766150":{"id":"852505284766150","from":{"id":"100000747635624","name":"Nguyễn Xuân Đại"},"message":"Khổ nhỉ.không tin nổi.","can_remove":false,"created_time":"2014-04-16T04:48:50+0000","like_count":0,"user_likes":false},"852505354766143":{"id":"852505354766143","from":{"id":"100000048296076","name":"Anh Trần"},"message":"đây là trường hợp biến thái đc cho phép :v thích ko","can_remove":false,"created_time":"2014-04-16T04:49:01+0000","like_count":0,"user_likes":false},"852505921432753":{"id":"852505921432753","from":{"id":"100003827874808","name":"Bố Trẻ Con"},"message":"thôi em chịu. chẳng may lại được mấy chú CS mời về đồn chơi lại mệt. bác có hứng thì nhào vô nhào vô. :v","can_remove":false,"created_time":"2014-04-16T04:50:45+0000","like_count":0,"user_likes":false},"852506241432721":{"id":"852506241432721","from":{"id":"100004441321299","name":"Ngôn Phi"},"message":"Đùa à làm gì có","can_remove":false,"created_time":"2014-04-16T04:51:46+0000","like_count":0,"user_likes":false},"852506468099365":{"id":"852506468099365","from":{"id":"100002966928087","name":"Nguyen van Dat"},"message":"lên tokio","can_remove":false,"created_time":"2014-04-16T04:52:20+0000","like_count":0,"user_likes":false},"852506651432680":{"id":"852506651432680","from":{"id":"100002966928087","name":"Nguyen van Dat"},"message":"tầm 7h sang xem.hoac 5h chiêu","can_remove":false,"created_time":"2014-04-16T04:52:37+0000","like_count":0,"user_likes":false},"852508881432457":{"id":"852508881432457","from":{"id":"100005664395451","name":"Su Su"},"message":"dã man  :(","can_remove":false,"created_time":"2014-04-16T04:57:57+0000","like_count":0,"user_likes":false},"852508928099119":{"id":"852508928099119","from":{"id":"100005471975386","name":"Thu Hà Đồng Thị"},"message":"ối đùa à ?may mà ngày trước mình ko ở những chỗ phải thế này ...sợ thế","can_remove":false,"created_time":"2014-04-16T04:58:22+0000","like_count":0,"user_likes":false},"852509104765768":{"id":"852509104765768","from":{"id":"100001096615529","name":"Thuong Nguyen"},"message":"Kinh thế^^","can_remove":false,"created_time":"2014-04-16T04:59:03+0000","like_count":0,"user_likes":false},"852510938098918":{"id":"852510938098918","from":{"id":"100003977703228","name":"Ki Yu"},"message":"😅😅😅 ai mà đi học sáng, nhà xa thì cảnh này nhìn thấy nhiều là cái chắc. 😅😅😅 trc ở xa tớ cũng nhìn thấy mấy vụ. Khà khà.","can_remove":false,"created_time":"2014-04-16T05:04:47+0000","like_count":0,"user_likes":false},"852514091431936":{"id":"852514091431936","from":{"id":"100003171672878","name":"Tầu Heo"},"message":"Vãi chuong","can_remove":false,"created_time":"2014-04-16T05:14:32+0000","like_count":0,"user_likes":false},"852514551431890":{"id":"852514551431890","from":{"id":"100003583455476","name":"Huong Lan"},"message":"Có cả mấy vụ nhét người như thế này ah. E cũng đi học giờ cao điểm nhưng chưa thấy bao giờ. Xem xong sock thật","can_remove":false,"created_time":"2014-04-16T05:15:32+0000","like_count":0,"user_likes":false},"852515571431788":{"id":"852515571431788","from":{"id":"100003977703228","name":"Ki Yu"},"message":"Mọi người ko hiểu tại sao họ phải ấn thì nên tìm hiểu chứ đừng nói ko tốt. \nThứ nhất: người đi tàu ko lên dc chuyến tà đó thì nguy cơ muộn giờ làm là rất cao, nên họ tự nguyện lên tàu dù rất rất đông.\nThứ 2: nếu ko ấn thì cửa ko thể đóng, ko thể đóng thì tàu cứ phải dừng, nếu cửa mở mà tà chạy sẽ rất rất nguy hiểm!!!!!! mà cứ dừng thì cứ muộn hết chuyến này đến chuyến khác,... Mà muộn hết chuyến này đến chuyến khác thì hậu quả là muộn giờ làm giờ học giờ hẹn,....... Rất nhiều việc..... \nVì vậy họ nhồi người vào họ ko hề thích nhưng người đi ko chịu xuống đi chuyến sau thì đương nhiên họ phải hỗ trợ hành khách bằng cách đó!!!","can_remove":false,"created_time":"2014-04-16T05:19:35+0000","like_count":4,"user_likes":false},"852516308098381":{"id":"852516308098381","from":{"id":"100005471975386","name":"Thu Hà Đồng Thị"},"message":"thì đương nhiên bạn Ki Yu không phải mọi người không hiểu cái lý do bạn nói ...toàn dân ở Nhật sao lại ko biết chuyện giờ giấc nhưng quả thật không thể tưởng tượng được là khủng đến vậy","can_remove":false,"created_time":"2014-04-16T05:22:21+0000","like_count":1,"user_likes":false},"852518148098197":{"id":"852518148098197","from":{"id":"100000309153854","name":"Pham Thuong"},"message":"ôi. bẹp hết cả người ý nhỉ.","can_remove":false,"created_time":"2014-04-16T05:26:35+0000","like_count":1,"user_likes":false},"852520468097965":{"id":"852520468097965","from":{"id":"100000024629190","name":"Thanh Ngọc"},"message":"Quen rồi :)))","can_remove":false,"created_time":"2014-04-16T05:29:58+0000","like_count":1,"user_likes":false},"852520981431247":{"id":"852520981431247","from":{"id":"100004099960501","name":"Hiền Nguyễn"},"message":"khiếp quá.sợ hơn đi xe bus việt nam","can_remove":false,"created_time":"2014-04-16T05:31:08+0000","like_count":1,"user_likes":false},"852523478097664":{"id":"852523478097664","from":{"id":"100000024629190","name":"Thanh Ngọc"},"message":"Tránh ở gần mấy ga trung tâm là ksao :v","can_remove":false,"created_time":"2014-04-16T05:36:07+0000","like_count":1,"user_likes":false},"852527571430588":{"id":"852527571430588","from":{"id":"824089766","name":"Le Dai"},"message":"Các bác móc túi VN sang đây thì đúng thiên đường rồi :v","can_remove":false,"created_time":"2014-04-16T05:37:40+0000","like_count":4,"user_likes":false},"852536198096392":{"id":"852536198096392","from":{"id":"100006089102969","name":"カメ 悪い"},"message":"Ko ấn thì bao h mới đóng đc cái cửa tàu :s\nH cao điểm ở tokyo tuyến 山手 nó cứ 1 phút 30 đến 2 phút 1 chuyến\nKo ấn thì có biết đình trệ bn chuyến tàu ko ?","can_remove":false,"created_time":"2014-04-16T05:45:12+0000","like_count":1,"user_likes":false},"852537868096225":{"id":"852537868096225","from":{"id":"100006089102969","name":"カメ 悪い"},"message":"P/s đoạn thứ 2 tàu có sơn vàng là ở ga 御茶ノ水 ai 乗り換え từ 総武線 sang 中央線快速 thì phát hãi về cái cảm giác nguy hiểm =))","can_remove":false,"created_time":"2014-04-16T05:51:31+0000","like_count":0,"user_likes":false},"852543541428991":{"id":"852543541428991","from":{"id":"100003802620412","name":"Cun Con"},"message":"Hiroshi Fujita 真的嗎？","message_tags":[{"id":"1358804488","name":"Hiroshi Fujita","type":"user","offset":0,"length":14}],"can_remove":false,"created_time":"2014-04-16T06:09:21+0000","like_count":0,"user_likes":false},"852551238094888":{"id":"852551238094888","from":{"id":"100003819626894","name":"Yen Luu"},"message":"Ui troi oi","can_remove":false,"created_time":"2014-04-16T06:41:52+0000","like_count":0,"user_likes":false},"852551491428196":{"id":"852551491428196","from":{"id":"100000217003431","name":"Khoa Đinh"},"message":"Nhét cứng ngắt thế kia không di chuyển đc sao mà móc túi hả bác :))","can_remove":false,"created_time":"2014-04-16T06:43:17+0000","like_count":0,"user_likes":false},"852552121428133":{"id":"852552121428133","from":{"id":"100007979951892","name":"Hà Mạc"},"message":"Quá là điều bình thường","can_remove":false,"created_time":"2014-04-16T06:45:26+0000","like_count":0,"user_likes":false},"852558238094188":{"id":"852558238094188","from":{"id":"100005938593327","name":"Duyen Tran"},"message":"Day có phải là sự thật ko. Sợ  quá","can_remove":false,"created_time":"2014-04-16T07:07:49+0000","like_count":0,"user_likes":false},"852563858093626":{"id":"852563858093626","from":{"id":"100004005830479","name":"Lam School"},"message":"Tady Nguyen cho chị xem nhé","message_tags":[{"id":"100000276407198","name":"Tady Nguyen","type":"user","offset":0,"length":11}],"can_remove":false,"created_time":"2014-04-16T07:29:06+0000","like_count":1,"user_likes":false},"852565358093476":{"id":"852565358093476","from":{"id":"100003971304832","name":"Nguyễn Xuân"},"message":"ngất thật :)))))","can_remove":false,"created_time":"2014-04-16T07:33:34+0000","like_count":0,"user_likes":false},"852566701426675":{"id":"852566701426675","from":{"id":"100007987839652","name":"Đinh Thùy Linh"},"message":"Bily Nguyen này thì Nhật","message_tags":[{"id":"100006985694087","name":"Bily Nguyen","type":"user","offset":0,"length":11}],"can_remove":false,"created_time":"2014-04-16T07:37:57+0000","like_count":1,"user_likes":false},"852573451426000":{"id":"852573451426000","from":{"id":"100007019461021","name":"Bac Quang"},"message":"Ở ga nào vậy,vãi lều","can_remove":false,"created_time":"2014-04-16T08:03:01+0000","like_count":0,"user_likes":false},"852576581425687":{"id":"852576581425687","from":{"id":"100005396618355","name":"Ông Nội Mày Đây"},"message":"hốt luôn nhật mới nhẽo","can_remove":false,"created_time":"2014-04-16T08:15:49+0000","like_count":0,"user_likes":false},"852578841425461":{"id":"852578841425461","from":{"id":"100003698475998","name":"Nguyen Cuong"},"message":"hay đấy","can_remove":false,"created_time":"2014-04-16T08:24:27+0000","like_count":0,"user_likes":false},"852603251423020":{"id":"852603251423020","from":{"id":"100003733592186","name":"Tuyền Lucy"},"message":"kinh khủng","can_remove":false,"created_time":"2014-04-16T09:38:10+0000","like_count":0,"user_likes":false},"852605144756164":{"id":"852605144756164","from":{"id":"100000687662713","name":"Vu Thi Man"},"message":"Mình gặp vụ như thế này mấy lần rồi. Lúc đầu cũng thấy rất shock.","can_remove":false,"created_time":"2014-04-16T09:42:26+0000","like_count":0,"user_likes":false},"852629684753710":{"id":"852629684753710","from":{"id":"1725907325","name":"Nguyen Van Dung"},"message":"clip này vào những năm 80. Bây giờ thì không đến nỗi như thế này nữa.\nTuy nhiễn vẫn hãi hùng lắm. :(","can_remove":false,"created_time":"2014-04-16T10:34:01+0000","like_count":0,"user_likes":false},"852634261419919":{"id":"852634261419919","from":{"id":"100000193104491","name":"Hac Nguyet"},"message":"Nhồi như nhồi thịt, sao chẳng thấy tí văn hóa Nhật nào = =||","can_remove":false,"created_time":"2014-04-16T10:48:47+0000","like_count":0,"user_likes":false},"852640408085971":{"id":"852640408085971","from":{"id":"100005804586628","name":"Huyền Phạm"},"message":"Ở đâu mà bá đạo vậy bạn","can_remove":false,"created_time":"2014-04-16T11:05:48+0000","like_count":0,"user_likes":false},"852640648085947":{"id":"852640648085947","from":{"id":"100007799523767","name":"Meo Luoi"},"message":"Minh chua thay bjo","can_remove":false,"created_time":"2014-04-16T11:06:28+0000","like_count":0,"user_likes":false},"852642321419113":{"id":"852642321419113","from":{"id":"100000687662713","name":"Vu Thi Man"},"message":"Minh gap o Osaka ca JR lan 地下鉄","can_remove":false,"created_time":"2014-04-16T11:10:42+0000","like_count":0,"user_likes":false},"852644478085564":{"id":"852644478085564","from":{"id":"100007908613496","name":"Nguyễn Phương"},"message":"ui troi.dao duc nhat dau het roi?nhet the nay ai chiu noi","can_remove":false,"created_time":"2014-04-16T11:16:47+0000","like_count":0,"user_likes":false},"852650581418287":{"id":"852650581418287","from":{"id":"100002966928087","name":"Nguyen van Dat"},"message":"ngày trước mình đi tokio orawoa đông quá mà đến nơi không xuống được,qua mất 3 ga rồi bắt ngươcj lại,kinh khủng khiếp","can_remove":false,"created_time":"2014-04-16T11:31:15+0000","like_count":0,"user_likes":false},"852680514748627":{"id":"852680514748627","from":{"id":"100003727300034","name":"Vương Dung"},"message":"Tin dc ko","can_remove":false,"created_time":"2014-04-16T12:39:04+0000","like_count":0,"user_likes":false},"852697958080216":{"id":"852697958080216","from":{"id":"100004421253649","name":"Nguyen Dung NB"},"message":"Vãi hơn cả vn","can_remove":false,"created_time":"2014-04-16T13:22:09+0000","like_count":0,"user_likes":false},"852713634745315":{"id":"852713634745315","from":{"id":"100001643901807","name":"Nguyễn Xuân Tùng"},"message":"Vãi quá hic,may chưa gặp cảnh này bao giờ^^","can_remove":false,"created_time":"2014-04-16T14:01:49+0000","like_count":0,"user_likes":false},"852715308078481":{"id":"852715308078481","from":{"id":"100003486467129","name":"YU GI"},"message":"Hôm nọ mới gặp ở shinjuku xong","can_remove":false,"created_time":"2014-04-16T14:06:12+0000","like_count":0,"user_likes":false},"852718368078175":{"id":"852718368078175","from":{"id":"100003553243152","name":"Oanh Nguyen"},"message":"E không tin nổi vào mắt mình khi xem xong.😱, khủng khiếp thật!","can_remove":false,"created_time":"2014-04-16T14:13:29+0000","like_count":1,"user_likes":false},"852718564744822":{"id":"852718564744822","from":{"id":"100003211776567","name":"Kụ Đính"},"message":"dồi heo","can_remove":false,"created_time":"2014-04-16T14:14:07+0000","like_count":1,"user_likes":false},"852719098078102":{"id":"852719098078102","from":{"id":"1741100435","name":"Vo Chuoichien"},"message":"Trần Hà Trang vo^ xem ne``","message_tags":[{"id":"100002241298896","name":"Trần Hà Trang","type":"user","offset":0,"length":13}],"can_remove":false,"created_time":"2014-04-16T14:15:39+0000","like_count":0,"user_likes":false},"852722188077793":{"id":"852722188077793","from":{"id":"100003211776567","name":"Kụ Đính"},"message":"cái này ở Việt Nam! bọn móc túi mừng lắm đây.bên này toàn xài ví dài...lọt 1 sư phụ thì...","can_remove":false,"created_time":"2014-04-16T14:21:24+0000","like_count":1,"user_likes":false},"852726441410701":{"id":"852726441410701","from":{"id":"100007088316046","name":"Tho Anh"},"message":"Viet Nam cung ko co cai canh nhu bay  sợ wa","can_remove":false,"created_time":"2014-04-16T14:32:20+0000","like_count":0,"user_likes":false},"852746054742073":{"id":"852746054742073","from":{"id":"100002907830115","name":"NgàyXưa Mình NgoanLắm"},"message":"ao vai~","can_remove":false,"created_time":"2014-04-16T15:09:09+0000","like_count":0,"user_likes":false},"852753914741287":{"id":"852753914741287","from":{"id":"100003209525149","name":"Nguyen Phuong"},"message":"Gio cao diem kinh khung that!!! Khiepppp","can_remove":false,"created_time":"2014-04-16T15:24:43+0000","like_count":0,"user_likes":false},"852782181405127":{"id":"852782181405127","from":{"id":"100005557419433","name":"Quý Đặng Đắc"},"message":"winrar sẽ giải nén các bạn","can_remove":false,"created_time":"2014-04-16T16:22:54+0000","like_count":1,"user_likes":false}},"paging":{"cursors":{"after":"ODUyNTAxNTY0NzY2NTIy","before":"ODUyNTAxNTY0NzY2NTIy"},"next":"https://graph.facebook.com/229244010425617_852499798100032/comments?limit=1&summary=1&after=ODUyNTAxNTY0NzY2NTIy"},"summary":{"order":"chronological","total_count":58}}}