{"id":"229244010425617_852500511433294","type":"status","from":{"id":"100007843895950","name":"Hột Mít"},"message":"Cho em hỏi là 1 từ rồi ghép \"か\", nói hạ giọng xuống 1 chút, là sao ạ. \nEm muốn học nhiều hơn về văn nói nên dạo này em hỏi hơi nhiều mong mọi người thông cảm, giúp dùm em ạ.","created_time":"2014-04-16T04:33:25+0000","updated_time":"2014-04-16T04:51:52+0000","comments":{"data":[{"id":"852505458099466","from":{"id":"100003816642768","name":"Ngôi Sao May Mắn"},"message":"Kiu như ý of m nghĩ điều j đó là đúng. Mún nhận đc sự đồng tính of đối fuong. Thỳ ngta hay dùng như vậy. Vdu như : 可愛いじゃないか?( ko fai dễ thương lắm sao?)kiu như vậy. M kung đoán zay thui. Hi","can_remove":false,"created_time":"2014-04-16T04:49:07+0000","like_count":1,"user_likes":false}],"paging":{"cursors":{"after":"ODUyNTA1NDU4MDk5NDY2","before":"ODUyNTA1NDU4MDk5NDY2"},"next":"https://graph.facebook.com/229244010425617_852500511433294/comments?limit=1&summary=1&after=ODUyNTA1NDU4MDk5NDY2"},"summary":{"order":"chronological","total_count":2}},"likes":{"data":[]}}