{"id":"229244010425617_852683554748323","type":"status","from":{"id":"100008206111121","name":"Nguyễn Việt"},"message":"Nhà mình có ai ở sakai osaka không vậy?làm quen đi.....","created_time":"2014-04-16T12:46:37+0000","updated_time":"2014-04-16T13:10:45+0000","likes":{"data":{"100004915360462":{"id":"100004915360462","name":"Phamtuyen Pc"},"100008099350890":{"id":"100008099350890","name":"Nguyễn Hùng"},"100006907235659":{"id":"100006907235659","name":"Thao Van"},"100004134600593":{"id":"100004134600593","name":"Kien Pham"},"100006679260773":{"id":"100006679260773","name":"Quynh Tram Pham"},"100004429141369":{"id":"100004429141369","name":"Trang Smile"},"100004296930204":{"id":"100004296930204","name":"Lan Trương"},"100004750471215":{"id":"100004750471215","name":"Alacuop Alacuop"},"100006425951505":{"id":"100006425951505","name":"Anh Tú"},"100006113144074":{"id":"100006113144074","name":"Hà Phương"}},"paging":{"cursors":{"after":"MTAwMDA0OTE1MzYwNDYy","before":"MTAwMDA0OTE1MzYwNDYy"},"next":"https://graph.facebook.com/229244010425617_852683554748323/likes?limit=1&summary=1&after=MTAwMDA0OTE1MzYwNDYy"},"summary":{"total_count":10}},"comments":{"data":[{"id":"852683778081634","from":{"id":"100006113144074","name":"Hà Phương"},"message":"Chính e","can_remove":false,"created_time":"2014-04-16T12:47:02+0000","like_count":0,"user_likes":false}],"paging":{"cursors":{"after":"ODUyNjgzNzc4MDgxNjM0","before":"ODUyNjgzNzc4MDgxNjM0"},"next":"https://graph.facebook.com/229244010425617_852683554748323/comments?limit=1&summary=1&after=ODUyNjgzNzc4MDgxNjM0"},"summary":{"order":"chronological","total_count":2}}}