{"id":"229244010425617_852655658084446","type":"photo","object_id":"242475279274795","picture":"https://fbcdn-photos-d-a.akamaihd.net/hphotos-ak-prn2/t1.0-0/10264427_242475279274795_5406718007998252876_s.jpg","link":"https://www.facebook.com/photo.php?fbid=242475279274795&set=gm.852655658084446&type=1&relevant_count=1","from":{"id":"100005369739565","name":"Namkansai Phung"},"message":"Có bạn nào biết ở Nagoya đổi bằng lái xe máy và thi bằng lái ở đâu ko, nói địa chỉ giúp mình với. Cám ơn mọi người nhiều","created_time":"2014-04-16T11:45:37+0000","updated_time":"2014-04-16T13:12:09+0000","likes":{"data":{"100001622952165":{"id":"100001622952165","name":"Mít Ướt"},"100008099350890":{"id":"100008099350890","name":"Nguyễn Hùng"},"100003669115614":{"id":"100003669115614","name":"Lê Tươi"},"100006171510945":{"id":"100006171510945","name":"Le Loi"},"100004414865755":{"id":"100004414865755","name":"Duyệt Saky"}},"paging":{"cursors":{"after":"MTAwMDAxNjIyOTUyMTY1","before":"MTAwMDAxNjIyOTUyMTY1"},"next":"https://graph.facebook.com/229244010425617_852655658084446/likes?limit=1&summary=1&after=MTAwMDAxNjIyOTUyMTY1"},"summary":{"total_count":5}},"comments":{"data":[{"id":"852683028081709","from":{"id":"100000810586901","name":"TanTan Do"},"message":"Mình đổi ở hamatsutsu","can_remove":false,"created_time":"2014-04-16T12:45:10+0000","like_count":1,"user_likes":false}],"paging":{"cursors":{"after":"ODUyNjgzMDI4MDgxNzA5","before":"ODUyNjgzMDI4MDgxNzA5"},"next":"https://graph.facebook.com/229244010425617_852655658084446/comments?limit=1&summary=1&after=ODUyNjgzMDI4MDgxNzA5"},"summary":{"order":"chronological","total_count":6}}}