{"id":"229244010425617_852634218086590","type":"photo","object_id":"10152084339281723","picture":"https://fbcdn-photos-c-a.akamaihd.net/hphotos-ak-prn2/t1.0-0/1509894_10152084339281723_1441777593418780432_s.jpg","link":"https://www.facebook.com/photo.php?fbid=10152084339281723&set=gm.852634218086590&type=1&relevant_count=1","from":{"id":"620066722","name":"Dong Khac Thai"},"message":"【Bức hình góc phố】Ga không người\n\nNếu nói tới nhà ga ở Tokyo thì thường thấy bóng dáng bước nhanh của những hành khách, xung quanh ga vây quanh bởi nhà dân hoặc khu buôn bán.\n\nTuy nhiên ở đâu đó ở Tokyo cũng có thể thấy được sân ga không người như đang ẩn giữa thiên nhiên.\n\nKhi đó như có cảm giác bài hát \"Ga không người \" mình yêu thích vang lên:\n\n\"Nếu tôi có mất đi nữa\nThì cũng không ai để ý\nCũng không ai có thể để ý\nBước xuống sân ga không người\"\n\nhttp://m.youtube.com/watch?v=k3XKz63ODrw\n\nGa Hatonosu tháng 4\n\n【街角写真】無人駅\n\n東京の駅と言ったら、早く歩く乗客の姿が多いし、駅の周りは商店街と住宅街に囲まれることがほとんど。\n\n でも東京のどこかに自然の中に隠れているような無人駅が見えることもある。\n\nその時は好きな「無人駅」の歌が流れているような気がした。\n\n「私なんかいなくなっても\nそう誰も気づかない気づかれない\n途中下車するのは\n無人駅」\n\nhttp://m.youtube.com/watch?v=k3XKz63ODrw\n\n鳩ノ巣駅 4月\n\n※日本語で間違った所あるいは不自然な表現がありましたら、教えてください。\nありがとうございます。","created_time":"2014-04-16T10:48:31+0000","updated_time":"2014-04-16T13:38:33+0000","likes":{"data":{"100001754136107":{"id":"100001754136107","name":"Nguyễn Tuấn Vũ"},"100007063057870":{"id":"100007063057870","name":"神谷大和"},"658961834":{"id":"658961834","name":"To Pham Ha Trieu"},"100000182896770":{"id":"100000182896770","name":"Luu Duy Phuong"},"1799371931":{"id":"1799371931","name":"Vichini Nhan"},"100004248757225":{"id":"100004248757225","name":"Có Lẽ Nào"},"100000045271667":{"id":"100000045271667","name":"Nam Thai Nguyen"},"100004294620502":{"id":"100004294620502","name":"Miu Nguyen"},"100008099350890":{"id":"100008099350890","name":"Nguyễn Hùng"},"100002975299796":{"id":"100002975299796","name":"Trinh Tuan Anh"},"1318895018":{"id":"1318895018","name":"Van T Tran"},"100003209525149":{"id":"100003209525149","name":"Nguyen Phuong"},"100002615664668":{"id":"100002615664668","name":"PuPu Phương Elf"},"100000098177754":{"id":"100000098177754","name":"Quái Vật"},"100004111384246":{"id":"100004111384246","name":"Khoa Khoa"},"100001786404410":{"id":"100001786404410","name":"Huệ Nguyễn"},"100001526631937":{"id":"100001526631937","name":"Tường Oanh Mineko"},"100003630011306":{"id":"100003630011306","name":"Ki Wi"},"100007779160957":{"id":"100007779160957","name":"Nắng Ấm Xa Dần"},"100003901630275":{"id":"100003901630275","name":"Phạm Quang Lợi"},"100000022163023":{"id":"100000022163023","name":"Kafe Ore"},"100004111591117":{"id":"100004111591117","name":"Chiến Thân"},"100002053089445":{"id":"100002053089445","name":"Mai Thanh"},"1146680551":{"id":"1146680551","name":"優しい なぁ"},"100000265363169":{"id":"100000265363169","name":"Mít Sờ Kul"},"100007744597374":{"id":"100007744597374","name":"Lee Nguyễn"},"100001995633843":{"id":"100001995633843","name":"Yasunobu Toda"},"100002439260522":{"id":"100002439260522","name":"Gái Nguyễn"},"100004048310209":{"id":"100004048310209","name":"Rong Vang"},"100003084870026":{"id":"100003084870026","name":"Nguyễn Hiền"},"100006529381413":{"id":"100006529381413","name":"Nhien Nhi Nho"},"100005327112379":{"id":"100005327112379","name":"Guongcuoideem Dk Hanhphuk"},"100003855159339":{"id":"100003855159339","name":"Duyngan DO"},"100004068499416":{"id":"100004068499416","name":"Thanh Nguyễn"},"100006848558742":{"id":"100006848558742","name":"Lan Đồng"},"100004589250661":{"id":"100004589250661","name":"Pé Kẹo Mút"},"100005814217210":{"id":"100005814217210","name":"Huỳnh Anh Tùng"},"100000148600266":{"id":"100000148600266","name":"Tamomi Chan"},"100006817085154":{"id":"100006817085154","name":"Tieu Thanh"},"100003635542977":{"id":"100003635542977","name":"Không Để Ý"},"100002691020065":{"id":"100002691020065","name":"Kẹo Cảm Xúc Maruko"},"100007938450435":{"id":"100007938450435","name":"Miruku Chokoreeto"},"569263718":{"id":"569263718","name":"Phuong Thao Tran"},"100001416272263":{"id":"100001416272263","name":"Mai PB"},"100003671803669":{"id":"100003671803669","name":"Tojika Sakura"},"100004351478036":{"id":"100004351478036","name":"Ngán Cái Cuộc Đời"},"100007746038878":{"id":"100007746038878","name":"Xia Wu"},"100000201080884":{"id":"100000201080884","name":"TLinh Le"},"100003189755733":{"id":"100003189755733","name":"Vương Phương"},"100001691646722":{"id":"100001691646722","name":"Nguyễn Văn Anh"},"1239353532":{"id":"1239353532","name":"Trần Công"},"100007987333915":{"id":"100007987333915","name":"Đoàn Đại"},"100004198780939":{"id":"100004198780939","name":"Trần Kim Anh"},"100007879952991":{"id":"100007879952991","name":"Thow  Low"}},"paging":{"cursors":{"after":"MTAwMDAxNzU0MTM2MTA3","before":"MTAwMDAxNzU0MTM2MTA3"},"next":"https://graph.facebook.com/229244010425617_852634218086590/likes?limit=1&summary=1&after=MTAwMDAxNzU0MTM2MTA3"},"summary":{"total_count":54}},"comments":{"data":{"852640598085952":{"id":"852640598085952","from":{"id":"100006089102969","name":"カメ 悪い"},"message":"Tây tokyo :v","can_remove":false,"created_time":"2014-04-16T11:06:19+0000","like_count":0,"user_likes":false},"852642318085780":{"id":"852642318085780","from":{"id":"620066722","name":"Dong Khac Thai"},"message":"カメ 悪い: đúng rùi đó e, nó ở khu 奥多摩 phía tây của Tokyo.","message_tags":[{"id":"100006089102969","name":"カメ 悪い","type":"user","offset":0,"length":5}],"can_remove":false,"created_time":"2014-04-16T11:10:41+0000","like_count":0,"user_likes":false},"852642781419067":{"id":"852642781419067","from":{"id":"100006089102969","name":"カメ 悪い"},"message":"青梅線 rồi @_@","can_remove":false,"created_time":"2014-04-16T11:11:47+0000","like_count":1,"user_likes":false},"852644694752209":{"id":"852644694752209","from":{"id":"100001416272263","name":"Mai PB"},"message":"Sở dĩ có 無人駅 vì có sự tự giác cao độ, và có lòng tin vào con người.","can_remove":false,"created_time":"2014-04-16T11:17:21+0000","like_count":1,"user_likes":false},"852645121418833":{"id":"852645121418833","from":{"id":"620066722","name":"Dong Khac Thai"},"message":"Mai PB: chỗ ga này ít tàu nên thường tới lúc tàu chạy mới có khách a.","message_tags":[{"id":"100001416272263","name":"Mai PB","type":"user","offset":0,"length":6}],"can_remove":false,"created_time":"2014-04-16T11:18:49+0000","like_count":0,"user_likes":false},"852645991418746":{"id":"852645991418746","from":{"id":"100001416272263","name":"Mai PB"},"message":"Anh không biết ga này thế nào, nhưng 無人駅 thường là không có cả nhân viên cơ.","can_remove":false,"created_time":"2014-04-16T11:20:42+0000","like_count":0,"user_likes":false},"852647228085289":{"id":"852647228085289","from":{"id":"620066722","name":"Dong Khac Thai"},"message":"Chỗ này lúc đến buổi trưa e thấy nhân viên mà về lúc 5g chiều thì   phòng nhân viên đóng cửa luôn.","can_remove":false,"created_time":"2014-04-16T11:23:39+0000","like_count":2,"user_likes":false},"852692378080774":{"id":"852692378080774","from":{"id":"620066722","name":"Dong Khac Thai"},"message":"Chi Nghia Dong: Tuyến 青梅線（おうめせん）, nối từ tachikawa tới okutama đó bạn.","can_remove":false,"created_time":"2014-04-16T13:08:34+0000","like_count":0,"user_likes":false},"852699494746729":{"id":"852699494746729","from":{"id":"100001995633843","name":"Yasunobu Toda"},"message":"無人駅には、旅情がある。\n私も大好きです。","can_remove":false,"created_time":"2014-04-16T13:26:27+0000","like_count":0,"user_likes":false},"852704278079584":{"id":"852704278079584","from":{"id":"100002478064521","name":"Toàn Ngô Trọng"},"message":"Buổi trưa mà ntn =))","can_remove":false,"created_time":"2014-04-16T13:38:33+0000","like_count":2,"user_likes":false}},"paging":{"cursors":{"after":"ODUyNjQwNTk4MDg1OTUy","before":"ODUyNjQwNTk4MDg1OTUy"},"next":"https://graph.facebook.com/229244010425617_852634218086590/comments?limit=1&summary=1&after=ODUyNjQwNTk4MDg1OTUy"},"summary":{"order":"chronological","total_count":10}}}