{"id":"229244010425617_852801254736553","type":"status","from":{"id":"100000178017604","name":"Hà Nội Yêu"},"message":"Lòng tốt phải đúng chỗ các mem nha","created_time":"2014-04-16T16:57:34+0000","updated_time":"2014-04-16T23:51:16+0000","likes":{"data":{"100001441648308":{"id":"100001441648308","name":"Ly Loan"},"100001324611896":{"id":"100001324611896","name":"Meo Luoi"},"100001114549932":{"id":"100001114549932","name":"Bui Thanh Hung"},"100005902955365":{"id":"100005902955365","name":"Thu Hằng"},"100005630321105":{"id":"100005630321105","name":"Can Phong Bang"},"100007855482283":{"id":"100007855482283","name":"Tuan Anh"},"100002157379029":{"id":"100002157379029","name":"Nguyen Hai Dung"},"100004010352646":{"id":"100004010352646","name":"Hoài Thu"},"100006184234950":{"id":"100006184234950","name":"Thế Nhút"},"100007164185177":{"id":"100007164185177","name":"Tuyết Rơi Mùa Hè"},"1341670471":{"id":"1341670471","name":"An Nguyen"},"100005436431918":{"id":"100005436431918","name":"Camel Nguyen"},"100007977461407":{"id":"100007977461407","name":"Thiên Hoàng"},"100000315752724":{"id":"100000315752724","name":"Do Van Tham"},"100000796738619":{"id":"100000796738619","name":"Kim Anh"},"100005311860174":{"id":"100005311860174","name":"Vũ Văn Giang"},"100004215127894":{"id":"100004215127894","name":"Danh Nguyen"},"100001159262691":{"id":"100001159262691","name":"Phuong Nguyen"},"1711640225":{"id":"1711640225","name":"Kwan Piapeng"},"100007585322887":{"id":"100007585322887","name":"Trung Bui"},"100000182896770":{"id":"100000182896770","name":"Luu Duy Phuong"},"1283298041":{"id":"1283298041","name":"Búa Đức Thanh"},"100003282697164":{"id":"100003282697164","name":"Nguyễn Văn Vương"},"100005775182411":{"id":"100005775182411","name":"Tuấn Milo"},"100007088316046":{"id":"100007088316046","name":"Tho Anh"},"100004687775863":{"id":"100004687775863","name":"Gấu Của Anh"},"100006520422672":{"id":"100006520422672","name":"Le Dung"},"100002975299796":{"id":"100002975299796","name":"Trinh Tuan Anh"},"100005703455641":{"id":"100005703455641","name":"Shiro Emon"},"100008110685884":{"id":"100008110685884","name":"Kim Dp"},"100000067699837":{"id":"100000067699837","name":"Nguyễn Hải Phong"},"100003790715286":{"id":"100003790715286","name":"Công Pham"},"100004316791472":{"id":"100004316791472","name":"Huong Nguyễn"},"100002939968163":{"id":"100002939968163","name":"Ngo Van Duong"},"100005570016402":{"id":"100005570016402","name":"Nguyễn Lừng"},"100000110765909":{"id":"100000110765909","name":"Thảo Nguyễn"},"100005828342497":{"id":"100005828342497","name":"Bee Boo"}},"paging":{"cursors":{"after":"MTAwMDAxNDQxNjQ4MzA4","before":"MTAwMDAxNDQxNjQ4MzA4"},"next":"https://graph.facebook.com/229244010425617_852801254736553/likes?limit=1&summary=1&after=MTAwMDAxNDQxNjQ4MzA4"},"summary":{"total_count":37}},"comments":{"data":{"852942771389068":{"id":"852942771389068","from":{"id":"100000600815626","name":"KqlTwo MeoHen"},"message":"Hoỏng cù loòng mìn giật... :v","can_remove":false,"created_time":"2014-04-16T22:39:13+0000","like_count":0,"user_likes":false},"852946761388669":{"id":"852946761388669","from":{"id":"100003275921481","name":"Vũ Thanh Tùng"},"message":"Kwan Piapeng","message_tags":[{"id":"1711640225","name":"Kwan Piapeng","type":"user","offset":0,"length":12}],"can_remove":false,"created_time":"2014-04-16T22:50:01+0000","like_count":0,"user_likes":false},"852966601386685":{"id":"852966601386685","from":{"id":"1341670471","name":"An Nguyen"},"message":"Vấn đề k biết chỗ nào đúng để đặt :(","can_remove":false,"created_time":"2014-04-16T23:51:16+0000","like_count":0,"user_likes":false}},"paging":{"cursors":{"after":"ODUyOTQyNzcxMzg5MDY4","before":"ODUyOTQyNzcxMzg5MDY4"},"next":"https://graph.facebook.com/229244010425617_852801254736553/comments?limit=1&summary=1&after=ODUyOTQyNzcxMzg5MDY4"},"summary":{"order":"chronological","total_count":3}}}